x	Duration	RSS	HeapTotal	HeapUsed	External
0	NA	153255936	114438144	21392200	24992
1	2.260904	153255936	114438144	22069112	24992
2	1.602939	153255936	114438144	23407016	24992
3	2.321969	153255936	114438144	25404160	24992
4	2.920132	153255936	114438144	28060712	24992
5	3.699616	153255936	114438144	31377240	24992
6	4.598438	153255936	114438144	35353112	24992
7	5.968987	153255936	114438144	23548000	24992
8	5.997021	153255936	114438144	28842680	24992
9	6.540084	153255936	114438144	34797736	24992
10	8.279563	153255936	114438144	25007072	24992
11	8.230223	153255936	114438144	32281016	24992
12	10.778354	153255936	114438144	23801240	24992
13	10.059962	153255936	114438144	32393904	24992
14	11.20821	153255936	114438144	25214440	24992
15	11.172391	153255936	114438144	35125904	24992
16	12.768134	153255936	114438144	29273144	24992
17	13.570829	153255936	114438144	24070184	24992
18	13.160352	153255936	114438144	35961752	24992
19	14.853387	153255936	114438144	32074568	24992
20	15.72388	153255936	114438144	28859544	24992
21	16.352065	153255936	114438144	26293432	24992
22	17.187825	153255936	114438144	24380232	24992
23	17.990105	153255936	114438144	23129464	24992
24	18.535438	153255936	114438144	22540272	24992
25	19.525944	153255936	114438144	22612520	24992
26	20.190437	153255936	114438144	23346360	24992
27	20.713353	153255936	114438144	24741688	24992
28	21.372869	153255936	114438144	26798624	24992
29	22.509417	153255936	114438144	29516136	24992
30	23.025063	153255936	114438144	32895224	24992
31	24.649989	153255936	114438144	20478800	24992
32	24.500656	153255936	114438144	25152728	24992
33	24.888436	153255936	114438144	30525992	24992
34	26.405135	153255936	114438144	36560056	24992
35	28.049828	153255936	114438144	26787328	24992
36	27.589921	153255936	114438144	34119520	24992
37	29.247624	153255936	114438144	25688376	24992
38	29.309536	153255936	114438144	34332192	24992
39	30.851359	153255936	114438144	27230232	24992
40	30.439182	153255936	114438144	37194512	24992
41	32.191477	153255936	114438144	31369000	24992
42	33.606875	153255936	114438144	26254712	24992
43	33.911115	153255936	114438144	21760200	24992
44	33.220331	153255936	114438144	34367248	24992
45	35.37915	153255936	114438144	31239496	24992
46	35.915683	153255936	114438144	28733256	24992
47	36.765725	153255936	114438144	26884888	24992
48	37.475822	153255936	114438144	25698064	24992
49	38.132477	153255936	114438144	25173544	24992
50	39.653557	153255936	114438144	25311320	24992
51	39.708081	153255936	114438144	26111096	24992
52	40.912938	153255936	114438144	27572944	24992
53	41.499257	153255936	114438144	29695320	24992
54	41.944356	153255936	114438144	32479688	24992
55	42.526708	153255936	114438144	35925560	24992
56	44.445384	153255936	114438144	23539728	24992
57	43.77899	153255936	114438144	28309096	24992
58	44.650108	153255936	114438144	33739560	24992
59	46.647207	153255936	114438144	23339504	24992
60	46.002707	153255936	114438144	30091696	24992
61	47.091163	153255936	114438144	37507080	24992
62	49.42355	153255936	114438144	29091032	24992
63	48.726594	153255936	114438144	37831688	24992
64	50.656825	153255936	114438144	30739264	24992
65	51.577638	153255936	114438144	24317992	24992
66	51.795597	153255936	114438144	35045880	24992
67	52.932696	153255936	114438144	29956296	24992
68	54.53769	153255936	114438144	25533504	24992
69	53.31278	153255936	114438144	38253304	24992
70	55.458314	153255936	114438144	35148520	24992
71	56.872639	153255936	114438144	32705240	24992
72	57.157879	153255936	114438144	30925552	24992
73	57.711955	153255936	114438144	29794568	24992
74	59.199065	153255936	114438144	29330768	24992
75	59.408447	153255936	114438144	29532400	24992
76	60.213014	153255936	114438144	30395800	24992
77	60.972587	153255936	114438144	31920256	24992
78	61.256933	153255936	114438144	34103104	24992
79	62.489596	153255936	114438144	36940256	24992
80	63.013025	153255936	114438144	40437144	24992
81	66.547505	153255936	114438144	28130728	24992
82	64.642716	153255936	114438144	32964616	24992
83	66.502125	153255936	114438144	38466760	24992
84	67.949815	153255936	114438144	28126608	24992
85	67.127926	153255936	114438144	34945320	24992
86	67.559277	153255936	114438144	42421816	24992
87	70.772578	153255936	114438144	34059592	24992
88	69.208471	153255936	114438144	42859328	24992
89	72.419034	153255936	114438144	35821560	24992
90	72.940545	153255936	114438144	29449624	24992
91	71.485418	153255936	114438144	40230776	24992
92	74.405294	153255936	114438144	35187632	24992
93	74.96117	153255936	114438144	30800312	24992
94	74.700919	153255936	114438144	43566488	24992
95	76.940532	153255936	114438144	40507672	24992
96	77.999514	153255936	114438144	38110800	24992
97	78.396968	153255936	114438144	36373408	24992
98	79.12406	153255936	114438144	35290968	24992
99	80.282521	153255936	114438144	34866456	24992
100	82.378344	153255936	114438144	35108840	24992
101	81.870216	153255936	114438144	36012952	24992
102	82.756982	153255936	114438144	37573240	24992
103	83.372063	153255936	114438144	39795304	24992
104	83.759062	153255936	114438144	42681456	24992
105	86.929093	153255936	114438144	29747968	24992
106	86.328369	153255936	114438144	33965712	24992
107	86.740763	153255936	114438144	38845136	24992
108	87.755235	153255936	114438144	44375272	24992
109	90.785478	153255936	114438144	34084784	24992
110	90.908049	153255936	114438144	40949328	24992
111	93.771416	153255936	114438144	31975448	24992
112	91.64392	153255936	114438144	40163040	24992
113	94.836518	153255936	114438144	32506120	24992
114	93.194392	153255936	114438144	42017624	24992
115	95.983713	153255936	114438144	35697912	24992
116	94.965651	153255936	114438144	46533008	24992
117	98.365444	153255936	114438144	41536760	24992
118	99.295734	153526272	114438144	37188968	24992
119	100.16461	153526272	114962432	33513480	24992
120	97.348488	153796608	114962432	46995008	24992
121	101.229906	153796608	114962432	44644104	24992
122	102.257626	154066944	114962432	42955416	24992
123	102.897496	154066944	114962432	41922144	24992
124	103.360308	154066944	114962432	41544264	24992
125	104.213238	154066944	114962432	41827856	24992
126	105.340476	154066944	114962432	42773104	24992
127	107.17821	154066944	114962432	44380112	24992
128	108.18246	154066944	114962432	46657744	24992
129	107.89714	154066944	114962432	49615904	24992
130	111.844391	154066944	114962432	36740736	24992
131	110.675292	154066944	115486720	41019808	24992
132	111.241893	154337280	115486720	45954752	24992
133	111.501977	154337280	115486720	51558568	24992
134	115.273361	154607616	115486720	41329016	24992
135	113.372781	154877952	116011008	48254104	24992
136	117.665617	154877952	116011008	39347648	24992
137	115.845027	155148288	116011008	47597736	24992
138	119.275188	155148288	116535296	40014648	24992
139	117.57683	155418624	116535296	49586936	24992
140	122.025634	155418624	116535296	43326960	24992
141	131.22543	154116096	114962432	17548776	24992
142	104.471702	154116096	114962432	29008816	24992
143	105.263314	154116096	114962432	24628616	24992
144	106.48854	154116096	114962432	20911864	24992
145	107.200627	154116096	114962432	17842888	24992
146	107.181737	154116096	114962432	15446176	24992
147	108.783235	154116096	114962432	30207640	24992
148	109.586433	154116096	114962432	29134728	24992
149	113.472754	154116096	114962432	28724584	24992
150	110.717153	154116096	114962432	28975776	24992
151	112.535711	154116096	114962432	29888088	24992
152	113.127842	154116096	114962432	31463128	24992
153	114.615769	154116096	114962432	17200672	24992
154	115.619045	154116096	114962432	20102336	24992
155	115.188613	154116096	114962432	23765536	24992
156	115.54942	154116096	114962432	28080048	24992
157	116.64962	154116096	114962432	16573456	24992
158	117.71216	154116096	114962432	22222280	24992
159	118.137895	154116096	114962432	28526808	24992
160	119.746788	154116096	114962432	19005576	24992
161	120.32151	154116096	114962432	26640152	24992
162	122.12791	154116096	114962432	18435896	24992
163	122.656372	154116096	114962432	27393024	24992
164	123.989919	154116096	114962432	20512432	24992
165	124.669079	154116096	114962432	30795432	24992
166	126.648514	154116096	114962432	25244096	24992
167	128.294675	153219072	114962432	20415984	24992
168	129.018071	153219072	114962432	32697680	24992
169	129.397756	153485312	114962432	29148064	24992
170	130.969775	153485312	114962432	26236936	24992
171	131.444581	153485312	114962432	23981128	24992
172	132.085394	153485312	114962432	22397888	24992
173	133.244696	153485312	114962432	21476584	24992
174	133.818456	153485312	114962432	37711672	24992
175	135.240981	153485312	114962432	38113000	24992
176	137.23206	153485312	114962432	22681216	24992
177	137.806064	153485312	114962432	24406296	24992
178	138.193852	153485312	114962432	26794584	24992
179	138.989983	153485312	114962432	29843704	24992
180	140.243963	153485312	114962432	33543552	24992
181	141.113456	153485312	114962432	37917656	24992
182	142.666085	153485312	114962432	26459560	24992
183	142.756271	153485312	114962432	32155480	24992
184	144.067546	153485312	114962432	38502080	24992
185	146.486343	153485312	114962432	29027064	24992
186	146.516083	153485312	114962432	36707480	24992
187	150.310859	153485312	114962432	28564992	24992
188	148.679264	153485312	114962432	37570008	24992
189	151.914732	153485312	114962432	30751088	24992
190	150.821469	153485312	114962432	41077472	24992
191	155.315757	153485312	114962432	35570640	24992
192	154.266665	153485312	114962432	30714952	24992
193	153.696952	153485312	114962432	43027584	24992
194	159.285922	153485312	114962432	39508608	24992
195	157.323578	153485312	114962432	36650224	24992
196	158.531944	153485312	114962432	34441032	24992
197	160.992268	153485312	114962432	32893296	24992
198	160.603937	153485312	114962432	32017840	24992
199	161.518004	153485312	114962432	31804800	24992
200	164.242669	153485312	114962432	32253896	24992
201	164.917762	153485312	114962432	33363920	24992
202	164.92259	153485312	114962432	35135600	24992
203	167.43957	153485312	114962432	37568128	24992
204	168.197231	153485312	114962432	40651832	24992
205	168.209294	153485312	114962432	44403368	24992
206	169.871052	153485312	114962432	48822872	24992
207	173.97915	153755648	115486720	37407256	24992
208	171.764792	154025984	116011008	43147904	24992
209	173.485524	154296320	116011008	49552232	24992
210	176.791852	154566656	116535296	40123496	24992
211	175.590813	154836992	116535296	47842040	24992
212	179.473856	155107328	117059584	39736800	24992
213	176.829195	155377664	117059584	48781392	24992
214	181.255445	155648000	117583872	41999248	24992
215	180.517527	155918336	117583872	52361840	24992
216	185.242967	156188672	118108160	46903240	24992
217	185.343041	156459008	118108160	42106480	24992
218	187.591537	153583616	114962432	17503664	24992
219	163.17248	153583616	114962432	13889528	24992
220	163.218402	153583616	114962432	27427848	24992
221	164.455725	153583616	114962432	25136576	24992
222	163.947083	153583616	114962432	23489816	24992
223	164.207983	153583616	114962432	22503280	24992
224	165.99909	153583616	114962432	22165152	24992
225	166.055827	153583616	114962432	22488840	24992
226	165.998342	153583616	114962432	23474456	24992
227	168.577353	153583616	114962432	25135944	24992
228	168.354041	153583616	114962432	27617512	24992
229	170.057461	153583616	114962432	30769320	24992
230	171.691226	153583616	114962432	18079424	24992
231	172.968997	153583616	114962432	22544520	24992
232	174.753226	153583616	114962432	27659496	24992
233	175.987127	153583616	114962432	33456808	24992
234	178.44828	153583616	115486720	23419088	24992
235	178.606124	153853952	115486720	30520984	24992
236	181.257738	154124288	115486720	21808424	24992
237	182.075606	154124288	115486720	30267888	24992
238	183.109888	154124288	115486720	22870768	24992
239	183.704717	154124288	115486720	32628504	24992
240	184.016498	154124288	115486720	26554936	24992
241	185.843269	154124288	115486720	37625184	24992
242	187.616583	154124288	115486720	32873520	24992
243	188.636596	154124288	115486720	28785648	24992
244	190.208169	154124288	115486720	25346648	24992
245	190.32811	154124288	115486720	39075184	24992
246	192.995248	154124288	115486720	36969344	24992
247	193.668483	154124288	115486720	35528176	24992
248	195.478879	154124288	115486720	34748216	24992
249	197.238414	154124288	115486720	34630000	24992
250	200.489769	154124288	115486720	35182208	24992
251	202.156629	154124288	115486720	36396752	24992
252	200.972997	154124288	115486720	38263888	24992
253	201.711309	154124288	115486720	40791848	24992
254	205.010208	154124288	115486720	27487128	24992
255	204.971221	154124288	115486720	31336888	24992
256	206.281675	154124288	115486720	35847712	24992
257	207.94057	154124288	115486720	41039360	24992
258	210.282415	154124288	115486720	30408704	24992
259	210.965265	154124288	115486720	36933840	24992
260	211.828319	154124288	115486720	44109528	24992
261	215.151131	154124288	115486720	35465200	24992
262	214.181926	154124288	115486720	43963920	24992
263	217.564551	154124288	115486720	36642688	24992
264	216.606857	154394624	116011008	46464888	24992
265	220.843707	154664960	116011008	40466832	24992
266	222.823687	154664960	116011008	35123496	24992
267	221.233318	154664960	116011008	46941752	24992
268	225.264638	154664960	116011008	42928976	24992
269	227.233072	154664960	116011008	39579384	24992
270	228.135436	154664960	116011008	36876264	24992
271	227.179776	154664960	116011008	51340504	24992
272	231.146158	154664960	116011008	49969968	24992
273	232.116141	154664960	116011008	49266440	24992
274	234.264515	154664960	116011008	49222760	24992
275	227.046711	143835136	105000960	15831944	24992
276	205.725448	143835136	105000960	17387368	24992
277	207.046868	143835136	105000960	19576632	24992
278	209.252314	143835136	105000960	22428280	24992
279	214.325582	143835136	105000960	25948552	24992
280	213.668046	143835136	105000960	30138176	24992
281	217.699091	143835136	105000960	18493216	24992
282	219.647083	143835136	105000960	23900760	24992
283	219.834163	143835136	105000960	29799504	24992
284	222.413951	143835136	105000960	19876768	24992
285	224.324672	143835136	105000960	27109712	24992
286	225.160475	143835136	105000960	35005688	24992
287	229.597688	143835136	105000960	27079712	24992
288	230.247032	143835136	105000960	36289032	24992
289	233.176613	143835136	105000960	29675008	24992
290	235.976666	143835136	105000960	23748248	24992
291	234.576862	143835136	105000960	34951096	24992
292	242.7265	143835136	105000960	30323280	24992
293	238.576641	143835136	105000960	26349696	24992
294	240.289299	143835136	105000960	39531880	24992
295	243.145748	143835136	105000960	36884968	24992
296	243.834656	143835136	105000960	34901680	24992
297	245.787256	143835136	105525248	33580952	24992
298	248.92782	144105472	105525248	32922296	24992
299	250.868914	144375808	105525248	32912504	24992
300	254.166754	144375808	105525248	33564384	24992
301	252.915607	144375808	105525248	34877640	24992
302	256.729234	144375808	105525248	36869032	24992
303	256.084012	144375808	105525248	39517912	24992
304	261.098029	144375808	105525248	42828480	24992
305	262.74529	144375808	105525248	30305224	24992
306	263.198016	144375808	105525248	34938440	24992
307	263.90785	144375808	105525248	40222408	24992
308	265.293184	144375808	105525248	46180672	24992
309	270.178507	144375808	105525248	36306376	24992
310	269.347351	144375808	105525248	43575272	24992
311	273.62413	144375808	105525248	35023432	24992
312	273.844535	144375808	105525248	43626576	24992
313	277.424728	144375808	105525248	36397816	24992
314	276.207808	144375808	105525248	46323720	24992
315	282.514704	144375808	105525248	40418344	24992
316	279.728745	144375808	105525248	51656784	24992
317	285.580307	144375808	105525248	47074024	24992
318	270.64521	133378048	94515200	25598976	24992
319	237.869769	133378048	94515200	22115448	24992
320	236.316475	133378048	94515200	19330704	24992
321	237.589896	133378048	94515200	17857288	24992
322	240.134977	133378048	94515200	17045968	24992
323	245.960601	133378048	94515200	16908464	24992
324	245.288791	133378048	94515200	17148328	24992
325	247.033207	133378048	94515200	17857552	24992
326	248.808063	133378048	94515200	19228512	24992
327	251.029503	133378048	94515200	21260800	24992
328	252.653985	133378048	94515200	23950136	24992
329	257.771758	133378048	94515200	27305992	24992
330	255.572624	133378048	94515200	31324592	24992
331	259.900472	133378048	94515200	36038176	24992
332	261.149439	133378048	94515200	24886536	24992
333	262.924852	133378048	94515200	30878160	24992
334	264.712454	133378048	94515200	37543824	24992
335	270.071671	133378048	94515200	28374960	24992
336	266.300249	133378048	94515200	36351400	24992
337	270.432286	133378048	94515200	28507504	24992
338	271.721528	133378048	94515200	37807904	24992
339	273.527191	133378048	94515200	31288304	24992
340	275.767077	133378048	94515200	41921360	24992
341	276.475693	133378048	94515200	36725640	24992
342	279.661125	133378048	94515200	32199784	24992
343	279.154031	133378048	94515200	44808536	24992
344	282.597664	133378048	94515200	41594704	24992
345	283.81978	133378048	94515200	39042808	24992
346	285.358091	133378048	94515200	37153960	24992
347	287.728685	133378048	94515200	35920064	24992
348	289.74399	133378048	94515200	35341960	24992
349	295.251618	133378048	94515200	35424992	24992
350	294.470972	133378048	94515200	36169952	24992
351	297.840891	133378048	94515200	37576128	24992
352	297.327359	133378048	94515200	39644456	24992
353	298.175949	133378048	94515200	42375368	24992
354	300.841131	133378048	94515200	45779592	24992
355	302.256892	133378048	94515200	49847608	24992
356	307.18873	133378048	94515200	38079632	24992
357	291.189815	130756608	91893760	24048816	24992
358	262.962415	130756608	91893760	29867192	24992
359	265.993026	130756608	91893760	19851952	24992
360	267.539586	130756608	91893760	27761888	24992
361	270.319002	130756608	91893760	19809248	24992
362	272.783879	130756608	91893760	28734744	24992
363	274.708081	130756608	91893760	21598328	24992
364	276.260847	130756608	91893760	31605792	24992
365	280.229734	130756608	91893760	25793640	24992
366	282.85902	130756608	91893760	20643136	24992
367	283.78154	130756608	91893760	32648984	24992
368	287.553318	130756608	91893760	28829568	24992
369	290.061636	130756608	91893760	25688584	24992
370	288.636159	130756608	91893760	23172520	24992
371	289.441043	130756608	91893760	37823864	24992
372	292.719339	130756608	91893760	36640464	24992
373	294.800456	130756608	91893760	36123320	24992
374	297.393676	130756608	91893760	36267048	24992
375	298.548838	130756608	91893760	37072184	24992
376	300.078405	130756608	91893760	38538880	24992
377	302.321193	130756608	91893760	40667128	24992
378	306.500977	130756608	91893760	43473528	24992
379	310.998864	130756608	91893760	30428168	24992
380	311.450304	130756608	91893760	34536336	24992
381	311.432157	130756608	91893760	39297800	24992
382	312.825294	130756608	91893760	44733448	24992
383	317.658801	130756608	91893760	34336520	24992
384	317.306079	130756608	91893760	41083168	24992
385	319.407527	130756608	91893760	48504880	24992
386	325.383656	130756608	91893760	40090640	24992
387	322.45541	130756608	91893760	48834752	24992
388	328.814115	130756608	91893760	41745176	24992
389	326.545745	130756608	91893760	51812608	24992
390	332.60757	130756608	91893760	46047104	24992
391	334.561211	130756608	91893760	40941872	24992
392	332.964578	130756608	91893760	52981592	24992
393	320.212307	127729664	88748032	13116320	24992
394	289.140684	127729664	88748032	26210888	24992
395	290.483061	127729664	88748032	23655504	24992
396	299.972277	127729664	88748032	22438768	24992
397	296.863769	127729664	88748032	21885240	24992
398	300.472046	127729664	88748032	21654800	24992
399	308.603572	127729664	88748032	21830512	24992
400	306.271358	127729664	88748032	22668368	24992
401	308.104344	127729664	88748032	24167216	24992
402	314.435291	127729664	88748032	26339560	24992
403	312.666921	127729664	88748032	29200336	24992
404	314.223535	127729664	88748032	32706080	24992
405	315.112068	127729664	88748032	36865144	24992
406	319.436708	127729664	88748032	25191000	24992
407	320.722824	127729664	88748032	30660856	24992
408	321.689486	127729664	88748032	36805152	24992
409	328.276976	127729664	88748032	27115160	24992
410	327.221898	127729664	88748032	34569928	24992
411	328.378427	127729664	88748032	42699512	24992
412	337.127318	127729664	88748032	35014104	24992
413	333.681862	127729664	88748032	44466272	24992
414	337.792904	127729664	88748032	38087888	24992
415	340.805808	127729664	88748032	32368272	24992
416	340.112543	127729664	88748032	43792792	24992
417	344.198403	127729664	88748032	39398816	24992
418	346.685019	127729664	88748032	35663552	24992
419	347.690534	127729664	88748032	49073136	24992
420	351.340427	127729664	88748032	46663912	24992
421	353.70638	127729664	88748032	44915088	24992
422	356.823776	127729664	88748032	43827536	24992
423	358.294739	127729664	88748032	43403424	24992
424	360.004852	127729664	88748032	43640856	24992
425	363.194725	127729664	88748032	44537360	24992
426	341.691595	126681088	87699456	26990872	24992
427	314.798749	126681088	87699456	28910064	24992
428	314.486415	126681088	90320896	15001104	24992
429	319.573395	128217088	99233792	18237664	24992
430	316.845807	128487424	99233792	22134872	24992
431	318.04238	129028096	99233792	27001792	24992
432	322.331781	129568768	99233792	32530384	24992
433	323.211155	129839104	99233792	22223040	24992
434	327.944264	130379776	99233792	29062376	24992
435	331.017478	130920448	99233792	20093784	24992
436	331.673376	131461120	99233792	28292672	24992
437	332.485526	132001792	99233792	37130184	24992
438	335.935752	132542464	99233792	30132584	24992
439	337.242618	132812800	99233792	23798504	24992
440	341.291515	133353472	99233792	34613544	24992
441	343.410055	133894144	99233792	29603600	24992
442	346.114567	134434816	99233792	25254368	24992
443	349.248152	134975488	99233792	38068248	24992
444	352.24725	135516160	99233792	35053104	24992
445	354.177038	136056832	99233792	32691592	24992
446	359.258878	136597504	99233792	30981776	24992
447	359.081366	137138176	99233792	29927296	24992
448	358.548076	137678848	99233792	46035456	24992
449	363.939208	138219520	99233792	46315512	24992
450	366.029759	138489856	99233792	47281288	24992
451	370.421522	139030528	99233792	48908488	24992
452	374.208984	139030528	99233792	34702864	24992
453	375.27515	139030528	99233792	37660144	24992
454	377.208117	139030528	99233792	41264656	24992
455	382.605143	139030528	99233792	45540224	24992
456	381.593185	139030528	99233792	50454984	24992
457	387.052032	139030528	99233792	39532976	24992
458	364.481202	135462912	95563776	27023848	24992
459	343.422262	135462912	95563776	17148224	24992
460	341.568664	135462912	95563776	24380760	24992
461	337.984304	135462912	95563776	15781272	24992
462	338.623608	135462912	95563776	24331032	24992
463	339.986659	135462912	95563776	17121288	24992
464	343.399359	135462912	95563776	27343664	24992
465	351.61122	135462912	95563776	21720008	24992
466	349.466181	135462912	95563776	33270280	24992
467	353.026999	135462912	95563776	29008872	24992
468	354.062861	135462912	95563776	25391152	24992
469	357.888663	135462912	95563776	22428960	24992
470	358.30938	135462912	95563776	36617392	24992
471	362.152152	135462912	95563776	34961456	24992
472	364.01931	135462912	95563776	33968600	24992
473	366.361651	135462912	95563776	33635760	24992
474	372.558064	135462912	95563776	33997352	24992
475	373.149368	135462912	95563776	35021672	24992
476	375.900579	135462912	95563776	36696976	24992
477	378.008248	135733248	96088064	39033416	24992
478	380.413123	136003584	96088064	42008792	24992
479	383.880935	136003584	96088064	45645784	24992
480	388.447185	136003584	96088064	33470672	24992
481	390.217446	136003584	96088064	38442656	24992
482	392.250515	136003584	96088064	44088000	24992
483	398.222116	136003584	96088064	33876048	24992
484	400.853551	136003584	96088064	40840184	24992
485	400.838375	136003584	96088064	48470432	24992
486	406.398494	136003584	96088064	40242224	24992
487	407.089503	136003584	96088064	49190296	24992
488	387.651328	132333568	92418048	21939168	24992
489	358.303639	132333568	92418048	15350352	24992
490	359.467584	132333568	92418048	25904904	24992
491	359.868744	132874240	102379520	20637344	24992
492	363.003774	133414912	102379520	16095096	24992
493	364.158464	133955584	102379520	29010944	24992
494	367.640507	134766592	102379520	26078120	24992
495	371.52467	135307264	102379520	23829792	24992
496	374.205011	135847936	102379520	22245984	24992
497	380.072403	136388608	102379520	21341760	24992
498	382.223319	136929280	102379520	37561360	24992
499	384.120426	137740288	102379520	37958680	24992
500	391.251019	138280960	102379520	39016880	24992
