x	Duration	RSS	HeapTotal	HeapUsed	External
0	NA	127676416	89272320	12274080	24992
1	0.997182	127676416	89272320	12954608	24992
2	2.512088	127676416	89272320	14292992	24992
3	2.34444	127676416	89272320	16290776	24992
4	3.055786	127676416	89272320	18948016	24992
5	3.984678	127676416	89272320	22280088	24992
6	4.55713	127676416	89272320	26256936	24992
7	5.945485	127676416	89272320	14427968	24992
8	6.042854	127676416	89272320	19723912	24992
9	7.09134	127676416	89272320	25680376	24992
10	8.189589	127676416	89272320	15837736	24992
11	8.469234	127676416	89272320	23113360	24992
12	9.789593	127676416	89272320	14585320	24992
13	9.756707	127676416	89272320	23179040	24992
14	11.022402	127676416	89272320	15964536	24992
15	11.168493	127676416	89272320	25877232	24992
16	12.669121	127676416	89272320	19989600	24992
17	13.259601	127676416	89272320	14754992	24992
18	13.597031	127676416	89272320	26648000	24992
19	14.676468	127676416	89272320	22735240	24992
20	15.232799	127676416	89272320	19483568	24992
21	16.617527	127676416	89272320	16885600	24992
22	16.861391	127676416	89272320	14951272	24992
23	17.750122	127676416	89272320	13677424	24992
24	18.354539	127676416	89272320	13061808	24992
25	19.247567	127676416	89272320	13106680	24992
26	20.484528	127676416	89272320	13812120	24992
27	20.749801	127676416	89272320	15177968	24992
28	21.82325	127676416	89272320	17204384	24992
29	22.307286	127676416	89272320	19891216	24992
30	22.871695	127676416	89272320	23239248	24992
31	23.963405	127676416	89272320	27245944	24992
32	25.122199	127676416	89272320	15447784	24992
33	25.907795	127676416	89272320	20776824	24992
34	25.800209	127676416	89272320	26772768	24992
35	27.465541	127676416	89272320	16962656	24992
36	28.117768	127676416	89272320	24274296	24992
37	28.980478	127676416	89272320	15791952	24992
38	29.159996	127676416	89272320	24424096	24992
39	29.998967	127676416	89272320	17262480	24992
40	30.402882	127676416	89272320	27215328	24992
41	31.38372	127676416	89272320	21374992	24992
42	32.302722	127676416	89272320	16193432	24992
43	32.820748	127676416	89272320	28126944	24992
44	33.577764	127676416	89272320	24268504	24992
45	34.513246	127676416	89272320	21071768	24992
46	37.135125	127676416	89272320	18548136	24992
47	35.730229	127676416	89272320	16667840	24992
48	36.965388	127676416	89272320	15448848	24992
49	37.35491	127676416	89272320	14890736	24992
50	38.514809	127676416	89272320	14995240	24992
51	39.179198	127676416	89272320	15760208	24992
52	40.529461	127676416	89272320	17186176	24992
53	40.858091	127676416	89272320	19273248	24992
54	41.402169	127676416	89272320	22021064	24992
55	42.110394	127676416	89272320	25429696	24992
56	43.203683	127676416	89272320	29506176	24992
57	43.603675	127676416	89272320	17854408	24992
58	43.92252	127676416	89272320	23286408	24992
59	44.965132	127676416	89272320	29379720	24992
60	45.674105	127676416	89272320	19641472	24992
61	46.774051	127676416	89272320	27058200	24992
62	47.716355	127676416	89272320	18643976	24992
63	48.240202	127676416	89272320	27382184	24992
64	49.421413	127676416	89272320	20288752	24992
65	49.545802	127676416	89272320	30358064	24992
66	50.896309	127946752	89272320	24606336	24992
67	51.450974	127946752	89272320	19518024	24992
68	51.605631	127946752	89272320	31568472	24992
69	52.991474	127946752	89272320	27801752	24992
70	53.451033	127946752	89272320	24696288	24992
71	55.151479	127946752	89272320	22256824	24992
72	55.048631	127946752	89272320	20465304	24992
73	56.674825	127946752	89272320	19343352	24992
74	57.635255	127946752	89272320	18882880	24992
75	58.022943	127946752	89272320	19084056	24992
76	58.927246	127946752	89272320	19946760	24992
77	59.780133	127946752	89272320	21471240	24992
78	60.283665	127946752	89272320	23656864	24992
79	61.066271	127946752	89272320	26502248	24992
80	61.481453	127946752	89272320	30003952	24992
81	63.288324	127946752	89272320	17673920	24992
82	63.662461	127946752	89272320	22507504	24992
83	64.259777	127946752	89272320	28002456	24992
84	66.180728	127946752	89272320	34160944	24992
85	67.147206	127946752	89272320	24478096	24992
86	66.974662	127946752	89272320	31955736	24992
87	68.034504	127946752	89272320	23600104	24992
88	68.640106	127946752	89272320	32402904	24992
89	70.757447	127946752	89272320	25374200	24992
90	73.238408	127946752	89272320	19014880	24992
91	71.43226	127946752	89272320	29812392	24992
92	73.921958	127946752	89272320	24776216	24992
93	73.520305	127946752	89272320	20395944	24992
94	73.883123	127946752	89272320	33161832	24992
95	75.90716	127946752	89272320	30103128	24992
96	76.321469	127946752	89272320	27703536	24992
97	76.739234	127946752	89272320	25960040	24992
98	77.238914	127946752	89272320	24884520	24992
99	78.988265	127946752	89272320	24470984	24992
100	80.673689	127946752	89272320	24719504	24992
101	80.683087	127946752	89272320	25629672	24992
102	82.590009	127946752	89272320	27200632	24992
103	82.876454	127946752	89272320	29427888	24992
104	82.770128	127946752	89272320	32311704	24992
105	84.264999	127946752	89272320	35862160	24992
106	86.12968	127946752	89272320	23593968	24992
107	86.009123	127946752	89272320	28473520	24992
108	86.643435	127946752	89272320	34008848	24992
109	88.839133	127946752	89272320	23718072	24992
110	88.137321	127946752	89272320	30582376	24992
111	89.162886	127946752	89272320	38097160	24992
112	91.565213	127946752	89272320	29791360	24992
113	92.615396	127946752	89272320	38629384	24992
114	93.765203	127946752	89272320	31647672	24992
115	94.347186	127946752	89272320	25315272	24992
116	94.091185	127946752	89272320	36151584	24992
117	96.306351	127946752	89272320	31155016	24992
118	96.760776	127946752	89272320	26807304	24992
119	95.91538	127946752	89272320	39627512	24992
120	98.560034	127946752	89272320	36616976	24992
121	99.664423	127946752	89272320	34266600	24992
122	100.515034	127946752	89272320	32565432	24992
123	101.395455	127946752	89272320	31525752	24992
124	103.252142	127946752	89272320	31165352	24992
125	103.30821	127946752	89272320	31459488	24992
126	104.416614	127946752	89272320	32410008	24992
127	105.238958	127946752	89272320	34016616	24992
128	106.288709	127946752	89272320	36285392	24992
129	106.6968	127946752	89272320	39236888	24992
130	111.469262	127946752	89272320	42855784	24992
131	111.115794	127946752	89272320	30640888	24992
132	110.695366	127946752	89272320	35581792	24992
133	112.186975	127946752	89272320	41173192	24992
134	114.521637	128217088	89272320	30943560	24992
135	112.90605	128217088	89272320	37869272	24992
136	116.711507	128217088	89272320	28956392	24992
137	114.707926	128217088	89272320	37205088	24992
138	117.721654	128217088	89272320	29609552	24992
139	116.44534	128217088	89272320	39181520	24992
140	119.634364	128217088	89272320	32915104	24992
141	118.485543	128217088	89272320	43810552	24992
142	122.55064	128487424	89796608	38879088	24992
143	122.68877	128757760	89796608	34591408	24992
144	123.987338	128757760	90320896	30975912	24992
145	123.034709	129028096	90320896	44517520	24992
146	126.032337	129298432	90320896	42228272	24992
147	126.670248	129298432	90845184	40600832	24992
148	128.087901	129568768	90845184	39622408	24992
149	129.09065	129568768	90845184	39305632	24992
150	130.474316	129839104	91369472	39650896	24992
151	131.109511	130109440	91369472	40657248	24992
152	131.495127	130109440	91369472	42325608	24992
153	132.828521	130379776	91369472	44661400	24992
154	133.500571	130379776	91893760	47665416	24992
155	137.643653	130650112	91893760	34836120	24992
156	135.887357	130920448	91893760	39161744	24992
157	137.229576	131190784	92418048	44143104	24992
158	137.966864	131190784	92418048	49786904	24992
159	142.700706	131461120	92418048	39604584	24992
160	141.12125	131461120	92418048	46576464	24992
161	144.653913	131461120	92418048	37717912	24992
162	141.446982	131461120	92418048	46013704	24992
163	145.839186	131461120	92418048	38477352	24992
164	143.534189	131461120	92418048	48096416	24992
165	148.665784	131461120	92418048	41884744	24992
166	145.357855	131461120	92418048	52821072	24992
167	155.604004	127250432	88748032	13913784	24992
168	128.653933	127250432	88748032	26413864	24992
169	128.609454	127250432	88748032	23082928	24992
170	130.516107	127250432	88748032	20415256	24992
171	134.25622	127250432	88748032	18397592	24992
172	132.88754	127250432	88748032	17053704	24992
173	134.259313	127250432	88748032	16373408	24992
174	136.958489	127250432	91369472	16356584	24992
175	138.524932	127791104	95039488	17002296	24992
176	138.617868	128061440	98709504	18311096	24992
177	139.990344	128602112	98709504	20284584	24992
178	141.510074	128602112	98709504	22671520	24992
179	142.492893	128872448	98709504	25714384	24992
180	142.603907	129142784	98709504	29413976	24992
181	143.790066	129413120	98709504	33787456	24992
182	147.528476	129683456	98709504	22328216	24992
183	145.997345	129953792	98709504	28022992	24992
184	147.671603	130224128	98709504	34375048	24992
185	151.405448	130494464	98709504	24901400	24992
186	150.136608	130764800	98709504	32575512	24992
187	153.238687	131035136	98709504	24432856	24992
188	152.407475	131035136	98709504	33437808	24992
189	155.322729	131305472	98709504	26610104	24992
190	153.95629	131575808	98709504	36925496	24992
191	158.600654	131846144	98709504	31449120	24992
192	159.490776	132116480	98709504	26605896	24992
193	157.485722	132386816	98709504	38918368	24992
194	161.237972	132657152	98709504	35398992	24992
195	166.725607	132927488	98709504	32540864	24992
196	163.097689	133197824	98709504	30344216	24992
197	163.915475	133468160	98709504	28796768	24992
198	168.934372	133738496	98709504	27916472	24992
199	166.616974	134008832	98709504	27702616	24992
200	168.190991	134279168	98709504	28150304	24992
201	169.42234	134549504	98709504	29260408	24992
202	170.71344	134549504	98709504	31031480	24992
203	171.606476	134819840	98709504	33453480	24992
204	173.717043	135090176	98709504	36537392	24992
205	174.297121	135360512	98709504	40295592	24992
206	178.761487	135630848	98709504	28219352	24992
207	176.534388	135901184	98709504	33299256	24992
208	178.110672	136171520	98709504	39037752	24992
209	181.681343	136441856	98709504	28947888	24992
210	180.301174	136712192	98709504	36013248	24992
211	181.734623	136982528	98709504	43729408	24992
212	186.001819	137252864	99233792	35625304	24992
213	183.896466	137523200	99233792	44664720	24992
214	188.866524	137793536	99758080	37884304	24992
215	189.493939	138063872	99758080	31751728	24992
216	187.222075	138334208	100282368	42787320	24992
217	196.664568	138604544	100282368	37990576	24992
218	193.488393	138874880	100282368	33843056	24992
219	191.47432	138874880	100282368	46863872	24992
220	197.555116	138874880	100282368	44052536	24992
221	197.449919	138874880	100282368	41902480	24992
222	199.602005	138874880	100282368	40407480	24992
223	199.719539	138874880	100282368	39568040	24992
224	201.480153	138874880	100282368	39390416	24992
225	202.754388	138874880	100282368	39874608	24992
226	203.84331	138874880	100282368	41020128	24992
227	205.336126	138874880	100282368	42827360	24992
228	206.918472	138874880	100282368	45296168	24992
229	207.690595	138874880	100282368	48447696	24992
230	209.645629	138874880	100282368	52252704	24992
231	215.387826	138874880	100282368	40223520	24992
232	213.471023	137302016	98709504	28791280	24992
233	176.722061	137302016	98709504	17917984	24992
234	176.707745	137302016	98709504	24190520	24992
235	180.508013	137302016	98709504	14640272	24992
236	177.545508	137302016	98709504	22244544	24992
237	179.015275	137302016	98709504	30504664	24992
238	181.516575	137302016	98709504	22934864	24992
239	179.801583	137302016	98709504	16021776	24992
240	181.877376	137302016	98709504	26280856	24992
241	183.538125	137302016	98709504	20867944	24992
242	183.598346	137302016	98709504	32599952	24992
243	186.018581	137302016	98709504	28509496	24992
244	186.804183	137302016	98709504	25082808	24992
245	188.421759	137302016	98709504	22311296	24992
246	193.418904	137302016	98709504	20195224	24992
247	191.885413	137302016	98709504	18754992	24992
248	192.248303	137302016	98709504	34468144	24992
249	195.625262	137302016	98709504	34367648	24992
250	195.39086	137302016	98709504	34928424	24992
251	196.294793	137302016	99233792	36133992	24992
252	198.716583	137842688	99758080	21502656	24992
253	198.900418	138113024	99758080	24029368	24992
254	199.831299	138383360	100282368	27217368	24992
255	200.76591	138653696	100282368	31056264	24992
256	202.208789	138924032	100282368	35569336	24992
257	204.651646	138924032	100282368	24278688	24992
258	204.932849	138924032	100282368	30142512	24992
259	206.663966	138924032	100282368	36657024	24992
260	209.051305	138924032	100282368	27349784	24992
261	214.5327	138924032	100282368	35197696	24992
262	213.579762	138924032	100282368	27231888	24992
263	213.350557	138924032	100282368	36404680	24992
264	214.578712	138924032	100282368	29744368	24992
265	214.706303	138924032	100282368	40238952	24992
266	217.710924	138924032	100282368	34900296	24992
267	220.062551	138924032	100282368	30212312	24992
268	219.095469	138924032	100282368	42691888	24992
269	221.983824	138924032	100282368	39340248	24992
270	223.329292	138924032	100282368	36649704	24992
271	225.08168	138924032	100282368	34607944	24992
272	227.372278	138924032	100282368	33227776	24992
273	227.38244	138924032	100282368	32520152	24992
274	229.558805	138924032	100282368	32475608	24992
275	231.32552	138924032	100282368	33092744	24992
276	232.422428	138924032	100282368	34371568	24992
277	233.616596	138924032	100806656	36311608	24992
278	235.965987	139194368	100806656	38912888	24992
279	237.503987	139464704	100806656	42165384	24992
280	238.443085	139464704	100806656	46088168	24992
281	239.960893	139464704	100806656	50676608	24992
282	244.961644	139464704	100806656	39446616	24992
283	243.509113	139464704	100806656	45350544	24992
284	243.895709	139464704	100806656	51927160	24992
285	249.289167	139464704	100806656	42671040	24992
286	235.992258	139464704	100806656	28656080	24992
287	217.202741	139464704	100806656	20717544	24992
288	219.094964	139464704	100806656	29939920	24992
289	221.379334	139464704	100806656	23324592	24992
290	221.702275	139464704	100806656	17372232	24992
291	223.81814	139464704	100806656	28574416	24992
292	227.232412	139464704	100806656	23946336	24992
293	227.574601	139464704	100806656	19979072	24992
294	230.960743	139464704	101330944	33160992	24992
295	231.288471	139735040	101330944	30514872	24992
296	233.28407	140005376	101855232	28530744	24992
297	235.9686	140275712	102379520	27209720	24992
298	238.136827	140816384	102379520	26561408	24992
299	238.503432	140816384	102379520	26556928	24992
300	242.009644	141082624	102379520	27232416	24992
301	242.016115	141082624	102379520	28554128	24992
302	242.563906	141082624	102379520	30535272	24992
303	243.75759	141082624	102379520	33184160	24992
304	246.444321	141082624	102379520	36495088	24992
305	249.246607	141082624	102379520	23972856	24992
306	250.561386	141082624	102379520	28606296	24992
307	250.246294	141082624	102379520	33890296	24992
308	253.428934	141082624	102379520	39848704	24992
309	255.475726	141082624	102379520	29974216	24992
310	260.018133	141082624	102379520	37243336	24992
311	259.214519	141082624	102379520	28699936	24992
312	262.113009	141082624	102379520	37303592	24992
313	261.903952	141082624	102379520	30074736	24992
314	262.722735	141082624	102379520	40000768	24992
315	265.750593	141082624	102379520	34094816	24992
316	266.940887	141082624	102379520	45333864	24992
317	268.978786	141082624	102379520	40749056	24992
318	270.688147	141082624	102379520	36828480	24992
319	272.066408	141082624	102379520	33556992	24992
320	271.377646	141082624	102379520	47452904	24992
321	277.080823	141082624	102379520	45523784	24992
322	277.742374	141082624	102379520	44250760	24992
323	278.733056	141082624	102379520	43641144	24992
324	280.923504	141082624	102379520	43690496	24992
325	282.823171	141082624	102379520	44401432	24992
326	283.91662	141082624	102379520	45776568	24992
327	286.730521	141082624	102379520	47810632	24992
328	288.160475	141082624	102379520	50506064	24992
329	290.135626	141082624	102379520	53864696	24992
330	275.769153	141082624	102379520	23978648	24992
331	250.24415	141082624	102379520	28659616	24992
332	255.325418	141082624	102379520	17506400	24992
333	255.475298	141082624	102379520	23497696	24992
334	257.037593	141352960	104476672	30163048	24992
335	260.177883	141893632	111816704	20994256	24992
336	260.775306	142163968	118632448	28970352	24992
337	263.281745	142974976	125972480	21126352	24992
338	265.416949	143245312	132788224	30426456	24992
339	267.709754	144056320	140128256	23907664	24992
340	269.030876	144326656	146944000	34531552	24992
341	272.930675	144867328	147468288	29340656	24992
342	275.481324	145408000	147468288	24813488	24992
343	276.670175	145948672	147468288	37446864	24992
344	278.090872	146219008	147468288	34236152	24992
345	280.174426	146759680	147468288	31686480	24992
346	280.421682	147300352	147468288	29798256	24992
347	283.177484	147841024	147468288	28564584	24992
348	285.009705	148381696	147468288	27986608	24992
349	286.54794	148922368	147468288	28070392	24992
350	289.964323	149463040	147468288	28815464	24992
351	290.899156	150003712	147468288	30222120	24992
352	296.012764	150544384	147468288	32308712	24992
353	294.292323	151085056	147468288	35040632	24992
354	296.526933	151355392	147468288	38445272	24992
355	297.082867	151896064	147468288	42511576	24992
356	301.969152	152436736	147468288	30744816	24992
357	303.833981	152977408	147468288	36131640	24992
358	302.330041	153518080	147468288	42169784	24992
359	308.349488	154058752	147468288	32388040	24992
360	307.07628	154599424	147468288	39773312	24992
361	309.695906	155140096	147468288	47808776	24992
362	315.491772	155680768	147468288	40010984	24992
363	312.632666	156221440	147468288	49363120	24992
364	318.536031	156491776	147468288	42888728	24992
365	320.309532	157032448	147468288	37075616	24992
366	318.811643	157573120	147468288	48419904	24992
367	323.6698	158113792	147468288	43930560	24992
368	326.060785	158654464	147468288	40103368	24992
369	307.675234	156946432	119681024	18908296	24992
370	279.143567	156946432	119681024	16135432	24992
371	281.263811	156946432	119681024	30511840	24992
372	283.025857	156946432	119681024	29066608	24992
373	283.273984	156946432	119681024	28284304	24992
374	282.564807	156946432	119681024	28165368	24992
375	284.393151	156946432	119681024	28734544	24992
376	285.26685	156946432	119681024	30201456	24992
377	288.985159	156946432	119681024	32330352	24992
378	289.590191	156946432	119681024	18624920	24992
379	297.804998	156946432	119681024	22085504	24992
380	301.750766	156946432	119681024	26209528	24992
381	299.393669	156946432	119681024	30992424	24992
382	298.419016	156946432	119681024	36427768	24992
383	300.882311	156946432	119681024	26027640	24992
384	302.465351	156946432	119681024	32774224	24992
385	304.879829	156946432	119681024	23700464	24992
386	306.78635	156946432	119681024	31783280	24992
387	313.334313	156946432	119681024	40527616	24992
388	311.893907	156946432	119681024	33436968	24992
389	318.145686	156946432	119681024	27017912	24992
390	316.153673	156946432	119681024	37755272	24992
391	317.517655	156946432	119681024	32651864	24992
392	318.546181	157216768	119681024	44691712	24992
393	323.046365	157216768	119681024	40910840	24992
394	324.057776	157487104	119681024	37791640	24992
395	326.946023	157757440	119681024	35333208	24992
396	328.938273	157757440	119681024	33524064	24992
397	331.346528	157757440	119681024	32376424	24992
398	331.481263	157757440	119681024	48396168	24992
399	334.922589	157757440	119681024	48583256	24992
400	337.36173	157757440	119681024	49430128	24992
401	340.730642	157757440	119681024	50941432	24992
402	346.627369	158027776	119681024	36618200	24992
403	345.988352	158027776	119681024	39452008	24992
404	349.772514	158027776	119681024	42937808	24992
405	350.356525	158298112	119681024	47090528	24992
406	330.790344	156487680	117583872	17725296	24992
407	307.443018	156487680	117583872	22906920	24992
408	307.667394	156487680	117583872	28761928	24992
409	312.138425	156487680	117583872	18783848	24992
410	309.816954	156487680	117583872	25947232	24992
411	313.656522	156487680	117583872	17341432	24992
412	313.511486	156487680	117583872	26124656	24992
413	316.844773	156487680	117583872	19081392	24992
414	318.506013	156487680	117583872	29187552	24992
415	320.49521	156487680	117583872	23469120	24992
416	324.6903	156487680	117583872	34926280	24992
417	326.387953	156487680	117583872	30529936	24992
418	328.056717	156487680	117583872	26795120	24992
419	331.549113	156487680	117583872	23715816	24992
420	332.287451	156487680	117583872	37792376	24992
421	335.001747	156487680	117583872	36043264	24992
422	337.393212	156487680	117583872	34955504	24992
423	340.162028	156487680	117583872	34529632	24992
424	343.016675	156487680	117583872	34773696	24992
425	345.638887	156487680	117583872	35680984	24992
426	346.905459	156487680	117583872	37239560	24992
427	349.761847	156487680	117583872	39459704	24992
428	354.289003	156487680	117583872	42339856	24992
429	354.525691	156487680	117583872	45883384	24992
430	358.920145	156487680	117583872	33591624	24992
431	363.007251	156487680	117583872	38445160	24992
432	363.272307	156487680	117583872	43973584	24992
433	366.66625	156487680	117583872	33667992	24992
434	369.073097	156487680	117583872	40517832	24992
435	368.912471	156487680	117583872	48034248	24992
436	375.505825	156758016	118108160	39714512	24992
437	374.774041	157028352	118632448	48538984	24992
438	380.580567	157569024	119156736	41544616	24992
439	379.687516	158109696	119681024	51692632	24992
440	361.687901	155467776	116535296	16998456	24992
441	334.670752	155467776	116535296	28470680	24992
442	340.916523	155467776	116535296	24121088	24992
443	342.478632	155467776	116535296	20432328	24992
444	345.309265	155467776	116535296	17399560	24992
445	347.375795	155467776	116535296	31522224	24992
446	351.800051	155467776	116535296	29819728	24992
447	352.80331	155467776	116535296	28776464	24992
448	358.859866	155467776	116535296	28400296	24992
449	361.28512	155467776	116535296	28731848	24992
450	363.771554	155467776	116535296	29715776	24992
451	363.643478	155467776	116535296	31345392	24992
452	365.182873	155467776	116535296	33636040	24992
453	371.3033	155467776	116535296	36583800	24992
454	372.884029	155467776	116535296	40175464	24992
455	376.294015	155467776	116535296	27953832	24992
456	377.566721	155467776	116535296	32878544	24992
457	380.162198	155467776	116535296	38497288	24992
458	386.681514	155467776	116535296	28239416	24992
459	383.745278	155467776	116535296	35153792	24992
460	386.093174	155467776	116535296	42737320	24992
461	393.682211	155467776	116535296	34464752	24992
462	395.649528	155467776	116535296	43358720	24992
463	395.96729	155467776	116535296	36408912	24992
464	396.712987	155738112	117059584	46632352	24992
465	404.630496	156278784	117583872	41005544	24992
466	406.696252	156819456	118108160	36065048	24992
467	405.799878	157360128	118632448	48268312	24992
468	411.301662	157900800	119156736	44630984	24992
469	414.146647	158171136	119156736	41676272	24992
470	419.848456	158171136	119156736	39375496	24992
471	381.111061	148209664	109195264	20086800	24992
472	358.350296	148209664	109195264	19116096	24992
473	362.489205	148209664	109195264	18806640	24992
474	365.68811	148209664	110243840	19146584	24992
475	369.350047	149020672	120729600	20147920	24992
476	371.514106	149831680	131215360	21811008	24992
477	375.582009	150642688	141701120	24141240	24992
478	380.602263	151183360	141701120	27142056	24992
479	383.519011	151724032	141701120	30802888	24992
480	386.885327	152264704	141701120	35134976	24992
481	387.187978	152805376	141701120	23601264	24992
482	391.098248	153346048	141701120	29234560	24992
483	391.245876	153886720	141701120	35542112	24992
484	396.170647	154427392	141701120	25991720	24992
485	397.681786	154968064	141701120	33610000	24992
486	399.507494	155508736	141701120	41902432	24992
487	407.899512	156049408	141701120	34377656	24992
488	406.398535	156590080	141701120	43992640	24992
489	412.96581	157130752	141701120	37778472	24992
490	414.184893	157941760	141701120	32221032	24992
491	414.932704	158482432	141701120	43808424	24992
492	423.128154	159023104	141701120	39551728	24992
493	423.851173	159563776	141701120	35980216	24992
494	423.826767	160104448	141701120	49552520	24992
495	429.90684	160645120	141701120	47300176	24992
496	433.678486	161456128	141701120	45688744	24992
497	434.807884	161996800	141701120	44740512	24992
498	438.398303	162537472	141701120	44476672	24992
499	441.98089	163078144	141701120	44876608	24992
500	405.936108	145625088	106573824	17392888	24992
