x	Duration	RSS	HeapTotal	HeapUsed	External
0	NA	135925760	97136640	12287592	24992
1	1.028452	135925760	97136640	12967688	24992
2	1.614493	135925760	97136640	14306056	24992
3	2.343584	135925760	97136640	16303792	24992
4	3.15446	135925760	97136640	18961032	24992
5	3.860273	135925760	97136640	22278392	24992
6	4.572209	135925760	97136640	26255240	24992
7	6.023651	135925760	97136640	14425824	24992
8	6.024231	135925760	97136640	19721768	24992
9	6.983535	135925760	97136640	25678232	24992
10	7.855229	135925760	97136640	15835064	24992
11	9.908001	135925760	97136640	23124592	24992
12	9.59917	135925760	97136640	14592672	24992
13	9.919922	135925760	97136640	23187320	24992
14	10.71761	135925760	97136640	15973792	24992
15	11.436577	135925760	97136640	25887576	24992
16	13.131616	135925760	97136640	20001192	24992
17	13.360021	135925760	97136640	14767752	24992
18	13.750361	135925760	97136640	26662152	24992
19	14.720858	135925760	97136640	22750720	24992
20	15.833222	135925760	97136640	19500504	24992
21	15.941206	135925760	97136640	16904024	24992
22	17.145683	135925760	97136640	14971088	24992
23	17.948601	135925760	97136640	13698776	24992
24	18.609961	135925760	97136640	13084792	24992
25	19.220299	135925760	97136640	13131376	24992
26	20.807168	135925760	97136640	13842360	24992
27	20.447067	135925760	97136640	15208192	24992
28	21.829106	135925760	97136640	17234528	24992
29	22.67594	135925760	97136640	19921328	24992
30	23.543416	135925760	97136640	23269344	24992
31	24.178287	135925760	97136640	27276088	24992
32	24.934463	135925760	97136640	15478784	24992
33	25.790547	135925760	97136640	20808272	24992
34	27.003589	135925760	97136640	26804656	24992
35	27.070979	135925760	97136640	16994576	24992
36	27.505893	135925760	97136640	24306312	24992
37	28.912166	135925760	97136640	15824128	24992
38	29.41204	135925760	97136640	24456272	24992
39	30.393249	135925760	97136640	17294432	24992
40	31.247417	135925760	97136640	27247152	24992
41	31.541901	135925760	97136640	21406784	24992
42	32.625068	135925760	97136640	16225144	24992
43	33.062924	135925760	97136640	28158720	24992
44	34.10237	135925760	97136640	24300296	24992
45	34.711778	135925760	97136640	21103464	24992
46	35.064704	135925760	97136640	18562032	24992
47	36.778676	135925760	97136640	16681784	24992
48	37.531357	135925760	97136640	15462776	24992
49	37.809766	135925760	97136640	14904888	24992
50	38.762786	135925760	97136640	15008416	24992
51	39.518572	135925760	97136640	15773400	24992
52	40.080421	135925760	97136640	17199384	24992
53	40.854992	135925760	97136640	19286440	24992
54	41.630226	135925760	97136640	22038184	24992
55	41.998443	135925760	97136640	25446848	24992
56	43.690943	135925760	97136640	29522864	24992
57	43.447738	135925760	97136640	17801096	24992
58	44.68455	135925760	97136640	23233496	24992
59	45.841991	135925760	97136640	29327368	24992
60	46.243914	135925760	97136640	19589376	24992
61	46.86308	135925760	97136640	27006616	24992
62	47.997187	135925760	97136640	18592536	24992
63	48.188482	135925760	97136640	27331272	24992
64	49.973141	135925760	97136640	20238096	24992
65	50.330894	135925760	97136640	30307648	24992
66	51.549886	135925760	97136640	24556240	24992
67	51.803015	135925760	97136640	19468088	24992
68	51.865028	135925760	97136640	31518760	24992
69	53.669289	135925760	97136640	27750568	24992
70	53.942122	135925760	97136640	24645376	24992
71	55.255966	135925760	97136640	22203752	24992
72	55.972306	135925760	97136640	20413640	24992
73	56.7271	135925760	97136640	19292280	24992
74	57.385693	135925760	97136640	18832240	24992
75	58.699322	135925760	97136640	19033576	24992
76	59.494311	135925760	97136640	19896552	24992
77	59.789781	135925760	97136640	21421208	24992
78	60.674604	135925760	97136640	23607168	24992
79	61.514042	135925760	97136640	26452760	24992
80	62.751493	135925760	97136640	29954848	24992
81	63.593562	135925760	97136640	17625088	24992
82	66.349866	135925760	97136640	22458960	24992
83	65.323968	135925760	97136640	27954152	24992
84	65.693231	135925760	97136640	34110440	24992
85	68.329928	135925760	97136640	24432272	24992
86	67.360704	135925760	97136640	31910200	24992
87	70.109811	135925760	97136640	23565312	24992
88	69.18269	135925760	97136640	32368096	24992
89	70.967204	135925760	97136640	25339680	24992
90	71.643648	135925760	97136640	18972688	24992
91	72.748304	135925760	97136640	29761616	24992
92	74.210184	135925760	97136640	24732560	24992
93	75.083166	135925760	97136640	20352528	24992
94	74.291892	135925760	97660928	33118688	24992
95	75.548119	136196096	97660928	30060224	24992
96	76.706102	136196096	97660928	27660888	24992
97	78.058887	136466432	98185216	25917584	24992
98	78.811869	136466432	98185216	24842432	24992
99	79.881331	136736768	98185216	24429232	24992
100	81.177091	137007104	98185216	24678024	24992
101	81.706865	137007104	98185216	25588336	24992
102	83.450528	137007104	98185216	27159552	24992
103	83.123896	137007104	98185216	29388664	24992
104	83.801698	137007104	98185216	32272544	24992
105	84.245597	137007104	98185216	35823608	24992
106	86.328413	137007104	98185216	23555592	24992
107	86.060188	137007104	98185216	28435368	24992
108	87.325871	137007104	98185216	33971000	24992
109	89.334105	137007104	98185216	23680496	24992
110	89.006435	137007104	98185216	30545168	24992
111	89.553353	137007104	98185216	38060416	24992
112	92.07962	137007104	98185216	29755752	24992
113	91.494181	137007104	98185216	38594176	24992
114	96.995676	137007104	98185216	31613280	24992
115	95.60449	137007104	98185216	25281296	24992
116	94.537169	137007104	98185216	36116808	24992
117	96.846639	137007104	98185216	31120432	24992
118	97.639754	137007104	98185216	26772928	24992
119	97.067661	137007104	98185216	39593584	24992
120	100.093572	137007104	98185216	36582280	24992
121	101.036006	137007104	98185216	34232160	24992
122	103.299922	137007104	98185216	32539880	24992
123	106.434481	137007104	98185216	31501528	24992
124	104.702209	137007104	98185216	31138552	24992
125	104.638216	137007104	98185216	31432816	24992
126	105.700504	137007104	98185216	32383352	24992
127	106.334182	137007104	98185216	33990200	24992
128	106.997821	137007104	98185216	36258944	24992
129	109.014668	137007104	98185216	39210520	24992
130	108.804136	137007104	98185216	42829496	24992
131	112.133072	137007104	98185216	30615128	24992
132	112.088141	137007104	98185216	35556048	24992
133	113.780924	137007104	98185216	41147912	24992
134	115.970765	137007104	98185216	30918408	24992
135	113.714363	137007104	98185216	37844104	24992
136	117.386607	137007104	98185216	28931400	24992
137	117.049312	137007104	98185216	37180128	24992
138	119.456262	137007104	98185216	29584576	24992
139	117.293707	137007104	98185216	39156816	24992
140	121.106944	137007104	98185216	32890496	24992
141	119.382629	137007104	98185216	43786152	24992
142	122.966779	137007104	98185216	38854688	24992
143	124.154277	137007104	98185216	34567248	24992
144	125.472778	137007104	98185216	30951656	24992
145	123.522371	137007104	98185216	44493360	24992
146	127.723375	137007104	98185216	42203904	24992
147	128.022114	137007104	98185216	40576496	24992
148	129.538451	137007104	98185216	39598072	24992
149	130.999113	137007104	98185216	39281312	24992
150	131.197298	137007104	98185216	39626192	24992
151	132.498285	137007104	98185216	40632608	24992
152	133.496293	137007104	98185216	42300920	24992
153	134.41672	137007104	98185216	44636728	24992
154	135.057789	137007104	98185216	47640744	24992
155	139.528841	137007104	98185216	34810088	24992
156	136.912173	137007104	98185216	39135616	24992
157	138.17056	137007104	98185216	44117056	24992
158	140.198104	137007104	98185216	49760936	24992
159	144.683467	137007104	98185216	39576184	24992
160	143.10995	137007104	98185216	46548128	24992
161	146.459745	137007104	98185216	37690504	24992
162	143.365292	137007104	98185216	45986328	24992
163	148.560848	137007104	98185216	38450152	24992
164	146.847925	137007104	98185216	48069056	24992
165	150.430024	137007104	98185216	41857064	24992
166	147.471943	137007104	98185216	52793456	24992
167	159.151576	134864896	97136640	19593752	24992
168	128.276387	134864896	97136640	15241600	24992
169	128.629147	135135232	97136640	28406224	24992
170	129.769382	135135232	97136640	25739664	24992
171	134.054174	135135232	97136640	23738568	24992
172	131.90305	135135232	97136640	22397440	24992
173	133.524727	135135232	97136640	21706848	24992
174	134.633719	135135232	97136640	21679184	24992
175	137.033015	135135232	97136640	22314568	24992
176	137.020677	135135232	97136640	23613072	24992
177	139.264411	135135232	97136640	25574608	24992
178	140.045624	135135232	97136640	28080808	24992
179	141.285929	135135232	97136640	31131240	24992
180	143.277531	135135232	97136640	18347616	24992
181	143.367987	135135232	97136640	22719656	24992
182	147.821213	135135232	97136640	27752632	24992
183	145.298888	135135232	97136640	33442976	24992
184	147.383081	135135232	97136640	23306936	24992
185	150.258849	135135232	97136640	30324928	24992
186	150.624474	135135232	97136640	21519920	24992
187	150.709562	135135232	97136640	29864720	24992
188	152.15742	135135232	97136640	22375264	24992
189	152.099725	135135232	97136640	32040288	24992
190	155.015185	135135232	97136640	25881904	24992
191	156.523189	135135232	97136640	36894736	24992
192	158.473002	135135232	97136640	32052600	24992
193	157.277819	135135232	97136640	27872064	24992
194	159.117235	135135232	97136640	24340048	24992
195	158.987563	135135232	97136640	37975744	24992
196	161.017419	135135232	97136640	35780184	24992
197	161.921167	135135232	97136640	34245472	24992
198	162.881151	135135232	97136640	33372576	24992
199	164.172666	135135232	97136640	33154536	24992
200	165.193398	135135232	97136640	33598328	24992
201	167.051779	135135232	97136640	34703560	24992
202	167.55494	135135232	97136640	36476888	24992
203	168.641878	135135232	97136640	38911896	24992
204	171.213977	135135232	97136640	42007680	24992
205	173.785375	135135232	97136640	29270440	24992
206	171.794121	135135232	97136640	33688840	24992
207	177.142589	135135232	97136640	38766432	24992
208	178.148316	135135232	97136640	28023480	24992
209	175.867324	135135232	97136640	34427200	24992
210	179.780869	135135232	97136640	41481424	24992
211	180.202972	135135232	97136640	32714544	24992
212	181.310234	135135232	97136640	41102520	24992
213	183.890804	135135232	97136640	33659264	24992
214	181.873818	135135232	97136640	43371392	24992
215	186.347572	135135232	97136640	37250880	24992
216	187.356273	135135232	97136640	31780248	24992
217	185.302161	135135232	97136640	43477072	24992
218	190.102019	135135232	97136640	39341920	24992
219	189.450474	135135232	97136640	35855840	24992
220	193.09652	135135232	97136640	33042024	24992
221	190.049913	135135232	97136640	47385392	24992
222	193.021842	135135232	97136640	45898240	24992
223	194.478496	135135232	97136640	45071472	24992
224	196.998317	135135232	97136640	44906760	24992
225	197.882451	135135232	97136640	45403992	24992
226	200.512196	135135232	97136640	46562632	24992
227	199.329484	135135232	97136640	48382328	24992
228	202.618125	135135232	97136640	50863232	24992
229	206.018218	135135232	97136640	37522936	24992
230	204.723318	135135232	97136640	41326312	24992
231	205.040538	135135232	97136640	45780056	24992
232	215.978598	123232256	85078016	16736176	24992
233	176.802499	123232256	85078016	22352576	24992
234	177.517613	123232256	85078016	28637496	24992
235	177.600293	123232256	85078016	19087728	24992
236	181.122682	123232256	85078016	26680960	24992
237	178.437853	123232256	85078016	18453752	24992
238	179.230331	123232256	85078016	27373912	24992
239	180.225158	123232256	85078016	20466720	24992
240	182.167131	123232256	85078016	30713696	24992
241	181.915203	123232256	85078016	25301328	24992
242	182.975896	123232256	85078016	20551096	24992
243	184.774258	123232256	85078016	32950472	24992
244	188.725603	123232256	85078016	29521864	24992
245	188.493699	123232256	85078016	26756312	24992
246	190.137687	123232256	85078016	24652784	24992
247	193.172286	123232256	85078016	23199584	24992
248	192.01644	123232256	85078016	22409016	24992
249	195.626842	123232256	85078016	22304888	24992
250	197.866093	123232256	85078016	22862784	24992
251	200.470133	123232256	85078016	24065664	24992
252	197.177001	123232256	85078016	25924656	24992
253	198.374515	123232256	85078016	28440152	24992
254	199.742788	123232256	85078016	31617432	24992
255	201.042284	123232256	85078016	35468840	24992
256	204.337316	123232256	85078016	23488320	24992
257	208.969992	123232256	85078016	28691552	24992
258	205.805191	123232256	85078016	34544288	24992
259	211.612923	123232256	85078016	24576032	24992
260	207.755778	123232256	85078016	31763144	24992
261	210.554461	123232256	85078016	39600888	24992
262	211.898919	123232256	85078016	31617248	24992
263	212.863223	123232256	85078016	40787944	24992
264	216.137367	123232256	85078016	34137952	24992
265	216.735326	123232256	85078016	28126808	24992
266	215.900255	123232256	85078016	39283640	24992
267	220.631122	123232256	85078016	34608424	24992
268	221.188884	123232256	85078016	30582208	24992
269	220.510219	123232256	85078016	43723304	24992
270	223.622912	123232256	85078016	41033064	24992
271	224.429051	123232256	85078016	39004616	24992
272	226.400577	123232256	85078016	37637392	24992
273	228.082631	123232256	85078016	36918952	24992
274	229.557078	123232256	85078016	36862984	24992
275	233.81474	123232256	85078016	37469048	24992
276	232.188431	123232256	85078016	38736544	24992
277	236.997935	123232256	85078016	40665688	24992
278	235.0898	123232256	85078016	43262656	24992
279	237.245437	123232256	85078016	46527776	24992
280	237.453653	123232256	85078016	50456200	24992
281	242.827263	123232256	85078016	38546720	24992
282	241.354383	123232256	85078016	43800424	24992
283	243.042061	123232256	85078016	49705408	24992
284	247.249521	123232256	85078016	39784280	24992
285	245.878554	123232256	85078016	47017040	24992
286	240.412261	118837248	80883712	28836112	24992
287	217.463389	118837248	80883712	20897832	24992
288	218.875861	118837248	80883712	30110816	24992
289	221.564837	119107584	86126592	23495840	24992
290	223.361349	119648256	92418048	17543544	24992
291	224.407367	120188928	98185216	28745728	24992
292	227.858171	120459264	104476672	24118016	24992
293	228.376092	120999936	110768128	20150608	24992
294	231.481462	121540608	116535296	33332912	24992
295	231.780452	122081280	122826752	30687336	24992
296	233.353708	122351616	129118208	28705016	24992
297	234.986332	122892288	135409664	27384296	24992
298	236.695028	123162624	135409664	26728192	24992
299	239.477884	123703296	135409664	26732368	24992
300	243.542982	124239872	135409664	27408192	24992
301	243.847864	124510208	135409664	28730128	24992
302	242.12705	125050880	135409664	30720304	24992
303	244.968549	125321216	135409664	33369504	24992
304	245.725336	125591552	135409664	36680280	24992
305	250.870643	125861888	135409664	24171656	24992
306	250.097137	126402560	135409664	28805224	24992
307	250.668741	126672896	135409664	34089624	24992
308	251.906769	127213568	135409664	40047488	24992
309	256.391078	127483904	135409664	30173080	24992
310	256.398709	127754240	135409664	37442152	24992
311	260.452677	128294912	135409664	28899688	24992
312	259.742312	128565248	135409664	37513472	24992
313	264.110942	129105920	135409664	30284136	24992
314	262.207217	129376256	135409664	40210072	24992
315	265.759069	129916928	135409664	34304152	24992
316	265.288609	130187264	135409664	45542736	24992
317	268.763163	130727936	135409664	40957720	24992
318	271.412236	130998272	135409664	37037032	24992
319	272.115434	131538944	135409664	33765536	24992
320	273.203907	131809280	135409664	47663696	24992
321	275.554761	132079616	135409664	45727032	24992
322	278.641503	132620288	135409664	44453816	24992
323	278.695171	133160960	135409664	43841944	24992
324	283.871998	133431296	135409664	43891408	24992
325	282.134576	133971968	135409664	44604984	24992
326	284.881074	134242304	135409664	45980120	24992
327	288.792629	134782976	135409664	48014216	24992
328	287.859211	135323648	135409664	50709376	24992
329	290.628161	135593984	135409664	54065368	24992
330	277.668822	125722624	88748032	24303184	24992
331	250.624993	125722624	88748032	28983880	24992
332	253.788219	125722624	88748032	17828392	24992
333	255.129581	125722624	88748032	23819752	24992
334	260.140457	125722624	92942336	30484896	24992
335	259.708084	126263296	100282368	21317128	24992
336	261.262997	126803968	107098112	29293448	24992
337	264.138726	127344640	114438144	21450472	24992
338	265.543751	127885312	121253888	30750416	24992
339	268.168334	128425984	128593920	24230256	24992
340	269.568465	128966656	135409664	34853912	24992
341	271.976792	129507328	135933952	29663608	24992
342	277.547619	129777664	135933952	25136376	24992
343	276.9041	130318336	135933952	21274984	24992
344	275.801035	130859008	135933952	34557184	24992
345	278.693179	131399680	135933952	32007464	24992
346	279.706769	131940352	135933952	30118984	24992
347	281.888753	132481024	135933952	28891992	24992
348	284.407213	133021696	135933952	28314096	24992
349	286.029354	133562368	135933952	28397544	24992
350	287.787034	134103040	135933952	29142584	24992
351	290.071793	134373376	135933952	30549224	24992
352	292.990047	134914048	135933952	32626040	24992
353	294.383951	135454720	135933952	35367496	24992
354	296.400176	135995392	135933952	38771976	24992
355	296.018539	136536064	135933952	42837320	24992
356	302.404769	137076736	135933952	31070656	24992
357	300.919568	137617408	135933952	36457832	24992
358	304.229484	138158080	135933952	42502032	24992
359	306.95728	138698752	135933952	32722352	24992
360	306.991203	139239424	135933952	40107512	24992
361	308.457093	139509760	135933952	48142992	24992
362	312.595287	140050432	135933952	40342208	24992
363	311.938104	140591104	135933952	49701072	24992
364	318.959769	141131776	135933952	43224504	24992
365	319.057218	141672448	135933952	37411424	24992
366	319.163042	142213120	135933952	48750072	24992
367	325.570479	142753792	135933952	44260760	24992
368	325.737328	143294464	135933952	40433616	24992
369	308.265265	131661824	96088064	19160328	24992
370	281.680015	131661824	96088064	16425624	24992
371	281.867174	131661824	96088064	14329560	24992
372	280.987918	131661824	96088064	29378056	24992
373	282.013664	131661824	96088064	28595392	24992
374	282.839756	131661824	96088064	28474456	24992
375	284.479498	131661824	96088064	29084440	24992
376	286.111142	131661824	96088064	30551464	24992
377	288.590384	131661824	96088064	32680088	24992
378	291.834933	131661824	96088064	18982096	24992
379	295.910373	131932160	96088064	22433192	24992
380	295.479324	131932160	96088064	26557472	24992
381	297.921871	132472832	96088064	31340128	24992
382	296.715904	132472832	96088064	36776832	24992
383	304.314702	132472832	96088064	26377440	24992
384	302.71249	132472832	96088064	33124280	24992
385	303.823437	132743168	96088064	24050840	24992
386	308.56656	132743168	96088064	32131400	24992
387	307.101795	132743168	96088064	40875576	24992
388	311.405309	132743168	96088064	33784512	24992
389	314.184732	132743168	96088064	27365728	24992
390	315.306618	132743168	96088064	38103088	24992
391	317.473497	132743168	96088064	32997312	24992
392	320.923965	132743168	96088064	28541656	24992
393	320.921668	132743168	96088064	41253392	24992
394	324.694055	132743168	96088064	38134336	24992
395	327.986113	132743168	96088064	35676336	24992
396	328.311809	132743168	96088064	33867144	24992
397	332.874042	132743168	96088064	32719392	24992
398	331.137093	132743168	96088064	48739040	24992
399	334.42621	132743168	96088064	48925360	24992
400	337.671008	132743168	96088064	49773352	24992
401	346.518273	132743168	96088064	51285760	24992
402	345.286711	132743168	96088064	36965008	24992
403	344.782017	132743168	96088064	39793512	24992
404	348.9707	132743168	96088064	43279696	24992
405	341.764437	128643072	91369472	28312000	24992
406	308.503105	128643072	91369472	16357752	24992
407	310.022342	128643072	91369472	21538464	24992
408	310.278305	128643072	91369472	27392560	24992
409	309.333929	128643072	91369472	17425552	24992
410	311.73046	128643072	91369472	24881000	24992
411	313.035018	128643072	91369472	33009328	24992
412	317.220533	128643072	91369472	25302528	24992
413	320.207106	128643072	91369472	34756920	24992
414	321.253666	128643072	91369472	28377320	24992
415	326.278888	128643072	91369472	22690728	24992
416	326.071253	128643072	91369472	34115584	24992
417	330.397181	128643072	91369472	29719144	24992
418	332.127888	128643072	91369472	25984600	24992
419	330.73758	128643072	91369472	39394536	24992
420	335.451409	128643072	91369472	36984160	24992
421	337.232797	128643072	91369472	35233368	24992
422	339.394725	128643072	91369472	34145448	24992
423	349.092371	128643072	91369472	33737840	24992
424	345.676189	128643072	91369472	33972984	24992
425	346.185641	128643072	91369472	34869920	24992
426	348.965425	128643072	91369472	36428560	24992
427	351.897721	129183744	91369472	38648528	24992
428	354.0196	129454080	91369472	41528824	24992
429	356.640698	129994752	91369472	45072096	24992
430	362.973846	129994752	91369472	32782656	24992
431	361.409187	129994752	91369472	37641592	24992
432	363.678816	129994752	91369472	43162728	24992
433	364.935981	129994752	91369472	49352400	24992
434	370.810885	129994752	91369472	39708000	24992
435	373.23262	129994752	91369472	47217832	24992
436	376.250684	129994752	91369472	38898752	24992
437	379.547527	129994752	91369472	47723992	24992
438	382.966086	129994752	91369472	40727912	24992
439	355.527261	127897600	89272320	16342136	24992
440	333.383552	127897600	89272320	27152616	24992
441	338.738198	127897600	89272320	22142568	24992
442	339.782046	127897600	95039488	17792368	24992
443	343.453057	128708608	103952384	30586392	24992
444	346.79544	129249280	104476672	27572136	24992
445	349.708222	129789952	104476672	25208520	24992
446	350.493274	130330624	104476672	23505120	24992
447	355.443374	130871296	104476672	22457704	24992
448	358.845932	131411968	104476672	22083960	24992
449	361.056411	131952640	104476672	22403296	24992
450	361.609192	132222976	104476672	23358336	24992
451	369.753436	132763648	104476672	24974960	24992
452	367.123129	133304320	104476672	27253336	24992
453	370.721503	133844992	104476672	30211720	24992
454	370.853775	134385664	104476672	33825976	24992
455	374.87811	134926336	104476672	38101688	24992
456	378.615668	135467008	104476672	43022280	24992
457	384.356124	136007680	104476672	32134824	24992
458	385.149632	136548352	104476672	38382664	24992
459	388.928692	137089024	104476672	45305480	24992
460	392.045917	137359360	104476672	36390992	24992
461	390.106581	137900032	104476672	44635944	24992
462	396.711034	138440704	104476672	37023688	24992
463	403.201404	138981376	104476672	46591928	24992
464	401.205514	139522048	104476672	40303664	24992
465	405.287969	140062720	104476672	34699960	24992
466	403.390015	140603392	104476672	46249992	24992
467	409.267157	141144064	104476672	41946952	24992
468	413.141779	141684736	104476672	38329744	24992
469	414.488604	142225408	104476672	51857272	24992
470	383.19631	135667712	97136640	21688584	24992
471	358.015645	135667712	97136640	20056336	24992
472	361.98597	135667712	97136640	19084960	24992
473	368.060699	135667712	100282368	18768920	24992
474	367.914181	136478720	110243840	19108512	24992
475	371.834004	137289728	120729600	20109848	24992
476	374.714452	137830400	131215360	21772504	24992
477	378.289594	138371072	131215360	24099280	24992
478	382.457495	138911744	131215360	27098448	24992
479	386.771806	139452416	131215360	30791752	24992
480	385.073019	139993088	131215360	35091136	24992
481	390.798322	140533760	131215360	23558288	24992
482	392.72436	141074432	131215360	29191360	24992
483	394.2496	141615104	131215360	35498928	24992
484	398.87318	142155776	131215360	25949992	24992
485	400.424781	142696448	131215360	33567728	24992
486	403.629809	143237120	131215360	41878472	24992
487	408.216997	144048128	131215360	34310744	24992
488	409.329682	144588800	131215360	43925792	24992
489	414.636146	145129472	131215360	37704968	24992
490	416.117976	145670144	131215360	32148320	24992
491	416.677198	146210816	131215360	43736024	24992
492	422.670453	146751488	131215360	39479488	24992
493	425.824881	147562496	131215360	35907624	24992
494	425.979341	148103168	131215360	49479992	24992
495	431.095429	148643840	131215360	47229384	24992
496	435.7565	149184512	131215360	45621376	24992
497	437.330145	149725184	131215360	44697400	24992
498	440.425189	150265856	131215360	44434608	24992
499	405.895317	145182720	107098112	26460856	24992
500	381.459017	145182720	107098112	27334720	24992
x	Duration	RSS	HeapTotal	HeapUsed	External
0	NA	120868864	81932288	12268784	24992
1	1.066196	120868864	81932288	12949272	24992
2	1.756818	120868864	81932288	14287632	24992
3	2.430213	120868864	81932288	16285368	24992
4	3.115042	120868864	81932288	18942608	24992
5	3.855867	120868864	81932288	22259936	24992
6	4.692072	120868864	81932288	26236784	24992
7	5.87854	120868864	81932288	14407440	24992
8	6.235782	120868864	81932288	19703384	24992
9	6.7278	120868864	81932288	25659848	24992
10	8.116712	120868864	81932288	15816704	24992
11	8.164743	120868864	81932288	23092360	24992
12	9.215339	120868864	81932288	14559976	24992
13	10.053445	120868864	81932288	23154624	24992
14	11.291205	120868864	81932288	15940776	24992
15	12.342114	120868864	81932288	25868480	24992
16	12.783077	120868864	81932288	19981968	24992
17	13.194353	120868864	81932288	14748480	24992
18	13.319818	120868864	81932288	26642880	24992
19	14.470157	120868864	81932288	22731464	24992
20	15.147862	120868864	81932288	19481360	24992
21	15.732987	120868864	81932288	16884864	24992
22	16.859488	120868864	81932288	14949800	24992
23	17.676359	120868864	81932288	13677520	24992
24	18.613752	120868864	81932288	13063536	24992
25	18.70171	120868864	81932288	13110088	24992
26	19.893589	120868864	81932288	13817368	24992
27	20.427708	120868864	81932288	15185056	24992
28	21.174403	120868864	81932288	17213280	24992
29	22.373119	120868864	81932288	19902048	24992
30	23.030202	120868864	81932288	23252112	24992
31	24.296854	120868864	81932288	27264528	24992
32	24.995836	120868864	81932288	15469368	24992
33	25.398225	120868864	81932288	20798840	24992
34	25.609247	120868864	81932288	26795384	24992
35	26.810556	120868864	81932288	16985224	24992
36	27.711715	120868864	81932288	24296928	24992
37	28.442119	120868864	81932288	15814456	24992
38	28.968302	120868864	81932288	24446616	24992
39	29.641332	120868864	81932288	17284904	24992
40	30.472788	120868864	81932288	27237704	24992
41	31.154281	120868864	81932288	21397304	24992
42	31.614576	120868864	81932288	16215696	24992
43	32.385585	120868864	81932288	28149208	24992
44	33.300121	120868864	81932288	24290832	24992
45	33.876707	120868864	81932288	21093936	24992
46	35.068544	120868864	81932288	18552536	24992
47	35.297	120868864	81932288	16672352	24992
48	36.268401	120868864	81932288	15453392	24992
49	36.793254	120868864	81932288	14895216	24992
50	37.684258	120868864	81932288	14998792	24992
51	38.887849	120868864	81932288	15763680	24992
52	39.503542	120868864	81932288	17189744	24992
53	40.138216	120868864	81932288	19276816	24992
54	41.04348	120868864	81932288	22026384	24992
55	41.135194	120868864	81932288	25435000	24992
56	42.728781	120868864	81932288	29503072	24992
57	43.965452	120868864	81932288	17739008	24992
58	44.122586	120868864	81932288	23128312	24992
59	44.725041	120868864	81932288	29178112	24992
60	45.190382	120868864	81932288	19395920	24992
61	48.128236	120868864	81932288	26777776	24992
62	47.470416	120868864	81932288	18366504	24992
63	47.456193	120868864	81932288	27105344	24992
64	48.213023	120868864	81932288	20012400	24992
65	49.070209	120868864	81932288	30082136	24992
66	49.979101	120868864	81932288	24329816	24992
67	50.606352	120868864	81932288	19241664	24992
68	50.965846	120868864	81932288	31292352	24992
69	52.393718	120868864	81932288	27524768	24992
70	53.292891	120868864	81932288	24419480	24992
71	54.157349	120868864	81932288	21977744	24992
72	54.299884	120868864	81932288	20186592	24992
73	55.392689	120868864	81932288	19064896	24992
74	56.179035	120868864	81932288	18604680	24992
75	56.909165	120868864	81932288	18806064	24992
76	58.827825	120868864	81932288	19669216	24992
77	59.455487	120868864	81932288	21195008	24992
78	60.409202	120868864	81932288	23381048	24992
79	60.778511	120868864	81932288	26226544	24992
80	61.393533	120868864	81932288	29728696	24992
81	63.107218	120868864	81932288	17400104	24992
82	63.884009	120868864	81932288	22241976	24992
83	63.66203	120868864	81932288	27737624	24992
84	64.139829	120868864	81932288	33894560	24992
85	65.464372	120868864	81932288	24212184	24992
86	65.76938	120868864	81932288	31692472	24992
87	67.045434	120868864	81932288	23341080	24992
88	67.878052	120868864	81932288	32144416	24992
89	69.788383	120868864	81932288	25126704	24992
90	69.938832	120868864	81932288	35268136	24992
91	71.096916	120868864	81932288	29559760	24992
92	71.670687	120868864	81932288	24513688	24992
93	72.390939	120868864	81932288	20133928	24992
94	72.022486	120868864	81932288	32900680	24992
95	74.845399	120868864	81932288	29842296	24992
96	75.639351	120868864	81932288	27440352	24992
97	75.699233	120868864	81932288	25693424	24992
98	76.653827	120868864	81932288	24620944	24992
99	77.990324	120868864	81932288	24207728	24992
100	78.863904	120868864	81932288	24456728	24992
101	80.093763	120868864	81932288	25367072	24992
102	81.159829	120868864	81932288	26938704	24992
103	81.428018	120868864	81932288	29166168	24992
104	81.883747	120868864	81932288	32050176	24992
105	82.518488	120868864	81932288	35601032	24992
106	85.060442	120868864	81932288	23333032	24992
107	84.395066	120868864	81932288	28213000	24992
108	85.408925	120868864	81932288	33748536	24992
109	87.252143	120868864	81932288	23458144	24992
110	88.458824	120868864	81932288	30322848	24992
111	87.62846	120868864	81932288	37837968	24992
112	89.896343	120868864	81932288	29533064	24992
113	89.774866	120868864	81932288	38371440	24992
114	92.281893	120868864	81932288	31390704	24992
115	93.221242	120868864	81932288	25058624	24992
116	92.21427	120868864	81932288	35894168	24992
117	94.870429	120868864	81932288	30898032	24992
118	95.93203	120868864	81932288	26550512	24992
119	94.612267	120868864	81932288	39370992	24992
120	97.318045	120868864	81932288	36357912	24992
121	98.94889	120868864	81932288	34016504	24992
122	99.356085	120868864	81932288	32315672	24992
123	100.501822	120868864	81932288	31276296	24992
124	102.640949	120868864	81932288	30914232	24992
125	102.020383	120868864	81932288	31208384	24992
126	102.900263	120868864	82456576	32164240	24992
127	103.815215	121139200	82456576	33770960	24992
128	105.445105	121409536	82980864	36039800	24992
129	105.890725	121679872	82980864	38984856	24992
130	106.208248	121679872	82980864	42604200	24992
131	109.290727	121950208	82980864	30390168	24992
132	108.953917	121950208	83505152	35331328	24992
133	110.306925	122220544	83505152	40922680	24992
134	112.479499	122490880	84029440	30693192	24992
135	110.826405	122761216	84029440	37618808	24992
136	114.677338	122761216	84029440	28699696	24992
137	112.941843	123031552	84029440	36948616	24992
138	116.554774	123031552	84553728	29353032	24992
139	114.727045	123301888	84553728	38924904	24992
140	117.876574	123572224	85078016	32658824	24992
141	116.911759	123572224	85078016	43554432	24992
142	123.10053	123842560	85078016	38622888	24992
143	121.185452	124112896	85602304	34335304	24992
144	122.4598	124112896	85602304	30719760	24992
145	120.968447	124383232	85602304	44261304	24992
146	124.791689	124653568	86126592	41972136	24992
147	125.182652	124653568	86126592	40344696	24992
148	125.774134	124923904	86126592	39366544	24992
149	127.70994	125194240	86650880	39049736	24992
150	128.640265	125194240	86650880	39394616	24992
151	128.819697	125464576	86650880	40401080	24992
152	129.705486	125734912	87175168	42069184	24992
153	130.858121	125734912	87175168	44404960	24992
154	132.662113	126005248	87175168	47408752	24992
155	135.836938	126275584	87175168	34578496	24992
156	133.629629	126275584	87175168	38904120	24992
157	135.24265	126275584	87175168	43890832	24992
158	137.777502	126275584	87175168	49534632	24992
159	140.320649	126275584	87699456	39350872	24992
160	137.73476	126545920	87699456	46322720	24992
161	144.240483	126545920	87699456	37463856	24992
162	139.813636	126545920	87699456	45759528	24992
163	143.83209	126545920	87699456	38223160	24992
164	142.165521	126545920	87699456	47842048	24992
165	147.029236	126545920	87699456	41628856	24992
166	144.238951	126545920	87699456	52565296	24992
167	154.443846	126291968	88748032	12833048	24992
168	125.448207	126291968	88748032	24978632	24992
169	126.353524	126291968	88748032	21290456	24992
170	126.971738	126291968	88748032	18250576	24992
171	128.104991	126291968	88748032	15882216	24992
172	128.793686	126291968	88748032	14175560	24992
173	129.97026	126291968	88748032	29624584	24992
174	130.350733	126291968	89796608	29240416	24992
175	131.316746	126562304	93466624	29519736	24992
176	132.218089	126832640	97136640	30459944	24992
177	132.369735	127102976	101330944	15565064	24992
178	133.055717	127102976	101330944	17826752	24992
179	134.782865	127373312	101330944	20756544	24992
180	137.57852	127643648	101330944	24461240	24992
181	135.799484	127913984	101330944	28822344	24992
182	137.518634	128184320	101330944	17362368	24992
183	138.455945	128454656	101330944	23057672	24992
184	139.215304	128454656	101330944	29403672	24992
185	139.776482	128724992	101330944	19928776	24992
186	141.081624	128995328	101330944	27609152	24992
187	142.659049	129265664	101330944	19458144	24992
188	144.406795	129536000	101330944	28472312	24992
189	144.646131	129806336	101330944	21643592	24992
190	146.741084	130076672	101330944	31978168	24992
191	148.434545	130347008	101330944	26501320	24992
192	148.415302	130617344	101330944	21645824	24992
193	148.209693	130887680	101330944	33958952	24992
194	149.826173	130887680	101330944	30438792	24992
195	151.018035	131158016	101330944	27580936	24992
196	152.740328	131428352	101330944	25371520	24992
197	153.617623	131698688	101330944	23834648	24992
198	154.507059	131969024	101330944	22960072	24992
199	155.649664	132239360	101330944	22747000	24992
200	159.171261	132509696	101330944	23195616	24992
201	157.905851	132780032	101330944	24305880	24992
202	158.819276	133050368	101330944	26077736	24992
203	162.541399	133320704	101330944	28511304	24992
204	161.411547	133591040	101330944	31605904	24992
205	162.287663	133861376	101330944	35351576	24992
206	163.074146	134131712	101330944	39771464	24992
207	165.827755	134402048	101330944	28359352	24992
208	167.811729	134402048	101330944	34119384	24992
209	171.022324	134672384	101330944	40510976	24992
210	169.580434	134942720	101330944	31083456	24992
211	169.436346	135213056	101330944	38804920	24992
212	173.419447	135483392	101330944	30699552	24992
213	172.448665	135753728	101330944	39749512	24992
214	174.26466	136024064	101330944	32968072	24992
215	176.971752	136294400	101330944	43336032	24992
216	176.883098	136564736	101330944	37876056	24992
217	178.450557	136835072	101330944	33072904	24992
218	178.166785	137375744	101330944	45430792	24992
219	180.490431	137646080	101330944	41957800	24992
220	182.082082	137916416	101330944	39145984	24992
221	184.963821	138186752	101330944	36989184	24992
222	183.20095	138457088	101330944	35488048	24992
223	184.897641	138727424	101330944	34659376	24992
224	186.273513	138997760	101330944	34492648	24992
225	188.388956	139268096	101330944	34988504	24992
226	189.028939	139538432	101330944	36145320	24992
227	189.931138	139808768	101330944	37963208	24992
228	190.508077	139808768	101330944	40437704	24992
229	194.393133	139808768	101330944	43579312	24992
230	192.800111	139808768	101330944	47383808	24992
231	200.234103	139808768	101330944	35354912	24992
232	196.886525	139808768	101330944	40481384	24992
233	197.796811	139808768	101330944	46258368	24992
234	202.838356	139808768	101330944	52710880	24992
235	203.6309	139808768	101330944	43326736	24992
236	203.626141	139808768	101330944	51088760	24992
237	203.795768	138829824	100282368	23803472	24992
238	177.182174	138829824	100282368	16236696	24992
239	179.15521	138829824	100282368	25822944	24992
240	179.570645	138829824	100282368	19576624	24992
241	180.885335	138829824	100282368	30474128	24992
242	181.826007	138829824	100282368	25552376	24992
243	181.964568	138829824	100282368	21290288	24992
244	184.371148	138829824	100282368	17678472	24992
245	183.799298	138829824	100282368	31241592	24992
246	185.069968	138829824	100282368	29134960	24992
247	185.676832	138829824	100282368	27692712	24992
248	186.555629	138829824	100282368	26912600	24992
249	187.49868	138829824	100282368	26794104	24992
250	189.207557	138829824	100282368	27336960	24992
251	190.793725	138829824	100282368	28541288	24992
252	193.726256	138829824	100282368	30410392	24992
253	193.477004	138829824	100282368	32938200	24992
254	198.622243	138829824	100282368	19671136	24992
255	196.760818	138829824	100282368	23521008	24992
256	198.599238	138829824	100282368	28032200	24992
257	200.214181	138829824	100282368	33223928	24992
258	201.55037	138829824	100282368	22593944	24992
259	202.482173	138829824	100282368	29119416	24992
260	207.820059	138829824	100806656	36295168	24992
261	205.251467	139100160	100806656	27648552	24992
262	207.807703	139370496	100806656	36147528	24992
263	208.710518	139370496	100806656	28826040	24992
264	208.703169	139370496	100806656	38648448	24992
265	212.070849	139370496	100806656	32650776	24992
266	213.116546	139370496	100806656	27307920	24992
267	216.80021	139370496	100806656	39134744	24992
268	216.163329	139370496	100806656	35132112	24992
269	217.194488	139370496	100806656	31779832	24992
270	219.220582	139370496	100806656	29076520	24992
271	218.505712	139370496	100806656	43540824	24992
272	221.253266	139370496	100806656	42170816	24992
273	222.302575	139370496	100806656	41465336	24992
274	224.075287	139370496	100806656	41421592	24992
275	224.909673	139370496	100806656	42039400	24992
276	226.430985	139370496	101330944	43318944	24992
277	228.009341	139640832	101330944	45261608	24992
278	230.498804	139911168	101330944	47880256	24992
279	237.64164	139911168	101330944	34648528	24992
280	233.85942	139911168	101330944	38573176	24992
281	233.926155	139911168	101330944	43150464	24992
282	234.925485	139911168	101330944	48400176	24992
283	240.219	139911168	101330944	37816320	24992
284	239.716824	139911168	101330944	44385008	24992
285	241.481124	139911168	101330944	51619928	24992
286	244.129557	139911168	101330944	43019432	24992
287	243.074203	139911168	101330944	51564616	24992
288	248.20053	139911168	101330944	44288944	24992
289	253.804946	139911168	101330944	37671112	24992
290	234.875006	139911168	101330944	13961288	24992
291	222.644785	139911168	101330944	24958224	24992
292	217.255777	139911168	101330944	20121184	24992
293	219.546596	139911168	101330944	15933552	24992
294	219.230507	139911168	101330944	28912264	24992
295	220.840776	139911168	102903808	26059776	24992
296	221.082893	140181504	102903808	23869224	24992
297	223.379176	140451840	102903808	22348248	24992
298	223.38245	140722176	102903808	21676928	24992
299	225.130136	140992512	102903808	21666712	24992
300	228.253546	141533184	102903808	22318280	24992
301	229.062831	141533184	102903808	23631528	24992
302	231.127891	141533184	102903808	25609600	24992
303	233.72745	141533184	103428096	28253752	24992
304	235.546034	142069760	103428096	31606536	24992
305	234.016168	142340096	103428096	35578448	24992
306	241.043369	142340096	103428096	23719088	24992
307	238.931371	142340096	103428096	29014352	24992
308	239.759643	142340096	103428096	34966192	24992
309	241.846093	142340096	103428096	25091640	24992
310	243.945416	142340096	103428096	32371368	24992
311	244.632301	142340096	103428096	40314696	24992
312	248.010284	142340096	103428096	32423024	24992
313	248.211892	142340096	103428096	41689480	24992
314	250.310968	142340096	103428096	35124152	24992
315	252.097816	142340096	103428096	29227328	24992
316	253.206483	142340096	103428096	40481488	24992
317	255.310015	142340096	103428096	35900520	24992
318	257.264714	142340096	103428096	31980120	24992
319	258.005237	142340096	103428096	45203800	24992
320	260.430599	142340096	103428096	42608624	24992
321	262.088141	142340096	103428096	40675208	24992
322	265.113796	142340096	103428096	39401016	24992
323	265.668444	142340096	103428096	38788552	24992
324	269.052206	142340096	103428096	38838192	24992
325	271.784546	142340096	103428096	39542928	24992
326	274.568942	142340096	103428096	40908920	24992
327	272.322797	142340096	103428096	42943256	24992
328	273.192765	142340096	103428096	45639072	24992
329	275.727285	142340096	103428096	48995736	24992
330	282.43822	142340096	103428096	36522200	24992
331	281.039535	142340096	103428096	41201368	24992
332	281.154327	142340096	103428096	46531136	24992
333	284.235073	142340096	103428096	52536600	24992
334	277.625527	142340096	103428096	23164128	24992
335	255.208007	142340096	103428096	13794504	24992
336	251.861322	142340096	103428096	21552528	24992
337	253.180883	142340096	103428096	29963056	24992
338	252.261931	142340096	103428096	22544088	24992
339	254.660217	142340096	103428096	15791336	24992
340	256.005032	142340096	103428096	26626040	24992
341	257.833108	142340096	103428096	21428824	24992
342	260.093253	142340096	103428096	33375728	24992
343	262.420809	142340096	103428096	29500232	24992
344	264.204845	142340096	103428096	26288296	24992
345	266.6837	142340096	103428096	23740680	24992
346	268.862923	142340096	103428096	21847048	24992
347	270.925049	142340096	103428096	37137928	24992
348	274.814629	142340096	103428096	36571488	24992
349	273.756988	142340096	103428096	36665000	24992
350	276.540795	142340096	103428096	37423624	24992
351	276.653183	142340096	103428096	38842696	24992
352	281.160241	142340096	103428096	24427168	24992
353	279.973875	142340096	103428096	27169312	24992
354	282.874771	142340096	103428096	30561040	24992
355	285.543587	142340096	103428096	34614656	24992
356	287.610143	142340096	103428096	39360288	24992
357	290.010663	142340096	103428096	28256152	24992
358	292.106766	142340096	103428096	34304840	24992
359	291.701088	142340096	103428096	41010928	24992
360	295.327188	142340096	103428096	31901592	24992
361	297.710721	142340096	103428096	39924272	24992
362	300.305597	142340096	103428096	32126864	24992
363	299.602327	142340096	103428096	41483840	24992
364	303.348965	142340096	103428096	35009240	24992
365	304.011669	142340096	103428096	45678560	24992
366	310.900382	142340096	103428096	40528112	24992
367	309.412363	142340096	103428096	36038256	24992
368	308.86709	142340096	103428096	48697904	24992
369	316.164817	142340096	103428096	45534856	24992
370	315.936405	142340096	103428096	43030088	24992
371	318.772748	142340096	103428096	41188184	24992
372	323.542624	142340096	103428096	39996176	24992
373	305.517949	141291520	102903808	20489136	24992
374	281.451874	141561856	102903808	20391320	24992
375	282.242813	141832192	103428096	20951016	24992
376	280.503228	142102528	103952384	22149416	24992
377	282.900666	142643200	103952384	24009016	24992
378	282.247229	142643200	103952384	26531568	24992
379	287.178219	142643200	103952384	29754728	24992
380	286.024087	142643200	103952384	17370472	24992
381	290.236187	142643200	103952384	22142744	24992
382	293.578331	142643200	103952384	27576392	24992
383	292.192201	142643200	103952384	33673944	24992
384	301.583698	142643200	103952384	23977728	24992
385	299.139362	142643200	103952384	31387136	24992
386	301.916552	142643200	103952384	22973216	24992
387	303.86857	142643200	103952384	31710328	24992
388	304.906488	142643200	103952384	24621520	24992
389	306.18891	142643200	103952384	34681760	24992
390	308.57271	142643200	103952384	28916272	24992
391	309.366774	142643200	103952384	40294608	24992
392	317.215833	142643200	103952384	35857808	24992
393	314.756864	142643200	103952384	32077176	24992
394	319.497758	142643200	103952384	28960560	24992
395	318.492737	142643200	103952384	42984896	24992
396	322.080597	142643200	103952384	41185304	24992
397	326.566131	142643200	103952384	40051072	24992
398	327.955486	142643200	103952384	39578272	24992
399	328.215046	142643200	103952384	39766944	24992
400	330.237115	142643200	103952384	40616744	24992
401	331.856046	142643200	103952384	42128240	24992
402	334.331585	142643200	103952384	44301536	24992
403	336.736348	142643200	103952384	47138272	24992
404	339.297916	142643200	103952384	50636504	24992
405	345.101375	142643200	103952384	38304160	24992
406	346.854042	142643200	103952384	43112480	24992
407	350.362056	142643200	103952384	48596144	24992
408	353.450488	142643200	103952384	38245624	24992
409	334.091049	142643200	103952384	26945984	24992
410	307.597336	142643200	103952384	17629256	24992
411	306.798283	142643200	103952384	25453616	24992
412	307.223054	142643200	105525248	17457568	24992
413	310.099373	143183872	105525248	26613936	24992
414	310.958802	143454208	105525248	20232912	24992
415	315.074405	143994880	105525248	30996600	24992
416	316.573284	144265216	105525248	25938872	24992
417	319.038894	144265216	105525248	21543448	24992
418	322.499502	144265216	105525248	34294048	24992
419	326.290965	144265216	105525248	31258576	24992
420	327.938115	144265216	105525248	28848232	24992
421	329.012008	144265216	105525248	27101520	24992
422	330.326239	144265216	105525248	26007048	24992
423	335.315003	144265216	105525248	25568200	24992
424	334.86523	144265216	105525248	25791136	24992
425	337.671467	144265216	105525248	26675368	24992
426	340.283798	144265216	105525248	28221304	24992
427	344.477424	144265216	105525248	30446576	24992
428	345.824647	144265216	105525248	33316520	24992
429	347.179126	144265216	105525248	36859392	24992
430	349.323372	144265216	105525248	41065376	24992
431	354.241464	144265216	105525248	29436960	24992
432	353.784343	144265216	105525248	34963064	24992
433	356.232582	144265216	105525248	41146312	24992
434	359.151344	144265216	105525248	47999064	24992
435	365.911287	144265216	105525248	39019272	24992
436	368.788661	144265216	105525248	47195168	24992
437	374.041044	144265216	105525248	39537864	24992
438	368.765484	144265216	105525248	49039112	24992
439	375.709533	144265216	105525248	42705512	24992
440	379.206217	144265216	105525248	37032656	24992
441	379.519107	144265216	105525248	48509728	24992
442	358.060616	144265216	105525248	24796920	24992
443	332.799688	144265216	105525248	20795232	24992
444	333.748417	144265216	105525248	17463752	24992
445	333.195586	144265216	105525248	31265352	24992
446	334.653485	144265216	105525248	29252560	24992
447	335.610304	144265216	105525248	27945560	24992
448	337.935226	144265216	105525248	27564328	24992
449	341.08578	144265216	105525248	27847768	24992
450	346.385869	144265216	105525248	28795168	24992
451	348.911605	144265216	105525248	30417496	24992
452	353.231298	144265216	105525248	32709728	24992
453	357.232124	144265216	105525248	35658424	24992
454	361.29433	144265216	105525248	22753784	24992
455	359.895191	144265216	105525248	27022256	24992
456	364.896314	144265216	105525248	31946872	24992
457	368.356482	144265216	105525248	37545856	24992
458	375.437561	144265216	105525248	27287840	24992
459	374.486889	144265216	105525248	34206976	24992
460	375.806305	144265216	105525248	41801240	24992
461	382.004126	144265216	105525248	33524848	24992
462	381.719844	144265216	105525248	42431632	24992
463	387.482242	144265216	105525248	35481792	24992
464	389.664656	144265216	105525248	45711784	24992
465	393.570836	144265216	105525248	40105920	24992
466	399.439253	144265216	105525248	35164768	24992
467	397.287049	144265216	105525248	47368240	24992
468	402.234763	144265216	105525248	43725384	24992
469	406.932252	144265216	105525248	40744944	24992
470	409.3526	144265216	105525248	38450720	24992
471	414.201109	144265216	105525248	36807016	24992
472	415.090971	144265216	105525248	52323608	24992
473	386.558847	144265216	105525248	17588760	24992
474	359.332679	144265216	105525248	17574952	24992
475	357.822186	144265216	105525248	18214560	24992
476	360.405303	144535552	111292416	19515648	24992
477	357.846757	144805888	111292416	21510008	24992
478	362.837501	145346560	111292416	24508288	24992
479	362.586725	146157568	111292416	28168440	24992
480	366.998154	146698240	111292416	32467576	24992
481	370.974871	147238912	111292416	20953272	24992
482	376.0911	147779584	111292416	26610792	24992
483	376.076838	148320256	111292416	32918504	24992
484	380.388827	148860928	111292416	23369664	24992
485	380.786389	149401600	111292416	30987928	24992
486	385.883646	149942272	111292416	39279848	24992
487	387.583807	150212608	111292416	31736424	24992
488	388.88902	150212608	111292416	41351520	24992
489	395.371153	150753280	111816704	35150768	24992
490	397.326218	150753280	111816704	29594672	24992
491	397.922318	150753280	111816704	41182304	24992
492	404.317262	150753280	111816704	36925832	24992
493	411.547578	150753280	111816704	33354192	24992
494	405.188475	150753280	111816704	46926528	24992
495	411.986235	150753280	111816704	44684544	24992
496	417.508454	150753280	111816704	43072344	24992
497	419.685786	150753280	111816704	42121296	24992
498	422.058141	150753280	111816704	41857872	24992
499	424.279924	150753280	111816704	42257040	24992
500	429.649318	150753280	111816704	43317928	24992
