x	Duration	RSS	HeapTotal	HeapUsed	External
0	NA	118636544	79835136	12287064	24992
1	1.223771	118636544	79835136	12967592	24992
2	2.019989	118636544	79835136	14305960	24992
3	2.956	118636544	79835136	16303760	24992
4	3.153177	118636544	79835136	18961000	24992
5	3.929192	118636544	79835136	22278328	24992
6	4.649474	118636544	79835136	26255176	24992
7	5.436966	118636544	79835136	14425840	24992
8	6.209505	118636544	79835136	19721784	24992
9	6.580703	118636544	79835136	25678248	24992
10	7.618645	118636544	79835136	15835144	24992
11	8.088286	118636544	79835136	23110736	24992
12	9.210767	118636544	79835136	14578368	24992
13	9.673344	118636544	79835136	23173016	24992
14	10.747965	118636544	79835136	15959200	24992
15	12.331073	118636544	79835136	25886872	24992
16	12.338972	118636544	79835136	20000856	24992
17	12.913867	118636544	79835136	14767352	24992
18	13.324422	118636544	79835136	26661624	24992
19	14.318462	118636544	79835136	22750176	24992
20	15.084263	118636544	79835136	19499832	24992
21	16.022769	118636544	79835136	16903320	24992
22	16.458275	118636544	79835136	14968224	24992
23	18.27161	118636544	79835136	13695992	24992
24	18.065457	118636544	79835136	13082008	24992
25	18.652243	118636544	79835136	13128592	24992
26	19.650323	118636544	79835136	13835984	24992
27	19.817741	118636544	79835136	15203672	24992
28	21.110524	118636544	79835136	17231896	24992
29	22.005724	118636544	79835136	19920696	24992
30	22.686031	118636544	79835136	23269168	24992
31	22.640124	118636544	79835136	27277912	24992
32	24.338299	118636544	79835136	15484816	24992
33	24.673781	118636544	79835136	20816416	24992
34	25.703711	118636544	79835136	26818632	24992
35	26.531551	118636544	79835136	17008488	24992
36	26.895749	118636544	79835136	24321784	24992
37	28.416398	118636544	79835136	15839328	24992
38	27.878205	118636544	79835136	24471504	24992
39	29.452308	118636544	79835136	17309648	24992
40	29.759455	118636544	79835136	27262416	24992
41	30.794637	118636544	79835136	21422048	24992
42	31.143265	118636544	79835136	16240456	24992
43	32.489779	118636544	79835136	28173952	24992
44	32.540773	118636544	79835136	24315496	24992
45	33.660445	118636544	79835136	21118648	24992
46	34.151409	118636544	79835136	18577312	24992
47	35.627329	118636544	79835136	16697016	24992
48	35.623136	118636544	79835136	15478072	24992
49	36.149248	118636544	79835136	14919960	24992
50	37.648775	118636544	79835136	15023520	24992
51	37.870737	118636544	79835136	15788408	24992
52	38.88375	118636544	79835136	17213976	24992
53	39.951845	118636544	79835136	19302560	24992
54	40.309035	118636544	79835136	22050472	24992
55	40.971196	118636544	79835136	25459104	24992
56	41.609983	118636544	79835136	29528352	24992
57	42.271611	118636544	79835136	17764320	24992
58	43.580103	118636544	79835136	23153576	24992
59	43.439322	118636544	79835136	29203392	24992
60	45.046005	118636544	79835136	19420800	24992
61	46.033288	118636544	79835136	26801544	24992
62	46.033204	118636544	79835136	18387712	24992
63	47.071526	118636544	79835136	27126392	24992
64	47.856337	118636544	79835136	20033368	24992
65	48.652688	118636544	79835136	30103184	24992
66	48.731745	118636544	79835136	24350864	24992
67	50.588003	118636544	79835136	19262840	24992
68	50.288706	118636544	79835136	31313720	24992
69	51.32924	118636544	79835136	27547976	24992
70	52.042368	118636544	79835136	24442832	24992
71	52.568763	118636544	79835136	22001128	24992
72	53.624276	118636544	79835136	20209864	24992
73	54.225376	118636544	79835136	19088232	24992
74	55.421008	118636544	79835136	18628048	24992
75	56.447087	118636544	79835136	18829368	24992
76	56.983345	118636544	79835136	19692312	24992
77	57.546192	118636544	79835136	21216936	24992
78	58.293176	118636544	79835136	23403216	24992
79	59.420477	118636544	79835136	26248888	24992
80	59.690242	118636544	79835136	29750592	24992
81	65.315966	118636544	79835136	17420816	24992
82	62.214923	118636544	79835136	22254656	24992
83	62.257538	118636544	79835136	27749928	24992
84	63.272958	118636544	79835136	33906408	24992
85	64.25412	118636544	79835136	24222920	24992
86	64.441308	118636544	79835136	31705288	24992
87	66.197663	118636544	79835136	23353456	24992
88	66.548865	118636544	79835136	32164640	24992
89	68.02058	118636544	79835136	25146152	24992
90	67.315411	118636544	79835136	35270400	24992
91	70.336367	118636544	79835136	29568856	24992
92	71.370491	118636544	79835136	24539368	24992
93	70.852121	118636544	79835136	20161896	24992
94	71.06555	118636544	79835136	32928024	24992
95	72.008339	118636544	79835136	29869560	24992
96	74.068809	118636544	79835136	27467488	24992
97	74.753164	118636544	79835136	25720496	24992
98	74.815363	118636544	79835136	24645424	24992
99	75.843694	118636544	79835136	24232224	24992
100	77.154043	118636544	79835136	24481304	24992
101	77.748305	118636544	79835136	25391632	24992
102	78.493934	118636544	79835136	26963184	24992
103	79.283654	118636544	79835136	29190728	24992
104	80.116204	118636544	79835136	32074608	24992
105	81.219362	118636544	79835136	35625464	24992
106	82.943452	118636544	79835136	23357496	24992
107	82.94808	118636544	79835136	28237256	24992
108	83.270579	118636544	79835136	33772904	24992
109	85.163955	118636544	79835136	23482560	24992
110	84.988119	118636544	79835136	30347168	24992
111	86.12403	118636544	79835136	37862352	24992
112	87.82948	118636544	79835136	29557304	24992
113	87.744594	118636544	79835136	38395616	24992
114	90.020999	118636544	79835136	31414896	24992
115	90.7086	118636544	79835136	25083168	24992
116	90.357397	118636544	79835136	35918616	24992
117	92.233039	118636544	79835136	30922192	24992
118	93.215041	118636544	79835136	26574736	24992
119	92.37322	118636544	79835136	39395168	24992
120	95.514992	118636544	79835136	36384632	24992
121	96.67192	118636544	79835136	34034688	24992
122	96.903737	118636544	79835136	32333744	24992
123	102.630704	118636544	79835136	31303112	24992
124	100.285402	118636544	79835136	30940040	24992
125	100.189417	118636544	79835136	31235200	24992
126	101.949244	118636544	79835136	32191008	24992
127	102.453379	118636544	79835136	33798064	24992
128	102.568676	118636544	80359424	36067032	24992
129	103.506662	118636544	80359424	39012312	24992
130	104.660523	118906880	80359424	42632792	24992
131	107.738233	118906880	80359424	30416904	24992
132	105.985566	118906880	80359424	35357936	24992
133	107.17447	118906880	80359424	40949288	24992
134	109.706473	118906880	80359424	30719800	24992
135	109.034736	118906880	80359424	37645560	24992
136	111.795852	118906880	80359424	28726352	24992
137	110.344311	118906880	80359424	36975096	24992
138	113.650389	118906880	80359424	29379608	24992
139	112.784575	118906880	80359424	38951528	24992
140	115.438658	118906880	80359424	32685448	24992
141	113.919747	118906880	80359424	43580912	24992
142	117.336876	118906880	80359424	38649480	24992
143	118.534183	118906880	80359424	34361800	24992
144	120.020954	118906880	80359424	30746256	24992
145	118.120977	118906880	80359424	44287960	24992
146	121.145742	118906880	80359424	41998664	24992
147	122.239668	118906880	80359424	40373240	24992
148	122.880263	118906880	80359424	39394792	24992
149	123.926733	118906880	80359424	39078280	24992
150	125.316955	118906880	80359424	39423208	24992
151	125.618281	118906880	80359424	40429784	24992
152	126.83381	118906880	80359424	42097840	24992
153	128.256486	118906880	80359424	44433568	24992
154	129.069918	118906880	80359424	47437392	24992
155	132.529383	118906880	80359424	34607184	24992
156	132.09222	118906880	80359424	38932744	24992
157	132.225191	118906880	80359424	43919344	24992
158	132.517676	118906880	80359424	49563224	24992
159	136.652655	118906880	80359424	39380984	24992
160	134.810463	118906880	80359424	46352656	24992
161	138.575156	118906880	80359424	37493832	24992
162	136.971587	118906880	80359424	45789608	24992
163	140.98508	118906880	80359424	38254344	24992
164	138.709396	118906880	80359424	47873376	24992
165	142.400377	118906880	80359424	41660152	24992
166	140.168968	119177216	80883712	52596656	24992
167	152.076174	118808576	80883712	28415816	24992
168	124.988273	118808576	80883712	24095296	24992
169	124.090535	118808576	80883712	20418016	24992
170	125.371788	118808576	80883712	17389272	24992
171	128.927166	118808576	80883712	15035136	24992
172	125.87156	118808576	80883712	29823408	24992
173	126.673093	118808576	80883712	28784304	24992
174	126.914453	118808576	80883712	28402792	24992
175	130.91226	118808576	80883712	28681888	24992
176	128.501341	118808576	80883712	29621920	24992
177	130.492842	118808576	80883712	31223272	24992
178	130.94997	118808576	80883712	16991912	24992
179	132.825532	118808576	80883712	19921304	24992
180	132.744492	118808576	80883712	23631320	24992
181	133.136215	118808576	80883712	27992728	24992
182	135.701598	118808576	80883712	33028016	24992
183	135.683513	118808576	80883712	22228136	24992
184	136.727532	118808576	80883712	28579360	24992
185	138.036281	118808576	80883712	19104400	24992
186	138.751442	118808576	80883712	26784936	24992
187	140.261647	118808576	80883712	18621096	24992
188	140.701403	118808576	80883712	27627120	24992
189	142.649777	118808576	80883712	20792216	24992
190	144.269885	118808576	80883712	31127128	24992
191	145.6838	118808576	80883712	25650712	24992
192	146.141987	118808576	80883712	20795120	24992
193	146.427319	118808576	80883712	33107992	24992
194	147.174843	118808576	80883712	29588424	24992
195	148.528998	118808576	80883712	26724112	24992
196	151.363043	118808576	80883712	24515032	24992
197	151.096871	118808576	80883712	22978656	24992
198	151.797499	118808576	80883712	38599232	24992
199	153.589152	118808576	80883712	38385568	24992
200	154.757934	118808576	80883712	38834824	24992
201	154.971938	118808576	80883712	39943696	24992
202	158.060339	118808576	80883712	25221120	24992
203	158.220456	118808576	80883712	27654752	24992
204	158.444285	118808576	80883712	30749352	24992
205	159.744241	118808576	80883712	34495040	24992
206	160.764776	118808576	80883712	38914656	24992
207	164.008813	119078912	81408000	27508392	24992
208	163.175475	119349248	81932288	33259216	24992
209	165.483379	119619584	81932288	39651912	24992
210	166.769859	119889920	82456576	30223096	24992
211	166.817762	120160256	82456576	37949672	24992
212	170.307516	120430592	82980864	29845040	24992
213	168.766119	120700928	82980864	38895720	24992
214	171.212506	120971264	83505152	32114344	24992
215	171.119734	121241600	83505152	42487480	24992
216	174.52085	121511936	83505152	37027728	24992
217	175.933371	121511936	83505152	32218616	24992
218	174.532928	121511936	83505152	44576808	24992
219	178.55816	121511936	83505152	41103944	24992
220	178.861682	121511936	83505152	38291920	24992
221	180.832894	121511936	83505152	36129304	24992
222	180.751062	121511936	83505152	34628040	24992
223	182.875302	121511936	83505152	33799016	24992
224	183.258928	121511936	83505152	33633008	24992
225	185.222509	121511936	83505152	34128864	24992
226	187.593038	121511936	83505152	35285680	24992
227	187.296373	121511936	83505152	37104272	24992
228	189.19124	121511936	83505152	39583768	24992
229	190.286413	121511936	83505152	42725392	24992
230	190.745163	121511936	83505152	46523672	24992
231	191.738978	121511936	83505152	50989944	24992
232	196.210266	121511936	83505152	39619600	24992
233	194.866354	121511936	83505152	45401600	24992
234	196.250535	121511936	83505152	51853920	24992
235	200.382685	121511936	83505152	42472112	24992
236	200.199377	121511936	83505152	50234136	24992
237	197.33497	121511936	83505152	22154784	24992
238	175.930872	121511936	83505152	14588264	24992
239	177.074594	121511936	83505152	24175360	24992
240	175.931355	121511936	83505152	17929832	24992
241	177.078733	121511936	85602304	28832824	24992
242	177.883359	121782272	90845184	23910992	24992
243	178.388314	122052608	96088064	19649208	24992
244	178.754824	122322944	96088064	16037008	24992
245	180.53642	122593280	96088064	29600352	24992
246	179.976477	122863616	96088064	27497864	24992
247	182.606762	123133952	96088064	26056048	24992
248	185.208226	123404288	96088064	25275856	24992
249	184.789002	123674624	96088064	25157328	24992
250	186.41294	124215296	96088064	25693728	24992
251	186.989951	124485632	96088064	26891808	24992
252	190.934078	124755968	96088064	28786032	24992
253	191.119552	125026304	96088064	31313816	24992
254	192.863117	125296640	96088064	34532008	24992
255	194.62289	125566976	96088064	21889368	24992
256	193.89234	126107648	96088064	26400896	24992
257	196.231217	126377984	96088064	31592800	24992
258	197.902001	126648320	96088064	37458096	24992
259	198.943702	126918656	96088064	27488416	24992
260	200.229703	127188992	96088064	34664216	24992
261	201.054473	127459328	96088064	26018784	24992
262	202.50968	128000000	96088064	34528832	24992
263	203.949335	128270336	96088064	27207008	24992
264	204.665073	128540672	96088064	37039992	24992
265	207.188919	128811008	96088064	31041152	24992
266	208.496138	129351680	96088064	25691744	24992
267	209.682089	129622016	96088064	37518936	24992
268	212.413061	129892352	96088064	33515552	24992
269	213.736882	130162688	96088064	30150536	24992
270	213.795783	130703360	96088064	43953112	24992
271	215.501454	130973696	96088064	41925288	24992
272	217.380328	131514368	96088064	40558832	24992
273	218.316523	131784704	96088064	39852424	24992
274	220.103855	132055040	96088064	39809144	24992
275	221.293772	132595712	96088064	40427688	24992
276	222.549196	132866048	96088064	41708240	24992
277	223.633852	133136384	96088064	43651272	24992
278	225.201406	133677056	96088064	46255176	24992
279	229.741484	133947392	96088064	33024984	24992
280	228.498057	133947392	96088064	36950176	24992
281	230.501216	134217728	96088064	41525752	24992
282	231.440525	134217728	96088064	46789656	24992
283	236.220905	134217728	96088064	36206552	24992
284	235.109042	134217728	96088064	42780464	24992
285	235.963401	134217728	96088064	50015320	24992
286	240.537035	134217728	96088064	41417864	24992
287	239.465319	134217728	96088064	49963256	24992
288	243.346598	134217728	96088064	42688816	24992
289	242.447547	134217728	96088064	52560512	24992
290	233.45081	134217728	96088064	17999904	24992
291	213.744149	134217728	96088064	28985352	24992
292	215.524423	134217728	96088064	24172224	24992
293	215.497246	134217728	96088064	19996128	24992
294	216.18297	134217728	96088064	16468744	24992
295	216.162449	134217728	96088064	30109304	24992
296	216.971534	134217728	96088064	27918784	24992
297	217.973229	134217728	96088064	26399128	24992
298	218.648099	134217728	96088064	25740296	24992
299	224.113869	134217728	96088064	25743448	24992
300	221.346347	134217728	96088064	26407904	24992
301	225.400015	134217728	96088064	27734264	24992
302	225.869354	134217728	96088064	29725000	24992
303	228.728445	134217728	96088064	32374296	24992
304	231.2858	134217728	96088064	35714784	24992
305	231.010593	134217728	96088064	23189112	24992
306	232.93862	134217728	96088064	27822088	24992
307	233.556434	134217728	96088064	33106456	24992
308	236.849761	134217728	96088064	22570032	24992
309	237.229474	134217728	96088064	29188888	24992
310	238.722202	134217728	96088064	36458200	24992
311	240.511506	134217728	96088064	27905752	24992
312	241.860789	134217728	96088064	36498000	24992
313	243.815279	134217728	96088064	29268968	24992
314	244.996187	134217728	96088064	39184648	24992
315	248.087296	134488064	96612352	33289888	24992
316	251.588415	134758400	96612352	28049184	24992
317	250.369535	135028736	97136640	39960168	24992
318	252.908565	135299072	97136640	36039384	24992
319	254.883163	135299072	97136640	32780488	24992
320	257.637879	135299072	97136640	30171024	24992
321	255.805404	135299072	97136640	44730520	24992
322	259.534754	135299072	97136640	43457240	24992
323	260.977725	135299072	97136640	42845896	24992
324	264.013695	135299072	97136640	42895008	24992
325	264.807869	135299072	97136640	43605928	24992
326	266.826502	135299072	97660928	44977864	24992
327	268.269986	135569408	97660928	47013560	24992
328	269.557916	135839744	97660928	49710544	24992
329	277.31155	135839744	97660928	36570440	24992
330	272.299663	135839744	97660928	40589864	24992
331	274.46454	135839744	97660928	45258136	24992
332	275.744118	135839744	97660928	50600336	24992
333	283.384383	135839744	97660928	40110680	24992
334	271.0346	135839744	97660928	26013320	24992
335	247.354874	135839744	97660928	16609088	24992
336	246.29544	135839744	97660928	24346096	24992
337	247.336242	135839744	97660928	16262288	24992
338	248.830859	135839744	97660928	25332696	24992
339	251.368835	135839744	97660928	18579896	24992
340	252.436389	135839744	97660928	29403016	24992
341	255.192624	135839744	97660928	24204664	24992
342	255.475056	135839744	97660928	19669280	24992
343	257.921189	135839744	97660928	32283456	24992
344	259.096418	135839744	97660928	29072256	24992
345	261.647165	135839744	97660928	26532944	24992
346	263.595113	135839744	97660928	24651712	24992
347	269.062605	135839744	97660928	23436752	24992
348	267.83801	135839744	97660928	22858504	24992
349	267.954382	135839744	97660928	22952736	24992
350	271.159166	135839744	97660928	23708576	24992
351	271.164193	135839744	97660928	25125696	24992
352	276.610451	135839744	97660928	27205304	24992
353	277.512223	135839744	97660928	29936568	24992
354	278.737382	135839744	97660928	33328792	24992
355	279.198609	135839744	97660928	37394792	24992
356	284.577202	135839744	97660928	42141736	24992
357	285.474528	135839744	97660928	31035376	24992
358	286.013033	135839744	97660928	37073456	24992
359	288.714285	135839744	97660928	43785968	24992
360	290.025661	135839744	97660928	34675304	24992
361	292.571171	135839744	97660928	42698080	24992
362	294.307233	135839744	97660928	34900416	24992
363	296.294867	135839744	97660928	44246848	24992
364	299.522577	135839744	97660928	37772824	24992
365	297.900671	135839744	97660928	48448296	24992
366	301.973751	135839744	97660928	43295528	24992
367	303.004986	135839744	97660928	38805848	24992
368	306.344767	135839744	97660928	34966144	24992
369	305.881721	135839744	97660928	48295320	24992
370	309.893312	135839744	97660928	45791128	24992
371	314.174425	135839744	97660928	43949080	24992
372	315.770525	135839744	97660928	42769736	24992
373	300.500553	135839744	97660928	22446504	24992
374	276.834467	135839744	97660928	22365112	24992
375	274.686782	135839744	97660928	22902672	24992
376	276.039024	135839744	97660928	24101520	24992
377	276.822102	135839744	97660928	25960912	24992
378	278.242684	135839744	97660928	28483256	24992
379	278.004789	135839744	97660928	31700224	24992
380	281.146167	135839744	97660928	19314640	24992
381	282.842107	135839744	97660928	24075808	24992
382	284.434084	135839744	97660928	29525608	24992
383	287.278149	135839744	97660928	35624584	24992
384	293.563124	135839744	97660928	25920744	24992
385	292.03409	135839744	97660928	33336144	24992
386	293.504701	135839744	97660928	24927672	24992
387	296.513095	135839744	97660928	33659520	24992
388	298.265385	135839744	97660928	26570824	24992
389	301.552893	135839744	97660928	36625840	24992
390	302.493976	135839744	97660928	30861072	24992
391	304.63615	135839744	97660928	25757456	24992
392	305.433349	135839744	97660928	37807704	24992
393	311.983801	135839744	97660928	34043952	24992
394	310.68811	135839744	98185216	30924288	24992
395	314.32486	136380416	98709504	28453600	24992
396	316.263845	136921088	99233792	43149848	24992
397	317.551462	137461760	99758080	42014912	24992
398	319.654652	137732096	100282368	41542624	24992
399	325.383137	138272768	100806656	41731056	24992
400	324.10884	138813440	101330944	42579624	24992
401	326.887398	139354112	101855232	44089584	24992
402	329.310719	139894784	102379520	46261632	24992
403	330.666669	140435456	102903808	49096128	24992
404	336.965473	140976128	103428096	36096840	24992
405	336.718342	141516800	103952384	40246032	24992
406	337.695645	142057472	104476672	45054032	24992
407	340.897485	142598144	105000960	50537584	24992
408	347.433509	143138816	105525248	40186520	24992
409	325.534182	143679488	106049536	26647304	24992
410	302.823053	143679488	106049536	17330864	24992
411	302.169953	143679488	106049536	25155128	24992
412	301.741224	143679488	106049536	17160488	24992
413	305.982836	143679488	106049536	26316872	24992
414	306.490245	143679488	106049536	19936120	24992
415	308.103219	143679488	106049536	30699264	24992
416	310.788172	143679488	106049536	25642368	24992
417	313.50521	143679488	106049536	21247280	24992
418	316.745435	143679488	106049536	34005976	24992
419	319.904195	143679488	106049536	30972424	24992
420	320.964205	143679488	106049536	28562560	24992
421	323.276921	143679488	106049536	26812936	24992
422	326.631163	143679488	106049536	25718784	24992
423	328.708933	143679488	106049536	25280256	24992
424	330.373495	144220160	106049536	25503016	24992
425	331.777003	144220160	106049536	26387040	24992
426	335.63976	144220160	106049536	27933008	24992
427	338.394562	144220160	106049536	30149848	24992
428	340.351286	144220160	106049536	33029344	24992
429	341.475745	144220160	106049536	36572840	24992
430	343.776937	144220160	106049536	40777560	24992
431	345.559356	144220160	106049536	45644744	24992
432	350.64842	144220160	106049536	34679296	24992
433	352.239113	144220160	106049536	40856456	24992
434	352.407626	144220160	106049536	47710872	24992
435	358.369602	144220160	106049536	38727792	24992
436	361.901871	144220160	106049536	46903200	24992
437	363.764117	144220160	106049536	39245352	24992
438	363.073465	144220160	106049536	48740320	24992
439	368.12214	144220160	106049536	42405440	24992
440	373.270469	144220160	106049536	36732440	24992
441	371.248273	144220160	106049536	48215088	24992
442	349.15306	144220160	106049536	23602808	24992
443	325.647367	144220160	106049536	19602704	24992
444	325.468545	144220160	106049536	16260912	24992
445	327.419606	144220160	106049536	30062512	24992
446	327.684624	144220160	106049536	28059280	24992
447	329.366775	144220160	106049536	26755640	24992
448	330.595605	144220160	106049536	26376840	24992
449	334.276273	144220160	106049536	26683192	24992
450	338.162283	144220160	106049536	27676000	24992
451	340.295692	144220160	106049536	29305888	24992
452	342.991169	144220160	106049536	31621304	24992
453	345.9674	144486400	106049536	34570408	24992
454	347.491247	144486400	106049536	38161320	24992
455	350.822165	144486400	106049536	25939688	24992
456	352.644779	144486400	106049536	30864528	24992
457	354.248201	144486400	106049536	36463576	24992
458	362.19906	144486400	106573824	26214656	24992
459	365.296741	145027072	107098112	33139576	24992
460	362.104038	145567744	107622400	40722976	24992
461	367.23014	146108416	107622400	32450760	24992
462	368.070648	146108416	107622400	41350800	24992
463	373.357902	146108416	107622400	34400912	24992
464	374.246325	146108416	107622400	44624768	24992
465	377.620554	146108416	107622400	38996088	24992
466	380.965604	146108416	107622400	34055192	24992
467	386.587576	146108416	107622400	46258632	24992
468	387.41547	146108416	107622400	42617072	24992
469	388.795631	146108416	107622400	39664648	24992
470	391.196417	146108416	107622400	37370824	24992
471	392.311135	146108416	107622400	52221736	24992
472	399.41301	146108416	107622400	51247952	24992
473	376.671495	146108416	107622400	14221968	24992
474	348.431446	146108416	107622400	14210464	24992
475	348.712132	146108416	107622400	14855728	24992
476	352.549202	146108416	107622400	16162440	24992
477	351.123273	146108416	107622400	18161304	24992
478	353.703385	146108416	107622400	21147944	24992
479	357.958976	146108416	107622400	24801840	24992
480	360.646901	146108416	107622400	29124008	24992
481	366.145519	146108416	107622400	34105408	24992
482	368.306471	146108416	107622400	23245976	24992
483	371.51784	146108416	107622400	29540888	24992
484	371.181773	146108416	107622400	36510048	24992
485	376.721715	146108416	107622400	27621080	24992
486	376.78569	146108416	107622400	35913384	24992
487	380.842965	146108416	107622400	28351624	24992
488	383.273954	146108416	107622400	37954336	24992
489	388.740932	146108416	107622400	31733088	24992
490	389.799045	146108416	107622400	42671312	24992
491	393.472627	146108416	107622400	37773920	24992
492	396.754105	146108416	107622400	33538600	24992
493	396.936565	146108416	107622400	46461760	24992
494	402.812278	146108416	108146688	43544392	24992
495	406.710329	146649088	108146688	41272504	24992
496	407.871731	146649088	108146688	39686496	24992
497	411.71779	146649088	108146688	38761400	24992
498	414.42514	146649088	108146688	38498424	24992
499	417.77652	146649088	108146688	38893800	24992
500	420.757427	146649088	108146688	39941760	24992
