x	Duration	RSS	HeapTotal	HeapUsed	External
0	NA	140611584	101855232	12303256	24992
1	0.969363	140611584	101855232	12983744	24992
2	1.562161	140611584	101855232	14322104	24992
3	2.277439	140611584	101855232	16319840	24992
4	3.032988	140611584	101855232	18977080	24992
5	3.760712	140611584	101855232	22294408	24992
6	4.510115	140611584	101855232	26271256	24992
7	5.679301	140611584	101855232	14441912	24992
8	6.032858	140611584	101855232	19737856	24992
9	6.910891	140611584	101855232	25694320	24992
10	7.685551	140611584	101855232	15851176	24992
11	8.310727	140611584	101855232	23126832	24992
12	9.374206	140611584	101855232	14594448	24992
13	9.917419	140611584	101855232	23189096	24992
14	10.765538	140611584	101855232	15975248	24992
15	12.323894	140611584	101855232	25902952	24992
16	12.496843	140611584	101855232	20016936	24992
17	13.010814	140611584	101855232	14783464	24992
18	13.540134	140611584	101855232	26677816	24992
19	14.447943	140611584	101855232	22766368	24992
20	15.22808	140611584	101855232	19516024	24992
21	16.077636	140611584	101855232	16919512	24992
22	16.839552	140611584	101855232	14986512	24992
23	17.930848	140611584	101855232	13714280	24992
24	18.089882	140611584	101855232	13100296	24992
25	18.92483	140611584	101855232	13146880	24992
26	19.874034	140611584	101855232	13854272	24992
27	20.24843	140611584	101855232	15221960	24992
28	21.929355	140611584	101855232	17250184	24992
29	22.241393	140611584	101855232	19938984	24992
30	22.961759	140611584	101855232	23289096	24992
31	23.755991	140611584	101855232	27301496	24992
32	24.440043	140611584	101855232	15504160	24992
33	24.855766	140611584	101855232	20833632	24992
34	25.637273	140611584	101855232	26830032	24992
35	26.216024	140611584	101855232	17019888	24992
36	27.041839	140611584	101855232	24331544	24992
37	27.989357	140611584	101855232	15849152	24992
38	28.729265	140611584	101855232	24481344	24992
39	29.637297	140611584	101855232	17319536	24992
40	29.823679	140611584	101855232	27272528	24992
41	31.112023	140611584	101855232	21432160	24992
42	31.94973	140611584	101855232	16250568	24992
43	32.885215	140611584	101855232	28184112	24992
44	33.122398	140611584	101855232	24325624	24992
45	34.2485	140611584	101855232	21128808	24992
46	34.800646	140611584	101855232	18587456	24992
47	35.754049	140611584	101855232	16707256	24992
48	35.840019	140611584	101855232	15488216	24992
49	37.442303	140611584	101855232	14930088	24992
50	37.39321	140611584	101855232	15033632	24992
51	38.052167	140611584	101855232	15798552	24992
52	39.128791	140611584	101855232	17224552	24992
53	40.419268	140611584	101855232	19311624	24992
54	40.700707	140611584	101855232	22060856	24992
55	41.390349	140611584	101855232	25469472	24992
56	41.936829	140611584	101855232	29537544	24992
57	43.156643	140611584	101855232	17773480	24992
58	43.343707	140611584	101855232	23162784	24992
59	44.604753	140611584	101855232	29212584	24992
60	45.22581	140611584	101855232	19431488	24992
61	46.502716	140611584	101855232	26812248	24992
62	46.359732	140611584	101855232	18398368	24992
63	47.188695	140611584	101855232	27137320	24992
64	47.943187	140611584	101855232	20044376	24992
65	48.959108	140611584	101855232	30114112	24992
66	49.296156	140611584	101855232	24361792	24992
67	51.018937	140611584	101855232	19273640	24992
68	50.877225	140611584	101855232	31324328	24992
69	52.438569	140611584	101855232	27556744	24992
70	53.061769	140611584	101855232	24451456	24992
71	53.310816	140611584	101855232	22009720	24992
72	54.378106	140611584	101855232	20218568	24992
73	54.865134	140611584	101855232	19096872	24992
74	56.379052	140611584	101855232	18636656	24992
75	56.657063	140611584	101855232	18838040	24992
76	57.779794	140611584	101855232	19701192	24992
77	58.763624	140611584	101855232	21226984	24992
78	60.379389	140611584	101855232	23413024	24992
79	59.594527	140611584	101855232	26258520	24992
80	60.952277	140611584	101855232	29760672	24992
81	61.879752	140611584	101855232	17429672	24992
82	62.507891	140611584	101855232	22263472	24992
83	62.388347	140611584	101855232	27758664	24992
84	63.335534	140611584	101855232	33915176	24992
85	66.454368	140611584	101855232	24237936	24992
86	67.482477	140611584	101855232	31717672	24992
87	67.289454	140611584	101855232	23365920	24992
88	67.946304	140611584	101855232	32177144	24992
89	68.139899	140611584	101855232	25148648	24992
90	69.733378	140611584	101855232	35289640	24992
91	69.909823	140611584	101855232	29580504	24992
92	70.932639	140611584	101855232	24534024	24992
93	73.200685	140611584	101855232	20161512	24992
94	71.894388	140611584	101855232	32927752	24992
95	73.538494	140611584	101855232	29869368	24992
96	73.995071	140611584	101855232	27467488	24992
97	74.916369	140611584	101855232	25720496	24992
98	75.701157	140611584	101855232	24645664	24992
99	77.0236	140611584	101855232	24232352	24992
100	77.698587	140611584	101855232	24481320	24992
101	78.275787	140611584	101855232	25391760	24992
102	79.285302	140611584	101855232	26963360	24992
103	80.16426	140611584	101855232	29190808	24992
104	80.379555	140611584	101855232	32074784	24992
105	81.357047	140611584	101855232	35625608	24992
106	83.765818	140611584	101855232	23357592	24992
107	83.338964	140611584	101855232	28237336	24992
108	83.949302	140611584	101855232	33772856	24992
109	86.061843	140611584	101855232	23482384	24992
110	86.050854	140611584	101855232	30347104	24992
111	86.771813	140611584	101855232	37862464	24992
112	89.103779	140611584	101855232	29555800	24992
113	88.184603	140611584	101855232	38394176	24992
114	90.147993	140611584	101855232	31412128	24992
115	91.384577	140611584	101855232	25080208	24992
116	91.463522	140611584	101855232	35915880	24992
117	92.889402	140611584	101855232	30919536	24992
118	94.017363	140611584	101855232	26572016	24992
119	93.253671	140611584	101855232	39392320	24992
120	96.046144	140611584	101855232	36381064	24992
121	96.880519	140611584	101855232	34031024	24992
122	100.207909	140611584	101855232	32338568	24992
123	99.248852	140611584	101855232	31308424	24992
124	99.573834	140611584	101855232	30936808	24992
125	100.327593	140611584	101855232	31231088	24992
126	100.990575	140611584	101855232	32187008	24992
127	102.579788	140611584	101855232	33793824	24992
128	103.092286	140611584	101855232	36062696	24992
129	103.74332	140611584	101855232	39007752	24992
130	104.914212	140611584	101855232	42627176	24992
131	107.793534	140611584	101855232	30412280	24992
132	106.324386	140611584	101855232	35353296	24992
133	107.802884	140611584	101855232	40944728	24992
134	110.062871	140611584	101855232	30715128	24992
135	109.056961	140611584	101855232	37640920	24992
136	111.672025	140611584	101855232	28721744	24992
137	111.170306	140611584	101855232	36970440	24992
138	114.087701	140611584	101855232	29374760	24992
139	113.151452	140611584	101855232	38946648	24992
140	115.147251	140611584	101855232	32680488	24992
141	114.334304	140611584	101855232	43575808	24992
142	117.058888	140611584	101855232	38644120	24992
143	118.157558	140611584	102379520	34356280	24992
144	120.506722	140881920	102379520	30740784	24992
145	117.710015	141152256	102379520	44282376	24992
146	121.245863	141152256	102379520	41993016	24992
147	121.943053	141152256	102379520	40365592	24992
148	123.341172	141152256	102379520	39387248	24992
149	124.665778	141422592	102903808	39070440	24992
150	125.49325	141422592	102903808	39415288	24992
151	126.219277	141692928	102903808	40421720	24992
152	127.023357	141963264	103428096	42089808	24992
153	128.266512	141963264	103428096	44425648	24992
154	129.421217	142233600	103952384	47429504	24992
155	132.703728	142503936	103952384	34599360	24992
156	131.860375	142774272	103952384	38927544	24992
157	132.229466	142774272	103952384	43914352	24992
158	131.595861	142774272	103952384	49558280	24992
159	136.690089	142774272	103952384	39376248	24992
160	134.853016	142774272	103952384	46347984	24992
161	138.507902	142774272	103952384	37489064	24992
162	136.876997	142774272	103952384	45784680	24992
163	140.162585	142774272	103952384	38248312	24992
164	138.545226	142774272	103952384	47867200	24992
165	143.142144	142774272	103952384	41654104	24992
166	140.443383	142774272	103952384	52590464	24992
167	152.067119	137359360	99233792	27518352	24992
168	126.429031	137359360	99233792	23170872	24992
169	125.399115	137359360	99233792	19482808	24992
170	125.936553	137359360	99233792	16442864	24992
171	127.672303	137359360	99233792	14075128	24992
172	130.121169	137359360	99233792	28863560	24992
173	128.209918	137359360	99233792	27820328	24992
174	129.152425	137359360	99233792	27436160	24992
175	129.858906	137359360	99758080	27713576	24992
176	130.785625	137629696	103428096	28651720	24992
177	131.384704	137900032	107098112	30250456	24992
178	133.574554	138170368	107098112	16028216	24992
179	133.392417	138170368	107098112	19077200	24992
180	134.25303	138440704	107098112	22787616	24992
181	135.19601	138711040	107098112	27149008	24992
182	135.66483	138981376	107098112	32184264	24992
183	138.567634	139251712	107098112	21385936	24992
184	138.432961	139251712	107098112	27742320	24992
185	139.41754	139792384	107098112	18267360	24992
186	140.503014	139792384	107098112	25947720	24992
187	141.875877	140062720	107098112	34280056	24992
188	143.874562	140333056	107098112	26795232	24992
189	145.23272	140603392	107098112	19962240	24992
190	146.454152	140873728	107098112	30296560	24992
191	148.658901	141410304	107098112	24816288	24992
192	146.739663	141680640	107098112	36461200	24992
193	149.32453	141950976	107098112	32278200	24992
194	150.649333	142221312	107098112	28758536	24992
195	150.644529	142491648	107098112	25887976	24992
196	152.601639	142761984	107098112	23684248	24992
197	155.161834	143032320	107098112	22148144	24992
198	152.815876	143032320	107098112	37768880	24992
199	154.909795	143302656	107098112	37555424	24992
200	156.191714	143572992	107098112	38006728	24992
201	157.097447	143843328	107098112	39118944	24992
202	159.430038	144113664	107098112	24397312	24992
203	160.730783	144384000	107098112	26831632	24992
204	160.514342	144654336	107098112	29926568	24992
205	161.867744	144924672	107098112	33672048	24992
206	164.115901	145195008	107098112	38085448	24992
207	165.678117	145465344	107098112	26672008	24992
208	165.884409	145465344	107098112	32422088	24992
209	167.17019	145465344	107098112	38824480	24992
210	169.444174	145465344	107098112	29396256	24992
211	168.14902	145465344	107098112	37123392	24992
212	172.068808	145465344	107098112	29018680	24992
213	171.07878	145465344	107098112	38069104	24992
214	173.54701	145465344	107098112	31288176	24992
215	174.642668	145465344	107098112	41661776	24992
216	176.588727	145465344	107098112	36203048	24992
217	177.076831	145465344	107098112	31393872	24992
218	176.649429	145465344	107098112	43752448	24992
219	179.267868	145465344	107098112	40279824	24992
220	180.72043	145465344	107098112	37468024	24992
221	181.885414	145465344	107098112	35305328	24992
222	183.683432	145735680	107622400	33809320	24992
223	185.199161	146006016	107622400	32980904	24992
224	187.164779	146006016	107622400	32814608	24992
225	186.8741	146006016	107622400	33310688	24992
226	187.850275	146006016	107622400	34467456	24992
227	189.521925	146006016	107622400	36285792	24992
228	191.781556	146006016	107622400	38765560	24992
229	193.845127	146006016	107622400	41906944	24992
230	193.036943	146006016	107622400	45699088	24992
231	193.837238	146006016	107622400	50165584	24992
232	199.253385	146006016	107622400	38799272	24992
233	196.215457	146006016	107622400	44586736	24992
234	199.16219	146006016	107622400	51032424	24992
235	201.719596	146006016	107622400	41650440	24992
236	200.529199	146006016	107622400	49412096	24992
237	201.224824	141955072	103428096	27636680	24992
238	178.422568	141955072	103428096	20573056	24992
239	180.340906	141955072	103428096	14158704	24992
240	182.036275	141955072	103428096	24914080	24992
241	183.172575	141955072	103428096	19838808	24992
242	186.433168	141955072	103428096	31909664	24992
243	188.118637	142225408	104476672	28159584	24992
244	189.962579	142495744	104476672	25050744	24992
245	191.560743	143036416	104476672	22279040	24992
246	192.021065	143036416	104476672	20163080	24992
247	195.930059	143036416	104476672	18719600	24992
248	193.942514	143036416	104476672	34434640	24992
249	197.70759	143036416	104476672	34313536	24992
250	202.461639	143036416	104476672	34858024	24992
251	200.84852	143036416	104476672	36064392	24992
252	205.365935	143036416	104476672	21441144	24992
253	203.754335	143036416	104476672	23968960	24992
254	210.14455	143036416	104476672	27181536	24992
255	205.542874	143036416	104476672	31020032	24992
256	207.640354	143036416	104476672	35533016	24992
257	211.274013	143036416	104476672	24242696	24992
258	210.769432	143306752	105000960	30106728	24992
259	213.85818	143577088	105525248	36621032	24992
260	214.934479	143847424	105525248	27313712	24992
261	215.831272	144388096	106049536	35161464	24992
262	219.771786	144658432	106573824	27177832	24992
263	217.657661	144928768	106573824	36349176	24992
264	221.329151	145469440	107098112	29689120	24992
265	220.422342	145739776	107622400	40183672	24992
266	224.744276	146010112	107622400	34847160	24992
267	227.493246	146280448	107622400	30176760	24992
268	225.646964	146280448	107622400	42656600	24992
269	228.385035	146280448	107622400	39305040	24992
270	230.422003	146280448	107622400	36614256	24992
271	233.088423	146280448	107622400	34572656	24992
272	235.100956	146280448	107622400	33192920	24992
273	237.15891	146280448	107622400	32485248	24992
274	237.822121	146280448	108146688	32440048	24992
275	240.159255	146550784	108146688	33057184	24992
276	241.065447	146821120	108146688	34336120	24992
277	242.170817	146821120	108146688	36276416	24992
278	243.519744	146821120	108146688	38872552	24992
279	245.465923	146821120	108146688	42125192	24992
280	246.906606	146821120	108146688	46051984	24992
281	247.603213	146821120	108146688	50640712	24992
282	253.640133	146821120	108146688	39394040	24992
283	251.5264	146821120	108146688	45298096	24992
284	253.394455	146821120	108146688	51871176	24992
285	258.67385	146821120	108146688	42611088	24992
286	246.595214	135286784	96612352	16266800	24992
287	212.62455	135286784	96612352	24613648	24992
288	214.159345	135286784	96612352	17134320	24992
289	214.543357	135286784	96612352	26803192	24992
290	214.677822	135286784	96612352	20645968	24992
291	215.274382	135286784	96612352	15135320	24992
292	216.853017	135286784	96612352	26792472	24992
293	217.866508	135286784	96612352	22628128	24992
294	219.364458	135286784	96612352	19309848	24992
295	221.34094	135286784	96612352	33159152	24992
296	223.047161	135286784	96612352	31174720	24992
297	223.948096	135286784	96612352	29855328	24992
298	225.650796	135286784	96612352	29198840	24992
299	226.958649	135286784	96612352	29209584	24992
300	228.49739	135286784	96612352	29881496	24992
301	232.351069	135286784	96612352	31232400	24992
302	231.174249	135286784	96612352	33220320	24992
303	232.461798	135286784	96612352	35868848	24992
304	235.215375	135286784	96612352	22685512	24992
305	236.265934	135286784	96612352	26656784	24992
306	238.007873	135286784	96612352	31279072	24992
307	238.280932	135286784	96612352	36576144	24992
308	241.779811	135286784	96612352	26040432	24992
309	242.561721	135286784	96612352	32658448	24992
310	243.46772	135286784	96612352	39940288	24992
311	248.526942	135286784	96612352	31411640	24992
312	248.092668	135286784	96612352	40014944	24992
313	250.43131	135286784	96612352	32787272	24992
314	249.775213	135286784	96612352	42702952	24992
315	254.328395	135286784	96612352	36798344	24992
316	254.493279	135286784	96612352	31554592	24992
317	254.641204	135286784	96612352	43465224	24992
318	259.659361	135286784	96612352	39545480	24992
319	261.240542	135286784	96612352	36286584	24992
320	263.020755	135286784	96612352	33677136	24992
321	261.733787	135286784	96612352	48235528	24992
322	265.759933	135286784	96612352	46960056	24992
323	268.086283	135286784	96612352	46348872	24992
324	268.580816	135286784	96612352	46399200	24992
325	269.854477	135286784	96612352	47110280	24992
326	271.58056	135286784	96612352	48485448	24992
327	273.955636	135286784	96612352	50519672	24992
328	279.534426	135286784	96612352	36721200	24992
329	278.477169	135286784	96612352	40076920	24992
330	284.180019	135286784	96612352	44083448	24992
331	266.464544	131715072	92942336	24126720	24992
332	247.495016	131715072	92942336	29958376	24992
333	259.082613	131715072	92942336	19955736	24992
334	257.805476	131715072	95039488	27100760	24992
335	257.381184	132526080	102903808	18426144	24992
336	262.343352	133066752	102903808	26638288	24992
337	265.514842	133607424	102903808	18793528	24992
338	264.105019	133877760	102903808	28104456	24992
339	266.924724	134418432	102903808	21583920	24992
340	268.171097	134959104	102903808	32212616	24992
341	273.072852	135499776	102903808	27016584	24992
342	274.647672	136040448	102903808	22478832	24992
343	276.450976	136581120	102903808	35123408	24992
344	278.089565	137121792	102903808	31912088	24992
345	283.339836	137662464	102903808	29361760	24992
346	281.654713	138203136	102903808	27466408	24992
347	283.514069	138743808	102903808	26226200	24992
348	285.732837	139014144	102903808	25653016	24992
349	289.472555	139554816	102903808	25747264	24992
350	292.128819	140095488	102903808	26502576	24992
351	292.887918	140636160	102903808	27919904	24992
352	296.352478	141176832	102903808	29999000	24992
353	296.391083	141447168	102903808	32738416	24992
354	299.661913	141447168	102903808	36131200	24992
355	303.951128	141447168	102903808	40197120	24992
356	301.436387	141717504	103428096	44923976	24992
357	309.243643	142258176	103952384	33818224	24992
358	305.994472	142798848	104476672	39856688	24992
359	311.544289	143069184	105000960	46569120	24992
360	313.965741	143609856	105525248	37461944	24992
361	311.560512	144150528	106049536	45485184	24992
362	320.196336	144691200	106573824	37688048	24992
363	317.807605	145231872	107098112	47034272	24992
364	322.324327	145772544	107622400	40560840	24992
365	321.046084	146313216	108146688	51230064	24992
366	326.869237	146853888	108670976	46078176	24992
367	329.132852	147394560	109195264	41588880	24992
368	305.445133	135876608	97136640	19786888	24992
369	275.762672	135876608	97136640	16396712	24992
370	277.088378	135876608	97136640	30291760	24992
371	277.7546	135876608	97136640	28993304	24992
372	281.435187	135876608	97136640	28334896	24992
373	284.083986	135876608	97136640	28082728	24992
374	284.647934	135876608	97136640	28224408	24992
375	287.065965	135876608	97136640	29027576	24992
376	289.844416	135876608	97136640	30493544	24992
377	291.718082	135876608	97136640	32621912	24992
378	294.728209	135876608	97136640	35423120	24992
379	298.381886	135876608	97136640	22397768	24992
380	299.298008	135876608	97136640	26524792	24992
381	299.022578	135876608	97136640	31286848	24992
382	306.430576	135876608	97136640	36722688	24992
383	304.699344	135876608	97136640	26325664	24992
384	305.446735	135876608	97136640	33072552	24992
385	307.957413	135876608	97136640	40494488	24992
386	311.173686	135876608	97136640	32079208	24992
387	312.594239	135876608	97136640	40816992	24992
388	319.055376	135876608	97136640	33747808	24992
389	315.951943	135876608	97136640	43814920	24992
390	320.163348	135876608	97136640	38047032	24992
391	321.676351	135876608	97136640	32942712	24992
392	323.04624	135876608	97136640	44982240	24992
393	326.125979	135876608	97136640	41199544	24992
394	328.050998	135876608	97136640	38079528	24992
395	333.54542	135876608	97136640	35621432	24992
396	333.863014	135876608	97136640	33812544	24992
397	331.953024	135876608	97136640	49170472	24992
398	336.555495	135876608	97136640	48694152	24992
399	339.680821	135876608	97136640	48883480	24992
400	342.402656	135876608	97136640	49736320	24992
401	344.200077	135876608	97136640	51249352	24992
402	347.644482	135876608	97136640	53423816	24992
403	332.66103	135876608	97136640	20986856	24992
404	299.326795	135876608	97136640	24200632	24992
405	302.145744	135876608	97136640	28072840	24992
406	301.208357	135876608	97136640	16119784	24992
407	304.62404	135876608	97136640	22190400	24992
408	307.988044	135876608	97136640	28595240	24992
409	310.764143	135876608	97136640	18906752	24992
410	318.605692	135876608	97136640	26367488	24992
411	313.788262	135876608	97136640	34498144	24992
412	319.233447	135876608	97136640	26791896	24992
413	320.271634	135876608	97136640	36269080	24992
414	322.092214	135876608	97136640	29900800	24992
415	324.285201	135876608	97136640	24181136	24992
416	327.667308	135876608	97136640	35606008	24992
417	328.492235	135876608	97136640	31211904	24992
418	332.883974	135876608	97136640	27477840	24992
419	332.611014	135876608	97136640	40887760	24992
420	335.051713	135876608	97136640	38474936	24992
421	340.469358	135876608	97136640	36734856	24992
422	344.014538	135876608	97136640	35656432	24992
423	342.254657	135876608	97136640	35230448	24992
424	345.287578	136146944	97660928	35465176	24992
425	346.169112	136417280	97660928	36361936	24992
426	349.017572	136417280	97660928	37920400	24992
427	352.00854	136417280	98185216	40140416	24992
428	355.504339	136957952	98709504	43021832	24992
429	360.532148	137498624	99233792	46563648	24992
430	361.105557	138039296	99758080	34274448	24992
431	362.689559	138579968	100282368	39133240	24992
432	363.849256	139120640	100806656	44648608	24992
433	368.598047	139661312	101330944	50840184	24992
434	372.176177	140201984	101855232	41194392	24992
435	372.998708	140742656	102379520	48697000	24992
436	352.287523	137867264	99233792	20888648	24992
437	322.913941	137867264	99233792	29416312	24992
438	325.357834	137867264	99233792	22107520	24992
439	330.513684	137867264	99233792	15462192	24992
440	325.84151	137867264	99233792	25971456	24992
441	327.309822	137867264	99233792	20698584	24992
442	329.608676	137867264	99233792	32831072	24992
443	334.166296	137867264	99233792	29140344	24992
444	334.682162	137867264	99233792	26113312	24992
445	339.423397	137867264	99233792	23767136	24992
446	341.656821	137867264	99233792	22076016	24992
447	343.589089	137867264	99233792	37517200	24992
448	346.870843	137867264	99233792	37138424	24992
449	348.029281	137867264	99233792	37419408	24992
450	352.707976	137867264	99233792	38363104	24992
451	352.728057	137867264	99233792	39966432	24992
452	357.539053	137867264	99233792	25760776	24992
453	359.207508	137867264	99233792	28732856	24992
454	368.803769	137867264	99233792	32344824	24992
455	369.739867	137867264	99233792	36620296	24992
456	372.333591	137867264	99233792	41557632	24992
457	377.309886	137867264	99233792	30637672	24992
458	378.47427	137867264	99233792	36885160	24992
459	381.25776	137867264	99233792	43807112	24992
460	386.242684	137867264	99233792	34873952	24992
461	388.818055	137867264	99233792	43106392	24992
462	392.336099	137867264	99233792	35494696	24992
463	391.645405	137867264	99233792	45050152	24992
464	398.903203	137867264	99233792	38765592	24992
465	396.836496	137867264	99233792	49644544	24992
466	404.129074	137867264	99233792	44680384	24992
467	405.543024	137867264	99233792	40401320	24992
468	375.824873	137867264	99233792	18863088	24992
469	358.463	137867264	99233792	15907760	24992
470	361.604186	137867264	99233792	30095480	24992
471	367.685296	138137600	103428096	28459488	24992
472	368.222324	138948608	113389568	27464400	24992
473	372.91848	139759616	123351040	27131424	24992
474	375.416121	140570624	133312512	27484088	24992
475	382.190075	141111296	133312512	28499336	24992
476	381.577844	141651968	133312512	30175040	24992
477	385.924682	142192640	133312512	32519264	24992
478	387.05612	142733312	133312512	35492720	24992
479	388.498712	143273984	133312512	39130800	24992
480	392.222109	143814656	133312512	26951056	24992
481	393.765507	144355328	133312512	31924256	24992
482	396.083627	144896000	133312512	37570064	24992
483	400.602249	145707008	133312512	27359680	24992
484	408.596761	146247680	133312512	34334960	24992
485	405.914845	146788352	133312512	41965192	24992
486	410.458635	147329024	133312512	33738360	24992
487	412.657473	147869696	133312512	42692072	24992
488	416.448417	148410368	133312512	35789088	24992
489	415.845118	148951040	133312512	46065720	24992
490	424.706764	149491712	133312512	40482632	24992
491	426.54588	150302720	133312512	35587512	24992
492	426.798059	150843392	133312512	47836512	24992
493	431.698026	151384064	133312512	44241512	24992
494	434.663258	151924736	133312512	41333528	24992
495	436.774297	152465408	133312512	39084808	24992
496	438.442408	153006080	133312512	53980256	24992
497	410.493987	150507520	112865280	18230744	24992
498	379.801774	150507520	112865280	17591472	24992
499	378.994571	150507520	112865280	17599592	24992
500	379.298984	150507520	112865280	18269064	24992
