x	Duration	RSS	HeapTotal	HeapUsed	External
0	NA	144363520	105525248	24194344	24992
1	2.60202	144363520	105525248	24871248	24992
2	2.937935	144363520	105525248	26209152	24992
3	2.211521	144363520	105525248	28206296	24992
4	3.14693	144363520	105525248	30862848	24992
5	3.676443	144363520	105525248	34179328	24992
6	5.370916	144363520	105525248	21706816	24992
7	5.057811	144363520	105525248	26342200	24992
8	5.762407	144363520	105525248	31636896	24992
9	7.559322	144363520	105525248	21175720	24992
10	7.32174	144363520	105525248	27790264	24992
11	8.293378	144363520	105525248	35064112	24992
12	9.745757	144363520	105525248	26578224	24992
13	9.349634	144363520	105525248	35170952	24992
14	11.269161	144363520	105525248	28004728	24992
15	11.989343	144363520	105525248	21474664	24992
16	11.640171	144363520	105525248	32045544	24992
17	13.621969	144363520	105525248	26842088	24992
18	14.914933	144363520	105525248	22301600	24992
19	13.724227	144363520	105525248	34853336	24992
20	15.671824	144363520	105525248	31638104	24992
21	16.283273	144363520	105525248	29085736	24992
22	17.038049	144363520	105525248	27172520	24992
23	17.907057	144363520	105525248	25920792	24992
24	18.835319	144363520	105525248	25331072	24992
25	19.587401	144363520	105525248	25403352	24992
26	19.939599	144363520	105525248	26137192	24992
27	20.952271	144363520	105525248	27532152	24992
28	21.824805	144363520	105525248	29588192	24992
29	22.27068	144363520	105525248	32305720	24992
30	22.58736	144363520	105525248	35684456	24992
31	24.885893	144363520	105525248	23267744	24992
32	24.796565	144363520	105525248	27941736	24992
33	25.196511	144363520	105525248	33314136	24992
34	27.386344	144363520	105525248	22895448	24992
35	26.825469	144363520	105525248	29557648	24992
36	27.39174	144363520	105525248	36918872	24992
37	29.209728	144363520	105525248	28486856	24992
38	28.584372	144363520	105525248	37130032	24992
39	31.13362	144363520	105525248	30027464	24992
40	32.399363	144363520	105525248	23551680	24992
41	30.907248	144363520	105525248	34177128	24992
42	32.945141	144363520	105525248	29059528	24992
43	33.575679	144363520	105525248	24568408	24992
44	33.498684	144363520	105525248	37175472	24992
45	35.175875	144363520	105525248	34047048	24992
46	35.811547	144363520	105525248	31539048	24992
47	36.667718	144363520	105525248	29694584	24992
48	37.308711	144363520	105525248	28507920	24992
49	38.672146	144363520	105525248	27982776	24992
50	39.348426	144363520	105525248	28119944	24992
51	39.857038	144363520	105525248	28919000	24992
52	41.081123	144363520	105525248	30379776	24992
53	41.25525	144363520	105525248	32502248	24992
54	42.471989	144363520	105525248	35286600	24992
55	42.54839	144363520	105525248	38730600	24992
56	44.793012	144363520	105525248	26349216	24992
57	44.792135	144363520	105525248	31118888	24992
58	45.180173	144363520	105525248	36549464	24992
59	46.929044	144363520	105525248	26148392	24992
60	46.809619	144363520	105525248	32902560	24992
61	48.571425	144363520	105525248	23826760	24992
62	48.03692	144363520	105525248	31900280	24992
63	49.927124	144363520	105525248	24147656	24992
64	50.943923	144363520	105525248	33544960	24992
65	51.645631	144363520	105525248	27123928	24992
66	50.886422	144363520	105525248	37851784	24992
67	53.263047	144363520	105525248	32762088	24992
68	54.138955	144363520	105525248	28335936	24992
69	53.162162	144363520	105525248	41048680	24992
70	55.259583	144363520	105525248	37942216	24992
71	56.173761	144363520	105525248	35499368	24992
72	56.819423	144363520	105525248	33718592	24992
73	58.52189	144363520	105525248	32593264	24992
74	59.064186	144363520	105525248	32122272	24992
75	59.05366	144363520	105525248	32314688	24992
76	60.37593	144363520	105525248	33173216	24992
77	61.674726	144363520	105525248	34699856	24992
78	62.410872	144363520	105525248	36883784	24992
79	62.398036	144363520	105525248	39719432	24992
80	64.954964	144363520	105525248	26735352	24992
81	64.447342	144363520	105525248	30906384	24992
82	65.204742	144363520	105525248	35739776	24992
83	65.163144	144363520	105525248	41231520	24992
84	68.303631	144363520	105525248	30891400	24992
85	67.113935	144363520	105525248	37710336	24992
86	69.472622	144363520	105525248	28694480	24992
87	68.587575	144363520	105525248	36832840	24992
88	71.667199	144363520	105525248	29137568	24992
89	71.751835	144363520	105525248	38597048	24992
90	72.821769	144363520	105525248	32230280	24992
91	71.977634	144363520	105525248	43018552	24992
92	74.604543	144363520	105525248	37974496	24992
93	75.900206	144363520	105525248	33587176	24992
94	76.560546	144363520	105525248	29864840	24992
95	75.852388	144363520	105525248	43292504	24992
96	78.009291	144363520	105525248	40895104	24992
97	79.024112	144363520	105525248	39160528	24992
98	79.246563	144363520	105525248	38084304	24992
99	80.647881	144363520	105525248	37663608	24992
100	81.18031	144363520	105525248	37900832	24992
101	81.680357	144363520	105525248	38799592	24992
102	83.022546	144363520	106049536	40360264	24992
103	83.779927	144363520	106049536	42584776	24992
104	84.043274	144633856	106049536	45477256	24992
105	87.981669	144633856	106049536	32547792	24992
106	86.257654	144904192	106049536	36765856	24992
107	86.796416	144904192	106573824	41639480	24992
108	87.462385	145174528	106573824	47174944	24992
109	91.162715	145174528	106573824	36888104	24992
110	89.017438	145444864	106573824	43751944	24992
111	92.383816	145444864	106573824	34784424	24992
112	91.472887	145444864	107098112	42972304	24992
113	96.419797	145444864	107098112	35327896	24992
114	92.503614	145715200	107098112	44839576	24992
115	96.187612	145985536	107098112	38519704	24992
116	97.238454	145985536	107622400	32854040	24992
117	95.323109	145985536	107622400	44350720	24992
118	100.397611	146255872	107622400	40015712	24992
119	100.515761	146255872	108146688	36329792	24992
120	98.041104	146526208	108146688	49811704	24992
121	101.557464	146796544	108146688	47459616	24992
122	101.859621	146796544	108146688	45770960	24992
123	102.748401	147066880	108146688	44744064	24992
124	104.217042	147066880	108146688	44380984	24992
125	104.634313	147066880	108670976	44670568	24992
126	105.437055	147066880	108670976	45621856	24992
127	106.394052	147337216	108670976	47241280	24992
128	109.380436	147337216	108670976	49522584	24992
129	111.052111	147607552	108670976	35984984	24992
130	109.886374	147607552	108670976	39602392	24992
131	109.817287	147607552	108670976	43881304	24992
132	112.706772	147607552	108670976	48811024	24992
133	114.872231	147607552	108670976	37919832	24992
134	113.306381	147607552	108670976	44185000	24992
135	113.644759	147607552	108670976	51099784	24992
136	117.859766	147607552	108670976	42192880	24992
137	117.019296	147607552	108670976	50441224	24992
138	119.602618	147607552	108670976	24204656	24992
139	101.627684	147607552	108670976	17183624	24992
140	103.070878	147607552	108670976	27315624	24992
141	103.429323	147607552	108670976	21615192	24992
142	104.789055	147607552	108670976	16569328	24992
143	105.771864	147607552	108670976	28684816	24992
144	106.433608	147607552	108670976	24968560	24992
145	106.642499	147607552	108670976	21912176	24992
146	109.019799	147607552	108670976	19504904	24992
147	108.422841	147607552	108670976	17769600	24992
148	108.517557	147607552	108670976	16695744	24992
149	110.027308	147607552	108670976	16283056	24992
150	110.651647	147607552	108670976	16532368	24992
151	112.161432	147607552	108670976	17450712	24992
152	112.912086	147607552	108670976	19129912	24992
153	113.330873	147607552	108670976	21470792	24992
154	113.758516	147607552	108670976	24467256	24992
155	115.282061	147607552	108670976	28120096	24992
156	115.845398	147607552	108670976	32446896	24992
157	120.348517	147607552	108670976	20940224	24992
158	153.287686	147607552	108670976	26588552	24992
159	119.092987	147607552	108670976	32887456	24992
160	120.655963	147607552	108670976	23366720	24992
161	121.516556	147607552	108670976	30998456	24992
162	121.819526	147607552	108670976	22800992	24992
163	126.166167	147607552	108670976	31765824	24992
164	125.336868	147607552	108670976	24899192	24992
165	126.005003	147607552	108670976	35190656	24992
166	127.60831	147607552	108670976	29639536	24992
167	128.627796	146984960	108670976	24824264	24992
168	127.784323	146984960	108670976	37089360	24992
169	129.483858	146984960	108670976	33522264	24992
170	130.706096	146984960	109195264	30617512	24992
171	131.712111	146984960	109195264	28368016	24992
172	132.326667	147255296	109719552	26774088	24992
173	133.415419	147525632	109719552	25846904	24992
174	134.518887	147795968	110243840	25586632	24992
175	136.18662	148066304	110243840	25988424	24992
176	136.854004	148336640	110768128	27052000	24992
177	137.130915	148606976	110768128	28776520	24992
178	138.713448	148877312	111292416	31158240	24992
179	139.096922	149147648	111292416	34196704	24992
180	139.906845	149417984	111816704	37909272	24992
181	142.619149	149688320	111816704	25787872	24992
182	144.134946	149958656	112340992	30822192	24992
183	143.751991	150228992	112340992	36506832	24992
184	146.669004	150499328	112865280	26370776	24992
185	146.65376	150769664	112865280	33398472	24992
186	147.608627	151040000	113389568	41078760	24992
187	149.004349	151310336	113389568	32927544	24992
188	148.453938	151580672	113913856	41919936	24992
189	152.798061	151851008	113913856	35092520	24992
190	153.172389	152121344	114438144	28913512	24992
191	151.955203	152391680	114438144	39902088	24992
192	156.131712	152662016	114962432	35059200	24992
193	156.046437	152932352	114962432	30865960	24992
194	154.889284	153202688	115486720	43839720	24992
195	158.824649	153473024	115486720	40982312	24992
196	158.863395	153743360	116011008	38786160	24992
197	160.255378	154013696	116011008	37244720	24992
198	163.667216	154284032	116535296	36359040	24992
199	162.267	154554368	116535296	36134496	24992
200	163.351228	154824704	117059584	36576960	24992
201	169.979962	155095040	117059584	37675832	24992
202	166.200223	155365376	117583872	39436184	24992
203	166.479022	155635712	117583872	41858360	24992
204	170.400061	155906048	118108160	44954512	24992
205	169.204962	156176384	118108160	48712376	24992
206	173.211027	156446720	118632448	36637160	24992
207	172.825776	156717056	118632448	41716760	24992
208	172.548372	156987392	119156736	47446800	24992
209	176.336416	157257728	119156736	37357624	24992
210	176.44502	157528064	119681024	44422664	24992
211	178.810822	157528064	119681024	35654992	24992
212	177.367881	157798400	120205312	44043840	24992
213	180.790451	158068736	120205312	36588040	24992
214	180.267209	158339072	120205312	46300152	24992
215	183.709691	158339072	120205312	40181224	24992
216	186.225408	156839936	118632448	14473896	24992
217	159.402381	156839936	118632448	26016408	24992
218	159.984599	156839936	118632448	21724672	24992
219	161.041925	156839936	118632448	18088096	24992
220	162.066536	156839936	118632448	15111576	24992
221	162.519671	156839936	118632448	29296840	24992
222	164.181288	156839936	118632448	27651024	24992
223	164.457905	156839936	118632448	26663864	24992
224	164.665029	156839936	118632448	26339856	24992
225	167.64894	156839936	118632448	26686008	24992
226	166.57653	156839936	118632448	27844048	24992
227	167.218368	156839936	118632448	29663608	24992
228	170.83158	156839936	118632448	32145160	24992
229	170.656699	156839936	118632448	18802224	24992
230	171.575433	156839936	118632448	22605472	24992
231	174.615424	156839936	118632448	27067096	24992
232	174.228797	156839936	118632448	32195024	24992
233	176.366038	156839936	118632448	21490648	24992
234	178.825312	156839936	118632448	27947624	24992
235	179.71003	156839936	118632448	35085176	24992
236	183.982131	156839936	118632448	26364960	24992
237	180.112462	156839936	118632448	34788904	24992
238	182.865297	156839936	118632448	27392120	24992
239	184.300105	156839936	118632448	37139000	24992
240	185.520586	156839936	118632448	31062384	24992
241	186.092593	156839936	119156736	25650056	24992
242	186.501335	157110272	119156736	37393256	24992
243	189.115101	157380608	119156736	33305224	24992
244	193.460774	157380608	119156736	29878944	24992
245	191.639211	157380608	119156736	27101976	24992
246	192.91373	157380608	119156736	24996872	24992
247	193.676952	157380608	119156736	40049160	24992
248	196.137736	157380608	119156736	39278536	24992
249	196.984436	157380608	119156736	39169424	24992
250	198.085915	157380608	119156736	39713232	24992
251	199.117368	157380608	119156736	40918256	24992
252	201.090114	157380608	119681024	42785288	24992
253	204.171361	157650944	119681024	28814992	24992
254	203.460968	157921280	119681024	32003296	24992
255	204.393334	157921280	119681024	35846984	24992
256	209.518254	157921280	119681024	40347392	24992
257	208.03152	157921280	119681024	45551536	24992
258	209.880668	157921280	119681024	34920928	24992
259	212.126724	157921280	119681024	41434800	24992
260	213.432284	157921280	119681024	32128040	24992
261	213.253218	157921280	119681024	39976528	24992
262	213.975905	157921280	119681024	48488048	24992
263	217.641568	157921280	119681024	41166416	24992
264	220.567442	157921280	119681024	34506216	24992
265	217.334175	157921280	119681024	45001328	24992
266	221.168723	157921280	119681024	39664144	24992
267	223.379614	157921280	119681024	34978656	24992
268	223.203961	157921280	120205312	47458440	24992
269	225.763948	158191616	120205312	44105568	24992
270	227.259743	158461952	120205312	41414848	24992
271	229.412155	158461952	120205312	39374240	24992
272	231.143115	158461952	120205312	38004840	24992
273	229.683659	147558400	109195264	18565520	24992
274	259.480785	147558400	109195264	18349128	24992
275	204.293992	147558400	109195264	18771176	24992
276	202.694465	147558400	109195264	19841896	24992
277	203.659849	147558400	109195264	21573496	24992
278	203.324043	147558400	109195264	23965968	24992
279	204.295636	147558400	109195264	27032120	24992
280	207.993833	147558400	109195264	30769560	24992
281	207.373062	147558400	109195264	18863520	24992
282	209.054769	147558400	109195264	24111192	24992
283	210.967343	147558400	109195264	30028936	24992
284	213.115817	147558400	109195264	20108264	24992
285	213.165697	147558400	109195264	27340856	24992
286	214.487456	147558400	109195264	35240256	24992
287	216.930502	147558400	109195264	27301240	24992
288	220.312824	147558400	109195264	36547416	24992
289	220.537851	147558400	109195264	29935536	24992
290	221.389056	147558400	109195264	23984208	24992
291	222.113676	147558400	109195264	35187248	24992
292	224.253404	147558400	109195264	30558952	24992
293	284.219968	147558400	109195264	26591952	24992
294	226.775815	147558400	109195264	39769232	24992
295	228.807984	147558400	109195264	37126640	24992
296	231.178153	147558400	109195264	35142968	24992
297	232.559026	147558400	109195264	33822880	24992
298	240.773333	147558400	109195264	33164176	24992
299	235.415357	147558400	109195264	33160520	24992
300	238.723526	147558400	109195264	33837896	24992
301	242.138894	147558400	109195264	35157160	24992
302	241.015578	147558400	109195264	37144440	24992
303	242.006757	147558400	109195264	39793752	24992
304	242.939033	147558400	109195264	43103792	24992
305	246.996617	147558400	109195264	30582088	24992
306	248.400914	147558400	109195264	35215288	24992
307	247.923196	147558400	109195264	40499384	24992
308	250.720495	147558400	109195264	46457456	24992
309	253.22349	147558400	109195264	36582488	24992
310	255.223589	147558400	109195264	43851304	24992
311	256.181755	147558400	109195264	35298744	24992
312	255.441817	147558400	109195264	43901712	24992
313	260.405307	147558400	109195264	36673048	24992
314	259.723228	147558400	109195264	46598904	24992
315	263.276997	147558400	109195264	40694744	24992
316	262.951238	147558400	109195264	51933312	24992
317	267.851021	147558400	109195264	47349592	24992
318	268.38709	147558400	109195264	43431208	24992
319	261.198256	135499776	97136640	19543864	24992
320	234.49777	135499776	97136640	16707016	24992
321	236.507331	135499776	97136640	14531192	24992
322	237.416914	135499776	97136640	29522112	24992
323	237.200248	135770112	101855232	28680344	24992
324	237.780602	136040448	108670976	28500424	24992
325	238.812973	136310784	108670976	28990624	24992
326	240.234161	136581120	108670976	30367560	24992
327	242.368535	137121792	108670976	32400896	24992
328	244.815139	137662464	108670976	18599120	24992
329	245.315263	137932800	108670976	21954816	24992
330	247.612668	138473472	108670976	25964136	24992
331	249.197322	139014144	108670976	30652768	24992
332	253.774991	139550720	108670976	36027168	24992
333	252.696226	139821056	108670976	25534888	24992
334	254.035243	140361728	108670976	32188216	24992
335	256.816311	140902400	108670976	23019848	24992
336	257.368343	141443072	108670976	31007344	24992
337	262.153602	141983744	108670976	39657960	24992
338	262.00245	142241792	108670976	32476104	24992
339	263.045682	142782464	108670976	25955992	24992
340	264.247096	143323136	108670976	36590528	24992
341	267.844784	143593472	108670976	31400544	24992
342	268.875431	144134144	108670976	26852608	24992
343	270.237769	144674816	108670976	39482624	24992
344	272.947253	145215488	108670976	36271240	24992
345	273.88204	145756160	108670976	33720576	24992
346	275.740832	146296832	108670976	31819136	24992
347	277.952299	146837504	108670976	30579008	24992
348	277.588476	147378176	108670976	46506280	24992
349	281.415639	147378176	108670976	46603824	24992
350	282.675753	147378176	108670976	47359088	24992
351	287.738013	147378176	109195264	32281536	24992
352	287.788336	147918848	109719552	34361160	24992
353	288.902628	148459520	110243840	37102376	24992
354	292.065129	149000192	110768128	40494296	24992
355	292.991536	149540864	111292416	44553776	24992
356	295.079812	149811200	111816704	49283464	24992
357	298.939913	150351872	112340992	38179328	24992
358	298.605832	150892544	112865280	44222568	24992
359	300.444044	151433216	113389568	50936272	24992
360	289.546924	143904768	105000960	21340624	24992
361	267.44062	143904768	105000960	29120016	24992
362	266.491795	143904768	105000960	21062856	24992
363	266.434439	143904768	105000960	30164432	24992
364	267.666432	143904768	105000960	23429040	24992
365	268.325421	143904768	105000960	17366688	24992
366	270.584185	143904768	105000960	28709224	24992
367	271.292029	143904768	105000960	24220456	24992
368	275.252768	143904768	105000960	20392208	24992
369	276.253862	143904768	105000960	33707984	24992
370	278.955072	143904768	105000960	31210152	24992
371	280.183463	143904768	105000960	29376792	24992
372	285.918243	143904768	105000960	28241912	24992
373	284.343825	143904768	105000960	27723184	24992
374	291.726804	143904768	105000960	27865760	24992
375	288.240009	143904768	105000960	28663272	24992
376	288.835864	143904768	105000960	30122712	24992
377	294.881255	143904768	105000960	32250240	24992
378	293.574543	143904768	105000960	35039600	24992
379	296.872369	143904768	105000960	38489648	24992
380	299.653027	143904768	105000960	26108024	24992
381	300.726628	143904768	105000960	30889528	24992
382	301.897416	143904768	105000960	36312648	24992
383	303.861351	143904768	105000960	42410088	24992
384	308.233318	143904768	105000960	32674448	24992
385	308.090902	143904768	105000960	40083488	24992
386	311.185075	143904768	105000960	31670192	24992
387	311.765396	143904768	105000960	40406632	24992
388	315.617486	143904768	105000960	33317120	24992
389	316.742701	143904768	105000960	43376672	24992
390	320.094859	143904768	105000960	37611088	24992
391	320.533858	143904768	105000960	48989040	24992
392	324.526028	143904768	105000960	44545160	24992
393	327.598565	143904768	105000960	40765776	24992
394	328.821778	143904768	105000960	37639464	24992
395	328.361337	143904768	105000960	51668624	24992
396	333.460917	143904768	105000960	49870984	24992
397	319.209917	141836288	102903808	28327112	24992
398	293.149006	141836288	102903808	27578064	24992
399	292.509776	141836288	102903808	27484040	24992
400	292.812849	141836288	102903808	28051592	24992
401	297.011395	141836288	106049536	29279560	24992
402	295.091507	142106624	106049536	31178456	24992
403	298.167396	142647296	106049536	17516496	24992
404	299.615035	143187968	106049536	21012144	24992
405	303.223057	143728640	106049536	25167744	24992
406	308.417072	143998976	106049536	29999000	24992
407	308.090022	144539648	106049536	35514616	24992
408	309.700088	145080320	106049536	25162176	24992
409	310.339121	145080320	106049536	31955448	24992
410	313.721369	145080320	106049536	22928392	24992
411	314.95671	145080320	106049536	31055560	24992
412	316.72226	145080320	106049536	39845984	24992
413	319.786937	145080320	106049536	32802712	24992
414	321.440676	145080320	106049536	26421640	24992
415	324.784873	145080320	106049536	37198008	24992
416	326.776198	145080320	106049536	32141760	24992
417	329.517398	145080320	106049536	27746408	24992
418	329.905875	145080320	106049536	40504664	24992
419	337.687115	145080320	106049536	37431848	24992
420	335.655255	145080320	106049536	35020304	24992
421	338.979497	145080320	106049536	33264336	24992
422	341.596669	145080320	106049536	32163632	24992
423	341.559695	145080320	106049536	48224808	24992
424	346.436092	145080320	106049536	48461136	24992
425	348.245739	145080320	106049536	49356048	24992
426	355.804742	145080320	106049536	34417304	24992
427	354.054635	145080320	106049536	36637896	24992
428	355.083047	145080320	106049536	39506736	24992
429	358.066795	145350656	106573824	43038712	24992
430	359.757731	145620992	106573824	47243464	24992
431	341.872403	144576512	105525248	15432720	24992
432	320.108131	144576512	105525248	20681064	24992
433	319.37274	144576512	105525248	26563240	24992
434	319.393988	144576512	105525248	16613552	24992
435	321.632399	144576512	105525248	23808216	24992
436	321.499983	144576512	105525248	31713792	24992
437	324.483105	144576512	105525248	24053680	24992
438	326.697121	144576512	105525248	33552408	24992
439	336.47281	144576512	105525248	27224984	24992
440	332.785432	144576512	105525248	21551592	24992
441	341.782787	144576512	105525248	33056104	24992
442	339.148293	144576512	105525248	28706552	24992
443	342.23015	144576512	105525248	25018616	24992
444	346.238855	144576512	105525248	38486952	24992
445	349.008636	144576512	105525248	36120496	24992
446	350.13864	144576512	105525248	34419088	24992
447	352.894515	144576512	105525248	33378352	24992
448	360.901211	144576512	105525248	33007424	24992
449	359.587875	144576512	105525248	33325776	24992
450	361.904339	144576512	105525248	34293376	24992
451	366.405217	144576512	105525248	35922528	24992
452	367.417913	144576512	105525248	38216072	24992
453	371.203825	144846848	106049536	41188312	24992
454	378.311448	145117184	106573824	44779432	24992
455	379.568113	145657856	107098112	32536984	24992
456	380.769231	146198528	107098112	37466568	24992
457	381.951743	146198528	107098112	43058680	24992
458	385.738909	146198528	107098112	49319512	24992
459	391.276114	146198528	107098112	39719336	24992
460	391.476211	146198528	107098112	47296712	24992
461	398.043885	146198528	107098112	39023624	24992
462	398.248971	146198528	107098112	47917960	24992
463	367.542328	146198528	107098112	22475952	24992
464	339.61481	146198528	107098112	15858080	24992
465	340.972506	146198528	107098112	26382784	24992
466	343.107148	146198528	107098112	21089320	24992
467	344.209996	146198528	107098112	16476352	24992
468	346.94104	146198528	107098112	29346896	24992
469	347.222722	146198528	107098112	26365296	24992
470	353.69146	146198528	107098112	24078680	24992
471	355.453664	146198528	107098112	22448048	24992
472	359.434972	146198528	107098112	21497856	24992
473	359.35022	146198528	107098112	21175944	24992
474	360.828271	146198528	107098112	38015776	24992
475	364.856204	146198528	107098112	39033280	24992
476	369.493109	146198528	107098112	24214744	24992
477	372.559211	146198528	107098112	26539728	24992
478	374.158836	146198528	107098112	29526656	24992
479	377.925539	146198528	107098112	33190272	24992
480	379.996936	146198528	107098112	37522088	24992
481	382.575578	146198528	107098112	42483448	24992
482	386.114922	146198528	107098112	31608856	24992
483	387.187504	146198528	107098112	37903528	24992
484	388.954556	146198528	107098112	44872160	24992
485	394.363612	146198528	107098112	35983560	24992
486	395.694529	146198528	107098112	44275160	24992
487	400.78395	146198528	107098112	36710232	24992
488	404.020969	146198528	107098112	46315392	24992
489	407.13406	146198528	107098112	40073768	24992
490	407.50242	146198528	107098112	51012104	24992
491	413.79904	146198528	107098112	46116264	24992
492	418.530608	146198528	107098112	41881808	24992
493	392.299499	146198528	107098112	18636688	24992
494	364.144117	146198528	107098112	15387456	24992
495	363.741477	146198528	107098112	29246232	24992
496	364.616098	146198528	107098112	27308760	24992
497	366.403192	146198528	107098112	26072008	24992
498	369.632891	146198528	107098112	25785168	24992
499	374.122683	146198528	107098112	26183224	24992
500	377.084919	146198528	107098112	27245856	24992
