x	Duration	RSS	HeapTotal	HeapUsed	External
0	NA	138919936	100282368	12287304	24992
1	0.985555	138919936	100282368	12967832	24992
2	1.548962	138919936	100282368	14306200	24992
3	2.257928	138919936	100282368	16304000	24992
4	3.027401	138919936	100282368	18961240	24992
5	3.751524	138919936	100282368	22278568	24992
6	4.670798	138919936	100282368	26255416	24992
7	5.687364	138919936	100282368	14426080	24992
8	6.168116	138919936	100282368	19722024	24992
9	6.799661	138919936	100282368	25678488	24992
10	8.730425	138919936	100282368	15849688	24992
11	8.309842	138919936	100282368	23125328	24992
12	9.2362	138919936	100282368	14593312	24992
13	9.442504	138919936	100282368	23187960	24992
14	10.671039	138919936	100282368	15974448	24992
15	11.13534	138919936	100282368	25888200	24992
16	12.42936	138919936	100282368	20002184	24992
17	12.855336	138919936	100282368	14768728	24992
18	13.243693	138919936	100282368	26663000	24992
19	14.217362	138919936	100282368	22751552	24992
20	15.099514	138919936	100282368	19501224	24992
21	15.81905	138919936	100282368	16904680	24992
22	16.831285	138919936	100282368	14971712	24992
23	17.826338	138919936	100282368	13699416	24992
24	18.633111	138919936	100282368	13089200	24992
25	18.810438	138919936	100282368	13134072	24992
26	19.263731	138919936	100282368	13839432	24992
27	20.084145	138919936	100282368	15205280	24992
28	20.588302	138919936	100282368	17231616	24992
29	21.939262	138919936	100282368	19918448	24992
30	23.625705	138919936	100282368	23266560	24992
31	23.727965	138919936	100282368	27273208	24992
32	24.42822	138919936	100282368	15476128	24992
33	24.751462	138919936	100282368	20805648	24992
34	25.583135	138919936	100282368	26802320	24992
35	26.419548	138919936	100282368	16992208	24992
36	26.895252	138919936	100282368	24303960	24992
37	27.734354	138919936	100282368	15821632	24992
38	28.547793	138919936	100282368	24454000	24992
39	29.552828	138919936	100282368	17292256	24992
40	29.936319	138919936	100282368	27245088	24992
41	30.827363	138919936	100282368	21404704	24992
42	31.368473	138919936	100282368	16223128	24992
43	32.440082	138919936	100282368	28158192	24992
44	33.225586	138919936	100282368	24299720	24992
45	34.662461	138919936	100282368	21102824	24992
46	34.764438	138919936	100282368	18561424	24992
47	36.478756	138919936	100282368	16681176	24992
48	36.099279	138919936	100282368	15462152	24992
49	36.823925	138919936	100282368	14903960	24992
50	38.127898	138919936	100282368	15007472	24992
51	38.672917	138919936	100282368	15772328	24992
52	38.963196	138919936	100282368	17198264	24992
53	39.731385	138919936	100282368	19285336	24992
54	40.499929	138919936	100282368	22034552	24992
55	41.784948	138919936	100282368	25443184	24992
56	41.719775	138919936	100282368	29511400	24992
57	42.984762	138919936	100282368	17747464	24992
58	43.244024	138919936	100282368	23136784	24992
59	44.847591	138919936	100282368	29195328	24992
60	45.002757	138919936	100282368	19457320	24992
61	45.716093	138919936	100282368	26874288	24992
62	46.854274	138919936	100282368	18460224	24992
63	47.17593	138919936	100282368	27199832	24992
64	47.860772	138919936	100282368	20106808	24992
65	49.046221	138919936	100282368	30176624	24992
66	49.217229	138919936	100282368	24424272	24992
67	50.929388	138919936	100282368	19336168	24992
68	50.920428	138919936	100282368	31386840	24992
69	52.208657	138919936	100282368	27618472	24992
70	53.076724	138919936	100282368	24513248	24992
71	53.679713	138919936	100282368	22071576	24992
72	54.381184	138919936	100282368	20280280	24992
73	54.785545	138919936	100282368	19158616	24992
74	56.048043	138919936	100282368	18698400	24992
75	56.185616	138919936	100282368	18900104	24992
76	57.591674	138919936	100282368	19763208	24992
77	57.87293	138919936	100282368	21287896	24992
78	58.624764	138919936	100282368	23473888	24992
79	60.012402	138919936	100282368	26319400	24992
80	60.294519	138919936	100282368	29821488	24992
81	61.702999	138919936	100282368	17491760	24992
82	61.999406	138919936	100282368	22325808	24992
83	62.377601	138919936	100282368	27820984	24992
84	64.687147	138919936	100282368	33980960	24992
85	65.044874	138919936	100282368	24298336	24992
86	65.47538	138919936	100282368	31776312	24992
87	66.817336	138919936	100282368	23420984	24992
88	66.530869	138919936	100282368	32223944	24992
89	68.181573	138919936	100282368	25195656	24992
90	69.976066	138919936	100282368	35345008	24992
91	70.433876	138919936	100282368	29645384	24992
92	70.719528	138919936	100282368	24599504	24992
93	71.240178	138919936	100282368	20219472	24992
94	71.425471	138919936	100282368	32985808	24992
95	73.517894	138919936	100282368	29927984	24992
96	74.603829	138919936	100282368	27525528	24992
97	75.339604	138919936	100282368	25778744	24992
98	75.685777	138919936	100282368	24703560	24992
99	76.370105	138919936	100282368	24290376	24992
100	77.802973	138919936	100282368	24539152	24992
101	77.998203	138919936	100282368	25449704	24992
102	79.023917	138919936	100282368	27021320	24992
103	80.380599	138919936	100806656	29248832	24992
104	80.255475	139190272	100806656	32132712	24992
105	81.445264	139190272	100806656	35683520	24992
106	83.455351	139460608	100806656	23415536	24992
107	83.807968	139460608	100806656	28295552	24992
108	84.37082	139460608	101330944	33831184	24992
109	86.502004	139730944	101330944	23540584	24992
110	85.91456	139730944	101330944	30405256	24992
111	86.324973	140001280	101855232	37920408	24992
112	89.343924	140271616	101855232	29615472	24992
113	87.997903	140271616	101855232	38453768	24992
114	90.381197	140541952	101855232	31473096	24992
115	91.649212	140541952	101855232	25141016	24992
116	90.959496	140541952	101855232	35976512	24992
117	92.799001	140541952	101855232	30979944	24992
118	94.357405	140541952	101855232	26632408	24992
119	93.506819	140541952	101855232	39452808	24992
120	96.879808	140541952	101855232	36449752	24992
121	96.41234	140541952	101855232	34099744	24992
122	97.794682	140541952	101855232	32399680	24992
123	98.844357	140541952	101855232	31369464	24992
124	99.187434	140541952	101855232	30996888	24992
125	99.913812	140541952	101855232	31291120	24992
126	101.179886	140541952	101855232	32247040	24992
127	102.169907	140541952	101855232	33853728	24992
128	103.176794	140541952	101855232	36122536	24992
129	103.798353	140541952	101855232	39074128	24992
130	104.256236	140541952	101855232	42693040	24992
131	107.179171	140541952	101855232	30478896	24992
132	106.709521	140541952	101855232	35420088	24992
133	111.315112	140541952	101855232	41011440	24992
134	110.400377	140541952	101855232	30783920	24992
135	108.842166	140541952	101855232	37709616	24992
136	112.227476	140541952	101855232	28790360	24992
137	110.780306	140541952	101855232	37039024	24992
138	113.555322	140541952	101855232	29443360	24992
139	112.321742	140541952	101855232	39015216	24992
140	115.669301	140541952	101855232	32749056	24992
141	114.204268	140541952	101855232	43644488	24992
142	117.314925	140541952	101855232	38712880	24992
143	118.488831	140541952	101855232	34425232	24992
144	119.330871	140541952	101855232	30809720	24992
145	117.857913	140541952	101855232	44351328	24992
146	121.653821	140541952	101855232	42061984	24992
147	121.930927	140541952	101855232	40433920	24992
148	122.983719	140541952	101855232	39455384	24992
149	124.210382	140541952	101855232	39138560	24992
150	125.616792	140541952	101855232	39483552	24992
151	126.150919	140541952	101855232	40490304	24992
152	126.755585	140541952	101855232	42158376	24992
153	128.570752	140541952	101855232	44494248	24992
154	128.909581	140541952	101855232	47498040	24992
155	131.568765	140541952	101855232	34667832	24992
156	131.502765	140541952	101855232	38995920	24992
157	131.590442	140541952	101855232	43982488	24992
158	131.989013	140541952	101855232	49626496	24992
159	136.850635	140541952	101855232	39444080	24992
160	134.157381	140541952	101855232	46415752	24992
161	138.046209	140541952	101855232	37556816	24992
162	136.782188	140541952	101855232	45852512	24992
163	140.635951	140541952	101855232	38316080	24992
164	139.132954	140541952	101855232	47935624	24992
165	142.746547	140541952	101855232	41722432	24992
166	139.994571	140541952	101855232	52659704	24992
167	153.139923	125403136	87175168	28262976	24992
168	123.737932	125403136	87175168	23915480	24992
169	124.824791	125403136	87175168	20227960	24992
170	126.463216	125403136	87175168	17188048	24992
171	126.606143	125403136	87175168	14819576	24992
172	127.045134	125403136	87175168	29607752	24992
173	127.828126	125403136	88748032	28563496	24992
174	128.428937	125673472	92418048	28179584	24992
175	128.830379	125943808	96088064	28457880	24992
176	130.82086	126214144	99758080	29395512	24992
177	131.410875	126484480	103428096	30994136	24992
178	132.18439	126484480	103952384	16782136	24992
179	132.439361	126754816	103952384	19831136	24992
180	134.900431	127025152	103952384	23541104	24992
181	134.675539	127295488	103952384	27902464	24992
182	135.477981	127565824	103952384	32937800	24992
183	136.946508	127565824	103952384	22137872	24992
184	138.075634	127836160	103952384	28489064	24992
185	139.324746	128106496	103952384	19014104	24992
186	139.951263	128376832	103952384	26694416	24992
187	141.223181	128647168	103952384	35025760	24992
188	143.375851	128917504	103952384	27543272	24992
189	143.08464	129187840	103952384	20701976	24992
190	144.749443	129458176	103952384	31036728	24992
191	148.290422	129728512	103952384	25556584	24992
192	147.720152	129998848	103952384	20701168	24992
193	146.746975	130269184	103952384	33014472	24992
194	148.891029	130269184	103952384	29494968	24992
195	149.816806	130539520	103952384	26624488	24992
196	150.807361	130809856	103952384	24415440	24992
197	151.948111	131080192	103952384	22879016	24992
198	153.378664	131350528	103952384	38499464	24992
199	154.520667	131620864	103952384	38286328	24992
200	156.456761	131891200	103952384	38736768	24992
201	158.306976	132161536	103952384	39848152	24992
202	159.29474	132431872	103952384	25126712	24992
203	158.631186	132702208	103952384	27560280	24992
204	159.962631	132972544	103952384	30654752	24992
205	161.197202	133242880	103952384	34400216	24992
206	162.354584	133513216	103952384	38820240	24992
207	167.447208	133783552	103952384	27415872	24992
208	164.75479	133783552	103952384	33157576	24992
209	166.446164	134053888	103952384	39559368	24992
210	169.453687	134324224	103952384	30130520	24992
211	168.059341	134594560	103952384	37857144	24992
212	170.205019	134864896	103952384	29752496	24992
213	170.858491	135135232	103952384	38803080	24992
214	173.032036	135405568	103952384	32021640	24992
215	172.369638	135675904	103952384	42395032	24992
216	175.849461	135946240	103952384	36937136	24992
217	176.67319	136216576	103952384	32128424	24992
218	176.953022	136486912	103952384	44486696	24992
219	181.063584	136757248	103952384	41014120	24992
220	179.761247	137027584	103952384	38202208	24992
221	181.982958	137297920	103952384	36039544	24992
222	183.266942	137568256	103952384	34538168	24992
223	184.504423	137838592	103952384	33709304	24992
224	188.820303	138108928	103952384	33542944	24992
225	186.366198	138379264	103952384	34038960	24992
226	187.44083	138649600	103952384	35195920	24992
227	189.576878	138919936	103952384	37014528	24992
228	189.282123	139190272	103952384	39493928	24992
229	193.324287	139460608	103952384	42635344	24992
230	192.775963	139730944	103952384	46433512	24992
231	192.991599	140001280	103952384	50899896	24992
232	198.296883	140271616	103952384	39532304	24992
233	195.593307	140541952	103952384	45319960	24992
234	197.989812	140812288	103952384	51772024	24992
235	201.643247	141082624	103952384	42393256	24992
236	199.885678	141352960	103952384	50154992	24992
237	202.041856	135507968	97136640	26758416	24992
238	177.661701	135507968	97136640	19695048	24992
239	178.850046	135507968	97136640	29776008	24992
240	182.081056	135507968	97136640	24039656	24992
241	182.636508	135507968	97136640	18964048	24992
242	184.131565	135507968	97136640	31040048	24992
243	187.144668	135507968	98185216	27291952	24992
244	188.514429	136048640	98185216	24131320	24992
245	189.932896	136318976	98185216	21353432	24992
246	192.460878	136589312	98185216	19242616	24992
247	191.992983	136589312	98185216	34294568	24992
248	194.896926	136589312	98185216	33512192	24992
249	195.63482	136589312	98185216	33394304	24992
250	198.91541	136589312	98185216	33937832	24992
251	199.577909	136589312	98185216	35143216	24992
252	201.237386	136589312	98185216	37017744	24992
253	204.763869	136589312	98185216	23050008	24992
254	205.113961	136589312	98185216	26262584	24992
255	205.547888	136589312	98185216	30100952	24992
256	205.787031	136589312	98185216	34607448	24992
257	209.047313	136589312	98185216	23316328	24992
258	209.903015	136589312	98185216	29180040	24992
259	211.021422	136589312	98185216	35694168	24992
260	216.813163	136589312	98185216	26387408	24992
261	214.701038	136589312	98185216	34235656	24992
262	221.483052	136589312	98185216	26252168	24992
263	217.504442	136589312	98185216	35423784	24992
264	221.337948	136589312	98185216	28763584	24992
265	220.044378	136589312	98185216	39257688	24992
266	223.165732	136589312	98185216	33920056	24992
267	227.890942	136589312	98185216	29241104	24992
268	224.378283	136589312	98185216	41724064	24992
269	233.515192	136589312	98185216	38373224	24992
270	229.508209	136589312	98185216	35682632	24992
271	232.302358	136589312	98185216	33641160	24992
272	232.855511	136589312	98185216	32266392	24992
273	234.54969	136589312	98185216	31559168	24992
274	235.256343	136589312	98185216	31514352	24992
275	236.687137	136589312	98185216	32131488	24992
276	240.367308	136589312	98185216	33410456	24992
277	243.460798	136589312	98185216	35350912	24992
278	241.976837	136589312	98185216	37952608	24992
279	244.073627	136589312	98185216	41204912	24992
280	244.790542	136589312	98185216	45118856	24992
281	247.718815	136589312	98185216	49721584	24992
282	253.335651	136589312	98185216	38477056	24992
283	250.325784	136589312	98185216	44386496	24992
284	252.107428	136589312	98185216	50959512	24992
285	257.283438	136589312	98185216	41697776	24992
286	243.43938	132395008	93990912	15360912	24992
287	211.806868	132395008	93990912	23712872	24992
288	213.373081	132395008	93990912	16232632	24992
289	215.048536	132395008	93990912	25908056	24992
290	218.881663	132395008	93990912	19749024	24992
291	215.510274	132395008	93990912	30733688	24992
292	218.046082	132395008	93990912	25900184	24992
293	216.333394	132395008	93990912	21735600	24992
294	216.905548	132395008	93990912	18417560	24992
295	218.772003	132395008	93990912	32266496	24992
296	221.42114	132395008	93990912	30284048	24992
297	222.745886	132395008	93990912	28964256	24992
298	223.961825	132395008	93990912	28308104	24992
299	227.742957	132395008	93990912	28318544	24992
300	229.044293	132395008	93990912	29008312	24992
301	232.046908	132395008	93990912	30350696	24992
302	230.222553	132395008	93990912	32338440	24992
303	232.134603	132395008	93990912	34988424	24992
304	233.601004	132395008	93990912	38299984	24992
305	236.274975	132395008	93990912	25775288	24992
306	238.228803	132395008	93990912	30402832	24992
307	237.944688	132395008	93990912	35693464	24992
308	240.78653	132395008	93990912	25156656	24992
309	240.765967	132395008	93990912	31775576	24992
310	244.637297	132395008	93990912	39044520	24992
311	246.2631	132395008	93990912	30503312	24992
312	247.356388	132395008	93990912	39105328	24992
313	248.155091	132395008	93990912	31880336	24992
314	250.036923	132395008	93990912	41795760	24992
315	255.720801	132395008	93990912	35891472	24992
316	254.888926	132395008	93990912	30647560	24992
317	254.147286	132395008	93990912	42558128	24992
318	258.301916	132395008	93990912	38638544	24992
319	259.263286	132395008	93990912	35379744	24992
320	261.685123	132395008	93990912	32770056	24992
321	260.11784	132395008	93990912	47328624	24992
322	265.097616	132395008	93990912	46054528	24992
323	266.642148	132395008	93990912	45442352	24992
324	267.590189	132395008	93990912	45493016	24992
325	270.947772	132395008	93990912	46203424	24992
326	271.057021	132395008	93990912	47579216	24992
327	275.151213	132395008	93990912	49614048	24992
328	274.58927	132395008	93990912	52310856	24992
329	279.731117	132395008	93990912	39171824	24992
330	278.901868	132395008	93990912	43189040	24992
331	266.19394	129859584	91369472	23259136	24992
332	247.059266	129859584	91369472	29091144	24992
333	254.134763	129859584	91369472	19080520	24992
334	253.170344	129859584	93990912	26225256	24992
335	255.942953	130670592	101855232	17550816	24992
336	259.239067	131211264	101855232	25774480	24992
337	262.238287	131481600	101855232	17929616	24992
338	263.516281	132022272	101855232	27240968	24992
339	266.557028	132562944	101855232	20719792	24992
340	267.29173	133103616	101855232	31353952	24992
341	273.202873	133644288	101855232	26157808	24992
342	273.303947	134184960	101855232	21613536	24992
343	273.886051	134991872	101855232	34249560	24992
344	278.108553	135532544	101855232	31051816	24992
345	278.707113	136073216	101855232	28501296	24992
346	287.474011	136343552	101855232	26599984	24992
347	283.34619	136884224	101855232	25359952	24992
348	286.641013	137424896	101855232	24791944	24992
349	287.809006	137965568	101855232	41381632	24992
350	288.957924	138506240	101855232	42137424	24992
351	295.837163	139046912	101855232	27060128	24992
352	293.184657	139587584	101855232	29139400	24992
353	295.905185	139857920	101855232	31890864	24992
354	297.107692	140398592	102379520	35282544	24992
355	299.472771	140939264	102903808	39342056	24992
356	301.870421	141479936	103428096	44069408	24992
357	307.656788	142020608	103952384	32963176	24992
358	306.374256	142561280	104476672	39006816	24992
359	309.1041	143101952	105000960	45719712	24992
360	313.124367	143642624	105525248	36612728	24992
361	312.15607	144183296	106049536	44636016	24992
362	317.577494	144723968	106573824	36838992	24992
363	315.634865	145264640	107098112	46184960	24992
364	322.546078	145805312	107622400	39711512	24992
365	320.251521	146345984	108146688	50381152	24992
366	326.744897	146886656	108670976	45229744	24992
367	329.156386	147427328	109195264	40740048	24992
368	304.049451	135114752	96612352	19079200	24992
369	280.267589	135385088	96612352	15841872	24992
370	275.336115	135385088	96612352	30373096	24992
371	283.841901	135385088	96612352	29074080	24992
372	282.020597	135385088	96612352	28416248	24992
373	288.374279	135385088	96612352	28152624	24992
374	286.462461	135385088	96612352	28295344	24992
375	288.772696	135385088	96612352	29098608	24992
376	290.624164	135385088	96612352	30563528	24992
377	292.471431	135385088	96612352	32692632	24992
378	296.376398	135385088	96612352	35494544	24992
379	300.180467	135385088	96612352	22471496	24992
380	299.766191	135385088	96612352	26599480	24992
381	301.338895	135385088	96612352	31361392	24992
382	302.144103	135385088	96612352	36797136	24992
383	306.719594	135385088	96612352	26398256	24992
384	307.561365	135385088	96612352	33145160	24992
385	310.776935	135385088	96612352	40566904	24992
386	314.183778	135385088	96612352	32154280	24992
387	314.248099	135385088	96612352	40892064	24992
388	318.562687	135385088	96612352	33822184	24992
389	319.320013	135385088	96612352	43883752	24992
390	322.553249	135385088	96612352	38114552	24992
391	323.923735	135385088	96612352	33009816	24992
392	324.36039	135385088	96612352	45049104	24992
393	327.328164	135385088	96612352	41268520	24992
394	330.2934	135385088	96612352	38148568	24992
395	332.259497	135385088	96612352	35690264	24992
396	335.541714	135385088	96612352	33881152	24992
397	334.74446	135385088	96612352	49239176	24992
398	338.534405	135655424	97136640	48763032	24992
399	340.970328	135925760	97136640	48951496	24992
400	343.904374	135925760	97136640	49805448	24992
401	345.305533	135925760	97136640	51317808	24992
402	326.696731	135925760	97136640	18040840	24992
403	297.158396	135925760	97136640	20578832	24992
404	297.456705	135925760	97136640	23789552	24992
405	297.816094	135925760	97136640	27661232	24992
406	301.790173	135925760	97136640	15708320	24992
407	302.355778	135925760	97136640	21449840	24992
408	304.711403	135925760	97136640	27588512	24992
409	307.146445	135925760	97136640	17900352	24992
410	310.761649	135925760	97136640	25365032	24992
411	312.173465	135925760	97136640	33497200	24992
412	319.517689	135925760	97136640	25818144	24992
413	316.225104	135925760	97136640	35278528	24992
414	319.81997	135925760	97136640	28899264	24992
415	321.137438	135925760	97136640	23179792	24992
416	323.370447	135925760	97136640	34615464	24992
417	325.449393	135925760	97136640	30221040	24992
418	327.303595	135925760	97136640	26487104	24992
419	329.019732	135925760	97136640	39897440	24992
420	334.962305	135925760	97136640	37486872	24992
421	336.342364	135925760	97136640	35756944	24992
422	338.805763	135925760	97136640	34668832	24992
423	339.996517	135925760	97136640	34242736	24992
424	342.09467	135925760	97136640	34477720	24992
425	345.1218	135925760	97136640	35368280	24992
426	348.511797	136466432	98185216	36919792	24992
427	349.966532	137007104	98709504	39139888	24992
428	351.083828	137547776	99233792	42021416	24992
429	354.136667	138088448	99758080	45563968	24992
430	358.416603	138358784	100282368	49768176	24992
431	361.661091	138899456	100806656	38137328	24992
432	360.830503	139440128	101330944	43655544	24992
433	365.027961	139980800	101855232	49845488	24992
434	370.368211	140521472	102379520	40202448	24992
435	369.278869	141062144	102903808	47703888	24992
436	345.939958	137986048	99233792	29444104	24992
437	327.83048	137986048	99233792	21787656	24992
438	328.907327	137986048	99233792	14791520	24992
439	330.352957	137986048	101330944	24949896	24992
440	335.507103	138797056	110768128	19275800	24992
441	335.20215	139608064	119681024	30746888	24992
442	342.791413	140148736	129118208	26398176	24992
443	343.70947	140959744	138555392	22709912	24992
444	343.772295	141500416	138555392	19673864	24992
445	349.9954	142041088	138555392	33817776	24992
446	356.199297	142581760	138555392	32145552	24992
447	352.312205	143122432	138555392	31103728	24992
448	356.872107	143663104	138555392	30724136	24992
449	359.590553	144203776	138555392	31031472	24992
450	360.436061	144744448	138555392	31998960	24992
451	362.651715	145285120	138555392	33628624	24992
452	365.797812	145825792	138555392	35919672	24992
453	369.475895	146096128	138555392	38876992	24992
454	370.035168	146636800	138555392	42477144	24992
455	373.90103	147447808	138555392	30231256	24992
456	374.725081	147718144	138555392	35156032	24992
457	376.067677	148258816	138555392	40754776	24992
458	379.509532	148799488	138555392	46991592	24992
459	384.68308	149340160	138555392	37415896	24992
460	384.224717	149880832	138555392	44999280	24992
461	389.884004	150421504	138555392	36725768	24992
462	389.172603	150962176	138555392	45619912	24992
463	395.083121	151502848	138555392	38670344	24992
464	396.030901	152043520	138555392	48891088	24992
465	403.939722	152584192	138555392	43264408	24992
466	406.305696	153124864	138555392	38324696	24992
467	365.692996	148434944	109719552	29389992	24992
468	350.504266	148434944	109719552	26433504	24992
469	356.992831	148434944	109719552	24136240	24992
470	362.203165	148434944	109719552	22501984	24992
471	364.522912	148434944	109719552	21143184	24992
472	367.679905	148434944	109719552	20159568	24992
473	372.351803	148434944	109719552	19837360	24992
474	372.977086	148434944	109719552	36676992	24992
475	384.484688	148434944	109719552	21198832	24992
476	382.3061	148434944	109719552	22891824	24992
477	386.753355	148434944	109719552	25215928	24992
478	388.258728	148434944	109719552	28204040	24992
479	390.253337	148434944	109719552	31857568	24992
480	393.824261	148434944	109719552	36179848	24992
481	396.616654	148434944	109719552	41141896	24992
482	404.82622	148434944	109719552	30274208	24992
483	403.683948	148434944	109719552	36568784	24992
484	407.012486	148434944	109719552	43538312	24992
485	412.544364	148434944	109719552	34646336	24992
486	413.374416	148434944	109719552	42938384	24992
487	418.54863	148434944	109719552	35373648	24992
488	418.940739	148434944	109719552	44976248	24992
489	426.218083	148434944	109719552	38734752	24992
490	424.301947	148434944	109719552	49672976	24992
491	432.68504	148434944	109719552	44774992	24992
492	435.915868	148434944	109719552	40541656	24992
493	439.108474	148434944	109719552	36970304	24992
494	439.769924	148434944	109719552	50547864	24992
495	394.076766	145555456	106573824	13960384	24992
496	369.821615	145555456	106573824	29552448	24992
497	378.623357	145555456	106573824	29329128	24992
498	382.324512	145555456	106573824	29763536	24992
499	387.103489	145555456	106573824	30415832	24992
500	389.936558	145555456	106573824	31452792	24992
x	Duration	RSS	HeapTotal	HeapUsed	External
0	NA	131051520	92418048	12278624	24992
1	0.988829	131051520	92418048	12959112	24992
2	1.530509	131051520	92418048	14297472	24992
3	2.287484	131051520	92418048	16295208	24992
4	2.938163	131051520	92418048	18952448	24992
5	3.708397	131051520	92418048	22269776	24992
6	4.437179	131051520	92418048	26246624	24992
7	6.054967	131051520	92418048	14417280	24992
8	6.035067	131051520	92418048	19713224	24992
9	6.528769	131051520	92418048	25669688	24992
10	7.51763	131051520	92418048	15826544	24992
11	8.213345	131051520	92418048	23102200	24992
12	10.453959	131051520	92418048	14584136	24992
13	9.423018	131051520	92418048	23178784	24992
14	10.661123	131051520	92418048	15965272	24992
15	11.064273	131051520	92418048	25879040	24992
16	12.347723	131051520	92418048	19993024	24992
17	12.789824	131051520	92418048	14759552	24992
18	13.235209	131051520	92418048	26653856	24992
19	14.4053	131051520	92418048	22742440	24992
20	15.611735	131051520	92418048	19495976	24992
21	15.704589	131051520	92418048	16898056	24992
22	16.951273	131051520	92418048	14963552	24992
23	17.459434	131051520	92418048	13689752	24992
24	17.931834	131051520	92418048	13074136	24992
25	18.517522	131051520	92418048	13119072	24992
26	19.76756	131051520	92418048	13824496	24992
27	20.231559	131051520	92418048	15190376	24992
28	20.743828	131051520	92418048	17216760	24992
29	21.418061	131051520	92418048	19903560	24992
30	22.380275	131051520	92418048	23250000	24992
31	23.002277	131051520	92418048	27256696	24992
32	24.246759	131051520	92418048	15459408	24992
33	24.531265	131051520	92418048	20788736	24992
34	25.364944	131051520	92418048	26785024	24992
35	26.924759	131051520	92418048	16983176	24992
36	27.422241	131051520	92418048	24296616	24992
37	27.529849	131051520	92418048	15814224	24992
38	28.001783	131051520	92418048	24446336	24992
39	29.04714	131051520	92418048	17284496	24992
40	29.238671	131051520	92418048	27237200	24992
41	30.911294	131051520	92418048	21396864	24992
42	31.542559	131051520	92418048	16215176	24992
43	31.732198	131051520	92418048	28148672	24992
44	32.974439	131051520	92418048	24290184	24992
45	33.254655	131051520	92418048	21093304	24992
46	34.071301	131051520	92418048	18552000	24992
47	34.992167	131051520	92418048	16671720	24992
48	35.767321	131051520	92418048	15452728	24992
49	36.408403	131051520	92418048	14894568	24992
50	37.071497	131051520	92418048	14998176	24992
51	37.464577	131051520	92418048	15763032	24992
52	38.478136	131051520	92418048	17189096	24992
53	39.010052	131051520	92418048	19276168	24992
54	39.867306	131051520	92418048	22025432	24992
55	40.768268	131051520	92418048	25435584	24992
56	42.435339	131051520	92418048	29502256	24992
57	42.390352	131051520	92418048	17738208	24992
58	42.915984	131051520	92418048	23127656	24992
59	44.297955	131051520	92418048	29186312	24992
60	43.930319	131051520	92418048	19449192	24992
61	45.346623	131051520	92418048	26866664	24992
62	45.828434	131051520	92418048	18454136	24992
63	46.117813	131051520	92418048	27193384	24992
64	47.262207	131051520	92418048	20100816	24992
65	47.639743	131051520	92418048	30171008	24992
66	49.486832	131051520	92418048	24419176	24992
67	51.397592	131051520	92418048	19331720	24992
68	50.62404	131051520	92418048	31382896	24992
69	51.215832	131051520	92418048	27617032	24992
70	51.922379	131051520	92418048	24512216	24992
71	52.940286	131051520	92418048	22070920	24992
72	53.598304	131051520	92418048	20280048	24992
73	54.609077	131051520	92418048	19158872	24992
74	55.022554	131051520	92418048	18699064	24992
75	56.143666	131051520	92418048	18900904	24992
76	56.760066	131051520	92418048	19764272	24992
77	57.469794	131051520	92418048	21289336	24992
78	58.707542	131051520	92418048	23475736	24992
79	59.118288	131051520	92418048	26321672	24992
80	60.033486	131051520	92418048	29824168	24992
81	62.342387	131051520	92418048	17497176	24992
82	61.910388	131051520	92418048	22331504	24992
83	62.311541	131051520	92418048	27827088	24992
84	63.169046	131051520	92418048	33983592	24992
85	64.379149	131051520	92418048	24301024	24992
86	64.913537	131051520	92418048	31779344	24992
87	65.761413	131051520	92418048	23424504	24992
88	67.583895	131051520	92418048	32237272	24992
89	67.782451	131051520	92418048	25209248	24992
90	67.784646	131051520	92418048	35334128	24992
91	71.526391	131051520	92418048	29643216	24992
92	70.793542	131051520	92418048	24597336	24992
93	71.187471	131051520	92418048	20217304	24992
94	70.715163	131051520	92418048	32983640	24992
95	72.457263	131051520	92418048	29925816	24992
96	72.931574	131051520	92418048	27523360	24992
97	74.054833	131051520	92418048	25776576	24992
98	75.754845	131051520	92418048	24701392	24992
99	75.618455	131051520	92418048	24288208	24992
100	76.744331	131051520	92418048	24536984	24992
101	77.143919	131051520	92418048	25447536	24992
102	78.137233	131051520	92418048	27019152	24992
103	79.081948	131051520	92418048	29246664	24992
104	79.950716	131051520	92418048	32130544	24992
105	80.521593	131051520	92418048	35681352	24992
106	83.001245	131051520	92418048	23413368	24992
107	81.907071	131051520	92418048	28293384	24992
108	83.263414	131051520	92418048	33829016	24992
109	85.273598	131051520	92418048	23538416	24992
110	84.731429	131051520	92418048	30403088	24992
111	85.59189	131051520	92418048	37918240	24992
112	88.309306	131051520	92418048	29613304	24992
113	87.048912	131051520	92418048	38451600	24992
114	89.384903	131051520	92418048	31470928	24992
115	90.919454	131051520	92418048	25138848	24992
116	89.631884	131051520	92418048	35974344	24992
117	93.684291	131051520	92418048	30977776	24992
118	93.000569	131051520	92418048	26630240	24992
119	92.156572	131051520	92418048	39450640	24992
120	95.547645	131051520	92418048	36447312	24992
121	95.215644	131051520	92418048	34097304	24992
122	99.804312	131051520	92418048	32405496	24992
123	97.436204	131051520	92418048	31366936	24992
124	97.924028	131051520	92418048	30994280	24992
125	98.951419	131051520	92418048	31288656	24992
126	99.618023	131051520	92418048	32244544	24992
127	100.875438	131051520	92418048	33851184	24992
128	101.927912	131051520	92418048	36120088	24992
129	102.152977	131051520	92418048	39071728	24992
130	103.777164	131051520	92418048	42690752	24992
131	106.369752	131051520	92418048	30476608	24992
132	105.85206	131051520	92418048	35417800	24992
133	106.35981	131051520	92418048	41009152	24992
134	109.044903	131051520	92418048	30781632	24992
135	107.650433	131051520	92418048	37707328	24992
136	110.714468	131051520	92418048	28788072	24992
137	109.917076	131051520	92418048	37036736	24992
138	112.909319	131321856	92942336	29441072	24992
139	111.478976	131321856	92942336	39012928	24992
140	114.918747	131592192	93466624	32746768	24992
141	115.986374	131862528	93466624	43642200	24992
142	116.172605	131862528	93466624	38710592	24992
143	116.878636	132132864	93990912	34422944	24992
144	118.064927	132403200	93990912	30807432	24992
145	116.601868	132403200	93990912	44349040	24992
146	120.390421	132673536	94515200	42059696	24992
147	121.025031	132943872	94515200	40431632	24992
148	121.958489	132943872	94515200	39453096	24992
149	123.241013	133214208	95039488	39136272	24992
150	123.657368	133484544	95039488	39481264	24992
151	125.081984	133484544	95039488	40488016	24992
152	125.345193	133754880	95563776	42156088	24992
153	126.129381	134025216	95563776	44491960	24992
154	127.142218	134025216	95563776	47495752	24992
155	130.532654	134295552	96088064	34665544	24992
156	130.068746	134565888	96088064	38993632	24992
157	131.947558	134565888	96088064	43980200	24992
158	131.145225	134836224	96088064	49624208	24992
159	134.646115	134836224	96088064	39441792	24992
160	132.975404	134836224	96088064	46413464	24992
161	137.552712	134836224	96088064	37554528	24992
162	135.795602	134836224	96088064	45850224	24992
163	139.849951	134836224	96088064	38313792	24992
164	137.748812	134836224	96088064	47933336	24992
165	141.646586	134836224	96088064	41720144	24992
166	140.049438	134836224	96088064	52657416	24992
167	150.01296	131325952	92942336	27664936	24992
168	123.389135	131325952	92942336	23318944	24992
169	123.296615	131325952	92942336	19630720	24992
170	124.595573	131325952	92942336	16591320	24992
171	125.584249	131325952	92942336	14223328	24992
172	128.5168	131325952	92942336	29011376	24992
173	126.882775	131325952	92942336	27968384	24992
174	126.937771	131325952	92942336	27584232	24992
175	127.89745	131596288	96612352	27861680	24992
176	129.031816	131866624	100282368	28799904	24992
177	130.468985	131866624	103952384	30400592	24992
178	132.08782	132136960	103952384	16180680	24992
179	131.794341	132407296	103952384	19229776	24992
180	135.149777	132677632	103952384	22940208	24992
181	134.020215	132677632	103952384	27301344	24992
182	134.493201	132947968	103952384	32336552	24992
183	135.931272	133218304	103952384	21538560	24992
184	137.231398	133488640	103952384	27895296	24992
185	137.974792	133758976	103952384	18420480	24992
186	138.646304	134029312	103952384	26100776	24992
187	141.297717	134299648	103952384	34431312	24992
188	142.742164	134569984	103952384	26952616	24992
189	142.680562	134840320	103952384	20111368	24992
190	143.905035	135110656	103952384	30445784	24992
191	146.834024	135110656	103952384	24965656	24992
192	145.045654	135380992	103952384	36610376	24992
193	150.107547	135651328	103952384	32431056	24992
194	148.600128	135921664	103952384	28911488	24992
195	149.309394	136192000	103952384	26040848	24992
196	150.646834	136462336	103952384	23837264	24992
197	152.041184	136732672	103952384	22302040	24992
198	151.577901	137003008	103952384	37922488	24992
199	153.246	137273344	103952384	37708472	24992
200	155.913242	137543680	103952384	38159936	24992
201	159.964585	137814016	103952384	39273032	24992
202	157.994614	138084352	103952384	24548136	24992
203	157.853384	138354688	103952384	26981544	24992
204	160.154842	138354688	103952384	30076304	24992
205	160.037768	138625024	103952384	33821784	24992
206	161.35688	138895360	103952384	38235456	24992
207	166.704693	139165696	103952384	26829768	24992
208	164.392061	139436032	103952384	32580784	24992
209	165.238142	139706368	103952384	38973528	24992
210	168.875653	139976704	103952384	29545272	24992
211	167.018556	140247040	103952384	37272408	24992
212	169.764552	140517376	103952384	29167728	24992
213	169.336527	140787712	103952384	38218216	24992
214	172.016309	141058048	103952384	31436760	24992
215	170.959234	141058048	103952384	41809720	24992
216	174.774898	141328384	103952384	36350928	24992
217	175.039869	141598720	103952384	31542024	24992
218	175.083305	142139392	103952384	43900840	24992
219	181.400152	142409728	103952384	40428056	24992
220	178.900666	142409728	103952384	37616304	24992
221	179.428947	142409728	103952384	35453624	24992
222	182.705681	142409728	103952384	33957840	24992
223	182.959499	142409728	103952384	33129040	24992
224	183.933131	142409728	103952384	32962776	24992
225	184.789233	142409728	103952384	33458648	24992
226	185.873757	142409728	103952384	34615416	24992
227	187.541389	142409728	103952384	36433880	24992
228	188.133171	142409728	103952384	38913632	24992
229	189.795133	142409728	104476672	42055224	24992
230	190.94192	142680064	104476672	45847208	24992
231	192.740863	142950400	104476672	50313256	24992
232	196.333758	142950400	104476672	38947536	24992
233	195.938923	142950400	104476672	44735064	24992
234	196.531446	142950400	104476672	51180976	24992
235	203.957321	142950400	104476672	41799344	24992
236	198.999778	142950400	105000960	49560984	24992
237	199.210201	139792384	101330944	26850344	24992
238	176.416687	139792384	101330944	19787360	24992
239	177.354385	139792384	101330944	29868096	24992
240	184.702232	139792384	101330944	24127792	24992
241	182.360747	139792384	101330944	19052552	24992
242	183.082687	139792384	101330944	31128792	24992
243	186.954687	139792384	101330944	27379864	24992
244	190.077052	139792384	101330944	24226360	24992
245	191.84134	139792384	101330944	21448648	24992
246	190.138223	139792384	101330944	19337848	24992
247	190.257997	139792384	101330944	34389680	24992
248	195.385956	139792384	101330944	33607472	24992
249	194.428595	139792384	101330944	33489344	24992
250	196.8657	139792384	101330944	34033016	24992
251	198.518263	139792384	101330944	35238208	24992
252	201.651616	139792384	101330944	20616568	24992
253	203.237783	139792384	101330944	23143792	24992
254	204.1268	140058624	101330944	26356496	24992
255	203.820719	140058624	101330944	30194864	24992
256	204.922014	140058624	101330944	34707816	24992
257	208.198611	140058624	101330944	23416424	24992
258	210.556068	140058624	101330944	29280136	24992
259	209.373523	140058624	101330944	35794360	24992
260	213.492823	140058624	101330944	26487840	24992
261	212.087038	140058624	101330944	34336088	24992
262	216.205189	140058624	101330944	26353048	24992
263	215.954384	140058624	101330944	35525208	24992
264	219.099254	140058624	101330944	28867488	24992
265	217.911168	140058624	101330944	39361768	24992
266	222.142035	140058624	101330944	34025496	24992
267	225.185497	140058624	101330944	29346192	24992
268	223.24739	140058624	101330944	41826968	24992
269	228.139775	140058624	101330944	38475312	24992
270	227.661648	140058624	101330944	35784848	24992
271	230.072957	140058624	101330944	33743072	24992
272	231.298378	140058624	101330944	32368416	24992
273	233.513337	140058624	101330944	31661016	24992
274	234.35011	140058624	101330944	31616296	24992
275	235.903277	140058624	101330944	32233448	24992
276	237.873181	140058624	101330944	33512288	24992
277	238.629961	140058624	101330944	35452792	24992
278	241.7107	140058624	101330944	38054200	24992
279	242.49752	140058624	101330944	41306616	24992
280	243.488738	140058624	101330944	45220640	24992
281	244.82452	140058624	101330944	49809832	24992
282	252.873613	140058624	101330944	38565464	24992
283	248.441938	140058624	101330944	44474928	24992
284	251.890685	140058624	101330944	51048016	24992
285	255.939612	140058624	101330944	41785928	24992
286	243.191169	137056256	98185216	15335608	24992
287	210.752018	137056256	98185216	23687728	24992
288	212.474078	137056256	98185216	16208224	24992
289	211.051479	137056256	98185216	25882336	24992
290	212.708048	137056256	98185216	19723304	24992
291	213.464045	137056256	98185216	30708000	24992
292	213.607943	137056256	98185216	25875264	24992
293	215.653451	137056256	98185216	21710184	24992
294	216.265957	137056256	98185216	18392096	24992
295	222.431773	137056256	98185216	32241096	24992
296	219.887653	137056256	98185216	30258680	24992
297	220.651777	137056256	98185216	28938408	24992
298	222.894081	137056256	98185216	28282352	24992
299	225.303891	137056256	98185216	28292776	24992
300	226.509104	137056256	98185216	28973016	24992
301	227.660675	137056256	98185216	30315416	24992
302	229.387872	137056256	98185216	32303064	24992
303	229.441871	137056256	98185216	34952872	24992
304	232.01158	137056256	98185216	38264800	24992
305	236.027747	137056256	98185216	25755344	24992
306	235.712575	137056256	98185216	30383208	24992
307	236.818634	137056256	98185216	35673712	24992
308	239.733452	137056256	98185216	25136664	24992
309	240.124032	137056256	98185216	31755672	24992
310	243.480776	137056256	98185216	39024624	24992
311	245.202864	137056256	98185216	30482848	24992
312	247.412758	137056256	98185216	39086088	24992
313	247.821281	137056256	98185216	31858480	24992
314	249.130532	137056256	98185216	41774048	24992
315	251.174292	137056256	98185216	35869808	24992
316	252.288497	137056256	98185216	30625944	24992
317	251.657474	137056256	98185216	42536704	24992
318	255.495685	137056256	98185216	38616864	24992
319	257.246831	137056256	98185216	35358448	24992
320	264.319801	137056256	98185216	32748632	24992
321	259.807738	137056256	98185216	47307760	24992
322	265.884711	137056256	98185216	46031872	24992
323	264.085384	137056256	98185216	45420624	24992
324	266.428877	137056256	98185216	45470808	24992
325	266.858521	137056256	98185216	46181216	24992
326	271.627237	137056256	98185216	47556760	24992
327	270.809735	137056256	98185216	49591304	24992
328	274.715073	137056256	98185216	52287680	24992
329	277.914045	137056256	98185216	39148136	24992
330	276.827566	137056256	98185216	43165064	24992
331	266.456445	132337664	93466624	23129048	24992
332	245.226716	132337664	93466624	28960880	24992
333	249.040353	132337664	93466624	18933520	24992
334	251.00068	132337664	95039488	26078496	24992
335	256.749968	133148672	102903808	17404296	24992
336	256.415441	133689344	102903808	25618504	24992
337	261.97142	133959680	102903808	17773672	24992
338	260.354937	134500352	102903808	27084848	24992
339	269.909229	135041024	102903808	20564504	24992
340	265.182761	135581696	102903808	31198488	24992
341	271.883472	136122368	102903808	26002184	24992
342	271.62793	136663040	102903808	21457928	24992
343	275.293575	137203712	102903808	34093920	24992
344	274.832903	137744384	102903808	30895760	24992
345	277.525893	138285056	102903808	28345096	24992
346	280.975498	138555392	102903808	26443432	24992
347	280.011391	139096064	102903808	25203544	24992
348	280.513767	139636736	102903808	41131072	24992
349	284.958582	140177408	102903808	41227272	24992
350	286.610801	140718080	102903808	41982808	24992
351	290.767482	141258752	102903808	26905368	24992
352	294.685386	141529088	102903808	28985104	24992
353	294.241254	141799424	103428096	31735384	24992
354	295.092035	142340096	103952384	35127848	24992
355	299.380265	142610432	104476672	39187600	24992
356	298.645656	143151104	105000960	43915016	24992
357	304.353954	143691776	105525248	32809792	24992
358	303.378188	144232448	106049536	38853144	24992
359	305.129072	144773120	106573824	45565496	24992
360	310.620419	145313792	107098112	36458128	24992
361	309.442694	145854464	107622400	44481432	24992
362	315.243068	146395136	108146688	36684264	24992
363	317.80924	146935808	108670976	46030296	24992
364	318.92909	147476480	109195264	39556464	24992
365	318.320843	148017152	109719552	50225720	24992
366	324.982616	148557824	110243840	45073032	24992
367	325.354414	149098496	110768128	40583080	24992
368	303.795803	137641984	98709504	18799032	24992
369	273.830429	137641984	98709504	15358136	24992
370	272.9007	137641984	98709504	29148584	24992
371	273.479152	137641984	98709504	27848048	24992
372	276.019956	137641984	98709504	27190968	24992
373	278.588344	137641984	98709504	26962944	24992
374	280.375899	137641984	98709504	27105360	24992
375	283.733	137641984	98709504	27909216	24992
376	285.301212	137641984	98709504	29376096	24992
377	287.007135	137641984	98709504	31503376	24992
378	290.330205	137641984	98709504	34304088	24992
379	296.828161	137641984	98709504	21285424	24992
380	298.332448	137641984	98709504	25412640	24992
381	296.250356	137641984	98709504	30174232	24992
382	300.221298	137641984	98709504	35610200	24992
383	302.548426	137641984	98709504	25212856	24992
384	303.088351	137641984	98709504	31970400	24992
385	305.345163	137641984	98709504	39392784	24992
386	310.690052	137641984	98709504	30981184	24992
387	309.85112	137641984	98709504	39712800	24992
388	314.878574	137641984	98709504	32633944	24992
389	315.793561	137641984	98709504	42698128	24992
390	320.015939	137641984	98709504	36932528	24992
391	320.460835	137641984	98709504	31828032	24992
392	322.155249	137641984	98709504	43867608	24992
393	330.658811	137641984	98709504	40087488	24992
394	328.124727	137641984	98709504	36967680	24992
395	332.152538	137641984	98709504	34496992	24992
396	335.424003	137641984	98709504	49182456	24992
397	335.385576	137641984	98709504	48045376	24992
398	338.540796	137641984	99233792	47573040	24992
399	341.696171	137912320	99233792	47761728	24992
400	342.415699	137912320	99233792	48612792	24992
401	346.759437	137912320	99233792	50125232	24992
402	347.407576	137912320	99233792	52299920	24992
403	324.658425	136863744	98185216	19996176	24992
404	294.387085	136863744	98185216	23207856	24992
405	301.336934	136863744	98185216	27079136	24992
406	297.769954	136863744	98185216	15124816	24992
407	301.990117	136863744	98185216	21201056	24992
408	303.282066	136863744	98185216	27606080	24992
409	306.657135	136863744	98185216	17916512	24992
410	310.957912	136863744	98185216	25381320	24992
411	311.415439	136863744	98185216	33515448	24992
412	314.667768	136863744	98185216	25811040	24992
413	316.868357	136863744	98185216	35287808	24992
414	318.560815	136863744	98185216	28920472	24992
415	320.364317	136863744	98185216	23200936	24992
416	321.779917	136863744	98185216	34630872	24992
417	324.921638	136863744	98185216	30236608	24992
418	326.962893	136863744	98185216	26502128	24992
419	327.908784	136863744	98185216	39911472	24992
420	331.656383	136863744	98185216	37498168	24992
421	339.752357	136863744	98185216	35749392	24992
422	338.194184	136863744	98185216	34679336	24992
423	341.528022	136863744	98185216	34258592	24992
424	341.986503	136863744	98185216	34493416	24992
425	345.234633	136863744	98185216	35390256	24992
426	348.060427	136863744	98185216	36948592	24992
427	350.257337	136863744	98185216	39168736	24992
428	353.687755	137134080	98185216	42050328	24992
429	354.481532	137134080	98185216	45592848	24992
430	358.440448	137134080	98185216	49798112	24992
431	365.409146	137134080	98185216	38171760	24992
432	368.697583	137134080	98185216	43687448	24992
433	366.236692	137134080	98185216	49877424	24992
434	373.649747	137134080	98185216	40234496	24992
435	375.713175	137134080	98185216	47737104	24992
436	346.309902	137134080	98185216	20254048	24992
437	318.989016	137134080	98185216	28781872	24992
438	324.148625	137134080	98185216	21487736	24992
439	320.276538	137134080	98185216	31336672	24992
440	322.947448	137404416	98709504	25353400	24992
441	328.117322	137674752	98709504	20069952	24992
442	325.886139	137674752	98709504	32202408	24992
443	330.150711	137674752	98709504	28511920	24992
444	330.450816	137674752	98709504	25486920	24992
445	334.481595	137674752	98709504	23140536	24992
446	338.904475	137674752	98709504	21449192	24992
447	338.184823	137674752	98709504	36889736	24992
448	339.902903	137674752	98709504	36508320	24992
449	343.124894	137674752	98709504	36791032	24992
450	348.246887	137674752	99233792	37733368	24992
451	347.834	138215424	99758080	39337096	24992
452	351.041555	138756096	100282368	41604560	24992
453	357.585511	139026432	100282368	28098664	24992
454	359.305099	139026432	100282368	31700968	24992
455	359.016526	139026432	100282368	35970176	24992
456	362.303231	139026432	100282368	40907176	24992
457	366.461137	139026432	100282368	29987424	24992
458	378.428098	140345344	100282368	36240280	24992
459	369.328483	140345344	100282368	43163512	24992
460	373.975429	140345344	100282368	34227600	24992
461	374.593321	140345344	100282368	42460232	24992
462	379.125667	140345344	100282368	34872312	24992
463	379.936542	140345344	100282368	44428200	24992
464	385.440436	140345344	100282368	38142968	24992
465	385.898064	140345344	100282368	49022000	24992
466	391.331285	140345344	100282368	44058784	24992
467	394.427679	140345344	100282368	39779648	24992
468	365.351372	139296768	99233792	17585224	24992
469	346.624353	139296768	99233792	14623008	24992
470	350.429394	139296768	99233792	28816112	24992
471	354.147144	139296768	103952384	27161000	24992
472	356.10642	140091392	113913856	26164472	24992
473	361.834296	140902400	123875328	25856040	24992
474	362.860428	141443072	134361088	26208128	24992
475	364.898252	141983744	134361088	27224672	24992
476	368.039461	142524416	134361088	28900664	24992
477	373.309222	143065088	134361088	31270040	24992
478	373.545105	143605760	134361088	34245880	24992
479	377.711702	144416768	134361088	37881992	24992
480	380.333889	144957440	134361088	25707168	24992
481	386.647569	145498112	134361088	30679760	24992
482	384.282946	146038784	134361088	36325472	24992
483	393.704631	146579456	134361088	26123032	24992
484	392.131072	147120128	134361088	33085440	24992
485	393.582804	147660800	134361088	40725288	24992
486	400.60411	148201472	134361088	32498536	24992
487	402.856552	148742144	134361088	41439624	24992
488	403.010005	149553152	134361088	34536128	24992
489	405.593795	150093824	134361088	44806672	24992
490	414.403306	150634496	134361088	39226896	24992
491	414.392964	151175168	134361088	34331344	24992
492	413.463417	151715840	134361088	46579960	24992
493	418.607283	152256512	134361088	42984944	24992
494	423.31378	152797184	134361088	40077280	24992
495	425.201947	153337856	134361088	37822424	24992
496	426.873452	154148864	134361088	52718912	24992
497	397.045965	153157632	113913856	16567896	24992
498	363.669954	153427968	113913856	15915904	24992
499	370.642164	153427968	113913856	15924552	24992
500	369.165063	153427968	113913856	16594264	24992
