x	Duration	RSS	HeapTotal	HeapUsed	External
0	NA	144187392	109195264	27498840	24992
1	2.578298	144187392	109195264	28175776	24992
2	3.713005	144187392	109195264	29513680	24992
3	2.891766	144187392	109195264	31510824	24992
4	3.817866	144187392	109195264	34167376	24992
5	6.016183	144187392	109195264	21025520	24992
6	4.433307	144187392	109195264	25001408	24992
7	5.072418	144187392	109195264	29636680	24992
8	6.009813	144187392	109195264	34931360	24992
9	8.122057	144457728	109195264	24463816	24992
10	7.262093	144457728	109195264	31078264	24992
11	9.725707	144457728	109195264	21925408	24992
12	8.953587	144457728	109195264	29858664	24992
13	11.149281	144457728	109195264	22018680	24992
14	10.302329	144457728	109195264	31270752	24992
15	12.734671	144457728	109195264	24754336	24992
16	13.29149	144457728	109195264	18886112	24992
17	12.505532	144457728	109195264	30118256	24992
18	14.731002	144457728	109195264	25576632	24992
19	15.486375	144457728	109195264	21699216	24992
20	14.597362	144457728	109195264	34909944	24992
21	16.985876	144457728	109195264	32355888	24992
22	17.626648	144457728	109195264	30464880	24992
23	18.576201	144728064	109195264	29212280	24992
24	19.266634	144728064	109195264	28621640	24992
25	19.707502	144728064	109195264	28692584	24992
26	20.585602	144728064	109195264	29425088	24992
27	21.3929	144728064	109195264	30818840	24992
28	22.318304	144728064	109195264	32873944	24992
29	22.958535	144728064	109195264	35590392	24992
30	25.285916	144728064	109195264	22490088	24992
31	25.042294	144728064	109195264	26516400	24992
32	25.142296	144998400	109195264	31221272	24992
33	28.404375	144998400	109195264	20139624	24992
34	26.741592	144998400	109195264	26141056	24992
35	27.184703	144998400	109195264	32838296	24992
36	29.988342	144998400	109195264	23743680	24992
37	29.160547	144998400	109195264	31726808	24992
38	31.315022	145268736	109195264	23961904	24992
39	30.719348	145268736	109195264	33268672	24992
40	33.040247	145268736	109195264	26828888	24992
41	34.307032	145268736	109195264	21014136	24992
42	32.385367	145268736	109195264	32299808	24992
43	35.101368	145539072	109195264	27844816	24992
44	36.042843	145539072	109195264	24014864	24992
45	36.595462	145539072	109195264	20845376	24992
46	35.97226	145539072	109195264	34773224	24992
47	37.986184	145539072	109195264	32968064	24992
48	39.27438	145809408	109195264	31782832	24992
49	39.969145	145809408	109195264	31259968	24992
50	40.127076	145809408	109195264	31398680	24992
51	41.240224	145809408	109195264	32198328	24992
52	41.728527	146079744	109195264	33658064	24992
53	42.545046	146079744	109195264	35780312	24992
54	45.357189	146079744	109195264	22074824	24992
55	44.6884	146079744	109195264	25528880	24992
56	44.677874	146350080	109195264	29636536	24992
57	45.70726	146350080	109195264	34405360	24992
58	49.043574	146350080	109195264	23342416	24992
59	48.197492	146620416	109195264	29451240	24992
60	48.033954	146620416	109195264	36204864	24992
61	50.719137	146620416	109195264	27127016	24992
62	49.128669	146890752	109195264	35203976	24992
63	52.0698	146890752	109195264	27449064	24992
64	50.555908	146890752	109195264	36849072	24992
65	53.627211	147161088	109195264	30425664	24992
66	54.613645	147161088	109195264	24675928	24992
67	53.047674	147161088	109195264	36064984	24992
68	56.075959	147431424	109195264	31636528	24992
69	58.42829	147431424	109195264	27871720	24992
70	58.363743	147701760	109195264	24757736	24992
71	55.989329	147701760	109195264	38800472	24992
72	59.131493	147701760	109195264	37017808	24992
73	59.510883	147701760	109195264	35897464	24992
74	61.051269	147701760	109195264	35438824	24992
75	61.099045	147701760	109195264	35641880	24992
76	62.741085	147701760	109195264	36506432	24992
77	63.534529	147701760	109195264	38032632	24992
78	64.149056	147701760	109195264	40220424	24992
79	67.405592	147701760	109195264	26582344	24992
80	65.55212	147701760	109195264	30091952	24992
81	66.42459	147701760	109195264	34262680	24992
82	67.331	147701760	109195264	39092568	24992
83	70.32367	147701760	109195264	28087368	24992
84	68.494418	147701760	109195264	34248176	24992
85	69.638131	147701760	109195264	41063128	24992
86	72.670405	147701760	109195264	32043032	24992
87	70.92859	147701760	109195264	40182776	24992
88	74.262305	147701760	109195264	32488536	24992
89	72.466971	147701760	109195264	41951552	24992
90	76.053545	147701760	109195264	35580632	24992
91	77.143702	147701760	109195264	29870120	24992
92	75.382119	147701760	109195264	41313168	24992
93	78.349139	147701760	109195264	36930664	24992
94	79.675867	147701760	109195264	33207496	24992
95	80.270058	147701760	109195264	30144696	24992
96	81.092549	147701760	109195264	27746560	24992
97	79.316714	147701760	109195264	42498128	24992
98	83.0848	147701760	109195264	41423200	24992
99	84.16284	147701760	109195264	41011584	24992
100	84.527173	147701760	109195264	41261336	24992
101	86.294881	147701760	109195264	42181224	24992
102	86.803537	147701760	109195264	43755256	24992
103	92.328513	147701760	109195264	29501896	24992
104	88.108072	147701760	109195264	32396576	24992
105	89.512858	147701760	109195264	35953112	24992
106	89.608274	147701760	109195264	40159912	24992
107	90.486587	147701760	109195264	45033656	24992
108	94.179112	147701760	109195264	34089024	24992
109	93.901879	147701760	109195264	40291128	24992
110	96.207772	147701760	109195264	30661896	24992
111	93.779641	147701760	109195264	38187896	24992
112	94.600415	147701760	109195264	46364384	24992
113	98.524982	147701760	109195264	38717784	24992
114	100.936307	147972096	109719552	31723448	24992
115	97.444621	147972096	109719552	41896984	24992
116	101.74221	148242432	109719552	36238720	24992
117	102.643447	148512768	109719552	31240008	24992
118	99.574602	148512768	109719552	43398280	24992
119	104.038097	148783104	109719552	39724728	24992
120	106.00546	148783104	109719552	36700608	24992
121	106.417388	148783104	109719552	34348248	24992
122	107.247502	148783104	109719552	32658280	24992
123	104.28634	148783104	109719552	48124952	24992
124	111.172329	148783104	109719552	47759104	24992
125	109.364097	148783104	109719552	48054264	24992
126	109.891238	148783104	109719552	49012552	24992
127	114.804759	148783104	109719552	34135704	24992
128	112.152168	148783104	109719552	36415504	24992
129	113.786838	148783104	109719552	39372128	24992
130	113.914747	148783104	109719552	42983720	24992
131	114.58481	148783104	109719552	47251688	24992
132	119.604205	148783104	109719552	35698864	24992
133	118.852095	148783104	109719552	41301080	24992
134	117.319776	148783104	109719552	47553992	24992
135	122.137153	148783104	109719552	37986152	24992
136	120.413382	148783104	109719552	45573504	24992
137	124.493956	148783104	109719552	37322432	24992
138	120.898354	148783104	109719552	46232928	24992
139	126.372093	148783104	109719552	39314000	24992
140	123.062685	148783104	109719552	49547848	24992
141	127.731482	148783104	109719552	43949728	24992
142	128.873017	148783104	109719552	39005928	24992
143	125.407733	148783104	109719552	51224744	24992
144	139.85981	148783104	109719552	13517176	24992
145	110.224538	148783104	109719552	26978304	24992
146	107.742592	148783104	109719552	24592360	24992
147	108.800244	148783104	109719552	22869440	24992
148	109.713058	148783104	109719552	21801968	24992
149	110.664672	148783104	109719552	21377856	24992
150	110.463129	148783104	109719552	21614480	24992
151	111.231256	148783104	109719552	22512064	24992
152	111.816742	148783104	109719552	24070560	24992
153	112.318696	148783104	109719552	26295976	24992
154	113.572851	148783104	109719552	29189056	24992
155	114.315243	148783104	109719552	16249720	24992
156	115.640701	148783104	109719552	20473080	24992
157	116.125942	148783104	109719552	25455120	24992
158	117.257746	148783104	109719552	31105224	24992
159	117.928373	148783104	109719552	20920496	24992
160	118.470697	148783104	109719552	27892224	24992
161	119.597197	148783104	109719552	19032992	24992
162	122.438956	148783104	109719552	27328552	24992
163	122.135603	148783104	109719552	19791504	24992
164	122.769509	148783104	109719552	29410352	24992
165	124.05561	148783104	109719552	23197024	24992
166	125.497269	148783104	110243840	34142704	24992
167	127.876496	148180992	110243840	29331152	24992
168	128.505991	148451328	110768128	25110752	24992
169	129.209772	148721664	110768128	21530736	24992
170	129.730558	148992000	111292416	35126480	24992
171	132.013644	149528576	111292416	32911088	24992
172	131.115262	149798912	111816704	31329624	24992
173	131.848486	150069248	111816704	30409440	24992
174	133.665649	150339584	112340992	30150816	24992
175	134.352955	150609920	112340992	30547272	24992
176	135.270355	150880256	112865280	31605480	24992
177	135.721023	151150592	112865280	33331904	24992
178	138.248138	151420928	113389568	35720752	24992
179	137.71491	151691264	113389568	38770736	24992
180	140.355041	151961600	113913856	25985816	24992
181	142.0151	152231936	113913856	30357888	24992
182	141.347168	152502272	114438144	35380896	24992
183	143.500324	152772608	114438144	24582768	24992
184	143.569031	153042944	114962432	30939928	24992
185	144.398884	153313280	114962432	37947920	24992
186	146.712894	153583616	115486720	29134400	24992
187	146.685051	153853952	115486720	37476144	24992
188	149.217922	154124288	116011008	29986056	24992
189	149.917122	154394624	116011008	39659272	24992
190	151.843061	154664960	116535296	33493352	24992
191	153.732039	154935296	116535296	27976760	24992
192	152.75036	155205632	117059584	39627264	24992
193	155.069852	155475968	117059584	35446872	24992
194	156.049175	155746304	117583872	31914440	24992
195	157.163423	156016640	117583872	29054232	24992
196	157.127153	156286976	118108160	43351328	24992
197	159.074454	156557312	118108160	41817352	24992
198	160.387311	156827648	118632448	40943576	24992
199	161.998132	157097984	118632448	40731752	24992
200	162.645489	157368320	119156736	41181440	24992
201	164.863927	157638656	119156736	42292952	24992
202	164.694401	157908992	119681024	44065880	24992
203	165.624446	158179328	119681024	46501192	24992
204	169.500769	158449664	120205312	33102848	24992
205	168.399395	158720000	120205312	36859416	24992
206	169.46221	158990336	120729600	41266152	24992
207	171.321722	158990336	120729600	46347320	24992
208	174.203151	159260672	121253888	35593280	24992
209	172.821565	159531008	121253888	41995800	24992
210	174.012883	159801344	121778176	49056144	24992
211	178.034437	160071680	121778176	40289744	24992
212	175.74221	160342016	122302464	48667464	24992
213	180.667169	160612352	122302464	41227568	24992
214	178.223294	160882688	122826752	50928528	24992
215	182.900666	161153024	122826752	44805456	24992
216	183.985572	161423360	122826752	39347160	24992
217	181.727002	161423360	122826752	51043376	24992
218	186.35514	161423360	122826752	46909424	24992
219	186.95672	161423360	122826752	43436112	24992
220	189.063515	153112576	114438144	20507920	24992
221	163.797614	153112576	114438144	18187808	24992
222	163.921456	153112576	114438144	16527384	24992
223	165.790534	153112576	114438144	15538656	24992
224	165.237909	153112576	114438144	15212256	24992
225	165.735512	153112576	114438144	15547096	24992
226	166.175687	153112576	114438144	16542272	24992
227	169.186744	153112576	114438144	18198520	24992
228	168.57501	153112576	114438144	20516240	24992
229	169.592361	153112576	114438144	23501216	24992
230	174.08943	153112576	114438144	27293096	24992
231	171.141697	153112576	114438144	31759216	24992
232	172.309029	153112576	114438144	20391408	24992
233	173.314067	153112576	114438144	26179008	24992
234	174.757069	153112576	114438144	32629864	24992
235	176.569724	153112576	114438144	23248048	24992
236	178.43773	153112576	114438144	31012608	24992
237	178.84809	153112576	114438144	22952768	24992
238	181.809789	153112576	114438144	32051088	24992
239	183.505804	153112576	114438144	25344128	24992
240	182.360213	153112576	114438144	35752824	24992
241	184.721113	153382912	114962432	30340832	24992
242	184.979699	153653248	114962432	25590976	24992
243	185.597218	153653248	114962432	37985296	24992
244	189.982944	153653248	114962432	34560584	24992
245	189.708354	153653248	114962432	31795264	24992
246	195.916819	153653248	114962432	29692080	24992
247	192.757834	153653248	114962432	28238256	24992
248	193.675254	153653248	114962432	27445976	24992
249	196.012574	153653248	114962432	27325712	24992
250	196.513743	153653248	114962432	27867152	24992
251	197.68684	153653248	114962432	29070240	24992
252	200.114303	153653248	114962432	30938072	24992
253	201.232739	153653248	114962432	33463808	24992
254	202.157427	153653248	114962432	36640608	24992
255	202.8537	153653248	114962432	40491424	24992
256	205.752004	153653248	114962432	28509976	24992
257	206.251939	153653248	114962432	33712776	24992
258	207.264555	153653248	114962432	39565208	24992
259	209.84789	153653248	114962432	29597080	24992
260	210.149828	153653248	114962432	36784160	24992
261	211.050943	153653248	114962432	44621400	24992
262	213.924823	153653248	114962432	36637848	24992
263	213.193105	153653248	114962432	45798824	24992
264	217.639683	153653248	114962432	39138736	24992
265	218.237953	153653248	114962432	33133776	24992
266	218.708926	153653248	114962432	44290560	24992
267	221.334721	153653248	114962432	39615184	24992
268	226.019193	153653248	114962432	35589000	24992
269	221.845662	153653248	114962432	48730224	24992
270	227.724009	153653248	114962432	46043008	24992
271	226.545009	153653248	114962432	44015376	24992
272	228.189916	153653248	114962432	42647992	24992
273	230.915982	153653248	114962432	41929696	24992
274	231.976525	153653248	114962432	41875072	24992
275	233.36883	153653248	114962432	42481328	24992
276	228.941937	147963904	109195264	23408648	24992
277	203.614288	147963904	109195264	25153752	24992
278	204.522642	147963904	109195264	27558384	24992
279	207.281685	147963904	109195264	14131112	24992
280	207.642915	147963904	109195264	17856696	24992
281	207.231049	147963904	109195264	22237088	24992
282	207.552841	147963904	110768128	27280864	24992
283	209.549891	148234240	110768128	16520656	24992
284	209.994048	148504576	110768128	23092128	24992
285	210.80795	149045248	110768128	30314320	24992
286	213.288549	149315584	110768128	21716504	24992
287	214.371792	149585920	110768128	30261488	24992
288	216.062857	149585920	110768128	22985136	24992
289	218.8407	149585920	110768128	32865856	24992
290	220.5808	149585920	110768128	26922560	24992
291	224.674141	149585920	111292416	21660224	24992
292	221.966319	149856256	111292416	33525288	24992
293	224.04818	150126592	111292416	29557200	24992
294	225.041533	150126592	111292416	26251904	24992
295	226.566617	150126592	111292416	23595680	24992
296	227.858635	150126592	111292416	38107064	24992
297	230.665275	150126592	111292416	36786832	24992
298	231.640986	150126592	111292416	36129088	24992
299	232.600374	150126592	111292416	36132592	24992
300	236.361913	150126592	111292416	36796520	24992
301	237.028382	150126592	111292416	38121936	24992
302	240.359708	150126592	111292416	40119344	24992
303	241.790991	150126592	111292416	42777624	24992
304	243.443928	150126592	111816704	29591056	24992
305	243.157794	150396928	111816704	33561528	24992
306	244.350572	150667264	111816704	38183784	24992
307	245.581854	150667264	111816704	43480344	24992
308	251.024741	150667264	111816704	32944912	24992
309	249.1301	150667264	111816704	39557536	24992
310	252.365934	150667264	111816704	46839200	24992
311	254.54614	150667264	111816704	38285568	24992
312	254.131587	150667264	111816704	46883904	24992
313	257.857125	150667264	111816704	39654008	24992
314	258.374449	150667264	111816704	49575360	24992
315	261.206956	150667264	111816704	43671360	24992
316	262.665827	150667264	111816704	38427896	24992
317	261.612814	150667264	111816704	50327920	24992
318	266.608116	150667264	111816704	46407408	24992
319	267.25196	150667264	111816704	43148816	24992
320	270.032467	150667264	111816704	40545136	24992
321	272.444122	150667264	111816704	38598904	24992
322	263.162902	142802944	103952384	16992032	24992
323	238.177141	142802944	103952384	16138248	24992
324	238.610377	142802944	103952384	15949632	24992
325	239.510157	142802944	103952384	16427456	24992
326	241.625744	142802944	105000960	17566008	24992
327	239.623786	143073280	105000960	19361744	24992
328	241.908993	143343616	105000960	21822032	24992
329	242.642018	143613952	105000960	25166144	24992
330	244.937097	143613952	105000960	29184888	24992
331	246.128195	143613952	105000960	33865792	24992
332	251.582488	143613952	105000960	22716160	24992
333	253.412713	143613952	105000960	28710536	24992
334	251.073412	143613952	105000960	35376072	24992
335	256.741302	143884288	105525248	26245040	24992
336	254.572207	144424960	106049536	34221560	24992
337	257.376893	144695296	106573824	26377008	24992
338	260.452816	145235968	106573824	35677616	24992
339	260.831039	145506304	106573824	29160016	24992
340	261.96595	145506304	106573824	39790160	24992
341	264.790676	145506304	106573824	34592616	24992
342	267.322738	145506304	106573824	30057592	24992
343	269.966799	145506304	106573824	26171432	24992
344	269.108277	145506304	106573824	39452848	24992
345	273.681623	145506304	106573824	36922464	24992
346	274.626871	145506304	106573824	35033680	24992
347	276.809547	145506304	106573824	33806416	24992
348	278.181034	145506304	106573824	33227976	24992
349	282.102036	145506304	106573824	33311328	24992
350	281.327877	145506304	106573824	34056448	24992
351	283.37049	145506304	106573824	35463024	24992
352	285.63933	145506304	106573824	37531768	24992
353	287.020854	145506304	106573824	40268992	24992
354	288.784005	145506304	106573824	43672976	24992
355	290.727529	145506304	106573824	47739088	24992
356	296.898753	145506304	106573824	35971624	24992
357	295.064429	145506304	106573824	41353208	24992
358	297.395497	145506304	106573824	47406296	24992
359	302.502322	145506304	106573824	37624232	24992
360	301.15388	145506304	106573824	45003912	24992
361	304.507119	145506304	106573824	53039408	24992
362	308.281022	145506304	106573824	45241040	24992
363	288.952127	143409152	104476672	13907912	24992
364	272.586187	143409152	104476672	23927112	24992
365	270.730262	143409152	104476672	18114072	24992
366	273.867255	143409152	104476672	29445104	24992
367	277.036142	143409152	110243840	24956864	24992
368	278.565252	143949824	118108160	21128616	24992
369	281.416344	144760832	125972480	17949560	24992
370	283.668548	145571840	133312512	31938144	24992
371	286.261229	146112512	141176832	30094600	24992
372	287.079334	146653184	149041152	28915096	24992
373	294.803543	147193856	149041152	28407160	24992
374	292.992995	147734528	149041152	28582856	24992
375	293.695451	148275200	149041152	29387416	24992
376	294.809653	148815872	149041152	30853456	24992
377	299.176129	149356544	149041152	32981192	24992
378	300.025255	149897216	149041152	35769976	24992
379	300.548145	150167552	149041152	39221672	24992
380	304.934999	150708224	149041152	26836400	24992
381	305.776634	151248896	149041152	31598040	24992
382	308.086225	151789568	149041152	37033896	24992
383	309.702194	152330240	149041152	43140960	24992
384	314.608792	152870912	149041152	33416120	24992
385	313.050599	153411584	149041152	40831568	24992
386	320.15616	153681920	149041152	32419840	24992
387	317.179169	154222592	149041152	41151136	24992
388	323.102642	154763264	149041152	34062520	24992
389	322.219544	155033600	149041152	44117520	24992
390	325.650159	155574272	149041152	38352048	24992
391	330.192165	156114944	149041152	33247280	24992
392	328.003895	156655616	149041152	45297032	24992
393	333.051765	157196288	149041152	41516208	24992
394	335.857772	157466624	149041152	38396848	24992
395	337.554051	158007296	149041152	35925696	24992
396	336.797517	158547968	149041152	50624936	24992
397	344.675109	159088640	149041152	49490352	24992
398	345.653916	159629312	149041152	49016720	24992
399	322.580671	151625728	113389568	13851552	24992
400	296.059511	151625728	113389568	14455792	24992
401	298.862232	151625728	113389568	15700472	24992
402	294.949658	151625728	113389568	17581608	24992
403	296.967174	151625728	113389568	20118864	24992
404	298.063577	151625728	113389568	23363160	24992
405	300.597352	151625728	113389568	27522328	24992
406	301.12569	151625728	113389568	32341296	24992
407	305.219064	151625728	113389568	21325192	24992
408	307.888353	151896064	113389568	27467616	24992
409	309.768602	151896064	113389568	34282128	24992
410	313.272762	151896064	113389568	25271832	24992
411	313.352749	151896064	113389568	33388424	24992
412	315.964168	151896064	113389568	25684576	24992
413	319.463667	151896064	113389568	35124336	24992
414	321.023749	151896064	113389568	28743144	24992
415	322.215065	151896064	113389568	39511760	24992
416	325.848277	151896064	113389568	34452376	24992
417	329.148548	151896064	113389568	30065880	24992
418	330.693885	151896064	113389568	42824248	24992
419	335.39041	151896064	113389568	39753048	24992
420	335.220248	151896064	113389568	37340368	24992
421	340.059635	151896064	113389568	35590648	24992
422	341.48671	151896064	113389568	34502600	24992
423	341.917366	151896064	113389568	34063512	24992
424	346.053377	151896064	113389568	34285904	24992
425	348.717449	151896064	113389568	35170424	24992
426	351.619512	151896064	113389568	36716344	24992
427	352.075965	151896064	113389568	38923960	24992
428	356.112209	151896064	113389568	41799624	24992
429	360.022683	152166400	113389568	45345600	24992
430	358.900618	152166400	113389568	49549408	24992
431	365.406866	152166400	113389568	37920112	24992
432	365.144883	152166400	113389568	43443736	24992
433	343.398178	149544960	110768128	29500312	24992
434	322.107766	149544960	110768128	19607712	24992
435	322.254825	149544960	110768128	26826312	24992
436	319.623905	149544960	110768128	18198952	24992
437	321.237819	149544960	110768128	26714720	24992
438	322.728423	149544960	110768128	19467928	24992
439	324.720026	149544960	110768128	29615832	24992
440	327.76147	149544960	110768128	23941632	24992
441	331.359537	149544960	110768128	18941752	24992
442	332.868025	149544960	110768128	31102272	24992
443	338.096506	149544960	110768128	27429416	24992
444	340.321449	149544960	110768128	24403056	24992
445	340.942413	149544960	110768128	22025848	24992
446	342.175448	149544960	110768128	36815752	24992
447	347.317168	149544960	110768128	35775560	24992
448	347.395312	149544960	110768128	35396272	24992
449	349.958536	149544960	110768128	35678728	24992
450	353.06357	149544960	110768128	36632352	24992
451	357.849917	149544960	110768128	38248448	24992
452	358.574853	149544960	110768128	40515496	24992
453	363.933888	149815296	111292416	43462944	24992
454	367.77965	150355968	111816704	30555248	24992
455	366.507701	150896640	112340992	34818048	24992
456	369.614957	151437312	112865280	39748576	24992
457	372.284352	151707648	112865280	45347128	24992
458	377.50958	151707648	112865280	35086968	24992
459	376.862055	151707648	113389568	41996568	24992
460	381.822676	152248320	113389568	49580672	24992
461	388.092655	152248320	113389568	41332040	24992
462	385.444544	152248320	113389568	50238760	24992
463	391.358134	152248320	113389568	43288328	24992
464	391.398743	152248320	113389568	53518192	24992
465	367.391002	148578304	109719552	25563040	24992
466	348.247227	148578304	109719552	21276896	24992
467	351.340661	148578304	109719552	17652968	24992
468	358.161769	148578304	109719552	31174416	24992
469	363.196135	148578304	109719552	28559656	24992
470	366.049388	148578304	109719552	26241200	24992
471	369.203852	148578304	109719552	24608344	24992
472	372.629696	148578304	109719552	23636888	24992
473	377.209645	148578304	109719552	23318800	24992
474	381.280338	148848640	109719552	23683280	24992
475	381.853573	148848640	109719552	24684464	24992
476	385.735286	148848640	109719552	26347336	24992
477	388.206238	148848640	109719552	28671616	24992
478	392.055165	148848640	109719552	31663880	24992
479	394.928638	148848640	109719552	35323976	24992
480	397.289172	148848640	110243840	39645600	24992
481	406.395505	149389312	110243840	28122168	24992
482	404.999601	149389312	110243840	33760368	24992
483	407.736379	149389312	110243840	40067392	24992
484	410.837822	149389312	110243840	47013240	24992
485	416.827278	149389312	110243840	38143032	24992
486	417.318275	149389312	110243840	46434904	24992
487	425.757921	149389312	110243840	38877264	24992
488	423.39627	149389312	110243840	48492744	24992
489	431.550866	149389312	110243840	42250320	24992
490	434.560388	149389312	110243840	36693456	24992
491	433.927433	149389312	110243840	48281136	24992
492	440.411757	149389312	110243840	44022344	24992
493	390.913937	149389312	110243840	28569728	24992
494	368.392611	149389312	110243840	26350504	24992
495	376.157091	149389312	110243840	24796584	24992
496	381.132107	149389312	111292416	23905960	24992
497	384.91976	149929984	111292416	23257672	24992
498	390.559098	150470656	111292416	22994304	24992
499	394.680055	150470656	111292416	23386224	24992
500	397.286741	150470656	111292416	24444864	24992
