x	Duration	RSS	HeapTotal	HeapUsed	External
0	NA	134238208	95563776	12273632	24992
1	1.06791	134238208	95563776	12954160	24992
2	1.742394	134238208	95563776	14292528	24992
3	2.681109	134238208	95563776	16290328	24992
4	3.035599	134238208	95563776	18947568	24992
5	3.832615	134238208	95563776	22264896	24992
6	4.430356	134238208	95563776	26241744	24992
7	5.811508	134238208	95563776	14412160	24992
8	5.837011	134238208	95563776	19708104	24992
9	6.898647	134238208	95563776	25664568	24992
10	7.904461	134238208	95563776	15821464	24992
11	7.9831	134238208	95563776	23097056	24992
12	9.246282	134238208	95563776	14564688	24992
13	9.721496	134238208	95563776	23159336	24992
14	10.441915	134238208	95563776	15945520	24992
15	12.159864	134238208	95563776	25873192	24992
16	12.33087	134238208	95563776	19987176	24992
17	12.829902	134238208	95563776	14753672	24992
18	13.237628	134238208	95563776	26647944	24992
19	14.153924	134238208	95563776	22736496	24992
20	15.386229	134238208	95563776	19486152	24992
21	16.226789	134238208	95563776	16891264	24992
22	16.57567	134238208	95563776	14958264	24992
23	17.212262	134238208	95563776	13686032	24992
24	17.716936	134238208	95563776	13072048	24992
25	18.591098	134238208	95563776	13118632	24992
26	19.491594	134238208	95563776	13826024	24992
27	20.204466	134238208	95563776	15193712	24992
28	21.319295	134238208	95563776	17225848	24992
29	21.447105	134238208	95563776	19912696	24992
30	21.914651	134238208	95563776	23259120	24992
31	22.778129	134238208	95563776	27265800	24992
32	24.435788	134238208	95563776	15468464	24992
33	24.666054	134238208	95563776	20797920	24992
34	24.693069	134238208	95563776	26794336	24992
35	25.779755	134238208	95563776	16984272	24992
36	27.024079	134238208	95563776	24295928	24992
37	27.491341	134238208	95563776	15813520	24992
38	27.894363	134238208	95563776	24445680	24992
39	28.772159	134238208	95563776	17283856	24992
40	29.536556	134238208	95563776	27236672	24992
41	30.845403	134238208	95563776	21396336	24992
42	31.101854	134238208	95563776	16214728	24992
43	31.73588	134238208	95563776	28148352	24992
44	32.779364	134238208	95563776	24290088	24992
45	33.178625	134238208	95563776	21093192	24992
46	33.98079	134238208	95563776	18551856	24992
47	34.677221	134238208	95563776	16671624	24992
48	35.109616	134238208	95563776	15452680	24992
49	36.267365	134238208	95563776	14894472	24992
50	37.172301	134238208	95563776	14999560	24992
51	37.440155	134238208	95563776	15760512	24992
52	38.467573	134238208	95563776	17182320	24992
53	38.845235	134238208	95563776	19265088	24992
54	39.901002	134238208	95563776	22010112	24992
55	40.575326	134238208	95563776	25414280	24992
56	40.875844	134238208	95563776	29478360	24992
57	41.808092	134238208	95563776	17712488	24992
58	42.665533	134238208	95563776	23099952	24992
59	43.155557	134238208	95563776	29147864	24992
60	44.902383	134238208	95563776	19372224	24992
61	44.695066	134238208	95563776	26787128	24992
62	45.65374	134238208	95563776	18371488	24992
63	46.824282	134238208	95563776	27110184	24992
64	47.683862	134238208	95563776	20017448	24992
65	47.887887	134238208	95563776	30087264	24992
66	49.239212	134238208	95563776	24335088	24992
67	49.403232	134238208	95563776	19246968	24992
68	49.928928	134238208	95563776	31297752	24992
69	50.950915	134238208	95563776	27532152	24992
70	51.799218	134238208	95563776	24426896	24992
71	53.00091	134238208	95563776	21985176	24992
72	53.24491	134238208	95563776	20193880	24992
73	53.860847	134238208	95563776	19072360	24992
74	55.005162	134238208	95563776	18612080	24992
75	56.901031	134238208	95563776	18813432	24992
76	57.257162	134238208	95563776	19676424	24992
77	56.994458	134238208	95563776	21201144	24992
78	57.913606	134238208	95563776	23387104	24992
79	58.457437	134238208	95563776	26232584	24992
80	59.424077	134238208	95563776	29734672	24992
81	59.795049	134238208	95563776	33892592	24992
82	61.791153	134238208	95563776	22238800	24992
83	61.836845	134238208	95563776	27733896	24992
84	62.789709	134238208	95563776	33890344	24992
85	65.211613	134238208	95563776	24212064	24992
86	64.656963	134238208	95563776	31691800	24992
87	65.608319	134238208	95563776	23340080	24992
88	65.509456	134238208	95563776	32142960	24992
89	68.206374	134238208	95563776	25131592	24992
90	67.570145	134238208	95563776	35255952	24992
91	69.548862	134238208	95563776	29555944	24992
92	70.746701	134238208	95563776	24517616	24992
93	70.197916	134238208	95563776	20137520	24992
94	70.879214	134238208	95563776	32903712	24992
95	72.480105	134238208	95563776	29845408	24992
96	72.445138	134238208	95563776	27443400	24992
97	73.971697	134238208	95563776	25696552	24992
98	76.319387	134238208	95563776	24621336	24992
99	75.280098	134238208	95563776	24208120	24992
100	77.24984	134238208	95563776	24456960	24992
101	77.263855	134238208	95563776	25367256	24992
102	77.722574	134238208	95563776	26938872	24992
103	78.303197	134238208	95563776	29166352	24992
104	79.399153	134238208	95563776	32050360	24992
105	79.976631	134238208	95563776	35601120	24992
106	82.439588	134238208	95563776	23333088	24992
107	81.621443	134238208	95563776	28212880	24992
108	83.352977	134238208	95563776	33748432	24992
109	84.706799	134238208	95563776	23458184	24992
110	84.437885	134238208	95563776	30322856	24992
111	85.694116	134238208	95563776	37838088	24992
112	87.305434	134238208	95563776	29533200	24992
113	86.81291	134238208	95563776	38371688	24992
114	89.334153	134238208	95563776	31390792	24992
115	89.903599	134238208	95563776	25058936	24992
116	90.596349	134238208	95563776	35894368	24992
117	92.386813	134238208	95563776	30897960	24992
118	92.26711	134238208	95563776	26550408	24992
119	91.737304	134238208	95563776	39370920	24992
120	93.671992	134238208	95563776	36357376	24992
121	94.755453	134238208	95563776	34007544	24992
122	96.794176	134238208	95563776	32316696	24992
123	97.360767	134238208	95563776	31285888	24992
124	97.281416	134238208	95563776	30913344	24992
125	98.369351	134238208	95563776	31207432	24992
126	99.430429	134238208	95563776	32163288	24992
127	100.285002	134238208	95563776	33775344	24992
128	100.724632	134238208	95563776	36044072	24992
129	102.679195	134238208	95563776	38989208	24992
130	103.241196	134238208	95563776	42608328	24992
131	105.648288	134238208	96088064	30391528	24992
132	105.074031	134508544	96088064	35332544	24992
133	105.413813	134508544	96088064	40923864	24992
134	108.453383	134778880	96612352	30694344	24992
135	107.343015	135049216	96612352	37620168	24992
136	113.834467	135049216	96612352	28701024	24992
137	109.049376	135319552	96612352	36949864	24992
138	112.211008	135589888	97136640	29354280	24992
139	110.909704	135589888	97136640	38926200	24992
140	113.511103	135860224	97136640	32659896	24992
141	112.575626	135860224	97660928	43555280	24992
142	115.321447	136130560	97660928	38623944	24992
143	116.246228	136400896	98185216	34336312	24992
144	117.641215	136400896	98185216	30720720	24992
145	118.83966	136671232	98185216	44262344	24992
146	119.788736	136941568	98185216	41972936	24992
147	120.016895	136941568	98185216	40345480	24992
148	121.623199	136941568	98185216	39367088	24992
149	123.549081	136941568	98185216	39050328	24992
150	123.416294	136941568	98185216	39395496	24992
151	123.998598	136941568	98185216	40401928	24992
152	124.852732	136941568	98185216	42070064	24992
153	128.062598	136941568	98185216	44405856	24992
154	126.734695	136941568	98185216	47409984	24992
155	130.638465	136941568	98185216	34579760	24992
156	129.362393	136941568	98185216	38907912	24992
157	129.873545	136941568	98185216	43894688	24992
158	130.146375	136941568	98185216	49538568	24992
159	134.714175	136941568	98185216	39356472	24992
160	132.156272	136941568	98185216	46328352	24992
161	136.662775	136941568	98185216	37469448	24992
162	134.113256	136941568	98185216	45765256	24992
163	138.244466	136941568	98185216	38228952	24992
164	136.0997	136941568	98185216	47848096	24992
165	140.718071	136941568	98185216	41635240	24992
166	137.989948	136941568	98185216	52571744	24992
167	149.770683	134467584	96088064	26480880	24992
168	122.984216	134467584	96088064	22140712	24992
169	124.486197	134467584	96088064	18470848	24992
170	124.625556	134467584	96088064	15447376	24992
171	125.282659	134467584	96088064	29587120	24992
172	126.217398	134467584	96088064	27886448	24992
173	125.294362	134467584	96088064	26842816	24992
174	126.504611	134467584	96088064	26459336	24992
175	127.566979	134467584	96088064	26736544	24992
176	127.886947	134467584	96088064	27675168	24992
177	128.389867	134467584	96088064	29274288	24992
178	130.250949	134467584	96088064	31546480	24992
179	131.814254	134467584	96088064	18100376	24992
180	134.25114	134467584	96088064	21811320	24992
181	133.091332	134467584	96088064	26172440	24992
182	134.248062	134467584	96088064	31207888	24992
183	135.615145	134467584	96088064	20409688	24992
184	136.18187	134467584	96088064	26766552	24992
185	136.532039	134467584	96088064	33780320	24992
186	140.384309	134467584	96088064	24965256	24992
187	140.282136	134467584	96088064	33296664	24992
188	142.287755	134467584	96088064	25816304	24992
189	141.077591	134467584	96088064	35470096	24992
190	143.795995	134467584	96088064	29308464	24992
191	145.995162	134467584	96088064	23828416	24992
192	144.902381	134467584	96088064	35478520	24992
193	146.552768	134467584	96088064	31299360	24992
194	148.433725	134467584	96088064	27779696	24992
195	147.801223	134467584	96088064	24909600	24992
196	149.226963	134467584	96088064	22714376	24992
197	149.817864	134467584	96088064	37673360	24992
198	151.303922	134467584	96088064	36800128	24992
199	153.125721	134467584	96088064	36588912	24992
200	153.441115	134467584	96088064	37037416	24992
201	154.591485	134467584	96088064	38147248	24992
202	155.63057	134467584	96088064	39919440	24992
203	158.331686	134467584	96088064	25857904	24992
204	160.413949	134467584	96088064	28953016	24992
205	158.940915	134467584	96088064	32704120	24992
206	160.217902	134467584	96088064	37111224	24992
207	162.240536	134467584	96088064	42201376	24992
208	164.182357	134467584	96088064	31449432	24992
209	249.248981	134467584	96612352	37852288	24992
210	278.882329	134737920	96612352	28424272	24992
211	170.186353	135008256	97136640	36151952	24992
212	168.616525	135278592	97136640	28040848	24992
213	168.270428	135548928	97660928	37091336	24992
214	171.414749	135819264	97660928	30309752	24992
215	170.162614	136089600	97660928	40683496	24992
216	173.156937	136089600	97660928	35225264	24992
217	174.296694	136089600	97660928	30416008	24992
218	174.758997	136089600	97660928	42774536	24992
219	176.51922	136089600	97660928	39300680	24992
220	182.11734	136089600	97660928	36488752	24992
221	180.056669	136089600	97660928	34326152	24992
222	180.207516	136089600	97660928	32835608	24992
223	180.99998	136089600	97660928	48502376	24992
224	182.394923	136089600	97660928	48336896	24992
225	183.539536	136089600	97660928	48831984	24992
226	188.954936	136089600	98185216	33493552	24992
227	186.673404	136359936	98185216	35312000	24992
228	187.702888	136630272	98185216	37792136	24992
229	189.72366	136630272	98185216	40944656	24992
230	189.904939	136630272	98185216	44736768	24992
231	191.325061	136630272	98185216	49203168	24992
232	194.984969	136630272	98185216	37836536	24992
233	194.242242	136630272	98185216	43624256	24992
234	196.90325	136630272	98185216	50063920	24992
235	199.534527	136630272	98185216	40681552	24992
236	197.617957	136630272	98185216	48453784	24992
237	198.297558	131911680	93466624	27177032	24992
238	173.894583	131911680	93466624	19781568	24992
239	175.762392	131911680	93466624	29527944	24992
240	177.284657	131911680	93466624	23450792	24992
241	178.52701	131911680	93466624	18038136	24992
242	179.693592	132182016	97660928	29780752	24992
243	187.371332	132722688	102903808	25693384	24992
244	182.283263	132993024	108146688	22266472	24992
245	184.564999	133533696	113389568	19488696	24992
246	185.637855	133804032	118632448	17383056	24992
247	188.679229	134074368	123351040	32434856	24992
248	188.995435	134615040	128593920	31655208	24992
249	189.362771	134885376	133836800	31537704	24992
250	191.292178	135426048	139079680	32082064	24992
251	192.639112	135696384	144322560	33287800	24992
252	194.977629	136237056	144322560	35158232	24992
253	196.352972	136507392	144322560	21188968	24992
254	198.785676	136777728	144322560	24410200	24992
255	198.55556	137048064	144322560	28254304	24992
256	198.339851	137318400	144322560	32754968	24992
257	199.521952	137588736	144322560	37959432	24992
258	203.051781	137859072	144322560	27328104	24992
259	202.00166	138129408	144322560	33842248	24992
260	207.601442	138670080	144322560	24535744	24992
261	204.986686	138940416	144322560	32384584	24992
262	208.015499	139210752	144322560	24403112	24992
263	208.207708	139751424	144322560	33575224	24992
264	211.16195	140021760	144322560	26915360	24992
265	210.982902	140292096	144322560	37409880	24992
266	213.686806	140832768	144322560	32073576	24992
267	217.032048	141103104	144322560	27394688	24992
268	215.258438	141373440	144322560	39885080	24992
269	218.341363	141914112	144322560	36531456	24992
270	219.993221	142184448	144322560	33840784	24992
271	335.042691	142454784	144322560	31799600	24992
272	315.602665	142725120	144322560	30430248	24992
273	221.047854	143265792	144322560	46218032	24992
274	225.336134	143536128	144322560	46175232	24992
275	228.538037	143806464	144322560	46791568	24992
276	230.370909	144347136	144322560	31574872	24992
277	229.250964	144617472	144322560	33515680	24992
278	231.076574	144887808	144322560	36117664	24992
279	232.138042	145428480	144322560	39375416	24992
280	233.824371	145698816	144322560	43289488	24992
281	235.129111	145969152	144322560	47877512	24992
282	241.833479	146239488	144322560	36632472	24992
283	237.625411	146780160	144322560	42541928	24992
284	242.254323	147050496	144322560	49111288	24992
285	243.832875	147320832	144322560	39851744	24992
286	242.73548	147591168	144322560	47735312	24992
287	246.936043	148131840	144322560	39798288	24992
288	240.122655	135892992	100806656	29185376	24992
289	211.857802	135892992	100806656	22368336	24992
290	211.485095	135892992	100806656	16209656	24992
291	211.893133	135892992	100806656	27204960	24992
292	212.615518	135892992	100806656	22369728	24992
293	213.483778	135892992	100806656	18198032	24992
294	214.783356	135892992	100806656	31172248	24992
295	216.219501	136163328	100806656	28330320	24992
296	215.67897	136433664	100806656	26348544	24992
297	219.917178	136704000	100806656	25027776	24992
298	219.209255	136974336	100806656	24368712	24992
299	220.93059	137244672	100806656	24358560	24992
300	224.275033	137244672	100806656	25013152	24992
301	225.981618	137244672	100806656	26334256	24992
302	228.577258	137515008	100806656	28331488	24992
303	228.43597	137515008	100806656	30997208	24992
304	231.219838	137515008	100806656	34308112	24992
305	304.368722	137515008	100806656	21785336	24992
306	380.988044	137515008	100806656	26418760	24992
307	235.354856	137515008	100806656	31703160	24992
308	235.349382	137515008	100806656	37661744	24992
309	240.865875	137515008	100806656	27787752	24992
310	238.260951	137515008	100806656	35057160	24992
311	240.098224	137515008	100806656	26505912	24992
312	241.633112	137515008	100806656	35109216	24992
313	250.899911	137515008	100806656	27898592	24992
314	245.218833	137515008	100806656	37825840	24992
315	247.272119	137515008	100806656	31920288	24992
316	246.912392	137515008	100806656	43158840	24992
317	250.660732	137515008	100806656	38575920	24992
318	251.498004	137515008	100806656	34655248	24992
319	254.264943	137515008	100806656	31383984	24992
320	253.959228	137515008	100806656	45280184	24992
321	259.81534	137515008	100806656	43346080	24992
322	258.920399	137515008	100806656	42071568	24992
323	260.052817	137515008	100806656	41459408	24992
324	261.842182	137515008	100806656	41508760	24992
325	265.853931	137785344	100806656	42221024	24992
326	265.773877	138055680	100806656	43593808	24992
327	267.624551	138326016	100806656	45628336	24992
328	269.188685	138596352	100806656	48326120	24992
329	273.31031	138866688	100806656	51684128	24992
330	276.558184	139407360	101330944	39206176	24992
331	275.569787	139677696	101855232	43879880	24992
332	277.434537	140218368	101855232	49216952	24992
333	258.045044	135499776	97136640	20864408	24992
334	242.854112	135499776	97136640	27293040	24992
335	244.642929	135499776	97136640	17887384	24992
336	244.185328	135499776	97136640	25624424	24992
337	244.660511	135499776	99758080	17539416	24992
338	246.297143	135770112	106573824	26604600	24992
339	248.870769	136040448	106573824	19853496	24992
340	248.099717	136581120	106573824	30477144	24992
341	251.03498	136851456	106573824	25281224	24992
342	252.320546	137392128	106573824	20745536	24992
343	254.228883	137932800	106573824	33359136	24992
344	257.937841	138473472	106573824	30155792	24992
345	259.328271	139014144	106573824	27630336	24992
346	261.405557	139284480	106573824	25750008	24992
347	261.717115	139825152	106573824	24510824	24992
348	263.501836	140365824	106573824	23932784	24992
349	265.316742	140906496	106573824	24021488	24992
350	267.333449	141447168	106573824	24777568	24992
351	268.779298	141987840	106573824	26194256	24992
352	272.690892	142258176	106573824	28268240	24992
353	272.456935	142798848	106573824	30999312	24992
354	273.858869	143339520	106573824	34391232	24992
355	276.505566	143880192	106573824	38467208	24992
356	281.017459	144150528	106573824	43204928	24992
357	280.790468	144691200	106573824	32097240	24992
358	281.740402	144961536	106573824	38135496	24992
359	283.056756	144961536	106573824	44847736	24992
360	286.996021	144961536	106573824	35738640	24992
361	291.103746	144961536	106573824	43767696	24992
362	291.828995	144961536	106573824	35970832	24992
363	290.361073	144961536	106573824	45317056	24992
364	294.408634	144961536	106573824	38842952	24992
365	294.896565	144961536	106573824	49518712	24992
366	301.123285	144961536	106573824	44368568	24992
367	300.264823	144961536	106573824	39878136	24992
368	303.79675	144961536	106573824	36039712	24992
369	303.270048	144961536	106573824	49366120	24992
370	307.220722	144961536	106573824	46862696	24992
371	308.601227	144961536	106573824	45021000	24992
372	311.048991	144961536	106573824	43843040	24992
373	293.794863	133427200	95039488	19162432	24992
374	273.521896	133427200	95039488	19299168	24992
375	275.938305	133427200	95039488	20091096	24992
376	278.412649	133427200	95039488	21550256	24992
377	280.376832	133427200	100806656	23677664	24992
378	282.534062	133967872	108670976	26466616	24992
379	284.209226	134778880	116535296	29917088	24992
380	288.739689	135589888	124399616	34030448	24992
381	290.444082	136130560	132788224	22312816	24992
382	291.16282	136671232	132788224	27737808	24992
383	294.50793	137211904	132788224	33843344	24992
384	298.403941	137752576	132788224	24147416	24992
385	300.003284	138293248	132788224	31556824	24992
386	303.402132	138833920	132788224	23144104	24992
387	303.355994	139104256	132788224	31886584	24992
388	307.041875	139644928	132788224	24797440	24992
389	305.379508	140185600	132788224	34863096	24992
390	308.825457	140726272	132788224	29098576	24992
391	310.49979	141266944	132788224	40477192	24992
392	343.79537	141807616	132788224	36034816	24992
393	521.150989	142348288	132788224	32271632	24992
394	318.057865	142888960	132788224	29140144	24992
395	318.593419	143429632	132788224	43169384	24992
396	322.012256	143970304	132788224	41371248	24992
397	324.376759	144240640	132788224	40237272	24992
398	325.473774	144781312	132788224	39763480	24992
399	329.250961	145321984	132788224	39951560	24992
400	331.047579	145862656	132788224	40801376	24992
401	332.856208	146403328	132788224	42312696	24992
402	334.98048	146944000	132788224	44486584	24992
403	338.110931	147484672	132788224	47322760	24992
404	339.847283	148025344	132788224	50821120	24992
405	345.198051	148566016	132788224	38485968	24992
406	344.945002	148836352	132788224	43294232	24992
407	346.685053	149377024	132788224	48778032	24992
408	324.720334	135503872	97660928	18543568	24992
409	298.378039	135503872	97660928	25052984	24992
410	298.591788	135503872	97660928	15735072	24992
411	298.251668	135503872	97660928	23564544	24992
412	299.649226	135503872	97660928	15568904	24992
413	303.468346	135774208	97660928	24766040	24992
414	304.331794	135774208	97660928	18384304	24992
415	304.777051	135774208	97660928	29152032	24992
416	310.502474	135774208	97660928	24092864	24992
417	311.22092	135774208	97660928	19700320	24992
418	312.064924	135774208	97660928	32475160	24992
419	316.505115	136040448	97660928	29420528	24992
420	316.761306	136040448	97660928	27009768	24992
421	318.054105	136040448	97660928	25253896	24992
422	323.093013	136040448	97660928	24153656	24992
423	322.487736	136040448	97660928	40214656	24992
424	325.359821	136040448	97660928	40448024	24992
425	329.04183	136040448	97660928	41343024	24992
426	333.26574	136040448	97660928	26413704	24992
427	334.119483	136040448	97660928	28641048	24992
428	336.349373	136040448	97660928	31510080	24992
429	338.483291	136040448	97660928	35040744	24992
430	340.597329	136040448	97660928	39245400	24992
431	342.907759	136040448	97660928	44112232	24992
432	346.987881	136040448	97660928	33145808	24992
433	347.542155	136040448	97660928	39322664	24992
434	349.269931	136040448	97660928	46174568	24992
435	356.933078	136040448	97660928	37194536	24992
436	354.112933	136040448	97660928	45357584	24992
437	361.092082	136040448	97660928	37702760	24992
438	360.747772	136040448	97660928	47189224	24992
439	365.168823	136040448	97660928	40855464	24992
440	430.360509	136310784	97660928	51665856	24992
441	533.563177	135364608	96612352	29433528	24992
442	321.836074	135364608	96612352	24771024	24992
443	324.447313	135364608	96612352	20771768	24992
444	324.306053	135364608	96612352	17430600	24992
445	327.685969	135364608	96612352	31253696	24992
446	333.020415	135364608	96612352	29549296	24992
447	329.3381	135364608	96612352	28509072	24992
448	331.400569	135364608	96612352	28133112	24992
449	337.46141	135364608	96612352	28428624	24992
450	337.298992	135364608	96612352	29411912	24992
451	341.74079	135364608	96612352	31048880	24992
452	343.398299	135364608	96612352	33315720	24992
453	344.23845	135364608	96612352	36262072	24992
454	348.561194	135364608	96612352	23358072	24992
455	350.953909	135364608	96612352	27626640	24992
456	354.109876	135364608	96612352	32551720	24992
457	354.565769	135364608	96612352	38150960	24992
458	363.059066	135364608	96612352	27911592	24992
459	360.927994	135364608	96612352	34821928	24992
460	362.237336	135364608	96612352	42405584	24992
461	369.337538	135364608	96612352	34129544	24992
462	367.320888	135364608	96612352	43036584	24992
463	375.225582	135364608	96612352	36086152	24992
464	373.638082	135364608	96612352	46316272	24992
465	376.908581	135364608	96612352	40686424	24992
466	381.463777	135364608	96612352	35745560	24992
467	382.127417	135364608	96612352	47948888	24992
468	385.222254	135364608	96612352	44309688	24992
469	387.636982	135364608	96612352	41353696	24992
470	392.534078	135364608	96612352	39059408	24992
471	396.866325	135364608	96612352	37415760	24992
472	372.090137	134586368	95563776	15968712	24992
473	345.118739	134586368	95563776	15287928	24992
474	345.514893	134586368	95563776	15267392	24992
475	348.016683	134586368	99758080	15912976	24992
476	348.064859	134856704	99758080	17266696	24992
477	351.812291	135667712	99758080	19598896	24992
478	356.83534	136208384	99758080	22585360	24992
479	357.159517	136749056	99758080	26246336	24992
480	360.613307	137289728	99758080	30572200	24992
481	364.731253	137830400	99758080	35558440	24992
482	364.736261	138371072	99758080	24707800	24992
483	366.714264	138641408	99758080	31002648	24992
484	371.542921	138641408	99758080	37971184	24992
485	381.028202	138641408	99758080	29103272	24992
486	375.480145	138641408	99758080	37395208	24992
487	380.268233	138641408	99758080	29840160	24992
488	381.182844	138641408	99758080	39459520	24992
489	388.085335	138641408	99758080	33218888	24992
490	387.949263	138641408	99758080	44157448	24992
491	390.695414	138641408	99758080	39259816	24992
492	392.938487	138641408	99758080	35002304	24992
493	400.313131	138641408	99758080	31430936	24992
494	399.543717	138641408	99758080	45003032	24992
495	401.542753	138641408	99758080	42731560	24992
496	404.759128	138641408	99758080	41121008	24992
497	408.089083	138641408	99758080	40195976	24992
498	413.959554	138641408	99758080	39936040	24992
499	415.829842	138641408	99758080	40335896	24992
500	424.555133	138641408	99758080	41390104	24992
