x	Duration	RSS	HeapTotal	HeapUsed	External
0	NA	145833984	106573824	21583496	24992
1	2.587065	145833984	106573824	22260408	24992
2	3.36795	145833984	106573824	23598312	24992
3	2.199169	145833984	106573824	25595456	24992
4	2.949035	145833984	106573824	28252008	24992
5	3.857418	145833984	106573824	31568488	24992
6	4.536818	145833984	106573824	35544376	24992
7	5.877302	145833984	106573824	23739056	24992
8	5.96155	145833984	106573824	29033736	24992
9	6.448999	145833984	106573824	34988808	24992
10	8.132274	145833984	106573824	25197896	24992
11	8.202564	145833984	106573824	32471744	24992
12	9.509227	145833984	106573824	23975224	24992
13	9.553174	145833984	106573824	32567920	24992
14	11.105056	145833984	106573824	25387992	24992
15	10.978455	145833984	106573824	35299456	24992
16	12.521739	145833984	106573824	29446040	24992
17	13.06795	145833984	106573824	24242440	24992
18	13.958943	145833984	106573824	19683200	24992
19	13.851289	145833984	106573824	32234856	24992
20	16.489965	145833984	106573824	29035968	24992
21	16.260868	145833984	106573824	26483616	24992
22	16.888246	145833984	106573824	24570352	24992
23	17.860219	145833984	106573824	23319520	24992
24	18.545367	145833984	106573824	22730296	24992
25	19.254977	145833984	106573824	22802576	24992
26	20.321517	145833984	106573824	23536400	24992
27	21.368988	145833984	106573824	24931728	24992
28	21.465267	145833984	106573824	26988648	24992
29	22.003616	145833984	106573824	29706208	24992
30	22.895069	145833984	106573824	33085440	24992
31	24.498686	145833984	106573824	20668888	24992
32	24.830476	145833984	106573824	25342800	24992
33	25.232585	145833984	106573824	30715568	24992
34	25.95735	145833984	106573824	36749664	24992
35	27.398706	145833984	106573824	26950568	24992
36	27.448801	145833984	106573824	34307352	24992
37	28.890444	145833984	106573824	25876240	24992
38	28.643953	145833984	106573824	34519864	24992
39	30.942654	145833984	106573824	27418080	24992
40	30.954715	145833984	106573824	20942040	24992
41	31.065936	145833984	106573824	31567488	24992
42	33.137363	145833984	106573824	26451648	24992
43	33.47155	145833984	106573824	21957216	24992
44	33.34906	145833984	106573824	34564328	24992
45	35.47215	145833984	106573824	31436544	24992
46	36.158856	145833984	106573824	28930656	24992
47	36.302621	145833984	106573824	27082400	24992
48	37.054402	145833984	106573824	25895496	24992
49	37.828467	145833984	106573824	25371264	24992
50	38.831265	145833984	106573824	25509152	24992
51	39.241397	145833984	106573824	26308928	24992
52	40.105917	145833984	106573824	27770472	24992
53	41.371984	145833984	106573824	29892816	24992
54	41.41937	145833984	106573824	32677008	24992
55	42.557573	145833984	106573824	36122624	24992
56	44.14332	145833984	106573824	23736904	24992
57	43.938462	145833984	106573824	28506160	24992
58	45.093954	145833984	106573824	33936576	24992
59	46.388388	145833984	106573824	23535568	24992
60	46.311818	145833984	106573824	30289656	24992
61	46.771998	145833984	106573824	37705136	24992
62	48.770629	145833984	106573824	29288432	24992
63	47.93191	145833984	106573824	38027008	24992
64	50.529218	145833984	106573824	30933736	24992
65	50.826403	145833984	106573824	24512432	24992
66	50.961216	145833984	106573824	35240096	24992
67	52.430567	145833984	106573824	30150448	24992
68	53.677407	145833984	106573824	25725912	24992
69	52.839025	145833984	106573824	38442136	24992
70	55.003067	145833984	106573824	35337592	24992
71	55.901631	145833984	106573824	32894456	24992
72	56.170197	145833984	106573824	31114864	24992
73	57.151755	145833984	106573824	29983944	24992
74	58.400616	145833984	106573824	29519968	24992
75	59.064676	145833984	106573824	29721344	24992
76	59.246858	145833984	106573824	30584280	24992
77	60.574129	145833984	106573824	32108736	24992
78	60.642689	145833984	106573824	34291376	24992
79	61.538178	145833984	106573824	37128592	24992
80	62.10448	145833984	106573824	40625480	24992
81	64.688506	145833984	106573824	28309024	24992
82	65.083037	145833984	106573824	33151944	24992
83	66.183372	145833984	106573824	38644776	24992
84	67.135647	145833984	106573824	28304672	24992
85	67.006321	145833984	106573824	35123736	24992
86	67.716134	145833984	106573824	42609912	24992
87	69.734949	145833984	106573824	34249432	24992
88	68.340125	145833984	106573824	43049280	24992
89	71.331149	145833984	106573824	36010184	24992
90	72.425045	145833984	106573824	29638376	24992
91	71.220244	145833984	106573824	40419608	24992
92	74.378629	145833984	106573824	35376096	24992
93	75.11097	145833984	106573824	30989064	24992
94	73.450914	145833984	106573824	43755320	24992
95	76.375749	145833984	106573824	40693464	24992
96	76.606214	145833984	106573824	38296592	24992
97	77.674465	145833984	106573824	36559216	24992
98	78.309315	145833984	106573824	35476808	24992
99	79.226406	145833984	106573824	35052280	24992
100	80.072271	145833984	106573824	35294840	24992
101	80.628758	145833984	106573824	36193408	24992
102	81.631831	145833984	106573824	37753840	24992
103	82.591423	145833984	106573824	39975984	24992
104	83.262512	145833984	106573824	42864856	24992
105	86.283855	145833984	106573824	29934832	24992
106	85.784284	145833984	106573824	34152608	24992
107	85.677723	145833984	106573824	39031904	24992
108	86.547109	145833984	106573824	44563768	24992
109	90.152175	145833984	106573824	34272496	24992
110	88.513725	145833984	106573824	41136640	24992
111	91.288613	145833984	106573824	32169024	24992
112	90.074277	145833984	106573824	40356680	24992
113	93.26213	145833984	106573824	32699776	24992
114	91.253907	145833984	106573824	42211456	24992
115	95.980715	145833984	106573824	35891360	24992
116	93.829053	145833984	106573824	46727056	24992
117	96.330889	145833984	106573824	41731152	24992
118	97.22943	145833984	106573824	37383328	24992
119	98.155091	145833984	106573824	33707872	24992
120	96.441163	145833984	106573824	47189720	24992
121	100.766097	145833984	106573824	44838960	24992
122	100.786349	145833984	107098112	43150208	24992
123	101.888962	145833984	107098112	42116808	24992
124	102.147521	146104320	107098112	41738688	24992
125	104.060641	146374656	107622400	42022328	24992
126	104.580363	146374656	107622400	42967736	24992
127	105.748177	146644992	107622400	44574456	24992
128	106.406056	146644992	107622400	46858240	24992
129	106.978168	146915328	108146688	49816144	24992
130	112.832325	146915328	108146688	36940720	24992
131	109.452189	147185664	108146688	41219984	24992
132	110.446663	147456000	108670976	46154896	24992
133	110.373355	147726336	108670976	51758856	24992
134	115.863047	147726336	108670976	41526472	24992
135	113.105374	147996672	109195264	48446272	24992
136	116.409103	147996672	109195264	39539864	24992
137	114.383049	148267008	109195264	47788896	24992
138	118.997135	148537344	109719552	40206800	24992
139	116.241532	148807680	109719552	49779040	24992
140	121.121853	148807680	110243840	43519224	24992
141	130.081163	139780096	100806656	17189704	24992
142	105.131376	139780096	100806656	28672976	24992
143	105.798239	139780096	100806656	24310552	24992
144	106.025301	139780096	100806656	20602536	24992
145	105.549549	139780096	100806656	17542792	24992
146	108.196041	139780096	100806656	15157192	24992
147	107.416982	139780096	100806656	29917856	24992
148	108.242482	139780096	100806656	28845328	24992
149	109.014402	139780096	100806656	28435248	24992
150	110.343385	139780096	100806656	28684896	24992
151	110.237049	139780096	100806656	29594456	24992
152	111.406527	139780096	100806656	31167336	24992
153	112.717586	139780096	100806656	16903424	24992
154	113.354266	139780096	100806656	19803912	24992
155	114.109179	139780096	100806656	23467264	24992
156	118.363493	139780096	100806656	27781760	24992
157	117.569085	139780096	100806656	32770368	24992
158	117.213124	139780096	100806656	21923960	24992
159	117.12157	139780096	100806656	28228424	24992
160	119.318898	139780096	100806656	18707720	24992
161	119.467533	139780096	100806656	26342120	24992
162	120.777584	139780096	100806656	18131664	24992
163	121.655445	139780096	100806656	27091264	24992
164	122.890528	140050432	100806656	20204152	24992
165	125.616299	140050432	100806656	30484600	24992
166	124.501232	140050432	100806656	24933200	24992
167	128.502876	139436032	100806656	20112984	24992
168	126.641287	139436032	100806656	32386824	24992
169	129.5141	139436032	100806656	28837240	24992
170	129.436758	139436032	100806656	25919848	24992
171	130.496157	139436032	100806656	23664232	24992
172	131.418792	139436032	100806656	22081024	24992
173	133.515167	139436032	100806656	37654872	24992
174	134.709271	139436032	100806656	37397640	24992
175	134.339139	139436032	100806656	37800616	24992
176	136.199599	139436032	100806656	22367616	24992
177	136.839406	139436032	100806656	24092760	24992
178	137.459059	139436032	100806656	26480264	24992
179	138.107159	139436032	100806656	29529176	24992
180	139.230781	139436032	100806656	33229104	24992
181	140.215562	139436032	100806656	37603272	24992
182	142.115964	139436032	101330944	26143496	24992
183	142.655324	139706368	101330944	31839496	24992
184	143.515874	139976704	101855232	38186016	24992
185	146.190518	140247040	101855232	28710952	24992
186	145.93332	140517376	102379520	36390920	24992
187	149.901186	140787712	102379520	28248560	24992
188	148.083132	141058048	102903808	37261912	24992
189	149.994007	141328384	102903808	30434512	24992
190	150.614813	141598720	103428096	40760720	24992
191	152.22302	141869056	103428096	35256560	24992
192	153.413674	142139392	103952384	30400840	24992
193	152.9004	142409728	103952384	42713296	24992
194	155.899983	142680064	104476672	39193984	24992
195	156.901474	142950400	104476672	36335728	24992
196	157.833817	143220736	105000960	34126712	24992
197	160.845734	143491072	105000960	32584616	24992
198	160.10002	143761408	105525248	31709512	24992
199	160.881119	144031744	105525248	31496520	24992
200	164.711035	144302080	106049536	31945168	24992
201	163.038315	144572416	106049536	33055096	24992
202	164.730154	144842752	106573824	34826712	24992
203	165.786799	145113088	106573824	37259160	24992
204	166.468054	145383424	107098112	40342704	24992
205	167.530278	145653760	107098112	44087624	24992
206	169.600035	145924096	107622400	48507208	24992
207	173.154972	145924096	107622400	37090520	24992
208	171.593038	146194432	108146688	42831680	24992
209	173.06446	146464768	108146688	49236152	24992
210	176.633936	146735104	108670976	39808440	24992
211	175.500246	147005440	108670976	47527352	24992
212	179.03356	147275776	109195264	39421936	24992
213	177.051867	147546112	109195264	48466528	24992
214	180.986667	147816448	109719552	41684496	24992
215	181.039566	148086784	109719552	52046816	24992
216	185.4147	148357120	110243840	46586952	24992
217	185.785657	148627456	110243840	41790320	24992
218	186.243669	144764928	106049536	16858328	24992
219	161.518821	144764928	106049536	13249448	24992
220	161.419711	144764928	106049536	26788624	24992
221	162.500458	144764928	106049536	24482528	24992
222	161.38984	144764928	106049536	22835048	24992
223	166.584593	144764928	106049536	21842168	24992
224	163.319965	144764928	106049536	21504120	24992
225	164.681873	144764928	106049536	21827872	24992
226	165.489723	144764928	106049536	22813312	24992
227	167.685053	144764928	106049536	24468120	24992
228	166.421763	144764928	106049536	26949704	24992
229	169.55102	144764928	106049536	30101080	24992
230	169.428155	144764928	106049536	17411280	24992
231	171.529474	144764928	106049536	21876120	24992
232	172.325654	144764928	106049536	26991144	24992
233	174.600315	144764928	106049536	32788520	24992
234	176.058274	144764928	106049536	22748384	24992
235	176.563886	144764928	106049536	29853104	24992
236	178.950406	144764928	106049536	21131712	24992
237	181.052488	144764928	106049536	29599728	24992
238	181.72002	144764928	106049536	22202816	24992
239	180.325406	144764928	106049536	31960912	24992
240	182.974006	144764928	106049536	25887176	24992
241	187.739773	144764928	106049536	36957184	24992
242	186.141577	144764928	106049536	32207392	24992
243	188.463419	144764928	106049536	28119408	24992
244	188.557586	144764928	106049536	24680456	24992
245	188.1306	144764928	106049536	38409616	24992
246	191.621744	144764928	106049536	36306800	24992
247	192.860566	144764928	106049536	34864848	24992
248	193.125335	144764928	106049536	34084920	24992
249	195.012117	144764928	106049536	33967376	24992
250	195.197235	144764928	106049536	34510624	24992
251	199.324667	144764928	106049536	35734552	24992
252	198.154258	144764928	106049536	37600768	24992
253	199.594681	144764928	106049536	40128664	24992
254	204.008085	144764928	106049536	43319016	24992
255	205.087918	144764928	106049536	30673432	24992
256	204.547768	144764928	106049536	35184192	24992
257	205.093329	144764928	106049536	40375728	24992
258	208.503685	144764928	106049536	29745616	24992
259	208.305634	144764928	106049536	36270784	24992
260	209.374038	144764928	106049536	43446792	24992
261	214.697105	144764928	106049536	34801392	24992
262	212.458664	144764928	106049536	43305432	24992
263	215.235986	144764928	106049536	35983080	24992
264	214.017258	144764928	106049536	45805232	24992
265	218.46308	144764928	106049536	39804888	24992
266	219.509759	144764928	106049536	34455464	24992
267	218.410134	144764928	106049536	46273832	24992
268	222.705848	144764928	106049536	42259360	24992
269	224.627816	144764928	106049536	38903200	24992
270	227.411839	144764928	106049536	36199904	24992
271	224.396711	144764928	106049536	50664464	24992
272	231.802504	144764928	106049536	49297592	24992
273	230.151628	144764928	106049536	48593632	24992
274	235.438924	144764928	106049536	48550480	24992
275	225.739147	142143488	103428096	15324656	24992
276	203.918879	142143488	103428096	17014184	24992
277	206.981326	142143488	103428096	19360640	24992
278	208.038466	142143488	103428096	22364896	24992
279	210.294558	142143488	103428096	26038448	24992
280	212.389454	142143488	105000960	30381736	24992
281	217.156023	142954496	111292416	18869048	24992
282	218.440277	143224832	111292416	24295248	24992
283	219.231139	143765504	111292416	30193832	24992
284	222.751844	144035840	111292416	20271128	24992
285	221.620584	144306176	111292416	27504072	24992
286	224.040913	144846848	111292416	35400320	24992
287	228.456951	145117184	111292416	27473784	24992
288	228.41326	145387520	111292416	36683656	24992
289	230.473439	145928192	111292416	30069328	24992
290	236.559478	146464768	111292416	24147440	24992
291	232.274904	147005440	111292416	35349936	24992
292	235.512626	147275776	111292416	30719896	24992
293	237.681077	147546112	111292416	26746312	24992
294	237.543062	148086784	111292416	39928448	24992
295	240.567729	148357120	111292416	37281936	24992
296	242.472454	148897792	111292416	35300792	24992
297	244.406864	149168128	111292416	33980064	24992
298	246.164203	149438464	111292416	33323216	24992
299	248.301871	149708800	111292416	33313200	24992
300	250.039418	150249472	111292416	33964968	24992
301	252.122064	150249472	111816704	35287320	24992
302	253.005665	150790144	111816704	37269144	24992
303	257.907941	150790144	111816704	39918152	24992
304	256.584689	150790144	111816704	43228752	24992
305	261.002539	150790144	111816704	30705336	24992
306	260.250928	150790144	111816704	35338456	24992
307	262.398685	150790144	111816704	40622552	24992
308	262.700321	150790144	111816704	46580912	24992
309	269.411428	150790144	111816704	36706536	24992
310	266.5585	150790144	111816704	43975544	24992
311	272.405124	150790144	111816704	35423432	24992
312	273.327079	150790144	111816704	44026304	24992
313	275.97466	150790144	111816704	36797560	24992
314	277.295929	150790144	111816704	46723864	24992
315	279.388455	150790144	111816704	40818568	24992
316	278.534382	150790144	111816704	52057184	24992
317	283.466571	150790144	111816704	47474344	24992
318	260.563159	145547264	106573824	13686800	24992
319	236.303326	145547264	106573824	27393616	24992
320	238.466008	145547264	106573824	25247296	24992
321	240.061404	145547264	106573824	23785920	24992
322	242.968946	145547264	106573824	22986416	24992
323	245.188646	145547264	106573824	22843472	24992
324	249.408528	145547264	106573824	23073488	24992
325	251.143931	145547264	106573824	23771744	24992
326	252.344365	145547264	106573824	25131736	24992
327	255.16227	145547264	106573824	27153088	24992
328	257.0128	145547264	106573824	29848848	24992
329	260.489316	145547264	106573824	33209216	24992
330	262.061739	145547264	106573824	37238208	24992
331	269.894207	145547264	106573824	25451824	24992
332	265.210127	145547264	106573824	30781608	24992
333	269.505608	145547264	106573824	36785584	24992
334	270.532259	145547264	106573824	26954624	24992
335	270.685615	145547264	107098112	34269424	24992
336	274.964871	146087936	107622400	25763224	24992
337	276.360286	146628608	108146688	34411920	24992
338	278.816978	147169280	108670976	27229520	24992
339	278.249587	147709952	109195264	37202624	24992
340	282.965501	148250624	109719552	31343992	24992
341	285.273526	148791296	110243840	42638008	24992
342	287.877474	149331968	110768128	38102152	24992
343	289.825225	149602304	111292416	34228664	24992
344	293.986656	150142976	111816704	31003680	24992
345	290.647016	150683648	112340992	44946216	24992
346	298.78792	151224320	112865280	43055400	24992
347	298.232079	151764992	113389568	41828248	24992
348	299.327432	152305664	113913856	41262480	24992
349	301.635439	152846336	114438144	41358232	24992
350	303.461226	153387008	114962432	42115768	24992
351	307.420059	153927680	115486720	43534760	24992
352	315.147708	154468352	116011008	45615680	24992
353	309.178745	155009024	116535296	48359600	24992
354	314.017564	155549696	117059584	51764432	24992
355	320.130549	156090368	117583872	39332608	24992
356	292.762489	142606336	103428096	26144928	24992
357	262.19383	142606336	103428096	14787808	24992
358	261.645459	142606336	103428096	20582248	24992
359	261.525546	142606336	103428096	27032968	24992
360	263.715647	142606336	103428096	17670920	24992
361	265.272503	142606336	103428096	25439480	24992
362	264.572024	142606336	103428096	17404872	24992
363	268.06409	142606336	103428096	26764544	24992
364	267.953426	142606336	103428096	20289792	24992
365	269.445845	142606336	103428096	30959296	24992
366	272.562315	142606336	103428096	25811560	24992
367	276.739764	142606336	103428096	21330568	24992
368	277.133609	142606336	103428096	34015416	24992
369	278.054197	142606336	103428096	30849584	24992
370	279.827665	142606336	103428096	28345776	24992
371	281.285491	142606336	103428096	26503952	24992
372	287.061665	142606336	103428096	25310888	24992
373	286.253699	142606336	103428096	24779408	24992
374	292.199815	142606336	103428096	24920256	24992
375	291.190333	142606336	103428096	25722624	24992
376	292.809489	142606336	103428096	27195536	24992
377	296.972518	142606336	103428096	29322168	24992
378	297.592563	142606336	103428096	32108008	24992
379	299.572222	142606336	103428096	35546264	24992
380	300.472219	142606336	103428096	39658416	24992
381	302.280309	142606336	103428096	44430408	24992
382	307.623989	142606336	103428096	33368104	24992
383	307.112818	142606336	103428096	39452520	24992
384	309.719406	142606336	103428096	46211504	24992
385	313.131326	142606336	103428096	37137280	24992
386	312.595951	142606336	103952384	45207056	24992
387	319.923797	143147008	104476672	37456112	24992
388	316.988273	143687680	105000960	46849016	24992
389	320.709484	143958016	105525248	40424576	24992
390	320.852245	144498688	106049536	51146744	24992
391	325.228741	145039360	106573824	46040616	24992
392	330.404052	145580032	107098112	41598944	24992
393	330.377122	146120704	107622400	37805304	24992
394	309.23577	143478784	104476672	16872112	24992
395	293.53526	143478784	104476672	14402088	24992
396	291.725809	143478784	104476672	29098456	24992
397	297.209913	143478784	104476672	27963992	24992
398	300.216228	143478784	106573824	27489744	24992
399	300.268183	144289792	114962432	27678776	24992
400	302.692923	144830464	123351040	28529224	24992
401	305.632391	145641472	131739648	30040072	24992
402	306.9416	146452480	140128256	32212832	24992
403	312.005247	146993152	140128256	35059160	24992
404	316.378749	147263488	140128256	22090488	24992
405	314.938265	147804160	140128256	26255736	24992
406	319.907719	148344832	140128256	31064024	24992
407	317.333354	148885504	140128256	36546904	24992
408	324.632585	149426176	140128256	26197008	24992
409	323.880041	149966848	140128256	32990248	24992
410	324.644498	150507520	140128256	40457576	24992
411	331.038746	151048192	140128256	32089816	24992
412	329.481994	151588864	140128256	40880688	24992
413	336.156426	152129536	140128256	33855280	24992
414	333.731493	152670208	140128256	43968096	24992
415	339.682222	152940544	140128256	38251968	24992
416	340.924736	153481216	140128256	33193416	24992
417	341.698444	154021888	140128256	45280672	24992
418	352.058907	154562560	140128256	41543264	24992
419	347.73908	155103232	140128256	38471248	24992
420	351.918976	155643904	140128256	36059736	24992
421	353.058694	156184576	140128256	34297456	24992
422	352.397755	156725248	140128256	49696696	24992
423	358.002396	157265920	140128256	49268808	24992
424	364.462801	157806592	140128256	49506864	24992
425	363.376534	158347264	140128256	50404344	24992
426	368.19814	158887936	140128256	51961144	24992
427	368.066778	159158272	140128256	54179368	24992
428	341.839817	150827008	111816704	22765584	24992
429	315.771968	150827008	111816704	26311056	24992
430	318.123599	150827008	111816704	30516744	24992
431	319.949143	150827008	111816704	18886352	24992
432	323.778787	150827008	111816704	24401888	24992
433	325.933069	151097344	119681024	30591328	24992
434	330.455508	151638016	129118208	20948808	24992
435	332.038017	152449024	138031104	28450320	24992
436	335.217006	152989696	138031104	20132616	24992
437	337.338817	153530368	138031104	28971136	24992
438	341.97725	154071040	138031104	22004080	24992
439	343.271395	154611712	138031104	32157304	24992
440	347.225093	155152384	138031104	26484704	24992
441	348.251569	155693056	138031104	37956472	24992
442	350.329197	156233728	138031104	33607176	24992
443	354.54945	156504064	138031104	29918680	24992
444	357.872222	157044736	138031104	26897912	24992
445	356.130857	157585408	138031104	41030224	24992
446	364.130237	158126080	138031104	39339160	24992
447	364.818896	158666752	138031104	38298184	24992
448	365.76617	159207424	138031104	37917376	24992
449	368.144044	159748096	138031104	38224504	24992
450	374.508498	160288768	138031104	39192040	24992
451	373.775315	160829440	138031104	40821336	24992
452	376.511519	161099776	138031104	43111504	24992
453	379.506971	161910784	138031104	46057424	24992
454	389.495956	162181120	138031104	49648064	24992
455	396.110201	162721792	138031104	37425904	24992
456	393.186524	163262464	138031104	42353768	24992
457	395.32837	163803136	138031104	47952496	24992
458	401.73206	164343808	138031104	37695992	24992
459	367.886066	154320896	116011008	26186040	24992
460	344.44653	154320896	116011008	16926840	24992
461	341.200028	154320896	116011008	24808312	24992
462	342.131941	154320896	116011008	16870048	24992
463	346.921399	154320896	116011008	26113520	24992
464	346.503705	154320896	116011008	19824176	24992
465	352.466122	154320896	116011008	30703024	24992
466	352.048771	154320896	116011008	25738520	24992
467	356.804655	154320896	116011008	21470408	24992
468	361.548688	154320896	116011008	34368728	24992
469	362.805561	154320896	116011008	31389536	24992
470	363.00666	154320896	116011008	29072464	24992
471	366.880046	154320896	116011008	27439936	24992
472	368.436005	154320896	116011008	26469512	24992
473	373.509653	154320896	116011008	26147792	24992
474	381.638751	154320896	116011008	26487808	24992
475	378.310632	154320896	116011008	27507400	24992
476	381.720861	154320896	116011008	29170880	24992
477	382.30419	154320896	116011008	31495448	24992
478	385.694937	154320896	116011008	34481432	24992
479	388.255022	154320896	116011008	38141928	24992
480	391.615606	154320896	116011008	42466608	24992
481	394.247012	154320896	116011008	47427824	24992
482	401.368161	154320896	116011008	36581504	24992
483	401.270386	154320896	116011008	42882120	24992
484	401.533654	154320896	116011008	49826624	24992
485	407.673703	154320896	116011008	40962064	24992
486	408.500589	154320896	116011008	49254016	24992
487	415.63226	154320896	116011008	41689040	24992
488	416.589218	154320896	116011008	51305264	24992
489	390.890579	151220224	112340992	25180784	24992
490	364.688969	151220224	112340992	19255288	24992
491	364.527108	151220224	112340992	30484640	24992
492	368.107505	151220224	112340992	25875696	24992
493	366.651916	151220224	112340992	21979792	24992
494	369.626062	151220224	112340992	19069384	24992
495	376.664651	151220224	112340992	33303072	24992
496	375.331911	151220224	112340992	31713744	24992
497	380.202666	151220224	112340992	30768336	24992
498	384.22524	151220224	112340992	30531008	24992
499	385.496413	151220224	112340992	30906848	24992
500	386.375443	151220224	112340992	31968504	24992
