x	Duration	RSS	HeapTotal	HeapUsed	External
0	NA	130576384	91893760	12267016	24992
1	1.483343	130576384	91893760	12947504	24992
2	2.485765	130576384	91893760	14285864	24992
3	3.562757	130576384	91893760	16283600	24992
4	4.506569	130576384	91893760	18940840	24992
5	3.911426	130576384	91893760	22258168	24992
6	4.640903	130576384	91893760	26235016	24992
7	5.656985	130576384	91893760	14405424	24992
8	5.883336	130576384	91893760	19701368	24992
9	7.761605	130576384	91893760	25657848	24992
10	7.931194	130576384	91893760	15829008	24992
11	8.037315	130576384	91893760	23104568	24992
12	9.317723	130576384	91893760	14572552	24992
13	9.750059	130576384	91893760	23167200	24992
14	10.694375	130576384	91893760	15953656	24992
15	10.986092	130576384	91893760	25867440	24992
16	12.445119	130576384	91893760	19981424	24992
17	12.938831	130576384	91893760	14747952	24992
18	13.512478	130576384	91893760	26642272	24992
19	14.483333	130576384	91893760	22730840	24992
20	15.17861	130576384	91893760	19480688	24992
21	16.022747	130576384	91893760	16884144	24992
22	17.144456	130576384	91893760	14951176	24992
23	17.662523	130576384	91893760	13678880	24992
24	17.881313	130576384	91893760	13064896	24992
25	18.620142	130576384	91893760	13111496	24992
26	19.729777	130576384	91893760	13818776	24992
27	20.897436	130576384	91893760	15186656	24992
28	21.346475	130576384	91893760	17214864	24992
29	21.631771	130576384	91893760	19903616	24992
30	22.677767	130576384	91893760	23253648	24992
31	24.285453	130576384	91893760	27266048	24992
32	24.411309	130576384	91893760	15468776	24992
33	25.068695	130576384	91893760	20798296	24992
34	25.473197	130576384	91893760	26794728	24992
35	26.501076	130576384	91893760	16984680	24992
36	27.275944	130576384	91893760	24296320	24992
37	27.941391	130576384	91893760	15813912	24992
38	28.601197	130576384	91893760	24446040	24992
39	29.607688	130576384	91893760	17284184	24992
40	29.644565	130576384	91893760	27236920	24992
41	31.122503	130576384	91893760	21396568	24992
42	31.908723	130576384	91893760	16214928	24992
43	32.43783	130576384	91893760	28148392	24992
44	33.039763	130576384	91893760	24289968	24992
45	33.702327	130576384	91893760	21093056	24992
46	34.881504	130576384	91893760	18551800	24992
47	35.411965	130576384	91893760	16671632	24992
48	36.315428	130576384	91893760	15452688	24992
49	36.819621	130576384	91893760	14894496	24992
50	38.234035	130576384	91893760	15000616	24992
51	38.397245	130576384	91893760	15761568	24992
52	39.154788	130576384	91893760	17183376	24992
53	40.251329	130576384	91893760	19266176	24992
54	40.147219	130576384	91893760	22009640	24992
55	41.910571	130576384	91893760	25415512	24992
56	41.865694	130576384	91893760	29479608	24992
57	42.917957	130576384	91893760	17713800	24992
58	43.288402	130576384	91893760	23101168	24992
59	45.126195	130576384	91893760	29157856	24992
60	44.652103	130576384	91893760	19418160	24992
61	45.876955	130576384	91893760	26833392	24992
62	46.164361	130576384	91893760	18416856	24992
63	47.383003	130576384	91893760	27155712	24992
64	49.158409	130576384	91893760	20062704	24992
65	48.624848	130576384	91893760	30132456	24992
66	50.303424	130576384	91893760	24380696	24992
67	50.575073	130576384	91893760	19292528	24992
68	50.664631	130576384	91893760	31343360	24992
69	51.975233	130576384	91893760	27574928	24992
70	52.684449	130576384	91893760	24469752	24992
71	53.418596	130576384	91893760	22028000	24992
72	54.142155	130576384	91893760	20236816	24992
73	54.621291	130576384	91893760	19115152	24992
74	56.090003	130576384	91893760	18654888	24992
75	58.195624	130576384	91893760	18856176	24992
76	58.773475	130576384	91893760	19719232	24992
77	58.596815	130576384	91893760	21243920	24992
78	58.644803	130576384	91893760	23433416	24992
79	59.457846	130576384	91893760	26279232	24992
80	60.129377	130576384	91893760	29781288	24992
81	62.867394	130576384	91893760	17454000	24992
82	62.450665	130576384	91893760	22287856	24992
83	63.59349	130576384	91893760	27783256	24992
84	64.527971	130576384	91893760	33939736	24992
85	65.57774	130576384	91893760	24257192	24992
86	65.454571	130576384	91893760	31736736	24992
87	66.696692	130576384	91893760	23385208	24992
88	69.133684	130576384	91893760	32213032	24992
89	68.365839	130576384	91893760	25184728	24992
90	68.669361	130576384	91893760	35309296	24992
91	70.24468	130576384	91893760	29599920	24992
92	71.539928	130576384	91893760	24561704	24992
93	72.197238	130576384	91893760	20181624	24992
94	71.464203	130576384	91893760	32947800	24992
95	73.352594	130576384	91893760	29889336	24992
96	73.749226	130576384	91893760	27487344	24992
97	75.354739	130576384	91893760	25740480	24992
98	76.070266	130576384	91893760	24665296	24992
99	76.426055	130576384	92418048	24252096	24992
100	77.687118	130846720	92418048	24500984	24992
101	78.379327	130846720	92418048	25411392	24992
102	78.957409	131117056	92418048	26983024	24992
103	79.977964	131117056	92418048	29210536	24992
104	81.395914	131117056	92418048	32094432	24992
105	81.879758	131117056	92418048	35645400	24992
106	84.054055	131117056	92418048	23377384	24992
107	83.66926	131117056	92418048	28257432	24992
108	84.504055	131117056	92418048	33793080	24992
109	87.122255	131117056	92418048	23503184	24992
110	87.357769	131117056	92418048	30367760	24992
111	86.76981	131117056	92418048	37882848	24992
112	88.8834	131117056	92418048	29577768	24992
113	88.315014	131117056	92418048	38416176	24992
114	90.166987	131117056	92418048	31435728	24992
115	91.715404	131117056	92418048	25103584	24992
116	92.10394	131117056	92418048	35939240	24992
117	93.347062	131117056	92418048	30942688	24992
118	94.031739	131117056	92418048	26595216	24992
119	93.706154	131117056	92418048	39415696	24992
120	96.530375	131117056	92418048	36413232	24992
121	98.516806	131117056	92418048	34063144	24992
122	97.505624	131117056	92418048	32363272	24992
123	99.218922	131117056	92418048	31333304	24992
124	99.041741	131117056	92418048	30960680	24992
125	99.993056	131117056	92418048	31254848	24992
126	100.861778	131117056	92418048	32210688	24992
127	101.550521	131117056	92418048	33817344	24992
128	102.882353	131117056	92418048	36086152	24992
129	103.857005	131117056	92418048	39038640	24992
130	104.804105	131117056	92418048	42657584	24992
131	107.565686	131117056	92418048	30443056	24992
132	106.196288	131117056	92418048	35384056	24992
133	107.350919	131117056	92418048	40975552	24992
134	109.93609	131117056	92418048	30746128	24992
135	109.087315	131117056	92418048	37671744	24992
136	112.097836	131117056	92418048	28752536	24992
137	110.874565	131117056	92418048	37001328	24992
138	113.730884	131117056	92418048	29405744	24992
139	113.111684	131117056	92418048	38977616	24992
140	115.474524	131117056	92418048	32711840	24992
141	114.962324	131117056	92418048	43607256	24992
142	117.600597	131117056	92418048	38675440	24992
143	117.904939	131117056	92418048	34387760	24992
144	119.79962	131117056	92418048	30772312	24992
145	117.254175	131117056	92418048	44313888	24992
146	120.661677	131117056	92418048	42024384	24992
147	121.41069	131117056	92418048	40396896	24992
148	122.764205	131117056	92418048	39418296	24992
149	124.758926	131117056	92418048	39101584	24992
150	124.594069	131117056	92418048	39446352	24992
151	125.445821	131117056	92418048	40452752	24992
152	126.847262	131117056	92418048	42120728	24992
153	128.010891	131117056	92418048	44456424	24992
154	128.384907	131117056	92418048	47460120	24992
155	132.307059	131117056	92418048	34630040	24992
156	132.247187	131117056	92418048	38958272	24992
157	131.912298	131117056	92418048	43944904	24992
158	132.155784	131117056	92418048	49589024	24992
159	136.399153	131117056	92418048	39406896	24992
160	135.74616	131117056	92418048	46378824	24992
161	138.359734	131117056	92418048	37520032	24992
162	136.885696	131117056	92418048	45816832	24992
163	144.374151	131117056	92418048	38280432	24992
164	139.305916	131117056	92418048	47899272	24992
165	142.757492	131117056	92418048	41685968	24992
166	141.056322	131117056	92418048	52622328	24992
167	152.451753	130813952	93466624	27943928	24992
168	126.788709	131084288	93466624	23624088	24992
169	125.586212	131084288	93466624	19948088	24992
170	126.042966	131354624	93466624	16919152	24992
171	127.482874	131354624	93466624	14563696	24992
172	127.620768	131624960	93990912	29352000	24992
173	127.376032	131895296	93990912	28309088	24992
174	128.049496	131895296	93990912	27928152	24992
175	131.35656	132165632	94515200	28204832	24992
176	130.098536	132435968	94515200	29142608	24992
177	130.404046	132435968	94515200	30741536	24992
178	132.950527	132706304	95039488	16518736	24992
179	132.80813	132976640	95039488	19448144	24992
180	133.626106	132976640	95039488	23158568	24992
181	133.916229	133246976	95039488	27520176	24992
182	135.303713	133246976	95039488	32555904	24992
183	137.225897	133246976	95039488	21755360	24992
184	137.295316	133246976	95039488	28106864	24992
185	138.856899	133246976	95039488	18632264	24992
186	139.667203	133246976	95039488	26313144	24992
187	140.687532	133246976	95039488	34645120	24992
188	143.302935	133246976	95039488	27159232	24992
189	144.277182	133246976	95039488	20326616	24992
190	144.408094	133246976	95039488	30653416	24992
191	148.637173	133513216	95039488	25173224	24992
192	147.41791	133513216	95039488	20317472	24992
193	147.722267	133513216	95039488	32630504	24992
194	149.568219	133513216	95039488	29110888	24992
195	149.934707	133513216	95039488	26240328	24992
196	151.709698	133513216	95039488	24036600	24992
197	152.753105	133513216	95039488	22500544	24992
198	152.29856	133513216	95039488	38120992	24992
199	154.615082	133513216	95039488	37906688	24992
200	155.806871	133513216	95039488	38357400	24992
201	156.818151	133513216	95039488	39468848	24992
202	159.341547	133513216	95039488	24745280	24992
203	159.619947	133513216	95039488	27178912	24992
204	161.239712	133513216	95039488	30273896	24992
205	161.690627	133513216	95039488	34019216	24992
206	165.258238	133513216	95039488	38439056	24992
207	166.712978	133513216	95039488	27033704	24992
208	166.035836	133513216	95039488	32785552	24992
209	168.108549	133513216	95039488	39177544	24992
210	169.145223	133513216	95039488	29748680	24992
211	168.014217	133513216	95039488	37475752	24992
212	170.742933	133513216	95039488	29370976	24992
213	171.638448	133513216	95039488	38421592	24992
214	173.22422	133513216	95039488	31640040	24992
215	175.253397	133513216	95039488	42013288	24992
216	174.987207	133513216	95039488	36554448	24992
217	176.888059	133513216	95039488	31745320	24992
218	176.211023	133513216	95039488	44104024	24992
219	178.601987	133513216	95039488	40631784	24992
220	181.796649	133513216	95039488	37819888	24992
221	181.231215	133513216	95039488	35657432	24992
222	183.234881	133513216	95039488	34161504	24992
223	189.534302	133513216	95039488	33333264	24992
224	185.593196	133513216	95039488	33166840	24992
225	186.055392	133513216	95039488	33663096	24992
226	188.014746	133513216	95039488	34819976	24992
227	188.65658	133513216	95039488	36639160	24992
228	190.152618	133513216	95039488	39118608	24992
229	191.0698	133513216	95039488	42260296	24992
230	192.190367	133513216	95039488	46052440	24992
231	194.01267	133513216	95039488	50518568	24992
232	198.639467	133513216	95039488	39151824	24992
233	196.23937	133513216	95039488	44939640	24992
234	197.891891	133513216	95039488	51391672	24992
235	202.695873	133513216	95039488	42009960	24992
236	200.408191	133513216	95039488	49771488	24992
237	199.663308	128835584	90320896	24326720	24992
238	178.253421	128835584	90320896	17262776	24992
239	179.900284	128835584	90320896	27348976	24992
240	180.698427	128835584	90320896	21610672	24992
241	184.912173	128835584	90845184	16522808	24992
242	184.339078	129376256	95563776	28605040	24992
243	186.36019	129916928	100806656	24856320	24992
244	188.951413	130457600	100806656	21721048	24992
245	190.086184	130998272	100806656	18943304	24992
246	190.928856	131268608	100806656	33333440	24992
247	194.784931	131538944	100806656	31889272	24992
248	193.849771	131809280	100806656	31107416	24992
249	196.030164	132079616	100806656	30988248	24992
250	197.430244	132349952	100806656	31531216	24992
251	199.93525	132620288	100806656	32735704	24992
252	201.295225	133160960	100806656	34604552	24992
253	202.016417	133431296	100806656	37133936	24992
254	207.954515	133701632	100806656	23856240	24992
255	206.153364	133971968	100806656	27705216	24992
256	207.262689	134242304	100806656	32205528	24992
257	208.691901	134512640	100806656	37409640	24992
258	211.943265	135053312	100806656	26780520	24992
259	211.273508	135323648	100806656	33305048	24992
260	213.32729	135593984	100806656	40493104	24992
261	218.008865	135864320	100806656	31846104	24992
262	215.931403	136404992	100806656	40345192	24992
263	219.776936	136675328	100806656	33021848	24992
264	218.332462	136945664	100806656	42843936	24992
265	222.273999	137486336	100806656	36844216	24992
266	224.646155	137756672	100806656	31507128	24992
267	223.929254	138027008	100806656	43322864	24992
268	227.617561	138567680	100806656	39307688	24992
269	229.579959	138838016	100806656	35955584	24992
270	230.405278	139108352	100806656	33252336	24992
271	231.608208	139378688	100806656	31216168	24992
272	231.005844	139378688	100806656	46344416	24992
273	235.352949	139378688	100806656	45636776	24992
274	237.882151	139378688	100806656	45593704	24992
275	238.076594	139378688	100806656	46212904	24992
276	243.67223	139378688	100806656	47493792	24992
277	241.140653	139378688	100806656	49435432	24992
278	246.404719	139378688	100806656	35543848	24992
279	244.280626	139378688	100806656	38807208	24992
280	247.433115	139378688	100806656	42721472	24992
281	247.573931	139378688	100806656	47309720	24992
282	253.337923	139378688	100806656	36064200	24992
283	252.094481	139378688	100806656	41974552	24992
284	252.63015	139378688	100806656	48534928	24992
285	259.081223	139378688	100806656	39275640	24992
286	245.055949	127844352	89272320	12869808	24992
287	213.09091	127844352	89272320	21222728	24992
288	211.823881	127844352	89272320	13743128	24992
289	214.067904	127844352	89272320	23418248	24992
290	213.894016	127844352	89272320	17259856	24992
291	214.889689	127844352	89272320	28255032	24992
292	214.936499	127844352	89272320	23418568	24992
293	217.374004	127844352	89272320	19254000	24992
294	221.278734	127844352	89272320	32444624	24992
295	219.577483	127844352	89272320	29799664	24992
296	220.468663	127844352	89272320	27817944	24992
297	221.661659	127844352	89272320	26497744	24992
298	225.658331	127844352	89272320	25841984	24992
299	226.668097	127844352	89272320	25846568	24992
300	229.311501	127844352	89272320	26498080	24992
301	230.743936	127844352	89272320	27836264	24992
302	231.787756	127844352	89272320	29817824	24992
303	232.224013	127844352	89272320	32467104	24992
304	233.204663	127844352	89272320	35778056	24992
305	236.049441	127844352	89272320	23256016	24992
306	237.564735	127844352	89796608	27902680	24992
307	238.142508	128114688	89796608	33187000	24992
308	239.203727	128655360	90320896	39145552	24992
309	243.46588	128925696	90845184	29271448	24992
310	243.041796	129196032	91369472	36540696	24992
311	246.469955	129736704	91369472	27998304	24992
312	246.538085	130007040	91369472	36612424	24992
313	252.991852	130007040	91369472	29383504	24992
314	248.816631	130007040	91369472	39309536	24992
315	254.990624	130007040	91369472	33403552	24992
316	251.673043	130007040	91369472	44642600	24992
317	258.335972	130007040	91369472	40057280	24992
318	257.012206	130007040	91369472	36136624	24992
319	258.715638	130007040	91369472	32865376	24992
320	258.297204	130007040	91369472	46764488	24992
321	262.201832	130007040	91369472	44827280	24992
322	263.643771	130007040	91369472	43554128	24992
323	265.478464	130007040	91369472	42942096	24992
324	266.586049	130007040	91369472	42991304	24992
325	269.369462	130007040	91893760	43702080	24992
326	271.417189	130277376	91893760	45078048	24992
327	271.876668	130277376	91893760	47112320	24992
328	274.438757	130277376	91893760	49807736	24992
329	275.845814	130277376	91893760	53165808	24992
330	283.546325	130277376	91893760	40694144	24992
331	265.987043	125034496	86650880	22512544	24992
332	249.105672	125034496	86650880	28344680	24992
333	250.664264	125034496	86650880	18320392	24992
334	253.168176	125304832	88748032	25465272	24992
335	257.175175	126115840	96612352	16790752	24992
336	259.699766	126656512	96612352	25049856	24992
337	259.326798	126926848	96612352	33699968	24992
338	265.838323	127467520	96612352	26515784	24992
339	266.887517	128008192	96612352	19995200	24992
340	267.855	128548864	96612352	30629504	24992
341	271.433207	129089536	96612352	25431872	24992
342	274.573499	129630208	96612352	20887576	24992
343	275.160195	129900544	96612352	33532320	24992
344	277.469839	130441216	96612352	30321112	24992
345	278.488646	130981888	96612352	27770384	24992
346	280.563196	131522560	96612352	25869072	24992
347	283.077326	132063232	96612352	24634136	24992
348	282.705204	132603904	96612352	40561712	24992
349	288.682163	133144576	96612352	40655848	24992
350	289.362659	133414912	96612352	41410920	24992
351	290.815461	133955584	96612352	42827720	24992
352	296.002072	134496256	96612352	28417616	24992
353	296.264929	135036928	96612352	31168072	24992
354	297.745428	135036928	96612352	34560568	24992
355	302.309761	135036928	96612352	38614056	24992
356	300.416351	135036928	96612352	43341392	24992
357	305.701939	135036928	96612352	32236200	24992
358	305.072956	135036928	96612352	38285016	24992
359	306.758397	135036928	96612352	44997336	24992
360	313.792716	135036928	96612352	35889584	24992
361	314.024107	135036928	96612352	43912456	24992
362	318.780052	135036928	96612352	36113992	24992
363	315.674342	135307264	97136640	45465808	24992
364	320.638931	135847936	97660928	38990488	24992
365	320.299767	136118272	97660928	49659680	24992
366	325.487323	136118272	97660928	44508832	24992
367	327.484107	136118272	97660928	40019328	24992
368	304.458423	130535424	91893760	18224328	24992
369	272.854694	130535424	91893760	14783576	24992
370	273.012464	130535424	91893760	28510416	24992
371	273.480079	130535424	91893760	26406088	24992
372	275.400427	130535424	91893760	24964608	24992
373	275.610312	130535424	91893760	24197552	24992
374	277.550933	130535424	91893760	24339832	24992
375	278.997422	130535424	91893760	25143808	24992
376	280.36133	130535424	91893760	26609840	24992
377	284.61647	130535424	91893760	28736992	24992
378	288.39075	130535424	91893760	31536200	24992
379	290.262543	130535424	91893760	35009600	24992
380	291.068366	130535424	91893760	22641680	24992
381	291.089219	130535424	91893760	27408448	24992
382	293.826208	130535424	91893760	32838040	24992
383	294.587798	130535424	91893760	38935576	24992
384	300.577086	130535424	91893760	29202784	24992
385	299.600396	130535424	91893760	36618472	24992
386	306.090956	130535424	91893760	28206936	24992
387	305.606327	130535424	91893760	36938408	24992
388	306.806066	130535424	91893760	29859048	24992
389	307.861517	130535424	91893760	39924160	24992
390	311.39668	130535424	91893760	34156448	24992
391	312.888277	130535424	91893760	29052080	24992
392	314.233694	130535424	91893760	41102392	24992
393	317.369976	130535424	91893760	37321936	24992
394	320.677289	130535424	91893760	34201872	24992
395	323.233898	130535424	91893760	31731296	24992
396	323.068606	130535424	91893760	46427720	24992
397	326.474891	130535424	91893760	45293776	24992
398	327.647597	130535424	91893760	44820464	24992
399	331.258794	130535424	91893760	45010016	24992
400	334.165689	130535424	91893760	45863160	24992
401	334.894072	130535424	91893760	47375184	24992
402	336.914178	130535424	91893760	49547808	24992
403	341.623362	130535424	91893760	52382464	24992
404	326.26102	128962560	90320896	18746832	24992
405	300.422167	128962560	90320896	22653640	24992
406	303.506807	128962560	90320896	27186096	24992
407	299.608304	128962560	90320896	15886200	24992
408	300.211472	128962560	90320896	21738584	24992
409	302.667524	128962560	90320896	28297176	24992
410	304.255508	128962560	90320896	19268512	24992
411	309.078932	128962560	90320896	27384568	24992
412	309.142687	128962560	90320896	19681968	24992
413	311.230413	128962560	90320896	29126440	24992
414	315.287391	128962560	90320896	22769888	24992
415	317.664742	128962560	90320896	33541032	24992
416	321.166226	128962560	90845184	28483376	24992
417	321.385103	129503232	91369472	24088360	24992
418	321.439592	130043904	91893760	36836376	24992
419	324.922863	130584576	92418048	33762424	24992
420	332.460539	131125248	92942336	31350672	24992
421	329.289485	131665920	93466624	29601400	24992
422	335.45638	132206592	93990912	28510880	24992
423	337.470687	132747264	94515200	28080880	24992
424	336.468707	133287936	95039488	28308416	24992
425	341.582765	133828608	95563776	29197808	24992
426	342.29937	134369280	96088064	30748776	24992
427	343.718018	134909952	96612352	32956024	24992
428	347.644417	135450624	97136640	35825056	24992
429	354.833077	135991296	97660928	39361920	24992
430	350.37452	136261632	98185216	43566448	24992
431	354.760084	136802304	98709504	48433456	24992
432	359.732164	137342976	99233792	37464552	24992
433	359.882614	137883648	99758080	43641616	24992
434	361.028657	138424320	100282368	50495968	24992
435	366.299028	138964992	100806656	41511808	24992
436	366.05519	139505664	101330944	49688568	24992
437	372.87371	140046336	101855232	42029456	24992
438	344.556711	133734400	95039488	27910488	24992
439	331.620066	133734400	95039488	22239272	24992
440	334.219415	133734400	95039488	17208152	24992
441	337.66653	133734400	97660928	29322064	24992
442	342.23662	134545408	97660928	25243552	24992
443	347.451364	135086080	97660928	21555288	24992
444	347.976626	135626752	97660928	35023376	24992
445	354.990597	136167424	97660928	32655120	24992
446	354.939514	136437760	97660928	30952912	24992
447	358.205337	136437760	97660928	29929856	24992
448	362.728913	136437760	97660928	29566448	24992
449	366.597539	136437760	97660928	29873144	24992
450	365.072494	136437760	97660928	30840760	24992
451	368.639253	136437760	97660928	32469624	24992
452	372.878533	136437760	97660928	34760656	24992
453	377.506548	136437760	97660928	37731760	24992
454	374.778936	136437760	97660928	41322592	24992
455	379.48437	136437760	97660928	29087904	24992
456	379.520348	136437760	97660928	34013040	24992
457	383.545284	136437760	97660928	39611336	24992
458	386.115657	136437760	97660928	45847960	24992
459	389.916341	136437760	97660928	36272744	24992
460	389.826401	136437760	97660928	43856224	24992
461	397.986466	136437760	97660928	35583064	24992
462	396.928765	136437760	97660928	44477208	24992
463	403.420125	136437760	97660928	37526776	24992
464	400.805078	136437760	97660928	47744032	24992
465	407.704721	136708096	98709504	42116888	24992
466	412.20177	137519104	99233792	53670840	24992
467	377.700772	134914048	96088064	15060472	24992
468	340.351513	134914048	96088064	27599848	24992
469	340.828261	134914048	96088064	24306864	24992
470	344.683644	134914048	96088064	21655128	24992
471	343.870702	134914048	96088064	19675384	24992
472	345.76622	134914048	96088064	18691640	24992
473	348.999925	134914048	96088064	18369464	24992
474	353.828799	134914048	96088064	18711064	24992
475	359.01188	134914048	96088064	19718512	24992
476	358.79779	134914048	96088064	21419928	24992
477	361.731086	134914048	96088064	23744720	24992
478	363.039234	134914048	96088064	26731024	24992
479	363.94726	134914048	96088064	30391680	24992
480	367.740423	134914048	96088064	34714056	24992
481	370.79657	134914048	96088064	39676024	24992
482	374.99457	134914048	96088064	28824152	24992
483	376.890125	134914048	96088064	35138080	24992
484	379.731554	134914048	96088064	42106056	24992
485	383.399379	134914048	96088064	33214352	24992
486	385.15255	134914048	96088064	41506464	24992
487	387.926755	134914048	96088064	33941872	24992
488	392.386722	134914048	96088064	43550480	24992
489	396.174131	134914048	96088064	37308872	24992
490	394.729158	134914048	96088064	48247112	24992
491	400.193232	134914048	96612352	43349896	24992
492	402.152461	135454720	96612352	39091824	24992
493	408.34936	135725056	97660928	35522440	24992
494	408.123798	136536064	98185216	49094984	24992
495	411.775516	136806400	98185216	46824440	24992
496	414.826145	136806400	98185216	45213808	24992
497	385.101326	135757824	97136640	15334160	24992
498	370.890568	135757824	97136640	15757864	24992
499	374.37696	135757824	97136640	16844664	24992
500	380.294836	136028160	105525248	18594056	24992
