x	Duration	RSS	HeapTotal	HeapUsed	External
0	NA	143745024	105525248	33595888	24992
1	1.416221	143745024	105525248	34272800	24992
2	3.341748	143745024	105525248	19132864	24992
3	3.65311	143745024	105525248	21130008	24992
4	3.751002	143745024	105525248	23786560	24992
5	3.654627	143745024	105525248	27103040	24992
6	4.532629	143745024	105525248	31078944	24992
7	6.017085	143745024	105525248	19274344	24992
8	5.732653	143745024	105525248	24569024	24992
9	6.703534	143745024	105525248	30524128	24992
10	7.931742	143745024	105525248	20717792	24992
11	7.938713	143745024	105525248	27991640	24992
12	9.584432	144015360	105525248	19495664	24992
13	9.606723	144015360	105525248	28088344	24992
14	10.856665	144015360	105525248	20908960	24992
15	10.9189	144015360	105525248	30820536	24992
16	12.646026	144015360	105525248	24968128	24992
17	13.048688	144015360	105525248	19764528	24992
18	13.038156	144015360	105525248	31656064	24992
19	14.604378	144015360	105525248	27778240	24992
20	15.186681	144015360	105525248	24563192	24992
21	16.276101	144015360	105525248	21988480	24992
22	16.673958	144015360	105525248	20075760	24992
23	16.851341	144015360	105525248	35264680	24992
24	18.111508	144015360	105525248	34672984	24992
25	19.096032	144015360	105525248	34769128	24992
26	20.159176	144015360	105525248	19060448	24992
27	21.065184	144015360	105525248	20437008	24992
28	21.910705	144015360	105525248	22493888	24992
29	22.274581	144015360	105525248	25211960	24992
30	23.345211	144015360	105525248	28590680	24992
31	23.592287	144015360	105525248	32630952	24992
32	25.023778	144015360	105525248	20879352	24992
33	24.817598	144015360	105525248	26218472	24992
34	25.589253	144015360	105525248	32245640	24992
35	27.29531	144015360	105525248	22480888	24992
36	27.33739	144015360	105525248	29803376	24992
37	28.480428	144015360	105525248	21369896	24992
38	29.219098	144015360	105525248	30030024	24992
39	30.147574	144015360	105525248	22918048	24992
40	30.792945	144015360	105525248	32890768	24992
41	31.478151	144015360	105525248	27102400	24992
42	32.633877	144015360	105525248	21949696	24992
43	32.650397	144015360	105525248	33896392	24992
44	33.434864	144015360	105525248	30104168	24992
45	34.963955	144015360	105525248	26938512	24992
46	35.593246	144015360	105525248	24428576	24992
47	36.383247	144015360	105525248	22580832	24992
48	36.58618	144015360	105525248	21394472	24992
49	37.846797	144015360	105525248	20869648	24992
50	38.305625	144015360	105525248	21007152	24992
51	39.281545	144015360	105525248	21806608	24992
52	39.908193	144015360	105525248	23267784	24992
53	40.704167	144015360	105525248	25390656	24992
54	40.870621	144015360	105525248	28175328	24992
55	41.610538	144015360	105525248	31620960	24992
56	42.63434	144015360	105525248	35728392	24992
57	44.139325	144015360	105525248	24004160	24992
58	44.016009	144015360	105525248	29435216	24992
59	45.142232	144015360	105525248	35527456	24992
60	46.589894	144015360	105525248	25788088	24992
61	46.325052	144015360	105525248	33204016	24992
62	48.192852	144015360	105525248	24788760	24992
63	47.588499	144015360	105525248	33525952	24992
64	49.513264	144015360	105525248	26433352	24992
65	49.11083	144015360	105525248	36503848	24992
66	50.819331	144015360	105525248	30752624	24992
67	52.247751	144015360	105525248	25664944	24992
68	51.395885	144015360	105525248	37716968	24992
69	54.092905	144015360	105525248	33949920	24992
70	54.0708	144015360	105525248	30845984	24992
71	55.335465	144015360	105525248	28397368	24992
72	55.779862	144015360	105525248	26606432	24992
73	56.843388	144015360	105525248	25485064	24992
74	57.460654	144015360	105525248	25025224	24992
75	58.125399	144015360	105525248	25226888	24992
76	59.204224	144015360	105525248	26090192	24992
77	60.094526	144015360	105525248	27615368	24992
78	60.721386	144015360	105525248	29802104	24992
79	60.962453	144015360	105525248	32649688	24992
80	61.934426	144015360	105525248	36155616	24992
81	62.79648	144015360	105525248	40314040	24992
82	64.946297	144015360	105525248	28661800	24992
83	64.092925	144015360	105525248	34157752	24992
84	66.442053	144015360	105525248	40314800	24992
85	70.347712	144015360	105525248	30631320	24992
86	67.677503	144015360	105525248	38111416	24992
87	69.508265	144015360	105525248	29760088	24992
88	69.089645	144015360	105525248	38563728	24992
89	71.885596	144015360	105525248	31544824	24992
90	70.853734	144015360	105525248	41679536	24992
91	72.393414	144015360	105525248	35972608	24992
92	75.415974	144015360	105525248	30924744	24992
93	74.112211	144015360	105525248	26541168	24992
94	73.390324	144015360	105525248	39306896	24992
95	75.145633	144015360	105525248	36248160	24992
96	76.673702	144015360	105525248	33846040	24992
97	77.581166	144015360	105525248	32098744	24992
98	78.913873	144015360	105525248	31023384	24992
99	79.439656	144015360	105525248	30610352	24992
100	79.438407	144015360	105525248	30858704	24992
101	80.752592	144015360	105525248	31768760	24992
102	81.639935	144015360	105525248	33340616	24992
103	82.23239	144015360	105525248	35573096	24992
104	82.990629	144015360	105525248	38456656	24992
105	83.92302	144015360	105525248	42001752	24992
106	86.240183	144015360	105525248	29726248	24992
107	85.408955	144015360	105525248	34605736	24992
108	86.36285	144015360	105525248	40146496	24992
109	88.813452	144015360	105525248	29855704	24992
110	87.914416	144015360	105525248	36720072	24992
111	88.751318	144015360	105525248	44235048	24992
112	91.366927	144015360	105525248	35928864	24992
113	90.708008	144015360	105525248	44772208	24992
114	93.363018	144015360	105525248	37789600	24992
115	94.565002	144015360	105525248	31457120	24992
116	92.932548	144015360	105525248	42292600	24992
117	96.178041	144015360	105525248	37295840	24992
118	97.118069	144015360	106049536	32953464	24992
119	95.586023	144285696	106049536	45773560	24992
120	98.601771	144285696	106049536	42761152	24992
121	101.41781	144556032	106049536	40410888	24992
122	100.448479	144556032	106049536	38709800	24992
123	101.341185	144556032	106049536	37670056	24992
124	102.211799	144556032	106049536	37302528	24992
125	103.461843	144556032	106049536	37596632	24992
126	103.588027	144556032	106049536	38552376	24992
127	104.748369	144556032	106049536	40169816	24992
128	105.393249	144556032	106573824	42438384	24992
129	106.167865	144826368	106573824	45383616	24992
130	107.366641	145096704	106573824	49002576	24992
131	111.489368	145096704	106573824	36788160	24992
132	109.919699	145096704	106573824	41731672	24992
133	110.630145	145096704	106573824	47322992	24992
134	113.275073	145096704	106573824	37093376	24992
135	111.538452	145096704	106573824	44018944	24992
136	112.917508	145096704	106573824	51595128	24992
137	116.931587	145096704	106573824	43347376	24992
138	114.216655	145096704	106573824	52246736	24992
139	118.796607	145096704	106573824	45322832	24992
140	119.116126	145096704	106573824	39051480	24992
141	117.659497	145096704	106573824	49947200	24992
142	121.740882	145096704	106573824	45016120	24992
143	121.907065	145096704	106573824	40728536	24992
144	134.391639	142139392	103428096	17047848	24992
145	107.435164	142139392	103428096	14013424	24992
146	106.161209	142139392	103428096	28121848	24992
147	107.401178	142139392	103428096	26397744	24992
148	108.225042	142139392	103428096	25336568	24992
149	108.27726	142139392	103428096	24924776	24992
150	109.226479	142139392	103428096	25174416	24992
151	110.290966	142139392	103428096	26084632	24992
152	110.339705	142139392	103428096	27655528	24992
153	111.705015	142139392	103428096	29887704	24992
154	112.854198	142139392	103428096	16287136	24992
155	113.312213	142139392	103428096	19839480	24992
156	114.072777	142139392	103428096	24053680	24992
157	115.006562	142139392	103428096	28926368	24992
158	116.123994	142139392	103428096	18082680	24992
159	117.083008	142139392	103428096	24393136	24992
160	116.95975	142139392	103428096	31354080	24992
161	118.487501	142139392	103428096	22495248	24992
162	118.72428	142139392	103428096	30779512	24992
163	120.736906	142139392	103428096	23242432	24992
164	121.039399	142139392	103428096	32850016	24992
165	123.954785	142139392	103952384	26637840	24992
166	123.908522	142409728	103952384	21073800	24992
167	125.663426	142041088	103952384	32755016	24992
168	125.489584	142041088	103952384	28526760	24992
169	126.782883	142041088	103952384	24953648	24992
170	129.241783	142041088	103952384	22043632	24992
171	129.659242	142307328	103952384	36318992	24992
172	130.167403	142307328	103952384	34737256	24992
173	130.605415	142307328	103952384	33816736	24992
174	131.697624	142307328	103952384	33558096	24992
175	133.165573	142307328	103952384	33961376	24992
176	133.426283	142307328	103952384	35026248	24992
177	135.43287	142307328	103952384	36752368	24992
178	136.698236	142307328	103952384	22647344	24992
179	137.474997	142307328	103952384	25696784	24992
180	138.273312	142307328	103952384	29407592	24992
181	139.956039	142307328	103952384	33769200	24992
182	140.062162	142307328	103952384	38804928	24992
183	143.125625	142307328	103952384	28007568	24992
184	145.684085	142307328	103952384	34364648	24992
185	145.558003	142307328	103952384	24890352	24992
186	144.168139	142307328	103952384	32571072	24992
187	145.402686	142307328	103952384	40902272	24992
188	148.329531	142307328	103952384	33410200	24992
189	149.599276	142307328	103952384	26578376	24992
190	148.993304	142307328	103952384	36905832	24992
191	155.600602	142307328	103952384	31411056	24992
192	150.484165	142307328	103952384	43055648	24992
193	153.38584	142307328	103952384	38872760	24992
194	154.965656	142307328	103952384	35352792	24992
195	155.643991	142307328	103952384	32482392	24992
196	156.466363	142307328	103952384	30278552	24992
197	157.98197	142307328	103952384	28742544	24992
198	157.120154	142307328	103952384	44362832	24992
199	159.904635	142307328	103952384	44151840	24992
200	161.802783	142307328	103952384	44602472	24992
201	162.448378	142307328	103952384	45714592	24992
202	165.717955	142307328	103952384	30992144	24992
203	164.090097	142307328	103952384	33425520	24992
204	165.724788	142307328	103952384	36520088	24992
205	166.353078	142307328	103952384	40265296	24992
206	167.710659	142307328	103952384	44678296	24992
207	171.256399	142307328	103952384	33264584	24992
208	170.232695	142577664	104476672	39005888	24992
209	171.005784	142577664	104476672	45397672	24992
210	174.979935	142848000	105000960	35969592	24992
211	177.244048	143118336	105000960	43696536	24992
212	184.953935	143388672	105525248	35592080	24992
213	176.666352	143659008	105525248	44645032	24992
214	179.410325	143929344	106049536	37863784	24992
215	178.018804	144199680	106049536	48237304	24992
216	181.232343	144470016	106049536	42778560	24992
217	183.832491	144470016	106049536	37969352	24992
218	182.261983	144470016	106049536	50329112	24992
219	185.044027	144470016	106049536	46856424	24992
220	189.526108	127168512	88748032	23491928	24992
221	160.469033	127168512	88748032	21184296	24992
222	161.268982	127168512	88748032	19524128	24992
223	162.617609	127168512	88748032	18525224	24992
224	163.248807	127168512	88748032	18187160	24992
225	163.659599	127438848	92418048	18516264	24992
226	164.194908	127709184	97136640	19508312	24992
227	166.854934	127979520	101855232	21153184	24992
228	166.076518	127979520	101855232	23460440	24992
229	167.507585	128249856	101855232	26451616	24992
230	168.197265	128520192	101855232	30256408	24992
231	170.176106	128790528	101855232	18228480	24992
232	170.328499	129060864	101855232	23355008	24992
233	172.425972	129331200	101855232	29131904	24992
234	173.099661	129601536	101855232	19087864	24992
235	175.037095	129871872	101855232	26198896	24992
236	177.35104	130142208	101855232	33977688	24992
237	176.947662	130682880	101855232	25917544	24992
238	179.43433	130953216	101855232	35010312	24992
239	181.8497	131223552	101855232	28302920	24992
240	181.569587	131493888	101855232	22222568	24992
241	181.721261	131764224	101855232	33303952	24992
242	182.872461	132034560	101855232	28553312	24992
243	185.473621	132304896	101855232	24453808	24992
244	185.241698	132575232	101855232	37520472	24992
245	187.093364	132845568	101855232	34755392	24992
246	188.159147	133386240	101855232	32651840	24992
247	189.691343	133656576	101855232	31210096	24992
248	190.594353	133926912	101855232	30423792	24992
249	192.629595	134197248	101855232	30293128	24992
250	193.097768	134467584	101855232	30824008	24992
251	195.807161	134737920	101855232	32016648	24992
252	197.238132	135278592	101855232	33879288	24992
253	198.727137	135548928	101855232	36411320	24992
254	199.820681	135819264	101855232	39600968	24992
255	200.208751	136089600	101855232	43452584	24992
256	204.142004	136359936	101855232	31471760	24992
257	203.004053	136630272	101855232	36669064	24992
258	203.956026	137170944	101855232	42534296	24992
259	207.339207	137441280	101855232	32566312	24992
260	206.874437	137711616	101855232	39747224	24992
261	210.821051	137981952	101855232	31102144	24992
262	210.488906	138522624	101855232	39612240	24992
263	212.320982	138792960	101855232	32290496	24992
264	212.087224	139063296	101855232	42123896	24992
265	215.414888	139333632	101855232	36125120	24992
266	214.845143	139874304	101855232	47270416	24992
267	219.064095	140144640	101855232	42595728	24992
268	219.653902	140414976	101855232	38581912	24992
269	221.755317	140414976	101855232	35217296	24992
270	220.662073	140414976	101855232	49022912	24992
271	224.466019	140414976	101855232	46994256	24992
272	225.528902	140414976	101855232	45626456	24992
273	228.329124	140414976	101855232	44922768	24992
274	229.705929	140414976	101855232	44879376	24992
275	230.266968	140414976	101855232	45499312	24992
276	226.948804	135696384	97136640	25689672	24992
277	205.068445	135696384	97136640	27468584	24992
278	203.376293	135696384	97136640	29892928	24992
279	203.67447	135696384	97136640	16476896	24992
280	203.23764	135696384	97136640	20201752	24992
281	204.838719	135696384	97136640	24577392	24992
282	204.274719	135696384	97136640	29626184	24992
283	206.987902	135696384	97136640	18853000	24992
284	207.510516	135696384	97136640	25423992	24992
285	208.739298	135696384	97136640	32671208	24992
286	210.710159	135696384	97136640	24070768	24992
287	213.480794	135696384	97136640	32616056	24992
288	213.163568	135696384	97136640	25341768	24992
289	215.11657	135696384	97136640	35214328	24992
290	216.946652	135696384	97136640	29260480	24992
291	221.267749	135696384	97136640	24003432	24992
292	221.073949	135696384	97136640	35857200	24992
293	221.502145	135696384	97660928	31890408	24992
294	223.170405	135966720	97660928	28585176	24992
295	224.859573	136237056	98185216	25929064	24992
296	226.739037	136777728	98709504	23934592	24992
297	226.127288	137048064	98709504	39108104	24992
298	229.6265	137318400	99233792	38446856	24992
299	232.121664	137859072	99758080	38450744	24992
300	232.45104	138129408	99758080	39115888	24992
301	234.273235	138129408	99758080	40441192	24992
302	236.321228	138129408	99758080	42438552	24992
303	241.540231	138129408	99758080	28602424	24992
304	240.502883	138129408	99758080	31911920	24992
305	241.848534	138129408	99758080	35871672	24992
306	241.237069	138129408	99758080	40506416	24992
307	246.390651	138129408	99758080	29307560	24992
308	246.407382	138129408	99758080	35264384	24992
309	248.894302	138129408	99758080	41871736	24992
310	253.848551	138129408	99758080	32657816	24992
311	251.781253	138129408	99758080	40599000	24992
312	253.668932	138129408	99758080	32708752	24992
313	254.948857	138129408	99758080	41973800	24992
314	257.278317	138129408	99758080	35406840	24992
315	261.005892	138129408	99758080	45994072	24992
316	259.76419	138129408	99758080	40751200	24992
317	262.697255	138129408	99758080	36156376	24992
318	261.141985	138129408	99758080	48731752	24992
319	265.813787	138129408	99758080	45473064	24992
320	267.451547	138129408	99758080	42875888	24992
321	269.390764	138129408	99758080	40929736	24992
322	262.427826	132362240	93990912	18600496	24992
323	235.658718	132362240	93990912	17767736	24992
324	236.873382	132362240	93990912	17593728	24992
325	236.959947	132362240	93990912	18060752	24992
326	236.749813	132362240	93990912	19188920	24992
327	237.963298	132362240	93990912	20979192	24992
328	238.915181	132362240	93990912	23443136	24992
329	239.966838	132362240	93990912	26800400	24992
330	242.787508	132362240	93990912	30819480	24992
331	244.029782	132362240	93990912	19005984	24992
332	245.789897	132362240	93990912	24346544	24992
333	249.497722	132362240	93990912	30348592	24992
334	252.109093	132362240	93990912	20526128	24992
335	253.317023	132362240	93990912	27876496	24992
336	252.229226	132362240	93990912	35865640	24992
337	255.838854	132362240	93990912	28020736	24992
338	255.573537	132362240	93990912	37327464	24992
339	258.922762	132362240	93990912	30804888	24992
340	260.924525	132362240	93990912	24946432	24992
341	262.233171	132362240	93990912	36242248	24992
342	263.159863	132362240	93990912	31707640	24992
343	265.048024	132362240	93990912	27834216	24992
344	266.750021	132362240	93990912	41109928	24992
345	271.421437	132362240	93990912	38575584	24992
346	272.343158	132362240	93990912	36686912	24992
347	273.662108	132362240	93990912	35459504	24992
348	276.230415	132362240	93990912	34893864	24992
349	276.455513	132362240	93990912	34983256	24992
350	281.694269	132362240	93990912	35728072	24992
351	280.566727	132362240	93990912	37134584	24992
352	282.40951	132362240	93990912	39215680	24992
353	285.32005	132362240	93990912	41959088	24992
354	286.535498	132362240	93990912	45363600	24992
355	288.600927	132362240	93990912	49430272	24992
356	292.042126	132362240	93990912	37662904	24992
357	292.605681	132362240	93990912	43039280	24992
358	294.492415	132362240	93990912	49092416	24992
359	297.167622	132362240	93990912	39310336	24992
360	297.120088	132362240	93990912	46685112	24992
361	302.227868	132362240	93990912	38226904	24992
362	301.952992	132362240	93990912	46922056	24992
363	287.827742	127643648	89272320	28601176	24992
364	267.272468	127643648	89272320	22125496	24992
365	270.069015	127643648	89272320	16312232	24992
366	270.464785	128454656	96088064	27648232	24992
367	273.017145	128995328	103952384	23160656	24992
368	274.294339	129536000	111816704	19332704	24992
369	277.238343	130347008	119156736	32648176	24992
370	279.250424	131158016	127021056	30140872	24992
371	283.720764	131698688	134885376	28297264	24992
372	284.243467	132239360	142749696	27116544	24992
373	287.779375	132780032	142749696	26600704	24992
374	290.296144	133320704	142749696	26767976	24992
375	290.321671	133861376	142749696	27573784	24992
376	293.071977	134402048	142749696	29039984	24992
377	292.829179	134942720	142749696	31167592	24992
378	295.105142	135483392	142749696	33956968	24992
379	296.838692	136024064	142749696	37407656	24992
380	300.805523	136564736	142749696	25026176	24992
381	302.006164	137105408	142749696	29798600	24992
382	303.26143	137646080	142749696	35221752	24992
383	306.672609	137916416	142749696	41327744	24992
384	314.744967	138457088	142749696	31603096	24992
385	310.564437	138997760	142749696	39012600	24992
386	313.794711	139538432	142749696	30598360	24992
387	314.034147	140079104	142749696	39335056	24992
388	316.989226	140619776	142749696	32245816	24992
389	319.052194	141160448	142749696	42306072	24992
390	321.906115	141701120	142749696	36540840	24992
391	321.308674	142241792	142749696	47918632	24992
392	326.837226	142782464	142749696	43474160	24992
393	327.735193	143052800	142749696	39692168	24992
394	331.834232	143593472	142749696	36566128	24992
395	332.680387	144134144	142749696	50590176	24992
396	336.03466	144674816	142749696	48793416	24992
397	338.47473	145215488	142749696	47659456	24992
398	341.017199	145756160	142749696	47187872	24992
399	320.316947	136527872	98709504	27869848	24992
400	294.254663	136527872	98709504	28474096	24992
401	292.425804	136527872	98709504	29700144	24992
402	293.189399	136527872	98709504	15091464	24992
403	294.132758	136527872	98709504	17638928	24992
404	299.650972	136527872	98709504	20886608	24992
405	299.736243	136527872	98709504	25033040	24992
406	299.714336	136527872	98709504	29853768	24992
407	300.104884	136527872	98709504	18841136	24992
408	305.760112	136527872	98709504	24986048	24992
409	308.464544	136527872	98709504	31825592	24992
410	309.114545	136527872	98709504	22815280	24992
411	309.722039	136527872	98709504	30931376	24992
412	312.534054	136527872	98709504	23226088	24992
413	314.255337	136527872	98709504	32670088	24992
414	316.434365	136527872	98709504	26288280	24992
415	319.924728	136527872	98709504	37051176	24992
416	322.027169	136527872	98709504	31991744	24992
417	326.214448	136527872	98709504	27605008	24992
418	327.314296	136527872	98709504	40353488	24992
419	329.026064	136527872	98709504	37278960	24992
420	330.030845	136527872	98709504	34866824	24992
421	333.869323	136527872	98709504	33116864	24992
422	340.754798	136527872	98709504	32016048	24992
423	338.189662	136527872	98709504	31576992	24992
424	340.672679	136527872	98709504	31804640	24992
425	343.193103	136527872	98709504	32699496	24992
426	345.712949	136798208	98709504	34250384	24992
427	349.024555	137068544	98709504	36457232	24992
428	349.883516	137068544	98709504	39326264	24992
429	354.979373	137068544	98709504	42865400	24992
430	354.854646	137338880	98709504	47069928	24992
431	357.507587	137338880	98709504	51937976	24992
432	364.12476	137338880	98709504	40969760	24992
433	340.220514	136290304	97660928	26375576	24992
434	317.728893	136290304	97660928	16426048	24992
435	320.221613	136290304	97660928	23618760	24992
436	317.382048	136290304	97660928	14989368	24992
437	319.62852	136290304	97660928	23524200	24992
438	322.54264	136290304	97660928	16528720	24992
439	322.29926	136290304	97660928	26686872	24992
440	328.701006	136290304	97660928	21012856	24992
441	331.017334	136290304	97660928	32496264	24992
442	332.101197	136290304	97660928	28163864	24992
443	337.651287	136290304	97660928	24491848	24992
444	336.424448	136290304	97660928	21452656	24992
445	336.718434	136290304	97660928	35580760	24992
446	344.419578	136290304	97660928	33877416	24992
447	344.158565	136290304	97660928	32836328	24992
448	345.722675	136290304	97660928	32456080	24992
449	349.183031	136290304	97660928	32763288	24992
450	351.818949	136290304	97660928	33738984	24992
451	354.175517	136290304	97660928	35369336	24992
452	357.292357	136290304	97660928	37660400	24992
453	357.751649	136290304	97660928	40606608	24992
454	362.112688	136290304	97660928	44197648	24992
455	366.708683	136290304	97660928	31950992	24992
456	367.187313	136290304	97660928	36875048	24992
457	368.191057	136290304	97660928	42473872	24992
458	370.756128	136560640	98185216	48707952	24992
459	376.528301	137101312	99233792	39132240	24992
460	376.794794	137641984	99233792	46716456	24992
461	383.751655	137641984	99233792	38446672	24992
462	382.849404	137641984	99233792	47341088	24992
463	387.678443	137641984	99233792	40392080	24992
464	390.027327	137641984	99233792	50609576	24992
465	362.262838	137641984	99233792	13386696	24992
466	345.542569	137641984	99233792	25587744	24992
467	349.023807	137641984	99233792	21964408	24992
468	354.930481	137912320	102379520	19003088	24992
469	360.720535	138452992	102379520	32890432	24992
470	364.104321	138993664	102379520	30593000	24992
471	369.242642	139534336	102379520	28937216	24992
472	369.114484	140075008	102379520	27967376	24992
473	373.803346	140615680	102379520	27670216	24992
474	378.066439	141156352	102379520	28048240	24992
475	380.952417	141156352	102379520	29061856	24992
476	382.151065	141156352	102379520	30737272	24992
477	384.786028	141156352	102379520	33074336	24992
478	387.929453	141156352	102379520	36072800	24992
479	391.652578	141156352	102379520	39709632	24992
480	399.340408	141156352	102379520	27513832	24992
481	400.501557	141156352	102379520	32501608	24992
482	404.570485	141156352	102379520	38140864	24992
483	404.651602	141156352	102379520	44446512	24992
484	410.471641	141156352	102379520	34892552	24992
485	412.456274	141156352	102379520	42516168	24992
486	417.237921	141156352	102379520	34289784	24992
487	418.378318	141156352	102379520	43230408	24992
488	423.983747	141156352	102379520	36326800	24992
489	423.991324	141156352	102379520	46590920	24992
490	432.264111	141156352	102379520	41010856	24992
491	429.625922	141156352	102379520	52611208	24992
492	438.619747	141156352	102379520	48375136	24992
493	386.927362	136437760	97660928	26701736	24992
494	365.002131	136437760	97660928	24461952	24992
495	372.191104	136437760	97660928	22907040	24992
496	378.317144	136708096	106573824	22015856	24992
497	383.860004	137248768	106573824	21375056	24992
498	393.4253	137789440	106573824	21099384	24992
499	389.65523	138600448	106573824	21485584	24992
500	394.787778	139141120	106573824	22536496	24992
