x	Duration	RSS	HeapTotal	HeapUsed	External
0	NA	122486784	83505152	12268328	24992
1	0.986491	122486784	83505152	12948856	24992
2	1.541619	122486784	83505152	14287224	24992
3	2.448157	122486784	83505152	16285024	24992
4	2.988802	122486784	83505152	18942264	24992
5	3.879395	122486784	83505152	22259592	24992
6	4.630217	122486784	83505152	26236440	24992
7	5.349672	122486784	83505152	14406856	24992
8	5.828069	122486784	83505152	19702800	24992
9	6.737628	122486784	83505152	25659848	24992
10	7.994836	122486784	83505152	15816776	24992
11	7.987629	122486784	83505152	23092432	24992
12	9.204322	122486784	83505152	14560080	24992
13	9.643748	122486784	83505152	23154728	24992
14	10.607585	122486784	83505152	15940864	24992
15	12.003021	122486784	83505152	25868632	24992
16	12.208194	122486784	83505152	19982120	24992
17	12.574744	122486784	83505152	14748616	24992
18	13.249565	122486784	83505152	26642888	24992
19	14.137054	122486784	83505152	22731440	24992
20	14.768234	122486784	83505152	19481224	24992
21	16.032065	122486784	83505152	16884728	24992
22	16.179672	122486784	83505152	14949664	24992
23	17.674088	122486784	83505152	13677384	24992
24	18.081568	122486784	83505152	13063400	24992
25	18.880167	122486784	83505152	13109952	24992
26	19.879634	122486784	83505152	13817232	24992
27	20.665474	122486784	83505152	15184920	24992
28	21.313473	122486784	83505152	17217208	24992
29	21.702151	122486784	83505152	19903992	24992
30	22.057775	122486784	83505152	23252024	24992
31	22.796729	122486784	83505152	27258688	24992
32	24.094704	122486784	83505152	15463576	24992
33	24.73189	122486784	83505152	20793128	24992
34	25.01139	122486784	83505152	26789512	24992
35	25.81646	122486784	83505152	16979448	24992
36	26.391563	122486784	83505152	24291184	24992
37	27.359261	122486784	83505152	15808808	24992
38	28.571435	122486784	83505152	24440968	24992
39	29.281604	122486784	83505152	17279160	24992
40	29.357889	122486784	83505152	27231992	24992
41	30.91225	122486784	83505152	21391608	24992
42	31.722247	122486784	83505152	16209968	24992
43	31.342362	122486784	83505152	28143528	24992
44	32.819247	122486784	83505152	24285200	24992
45	33.121845	122486784	83505152	21088288	24992
46	34.193442	122486784	83505152	18546952	24992
47	34.668383	122486784	83505152	16666752	24992
48	35.232116	122486784	83505152	15447792	24992
49	36.643085	122486784	83505152	14889648	24992
50	37.01812	122486784	83505152	14993192	24992
51	37.694776	122486784	83505152	15758160	24992
52	38.201847	122486784	83505152	17184128	24992
53	39.102781	122486784	83505152	19271152	24992
54	39.506563	122486784	83505152	22019000	24992
55	40.43844	122486784	83505152	25427632	24992
56	41.353803	122486784	83505152	29497248	24992
57	41.738977	122486784	83505152	17733184	24992
58	42.818093	122486784	83505152	23122520	24992
59	44.369052	122486784	83505152	29182096	24992
60	44.283219	122486784	83505152	19444320	24992
61	45.016677	122486784	83505152	26861696	24992
62	45.456285	122486784	83505152	18447896	24992
63	45.813361	122486784	83505152	27186832	24992
64	47.22871	122486784	83505152	20093776	24992
65	47.591591	122486784	83505152	30163512	24992
66	48.567272	122486784	83505152	24411256	24992
67	50.202908	122486784	83505152	19323200	24992
68	49.803674	122486784	83505152	31374000	24992
69	51.826328	122486784	83505152	27608024	24992
70	51.9513	122486784	83505152	24502856	24992
71	52.831028	122486784	83505152	22061168	24992
72	53.540875	122486784	83505152	20269904	24992
73	54.293638	122486784	83505152	19148176	24992
74	55.029988	122486784	83505152	18687976	24992
75	55.737832	122486784	83505152	18890496	24992
76	56.344551	122486784	83505152	19753664	24992
77	58.900355	122486784	83505152	21278352	24992
78	58.846703	122486784	83505152	23464264	24992
79	59.149643	122486784	83505152	26309808	24992
80	59.742623	122486784	83505152	29811800	24992
81	60.675951	122486784	83505152	17482024	24992
82	62.315854	122486784	83505152	22315976	24992
83	62.932298	122486784	83505152	27819248	24992
84	63.435584	122486784	83505152	33977752	24992
85	64.662566	122486784	83505152	24292984	24992
86	64.519359	122486784	83505152	31770608	24992
87	66.543639	122486784	83505152	23425304	24992
88	66.780069	122486784	83505152	32227832	24992
89	67.908385	122486784	83505152	25215632	24992
90	67.742951	122486784	83505152	35340088	24992
91	68.783595	122486784	83505152	29630616	24992
92	69.759901	122486784	83505152	24584232	24992
93	71.648906	122486784	83505152	20211608	24992
94	70.73682	122486784	83505152	32977816	24992
95	72.036625	122486784	83505152	29919448	24992
96	72.927121	122486784	83505152	27520336	24992
97	74.214872	122486784	83505152	25777208	24992
98	74.5963	122486784	83505152	24701960	24992
99	76.060227	122486784	83505152	24288664	24992
100	76.334212	122486784	83505152	24537328	24992
101	77.622354	122486784	83505152	25447672	24992
102	78.187137	122486784	83505152	27019208	24992
103	78.75938	122486784	83505152	29246672	24992
104	79.171502	122486784	83505152	32130616	24992
105	80.431265	122486784	83505152	35681472	24992
106	83.377454	122486784	83505152	23413408	24992
107	82.70939	122486784	83505152	28293200	24992
108	82.970336	122486784	83505152	33828768	24992
109	85.213963	122486784	83505152	23538232	24992
110	85.617938	122486784	83505152	30405512	24992
111	85.756777	122486784	83505152	37920680	24992
112	87.356837	122486784	83505152	29615728	24992
113	87.030445	122486784	83505152	38454056	24992
114	88.801129	122486784	83505152	31473080	24992
115	89.682123	122486784	83505152	25141000	24992
116	89.515602	122486784	83505152	35976432	24992
117	92.199902	122486784	83505152	30979944	24992
118	92.629756	122486784	83505152	26633240	24992
119	92.042157	122486784	83505152	39453688	24992
120	94.039164	122486784	83505152	36442400	24992
121	94.845009	122486784	83505152	34092376	24992
122	96.839081	122486784	83505152	32400192	24992
123	97.840967	122486784	83505152	31370048	24992
124	97.877284	122486784	83505152	30997424	24992
125	99.287412	122486784	83505152	31292904	24992
126	99.8818	122486784	83505152	32248616	24992
127	100.311917	122486784	84029440	33855240	24992
128	101.661057	122486784	84029440	36123968	24992
129	102.465506	122757120	84029440	39075552	24992
130	103.082929	123027456	84029440	42694600	24992
131	105.837698	123027456	84553728	30480344	24992
132	104.91602	123297792	84553728	35421184	24992
133	105.589956	123568128	85078016	41012488	24992
134	108.335232	123568128	85078016	30782952	24992
135	107.66007	123838464	85078016	37708664	24992
136	110.038096	124108800	85078016	28789552	24992
137	109.371306	124108800	85602304	37038200	24992
138	112.111825	124379136	85602304	29442616	24992
139	110.894956	124379136	85602304	39014696	24992
140	113.971422	124649472	85602304	32748360	24992
141	112.854412	124649472	86126592	43643824	24992
142	117.779413	124919808	86126592	38712216	24992
143	117.02846	124919808	86126592	34424856	24992
144	117.757382	124919808	86126592	30809472	24992
145	116.030545	124919808	86126592	44350936	24992
146	119.1538	124919808	86126592	42061768	24992
147	120.15022	124919808	86126592	40434280	24992
148	121.069402	124919808	86126592	39455680	24992
149	121.986624	124919808	86126592	39139784	24992
150	124.65543	124919808	86126592	39484680	24992
151	123.882891	124919808	86126592	40491256	24992
152	125.086631	124919808	86126592	42159248	24992
153	125.86765	124919808	86126592	44494944	24992
154	126.493062	124919808	86126592	47498672	24992
155	130.09941	124919808	86126592	34668480	24992
156	130.295796	124919808	86126592	38996824	24992
157	129.236857	124919808	86126592	43983440	24992
158	130.274237	124919808	86126592	49627336	24992
159	134.406573	124919808	86126592	39442888	24992
160	132.100898	125190144	86650880	46414576	24992
161	136.091925	125460480	86650880	37555704	24992
162	134.333473	125460480	86650880	45851352	24992
163	141.543101	125460480	86650880	38315064	24992
164	141.177423	125460480	86650880	47934176	24992
165	143.478058	125460480	86650880	41720984	24992
166	138.114229	125460480	86650880	52657664	24992
167	149.925927	122753024	84029440	27076208	24992
168	123.123573	122753024	84029440	22728744	24992
169	124.048715	122753024	84029440	19040696	24992
170	124.223217	122753024	84029440	16000880	24992
171	125.232163	122753024	84029440	30128568	24992
172	126.749601	122753024	84029440	28422248	24992
173	126.304425	122753024	85078016	27378104	24992
174	127.272711	122753024	88748032	26994624	24992
175	127.414656	123023360	92418048	27271880	24992
176	128.564944	123293696	96088064	28210056	24992
177	129.367729	123564032	99758080	29808648	24992
178	131.324346	123834368	99758080	15586184	24992
179	131.162536	123834368	99758080	18635328	24992
180	132.56955	124104704	99758080	22346352	24992
181	133.033817	124375040	99758080	26707328	24992
182	134.373658	124645376	99758080	31742792	24992
183	135.323195	124915712	99758080	20944576	24992
184	136.862813	124915712	99758080	27301024	24992
185	137.483534	125186048	99758080	34321184	24992
186	138.619268	125456384	99758080	25504472	24992
187	139.833143	125726720	99758080	33835960	24992
188	141.9865	125997056	99758080	26352672	24992
189	142.276124	126267392	99758080	19511792	24992
190	143.034129	126537728	99758080	29846480	24992
191	145.619665	126808064	99758080	24366816	24992
192	145.304676	127078400	99758080	36016936	24992
193	147.150571	127348736	99758080	31833600	24992
194	146.977427	127348736	99758080	28314112	24992
195	148.342914	127619072	99758080	25443760	24992
196	150.047172	127889408	99758080	23245416	24992
197	149.769485	128159744	99758080	38204208	24992
198	153.324722	128430080	99758080	37329296	24992
199	152.927496	128700416	99758080	37118256	24992
200	153.905499	128970752	99758080	37569080	24992
201	154.878146	129241088	99758080	38681168	24992
202	157.586655	129511424	99758080	23959536	24992
203	157.164416	130052096	99758080	26393152	24992
204	158.253658	130052096	99758080	29488680	24992
205	159.987411	130322432	99758080	33239640	24992
206	160.450713	130592768	99758080	37646632	24992
207	163.87101	130863104	99758080	26241360	24992
208	164.002894	131133440	99758080	31992168	24992
209	164.20204	131403776	99758080	38385024	24992
210	167.739102	131674112	99758080	28956864	24992
211	166.469618	131944448	99758080	36684240	24992
212	168.968747	132214784	99758080	28579000	24992
213	168.750659	132485120	99758080	37629600	24992
214	171.949662	132755456	99758080	30848048	24992
215	171.478266	133025792	99758080	41221544	24992
216	174.327872	133296128	99758080	35763288	24992
217	176.224124	133566464	99758080	30954064	24992
218	174.311478	133836800	99758080	43312784	24992
219	177.896259	134107136	99758080	39839200	24992
220	178.559268	134377472	99758080	37027304	24992
221	179.645724	134647808	99758080	34864384	24992
222	183.421969	134918144	99758080	33373504	24992
223	181.903239	135188480	99758080	32545576	24992
224	181.326995	135458816	99758080	48874088	24992
225	187.872557	135729152	99758080	32875992	24992
226	185.875092	135999488	99758080	34032696	24992
227	187.188775	136269824	99758080	35850920	24992
228	189.307176	136540160	99758080	38330720	24992
229	189.191941	136810496	99758080	41477568	24992
230	190.548357	137080832	99758080	45269792	24992
231	191.212456	137351168	99758080	49736016	24992
232	195.490074	137621504	99758080	38367176	24992
233	195.433711	137891840	99758080	44154832	24992
234	195.802596	138162176	99758080	50601120	24992
235	202.434183	138432512	99758080	41220000	24992
236	198.600847	138432512	99758080	48986976	24992
237	196.540444	138432512	99758080	25108248	24992
238	175.058952	138432512	99758080	18043808	24992
239	176.811376	138432512	99758080	28124576	24992
240	180.193978	138432512	99758080	22385808	24992
241	181.36843	138432512	99758080	17304000	24992
242	183.331343	138432512	99758080	29385736	24992
243	187.251413	138432512	99758080	25637928	24992
244	186.973463	138432512	99758080	22511600	24992
245	188.133029	138432512	99758080	19733856	24992
246	190.676904	138432512	99758080	34123832	24992
247	191.072925	138432512	99758080	32684048	24992
248	193.355049	138432512	99758080	31904592	24992
249	196.128018	138432512	99758080	31785552	24992
250	195.508549	138432512	99758080	32327848	24992
251	201.579018	138432512	99758080	33531760	24992
252	199.557117	138432512	99758080	35410000	24992
253	202.090952	138432512	99758080	21443704	24992
254	203.993178	138432512	99758080	24656520	24992
255	203.15736	138432512	99758080	28505768	24992
256	206.353757	138432512	99758080	33006096	24992
257	205.726933	138432512	100282368	38209712	24992
258	209.543643	138702848	100282368	27579840	24992
259	208.659179	138973184	100806656	34093648	24992
260	211.692387	139243520	100806656	24786808	24992
261	212.391637	139513856	100806656	32635472	24992
262	213.195623	139513856	100806656	41140616	24992
263	217.162131	139513856	100806656	33816296	24992
264	218.284343	139513856	100806656	27149656	24992
265	217.267948	139513856	100806656	37644704	24992
266	220.979556	139513856	100806656	32307504	24992
267	221.610421	139513856	100806656	44123080	24992
268	225.157995	139513856	100806656	40108832	24992
269	225.741053	139513856	100806656	36756888	24992
270	230.261682	139513856	100806656	34059920	24992
271	229.257753	139513856	100806656	32018224	24992
272	232.042946	139513856	100806656	30649432	24992
273	229.121068	139513856	100806656	46437200	24992
274	236.825244	139513856	100806656	46391296	24992
275	236.661854	139513856	100806656	47011008	24992
276	238.623183	139513856	100806656	48290440	24992
277	242.940965	139513856	100806656	33734432	24992
278	243.764886	139513856	100806656	36337952	24992
279	241.818976	139513856	100806656	39601216	24992
280	244.845384	139513856	100806656	43529504	24992
281	244.881895	139513856	100806656	48117944	24992
282	250.794694	139513856	100806656	36872648	24992
283	248.316541	139513856	100806656	42783336	24992
284	249.776309	139513856	100806656	49343872	24992
285	255.413973	139513856	100806656	40083960	24992
286	241.934534	137457664	98709504	13662088	24992
287	209.763659	137457664	98709504	22014896	24992
288	210.580964	137457664	98709504	14536624	24992
289	212.169426	137457664	98709504	24211792	24992
290	211.984192	137457664	98709504	18053080	24992
291	212.397094	137457664	98709504	29043016	24992
292	214.247565	137457664	98709504	24208104	24992
293	214.494083	137457664	98709504	20043552	24992
294	215.768778	137457664	98709504	16725528	24992
295	218.771208	137457664	98709504	30575200	24992
296	218.733004	137457664	98709504	28594240	24992
297	220.299978	137457664	98709504	27273696	24992
298	222.205256	137457664	98709504	26629536	24992
299	223.427066	137457664	98709504	26632056	24992
300	227.441294	137457664	98709504	27306176	24992
301	227.733029	137457664	98709504	28642760	24992
302	228.836792	137457664	98709504	30630632	24992
303	229.767544	137457664	98709504	33279944	24992
304	231.029936	137457664	98709504	36590528	24992
305	233.736581	137457664	98709504	24068408	24992
306	234.670847	137457664	98709504	28701864	24992
307	238.356116	137457664	98709504	33986792	24992
308	236.849169	137457664	98709504	39945584	24992
309	240.1762	137457664	98709504	30068024	24992
310	240.392628	137457664	98709504	37337144	24992
311	246.880252	137457664	98709504	28793632	24992
312	246.083854	137457664	98709504	37401176	24992
313	252.036687	137457664	98709504	30172704	24992
314	247.909089	137457664	98709504	40093608	24992
315	253.318763	137457664	98709504	34189416	24992
316	250.901284	137457664	98709504	45428400	24992
317	261.908423	137457664	98709504	40847656	24992
318	258.008839	137457664	99233792	36926520	24992
319	260.176834	137728000	99233792	33661056	24992
320	257.099323	137998336	99233792	47551536	24992
321	261.120098	137998336	99233792	45615240	24992
322	262.70945	137998336	99233792	44342152	24992
323	265.02822	137998336	99233792	43728280	24992
324	267.027788	137998336	99758080	43777600	24992
325	267.815982	138268672	99758080	44488536	24992
326	269.684341	138539008	99758080	45863272	24992
327	271.937131	138539008	99758080	47897528	24992
328	273.604508	138539008	99758080	50594576	24992
329	278.464943	138539008	99758080	37458296	24992
330	277.45709	138539008	99758080	41476408	24992
331	262.908993	138539008	99758080	22010232	24992
332	249.990853	138539008	99758080	27842304	24992
333	248.826166	138539008	99758080	17817136	24992
334	255.593348	138539008	99758080	24961760	24992
335	254.327519	138539008	103952384	32782072	24992
336	258.623815	139079680	104476672	24497432	24992
337	259.071323	139620352	104476672	33147896	24992
338	266.416902	139890688	104476672	25962528	24992
339	264.179554	140431360	104476672	19441992	24992
340	269.294398	140972032	104476672	30076408	24992
341	268.755771	141512704	104476672	24881672	24992
342	272.75171	142053376	104476672	36840840	24992
343	274.660352	142594048	104476672	32981312	24992
344	275.900488	143134720	104476672	29792632	24992
345	279.096321	143134720	104476672	27241856	24992
346	279.378124	143134720	104476672	25340192	24992
347	283.066931	143134720	104476672	24110640	24992
348	283.943679	143134720	104476672	40038456	24992
349	286.620767	143134720	104476672	40131504	24992
350	289.126763	143134720	104476672	40888512	24992
351	290.172589	143134720	104476672	42307408	24992
352	297.108591	143134720	104476672	27891736	24992
353	295.568495	143134720	104476672	30642048	24992
354	297.483677	143134720	104476672	34036272	24992
355	298.85866	143134720	104476672	38089568	24992
356	301.581744	143134720	104476672	42816872	24992
357	310.114611	143134720	104476672	31709536	24992
358	304.512033	143134720	104476672	37758368	24992
359	307.149312	143134720	104476672	44464264	24992
360	311.708176	143134720	104476672	35357888	24992
361	310.549911	143134720	104476672	43380776	24992
362	316.810788	143134720	104476672	35582856	24992
363	315.230649	143134720	104476672	44939864	24992
364	320.23188	143134720	104476672	38465088	24992
365	319.754383	143134720	104476672	49134408	24992
366	324.604636	143134720	104476672	43983704	24992
367	328.761246	143134720	104476672	39493912	24992
368	302.826652	140591104	101855232	17766904	24992
369	272.307829	140591104	101855232	14364072	24992
370	272.099163	140591104	101855232	28114584	24992
371	270.674986	140591104	101855232	26009472	24992
372	273.600166	140591104	101855232	24567128	24992
373	272.63409	140591104	101855232	23793480	24992
374	274.850134	140591104	101855232	23936064	24992
375	276.959435	140591104	101855232	24740120	24992
376	279.072485	140591104	101855232	26205704	24992
377	280.095575	140591104	101855232	28333032	24992
378	282.787754	140591104	101855232	31125248	24992
379	286.897608	140591104	101855232	34592920	24992
380	289.753782	140591104	102379520	22227080	24992
381	290.064769	141131776	102903808	26993800	24992
382	291.968	141672448	103428096	32423248	24992
383	293.254459	142213120	103952384	38520480	24992
384	297.041585	142753792	104476672	28783176	24992
385	298.364116	143294464	105000960	36192616	24992
386	304.898218	143835136	105525248	27780472	24992
387	302.243156	144375808	106049536	36512104	24992
388	310.008845	144916480	106573824	29433000	24992
389	307.372282	145186816	107098112	39497088	24992
390	310.240189	145727488	107622400	33731232	24992
391	315.723966	146268160	108146688	28620056	24992
392	314.693862	146808832	108670976	40670768	24992
393	316.429565	147349504	109195264	36887608	24992
394	320.421176	147890176	109719552	33768168	24992
395	320.734284	148430848	110243840	31297496	24992
396	321.348676	148971520	110768128	45994320	24992
397	325.86489	149512192	111292416	44859832	24992
398	327.343309	150052864	111816704	44387288	24992
399	329.884325	150593536	112340992	44576024	24992
400	334.040171	151134208	112865280	45427920	24992
401	334.565864	151674880	113389568	46940056	24992
402	337.967055	152215552	113913856	49114872	24992
403	339.526463	152756224	114438144	51951544	24992
404	325.036511	146735104	108146688	18276656	24992
405	295.825248	146735104	108146688	22136288	24992
406	296.432287	146735104	108146688	26668456	24992
407	299.285472	146735104	108146688	15368032	24992
408	297.924084	147005440	109195264	21220272	24992
409	300.418555	147275776	109195264	27740464	24992
410	302.319164	147546112	109195264	18713688	24992
411	306.25735	147816448	109195264	26829664	24992
412	306.552412	147816448	109195264	19135704	24992
413	308.667936	147816448	109195264	28585984	24992
414	312.093047	147816448	109195264	22229560	24992
415	314.068513	147816448	109195264	33000672	24992
416	319.914095	147816448	109195264	27943384	24992
417	318.031757	147816448	109195264	23548576	24992
418	320.774884	147816448	109195264	36301944	24992
419	324.376677	147816448	109195264	33230136	24992
420	324.529679	147816448	109195264	30818480	24992
421	327.548972	147816448	109195264	29068952	24992
422	333.843127	147816448	109195264	27969000	24992
423	335.393883	147816448	109195264	27548656	24992
424	335.377083	147816448	109195264	27776256	24992
425	339.512057	147816448	109195264	28670920	24992
426	338.666134	147816448	109195264	30227160	24992
427	344.051704	147816448	109195264	32439504	24992
428	347.468259	147816448	109195264	35308616	24992
429	346.478251	147816448	109195264	38839136	24992
430	348.17447	147816448	109195264	43043728	24992
431	351.268372	147816448	109195264	47910928	24992
432	356.069226	147816448	109195264	36941096	24992
433	355.835273	147816448	109195264	43118288	24992
434	357.944106	147816448	109195264	49972800	24992
435	363.950318	147816448	109195264	40990640	24992
436	363.315754	147816448	109719552	49160672	24992
437	370.370664	148357120	110243840	41501432	24992
438	345.722384	147288064	108670976	26108712	24992
439	326.627111	147288064	108670976	20390968	24992
440	329.398171	147288064	108670976	15359464	24992
441	337.790875	147288064	108670976	27483952	24992
442	338.473351	147288064	108670976	23424432	24992
443	342.562985	147288064	108670976	19736344	24992
444	348.192469	147288064	108670976	33204704	24992
445	350.917459	147288064	108670976	30840544	24992
446	351.106934	147288064	108670976	29136032	24992
447	355.451111	147288064	108670976	28105904	24992
448	359.852577	147288064	108670976	27742896	24992
449	360.470344	147288064	108670976	28050328	24992
450	364.756896	147288064	108670976	29011552	24992
451	370.803914	147288064	108670976	30640640	24992
452	370.668663	147288064	108670976	32931608	24992
453	372.913556	147288064	108670976	35901960	24992
454	380.457205	147288064	108670976	39524152	24992
455	382.984402	147288064	108670976	43776576	24992
456	389.520988	147288064	108670976	32216200	24992
457	387.588763	147288064	108670976	37802272	24992
458	391.449003	147288064	108670976	44062352	24992
459	397.09192	147288064	108670976	34466496	24992
460	397.798782	147288064	108670976	42037464	24992
461	403.420118	147288064	108670976	33763488	24992
462	402.438134	147288064	109195264	42658464	24992
463	409.808593	148099072	109719552	35731424	24992
464	411.163913	148369408	110243840	45948680	24992
465	417.060908	148910080	110768128	40321808	24992
466	417.255033	149450752	111292416	51863200	24992
467	384.281066	145797120	107098112	13218680	24992
468	350.654813	145797120	107098112	26070984	24992
469	356.16298	145797120	107098112	23789304	24992
470	359.533481	145797120	107098112	22155440	24992
471	361.382812	145797120	107098112	20811272	24992
472	364.012177	145797120	107098112	19827888	24992
473	371.271886	145797120	107098112	19505336	24992
474	374.612958	145797120	107098112	36348368	24992
475	375.572572	145797120	107098112	20869312	24992
476	380.379074	145797120	107098112	22570416	24992
477	386.353493	145797120	107098112	24895496	24992
478	383.363787	145797120	107098112	27882408	24992
479	384.336198	145797120	107098112	31536496	24992
480	386.799225	145797120	107098112	35859272	24992
481	392.44921	145797120	107098112	40820840	24992
482	395.405337	145797120	107098112	29944008	24992
483	396.812468	145797120	107098112	36257448	24992
484	398.238509	146067456	107622400	43227096	24992
485	403.451458	146608128	108146688	34336272	24992
486	405.240074	146878464	108146688	42628096	24992
487	408.94863	146878464	108146688	35062528	24992
488	410.400226	146878464	108146688	44665000	24992
489	415.304726	146878464	108146688	38422832	24992
490	415.030108	146878464	108146688	49361232	24992
491	423.8953	146878464	108146688	44463552	24992
492	425.614974	146878464	108146688	40230696	24992
493	426.948738	146878464	108146688	36662168	24992
494	428.664983	146878464	108146688	50239376	24992
495	396.565516	144289792	105525248	13205240	24992
496	367.487705	144289792	105525248	27730944	24992
497	368.88382	144289792	105525248	26428848	24992
498	369.303375	144289792	105525248	25797312	24992
499	375.741442	144289792	105525248	26481080	24992
500	378.08115	144289792	105525248	27517720	24992
