x	Duration	RSS	HeapTotal	HeapUsed	External
0	NA	113762304	75116544	12266864	24992
1	0.951178	113762304	75116544	12946992	24992
2	1.601624	113762304	75116544	14285360	24992
3	2.440442	113762304	75116544	16283064	24992
4	2.990788	113762304	75116544	18940304	24992
5	3.709074	113762304	75116544	22257664	24992
6	4.458667	113762304	75116544	26234512	24992
7	5.333831	113762304	75116544	14404848	24992
8	6.056453	113762304	75116544	19700792	24992
9	6.520653	113762304	75116544	25657256	24992
10	7.703348	113762304	75116544	15814088	24992
11	7.978655	113762304	75116544	23089696	24992
12	9.994154	113762304	75116544	14571968	24992
13	9.44952	113762304	75116544	23166616	24992
14	11.433193	113762304	75116544	15957080	24992
15	11.012125	113762304	75116544	25869808	24992
16	12.485223	113762304	75116544	19982176	24992
17	12.8211	113762304	75116544	14747504	24992
18	13.272194	113762304	75116544	26640720	24992
19	14.331822	113762304	75116544	22727976	24992
20	14.921447	113762304	75116544	19476320	24992
21	16.009142	113762304	75116544	16880008	24992
22	16.53746	113762304	75116544	14945520	24992
23	17.474131	113762304	75116544	13671672	24992
24	18.105092	113762304	75116544	13057984	24992
25	18.6307	113762304	75116544	13103384	24992
26	19.858003	113762304	75116544	13808760	24992
27	20.210758	113762304	75116544	15174592	24992
28	20.376513	113762304	75116544	17200912	24992
29	22.37933	113762304	75116544	19887696	24992
30	22.386434	113762304	75116544	23234088	24992
31	22.8932	113762304	75116544	27240784	24992
32	24.015912	113762304	75116544	15442704	24992
33	24.498601	113762304	75116544	20771712	24992
34	25.134655	113762304	75116544	26767640	24992
35	26.018831	113762304	75116544	16957480	24992
36	26.708415	113762304	75116544	24268792	24992
37	27.742454	113762304	75116544	15783344	24992
38	28.28094	113762304	75116544	24412464	24992
39	29.305152	113762304	75116544	17247584	24992
40	29.249595	113762304	75116544	27197104	24992
41	30.298154	113762304	75116544	21353488	24992
42	30.948961	113762304	75116544	16168440	24992
43	31.830672	113762304	75116544	28098480	24992
44	32.789226	113762304	75116544	24236440	24992
45	33.232754	113762304	75116544	21035960	24992
46	34.150033	113762304	75116544	18490848	24992
47	34.838269	113762304	75116544	16606792	24992
48	35.477694	113762304	75116544	15384184	24992
49	36.360437	113762304	75116544	14822040	24992
50	37.231724	113762304	75116544	14921568	24992
51	37.76586	113762304	75116544	15682376	24992
52	38.275354	113762304	75116544	17105600	24992
53	39.106903	113762304	75116544	19188400	24992
54	39.478954	113762304	75116544	21931928	24992
55	41.232945	113762304	75116544	25336096	24992
56	40.677733	113762304	75116544	29400176	24992
57	42.234529	113762304	75116544	17634272	24992
58	42.902897	113762304	75116544	23021736	24992
59	44.293462	113762304	75116544	29078376	24992
60	45.118335	113762304	75116544	19347144	24992
61	44.960947	113762304	75116544	26763744	24992
62	45.722469	113762304	75116544	18346992	24992
63	46.476368	113762304	75116544	27087480	24992
64	47.618054	113762304	75116544	20003688	24992
65	48.063364	113762304	75116544	30073184	24992
66	48.736848	113762304	75116544	24321376	24992
67	49.442146	113762304	75116544	19232936	24992
68	50.194119	113762304	75116544	31283464	24992
69	50.712463	113762304	75116544	27514856	24992
70	51.931787	113762304	75116544	24409424	24992
71	52.35835	113762304	75116544	21967416	24992
72	54.238169	113762304	75116544	20175912	24992
73	54.156809	113762304	75116544	19053880	24992
74	55.010818	113762304	75116544	18593424	24992
75	56.170693	113762304	75116544	18794472	24992
76	56.182794	113762304	75116544	19657176	24992
77	57.347593	113762304	75116544	21181512	24992
78	57.72193	113762304	75116544	23367600	24992
79	58.636784	113762304	75116544	26212824	24992
80	59.491844	113762304	75116544	29714528	24992
81	60.261718	113762304	75116544	33872192	24992
82	61.63687	113762304	75116544	22219136	24992
83	61.614171	113762304	75116544	27714040	24992
84	63.49094	113762304	75116544	33872768	24992
85	64.467108	113762304	75116544	24191216	24992
86	64.404849	113762304	75116544	31670680	24992
87	65.827866	113762304	75116544	23318576	24992
88	66.700573	114032640	75116544	32129384	24992
89	67.246823	114032640	75116544	25100616	24992
90	67.131344	114032640	75116544	35224832	24992
91	70.316153	114032640	75116544	29530024	24992
92	69.404713	114032640	75116544	24483384	24992
93	71.461497	114032640	75116544	20110552	24992
94	71.125717	114032640	75116544	32876600	24992
95	72.217158	114032640	75116544	29817912	24992
96	73.617277	114032640	75116544	27415696	24992
97	74.11242	114032640	75116544	25668528	24992
98	74.818291	114032640	75116544	24593328	24992
99	75.232231	114032640	75116544	24179824	24992
100	75.846595	114032640	75116544	24428312	24992
101	77.239655	114032640	75116544	25338864	24992
102	79.434052	114032640	75116544	26910256	24992
103	78.819905	114032640	75116544	29142848	24992
104	79.601492	114032640	75116544	32026488	24992
105	80.200024	114032640	75116544	35574192	24992
106	82.148921	114032640	75116544	23302664	24992
107	82.188817	114032640	75116544	28182216	24992
108	83.354797	114032640	75116544	33717784	24992
109	84.335094	114032640	75116544	23427168	24992
110	84.114243	114032640	75116544	30291600	24992
111	85.498257	114032640	75116544	37806624	24992
112	87.389383	114032640	75116544	29501496	24992
113	86.780619	114032640	75116544	38339600	24992
114	88.819853	114032640	75116544	31358448	24992
115	89.705528	114032640	75116544	25025888	24992
116	90.286653	114032640	75116544	35863880	24992
117	91.081009	114032640	75116544	30867072	24992
118	91.849625	114032640	75116544	26519312	24992
119	91.791244	114032640	75116544	39339440	24992
120	93.961831	114032640	75116544	36327656	24992
121	94.67694	114032640	75116544	33977280	24992
122	96.232681	114032640	75116544	32276160	24992
123	96.869086	114032640	75116544	31236416	24992
124	98.253925	114032640	75116544	30863648	24992
125	99.608112	114032640	75116544	31157944	24992
126	99.371581	114032640	75116544	32113688	24992
127	100.7622	114032640	75116544	33727040	24992
128	101.306049	114032640	75116544	35995832	24992
129	102.032938	114032640	75116544	38941032	24992
130	102.567157	114032640	75116544	42560024	24992
131	105.37906	114032640	75116544	30344920	24992
132	104.55578	114032640	75116544	35285888	24992
133	105.266739	114032640	75116544	40877208	24992
134	110.215762	114032640	75116544	30647672	24992
135	108.252532	114032640	75116544	37573480	24992
136	110.088159	114032640	75116544	28654304	24992
137	108.835562	114032640	75116544	36903016	24992
138	112.323	114032640	75116544	29307480	24992
139	112.662416	114032640	75116544	38879640	24992
140	113.69519	114032640	75116544	32613160	24992
141	112.784387	114032640	75116544	43508624	24992
142	115.669652	114032640	75640832	38576808	24992
143	119.073074	114302976	75640832	34289016	24992
144	117.898716	114302976	75640832	30674080	24992
145	116.295773	114573312	75640832	44218744	24992
146	119.131325	114573312	75640832	41929480	24992
147	120.494814	114573312	75640832	40302040	24992
148	121.127528	114573312	75640832	39323488	24992
149	122.531979	114573312	75640832	39006840	24992
150	123.699717	114573312	75640832	39351912	24992
151	125.168479	114573312	75640832	40358568	24992
152	125.719842	114573312	75640832	42026656	24992
153	126.176553	114573312	75640832	44356056	24992
154	126.891821	114573312	75640832	47359848	24992
155	132.27417	114573312	75640832	34529880	24992
156	129.104908	114573312	75640832	38855680	24992
157	130.211973	114573312	75640832	43842360	24992
158	130.883495	114573312	75640832	49486064	24992
159	136.73927	114573312	75640832	39303168	24992
160	133.410405	114573312	75640832	46274824	24992
161	136.991013	114573312	75640832	37416080	24992
162	135.005134	114573312	75640832	45711776	24992
163	138.77978	114573312	75640832	38175408	24992
164	137.119118	114573312	75640832	47794296	24992
165	140.611813	114573312	75640832	41581056	24992
166	139.199961	114573312	75640832	52517512	24992
167	149.588232	114204672	76689408	27139920	24992
168	123.837299	114204672	76689408	22817768	24992
169	123.949848	114204672	76689408	19140552	24992
170	125.048113	114204672	76689408	16113080	24992
171	125.308902	114204672	76689408	13745584	24992
172	125.216599	114475008	76689408	28533648	24992
173	125.795729	114475008	76689408	27488800	24992
174	128.755477	114745344	76689408	27104568	24992
175	127.203423	115015680	76689408	27382032	24992
176	127.873669	115015680	76689408	28320416	24992
177	128.693239	115015680	76689408	29918944	24992
178	133.537072	115015680	77213696	15695632	24992
179	130.809915	115286016	77213696	18745032	24992
180	131.928811	115556352	77213696	22455560	24992
181	132.411418	115556352	77213696	26816760	24992
182	134.728033	115556352	77213696	31855408	24992
183	134.956902	115556352	77213696	21058312	24992
184	136.383319	115556352	77213696	27414792	24992
185	137.234897	115556352	77213696	17940056	24992
186	138.243344	115556352	77213696	25620304	24992
187	140.599829	115556352	77213696	33959984	24992
188	140.601381	115556352	77213696	26475592	24992
189	145.299497	115556352	77213696	19634440	24992
190	143.420783	115556352	77213696	29969064	24992
191	144.890024	115556352	77213696	24488824	24992
192	144.058006	115556352	77213696	36133576	24992
193	146.642056	115556352	77213696	31950400	24992
194	146.293212	115556352	77213696	28434000	24992
195	148.451569	115556352	77213696	25563584	24992
196	149.554029	115556352	77213696	23365320	24992
197	149.013937	115556352	77213696	38324160	24992
198	151.59611	115556352	77213696	37449056	24992
199	152.457035	115556352	77213696	37238312	24992
200	153.856773	115556352	77213696	37689256	24992
201	155.025955	115556352	77213696	38801136	24992
202	157.400461	115556352	77213696	24078496	24992
203	157.294941	115556352	77213696	26511888	24992
204	157.878351	115556352	77213696	29607352	24992
205	158.432375	115556352	77213696	33352848	24992
206	162.693584	115556352	77213696	37759920	24992
207	163.310692	115556352	77213696	26346384	24992
208	163.600249	115556352	77213696	32096448	24992
209	166.830117	115556352	77213696	38498664	24992
210	165.34463	115556352	77213696	29070376	24992
211	166.396683	115556352	77213696	36798136	24992
212	168.55603	115556352	77213696	28693296	24992
213	168.069578	115556352	77213696	37743992	24992
214	170.534841	115556352	77213696	30962712	24992
215	170.018082	115556352	77213696	41336392	24992
216	172.524627	115556352	77213696	35878064	24992
217	177.485128	115556352	77213696	31068712	24992
218	173.238231	115556352	77213696	43427336	24992
219	177.913597	115556352	77213696	39954584	24992
220	177.878775	115556352	77213696	37143136	24992
221	182.064888	115556352	77213696	34980360	24992
222	179.884011	115556352	77213696	33489768	24992
223	184.855355	115556352	77213696	32661512	24992
224	183.248915	115556352	77213696	32495088	24992
225	184.389802	115556352	77213696	32990832	24992
226	186.15475	115556352	77213696	34147856	24992
227	187.081082	115556352	77213696	35966400	24992
228	187.189927	115556352	77213696	38446216	24992
229	189.944688	115556352	77213696	41593016	24992
230	189.279567	115556352	77213696	45385176	24992
231	191.034883	115556352	77213696	49851560	24992
232	195.048628	115556352	77213696	38484992	24992
233	193.49781	115556352	77213696	44272760	24992
234	194.445581	115556352	77213696	50718576	24992
235	198.51034	115556352	77213696	41339232	24992
236	197.606446	115556352	77213696	49106448	24992
237	196.743706	115826688	77737984	25828216	24992
238	175.510403	115826688	77737984	18764640	24992
239	176.815245	115826688	77737984	28845488	24992
240	178.824924	115826688	78786560	23107136	24992
241	180.543114	116367360	84029440	18031544	24992
242	181.810431	116908032	88748032	30112848	24992
243	184.47662	117719040	93990912	26364976	24992
244	187.187726	117989376	93990912	23208808	24992
245	188.381414	118530048	93990912	20431000	24992
246	189.479394	118800384	93990912	18325376	24992
247	189.871618	119070720	93990912	33377032	24992
248	192.752769	119341056	93990912	32594824	24992
249	193.497084	119611392	93990912	32474520	24992
250	198.554912	119881728	93990912	33017424	24992
251	196.021052	120152064	93990912	34221960	24992
252	200.484304	120692736	93990912	36091592	24992
253	200.684736	120963072	93990912	22122896	24992
254	203.530271	121233408	93990912	25335712	24992
255	204.941363	121503744	93990912	29179672	24992
256	204.134924	121774080	93990912	33680112	24992
257	205.603802	122044416	93990912	38884336	24992
258	208.208065	122585088	93990912	28252464	24992
259	208.049221	122855424	93990912	34766368	24992
260	210.72288	123125760	93990912	25459752	24992
261	210.977173	123396096	93990912	33308432	24992
262	214.120968	123666432	93990912	41819824	24992
263	215.717903	124207104	93990912	34497120	24992
264	221.167699	124477440	93990912	27836936	24992
265	215.980877	124747776	93990912	38331920	24992
266	220.374797	125288448	93990912	32994848	24992
267	223.571279	125558784	93990912	28315080	24992
268	221.433746	125829120	93990912	40796288	24992
269	225.315198	126099456	93990912	37443768	24992
270	226.544418	126640128	93990912	34753080	24992
271	231.201995	126910464	93990912	32711496	24992
272	230.400404	127180800	93990912	31342000	24992
273	232.25869	127451136	93990912	47129880	24992
274	233.16986	127991808	93990912	47084296	24992
275	236.631079	128262144	93990912	47699928	24992
276	235.672532	128532480	93990912	48977184	24992
277	243.760069	129073152	93990912	34422440	24992
278	239.977516	129343488	93990912	37024248	24992
279	241.306461	129613824	93990912	40281920	24992
280	242.483187	129884160	93990912	44196136	24992
281	243.966309	130424832	93990912	48784416	24992
282	249.71164	130695168	93990912	37539840	24992
283	248.071893	130965504	93990912	43449648	24992
284	250.587468	131235840	93990912	50030464	24992
285	255.175058	131776512	93990912	40770360	24992
286	240.886261	132046848	93990912	14174456	24992
287	208.908489	132046848	93990912	22526768	24992
288	210.011032	132046848	93990912	15046624	24992
289	211.143539	132046848	93990912	24722576	24992
290	212.523883	132046848	93990912	18563976	24992
291	212.499111	132046848	93990912	29548416	24992
292	214.462333	132046848	93990912	24712784	24992
293	215.598356	132046848	93990912	20548184	24992
294	216.001511	132046848	93990912	17230096	24992
295	216.383367	132046848	93990912	31079640	24992
296	220.028655	132046848	93990912	29095592	24992
297	224.181243	132046848	93990912	27774264	24992
298	223.461991	132046848	93990912	27118016	24992
299	227.175305	132046848	93990912	27128728	24992
300	225.670694	132046848	93990912	27800208	24992
301	228.102733	132046848	93990912	29150824	24992
302	227.452178	132046848	93990912	31138504	24992
303	229.618304	132046848	93990912	33787752	24992
304	231.248063	132046848	93990912	37099232	24992
305	234.322147	132317184	93990912	24575464	24992
306	234.148212	132317184	93990912	29208536	24992
307	234.984118	132317184	93990912	34493160	24992
308	240.642584	132317184	93990912	40451888	24992
309	240.591679	132317184	93990912	30574920	24992
310	243.464135	132317184	93990912	37844168	24992
311	245.434094	132317184	93990912	29301664	24992
312	249.624832	132317184	93990912	37909616	24992
313	245.969268	132317184	93990912	30680968	24992
314	250.203593	132317184	93990912	40596120	24992
315	250.023011	132317184	93990912	34691144	24992
316	251.393662	132317184	93990912	29434496	24992
317	250.684196	132317184	93990912	41346008	24992
318	255.982975	132317184	93990912	37424920	24992
319	255.541766	132317184	93990912	34159552	24992
320	263.090869	132317184	93990912	31549608	24992
321	257.806062	132317184	93990912	46108608	24992
322	262.927345	132317184	94515200	44835360	24992
323	261.849262	132587520	94515200	44223360	24992
324	265.590494	133128192	95039488	44272712	24992
325	265.756886	133398528	95563776	44984016	24992
326	268.779835	133668864	95563776	46359040	24992
327	269.371483	133939200	96088064	48392832	24992
328	271.313699	134209536	96088064	51089400	24992
329	277.026308	134750208	96612352	37952368	24992
330	275.724319	135020544	96612352	41970112	24992
331	264.891632	133283840	94515200	21176288	24992
332	245.417859	133283840	94515200	27008376	24992
333	248.80661	133283840	94515200	16984056	24992
334	250.592548	133283840	94515200	24134032	24992
335	253.732522	133283840	96088064	31954968	24992
336	257.43428	133824512	96612352	23672760	24992
337	260.479585	134094848	96612352	32317040	24992
338	261.153785	134635520	96612352	25135768	24992
339	261.900239	135176192	96612352	35103896	24992
340	265.942666	135176192	96612352	29243384	24992
341	268.541187	135176192	96612352	24046152	24992
342	272.103776	135176192	96612352	35997016	24992
343	275.79154	135176192	96612352	32150824	24992
344	274.316451	135176192	96612352	28938544	24992
345	276.314617	135176192	96612352	26381568	24992
346	282.158427	135176192	96612352	24480112	24992
347	278.358139	135176192	96612352	39745824	24992
348	282.23119	135176192	96612352	39178424	24992
349	284.699167	135176192	96612352	39274432	24992
350	286.704921	135176192	96612352	40032928	24992
351	287.27038	135176192	96612352	41452192	24992
352	292.52661	135176192	96612352	43533928	24992
353	298.592839	135176192	96612352	29794576	24992
354	294.732148	135176192	96612352	33197680	24992
355	297.30341	135176192	96612352	37251152	24992
356	298.566861	135176192	96612352	41978536	24992
357	306.324545	135176192	96612352	30873648	24992
358	302.833745	135176192	96612352	36922912	24992
359	303.878955	135176192	96612352	43622688	24992
360	310.297392	135176192	96612352	34515816	24992
361	308.440004	135176192	96612352	42544040	24992
362	315.904513	135446528	97136640	34746200	24992
363	314.955654	135716864	97136640	44102824	24992
364	319.620403	135716864	97136640	37628512	24992
365	317.678058	135716864	97136640	48303280	24992
366	325.661339	135716864	97136640	43152848	24992
367	325.761814	135716864	97136640	38663120	24992
368	302.001767	135716864	97136640	17144688	24992
369	274.03426	135716864	97136640	13950224	24992
370	274.813366	135716864	97136640	28484768	24992
371	277.038602	135716864	97136640	27163960	24992
372	279.668948	135716864	97136640	26530464	24992
373	281.401983	135716864	97136640	26309464	24992
374	283.486172	135716864	97136640	26451960	24992
375	286.38391	135716864	97136640	27255704	24992
376	288.768989	135716864	97136640	28721088	24992
377	291.806804	135716864	97136640	30851664	24992
378	293.451396	135716864	97136640	33653312	24992
379	295.403082	135716864	97136640	37112096	24992
380	300.68823	135716864	97136640	24758312	24992
381	298.91955	135716864	97136640	29519904	24992
382	302.640275	135716864	97136640	34955632	24992
383	307.504658	135716864	97136640	24559008	24992
384	305.622183	135716864	97136640	31316520	24992
385	306.992538	135716864	97136640	38738360	24992
386	311.3036	135716864	97136640	30326584	24992
387	310.453849	135716864	97136640	39058072	24992
388	318.532439	135716864	97136640	31988184	24992
389	316.082758	135716864	97136640	42042800	24992
390	321.244956	135716864	97136640	36276544	24992
391	323.800624	135716864	97136640	31171856	24992
392	320.421074	135716864	97136640	43221976	24992
393	327.582957	135716864	97136640	39440976	24992
394	327.885176	135716864	97136640	36320944	24992
395	330.478659	135716864	97136640	33850384	24992
396	329.484188	135716864	97136640	48546632	24992
397	334.244476	135716864	97136640	47408528	24992
398	337.456213	135716864	97136640	46935664	24992
399	337.796266	135716864	97136640	47124624	24992
400	342.706967	135716864	97136640	47975656	24992
401	341.748518	135716864	97136640	49488464	24992
402	325.533325	135716864	97136640	15516872	24992
403	297.389299	135716864	97136640	18096144	24992
404	296.536179	135716864	97136640	21318000	24992
405	299.387129	135716864	97136640	25189520	24992
406	296.844335	135716864	97136640	29728816	24992
407	301.29608	135716864	97136640	18928784	24992
408	304.093311	135716864	97136640	25059904	24992
409	305.8705	135716864	97136640	31865088	24992
410	312.936596	135716864	97136640	22845856	24992
411	310.218081	135716864	97136640	30962688	24992
412	314.458881	135983104	97136640	23291224	24992
413	316.233616	135983104	97136640	32730976	24992
414	316.681619	135983104	97136640	26350560	24992
415	319.45155	135983104	97136640	37113008	24992
416	324.33057	135983104	97136640	32053544	24992
417	326.602243	135983104	97136640	27658736	24992
418	330.586515	135983104	97136640	40407072	24992
419	328.254425	135983104	97136640	37332512	24992
420	331.450216	135983104	97136640	34928704	24992
421	334.291298	135983104	97136640	33190280	24992
422	335.225884	135983104	97136640	32102168	24992
423	338.234647	135983104	97136640	31662728	24992
424	340.528834	135983104	97136640	31885200	24992
425	343.950822	135983104	97136640	32769176	24992
426	345.630291	135983104	97136640	34314888	24992
427	349.798324	135983104	97136640	36522328	24992
428	352.212412	135983104	97136640	39397304	24992
429	351.748372	135983104	97136640	42940480	24992
430	354.338554	135983104	97136640	47145024	24992
431	362.308087	135983104	97136640	35517664	24992
432	360.407734	135983104	97136640	41040656	24992
433	362.385673	135983104	97136640	47229896	24992
434	370.292346	135983104	97136640	37586808	24992
435	368.151453	135983104	97136640	45098696	24992
436	340.582649	135983104	97136640	13134424	24992
437	323.047186	135983104	97136640	21969928	24992
438	328.725236	135983104	97136640	14973392	24992
439	328.232388	136253440	104476672	25132008	24992
440	332.552285	137064448	113913856	19458104	24992
441	333.15377	137605120	122826752	30928856	24992
442	335.786288	138416128	132263936	26578016	24992
443	339.74844	139227136	141701120	22890088	24992
444	350.471485	139767808	141701120	19863456	24992
445	344.921698	140308480	141701120	34001768	24992
446	350.642996	140578816	141701120	32339008	24992
447	350.040214	141389824	141701120	31297680	24992
448	353.305112	141930496	141701120	30917544	24992
449	355.099626	142200832	141701120	31224640	24992
450	358.129363	142741504	141701120	32192320	24992
451	361.381974	143282176	141701120	33821616	24992
452	364.273842	143822848	141701120	36112744	24992
453	367.673005	144363520	141701120	39068736	24992
454	373.060821	144904192	141701120	42671072	24992
455	374.827605	145444864	141701120	30424640	24992
456	372.355993	145985536	141701120	35349048	24992
457	377.473554	146526208	141701120	40947600	24992
458	377.422587	147066880	141701120	47185504	24992
459	383.610811	147607552	141701120	37615440	24992
460	383.161126	148148224	141701120	45198664	24992
461	386.960382	148688896	141701120	36925504	24992
462	387.374718	149229568	141701120	45819920	24992
463	392.224507	149770240	141701120	38870096	24992
464	392.766203	150040576	141701120	49090896	24992
465	398.722899	150581248	141701120	43464216	24992
466	402.729516	151121920	141701120	38524736	24992
467	365.217891	149372928	110768128	14479328	24992
468	347.926172	149372928	110768128	28001352	24992
469	353.195679	149372928	110768128	25679704	24992
470	357.38711	149372928	110768128	24045048	24992
471	366.947043	149372928	110768128	22687128	24992
472	366.3216	149372928	110768128	21716264	24992
473	369.349728	149372928	110768128	21393960	24992
474	377.287452	149372928	110768128	21735944	24992
475	378.60055	149372928	110768128	22738672	24992
476	382.363584	149372928	110768128	24426520	24992
477	382.827237	149372928	110768128	26750944	24992
478	388.162336	149372928	110768128	29738944	24992
479	389.010721	149372928	110768128	33399056	24992
480	392.096324	149372928	110768128	37720632	24992
481	398.379816	149372928	110768128	42682280	24992
482	403.989058	149372928	110768128	31827808	24992
483	404.435472	149372928	110768128	38144280	24992
484	406.872593	149372928	110768128	45088896	24992
485	413.598652	149372928	110768128	36227560	24992
486	411.474491	149372928	110768128	44519496	24992
487	419.019375	149372928	110768128	36955128	24992
488	417.265184	149372928	110768128	46570608	24992
489	425.154791	149372928	110768128	40329688	24992
490	430.015031	149372928	110768128	34772984	24992
491	429.796346	149643264	110768128	46360152	24992
492	435.938699	149643264	110768128	42103328	24992
493	439.079049	149643264	110768128	38531352	24992
494	436.780838	149913600	111292416	52103224	24992
495	392.756764	150183936	111292416	15340928	24992
496	371.065507	150183936	111292416	30932992	24992
497	375.685318	150183936	111292416	30692280	24992
498	378.228141	150183936	111292416	31136304	24992
499	386.357122	150724608	111816704	31819608	24992
500	389.205696	150724608	111816704	32856440	24992
