x	Duration	RSS	HeapTotal	HeapUsed	External
0	NA	123486208	89796608	37081424	33184
1	0.290968	123486208	89796608	37124832	33184
2	0.382719	123486208	89796608	37192488	33184
3	0.372006	123486208	89796608	37284968	33184
4	0.432649	123486208	89796608	37403752	33184
5	0.510469	123486208	89796608	37550624	33184
6	0.602761	123486208	89796608	37726272	33184
7	0.69457	123486208	89796608	37931944	33184
8	0.793293	123486208	89796608	38168824	33184
9	0.896257	123486208	89796608	38439472	33184
10	1.001818	123486208	89796608	38744104	33184
11	1.116268	123486208	89796608	39083984	33184
12	1.181999	123486208	89796608	39460376	33184
13	0.695448	123486208	89796608	39874408	33184
14	0.768915	123486208	89796608	40327376	33184
15	1.55069	123486208	89796608	40820472	33184
16	1.113675	123486208	89796608	41357096	33184
17	0.986102	123486208	89796608	41943640	33184
18	0.994401	123486208	89796608	42565184	33184
19	1.212207	123486208	89796608	43232792	33184
20	1.134797	123486208	89796608	43946512	33184
21	1.308484	123486208	89796608	44710376	33184
22	1.553501	123486208	89796608	45522040	33184
23	1.330331	123486208	89796608	46384632	33184
24	1.390867	123486208	89796608	47299192	33184
25	1.465871	123486208	89796608	48266984	33184
26	1.549566	123486208	89796608	49289352	33184
27	1.631482	123486208	89796608	50367352	33184
28	1.731583	123486208	89796608	51502408	33184
29	1.792735	123486208	89796608	52695648	33184
30	4.632963	124022784	89796608	37991112	33184
31	2.225454	124833792	89796608	39304232	33184
32	2.181593	124833792	89796608	40681904	33184
33	2.222086	124833792	89796608	42127024	33184
34	2.701677	125100032	89796608	43656056	33184
35	2.374665	125100032	89796608	45231272	33184
36	2.430965	125100032	89796608	46873488	33184
37	2.535796	125100032	89796608	48583664	33184
38	3.444259	125100032	89796608	50371216	33184
39	2.706277	125100032	89796608	52221128	33184
40	4.213097	125100032	89796608	38098544	33184
41	3.184716	125100032	89796608	40092960	33184
42	3.26836	125100032	89796608	42163208	33184
43	3.405049	125100032	89796608	44309664	33184
44	3.307611	125100032	89796608	46531456	33184
45	3.411177	125100032	89796608	48833688	33184
46	3.739846	125100032	89796608	51215848	33184
47	3.763476	125100032	89796608	53680216	33184
48	5.750065	125100032	89796608	39984936	33184
49	3.774572	125100032	89796608	42616944	33184
50	3.886535	125100032	89796608	45335072	33184
51	4.959227	125100032	89796608	48149800	33184
52	4.150008	125100032	89796608	51043384	33184
53	4.226048	125100032	89796608	54026640	33184
54	5.985987	125100032	89796608	41067960	33184
55	5.132764	125100032	89796608	44236544	33184
56	4.767531	125100032	89796608	47495272	33184
57	4.716247	125100032	89796608	50848344	33184
58	5.044787	125100032	89796608	54297432	33184
59	6.716125	125100032	89796608	42027040	33184
60	5.458014	125100032	89796608	45670344	33184
61	5.249981	125100032	89796608	49412968	33184
62	5.715053	125100032	89796608	53256520	33184
63	6.957226	125100032	89796608	41478896	33184
64	6.029965	125100032	89796608	45529456	33184
65	5.836455	125100032	89796608	49689768	33184
66	6.058203	125100032	89796608	53954856	33184
67	7.818382	125100032	89796608	42546560	33184
68	6.936501	125100032	89796608	47027648	33184
69	6.35188	125100032	89796608	51615984	33184
70	6.688107	125100032	89796608	56314528	33184
71	8.384398	125100032	89796608	45169344	33184
72	7.050428	125100032	89796608	50092528	33184
73	7.135203	125100032	89796608	55129416	33184
74	9.098016	125100032	89796608	44422816	33184
75	7.285262	125100032	89796608	49691224	33184
76	7.437671	125100032	89796608	55077032	33184
77	9.355869	125100032	89796608	44791496	33184
78	7.806044	125100032	89796608	50416392	33184
79	8.127138	125100032	89796608	56162520	33184
80	10.106701	125100032	89796608	46103624	33184
81	9.053904	125100032	89796608	52096016	33184
82	10.356576	125100032	89796608	42787352	33184
83	8.71971	125100032	89796608	49032560	33184
84	9.072852	125100032	89796608	55408288	33184
85	10.93215	125100032	89796608	46127864	33184
86	9.496756	125100032	89796608	52761400	33184
87	12.041843	125100032	89796608	44125760	33184
88	10.623406	125100032	89796608	51033440	33184
89	11.1488	125100032	89796608	58084440	33184
90	12.241972	125100032	89796608	49249208	33184
91	10.274003	125100032	89796608	56558456	33184
92	12.921791	125100032	89796608	48211584	33184
93	10.610912	125100032	89796608	55803248	33184
94	13.226571	125100032	89796608	47829800	33184
95	11.527482	125100032	89796608	55708288	33184
96	13.421595	125100032	89796608	48067608	33184
97	11.929496	125100032	89796608	56240312	33184
98	13.652347	125100032	89796608	48875376	33184
99	12.4142	125100032	89796608	57344016	33184
100	13.984313	125100032	89796608	50158616	33184
101	12.609931	125100032	89796608	58929536	33184
102	14.520541	125100032	89796608	51898432	33184
103	12.710608	125100032	89796608	60977024	33184
104	15.579073	125100032	89796608	54112824	33184
105	15.892764	125100032	89796608	48157280	33184
106	13.802086	125100032	89796608	57703048	33184
107	15.910268	125100032	89796608	51708936	33184
108	14.206669	125100032	89796608	61573600	33184
109	16.431439	125100032	89796608	55540384	33184
110	17.009427	125100032	89796608	50326640	33184
111	15.05371	125100032	89796608	60679264	33184
112	17.475541	125100032	89796608	55208152	33184
113	18.361833	125370368	89796608	50604952	33184
114	15.622461	125370368	89796608	61456720	33184
115	18.039165	125640704	89796608	56424568	33184
116	18.835286	125640704	89796608	52257272	33184
117	16.109705	125640704	89796608	63619680	33184
118	18.701323	125640704	89796608	58982432	33184
119	19.064346	125640704	89796608	55077000	33184
120	20.255529	125640704	89796608	51852008	33184
121	17.229502	125640704	89796608	63911384	33184
122	19.964873	125640704	89796608	60022816	33184
123	20.734478	125640704	89796608	56800360	33184
124	21.087752	125640704	89796608	54141928	33184
125	22.441123	125640704	89796608	52000888	33184
126	18.95591	125640704	89796608	64958552	33184
127	21.188973	125640704	89796608	61980648	33184
128	22.364751	125640704	89796608	59561608	33184
129	22.43084	125640704	89796608	57603656	33184
130	22.812456	125640704	89796608	56094104	33184
131	23.582281	125640704	89796608	54991200	33184
132	24.061996	125640704	89796608	54281352	33184
133	24.631754	125640704	89796608	53882416	33184
134	25.716391	125911040	90320896	53762160	33184
135	25.918661	125911040	90320896	53877872	33184
136	26.22456	126181376	90320896	54207424	33184
137	26.706861	126451712	90845184	54714096	33184
138	26.313486	126451712	90845184	55384720	33184
139	26.629123	126722048	90845184	56200864	33184
140	26.95723	126722048	91369472	57127208	33184
141	27.175353	126992384	91369472	58140464	33184
142	27.319895	127262720	91369472	59261880	33184
143	27.405065	127262720	91893760	60473016	33184
144	27.223701	127533056	91893760	61765680	33184
145	27.957743	127803392	91893760	63106768	33184
146	27.768026	127803392	91893760	64514832	33184
147	28.459604	127803392	91893760	65991408	33184
148	27.741928	127803392	91893760	67515488	33184
149	28.086896	127803392	91893760	69066872	33184
150	28.783975	127803392	91893760	70675512	33184
151	33.956381	128073728	92418048	58148776	33184
152	31.71236	128073728	92942336	61648520	33184
153	31.398744	128344064	92942336	64993800	33184
154	30.642198	128614400	92942336	68139864	33184
155	30.453366	128884736	93466624	71106728	33184
156	36.192831	129425408	93990912	59834296	33184
157	32.443839	129425408	93990912	64324880	33184
158	32.368312	129695744	94515200	68605672	33184
159	31.554584	129966080	94515200	72562624	33184
160	37.573027	130506752	95039488	62108288	33184
161	34.671416	130506752	95039488	67368552	33184
162	33.5204	130777088	95563776	72275680	33184
163	38.978471	131317760	96088064	62727416	33184
164	37.839029	133750784	98185216	70938944	33184
165	34.764629	134021120	98709504	76637640	33184
166	39.792379	134561792	99233792	67546040	33184
167	36.717281	133996544	99233792	74066400	33184
168	41.553389	134537216	100282368	66158016	33184
169	39.718498	136970240	102379520	75523056	33184
170	36.142893	137240576	102379520	82250640	33184
171	41.932503	137510912	102903808	74018128	33184
172	38.333941	137781248	103428096	81410224	33184
173	43.367112	138321920	103428096	73948912	33184
174	38.115955	138321920	103952384	81833480	33184
175	44.088196	138862592	103952384	74884120	33184
176	38.700805	139132928	104476672	83212680	33184
177	44.540712	139403264	105000960	76606536	33184
178	46.569263	140484608	105525248	71788536	33184
179	44.231802	142647296	107622400	83542992	33184
180	47.344495	143458304	109195264	78439872	33184
181	52.629784	147243008	112865280	77944704	33184
182	44.495898	149405696	114962432	90379376	33184
183	48.023603	150216704	115486720	85940280	33184
184	54.028619	154001408	119156736	86212296	33184
185	72.988218	143187968	109719552	24232104	33184
186	42.615447	144535552	109719552	37127104	33184
187	42.418829	144535552	109719552	33161840	33184
188	43.255955	144535552	109719552	30012224	33184
189	48.455121	144535552	109719552	31477456	33184
190	48.607455	144535552	109719552	33064136	33184
191	45.561368	144535552	109719552	47800048	33184
192	44.047235	144535552	109719552	44909848	33184
193	45.501141	144535552	109719552	42783144	33184
194	49.720474	144535552	109719552	45575112	33184
195	51.022155	144535552	109719552	48523920	33184
196	51.277681	144535552	109719552	51752152	33184
197	50.8862	144535552	109719552	55365280	33184
198	53.2075	144535552	109719552	59258672	33184
199	75.951642	145887232	110768128	63420328	33184
200	50.607268	124436480	89272320	36443184	33184
201	47.823588	124436480	89272320	35850488	33184
202	49.326377	124436480	89272320	35703432	33184
203	48.894191	124436480	89272320	35949728	33184
204	48.754799	124436480	89272320	36478176	33184
205	49.727713	124436480	89272320	37237240	33184
206	50.347416	124436480	89272320	38189120	33184
207	55.983931	124436480	89272320	26727440	33184
208	56.089959	124436480	89272320	33265264	33184
209	55.424731	124436480	89272320	40271656	33184
210	55.483143	124436480	89272320	47565544	33184
211	56.529931	124436480	89272320	55139080	33184
212	61.531765	124436480	89272320	50362856	33184
213	57.292886	124436480	89272320	58506944	33184
214	58.358589	125517824	90320896	66965032	33184
215	92.598577	126881792	93466624	22502832	33184
216	61.295517	128229376	93466624	30437928	33184
217	59.008888	128229376	93466624	40036232	33184
218	66.013403	128229376	93466624	37328560	33184
219	60.283085	128229376	93466624	47541264	33184
220	67.289679	128229376	93466624	45455192	33184
221	62.994131	128229376	93466624	56272496	33184
222	69.784852	128229376	93466624	54811248	33184
223	97.101659	124633088	90845184	26398024	33184
224	63.113777	125980672	90845184	36999512	33184
225	66.700739	125980672	90845184	36044696	33184
226	62.988755	125980672	90845184	47945784	33184
227	68.880067	125980672	90845184	47636608	33184
228	65.341205	125980672	90845184	60187896	33184
229	68.838088	125980672	90845184	60451096	33184
230	69.553534	126791680	91893760	61064248	33184
231	78.594705	130576384	95563776	74536648	33184
232	86.405208	129380352	94515200	28798856	33184
233	73.782324	129380352	94515200	30345600	33184
234	70.085039	129380352	94515200	44776232	33184
235	71.870354	129380352	94515200	47012200	33184
236	72.844834	129380352	94515200	49526992	33184
237	72.390082	129380352	94515200	52369408	33184
238	71.239327	129380352	94515200	68078888	33184
239	102.674932	126595072	91893760	29482344	33184
240	74.092979	126595072	91893760	33394528	33184
241	76.833309	126595072	91893760	37716144	33184
242	76.60239	126595072	91893760	42622240	33184
243	76.193712	126595072	91893760	47889664	33184
244	72.018518	126595072	91893760	66067816	33184
245	86.774649	128757760	93990912	59417792	33184
246	99.785863	129277952	94515200	33882456	33184
247	77.789684	129277952	94515200	40124880	33184
248	78.408968	129277952	94515200	46626752	33184
249	78.344318	129277952	94515200	53445856	33184
250	79.446535	129277952	94515200	60627776	33184
251	83.454383	129818624	94515200	55524688	33184
252	86.936562	129818624	95039488	63411896	33184
253	105.302403	129753088	95039488	28838784	33184
254	83.766941	129753088	95039488	37375512	33184
255	82.648573	129753088	95039488	46688912	33184
256	84.215559	130019328	95039488	56192992	33184
257	89.018046	130019328	95039488	53442104	33184
258	85.248241	130019328	95039488	63644864	33184
259	112.074953	128667648	94515200	28173496	33184
260	85.395162	130015232	94515200	37817416	33184
261	89.876301	130015232	94515200	36233256	33184
262	85.988021	130015232	94515200	47670728	33184
263	92.418564	130015232	94515200	46788824	33184
264	87.609579	130015232	94515200	58928368	33184
265	114.150782	125558784	91369472	27194816	33184
266	89.166373	126906368	91369472	39362696	33184
267	94.457918	126906368	91369472	40428904	33184
268	88.512228	126906368	91369472	54346656	33184
269	94.1885	126906368	91369472	56048032	33184
270	102.455616	126906368	91369472	58108016	33184
271	120.024152	128565248	92942336	31577040	33184
272	91.907734	128565248	92942336	46604200	33184
273	95.615477	128565248	92942336	49364152	33184
274	96.958529	128565248	92942336	52513648	33184
275	95.185861	128565248	92942336	68684784	33184
276	108.142825	131809280	96612352	72599728	33184
277	120.894594	132136960	97136640	30883408	33184
278	94.976479	132136960	97136640	48200656	33184
279	98.655041	132136960	97136640	53436832	33184
280	101.462001	132136960	97136640	59131240	33184
281	100.888041	132136960	97136640	65188936	33184
282	129.498598	128942080	93466624	24183080	33184
283	102.570746	128942080	93466624	30879184	33184
284	104.006076	128942080	93466624	37819424	33184
285	101.783167	128942080	93466624	45158944	33184
286	103.637582	128942080	93466624	52919432	33184
287	130.659143	125005824	90845184	30390160	33184
288	106.743653	126353408	90845184	38116208	33184
289	106.664178	126353408	90845184	47030120	33184
290	105.655718	126353408	90845184	56832288	33184
291	110.975382	126353408	90845184	54442768	33184
292	135.074387	129052672	95039488	33418224	33184
293	106.557351	130400256	95039488	42959560	33184
294	112.119208	130400256	95039488	41220416	33184
295	108.756256	130400256	95039488	52469408	33184
296	110.627469	130400256	95039488	64112664	33184
297	137.360345	126836736	91369472	31139792	33184
298	110.636625	126836736	91369472	43675192	33184
299	116.039557	126836736	91369472	43997976	33184
300	110.648998	126836736	91369472	57634760	33184
301	132.365902	128458752	92942336	59108984	33184
302	128.316154	126316544	90845184	43667888	33184
303	117.328874	126316544	90845184	45547408	33184
304	114.558035	126316544	90845184	60409352	33184
305	120.252903	126316544	90845184	63087056	33184
306	148.894852	128442368	94515200	33111792	33184
307	122.179223	129789952	94515200	35597920	33184
308	117.031963	129789952	94515200	52203600	33184
309	120.750449	129789952	94515200	57086328	33184
310	130.374711	131682304	96088064	62401608	33184
311	146.443175	127913984	92418048	38973720	33184
312	121.886999	127913984	92418048	44569200	33184
313	127.045696	127913984	92418048	50572976	33184
314	119.746917	128454656	92942336	69591280	33184
315	155.220365	131223552	97660928	28820176	33184
316	125.328323	132571136	97660928	35041488	33184
317	131.316725	132571136	97660928	42776584	33184
318	123.481308	132571136	97660928	64070584	33184
319	131.222882	133111808	97660928	73219400	33184
320	161.266687	130510848	95039488	39623920	33184
321	128.267172	130510848	95039488	49027584	33184
322	129.85351	130510848	95039488	58854488	33184
323	129.572517	130781184	95563776	69128224	33184
324	161.570854	133091328	98185216	29879080	33184
325	131.485068	133091328	98185216	41184200	33184
326	132.721774	133091328	98185216	52737688	33184
327	133.20662	133091328	98185216	65346200	33184
328	165.835485	128442368	92942336	33114440	33184
329	133.186992	128442368	92942336	46118736	33184
330	140.499993	128442368	92942336	46839976	33184
331	134.634455	128442368	92942336	60613952	33184
332	165.236971	128106496	92942336	29725464	33184
333	137.501981	128106496	92942336	44365112	33184
334	140.686849	128106496	92942336	47079104	33184
335	141.826461	128106496	92942336	63216712	33184
336	178.263428	128450560	92942336	40414304	33184
337	139.365845	128450560	92942336	56878768	33184
338	144.110179	128450560	92942336	61172944	33184
339	141.595633	134938624	99758080	78514144	33184
340	173.353828	131657728	96088064	28923784	33184
341	140.096708	131657728	96088064	47162136	33184
342	149.682768	131657728	96088064	53427104	33184
343	178.530924	121696256	87699456	31606616	33184
344	148.763963	123043840	87699456	38262024	33184
345	145.646865	123043840	87699456	58306824	33184
346	149.030684	127098880	91893760	66252624	33184
347	181.261403	126693376	91893760	27101816	33184
348	148.969928	126693376	91893760	48534120	33184
349	153.325935	126693376	91893760	57931704	33184
350	159.708282	128585728	93466624	68068088	33184
351	181.564655	128442368	92942336	49784672	33184
352	154.638944	128442368	92942336	60510256	33184
353	153.881194	128442368	92942336	71752384	33184
354	189.909386	132673536	98709504	35842352	33184
355	154.661125	134021120	98709504	46870976	33184
356	155.488073	134021120	98709504	59486000	33184
357	162.879435	134021120	98709504	72780704	33184
358	185.609439	131592192	96088064	37114568	33184
359	157.463373	131592192	96088064	51160144	33184
360	165.657513	131592192	96088064	53126536	33184
361	191.805983	125452288	91369472	38132792	33184
362	164.954111	126799872	91369472	40499968	33184
363	162.874942	126799872	91369472	56552600	33184
364	165.441319	131395584	96088064	73158424	33184
365	200.564869	135831552	100806656	48701376	33184
366	167.586189	135831552	100806656	53618504	33184
367	164.289111	135831552	100806656	71590200	33184
368	199.778952	134823936	100806656	40195032	33184
369	170.621529	136171520	100806656	45357104	33184
370	170.548495	136171520	100806656	52464448	33184
371	169.105072	136712192	101330944	72994760	33184
372	206.679225	133652480	98185216	50877512	33184
373	173.049118	133652480	98185216	59407848	33184
374	173.87057	135004160	99758080	68545040	33184
375	205.721634	138289152	105000960	39678264	33184
376	176.389098	140177408	105000960	48355456	33184
377	176.536598	140177408	105000960	59088672	33184
378	182.103018	140988416	105525248	70392848	33184
379	204.319744	131563520	96088064	50152088	33184
380	176.533377	131563520	96088064	62109568	33184
381	180.7901	135888896	100806656	74617480	33184
382	209.17137	135516160	100282368	34049232	33184
383	180.405238	135516160	100282368	47561328	33184
384	181.086487	135516160	100282368	62312960	33184
385	211.043795	126210048	90845184	31948368	33184
386	183.970999	126210048	90845184	47028768	33184
387	182.653611	126480384	90845184	62621680	33184
388	220.75636	126443520	91369472	53785072	33184
389	189.660945	126984192	91369472	57864256	33184
390	191.37252	138608640	103428096	75073296	33184
391	220.996987	134111232	98709504	37281360	33184
392	185.501755	134111232	98709504	55435416	33184
393	193.360217	134111232	98709504	61627816	33184
394	225.367763	132116480	96612352	33685520	33184
395	189.887133	132116480	96612352	53461880	33184
396	193.822276	132116480	96612352	61206016	33184
397	221.898527	131661824	96088064	35520536	33184
398	195.222097	131661824	96088064	44297272	33184
399	196.396013	131661824	96088064	66263400	33184
400	221.224645	124280832	88748032	35521320	33184
401	199.667746	124280832	88748032	45940632	33184
402	228.310368	123273216	88223744	42235600	33184
403	198.819499	123273216	88223744	53792824	33184
404	201.674201	128139264	92942336	65812264	33184
405	229.265195	126066688	90845184	42695192	33184
406	202.351732	126066688	90845184	55829328	33184
407	211.277088	128229376	92942336	69686344	33184
408	240.256507	126529536	90845184	44976816	33184
409	202.526846	127881216	92418048	72405152	33184
410	218.981524	145182720	110243840	75109368	33184
411	239.121608	139407360	103952384	55517496	33184
412	209.594008	139407360	103952384	72048664	33184
413	218.818122	146165760	110768128	76464368	33184
414	240.58054	134242304	98709504	57721704	33184
415	213.356453	134242304	98709504	63215216	33184
416	224.913892	146137088	111292416	81907016	33184
417	243.018095	139104256	103952384	51639536	33184
418	211.655522	139104256	103952384	71419872	33184
419	251.068172	147755008	112340992	79210016	33184
420	228.796267	149483520	115486720	50256616	33184
421	215.865278	150835200	115486720	71991848	33184
422	260.695874	126607360	92418048	44489464	33184
423	220.374154	127954944	92418048	53239096	33184
424	225.685908	133632000	98185216	63869744	33184
425	254.920083	137019392	102379520	36238536	33184
426	222.808081	137019392	102379520	47891608	33184
427	222.196357	137019392	102379520	72840616	33184
428	250.570381	129638400	93990912	34803888	33184
429	227.66155	129638400	93990912	48550344	33184
430	257.745719	128475136	92942336	32983784	33184
431	226.224255	128475136	92942336	60132232	33184
432	238.371305	133881856	98709504	75313896	33184
433	262.22806	131207168	95563776	49864096	33184
434	230.47522	135262208	99758080	66206464	33184
435	274.818899	136228864	101330944	43670352	33184
436	231.923294	136228864	101330944	61386640	33184
437	240.130666	137850880	102379520	66882480	33184
438	261.90352	130166784	94515200	32585192	33184
439	234.484524	130166784	94515200	51816520	33184
440	263.889707	127135744	91893760	41265296	33184
441	234.8137	127135744	91893760	61661760	33184
442	277.132069	132431872	98709504	40531376	33184
443	239.454683	133779456	98709504	61541776	33184
444	246.894437	137834496	102379520	71235968	33184
445	275.443563	132587520	97136640	39509520	33184
446	241.102334	132857856	97136640	63054520	33184
447	282.960222	130498560	95039488	44412328	33184
448	247.416911	130498560	95039488	56493808	33184
449	246.860966	137527296	102379520	81626872	33184
450	268.483556	127377408	91893760	42188864	33184
451	260.068927	127647744	92418048	56199520	33184
452	286.272027	126377984	90845184	63086824	33184
453	256.562271	138813440	103952384	78088792	33184
454	299.377525	138059776	102903808	36732064	33184
455	253.992302	138059776	102903808	53101184	33184
456	250.651637	139141120	103952384	82441432	33184
457	278.367624	127971328	92942336	44499880	33184
458	254.183198	128512000	92942336	62502768	33184
459	287.302119	127410176	91893760	37943016	33184
460	257.989313	127410176	91893760	57206248	33184
461	306.301216	129605632	93990912	56059240	33184
462	260.370397	141500416	106049536	76556184	33184
463	303.127039	142991360	109719552	40159096	33184
464	262.426599	144338944	109719552	60455744	33184
465	264.298335	145690624	110243840	82774168	33184
466	291.616791	133709824	98185216	35866808	33184
467	266.848287	133709824	98185216	59428824	33184
468	294.723684	125480960	89796608	38799600	33184
469	268.543853	125480960	89796608	63611736	33184
470	294.39655	125501440	89796608	38220800	33184
471	293.387494	127393792	91893760	64423656	33184
472	298.94452	127713280	92418048	56033808	33184
473	274.548229	144203776	108670976	84058904	33184
474	306.37522	131735552	96088064	40551376	33184
475	278.19971	131735552	96088064	56526680	33184
476	305.519308	129515520	93990912	39707200	33184
477	276.737307	129515520	93990912	56946832	33184
478	309.412421	132222976	96612352	41206880	33184
479	279.315885	132222976	96612352	59703992	33184
480	308.489582	129576960	93990912	38547696	33184
481	285.160632	129576960	93990912	58416184	33184
482	310.854946	133685248	98185216	45522896	33184
483	285.143112	133685248	98185216	66614664	33184
484	314.24333	128507904	92942336	41586480	33184
485	283.751551	128507904	92942336	63894640	33184
486	313.349649	129990656	94515200	39911984	33184
487	285.842279	129990656	94515200	63541368	33184
488	333.301502	127295488	91893760	67827584	33184
489	296.91019	148652032	113389568	80234280	33184
490	320.531555	137547776	101855232	43165200	33184
491	293.739927	137547776	101855232	69363728	33184
492	330.057612	130428928	95039488	48595536	33184
493	300.904592	130699264	95039488	63570288	33184
494	332.353683	137830400	102379520	44237128	33184
495	297.123349	137830400	102379520	60485872	33184
496	331.016545	129949696	94515200	42384784	33184
497	302.197732	130220032	94515200	59961328	33184
498	324.991745	130961408	95563776	42829600	33184
499	320.093745	133394432	98185216	61772280	33184
500	334.823817	131223552	96088064	70226768	33184
