x	Duration	RSS	HeapTotal	HeapUsed	External
0	NA	135663616	100806656	47221528	33184
1	0.438111	135663616	100806656	47264360	33184
2	0.385818	135663616	100806656	47331728	33184
3	0.444841	135663616	100806656	47423928	33184
4	0.530301	135663616	100806656	47542392	33184
5	0.627946	135663616	100806656	47688880	33184
6	0.755132	135663616	100806656	47864136	33184
7	0.864256	135663616	100806656	48069280	33184
8	0.990139	135663616	100806656	48305616	33184
9	1.06938	135663616	100806656	48575616	33184
10	1.22562	135663616	100806656	48879560	33184
11	1.337704	135663616	100806656	49218656	33184
12	1.45253	135663616	100806656	49594144	33184
13	1.138797	135663616	100806656	50007304	33184
14	5.108875	135663616	100806656	37538304	33184
15	0.833223	135663616	100806656	38030368	33184
16	0.862546	135663616	100806656	38563664	33184
17	0.89979	135663616	100806656	39141376	33184
18	0.89928	135663616	100806656	39762872	33184
19	0.97553	135663616	100806656	40430456	33184
20	1.026245	135663616	100806656	41144216	33184
21	1.103434	135663616	100806656	41906288	33184
22	1.171326	135663616	100806656	42717928	33184
23	1.227936	135663616	100806656	43580424	33184
24	1.290337	135663616	100806656	44495000	33184
25	1.356211	135663616	100806656	45462856	33184
26	1.440897	135663616	100806656	46485248	33184
27	1.517368	135663616	100806656	47563304	33184
28	1.586127	135663616	100806656	48698208	33184
29	1.690704	135663616	100806656	49891320	33184
30	1.733485	135663616	100806656	51143768	33184
31	1.831341	135663616	100806656	52456976	33184
32	4.797387	135663616	100806656	39027728	33184
33	2.031646	135663616	100806656	40473056	33184
34	2.094555	135663616	100806656	41982648	33184
35	2.226143	135663616	100806656	43557984	33184
36	2.27152	135663616	100806656	45200072	33184
37	2.431486	135663616	100806656	46910128	33184
38	2.475663	135663616	100806656	48689456	33184
39	2.801367	135663616	100806656	50539200	33184
40	3.631221	135663616	100806656	52460800	33184
41	4.291039	135663616	100806656	38364272	33184
42	3.406035	135663616	100806656	40449496	33184
43	3.018932	135663616	100806656	42593512	33184
44	3.059023	135663616	100806656	44815264	33184
45	3.253213	135663616	100806656	47117272	33184
46	3.466281	135663616	100806656	49499384	33184
47	3.402866	135663616	100806656	51963576	33184
48	3.707607	135663616	100806656	54511144	33184
49	4.883348	135663616	100806656	40853296	33184
50	3.747377	135663616	100806656	43571576	33184
51	4.016426	135663616	100806656	46377000	33184
52	4.03622	135663616	100806656	49271224	33184
53	4.105185	135663616	100806656	52254384	33184
54	5.485767	135663616	100806656	39258240	33184
55	5.078935	135663616	100806656	42433064	33184
56	4.467132	135663616	100806656	45691832	33184
57	4.947777	135663616	100806656	49046240	33184
58	4.718411	135663616	100806656	52495224	33184
59	6.096073	135663616	100806656	40158232	33184
60	5.398055	135663616	100806656	43803080	33184
61	5.360351	135663616	100806656	47545680	33184
62	5.270297	135663616	100806656	51388720	33184
63	5.481484	135663616	100806656	55333360	33184
64	6.88423	135663616	100806656	43402880	33184
65	5.908283	135663616	100806656	47563704	33184
66	6.504423	135663616	100806656	51836992	33184
67	7.887906	135663616	100806656	40597056	33184
68	6.251268	135663616	100806656	45076696	33184
69	6.301772	135663616	100806656	49665416	33184
70	6.486282	135663616	100806656	54363960	33184
71	8.56982	135663616	100806656	43290128	33184
72	7.375	135663616	100806656	48213080	33184
73	6.962214	135663616	100806656	53253024	33184
74	8.664167	135663616	100806656	42687552	33184
75	7.933084	135663616	100806656	47956576	33184
76	7.402169	135663616	100806656	53343464	33184
77	9.262065	135663616	100806656	43112560	33184
78	7.95856	135663616	100806656	48737824	33184
79	8.240405	135663616	100806656	54486264	33184
80	10.636174	135663616	100806656	44508128	33184
81	8.459558	135663616	100806656	50513488	33184
82	8.719762	135663616	100806656	56631952	33184
83	9.924614	135663616	100806656	46843120	33184
84	8.808431	135663616	100806656	53218200	33184
85	10.957989	135663616	100806656	44091800	33184
86	9.343743	135663616	100806656	50725600	33184
87	10.286317	135663616	100806656	57500096	33184
88	11.130865	135663616	100806656	48311088	33184
89	10.028602	135663616	100806656	55345184	33184
90	12.013159	135663616	100806656	46686648	33184
91	10.3374	135663616	100806656	53997344	33184
92	13.124951	135663616	100806656	45810664	33184
93	10.765383	135663616	100806656	53401952	33184
94	13.042762	135663616	100806656	45611152	33184
95	10.875905	135663616	100806656	53489728	33184
96	13.574435	135663616	100806656	46047392	33184
97	11.491169	135663616	100806656	54218728	33184
98	13.881817	135663616	100806656	47025336	33184
99	11.92824	135663616	100806656	55493776	33184
100	14.033337	135663616	100806656	48484584	33184
101	12.176529	135663616	100806656	57255096	33184
102	14.600933	135663616	100806656	50347488	33184
103	13.052028	135663616	100806656	59423960	33184
104	14.852424	135663616	100806656	52620440	33184
105	16.32805	135663616	100806656	46794248	33184
106	13.316354	135663616	100806656	56340184	33184
107	15.827218	135663616	100806656	50384800	33184
108	14.298985	135663616	100806656	60249552	33184
109	16.550796	135663616	100806656	54261360	33184
110	16.793122	135663616	100806656	49125088	33184
111	14.656803	135663616	100806656	59477648	33184
112	17.035789	135663616	100806656	54036088	33184
113	18.11183	135663616	100806656	49522904	33184
114	15.488239	135663616	100806656	60374664	33184
115	17.764342	135663616	100806656	55395856	33184
116	18.395226	135663616	100806656	51270424	33184
117	16.020396	135663616	100806656	62632032	33184
118	18.405756	135663616	100806656	58015088	33184
119	18.868204	135663616	100806656	54147152	33184
120	20.56938	135663616	100806656	50939056	33184
121	17.316349	135663616	100806656	62998248	33184
122	19.271622	135663616	100806656	59123248	33184
123	20.00522	135663616	100806656	55930048	33184
124	21.150243	135663616	100806656	53290744	33184
125	21.824175	135663616	100806656	51170104	33184
126	18.673533	135663616	100806656	64127360	33184
127	21.131298	135663616	100806656	61163008	33184
128	21.408528	135663616	100806656	58764200	33184
129	22.172612	135663616	100806656	56813632	33184
130	23.042754	135663616	100806656	55314144	33184
131	23.579313	135663616	100806656	54231688	33184
132	24.234612	135663616	100806656	53530152	33184
133	25.251352	135663616	100806656	53140048	33184
134	24.909911	135663616	100806656	53033920	33184
135	25.616738	135663616	100806656	53161912	33184
136	26.333005	135663616	100806656	53492896	33184
137	25.848591	135663616	100806656	54008224	33184
138	26.080899	135663616	100806656	54688640	33184
139	27.272954	135663616	100806656	55502040	33184
140	26.641738	135663616	100806656	56438800	33184
141	26.704744	135663616	100806656	57456472	33184
142	26.882486	135663616	100806656	58579160	33184
143	27.568228	135663616	100806656	59793720	33184
144	27.314393	135663616	100806656	61083704	33184
145	27.151985	135663616	100806656	62425576	33184
146	27.711738	135663616	100806656	63835952	33184
147	27.76074	135663616	100806656	65311136	33184
148	27.601353	135663616	100806656	66837240	33184
149	27.87637	135663616	100806656	68390040	33184
150	28.391289	135663616	100806656	69999240	33184
151	33.998111	135663616	100806656	57472472	33184
152	30.778843	135663616	100806656	60972184	33184
153	31.063367	135663616	100806656	64317432	33184
154	29.862364	135663616	100806656	67463464	33184
155	30.045189	135663616	100806656	70430296	33184
156	35.683614	135663616	100806656	59157832	33184
157	32.015593	135663616	100806656	63648384	33184
158	32.106536	135663616	100806656	67929144	33184
159	31.233189	135663616	100806656	71886064	33184
160	37.418084	135663616	100806656	61431696	33184
161	33.566667	135663616	100806656	66691928	33184
162	33.442315	135663616	100806656	71599024	33184
163	38.505702	135663616	100806656	62050728	33184
164	38.410355	135663616	100806656	70261120	33184
165	45.523119	135663616	101330944	75964312	33184
166	47.043229	122331136	87699456	19330912	33184
167	36.486429	121565184	87699456	28261896	33184
168	33.155553	121565184	87699456	34387680	33184
169	34.907153	121565184	87699456	25698152	33184
170	33.334394	121565184	87699456	32869912	33184
171	36.12311	121565184	87699456	25330976	33184
172	34.900957	121565184	87699456	32958544	33184
173	38.171282	121565184	87699456	26048176	33184
174	38.119331	121565184	87699456	36738528	33184
175	39.150594	121565184	87699456	30619296	33184
176	36.218194	121565184	87699456	39098736	33184
177	40.2784	121565184	87699456	32651520	33184
178	41.471194	121565184	87699456	27836168	33184
179	40.249351	121835520	87699456	39590120	33184
180	41.933458	121835520	87699456	34468240	33184
181	46.152086	121835520	87699456	33974248	33184
182	41.376403	121835520	87699456	46411896	33184
183	42.171433	121835520	87699456	41938000	33184
184	47.264168	121835520	87699456	42213928	33184
185	42.18657	121835520	87699456	55416488	33184
186	43.663451	121835520	87699456	51442640	33184
187	45.126131	121835520	87699456	48460144	33184
188	54.275258	121835520	87699456	49766328	33184
189	71.525178	119214080	86650880	24909040	33184
190	49.545306	120565760	86650880	26162968	33184
191	45.150961	120565760	86650880	40888160	33184
192	45.004823	120565760	86650880	38028456	33184
193	44.969915	120565760	86650880	35924928	33184
194	49.357904	120565760	86650880	38717712	33184
195	49.229494	120565760	86650880	41649352	33184
196	50.310361	120565760	86650880	44863280	33184
197	50.940181	120565760	86650880	48343736	33184
198	50.588635	120565760	86650880	52107224	33184
199	52.655268	120565760	86650880	56146880	33184
200	53.63902	121917440	88223744	60594040	33184
201	80.768041	125452288	92942336	23053272	33184
202	55.859297	128151552	94515200	27181304	33184
203	55.120698	131936256	98709504	32337888	33184
204	54.806269	135450624	102903808	37788544	33184
205	54.595979	138964992	107098112	43493680	33184
206	55.1719	142749696	111292416	49490936	33184
207	57.450591	144912384	111292416	55784552	33184
208	56.672677	144912384	111292416	62394672	33184
209	60.089343	144912384	111292416	56604064	33184
210	59.186325	144912384	111292416	63788912	33184
211	87.938071	113733632	80883712	27614680	33184
212	58.599678	115081216	80883712	34358480	33184
213	57.392418	115081216	80883712	42369504	33184
214	61.590418	115081216	80883712	38081864	33184
215	58.093563	115081216	80883712	46661216	33184
216	59.615337	115081216	80883712	55591792	33184
217	65.094233	116973568	82980864	52193544	33184
218	61.023747	120758272	86650880	61698960	33184
219	65.448349	126435328	92418048	58923600	33184
220	91.26576	121884672	89796608	25875160	33184
221	66.346978	123772928	89796608	35342704	33184
222	65.00908	123772928	89796608	33473360	33184
223	62.180806	123772928	89796608	44482192	33184
224	66.593219	123772928	89796608	43227696	33184
225	63.50806	123772928	89796608	54820576	33184
226	67.999219	124043264	89796608	54208056	33184
227	64.940926	124043264	89796608	66836688	33184
228	75.444199	129720320	96088064	67063344	33184
229	88.843413	122875904	89272320	33777744	33184
230	71.612302	123416576	89272320	34574240	33184
231	69.402698	123416576	89272320	35931280	33184
232	67.228123	123416576	89272320	50164568	33184
233	71.40119	123416576	89272320	52159248	33184
234	72.137556	123957248	89796608	54458264	33184
235	74.121622	124497920	90320896	57116616	33184
236	104.832534	123416576	90845184	31519408	33184
237	73.908437	124764160	90845184	33474464	33184
238	73.358968	124764160	90845184	36780728	33184
239	70.703693	124764160	90845184	53000080	33184
240	74.033824	124764160	90845184	56958080	33184
241	74.288579	124764160	90845184	61267272	33184
242	75.7606	125034496	90845184	65901280	33184
243	86.545678	130711552	96612352	70877288	33184
244	99.919959	127217664	92942336	29691568	33184
245	78.776166	127217664	92942336	35191656	33184
246	78.129565	127217664	92942336	41031856	33184
247	78.771677	127217664	92942336	47206264	33184
248	77.857452	127217664	92942336	53722184	33184
249	79.578386	127217664	92942336	60546640	33184
250	105.35006	122916864	90320896	23046176	33184
251	81.725081	124264448	90320896	29787272	33184
252	81.489167	124264448	90320896	37693848	33184
253	82.995949	124264448	90320896	46350048	33184
254	81.049665	124264448	90320896	55368184	33184
255	86.504839	124534784	90320896	52124024	33184
256	103.345515	125616128	91369472	61834736	33184
257	95.690665	127238144	93466624	28236008	33184
258	85.438354	127238144	93466624	38374024	33184
259	85.7089	127238144	93466624	48873472	33184
260	88.626801	127238144	93466624	47115784	33184
261	88.548179	127238144	93466624	58329416	33184
262	95.680008	129400832	95039488	69878072	33184
263	109.83528	126488576	92418048	37932504	33184
264	90.326552	126488576	92418048	37426504	33184
265	86.898037	126488576	92418048	49909672	33184
266	95.893989	126488576	92418048	50162184	33184
267	88.262115	126488576	92418048	63527104	33184
268	98.285471	128651264	94515200	64641432	33184
269	116.362419	127307776	92942336	34704656	33184
270	93.684423	127307776	92942336	36365152	33184
271	91.107566	127307776	92942336	51046688	33184
272	97.165658	127307776	92942336	53495896	33184
273	97.06994	127307776	92942336	56786816	33184
274	101.951794	130281472	96088064	73067328	33184
275	119.437229	129060864	95039488	30636280	33184
276	95.686539	129060864	95039488	47194328	33184
277	99.570307	129060864	95039488	51713616	33184
278	99.238459	129060864	95039488	56884232	33184
279	102.13045	129060864	95039488	62464384	33184
280	130.381884	128192512	93990912	38346936	33184
281	99.671687	128192512	93990912	44209856	33184
282	101.269662	128192512	93990912	50386376	33184
283	101.320453	128192512	93990912	57106976	33184
284	104.693994	128733184	94515200	64254176	33184
285	113.871722	134410240	100282368	71757480	33184
286	128.320999	134651904	100282368	32570296	33184
287	103.450436	134651904	100282368	40725032	33184
288	106.441255	134651904	100282368	49383064	33184
289	104.301551	134651904	100282368	58426392	33184
290	106.71605	134651904	100282368	67875096	33184
291	138.864346	127651840	93466624	33376224	33184
292	106.925902	127651840	93466624	43414632	33184
293	105.830501	127651840	93466624	53839688	33184
294	109.182823	127651840	93466624	64689296	33184
295	115.345277	130625536	96612352	63552496	33184
296	135.729581	131825664	97660928	24996088	33184
297	109.685157	132096000	97660928	37199640	33184
298	109.728446	132096000	97660928	49615000	33184
299	114.816975	132096000	97660928	49855008	33184
300	114.163994	132096000	97660928	63110928	33184
301	149.307262	126758912	92418048	37134800	33184
302	113.622599	126758912	92418048	51149640	33184
303	117.774594	126758912	92418048	53087848	33184
304	114.126993	126758912	92418048	68145208	33184
305	121.225159	133517312	99233792	71014624	33184
306	150.161965	136585216	102379520	40225544	33184
307	121.778017	136585216	102379520	43738528	33184
308	115.522935	136585216	102379520	60223112	33184
309	123.197857	136585216	102379520	64567064	33184
310	126.317017	137125888	102903808	69318704	33184
311	144.340359	131387392	97136640	40436592	33184
312	122.385834	131387392	97136640	46041680	33184
313	123.591807	131387392	97136640	52265376	33184
314	123.309869	131387392	97136640	71486968	33184
315	156.927966	133791744	101330944	31567136	33184
316	125.912392	135139328	101330944	37644320	33184
317	125.69954	135139328	101330944	45360752	33184
318	126.316589	135139328	101330944	53499960	33184
319	131.32897	136761344	102379520	62032576	33184
320	154.049824	129363968	95039488	40974864	33184
321	129.582943	129363968	95039488	50392016	33184
322	129.026381	129363968	95039488	60436704	33184
323	129.402979	129904640	95563776	70905520	33184
324	161.771457	133619712	99758080	31685376	33184
325	134.131042	133619712	99758080	42982504	33184
326	132.726595	133619712	99758080	54544752	33184
327	136.267233	134160384	99758080	53957848	33184
328	162.123852	127299584	92942336	34660456	33184
329	139.368818	127299584	92942336	35070856	33184
330	136.135055	127299584	92942336	48439976	33184
331	134.804457	127299584	92942336	62379400	33184
332	165.554111	126943232	92942336	31220088	33184
333	136.263202	126943232	92942336	45837424	33184
334	141.493918	126943232	92942336	48369304	33184
335	139.870747	126943232	92942336	63924544	33184
336	176.939737	126263296	91893760	40307424	33184
337	138.851623	126263296	91893760	56733584	33184
338	144.920255	126263296	91893760	61117048	33184
339	146.643876	133832704	99758080	78662632	33184
340	168.963391	127733760	93466624	33020560	33184
341	144.965834	127733760	93466624	38680976	33184
342	145.241146	128004096	93466624	57399048	33184
343	174.302076	121860096	87699456	34861936	33184
344	149.2861	122130432	87699456	41933856	33184
345	147.05112	122130432	87699456	49414456	33184
346	147.939536	125104128	91369472	69907504	33184
347	186.12087	128081920	93466624	38733040	33184
348	146.603043	128081920	93466624	60157856	33184
349	150.713494	128081920	93466624	69519336	33184
350	156.54204	137543680	103428096	79307240	33184
351	186.227403	134701056	100282368	42781952	33184
352	155.083622	134701056	100282368	53542664	33184
353	154.69506	134701056	100282368	64787840	33184
354	161.737	139567104	105000960	76687008	33184
355	187.657062	133271552	98709504	40373192	33184
356	156.410381	133271552	98709504	53001064	33184
357	155.194203	133271552	98709504	66093104	33184
358	190.442179	132247552	99233792	31197480	33184
359	160.696084	133595136	99233792	44113640	33184
360	161.677314	133595136	99233792	59114424	33184
361	161.137608	134406144	99758080	74363072	33184
362	196.213449	131186688	96612352	27363560	33184
363	162.513829	131186688	96612352	43405632	33184
364	162.819321	131186688	96612352	60594256	33184
365	196.977512	126316544	91893760	33909400	33184
366	163.576279	126316544	91893760	51454432	33184
367	168.91088	126316544	91893760	56985712	33184
368	177.161121	131182592	97136640	75664440	33184
369	195.224231	130629632	96088064	51467480	33184
370	171.868966	130629632	96088064	58539400	33184
371	172.545636	133603328	99233792	66577528	33184
372	198.231438	129974272	95563776	35841728	33184
373	171.398771	130244608	95563776	44234624	33184
374	177.216064	130244608	95563776	53161576	33184
375	197.481798	125440000	90845184	29848536	33184
376	171.485518	125440000	90845184	52362224	33184
377	175.681827	125440000	90845184	62841856	33184
378	206.091997	128073728	93990912	28767880	33184
379	173.645729	128073728	93990912	52864696	33184
380	178.789506	128073728	93990912	64934320	33184
381	206.582502	126627840	92418048	31836032	33184
382	179.904183	126627840	92418048	44823040	33184
383	180.021856	126627840	92418048	58330984	33184
384	204.847662	125956096	91893760	39354840	33184
385	180.51754	125956096	91893760	53913432	33184
386	191.657927	126496768	91893760	56450472	33184
387	219.20078	126562304	91893760	47178720	33184
388	183.149632	126562304	91893760	63293920	33184
389	187.403903	136564736	102903808	79894528	33184
390	217.481517	133246976	99233792	41148544	33184
391	191.989869	133246976	99233792	46415576	33184
392	188.060442	133246976	99233792	64666056	33184
393	225.81926	131096576	96612352	36342536	33184
394	190.202988	131096576	96612352	55753000	33184
395	194.638373	131096576	96612352	62959560	33184
396	225.832525	133591040	99233792	35688984	33184
397	196.717388	133591040	99233792	44090216	33184
398	193.918604	133591040	99233792	65532832	33184
399	226.614458	130887680	96612352	39613664	33184
400	195.889358	130887680	96612352	49590032	33184
401	199.796961	130887680	96612352	60002400	33184
402	224.823071	134311936	99758080	35603408	33184
403	200.586926	134311936	99758080	47089784	33184
404	195.737295	134311936	99758080	71738328	33184
405	230.42215	127500288	92942336	36373784	33184
406	203.516726	127500288	92942336	49477096	33184
407	222.171838	130473984	96088064	63139256	33184
408	224.897251	128905216	94515200	50330400	33184
409	204.343172	129175552	94515200	65307304	33184
410	248.199531	138133504	105000960	32942736	33184
411	208.701204	139481088	105000960	47763128	33184
412	207.128226	139481088	105000960	64302016	33184
413	241.764799	134438912	99758080	31622624	33184
414	212.298597	134438912	99758080	49306984	33184
415	210.217568	134438912	99758080	67431760	33184
416	242.40984	135745536	101330944	35848112	33184
417	210.965233	135745536	101330944	55022080	33184
418	219.378288	136826880	102379520	62390416	33184
419	246.737751	131182592	96612352	33630768	33184
420	214.489228	131182592	96612352	54559928	33184
421	251.991477	128552960	93990912	35041168	33184
422	215.956974	128552960	93990912	57329344	33184
423	223.838593	132337664	98185216	68123200	33184
424	247.452127	133562368	99233792	40524200	33184
425	223.301032	133562368	99233792	51653624	33184
426	257.137354	127078400	93990912	35341888	33184
427	221.686696	128425984	93990912	59717720	33184
428	226.573328	132210688	97660928	72543592	33184
429	259.328544	134144000	100282368	33745008	33184
430	222.198337	134144000	100282368	60345248	33184
431	232.362718	135495680	100806656	75008456	33184
432	268.455656	130150400	95563776	50250224	33184
433	231.496713	134205440	99758080	65947936	33184
434	261.525551	151506944	117583872	82249416	33184
435	237.680133	143147008	109195264	59311696	33184
436	231.603759	143147008	109195264	76783688	33184
437	269.108834	136540160	102379520	41031160	33184
438	231.771145	136540160	102379520	59836688	33184
439	233.849887	136540160	102379520	79070656	33184
440	262.216418	133263360	98709504	45287144	33184
441	238.233469	133263360	98709504	53074512	33184
442	266.912624	126697472	92418048	43529304	33184
443	241.773367	126697472	92418048	52513232	33184
444	271.854867	130187264	97136640	45048600	33184
445	242.852441	131534848	97136640	54659288	33184
446	242.229046	136130560	101855232	78006160	33184
447	276.139884	128073728	93466624	34809208	33184
448	241.103337	128073728	93466624	59369360	33184
449	279.156954	128110592	93990912	40993008	33184
450	247.321045	128110592	93990912	54118312	33184
451	286.101598	134279168	101330944	37134528	33184
452	245.215015	135626752	101330944	63653640	33184
453	254.72159	138600448	104476672	79475888	33184
454	287.769737	133222400	99233792	38436960	33184
455	253.450896	133222400	99233792	54592288	33184
456	287.568693	128548864	93990912	39815848	33184
457	258.047995	128548864	93990912	57176776	33184
458	293.124609	136192000	103428096	43866776	33184
459	256.66976	137539584	103428096	61748536	33184
460	257.777863	139702272	105525248	81024248	33184
461	283.462411	130957312	96612352	44642512	33184
462	259.611802	131227648	96612352	65116456	33184
463	289.190572	123199488	88748032	43338144	33184
464	261.672231	123199488	88748032	65010808	33184
465	312.094032	124145664	89796608	55839400	33184
466	268.507881	141176832	107098112	78801400	33184
467	296.942203	132521984	98185216	45394328	33184
468	273.788587	132521984	98185216	57011280	33184
469	301.27674	130482176	96088064	36735232	33184
470	265.381976	130482176	96088064	62153056	33184
471	307.640149	136089600	102903808	43213800	33184
472	269.937962	137437184	102903808	56476880	33184
473	272.663885	143114240	108670976	83897152	33184
474	299.794759	129138688	94515200	40833936	33184
475	281.666665	129409024	95039488	56809016	33184
476	311.449836	125227008	90845184	66616616	33184
477	283.356446	143880192	109719552	84291384	33184
478	310.041161	131354624	96612352	42649992	33184
479	275.965336	131354624	96612352	61121440	33184
480	305.103419	128077824	93990912	46464688	33184
481	281.12382	128348160	93990912	66665792	33184
482	310.726066	130768896	96612352	40840080	33184
483	284.16704	131309568	96612352	61912736	33184
484	315.466479	129150976	94515200	36750848	33184
485	283.346019	129150976	94515200	59050984	33184
486	331.693576	127569920	93466624	61902488	33184
487	292.028061	146493440	112340992	85630976	33184
488	320.727062	136740864	102379520	47477760	33184
489	292.800757	137011200	102379520	59859744	33184
490	328.284574	130764800	96088064	37891976	33184
491	289.518604	130764800	96088064	64148176	33184
492	328.519131	138276864	103952384	43253704	33184
493	294.49315	138276864	103952384	70775416	33184
494	342.513799	134066176	99758080	38524200	33184
495	295.506813	134066176	99758080	67341920	33184
496	337.708286	142745600	108146688	48090232	33184
497	304.227808	142745600	108146688	66368440	33184
498	349.377866	135884800	102903808	50147712	33184
499	305.100686	137232384	102903808	67964584	33184
500	307.089587	150749184	116011008	87474536	33184
