x	Duration	RSS	HeapTotal	HeapUsed	External
0	NA	125186048	89272320	41771984	33184
1	0.298774	125186048	89272320	41814848	33184
2	0.310685	125186048	89272320	41882216	33184
3	0.311996	125186048	89272320	41974424	33184
4	0.360487	125186048	89272320	42092888	33184
5	0.426227	125186048	89272320	42239376	33184
6	0.499206	125186048	89272320	42414576	33184
7	0.575649	125186048	89272320	42619864	33184
8	0.664889	125186048	89272320	42856168	33184
9	0.926459	125186048	89272320	43126224	33184
10	0.822176	125186048	89272320	43430152	33184
11	0.905149	125186048	89272320	43769312	33184
12	2.071822	125186048	89272320	44144840	33184
13	1.117108	125186048	89272320	44557992	33184
14	1.196431	125186048	89272320	45009928	33184
15	1.515009	125186048	89272320	45501968	33184
16	0.812894	125186048	89272320	46044504	33184
17	0.840688	125186048	89272320	46622280	33184
18	0.880027	125186048	89272320	47243848	33184
19	1.125656	125186048	89272320	47911360	33184
20	1.010344	125186048	89272320	48625104	33184
21	1.075433	125186048	89272320	49387256	33184
22	1.135579	125186048	89272320	50198944	33184
23	1.213423	125186048	89272320	51061536	33184
24	5.318698	125186048	89272320	38189776	33184
25	1.367121	125186048	89272320	39157568	33184
26	1.474854	125186048	89272320	40179840	33184
27	1.496909	125186048	89272320	41257848	33184
28	1.566084	125186048	89272320	42392792	33184
29	1.640156	125186048	89272320	43585952	33184
30	1.899376	125186048	89272320	44838472	33184
31	1.819148	125186048	89272320	46152224	33184
32	1.915051	125186048	89272320	47529896	33184
33	2.020996	125186048	89272320	48974928	33184
34	2.129807	125186048	89272320	50484560	33184
35	2.171876	125186048	89272320	52060072	33184
36	4.384746	125186048	89272320	38245200	33184
37	2.597919	125186048	89272320	39955392	33184
38	2.698876	125186048	89272320	41734704	33184
39	2.805594	125186048	89272320	43584480	33184
40	2.91746	125186048	89272320	45506064	33184
41	2.760671	125186048	89272320	47500464	33184
42	3.016617	125186048	89272320	49569104	33184
43	2.978928	125186048	89272320	51713216	33184
44	3.249084	125186048	89272320	53935008	33184
45	4.296004	125186048	89272320	39987176	33184
46	3.332989	125186048	89272320	42369424	33184
47	3.577338	125186048	89272320	44833632	33184
48	3.514339	125186048	89272320	47381048	33184
49	3.637899	125186048	89272320	50013096	33184
50	3.922643	125186048	89272320	52731360	33184
51	5.03253	125186048	89272320	39408832	33184
52	4.187664	125186048	89272320	42302544	33184
53	4.154555	125186048	89272320	45285856	33184
54	4.442379	125186048	89272320	48360920	33184
55	4.329875	125186048	89272320	51526552	33184
56	4.657396	125186048	89272320	54785264	33184
57	6.029728	125186048	89272320	41823304	33184
58	5.059461	125186048	89272320	45271784	33184
59	4.83776	125186048	89272320	48817192	33184
60	5.652009	125186048	89272320	52468520	33184
61	6.31896	125186048	89272320	40155032	33184
62	5.458456	125186048	89272320	43998184	33184
63	5.41659	125186048	89272320	47942888	33184
64	5.719915	125186048	89272320	51990736	33184
65	7.01938	125186048	89272320	40359664	33184
66	6.125104	125186048	89272320	44624472	33184
67	6.022687	125186048	89272320	48996432	33184
68	6.480914	125186048	89272320	53475880	33184
69	7.557394	125186048	89272320	42226624	33184
70	6.43974	125186048	89272320	46925616	33184
71	6.541005	125186048	89272320	51736416	33184
72	9.301056	125186048	89272320	41076280	33184
73	7.082132	125186048	89272320	46113080	33184
74	7.062914	125186048	89272320	51265136	33184
75	7.502506	125186048	89272320	56535312	33184
76	10.112579	125186048	89272320	45839344	33184
77	8.82788	125186048	89272320	51344248	33184
78	9.448464	125186048	89272320	41478560	33184
79	8.675425	125186048	89272320	47224712	33184
80	8.584329	125186048	89272320	53093624	33184
81	10.299989	125186048	89272320	43422672	33184
82	9.4179	125186048	89272320	49544888	33184
83	9.824359	125186048	89272320	55805656	33184
84	10.358518	125186048	89272320	46218704	33184
85	9.112552	125186048	89272320	52721192	33184
86	11.724075	125186048	89272320	43788280	33184
87	9.632204	125186048	89272320	50554224	33184
88	10.410534	125186048	89272320	57461416	33184
89	11.508009	125186048	89272320	48397144	33184
90	10.149668	125186048	89272320	55566936	33184
91	11.657388	125186048	89272320	47045792	33184
92	10.484537	125186048	89272320	54495288	33184
93	12.683498	125186048	89272320	46432208	33184
94	10.913086	125186048	89272320	54166520	33184
95	13.326992	125186048	89272320	46449928	33184
96	11.283585	125186048	89272320	54475760	33184
97	13.240902	125186048	89272320	47058152	33184
98	11.448764	125186048	89272320	55377048	33184
99	14.01676	125186048	89272320	48186848	33184
100	12.100541	125186048	89272320	56806064	33184
101	14.070926	125186048	89272320	49758072	33184
102	12.504462	125186048	89272320	58680712	33184
103	14.072811	125186048	89272320	51758392	33184
104	12.998929	125186048	89272320	60989976	33184
105	14.633078	125186048	89272320	54230696	33184
106	15.667222	125186048	89272320	48339336	33184
107	13.644417	125186048	89272320	58044112	33184
108	15.688729	125186048	89272320	52108512	33184
109	16.80795	125186048	89272320	47067712	33184
110	14.2826	125186048	89272320	57256720	33184
111	16.357157	125186048	89272320	51903560	33184
112	14.985292	125186048	89272320	62421128	33184
113	16.95055	125186048	89272320	56985856	33184
114	17.970431	125186048	89272320	52244104	33184
115	18.63493	125186048	89272320	48332616	33184
116	16.022302	125186048	89272320	59528800	33184
117	18.709167	125186048	89272320	55049200	33184
118	18.769038	125186048	89272320	51345552	33184
119	17.183869	125186048	89272320	63053120	33184
120	19.656041	125186048	89272320	58777720	33184
121	19.529983	125186048	89272320	55201024	33184
122	21.220314	125186048	89272320	52265088	33184
123	17.470494	125186048	89272320	64680136	33184
124	20.078319	125186048	89272320	61056248	33184
125	20.630335	125186048	89272320	58014984	33184
126	21.066731	125186048	89272320	55573040	33184
127	21.817988	125186048	89272320	53564288	33184
128	22.899886	125186048	89272320	52023024	33184
129	19.20735	125186048	89272320	65550016	33184
130	21.809673	125186048	89272320	63095952	33184
131	21.914794	125186048	89272320	61073464	33184
132	23.056966	125186048	89272320	59517000	33184
133	23.410768	125186048	89272320	58290408	33184
134	23.681595	125186048	89272320	57459688	33184
135	24.260841	125186048	89272320	56960816	33184
136	25.038195	125186048	89272320	56751944	33184
137	25.361018	125186048	89272320	56798840	33184
138	25.390634	125186048	89272320	57065416	33184
139	25.893412	125186048	89272320	57523440	33184
140	25.945494	125186048	89272320	58151656	33184
141	28.078804	125456384	89796608	58927248	33184
142	26.755192	125456384	89796608	59842360	33184
143	26.493329	125726720	89796608	60877096	33184
144	27.217643	125997056	90320896	61986112	33184
145	27.230149	125997056	90320896	63193912	33184
146	27.224549	126267392	90320896	64489472	33184
147	27.608791	126537728	90845184	65857768	33184
148	27.694729	126537728	90845184	67269424	33184
149	27.989029	126808064	90845184	68750544	33184
150	28.110027	127078400	91369472	70311024	33184
151	33.866992	127348736	91893760	57702152	33184
152	30.4055	127348736	91893760	61171752	33184
153	31.224228	127619072	91893760	64472656	33184
154	30.574374	127889408	92418048	67577680	33184
155	29.885962	128159744	92942336	70509976	33184
156	36.010247	128700416	92942336	59191264	33184
157	32.882216	128700416	93466624	63668496	33184
158	32.229838	128970752	93466624	67918784	33184
159	31.712045	129241088	93990912	71860328	33184
160	37.69273	129781760	93990912	61393984	33184
161	33.630265	129781760	94515200	66617360	33184
162	33.541909	130052096	94515200	71517792	33184
163	38.429639	130592768	95039488	61964448	33184
164	37.474875	133025792	97136640	70177808	33184
165	34.57705	133296128	97660928	75872824	33184
166	39.51662	133836800	98185216	66768784	33184
167	36.662776	133267456	98185216	73282928	33184
168	40.679015	133808128	99233792	65392120	33184
169	39.357232	136241152	101330944	74757712	33184
170	36.056392	136511488	101855232	81488112	33184
171	41.67537	136781824	101855232	73249768	33184
172	37.600387	137052160	102379520	80635456	33184
173	42.788432	137592832	102903808	73160112	33184
174	38.13212	137863168	102903808	81049336	33184
175	43.830244	138133504	103428096	74094824	33184
176	38.327644	138403840	103428096	82392224	33184
177	44.11984	138674176	103952384	75782816	33184
178	46.121182	139755520	105000960	70968344	33184
179	44.176202	141918208	107098112	82723816	33184
180	46.112386	142729216	108146688	77625904	33184
181	56.782049	146784256	111816704	77131872	33184
182	60.319586	135921664	102379520	34224832	33184
183	41.730124	137269248	102379520	28796104	33184
184	44.499886	137269248	102379520	24879104	33184
185	47.094157	137269248	102379520	25270912	33184
186	42.961475	137269248	102379520	38680512	33184
187	43.128492	137269248	102379520	34777856	33184
188	43.601011	137269248	102379520	32081944	33184
189	47.581344	137269248	102379520	33508880	33184
190	43.771315	137269248	102379520	47970888	33184
191	43.887062	137269248	102379520	44844448	33184
192	44.803629	137269248	102379520	42495936	33184
193	49.682122	137269248	102379520	45030632	33184
194	49.706306	137269248	102379520	47828056	33184
195	50.795132	137269248	102379520	50898368	33184
196	50.49405	137269248	102379520	54227624	33184
197	56.053247	137539584	102379520	57849960	33184
198	70.065899	123097088	89272320	31737648	33184
199	51.520223	123904000	89272320	35172888	33184
200	53.402784	123904000	89272320	39476056	33184
201	53.826041	123904000	89272320	44093376	33184
202	52.771205	123904000	89272320	49002456	33184
203	49.426976	123904000	89272320	49144992	33184
204	50.090207	123904000	89272320	49666256	33184
205	48.937778	123904000	89272320	50402392	33184
206	49.637233	123904000	89272320	51339936	33184
207	54.573117	123904000	89272320	39731520	33184
208	55.607494	123904000	89272320	46401496	33184
209	56.364315	123904000	89272320	53402936	33184
210	56.198978	123904000	89272320	60697136	33184
211	60.516781	124985344	89796608	68276304	33184
212	86.70828	126267392	92418048	34197672	33184
213	61.620849	127074304	92418048	28811776	33184
214	58.182983	127074304	92418048	37108368	33184
215	58.074135	127074304	92418048	45731496	33184
216	63.387948	127074304	92418048	42054528	33184
217	59.207083	127074304	92418048	51253816	33184
218	59.859265	127074304	92418048	60759744	33184
219	64.190369	127885312	92942336	57958792	33184
220	68.712085	128155648	92942336	68069672	33184
221	85.801709	126377984	91369472	33802152	33184
222	66.135868	126377984	91369472	31992008	33184
223	61.095432	126377984	91369472	42988648	33184
224	67.241372	126377984	91369472	41720888	33184
225	63.654278	126377984	91369472	53322000	33184
226	68.102655	126377984	91369472	52667328	33184
227	67.81471	126377984	91369472	52340592	33184
228	73.080166	126377984	91369472	64861744	33184
229	90.976654	127299584	92418048	35166848	33184
230	72.321964	127299584	92418048	35855272	33184
231	74.483382	127299584	92418048	37003912	33184
232	66.586966	127299584	92418048	51016184	33184
233	73.269748	127299584	92418048	52772168	33184
234	72.458906	127299584	92418048	54870032	33184
235	73.708124	127569920	92418048	57292568	33184
236	100.532483	126021632	92418048	30033936	33184
237	76.591653	127369216	92418048	32246720	33184
238	69.558634	127369216	92418048	48131928	33184
239	74.892713	127369216	92418048	51761808	33184
240	74.885209	127369216	92418048	55753808	33184
241	75.451045	127369216	92418048	60057896	33184
242	76.258623	127639552	92418048	64687984	33184
243	83.883878	131694592	96612352	69666936	33184
244	99.796715	131936256	97136640	28132872	33184
245	76.835847	131936256	97136640	33618736	33184
246	78.208179	131936256	97136640	39459760	33184
247	78.05681	131936256	97136640	45610112	33184
248	78.967469	131936256	97136640	52103648	33184
249	80.03098	131936256	97136640	58963240	33184
250	84.936639	132747264	97660928	66151808	33184
251	103.426812	127651840	92942336	29667776	33184
252	80.989471	127651840	92942336	37527864	33184
253	81.998155	127651840	92942336	46006808	33184
254	84.084232	127651840	92942336	54852576	33184
255	86.430385	127651840	92942336	51499592	33184
256	83.706701	128192512	92942336	61122168	33184
257	118.778255	129490944	94515200	28216088	33184
258	84.056872	129490944	94515200	38307000	33184
259	84.452887	129490944	94515200	48642408	33184
260	90.170559	129490944	94515200	46711360	33184
261	85.123153	129490944	94515200	57781496	33184
262	85.60289	130572288	95563776	69169552	33184
263	96.317123	134086656	99233792	68306928	33184
264	112.535691	133414912	98709504	34030432	33184
265	86.063527	133414912	98709504	46508824	33184
266	93.737182	133414912	98709504	46742408	33184
267	87.689739	133414912	98709504	59939008	33184
268	94.323327	133414912	98709504	60892656	33184
269	100.179397	134496256	99233792	62219016	33184
270	114.778848	128749568	93466624	32642400	33184
271	90.72162	128749568	93466624	47305120	33184
272	95.761847	128749568	93466624	49873592	33184
273	99.663969	129015808	93466624	52866152	33184
274	97.704459	129015808	93466624	56190976	33184
275	102.886528	131719168	96612352	72521416	33184
276	121.003896	130990080	96088064	30675752	33184
277	95.58823	130990080	96088064	47575536	33184
278	98.43355	130990080	96088064	52230880	33184
279	98.881113	130990080	96088064	57258928	33184
280	101.199967	130990080	96088064	62696096	33184
281	123.864244	127430656	93466624	34641424	33184
282	100.513499	128778240	93466624	39818872	33184
283	104.220765	128778240	93466624	46371544	33184
284	105.259816	128778240	93466624	53835272	33184
285	104.215608	128778240	93466624	61680824	33184
286	133.511012	127569920	93990912	25892792	33184
287	106.587344	128917504	93990912	33268336	33184
288	105.295994	128917504	93990912	41777256	33184
289	104.088286	128917504	93990912	50665008	33184
290	106.618024	129458176	93990912	59939816	33184
291	136.212968	127692800	93990912	25191008	33184
292	106.749923	129040384	93990912	34516544	33184
293	111.817648	129040384	93990912	44987360	33184
294	108.397261	129040384	93990912	56271136	33184
295	114.786329	129310720	93990912	55328776	33184
296	135.213053	127184896	93466624	34869640	33184
297	113.906467	128532480	93466624	33425768	33184
298	110.855739	128532480	93466624	45902952	33184
299	112.605667	128532480	93466624	58732392	33184
300	116.337919	128802816	93466624	59380944	33184
301	149.140479	130699264	95563776	32300256	33184
302	111.521558	130699264	95563776	46343904	33184
303	112.793288	130699264	95563776	60836032	33184
304	117.308685	130699264	95563776	63556192	33184
305	122.872354	135565312	100806656	66695904	33184
306	151.79434	135344128	100282368	36150960	33184
307	116.775786	135344128	100282368	52191544	33184
308	122.937832	135344128	100282368	56123320	33184
309	121.945634	135344128	100282368	60466584	33184
310	116.055486	135884800	100282368	77783440	33184
311	148.612734	131735552	96088064	29932512	33184
312	125.69308	131735552	96088064	35592984	33184
313	120.313606	131735552	96088064	54750632	33184
314	125.707143	131735552	96088064	61752256	33184
315	152.724564	125489152	89796608	25744488	33184
316	121.313821	125489152	89796608	46179008	33184
317	134.197089	125489152	89796608	54245832	33184
318	128.109443	125489152	89796608	62540456	33184
319	158.178081	124956672	89272320	28001512	33184
320	131.160903	124956672	89272320	37566024	33184
321	133.029126	124956672	89272320	47580968	33184
322	131.336659	125497344	89796608	58024808	33184
323	166.23288	125521920	89796608	42158256	33184
324	128.905965	125521920	89796608	52871024	33184
325	132.651222	125521920	89796608	63997336	33184
326	136.387343	132820992	97660928	62974416	33184
327	161.384488	129110016	95039488	38313960	33184
328	139.544679	130457600	95039488	36971912	33184
329	134.579228	130457600	95039488	49874976	33184
330	135.92454	130727936	95039488	63824808	33184
331	168.381445	129851392	96088064	32842736	33184
332	137.303656	131198976	96088064	46199376	33184
333	142.739022	131198976	96088064	48298112	33184
334	137.964852	131198976	96088064	63384912	33184
335	169.964188	131817472	97660928	33606008	33184
336	143.942501	133165056	97660928	36152232	33184
337	141.018037	133165056	97660928	52738832	33184
338	148.121701	133165056	97660928	57686696	33184
339	171.312907	129552384	93990912	28216744	33184
340	142.955569	129552384	93990912	46092144	33184
341	146.263813	129552384	93990912	51758648	33184
342	146.792797	129822720	94515200	57899392	33184
343	172.562135	128466944	92942336	30229696	33184
344	149.199238	128466944	92942336	37272256	33184
345	146.884088	128466944	92942336	57436232	33184
346	155.305417	129007616	93990912	65917040	33184
347	179.490386	126496768	90845184	46546736	33184
348	155.009668	126496768	90845184	55409176	33184
349	151.791951	128118784	92418048	64736000	33184
350	188.04496	132825088	99233792	27832568	33184
351	150.601897	134172672	99233792	49558384	33184
352	156.6586	134172672	99233792	60939448	33184
353	157.160798	134443008	99233792	72840192	33184
354	192.492333	130379776	95039488	36214784	33184
355	156.369085	130379776	95039488	48525416	33184
356	162.872981	130379776	95039488	61373120	33184
357	168.083307	132272128	96612352	62111704	33184
358	186.235324	131186688	95563776	47204832	33184
359	156.746977	131186688	95563776	61276872	33184
360	165.549478	131727360	96088064	63290280	33184
361	195.245694	134569984	100806656	29496000	33184
362	163.135093	135917568	100806656	43867272	33184
363	161.093426	135917568	100806656	59874536	33184
364	168.292659	137539584	101855232	63843408	33184
365	193.479982	130199552	95039488	30668992	33184
366	166.776447	130199552	95039488	48185368	33184
367	170.30762	130199552	95039488	54298960	33184
368	199.612909	129937408	94515200	29794560	33184
369	165.225958	129937408	94515200	48767944	33184
370	169.932308	129937408	94515200	55737624	33184
371	204.252876	131829760	97660928	32634888	33184
372	167.567354	133177344	97660928	52369440	33184
373	172.649395	133177344	97660928	60796592	33184
374	176.146895	135340032	99758080	70419792	33184
375	209.493456	138985472	103428096	49355528	33184
376	175.698547	138985472	103428096	59293640	33184
377	175.925656	138985472	103428096	69715496	33184
378	209.173575	136163328	102379520	41752808	33184
379	180.320506	137510912	102379520	52211400	33184
380	179.080513	137510912	102379520	64893240	33184
381	191.699205	138051584	102379520	77967592	33184
382	209.585345	133242880	97660928	45595072	33184
383	178.409567	133242880	97660928	59158176	33184
384	184.127611	137297920	101855232	73201528	33184
385	209.895141	133939200	98709504	33626552	33184
386	183.673668	133939200	98709504	48722296	33184
387	190.932935	133939200	98709504	64544528	33184
388	225.149782	128581632	92942336	43521752	33184
389	187.60515	128581632	92942336	60196664	33184
390	188.833785	138313728	102903808	77346480	33184
391	218.878603	136585216	101330944	39306120	33184
392	195.744084	136585216	101330944	45208112	33184
393	190.284321	136585216	101330944	64420008	33184
394	221.339355	129495040	93990912	37181352	33184
395	194.501902	129495040	93990912	44338032	33184
396	190.799254	129495040	93990912	64712656	33184
397	234.650698	130740224	95039488	47270960	33184
398	189.213744	130740224	95039488	68640016	33184
399	202.012615	141283328	106049536	78039176	33184
400	228.873151	132796416	97136640	29972304	33184
401	193.266384	132796416	97136640	53074928	33184
402	205.466943	132796416	97136640	64030016	33184
403	235.953078	128061440	92418048	49738936	33184
404	200.998379	128331776	92942336	61772216	33184
405	205.19903	143740928	108670976	74391984	33184
406	220.624681	129318912	93990912	42505600	33184
407	203.616048	129589248	93990912	56250640	33184
408	239.991223	125583360	89796608	30873376	33184
409	203.455753	125583360	89796608	45733344	33184
410	207.617778	130449408	95039488	61014448	33184
411	237.384551	131182592	95563776	40551880	33184
412	205.618993	131182592	95563776	56947824	33184
413	216.94436	132263936	96612352	61540520	33184
414	232.690137	126922752	91369472	42522064	33184
415	218.001144	126922752	91369472	48644520	33184
416	244.349414	124874752	89272320	38728552	33184
417	209.580968	124874752	89272320	57937872	33184
418	220.106304	131903488	96612352	65123872	33184
419	253.671546	133197824	97660928	58456248	33184
420	218.580844	133468160	97660928	66735512	33184
421	219.787148	147255296	111816704	88721096	33184
422	244.433459	125431808	89796608	38547040	33184
423	221.191975	125431808	89796608	48870024	33184
424	246.644117	122363904	86650880	42929296	33184
425	221.665673	122363904	86650880	54066128	33184
426	258.536606	128864256	93466624	36982840	33184
427	224.308563	128864256	93466624	49356912	33184
428	223.003494	132919296	97660928	74784896	33184
429	254.39334	126754816	91369472	36384448	33184
430	224.254468	127025152	91369472	50384688	33184
431	260.350554	128663552	92942336	36023088	33184
432	226.867236	128663552	92942336	51194936	33184
433	231.799369	135421952	100282368	66922976	33184
434	270.248738	136937472	101330944	55798256	33184
435	229.286632	136937472	101330944	72668112	33184
436	236.201776	152076288	116535296	90104984	33184
437	277.755466	141381632	106049536	55215296	33184
438	234.56272	141381632	106049536	73883680	33184
439	278.191898	137666560	103952384	40363384	33184
440	237.148377	139014144	103952384	58877856	33184
441	237.444609	140095488	104476672	79301840	33184
442	277.79138	133173248	97660928	33736648	33184
443	239.71725	133173248	97660928	55305584	33184
444	282.298778	131866624	97660928	34802104	33184
445	238.115723	133214208	97660928	56997704	33184
446	242.544256	136998912	101330944	80321816	33184
447	282.205471	135417856	100282368	36351072	33184
448	243.366494	135417856	100282368	60917240	33184
449	285.407513	130297856	96088064	43132176	33184
450	254.00937	131645440	96088064	55632752	33184
451	245.986055	138133504	102903808	82022128	33184
452	281.763954	134053888	98709504	40379880	33184
453	252.469611	134053888	98709504	55358352	33184
454	287.721123	130191360	94515200	40043728	33184
455	252.50243	130191360	94515200	56218568	33184
456	293.057379	133885952	99758080	42711832	33184
457	257.610738	135233536	99758080	59686752	33184
458	264.971761	141180928	106049536	78376464	33184
459	281.71442	129830912	94515200	40859200	33184
460	257.467091	129830912	94515200	60046400	33184
461	291.515795	128561152	92942336	35168624	33184
462	261.398391	128561152	92942336	56510496	33184
463	303.631015	127803392	92418048	58253224	33184
464	263.510161	141590528	106049536	79929160	33184
465	302.913499	141959168	107098112	43082520	33184
466	261.450958	141959168	107098112	66229712	33184
467	269.961976	143851520	108146688	77287744	33184
468	313.111132	137109504	101330944	57628472	33184
469	264.399991	142786560	107098112	82394776	33184
470	310.648034	145125376	110243840	35192200	33184
471	265.055466	145125376	110243840	61213240	33184
472	277.820911	146206720	110768128	75325760	33184
473	311.702227	134307840	98709504	57549288	33184
474	274.803619	143769600	108146688	85453312	33184
475	304.249366	140787712	105000960	42375920	33184
476	277.284093	140787712	105000960	59250192	33184
477	309.874563	129208320	93466624	43184224	33184
478	275.637334	129208320	93466624	61161456	33184
479	311.763938	136388608	101330944	46508552	33184
480	281.259543	136388608	101330944	66171208	33184
481	323.695107	133758976	98185216	39208072	33184
482	283.109838	133758976	98185216	59568672	33184
483	316.726408	147546112	111816704	80652360	33184
484	294.804	159367168	125448192	68440256	33184
485	293.556814	160448512	125448192	78812152	33184
486	312.594497	122793984	87175168	41404928	33184
487	286.320894	126578688	91369472	65065448	33184
488	330.510457	130203648	94515200	69154616	33184
489	296.442766	148856832	113389568	81498264	33184
490	317.953333	131321856	96088064	44801296	33184
491	296.427344	131321856	96088064	58360952	33184
492	321.032597	129527808	93990912	37467424	33184
493	292.765356	129527808	93990912	65003096	33184
494	323.866557	128962560	93466624	45865912	33184
495	319.856669	132206592	96612352	62138736	33184
496	331.503725	132079616	96612352	68764248	33184
497	311.578333	151273472	116011008	87064368	33184
498	334.420879	132124672	96612352	41217568	33184
499	309.728976	132665344	97136640	60126656	33184
500	342.749939	129622016	93990912	71894136	33184
