x	Duration	RSS	HeapTotal	HeapUsed	External
0	NA	121335808	85602304	15092280	33184
1	0.293896	121335808	85602304	15144960	33184
2	0.241612	121335808	85602304	15212840	33184
3	0.237886	121335808	85602304	15305408	33184
4	0.279727	121335808	85602304	15424336	33184
5	0.334466	121335808	85602304	15571384	33184
6	0.388117	121335808	85602304	15747272	33184
7	0.443896	121335808	85602304	15953168	33184
8	0.501965	121335808	85602304	16190360	33184
9	0.564159	121335808	85602304	16461304	33184
10	0.845018	121335808	85602304	16766312	33184
11	0.905387	121335808	85602304	17106560	33184
12	0.643859	121335808	85602304	17483328	33184
13	0.697836	121335808	85602304	17897792	33184
14	0.789549	121335808	85602304	18355064	33184
15	0.992472	121335808	85602304	18848680	33184
16	0.973508	121335808	85602304	19383648	33184
17	1.025781	121335808	85602304	19963088	33184
18	1.10151	121335808	85602304	20586384	33184
19	1.523877	121335808	85602304	21261112	33184
20	1.108433	121335808	85602304	21976936	33184
21	1.79304	121335808	85602304	22742184	33184
22	1.394993	121335808	85602304	23558648	33184
23	1.465136	121335808	85602304	24424288	33184
24	1.746547	121335808	85602304	25341864	33184
25	1.395264	121335808	85602304	26310512	33184
26	1.52534	121335808	85602304	27333704	33184
27	1.594922	121335808	85602304	28420992	33184
28	1.77411	121335808	85602304	29557920	33184
29	2.601961	121335808	85602304	30752048	33184
30	3.03736	121335808	85602304	15785464	33184
31	1.893721	121335808	85602304	17099760	33184
32	2.147441	121335808	85602304	18479320	33184
33	2.050584	121335808	85602304	19944640	33184
34	2.366353	121335808	85602304	21455488	33184
35	2.585827	121335808	85602304	23032096	33184
36	2.359071	121335808	85602304	24677312	33184
37	2.552642	121335808	85602304	26387480	33184
38	2.648714	121335808	85602304	28167072	33184
39	2.574969	121335808	85602304	30016952	33184
40	2.849003	121335808	85602304	31938728	33184
41	4.300025	121335808	85602304	17735792	33184
42	3.216973	121335808	85602304	19804392	33184
43	3.229871	121335808	85602304	21949856	33184
44	3.075651	121335808	85602304	24171736	33184
45	3.216488	121335808	85602304	26473960	33184
46	3.345921	121335808	85602304	28856184	33184
47	3.410125	121335808	85602304	31320688	33184
48	4.64812	121335808	85602304	17659680	33184
49	3.838432	121335808	85602304	20291728	33184
50	3.758797	121335808	85602304	23009976	33184
51	4.847015	121335808	85602304	25816952	33184
52	4.425938	121335808	85602304	28718848	33184
53	4.121149	121335808	85602304	31701808	33184
54	5.726094	121335808	85602304	18582440	33184
55	4.641612	121335808	85602304	21750976	33184
56	4.464642	121335808	85602304	25009600	33184
57	4.625927	121335808	85602304	28362496	33184
58	4.772628	121335808	85602304	31811064	33184
59	6.309224	121335808	85602304	19350880	33184
60	5.000499	121335808	85602304	22994288	33184
61	5.423238	121335808	85602304	26736928	33184
62	5.281353	121335808	85602304	30579928	33184
63	7.056807	121335808	85602304	18769176	33184
64	5.870946	121335808	85602304	22818608	33184
65	5.994914	121335808	85602304	26978992	33184
66	5.815357	121335808	85602304	31244104	33184
67	7.965818	121335808	85602304	19801784	33184
68	6.231172	121335808	85602304	24281008	33184
69	6.293	121335808	85602304	28869456	33184
70	6.414205	121335808	85602304	33568048	33184
71	8.55536	121335808	85602304	22381792	33184
72	8.33354	121335808	85602304	27320832	33184
73	6.95014	121335808	85602304	32357552	33184
74	8.878766	121335808	85602304	21642048	33184
75	7.544013	121335808	85602304	26910240	33184
76	7.829985	121335808	85602304	32299424	33184
77	9.449487	121335808	85602304	22002968	33184
78	8.148424	121335808	85602304	27627664	33184
79	8.223959	121335808	85602304	33373792	33184
80	9.557225	121335808	85602304	23362872	33184
81	8.332894	121335808	85602304	29355304	33184
82	8.85328	121335808	85602304	35473184	33184
83	10.223232	121335808	85602304	25699824	33184
84	8.819074	121335808	85602304	32073856	33184
85	11.111698	121335808	85602304	22912112	33184
86	11.24684	121335808	85602304	29554640	33184
87	9.708264	121335808	85602304	36337336	33184
88	11.604576	121335808	85602304	27202760	33184
89	10.129422	121335808	85602304	34238032	33184
90	11.992637	121335808	85602304	25562160	33184
91	10.144504	121335808	85602304	32871296	33184
92	12.368941	121335808	85602304	24713608	33184
93	10.700962	121335808	85602304	32305472	33184
94	13.318007	121335808	85602304	24464224	33184
95	11.695753	121335808	85602304	32343360	33184
96	13.517473	121335808	85602304	24834456	33184
97	11.475749	121335808	85602304	33007312	33184
98	14.283918	121335808	85602304	25753616	33184
99	12.294158	121335808	85602304	34221584	33184
100	14.284163	121335808	85602304	27156488	33184
101	12.398937	121335808	85602304	35926376	33184
102	14.852656	121335808	85602304	28975832	33184
103	13.070305	121335808	85602304	38052760	33184
104	15.333062	121335808	85602304	31229112	33184
105	15.616964	121335808	85602304	25367640	33184
106	13.74628	121335808	85602304	34913672	33184
107	15.770112	121335808	85602304	28943784	33184
108	13.989309	121335808	85602304	38808976	33184
109	16.344007	121335808	85602304	32805328	33184
110	18.246958	121335808	85602304	27647240	33184
111	15.253816	121335808	85602304	38000280	33184
112	17.145502	121335808	85602304	32547728	33184
113	17.605881	121335808	85602304	27986584	33184
114	15.976466	121335808	85602304	38838288	33184
115	18.161334	121335808	85602304	33839712	33184
116	18.695789	121335808	85602304	29702960	33184
117	16.234713	121335808	85602304	41064856	33184
118	18.440103	121335808	85602304	36442720	33184
119	19.691651	121335808	85602304	32561040	33184
120	20.205454	121335808	85602304	29341112	33184
121	16.990279	121335808	85602304	41400488	33184
122	20.068976	121335808	85602304	37522200	33184
123	20.435687	121335808	85602304	34323096	33184
124	21.322787	121335808	85602304	31671088	33184
125	22.290424	121335808	85602304	29550608	33184
126	19.050097	121335808	85602304	42508128	33184
127	21.683184	121335808	85602304	39542944	33184
128	21.840297	121335808	85602304	37133856	33184
129	22.23235	121335808	85602304	35183696	33184
130	23.540596	121335808	85602304	33683896	33184
131	24.044408	121335808	85602304	32592568	33184
132	24.313204	121335808	85602304	31890696	33184
133	25.083562	121335808	85602304	31492696	33184
134	25.67115	121335808	85602304	31382936	33184
135	26.353375	121335808	85602304	31501288	33184
136	26.589851	121335808	85602304	31831328	33184
137	26.450257	121335808	85602304	32345560	33184
138	27.107185	121335808	85602304	33026280	33184
139	27.127494	121335808	85602304	33839224	33184
140	27.53269	121335808	85602304	34769648	33184
141	27.741677	121335808	85602304	35786272	33184
142	27.881207	121335808	85602304	36907752	33184
143	27.564508	121335808	85602304	38119448	33184
144	27.773808	121335808	85602304	39414400	33184
145	28.061888	121335808	85602304	40757152	33184
146	27.947365	121335808	85602304	42165216	33184
147	27.886498	121335808	85602304	43639296	33184
148	28.773708	121335808	85602304	45163376	33184
149	28.114864	121335808	85602304	46714760	33184
150	28.50458	121335808	85602304	48323400	33184
151	34.670951	121335808	85602304	35796664	33184
152	31.296446	121335808	85602304	39296408	33184
153	31.20942	121335808	85602304	42641688	33184
154	30.882719	121335808	85602304	45787752	33184
155	31.465785	121335808	85602304	48755720	33184
156	36.109877	121335808	85602304	37483288	33184
157	32.911557	121335808	85602304	41973872	33184
158	32.656316	121335808	85602304	46254664	33184
159	31.999624	121335808	85602304	50211616	33184
160	38.068944	121335808	85602304	39757280	33184
161	34.416146	121335808	85602304	45017544	33184
162	33.839575	121335808	85602304	49924672	33184
163	39.00336	121335808	85602304	40376408	33184
164	38.445576	121335808	85602304	48586832	33184
165	34.721375	121335808	85602304	54285528	33184
166	40.781007	121335808	85602304	45194008	33184
167	37.460289	120487936	86126592	51718680	33184
168	42.124886	121028608	86126592	43807568	33184
169	40.972552	121028608	86126592	53172608	33184
170	41.996643	121028608	86126592	59904096	33184
171	56.408098	118456320	83505152	28641336	33184
172	36.306257	118456320	83505152	21011112	33184
173	37.68019	118456320	83505152	31293600	33184
174	38.876859	118456320	83505152	24544024	33184
175	37.719298	118456320	83505152	35313080	33184
176	38.036441	118456320	83505152	28921104	33184
177	35.689391	118456320	83505152	37391264	33184
178	37.816204	118456320	83505152	30801328	33184
179	40.542623	118456320	83505152	26039416	33184
180	40.432292	118456320	83505152	38000880	33184
181	41.11601	118456320	83505152	32807280	33184
182	46.403735	118456320	83505152	32457920	33184
183	40.529698	118456320	83505152	45152176	33184
184	41.072279	118456320	83505152	40807664	33184
185	42.050315	118456320	83505152	37624832	33184
186	43.645618	118456320	83505152	51185240	33184
187	42.262229	118456320	83505152	47338888	33184
188	43.469638	118456320	83505152	44401320	33184
189	48.108272	118456320	83505152	45973344	33184
190	48.273007	118456320	83505152	47689880	33184
191	52.028084	118456320	83505152	62480296	33184
192	68.004295	118456320	83505152	22681856	33184
193	45.710165	118456320	83505152	37946608	33184
194	47.399104	118722560	83505152	35567432	33184
195	46.167055	118722560	83505152	34037032	33184
196	50.912455	118722560	83505152	37560264	33184
197	51.646342	118722560	83505152	41235720	33184
198	51.813748	118722560	83505152	45181104	33184
199	51.73815	118722560	83505152	49404440	33184
200	52.958269	118722560	83505152	53904608	33184
201	53.787344	118722560	83505152	58699544	33184
202	56.419388	120614912	85602304	63707032	33184
203	73.121822	120885248	88223744	20716016	33184
204	55.49311	123047936	88223744	25739136	33184
205	53.361247	123047936	88223744	31452536	33184
206	53.519476	123047936	88223744	37450552	33184
207	54.738131	123047936	88223744	43741480	33184
208	54.962212	123047936	88223744	50310656	33184
209	61.674876	123858944	88748032	44559400	33184
210	56.243968	123858944	88748032	51678984	33184
211	59.278351	123858944	88748032	59162184	33184
212	88.622832	122052608	88748032	26509584	33184
213	58.298777	123400192	88748032	33993328	33184
214	57.465384	123400192	88748032	42311992	33184
215	63.588524	123940864	88748032	38325080	33184
216	58.925933	123940864	88748032	47202968	33184
217	59.035607	123940864	88748032	56409520	33184
218	65.12379	123940864	88748032	53302496	33184
219	60.167813	123940864	88748032	63137440	33184
220	67.48514	127455232	92418048	60654328	33184
221	91.575534	128278528	94515200	27973336	33184
222	62.943725	129626112	94515200	37711576	33184
223	67.113332	129626112	94515200	36158984	33184
224	61.700838	129626112	94515200	47452024	33184
225	67.662577	129626112	94515200	46511944	33184
226	63.246459	129626112	94515200	58425016	33184
227	69.434226	129626112	94515200	58091168	33184
228	67.883144	129626112	94515200	58061400	33184
229	73.260924	130166784	95039488	70932008	33184
230	86.398228	130240512	95039488	37193480	33184
231	70.249437	130240512	95039488	38174440	33184
232	70.771681	130240512	95039488	39439360	33184
233	70.906133	130240512	95039488	40992688	33184
234	67.981029	130240512	95039488	55421784	33184
235	72.039668	130781184	95563776	57625528	33184
236	72.159472	130781184	95563776	60142800	33184
237	99.811443	123027456	89272320	33960024	33184
238	74.441758	124375040	89272320	36429400	33184
239	74.876736	124375040	89272320	39931192	33184
240	74.488828	124375040	89272320	43903104	33184
241	74.608684	124375040	89272320	48211296	33184
242	75.552648	124645376	89272320	52836024	33184
243	72.532295	125726720	90320896	70364256	33184
244	90.243588	131403776	96088064	75667208	33184
245	98.472374	130760704	95563776	34398808	33184
246	79.10888	130760704	95563776	40367632	33184
247	80.123262	130760704	95563776	46686352	33184
248	80.237341	130760704	95563776	53357360	33184
249	79.101961	130760704	95563776	60342720	33184
250	83.009642	131571712	96612352	67646296	33184
251	109.063611	123797504	90320896	30917096	33184
252	80.720094	125145088	90320896	37828120	33184
253	86.729098	125145088	90320896	33429048	33184
254	80.626003	125145088	90320896	42007680	33184
255	81.127553	125145088	90320896	50907880	33184
256	83.046675	125685760	90320896	60161800	33184
257	102.024497	126496768	91369472	57179016	33184
258	99.20749	126140416	90845184	36998480	33184
259	87.841222	126140416	90845184	34712672	33184
260	83.781676	126140416	90845184	45426104	33184
261	85.481357	126140416	90845184	56463128	33184
262	88.799818	126140416	90845184	55245400	33184
263	87.556189	127221760	91893760	66990808	33184
264	118.019172	129765376	94515200	35044480	33184
265	91.403057	129765376	94515200	34995056	33184
266	89.542394	129765376	94515200	48244288	33184
267	98.348431	129765376	94515200	49223496	33184
268	90.872362	129765376	94515200	63174288	33184
269	96.050889	131387392	96088064	64878536	33184
270	122.670192	132087808	97136640	34490832	33184
271	95.875961	132087808	97136640	36689936	33184
272	90.923648	132087808	97136640	51879976	33184
273	97.721226	132087808	97136640	54841312	33184
274	97.904137	132087808	97136640	58193128	33184
275	92.498435	132628480	97136640	74498488	33184
276	127.5269	133292032	98185216	28188816	33184
277	98.747283	133292032	98185216	33174040	33184
278	99.798153	133292032	98185216	38358168	33184
279	95.466182	133292032	98185216	56526256	33184
280	102.636788	133292032	98185216	62461080	33184
281	129.31704	127787008	92418048	25515184	33184
282	104.080228	127787008	92418048	32343472	33184
283	102.483335	127787008	92418048	39227168	33184
284	103.752065	127787008	92418048	46337936	33184
285	105.52859	127787008	92418048	53862264	33184
286	133.788396	127262720	91893760	34502104	33184
287	104.74044	127262720	91893760	42632976	33184
288	105.080362	127262720	91893760	51148168	33184
289	105.673807	127262720	91893760	60554104	33184
290	106.504495	129425408	94515200	70338672	33184
291	127.471777	137535488	102379520	80556464	33184
292	124.310933	135004160	99758080	42012328	33184
293	112.902021	135004160	99758080	40051104	33184
294	108.116534	135004160	99758080	51079440	33184
295	109.004335	135004160	99758080	62491648	33184
296	121.513221	136085504	100806656	74314480	33184
297	132.004251	128311296	92942336	41173280	33184
298	113.965962	128311296	92942336	41004480	33184
299	112.627501	128311296	92942336	53890816	33184
300	112.064075	128311296	92942336	67117840	33184
301	149.293089	130715648	97136640	23588080	33184
302	116.531903	132063232	97136640	36700760	33184
303	113.318333	132063232	97136640	51203768	33184
304	117.888325	132063232	97136640	53454160	33184
305	116.446669	132603904	97136640	68734392	33184
306	147.290984	128593920	93466624	24589808	33184
307	117.220667	128593920	93466624	40805784	33184
308	123.258672	128593920	93466624	44740576	33184
309	118.494803	128593920	93466624	61835248	33184
310	128.58896	129945600	94515200	66801432	33184
311	147.473829	128995328	93466624	42193432	33184
312	123.261349	128995328	93466624	47770424	33184
313	124.514457	128995328	93466624	53790496	33184
314	126.454377	129806336	94515200	60228752	33184
315	148.707478	129662976	94515200	31400216	33184
316	125.224724	129662976	94515200	38790824	33184
317	126.728696	129662976	94515200	46499584	33184
318	126.537145	129662976	94515200	54647144	33184
319	154.568204	125939712	91893760	32539192	33184
320	128.137854	127287296	91893760	40857232	33184
321	128.187735	127287296	91893760	50248480	33184
322	129.016376	127287296	91893760	60307576	33184
323	162.807182	130740224	97136640	27296712	33184
324	133.863759	140468224	106573824	37218904	33184
325	132.651403	141549568	106573824	48322904	33184
326	133.043469	141549568	106573824	59909016	33184
327	139.416326	142360576	107098112	72103024	33184
328	161.417967	123531264	88223744	39894224	33184
329	133.294739	123801600	88223744	52750896	33184
330	136.049118	123801600	88223744	66230912	33184
331	143.058619	134074368	99233792	68000856	33184
332	173.586681	136138752	100806656	37559240	33184
333	136.110232	136138752	100806656	52215088	33184
334	136.344356	136138752	100806656	67279040	33184
335	142.200337	136679424	101330944	70242240	33184
336	167.009171	130023424	95039488	33471856	33184
337	146.964497	130023424	95039488	37492216	33184
338	140.954193	130023424	95039488	54362064	33184
339	144.950086	131915776	96612352	59140704	33184
340	170.9673	125702144	90320896	30238872	33184
341	141.879533	125702144	90320896	48435160	33184
342	149.514788	125702144	90320896	54645648	33184
343	153.090145	127594496	92942336	61439120	33184
344	177.119738	129486848	93990912	42386320	33184
345	149.957472	129486848	93990912	49861840	33184
346	143.960941	129486848	93990912	70368376	33184
347	163.777956	137326592	102379520	78768192	33184
348	175.59682	135901184	100806656	40482432	33184
349	151.513337	135901184	100806656	50202624	33184
350	155.630638	135901184	100806656	60259816	33184
351	181.65652	131088384	97136640	36193400	33184
352	154.143152	132435968	97136640	45779136	33184
353	156.899155	132435968	97136640	57009704	33184
354	154.68332	134057984	98709504	69020936	33184
355	183.41146	131907584	96612352	32850288	33184
356	160.701524	131907584	96612352	46005176	33184
357	157.506874	131907584	96612352	59338128	33184
358	187.967402	125812736	90845184	29842408	33184
359	159.095794	125812736	90845184	43898224	33184
360	158.255722	125812736	90845184	58458832	33184
361	192.817167	125669376	91893760	31319912	33184
362	163.97164	127016960	91893760	46230376	33184
363	160.85777	127016960	91893760	62213904	33184
364	168.641525	132153344	97136640	66246616	33184
365	192.564011	128225280	92942336	33267824	33184
366	163.463033	128495616	92942336	50766144	33184
367	169.653912	128495616	92942336	56189424	33184
368	196.54342	125759488	90320896	30767904	33184
369	164.297949	125759488	90320896	49730576	33184
370	174.051908	125759488	90320896	56662976	33184
371	200.327403	128737280	93466624	32529392	33184
372	173.227336	128737280	93466624	40537488	33184
373	167.658727	128737280	93466624	61528880	33184
374	200.97455	134684672	99233792	70436184	33184
375	183.401355	140144640	105525248	48119944	33184
376	174.97437	140955648	105525248	58044328	33184
377	175.802498	140955648	105525248	68740472	33184
378	198.962862	125227008	89796608	37948392	33184
379	180.21748	125227008	89796608	49650912	33184
380	183.449387	126308352	90845184	61845552	33184
381	212.389605	125890560	90320896	50579032	33184
382	181.009667	125890560	90320896	63842144	33184
383	182.846271	136433664	101855232	78058944	33184
384	206.62208	125014016	89796608	40392336	33184
385	186.541178	125014016	89796608	42756200	33184
386	217.443565	122413056	88748032	31663632	33184
387	182.197789	124301312	88748032	47162584	33184
388	186.123499	124841984	89272320	63268136	33184
389	199.6181	137818112	102903808	79876976	33184
390	209.671163	135815168	100282368	51493176	33184
391	193.495685	135815168	100282368	56672584	33184
392	191.845613	139599872	104476672	75144664	33184
393	228.170318	132521984	97136640	47728168	33184
394	189.914865	132521984	97136640	67058688	33184
395	196.688984	140361728	105000960	74276000	33184
396	222.047125	132550656	97660928	37628088	33184
397	197.001834	132550656	97660928	45912696	33184
398	191.895394	132550656	97660928	67414672	33184
399	224.489934	126263296	90845184	30550976	33184
400	193.138119	126263296	90845184	53293344	33184
401	240.077264	124448768	90845184	37570640	33184
402	199.144602	125796352	90845184	48180344	33184
403	200.794561	128770048	93466624	59678440	33184
404	232.197148	134275072	99233792	35696192	33184
405	200.504482	134275072	99233792	48432080	33184
406	205.705704	134815744	99758080	61615160	33184
407	234.244566	129040384	93466624	39499456	33184
408	205.194361	129040384	93466624	53705216	33184
409	204.755197	129581056	93990912	68719440	33184
410	233.132212	127500288	92418048	36053536	33184
411	208.421551	127500288	92418048	52696176	33184
412	240.701099	127836160	92418048	41100248	33184
413	206.846848	127836160	92418048	58127768	33184
414	215.416858	131080192	95563776	63100240	33184
415	236.915591	130719744	95563776	32369696	33184
416	211.467427	130719744	95563776	51072760	33184
417	248.113362	127586304	93466624	42227240	33184
418	218.726946	128933888	93466624	49092104	33184
419	216.970882	131366912	96088064	69576168	33184
420	250.043787	136146944	100806656	40535824	33184
421	219.88631	136146944	100806656	49381528	33184
422	221.670914	136687616	101330944	71412832	33184
423	253.011518	129306624	93990912	53529040	33184
424	221.889486	132820992	97660928	64039336	33184
425	257.246516	139534336	106049536	37040640	33184
426	216.82474	140881920	106049536	60198720	33184
427	222.035972	140881920	106049536	72468880	33184
428	262.055831	136220672	100806656	33161952	33184
429	223.073631	136220672	100806656	59158824	33184
430	229.908319	136220672	100806656	73185112	33184
431	252.024101	132612096	97660928	35794816	33184
432	230.115139	132612096	97660928	50883400	33184
433	260.241165	130461696	95039488	37227352	33184
434	233.438621	130461696	95039488	53500280	33184
435	234.928574	135327744	100282368	70419144	33184
436	272.087512	138784768	103428096	59637688	33184
437	230.889225	138784768	103428096	77700200	33184
438	273.942405	153382912	118632448	83832592	33184
439	239.657167	145514496	110768128	62111088	33184
440	241.968758	146055168	110768128	69365592	33184
441	271.345545	138387456	102903808	35492736	33184
442	237.356755	138387456	102903808	56469928	33184
443	239.907473	138387456	102903808	78344624	33184
444	267.988056	132083712	97136640	36056208	33184
445	241.842035	132624384	97136640	59107160	33184
446	287.230648	125861888	90320896	61401112	33184
447	246.85072	137756672	102903808	72801032	33184
448	267.533918	155058176	120205312	97313552	33184
449	267.347033	141025280	105525248	54268120	33184
450	243.548142	141025280	105525248	80075256	33184
451	285.096974	137326592	102379520	38044160	33184
452	251.781758	137326592	102379520	52383248	33184
453	257.419836	138678272	103428096	79946320	33184
454	283.884273	135376896	99758080	52076048	33184
455	251.409356	138620928	103428096	80831408	33184
456	292.922552	138399744	103428096	40898736	33184
457	252.947482	138399744	103428096	58276688	33184
458	285.96448	140832768	105525248	76267456	33184
459	270.559041	149864448	116011008	63305352	33184
460	259.885435	150945792	116011008	83263464	33184
461	292.173195	135213056	99758080	44668848	33184
462	257.65331	135213056	99758080	65176560	33184
463	298.188174	134897664	99758080	41144488	33184
464	261.094536	134897664	99758080	62761296	33184
465	283.00651	141385728	106049536	85071600	33184
466	288.442396	140333056	105000960	64018256	33184
467	269.84228	143036416	107622400	75026536	33184
468	303.907853	137756672	102903808	39926480	33184
469	264.413568	137756672	102903808	64712360	33184
470	310.512124	131567616	96612352	45288096	33184
471	268.903733	131567616	96612352	58837672	33184
472	275.629042	143462400	108146688	85501112	33184
473	318.764322	142544896	107622400	55878904	33184
474	268.790128	143626240	108670976	83799952	33184
475	304.743798	138866688	103952384	40587624	33184
476	274.379124	138866688	103952384	57180176	33184
477	309.056062	133627904	98185216	40641152	33184
478	279.336454	133627904	98185216	58821800	33184
479	312.687307	136368128	101330944	44195192	33184
480	284.018175	136368128	101330944	63329816	33184
481	321.150753	138944512	103428096	36666400	33184
482	282.715336	138944512	103428096	57322384	33184
483	312.482497	148135936	112865280	79252840	33184
484	300.753136	161017856	127545344	67514912	33184
485	289.212411	162369536	127545344	90390000	33184
486	314.529429	133152768	97660928	39357064	33184
487	288.444141	133152768	97660928	63035600	33184
488	335.555317	129302528	93990912	68229360	33184
489	295.681201	148496384	113389568	80575696	33184
490	321.674162	138915840	103428096	43620920	33184
491	291.759874	138915840	103428096	70273696	33184
492	331.324274	129503232	93990912	37629072	33184
493	292.777542	129503232	93990912	65170600	33184
494	326.350508	135331840	99758080	45362104	33184
495	299.944867	135331840	99758080	61658704	33184
496	325.275727	127819776	92418048	42782936	33184
497	313.301536	130252800	95039488	60654200	33184
498	334.079483	131149824	96088064	67723640	33184
499	307.348422	150884352	115486720	86710024	33184
500	326.962124	132141056	97136640	42215352	33184
