x	Duration	RSS	HeapTotal	HeapUsed	External
0	NA	103469056	68300800	15110056	33184
1	0.277299	103469056	68300800	15162720	33184
2	0.198909	103469056	68300800	15230584	33184
3	0.216712	103469056	68300800	15323136	33184
4	0.261367	103469056	68300800	15442048	33184
5	0.305751	103469056	68300800	15589080	33184
6	0.366334	103469056	68300800	15764968	33184
7	0.437645	103469056	68300800	15970848	33184
8	0.479045	103469056	68300800	16208000	33184
9	0.522862	103469056	68300800	16478928	33184
10	0.592736	103469056	68300800	16783952	33184
11	0.925649	103469056	68300800	17124184	33184
12	0.72714	103469056	68300800	17500928	33184
13	0.937618	103469056	68300800	17915432	33184
14	0.88272	103469056	68300800	18372640	33184
15	1.045712	103469056	68300800	18866208	33184
16	0.961096	103469056	68300800	19401168	33184
17	1.070977	103469056	68300800	19985840	33184
18	1.105269	103469056	68300800	20609120	33184
19	1.166356	103469056	68300800	21278560	33184
20	1.566349	103469056	68300800	21994288	33184
21	1.505022	103469056	68300800	22760136	33184
22	1.439469	103469056	68300800	23578008	33184
23	1.51924	103469056	68300800	24442008	33184
24	1.610546	103469056	68300800	25360376	33184
25	2.483943	103469056	68300800	26332744	33184
26	1.507124	103469056	68300800	27355048	33184
27	1.851994	103469056	68300800	28433088	33184
28	1.668996	103469056	68300800	29568136	33184
29	1.880558	103469056	68300800	30761232	33184
30	2.81248	103469056	68300800	15810792	33184
31	2.167595	103469056	68300800	17124016	33184
32	1.97445	103469056	68300800	18501664	33184
33	2.28495	103469056	68300800	19946696	33184
34	2.175188	103469056	68300800	21456328	33184
35	2.260295	103469056	68300800	23031552	33184
36	2.365455	103469056	68300800	24673664	33184
37	2.460274	103469056	68300800	26383728	33184
38	2.796764	103469056	68300800	28163176	33184
39	2.665067	103469056	68300800	30013024	33184
40	2.773749	103469056	68300800	31934680	33184
41	4.296504	103469056	68300800	17732384	33184
42	2.987415	103469056	68300800	19800928	33184
43	3.144126	103469056	68300800	21945072	33184
44	3.940778	103469056	68300800	24168000	33184
45	3.769029	103469056	68300800	26478016	33184
46	3.598094	103469056	68300800	28860440	33184
47	3.544947	103469056	68300800	31324688	33184
48	5.031647	103469056	68300800	17817632	33184
49	4.572917	103469056	68300800	20458152	33184
50	3.957177	103469056	68300800	23176280	33184
51	4.908951	103469056	68300800	25981760	33184
52	4.335895	103469056	68300800	28883496	33184
53	4.469099	103469056	68300800	31866576	33184
54	6.220004	103469056	68300800	19158408	33184
55	5.474078	103469056	68300800	22327032	33184
56	4.61459	103469056	68300800	25585784	33184
57	4.720481	103469056	68300800	28938832	33184
58	5.093534	103469056	68300800	32387416	33184
59	7.426312	103469056	68300800	20153944	33184
60	5.181867	103469056	68300800	23797200	33184
61	5.270859	103469056	68300800	27539976	33184
62	5.680462	103469056	68300800	31383896	33184
63	7.252374	103469056	68300800	19538384	33184
64	6.69082	103469056	68300800	23596120	33184
65	6.168954	103469056	68300800	27756584	33184
66	6.203643	103469056	68300800	32021576	33184
67	8.02851	103469056	68300800	20547568	33184
68	6.262724	103469056	68300800	25027176	33184
69	7.2912	103469056	68300800	29623592	33184
70	6.602545	103469056	68300800	34322280	33184
71	8.372462	103469056	68300800	23126752	33184
72	7.380111	103469056	68300800	28049728	33184
73	7.189365	103469056	68300800	33086424	33184
74	9.622632	103469056	68300800	22377864	33184
75	7.797035	103469056	68300800	27646208	33184
76	7.504024	103469056	68300800	33032032	33184
77	9.914868	103469056	68300800	22742400	33184
78	8.299469	103469056	68300800	28367184	33184
79	8.045147	103469056	68300800	34113448	33184
80	10.095155	103469056	68300800	24072136	33184
81	8.759703	103469056	68300800	30064984	33184
82	9.174425	103469056	68300800	36184040	33184
83	10.455851	103469056	68300800	26387864	33184
84	9.350382	103469056	68300800	32761992	33184
85	11.514275	103469056	68300800	23573944	33184
86	10.04122	103469056	68300800	30218232	33184
87	9.823391	103469056	68300800	36984152	33184
88	12.596917	103469056	68300800	27873984	33184
89	11.322862	103469056	68300800	34924872	33184
90	12.371343	103469056	68300800	26224480	33184
91	10.562786	103469056	68300800	33533616	33184
92	12.901566	103469056	68300800	25352176	33184
93	10.893876	103469056	68300800	32943736	33184
94	13.615568	103469056	68300800	25084952	33184
95	11.329853	103469056	68300800	32963704	33184
96	13.846257	103469056	68300800	25441112	33184
97	11.791118	103469056	68300800	33612288	33184
98	14.384201	103469056	68300800	26345552	33184
99	12.199254	103469056	68300800	34813592	33184
100	14.370166	103469056	68300800	27734400	33184
101	12.968027	103469056	68300800	36506128	33184
102	15.336863	103469056	68300800	29544192	33184
103	13.897745	103469056	68300800	38620832	33184
104	15.596163	103469056	68300800	31791528	33184
105	15.988993	103469056	68300800	25922168	33184
106	13.737539	103469056	68300800	35469344	33184
107	16.166385	103469056	68300800	29492112	33184
108	14.203031	103469056	68300800	39357000	33184
109	16.761314	103469056	68300800	33347848	33184
110	17.45015	103469056	68300800	28174352	33184
111	14.966452	103469056	68300800	38527072	33184
112	17.322109	103469056	68300800	33072024	33184
113	18.54146	103469056	68300800	28502256	33184
114	15.658432	103469056	68300800	39354888	33184
115	18.239447	103469056	68300800	34352488	33184
116	18.648516	103469056	68300800	30206520	33184
117	16.57953	103469056	68300800	41569736	33184
118	19.192186	103469056	68300800	36943640	33184
119	19.881461	103469056	68300800	33062976	33184
120	20.409586	103469056	68300800	29844048	33184
121	17.983865	103469056	68300800	41907008	33184
122	20.020474	103469056	68300800	38025112	33184
123	20.542392	103469056	68300800	34820728	33184
124	21.369749	103469056	68300800	32169704	33184
125	22.577976	103469056	68300800	30042744	33184
126	18.794512	103469056	68300800	43001136	33184
127	21.315876	103469056	68300800	40033688	33184
128	21.885916	103469056	68300800	37624736	33184
129	22.779226	103469056	68300800	35669272	33184
130	23.084516	103469056	68300800	34169784	33184
131	24.308666	103469056	68300800	33074376	33184
132	24.906382	103469056	68300800	32372968	33184
133	25.452678	103469056	68300800	31973560	33184
134	25.772291	103469056	68300800	31862896	33184
135	26.102887	103469056	68300800	31983488	33184
136	26.464424	103469056	68300800	32313584	33184
137	26.527473	103469056	68300800	32825888	33184
138	27.552274	103469056	68300800	33506632	33184
139	27.448361	103469056	68300800	34319768	33184
140	27.344355	103469056	68300800	35253064	33184
141	27.650936	103469056	68300800	36268216	33184
142	28.345488	103469056	68300800	37388512	33184
143	28.127979	103469056	68300800	38599944	33184
144	28.361041	103739392	69349376	39893952	33184
145	28.961911	104009728	69349376	41236704	33184
146	27.988386	104280064	69349376	42644768	33184
147	28.492602	104550400	69873664	44118848	33184
148	28.61442	104820736	69873664	45642928	33184
149	29.277793	104820736	69873664	47194312	33184
150	29.073551	105361408	70922240	48802952	33184
151	35.065431	105631744	70922240	36276216	33184
152	31.420956	105631744	70922240	39775960	33184
153	31.457279	105902080	71446528	43121240	33184
154	30.810166	106172416	71446528	46267304	33184
155	31.326566	106442752	71446528	49234168	33184
156	37.144492	106983424	72495104	37961736	33184
157	33.269554	106983424	72495104	42452320	33184
158	33.372069	107253760	73019392	46733112	33184
159	32.770236	107524096	73019392	50690064	33184
160	39.239903	108064768	73019392	40235728	33184
161	34.925	108064768	73543680	45495992	33184
162	33.657405	108335104	74067968	50403120	33184
163	39.508468	108875776	74592256	40854856	33184
164	39.175395	111308800	76689408	49065280	33184
165	35.194895	111579136	76689408	54763976	33184
166	41.398778	112119808	77213696	45672456	33184
167	37.906604	111550464	77737984	52197024	33184
168	42.14458	112091136	78262272	44288640	33184
169	42.591627	114524160	80883712	53653680	33184
170	42.100552	114794496	80883712	60385168	33184
171	56.297391	111394816	77213696	28894112	33184
172	36.468972	111394816	77213696	21213888	33184
173	38.17224	111665152	77213696	31495352	33184
174	37.98337	111665152	77213696	24719920	33184
175	38.382708	111665152	77737984	35488024	33184
176	39.723158	112205824	77737984	29096488	33184
177	36.412933	112205824	77737984	37773112	33184
178	39.789897	112205824	77737984	31521232	33184
179	41.785079	112205824	77737984	27105000	33184
180	40.693914	112205824	77737984	39244280	33184
181	41.522684	112205824	77737984	34499840	33184
182	42.83224	112205824	77737984	30706416	33184
183	42.125251	112205824	77737984	43484368	33184
184	42.718424	112205824	77737984	39099768	33184
185	44.112081	112205824	77737984	35884072	33184
186	42.641956	112205824	77737984	49449104	33184
187	44.638378	112205824	77737984	45595320	33184
188	45.452744	112205824	77737984	42612896	33184
189	49.04124	112205824	77737984	44202184	33184
190	50.426125	113287168	79310848	45904952	33184
191	48.178211	115179520	81408000	60699944	33184
192	64.921274	115720192	81932288	58001712	33184
193	54.410071	115781632	81932288	33343440	33184
194	47.444846	115781632	81932288	31372520	33184
195	46.715082	115781632	81932288	30092720	33184
196	51.534192	116051968	81932288	33556768	33184
197	51.262973	116051968	81932288	37158840	33184
198	52.476172	116322304	81932288	41044992	33184
199	53.036189	116322304	81932288	45204408	33184
200	52.883283	116322304	81932288	49654512	33184
201	55.080244	116322304	81932288	54361336	33184
202	54.682503	117133312	82980864	59360448	33184
203	62.847541	120918016	87175168	64651104	33184
204	78.726292	121454592	87175168	27872056	33184
205	53.89831	121454592	87175168	33633248	33184
206	55.109256	121454592	87175168	39638264	33184
207	56.695845	121454592	87175168	45923976	33184
208	61.842135	121995264	87699456	39875112	33184
209	56.070909	121995264	87699456	46732160	33184
210	56.170832	121995264	87699456	53916272	33184
211	58.093238	122535936	88223744	61353200	33184
212	68.031799	124428288	90320896	56511224	33184
213	80.347869	123015168	90320896	35948136	33184
214	62.894349	124362752	90320896	30794584	33184
215	58.436277	124362752	90320896	39420888	33184
216	59.412873	124362752	90320896	48319608	33184
217	65.701921	125173760	90845184	44917416	33184
218	60.118223	125173760	90845184	54415304	33184
219	65.520506	125173760	90845184	51659392	33184
220	61.898282	125173760	90845184	61731464	33184
221	81.559323	127877120	93990912	59571208	33184
222	79.767672	124882944	90845184	25618808	33184
223	64.7284	124882944	90845184	36746120	33184
224	69.548293	124882944	90845184	35654616	33184
225	64.871273	124882944	90845184	47404000	33184
226	69.117914	125153280	90845184	46913896	33184
227	65.846928	125153280	90845184	59288912	33184
228	71.158053	125153280	90845184	59394592	33184
229	86.281042	127045632	92942336	59849680	33184
230	80.969266	125059072	90845184	28855480	33184
231	68.666904	125059072	90845184	42321816	33184
232	73.222794	125059072	90845184	43571504	33184
233	72.29444	125059072	90845184	45304256	33184
234	73.922783	125059072	90845184	47307048	33184
235	70.649261	125059072	90845184	62231680	33184
236	76.569047	125059072	90845184	64886272	33184
237	105.831762	125423616	91369472	25739840	33184
238	72.102023	125423616	91369472	41567592	33184
239	76.252382	125423616	91369472	45064952	33184
240	76.670175	125423616	91369472	48910976	33184
241	75.644647	125693952	91369472	53045144	33184
242	76.243719	125693952	91369472	57547080	33184
243	78.405688	125964288	91893760	62348920	33184
244	104.494184	129417216	96612352	21732232	33184
245	75.258545	132657152	98709504	38770200	33184
246	86.199277	140226560	107098112	32042896	33184
247	83.387644	145633280	112865280	38213744	33184
248	82.753197	151310336	119156736	44895608	33184
249	81.120638	156987392	125448192	51892072	33184
250	82.154538	162394112	131739648	59213352	33184
251	111.590629	98971648	64630784	22206240	33184
252	83.629333	98971648	64630784	30392760	33184
253	84.460138	100864000	66727936	38775984	33184
254	84.606146	106811392	73019392	47486328	33184
255	84.366806	112488448	78786560	56537472	33184
256	91.397761	120057856	86126592	53324328	33184
257	116.919669	109801472	77213696	36332864	33184
258	84.898213	111149056	77213696	45902776	33184
259	87.953803	111960064	77737984	43606432	33184
260	88.181369	113582080	79310848	54324632	33184
261	92.64384	121151488	87175168	52729696	33184
262	89.683926	126828544	92942336	64163360	33184
263	100.576635	132505600	98709504	76309640	33184
264	110.611055	113115136	78786560	28205472	33184
265	89.773069	113115136	78786560	40711960	33184
266	93.540996	113115136	78786560	40921232	33184
267	91.755508	115548160	81408000	54138512	33184
268	97.046485	123117568	89272320	55073608	33184
269	96.814448	128794624	95039488	69039704	33184
270	115.031215	116621312	82980864	38592984	33184
271	95.439725	116621312	82980864	40752264	33184
272	97.917278	116621312	82980864	43679624	33184
273	95.991004	117972992	83505152	59631384	33184
274	99.871797	125001728	90845184	63284224	33184
275	125.328708	115224576	82456576	34995424	33184
276	98.891432	116842496	82456576	37792960	33184
277	100.166917	116842496	82456576	42076704	33184
278	100.237212	117383168	82980864	46746488	33184
279	103.184179	119545856	85602304	51814232	33184
280	108.244581	125222912	91369472	69884920	33184
281	125.098238	120475648	86650880	32624104	33184
282	101.593539	120475648	86650880	38804584	33184
283	103.011382	120475648	86650880	45415584	33184
284	104.124094	122097664	87699456	52519576	33184
285	107.935341	128581632	94515200	60049136	33184
286	133.950698	125526016	91369472	37252544	33184
287	105.181723	125526016	91369472	45429480	33184
288	104.854829	125526016	91369472	53908384	33184
289	107.484047	126066688	91369472	62798208	33184
290	108.96615	128229376	93990912	72069608	33184
291	133.885894	137961472	103428096	69126408	33184
292	114.971128	125902848	91369472	43123120	33184
293	113.861919	125902848	91369472	41003088	33184
294	110.148205	125902848	91369472	52014312	33184
295	109.017505	126173184	91369472	63443896	33184
296	125.568971	130768896	96088064	75266440	33184
297	130.361491	126160896	91369472	42338536	33184
298	116.352604	126160896	91369472	42182960	33184
299	113.035041	126160896	91369472	55025136	33184
300	118.405025	126701568	91893760	55689376	33184
301	142.228207	123990016	90845184	24260864	33184
302	116.651564	131014656	97136640	37388120	33184
303	113.798471	131825664	97136640	51851464	33184
304	119.525353	131825664	97136640	54412232	33184
305	116.984408	131825664	97136640	70175120	33184
306	149.486462	122003456	87699456	25959760	33184
307	118.904175	122003456	87699456	42192800	33184
308	124.864445	122003456	87699456	46160256	33184
309	122.802401	122814464	88223744	50697584	33184
310	127.103597	126869504	92418048	68225832	33184
311	148.907112	126672896	91893760	43346808	33184
312	124.461302	126672896	91893760	48944160	33184
313	124.320009	126672896	91893760	54943520	33184
314	129.058898	128835584	93990912	61374520	33184
315	151.524285	125440000	91369472	32718952	33184
316	127.3713	125710336	91369472	40377616	33184
317	129.318351	125710336	91369472	48427784	33184
318	131.914536	127332352	92418048	56769256	33184
319	157.14583	123224064	90320896	34804544	33184
320	130.732248	124571648	90320896	43004384	33184
321	129.972873	124571648	90320896	52399936	33184
322	130.546762	126193664	91369472	62240944	33184
323	140.742674	130248704	95563776	72525504	33184
324	156.787553	131305472	96612352	39517680	33184
325	133.099723	131305472	96612352	50694112	33184
326	134.916086	131305472	96612352	62451752	33184
327	134.669452	131846144	97136640	74666376	33184
328	163.087314	128233472	93466624	37667096	33184
329	140.001723	128233472	93466624	38134608	33184
330	137.572897	128233472	93466624	51683312	33184
331	139.773718	128774144	93990912	65657416	33184
332	172.92806	127582208	92942336	40415880	33184
333	137.746011	127582208	92942336	55073472	33184
334	144.254908	127582208	92942336	57566624	33184
335	140.833186	133799936	99758080	73172072	33184
336	169.893604	129863680	95563776	37746464	33184
337	147.690931	130134016	95563776	41589864	33184
338	140.00669	130134016	95563776	58494648	33184
339	153.878968	130945024	96088064	63315112	33184
340	171.894977	126103552	91369472	42331064	33184
341	145.688868	126103552	91369472	47997376	33184
342	143.382171	126103552	91369472	66668808	33184
343	156.26897	136646656	102379520	73247576	33184
344	174.660656	135380992	100806656	46390800	33184
345	149.907844	135380992	100806656	53888152	33184
346	151.068732	135380992	100806656	61843128	33184
347	176.147578	138625024	103952384	70475328	33184
348	161.365505	138280960	105000960	44937256	33184
349	154.865364	139362304	105000960	54477168	33184
350	153.224991	139362304	105000960	64486488	33184
351	185.290391	125272064	91893760	40269848	33184
352	157.273577	126619648	91893760	49901864	33184
353	155.863752	126619648	91893760	61125872	33184
354	158.584608	128241664	93466624	72802872	33184
355	183.862891	128847872	94515200	36674656	33184
356	158.327115	128847872	94515200	49272328	33184
357	165.464448	128847872	94515200	49867408	33184
358	184.317795	124645376	90320896	33536496	33184
359	161.112902	124645376	90320896	47538232	33184
360	162.781387	124645376	90320896	62102968	33184
361	198.357478	127545344	94515200	35120736	33184
362	160.538588	128892928	94515200	49964336	33184
363	169.434958	128892928	94515200	53415152	33184
364	168.604079	131596288	97136640	70172696	33184
365	202.476328	133365760	98709504	44913536	33184
366	165.405901	133365760	98709504	62434864	33184
367	171.245806	133636096	99233792	67879560	33184
368	201.579026	133464064	100806656	36302808	33184
369	172.820269	134811648	100806656	41535512	33184
370	167.227024	134811648	100806656	60987968	33184
371	173.43156	136163328	101330944	68437688	33184
372	209.182561	131715072	97136640	45240824	33184
373	173.221049	131715072	97136640	53653736	33184
374	170.645682	133337088	98709504	75135944	33184
375	213.135593	137486336	104476672	33556024	33184
376	177.272069	138833920	104476672	42169168	33184
377	178.473992	138833920	104476672	65243920	33184
378	181.979281	140455936	105525248	76466080	33184
379	201.299657	127705088	92942336	36952176	33184
380	179.553733	127705088	92942336	49170448	33184
381	205.540997	129327104	95039488	61901640	33184
382	195.773336	124026880	89272320	50377184	33184
383	182.192991	124026880	89272320	64132232	33184
384	189.124102	136192000	102379520	78412504	33184
385	221.090129	138698752	103952384	49064000	33184
386	183.533376	138698752	103952384	64102824	33184
387	183.940477	138698752	103952384	79713808	33184
388	215.079523	134033408	99758080	40907728	33184
389	191.20934	134033408	99758080	44897912	33184
390	192.591043	134033408	99758080	62100064	33184
391	218.404138	127700992	92942336	33925536	33184
392	188.72651	127700992	92942336	52116928	33184
393	192.627599	127700992	92942336	58265280	33184
394	231.180374	129789952	95039488	53199776	33184
395	195.347285	129789952	95039488	60448168	33184
396	194.681175	139522048	105000960	80776152	33184
397	228.708351	134828032	100282368	31874600	33184
398	195.067813	134828032	100282368	53293680	33184
399	200.373684	135098368	100282368	62917648	33184
400	223.738022	129777664	95039488	38952080	33184
401	200.069883	129777664	95039488	49369656	33184
402	217.048537	130859008	96088064	60317144	33184
403	225.009584	129269760	94515200	45779408	33184
404	198.319698	129269760	94515200	70695824	33184
405	223.407136	142245888	107622400	83531232	33184
406	230.603277	142884864	108146688	48698600	33184
407	210.969882	142884864	108146688	62693352	33184
408	214.354518	144777216	110243840	77221664	33184
409	237.919087	136007680	101330944	55545552	33184
410	207.760378	136007680	101330944	71260112	33184
411	213.773754	144117760	109719552	87888000	33184
412	248.134129	144609280	109719552	55835496	33184
413	214.438615	144609280	109719552	73200024	33184
414	223.366772	146231296	111816704	78570944	33184
415	248.627313	137379840	102903808	46934568	33184
416	212.795338	137379840	102903808	65621232	33184
417	224.56949	145760256	111292416	84846896	33184
418	244.365878	146120704	111292416	54779328	33184
419	224.346603	146120704	111292416	62608120	33184
420	253.278162	135622656	102379520	33820928	33184
421	221.532252	150757376	117059584	54151808	33184
422	225.516261	167788544	135409664	63553792	33184
423	262.891362	122839040	88223744	33475440	33184
424	224.170586	123109376	88223744	56803072	33184
425	227.056154	132841472	98709504	67999128	33184
426	254.58215	117489664	82980864	41011112	33184
427	226.718336	118300672	83505152	53280832	33184
428	246.663194	133980160	99758080	66105968	33184
429	248.869097	126791680	91893760	50781128	33184
430	231.150563	134361088	99758080	64779600	33184
431	267.687962	125558784	91369472	39702368	33184
432	230.749126	125558784	91369472	54977344	33184
433	235.981432	134479872	99758080	70681032	33184
434	260.39281	121278464	86650880	34435616	33184
435	233.411631	121278464	86650880	51317720	33184
436	267.803948	128864256	93990912	39327264	33184
437	234.584073	128864256	93990912	57401368	33184
438	235.539702	135081984	100282368	76050864	33184
439	263.084858	121741312	87175168	42009144	33184
440	236.27387	122011648	87175168	61855512	33184
441	273.711752	126083072	91369472	39763192	33184
442	235.777049	126083072	91369472	60743920	33184
443	282.116389	127746048	94515200	40178336	33184
444	238.330833	129093632	94515200	61732216	33184
445	250.652345	137474048	102903808	71918536	33184
446	275.383305	126828544	92418048	40434096	33184
447	249.403448	126828544	92418048	51769320	33184
448	277.728789	130781184	97660928	46092960	33184
449	251.605263	132128768	97660928	57989032	33184
450	254.216559	139157504	104476672	71168424	33184
451	269.922985	125784064	91369472	44484816	33184
452	249.722351	126054400	91369472	58857336	33184
453	284.15912	124563456	89796608	35926232	33184
454	252.239026	124563456	89796608	64926904	33184
455	285.427426	124612608	89796608	36732200	33184
456	259.457175	124612608	89796608	54327848	33184
457	306.304263	125059072	90320896	53398040	33184
458	260.498397	141008896	106573824	71424640	33184
459	299.134588	137887744	105000960	45988912	33184
460	265.782846	139235328	105000960	64121152	33184
461	263.02536	140857344	106049536	84427672	33184
462	292.809601	130453504	95563776	35777744	33184
463	260.5318	130453504	95563776	56808016	33184
464	282.952818	124579840	89796608	45866696	33184
465	270.125452	124579840	89796608	55598448	33184
466	291.43834	125218816	90320896	43549648	33184
467	271.921699	125759488	90845184	54473888	33184
468	309.021707	126816256	91893760	57188536	33184
469	271.482037	142495744	107622400	82029176	33184
470	309.183576	138547200	104476672	47263096	33184
471	278.600038	138547200	104476672	61080648	33184
472	287.175804	145035264	110768128	75707224	33184
473	311.485932	134414336	99758080	58004488	33184
474	273.898925	143335424	108670976	85929040	33184
475	306.771419	133533696	99233792	42833416	33184
476	276.445855	133533696	99233792	59387712	33184
477	307.082066	129409024	95039488	43203544	33184
478	281.091945	129409024	95039488	61055064	33184
479	314.566327	135200768	100806656	46259920	33184
480	283.324177	135200768	100806656	65403744	33184
481	322.944222	134557696	100282368	38308048	33184
482	283.553631	134557696	100282368	58744384	33184
483	316.589284	147263488	112865280	79800040	33184
484	298.781187	159162368	126496768	67228472	33184
485	290.563523	160784384	126496768	90100472	33184
486	320.707161	125595648	90845184	39588296	33184
487	293.807322	126406656	91893760	63168896	33184
488	340.806507	129818624	95039488	67265672	33184
489	301.669408	148471808	113913856	79643200	33184
490	322.393635	138436608	103952384	42419608	33184
491	295.76709	138436608	103952384	68632880	33184
492	330.825612	132050944	97136640	48179304	33184
493	298.721431	132050944	97136640	63181192	33184
494	332.381931	138838016	104476672	43479120	33184
495	303.407001	138838016	104476672	59699784	33184
496	338.623311	133988352	99233792	41084688	33184
497	298.859772	133988352	99233792	71267760	33184
498	340.417272	139841536	105000960	40787536	33184
499	301.786144	139841536	105000960	72249040	33184
500	344.00541	133550080	98709504	42865312	33184
