x	Duration	RSS	HeapTotal	HeapUsed	External
0	NA	129064960	93990912	70142000	33184
1	0.320925	129064960	93990912	70184872	33184
2	0.289872	129064960	93990912	70252240	33184
3	0.331711	129064960	93990912	70344440	33184
4	0.407623	129064960	93990912	70462952	33184
5	0.470495	129064960	93990912	70609440	33184
6	0.552709	129064960	93990912	70784640	33184
7	0.704973	129064960	93990912	70989856	33184
8	0.717232	129064960	93990912	71226160	33184
9	0.808256	129064960	93990912	71496200	33184
10	0.893219	129064960	93990912	71800128	33184
11	7.288527	129605632	94515200	59351296	33184
12	0.580779	129605632	94515200	59726792	33184
13	0.59867	129605632	94515200	60139944	33184
14	0.87579	129605632	94515200	60591896	33184
15	0.694427	129605632	94515200	61083944	33184
16	0.748996	129605632	94515200	61617264	33184
17	0.823527	129605632	94515200	62195016	33184
18	1.083264	129605632	94515200	62816448	33184
19	0.962799	129605632	94515200	63484008	33184
20	0.986338	129605632	94515200	64197872	33184
21	1.077918	129605632	94515200	64959984	33184
22	1.344526	129605632	94515200	65771728	33184
23	1.213901	129605632	94515200	66634264	33184
24	1.250983	129605632	94515200	67548816	33184
25	1.344604	129605632	94515200	68516576	33184
26	1.397817	129605632	94515200	69538856	33184
27	1.470868	129605632	94515200	70616904	33184
28	1.578184	129605632	94515200	71751856	33184
29	1.641365	129605632	94515200	72945040	33184
30	5.67693	131227648	96088064	59662720	33184
31	1.829422	131497984	96088064	60975800	33184
32	1.897963	131497984	96088064	62353440	33184
33	1.993709	131497984	96088064	63798488	33184
34	2.303901	131497984	96088064	65308088	33184
35	2.158224	131497984	96088064	66883256	33184
36	2.264242	131497984	96088064	68525288	33184
37	2.342492	131497984	96088064	70235304	33184
38	2.443308	131497984	96088064	72014920	33184
39	2.589117	131497984	96088064	73864768	33184
40	2.642052	131497984	96088064	75786264	33184
41	6.103411	131768320	96612352	61557952	33184
42	3.048084	131768320	96612352	63627576	33184
43	3.118737	131768320	96612352	65771688	33184
44	5.477187	131768320	96612352	68002112	33184
45	3.368195	131768320	96612352	70304112	33184
46	3.248443	131768320	96612352	72686296	33184
47	3.358969	131768320	96612352	75151392	33184
48	5.084788	132038656	97136640	61694536	33184
49	3.603348	132038656	97136640	64326528	33184
50	3.6985	132038656	97136640	67044712	33184
51	4.060157	132038656	97136640	69850136	33184
52	3.931896	132038656	97136640	72743632	33184
53	4.205657	132038656	97136640	75726808	33184
54	5.799625	132579328	97136640	62938000	33184
55	4.329826	132579328	97136640	66103520	33184
56	4.465182	132579328	97136640	69362128	33184
57	4.791732	132579328	97136640	72715136	33184
58	4.706024	132579328	97136640	76163728	33184
59	6.186434	132849664	97660928	63806664	33184
60	5.042881	133120000	97660928	67449848	33184
61	5.337479	133120000	97660928	71192560	33184
62	5.273767	133120000	97660928	75035536	33184
63	8.178093	133390336	98185216	63195888	33184
64	5.711815	133390336	98185216	67260848	33184
65	5.972993	133390336	98185216	71420424	33184
66	5.856889	133660672	98185216	75685712	33184
67	8.641123	133931008	98709504	64221984	33184
68	6.409785	133931008	98709504	68701456	33184
69	6.285563	133931008	98709504	73289736	33184
70	6.684352	133931008	98709504	77988320	33184
71	7.981465	134201344	98709504	66827384	33184
72	6.751686	134201344	98709504	71750304	33184
73	7.169385	134201344	99233792	76788320	33184
74	9.703203	134742016	99758080	66122888	33184
75	7.466323	134742016	99758080	71394208	33184
76	7.642185	134742016	99758080	76780352	33184
77	9.251648	135012352	100282368	66490552	33184
78	7.733367	135012352	100282368	72116520	33184
79	8.137702	135282688	100282368	77862576	33184
80	9.606405	135553024	100282368	67827616	33184
81	8.458528	135553024	100282368	73820016	33184
82	8.854298	135553024	100282368	79938280	33184
83	10.33363	135823360	100806656	70142712	33184
84	9.06626	135823360	100806656	76516720	33184
85	10.864077	136093696	101330944	67336544	33184
86	9.383085	136364032	101330944	73970056	33184
87	9.754029	136364032	101330944	80736920	33184
88	11.552673	136634368	101330944	71628256	33184
89	9.993803	136634368	101330944	78663320	33184
90	11.972928	136904704	101855232	69966168	33184
91	10.177823	136904704	101855232	77275384	33184
92	12.625882	137445376	101855232	69099512	33184
93	10.764091	137445376	101855232	76690680	33184
94	13.000757	137715712	102903808	68832136	33184
95	11.225306	137715712	102903808	76710584	33184
96	13.419282	137986048	102903808	69187296	33184
97	11.401325	137986048	102903808	77358384	33184
98	13.832249	138256384	103428096	70092216	33184
99	12.00343	138526720	103428096	78560344	33184
100	13.982778	138797056	103428096	71484280	33184
101	12.436723	138797056	103428096	80254448	33184
102	14.476373	139067392	103952384	73296032	33184
103	12.650898	139067392	103952384	82372488	33184
104	15.15341	139337728	104476672	75543440	33184
105	17.833359	139608064	104476672	69684024	33184
106	13.458124	139608064	104476672	79230640	33184
107	16.413165	139878400	105000960	73254560	33184
108	13.963016	140148736	105000960	83119632	33184
109	16.095842	140419072	105000960	77112152	33184
110	16.944965	140689408	105525248	71937992	33184
111	14.617518	140689408	105525248	82292464	33184
112	17.182869	140959744	105525248	76839144	33184
113	18.034245	141230080	106049536	72272800	33184
114	15.140648	141230080	106049536	83124480	33184
115	17.974073	141500416	106573824	78122568	33184
116	18.988618	141770752	106573824	73978480	33184
117	16.327274	141770752	106573824	85340408	33184
118	18.818555	142041088	107098112	80715424	33184
119	19.554228	142311424	107098112	76834096	33184
120	20.473494	142581760	107622400	73615144	33184
121	17.311862	142581760	107622400	85674088	33184
122	19.758701	142852096	107622400	81794568	33184
123	20.107704	143122432	108146688	78592360	33184
124	21.11167	143392768	108670976	75941192	33184
125	22.301801	143663104	108670976	73817200	33184
126	18.689214	143663104	108670976	86776816	33184
127	20.993463	143933440	108670976	83809336	33184
128	21.716832	144203776	109195264	81400352	33184
129	22.616518	144474112	109195264	79447352	33184
130	23.195213	144744448	109719552	77947832	33184
131	23.692515	145014784	109719552	76852392	33184
132	24.03906	145285120	110243840	76150952	33184
133	24.477114	145555456	110243840	75751856	33184
134	25.170454	145825792	110243840	75640992	33184
135	25.562358	145825792	110768128	75761376	33184
136	25.889823	146096128	111292416	76091440	33184
137	26.511736	146366464	111292416	76603712	33184
138	26.142881	146636800	111292416	77284424	33184
139	26.797736	146907136	111816704	78097528	33184
140	26.911488	147177472	111816704	79030792	33184
141	26.889805	147447808	112340992	80045912	33184
142	27.612548	147718144	112340992	81166176	33184
143	27.192821	147988480	112340992	82377560	33184
144	27.623701	147988480	113389568	83671552	33184
145	27.469488	148258816	113389568	85014272	33184
146	27.799834	148529152	113389568	86422304	33184
147	27.559801	148799488	113913856	87896352	33184
148	28.304922	149069824	113913856	89420400	33184
149	28.128929	149340160	113913856	90971752	33184
150	28.96996	149610496	114438144	92580360	33184
151	33.762801	149880832	114962432	80053592	33184
152	31.34766	150151168	114962432	83553304	33184
153	31.126034	150421504	114962432	86898552	33184
154	30.371844	150691840	115486720	90044584	33184
155	30.105375	150962176	116011008	93011416	33184
156	36.522615	151502848	116011008	81738952	33184
157	32.544859	151502848	116535296	86229504	33184
158	32.263783	151773184	116535296	90510264	33184
159	32.184028	152043520	117059584	94467184	33184
160	37.713936	152313856	117059584	84012816	33184
161	33.455462	152584192	117583872	89273048	33184
162	33.408238	152854528	118108160	94180144	33184
163	38.579249	153395200	118632448	84631848	33184
164	38.594449	155557888	120729600	92842240	33184
165	36.920886	156098560	120729600	98540904	33184
166	53.28786	146407424	111292416	26603616	33184
167	43.345818	145514496	111292416	18376064	33184
168	36.043476	145514496	111292416	27456160	33184
169	33.362084	145514496	111292416	33784368	33184
170	35.531915	145514496	111292416	25306480	33184
171	34.77179	145514496	111292416	32479184	33184
172	37.615542	145514496	111292416	24783568	33184
173	37.812045	145514496	111292416	35070832	33184
174	38.573485	145514496	111292416	28286704	33184
175	38.808737	145514496	111292416	39051984	33184
176	38.388406	145514496	111292416	32647384	33184
177	36.552969	145514496	111292416	41104424	33184
178	39.191256	145514496	111292416	34436712	33184
179	39.951201	145514496	111292416	29669952	33184
180	41.890943	145514496	111292416	41698648	33184
181	40.67698	145514496	111292416	36703096	33184
182	45.709982	145514496	111292416	36469160	33184
183	42.14097	145514496	111292416	49160544	33184
184	42.31044	145514496	111292416	44787264	33184
185	43.340728	145514496	111292416	41549640	33184
186	43.533206	145514496	111292416	55117656	33184
187	43.212385	145514496	111292416	51255360	33184
188	44.249332	145514496	111292416	48247504	33184
189	50.509386	145514496	111292416	49827800	33184
190	66.555685	146055168	111816704	51579264	33184
191	61.158803	118292480	83505152	27427416	33184
192	48.586555	118292480	83505152	29652168	33184
193	51.170906	118292480	83505152	32039840	33184
194	50.88682	118292480	83505152	34701704	33184
195	50.065737	118292480	83505152	37671088	33184
196	46.824445	118292480	83505152	53752672	33184
197	45.888593	118292480	83505152	52033824	33184
198	46.839319	118292480	83505152	50932872	33184
199	48.102973	118292480	83505152	50375064	33184
200	52.967236	118292480	83505152	54824392	33184
201	54.61946	118292480	83505152	59416224	33184
202	53.337471	121266176	86650880	64450240	33184
203	48.864586	121536512	87175168	64739384	33184
204	48.285598	121806848	87175168	65398936	33184
205	48.951816	122077184	87699456	66274392	33184
206	55.835589	124510208	89796608	54779096	33184
207	78.17252	128024576	93466624	61168304	33184
208	61.669732	126791680	91893760	37067472	33184
209	54.871994	126791680	91893760	26325920	33184
210	57.956749	126791680	91893760	33569536	33184
211	57.738082	126791680	91893760	41144224	33184
212	63.449457	126791680	91893760	49053896	33184
213	63.450242	126791680	91893760	44592064	33184
214	60.056616	126791680	91893760	53032728	33184
215	58.564686	126791680	91893760	61779528	33184
216	64.97073	127332352	92418048	58218664	33184
217	87.921113	123682816	90320896	20265288	33184
218	63.896188	125841408	91369472	29224528	33184
219	64.817695	129626112	95563776	39172896	33184
220	70.027035	135303168	101855232	36807496	33184
221	63.264456	138817536	106049536	47347976	33184
222	67.822553	144494592	112340992	45607216	33184
223	63.059484	148008960	116535296	56754712	33184
224	69.347891	153686016	122826752	55630856	33184
225	92.934106	100577280	67252224	23911840	33184
226	64.309378	101924864	67252224	35295288	33184
227	69.521181	102195200	67252224	35089536	33184
228	70.406012	103276544	68825088	35189672	33184
229	67.520572	107061248	72495104	48189816	33184
230	71.778323	112738304	78262272	48950112	33184
231	71.895816	118685696	84029440	50010200	33184
232	73.689244	122200064	87699456	63938400	33184
233	92.738713	110190592	75640832	35950544	33184
234	77.673674	110460928	75640832	37871288	33184
235	75.972222	110460928	75640832	40084736	33184
236	72.413971	110460928	75640832	42641664	33184
237	68.786317	112893952	78262272	58051400	33184
238	74.624136	118300672	84029440	61227856	33184
239	76.59786	123977728	89796608	64754784	33184
240	102.225672	115351552	81932288	38479736	33184
241	78.681836	116969472	81932288	41923688	33184
242	75.482054	116969472	81932288	46563608	33184
243	75.485404	116969472	81932288	51533176	33184
244	78.18155	116969472	81932288	56829120	33184
245	79.004374	121024512	86650880	62453624	33184
246	81.465517	126701568	92418048	68429192	33184
247	109.37082	117469184	84553728	28258352	33184
248	80.376417	118816768	84553728	34041688	33184
249	79.387578	119087104	84553728	41018168	33184
250	79.596852	119087104	84553728	48355848	33184
251	82.314888	119087104	84553728	56020664	33184
252	86.471549	119898112	85078016	51436760	33184
253	89.993946	125034496	90320896	59825200	33184
254	105.475006	122810368	88223744	39165160	33184
255	88.573421	122810368	88223744	35531416	33184
256	82.781868	122810368	88223744	44813432	33184
257	86.950355	122810368	88223744	54460248	33184
258	89.54089	123621376	88748032	51836584	33184
259	85.428969	125784064	91369472	62199328	33184
260	114.424973	121769984	88748032	26231728	33184
261	87.652858	123387904	88748032	36350256	33184
262	91.540136	123387904	88748032	35632368	33184
263	90.238087	123387904	88748032	47897072	33184
264	92.315801	123387904	88748032	47883920	33184
265	90.517709	124198912	89272320	60878784	33184
266	123.65339	126447616	91369472	32668520	33184
267	90.41959	126447616	91369472	45918344	33184
268	95.875527	126447616	91369472	46853000	33184
269	95.144579	126447616	91369472	48185680	33184
270	92.164412	126447616	91369472	62481704	33184
271	95.092044	130232320	95563776	64515520	33184
272	125.74241	129597440	95039488	33855424	33184
273	96.933815	129597440	95039488	36731752	33184
274	95.904417	129597440	95039488	52551784	33184
275	99.099078	129597440	95039488	56455352	33184
276	104.725913	129867776	95039488	60671024	33184
277	103.689551	133111808	98709504	65203600	33184
278	130.329792	128749568	93990912	36253472	33184
279	101.006277	128749568	93990912	41422496	33184
280	101.297883	128749568	93990912	46829072	33184
281	104.530278	128749568	93990912	52676008	33184
282	111.059621	130371584	95039488	58835776	33184
283	106.081909	133345280	98185216	78034336	33184
284	132.068396	131420160	96612352	39433976	33184
285	103.677995	131420160	96612352	46722368	33184
286	102.215822	131420160	96612352	54429768	33184
287	103.269774	131420160	96612352	62513928	33184
288	103.662581	131420160	96612352	70993912	33184
289	133.630822	127664128	93990912	32710216	33184
290	106.347273	129011712	93990912	40828448	33184
291	107.850015	129011712	93990912	50523960	33184
292	113.134191	129011712	93990912	48148704	33184
293	110.142335	129011712	93990912	58828616	33184
294	138.791027	126492672	91369472	24445320	33184
295	110.048455	126492672	91369472	35773584	33184
296	108.403192	126492672	91369472	47414072	33184
297	109.067742	126492672	91369472	59451968	33184
298	116.371864	126492672	91369472	59319056	33184
299	141.670788	127881216	92942336	43522656	33184
300	116.277474	127881216	92942336	44201240	33184
301	112.868032	127881216	92942336	57890072	33184
302	118.422012	127881216	92942336	59562408	33184
303	115.301145	133017600	98185216	74206080	33184
304	147.338838	128114688	93466624	25190400	33184
305	116.17269	128114688	93466624	40624760	33184
306	123.048917	128114688	93466624	43908984	33184
307	116.786614	128114688	93466624	60220112	33184
308	146.472639	128655360	93990912	64339552	33184
309	125.804671	126504960	91369472	38975272	33184
310	123.798144	126504960	91369472	43903640	33184
311	117.530896	126504960	91369472	61871000	33184
312	126.479627	127586304	92942336	67646832	33184
313	151.728899	129904640	95039488	25652760	33184
314	120.17435	130174976	95039488	44617312	33184
315	127.312064	130174976	95039488	51483272	33184
316	125.230743	130174976	95039488	58748976	33184
317	153.068957	123297792	89796608	35811520	33184
318	127.007979	124645376	89796608	43296056	33184
319	130.370628	124645376	89796608	51884032	33184
320	129.47426	124915712	89796608	61042424	33184
321	162.67898	127152128	93466624	27725856	33184
322	129.792366	128499712	93466624	36776024	33184
323	130.738266	128499712	93466624	47067328	33184
324	133.13882	128499712	93466624	57766880	33184
325	137.253616	131473408	96612352	68878552	33184
326	161.90086	132837376	97660928	36821880	33184
327	131.826046	132837376	97660928	48810472	33184
328	134.11903	132837376	97660928	61468256	33184
329	134.365456	132837376	97660928	74543168	33184
330	165.023201	129253376	94515200	37600768	33184
331	141.561155	129253376	94515200	38970376	33184
332	138.20978	129253376	94515200	53380152	33184
333	147.513471	130334720	95039488	55664088	33184
334	166.421113	127672320	92418048	44051088	33184
335	142.483676	127672320	92418048	46995424	33184
336	140.066327	127672320	92418048	62990624	33184
337	146.114126	135782400	100806656	66860752	33184
338	176.533926	136613888	101330944	38387080	33184
339	142.269199	136613888	101330944	55743504	33184
340	145.670391	136613888	101330944	61027768	33184
341	145.201088	136613888	101330944	79457672	33184
342	177.607243	131604480	96612352	32178128	33184
343	147.146495	131874816	96612352	38724056	33184
344	143.634031	131874816	96612352	58344368	33184
345	155.768137	132415488	97136640	65831584	33184
346	179.09462	125054976	89796608	45756776	33184
347	150.251301	125054976	89796608	54167984	33184
348	153.219617	127488000	92418048	63127840	33184
349	179.281406	139112448	103952384	72683376	33184
350	156.742092	135385088	100282368	47124704	33184
351	154.443978	135385088	100282368	57606448	33184
352	158.833391	135655424	100282368	68571768	33184
353	191.208658	129757184	95039488	31127360	33184
354	157.012551	129757184	95039488	42992504	33184
355	156.090085	129757184	95039488	55155120	33184
356	159.458488	130568192	95563776	67761384	33184
357	198.544187	134606848	99233792	39110632	33184
358	157.298019	134606848	99233792	52705864	33184
359	161.96932	134606848	99233792	66800200	33184
360	174.512784	141635584	107098112	81599568	33184
361	183.547901	137297920	101855232	47176464	33184
362	164.24958	137297920	101855232	62688944	33184
363	165.762626	137297920	101855232	66145040	33184
364	195.389688	133632000	98709504	31940216	33184
365	165.43931	133632000	98709504	49089456	33184
366	168.037299	133632000	98709504	54034064	33184
367	174.699835	134172672	98709504	72544640	33184
368	197.583674	131489792	96088064	48205168	33184
369	173.212372	131489792	96088064	54648880	33184
370	165.763002	132571136	97660928	74141008	33184
371	202.320078	137379840	102379520	29928704	33184
372	170.131716	137379840	102379520	50409712	33184
373	173.693385	137379840	102379520	58780176	33184
374	205.585868	126361600	92418048	36549104	33184
375	175.708241	127709184	92418048	45226384	33184
376	179.703817	127709184	92418048	55157504	33184
377	176.091389	134197248	99758080	78426736	33184
378	213.652314	139603968	104476672	46221736	33184
379	177.326639	139603968	104476672	57662832	33184
380	179.778927	139603968	104476672	69650104	33184
381	215.333848	135610368	100806656	28547240	33184
382	178.084202	135610368	100806656	54134248	33184
383	185.294627	135610368	100806656	55066072	33184
384	212.290849	131661824	98185216	36872184	33184
385	182.161942	133009408	98185216	50572696	33184
386	184.181194	133009408	98185216	65786376	33184
387	211.379989	139227136	103952384	69506176	33184
388	199.987171	138903552	103952384	52673952	33184
389	191.682317	138903552	103952384	57138768	33184
390	188.978158	139444224	104476672	74573752	33184
391	228.926016	135806976	100806656	46415712	33184
392	189.497084	135806976	100806656	64610240	33184
393	196.449666	140132352	105000960	70761608	33184
394	215.194861	137232384	101855232	35614416	33184
395	193.577491	137232384	101855232	55469416	33184
396	204.449996	137773056	102379520	63256576	33184
397	223.593054	124694528	89272320	47201656	33184
398	190.91872	125505536	90320896	68586584	33184
399	204.57007	140914688	106049536	77961808	33184
400	234.713893	139935744	104476672	53340816	33184
401	198.669611	139935744	104476672	63755176	33184
402	200.917919	142368768	107098112	74699240	33184
403	219.30956	127135744	92418048	42015752	33184
404	201.943304	127676416	92418048	54052120	33184
405	235.108534	123523072	89796608	39004040	33184
406	205.251027	125140992	89796608	51938296	33184
407	205.548833	128655360	93466624	65651432	33184
408	240.750653	132173824	97660928	31027640	33184
409	203.910726	132173824	97660928	45803864	33184
410	208.370363	132984832	97660928	61169144	33184
411	234.300715	128880640	93466624	40635384	33184
412	209.453388	128880640	93466624	57439920	33184
413	224.350453	131313664	96088064	62149440	33184
414	241.362516	129810432	94515200	53808960	33184
415	209.286197	129810432	94515200	72051992	33184
416	226.448264	146841600	112340992	78855432	33184
417	249.711331	142295040	107098112	48158624	33184
418	214.085177	142295040	107098112	67993360	33184
419	232.02034	146079744	110768128	88338944	33184
420	240.971905	133677056	98185216	58769584	33184
421	220.850572	133677056	98185216	67676904	33184
422	257.585175	140279808	106573824	39898808	33184
423	220.722456	141627392	106573824	48753304	33184
424	218.032282	141627392	106573824	71917984	33184
425	255.637896	135921664	100806656	43931064	33184
426	223.671099	135921664	100806656	55818952	33184
427	226.548352	135921664	100806656	68057696	33184
428	249.413288	133668864	98709504	42579536	33184
429	225.746615	133668864	98709504	55995952	33184
430	261.428241	127942656	93990912	41358616	33184
431	227.214246	129290240	93990912	55410192	33184
432	231.099149	134426624	99233792	70566944	33184
433	262.716911	136966144	101855232	33698352	33184
434	232.993361	136966144	101855232	50007880	33184
435	270.585538	129536000	95563776	38476944	33184
436	234.362083	130883584	95563776	55309408	33184
437	237.070716	135208960	100282368	73359920	33184
438	272.169888	140267520	105000960	38730144	33184
439	237.012203	140267520	105000960	57965008	33184
440	250.823155	140537856	105525248	77750520	33184
441	264.266849	131543040	96612352	56069784	33184
442	240.262954	135598080	100806656	77001504	33184
443	276.820037	142000128	107098112	44126336	33184
444	242.401135	142000128	107098112	53902096	33184
445	238.771127	142270464	107098112	76649552	33184
446	264.990732	132947968	97660928	45539568	33184
447	249.598583	132947968	97660928	56925400	33184
448	274.958379	126119936	90845184	38790384	33184
449	245.121001	126119936	90845184	63934384	33184
450	284.80547	128258048	93466624	34544832	33184
451	245.252157	128258048	93466624	60900936	33184
452	282.441233	130928640	96088064	44112016	33184
453	253.509997	130928640	96088064	59589736	33184
454	256.216831	140390400	105525248	75957768	33184
455	293.506456	137412608	102379520	61985064	33184
456	251.558015	139304960	103952384	78766576	33184
457	296.179232	141135872	106573824	38680456	33184
458	257.712825	141135872	106573824	56856976	33184
459	260.314721	142487552	107098112	75470696	33184
460	279.179467	128843776	93466624	38865192	33184
461	264.335002	129384448	93990912	58708256	33184
462	300.812227	125468672	90320896	58108648	33184
463	262.88657	141148160	106049536	79167504	33184
464	297.250468	137273344	102379520	41817768	33184
465	264.085067	137273344	102379520	64372480	33184
466	279.878228	143491072	108146688	75034576	33184
467	312.058436	136740864	101330944	53950560	33184
468	266.525137	142688256	107622400	78131744	33184
469	305.660099	140963840	106049536	42787904	33184
470	274.542394	140963840	106049536	55747968	33184
471	271.603013	143667200	108670976	82001752	33184
472	313.055122	136552448	101330944	64359400	33184
473	274.272821	143851520	108670976	79062616	33184
474	303.620507	138502144	103428096	47810344	33184
475	295.216376	138502144	103428096	64150040	33184
476	309.115033	129925120	94515200	47194888	33184
477	281.001123	129925120	94515200	64565800	33184
478	317.639021	137306112	101855232	36566072	33184
479	276.574385	137306112	101855232	67863480	33184
480	328.064764	133935104	98709504	40595792	33184
481	282.301395	133935104	98709504	60449440	33184
482	286.973095	146911232	111816704	80957088	33184
483	330.184968	144535552	109719552	56810288	33184
484	286.283751	147509248	112340992	78868128	33184
485	316.446162	139345920	104476672	40231304	33184
486	283.893518	139345920	104476672	63283712	33184
487	321.72982	131350528	96088064	39302256	33184
488	287.98637	131350528	96088064	63577456	33184
489	325.514377	138162176	102903808	40638296	33184
490	289.81648	138162176	102903808	66218344	33184
491	329.681947	134098944	98709504	44207424	33184
492	295.550026	134098944	98709504	58507928	33184
493	339.540265	141586432	106573824	38283832	33184
494	294.602432	141586432	106573824	66561992	33184
495	305.894285	150507520	115486720	82807928	33184
496	335.920272	137625600	102379520	64190264	33184
497	302.229282	150872064	115486720	81783760	33184
498	327.274548	135049216	99758080	49566872	33184
499	304.948577	135049216	99758080	68491016	33184
500	345.811427	130179072	95563776	66817448	33184
