x	Duration	RSS	HeapTotal	HeapUsed	External
0	NA	124665856	90320896	37099672	33184
1	0.281772	124665856	90320896	37143120	33184
2	0.190784	124665856	90320896	37210776	33184
3	0.205012	124665856	90320896	37303232	33184
4	0.246063	124665856	90320896	37422032	33184
5	0.314538	124665856	90320896	37568904	33184
6	0.329967	124665856	90320896	37744552	33184
7	0.376515	124665856	90320896	37950248	33184
8	0.425202	124665856	90320896	38187128	33184
9	0.482635	124665856	90320896	38457816	33184
10	0.546381	124665856	90320896	38762448	33184
11	0.657513	124665856	90320896	39102312	33184
12	0.928541	124665856	90320896	39478680	33184
13	0.675022	124665856	90320896	39892712	33184
14	0.703888	124665856	90320896	40345664	33184
15	0.759569	124665856	90320896	40838816	33184
16	0.958924	124665856	90320896	41374264	33184
17	1.417439	124665856	90320896	41953176	33184
18	0.946935	124665856	90320896	42575872	33184
19	1.013513	124665856	90320896	43244680	33184
20	1.155429	124665856	90320896	43959792	33184
21	1.582157	124665856	90320896	44734288	33184
22	1.27832	124665856	90320896	45547512	33184
23	1.288718	124665856	90320896	46412456	33184
24	1.330575	124665856	90320896	47326984	33184
25	1.382182	124665856	90320896	48294848	33184
26	1.480766	124665856	90320896	49317136	33184
27	1.534711	124665856	90320896	50395152	33184
28	1.795443	124665856	90320896	51531288	33184
29	2.238549	124665856	90320896	52724504	33184
30	5.417141	125472768	90320896	38410648	33184
31	2.032264	126013440	90320896	39723912	33184
32	1.985983	126013440	90320896	41101624	33184
33	2.124756	126013440	90320896	42563584	33184
34	2.348544	126013440	90320896	44073264	33184
35	2.224517	126013440	90320896	45648504	33184
36	2.326124	126013440	90320896	47290592	33184
37	2.512815	126013440	90320896	49000808	33184
38	2.496675	126013440	90320896	50780216	33184
39	2.816928	126013440	90320896	52630104	33184
40	4.573352	126013440	90320896	38857040	33184
41	3.078431	126013440	90320896	40851576	33184
42	3.999209	126013440	90320896	42921720	33184
43	3.227216	126013440	90320896	45074376	33184
44	3.120793	126013440	90320896	47296176	33184
45	3.443555	126013440	90320896	49598384	33184
46	3.664044	126013440	90320896	51980592	33184
47	3.76587	126013440	90320896	54444832	33184
48	5.966435	126013440	90320896	41364624	33184
49	3.685994	126013440	90320896	43996720	33184
50	3.796173	126013440	90320896	46714864	33184
51	3.987277	126013440	90320896	49520408	33184
52	4.50992	126013440	90320896	52415616	33184
53	6.160345	126013440	90320896	39878672	33184
54	4.555717	126013440	90320896	42952752	33184
55	5.139638	126013440	90320896	46121392	33184
56	4.732946	126013440	90320896	49380008	33184
57	4.670085	126013440	90320896	52733088	33184
58	6.945906	126013440	90320896	40627568	33184
59	5.315142	126013440	90320896	44172856	33184
60	5.642536	126013440	90320896	47816232	33184
61	5.849957	126013440	90320896	51567440	33184
62	5.674927	126013440	90320896	55410448	33184
63	7.370996	126013440	90320896	43524920	33184
64	6.364727	126013440	90320896	47574544	33184
65	5.978766	126013440	90320896	51734768	33184
66	6.2415	126013440	90320896	56000072	33184
67	8.034312	126013440	90320896	44505040	33184
68	6.525644	126013440	90320896	48984384	33184
69	6.383759	126013440	90320896	53572600	33184
70	8.498861	126013440	90320896	42649880	33184
71	7.296854	126013440	90320896	47460624	33184
72	7.165137	126013440	90320896	52383384	33184
73	7.460165	126013440	90320896	57420160	33184
74	9.538757	126013440	90320896	46587752	33184
75	7.388859	126013440	90320896	51855904	33184
76	7.517711	126013440	90320896	57241784	33184
77	9.802879	126013440	90320896	46812112	33184
78	8.027109	126013440	90320896	52437416	33184
79	7.970596	126013440	90320896	58184272	33184
80	9.995412	126013440	90320896	48079928	33184
81	8.595536	126013440	90320896	54072752	33184
82	11.13308	126013440	90320896	44627680	33184
83	8.964182	126013440	90320896	50873104	33184
84	8.947037	126013440	90320896	57247048	33184
85	11.798464	126013440	90320896	47878224	33184
86	9.510672	126013440	90320896	54512432	33184
87	12.460144	126013440	90320896	45737648	33184
88	10.785535	126013440	90320896	52645248	33184
89	10.0036	126013440	90320896	59679640	33184
90	12.563373	126013440	90320896	50760496	33184
91	10.946476	126013440	90320896	58069640	33184
92	12.608555	126013440	90320896	49618856	33184
93	10.640963	126013440	90320896	57211648	33184
94	13.056773	126013440	90320896	49187992	33184
95	11.263738	126013440	90320896	57066608	33184
96	13.287181	126013440	90320896	49338808	33184
97	11.638128	126013440	90320896	57510736	33184
98	14.105392	126013440	90320896	50068256	33184
99	11.922588	126013440	90320896	58536336	33184
100	14.686774	126013440	90320896	51287232	33184
101	12.789859	126013440	90320896	60058224	33184
102	15.710859	126013440	90320896	52985088	33184
103	13.096956	126013440	90320896	62061432	33184
104	15.145703	126013440	90320896	55151792	33184
105	15.872345	126013440	90320896	49158176	33184
106	13.80942	126013440	90320896	58703712	33184
107	16.841687	126013440	90320896	52714136	33184
108	14.613717	126013440	90320896	62580448	33184
109	16.450395	126013440	90320896	56526496	33184
110	17.225869	126013440	90320896	51276336	33184
111	14.919436	126013440	90320896	61630048	33184
112	17.893585	126013440	90320896	56149440	33184
113	18.604282	126013440	90320896	51516648	33184
114	16.183731	126013440	90320896	62368912	33184
115	18.069418	126013440	90320896	57313968	33184
116	19.647833	126013440	90320896	53118000	33184
117	16.497163	126013440	90320896	64480072	33184
118	18.803736	126013440	90320896	59831424	33184
119	19.905067	126013440	90320896	55909992	33184
120	20.474991	126013440	90320896	52676848	33184
121	17.540718	126013440	90320896	64736584	33184
122	20.409719	126013440	90320896	60836112	33184
123	21.190476	126013440	90320896	57601152	33184
124	21.674268	126013440	90320896	54937192	33184
125	22.121968	126013440	90320896	52780744	33184
126	19.226603	126013440	90320896	65741280	33184
127	21.643894	126013440	90320896	62759992	33184
128	22.351751	126013440	90320896	60307504	33184
129	22.990957	126013440	90320896	58346720	33184
130	23.324438	126013440	90320896	56828760	33184
131	23.922862	126013440	90320896	55728072	33184
132	24.590184	126013440	90320896	54983800	33184
133	24.966235	126013440	90320896	54583744	33184
134	25.701272	126013440	90320896	54463304	33184
135	26.412884	126013440	90320896	54577736	33184
136	26.623534	126013440	90320896	54907592	33184
137	27.076686	126013440	90320896	55413352	33184
138	26.927783	126283776	90845184	56086016	33184
139	27.318798	126283776	90845184	56901480	33184
140	27.345763	126554112	90845184	57831688	33184
141	28.10871	126554112	90845184	58846280	33184
142	27.865423	126554112	90845184	59967168	33184
143	28.841288	126824448	91369472	61175168	33184
144	27.990001	126824448	91369472	62466008	33184
145	28.261007	127094784	91369472	63804104	33184
146	28.130109	127365120	91893760	65214336	33184
147	28.210938	127365120	92418048	66688624	33184
148	28.765109	127635456	92418048	68212800	33184
149	28.467662	127905792	92418048	69763744	33184
150	29.629002	128176128	92942336	71371584	33184
151	34.542844	128716800	92942336	58843736	33184
152	31.739225	128716800	93466624	62343480	33184
153	31.933932	128987136	93990912	65688760	33184
154	31.193183	129257472	93990912	68834824	33184
155	30.939849	129527808	93990912	71801688	33184
156	36.970331	130068480	94515200	60529256	33184
157	33.103543	130068480	94515200	65019840	33184
158	33.119434	130338816	95039488	69300632	33184
159	32.543469	130609152	95039488	73257584	33184
160	38.501555	131149824	95563776	62803248	33184
161	34.653736	131149824	95563776	68063512	33184
162	34.461519	131420160	96088064	72970640	33184
163	39.959835	131960832	96612352	63422376	33184
164	38.342978	134123520	99233792	71632800	33184
165	35.722155	134664192	99233792	77331496	33184
166	41.099808	135204864	99758080	68239896	33184
167	37.402153	134344704	99758080	74764464	33184
168	42.870192	135155712	100806656	66856080	33184
169	39.85483	137318400	102903808	76221120	33184
170	36.545847	137859072	102903808	82948704	33184
171	42.73166	138129408	103952384	74716192	33184
172	37.5253	138399744	103952384	82108288	33184
173	43.44515	138940416	103952384	74646976	33184
174	38.466265	138940416	104476672	82531544	33184
175	44.367996	139481088	105000960	75582184	33184
176	39.110554	139481088	105000960	83910744	33184
177	45.661286	140021760	105525248	77304600	33184
178	47.675837	141103104	106573824	72486600	33184
179	44.473045	143265792	108670976	84241056	33184
180	47.687609	144076800	109719552	79137936	33184
181	53.652793	147861504	113389568	78642768	33184
182	45.734444	150024192	115486720	91077440	33184
183	48.543773	150564864	116535296	86638344	33184
184	62.138066	154619904	120205312	86913016	33184
185	63.308302	142098432	107622400	24227296	33184
186	43.373407	142368768	107622400	37678464	33184
187	45.119532	142368768	107622400	33621000	33184
188	43.936934	142368768	107622400	30368520	33184
189	47.319284	142368768	107622400	31819720	33184
190	48.9204	142368768	107622400	33442736	33184
191	45.06123	142368768	107622400	48183480	33184
192	45.017802	142368768	107622400	45289120	33184
193	45.333199	142368768	107622400	43065424	33184
194	51.215498	142368768	107622400	45863856	33184
195	52.354705	142368768	107622400	48814448	33184
196	50.578712	142368768	107622400	52160568	33184
197	52.635507	142368768	107622400	55769352	33184
198	57.549739	142639104	107622400	59653296	33184
199	73.114113	122351616	88748032	35781008	33184
200	56.455943	123699200	88748032	26634656	33184
201	54.328726	123699200	88748032	31214984	33184
202	52.551635	123699200	88748032	36111608	33184
203	53.244519	123699200	88748032	41255040	33184
204	54.770782	123699200	88748032	46713736	33184
205	54.490153	123699200	88748032	52420896	33184
206	54.689002	123699200	88748032	58415080	33184
207	58.504527	123965440	88748032	64734736	33184
208	78.084519	126939136	91893760	58706120	33184
209	61.433001	126316544	90845184	33040912	33184
210	57.154454	126316544	90845184	22616744	33184
211	59.152749	126316544	90845184	30156728	33184
212	58.685743	126316544	90845184	38035472	33184
213	58.540698	126316544	90845184	46195216	33184
214	64.148326	126316544	90845184	42018640	33184
215	60.252031	126316544	90845184	50758208	33184
216	60.764059	126316544	90845184	59818720	33184
217	71.821827	126316544	90845184	56539144	33184
218	84.869759	125972480	90320896	25440032	33184
219	61.1267	125972480	90320896	35272040	33184
220	61.011775	125972480	90320896	45397384	33184
221	66.887071	125972480	90320896	43201440	33184
222	62.794737	125972480	90320896	53925800	33184
223	67.107645	125972480	90320896	52356288	33184
224	62.429635	125972480	90320896	63674480	33184
225	69.499945	126513152	90845184	62719056	33184
226	93.796359	128204800	93990912	32310720	33184
227	71.213386	129552384	93990912	31196104	33184
228	67.072525	129552384	93990912	44186880	33184
229	69.857803	129552384	93990912	44891816	33184
230	71.248585	129552384	93990912	45923696	33184
231	66.992672	129552384	93990912	59827056	33184
232	72.439863	129552384	93990912	61489000	33184
233	77.897898	130093056	94515200	63459528	33184
234	93.314113	132325376	97136640	33971536	33184
235	72.413056	132325376	97136640	36299032	33184
236	72.302462	132325376	97136640	38828600	33184
237	75.743015	132325376	97136640	41702328	33184
238	70.193393	132325376	97136640	57418776	33184
239	74.230931	132325376	97136640	60914920	33184
240	74.370287	132325376	97136640	64739224	33184
241	103.000186	127197184	92942336	23925760	33184
242	76.876355	128544768	92942336	27500016	33184
243	78.250937	128544768	92942336	32759808	33184
244	77.171116	128544768	92942336	38374560	33184
245	77.059336	128544768	92942336	44278544	33184
246	79.679276	128544768	92942336	50564720	33184
247	85.048254	129085440	93466624	57161376	33184
248	103.075885	127959040	92418048	34223016	33184
249	80.786153	127959040	92418048	41117064	33184
250	80.227651	127959040	92418048	48286880	33184
251	81.410658	127959040	92418048	55796712	33184
252	87.641391	127959040	92418048	51078704	33184
253	81.204481	128770048	93466624	59440688	33184
254	87.819928	130392064	95039488	68145272	33184
255	106.469445	131768320	96088064	31562128	33184
256	82.648708	131768320	96088064	40820896	33184
257	85.916549	131768320	96088064	50441576	33184
258	90.357366	131768320	96088064	47868640	33184
259	83.944133	131768320	96088064	58421872	33184
260	84.338868	131768320	96088064	69324216	33184
261	113.228308	125411328	89796608	26955032	33184
262	85.710092	125411328	89796608	38668216	33184
263	92.846626	125411328	89796608	37979144	33184
264	88.597939	125411328	89796608	50261360	33184
265	93.287287	125411328	89796608	50304552	33184
266	117.738185	122994688	88748032	22240144	33184
267	91.323244	124342272	88748032	35001880	33184
268	93.902601	124342272	88748032	36445832	33184
269	89.849831	124342272	88748032	50796584	33184
270	96.34388	124342272	88748032	52866264	33184
271	97.940371	125423616	89796608	67937744	33184
272	129.177841	129748992	93990912	29635392	33184
273	91.465487	129748992	93990912	45044616	33184
274	96.869052	129748992	93990912	48182576	33184
275	96.905788	129748992	93990912	51728496	33184
276	95.391028	129748992	93990912	68269552	33184
277	107.377185	132182016	96612352	72543880	33184
278	121.454109	132337664	96612352	31405408	33184
279	101.313625	132337664	96612352	36478264	33184
280	95.966741	132337664	96612352	55033952	33184
281	104.106457	132337664	96612352	61356048	33184
282	102.322936	132337664	96612352	68055456	33184
283	126.768563	125022208	89796608	34909720	33184
284	104.152562	125022208	89796608	42260536	33184
285	103.592425	125022208	89796608	49769240	33184
286	104.754009	125022208	89796608	57633232	33184
287	122.212888	126103552	90845184	53349896	33184
288	122.996267	124383232	88748032	34150608	33184
289	107.222304	124383232	88748032	43078800	33184
290	105.528487	124383232	88748032	52349432	33184
291	106.427927	124383232	88748032	62027840	33184
292	109.635511	129519616	93990912	72059608	33184
293	139.122847	132227072	97136640	38757048	33184
294	109.641027	132227072	97136640	49574360	33184
295	114.590578	132227072	97136640	48272264	33184
296	111.994346	132227072	97136640	60111176	33184
297	112.236664	133849088	98185216	72352848	33184
298	140.402221	129376256	93990912	34828416	33184
299	118.197322	129376256	93990912	35433312	33184
300	113.050192	129376256	93990912	48855632	33184
301	117.322733	129376256	93990912	50111992	33184
302	124.393709	130727936	95039488	64383592	33184
303	143.590446	127520768	91893760	38062080	33184
304	119.381876	127520768	91893760	40352040	33184
305	115.635412	127520768	91893760	55641888	33184
306	119.884513	128061440	92418048	58731536	33184
307	156.020069	129998848	96088064	29593896	33184
308	126.849114	131346432	96088064	45009320	33184
309	122.685715	131346432	96088064	49355624	33184
310	123.464391	131346432	96088064	54150464	33184
311	123.530325	132698112	97136640	59903744	33184
312	158.969767	131780608	96088064	36266696	33184
313	126.060655	131780608	96088064	42300528	33184
314	122.09022	131780608	96088064	61298880	33184
315	126.299479	131780608	96088064	68158976	33184
316	128.51876	137998336	102379520	75402192	33184
317	163.103422	137412608	101855232	36926664	33184
318	129.978739	137412608	101855232	45208120	33184
319	130.843453	137412608	101855232	54358552	33184
320	131.238074	137682944	102379520	63750696	33184
321	159.620967	130535424	96612352	37266984	33184
322	130.778831	131883008	96612352	45870096	33184
323	131.147805	131883008	96612352	56167920	33184
324	135.556344	131883008	96612352	54284960	33184
325	155.988627	134586368	99233792	65425160	33184
326	143.079431	133525504	98185216	46376280	33184
327	138.141389	133525504	98185216	45977704	33184
328	134.751902	133525504	98185216	58630352	33184
329	137.087138	134336512	98709504	71721736	33184
330	172.27261	134914048	99233792	42177696	33184
331	138.023373	134914048	99233792	56021240	33184
332	141.461998	134914048	99233792	58253832	33184
333	137.750072	135184384	99758080	73476360	33184
334	165.943222	132882432	97660928	36969816	33184
335	143.215344	132882432	97660928	39916552	33184
336	140.190517	132882432	97660928	55896920	33184
337	150.703711	133423104	98185216	59781352	33184
338	170.999826	127594496	91893760	38458048	33184
339	139.721716	127594496	91893760	55817168	33184
340	147.873944	127594496	91893760	61212592	33184
341	148.729104	135974912	100806656	80019184	33184
342	182.918771	136536064	100806656	42230696	33184
343	146.891416	136536064	100806656	48817760	33184
344	148.517372	136536064	100806656	68413416	33184
345	152.492354	137617408	101855232	75897736	33184
346	187.356557	134586368	98709504	37350136	33184
347	146.490231	134586368	98709504	58322560	33184
348	152.771471	134586368	98709504	67490872	33184
349	155.562401	139182080	103952384	77467824	33184
350	190.592225	141152256	105525248	39654072	33184
351	153.109537	141152256	105525248	49919272	33184
352	156.38239	141152256	105525248	60675224	33184
353	162.406217	141963264	106573824	71963712	33184
354	189.092183	135847936	100282368	49462072	33184
355	157.71218	135847936	100282368	61622472	33184
356	160.905595	135847936	100282368	61688192	33184
357	195.987471	138977280	105525248	27554160	33184
358	164.069871	149516288	115486720	39901192	33184
359	161.264295	150327296	115486720	53956128	33184
360	161.72274	150327296	115486720	68490824	33184
361	195.982891	128692224	92942336	33505688	33184
362	163.96056	128692224	92942336	49184032	33184
363	167.621703	128692224	92942336	53322960	33184
364	175.030748	132747264	97136640	70357952	33184
365	197.299438	133152768	97660928	44771960	33184
366	168.411889	133152768	97660928	62533504	33184
367	171.978626	133423104	97660928	68398392	33184
368	199.166402	132395008	97136640	36058616	33184
369	170.680262	132395008	97136640	42430024	33184
370	168.852428	132395008	97136640	61922648	33184
371	206.824913	128552960	94515200	38691576	33184
372	174.868894	129900544	94515200	45848632	33184
373	179.76606	129900544	94515200	54338544	33184
374	178.161132	134225920	98709504	76092608	33184
375	213.290106	137609216	102379520	42863256	33184
376	169.3523	137609216	102379520	65370512	33184
377	179.090954	137609216	102379520	75864576	33184
378	215.029421	136712192	101330944	34000752	33184
379	184.572925	136712192	101330944	45666224	33184
380	178.353821	136712192	101330944	57636328	33184
381	206.250119	138334208	102379520	70150304	33184
382	192.921751	142405632	107622400	51278656	33184
383	180.226812	143216640	107622400	65055464	33184
384	183.711804	143216640	107622400	79305440	33184
385	214.259526	129257472	93466624	30129568	33184
386	183.07023	129257472	93466624	45488288	33184
387	219.130601	121618432	87699456	35302424	33184
388	184.015944	122966016	87699456	51265488	33184
389	186.124474	124317696	88748032	67912024	33184
390	222.023947	139456512	103952384	72480632	33184
391	197.924885	134373376	98709504	44533584	33184
392	194.234397	134373376	98709504	62835224	33184
393	193.765077	138969088	103428096	81829040	33184
394	235.594601	135426048	99758080	43117728	33184
395	190.227755	135426048	99758080	62967536	33184
396	198.195613	139481088	103952384	83278088	33184
397	225.140092	130465792	95039488	36583552	33184
398	198.577914	130736128	95039488	45350752	33184
399	227.587174	133439488	98185216	67319792	33184
400	204.962342	124616704	89272320	51019720	33184
401	200.71079	128401408	92942336	61675312	33184
402	220.715014	141918208	106573824	85511296	33184
403	224.095707	137154560	101330944	49145696	33184
404	203.867873	137154560	101330944	61436560	33184
405	213.221639	144183296	108670976	74307416	33184
406	236.617596	135868416	100282368	52449264	33184
407	204.273887	135868416	100282368	66126312	33184
408	209.160609	143978496	108146688	80381456	33184
409	249.507692	138264576	102379520	46650184	33184
410	210.528233	138264576	102379520	62230120	33184
411	210.316455	145563648	110243840	78415976	33184
412	231.759198	128987136	93466624	36325824	33184
413	211.034421	128987136	93466624	53369704	33184
414	240.976421	127148032	91369472	42999352	33184
415	219.412945	127148032	91369472	48509248	33184
416	220.74613	131473408	96088064	67939920	33184
417	255.242413	134717440	99233792	47845560	33184
418	213.082999	134987776	99233792	67620144	33184
419	237.647192	146341888	110768128	87976488	33184
420	239.65902	140357632	104476672	58741160	33184
421	221.973949	140357632	104476672	67720392	33184
422	258.65947	133955584	99758080	40597184	33184
423	220.63319	135303168	99758080	49329936	33184
424	221.560119	136114176	100282368	72529464	33184
425	262.076546	137752576	102903808	32620576	33184
426	220.912392	137752576	102903808	56900528	33184
427	225.899198	139104256	103428096	69279784	33184
428	250.208178	132313088	96612352	43645200	33184
429	228.843541	132313088	96612352	57030296	33184
430	263.337758	131837952	97660928	43811776	33184
431	229.566602	133185536	97660928	57750504	33184
432	231.481348	134537216	98709504	72979640	33184
433	262.790533	135262208	99758080	36485936	33184
434	233.893816	135262208	99758080	52865048	33184
435	268.482279	128667648	94515200	41348520	33184
436	235.659118	130015232	94515200	58181048	33184
437	236.004637	135151616	99758080	76304712	33184
438	267.206177	134057984	98185216	42123944	33184
439	235.726934	134057984	98185216	61378008	33184
440	276.130452	129548288	93990912	38842864	33184
441	241.094529	129548288	93990912	59612056	33184
442	250.895118	138469376	102903808	68521880	33184
443	270.480787	130523136	95039488	36002640	33184
444	239.805824	130793472	95039488	58178704	33184
445	274.529761	127041536	91369472	37264480	33184
446	241.982439	127041536	91369472	60637872	33184
447	282.793811	133677056	98185216	41723824	33184
448	249.060417	133677056	98185216	54016432	33184
449	248.279423	138543104	102903808	80050760	33184
450	273.821526	125960192	90320896	40893368	33184
451	257.628413	126771200	91369472	55356760	33184
452	289.90801	125755392	90320896	61813304	33184
453	256.250151	139001856	103952384	76827424	33184
454	302.052156	137957376	102379520	35932576	33184
455	253.371588	137957376	102379520	64915312	33184
456	255.948997	139579392	103952384	81685656	33184
457	289.178907	129851392	93990912	42054576	33184
458	254.898541	129851392	93990912	60007376	33184
459	292.733226	127021056	91369472	35730208	33184
460	258.853516	127561728	91893760	54970136	33184
461	288.896246	127700992	91893760	43009520	33184
462	260.787949	127700992	91893760	63416208	33184
463	299.570748	129597440	93990912	40323784	33184
464	261.518359	129597440	93990912	62000848	33184
465	307.378858	132534272	97136640	40058936	33184
466	268.137581	132534272	97136640	63267312	33184
467	300.62263	144429056	109195264	75072944	33184
468	284.800114	137789440	102379520	54408424	33184
469	276.478077	143736832	108146688	79786928	33184
470	298.826582	132272128	96612352	47291808	33184
471	271.373544	132542464	96612352	60752864	33184
472	306.5466	127672320	91893760	41720112	33184
473	273.227697	127672320	91893760	56414088	33184
474	298.214438	127733760	91893760	38112456	33184
475	272.943881	127733760	91893760	66665136	33184
476	304.079133	127131648	91369472	38785024	33184
477	291.25702	129294336	93466624	56050696	33184
478	315.074175	128167936	92418048	64170520	33184
479	285.401056	145739776	110243840	82667232	33184
480	310.656796	134930432	99233792	41565992	33184
481	284.196766	134930432	99233792	61475328	33184
482	311.396247	129904640	93990912	48220568	33184
483	283.592432	129904640	93990912	69231520	33184
484	321.912577	136634368	100806656	44433344	33184
485	285.329006	136634368	100806656	66785112	33184
486	323.664378	131362816	96088064	42771448	33184
487	289.166759	131903488	96088064	66360520	33184
488	325.553421	136552448	100806656	43567448	33184
489	288.695527	136552448	100806656	68440096	33184
490	329.397237	134135808	98185216	46719464	33184
491	296.203399	134135808	98185216	60411768	33184
492	333.61018	136986624	101330944	39336720	33184
493	297.184244	136986624	101330944	66872720	33184
494	335.099166	138285056	102903808	46667624	33184
495	298.278233	138285056	102903808	63046184	33184
496	326.232321	149639168	113913856	92534824	33184
497	327.775529	142290944	106573824	63196344	33184
498	311.268258	152023040	116535296	81706632	33184
499	324.168437	131862528	96088064	49738280	33184
500	351.645245	125620224	91369472	46674248	33184
