x	Duration	RSS	HeapTotal	HeapUsed	External
0	NA	132075520	96088064	46027088	33184
1	0.447048	132075520	96088064	46069960	33184
2	0.412444	132075520	96088064	46137328	33184
3	0.476526	132075520	96088064	46229528	33184
4	0.569858	132075520	96088064	46348040	33184
5	0.381071	132075520	96088064	46494528	33184
6	0.284583	132075520	96088064	46669728	33184
7	0.335998	132075520	96088064	46874872	33184
8	0.367796	132075520	96088064	47111176	33184
9	0.416725	132075520	96088064	47381512	33184
10	0.465238	132075520	96088064	47685440	33184
11	0.516715	132075520	96088064	48024648	33184
12	0.570594	132075520	96088064	48400128	33184
13	0.664055	132075520	96088064	48813256	33184
14	0.666693	132075520	96088064	49265208	33184
15	0.766351	132075520	96088064	49757248	33184
16	0.780403	132075520	96088064	50290576	33184
17	5.266534	132075520	96088064	37773464	33184
18	0.979421	132075520	96088064	38394944	33184
19	0.971827	132075520	96088064	39062480	33184
20	1.020436	132075520	96088064	39776312	33184
21	1.284616	132075520	96088064	40538416	33184
22	1.270136	132075520	96088064	41350152	33184
23	1.349793	132075520	96088064	42212640	33184
24	1.5454	132075520	96088064	43127192	33184
25	1.405929	132075520	96088064	44095072	33184
26	1.455778	132075520	96088064	45117440	33184
27	1.558992	132075520	96088064	46195552	33184
28	1.657345	132075520	96088064	47330576	33184
29	1.693476	132075520	96088064	48523776	33184
30	1.755494	132075520	96088064	49776392	33184
31	1.859243	132075520	96088064	51089472	33184
32	1.951921	132075520	96088064	52467096	33184
33	4.659869	132345856	96088064	38948600	33184
34	2.172393	132345856	96088064	40458296	33184
35	2.239186	132345856	96088064	42033512	33184
36	2.520985	132345856	96088064	43675648	33184
37	2.613547	132345856	96088064	45385760	33184
38	2.521405	132345856	96088064	47165128	33184
39	2.656076	132345856	96088064	49014880	33184
40	2.835787	132345856	96088064	50936416	33184
41	3.167213	132345856	96088064	52931416	33184
42	4.129832	132345856	96088064	38845536	33184
43	3.30472	132345856	96088064	40989520	33184
44	3.40764	132345856	96088064	43211264	33184
45	3.568478	132345856	96088064	45513328	33184
46	3.366663	132345856	96088064	47895616	33184
47	3.50785	132345856	96088064	50359872	33184
48	3.780365	132345856	96088064	52907464	33184
49	4.980239	132345856	96088064	39380392	33184
50	4.094162	132345856	96088064	42098488	33184
51	4.273638	132345856	96088064	44904112	33184
52	4.116427	132345856	96088064	47798032	33184
53	4.784554	132345856	96088064	50782448	33184
54	4.315699	132345856	96088064	53856600	33184
55	5.886603	132345856	96088064	40766896	33184
56	4.841779	132345856	96088064	44025480	33184
57	4.722904	132345856	96088064	47378576	33184
58	4.84702	132345856	96088064	50827536	33184
59	4.968593	132345856	96088064	54372768	33184
60	6.752434	132345856	96088064	41720488	33184
61	5.519835	132345856	96088064	45470904	33184
62	6.7677	132345856	96088064	49315928	33184
63	5.810977	132345856	96088064	53279640	33184
64	6.943601	132345856	96088064	41278168	33184
65	5.924394	132345856	96088064	45437856	33184
66	6.073623	132345856	96088064	49702784	33184
67	6.081273	132345856	96088064	54074392	33184
68	7.484028	132345856	96088064	42597848	33184
69	6.408192	132345856	96088064	47186424	33184
70	6.559158	132345856	96088064	51885000	33184
71	8.225991	132345856	96088064	41060784	33184
72	6.832871	132345856	96088064	45984616	33184
73	7.174128	132345856	96088064	51021400	33184
74	7.1856	132345856	96088064	56173200	33184
75	8.866605	132345856	96088064	45372392	33184
76	7.945163	132345856	96088064	50766584	33184
77	7.678149	132345856	96088064	56271616	33184
78	9.679223	132345856	96088064	45867968	33184
79	8.394804	132345856	96088064	51614016	33184
80	10.08716	132345856	96088064	41975760	33184
81	9.442172	132345856	96088064	47976248	33184
82	8.531244	132345856	96088064	54094392	33184
83	10.332401	132345856	96088064	44571720	33184
84	9.060216	132345856	96088064	50945608	33184
85	9.696949	132345856	96088064	57447992	33184
86	10.628484	132345856	96088064	48079064	33184
87	10.650993	132345856	96088064	54854200	33184
88	11.486521	132345856	96088064	46007296	33184
89	9.788844	132345856	96088064	53042312	33184
90	12.103595	132345856	96088064	44716744	33184
91	10.859358	132345856	96088064	52027616	33184
92	13.108111	132345856	96088064	44098048	33184
93	11.584578	132345856	96088064	51698456	33184
94	13.314443	132345856	96088064	44141448	33184
95	10.984759	132345856	96088064	52019688	33184
96	13.874293	132345856	96088064	44756472	33184
97	11.846813	132345856	96088064	52927904	33184
98	14.09874	132345856	96088064	45890600	33184
99	12.10536	132345856	96088064	54358576	33184
100	14.72518	132345856	96088064	47486088	33184
101	12.746812	132345856	96088064	56255920	33184
102	14.901345	132345856	96088064	49491464	33184
103	12.954357	132345856	96088064	58568064	33184
104	14.842673	132345856	96088064	51843496	33184
105	13.362401	132345856	96088064	61231760	33184
106	15.175608	132345856	96088064	54635296	33184
107	16.164028	132345856	96088064	48880992	33184
108	14.340998	132345856	96088064	58747200	33184
109	16.716284	132345856	96088064	52917704	33184
110	17.472353	132345856	96088064	47969944	33184
111	14.606063	132345856	96088064	58322432	33184
112	17.418076	132345856	96088064	53031560	33184
113	18.055708	132345856	96088064	48639000	33184
114	15.516067	132345856	96088064	59491552	33184
115	18.005836	132345856	96088064	54609504	33184
116	18.974401	132345856	96088064	50597200	33184
117	16.243413	132345856	96088064	61959576	33184
118	18.815778	132345856	96088064	57383816	33184
119	19.092363	132345856	96088064	53588416	33184
120	20.248128	132345856	96088064	50404208	33184
121	17.490925	132345856	96088064	62464880	33184
122	19.859827	132345856	96088064	58620416	33184
123	20.26147	132345856	96088064	55485064	33184
124	21.590675	132345856	96088064	52860336	33184
125	22.399807	132345856	96088064	50784072	33184
126	18.959162	132345856	96088064	63743064	33184
127	21.697538	132345856	96088064	60798592	33184
128	21.813075	132345856	96088064	58431688	33184
129	22.466515	132345856	96088064	56492552	33184
130	22.965096	132345856	96088064	55028872	33184
131	23.97951	132345856	96088064	53966432	33184
132	24.607937	132345856	96088064	53285800	33184
133	25.344813	132345856	96088064	52917848	33184
134	25.733334	132345856	96088064	52822808	33184
135	25.905831	132345856	96088064	52962112	33184
136	25.612013	132345856	96088064	53316048	33184
137	26.305398	132345856	96088064	53843544	33184
138	27.35636	132345856	96088064	54524112	33184
139	26.782861	132345856	96088064	55345632	33184
140	27.572986	132345856	96088064	56287456	33184
141	27.61573	132345856	96088064	57319680	33184
142	27.846266	132345856	96088064	58450008	33184
143	29.099276	132345856	96088064	59668944	33184
144	32.399102	132345856	96088064	60975720	33184
145	48.561869	121917440	86650880	20169520	33184
146	29.741504	122724352	86650880	23068416	33184
147	27.277987	122724352	86650880	25308608	33184
148	27.082758	122724352	86650880	27101680	33184
149	26.918053	122724352	86650880	28888368	33184
150	26.900736	122724352	86650880	30643272	33184
151	27.114184	122724352	86650880	32412112	33184
152	27.508482	122724352	86650880	34223376	33184
153	31.092139	122724352	86650880	21737080	33184
154	29.919871	122724352	86650880	25427944	33184
155	28.951561	122724352	86650880	28849176	33184
156	28.956614	122724352	86650880	32041584	33184
157	29.343075	122724352	86650880	35044824	33184
158	32.66633	122724352	86650880	23613144	33184
159	31.780166	122724352	86650880	28292144	33184
160	30.358338	122724352	86650880	32679848	33184
161	33.423832	122724352	86650880	22699024	33184
162	34.953563	122724352	86650880	30447952	33184
163	32.311001	122724352	86650880	35714712	33184
164	34.739926	122724352	86650880	26417424	33184
165	35.273191	122724352	86650880	34864608	33184
166	32.178176	122724352	86650880	40733632	33184
167	36.331967	121159680	86650880	31826808	33184
168	34.364744	121159680	86650880	38446272	33184
169	36.742975	121159680	86650880	30566736	33184
170	37.538283	121159680	86650880	40181184	33184
171	39.126656	121159680	86650880	33270728	33184
172	39.376638	121159680	86650880	43370112	33184
173	39.064803	121159680	86650880	36909632	33184
174	39.6164	121159680	86650880	47469768	33184
175	40.006206	121159680	86650880	41305040	33184
176	40.480591	121159680	86650880	52366464	33184
177	40.359257	121159680	86650880	46457248	33184
178	37.095093	121159680	86650880	55249008	33184
179	40.941987	121159680	86650880	49054656	33184
180	43.052857	121159680	86650880	44596592	33184
181	44.024613	121159680	86650880	56882400	33184
182	54.140951	121159680	86650880	52078104	33184
183	51.313389	115916800	81408000	24170712	33184
184	45.861361	115916800	81408000	24238488	33184
185	41.857184	115916800	81408000	37381232	33184
186	42.709316	115916800	81408000	33197976	33184
187	43.067334	115916800	81408000	30134424	33184
188	48.503278	115916800	81408000	31294832	33184
189	43.349165	115916800	81408000	45495984	33184
190	44.527028	115916800	81408000	42163936	33184
191	45.053646	115916800	81408000	39630320	33184
192	48.78514	115916800	81408000	41884256	33184
193	49.819984	115916800	81408000	44307072	33184
194	50.808543	116457472	81932288	47095096	33184
195	50.730148	116457472	81932288	50154936	33184
196	64.953905	119971840	85602304	53494512	33184
197	63.521178	120242176	85602304	28821664	33184
198	52.233049	120242176	85602304	32615560	33184
199	51.80551	120242176	85602304	36644224	33184
200	52.101379	120242176	85602304	40962160	33184
201	53.938352	120242176	85602304	45560616	33184
202	53.432448	120242176	85602304	50417992	33184
203	53.771274	120242176	85602304	55576992	33184
204	54.815038	120242176	85602304	61019192	33184
205	56.837235	121864192	88223744	66836984	33184
206	54.305952	124026880	89796608	54995960	33184
207	76.644816	127811584	93466624	61287008	33184
208	60.585131	124866560	90320896	37215960	33184
209	57.167334	124866560	90320896	26406896	33184
210	57.178035	124866560	90320896	33651888	33184
211	57.869311	124866560	90320896	41225472	33184
212	57.624076	124866560	90320896	49097824	33184
213	64.744159	124866560	90320896	44628472	33184
214	59.972707	124866560	90320896	53080256	33184
215	60.674801	125136896	90320896	61825208	33184
216	65.363674	125136896	90320896	58274008	33184
217	84.09933	128651264	93990912	67600152	33184
218	68.554738	123936768	89272320	28877480	33184
219	62.105819	123936768	89272320	38991584	33184
220	66.633157	123936768	89272320	36805152	33184
221	62.656417	123936768	89272320	47538048	33184
222	69.410857	123936768	89272320	45968368	33184
223	65.111146	123936768	89272320	57298104	33184
224	70.588114	123936768	89272320	56356536	33184
225	99.66558	122691584	89796608	28941568	33184
226	64.578681	124039168	89796608	40109352	33184
227	69.076776	124039168	89796608	39742824	33184
228	70.586173	124039168	89796608	39727392	33184
229	66.747978	124039168	89796608	52587384	33184
230	70.215024	124039168	89796608	53210168	33184
231	70.724113	124579840	89796608	54121400	33184
232	69.670612	126201856	91893760	67952264	33184
233	99.684463	126337024	93466624	23750136	33184
234	70.38288	127684608	93466624	37121496	33184
235	74.940419	127684608	93466624	39516792	33184
236	75.6119	127684608	93466624	42266864	33184
237	74.016728	127954944	93466624	45310720	33184
238	74.886945	127954944	93466624	48702984	33184
239	75.704083	128225280	93466624	52395456	33184
240	79.925005	128225280	93466624	69016440	33184
241	99.186132	126504960	91893760	29519280	33184
242	77.256788	126504960	91893760	33980736	33184
243	81.340405	126504960	91893760	38848240	33184
244	79.177691	126504960	91893760	44028800	33184
245	78.311976	126504960	91893760	49511376	33184
246	78.349894	126504960	91893760	55343288	33184
247	98.29353	129748992	95039488	61526608	33184
248	86.301575	127078400	92418048	36648896	33184
249	82.269909	127078400	92418048	43523752	33184
250	86.841819	127078400	92418048	38251328	33184
251	82.214294	127078400	92418048	45916968	33184
252	83.787866	127078400	92418048	53954496	33184
253	83.841071	127078400	92418048	62316496	33184
254	116.501731	125542400	90845184	28606024	33184
255	85.606939	125542400	90845184	37593224	33184
256	84.186404	125542400	90845184	46876904	33184
257	84.507987	125542400	90845184	56475984	33184
258	88.690302	125542400	90845184	53828168	33184
259	84.400978	125542400	91369472	64192560	33184
260	100.400307	131219456	97136640	74877664	33184
261	105.455794	130781184	96088064	39573392	33184
262	91.124701	130781184	96088064	38358240	33184
263	88.534658	130781184	96088064	50276440	33184
264	95.757446	130781184	96088064	49974936	33184
265	87.897982	130781184	96088064	62622136	33184
266	98.416017	131862528	97136640	63016328	33184
267	116.015937	128245760	93990912	32697456	33184
268	92.307235	128245760	93990912	46291024	33184
269	93.508674	128245760	93990912	47564808	33184
270	98.30975	128245760	93990912	49258224	33184
271	94.509568	128245760	93990912	63969000	33184
272	104.604456	130408448	96088064	66889664	33184
273	118.386983	130961408	96088064	37760536	33184
274	99.230987	130961408	96088064	40890240	33184
275	97.551185	130961408	96088064	44425176	33184
276	95.351639	130961408	96088064	60972880	33184
277	102.156589	130961408	96088064	65305992	33184
278	129.557303	128237568	95039488	25229968	33184
279	97.542434	129585152	95039488	41816624	33184
280	103.220692	129585152	95039488	47206736	33184
281	106.13564	129585152	95039488	53004272	33184
282	101.197601	129585152	95039488	59165400	33184
283	105.495668	130662400	95563776	65735664	33184
284	131.576235	131502080	96612352	42150664	33184
285	107.026829	131502080	96612352	49650368	33184
286	108.638378	131502080	96612352	44933352	33184
287	107.71815	131502080	96612352	53215472	33184
288	106.948422	132042752	97136640	61897880	33184
289	134.275902	131788800	98185216	36065360	33184
290	110.201561	133136384	98185216	31609832	33184
291	107.697176	133136384	98185216	41252744	33184
292	108.202884	133136384	98185216	51319568	33184
293	109.780589	133136384	98185216	61760840	33184
294	148.646218	126967808	91893760	28064000	33184
295	118.833402	126967808	91893760	39411360	33184
296	110.883054	126967808	91893760	51076896	33184
297	116.68817	126967808	91893760	50698128	33184
298	116.605933	128049152	92942336	63345488	33184
299	146.194309	127062016	92418048	35599568	33184
300	115.088135	127062016	92418048	48854072	33184
301	116.997355	127062016	92418048	49912800	33184
302	114.333113	127332352	92418048	63976752	33184
303	122.573733	134090752	99233792	65869488	33184
304	150.665896	136048640	101330944	34834232	33184
305	115.508324	136048640	101330944	50079112	33184
306	120.077851	136048640	101330944	53369080	33184
307	117.797512	136048640	101330944	69643920	33184
308	123.538614	137400320	102379520	73774208	33184
309	150.443628	129884160	95039488	43579080	33184
310	124.467525	129884160	95039488	48298904	33184
311	123.43349	129884160	95039488	53474600	33184
312	127.037663	130154496	95039488	59093440	33184
313	138.34635	136101888	101330944	77695280	33184
314	143.16236	135995392	100806656	37325352	33184
315	126.950664	135995392	100806656	44207384	33184
316	128.465623	135995392	100806656	51502840	33184
317	124.547252	135995392	100806656	71983784	33184
318	160.175672	130387968	95563776	31541864	33184
319	129.240955	130387968	95563776	40222352	33184
320	128.984181	130387968	95563776	49214992	33184
321	131.803457	130387968	95563776	58632328	33184
322	159.815747	126697472	92942336	36997704	33184
323	132.402262	128045056	92942336	46602584	33184
324	137.548882	128045056	92942336	44799040	33184
325	137.51474	128045056	92942336	56142096	33184
326	161.98525	128827392	95563776	36514096	33184
327	139.477374	130174976	95563776	35141616	33184
328	136.797048	130174976	95563776	47606320	33184
329	137.520667	130174976	95563776	60585528	33184
330	170.472197	130183168	96612352	30061192	33184
331	136.756314	131530752	96612352	42920336	33184
332	140.15944	131530752	96612352	57143832	33184
333	143.914432	131530752	96612352	59295504	33184
334	174.396108	131346432	97660928	29619112	33184
335	141.185519	132694016	97660928	44270584	33184
336	144.868368	132694016	97660928	47683392	33184
337	142.279361	132694016	97660928	64096368	33184
338	173.946688	130220032	96612352	35112320	33184
339	146.440646	131567616	96612352	39001872	33184
340	143.935222	131567616	96612352	56800896	33184
341	150.262807	131567616	96612352	62713112	33184
342	179.000831	131485696	96612352	35504304	33184
343	150.069007	131485696	96612352	42248272	33184
344	150.771592	131485696	96612352	49282680	33184
345	148.446511	131485696	96612352	69323096	33184
346	181.916864	128110592	93466624	32225928	33184
347	152.615621	128110592	93466624	40618472	33184
348	156.53884	128110592	93466624	49634712	33184
349	184.949381	126820352	93466624	31835200	33184
350	156.806532	128172032	93466624	40969328	33184
351	157.132371	128172032	93466624	51277392	33184
352	158.474338	129253376	93990912	62027192	33184
353	186.16045	129183744	94515200	38249984	33184
354	180.478558	129724416	94515200	49970080	33184
355	169.977177	129724416	94515200	49773616	33184
356	187.945866	125575168	91893760	33322016	33184
357	160.462737	126922752	91893760	45802064	33184
358	162.85237	126922752	91893760	59770800	33184
359	161.516684	129626112	95039488	74165984	33184
360	194.858994	129617920	94515200	27561536	33184
361	162.692318	129617920	94515200	42597144	33184
362	161.952128	129617920	94515200	58106560	33184
363	194.994233	123789312	88748032	31299120	33184
364	168.208566	123789312	88748032	48452728	33184
365	171.7282	123789312	88748032	53597760	33184
366	196.459712	125034496	89796608	27818352	33184
367	165.771703	125034496	89796608	45820128	33184
368	169.109924	125034496	89796608	64366720	33184
369	200.221895	125816832	90845184	39975384	33184
370	174.496047	125816832	90845184	47193280	33184
371	176.841604	126357504	91369472	55075752	33184
372	206.390293	129363968	94515200	31541856	33184
373	172.082205	129363968	94515200	52604808	33184
374	175.633068	129363968	94515200	61557984	33184
375	208.332927	134500352	99758080	70979952	33184
376	181.879766	137355264	103428096	49521144	33184
377	178.757954	138706944	103428096	60043752	33184
378	179.664502	138706944	103428096	71539648	33184
379	218.157911	125952000	91369472	51455072	33184
380	182.001362	126492672	91369472	63537104	33184
381	183.266786	135413760	100806656	76222000	33184
382	216.556499	133406720	98709504	35285424	33184
383	187.479424	133406720	98709504	49021736	33184
384	186.545037	133406720	98709504	63382024	33184
385	221.863468	130424832	97136640	33645296	33184
386	184.73141	131772416	97136640	47776664	33184
387	187.659944	131772416	97136640	63381272	33184
388	187.730728	137449472	102379520	79462960	33184
389	226.096214	138002432	102903808	51828864	33184
390	192.71445	138002432	102903808	56418944	33184
391	188.689879	139083776	103952384	74091544	33184
392	222.623783	133910528	98709504	36450480	33184
393	189.100988	133910528	98709504	55198576	33184
394	198.728549	133910528	98709504	61931936	33184
395	221.483906	129085440	93990912	35873696	33184
396	197.065222	129085440	93990912	43574760	33184
397	204.691593	129626112	95039488	64465464	33184
398	227.055907	126066688	90845184	48581184	33184
399	198.630879	127418368	92418048	58090016	33184
400	204.036967	141205504	106573824	81380824	33184
401	242.7484	141303808	106049536	45773328	33184
402	200.842888	141303808	106049536	69371040	33184
403	206.550244	141844480	107098112	81161016	33184
404	225.836241	128208896	93466624	37043184	33184
405	203.870752	128749568	93466624	49922720	33184
406	234.352267	122785792	87699456	35616664	33184
407	205.704177	122785792	87699456	49270536	33184
408	211.189316	129003520	93990912	63533840	33184
409	232.519104	124997632	89796608	42492176	33184
410	207.434275	124997632	89796608	57778776	33184
411	250.529661	123203584	89796608	34440008	33184
412	209.291157	124551168	89796608	50442384	33184
413	210.539598	129687552	95039488	67452192	33184
414	246.995856	132997120	98185216	35077800	33184
415	210.373741	132997120	98185216	53303080	33184
416	212.415375	133808128	98709504	71987856	33184
417	248.449456	130252800	95563776	41500304	33184
418	218.794828	130252800	95563776	48626824	33184
419	216.615455	131874816	96612352	69000112	33184
420	245.13793	126541824	91893760	40158560	33184
421	222.303846	126541824	91893760	49018352	33184
422	251.016626	126824448	91893760	42776984	33184
423	227.411841	126824448	91893760	52848040	33184
424	223.83624	131420160	96612352	76042712	33184
425	253.870228	128704512	94515200	36206784	33184
426	226.365437	129245184	94515200	47887856	33184
427	260.972691	127496192	92418048	31956024	33184
428	229.140222	127496192	92418048	57407240	33184
429	231.761714	133173248	98185216	70814560	33184
430	274.262552	130674688	96088064	33932584	33184
431	228.993781	130674688	96088064	61112952	33184
432	267.8252	127500288	92418048	33873904	33184
433	236.382103	127500288	92418048	49609872	33184
434	255.007775	135340032	100806656	65921280	33184
435	256.549902	136601600	101855232	54652096	33184
436	235.284786	136871936	101855232	72860496	33184
437	273.042803	138444800	103428096	38252968	33184
438	240.184555	138444800	103428096	57219808	33184
439	238.418342	138444800	103428096	77123600	33184
440	267.674803	129314816	94515200	33326480	33184
441	263.223999	129314816	94515200	54571272	33184
442	288.020808	125882368	90845184	55131016	33184
443	244.410093	135884800	100806656	76739416	33184
444	258.25572	155348992	120729600	87089736	33184
445	274.311083	143298560	108146688	55220872	33184
446	242.781938	143298560	108146688	78606144	33184
447	285.672567	135385088	100806656	35108496	33184
448	245.647726	135385088	100806656	59610528	33184
449	249.301465	138629120	103952384	72202008	33184
450	293.790321	136568832	101330944	56399808	33184
451	252.599347	139001856	103952384	70172400	33184
452	293.405219	141672448	108670976	42348768	33184
453	254.406791	143020032	108670976	56014400	33184
454	261.509656	144371712	109195264	72460536	33184
455	286.216213	133332992	98185216	34386312	33184
456	254.312592	133332992	98185216	63799728	33184
457	290.409531	124559360	89272320	37323704	33184
458	257.696105	124559360	89272320	55314584	33184
459	287.741952	126185472	91369472	42703424	33184
460	260.293971	126185472	91369472	61895568	33184
461	292.56808	129224704	93990912	37395952	33184
462	263.732075	129224704	93990912	58074896	33184
463	300.431089	130617344	95563776	35357400	33184
464	265.572999	130617344	95563776	57023352	33184
465	307.097373	133685248	100282368	35237712	33184
466	271.783869	151793664	118632448	57337608	33184
467	274.005446	170987520	139079680	81165144	33184
468	299.479025	111304704	76689408	45732600	33184
469	275.114439	123469824	88748032	57936568	33184
470	303.312462	111435776	76165120	37961680	33184
471	273.512298	123060224	88223744	64016768	33184
472	306.463719	113831936	79310848	45176200	33184
473	278.337162	124104704	89272320	59918448	33184
474	313.530863	118431744	83505152	42343304	33184
475	279.740831	124649472	89796608	58275224	33184
476	316.189722	123977728	89272320	41259848	33184
477	283.202545	125059072	90320896	58643368	33184
478	291.307141	146415616	111816704	76981136	33184
479	321.549243	131792896	96612352	62523896	33184
480	282.997283	145309696	110768128	81657296	33184
481	313.845665	118657024	83505152	41262032	33184
482	287.385359	125685760	90845184	61866864	33184
483	318.818189	119582720	84553728	37001576	33184
484	291.471503	126341120	91369472	58723272	33184
485	331.919638	128778240	93990912	60540384	33184
486	293.444766	147161088	112340992	83461472	33184
487	324.009037	127201280	92418048	44878776	33184
488	290.30614	127471616	92418048	69160840	33184
489	330.038952	128700416	93990912	46846992	33184
490	300.774447	128970752	93990912	60224680	33184
491	338.781867	131702784	96612352	39217232	33184
492	295.717545	131702784	96612352	66095904	33184
493	335.012965	133373952	98709504	45294160	33184
494	302.253879	133373952	98709504	61004840	33184
495	319.461724	149323776	114438144	89921320	33184
496	335.958491	136937472	101855232	59164592	33184
497	306.765912	149913600	114962432	89616504	33184
498	331.622228	125538304	90845184	44305152	33184
499	312.620378	129052672	93990912	63688264	33184
500	347.342161	130641920	95563776	63095464	33184
