x	Duration	RSS	HeapTotal	HeapUsed	External
0	NA	91717632	61485056	11535544	24992
1	1.805885	91717632	61485056	12215648	24992
2	2.436052	91717632	61485056	13554032	24992
3	0.767641	91717632	61485056	15557688	24992
4	0.784697	91717632	61485056	16905152	24992
5	0.766983	91717632	61485056	18252616	24992
6	0.793882	91717632	61485056	19600080	24992
7	0.765619	91717632	61485056	20947544	24992
8	0.762795	91717632	61485056	22295008	24992
9	0.806927	91717632	61485056	23642472	24992
10	0.76302	91717632	61485056	24989936	24992
11	0.933527	91717632	61485056	26337400	24992
12	0.762535	91717632	61485056	27684896	24992
13	0.780796	91717632	61485056	12569360	24992
14	0.775757	91717632	61485056	13916824	24992
15	0.763862	91717632	61485056	15264288	24992
16	0.820615	91717632	61485056	16611752	24992
17	0.762331	91717632	61485056	17959216	24992
18	0.769843	91717632	61485056	19306688	24992
19	0.769308	91717632	61485056	20654512	24992
20	0.760701	91717632	61485056	22001976	24992
21	0.779196	91717632	61485056	23349440	24992
22	0.760219	91717632	61485056	24696904	24992
23	0.766779	91717632	61485056	26044368	24992
24	0.784628	91717632	61485056	27391832	24992
25	1.031574	91717632	61485056	12299312	24992
26	0.795546	91717632	61485056	13646776	24992
27	0.787339	91717632	61485056	14994240	24992
28	0.782816	91717632	61485056	16341704	24992
29	0.770457	91717632	61485056	17689168	24992
30	0.762653	91717632	61485056	19036632	24992
31	0.800293	91717632	61485056	20384096	24992
32	0.762239	91717632	61485056	21731592	24992
33	0.772102	91717632	61485056	23079056	24992
34	0.7622	91717632	61485056	24426520	24992
35	0.764832	91717632	61485056	25773984	24992
36	0.761374	91717632	61485056	27121448	24992
37	1.00134	91717632	61485056	12027616	24992
38	0.783822	91717632	61485056	13375104	24992
39	0.768027	91717632	61485056	14722568	24992
40	0.762612	91717632	61485056	16070032	24992
41	0.766199	91717632	61485056	17417496	24992
42	0.760981	91717632	61485056	18764960	24992
43	0.764891	91717632	61485056	20112424	24992
44	0.760034	91717632	61485056	21459888	24992
45	0.760852	91717632	61485056	22808072	24992
46	0.963227	91717632	61485056	24155536	24992
47	0.764816	91717632	61485056	25503000	24992
48	0.775645	91717632	61485056	26850464	24992
49	0.993422	91717632	61485056	11755248	24992
50	0.76776	91717632	61485056	13102704	24992
51	0.766411	91717632	61485056	14450344	24992
52	0.762227	91717632	61485056	15797808	24992
53	0.944439	91717632	61485056	17145272	24992
54	0.810353	91717632	61485056	18492736	24992
55	0.764029	91717632	61485056	19840200	24992
56	0.762523	91717632	61485056	21187664	24992
57	0.763739	91717632	61485056	22535128	24992
58	0.769709	91717632	61485056	23882672	24992
59	0.761144	91717632	61485056	25230136	24992
60	0.768864	91717632	61485056	26577600	24992
61	0.799511	91717632	61485056	27925064	24992
62	0.783495	91717632	61485056	12829776	24992
63	0.787714	91717632	61485056	14177240	24992
64	0.763454	91717632	61485056	15524768	24992
65	0.761093	91717632	61485056	16872232	24992
66	0.767559	91717632	61485056	18219696	24992
67	0.759837	91717632	61485056	19567160	24992
68	0.941702	91717632	61485056	20914624	24992
69	0.767762	91717632	61485056	22262088	24992
70	0.768379	91717632	61485056	23609552	24992
71	0.76359	91717632	61485056	24957016	24992
72	0.761706	91717632	61485056	26304480	24992
73	0.76861	91717632	61485056	27651944	24992
74	0.779516	91717632	61485056	12555984	24992
75	0.767941	91717632	61485056	13903448	24992
76	0.768515	91717632	61485056	15250912	24992
77	0.765104	91717632	61485056	16598568	24992
78	0.79369	91717632	61485056	17946032	24992
79	0.790937	91717632	61485056	19293496	24992
80	0.783481	91717632	61485056	20641152	24992
81	0.775557	91717632	61485056	21989784	24992
82	0.791798	91717632	61485056	23337160	24992
83	0.961348	91717632	61485056	24684536	24992
84	0.766713	91717632	61485056	26033048	24992
85	0.765904	91717632	61485056	27380424	24992
86	1.006659	91717632	61485056	12287000	24992
87	0.771605	91717632	61485056	13634376	24992
88	0.767038	91717632	61485056	14981752	24992
89	0.764697	91717632	61485056	16329128	24992
90	0.927255	91717632	61485056	17676568	24992
91	0.770675	91717632	61485056	19023944	24992
92	0.770515	91717632	61485056	20371320	24992
93	0.770677	91717632	61485056	21718696	24992
94	0.765467	91717632	61485056	23066072	24992
95	0.769428	91717632	61485056	24413448	24992
96	0.763928	91717632	61485056	25760824	24992
97	0.770578	91717632	61485056	27108200	24992
98	1.014099	91717632	61485056	12014104	24992
99	0.769519	91717632	61485056	13361488	24992
100	0.772606	91717632	61485056	14708864	24992
101	0.762293	91717632	61485056	16056240	24992
102	0.790893	91717632	61485056	17403616	24992
103	0.784772	91717632	61485056	18750992	24992
104	0.782247	91717632	61485056	20098368	24992
105	0.957667	91717632	61485056	21445744	24992
106	0.793937	91717632	61485056	22793120	24992
107	0.763097	91717632	61485056	24140496	24992
108	0.766953	91717632	61485056	25487872	24992
109	0.763319	91717632	61485056	26835248	24992
110	0.775825	91717632	61485056	28182624	24992
111	0.779612	91717632	61485056	13085168	24992
112	0.763755	91717632	61485056	14432544	24992
113	0.771059	91717632	61485056	15779920	24992
114	0.76352	91717632	61485056	17127296	24992
115	0.818163	91717632	61485056	18474672	24992
116	0.805446	91717632	61485056	19822048	24992
117	0.759485	91717632	61485056	21169424	24992
118	0.764279	91717632	61485056	22516800	24992
119	0.763281	91717632	61485056	23864176	24992
120	0.820762	91717632	61485056	25211552	24992
121	0.763773	91717632	61485056	26558928	24992
122	0.760269	91717632	61485056	27906304	24992
123	0.782388	91717632	61485056	12808856	24992
124	0.763911	91717632	61485056	14156232	24992
125	0.816455	91717632	61485056	15503608	24992
126	0.762942	91717632	61485056	16850984	24992
127	0.762613	91717632	61485056	18198360	24992
128	0.770834	91717632	61485056	19545800	24992
129	0.763642	91717632	61485056	20893176	24992
130	0.788842	91717632	61485056	22240552	24992
131	0.762725	91717632	61485056	23587928	24992
132	0.758654	91717632	61485056	24935304	24992
133	0.760331	91717632	61485056	26282680	24992
134	0.762118	91717632	61485056	27630120	24992
135	1.016546	91717632	61485056	12534496	24992
136	0.784006	91717632	61485056	13881880	24992
137	0.792037	91717632	61485056	15229256	24992
138	0.783703	91717632	61485056	16576632	24992
139	1.634872	91717632	61485056	17924024	24992
140	0.769445	91717632	61485056	19271400	24992
141	0.765383	91717632	61485056	20618792	24992
142	0.796752	91717632	61485056	21968008	24992
143	0.766943	91717632	61485056	23329328	24992
144	0.769666	91717632	61485056	24676704	24992
145	0.758692	91717632	61485056	26024080	24992
146	0.756784	91717632	61485056	27371456	24992
147	1.000812	91717632	61485056	12278032	24992
148	0.767594	91717632	61485056	13625408	24992
149	0.96604	91717632	61485056	14972784	24992
150	0.758871	91717632	61485056	16320160	24992
151	0.76808	91717632	61485056	17667536	24992
152	0.762642	91717632	61485056	19014912	24992
153	0.76099	91717632	61485056	20362288	24992
154	1.126085	91717632	61485056	21709680	24992
155	0.764354	91717632	61485056	23057056	24992
156	0.789379	91717632	61485056	24408488	24992
157	0.795807	91717632	61485056	25755528	24992
158	0.757807	91717632	61485056	27102632	24992
159	0.814498	91717632	61485056	28449672	24992
160	0.773534	91717632	61485056	13354128	24992
161	0.758504	91717632	61485056	14701168	24992
162	0.75892	91717632	61485056	16048208	24992
163	0.758986	91717632	61485056	17395248	24992
164	0.78889	91717632	61485056	18742288	24992
165	0.753918	91717632	61485056	20089376	24992
166	0.764574	91717632	61485056	21436416	24992
167	0.751367	91717632	61485056	22783456	24992
168	0.755399	91717632	61485056	24130496	24992
169	0.761099	91717632	61485056	25477536	24992
170	0.764222	91717632	61485056	26824576	24992
171	0.757113	91717632	61485056	28171616	24992
172	0.777638	91717632	61485056	13074296	24992
173	0.756742	91717632	61485056	14421384	24992
174	0.764095	91717632	61485056	15768424	24992
175	0.759493	91717632	61485056	17118160	24992
176	0.763551	91717632	61485056	18465200	24992
177	0.774701	91717632	61485056	19812240	24992
178	0.754043	91717632	61485056	21159344	24992
179	0.788037	91717632	61485056	22506384	24992
180	0.755361	91717632	61485056	23853424	24992
181	0.761234	91717632	61485056	25200464	24992
182	0.754088	91717632	61485056	26547504	24992
183	0.760126	91717632	61485056	27894544	24992
184	1.006717	91717632	61485056	12798960	24992
185	0.766677	91717632	61485056	14146000	24992
186	0.911194	91717632	61485056	15493040	24992
187	0.795586	91717632	61485056	16842040	24992
188	0.793923	91717632	61485056	18189080	24992
189	0.75797	91717632	61485056	19536120	24992
190	0.755422	91717632	61485056	20883160	24992
191	0.816996	91717632	61485056	22230232	24992
192	0.751712	91717632	61485056	23577272	24992
193	0.759061	91717632	61485056	24924312	24992
194	0.76235	91717632	61485056	26272176	24992
195	0.759325	91717632	61485056	27619216	24992
196	1.069427	91717632	61485056	12523656	24992
197	0.75939	91717632	61485056	13870704	24992
198	0.755648	91717632	61485056	15217760	24992
199	0.753749	91717632	61485056	16564800	24992
200	0.755618	91717632	61485056	17911840	24992
201	0.955344	91717632	61485056	19258880	24992
202	0.759511	91717632	61485056	20605920	24992
203	0.75291	91717632	61485056	21952960	24992
204	0.752482	91717632	61485056	23300000	24992
205	0.760267	91717632	61485056	24647040	24992
206	0.771578	91717632	61485056	25996184	24992
207	0.753401	91717632	61485056	27343224	24992
208	0.755626	91717632	61485056	28690264	24992
209	0.772538	91717632	61485056	13592856	24992
210	0.756549	91717632	61485056	14939896	24992
211	0.781242	91717632	61485056	16286936	24992
212	0.752926	91717632	61485056	17633976	24992
213	0.760467	91717632	61485056	18981016	24992
214	0.758201	91717632	61485056	20328056	24992
215	0.753192	91717632	61485056	21675096	24992
216	0.947864	91717632	61485056	23022168	24992
217	0.752838	91717632	61485056	24369208	24992
218	0.757823	91717632	61485056	25716248	24992
219	0.75266	91717632	61485056	27063288	24992
220	0.752399	91717632	61485056	28410328	24992
221	0.767604	91717632	61485056	13312912	24992
222	0.755991	91717632	61485056	14660000	24992
223	0.757393	91717632	61485056	16007040	24992
224	0.755839	91717632	61485056	17354080	24992
225	0.752945	91717632	61485056	18701120	24992
226	0.754986	91717632	61485056	20048160	24992
227	0.755437	91717632	61485056	21395200	24992
228	0.7515	91717632	61485056	22742240	24992
229	0.755984	91717632	61485056	24092208	24992
230	0.752053	91717632	61485056	25439248	24992
231	0.766971	91717632	61485056	26786288	24992
232	0.752816	91717632	61485056	28133328	24992
233	1.025491	91717632	61485056	13040624	24992
234	0.755034	91717632	61485056	14387664	24992
235	0.758445	91717632	61485056	15734752	24992
236	0.994685	91717632	61485056	17081920	24992
237	0.801489	91717632	61485056	18431640	24992
238	0.752157	91717632	61485056	19778680	24992
239	0.758011	91717632	61485056	21125720	24992
240	0.758479	91717632	61485056	22472760	24992
241	0.757255	91717632	61485056	23819800	24992
242	0.751445	91717632	61485056	25166840	24992
243	0.798406	91717632	61485056	26513880	24992
244	0.756546	91717632	61485056	27860920	24992
245	1.035573	91717632	61485056	12768576	24992
246	0.965819	91717632	61485056	14115624	24992
247	0.756113	91717632	61485056	15462664	24992
248	0.759835	91717632	61485056	16809752	24992
249	0.751987	91717632	61485056	18156792	24992
250	0.753636	91717632	61485056	19503832	24992
251	0.758837	91717632	61485056	20850872	24992
252	0.753035	91717632	61485056	22197912	24992
253	0.752428	91717632	61485056	23544952	24992
254	0.759662	91717632	61485056	24891992	24992
255	0.75396	91717632	61485056	26239032	24992
256	0.760723	91717632	61485056	27586072	24992
257	0.749257	91717632	61485056	28933112	24992
258	0.823675	91717632	61485056	13836072	24992
259	0.758791	91717632	61485056	15183112	24992
260	0.752638	91717632	61485056	16530152	24992
261	1.024237	91717632	61485056	17877192	24992
262	0.755576	91717632	61485056	19224232	24992
263	0.79697	91717632	61485056	20571272	24992
264	0.752853	91717632	61485056	21918312	24992
265	0.75334	91717632	61485056	23265352	24992
266	0.782554	91717632	61485056	24612440	24992
267	0.754896	91717632	61485056	25959480	24992
268	0.754543	91717632	61485056	27306520	24992
269	0.799791	91717632	61485056	28654144	24992
270	0.767841	91717632	61485056	13557096	24992
271	0.756239	91717632	61485056	14904136	24992
272	0.753372	91717632	61485056	16251232	24992
273	0.92721	91717632	61485056	17598280	24992
274	0.751484	91717632	61485056	18945320	24992
275	0.749609	91717632	61485056	20292360	24992
276	0.775895	91717632	61485056	21639400	24992
277	0.750254	91717632	61485056	22986440	24992
278	0.759824	91717632	61485056	24333480	24992
279	0.753824	91717632	61485056	25680696	24992
280	0.752205	91717632	61485056	27027736	24992
281	0.773258	91717632	61485056	28374776	24992
282	1.025146	91717632	61485056	13279560	24992
283	0.935729	91717632	61485056	14626600	24992
284	0.754728	91717632	61485056	15973640	24992
285	0.75498	91717632	61485056	17320680	24992
286	0.753115	91717632	61485056	18667768	24992
287	0.750086	91717632	61485056	20014808	24992
288	0.76625	91717632	61485056	21361848	24992
289	0.74952	91717632	61485056	22708888	24992
290	0.751419	91717632	61485056	24055928	24992
291	0.765442	91717632	61485056	25402968	24992
292	0.747248	91717632	61485056	26750008	24992
293	0.74909	91717632	61485056	28097048	24992
294	1.029587	91717632	61485056	13001456	24992
295	0.7692	91717632	61485056	14348504	24992
296	0.780863	91717632	61485056	15695544	24992
297	0.769882	91717632	61485056	17042584	24992
298	0.768561	91717632	61485056	18389624	24992
299	0.761247	91717632	61485056	19736664	24992
300	0.755421	91717632	61485056	21083704	24992
301	0.753141	91717632	61485056	22430744	24992
302	0.800759	91717632	61485056	23777784	24992
303	0.751974	91717632	61485056	25124824	24992
304	0.753545	91717632	61485056	26471896	24992
305	0.751681	91717632	61485056	27818936	24992
306	0.953922	91717632	61485056	29165976	24992
307	0.784633	91717632	61485056	14068568	24992
308	0.779737	91717632	61485056	15415608	24992
309	0.77089	91717632	61485056	16762648	24992
310	0.77256	91717632	61485056	18109720	24992
311	0.771564	91717632	61485056	19456760	24992
312	0.775189	91717632	61485056	20803800	24992
313	0.768753	91717632	61485056	22150840	24992
314	0.760716	91717632	61485056	23497880	24992
315	0.749349	91717632	61485056	24844920	24992
316	0.762132	91717632	61485056	26191960	24992
317	0.765557	91717632	61485056	27540048	24992
318	0.759538	91717632	61485056	28887088	24992
319	0.771616	91717632	61485056	13789672	24992
320	0.754893	91717632	61485056	15136712	24992
321	0.776554	91717632	61485056	16483752	24992
322	0.751823	91717632	61485056	17830792	24992
323	0.759747	91717632	61485056	19177864	24992
324	0.75144	91717632	61485056	20524904	24992
325	0.755817	91717632	61485056	21871944	24992
326	0.753782	91717632	61485056	23218984	24992
327	0.749482	91717632	61485056	24566024	24992
328	0.753146	91717632	61485056	25913080	24992
329	0.752691	91717632	61485056	27260120	24992
330	0.753837	91717632	61485056	28607160	24992
331	1.031303	91717632	61485056	13511576	24992
332	0.761936	91717632	61485056	14858616	24992
333	0.761704	91717632	61485056	16205656	24992
334	0.754161	91717632	61485056	17552696	24992
335	0.748529	91717632	61485056	18899736	24992
336	0.767029	91717632	61485056	20246792	24992
337	0.75505	91717632	61485056	21593832	24992
338	0.750157	91717632	61485056	22940872	24992
339	0.754043	91717632	61485056	24287912	24992
340	0.754716	91717632	61485056	25634952	24992
341	0.758162	91717632	61485056	26982136	24992
342	0.751612	91717632	61485056	28329176	24992
343	1.022739	91717632	61485056	13233584	24992
344	0.758605	91717632	61485056	14580632	24992
345	0.750614	91717632	61485056	15927672	24992
346	0.766542	91717632	61485056	17274712	24992
347	0.752752	91717632	61485056	18621752	24992
348	0.751672	91717632	61485056	19968792	24992
349	0.751667	91717632	61485056	21315832	24992
350	0.756388	91717632	61485056	22662872	24992
351	0.945823	91717632	61485056	24009912	24992
352	0.753266	91717632	61485056	25356952	24992
353	0.751198	91717632	61485056	26703992	24992
354	0.751075	91717632	61485056	28051048	24992
355	0.751844	91717632	61485056	29398088	24992
356	0.790137	91717632	61485056	14300680	24992
357	0.76869	91717632	61485056	15647720	24992
358	0.807564	91717632	61485056	16994760	24992
359	0.770022	91717632	61485056	18341800	24992
360	0.754351	91717632	61485056	19693288	24992
361	0.809662	91717632	61485056	21040376	24992
362	0.75053	91717632	61485056	22387416	24992
363	0.750478	91717632	61485056	23734456	24992
364	0.756292	91717632	61485056	25081496	24992
365	0.77618	91717632	61485056	26428536	24992
366	0.956877	91717632	61485056	27775576	24992
367	0.750043	91717632	61485056	29122648	24992
368	0.807594	91717632	61485056	14029680	24992
369	0.755092	91717632	61485056	15376720	24992
370	0.750101	91717632	61485056	16723760	24992
371	0.758707	91717632	61485056	18070800	24992
372	0.755201	91717632	61485056	19417840	24992
373	0.7502	91717632	61485056	20764880	24992
374	0.75991	91717632	61485056	22111952	24992
375	0.750399	91717632	61485056	23458992	24992
376	0.759786	91717632	61485056	24806032	24992
377	0.749939	91717632	61485056	26153072	24992
378	0.750836	91717632	61485056	27500112	24992
379	0.749279	91717632	61485056	28847152	24992
380	1.024451	91717632	61485056	13756016	24992
381	0.780496	91717632	61485056	15103056	24992
382	0.751653	91717632	61485056	16450096	24992
383	0.751667	91717632	61485056	17797136	24992
384	0.76007	91717632	61485056	19144176	24992
385	0.751136	91717632	61485056	20491216	24992
386	0.759272	91717632	61485056	21838256	24992
387	0.748393	91717632	61485056	23185296	24992
388	0.749323	91717632	61485056	24532336	24992
389	0.770595	91717632	61485056	25879376	24992
390	0.750482	91717632	61485056	27226416	24992
391	0.761259	91717632	61485056	28573456	24992
392	1.028568	91717632	61485056	13477896	24992
393	0.770596	91717632	61485056	14824992	24992
394	0.767705	91717632	61485056	16172032	24992
395	0.76909	91717632	61485056	17519072	24992
396	0.961297	91717632	61485056	18866112	24992
397	0.761677	91717632	61485056	20213152	24992
398	0.754535	91717632	61485056	21560192	24992
399	0.753617	91717632	61485056	22907232	24992
400	0.751536	91717632	61485056	24254272	24992
401	0.762323	91717632	61485056	25601312	24992
402	0.751703	91717632	61485056	26948352	24992
403	0.751099	91717632	61485056	28295392	24992
404	0.753544	91717632	61485056	29642432	24992
405	0.759501	91717632	61485056	14543952	24992
406	0.761758	91717632	61485056	15890992	24992
407	0.750586	91717632	61485056	17238032	24992
408	0.751122	91717632	61485056	18585072	24992
409	0.756215	91717632	61485056	19932112	24992
410	0.75384	91717632	61485056	21279152	24992
411	0.750247	91717632	61485056	22626256	24992
412	0.757328	91717632	61485056	23973296	24992
413	0.750811	91717632	61485056	25320336	24992
414	0.760005	91717632	61485056	26667376	24992
415	0.748609	91717632	61485056	28014416	24992
416	0.750137	91717632	61485056	29361472	24992
417	0.962883	91717632	61485056	14264056	24992
418	0.754806	91717632	61485056	15611128	24992
419	0.787943	91717632	61485056	16958168	24992
420	0.753157	91717632	61485056	18305208	24992
421	0.765132	91717632	61485056	19652248	24992
422	0.750451	91717632	61485056	20999288	24992
423	0.749988	91717632	61485056	22346328	24992
424	0.759348	91717632	61485056	23693368	24992
425	0.752942	91717632	61485056	25040408	24992
426	0.74962	91717632	61485056	26387448	24992
427	0.752491	91717632	61485056	27734488	24992
428	0.795315	91717632	61485056	29081528	24992
429	1.043909	91717632	61485056	13981912	24992
430	0.753184	91717632	61485056	15328952	24992
431	0.752825	91717632	61485056	16675992	24992
432	0.751923	91717632	61485056	18023032	24992
433	0.750501	91717632	61485056	19370072	24992
434	0.946773	91717632	61485056	20717112	24992
435	0.758578	91717632	61485056	22064272	24992
436	0.74995	91717632	61485056	23411320	24992
437	0.750403	91717632	61485056	24758360	24992
438	0.748696	91717632	61485056	26105400	24992
439	0.762635	91717632	61485056	27452440	24992
440	0.752801	91717632	61485056	28799480	24992
441	1.024753	91717632	61485056	13703888	24992
442	0.762532	91717632	61485056	15051024	24992
443	0.752432	91717632	61485056	16398064	24992
444	0.760356	91717632	61485056	17745104	24992
445	0.751599	91717632	61485056	19092144	24992
446	0.747738	91717632	61485056	20439184	24992
447	0.751096	91717632	61485056	21786224	24992
448	0.753652	91717632	61485056	23133264	24992
449	0.749812	91717632	61485056	24480384	24992
450	0.750955	91717632	61485056	25827424	24992
451	0.751215	91717632	61485056	27174464	24992
452	0.76347	91717632	61485056	28521504	24992
453	1.018488	91717632	61485056	13425248	24992
454	0.774055	91717632	61485056	14772296	24992
455	0.776564	91717632	61485056	16119352	24992
456	0.773376	91717632	61485056	17466392	24992
457	0.962147	91717632	61485056	18813432	24992
458	0.754336	91717632	61485056	20160472	24992
459	0.754713	91717632	61485056	21507512	24992
460	0.751081	91717632	61485056	22854552	24992
461	0.750055	91717632	61485056	24201592	24992
462	0.763296	91717632	61485056	25548632	24992
463	0.750749	91717632	61485056	26895672	24992
464	0.751611	91717632	61485056	28242712	24992
465	0.757124	91717632	61485056	29589752	24992
466	0.782819	91717632	61485056	14492328	24992
467	0.781181	91717632	61485056	15839368	24992
468	0.768015	91717632	61485056	17186472	24992
469	0.767758	91717632	61485056	18533512	24992
470	0.785751	91717632	61485056	19880552	24992
471	0.752019	91717632	61485056	21227592	24992
472	0.951132	91717632	61485056	22574632	24992
473	0.751337	91717632	61485056	23921704	24992
474	0.750515	91717632	61485056	25268744	24992
475	0.750387	91717632	61485056	26615784	24992
476	0.749732	91717632	61485056	27962824	24992
477	0.758588	91717632	61485056	29309864	24992
478	0.785548	91717632	61485056	14212448	24992
479	0.767821	91717632	61485056	15559488	24992
480	0.768563	91717632	61485056	16906528	24992
481	0.749967	91717632	61485056	18253568	24992
482	0.757352	91717632	61485056	19600608	24992
483	0.752675	91717632	61485056	20947648	24992
484	0.751643	91717632	61485056	22294688	24992
485	0.751912	91717632	61485056	23641728	24992
486	0.751048	91717632	61485056	24988816	24992
487	0.96349	91717632	61485056	26335856	24992
488	0.751079	91717632	61485056	27682896	24992
489	0.752126	91717632	61485056	29029936	24992
490	1.035523	91717632	61485056	13934344	24992
491	0.812738	91717632	61485056	15281392	24992
492	0.810164	91717632	61485056	16630096	24992
493	0.754197	91717632	61485056	17977144	24992
494	0.939099	91717632	61485056	19324184	24992
495	0.75119	91717632	61485056	20671224	24992
496	0.754749	91717632	61485056	22018264	24992
497	0.74847	91717632	61485056	23365304	24992
498	0.748723	91717632	61485056	24712344	24992
499	0.785765	91717632	61485056	26059416	24992
500	0.750627	91717632	61485056	27406456	24992
501	0.752023	91717632	61485056	28753496	24992
502	1.067746	91717632	61485056	13657904	24992
503	0.753395	91717632	61485056	15004952	24992
504	0.76801	91717632	61485056	16351992	24992
505	0.753978	91717632	61485056	17699032	24992
506	0.752592	91717632	61485056	19046072	24992
507	0.749025	91717632	61485056	20393112	24992
508	0.749542	91717632	61485056	21740152	24992
509	0.923298	91717632	61485056	23087192	24992
510	0.755332	91717632	61485056	24434232	24992
511	0.749021	91717632	61485056	25781272	24992
512	0.751215	91717632	61485056	27128312	24992
513	0.748387	91717632	61485056	28475352	24992
514	0.765856	91717632	61485056	29822392	24992
515	0.765816	91717632	61485056	14724968	24992
516	0.752728	91717632	61485056	16072008	24992
517	0.756039	91717632	61485056	17419048	24992
518	0.749569	91717632	61485056	18766088	24992
519	0.776939	91717632	61485056	20113128	24992
520	0.750664	91717632	61485056	21460168	24992
521	0.754224	91717632	61485056	22807208	24992
522	0.752228	91717632	61485056	24154248	24992
523	0.752213	91717632	61485056	25501288	24992
524	0.748933	91717632	61485056	26848360	24992
525	0.755205	91717632	61485056	28195400	24992
526	0.750254	91717632	61485056	29542440	24992
527	0.780198	91717632	61485056	14445024	24992
528	0.770326	91717632	61485056	15792064	24992
529	0.778825	91717632	61485056	17139104	24992
530	0.770132	91717632	61485056	18486176	24992
531	0.767742	91717632	61485056	19833216	24992
532	0.794702	91717632	61485056	21180256	24992
533	0.756006	91717632	61485056	22527296	24992
534	0.758359	91717632	61485056	23874336	24992
535	0.751052	91717632	61485056	25221376	24992
536	0.749747	91717632	61485056	26568416	24992
537	0.804443	91717632	61485056	27915456	24992
538	0.751338	91717632	61485056	29262496	24992
539	1.048787	91717632	61485056	14166904	24992
540	0.756134	91717632	61485056	15513952	24992
541	0.749828	91717632	61485056	16860992	24992
542	0.766962	91717632	61485056	18208032	24992
543	0.750036	91717632	61485056	19555072	24992
544	0.749584	91717632	61485056	20902112	24992
545	0.759944	91717632	61485056	22249152	24992
546	0.751196	91717632	61485056	23596192	24992
547	0.773568	91717632	61485056	24943232	24992
548	0.750969	91717632	61485056	26290288	24992
549	0.747715	91717632	61485056	27637328	24992
550	0.749924	91717632	61485056	28984368	24992
551	1.032266	91717632	61485056	13888776	24992
552	0.770936	91717632	61485056	15235824	24992
553	0.750743	91717632	61485056	16582864	24992
554	0.766679	91717632	61485056	17929904	24992
555	0.752599	91717632	61485056	19276944	24992
556	0.750252	91717632	61485056	20630816	24992
557	0.759659	91717632	61485056	21977856	24992
558	0.750376	91717632	61485056	23324896	24992
559	0.751619	91717632	61485056	24671936	24992
560	0.750485	91717632	61485056	26018976	24992
561	0.755575	91717632	61485056	27366432	24992
562	0.781664	91717632	61485056	28713472	24992
563	0.754834	91717632	61485056	30060512	24992
564	0.767185	91717632	61485056	14969888	24992
565	0.760273	91717632	61485056	16316928	24992
566	0.752564	91717632	61485056	17663968	24992
567	0.769495	91717632	61485056	19011008	24992
568	0.750019	91717632	61485056	20358048	24992
569	0.748974	91717632	61485056	21705104	24992
570	0.797342	91717632	61485056	23052144	24992
571	0.751721	91717632	61485056	24399184	24992
572	0.760491	91717632	61485056	25746224	24992
573	0.750993	91717632	61485056	27093264	24992
574	0.921828	91717632	61485056	28440304	24992
575	0.751856	91717632	61485056	29787344	24992
576	0.769585	91717632	61485056	14696728	24992
577	0.926136	91717632	61485056	16043768	24992
578	0.755049	91717632	61485056	17390808	24992
579	0.748016	91717632	61485056	18737848	24992
580	0.750175	91717632	61485056	20084904	24992
581	0.749991	91717632	61485056	21431944	24992
582	0.756707	91717632	61485056	22778984	24992
583	0.75298	91717632	61485056	24126024	24992
584	0.750255	91717632	61485056	25473064	24992
585	0.939138	91717632	61485056	26820104	24992
586	0.750738	91717632	61485056	28167144	24992
587	0.755901	91717632	61485056	29514184	24992
588	1.03141	91717632	61485056	14418592	24992
589	0.76014	91717632	61485056	15765640	24992
590	0.751544	91717632	61485056	17112680	24992
591	0.748924	91717632	61485056	18459720	24992
592	0.748991	91717632	61485056	19806760	24992
593	0.757162	91717632	61485056	21153800	24992
594	0.750626	91717632	61485056	22500872	24992
595	0.763524	91717632	61485056	23847912	24992
596	0.749734	91717632	61485056	25194952	24992
597	0.752722	91717632	61485056	26541992	24992
598	0.750084	91717632	61485056	27889032	24992
599	0.752727	91717632	61485056	29236072	24992
600	1.041009	91717632	61485056	14140480	24992
601	0.75614	91717632	61485056	15487528	24992
602	0.751219	91717632	61485056	16834568	24992
603	0.753752	91717632	61485056	18181608	24992
604	0.749612	91717632	61485056	19528648	24992
605	0.761605	91717632	61485056	20875688	24992
606	0.74855	91717632	61485056	22222728	24992
607	0.754911	91717632	61485056	23569768	24992
608	0.778562	91717632	61485056	24916808	24992
609	0.750219	91717632	61485056	26263848	24992
610	0.758455	91717632	61485056	27610888	24992
611	0.754909	91717632	61485056	28957928	24992
612	0.747458	91717632	61485056	30305032	24992
613	0.769259	91717632	61485056	15207672	24992
614	0.756239	91717632	61485056	16554712	24992
615	0.917506	91717632	61485056	17901752	24992
616	0.750916	91717632	61485056	19248792	24992
617	0.798269	91717632	61485056	20595832	24992
618	0.756443	91717632	61485056	21942872	24992
619	0.7481	91717632	61485056	23289912	24992
620	0.78429	91717632	61485056	24636952	24992
621	0.751805	91717632	61485056	25983992	24992
622	0.75237	91717632	61485056	27331032	24992
623	0.770828	91717632	61485056	28678072	24992
624	0.754036	91717632	61485056	30025112	24992
625	0.773559	91717632	61485056	14927696	24992
626	0.751965	91717632	61485056	16274736	24992
627	0.748644	91717632	61485056	17621776	24992
628	0.760186	91717632	61485056	18968816	24992
629	0.748891	91717632	61485056	20315856	24992
630	0.754078	91717632	61485056	21662896	24992
631	0.756446	91717632	61485056	23009968	24992
632	0.755242	91717632	61485056	24357008	24992
633	0.756333	91717632	61485056	25704048	24992
634	0.747617	91717632	61485056	27051088	24992
635	0.747715	91717632	61485056	28398128	24992
636	0.751683	91717632	61485056	29745168	24992
637	1.036645	91717632	61485056	14649576	24992
638	0.972217	91717632	61485056	15996624	24992
639	0.754325	91717632	61485056	17343664	24992
640	0.752592	91717632	61485056	18690704	24992
641	0.752239	91717632	61485056	20037744	24992
642	0.750408	91717632	61485056	21384784	24992
643	0.757186	91717632	61485056	22731824	24992
644	0.74885	91717632	61485056	24078880	24992
645	0.751341	91717632	61485056	25425920	24992
646	0.753398	91717632	61485056	26772960	24992
647	0.754764	91717632	61485056	28120000	24992
648	0.754323	91717632	61485056	29467040	24992
649	1.03241	91717632	61485056	14371480	24992
650	0.752957	91717632	61485056	15718528	24992
651	0.751113	91717632	61485056	17065584	24992
652	0.749882	91717632	61485056	18412624	24992
653	0.748625	91717632	61485056	19759664	24992
654	0.760982	91717632	61485056	21106704	24992
655	0.751364	91717632	61485056	22453744	24992
656	0.75366	91717632	61485056	23800784	24992
657	0.748376	91717632	61485056	25147824	24992
658	0.752618	91717632	61485056	26494864	24992
659	0.749861	91717632	61485056	27841904	24992
660	0.751746	91717632	61485056	29188944	24992
661	0.942153	91717632	61485056	30535984	24992
662	0.775719	91717632	61485056	15438576	24992
663	0.756112	91717632	61485056	16785616	24992
664	0.752211	91717632	61485056	18132656	24992
665	0.750714	91717632	61485056	19479696	24992
666	0.812035	91717632	61485056	20826736	24992
667	0.747884	91717632	61485056	22173776	24992
668	0.749779	91717632	61485056	23520816	24992
669	0.757245	91717632	61485056	24867888	24992
670	0.749891	91717632	61485056	26214928	24992
671	0.758406	91717632	61485056	27561968	24992
672	0.753177	91717632	61485056	28909008	24992
673	0.748253	91717632	61485056	30256048	24992
674	0.779547	91717632	61485056	15158632	24992
675	0.771622	91717632	61485056	16505672	24992
676	0.786912	91717632	61485056	17852712	24992
677	0.773068	91717632	61485056	19199752	24992
678	0.770258	91717632	61485056	20546792	24992
679	0.769416	91717632	61485056	21893832	24992
680	0.773057	91717632	61485056	23240872	24992
681	0.760673	91717632	61485056	24587912	24992
682	0.751641	91717632	61485056	25934952	24992
683	0.751476	91717632	61485056	27281992	24992
684	0.779415	91717632	61485056	28629032	24992
685	0.750891	91717632	61485056	29976072	24992
686	1.055658	91717632	61485056	14880488	24992
687	0.770817	91717632	61485056	16227528	24992
688	0.769737	91717632	61485056	17574600	24992
689	0.767813	91717632	61485056	18921640	24992
690	0.767624	91717632	61485056	20268680	24992
691	0.961023	91717632	61485056	21615720	24992
692	0.760165	91717632	61485056	22962760	24992
693	0.753898	91717632	61485056	24309800	24992
694	0.751109	91717632	61485056	25656840	24992
695	0.749637	91717632	61485056	27003880	24992
696	0.759302	91717632	61485056	28350920	24992
697	0.749408	91717632	61485056	29697960	24992
698	1.036263	91717632	61485056	14602368	24992
699	0.762795	91717632	61485056	15949416	24992
700	0.757745	91717632	61485056	17296456	24992
701	0.757206	91717632	61485056	18643528	24992
702	0.756077	91717632	61485056	19990568	24992
703	0.786016	91717632	61485056	21338272	24992
704	0.75401	91717632	61485056	22685312	24992
705	0.753047	91717632	61485056	24032352	24992
706	0.820041	91717632	61485056	25379392	24992
707	0.75031	91717632	61485056	26726432	24992
708	0.798533	91717632	61485056	28073472	24992
709	0.749753	91717632	61485056	29420512	24992
710	0.751336	91717632	61485056	30767552	24992
711	0.777228	91717632	61485056	15670144	24992
712	0.753536	91717632	61485056	17017216	24992
713	0.751558	91717632	61485056	18364256	24992
714	0.774805	91717632	61485056	19711296	24992
715	0.753128	91717632	61485056	21058336	24992
716	0.76534	91717632	61485056	22405376	24992
717	0.749852	91717632	61485056	23752416	24992
718	0.749225	91717632	61485056	25099456	24992
719	0.75607	91717632	61485056	26446512	24992
720	0.750322	91717632	61485056	27793552	24992
721	0.754753	91717632	61485056	29140592	24992
722	0.754777	91717632	61485056	30487632	24992
723	0.767537	91717632	61485056	15390216	24992
724	0.753877	91717632	61485056	16737256	24992
725	0.750206	91717632	61485056	18084296	24992
726	0.758561	91717632	61485056	19431368	24992
727	0.751599	91717632	61485056	20778408	24992
728	0.748141	91717632	61485056	22125448	24992
729	0.761371	91717632	61485056	23472488	24992
730	0.749977	91717632	61485056	24819528	24992
731	0.753435	91717632	61485056	26166568	24992
732	0.928723	91717632	61485056	27513608	24992
733	0.750205	91717632	61485056	28860648	24992
734	0.762095	91717632	61485056	30207688	24992
735	1.034336	91717632	61485056	15112104	24992
736	0.755828	91717632	61485056	16459144	24992
737	0.762055	91717632	61485056	17806184	24992
738	0.748849	91717632	61485056	19153224	24992
739	0.760414	91717632	61485056	20500264	24992
740	0.75067	91717632	61485056	21847304	24992
741	0.753017	91717632	61485056	23194344	24992
742	0.752455	91717632	61485056	24541384	24992
743	0.749531	91717632	61485056	25888440	24992
744	0.945357	91717632	61485056	27235480	24992
745	0.752069	91717632	61485056	28582520	24992
746	0.792717	91717632	61485056	29929560	24992
747	1.047881	91717632	61485056	14833968	24992
748	0.772326	91717632	61485056	16181016	24992
749	0.774925	91717632	61485056	17528056	24992
750	0.769732	91717632	61485056	18875112	24992
751	0.770645	91717632	61485056	20222152	24992
752	0.759557	91717632	61485056	21569192	24992
753	0.752597	91717632	61485056	22916232	24992
754	0.759462	91717632	61485056	24263272	24992
755	0.755497	91717632	61485056	25610312	24992
756	0.751712	91717632	61485056	26957352	24992
757	0.754365	91717632	61485056	28304392	24992
758	0.749185	91717632	61485056	29651432	24992
759	0.936363	91717632	61485056	30998472	24992
760	0.76751	91717632	61485056	15901064	24992
761	0.752514	91717632	61485056	17248104	24992
762	0.750681	91717632	61485056	18595144	24992
763	0.760271	91717632	61485056	19942184	24992
764	0.760147	91717632	61485056	21289224	24992
765	0.752683	91717632	61485056	22636264	24992
766	0.748448	91717632	61485056	23983304	24992
767	0.7539	91717632	61485056	25330344	24992
768	0.751295	91717632	61485056	26677384	24992
769	0.757835	91717632	61485056	28024424	24992
770	0.7489	91717632	61485056	29371464	24992
771	0.75005	91717632	61485056	30718504	24992
772	0.765685	91717632	61485056	15621088	24992
773	0.753179	91717632	61485056	16968128	24992
774	1.527786	91717632	61485056	18315240	24992
775	0.755842	91717632	61485056	19662280	24992
776	0.751731	91717632	61485056	21009320	24992
777	0.753042	91717632	61485056	22356360	24992
778	0.801699	91717632	61485056	23712432	24992
779	0.760319	91717632	61485056	25059472	24992
780	0.770362	91717632	61485056	26406512	24992
781	0.774968	91717632	61485056	27756040	24992
782	0.755969	91717632	61485056	29103080	24992
783	0.749122	91717632	61485056	30450120	24992
784	1.212381	91717632	61485056	15367336	24992
785	0.759664	91717632	61485056	16714376	24992
786	0.762005	91717632	61485056	18061416	24992
787	0.755261	91717632	61485056	19408456	24992
788	0.746949	91717632	61485056	20755496	24992
789	0.789762	91717632	61485056	22102536	24992
790	0.747547	91717632	61485056	23449576	24992
791	0.760071	91717632	61485056	24796616	24992
792	0.748304	91717632	61485056	26143656	24992
793	0.749574	91717632	61485056	27490696	24992
794	0.754424	91717632	61485056	28837736	24992
795	0.751834	91717632	61485056	30184776	24992
796	1.239087	91717632	61485056	15126848	24992
797	0.949578	91717632	61485056	16473896	24992
798	0.75095	91717632	61485056	17820936	24992
799	0.75442	91717632	61485056	19167976	24992
800	0.75141	91717632	61485056	20515016	24992
801	0.762593	91717632	61485056	21862056	24992
802	0.752646	91717632	61485056	23209112	24992
803	0.748584	91717632	61485056	24556152	24992
804	0.766157	91717632	61485056	25903192	24992
805	0.749125	91717632	61485056	27250232	24992
806	0.798761	91717632	61485056	28597272	24992
807	0.75109	91717632	61485056	29944344	24992
808	0.753238	91717632	61485056	31291384	24992
809	0.789715	91717632	61485056	16244360	24992
810	0.962566	91717632	61485056	17591432	24992
811	0.919258	91717632	61485056	18938472	24992
812	0.751104	91717632	61485056	20285512	24992
813	0.75114	91717632	61485056	21632552	24992
814	0.753069	91717632	61485056	22979592	24992
815	0.752581	91717632	61485056	24326664	24992
816	0.748145	91717632	61485056	25673704	24992
817	0.752098	91717632	61485056	27020744	24992
818	0.751041	91717632	61485056	28367784	24992
819	0.928414	91717632	61485056	29714824	24992
820	0.749349	91717632	61485056	31061864	24992
821	0.783813	91717632	61485056	16014832	24992
822	0.75508	91717632	61485056	17361872	24992
823	0.751355	91717632	61485056	18708928	24992
824	0.751349	91717632	61485056	20055968	24992
825	0.749894	91717632	61485056	21403008	24992
826	0.914846	91717632	61485056	22750048	24992
827	0.751512	91717632	61485056	24097088	24992
828	0.751946	91717632	61485056	25444160	24992
829	0.75304	91717632	61485056	26791200	24992
830	0.750566	91717632	61485056	28138240	24992
831	0.751845	91717632	61485056	29485280	24992
832	0.751977	91717632	61485056	30832320	24992
833	0.782109	91717632	61485056	15784256	24992
834	0.782173	91717632	61485056	17131296	24992
835	0.753271	91717632	61485056	18478336	24992
836	0.761631	91717632	61485056	19825392	24992
837	0.752242	91717632	61485056	21172432	24992
838	0.762562	91717632	61485056	22519488	24992
839	0.757556	91717632	61485056	23868936	24992
840	0.749638	91717632	61485056	25215784	24992
841	0.932029	91717632	61485056	26562632	24992
842	0.753485	91717632	61485056	27909480	24992
843	0.747313	91717632	61485056	29256328	24992
844	0.752305	91717632	61485056	30603176	24992
845	1.154145	91717632	61485056	15558536	24992
846	0.852627	91717632	61485056	16905384	24992
847	0.753401	91717632	61485056	18252232	24992
848	0.751203	91717632	61485056	19599080	24992
849	0.756878	91717632	61485056	20945976	24992
850	0.749372	91717632	61485056	22303160	24992
851	0.765112	91717632	61485056	23650008	24992
852	0.746928	91717632	61485056	24996856	24992
853	0.748853	91717632	61485056	26343704	24992
854	0.747329	91717632	61485056	27690552	24992
855	0.750928	91717632	61485056	29037400	24992
856	0.758637	91717632	61485056	30384344	24992
857	1.164463	91717632	61485056	15350040	24992
858	0.756511	91717632	61485056	16696896	24992
859	0.751538	91717632	61485056	18043744	24992
860	0.746462	91717632	61485056	19390592	24992
861	0.761349	91717632	61485056	20737440	24992
862	0.749312	91717632	61485056	22084288	24992
863	0.746318	91717632	61485056	23431136	24992
864	0.753879	91717632	61485056	24778016	24992
865	0.747786	91717632	61485056	26124864	24992
866	0.749309	91717632	61485056	27471712	24992
867	0.752568	91717632	61485056	28818560	24992
868	0.749435	91717632	61485056	30165408	24992
869	0.774728	91717632	61485056	31512256	24992
870	0.772303	91717632	61485056	16475368	24992
871	0.788601	91717632	61485056	17822216	24992
872	0.749973	91717632	61485056	19169064	24992
873	0.74819	91717632	61485056	20515912	24992
874	0.759121	91717632	61485056	21862760	24992
875	0.748085	91717632	61485056	23209608	24992
876	0.748081	91717632	61485056	24556472	24992
877	0.750636	91717632	61485056	25903320	24992
878	0.747442	91717632	61485056	27250168	24992
879	0.953146	91717632	61485056	28597016	24992
880	0.752998	91717632	61485056	29943864	24992
881	0.747555	91717632	61485056	31290712	24992
882	0.780982	91717632	61485056	16243488	24992
883	0.7696	91717632	61485056	17590336	24992
884	0.774988	91717632	61485056	18937184	24992
885	0.774525	91717632	61485056	20284152	24992
886	1.055903	91717632	61485056	21631000	24992
887	0.752449	91717632	61485056	22977848	24992
888	0.819205	91717632	61485056	24324696	24992
889	0.74974	91717632	61485056	25671544	24992
890	0.758652	91717632	61485056	27034120	24992
891	0.749097	91717632	61485056	28380952	24992
892	0.750999	91717632	61485056	29727784	24992
893	0.919035	91717632	61485056	31074616	24992
894	1.231469	91717632	61485056	16029768	24992
895	0.777006	91717632	61485056	17376600	24992
896	0.76982	91717632	61485056	18723432	24992
897	0.771451	91717632	61485056	20070264	24992
898	0.77589	91717632	61485056	21417096	24992
899	0.767679	91717632	61485056	22763928	24992
900	0.765382	91717632	61485056	24110760	24992
901	0.762616	91717632	61485056	25457592	24992
902	0.752201	91717632	61485056	26804424	24992
903	0.77061	91717632	61485056	28151256	24992
904	0.74947	91717632	61485056	29498088	24992
905	0.750831	91717632	61485056	30844920	24992
906	1.233338	91717632	61485056	15799496	24992
907	0.767631	91717632	61485056	17146336	24992
908	0.938753	91717632	61485056	18493168	24992
909	0.753222	91717632	61485056	19840000	24992
910	0.764154	91717632	61485056	21186856	24992
911	0.751283	91717632	61485056	22533696	24992
912	0.750877	91717632	61485056	23880528	24992
913	0.764781	91717632	61485056	25227360	24992
914	0.746619	91717632	61485056	26574192	24992
915	0.746382	91717632	61485056	27921024	24992
916	0.749143	91717632	61485056	29267856	24992
917	0.748466	91717632	61485056	30614704	24992
918	0.756878	91717632	61485056	31961536	24992
919	0.773296	91717632	61485056	16912960	24992
920	0.749405	91717632	61485056	18259792	24992
921	0.751074	91717632	61485056	19606624	24992
922	0.750457	91717632	61485056	20953456	24992
923	0.946697	91717632	61485056	22300288	24992
924	0.751902	91717632	61485056	23647120	24992
925	0.750524	91717632	61485056	24993952	24992
926	0.752688	91717632	61485056	26340784	24992
927	0.749502	91717632	61485056	27687616	24992
928	0.757286	91717632	61485056	29034448	24992
929	0.752962	91717632	61485056	30381280	24992
930	0.749263	91717632	61485056	31728176	24992
931	0.782788	91717632	61485056	16679592	24992
932	0.771289	91717632	61485056	18026472	24992
933	0.774014	91717632	61485056	19373304	24992
934	0.766611	91717632	61485056	20720136	24992
935	0.76917	91717632	61485056	22066968	24992
936	0.76714	91717632	61485056	23413800	24992
937	0.768615	91717632	61485056	24760632	24992
938	0.814561	91717632	61485056	26107544	24992
939	0.750597	91717632	61485056	27454376	24992
940	0.749464	91717632	61485056	28801208	24992
941	0.751561	91717632	61485056	30148040	24992
942	0.74939	91717632	61485056	31494872	24992
943	1.345581	91717632	61485056	16443688	24992
944	0.753129	91717632	61485056	17790528	24992
945	0.750166	91717632	61485056	19137368	24992
946	0.750743	91717632	61485056	20484200	24992
947	0.748763	91717632	61485056	21831032	24992
948	0.756667	91717632	61485056	23177864	24992
949	0.747424	91717632	61485056	24524696	24992
950	0.753882	91717632	61485056	25871528	24992
951	0.748238	91717632	61485056	27218408	24992
952	0.746039	91717632	61485056	28565240	24992
953	0.93921	91717632	61485056	29912072	24992
954	0.749734	91717632	61485056	31258904	24992
955	1.317856	91717632	61485056	16213096	24992
956	0.770011	91717632	61485056	17559936	24992
957	0.772919	91717632	61485056	18906768	24992
958	0.770764	91717632	61485056	20253600	24992
959	0.770106	91717632	61485056	21600432	24992
960	0.942582	91717632	61485056	22947264	24992
961	0.760183	91717632	61485056	24294096	24992
962	0.75203	91717632	61485056	25640928	24992
963	0.753778	91717632	61485056	26987760	24992
964	0.746687	91717632	61485056	28334608	24992
965	0.753135	91717632	61485056	29681440	24992
966	0.748375	91717632	61485056	31028272	24992
967	1.310058	91717632	61485056	15981288	24992
968	0.773778	91717632	61485056	17328128	24992
969	0.769842	91717632	61485056	18674960	24992
970	0.777806	91717632	61485056	20021792	24992
971	0.767017	91717632	61485056	21368624	24992
972	0.767457	91717632	61485056	22715504	24992
973	0.768428	91717632	61485056	24062336	24992
974	0.772185	91717632	61485056	25409168	24992
975	0.960241	91717632	61485056	26756000	24992
976	0.762471	91717632	61485056	28102832	24992
977	0.749553	91717632	61485056	29449680	24992
978	0.74873	91717632	61485056	30796512	24992
979	0.749071	91717632	61485056	32143344	24992
980	0.767235	91717632	61485056	17094768	24992
981	0.747807	91717632	61485056	18441600	24992
982	0.756519	91717632	61485056	19788432	24992
983	0.757084	91717632	61485056	21135264	24992
984	0.751369	91717632	61485056	22482096	24992
985	0.75933	91717632	61485056	23828992	24992
986	0.75279	91717632	61485056	25175824	24992
987	0.747162	91717632	61485056	26522656	24992
988	0.751873	91717632	61485056	27869488	24992
989	0.747078	91717632	61485056	29216320	24992
990	0.764597	91717632	61485056	30563168	24992
991	0.750101	91717632	61485056	31910000	24992
992	0.807463	91717632	61485056	16861416	24992
993	0.754178	91717632	61485056	18208248	24992
994	0.767423	91717632	61485056	19555080	24992
995	0.751873	91717632	61485056	20901912	24992
996	0.748272	91717632	61485056	22248744	24992
997	0.754978	91717632	61485056	23595576	24992
998	0.756024	91717632	61485056	24942744	24992
999	0.748104	91717632	61485056	26289576	24992
1000	0.75663	91717632	61485056	27636408	24992
