x	Duration	RSS	HeapTotal	HeapUsed	External
0	NA	90132480	59912192	11536040	24992
1	2.736962	90132480	59912192	12216144	24992
2	5.014426	90132480	59912192	13554528	24992
3	0.901132	90132480	59912192	15558184	24992
4	0.91104	90132480	59912192	16905648	24992
5	0.896894	90132480	59912192	18253112	24992
6	0.91078	90132480	59912192	19600576	24992
7	0.899174	90132480	59912192	20948072	24992
8	0.899187	90132480	59912192	22295536	24992
9	0.78999	90132480	59912192	23643000	24992
10	0.783705	90132480	59912192	24990464	24992
11	0.787425	90132480	59912192	26337928	24992
12	0.782315	90132480	59912192	27685408	24992
13	0.829708	90132480	59912192	12571056	24992
14	0.802963	90132480	59912192	13918536	24992
15	0.790718	90132480	59912192	15266000	24992
16	0.813771	90132480	59912192	16613464	24992
17	0.790816	90132480	59912192	17960928	24992
18	0.783319	90132480	59912192	19308392	24992
19	0.786807	90132480	59912192	20656208	24992
20	0.78952	90132480	59912192	22003672	24992
21	0.780915	90132480	59912192	23351136	24992
22	0.773414	90132480	59912192	24698600	24992
23	1.033658	90132480	59912192	26046064	24992
24	0.782363	90132480	59912192	27393528	24992
25	1.064629	90132480	59912192	12297424	24992
26	0.805751	90132480	59912192	13644888	24992
27	0.802867	90132480	59912192	14992352	24992
28	0.77781	90132480	59912192	16339816	24992
29	0.778827	90132480	59912192	17687280	24992
30	0.783973	90132480	59912192	19034744	24992
31	0.786517	90132480	59912192	20382216	24992
32	0.789017	90132480	59912192	21729672	24992
33	0.778981	90132480	59912192	23077136	24992
34	0.781007	90132480	59912192	24424600	24992
35	0.780977	90132480	59912192	25772064	24992
36	0.777439	90132480	59912192	27119528	24992
37	1.317942	90132480	59912192	12025696	24992
38	0.790541	90132480	59912192	13373160	24992
39	0.802208	90132480	59912192	14720624	24992
40	0.780036	90132480	59912192	16068088	24992
41	0.779889	90132480	59912192	17415552	24992
42	0.784444	90132480	59912192	18763016	24992
43	0.784774	90132480	59912192	20110480	24992
44	0.983404	90132480	59912192	21457944	24992
45	0.786675	90132480	59912192	22806080	24992
46	0.776539	90132480	59912192	24153544	24992
47	0.78121	90132480	59912192	25501008	24992
48	0.778	90132480	59912192	26848472	24992
49	1.036241	90132480	59912192	11754176	24992
50	0.784083	90132480	59912192	13101632	24992
51	0.785952	90132480	59912192	14449128	24992
52	0.782867	90132480	59912192	15796592	24992
53	0.778032	90132480	59912192	17144056	24992
54	0.792187	90132480	59912192	18491520	24992
55	0.787445	90132480	59912192	19838984	24992
56	0.800859	90132480	59912192	21186448	24992
57	0.778847	90132480	59912192	22533912	24992
58	0.780423	90132480	59912192	23881392	24992
59	1.01238	90132480	59912192	25228856	24992
60	0.784116	90132480	59912192	26576320	24992
61	0.799706	90132480	59912192	27923784	24992
62	0.80045	90132480	59912192	12828496	24992
63	0.781672	90132480	59912192	14175960	24992
64	0.789735	90132480	59912192	15523552	24992
65	0.778467	90132480	59912192	16871016	24992
66	1.016089	90132480	59912192	18218480	24992
67	0.779346	90132480	59912192	19565944	24992
68	0.861097	90132480	59912192	20913408	24992
69	0.781422	90132480	59912192	22260872	24992
70	0.778565	90132480	59912192	23608336	24992
71	0.804949	90132480	59912192	24955832	24992
72	0.774715	90132480	59912192	26303296	24992
73	0.990291	90132480	59912192	27650760	24992
74	0.842288	90132480	59912192	12554800	24992
75	0.83197	90132480	59912192	13902264	24992
76	0.823183	90132480	59912192	15249728	24992
77	0.822664	90132480	59912192	16597272	24992
78	0.827258	90132480	59912192	17944736	24992
79	0.835543	90132480	59912192	19292200	24992
80	1.022771	90132480	59912192	20639856	24992
81	0.837557	90132480	59912192	21988488	24992
82	0.848206	90132480	59912192	23335864	24992
83	0.856073	90132480	59912192	24683240	24992
84	0.847643	90132480	59912192	26031752	24992
85	0.833631	90132480	59912192	27379128	24992
86	1.065226	90132480	59912192	12285704	24992
87	0.807237	90132480	59912192	13633080	24992
88	0.781156	90132480	59912192	14980456	24992
89	0.992727	90132480	59912192	16327832	24992
90	0.778119	90132480	59912192	17675288	24992
91	0.777849	90132480	59912192	19022664	24992
92	0.783093	90132480	59912192	20370040	24992
93	0.779191	90132480	59912192	21717416	24992
94	0.798117	90132480	59912192	23064792	24992
95	0.780802	90132480	59912192	24412168	24992
96	0.779188	90132480	59912192	25759544	24992
97	0.780268	90132480	59912192	27106920	24992
98	1.017499	90132480	59912192	12012824	24992
99	0.788472	90132480	59912192	13360208	24992
100	0.779703	90132480	59912192	14707584	24992
101	1.008138	90132480	59912192	16054960	24992
102	0.779724	90132480	59912192	17402336	24992
103	0.788609	90132480	59912192	18749728	24992
104	0.789137	90132480	59912192	20097104	24992
105	0.789236	90132480	59912192	21444480	24992
106	0.904017	90132480	59912192	22791856	24992
107	0.791832	90132480	59912192	24140176	24992
108	0.781886	90132480	59912192	25487584	24992
109	0.783597	90132480	59912192	26834960	24992
110	0.77979	90132480	59912192	28182336	24992
111	0.796845	90132480	59912192	13084880	24992
112	0.782132	90132480	59912192	14432256	24992
113	0.795334	90132480	59912192	15779632	24992
114	0.781768	90132480	59912192	17127008	24992
115	0.776362	90132480	59912192	18474384	24992
116	0.7807	90132480	59912192	19821760	24992
117	0.776421	90132480	59912192	21169136	24992
118	0.789596	90132480	59912192	22516512	24992
119	0.782075	90132480	59912192	23863888	24992
120	0.776794	90132480	59912192	25211264	24992
121	0.787006	90132480	59912192	26558672	24992
122	0.807005	90132480	59912192	27906048	24992
123	1.052457	90132480	59912192	12808600	24992
124	0.782286	90132480	59912192	14155976	24992
125	0.788876	90132480	59912192	15503352	24992
126	0.778936	90132480	59912192	16850728	24992
127	0.803871	90132480	59912192	18198112	24992
128	0.785532	90132480	59912192	19545496	24992
129	0.780149	90132480	59912192	20892872	24992
130	0.989401	90132480	59912192	22240248	24992
131	0.779158	90132480	59912192	23587624	24992
132	0.778812	90132480	59912192	24935000	24992
133	0.780513	90132480	59912192	26282376	24992
134	0.786534	90132480	59912192	27629848	24992
135	1.029723	90132480	59912192	12534224	24992
136	0.786781	90132480	59912192	13881608	24992
137	0.78262	90132480	59912192	15228984	24992
138	0.784123	90132480	59912192	16576360	24992
139	0.77982	90132480	59912192	17923736	24992
140	1.58579	90132480	59912192	19271192	24992
141	0.792763	90132480	59912192	20618680	24992
142	0.794234	90132480	59912192	21967896	24992
143	0.777286	90132480	59912192	23315272	24992
144	0.778607	90132480	59912192	24662648	24992
145	0.790162	90132480	59912192	26023968	24992
146	0.77832	90132480	59912192	27371344	24992
147	1.02588	90132480	59912192	12277952	24992
148	0.797511	90132480	59912192	13625328	24992
149	0.800595	90132480	59912192	14972704	24992
150	0.778595	90132480	59912192	16320080	24992
151	0.778247	90132480	59912192	17667456	24992
152	0.778932	90132480	59912192	19014832	24992
153	0.771797	90132480	59912192	20362208	24992
154	0.774229	90132480	59912192	21709584	24992
155	0.783321	90132480	59912192	23056976	24992
156	0.83064	90132480	59912192	24408464	24992
157	0.776483	90132480	59912192	25755504	24992
158	0.77035	90132480	59912192	27102544	24992
159	0.782387	90132480	59912192	28449584	24992
160	0.809902	90132480	59912192	13354024	24992
161	0.777659	90132480	59912192	14701064	24992
162	0.771654	90132480	59912192	16048104	24992
163	0.78722	90132480	59912192	17395144	24992
164	0.782465	90132480	59912192	18742184	24992
165	0.772311	90132480	59912192	20089224	24992
166	0.803386	90132480	59912192	21436264	24992
167	0.772794	90132480	59912192	22783304	24992
168	0.79464	90132480	59912192	24130344	24992
169	0.778833	90132480	59912192	25477384	24992
170	0.777254	90132480	59912192	26824424	24992
171	0.775095	90132480	59912192	28171464	24992
172	0.971437	90132480	59912192	13074320	24992
173	0.801287	90132480	59912192	14421456	24992
174	0.78565	90132480	59912192	15768496	24992
175	0.796046	90132480	59912192	17118232	24992
176	0.773662	90132480	59912192	18465272	24992
177	0.768788	90132480	59912192	19812312	24992
178	0.799078	90132480	59912192	21159368	24992
179	0.793642	90132480	59912192	22506408	24992
180	0.971628	90132480	59912192	23853448	24992
181	0.779972	90132480	59912192	25200488	24992
182	0.77402	90132480	59912192	26547528	24992
183	0.798576	90132480	59912192	27894568	24992
184	1.021041	90132480	59912192	12798984	24992
185	0.79266	90132480	59912192	14146024	24992
186	0.778391	90132480	59912192	15493064	24992
187	0.772686	90132480	59912192	16840104	24992
188	0.775567	90132480	59912192	18187144	24992
189	0.76983	90132480	59912192	19534184	24992
190	0.790828	90132480	59912192	20881224	24992
191	0.772569	90132480	59912192	22228312	24992
192	0.771566	90132480	59912192	23575352	24992
193	0.786328	90132480	59912192	24922392	24992
194	0.780917	90132480	59912192	26270256	24992
195	0.799662	90132480	59912192	27617296	24992
196	1.027897	90132480	59912192	12521720	24992
197	0.785352	90132480	59912192	13868768	24992
198	0.77714	90132480	59912192	15215872	24992
199	0.771323	90132480	59912192	16562912	24992
200	0.773281	90132480	59912192	17909952	24992
201	0.771231	90132480	59912192	19256992	24992
202	0.955691	90132480	59912192	20604032	24992
203	0.774161	90132480	59912192	21951072	24992
204	0.770945	90132480	59912192	23298112	24992
205	0.771322	90132480	59912192	24645152	24992
206	0.773532	90132480	59912192	25992192	24992
207	0.780622	90132480	59912192	27339232	24992
208	0.769602	90132480	59912192	28686272	24992
209	0.787309	90132480	59912192	13588864	24992
210	0.784726	90132480	59912192	14935904	24992
211	0.76994	90132480	59912192	16282944	24992
212	0.784185	90132480	59912192	17629984	24992
213	0.770082	90132480	59912192	18977024	24992
214	0.777621	90132480	59912192	20324064	24992
215	0.775064	90132480	59912192	21671104	24992
216	0.769971	90132480	59912192	23018144	24992
217	0.787566	90132480	59912192	24365184	24992
218	0.77374	90132480	59912192	25712224	24992
219	0.768084	90132480	59912192	27059264	24992
220	0.772878	90132480	59912192	28406304	24992
221	0.801106	90132480	59912192	13308888	24992
222	0.793707	90132480	59912192	14656008	24992
223	0.778664	90132480	59912192	16003048	24992
224	0.771587	90132480	59912192	17350088	24992
225	0.775594	90132480	59912192	18697128	24992
226	0.771498	90132480	59912192	20044168	24992
227	0.77694	90132480	59912192	21391208	24992
228	0.770574	90132480	59912192	22738248	24992
229	0.799684	90132480	59912192	24088200	24992
230	0.775686	90132480	59912192	25435240	24992
231	0.772235	90132480	59912192	26782280	24992
232	0.974198	90132480	59912192	28129320	24992
233	1.034323	90132480	59912192	13036616	24992
234	0.787479	90132480	59912192	14383656	24992
235	1.034025	90132480	59912192	15733712	24992
236	0.774445	90132480	59912192	17080752	24992
237	0.784727	90132480	59912192	18427792	24992
238	0.768947	90132480	59912192	19774832	24992
239	0.792424	90132480	59912192	21121872	24992
240	0.775441	90132480	59912192	22468912	24992
241	0.775936	90132480	59912192	23815952	24992
242	0.77665	90132480	59912192	25163008	24992
243	0.769623	90132480	59912192	26510048	24992
244	0.822564	90132480	59912192	27857088	24992
245	1.043817	90132480	59912192	12764448	24992
246	0.975902	90132480	59912192	14111488	24992
247	0.774823	90132480	59912192	15458528	24992
248	0.76956	90132480	59912192	16805568	24992
249	0.771084	90132480	59912192	18152608	24992
250	0.776331	90132480	59912192	19499648	24992
251	0.784996	90132480	59912192	20846688	24992
252	0.769283	90132480	59912192	22193728	24992
253	0.769856	90132480	59912192	23540768	24992
254	0.779551	90132480	59912192	24887808	24992
255	0.769558	90132480	59912192	26234848	24992
256	0.781272	90132480	59912192	27581888	24992
257	0.76861	90132480	59912192	28928928	24992
258	0.816397	90132480	59912192	13831592	24992
259	0.783182	90132480	59912192	15178632	24992
260	0.775291	90132480	59912192	16525672	24992
261	0.788413	90132480	59912192	17872792	24992
262	0.769102	90132480	59912192	19219832	24992
263	0.776222	90132480	59912192	20566872	24992
264	0.772734	90132480	59912192	21913912	24992
265	0.767173	90132480	59912192	23260952	24992
266	0.791585	90132480	59912192	24608040	24992
267	0.767496	90132480	59912192	25955080	24992
268	0.768987	90132480	59912192	27302120	24992
269	0.80664	90132480	59912192	28649744	24992
270	0.799719	90132480	59912192	13552696	24992
271	0.776215	90132480	59912192	14899736	24992
272	0.770918	90132480	59912192	16246776	24992
273	0.796341	90132480	59912192	17593816	24992
274	0.769482	90132480	59912192	18940856	24992
275	0.770723	90132480	59912192	20287896	24992
276	0.773824	90132480	59912192	21634936	24992
277	0.772534	90132480	59912192	22981976	24992
278	0.78761	90132480	59912192	24329016	24992
279	0.917469	90132480	59912192	25676056	24992
280	0.777844	90132480	59912192	27025056	24992
281	0.779177	90132480	59912192	28372096	24992
282	1.042897	90132480	59912192	13276880	24992
283	0.786847	90132480	59912192	14623920	24992
284	0.770287	90132480	59912192	15970960	24992
285	0.780849	90132480	59912192	17318000	24992
286	0.768084	90132480	59912192	18665072	24992
287	0.769813	90132480	59912192	20012112	24992
288	0.773718	90132480	59912192	21359152	24992
289	0.777361	90132480	59912192	22706192	24992
290	0.773486	90132480	59912192	24053232	24992
291	0.76821	90132480	59912192	25400272	24992
292	0.76864	90132480	59912192	26747312	24992
293	0.773824	90132480	59912192	28094352	24992
294	1.046447	90132480	59912192	12998760	24992
295	0.799862	90132480	59912192	14345808	24992
296	0.774387	90132480	59912192	15692848	24992
297	0.777032	90132480	59912192	17039888	24992
298	0.775775	90132480	59912192	18386928	24992
299	0.766809	90132480	59912192	19733968	24992
300	0.783786	90132480	59912192	21081008	24992
301	0.773831	90132480	59912192	22428048	24992
302	0.768668	90132480	59912192	23775088	24992
303	0.77234	90132480	59912192	25122128	24992
304	0.771162	90132480	59912192	26469168	24992
305	0.791377	90132480	59912192	27816208	24992
306	0.774787	90132480	59912192	29163248	24992
307	0.801601	90132480	59912192	14065840	24992
308	0.787016	90132480	59912192	15412880	24992
309	0.779349	90132480	59912192	16762024	24992
310	0.77341	90132480	59912192	18109112	24992
311	0.767252	90132480	59912192	19456152	24992
312	0.770639	90132480	59912192	20803192	24992
313	0.776005	90132480	59912192	22150232	24992
314	0.771248	90132480	59912192	23497272	24992
315	0.772217	90132480	59912192	24844312	24992
316	0.89866	90132480	59912192	26192368	24992
317	0.785561	90132480	59912192	27539440	24992
318	0.766069	90132480	59912192	28886480	24992
319	0.805388	90132480	59912192	13789064	24992
320	0.779422	90132480	59912192	15136104	24992
321	0.774698	90132480	59912192	16483144	24992
322	0.784525	90132480	59912192	17830184	24992
323	0.777351	90132480	59912192	19177352	24992
324	0.773361	90132480	59912192	20524392	24992
325	0.966528	90132480	59912192	21871432	24992
326	0.771725	90132480	59912192	23218472	24992
327	0.798372	90132480	59912192	24565512	24992
328	0.767	90132480	59912192	25912552	24992
329	0.766753	90132480	59912192	27259592	24992
330	0.773442	90132480	59912192	28606632	24992
331	1.05419	90132480	59912192	13511048	24992
332	0.77833	90132480	59912192	14858088	24992
333	0.779973	90132480	59912192	16205128	24992
334	0.951314	90132480	59912192	17552168	24992
335	0.769192	90132480	59912192	18899208	24992
336	0.772524	90132480	59912192	20246360	24992
337	0.774283	90132480	59912192	21593400	24992
338	0.764948	90132480	59912192	22940440	24992
339	0.820258	90132480	59912192	24287480	24992
340	0.774329	90132480	59912192	25634520	24992
341	0.767299	90132480	59912192	26981592	24992
342	0.7938	90132480	59912192	28328632	24992
343	1.046897	90132480	59912192	13233040	24992
344	0.793262	90132480	59912192	14580088	24992
345	0.768881	90132480	59912192	15927128	24992
346	0.778111	90132480	59912192	17274168	24992
347	0.770003	90132480	59912192	18621208	24992
348	0.769459	90132480	59912192	19968248	24992
349	0.785302	90132480	59912192	21315288	24992
350	0.772077	90132480	59912192	22662328	24992
351	0.759726	90132480	59912192	24009368	24992
352	0.769769	90132480	59912192	25356408	24992
353	0.765133	90132480	59912192	26703448	24992
354	0.780784	90132480	59912192	28050520	24992
355	0.767552	90132480	59912192	29397560	24992
356	0.80716	90132480	59912192	14300152	24992
357	0.798895	90132480	59912192	15647192	24992
358	0.771586	90132480	59912192	16994232	24992
359	0.771882	90132480	59912192	18341272	24992
360	0.767413	90132480	59912192	19692776	24992
361	0.766744	90132480	59912192	21039816	24992
362	0.765609	90132480	59912192	22386856	24992
363	0.774749	90132480	59912192	23733896	24992
364	0.966299	90132480	59912192	25080936	24992
365	0.76916	90132480	59912192	26427976	24992
366	0.7769	90132480	59912192	27775016	24992
367	0.787971	90132480	59912192	29122136	24992
368	0.784075	90132480	59912192	14029168	24992
369	0.775432	90132480	59912192	15376208	24992
370	0.772784	90132480	59912192	16723248	24992
371	0.792303	90132480	59912192	18070288	24992
372	0.770558	90132480	59912192	19417328	24992
373	0.766816	90132480	59912192	20764368	24992
374	0.769118	90132480	59912192	22111488	24992
375	0.77445	90132480	59912192	23458528	24992
376	0.78274	90132480	59912192	24805568	24992
377	0.771996	90132480	59912192	26152608	24992
378	0.766034	90132480	59912192	27499648	24992
379	0.777646	90132480	59912192	28846688	24992
380	1.045325	90132480	59912192	13755552	24992
381	0.793757	90132480	59912192	15102592	24992
382	0.770412	90132480	59912192	16449632	24992
383	0.765267	90132480	59912192	17796672	24992
384	0.766795	90132480	59912192	19143712	24992
385	0.772324	90132480	59912192	20490752	24992
386	0.991783	90132480	59912192	21837792	24992
387	0.768892	90132480	59912192	23184832	24992
388	0.76447	90132480	59912192	24531872	24992
389	0.781633	90132480	59912192	25878912	24992
390	0.768958	90132480	59912192	27225952	24992
391	0.784535	90132480	59912192	28573008	24992
392	1.048122	90132480	59912192	13477416	24992
393	0.791058	90132480	59912192	14824496	24992
394	1.04113	90132480	59912192	16171536	24992
395	1.18196	90132480	59912192	17518576	24992
396	1.035652	90132480	59912192	18865616	24992
397	1.176553	90132480	59912192	20212656	24992
398	1.034714	90132480	59912192	21559712	24992
399	0.79553	90132480	59912192	22906752	24992
400	0.769514	90132480	59912192	24253792	24992
401	0.776584	90132480	59912192	25600832	24992
402	0.766935	90132480	59912192	26947872	24992
403	0.766863	90132480	59912192	28294912	24992
404	0.768657	90132480	59912192	29641952	24992
405	0.788863	90132480	59912192	14544928	24992
406	0.79878	90132480	59912192	15892016	24992
407	0.766104	90132480	59912192	17239056	24992
408	0.7834	90132480	59912192	18586096	24992
409	0.767263	90132480	59912192	19933136	24992
410	0.764103	90132480	59912192	21280176	24992
411	0.761352	90132480	59912192	22627280	24992
412	0.772611	90132480	59912192	23974320	24992
413	0.797696	90132480	59912192	25321360	24992
414	0.765126	90132480	59912192	26668400	24992
415	0.765815	90132480	59912192	28015440	24992
416	0.800471	90132480	59912192	29362480	24992
417	0.797834	90132480	59912192	14265096	24992
418	0.803822	90132480	59912192	15612136	24992
419	0.787055	90132480	59912192	16959176	24992
420	0.788155	90132480	59912192	18306216	24992
421	0.778043	90132480	59912192	19653256	24992
422	0.775056	90132480	59912192	21000296	24992
423	0.825872	90132480	59912192	22347336	24992
424	0.76664	90132480	59912192	23694440	24992
425	0.768531	90132480	59912192	25041480	24992
426	0.825609	90132480	59912192	26388520	24992
427	0.76765	90132480	59912192	27735560	24992
428	0.96394	90132480	59912192	29082600	24992
429	0.803836	90132480	59912192	13982792	24992
430	0.823402	90132480	59912192	15329832	24992
431	0.772902	90132480	59912192	16676968	24992
432	0.769014	90132480	59912192	18024008	24992
433	0.768105	90132480	59912192	19371048	24992
434	0.776442	90132480	59912192	20718088	24992
435	0.784911	90132480	59912192	22065128	24992
436	0.767782	90132480	59912192	23412168	24992
437	0.765813	90132480	59912192	24759208	24992
438	0.771942	90132480	59912192	26106248	24992
439	0.762869	90132480	59912192	27453288	24992
440	0.764681	90132480	59912192	28800328	24992
441	1.055405	90132480	59912192	13704736	24992
442	0.788521	90132480	59912192	15051776	24992
443	0.793037	90132480	59912192	16398816	24992
444	0.774322	90132480	59912192	17745856	24992
445	0.777183	90132480	59912192	19092896	24992
446	0.765605	90132480	59912192	20439936	24992
447	0.767002	90132480	59912192	21786976	24992
448	0.77301	90132480	59912192	23134016	24992
449	0.767807	90132480	59912192	24481056	24992
450	0.937159	90132480	59912192	25828096	24992
451	0.766406	90132480	59912192	27175136	24992
452	0.770397	90132480	59912192	28522176	24992
453	1.036039	90132480	59912192	13426400	24992
454	0.789591	90132480	59912192	14773448	24992
455	0.780894	90132480	59912192	16120504	24992
456	0.768958	90132480	59912192	17467544	24992
457	0.773281	90132480	59912192	18814584	24992
458	0.766983	90132480	59912192	20161624	24992
459	0.766346	90132480	59912192	21508664	24992
460	0.774731	90132480	59912192	22855704	24992
461	0.769701	90132480	59912192	24202744	24992
462	0.762168	90132480	59912192	25549816	24992
463	0.76978	90132480	59912192	26896856	24992
464	0.766476	90132480	59912192	28243896	24992
465	0.961852	90132480	59912192	29590936	24992
466	0.806087	90132480	59912192	14493512	24992
467	0.792188	90132480	59912192	15840552	24992
468	0.784528	90132480	59912192	17187640	24992
469	0.789986	90132480	59912192	18534680	24992
470	0.790059	90132480	59912192	19881720	24992
471	0.787307	90132480	59912192	21228760	24992
472	0.955013	90132480	59912192	22575800	24992
473	0.768944	90132480	59912192	23922856	24992
474	0.772666	90132480	59912192	25269896	24992
475	0.767171	90132480	59912192	26616936	24992
476	0.765742	90132480	59912192	27963976	24992
477	0.781167	90132480	59912192	29311016	24992
478	0.811606	90132480	59912192	14213600	24992
479	0.786388	90132480	59912192	15560640	24992
480	0.792792	90132480	59912192	16907680	24992
481	0.785335	90132480	59912192	18254752	24992
482	0.796826	90132480	59912192	19601792	24992
483	0.785988	90132480	59912192	20948832	24992
484	0.789316	90132480	59912192	22295872	24992
485	0.787149	90132480	59912192	23642912	24992
486	0.787587	90132480	59912192	24989968	24992
487	0.965981	90132480	59912192	26337008	24992
488	0.769343	90132480	59912192	27684048	24992
489	0.783582	90132480	59912192	29031088	24992
490	1.050549	90132480	59912192	13935496	24992
491	0.929303	90132480	59912192	15282560	24992
492	0.782158	90132480	59912192	16631224	24992
493	0.772356	90132480	59912192	17978264	24992
494	0.963661	90132480	59912192	19325304	24992
495	0.768296	90132480	59912192	20672344	24992
496	0.772394	90132480	59912192	22019384	24992
497	0.767609	90132480	59912192	23366424	24992
498	0.760387	90132480	59912192	24713464	24992
499	0.772134	90132480	59912192	26060520	24992
500	0.765393	90132480	59912192	27407560	24992
501	0.77233	90132480	59912192	28754600	24992
502	1.053463	90132480	59912192	13659008	24992
503	0.788964	90132480	59912192	15006056	24992
504	0.78726	90132480	59912192	16353096	24992
505	0.788016	90132480	59912192	17700136	24992
506	0.795575	90132480	59912192	19047224	24992
507	0.785652	90132480	59912192	20394264	24992
508	0.789093	90132480	59912192	21741304	24992
509	0.786649	90132480	59912192	23088344	24992
510	0.783359	90132480	59912192	24435384	24992
511	0.793342	90132480	59912192	25782424	24992
512	0.788817	90132480	59912192	27129464	24992
513	0.789837	90132480	59912192	28476504	24992
514	0.788703	90132480	59912192	29823544	24992
515	0.803755	90132480	59912192	14726120	24992
516	0.978093	90132480	59912192	16073160	24992
517	0.769209	90132480	59912192	17420200	24992
518	0.76527	90132480	59912192	18767240	24992
519	0.773816	90132480	59912192	20114280	24992
520	0.76265	90132480	59912192	21461320	24992
521	0.771922	90132480	59912192	22808360	24992
522	0.770612	90132480	59912192	24155400	24992
523	0.773112	90132480	59912192	25502440	24992
524	0.77066	90132480	59912192	26849480	24992
525	0.765825	90132480	59912192	28196520	24992
526	0.775529	90132480	59912192	29543560	24992
527	0.801255	90132480	59912192	14446144	24992
528	0.795886	90132480	59912192	15793184	24992
529	0.786781	90132480	59912192	17140224	24992
530	0.787176	90132480	59912192	18487360	24992
531	0.788254	90132480	59912192	19834400	24992
532	0.784669	90132480	59912192	21181440	24992
533	0.812464	90132480	59912192	22528480	24992
534	0.787139	90132480	59912192	23875520	24992
535	0.789526	90132480	59912192	25222560	24992
536	0.785814	90132480	59912192	26569600	24992
537	0.788489	90132480	59912192	27916688	24992
538	0.978942	90132480	59912192	29263728	24992
539	1.065901	90132480	59912192	14168136	24992
540	0.793456	90132480	59912192	15515184	24992
541	0.768809	90132480	59912192	16862224	24992
542	0.773764	90132480	59912192	18209264	24992
543	0.770318	90132480	59912192	19556336	24992
544	0.773415	90132480	59912192	20903376	24992
545	0.769457	90132480	59912192	22250416	24992
546	0.768223	90132480	59912192	23597456	24992
547	0.765363	90132480	59912192	24944496	24992
548	0.785065	90132480	59912192	26291536	24992
549	0.764041	90132480	59912192	27638576	24992
550	0.769371	90132480	59912192	28985616	24992
551	1.043814	90132480	59912192	13890024	24992
552	0.774373	90132480	59912192	15237072	24992
553	0.77122	90132480	59912192	16584112	24992
554	0.765855	90132480	59912192	17931152	24992
555	0.779616	90132480	59912192	19278192	24992
556	0.765801	90132480	59912192	20632096	24992
557	0.771018	90132480	59912192	21979136	24992
558	0.771642	90132480	59912192	23326176	24992
559	0.766492	90132480	59912192	24673216	24992
560	0.97795	90132480	59912192	26020256	24992
561	0.765843	90132480	59912192	27367376	24992
562	0.770044	90132480	59912192	28714416	24992
563	0.762437	90132480	59912192	30061456	24992
564	0.800935	90132480	59912192	14970832	24992
565	0.791767	90132480	59912192	16317872	24992
566	0.7959	90132480	59912192	17664912	24992
567	0.786533	90132480	59912192	19011952	24992
568	0.774519	90132480	59912192	20358992	24992
569	0.766029	90132480	59912192	21706160	24992
570	0.775037	90132480	59912192	23053200	24992
571	0.765743	90132480	59912192	24400240	24992
572	0.768632	90132480	59912192	25747280	24992
573	0.767501	90132480	59912192	27094320	24992
574	0.782185	90132480	59912192	28441360	24992
575	0.784658	90132480	59912192	29788400	24992
576	0.78366	90132480	59912192	14697784	24992
577	0.78007	90132480	59912192	16044824	24992
578	0.77265	90132480	59912192	17391864	24992
579	0.770905	90132480	59912192	18738904	24992
580	0.77781	90132480	59912192	20085944	24992
581	0.769989	90132480	59912192	21432984	24992
582	0.942298	90132480	59912192	22780024	24992
583	0.77293	90132480	59912192	24127064	24992
584	0.76851	90132480	59912192	25474104	24992
585	0.768662	90132480	59912192	26821144	24992
586	0.774546	90132480	59912192	28168184	24992
587	0.783326	90132480	59912192	29515304	24992
588	1.058812	90132480	59912192	14419712	24992
589	0.797241	90132480	59912192	15766760	24992
590	0.776572	90132480	59912192	17113800	24992
591	0.771324	90132480	59912192	18460840	24992
592	0.777648	90132480	59912192	19807880	24992
593	0.771848	90132480	59912192	21154920	24992
594	0.766242	90132480	59912192	22502024	24992
595	0.766643	90132480	59912192	23849064	24992
596	0.767596	90132480	59912192	25196104	24992
597	0.802924	90132480	59912192	26543144	24992
598	0.768201	90132480	59912192	27890184	24992
599	0.762192	90132480	59912192	29237224	24992
600	1.048057	90132480	59912192	14141632	24992
601	0.796451	90132480	59912192	15488680	24992
602	0.796086	90132480	59912192	16835720	24992
603	0.786002	90132480	59912192	18182760	24992
604	0.78786	90132480	59912192	19529800	24992
605	0.782528	90132480	59912192	20876840	24992
606	0.829199	90132480	59912192	22223880	24992
607	0.764926	90132480	59912192	23570968	24992
608	0.769867	90132480	59912192	24918008	24992
609	0.767412	90132480	59912192	26265048	24992
610	0.794974	90132480	59912192	27612088	24992
611	0.765502	90132480	59912192	28959128	24992
612	1.007962	90132480	59912192	30306168	24992
613	0.802869	90132480	59912192	15208744	24992
614	0.792806	90132480	59912192	16555784	24992
615	0.789477	90132480	59912192	17902824	24992
616	0.786767	90132480	59912192	19249864	24992
617	0.78748	90132480	59912192	20596904	24992
618	0.786215	90132480	59912192	21943944	24992
619	0.808658	90132480	59912192	23290984	24992
620	0.784717	90132480	59912192	24638024	24992
621	0.784426	90132480	59912192	25985064	24992
622	0.786927	90132480	59912192	27332104	24992
623	0.790681	90132480	59912192	28679144	24992
624	0.797274	90132480	59912192	30026184	24992
625	0.801027	90132480	59912192	14928768	24992
626	0.957016	90132480	59912192	16275824	24992
627	0.7712	90132480	59912192	17622864	24992
628	0.77105	90132480	59912192	18969904	24992
629	0.962276	90132480	59912192	20316944	24992
630	0.766343	90132480	59912192	21663984	24992
631	0.776305	90132480	59912192	23011040	24992
632	0.765349	90132480	59912192	24358080	24992
633	0.773656	90132480	59912192	25705120	24992
634	0.770782	90132480	59912192	27052160	24992
635	0.765888	90132480	59912192	28399200	24992
636	0.814025	90132480	59912192	29746240	24992
637	1.061876	90132480	59912192	14650656	24992
638	0.789262	90132480	59912192	15997696	24992
639	0.793429	90132480	59912192	17344736	24992
640	0.78937	90132480	59912192	18691776	24992
641	0.798258	90132480	59912192	20038816	24992
642	0.766885	90132480	59912192	21385856	24992
643	0.86766	90132480	59912192	22732896	24992
644	0.768649	90132480	59912192	24080000	24992
645	0.765405	90132480	59912192	25427040	24992
646	0.77579	90132480	59912192	26774080	24992
647	0.76769	90132480	59912192	28121120	24992
648	0.767443	90132480	59912192	29468160	24992
649	1.064653	90132480	59912192	14372568	24992
650	0.788457	90132480	59912192	15719616	24992
651	0.78633	90132480	59912192	17066704	24992
652	0.787801	90132480	59912192	18413744	24992
653	0.802258	90132480	59912192	19760784	24992
654	0.791256	90132480	59912192	21107824	24992
655	0.788036	90132480	59912192	22454864	24992
656	0.778604	90132480	59912192	23801904	24992
657	0.7672	90132480	59912192	25148944	24992
658	0.777871	90132480	59912192	26495984	24992
659	0.768155	90132480	59912192	27843024	24992
660	0.765512	90132480	59912192	29190064	24992
661	0.767254	90132480	59912192	30537104	24992
662	0.804339	90132480	59912192	15439696	24992
663	0.801756	90132480	59912192	16786736	24992
664	0.78671	90132480	59912192	18133776	24992
665	0.781982	90132480	59912192	19480816	24992
666	0.791625	90132480	59912192	20827856	24992
667	0.786679	90132480	59912192	22174896	24992
668	0.799333	90132480	59912192	23522152	24992
669	0.768587	90132480	59912192	24869200	24992
670	0.797704	90132480	59912192	26216240	24992
671	0.801918	90132480	59912192	27563280	24992
672	0.770825	90132480	59912192	28910320	24992
673	0.768525	90132480	59912192	30257360	24992
674	0.79955	90132480	59912192	15159944	24992
675	0.792649	90132480	59912192	16506984	24992
676	0.790406	90132480	59912192	17854024	24992
677	0.787307	90132480	59912192	19201064	24992
678	0.777098	90132480	59912192	20548104	24992
679	0.769091	90132480	59912192	21895144	24992
680	0.833659	90132480	59912192	23242184	24992
681	0.767546	90132480	59912192	24589224	24992
682	0.766874	90132480	59912192	25936344	24992
683	0.769469	90132480	59912192	27283384	24992
684	0.76372	90132480	59912192	28630424	24992
685	0.974176	90132480	59912192	29977464	24992
686	1.080363	90132480	59912192	14881880	24992
687	0.785515	90132480	59912192	16228920	24992
688	0.769653	90132480	59912192	17575992	24992
689	0.773798	90132480	59912192	18923032	24992
690	0.766298	90132480	59912192	20270072	24992
691	0.766249	90132480	59912192	21617112	24992
692	0.941556	90132480	59912192	22964152	24992
693	0.77162	90132480	59912192	24311192	24992
694	0.762732	90132480	59912192	25658232	24992
695	0.767593	90132480	59912192	27005272	24992
696	0.767794	90132480	59912192	28352312	24992
697	0.783304	90132480	59912192	29699352	24992
698	1.053748	90132480	59912192	14603760	24992
699	0.790673	90132480	59912192	15950808	24992
700	0.787338	90132480	59912192	17297848	24992
701	0.787984	90132480	59912192	18644920	24992
702	0.79967	90132480	59912192	19991960	24992
703	0.907566	90132480	59912192	21339664	24992
704	0.789302	90132480	59912192	22686704	24992
705	0.788759	90132480	59912192	24033744	24992
706	0.775434	90132480	59912192	25380976	24992
707	0.801479	90132480	59912192	26728016	24992
708	0.766025	90132480	59912192	28075056	24992
709	0.775944	90132480	59912192	29422096	24992
710	0.766763	90132480	59912192	30769136	24992
711	0.805987	90132480	59912192	15671728	24992
712	0.776054	90132480	59912192	17018768	24992
713	0.767013	90132480	59912192	18365808	24992
714	0.957713	90132480	59912192	19712848	24992
715	0.775332	90132480	59912192	21059888	24992
716	0.766591	90132480	59912192	22406928	24992
717	0.766362	90132480	59912192	23753968	24992
718	0.76487	90132480	59912192	25101008	24992
719	0.77755	90132480	59912192	26448080	24992
720	0.764841	90132480	59912192	27795120	24992
721	0.774795	90132480	59912192	29142160	24992
722	0.765703	90132480	59912192	30489200	24992
723	0.79619	90132480	59912192	15391784	24992
724	0.794595	90132480	59912192	16738824	24992
725	0.790322	90132480	59912192	18085864	24992
726	0.787154	90132480	59912192	19432952	24992
727	0.787751	90132480	59912192	20779992	24992
728	0.793045	90132480	59912192	22127032	24992
729	0.97106	90132480	59912192	23474072	24992
730	0.769356	90132480	59912192	24821112	24992
731	0.774003	90132480	59912192	26168152	24992
732	0.7657	90132480	59912192	27515272	24992
733	0.772874	90132480	59912192	28862312	24992
734	0.777408	90132480	59912192	30209352	24992
735	1.064661	90132480	59912192	15113768	24992
736	0.964748	90132480	59912192	16460808	24992
737	0.769846	90132480	59912192	17807848	24992
738	0.767619	90132480	59912192	19154888	24992
739	0.793025	90132480	59912192	20501928	24992
740	0.785519	90132480	59912192	21848968	24992
741	0.792971	90132480	59912192	23196008	24992
742	0.786731	90132480	59912192	24543048	24992
743	0.789179	90132480	59912192	25890088	24992
744	0.786919	90132480	59912192	27237128	24992
745	0.786132	90132480	59912192	28584168	24992
746	0.794541	90132480	59912192	29931208	24992
747	1.077663	90132480	59912192	14835616	24992
748	0.797269	90132480	59912192	16182664	24992
749	0.786173	90132480	59912192	17529704	24992
750	0.785264	90132480	59912192	18876744	24992
751	0.809003	90132480	59912192	20223784	24992
752	0.768388	90132480	59912192	21570824	24992
753	0.775809	90132480	59912192	22917864	24992
754	0.767988	90132480	59912192	24264904	24992
755	0.772451	90132480	59912192	25611944	24992
756	0.775765	90132480	59912192	26958984	24992
757	0.767527	90132480	59912192	28306104	24992
758	0.778295	90132480	59912192	29653144	24992
759	0.765548	90132480	59912192	31000184	24992
760	0.806022	90132480	59912192	15902776	24992
761	0.786793	90132480	59912192	17249816	24992
762	0.788371	90132480	59912192	18596856	24992
763	0.804655	90132480	59912192	19943912	24992
764	0.786567	90132480	59912192	21290952	24992
765	0.840202	90132480	59912192	22637992	24992
766	0.774054	90132480	59912192	23985032	24992
767	0.766865	90132480	59912192	25332072	24992
768	0.775296	90132480	59912192	26679112	24992
769	0.770221	90132480	59912192	28026152	24992
770	0.789068	90132480	59912192	29373192	24992
771	0.788871	90132480	59912192	30720232	24992
772	0.798667	90132480	59912192	15622816	24992
773	0.818499	90132480	59912192	16969856	24992
774	0.786026	90132480	59912192	18316968	24992
775	0.825373	90132480	59912192	19664008	24992
776	0.774623	90132480	59912192	21011128	24992
777	0.771397	90132480	59912192	22358168	24992
778	0.779	90132480	59912192	23714240	24992
779	0.774809	90132480	59912192	25061280	24992
780	0.820966	90132480	59912192	26410728	24992
781	0.932794	90132480	59912192	27757768	24992
782	0.777091	90132480	59912192	29104808	24992
783	0.769168	90132480	59912192	30451848	24992
784	1.081099	90132480	59912192	15370472	24992
785	0.782887	90132480	59912192	16717512	24992
786	0.770316	90132480	59912192	18064552	24992
787	0.786034	90132480	59912192	19411592	24992
788	0.767216	90132480	59912192	20758632	24992
789	0.763958	90132480	59912192	22106008	24992
790	0.76724	90132480	59912192	23453048	24992
791	0.765199	90132480	59912192	24800088	24992
792	0.772596	90132480	59912192	26147128	24992
793	0.79465	90132480	59912192	27494168	24992
794	0.768474	90132480	59912192	28841240	24992
795	0.76896	90132480	59912192	30188280	24992
796	1.09871	90132480	59912192	15131768	24992
797	0.792022	90132480	59912192	16478832	24992
798	0.786556	90132480	59912192	17825872	24992
799	0.801295	90132480	59912192	19172912	24992
800	0.786785	90132480	59912192	20519952	24992
801	0.785593	90132480	59912192	21866992	24992
802	0.774309	90132480	59912192	23214032	24992
803	0.773665	90132480	59912192	24561072	24992
804	0.776189	90132480	59912192	25908112	24992
805	0.768736	90132480	59912192	27255152	24992
806	0.768453	90132480	59912192	28602192	24992
807	0.773484	90132480	59912192	29949232	24992
808	0.763977	90132480	59912192	31296272	24992
809	0.817954	90132480	59912192	16249248	24992
810	0.79034	90132480	59912192	17596320	24992
811	0.784614	90132480	59912192	18943360	24992
812	0.787017	90132480	59912192	20290400	24992
813	0.782447	90132480	59912192	21637440	24992
814	0.790897	90132480	59912192	22984480	24992
815	0.787523	90132480	59912192	24331584	24992
816	0.791501	90132480	59912192	25678624	24992
817	0.773597	90132480	59912192	27025664	24992
818	0.765469	90132480	59912192	28372704	24992
819	0.767984	90132480	59912192	29719744	24992
820	0.772593	90132480	59912192	31066784	24992
821	0.80858	90132480	59912192	16019752	24992
822	0.795534	90132480	59912192	17366792	24992
823	0.795779	90132480	59912192	18713848	24992
824	0.77779	90132480	59912192	20060888	24992
825	0.767985	90132480	59912192	21407928	24992
826	0.774632	90132480	59912192	22754968	24992
827	0.77268	90132480	59912192	24102008	24992
828	0.765641	90132480	59912192	25449048	24992
829	0.76785	90132480	59912192	26796088	24992
830	0.76643	90132480	59912192	28143128	24992
831	0.786224	90132480	59912192	29490168	24992
832	0.768492	90132480	59912192	30837208	24992
833	0.804955	90132480	59912192	15789144	24992
834	0.787156	90132480	59912192	17136184	24992
835	0.785253	90132480	59912192	18483224	24992
836	0.797615	90132480	59912192	19830312	24992
837	0.782832	90132480	59912192	21177352	24992
838	1.014751	90132480	59912192	22524408	24992
839	0.779227	90132480	59912192	23873856	24992
840	0.764299	90132480	59912192	25220704	24992
841	0.76781	90132480	59912192	26567552	24992
842	0.762754	90132480	59912192	27914400	24992
843	1.003925	90132480	59912192	29261296	24992
844	0.76905	90132480	59912192	30608144	24992
845	1.346073	90132480	59912192	15563504	24992
846	0.778292	90132480	59912192	16910352	24992
847	0.764534	90132480	59912192	18257200	24992
848	0.766702	90132480	59912192	19604048	24992
849	0.76341	90132480	59912192	20950896	24992
850	0.784256	90132480	59912192	22308080	24992
851	0.765055	90132480	59912192	23654960	24992
852	0.764291	90132480	59912192	25001808	24992
853	0.788344	90132480	59912192	26348656	24992
854	0.818718	90132480	59912192	27695504	24992
855	0.773632	90132480	59912192	29042352	24992
856	0.763507	90132480	59912192	30389200	24992
857	1.366181	90132480	59912192	15354920	24992
858	0.776463	90132480	59912192	16701768	24992
859	0.773037	90132480	59912192	18048616	24992
860	0.780979	90132480	59912192	19395464	24992
861	0.768686	90132480	59912192	20742312	24992
862	0.767912	90132480	59912192	22089160	24992
863	0.773486	90132480	59912192	23436192	24992
864	0.769218	90132480	59912192	24783048	24992
865	0.774099	90132480	59912192	26129896	24992
866	0.766366	90132480	59912192	27476744	24992
867	0.775199	90132480	59912192	28823592	24992
868	0.770557	90132480	59912192	30170440	24992
869	0.763215	90132480	59912192	31517288	24992
870	0.787824	90132480	59912192	16480400	24992
871	0.765155	90132480	59912192	17827248	24992
872	0.772932	90132480	59912192	19174160	24992
873	0.766076	90132480	59912192	20521008	24992
874	0.770136	90132480	59912192	21867856	24992
875	0.786862	90132480	59912192	23214704	24992
876	0.764103	90132480	59912192	24561552	24992
877	0.771595	90132480	59912192	25908400	24992
878	0.766064	90132480	59912192	27255248	24992
879	0.763716	90132480	59912192	28602096	24992
880	0.766323	90132480	59912192	29948944	24992
881	0.766251	90132480	59912192	31295792	24992
882	0.810839	90132480	59912192	16248568	24992
883	0.785318	90132480	59912192	17595416	24992
884	0.785511	90132480	59912192	18942264	24992
885	0.785208	90132480	59912192	20289112	24992
886	0.781756	90132480	59912192	21635960	24992
887	0.773887	90132480	59912192	22982808	24992
888	0.776031	90132480	59912192	24329656	24992
889	0.766249	90132480	59912192	25676504	24992
890	0.774129	90132480	59912192	27023352	24992
891	0.765765	90132480	59912192	28370200	24992
892	0.778975	90132480	59912192	29717048	24992
893	0.765176	90132480	59912192	31063896	24992
894	1.247249	90132480	59912192	16019256	24992
895	0.787571	90132480	59912192	17366104	24992
896	0.79095	90132480	59912192	18712952	24992
897	0.773608	90132480	59912192	20059800	24992
898	0.763931	90132480	59912192	21406648	24992
899	0.770998	90132480	59912192	22753496	24992
900	0.772063	90132480	59912192	24100344	24992
901	0.763552	90132480	59912192	25447192	24992
902	0.767199	90132480	59912192	26794040	24992
903	0.762494	90132480	59912192	28140888	24992
904	0.791167	90132480	59912192	29487800	24992
905	0.766781	90132480	59912192	30834648	24992
906	1.257228	90132480	59912192	15790008	24992
907	0.785627	90132480	59912192	17136864	24992
908	0.786089	90132480	59912192	18483712	24992
909	0.787846	90132480	59912192	19830560	24992
910	0.788154	90132480	59912192	21177408	24992
911	0.79583	90132480	59912192	22524256	24992
912	0.773215	90132480	59912192	23871104	24992
913	0.770885	90132480	59912192	25217952	24992
914	0.773922	90132480	59912192	26564800	24992
915	0.798358	90132480	59912192	27911648	24992
916	0.776802	90132480	59912192	29258496	24992
917	0.771371	90132480	59912192	30605376	24992
918	0.767703	90132480	59912192	31952224	24992
919	0.798491	90132480	59912192	16905008	24992
920	1.583929	90132480	59912192	18251872	24992
921	0.769582	90132480	59912192	19598720	24992
922	0.763596	90132480	59912192	20945568	24992
923	0.816912	90132480	59912192	22292416	24992
924	0.833538	90132480	59912192	23652872	24992
925	0.770475	90132480	59912192	24999880	24992
926	0.769793	90132480	59912192	26346728	24992
927	0.764108	90132480	59912192	27693576	24992
928	0.770473	90132480	59912192	29040424	24992
929	0.762159	90132480	59912192	30387272	24992
930	0.765518	90132480	59912192	31734184	24992
931	0.796444	90132480	59912192	16686960	24992
932	0.788144	90132480	59912192	18033808	24992
933	0.961883	90132480	59912192	19380656	24992
934	0.765863	90132480	59912192	20727504	24992
935	0.76882	90132480	59912192	22074352	24992
936	0.765172	90132480	59912192	23421200	24992
937	0.764315	90132480	59912192	24768048	24992
938	0.767197	90132480	59912192	26114896	24992
939	0.761829	90132480	59912192	27461744	24992
940	0.981211	90132480	59912192	28808592	24992
941	0.766757	90132480	59912192	30155440	24992
942	0.764292	90132480	59912192	31502288	24992
943	0.801821	90132480	59912192	16453632	24992
944	0.784981	90132480	59912192	17800480	24992
945	0.790095	90132480	59912192	19147328	24992
946	0.784351	90132480	59912192	20494176	24992
947	0.837577	90132480	59912192	21841024	24992
948	0.76711	90132480	59912192	23187872	24992
949	0.772139	90132480	59912192	24534720	24992
950	0.762992	90132480	59912192	25881568	24992
951	0.763713	90132480	59912192	27228416	24992
952	0.771666	90132480	59912192	28575264	24992
953	0.772521	90132480	59912192	29922112	24992
954	0.760851	90132480	59912192	31268960	24992
955	1.357652	90132480	59912192	16224288	24992
956	0.78731	90132480	59912192	17571144	24992
957	0.790307	90132480	59912192	18917992	24992
958	0.780675	90132480	59912192	20264840	24992
959	0.790283	90132480	59912192	21611704	24992
960	0.787524	90132480	59912192	22958552	24992
961	0.782658	90132480	59912192	24305400	24992
962	0.799502	90132480	59912192	25652248	24992
963	0.763838	90132480	59912192	26999096	24992
964	0.777767	90132480	59912192	28345944	24992
965	0.765829	90132480	59912192	29692792	24992
966	0.806238	90132480	59912192	31039640	24992
967	1.361081	90132480	59912192	15994832	24992
968	0.829587	90132480	59912192	17341688	24992
969	0.792183	90132480	59912192	18688536	24992
970	0.765264	90132480	59912192	20035384	24992
971	0.821254	90132480	59912192	21382232	24992
972	0.768181	90132480	59912192	22729080	24992
973	0.760577	90132480	59912192	24075928	24992
974	0.764324	90132480	59912192	25422776	24992
975	0.809176	90132480	59912192	26769624	24992
976	1.255338	90132480	59912192	28116472	24992
977	0.767083	90132480	59912192	29463320	24992
978	0.799155	90132480	59912192	30810168	24992
979	0.759322	90132480	59912192	32157016	24992
980	0.799232	90132480	59912192	17109800	24992
981	0.782635	90132480	59912192	18456648	24992
982	0.780959	90132480	59912192	19803496	24992
983	0.993366	90132480	59912192	21150344	24992
984	0.812673	90132480	59912192	22497192	24992
985	0.822287	90132480	59912192	23844072	24992
986	0.805297	90132480	59912192	25190920	24992
987	0.805097	90132480	59912192	26537768	24992
988	0.763411	90132480	59912192	27884616	24992
989	0.773738	90132480	59912192	29231464	24992
990	0.991647	90132480	59912192	30578312	24992
991	0.767054	90132480	59912192	31925160	24992
992	0.843484	90132480	59912192	16877936	24992
993	0.772176	90132480	59912192	18224880	24992
994	0.765458	90132480	59912192	19571728	24992
995	0.770521	90132480	59912192	20918576	24992
996	0.760246	90132480	59912192	22265424	24992
997	0.787745	90132480	59912192	23612272	24992
998	0.765063	90132480	59912192	24959168	24992
999	0.759822	90132480	59912192	26306016	24992
1000	0.789247	90132480	59912192	27652864	24992
