x	Duration	RSS	HeapTotal	HeapUsed	External
0	NA	92721152	62533632	11528504	24992
1	2.643296	92721152	62533632	12208568	24992
2	4.664667	92721152	62533632	13546944	24992
3	0.825788	92721152	62533632	15550600	24992
4	0.863722	92721152	62533632	16898064	24992
5	0.83972	92721152	62533632	18245528	24992
6	0.817188	92721152	62533632	19592992	24992
7	0.856117	92721152	62533632	20940456	24992
8	0.816481	92721152	62533632	22287920	24992
9	0.812608	92721152	62533632	23635384	24992
10	0.830459	92721152	62533632	24982848	24992
11	0.811506	92721152	62533632	26330312	24992
12	0.833019	92721152	62533632	27677808	24992
13	0.850076	92721152	62533632	12562280	24992
14	0.84193	92721152	62533632	13909744	24992
15	0.818246	92721152	62533632	15257208	24992
16	0.825959	92721152	62533632	16604672	24992
17	0.819255	92721152	62533632	17952136	24992
18	0.816706	92721152	62533632	19299656	24992
19	0.825709	92721152	62533632	20647480	24992
20	0.813918	92721152	62533632	21994944	24992
21	0.822145	92721152	62533632	23342408	24992
22	0.810162	92721152	62533632	24689872	24992
23	0.810639	92721152	62533632	26037336	24992
24	0.815348	92721152	62533632	27384800	24992
25	1.07493	92721152	62533632	12292272	24992
26	0.82862	92721152	62533632	13639736	24992
27	0.818984	92721152	62533632	14987200	24992
28	0.811198	92721152	62533632	16334664	24992
29	0.810439	92721152	62533632	17682128	24992
30	0.812539	92721152	62533632	19029592	24992
31	1.016699	92721152	62533632	20377056	24992
32	0.813785	92721152	62533632	21724552	24992
33	0.828096	92721152	62533632	23072016	24992
34	0.810951	92721152	62533632	24419480	24992
35	0.808998	92721152	62533632	25766944	24992
36	0.812885	92721152	62533632	27114408	24992
37	1.050076	92721152	62533632	12020576	24992
38	1.020508	92721152	62533632	13368064	24992
39	0.856498	92721152	62533632	14715528	24992
40	0.86559	92721152	62533632	16062992	24992
41	0.855227	92721152	62533632	17410456	24992
42	0.854552	92721152	62533632	18757920	24992
43	0.856276	92721152	62533632	20105384	24992
44	0.852504	92721152	62533632	21452848	24992
45	0.859345	92721152	62533632	22801032	24992
46	0.85114	92721152	62533632	24148496	24992
47	0.866799	92721152	62533632	25495960	24992
48	0.857018	92721152	62533632	26843424	24992
49	1.053665	92721152	62533632	11748208	24992
50	0.815953	92721152	62533632	13095664	24992
51	0.810304	92721152	62533632	14443304	24992
52	0.834693	92721152	62533632	15790768	24992
53	0.819676	92721152	62533632	17138232	24992
54	0.827674	92721152	62533632	18485696	24992
55	0.812968	92721152	62533632	19833160	24992
56	0.810693	92721152	62533632	21180624	24992
57	0.813612	92721152	62533632	22528088	24992
58	0.813422	92721152	62533632	23875632	24992
59	1.007491	92721152	62533632	25223096	24992
60	0.820414	92721152	62533632	26570560	24992
61	0.826619	92721152	62533632	27918024	24992
62	0.989099	92721152	62533632	12822736	24992
63	0.813952	92721152	62533632	14170200	24992
64	0.813169	92721152	62533632	15517728	24992
65	0.80893	92721152	62533632	16865192	24992
66	0.832189	92721152	62533632	18212656	24992
67	0.808126	92721152	62533632	19560120	24992
68	0.830007	92721152	62533632	20907584	24992
69	0.811998	92721152	62533632	22255048	24992
70	0.810807	92721152	62533632	23602512	24992
71	0.813784	92721152	62533632	24949976	24992
72	0.808186	92721152	62533632	26297440	24992
73	0.991582	92721152	62533632	27644904	24992
74	0.826584	92721152	62533632	12548944	24992
75	0.817868	92721152	62533632	13896408	24992
76	0.817445	92721152	62533632	15243872	24992
77	0.813028	92721152	62533632	16591528	24992
78	0.81111	92721152	62533632	17938992	24992
79	0.812633	92721152	62533632	19286456	24992
80	0.987781	92721152	62533632	20634112	24992
81	0.821514	92721152	62533632	21982744	24992
82	0.812557	92721152	62533632	23330120	24992
83	0.813413	92721152	62533632	24677496	24992
84	0.813952	92721152	62533632	26026008	24992
85	0.825237	92721152	62533632	27373384	24992
86	1.063324	92721152	62533632	12279960	24992
87	0.855103	92721152	62533632	13627336	24992
88	0.816971	92721152	62533632	14974712	24992
89	0.816147	92721152	62533632	16322088	24992
90	0.815776	92721152	62533632	17669528	24992
91	0.816585	92721152	62533632	19016904	24992
92	0.830841	92721152	62533632	20364280	24992
93	0.829527	92721152	62533632	21711736	24992
94	1.015	92721152	62533632	23059112	24992
95	0.814438	92721152	62533632	24406536	24992
96	0.830992	92721152	62533632	25753912	24992
97	0.819713	92721152	62533632	27115232	24992
98	1.054616	92721152	62533632	12021504	24992
99	0.822517	92721152	62533632	13368888	24992
100	0.815427	92721152	62533632	14716264	24992
101	1.006946	92721152	62533632	16063640	24992
102	0.809956	92721152	62533632	17411016	24992
103	0.826526	92721152	62533632	18758392	24992
104	0.813002	92721152	62533632	20105768	24992
105	0.812712	92721152	62533632	21453144	24992
106	0.810477	92721152	62533632	22800520	24992
107	0.850527	92721152	62533632	24148840	24992
108	0.834972	92721152	62533632	25496232	24992
109	0.809659	92721152	62533632	26843608	24992
110	0.806082	92721152	62533632	28190984	24992
111	0.825601	92721152	62533632	13094264	24992
112	0.811207	92721152	62533632	14441640	24992
113	0.811794	92721152	62533632	15789016	24992
114	0.808194	92721152	62533632	17136392	24992
115	0.989233	92721152	62533632	18483768	24992
116	0.810481	92721152	62533632	19831144	24992
117	0.80921	92721152	62533632	21178520	24992
118	0.810145	92721152	62533632	22525896	24992
119	0.807994	92721152	62533632	23873272	24992
120	0.816814	92721152	62533632	25220648	24992
121	0.806995	92721152	62533632	26568152	24992
122	0.806034	92721152	62533632	27915528	24992
123	0.826082	92721152	62533632	12818816	24992
124	0.80913	92721152	62533632	14166192	24992
125	0.806867	92721152	62533632	15513568	24992
126	0.805212	92721152	62533632	16860944	24992
127	0.820776	92721152	62533632	18208320	24992
128	0.80559	92721152	62533632	19555728	24992
129	0.809261	92721152	62533632	20903104	24992
130	0.810147	92721152	62533632	22250480	24992
131	0.807808	92721152	62533632	23597856	24992
132	0.817931	92721152	62533632	24945232	24992
133	0.806878	92721152	62533632	26292608	24992
134	0.808962	92721152	62533632	27640016	24992
135	1.054605	92721152	62533632	12544760	24992
136	1.009945	92721152	62533632	13892144	24992
137	0.812009	92721152	62533632	15239520	24992
138	0.811023	92721152	62533632	16586896	24992
139	0.819745	92721152	62533632	17934272	24992
140	0.805262	92721152	62533632	19281648	24992
141	0.807179	92721152	62533632	20629056	24992
142	0.808628	92721152	62533632	21978272	24992
143	0.807311	92721152	62533632	23325648	24992
144	1.120988	92721152	62533632	24673024	24992
145	0.808131	92721152	62533632	26020400	24992
146	0.817071	92721152	62533632	27367776	24992
147	1.052783	92721152	62533632	12274352	24992
148	0.821609	92721152	62533632	13621728	24992
149	0.81957	92721152	62533632	14969104	24992
150	0.814664	92721152	62533632	16316480	24992
151	0.834475	92721152	62533632	17663856	24992
152	0.809397	92721152	62533632	19011232	24992
153	0.818924	92721152	62533632	20358608	24992
154	0.840315	92721152	62533632	21706048	24992
155	1.118214	92721152	62533632	23053440	24992
156	0.815676	92721152	62533632	24400816	24992
157	0.813481	92721152	62533632	25752128	24992
158	0.840073	92721152	62533632	27099168	24992
159	0.808645	92721152	62533632	28446208	24992
160	0.845068	92721152	62533632	13350664	24992
161	0.811567	92721152	62533632	14697704	24992
162	0.80713	92721152	62533632	16044744	24992
163	0.809186	92721152	62533632	17391784	24992
164	0.853193	92721152	62533632	18738824	24992
165	1.008527	92721152	62533632	20085864	24992
166	0.805065	92721152	62533632	21432904	24992
167	0.817343	92721152	62533632	22779944	24992
168	0.805949	92721152	62533632	24126984	24992
169	0.807643	92721152	62533632	25474024	24992
170	0.805257	92721152	62533632	26821064	24992
171	0.806359	92721152	62533632	28168104	24992
172	0.854785	92721152	62533632	13070736	24992
173	0.81185	92721152	62533632	14417824	24992
174	0.846026	92721152	62533632	15764864	24992
175	0.829975	92721152	62533632	17114600	24992
176	0.806759	92721152	62533632	18461640	24992
177	0.8088	92721152	62533632	19808680	24992
178	0.806706	92721152	62533632	21155800	24992
179	1.001707	92721152	62533632	22502840	24992
180	0.811685	92721152	62533632	23849880	24992
181	0.80612	92721152	62533632	25196920	24992
182	0.805367	92721152	62533632	26543960	24992
183	0.803638	92721152	62533632	27891000	24992
184	1.06478	92721152	62533632	12795416	24992
185	0.807965	92721152	62533632	14142456	24992
186	0.984685	92721152	62533632	15489496	24992
187	0.803995	92721152	62533632	16836536	24992
188	0.804874	92721152	62533632	18183576	24992
189	0.803885	92721152	62533632	19530616	24992
190	0.804244	92721152	62533632	20877656	24992
191	0.817989	92721152	62533632	22224744	24992
192	0.804717	92721152	62533632	23571784	24992
193	0.810096	92721152	62533632	24918824	24992
194	0.814636	92721152	62533632	26266688	24992
195	0.8024	92721152	62533632	27613728	24992
196	1.057242	92721152	62533632	12518136	24992
197	0.80923	92721152	62533632	13865184	24992
198	0.820444	92721152	62533632	15212272	24992
199	0.804431	92721152	62533632	16559312	24992
200	0.809383	92721152	62533632	17906352	24992
201	0.807704	92721152	62533632	19253392	24992
202	0.804118	92721152	62533632	20600432	24992
203	0.815496	92721152	62533632	21947472	24992
204	0.803492	92721152	62533632	23294512	24992
205	0.805133	92721152	62533632	24641552	24992
206	0.805124	92721152	62533632	25988592	24992
207	0.802924	92721152	62533632	27335632	24992
208	1.008802	92721152	62533632	28682672	24992
209	0.819338	92721152	62533632	13585264	24992
210	1.029073	92721152	62533632	14932304	24992
211	0.804166	92721152	62533632	16279344	24992
212	0.805153	92721152	62533632	17626384	24992
213	0.805672	92721152	62533632	18973424	24992
214	0.802867	92721152	62533632	20320464	24992
215	0.808471	92721152	62533632	21667608	24992
216	0.803842	92721152	62533632	23014656	24992
217	0.812883	92721152	62533632	24361696	24992
218	0.803108	92721152	62533632	25708736	24992
219	0.802818	92721152	62533632	27055776	24992
220	0.803655	92721152	62533632	28402816	24992
221	0.820155	92721152	62533632	13305400	24992
222	1.00897	92721152	62533632	14652440	24992
223	0.811027	92721152	62533632	15999480	24992
224	0.802632	92721152	62533632	17346520	24992
225	0.80303	92721152	62533632	18693560	24992
226	0.805708	92721152	62533632	20040600	24992
227	0.810123	92721152	62533632	21387640	24992
228	0.801784	92721152	62533632	22734680	24992
229	0.976485	92721152	62533632	24084616	24992
230	0.804434	92721152	62533632	25431656	24992
231	0.804275	92721152	62533632	26778696	24992
232	0.806425	92721152	62533632	28125736	24992
233	1.068012	92721152	62533632	13033032	24992
234	0.82346	92721152	62533632	14380072	24992
235	0.80628	92721152	62533632	15727128	24992
236	0.804713	92721152	62533632	17074168	24992
237	0.802071	92721152	62533632	18421208	24992
238	0.803657	92721152	62533632	19768248	24992
239	0.814427	92721152	62533632	21115288	24992
240	0.803212	92721152	62533632	22462328	24992
241	0.808974	92721152	62533632	23809368	24992
242	0.805102	92721152	62533632	25156408	24992
243	0.803361	92721152	62533632	26503448	24992
244	0.836841	92721152	62533632	27850488	24992
245	1.071723	92721152	62533632	12757776	24992
246	0.83051	92721152	62533632	14104824	24992
247	0.808418	92721152	62533632	15451864	24992
248	0.802384	92721152	62533632	16799064	24992
249	0.808369	92721152	62533632	18146104	24992
250	0.803785	92721152	62533632	19493144	24992
251	1.001248	92721152	62533632	20840184	24992
252	0.802928	92721152	62533632	22187224	24992
253	0.818032	92721152	62533632	23534344	24992
254	0.803518	92721152	62533632	24881384	24992
255	0.802386	92721152	62533632	26228424	24992
256	0.806805	92721152	62533632	27575464	24992
257	0.803422	92721152	62533632	28922504	24992
258	0.847914	92721152	62533632	13825096	24992
259	0.80578	92721152	62533632	15172136	24992
260	0.801692	92721152	62533632	16519176	24992
261	0.804845	92721152	62533632	17866248	24992
262	0.801833	92721152	62533632	19213288	24992
263	0.815822	92721152	62533632	20560328	24992
264	0.803432	92721152	62533632	21907368	24992
265	0.805159	92721152	62533632	23254408	24992
266	0.809046	92721152	62533632	24601496	24992
267	0.809217	92721152	62533632	25948536	24992
268	0.806604	92721152	62533632	27295576	24992
269	0.83427	92721152	62533632	28643200	24992
270	0.843223	92721152	62533632	13546152	24992
271	0.808768	92721152	62533632	14893192	24992
272	0.805097	92721152	62533632	16240256	24992
273	0.810668	92721152	62533632	17587304	24992
274	0.805087	92721152	62533632	18934344	24992
275	0.803126	92721152	62533632	20281384	24992
276	0.807919	92721152	62533632	21628424	24992
277	0.838502	92721152	62533632	22975464	24992
278	0.80245	92721152	62533632	24322504	24992
279	0.801768	92721152	62533632	25669560	24992
280	0.819515	92721152	62533632	27016600	24992
281	0.813448	92721152	62533632	28365600	24992
282	1.081467	92721152	62533632	13270384	24992
283	0.80835	92721152	62533632	14617424	24992
284	0.815761	92721152	62533632	15964464	24992
285	1.001827	92721152	62533632	17311504	24992
286	0.801741	92721152	62533632	18658640	24992
287	0.80729	92721152	62533632	20005680	24992
288	0.804035	92721152	62533632	21352720	24992
289	0.827506	92721152	62533632	22699760	24992
290	0.808693	92721152	62533632	24046800	24992
291	0.803118	92721152	62533632	25393840	24992
292	0.804503	92721152	62533632	26740880	24992
293	0.806418	92721152	62533632	28087920	24992
294	1.273913	92721152	62533632	12992328	24992
295	0.810193	92721152	62533632	14339376	24992
296	0.825541	92721152	62533632	15686416	24992
297	0.808043	92721152	62533632	17033456	24992
298	0.82626	92721152	62533632	18380496	24992
299	0.802426	92721152	62533632	19727536	24992
300	0.800883	92721152	62533632	21074576	24992
301	0.827653	92721152	62533632	22421616	24992
302	0.803355	92721152	62533632	23768656	24992
303	0.801121	92721152	62533632	25115696	24992
304	0.809058	92721152	62533632	26462752	24992
305	0.800487	92721152	62533632	27809792	24992
306	0.818609	92721152	62533632	29156832	24992
307	0.817428	92721152	62533632	14059424	24992
308	1.128554	92721152	62533632	15406464	24992
309	0.809256	92721152	62533632	16755608	24992
310	0.809173	92721152	62533632	18102648	24992
311	0.802193	92721152	62533632	19449688	24992
312	0.801045	92721152	62533632	20796728	24992
313	0.811262	92721152	62533632	22143768	24992
314	0.808403	92721152	62533632	23490808	24992
315	0.800307	92721152	62533632	24837848	24992
316	0.803594	92721152	62533632	26184888	24992
317	0.800849	92721152	62533632	27531944	24992
318	0.802811	92721152	62533632	28878984	24992
319	0.821028	92721152	62533632	13781568	24992
320	0.816801	92721152	62533632	15128608	24992
321	0.801947	92721152	62533632	16475648	24992
322	0.798331	92721152	62533632	17822688	24992
323	0.809157	92721152	62533632	19169728	24992
324	0.802755	92721152	62533632	20516768	24992
325	0.814626	92721152	62533632	21863808	24992
326	0.800446	92721152	62533632	23210848	24992
327	0.806106	92721152	62533632	24557888	24992
328	0.802434	92721152	62533632	25904928	24992
329	0.798029	92721152	62533632	27251968	24992
330	0.999712	92721152	62533632	28599008	24992
331	1.076839	92721152	62533632	13503424	24992
332	0.819357	92721152	62533632	14850464	24992
333	0.827038	92721152	62533632	16197504	24992
334	0.804085	92721152	62533632	17544544	24992
335	0.845775	92721152	62533632	18891584	24992
336	0.822053	92721152	62533632	20238624	24992
337	1.004205	92721152	62533632	21585664	24992
338	0.803515	92721152	62533632	22932704	24992
339	0.814287	92721152	62533632	24279744	24992
340	0.805851	92721152	62533632	25626784	24992
341	0.807884	92721152	62533632	26973824	24992
342	0.799699	92721152	62533632	28320864	24992
343	1.073069	92721152	62533632	13225272	24992
344	0.825442	92721152	62533632	14572320	24992
345	0.803479	92721152	62533632	15919360	24992
346	0.800928	92721152	62533632	17266400	24992
347	0.802921	92721152	62533632	18613440	24992
348	0.802917	92721152	62533632	19960480	24992
349	0.814632	92721152	62533632	21307520	24992
350	0.799811	92721152	62533632	22654560	24992
351	0.798594	92721152	62533632	24001600	24992
352	0.807521	92721152	62533632	25348640	24992
353	0.807965	92721152	62533632	26695680	24992
354	0.805055	92721152	62533632	28042752	24992
355	0.80553	92721152	62533632	29389792	24992
356	0.829047	92721152	62533632	14292384	24992
357	0.803488	92721152	62533632	15639424	24992
358	0.853361	92721152	62533632	16986464	24992
359	0.809931	92721152	62533632	18333504	24992
360	0.803716	92721152	62533632	19684992	24992
361	0.805352	92721152	62533632	21032048	24992
362	0.802738	92721152	62533632	22379088	24992
363	0.814993	92721152	62533632	23726128	24992
364	0.801991	92721152	62533632	25073168	24992
365	0.801452	92721152	62533632	26420208	24992
366	0.820624	92721152	62533632	27767248	24992
367	0.798954	92721152	62533632	29114288	24992
368	0.850385	92721152	62533632	14021320	24992
369	0.802106	92721152	62533632	15368360	24992
370	0.803018	92721152	62533632	16715400	24992
371	0.802797	92721152	62533632	18062440	24992
372	0.803737	92721152	62533632	19409480	24992
373	1.588846	92721152	62533632	20756520	24992
374	1.629821	92721152	62533632	22103576	24992
375	1.010474	92721152	62533632	23450616	24992
376	1.017521	92721152	62533632	24797656	24992
377	1.007168	92721152	62533632	26144696	24992
378	1.171634	92721152	62533632	27491736	24992
379	0.806139	92721152	62533632	28838776	24992
380	1.099254	92721152	62533632	13747640	24992
381	0.819694	92721152	62533632	15094680	24992
382	0.818065	92721152	62533632	16441720	24992
383	0.820401	92721152	62533632	17788760	24992
384	0.814348	92721152	62533632	19135800	24992
385	0.998723	92721152	62533632	20482840	24992
386	0.80541	92721152	62533632	21829880	24992
387	0.813545	92721152	62533632	23176920	24992
388	0.802351	92721152	62533632	24523960	24992
389	0.801129	92721152	62533632	25871000	24992
390	0.803778	92721152	62533632	27218040	24992
391	0.849141	92721152	62533632	28565080	24992
392	1.273043	92721152	62533632	13469552	24992
393	0.805835	92721152	62533632	14816600	24992
394	0.799032	92721152	62533632	16163640	24992
395	0.807179	92721152	62533632	17510680	24992
396	0.802309	92721152	62533632	18857720	24992
397	0.802775	92721152	62533632	20204760	24992
398	0.801904	92721152	62533632	21551800	24992
399	0.816658	92721152	62533632	22898840	24992
400	0.798487	92721152	62533632	24245880	24992
401	0.795872	92721152	62533632	25592920	24992
402	0.814667	92721152	62533632	26939960	24992
403	0.800072	92721152	62533632	28287000	24992
404	0.813136	92721152	62533632	29634040	24992
405	0.814605	92721152	62533632	14534616	24992
406	0.802015	92721152	62533632	15881656	24992
407	0.802576	92721152	62533632	17228696	24992
408	0.800278	92721152	62533632	18575736	24992
409	0.813755	92721152	62533632	19922776	24992
410	0.797367	92721152	62533632	21269816	24992
411	0.844198	92721152	62533632	22616904	24992
412	0.805134	92721152	62533632	23963944	24992
413	0.799927	92721152	62533632	25310984	24992
414	0.98574	92721152	62533632	26658024	24992
415	0.80031	92721152	62533632	28005064	24992
416	0.807715	92721152	62533632	29352200	24992
417	0.814266	92721152	62533632	14254784	24992
418	0.801309	92721152	62533632	15601920	24992
419	0.800283	92721152	62533632	16948960	24992
420	0.805387	92721152	62533632	18296000	24992
421	0.992921	92721152	62533632	19643040	24992
422	0.805679	92721152	62533632	20990080	24992
423	0.802171	92721152	62533632	22337120	24992
424	0.803582	92721152	62533632	23684240	24992
425	0.803712	92721152	62533632	25031280	24992
426	0.798945	92721152	62533632	26378320	24992
427	0.8031	92721152	62533632	27725360	24992
428	0.815778	92721152	62533632	29072400	24992
429	1.085857	92721152	62533632	13972720	24992
430	0.801625	92721152	62533632	15319760	24992
431	0.805587	92721152	62533632	16666864	24992
432	0.801499	92721152	62533632	18013904	24992
433	0.814291	92721152	62533632	19360944	24992
434	0.803362	92721152	62533632	20707984	24992
435	0.804309	92721152	62533632	22055056	24992
436	0.804512	92721152	62533632	23402096	24992
437	0.79847	92721152	62533632	24749136	24992
438	0.820722	92721152	62533632	26096176	24992
439	0.823877	92721152	62533632	27443216	24992
440	0.82424	92721152	62533632	28790256	24992
441	1.106007	92721152	62533632	13694664	24992
442	0.825377	92721152	62533632	15041720	24992
443	0.809512	92721152	62533632	16388760	24992
444	0.802711	92721152	62533632	17735800	24992
445	0.801044	92721152	62533632	19082840	24992
446	0.803511	92721152	62533632	20429880	24992
447	0.807886	92721152	62533632	21776920	24992
448	0.800279	92721152	62533632	23123960	24992
449	0.799614	92721152	62533632	24471016	24992
450	0.82809	92721152	62533632	25818056	24992
451	0.852104	92721152	62533632	27165096	24992
452	0.809075	92721152	62533632	28512136	24992
453	1.072712	92721152	62533632	13415880	24992
454	0.807272	92721152	62533632	14762928	24992
455	0.808824	92721152	62533632	16109968	24992
456	0.800405	92721152	62533632	17457008	24992
457	0.990547	92721152	62533632	18804048	24992
458	0.80162	92721152	62533632	20151088	24992
459	0.812061	92721152	62533632	21498128	24992
460	0.801612	92721152	62533632	22845168	24992
461	0.79809	92721152	62533632	24192208	24992
462	0.798689	92721152	62533632	25539248	24992
463	0.800693	92721152	62533632	26886288	24992
464	0.969403	92721152	62533632	28233328	24992
465	0.804649	92721152	62533632	29580368	24992
466	0.818452	92721152	62533632	14482944	24992
467	0.804022	92721152	62533632	15829984	24992
468	0.803381	92721152	62533632	17177024	24992
469	0.810991	92721152	62533632	18524064	24992
470	0.806097	92721152	62533632	19871104	24992
471	0.802434	92721152	62533632	21218144	24992
472	0.804036	92721152	62533632	22565184	24992
473	0.801181	92721152	62533632	23912224	24992
474	0.806915	92721152	62533632	25259264	24992
475	0.803363	92721152	62533632	26606304	24992
476	0.835365	92721152	62533632	27953344	24992
477	0.799168	92721152	62533632	29300384	24992
478	0.827134	92721152	62533632	14202968	24992
479	0.80489	92721152	62533632	15550008	24992
480	0.800263	92721152	62533632	16897048	24992
481	0.813738	92721152	62533632	18244088	24992
482	0.8055	92721152	62533632	19591128	24992
483	0.800481	92721152	62533632	20938168	24992
484	0.800878	92721152	62533632	22285208	24992
485	0.801359	92721152	62533632	23632248	24992
486	1.020716	92721152	62533632	24979336	24992
487	0.801379	92721152	62533632	26326376	24992
488	0.803014	92721152	62533632	27673416	24992
489	0.803302	92721152	62533632	29020456	24992
490	1.099453	92721152	62533632	13924864	24992
491	1.0022	92721152	62533632	15271928	24992
492	0.811408	92721152	62533632	16620728	24992
493	1.132687	92721152	62533632	17967776	24992
494	0.803091	92721152	62533632	19314816	24992
495	0.84037	92721152	62533632	20661856	24992
496	0.801376	92721152	62533632	22008896	24992
497	0.799782	92721152	62533632	23355936	24992
498	0.802151	92721152	62533632	24702976	24992
499	0.802449	92721152	62533632	26050016	24992
500	1.10619	92721152	62533632	27397056	24992
501	0.813298	92721152	62533632	28744096	24992
502	1.087534	92721152	62533632	13648504	24992
503	0.806249	92721152	62533632	14995552	24992
504	0.80263	92721152	62533632	16342592	24992
505	0.806045	92721152	62533632	17689632	24992
506	0.799305	92721152	62533632	19036720	24992
507	1.121964	92721152	62533632	20383760	24992
508	0.804802	92721152	62533632	21730800	24992
509	0.79983	92721152	62533632	23077840	24992
510	0.805309	92721152	62533632	24424880	24992
511	0.849597	92721152	62533632	25771920	24992
512	0.986541	92721152	62533632	27118960	24992
513	0.803852	92721152	62533632	28466000	24992
514	0.818928	92721152	62533632	29813040	24992
515	0.818897	92721152	62533632	14715616	24992
516	0.805701	92721152	62533632	16062656	24992
517	0.802086	92721152	62533632	17409696	24992
518	0.79854	92721152	62533632	18756736	24992
519	0.817482	92721152	62533632	20103776	24992
520	0.800923	92721152	62533632	21450816	24992
521	0.804972	92721152	62533632	22797856	24992
522	0.809841	92721152	62533632	24144896	24992
523	0.808978	92721152	62533632	25491936	24992
524	0.81094	92721152	62533632	26839008	24992
525	0.804903	92721152	62533632	28186048	24992
526	0.810731	92721152	62533632	29533088	24992
527	0.815734	92721152	62533632	14435672	24992
528	0.805567	92721152	62533632	15782712	24992
529	0.814173	92721152	62533632	17129752	24992
530	0.801107	92721152	62533632	18476824	24992
531	0.814001	92721152	62533632	19823864	24992
532	0.802969	92721152	62533632	21170904	24992
533	0.803242	92721152	62533632	22517944	24992
534	0.79929	92721152	62533632	23864984	24992
535	0.805762	92721152	62533632	25212024	24992
536	0.821046	92721152	62533632	26559064	24992
537	0.799446	92721152	62533632	27906104	24992
538	0.812207	92721152	62533632	29253144	24992
539	1.097282	92721152	62533632	14157552	24992
540	0.822221	92721152	62533632	15504600	24992
541	0.815154	92721152	62533632	16851640	24992
542	0.802559	92721152	62533632	18198680	24992
543	1.013109	92721152	62533632	19545752	24992
544	0.802164	92721152	62533632	20892792	24992
545	0.803883	92721152	62533632	22239832	24992
546	0.798393	92721152	62533632	23586872	24992
547	0.801842	92721152	62533632	24933912	24992
548	0.811002	92721152	62533632	26280984	24992
549	0.802192	92721152	62533632	27628024	24992
550	0.96467	92721152	62533632	28975064	24992
551	1.081566	92721152	62533632	13879472	24992
552	0.818932	92721152	62533632	15226520	24992
553	0.807345	92721152	62533632	16573560	24992
554	0.803531	92721152	62533632	17920600	24992
555	0.815355	92721152	62533632	19267640	24992
556	0.801941	92721152	62533632	20621496	24992
557	0.796977	92721152	62533632	21968536	24992
558	0.805609	92721152	62533632	23315576	24992
559	0.840669	92721152	62533632	24662616	24992
560	0.81357	92721152	62533632	26009656	24992
561	0.802966	92721152	62533632	27356696	24992
562	0.798549	92721152	62533632	28703736	24992
563	0.801921	92721152	62533632	30050776	24992
564	0.831285	92721152	62533632	14960152	24992
565	0.812305	92721152	62533632	16307192	24992
566	0.806402	92721152	62533632	17654232	24992
567	0.821812	92721152	62533632	19001272	24992
568	0.802371	92721152	62533632	20348312	24992
569	0.801921	92721152	62533632	21695432	24992
570	0.801977	92721152	62533632	23042472	24992
571	0.849481	92721152	62533632	24389512	24992
572	1.001503	92721152	62533632	25736552	24992
573	0.800356	92721152	62533632	27083592	24992
574	0.815967	92721152	62533632	28430680	24992
575	0.803061	92721152	62533632	29777720	24992
576	0.818288	92721152	62533632	14687104	24992
577	0.803509	92721152	62533632	16034144	24992
578	0.800859	92721152	62533632	17381184	24992
579	0.825102	92721152	62533632	18728224	24992
580	0.801467	92721152	62533632	20075312	24992
581	0.803665	92721152	62533632	21422352	24992
582	0.999855	92721152	62533632	22769392	24992
583	0.801051	92721152	62533632	24116432	24992
584	0.801693	92721152	62533632	25463472	24992
585	0.802252	92721152	62533632	26810512	24992
586	0.971717	92721152	62533632	28157552	24992
587	0.806036	92721152	62533632	29504656	24992
588	1.085735	92721152	62533632	14409064	24992
589	0.808903	92721152	62533632	15756112	24992
590	0.799591	92721152	62533632	17103152	24992
591	0.816504	92721152	62533632	18450192	24992
592	0.805068	92721152	62533632	19797232	24992
593	0.801317	92721152	62533632	21144272	24992
594	0.813255	92721152	62533632	22491344	24992
595	0.824404	92721152	62533632	23838384	24992
596	0.802481	92721152	62533632	25185424	24992
597	0.800755	92721152	62533632	26532464	24992
598	0.863411	92721152	62533632	27879504	24992
599	0.801589	92721152	62533632	29226544	24992
600	1.079888	92721152	62533632	14130952	24992
601	0.813767	92721152	62533632	15478000	24992
602	0.807896	92721152	62533632	16825040	24992
603	0.819998	92721152	62533632	18172080	24992
604	0.802145	92721152	62533632	19519120	24992
605	0.851452	92721152	62533632	20866160	24992
606	0.799109	92721152	62533632	22213200	24992
607	0.800831	92721152	62533632	23560240	24992
608	0.802679	92721152	62533632	24907280	24992
609	0.80122	92721152	62533632	26254320	24992
610	0.81379	92721152	62533632	27601360	24992
611	0.800198	92721152	62533632	28948400	24992
612	0.799684	92721152	62533632	30295456	24992
613	0.817838	92721152	62533632	15198112	24992
614	0.802877	92721152	62533632	16545152	24992
615	0.824787	92721152	62533632	17892192	24992
616	0.799654	92721152	62533632	19239232	24992
617	0.810786	92721152	62533632	20586272	24992
618	0.802854	92721152	62533632	21933360	24992
619	0.801199	92721152	62533632	23280400	24992
620	0.802162	92721152	62533632	24627440	24992
621	0.801398	92721152	62533632	25974480	24992
622	0.818008	92721152	62533632	27321520	24992
623	0.800804	92721152	62533632	28668560	24992
624	0.804001	92721152	62533632	30015600	24992
625	0.816871	92721152	62533632	14918264	24992
626	0.804213	92721152	62533632	16265304	24992
627	0.808595	92721152	62533632	17612344	24992
628	0.797659	92721152	62533632	18959384	24992
629	0.973521	92721152	62533632	20306424	24992
630	0.801837	92721152	62533632	21653464	24992
631	0.846413	92721152	62533632	23000536	24992
632	0.845075	92721152	62533632	24347576	24992
633	0.804418	92721152	62533632	25694616	24992
634	0.857237	92721152	62533632	27041656	24992
635	0.802015	92721152	62533632	28388696	24992
636	0.800061	92721152	62533632	29735736	24992
637	1.094579	92721152	62533632	14640160	24992
638	0.807778	92721152	62533632	15987208	24992
639	0.805439	92721152	62533632	17334248	24992
640	0.804657	92721152	62533632	18681288	24992
641	0.856165	92721152	62533632	20028328	24992
642	0.800787	92721152	62533632	21375368	24992
643	0.80032	92721152	62533632	22722408	24992
644	0.804768	92721152	62533632	24069464	24992
645	0.803028	92721152	62533632	25416504	24992
646	0.852726	92721152	62533632	26763544	24992
647	0.800568	92721152	62533632	28110584	24992
648	0.825145	92721152	62533632	29457624	24992
649	1.0795	92721152	62533632	14362032	24992
650	0.806077	92721152	62533632	15709080	24992
651	0.801708	92721152	62533632	17056136	24992
652	0.799534	92721152	62533632	18403176	24992
653	0.855385	92721152	62533632	19750216	24992
654	0.804165	92721152	62533632	21097256	24992
655	0.800562	92721152	62533632	22444296	24992
656	0.803673	92721152	62533632	23791336	24992
657	0.816956	92721152	62533632	25138376	24992
658	0.981638	92721152	62533632	26485416	24992
659	0.798712	92721152	62533632	27832456	24992
660	0.807444	92721152	62533632	29179496	24992
661	0.801751	92721152	62533632	30526536	24992
662	0.821963	92721152	62533632	15429128	24992
663	0.805199	92721152	62533632	16776168	24992
664	0.801131	92721152	62533632	18123208	24992
665	0.993057	92721152	62533632	19470248	24992
666	0.802463	92721152	62533632	20817288	24992
667	0.807793	92721152	62533632	22164328	24992
668	0.804009	92721152	62533632	23511368	24992
669	0.802159	92721152	62533632	24858728	24992
670	0.799386	92721152	62533632	26205768	24992
671	0.800047	92721152	62533632	27552808	24992
672	0.812887	92721152	62533632	28899848	24992
673	0.799627	92721152	62533632	30246888	24992
674	0.814964	92721152	62533632	15149472	24992
675	0.808378	92721152	62533632	16496528	24992
676	0.802776	92721152	62533632	17843568	24992
677	0.807044	92721152	62533632	19190608	24992
678	0.803215	92721152	62533632	20537648	24992
679	0.802669	92721152	62533632	21884688	24992
680	0.806483	92721152	62533632	23231728	24992
681	0.798854	92721152	62533632	24578768	24992
682	0.810798	92721152	62533632	25925808	24992
683	0.803225	92721152	62533632	27272848	24992
684	0.797711	92721152	62533632	28619888	24992
685	0.80149	92721152	62533632	29966928	24992
686	1.07924	92721152	62533632	14871344	24992
687	0.823011	92721152	62533632	16218384	24992
688	0.802486	92721152	62533632	17565424	24992
689	0.812838	92721152	62533632	18912464	24992
690	0.803844	92721152	62533632	20259504	24992
691	0.846257	92721152	62533632	21606544	24992
692	0.803024	92721152	62533632	22953584	24992
693	0.803842	92721152	62533632	24300688	24992
694	0.813653	92721152	62533632	25647728	24992
695	0.800627	92721152	62533632	26994768	24992
696	0.798509	92721152	62533632	28341808	24992
697	0.804182	92721152	62533632	29688848	24992
698	1.077393	92721152	62533632	14593256	24992
699	0.808932	92721152	62533632	15940304	24992
700	0.80059	92721152	62533632	17287344	24992
701	0.978462	92721152	62533632	18634448	24992
702	0.802344	92721152	62533632	19981488	24992
703	0.918243	92721152	62533632	21329192	24992
704	0.805308	92721152	62533632	22676232	24992
705	0.807853	92721152	62533632	24023272	24992
706	0.813785	92721152	62533632	25370328	24992
707	0.799754	92721152	62533632	26717368	24992
708	0.796637	92721152	62533632	28064408	24992
709	0.805668	92721152	62533632	29411448	24992
710	0.805676	92721152	62533632	30758488	24992
711	0.828872	92721152	62533632	15661080	24992
712	0.818541	92721152	62533632	17008128	24992
713	0.826995	92721152	62533632	18355176	24992
714	0.81883	92721152	62533632	19702216	24992
715	0.863045	92721152	62533632	21049256	24992
716	0.810493	92721152	62533632	22396296	24992
717	0.799351	92721152	62533632	23743336	24992
718	0.798812	92721152	62533632	25090376	24992
719	0.800975	92721152	62533632	26437496	24992
720	0.811022	92721152	62533632	27784536	24992
721	0.799408	92721152	62533632	29131576	24992
722	0.800911	92721152	62533632	30478616	24992
723	0.818841	92721152	62533632	15381200	24992
724	0.808703	92721152	62533632	16728240	24992
725	0.80885	92721152	62533632	18075280	24992
726	0.806445	92721152	62533632	19422416	24992
727	0.80028	92721152	62533632	20769456	24992
728	0.801433	92721152	62533632	22116496	24992
729	0.801955	92721152	62533632	23463536	24992
730	1.004009	92721152	62533632	24810576	24992
731	0.801531	92721152	62533632	26157616	24992
732	0.833536	92721152	62533632	27504656	24992
733	0.802028	92721152	62533632	28851696	24992
734	0.804401	92721152	62533632	30198736	24992
735	1.084423	92721152	62533632	15103152	24992
736	0.807885	92721152	62533632	16450192	24992
737	0.992464	92721152	62533632	17797232	24992
738	0.800473	92721152	62533632	19144272	24992
739	0.801802	92721152	62533632	20491312	24992
740	0.803165	92721152	62533632	21838352	24992
741	0.799261	92721152	62533632	23185392	24992
742	0.808267	92721152	62533632	24532432	24992
743	0.800596	92721152	62533632	25879472	24992
744	0.804657	92721152	62533632	27226512	24992
745	0.80603	92721152	62533632	28573552	24992
746	0.801186	92721152	62533632	29920592	24992
747	1.089463	92721152	62533632	14825000	24992
748	0.811924	92721152	62533632	16172048	24992
749	0.809498	92721152	62533632	17519088	24992
750	0.805151	92721152	62533632	18866160	24992
751	0.84444	92721152	62533632	20213200	24992
752	0.801939	92721152	62533632	21560240	24992
753	0.798087	92721152	62533632	22907280	24992
754	0.861803	92721152	62533632	24254320	24992
755	0.799739	92721152	62533632	25601360	24992
756	0.800998	92721152	62533632	26948400	24992
757	0.799841	92721152	62533632	28295440	24992
758	0.801798	92721152	62533632	29642480	24992
759	0.993025	92721152	62533632	30989520	24992
760	0.815616	92721152	62533632	15892112	24992
761	0.809412	92721152	62533632	17239152	24992
762	0.803716	92721152	62533632	18586192	24992
763	0.799676	92721152	62533632	19933280	24992
764	0.801659	92721152	62533632	21280320	24992
765	0.805028	92721152	62533632	22627360	24992
766	0.813689	92721152	62533632	23974400	24992
767	0.802099	92721152	62533632	25321440	24992
768	0.799552	92721152	62533632	26668480	24992
769	0.805068	92721152	62533632	28015520	24992
770	0.799031	92721152	62533632	29362560	24992
771	0.806516	92721152	62533632	30709600	24992
772	0.834405	92721152	62533632	15612184	24992
773	1.607643	92721152	62533632	16959240	24992
774	0.809117	92721152	62533632	18306280	24992
775	0.838584	92721152	62533632	19653320	24992
776	0.801631	92721152	62533632	21000376	24992
777	0.804427	92721152	62533632	22356344	24992
778	0.804399	92721152	62533632	23703384	24992
779	0.799967	92721152	62533632	25050424	24992
780	1.144057	92721152	62533632	26397464	24992
781	0.833406	92721152	62533632	27747040	24992
782	0.805951	92721152	62533632	29094080	24992
783	0.803336	92721152	62533632	30441120	24992
784	1.102827	92721152	62533632	15361824	24992
785	0.805025	92721152	62533632	16708864	24992
786	0.800804	92721152	62533632	18055904	24992
787	1.005412	92721152	62533632	19402944	24992
788	0.800717	92721152	62533632	20749984	24992
789	0.79927	92721152	62533632	22097120	24992
790	0.803947	92721152	62533632	23444160	24992
791	0.796799	92721152	62533632	24791200	24992
792	0.808886	92721152	62533632	26138240	24992
793	0.80587	92721152	62533632	27485280	24992
794	0.813313	92721152	62533632	28832336	24992
795	0.801194	92721152	62533632	30179376	24992
796	1.126895	92721152	62533632	15124936	24992
797	0.806853	92721152	62533632	16471984	24992
798	0.800247	92721152	62533632	17819024	24992
799	0.811254	92721152	62533632	19166064	24992
800	0.799975	92721152	62533632	20513104	24992
801	0.800288	92721152	62533632	21860144	24992
802	0.805042	92721152	62533632	23207232	24992
803	0.803304	92721152	62533632	24554272	24992
804	0.806301	92721152	62533632	25901312	24992
805	0.796589	92721152	62533632	27248352	24992
806	0.800798	92721152	62533632	28595392	24992
807	0.81043	92721152	62533632	29942432	24992
808	0.800028	92721152	62533632	31289472	24992
809	0.822049	92721152	62533632	16242448	24992
810	0.802255	92721152	62533632	17589568	24992
811	0.810758	92721152	62533632	18936608	24992
812	0.798126	92721152	62533632	20283648	24992
813	0.795518	92721152	62533632	21630688	24992
814	0.797209	92721152	62533632	22977728	24992
815	0.806552	92721152	62533632	24324832	24992
816	0.813476	92721152	62533632	25671872	24992
817	0.799379	92721152	62533632	27018912	24992
818	0.798276	92721152	62533632	28365952	24992
819	0.802588	92721152	62533632	29712992	24992
820	0.799211	92721152	62533632	31060032	24992
821	0.819877	92721152	62533632	16013000	24992
822	0.802913	92721152	62533632	17360040	24992
823	0.996656	92721152	62533632	18707080	24992
824	0.802192	92721152	62533632	20054120	24992
825	0.801747	92721152	62533632	21401160	24992
826	0.799027	92721152	62533632	22748200	24992
827	0.801353	92721152	62533632	24095240	24992
828	0.808937	92721152	62533632	25442280	24992
829	0.804876	92721152	62533632	26789320	24992
830	0.799821	92721152	62533632	28136360	24992
831	0.804524	92721152	62533632	29483400	24992
832	0.800655	92721152	62533632	30830440	24992
833	0.815494	92721152	62533632	15782376	24992
834	0.800977	92721152	62533632	17129416	24992
835	0.814361	92721152	62533632	18476456	24992
836	0.802533	92721152	62533632	19823512	24992
837	1.017077	92721152	62533632	21170568	24992
838	0.811294	92721152	62533632	22517608	24992
839	0.80571	92721152	62533632	23867056	24992
840	0.800795	92721152	62533632	25213904	24992
841	0.796414	92721152	62533632	26560752	24992
842	0.830905	92721152	62533632	27907600	24992
843	0.820507	92721152	62533632	29254448	24992
844	0.817302	92721152	62533632	30601296	24992
845	1.220204	92721152	62533632	15556656	24992
846	0.805878	92721152	62533632	16903504	24992
847	0.804495	92721152	62533632	18250352	24992
848	0.798433	92721152	62533632	19597200	24992
849	0.806312	92721152	62533632	20944048	24992
850	0.79492	92721152	62533632	22301232	24992
851	0.796513	92721152	62533632	23648080	24992
852	0.824405	92721152	62533632	24994928	24992
853	0.802011	92721152	62533632	26341776	24992
854	0.808497	92721152	62533632	27688624	24992
855	0.797384	92721152	62533632	29035472	24992
856	0.797099	92721152	62533632	30382320	24992
857	1.203303	92721152	62533632	15348080	24992
858	0.80431	92721152	62533632	16694936	24992
859	0.984618	92721152	62533632	18041784	24992
860	0.798065	92721152	62533632	19388632	24992
861	0.815725	92721152	62533632	20735480	24992
862	0.796208	92721152	62533632	22082328	24992
863	0.793417	92721152	62533632	23429176	24992
864	0.801702	92721152	62533632	24776072	24992
865	0.797006	92721152	62533632	26122920	24992
866	0.977451	92721152	62533632	27469768	24992
867	0.802703	92721152	62533632	28816616	24992
868	0.800989	92721152	62533632	30163464	24992
869	0.800602	92721152	62533632	31510312	24992
870	0.817982	92721152	62533632	16473424	24992
871	0.804665	92721152	62533632	17820272	24992
872	0.800659	92721152	62533632	19167184	24992
873	0.836784	92721152	62533632	20514032	24992
874	0.79913	92721152	62533632	21860880	24992
875	0.802342	92721152	62533632	23207728	24992
876	0.798414	92721152	62533632	24554648	24992
877	0.794876	92721152	62533632	25901504	24992
878	0.807404	92721152	62533632	27248352	24992
879	0.796052	92721152	62533632	28595200	24992
880	0.801633	92721152	62533632	29942048	24992
881	0.990721	92721152	62533632	31288896	24992
882	0.821059	92721152	62533632	16241672	24992
883	0.804012	92721152	62533632	17588520	24992
884	0.800004	92721152	62533632	18935368	24992
885	0.804932	92721152	62533632	20282248	24992
886	0.799431	92721152	62533632	21629096	24992
887	0.798916	92721152	62533632	22975944	24992
888	0.808538	92721152	62533632	24322792	24992
889	0.800695	92721152	62533632	25669640	24992
890	0.808479	92721152	62533632	27016488	24992
891	0.794843	92721152	62533632	28363336	24992
892	0.796397	92721152	62533632	29710184	24992
893	0.798382	92721152	62533632	31057032	24992
894	1.263425	92721152	62533632	16012392	24992
895	0.804302	92721152	62533632	17359240	24992
896	0.806792	92721152	62533632	18706088	24992
897	0.988417	92721152	62533632	20053200	24992
898	0.797831	92721152	62533632	21400056	24992
899	0.79392	92721152	62533632	22746904	24992
900	0.798174	92721152	62533632	24093752	24992
901	0.797917	92721152	62533632	25440600	24992
902	0.98963	92721152	62533632	26787448	24992
903	0.798389	92721152	62533632	28134296	24992
904	0.809231	92721152	62533632	29481176	24992
905	0.796538	92721152	62533632	30828024	24992
906	1.266014	92721152	62533632	15783384	24992
907	0.804828	92721152	62533632	17130240	24992
908	0.799441	92721152	62533632	18477088	24992
909	0.819797	92721152	62533632	19823936	24992
910	0.799501	92721152	62533632	21170784	24992
911	0.798379	92721152	62533632	22517632	24992
912	0.798911	92721152	62533632	23864480	24992
913	0.797886	92721152	62533632	25211328	24992
914	0.803927	92721152	62533632	26558176	24992
915	0.795556	92721152	62533632	27905024	24992
916	0.795005	92721152	62533632	29251872	24992
917	0.80128	92721152	62533632	30598752	24992
918	0.800089	92721152	62533632	31945600	24992
919	0.816627	92721152	62533632	16898384	24992
920	0.802568	92721152	62533632	18245232	24992
921	0.805642	92721152	62533632	19592080	24992
922	0.800101	92721152	62533632	20938928	24992
923	0.798899	92721152	62533632	22285776	24992
924	0.801462	92721152	62533632	23632624	24992
925	0.796249	92721152	62533632	24979488	24992
926	0.799668	92721152	62533632	26326336	24992
927	0.799536	92721152	62533632	27673184	24992
928	0.804563	92721152	62533632	29020032	24992
929	0.796514	92721152	62533632	30366880	24992
930	0.795563	92721152	62533632	31713744	24992
931	0.846442	92721152	62533632	16666536	24992
932	0.799452	92721152	62533632	18013384	24992
933	0.80495	92721152	62533632	19360232	24992
934	0.794295	92721152	62533632	20707080	24992
935	0.799963	92721152	62533632	22053928	24992
936	0.801559	92721152	62533632	23400776	24992
937	0.796278	92721152	62533632	24747624	24992
938	1.000225	92721152	62533632	26094536	24992
939	0.803983	92721152	62533632	27441384	24992
940	0.813218	92721152	62533632	28788232	24992
941	0.796298	92721152	62533632	30135080	24992
942	0.799017	92721152	62533632	31481928	24992
943	0.820805	92721152	62533632	16431432	24992
944	0.796838	92721152	62533632	17778280	24992
945	0.862843	92721152	62533632	19125128	24992
946	0.797395	92721152	62533632	20471976	24992
947	0.803943	92721152	62533632	21818824	24992
948	0.798642	92721152	62533632	23165672	24992
949	0.797738	92721152	62533632	24512520	24992
950	0.824482	92721152	62533632	25859368	24992
951	0.796613	92721152	62533632	27206232	24992
952	0.96239	92721152	62533632	28553080	24992
953	0.801823	92721152	62533632	29899928	24992
954	0.832967	92721152	62533632	31246776	24992
955	1.352375	92721152	62533632	16202136	24992
956	0.802583	92721152	62533632	17548992	24992
957	0.799024	92721152	62533632	18895840	24992
958	0.79753	92721152	62533632	20242688	24992
959	1.099023	92721152	62533632	21589552	24992
960	0.800179	92721152	62533632	22936400	24992
961	0.826596	92721152	62533632	24283248	24992
962	0.796827	92721152	62533632	25630096	24992
963	0.79509	92721152	62533632	26976944	24992
964	0.801436	92721152	62533632	28323872	24992
965	0.798957	92721152	62533632	29670720	24992
966	0.966804	92721152	62533632	31017568	24992
967	1.347435	92721152	62533632	15972744	24992
968	0.814529	92721152	62533632	17319600	24992
969	0.800808	92721152	62533632	18666448	24992
970	0.79963	92721152	62533632	20013296	24992
971	0.825045	92721152	62533632	21360144	24992
972	0.798735	92721152	62533632	22707008	24992
973	0.997958	92721152	62533632	24053856	24992
974	0.799354	92721152	62533632	25400704	24992
975	0.799097	92721152	62533632	26747552	24992
976	0.803156	92721152	62533632	28094400	24992
977	0.795842	92721152	62533632	29441280	24992
978	0.856795	92721152	62533632	30788128	24992
979	0.797248	92721152	62533632	32134976	24992
980	1.022827	92721152	62533632	17087744	24992
981	0.801153	92721152	62533632	18434592	24992
982	0.800649	92721152	62533632	19781440	24992
983	0.802526	92721152	62533632	21128288	24992
984	0.802137	92721152	62533632	22475136	24992
985	0.8014	92721152	62533632	23822064	24992
986	0.796508	92721152	62533632	25168912	24992
987	0.960363	92721152	62533632	26515760	24992
988	0.798787	92721152	62533632	27862608	24992
989	0.805767	92721152	62533632	29209456	24992
990	0.801431	92721152	62533632	30556304	24992
991	0.800377	92721152	62533632	31903152	24992
992	0.814549	92721152	62533632	16855928	24992
993	0.80162	92721152	62533632	18202840	24992
994	0.936212	92721152	62533632	19549688	24992
995	0.804162	92721152	62533632	20896536	24992
996	0.795109	92721152	62533632	22243384	24992
997	0.799895	92721152	62533632	23590232	24992
998	0.796783	92721152	62533632	24937160	24992
999	0.806055	92721152	62533632	26284008	24992
1000	0.800789	92721152	62533632	27630856	24992
