x	Duration	RSS	HeapTotal	HeapUsed	External
0	NA	90624000	60436480	11541696	24992
1	1.670219	90624000	60436480	12221800	24992
2	2.714567	90624000	60436480	13560184	24992
3	0.795436	90624000	60436480	15563840	24992
4	0.981594	90624000	60436480	16911304	24992
5	0.805061	90624000	60436480	18258768	24992
6	0.816392	90624000	60436480	19606232	24992
7	0.791443	90624000	60436480	20953696	24992
8	0.789935	90624000	60436480	22301160	24992
9	0.838413	90624000	60436480	23648624	24992
10	0.789558	90624000	60436480	24996088	24992
11	0.959276	90624000	60436480	26343552	24992
12	0.795652	90624000	60436480	27691096	24992
13	0.807341	90624000	60436480	12575784	24992
14	0.794431	90624000	60436480	13923360	24992
15	0.806045	90624000	60436480	15270824	24992
16	0.987464	90624000	60436480	16618288	24992
17	0.794445	90624000	60436480	17965752	24992
18	0.802903	90624000	60436480	19313216	24992
19	0.788853	90624000	60436480	20661032	24992
20	0.788623	90624000	60436480	22008496	24992
21	0.791095	90624000	60436480	23355960	24992
22	0.7873	90624000	60436480	24703424	24992
23	0.957754	90624000	60436480	26050888	24992
24	0.79309	90624000	60436480	27398352	24992
25	1.057354	90624000	60436480	12303816	24992
26	0.811917	90624000	60436480	13651280	24992
27	0.809954	90624000	60436480	14998744	24992
28	0.821523	90624000	60436480	16346208	24992
29	0.806199	90624000	60436480	17693672	24992
30	0.855822	90624000	60436480	19041136	24992
31	0.794879	90624000	60436480	20388800	24992
32	0.796732	90624000	60436480	21736256	24992
33	0.791808	90624000	60436480	23083720	24992
34	0.791594	90624000	60436480	24431184	24992
35	0.795875	90624000	60436480	25778648	24992
36	0.791182	90624000	60436480	27126112	24992
37	1.023527	90624000	60436480	12032280	24992
38	0.797446	90624000	60436480	13379768	24992
39	0.845977	90624000	60436480	14727232	24992
40	0.843861	90624000	60436480	16074696	24992
41	0.794279	90624000	60436480	17422160	24992
42	0.78679	90624000	60436480	18769624	24992
43	0.790101	90624000	60436480	20117088	24992
44	0.786051	90624000	60436480	21464552	24992
45	0.999655	90624000	60436480	22813008	24992
46	0.788798	90624000	60436480	24160472	24992
47	0.824153	90624000	60436480	25507936	24992
48	0.787121	90624000	60436480	26855400	24992
49	1.021498	90624000	60436480	11760232	24992
50	0.793943	90624000	60436480	13107688	24992
51	0.789401	90624000	60436480	14455168	24992
52	1.003438	90624000	60436480	15802632	24992
53	0.790532	90624000	60436480	17150096	24992
54	0.791488	90624000	60436480	18497560	24992
55	0.789618	90624000	60436480	19845024	24992
56	0.789578	90624000	60436480	21192488	24992
57	0.844813	90624000	60436480	22539952	24992
58	0.788448	90624000	60436480	23887496	24992
59	0.789304	90624000	60436480	25234960	24992
60	0.790122	90624000	60436480	26582424	24992
61	0.795482	90624000	60436480	27929888	24992
62	0.834548	90624000	60436480	12834600	24992
63	0.796469	90624000	60436480	14182064	24992
64	0.814069	90624000	60436480	15529592	24992
65	0.788163	90624000	60436480	16877056	24992
66	0.786964	90624000	60436480	18224520	24992
67	0.843288	90624000	60436480	19571984	24992
68	0.836479	90624000	60436480	20919448	24992
69	0.842676	90624000	60436480	22266912	24992
70	0.83077	90624000	60436480	23614376	24992
71	0.830245	90624000	60436480	24961840	24992
72	0.78811	90624000	60436480	26309304	24992
73	0.786532	90624000	60436480	27656768	24992
74	0.951183	90624000	60436480	12560808	24992
75	0.789938	90624000	60436480	13908272	24992
76	0.872415	90624000	60436480	15255736	24992
77	0.795401	90624000	60436480	16603248	24992
78	0.787862	90624000	60436480	17950712	24992
79	0.78984	90624000	60436480	19298176	24992
80	0.788128	90624000	60436480	20645832	24992
81	1.13621	90624000	60436480	21995128	24992
82	0.794264	90624000	60436480	23342504	24992
83	0.800955	90624000	60436480	24689880	24992
84	0.79704	90624000	60436480	26038392	24992
85	0.795102	90624000	60436480	27385768	24992
86	1.030862	90624000	60436480	12292712	24992
87	0.792791	90624000	60436480	13640088	24992
88	0.990822	90624000	60436480	14987464	24992
89	0.790606	90624000	60436480	16334840	24992
90	0.835664	90624000	60436480	17682280	24992
91	0.787754	90624000	60436480	19029656	24992
92	0.809371	90624000	60436480	20377032	24992
93	0.79736	90624000	60436480	21724408	24992
94	0.786874	90624000	60436480	23071784	24992
95	0.790663	90624000	60436480	24419208	24992
96	0.798282	90624000	60436480	25766584	24992
97	0.796416	90624000	60436480	27113960	24992
98	1.061499	90624000	60436480	12020232	24992
99	0.79815	90624000	60436480	13367616	24992
100	0.817543	90624000	60436480	14714992	24992
101	0.7945	90624000	60436480	16062368	24992
102	0.796679	90624000	60436480	17409744	24992
103	0.793898	90624000	60436480	18757168	24992
104	0.786948	90624000	60436480	20104544	24992
105	0.797674	90624000	60436480	21451920	24992
106	0.786327	90624000	60436480	22799296	24992
107	0.786256	90624000	60436480	24146672	24992
108	0.792341	90624000	60436480	25494096	24992
109	0.787478	90624000	60436480	26841472	24992
110	0.989099	90624000	60436480	28188848	24992
111	0.804264	90624000	60436480	13091760	24992
112	0.80002	90624000	60436480	14439136	24992
113	0.787636	90624000	60436480	15786512	24992
114	0.785792	90624000	60436480	17133888	24992
115	0.82125	90624000	60436480	18481264	24992
116	0.786719	90624000	60436480	19828640	24992
117	0.803362	90624000	60436480	21176016	24992
118	0.785569	90624000	60436480	22523392	24992
119	0.788806	90624000	60436480	23870768	24992
120	0.789236	90624000	60436480	25218144	24992
121	0.78741	90624000	60436480	26565552	24992
122	0.795415	90624000	60436480	27912928	24992
123	0.804608	90624000	60436480	12815848	24992
124	0.788655	90624000	60436480	14163224	24992
125	0.79252	90624000	60436480	15510600	24992
126	0.789467	90624000	60436480	16857976	24992
127	0.794885	90624000	60436480	18205352	24992
128	0.794645	90624000	60436480	19552744	24992
129	0.789803	90624000	60436480	20900120	24992
130	0.818701	90624000	60436480	22247496	24992
131	0.815758	90624000	60436480	23594872	24992
132	1.004298	90624000	60436480	24942248	24992
133	0.798994	90624000	60436480	26289624	24992
134	0.808903	90624000	60436480	27637128	24992
135	1.043659	90624000	60436480	12541872	24992
136	0.813177	90624000	60436480	13889256	24992
137	0.79626	90624000	60436480	15236632	24992
138	0.788087	90624000	60436480	16584008	24992
139	1.591174	90624000	60436480	17931400	24992
140	0.794453	90624000	60436480	19278776	24992
141	1.008561	90624000	60436480	20626232	24992
142	0.790545	90624000	60436480	21975448	24992
143	0.842584	90624000	60436480	23336768	24992
144	0.788814	90624000	60436480	24684144	24992
145	0.785811	90624000	60436480	26031520	24992
146	0.799843	90624000	60436480	27378896	24992
147	1.04398	90624000	60436480	12285520	24992
148	0.823162	90624000	60436480	13632896	24992
149	0.808542	90624000	60436480	14980272	24992
150	0.811676	90624000	60436480	16327648	24992
151	0.799322	90624000	60436480	17675040	24992
152	0.826542	90624000	60436480	19026472	24992
153	0.850256	90624000	60436480	20373512	24992
154	0.788345	90624000	60436480	21720568	24992
155	0.779369	90624000	60436480	23067608	24992
156	0.781863	90624000	60436480	24414648	24992
157	0.781177	90624000	60436480	25761688	24992
158	0.843214	90624000	60436480	27108728	24992
159	0.779069	90624000	60436480	28455768	24992
160	0.818851	90624000	60436480	13360192	24992
161	0.787649	90624000	60436480	14707232	24992
162	0.784826	90624000	60436480	16054272	24992
163	0.778884	90624000	60436480	17401312	24992
164	0.783078	90624000	60436480	18748352	24992
165	0.77833	90624000	60436480	20095392	24992
166	0.784997	90624000	60436480	21442432	24992
167	0.954753	90624000	60436480	22789472	24992
168	0.809948	90624000	60436480	24136512	24992
169	0.779874	90624000	60436480	25483552	24992
170	0.794795	90624000	60436480	26830592	24992
171	0.784356	90624000	60436480	28177632	24992
172	0.804243	90624000	60436480	13080312	24992
173	0.782206	90624000	60436480	14427416	24992
174	0.790839	90624000	60436480	15774456	24992
175	0.980374	90624000	60436480	17124192	24992
176	0.789465	90624000	60436480	18471232	24992
177	0.781312	90624000	60436480	19818272	24992
178	0.784863	90624000	60436480	21165344	24992
179	0.776956	90624000	60436480	22512384	24992
180	0.791808	90624000	60436480	23859424	24992
181	0.778147	90624000	60436480	25206464	24992
182	0.780387	90624000	60436480	26553504	24992
183	0.785208	90624000	60436480	27900544	24992
184	1.046202	90624000	60436480	12804960	24992
185	0.788101	90624000	60436480	14152000	24992
186	0.784029	90624000	60436480	15499040	24992
187	0.807528	90624000	60436480	16846080	24992
188	0.785806	90624000	60436480	18193120	24992
189	0.77712	90624000	60436480	19540160	24992
190	0.783073	90624000	60436480	20887200	24992
191	0.777224	90624000	60436480	22234240	24992
192	0.785089	90624000	60436480	23581280	24992
193	0.779958	90624000	60436480	24928320	24992
194	0.790168	90624000	60436480	26276184	24992
195	0.77907	90624000	60436480	27623224	24992
196	1.03921	90624000	60436480	12527648	24992
197	1.00295	90624000	60436480	13874696	24992
198	0.783442	90624000	60436480	15221768	24992
199	0.784182	90624000	60436480	16568808	24992
200	0.78039	90624000	60436480	17915848	24992
201	0.78109	90624000	60436480	19262888	24992
202	0.788516	90624000	60436480	20609928	24992
203	0.784529	90624000	60436480	21956968	24992
204	0.775234	90624000	60436480	23304008	24992
205	0.780633	90624000	60436480	24651048	24992
206	0.776993	90624000	60436480	25998088	24992
207	0.793711	90624000	60436480	27345128	24992
208	0.778012	90624000	60436480	28692168	24992
209	0.813489	90624000	60436480	13594760	24992
210	0.799558	90624000	60436480	14941800	24992
211	0.803003	90624000	60436480	16288840	24992
212	0.806958	90624000	60436480	17635880	24992
213	0.781786	90624000	60436480	18982920	24992
214	0.779404	90624000	60436480	20329960	24992
215	0.784715	90624000	60436480	21677120	24992
216	0.777247	90624000	60436480	23024168	24992
217	0.790183	90624000	60436480	24371208	24992
218	0.778419	90624000	60436480	25718248	24992
219	0.786054	90624000	60436480	27065288	24992
220	0.803239	90624000	60436480	28412328	24992
221	0.794241	90624000	60436480	13314912	24992
222	0.792225	90624000	60436480	14661968	24992
223	0.780444	90624000	60436480	16009008	24992
224	0.781986	90624000	60436480	17356048	24992
225	0.777662	90624000	60436480	18703088	24992
226	0.777359	90624000	60436480	20050128	24992
227	0.975408	90624000	60436480	21397168	24992
228	0.781785	90624000	60436480	22744208	24992
229	0.779793	90624000	60436480	24094128	24992
230	0.779319	90624000	60436480	25441168	24992
231	0.775679	90624000	60436480	26788208	24992
232	0.976465	90624000	60436480	28135248	24992
233	1.286626	90624000	60436480	13042688	24992
234	0.984137	90624000	60436480	14392408	24992
235	0.780986	90624000	60436480	15739512	24992
236	0.787004	90624000	60436480	17086552	24992
237	0.777089	90624000	60436480	18433592	24992
238	0.775689	90624000	60436480	19780632	24992
239	0.792876	90624000	60436480	21127672	24992
240	0.783837	90624000	60436480	22474712	24992
241	0.774985	90624000	60436480	23821752	24992
242	0.795221	90624000	60436480	25168840	24992
243	0.780816	90624000	60436480	26515880	24992
244	0.973554	90624000	60436480	27862920	24992
245	1.052319	90624000	60436480	12770576	24992
246	0.795973	90624000	60436480	14117624	24992
247	0.778937	90624000	60436480	15464664	24992
248	0.783422	90624000	60436480	16811736	24992
249	0.791223	90624000	60436480	18158776	24992
250	0.78037	90624000	60436480	19505816	24992
251	0.777797	90624000	60436480	20852856	24992
252	0.786809	90624000	60436480	22199896	24992
253	0.778424	90624000	60436480	23546968	24992
254	0.789849	90624000	60436480	24894008	24992
255	0.776017	90624000	60436480	26241048	24992
256	0.777689	90624000	60436480	27588088	24992
257	0.780913	90624000	60436480	28935128	24992
258	0.805343	90624000	60436480	13838088	24992
259	0.810988	90624000	60436480	15185128	24992
260	0.777686	90624000	60436480	16532168	24992
261	0.780926	90624000	60436480	17879208	24992
262	0.783145	90624000	60436480	19226248	24992
263	0.773853	90624000	60436480	20573288	24992
264	0.83786	90624000	60436480	21920328	24992
265	0.776516	90624000	60436480	23267368	24992
266	0.780031	90624000	60436480	24614424	24992
267	0.791658	90624000	60436480	25961464	24992
268	0.779652	90624000	60436480	27308504	24992
269	0.838184	90624000	60436480	28656128	24992
270	0.79539	90624000	60436480	13559080	24992
271	0.968674	90624000	60436480	14906120	24992
272	0.782621	90624000	60436480	16253168	24992
273	0.779447	90624000	60436480	17600216	24992
274	0.778564	90624000	60436480	18947256	24992
275	0.783126	90624000	60436480	20294296	24992
276	0.783809	90624000	60436480	21641336	24992
277	0.776639	90624000	60436480	22988376	24992
278	0.775302	90624000	60436480	24335416	24992
279	0.78359	90624000	60436480	25682488	24992
280	0.793888	90624000	60436480	27029528	24992
281	0.836735	90624000	60436480	28378528	24992
282	1.057054	90624000	60436480	13283312	24992
283	0.816682	90624000	60436480	14630352	24992
284	0.797264	90624000	60436480	15977392	24992
285	0.794046	90624000	60436480	17324432	24992
286	0.806525	90624000	60436480	18671520	24992
287	0.777985	90624000	60436480	20018560	24992
288	0.857231	90624000	60436480	21365600	24992
289	0.778225	90624000	60436480	22712640	24992
290	0.781736	90624000	60436480	24059680	24992
291	0.793356	90624000	60436480	25406720	24992
292	0.797893	90624000	60436480	26753760	24992
293	0.98605	90624000	60436480	28100800	24992
294	1.067519	90624000	60436480	13005208	24992
295	0.786374	90624000	60436480	14352256	24992
296	0.779438	90624000	60436480	15699296	24992
297	0.810892	90624000	60436480	17046336	24992
298	0.789029	90624000	60436480	18393376	24992
299	0.773053	90624000	60436480	19740416	24992
300	0.775836	90624000	60436480	21087456	24992
301	0.775743	90624000	60436480	22434496	24992
302	0.783948	90624000	60436480	23781536	24992
303	0.783515	90624000	60436480	25128632	24992
304	0.780935	90624000	60436480	26475680	24992
305	0.775697	90624000	60436480	27822720	24992
306	0.781882	90624000	60436480	29169760	24992
307	0.947807	90624000	60436480	14072352	24992
308	0.840382	90624000	60436480	15421496	24992
309	0.780743	90624000	60436480	16768536	24992
310	0.788569	90624000	60436480	18115608	24992
311	0.776288	90624000	60436480	19462648	24992
312	0.780198	90624000	60436480	20809688	24992
313	0.809577	90624000	60436480	22156728	24992
314	0.775685	90624000	60436480	23503768	24992
315	0.788101	90624000	60436480	24850808	24992
316	0.783645	90624000	60436480	26197848	24992
317	0.778444	90624000	60436480	27545080	24992
318	0.947497	90624000	60436480	28893136	24992
319	0.812368	90624000	60436480	13795720	24992
320	0.84713	90624000	60436480	15142760	24992
321	0.788338	90624000	60436480	16489800	24992
322	0.774833	90624000	60436480	17836840	24992
323	0.77945	90624000	60436480	19183896	24992
324	0.777966	90624000	60436480	20530936	24992
325	0.780299	90624000	60436480	21877976	24992
326	0.781247	90624000	60436480	23225016	24992
327	0.775085	90624000	60436480	24572056	24992
328	0.776563	90624000	60436480	25919096	24992
329	0.772122	90624000	60436480	27266136	24992
330	0.980999	90624000	60436480	28613176	24992
331	1.054629	90624000	60436480	13517592	24992
332	0.794903	90624000	60436480	14864632	24992
333	0.777809	90624000	60436480	16211672	24992
334	0.794382	90624000	60436480	17558712	24992
335	0.956731	90624000	60436480	18905752	24992
336	0.820488	90624000	60436480	20252856	24992
337	1.068296	90624000	60436480	21599896	24992
338	0.777486	90624000	60436480	22946936	24992
339	0.775426	90624000	60436480	24293976	24992
340	0.784332	90624000	60436480	25641016	24992
341	0.78181	90624000	60436480	26988392	24992
342	0.83551	90624000	60436480	28335432	24992
343	1.059782	90624000	60436480	13239840	24992
344	0.77905	90624000	60436480	14586888	24992
345	0.7842	90624000	60436480	15933928	24992
346	0.777775	90624000	60436480	17280968	24992
347	0.803121	90624000	60436480	18628008	24992
348	0.774901	90624000	60436480	19975048	24992
349	0.778259	90624000	60436480	21322088	24992
350	0.774323	90624000	60436480	22669128	24992
351	0.77363	90624000	60436480	24016168	24992
352	0.968512	90624000	60436480	25363208	24992
353	0.78396	90624000	60436480	26710248	24992
354	0.782077	90624000	60436480	28057320	24992
355	0.780098	90624000	60436480	29404360	24992
356	0.792149	90624000	60436480	14306952	24992
357	0.77709	90624000	60436480	15653992	24992
358	0.773836	90624000	60436480	17001032	24992
359	0.95137	90624000	60436480	18348072	24992
360	0.779298	90624000	60436480	19699624	24992
361	0.784152	90624000	60436480	21046664	24992
362	0.775817	90624000	60436480	22393704	24992
363	0.777679	90624000	60436480	23740744	24992
364	0.782558	90624000	60436480	25087784	24992
365	0.796838	90624000	60436480	26434824	24992
366	0.774997	90624000	60436480	27781864	24992
367	0.81132	90624000	60436480	29129032	24992
368	0.790958	90624000	60436480	14036064	24992
369	0.845995	90624000	60436480	15383104	24992
370	0.775211	90624000	60436480	16730144	24992
371	0.779389	90624000	60436480	18077184	24992
372	0.803466	90624000	60436480	19424224	24992
373	0.775745	90624000	60436480	20771264	24992
374	1.07365	90624000	60436480	22118336	24992
375	0.779056	90624000	60436480	23465376	24992
376	0.775258	90624000	60436480	24812416	24992
377	0.783579	90624000	60436480	26159456	24992
378	0.775789	90624000	60436480	27506496	24992
379	0.828827	90624000	60436480	28853536	24992
380	1.059172	90624000	60436480	13762400	24992
381	0.967464	90624000	60436480	15109440	24992
382	0.779938	90624000	60436480	16456480	24992
383	0.778072	90624000	60436480	17803520	24992
384	0.775989	90624000	60436480	19150560	24992
385	0.774625	90624000	60436480	20497600	24992
386	0.781935	90624000	60436480	21844640	24992
387	0.777615	90624000	60436480	23191680	24992
388	0.774907	90624000	60436480	24538720	24992
389	0.813753	90624000	60436480	25885760	24992
390	0.775018	90624000	60436480	27232800	24992
391	0.792538	90624000	60436480	28579856	24992
392	1.061899	90624000	60436480	13484264	24992
393	0.78484	90624000	60436480	14831392	24992
394	0.777522	90624000	60436480	16178432	24992
395	0.774494	90624000	60436480	17525472	24992
396	0.789455	90624000	60436480	18872512	24992
397	0.783751	90624000	60436480	20219552	24992
398	0.777978	90624000	60436480	21566624	24992
399	0.781943	90624000	60436480	22913664	24992
400	0.774461	90624000	60436480	24260704	24992
401	0.783337	90624000	60436480	25607744	24992
402	0.77436	90624000	60436480	26954784	24992
403	0.777237	90624000	60436480	28301824	24992
404	0.803239	90624000	60436480	29648864	24992
405	0.785392	90624000	60436480	14549360	24992
406	0.787761	90624000	60436480	15896400	24992
407	0.77447	90624000	60436480	17243440	24992
408	0.777425	90624000	60436480	18590480	24992
409	0.776462	90624000	60436480	19937520	24992
410	0.781554	90624000	60436480	21284560	24992
411	0.97462	90624000	60436480	22631600	24992
412	0.784891	90624000	60436480	23978640	24992
413	0.776133	90624000	60436480	25325680	24992
414	0.777852	90624000	60436480	26672720	24992
415	0.776198	90624000	60436480	28019760	24992
416	0.792887	90624000	60436480	29366800	24992
417	0.791822	90624000	60436480	14269384	24992
418	0.778835	90624000	60436480	15616440	24992
419	0.781211	90624000	60436480	16963480	24992
420	0.775859	90624000	60436480	18310520	24992
421	0.787086	90624000	60436480	19657560	24992
422	0.776467	90624000	60436480	21004600	24992
423	0.773546	90624000	60436480	22351640	24992
424	0.775563	90624000	60436480	23698760	24992
425	0.773786	90624000	60436480	25045800	24992
426	0.802183	90624000	60436480	26392840	24992
427	0.775513	90624000	60436480	27739880	24992
428	0.77757	90624000	60436480	29086920	24992
429	1.073494	90624000	60436480	13987480	24992
430	0.776612	90624000	60436480	15334520	24992
431	0.786168	90624000	60436480	16681608	24992
432	0.776388	90624000	60436480	18028648	24992
433	0.776782	90624000	60436480	19375688	24992
434	0.788244	90624000	60436480	20722728	24992
435	0.777651	90624000	60436480	22069768	24992
436	0.784126	90624000	60436480	23416808	24992
437	0.774257	90624000	60436480	24763848	24992
438	0.780823	90624000	60436480	26110888	24992
439	0.772979	90624000	60436480	27457928	24992
440	0.775102	90624000	60436480	28804968	24992
441	1.251016	90624000	60436480	13709376	24992
442	0.787687	90624000	60436480	15056416	24992
443	0.785845	90624000	60436480	16403456	24992
444	0.778965	90624000	60436480	17750496	24992
445	0.774563	90624000	60436480	19097536	24992
446	0.788106	90624000	60436480	20444576	24992
447	0.775963	90624000	60436480	21791616	24992
448	0.77582	90624000	60436480	23138656	24992
449	0.781797	90624000	60436480	24485712	24992
450	0.776563	90624000	60436480	25832752	24992
451	0.787481	90624000	60436480	27179792	24992
452	0.775576	90624000	60436480	28526832	24992
453	1.063119	90624000	60436480	13430576	24992
454	0.782952	90624000	60436480	14777624	24992
455	0.785235	90624000	60436480	16124664	24992
456	0.807899	90624000	60436480	17471704	24992
457	0.780615	90624000	60436480	18818744	24992
458	0.807525	90624000	60436480	20165784	24992
459	0.781573	90624000	60436480	21512824	24992
460	0.774663	90624000	60436480	22859864	24992
461	0.772961	90624000	60436480	24206904	24992
462	0.775241	90624000	60436480	25553944	24992
463	0.779494	90624000	60436480	26900984	24992
464	0.774845	90624000	60436480	28248024	24992
465	0.777717	90624000	60436480	29595064	24992
466	0.798169	90624000	60436480	14497640	24992
467	0.778271	90624000	60436480	15844680	24992
468	0.785669	90624000	60436480	17191720	24992
469	0.776489	90624000	60436480	18538760	24992
470	0.785149	90624000	60436480	19885800	24992
471	0.966328	90624000	60436480	21232840	24992
472	0.782049	90624000	60436480	22579880	24992
473	0.786802	90624000	60436480	23926936	24992
474	0.774985	90624000	60436480	25273976	24992
475	0.961934	90624000	60436480	26621016	24992
476	0.777659	90624000	60436480	27968056	24992
477	0.777905	90624000	60436480	29315096	24992
478	0.99572	90624000	60436480	14217680	24992
479	0.789574	90624000	60436480	15564720	24992
480	0.77682	90624000	60436480	16911760	24992
481	0.777211	90624000	60436480	18258800	24992
482	0.773162	90624000	60436480	19605840	24992
483	0.823184	90624000	60436480	20952880	24992
484	0.774571	90624000	60436480	22299920	24992
485	0.774796	90624000	60436480	23646960	24992
486	0.77787	90624000	60436480	24994032	24992
487	0.776565	90624000	60436480	26341072	24992
488	0.785018	90624000	60436480	27688112	24992
489	0.780593	90624000	60436480	29035152	24992
490	1.064288	90624000	60436480	13939560	24992
491	0.788314	90624000	60436480	15286608	24992
492	0.825949	90624000	60436480	16635408	24992
493	0.959295	90624000	60436480	17982456	24992
494	0.778301	90624000	60436480	19329496	24992
495	0.803222	90624000	60436480	20676536	24992
496	0.778491	90624000	60436480	22023576	24992
497	0.774472	90624000	60436480	23370616	24992
498	0.775796	90624000	60436480	24717656	24992
499	0.780421	90624000	60436480	26064744	24992
500	0.773361	90624000	60436480	27411784	24992
501	0.780799	90624000	60436480	28758824	24992
502	1.060521	90624000	60436480	13663232	24992
503	0.787806	90624000	60436480	15010280	24992
504	0.774157	90624000	60436480	16357320	24992
505	0.782717	90624000	60436480	17704360	24992
506	0.777888	90624000	60436480	19051448	24992
507	0.77265	90624000	60436480	20398488	24992
508	0.781153	90624000	60436480	21745528	24992
509	0.774841	90624000	60436480	23092568	24992
510	0.789989	90624000	60436480	24439608	24992
511	0.772587	90624000	60436480	25786648	24992
512	0.773314	90624000	60436480	27133688	24992
513	0.779377	90624000	60436480	28480728	24992
514	0.783574	90624000	60436480	29827768	24992
515	0.966981	90624000	60436480	14730344	24992
516	0.780972	90624000	60436480	16077384	24992
517	0.783094	90624000	60436480	17424424	24992
518	0.776186	90624000	60436480	18771464	24992
519	0.774694	90624000	60436480	20118504	24992
520	0.781291	90624000	60436480	21465544	24992
521	0.783221	90624000	60436480	22812584	24992
522	0.774564	90624000	60436480	24159624	24992
523	0.964783	90624000	60436480	25506664	24992
524	0.781578	90624000	60436480	26853752	24992
525	0.826842	90624000	60436480	28200792	24992
526	0.774134	90624000	60436480	29547832	24992
527	0.791304	90624000	60436480	14450416	24992
528	0.784227	90624000	60436480	15797456	24992
529	0.776021	90624000	60436480	17144496	24992
530	0.852379	90624000	60436480	18492016	24992
531	0.775284	90624000	60436480	19839056	24992
532	0.77558	90624000	60436480	21186096	24992
533	0.775629	90624000	60436480	22533136	24992
534	0.779859	90624000	60436480	23880176	24992
535	0.810537	90624000	60436480	25227216	24992
536	0.777011	90624000	60436480	26574256	24992
537	0.773803	90624000	60436480	27921360	24992
538	0.804066	90624000	60436480	29268400	24992
539	1.06142	90624000	60436480	14172808	24992
540	0.795176	90624000	60436480	15519856	24992
541	0.774756	90624000	60436480	16866896	24992
542	0.775594	90624000	60436480	18213936	24992
543	0.776198	90624000	60436480	19560976	24992
544	0.783794	90624000	60436480	20908016	24992
545	0.972402	90624000	60436480	22255056	24992
546	0.776087	90624000	60436480	23602096	24992
547	0.773721	90624000	60436480	24949136	24992
548	0.780161	90624000	60436480	26296176	24992
549	0.772892	90624000	60436480	27643216	24992
550	0.783917	90624000	60436480	28990256	24992
551	1.058115	90624000	60436480	13894664	24992
552	0.783883	90624000	60436480	15241712	24992
553	0.779929	90624000	60436480	16588752	24992
554	0.776031	90624000	60436480	17935792	24992
555	0.781221	90624000	60436480	19282832	24992
556	0.774097	90624000	60436480	20636672	24992
557	0.778218	90624000	60436480	21983712	24992
558	0.777072	90624000	60436480	23330752	24992
559	0.773653	90624000	60436480	24677792	24992
560	0.971389	90624000	60436480	26024832	24992
561	0.783053	90624000	60436480	27371872	24992
562	0.773703	90624000	60436480	28718912	24992
563	0.776444	90624000	60436480	30065952	24992
564	0.789838	90624000	60436480	14975328	24992
565	0.792836	90624000	60436480	16322368	24992
566	0.774945	90624000	60436480	17669408	24992
567	0.776927	90624000	60436480	19016448	24992
568	0.822776	90624000	60436480	20363488	24992
569	0.775903	90624000	60436480	21710624	24992
570	0.779319	90624000	60436480	23057664	24992
571	0.776994	90624000	60436480	24404704	24992
572	0.773025	90624000	60436480	25751744	24992
573	0.77514	90624000	60436480	27098784	24992
574	0.776097	90624000	60436480	28445904	24992
575	0.789139	90624000	60436480	29792944	24992
576	0.815032	90624000	60436480	14702328	24992
577	0.799058	90624000	60436480	16049368	24992
578	0.794282	90624000	60436480	17396408	24992
579	0.792008	90624000	60436480	18743448	24992
580	0.800051	90624000	60436480	20090488	24992
581	0.79501	90624000	60436480	21437528	24992
582	0.980028	90624000	60436480	22784568	24992
583	0.776205	90624000	60436480	24131608	24992
584	0.778422	90624000	60436480	25478648	24992
585	0.774798	90624000	60436480	26825688	24992
586	0.776523	90624000	60436480	28172728	24992
587	0.784452	90624000	60436480	29519848	24992
588	1.064783	90624000	60436480	14424256	24992
589	0.781495	90624000	60436480	15771304	24992
590	0.79547	90624000	60436480	17118344	24992
591	0.782296	90624000	60436480	18465384	24992
592	0.78505	90624000	60436480	19812424	24992
593	0.774104	90624000	60436480	21159464	24992
594	0.773314	90624000	60436480	22506536	24992
595	0.776831	90624000	60436480	23853576	24992
596	0.773487	90624000	60436480	25200616	24992
597	0.961929	90624000	60436480	26547656	24992
598	0.77719	90624000	60436480	27894696	24992
599	0.777175	90624000	60436480	29241736	24992
600	1.05907	90624000	60436480	14146144	24992
601	0.785004	90624000	60436480	15493192	24992
602	0.787735	90624000	60436480	16840232	24992
603	0.777604	90624000	60436480	18187272	24992
604	0.77293	90624000	60436480	19534312	24992
605	0.78185	90624000	60436480	20881352	24992
606	0.772215	90624000	60436480	22228392	24992
607	0.787729	90624000	60436480	23575432	24992
608	0.77221	90624000	60436480	24922472	24992
609	0.784714	90624000	60436480	26269512	24992
610	0.775758	90624000	60436480	27616552	24992
611	0.776807	90624000	60436480	28963592	24992
612	0.938736	90624000	60436480	30310632	24992
613	0.797504	90624000	60436480	15213224	24992
614	0.775116	90624000	60436480	16560264	24992
615	0.779365	90624000	60436480	17907304	24992
616	0.775915	90624000	60436480	19254344	24992
617	0.796264	90624000	60436480	20601384	24992
618	0.781127	90624000	60436480	21948440	24992
619	0.772255	90624000	60436480	23295480	24992
620	0.794604	90624000	60436480	24642520	24992
621	0.774842	90624000	60436480	25989560	24992
622	0.792322	90624000	60436480	27336600	24992
623	0.774492	90624000	60436480	28683640	24992
624	0.774979	90624000	60436480	30030680	24992
625	0.807258	90624000	60436480	14933408	24992
626	0.797683	90624000	60436480	16280448	24992
627	1.00183	90624000	60436480	17627488	24992
628	0.77963	90624000	60436480	18974528	24992
629	0.776209	90624000	60436480	20321568	24992
630	0.968504	90624000	60436480	21668608	24992
631	0.782322	90624000	60436480	23015648	24992
632	0.777878	90624000	60436480	24362688	24992
633	0.778195	90624000	60436480	25709728	24992
634	0.774374	90624000	60436480	27056768	24992
635	0.784448	90624000	60436480	28403808	24992
636	0.775381	90624000	60436480	29750848	24992
637	1.125512	90624000	60436480	14655312	24992
638	0.780645	90624000	60436480	16002352	24992
639	0.782949	90624000	60436480	17349392	24992
640	0.781008	90624000	60436480	18696432	24992
641	0.776528	90624000	60436480	20043472	24992
642	0.779073	90624000	60436480	21390512	24992
643	0.771699	90624000	60436480	22737552	24992
644	0.84222	90624000	60436480	24084608	24992
645	0.779441	90624000	60436480	25431648	24992
646	0.77537	90624000	60436480	26778688	24992
647	0.783814	90624000	60436480	28125728	24992
648	0.772291	90624000	60436480	29472768	24992
649	1.239199	90624000	60436480	14377240	24992
650	0.779229	90624000	60436480	15724288	24992
651	0.780665	90624000	60436480	17071424	24992
652	0.773847	90624000	60436480	18418464	24992
653	0.776593	90624000	60436480	19765504	24992
654	0.782061	90624000	60436480	21112544	24992
655	0.783738	90624000	60436480	22459584	24992
656	0.772935	90624000	60436480	23806624	24992
657	0.807922	90624000	60436480	25153664	24992
658	0.772298	90624000	60436480	26500704	24992
659	0.78559	90624000	60436480	27847744	24992
660	0.775605	90624000	60436480	29194784	24992
661	0.776135	90624000	60436480	30541824	24992
662	0.793759	90624000	60436480	15444416	24992
663	0.78103	90624000	60436480	16791456	24992
664	0.958135	90624000	60436480	18138496	24992
665	0.77575	90624000	60436480	19485536	24992
666	0.77335	90624000	60436480	20832576	24992
667	0.781021	90624000	60436480	22179616	24992
668	0.774524	90624000	60436480	23526656	24992
669	0.786625	90624000	60436480	24873696	24992
670	0.773519	90624000	60436480	26220736	24992
671	0.791656	90624000	60436480	27567776	24992
672	0.801437	90624000	60436480	28914816	24992
673	0.775401	90624000	60436480	30261856	24992
674	0.797616	90624000	60436480	15164440	24992
675	0.77869	90624000	60436480	16511816	24992
676	0.781976	90624000	60436480	17858856	24992
677	0.775425	90624000	60436480	19205896	24992
678	0.773941	90624000	60436480	20552936	24992
679	0.863549	90624000	60436480	21899976	24992
680	0.776498	90624000	60436480	23247016	24992
681	0.771422	90624000	60436480	24594056	24992
682	0.83122	90624000	60436480	25941160	24992
683	0.774906	90624000	60436480	27288200	24992
684	0.83545	90624000	60436480	28635240	24992
685	0.773174	90624000	60436480	29982280	24992
686	1.072929	90624000	60436480	14886696	24992
687	0.783029	90624000	60436480	16233736	24992
688	0.779869	90624000	60436480	17580968	24992
689	0.826491	90624000	60436480	18928008	24992
690	0.782033	90624000	60436480	20275048	24992
691	0.775559	90624000	60436480	21622088	24992
692	0.801127	90624000	60436480	22969128	24992
693	0.772329	90624000	60436480	24316168	24992
694	0.855529	90624000	60436480	25663208	24992
695	0.776267	90624000	60436480	27010248	24992
696	0.773484	90624000	60436480	28357288	24992
697	0.775201	90624000	60436480	29704328	24992
698	1.069568	90624000	60436480	14608736	24992
699	0.788818	90624000	60436480	15955784	24992
700	0.778434	90624000	60436480	17302824	24992
701	0.77601	90624000	60436480	18649880	24992
702	0.781983	90624000	60436480	19996920	24992
703	0.778201	90624000	60436480	21343960	24992
704	0.776226	90624000	60436480	22691000	24992
705	0.775549	90624000	60436480	24038040	24992
706	0.822257	90624000	60436480	25385080	24992
707	0.782062	90624000	60436480	26732120	24992
708	0.777525	90624000	60436480	28079160	24992
709	0.954808	90624000	60436480	29426200	24992
710	0.776391	90624000	60436480	30773240	24992
711	0.87162	90624000	60436480	15675832	24992
712	0.777692	90624000	60436480	17022872	24992
713	0.778329	90624000	60436480	18369912	24992
714	0.776044	90624000	60436480	19716952	24992
715	0.78136	90624000	60436480	21063992	24992
716	0.970619	90624000	60436480	22411032	24992
717	0.78066	90624000	60436480	23758072	24992
718	0.776722	90624000	60436480	25105112	24992
719	0.779659	90624000	60436480	26452152	24992
720	0.775366	90624000	60436480	27799192	24992
721	0.784492	90624000	60436480	29146232	24992
722	0.774886	90624000	60436480	30493272	24992
723	0.796314	90624000	60436480	15395856	24992
724	0.778083	90624000	60436480	16742896	24992
725	0.776855	90624000	60436480	18089936	24992
726	0.78544	90624000	60436480	19437008	24992
727	0.775712	90624000	60436480	20784048	24992
728	0.777266	90624000	60436480	22131088	24992
729	0.779573	90624000	60436480	23478128	24992
730	0.77531	90624000	60436480	24825168	24992
731	0.957481	90624000	60436480	26172208	24992
732	0.774284	90624000	60436480	27519248	24992
733	0.785497	90624000	60436480	28866288	24992
734	0.776084	90624000	60436480	30213328	24992
735	1.062779	90624000	60436480	15117744	24992
736	0.788558	90624000	60436480	16464784	24992
737	0.778439	90624000	60436480	17811824	24992
738	0.773781	90624000	60436480	19158864	24992
739	0.78123	90624000	60436480	20505904	24992
740	0.774487	90624000	60436480	21852944	24992
741	0.785154	90624000	60436480	23199984	24992
742	0.774832	90624000	60436480	24547024	24992
743	0.780135	90624000	60436480	25894096	24992
744	0.775915	90624000	60436480	27241136	24992
745	0.779124	90624000	60436480	28588176	24992
746	0.987527	90624000	60436480	29935216	24992
747	1.061906	90624000	60436480	14839624	24992
748	0.846485	90624000	60436480	16186672	24992
749	0.784053	90624000	60436480	17533712	24992
750	0.778499	90624000	60436480	18880864	24992
751	0.798488	90624000	60436480	20227904	24992
752	0.781328	90624000	60436480	21574944	24992
753	0.946396	90624000	60436480	22921984	24992
754	0.822661	90624000	60436480	24269024	24992
755	0.776498	90624000	60436480	25616064	24992
756	0.809608	90624000	60436480	26963104	24992
757	0.777295	90624000	60436480	28310240	24992
758	0.836937	90624000	60436480	29657280	24992
759	0.774765	90624000	60436480	31004320	24992
760	0.792811	90624000	60436480	15906912	24992
761	0.777726	90624000	60436480	17253952	24992
762	0.780857	90624000	60436480	18600992	24992
763	0.797466	90624000	60436480	19948048	24992
764	0.774718	90624000	60436480	21295088	24992
765	0.775427	90624000	60436480	22642128	24992
766	0.774966	90624000	60436480	23989168	24992
767	0.778579	90624000	60436480	25336208	24992
768	0.957454	90624000	60436480	26683248	24992
769	0.777177	90624000	60436480	28030288	24992
770	0.77408	90624000	60436480	29377328	24992
771	0.777852	90624000	60436480	30724368	24992
772	0.808465	90624000	60436480	15626952	24992
773	0.80618	90624000	60436480	16973992	24992
774	0.79277	90624000	60436480	18321032	24992
775	0.797003	90624000	60436480	19668072	24992
776	0.792538	90624000	60436480	21015184	24992
777	0.780506	90624000	60436480	22362224	24992
778	0.781791	90624000	60436480	23709264	24992
779	0.818726	90624000	60436480	25065336	24992
780	0.797567	90624000	60436480	26412376	24992
781	0.797951	90624000	60436480	27762240	24992
782	0.792939	90624000	60436480	29109280	24992
783	0.777365	90624000	60436480	30456320	24992
784	1.274746	90624000	60436480	15371232	24992
785	0.782923	90624000	60436480	16718272	24992
786	0.778745	90624000	60436480	18065312	24992
787	0.783932	90624000	60436480	19412352	24992
788	0.778497	90624000	60436480	20759392	24992
789	0.772386	90624000	60436480	22106432	24992
790	0.782064	90624000	60436480	23453472	24992
791	0.772712	90624000	60436480	24800512	24992
792	0.79353	90624000	60436480	26147552	24992
793	0.775086	90624000	60436480	27494592	24992
794	0.772959	90624000	60436480	28841632	24992
795	0.773183	90624000	60436480	30188672	24992
796	1.105546	90624000	60436480	15128448	24992
797	0.793731	90624000	60436480	16475496	24992
798	0.780564	90624000	60436480	17822536	24992
799	0.775843	90624000	60436480	19169576	24992
800	0.776783	90624000	60436480	20516616	24992
801	0.773702	90624000	60436480	21863656	24992
802	0.785939	90624000	60436480	23210728	24992
803	0.772678	90624000	60436480	24557768	24992
804	0.774725	90624000	60436480	25904808	24992
805	0.778463	90624000	60436480	27251848	24992
806	0.778262	90624000	60436480	28598888	24992
807	0.785698	90624000	60436480	29945944	24992
808	0.774645	90624000	60436480	31292984	24992
809	0.791556	90624000	60436480	16245960	24992
810	0.778844	90624000	60436480	17593016	24992
811	0.773659	90624000	60436480	18940056	24992
812	0.970523	90624000	60436480	20287096	24992
813	0.781758	90624000	60436480	21634136	24992
814	0.77632	90624000	60436480	22981176	24992
815	0.774221	90624000	60436480	24328264	24992
816	0.779986	90624000	60436480	25675304	24992
817	0.780407	90624000	60436480	27022344	24992
818	0.774821	90624000	60436480	28369384	24992
819	0.772478	90624000	60436480	29716424	24992
820	0.78428	90624000	60436480	31063464	24992
821	0.806582	90624000	60436480	16016432	24992
822	0.808617	90624000	60436480	17363472	24992
823	0.792709	90624000	60436480	18710512	24992
824	0.802486	90624000	60436480	20057552	24992
825	0.782365	90624000	60436480	21404592	24992
826	0.779996	90624000	60436480	22751632	24992
827	0.803291	90624000	60436480	24098672	24992
828	0.781873	90624000	60436480	25445744	24992
829	0.799939	90624000	60436480	26792784	24992
830	0.775419	90624000	60436480	28139824	24992
831	0.776581	90624000	60436480	29486864	24992
832	0.780854	90624000	60436480	30833904	24992
833	0.792202	90624000	60436480	15785840	24992
834	0.984636	90624000	60436480	17132880	24992
835	0.775539	90624000	60436480	18479920	24992
836	0.774026	90624000	60436480	19826976	24992
837	0.984532	90624000	60436480	21174032	24992
838	0.784983	90624000	60436480	22521072	24992
839	0.786179	90624000	60436480	23870520	24992
840	0.774949	90624000	60436480	25217368	24992
841	0.774189	90624000	60436480	26564216	24992
842	0.783767	90624000	60436480	27911064	24992
843	0.774337	90624000	60436480	29257912	24992
844	0.788337	90624000	60436480	30604760	24992
845	1.180654	90624000	60436480	15560120	24992
846	0.811141	90624000	60436480	16906968	24992
847	0.78956	90624000	60436480	18253816	24992
848	0.790505	90624000	60436480	19600664	24992
849	0.801822	90624000	60436480	20947512	24992
850	0.792818	90624000	60436480	22304696	24992
851	0.800469	90624000	60436480	23651544	24992
852	0.794701	90624000	60436480	24998392	24992
853	0.788898	90624000	60436480	26345240	24992
854	0.792934	90624000	60436480	27692088	24992
855	0.790749	90624000	60436480	29038936	24992
856	0.988041	90624000	60436480	30385848	24992
857	1.187028	90624000	60436480	15351544	24992
858	0.807641	90624000	60436480	16698400	24992
859	0.792551	90624000	60436480	18045248	24992
860	0.793239	90624000	60436480	19392096	24992
861	0.796509	90624000	60436480	20738944	24992
862	0.776999	90624000	60436480	22085792	24992
863	0.788374	90624000	60436480	23432640	24992
864	0.778943	90624000	60436480	24779488	24992
865	0.771341	90624000	60436480	26126336	24992
866	0.775625	90624000	60436480	27473184	24992
867	0.773459	90624000	60436480	28820032	24992
868	0.789654	90624000	60436480	30166880	24992
869	0.772608	90624000	60436480	31513728	24992
870	0.794548	90624000	60436480	16476840	24992
871	0.784879	90624000	60436480	17823688	24992
872	0.774679	90624000	60436480	19170536	24992
873	0.784148	90624000	60436480	20517384	24992
874	0.772217	90624000	60436480	21864232	24992
875	0.778874	90624000	60436480	23211080	24992
876	0.771358	90624000	60436480	24558064	24992
877	0.792629	90624000	60436480	25904920	24992
878	0.974781	90624000	60436480	27251768	24992
879	0.77247	90624000	60436480	28598616	24992
880	0.839575	90624000	60436480	29945552	24992
881	0.782807	90624000	60436480	31292400	24992
882	0.83892	90624000	60436480	16245320	24992
883	0.777675	90624000	60436480	17592168	24992
884	0.77805	90624000	60436480	18939016	24992
885	0.787649	90624000	60436480	20301608	24992
886	0.774089	90624000	60436480	21648440	24992
887	0.795794	90624000	60436480	22995272	24992
888	0.774971	90624000	60436480	24342104	24992
889	0.7807	90624000	60436480	25688936	24992
890	0.774798	90624000	60436480	27035768	24992
891	0.7776	90624000	60436480	28382600	24992
892	0.772256	90624000	60436480	29729432	24992
893	0.803129	90624000	60436480	31076264	24992
894	1.260749	90624000	60436480	16031176	24992
895	0.793914	90624000	60436480	17378008	24992
896	0.790519	90624000	60436480	18724840	24992
897	0.799848	90624000	60436480	20071672	24992
898	0.791776	90624000	60436480	21418536	24992
899	0.792638	90624000	60436480	22765368	24992
900	0.782864	90624000	60436480	24112200	24992
901	0.774562	90624000	60436480	25459032	24992
902	0.781336	90624000	60436480	26805864	24992
903	0.77652	90624000	60436480	28152696	24992
904	0.773709	90624000	60436480	29499528	24992
905	0.772505	90624000	60436480	30846360	24992
906	1.250186	90624000	60436480	15800696	24992
907	0.781762	90624000	60436480	17147536	24992
908	0.775655	90624000	60436480	18494368	24992
909	0.783536	90624000	60436480	19841200	24992
910	0.772192	90624000	60436480	21188032	24992
911	0.774694	90624000	60436480	22534864	24992
912	0.779464	90624000	60436480	23881696	24992
913	0.773926	90624000	60436480	25228528	24992
914	0.79279	90624000	60436480	26575360	24992
915	0.774383	90624000	60436480	27922192	24992
916	0.774046	90624000	60436480	29269024	24992
917	0.81895	90624000	60436480	30615872	24992
918	0.779882	90624000	60436480	31962704	24992
919	0.808522	90624000	60436480	16914128	24992
920	0.776389	90624000	60436480	18260960	24992
921	0.771793	90624000	60436480	19607792	24992
922	0.815151	90624000	60436480	20954624	24992
923	0.77611	90624000	60436480	22301456	24992
924	0.783306	90624000	60436480	23648288	24992
925	0.775078	90624000	60436480	24995120	24992
926	0.771512	90624000	60436480	26341952	24992
927	0.774523	90624000	60436480	27688784	24992
928	0.770087	90624000	60436480	29035616	24992
929	0.771435	90624000	60436480	30382448	24992
930	0.782466	90624000	60436480	31729296	24992
931	0.790803	90624000	60436480	16680712	24992
932	0.783834	90624000	60436480	18027592	24992
933	0.774211	90624000	60436480	19374424	24992
934	1.026866	90624000	60436480	20721256	24992
935	0.77559	90624000	60436480	22068088	24992
936	0.777925	90624000	60436480	23414920	24992
937	0.967748	90624000	60436480	24761752	24992
938	0.774281	90624000	60436480	26108600	24992
939	0.773354	90624000	60436480	27455432	24992
940	0.774383	90624000	60436480	28802264	24992
941	0.771686	90624000	60436480	30149096	24992
942	0.771144	90624000	60436480	31495928	24992
943	1.335563	90624000	60436480	16444760	24992
944	0.785914	90624000	60436480	17791608	24992
945	0.776923	90624000	60436480	19138440	24992
946	0.782023	90624000	60436480	20485272	24992
947	0.773869	90624000	60436480	21832104	24992
948	0.774284	90624000	60436480	23178936	24992
949	0.773099	90624000	60436480	24525768	24992
950	0.771097	90624000	60436480	25872600	24992
951	0.997826	90624000	60436480	27219432	24992
952	0.775385	90624000	60436480	28566264	24992
953	0.774887	90624000	60436480	29913096	24992
954	0.776034	90624000	60436480	31259928	24992
955	1.317413	90624000	60436480	16214120	24992
956	0.779845	90624000	60436480	17560960	24992
957	0.780427	90624000	60436480	18907792	24992
958	0.775224	90624000	60436480	20254624	24992
959	0.78107	90624000	60436480	21601456	24992
960	0.772937	90624000	60436480	22948288	24992
961	0.782343	90624000	60436480	24295120	24992
962	0.774102	90624000	60436480	25641952	24992
963	0.777942	90624000	60436480	26988784	24992
964	0.775145	90624000	60436480	28335632	24992
965	0.771142	90624000	60436480	29682464	24992
966	0.786436	90624000	60436480	31029296	24992
967	1.319207	90624000	60436480	15982824	24992
968	0.788751	90624000	60436480	17329664	24992
969	0.777152	90624000	60436480	18676496	24992
970	0.775977	90624000	60436480	20023328	24992
971	0.774214	90624000	60436480	21370160	24992
972	0.7716	90624000	60436480	22716992	24992
973	0.786561	90624000	60436480	24063824	24992
974	0.775886	90624000	60436480	25410656	24992
975	0.771559	90624000	60436480	26757488	24992
976	0.774938	90624000	60436480	28104320	24992
977	0.774504	90624000	60436480	29451216	24992
978	0.771818	90624000	60436480	30798048	24992
979	0.772847	90624000	60436480	32144880	24992
980	0.793402	90624000	60436480	17096304	24992
981	0.781212	90624000	60436480	18443136	24992
982	0.782803	90624000	60436480	19789968	24992
983	0.783818	90624000	60436480	21136800	24992
984	0.779504	90624000	60436480	22483632	24992
985	0.772707	90624000	60436480	23830528	24992
986	0.77939	90624000	60436480	25177360	24992
987	0.771939	90624000	60436480	26524192	24992
988	0.968359	90624000	60436480	27871024	24992
989	0.818026	90624000	60436480	29217856	24992
990	0.815922	90624000	60436480	30564784	24992
991	0.821618	90624000	60436480	31911616	24992
992	0.834447	90624000	60436480	16863032	24992
993	0.819204	90624000	60436480	18209864	24992
994	0.814477	90624000	60436480	19556696	24992
995	0.830805	90624000	60436480	20903528	24992
996	0.816573	90624000	60436480	22250360	24992
997	0.819408	90624000	60436480	23597192	24992
998	0.818488	90624000	60436480	24944072	24992
999	0.81884	90624000	60436480	26290904	24992
1000	0.827262	90624000	60436480	27637736	24992
