x	Duration	RSS	HeapTotal	HeapUsed	External
0	NA	92844032	62533632	11569056	24992
1	1.043205	92844032	62533632	12249120	24992
2	1.776477	92844032	62533632	13587496	24992
3	0.878542	92844032	62533632	15591216	24992
4	0.884192	92844032	62533632	16938680	24992
5	0.797635	92844032	62533632	18286144	24992
6	0.765768	92844032	62533632	19633608	24992
7	0.941492	92844032	62533632	20981200	24992
8	0.771189	92844032	62533632	22328664	24992
9	0.763775	92844032	62533632	23676128	24992
10	0.766766	92844032	62533632	25023592	24992
11	0.763747	92844032	62533632	26371056	24992
12	0.966325	92844032	62533632	27718536	24992
13	0.799537	92844032	62533632	12603808	24992
14	0.795048	92844032	62533632	13951368	24992
15	0.782384	92844032	62533632	15298832	24992
16	0.824963	92844032	62533632	16646296	24992
17	0.771953	92844032	62533632	17993760	24992
18	0.771776	92844032	62533632	19341224	24992
19	0.777985	92844032	62533632	20689040	24992
20	0.76337	92844032	62533632	22036536	24992
21	0.778377	92844032	62533632	23384000	24992
22	0.769087	92844032	62533632	24731464	24992
23	0.762535	92844032	62533632	26078928	24992
24	0.77446	92844032	62533632	27426392	24992
25	1.030242	92844032	62533632	12329112	24992
26	0.797453	92844032	62533632	13676576	24992
27	0.773981	92844032	62533632	15024072	24992
28	0.761587	92844032	62533632	16371536	24992
29	0.758984	92844032	62533632	17719000	24992
30	0.764583	92844032	62533632	19066464	24992
31	0.776743	92844032	62533632	20413928	24992
32	0.764119	92844032	62533632	21761392	24992
33	0.760797	92844032	62533632	23108856	24992
34	0.768254	92844032	62533632	24456320	24992
35	0.76725	92844032	62533632	25803784	24992
36	0.768069	92844032	62533632	27151248	24992
37	1.011702	92844032	62533632	12057416	24992
38	0.794666	92844032	62533632	13404880	24992
39	0.787125	92844032	62533632	14752344	24992
40	0.792963	92844032	62533632	16099808	24992
41	0.770005	92844032	62533632	17447272	24992
42	0.784346	92844032	62533632	18794736	24992
43	0.773268	92844032	62533632	20142200	24992
44	0.766565	92844032	62533632	21489736	24992
45	0.762041	92844032	62533632	22837864	24992
46	0.764595	92844032	62533632	24185328	24992
47	0.762521	92844032	62533632	25532792	24992
48	0.97262	92844032	62533632	26880256	24992
49	0.997527	92844032	62533632	11786072	24992
50	0.778347	92844032	62533632	13133528	24992
51	0.76174	92844032	62533632	14481056	24992
52	0.761673	92844032	62533632	15828520	24992
53	0.765521	92844032	62533632	17175984	24992
54	0.762391	92844032	62533632	18523448	24992
55	0.772043	92844032	62533632	19870912	24992
56	0.761768	92844032	62533632	21218376	24992
57	0.763205	92844032	62533632	22565840	24992
58	0.766648	92844032	62533632	23913304	24992
59	0.76059	92844032	62533632	25260768	24992
60	0.773155	92844032	62533632	26608232	24992
61	0.764452	92844032	62533632	27955696	24992
62	0.79789	92844032	62533632	12860408	24992
63	0.777707	92844032	62533632	14207872	24992
64	0.765351	92844032	62533632	15555336	24992
65	0.769286	92844032	62533632	16902800	24992
66	0.760905	92844032	62533632	18250264	24992
67	0.761953	92844032	62533632	19597728	24992
68	0.770395	92844032	62533632	20945192	24992
69	0.764185	92844032	62533632	22292656	24992
70	0.962041	92844032	62533632	23640120	24992
71	0.763471	92844032	62533632	24987712	24992
72	0.784062	92844032	62533632	26335176	24992
73	0.763192	92844032	62533632	27682640	24992
74	0.796186	92844032	62533632	12586680	24992
75	0.784545	92844032	62533632	13934144	24992
76	0.785679	92844032	62533632	15281608	24992
77	0.978772	92844032	62533632	16629120	24992
78	0.769177	92844032	62533632	17976584	24992
79	0.770231	92844032	62533632	19324048	24992
80	0.763048	92844032	62533632	20671704	24992
81	0.779867	92844032	62533632	22020336	24992
82	0.773618	92844032	62533632	23367712	24992
83	0.774323	92844032	62533632	24715088	24992
84	0.779298	92844032	62533632	26063600	24992
85	0.768827	92844032	62533632	27410976	24992
86	1.002021	92844032	62533632	12317552	24992
87	0.770489	92844032	62533632	13664928	24992
88	0.760204	92844032	62533632	15012304	24992
89	0.772711	92844032	62533632	16359680	24992
90	0.781839	92844032	62533632	17707104	24992
91	0.77116	92844032	62533632	19054480	24992
92	0.777647	92844032	62533632	20401856	24992
93	0.766948	92844032	62533632	21749232	24992
94	0.76615	92844032	62533632	23096608	24992
95	0.766397	92844032	62533632	24443984	24992
96	0.771817	92844032	62533632	25791360	24992
97	0.770863	92844032	62533632	27138736	24992
98	1.001283	92844032	62533632	12044640	24992
99	0.774821	92844032	62533632	13392024	24992
100	0.763583	92844032	62533632	14739400	24992
101	0.770822	92844032	62533632	16086776	24992
102	0.784909	92844032	62533632	17434152	24992
103	0.765933	92844032	62533632	18781576	24992
104	0.769899	92844032	62533632	20128952	24992
105	0.769245	92844032	62533632	21476328	24992
106	0.969772	92844032	62533632	22823704	24992
107	0.767028	92844032	62533632	24171080	24992
108	0.760615	92844032	62533632	25518488	24992
109	0.765923	92844032	62533632	26865864	24992
110	0.759477	92844032	62533632	28213240	24992
111	0.782562	92844032	62533632	13115784	24992
112	0.764087	92844032	62533632	14463160	24992
113	0.778952	92844032	62533632	15810536	24992
114	0.763076	92844032	62533632	17157912	24992
115	0.762419	92844032	62533632	18505288	24992
116	0.764009	92844032	62533632	19852664	24992
117	0.761989	92844032	62533632	21200040	24992
118	0.770079	92844032	62533632	22547416	24992
119	0.761743	92844032	62533632	23894792	24992
120	0.76376	92844032	62533632	25242168	24992
121	0.770456	92844032	62533632	26589560	24992
122	0.764198	92844032	62533632	27936936	24992
123	0.783645	92844032	62533632	12839488	24992
124	0.765011	92844032	62533632	14186864	24992
125	0.774072	92844032	62533632	15534240	24992
126	0.769873	92844032	62533632	16881616	24992
127	0.765391	92844032	62533632	18229000	24992
128	0.798191	92844032	62533632	19576384	24992
129	0.761127	92844032	62533632	20923760	24992
130	0.769743	92844032	62533632	22271136	24992
131	0.761562	92844032	62533632	23618512	24992
132	0.759018	92844032	62533632	24965888	24992
133	0.760282	92844032	62533632	26313264	24992
134	0.762595	92844032	62533632	27660656	24992
135	1.213895	92844032	62533632	12565032	24992
136	0.77018	92844032	62533632	13912416	24992
137	0.810272	92844032	62533632	15259792	24992
138	0.761871	92844032	62533632	16607168	24992
139	1.545003	92844032	62533632	17954560	24992
140	0.772632	92844032	62533632	19301936	24992
141	0.766713	92844032	62533632	20649440	24992
142	0.910483	92844032	62533632	21998656	24992
143	0.764016	92844032	62533632	23359976	24992
144	0.768436	92844032	62533632	24707352	24992
145	0.756679	92844032	62533632	26054728	24992
146	0.75471	92844032	62533632	27402104	24992
147	1.008257	92844032	62533632	12308712	24992
148	0.781995	92844032	62533632	13656088	24992
149	0.968834	92844032	62533632	15003464	24992
150	0.759001	92844032	62533632	16350840	24992
151	0.765227	92844032	62533632	17698216	24992
152	0.759295	92844032	62533632	19045592	24992
153	0.754567	92844032	62533632	20392968	24992
154	1.056497	92844032	62533632	21740408	24992
155	0.764105	92844032	62533632	23087784	24992
156	0.969864	92844032	62533632	24435160	24992
157	0.760664	92844032	62533632	25786416	24992
158	0.753537	92844032	62533632	27133456	24992
159	0.756945	92844032	62533632	28480496	24992
160	0.769589	92844032	62533632	13385016	24992
161	0.791047	92844032	62533632	14732056	24992
162	0.785444	92844032	62533632	16079096	24992
163	0.923061	92844032	62533632	17426136	24992
164	0.755499	92844032	62533632	18773176	24992
165	0.761526	92844032	62533632	20120216	24992
166	0.75873	92844032	62533632	21467256	24992
167	0.753671	92844032	62533632	22814296	24992
168	0.762853	92844032	62533632	24161336	24992
169	0.757046	92844032	62533632	25508376	24992
170	0.759407	92844032	62533632	26855416	24992
171	0.783463	92844032	62533632	28202456	24992
172	0.786114	92844032	62533632	13105056	24992
173	0.786095	92844032	62533632	14452112	24992
174	0.780207	92844032	62533632	15799152	24992
175	0.792045	92844032	62533632	17148888	24992
176	0.776031	92844032	62533632	18495928	24992
177	0.775648	92844032	62533632	19842968	24992
178	0.783327	92844032	62533632	21190056	24992
179	0.771234	92844032	62533632	22537096	24992
180	0.780522	92844032	62533632	23884136	24992
181	0.760185	92844032	62533632	25231176	24992
182	0.759124	92844032	62533632	26578216	24992
183	0.756844	92844032	62533632	27925256	24992
184	1.0286	92844032	62533632	12829672	24992
185	0.955385	92844032	62533632	14176712	24992
186	0.761459	92844032	62533632	15523752	24992
187	0.761426	92844032	62533632	16870792	24992
188	0.760425	92844032	62533632	18217832	24992
189	0.757943	92844032	62533632	19564872	24992
190	0.753945	92844032	62533632	20911912	24992
191	0.756789	92844032	62533632	22259064	24992
192	0.756452	92844032	62533632	23606104	24992
193	0.759425	92844032	62533632	24953144	24992
194	0.775515	92844032	62533632	26301008	24992
195	0.763159	92844032	62533632	27648048	24992
196	1.012995	92844032	62533632	12552456	24992
197	0.76806	92844032	62533632	13899608	24992
198	0.757811	92844032	62533632	15246656	24992
199	0.756858	92844032	62533632	16593696	24992
200	0.761375	92844032	62533632	17940736	24992
201	0.754199	92844032	62533632	19287776	24992
202	0.767157	92844032	62533632	20634816	24992
203	0.759384	92844032	62533632	21981856	24992
204	0.751485	92844032	62533632	23328896	24992
205	0.754257	92844032	62533632	24675936	24992
206	0.754009	92844032	62533632	26022976	24992
207	0.946806	92844032	62533632	27370016	24992
208	0.754766	92844032	62533632	28717056	24992
209	0.797765	92844032	62533632	13619648	24992
210	0.775149	92844032	62533632	14966688	24992
211	0.773144	92844032	62533632	16313744	24992
212	0.774628	92844032	62533632	17660784	24992
213	0.77326	92844032	62533632	19007824	24992
214	0.788938	92844032	62533632	20354864	24992
215	0.777441	92844032	62533632	21701904	24992
216	0.773259	92844032	62533632	23048944	24992
217	0.77484	92844032	62533632	24395984	24992
218	0.771507	92844032	62533632	25743024	24992
219	0.78809	92844032	62533632	27090064	24992
220	0.769992	92844032	62533632	28437104	24992
221	0.802925	92844032	62533632	13339688	24992
222	0.761784	92844032	62533632	14686728	24992
223	0.761649	92844032	62533632	16033768	24992
224	0.756482	92844032	62533632	17380808	24992
225	0.75573	92844032	62533632	18727848	24992
226	0.762335	92844032	62533632	20074888	24992
227	0.755714	92844032	62533632	21421928	24992
228	0.752925	92844032	62533632	22768968	24992
229	0.788015	92844032	62533632	24118920	24992
230	0.750684	92844032	62533632	25465960	24992
231	0.761076	92844032	62533632	26813000	24992
232	0.752655	92844032	62533632	28160040	24992
233	1.023522	92844032	62533632	13067336	24992
234	0.788154	92844032	62533632	14414376	24992
235	0.757927	92844032	62533632	15761432	24992
236	0.77488	92844032	62533632	17108472	24992
237	0.773796	92844032	62533632	18455512	24992
238	0.772255	92844032	62533632	19802552	24992
239	1.044402	92844032	62533632	21152400	24992
240	0.758776	92844032	62533632	22499440	24992
241	0.760938	92844032	62533632	23846480	24992
242	0.756338	92844032	62533632	25193648	24992
243	0.929212	92844032	62533632	26540688	24992
244	0.754741	92844032	62533632	27887728	24992
245	1.02727	92844032	62533632	12795384	24992
246	0.759028	92844032	62533632	14142432	24992
247	0.75149	92844032	62533632	15489472	24992
248	0.761833	92844032	62533632	16836528	24992
249	0.75596	92844032	62533632	18183568	24992
250	0.75032	92844032	62533632	19530608	24992
251	0.759802	92844032	62533632	20877648	24992
252	0.751383	92844032	62533632	22224688	24992
253	0.764715	92844032	62533632	23571728	24992
254	0.752652	92844032	62533632	24918768	24992
255	0.771956	92844032	62533632	26265808	24992
256	0.757519	92844032	62533632	27612848	24992
257	0.756116	92844032	62533632	28959888	24992
258	0.790433	92844032	62533632	13862848	24992
259	0.944736	92844032	62533632	15209888	24992
260	0.804359	92844032	62533632	16556928	24992
261	0.755501	92844032	62533632	17904000	24992
262	0.751855	92844032	62533632	19251040	24992
263	0.764857	92844032	62533632	20598080	24992
264	0.753597	92844032	62533632	21945120	24992
265	0.949578	92844032	62533632	23292160	24992
266	0.755783	92844032	62533632	24639200	24992
267	0.767197	92844032	62533632	25986240	24992
268	0.755644	92844032	62533632	27333280	24992
269	0.78629	92844032	62533632	28680904	24992
270	0.789159	92844032	62533632	13583856	24992
271	0.771674	92844032	62533632	14930896	24992
272	0.961204	92844032	62533632	16277936	24992
273	0.757611	92844032	62533632	17624976	24992
274	0.755377	92844032	62533632	18972016	24992
275	0.754741	92844032	62533632	20319056	24992
276	0.749484	92844032	62533632	21666096	24992
277	0.804112	92844032	62533632	23013136	24992
278	0.758252	92844032	62533632	24360176	24992
279	0.903241	92844032	62533632	25707216	24992
280	0.762311	92844032	62533632	27056216	24992
281	0.753839	92844032	62533632	28403256	24992
282	1.041305	92844032	62533632	13308040	24992
283	0.811327	92844032	62533632	14655080	24992
284	0.776865	92844032	62533632	16002120	24992
285	0.754361	92844032	62533632	17349160	24992
286	0.750773	92844032	62533632	18696216	24992
287	0.756952	92844032	62533632	20043256	24992
288	0.756359	92844032	62533632	21390296	24992
289	0.768712	92844032	62533632	22737336	24992
290	0.759792	92844032	62533632	24084376	24992
291	0.750647	92844032	62533632	25431416	24992
292	0.753152	92844032	62533632	26778472	24992
293	0.749153	92844032	62533632	28125512	24992
294	1.058524	92844032	62533632	13029920	24992
295	0.773736	92844032	62533632	14376968	24992
296	0.779087	92844032	62533632	15724008	24992
297	0.771991	92844032	62533632	17071048	24992
298	0.773023	92844032	62533632	18418088	24992
299	0.771555	92844032	62533632	19765176	24992
300	0.766918	92844032	62533632	21112216	24992
301	0.961881	92844032	62533632	22459256	24992
302	0.761347	92844032	62533632	23806296	24992
303	0.754587	92844032	62533632	25153336	24992
304	0.752634	92844032	62533632	26500376	24992
305	0.749886	92844032	62533632	27847416	24992
306	0.799155	92844032	62533632	29194456	24992
307	0.78456	92844032	62533632	14097048	24992
308	1.069547	92844032	62533632	15444088	24992
309	0.80005	92844032	62533632	16793232	24992
310	0.756606	92844032	62533632	18140272	24992
311	0.756913	92844032	62533632	19487312	24992
312	0.753754	92844032	62533632	20834352	24992
313	0.778354	92844032	62533632	22181392	24992
314	0.748971	92844032	62533632	23528432	24992
315	0.746944	92844032	62533632	24875472	24992
316	0.888652	92844032	62533632	26223528	24992
317	0.757274	92844032	62533632	27570632	24992
318	0.76439	92844032	62533632	28917672	24992
319	0.782889	92844032	62533632	13820256	24992
320	0.781154	92844032	62533632	15167296	24992
321	0.769643	92844032	62533632	16514336	24992
322	0.769409	92844032	62533632	17861376	24992
323	0.784152	92844032	62533632	19208480	24992
324	0.754046	92844032	62533632	20555520	24992
325	0.760487	92844032	62533632	21902560	24992
326	0.753614	92844032	62533632	23249600	24992
327	0.758927	92844032	62533632	24596640	24992
328	0.749742	92844032	62533632	25943680	24992
329	0.748774	92844032	62533632	27290720	24992
330	0.922711	92844032	62533632	28637760	24992
331	1.043871	92844032	62533632	13542176	24992
332	0.775301	92844032	62533632	14889216	24992
333	0.771765	92844032	62533632	16236256	24992
334	0.771535	92844032	62533632	17583296	24992
335	0.759886	92844032	62533632	18930336	24992
336	0.75412	92844032	62533632	20277376	24992
337	0.763983	92844032	62533632	21624416	24992
338	0.752636	92844032	62533632	22971456	24992
339	0.750093	92844032	62533632	24318496	24992
340	0.757813	92844032	62533632	25665536	24992
341	0.752806	92844032	62533632	27012592	24992
342	0.756781	92844032	62533632	28359632	24992
343	1.034488	92844032	62533632	13264040	24992
344	0.782086	92844032	62533632	14611088	24992
345	0.761758	92844032	62533632	15958128	24992
346	0.753314	92844032	62533632	17305168	24992
347	0.758921	92844032	62533632	18652208	24992
348	0.750657	92844032	62533632	19999248	24992
349	0.749805	92844032	62533632	21346288	24992
350	0.754926	92844032	62533632	22693328	24992
351	0.749267	92844032	62533632	24040368	24992
352	0.945337	92844032	62533632	25387408	24992
353	0.756246	92844032	62533632	26734448	24992
354	0.753897	92844032	62533632	28081504	24992
355	0.75121	92844032	62533632	29428544	24992
356	0.783775	92844032	62533632	14331136	24992
357	0.771314	92844032	62533632	15678176	24992
358	0.77425	92844032	62533632	17025216	24992
359	0.782313	92844032	62533632	18372256	24992
360	0.77305	92844032	62533632	19723744	24992
361	0.77048	92844032	62533632	21070784	24992
362	0.761835	92844032	62533632	22417824	24992
363	0.74864	92844032	62533632	23764864	24992
364	0.76302	92844032	62533632	25111904	24992
365	0.750015	92844032	62533632	26458944	24992
366	0.749848	92844032	62533632	27805984	24992
367	0.956937	92844032	62533632	29153104	24992
368	0.771681	92844032	62533632	14060136	24992
369	0.761495	92844032	62533632	15407176	24992
370	0.755857	92844032	62533632	16754216	24992
371	0.755715	92844032	62533632	18101256	24992
372	0.753081	92844032	62533632	19448296	24992
373	0.750734	92844032	62533632	20795336	24992
374	0.966868	92844032	62533632	22142424	24992
375	0.755717	92844032	62533632	23489464	24992
376	0.752732	92844032	62533632	24836504	24992
377	0.752892	92844032	62533632	26183544	24992
378	0.752307	92844032	62533632	27530584	24992
379	0.788515	92844032	62533632	28877624	24992
380	1.048225	92844032	62533632	13786584	24992
381	0.784135	92844032	62533632	15133624	24992
382	0.779218	92844032	62533632	16480664	24992
383	0.773017	92844032	62533632	17827704	24992
384	0.770441	92844032	62533632	19174744	24992
385	0.770722	92844032	62533632	20521784	24992
386	0.783381	92844032	62533632	21868824	24992
387	0.769397	92844032	62533632	23215912	24992
388	0.763519	92844032	62533632	24562952	24992
389	0.76282	92844032	62533632	25909992	24992
390	0.751256	92844032	62533632	27257032	24992
391	0.75891	92844032	62533632	28604072	24992
392	1.038253	92844032	62533632	13508480	24992
393	0.757652	92844032	62533632	14855608	24992
394	0.757579	92844032	62533632	16202648	24992
395	0.752146	92844032	62533632	17549688	24992
396	0.943608	92844032	62533632	18896728	24992
397	0.751194	92844032	62533632	20243768	24992
398	0.763054	92844032	62533632	21590808	24992
399	0.753985	92844032	62533632	22937848	24992
400	0.748851	92844032	62533632	24284888	24992
401	0.802334	92844032	62533632	25631928	24992
402	0.754055	92844032	62533632	26978968	24992
403	0.749845	92844032	62533632	28326008	24992
404	0.750994	92844032	62533632	29673048	24992
405	0.815351	92844032	62533632	14576152	24992
406	0.757694	92844032	62533632	15923224	24992
407	0.75145	92844032	62533632	17270264	24992
408	0.764613	92844032	62533632	18617304	24992
409	0.748224	92844032	62533632	19964344	24992
410	0.747824	92844032	62533632	21311384	24992
411	0.962946	92844032	62533632	22658472	24992
412	0.751188	92844032	62533632	24005512	24992
413	0.758835	92844032	62533632	25352552	24992
414	0.74687	92844032	62533632	26699592	24992
415	0.754566	92844032	62533632	28046632	24992
416	0.752695	92844032	62533632	29393672	24992
417	0.781393	92844032	62533632	14296256	24992
418	0.965322	92844032	62533632	15643296	24992
419	0.756326	92844032	62533632	16990336	24992
420	0.754122	92844032	62533632	18337376	24992
421	0.752941	92844032	62533632	19684416	24992
422	0.749533	92844032	62533632	21031456	24992
423	0.76146	92844032	62533632	22378496	24992
424	0.756384	92844032	62533632	23725552	24992
425	0.748087	92844032	62533632	25072592	24992
426	0.756381	92844032	62533632	26419632	24992
427	0.749051	92844032	62533632	27766672	24992
428	0.765063	92844032	62533632	29113712	24992
429	0.785754	92844032	62533632	14013936	24992
430	0.826739	92844032	62533632	15360976	24992
431	0.796436	92844032	62533632	16708064	24992
432	0.797753	92844032	62533632	18055104	24992
433	0.759564	92844032	62533632	19402144	24992
434	0.75691	92844032	62533632	20749184	24992
435	0.807654	92844032	62533632	22096224	24992
436	0.749731	92844032	62533632	23443264	24992
437	0.752716	92844032	62533632	24790304	24992
438	0.748276	92844032	62533632	26137344	24992
439	0.752986	92844032	62533632	27484384	24992
440	1.054907	92844032	62533632	28831424	24992
441	1.03239	92844032	62533632	13735832	24992
442	0.780089	92844032	62533632	15082872	24992
443	0.768231	92844032	62533632	16429912	24992
444	0.770668	92844032	62533632	17776952	24992
445	0.770972	92844032	62533632	19123992	24992
446	0.764908	92844032	62533632	20471032	24992
447	0.834463	92844032	62533632	21818072	24992
448	0.761037	92844032	62533632	23165136	24992
449	0.751932	92844032	62533632	24512184	24992
450	0.756961	92844032	62533632	25859224	24992
451	0.754705	92844032	62533632	27206264	24992
452	0.757349	92844032	62533632	28553304	24992
453	1.050082	92844032	62533632	13457576	24992
454	0.775439	92844032	62533632	14804624	24992
455	0.763484	92844032	62533632	16151744	24992
456	0.755587	92844032	62533632	17498784	24992
457	0.762639	92844032	62533632	18845824	24992
458	0.749129	92844032	62533632	20192864	24992
459	0.752689	92844032	62533632	21539904	24992
460	0.751283	92844032	62533632	22886944	24992
461	0.74763	92844032	62533632	24233984	24992
462	0.944029	92844032	62533632	25581040	24992
463	0.751293	92844032	62533632	26928080	24992
464	0.778481	92844032	62533632	28275120	24992
465	0.750595	92844032	62533632	29622160	24992
466	0.82356	92844032	62533632	14524736	24992
467	0.75766	92844032	62533632	15871776	24992
468	0.749749	92844032	62533632	17218912	24992
469	0.933841	92844032	62533632	18565952	24992
470	0.751604	92844032	62533632	19912992	24992
471	0.748672	92844032	62533632	21260032	24992
472	0.753177	92844032	62533632	22607072	24992
473	0.754967	92844032	62533632	23954112	24992
474	0.757696	92844032	62533632	25301152	24992
475	0.750357	92844032	62533632	26648192	24992
476	0.748092	92844032	62533632	27995232	24992
477	0.778961	92844032	62533632	29342272	24992
478	0.784475	92844032	62533632	14244856	24992
479	0.785126	92844032	62533632	15591896	24992
480	0.767565	92844032	62533632	16938936	24992
481	0.766969	92844032	62533632	18285976	24992
482	0.772185	92844032	62533632	19633016	24992
483	0.766387	92844032	62533632	20980056	24992
484	0.771965	92844032	62533632	22327096	24992
485	0.77407	92844032	62533632	23674136	24992
486	0.776766	92844032	62533632	25021288	24992
487	0.931711	92844032	62533632	26368328	24992
488	0.757432	92844032	62533632	27715368	24992
489	0.754679	92844032	62533632	29062408	24992
490	1.03823	92844032	62533632	13966816	24992
491	0.973477	92844032	62533632	15313880	24992
492	0.761356	92844032	62533632	16662544	24992
493	0.752508	92844032	62533632	18009584	24992
494	0.752291	92844032	62533632	19356624	24992
495	0.755415	92844032	62533632	20703664	24992
496	0.800077	92844032	62533632	22050704	24992
497	0.75266	92844032	62533632	23397744	24992
498	0.748424	92844032	62533632	24744784	24992
499	0.755609	92844032	62533632	26091872	24992
500	0.769408	92844032	62533632	27438912	24992
501	0.776874	92844032	62533632	28785952	24992
502	1.043674	92844032	62533632	13690360	24992
503	0.836684	92844032	62533632	15037408	24992
504	0.754772	92844032	62533632	16384448	24992
505	0.747501	92844032	62533632	17731488	24992
506	0.760358	92844032	62533632	19078528	24992
507	0.748855	92844032	62533632	20425568	24992
508	0.800501	92844032	62533632	21772608	24992
509	0.750974	92844032	62533632	23119648	24992
510	0.752686	92844032	62533632	24466688	24992
511	0.748678	92844032	62533632	25813728	24992
512	0.749876	92844032	62533632	27160768	24992
513	0.947568	92844032	62533632	28507808	24992
514	0.758963	92844032	62533632	29854848	24992
515	0.791428	92844032	62533632	14757424	24992
516	0.771466	92844032	62533632	16104464	24992
517	0.77409	92844032	62533632	17451504	24992
518	0.768344	92844032	62533632	18798544	24992
519	0.770175	92844032	62533632	20145616	24992
520	0.95722	92844032	62533632	21492656	24992
521	0.755815	92844032	62533632	22839696	24992
522	0.752806	92844032	62533632	24186736	24992
523	0.762659	92844032	62533632	25533824	24992
524	0.750022	92844032	62533632	26880864	24992
525	0.763008	92844032	62533632	28227904	24992
526	0.752284	92844032	62533632	29574944	24992
527	0.830097	92844032	62533632	14477528	24992
528	0.757281	92844032	62533632	15824568	24992
529	0.75205	92844032	62533632	17171608	24992
530	0.770098	92844032	62533632	18518664	24992
531	0.754233	92844032	62533632	19865704	24992
532	0.774733	92844032	62533632	21212744	24992
533	0.749192	92844032	62533632	22559784	24992
534	0.748647	92844032	62533632	23906824	24992
535	0.778836	92844032	62533632	25253864	24992
536	0.753185	92844032	62533632	26600904	24992
537	0.931034	92844032	62533632	27948040	24992
538	0.76372	92844032	62533632	29295080	24992
539	1.057557	92844032	62533632	14199488	24992
540	0.761458	92844032	62533632	15546536	24992
541	0.754401	92844032	62533632	16893576	24992
542	0.942806	92844032	62533632	18240616	24992
543	0.753045	92844032	62533632	19587688	24992
544	0.750411	92844032	62533632	20934728	24992
545	0.759085	92844032	62533632	22281768	24992
546	0.751977	92844032	62533632	23628808	24992
547	0.755561	92844032	62533632	24975848	24992
548	0.751541	92844032	62533632	26322888	24992
549	0.751264	92844032	62533632	27669928	24992
550	0.752498	92844032	62533632	29016968	24992
551	1.02735	92844032	62533632	13921376	24992
552	0.761527	92844032	62533632	15268424	24992
553	0.75907	92844032	62533632	16615464	24992
554	0.807865	92844032	62533632	17962504	24992
555	0.750536	92844032	62533632	19309544	24992
556	0.746899	92844032	62533632	20663448	24992
557	0.752908	92844032	62533632	22010488	24992
558	0.762895	92844032	62533632	23357528	24992
559	0.757872	92844032	62533632	24704568	24992
560	0.749629	92844032	62533632	26051608	24992
561	0.749881	92844032	62533632	27398648	24992
562	0.752177	92844032	62533632	28745688	24992
563	0.933055	92844032	62533632	30092728	24992
564	0.957737	92844032	62533632	15002104	24992
565	0.752725	92844032	62533632	16349144	24992
566	0.764512	92844032	62533632	17696184	24992
567	0.747817	92844032	62533632	19043224	24992
568	0.746293	92844032	62533632	20390264	24992
569	0.777404	92844032	62533632	21737368	24992
570	0.748925	92844032	62533632	23084408	24992
571	0.759977	92844032	62533632	24431448	24992
572	0.750717	92844032	62533632	25778488	24992
573	0.748787	92844032	62533632	27125528	24992
574	0.756466	92844032	62533632	28472568	24992
575	0.748091	92844032	62533632	29819608	24992
576	0.776458	92844032	62533632	14728992	24992
577	0.749999	92844032	62533632	16076032	24992
578	0.75117	92844032	62533632	17423072	24992
579	0.753526	92844032	62533632	18770112	24992
580	0.749014	92844032	62533632	20117152	24992
581	0.756779	92844032	62533632	21464192	24992
582	0.748831	92844032	62533632	22811232	24992
583	0.746175	92844032	62533632	24158272	24992
584	0.748326	92844032	62533632	25505312	24992
585	0.748792	92844032	62533632	26852352	24992
586	0.920886	92844032	62533632	28199392	24992
587	0.75204	92844032	62533632	29546464	24992
588	1.075909	92844032	62533632	14450872	24992
589	0.754683	92844032	62533632	15797920	24992
590	0.75029	92844032	62533632	17144960	24992
591	0.758577	92844032	62533632	18492000	24992
592	0.750895	92844032	62533632	19839040	24992
593	0.744656	92844032	62533632	21186144	24992
594	0.760507	92844032	62533632	22533184	24992
595	0.745295	92844032	62533632	23880224	24992
596	0.763595	92844032	62533632	25227264	24992
597	0.75085	92844032	62533632	26574304	24992
598	0.750972	92844032	62533632	27921344	24992
599	0.749295	92844032	62533632	29268384	24992
600	1.03234	92844032	62533632	14172872	24992
601	0.96275	92844032	62533632	15519920	24992
602	0.757765	92844032	62533632	16866960	24992
603	0.762334	92844032	62533632	18214000	24992
604	0.754992	92844032	62533632	19561040	24992
605	0.749912	92844032	62533632	20908080	24992
606	0.751082	92844032	62533632	22255120	24992
607	0.749509	92844032	62533632	23602208	24992
608	0.752103	92844032	62533632	24949248	24992
609	0.754815	92844032	62533632	26296288	24992
610	0.752318	92844032	62533632	27643328	24992
611	0.771166	92844032	62533632	28990368	24992
612	0.749074	92844032	62533632	30337408	24992
613	0.792223	92844032	62533632	15240016	24992
614	0.767214	92844032	62533632	16587056	24992
615	0.770061	92844032	62533632	17934096	24992
616	0.761265	92844032	62533632	19281136	24992
617	0.752312	92844032	62533632	20628176	24992
618	0.758841	92844032	62533632	21975216	24992
619	0.753215	92844032	62533632	23322256	24992
620	0.748333	92844032	62533632	24669296	24992
621	0.750301	92844032	62533632	26016336	24992
622	0.745421	92844032	62533632	27363376	24992
623	0.969101	92844032	62533632	28710416	24992
624	0.750515	92844032	62533632	30057456	24992
625	0.779499	92844032	62533632	14960040	24992
626	0.774644	92844032	62533632	16307096	24992
627	0.779231	92844032	62533632	17654136	24992
628	0.762298	92844032	62533632	19001176	24992
629	0.752898	92844032	62533632	20348216	24992
630	0.750591	92844032	62533632	21695256	24992
631	0.758583	92844032	62533632	23042376	24992
632	0.7474	92844032	62533632	24389416	24992
633	0.757334	92844032	62533632	25736456	24992
634	0.746686	92844032	62533632	27083496	24992
635	0.759652	92844032	62533632	28430536	24992
636	0.74845	92844032	62533632	29777576	24992
637	1.043624	92844032	62533632	14681992	24992
638	0.778282	92844032	62533632	16029032	24992
639	0.753585	92844032	62533632	17376072	24992
640	0.782634	92844032	62533632	18723112	24992
641	0.751625	92844032	62533632	20070152	24992
642	0.747244	92844032	62533632	21417192	24992
643	0.75799	92844032	62533632	22764232	24992
644	0.749133	92844032	62533632	24111272	24992
645	0.944677	92844032	62533632	25458312	24992
646	0.750541	92844032	62533632	26805352	24992
647	0.750261	92844032	62533632	28152392	24992
648	0.756222	92844032	62533632	29499432	24992
649	1.032324	92844032	62533632	14403888	24992
650	0.78007	92844032	62533632	15750936	24992
651	0.751266	92844032	62533632	17098008	24992
652	0.808299	92844032	62533632	18445048	24992
653	0.755407	92844032	62533632	19792088	24992
654	0.751056	92844032	62533632	21139128	24992
655	0.75414	92844032	62533632	22486168	24992
656	0.756755	92844032	62533632	23833208	24992
657	0.944013	92844032	62533632	25180264	24992
658	0.7519	92844032	62533632	26527304	24992
659	0.749754	92844032	62533632	27874344	24992
660	0.749832	92844032	62533632	29221384	24992
661	0.755981	92844032	62533632	30568424	24992
662	0.770882	92844032	62533632	15471016	24992
663	0.753304	92844032	62533632	16818056	24992
664	0.86657	92844032	62533632	18165160	24992
665	0.752233	92844032	62533632	19512200	24992
666	0.750211	92844032	62533632	20859240	24992
667	0.775913	92844032	62533632	22206280	24992
668	0.749276	92844032	62533632	23553320	24992
669	0.796495	92844032	62533632	24900360	24992
670	0.747372	92844032	62533632	26247400	24992
671	0.748217	92844032	62533632	27594440	24992
672	0.7658	92844032	62533632	28941480	24992
673	0.748226	92844032	62533632	30288520	24992
674	0.987356	92844032	62533632	15191104	24992
675	0.766247	92844032	62533632	16538176	24992
676	0.75274	92844032	62533632	17885216	24992
677	0.749048	92844032	62533632	19232256	24992
678	0.748544	92844032	62533632	20579296	24992
679	0.824281	92844032	62533632	21926336	24992
680	0.748543	92844032	62533632	23273376	24992
681	0.747557	92844032	62533632	24620416	24992
682	0.753987	92844032	62533632	25967472	24992
683	0.747476	92844032	62533632	27314512	24992
684	0.806188	92844032	62533632	28661552	24992
685	0.747203	92844032	62533632	30008592	24992
686	1.078426	92844032	62533632	14913008	24992
687	0.754558	92844032	62533632	16260048	24992
688	0.750715	92844032	62533632	17607136	24992
689	0.784748	92844032	62533632	18954176	24992
690	0.749389	92844032	62533632	20301216	24992
691	0.757695	92844032	62533632	21648256	24992
692	0.750755	92844032	62533632	22995296	24992
693	0.749714	92844032	62533632	24342336	24992
694	0.746895	92844032	62533632	25689376	24992
695	0.74636	92844032	62533632	27036416	24992
696	0.762605	92844032	62533632	28383456	24992
697	0.753644	92844032	62533632	29730496	24992
698	1.046319	92844032	62533632	14634904	24992
699	0.774848	92844032	62533632	15981952	24992
700	0.768114	92844032	62533632	17328992	24992
701	0.8318	92844032	62533632	18676032	24992
702	0.75822	92844032	62533632	20023072	24992
703	0.869525	92844032	62533632	21370776	24992
704	0.75801	92844032	62533632	22717816	24992
705	0.758237	92844032	62533632	24064856	24992
706	0.800539	92844032	62533632	25411928	24992
707	0.75592	92844032	62533632	26758968	24992
708	0.752687	92844032	62533632	28106008	24992
709	0.749981	92844032	62533632	29453048	24992
710	0.745923	92844032	62533632	30800088	24992
711	0.795623	92844032	62533632	15702680	24992
712	0.7548	92844032	62533632	17049720	24992
713	0.758549	92844032	62533632	18396760	24992
714	0.75227	92844032	62533632	19743800	24992
715	0.753293	92844032	62533632	21090840	24992
716	0.944756	92844032	62533632	22437880	24992
717	0.752069	92844032	62533632	23784920	24992
718	0.765572	92844032	62533632	25131960	24992
719	0.757846	92844032	62533632	26479000	24992
720	0.749924	92844032	62533632	27826040	24992
721	0.751206	92844032	62533632	29173080	24992
722	0.747216	92844032	62533632	30520120	24992
723	0.792234	92844032	62533632	15422704	24992
724	0.769962	92844032	62533632	16769744	24992
725	0.766667	92844032	62533632	18116888	24992
726	0.764456	92844032	62533632	19463936	24992
727	0.751347	92844032	62533632	20810976	24992
728	0.750609	92844032	62533632	22158016	24992
729	0.748221	92844032	62533632	23505056	24992
730	0.749966	92844032	62533632	24852096	24992
731	0.747927	92844032	62533632	26199136	24992
732	0.746779	92844032	62533632	27546176	24992
733	0.940329	92844032	62533632	28893216	24992
734	0.760261	92844032	62533632	30240256	24992
735	1.062157	92844032	62533632	15144672	24992
736	0.777656	92844032	62533632	16491712	24992
737	0.77049	92844032	62533632	17838752	24992
738	0.773383	92844032	62533632	19185792	24992
739	0.771061	92844032	62533632	20532880	24992
740	0.787491	92844032	62533632	21879920	24992
741	0.767545	92844032	62533632	23226960	24992
742	0.769366	92844032	62533632	24574000	24992
743	0.776609	92844032	62533632	25921040	24992
744	0.768876	92844032	62533632	27268080	24992
745	0.762241	92844032	62533632	28615120	24992
746	0.750125	92844032	62533632	29962160	24992
747	1.053156	92844032	62533632	14866568	24992
748	0.759208	92844032	62533632	16213616	24992
749	0.751779	92844032	62533632	17560656	24992
750	0.750945	92844032	62533632	18907696	24992
751	0.752435	92844032	62533632	20254736	24992
752	0.75552	92844032	62533632	21601776	24992
753	0.74809	92844032	62533632	22948816	24992
754	0.748243	92844032	62533632	24295856	24992
755	0.942682	92844032	62533632	25642896	24992
756	0.754451	92844032	62533632	26989936	24992
757	0.773564	92844032	62533632	28337008	24992
758	0.750195	92844032	62533632	29684048	24992
759	0.74829	92844032	62533632	31031088	24992
760	0.778859	92844032	62533632	15933680	24992
761	0.771599	92844032	62533632	17280720	24992
762	0.958601	92844032	62533632	18627760	24992
763	0.76317	92844032	62533632	19975088	24992
764	0.753273	92844032	62533632	21322128	24992
765	0.748912	92844032	62533632	22669168	24992
766	0.748633	92844032	62533632	24016208	24992
767	0.762607	92844032	62533632	25363248	24992
768	0.748281	92844032	62533632	26710288	24992
769	0.748347	92844032	62533632	28057328	24992
770	0.752397	92844032	62533632	29404432	24992
771	0.75113	92844032	62533632	30751472	24992
772	0.828284	92844032	62533632	15654056	24992
773	0.758085	92844032	62533632	17001096	24992
774	0.817793	92844032	62533632	18348208	24992
775	0.749753	92844032	62533632	19695248	24992
776	0.776165	92844032	62533632	21042320	24992
777	0.798976	92844032	62533632	22398392	24992
778	0.758886	92844032	62533632	23745432	24992
779	0.777154	92844032	62533632	25092472	24992
780	0.769255	92844032	62533632	26439512	24992
781	0.988856	92844032	62533632	27789008	24992
782	0.750563	92844032	62533632	29136048	24992
783	0.750395	92844032	62533632	30483088	24992
784	1.077978	92844032	62533632	15402368	24992
785	0.774505	92844032	62533632	16749408	24992
786	0.770548	92844032	62533632	18096448	24992
787	0.769014	92844032	62533632	19443488	24992
788	0.780197	92844032	62533632	20790528	24992
789	0.767119	92844032	62533632	22137616	24992
790	0.785777	92844032	62533632	23484656	24992
791	0.779742	92844032	62533632	24831696	24992
792	0.759075	92844032	62533632	26178736	24992
793	0.759704	92844032	62533632	27525776	24992
794	0.750877	92844032	62533632	28872816	24992
795	0.749857	92844032	62533632	30219856	24992
796	1.090455	92844032	62533632	15164000	24992
797	0.77201	92844032	62533632	16511080	24992
798	0.792989	92844032	62533632	17858120	24992
799	0.757064	92844032	62533632	19205160	24992
800	0.760034	92844032	62533632	20552200	24992
801	0.748321	92844032	62533632	21899240	24992
802	0.752775	92844032	62533632	23246360	24992
803	0.748719	92844032	62533632	24593400	24992
804	0.751197	92844032	62533632	25940440	24992
805	0.992052	92844032	62533632	27287480	24992
806	0.749818	92844032	62533632	28634520	24992
807	0.748597	92844032	62533632	29981560	24992
808	0.757507	92844032	62533632	31328600	24992
809	0.783218	92844032	62533632	16281576	24992
810	0.778398	92844032	62533632	17628632	24992
811	0.766523	92844032	62533632	18975672	24992
812	0.766749	92844032	62533632	20322712	24992
813	0.762258	92844032	62533632	21669752	24992
814	0.751435	92844032	62533632	23016792	24992
815	0.762344	92844032	62533632	24363848	24992
816	0.749657	92844032	62533632	25710888	24992
817	0.752432	92844032	62533632	27057928	24992
818	0.749626	92844032	62533632	28404968	24992
819	0.747666	92844032	62533632	29752008	24992
820	0.763197	92844032	62533632	31099048	24992
821	0.784415	92844032	62533632	16052016	24992
822	0.777765	92844032	62533632	17399056	24992
823	0.768731	92844032	62533632	18746096	24992
824	0.767887	92844032	62533632	20093136	24992
825	0.770023	92844032	62533632	21440176	24992
826	0.765787	92844032	62533632	22787216	24992
827	0.944546	92844032	62533632	24134256	24992
828	0.756974	92844032	62533632	25481296	24992
829	0.753832	92844032	62533632	26828336	24992
830	0.752457	92844032	62533632	28175376	24992
831	0.749907	92844032	62533632	29522416	24992
832	0.78379	92844032	62533632	30869456	24992
833	0.787378	92844032	62533632	15821392	24992
834	0.769897	92844032	62533632	17168432	24992
835	0.764334	92844032	62533632	18515472	24992
836	0.753395	92844032	62533632	19862512	24992
837	0.963621	92844032	62533632	21209568	24992
838	0.764478	92844032	62533632	22556608	24992
839	0.76211	92844032	62533632	23906056	24992
840	0.754443	92844032	62533632	25252904	24992
841	0.747379	92844032	62533632	26599752	24992
842	0.833278	92844032	62533632	27946600	24992
843	0.748701	92844032	62533632	29293608	24992
844	0.803577	92844032	62533632	30640456	24992
845	1.152957	92844032	62533632	15595816	24992
846	0.801501	92844032	62533632	16942664	24992
847	0.751008	92844032	62533632	18289512	24992
848	0.747001	92844032	62533632	19636360	24992
849	0.79904	92844032	62533632	20983208	24992
850	0.753302	92844032	62533632	22340392	24992
851	0.785515	92844032	62533632	23687384	24992
852	0.747126	92844032	62533632	25034232	24992
853	0.752064	92844032	62533632	26381080	24992
854	0.766962	92844032	62533632	27727928	24992
855	0.745388	92844032	62533632	29074776	24992
856	0.936191	92844032	62533632	30421624	24992
857	1.174133	92844032	62533632	15387384	24992
858	0.75702	92844032	62533632	16734240	24992
859	0.748559	92844032	62533632	18081104	24992
860	0.750393	92844032	62533632	19427952	24992
861	0.798555	92844032	62533632	20774800	24992
862	0.750021	92844032	62533632	22121648	24992
863	0.749756	92844032	62533632	23468496	24992
864	0.752825	92844032	62533632	24815344	24992
865	0.766806	92844032	62533632	26162192	24992
866	0.754402	92844032	62533632	27509040	24992
867	0.749948	92844032	62533632	28855888	24992
868	0.916327	92844032	62533632	30202736	24992
869	0.747683	92844032	62533632	31549584	24992
870	0.778645	92844032	62533632	16512696	24992
871	0.756547	92844032	62533632	17859544	24992
872	0.755069	92844032	62533632	19206440	24992
873	0.767199	92844032	62533632	20553288	24992
874	0.751005	92844032	62533632	21900136	24992
875	0.919376	92844032	62533632	23246984	24992
876	0.751733	92844032	62533632	24593832	24992
877	0.748793	92844032	62533632	25940680	24992
878	0.751193	92844032	62533632	27287528	24992
879	0.745538	92844032	62533632	28634376	24992
880	0.809228	92844032	62533632	29981224	24992
881	0.751466	92844032	62533632	31328072	24992
882	0.817322	92844032	62533632	16280848	24992
883	0.752634	92844032	62533632	17627696	24992
884	0.749858	92844032	62533632	18974544	24992
885	0.775609	92844032	62533632	20321424	24992
886	0.748142	92844032	62533632	21668272	24992
887	0.763209	92844032	62533632	23015208	24992
888	0.752843	92844032	62533632	24362056	24992
889	0.808315	92844032	62533632	25708904	24992
890	0.75367	92844032	62533632	27055752	24992
891	0.750067	92844032	62533632	28402616	24992
892	0.756586	92844032	62533632	29765192	24992
893	0.75785	92844032	62533632	31112024	24992
894	1.263732	92844032	62533632	16067272	24992
895	0.766959	92844032	62533632	17414104	24992
896	0.806979	92844032	62533632	18760936	24992
897	0.76458	92844032	62533632	20107768	24992
898	0.750575	92844032	62533632	21454600	24992
899	0.775743	92844032	62533632	22801432	24992
900	0.749251	92844032	62533632	24148264	24992
901	0.755545	92844032	62533632	25495096	24992
902	0.754497	92844032	62533632	26841928	24992
903	0.746347	92844032	62533632	28188760	24992
904	0.750972	92844032	62533632	29535896	24992
905	0.74656	92844032	62533632	30882728	24992
906	1.440921	92844032	62533632	15837400	24992
907	0.75474	92844032	62533632	17184240	24992
908	0.744374	92844032	62533632	18531072	24992
909	0.752706	92844032	62533632	19877904	24992
910	0.746159	92844032	62533632	21224736	24992
911	0.765685	92844032	62533632	22571568	24992
912	0.753841	92844032	62533632	23918512	24992
913	0.746658	92844032	62533632	25265344	24992
914	0.756488	92844032	62533632	26612176	24992
915	0.746335	92844032	62533632	27959008	24992
916	0.760318	92844032	62533632	29305840	24992
917	0.74788	92844032	62533632	30652688	24992
918	0.748902	92844032	62533632	31999520	24992
919	0.781659	92844032	62533632	16950944	24992
920	0.766894	92844032	62533632	18297776	24992
921	0.790354	92844032	62533632	19644608	24992
922	0.751063	92844032	62533632	20991440	24992
923	0.751331	92844032	62533632	22338272	24992
924	0.758051	92844032	62533632	23685104	24992
925	0.751251	92844032	62533632	25032000	24992
926	0.758351	92844032	62533632	26378832	24992
927	0.746169	92844032	62533632	27725664	24992
928	0.751921	92844032	62533632	29072496	24992
929	0.947364	92844032	62533632	30419328	24992
930	0.746525	92844032	62533632	31766176	24992
931	0.791646	92844032	62533632	16717592	24992
932	0.767871	92844032	62533632	18064424	24992
933	0.763284	92844032	62533632	19411256	24992
934	0.809597	92844032	62533632	20758088	24992
935	0.76176	92844032	62533632	22104920	24992
936	0.947678	92844032	62533632	23451752	24992
937	0.752211	92844032	62533632	24798584	24992
938	0.75151	92844032	62533632	26145752	24992
939	0.748681	92844032	62533632	27492584	24992
940	0.748785	92844032	62533632	28839416	24992
941	0.757249	92844032	62533632	30186248	24992
942	0.747571	92844032	62533632	31533080	24992
943	0.989473	92844032	62533632	16481784	24992
944	0.753674	92844032	62533632	17828616	24992
945	0.747462	92844032	62533632	19175448	24992
946	0.757004	92844032	62533632	20522280	24992
947	0.750405	92844032	62533632	21869112	24992
948	0.755406	92844032	62533632	23215944	24992
949	0.754259	92844032	62533632	24562776	24992
950	0.7552	92844032	62533632	25909608	24992
951	0.946768	92844032	62533632	27256472	24992
952	0.74678	92844032	62533632	28603304	24992
953	0.761564	92844032	62533632	29950136	24992
954	0.799508	92844032	62533632	31296968	24992
955	1.29967	92844032	62533632	16251160	24992
956	0.769101	92844032	62533632	17598000	24992
957	0.769137	92844032	62533632	18944832	24992
958	0.931626	92844032	62533632	20291664	24992
959	0.755708	92844032	62533632	21638624	24992
960	0.751136	92844032	62533632	22985456	24992
961	0.756435	92844032	62533632	24332288	24992
962	0.747704	92844032	62533632	25679120	24992
963	0.751826	92844032	62533632	27025952	24992
964	0.753328	92844032	62533632	28372816	24992
965	0.745785	92844032	62533632	29719648	24992
966	0.768598	92844032	62533632	31066480	24992
967	1.312994	92844032	62533632	16020536	24992
968	0.776938	92844032	62533632	17367376	24992
969	0.772372	92844032	62533632	18714208	24992
970	0.769087	92844032	62533632	20061040	24992
971	0.758449	92844032	62533632	21407872	24992
972	0.750013	92844032	62533632	22754768	24992
973	1.04783	92844032	62533632	24101600	24992
974	0.75241	92844032	62533632	25448432	24992
975	0.746442	92844032	62533632	26795264	24992
976	0.747743	92844032	62533632	28142096	24992
977	0.749944	92844032	62533632	29488992	24992
978	0.758098	92844032	62533632	30835824	24992
979	0.751817	92844032	62533632	32182656	24992
980	0.767647	92844032	62533632	17134080	24992
981	0.758752	92844032	62533632	18480912	24992
982	0.748139	92844032	62533632	19827744	24992
983	0.768295	92844032	62533632	21174576	24992
984	0.748254	92844032	62533632	22521408	24992
985	0.75083	92844032	62533632	23868304	24992
986	0.747652	92844032	62533632	25215136	24992
987	0.747923	92844032	62533632	26561968	24992
988	0.792503	92844032	62533632	27908800	24992
989	0.748085	92844032	62533632	29255632	24992
990	0.751242	92844032	62533632	30602464	24992
991	0.749503	92844032	62533632	31949296	24992
992	0.78185	92844032	62533632	16900712	24992
993	0.773489	92844032	62533632	18247560	24992
994	0.764685	92844032	62533632	19594392	24992
995	0.765874	92844032	62533632	20941224	24992
996	0.757947	92844032	62533632	22288056	24992
997	0.752718	92844032	62533632	23634888	24992
998	0.751632	92844032	62533632	24981736	24992
999	0.748347	92844032	62533632	26328568	24992
1000	0.752931	92844032	62533632	27675400	24992
