x	Duration	RSS	HeapTotal	HeapUsed	External
0	NA	93364224	62533632	11528856	24992
1	2.039938	93364224	62533632	12208960	24992
2	3.566401	93364224	62533632	13547344	24992
3	0.776675	93364224	62533632	15551000	24992
4	0.807626	93364224	62533632	16898464	24992
5	0.771957	93364224	62533632	18245928	24992
6	0.766769	93364224	62533632	19593392	24992
7	0.790679	93364224	62533632	20940856	24992
8	0.773175	93364224	62533632	22288320	24992
9	0.97141	93364224	62533632	23635784	24992
10	0.772309	93364224	62533632	24983248	24992
11	0.769838	93364224	62533632	26330712	24992
12	0.7672	93364224	62533632	27678208	24992
13	0.804995	93364224	62533632	12562672	24992
14	0.805174	93364224	62533632	13910136	24992
15	0.792464	93364224	62533632	15257600	24992
16	0.790818	93364224	62533632	16605064	24992
17	0.779287	93364224	62533632	17952528	24992
18	0.777792	93364224	62533632	19300000	24992
19	0.777046	93364224	62533632	20647824	24992
20	0.771401	93364224	62533632	21995288	24992
21	0.771606	93364224	62533632	23342752	24992
22	0.769848	93364224	62533632	24690216	24992
23	0.766276	93364224	62533632	26037680	24992
24	0.826187	93364224	62533632	27385144	24992
25	1.031405	93364224	62533632	12292624	24992
26	0.976207	93364224	62533632	13640088	24992
27	0.776384	93364224	62533632	14987552	24992
28	0.839352	93364224	62533632	16335016	24992
29	0.769068	93364224	62533632	17682480	24992
30	0.827688	93364224	62533632	19029944	24992
31	1.11878	93364224	62533632	20377408	24992
32	0.77021	93364224	62533632	21724904	24992
33	0.789105	93364224	62533632	23072368	24992
34	0.767439	93364224	62533632	24419832	24992
35	0.767757	93364224	62533632	25767296	24992
36	0.824625	93364224	62533632	27114760	24992
37	1.016904	93364224	62533632	12020928	24992
38	1.000285	93364224	62533632	13368416	24992
39	0.77512	93364224	62533632	14715880	24992
40	0.775137	93364224	62533632	16063344	24992
41	0.768872	93364224	62533632	17410808	24992
42	0.767772	93364224	62533632	18758272	24992
43	0.777901	93364224	62533632	20105736	24992
44	0.772799	93364224	62533632	21453200	24992
45	0.973621	93364224	62533632	22801384	24992
46	0.77095	93364224	62533632	24148848	24992
47	0.812706	93364224	62533632	25496312	24992
48	0.805825	93364224	62533632	26843776	24992
49	1.045373	93364224	62533632	11748560	24992
50	0.833033	93364224	62533632	13096016	24992
51	0.776492	93364224	62533632	14443656	24992
52	0.770737	93364224	62533632	15791120	24992
53	0.783093	93364224	62533632	17138584	24992
54	0.770879	93364224	62533632	18486048	24992
55	0.795225	93364224	62533632	19833512	24992
56	0.768274	93364224	62533632	21180976	24992
57	0.776827	93364224	62533632	22528440	24992
58	0.771327	93364224	62533632	23875984	24992
59	0.767521	93364224	62533632	25223448	24992
60	0.995577	93364224	62533632	26570912	24992
61	0.768708	93364224	62533632	27918376	24992
62	0.812947	93364224	62533632	12823088	24992
63	0.789532	93364224	62533632	14170552	24992
64	0.798455	93364224	62533632	15518080	24992
65	0.775405	93364224	62533632	16865544	24992
66	0.771877	93364224	62533632	18213008	24992
67	0.99633	93364224	62533632	19560472	24992
68	0.770211	93364224	62533632	20907936	24992
69	0.771059	93364224	62533632	22255400	24992
70	0.772546	93364224	62533632	23602864	24992
71	0.77097	93364224	62533632	24950328	24992
72	0.774433	93364224	62533632	26297792	24992
73	0.771076	93364224	62533632	27645256	24992
74	0.785032	93364224	62533632	12549296	24992
75	0.774712	93364224	62533632	13896760	24992
76	0.770512	93364224	62533632	15244224	24992
77	0.778913	93364224	62533632	16591880	24992
78	0.769864	93364224	62533632	17939344	24992
79	0.771	93364224	62533632	19286808	24992
80	0.773837	93364224	62533632	20634464	24992
81	0.777743	93364224	62533632	21983096	24992
82	0.802719	93364224	62533632	23330472	24992
83	0.770723	93364224	62533632	24677848	24992
84	0.776766	93364224	62533632	26026360	24992
85	0.770682	93364224	62533632	27373736	24992
86	1.003114	93364224	62533632	12280312	24992
87	0.779749	93364224	62533632	13627688	24992
88	0.767512	93364224	62533632	14975064	24992
89	0.999942	93364224	62533632	16322440	24992
90	0.768044	93364224	62533632	17669880	24992
91	0.77449	93364224	62533632	19017256	24992
92	0.785557	93364224	62533632	20364712	24992
93	0.778344	93364224	62533632	21712088	24992
94	0.766641	93364224	62533632	23059464	24992
95	0.769312	93364224	62533632	24406888	24992
96	0.844628	93364224	62533632	25768208	24992
97	0.776975	93364224	62533632	27115584	24992
98	1.00662	93364224	62533632	12021856	24992
99	0.772222	93364224	62533632	13369240	24992
100	0.767	93364224	62533632	14716616	24992
101	0.815529	93364224	62533632	16063992	24992
102	0.763145	93364224	62533632	17411368	24992
103	0.759367	93364224	62533632	18758744	24992
104	0.772016	93364224	62533632	20106120	24992
105	0.771485	93364224	62533632	21453496	24992
106	0.874606	93364224	62533632	22800872	24992
107	0.774744	93364224	62533632	24149192	24992
108	0.765051	93364224	62533632	25496584	24992
109	0.764992	93364224	62533632	26843960	24992
110	0.808237	93364224	62533632	28191336	24992
111	0.799975	93364224	62533632	13094616	24992
112	0.76414	93364224	62533632	14441992	24992
113	0.77293	93364224	62533632	15789368	24992
114	0.764324	93364224	62533632	17136744	24992
115	0.758993	93364224	62533632	18484120	24992
116	0.762941	93364224	62533632	19831496	24992
117	0.762893	93364224	62533632	21178872	24992
118	0.954157	93364224	62533632	22526248	24992
119	0.766026	93364224	62533632	23873624	24992
120	0.764602	93364224	62533632	25221000	24992
121	0.983523	93364224	62533632	26568504	24992
122	0.7636	93364224	62533632	27915880	24992
123	0.786369	93364224	62533632	12819168	24992
124	0.762754	93364224	62533632	14166544	24992
125	0.763733	93364224	62533632	15513920	24992
126	0.764587	93364224	62533632	16861296	24992
127	0.7626	93364224	62533632	18208672	24992
128	0.772484	93364224	62533632	19556080	24992
129	0.764377	93364224	62533632	20903456	24992
130	0.762021	93364224	62533632	22250832	24992
131	0.761636	93364224	62533632	23598208	24992
132	0.761072	93364224	62533632	24945584	24992
133	0.968378	93364224	62533632	26292960	24992
134	0.765149	93364224	62533632	27640368	24992
135	0.996857	93364224	62533632	12545112	24992
136	0.76868	93364224	62533632	13892496	24992
137	0.76337	93364224	62533632	15239872	24992
138	0.777946	93364224	62533632	16587248	24992
139	0.763424	93364224	62533632	17934624	24992
140	0.767607	93364224	62533632	19282000	24992
141	0.773072	93364224	62533632	20629408	24992
142	0.764594	93364224	62533632	21978624	24992
143	0.773386	93364224	62533632	23326000	24992
144	0.765247	93364224	62533632	24673376	24992
145	0.763353	93364224	62533632	26020752	24992
146	0.764116	93364224	62533632	27368128	24992
147	1.002798	93364224	62533632	12274704	24992
148	0.831697	93364224	62533632	13622080	24992
149	0.774998	93364224	62533632	14969456	24992
150	0.836028	93364224	62533632	16316832	24992
151	0.773018	93364224	62533632	17664208	24992
152	0.768355	93364224	62533632	19011584	24992
153	0.774577	93364224	62533632	20358960	24992
154	0.769581	93364224	62533632	21706400	24992
155	1.102825	93364224	62533632	23053792	24992
156	0.822786	93364224	62533632	24405280	24992
157	0.769592	93364224	62533632	25752320	24992
158	0.768176	93364224	62533632	27099360	24992
159	0.759785	93364224	62533632	28446400	24992
160	0.803781	93364224	62533632	13350840	24992
161	0.779175	93364224	62533632	14697880	24992
162	0.784234	93364224	62533632	16044920	24992
163	0.772159	93364224	62533632	17391960	24992
164	0.763792	93364224	62533632	18739000	24992
165	0.769677	93364224	62533632	20086040	24992
166	0.761271	93364224	62533632	21433080	24992
167	0.757364	93364224	62533632	22780120	24992
168	0.758582	93364224	62533632	24127160	24992
169	0.756748	93364224	62533632	25474200	24992
170	0.994712	93364224	62533632	26821240	24992
171	0.761769	93364224	62533632	28168280	24992
172	0.786132	93364224	62533632	13070864	24992
173	0.762009	93364224	62533632	14417920	24992
174	0.770731	93364224	62533632	15764960	24992
175	0.784302	93364224	62533632	17114696	24992
176	0.759064	93364224	62533632	18461736	24992
177	0.979861	93364224	62533632	19808776	24992
178	0.762822	93364224	62533632	21155832	24992
179	0.760403	93364224	62533632	22502872	24992
180	0.76467	93364224	62533632	23849912	24992
181	0.757815	93364224	62533632	25196952	24992
182	0.767755	93364224	62533632	26543992	24992
183	0.758559	93364224	62533632	27891032	24992
184	1.025308	93364224	62533632	12795448	24992
185	0.771139	93364224	62533632	14142488	24992
186	0.760831	93364224	62533632	15489528	24992
187	0.770326	93364224	62533632	16836568	24992
188	0.762496	93364224	62533632	18183608	24992
189	0.758228	93364224	62533632	19530648	24992
190	0.760497	93364224	62533632	20877688	24992
191	0.756143	93364224	62533632	22224792	24992
192	0.818804	93364224	62533632	23571832	24992
193	0.763649	93364224	62533632	24918872	24992
194	0.769009	93364224	62533632	26266736	24992
195	0.763469	93364224	62533632	27613776	24992
196	1.021115	93364224	62533632	12518184	24992
197	0.788097	93364224	62533632	13865232	24992
198	0.784214	93364224	62533632	15212320	24992
199	0.774553	93364224	62533632	16559360	24992
200	0.763617	93364224	62533632	17906400	24992
201	0.766427	93364224	62533632	19253440	24992
202	0.760114	93364224	62533632	20600480	24992
203	0.760599	93364224	62533632	21947520	24992
204	0.765709	93364224	62533632	23294560	24992
205	0.763864	93364224	62533632	24641600	24992
206	0.760617	93364224	62533632	25988640	24992
207	0.977895	93364224	62533632	27335680	24992
208	0.759393	93364224	62533632	28682720	24992
209	0.808375	93364224	62533632	13585312	24992
210	0.777915	93364224	62533632	14932352	24992
211	0.794309	93364224	62533632	16279392	24992
212	0.765623	93364224	62533632	17626432	24992
213	0.76362	93364224	62533632	18973472	24992
214	0.774061	93364224	62533632	20320512	24992
215	0.760873	93364224	62533632	21667768	24992
216	0.759351	93364224	62533632	23014816	24992
217	0.759493	93364224	62533632	24361856	24992
218	0.7605	93364224	62533632	25708896	24992
219	0.764662	93364224	62533632	27055936	24992
220	0.758518	93364224	62533632	28402976	24992
221	0.77579	93364224	62533632	13305560	24992
222	0.790473	93364224	62533632	14652600	24992
223	0.765003	93364224	62533632	15999640	24992
224	0.766372	93364224	62533632	17346680	24992
225	0.76098	93364224	62533632	18693720	24992
226	0.754922	93364224	62533632	20040760	24992
227	0.765006	93364224	62533632	21387800	24992
228	0.754725	93364224	62533632	22734840	24992
229	0.770645	93364224	62533632	24084872	24992
230	0.758945	93364224	62533632	25431912	24992
231	0.757755	93364224	62533632	26778952	24992
232	0.759747	93364224	62533632	28125992	24992
233	1.025469	93364224	62533632	13033288	24992
234	1.042456	93364224	62533632	14380456	24992
235	0.81039	93364224	62533632	15730208	24992
236	0.765413	93364224	62533632	17077248	24992
237	0.764686	93364224	62533632	18424288	24992
238	0.76157	93364224	62533632	19771328	24992
239	0.986906	93364224	62533632	21118368	24992
240	0.758475	93364224	62533632	22465408	24992
241	0.885604	93364224	62533632	23812448	24992
242	0.765541	93364224	62533632	25159488	24992
243	0.762012	93364224	62533632	26506528	24992
244	1.12294	93364224	62533632	27853568	24992
245	1.031581	93364224	62533632	12761224	24992
246	0.827991	93364224	62533632	14108272	24992
247	0.757799	93364224	62533632	15455312	24992
248	0.757792	93364224	62533632	16802576	24992
249	0.827953	93364224	62533632	18149616	24992
250	0.760993	93364224	62533632	19496656	24992
251	1.262906	93364224	62533632	20843696	24992
252	0.770137	93364224	62533632	22190736	24992
253	0.763141	93364224	62533632	23537792	24992
254	0.755281	93364224	62533632	24884832	24992
255	0.759963	93364224	62533632	26231872	24992
256	0.769265	93364224	62533632	27578912	24992
257	0.76002	93364224	62533632	28925952	24992
258	0.790349	93364224	62533632	13828912	24992
259	0.763544	93364224	62533632	15175952	24992
260	0.757827	93364224	62533632	16522992	24992
261	0.764672	93364224	62533632	17870096	24992
262	0.764822	93364224	62533632	19217136	24992
263	0.75852	93364224	62533632	20564176	24992
264	0.762775	93364224	62533632	21911216	24992
265	0.764674	93364224	62533632	23258256	24992
266	0.991756	93364224	62533632	24605312	24992
267	0.759886	93364224	62533632	25952352	24992
268	0.759219	93364224	62533632	27299392	24992
269	0.761777	93364224	62533632	28646432	24992
270	0.773138	93364224	62533632	13549016	24992
271	0.758972	93364224	62533632	14896056	24992
272	0.758824	93364224	62533632	16243184	24992
273	0.807482	93364224	62533632	17590232	24992
274	0.761928	93364224	62533632	18937272	24992
275	0.775869	93364224	62533632	20284312	24992
276	0.776436	93364224	62533632	21631352	24992
277	0.761139	93364224	62533632	22978392	24992
278	0.794744	93364224	62533632	24325432	24992
279	0.757665	93364224	62533632	25672488	24992
280	0.910616	93364224	62533632	27019528	24992
281	0.775962	93364224	62533632	28368528	24992
282	1.042915	93364224	62533632	13272944	24992
283	0.783521	93364224	62533632	14619984	24992
284	0.778384	93364224	62533632	15967024	24992
285	0.782121	93364224	62533632	17314064	24992
286	0.778456	93364224	62533632	18661200	24992
287	0.775824	93364224	62533632	20008240	24992
288	0.974074	93364224	62533632	21355280	24992
289	0.769008	93364224	62533632	22702320	24992
290	0.959027	93364224	62533632	24049360	24992
291	0.761718	93364224	62533632	25396400	24992
292	0.760269	93364224	62533632	26743440	24992
293	0.776906	93364224	62533632	28090480	24992
294	1.033385	93364224	62533632	12994888	24992
295	0.783761	93364224	62533632	14341936	24992
296	0.762132	93364224	62533632	15688976	24992
297	0.766694	93364224	62533632	17036016	24992
298	0.756475	93364224	62533632	18383056	24992
299	0.75708	93364224	62533632	19730096	24992
300	0.767262	93364224	62533632	21077136	24992
301	0.755895	93364224	62533632	22424176	24992
302	0.763128	93364224	62533632	23771216	24992
303	0.786274	93364224	62533632	25118256	24992
304	0.764106	93364224	62533632	26465312	24992
305	0.833574	93364224	62533632	27813568	24992
306	0.760459	93364224	62533632	29160512	24992
307	0.773442	93364224	62533632	14063376	24992
308	0.785233	93364224	62533632	15412424	24992
309	0.760512	93364224	62533632	16759368	24992
310	0.981227	93364224	62533632	18106328	24992
311	0.75981	93364224	62533632	19453272	24992
312	0.768942	93364224	62533632	20800216	24992
313	0.75633	93364224	62533632	22147160	24992
314	0.756868	93364224	62533632	23494104	24992
315	0.823465	93364224	62533632	24841048	24992
316	0.769626	93364224	62533632	26189008	24992
317	0.760888	93364224	62533632	27536016	24992
318	0.758666	93364224	62533632	28882960	24992
319	0.774544	93364224	62533632	13785816	24992
320	0.762128	93364224	62533632	15132760	24992
321	0.75756	93364224	62533632	16479704	24992
322	0.767386	93364224	62533632	17826648	24992
323	0.755305	93364224	62533632	19173624	24992
324	0.7635	93364224	62533632	20520568	24992
325	0.985712	93364224	62533632	21867512	24992
326	0.757346	93364224	62533632	23214456	24992
327	0.763229	93364224	62533632	24561400	24992
328	0.756777	93364224	62533632	25908392	24992
329	0.758298	93364224	62533632	27255336	24992
330	0.763992	93364224	62533632	28602280	24992
331	1.040681	93364224	62533632	13506600	24992
332	0.962808	93364224	62533632	14853544	24992
333	0.761248	93364224	62533632	16200488	24992
334	0.760282	93364224	62533632	17547432	24992
335	0.763589	93364224	62533632	18894376	24992
336	0.756784	93364224	62533632	20241448	24992
337	0.764319	93364224	62533632	21588392	24992
338	0.757449	93364224	62533632	22935336	24992
339	0.756259	93364224	62533632	24282280	24992
340	0.77172	93364224	62533632	25629224	24992
341	0.760755	93364224	62533632	26976232	24992
342	0.755238	93364224	62533632	28323176	24992
343	1.045195	93364224	62533632	13227488	24992
344	0.764867	93364224	62533632	14574440	24992
345	0.756221	93364224	62533632	15921384	24992
346	0.759241	93364224	62533632	17268328	24992
347	0.762974	93364224	62533632	18615272	24992
348	0.760137	93364224	62533632	19962216	24992
349	0.758851	93364224	62533632	21309160	24992
350	0.766641	93364224	62533632	22656104	24992
351	0.760802	93364224	62533632	24003048	24992
352	0.993892	93364224	62533632	25349992	24992
353	0.754932	93364224	62533632	26696936	24992
354	0.754854	93364224	62533632	28043928	24992
355	0.969313	93364224	62533632	29390872	24992
356	0.78078	93364224	62533632	14293368	24992
357	0.801127	93364224	62533632	15640312	24992
358	0.755894	93364224	62533632	16987256	24992
359	0.755538	93364224	62533632	18334200	24992
360	0.760661	93364224	62533632	19685592	24992
361	0.762812	93364224	62533632	21032808	24992
362	0.773531	93364224	62533632	22379752	24992
363	0.761861	93364224	62533632	23726696	24992
364	0.75758	93364224	62533632	25073640	24992
365	0.766031	93364224	62533632	26420584	24992
366	0.756299	93364224	62533632	27767528	24992
367	0.755972	93364224	62533632	29114472	24992
368	0.773631	93364224	62533632	14021408	24992
369	0.763078	93364224	62533632	15368352	24992
370	0.971719	93364224	62533632	16715296	24992
371	0.758636	93364224	62533632	18062240	24992
372	0.777218	93364224	62533632	19409184	24992
373	0.757002	93364224	62533632	20756128	24992
374	0.753786	93364224	62533632	22103120	24992
375	0.760269	93364224	62533632	23450064	24992
376	0.760568	93364224	62533632	24797008	24992
377	0.755534	93364224	62533632	26143952	24992
378	0.761133	93364224	62533632	27490896	24992
379	0.75959	93364224	62533632	28837840	24992
380	1.037629	93364224	62533632	13746608	24992
381	0.760868	93364224	62533632	15093552	24992
382	0.777589	93364224	62533632	16440496	24992
383	0.761425	93364224	62533632	17787440	24992
384	0.754382	93364224	62533632	19134384	24992
385	0.779035	93364224	62533632	20481328	24992
386	0.756901	93364224	62533632	21828272	24992
387	0.755243	93364224	62533632	23175216	24992
388	0.755498	93364224	62533632	24522160	24992
389	0.755347	93364224	62533632	25869104	24992
390	0.77543	93364224	62533632	27216048	24992
391	0.761775	93364224	62533632	28562992	24992
392	1.048724	93364224	62533632	13467400	24992
393	0.766052	93364224	62533632	14814384	24992
394	0.759169	93364224	62533632	16161328	24992
395	0.760954	93364224	62533632	17508272	24992
396	0.757346	93364224	62533632	18855216	24992
397	0.803435	93364224	62533632	20202160	24992
398	0.755364	93364224	62533632	21549120	24992
399	0.755025	93364224	62533632	22896064	24992
400	0.978352	93364224	62533632	24243008	24992
401	0.761011	93364224	62533632	25589952	24992
402	0.752884	93364224	62533632	26936896	24992
403	0.76026	93364224	62533632	28283840	24992
404	0.758942	93364224	62533632	29630784	24992
405	0.783429	93364224	62533632	14533280	24992
406	0.765763	93364224	62533632	15880224	24992
407	0.759447	93364224	62533632	17227168	24992
408	0.762649	93364224	62533632	18574112	24992
409	0.757202	93364224	62533632	19921056	24992
410	0.761961	93364224	62533632	21268000	24992
411	0.755537	93364224	62533632	22614944	24992
412	0.757104	93364224	62533632	23961888	24992
413	0.761191	93364224	62533632	25308832	24992
414	0.762234	93364224	62533632	26655776	24992
415	0.983602	93364224	62533632	28002720	24992
416	0.759793	93364224	62533632	29349696	24992
417	0.770086	93364224	62533632	14252184	24992
418	0.760091	93364224	62533632	15599240	24992
419	0.756499	93364224	62533632	16946184	24992
420	0.969915	93364224	62533632	18293128	24992
421	0.757122	93364224	62533632	19640072	24992
422	0.76229	93364224	62533632	20987016	24992
423	0.761959	93364224	62533632	22333960	24992
424	0.757759	93364224	62533632	23680904	24992
425	0.761676	93364224	62533632	25027848	24992
426	0.757707	93364224	62533632	26374792	24992
427	0.758731	93364224	62533632	27721736	24992
428	0.763765	93364224	62533632	29068680	24992
429	1.041104	93364224	62533632	13971928	24992
430	0.989226	93364224	62533632	15318872	24992
431	0.760161	93364224	62533632	16665816	24992
432	0.767663	93364224	62533632	18012760	24992
433	0.762785	93364224	62533632	19359704	24992
434	0.756047	93364224	62533632	20706648	24992
435	0.768155	93364224	62533632	22053592	24992
436	0.757952	93364224	62533632	23400536	24992
437	0.755596	93364224	62533632	24747480	24992
438	0.75946	93364224	62533632	26094424	24992
439	0.75862	93364224	62533632	27441368	24992
440	0.7636	93364224	62533632	28788312	24992
441	1.043217	93364224	62533632	13692624	24992
442	0.766672	93364224	62533632	15039576	24992
443	0.758499	93364224	62533632	16386520	24992
444	0.755204	93364224	62533632	17733464	24992
445	0.976757	93364224	62533632	19080408	24992
446	0.762869	93364224	62533632	20427352	24992
447	0.764142	93364224	62533632	21774296	24992
448	0.755853	93364224	62533632	23121240	24992
449	0.757021	93364224	62533632	24468280	24992
450	0.758747	93364224	62533632	25815224	24992
451	0.756008	93364224	62533632	27162168	24992
452	0.757429	93364224	62533632	28509112	24992
453	1.021966	93364224	62533632	13408768	24992
454	0.766644	93364224	62533632	14755720	24992
455	0.779408	93364224	62533632	16102744	24992
456	0.762205	93364224	62533632	17449688	24992
457	0.760443	93364224	62533632	18796632	24992
458	0.760228	93364224	62533632	20143576	24992
459	0.760121	93364224	62533632	21490520	24992
460	0.98135	93364224	62533632	22837480	24992
461	0.756783	93364224	62533632	24184424	24992
462	0.759493	93364224	62533632	25531368	24992
463	0.754192	93364224	62533632	26878312	24992
464	0.756813	93364224	62533632	28225256	24992
465	0.771271	93364224	62533632	29572200	24992
466	0.774924	93364224	62533632	14474680	24992
467	0.764362	93364224	62533632	15821624	24992
468	0.762511	93364224	62533632	17168568	24992
469	0.758277	93364224	62533632	18515512	24992
470	0.768558	93364224	62533632	19862456	24992
471	0.757933	93364224	62533632	21209400	24992
472	0.756632	93364224	62533632	22556344	24992
473	0.759488	93364224	62533632	23903304	24992
474	0.824923	93364224	62533632	25250248	24992
475	0.984779	93364224	62533632	26597192	24992
476	0.760511	93364224	62533632	27944136	24992
477	0.758663	93364224	62533632	29291080	24992
478	0.780299	93364224	62533632	14193568	24992
479	0.761609	93364224	62533632	15540512	24992
480	0.78592	93364224	62533632	16887504	24992
481	0.760646	93364224	62533632	18234448	24992
482	0.77951	93364224	62533632	19581392	24992
483	0.756893	93364224	62533632	20928336	24992
484	0.805943	93364224	62533632	22275280	24992
485	0.754615	93364224	62533632	23622224	24992
486	0.754901	93364224	62533632	24969328	24992
487	0.754417	93364224	62533632	26316272	24992
488	0.75806	93364224	62533632	27663216	24992
489	0.758555	93364224	62533632	29010160	24992
490	1.047817	93364224	62533632	13914472	24992
491	0.762388	93364224	62533632	15261424	24992
492	0.794279	93364224	62533632	16610008	24992
493	0.762108	93364224	62533632	17956968	24992
494	0.754518	93364224	62533632	19303912	24992
495	0.759947	93364224	62533632	20650856	24992
496	0.751164	93364224	62533632	21997800	24992
497	0.752585	93364224	62533632	23344744	24992
498	0.760448	93364224	62533632	24691688	24992
499	0.754227	93364224	62533632	26038632	24992
500	0.7688	93364224	62533632	27385576	24992
501	0.762913	93364224	62533632	28732520	24992
502	1.04597	93364224	62533632	13636832	24992
503	0.759518	93364224	62533632	14983784	24992
504	0.761445	93364224	62533632	16330728	24992
505	0.982116	93364224	62533632	17677672	24992
506	0.759006	93364224	62533632	19024616	24992
507	0.762399	93364224	62533632	20371560	24992
508	0.976899	93364224	62533632	21718504	24992
509	0.761678	93364224	62533632	23065448	24992
510	0.759841	93364224	62533632	24412392	24992
511	0.75523	93364224	62533632	25759416	24992
512	0.753743	93364224	62533632	27106360	24992
513	0.757164	93364224	62533632	28453304	24992
514	0.758794	93364224	62533632	29800248	24992
515	0.775645	93364224	62533632	14702728	24992
516	0.761124	93364224	62533632	16049672	24992
517	0.764661	93364224	62533632	17396616	24992
518	0.755512	93364224	62533632	18743560	24992
519	0.755784	93364224	62533632	20090504	24992
520	0.982335	93364224	62533632	21437448	24992
521	0.762184	93364224	62533632	22784392	24992
522	0.867462	93364224	62533632	24131336	24992
523	0.759652	93364224	62533632	25478280	24992
524	0.75662	93364224	62533632	26825224	24992
525	0.806594	93364224	62533632	28172168	24992
526	0.754333	93364224	62533632	29519112	24992
527	0.81932	93364224	62533632	14421600	24992
528	0.759553	93364224	62533632	15768544	24992
529	0.764885	93364224	62533632	17115488	24992
530	0.781643	93364224	62533632	18462512	24992
531	0.757222	93364224	62533632	19809456	24992
532	0.952495	93364224	62533632	21156400	24992
533	0.75419	93364224	62533632	22503344	24992
534	0.752045	93364224	62533632	23850288	24992
535	0.761065	93364224	62533632	25197344	24992
536	0.7582	93364224	62533632	26544288	24992
537	0.770589	93364224	62533632	27891232	24992
538	0.760388	93364224	62533632	29238176	24992
539	1.049717	93364224	62533632	14142488	24992
540	0.761306	93364224	62533632	15489440	24992
541	0.831562	93364224	62533632	16836384	24992
542	0.985977	93364224	62533632	18183328	24992
543	0.756102	93364224	62533632	19530272	24992
544	0.756346	93364224	62533632	20877216	24992
545	0.757353	93364224	62533632	22224160	24992
546	0.760719	93364224	62533632	23571104	24992
547	0.809871	93364224	62533632	24918048	24992
548	0.762099	93364224	62533632	26265040	24992
549	0.756903	93364224	62533632	27611984	24992
550	0.762666	93364224	62533632	28958928	24992
551	1.04205	93364224	62533632	13863240	24992
552	0.958281	93364224	62533632	15210192	24992
553	0.757406	93364224	62533632	16557136	24992
554	0.762881	93364224	62533632	17904080	24992
555	0.756155	93364224	62533632	19251056	24992
556	0.753916	93364224	62533632	20604800	24992
557	0.972586	93364224	62533632	21951744	24992
558	0.762131	93364224	62533632	23298688	24992
559	0.763532	93364224	62533632	24645632	24992
560	0.796186	93364224	62533632	25992576	24992
561	0.796808	93364224	62533632	27339552	24992
562	0.79739	93364224	62533632	28686496	24992
563	0.797778	93364224	62533632	30033440	24992
564	1.014883	93364224	62533632	14942720	24992
565	0.804309	93364224	62533632	16289664	24992
566	0.798954	93364224	62533632	17636608	24992
567	0.805886	93364224	62533632	18983552	24992
568	0.800043	93364224	62533632	20330544	24992
569	0.8017	93364224	62533632	21677488	24992
570	0.789669	93364224	62533632	23024432	24992
571	1.114412	93364224	62533632	24371376	24992
572	0.764239	93364224	62533632	25718320	24992
573	0.759511	93364224	62533632	27065264	24992
574	0.758647	93364224	62533632	28412208	24992
575	0.75791	93364224	62533632	29759152	24992
576	0.778325	93364224	62533632	14668440	24992
577	0.757772	93364224	62533632	16015384	24992
578	0.756496	93364224	62533632	17362328	24992
579	0.7548	93364224	62533632	18709272	24992
580	0.760643	93364224	62533632	20056216	24992
581	0.764908	93364224	62533632	21403160	24992
582	0.754093	93364224	62533632	22750104	24992
583	0.754959	93364224	62533632	24097048	24992
584	0.757138	93364224	62533632	25443992	24992
585	0.987809	93364224	62533632	26790952	24992
586	0.985397	93364224	62533632	28137896	24992
587	0.7572	93364224	62533632	29484840	24992
588	1.049888	93364224	62533632	14389152	24992
589	0.770247	93364224	62533632	15736104	24992
590	0.762683	93364224	62533632	17083048	24992
591	0.812534	93364224	62533632	18429992	24992
592	0.751049	93364224	62533632	19776952	24992
593	0.755418	93364224	62533632	21123896	24992
594	0.761518	93364224	62533632	22470840	24992
595	0.755297	93364224	62533632	23817784	24992
596	0.767956	93364224	62533632	25164728	24992
597	0.759077	93364224	62533632	26511672	24992
598	0.759561	93364224	62533632	27858616	24992
599	0.7545	93364224	62533632	29205752	24992
600	1.032279	93364224	62533632	14110064	24992
601	0.76408	93364224	62533632	15457016	24992
602	0.759649	93364224	62533632	16803960	24992
603	0.757534	93364224	62533632	18150904	24992
604	0.76586	93364224	62533632	19497848	24992
605	0.760767	93364224	62533632	20844808	24992
606	0.832682	93364224	62533632	22191752	24992
607	0.760558	93364224	62533632	23538696	24992
608	0.761592	93364224	62533632	24885640	24992
609	0.758938	93364224	62533632	26232584	24992
610	0.764998	93364224	62533632	27579528	24992
611	0.8257	93364224	62533632	28926472	24992
612	0.755068	93364224	62533632	30273416	24992
613	0.786636	93364224	62533632	15175896	24992
614	0.761783	93364224	62533632	16522840	24992
615	0.75815	93364224	62533632	17869784	24992
616	0.979148	93364224	62533632	19216728	24992
617	0.756591	93364224	62533632	20563672	24992
618	0.754786	93364224	62533632	21910632	24992
619	0.759986	93364224	62533632	23257576	24992
620	0.757856	93364224	62533632	24604520	24992
621	0.761612	93364224	62533632	25951464	24992
622	0.754502	93364224	62533632	27298408	24992
623	0.761498	93364224	62533632	28645480	24992
624	0.760992	93364224	62533632	29992424	24992
625	0.770689	93364224	62533632	14894912	24992
626	0.766843	93364224	62533632	16241856	24992
627	0.763465	93364224	62533632	17588800	24992
628	0.754182	93364224	62533632	18935744	24992
629	0.759184	93364224	62533632	20282688	24992
630	0.75868	93364224	62533632	21629632	24992
631	0.982885	93364224	62533632	22976576	24992
632	0.756944	93364224	62533632	24323520	24992
633	0.755738	93364224	62533632	25670464	24992
634	0.76036	93364224	62533632	27017408	24992
635	0.759045	93364224	62533632	28364352	24992
636	0.766131	93364224	62533632	29711312	24992
637	1.04048	93364224	62533632	14615624	24992
638	0.765677	93364224	62533632	15962576	24992
639	0.760432	93364224	62533632	17309520	24992
640	0.761781	93364224	62533632	18656464	24992
641	0.76538	93364224	62533632	20003408	24992
642	0.755185	93364224	62533632	21350352	24992
643	0.755762	93364224	62533632	22697328	24992
644	0.756635	93364224	62533632	24044272	24992
645	0.751184	93364224	62533632	25391216	24992
646	0.789576	93364224	62533632	26738160	24992
647	0.761279	93364224	62533632	28085104	24992
648	0.753789	93364224	62533632	29432048	24992
649	1.035549	93364224	62533632	14336360	24992
650	0.790857	93364224	62533632	15683312	24992
651	0.998727	93364224	62533632	17030256	24992
652	0.756971	93364224	62533632	18377200	24992
653	0.760949	93364224	62533632	19724144	24992
654	0.771162	93364224	62533632	21071088	24992
655	0.75965	93364224	62533632	22418032	24992
656	0.784304	93364224	62533632	23764976	24992
657	0.756014	93364224	62533632	25111920	24992
658	0.761285	93364224	62533632	26458864	24992
659	0.75118	93364224	62533632	27805808	24992
660	0.757201	93364224	62533632	29152872	24992
661	1.120126	93364224	62533632	30499824	24992
662	0.775648	93364224	62533632	15402416	24992
663	0.769604	93364224	62533632	16749360	24992
664	0.764217	93364224	62533632	18096304	24992
665	0.755235	93364224	62533632	19443248	24992
666	0.756515	93364224	62533632	20790192	24992
667	0.757252	93364224	62533632	22137184	24992
668	0.819594	93364224	62533632	23484128	24992
669	0.763031	93364224	62533632	24831072	24992
670	0.758235	93364224	62533632	26178016	24992
671	0.759381	93364224	62533632	27524960	24992
672	0.756026	93364224	62533632	28871904	24992
673	0.766004	93364224	62533632	30218848	24992
674	0.776117	93364224	62533632	15121336	24992
675	0.764282	93364224	62533632	16468280	24992
676	0.762209	93364224	62533632	17815224	24992
677	0.761653	93364224	62533632	19162168	24992
678	0.769079	93364224	62533632	20509112	24992
679	0.757366	93364224	62533632	21856056	24992
680	0.75622	93364224	62533632	23203000	24992
681	0.758489	93364224	62533632	24549944	24992
682	0.754382	93364224	62533632	25896888	24992
683	0.971615	93364224	62533632	27243832	24992
684	0.762829	93364224	62533632	28590776	24992
685	0.76173	93364224	62533632	29937720	24992
686	1.040033	93364224	62533632	14842032	24992
687	0.764141	93364224	62533632	16189032	24992
688	0.766117	93364224	62533632	17535976	24992
689	0.762483	93364224	62533632	18882920	24992
690	0.765658	93364224	62533632	20229864	24992
691	0.758416	93364224	62533632	21576808	24992
692	0.761102	93364224	62533632	22923752	24992
693	0.780051	93364224	62533632	24270744	24992
694	0.757673	93364224	62533632	25617688	24992
695	0.754414	93364224	62533632	26964632	24992
696	0.77503	93364224	62533632	28311576	24992
697	0.761652	93364224	62533632	29658520	24992
698	1.390082	93364224	62533632	14562832	24992
699	0.766729	93364224	62533632	15909784	24992
700	0.757429	93364224	62533632	17256792	24992
701	0.759938	93364224	62533632	18603736	24992
702	0.755063	93364224	62533632	19950680	24992
703	0.932357	93364224	62533632	21298288	24992
704	0.760735	93364224	62533632	22645232	24992
705	0.765898	93364224	62533632	23992176	24992
706	0.763828	93364224	62533632	25339120	24992
707	0.756139	93364224	62533632	26686064	24992
708	0.762566	93364224	62533632	28033008	24992
709	0.75773	93364224	62533632	29379952	24992
710	0.757929	93364224	62533632	30726896	24992
711	0.776986	93364224	62533632	15629392	24992
712	0.771228	93364224	62533632	16976336	24992
713	0.781522	93364224	62533632	18323280	24992
714	0.756675	93364224	62533632	19670224	24992
715	0.757957	93364224	62533632	21017168	24992
716	0.756991	93364224	62533632	22364112	24992
717	0.760318	93364224	62533632	23711056	24992
718	0.767915	93364224	62533632	25058048	24992
719	0.756404	93364224	62533632	26404992	24992
720	0.7573	93364224	62533632	27751936	24992
721	0.779799	93364224	62533632	29098880	24992
722	0.754982	93364224	62533632	30445824	24992
723	0.783241	93364224	62533632	15348312	24992
724	0.75833	93364224	62533632	16695272	24992
725	0.757268	93364224	62533632	18042216	24992
726	0.761329	93364224	62533632	19389160	24992
727	0.75783	93364224	62533632	20736104	24992
728	0.980706	93364224	62533632	22083048	24992
729	0.766353	93364224	62533632	23429992	24992
730	0.756808	93364224	62533632	24776936	24992
731	0.815342	93364224	62533632	26123880	24992
732	0.758874	93364224	62533632	27470824	24992
733	0.771837	93364224	62533632	28817768	24992
734	0.758218	93364224	62533632	30164712	24992
735	1.053307	93364224	62533632	15069032	24992
736	0.763902	93364224	62533632	16415976	24992
737	0.765946	93364224	62533632	17762968	24992
738	0.768815	93364224	62533632	19109912	24992
739	0.761277	93364224	62533632	20456856	24992
740	0.75503	93364224	62533632	21803800	24992
741	0.981854	93364224	62533632	23150744	24992
742	0.754326	93364224	62533632	24497960	24992
743	0.97632	93364224	62533632	25844904	24992
744	0.760403	93364224	62533632	27191848	24992
745	0.758098	93364224	62533632	28538792	24992
746	0.758957	93364224	62533632	29885736	24992
747	1.038936	93364224	62533632	14790048	24992
748	0.768828	93364224	62533632	16137000	24992
749	0.760126	93364224	62533632	17483944	24992
750	0.759707	93364224	62533632	18830888	24992
751	0.764244	93364224	62533632	20177832	24992
752	0.759184	93364224	62533632	21524776	24992
753	0.7655	93364224	62533632	22871720	24992
754	0.75693	93364224	62533632	24218664	24992
755	0.762424	93364224	62533632	25565608	24992
756	0.760918	93364224	62533632	26912552	24992
757	0.763671	93364224	62533632	28259496	24992
758	0.773579	93364224	62533632	29606440	24992
759	0.762438	93364224	62533632	30953384	24992
760	0.771306	93364224	62533632	15855880	24992
761	0.757272	93364224	62533632	17202824	24992
762	0.759736	93364224	62533632	18549800	24992
763	0.769748	93364224	62533632	19896744	24992
764	0.756985	93364224	62533632	21243688	24992
765	0.7622	93364224	62533632	22590632	24992
766	0.778689	93364224	62533632	23937576	24992
767	0.763119	93364224	62533632	25284520	24992
768	0.765918	93364224	62533632	26631560	24992
769	0.758138	93364224	62533632	27978504	24992
770	0.801078	93364224	62533632	29325448	24992
771	0.760139	93364224	62533632	30672392	24992
772	0.771698	93364224	62533632	15574880	24992
773	1.547316	93364224	62533632	16921896	24992
774	0.764894	93364224	62533632	18268840	24992
775	0.813947	93364224	62533632	19615832	24992
776	0.762257	93364224	62533632	20962776	24992
777	0.763228	93364224	62533632	22318752	24992
778	0.759051	93364224	62533632	23665696	24992
779	0.75743	93364224	62533632	25012704	24992
780	0.779188	93364224	62533632	26359648	24992
781	0.782814	93364224	62533632	27706592	24992
782	0.785682	93364224	62533632	29055944	24992
783	0.76298	93364224	62533632	30402888	24992
784	1.059889	93364224	62533632	15323496	24992
785	0.774084	93364224	62533632	16670440	24992
786	0.761829	93364224	62533632	18017384	24992
787	0.758995	93364224	62533632	19364328	24992
788	0.757363	93364224	62533632	20711352	24992
789	0.755611	93364224	62533632	22058296	24992
790	0.762347	93364224	62533632	23405240	24992
791	0.756366	93364224	62533632	24752184	24992
792	0.759357	93364224	62533632	26099128	24992
793	0.8055	93364224	62533632	27446072	24992
794	0.753311	93364224	62533632	28793016	24992
795	0.957826	93364224	62533632	30139960	24992
796	1.099276	93364224	62533632	15085424	24992
797	0.778817	93364224	62533632	16432376	24992
798	0.77542	93364224	62533632	17779320	24992
799	0.773754	93364224	62533632	19126264	24992
800	0.785121	93364224	62533632	20473208	24992
801	0.772938	93364224	62533632	21820184	24992
802	0.773606	93364224	62533632	23167128	24992
803	0.774661	93364224	62533632	24514072	24992
804	0.77338	93364224	62533632	25861016	24992
805	0.780462	93364224	62533632	27207960	24992
806	0.774807	93364224	62533632	28554904	24992
807	0.775207	93364224	62533632	29901848	24992
808	0.775488	93364224	62533632	31248792	24992
809	0.789801	93364224	62533632	16201672	24992
810	0.794995	93364224	62533632	17548616	24992
811	0.760778	93364224	62533632	18895560	24992
812	0.763055	93364224	62533632	20242504	24992
813	0.760098	93364224	62533632	21589448	24992
814	0.758233	93364224	62533632	22936392	24992
815	0.758016	93364224	62533632	24283336	24992
816	0.756067	93364224	62533632	25630280	24992
817	0.756313	93364224	62533632	26977224	24992
818	0.974446	93364224	62533632	28324168	24992
819	0.756336	93364224	62533632	29671112	24992
820	0.756703	93364224	62533632	31018200	24992
821	0.785236	93364224	62533632	15971072	24992
822	0.790664	93364224	62533632	17318112	24992
823	0.775067	93364224	62533632	18665056	24992
824	0.774588	93364224	62533632	20012000	24992
825	0.762053	93364224	62533632	21358944	24992
826	0.758928	93364224	62533632	22705888	24992
827	0.765618	93364224	62533632	24052832	24992
828	0.755872	93364224	62533632	25399776	24992
829	0.75808	93364224	62533632	26746720	24992
830	0.764701	93364224	62533632	28093664	24992
831	0.758725	93364224	62533632	29440608	24992
832	1.014953	93364224	62533632	30787552	24992
833	1.156602	93364224	62533632	15741968	24992
834	0.759576	93364224	62533632	17088952	24992
835	0.761166	93364224	62533632	18435904	24992
836	0.75346	93364224	62533632	19782848	24992
837	0.973903	93364224	62533632	21129856	24992
838	0.765668	93364224	62533632	22476800	24992
839	0.76333	93364224	62533632	23826320	24992
840	0.762282	93364224	62533632	25173168	24992
841	0.753616	93364224	62533632	26520016	24992
842	0.765006	93364224	62533632	27866864	24992
843	0.754927	93364224	62533632	29213712	24992
844	0.756699	93364224	62533632	30560560	24992
845	1.161274	93364224	62533632	15515920	24992
846	0.764205	93364224	62533632	16862776	24992
847	0.778184	93364224	62533632	18209624	24992
848	0.755782	93364224	62533632	19556472	24992
849	0.760668	93364224	62533632	20903320	24992
850	0.759871	93364224	62533632	22260504	24992
851	0.761393	93364224	62533632	23607352	24992
852	0.758815	93364224	62533632	24954200	24992
853	0.752139	93364224	62533632	26301048	24992
854	0.754575	93364224	62533632	27647960	24992
855	0.803735	93364224	62533632	28994808	24992
856	0.756903	93364224	62533632	30341656	24992
857	1.178545	93364224	62533632	15304320	24992
858	0.759869	93364224	62533632	16651176	24992
859	0.768315	93364224	62533632	17998024	24992
860	0.759546	93364224	62533632	19344872	24992
861	0.758203	93364224	62533632	20691720	24992
862	0.980504	93364224	62533632	22038584	24992
863	0.753983	93364224	62533632	23385432	24992
864	0.762515	93364224	62533632	24732280	24992
865	0.756211	93364224	62533632	26079128	24992
866	0.758383	93364224	62533632	27425976	24992
867	0.761835	93364224	62533632	28772824	24992
868	0.7569	93364224	62533632	30119672	24992
869	0.753264	93364224	62533632	31466520	24992
870	0.81183	93364224	62533632	16429632	24992
871	0.796665	93364224	62533632	17776480	24992
872	0.795116	93364224	62533632	19123328	24992
873	0.797266	93364224	62533632	20470176	24992
874	0.803587	93364224	62533632	21817024	24992
875	0.793668	93364224	62533632	23163872	24992
876	0.790206	93364224	62533632	24510720	24992
877	0.80099	93364224	62533632	25857568	24992
878	0.798436	93364224	62533632	27204416	24992
879	0.794679	93364224	62533632	28551264	24992
880	0.794876	93364224	62533632	29898112	24992
881	0.804996	93364224	62533632	31244960	24992
882	0.7721	93364224	62533632	16197736	24992
883	0.754679	93364224	62533632	17544600	24992
884	0.759997	93364224	62533632	18891448	24992
885	0.752578	93364224	62533632	20238296	24992
886	0.759173	93364224	62533632	21585144	24992
887	0.755385	93364224	62533632	22931992	24992
888	0.761779	93364224	62533632	24278904	24992
889	0.754379	93364224	62533632	25625752	24992
890	0.756237	93364224	62533632	26972600	24992
891	0.974435	93364224	62533632	28319448	24992
892	0.756307	93364224	62533632	29666296	24992
893	0.815368	93364224	62533632	31013144	24992
894	1.216136	93364224	62533632	15968504	24992
895	0.781435	93364224	62533632	17315352	24992
896	0.761392	93364224	62533632	18662216	24992
897	0.758494	93364224	62533632	20009064	24992
898	0.775262	93364224	62533632	21355912	24992
899	0.755977	93364224	62533632	22702760	24992
900	0.755367	93364224	62533632	24049608	24992
901	0.792962	93364224	62533632	25396456	24992
902	0.754682	93364224	62533632	26743304	24992
903	0.763418	93364224	62533632	28090152	24992
904	0.756441	93364224	62533632	29437000	24992
905	0.760208	93364224	62533632	30783848	24992
906	1.456013	93364224	62533632	15739208	24992
907	0.761902	93364224	62533632	17086064	24992
908	0.764556	93364224	62533632	18432912	24992
909	0.756778	93364224	62533632	19779904	24992
910	0.756641	93364224	62533632	21126752	24992
911	0.760909	93364224	62533632	22473600	24992
912	0.757952	93364224	62533632	23820448	24992
913	0.96829	93364224	62533632	25167296	24992
914	0.754862	93364224	62533632	26514144	24992
915	0.757998	93364224	62533632	27860992	24992
916	0.789167	93364224	62533632	29207904	24992
917	0.756222	93364224	62533632	30554752	24992
918	0.762071	93364224	62533632	31901600	24992
919	0.77799	93364224	62533632	16854384	24992
920	1.631071	93364224	62533632	18201248	24992
921	0.764311	93364224	62533632	19548096	24992
922	0.96841	93364224	62533632	20894944	24992
923	0.760785	93364224	62533632	22241792	24992
924	0.817794	93364224	62533632	23602248	24992
925	0.75566	93364224	62533632	24949096	24992
926	0.751654	93364224	62533632	26295944	24992
927	0.765654	93364224	62533632	27642792	24992
928	0.759005	93364224	62533632	28989640	24992
929	0.754442	93364224	62533632	30336504	24992
930	0.764154	93364224	62533632	31683352	24992
931	0.774731	93364224	62533632	16636128	24992
932	0.9787	93364224	62533632	17982976	24992
933	0.752995	93364224	62533632	19329824	24992
934	0.752301	93364224	62533632	20676672	24992
935	0.762644	93364224	62533632	22023520	24992
936	0.752057	93364224	62533632	23370368	24992
937	0.970421	93364224	62533632	24717216	24992
938	0.750657	93364224	62533632	26064064	24992
939	0.757218	93364224	62533632	27410912	24992
940	0.750689	93364224	62533632	28757760	24992
941	0.751564	93364224	62533632	30104608	24992
942	0.967429	93364224	62533632	31451472	24992
943	1.297109	93364224	62533632	16406800	24992
944	0.771667	93364224	62533632	17753648	24992
945	0.756655	93364224	62533632	19100496	24992
946	0.753095	93364224	62533632	20447344	24992
947	0.753241	93364224	62533632	21794192	24992
948	0.75326	93364224	62533632	23141040	24992
949	0.804499	93364224	62533632	24487888	24992
950	0.75576	93364224	62533632	25834768	24992
951	0.75128	93364224	62533632	27181616	24992
952	0.770549	93364224	62533632	28528464	24992
953	0.752989	93364224	62533632	29875312	24992
954	0.752128	93364224	62533632	31222160	24992
955	1.291086	93364224	62533632	16177488	24992
956	0.763315	93364224	62533632	17524344	24992
957	0.781804	93364224	62533632	18871192	24992
958	0.753382	93364224	62533632	20218040	24992
959	0.760037	93364224	62533632	21564888	24992
960	0.760962	93364224	62533632	22911736	24992
961	0.751345	93364224	62533632	24258584	24992
962	0.752509	93364224	62533632	25605432	24992
963	0.749488	93364224	62533632	26952344	24992
964	0.751203	93364224	62533632	28299192	24992
965	0.754054	93364224	62533632	29646040	24992
966	0.751127	93364224	62533632	30992888	24992
967	1.310185	93364224	62533632	15945104	24992
968	0.765065	93364224	62533632	17291960	24992
969	0.761672	93364224	62533632	18638808	24992
970	0.752576	93364224	62533632	19985656	24992
971	0.964737	93364224	62533632	21332600	24992
972	0.752742	93364224	62533632	22679448	24992
973	0.749521	93364224	62533632	24026296	24992
974	0.8152	93364224	62533632	25373144	24992
975	0.754539	93364224	62533632	26720032	24992
976	0.752965	93364224	62533632	28066888	24992
977	0.751222	93364224	62533632	29413736	24992
978	0.752259	93364224	62533632	30760584	24992
979	0.951187	93364224	62533632	32107432	24992
980	0.77245	93364224	62533632	17060200	24992
981	0.761897	93364224	62533632	18407048	24992
982	0.751967	93364224	62533632	19753896	24992
983	0.761486	93364224	62533632	21100744	24992
984	0.766778	93364224	62533632	22447608	24992
985	0.752791	93364224	62533632	23794456	24992
986	0.751199	93364224	62533632	25141304	24992
987	0.753881	93364224	62533632	26488152	24992
988	0.755298	93364224	62533632	27835000	24992
989	0.761864	93364224	62533632	29181848	24992
990	0.754385	93364224	62533632	30528696	24992
991	0.752996	93364224	62533632	31875544	24992
992	0.769226	93364224	62533632	16828320	24992
993	0.753841	93364224	62533632	18175168	24992
994	0.757688	93364224	62533632	19522016	24992
995	0.751747	93364224	62533632	20868864	24992
996	0.756661	93364224	62533632	22215712	24992
997	0.751128	93364224	62533632	23562576	24992
998	0.750517	93364224	62533632	24909424	24992
999	0.760793	93364224	62533632	26256272	24992
1000	0.750675	93364224	62533632	27603120	24992
