x	Duration	RSS	HeapTotal	HeapUsed	External
0	NA	91553792	61485056	11534784	24992
1	1.916979	91553792	61485056	12214888	24992
2	3.058206	91553792	61485056	13553272	24992
3	0.768055	91553792	61485056	15556928	24992
4	0.972223	91553792	61485056	16904392	24992
5	0.768475	91553792	61485056	18251856	24992
6	0.987998	91553792	61485056	19599320	24992
7	0.765814	91553792	61485056	20946784	24992
8	0.762539	91553792	61485056	22294248	24992
9	0.772721	91553792	61485056	23641712	24992
10	0.768426	91553792	61485056	24989176	24992
11	0.769058	91553792	61485056	26336640	24992
12	0.764199	91553792	61485056	27684184	24992
13	0.779148	91553792	61485056	12568672	24992
14	0.765971	91553792	61485056	13916248	24992
15	0.785277	91553792	61485056	15263712	24992
16	0.993068	91553792	61485056	16611176	24992
17	0.765199	91553792	61485056	17958640	24992
18	0.775278	91553792	61485056	19306104	24992
19	0.763712	91553792	61485056	20653920	24992
20	0.762552	91553792	61485056	22001384	24992
21	0.766685	91553792	61485056	23348848	24992
22	0.768521	91553792	61485056	24696312	24992
23	0.77612	91553792	61485056	26043776	24992
24	0.76749	91553792	61485056	27391240	24992
25	1.018384	91553792	61485056	12296704	24992
26	0.768199	91553792	61485056	13644168	24992
27	0.764167	91553792	61485056	14991632	24992
28	0.780053	91553792	61485056	16339096	24992
29	0.762642	91553792	61485056	17686560	24992
30	0.763148	91553792	61485056	19034024	24992
31	0.787207	91553792	61485056	20381688	24992
32	0.780201	91553792	61485056	21729144	24992
33	0.774449	91553792	61485056	23076608	24992
34	0.76332	91553792	61485056	24424072	24992
35	0.760929	91553792	61485056	25771536	24992
36	0.767536	91553792	61485056	27119000	24992
37	0.995914	91553792	61485056	12025168	24992
38	0.991156	91553792	61485056	13372656	24992
39	0.766357	91553792	61485056	14720120	24992
40	0.76304	91553792	61485056	16067584	24992
41	0.768733	91553792	61485056	17415048	24992
42	0.760149	91553792	61485056	18762512	24992
43	0.774129	91553792	61485056	20109976	24992
44	0.760099	91553792	61485056	21457440	24992
45	0.758495	91553792	61485056	22805896	24992
46	0.767223	91553792	61485056	24153360	24992
47	0.768093	91553792	61485056	25500824	24992
48	0.765694	91553792	61485056	26848288	24992
49	0.993368	91553792	61485056	11753120	24992
50	0.777982	91553792	61485056	13100576	24992
51	0.761288	91553792	61485056	14448056	24992
52	0.763228	91553792	61485056	15795520	24992
53	0.789111	91553792	61485056	17142984	24992
54	0.76485	91553792	61485056	18490448	24992
55	0.769171	91553792	61485056	19837912	24992
56	0.761222	91553792	61485056	21185376	24992
57	0.761546	91553792	61485056	22532840	24992
58	0.762433	91553792	61485056	23880384	24992
59	0.760278	91553792	61485056	25227848	24992
60	0.972215	91553792	61485056	26575312	24992
61	0.772322	91553792	61485056	27922776	24992
62	0.780127	91553792	61485056	12827488	24992
63	0.769235	91553792	61485056	14174952	24992
64	0.762826	91553792	61485056	15522480	24992
65	0.768873	91553792	61485056	16869944	24992
66	0.761687	91553792	61485056	18217408	24992
67	0.763854	91553792	61485056	19564872	24992
68	0.764966	91553792	61485056	20912336	24992
69	0.76177	91553792	61485056	22259800	24992
70	0.775742	91553792	61485056	23607264	24992
71	0.766707	91553792	61485056	24954728	24992
72	0.759094	91553792	61485056	26302192	24992
73	0.761682	91553792	61485056	27649656	24992
74	0.777668	91553792	61485056	12553696	24992
75	0.994362	91553792	61485056	13901160	24992
76	0.808077	91553792	61485056	15248624	24992
77	0.773506	91553792	61485056	16596136	24992
78	0.76178	91553792	61485056	17943600	24992
79	0.76217	91553792	61485056	19291064	24992
80	0.764411	91553792	61485056	20638720	24992
81	0.77201	91553792	61485056	21987352	24992
82	0.973658	91553792	61485056	23334728	24992
83	0.766527	91553792	61485056	24682104	24992
84	0.77235	91553792	61485056	26030616	24992
85	0.765944	91553792	61485056	27377992	24992
86	1.003059	91553792	61485056	12284568	24992
87	0.773178	91553792	61485056	13631944	24992
88	0.763354	91553792	61485056	14979320	24992
89	0.76404	91553792	61485056	16326696	24992
90	0.799155	91553792	61485056	17674072	24992
91	0.766153	91553792	61485056	19021448	24992
92	0.77038	91553792	61485056	20368824	24992
93	0.763102	91553792	61485056	21716200	24992
94	0.763163	91553792	61485056	23063576	24992
95	0.764018	91553792	61485056	24410968	24992
96	0.763353	91553792	61485056	25758344	24992
97	0.990948	91553792	61485056	27105720	24992
98	0.999952	91553792	61485056	12011624	24992
99	0.781507	91553792	61485056	13359008	24992
100	0.768509	91553792	61485056	14706384	24992
101	0.766094	91553792	61485056	16053760	24992
102	0.770311	91553792	61485056	17401136	24992
103	0.762168	91553792	61485056	18748528	24992
104	0.77712	91553792	61485056	20095904	24992
105	0.765888	91553792	61485056	21443280	24992
106	0.763686	91553792	61485056	22790656	24992
107	0.762421	91553792	61485056	24138032	24992
108	0.761775	91553792	61485056	25485408	24992
109	0.770988	91553792	61485056	26832784	24992
110	0.758136	91553792	61485056	28180160	24992
111	0.775248	91553792	61485056	13082704	24992
112	0.766544	91553792	61485056	14430080	24992
113	0.764311	91553792	61485056	15777456	24992
114	0.775019	91553792	61485056	17124832	24992
115	0.763806	91553792	61485056	18472208	24992
116	0.762368	91553792	61485056	19819584	24992
117	0.763129	91553792	61485056	21166960	24992
118	0.760314	91553792	61485056	22514336	24992
119	0.964906	91553792	61485056	23861712	24992
120	0.762573	91553792	61485056	25209088	24992
121	0.762971	91553792	61485056	26556480	24992
122	0.762019	91553792	61485056	27903856	24992
123	0.77937	91553792	61485056	12806408	24992
124	0.77404	91553792	61485056	14153784	24992
125	0.762585	91553792	61485056	15501160	24992
126	0.764683	91553792	61485056	16848536	24992
127	0.769288	91553792	61485056	18195912	24992
128	0.792593	91553792	61485056	19543288	24992
129	0.770005	91553792	61485056	20890664	24992
130	0.76493	91553792	61485056	22238040	24992
131	0.769686	91553792	61485056	23585416	24992
132	0.761428	91553792	61485056	24932792	24992
133	0.760015	91553792	61485056	26280168	24992
134	0.788806	91553792	61485056	27627624	24992
135	1.002742	91553792	61485056	12532000	24992
136	0.776402	91553792	61485056	13879384	24992
137	0.76307	91553792	61485056	15226760	24992
138	0.821332	91553792	61485056	16574136	24992
139	0.779487	91553792	61485056	17921528	24992
140	0.77548	91553792	61485056	19268904	24992
141	0.79627	91553792	61485056	20616280	24992
142	0.766904	91553792	61485056	21965496	24992
143	0.878185	91553792	61485056	23326816	24992
144	0.760942	91553792	61485056	24674192	24992
145	0.759405	91553792	61485056	26021568	24992
146	0.757025	91553792	61485056	27368944	24992
147	1.001378	91553792	61485056	12275520	24992
148	0.99311	91553792	61485056	13622896	24992
149	0.763073	91553792	61485056	14970272	24992
150	0.763364	91553792	61485056	16317648	24992
151	0.759667	91553792	61485056	17665024	24992
152	0.753243	91553792	61485056	19012400	24992
153	0.762479	91553792	61485056	20359776	24992
154	0.758282	91553792	61485056	21707184	24992
155	1.273271	91553792	61485056	23054576	24992
156	0.770238	91553792	61485056	24401952	24992
157	0.763124	91553792	61485056	25753208	24992
158	0.761972	91553792	61485056	27100248	24992
159	0.852836	91553792	61485056	28447288	24992
160	0.838012	91553792	61485056	13351728	24992
161	0.759869	91553792	61485056	14698768	24992
162	0.754243	91553792	61485056	16045808	24992
163	0.763251	91553792	61485056	17392848	24992
164	0.756444	91553792	61485056	18739888	24992
165	0.7832	91553792	61485056	20086928	24992
166	0.752131	91553792	61485056	21433968	24992
167	0.758887	91553792	61485056	22781008	24992
168	0.756135	91553792	61485056	24128048	24992
169	0.752843	91553792	61485056	25475088	24992
170	1.122789	91553792	61485056	26822128	24992
171	0.765006	91553792	61485056	28169168	24992
172	0.802437	91553792	61485056	13071848	24992
173	0.774896	91553792	61485056	14418904	24992
174	0.784357	91553792	61485056	15765944	24992
175	0.768418	91553792	61485056	17115680	24992
176	0.75538	91553792	61485056	18462720	24992
177	0.786152	91553792	61485056	19809760	24992
178	0.756399	91553792	61485056	21156896	24992
179	0.764575	91553792	61485056	22503936	24992
180	0.760703	91553792	61485056	23850976	24992
181	0.754623	91553792	61485056	25198016	24992
182	0.778392	91553792	61485056	26545056	24992
183	0.750861	91553792	61485056	27892096	24992
184	1.20344	91553792	61485056	12796512	24992
185	0.759358	91553792	61485056	14143552	24992
186	0.758937	91553792	61485056	15490592	24992
187	0.75678	91553792	61485056	16837632	24992
188	0.752514	91553792	61485056	18184672	24992
189	0.782109	91553792	61485056	19531712	24992
190	0.760562	91553792	61485056	20878752	24992
191	0.75431	91553792	61485056	22225808	24992
192	0.757383	91553792	61485056	23572848	24992
193	0.757574	91553792	61485056	24919888	24992
194	0.773432	91553792	61485056	26267752	24992
195	0.761662	91553792	61485056	27614792	24992
196	1.014335	91553792	61485056	12519232	24992
197	0.762537	91553792	61485056	13866280	24992
198	1.022969	91553792	61485056	15213336	24992
199	0.976523	91553792	61485056	16560376	24992
200	0.757312	91553792	61485056	17907416	24992
201	0.756982	91553792	61485056	19254456	24992
202	0.759096	91553792	61485056	20601496	24992
203	0.75424	91553792	61485056	21948536	24992
204	0.76716	91553792	61485056	23295576	24992
205	0.750061	91553792	61485056	24642616	24992
206	0.754495	91553792	61485056	25989656	24992
207	0.757576	91553792	61485056	27336696	24992
208	0.752313	91553792	61485056	28683736	24992
209	0.770209	91553792	61485056	13586328	24992
210	0.805221	91553792	61485056	14933368	24992
211	0.763425	91553792	61485056	16280408	24992
212	0.753605	91553792	61485056	17627448	24992
213	0.750163	91553792	61485056	18974488	24992
214	0.779059	91553792	61485056	20321528	24992
215	0.757357	91553792	61485056	21668768	24992
216	0.755324	91553792	61485056	23015816	24992
217	0.752463	91553792	61485056	24362856	24992
218	0.750098	91553792	61485056	25709896	24992
219	0.766576	91553792	61485056	27056936	24992
220	0.753954	91553792	61485056	28403976	24992
221	0.76961	91553792	61485056	13306560	24992
222	0.760387	91553792	61485056	14653648	24992
223	0.75604	91553792	61485056	16000688	24992
224	0.753661	91553792	61485056	17347728	24992
225	0.752964	91553792	61485056	18694768	24992
226	0.755984	91553792	61485056	20041808	24992
227	0.775004	91553792	61485056	21388848	24992
228	0.750724	91553792	61485056	22735888	24992
229	0.988627	91553792	61485056	24085824	24992
230	0.753387	91553792	61485056	25432864	24992
231	0.769658	91553792	61485056	26779904	24992
232	0.784751	91553792	61485056	28127072	24992
233	1.059011	91553792	61485056	13037064	24992
234	0.758242	91553792	61485056	14384104	24992
235	0.753759	91553792	61485056	15731176	24992
236	0.978026	91553792	61485056	17078216	24992
237	0.763851	91553792	61485056	18425256	24992
238	0.754362	91553792	61485056	19772296	24992
239	0.754389	91553792	61485056	21119336	24992
240	0.751743	91553792	61485056	22466376	24992
241	0.762765	91553792	61485056	23813416	24992
242	0.755214	91553792	61485056	25160536	24992
243	0.752519	91553792	61485056	26507576	24992
244	0.755602	91553792	61485056	27854616	24992
245	1.023987	91553792	61485056	12762272	24992
246	0.770288	91553792	61485056	14109320	24992
247	0.755962	91553792	61485056	15456360	24992
248	0.754462	91553792	61485056	16803416	24992
249	0.751548	91553792	61485056	18150456	24992
250	0.74941	91553792	61485056	19497496	24992
251	0.99202	91553792	61485056	20844536	24992
252	0.757926	91553792	61485056	22191576	24992
253	0.753186	91553792	61485056	23538632	24992
254	0.753119	91553792	61485056	24885672	24992
255	0.751706	91553792	61485056	26232712	24992
256	0.80903	91553792	61485056	27579752	24992
257	0.750208	91553792	61485056	28926792	24992
258	0.769512	91553792	61485056	13829384	24992
259	0.760992	91553792	61485056	15176424	24992
260	0.818603	91553792	61485056	16523464	24992
261	0.75678	91553792	61485056	17870520	24992
262	0.755175	91553792	61485056	19217560	24992
263	0.75764	91553792	61485056	20564600	24992
264	0.753397	91553792	61485056	21911640	24992
265	0.760727	91553792	61485056	23258680	24992
266	0.773933	91553792	61485056	24605736	24992
267	0.754022	91553792	61485056	25952776	24992
268	0.753907	91553792	61485056	27299816	24992
269	0.836215	91553792	61485056	28647440	24992
270	0.768376	91553792	61485056	13550392	24992
271	0.755225	91553792	61485056	14897432	24992
272	0.751133	91553792	61485056	16244488	24992
273	0.968063	91553792	61485056	17591528	24992
274	0.756925	91553792	61485056	18938568	24992
275	0.967573	91553792	61485056	20285608	24992
276	0.754538	91553792	61485056	21632648	24992
277	0.750152	91553792	61485056	22979688	24992
278	0.771313	91553792	61485056	24326728	24992
279	0.753452	91553792	61485056	25673832	24992
280	0.900538	91553792	61485056	27020872	24992
281	0.76516	91553792	61485056	28369872	24992
282	1.02246	91553792	61485056	13274656	24992
283	0.758163	91553792	61485056	14621696	24992
284	0.75742	91553792	61485056	15968736	24992
285	0.763192	91553792	61485056	17315776	24992
286	0.751283	91553792	61485056	18662880	24992
287	0.751424	91553792	61485056	20009920	24992
288	0.759878	91553792	61485056	21356960	24992
289	0.75448	91553792	61485056	22704000	24992
290	0.794844	91553792	61485056	24051040	24992
291	0.7515	91553792	61485056	25398080	24992
292	0.749662	91553792	61485056	26745120	24992
293	0.777632	91553792	61485056	28092160	24992
294	1.028739	91553792	61485056	12996568	24992
295	0.97495	91553792	61485056	14343616	24992
296	0.76561	91553792	61485056	15690656	24992
297	0.754805	91553792	61485056	17037696	24992
298	0.751996	91553792	61485056	18384736	24992
299	0.750528	91553792	61485056	19731776	24992
300	0.758263	91553792	61485056	21078816	24992
301	0.750701	91553792	61485056	22425856	24992
302	0.751833	91553792	61485056	23772896	24992
303	0.75402	91553792	61485056	25119936	24992
304	0.751443	91553792	61485056	26467024	24992
305	0.823101	91553792	61485056	27814064	24992
306	0.748839	91553792	61485056	29161104	24992
307	0.845031	91553792	61485056	14063696	24992
308	0.918922	91553792	61485056	15410736	24992
309	0.790474	91553792	61485056	16759880	24992
310	0.775059	91553792	61485056	18106920	24992
311	0.755008	91553792	61485056	19453960	24992
312	0.762403	91553792	61485056	20801000	24992
313	0.750528	91553792	61485056	22148040	24992
314	0.749852	91553792	61485056	23495080	24992
315	0.754819	91553792	61485056	24842120	24992
316	0.885158	91553792	61485056	26190176	24992
317	0.958491	91553792	61485056	27537312	24992
318	0.75488	91553792	61485056	28884352	24992
319	0.766735	91553792	61485056	13786936	24992
320	0.753255	91553792	61485056	15133976	24992
321	0.750053	91553792	61485056	16481016	24992
322	0.764387	91553792	61485056	17828056	24992
323	0.748625	91553792	61485056	19175144	24992
324	0.750624	91553792	61485056	20522184	24992
325	0.759262	91553792	61485056	21869224	24992
326	0.751014	91553792	61485056	23216264	24992
327	0.760308	91553792	61485056	24563304	24992
328	0.749723	91553792	61485056	25910344	24992
329	0.751404	91553792	61485056	27257384	24992
330	0.751517	91553792	61485056	28604424	24992
331	1.034188	91553792	61485056	13508840	24992
332	0.984747	91553792	61485056	14855880	24992
333	0.755094	91553792	61485056	16202920	24992
334	0.751357	91553792	61485056	17549960	24992
335	0.757419	91553792	61485056	18897000	24992
336	0.749888	91553792	61485056	20244168	24992
337	0.75841	91553792	61485056	21591208	24992
338	0.755248	91553792	61485056	22938248	24992
339	0.753132	91553792	61485056	24285288	24992
340	0.773991	91553792	61485056	25632328	24992
341	0.749048	91553792	61485056	26979368	24992
342	0.757432	91553792	61485056	28326408	24992
343	1.030888	91553792	61485056	13230816	24992
344	0.757693	91553792	61485056	14577864	24992
345	0.752615	91553792	61485056	15924904	24992
346	0.751615	91553792	61485056	17271944	24992
347	0.773467	91553792	61485056	18618984	24992
348	0.74992	91553792	61485056	19966024	24992
349	0.750758	91553792	61485056	21313064	24992
350	0.747675	91553792	61485056	22660104	24992
351	0.751399	91553792	61485056	24007144	24992
352	0.757819	91553792	61485056	25354184	24992
353	0.75555	91553792	61485056	26701224	24992
354	0.751935	91553792	61485056	28048312	24992
355	0.770765	91553792	61485056	29395352	24992
356	0.768119	91553792	61485056	14297944	24992
357	0.759096	91553792	61485056	15644984	24992
358	0.754653	91553792	61485056	16992024	24992
359	0.750214	91553792	61485056	18339064	24992
360	0.756539	91553792	61485056	19690584	24992
361	0.750967	91553792	61485056	21037624	24992
362	0.973752	91553792	61485056	22384664	24992
363	0.751778	91553792	61485056	23731704	24992
364	0.748643	91553792	61485056	25078744	24992
365	0.751008	91553792	61485056	26425784	24992
366	0.752542	91553792	61485056	27772824	24992
367	0.757566	91553792	61485056	29119896	24992
368	0.768251	91553792	61485056	14026928	24992
369	0.755257	91553792	61485056	15373968	24992
370	0.755373	91553792	61485056	16721008	24992
371	0.751798	91553792	61485056	18068048	24992
372	0.759285	91553792	61485056	19415088	24992
373	0.749313	91553792	61485056	20762128	24992
374	0.809722	91553792	61485056	22109248	24992
375	0.755511	91553792	61485056	23456288	24992
376	0.752938	91553792	61485056	24803328	24992
377	0.954636	91553792	61485056	26150368	24992
378	0.750365	91553792	61485056	27497408	24992
379	0.755691	91553792	61485056	28844448	24992
380	1.024696	91553792	61485056	13753312	24992
381	0.758242	91553792	61485056	15100352	24992
382	0.764828	91553792	61485056	16447392	24992
383	0.74995	91553792	61485056	17794432	24992
384	0.808063	91553792	61485056	19141472	24992
385	0.763253	91553792	61485056	20488512	24992
386	0.748587	91553792	61485056	21835552	24992
387	0.757939	91553792	61485056	23182592	24992
388	0.74933	91553792	61485056	24529632	24992
389	0.759479	91553792	61485056	25876672	24992
390	0.758365	91553792	61485056	27223712	24992
391	0.753179	91553792	61485056	28570752	24992
392	1.27029	91553792	61485056	13475208	24992
393	0.757073	91553792	61485056	14822272	24992
394	0.935348	91553792	61485056	16169312	24992
395	0.748763	91553792	61485056	17516352	24992
396	0.749927	91553792	61485056	18863392	24992
397	0.762826	91553792	61485056	20210432	24992
398	0.751747	91553792	61485056	21557488	24992
399	0.763812	91553792	61485056	22904528	24992
400	0.751271	91553792	61485056	24251568	24992
401	0.748066	91553792	61485056	25598608	24992
402	0.753533	91553792	61485056	26945648	24992
403	0.749401	91553792	61485056	28292688	24992
404	0.750673	91553792	61485056	29639728	24992
405	0.759643	91553792	61485056	14540656	24992
406	0.753359	91553792	61485056	15887696	24992
407	0.75359	91553792	61485056	17234736	24992
408	0.748883	91553792	61485056	18581776	24992
409	0.755516	91553792	61485056	19928816	24992
410	0.759545	91553792	61485056	21275856	24992
411	0.749471	91553792	61485056	22622944	24992
412	0.75483	91553792	61485056	23969984	24992
413	0.759317	91553792	61485056	25317024	24992
414	0.750279	91553792	61485056	26664064	24992
415	0.754245	91553792	61485056	28011104	24992
416	0.749637	91553792	61485056	29358144	24992
417	0.768267	91553792	61485056	14260728	24992
418	0.753117	91553792	61485056	15607816	24992
419	0.758047	91553792	61485056	16954856	24992
420	0.757122	91553792	61485056	18301896	24992
421	0.750839	91553792	61485056	19648936	24992
422	0.972459	91553792	61485056	20995976	24992
423	0.749439	91553792	61485056	22343016	24992
424	0.762863	91553792	61485056	23690056	24992
425	0.751568	91553792	61485056	25037096	24992
426	0.74801	91553792	61485056	26384136	24992
427	0.755792	91553792	61485056	27731176	24992
428	0.759817	91553792	61485056	29078216	24992
429	1.047946	91553792	61485056	13978552	24992
430	0.986218	91553792	61485056	15325592	24992
431	0.754122	91553792	61485056	16672632	24992
432	0.752525	91553792	61485056	18019672	24992
433	0.749774	91553792	61485056	19366712	24992
434	0.761383	91553792	61485056	20713752	24992
435	0.758419	91553792	61485056	22060840	24992
436	0.748724	91553792	61485056	23407880	24992
437	0.974342	91553792	61485056	24754920	24992
438	0.753791	91553792	61485056	26101960	24992
439	0.757612	91553792	61485056	27449000	24992
440	0.749604	91553792	61485056	28796040	24992
441	1.027213	91553792	61485056	13700448	24992
442	0.758592	91553792	61485056	15047584	24992
443	0.750003	91553792	61485056	16394624	24992
444	0.953113	91553792	61485056	17741664	24992
445	0.750812	91553792	61485056	19088704	24992
446	0.746867	91553792	61485056	20435744	24992
447	0.753137	91553792	61485056	21782784	24992
448	0.75753	91553792	61485056	23129824	24992
449	0.758143	91553792	61485056	24476960	24992
450	0.748722	91553792	61485056	25824000	24992
451	0.748024	91553792	61485056	27171040	24992
452	0.754018	91553792	61485056	28518080	24992
453	1.02678	91553792	61485056	13421824	24992
454	0.776598	91553792	61485056	14768872	24992
455	0.751283	91553792	61485056	16115960	24992
456	0.749042	91553792	61485056	17463000	24992
457	0.762831	91553792	61485056	18810040	24992
458	0.750493	91553792	61485056	20157080	24992
459	0.747489	91553792	61485056	21504120	24992
460	0.752286	91553792	61485056	22851160	24992
461	0.814265	91553792	61485056	24198200	24992
462	0.751497	91553792	61485056	25545240	24992
463	0.749608	91553792	61485056	26892280	24992
464	0.793299	91553792	61485056	28239320	24992
465	0.822546	91553792	61485056	29586360	24992
466	0.842165	91553792	61485056	14488936	24992
467	0.764068	91553792	61485056	15835976	24992
468	0.791831	91553792	61485056	17183032	24992
469	0.952489	91553792	61485056	18530072	24992
470	0.796126	91553792	61485056	19877112	24992
471	0.798898	91553792	61485056	21224152	24992
472	0.749322	91553792	61485056	22571192	24992
473	0.754223	91553792	61485056	23918248	24992
474	0.756834	91553792	61485056	25265288	24992
475	0.750682	91553792	61485056	26612328	24992
476	0.750337	91553792	61485056	27959368	24992
477	0.750587	91553792	61485056	29306408	24992
478	0.829779	91553792	61485056	14208992	24992
479	0.753569	91553792	61485056	15556032	24992
480	0.753566	91553792	61485056	16903072	24992
481	0.755078	91553792	61485056	18250112	24992
482	0.756321	91553792	61485056	19597152	24992
483	0.752759	91553792	61485056	20944192	24992
484	0.749179	91553792	61485056	22291232	24992
485	0.80442	91553792	61485056	23638272	24992
486	0.750738	91553792	61485056	24985328	24992
487	0.817032	91553792	61485056	26332368	24992
488	0.756382	91553792	61485056	27679408	24992
489	0.751894	91553792	61485056	29026448	24992
490	1.068388	91553792	61485056	13930856	24992
491	0.753525	91553792	61485056	15277904	24992
492	0.840256	91553792	61485056	16626632	24992
493	0.764552	91553792	61485056	17973672	24992
494	0.74949	91553792	61485056	19320712	24992
495	0.75675	91553792	61485056	20667752	24992
496	0.771088	91553792	61485056	22014792	24992
497	0.815775	91553792	61485056	23361832	24992
498	0.749195	91553792	61485056	24708872	24992
499	0.772372	91553792	61485056	26056040	24992
500	0.749699	91553792	61485056	27403080	24992
501	0.75656	91553792	61485056	28750120	24992
502	1.396314	91553792	61485056	13654528	24992
503	0.769631	91553792	61485056	15001576	24992
504	0.812849	91553792	61485056	16348616	24992
505	0.752588	91553792	61485056	17695656	24992
506	0.813804	91553792	61485056	19042744	24992
507	0.751461	91553792	61485056	20389784	24992
508	0.755468	91553792	61485056	21736824	24992
509	0.96239	91553792	61485056	23083864	24992
510	0.74876	91553792	61485056	24430904	24992
511	0.749133	91553792	61485056	25777944	24992
512	0.749876	91553792	61485056	27124984	24992
513	0.74843	91553792	61485056	28472024	24992
514	0.765955	91553792	61485056	29819064	24992
515	0.780303	91553792	61485056	14721640	24992
516	0.78574	91553792	61485056	16068680	24992
517	0.753352	91553792	61485056	17415720	24992
518	0.748617	91553792	61485056	18762760	24992
519	0.755302	91553792	61485056	20109800	24992
520	0.747915	91553792	61485056	21456840	24992
521	0.755855	91553792	61485056	22803880	24992
522	0.749902	91553792	61485056	24150920	24992
523	0.755773	91553792	61485056	25497960	24992
524	0.760467	91553792	61485056	26845096	24992
525	0.750242	91553792	61485056	28192136	24992
526	0.750844	91553792	61485056	29539176	24992
527	0.766178	91553792	61485056	14441760	24992
528	0.751423	91553792	61485056	15788800	24992
529	0.764974	91553792	61485056	17135840	24992
530	0.753306	91553792	61485056	18482880	24992
531	0.748826	91553792	61485056	19829920	24992
532	0.754503	91553792	61485056	21176960	24992
533	0.753354	91553792	61485056	22524000	24992
534	0.838558	91553792	61485056	23871040	24992
535	0.748935	91553792	61485056	25218080	24992
536	0.748366	91553792	61485056	26565120	24992
537	0.75849	91553792	61485056	27912160	24992
538	0.754575	91553792	61485056	29259200	24992
539	1.266769	91553792	61485056	14163608	24992
540	0.755183	91553792	61485056	15510656	24992
541	0.760026	91553792	61485056	16857696	24992
542	0.749543	91553792	61485056	18204736	24992
543	0.750425	91553792	61485056	19551856	24992
544	0.755601	91553792	61485056	20898896	24992
545	0.754486	91553792	61485056	22245936	24992
546	0.749505	91553792	61485056	23592976	24992
547	0.753466	91553792	61485056	24940016	24992
548	0.751426	91553792	61485056	26287072	24992
549	0.752283	91553792	61485056	27634112	24992
550	0.7501	91553792	61485056	28981152	24992
551	1.044346	91553792	61485056	13885560	24992
552	0.770055	91553792	61485056	15232608	24992
553	0.763459	91553792	61485056	16579648	24992
554	0.756295	91553792	61485056	17926688	24992
555	0.750797	91553792	61485056	19273728	24992
556	0.747481	91553792	61485056	20627616	24992
557	0.752413	91553792	61485056	21974656	24992
558	0.754099	91553792	61485056	23321696	24992
559	0.757747	91553792	61485056	24668736	24992
560	0.748574	91553792	61485056	26015776	24992
561	0.749788	91553792	61485056	27362832	24992
562	0.759103	91553792	61485056	28709872	24992
563	0.748931	91553792	61485056	30056912	24992
564	0.790454	91553792	61485056	14966288	24992
565	0.770469	91553792	61485056	16313328	24992
566	0.808311	91553792	61485056	17660368	24992
567	0.755133	91553792	61485056	19007408	24992
568	0.751277	91553792	61485056	20354448	24992
569	0.780229	91553792	61485056	21701488	24992
570	0.754779	91553792	61485056	23048528	24992
571	0.758986	91553792	61485056	24395568	24992
572	0.751571	91553792	61485056	25742608	24992
573	0.749994	91553792	61485056	27089648	24992
574	0.758099	91553792	61485056	28436688	24992
575	0.74831	91553792	61485056	29783728	24992
576	0.783057	91553792	61485056	14693112	24992
577	0.751028	91553792	61485056	16040152	24992
578	0.755171	91553792	61485056	17387192	24992
579	0.751464	91553792	61485056	18734232	24992
580	0.748865	91553792	61485056	20081288	24992
581	0.74906	91553792	61485056	21428328	24992
582	0.748183	91553792	61485056	22775368	24992
583	0.75018	91553792	61485056	24122408	24992
584	0.782744	91553792	61485056	25469448	24992
585	0.748102	91553792	61485056	26816488	24992
586	0.757363	91553792	61485056	28163528	24992
587	0.752334	91553792	61485056	29510696	24992
588	1.037088	91553792	61485056	14415104	24992
589	0.762038	91553792	61485056	15762152	24992
590	0.757824	91553792	61485056	17109192	24992
591	0.972314	91553792	61485056	18456232	24992
592	0.751253	91553792	61485056	19803272	24992
593	0.752774	91553792	61485056	21150312	24992
594	0.750283	91553792	61485056	22497384	24992
595	0.751621	91553792	61485056	23844424	24992
596	0.805067	91553792	61485056	25191464	24992
597	0.750374	91553792	61485056	26538504	24992
598	0.749604	91553792	61485056	27885544	24992
599	0.758798	91553792	61485056	29232584	24992
600	1.032851	91553792	61485056	14136992	24992
601	0.764317	91553792	61485056	15484040	24992
602	0.752896	91553792	61485056	16831080	24992
603	0.752555	91553792	61485056	18178120	24992
604	0.75523	91553792	61485056	19525160	24992
605	0.751126	91553792	61485056	20872200	24992
606	0.947992	91553792	61485056	22219240	24992
607	0.754176	91553792	61485056	23566280	24992
608	0.749671	91553792	61485056	24913320	24992
609	0.751839	91553792	61485056	26260360	24992
610	0.75132	91553792	61485056	27607400	24992
611	0.76882	91553792	61485056	28954440	24992
612	0.750566	91553792	61485056	30301480	24992
613	0.767254	91553792	61485056	15204072	24992
614	0.752813	91553792	61485056	16551112	24992
615	0.754095	91553792	61485056	17898152	24992
616	0.761548	91553792	61485056	19245192	24992
617	0.751205	91553792	61485056	20592232	24992
618	0.748821	91553792	61485056	21939272	24992
619	0.754369	91553792	61485056	23286312	24992
620	0.752768	91553792	61485056	24633352	24992
621	0.789951	91553792	61485056	25980392	24992
622	0.750886	91553792	61485056	27327432	24992
623	0.752634	91553792	61485056	28674472	24992
624	0.821732	91553792	61485056	30021512	24992
625	0.773206	91553792	61485056	14924128	24992
626	0.765764	91553792	61485056	16271168	24992
627	0.751295	91553792	61485056	17618208	24992
628	0.74757	91553792	61485056	18965248	24992
629	0.756608	91553792	61485056	20312288	24992
630	0.751851	91553792	61485056	21659328	24992
631	0.993108	91553792	61485056	23006464	24992
632	0.752677	91553792	61485056	24353504	24992
633	0.754328	91553792	61485056	25700544	24992
634	0.752347	91553792	61485056	27047584	24992
635	0.752709	91553792	61485056	28394624	24992
636	1.099799	91553792	61485056	29741664	24992
637	1.038504	91553792	61485056	14646072	24992
638	0.766949	91553792	61485056	15993120	24992
639	0.750585	91553792	61485056	17340160	24992
640	0.748781	91553792	61485056	18687200	24992
641	0.75677	91553792	61485056	20034240	24992
642	0.751824	91553792	61485056	21381280	24992
643	0.763104	91553792	61485056	22728320	24992
644	0.74939	91553792	61485056	24075376	24992
645	0.746036	91553792	61485056	25422416	24992
646	0.768495	91553792	61485056	26769456	24992
647	0.748587	91553792	61485056	28116496	24992
648	0.75324	91553792	61485056	29463536	24992
649	1.039769	91553792	61485056	14367944	24992
650	0.757389	91553792	61485056	15714992	24992
651	0.773959	91553792	61485056	17062048	24992
652	0.750371	91553792	61485056	18409088	24992
653	0.763756	91553792	61485056	19756128	24992
654	0.74994	91553792	61485056	21103168	24992
655	0.755232	91553792	61485056	22450208	24992
656	0.750916	91553792	61485056	23797248	24992
657	0.74851	91553792	61485056	25144288	24992
658	0.759321	91553792	61485056	26491328	24992
659	0.756775	91553792	61485056	27838368	24992
660	0.748295	91553792	61485056	29185408	24992
661	0.988789	91553792	61485056	30532448	24992
662	0.767168	91553792	61485056	15435040	24992
663	0.770041	91553792	61485056	16782080	24992
664	0.750771	91553792	61485056	18129120	24992
665	0.749693	91553792	61485056	19476160	24992
666	0.751576	91553792	61485056	20823200	24992
667	0.752499	91553792	61485056	22170240	24992
668	0.761849	91553792	61485056	23517280	24992
669	0.750133	91553792	61485056	24864320	24992
670	0.749577	91553792	61485056	26211360	24992
671	0.754961	91553792	61485056	27558400	24992
672	0.750675	91553792	61485056	28905440	24992
673	0.958112	91553792	61485056	30252480	24992
674	0.768545	91553792	61485056	15155064	24992
675	0.751876	91553792	61485056	16502120	24992
676	0.756662	91553792	61485056	17849160	24992
677	0.754223	91553792	61485056	19196200	24992
678	0.760226	91553792	61485056	20543240	24992
679	0.749055	91553792	61485056	21890280	24992
680	0.755178	91553792	61485056	23237320	24992
681	0.769239	91553792	61485056	24584360	24992
682	0.752388	91553792	61485056	25931480	24992
683	0.758413	91553792	61485056	27278520	24992
684	0.748808	91553792	61485056	28625560	24992
685	0.754778	91553792	61485056	29972600	24992
686	1.036806	91553792	61485056	14877016	24992
687	0.755787	91553792	61485056	16224056	24992
688	0.771224	91553792	61485056	17571144	24992
689	0.748844	91553792	61485056	18918184	24992
690	0.758473	91553792	61485056	20265224	24992
691	0.752709	91553792	61485056	21612264	24992
692	0.751036	91553792	61485056	22959304	24992
693	0.761139	91553792	61485056	24306360	24992
694	0.749472	91553792	61485056	25653400	24992
695	0.753601	91553792	61485056	27000440	24992
696	0.777584	91553792	61485056	28347480	24992
697	0.751447	91553792	61485056	29694520	24992
698	1.036291	91553792	61485056	14598928	24992
699	0.76228	91553792	61485056	15945976	24992
700	0.752314	91553792	61485056	17293016	24992
701	0.75556	91553792	61485056	18640056	24992
702	0.758699	91553792	61485056	19987096	24992
703	1.10547	91553792	61485056	21334800	24992
704	0.755961	91553792	61485056	22681840	24992
705	0.754076	91553792	61485056	24028880	24992
706	0.752791	91553792	61485056	25376000	24992
707	0.748748	91553792	61485056	26723040	24992
708	0.811602	91553792	61485056	28070080	24992
709	0.750591	91553792	61485056	29417120	24992
710	0.74743	91553792	61485056	30764160	24992
711	0.771628	91553792	61485056	15666752	24992
712	0.758942	91553792	61485056	17013792	24992
713	0.754127	91553792	61485056	18360832	24992
714	0.749694	91553792	61485056	19707872	24992
715	0.751738	91553792	61485056	21054912	24992
716	0.755896	91553792	61485056	22401952	24992
717	0.749478	91553792	61485056	23748992	24992
718	0.970188	91553792	61485056	25096032	24992
719	0.75384	91553792	61485056	26443072	24992
720	0.755196	91553792	61485056	27790112	24992
721	0.753956	91553792	61485056	29137152	24992
722	0.749942	91553792	61485056	30484192	24992
723	0.765735	91553792	61485056	15386776	24992
724	0.758464	91553792	61485056	16733816	24992
725	0.746982	91553792	61485056	18080856	24992
726	0.760928	91553792	61485056	19427928	24992
727	0.753056	91553792	61485056	20774968	24992
728	0.758211	91553792	61485056	22122008	24992
729	0.748919	91553792	61485056	23469048	24992
730	0.752236	91553792	61485056	24816088	24992
731	0.750672	91553792	61485056	26163128	24992
732	0.748319	91553792	61485056	27510168	24992
733	0.957974	91553792	61485056	28857208	24992
734	0.760481	91553792	61485056	30204248	24992
735	1.035416	91553792	61485056	15108664	24992
736	0.762634	91553792	61485056	16455704	24992
737	0.76931	91553792	61485056	17802744	24992
738	0.773762	91553792	61485056	19149784	24992
739	0.778544	91553792	61485056	20496824	24992
740	0.750999	91553792	61485056	21843864	24992
741	0.754216	91553792	61485056	23190904	24992
742	0.751907	91553792	61485056	24537944	24992
743	0.754683	91553792	61485056	25885048	24992
744	0.755429	91553792	61485056	27232088	24992
745	0.806303	91553792	61485056	28579128	24992
746	0.750783	91553792	61485056	29926168	24992
747	1.038146	91553792	61485056	14830576	24992
748	0.757647	91553792	61485056	16177624	24992
749	0.754159	91553792	61485056	17524664	24992
750	0.760218	91553792	61485056	18871736	24992
751	0.75053	91553792	61485056	20218776	24992
752	0.751651	91553792	61485056	21565816	24992
753	0.75086	91553792	61485056	22912856	24992
754	0.75426	91553792	61485056	24259896	24992
755	0.749528	91553792	61485056	25606936	24992
756	0.758763	91553792	61485056	26953976	24992
757	0.751234	91553792	61485056	28301160	24992
758	0.749777	91553792	61485056	29648200	24992
759	0.755855	91553792	61485056	30995240	24992
760	0.776995	91553792	61485056	15897832	24992
761	0.750909	91553792	61485056	17244872	24992
762	0.746924	91553792	61485056	18591912	24992
763	0.778263	91553792	61485056	19938952	24992
764	0.751135	91553792	61485056	21285992	24992
765	0.760528	91553792	61485056	22633032	24992
766	0.747934	91553792	61485056	23980072	24992
767	0.752996	91553792	61485056	25327112	24992
768	0.749118	91553792	61485056	26674152	24992
769	0.747862	91553792	61485056	28021192	24992
770	0.751181	91553792	61485056	29368232	24992
771	0.752135	91553792	61485056	30715272	24992
772	0.780951	91553792	61485056	15617856	24992
773	0.775696	91553792	61485056	16964896	24992
774	0.774475	91553792	61485056	18312008	24992
775	0.988241	91553792	61485056	19659048	24992
776	0.754158	91553792	61485056	21006264	24992
777	1.131458	91553792	61485056	22362336	24992
778	0.754414	91553792	61485056	23709376	24992
779	0.759265	91553792	61485056	25056416	24992
780	0.774149	91553792	61485056	26403456	24992
781	0.767883	91553792	61485056	27752904	24992
782	0.763855	91553792	61485056	29099944	24992
783	0.769499	91553792	61485056	30446984	24992
784	1.0668	91553792	61485056	15366264	24992
785	0.761518	91553792	61485056	16713304	24992
786	0.765827	91553792	61485056	18060344	24992
787	0.753726	91553792	61485056	19407384	24992
788	0.750945	91553792	61485056	20754424	24992
789	0.747094	91553792	61485056	22101560	24992
790	0.748469	91553792	61485056	23448600	24992
791	0.748859	91553792	61485056	24795640	24992
792	0.973064	91553792	61485056	26142680	24992
793	0.750974	91553792	61485056	27489720	24992
794	0.75073	91553792	61485056	28836824	24992
795	0.747931	91553792	61485056	30183864	24992
796	1.088264	91553792	61485056	15128008	24992
797	0.753091	91553792	61485056	16475056	24992
798	0.753151	91553792	61485056	17822096	24992
799	0.76618	91553792	61485056	19169136	24992
800	0.750478	91553792	61485056	20516176	24992
801	0.748022	91553792	61485056	21863216	24992
802	0.748069	91553792	61485056	23210288	24992
803	0.746158	91553792	61485056	24557328	24992
804	0.749034	91553792	61485056	25904368	24992
805	0.748469	91553792	61485056	27251408	24992
806	0.749148	91553792	61485056	28598448	24992
807	0.975091	91553792	61485056	29945488	24992
808	0.75564	91553792	61485056	31292528	24992
809	0.780043	91553792	61485056	16245504	24992
810	0.752939	91553792	61485056	17592688	24992
811	0.748355	91553792	61485056	18939728	24992
812	0.74937	91553792	61485056	20286768	24992
813	0.749522	91553792	61485056	21633808	24992
814	0.76365	91553792	61485056	22980848	24992
815	0.75937	91553792	61485056	24328000	24992
816	0.766225	91553792	61485056	25675040	24992
817	0.806587	91553792	61485056	27022080	24992
818	0.748538	91553792	61485056	28369120	24992
819	0.765456	91553792	61485056	29716160	24992
820	0.747916	91553792	61485056	31063200	24992
821	0.775041	91553792	61485056	16016168	24992
822	0.755879	91553792	61485056	17363208	24992
823	0.750128	91553792	61485056	18710264	24992
824	0.760695	91553792	61485056	20057304	24992
825	0.746726	91553792	61485056	21404344	24992
826	0.750746	91553792	61485056	22751384	24992
827	0.748057	91553792	61485056	24098424	24992
828	0.755218	91553792	61485056	25445464	24992
829	0.948707	91553792	61485056	26792504	24992
830	0.7576	91553792	61485056	28139544	24992
831	0.750744	91553792	61485056	29486584	24992
832	0.751326	91553792	61485056	30833624	24992
833	0.767292	91553792	61485056	15785560	24992
834	0.761098	91553792	61485056	17132600	24992
835	0.747055	91553792	61485056	18479640	24992
836	0.749101	91553792	61485056	19826696	24992
837	0.761569	91553792	61485056	21173736	24992
838	0.768518	91553792	61485056	22520792	24992
839	0.760953	91553792	61485056	23870240	24992
840	0.754277	91553792	61485056	25217088	24992
841	0.746595	91553792	61485056	26563936	24992
842	0.747591	91553792	61485056	27910784	24992
843	0.748047	91553792	61485056	29257632	24992
844	0.831026	91553792	61485056	30604480	24992
845	1.161407	91553792	61485056	15559840	24992
846	0.763441	91553792	61485056	16906688	24992
847	0.749762	91553792	61485056	18253536	24992
848	0.754293	91553792	61485056	19600384	24992
849	0.756063	91553792	61485056	20947248	24992
850	0.747785	91553792	61485056	22304432	24992
851	0.755804	91553792	61485056	23651280	24992
852	0.752853	91553792	61485056	24998128	24992
853	0.751801	91553792	61485056	26344976	24992
854	0.756903	91553792	61485056	27691824	24992
855	0.747603	91553792	61485056	29038672	24992
856	0.746873	91553792	61485056	30385584	24992
857	1.160274	91553792	61485056	15351344	24992
858	0.754899	91553792	61485056	16698200	24992
859	0.783723	91553792	61485056	18045048	24992
860	0.74906	91553792	61485056	19391896	24992
861	0.760103	91553792	61485056	20738744	24992
862	0.747295	91553792	61485056	22085592	24992
863	0.748801	91553792	61485056	23432440	24992
864	0.757986	91553792	61485056	24779304	24992
865	0.746407	91553792	61485056	26126152	24992
866	0.748767	91553792	61485056	27473000	24992
867	0.749055	91553792	61485056	28819848	24992
868	0.756982	91553792	61485056	30166696	24992
869	0.756964	91553792	61485056	31513544	24992
870	0.766836	91553792	61485056	16476656	24992
871	0.762689	91553792	61485056	17823504	24992
872	0.769195	91553792	61485056	19170368	24992
873	0.748255	91553792	61485056	20517216	24992
874	0.776636	91553792	61485056	21864064	24992
875	0.748477	91553792	61485056	23210912	24992
876	0.94322	91553792	61485056	24557824	24992
877	0.749786	91553792	61485056	25904672	24992
878	0.750757	91553792	61485056	27251520	24992
879	0.807646	91553792	61485056	28598368	24992
880	0.760543	91553792	61485056	29945216	24992
881	0.947448	91553792	61485056	31292064	24992
882	0.771257	91553792	61485056	16244840	24992
883	0.749766	91553792	61485056	17591688	24992
884	0.747583	91553792	61485056	18938536	24992
885	0.743305	91553792	61485056	20285400	24992
886	0.799772	91553792	61485056	21632248	24992
887	0.75254	91553792	61485056	22979096	24992
888	0.747689	91553792	61485056	24325944	24992
889	0.753193	91553792	61485056	25672792	24992
890	0.74857	91553792	61485056	27019640	24992
891	0.755831	91553792	61485056	28366488	24992
892	0.74621	91553792	61485056	29713336	24992
893	0.966252	91553792	61485056	31060184	24992
894	1.208193	91553792	61485056	16015544	24992
895	0.763487	91553792	61485056	17362392	24992
896	0.754075	91553792	61485056	18709240	24992
897	0.747067	91553792	61485056	20056304	24992
898	0.757388	91553792	61485056	21403160	24992
899	0.744737	91553792	61485056	22750008	24992
900	0.74581	91553792	61485056	24096856	24992
901	0.80272	91553792	61485056	25443704	24992
902	0.74817	91553792	61485056	26790552	24992
903	0.74914	91553792	61485056	28137400	24992
904	0.751486	91553792	61485056	29484376	24992
905	0.755245	91553792	61485056	30831224	24992
906	1.220792	91553792	61485056	15786584	24992
907	0.753588	91553792	61485056	17133440	24992
908	0.761264	91553792	61485056	18480288	24992
909	0.748911	91553792	61485056	19827136	24992
910	0.749984	91553792	61485056	21173984	24992
911	0.777889	91553792	61485056	22520832	24992
912	0.74771	91553792	61485056	23867680	24992
913	0.756962	91553792	61485056	25214528	24992
914	0.750579	91553792	61485056	26561376	24992
915	0.74932	91553792	61485056	27908224	24992
916	0.754415	91553792	61485056	29255072	24992
917	1.574055	91553792	61485056	30601936	24992
918	0.784644	91553792	61485056	31948784	24992
919	0.834622	91553792	61485056	16915432	24992
920	0.755628	91553792	61485056	18262280	24992
921	0.747802	91553792	61485056	19609128	24992
922	0.751371	91553792	61485056	20955976	24992
923	0.74657	91553792	61485056	22302824	24992
924	0.757469	91553792	61485056	23649672	24992
925	0.982455	91553792	61485056	24996584	24992
926	0.747179	91553792	61485056	26343432	24992
927	0.757495	91553792	61485056	27690280	24992
928	0.751982	91553792	61485056	29037128	24992
929	0.749099	91553792	61485056	30383976	24992
930	0.754832	91553792	61485056	31730840	24992
931	0.770481	91553792	61485056	16683624	24992
932	0.977875	91553792	61485056	18030480	24992
933	0.748751	91553792	61485056	19377328	24992
934	0.744755	91553792	61485056	20724176	24992
935	0.747727	91553792	61485056	22071024	24992
936	0.747977	91553792	61485056	23417872	24992
937	0.754087	91553792	61485056	24764720	24992
938	0.747637	91553792	61485056	26111584	24992
939	0.749349	91553792	61485056	27458432	24992
940	0.771848	91553792	61485056	28805280	24992
941	0.750099	91553792	61485056	30152128	24992
942	0.74703	91553792	61485056	31498976	24992
943	0.770814	91553792	61485056	16448544	24992
944	0.748803	91553792	61485056	17795392	24992
945	0.749824	91553792	61485056	19142240	24992
946	0.747782	91553792	61485056	20489088	24992
947	0.96027	91553792	61485056	21835936	24992
948	0.750538	91553792	61485056	23182784	24992
949	0.747282	91553792	61485056	24529632	24992
950	0.746203	91553792	61485056	25876480	24992
951	0.749897	91553792	61485056	27223328	24992
952	0.75403	91553792	61485056	28570176	24992
953	0.749056	91553792	61485056	29917024	24992
954	0.745717	91553792	61485056	31263872	24992
955	1.328148	91553792	61485056	16219200	24992
956	0.753698	91553792	61485056	17566056	24992
957	0.755116	91553792	61485056	18912904	24992
958	0.750663	91553792	61485056	20259752	24992
959	0.745782	91553792	61485056	21606648	24992
960	0.747159	91553792	61485056	22953496	24992
961	0.756342	91553792	61485056	24300344	24992
962	0.765814	91553792	61485056	25647192	24992
963	0.747575	91553792	61485056	26994040	24992
964	0.74503	91553792	61485056	28340888	24992
965	0.74906	91553792	61485056	29687736	24992
966	0.746345	91553792	61485056	31034584	24992
967	1.314065	91553792	61485056	15989728	24992
968	0.756359	91553792	61485056	17336584	24992
969	0.757436	91553792	61485056	18683432	24992
970	0.757443	91553792	61485056	20030280	24992
971	0.747041	91553792	61485056	21377128	24992
972	0.746944	91553792	61485056	22723976	24992
973	0.752412	91553792	61485056	24070824	24992
974	0.744793	91553792	61485056	25417672	24992
975	0.747617	91553792	61485056	26764520	24992
976	0.747227	91553792	61485056	28111368	24992
977	0.980363	91553792	61485056	29458216	24992
978	0.750522	91553792	61485056	30805064	24992
979	0.745196	91553792	61485056	32151912	24992
980	0.766116	91553792	61485056	17104680	24992
981	0.749186	91553792	61485056	18451528	24992
982	0.749695	91553792	61485056	19798376	24992
983	0.751615	91553792	61485056	21145224	24992
984	0.764522	91553792	61485056	22492072	24992
985	0.748492	91553792	61485056	23838952	24992
986	0.744657	91553792	61485056	25185800	24992
987	0.745144	91553792	61485056	26532648	24992
988	0.746323	91553792	61485056	27879496	24992
989	0.752715	91553792	61485056	29226344	24992
990	0.749429	91553792	61485056	30573192	24992
991	0.745129	91553792	61485056	31920040	24992
992	0.7679	91553792	61485056	16872816	24992
993	0.749476	91553792	61485056	18219712	24992
994	0.759071	91553792	61485056	19566560	24992
995	0.747699	91553792	61485056	20913408	24992
996	0.746802	91553792	61485056	22260256	24992
997	0.749002	91553792	61485056	23607104	24992
998	0.74772	91553792	61485056	24953984	24992
999	0.958193	91553792	61485056	26300832	24992
1000	0.755387	91553792	61485056	27647680	24992
