x	Duration	RSS	HeapTotal	HeapUsed	External
0	NA	91971584	61485056	11536696	24992
1	1.326303	91971584	61485056	12216800	24992
2	2.240894	91971584	61485056	13555184	24992
3	1.147018	91971584	61485056	15558856	24992
4	1.127563	91971584	61485056	16906320	24992
5	1.125967	91971584	61485056	18253784	24992
6	1.229296	91971584	61485056	19601248	24992
7	0.779088	91971584	61485056	20948840	24992
8	0.785716	91971584	61485056	22296304	24992
9	0.779764	91971584	61485056	23643768	24992
10	0.777733	91971584	61485056	24991232	24992
11	0.802785	91971584	61485056	26338696	24992
12	0.776584	91971584	61485056	27686176	24992
13	0.999456	91971584	61485056	12571624	24992
14	0.801407	91971584	61485056	13919152	24992
15	0.776728	91971584	61485056	15266616	24992
16	0.779076	91971584	61485056	16614080	24992
17	0.779756	91971584	61485056	17961544	24992
18	0.789172	91971584	61485056	19309008	24992
19	0.777137	91971584	61485056	20656824	24992
20	0.776211	91971584	61485056	22004320	24992
21	0.781201	91971584	61485056	23351784	24992
22	0.781757	91971584	61485056	24699248	24992
23	0.782397	91971584	61485056	26046712	24992
24	0.779989	91971584	61485056	27394176	24992
25	1.035104	91971584	61485056	12296936	24992
26	0.780551	91971584	61485056	13644400	24992
27	0.782248	91971584	61485056	14991896	24992
28	0.779526	91971584	61485056	16339360	24992
29	0.775665	91971584	61485056	17686824	24992
30	0.785718	91971584	61485056	19034288	24992
31	0.782556	91971584	61485056	20381752	24992
32	0.777411	91971584	61485056	21729216	24992
33	0.786694	91971584	61485056	23076680	24992
34	0.777328	91971584	61485056	24424144	24992
35	0.782331	91971584	61485056	25771608	24992
36	0.780203	91971584	61485056	27119072	24992
37	1.012289	91971584	61485056	12025240	24992
38	0.802186	91971584	61485056	13372704	24992
39	0.778537	91971584	61485056	14720168	24992
40	0.793416	91971584	61485056	16067632	24992
41	0.774994	91971584	61485056	17415096	24992
42	0.780699	91971584	61485056	18762560	24992
43	0.780576	91971584	61485056	20110024	24992
44	0.77654	91971584	61485056	21457560	24992
45	0.786214	91971584	61485056	22805688	24992
46	0.779301	91971584	61485056	24153152	24992
47	0.77674	91971584	61485056	25500616	24992
48	0.779969	91971584	61485056	26848080	24992
49	1.012185	91971584	61485056	11753896	24992
50	0.800915	91971584	61485056	13101352	24992
51	0.781367	91971584	61485056	14448880	24992
52	0.77709	91971584	61485056	15796344	24992
53	0.779395	91971584	61485056	17143808	24992
54	0.777986	91971584	61485056	18491272	24992
55	0.782122	91971584	61485056	19838736	24992
56	0.780169	91971584	61485056	21186200	24992
57	0.775858	91971584	61485056	22533664	24992
58	0.786301	91971584	61485056	23881128	24992
59	0.774723	91971584	61485056	25228592	24992
60	0.787615	91971584	61485056	26576056	24992
61	0.777231	91971584	61485056	27923520	24992
62	0.801878	91971584	61485056	12828232	24992
63	0.778185	91971584	61485056	14175696	24992
64	0.777051	91971584	61485056	15523160	24992
65	0.80276	91971584	61485056	16870624	24992
66	0.776751	91971584	61485056	18218088	24992
67	0.785704	91971584	61485056	19565552	24992
68	0.783407	91971584	61485056	20913016	24992
69	0.776506	91971584	61485056	22260480	24992
70	0.781521	91971584	61485056	23607944	24992
71	0.774894	91971584	61485056	24955536	24992
72	0.79016	91971584	61485056	26303000	24992
73	0.775161	91971584	61485056	27650464	24992
74	0.792614	91971584	61485056	12554504	24992
75	0.777279	91971584	61485056	13901968	24992
76	0.780035	91971584	61485056	15249432	24992
77	0.787962	91971584	61485056	16596944	24992
78	0.779186	91971584	61485056	17944408	24992
79	0.77513	91971584	61485056	19291872	24992
80	0.798313	91971584	61485056	20639528	24992
81	0.79064	91971584	61485056	21988160	24992
82	0.800114	91971584	61485056	23335536	24992
83	0.785308	91971584	61485056	24682912	24992
84	0.778537	91971584	61485056	26031424	24992
85	0.782224	91971584	61485056	27378800	24992
86	1.012703	91971584	61485056	12285376	24992
87	1.010574	91971584	61485056	13632752	24992
88	0.779208	91971584	61485056	14980128	24992
89	0.785587	91971584	61485056	16327504	24992
90	0.786741	91971584	61485056	17674928	24992
91	0.784749	91971584	61485056	19022304	24992
92	0.782719	91971584	61485056	20369680	24992
93	0.782475	91971584	61485056	21717056	24992
94	0.782517	91971584	61485056	23064432	24992
95	0.784166	91971584	61485056	24411808	24992
96	0.778519	91971584	61485056	25759184	24992
97	0.786893	91971584	61485056	27106560	24992
98	1.013347	91971584	61485056	12012464	24992
99	0.791374	91971584	61485056	13359848	24992
100	0.776774	91971584	61485056	14707224	24992
101	0.775692	91971584	61485056	16054600	24992
102	0.780254	91971584	61485056	17401976	24992
103	0.778312	91971584	61485056	18749400	24992
104	0.79199	91971584	61485056	20096776	24992
105	0.785112	91971584	61485056	21444152	24992
106	0.910075	91971584	61485056	22791528	24992
107	0.791985	91971584	61485056	24139848	24992
108	0.779875	91971584	61485056	25487256	24992
109	1.016464	91971584	61485056	26834632	24992
110	0.777579	91971584	61485056	28182008	24992
111	0.791752	91971584	61485056	13084552	24992
112	0.780955	91971584	61485056	14431928	24992
113	0.778375	91971584	61485056	15779304	24992
114	0.785459	91971584	61485056	17126680	24992
115	0.778823	91971584	61485056	18474056	24992
116	0.963904	91971584	61485056	19821432	24992
117	0.776342	91971584	61485056	21168808	24992
118	0.779131	91971584	61485056	22516184	24992
119	0.778119	91971584	61485056	23863560	24992
120	0.778296	91971584	61485056	25210936	24992
121	0.862506	91971584	61485056	26558328	24992
122	0.777632	91971584	61485056	27905704	24992
123	0.795407	91971584	61485056	12808256	24992
124	0.782732	91971584	61485056	14155632	24992
125	0.781815	91971584	61485056	15503008	24992
126	0.791799	91971584	61485056	16850384	24992
127	0.781053	91971584	61485056	18197768	24992
128	0.776234	91971584	61485056	19545152	24992
129	0.776007	91971584	61485056	20892528	24992
130	0.773812	91971584	61485056	22239904	24992
131	0.982556	91971584	61485056	23587280	24992
132	0.776487	91971584	61485056	24934656	24992
133	0.774078	91971584	61485056	26282032	24992
134	0.781822	91971584	61485056	27629424	24992
135	1.007301	91971584	61485056	12533800	24992
136	0.798162	91971584	61485056	13881184	24992
137	0.777349	91971584	61485056	15228560	24992
138	0.774448	91971584	61485056	16575936	24992
139	0.779892	91971584	61485056	17923312	24992
140	1.559018	91971584	61485056	19270768	24992
141	0.791584	91971584	61485056	20618272	24992
142	0.778931	91971584	61485056	21967488	24992
143	0.796527	91971584	61485056	23314864	24992
144	0.778148	91971584	61485056	24662240	24992
145	0.973254	91971584	61485056	26023560	24992
146	0.774726	91971584	61485056	27370936	24992
147	1.017624	91971584	61485056	12277544	24992
148	0.798297	91971584	61485056	13624920	24992
149	0.789817	91971584	61485056	14972296	24992
150	0.803215	91971584	61485056	16319672	24992
151	0.792742	91971584	61485056	17667048	24992
152	0.790898	91971584	61485056	19014424	24992
153	0.779406	91971584	61485056	20361800	24992
154	0.781293	91971584	61485056	21709224	24992
155	0.783165	91971584	61485056	23056616	24992
156	0.773505	91971584	61485056	24403992	24992
157	0.78933	91971584	61485056	25755312	24992
158	0.76968	91971584	61485056	27102352	24992
159	0.773046	91971584	61485056	28449392	24992
160	0.800703	91971584	61485056	13353912	24992
161	0.797131	91971584	61485056	14700952	24992
162	0.796641	91971584	61485056	16047992	24992
163	0.790257	91971584	61485056	17395032	24992
164	0.786414	91971584	61485056	18742072	24992
165	0.798268	91971584	61485056	20089112	24992
166	0.787199	91971584	61485056	21436152	24992
167	1.008339	91971584	61485056	22783192	24992
168	0.772203	91971584	61485056	24130232	24992
169	0.770433	91971584	61485056	25477272	24992
170	0.770914	91971584	61485056	26824312	24992
171	0.771148	91971584	61485056	28171352	24992
172	0.824887	91971584	61485056	13073952	24992
173	0.77281	91971584	61485056	14421008	24992
174	1.005742	91971584	61485056	15768048	24992
175	0.806797	91971584	61485056	17117784	24992
176	0.77088	91971584	61485056	18464824	24992
177	0.770305	91971584	61485056	19811864	24992
178	0.777559	91971584	61485056	21158952	24992
179	0.81984	91971584	61485056	22505992	24992
180	0.771325	91971584	61485056	23853032	24992
181	0.763715	91971584	61485056	25200072	24992
182	0.788149	91971584	61485056	26547112	24992
183	0.767035	91971584	61485056	27894152	24992
184	1.032897	91971584	61485056	12798568	24992
185	0.775249	91971584	61485056	14145608	24992
186	0.771284	91971584	61485056	15492648	24992
187	0.767786	91971584	61485056	16839688	24992
188	0.772499	91971584	61485056	18186728	24992
189	1.003133	91971584	61485056	19533768	24992
190	0.963633	91971584	61485056	20880808	24992
191	0.770737	91971584	61485056	22227960	24992
192	0.768864	91971584	61485056	23575000	24992
193	0.772336	91971584	61485056	24922040	24992
194	0.814961	91971584	61485056	26269904	24992
195	0.776954	91971584	61485056	27616944	24992
196	1.035476	91971584	61485056	12521352	24992
197	0.788023	91971584	61485056	13868504	24992
198	0.789511	91971584	61485056	15215552	24992
199	0.78781	91971584	61485056	16562592	24992
200	0.786031	91971584	61485056	17909632	24992
201	0.791406	91971584	61485056	19256672	24992
202	0.791131	91971584	61485056	20603712	24992
203	0.785967	91971584	61485056	21950752	24992
204	0.800376	91971584	61485056	23297792	24992
205	0.766753	91971584	61485056	24644832	24992
206	0.780331	91971584	61485056	25991872	24992
207	0.765709	91971584	61485056	27338912	24992
208	0.768324	91971584	61485056	28685952	24992
209	0.781971	91971584	61485056	13588544	24992
210	0.772343	91971584	61485056	14935584	24992
211	0.984809	91971584	61485056	16282640	24992
212	0.787753	91971584	61485056	17629680	24992
213	0.7868	91971584	61485056	18976720	24992
214	0.788292	91971584	61485056	20323760	24992
215	0.792032	91971584	61485056	21670800	24992
216	0.796596	91971584	61485056	23017840	24992
217	0.770911	91971584	61485056	24364880	24992
218	0.765238	91971584	61485056	25711920	24992
219	0.82179	91971584	61485056	27058960	24992
220	0.767708	91971584	61485056	28406000	24992
221	0.792619	91971584	61485056	13308584	24992
222	0.769829	91971584	61485056	14655624	24992
223	0.771061	91971584	61485056	16002664	24992
224	0.76964	91971584	61485056	17349704	24992
225	0.766452	91971584	61485056	18696744	24992
226	0.779669	91971584	61485056	20043784	24992
227	0.773427	91971584	61485056	21390824	24992
228	0.763348	91971584	61485056	22737864	24992
229	0.779465	91971584	61485056	24087816	24992
230	0.778685	91971584	61485056	25434856	24992
231	0.777067	91971584	61485056	26781896	24992
232	0.764889	91971584	61485056	28128936	24992
233	1.03909	91971584	61485056	13036232	24992
234	0.778713	91971584	61485056	14383272	24992
235	0.786034	91971584	61485056	15730440	24992
236	0.892125	91971584	61485056	17080160	24992
237	0.768976	91971584	61485056	18427200	24992
238	0.774379	91971584	61485056	19774240	24992
239	0.76679	91971584	61485056	21121280	24992
240	0.769988	91971584	61485056	22468320	24992
241	0.997696	91971584	61485056	23815360	24992
242	0.766854	91971584	61485056	25162544	24992
243	0.805629	91971584	61485056	26509584	24992
244	0.766646	91971584	61485056	27856624	24992
245	1.043707	91971584	61485056	12764280	24992
246	0.776256	91971584	61485056	14111328	24992
247	0.767009	91971584	61485056	15458368	24992
248	0.779712	91971584	61485056	16805424	24992
249	0.770011	91971584	61485056	18152464	24992
250	0.766861	91971584	61485056	19499504	24992
251	0.978381	91971584	61485056	20846544	24992
252	0.76813	91971584	61485056	22193584	24992
253	0.783203	91971584	61485056	23540624	24992
254	0.765024	91971584	61485056	24887664	24992
255	0.765249	91971584	61485056	26234704	24992
256	0.979596	91971584	61485056	27581744	24992
257	0.769085	91971584	61485056	28928784	24992
258	0.796728	91971584	61485056	13831744	24992
259	0.768754	91971584	61485056	15178784	24992
260	0.767414	91971584	61485056	16525824	24992
261	0.789286	91971584	61485056	17872896	24992
262	0.764754	91971584	61485056	19219936	24992
263	0.991129	91971584	61485056	20566976	24992
264	0.768345	91971584	61485056	21914016	24992
265	0.769319	91971584	61485056	23261056	24992
266	0.767359	91971584	61485056	24608096	24992
267	0.769593	91971584	61485056	25955136	24992
268	0.781407	91971584	61485056	27302176	24992
269	0.800489	91971584	61485056	28649800	24992
270	0.80403	91971584	61485056	13552752	24992
271	0.771486	91971584	61485056	14899792	24992
272	0.770593	91971584	61485056	16246832	24992
273	0.766401	91971584	61485056	17593872	24992
274	0.769464	91971584	61485056	18940912	24992
275	0.766638	91971584	61485056	20287952	24992
276	0.768202	91971584	61485056	21634992	24992
277	0.764716	91971584	61485056	22982032	24992
278	0.9947	91971584	61485056	24329072	24992
279	0.768054	91971584	61485056	25676112	24992
280	0.789019	91971584	61485056	27023152	24992
281	0.773569	91971584	61485056	28372152	24992
282	1.033083	91971584	61485056	13276936	24992
283	0.786167	91971584	61485056	14623976	24992
284	0.772127	91971584	61485056	15971016	24992
285	0.799991	91971584	61485056	17318056	24992
286	0.764702	91971584	61485056	18665112	24992
287	0.776096	91971584	61485056	20012152	24992
288	0.801541	91971584	61485056	21359192	24992
289	0.772392	91971584	61485056	22706232	24992
290	0.805108	91971584	61485056	24053272	24992
291	0.766864	91971584	61485056	25400312	24992
292	0.764853	91971584	61485056	26747368	24992
293	0.768359	91971584	61485056	28094408	24992
294	1.05229	91971584	61485056	12998816	24992
295	0.780097	91971584	61485056	14345864	24992
296	0.768225	91971584	61485056	15692904	24992
297	0.765285	91971584	61485056	17039944	24992
298	0.769123	91971584	61485056	18386984	24992
299	0.76658	91971584	61485056	19734072	24992
300	0.843779	91971584	61485056	21081112	24992
301	0.770022	91971584	61485056	22428152	24992
302	0.766803	91971584	61485056	23775192	24992
303	0.766543	91971584	61485056	25122232	24992
304	0.769273	91971584	61485056	26469272	24992
305	0.76655	91971584	61485056	27816312	24992
306	0.764124	91971584	61485056	29163352	24992
307	0.801244	91971584	61485056	14065944	24992
308	0.783457	91971584	61485056	15412984	24992
309	0.776873	91971584	61485056	16762128	24992
310	0.820755	91971584	61485056	18109168	24992
311	0.766834	91971584	61485056	19456208	24992
312	0.763107	91971584	61485056	20803248	24992
313	0.768505	91971584	61485056	22150288	24992
314	0.764894	91971584	61485056	23497328	24992
315	0.978304	91971584	61485056	24844368	24992
316	0.77263	91971584	61485056	26192424	24992
317	0.766631	91971584	61485056	27539528	24992
318	0.768083	91971584	61485056	28886568	24992
319	0.798197	91971584	61485056	13789152	24992
320	0.799701	91971584	61485056	15136192	24992
321	0.780349	91971584	61485056	16483232	24992
322	0.787577	91971584	61485056	17830272	24992
323	0.774449	91971584	61485056	19177376	24992
324	0.767835	91971584	61485056	20524416	24992
325	0.769417	91971584	61485056	21871456	24992
326	0.766821	91971584	61485056	23218496	24992
327	0.767486	91971584	61485056	24565536	24992
328	0.76391	91971584	61485056	25912576	24992
329	0.760256	91971584	61485056	27259616	24992
330	0.990749	91971584	61485056	28606656	24992
331	1.052044	91971584	61485056	13511072	24992
332	0.799893	91971584	61485056	14858112	24992
333	0.783364	91971584	61485056	16205152	24992
334	0.786688	91971584	61485056	17552192	24992
335	0.783573	91971584	61485056	18899232	24992
336	0.786105	91971584	61485056	20246272	24992
337	0.798589	91971584	61485056	21593312	24992
338	0.786342	91971584	61485056	22940352	24992
339	0.781548	91971584	61485056	24287392	24992
340	0.793006	91971584	61485056	25634432	24992
341	0.782917	91971584	61485056	26981488	24992
342	0.789363	91971584	61485056	28328528	24992
343	1.062162	91971584	61485056	13232936	24992
344	0.78397	91971584	61485056	14579984	24992
345	0.793126	91971584	61485056	15927024	24992
346	0.766695	91971584	61485056	17274064	24992
347	0.774859	91971584	61485056	18621104	24992
348	0.760992	91971584	61485056	19968144	24992
349	0.76473	91971584	61485056	21315184	24992
350	0.76454	91971584	61485056	22662224	24992
351	0.76616	91971584	61485056	24009264	24992
352	0.977859	91971584	61485056	25356304	24992
353	0.774765	91971584	61485056	26703344	24992
354	0.764446	91971584	61485056	28050400	24992
355	0.764572	91971584	61485056	29397440	24992
356	0.783429	91971584	61485056	14300032	24992
357	0.774694	91971584	61485056	15647072	24992
358	0.770891	91971584	61485056	16994112	24992
359	0.765946	91971584	61485056	18341152	24992
360	0.771554	91971584	61485056	19692640	24992
361	0.76391	91971584	61485056	21039680	24992
362	0.774086	91971584	61485056	22386720	24992
363	0.774132	91971584	61485056	23733760	24992
364	0.768046	91971584	61485056	25080800	24992
365	0.765894	91971584	61485056	26427840	24992
366	0.765128	91971584	61485056	27774880	24992
367	0.817928	91971584	61485056	29122000	24992
368	0.785307	91971584	61485056	14029032	24992
369	0.766263	91971584	61485056	15376072	24992
370	0.764939	91971584	61485056	16723112	24992
371	0.768192	91971584	61485056	18070152	24992
372	0.778846	91971584	61485056	19417192	24992
373	0.762352	91971584	61485056	20764232	24992
374	0.767474	91971584	61485056	22111320	24992
375	0.805775	91971584	61485056	23458360	24992
376	0.763227	91971584	61485056	24805400	24992
377	0.774537	91971584	61485056	26152440	24992
378	0.76673	91971584	61485056	27499480	24992
379	0.763675	91971584	61485056	28846520	24992
380	1.087062	91971584	61485056	13755480	24992
381	0.767017	91971584	61485056	15102520	24992
382	0.81055	91971584	61485056	16449560	24992
383	0.763547	91971584	61485056	17796600	24992
384	0.764309	91971584	61485056	19143640	24992
385	0.764475	91971584	61485056	20490680	24992
386	0.764845	91971584	61485056	21837720	24992
387	0.762571	91971584	61485056	23184808	24992
388	0.763281	91971584	61485056	24531848	24992
389	0.766133	91971584	61485056	25878888	24992
390	0.985441	91971584	61485056	27225928	24992
391	0.768463	91971584	61485056	28572968	24992
392	1.054021	91971584	61485056	13477376	24992
393	0.768752	91971584	61485056	14824504	24992
394	0.768553	91971584	61485056	16171544	24992
395	0.765341	91971584	61485056	17518584	24992
396	0.761588	91971584	61485056	18865624	24992
397	0.761636	91971584	61485056	20212664	24992
398	0.832321	91971584	61485056	21559704	24992
399	0.76437	91971584	61485056	22906744	24992
400	0.785384	91971584	61485056	24253784	24992
401	0.764087	91971584	61485056	25600824	24992
402	0.792733	91971584	61485056	26947864	24992
403	0.763253	91971584	61485056	28294904	24992
404	0.764839	91971584	61485056	29641944	24992
405	0.787744	91971584	61485056	14545048	24992
406	0.766152	91971584	61485056	15892120	24992
407	0.835119	91971584	61485056	17239160	24992
408	0.774924	91971584	61485056	18586200	24992
409	0.764057	91971584	61485056	19933240	24992
410	0.782237	91971584	61485056	21280280	24992
411	0.812374	91971584	61485056	22627368	24992
412	0.996	91971584	61485056	23974408	24992
413	0.76665	91971584	61485056	25321448	24992
414	0.763743	91971584	61485056	26668488	24992
415	0.827717	91971584	61485056	28015528	24992
416	0.764172	91971584	61485056	29362568	24992
417	0.804679	91971584	61485056	14265152	24992
418	0.783295	91971584	61485056	15612192	24992
419	0.785929	91971584	61485056	16959232	24992
420	0.774772	91971584	61485056	18306272	24992
421	0.76937	91971584	61485056	19653312	24992
422	0.82123	91971584	61485056	21000352	24992
423	0.768113	91971584	61485056	22347392	24992
424	0.774879	91971584	61485056	23694448	24992
425	0.765387	91971584	61485056	25041488	24992
426	0.76698	91971584	61485056	26388528	24992
427	0.817825	91971584	61485056	27735568	24992
428	0.772022	91971584	61485056	29082608	24992
429	0.836678	91971584	61485056	13982832	24992
430	0.765322	91971584	61485056	15329872	24992
431	0.767107	91971584	61485056	16676960	24992
432	0.938347	91971584	61485056	18024000	24992
433	0.765767	91971584	61485056	19371040	24992
434	0.968036	91971584	61485056	20718080	24992
435	0.772638	91971584	61485056	22065120	24992
436	0.765114	91971584	61485056	23412160	24992
437	0.762883	91971584	61485056	24759200	24992
438	0.762151	91971584	61485056	26106240	24992
439	0.767661	91971584	61485056	27453280	24992
440	0.76263	91971584	61485056	28800320	24992
441	1.053077	91971584	61485056	13704728	24992
442	0.792403	91971584	61485056	15051768	24992
443	0.763955	91971584	61485056	16398808	24992
444	0.782543	91971584	61485056	17745848	24992
445	0.764739	91971584	61485056	19092888	24992
446	0.764538	91971584	61485056	20439928	24992
447	0.764466	91971584	61485056	21786968	24992
448	0.76964	91971584	61485056	23134032	24992
449	0.77501	91971584	61485056	24481080	24992
450	0.763893	91971584	61485056	25828120	24992
451	0.765601	91971584	61485056	27175160	24992
452	0.777989	91971584	61485056	28522200	24992
453	1.033432	91971584	61485056	13426472	24992
454	0.788318	91971584	61485056	14773520	24992
455	0.765528	91971584	61485056	16120640	24992
456	0.790694	91971584	61485056	17467680	24992
457	0.989292	91971584	61485056	18814720	24992
458	0.761935	91971584	61485056	20161760	24992
459	0.777021	91971584	61485056	21508800	24992
460	0.763027	91971584	61485056	22855840	24992
461	0.762182	91971584	61485056	24202880	24992
462	0.773661	91971584	61485056	25549936	24992
463	0.760648	91971584	61485056	26896976	24992
464	0.767952	91971584	61485056	28244016	24992
465	0.767575	91971584	61485056	29591056	24992
466	0.794215	91971584	61485056	14493632	24992
467	0.790294	91971584	61485056	15840672	24992
468	0.779544	91971584	61485056	17187808	24992
469	0.794866	91971584	61485056	18534848	24992
470	0.786556	91971584	61485056	19881888	24992
471	0.780818	91971584	61485056	21228928	24992
472	0.787677	91971584	61485056	22575968	24992
473	0.771428	91971584	61485056	23923008	24992
474	0.772679	91971584	61485056	25270048	24992
475	0.766487	91971584	61485056	26617088	24992
476	0.760725	91971584	61485056	27964128	24992
477	0.877714	91971584	61485056	29311168	24992
478	0.783393	91971584	61485056	14213752	24992
479	0.984493	91971584	61485056	15560792	24992
480	0.765258	91971584	61485056	16907832	24992
481	0.765942	91971584	61485056	18254872	24992
482	0.764762	91971584	61485056	19601912	24992
483	0.764671	91971584	61485056	20948952	24992
484	0.798919	91971584	61485056	22295992	24992
485	0.770497	91971584	61485056	23643032	24992
486	0.766092	91971584	61485056	24990184	24992
487	0.789436	91971584	61485056	26337224	24992
488	0.768962	91971584	61485056	27684264	24992
489	0.802569	91971584	61485056	29031304	24992
490	1.043759	91971584	61485056	13935712	24992
491	1.020461	91971584	61485056	15282776	24992
492	0.773751	91971584	61485056	16631440	24992
493	0.768752	91971584	61485056	17978480	24992
494	0.795521	91971584	61485056	19325520	24992
495	0.768293	91971584	61485056	20672560	24992
496	0.763509	91971584	61485056	22019600	24992
497	0.766567	91971584	61485056	23366640	24992
498	0.763309	91971584	61485056	24713680	24992
499	0.77103	91971584	61485056	26060768	24992
500	0.972377	91971584	61485056	27407808	24992
501	0.76315	91971584	61485056	28754848	24992
502	1.054629	91971584	61485056	13659256	24992
503	0.770473	91971584	61485056	15006304	24992
504	0.763871	91971584	61485056	16353344	24992
505	0.760164	91971584	61485056	17700384	24992
506	0.775381	91971584	61485056	19047424	24992
507	0.761766	91971584	61485056	20394464	24992
508	0.763801	91971584	61485056	21741504	24992
509	0.795348	91971584	61485056	23088544	24992
510	0.765969	91971584	61485056	24435584	24992
511	0.772371	91971584	61485056	25782624	24992
512	0.762128	91971584	61485056	27129664	24992
513	0.761318	91971584	61485056	28476704	24992
514	0.774926	91971584	61485056	29823744	24992
515	0.780168	91971584	61485056	14726320	24992
516	0.782664	91971584	61485056	16073360	24992
517	0.769611	91971584	61485056	17420400	24992
518	0.762249	91971584	61485056	18767440	24992
519	0.768273	91971584	61485056	20114512	24992
520	0.763016	91971584	61485056	21461552	24992
521	0.765898	91971584	61485056	22808592	24992
522	0.766245	91971584	61485056	24155632	24992
523	0.979469	91971584	61485056	25502720	24992
524	0.9903	91971584	61485056	26849760	24992
525	0.767454	91971584	61485056	28196800	24992
526	0.779243	91971584	61485056	29543840	24992
527	0.77896	91971584	61485056	14446424	24992
528	0.766773	91971584	61485056	15793464	24992
529	0.811322	91971584	61485056	17140504	24992
530	0.806444	91971584	61485056	18487560	24992
531	1.020417	91971584	61485056	19834600	24992
532	0.807214	91971584	61485056	21181640	24992
533	0.803658	91971584	61485056	22528680	24992
534	0.802341	91971584	61485056	23875720	24992
535	0.806942	91971584	61485056	25222760	24992
536	0.801794	91971584	61485056	26569800	24992
537	0.769978	91971584	61485056	27916936	24992
538	0.761667	91971584	61485056	29263976	24992
539	1.086291	91971584	61485056	14168384	24992
540	0.768788	91971584	61485056	15515432	24992
541	0.766572	91971584	61485056	16862472	24992
542	0.762207	91971584	61485056	18209512	24992
543	0.774065	91971584	61485056	19556584	24992
544	0.762901	91971584	61485056	20903624	24992
545	0.770427	91971584	61485056	22250664	24992
546	0.767417	91971584	61485056	23597704	24992
547	0.76298	91971584	61485056	24944744	24992
548	0.763511	91971584	61485056	26291784	24992
549	0.7682	91971584	61485056	27638824	24992
550	0.763669	91971584	61485056	28985864	24992
551	1.053668	91971584	61485056	13890272	24992
552	0.768548	91971584	61485056	15237320	24992
553	0.77058	91971584	61485056	16584360	24992
554	0.767992	91971584	61485056	17931400	24992
555	0.764739	91971584	61485056	19278440	24992
556	0.764005	91971584	61485056	20632344	24992
557	0.763448	91971584	61485056	21979384	24992
558	0.773716	91971584	61485056	23326424	24992
559	0.761354	91971584	61485056	24673464	24992
560	0.764112	91971584	61485056	26020504	24992
561	1.011376	91971584	61485056	27367544	24992
562	0.768172	91971584	61485056	28714584	24992
563	0.763899	91971584	61485056	30061624	24992
564	0.795264	91971584	61485056	14971000	24992
565	0.781865	91971584	61485056	16318040	24992
566	0.79026	91971584	61485056	17665080	24992
567	0.781718	91971584	61485056	19012120	24992
568	0.798249	91971584	61485056	20359160	24992
569	0.780289	91971584	61485056	21706264	24992
570	0.782452	91971584	61485056	23053304	24992
571	0.781333	91971584	61485056	24400344	24992
572	0.781175	91971584	61485056	25747384	24992
573	0.781662	91971584	61485056	27094424	24992
574	0.790463	91971584	61485056	28441464	24992
575	0.78299	91971584	61485056	29788504	24992
576	0.799925	91971584	61485056	14697888	24992
577	0.766052	91971584	61485056	16044928	24992
578	0.78026	91971584	61485056	17391968	24992
579	0.762849	91971584	61485056	18739008	24992
580	0.766162	91971584	61485056	20086048	24992
581	0.763113	91971584	61485056	21433088	24992
582	0.762346	91971584	61485056	22780128	24992
583	0.967341	91971584	61485056	24127168	24992
584	0.76613	91971584	61485056	25474208	24992
585	0.759974	91971584	61485056	26821248	24992
586	0.769313	91971584	61485056	28168288	24992
587	0.76333	91971584	61485056	29515360	24992
588	1.059002	91971584	61485056	14419768	24992
589	0.767596	91971584	61485056	15766816	24992
590	0.770193	91971584	61485056	17113856	24992
591	0.76621	91971584	61485056	18460896	24992
592	0.763336	91971584	61485056	19807936	24992
593	0.768202	91971584	61485056	21155040	24992
594	0.769508	91971584	61485056	22502080	24992
595	0.762463	91971584	61485056	23849120	24992
596	0.764715	91971584	61485056	25196160	24992
597	0.761728	91971584	61485056	26543200	24992
598	0.77467	91971584	61485056	27890240	24992
599	0.768434	91971584	61485056	29237280	24992
600	1.041563	91971584	61485056	14141768	24992
601	0.818913	91971584	61485056	15488816	24992
602	0.764451	91971584	61485056	16835856	24992
603	0.776662	91971584	61485056	18182896	24992
604	0.765759	91971584	61485056	19529936	24992
605	0.763772	91971584	61485056	20876976	24992
606	0.787725	91971584	61485056	22224016	24992
607	0.764652	91971584	61485056	23571104	24992
608	0.772744	91971584	61485056	24918144	24992
609	0.761505	91971584	61485056	26265184	24992
610	0.770408	91971584	61485056	27612224	24992
611	0.770871	91971584	61485056	28959264	24992
612	0.763093	91971584	61485056	30306304	24992
613	0.799059	91971584	61485056	15208912	24992
614	0.762798	91971584	61485056	16555952	24992
615	0.814737	91971584	61485056	17902992	24992
616	0.765265	91971584	61485056	19250032	24992
617	0.764025	91971584	61485056	20597072	24992
618	0.770644	91971584	61485056	21944112	24992
619	0.766753	91971584	61485056	23291152	24992
620	0.761966	91971584	61485056	24638192	24992
621	0.996228	91971584	61485056	25985232	24992
622	0.764049	91971584	61485056	27332272	24992
623	0.776978	91971584	61485056	28679312	24992
624	0.765303	91971584	61485056	30026352	24992
625	0.779991	91971584	61485056	14928936	24992
626	0.765853	91971584	61485056	16275992	24992
627	0.762283	91971584	61485056	17623032	24992
628	0.779701	91971584	61485056	18970072	24992
629	0.764329	91971584	61485056	20317112	24992
630	0.763494	91971584	61485056	21664152	24992
631	0.76434	91971584	61485056	23011272	24992
632	0.761748	91971584	61485056	24358312	24992
633	0.771051	91971584	61485056	25705352	24992
634	0.762289	91971584	61485056	27052392	24992
635	0.763234	91971584	61485056	28399432	24992
636	0.816672	91971584	61485056	29746472	24992
637	1.05061	91971584	61485056	14650888	24992
638	0.774607	91971584	61485056	15997928	24992
639	0.768829	91971584	61485056	17344968	24992
640	0.764408	91971584	61485056	18692008	24992
641	0.774746	91971584	61485056	20039048	24992
642	0.760698	91971584	61485056	21386088	24992
643	0.768724	91971584	61485056	22733128	24992
644	0.766534	91971584	61485056	24080168	24992
645	0.765509	91971584	61485056	25427208	24992
646	0.772015	91971584	61485056	26774248	24992
647	0.76555	91971584	61485056	28121288	24992
648	0.760928	91971584	61485056	29468328	24992
649	1.044397	91971584	61485056	14372784	24992
650	0.771844	91971584	61485056	15719832	24992
651	0.996794	91971584	61485056	17066904	24992
652	0.765664	91971584	61485056	18413944	24992
653	0.76553	91971584	61485056	19760984	24992
654	0.765327	91971584	61485056	21108024	24992
655	0.762991	91971584	61485056	22455064	24992
656	1.00889	91971584	61485056	23802104	24992
657	0.763942	91971584	61485056	25149160	24992
658	0.763374	91971584	61485056	26496200	24992
659	0.763958	91971584	61485056	27843240	24992
660	0.761944	91971584	61485056	29190280	24992
661	0.783153	91971584	61485056	30537320	24992
662	0.784026	91971584	61485056	15439912	24992
663	0.766632	91971584	61485056	16786952	24992
664	0.832772	91971584	61485056	18134056	24992
665	0.76658	91971584	61485056	19481096	24992
666	0.992978	91971584	61485056	20828136	24992
667	0.765255	91971584	61485056	22175176	24992
668	0.762524	91971584	61485056	23522216	24992
669	0.77202	91971584	61485056	24869256	24992
670	0.761321	91971584	61485056	26216296	24992
671	0.772544	91971584	61485056	27563336	24992
672	0.760442	91971584	61485056	28910376	24992
673	0.764307	91971584	61485056	30257416	24992
674	0.792898	91971584	61485056	15160000	24992
675	0.776308	91971584	61485056	16507072	24992
676	0.769304	91971584	61485056	17854112	24992
677	0.767432	91971584	61485056	19201152	24992
678	0.76191	91971584	61485056	20548192	24992
679	0.768757	91971584	61485056	21895232	24992
680	0.762073	91971584	61485056	23242272	24992
681	0.777472	91971584	61485056	24589312	24992
682	0.7665	91971584	61485056	25936368	24992
683	0.761402	91971584	61485056	27283408	24992
684	0.767086	91971584	61485056	28630448	24992
685	0.763391	91971584	61485056	29977488	24992
686	1.064415	91971584	61485056	14881904	24992
687	0.769175	91971584	61485056	16228944	24992
688	0.764701	91971584	61485056	17576032	24992
689	0.778087	91971584	61485056	18923072	24992
690	0.76321	91971584	61485056	20270112	24992
691	0.821543	91971584	61485056	21617152	24992
692	0.764096	91971584	61485056	22964192	24992
693	0.765509	91971584	61485056	24311232	24992
694	0.761921	91971584	61485056	25658272	24992
695	0.763853	91971584	61485056	27005312	24992
696	0.987956	91971584	61485056	28352352	24992
697	0.771062	91971584	61485056	29699392	24992
698	1.041538	91971584	61485056	14603800	24992
699	0.771252	91971584	61485056	15950848	24992
700	0.76255	91971584	61485056	17297888	24992
701	0.778138	91971584	61485056	18644928	24992
702	0.764315	91971584	61485056	19991968	24992
703	0.897409	91971584	61485056	21339672	24992
704	0.76752	91971584	61485056	22686712	24992
705	0.776269	91971584	61485056	24033752	24992
706	0.773975	91971584	61485056	25380824	24992
707	0.766481	91971584	61485056	26727864	24992
708	0.765074	91971584	61485056	28074904	24992
709	0.767151	91971584	61485056	29421944	24992
710	0.76118	91971584	61485056	30768984	24992
711	1.025136	91971584	61485056	15671576	24992
712	0.768255	91971584	61485056	17018616	24992
713	0.764496	91971584	61485056	18365656	24992
714	0.762438	91971584	61485056	19712696	24992
715	0.76877	91971584	61485056	21059736	24992
716	0.769856	91971584	61485056	22406776	24992
717	0.7655	91971584	61485056	23753816	24992
718	0.761271	91971584	61485056	25100856	24992
719	0.775068	91971584	61485056	26447896	24992
720	0.764437	91971584	61485056	27794936	24992
721	0.775543	91971584	61485056	29141976	24992
722	0.761025	91971584	61485056	30489016	24992
723	0.783635	91971584	61485056	15391600	24992
724	0.766033	91971584	61485056	16738640	24992
725	0.764781	91971584	61485056	18085784	24992
726	0.791555	91971584	61485056	19432832	24992
727	0.783988	91971584	61485056	20779872	24992
728	0.763778	91971584	61485056	22126912	24992
729	0.762572	91971584	61485056	23473952	24992
730	0.763729	91971584	61485056	24820992	24992
731	0.773598	91971584	61485056	26168032	24992
732	0.762149	91971584	61485056	27515072	24992
733	0.760969	91971584	61485056	28862112	24992
734	0.98808	91971584	61485056	30209152	24992
735	1.046839	91971584	61485056	15113568	24992
736	0.776297	91971584	61485056	16460608	24992
737	0.764961	91971584	61485056	17807648	24992
738	0.759164	91971584	61485056	19154688	24992
739	0.763714	91971584	61485056	20501776	24992
740	0.761248	91971584	61485056	21848816	24992
741	0.989401	91971584	61485056	23195856	24992
742	0.766723	91971584	61485056	24542896	24992
743	0.768313	91971584	61485056	25889936	24992
744	0.765304	91971584	61485056	27236976	24992
745	0.810348	91971584	61485056	28584016	24992
746	0.771188	91971584	61485056	29931056	24992
747	1.059115	91971584	61485056	14835464	24992
748	0.766342	91971584	61485056	16182512	24992
749	0.766131	91971584	61485056	17529552	24992
750	0.763725	91971584	61485056	18876592	24992
751	0.777844	91971584	61485056	20223632	24992
752	0.761948	91971584	61485056	21570672	24992
753	0.765686	91971584	61485056	22917712	24992
754	0.763431	91971584	61485056	24264752	24992
755	0.766618	91971584	61485056	25611792	24992
756	0.997665	91971584	61485056	26958832	24992
757	0.774499	91971584	61485056	28305904	24992
758	0.762203	91971584	61485056	29652944	24992
759	0.764791	91971584	61485056	30999984	24992
760	0.777565	91971584	61485056	15902576	24992
761	0.776747	91971584	61485056	17249616	24992
762	0.764059	91971584	61485056	18596656	24992
763	0.770442	91971584	61485056	19943984	24992
764	0.768562	91971584	61485056	21291024	24992
765	0.765189	91971584	61485056	22638064	24992
766	0.771562	91971584	61485056	23985104	24992
767	0.766161	91971584	61485056	25332144	24992
768	0.758535	91971584	61485056	26679184	24992
769	0.763861	91971584	61485056	28026224	24992
770	0.76283	91971584	61485056	29373328	24992
771	0.788243	91971584	61485056	30720368	24992
772	0.794335	91971584	61485056	15622952	24992
773	1.605971	91971584	61485056	16970064	24992
774	0.770052	91971584	61485056	18317104	24992
775	0.791751	91971584	61485056	19664144	24992
776	0.767654	91971584	61485056	21011216	24992
777	0.808535	91971584	61485056	22367288	24992
778	0.791824	91971584	61485056	23714328	24992
779	0.762816	91971584	61485056	25061368	24992
780	0.794539	91971584	61485056	26408408	24992
781	0.788439	91971584	61485056	27757904	24992
782	0.765856	91971584	61485056	29104944	24992
783	0.77705	91971584	61485056	30451984	24992
784	1.066886	91971584	61485056	15371264	24992
785	0.800574	91971584	61485056	16718304	24992
786	0.767474	91971584	61485056	18065344	24992
787	0.763329	91971584	61485056	19412384	24992
788	0.825761	91971584	61485056	20759424	24992
789	0.768552	91971584	61485056	22106512	24992
790	0.761733	91971584	61485056	23453552	24992
791	0.764895	91971584	61485056	24800592	24992
792	0.762564	91971584	61485056	26147632	24992
793	1.002814	91971584	61485056	27494672	24992
794	0.763321	91971584	61485056	28841712	24992
795	0.764271	91971584	61485056	30188752	24992
796	1.087041	91971584	61485056	15132896	24992
797	0.765627	91971584	61485056	16479976	24992
798	0.7631	91971584	61485056	17827016	24992
799	0.770945	91971584	61485056	19174056	24992
800	0.762333	91971584	61485056	20521096	24992
801	0.768555	91971584	61485056	21868136	24992
802	0.765962	91971584	61485056	23215256	24992
803	0.763285	91971584	61485056	24562296	24992
804	0.767294	91971584	61485056	25909336	24992
805	0.762493	91971584	61485056	27256376	24992
806	0.765093	91971584	61485056	28603416	24992
807	0.763346	91971584	61485056	29950456	24992
808	0.781158	91971584	61485056	31297496	24992
809	0.782799	91971584	61485056	16250472	24992
810	0.772873	91971584	61485056	17597528	24992
811	0.761761	91971584	61485056	18944568	24992
812	0.782712	91971584	61485056	20291608	24992
813	0.76255	91971584	61485056	21638648	24992
814	0.762352	91971584	61485056	22985688	24992
815	0.762415	91971584	61485056	24332744	24992
816	0.762815	91971584	61485056	25679784	24992
817	0.767963	91971584	61485056	27026824	24992
818	0.800923	91971584	61485056	28373864	24992
819	0.763181	91971584	61485056	29720904	24992
820	0.761031	91971584	61485056	31067944	24992
821	0.781277	91971584	61485056	16020912	24992
822	0.766096	91971584	61485056	17367952	24992
823	0.790709	91971584	61485056	18714992	24992
824	0.761837	91971584	61485056	20062032	24992
825	0.77217	91971584	61485056	21409072	24992
826	0.762619	91971584	61485056	22756112	24992
827	0.764292	91971584	61485056	24103152	24992
828	0.76555	91971584	61485056	25450192	24992
829	0.765771	91971584	61485056	26797232	24992
830	0.760584	91971584	61485056	28144272	24992
831	0.767183	91971584	61485056	29491312	24992
832	0.761444	91971584	61485056	30838352	24992
833	0.783895	91971584	61485056	15790288	24992
834	0.764687	91971584	61485056	17137328	24992
835	0.772332	91971584	61485056	18484368	24992
836	0.763992	91971584	61485056	19831408	24992
837	0.974029	91971584	61485056	21178464	24992
838	0.800736	91971584	61485056	22525504	24992
839	0.767326	91971584	61485056	23874952	24992
840	0.821853	91971584	61485056	25221800	24992
841	0.765327	91971584	61485056	26568648	24992
842	0.762012	91971584	61485056	27915496	24992
843	0.780616	91971584	61485056	29262504	24992
844	0.760292	91971584	61485056	30609352	24992
845	1.398056	91971584	61485056	15564712	24992
846	0.773774	91971584	61485056	16911560	24992
847	0.76187	91971584	61485056	18258408	24992
848	0.762735	91971584	61485056	19605256	24992
849	0.761831	91971584	61485056	20952104	24992
850	0.778462	91971584	61485056	22309288	24992
851	0.822936	91971584	61485056	23656280	24992
852	0.762827	91971584	61485056	25003128	24992
853	0.770799	91971584	61485056	26349976	24992
854	0.761283	91971584	61485056	27696824	24992
855	0.772516	91971584	61485056	29043672	24992
856	0.760766	91971584	61485056	30390520	24992
857	1.172157	91971584	61485056	15356240	24992
858	0.775584	91971584	61485056	16703088	24992
859	0.763285	91971584	61485056	18050000	24992
860	0.776592	91971584	61485056	19396848	24992
861	0.761325	91971584	61485056	20743696	24992
862	0.764846	91971584	61485056	22090544	24992
863	0.760262	91971584	61485056	23437392	24992
864	0.764533	91971584	61485056	24784240	24992
865	1.00293	91971584	61485056	26131088	24992
866	0.766735	91971584	61485056	27477936	24992
867	0.762271	91971584	61485056	28824784	24992
868	0.766059	91971584	61485056	30171632	24992
869	0.759989	91971584	61485056	31518480	24992
870	0.780002	91971584	61485056	16481592	24992
871	0.764309	91971584	61485056	17828440	24992
872	0.823826	91971584	61485056	19175336	24992
873	0.762545	91971584	61485056	20522184	24992
874	0.763313	91971584	61485056	21869032	24992
875	0.783365	91971584	61485056	23215880	24992
876	0.763857	91971584	61485056	24562728	24992
877	0.770347	91971584	61485056	25909576	24992
878	0.759095	91971584	61485056	27256424	24992
879	0.757897	91971584	61485056	28603272	24992
880	0.772025	91971584	61485056	29950120	24992
881	0.780038	91971584	61485056	31296968	24992
882	1.16745	91971584	61485056	16249744	24992
883	0.765346	91971584	61485056	17596592	24992
884	0.762672	91971584	61485056	18943440	24992
885	0.760849	91971584	61485056	20290320	24992
886	0.757689	91971584	61485056	21637168	24992
887	0.799195	91971584	61485056	22984016	24992
888	0.770088	91971584	61485056	24330864	24992
889	0.991347	91971584	61485056	25677712	24992
890	0.768229	91971584	61485056	27024560	24992
891	0.760262	91971584	61485056	28371440	24992
892	0.76088	91971584	61485056	29718288	24992
893	0.758621	91971584	61485056	31065136	24992
894	1.233944	91971584	61485056	16020496	24992
895	0.767963	91971584	61485056	17367344	24992
896	0.765401	91971584	61485056	18714192	24992
897	0.765133	91971584	61485056	20061040	24992
898	0.767149	91971584	61485056	21407888	24992
899	0.767623	91971584	61485056	22754736	24992
900	0.759277	91971584	61485056	24101584	24992
901	0.758698	91971584	61485056	25448432	24992
902	0.769087	91971584	61485056	26795280	24992
903	0.760344	91971584	61485056	28142128	24992
904	0.760673	91971584	61485056	29488992	24992
905	0.765345	91971584	61485056	30835840	24992
906	1.238686	91971584	61485056	15791200	24992
907	0.780832	91971584	61485056	17138056	24992
908	0.763491	91971584	61485056	18484904	24992
909	0.78557	91971584	61485056	19831752	24992
910	0.762836	91971584	61485056	21178600	24992
911	0.75873	91971584	61485056	22525448	24992
912	0.790246	91971584	61485056	23872344	24992
913	0.762221	91971584	61485056	25219192	24992
914	0.772641	91971584	61485056	26566040	24992
915	0.759527	91971584	61485056	27912888	24992
916	0.766283	91971584	61485056	29259736	24992
917	0.763592	91971584	61485056	30606696	24992
918	0.757185	91971584	61485056	31953544	24992
919	0.794171	91971584	61485056	16906328	24992
920	0.767424	91971584	61485056	18253176	24992
921	1.880995	91971584	61485056	19600040	24992
922	0.767212	91971584	61485056	20946888	24992
923	0.768589	91971584	61485056	22293736	24992
924	0.763781	91971584	61485056	23640584	24992
925	0.764029	91971584	61485056	24987560	24992
926	0.769184	91971584	61485056	26348128	24992
927	0.751692	91971584	61485056	27694976	24992
928	0.746783	91971584	61485056	29041824	24992
929	0.746888	91971584	61485056	30388672	24992
930	0.745508	91971584	61485056	31735536	24992
931	0.785943	91971584	61485056	16688312	24992
932	0.766297	91971584	61485056	18035160	24992
933	0.763534	91971584	61485056	19382008	24992
934	0.759463	91971584	61485056	20728856	24992
935	0.747996	91971584	61485056	22075704	24992
936	0.751877	91971584	61485056	23422552	24992
937	0.743886	91971584	61485056	24769400	24992
938	0.750967	91971584	61485056	26116248	24992
939	0.749629	91971584	61485056	27463096	24992
940	0.746314	91971584	61485056	28809944	24992
941	0.955873	91971584	61485056	30156792	24992
942	0.751738	91971584	61485056	31503640	24992
943	0.771796	91971584	61485056	16452888	24992
944	0.746076	91971584	61485056	17799736	24992
945	0.74702	91971584	61485056	19146584	24992
946	0.76035	91971584	61485056	20493464	24992
947	0.74567	91971584	61485056	21840312	24992
948	0.747135	91971584	61485056	23187160	24992
949	0.749588	91971584	61485056	24534008	24992
950	0.750527	91971584	61485056	25880856	24992
951	0.755334	91971584	61485056	27227704	24992
952	0.747303	91971584	61485056	28574552	24992
953	0.746587	91971584	61485056	29921400	24992
954	0.749855	91971584	61485056	31268248	24992
955	1.290931	91971584	61485056	16223576	24992
956	0.992769	91971584	61485056	17570424	24992
957	0.748558	91971584	61485056	18917272	24992
958	0.750027	91971584	61485056	20264120	24992
959	0.747466	91971584	61485056	21611000	24992
960	0.743116	91971584	61485056	22957848	24992
961	0.756476	91971584	61485056	24304696	24992
962	0.748295	91971584	61485056	25651544	24992
963	0.743384	91971584	61485056	26998392	24992
964	0.774498	91971584	61485056	28345368	24992
965	0.742708	91971584	61485056	29692216	24992
966	0.950525	91971584	61485056	31039064	24992
967	1.301055	91971584	61485056	15994392	24992
968	0.751674	91971584	61485056	17341248	24992
969	0.746791	91971584	61485056	18688096	24992
970	0.746468	91971584	61485056	20034944	24992
971	0.804622	91971584	61485056	21381792	24992
972	0.751591	91971584	61485056	22728736	24992
973	0.743211	91971584	61485056	24075584	24992
974	0.74843	91971584	61485056	25422432	24992
975	0.764696	91971584	61485056	26769280	24992
976	0.764466	91971584	61485056	28116128	24992
977	0.749513	91971584	61485056	29462976	24992
978	0.746506	91971584	61485056	30809824	24992
979	0.773579	91971584	61485056	32156672	24992
980	0.764247	91971584	61485056	17109488	24992
981	0.761118	91971584	61485056	18456336	24992
982	0.749112	91971584	61485056	19803184	24992
983	0.745329	91971584	61485056	21150032	24992
984	0.748865	91971584	61485056	22496880	24992
985	0.747112	91971584	61485056	23843760	24992
986	0.972413	91971584	61485056	25190608	24992
987	0.756378	91971584	61485056	26537456	24992
988	0.813322	91971584	61485056	27884304	24992
989	0.751784	91971584	61485056	29231152	24992
990	0.749152	91971584	61485056	30578000	24992
991	0.75923	91971584	61485056	31924848	24992
992	0.762091	91971584	61485056	16877624	24992
993	0.749212	91971584	61485056	18224472	24992
994	0.74678	91971584	61485056	19571320	24992
995	0.746015	91971584	61485056	20918168	24992
996	0.755744	91971584	61485056	22265016	24992
997	0.753848	91971584	61485056	23611864	24992
998	0.747493	91971584	61485056	24958776	24992
999	0.747703	91971584	61485056	26305624	24992
1000	0.745539	91971584	61485056	27652472	24992
