x	Duration	RSS	HeapTotal	HeapUsed	External
0	NA	91508736	60960768	11531392	24992
1	2.496133	91508736	60960768	12211496	24992
2	4.408788	91508736	60960768	13549880	24992
3	0.780206	91508736	60960768	15553536	24992
4	0.769737	91508736	60960768	16901000	24992
5	0.772538	91508736	60960768	18248464	24992
6	0.774777	91508736	60960768	19595928	24992
7	1.011738	91508736	60960768	20943424	24992
8	0.767766	91508736	60960768	22290888	24992
9	0.765572	91508736	60960768	23638352	24992
10	0.792324	91508736	60960768	24985816	24992
11	0.763036	91508736	60960768	26333280	24992
12	0.773053	91508736	60960768	27680760	24992
13	0.78107	91508736	60960768	12566208	24992
14	0.774452	91508736	60960768	13913688	24992
15	0.771077	91508736	60960768	15261152	24992
16	0.76359	91508736	60960768	16608616	24992
17	0.801411	91508736	60960768	17956080	24992
18	0.766915	91508736	60960768	19303544	24992
19	0.78155	91508736	60960768	20651360	24992
20	0.764373	91508736	60960768	21998824	24992
21	0.767317	91508736	60960768	23346288	24992
22	0.760247	91508736	60960768	24693752	24992
23	0.767878	91508736	60960768	26041216	24992
24	0.79963	91508736	60960768	27388680	24992
25	1.021371	91508736	60960768	12292576	24992
26	0.770706	91508736	60960768	13640040	24992
27	0.77664	91508736	60960768	14987504	24992
28	0.764124	91508736	60960768	16334968	24992
29	0.776892	91508736	60960768	17682432	24992
30	0.763034	91508736	60960768	19029896	24992
31	0.773008	91508736	60960768	20377368	24992
32	0.792092	91508736	60960768	21724824	24992
33	0.770658	91508736	60960768	23072288	24992
34	0.772163	91508736	60960768	24419752	24992
35	0.767122	91508736	60960768	25767216	24992
36	0.758213	91508736	60960768	27114680	24992
37	1.078261	91508736	60960768	12020848	24992
38	0.777931	91508736	60960768	13368312	24992
39	0.997016	91508736	60960768	14715776	24992
40	0.833166	91508736	60960768	16063240	24992
41	0.774668	91508736	60960768	17410704	24992
42	0.772627	91508736	60960768	18758168	24992
43	0.769814	91508736	60960768	20105632	24992
44	0.774115	91508736	60960768	21453096	24992
45	0.770084	91508736	60960768	22801232	24992
46	0.759108	91508736	60960768	24148696	24992
47	0.771498	91508736	60960768	25496160	24992
48	0.76201	91508736	60960768	26843624	24992
49	1.012274	91508736	60960768	11749328	24992
50	0.764134	91508736	60960768	13096784	24992
51	0.781815	91508736	60960768	14444280	24992
52	0.77084	91508736	60960768	15791744	24992
53	0.77337	91508736	60960768	17139208	24992
54	0.767545	91508736	60960768	18486672	24992
55	0.77325	91508736	60960768	19834136	24992
56	0.773487	91508736	60960768	21181600	24992
57	0.76914	91508736	60960768	22529064	24992
58	0.770829	91508736	60960768	23876544	24992
59	0.773385	91508736	60960768	25224008	24992
60	0.769007	91508736	60960768	26571472	24992
61	0.763275	91508736	60960768	27918936	24992
62	0.780124	91508736	60960768	12823648	24992
63	0.7666	91508736	60960768	14171112	24992
64	0.766121	91508736	60960768	15518704	24992
65	0.762451	91508736	60960768	16866168	24992
66	0.771934	91508736	60960768	18213632	24992
67	0.760809	91508736	60960768	19561096	24992
68	0.768813	91508736	60960768	20908560	24992
69	0.796049	91508736	60960768	22256024	24992
70	0.766483	91508736	60960768	23603488	24992
71	0.771776	91508736	60960768	24950984	24992
72	0.767442	91508736	60960768	26298448	24992
73	0.759162	91508736	60960768	27645912	24992
74	0.78259	91508736	60960768	12549952	24992
75	0.772768	91508736	60960768	13897416	24992
76	0.78214	91508736	60960768	15244880	24992
77	0.762887	91508736	60960768	16592424	24992
78	0.767085	91508736	60960768	17939888	24992
79	0.763974	91508736	60960768	19287352	24992
80	0.75948	91508736	60960768	20635008	24992
81	0.788361	91508736	60960768	21983640	24992
82	0.777504	91508736	60960768	23331016	24992
83	0.773434	91508736	60960768	24678392	24992
84	0.785845	91508736	60960768	26026904	24992
85	0.766648	91508736	60960768	27374280	24992
86	1.026587	91508736	60960768	12280856	24992
87	0.773702	91508736	60960768	13628232	24992
88	0.776242	91508736	60960768	14975608	24992
89	0.766454	91508736	60960768	16322984	24992
90	0.80891	91508736	60960768	17670440	24992
91	0.99118	91508736	60960768	19017816	24992
92	0.765138	91508736	60960768	20365192	24992
93	0.77214	91508736	60960768	21712568	24992
94	0.760996	91508736	60960768	23059944	24992
95	0.762649	91508736	60960768	24407320	24992
96	0.764132	91508736	60960768	25754696	24992
97	0.7607	91508736	60960768	27102072	24992
98	1.010087	91508736	60960768	12007976	24992
99	0.767165	91508736	60960768	13355360	24992
100	0.762441	91508736	60960768	14702736	24992
101	0.764659	91508736	60960768	16050112	24992
102	1.125698	91508736	60960768	17397504	24992
103	1.029441	91508736	60960768	18744880	24992
104	0.810665	91508736	60960768	20096312	24992
105	0.763063	91508736	60960768	21443352	24992
106	0.767225	91508736	60960768	22790392	24992
107	0.758233	91508736	60960768	24137432	24992
108	0.765488	91508736	60960768	25484488	24992
109	0.764021	91508736	60960768	26831528	24992
110	0.756342	91508736	60960768	28178568	24992
111	0.774905	91508736	60960768	13080856	24992
112	0.772137	91508736	60960768	14427896	24992
113	0.994248	91508736	60960768	15774936	24992
114	0.771602	91508736	60960768	17121976	24992
115	0.756607	91508736	60960768	18469016	24992
116	0.765715	91508736	60960768	19816056	24992
117	0.754968	91508736	60960768	21163096	24992
118	0.780536	91508736	60960768	22510136	24992
119	0.764383	91508736	60960768	23857176	24992
120	0.76079	91508736	60960768	25204216	24992
121	0.763811	91508736	60960768	26551256	24992
122	0.761622	91508736	60960768	27898296	24992
123	0.805698	91508736	60960768	12800576	24992
124	0.780341	91508736	60960768	14147616	24992
125	0.781058	91508736	60960768	15494656	24992
126	0.778113	91508736	60960768	16841696	24992
127	0.787638	91508736	60960768	18188736	24992
128	0.807371	91508736	60960768	19535792	24992
129	0.776962	91508736	60960768	20882832	24992
130	0.780288	91508736	60960768	22229872	24992
131	0.785874	91508736	60960768	23576912	24992
132	0.783843	91508736	60960768	24923952	24992
133	0.790374	91508736	60960768	26270992	24992
134	0.780463	91508736	60960768	27618032	24992
135	1.235119	91508736	60960768	12522144	24992
136	0.777084	91508736	60960768	13869184	24992
137	0.765162	91508736	60960768	15216224	24992
138	0.762278	91508736	60960768	16563264	24992
139	0.770917	91508736	60960768	17910304	24992
140	0.799112	91508736	60960768	19257424	24992
141	0.763512	91508736	60960768	20604464	24992
142	1.098692	91508736	60960768	21953344	24992
143	0.831708	91508736	60960768	23314328	24992
144	0.771371	91508736	60960768	24661368	24992
145	0.763954	91508736	60960768	26008440	24992
146	0.751814	91508736	60960768	27355480	24992
147	1.017173	91508736	60960768	12261720	24992
148	0.768125	91508736	60960768	13608760	24992
149	0.763027	91508736	60960768	14955800	24992
150	0.760761	91508736	60960768	16302840	24992
151	0.766477	91508736	60960768	17649880	24992
152	0.776126	91508736	60960768	18996920	24992
153	0.760284	91508736	60960768	20343960	24992
154	0.758204	91508736	60960768	21691000	24992
155	0.767427	91508736	60960768	23038040	24992
156	0.761047	91508736	60960768	24385080	24992
157	0.773301	91508736	60960768	25732120	24992
158	0.754149	91508736	60960768	27079160	24992
159	0.75604	91508736	60960768	28426216	24992
160	0.774554	91508736	60960768	13330656	24992
161	0.958647	91508736	60960768	14677696	24992
162	0.765213	91508736	60960768	16024736	24992
163	0.827126	91508736	60960768	17371776	24992
164	0.759592	91508736	60960768	18718816	24992
165	0.769414	91508736	60960768	20065856	24992
166	0.754818	91508736	60960768	21412896	24992
167	0.762999	91508736	60960768	22759936	24992
168	0.752416	91508736	60960768	24106976	24992
169	0.760416	91508736	60960768	25454016	24992
170	0.760992	91508736	60960768	26801056	24992
171	0.761518	91508736	60960768	28148096	24992
172	0.96752	91508736	60960768	13050680	24992
173	0.759924	91508736	60960768	14397720	24992
174	0.928959	91508736	60960768	15744760	24992
175	0.757385	91508736	60960768	17094496	24992
176	0.752272	91508736	60960768	18441536	24992
177	0.764757	91508736	60960768	19788576	24992
178	0.754142	91508736	60960768	21135616	24992
179	0.931903	91508736	60960768	22482656	24992
180	0.753161	91508736	60960768	23829696	24992
181	0.762436	91508736	60960768	25176736	24992
182	0.758876	91508736	60960768	26523776	24992
183	0.757087	91508736	60960768	27870880	24992
184	1.026747	91508736	60960768	12775288	24992
185	0.7877	91508736	60960768	14122368	24992
186	0.771266	91508736	60960768	15469408	24992
187	0.769128	91508736	60960768	16816448	24992
188	0.75648	91508736	60960768	18163488	24992
189	0.821458	91508736	60960768	19510528	24992
190	0.757289	91508736	60960768	20857568	24992
191	0.755518	91508736	60960768	22204608	24992
192	0.754765	91508736	60960768	23551648	24992
193	0.767658	91508736	60960768	24898688	24992
194	0.97991	91508736	60960768	26246552	24992
195	0.756162	91508736	60960768	27593592	24992
196	1.040687	91508736	60960768	12498096	24992
197	0.758789	91508736	60960768	13845144	24992
198	0.750789	91508736	60960768	15192184	24992
199	0.81158	91508736	60960768	16539224	24992
200	0.758283	91508736	60960768	17886264	24992
201	0.759091	91508736	60960768	19233304	24992
202	0.758952	91508736	60960768	20580512	24992
203	0.76127	91508736	60960768	21927560	24992
204	0.757817	91508736	60960768	23274600	24992
205	0.749153	91508736	60960768	24621640	24992
206	0.766336	91508736	60960768	25968680	24992
207	0.754345	91508736	60960768	27315720	24992
208	0.762032	91508736	60960768	28662760	24992
209	0.78816	91508736	60960768	13565352	24992
210	0.75961	91508736	60960768	14912392	24992
211	0.750783	91508736	60960768	16259432	24992
212	0.758563	91508736	60960768	17606472	24992
213	0.747663	91508736	60960768	18953512	24992
214	0.779385	91508736	60960768	20300552	24992
215	0.755653	91508736	60960768	21647592	24992
216	0.751988	91508736	60960768	22994680	24992
217	0.759196	91508736	60960768	24341720	24992
218	0.770819	91508736	60960768	25688760	24992
219	0.814283	91508736	60960768	27035800	24992
220	0.759291	91508736	60960768	28382840	24992
221	0.778818	91508736	60960768	13285424	24992
222	0.771641	91508736	60960768	14632496	24992
223	0.759622	91508736	60960768	15979536	24992
224	0.958279	91508736	60960768	17326576	24992
225	0.806684	91508736	60960768	18673616	24992
226	0.755566	91508736	60960768	20020656	24992
227	0.758165	91508736	60960768	21367696	24992
228	0.752091	91508736	60960768	22714736	24992
229	0.759601	91508736	60960768	24064656	24992
230	0.751226	91508736	60960768	25411696	24992
231	0.754279	91508736	60960768	26758736	24992
232	0.757862	91508736	60960768	28105776	24992
233	1.025238	91508736	60960768	13013072	24992
234	0.757596	91508736	60960768	14360112	24992
235	0.757003	91508736	60960768	15707376	24992
236	1.203044	91508736	60960768	17054544	24992
237	0.760108	91508736	60960768	18404264	24992
238	0.918396	91508736	60960768	19751304	24992
239	0.76397	91508736	60960768	21098344	24992
240	0.753328	91508736	60960768	22445384	24992
241	0.760126	91508736	60960768	23792424	24992
242	0.761637	91508736	60960768	25139464	24992
243	0.747933	91508736	60960768	26486504	24992
244	0.807834	91508736	60960768	27833544	24992
245	1.034974	91508736	60960768	12741200	24992
246	1.068764	91508736	60960768	14088248	24992
247	0.762496	91508736	60960768	15435288	24992
248	0.767087	91508736	60960768	16782408	24992
249	0.761674	91508736	60960768	18129448	24992
250	0.760422	91508736	60960768	19476488	24992
251	0.758514	91508736	60960768	20823528	24992
252	0.764862	91508736	60960768	22170568	24992
253	0.750826	91508736	60960768	23517608	24992
254	0.763156	91508736	60960768	24864648	24992
255	0.75328	91508736	60960768	26211688	24992
256	0.818943	91508736	60960768	27558728	24992
257	0.750196	91508736	60960768	28905768	24992
258	0.7805	91508736	60960768	13808728	24992
259	0.759676	91508736	60960768	15155816	24992
260	0.754507	91508736	60960768	16502856	24992
261	0.972327	91508736	60960768	17849896	24992
262	0.753392	91508736	60960768	19196936	24992
263	0.759435	91508736	60960768	20543976	24992
264	0.750609	91508736	60960768	21891016	24992
265	0.755464	91508736	60960768	23238056	24992
266	0.768176	91508736	60960768	24585112	24992
267	0.751759	91508736	60960768	25932152	24992
268	0.760599	91508736	60960768	27279192	24992
269	0.761661	91508736	60960768	28626232	24992
270	0.805939	91508736	60960768	13528816	24992
271	0.754338	91508736	60960768	14875856	24992
272	0.763177	91508736	60960768	16222896	24992
273	0.762004	91508736	60960768	17570000	24992
274	0.753469	91508736	60960768	18917040	24992
275	0.750884	91508736	60960768	20264080	24992
276	0.795533	91508736	60960768	21611120	24992
277	0.756647	91508736	60960768	22958160	24992
278	0.758519	91508736	60960768	24305200	24992
279	0.755561	91508736	60960768	25652240	24992
280	0.783659	91508736	60960768	26999280	24992
281	0.777272	91508736	60960768	28348280	24992
282	1.083028	91508736	60960768	13252696	24992
283	0.972941	91508736	60960768	14599736	24992
284	0.756911	91508736	60960768	15946776	24992
285	0.763621	91508736	60960768	17293816	24992
286	0.76084	91508736	60960768	18640856	24992
287	0.820418	91508736	60960768	19987896	24992
288	0.80502	91508736	60960768	21334936	24992
289	0.754469	91508736	60960768	22681976	24992
290	0.762218	91508736	60960768	24029016	24992
291	0.776797	91508736	60960768	25376120	24992
292	0.759602	91508736	60960768	26723160	24992
293	0.804599	91508736	60960768	28070200	24992
294	1.034906	91508736	60960768	12974608	24992
295	0.756058	91508736	60960768	14321656	24992
296	0.762358	91508736	60960768	15668696	24992
297	0.761033	91508736	60960768	17015784	24992
298	0.772819	91508736	60960768	18362824	24992
299	0.758723	91508736	60960768	19709864	24992
300	0.756287	91508736	60960768	21056904	24992
301	0.758539	91508736	60960768	22403944	24992
302	0.753663	91508736	60960768	23750984	24992
303	0.764663	91508736	60960768	25098024	24992
304	0.75318	91508736	60960768	26445096	24992
305	0.765757	91508736	60960768	27792136	24992
306	0.984867	91508736	60960768	29139176	24992
307	0.931639	91508736	60960768	14041768	24992
308	0.829706	91508736	60960768	15390912	24992
309	0.767326	91508736	60960768	16737952	24992
310	0.7663	91508736	60960768	18085104	24992
311	0.757109	91508736	60960768	19432144	24992
312	0.764754	91508736	60960768	20779184	24992
313	0.952477	91508736	60960768	22126224	24992
314	0.765997	91508736	60960768	23473264	24992
315	0.760074	91508736	60960768	24820304	24992
316	0.987079	91508736	60960768	26168360	24992
317	0.757763	91508736	60960768	27515400	24992
318	0.75827	91508736	60960768	28862440	24992
319	0.790947	91508736	60960768	13765024	24992
320	0.771395	91508736	60960768	15112064	24992
321	0.756879	91508736	60960768	16459104	24992
322	0.756134	91508736	60960768	17806144	24992
323	0.76138	91508736	60960768	19153184	24992
324	0.756337	91508736	60960768	20500224	24992
325	0.751373	91508736	60960768	21847264	24992
326	0.749351	91508736	60960768	23194304	24992
327	0.762849	91508736	60960768	24541344	24992
328	0.97697	91508736	60960768	25888464	24992
329	0.754391	91508736	60960768	27235504	24992
330	0.754907	91508736	60960768	28582544	24992
331	1.031709	91508736	60960768	13486960	24992
332	0.761968	91508736	60960768	14834000	24992
333	0.762195	91508736	60960768	16181040	24992
334	0.758583	91508736	60960768	17528080	24992
335	0.75967	91508736	60960768	18875120	24992
336	0.758407	91508736	60960768	20222160	24992
337	0.754589	91508736	60960768	21569200	24992
338	0.779075	91508736	60960768	22916240	24992
339	0.757403	91508736	60960768	24263280	24992
340	0.763163	91508736	60960768	25610320	24992
341	0.759606	91508736	60960768	26957408	24992
342	0.746317	91508736	60960768	28304448	24992
343	1.050626	91508736	60960768	13208856	24992
344	0.756097	91508736	60960768	14555904	24992
345	0.776369	91508736	60960768	15902944	24992
346	0.761267	91508736	60960768	17249984	24992
347	0.763725	91508736	60960768	18597024	24992
348	0.763972	91508736	60960768	19944064	24992
349	0.764335	91508736	60960768	21291104	24992
350	0.779006	91508736	60960768	22638144	24992
351	0.767088	91508736	60960768	23985184	24992
352	0.75469	91508736	60960768	25332224	24992
353	0.770074	91508736	60960768	26679264	24992
354	0.764603	91508736	60960768	28026352	24992
355	0.75118	91508736	60960768	29373392	24992
356	0.778427	91508736	60960768	14275984	24992
357	0.753683	91508736	60960768	15623024	24992
358	0.979189	91508736	60960768	16970064	24992
359	0.753691	91508736	60960768	18317104	24992
360	0.752421	91508736	60960768	19668592	24992
361	0.761182	91508736	60960768	21015648	24992
362	0.749682	91508736	60960768	22362688	24992
363	0.769004	91508736	60960768	23709728	24992
364	0.759879	91508736	60960768	25056768	24992
365	0.750063	91508736	60960768	26403808	24992
366	0.755962	91508736	60960768	27750848	24992
367	0.754878	91508736	60960768	29097888	24992
368	0.793385	91508736	60960768	14004920	24992
369	0.781224	91508736	60960768	15351960	24992
370	0.775466	91508736	60960768	16699000	24992
371	0.766006	91508736	60960768	18046040	24992
372	0.753067	91508736	60960768	19393080	24992
373	0.954989	91508736	60960768	20740120	24992
374	0.752052	91508736	60960768	22087160	24992
375	0.756408	91508736	60960768	23434200	24992
376	0.762052	91508736	60960768	24781240	24992
377	0.762308	91508736	60960768	26128280	24992
378	0.757259	91508736	60960768	27475320	24992
379	0.75128	91508736	60960768	28822376	24992
380	1.035601	91508736	60960768	13731240	24992
381	0.984304	91508736	60960768	15078280	24992
382	0.773129	91508736	60960768	16425320	24992
383	0.965111	91508736	60960768	17772360	24992
384	0.769468	91508736	60960768	19119400	24992
385	0.760236	91508736	60960768	20466520	24992
386	0.755528	91508736	60960768	21813560	24992
387	0.747442	91508736	60960768	23160600	24992
388	0.972037	91508736	60960768	24507640	24992
389	0.760794	91508736	60960768	25854680	24992
390	0.751224	91508736	60960768	27201720	24992
391	0.755938	91508736	60960768	28548760	24992
392	1.035043	91508736	60960768	13453200	24992
393	0.781995	91508736	60960768	14800248	24992
394	0.970501	91508736	60960768	16147288	24992
395	0.771523	91508736	60960768	17494328	24992
396	0.754783	91508736	60960768	18841368	24992
397	0.758825	91508736	60960768	20188408	24992
398	0.755017	91508736	60960768	21535480	24992
399	0.755051	91508736	60960768	22882520	24992
400	0.752867	91508736	60960768	24229560	24992
401	0.756157	91508736	60960768	25576600	24992
402	0.751888	91508736	60960768	26923640	24992
403	0.974053	91508736	60960768	28270680	24992
404	0.752509	91508736	60960768	29617720	24992
405	0.812299	91508736	60960768	14520312	24992
406	0.752297	91508736	60960768	15867352	24992
407	0.756223	91508736	60960768	17214392	24992
408	0.752451	91508736	60960768	18561432	24992
409	0.754769	91508736	60960768	19908472	24992
410	0.747605	91508736	60960768	21255512	24992
411	0.764086	91508736	60960768	22602552	24992
412	0.815105	91508736	60960768	23949592	24992
413	0.772767	91508736	60960768	25296632	24992
414	0.752787	91508736	60960768	26643672	24992
415	0.764076	91508736	60960768	27990712	24992
416	0.758645	91508736	60960768	29337768	24992
417	0.766054	91508736	60960768	14240352	24992
418	0.980619	91508736	60960768	15587424	24992
419	0.753516	91508736	60960768	16934464	24992
420	0.759256	91508736	60960768	18281504	24992
421	0.75525	91508736	60960768	19628544	24992
422	0.751917	91508736	60960768	20975584	24992
423	0.749474	91508736	60960768	22322624	24992
424	0.75045	91508736	60960768	23669664	24992
425	0.77017	91508736	60960768	25016704	24992
426	0.7569	91508736	60960768	26363744	24992
427	0.7487	91508736	60960768	27710784	24992
428	0.760804	91508736	60960768	29057824	24992
429	1.04785	91508736	60960768	13962432	24992
430	0.775864	91508736	60960768	15309472	24992
431	0.751912	91508736	60960768	16656512	24992
432	0.753538	91508736	60960768	18003552	24992
433	0.753354	91508736	60960768	19350592	24992
434	0.765271	91508736	60960768	20697632	24992
435	0.752806	91508736	60960768	22044672	24992
436	0.760089	91508736	60960768	23391744	24992
437	0.749166	91508736	60960768	24738784	24992
438	0.760321	91508736	60960768	26085824	24992
439	0.752899	91508736	60960768	27432864	24992
440	0.758199	91508736	60960768	28779904	24992
441	1.055332	91508736	60960768	13684312	24992
442	0.770412	91508736	60960768	15031840	24992
443	0.769421	91508736	60960768	16378880	24992
444	0.754196	91508736	60960768	17725920	24992
445	0.753605	91508736	60960768	19072960	24992
446	0.759319	91508736	60960768	20420000	24992
447	0.74892	91508736	60960768	21767040	24992
448	0.983248	91508736	60960768	23114080	24992
449	0.760384	91508736	60960768	24461184	24992
450	0.757328	91508736	60960768	25808224	24992
451	0.753739	91508736	60960768	27155264	24992
452	0.755245	91508736	60960768	28502304	24992
453	1.033374	91508736	60960768	13405200	24992
454	0.756583	91508736	60960768	14752240	24992
455	0.751506	91508736	60960768	16099280	24992
456	0.758275	91508736	60960768	17446320	24992
457	0.759113	91508736	60960768	18793360	24992
458	0.760027	91508736	60960768	20140400	24992
459	0.75048	91508736	60960768	21487440	24992
460	0.750381	91508736	60960768	22834496	24992
461	0.753897	91508736	60960768	24181536	24992
462	0.760255	91508736	60960768	25528576	24992
463	1.012838	91508736	60960768	26875616	24992
464	0.760748	91508736	60960768	28222656	24992
465	0.751005	91508736	60960768	29569696	24992
466	0.766673	91508736	60960768	14472272	24992
467	0.750701	91508736	60960768	15819312	24992
468	0.817105	91508736	60960768	17166384	24992
469	0.753796	91508736	60960768	18513424	24992
470	0.758742	91508736	60960768	19860464	24992
471	0.767373	91508736	60960768	21207504	24992
472	0.970236	91508736	60960768	22554544	24992
473	0.793481	91508736	60960768	23901648	24992
474	0.749013	91508736	60960768	25248688	24992
475	0.765391	91508736	60960768	26595728	24992
476	0.750126	91508736	60960768	27942768	24992
477	0.765367	91508736	60960768	29289808	24992
478	0.79597	91508736	60960768	14192392	24992
479	0.758479	91508736	60960768	15539448	24992
480	0.771399	91508736	60960768	16886488	24992
481	0.752257	91508736	60960768	18233528	24992
482	0.755869	91508736	60960768	19580568	24992
483	0.753079	91508736	60960768	20927608	24992
484	0.760676	91508736	60960768	22274648	24992
485	0.755422	91508736	60960768	23621688	24992
486	0.770198	91508736	60960768	24968760	24992
487	0.746245	91508736	60960768	26315800	24992
488	0.762877	91508736	60960768	27662840	24992
489	0.749306	91508736	60960768	29009880	24992
490	1.052839	91508736	60960768	13914288	24992
491	0.912438	91508736	60960768	15261352	24992
492	0.759866	91508736	60960768	16610016	24992
493	0.76769	91508736	60960768	17957088	24992
494	0.752458	91508736	60960768	19304128	24992
495	0.757297	91508736	60960768	20651168	24992
496	0.751099	91508736	60960768	21998208	24992
497	0.75227	91508736	60960768	23345248	24992
498	0.755357	91508736	60960768	24692288	24992
499	0.754267	91508736	60960768	26039328	24992
500	0.748984	91508736	60960768	27386368	24992
501	0.818049	91508736	60960768	28733408	24992
502	1.042331	91508736	60960768	13637816	24992
503	0.794976	91508736	60960768	14984864	24992
504	0.754493	91508736	60960768	16331904	24992
505	0.777532	91508736	60960768	17678944	24992
506	0.748591	91508736	60960768	19025984	24992
507	0.754529	91508736	60960768	20373024	24992
508	0.980843	91508736	60960768	21720064	24992
509	0.756311	91508736	60960768	23067104	24992
510	0.755533	91508736	60960768	24414144	24992
511	0.762013	91508736	60960768	25761184	24992
512	0.74973	91508736	60960768	27108224	24992
513	0.811319	91508736	60960768	28455264	24992
514	0.75396	91508736	60960768	29802304	24992
515	0.968971	91508736	60960768	14704880	24992
516	0.766614	91508736	60960768	16051920	24992
517	0.758047	91508736	60960768	17399008	24992
518	0.767749	91508736	60960768	18746048	24992
519	0.755739	91508736	60960768	20093088	24992
520	0.783601	91508736	60960768	21440128	24992
521	0.759825	91508736	60960768	22787168	24992
522	0.758228	91508736	60960768	24134208	24992
523	0.820118	91508736	60960768	25481248	24992
524	0.757933	91508736	60960768	26828384	24992
525	0.760851	91508736	60960768	28175424	24992
526	0.757725	91508736	60960768	29522464	24992
527	0.789973	91508736	60960768	14425048	24992
528	0.784735	91508736	60960768	15772088	24992
529	0.804031	91508736	60960768	17119128	24992
530	0.950981	91508736	60960768	18466200	24992
531	0.764235	91508736	60960768	19813240	24992
532	0.750822	91508736	60960768	21160280	24992
533	0.784583	91508736	60960768	22507320	24992
534	0.754116	91508736	60960768	23854360	24992
535	0.764691	91508736	60960768	25201400	24992
536	0.763726	91508736	60960768	26548440	24992
537	0.828484	91508736	60960768	27895480	24992
538	0.977595	91508736	60960768	29242520	24992
539	1.062705	91508736	60960768	14146928	24992
540	0.784435	91508736	60960768	15493976	24992
541	0.772539	91508736	60960768	16841016	24992
542	0.775144	91508736	60960768	18188056	24992
543	0.77107	91508736	60960768	19535160	24992
544	0.772131	91508736	60960768	20882200	24992
545	0.790313	91508736	60960768	22229240	24992
546	0.768736	91508736	60960768	23576280	24992
547	0.776445	91508736	60960768	24923320	24992
548	0.775099	91508736	60960768	26270696	24992
549	0.771032	91508736	60960768	27617736	24992
550	1.004213	91508736	60960768	28964776	24992
551	1.036575	91508736	60960768	13869184	24992
552	0.778405	91508736	60960768	15216232	24992
553	0.76601	91508736	60960768	16563272	24992
554	0.750204	91508736	60960768	17910312	24992
555	0.767164	91508736	60960768	19257352	24992
556	0.750984	91508736	60960768	20611288	24992
557	0.749556	91508736	60960768	21958328	24992
558	0.757492	91508736	60960768	23305368	24992
559	0.755819	91508736	60960768	24652408	24992
560	0.974746	91508736	60960768	25999448	24992
561	0.759729	91508736	60960768	27346520	24992
562	0.74918	91508736	60960768	28693560	24992
563	0.758547	91508736	60960768	30040600	24992
564	0.785554	91508736	60960768	14949976	24992
565	0.787059	91508736	60960768	16297016	24992
566	0.773195	91508736	60960768	17644056	24992
567	0.769283	91508736	60960768	18991096	24992
568	0.757764	91508736	60960768	20338136	24992
569	0.756357	91508736	60960768	21685176	24992
570	0.766877	91508736	60960768	23032216	24992
571	0.771598	91508736	60960768	24379256	24992
572	0.748982	91508736	60960768	25726296	24992
573	0.762272	91508736	60960768	27073336	24992
574	0.754239	91508736	60960768	28420376	24992
575	0.979036	91508736	60960768	29767416	24992
576	0.766177	91508736	60960768	14676800	24992
577	0.764157	91508736	60960768	16023840	24992
578	0.759155	91508736	60960768	17370880	24992
579	0.760082	91508736	60960768	18717920	24992
580	0.765014	91508736	60960768	20064960	24992
581	0.758276	91508736	60960768	21412144	24992
582	0.757843	91508736	60960768	22759184	24992
583	0.75319	91508736	60960768	24106224	24992
584	0.758875	91508736	60960768	25453264	24992
585	0.758522	91508736	60960768	26800304	24992
586	0.755913	91508736	60960768	28147344	24992
587	0.826867	91508736	60960768	29494432	24992
588	1.044398	91508736	60960768	14398840	24992
589	0.755551	91508736	60960768	15745888	24992
590	0.765797	91508736	60960768	17092928	24992
591	0.758262	91508736	60960768	18439968	24992
592	0.762201	91508736	60960768	19787008	24992
593	0.756526	91508736	60960768	21134048	24992
594	0.761405	91508736	60960768	22481152	24992
595	0.761698	91508736	60960768	23828192	24992
596	0.759677	91508736	60960768	25175232	24992
597	0.751188	91508736	60960768	26522272	24992
598	0.779306	91508736	60960768	27869312	24992
599	0.757466	91508736	60960768	29216352	24992
600	1.048722	91508736	60960768	14120760	24992
601	0.76151	91508736	60960768	15467808	24992
602	0.756077	91508736	60960768	16814848	24992
603	0.760423	91508736	60960768	18161888	24992
604	0.750821	91508736	60960768	19508928	24992
605	0.964696	91508736	60960768	20855968	24992
606	0.750432	91508736	60960768	22203008	24992
607	0.759068	91508736	60960768	23550048	24992
608	0.74839	91508736	60960768	24897088	24992
609	0.753485	91508736	60960768	26244128	24992
610	0.758995	91508736	60960768	27591168	24992
611	0.759868	91508736	60960768	28938208	24992
612	0.756274	91508736	60960768	30285328	24992
613	0.774218	91508736	60960768	15187968	24992
614	0.757172	91508736	60960768	16535008	24992
615	0.769448	91508736	60960768	17882048	24992
616	0.750969	91508736	60960768	19229088	24992
617	0.755104	91508736	60960768	20576128	24992
618	0.754204	91508736	60960768	21923184	24992
619	0.747082	91508736	60960768	23270224	24992
620	0.752667	91508736	60960768	24617264	24992
621	0.754278	91508736	60960768	25964304	24992
622	0.761622	91508736	60960768	27311344	24992
623	0.759056	91508736	60960768	28658384	24992
624	0.761551	91508736	60960768	30005424	24992
625	0.795245	91508736	60960768	14908008	24992
626	0.769688	91508736	60960768	16255048	24992
627	0.767141	91508736	60960768	17602088	24992
628	1.189176	91508736	60960768	18949128	24992
629	0.75552	91508736	60960768	20296168	24992
630	0.764372	91508736	60960768	21643208	24992
631	0.752628	91508736	60960768	22990312	24992
632	0.762856	91508736	60960768	24337352	24992
633	0.753908	91508736	60960768	25684392	24992
634	0.756911	91508736	60960768	27031432	24992
635	0.767273	91508736	60960768	28378472	24992
636	0.751918	91508736	60960768	29725528	24992
637	1.050223	91508736	60960768	14629936	24992
638	0.778409	91508736	60960768	15976984	24992
639	0.771	91508736	60960768	17324024	24992
640	0.778878	91508736	60960768	18671064	24992
641	0.770833	91508736	60960768	20018104	24992
642	0.768419	91508736	60960768	21365144	24992
643	0.790264	91508736	60960768	22712184	24992
644	0.752345	91508736	60960768	24059224	24992
645	0.772846	91508736	60960768	25406264	24992
646	0.754375	91508736	60960768	26753304	24992
647	0.755701	91508736	60960768	28100344	24992
648	0.758524	91508736	60960768	29447384	24992
649	1.038152	91508736	60960768	14351872	24992
650	0.967167	91508736	60960768	15698920	24992
651	0.757316	91508736	60960768	17045960	24992
652	0.760854	91508736	60960768	18393000	24992
653	0.751853	91508736	60960768	19740040	24992
654	0.757152	91508736	60960768	21087080	24992
655	0.760116	91508736	60960768	22434224	24992
656	0.750127	91508736	60960768	23781272	24992
657	0.753394	91508736	60960768	25128312	24992
658	0.772496	91508736	60960768	26475352	24992
659	0.758372	91508736	60960768	27822392	24992
660	0.751775	91508736	60960768	29169432	24992
661	0.761607	91508736	60960768	30516472	24992
662	0.820916	91508736	60960768	15419112	24992
663	0.754072	91508736	60960768	16766152	24992
664	0.757188	91508736	60960768	18113192	24992
665	0.750087	91508736	60960768	19460232	24992
666	0.761904	91508736	60960768	20807272	24992
667	0.750949	91508736	60960768	22154312	24992
668	0.758379	91508736	60960768	23501352	24992
669	0.757842	91508736	60960768	24848504	24992
670	0.749672	91508736	60960768	26195544	24992
671	0.750394	91508736	60960768	27542584	24992
672	0.751296	91508736	60960768	28889624	24992
673	0.975942	91508736	60960768	30236664	24992
674	0.769952	91508736	60960768	15139248	24992
675	0.75308	91508736	60960768	16486304	24992
676	0.764407	91508736	60960768	17833344	24992
677	0.754377	91508736	60960768	19180384	24992
678	0.76647	91508736	60960768	20527424	24992
679	0.755598	91508736	60960768	21874464	24992
680	0.759547	91508736	60960768	23221504	24992
681	0.752397	91508736	60960768	24568544	24992
682	0.758617	91508736	60960768	25915584	24992
683	0.756254	91508736	60960768	27262624	24992
684	0.760422	91508736	60960768	28609664	24992
685	0.751025	91508736	60960768	29956704	24992
686	1.045145	91508736	60960768	14861120	24992
687	0.755476	91508736	60960768	16208160	24992
688	0.968192	91508736	60960768	17555200	24992
689	0.750711	91508736	60960768	18902240	24992
690	0.759011	91508736	60960768	20249280	24992
691	0.74967	91508736	60960768	21596320	24992
692	0.759124	91508736	60960768	22943360	24992
693	0.757369	91508736	60960768	24290496	24992
694	0.756984	91508736	60960768	25637536	24992
695	0.753378	91508736	60960768	26984576	24992
696	0.791332	91508736	60960768	28331616	24992
697	0.746708	91508736	60960768	29678656	24992
698	1.052378	91508736	60960768	14583064	24992
699	0.763015	91508736	60960768	15930112	24992
700	0.755445	91508736	60960768	17277152	24992
701	0.755445	91508736	60960768	18624192	24992
702	0.759362	91508736	60960768	19971232	24992
703	1.065552	91508736	60960768	21318936	24992
704	0.759554	91508736	60960768	22665976	24992
705	0.7604	91508736	60960768	24013016	24992
706	0.760176	91508736	60960768	25360088	24992
707	0.756979	91508736	60960768	26707128	24992
708	0.775311	91508736	60960768	28054168	24992
709	0.748931	91508736	60960768	29401208	24992
710	0.751288	91508736	60960768	30748248	24992
711	0.769676	91508736	60960768	15650840	24992
712	0.765368	91508736	60960768	16997880	24992
713	0.768399	91508736	60960768	18344984	24992
714	0.757187	91508736	60960768	19692024	24992
715	0.748724	91508736	60960768	21039064	24992
716	0.756003	91508736	60960768	22386104	24992
717	0.75545	91508736	60960768	23733144	24992
718	0.773906	91508736	60960768	25080184	24992
719	0.761062	91508736	60960768	26427240	24992
720	0.748696	91508736	60960768	27774280	24992
721	0.765584	91508736	60960768	29121320	24992
722	0.750913	91508736	60960768	30468360	24992
723	0.777652	91508736	60960768	15370944	24992
724	0.752959	91508736	60960768	16717984	24992
725	0.802345	91508736	60960768	18065024	24992
726	0.759876	91508736	60960768	19412160	24992
727	0.757644	91508736	60960768	20759200	24992
728	0.761472	91508736	60960768	22106240	24992
729	0.751965	91508736	60960768	23453280	24992
730	0.746476	91508736	60960768	24800320	24992
731	0.760447	91508736	60960768	26147360	24992
732	0.748411	91508736	60960768	27494400	24992
733	0.771743	91508736	60960768	28841440	24992
734	0.760305	91508736	60960768	30188480	24992
735	1.042587	91508736	60960768	15092896	24992
736	0.76193	91508736	60960768	16439936	24992
737	0.75992	91508736	60960768	17786976	24992
738	0.762202	91508736	60960768	19134016	24992
739	0.753915	91508736	60960768	20481056	24992
740	0.747827	91508736	60960768	21828096	24992
741	0.763332	91508736	60960768	23175136	24992
742	0.750153	91508736	60960768	24522176	24992
743	0.754885	91508736	60960768	25869216	24992
744	0.749552	91508736	60960768	27216288	24992
745	0.753416	91508736	60960768	28563328	24992
746	0.75592	91508736	60960768	29910368	24992
747	1.046039	91508736	60960768	14814776	24992
748	0.754802	91508736	60960768	16161824	24992
749	0.754481	91508736	60960768	17508864	24992
750	0.751134	91508736	60960768	18855904	24992
751	0.758512	91508736	60960768	20202944	24992
752	0.755819	91508736	60960768	21549984	24992
753	0.751096	91508736	60960768	22897024	24992
754	0.756211	91508736	60960768	24244064	24992
755	0.758704	91508736	60960768	25591104	24992
756	0.971602	91508736	60960768	26938144	24992
757	0.761685	91508736	60960768	28285184	24992
758	0.767278	91508736	60960768	29632224	24992
759	0.778996	91508736	60960768	30979264	24992
760	0.781993	91508736	60960768	15881856	24992
761	0.781932	91508736	60960768	17228896	24992
762	0.772092	91508736	60960768	18575936	24992
763	0.80006	91508736	60960768	19922976	24992
764	0.757917	91508736	60960768	21270016	24992
765	0.758047	91508736	60960768	22617056	24992
766	0.766976	91508736	60960768	23964096	24992
767	0.756844	91508736	60960768	25311136	24992
768	0.752898	91508736	60960768	26658192	24992
769	0.758885	91508736	60960768	28005232	24992
770	0.755198	91508736	60960768	29352272	24992
771	0.976001	91508736	60960768	30699312	24992
772	0.777702	91508736	60960768	15601896	24992
773	1.376131	91508736	60960768	16949008	24992
774	0.760484	91508736	60960768	18296048	24992
775	0.803897	91508736	60960768	19643088	24992
776	0.795986	91508736	60960768	20990128	24992
777	0.808279	91508736	60960768	22346200	24992
778	0.97783	91508736	60960768	23693240	24992
779	0.757306	91508736	60960768	25040280	24992
780	0.751768	91508736	60960768	26387320	24992
781	0.75416	91508736	60960768	27734424	24992
782	0.752996	91508736	60960768	29081464	24992
783	0.771157	91508736	60960768	30428504	24992
784	1.061619	91508736	60960768	15347784	24992
785	0.941565	91508736	60960768	16694824	24992
786	0.754762	91508736	60960768	18041864	24992
787	0.781514	91508736	60960768	19388904	24992
788	0.764679	91508736	60960768	20735944	24992
789	0.749061	91508736	60960768	22083048	24992
790	0.761216	91508736	60960768	23430088	24992
791	0.759192	91508736	60960768	24777128	24992
792	0.75356	91508736	60960768	26124168	24992
793	0.769118	91508736	60960768	27471208	24992
794	0.762564	91508736	60960768	28818280	24992
795	0.751896	91508736	60960768	30165320	24992
796	1.104086	91508736	60960768	15109464	24992
797	0.769981	91508736	60960768	16456512	24992
798	0.76652	91508736	60960768	17803552	24992
799	0.766711	91508736	60960768	19150592	24992
800	0.776489	91508736	60960768	20497632	24992
801	0.757651	91508736	60960768	21844672	24992
802	0.749462	91508736	60960768	23191792	24992
803	0.756176	91508736	60960768	24538832	24992
804	0.75617	91508736	60960768	25885872	24992
805	0.757355	91508736	60960768	27232912	24992
806	0.752261	91508736	60960768	28579952	24992
807	0.752817	91508736	60960768	29927040	24992
808	0.984084	91508736	60960768	31274080	24992
809	0.775368	91508736	60960768	16227056	24992
810	0.765848	91508736	60960768	17574096	24992
811	0.754184	91508736	60960768	18921136	24992
812	0.75028	91508736	60960768	20268176	24992
813	0.806296	91508736	60960768	21615216	24992
814	0.788038	91508736	60960768	22962256	24992
815	0.958799	91508736	60960768	24309312	24992
816	0.795558	91508736	60960768	25656352	24992
817	0.787866	91508736	60960768	27003392	24992
818	0.802755	91508736	60960768	28350432	24992
819	0.789933	91508736	60960768	29697472	24992
820	0.809139	91508736	60960768	31044512	24992
821	0.807075	91508736	60960768	15997480	24992
822	0.974833	91508736	60960768	17344520	24992
823	0.752606	91508736	60960768	18691624	24992
824	0.754576	91508736	60960768	20038664	24992
825	0.772351	91508736	60960768	21385704	24992
826	0.76253	91508736	60960768	22732744	24992
827	0.772109	91508736	60960768	24079784	24992
828	0.764469	91508736	60960768	25426824	24992
829	0.751124	91508736	60960768	26773864	24992
830	0.817074	91508736	60960768	28120904	24992
831	0.749897	91508736	60960768	29467944	24992
832	0.75041	91508736	60960768	30814984	24992
833	0.767087	91508736	60960768	15766920	24992
834	0.765088	91508736	60960768	17113960	24992
835	0.775435	91508736	60960768	18461000	24992
836	0.752089	91508736	60960768	19808072	24992
837	1.195336	91508736	60960768	21155128	24992
838	0.767276	91508736	60960768	22502168	24992
839	0.760257	91508736	60960768	23851616	24992
840	0.753599	91508736	60960768	25198464	24992
841	0.806119	91508736	60960768	26545312	24992
842	0.762734	91508736	60960768	27892160	24992
843	0.748178	91508736	60960768	29239008	24992
844	0.747664	91508736	60960768	30585856	24992
845	1.188333	91508736	60960768	15541216	24992
846	0.758695	91508736	60960768	16888064	24992
847	0.7612	91508736	60960768	18234912	24992
848	0.752079	91508736	60960768	19581760	24992
849	0.8015	91508736	60960768	20928832	24992
850	0.754666	91508736	60960768	22286016	24992
851	0.754567	91508736	60960768	23632864	24992
852	0.768596	91508736	60960768	24979712	24992
853	0.758222	91508736	60960768	26326560	24992
854	0.755464	91508736	60960768	27673408	24992
855	0.771288	91508736	60960768	29020256	24992
856	0.757959	91508736	60960768	30367184	24992
857	1.174265	91508736	60960768	15332912	24992
858	0.761027	91508736	60960768	16679768	24992
859	0.748372	91508736	60960768	18026616	24992
860	0.761724	91508736	60960768	19373464	24992
861	0.775181	91508736	60960768	20720312	24992
862	0.773392	91508736	60960768	22067160	24992
863	0.747109	91508736	60960768	23414008	24992
864	0.75401	91508736	60960768	24760872	24992
865	0.756947	91508736	60960768	26107720	24992
866	0.746928	91508736	60960768	27454568	24992
867	0.984577	91508736	60960768	28801416	24992
868	0.753836	91508736	60960768	30148264	24992
869	0.75586	91508736	60960768	31495112	24992
870	0.784194	91508736	60960768	16458224	24992
871	0.76382	91508736	60960768	17805072	24992
872	0.775118	91508736	60960768	19151920	24992
873	0.771212	91508736	60960768	20498768	24992
874	0.767704	91508736	60960768	21845616	24992
875	0.76271	91508736	60960768	23192464	24992
876	0.769572	91508736	60960768	24539312	24992
877	0.771915	91508736	60960768	25886256	24992
878	0.767795	91508736	60960768	27233104	24992
879	0.766461	91508736	60960768	28579952	24992
880	0.778032	91508736	60960768	29926800	24992
881	0.76938	91508736	60960768	31273648	24992
882	0.799082	91508736	60960768	16226528	24992
883	0.768525	91508736	60960768	17573376	24992
884	0.764408	91508736	60960768	18920224	24992
885	0.752512	91508736	60960768	20267104	24992
886	0.814014	91508736	60960768	21613952	24992
887	0.767493	91508736	60960768	22976528	24992
888	0.753306	91508736	60960768	24323360	24992
889	0.756997	91508736	60960768	25670208	24992
890	0.776048	91508736	60960768	27017040	24992
891	0.970813	91508736	60960768	28363872	24992
892	0.75252	91508736	60960768	29710704	24992
893	0.977284	91508736	60960768	31057536	24992
894	1.233385	91508736	60960768	16012544	24992
895	0.768143	91508736	60960768	17359376	24992
896	0.759253	91508736	60960768	18706208	24992
897	0.756856	91508736	60960768	20053040	24992
898	0.771704	91508736	60960768	21399872	24992
899	0.751256	91508736	60960768	22746704	24992
900	0.746908	91508736	60960768	24093536	24992
901	0.76235	91508736	60960768	25440368	24992
902	0.753411	91508736	60960768	26787200	24992
903	0.963622	91508736	60960768	28134032	24992
904	0.747256	91508736	60960768	29480864	24992
905	0.74605	91508736	60960768	30827696	24992
906	1.218589	91508736	60960768	15782128	24992
907	0.751979	91508736	60960768	17128968	24992
908	0.752525	91508736	60960768	18475800	24992
909	0.748365	91508736	60960768	19822632	24992
910	0.834883	91508736	60960768	21169464	24992
911	0.765486	91508736	60960768	22516296	24992
912	0.749477	91508736	60960768	23863128	24992
913	0.759628	91508736	60960768	25209960	24992
914	0.756799	91508736	60960768	26556792	24992
915	0.756361	91508736	60960768	27903624	24992
916	0.750686	91508736	60960768	29250456	24992
917	0.7466	91508736	60960768	30597288	24992
918	0.986754	91508736	60960768	31944120	24992
919	0.781291	91508736	60960768	16895544	24992
920	0.783794	91508736	60960768	18242376	24992
921	0.76641	91508736	60960768	19589208	24992
922	0.772473	91508736	60960768	20936040	24992
923	0.769291	91508736	60960768	22282872	24992
924	0.772002	91508736	60960768	23629704	24992
925	0.990502	91508736	60960768	24976536	24992
926	0.757495	91508736	60960768	26323368	24992
927	0.763166	91508736	60960768	27670200	24992
928	0.757044	91508736	60960768	29017032	24992
929	0.748093	91508736	60960768	30363864	24992
930	0.759677	91508736	60960768	31710712	24992
931	0.789581	91508736	60960768	16662128	24992
932	0.766998	91508736	60960768	18008976	24992
933	0.764787	91508736	60960768	19355808	24992
934	0.763469	91508736	60960768	20702640	24992
935	0.775866	91508736	60960768	22049472	24992
936	0.766802	91508736	60960768	23396304	24992
937	0.773825	91508736	60960768	24743136	24992
938	0.782188	91508736	60960768	26089968	24992
939	0.751302	91508736	60960768	27436800	24992
940	0.968899	91508736	60960768	28783632	24992
941	0.751181	91508736	60960768	30130464	24992
942	0.745352	91508736	60960768	31477296	24992
943	1.294971	91508736	60960768	16428672	24992
944	0.769132	91508736	60960768	17775504	24992
945	0.767863	91508736	60960768	19122352	24992
946	0.768273	91508736	60960768	20469184	24992
947	0.984472	91508736	60960768	21816016	24992
948	0.760839	91508736	60960768	23162848	24992
949	0.75598	91508736	60960768	24509680	24992
950	0.760387	91508736	60960768	25856512	24992
951	0.759821	91508736	60960768	27203344	24992
952	0.767469	91508736	60960768	28550176	24992
953	0.762673	91508736	60960768	29897008	24992
954	0.755295	91508736	60960768	31243840	24992
955	1.328656	91508736	60960768	16198032	24992
956	0.769204	91508736	60960768	17544872	24992
957	0.774001	91508736	60960768	18891704	24992
958	0.766654	91508736	60960768	20238536	24992
959	0.821095	91508736	60960768	21585368	24992
960	0.757289	91508736	60960768	22932200	24992
961	0.751706	91508736	60960768	24279032	24992
962	0.978802	91508736	60960768	25625864	24992
963	0.749171	91508736	60960768	26972696	24992
964	0.756033	91508736	60960768	28319608	24992
965	0.759631	91508736	60960768	29666440	24992
966	0.749244	91508736	60960768	31013272	24992
967	1.316691	91508736	60960768	15964400	24992
968	0.763414	91508736	60960768	17311240	24992
969	0.749409	91508736	60960768	18658072	24992
970	0.763502	91508736	60960768	20004904	24992
971	0.745854	91508736	60960768	21351736	24992
972	0.776911	91508736	60960768	22698568	24992
973	0.756732	91508736	60960768	24045400	24992
974	0.754715	91508736	60960768	25392232	24992
975	0.757107	91508736	60960768	26739064	24992
976	0.757799	91508736	60960768	28085896	24992
977	0.823322	91508736	60960768	29432760	24992
978	0.751512	91508736	60960768	30779592	24992
979	0.752313	91508736	60960768	32126424	24992
980	0.771331	91508736	60960768	17077848	24992
981	0.749309	91508736	60960768	18424680	24992
982	0.75609	91508736	60960768	19771512	24992
983	0.746414	91508736	60960768	21118344	24992
984	0.749565	91508736	60960768	22465176	24992
985	0.760423	91508736	60960768	23812056	24992
986	0.759562	91508736	60960768	25158888	24992
987	0.763215	91508736	60960768	26505720	24992
988	0.760528	91508736	60960768	27852552	24992
989	0.7548	91508736	60960768	29199384	24992
990	0.754193	91508736	60960768	30546216	24992
991	0.750836	91508736	60960768	31893048	24992
992	0.791525	91508736	60960768	16844464	24992
993	0.751374	91508736	60960768	18191296	24992
994	0.785317	91508736	60960768	19538128	24992
995	0.754117	91508736	60960768	20884960	24992
996	0.747163	91508736	60960768	22231792	24992
997	0.753636	91508736	60960768	23578624	24992
998	0.749104	91508736	60960768	24925488	24992
999	0.747079	91508736	60960768	26272320	24992
1000	0.757085	91508736	60960768	27619152	24992
