x	Duration	RSS	HeapTotal	HeapUsed	External
0	NA	92295168	62009344	11529712	24992
1	1.178144	92295168	62009344	12209776	24992
2	2.09115	92295168	62009344	13548152	24992
3	1.025782	92295168	62009344	15551808	24992
4	1.029491	92295168	62009344	16899272	24992
5	1.305905	92295168	62009344	18246736	24992
6	0.762939	92295168	62009344	19594200	24992
7	0.76274	92295168	62009344	20941664	24992
8	0.768125	92295168	62009344	22289128	24992
9	0.759318	92295168	62009344	23636592	24992
10	0.934967	92295168	62009344	24984056	24992
11	0.762939	92295168	62009344	26331520	24992
12	0.760819	92295168	62009344	27679000	24992
13	0.794312	92295168	62009344	12563496	24992
14	0.762927	92295168	62009344	13910960	24992
15	0.842792	92295168	62009344	15258424	24992
16	0.762666	92295168	62009344	16605888	24992
17	0.760327	92295168	62009344	17953352	24992
18	0.762005	92295168	62009344	19300816	24992
19	0.757405	92295168	62009344	20648632	24992
20	0.782735	92295168	62009344	21996096	24992
21	0.761954	92295168	62009344	23343560	24992
22	0.761577	92295168	62009344	24691024	24992
23	0.758155	92295168	62009344	26038488	24992
24	0.759905	92295168	62009344	27385952	24992
25	1.020824	92295168	62009344	12291632	24992
26	0.764296	92295168	62009344	13639096	24992
27	0.763056	92295168	62009344	14986560	24992
28	0.768059	92295168	62009344	16334024	24992
29	0.758052	92295168	62009344	17681488	24992
30	0.768908	92295168	62009344	19028952	24992
31	0.760896	92295168	62009344	20376616	24992
32	0.765479	92295168	62009344	21724072	24992
33	0.759095	92295168	62009344	23071536	24992
34	0.757316	92295168	62009344	24419000	24992
35	0.956131	92295168	62009344	25766464	24992
36	0.762616	92295168	62009344	27113928	24992
37	1.001175	92295168	62009344	12020096	24992
38	0.766832	92295168	62009344	13367584	24992
39	0.761276	92295168	62009344	14715048	24992
40	0.771396	92295168	62009344	16062512	24992
41	0.762721	92295168	62009344	17409976	24992
42	0.758939	92295168	62009344	18757440	24992
43	0.767226	92295168	62009344	20104904	24992
44	0.758498	92295168	62009344	21452368	24992
45	0.963873	92295168	62009344	22800824	24992
46	0.765856	92295168	62009344	24148288	24992
47	0.789231	92295168	62009344	25495752	24992
48	0.75809	92295168	62009344	26843216	24992
49	0.995467	92295168	62009344	11748048	24992
50	0.788139	92295168	62009344	13095504	24992
51	0.766112	92295168	62009344	14442984	24992
52	0.813839	92295168	62009344	15790448	24992
53	0.761966	92295168	62009344	17137912	24992
54	0.759846	92295168	62009344	18485376	24992
55	0.758666	92295168	62009344	19832840	24992
56	0.758026	92295168	62009344	21180304	24992
57	0.9337	92295168	62009344	22527768	24992
58	0.760132	92295168	62009344	23875312	24992
59	0.759205	92295168	62009344	25222776	24992
60	0.762294	92295168	62009344	26570240	24992
61	0.767372	92295168	62009344	27917704	24992
62	0.787249	92295168	62009344	12822416	24992
63	0.765446	92295168	62009344	14169880	24992
64	0.759025	92295168	62009344	15517408	24992
65	0.758849	92295168	62009344	16864872	24992
66	0.760691	92295168	62009344	18212336	24992
67	0.79499	92295168	62009344	19559800	24992
68	0.757893	92295168	62009344	20907264	24992
69	0.760741	92295168	62009344	22254728	24992
70	0.761441	92295168	62009344	23602192	24992
71	0.765816	92295168	62009344	24949656	24992
72	0.92977	92295168	62009344	26297120	24992
73	0.760862	92295168	62009344	27644584	24992
74	0.794927	92295168	62009344	12548624	24992
75	0.780447	92295168	62009344	13896088	24992
76	0.792634	92295168	62009344	15243552	24992
77	0.787919	92295168	62009344	16591064	24992
78	0.777316	92295168	62009344	17938528	24992
79	0.785452	92295168	62009344	19285992	24992
80	0.770318	92295168	62009344	20633648	24992
81	0.769753	92295168	62009344	21982280	24992
82	0.766731	92295168	62009344	23329656	24992
83	0.763762	92295168	62009344	24677032	24992
84	0.775139	92295168	62009344	26025544	24992
85	0.765308	92295168	62009344	27372920	24992
86	1.006425	92295168	62009344	12279496	24992
87	0.765052	92295168	62009344	13626872	24992
88	0.762281	92295168	62009344	14974248	24992
89	0.766375	92295168	62009344	16321624	24992
90	0.759333	92295168	62009344	17669000	24992
91	0.758934	92295168	62009344	19016376	24992
92	0.767151	92295168	62009344	20363752	24992
93	0.774946	92295168	62009344	21711208	24992
94	0.825752	92295168	62009344	23058584	24992
95	0.763748	92295168	62009344	24405960	24992
96	0.76009	92295168	62009344	25753336	24992
97	0.81743	92295168	62009344	27114656	24992
98	1.000799	92295168	62009344	12020928	24992
99	0.763379	92295168	62009344	13368312	24992
100	0.789196	92295168	62009344	14715688	24992
101	0.951225	92295168	62009344	16063064	24992
102	0.761337	92295168	62009344	17410440	24992
103	0.754715	92295168	62009344	18757832	24992
104	0.869176	92295168	62009344	20105208	24992
105	0.968895	92295168	62009344	21452584	24992
106	0.922931	92295168	62009344	22799960	24992
107	1.003766	92295168	62009344	24148280	24992
108	1.275286	92295168	62009344	25495736	24992
109	0.798977	92295168	62009344	26843112	24992
110	1.04	92295168	62009344	28190488	24992
111	0.795481	92295168	62009344	13093768	24992
112	0.796841	92295168	62009344	14441144	24992
113	0.757865	92295168	62009344	15788520	24992
114	0.754694	92295168	62009344	17135896	24992
115	1.22844	92295168	62009344	18483272	24992
116	0.753855	92295168	62009344	19830648	24992
117	0.807975	92295168	62009344	21178024	24992
118	0.755269	92295168	62009344	22525400	24992
119	0.754418	92295168	62009344	23872776	24992
120	0.772997	92295168	62009344	25220152	24992
121	0.758137	92295168	62009344	26567592	24992
122	1.131879	92295168	62009344	27914968	24992
123	0.771871	92295168	62009344	12818256	24992
124	0.758226	92295168	62009344	14165632	24992
125	0.75696	92295168	62009344	15513008	24992
126	0.758454	92295168	62009344	16860384	24992
127	0.810897	92295168	62009344	18207760	24992
128	0.761325	92295168	62009344	19555152	24992
129	0.756422	92295168	62009344	20902528	24992
130	0.76299	92295168	62009344	22249904	24992
131	0.760587	92295168	62009344	23597280	24992
132	0.785333	92295168	62009344	24944656	24992
133	0.761574	92295168	62009344	26292032	24992
134	0.755332	92295168	62009344	27639424	24992
135	1.019549	92295168	62009344	12544168	24992
136	0.837357	92295168	62009344	13891552	24992
137	0.765793	92295168	62009344	15238928	24992
138	0.755856	92295168	62009344	16586304	24992
139	0.810784	92295168	62009344	17933680	24992
140	0.753893	92295168	62009344	19281056	24992
141	0.757366	92295168	62009344	20628480	24992
142	0.771224	92295168	62009344	21977696	24992
143	0.753797	92295168	62009344	23325072	24992
144	1.047677	92295168	62009344	24672448	24992
145	0.755202	92295168	62009344	26019824	24992
146	0.757169	92295168	62009344	27367200	24992
147	1.001531	92295168	62009344	12273776	24992
148	0.762104	92295168	62009344	13621152	24992
149	0.767214	92295168	62009344	14968528	24992
150	0.757121	92295168	62009344	16315904	24992
151	0.755689	92295168	62009344	17663280	24992
152	0.760625	92295168	62009344	19010656	24992
153	0.755598	92295168	62009344	20358032	24992
154	0.765415	92295168	62009344	21705472	24992
155	0.766698	92295168	62009344	23052864	24992
156	0.766248	92295168	62009344	24400240	24992
157	0.763545	92295168	62009344	25751552	24992
158	0.760215	92295168	62009344	27098592	24992
159	0.783104	92295168	62009344	28445632	24992
160	0.787689	92295168	62009344	13350072	24992
161	0.78413	92295168	62009344	14697112	24992
162	0.771834	92295168	62009344	16044152	24992
163	0.776667	92295168	62009344	17391192	24992
164	0.776625	92295168	62009344	18738232	24992
165	0.773112	92295168	62009344	20085272	24992
166	0.962513	92295168	62009344	21432312	24992
167	0.796118	92295168	62009344	22779352	24992
168	0.755804	92295168	62009344	24126392	24992
169	0.752267	92295168	62009344	25473432	24992
170	0.751915	92295168	62009344	26820472	24992
171	0.771141	92295168	62009344	28167512	24992
172	0.789676	92295168	62009344	13070096	24992
173	0.774037	92295168	62009344	14417152	24992
174	0.809321	92295168	62009344	15764192	24992
175	0.753817	92295168	62009344	17113928	24992
176	0.777988	92295168	62009344	18460968	24992
177	0.753724	92295168	62009344	19808008	24992
178	0.751503	92295168	62009344	21155080	24992
179	0.752522	92295168	62009344	22502120	24992
180	0.755455	92295168	62009344	23849160	24992
181	0.97212	92295168	62009344	25196200	24992
182	0.755753	92295168	62009344	26543240	24992
183	0.751336	92295168	62009344	27890280	24992
184	1.022359	92295168	62009344	12794696	24992
185	0.776073	92295168	62009344	14141736	24992
186	0.778208	92295168	62009344	15488776	24992
187	0.750948	92295168	62009344	16835816	24992
188	0.930368	92295168	62009344	18182856	24992
189	0.753479	92295168	62009344	19529896	24992
190	0.752006	92295168	62009344	20876936	24992
191	0.75186	92295168	62009344	22224024	24992
192	0.74923	92295168	62009344	23571064	24992
193	0.755152	92295168	62009344	24918104	24992
194	0.758974	92295168	62009344	26265968	24992
195	0.758498	92295168	62009344	27613008	24992
196	1.030962	92295168	62009344	12517432	24992
197	0.772375	92295168	62009344	13864480	24992
198	0.784204	92295168	62009344	15211552	24992
199	0.773627	92295168	62009344	16558592	24992
200	0.768366	92295168	62009344	17905632	24992
201	0.768923	92295168	62009344	19252672	24992
202	0.773284	92295168	62009344	20599712	24992
203	0.769146	92295168	62009344	21946752	24992
204	0.755001	92295168	62009344	23293792	24992
205	0.753379	92295168	62009344	24640832	24992
206	0.948799	92295168	62009344	25987872	24992
207	0.752216	92295168	62009344	27334912	24992
208	0.752414	92295168	62009344	28681952	24992
209	0.767357	92295168	62009344	13584544	24992
210	0.756589	92295168	62009344	14931584	24992
211	0.785466	92295168	62009344	16278704	24992
212	0.750919	92295168	62009344	17625744	24992
213	0.758972	92295168	62009344	18972784	24992
214	0.751358	92295168	62009344	20319824	24992
215	0.754949	92295168	62009344	21666872	24992
216	0.772564	92295168	62009344	23013920	24992
217	0.749327	92295168	62009344	24360960	24992
218	0.749446	92295168	62009344	25708000	24992
219	0.756092	92295168	62009344	27055040	24992
220	0.752894	92295168	62009344	28402080	24992
221	0.768989	92295168	62009344	13304664	24992
222	0.76275	92295168	62009344	14651736	24992
223	0.955392	92295168	62009344	15998776	24992
224	0.753627	92295168	62009344	17345816	24992
225	0.750219	92295168	62009344	18692856	24992
226	0.949816	92295168	62009344	20039896	24992
227	0.753166	92295168	62009344	21386936	24992
228	0.747781	92295168	62009344	22733976	24992
229	0.783802	92295168	62009344	24083912	24992
230	0.748524	92295168	62009344	25430952	24992
231	0.761661	92295168	62009344	26777992	24992
232	0.750684	92295168	62009344	28125032	24992
233	1.024378	92295168	62009344	13032328	24992
234	0.75578	92295168	62009344	14379368	24992
235	0.758043	92295168	62009344	15726504	24992
236	0.76076	92295168	62009344	17073544	24992
237	0.751645	92295168	62009344	18420584	24992
238	0.748314	92295168	62009344	19767624	24992
239	0.758464	92295168	62009344	21114664	24992
240	0.748317	92295168	62009344	22461704	24992
241	0.935533	92295168	62009344	23808744	24992
242	0.752503	92295168	62009344	25155848	24992
243	0.75096	92295168	62009344	26502888	24992
244	0.754074	92295168	62009344	27849928	24992
245	1.017385	92295168	62009344	12757216	24992
246	0.76499	92295168	62009344	14104264	24992
247	0.75885	92295168	62009344	15451304	24992
248	0.750393	92295168	62009344	16798392	24992
249	0.755568	92295168	62009344	18145432	24992
250	0.751427	92295168	62009344	19492472	24992
251	0.759691	92295168	62009344	20839512	24992
252	0.751823	92295168	62009344	22186552	24992
253	0.751517	92295168	62009344	23533608	24992
254	0.748171	92295168	62009344	24880648	24992
255	0.758218	92295168	62009344	26227688	24992
256	0.75018	92295168	62009344	27574728	24992
257	0.748591	92295168	62009344	28921768	24992
258	0.783332	92295168	62009344	13824360	24992
259	0.776556	92295168	62009344	15171400	24992
260	0.770447	92295168	62009344	16518440	24992
261	0.795252	92295168	62009344	17865528	24992
262	0.757871	92295168	62009344	19212568	24992
263	0.749526	92295168	62009344	20559608	24992
264	0.948579	92295168	62009344	21906648	24992
265	0.751197	92295168	62009344	23253688	24992
266	0.751402	92295168	62009344	24600824	24992
267	0.750879	92295168	62009344	25947864	24992
268	0.756067	92295168	62009344	27294904	24992
269	0.757616	92295168	62009344	28641944	24992
270	0.780926	92295168	62009344	13544528	24992
271	0.769962	92295168	62009344	14891568	24992
272	0.762059	92295168	62009344	16238640	24992
273	0.750994	92295168	62009344	17585680	24992
274	0.760316	92295168	62009344	18932720	24992
275	0.752048	92295168	62009344	20279760	24992
276	0.764518	92295168	62009344	21626800	24992
277	0.752292	92295168	62009344	22973840	24992
278	0.75304	92295168	62009344	24320880	24992
279	0.952526	92295168	62009344	25667952	24992
280	0.774282	92295168	62009344	27014992	24992
281	0.758828	92295168	62009344	28363992	24992
282	1.029235	92295168	62009344	13268408	24992
283	0.773483	92295168	62009344	14615448	24992
284	0.771413	92295168	62009344	15962488	24992
285	0.765929	92295168	62009344	17309528	24992
286	0.769724	92295168	62009344	18656632	24992
287	0.758774	92295168	62009344	20003672	24992
288	0.753148	92295168	62009344	21350712	24992
289	0.760469	92295168	62009344	22697752	24992
290	0.754657	92295168	62009344	24044792	24992
291	0.749416	92295168	62009344	25391832	24992
292	0.749673	92295168	62009344	26738872	24992
293	0.750533	92295168	62009344	28085912	24992
294	1.102482	92295168	62009344	12990320	24992
295	0.756818	92295168	62009344	14337368	24992
296	0.750974	92295168	62009344	15684408	24992
297	0.752408	92295168	62009344	17031448	24992
298	0.751814	92295168	62009344	18378488	24992
299	0.804035	92295168	62009344	19725528	24992
300	0.748716	92295168	62009344	21072568	24992
301	0.747123	92295168	62009344	22419608	24992
302	0.766405	92295168	62009344	23766648	24992
303	0.752446	92295168	62009344	25113712	24992
304	0.806267	92295168	62009344	26460760	24992
305	0.753206	92295168	62009344	27807800	24992
306	0.748368	92295168	62009344	29154840	24992
307	0.922703	92295168	62009344	14057432	24992
308	0.757831	92295168	62009344	15406576	24992
309	0.772995	92295168	62009344	16753616	24992
310	0.751533	92295168	62009344	18100688	24992
311	0.759036	92295168	62009344	19447728	24992
312	0.747769	92295168	62009344	20794768	24992
313	0.746278	92295168	62009344	22141808	24992
314	0.779956	92295168	62009344	23488848	24992
315	0.75192	92295168	62009344	24835888	24992
316	0.924209	92295168	62009344	26183944	24992
317	0.75314	92295168	62009344	27531032	24992
318	0.750601	92295168	62009344	28878072	24992
319	0.76666	92295168	62009344	13780656	24992
320	0.751989	92295168	62009344	15127696	24992
321	0.759556	92295168	62009344	16474736	24992
322	0.755493	92295168	62009344	17821776	24992
323	0.749621	92295168	62009344	19168864	24992
324	0.770269	92295168	62009344	20515904	24992
325	0.755445	92295168	62009344	21862944	24992
326	0.791162	92295168	62009344	23209984	24992
327	0.750208	92295168	62009344	24557024	24992
328	0.748201	92295168	62009344	25904064	24992
329	0.74753	92295168	62009344	27251104	24992
330	0.748842	92295168	62009344	28598144	24992
331	1.064537	92295168	62009344	13502560	24992
332	0.774157	92295168	62009344	14849600	24992
333	0.768062	92295168	62009344	16196640	24992
334	0.768483	92295168	62009344	17543680	24992
335	0.77052	92295168	62009344	18890720	24992
336	0.785506	92295168	62009344	20237776	24992
337	0.766667	92295168	62009344	21584816	24992
338	0.754726	92295168	62009344	22931856	24992
339	0.936464	92295168	62009344	24278896	24992
340	0.759535	92295168	62009344	25625936	24992
341	0.763845	92295168	62009344	26973184	24992
342	0.747375	92295168	62009344	28320224	24992
343	1.027408	92295168	62009344	13224632	24992
344	0.768802	92295168	62009344	14571680	24992
345	0.770157	92295168	62009344	15918720	24992
346	0.939877	92295168	62009344	17265760	24992
347	0.753349	92295168	62009344	18612800	24992
348	0.764193	92295168	62009344	19959840	24992
349	0.752161	92295168	62009344	21306880	24992
350	0.749452	92295168	62009344	22653920	24992
351	0.746082	92295168	62009344	24000960	24992
352	0.745023	92295168	62009344	25348000	24992
353	0.756105	92295168	62009344	26695040	24992
354	0.950517	92295168	62009344	28042080	24992
355	0.806555	92295168	62009344	29389120	24992
356	0.790548	92295168	62009344	14291712	24992
357	0.767221	92295168	62009344	15638752	24992
358	0.76619	92295168	62009344	16985792	24992
359	0.769363	92295168	62009344	18332832	24992
360	0.769164	92295168	62009344	19684520	24992
361	0.781225	92295168	62009344	21031568	24992
362	0.753397	92295168	62009344	22378608	24992
363	0.749201	92295168	62009344	23725648	24992
364	0.75921	92295168	62009344	25072688	24992
365	0.746256	92295168	62009344	26419728	24992
366	0.749978	92295168	62009344	27766768	24992
367	0.753555	92295168	62009344	29113984	24992
368	0.780078	92295168	62009344	14021016	24992
369	0.965334	92295168	62009344	15368056	24992
370	0.752937	92295168	62009344	16715096	24992
371	0.74906	92295168	62009344	18062136	24992
372	0.748765	92295168	62009344	19409176	24992
373	0.749069	92295168	62009344	20756216	24992
374	0.762394	92295168	62009344	22103336	24992
375	0.749114	92295168	62009344	23450376	24992
376	0.749348	92295168	62009344	24797416	24992
377	0.753848	92295168	62009344	26144456	24992
378	0.751905	92295168	62009344	27491496	24992
379	0.758597	92295168	62009344	28838536	24992
380	1.229271	92295168	62009344	13747400	24992
381	0.829987	92295168	62009344	15094440	24992
382	0.753064	92295168	62009344	16441480	24992
383	0.747427	92295168	62009344	17788520	24992
384	0.954827	92295168	62009344	19135560	24992
385	0.751556	92295168	62009344	20482600	24992
386	0.795752	92295168	62009344	21829640	24992
387	0.748294	92295168	62009344	23176680	24992
388	0.749788	92295168	62009344	24523720	24992
389	0.756382	92295168	62009344	25870760	24992
390	0.747746	92295168	62009344	27217800	24992
391	0.748274	92295168	62009344	28565008	24992
392	1.042767	92295168	62009344	13469424	24992
393	0.768817	92295168	62009344	14816488	24992
394	0.765281	92295168	62009344	16163528	24992
395	0.791163	92295168	62009344	17510568	24992
396	0.752473	92295168	62009344	18857608	24992
397	0.751631	92295168	62009344	20204648	24992
398	0.755742	92295168	62009344	21551720	24992
399	0.764283	92295168	62009344	22898760	24992
400	0.748642	92295168	62009344	24245800	24992
401	0.7475	92295168	62009344	25592840	24992
402	0.750369	92295168	62009344	26939880	24992
403	0.745874	92295168	62009344	28286920	24992
404	0.758986	92295168	62009344	29633960	24992
405	0.781085	92295168	62009344	14535384	24992
406	0.769748	92295168	62009344	15882424	24992
407	0.759262	92295168	62009344	17229464	24992
408	0.748955	92295168	62009344	18576504	24992
409	0.76144	92295168	62009344	19923544	24992
410	0.747321	92295168	62009344	21270584	24992
411	0.748035	92295168	62009344	22617624	24992
412	0.747634	92295168	62009344	23964664	24992
413	0.757243	92295168	62009344	25311704	24992
414	0.910585	92295168	62009344	26658744	24992
415	0.748726	92295168	62009344	28005784	24992
416	0.748584	92295168	62009344	29352824	24992
417	0.777789	92295168	62009344	14255424	24992
418	0.782824	92295168	62009344	15602464	24992
419	0.761782	92295168	62009344	16949504	24992
420	0.74816	92295168	62009344	18296544	24992
421	0.750916	92295168	62009344	19643584	24992
422	0.780828	92295168	62009344	20990624	24992
423	0.746506	92295168	62009344	22337664	24992
424	0.7558	92295168	62009344	23684784	24992
425	0.74721	92295168	62009344	25031824	24992
426	0.750034	92295168	62009344	26378864	24992
427	0.761704	92295168	62009344	27725904	24992
428	0.749501	92295168	62009344	29072944	24992
429	1.240728	92295168	62009344	13972704	24992
430	0.757699	92295168	62009344	15319744	24992
431	0.751546	92295168	62009344	16666832	24992
432	0.748672	92295168	62009344	18013872	24992
433	0.752924	92295168	62009344	19360912	24992
434	0.751908	92295168	62009344	20707952	24992
435	0.752245	92295168	62009344	22054992	24992
436	0.747033	92295168	62009344	23402032	24992
437	0.808518	92295168	62009344	24749072	24992
438	0.749557	92295168	62009344	26096112	24992
439	0.746356	92295168	62009344	27443152	24992
440	0.745926	92295168	62009344	28790192	24992
441	1.044763	92295168	62009344	13694600	24992
442	0.77793	92295168	62009344	15041640	24992
443	0.767593	92295168	62009344	16388680	24992
444	0.767029	92295168	62009344	17735720	24992
445	0.760853	92295168	62009344	19082760	24992
446	0.750462	92295168	62009344	20429800	24992
447	0.759672	92295168	62009344	21776840	24992
448	0.751264	92295168	62009344	23123880	24992
449	0.759106	92295168	62009344	24470968	24992
450	0.750869	92295168	62009344	25818008	24992
451	0.749184	92295168	62009344	27165048	24992
452	0.930671	92295168	62009344	28512088	24992
453	1.025101	92295168	62009344	13416152	24992
454	0.76837	92295168	62009344	14763200	24992
455	0.767494	92295168	62009344	16110256	24992
456	0.767462	92295168	62009344	17457296	24992
457	0.789752	92295168	62009344	18804336	24992
458	0.76716	92295168	62009344	20151376	24992
459	0.756777	92295168	62009344	21498416	24992
460	0.752465	92295168	62009344	22845456	24992
461	0.753487	92295168	62009344	24192496	24992
462	0.756336	92295168	62009344	25539536	24992
463	0.748877	92295168	62009344	26886576	24992
464	0.747935	92295168	62009344	28233616	24992
465	0.756518	92295168	62009344	29580656	24992
466	0.780624	92295168	62009344	14483232	24992
467	0.815757	92295168	62009344	15830272	24992
468	0.753223	92295168	62009344	17177312	24992
469	0.748407	92295168	62009344	18524352	24992
470	0.751137	92295168	62009344	19871392	24992
471	0.799334	92295168	62009344	21218432	24992
472	0.767453	92295168	62009344	22565472	24992
473	0.749226	92295168	62009344	23912544	24992
474	0.749938	92295168	62009344	25259584	24992
475	0.774533	92295168	62009344	26606624	24992
476	0.748253	92295168	62009344	27953664	24992
477	0.756712	92295168	62009344	29300704	24992
478	0.786237	92295168	62009344	14203288	24992
479	0.769326	92295168	62009344	15550328	24992
480	0.766843	92295168	62009344	16897368	24992
481	0.810691	92295168	62009344	18244408	24992
482	0.956178	92295168	62009344	19591448	24992
483	0.749433	92295168	62009344	20938488	24992
484	0.74861	92295168	62009344	22285528	24992
485	0.749918	92295168	62009344	23632568	24992
486	0.756961	92295168	62009344	24979608	24992
487	0.780082	92295168	62009344	26326648	24992
488	0.750486	92295168	62009344	27673688	24992
489	0.748187	92295168	62009344	29020728	24992
490	1.071443	92295168	62009344	13925136	24992
491	0.767689	92295168	62009344	15272184	24992
492	0.835731	92295168	62009344	16620896	24992
493	0.755202	92295168	62009344	17967936	24992
494	0.747816	92295168	62009344	19314976	24992
495	0.752364	92295168	62009344	20662016	24992
496	0.748935	92295168	62009344	22009056	24992
497	0.945483	92295168	62009344	23356096	24992
498	0.74678	92295168	62009344	24703136	24992
499	0.748076	92295168	62009344	26050256	24992
500	0.755729	92295168	62009344	27397296	24992
501	0.749748	92295168	62009344	28744336	24992
502	1.035995	92295168	62009344	13648744	24992
503	0.768776	92295168	62009344	14995792	24992
504	0.769814	92295168	62009344	16342832	24992
505	0.757877	92295168	62009344	17689872	24992
506	0.746629	92295168	62009344	19036960	24992
507	0.758636	92295168	62009344	20384000	24992
508	0.748103	92295168	62009344	21731040	24992
509	0.745475	92295168	62009344	23078080	24992
510	0.747589	92295168	62009344	24425120	24992
511	0.748883	92295168	62009344	25772160	24992
512	0.952363	92295168	62009344	27119200	24992
513	0.749302	92295168	62009344	28466240	24992
514	0.745149	92295168	62009344	29813280	24992
515	0.781763	92295168	62009344	14715856	24992
516	0.76494	92295168	62009344	16062896	24992
517	0.781117	92295168	62009344	17409936	24992
518	0.771853	92295168	62009344	18756976	24992
519	0.765595	92295168	62009344	20104016	24992
520	0.772276	92295168	62009344	21451056	24992
521	0.75071	92295168	62009344	22798096	24992
522	0.775362	92295168	62009344	24145136	24992
523	0.751602	92295168	62009344	25492176	24992
524	0.746207	92295168	62009344	26839280	24992
525	0.747456	92295168	62009344	28186320	24992
526	0.752138	92295168	62009344	29533360	24992
527	0.975128	92295168	62009344	14435944	24992
528	0.752718	92295168	62009344	15782984	24992
529	0.748551	92295168	62009344	17130024	24992
530	0.752179	92295168	62009344	18477464	24992
531	0.752986	92295168	62009344	19824504	24992
532	0.75943	92295168	62009344	21171544	24992
533	0.747446	92295168	62009344	22518584	24992
534	0.745085	92295168	62009344	23865624	24992
535	0.771525	92295168	62009344	25212664	24992
536	0.751472	92295168	62009344	26559704	24992
537	0.788299	92295168	62009344	27906808	24992
538	0.746264	92295168	62009344	29253848	24992
539	1.042264	92295168	62009344	14158256	24992
540	0.767974	92295168	62009344	15505304	24992
541	0.772634	92295168	62009344	16852344	24992
542	0.817901	92295168	62009344	18199384	24992
543	0.753173	92295168	62009344	19546616	24992
544	0.752116	92295168	62009344	20893656	24992
545	0.759648	92295168	62009344	22240696	24992
546	0.747386	92295168	62009344	23587736	24992
547	0.756223	92295168	62009344	24934776	24992
548	0.745836	92295168	62009344	26281816	24992
549	0.750991	92295168	62009344	27628856	24992
550	0.773332	92295168	62009344	28975896	24992
551	1.032733	92295168	62009344	13880304	24992
552	0.767244	92295168	62009344	15227352	24992
553	0.752526	92295168	62009344	16574392	24992
554	0.748147	92295168	62009344	17921432	24992
555	0.750029	92295168	62009344	19268472	24992
556	0.743004	92295168	62009344	20622376	24992
557	0.745534	92295168	62009344	21969416	24992
558	0.762079	92295168	62009344	23316456	24992
559	0.747842	92295168	62009344	24663496	24992
560	0.756084	92295168	62009344	26010536	24992
561	0.748033	92295168	62009344	27357576	24992
562	0.749182	92295168	62009344	28704616	24992
563	0.748237	92295168	62009344	30051656	24992
564	0.779145	92295168	62009344	14961032	24992
565	0.955077	92295168	62009344	16308072	24992
566	0.758754	92295168	62009344	17655112	24992
567	0.752091	92295168	62009344	19002152	24992
568	0.747938	92295168	62009344	20349192	24992
569	0.745873	92295168	62009344	21696312	24992
570	0.757605	92295168	62009344	23043352	24992
571	0.749158	92295168	62009344	24390392	24992
572	0.748297	92295168	62009344	25737432	24992
573	0.75381	92295168	62009344	27084472	24992
574	0.755944	92295168	62009344	28431560	24992
575	0.756317	92295168	62009344	29778600	24992
576	0.778211	92295168	62009344	14687984	24992
577	0.76575	92295168	62009344	16035024	24992
578	0.769082	92295168	62009344	17382064	24992
579	0.766526	92295168	62009344	18729104	24992
580	0.958058	92295168	62009344	20076144	24992
581	0.751282	92295168	62009344	21423184	24992
582	0.748156	92295168	62009344	22770224	24992
583	0.748951	92295168	62009344	24117264	24992
584	0.746311	92295168	62009344	25464304	24992
585	0.755636	92295168	62009344	26811344	24992
586	0.747693	92295168	62009344	28158384	24992
587	0.753635	92295168	62009344	29505440	24992
588	1.070009	92295168	62009344	14409848	24992
589	0.776962	92295168	62009344	15756896	24992
590	0.776683	92295168	62009344	17103936	24992
591	0.764193	92295168	62009344	18450976	24992
592	0.763077	92295168	62009344	19798016	24992
593	0.768822	92295168	62009344	21145056	24992
594	0.7663	92295168	62009344	22492128	24992
595	0.960093	92295168	62009344	23839168	24992
596	0.753373	92295168	62009344	25186208	24992
597	0.750986	92295168	62009344	26533248	24992
598	0.749644	92295168	62009344	27880288	24992
599	0.749222	92295168	62009344	29227328	24992
600	1.040674	92295168	62009344	14131736	24992
601	0.771606	92295168	62009344	15478784	24992
602	0.764473	92295168	62009344	16825824	24992
603	0.758168	92295168	62009344	18172864	24992
604	0.750144	92295168	62009344	19519904	24992
605	0.756736	92295168	62009344	20866944	24992
606	0.746558	92295168	62009344	22213984	24992
607	0.754429	92295168	62009344	23561024	24992
608	0.748469	92295168	62009344	24908064	24992
609	0.748216	92295168	62009344	26255104	24992
610	0.76494	92295168	62009344	27602144	24992
611	0.752209	92295168	62009344	28949216	24992
612	0.747606	92295168	62009344	30296256	24992
613	0.781278	92295168	62009344	15199120	24992
614	0.7751	92295168	62009344	16546160	24992
615	0.776458	92295168	62009344	17893200	24992
616	0.755811	92295168	62009344	19240240	24992
617	0.750096	92295168	62009344	20587280	24992
618	0.773194	92295168	62009344	21934352	24992
619	0.747751	92295168	62009344	23281392	24992
620	0.762613	92295168	62009344	24628432	24992
621	0.749249	92295168	62009344	25975472	24992
622	0.746472	92295168	62009344	27322512	24992
623	0.753263	92295168	62009344	28669552	24992
624	0.755768	92295168	62009344	30016592	24992
625	0.948074	92295168	62009344	14919288	24992
626	0.754815	92295168	62009344	16266328	24992
627	0.751799	92295168	62009344	17613368	24992
628	0.750425	92295168	62009344	18960408	24992
629	0.746193	92295168	62009344	20307448	24992
630	0.748899	92295168	62009344	21654488	24992
631	0.758166	92295168	62009344	23001656	24992
632	0.750269	92295168	62009344	24348696	24992
633	0.763609	92295168	62009344	25695736	24992
634	0.745166	92295168	62009344	27042776	24992
635	0.751051	92295168	62009344	28389816	24992
636	0.748632	92295168	62009344	29736856	24992
637	1.048433	92295168	62009344	14641352	24992
638	0.776867	92295168	62009344	15988392	24992
639	0.748893	92295168	62009344	17335432	24992
640	0.748752	92295168	62009344	18682472	24992
641	0.751159	92295168	62009344	20029512	24992
642	0.751884	92295168	62009344	21376552	24992
643	0.757123	92295168	62009344	22723592	24992
644	0.751294	92295168	62009344	24070664	24992
645	0.746081	92295168	62009344	25417704	24992
646	0.750382	92295168	62009344	26764744	24992
647	0.745675	92295168	62009344	28111784	24992
648	0.751059	92295168	62009344	29458824	24992
649	1.042613	92295168	62009344	14363264	24992
650	0.753109	92295168	62009344	15710312	24992
651	0.753834	92295168	62009344	17057368	24992
652	0.747072	92295168	62009344	18404408	24992
653	0.754942	92295168	62009344	19751448	24992
654	0.747284	92295168	62009344	21098488	24992
655	0.753108	92295168	62009344	22445528	24992
656	0.94678	92295168	62009344	23792568	24992
657	0.748412	92295168	62009344	25139608	24992
658	0.745098	92295168	62009344	26486648	24992
659	0.750343	92295168	62009344	27833688	24992
660	0.749441	92295168	62009344	29180728	24992
661	0.755406	92295168	62009344	30527768	24992
662	0.778358	92295168	62009344	15430360	24992
663	0.768279	92295168	62009344	16777400	24992
664	0.7609	92295168	62009344	18124440	24992
665	0.750407	92295168	62009344	19471480	24992
666	0.756525	92295168	62009344	20818520	24992
667	0.750335	92295168	62009344	22165560	24992
668	0.74905	92295168	62009344	23512600	24992
669	0.747889	92295168	62009344	24859704	24992
670	0.784395	92295168	62009344	26206744	24992
671	0.81329	92295168	62009344	27553784	24992
672	0.750948	92295168	62009344	28900824	24992
673	0.747021	92295168	62009344	30247864	24992
674	0.781129	92295168	62009344	15150448	24992
675	0.77339	92295168	62009344	16497616	24992
676	0.777562	92295168	62009344	17844656	24992
677	0.763957	92295168	62009344	19191696	24992
678	0.764238	92295168	62009344	20538736	24992
679	0.766599	92295168	62009344	21885776	24992
680	0.75157	92295168	62009344	23232816	24992
681	0.758645	92295168	62009344	24579856	24992
682	0.748937	92295168	62009344	25926896	24992
683	0.749758	92295168	62009344	27273936	24992
684	0.747435	92295168	62009344	28620976	24992
685	0.745875	92295168	62009344	29968016	24992
686	1.229904	92295168	62009344	14872432	24992
687	0.753415	92295168	62009344	16219472	24992
688	0.750484	92295168	62009344	17566640	24992
689	0.752264	92295168	62009344	18913680	24992
690	0.751197	92295168	62009344	20260720	24992
691	0.757434	92295168	62009344	21607760	24992
692	0.747533	92295168	62009344	22954800	24992
693	0.752403	92295168	62009344	24301840	24992
694	0.927936	92295168	62009344	25648880	24992
695	0.751313	92295168	62009344	26995920	24992
696	0.755955	92295168	62009344	28342960	24992
697	0.753883	92295168	62009344	29690000	24992
698	1.03489	92295168	62009344	14594408	24992
699	0.773594	92295168	62009344	15941456	24992
700	0.762599	92295168	62009344	17288496	24992
701	0.940338	92295168	62009344	18635552	24992
702	0.75484	92295168	62009344	19982592	24992
703	0.866794	92295168	62009344	21330296	24992
704	0.750948	92295168	62009344	22677336	24992
705	0.749926	92295168	62009344	24024376	24992
706	0.758833	92295168	62009344	25371432	24992
707	0.751013	92295168	62009344	26718472	24992
708	0.749435	92295168	62009344	28065512	24992
709	0.781067	92295168	62009344	29412552	24992
710	0.747208	92295168	62009344	30759592	24992
711	0.794781	92295168	62009344	15662184	24992
712	0.768706	92295168	62009344	17009224	24992
713	0.765518	92295168	62009344	18356264	24992
714	0.766916	92295168	62009344	19703304	24992
715	0.768728	92295168	62009344	21050344	24992
716	0.781332	92295168	62009344	22397384	24992
717	0.763465	92295168	62009344	23744424	24992
718	0.766526	92295168	62009344	25091464	24992
719	0.765875	92295168	62009344	26438712	24992
720	0.76941	92295168	62009344	27785752	24992
721	0.775428	92295168	62009344	29132792	24992
722	0.765131	92295168	62009344	30479832	24992
723	0.776889	92295168	62009344	15382416	24992
724	0.781676	92295168	62009344	16729456	24992
725	0.748489	92295168	62009344	18076496	24992
726	0.761768	92295168	62009344	19423552	24992
727	0.748571	92295168	62009344	20770592	24992
728	0.746626	92295168	62009344	22117632	24992
729	0.75383	92295168	62009344	23464672	24992
730	0.748705	92295168	62009344	24811712	24992
731	0.748678	92295168	62009344	26158752	24992
732	0.749443	92295168	62009344	27505792	24992
733	0.820208	92295168	62009344	28852832	24992
734	0.752287	92295168	62009344	30199872	24992
735	1.049351	92295168	62009344	15104288	24992
736	0.785089	92295168	62009344	16451328	24992
737	0.766947	92295168	62009344	17798368	24992
738	0.763775	92295168	62009344	19145408	24992
739	0.778186	92295168	62009344	20492464	24992
740	0.748645	92295168	62009344	21839504	24992
741	0.761325	92295168	62009344	23186544	24992
742	0.749384	92295168	62009344	24533584	24992
743	0.746227	92295168	62009344	25880672	24992
744	0.75149	92295168	62009344	27227712	24992
745	0.745051	92295168	62009344	28574752	24992
746	0.74539	92295168	62009344	29921792	24992
747	1.056449	92295168	62009344	14826200	24992
748	0.770223	92295168	62009344	16173248	24992
749	0.769078	92295168	62009344	17520288	24992
750	0.771557	92295168	62009344	18867376	24992
751	0.776412	92295168	62009344	20214416	24992
752	0.763458	92295168	62009344	21561456	24992
753	0.766053	92295168	62009344	22908496	24992
754	0.940068	92295168	62009344	24255536	24992
755	0.752033	92295168	62009344	25602576	24992
756	0.777008	92295168	62009344	26949616	24992
757	0.750103	92295168	62009344	28296672	24992
758	0.744512	92295168	62009344	29643712	24992
759	0.801994	92295168	62009344	30990752	24992
760	0.780162	92295168	62009344	15893344	24992
761	0.944549	92295168	62009344	17240384	24992
762	0.752953	92295168	62009344	18587424	24992
763	0.802143	92295168	62009344	19934496	24992
764	0.753851	92295168	62009344	21281536	24992
765	0.754139	92295168	62009344	22628576	24992
766	0.77825	92295168	62009344	23975616	24992
767	0.746975	92295168	62009344	25322656	24992
768	0.744321	92295168	62009344	26669696	24992
769	0.935765	92295168	62009344	28016736	24992
770	0.751343	92295168	62009344	29363776	24992
771	0.773401	92295168	62009344	30710816	24992
772	0.778993	92295168	62009344	15613400	24992
773	1.487335	92295168	62009344	16960512	24992
774	0.755926	92295168	62009344	18307552	24992
775	0.748789	92295168	62009344	19654592	24992
776	0.816576	92295168	62009344	21010664	24992
777	0.751172	92295168	62009344	22357704	24992
778	0.769462	92295168	62009344	23704744	24992
779	0.748512	92295168	62009344	25051784	24992
780	0.746793	92295168	62009344	26398824	24992
781	0.749016	92295168	62009344	27746056	24992
782	0.748244	92295168	62009344	29093096	24992
783	0.913509	92295168	62009344	30440136	24992
784	1.067371	92295168	62009344	15361496	24992
785	0.769509	92295168	62009344	16708536	24992
786	0.76904	92295168	62009344	18055576	24992
787	0.769154	92295168	62009344	19402616	24992
788	0.772523	92295168	62009344	20749656	24992
789	0.764714	92295168	62009344	22096936	24992
790	0.769957	92295168	62009344	23443976	24992
791	0.757026	92295168	62009344	24791016	24992
792	0.746104	92295168	62009344	26138056	24992
793	0.757303	92295168	62009344	27485096	24992
794	0.74872	92295168	62009344	28832168	24992
795	0.795907	92295168	62009344	30179208	24992
796	1.092177	92295168	62009344	15125424	24992
797	0.765834	92295168	62009344	16472488	24992
798	0.945812	92295168	62009344	17819528	24992
799	0.758938	92295168	62009344	19166568	24992
800	0.748731	92295168	62009344	20513608	24992
801	0.805939	92295168	62009344	21860648	24992
802	0.751762	92295168	62009344	23207688	24992
803	0.788841	92295168	62009344	24554728	24992
804	0.748194	92295168	62009344	25901768	24992
805	0.74492	92295168	62009344	27248808	24992
806	0.775277	92295168	62009344	28595848	24992
807	0.755674	92295168	62009344	29942888	24992
808	0.778082	92295168	62009344	31289928	24992
809	0.778604	92295168	62009344	16242904	24992
810	0.766773	92295168	62009344	17589976	24992
811	0.751429	92295168	62009344	18937016	24992
812	0.756244	92295168	62009344	20284056	24992
813	0.9598	92295168	62009344	21631096	24992
814	0.748062	92295168	62009344	22978136	24992
815	0.747977	92295168	62009344	24325240	24992
816	0.753402	92295168	62009344	25672280	24992
817	0.748863	92295168	62009344	27019320	24992
818	0.779556	92295168	62009344	28366360	24992
819	0.74376	92295168	62009344	29713400	24992
820	0.750516	92295168	62009344	31060440	24992
821	0.766233	92295168	62009344	16013408	24992
822	0.760663	92295168	62009344	17360448	24992
823	0.813159	92295168	62009344	18707504	24992
824	0.803342	92295168	62009344	20054544	24992
825	0.747706	92295168	62009344	21401584	24992
826	0.762282	92295168	62009344	22748624	24992
827	0.74715	92295168	62009344	24095664	24992
828	0.782539	92295168	62009344	25442704	24992
829	0.747635	92295168	62009344	26789744	24992
830	0.747494	92295168	62009344	28136784	24992
831	0.798124	92295168	62009344	29483824	24992
832	0.748265	92295168	62009344	30830864	24992
833	0.818443	92295168	62009344	15782800	24992
834	0.747756	92295168	62009344	17129840	24992
835	0.748077	92295168	62009344	18476880	24992
836	0.784427	92295168	62009344	19823968	24992
837	0.750435	92295168	62009344	21171008	24992
838	1.014197	92295168	62009344	22518064	24992
839	0.777884	92295168	62009344	23867608	24992
840	0.745487	92295168	62009344	25214456	24992
841	0.771786	92295168	62009344	26561304	24992
842	0.745563	92295168	62009344	27908152	24992
843	0.787511	92295168	62009344	29255048	24992
844	0.745257	92295168	62009344	30601896	24992
845	1.153456	92295168	62009344	15557256	24992
846	0.755945	92295168	62009344	16904104	24992
847	0.746468	92295168	62009344	18250952	24992
848	0.948167	92295168	62009344	19597800	24992
849	0.745864	92295168	62009344	20944648	24992
850	0.942874	92295168	62009344	22301832	24992
851	0.751796	92295168	62009344	23648808	24992
852	0.745666	92295168	62009344	24995656	24992
853	0.752825	92295168	62009344	26342504	24992
854	0.751351	92295168	62009344	27689352	24992
855	0.74422	92295168	62009344	29036272	24992
856	0.744421	92295168	62009344	30383128	24992
857	1.186574	92295168	62009344	15348848	24992
858	0.782575	92295168	62009344	16695696	24992
859	0.747035	92295168	62009344	18042544	24992
860	0.758911	92295168	62009344	19389392	24992
861	0.768793	92295168	62009344	20736240	24992
862	0.765314	92295168	62009344	22083088	24992
863	0.770114	92295168	62009344	23430040	24992
864	0.764527	92295168	62009344	24776896	24992
865	0.764256	92295168	62009344	26123744	24992
866	0.755072	92295168	62009344	27470592	24992
867	0.75699	92295168	62009344	28817440	24992
868	0.755519	92295168	62009344	30164288	24992
869	0.744731	92295168	62009344	31511136	24992
870	0.788632	92295168	62009344	16474248	24992
871	0.762898	92295168	62009344	17821096	24992
872	0.764041	92295168	62009344	19167960	24992
873	0.765921	92295168	62009344	20514808	24992
874	0.762833	92295168	62009344	21861656	24992
875	0.775783	92295168	62009344	23208504	24992
876	0.764909	92295168	62009344	24555352	24992
877	0.762174	92295168	62009344	25902200	24992
878	0.769626	92295168	62009344	27249048	24992
879	0.766436	92295168	62009344	28595896	24992
880	0.980674	92295168	62009344	29942832	24992
881	0.75188	92295168	62009344	31289680	24992
882	0.82961	92295168	62009344	16242600	24992
883	0.754238	92295168	62009344	17589448	24992
884	0.807388	92295168	62009344	18952024	24992
885	0.750164	92295168	62009344	20298888	24992
886	0.745365	92295168	62009344	21645720	24992
887	0.961823	92295168	62009344	22992552	24992
888	0.746729	92295168	62009344	24339384	24992
889	0.746768	92295168	62009344	25686216	24992
890	0.748242	92295168	62009344	27033048	24992
891	0.743466	92295168	62009344	28379896	24992
892	0.754417	92295168	62009344	29726728	24992
893	0.74509	92295168	62009344	31073560	24992
894	1.226028	92295168	62009344	16028424	24992
895	0.757903	92295168	62009344	17375256	24992
896	0.755894	92295168	62009344	18722088	24992
897	0.755501	92295168	62009344	20068920	24992
898	0.747048	92295168	62009344	21415752	24992
899	0.743065	92295168	62009344	22762584	24992
900	0.751346	92295168	62009344	24109416	24992
901	0.741503	92295168	62009344	25456248	24992
902	0.766755	92295168	62009344	26803080	24992
903	0.745667	92295168	62009344	28149912	24992
904	0.748516	92295168	62009344	29496824	24992
905	0.752122	92295168	62009344	30843656	24992
906	1.22184	92295168	62009344	15797944	24992
907	0.775142	92295168	62009344	17144784	24992
908	0.764496	92295168	62009344	18491616	24992
909	0.764703	92295168	62009344	19838448	24992
910	0.778934	92295168	62009344	21185280	24992
911	0.748373	92295168	62009344	22532112	24992
912	0.755924	92295168	62009344	23878944	24992
913	0.747431	92295168	62009344	25225776	24992
914	0.744111	92295168	62009344	26572608	24992
915	0.751522	92295168	62009344	27919440	24992
916	0.746632	92295168	62009344	29266272	24992
917	0.746467	92295168	62009344	30613120	24992
918	0.75677	92295168	62009344	31959952	24992
919	0.821831	92295168	62009344	16911376	24992
920	0.751453	92295168	62009344	18258208	24992
921	0.746575	92295168	62009344	19605040	24992
922	0.752546	92295168	62009344	20951872	24992
923	0.744062	92295168	62009344	22298704	24992
924	0.747283	92295168	62009344	23645536	24992
925	0.932929	92295168	62009344	24992384	24992
926	0.750257	92295168	62009344	26339216	24992
927	0.753313	92295168	62009344	27686048	24992
928	0.750195	92295168	62009344	29032880	24992
929	0.748354	92295168	62009344	30379712	24992
930	0.747911	92295168	62009344	31726656	24992
931	0.776846	92295168	62009344	16678072	24992
932	0.971528	92295168	62009344	18024904	24992
933	0.749951	92295168	62009344	19371736	24992
934	0.74864	92295168	62009344	20718568	24992
935	0.747051	92295168	62009344	22065400	24992
936	0.746602	92295168	62009344	23412232	24992
937	0.759274	92295168	62009344	24759064	24992
938	0.7467	92295168	62009344	26105928	24992
939	0.753889	92295168	62009344	27452760	24992
940	0.748791	92295168	62009344	28799592	24992
941	0.748201	92295168	62009344	30146424	24992
942	0.74345	92295168	62009344	31493256	24992
943	0.786283	92295168	62009344	16441448	24992
944	0.76576	92295168	62009344	17788280	24992
945	0.764396	92295168	62009344	19135112	24992
946	0.76307	92295168	62009344	20481944	24992
947	0.941367	92295168	62009344	21828776	24992
948	0.754002	92295168	62009344	23175608	24992
949	0.748325	92295168	62009344	24522440	24992
950	0.748057	92295168	62009344	25869272	24992
951	0.749821	92295168	62009344	27216328	24992
952	0.751873	92295168	62009344	28563160	24992
953	0.747452	92295168	62009344	29909992	24992
954	0.74693	92295168	62009344	31256824	24992
955	1.500725	92295168	62009344	16211016	24992
956	0.765341	92295168	62009344	17557856	24992
957	0.7788	92295168	62009344	18904688	24992
958	0.767445	92295168	62009344	20251520	24992
959	0.771632	92295168	62009344	21598352	24992
960	0.766615	92295168	62009344	22945184	24992
961	0.77602	92295168	62009344	24292016	24992
962	0.962464	92295168	62009344	25638848	24992
963	0.757505	92295168	62009344	26985680	24992
964	0.749516	92295168	62009344	28332512	24992
965	0.75234	92295168	62009344	29679344	24992
966	0.793393	92295168	62009344	31026176	24992
967	1.319889	92295168	62009344	15980184	24992
968	0.773306	92295168	62009344	17327024	24992
969	0.764846	92295168	62009344	18673856	24992
970	0.759558	92295168	62009344	20020688	24992
971	0.748767	92295168	62009344	21367520	24992
972	0.752263	92295168	62009344	22714352	24992
973	0.744295	92295168	62009344	24061184	24992
974	0.751644	92295168	62009344	25408016	24992
975	0.746248	92295168	62009344	26754848	24992
976	0.777747	92295168	62009344	28101680	24992
977	1.051558	92295168	62009344	29448544	24992
978	0.746604	92295168	62009344	30795376	24992
979	0.751675	92295168	62009344	32142208	24992
980	0.765563	92295168	62009344	17093632	24992
981	0.777873	92295168	62009344	18440464	24992
982	0.749751	92295168	62009344	19787296	24992
983	0.748017	92295168	62009344	21134128	24992
984	0.763668	92295168	62009344	22480960	24992
985	0.747265	92295168	62009344	23827856	24992
986	0.743993	92295168	62009344	25174688	24992
987	0.74604	92295168	62009344	26521520	24992
988	0.742932	92295168	62009344	27868352	24992
989	0.745785	92295168	62009344	29215184	24992
990	0.745699	92295168	62009344	30562016	24992
991	0.745795	92295168	62009344	31908848	24992
992	0.784776	92295168	62009344	16860264	24992
993	0.756775	92295168	62009344	18207096	24992
994	0.757065	92295168	62009344	19553928	24992
995	0.744156	92295168	62009344	20900760	24992
996	0.7434	92295168	62009344	22247592	24992
997	0.755454	92295168	62009344	23594424	24992
998	0.746427	92295168	62009344	24941272	24992
999	0.744608	92295168	62009344	26288104	24992
1000	0.751064	92295168	62009344	27634936	24992
