x	Duration	RSS	HeapTotal	HeapUsed	External
0	NA	88530944	58339328	11730944	24992
1	0.497131	88530944	58339328	11779480	24992
2	0.426657	88530944	58339328	11851184	24992
3	0.490409	88530944	58339328	11948096	24992
4	0.592087	88530944	58339328	12071400	24992
5	0.706343	88530944	58339328	12222544	24992
6	0.87335	88530944	58339328	12402304	24992
7	0.954556	88530944	58339328	12611504	24992
8	1.098089	88530944	58339328	12851144	24992
9	1.368367	88530944	58339328	13123088	24992
10	0.579249	88530944	58339328	13427352	24992
11	0.872791	88530944	58339328	13764808	24992
12	0.147584	88530944	58339328	14127008	24992
13	0.226111	88530944	58339328	14232784	24992
14	0.289404	88530944	58339328	14375184	24992
15	0.375159	88530944	58339328	14558784	24992
16	0.454771	88530944	58339328	14777560	24992
17	0.51172	88530944	58339328	15035800	24992
18	0.544483	88530944	58339328	15334200	24992
19	0.608825	88530944	58339328	15674168	24992
20	0.684953	88530944	58339328	16056976	24992
21	0.85357	88530944	58339328	16483552	24992
22	0.177925	88530944	58339328	16957464	24992
23	0.339726	88530944	58339328	17091192	24992
24	0.355866	88530944	58339328	17270736	24992
25	0.429361	88530944	58339328	17499080	24992
26	0.6968	88530944	58339328	17775832	24992
27	0.73294	88530944	58339328	18102936	24992
28	0.887533	88530944	58339328	18482320	24992
29	0.755139	88530944	58339328	18910392	24992
30	0.810171	88530944	58339328	19391832	24992
31	0.904453	88530944	58339328	19926704	24992
32	0.207469	88530944	58339328	20530760	24992
33	0.349888	88530944	58339328	20696184	24992
34	0.392022	88530944	58339328	20917032	24992
35	0.482878	88530944	58339328	21194952	24992
36	0.572922	88530944	58339328	21531360	24992
37	0.665695	88530944	58339328	21926752	24992
38	0.804887	88530944	58339328	22381992	24992
39	1.053532	88530944	58339328	22897920	24992
40	0.97863	88530944	58339328	23476608	24992
41	1.084446	88530944	58339328	24120568	24992
42	0.410473	88530944	58339328	24852208	24992
43	0.365575	88530944	58339328	25044856	24992
44	0.450676	88530944	58339328	25302896	24992
45	0.555527	88530944	58339328	25627976	24992
46	0.66396	88530944	58339328	26020200	24992
47	0.776875	88530944	58339328	26480632	24992
48	0.903703	88530944	58339328	27010160	24992
49	0.997192	88530944	58339328	27609632	24992
50	1.111422	88530944	58339328	28281072	24992
51	2.051252	88530944	58339328	12732976	24992
52	0.263507	88530944	58339328	13594240	24992
53	0.395357	88530944	58339328	13821144	24992
54	0.515188	88530944	58339328	14124840	24992
55	0.632315	88530944	58339328	14506232	24992
56	0.782355	88530944	58339328	14966792	24992
57	0.888338	88530944	58339328	15506944	24992
58	1.012463	88530944	58339328	16127624	24992
59	1.142179	88530944	58339328	16829648	24992
60	1.299939	88530944	58339328	17615072	24992
61	1.402589	88530944	58339328	18483728	24992
62	0.352546	88530944	58339328	19488168	24992
63	0.444547	88530944	58339328	19743008	24992
64	0.573903	88530944	58339328	20083912	24992
65	0.708805	88530944	58339328	20511808	24992
66	0.848146	88530944	58339328	21028176	24992
67	1.306142	88530944	58339328	21633344	24992
68	1.165703	88530944	58339328	22330224	24992
69	1.287011	88530944	58339328	23115832	24992
70	1.429264	88530944	58339328	23994152	24992
71	1.568119	88530944	58339328	24964936	24992
72	0.329451	88530944	58339328	26089640	24992
73	0.48185	88530944	58339328	26372416	24992
74	0.635368	88530944	58339328	26750520	24992
75	0.788759	88530944	58339328	27224880	24992
76	1.335936	88530944	58339328	27796992	24992
77	1.326423	88530944	58339328	28467184	24992
78	2.235279	88530944	58339328	13037008	24992
79	1.443695	88530944	58339328	13906192	24992
80	1.580504	88530944	58339328	14877568	24992
81	1.806911	88530944	58339328	15952472	24992
82	0.354222	88530944	58339328	17202416	24992
83	0.534515	88530944	58339328	17513040	24992
84	0.697179	88530944	58339328	17929384	24992
85	1.076641	88530944	58339328	18450160	24992
86	1.047959	88530944	58339328	19077888	24992
87	1.212307	88530944	58339328	19813040	24992
88	1.395413	88530944	58339328	20656456	24992
89	1.559259	88530944	58339328	21609088	24992
90	1.742836	88530944	58339328	22672824	24992
91	1.917634	88530944	58339328	23847648	24992
92	0.575673	88530944	58339328	25218624	24992
93	0.580409	88530944	58339328	25557168	24992
94	0.763959	88530944	58339328	26009592	24992
95	0.944243	88530944	58339328	26576800	24992
96	1.14459	88530944	58339328	27263288	24992
97	1.334108	88530944	58339328	28063528	24992
98	2.248223	88530944	58339328	12769944	24992
99	1.85376	88530944	58339328	13806208	24992
100	2.051489	88530944	58339328	14962792	24992
101	2.319474	88530944	58339328	16239840	24992
102	0.416499	88530944	58339328	17736192	24992
103	0.624887	88530944	58339328	18102672	24992
104	0.820121	88530944	58339328	18596552	24992
105	1.028171	88530944	58339328	19218640	24992
106	1.306533	88530944	58339328	19970360	24992
107	1.434283	88530944	58339328	20852160	24992
108	1.634362	88530944	58339328	21865000	24992
109	2.052103	88530944	58339328	23009784	24992
110	2.056245	88530944	58339328	24288368	24992
111	2.471708	88530944	58339328	25700816	24992
112	0.445534	88530944	58339328	27361160	24992
113	0.671438	88530944	58339328	27768088	24992
114	0.88821	88530944	58339328	28311560	24992
115	1.291996	88530944	58339328	28992592	24992
116	1.93859	88530944	58339328	13467176	24992
117	1.923174	88530944	58339328	14428064	24992
118	1.768917	88530944	58339328	15527568	24992
119	1.992439	88530944	58339328	16768360	24992
120	2.200835	88530944	58339328	18152200	24992
121	2.63608	88530944	58339328	19679168	24992
122	0.545781	88530944	58339328	21471928	24992
123	0.721227	88530944	58339328	21906752	24992
124	0.950861	88530944	58339328	22487456	24992
125	1.182316	88530944	58339328	23214904	24992
126	1.484433	88530944	58339328	24090520	24992
127	1.662793	88530944	58339328	25115584	24992
128	2.310477	88530944	58339328	26291496	24992
129	2.25528	88530944	58339328	27621056	24992
130	2.509713	88530944	58339328	29097728	24992
131	3.326804	88530944	58339328	14368248	24992
132	0.54654	88530944	58339328	16282256	24992
133	0.800675	88530944	58339328	16745024	24992
134	1.059555	88530944	58339328	17362928	24992
135	1.334962	88530944	58339328	18136904	24992
136	1.584318	88530944	58339328	19070088	24992
137	1.849329	88530944	58339328	20159400	24992
138	2.064537	88530944	58339328	21407544	24992
139	2.262869	88530944	58339328	22815376	24992
140	2.704503	88530944	58339328	24384936	24992
141	2.790549	88530944	58339328	26116040	24992
142	0.570587	88530944	58339328	28152848	24992
143	0.859504	88530944	58339328	28643560	24992
144	1.664914	88530944	58339328	13018808	24992
145	1.398194	88530944	58339328	13839200	24992
146	1.610327	88530944	58339328	14826344	24992
147	2.080181	88530944	58339328	15981832	24992
148	2.157338	88530944	58339328	17304248	24992
149	2.669343	88530944	58339328	18796056	24992
150	3.014957	88530944	58339328	20458464	24992
151	2.962965	88530944	58339328	22291712	24992
152	0.569773	88530944	58339328	24447888	24992
153	0.873984	88530944	58339328	24966560	24992
154	1.133526	88530944	58339328	25658832	24992
155	1.414458	88530944	58339328	26525688	24992
156	1.912153	88530944	58339328	27568624	24992
157	1.983153	88530944	58339328	28790072	24992
158	2.849331	88530944	58339328	13889200	24992
159	2.705406	88530944	58339328	15464160	24992
160	2.840076	88530944	58339328	17219432	24992
161	3.331504	88530944	58339328	19154776	24992
162	0.609615	88530944	58339328	21432112	24992
163	0.906442	88530944	58339328	21978744	24992
164	1.249565	88530944	58339328	22708208	24992
165	1.492676	88530944	58339328	23621624	24992
166	2.100072	88530944	58339328	24720312	24992
167	2.101919	88530944	58339328	26005224	24992
168	2.399877	88530944	58339328	27476304	24992
169	2.705254	88530944	58339328	29135040	24992
170	3.427106	88530944	58339328	14651072	24992
171	3.691892	88530944	58339328	16688592	24992
172	0.632749	88530944	58339328	19095512	24992
173	1.025434	88530944	58339328	19670024	24992
174	1.260516	88530944	58339328	20436688	24992
175	1.572671	88530944	58339328	21396552	24992
176	2.131419	88530944	58339328	22551000	24992
177	2.201262	88530944	58339328	23900288	24992
178	2.577742	88530944	58339328	25445544	24992
179	2.892695	88530944	58339328	27188656	24992
180	3.652692	88530944	58339328	29129640	24992
181	10.730109	88530944	58339328	14945864	24992
182	0.675486	88530944	58339328	17473840	24992
183	0.996661	88530944	58339328	18076240	24992
184	1.322898	88530944	58339328	18880112	24992
185	1.670922	88530944	58339328	19891560	24992
186	1.984986	88530944	58339328	21101768	24992
187	2.500106	88530944	58339328	22519736	24992
188	2.829236	88530944	58339328	24139192	24992
189	2.973909	88530944	58339328	25968248	24992
190	3.310436	88530944	58339328	28001880	24992
191	4.579781	88530944	58339328	14079760	24992
192	0.716015	88530944	58339328	16740776	24992
193	1.042813	88530944	58339328	17370992	24992
194	1.372306	88530944	58339328	18211872	24992
195	1.737326	88530944	58339328	19264248	24992
196	2.059014	88530944	58339328	20531224	24992
197	2.414233	88530944	58339328	22010080	24992
198	2.756705	88530944	58339328	23703584	24992
199	3.116073	88530944	58339328	25612136	24992
200	3.65504	88530944	58339328	27737888	24992
201	4.375649	88530944	58339328	13982872	24992
202	0.723316	88530944	58339328	16760704	24992
203	1.277434	88530944	58339328	17418864	24992
204	1.443858	88530944	58339328	18296960	24992
205	1.809971	88530944	58339328	19397880	24992
206	2.149294	88530944	58339328	20726280	24992
207	2.521802	88530944	58339328	22270160	24992
208	2.899699	88530944	58339328	24040904	24992
209	3.256588	88530944	58339328	26041280	24992
210	3.617419	88530944	58339328	28276360	24992
211	4.525919	88530944	58339328	14574008	24992
212	0.765107	88530944	58339328	17515984	24992
213	1.325025	88530944	58339328	18226872	24992
214	1.499946	88530944	58339328	19175176	24992
215	1.892281	88530944	58339328	20361872	24992
216	2.265154	88530944	58339328	21791848	24992
217	2.821097	88530944	58339328	23458624	24992
218	3.255063	88530944	58339328	25366616	24992
219	3.453749	88530944	58339328	27519680	24992
220	3.841437	88530944	58339328	29913656	24992
221	4.556443	88801280	58339328	16152896	24992
222	0.779876	88801280	58339328	19279944	24992
223	1.359087	88801280	58339328	20018736	24992
224	1.678182	88801280	58339328	21004176	24992
225	2.082219	88801280	58339328	22237304	24992
226	2.34835	88801280	58339328	23719472	24992
227	2.810404	88801280	58339328	25459568	24992
228	3.335455	88801280	58339328	27441696	24992
229	3.538649	88801280	58339328	29678088	24992
230	4.327572	88801280	58339328	15816320	24992
231	4.341017	88801280	58339328	18559016	24992
232	0.810743	88801280	58339328	21812664	24992
233	1.230401	88801280	58339328	22579408	24992
234	2.033025	88801280	58339328	23602096	24992
235	2.037806	88801280	58339328	24881672	24992
236	2.777008	88801280	58339328	26420688	24992
237	2.917541	88801280	58339328	28226128	24992
238	3.773244	88801280	58339328	14152576	24992
239	4.022027	88801280	58339328	16469672	24992
240	4.251206	88801280	58339328	19050760	24992
241	4.505326	88801280	58339328	21892904	24992
242	0.838676	88801280	58339328	25265176	24992
243	1.284358	88801280	58339328	26059792	24992
244	1.678438	88801280	58339328	27119624	24992
245	2.111962	88801280	58339328	28445624	24992
246	2.544689	88801280	58339328	30039288	24992
247	3.501511	88801280	58339328	15501640	24992
248	3.563829	88801280	58339328	17632408	24992
249	3.804403	88801280	58339328	20034328	24992
250	4.437315	88801280	58339328	22717424	24992
251	4.695193	88801280	58339328	25661800	24992
252	0.871415	88801280	58339328	29152336	24992
253	1.315256	88801280	58339328	29974864	24992
254	2.128792	88801280	58339328	14717528	24992
255	2.187059	88801280	58339328	16090104	24992
256	2.622656	88801280	58339328	17739560	24992
257	3.576937	88801280	58339328	19690472	24992
258	3.515607	88801280	58339328	21895504	24992
259	3.942675	88801280	58339328	24379776	24992
260	4.578403	88801280	58339328	27144936	24992
261	4.876438	88801280	58339328	30191272	24992
262	0.961888	88801280	58339328	17403512	24992
263	1.432948	88801280	58339328	18257704	24992
264	1.923189	88801280	58339328	19392064	24992
265	2.368052	88801280	58339328	20819160	24992
266	2.872441	88801280	58339328	22524352	24992
267	3.803045	88801280	58339328	24516248	24992
268	3.800457	88801280	58339328	26796008	24992
269	4.144745	88801280	58339328	29369336	24992
270	5.79063	88801280	58339328	15973448	24992
271	5.131896	88801280	58339328	19127936	24992
272	0.947607	88801280	58339328	22864448	24992
273	1.491372	88801280	58339328	23747144	24992
274	1.872149	88801280	58339328	24918624	24992
275	2.40276	88801280	58339328	26384208	24992
276	2.817123	88801280	58339328	28145160	24992
277	3.802907	88801280	58339328	30202832	24992
278	4.213808	88801280	58339328	16210472	24992
279	4.543912	88801280	58339328	18861728	24992
280	4.704049	88801280	58339328	21812672	24992
281	5.337719	88801280	58339328	25063072	24992
282	1.04157	88801280	58339328	28917040	24992
283	1.461169	88801280	58339328	29823424	24992
284	2.324688	88801280	58339328	14733992	24992
285	2.419752	88801280	58339328	16245944	24992
286	3.240378	88801280	58339328	18062624	24992
287	3.627407	88801280	58339328	20184528	24992
288	4.013019	88801280	58339328	22612384	24992
289	4.661822	88801280	58339328	25350400	24992
290	4.871677	88801280	58339328	28394408	24992
291	5.976443	88801280	58339328	15648744	24992
292	1.062198	88801280	58339328	19625096	24992
293	1.534507	88801280	58339328	20559376	24992
294	2.212912	88801280	58339328	21805304	24992
295	2.490645	88801280	58339328	23363744	24992
296	3.014524	88801280	58339328	25236424	24992
297	3.502041	88801280	58339328	27423200	24992
298	4.785027	88801280	58339328	29925416	24992
299	4.96526	88801280	58339328	16454824	24992
300	5.036038	88801280	58339328	19594512	24992
301	5.518382	88801280	58339328	23056872	24992
302	1.061761	88801280	58339328	27156792	24992
303	1.563534	88801280	58339328	28119008	24992
304	2.066204	88801280	58339328	29402064	24992
305	3.038093	88801280	58339328	14849832	24992
306	3.08576	88801280	58339328	16788536	24992
307	3.799388	88801280	58339328	19040520	24992
308	4.128115	88801280	58339328	21616896	24992
309	4.686236	88801280	58339328	24518760	24992
310	5.195778	88801280	58339328	27764288	24992
311	6.343257	88801280	58339328	15476488	24992
312	1.062359	88801280	58339328	19694048	24992
313	1.607055	88801280	58339328	20688464	24992
314	2.11678	88801280	58339328	22008736	24992
315	2.840572	88801280	58339328	23660112	24992
316	3.188245	88801280	58339328	25653080	24992
317	3.719748	88801280	58339328	27970072	24992
318	4.455014	88801280	58339328	30621896	24992
319	5.276852	88801280	58339328	17367680	24992
320	5.327459	88801280	58339328	20689984	24992
321	6.059075	88801280	58339328	24360176	24992
322	1.31306	88801280	58339328	28707440	24992
323	1.672286	88801280	58339328	29725536	24992
324	2.719593	88801280	58339328	14971088	24992
325	2.740503	88801280	58339328	16668992	24992
326	3.258022	88801280	58339328	18708704	24992
327	4.080051	88801280	58339328	21090624	24992
328	4.464303	88801280	58339328	23815648	24992
329	5.10323	88801280	58339328	26885064	24992
330	5.505475	88801280	58339328	30305848	24992
331	7.028465	88801280	58339328	17854928	24992
332	1.119198	88801280	58339328	22314752	24992
333	1.677236	88801280	58339328	23360760	24992
334	2.257054	88801280	58339328	24755472	24992
335	2.810869	88801280	58339328	26499824	24992
336	3.570257	88801280	58339328	28600016	24992
337	3.960645	88801280	58339328	31047160	24992
338	5.211079	88801280	58339328	17594616	24992
339	5.068862	88801280	58339328	20747208	24992
340	5.828312	88801280	58339328	24257160	24992
341	6.201942	88801280	58339328	28120248	24992
342	1.151261	88801280	58339328	16903824	24992
343	1.750906	88801280	58339328	17977688	24992
344	2.309107	88801280	58339328	19409552	24992
345	3.280206	88801280	58339328	21200480	24992
346	3.468353	88801280	58339328	23351544	24992
347	4.069851	88801280	58339328	25863360	24992
348	4.818902	88801280	58339328	28752096	24992
349	5.94656	88801280	58339328	16106312	24992
350	6.931397	88801280	58339328	19707048	24992
351	9.034475	88801280	58339328	23672248	24992
352	1.396379	88801280	58339328	28392896	24992
353	1.790518	88801280	58339328	29494760	24992
354	2.392446	88801280	58339328	30967608	24992
355	3.538249	88801280	58339328	16612344	24992
356	3.563152	88801280	58339328	18831264	24992
357	4.327648	88801280	58339328	21416080	24992
358	4.755533	88801280	58339328	24372096	24992
359	5.36754	88801280	58339328	27692032	24992
360	6.142586	88801280	58339328	31399616	24992
361	7.520334	88801280	58339328	19233080	24992
362	1.296535	88801280	58339328	24074728	24992
363	1.836715	88801280	58339328	25207280	24992
364	2.444679	88801280	58339328	26713544	24992
365	3.026371	88801280	58339328	28609088	24992
366	3.635353	88801280	58339328	30880064	24992
367	5.101992	88801280	58339328	17404608	24992
368	4.870804	88801280	58339328	20426672	24992
369	5.502166	88801280	58339328	23829968	24992
370	6.287544	88801280	58339328	27616288	24992
371	7.149026	88801280	58339328	31787312	24992
372	1.32498	88801280	58339328	20476560	24992
373	1.893096	88801280	58339328	21636800	24992
374	2.677012	88801280	58339328	23187088	24992
375	3.111324	88801280	58339328	25119016	24992
376	3.752992	88801280	58339328	27437472	24992
377	4.378259	88801280	58339328	30144568	24992
378	5.698335	88801280	58339328	17198248	24992
379	5.823362	88801280	58339328	20685128	24992
380	6.280948	88801280	58339328	24576488	24992
381	7.083056	88801280	58339328	28859512	24992
382	1.269118	88801280	58339328	18102024	24992
383	2.103166	88801280	58339328	19295792	24992
384	2.549665	88801280	58339328	20876544	24992
385	3.172648	88801280	58339328	22866640	24992
386	3.823566	88801280	58339328	25240760	24992
387	4.552188	88801280	58339328	28012704	24992
388	5.150365	88801280	58339328	31185016	24992
389	6.543238	88801280	58339328	18621832	24992
390	6.408867	88801280	58339328	22606376	24992
391	7.072824	88801280	58339328	26986560	24992
392	1.344832	88801280	58339328	32209168	24992
393	2.615722	88801280	58339328	17174024	24992
394	2.612902	88801280	58339328	18792064	24992
395	3.259895	88801280	58339328	20822568	24992
396	4.28254	88801280	58339328	23252472	24992
397	4.592284	88801280	58339328	26089520	24992
398	5.408337	88801280	58339328	29346056	24992
399	6.822586	88801280	58339328	17154984	24992
400	6.942092	88801280	58339328	21232592	24992
401	7.393557	88801280	58339328	25708256	24992
402	1.399242	88801280	58339328	31041096	24992
403	2.12208	88801280	58339328	32282672	24992
404	3.541824	88801280	58339328	17691464	24992
405	3.533145	88801280	58339328	19761112	24992
406	4.37453	88801280	58339328	22247880	24992
407	5.035812	88801280	58339328	25149984	24992
408	5.414231	88801280	58339328	28469288	24992
409	6.210442	88801280	58339328	32206816	24992
410	7.664118	88801280	58339328	20128320	24992
411	7.416621	88801280	58339328	24710784	24992
412	1.359106	88801280	58339328	30179664	24992
413	2.054405	88801280	58339328	31449200	24992
414	3.49967	88801280	58339328	17071160	24992
415	3.427357	88801280	58339328	19187248	24992
416	4.353063	88801280	58339328	21730328	24992
417	4.81357	88801280	58339328	24708072	24992
418	5.675715	88801280	58339328	28108664	24992
419	6.381503	88801280	58339328	31962448	24992
420	7.803877	88801280	58339328	20081976	24992
421	7.57822	88801280	58339328	24811136	24992
422	1.386462	88801280	58339328	30485400	24992
423	2.254379	88801280	58339328	31834536	24992
424	3.651312	88801280	58339328	17505560	24992
425	3.512803	88801280	58339328	19750456	24992
426	4.23225	88801280	58339328	22449664	24992
427	5.295558	88801280	58339328	25596712	24992
428	5.952228	88801280	58339328	29196896	24992
429	7.732656	88801280	58339328	17492232	24992
430	7.481223	88801280	58339328	22005880	24992
431	7.739388	88801280	58339328	26982480	24992
432	1.495071	88801280	58339328	32909768	24992
433	3.036237	88801280	58339328	18030776	24992
434	3.124855	88801280	58339328	19863248	24992
435	3.594738	88801280	58339328	22170080	24992
436	4.28811	88801280	58339328	24929768	24992
437	5.194536	88801280	58339328	28152528	24992
438	5.737725	88801280	58339328	31840568	24992
439	7.335965	88801280	58339328	19900688	24992
440	7.381373	88801280	58339328	24503880	24992
441	8.084881	88801280	58339328	29572224	24992
442	1.531013	88801280	58339328	19806672	24992
443	2.310878	88801280	58339328	21209232	24992
444	3.253773	88801280	58339328	23093504	24992
445	3.663522	88801280	58339328	25431416	24992
446	4.384901	88801280	58339328	28240160	24992
447	5.299225	88801280	58339328	31517488	24992
448	6.844391	88801280	58339328	19279264	24992
449	6.803612	88801280	58339328	23499176	24992
450	7.359569	88801280	58339328	28201920	24992
451	8.268413	88801280	58339328	33372944	24992
452	1.561617	88801280	58339328	23224008	24992
453	2.365052	88801280	58339328	24654560	24992
454	3.1414	88801280	58339328	26561384	24992
455	3.957798	88801280	58339328	28951288	24992
456	4.67946	88801280	58339328	31814352	24992
457	6.510404	88801280	58339328	19109440	24992
458	6.036123	88801280	58339328	22942968	24992
459	6.921209	88801280	58339328	27254384	24992
460	7.670249	88801280	58339328	32040528	24992
461	9.622428	88801280	58339328	21199824	24992
462	1.591114	88801280	58339328	27482440	24992
463	2.323609	88801280	58339328	28941000	24992
464	3.095482	88801280	58339328	30885056	24992
465	3.827085	88801280	58339328	33321856	24992
466	5.438844	88801280	58339328	20056928	24992
467	5.393587	88801280	58339328	23469912	24992
468	6.152495	88801280	58339328	27366536	24992
469	7.056694	88801280	58339328	31762176	24992
470	8.947793	88801280	58339328	20668240	24992
471	8.437698	88801280	58339328	26057056	24992
472	1.628874	88801280	58339328	32461392	24992
473	2.448353	88801280	58339328	33947776	24992
474	4.039829	88801280	58339328	19678352	24992
475	3.948814	88801280	58339328	22155568	24992
476	4.803595	88801280	58339328	25130184	24992
477	5.497775	88801280	58339328	28602480	24992
478	6.577072	88801280	58339328	32575440	24992
479	8.249366	88801280	58339328	20998888	24992
480	8.122728	88801280	58339328	25984112	24992
481	8.987385	88801280	58339328	31465360	24992
482	1.671081	88801280	58339328	22019440	24992
483	2.505134	88801280	58339328	23538432	24992
484	3.332669	88801280	58339328	25574528	24992
485	4.180379	88801280	58339328	28098448	24992
486	5.037611	88801280	58339328	31128824	24992
487	6.677778	88801280	58339328	18840392	24992
488	6.622989	88801280	58339328	22885664	24992
489	7.391952	88801280	58339328	27439944	24992
490	8.045793	88801280	58339328	32524264	24992
491	9.862158	88801280	58339328	22005904	24992
492	1.695547	88801280	58339328	28651096	24992
493	2.47166	88801280	58339328	30193496	24992
494	3.296135	88801280	58339328	32249256	24992
495	5.196279	88801280	58339328	18862224	24992
496	5.031497	88801280	58339328	21948360	24992
497	5.922621	88801280	58339328	25550720	24992
498	6.5064	88801280	58339328	29670320	24992
499	7.45903	88801280	58339328	34307904	24992
500	9.44808	88801280	58339328	23223248	24992
501	9.001773	88801280	58339328	28900768	24992
502	2.798948	88801280	58339328	19434904	24992
503	2.463998	88801280	58339328	21007544	24992
504	3.294247	88801280	58339328	23100496	24992
505	4.103891	88801280	58339328	25717144	24992
506	5.124388	88801280	58339328	28858888	24992
507	5.803337	88801280	58339328	32526152	24992
508	7.899525	88801280	58339328	20764312	24992
509	7.635762	88801280	58339328	25485408	24992
510	8.366088	88801280	58339328	30736752	24992
511	10.648011	88801280	58339328	20816144	24992
512	1.761915	88801280	58339328	27703288	24992
513	2.644807	88801280	58339328	29301416	24992
514	3.600903	88801280	58339328	31431432	24992
515	4.181592	88801280	58339328	34107128	24992
516	6.037229	88801280	58339328	21137840	24992
517	5.912104	88801280	58339328	24885096	24992
518	6.933625	88801280	58339328	29153184	24992
519	7.81499	88801280	58339328	33957800	24992
520	9.649636	88801280	58339328	23172760	24992
521	9.374657	88801280	58339328	29054320	24992
522	2.700388	88801280	58339328	19817344	24992
523	2.58149	88801280	58339328	21463368	24992
524	3.46822	88801280	58339328	23630752	24992
525	4.449968	88801280	58339328	26340344	24992
526	5.159046	88801280	58339328	29593600	24992
527	6.205351	88801280	58339328	33401096	24992
528	8.025298	88801280	58339328	21735616	24992
529	7.734715	88801280	58339328	26624280	24992
530	8.822038	88801280	58339328	32060440	24992
531	10.974415	88801280	58339328	22195504	24992
532	1.736204	88801280	58339328	29325112	24992
533	2.612672	88801280	58339328	30990168	24992
534	3.474064	88801280	58339328	33194728	24992
535	5.705746	88801280	58339328	20021672	24992
536	5.320845	88801280	58339328	23353744	24992
537	6.472232	88801280	58339328	27216048	24992
538	7.064621	88801280	58339328	31653904	24992
539	9.183307	88801280	58339328	20889808	24992
540	9.219035	88801280	58339328	26418704	24992
541	9.880591	88801280	58339328	32504840	24992
542	1.77405	88801280	58339328	23856256	24992
543	2.647332	88801280	58339328	25548208	24992
544	3.527871	88801280	58339328	27789800	24992
545	4.474551	88801280	58339328	30592248	24992
546	5.335997	88801280	58339328	33957016	24992
547	7.585391	88801280	58339328	21869904	24992
548	7.142064	88801280	58339328	26369272	24992
549	8.184872	88801280	58339328	31424952	24992
550	10.234784	88801280	58339328	21302552	24992
551	10.085652	88801280	58339328	27506752	24992
552	1.882513	88801280	58339328	34883296	24992
553	4.058844	89071616	58339328	20420144	24992
554	3.808045	89071616	58339328	22714576	24992
555	4.696008	89071616	58339328	25563568	24992
556	5.426476	89071616	58339328	29000480	24992
557	6.516994	89071616	58339328	33004952	24992
558	8.751371	89071616	58339328	21749368	24992
559	8.168269	89071616	58339328	26891552	24992
560	9.307394	89071616	58339328	32625496	24992
561	11.613093	89071616	58339328	23050688	24992
562	1.829324	89071616	58339328	30553144	24992
563	2.836423	89071616	58339328	32294696	24992
564	3.853034	89071616	58339328	34610744	24992
565	5.743936	89071616	58339328	21461448	24992
566	5.570783	89071616	58339328	24937608	24992
567	6.633685	89071616	58339328	28995232	24992
568	7.580227	89071616	58339328	33634560	24992
569	9.84262	89071616	58339328	22960664	24992
570	9.421808	89071616	58339328	28780968	24992
571	10.558651	89071616	58339328	35173528	24992
572	1.94642	89341952	58863616	26587384	24992
573	3.06545	89341952	58863616	28367176	24992
574	3.728523	89341952	58863616	30720656	24992
575	4.717328	89341952	58863616	33663848	24992
576	7.095889	89341952	58863616	21312280	24992
577	6.567194	89341952	58863616	25440144	24992
578	7.690057	89341952	58863616	30170064	24992
579	8.520621	89341952	58863616	35476416	24992
580	10.740615	89341952	58863616	25153432	24992
581	10.524501	89341952	58863616	31662632	24992
582	1.982773	89341952	58863616	23759192	24992
583	2.981236	89341952	58863616	25557536	24992
584	3.986589	89341952	58863616	27948080	24992
585	5.010016	89341952	58863616	30936488	24992
586	6.005116	89341952	58863616	34526928	24992
587	8.45552	89612288	58863616	22744040	24992
588	7.838044	89612288	58863616	27546320	24992
589	8.606136	89612288	58863616	32935928	24992
590	10.974228	89612288	58863616	23154040	24992
591	10.75287	89612288	58863616	29763816	24992
592	3.106458	89612288	58863616	21408136	24992
593	2.978213	89612288	58863616	23234272	24992
594	3.890394	89612288	58863616	25661992	24992
595	4.858776	89612288	58863616	28696936	24992
596	6.021898	89612288	58863616	32340416	24992
597	6.787085	89612288	58863616	36592912	24992
598	9.232488	89882624	59387904	25240480	24992
599	8.958485	89882624	59387904	30731880	24992
600	9.696671	89882624	59387904	36818304	24992
601	12.064932	89882624	59387904	27210312	24992
602	2.035277	89882624	59387904	35192528	24992
603	2.982712	89882624	59387904	37041952	24992
604	5.243641	89882624	59387904	23234080	24992
605	4.900228	89882624	59387904	26317816	24992
606	5.89466	89882624	59387904	30031960	24992
607	6.91845	89882624	59387904	34355432	24992
608	9.286398	90152960	59387904	23429184	24992
609	9.06343	90152960	59387904	28986424	24992
610	9.849333	90152960	59387904	35171136	24992
611	12.360458	90152960	59387904	25939504	24992
612	2.199214	90152960	59387904	34067144	24992
613	3.113638	90152960	59387904	35944592	24992
614	5.272517	90152960	59387904	22402264	24992
615	5.187612	90152960	59387904	25530104	24992
616	5.98465	90152960	59387904	29295544	24992
617	7.191336	90152960	59387904	33678464	24992
618	9.973118	90423296	59912192	22945736	24992
619	9.032099	90423296	59912192	28592696	24992
620	10.206905	90423296	59912192	34867264	24992
621	12.613523	90423296	59912192	25819104	24992
622	2.273042	90423296	59912192	34043968	24992
623	3.040391	90423296	59912192	35951168	24992
624	5.351901	90423296	59912192	22465296	24992
625	5.25497	90423296	59912192	25654216	24992
626	6.081524	90423296	59912192	29477088	24992
627	7.086286	90423296	59912192	33934248	24992
628	9.8138	90423296	59912192	23280520	24992
629	9.259674	90423296	59912192	29014984	24992
630	10.154791	90423296	59912192	35413608	24992
631	12.739103	90693632	59912192	26399696	24992
632	2.132684	90693632	59912192	34740848	24992
633	3.091216	90693632	59912192	36674256	24992
634	5.385545	90693632	59912192	23138992	24992
635	5.311335	90693632	59912192	26361352	24992
636	6.163243	90693632	59912192	30227824	24992
637	7.387557	90693632	59912192	34740448	24992
638	10.01385	90693632	59912192	24084584	24992
639	9.322759	90693632	59912192	29905304	24992
640	10.478661	90693632	59912192	36362696	24992
641	13.27901	90963968	60436480	27388616	24992
642	2.180245	90963968	60436480	35856032	24992
643	3.284924	90963968	60436480	37817440	24992
644	5.556389	90963968	60436480	24215024	24992
645	5.405197	90963968	60436480	27503616	24992
646	6.250432	90963968	60436480	31425896	24992
647	7.498109	90963968	60436480	36005232	24992
648	10.290882	90963968	60436480	25322816	24992
649	10.071005	90963968	60436480	31227640	24992
650	10.731225	90963968	60436480	37787616	24992
651	12.843846	90963968	60436480	28730576	24992
652	2.208314	90963968	60436480	37329104	24992
653	4.599242	90963968	60436480	23204800	24992
654	4.41369	90963968	60436480	25855896	24992
655	5.2872	90963968	60436480	29180376	24992
656	6.54111	90963968	60436480	33177264	24992
657	7.411387	90963968	60436480	37841448	24992
658	9.861348	91234304	60436480	26934504	24992
659	9.811757	91234304	60436480	32930712	24992
660	12.493918	91234304	60436480	24060896	24992
661	12.062257	91234304	60436480	31371960	24992
662	2.252851	91234304	60436480	23771504	24992
663	3.298951	91234304	60436480	25788488	24992
664	4.67293	91234304	60436480	28476696	24992
665	5.671988	91234304	60436480	31836880	24992
666	6.718773	91234304	60436480	35875928	24992
667	9.306197	91504640	60960768	24734416	24992
668	8.625009	91504640	60960768	30121256	24992
669	9.899671	91504640	60960768	36199216	24992
670	12.31013	91504640	60960768	26948368	24992
671	12.089953	91504640	60960768	34387568	24992
672	2.380978	91504640	60960768	27514936	24992
673	3.264077	91504640	60960768	29576720	24992
674	4.338492	91504640	60960768	32304552	24992
675	5.507328	91504640	60960768	35711288	24992
676	8.326313	91504640	60960768	24000408	24992
677	7.663025	91504640	60960768	28779800	24992
678	9.011125	91504640	60960768	34241400	24992
679	11.807552	91774976	60960768	24689128	24992
680	11.694864	91774976	60960768	31535800	24992
681	12.420836	91774976	60960768	39066384	24992
682	2.308504	91774976	60960768	31615888	24992
683	3.645986	91774976	60960768	33692976	24992
684	4.593173	91774976	60960768	36455560	24992
685	7.239562	91774976	60960768	24015192	24992
686	6.713298	91774976	60960768	28183192	24992
687	7.797167	91774976	60960768	33021960	24992
688	9.085059	91774976	60960768	38552952	24992
689	11.545147	91774976	60960768	28602464	24992
690	11.498097	91774976	60960768	35557080	24992
691	14.049078	92045312	61485056	27400720	24992
692	2.236626	92045312	61485056	36508128	24992
693	3.365195	92045312	61485056	38608992	24992
694	6.047991	92045312	61485056	25219288	24992
695	5.629467	92045312	61485056	28718776	24992
696	6.734415	92045312	61485056	32935544	24992
697	7.910481	92045312	61485056	37838072	24992
698	10.749992	92045312	61485056	27410872	24992
699	10.34708	92045312	61485056	33748824	24992
700	13.098755	92045312	61485056	25322888	24992
701	12.616219	92045312	61485056	33042408	24992
702	2.258797	92315648	61485056	26886616	24992
703	3.394063	92315648	61485056	29027632	24992
704	4.560843	92315648	61485056	31864584	24992
705	5.746589	92315648	61485056	35428544	24992
706	6.812988	92315648	61485056	39703120	24992
707	9.55392	92315648	61485056	28349296	24992
708	9.352697	92315648	61485056	34042136	24992
709	12.221219	92315648	61485056	24916752	24992
710	11.636787	92315648	61485056	32033136	24992
711	12.622384	92315648	61485056	39854560	24992
712	2.574923	92315648	61485056	32774816	24992
713	3.441295	92315648	61485056	34948008	24992
714	4.589451	92315648	61485056	37822144	24992
715	7.493614	92585984	61485056	25427496	24992
716	7.106653	92585984	61485056	29750584	24992
717	8.276205	92585984	61485056	34783112	24992
718	11.174951	92585984	62009344	25060144	24992
719	10.661761	92585984	62009344	31536624	24992
720	11.835797	92585984	62009344	38762736	24992
721	14.644731	92585984	62009344	30499288	24992
722	2.579463	92585984	62009344	39963280	24992
723	5.129959	92585984	62009344	25927408	24992
724	4.901402	92585984	62009344	28838848	24992
725	5.963746	92585984	62009344	32477944	24992
726	7.088751	92585984	62009344	36866776	24992
727	9.922491	92856320	62009344	26202112	24992
728	9.682513	92856320	62009344	32047056	24992
729	10.968906	92856320	62009344	38630664	24992
730	13.527962	92856320	62009344	29813712	24992
731	13.690203	92856320	62009344	37853288	24992
732	2.463598	92856320	62009344	31445120	24992
733	3.718058	92856320	62009344	33664992	24992
734	5.11652	92856320	62009344	36623496	24992
735	5.969832	92856320	62009344	40308928	24992
736	8.600977	93126656	62533632	28444432	24992
737	8.357292	93126656	62533632	33611312	24992
738	9.69132	93126656	62533632	39513720	24992
739	12.469045	93126656	62533632	29970256	24992
740	11.967859	93126656	62533632	37363768	24992
741	15.45442	93126656	62533632	29658304	24992
742	2.512419	93126656	62533632	39361024	24992
743	5.245369	93126656	62533632	25509200	24992
744	4.97708	93126656	62533632	28500464	24992
745	5.986812	93126656	62533632	32232384	24992
746	7.415469	93126656	62533632	36728784	24992
747	10.431478	93396992	62533632	26318768	24992
748	9.816187	93396992	62533632	32318216	24992
749	11.052885	93396992	62533632	39066848	24992
750	13.686615	93396992	62533632	30472160	24992
751	13.500213	93396992	62533632	38731992	24992
752	2.534593	93396992	62533632	32503888	24992
753	3.972615	93396992	62533632	34772360	24992
754	4.875335	93396992	62533632	37799512	24992
755	8.013889	93396992	62533632	25798168	24992
756	7.299512	93396992	62533632	30333416	24992
757	8.730305	93396992	62533632	35627768	24992
758	11.685288	93396992	62533632	26155336	24992
759	11.29661	93396992	62533632	32989328	24992
760	12.374451	93396992	62533632	40577048	24992
761	15.082276	93667328	62533632	32654576	24992
762	4.159833	93667328	62533632	26342600	24992
763	3.730544	93667328	62533632	28639048	24992
764	5.08671	93667328	62533632	31702584	24992
765	6.14389	93667328	62533632	35538232	24992
766	7.41295	93667328	62533632	40129584	24992
767	10.672635	93667328	62533632	29420192	24992
768	9.872905	93667328	62533632	35560864	24992
769	13.475708	93667328	62533632	26956232	24992
770	12.391796	93667328	62533632	34642912	24992
771	15.772574	93667328	62533632	27712328	24992
772	2.599639	93667328	62533632	37768976	24992
773	3.998196	93667328	62533632	40093448	24992
774	6.603906	93667328	62533632	27117984	24992
775	6.271088	93667328	62533632	30989520	24992
776	7.486191	93667328	62533632	35636320	24992
777	8.911778	93667328	62533632	41058896	24992
778	11.837571	93667328	62533632	31094688	24992
779	11.47102	93667328	62533632	38071800	24992
780	14.465545	93667328	62533632	30007984	24992
781	14.605803	93667328	62533632	38602280	24992
782	2.633756	93667328	62533632	32861008	24992
783	3.833039	93667328	62533632	35213240	24992
784	5.072702	93667328	62533632	38347832	24992
785	9.241528	93667328	62533632	26569544	24992
786	7.827903	93667328	62533632	31272104	24992
787	8.890267	93667328	62533632	36764920	24992
788	12.407281	93667328	63057920	27472568	24992
789	11.660552	93667328	63057920	34539648	24992
790	15.123063	93667328	63057920	27159640	24992
791	14.583981	93667328	63057920	35850832	24992
792	2.66735	93667328	63057920	30659632	24992
793	4.014295	93667328	63057920	33052640	24992
794	5.290389	93667328	63057920	36224416	24992
795	6.40772	93667328	63057920	40188608	24992
796	9.682607	93937664	63057920	29004720	24992
797	9.056667	93937664	63057920	34558072	24992
798	10.359941	93937664	63057920	40934800	24992
799	13.211781	93937664	63057920	31911240	24992
800	13.384014	93937664	63057920	39855408	24992
801	16.851107	93937664	63057920	32559816	24992
802	4.338805	93937664	63057920	26862160	24992
803	4.063058	93937664	63057920	29270256	24992
804	5.417436	93937664	63057920	32479216	24992
805	6.789815	93937664	63057920	36495736	24992
806	8.018406	93937664	63057920	41309784	24992
807	11.048838	93937664	63057920	30826712	24992
808	10.574528	93937664	63057920	37248904	24992
809	13.728097	94208000	63057920	28914784	24992
810	13.165726	94208000	63057920	36982432	24992
811	16.655909	94208000	63057920	30263328	24992
812	2.717297	94208000	63057920	40833880	24992
813	6.05345	94208000	63057920	27262568	24992
814	5.23018	94208000	63057920	30516872	24992
815	6.727352	94208000	63057920	34574192	24992
816	7.884606	94208000	63057920	39444032	24992
817	11.119899	94208000	63057920	29324560	24992
818	10.793211	94208000	63057920	35831744	24992
819	14.134835	94208000	63057920	27838816	24992
820	13.630444	94208000	63057920	35970440	24992
821	17.24119	94208000	63057920	29607768	24992
822	2.755155	94208000	63057920	40278184	24992
823	4.169159	94208000	63057920	42742232	24992
824	7.195494	94208000	63057920	29765000	24992
825	6.839702	94208000	63057920	33893720	24992
826	8.136535	94208000	63057920	38826480	24992
827	11.451727	94208000	63057920	28911744	24992
828	10.751276	94208000	63057920	35493760	24992
829	12.282203	94208000	63057920	42891592	24992
830	15.563655	94208000	63057920	34708176	24992
831	17.545058	94208000	63057920	28657840	24992
832	2.788877	94208000	63057920	39465688	24992
833	4.198876	94208000	63057920	41966336	24992
834	7.324206	94208000	63057920	29228656	24992
835	6.703789	94208000	63057920	33378920	24992
836	8.412319	94208000	63057920	38381040	24992
837	11.650279	94208000	63057920	28678296	24992
838	10.954415	94208000	63057920	35331704	24992
839	12.173009	94208000	63057920	42846968	24992
840	15.578488	94208000	63057920	34928984	24992
841	17.453974	94208000	63057920	28984512	24992
842	2.826862	94208000	63057920	40028336	24992
843	4.251065	94208000	63057920	42597456	24992
844	7.455367	94208000	63057920	29845520	24992
845	6.860758	94208000	63057920	34130640	24992
846	8.185288	94208000	63057920	39271696	24992
847	11.717954	94208000	63057920	29612376	24992
848	10.931023	94208000	63057920	36493488	24992
849	14.542167	94208000	63057920	28946744	24992
850	13.831755	94208000	63057920	37567936	24992
851	17.693621	94208000	63057920	31483296	24992
852	2.857064	94208000	63057920	42772352	24992
853	6.099312	94208000	63057920	29217112	24992
854	5.772229	94208000	63057920	32684248	24992
855	6.852199	94208000	63057920	37009640	24992
856	8.446688	94208000	63057920	42201016	24992
857	11.75305	94208000	63057920	32246048	24992
858	11.467563	94208000	63057920	39187104	24992
859	14.839091	94208000	63057920	31342456	24992
860	14.073178	94208000	63057920	40016472	24992
861	17.601297	94208000	63057920	33797528	24992
862	4.804344	94208000	63057920	29013688	24992
863	4.146701	94208000	63057920	31638664	24992
864	5.672935	94208000	63057920	35136640	24992
865	6.926795	94208000	63057920	39517136	24992
866	10.718161	94208000	63582208	29138544	24992
867	10.290837	94208000	63582208	35261424	24992
868	11.371077	94208000	63582208	42271424	24992
869	14.649334	94208000	63582208	34024752	24992
870	14.211568	94208000	63582208	42798608	24992
871	17.562554	94208000	63582208	36324936	24992
872	2.942594	94208000	63582208	32616888	24992
873	4.206331	94208000	63582208	35270056	24992
874	5.830105	94208000	63582208	38805808	24992
875	7.211156	94208000	63582208	43238120	24992
876	10.334225	94478336	64106496	32406184	24992
877	10.294515	94478336	64106496	38617464	24992
878	13.550519	94478336	64106496	30191312	24992
879	13.099253	94478336	64106496	38152424	24992
880	16.472003	94478336	64106496	31503032	24992
881	15.958752	94478336	64106496	41256944	24992
882	2.841658	94478336	64106496	37015464	24992
883	4.402602	94478336	64106496	39712496	24992
884	5.665885	94478336	64106496	43284936	24992
885	9.150194	94748672	64106496	31723152	24992
886	8.736707	94748672	64106496	37090264	24992
887	10.086602	94748672	64106496	43355696	24992
888	13.290127	94748672	64106496	34353368	24992
889	13.081636	94748672	64106496	42412792	24992
890	16.476334	94748672	64106496	35353032	24992
891	18.60013	94748672	64106496	30225224	24992
892	2.97659	94748672	64106496	41982432	24992
893	4.502883	94748672	64106496	44691216	24992
894	7.634086	94748672	64106496	32045072	24992
895	7.423787	94748672	64106496	36556416	24992
896	8.781094	94748672	64106496	41978768	24992
897	12.548086	95019008	64630784	32458768	24992
898	11.763032	95019008	64630784	39699408	24992
899	15.183394	95019008	64630784	32225544	24992
900	14.82878	95019008	64630784	41287624	24992
901	18.390117	95019008	64630784	35378904	24992
902	3.183361	95019008	64630784	32315752	24992
903	4.327269	95019008	64630784	35056432	24992
904	6.083778	95019008	64630784	38703208	24992
905	7.458565	95019008	64630784	43271136	24992
906	10.83939	95289344	64630784	32730832	24992
907	10.652302	95289344	64630784	39164400	24992
908	13.976886	95289344	64630784	31012056	24992
909	13.346126	95289344	64630784	39228992	24992
910	17.618567	95289344	64630784	32883192	24992
911	16.35441	95289344	64630784	42996288	24992
912	3.063011	95289344	64630784	38978768	24992
913	4.37712	95289344	64630784	41743560	24992
914	8.212444	95559680	65155072	29685056	24992
915	7.367337	95559680	65155072	34305896	24992
916	8.786874	95559680	65155072	39854056	24992
917	12.583042	95559680	65155072	30763976	24992
918	12.343849	95559680	65155072	38147440	24992
919	16.134816	95559680	65155072	31159216	24992
920	15.038333	95559680	65155072	40380872	24992
921	18.843376	95559680	65155072	34940576	24992
922	4.973293	95559680	65155072	30914336	24992
923	4.41594	95559680	65155072	33712328	24992
924	6.116706	95559680	65155072	37452608	24992
925	7.598799	95559680	65155072	42116808	24992
926	11.529976	95830016	65155072	31964872	24992
927	10.438795	95830016	65155072	38487152	24992
928	14.479683	95830016	65155072	30642664	24992
929	13.593967	95830016	65155072	39043488	24992
930	17.691565	95830016	65155072	33075160	24992
931	16.569581	95830016	65155072	43328408	24992
932	2.999484	95830016	65155072	39591768	24992
933	4.46931	95830016	65155072	42412320	24992
934	8.241079	96100352	65679360	30443256	24992
935	7.50002	96100352	65679360	35160176	24992
936	9.163758	96100352	65679360	40836752	24992
937	13.244245	96100352	65679360	31842120	24992
938	12.16784	96100352	65679360	39395904	24992
939	16.665967	96100352	65679360	32495200	24992
940	15.105577	96100352	65679360	41936648	24992
941	19.240849	96100352	65679360	36601192	24992
942	3.156179	96370688	65679360	34072584	24992
943	4.739885	96370688	65679360	36921096	24992
944	6.058188	96370688	65679360	40720368	24992
945	7.670527	96370688	65679360	45465992	24992
946	11.361641	96370688	65679360	35016728	24992
947	10.84187	96370688	65679360	41689776	24992
948	14.595754	96370688	65679360	33606568	24992
949	14.098613	96370688	65679360	42166904	24992
950	17.69327	96370688	65679360	35962816	24992
951	17.101275	96370688	65679360	46423512	24992
952	3.174039	96641024	65679360	42456256	24992
953	4.567118	96641024	65679360	45332864	24992
954	8.460743	96641024	65679360	33116776	24992
955	7.850047	96641024	65679360	37926928	24992
956	9.285695	96641024	65679360	43687824	24992
957	13.486396	96641024	66203648	34572960	24992
958	12.673237	96641024	66203648	42256304	24992
959	16.374314	96641024	66203648	35220576	24992
960	15.817084	96911360	66203648	44847592	24992
961	19.520047	96911360	66727936	39299240	24992
962	3.206893	96911360	66727936	36608168	24992
963	4.605068	96911360	66727936	39527280	24992
964	6.319161	96911360	66727936	43413976	24992
965	10.373427	96911360	66727936	32569576	24992
966	9.324413	96911360	66727936	38396456	24992
967	10.99528	96911360	66727936	45189984	24992
968	14.733339	97181696	66727936	36861816	24992
969	14.034446	97181696	66727936	45620208	24992
970	18.019453	97181696	66727936	39200104	24992
971	19.731857	97181696	66727936	34671544	24992
972	5.453449	97181696	66727936	31403184	24992
973	4.661784	97181696	66727936	34335584	24992
974	6.264379	97181696	66727936	38250184	24992
975	7.83843	97181696	66727936	43133312	24992
976	11.985681	97452032	66727936	33335792	24992
977	11.12171	97452032	66727936	40185784	24992
978	15.524952	97452032	67252224	32762720	24992
979	14.142683	97452032	67252224	41613904	24992
980	18.683884	97452032	67252224	35903200	24992
981	17.638547	97452032	67252224	46738912	24992
982	3.143982	97452032	67252224	43342584	24992
983	4.70373	97452032	67252224	46325928	24992
984	8.765097	97722368	67252224	34189160	24992
985	7.969964	97722368	67252224	39142888	24992
986	9.65806	97722368	67252224	45059000	24992
987	13.732371	97722368	67252224	36028008	24992
988	12.734889	97722368	67252224	43957512	24992
989	16.978556	97722368	67252224	37040616	24992
990	16.578173	97722368	67252224	46926896	24992
991	19.914292	97722368	67252224	41602008	24992
992	3.317868	97722368	67252224	39080120	24992
993	4.97273	97722368	67252224	42070616	24992
994	6.623524	97722368	67252224	46077504	24992
995	10.311643	97992704	67252224	35089408	24992
996	9.733485	97992704	67252224	41088888	24992
997	14.088193	97992704	67252224	32686464	24992
998	12.807363	97992704	67252224	40662176	24992
999	17.488906	97992704	67776512	34412640	24992
1000	16.008086	97992704	67776512	44403144	24992
x	Duration	RSS	HeapTotal	HeapUsed	External
0	NA	97554432	66727936	11987216	24992
1	0.365775	97554432	66727936	12039144	24992
2	0.26506	97554432	66727936	12115928	24992
3	0.303011	97554432	66727936	12219824	24992
4	0.364508	97554432	66727936	12352376	24992
5	0.459189	97554432	66727936	12515112	24992
6	0.505103	97554432	66727936	12708424	24992
7	0.57718	97554432	66727936	12933312	24992
8	0.655004	97554432	66727936	13190760	24992
9	0.73028	97554432	66727936	13482712	24992
10	0.814067	97554432	66727936	13809776	24992
11	1.243328	97554432	66727936	14172944	24992
12	0.214682	97554432	66727936	14565336	24992
13	0.33237	97554432	66727936	14677840	24992
14	0.420552	97554432	66727936	14829168	24992
15	0.542389	97554432	66727936	15024056	24992
16	0.779575	97554432	66727936	15256848	24992
17	0.690741	97554432	66727936	15531528	24992
18	0.785916	97554432	66727936	15849184	24992
19	0.888555	97554432	66727936	16211368	24992
20	1.196579	97554432	66727936	16619336	24992
21	0.843335	97554432	66727936	17073520	24992
22	0.195009	97554432	66727936	17582272	24992
23	0.298045	97554432	66727936	17724952	24992
24	0.389603	97554432	66727936	17918056	24992
25	0.479696	97554432	66727936	18162088	24992
26	0.579483	97554432	66727936	18458800	24992
27	0.651467	97554432	66727936	18808696	24992
28	0.694629	97554432	66727936	19212592	24992
29	0.77843	97554432	66727936	19671632	24992
30	0.868498	97554432	66727936	20187760	24992
31	1.351751	97554432	66727936	20761056	24992
32	0.2363	97554432	66727936	21414840	24992
33	0.315145	97554432	66727936	21589800	24992
34	0.402364	97554432	66727936	21824616	24992
35	0.496785	97554432	66727936	22120344	24992
36	0.594644	97554432	66727936	22478432	24992
37	0.91034	97554432	66727936	22899200	24992
38	0.801231	97554432	66727936	23383760	24992
39	0.883105	97554432	66727936	23933048	24992
40	0.986558	97554432	66727936	24549064	24992
41	1.223078	97554432	66727936	25231736	24992
42	0.239356	97554432	66727936	26014968	24992
43	0.361298	97554432	66727936	26219216	24992
44	0.489762	97554432	66727936	26495728	24992
45	0.576066	97554432	66727936	26841512	24992
46	0.690628	97554432	66727936	27259408	24992
47	0.796684	97554432	66727936	27750472	24992
48	0.905259	97554432	66727936	28315736	24992
49	1.947291	97554432	66727936	12694320	24992
50	1.201107	97554432	66727936	13415448	24992
51	1.249646	97554432	66727936	14214280	24992
52	0.274138	97554432	66727936	15139880	24992
53	0.401125	97554432	66727936	15382600	24992
54	0.521614	97554432	66727936	15706536	24992
55	0.639683	97554432	66727936	16113616	24992
56	0.76479	97554432	66727936	16605312	24992
57	0.89373	97554432	66727936	17182152	24992
58	1.031061	97554432	66727936	17844976	24992
59	1.150678	97554432	66727936	18594840	24992
60	1.274771	97554432	66727936	19433632	24992
61	1.641601	97554432	66727936	20361416	24992
62	0.292611	97554432	66727936	21435752	24992
63	0.442889	97554432	66727936	21706832	24992
64	0.582846	97554432	66727936	22070032	24992
65	0.72724	97554432	66727936	22525848	24992
66	0.860276	97554432	66727936	23076032	24992
67	1.000938	97554432	66727936	23721112	24992
68	1.142841	97554432	66727936	24461904	24992
69	1.297428	97554432	66727936	25299504	24992
70	1.433692	97554432	66727936	26235792	24992
71	1.78028	97554432	66727936	27270888	24992
72	0.322883	97554432	66727936	28472616	24992
73	0.489256	97554432	66727936	28772928	24992
74	1.420618	97554432	66727936	12955704	24992
75	0.867009	97554432	66727936	13460304	24992
76	1.038465	97554432	66727936	14069072	24992
77	1.205953	97554432	66727936	14782424	24992
78	1.389937	97554432	66727936	15601296	24992
79	1.551082	97554432	66727936	16526648	24992
80	1.743507	97554432	66727936	17560688	24992
81	1.959112	97554432	66727936	18704672	24992
82	0.390487	97554432	66727936	20038392	24992
83	0.544115	97554432	66727936	20367920	24992
84	0.708902	97554432	66727936	20811112	24992
85	0.884163	97554432	66727936	21366648	24992
86	1.064611	97554432	66727936	22037272	24992
87	1.232252	97554432	66727936	22823264	24992
88	1.394728	97554432	66727936	23725736	24992
89	1.808212	97554432	66727936	24745648	24992
90	1.756945	97554432	66727936	25884872	24992
91	1.935271	97554432	66727936	27143512	24992
92	0.384477	97554432	66727936	28615968	24992
93	0.613523	97554432	66727936	28978096	24992
94	1.34146	97554432	66727936	13163536	24992
95	0.968103	97554432	66727936	13771288	24992
96	1.147653	97554432	66727936	14503768	24992
97	1.583246	97554432	66727936	15361440	24992
98	1.525215	97554432	66727936	16345360	24992
99	1.721786	97554432	66727936	17456784	24992
100	1.90757	97554432	66727936	18696840	24992
101	2.120561	97554432	66727936	20066160	24992
102	0.417065	97554432	66727936	21681584	24992
103	0.629255	97554432	66727936	22085488	24992
104	1.057535	97554432	66727936	22625536	24992
105	1.052282	97554432	66727936	23302792	24992
106	1.240715	97554432	66727936	24118784	24992
107	1.45115	97554432	66727936	25073888	24992
108	1.651236	97554432	66727936	26169072	24992
109	1.871577	97554432	66727936	27408288	24992
110	2.108764	97554432	66727936	28787496	24992
111	2.856842	97554432	66727936	14029200	24992
112	0.459539	97554432	66727936	15819000	24992
113	0.680154	97554432	66727936	16252200	24992
114	0.899716	97554432	66727936	16831336	24992
115	1.121242	97554432	66727936	17557360	24992
116	1.344347	97554432	66727936	18431832	24992
117	1.731915	97554432	66727936	19456752	24992
118	1.929204	97554432	66727936	20629936	24992
119	2.181149	97554432	66727936	21955872	24992
120	2.232213	97554432	66727936	23438488	24992
121	2.471706	97554432	66727936	25068104	24992
122	0.482304	97554432	66727936	26983672	24992
123	0.723854	97554432	66727936	27446408	24992
124	0.953396	97554432	66727936	28064472	24992
125	1.401439	97554432	66727936	28839224	24992
126	1.986234	97554432	66727936	13495800	24992
127	1.805626	97554432	66727936	14587360	24992
128	2.192784	97554432	66727936	15840624	24992
129	2.154359	97554432	66727936	17252408	24992
130	2.410401	97554432	66727936	18828736	24992
131	2.632757	97554432	66727936	20565728	24992
132	0.508197	97554432	66727936	22608712	24992
133	0.76752	97554432	66727936	23100360	24992
134	1.014463	97554432	66727936	23757440	24992
135	1.269719	97554432	66727936	24581024	24992
136	1.50962	97554432	66727936	25572408	24992
137	2.000768	97554432	66727936	26732848	24992
138	2.013306	97554432	66727936	28062048	24992
139	2.927703	97554432	66727936	13417768	24992
140	2.725038	97554432	66727936	15089440	24992
141	2.986891	97554432	66727936	16933552	24992
142	0.544176	97554432	66727936	19111160	24992
143	0.826659	97554432	66727936	19637544	24992
144	1.076805	97554432	66727936	20341080	24992
145	1.33652	97554432	66727936	21222488	24992
146	1.621857	97554432	66727936	22283488	24992
147	1.879634	97554432	66727936	23524544	24992
148	2.195362	97554432	66727936	24946296	24992
149	2.415175	97554432	66727936	26550008	24992
150	2.687824	97554432	66727936	28338672	24992
151	3.658946	97554432	66727936	14127176	24992
152	0.574187	97554432	66727936	16450112	24992
153	0.866914	97554432	66727936	17005808	24992
154	1.138521	97554432	66727936	17748192	24992
155	1.425862	97554432	66727936	18678448	24992
156	1.699872	97554432	66727936	19797928	24992
157	1.987394	97554432	66727936	21107192	24992
158	2.269555	97554432	66727936	22611888	24992
159	2.888412	97554432	66727936	24303368	24992
160	2.85974	97554432	66727936	26188576	24992
161	3.134527	97554432	66727936	28267384	24992
162	0.644613	97554432	66727936	14569040	24992
163	0.912195	97554432	66727936	15154136	24992
164	1.236693	97554432	66727936	15935424	24992
165	1.527483	97554432	66727936	16914192	24992
166	1.792772	97554432	66727936	18094464	24992
167	2.256687	97554432	66727936	19474896	24992
168	2.563695	97554432	66727936	21053128	24992
169	2.985198	97554432	66727936	22832096	24992
170	3.021089	97554432	66727936	24814320	24992
171	3.315065	97554432	66727936	26999816	24992
172	0.663224	97554432	66727936	29586120	24992
173	1.43674	97554432	66727936	13850992	24992
174	1.34698	97554432	66727936	14671304	24992
175	1.686795	97554432	66727936	15698832	24992
176	2.004869	97554432	66727936	16935104	24992
177	2.353036	97554432	66727936	18380464	24992
178	2.700631	97554432	66727936	20035984	24992
179	2.835693	97554432	66727936	21906640	24992
180	3.164744	97554432	66727936	23987232	24992
181	3.489444	97554432	66727936	26279928	24992
182	0.662625	97554432	66727936	28994968	24992
183	0.999708	97554432	66727936	29638304	24992
184	1.828105	97554432	66727936	14147072	24992
185	1.767629	97554432	66727936	15223304	24992
186	2.123555	97554432	66727936	16518072	24992
187	2.668892	97554432	66727936	18032616	24992
188	2.65915	97554432	66727936	19766256	24992
189	3.275001	97554432	66727936	21720664	24992
190	3.35569	97554432	66727936	23897896	24992
191	4.262931	97554432	66727936	26298816	24992
192	0.695529	97554432	66727936	29140512	24992
193	1.050586	97554432	66727936	29812952	24992
194	1.891283	97554432	66727936	14359976	24992
195	1.838377	97554432	66727936	15484792	24992
196	2.160536	97554432	66727936	16838144	24992
197	2.429796	97554432	66727936	18419960	24992
198	2.793703	97554432	66727936	20237352	24992
199	3.103221	97554432	66727936	22279200	24992
200	3.684599	97554432	66727936	24553536	24992
201	4.024908	97554432	66727936	27065448	24992
202	0.726431	97554432	66727936	30039976	24992
203	1.735223	97554432	66727936	14347512	24992
204	1.471995	97554432	66727936	15284736	24992
205	1.797832	97554432	66727936	16458360	24992
206	2.161394	97554432	66727936	17869856	24992
207	2.532305	97554432	66727936	19528072	24992
208	2.878647	97554432	66727936	21433944	24992
209	3.365523	97554432	66727936	23588392	24992
210	3.879312	97554432	66727936	25993328	24992
211	4.280623	97554432	66727936	28648792	24992
212	0.7738	97554432	66727936	15656120	24992
213	1.204018	97554432	66727936	16411896	24992
214	1.629862	97554432	66727936	17421144	24992
215	1.987367	97554432	66727936	18684728	24992
216	2.615584	97554432	66727936	20205760	24992
217	2.817689	97554432	66727936	21981704	24992
218	3.451479	97554432	66727936	24015136	24992
219	3.706646	97554432	66727936	26309872	24992
220	3.990126	97554432	66727936	28861824	24992
221	5.049187	97554432	66727936	15493728	24992
222	0.823271	97554432	66727936	18830648	24992
223	1.254626	97554432	66727936	19615656	24992
224	1.675271	97554432	66727936	20665368	24992
225	2.076732	97554432	66727936	21977688	24992
226	2.533207	97554432	66727936	23563176	24992
227	3.105127	97554432	66727936	25408640	24992
228	3.310256	97554432	66727936	27520120	24992
229	3.773009	97554432	66727936	29905360	24992
230	4.677082	97554432	66727936	16231032	24992
231	4.565855	97554432	66727936	19159256	24992
232	0.859813	97554432	66727936	22642296	24992
233	1.303392	97554432	66727936	23465240	24992
234	2.000012	97554432	66727936	24563960	24992
235	2.143913	97554432	66727936	25939496	24992
236	2.592439	97554432	66727936	27593320	24992
237	3.018506	97554432	66727936	29525944	24992
238	4.183323	97554432	66727936	15485912	24992
239	3.928489	97554432	66727936	17979224	24992
240	4.727317	97554432	66727936	20756624	24992
241	4.92145	97554432	66727936	23815160	24992
242	0.898906	97554432	66727936	27448816	24992
243	1.3678	97554432	66727936	28300992	24992
244	2.00847	97554432	66727936	29438912	24992
245	2.74078	97554432	66727936	14646576	24992
246	2.722426	97554432	66727936	16366112	24992
247	3.165434	97554432	66727936	18367040	24992
248	3.807777	97554432	66727936	20657400	24992
249	4.484492	97554432	66727936	23242648	24992
250	4.513751	97554432	66727936	26116096	24992
251	5.208935	97554432	66727936	29284696	24992
252	0.940652	97554432	66727936	16862416	24992
253	1.596594	97554432	66727936	17747888	24992
254	1.880588	97554432	66727936	18924632	24992
255	2.339854	97554432	66727936	20397656	24992
256	2.802829	97554432	66727936	22170584	24992
257	3.277347	97554432	66727936	24242240	24992
258	3.729839	97554432	66727936	26615832	24992
259	4.153123	97554432	66727936	29284384	24992
260	5.471974	97554432	66727936	16105408	24992
261	5.054918	97554432	66727936	19378416	24992
262	0.955392	97554432	66727936	23265272	24992
263	1.663147	97554432	66727936	24175960	24992
264	1.930972	97554432	66727936	25399464	24992
265	2.417565	97554432	66727936	26921240	24992
266	2.903225	97554432	66727936	28750744	24992
267	3.969469	97554432	66727936	14840520	24992
268	3.900894	97554432	66727936	17287000	24992
269	4.36798	97554432	66727936	20043456	24992
270	5.045668	97554432	66727936	23113352	24992
271	5.352942	97554432	66727936	26493536	24992
272	0.948882	97554432	66727936	30514312	24992
273	1.880728	97554432	66727936	15104856	24992
274	1.979318	97554432	66727936	16359592	24992
275	2.500707	97554432	66727936	17930152	24992
276	2.994004	97554432	66727936	19818008	24992
277	3.524459	97554432	66727936	22026416	24992
278	3.992047	97554432	66727936	24550800	24992
279	4.498694	97554432	66727936	27399840	24992
280	5.216363	97554432	66727936	30565752	24992
281	6.001124	97554432	66727936	17717496	24992
282	1.033439	97554432	66727936	21856440	24992
283	1.47004	97554432	66727936	22825648	24992
284	2.033651	97554432	66727936	24124592	24992
285	2.618946	97554432	66727936	25743920	24992
286	3.052924	97554432	66727936	27690312	24992
287	3.605924	97554432	66727936	29964280	24992
288	4.600137	97554432	66727936	16343880	24992
289	4.8579	97554432	66727936	19275864	24992
290	5.185023	97554432	66727936	22545368	24992
291	5.821858	97554432	66727936	26152576	24992
292	1.007722	97554432	66727936	30418912	24992
293	2.001212	97554432	66727936	15126536	24992
294	2.020123	97554432	66727936	16459280	24992
295	2.652149	97554432	66727936	18127416	24992
296	3.201912	97554432	66727936	20137048	24992
297	4.680274	97554432	66727936	22479248	24992
298	4.320048	97554432	66727936	25168640	24992
299	4.827377	97554432	66727936	28188184	24992
300	6.30071	97554432	66727936	15680952	24992
301	5.906443	97554432	66727936	19385232	24992
302	1.296069	97554432	66727936	23782888	24992
303	1.654598	97554432	66727936	24810552	24992
304	2.199183	97554432	66727936	26182408	24992
305	2.762721	97554432	66727936	27899344	24992
306	3.288895	97554432	66727936	29962688	24992
307	4.409608	97554432	66727936	16282480	24992
308	4.632277	97554432	66727936	19041184	24992
309	4.950751	97554432	66727936	22148504	24992
310	5.676845	97554432	66727936	25606808	24992
311	5.937887	97554432	66727936	29415864	24992
312	1.133175	97554432	66727936	17959904	24992
313	1.71173	97554432	66727936	19016736	24992
314	2.259517	97554432	66727936	20427472	24992
315	2.813909	97554432	66727936	22193128	24992
316	3.59591	97554432	66727936	24324832	24992
317	3.885404	97554432	66727936	26803592	24992
318	4.522926	97554432	66727936	29653888	24992
319	5.938295	97554432	66727936	16834280	24992
320	5.658065	97554432	66727936	20392504	24992
321	6.221514	97554432	66727936	24317328	24992
322	1.147102	97554432	66727936	28964864	24992
323	1.968061	97554432	66727936	30051080	24992
324	2.251143	97554432	66727936	31500792	24992
325	3.381315	97554432	66727936	17016200	24992
326	3.496897	97554432	66727936	19196680	24992
327	4.173604	97554432	66727936	21743768	24992
328	4.511181	97554432	66727936	24658320	24992
329	5.423306	97554432	66727936	27941240	24992
330	5.810228	97554432	66727936	31595672	24992
331	7.08387	97554432	66727936	19314144	24992
332	1.199129	97554432	66727936	24089000	24992
333	1.791553	97554432	66727936	25204376	24992
334	2.557155	97554432	66727936	26693168	24992
335	2.990791	97554432	66727936	28559544	24992
336	3.59136	97554432	66727936	30799352	24992
337	5.080839	97554432	66727936	17300296	24992
338	4.657278	97554432	66727936	20293176	24992
339	5.27368	97554432	66727936	23671320	24992
340	6.136109	97554432	66727936	27422232	24992
341	6.565205	97554432	66727936	31553296	24992
342	1.43472	97554432	66727936	20226504	24992
343	1.773551	97554432	66727936	21371176	24992
344	2.656779	97554432	66727936	22898920	24992
345	3.070981	97554432	66727936	24810808	24992
346	3.670454	97554432	66727936	27108248	24992
347	4.334998	97554432	66727936	29791680	24992
348	5.810981	97554432	66727936	16931160	24992
349	5.525771	97554432	66727936	20389632	24992
350	6.337813	97554432	66727936	24237992	24992
351	6.933046	97554432	66727936	28482144	24992
352	1.271377	97554432	66727936	17806856	24992
353	1.911676	97554432	66727936	18980816	24992
354	2.523498	97554432	66727936	20547656	24992
355	3.113561	97554432	66727936	22508192	24992
356	3.785512	97554432	66727936	24864200	24992
357	4.614962	97554432	66727936	27615864	24992
358	5.258489	97554432	66727936	30771216	24992
359	6.606302	97554432	66727936	18269456	24992
360	6.416441	97554432	66727936	22234448	24992
361	6.953845	97554432	66727936	26591184	24992
362	1.501297	97554432	66727936	31788376	24992
363	2.557151	97554432	66727936	16832232	24992
364	2.607452	97554432	66727936	18455824	24992
365	3.243026	97554432	66727936	20495672	24992
366	4.051879	97554432	66727936	22947560	24992
367	4.483943	97554432	66727936	25800536	24992
368	5.181979	97554432	66727936	29062584	24992
369	6.723877	97554432	66727936	17037240	24992
370	6.621756	97554432	66727936	21125024	24992
371	7.087355	97554432	66727936	25626896	24992
372	1.323232	97554432	66727936	30990256	24992
373	1.995686	97554432	66727936	32236112	24992
374	3.269583	97554432	66727936	17654120	24992
375	3.302233	97554432	66727936	19735712	24992
376	3.963775	97554432	66727936	22235256	24992
377	4.891862	97554432	66727936	25159632	24992
378	5.279432	97554432	66727936	28499688	24992
379	5.981824	97554432	66727936	32266832	24992
380	7.282633	97554432	66727936	20216536	24992
381	7.500961	97554432	66727936	24825416	24992
382	1.348693	97554432	66727936	30318112	24992
383	2.06386	97554432	66727936	31605656	24992
384	3.654816	97554432	66727936	17212376	24992
385	3.415114	97554432	66727936	19341560	24992
386	4.083651	97554432	66727936	21901000	24992
387	4.941929	97554432	66727936	24895248	24992
388	5.473182	97554432	66727936	28315936	24992
389	6.150528	97554432	66727936	32165520	24992
390	7.573969	97554432	66727936	20280416	24992
391	7.694613	97554432	66727936	24996640	24992
392	1.390269	97554432	66727936	30632456	24992
393	2.094789	97554432	66727936	31946392	24992
394	3.513296	97554432	66727936	17593168	24992
395	3.497537	97554432	66727936	19777976	24992
396	4.187076	97554432	66727936	22394616	24992
397	4.875471	97554432	66727936	25459608	24992
398	5.601876	97554432	66727936	28956104	24992
399	6.289104	97554432	66727936	32896400	24992
400	7.799179	97554432	66727936	21033008	24992
401	7.691464	97554432	66727936	25857816	24992
402	1.408182	97554432	66727936	31603200	24992
403	2.560424	97554432	66727936	32936720	24992
404	3.493133	97554432	66727936	18476048	24992
405	3.539205	97554432	66727936	20702776	24992
406	4.535594	97554432	66727936	23379040	24992
407	4.980971	97554432	66727936	26510120	24992
408	5.634765	97554432	66727936	30084232	24992
409	7.533892	97554432	66727936	18388392	24992
410	7.289135	97554432	66727936	22872184	24992
411	7.843823	97554432	66727936	27805360	24992
412	2.205131	97554432	66727936	17530080	24992
413	2.189903	97554432	66727936	18904384	24992
414	2.899346	97554432	66727936	20722864	24992
415	3.555271	97554432	66727936	22998224	24992
416	4.360991	97554432	66727936	25731872	24992
417	5.218294	97554432	66727936	28943832	24992
418	5.822307	97554432	66727936	32628968	24992
419	7.569015	97554432	66727936	20644952	24992
420	7.385626	97554432	66727936	25295112	24992
421	8.034186	97554432	66727936	30420312	24992
422	1.501472	97554432	66727936	20763776	24992
423	2.24303	97554432	66727936	22205136	24992
424	3.09596	97554432	66727936	24128592	24992
425	3.710165	97554432	66727936	26542184	24992
426	4.663782	97554432	66727936	29434896	24992
427	5.23065	97554432	66727936	32810672	24992
428	6.769059	97554432	66727936	20508336	24992
429	6.916479	97554432	66727936	24872208	24992
430	7.679106	97554432	66727936	29719248	24992
431	9.4308	97554432	66727936	19373504	24992
432	1.532301	97554432	66727936	25733800	24992
433	2.274607	97554432	66727936	27215344	24992
434	3.318347	97554432	66727936	29194608	24992
435	3.725157	97554432	66727936	31649864	24992
436	5.529155	97554432	66727936	18675128	24992
437	5.432752	97554432	66727936	22123792	24992
438	6.082451	97554432	66727936	26065752	24992
439	6.875181	97554432	66727936	30502328	24992
440	8.978922	97554432	66727936	19751920	24992
441	8.33898	97554432	66727936	25195864	24992
442	1.542768	97554432	66727936	31689256	24992
443	2.334875	97554432	66727936	33190176	24992
444	3.951857	97554432	66727936	19058592	24992
445	3.878732	97554432	66727936	21562656	24992
446	4.853041	97554432	66727936	24570616	24992
447	5.304548	97554432	66727936	28083096	24992
448	6.41139	97554432	66727936	32130952	24992
449	7.98051	97554432	66727936	20710576	24992
450	7.812749	97554432	66727936	25743064	24992
451	8.793016	97554432	66727936	31300832	24992
452	1.774763	97554432	66727936	22094192	24992
453	2.332458	97554432	66727936	23643952	24992
454	3.181832	97554432	66727936	25693160	24992
455	3.97222	97554432	66727936	28275240	24992
456	4.743063	97554432	66727936	31353160	24992
457	6.688405	97554432	66727936	19159736	24992
458	6.337769	97554432	66727936	23273536	24992
459	7.103139	97554432	66727936	27903544	24992
460	7.920607	97554432	66727936	33067392	24992
461	9.698761	97554432	66727936	22568800	24992
462	1.608618	97554432	66727936	29305384	24992
463	2.425462	97554432	66727936	30863832	24992
464	3.233743	97554432	66727936	32943224	24992
465	5.221206	97554432	66727936	19566128	24992
466	5.060329	97554432	66727936	22691048	24992
467	5.682013	97554432	66727936	26339784	24992
468	6.491783	97554432	66727936	30513800	24992
469	8.48276	97554432	66727936	19679376	24992
470	8.32371	97554432	66727936	24906904	24992
471	8.709507	97554432	66727936	30782048	24992
472	1.654772	97554432	66727936	21942496	24992
473	2.65923	97554432	66727936	23530016	24992
474	3.29575	97554432	66727936	25665480	24992
475	4.128449	97554432	66727936	28315624	24992
476	5.132432	97554432	66727936	31499176	24992
477	7.549247	97554432	66727936	19512416	24992
478	6.787469	97554432	66727936	23784408	24992
479	7.436914	97554432	66727936	28571816	24992
480	8.412101	97554432	66727936	33896952	24992
481	10.06301	97554432	66727936	23575464	24992
482	1.672322	97554432	66727936	30573088	24992
483	2.522441	97554432	66727936	32189992	24992
484	3.551702	97554432	66727936	34347368	24992
485	5.283502	97554432	66727936	20904776	24992
486	5.063056	97554432	66727936	24146624	24992
487	5.917095	97554432	66727936	27932568	24992
488	6.644219	97554432	66727936	32262352	24992
489	9.042677	97554432	66727936	21349024	24992
490	8.47894	97554432	66727936	26771712	24992
491	9.312632	97554432	66727936	32743696	24992
492	1.715152	97554432	66727936	23895120	24992
493	2.581544	97554432	66727936	25543656	24992
494	3.431295	97554432	66727936	27760728	24992
495	4.467613	97554432	66727936	30508440	24992
496	5.016405	97554432	66727936	33808872	24992
497	7.071491	97554432	66727936	21614144	24992
498	6.8643	97554432	66727936	26021840	24992
499	7.934195	97554432	66727936	31006744	24992
500	10.147208	97554432	66727936	20940544	24992
501	9.484822	97554432	66727936	27026840	24992
502	1.730621	97554432	66727936	34288128	24992
503	3.808357	97554432	66727936	19911768	24992
504	3.488084	97554432	66727936	22147160	24992
505	4.22887	97554432	66727936	24957832	24992
506	5.470106	97554432	66727936	28316760	24992
507	6.029811	97554432	66727936	32250680	24992
508	8.530532	97554432	66727936	21019072	24992
509	8.914806	97554432	66727936	26093312	24992
510	8.929195	97554432	66727936	31710776	24992
511	11.233013	97554432	66727936	22235248	24992
512	1.786591	97554432	66727936	29629992	24992
513	2.663672	97554432	66727936	31338760	24992
514	3.551107	97554432	66727936	33613176	24992
515	5.784404	97554432	66727936	20551088	24992
516	5.159395	97554432	66727936	23968576	24992
517	6.417003	97554432	66727936	27972728	24992
518	7.079101	97554432	66727936	32551176	24992
519	9.286401	97554432	66727936	21958968	24992
520	9.121734	97554432	66727936	27689592	24992
521	9.729993	97554432	66727936	33982168	24992
522	1.995207	97554432	66727936	25444632	24992
523	2.645856	97554432	66727936	27178544	24992
524	3.525727	97554432	66727936	29503400	24992
525	4.524607	97554432	66727936	32397328	24992
526	5.453691	97554432	66727936	35884088	24992
527	7.480562	97554432	66727936	23720664	24992
528	7.095155	97554432	66727936	28363464	24992
529	8.275855	97554432	66727936	33604368	24992
530	10.276279	97554432	66727936	23488168	24992
531	10.211741	97554432	66727936	29889840	24992
532	2.915711	97554432	66727936	21215928	24992
533	2.763101	97554432	66727936	22979008	24992
534	3.682386	97554432	66727936	25332256	24992
535	4.616568	97554432	66727936	28280936	24992
536	5.531705	97554432	66727936	31815176	24992
537	6.773967	97554432	66727936	35941624	24992
538	8.27355	97554432	66727936	24441528	24992
539	8.344442	97554432	66727936	29767064	24992
540	9.237414	97554432	66727936	35684736	24992
541	11.34581	97554432	66727936	25980960	24992
542	1.863877	97554432	66727936	33750816	24992
543	2.822942	97554432	66727936	35543144	24992
544	4.751095	97554432	66727936	21810056	24992
545	4.744926	97554432	66727936	24801472	24992
546	5.598284	97554432	66727936	28394352	24992
547	6.662726	97554432	66727936	32589200	24992
548	8.893912	97554432	66727936	21757240	24992
549	8.461618	97554432	66727936	27160560	24992
550	9.418718	97554432	66727936	33181104	24992
551	11.80114	97554432	66727936	24008160	24992
552	1.901117	97554432	66727936	31889672	24992
553	2.84365	97554432	66727936	33711280	24992
554	3.79772	97554432	66727936	36157056	24992
555	5.78855	97554432	66727936	23017520	24992
556	5.909023	97554432	66727936	26688776	24992
557	6.688114	97554432	66727936	30986688	24992
558	7.713822	97554432	66727936	35885408	24992
559	9.696316	97554432	66727936	25291904	24992
560	9.777971	97554432	66727936	31431080	24992
561	12.280818	97554432	66727936	22801768	24992
562	1.92629	97554432	66727936	30874808	24992
563	2.910803	97554432	66727936	32761032	24992
564	3.873921	97554432	66727936	35271168	24992
565	5.959401	97554432	66727936	22398304	24992
566	6.017315	97554432	66727936	26153480	24992
567	6.611339	97554432	66727936	30536616	24992
568	7.707293	97554432	66727936	35545176	24992
569	9.958051	97554432	66727936	25177128	24992
570	9.97035	97554432	66727936	31453936	24992
571	12.341013	97554432	66727936	23034616	24992
572	2.035783	97554432	66727936	31289672	24992
573	3.163595	97554432	66727936	33190152	24992
574	3.93486	97554432	66727936	35737472	24992
575	5.979767	97554432	66727936	22907112	24992
576	6.130944	97554432	66727936	26718648	24992
577	6.918502	97554432	66727936	31165848	24992
578	7.941995	97554432	66727936	36251912	24992
579	10.201357	97554432	66727936	25877976	24992
580	10.041552	97554432	66727936	32248528	24992
581	12.454398	97554432	66727936	23809800	24992
582	2.006665	97554432	66727936	32190128	24992
583	3.007805	97554432	66727936	34130168	24992
584	4.18156	97554432	66727936	36711608	24992
585	6.254541	97554432	66727936	23817912	24992
586	6.050536	97554432	66727936	27693320	24992
587	7.034995	97554432	66727936	32228168	24992
588	8.020142	97554432	66727936	37406928	24992
589	10.195031	97554432	66727936	26990024	24992
590	10.105788	97554432	66727936	33473600	24992
591	12.550938	97554432	66727936	24937736	24992
592	1.938102	97554432	66727936	33424600	24992
593	3.048961	97554432	66727936	35383576	24992
594	5.345686	97554432	66727936	22108216	24992
595	5.122642	97554432	66727936	25389232	24992
596	6.07767	97554432	66727936	29317264	24992
597	7.37992	97554432	66727936	33922120	24992
598	9.96755	97554432	66727936	23543064	24992
599	9.427028	97554432	66727936	29447136	24992
600	10.612767	97554432	66727936	36018416	24992
601	12.5808	97554432	66727936	27175248	24992
602	2.067305	97554432	66727936	35827568	24992
603	3.088887	97554432	66727936	37815792	24992
604	5.189111	97554432	66727936	24257464	24992
605	5.381056	97554432	66727936	27575352	24992
606	6.169533	97554432	66727936	31560040	24992
607	7.36064	97554432	66727936	36211944	24992
608	9.63178	97554432	66727936	25564520	24992
609	9.509994	97554432	66727936	31556536	24992
610	10.380674	97554432	66727936	38241024	24992
611	12.608826	97554432	66727936	29158072	24992
612	2.088337	97554432	66727936	37915120	24992
613	4.225149	97554432	66727936	23719328	24992
614	4.196651	97554432	66727936	26410832	24992
615	5.54863	97554432	66727936	29801104	24992
616	6.309833	97554432	66727936	33855184	24992
617	8.973873	97554432	66727936	23070904	24992
618	8.617676	97554432	66727936	28474784	24992
619	9.597767	97554432	66727936	34561096	24992
620	12.074608	97554432	66727936	25607328	24992
621	11.845918	97554432	66727936	33048496	24992
622	2.137299	97554432	66727936	26583920	24992
623	3.167005	97554432	66727936	28650472	24992
624	4.283035	97554432	66727936	31381728	24992
625	5.359525	97554432	66727936	34802840	24992
626	8.122456	97554432	66727936	23307504	24992
627	7.51639	97554432	66727936	28098856	24992
628	8.512075	97554432	66727936	33576504	24992
629	11.430713	97554432	66727936	24284544	24992
630	10.7591	97554432	66727936	31145752	24992
631	11.748811	97554432	66727936	38709056	24992
632	2.17055	97554432	66727936	31301504	24992
633	3.423974	97554432	66727936	33397168	24992
634	4.317708	97554432	66727936	36167312	24992
635	6.827058	97554432	66727936	23808312	24992
636	6.715267	97554432	66727936	27969496	24992
637	7.74257	97554432	66727936	32826144	24992
638	8.733188	97554432	66727936	38391368	24992
639	11.23899	97554432	66727936	28447152	24992
640	11.719583	97554432	66727936	35431312	24992
641	13.700335	97554432	66727936	27372240	24992
642	2.248148	97554432	66727936	36498264	24992
643	3.294406	97554432	66727936	38603568	24992
644	5.551912	97554432	66727936	25211120	24992
645	5.483036	97554432	66727936	28743752	24992
646	6.792488	97554432	66727936	32962584	24992
647	7.665736	97554432	66727936	37891944	24992
648	10.132213	97554432	66727936	27455112	24992
649	9.926916	97554432	66727936	33795448	24992
650	12.832538	97554432	66727936	25424032	24992
651	12.315641	97554432	66727936	33184768	24992
652	2.241581	97554432	66727936	27120920	24992
653	3.477116	97554432	66727936	29255496	24992
654	4.302735	97554432	66727936	32107824	24992
655	5.597425	97554432	66727936	35669456	24992
656	8.521035	97554432	66727936	24379824	24992
657	8.066109	97554432	66727936	29379120	24992
658	8.999283	97554432	66727936	35089048	24992
659	11.968105	97554432	66727936	25962176	24992
660	11.393912	97554432	66727936	33110136	24992
661	14.255909	97554432	66727936	25763608	24992
662	2.253661	97554432	66727936	35160600	24992
663	3.395315	97554432	66727936	37333568	24992
664	6.127268	97554432	66727936	24418432	24992
665	5.662797	97554432	66727936	28028680	24992
666	6.920292	97554432	66727936	32364256	24992
667	8.05963	97554432	66727936	37436848	24992
668	10.696858	97554432	66727936	27331600	24992
669	10.111549	97554432	66727936	33856312	24992
670	13.537184	97554432	66727936	25847168	24992
671	12.702852	97554432	66727936	33838496	24992
672	2.209394	97554432	66727936	28065864	24992
673	3.294519	97554432	66727936	30266656	24992
674	4.655914	97554432	66727936	33193304	24992
675	5.764622	97554432	66727936	36859432	24992
676	8.622705	97554432	66727936	25587640	24992
677	8.008099	97554432	66727936	30755464	24992
678	9.250214	97554432	66727936	36635184	24992
679	12.05895	97554432	66727936	27468904	24992
680	12.268486	97554432	66727936	34832848	24992
681	14.458581	97554432	66727936	27531248	24992
682	2.450751	97554432	66727936	37166776	24992
683	3.481923	97554432	66727936	39389160	24992
684	6.097984	97554432	66727936	26218416	24992
685	5.61257	97554432	66727936	29926584	24992
686	6.784006	97554432	66727936	34379480	24992
687	8.173016	97554432	66727936	39588568	24992
688	10.81609	97554432	66727936	29356408	24992
689	10.706725	97554432	66727936	36054304	24992
690	13.436062	97554432	66727936	27865304	24992
691	12.949998	97554432	66727936	36076464	24992
692	2.339802	97554432	66727936	30235544	24992
693	3.552506	97554432	66727936	32502032	24992
694	4.902673	97554432	66727936	35518600	24992
695	5.904898	97554432	66727936	39275168	24992
696	8.706453	97554432	66727936	27729536	24992
697	8.520599	97554432	66727936	32998216	24992
698	9.515859	97554432	66727936	39027728	24992
699	12.260227	97554432	66727936	29694528	24992
700	12.086426	97554432	66727936	37237776	24992
701	14.849493	97554432	66727936	29782016	24992
702	2.398236	97554432	66727936	39695248	24992
703	4.924971	97554432	66727936	25927664	24992
704	4.972967	97554432	66727936	28970272	24992
705	6.003604	97554432	66727936	32776256	24992
706	7.381349	97554432	66727936	37350560	24992
707	10.192354	97554432	66727936	27047464	24992
708	10.029707	97554432	66727936	33162712	24992
709	11.135067	97554432	66727936	40045352	24992
710	13.575144	97554432	66727936	31418928	24992
711	13.202648	97554432	66727936	39825808	24992
712	2.333138	97554432	66727936	33678752	24992
713	3.623262	97554432	66727936	35990056	24992
714	4.986676	97554432	66727936	39071696	24992
715	7.406991	97554432	66727936	27001896	24992
716	7.336011	97554432	66727936	31649176	24992
717	8.699868	97554432	66727936	37088440	24992
718	11.48409	97554432	66727936	27647296	24992
719	11.009091	97554432	66727936	34602016	24992
720	14.201839	97554432	66727936	27141048	24992
721	13.635604	97554432	66727936	35654720	24992
722	2.664382	97554432	66727936	30501224	24992
723	3.657518	97554432	66727936	32853760	24992
724	4.816271	97554432	66727936	35978760	24992
725	6.360137	97554432	66727936	39881776	24992
726	8.873022	97554432	66727936	28526640	24992
727	8.70474	97554432	66727936	34042184	24992
728	10.208284	97554432	66727936	40299384	24992
729	12.693385	97554432	66727936	31176712	24992
730	12.301854	97554432	66727936	39012728	24992
731	15.590412	97554432	66727936	31695584	24992
732	3.949781	97554432	66727936	25992968	24992
733	4.151072	97554432	66727936	28361552	24992
734	4.921598	97554432	66727936	31521168	24992
735	6.237431	97554432	66727936	35484672	24992
736	7.507585	97554432	66727936	40230016	24992
737	10.452388	97554432	66727936	29750624	24992
738	10.228906	97554432	66727936	36084928	24992
739	13.293602	97554432	66727936	27897752	24992
740	12.522601	97554432	66727936	35825960	24992
741	15.724294	97554432	66727936	29283968	24992
742	2.519019	97554432	66727936	39692384	24992
743	5.322713	97554432	66727936	26215904	24992
744	5.076302	97554432	66727936	29414560	24992
745	6.319258	97554432	66727936	33436688	24992
746	7.976844	97554432	66727936	38240584	24992
747	10.675145	97554432	66727936	28253624	24992
748	10.157926	97554432	66727936	34688432	24992
749	11.590617	97554432	66727936	41938784	24992
750	14.063152	97554432	66727936	33573848	24992
751	16.134901	97554432	66727936	27568976	24992
752	2.535807	97554432	66727936	38126184	24992
753	3.811219	97554432	66727936	40553248	24992
754	6.611358	97554432	66727936	27813008	24992
755	6.419392	97554432	66727936	31862216	24992
756	7.87063	97554432	66727936	36724648	24992
757	11.177645	97554432	66727936	27120600	24992
758	10.400494	97554432	66727936	33610944	24992
759	11.596089	97554432	66727936	40948448	24992
760	14.662924	97554432	66727936	32931064	24992
761	13.975053	97554432	66727936	41905208	24992
762	2.587332	97554432	66727936	36285144	24992
763	4.02209	97554432	66727936	38742496	24992
764	5.026693	97554432	66727936	42021328	24992
765	7.864289	97554432	66727936	29948488	24992
766	7.587246	97554432	66727936	34870608	24992
767	9.267208	97554432	66727936	40618712	24992
768	12.267643	97554432	66727936	31203216	24992
769	11.313694	97554432	66727936	38629568	24992
770	15.157663	97554432	66727936	31157688	24992
771	14.498839	97554432	66727936	40223320	24992
772	2.624416	97554432	66727936	35052920	24992
773	3.946622	97554432	66727936	37538520	24992
774	5.254676	97554432	66727936	40868928	24992
775	8.21041	97554432	66727936	29135048	24992
776	7.966943	97554432	66727936	34126192	24992
777	9.053622	97554432	66727936	39946768	24992
778	12.704009	97554432	66727936	30760992	24992
779	12.173916	97554432	66727936	38244800	24992
780	15.281647	97554432	66727936	31025792	24992
781	14.801477	97554432	66727936	40185040	24992
782	2.691708	97554432	66727936	35261536	24992
783	4.016086	97554432	66727936	37791864	24992
784	5.501924	97554432	66727936	41146536	24992
785	9.358746	97554432	66727936	29467224	24992
786	8.173099	97554432	66727936	34506400	24992
787	9.270614	97554432	66727936	40387616	24992
788	12.694453	97554432	66727936	31272936	24992
789	11.96299	97554432	66727936	38859664	24992
790	15.878224	97554432	66727936	31694968	24992
791	14.766207	97554432	66727936	40971424	24992
792	2.803577	97554432	66727936	36028296	24992
793	3.921355	97554432	66727936	38572440	24992
794	5.370737	97554432	66727936	41966920	24992
795	8.298436	97554432	66727936	30199304	24992
796	8.266562	97554432	66727936	35311936	24992
797	9.560693	97554432	66727936	41270552	24992
798	12.416904	97554432	66727936	32070744	24992
799	12.33208	97554432	66727936	39759376	24992
800	15.659012	97554432	66727936	32618784	24992
801	14.972069	97554432	66727936	41997576	24992
802	2.966686	97554432	66727936	37065104	24992
803	4.111568	97554432	66727936	39646680	24992
804	5.463686	97554432	66727936	43085744	24992
805	9.219419	97554432	66727936	31259296	24992
806	7.991396	97554432	66727936	36420336	24992
807	9.676164	97554432	66727936	42441968	24992
808	12.459666	97554432	66727936	33191224	24992
809	12.362632	97554432	66727936	40940688	24992
810	15.567875	97554432	66727936	33735864	24992
811	15.360712	97554432	66727936	43224048	24992
812	2.74432	97554432	66727936	38272848	24992
813	4.060032	97554432	66727936	40875504	24992
814	7.493423	97554432	66727936	28664032	24992
815	6.807488	97554432	66727936	33005872	24992
816	8.467247	97554432	66727936	38232320	24992
817	11.67803	97554432	66727936	29001880	24992
818	11.307378	97554432	66727936	35960304	24992
819	12.233533	97554432	66727936	43799920	24992
820	15.546201	97554432	66727936	36207120	24992
821	17.809706	97554432	66727936	30836584	24992
822	2.778254	97554432	66727936	42355288	24992
823	5.887293	97554432	66727936	29085968	24992
824	5.732577	97554432	66727936	32597288	24992
825	6.911028	97554432	66727936	36987856	24992
826	8.574809	97554432	66727936	42259760	24992
827	11.668461	97554432	66727936	32542976	24992
828	11.154541	97554432	66727936	39579416	24992
829	14.679304	97554432	66727936	31994520	24992
830	14.253835	97554432	66727936	40800040	24992
831	17.521044	97554432	66727936	34752920	24992
832	3.012366	97554432	66727936	30107720	24992
833	4.172878	97554432	66727936	32768864	24992
834	5.949432	97554432	66727936	36328640	24992
835	7.033408	97554432	66727936	40780336	24992
836	10.624928	97554432	66727936	30593328	24992
837	10.024705	97554432	66727936	36828792	24992
838	11.282245	97554432	66727936	43982320	24992
839	14.267605	97554432	66727936	35760888	24992
840	14.441498	97554432	66727936	44725528	24992
841	17.204351	97554432	66727936	38189552	24992
842	2.795923	97554432	66727936	34821368	24992
843	4.290851	97554432	66727936	37560984	24992
844	5.93724	97554432	66727936	41218256	24992
845	9.372218	97554432	66727936	30132328	24992
846	8.940147	97554432	66727936	35626744	24992
847	10.364112	97554432	66727936	42045056	24992
848	13.421936	97554432	66727936	33555848	24992
849	12.90118	97554432	66727936	41828280	24992
850	16.214226	97554432	66727936	35222560	24992
851	18.286526	97554432	66727936	30706992	24992
852	2.866723	97554432	66727936	42828472	24992
853	6.121471	97554432	66727936	29817016	24992
854	5.763739	97554432	66727936	33554896	24992
855	7.419739	97554432	66727936	38233248	24992
856	8.87142	97554432	66727936	43877792	24992
857	11.838255	97554432	66727936	34453296	24992
858	11.807651	97554432	66727936	41951264	24992
859	15.156263	97554432	66727936	34601176	24992
860	14.453851	97554432	66727936	44003008	24992
861	18.066573	97554432	66727936	38210792	24992
862	3.108229	97554432	66727936	35413704	24992
863	4.312394	97554432	66727936	38242888	24992
864	5.851962	97554432	66727936	42023384	24992
865	9.259026	97554432	66727936	31125656	24992
866	8.989986	97554432	66727936	36795480	24992
867	10.207524	97554432	66727936	43459304	24992
868	13.886754	97554432	66727936	35035424	24992
869	13.275219	97554432	66727936	43551512	24992
870	16.481449	97554432	66727936	36958928	24992
871	18.678095	97554432	66727936	32560488	24992
872	2.892643	97554432	66727936	45035200	24992
873	5.985646	97554432	66727936	31753640	24992
874	6.094901	97554432	66727936	35568168	24992
875	7.373452	97554432	66727936	40336744	24992
876	11.348489	97554432	66727936	30785224	24992
877	10.228992	97554432	66727936	37487592	24992
878	11.942791	97554432	66727936	45135840	24992
879	14.924195	97554432	66727936	37477400	24992
880	17.647092	97554432	66727936	32103616	24992
881	16.152345	97554432	66727936	42640392	24992
882	2.922151	97554432	66727936	39415920	24992
883	4.39907	97554432	66727936	42323856	24992
884	8.002389	97554432	66727936	30570920	24992
885	7.575027	97554432	66727936	35387824	24992
886	8.901485	97554432	66727936	41183752	24992
887	12.81572	97554432	66727936	32456008	24992
888	11.999421	97554432	66727936	40191976	24992
889	16.013689	97554432	66727936	33617016	24992
890	15.122271	97554432	66727936	43295464	24992
891	18.839702	97554432	66727936	38011128	24992
892	2.994833	97554432	66727936	35799440	24992
893	4.523952	97554432	66727936	38716368	24992
894	6.038536	97554432	66727936	42616280	24992
895	9.663747	97554432	66727936	31893528	24992
896	8.891628	97554432	66727936	37745688	24992
897	10.603841	97554432	66727936	44568288	24992
898	14.089077	97554432	66727936	36318584	24992
899	13.875632	97554432	66727936	45111552	24992
900	17.14068	97554432	66727936	38756424	24992
901	19.158228	97554432	66727936	34460112	24992
902	4.85849	97554432	66727936	31367536	24992
903	4.593282	97554432	66727936	34313560	24992
904	6.074225	97554432	66727936	38271104	24992
905	7.656487	97554432	66727936	43185440	24992
906	11.847503	97554432	66727936	33483352	24992
907	10.867801	97554432	66727936	40400808	24992
908	14.672217	97554432	66727936	33050384	24992
909	13.6835	97554432	66727936	41928256	24992
910	17.504787	97554432	66727936	36197136	24992
911	19.80411	97554432	66727936	32516360	24992
912	3.05753	97554432	66727936	45474840	24992
913	6.477604	97554432	66727936	32514552	24992
914	6.175067	97554432	66727936	36498488	24992
915	7.702698	97554432	66727936	41461568	24992
916	11.691875	97554432	66727936	32198680	24992
917	10.971928	97554432	66727936	39170752	24992
918	12.923781	97554432	66727936	47131824	24992
919	15.740886	97554432	66727936	39659320	24992
920	17.941195	97554432	66727936	34572136	24992
921	17.260319	97554432	66727936	45542872	24992
922	3.105018	97554432	66727936	42570320	24992
923	4.659219	97554432	66727936	45619296	24992
924	8.001522	97554432	66727936	33704640	24992
925	7.969702	97554432	66727936	38719808	24992
926	9.382696	97554432	66727936	44750544	24992
927	13.22031	97554432	66727936	35865224	24992
928	12.570347	97554432	66727936	43896312	24992
929	16.394715	97554432	66727936	37198832	24992
930	15.759126	97554432	66727936	47272768	24992
931	19.051757	97554432	66727936	41974240	24992
932	3.157095	97554432	66727936	39832336	24992
933	4.643344	97554432	66727936	42874416	24992
934	6.364722	97554432	66727936	46926912	24992
935	9.774168	97824768	67252224	35881456	24992
936	9.619188	97824768	67252224	41966472	24992
937	13.466857	97824768	67776512	33701288	24992
938	12.668195	97824768	67776512	41816992	24992
939	16.692277	97824768	67776512	35566120	24992
940	15.423914	97824768	67776512	45748816	24992
941	19.430796	97824768	67776512	40822552	24992
942	3.174947	97824768	67776512	38955624	24992
943	4.752777	97824768	67776512	42018752	24992
944	6.328216	97824768	67776512	46109208	24992
945	9.967944	98095104	67776512	35274504	24992
946	9.957961	98095104	67776512	41416176	24992
947	13.354487	98095104	67776512	33400360	24992
948	13.158871	98095104	67776512	41586848	24992
949	16.99053	98095104	67776512	35614008	24992
950	16.083975	98095104	67776512	46076536	24992
951	19.477019	98095104	67776512	41466256	24992
952	3.073135	98095104	67776512	39765952	24992
953	4.595477	98095104	67776512	42858320	24992
954	6.279412	98095104	67776512	46983048	24992
955	10.266748	98365440	68300800	36138848	24992
956	9.497238	98365440	68300800	42331888	24992
957	13.695907	98365440	68300800	34211656	24992
958	13.048764	98365440	68300800	42477368	24992
959	17.118375	98365440	68300800	36426976	24992
960	15.908697	98365440	68300800	46921712	24992
961	19.763851	98365440	68300800	42311400	24992
962	3.223125	98635776	68300800	40558984	24992
963	5.234695	98635776	68300800	43680592	24992
964	6.255512	98635776	68300800	47844512	24992
965	9.848715	98635776	68300800	36941784	24992
966	9.861181	98635776	68300800	43193408	24992
967	13.763624	98635776	68300800	35143768	24992
968	13.026757	98635776	68300800	43486408	24992
969	17.202178	98635776	68300800	37388112	24992
970	16.285383	98906112	68300800	47840128	24992
971	19.738379	98906112	68300800	43059600	24992
972	3.289817	98906112	68300800	41451680	24992
973	4.923865	98906112	68300800	44602776	24992
974	6.586169	98906112	68300800	48805552	24992
975	10.184254	99176448	68825088	37810744	24992
976	9.881452	99176448	68825088	44120728	24992
977	13.762548	99176448	68825088	35946352	24992
978	12.739418	99176448	68825088	44366792	24992
979	17.515301	99176448	68825088	38339304	24992
980	16.130844	99176448	68825088	48875320	24992
981	19.797879	99176448	68825088	44106912	24992
982	3.254487	99176448	68825088	42398552	24992
983	4.965351	99176448	68825088	45624200	24992
984	8.992261	99446784	68825088	34317784	24992
985	8.526399	99446784	68825088	39660792	24992
986	10.001645	99446784	68825088	46029480	24992
987	13.852345	99446784	68825088	37660328	24992
988	13.505408	99446784	68825088	46159040	24992
989	17.38142	99446784	68825088	39868560	24992
990	19.151532	99446784	68825088	35814000	24992
991	18.586756	99446784	68825088	47557408	24992
992	3.352375	99446784	68825088	45434208	24992
993	4.993322	99446784	68825088	48643776	24992
994	8.725798	99717120	69349376	36872416	24992
995	8.153345	99717120	69349376	42225768	24992
996	10.076831	99717120	69349376	48652792	24992
997	13.593502	99717120	69349376	39901528	24992
998	13.507831	99717120	69349376	48478264	24992
999	17.011127	99717120	69349376	41926424	24992
1000	19.722494	99717120	69349376	37737192	24992
