x	Duration	RSS	HeapTotal	HeapUsed	External
0	NA	104628224	74067968	20107368	24992
1	0.345094	104628224	74067968	20151920	24992
2	0.371007	104628224	74067968	20223128	24992
3	0.456372	104628224	74067968	20319496	24992
4	0.567922	104628224	74067968	20442112	24992
5	0.631971	104628224	74067968	20592432	24992
6	0.737085	104628224	74067968	20771168	24992
7	0.845003	104628224	74067968	20979248	24992
8	0.975575	104628224	74067968	21217632	24992
9	0.76333	104628224	74067968	21488168	24992
10	0.469036	104628224	74067968	21790944	24992
11	0.524944	104628224	74067968	22126688	24992
12	0.126562	104628224	74067968	22486976	24992
13	0.188438	104628224	74067968	22592320	24992
14	0.241809	104628224	74067968	22734168	24992
15	0.296225	104628224	74067968	22913280	24992
16	0.354681	104628224	74067968	23131192	24992
17	0.445368	104628224	74067968	23388432	24992
18	0.497839	104628224	74067968	23685680	24992
19	0.534835	104628224	74067968	24024432	24992
20	0.599576	104628224	74067968	24405728	24992
21	0.667026	104628224	74067968	24829968	24992
22	0.156256	104628224	74067968	25302136	24992
23	0.235529	104628224	74067968	25435416	24992
24	0.30271	104628224	74067968	25614384	24992
25	0.423902	104628224	74067968	25841072	24992
26	0.443377	104628224	74067968	26116912	24992
27	0.520714	104628224	74067968	26442424	24992
28	0.596433	104628224	74067968	26818304	24992
29	0.669596	104628224	74067968	27245608	24992
30	0.7489	104628224	74067968	27726232	24992
31	1.045448	104628224	74067968	28260168	24992
32	0.188297	104628224	74067968	28863240	24992
33	0.279658	104628224	74067968	29027808	24992
34	0.364481	104628224	74067968	29248336	24992
35	0.452062	104628224	74067968	29525936	24992
36	0.536985	104628224	74067968	29861864	24992
37	0.641517	104628224	74067968	30257368	24992
38	0.729754	104628224	74067968	30711944	24992
39	0.812916	104628224	74067968	31227152	24992
40	0.907371	104628224	74067968	31804960	24992
41	1.004533	104628224	74067968	32445320	24992
42	0.217499	104628224	74067968	33175992	24992
43	0.323487	104628224	74067968	33368400	24992
44	0.424395	104628224	74067968	33626120	24992
45	0.528292	104628224	74067968	33950760	24992
46	0.630752	104628224	74067968	34342448	24992
47	0.73557	104628224	74067968	34802264	24992
48	1.079739	104628224	74067968	35331072	24992
49	0.95467	104628224	74067968	35929824	24992
50	1.062401	104628224	74067968	36600504	24992
51	3.184927	104628224	74067968	21461512	24992
52	0.267891	104628224	74067968	22321720	24992
53	0.415331	104628224	74067968	22548480	24992
54	0.527167	104628224	74067968	22851840	24992
55	0.785954	104628224	74067968	23232864	24992
56	0.810794	104628224	74067968	23693944	24992
57	0.917805	104628224	74067968	24233576	24992
58	1.060931	104628224	74067968	24853624	24992
59	1.182037	104628224	74067968	25555008	24992
60	1.313281	104628224	74067968	26339568	24992
61	1.478065	104628224	74067968	27209144	24992
62	0.297233	104628224	74067968	28211712	24992
63	0.447152	104628224	74067968	28466312	24992
64	0.585283	104628224	74067968	28806968	24992
65	0.936575	104628224	74067968	29234472	24992
66	0.853006	104628224	74067968	29750344	24992
67	0.955167	104628224	74067968	30354992	24992
68	1.095939	104628224	74067968	31049328	24992
69	1.453345	104628224	74067968	31834352	24992
70	1.374063	104628224	74067968	32711736	24992
71	1.510052	104628224	74067968	33681576	24992
72	0.307894	104628224	74067968	34805328	24992
73	0.461419	104628224	74067968	35087864	24992
74	0.610963	104628224	74067968	35465672	24992
75	0.755557	104628224	74067968	35939648	24992
76	1.129187	104628224	74067968	36512032	24992
77	2.715842	104628224	74067968	21578912	24992
78	1.43918	104628224	74067968	22347520	24992
79	1.367463	104628224	74067968	23216080	24992
80	1.623165	104628224	74067968	24186872	24992
81	1.825022	104628224	74067968	25261792	24992
82	0.338455	104628224	74067968	26510728	24992
83	0.506354	104628224	74067968	26821152	24992
84	0.665995	104628224	74067968	27237192	24992
85	0.832278	104628224	74067968	27757552	24992
86	0.991642	104628224	74067968	28384832	24992
87	1.385867	104628224	74067968	29119440	24992
88	1.333781	104628224	74067968	29962232	24992
89	1.499856	104628224	74067968	30914184	24992
90	1.669949	104628224	74067968	31977208	24992
91	1.847014	104628224	74067968	33151264	24992
92	0.366381	104628224	74067968	34523360	24992
93	0.552752	104628224	74067968	34861664	24992
94	0.725169	104628224	74067968	35313776	24992
95	0.922275	104628224	74067968	35880672	24992
96	1.096274	104628224	74067968	36563648	24992
97	1.282939	104628224	74067968	37363256	24992
98	2.748548	104628224	74067968	22322736	24992
99	1.656865	104628224	74067968	23358184	24992
100	1.844357	104628224	74067968	24517520	24992
101	2.018382	104628224	74067968	25793664	24992
102	0.400932	104628224	74067968	27289024	24992
103	0.60328	104628224	74067968	27655288	24992
104	0.796148	104628224	74067968	28149720	24992
105	0.997192	104628224	74067968	28774712	24992
106	1.188876	104628224	74067968	29525920	24992
107	1.386975	104628224	74067968	30407176	24992
108	1.603877	104628224	74067968	31419352	24992
109	1.784122	104628224	74067968	32563344	24992
110	2.204846	104628224	74067968	33841120	24992
111	2.198529	104628224	74067968	35252608	24992
112	0.461399	104628224	74067968	36910840	24992
113	0.696732	104628224	74067968	37317496	24992
114	0.916772	104628224	74067968	37860648	24992
115	2.388154	104628224	74067968	22472720	24992
116	1.381073	104628224	74067968	23292352	24992
117	1.623789	104628224	74067968	24251040	24992
118	1.831536	104628224	74067968	25349960	24992
119	2.068496	104628224	74067968	26589968	24992
120	2.304884	104628224	74067968	27973248	24992
121	2.547388	104628224	74067968	29502968	24992
122	0.484015	104628224	74067968	31294736	24992
123	0.699511	104628224	74067968	31729376	24992
124	0.929365	104628224	74067968	32309728	24992
125	1.148877	104628224	74067968	33036752	24992
126	1.375114	104628224	74067968	33912904	24992
127	1.609672	104628224	74067968	34938064	24992
128	1.84525	104628224	74067968	36112744	24992
129	2.052252	104628224	74067968	37436336	24992
130	3.730689	104628224	74067968	22883920	24992
131	2.623776	104628224	74067968	24512184	24992
132	0.500721	104628224	74067968	26425160	24992
133	0.741301	104628224	74067968	26887640	24992
134	1.172812	104628224	74067968	27505216	24992
135	1.240653	104628224	74067968	28278712	24992
136	1.697747	104628224	74067968	29209600	24992
137	1.705086	104628224	74067968	30298360	24992
138	1.965232	104628224	74067968	31545904	24992
139	2.197144	104628224	74067968	32953152	24992
140	2.508969	104628224	74067968	34521872	24992
141	3.276505	104628224	74067968	36251992	24992
142	0.528096	104898560	74067968	38292920	24992
143	1.967454	104898560	74067968	22653024	24992
144	1.113212	104898560	74067968	23307784	24992
145	1.384718	104898560	74067968	24127776	24992
146	1.651344	104898560	74067968	25114512	24992
147	2.11153	104898560	74067968	26268384	24992
148	2.079194	104898560	74067968	27590112	24992
149	2.357391	104898560	74067968	29080896	24992
150	2.611244	104898560	74067968	30742504	24992
151	2.890171	104898560	74067968	32574848	24992
152	0.546598	104898560	74067968	34730136	24992
153	0.837843	104898560	74067968	35248568	24992
154	1.107019	104898560	74067968	35940480	24992
155	1.376755	104898560	74067968	36806984	24992
156	1.7008	104898560	74067968	37849424	24992
157	3.247602	104898560	74067968	23002704	24992
158	2.374124	104898560	74067968	24398760	24992
159	2.654637	104898560	74067968	25973032	24992
160	2.942161	104898560	74067968	27727400	24992
161	3.138114	104898560	74067968	29667672	24992
162	0.58595	104898560	74067968	31944256	24992
163	0.875686	104898560	74067968	32490592	24992
164	1.171135	104898560	74067968	33219832	24992
165	1.449511	104898560	74067968	34132688	24992
166	1.752976	104898560	74067968	35231024	24992
167	2.077804	104898560	74067968	36514744	24992
168	2.553637	104898560	74067968	37985480	24992
169	3.92549	104898560	74067968	23575200	24992
170	3.112551	104898560	74067968	25423288	24992
171	3.423683	104898560	74067968	27465136	24992
172	0.643355	104898560	74067968	29870848	24992
173	0.995801	104898560	74067968	30445112	24992
174	1.231493	104898560	74067968	31211440	24992
175	1.526537	104898560	74067968	32170888	24992
176	1.890082	104898560	74067968	33324736	24992
177	2.134676	104898560	74067968	34673600	24992
178	2.667786	104898560	74067968	36218272	24992
179	2.77017	104898560	74067968	37959672	24992
180	4.339508	104898560	74067968	23839144	24992
181	3.762808	104898560	74067968	25980072	24992
182	0.646404	104898560	74067968	28511672	24992
183	0.971286	104898560	74067968	29113840	24992
184	1.277368	104898560	74067968	29917368	24992
185	1.613788	104898560	74067968	30923232	24992
186	1.932587	104898560	74067968	32132840	24992
187	2.262515	104898560	74067968	33546624	24992
188	2.813612	104898560	74067968	35167000	24992
189	2.892485	104898560	74067968	36991832	24992
190	3.254054	104898560	74067968	39024632	24992
191	4.879135	104898560	74067968	25056480	24992
192	0.676874	104898560	74067968	27704552	24992
193	1.008661	104898560	74067968	28334656	24992
194	1.341939	104898560	74067968	29175488	24992
195	1.871675	104898560	74067968	30227792	24992
196	2.03409	104898560	74067968	31493152	24992
197	2.367278	104898560	74067968	32971968	24992
198	2.6923	104898560	74067968	34665160	24992
199	3.112227	104898560	74067968	36573616	24992
200	3.58971	104898560	74067968	38702184	24992
201	5.150263	104898560	74067968	24910704	24992
202	0.944927	104898560	74067968	27688152	24992
203	1.064299	104898560	74067968	28346168	24992
204	1.402359	104898560	74067968	29224168	24992
205	1.759184	104898560	74067968	30323032	24992
206	2.105134	104898560	74067968	31644176	24992
207	2.515906	104898560	74067968	33188000	24992
208	2.825955	104898560	74067968	34955488	24992
209	3.21565	104898560	74067968	36955784	24992
210	3.534598	104898560	74067968	39190944	24992
211	5.436969	104898560	74067968	25450928	24992
212	0.731899	104898560	74067968	28390888	24992
213	1.102681	104898560	74067968	29101648	24992
214	1.464149	104898560	74067968	30049792	24992
215	1.824801	104898560	74067968	31236352	24992
216	2.447635	104898560	74067968	32662680	24992
217	2.572515	104898560	74067968	34329328	24992
218	2.94823	104898560	74067968	36239432	24992
219	3.35737	104898560	74067968	38389432	24992
220	4.97047	104898560	74067968	24700904	24992
221	4.204866	104898560	74067968	27338728	24992
222	0.760116	104898560	74067968	30474216	24992
223	1.368902	104898560	74067968	31220184	24992
224	1.52915	104898560	74067968	32205616	24992
225	1.918723	104898560	74067968	33438680	24992
226	2.29823	104898560	74067968	34920832	24992
227	2.715961	104898560	74067968	36652416	24992
228	3.277595	104898560	74067968	38640832	24992
229	4.744158	104898560	74067968	24783624	24992
230	4.192595	104898560	74067968	27270288	24992
231	4.240347	104898560	74067968	30012920	24992
232	0.787274	104898560	74067968	33262432	24992
233	1.196981	104898560	74067968	34029072	24992
234	1.597749	104898560	74067968	35051920	24992
235	2.218465	104898560	74067968	36331464	24992
236	2.388808	104898560	74067968	37872200	24992
237	2.779812	104898560	74067968	39670808	24992
238	4.475576	104898560	74067968	25500552	24992
239	3.892013	104898560	74067968	27818648	24992
240	3.987701	104898560	74067968	30401040	24992
241	4.435646	104898560	74067968	33243000	24992
242	0.829411	104898560	74067968	36621176	24992
243	1.234854	104898560	74067968	37415752	24992
244	1.644525	104898560	74067968	38475520	24992
245	2.054602	104898560	74067968	39814032	24992
246	3.881423	104898560	74067968	25173752	24992
247	2.900741	104898560	74067968	27050600	24992
248	3.32606	104898560	74067968	29181280	24992
249	3.943633	104898560	74067968	31582024	24992
250	4.164946	104898560	74067968	34262320	24992
251	4.567216	104898560	74067968	37206496	24992
252	2.045438	104898560	74067968	24439416	24992
253	1.368874	104898560	74067968	25261840	24992
254	1.805046	104898560	74067968	26358776	24992
255	2.265379	104898560	74067968	27731232	24992
256	2.601622	104898560	74067968	29380688	24992
257	3.021295	104898560	74067968	31322400	24992
258	3.405005	104898560	74067968	33527368	24992
259	3.862963	104898560	74067968	36011576	24992
260	4.504299	104898560	74067968	38776616	24992
261	6.031	104898560	74067968	25770912	24992
262	0.882639	104898560	74067968	29382568	24992
263	1.335737	104898560	74067968	30233000	24992
264	1.768064	104898560	74067968	31367256	24992
265	2.217191	104898560	74067968	32788024	24992
266	2.645911	104898560	74067968	34493264	24992
267	3.549418	104898560	74067968	36485104	24992
268	3.550756	104898560	74067968	38764640	24992
269	5.297111	104898560	74067968	25282912	24992
270	4.650731	104898560	74067968	28140960	24992
271	4.941788	104898560	74067968	31289320	24992
272	0.906656	104898560	74067968	35022424	24992
273	1.386203	104898560	74067968	35900696	24992
274	1.83571	104898560	74067968	37081104	24992
275	2.296766	104898560	74067968	38546536	24992
276	2.727115	104898560	74067968	40307536	24992
277	4.697596	104898560	74067968	26123792	24992
278	3.694042	104898560	74067968	28477296	24992
279	4.352331	104898560	74067968	31128640	24992
280	4.608155	104898560	74067968	34079984	24992
281	5.076733	104898560	74067968	37330944	24992
282	2.424628	104898560	74067968	24937104	24992
283	1.429891	104898560	74067968	25843312	24992
284	1.944566	104898560	74067968	27051952	24992
285	2.415293	104898560	74067968	28574512	24992
286	2.834217	104898560	74067968	30391032	24992
287	3.314848	104898560	74067968	32512848	24992
288	3.802667	104898560	74067968	34940712	24992
289	4.507702	104898560	74067968	37675528	24992
290	4.757134	104898560	74067968	40719256	24992
291	6.706267	104898560	74067968	27779376	24992
292	0.978918	104898560	74067968	31775320	24992
293	1.462098	104898560	74067968	32709496	24992
294	1.962346	104898560	74067968	33955352	24992
295	2.438575	104898560	74067968	35513728	24992
296	2.933613	104898560	74067968	37386072	24992
297	3.415398	104898560	74067968	39572832	24992
298	5.465201	104898560	74067968	26015152	24992
299	4.657215	104898560	74067968	28833568	24992
300	5.115442	104898560	74067968	31970088	24992
301	5.445454	104898560	74067968	35424760	24992
302	1.010109	104898560	74067968	39520968	24992
303	1.507751	104898560	74067968	40484608	24992
304	3.276151	104898560	74067968	25553472	24992
305	2.542078	104898560	74067968	27162536	24992
306	3.028635	104898560	74067968	29100608	24992
307	3.770794	104898560	74067968	31352416	24992
308	4.049821	104898560	74067968	33928880	24992
309	4.540216	104898560	74067968	36830816	24992
310	5.27932	104898560	74067968	40066808	24992
311	6.958416	104898560	74067968	27508728	24992
312	1.035339	104898560	74067968	31734504	24992
313	1.567192	104898560	74067968	32724528	24992
314	2.069882	104898560	74067968	34048016	24992
315	2.823377	104898560	74067968	35705720	24992
316	3.113172	104898560	74067968	37689544	24992
317	3.634344	104898560	74067968	40006320	24992
318	5.715587	104898560	74067968	26553872	24992
319	5.014411	104898560	74067968	29545416	24992
320	5.267379	104898560	74067968	32867968	24992
321	5.818017	104898560	74067968	36526856	24992
322	1.059957	104898560	74067968	40865496	24992
323	2.950075	104898560	74067968	25669888	24992
324	2.243296	104898560	74067968	27027248	24992
325	2.80391	104898560	74067968	28728040	24992
326	3.566995	104898560	74067968	30767616	24992
327	3.734625	104898560	74067968	33149432	24992
328	4.297249	104898560	74067968	35874288	24992
329	5.411212	104898560	74067968	38945584	24992
330	7.231693	104898560	74067968	26439832	24992
331	6.542986	104898560	74067968	30200792	24992
332	1.090138	104898560	74067968	34675880	24992
333	1.871765	104898560	74067968	35721768	24992
334	2.189095	104898560	74067968	37116488	24992
335	2.888233	104898560	74067968	38860744	24992
336	3.48137	104898560	74067968	40968592	24992
337	5.58325	104898560	74067968	27222296	24992
338	4.64906	104898560	74067968	30023056	24992
339	5.304364	104898560	74067968	33182288	24992
340	5.557821	104898560	74067968	36691256	24992
341	6.231107	104898560	74067968	40554184	24992
342	1.128982	104898560	74067968	29046824	24992
343	1.914894	104898560	74067968	30120696	24992
344	2.246014	104898560	74067968	31552448	24992
345	2.814928	104898560	74067968	33345664	24992
346	3.575842	104898560	74067968	35497008	24992
347	4.174471	104898560	74067968	38008968	24992
348	4.579431	104898560	74067968	40882304	24992
349	6.557793	104898560	74067968	27976896	24992
350	5.906608	104898560	74067968	31602408	24992
351	6.449634	104898560	74067968	35571336	24992
352	1.215703	104898560	74067968	40301160	24992
353	1.832068	104898560	74067968	41405072	24992
354	3.94809	104898560	74067968	26672648	24992
355	3.127167	104898560	74067968	28510328	24992
356	3.473372	104898560	74067968	30717216	24992
357	4.054479	104898560	74067968	33296128	24992
358	4.640124	104898560	74067968	36243936	24992
359	5.230208	104898560	74067968	39563544	24992
360	7.575354	104898560	74067968	27313000	24992
361	6.956429	104898560	74067968	31395216	24992
362	1.241042	104898560	74067968	36234920	24992
363	1.888137	104898560	74067968	37368384	24992
364	2.390247	104898560	74067968	38874624	24992
365	2.965131	104898560	74067968	40758296	24992
366	5.040135	104898560	74067968	26957320	24992
367	4.393094	104898560	74067968	29606736	24992
368	4.790667	104898560	74067968	32628808	24992
369	5.631391	104898560	74067968	36032080	24992
370	5.957645	104898560	74067968	39818336	24992
371	8.158124	104898560	74067968	28071384	24992
372	1.284956	104898560	74067968	33039536	24992
373	2.066488	104898560	74067968	34197264	24992
374	2.441329	104898560	74067968	35740720	24992
375	3.038678	104898560	74067968	37670904	24992
376	3.66754	104898560	74067968	39989200	24992
377	6.061811	104898560	74067968	26780008	24992
378	4.877179	104898560	74067968	29876376	24992
379	5.497983	104898560	74067968	33375432	24992
380	6.34887	104898560	74067968	37254512	24992
381	6.951715	104898560	74067968	41525944	24992
382	1.301786	104898560	74067968	30470360	24992
383	1.955433	104898560	74067968	31669328	24992
384	2.48848	104898560	74067968	33250120	24992
385	3.110893	104898560	74067968	35226864	24992
386	3.742701	104898560	74067968	37602904	24992
387	4.369523	104898560	74067968	40374784	24992
388	6.793382	104898560	74067968	27583240	24992
389	5.63976	104898560	74067968	31153768	24992
390	6.469059	104898560	74067968	35134168	24992
391	6.901068	104898560	74067968	39514288	24992
392	1.335817	104898560	74067968	28874552	24992
393	2.013866	104898560	74067968	30088120	24992
394	2.667662	104898560	74067968	31706016	24992
395	3.325738	104898560	74067968	33732896	24992
396	4.024984	104898560	74067968	36179936	24992
397	4.489357	104898560	74067968	39023992	24992
398	5.366383	104898560	74067968	42273752	24992
399	7.491948	104898560	74067968	29743064	24992
400	6.429076	104898560	74067968	33807752	24992
401	7.256553	104898560	74067968	38283840	24992
402	2.891601	104898560	74067968	27358048	24992
403	2.249528	104898560	74067968	28599432	24992
404	2.612373	104898560	74067968	30254528	24992
405	3.261084	104898560	74067968	32325456	24992
406	4.123315	104898560	74067968	34811056	24992
407	4.655679	104898560	74067968	37719336	24992
408	5.224392	104898560	74067968	41054080	24992
409	7.873713	104898560	74067968	28798088	24992
410	6.930654	104898560	74067968	32955688	24992
411	7.589824	104898560	74067968	37548240	24992
412	1.385272	104898560	74067968	43017120	24992
413	3.64263	104898560	74067968	28040976	24992
414	2.940761	104898560	74067968	29733192	24992
415	3.344867	104898560	74067968	31849216	24992
416	4.000231	104898560	74067968	34390560	24992
417	4.682713	104898560	74067968	37357560	24992
418	5.503981	104898560	74067968	40759280	24992
419	8.133814	104898560	74067968	28703232	24992
420	6.781338	104898560	74067968	32986888	24992
421	7.695117	104898560	74067968	37726360	24992
422	1.424669	104898560	74067968	43391752	24992
423	3.696439	104898560	74067968	28503312	24992
424	2.846983	104898560	74067968	30298568	24992
425	3.434757	104898560	74067968	32546728	24992
426	4.125241	104898560	74067968	35245256	24992
427	5.29892	104898560	74067968	38397840	24992
428	5.757878	104898560	74067968	42012704	24992
429	8.233435	104898560	74067968	30027904	24992
430	10.215559	104898560	74067968	34537776	24992
431	8.368766	104898560	74067968	39514400	24992
432	1.458843	104898560	74067968	29689752	24992
433	2.197586	104898560	74067968	31064408	24992
434	3.1092	104898560	74067968	32896832	24992
435	3.496217	104898560	74067968	35188160	24992
436	4.210633	104898560	74067968	37951864	24992
437	4.913647	104898560	74067968	41163912	24992
438	7.391187	104898560	74067968	28898240	24992
439	6.681939	104898560	74067968	33035624	24992
440	7.069632	104898560	74067968	37660056	24992
441	7.993463	104898560	74067968	42753760	24992
442	1.487739	104898560	74067968	32631968	24992
443	2.236279	104898560	74067968	34045000	24992
444	2.988525	104898560	74067968	35914720	24992
445	3.66644	104898560	74067968	38259112	24992
446	4.289951	104898560	74067968	41078152	24992
447	7.069005	104898560	74067968	28497856	24992
448	5.741627	104898560	74067968	32253976	24992
449	6.813754	104898560	74067968	36476712	24992
450	7.171593	104898560	74067968	41184552	24992
451	9.870133	104898560	74067968	30437120	24992
452	1.512742	104898560	74067968	36606552	24992
453	2.293486	104898560	74067968	38042448	24992
454	3.03976	104898560	74067968	39957464	24992
455	3.828368	104898560	74067968	42341768	24992
456	6.334455	104898560	74067968	29142744	24992
457	5.426255	104898560	74067968	32485080	24992
458	5.901133	104898560	74067968	36314064	24992
459	6.790807	104898560	74067968	40625984	24992
460	9.193562	104898560	74067968	29631592	24992
461	8.081909	104898560	74067968	34906840	24992
462	1.546729	104898560	74067968	41203728	24992
463	2.333591	104898560	74067968	42662112	24992
464	4.998742	104898560	74067968	28558944	24992
465	3.729379	104898560	74067968	30990232	24992
466	4.460164	104898560	74067968	33919504	24992
467	5.209387	104898560	74067968	37326704	24992
468	6.191443	104898560	74067968	41227872	24992
469	8.81599	104898560	74067968	29782464	24992
470	7.752989	104898560	74067968	34674928	24992
471	8.249499	104898560	74067968	40047896	24992
472	1.774705	104898560	74067968	30768712	24992
473	2.287361	104898560	74067968	32261656	24992
474	3.02921	104898560	74067968	34248360	24992
475	3.787599	104898560	74067968	36725448	24992
476	4.757051	104898560	74067968	39700000	24992
477	5.3118	104898560	74067968	43172768	24992
478	8.106784	104898560	74067968	31035824	24992
479	7.230515	104898560	74067968	35528184	24992
480	7.899243	104898560	74067968	40515832	24992
481	10.558798	104898560	74067968	30237112	24992
482	1.615303	104898560	74067968	36760896	24992
483	2.420455	104898560	74067968	38275128	24992
484	3.251514	104898560	74067968	40293672	24992
485	4.167171	104898560	74067968	42833128	24992
486	6.448376	104898560	74067968	29847752	24992
487	5.869511	104898560	74067968	33384888	24992
488	6.205276	104898560	74067968	37430088	24992
489	7.032343	104898560	74067968	41984216	24992
490	9.906108	104898560	74067968	31179096	24992
491	8.627084	104898560	74067968	36768632	24992
492	1.916506	104898560	74067968	43428952	24992
493	3.234912	104898560	74067968	44971040	24992
494	4.975217	104898560	74067968	30754240	24992
495	4.378326	104898560	74067968	33330840	24992
496	5.41363	104898560	74067968	36417080	24992
497	5.602536	104898560	74067968	40030840	24992
498	6.757706	104898560	74067968	44161288	24992
499	9.337293	104898560	74067968	32652288	24992
500	8.165395	104898560	74067968	37809976	24992
501	8.924475	104898560	74067968	43487712	24992
502	1.678247	104898560	74067968	34181560	24992
503	2.521706	104898560	74067968	35751744	24992
504	3.486415	104898560	74067968	37844624	24992
505	4.221407	104898560	74067968	40461152	24992
506	4.827943	104898560	74067968	43602832	24992
507	7.755055	104898560	74067968	31246184	24992
508	6.6668	104898560	74067968	35439840	24992
509	7.300878	104898560	74067968	40161096	24992
510	8.299305	104898560	74067968	45415032	24992
511	10.89088	104898560	74067968	34799224	24992
512	1.697312	104898560	74067968	41686448	24992
513	2.579668	104898560	74067968	43284520	24992
514	3.419795	104898560	74067968	45414552	24992
515	6.043729	104898560	74067968	31824968	24992
516	5.180856	104898560	74067968	35022312	24992
517	5.955199	104898560	74067968	38754608	24992
518	6.556874	104898560	74067968	43022448	24992
519	9.585198	104898560	74067968	31905344	24992
520	8.262548	104898560	74067968	37248624	24992
521	9.299274	104898560	74067968	43130152	24992
522	1.85551	104898560	74067968	34132680	24992
523	2.507918	104898560	74067968	35758632	24992
524	3.317378	104898560	74067968	37925944	24992
525	4.151148	104898560	74067968	40635272	24992
526	5.191208	104898560	74067968	43889096	24992
527	7.977495	104898560	74067968	31677640	24992
528	6.687798	104898560	74067968	36019904	24992
529	7.595901	104898560	74067968	40930464	24992
530	10.827796	104898560	74067968	30740952	24992
531	9.929589	104898560	74067968	36724744	24992
532	1.75826	104898560	74067968	43854384	24992
533	3.201301	104898560	74067968	45508408	24992
534	5.284784	104898560	74067968	31483752	24992
535	4.451856	104898560	74067968	34239576	24992
536	5.100637	104898560	74067968	37548688	24992
537	5.943108	104898560	74067968	41415032	24992
538	6.833684	104898560	74067968	45831784	24992
539	9.822973	104898560	74592256	34601520	24992
540	8.976533	104898560	74592256	40144480	24992
541	9.404294	104898560	74592256	46230376	24992
542	1.960513	104898560	74592256	37075432	24992
543	2.580956	104898560	74592256	38757264	24992
544	3.498307	104898560	74592256	40998944	24992
545	4.30881	104898560	74592256	43803880	24992
546	7.287245	104898560	74592256	31246000	24992
547	6.286383	104898560	74592256	35186208	24992
548	6.942193	104898560	74592256	39676896	24992
549	8.010653	104898560	74592256	44732208	24992
550	10.684782	105168896	74592256	34299512	24992
551	9.789722	105168896	74592256	40511376	24992
552	1.809344	105168896	74592256	32375048	24992
553	2.628037	105168896	74592256	34084808	24992
554	3.50697	105168896	74592256	36373704	24992
555	4.396444	105168896	74592256	39222544	24992
556	5.268782	105168896	74592256	42669808	24992
557	8.683896	105168896	74592256	30914616	24992
558	7.290241	105168896	74592256	35494768	24992
559	8.134219	105168896	74592256	40658288	24992
560	8.895004	105168896	74592256	46378384	24992
561	11.849417	105168896	74592256	36379584	24992
562	1.852525	105168896	74592256	43873832	24992
563	2.663483	105168896	74592256	45611504	24992
564	5.567292	105168896	74592256	31789080	24992
565	4.471693	105168896	74592256	34685784	24992
566	5.359068	105168896	74592256	38168224	24992
567	6.473015	105168896	74592256	42225432	24992
568	7.353134	105168896	74592256	46864888	24992
569	9.984381	105168896	74592256	35757288	24992
570	9.038541	105168896	74592256	41582448	24992
571	12.388295	105168896	74592256	32406592	24992
572	1.87371	105168896	74592256	40056992	24992
573	2.708924	105168896	74592256	41822672	24992
574	3.660536	105168896	74592256	44191744	24992
575	6.617886	105168896	74592256	31240976	24992
576	5.664599	105168896	74592256	34778536	24992
577	6.358653	105168896	74592256	38907880	24992
578	7.581214	105168896	74592256	43628120	24992
579	10.538693	105168896	74592256	33143312	24992
580	9.366222	105168896	74592256	39063600	24992
581	10.093266	105168896	74592256	45562760	24992
582	1.915154	105168896	74592256	37197912	24992
583	2.837683	105168896	74592256	38991600	24992
584	3.690275	105168896	74592256	41382312	24992
585	4.809901	105168896	74592256	44370696	24992
586	7.727291	105168896	74592256	32076864	24992
587	6.738343	105168896	74592256	36286320	24992
588	7.409434	105168896	74592256	41079544	24992
589	8.579093	105168896	74592256	46495736	24992
590	11.70121	105168896	74592256	36278704	24992
591	10.554884	105168896	74592256	42888448	24992
592	1.897587	105168896	74592256	35045408	24992
593	3.028642	105168896	74592256	36868976	24992
594	3.800681	105168896	74592256	39296648	24992
595	4.690606	105168896	74592256	42331360	24992
596	5.846293	105168896	74592256	45974808	24992
597	8.692817	105168896	74592256	34172312	24992
598	7.740402	105168896	74592256	39034480	24992
599	8.539085	105168896	74592256	44526168	24992
600	11.774544	105168896	74592256	34668968	24992
601	10.622917	105168896	74592256	41375704	24992
602	1.920303	105168896	74592256	33895584	24992
603	2.861055	105168896	74592256	35744992	24992
604	4.029196	105168896	74592256	38209856	24992
605	4.740593	105168896	74592256	41291088	24992
606	5.952134	105168896	74592256	44990200	24992
607	9.112141	105168896	74592256	33433104	24992
608	7.742523	105168896	74592256	38378112	24992
609	8.847229	105168896	74592256	43934600	24992
610	12.088477	105168896	74592256	34340096	24992
611	10.640171	105168896	74592256	41142344	24992
612	4.160098	105168896	74592256	32917160	24992
613	2.910522	105168896	74592256	34809200	24992
614	3.865065	105168896	74592256	37318168	24992
615	5.039753	105168896	74592256	40445856	24992
616	5.825185	105168896	74592256	44205928	24992
617	9.088717	105168896	74592256	32874152	24992
618	8.093097	105168896	74592256	37893952	24992
619	8.754135	105168896	74592256	43533928	24992
620	12.330374	105168896	74592256	34163568	24992
621	11.001696	105168896	74592256	41066264	24992
622	4.270602	105168896	74592256	33074440	24992
623	2.952874	105168896	74592256	34980392	24992
624	3.923016	105168896	74592256	37519744	24992
625	4.978797	105168896	74592256	40694664	24992
626	5.902716	105168896	74592256	44505296	24992
627	9.490291	105168896	74592256	33224000	24992
628	8.234974	105168896	74592256	38322280	24992
629	8.963525	105168896	74592256	44046048	24992
630	12.46177	105168896	74592256	34688040	24992
631	11.235381	105168896	74592256	41699200	24992
632	2.071928	105168896	74592256	34706264	24992
633	3.039385	105168896	74592256	36639568	24992
634	4.033674	105168896	74592256	39216152	24992
635	5.090883	105168896	74592256	42442768	24992
636	6.643388	105168896	74592256	46309600	24992
637	9.269093	105168896	74592256	34891048	24992
638	8.243407	105168896	74592256	40056864	24992
639	9.326215	105168896	74592256	45864704	24992
640	12.54556	105168896	74592256	36404400	24992
641	11.779451	105168896	74592256	43520312	24992
642	2.07284	105168896	74592256	36361344	24992
643	3.173339	105168896	74592256	38323024	24992
644	4.227614	105168896	74592256	40936808	24992
645	5.105162	105168896	74592256	44209912	24992
646	6.301238	105168896	74592256	48132040	24992
647	9.307407	105168896	74592256	36503440	24992
648	8.43553	105168896	74592256	41737344	24992
649	9.203129	105168896	74592256	47632160	24992
650	12.598636	105168896	74592256	37983744	24992
651	11.458066	105168896	74592256	45211168	24992
652	2.151023	105168896	74592256	38001528	24992
653	3.213907	105168896	74592256	40004456	24992
654	4.302125	105168896	74592256	42655328	24992
655	5.321391	105168896	74592256	45968896	24992
656	8.73888	105168896	74592256	34140952	24992
657	7.476522	105168896	74592256	38783496	24992
658	8.269604	105168896	74592256	44121808	24992
659	11.821753	105168896	74592256	34487208	24992
660	10.628415	105168896	74592256	41130040	24992
661	11.626545	105168896	74592256	48468272	24992
662	2.378971	105168896	74592256	40875200	24992
663	3.117805	105168896	74592256	42892224	24992
664	4.393578	105168896	74592256	45580344	24992
665	5.457667	105168896	74592256	48940584	24992
666	8.709524	105168896	74592256	36783984	24992
667	7.64388	105168896	74592256	41491344	24992
668	8.386428	105168896	74592256	46893920	24992
669	12.089951	105168896	74592256	36970680	24992
670	10.74677	105168896	74592256	43725712	24992
671	14.466519	105168896	74592256	35632632	24992
672	2.18347	105168896	74592256	44485520	24992
673	3.305782	105168896	74592256	46542544	24992
674	4.51877	105168896	74592256	49270320	24992
675	7.470071	105168896	74592256	36446792	24992
676	6.618516	105168896	74592256	40546328	24992
677	7.486257	105168896	74592256	45340944	24992
678	11.245418	105168896	74592256	35135336	24992
679	9.82428	105168896	74592256	41295032	24992
680	10.941458	105168896	74592256	48127760	24992
681	13.95982	105168896	74592256	39462344	24992
682	2.347356	105168896	74592256	48425416	24992
683	5.523105	105168896	74592256	34390104	24992
684	4.479384	105168896	74592256	37152592	24992
685	5.441956	105168896	74592256	40613376	24992
686	6.428137	105168896	74592256	44783504	24992
687	7.73332	105168896	74592256	49620992	24992
688	11.142584	105168896	74592256	38886704	24992
689	10.07031	105168896	74592256	45112328	24992
690	13.679175	105168896	74592256	36396408	24992
691	12.31823	105168896	74592256	44036392	24992
692	2.474635	105168896	74592256	37639456	24992
693	3.273564	105168896	74592256	39740256	24992
694	4.37745	105168896	74592256	42539928	24992
695	5.732777	105168896	74592256	46056160	24992
696	9.609511	105168896	74592256	34575400	24992
697	7.936471	105168896	74592256	39507616	24992
698	8.962437	105168896	74592256	45112800	24992
699	12.660926	105168896	74592256	35804704	24992
700	11.312091	105168896	74592256	42833992	24992
701	15.645182	105168896	74592256	35318496	24992
702	2.273367	105168896	74592256	44580184	24992
703	3.511359	105168896	74592256	46709192	24992
704	4.62515	105168896	74592256	49569232	24992
705	7.853722	105168896	74592256	36917792	24992
706	6.67816	105168896	74592256	41201480	24992
707	7.93845	105168896	74592256	46183104	24992
708	11.97628	105168896	74592256	36214448	24992
709	10.179262	105168896	74592256	42610416	24992
710	11.317854	105168896	74592256	49717128	24992
711	14.958196	105168896	74592256	41279368	24992
712	4.893971	105168896	74592256	34506944	24992
713	3.523607	105168896	74592256	36670816	24992
714	4.46466	105168896	74592256	39561888	24992
715	5.791504	105168896	74592256	43175920	24992
716	6.772129	105168896	74592256	47491064	24992
717	10.404317	105168896	74592256	36723000	24992
718	9.444264	105168896	74592256	42485872	24992
719	10.343584	105168896	74592256	48961768	24992
720	13.749811	105168896	74592256	40087416	24992
721	12.683826	105168896	74592256	48018656	24992
722	2.311934	105168896	74592256	41511328	24992
723	3.394121	105168896	74592256	43696016	24992
724	4.504704	105168896	74592256	46607328	24992
725	5.867991	105168896	74592256	50246368	24992
726	9.151459	105168896	74592256	38417808	24992
727	8.2361	105168896	74592256	43520952	24992
728	9.236563	105168896	74592256	49351024	24992
729	12.921184	105168896	74592256	39731024	24992
730	11.668505	105168896	74592256	47047608	24992
731	15.208809	105168896	74592256	39321416	24992
732	2.544316	105168896	74592256	48930992	24992
733	5.930594	105168896	74592256	35158160	24992
734	4.608723	105168896	74592256	38106720	24992
735	5.752065	105168896	74592256	41792488	24992
736	7.11882	105168896	74592256	46219368	24992
737	10.908505	105168896	74592256	35843416	24992
738	9.284116	105168896	74592256	41745448	24992
739	10.422079	105168896	74592256	48418568	24992
740	14.620612	105168896	74592256	39857112	24992
741	13.000528	105168896	74592256	47992160	24992
742	2.409555	105168896	74592256	41831768	24992
743	3.657095	105168896	74592256	44072296	24992
744	4.944516	105168896	74592256	47081088	24992
745	5.832936	105168896	74592256	50820552	24992
746	9.831036	105168896	74592256	39121272	24992
747	8.490005	105168896	74592256	44352352	24992
748	9.686464	105168896	74592256	50332368	24992
749	13.056099	105168896	74592256	40877808	24992
750	12.142953	105168896	74592256	48360464	24992
751	15.773329	105168896	74592256	40647504	24992
752	2.444122	105168896	74592256	50473824	24992
753	6.29193	105168896	74592256	36655144	24992
754	4.731182	105168896	74592256	39678120	24992
755	6.110907	105168896	74592256	43477904	24992
756	7.309068	105168896	74592256	48016184	24992
757	11.027246	105168896	74592256	37577888	24992
758	9.733119	105168896	74592256	43630344	24992
759	10.913888	105168896	74592256	50443176	24992
760	14.405556	105168896	74592256	41844472	24992
761	13.34914	105168896	74592256	50193256	24992
762	2.487319	105168896	74592256	43929280	24992
763	3.745471	105168896	74592256	46225720	24992
764	5.086876	105168896	74592256	49285976	24992
765	8.691343	105168896	74592256	37272104	24992
766	7.457811	105168896	74592256	41888336	24992
767	8.445578	105168896	74592256	47281992	24992
768	12.747961	105168896	74592256	37713000	24992
769	11.056526	105168896	74592256	44610152	24992
770	14.938778	105168896	74592256	37026336	24992
771	13.570549	105168896	74592256	45461336	24992
772	2.514557	105168896	74592256	40146360	24992
773	3.758822	105168896	74592256	42497328	24992
774	5.251347	105168896	74592256	45625304	24992
775	6.06246	105168896	74592256	49503392	24992
776	10.346261	105168896	74592256	38326800	24992
777	8.890316	105168896	74592256	43749592	24992
778	9.733435	105168896	74592256	49948928	24992
779	14.129778	105168896	74592256	40912584	24992
780	12.511463	105168896	74592256	48671896	24992
781	16.435741	105168896	74592256	41387480	24992
782	2.537525	105168896	74592256	51577888	24992
783	6.314516	105168896	74592256	37744688	24992
784	5.147544	105168896	74592256	40879280	24992
785	7.026938	105168896	74592256	44797392	24992
786	7.528687	105439232	74592256	49545112	24992
787	11.989877	105439232	74592256	39243320	24992
788	10.065238	105439232	74592256	45566048	24992
789	14.213408	105439232	75116544	37315896	24992
790	12.709991	105439232	75116544	45165520	24992
791	17.13897	105439232	75116544	38571256	24992
792	2.8164	105439232	75116544	48939696	24992
793	3.877731	105439232	75116544	51319752	24992
794	7.815924	105439232	75116544	38429320	24992
795	6.257461	105439232	75116544	42401728	24992
796	7.769947	105439232	75116544	47160016	24992
797	12.103684	105439232	75116544	37257856	24992
798	10.261139	105439232	75116544	43606576	24992
799	11.319318	105439232	75116544	50750808	24992
800	15.492498	105709568	75116544	42643312	24992
801	14.038198	105709568	75116544	51400824	24992
802	2.615571	105709568	75116544	45688256	24992
803	3.93362	105709568	75116544	48097120	24992
804	5.472447	105709568	75116544	51306048	24992
805	8.942138	105709568	75116544	39243768	24992
806	7.667803	105709568	75116544	44087056	24992
807	9.058806	105709568	75116544	49704544	24992
808	13.069652	105709568	75116544	40270552	24992
809	11.502553	105709568	75116544	47529976	24992
810	15.810127	105709568	75116544	40029048	24992
811	14.222115	105709568	75116544	48910200	24992
812	2.860231	105709568	75116544	43755432	24992
813	3.830129	105709568	75116544	46191472	24992
814	5.305931	105709568	75116544	49437680	24992
815	9.282434	105709568	75116544	37834056	24992
816	8.019883	105709568	75116544	42703904	24992
817	9.281242	105709568	75116544	48386552	24992
818	13.531725	105709568	75116544	39233528	24992
819	11.617888	105709568	75116544	46545000	24992
820	16.152712	105709568	75116544	39371544	24992
821	14.384254	105709568	75116544	48334536	24992
822	2.6831	105709568	75116544	43453560	24992
823	4.159154	105709568	75116544	45917576	24992
824	5.129097	105709568	75116544	49202568	24992
825	6.684523	105709568	75116544	53306440	24992
826	10.542925	105709568	75116544	41973744	24992
827	9.131798	105709568	75116544	47734960	24992
828	13.604143	105709568	75116544	38830688	24992
829	11.729643	105709568	75116544	46234704	24992
830	16.609726	105709568	75116544	39200664	24992
831	14.338068	105709568	75116544	48255696	24992
832	2.705911	105709568	75116544	43513736	24992
833	3.922768	105709568	75116544	46005680	24992
834	5.234865	105709568	75116544	49326272	24992
835	6.52054	105709568	75116544	53476288	24992
836	11.638774	105709568	75116544	42271552	24992
837	10.177381	105709568	75116544	48098512	24992
838	15.100323	105709568	75116544	39183304	24992
839	13.065342	105709568	75116544	46697016	24992
840	18.873925	105709568	75116544	39765152	24992
841	23.171072	105709568	75116544	48990992	24992
842	3.137371	105979904	76165120	24000528	24992
843	4.38365	105979904	76165120	26573536	24992
844	6.646181	106790912	76165120	14198064	24992
845	6.885051	106790912	76165120	18481000	24992
846	7.895582	106790912	76165120	23622088	24992
847	9.460155	106790912	76165120	29644264	24992
848	11.056348	106790912	76165120	20073344	24992
849	12.006917	106790912	76165120	27807368	24992
850	13.897109	106790912	76165120	20350000	24992
851	14.911402	106790912	76165120	29789952	24992
852	2.753504	106790912	76165120	24605048	24992
853	4.159369	106790912	76165120	27205944	24992
854	6.168459	106790912	76165120	14759936	24992
855	6.668837	106790912	76165120	19093032	24992
856	8.038725	106790912	76165120	24284560	24992
857	10.53385	106790912	76165120	14906880	24992
858	10.916118	106790912	76165120	21832664	24992
859	12.074383	106790912	76165120	29708736	24992
860	13.908588	106790912	76165120	22044272	24992
861	15.924353	106790912	76165120	16429488	24992
862	2.658484	106790912	76165120	27879952	24992
863	4.491336	106790912	76165120	14571984	24992
864	5.600887	106790912	76165120	18084360	24992
865	7.006385	106790912	76165120	22458224	24992
866	8.090734	106790912	76165120	27716952	24992
867	10.190946	106790912	76165120	17919488	24992
868	11.109405	106790912	76165120	24942784	24992
869	13.108993	106790912	76165120	17191232	24992
870	13.895455	106790912	76165120	25947904	24992
871	15.686067	106790912	76165120	19784592	24992
872	3.203029	106790912	76165120	15085448	24992
873	4.26165	106790912	76165120	17738432	24992
874	5.800469	106790912	76165120	21273872	24992
875	6.792691	106790912	76165120	25706216	24992
876	8.849448	106790912	76165120	15457152	24992
877	9.805135	106790912	76165120	21645152	24992
878	11.19478	106790912	76165120	28719104	24992
879	13.149814	106790912	76165120	20498040	24992
880	14.423647	106790912	76165120	29388232	24992
881	15.776729	106790912	76165120	22862760	24992
882	2.85963	106790912	76165120	19210312	24992
883	4.298167	106790912	76165120	21891200	24992
884	5.789409	106790912	76165120	25464600	24992
885	6.866509	106790912	76165120	29935392	24992
886	9.196905	106790912	76165120	19113512	24992
887	9.725296	106790912	76165120	25367880	24992
888	12.160382	106790912	76165120	16879752	24992
889	12.779871	106790912	76165120	24931672	24992
890	14.818684	106790912	76165120	18342824	24992
891	16.152257	106790912	76165120	28206144	24992
892	2.885616	106790912	76165120	23910624	24992
893	4.235954	106790912	76165120	26619464	24992
894	5.626709	106790912	76165120	30229928	24992
895	7.547772	106790912	76165120	18578160	24992
896	8.583897	106790912	76165120	24035816	24992
897	9.76472	106790912	76165120	30383560	24992
898	11.546901	106790912	76165120	21335072	24992
899	12.840659	106790912	76165120	29463424	24992
900	14.662088	106790912	76165120	22326568	24992
901	16.552201	106790912	76165120	17170048	24992
902	2.892073	106790912	76165120	29041280	24992
903	4.75751	106790912	76165120	15746736	24992
904	6.086803	106790912	76165120	19398768	24992
905	7.065495	106790912	76165120	23979984	24992
906	8.699703	106790912	76165120	29450288	24992
907	10.439996	106790912	76165120	19794024	24992
908	11.514853	106790912	76165120	27112456	24992
909	13.542987	106790912	76165120	19565464	24992
910	14.323329	106790912	76165120	28705336	24992
911	16.489723	106790912	76165120	22708504	24992
912	2.811911	106790912	76165120	19615912	24992
913	4.2421	106790912	76165120	22380736	24992
914	5.702944	106790912	76165120	26065408	24992
915	7.322869	106790912	76165120	30679952	24992
916	8.943884	106790912	76165120	20033472	24992
917	10.177769	106790912	76165120	26481544	24992
918	12.645187	106790912	76165120	18195512	24992
919	13.033925	106790912	76165120	26499952	24992
920	15.395534	106790912	76165120	20062368	24992
921	16.100953	106790912	76165120	30242024	24992
922	2.866152	106790912	76165120	26109280	24992
923	4.369344	106790912	76165120	28902008	24992
924	6.67422	106790912	76165120	16720728	24992
925	7.19484	106790912	76165120	21377520	24992
926	8.841955	106790912	76165120	26960656	24992
927	10.849711	106790912	76165120	17758496	24992
928	12.244365	106790912	76165120	25205184	24992
929	14.008355	106790912	76165120	18096016	24992
930	14.564317	106790912	76165120	27424248	24992
931	16.995522	106790912	76165120	21917304	24992
932	2.989178	106790912	76165120	19228096	24992
933	4.547167	106790912	76165120	22048776	24992
934	6.278132	106790912	76165120	25818264	24992
935	7.72703	106790912	76165120	30540800	24992
936	9.505234	106790912	76165120	20014936	24992
937	10.397523	106790912	76165120	26595512	24992
938	12.359529	106790912	76165120	18513616	24992
939	13.457051	106790912	76165120	27028888	24992
940	15.440638	106790912	76165120	20677040	24992
941	16.219868	106790912	76165120	31071008	24992
942	3.031422	106790912	76165120	27138544	24992
943	4.59842	106790912	76165120	29997896	24992
944	6.509963	106790912	76165120	17770648	24992
945	7.58611	106790912	76165120	22515192	24992
946	9.044883	106790912	76165120	28244528	24992
947	11.048447	106790912	76165120	19034480	24992
948	11.887478	106790912	76165120	26662872	24992
949	14.473216	106790912	76165120	19618984	24992
950	14.974975	106790912	76165120	29152408	24992
951	16.950656	106790912	76165120	23611416	24992
952	3.072944	106790912	76165120	20920864	24992
953	4.624449	106790912	76165120	23801056	24992
954	6.189397	106790912	76165120	27643264	24992
955	8.332293	106790912	76165120	16860560	24992
956	9.358853	106790912	76165120	22630888	24992
957	10.456502	106790912	76165120	29340592	24992
958	12.968782	106790912	76165120	21018448	24992
959	13.682014	106790912	76165120	29653768	24992
960	15.930581	106790912	76165120	23233240	24992
961	17.600129	106790912	76165120	18784008	24992
962	3.107166	106790912	76165120	31405296	24992
963	4.881367	106790912	76165120	18175280	24992
964	6.199731	106790912	76165120	22045424	24992
965	7.493689	106790912	76165120	26887304	24992
966	9.72197	106790912	76165120	17246488	24992
967	11.057969	106790912	76165120	24022376	24992
968	12.27549	106790912	76165120	31778848	24992
969	14.060449	106790912	76165120	24217864	24992
970	16.240027	106790912	76165120	18757232	24992
971	16.867065	106790912	76165120	29426400	24992
972	3.133408	106790912	76165120	26140440	24992
973	4.718648	106790912	76165120	29072864	24992
974	6.994138	106790912	76165120	17257624	24992
975	7.69358	106790912	76165120	22166576	24992
976	9.200782	106790912	76165120	28027032	24992
977	11.769949	106790912	76165120	19165216	24992
978	12.440514	106790912	76165120	26993216	24992
979	14.604346	106790912	76165120	20218168	24992
980	15.517681	106790912	76165120	30038984	24992
981	17.279362	106790912	76165120	24813560	24992
982	3.15611	106790912	76165120	22448784	24992
983	4.777172	106790912	76165120	25413816	24992
984	6.461778	106790912	76165120	29371776	24992
985	8.564975	106790912	76165120	18582512	24992
986	9.654636	106790912	76165120	24542096	24992
987	11.215087	106790912	76165120	31455392	24992
988	12.859976	106790912	76165120	23215304	24992
989	14.24988	106790912	76165120	32119096	24992
990	16.102934	106790912	76165120	25697744	24992
991	18.119299	106790912	76165120	21295048	24992
992	3.646209	106790912	76165120	18100856	24992
993	4.62756	106790912	76165120	21089128	24992
994	6.408839	106790912	76165120	25079264	24992
995	7.723189	106790912	76165120	30080992	24992
996	10.278617	106790912	76165120	20195928	24992
997	11.593209	106790912	76165120	27200312	24992
998	13.326382	106790912	76165120	19645896	24992
999	14.277532	106790912	76165120	28627376	24992
1000	16.397732	106790912	76165120	22889344	24992
x	Duration	RSS	HeapTotal	HeapUsed	External
0	NA	95813632	64630784	11998424	24992
1	0.558297	95813632	64630784	12050352	24992
2	0.467605	95813632	64630784	12127136	24992
3	0.548809	95813632	64630784	12231032	24992
4	0.658591	95813632	64630784	12363584	24992
5	0.806297	95813632	64630784	12526320	24992
6	0.933814	95813632	64630784	12719632	24992
7	1.054719	95813632	64630784	12944520	24992
8	1.199087	95813632	64630784	13201968	24992
9	1.392812	95813632	64630784	13493920	24992
10	1.507537	95813632	64630784	13820984	24992
11	2.145131	95813632	64630784	14184136	24992
12	0.151392	95813632	64630784	14576528	24992
13	0.228076	95813632	64630784	14689048	24992
14	0.291291	95813632	64630784	14840376	24992
15	0.405807	95813632	64630784	15035264	24992
16	0.418679	95813632	64630784	15268056	24992
17	0.86665	95813632	64630784	15542752	24992
18	0.589171	95813632	64630784	15860392	24992
19	0.628323	95813632	64630784	16222576	24992
20	0.698472	95813632	64630784	16630544	24992
21	0.775734	95813632	64630784	17084728	24992
22	0.203386	95813632	64630784	17593480	24992
23	0.300105	95813632	64630784	17736160	24992
24	0.350806	95813632	64630784	17929264	24992
25	0.434648	95813632	64630784	18173296	24992
26	0.518924	95813632	64630784	18470008	24992
27	0.640059	95813632	64630784	18828632	24992
28	0.733332	95813632	64630784	19232528	24992
29	0.961061	95813632	64630784	19691568	24992
30	1.068954	95813632	64630784	20207696	24992
31	0.982622	95813632	64630784	20783008	24992
32	0.203875	95813632	64630784	21433720	24992
33	0.308037	95813632	64630784	21608680	24992
34	0.408945	95813632	64630784	21843496	24992
35	0.491234	95813632	64630784	22139168	24992
36	0.58743	95813632	64630784	22497224	24992
37	0.677896	95813632	64630784	22917992	24992
38	0.774376	95813632	64630784	23402592	24992
39	0.880477	95813632	64630784	23951968	24992
40	0.994638	95813632	64630784	24567952	24992
41	1.08864	95813632	64630784	25250656	24992
42	0.231872	95813632	64630784	26033872	24992
43	0.350323	95813632	64630784	26238104	24992
44	0.704722	95813632	64630784	26511920	24992
45	0.570801	95813632	64630784	26857728	24992
46	0.674163	95813632	64630784	27275656	24992
47	0.786504	95813632	64630784	27766696	24992
48	0.907993	95813632	64630784	28331952	24992
49	1.921421	95813632	64630784	12710664	24992
50	1.201582	95813632	64630784	13431784	24992
51	1.386052	95813632	64630784	14230624	24992
52	0.289775	95813632	64630784	15156224	24992
53	0.456953	95813632	64630784	15399952	24992
54	0.565395	95813632	64630784	15723744	24992
55	0.702037	95813632	64630784	16130616	24992
56	0.996495	95813632	64630784	16622064	24992
57	0.897803	95813632	64630784	17198576	24992
58	1.02118	95813632	64630784	17861032	24992
59	1.208866	95813632	64630784	18610584	24992
60	1.283089	95813632	64630784	19449760	24992
61	1.560835	95813632	64630784	20377112	24992
62	0.29735	95813632	64630784	21453680	24992
63	0.444621	95813632	64630784	21724656	24992
64	0.575263	95813632	64630784	22087464	24992
65	0.713071	95813632	64630784	22543088	24992
66	0.900134	95813632	64630784	23093064	24992
67	1.220389	95813632	64630784	23737872	24992
68	1.148425	95813632	64630784	24478352	24992
69	1.284713	95813632	64630784	25315712	24992
70	1.649765	95813632	64630784	26251608	24992
71	1.580528	95813632	64630784	27286224	24992
72	0.323692	95813632	64630784	28489416	24992
73	0.484328	95813632	64630784	28789632	24992
74	1.379744	95813632	64630784	12972776	24992
75	0.865841	95813632	64630784	13477224	24992
76	1.18717	95813632	64630784	14085784	24992
77	1.11316	95813632	64630784	14798800	24992
78	1.298677	95813632	64630784	15617904	24992
79	1.502746	95813632	64630784	16542832	24992
80	1.59224	95813632	64630784	17576440	24992
81	1.894214	95813632	64630784	18719464	24992
82	0.35633	95813632	64630784	20052584	24992
83	0.531461	95813632	64630784	20382024	24992
84	0.93568	95813632	64630784	20825136	24992
85	0.878612	95813632	64630784	21380520	24992
86	1.041355	95813632	64630784	22050832	24992
87	1.219006	95813632	64630784	22836888	24992
88	1.394865	95813632	64630784	23739032	24992
89	1.561775	95813632	64630784	24758480	24992
90	1.755534	95813632	64630784	25897224	24992
91	1.920663	95813632	64630784	27155512	24992
92	0.385813	95813632	64630784	28629160	24992
93	0.574676	95813632	64630784	28991192	24992
94	1.330668	95813632	64630784	13178944	24992
95	0.959342	95813632	64630784	13786536	24992
96	1.14747	95813632	64630784	14518728	24992
97	1.330579	95813632	64630784	15378840	24992
98	1.519559	95813632	64630784	16362400	24992
99	1.705278	95813632	64630784	17474488	24992
100	1.893264	95813632	64630784	18714488	24992
101	2.314913	95813632	64630784	20084232	24992
102	0.417617	95813632	64630784	21699104	24992
103	0.625914	95813632	64630784	22102904	24992
104	0.819862	95813632	64630784	22642920	24992
105	1.039063	95813632	64630784	23320008	24992
106	1.237237	95813632	64630784	24135728	24992
107	1.435221	95813632	64630784	25090480	24992
108	1.634883	95813632	64630784	26185368	24992
109	2.083292	95813632	64630784	27421192	24992
110	2.059993	95813632	64630784	28800048	24992
111	2.968019	95813632	64630784	14045832	24992
112	0.476505	95813632	64630784	15836112	24992
113	0.720472	95813632	64630784	16269168	24992
114	0.952834	95813632	64630784	16848120	24992
115	1.204697	95813632	64630784	17574064	24992
116	1.56682	95813632	64630784	18448320	24992
117	1.732915	95813632	64630784	19472976	24992
118	1.77155	95813632	64630784	20645872	24992
119	2.138271	95813632	64630784	21971464	24992
120	2.214515	95813632	64630784	23455960	24992
121	2.661437	95813632	64630784	25084936	24992
122	0.486044	95813632	64630784	26999888	24992
123	0.716106	95813632	64630784	27462752	24992
124	0.946581	95813632	64630784	28080768	24992
125	1.172186	95813632	64630784	28855328	24992
126	1.97851	95813632	64630784	13515568	24992
127	1.91326	95813632	64630784	14606912	24992
128	2.203361	95813632	64630784	15859768	24992
129	2.1795	95813632	64630784	17271200	24992
130	2.575205	95813632	64630784	18845864	24992
131	2.597126	95813632	64630784	20584040	24992
132	0.678589	95813632	64630784	22629920	24992
133	0.788688	95813632	64630784	23121504	24992
134	1.003302	95813632	64630784	23778440	24992
135	1.245403	95813632	64630784	24601760	24992
136	1.503482	95813632	64630784	25592928	24992
137	1.746544	95813632	64630784	26752520	24992
138	2.003891	95813632	64630784	28081392	24992
139	2.886897	95813632	64630784	13436856	24992
140	2.769436	95813632	64630784	15108136	24992
141	2.787047	95813632	64630784	16951696	24992
142	0.535899	95813632	64630784	19129160	24992
143	0.805286	95813632	64630784	19655528	24992
144	1.066318	95813632	64630784	20358928	24992
145	1.559547	95813632	64630784	21240120	24992
146	1.627513	95813632	64630784	22300944	24992
147	1.857232	95813632	64630784	23542104	24992
148	2.132585	95813632	64630784	24963512	24992
149	2.397759	95813632	64630784	26566808	24992
150	2.665938	95813632	64630784	28353960	24992
151	3.531209	95813632	64630784	14143040	24992
152	0.57388	95813632	64630784	16465456	24992
153	0.857082	95813632	64630784	17020984	24992
154	1.136361	95813632	64630784	17763304	24992
155	1.403906	95813632	64630784	18693352	24992
156	1.68071	95813632	64630784	19812624	24992
157	2.181675	95813632	64630784	21121568	24992
158	2.254595	95813632	64630784	22621000	24992
159	2.541511	95813632	64630784	24312208	24992
160	2.824939	95813632	64630784	26197032	24992
161	3.326168	95813632	64630784	28275376	24992
162	0.607927	95813632	64630784	14575368	24992
163	0.904667	95813632	64630784	15164160	24992
164	1.197683	95813632	64630784	15945496	24992
165	1.496358	95813632	64630784	16924256	24992
166	1.773718	95813632	64630784	18102120	24992
167	2.089525	95813632	64630784	19479208	24992
168	2.371432	95813632	64630784	21057416	24992
169	2.678407	95813632	64630784	22836384	24992
170	2.98979	95813632	64630784	24821344	24992
171	3.400004	95813632	64630784	27007072	24992
172	0.633298	95813632	64630784	29596096	24992
173	1.441422	95813632	64630784	13854392	24992
174	1.346532	95813632	64630784	14674704	24992
175	1.609236	95813632	64630784	15702264	24992
176	1.87487	95813632	64630784	16938536	24992
177	2.407771	95813632	64630784	18384112	24992
178	2.492273	95813632	64630784	20039728	24992
179	2.811501	95813632	64630784	21906424	24992
180	3.145033	95813632	64630784	23986120	24992
181	3.664572	95813632	64630784	26278776	24992
182	0.660371	95813632	64630784	28993536	24992
183	0.988224	95813632	64630784	29636824	24992
184	1.847609	95813632	64630784	14146824	24992
185	1.874587	95813632	64630784	15223088	24992
186	2.196575	95813632	64630784	16517856	24992
187	2.294557	95813632	64630784	18031504	24992
188	2.672224	95813632	64630784	19765456	24992
189	3.003862	95813632	64630784	21719840	24992
190	3.294052	95813632	64630784	23897000	24992
191	3.639741	95813632	64630784	26301040	24992
192	0.699836	95813632	64630784	29141320	24992
193	1.037056	95813632	64630784	29813896	24992
194	1.823608	95813632	64630784	14360952	24992
195	1.987569	95813632	64630784	15487616	24992
196	2.166014	95813632	64630784	16840808	24992
197	2.531518	95813632	64630784	18422640	24992
198	2.890358	95813632	64630784	20234184	24992
199	3.424962	95813632	64630784	22276280	24992
200	3.643684	95813632	64630784	24551024	24992
201	4.010568	95813632	64630784	27058264	24992
202	0.720646	95813632	64630784	30039544	24992
203	1.564563	95813632	64630784	14347936	24992
204	1.549108	95813632	64630784	15285464	24992
205	1.795243	95813632	64630784	16459240	24992
206	2.16206	95813632	64630784	17872408	24992
207	2.496066	95813632	64630784	19530872	24992
208	3.086724	95813632	64630784	21436960	24992
209	3.444978	95813632	64630784	23592648	24992
210	3.862506	95813632	64630784	25997864	24992
211	4.400986	95813632	64630784	28653752	24992
212	0.810362	95813632	64630784	15665776	24992
213	1.20454	95813632	64630784	16421656	24992
214	1.597044	95813632	64630784	17431000	24992
215	2.005663	95813632	64630784	18694864	24992
216	2.393729	95813632	64630784	20214720	24992
217	2.81229	95813632	64630784	21991000	24992
218	3.437266	95813632	64630784	24024624	24992
219	3.823597	95813632	64630784	26319776	24992
220	4.020112	95813632	64630784	28872024	24992
221	4.950036	95813632	64630784	15504440	24992
222	0.837612	95813632	64630784	18842376	24992
223	1.254075	95813632	64630784	19627512	24992
224	1.657652	95813632	64630784	20676880	24992
225	2.081755	95813632	64630784	21989400	24992
226	2.486479	95813632	64630784	23574664	24992
227	2.922088	95813632	64630784	25420032	24992
228	3.534638	95813632	64630784	27531696	24992
229	3.762586	95813632	64630784	29917216	24992
230	4.794758	95813632	64630784	16251536	24992
231	4.603988	95813632	64630784	19180040	24992
232	0.855017	95813632	64630784	22665312	24992
233	1.295869	95813632	64630784	23488312	24992
234	1.731767	95813632	64630784	24587184	24992
235	2.155455	95813632	64630784	25962832	24992
236	2.592436	95813632	64630784	27616976	24992
237	3.046291	95813632	64630784	29549912	24992
238	3.941369	95813632	64630784	15507808	24992
239	3.907885	95813632	64630784	18001208	24992
240	4.668983	95813632	64630784	20778888	24992
241	4.74716	95813632	64630784	23837768	24992
242	0.888121	95813632	64630784	27468360	24992
243	1.551847	95813632	64630784	28320568	24992
244	1.799618	95813632	64630784	29465328	24992
245	2.726014	95813632	64630784	14673232	24992
246	2.703626	95813632	64630784	16388072	24992
247	3.132896	95813632	64630784	18395768	24992
248	3.59916	95813632	64630784	20686424	24992
249	3.984747	95813632	64630784	23267656	24992
250	4.692905	95813632	64630784	26149896	24992
251	4.982764	95813632	64630784	29318528	24992
252	0.928981	95813632	64630784	16877280	24992
253	1.608928	95813632	64630784	17760464	24992
254	1.855827	95813632	64630784	18937304	24992
255	2.330354	95813632	64630784	20410568	24992
256	2.793239	95813632	64630784	22184120	24992
257	3.244363	95813632	64630784	24253640	24992
258	3.738281	95813632	64630784	26622416	24992
259	4.209312	95813632	64630784	29291424	24992
260	5.437995	95813632	64630784	16102776	24992
261	5.144737	95813632	64630784	19376072	24992
262	1.139418	95813632	64630784	23261496	24992
263	1.445573	95813632	64630784	24172336	24992
264	1.928449	95813632	64630784	25395840	24992
265	2.3968	95813632	64630784	26917832	24992
266	2.893043	95813632	64630784	28747336	24992
267	3.88021	95813632	64630784	14837208	24992
268	3.864327	95813632	64630784	17283816	24992
269	4.343577	95813632	64630784	20040480	24992
270	4.97703	95813632	64630784	23109576	24992
271	5.336848	95813632	64630784	26490128	24992
272	0.988879	95813632	64630784	30511128	24992
273	1.883633	95813632	64630784	15101688	24992
274	1.939489	95813632	64630784	16356504	24992
275	2.468226	95813632	64630784	17927088	24992
276	3.15745	95813632	64630784	19814968	24992
277	3.582768	95813632	64630784	22023232	24992
278	3.993619	95813632	64630784	24547616	24992
279	4.613012	95813632	64630784	27396656	24992
280	4.900865	95813632	64630784	30562568	24992
281	6.070167	95813632	64630784	17714384	24992
282	1.013401	95813632	64630784	21853328	24992
283	1.549654	95813632	64630784	22822536	24992
284	2.052721	95813632	64630784	24121480	24992
285	2.736032	95813632	64630784	25740808	24992
286	3.036727	95813632	64630784	27687200	24992
287	3.56356	95813632	64630784	29961168	24992
288	5.181139	95813632	64630784	16343544	24992
289	4.640721	95813632	64630784	19275528	24992
290	5.154508	95813632	64630784	22545032	24992
291	5.824396	95813632	64630784	26152240	24992
292	1.051263	95813632	64630784	30418576	24992
293	2.410074	95813632	64630784	15126200	24992
294	2.123667	95813632	64630784	16458944	24992
295	2.630667	95813632	64630784	18127080	24992
296	3.158681	95813632	64630784	20136712	24992
297	3.695837	95813632	64630784	22478912	24992
298	4.755237	95813632	64630784	25159336	24992
299	4.863868	95813632	64630784	28187800	24992
300	6.367193	95813632	64630784	15671320	24992
301	6.040241	95813632	64630784	19384848	24992
302	1.079978	95813632	64630784	23782504	24992
303	1.63619	95813632	64630784	24810168	24992
304	2.160577	95813632	64630784	26182024	24992
305	2.850841	95813632	64630784	27898960	24992
306	3.257417	95813632	64630784	29962304	24992
307	4.39318	95813632	64630784	16261328	24992
308	4.365373	95813632	64630784	19020032	24992
309	4.91244	95813632	64630784	22127352	24992
310	5.652298	95813632	64630784	25585656	24992
311	5.930103	95813632	64630784	29394712	24992
312	1.127038	95813632	64630784	17938752	24992
313	1.69483	95813632	64630784	18995584	24992
314	2.236162	95813632	64630784	20406320	24992
315	2.733258	95813632	64630784	22171976	24992
316	3.36898	95813632	64630784	24303680	24992
317	3.926858	95813632	64630784	26782440	24992
318	4.434975	95813632	64630784	29632736	24992
319	5.965135	95813632	64630784	16813128	24992
320	5.627834	95813632	64630784	20371352	24992
321	6.192769	95813632	64630784	24296176	24992
322	1.145693	95813632	64630784	28943712	24992
323	1.892997	95813632	64630784	30029928	24992
324	2.285264	95813632	64630784	31479640	24992
325	3.36509	95813632	64630784	16995048	24992
326	3.467205	95813632	64630784	19175528	24992
327	4.042572	95813632	64630784	21722616	24992
328	4.615787	95813632	64630784	24637168	24992
329	5.465321	95813632	64630784	27920088	24992
330	5.758616	95813632	64630784	31574520	24992
331	7.020292	95813632	64630784	19292992	24992
332	1.18124	95813632	64630784	24067848	24992
333	1.778031	95813632	64630784	25183224	24992
334	2.378899	95813632	64630784	26672016	24992
335	2.968091	95813632	64630784	28538392	24992
336	3.559605	95813632	64630784	30778200	24992
337	5.002074	95813632	64630784	17279144	24992
338	4.76351	95813632	64630784	20272024	24992
339	5.458578	95813632	64630784	23650168	24992
340	6.313895	95813632	64630784	27401080	24992
341	6.672718	95813632	64630784	31532144	24992
342	1.217488	95813632	64630784	20205352	24992
343	1.820775	95813632	64630784	21350024	24992
344	2.707238	95813632	64630784	22877768	24992
345	2.891032	95813632	64630784	24789656	24992
346	3.576105	95813632	64630784	27087096	24992
347	4.457345	95813632	64630784	29770528	24992
348	5.549439	95813632	64630784	16910008	24992
349	5.678676	95813632	64630784	20368480	24992
350	6.209476	95813632	64630784	24216840	24992
351	6.777863	95813632	64630784	28460992	24992
352	1.257902	95813632	64630784	17785704	24992
353	2.223667	95813632	64630784	18959664	24992
354	2.46784	95813632	64630784	20526504	24992
355	3.132301	95813632	64630784	22487040	24992
356	3.704241	95813632	64630784	24843048	24992
357	4.47799	95813632	64630784	27594712	24992
358	4.988286	95813632	64630784	30750064	24992
359	6.594978	95813632	64630784	18248304	24992
360	6.329542	95813632	64630784	22213296	24992
361	6.858735	95813632	64630784	26570032	24992
362	1.474576	95813632	64630784	31767224	24992
363	2.474079	95813632	64630784	16811080	24992
364	2.580795	95813632	64630784	18434672	24992
365	3.211696	95813632	64630784	20474520	24992
366	4.064729	95813632	64630784	22926408	24992
367	4.409778	95813632	64630784	25779384	24992
368	5.043212	95813632	64630784	29041432	24992
369	6.701676	95813632	64630784	17016088	24992
370	6.460679	95813632	64630784	21103872	24992
371	7.236772	95813632	64630784	25605744	24992
372	1.275804	95813632	64630784	30969104	24992
373	2.152642	95813632	64630784	32214960	24992
374	3.238754	95813632	64630784	17632968	24992
375	3.309043	95813632	64630784	19714560	24992
376	3.946036	95813632	64630784	22214104	24992
377	4.591474	95813632	64630784	25135496	24992
378	5.382391	95813632	64630784	28475552	24992
379	5.989159	95813632	64630784	32242696	24992
380	7.416577	95813632	64630784	20192400	24992
381	7.040639	95813632	64630784	24801280	24992
382	1.337905	95813632	64630784	30293976	24992
383	2.022511	95813632	64630784	31581520	24992
384	3.592695	95813632	64630784	17188168	24992
385	3.392478	95813632	64630784	19317352	24992
386	4.026383	95813632	64630784	21876792	24992
387	4.866178	95813632	64630784	24871040	24992
388	5.141363	95813632	64630784	28291728	24992
389	6.209639	95813632	64630784	32141312	24992
390	7.351809	95813632	64630784	20256208	24992
391	7.631064	95813632	64630784	24972432	24992
392	1.368737	95813632	64630784	30608248	24992
393	2.069711	95813632	64630784	31922184	24992
394	3.46758	95813632	64630784	17568960	24992
395	3.460832	95813632	64630784	19753768	24992
396	4.34901	95813632	64630784	22370408	24992
397	4.842827	95813632	64630784	25435400	24992
398	5.674471	95813632	64630784	28931896	24992
399	6.240294	95813632	64630784	32872192	24992
400	7.795262	95813632	64630784	21008800	24992
401	7.6396	95813632	64630784	25833608	24992
402	2.342677	95813632	64630784	31578992	24992
403	2.450162	95813632	64630784	32912512	24992
404	3.747605	95813632	64630784	18451840	24992
405	3.716455	95813632	64630784	20678568	24992
406	5.090898	95813632	64630784	23354832	24992
407	4.922663	95813632	64630784	26485912	24992
408	5.627845	95813632	64630784	30060024	24992
409	7.989398	95813632	64630784	18364184	24992
410	7.292602	95813632	64630784	22847976	24992
411	7.685411	95813632	64630784	27781152	24992
412	2.178001	95813632	64630784	17505872	24992
413	2.166852	95813632	64630784	18880176	24992
414	3.167183	95813632	64630784	20698656	24992
415	3.500207	95813632	64630784	22974016	24992
416	4.251962	95813632	64630784	25707664	24992
417	5.271445	95813632	64630784	28919624	24992
418	5.775813	95813632	64630784	32604760	24992
419	7.492971	95813632	64630784	20620744	24992
420	7.33763	95813632	64630784	25270904	24992
421	7.734877	95813632	64630784	30396104	24992
422	1.408359	95813632	64630784	20739568	24992
423	2.216814	95813632	64630784	22180928	24992
424	2.986654	95813632	64630784	24104384	24992
425	3.712174	95813632	64630784	26517976	24992
426	4.421828	95813632	64630784	29410688	24992
427	5.298681	95813632	64630784	32786464	24992
428	6.681671	95813632	64630784	20484128	24992
429	6.780077	95813632	64630784	24848000	24992
430	7.411294	95813632	64630784	29695040	24992
431	9.208054	95813632	64630784	19348632	24992
432	1.470027	95813632	64630784	25709592	24992
433	2.265612	95813632	64630784	27191136	24992
434	3.003275	95813632	64630784	29170400	24992
435	3.91412	95813632	64630784	31625656	24992
436	5.494676	95813632	64630784	18650792	24992
437	5.306782	95813632	64630784	22099584	24992
438	6.06264	95813632	64630784	26041544	24992
439	6.897348	95813632	64630784	30478120	24992
440	9.108107	95813632	64630784	19727600	24992
441	8.324113	95813632	64630784	25171544	24992
442	1.539617	95813632	64630784	31664936	24992
443	2.311918	95813632	64630784	33165856	24992
444	4.10868	95813632	64630784	19034272	24992
445	3.857582	95813632	64630784	21538336	24992
446	4.623968	95813632	64630784	24546296	24992
447	5.630563	95813632	64630784	28058776	24992
448	6.189481	95813632	64630784	32106632	24992
449	7.818089	95813632	64630784	20686256	24992
450	7.858017	95813632	64630784	25718744	24992
451	8.377364	95813632	64630784	31276512	24992
452	1.501875	95813632	64630784	22069872	24992
453	2.472954	95813632	64630784	23619632	24992
454	3.127423	95813632	64630784	25668840	24992
455	3.958739	95813632	64630784	28250920	24992
456	5.160481	95813632	64630784	31328840	24992
457	6.370968	95813632	64630784	19135360	24992
458	6.668783	95813632	64630784	23249216	24992
459	7.070363	95813632	64630784	27879224	24992
460	8.127003	95813632	64630784	33043072	24992
461	9.646246	95813632	64630784	22544480	24992
462	1.608151	95813632	64630784	29281064	24992
463	2.324284	95813632	64630784	30839512	24992
464	3.238042	95813632	64630784	32918904	24992
465	5.259401	95813632	64630784	19541808	24992
466	4.812418	95813632	64630784	22666728	24992
467	5.632184	95813632	64630784	26315464	24992
468	6.773835	95813632	64630784	30489480	24992
469	8.506234	95813632	64630784	19655056	24992
470	8.033659	95813632	64630784	24882584	24992
471	9.051083	95813632	64630784	30757728	24992
472	1.644797	95813632	64630784	21918176	24992
473	2.482415	95813632	64630784	23505696	24992
474	3.283152	95813632	64630784	25641160	24992
475	4.111557	95813632	64630784	28291304	24992
476	5.481396	95813632	64630784	31479288	24992
477	7.044157	95813632	64630784	19487944	24992
478	6.689608	95813632	64630784	23759936	24992
479	7.415013	95813632	64630784	28547344	24992
480	8.211531	95813632	64630784	33872480	24992
481	10.313816	95813632	64630784	23550992	24992
482	1.655252	95813632	64630784	30548616	24992
483	2.501192	95813632	64630784	32165520	24992
484	3.339328	95813632	64630784	34322896	24992
485	5.23023	95813632	64630784	20880304	24992
486	4.966256	95813632	64630784	24122152	24992
487	5.862511	95813632	64630784	27908096	24992
488	6.675811	95813632	64630784	32237880	24992
489	8.816133	95813632	64630784	21324552	24992
490	8.571111	95813632	64630784	26747240	24992
491	9.157435	95813632	64630784	32719224	24992
492	1.706123	95813632	64630784	23870648	24992
493	2.67498	95813632	64630784	25519184	24992
494	3.292876	95813632	64630784	27736256	24992
495	4.165671	95813632	64630784	30483968	24992
496	5.237504	95813632	64630784	33784400	24992
497	6.976129	95813632	64630784	21589672	24992
498	7.021923	95813632	64630784	25997368	24992
499	7.679209	95813632	64630784	30982272	24992
500	9.863678	95813632	64630784	20916072	24992
501	9.959572	95813632	64630784	27002368	24992
502	1.810042	95813632	64630784	34263656	24992
503	3.755602	95813632	64630784	19887296	24992
504	3.77046	95813632	64630784	22122688	24992
505	4.558301	95813632	64630784	24933360	24992
506	5.491309	95813632	64630784	28292288	24992
507	5.977551	95813632	64630784	32226208	24992
508	8.209507	95813632	64630784	20994600	24992
509	7.998072	95813632	64630784	26059496	24992
510	9.010969	95813632	64630784	31676960	24992
511	11.256757	95813632	64630784	22202328	24992
512	1.756242	95813632	64630784	29596176	24992
513	2.640811	95813632	64630784	31304944	24992
514	3.685979	95813632	64630784	33579360	24992
515	5.873906	95813632	64630784	20520712	24992
516	5.49932	95813632	64630784	23938176	24992
517	6.077151	95813632	64630784	27939856	24992
518	7.209151	95813632	64630784	32518304	24992
519	9.328675	95813632	64630784	21930280	24992
520	8.813163	95813632	64630784	27659080	24992
521	9.850854	95813632	64630784	33951656	24992
522	1.802582	95813632	64630784	25418200	24992
523	2.687683	95813632	64630784	27152056	24992
524	3.594891	95813632	64630784	29474776	24992
525	4.493186	95813632	64630784	32368704	24992
526	5.583061	95813632	64630784	35855464	24992
527	7.139388	95813632	64630784	23693456	24992
528	7.291801	95813632	64630784	28336256	24992
529	7.953771	95813632	64630784	33577160	24992
530	10.033985	95813632	64630784	23465144	24992
531	10.068304	95813632	64630784	29865464	24992
532	2.697546	95813632	64630784	21194448	24992
533	2.76168	95813632	64630784	22957560	24992
534	3.611164	95813632	64630784	25310440	24992
535	4.573527	95813632	64630784	28257976	24992
536	5.622383	95813632	64630784	31792216	24992
537	6.393609	95813632	64630784	35918664	24992
538	8.373496	95813632	64630784	24419984	24992
539	8.218907	95813632	64630784	29745520	24992
540	9.151037	95813632	64630784	35663192	24992
541	11.273519	95813632	64630784	25962248	24992
542	1.849987	95813632	64630784	33732104	24992
543	2.817663	95813632	64630784	35524432	24992
544	4.691847	95813632	64630784	21792760	24992
545	4.661788	95813632	64630784	24784176	24992
546	5.747293	95813632	64630784	28377056	24992
547	6.517196	95813632	64630784	32571904	24992
548	8.984237	95813632	64630784	21743776	24992
549	8.58106	95813632	64630784	27145520	24992
550	9.466909	95813632	64630784	33165696	24992
551	11.748096	95813632	64630784	23996040	24992
552	2.071103	95813632	64630784	31878288	24992
553	2.811253	95813632	64630784	33699920	24992
554	3.783326	95813632	64630784	36143536	24992
555	5.956747	95813632	64630784	23005416	24992
556	5.546124	95813632	64630784	26676672	24992
557	6.632939	95813632	64630784	30974584	24992
558	7.612049	95813632	64630784	35873304	24992
559	9.925324	95813632	64630784	25298600	24992
560	9.709203	95813632	64630784	31437536	24992
561	16.057524	95813632	64630784	22793912	24992
562	1.91535	95813632	64630784	30866952	24992
563	3.154116	95813632	64630784	32753176	24992
564	4.181896	95813632	64630784	35263312	24992
565	6.000146	95813632	64630784	22391392	24992
566	5.75062	95813632	64630784	26146568	24992
567	6.879718	95813632	64630784	30529704	24992
568	7.648458	95813632	64630784	35538264	24992
569	10.169643	95813632	64630784	25176992	24992
570	9.745097	95813632	64630784	31469104	24992
571	12.121499	95813632	64630784	23031952	24992
572	1.949962	95813632	64630784	31287008	24992
573	2.897938	95813632	64630784	33187488	24992
574	4.021028	95813632	64630784	35734808	24992
575	6.081574	95813632	64630784	22907680	24992
576	6.010214	95813632	64630784	26723176	24992
577	6.858236	95813632	64630784	31171144	24992
578	8.03836	95813632	64630784	36260080	24992
579	9.868452	95813632	64630784	25889184	24992
580	10.099718	95813632	64630784	32257424	24992
581	12.214398	95813632	64630784	23812328	24992
582	1.978799	95813632	64630784	32192656	24992
583	3.121388	95813632	64630784	34132696	24992
584	3.883201	95813632	64630784	36714136	24992
585	6.314414	95813632	64630784	23823784	24992
586	5.715332	95813632	64630784	27696792	24992
587	7.053778	95813632	64630784	32231640	24992
588	7.996258	95813632	64630784	37410400	24992
589	9.996588	95813632	64630784	26997656	24992
590	10.061495	95813632	64630784	33479432	24992
591	12.693531	95813632	64630784	24945456	24992
592	2.011559	95813632	64630784	33432320	24992
593	3.186092	95813632	64630784	35391296	24992
594	5.333659	95813632	64630784	22118800	24992
595	5.240803	95813632	64630784	25397896	24992
596	6.034537	95813632	64630784	29325928	24992
597	6.880451	95813632	64630784	33930784	24992
598	9.670959	95813632	64630784	23551672	24992
599	9.412437	95813632	64630784	29465968	24992
600	10.332731	95813632	64630784	36037184	24992
601	12.425887	95813632	64630784	27187688	24992
602	2.040666	95813632	64630784	35840008	24992
603	3.215475	95813632	64630784	37828232	24992
604	5.056054	95813632	64630784	24273232	24992
605	4.872137	95813632	64630784	27591248	24992
606	6.038828	95813632	64630784	31575816	24992
607	7.166925	95813632	64630784	36227592	24992
608	9.471182	95813632	64630784	25580264	24992
609	9.395185	95813632	64630784	31572280	24992
610	10.044436	95813632	64630784	38256768	24992
611	12.725487	95813632	64630784	29175704	24992
612	2.082652	95813632	64630784	37932752	24992
613	4.350846	95813632	64630784	23739856	24992
614	4.076228	95813632	64630784	26431488	24992
615	5.210175	95813632	64630784	29820152	24992
616	6.281484	95813632	64630784	33874232	24992
617	9.002042	95813632	64630784	23093288	24992
618	8.383702	95813632	64630784	28495248	24992
619	9.617169	95813632	64630784	34581560	24992
620	11.972167	95813632	64630784	25631040	24992
621	11.737279	95813632	64630784	33070848	24992
622	2.124497	95813632	64630784	26607688	24992
623	3.103174	95813632	64630784	28674240	24992
624	4.240808	95813632	64630784	31405496	24992
625	5.507176	95813632	64630784	34826608	24992
626	7.933876	95813632	64630784	23334528	24992
627	7.501884	95813632	64630784	28123568	24992
628	8.520752	95813632	64630784	33601216	24992
629	11.472642	95813632	64630784	24312976	24992
630	11.214561	95813632	64630784	31172824	24992
631	12.65905	95813632	64630784	38736128	24992
632	2.093818	95813632	64630784	31360376	24992
633	3.257636	95813632	64630784	33442320	24992
634	4.261304	95813632	64630784	36214280	24992
635	7.035947	95813632	64630784	23890264	24992
636	6.667189	95813632	64630784	28050400	24992
637	7.531906	95813632	64630784	32936704	24992
638	8.620919	95813632	64630784	38495656	24992
639	11.503831	95813632	64630784	28552752	24992
640	11.180084	95813632	64630784	35520800	24992
641	13.451142	95813632	64630784	27420592	24992
642	2.068845	95813632	64630784	36585896	24992
643	3.2612	95813632	64630784	38695408	24992
644	5.70979	95813632	64630784	25308784	24992
645	5.450009	95813632	64630784	28821672	24992
646	6.719473	95813632	64630784	33055704	24992
647	7.681729	95813632	64630784	37980768	24992
648	10.07628	95813632	64630784	27542952	24992
649	9.947118	95813632	64630784	33922760	24992
650	12.945037	95813632	64630784	25567304	24992
651	12.180327	95813632	64630784	33329776	24992
652	2.178923	95813632	64630784	27289176	24992
653	3.336602	95813632	64630784	29423600	24992
654	4.440665	95813632	64630784	32295032	24992
655	5.500555	95813632	64630784	35856688	24992
656	8.485829	95813632	64630784	24499720	24992
657	7.630149	95813632	64630784	29516800	24992
658	8.820502	95813632	64630784	35249904	24992
659	11.613947	95813632	64630784	26065272	24992
660	11.11474	95813632	64630784	33219440	24992
661	14.356866	95813632	64630784	25819496	24992
662	2.245781	95813632	64630784	35216024	24992
663	3.546366	95813632	64630784	37385008	24992
664	5.906986	95813632	64630784	24472952	24992
665	5.814492	95813632	64630784	28083320	24992
666	6.765815	95813632	64630784	32430920	24992
667	7.913794	95813632	64630784	37507408	24992
668	11.001325	95813632	64630784	27384048	24992
669	10.356933	95813632	64630784	33904464	24992
670	12.968137	95813632	64630784	25889728	24992
671	12.691459	95813632	64630784	33880160	24992
672	2.306276	95813632	64630784	28108472	24992
673	3.424586	95813632	64630784	30309264	24992
674	4.610574	95813632	64630784	33235912	24992
675	5.700039	95813632	64630784	36902040	24992
676	8.505504	95813632	64630784	25633480	24992
677	8.337797	95813632	64630784	30799016	24992
678	9.18768	95813632	64630784	36678736	24992
679	12.22761	95813632	64630784	27516296	24992
680	11.787691	95813632	64630784	34869712	24992
681	14.361923	95813632	64630784	27570304	24992
682	2.420846	95813632	64630784	37205056	24992
683	3.649641	95813632	64630784	39427440	24992
684	6.232612	95813632	64630784	26259560	24992
685	6.056814	95813632	64630784	29967512	24992
686	7.021416	95813632	64630784	34420312	24992
687	8.203959	95813632	64630784	39627792	24992
688	10.552271	95813632	64630784	29397520	24992
689	10.448429	95813632	64630784	36095416	24992
690	13.632059	95813632	64630784	27908304	24992
691	12.973182	95813632	64630784	36119464	24992
692	2.352772	95813632	64630784	30279488	24992
693	3.515699	95813632	64630784	32545976	24992
694	4.890498	95813632	64630784	35562544	24992
695	5.872118	95813632	64630784	39319112	24992
696	8.64259	95813632	64630784	27791176	24992
697	8.263109	95813632	64630784	33078072	24992
698	9.667167	95813632	64630784	39100616	24992
699	12.151468	95813632	64630784	29741776	24992
700	11.766463	95813632	64630784	37285024	24992
701	14.752796	95813632	64630784	29830680	24992
702	2.363073	95813632	64630784	39743912	24992
703	4.979797	95813632	64630784	25977272	24992
704	4.651804	95813632	64630784	29019880	24992
705	5.953154	95813632	64630784	32825864	24992
706	7.311303	95813632	64630784	37400168	24992
707	10.344762	95813632	64630784	27102936	24992
708	9.550753	95813632	64630784	33213736	24992
709	10.842234	95813632	64630784	40096376	24992
710	13.310776	95813632	64630784	31471840	24992
711	13.061173	95813632	64630784	39878720	24992
712	2.407002	95813632	64630784	33733080	24992
713	3.79577	95813632	64630784	36044384	24992
714	4.570281	95813632	64630784	39126024	24992
715	7.263932	95813632	64630784	27059112	24992
716	7.235898	95813632	64630784	31704448	24992
717	8.606282	95813632	64630784	37143712	24992
718	11.626697	95813632	64630784	27705968	24992
719	10.848463	95813632	64630784	34660656	24992
720	14.026727	95813632	64630784	27199624	24992
721	13.482534	95813632	64630784	35713296	24992
722	2.576152	95813632	64630784	30560744	24992
723	3.623863	95813632	64630784	32913280	24992
724	4.759422	95813632	64630784	36038280	24992
725	6.240105	95813632	64630784	39941296	24992
726	8.841536	95813632	64630784	28589392	24992
727	8.166623	95813632	64630784	34102648	24992
728	9.966785	95813632	64630784	40358872	24992
729	12.629577	95813632	64630784	31240016	24992
730	12.422607	95813632	64630784	39078656	24992
731	15.365656	95813632	64630784	31761104	24992
732	3.872869	95813632	64630784	26058104	24992
733	3.786518	95813632	64630784	28426688	24992
734	5.148016	95813632	64630784	31586272	24992
735	6.530637	95813632	64630784	35548880	24992
736	7.855387	95813632	64630784	40294224	24992
737	10.522867	95813632	64630784	29817384	24992
738	10.165891	95813632	64630784	36151536	24992
739	13.149974	95813632	64630784	27966752	24992
740	13.154999	95813632	64630784	35904272	24992
741	15.806986	95813632	64630784	29361552	24992
742	2.679214	95813632	64630784	39769968	24992
743	5.250626	95813632	64630784	26295856	24992
744	4.960824	95813632	64630784	29494448	24992
745	6.226364	95813632	64630784	33515216	24992
746	7.653693	95813632	64630784	38319112	24992
747	10.572863	95813632	64630784	28335488	24992
748	9.952128	95813632	64630784	34768376	24992
749	11.269113	95813632	64630784	42018728	24992
750	14.020027	95813632	64630784	33656888	24992
751	16.161844	95813632	64630784	27652672	24992
752	2.536712	95813632	64630784	38209432	24992
753	3.817868	95813632	64630784	40636496	24992
754	6.832185	95813632	64630784	27896728	24992
755	6.233921	95813632	64630784	31945936	24992
756	7.822116	95813632	64630784	36808368	24992
757	10.868462	95813632	64630784	27207648	24992
758	10.269809	95813632	64630784	33697912	24992
759	11.472069	95813632	64630784	41034056	24992
760	14.063534	95813632	64630784	33018088	24992
761	13.990482	95813632	64630784	41992232	24992
762	2.464713	95813632	64630784	36373584	24992
763	3.822075	95813632	64630784	38830936	24992
764	5.27429	95813632	64630784	42109768	24992
765	7.77107	95813632	64630784	30039816	24992
766	7.705809	95813632	64630784	34960672	24992
767	8.58659	95813632	64630784	40708096	24992
768	12.092787	95813632	64630784	31298688	24992
769	11.60914	95813632	64630784	38720840	24992
770	16.370731	95813632	64630784	31250376	24992
771	15.520073	95813632	64630784	40316008	24992
772	2.605377	95813632	64630784	35146552	24992
773	3.836658	95813632	64630784	37632152	24992
774	5.319239	95813632	64630784	40962560	24992
775	8.300902	95813632	64630784	29232440	24992
776	7.6964	95813632	64630784	34220768	24992
777	9.200256	95813632	64630784	40041344	24992
778	12.32443	95813632	64630784	30857456	24992
779	11.930537	95813632	64630784	38341264	24992
780	15.141457	95813632	64630784	31123672	24992
781	14.705412	95813632	64630784	40282920	24992
782	2.599733	95813632	64630784	35360360	24992
783	3.895068	95813632	64630784	37890688	24992
784	5.458355	95813632	64630784	41245360	24992
785	8.574705	95813632	64630784	29558896	24992
786	7.740942	95813632	64630784	34597176	24992
787	9.300791	95813632	64630784	40481760	24992
788	12.480877	95813632	64630784	31397928	24992
789	11.926697	95813632	64630784	38973624	24992
790	15.794212	95813632	64630784	31788408	24992
791	14.622016	95813632	64630784	41064864	24992
792	2.665465	95813632	64630784	36122680	24992
793	4.195676	95813632	64630784	38666824	24992
794	5.354448	95813632	64630784	42061304	24992
795	8.326557	95813632	64630784	30296552	24992
796	7.878132	95813632	64630784	35407264	24992
797	9.567881	95813632	64630784	41365880	24992
798	12.544283	95813632	64630784	32167960	24992
799	11.792311	95813632	64630784	39856592	24992
800	15.50095	95813632	64630784	32717416	24992
801	15.194475	95813632	64630784	42096208	24992
802	2.705703	95813632	64630784	37164680	24992
803	4.037758	95813632	64630784	39746256	24992
804	5.615169	95813632	64630784	43185320	24992
805	8.438219	95813632	64630784	31351208	24992
806	8.419115	95813632	64630784	36512248	24992
807	9.429789	95813632	64630784	42533880	24992
808	12.515607	95813632	64630784	33285024	24992
809	12.265946	95813632	64630784	41034488	24992
810	15.881379	95813632	64630784	33831080	24992
811	14.907802	95813632	64630784	43319264	24992
812	2.836216	95813632	64630784	38369008	24992
813	4.080117	95813632	64630784	40971664	24992
814	7.343158	95813632	64630784	28762528	24992
815	6.832355	95813632	64630784	33104336	24992
816	8.218268	95813632	64630784	38329424	24992
817	11.614312	95813632	64630784	29101792	24992
818	10.691663	95813632	64630784	36060120	24992
819	12.402961	95813632	64630784	43898440	24992
820	15.070749	95813632	64630784	36308416	24992
821	17.743934	95813632	64630784	30938952	24992
822	2.743914	95813632	64630784	42456640	24992
823	5.957771	95813632	64630784	29189272	24992
824	5.262257	95813632	64630784	32700128	24992
825	7.0418	95813632	64630784	37090576	24992
826	8.271717	95813632	64630784	42362400	24992
827	11.763857	95813632	64630784	32648256	24992
828	11.211286	95813632	64630784	39684696	24992
829	14.710808	95813632	64630784	32102704	24992
830	13.967663	95813632	64630784	40908568	24992
831	17.456156	95813632	64630784	34858992	24992
832	2.793782	95813632	64630784	30215168	24992
833	4.038323	95813632	64630784	32876312	24992
834	5.71254	95813632	64630784	36435656	24992
835	7.144304	95813632	64630784	40887352	24992
836	10.186668	95813632	64630784	30703072	24992
837	9.642704	95813632	64630784	36936280	24992
838	11.403896	95813632	64630784	44089808	24992
839	14.082918	95813632	64630784	35870736	24992
840	14.326799	95813632	64630784	44835376	24992
841	17.157272	95813632	64630784	38300816	24992
842	2.831139	95813632	64630784	34933576	24992
843	4.286405	95813632	64630784	37673192	24992
844	5.687128	95813632	64630784	41330464	24992
845	9.164632	95813632	64630784	30246832	24992
846	8.863024	95813632	64630784	35739424	24992
847	10.178257	95813632	64630784	42157736	24992
848	13.417685	95813632	64630784	33670416	24992
849	12.947823	95813632	64630784	41942848	24992
850	16.553862	95813632	64630784	35339688	24992
851	18.323736	95813632	64630784	30824416	24992
852	2.856751	95813632	64630784	42945400	24992
853	6.181032	95813632	64630784	29935928	24992
854	5.748644	95813632	64630784	33672296	24992
855	7.188914	95813632	64630784	38350648	24992
856	8.968218	95813632	64630784	43995192	24992
857	11.871267	95813632	64630784	34572112	24992
858	11.674102	95813632	64630784	42070080	24992
859	15.37207	95813632	64630784	34721880	24992
860	15.088239	95813632	64630784	44123712	24992
861	17.720057	95813632	64630784	38332440	24992
862	2.778301	95813632	64630784	35536296	24992
863	4.127916	95813632	64630784	38365480	24992
864	5.697846	95813632	64630784	42145976	24992
865	9.621492	95813632	65155072	31253168	24992
866	8.743348	95813632	65155072	36925344	24992
867	10.24475	95813632	65155072	43582368	24992
868	14.161529	95813632	65155072	35168984	24992
869	13.290765	95813632	65155072	43685072	24992
870	16.583412	96083968	65679360	37093904	24992
871	18.709234	96083968	65679360	32696992	24992
872	2.873336	96083968	65679360	45171120	24992
873	5.891062	96083968	65679360	31890032	24992
874	6.041693	96083968	65679360	35704560	24992
875	7.340669	96083968	65679360	40473136	24992
876	11.145776	96354304	65679360	30924456	24992
877	10.355359	96354304	65679360	37625400	24992
878	11.982517	96354304	65679360	45273648	24992
879	14.896832	96354304	65679360	37616624	24992
880	17.226609	96354304	65679360	32244720	24992
881	16.212237	96354304	65679360	42781032	24992
882	2.897382	96354304	65679360	39557032	24992
883	4.446752	96354304	65679360	42464968	24992
884	8.051503	96624640	65679360	30714400	24992
885	7.439112	96624640	65679360	35531336	24992
886	8.883537	96624640	65679360	41325808	24992
887	12.643215	96624640	66203648	32600840	24992
888	12.014966	96624640	66203648	40335448	24992
889	15.798796	96624640	66203648	33762800	24992
890	15.062337	96624640	66203648	43440352	24992
891	18.026558	96624640	66203648	38156960	24992
892	3.003074	96624640	66203648	35946680	24992
893	4.498676	96624640	66203648	38863576	24992
894	6.144172	96624640	66203648	42763056	24992
895	9.70003	96894976	66203648	32042696	24992
896	9.230413	96894976	66203648	37892936	24992
897	10.314686	96894976	66203648	44715536	24992
898	14.003607	96894976	66203648	36467720	24992
899	13.360017	96894976	66203648	45260688	24992
900	16.834602	96894976	66203648	38943696	24992
901	19.375773	96894976	66203648	34603880	24992
902	5.051679	96894976	66203648	31483928	24992
903	4.531482	96894976	66203648	34432304	24992
904	6.165417	96894976	66203648	38372968	24992
905	7.482962	96894976	66203648	43287304	24992
906	11.302718	97165312	66727936	33598496	24992
907	11.040231	97165312	66727936	40488008	24992
908	14.383438	97165312	66727936	33143528	24992
909	14.148369	97165312	66727936	42018144	24992
910	17.953497	97165312	66727936	36345536	24992
911	19.26794	97165312	66727936	32673568	24992
912	3.052424	97165312	66727936	45631528	24992
913	6.280574	97435648	66727936	32672760	24992
914	6.153374	97435648	66727936	36655648	24992
915	7.91144	97435648	66727936	41618728	24992
916	11.848503	97435648	66727936	32358624	24992
917	10.905002	97435648	66727936	39329328	24992
918	12.471857	97435648	66727936	47290400	24992
919	15.410067	97435648	66727936	39819312	24992
920	17.87429	97705984	66727936	34734008	24992
921	16.379875	97705984	66727936	45704280	24992
922	3.079093	97705984	66727936	42732200	24992
923	4.630914	97705984	66727936	45781176	24992
924	8.270094	97705984	67252224	33868944	24992
925	8.041696	97705984	67252224	38882632	24992
926	9.473942	97705984	67252224	44913368	24992
927	12.842077	97705984	67252224	36030824	24992
928	12.396349	97705984	67252224	44067352	24992
929	16.423015	97976320	67252224	37372648	24992
930	15.476595	97976320	67252224	47438424	24992
931	18.854058	97976320	67252224	42140840	24992
932	3.054777	97976320	67252224	39999880	24992
933	4.483593	97976320	67252224	43041960	24992
934	6.43634	97976320	67252224	47094456	24992
935	9.59204	98246656	67252224	36049472	24992
936	9.47062	98246656	67252224	42134488	24992
937	13.056755	98246656	67252224	33872120	24992
938	12.609922	98246656	67252224	41986896	24992
939	16.442742	98246656	67252224	35737736	24992
940	15.495649	98246656	67252224	45919664	24992
941	19.200901	98246656	67252224	40994344	24992
942	3.14535	98246656	67252224	39128824	24992
943	4.677791	98246656	67252224	42191952	24992
944	6.262461	98246656	67252224	46281944	24992
945	10.101509	98516992	67776512	35449416	24992
946	9.380303	98516992	67776512	41589384	24992
947	13.405918	98516992	67776512	33576472	24992
948	13.027111	98516992	67776512	41762872	24992
949	16.661215	98516992	67776512	35790824	24992
950	16.894523	98516992	67776512	46252576	24992
951	19.612826	98516992	68300800	41643240	24992
952	3.122481	98516992	68300800	39944248	24992
953	4.732149	98516992	68300800	43036712	24992
954	6.623996	98516992	68300800	47161504	24992
955	9.931345	98787328	68300800	36319312	24992
956	9.686698	98787328	68300800	42512352	24992
957	13.681714	98787328	68300800	34392936	24992
958	12.667357	98787328	68300800	42657656	24992
959	16.805874	98787328	68300800	36609136	24992
960	16.186223	98787328	68300800	47102944	24992
961	19.559559	98787328	68300800	42493576	24992
962	3.314319	99057664	68300800	40742104	24992
963	4.755024	99057664	68300800	43863712	24992
964	6.609	99057664	68300800	48029064	24992
965	9.88798	99057664	68825088	37164032	24992
966	9.697642	99057664	68825088	43415720	24992
967	13.517316	99328000	68825088	35408824	24992
968	12.722179	99328000	68825088	43751344	24992
969	17.075531	99328000	68825088	37674728	24992
970	16.202173	99328000	68825088	48113160	24992
971	19.811505	99328000	68825088	43385336	24992
972	3.219072	99328000	68825088	41744824	24992
973	4.90075	99328000	68825088	44895800	24992
974	6.445042	99328000	68825088	49131336	24992
975	9.971674	99598336	68825088	38101896	24992
976	9.999812	99598336	68825088	44411992	24992
977	13.711588	99598336	68825088	36240480	24992
978	12.794428	99598336	68825088	44720360	24992
979	17.099001	99598336	68825088	38664336	24992
980	15.975596	99598336	68825088	49200112	24992
981	19.753026	99598336	68825088	44379392	24992
982	3.226618	99598336	68825088	42672776	24992
983	4.940749	99598336	68825088	45869496	24992
984	9.041703	99868672	69349376	34565064	24992
985	8.021615	99868672	69349376	39894104	24992
986	10.312631	99868672	69349376	46262792	24992
987	13.852303	99868672	69349376	37895056	24992
988	13.167835	99868672	69349376	46393768	24992
989	17.033014	99868672	69349376	40105632	24992
990	19.407998	99868672	69349376	36051640	24992
991	18.15975	99868672	69349376	47794496	24992
992	3.294693	99868672	69349376	45671768	24992
993	4.946444	99868672	69349376	48881336	24992
994	8.718567	100139008	69349376	37110920	24992
995	8.454223	100139008	69349376	42464272	24992
996	9.693704	100139008	69349376	48891296	24992
997	13.415902	100139008	69349376	40142808	24992
998	13.147633	100139008	69349376	48719544	24992
999	17.234507	100139008	69349376	42167760	24992
1000	19.617367	100139008	69349376	37979816	24992
