x	Duration	RSS	HeapTotal	HeapUsed	External
0	NA	87777280	57290752	11725904	24992
1	0.297714	87777280	57290752	11774400	24992
2	0.259726	87777280	57290752	11846104	24992
3	0.274926	87777280	57290752	11943016	24992
4	0.328764	87777280	57290752	12066320	24992
5	0.388859	87777280	57290752	12217464	24992
6	0.454271	87777280	57290752	12397192	24992
7	0.519777	87777280	57290752	12606392	24992
8	0.59236	87777280	57290752	12846072	24992
9	0.660836	87777280	57290752	13118016	24992
10	0.747457	87777280	57290752	13422280	24992
11	1.183962	87777280	57290752	13759736	24992
12	0.195832	87777280	57290752	14121968	24992
13	0.296742	87777280	57290752	14227744	24992
14	0.411207	87777280	57290752	14373912	24992
15	0.456739	87777280	57290752	14553744	24992
16	0.550133	87777280	57290752	14772520	24992
17	0.63367	87777280	57290752	15030760	24992
18	0.726594	87777280	57290752	15329160	24992
19	0.817463	87777280	57290752	15669128	24992
20	0.915674	87777280	57290752	16051936	24992
21	1.009986	87777280	57290752	16477688	24992
22	0.190494	87777280	57290752	16951600	24992
23	0.273868	87777280	57290752	17086272	24992
24	0.347746	87777280	57290752	17265816	24992
25	0.593513	87777280	57290752	17493232	24992
26	0.525677	87777280	57290752	17769952	24992
27	0.65315	87777280	57290752	18096408	24992
28	0.952494	87777280	57290752	18475680	24992
29	0.770932	87777280	57290752	18904688	24992
30	0.830858	87777280	57290752	19386128	24992
31	0.923349	87777280	57290752	19921000	24992
32	0.210862	87777280	57290752	20525056	24992
33	0.319553	87777280	57290752	20690480	24992
34	0.395704	87777280	57290752	20911328	24992
35	0.487707	87777280	57290752	21189248	24992
36	0.580672	87777280	57290752	21525656	24992
37	1.007685	87777280	57290752	21921048	24992
38	0.780177	87777280	57290752	22376288	24992
39	0.887272	87777280	57290752	22892216	24992
40	0.983815	87777280	57290752	23470904	24992
41	1.078709	87777280	57290752	24112168	24992
42	0.230834	87777280	57290752	24843808	24992
43	0.348176	87777280	57290752	25036456	24992
44	0.454552	87777280	57290752	25294496	24992
45	0.562246	87777280	57290752	25619576	24992
46	0.674076	87777280	57290752	26011800	24992
47	0.795129	87777280	57290752	26472232	24992
48	0.895968	87777280	57290752	27001760	24992
49	1.013163	87777280	57290752	27601232	24992
50	1.129875	87777280	57290752	28272672	24992
51	2.191145	87777280	57290752	12724928	24992
52	0.284311	87777280	57290752	13586192	24992
53	0.441731	87777280	57290752	13813096	24992
54	0.563348	87777280	57290752	14116816	24992
55	0.698675	87777280	57290752	14498208	24992
56	0.836925	87777280	57290752	14958768	24992
57	0.977172	87777280	57290752	15499136	24992
58	1.130621	87777280	57290752	16119824	24992
59	1.26075	87777280	57290752	16821904	24992
60	1.402414	87777280	57290752	17607240	24992
61	1.68749	87777280	57290752	18475952	24992
62	0.323783	87777280	57290752	19480344	24992
63	0.467913	87777280	57290752	19735184	24992
64	0.893049	87777280	57290752	20076072	24992
65	0.733339	87777280	57290752	20503976	24992
66	0.891923	87777280	57290752	21022976	24992
67	1.037473	87777280	57290752	21628144	24992
68	1.162715	87777280	57290752	22323064	24992
69	1.29434	87777280	57290752	23108640	24992
70	1.438996	87777280	57290752	23986896	24992
71	1.779043	87777280	57290752	24957680	24992
72	0.334545	87777280	57290752	26082384	24992
73	0.490295	87777280	57290752	26365160	24992
74	0.652843	87777280	57290752	26743328	24992
75	0.800969	87777280	57290752	27217720	24992
76	0.958637	87777280	57290752	27789800	24992
77	1.113432	87777280	57290752	28459992	24992
78	2.13566	87777280	57290752	13024680	24992
79	1.534393	87777280	57290752	13893864	24992
80	1.812745	87777280	57290752	14865240	24992
81	1.818706	87777280	57290752	15940064	24992
82	0.355692	87777280	57290752	17190008	24992
83	0.540216	87777280	57290752	17500632	24992
84	0.706517	87777280	57290752	17916976	24992
85	0.880079	87777280	57290752	18437752	24992
86	1.060953	87777280	57290752	19065480	24992
87	1.300453	87777280	57290752	19800632	24992
88	1.45326	87777280	57290752	20644712	24992
89	1.783022	87777280	57290752	21597344	24992
90	1.816966	87777280	57290752	22661080	24992
91	2.162638	87777280	57290752	23835904	24992
92	0.387651	87777280	57290752	25206880	24992
93	0.612905	87777280	57290752	25545424	24992
94	0.800672	87777280	57290752	25997848	24992
95	0.95874	87777280	57290752	26565056	24992
96	1.15606	87777280	57290752	27251544	24992
97	1.68988	87777280	57290752	28051784	24992
98	2.177811	87777280	57290752	12758200	24992
99	1.792815	87777280	57290752	13794464	24992
100	1.930864	87777280	57290752	14951048	24992
101	2.195688	87777280	57290752	16228096	24992
102	0.418241	87777280	57290752	17724448	24992
103	0.839999	87777280	57290752	18090928	24992
104	0.837067	87777280	57290752	18584808	24992
105	1.038062	87777280	57290752	19206896	24992
106	1.247147	87777280	57290752	19958616	24992
107	1.547782	87777280	57290752	20840416	24992
108	1.657502	87777280	57290752	21853256	24992
109	2.010731	87777280	57290752	22998040	24992
110	2.091447	87777280	57290752	24276624	24992
111	2.675454	87777280	57290752	25689072	24992
112	0.452411	87777280	57290752	27349416	24992
113	0.678722	87777280	57290752	27756344	24992
114	0.895447	87777280	57290752	28299816	24992
115	1.116239	87777280	57290752	28980848	24992
116	2.040064	87777280	57290752	13455432	24992
117	1.856981	87777280	57290752	14416320	24992
118	2.112295	87777280	57290752	15515824	24992
119	2.166543	87777280	57290752	16758576	24992
120	2.258085	87777280	57290752	18142416	24992
121	2.476672	87777280	57290752	19669384	24992
122	0.47952	87777280	57290752	21462144	24992
123	0.926635	87777280	57290752	21896968	24992
124	0.962429	87777280	57290752	22477672	24992
125	1.193876	87777280	57290752	23205120	24992
126	1.437064	87777280	57290752	24080736	24992
127	1.866459	87777280	57290752	25105800	24992
128	2.269696	87777280	57290752	26281712	24992
129	2.15817	87777280	57290752	27611272	24992
130	2.58416	87777280	57290752	29087944	24992
131	3.382283	87777280	57290752	14358464	24992
132	0.551282	87777280	57290752	16272472	24992
133	0.824017	87777280	57290752	16735240	24992
134	1.086233	87777280	57290752	17353144	24992
135	1.360488	87777280	57290752	18127120	24992
136	1.72887	87777280	57290752	19060304	24992
137	1.79117	87777280	57290752	20149616	24992
138	2.037716	87777280	57290752	21397760	24992
139	2.284485	87777280	57290752	22805592	24992
140	2.625144	87777280	57290752	24375152	24992
141	3.020191	87777280	57290752	26106256	24992
142	0.539551	87777280	57290752	28143064	24992
143	0.815385	87777280	57290752	28633776	24992
144	1.617721	87777280	57290752	13009024	24992
145	1.366632	87777280	57290752	13829416	24992
146	1.616738	87777280	57290752	14816560	24992
147	2.079956	87777280	57290752	15971056	24992
148	2.15388	87777280	57290752	17293472	24992
149	2.613214	87777280	57290752	18786272	24992
150	2.735745	87777280	57290752	20448680	24992
151	2.979242	87777280	57290752	22281928	24992
152	0.571256	87777280	57290752	24438104	24992
153	0.863981	87777280	57290752	24956776	24992
154	1.220906	87777280	57290752	25649048	24992
155	1.43363	87777280	57290752	26515904	24992
156	1.725466	87777280	57290752	27558840	24992
157	1.995715	87777280	57290752	28780288	24992
158	2.809859	87777280	57290752	13879416	24992
159	2.574429	87777280	57290752	15454376	24992
160	2.91196	87777280	57290752	17209648	24992
161	3.204944	87777280	57290752	19144992	24992
162	0.643016	87777280	57290752	21422328	24992
163	0.92876	87777280	57290752	21968960	24992
164	1.237401	87777280	57290752	22698424	24992
165	1.524762	87777280	57290752	23611840	24992
166	1.804685	87777280	57290752	24710528	24992
167	2.155554	87777280	57290752	25995440	24992
168	2.451351	87777280	57290752	27466520	24992
169	2.730457	87777280	57290752	29125256	24992
170	3.690847	87777280	57290752	14641288	24992
171	3.528548	87777280	57290752	16678808	24992
172	0.635432	87777280	57290752	19085728	24992
173	0.959813	87777280	57290752	19660240	24992
174	1.275867	87777280	57290752	20426904	24992
175	1.578837	87777280	57290752	21386768	24992
176	1.976868	87777280	57290752	22541216	24992
177	2.209614	87777280	57290752	23890504	24992
178	2.537296	87777280	57290752	25435760	24992
179	2.867219	87777280	57290752	27178872	24992
180	3.181729	87777280	57290752	29119856	24992
181	4.181741	87777280	57290752	14936080	24992
182	0.677134	87777280	57290752	17464056	24992
183	1.010714	87777280	57290752	18066456	24992
184	1.327375	87777280	57290752	18870328	24992
185	1.662557	87777280	57290752	19881776	24992
186	1.989251	87777280	57290752	21091984	24992
187	2.515654	87777280	57290752	22509952	24992
188	2.667489	87777280	57290752	24129408	24992
189	2.993289	87777280	57290752	25958464	24992
190	3.352767	87777280	57290752	27992096	24992
191	4.204028	87777280	57290752	14069960	24992
192	0.698992	87777280	57290752	16725280	24992
193	1.051676	87777280	57290752	17355664	24992
194	1.396591	87777280	57290752	18196728	24992
195	1.737472	87777280	57290752	19249536	24992
196	2.288604	87777280	57290752	20515416	24992
197	2.480905	87777280	57290752	21994896	24992
198	2.796939	87777280	57290752	23692320	24992
199	3.185377	87777280	57290752	25601560	24992
200	3.859881	87777280	57290752	27729104	24992
201	4.408899	87777280	57290752	13974944	24992
202	0.728932	87777280	57290752	16753424	24992
203	1.259434	87777280	57290752	17411800	24992
204	1.484858	87777280	57290752	18290176	24992
205	1.812474	87777280	57290752	19389472	24992
206	2.178188	87777280	57290752	20711608	24992
207	2.539758	87777280	57290752	22256056	24992
208	2.917317	87777280	57290752	24026344	24992
209	3.276099	87777280	57290752	26027448	24992
210	3.64789	87777280	57290752	28263320	24992
211	4.525771	87777280	57290752	14561752	24992
212	0.770964	87777280	57290752	17503104	24992
213	1.142782	87777280	57290752	18214112	24992
214	1.513713	87777280	57290752	19162656	24992
215	1.897559	87777280	57290752	20349648	24992
216	2.27453	87777280	57290752	21776944	24992
217	2.855375	87777280	57290752	23444112	24992
218	3.285236	87777280	57290752	25352704	24992
219	3.47974	87777280	57290752	27506344	24992
220	4.007186	87777280	57290752	29901048	24992
221	4.562282	87777280	57290752	16150792	24992
222	0.789978	87777280	57290752	19278856	24992
223	1.193641	87777280	57290752	20017736	24992
224	1.778813	87777280	57290752	21003512	24992
225	2.169386	87777280	57290752	22236960	24992
226	2.374373	87777280	57290752	23719656	24992
227	2.777129	87777280	57290752	25453264	24992
228	3.170197	87777280	57290752	27436064	24992
229	3.57214	87777280	57290752	29673248	24992
230	4.612715	87777280	57290752	15828728	24992
231	4.8074	87777280	57290752	18569512	24992
232	0.818934	87777280	57290752	21825000	24992
233	1.237259	87777280	57290752	22591848	24992
234	1.641878	87777280	57290752	23614784	24992
235	2.048773	87777280	57290752	24894776	24992
236	2.683689	87777280	57290752	26433168	24992
237	2.88631	87777280	57290752	28235616	24992
238	3.759746	87777280	57290752	14151232	24992
239	3.968954	87777280	57290752	16468992	24992
240	4.484035	87777280	57290752	19050736	24992
241	4.589526	87777280	57290752	21893720	24992
242	0.974749	87777280	57290752	25270040	24992
243	1.287032	87777280	57290752	26064720	24992
244	1.700685	87777280	57290752	27124704	24992
245	2.184823	87777280	57290752	28450856	24992
246	2.852609	87777280	57290752	30044648	24992
247	3.37469	87777280	57290752	15509688	24992
248	3.511631	87777280	57290752	17640792	24992
249	3.88206	87777280	57290752	20044880	24992
250	4.48696	87777280	57290752	22717736	24992
251	4.721545	87777280	57290752	25662368	24992
252	0.883556	87777280	57290752	29163792	24992
253	1.342282	87777280	57290752	29986432	24992
254	2.23022	87777280	57290752	14729280	24992
255	2.35775	87777280	57290752	16102040	24992
256	2.833993	87777280	57290752	17751712	24992
257	3.290075	87777280	57290752	19683936	24992
258	3.774441	87777280	57290752	21889216	24992
259	4.265946	87777280	57290752	24373680	24992
260	4.480039	87777280	57290752	27139160	24992
261	5.137148	87777280	57290752	30185976	24992
262	0.913602	87777280	57290752	17398512	24992
263	1.386294	87777280	57290752	18249264	24992
264	1.827068	87777280	57290752	19383608	24992
265	2.287895	87777280	57290752	20806496	24992
266	2.919566	87777280	57290752	22511936	24992
267	3.227781	87777280	57290752	24503832	24992
268	3.710248	87777280	57290752	26783464	24992
269	4.147266	87777280	57290752	29356672	24992
270	5.293582	87777280	57290752	15961072	24992
271	5.337952	87777280	57290752	19115224	24992
272	0.998608	87777280	57290752	22851736	24992
273	1.462894	87777280	57290752	23734432	24992
274	1.897634	87777280	57290752	24906032	24992
275	2.358146	87777280	57290752	26371648	24992
276	3.032655	87777280	57290752	28132752	24992
277	3.320953	87777280	57290752	30190024	24992
278	4.156195	87777280	57290752	16197904	24992
279	4.467729	87777280	57290752	18849384	24992
280	4.761043	87777280	57290752	21800592	24992
281	5.239231	87777280	57290752	25051520	24992
282	0.971386	87777280	57290752	28905856	24992
283	1.469353	87777280	57290752	29812368	24992
284	2.326114	87777280	57290752	14723152	24992
285	2.466468	87777280	57290752	16235320	24992
286	2.927932	87777280	57290752	18052184	24992
287	3.482043	87777280	57290752	20174280	24992
288	4.218625	87777280	57290752	22605112	24992
289	4.632277	87777280	57290752	25340408	24992
290	5.134531	87777280	57290752	28384416	24992
291	6.076633	87777280	57290752	15638752	24992
292	1.004283	87777280	57290752	19615104	24992
293	1.509057	87777280	57290752	20549384	24992
294	2.405912	87777280	57290752	21795312	24992
295	3.118655	87777280	57290752	23353752	24992
296	3.029685	87777280	57290752	25226432	24992
297	3.622894	87777280	57290752	27421936	24992
298	4.80362	87777280	57290752	29924152	24992
299	5.181561	87777280	57290752	16453560	24992
300	5.279701	87777280	57290752	19593248	24992
301	6.103011	87777280	57290752	23055608	24992
302	1.070414	87777280	57290752	27155528	24992
303	1.579708	87777280	57290752	28117744	24992
304	2.088015	87777280	57290752	29400800	24992
305	3.066186	87777280	57290752	14847424	24992
306	3.314921	87777280	57290752	16787272	24992
307	3.633024	87777280	57290752	19039256	24992
308	4.147246	87777280	57290752	21615632	24992
309	4.678036	87777280	57290752	24517496	24992
310	5.2593	87777280	57290752	27763024	24992
311	6.42147	87777280	57290752	15472544	24992
312	1.06591	87777280	57290752	19690008	24992
313	1.608226	87777280	57290752	20686000	24992
314	2.188523	87777280	57290752	22006272	24992
315	2.669548	87777280	57290752	23657648	24992
316	3.20467	87777280	57290752	25650616	24992
317	3.765058	87777280	57290752	27967608	24992
318	4.344338	87777280	57290752	30619432	24992
319	5.378632	87777280	57290752	17362064	24992
320	5.577343	87777280	57290752	20684256	24992
321	6.099183	87777280	57290752	24343568	24992
322	1.100758	87777280	57290752	28682232	24992
323	1.849093	87777280	57290752	29700568	24992
324	2.773199	88047616	57815040	14943496	24992
325	2.971057	88047616	57815040	16641376	24992
326	3.355362	88047616	57815040	18681144	24992
327	3.946502	88047616	57815040	21063040	24992
328	4.639134	88047616	57815040	23788088	24992
329	5.040121	88047616	57815040	26863624	24992
330	5.564875	88047616	57815040	30278968	24992
331	6.875899	88047616	57815040	17839912	24992
332	1.165199	88047616	57815040	22299736	24992
333	1.707857	88047616	57815040	23345840	24992
334	2.271216	88047616	57815040	24740616	24992
335	2.878337	88047616	57815040	26484904	24992
336	3.385449	88047616	57815040	28585000	24992
337	4.056009	88047616	57815040	31033304	24992
338	5.293495	88047616	57815040	17582528	24992
339	5.465541	88047616	57815040	20735120	24992
340	5.705722	88047616	57815040	24248936	24992
341	6.445791	88047616	57815040	28112024	24992
342	1.170508	88317952	57815040	16893480	24992
343	1.960587	88317952	57815040	17967464	24992
344	2.315143	88317952	57815040	19399336	24992
345	2.953642	88317952	57815040	21190136	24992
346	3.502694	88317952	57815040	23341200	24992
347	4.150362	88317952	57815040	25853016	24992
348	4.706824	88317952	57815040	28742432	24992
349	6.18826	88317952	57815040	16094320	24992
350	5.875643	88317952	57815040	19694936	24992
351	6.89076	88317952	57815040	23660064	24992
352	1.250801	88317952	57815040	28378680	24992
353	2.045282	88317952	57815040	29480976	24992
354	2.402481	88317952	57815040	30957224	24992
355	3.613863	88317952	57815040	16599168	24992
356	3.633969	88317952	57815040	18819200	24992
357	4.391206	88317952	57815040	21404016	24992
358	4.813053	88317952	57815040	24360032	24992
359	5.593086	88317952	57815040	27679968	24992
360	6.006566	88317952	57815040	31387552	24992
361	7.266972	88317952	57815040	19215232	24992
362	1.286216	88317952	57815040	24054960	24992
363	2.11695	88317952	57815040	25186856	24992
364	2.470068	88317952	57815040	26693096	24992
365	3.087347	88317952	57815040	28576808	24992
366	3.681666	88317952	57815040	30839464	24992
367	5.071098	88317952	57815040	17345848	24992
368	4.932046	88317952	57815040	20377032	24992
369	5.54615	88317952	57815040	23780320	24992
370	6.16365	88317952	57815040	27572320	24992
371	6.975607	88317952	57815040	31741624	24992
372	1.258181	88317952	57815040	20443512	24992
373	2.090823	88317952	57815040	21603752	24992
374	2.520856	88317952	57815040	23154040	24992
375	3.138922	88317952	57815040	25085968	24992
376	3.763529	88317952	57815040	27404424	24992
377	4.694548	88317952	57815040	30111520	24992
378	5.711378	88317952	57815040	17162760	24992
379	5.728918	88317952	57815040	20651408	24992
380	6.322248	88317952	57815040	24530704	24992
381	7.148311	88317952	57815040	28802016	24992
382	1.353721	88317952	57815040	18022720	24992
383	2.046483	88317952	57815040	19208400	24992
384	2.709754	88317952	57815040	20802112	24992
385	3.408316	88317952	57815040	22778856	24992
386	4.100351	88317952	57815040	25153048	24992
387	4.515848	88317952	57815040	27925080	24992
388	5.399908	88317952	57815040	31103360	24992
389	6.471579	88317952	57815040	18549192	24992
390	6.499425	88317952	57815040	22521248	24992
391	7.124581	88317952	57815040	26894760	24992
392	1.31236	88317952	57815040	32098200	24992
393	2.601988	88317952	57815040	17060576	24992
394	2.693846	88317952	57815040	18678520	24992
395	3.50582	88317952	57815040	20701760	24992
396	4.013219	88317952	57815040	23131664	24992
397	4.843289	88317952	57815040	25968712	24992
398	5.308103	88317952	57815040	29213816	24992
399	6.826155	88317952	57815040	17040840	24992
400	6.637688	88317952	57815040	21105656	24992
401	7.695957	88317952	57815040	25584472	24992
402	1.414027	88317952	57815040	30908696	24992
403	2.240485	88317952	57815040	32150216	24992
404	3.445466	88317952	57815040	17571424	24992
405	3.578186	88317952	57815040	19641080	24992
406	4.295458	88317952	57815040	22126800	24992
407	4.787737	88317952	57815040	25031672	24992
408	5.446248	88317952	57815040	28350968	24992
409	6.313448	88317952	57815040	32101448	24992
410	7.659325	88317952	57815040	20058352	24992
411	7.48028	88317952	57815040	24636176	24992
412	1.450546	88317952	57815040	30097832	24992
413	2.194734	88317952	57815040	31367240	24992
414	3.644141	88317952	57815040	16993600	24992
415	3.488027	88317952	57815040	19110216	24992
416	4.173618	88317952	57815040	21651528	24992
417	4.842622	88317952	57815040	24618456	24992
418	5.559844	88317952	57815040	28012032	24992
419	6.427146	88317952	57815040	31850032	24992
420	8.013607	88317952	57815040	20006064	24992
421	8.005264	88317952	57815040	24751304	24992
422	1.621414	88317952	57815040	30428528	24992
423	2.14003	88317952	57815040	31775424	24992
424	3.551395	88317952	57815040	17446544	24992
425	3.555241	88317952	57815040	19691472	24992
426	4.266794	88317952	57815040	22387496	24992
427	4.980504	88317952	57815040	25535688	24992
428	5.857833	88317952	57815040	29139856	24992
429	7.359911	88317952	57815040	17440944	24992
430	7.403165	88317952	57815040	21963432	24992
431	8.294728	88317952	57815040	26940032	24992
432	1.688063	88317952	57815040	32867320	24992
433	2.866496	88317952	57815040	17988328	24992
434	2.896107	88317952	57815040	19820800	24992
435	3.610403	88317952	57815040	22127632	24992
436	4.334443	88317952	57815040	24887320	24992
437	5.073319	88317952	57815040	28110080	24992
438	5.996251	88317952	57815040	31798120	24992
439	7.295569	88317952	57815040	19858240	24992
440	7.459632	88317952	57815040	24461432	24992
441	7.994015	88317952	57815040	29529776	24992
442	1.551012	88317952	57815040	19764224	24992
443	2.461706	88317952	57815040	21166784	24992
444	2.981528	88317952	57815040	23051056	24992
445	3.891712	88317952	57815040	25388968	24992
446	4.613097	88317952	57815040	28197712	24992
447	5.168358	88317952	57815040	31475040	24992
448	6.953179	88317952	57815040	19236816	24992
449	6.728232	88317952	57815040	23456728	24992
450	7.610309	88317952	57815040	28159472	24992
451	8.344962	88317952	57815040	33330496	24992
452	1.586134	88317952	57815040	23181560	24992
453	2.405695	88317952	57815040	24612112	24992
454	3.189753	88317952	57815040	26518936	24992
455	3.797244	88317952	57815040	28908840	24992
456	4.734634	88317952	57815040	31771904	24992
457	6.153582	88317952	57815040	19066992	24992
458	6.280423	88317952	57815040	22900520	24992
459	7.131276	88317952	57815040	27211936	24992
460	7.581058	88317952	57815040	31998080	24992
461	9.385407	88317952	57815040	21157376	24992
462	1.769539	88317952	57815040	27439992	24992
463	2.333518	88317952	57815040	28898552	24992
464	3.092572	88317952	57815040	30842608	24992
465	3.843295	88317952	57815040	33279408	24992
466	5.771666	88317952	57815040	20014480	24992
467	5.401307	88317952	57815040	23427464	24992
468	6.364918	88317952	57815040	27324088	24992
469	6.942623	88317952	57815040	31719728	24992
470	8.620541	88317952	57815040	20625792	24992
471	8.627323	88317952	57815040	26014608	24992
472	1.648637	88317952	57815040	32418944	24992
473	2.484246	88317952	57815040	33905328	24992
474	4.094799	88317952	57815040	19635904	24992
475	4.2775	88317952	57815040	22113120	24992
476	4.730092	88317952	57815040	25087736	24992
477	5.720408	88317952	57815040	28560032	24992
478	6.3955	88317952	57815040	32532992	24992
479	8.167611	88317952	57815040	20956472	24992
480	7.953061	88317952	57815040	25941664	24992
481	8.920717	88317952	57815040	31422912	24992
482	1.679146	88317952	57815040	21976992	24992
483	2.533163	88317952	57815040	23495984	24992
484	3.522201	88317952	57815040	25532080	24992
485	4.369141	88317952	57815040	28056000	24992
486	4.808277	88317952	57815040	31086376	24992
487	6.799943	88317952	57815040	18797944	24992
488	6.49181	88317952	57815040	22843216	24992
489	7.215456	88317952	57815040	27397496	24992
490	8.619375	88317952	57815040	32481816	24992
491	10.263153	88317952	57815040	21963456	24992
492	1.672676	88317952	57815040	28608648	24992
493	2.497854	88317952	57815040	30151048	24992
494	3.262235	88317952	57815040	32206808	24992
495	5.113945	88317952	57815040	18819776	24992
496	4.917471	88317952	57815040	21905912	24992
497	5.767248	88317952	57815040	25508272	24992
498	6.657148	88317952	57815040	29627872	24992
499	7.598385	88317952	57815040	34265456	24992
500	9.096767	88317952	57815040	23180800	24992
501	9.406667	88317952	57815040	28858320	24992
502	2.5842	88317952	57815040	19392456	24992
503	2.744995	88317952	57815040	20965096	24992
504	3.640691	88317952	57815040	23058048	24992
505	4.204701	88317952	57815040	25674696	24992
506	5.282095	88317952	57815040	28816440	24992
507	5.880059	88317952	57815040	32483704	24992
508	7.908761	88317952	57815040	20721864	24992
509	7.653485	88317952	57815040	25442960	24992
510	8.575684	88317952	57815040	30694304	24992
511	10.393362	88317952	57815040	20773576	24992
512	1.789677	88317952	57815040	27660840	24992
513	2.668261	88317952	57815040	29258968	24992
514	3.577858	88317952	57815040	31388984	24992
515	4.496682	88317952	57815040	34064680	24992
516	5.989002	88317952	57815040	21095392	24992
517	5.979305	88317952	57815040	24842648	24992
518	6.831886	88317952	57815040	29110736	24992
519	7.885001	88317952	57815040	33915352	24992
520	9.685717	88317952	57815040	23130312	24992
521	9.44574	88317952	57815040	29011872	24992
522	2.761046	88317952	57815040	19774896	24992
523	2.595174	88317952	57815040	21420920	24992
524	3.500366	88317952	57815040	23588304	24992
525	4.506463	88317952	57815040	26297896	24992
526	5.230634	88317952	57815040	29551152	24992
527	6.150562	88317952	57815040	33358648	24992
528	7.954508	88317952	57815040	21693168	24992
529	8.015271	88317952	57815040	26581832	24992
530	8.906421	88317952	57815040	32017992	24992
531	11.066372	88317952	57815040	22153056	24992
532	1.877317	88317952	57815040	29282664	24992
533	2.630997	88317952	57815040	30947720	24992
534	3.712051	88317952	57815040	33152280	24992
535	5.658451	88317952	57815040	19979224	24992
536	5.318059	88317952	57815040	23311296	24992
537	6.32888	88317952	57815040	27173600	24992
538	7.153275	88317952	57815040	31611456	24992
539	9.394258	88317952	57815040	20847360	24992
540	9.067619	88317952	57815040	26376256	24992
541	9.9408	88317952	57815040	32462392	24992
542	2.029472	88317952	57815040	23813808	24992
543	2.746982	88317952	57815040	25505760	24992
544	3.589624	88317952	57815040	27747352	24992
545	4.683155	88317952	57815040	30549800	24992
546	5.36968	88317952	57815040	33914568	24992
547	7.337616	88317952	57815040	21827456	24992
548	7.21553	88317952	57815040	26326824	24992
549	8.327679	88317952	57815040	31382504	24992
550	10.364366	88317952	57815040	21260104	24992
551	10.06987	88317952	57815040	27464304	24992
552	1.863019	88317952	57815040	34840848	24992
553	3.735001	88317952	57815040	20377696	24992
554	3.694974	88317952	57815040	22672128	24992
555	4.759386	88317952	57815040	25521120	24992
556	5.470741	88317952	57815040	28958032	24992
557	6.595434	88317952	57815040	32962504	24992
558	8.445787	88317952	57815040	21706920	24992
559	8.423281	88317952	57815040	26849104	24992
560	9.441644	88317952	57815040	32583048	24992
561	11.505063	88317952	57815040	23008240	24992
562	1.927311	88317952	57815040	30510696	24992
563	2.79776	88317952	57815040	32252248	24992
564	3.709627	88317952	57815040	34568296	24992
565	5.739649	88317952	57815040	21419000	24992
566	5.640169	88317952	57815040	24895160	24992
567	6.837209	88317952	57815040	28952784	24992
568	7.794951	88317952	57815040	33592112	24992
569	9.575785	88317952	57815040	22918216	24992
570	9.632287	88317952	57815040	28738520	24992
571	10.387296	88317952	57815040	35131080	24992
572	1.988434	88317952	57815040	26544936	24992
573	3.137407	88317952	57815040	28324728	24992
574	3.771658	88317952	57815040	30678208	24992
575	4.700619	88317952	57815040	33621400	24992
576	6.863806	88317952	57815040	21269832	24992
577	6.997334	88317952	57815040	25397696	24992
578	7.797314	88317952	57815040	30127616	24992
579	8.760301	88317952	57815040	35433968	24992
580	10.585885	88317952	57815040	25110984	24992
581	10.69164	88317952	57815040	31620184	24992
582	2.04593	88317952	57815040	23716744	24992
583	2.929817	88317952	57815040	25515088	24992
584	3.864659	88317952	57815040	27905632	24992
585	4.989928	88317952	57815040	30894040	24992
586	5.865445	88317952	57815040	34484480	24992
587	7.951304	88317952	57815040	22701592	24992
588	7.970536	88317952	57815040	27503872	24992
589	8.817701	88317952	57815040	32893480	24992
590	11.56076	88317952	57815040	23111592	24992
591	10.962591	88317952	57815040	29721368	24992
592	3.064873	88317952	57815040	21365688	24992
593	3.161222	88317952	57815040	23191824	24992
594	3.886577	88317952	57815040	25619544	24992
595	4.860915	88317952	57815040	28654488	24992
596	6.032233	88317952	57815040	32297968	24992
597	6.833201	88317952	57815040	36550464	24992
598	8.901895	88317952	57815040	25198032	24992
599	9.002903	88317952	57815040	30689432	24992
600	10.070161	88317952	57815040	36775856	24992
601	11.959099	88317952	57815040	27167864	24992
602	2.034837	88317952	57815040	35150080	24992
603	3.023543	88317952	57815040	36999504	24992
604	5.131069	88317952	57815040	23191632	24992
605	5.205552	88317952	57815040	26275368	24992
606	6.192281	88317952	57815040	29989512	24992
607	6.940024	88317952	57815040	34312984	24992
608	9.582406	88317952	57815040	23386736	24992
609	9.490676	88317952	57815040	28943976	24992
610	10.156073	88317952	57815040	35128688	24992
611	12.502152	88317952	57815040	25897056	24992
612	2.110932	88317952	57815040	34024696	24992
613	3.164195	88317952	57815040	35902144	24992
614	5.379764	88317952	57815040	22359816	24992
615	5.032811	88317952	57815040	25487656	24992
616	6.079204	88317952	57815040	29253096	24992
617	7.086131	88317952	57815040	33636016	24992
618	9.538947	88317952	57815040	22903288	24992
619	9.706979	88317952	57815040	28550248	24992
620	10.523987	88317952	57815040	34824816	24992
621	12.485745	88317952	57815040	25776656	24992
622	2.251404	88317952	57815040	34001520	24992
623	3.401888	88317952	57815040	35908720	24992
624	6.124439	88317952	57815040	22425944	24992
625	5.408032	88317952	57815040	25614864	24992
626	6.572342	88317952	57815040	29437736	24992
627	7.243366	88317952	57815040	33894896	24992
628	9.635638	88317952	57815040	23265784	24992
629	9.425155	88317952	57815040	29000248	24992
630	10.487539	88317952	57815040	35398872	24992
631	12.87649	88317952	57815040	26384960	24992
632	2.151357	88317952	57815040	34726112	24992
633	3.111154	88317952	57815040	36659520	24992
634	5.655837	88317952	57815040	23124256	24992
635	5.197202	88317952	57815040	26346616	24992
636	6.450984	88317952	57815040	30213088	24992
637	7.323014	88317952	57815040	34725712	24992
638	9.804346	88317952	57815040	24069848	24992
639	9.623414	88317952	57815040	29890568	24992
640	10.462897	88317952	57815040	36347960	24992
641	12.96274	88317952	57815040	27373880	24992
642	2.199726	88317952	57815040	35841296	24992
643	3.311306	88317952	57815040	37802704	24992
644	5.568856	88317952	57815040	24200288	24992
645	5.304635	88317952	57815040	27488880	24992
646	6.321627	88317952	57815040	31411160	24992
647	7.378414	88317952	57815040	35990496	24992
648	10.007889	88317952	57815040	25308080	24992
649	10.056128	88317952	57815040	31212904	24992
650	10.790882	88317952	57815040	37772880	24992
651	13.06903	88317952	57815040	28715840	24992
652	2.236674	88317952	57815040	37314368	24992
653	4.649263	88317952	57815040	23190064	24992
654	4.28077	88317952	57815040	25841160	24992
655	5.332758	88317952	57815040	29165640	24992
656	6.629967	88317952	57815040	33162528	24992
657	7.678478	88317952	57815040	37826712	24992
658	9.915814	88317952	57815040	26919768	24992
659	9.739873	88317952	57815040	32915976	24992
660	12.482997	88317952	57815040	24046160	24992
661	11.958951	88317952	57815040	31357224	24992
662	2.239194	88317952	57815040	23756768	24992
663	3.250733	88317952	57815040	25773752	24992
664	4.332001	88317952	57815040	28461960	24992
665	5.424923	88317952	57815040	31822144	24992
666	6.511656	88317952	57815040	35861192	24992
667	9.220019	88317952	57815040	24719680	24992
668	8.940978	88317952	57815040	30106520	24992
669	10.011239	88317952	57815040	36184480	24992
670	12.406293	88317952	57815040	26933632	24992
671	12.210823	88317952	57815040	34372832	24992
672	2.324532	88317952	58339328	27500200	24992
673	3.328251	88317952	58339328	29561984	24992
674	4.397089	88317952	58339328	32289816	24992
675	5.603468	88317952	58339328	35696552	24992
676	8.266895	88588288	58863616	23985672	24992
677	7.923377	88588288	58863616	28765064	24992
678	9.089957	88588288	58863616	34226664	24992
679	11.640281	88588288	58863616	24674392	24992
680	11.392673	88588288	58863616	31521064	24992
681	12.97261	88588288	58863616	39051648	24992
682	2.303012	88588288	58863616	31601152	24992
683	3.399693	88588288	58863616	33678240	24992
684	4.50679	88588288	58863616	36440824	24992
685	7.181001	88588288	58863616	24000456	24992
686	6.975635	88588288	58863616	28168456	24992
687	7.849818	88588288	58863616	33007224	24992
688	9.16417	88858624	58863616	38538216	24992
689	11.479124	88858624	58863616	28587728	24992
690	11.440323	88858624	58863616	35542344	24992
691	14.182072	88858624	58863616	27385984	24992
692	2.240711	88858624	58863616	36493392	24992
693	3.398425	88858624	58863616	38594256	24992
694	5.829231	88858624	58863616	25204552	24992
695	5.70061	88858624	58863616	28704040	24992
696	6.85282	88858624	58863616	32920808	24992
697	7.995978	88858624	58863616	37823336	24992
698	10.49938	89128960	59387904	27396136	24992
699	10.538787	89128960	59387904	33734088	24992
700	13.192648	89128960	59387904	25308152	24992
701	12.76135	89128960	59387904	33027672	24992
702	2.409826	89128960	59387904	26871880	24992
703	3.642454	89128960	59387904	29012896	24992
704	4.808736	89128960	59387904	31849848	24992
705	5.755581	89128960	59387904	35413808	24992
706	7.06517	89128960	59387904	39688384	24992
707	9.309471	89399296	59387904	28334560	24992
708	9.484407	89399296	59387904	34027400	24992
709	12.18226	89399296	59387904	24902016	24992
710	11.776815	89399296	59387904	32018400	24992
711	12.981016	89399296	59387904	39839824	24992
712	2.437838	89399296	59387904	32760080	24992
713	3.493804	89399296	59387904	34933272	24992
714	4.84608	89399296	59387904	37807408	24992
715	7.198835	89399296	59387904	25412760	24992
716	7.188594	89399296	59387904	29735848	24992
717	8.463161	89399296	59387904	34768376	24992
718	11.345246	89669632	59387904	25045408	24992
719	10.766938	89669632	59387904	31521888	24992
720	11.918938	89669632	59387904	38748000	24992
721	14.450781	89669632	59387904	30484552	24992
722	2.366601	89669632	59387904	39948544	24992
723	4.851691	89669632	59912192	25912672	24992
724	4.718506	89669632	59912192	28824112	24992
725	5.896195	89669632	59912192	32463208	24992
726	7.273043	89669632	59912192	36852040	24992
727	10.075859	89939968	59912192	26187376	24992
728	9.512658	89939968	59912192	32032320	24992
729	10.905711	89939968	59912192	38615928	24992
730	13.865642	89939968	59912192	29798760	24992
731	13.774315	89939968	59912192	37843488	24992
732	2.625186	89939968	59912192	31435320	24992
733	3.955335	89939968	59912192	33655192	24992
734	4.844427	89939968	59912192	36613696	24992
735	6.330807	89939968	59912192	40299128	24992
736	8.501388	90210304	59912192	28434632	24992
737	8.675025	90210304	59912192	33601512	24992
738	9.836696	90210304	59912192	39503920	24992
739	12.364576	90210304	59912192	29960456	24992
740	12.410507	90210304	59912192	37353968	24992
741	15.015611	90210304	59912192	29648504	24992
742	2.604338	90210304	59912192	39351224	24992
743	4.984701	90210304	59912192	25499400	24992
744	5.057955	90210304	59912192	28490664	24992
745	6.119457	90210304	59912192	32222584	24992
746	7.352773	90210304	59912192	36718984	24992
747	10.249682	90480640	60436480	26308968	24992
748	9.732525	90480640	60436480	32308416	24992
749	11.224109	90480640	60436480	39057048	24992
750	13.88873	90480640	60436480	30462360	24992
751	13.630878	90480640	60436480	38722192	24992
752	2.564495	90480640	60436480	32494088	24992
753	3.860177	90480640	60436480	34762560	24992
754	5.099039	90480640	60436480	37789712	24992
755	7.921021	90750976	60436480	25788368	24992
756	7.590151	90750976	60436480	30323616	24992
757	8.688222	90750976	60436480	35617968	24992
758	11.710036	90750976	60436480	26145536	24992
759	11.336863	90750976	60436480	32979528	24992
760	12.590305	90750976	60436480	40567248	24992
761	15.18604	90750976	60436480	32644776	24992
762	3.845794	90750976	60436480	26332800	24992
763	3.730308	90750976	60436480	28629248	24992
764	4.967891	90750976	60436480	31692784	24992
765	6.427467	90750976	60436480	35528432	24992
766	7.680519	90750976	60436480	40119784	24992
767	10.230345	91021312	60436480	29410392	24992
768	10.430968	91021312	60436480	35551064	24992
769	13.188672	91021312	60960768	26946432	24992
770	12.766013	91021312	60960768	34633112	24992
771	15.963359	91021312	60960768	27702528	24992
772	2.63441	91021312	60960768	37759176	24992
773	3.956076	91021312	60960768	40083648	24992
774	6.475078	91021312	60960768	27108184	24992
775	6.40117	91021312	60960768	30979720	24992
776	7.656347	91021312	60960768	35626520	24992
777	9.013906	91021312	60960768	41049096	24992
778	11.867361	91291648	60960768	31084888	24992
779	11.472948	91291648	60960768	38062000	24992
780	14.663608	91291648	60960768	29998184	24992
781	14.183387	91291648	60960768	38592480	24992
782	2.666778	91291648	60960768	32851208	24992
783	3.848814	91291648	60960768	35203440	24992
784	5.266793	91291648	60960768	38338032	24992
785	8.686625	91561984	60960768	26559448	24992
786	7.86721	91561984	60960768	31262008	24992
787	9.085088	91561984	60960768	36754824	24992
788	12.291747	91561984	60960768	27462472	24992
789	11.751444	91561984	60960768	34529552	24992
790	14.81275	91561984	61485056	27149544	24992
791	14.537034	91561984	61485056	35840736	24992
792	2.571658	91561984	61485056	30649536	24992
793	3.859999	91561984	61485056	33042544	24992
794	5.32484	91561984	61485056	36214320	24992
795	6.495172	91561984	61485056	40178512	24992
796	9.672872	91832320	61485056	28994624	24992
797	9.321084	91832320	61485056	34547976	24992
798	10.546352	91832320	61485056	40924704	24992
799	13.359817	91832320	62009344	31901144	24992
800	13.248843	91832320	62009344	39843488	24992
801	16.193945	91832320	62009344	32548112	24992
802	4.167005	91832320	62009344	26850456	24992
803	3.909461	91832320	62009344	29258552	24992
804	5.383068	91832320	62009344	32467512	24992
805	6.531409	91832320	62009344	36484032	24992
806	7.893767	91832320	62009344	41298080	24992
807	10.906546	92102656	62009344	30815008	24992
808	10.693679	92102656	62009344	37237200	24992
809	13.864408	92102656	62009344	28903080	24992
810	13.40644	92102656	62009344	36970728	24992
811	16.320511	92102656	62009344	30251624	24992
812	2.722602	92102656	62009344	40822176	24992
813	5.541898	92102656	62009344	27250864	24992
814	5.655331	92102656	62009344	30505168	24992
815	6.599885	92102656	62009344	34562488	24992
816	8.112118	92102656	62009344	39432328	24992
817	11.084879	92372992	62009344	29312856	24992
818	10.850778	92372992	62009344	35820040	24992
819	14.411497	92372992	62009344	27827112	24992
820	13.495118	92372992	62009344	35958736	24992
821	16.647885	92372992	62533632	29596064	24992
822	2.663277	92372992	62533632	40266480	24992
823	4.234244	92372992	62533632	42730528	24992
824	6.784598	92372992	62533632	29753296	24992
825	6.887991	92372992	62533632	33882016	24992
826	8.229545	92372992	62533632	38814776	24992
827	11.212158	92643328	62533632	28900040	24992
828	11.047294	92643328	62533632	35482056	24992
829	12.5141	92643328	62533632	42879888	24992
830	15.122297	92643328	62533632	34696472	24992
831	17.019691	92643328	62533632	28646136	24992
832	2.833861	92643328	62533632	39453984	24992
833	4.261443	92643328	62533632	41954632	24992
834	7.186248	92643328	62533632	29216952	24992
835	6.780895	92643328	62533632	33367216	24992
836	8.466462	92643328	62533632	38369336	24992
837	11.765901	92913664	62533632	28666592	24992
838	10.974993	92913664	62533632	35320000	24992
839	12.439269	92913664	62533632	42835264	24992
840	15.432675	92913664	62533632	34917280	24992
841	17.282467	92913664	62533632	28972808	24992
842	2.860629	92913664	62533632	40016632	24992
843	4.295073	92913664	62533632	42585752	24992
844	7.040881	92913664	62533632	29833816	24992
845	7.087071	92913664	62533632	34118936	24992
846	8.28109	92913664	62533632	39259992	24992
847	11.659581	93184000	63057920	29600672	24992
848	11.274685	93184000	63057920	36481784	24992
849	14.584285	93184000	63057920	28935040	24992
850	14.225791	93184000	63057920	37556232	24992
851	17.253002	93184000	63057920	31471592	24992
852	3.01023	93184000	63057920	42760648	24992
853	5.731449	93184000	63057920	29205408	24992
854	5.767626	93184000	63057920	32672544	24992
855	6.929581	93184000	63057920	36997936	24992
856	8.519232	93184000	63057920	42189312	24992
857	11.796204	93454336	63057920	32234344	24992
858	11.323389	93454336	63057920	39175400	24992
859	14.795619	93454336	63057920	31330752	24992
860	14.228456	93454336	63057920	40004768	24992
861	17.650969	93454336	63057920	33785824	24992
862	4.384658	93454336	63057920	29001984	24992
863	4.234436	93454336	63057920	31626960	24992
864	5.670219	93454336	63057920	35124936	24992
865	7.28772	93454336	63057920	39505432	24992
866	10.62593	93724672	63582208	29126840	24992
867	10.165765	93724672	63582208	35249720	24992
868	11.485393	93724672	63582208	42259720	24992
869	14.538161	93724672	63582208	34013048	24992
870	14.314601	93724672	63582208	42786904	24992
871	17.6396	93724672	63582208	36313232	24992
872	2.837213	93724672	63582208	32605184	24992
873	4.431574	93724672	63582208	35258352	24992
874	5.835529	93724672	63582208	38794104	24992
875	7.168961	93724672	63582208	43226416	24992
876	10.886526	93995008	64106496	32394480	24992
877	9.970076	93995008	64106496	38605760	24992
878	13.669986	93995008	64106496	30179608	24992
879	13.029278	93995008	64106496	38140720	24992
880	16.650457	93995008	64106496	31491328	24992
881	15.819387	93995008	64106496	41245240	24992
882	2.850582	93995008	64106496	37003760	24992
883	4.274265	93995008	64106496	39700792	24992
884	5.958171	93995008	64106496	43273232	24992
885	9.227236	94265344	64106496	31711448	24992
886	8.803622	94265344	64106496	37078560	24992
887	10.12751	94265344	64106496	43343992	24992
888	13.336897	94265344	64106496	34341664	24992
889	13.152945	94265344	64106496	42401088	24992
890	16.542745	94265344	64106496	35341328	24992
891	18.221759	94265344	64106496	30213520	24992
892	3.02181	94265344	64106496	41970728	24992
893	4.55856	94265344	64106496	44679512	24992
894	7.627453	94265344	64106496	32033368	24992
895	7.353744	94265344	64106496	36544712	24992
896	8.93115	94265344	64106496	41967064	24992
897	12.280133	94535680	64630784	32447064	24992
898	11.831547	94535680	64630784	39687704	24992
899	15.074171	94535680	64630784	32213840	24992
900	14.996644	94535680	64630784	41275920	24992
901	18.351282	94535680	64630784	35367200	24992
902	3.070603	94535680	64630784	32304048	24992
903	4.590485	94806016	64630784	35044728	24992
904	5.875711	94806016	64630784	38691504	24992
905	7.414921	94806016	64630784	43259432	24992
906	10.818937	94806016	64630784	32719128	24992
907	10.49009	94806016	64630784	39152696	24992
908	14.051185	94806016	64630784	31000352	24992
909	13.502576	94806016	64630784	39217288	24992
910	17.392661	94806016	64630784	32871488	24992
911	16.283815	94806016	64630784	42984584	24992
912	3.247345	94806016	64630784	38967064	24992
913	4.675873	94806016	64630784	41731856	24992
914	8.315635	95076352	65155072	29673352	24992
915	7.802467	95076352	65155072	34294192	24992
916	9.008768	95076352	65155072	39842352	24992
917	12.507564	95076352	65155072	30752272	24992
918	12.50576	95076352	65155072	38135736	24992
919	16.016567	95076352	65155072	31147512	24992
920	15.357757	95076352	65155072	40369168	24992
921	18.8245	95346688	65155072	34928872	24992
922	4.703317	95346688	65155072	30902632	24992
923	4.469276	95346688	65155072	33700624	24992
924	6.193794	95346688	65155072	37440904	24992
925	7.735869	95346688	65155072	42105104	24992
926	11.15238	95346688	65155072	31953168	24992
927	10.683607	95346688	65155072	38475448	24992
928	14.394788	95346688	65155072	30630960	24992
929	13.753418	95346688	65155072	39031784	24992
930	17.613883	95346688	65155072	33063456	24992
931	16.808408	95617024	65155072	43316704	24992
932	3.143452	95617024	65155072	39580064	24992
933	4.762854	95617024	65155072	42400616	24992
934	8.210048	95617024	65679360	30431552	24992
935	7.630466	95617024	65679360	35148472	24992
936	9.144519	95617024	65679360	40825048	24992
937	12.93239	95617024	65679360	31830416	24992
938	12.409068	95617024	65679360	39384200	24992
939	15.928006	95887360	65679360	32483496	24992
940	15.614638	95887360	65679360	41924944	24992
941	18.935243	95887360	65679360	36589488	24992
942	3.197256	95887360	65679360	34060880	24992
943	4.746637	95887360	65679360	36909392	24992
944	6.489376	95887360	65679360	40708664	24992
945	7.697904	95887360	65679360	45454288	24992
946	11.158994	95887360	65679360	35005024	24992
947	10.800561	95887360	65679360	41678072	24992
948	14.896972	96157696	65679360	33594864	24992
949	14.239291	96157696	65679360	42155200	24992
950	17.808289	96157696	65679360	35951112	24992
951	17.347573	96157696	65679360	46411808	24992
952	3.209548	96157696	65679360	42444552	24992
953	4.688667	96157696	65679360	45321160	24992
954	7.976125	96157696	65679360	33105072	24992
955	7.940881	96157696	65679360	37915224	24992
956	9.562352	96157696	65679360	43676120	24992
957	13.082669	96428032	66203648	34561256	24992
958	12.401726	96428032	66203648	42244600	24992
959	16.371722	96428032	66727936	35208872	24992
960	16.01094	96428032	66727936	44835888	24992
961	19.113424	96428032	66727936	39287536	24992
962	3.164741	96428032	66727936	36596464	24992
963	4.682008	96428032	66727936	39515576	24992
964	6.723561	96428032	66727936	43402272	24992
965	10.081457	96698368	66727936	32557872	24992
966	9.54737	96698368	66727936	38384752	24992
967	10.976307	96698368	66727936	45178280	24992
968	14.532829	96698368	66727936	36850112	24992
969	14.560866	96698368	66727936	45608504	24992
970	17.81987	96698368	66727936	39188400	24992
971	19.691643	96698368	66727936	34659840	24992
972	5.16237	96698368	66727936	31391480	24992
973	4.706995	96698368	66727936	34323880	24992
974	6.664378	96698368	66727936	38238480	24992
975	8.096031	96698368	66727936	43121608	24992
976	11.780245	96968704	67252224	33324088	24992
977	11.143527	96968704	67252224	40174080	24992
978	15.406936	96968704	67252224	32751016	24992
979	14.713005	96968704	67252224	41602200	24992
980	18.500739	96968704	67252224	35891496	24992
981	17.490966	96968704	67252224	46727208	24992
982	3.31606	96968704	67252224	43330880	24992
983	4.807566	96968704	67252224	46314224	24992
984	8.453698	97239040	67252224	34177456	24992
985	8.231522	97239040	67252224	39131184	24992
986	9.782101	97239040	67252224	45047296	24992
987	13.333208	97239040	67252224	36016304	24992
988	13.161546	97239040	67252224	43945808	24992
989	16.602368	97239040	67252224	37028912	24992
990	16.287619	97239040	67252224	46915192	24992
991	19.885347	97239040	67252224	41590304	24992
992	3.31701	97239040	67252224	39068416	24992
993	4.798729	97239040	67252224	42058912	24992
994	6.481525	97239040	67252224	46065800	24992
995	10.375852	97509376	67252224	35077704	24992
996	9.701521	97509376	67252224	41077184	24992
997	14.134921	97509376	67776512	32674760	24992
998	13.207759	97509376	67776512	40650472	24992
999	17.279077	97509376	67776512	34400936	24992
1000	16.377335	97509376	67776512	44391440	24992
x	Duration	RSS	HeapTotal	HeapUsed	External
0	NA	95555584	64630784	11979536	24992
1	0.253656	95555584	64630784	12031464	24992
2	0.190157	95555584	64630784	12108248	24992
3	0.216485	95555584	64630784	12212144	24992
4	0.263621	95555584	64630784	12344696	24992
5	0.310629	95555584	64630784	12507432	24992
6	0.360712	95555584	64630784	12700744	24992
7	0.40974	95555584	64630784	12925632	24992
8	0.464686	95555584	64630784	13183080	24992
9	0.765433	95555584	64630784	13475048	24992
10	0.603704	95555584	64630784	13802152	24992
11	1.050465	95555584	64630784	14165344	24992
12	0.152278	95555584	64630784	14561328	24992
13	0.22494	95555584	64630784	14673752	24992
14	0.289492	95555584	64630784	14825080	24992
15	0.351063	95555584	64630784	15016376	24992
16	0.450691	95555584	64630784	15249168	24992
17	0.518071	95555584	64630784	15523848	24992
18	0.56257	95555584	64630784	15841504	24992
19	0.664766	95555584	64630784	16212416	24992
20	0.890485	95555584	64630784	16620384	24992
21	0.931734	95555584	64630784	17074584	24992
22	0.18726	95555584	64630784	17583320	24992
23	0.287649	95555584	64630784	17727936	24992
24	0.341064	95555584	64630784	17920496	24992
25	0.417462	95555584	64630784	18164128	24992
26	0.499306	95555584	64630784	18460456	24992
27	0.589041	95555584	64630784	18809768	24992
28	0.66065	95555584	64630784	19213024	24992
29	0.979153	95555584	64630784	19671288	24992
30	0.835962	95555584	64630784	20186472	24992
31	0.922203	95555584	64630784	20758584	24992
32	0.205611	95555584	64630784	21409320	24992
33	0.489527	95555584	64630784	21584280	24992
34	0.403765	95555584	64630784	21819096	24992
35	0.496267	95555584	64630784	22114840	24992
36	0.592686	95555584	64630784	22472896	24992
37	0.691651	95555584	64630784	22893664	24992
38	0.791688	95555584	64630784	23378280	24992
39	1.099042	95555584	64630784	23927536	24992
40	1.014825	95555584	64630784	24543504	24992
41	1.331706	95555584	64630784	25228928	24992
42	0.238554	95555584	64630784	26012160	24992
43	0.357644	95555584	64630784	26216376	24992
44	0.462856	95555584	64630784	26490192	24992
45	0.579189	95555584	64630784	26835976	24992
46	0.688791	95555584	64630784	27253816	24992
47	0.801247	95555584	64630784	27744848	24992
48	1.128108	95555584	64630784	28310104	24992
49	1.953974	95555584	64630784	12688784	24992
50	1.293257	95555584	64630784	13409960	24992
51	1.369564	95555584	64630784	14208800	24992
52	0.272577	95555584	64630784	15134376	24992
53	0.406025	95555584	64630784	15376176	24992
54	0.535065	95555584	64630784	15700112	24992
55	0.650923	95555584	64630784	16107184	24992
56	0.77365	95555584	64630784	16598880	24992
57	0.90136	95555584	64630784	17175720	24992
58	1.02959	95555584	64630784	17838600	24992
59	1.181027	95555584	64630784	18588528	24992
60	1.297055	95555584	64630784	19427312	24992
61	1.428056	95555584	64630784	20355136	24992
62	0.320244	95555584	64630784	21429600	24992
63	0.489352	95555584	64630784	21700720	24992
64	0.632899	95555584	64630784	22063664	24992
65	0.732906	95555584	64630784	22519536	24992
66	0.938343	95555584	64630784	23069784	24992
67	1.015994	95555584	64630784	23714832	24992
68	1.293001	95555584	64630784	24455768	24992
69	1.568534	95555584	64630784	25294320	24992
70	1.463788	95555584	64630784	26230224	24992
71	1.603168	95555584	64630784	27264848	24992
72	0.32796	95555584	64630784	28465848	24992
73	0.491542	95555584	64630784	28766064	24992
74	1.454878	95555584	64630784	12949624	24992
75	0.889998	95555584	64630784	13454016	24992
76	1.048028	95555584	64630784	14062600	24992
77	1.216938	95555584	64630784	14775584	24992
78	1.598303	95555584	64630784	15596104	24992
79	1.452951	95555584	64630784	16521128	24992
80	1.610361	95555584	64630784	17554680	24992
81	1.88192	95555584	64630784	18697640	24992
82	0.375197	95555584	64630784	20030976	24992
83	0.542505	95555584	64630784	20360592	24992
84	0.715497	95555584	64630784	20803624	24992
85	0.882329	95555584	64630784	21358944	24992
86	1.057525	95555584	64630784	22029224	24992
87	1.293844	95555584	64630784	22818000	24992
88	1.40791	95555584	64630784	23720144	24992
89	1.582597	95555584	64630784	24739592	24992
90	1.765075	95555584	64630784	25878336	24992
91	1.948347	95555584	64630784	27136624	24992
92	0.421272	95555584	64630784	28610272	24992
93	0.631795	95555584	64630784	28972304	24992
94	1.616131	95555584	64630784	13157224	24992
95	0.991082	95555584	64630784	13764760	24992
96	1.158122	95555584	64630784	14496952	24992
97	1.367902	95555584	64630784	15354304	24992
98	1.542778	95555584	64630784	16337840	24992
99	1.728395	95555584	64630784	17448464	24992
100	1.957263	95555584	64630784	18691536	24992
101	2.122873	95555584	64630784	20061680	24992
102	0.425067	95555584	64630784	21676528	24992
103	0.637622	95555584	64630784	22080304	24992
104	0.836637	95555584	64630784	22621320	24992
105	1.101364	95555584	64630784	23298360	24992
106	1.246121	95555584	64630784	24114104	24992
107	1.45785	95555584	64630784	25068832	24992
108	1.716647	95555584	64630784	26163744	24992
109	1.877864	95555584	64630784	27399576	24992
110	2.305775	95555584	64630784	28778984	24992
111	2.975467	95555584	64630784	14022440	24992
112	0.487075	95555584	64630784	15814392	24992
113	0.746302	95555584	64630784	16247448	24992
114	0.969573	95555584	64630784	16826400	24992
115	1.207388	95555584	64630784	17552344	24992
116	1.659152	95555584	64630784	18426584	24992
117	1.745145	95555584	64630784	19451256	24992
118	1.910245	95555584	64630784	20624152	24992
119	2.267659	95555584	64630784	21949744	24992
120	2.491272	95555584	64630784	23434240	24992
121	2.554125	95555584	64630784	25063216	24992
122	0.484929	95555584	64630784	26978168	24992
123	0.730686	95555584	64630784	27441032	24992
124	0.972812	95555584	64630784	28059048	24992
125	1.192247	95555584	64630784	28833608	24992
126	2.004744	95555584	64630784	13493848	24992
127	1.830844	95555584	64630784	14585192	24992
128	2.318707	95555584	64630784	15838048	24992
129	2.174383	95555584	64630784	17249480	24992
130	2.437048	95555584	64630784	18824144	24992
131	2.628987	95555584	64630784	20562320	24992
132	0.550169	95555584	64630784	22608200	24992
133	0.850862	95555584	64630784	23099784	24992
134	1.06137	95555584	64630784	23756720	24992
135	1.272412	95555584	64630784	24580040	24992
136	1.525384	95555584	64630784	25571208	24992
137	1.771923	95555584	64630784	26730800	24992
138	2.035717	95555584	64630784	28059672	24992
139	2.925934	95555584	64630784	13415136	24992
140	2.854606	95555584	64630784	15086416	24992
141	2.86762	95555584	64630784	16929976	24992
142	0.550193	95555584	64630784	19107440	24992
143	0.821817	95555584	64630784	19633808	24992
144	1.083115	95555584	64630784	20337208	24992
145	1.343736	95555584	64630784	21218400	24992
146	1.858085	95555584	64630784	22279224	24992
147	1.894542	95555584	64630784	23520384	24992
148	2.206626	95555584	64630784	24941792	24992
149	2.483871	95555584	64630784	26545088	24992
150	2.706397	95555584	64630784	28332240	24992
151	3.795449	95555584	64630784	14121320	24992
152	0.614319	95555584	64630784	16443736	24992
153	0.927067	95555584	64630784	16999264	24992
154	1.236034	95555584	64630784	17741584	24992
155	1.52975	95555584	64630784	18671632	24992
156	2.162683	95555584	64630784	19790904	24992
157	1.999924	95555584	64630784	21099848	24992
158	2.290345	95555584	64630784	22599280	24992
159	2.579363	95555584	64630784	24290488	24992
160	2.881397	95555584	64630784	26175312	24992
161	3.386224	95555584	64630784	28253656	24992
162	0.655391	95555584	64630784	14553648	24992
163	0.987473	95555584	64630784	15142440	24992
164	1.31606	95555584	64630784	15923776	24992
165	1.530051	95555584	64630784	16902536	24992
166	2.032471	95555584	64630784	18080400	24992
167	2.171826	95555584	64630784	19457488	24992
168	2.470761	95555584	64630784	21035696	24992
169	2.723961	95555584	64630784	22814664	24992
170	3.029805	95555584	64630784	24799624	24992
171	3.37809	95555584	64630784	26985352	24992
172	0.639429	95555584	64630784	29574376	24992
173	1.455423	95555584	64630784	13832672	24992
174	1.369653	95555584	64630784	14652984	24992
175	1.698216	95555584	64630784	15680544	24992
176	2.327605	95555584	64630784	16916816	24992
177	2.431661	95555584	64630784	18362392	24992
178	2.539379	95555584	64630784	20018008	24992
179	2.971665	95555584	64630784	21884704	24992
180	3.689974	95555584	64630784	23964400	24992
181	3.536539	95555584	64630784	26257056	24992
182	0.709215	95555584	64630784	28971816	24992
183	1.070973	95555584	64630784	29615104	24992
184	1.893847	95555584	64630784	14125104	24992
185	1.779997	95555584	64630784	15201368	24992
186	2.132785	95555584	64630784	16496136	24992
187	2.517527	95555584	64630784	18009784	24992
188	2.700078	95555584	64630784	19743736	24992
189	3.227509	95555584	64630784	21698120	24992
190	3.344481	95555584	64630784	23875280	24992
191	3.713943	95555584	64630784	26279320	24992
192	0.702271	95555584	64630784	29119600	24992
193	1.053428	95555584	64630784	29792176	24992
194	1.844164	95555584	64630784	14339232	24992
195	1.746643	95555584	64630784	15465896	24992
196	2.095262	95555584	64630784	16819088	24992
197	2.431231	95555584	64630784	18400920	24992
198	2.792941	95555584	64630784	20212464	24992
199	3.150399	95555584	64630784	22254560	24992
200	3.494357	95555584	64630784	24529304	24992
201	4.094323	95555584	64630784	27036544	24992
202	0.732909	95555584	64630784	30017824	24992
203	1.51376	95555584	64630784	14326216	24992
204	1.509441	95555584	64630784	15263744	24992
205	1.827258	95555584	64630784	16437520	24992
206	2.386542	95555584	64630784	17850688	24992
207	2.574294	95555584	64630784	19509152	24992
208	3.109664	95555584	64630784	21415240	24992
209	3.516077	95555584	64630784	23570928	24992
210	3.917302	95555584	64630784	25976144	24992
211	4.294695	95555584	64630784	28632032	24992
212	0.816882	95555584	64630784	15644056	24992
213	1.417498	95555584	64630784	16399936	24992
214	1.623189	95555584	64630784	17409280	24992
215	2.036633	95555584	64630784	18673144	24992
216	2.43766	95555584	64630784	20193000	24992
217	2.841276	95555584	64630784	21969280	24992
218	3.671144	95555584	64630784	24002904	24992
219	3.939302	95555584	64630784	26298056	24992
220	4.037699	95555584	64630784	28850304	24992
221	5.078221	95555584	64630784	15498576	24992
222	0.811486	95555584	64630784	18834600	24992
223	1.203486	95555584	64630784	19619640	24992
224	1.667598	95555584	64630784	20667960	24992
225	2.317544	95555584	64630784	21980424	24992
226	2.537001	95555584	64630784	23559232	24992
227	2.947226	95555584	64630784	25404584	24992
228	3.384951	95555584	64630784	27516192	24992
229	4.00056	95555584	64630784	29901616	24992
230	4.672045	95555584	64630784	16238472	24992
231	4.690406	95555584	64630784	19166976	24992
232	0.875518	95555584	64630784	22652248	24992
233	1.31692	95555584	64630784	23475248	24992
234	1.756806	95555584	64630784	24574120	24992
235	2.216815	95555584	64630784	25949768	24992
236	2.835431	95555584	64630784	27603912	24992
237	3.109742	95555584	64630784	29536848	24992
238	3.989777	95555584	64630784	15494744	24992
239	4.123857	95555584	64630784	17988144	24992
240	4.571033	95555584	64630784	20765728	24992
241	4.824181	95555584	64630784	23824704	24992
242	0.907563	95555584	64630784	27455296	24992
243	1.368121	95555584	64630784	28307504	24992
244	1.831739	95555584	64630784	29452264	24992
245	2.752194	95555584	64630784	14660168	24992
246	2.861929	95555584	64630784	16375008	24992
247	3.197083	95555584	64630784	18382704	24992
248	3.652742	95555584	64630784	20673360	24992
249	4.263706	95555584	64630784	23254592	24992
250	4.532621	95555584	64630784	26136832	24992
251	5.001634	95555584	64630784	29305464	24992
252	0.945937	95555584	64630784	16864216	24992
253	1.416811	95555584	64630784	17747400	24992
254	1.895317	95555584	64630784	18924240	24992
255	2.546902	95555584	64630784	20397504	24992
256	3.018824	95555584	64630784	22171056	24992
257	3.312156	95555584	64630784	24240576	24992
258	3.792447	95555584	64630784	26609352	24992
259	4.450816	95555584	64630784	29278360	24992
260	5.243108	95555584	64630784	16089712	24992
261	5.233246	95555584	64630784	19363008	24992
262	0.973167	95555584	64630784	23248432	24992
263	1.477315	95555584	64630784	24159272	24992
264	1.950942	95555584	64630784	25382776	24992
265	2.66917	95555584	64630784	26904768	24992
266	2.960494	95555584	64630784	28734272	24992
267	3.731141	95555584	64630784	14824144	24992
268	4.092086	95555584	64630784	17270752	24992
269	4.379276	95555584	64630784	20027416	24992
270	4.895634	95555584	64630784	23096512	24992
271	5.408327	95555584	64630784	26477064	24992
272	1.004813	95555584	64630784	30497520	24992
273	1.877828	95555584	64630784	15088016	24992
274	2.199051	95555584	64630784	16342880	24992
275	2.545183	95555584	64630784	17913560	24992
276	2.983276	95555584	64630784	19801584	24992
277	3.542123	95555584	64630784	22009704	24992
278	4.281276	95555584	64630784	24534304	24992
279	4.622572	95555584	64630784	27383000	24992
280	5.26283	95555584	64630784	30549080	24992
281	5.918697	95555584	64630784	17700656	24992
282	1.032353	95555584	64630784	21839944	24992
283	1.570388	95555584	64630784	22809176	24992
284	2.092222	95555584	64630784	24107816	24992
285	2.613569	95555584	64630784	25727328	24992
286	3.121436	95555584	64630784	27673936	24992
287	4.024425	95555584	64630784	29948024	24992
288	4.950841	95555584	64630784	16329712	24992
289	4.84809	95555584	64630784	19261696	24992
290	5.226669	95555584	64630784	22531200	24992
291	5.952185	95555584	64630784	26138408	24992
292	1.081099	95555584	64630784	30404744	24992
293	2.035758	95555584	64630784	15112368	24992
294	2.168547	95555584	64630784	16445112	24992
295	2.67759	95555584	64630784	18113248	24992
296	3.223603	95555584	64630784	20122880	24992
297	3.767616	95555584	64630784	22465080	24992
298	5.032617	95555584	64630784	25145504	24992
299	5.110526	95555584	64630784	28173968	24992
300	6.265552	95555584	64630784	15657488	24992
301	5.814351	95555584	64630784	19371016	24992
302	1.104367	95555584	64630784	23768672	24992
303	1.652366	95555584	64630784	24796336	24992
304	2.220828	95555584	64630784	26168192	24992
305	2.680973	95555584	64630784	27885128	24992
306	3.496122	95555584	64630784	29948472	24992
307	4.362861	95555584	64630784	16247496	24992
308	4.417122	95555584	64630784	19006200	24992
309	5.141468	95555584	64630784	22113520	24992
310	5.544879	95555584	64630784	25571824	24992
311	6.160309	95555584	64630784	29380880	24992
312	1.361186	95555584	64630784	17924920	24992
313	1.676673	95555584	64630784	18981752	24992
314	2.281667	95555584	64630784	20392488	24992
315	2.830914	95555584	64630784	22158144	24992
316	3.622684	95555584	64630784	24289848	24992
317	4.174407	95555584	64630784	26768608	24992
318	4.553748	95555584	64630784	29618904	24992
319	5.876185	95555584	64630784	16799296	24992
320	5.698254	95555584	64630784	20357520	24992
321	6.382961	95555584	64630784	24282344	24992
322	1.162385	95555584	64630784	28929880	24992
323	1.7911	95555584	64630784	30016096	24992
324	2.51138	95555584	64630784	31465808	24992
325	3.404531	95555584	64630784	16981216	24992
326	3.518143	95555584	64630784	19161696	24992
327	4.085806	95555584	64630784	21708784	24992
328	4.694344	95555584	64630784	24623336	24992
329	5.287531	95555584	64630784	27906256	24992
330	6.072875	95555584	64630784	31560688	24992
331	7.186401	95555584	64630784	19279160	24992
332	1.212626	95555584	64630784	24054016	24992
333	1.807051	95555584	64630784	25169392	24992
334	2.413437	95555584	64630784	26658184	24992
335	3.002206	95555584	64630784	28524560	24992
336	3.606615	95555584	64630784	30764368	24992
337	5.067222	95555584	64630784	17265312	24992
338	4.774455	95555584	64630784	20258192	24992
339	5.42324	95555584	64630784	23636336	24992
340	6.180643	95555584	64630784	27387248	24992
341	6.499275	95555584	64630784	31518312	24992
342	1.241264	95555584	64630784	20191520	24992
343	1.858281	95555584	64630784	21336192	24992
344	2.665721	95555584	64630784	22863936	24992
345	3.016835	95555584	64630784	24775824	24992
346	3.703814	95555584	64630784	27073264	24992
347	4.338436	95555584	64630784	29756696	24992
348	5.664893	95555584	64630784	16896176	24992
349	5.580726	95555584	64630784	20354648	24992
350	6.118977	95555584	64630784	24203008	24992
351	7.037142	95555584	64630784	28447160	24992
352	1.244246	95555584	64630784	17771872	24992
353	1.912506	95555584	64630784	18945832	24992
354	2.745977	95555584	64630784	20512672	24992
355	3.187815	95555584	64630784	22473208	24992
356	3.824033	95555584	64630784	24829216	24992
357	4.469027	95555584	64630784	27580880	24992
358	4.95511	95555584	64630784	30736232	24992
359	6.627646	95555584	64630784	18234472	24992
360	6.312032	95555584	64630784	22199464	24992
361	7.491468	95555584	64630784	26559184	24992
362	1.486477	95555584	64630784	31756376	24992
363	2.607496	95555584	64630784	16814536	24992
364	2.612301	95555584	64630784	18438192	24992
365	3.259333	95555584	64630784	20470336	24992
366	3.926218	95555584	64630784	22915560	24992
367	4.569964	95555584	64630784	25768536	24992
368	5.385634	95555584	64630784	29030584	24992
369	7.021197	95555584	64630784	17019472	24992
370	6.748415	95555584	64630784	21107256	24992
371	7.166799	95555584	64630784	25609128	24992
372	1.334801	95555584	64630784	30972488	24992
373	2.002345	95555584	64630784	32218344	24992
374	3.272307	95555584	64630784	17636352	24992
375	3.492512	95555584	64630784	19717944	24992
376	3.828321	95555584	64630784	22217488	24992
377	4.684622	95555584	64630784	25138880	24992
378	5.538855	95555584	64630784	28478936	24992
379	6.031617	95555584	64630784	32246080	24992
380	7.34533	95555584	64630784	20195784	24992
381	7.582931	95555584	64630784	24804664	24992
382	1.359051	95555584	64630784	30297360	24992
383	2.049807	95555584	64630784	31584904	24992
384	3.668798	95555584	64630784	17191552	24992
385	3.433901	95555584	64630784	19320736	24992
386	4.104989	95555584	64630784	21880176	24992
387	4.702483	95555584	64630784	24874424	24992
388	5.498985	95555584	64630784	28295112	24992
389	6.375626	95555584	64630784	32144696	24992
390	7.79517	95555584	64630784	20259592	24992
391	7.747379	95555584	64630784	24975816	24992
392	1.402028	95555584	64630784	30611632	24992
393	2.092991	95555584	64630784	31925568	24992
394	3.558917	95555584	64630784	17572344	24992
395	3.760817	95555584	64630784	19757152	24992
396	4.158266	95555584	64630784	22373792	24992
397	4.909353	95555584	64630784	25438784	24992
398	5.82133	95555584	64630784	28935280	24992
399	6.323126	95555584	64630784	32875576	24992
400	7.910316	95555584	64630784	21012184	24992
401	8.002139	95555584	64630784	25836992	24992
402	1.681495	95555584	64630784	31582376	24992
403	2.065871	95555584	64630784	32915896	24992
404	3.431803	95555584	64630784	18455224	24992
405	3.716558	95555584	64630784	20682952	24992
406	4.499975	95555584	64630784	23358216	24992
407	5.01641	95555584	64630784	26489296	24992
408	5.894565	95555584	64630784	30063408	24992
409	7.536203	95555584	64630784	18367320	24992
410	7.198284	95555584	64630784	22851360	24992
411	7.860183	95555584	64630784	27784536	24992
412	2.197381	95555584	64630784	17509016	24992
413	2.532256	95555584	64630784	18883320	24992
414	2.931051	95555584	64630784	20701800	24992
415	3.655285	95555584	64630784	22977160	24992
416	4.565738	95555584	64630784	25710808	24992
417	4.919605	95555584	64630784	28922768	24992
418	5.898356	95555584	64630784	32607904	24992
419	7.543154	95555584	64630784	20623888	24992
420	7.309568	95555584	64630784	25274048	24992
421	8.058601	95555584	64630784	30399248	24992
422	1.504253	95555584	64630784	20742712	24992
423	2.43871	95555584	64630784	22184072	24992
424	2.979397	95555584	64630784	24107528	24992
425	3.748424	95555584	64630784	26521120	24992
426	4.488064	95555584	64630784	29413832	24992
427	5.23603	95555584	64630784	32789608	24992
428	6.801521	95555584	64630784	20487272	24992
429	6.869051	95555584	64630784	24851144	24992
430	7.726571	95555584	64630784	29698184	24992
431	9.615527	95555584	64630784	19352440	24992
432	1.707946	95555584	64630784	25712736	24992
433	2.42296	95555584	64630784	27194280	24992
434	2.973806	95555584	64630784	29173544	24992
435	3.807843	95555584	64630784	31628800	24992
436	5.546441	95555584	64630784	18654064	24992
437	5.344437	95555584	64630784	22102728	24992
438	6.309492	95555584	64630784	26044688	24992
439	6.85154	95555584	64630784	30481264	24992
440	9.009969	95555584	64630784	19730856	24992
441	8.475526	95555584	64630784	25174800	24992
442	1.550676	95555584	64630784	31668192	24992
443	2.540181	95555584	64630784	33169112	24992
444	3.83947	95555584	64630784	19037528	24992
445	3.908982	95555584	64630784	21541592	24992
446	4.776461	95555584	64630784	24549552	24992
447	5.226572	95555584	64630784	28062032	24992
448	6.264505	95555584	64630784	32109888	24992
449	8.10293	95555584	64630784	20689512	24992
450	8.054477	95555584	64630784	25722000	24992
451	8.780085	95555584	64630784	31279768	24992
452	1.790085	95555584	64630784	22073128	24992
453	2.358496	95555584	64630784	23622888	24992
454	3.189285	95555584	64630784	25672096	24992
455	4.174266	95555584	64630784	28254176	24992
456	4.784895	95555584	64630784	31332096	24992
457	6.87944	95555584	64630784	19138672	24992
458	6.422537	95555584	64630784	23252472	24992
459	6.981451	95555584	64630784	27882480	24992
460	7.930911	95555584	64630784	33046328	24992
461	9.7882	95555584	64630784	22547736	24992
462	1.575802	95555584	64630784	29284320	24992
463	2.411634	95555584	64630784	30842768	24992
464	3.142854	95555584	64630784	32922160	24992
465	4.970973	95555584	64630784	19545064	24992
466	4.870054	95555584	64630784	22669984	24992
467	5.777887	95555584	64630784	26318720	24992
468	6.717153	95555584	64630784	30492736	24992
469	8.994564	95555584	64630784	19658312	24992
470	8.515265	95555584	64630784	24885840	24992
471	9.033457	95555584	64630784	30760984	24992
472	1.642022	95555584	64630784	21921432	24992
473	2.498966	95555584	64630784	23508952	24992
474	3.326328	95555584	64630784	25644416	24992
475	4.158006	95555584	64630784	28294560	24992
476	5.000415	95555584	64630784	31478112	24992
477	7.266428	95555584	64630784	19486616	24992
478	6.567114	95555584	64630784	23758760	24992
479	7.845001	95555584	64630784	28546168	24992
480	8.368379	95555584	64630784	33871304	24992
481	10.091478	95555584	64630784	23549744	24992
482	1.691136	95555584	64630784	30547368	24992
483	2.537936	95555584	64630784	32164272	24992
484	3.550252	95555584	64630784	34321648	24992
485	5.125069	95555584	64630784	20879056	24992
486	5.131778	95555584	64630784	24120904	24992
487	5.928103	95555584	64630784	27906848	24992
488	6.961051	95555584	64630784	32236632	24992
489	8.814384	95555584	64630784	21323304	24992
490	8.6932	95555584	64630784	26745992	24992
491	9.602204	95555584	64630784	32717976	24992
492	1.647675	95555584	64630784	23869400	24992
493	2.601059	95555584	64630784	25517936	24992
494	3.638576	95555584	64630784	27735008	24992
495	4.322113	95555584	64630784	30482720	24992
496	5.201252	95555584	64630784	33783152	24992
497	7.255719	95555584	64630784	21588424	24992
498	6.943067	95555584	64630784	25996120	24992
499	8.008841	95555584	64630784	30981024	24992
500	10.213886	95555584	64630784	20914824	24992
501	9.605611	95555584	64630784	27001120	24992
502	1.717326	95555584	64630784	34262408	24992
503	3.632095	95555584	64630784	19886048	24992
504	3.520832	95555584	64630784	22121440	24992
505	4.529148	95555584	64630784	24932112	24992
506	5.26926	95555584	64630784	28291040	24992
507	6.353074	95555584	64630784	32224960	24992
508	8.373569	95555584	64630784	20993352	24992
509	8.111032	95555584	64630784	26058248	24992
510	8.929323	95555584	64630784	31675712	24992
511	11.129931	95555584	64630784	22201080	24992
512	1.744332	95555584	64630784	29594928	24992
513	2.670897	95555584	64630784	31303696	24992
514	3.519675	95555584	64630784	33578112	24992
515	5.550181	95555584	64630784	20519464	24992
516	5.379649	95555584	64630784	23936928	24992
517	6.453852	95555584	64630784	27938608	24992
518	7.212643	95555584	64630784	32517056	24992
519	9.421982	95555584	64630784	21929032	24992
520	9.488096	95555584	64630784	27662408	24992
521	10.011357	95555584	64630784	33954984	24992
522	1.75939	95555584	64630784	25440880	24992
523	2.73545	95555584	64630784	27174760	24992
524	3.656571	95555584	64630784	29494832	24992
525	4.741718	95555584	64630784	32388664	24992
526	5.463389	95555584	64630784	35875112	24992
527	7.75551	95825920	65155072	23733152	24992
528	7.302107	95825920	65155072	28388200	24992
529	8.126271	95825920	65155072	33617200	24992
530	10.518996	95825920	65155072	23523920	24992
531	10.207433	95825920	65155072	29938672	24992
532	2.699643	95825920	65155072	21248336	24992
533	2.781559	95825920	65155072	23011416	24992
534	3.842887	95825920	65155072	25363832	24992
535	4.580825	95825920	65155072	28306640	24992
536	5.70652	95825920	65155072	31856552	24992
537	6.433146	95825920	65155072	35986000	24992
538	8.264336	95825920	65155072	24488552	24992
539	8.307066	95825920	65155072	29803632	24992
540	9.513053	95825920	65155072	35718992	24992
541	11.345004	95825920	65155072	26002656	24992
542	1.880206	95825920	65155072	33770352	24992
543	2.862532	95825920	65155072	35562656	24992
544	4.891069	96096256	65155072	21829400	24992
545	4.720543	96096256	65155072	24824848	24992
546	5.806771	96096256	65155072	28417776	24992
547	6.474946	96096256	65155072	32632880	24992
548	8.871112	96096256	65155072	21807080	24992
549	8.617671	96096256	65155072	27209704	24992
550	9.529466	96096256	65155072	33218552	24992
551	11.635813	96096256	65155072	24036792	24992
552	2.072332	96096256	65155072	31922656	24992
553	2.871487	96096256	65155072	33744216	24992
554	3.834329	96096256	65155072	36175512	24992
555	6.026455	96096256	65155072	23030840	24992
556	5.784616	96096256	65155072	26700392	24992
557	6.765844	96096256	65155072	30998304	24992
558	7.519353	96096256	65155072	35897024	24992
559	9.866248	96096256	65155072	25322320	24992
560	9.78953	96096256	65155072	31461256	24992
561	12.413328	96096256	65155072	22817632	24992
562	1.940793	96096256	65155072	30890672	24992
563	2.920549	96096256	65155072	32776896	24992
564	3.907217	96096256	65155072	35287032	24992
565	6.027359	96096256	65155072	22415112	24992
566	6.627438	96096256	65155072	26179840	24992
567	6.745303	96096256	65155072	30562976	24992
568	7.969835	96096256	65155072	35571536	24992
569	10.19637	96096256	65155072	25205848	24992
570	9.820895	96096256	65155072	31482656	24992
571	12.470755	96096256	65155072	23063808	24992
572	1.885385	96096256	65155072	31318864	24992
573	2.871316	96096256	65155072	33219344	24992
574	3.918777	96096256	65155072	35766664	24992
575	6.380979	96096256	65155072	22936304	24992
576	5.977497	96096256	65155072	26747840	24992
577	7.152959	96096256	65155072	31195040	24992
578	8.073952	96096256	65155072	36281104	24992
579	10.058391	96096256	65155072	25907168	24992
580	9.947876	96096256	65155072	32277720	24992
581	12.755086	96096256	65155072	23838992	24992
582	2.020616	96096256	65155072	32219320	24992
583	3.017023	96096256	65155072	34159360	24992
584	4.029115	96096256	65155072	36740800	24992
585	6.158163	96096256	65155072	23847104	24992
586	6.077487	96096256	65155072	27722512	24992
587	7.091562	96096256	65155072	32257360	24992
588	8.029213	96096256	65155072	37436120	24992
589	10.137732	96096256	65155072	27019216	24992
590	10.508304	96096256	65155072	33502792	24992
591	12.827055	96096256	65155072	24966928	24992
592	2.080379	96096256	65155072	33453792	24992
593	3.045639	96096256	65155072	35412768	24992
594	5.229756	96096256	65155072	22137408	24992
595	5.391474	96096256	65155072	25418424	24992
596	6.173848	96096256	65155072	29346456	24992
597	7.339755	96096256	65155072	33951312	24992
598	10.221107	96096256	65155072	23572256	24992
599	9.664034	96096256	65155072	29476328	24992
600	10.491739	96096256	65155072	36047608	24992
601	12.697404	96096256	65155072	27204440	24992
602	2.075002	96096256	65155072	35856760	24992
603	3.260302	96096256	65155072	37844984	24992
604	5.207578	96096256	65155072	24286656	24992
605	5.575595	96096256	65155072	27604544	24992
606	6.553678	96096256	65155072	31591400	24992
607	7.313572	96096256	65155072	36243304	24992
608	9.958563	96096256	65155072	25595880	24992
609	9.431	96096256	65155072	31587896	24992
610	10.466553	96096256	65155072	38272384	24992
611	12.42207	96096256	65155072	29189432	24992
612	2.306807	96096256	65155072	37946480	24992
613	4.224571	96096256	65155072	23750688	24992
614	4.174206	96096256	65155072	26442192	24992
615	5.419632	96096256	65155072	29832464	24992
616	6.348095	96096256	65155072	33886544	24992
617	9.008151	96096256	65155072	23102264	24992
618	8.731912	96096256	65155072	28506144	24992
619	9.774149	96096256	65155072	34592456	24992
620	12.216982	96096256	65155072	25638688	24992
621	11.815591	96096256	65155072	33079856	24992
622	2.176586	96096256	65155072	26615280	24992
623	3.243988	96096256	65155072	28681832	24992
624	4.395448	96096256	65155072	31413088	24992
625	5.367754	96096256	65155072	34834200	24992
626	8.035643	96096256	65155072	23338864	24992
627	7.554195	96096256	65155072	28130216	24992
628	8.644915	96096256	65155072	33607864	24992
629	11.351283	96096256	65155072	24315904	24992
630	10.768044	96096256	65155072	31177112	24992
631	11.932758	96096256	65155072	38740416	24992
632	2.172353	96096256	65155072	31332864	24992
633	3.482326	96096256	65155072	33428528	24992
634	4.547403	96096256	65155072	36198672	24992
635	6.69918	96096256	65155072	23839672	24992
636	6.605226	96096256	65155072	28000856	24992
637	7.846953	96096256	65155072	32857504	24992
638	8.708133	96096256	65155072	38422728	24992
639	10.924545	96096256	65155072	28478512	24992
640	11.135592	96096256	65155072	35453944	24992
641	13.854447	96096256	65155072	27394968	24992
642	2.406742	96096256	65155072	36520896	24992
643	3.309196	96096256	65155072	38626200	24992
644	5.548061	96096256	65155072	25233752	24992
645	5.630605	96096256	65155072	28766384	24992
646	6.652917	96096256	65155072	32985216	24992
647	7.787733	96096256	65155072	37914576	24992
648	10.536931	96096256	65155072	27477744	24992
649	10.09048	96096256	65155072	33818080	24992
650	12.673985	96096256	65155072	25446664	24992
651	12.364337	96096256	65155072	33207400	24992
652	2.273483	96096256	65155072	27143552	24992
653	3.385457	96096256	65155072	29278128	24992
654	4.512805	96096256	65155072	32130456	24992
655	5.64735	96096256	65155072	35692088	24992
656	8.498832	96096256	65155072	24402456	24992
657	8.084805	96096256	65155072	29401752	24992
658	8.955639	96096256	65155072	35111680	24992
659	12.094709	96096256	65155072	25984808	24992
660	11.287253	96096256	65155072	33132768	24992
661	14.911615	96096256	65155072	25786240	24992
662	2.273137	96096256	65155072	35183232	24992
663	3.441026	96096256	65155072	37356200	24992
664	6.129407	96096256	65155072	24441064	24992
665	5.730842	96096256	65155072	28051312	24992
666	6.996292	96096256	65155072	32386888	24992
667	8.2274	96096256	65155072	37459480	24992
668	10.682761	96096256	65155072	27354232	24992
669	10.404395	96096256	65155072	33878944	24992
670	13.241125	96096256	65155072	25869800	24992
671	13.120289	96096256	65155072	33861128	24992
672	2.334503	96096256	65155072	28088496	24992
673	3.473419	96096256	65155072	30289288	24992
674	4.948996	96096256	65155072	33215936	24992
675	5.507368	96096256	65155072	36882064	24992
676	8.595683	96096256	65155072	25610272	24992
677	8.314274	96096256	65155072	30778096	24992
678	9.313667	96096256	65155072	36657816	24992
679	12.453508	96096256	65155072	27491536	24992
680	11.651105	96096256	65155072	34846432	24992
681	15.052484	96096256	65155072	27544832	24992
682	2.340793	96096256	65155072	37180360	24992
683	3.513926	96096256	65155072	39402744	24992
684	6.073702	96096256	65155072	26232000	24992
685	5.877214	96096256	65155072	29940168	24992
686	7.168106	96096256	65155072	34393064	24992
687	8.116554	96096256	65155072	39602152	24992
688	10.735748	96096256	65155072	29369992	24992
689	10.676195	96096256	65155072	36067888	24992
690	13.656816	96096256	65155072	27878888	24992
691	13.22343	96096256	65155072	36090048	24992
692	2.363473	96096256	65155072	30249128	24992
693	3.455187	96096256	65155072	32515616	24992
694	4.765343	96096256	65155072	35532184	24992
695	5.970526	96096256	65155072	39288752	24992
696	8.572722	96096256	65155072	27743120	24992
697	8.513603	96096256	65155072	33011800	24992
698	9.44082	96096256	65155072	39041312	24992
699	12.167002	96096256	65155072	29708112	24992
700	12.218213	96096256	65155072	37251360	24992
701	15.096619	96096256	65155072	29795600	24992
702	2.387178	96096256	65155072	39708832	24992
703	4.974837	96096256	65155072	25941248	24992
704	5.007397	96096256	65155072	28983856	24992
705	6.001499	96096256	65155072	32789840	24992
706	7.261783	96096256	65155072	37364144	24992
707	10.214407	96096256	65155072	27061048	24992
708	9.753873	96096256	65155072	33176296	24992
709	10.886326	96096256	65155072	40058936	24992
710	13.490482	96096256	65155072	31432512	24992
711	13.413053	96096256	65155072	39839392	24992
712	2.44417	96096256	65155072	33692336	24992
713	3.841403	96096256	65155072	36003640	24992
714	4.810846	96096256	65155072	39085280	24992
715	7.729148	96096256	65155072	27015480	24992
716	7.229416	96096256	65155072	31662760	24992
717	8.551654	96096256	65155072	37102024	24992
718	11.579822	96096256	65155072	27660880	24992
719	11.113882	96096256	65155072	34615600	24992
720	14.338228	96096256	65155072	27154632	24992
721	13.77061	96096256	65155072	35668304	24992
722	2.470158	96096256	65155072	30514808	24992
723	3.761821	96096256	65155072	32867344	24992
724	5.168105	96096256	65155072	35992344	24992
725	6.106952	96096256	65155072	39895360	24992
726	9.165757	96096256	65155072	28540224	24992
727	8.719287	96096256	65155072	34055768	24992
728	9.91777	96096256	65155072	40311992	24992
729	12.879825	96096256	65155072	31189320	24992
730	12.665658	96096256	65155072	39025336	24992
731	15.573565	96096256	65155072	31708192	24992
732	3.870027	96096256	65155072	26005576	24992
733	3.770208	96096256	65155072	28374160	24992
734	5.024403	96096256	65155072	31533776	24992
735	6.440606	96096256	65155072	35497280	24992
736	7.957571	96096256	65155072	40251752	24992
737	10.555385	96096256	65155072	29772360	24992
738	10.142601	96096256	65155072	36106664	24992
739	13.420336	96096256	65155072	27919488	24992
740	12.956728	96096256	65155072	35847696	24992
741	16.134433	96096256	65155072	29305704	24992
742	2.522096	96096256	65155072	39714120	24992
743	5.186167	96096256	65155072	26237640	24992
744	5.375425	96096256	65155072	29436296	24992
745	6.366868	96096256	65155072	33458424	24992
746	7.825782	96096256	65155072	38262320	24992
747	10.795375	96096256	65155072	28275360	24992
748	10.239386	96096256	65155072	34710168	24992
749	11.387308	96096256	65155072	41960520	24992
750	14.153201	96096256	65155072	33595584	24992
751	16.49592	96096256	65155072	27590712	24992
752	2.52896	96096256	65155072	38147920	24992
753	3.837261	96096256	65155072	40574984	24992
754	6.814063	96096256	65155072	27834744	24992
755	6.124231	96096256	65155072	31883952	24992
756	7.833405	96096256	65155072	36746384	24992
757	11.061489	96096256	65155072	27142336	24992
758	10.511085	96096256	65155072	33632680	24992
759	11.690319	96096256	65155072	40970184	24992
760	14.388384	96096256	65155072	32952800	24992
761	14.526767	96096256	65155072	41926944	24992
762	2.627587	96096256	65155072	36306880	24992
763	3.84245	96096256	65155072	38764232	24992
764	5.204364	96096256	65155072	42043064	24992
765	7.914708	96096256	65155072	29970224	24992
766	7.983917	96096256	65155072	34892344	24992
767	8.969368	96096256	65155072	40640448	24992
768	12.201666	96096256	65155072	31224952	24992
769	11.960925	96096256	65155072	38651304	24992
770	15.511169	96096256	65155072	31179424	24992
771	14.666855	96096256	65155072	40245056	24992
772	2.782113	96096256	65155072	35074656	24992
773	3.959655	96096256	65155072	37560256	24992
774	5.290043	96096256	65155072	40890664	24992
775	8.296333	96096256	65155072	29156784	24992
776	8.084736	96096256	65155072	34147928	24992
777	9.485711	96096256	65155072	39968504	24992
778	12.251882	96096256	65155072	30782728	24992
779	12.162406	96096256	65155072	38266536	24992
780	15.381095	96096256	65155072	31047528	24992
781	14.689812	96096256	65155072	40206776	24992
782	2.656144	96096256	65155072	35283272	24992
783	4.0152	96096256	65155072	37813600	24992
784	5.48815	96096256	65155072	41168272	24992
785	9.298364	96096256	65155072	29490112	24992
786	8.512856	96096256	65155072	34538544	24992
787	9.559182	96096256	65155072	40419760	24992
788	12.60664	96096256	65155072	31305992	24992
789	12.146567	96096256	65155072	38891792	24992
790	15.544176	96096256	65155072	31727880	24992
791	15.030476	96096256	65155072	41004336	24992
792	2.696806	96096256	65155072	36061992	24992
793	4.076096	96096256	65155072	38606136	24992
794	5.549123	96096256	65155072	42000616	24992
795	8.365565	96096256	65155072	30234640	24992
796	8.075894	96096256	65155072	35346024	24992
797	9.4598	96096256	65155072	41304640	24992
798	12.822058	96096256	65155072	32106152	24992
799	12.275635	96096256	65155072	39794784	24992
800	15.784063	96096256	65155072	32655368	24992
801	15.051023	96096256	65155072	42034160	24992
802	2.721779	96096256	65155072	37102472	24992
803	4.28385	96096256	65155072	39684048	24992
804	5.428503	96096256	65155072	43123112	24992
805	8.21377	96096256	65155072	31288448	24992
806	8.379536	96096256	65155072	36449488	24992
807	9.77199	96096256	65155072	42471120	24992
808	12.467971	96096256	65155072	33221696	24992
809	12.361935	96096256	65155072	40971160	24992
810	15.669005	96096256	65155072	33767512	24992
811	15.198559	96096256	65155072	43255696	24992
812	2.756432	96096256	65155072	38305280	24992
813	4.142433	96096256	65155072	40907936	24992
814	7.532333	96096256	65155072	28697768	24992
815	6.950975	96096256	65155072	33039624	24992
816	8.415747	96096256	65155072	38265144	24992
817	11.756779	96096256	65155072	29036784	24992
818	11.30035	96096256	65155072	35995112	24992
819	12.658599	96096256	65155072	43833672	24992
820	15.236353	96096256	65155072	36243192	24992
821	17.832885	96096256	65155072	30873368	24992
822	2.783327	96096256	65155072	42391392	24992
823	6.025357	96096256	65155072	29123048	24992
824	5.612805	96096256	65155072	32633784	24992
825	7.108423	96096256	65155072	37024352	24992
826	8.461518	96096256	65155072	42296256	24992
827	11.911673	96096256	65155072	32581704	24992
828	11.449265	96096256	65155072	39618152	24992
829	15.300421	96096256	65155072	32035592	24992
830	14.230655	96096256	65155072	40841360	24992
831	17.910328	96096256	65155072	34792304	24992
832	2.727819	96096256	65155072	30147888	24992
833	4.184989	96096256	65155072	32809032	24992
834	5.834309	96096256	65155072	36368808	24992
835	7.185823	96096256	65155072	40820504	24992
836	11.024516	96096256	65155072	30635192	24992
837	9.906184	96096256	65155072	36868960	24992
838	11.509341	96096256	65155072	44022488	24992
839	14.439277	96096256	65155072	35802768	24992
840	14.390144	96096256	65155072	44767408	24992
841	17.159099	96096256	65155072	38232608	24992
842	2.868769	96096256	65155072	34865208	24992
843	4.227461	96096256	65155072	37604824	24992
844	5.693118	96096256	65155072	41262096	24992
845	9.39171	96096256	65155072	30177416	24992
846	8.667378	96096256	65155072	35670584	24992
847	10.249637	96096256	65155072	42088896	24992
848	13.425668	96096256	65155072	33601008	24992
849	13.336499	96096256	65155072	41873440	24992
850	16.639905	96096256	65155072	35270040	24992
851	18.45884	96096256	65155072	30754528	24992
852	2.873388	96096256	65155072	42875592	24992
853	6.170988	96096256	65155072	29865112	24992
854	5.851165	96096256	65155072	33602408	24992
855	7.276398	96096256	65155072	38280760	24992
856	8.767397	96096256	65155072	43925304	24992
857	11.785851	96096256	65155072	34501344	24992
858	11.547885	96096256	65155072	41999312	24992
859	15.033036	96096256	65155072	34650792	24992
860	14.664672	96096256	65155072	44052624	24992
861	17.624422	96096256	65155072	38261192	24992
862	3.129067	96096256	65155072	35464888	24992
863	4.253113	96096256	65155072	38302472	24992
864	5.874185	96096256	65155072	42082968	24992
865	9.500253	96096256	65155072	31185240	24992
866	9.062939	96096256	65155072	36855064	24992
867	10.473663	96096256	65155072	43518888	24992
868	13.582645	96096256	65155072	35096328	24992
869	13.37774	96096256	65155072	43612416	24992
870	16.753075	96096256	65155072	37021008	24992
871	19.155777	96096256	65155072	32623816	24992
872	2.950971	96096256	65155072	45098064	24992
873	6.194906	96096256	65155072	31816896	24992
874	5.745474	96096256	65155072	35631424	24992
875	7.489838	96096256	65155072	40400000	24992
876	10.677951	96096256	65155072	30850176	24992
877	10.608863	96096256	65155072	37551384	24992
878	11.99613	96096256	65155072	45199632	24992
879	15.033439	96096256	65155072	37542368	24992
880	17.972397	96096256	65155072	32170072	24992
881	16.489002	96096256	65155072	42706536	24992
882	2.858972	96096256	65679360	39482456	24992
883	4.492656	96096256	65679360	42390392	24992
884	7.975902	96366592	65679360	30638720	24992
885	7.740881	96366592	65679360	35455432	24992
886	8.966263	96366592	65679360	41250680	24992
887	12.590411	96366592	65679360	32525008	24992
888	12.261288	96366592	65679360	40259832	24992
889	15.780144	96366592	65679360	33686824	24992
890	15.480851	96366592	65679360	43364496	24992
891	18.961267	96366592	66203648	38080944	24992
892	3.060611	96366592	66203648	35870040	24992
893	4.563628	96366592	66203648	38786968	24992
894	6.055538	96366592	66203648	42686880	24992
895	9.937536	96636928	66203648	31965488	24992
896	9.24811	96636928	66203648	37816288	24992
897	10.65681	96636928	66203648	44638888	24992
898	14.179724	96636928	66203648	36393504	24992
899	13.588662	96636928	66203648	45186472	24992
900	17.338564	96636928	66203648	38869312	24992
901	19.210944	96636928	66203648	34529240	24992
902	4.821319	96636928	66203648	31408376	24992
903	4.718806	96636928	66203648	34357680	24992
904	6.126583	96636928	66203648	38298344	24992
905	7.680059	96636928	66203648	43212680	24992
906	11.437388	96907264	66203648	33521136	24992
907	10.855556	96907264	66203648	40412440	24992
908	14.571359	96907264	66727936	33067632	24992
909	13.9648	96907264	66727936	41942400	24992
910	17.845626	96907264	66727936	36269392	24992
911	19.673922	96907264	66727936	32597352	24992
912	3.078791	96907264	66727936	45555464	24992
913	6.463771	97177600	66727936	32596616	24992
914	6.341417	97177600	66727936	36579504	24992
915	7.594507	97177600	66727936	41542584	24992
916	11.92806	97177600	66727936	32281416	24992
917	10.844508	97177600	66727936	39252304	24992
918	12.472625	97177600	66727936	47210480	24992
919	15.997491	97177600	66727936	39739152	24992
920	17.626529	97447936	66727936	34653408	24992
921	17.269673	97447936	66727936	45623808	24992
922	2.993707	97447936	66727936	42651648	24992
923	4.683534	97447936	66727936	45700624	24992
924	8.186117	97447936	67252224	33787376	24992
925	7.857465	97447936	67252224	38801528	24992
926	9.281083	97447936	67252224	44832264	24992
927	13.217133	97718272	67252224	35949016	24992
928	12.776893	97718272	67252224	43985760	24992
929	16.625706	97718272	67252224	37290816	24992
930	15.41598	97718272	67252224	47356592	24992
931	19.418791	97718272	67252224	42058848	24992
932	3.096927	97718272	67252224	39917728	24992
933	4.67836	97718272	67252224	42959808	24992
934	6.394388	97718272	67252224	47012304	24992
935	9.80167	97988608	67252224	35966848	24992
936	9.694249	97988608	67252224	42051864	24992
937	13.665815	97988608	67252224	33788832	24992
938	12.742448	97988608	67252224	41903704	24992
939	16.902784	97988608	67252224	35654384	24992
940	15.596471	97988608	67252224	45836312	24992
941	19.779546	97988608	67252224	40910832	24992
942	3.189734	97988608	67252224	39044688	24992
943	4.784536	97988608	67252224	42107816	24992
944	6.402477	97988608	67252224	46198272	24992
945	10.216471	98258944	67776512	35364928	24992
946	9.594519	98258944	67776512	41505240	24992
947	13.501189	98258944	67776512	33491544	24992
948	13.062663	98258944	67776512	41678160	24992
949	17.066161	98258944	67776512	35705856	24992
950	15.541846	98258944	67776512	46167704	24992
951	19.827274	98258944	67776512	41558208	24992
952	3.080421	98258944	67776512	39858688	24992
953	4.692837	98258944	67776512	42951056	24992
954	6.480312	98258944	67776512	47075784	24992
955	10.077525	98529280	67776512	36232976	24992
956	9.933945	98529280	67776512	42426016	24992
957	13.835501	98529280	68300800	34306488	24992
958	12.955119	98529280	68300800	42571424	24992
959	17.372366	98529280	68300800	36522744	24992
960	16.401545	98529280	68300800	47016552	24992
961	20.25728	98529280	68300800	42407024	24992
962	3.158539	98799616	68300800	40655392	24992
963	4.975195	98799616	68300800	43777000	24992
964	6.381211	98799616	68300800	47940920	24992
965	10.209005	98799616	68300800	37038192	24992
966	9.931704	98799616	68300800	43289816	24992
967	13.437351	98799616	68300800	35242296	24992
968	13.105291	98799616	68300800	43584848	24992
969	17.169659	98799616	68300800	37487424	24992
970	16.369206	98799616	68300800	47938640	24992
971	19.815111	99069952	68300800	43159576	24992
972	3.300893	99069952	68300800	41551760	24992
973	4.93622	99069952	68300800	44702856	24992
974	6.566454	99069952	68300800	48905632	24992
975	10.38211	99069952	68825088	37912168	24992
976	10.082688	99069952	68825088	44222168	24992
977	13.871437	99340288	68825088	36049912	24992
978	13.328911	99340288	68825088	44470448	24992
979	17.383503	99340288	68825088	38441488	24992
980	16.500473	99340288	68825088	48977504	24992
981	20.114615	99340288	68825088	44209880	24992
982	3.331679	99340288	68825088	42502304	24992
983	4.99688	99340288	68825088	45727952	24992
984	9.080226	99610624	68825088	34422464	24992
985	8.102963	99610624	68825088	39764544	24992
986	10.096491	99610624	68825088	46133232	24992
987	14.008311	99610624	68825088	37765008	24992
988	13.280751	99610624	68825088	46263720	24992
989	17.598807	99610624	68825088	39975216	24992
990	19.043761	99610624	68825088	35921072	24992
991	18.553057	99610624	68825088	47664048	24992
992	3.348053	99610624	68825088	45541240	24992
993	5.060909	99610624	68825088	48750808	24992
994	8.473048	99880960	69349376	36979840	24992
995	8.540732	99880960	69349376	42333192	24992
996	10.083738	99880960	69349376	48760216	24992
997	13.7809	99880960	69349376	40010928	24992
998	13.297248	99880960	69349376	48587664	24992
999	16.917522	99880960	69349376	42035952	24992
1000	19.654078	99880960	69349376	37847848	24992
