x	Duration	RSS	HeapTotal	HeapUsed	External
0	NA	94232576	63057920	11993264	24992
1	0.292184	94232576	63057920	12045144	24992
2	0.232311	94232576	63057920	12121832	24992
3	0.26643	94232576	63057920	12225584	24992
4	0.322046	94232576	63057920	12357944	24992
5	0.38384	94232576	63057920	12520408	24992
6	0.450045	94232576	63057920	12713432	24992
7	0.515204	94232576	63057920	12937984	24992
8	0.632577	94232576	63057920	13195072	24992
9	0.663357	94232576	63057920	13486592	24992
10	0.737612	94232576	63057920	13813216	24992
11	1.11093	94232576	63057920	14175888	24992
12	0.192205	94232576	63057920	14567704	24992
13	0.302002	94232576	63057920	14680024	24992
14	0.376769	94232576	63057920	14831208	24992
15	0.492148	94232576	63057920	15025904	24992
16	0.540389	94232576	63057920	15258440	24992
17	0.62053	94232576	63057920	15532832	24992
18	0.70938	94232576	63057920	15850176	24992
19	1.116907	94232576	63057920	16212040	24992
20	0.742578	94232576	63057920	16619576	24992
21	0.803298	94232576	63057920	17073392	24992
22	0.192312	94232576	63057920	17581624	24992
23	0.284544	94232576	63057920	17724208	24992
24	0.368423	94232576	63057920	17917064	24992
25	0.522693	94232576	63057920	18163000	24992
26	0.870813	94232576	63057920	18459096	24992
27	0.639666	94232576	63057920	18808096	24992
28	0.701927	94232576	63057920	19211016	24992
29	0.770147	94232576	63057920	19668912	24992
30	0.910779	94232576	63057920	20183720	24992
31	0.950823	94232576	63057920	20755648	24992
32	0.206625	94232576	63057920	21405800	24992
33	0.317964	94232576	63057920	21580720	24992
34	0.454581	94232576	63057920	21824120	24992
35	0.722703	94232576	63057920	22119608	24992
36	0.645325	94232576	63057920	22477432	24992
37	0.707069	94232576	63057920	22897912	24992
38	0.807387	94232576	63057920	23382104	24992
39	0.911069	94232576	63057920	23930984	24992
40	1.031997	94232576	63057920	24546576	24992
41	1.128292	94232576	63057920	25228768	24992
42	0.238618	94232576	63057920	26011456	24992
43	0.364242	94232576	63057920	26215592	24992
44	0.485607	94232576	63057920	26489264	24992
45	0.592775	94232576	63057920	26835088	24992
46	0.708873	94232576	63057920	27252680	24992
47	0.833127	94232576	63057920	27743448	24992
48	0.941476	94232576	63057920	28308368	24992
49	2.18773	94232576	63057920	12686688	24992
50	1.322976	94232576	63057920	13407416	24992
51	1.418818	94232576	63057920	14205760	24992
52	0.292829	94232576	63057920	15130872	24992
53	0.443417	94232576	63057920	15372624	24992
54	0.585067	94232576	63057920	15696416	24992
55	0.734625	94232576	63057920	16105384	24992
56	0.868545	94232576	63057920	16596832	24992
57	1.011947	94232576	63057920	17173376	24992
58	1.155248	94232576	63057920	17835824	24992
59	1.504569	94232576	63057920	18585424	24992
60	1.350897	94232576	63057920	19423792	24992
61	1.480084	94232576	63057920	20352864	24992
62	0.303052	94232576	63057920	21426720	24992
63	0.461684	94232576	63057920	21697680	24992
64	0.766005	94232576	63057920	22060480	24992
65	0.756789	94232576	63057920	22516136	24992
66	0.942968	94232576	63057920	23068816	24992
67	1.052919	94232576	63057920	23713824	24992
68	1.19434	94232576	63057920	24454288	24992
69	1.572668	94232576	63057920	25291560	24992
70	1.491862	94232576	63057920	26227456	24992
71	1.650384	94232576	63057920	27262048	24992
72	0.333954	94232576	63057920	28463192	24992
73	0.502704	94232576	63057920	28763408	24992
74	1.408251	94232576	63057920	12947776	24992
75	0.913814	94232576	63057920	13452200	24992
76	1.076394	94232576	63057920	14060712	24992
77	1.251857	94232576	63057920	14773720	24992
78	1.443524	94232576	63057920	15592184	24992
79	1.61691	94232576	63057920	16517200	24992
80	1.811249	94232576	63057920	17550776	24992
81	2.032428	94232576	63057920	18693736	24992
82	0.397386	94232576	63057920	20026800	24992
83	0.596642	94232576	63057920	20356192	24992
84	0.793223	94232576	63057920	20799280	24992
85	1.104944	94232576	63057920	21354672	24992
86	1.515914	94232576	63057920	22028064	24992
87	1.290769	94232576	63057920	22813768	24992
88	1.477458	94232576	63057920	23715936	24992
89	1.651726	94232576	63057920	24735416	24992
90	1.822844	94232576	63057920	25874256	24992
91	2.021053	94232576	63057920	27132488	24992
92	0.414261	94232576	63057920	28604392	24992
93	0.635542	94232576	63057920	28966424	24992
94	1.353598	94232576	63057920	13153384	24992
95	1.002839	94232576	63057920	13760992	24992
96	1.209899	94232576	63057920	14493160	24992
97	1.399663	94232576	63057920	15350648	24992
98	1.584318	94232576	63057920	16334168	24992
99	1.867886	94232576	63057920	17444744	24992
100	1.994517	94232576	63057920	18684440	24992
101	2.418129	94232576	63057920	20053128	24992
102	0.434301	94232576	63057920	21668096	24992
103	0.654292	94232576	63057920	22071872	24992
104	0.862624	94232576	63057920	22611784	24992
105	1.07668	94232576	63057920	23288832	24992
106	1.303527	94232576	63057920	24104560	24992
107	1.506731	94232576	63057920	25059272	24992
108	1.733847	94232576	63057920	26154176	24992
109	1.941905	94232576	63057920	27391000	24992
110	2.162163	94232576	63057920	28769872	24992
111	3.307671	94232576	63057920	14015416	24992
112	0.496562	94232576	63057920	15803384	24992
113	0.746192	94232576	63057920	16236464	24992
114	1.182989	94232576	63057920	16815416	24992
115	1.22199	94232576	63057920	17541336	24992
116	1.395483	94232576	63057920	18415480	24992
117	1.790097	94232576	63057920	19440168	24992
118	1.860359	94232576	63057920	20613048	24992
119	2.320881	94232576	63057920	21936680	24992
120	2.633399	94232576	63057920	23415016	24992
121	2.58607	94232576	63057920	25044072	24992
122	0.499356	94232576	63057920	26959024	24992
123	0.753565	94232576	63057920	27421376	24992
124	0.992465	94232576	63057920	28039352	24992
125	1.285235	94232576	63057920	28813880	24992
126	2.086557	94232576	63057920	13479936	24992
127	2.022603	94232576	63057920	14571272	24992
128	1.988372	94232576	63057920	15825024	24992
129	2.331296	94232576	63057920	17237136	24992
130	2.539515	94232576	63057920	18810936	24992
131	2.730363	94232576	63057920	20547752	24992
132	0.531044	94232576	63057920	22591896	24992
133	0.798425	94232576	63057920	23083432	24992
134	1.10814	94232576	63057920	23744088	24992
135	1.31832	94232576	63057920	24567392	24992
136	1.576784	94232576	63057920	25558680	24992
137	1.895649	94232576	63057920	26718240	24992
138	2.108974	94232576	63057920	28048256	24992
139	3.05716	94232576	63057920	13403752	24992
140	2.806081	94232576	63057920	15077232	24992
141	2.99744	94232576	63057920	16920848	24992
142	0.803969	94232576	63057920	19098424	24992
143	0.851958	94232576	63057920	19624776	24992
144	1.125065	94232576	63057920	20328080	24992
145	1.575499	94232576	63057920	21209272	24992
146	1.705883	94232576	63057920	22270000	24992
147	1.969227	94232576	63057920	23510624	24992
148	2.241322	94232576	63057920	24932216	24992
149	2.740361	94232576	63057920	26535648	24992
150	2.820079	94232576	63057920	28324472	24992
151	3.780877	94232576	63057920	14114464	24992
152	0.629148	94232576	63057920	16437176	24992
153	1.15088	94232576	63057920	16992760	24992
154	1.19311	94232576	63057920	17735080	24992
155	1.483113	94232576	63057920	18667136	24992
156	1.829216	94232576	63057920	19786440	24992
157	2.076162	94232576	63057920	21096416	24992
158	2.378179	94232576	63057920	22595904	24992
159	2.707046	94232576	63057920	24287016	24992
160	2.971176	94232576	63057920	26171840	24992
161	3.275145	94232576	63057920	28250184	24992
162	0.638684	94232576	63057920	14550176	24992
163	1.180598	94232576	63057920	15134984	24992
164	1.3278	94232576	63057920	15916344	24992
165	1.577216	94232576	63057920	16896040	24992
166	1.880502	94232576	63057920	18073720	24992
167	2.19426	94232576	63057920	19450784	24992
168	2.756742	94232576	63057920	21028376	24992
169	3.036826	94232576	63057920	22808040	24992
170	3.380112	94232576	63057920	24790304	24992
171	3.472201	94232576	63057920	26977336	24992
172	0.6594	94232576	63057920	29562064	24992
173	1.469322	94232576	63057920	13828944	24992
174	1.599601	94232576	63057920	14649296	24992
175	1.670722	94232576	63057920	15676856	24992
176	1.981807	94232576	63057920	16913128	24992
177	2.404858	94232576	63057920	18358528	24992
178	2.877839	94232576	63057920	20014328	24992
179	3.084276	94232576	63057920	21880744	24992
180	3.30567	94232576	63057920	23960072	24992
181	3.620631	94232576	63057920	26254736	24992
182	0.700123	94232576	63057920	28966280	24992
183	1.037244	94232576	63057920	29609568	24992
184	1.906414	94232576	63057920	14135888	24992
185	1.840269	94232576	63057920	15212000	24992
186	2.190886	94232576	63057920	16506520	24992
187	2.500959	94232576	63057920	18019920	24992
188	2.771066	94232576	63057920	19753288	24992
189	3.105001	94232576	63057920	21707352	24992
190	3.447171	94232576	63057920	23884216	24992
191	4.046995	94232576	63057920	26283896	24992
192	0.72721	94232576	63057920	29122512	24992
193	1.087773	94232576	63057920	29794992	24992
194	1.957487	94232576	63057920	14342024	24992
195	2.079112	94232576	63057920	15470560	24992
196	2.163034	94232576	63057920	16824920	24992
197	2.531935	94232576	63057920	18406768	24992
198	2.890176	94232576	63057920	20218040	24992
199	3.264634	94232576	63057920	22259920	24992
200	3.622077	94232576	63057920	24534440	24992
201	4.062555	94232576	63057920	27041472	24992
202	0.75785	94232576	63057920	30015728	24992
203	1.547854	94232576	63057920	14327008	24992
204	1.563653	94232576	63057920	15264312	24992
205	1.879283	94232576	63057920	16437936	24992
206	2.280105	94232576	63057920	17855240	24992
207	2.633837	94232576	63057920	19513352	24992
208	3.234802	94232576	63057920	21421896	24992
209	3.401575	94232576	63057920	23578896	24992
210	3.793315	94232576	63057920	25983784	24992
211	4.254262	94232576	63057920	28639248	24992
212	0.846679	94232576	63057920	15656568	24992
213	1.258281	94232576	63057920	16412320	24992
214	1.667947	94232576	63057920	17421568	24992
215	2.265367	94232576	63057920	18685152	24992
216	2.563864	94232576	63057920	20204824	24992
217	2.92562	94232576	63057920	21980776	24992
218	3.574605	94232576	63057920	24014136	24992
219	4.14611	94232576	63057920	26309816	24992
220	4.155074	94232576	63057920	28861768	24992
221	5.423288	94232576	63057920	15537176	24992
222	0.862054	94232576	63057920	18877816	24992
223	1.301696	94232576	63057920	19662800	24992
224	1.73649	94232576	63057920	20710976	24992
225	2.166382	94232576	63057920	22031672	24992
226	2.785403	94232576	63057920	23609776	24992
227	3.042526	94232576	63057920	25454088	24992
228	3.474307	94232576	63057920	27565440	24992
229	3.949323	94232576	63057920	29950648	24992
230	4.821926	94232576	63057920	16304080	24992
231	4.775329	94232576	63057920	19235240	24992
232	0.90876	94232576	63057920	22719392	24992
233	1.357581	94232576	63057920	23542248	24992
234	1.805116	94232576	63057920	24640968	24992
235	2.265907	94232576	63057920	26016504	24992
236	2.904659	94232576	63057920	27670416	24992
237	3.14821	94232576	63057920	29603008	24992
238	4.061865	94232576	63057920	15557232	24992
239	4.092509	94232576	63057920	18050408	24992
240	4.542466	94232576	63057920	20826184	24992
241	5.130826	94232576	63057920	23886016	24992
242	0.969396	94232576	63057920	27520256	24992
243	1.355163	94232576	63057920	28372432	24992
244	1.852421	94232576	63057920	29510584	24992
245	2.831579	94232576	63057920	14718328	24992
246	2.981365	94232576	63057920	16430664	24992
247	3.261071	94232576	63057920	18437144	24992
248	3.904192	94232576	63057920	20727496	24992
249	4.118784	94232576	63057920	23308312	24992
250	4.723032	94232576	63057920	26182752	24992
251	5.199058	94232576	63057920	29351352	24992
252	0.973565	94232576	63057920	16910008	24992
253	1.46429	94232576	63057920	17793320	24992
254	1.957854	94232576	63057920	18970064	24992
255	2.495956	94232576	63057920	20443088	24992
256	2.919722	94232576	63057920	22214008	24992
257	3.421939	94232576	63057920	24283064	24992
258	3.906731	94232576	63057920	26654928	24992
259	4.568251	94232576	63057920	29323480	24992
260	5.466588	94232576	63057920	16134488	24992
261	5.583555	94232576	63057920	19407496	24992
262	1.009343	94232576	63057920	23294352	24992
263	1.513114	94232576	63057920	24205040	24992
264	2.028461	94232576	63057920	25428544	24992
265	2.522941	94232576	63057920	26950320	24992
266	3.030703	94232576	63057920	28779824	24992
267	4.114439	94232576	63057920	14869600	24992
268	4.194878	94232576	63057920	17316080	24992
269	4.507697	94232576	63057920	20072536	24992
270	5.443479	94232576	63057920	23142432	24992
271	5.52877	94232576	63057920	26522616	24992
272	1.376285	94232576	63057920	30543392	24992
273	1.918011	94232576	63057920	15133936	24992
274	2.087545	94232576	63057920	16388672	24992
275	2.569015	94232576	63057920	17959232	24992
276	3.118442	94232576	63057920	19847088	24992
277	3.658661	94232576	63057920	22055496	24992
278	4.073441	94232576	63057920	24579880	24992
279	4.683862	94232576	63057920	27428920	24992
280	5.616636	94232576	63057920	30594832	24992
281	6.13364	94232576	63057920	17746576	24992
282	1.083706	94232576	63057920	21885520	24992
283	1.608565	94232576	63057920	22854728	24992
284	2.142218	94232576	63057920	24153672	24992
285	2.734676	94232576	63057920	25773000	24992
286	3.093609	94232576	63057920	27719392	24992
287	3.739063	94232576	63057920	29993360	24992
288	5.077142	94232576	63057920	16375640	24992
289	4.653702	94232576	63057920	19307624	24992
290	5.276023	94232576	63057920	22577128	24992
291	5.946261	94232576	63057920	26184336	24992
292	1.324044	94232576	63057920	30450672	24992
293	2.042843	94232576	63057920	15158296	24992
294	2.218349	94232576	63057920	16491040	24992
295	2.756946	94232576	63057920	18159176	24992
296	3.324712	94232576	63057920	20168808	24992
297	4.426636	94232576	63057920	22511008	24992
298	4.375841	94232576	63057920	25200352	24992
299	5.206028	94232576	63057920	28219896	24992
300	6.270248	94232576	63057920	15712664	24992
301	6.335142	94232576	63057920	19416944	24992
302	1.126819	94232576	63057920	23814600	24992
303	1.707283	94232576	63057920	24842264	24992
304	2.285595	94232576	63057920	26214120	24992
305	2.847488	94232576	63057920	27931056	24992
306	3.356111	94232576	63057920	29994400	24992
307	4.769031	94232576	63057920	16314312	24992
308	4.546125	94232576	63057920	19073016	24992
309	5.358789	94232576	63057920	22180336	24992
310	5.792214	94232576	63057920	25638640	24992
311	6.179258	94232576	63057920	29447696	24992
312	1.175639	94232576	63057920	17991736	24992
313	1.779248	94232576	63057920	19048568	24992
314	2.345189	94232576	63057920	20459304	24992
315	3.067451	94232576	63057920	22224960	24992
316	3.507282	94232576	63057920	24356664	24992
317	4.138451	94232576	63057920	26835424	24992
318	4.903049	94232576	63057920	29685720	24992
319	5.885967	94232576	63057920	16866112	24992
320	5.804685	94232576	63057920	20424336	24992
321	6.498092	94232576	63057920	24349160	24992
322	1.198191	94232576	63057920	28996696	24992
323	1.811236	94232576	63057920	30082912	24992
324	2.419469	94232576	63057920	31532624	24992
325	3.709556	94232576	63057920	17048032	24992
326	3.626482	94232576	63057920	19228512	24992
327	4.224192	94232576	63057920	21775600	24992
328	4.973168	94232576	63057920	24690152	24992
329	5.255932	94232576	63057920	27973072	24992
330	5.936427	94232576	63057920	31627504	24992
331	7.183842	94232576	63057920	19345976	24992
332	1.251837	94232576	63057920	24120832	24992
333	1.857732	94232576	63057920	25236208	24992
334	2.479262	94232576	63057920	26725000	24992
335	3.470737	94232576	63057920	28591376	24992
336	3.717134	94232576	63057920	30831184	24992
337	5.005869	94232576	63057920	17332128	24992
338	4.997188	94232576	63057920	20325008	24992
339	5.607082	94232576	63057920	23703152	24992
340	6.356663	94232576	63057920	27454064	24992
341	6.789906	94232576	63057920	31585128	24992
342	1.274419	94232576	63057920	20258336	24992
343	1.915196	94232576	63057920	21403008	24992
344	2.545066	94232576	63057920	22930752	24992
345	3.193418	94232576	63057920	24842640	24992
346	3.84091	94232576	63057920	27140080	24992
347	4.419421	94232576	63057920	29823512	24992
348	5.928509	94232576	63057920	16962992	24992
349	5.650622	94232576	63057920	20421464	24992
350	6.428109	94232576	63057920	24269824	24992
351	6.95481	94232576	63057920	28513976	24992
352	1.312239	94232576	63057920	17838688	24992
353	1.962993	94232576	63057920	19012648	24992
354	2.805499	94232576	63057920	20579488	24992
355	3.324429	94232576	63057920	22540024	24992
356	3.929101	94232576	63057920	24896032	24992
357	4.70127	94232576	63057920	27647696	24992
358	5.203985	94232576	63057920	30803048	24992
359	6.508015	94232576	63057920	18301288	24992
360	6.733554	94232576	63057920	22266280	24992
361	7.435497	94232576	63057920	26623016	24992
362	1.509939	94232576	63057920	31820208	24992
363	2.604965	94232576	63057920	16864064	24992
364	2.563706	94232576	63057920	18487656	24992
365	3.311126	94232576	63057920	20527504	24992
366	4.029669	94232576	63057920	22979392	24992
367	4.905856	94232576	63057920	25832368	24992
368	5.449134	94232576	63057920	29094416	24992
369	6.910019	94232576	63057920	17069072	24992
370	7.277486	94232576	63057920	21159840	24992
371	7.417375	94232576	63057920	25661712	24992
372	1.363114	94232576	63057920	31025072	24992
373	2.064765	94232576	63057920	32270928	24992
374	3.366525	94232576	63057920	17689080	24992
375	3.442955	94232576	63057920	19770528	24992
376	4.11702	94232576	63057920	22270072	24992
377	4.985928	94232576	63057920	25191464	24992
378	5.478679	94232576	63057920	28531520	24992
379	6.381221	94232576	63057920	32298664	24992
380	7.301245	94232576	63057920	20248440	24992
381	7.597486	94232576	63057920	24857320	24992
382	1.402887	94232576	63057920	30350016	24992
383	2.123123	94232576	63057920	31637560	24992
384	3.514796	94232576	63057920	17244208	24992
385	3.528414	94232576	63057920	19373392	24992
386	4.391011	94232576	63057920	21932832	24992
387	4.979262	94232576	63057920	24927080	24992
388	5.877882	94232576	63057920	28347768	24992
389	6.307185	94232576	63057920	32197352	24992
390	8.002916	94232576	63057920	20312248	24992
391	7.607707	94232576	63057920	25028472	24992
392	1.43365	94232576	63057920	30664288	24992
393	2.402727	94232576	63057920	31978224	24992
394	3.580577	94232576	63057920	17625000	24992
395	3.601215	94232576	63057920	19809808	24992
396	4.523112	94232576	63057920	22426448	24992
397	4.93711	94232576	63057920	25491440	24992
398	5.7755	94232576	63057920	28987936	24992
399	6.664587	94232576	63057920	32928232	24992
400	7.875875	94232576	63057920	21064840	24992
401	7.88751	94232576	63057920	25889648	24992
402	1.494472	94232576	63057920	31635032	24992
403	2.206584	94232576	63057920	32968552	24992
404	3.956211	94232576	63057920	18507880	24992
405	3.671429	94232576	63057920	20734608	24992
406	4.349808	94232576	63057920	23409872	24992
407	5.486537	94232576	63057920	26541952	24992
408	5.917026	94232576	63057920	30116064	24992
409	7.92976	94232576	63057920	18420424	24992
410	7.344971	94232576	63057920	22904016	24992
411	8.091616	94232576	63057920	27837192	24992
412	2.243022	94232576	63057920	17562152	24992
413	2.279486	94232576	63057920	18936456	24992
414	3.196992	94232576	63057920	20754936	24992
415	3.766918	94232576	63057920	23030296	24992
416	4.54123	94232576	63057920	25763944	24992
417	5.29863	94232576	63057920	28975904	24992
418	6.066532	94232576	63057920	32661040	24992
419	7.670147	94232576	63057920	20677024	24992
420	7.606159	94232576	63057920	25327184	24992
421	8.303303	94232576	63057920	30452384	24992
422	1.555674	94232576	63057920	20795848	24992
423	2.321909	94232576	63057920	22237208	24992
424	3.265192	94232576	63057920	24160664	24992
425	3.857944	94232576	63057920	26574256	24992
426	4.791428	94232576	63057920	29466968	24992
427	5.632776	94232576	63057920	32842744	24992
428	6.870317	94232576	63057920	20540408	24992
429	6.887394	94232576	63057920	24904280	24992
430	7.960062	94232576	63057920	29751320	24992
431	9.677788	94232576	63057920	19404912	24992
432	1.574865	94232576	63057920	25765872	24992
433	2.386434	94232576	63057920	27247416	24992
434	3.157479	94232576	63057920	29226680	24992
435	3.95248	94232576	63057920	31681936	24992
436	5.804786	94232576	63057920	18707072	24992
437	5.544928	94232576	63057920	22155864	24992
438	6.474359	94232576	63057920	26097824	24992
439	7.419407	94232576	63057920	30534400	24992
440	9.221129	94232576	63057920	19783880	24992
441	8.840886	94232576	63057920	25227824	24992
442	1.545417	94232576	63057920	31721216	24992
443	2.313917	94232576	63057920	33222136	24992
444	3.98527	94232576	63057920	19090552	24992
445	4.43626	94232576	63057920	21594616	24992
446	4.852347	94232576	63057920	24602576	24992
447	5.618052	94232576	63057920	28115056	24992
448	6.501019	94232576	63057920	32162912	24992
449	8.409337	94232576	63057920	20742536	24992
450	7.763982	94232576	63057920	25775024	24992
451	8.798927	94232576	63057920	31332792	24992
452	1.64818	94232576	63057920	22126152	24992
453	2.482693	94232576	63057920	23675912	24992
454	3.46865	94232576	63057920	25725120	24992
455	4.036146	94232576	63057920	28307200	24992
456	4.946887	94232576	63057920	31385120	24992
457	7.088755	94232576	63057920	19191640	24992
458	6.631603	94232576	63057920	23305496	24992
459	7.392743	94232576	63057920	27935504	24992
460	8.480738	94232576	63057920	33099352	24992
461	10.156216	94232576	63057920	22600760	24992
462	1.675481	94232576	63057920	29337344	24992
463	2.528174	94232576	63057920	30895792	24992
464	3.551721	94232576	63057920	32975184	24992
465	5.365541	94232576	63057920	19598088	24992
466	4.962346	94232576	63057920	22723008	24992
467	5.841001	94232576	63057920	26371744	24992
468	7.016014	94232576	63057920	30545760	24992
469	9.258084	94232576	63057920	19711336	24992
470	8.729894	94232576	63057920	24938864	24992
471	9.132799	94232576	63057920	30814008	24992
472	1.713203	94232576	63057920	21974456	24992
473	2.584647	94232576	63057920	23561976	24992
474	3.432892	94232576	63057920	25697440	24992
475	4.329047	94232576	63057920	28347584	24992
476	5.261365	94232576	63057920	31531136	24992
477	7.174765	94232576	63057920	19539640	24992
478	7.030265	94232576	63057920	23811784	24992
479	7.600562	94232576	63057920	28599192	24992
480	8.325836	94232576	63057920	33924328	24992
481	10.355345	94232576	63057920	23602768	24992
482	1.660613	94232576	63057920	30600392	24992
483	2.570575	94232576	63057920	32217296	24992
484	3.498528	94232576	63057920	34374672	24992
485	5.179003	94232576	63057920	20932080	24992
486	5.155497	94232576	63057920	24173928	24992
487	6.20738	94232576	63057920	27959872	24992
488	7.195852	94232576	63057920	32289656	24992
489	8.997001	94232576	63057920	21376328	24992
490	8.759887	94232576	63057920	26799016	24992
491	9.855738	94232576	63057920	32771000	24992
492	1.782185	94232576	63057920	23922424	24992
493	2.677657	94232576	63057920	25570960	24992
494	3.560026	94232576	63057920	27788032	24992
495	4.455976	94232576	63057920	30535744	24992
496	5.282348	94232576	63057920	33836176	24992
497	7.294594	94232576	63057920	21641448	24992
498	7.127694	94232576	63057920	26049144	24992
499	7.737109	94232576	63057920	31034048	24992
500	10.378186	94232576	63057920	20967848	24992
501	9.888087	94232576	63057920	27054144	24992
502	1.818034	94232576	63057920	34315432	24992
503	3.716745	94232576	63057920	19939072	24992
504	3.83967	94232576	63057920	22174464	24992
505	4.461675	94232576	63057920	24985136	24992
506	5.456781	94232576	63057920	28344064	24992
507	6.381436	94232576	63057920	32277984	24992
508	8.735019	94232576	63057920	21046376	24992
509	8.162207	94232576	63057920	26111272	24992
510	9.187597	94232576	63057920	31728736	24992
511	11.382135	94232576	63057920	22254104	24992
512	1.838373	94232576	63057920	29647952	24992
513	2.767692	94232576	63057920	31356720	24992
514	3.708898	94232576	63057920	33631136	24992
515	5.751094	94232576	63057920	20572488	24992
516	5.561741	94232576	63057920	23989952	24992
517	6.283277	94232576	63057920	27991632	24992
518	7.621804	94232576	63057920	32570080	24992
519	9.717761	94232576	63057920	21982056	24992
520	9.3284	94232576	63057920	27710856	24992
521	10.360271	94232576	63057920	34003432	24992
522	1.880582	94232576	63057920	25469976	24992
523	2.831396	94232576	63057920	27203832	24992
524	3.769962	94232576	63057920	29526552	24992
525	4.717536	94232576	63057920	32420480	24992
526	5.773636	94232576	63057920	35907240	24992
527	7.523197	94232576	63057920	23745232	24992
528	7.706038	94232576	63057920	28388032	24992
529	8.497868	94232576	63057920	33628936	24992
530	10.78783	94232576	63057920	23516920	24992
531	10.586159	94232576	63057920	29917240	24992
532	2.932649	94232576	63057920	21246224	24992
533	2.763702	94232576	63057920	23009336	24992
534	3.633868	94232576	63057920	25362216	24992
535	4.80661	94232576	63057920	28309752	24992
536	5.582769	94232576	63057920	31843992	24992
537	6.926943	94232576	63057920	35970440	24992
538	8.983886	94232576	63057920	24471760	24992
539	8.746301	94232576	63057920	29797296	24992
540	9.787645	94232576	63057920	35714968	24992
541	11.626846	94232576	63057920	26014024	24992
542	1.930466	94232576	63057920	33783880	24992
543	2.910402	94232576	63057920	35576208	24992
544	5.008658	94232576	63057920	21844536	24992
545	5.061917	94232576	63057920	24835952	24992
546	5.929011	94232576	63057920	28428832	24992
547	6.73297	94232576	63057920	32623680	24992
548	9.361388	94232576	63057920	21795552	24992
549	9.0656	94232576	63057920	27197296	24992
550	9.965046	94232576	63057920	33217472	24992
551	12.344494	94232576	63057920	24047816	24992
552	1.969768	94232576	63057920	31930064	24992
553	2.971024	94232576	63057920	33751696	24992
554	3.962739	94232576	63057920	36195312	24992
555	6.013368	94232576	63057920	23057192	24992
556	5.985214	94232576	63057920	26728448	24992
557	6.988636	94232576	63057920	31026360	24992
558	8.148905	94232576	63057920	35925080	24992
559	10.046613	94232576	63057920	25350376	24992
560	9.985976	94232576	63057920	31489312	24992
561	12.360819	94232576	63057920	22845688	24992
562	2.007852	94232576	63057920	30918728	24992
563	3.021288	94232576	63057920	32804952	24992
564	4.021643	94232576	63057920	35315088	24992
565	6.591053	94232576	63057920	22443168	24992
566	6.047966	94232576	63057920	26198344	24992
567	7.052561	94232576	63057920	30581480	24992
568	7.931204	94232576	63057920	35590040	24992
569	10.112103	94232576	63057920	25228768	24992
570	10.302443	94232576	63057920	31520880	24992
571	12.568974	94232576	63057920	23083728	24992
572	2.08277	94232576	63057920	31338784	24992
573	3.16728	94232576	63057920	33239264	24992
574	3.926835	94232576	63057920	35786584	24992
575	6.211638	94232576	63057920	22959456	24992
576	6.201802	94232576	63057920	26774952	24992
577	7.162165	94232576	63057920	31222920	24992
578	8.26433	94232576	63057920	36311856	24992
579	10.611429	94232576	63057920	25940960	24992
580	10.646269	94232576	63057920	32309200	24992
581	12.958878	94232576	63057920	23864104	24992
582	2.03395	94232576	63057920	32244432	24992
583	3.273602	94232576	63057920	34184472	24992
584	4.140309	94232576	63057920	36765912	24992
585	6.381947	94232576	63057920	23875560	24992
586	6.353468	94232576	63057920	27748568	24992
587	7.536948	94232576	63057920	32283416	24992
588	8.14711	94232576	63057920	37462176	24992
589	10.653966	94232576	63057920	27049432	24992
590	10.537934	94232576	63057920	33531208	24992
591	13.051202	94232576	63057920	24997232	24992
592	2.030542	94232576	63057920	33484096	24992
593	3.048339	94232576	63057920	35443072	24992
594	5.342234	94232576	63057920	22170576	24992
595	5.525503	94232576	63057920	25449672	24992
596	6.407998	94232576	63057920	29377704	24992
597	7.392017	94232576	63057920	33982560	24992
598	9.923169	94232576	63057920	23603544	24992
599	10.490641	94232576	63057920	29517744	24992
600	11.458612	94232576	63057920	36088960	24992
601	13.164316	94232576	63057920	27239464	24992
602	2.303053	94232576	63057920	35891784	24992
603	3.186776	94232576	63057920	37880008	24992
604	5.38671	94232576	63057920	24325008	24992
605	5.394953	94232576	63057920	27643024	24992
606	6.471372	94232576	63057920	31627592	24992
607	7.531821	94232576	63057920	36279368	24992
608	9.821887	94232576	63057920	25632040	24992
609	9.972803	94232576	63057920	31624056	24992
610	10.730296	94232576	63057920	38308544	24992
611	12.877485	94232576	63057920	29227480	24992
612	2.215323	94232576	63057920	37984528	24992
613	4.229561	94232576	63057920	23791632	24992
614	4.55413	94232576	63057920	26483264	24992
615	5.426289	94232576	63057920	29871928	24992
616	6.740639	94232576	63057920	33926008	24992
617	9.19111	94232576	63057920	23145064	24992
618	8.629597	94232576	63057920	28547024	24992
619	10.051916	94232576	63057920	34633336	24992
620	12.795532	94232576	63057920	25682816	24992
621	12.169152	94232576	63057920	33122624	24992
622	2.156895	94232576	63057920	26659464	24992
623	3.470043	94232576	63057920	28726016	24992
624	4.452707	94232576	63057920	31457272	24992
625	5.597066	94232576	63057920	34878384	24992
626	8.275001	94232576	63057920	23386304	24992
627	7.883381	94232576	63057920	28175344	24992
628	9.08115	94232576	63057920	33652992	24992
629	11.750743	94232576	63057920	24364752	24992
630	11.405826	94232576	63057920	31224600	24992
631	12.413286	94232576	63057920	38787904	24992
632	2.254514	94232576	63057920	31412152	24992
633	3.38735	94232576	63057920	33494096	24992
634	4.72564	94232576	63057920	36266056	24992
635	7.100638	94232576	63057920	23942040	24992
636	6.870584	94232576	63057920	28102176	24992
637	7.890803	94232576	63057920	32988480	24992
638	8.942113	94232576	63057920	38547432	24992
639	11.615801	94232576	63057920	28602800	24992
640	11.419932	94232576	63057920	35570968	24992
641	14.19715	94232576	63057920	27470760	24992
642	2.460462	94232576	63057920	36636064	24992
643	3.427254	94232576	63057920	38745576	24992
644	5.733806	94232576	63057920	25358952	24992
645	5.944363	94232576	63057920	28873568	24992
646	6.861712	94232576	63057920	33107480	24992
647	8.070535	94232576	63057920	38032544	24992
648	10.559418	94232576	63057920	27594728	24992
649	10.186833	94232576	63057920	33974536	24992
650	13.311638	94232576	63057920	25619080	24992
651	12.783877	94232576	63057920	33381552	24992
652	2.352552	94232576	63057920	27340952	24992
653	3.491062	94232576	63057920	29475376	24992
654	4.755704	94232576	63057920	32346808	24992
655	6.11924	94232576	63057920	35908464	24992
656	8.32368	94232576	63057920	24551496	24992
657	8.08871	94232576	63057920	29568576	24992
658	9.013384	94232576	63057920	35301680	24992
659	12.057423	94232576	63057920	26117048	24992
660	11.980134	94232576	63057920	33271216	24992
661	14.87442	94232576	63057920	25871272	24992
662	2.519565	94232576	63057920	35267800	24992
663	3.454924	94232576	63057920	37436784	24992
664	6.212848	94232576	63057920	24524728	24992
665	6.008935	94232576	63057920	28135096	24992
666	6.870533	94232576	63057920	32482696	24992
667	8.30889	94232576	63057920	37559184	24992
668	11.082637	94232576	63057920	27435824	24992
669	10.63515	94232576	63057920	33956240	24992
670	13.673475	94232576	63057920	25941504	24992
671	13.087268	94232576	63057920	33931936	24992
672	2.542652	94232576	63057920	28160248	24992
673	3.457418	94232576	63057920	30361040	24992
674	4.731195	94232576	63057920	33287688	24992
675	5.883768	94232576	63057920	36953816	24992
676	8.801874	94232576	63057920	25685256	24992
677	8.538558	94232576	63057920	30850792	24992
678	9.619263	94232576	63057920	36730512	24992
679	12.308514	94232576	63057920	27568072	24992
680	12.224608	94232576	63057920	34921488	24992
681	15.319016	94232576	63057920	27622080	24992
682	2.436914	94232576	63057920	37256832	24992
683	3.633081	94232576	63057920	39479216	24992
684	6.268325	94232576	63057920	26311336	24992
685	6.056475	94232576	63057920	30019288	24992
686	7.268946	94232576	63057920	34472088	24992
687	8.541818	94232576	63057920	39679568	24992
688	11.072182	94232576	63057920	29449296	24992
689	11.146888	94232576	63057920	36147192	24992
690	13.58108	94232576	63057920	27960080	24992
691	13.944879	94232576	63057920	36171240	24992
692	2.493585	94232576	63057920	30331264	24992
693	3.739415	94232576	63057920	32597752	24992
694	5.093305	94232576	63057920	35614320	24992
695	6.182334	94232576	63057920	39370888	24992
696	8.811316	94232576	63057920	27842952	24992
697	8.506609	94232576	63057920	33129848	24992
698	10.142766	94232576	63057920	39152392	24992
699	12.719735	94232576	63057920	29793552	24992
700	12.297402	94232576	63057920	37336800	24992
701	15.76847	94232576	63057920	29882456	24992
702	2.498018	94232576	63057920	39795688	24992
703	5.214133	94232576	63057920	26029048	24992
704	4.909067	94232576	63057920	29071656	24992
705	6.009142	94232576	63057920	32877640	24992
706	7.385415	94232576	63057920	37451944	24992
707	10.50567	94232576	63057920	27154712	24992
708	9.92821	94232576	63057920	33265512	24992
709	11.253453	94232576	63057920	40148152	24992
710	13.922514	94232576	63057920	31523616	24992
711	13.893632	94232576	63057920	39930496	24992
712	2.50929	94232576	63057920	33784856	24992
713	3.932746	94232576	63057920	36096160	24992
714	5.17216	94232576	63057920	39177800	24992
715	7.847984	94232576	63057920	27110888	24992
716	7.427771	94232576	63057920	31756224	24992
717	8.89468	94232576	63057920	37195488	24992
718	11.822839	94232576	63057920	27757744	24992
719	11.43082	94232576	63057920	34712432	24992
720	14.80462	94232576	63057920	27251400	24992
721	13.909309	94232576	63057920	35765072	24992
722	2.884259	94232576	63057920	30612520	24992
723	3.772424	94232576	63057920	32965056	24992
724	4.926294	94232576	63057920	36090056	24992
725	6.165374	94232576	63057920	39993072	24992
726	9.314408	94232576	63057920	28641168	24992
727	8.854971	94232576	63057920	34154424	24992
728	10.435814	94232576	63057920	40410648	24992
729	12.703224	94232576	63057920	31291792	24992
730	13.00377	94232576	63057920	39130432	24992
731	15.896683	94232576	63057920	31812880	24992
732	4.060662	94232576	63057920	26109880	24992
733	4.069065	94232576	63057920	28478464	24992
734	5.022401	94232576	63057920	31638048	24992
735	6.265928	94232576	63057920	35600656	24992
736	7.496777	94232576	63057920	40346000	24992
737	10.647278	94232576	63057920	29869160	24992
738	10.683964	94232576	63057920	36203312	24992
739	13.432802	94232576	63057920	28018528	24992
740	12.768849	94232576	63057920	35946920	24992
741	16.373779	94232576	63057920	29404200	24992
742	2.619695	94232576	63057920	39812616	24992
743	5.703337	94232576	63057920	26338504	24992
744	5.067774	94232576	63057920	29537096	24992
745	6.454887	94232576	63057920	33557864	24992
746	7.708883	94232576	63057920	38361760	24992
747	11.063274	94232576	63057920	28378136	24992
748	10.400743	94232576	63057920	34811024	24992
749	11.631882	94232576	63057920	42061376	24992
750	15.421503	94232576	63057920	33708664	24992
751	16.985378	94232576	63057920	27704448	24992
752	2.655032	94232576	63057920	38261208	24992
753	4.186199	94232576	63057920	40688272	24992
754	6.700269	94232576	63057920	27948504	24992
755	6.67064	94232576	63057920	31997712	24992
756	8.128233	94232576	63057920	36860144	24992
757	11.246907	94232576	63057920	27259424	24992
758	10.811168	94232576	63057920	33749688	24992
759	11.959075	94232576	63057920	41085832	24992
760	15.099519	94232576	63057920	33069864	24992
761	14.824629	94232576	63057920	42044008	24992
762	2.635683	94232576	63057920	36425360	24992
763	3.970138	94232576	63057920	38882712	24992
764	5.403358	94232576	63057920	42161544	24992
765	8.148592	94232576	63057920	30091592	24992
766	8.131801	94232576	63057920	35012448	24992
767	9.475296	94232576	63057920	40759872	24992
768	12.230154	94232576	63057920	31350464	24992
769	12.191552	94232576	63057920	38772616	24992
770	15.366567	94232576	63057920	31302152	24992
771	14.671277	94232576	63057920	40367784	24992
772	2.671227	94232576	63057920	35198328	24992
773	3.935382	94232576	63057920	37683928	24992
774	5.206246	94232576	63057920	41014336	24992
775	8.1965	94232576	63057920	29284216	24992
776	8.045357	94232576	63057920	34272544	24992
777	9.580699	94232576	63057920	40093120	24992
778	12.503506	94232576	63057920	30909232	24992
779	12.327939	94232576	63057920	38393040	24992
780	15.604498	94232576	63057920	31175448	24992
781	15.194295	94232576	63057920	40334696	24992
782	2.671993	94232576	63057920	35412136	24992
783	3.984904	94232576	63057920	37942464	24992
784	5.440696	94232576	63057920	41297136	24992
785	9.092857	94232576	63057920	29620680	24992
786	8.187544	94232576	63057920	34658960	24992
787	9.684384	94232576	63057920	40543544	24992
788	12.714861	94232576	63057920	31459712	24992
789	12.50116	94232576	63057920	39035408	24992
790	15.675737	94232576	63057920	31849288	24992
791	16.3334	94232576	63057920	41125744	24992
792	2.687818	94232576	63057920	36183560	24992
793	4.202542	94232576	63057920	38727704	24992
794	5.670031	94232576	63057920	42122184	24992
795	8.764886	94232576	63057920	30357432	24992
796	8.577163	94232576	63057920	35468144	24992
797	9.627268	94232576	63057920	41426760	24992
798	13.221033	94232576	63057920	32229816	24992
799	12.723379	94232576	63057920	39918448	24992
800	16.107288	94232576	63057920	32779272	24992
801	15.554594	94232576	63057920	42158064	24992
802	2.72686	94232576	63057920	37226536	24992
803	4.12263	94232576	63057920	39808112	24992
804	5.718035	94232576	63057920	43247176	24992
805	8.77835	94232576	63057920	31413064	24992
806	8.223936	94232576	63057920	36574104	24992
807	10.069473	94232576	63057920	42595736	24992
808	12.913844	94232576	63582208	33346880	24992
809	12.830046	94232576	63582208	41096344	24992
810	16.432193	94232576	63582208	33892936	24992
811	15.413606	94232576	63582208	43381120	24992
812	2.999037	94502912	63582208	38430864	24992
813	4.270682	94502912	63582208	41033520	24992
814	7.687184	94502912	63582208	28824384	24992
815	7.332444	94502912	63582208	33166192	24992
816	8.829719	94502912	63582208	38391280	24992
817	12.431686	94502912	63582208	29163648	24992
818	11.197164	94502912	63582208	36121976	24992
819	13.047165	94502912	63582208	43960296	24992
820	15.844367	94502912	63582208	36370272	24992
821	18.415605	94502912	63582208	31000808	24992
822	2.876351	94502912	63582208	42518496	24992
823	5.904671	94773248	63582208	29251128	24992
824	5.739155	94773248	63582208	32761984	24992
825	7.38015	94773248	63582208	37152432	24992
826	8.795581	94773248	63582208	42424256	24992
827	12.091253	94773248	64106496	32710112	24992
828	11.52388	94773248	64106496	39746552	24992
829	15.22394	94773248	64106496	32164560	24992
830	14.373829	94773248	64106496	40970424	24992
831	18.123067	94773248	64106496	34920848	24992
832	3.129608	95043584	64106496	30277024	24992
833	4.221626	95043584	64106496	32938168	24992
834	5.740992	95043584	64106496	36497512	24992
835	7.378386	95043584	64106496	40949208	24992
836	10.637998	95043584	64106496	30764928	24992
837	10.680515	95043584	64106496	36998136	24992
838	11.984563	95043584	64106496	44151664	24992
839	15.013816	95043584	64106496	35932592	24992
840	15.491964	95043584	64106496	44897232	24992
841	18.528114	95313920	64106496	38362672	24992
842	2.86954	95313920	64106496	34995432	24992
843	4.299597	95313920	64106496	37735048	24992
844	5.959582	95313920	64106496	41392320	24992
845	9.19133	95313920	64630784	30308688	24992
846	8.648004	95313920	64630784	35801280	24992
847	10.566225	95313920	64630784	42219592	24992
848	13.825754	95584256	64630784	33732272	24992
849	13.313295	95584256	64630784	42004704	24992
850	17.087774	95584256	64630784	35401544	24992
851	18.810304	95584256	64630784	30886272	24992
852	2.997324	95584256	64630784	43007256	24992
853	6.138186	95584256	64630784	29997784	24992
854	6.03654	95584256	64630784	33734152	24992
855	7.644234	95584256	64630784	38412504	24992
856	8.760127	95584256	64630784	44057048	24992
857	12.819317	95854592	64630784	34633968	24992
858	12.046558	95854592	64630784	42131936	24992
859	15.922305	95854592	64630784	34783736	24992
860	15.10405	95854592	64630784	44185568	24992
861	18.593107	95854592	64630784	38394296	24992
862	2.908462	95854592	65155072	35598152	24992
863	4.393541	95854592	65155072	38427336	24992
864	6.280772	95854592	65155072	42207832	24992
865	10.254972	96124928	65155072	31315024	24992
866	9.273048	96124928	65155072	36987200	24992
867	10.886623	96124928	65155072	43644224	24992
868	13.620527	96124928	65679360	35222232	24992
869	13.869105	96124928	65679360	43738320	24992
870	17.383625	96124928	65679360	37147152	24992
871	19.313469	96124928	65679360	32750240	24992
872	3.002072	96124928	65679360	45224368	24992
873	6.180963	96124928	65679360	31943280	24992
874	6.196375	96124928	65679360	35757808	24992
875	7.880131	96124928	65679360	40526384	24992
876	11.645663	96395264	65679360	30977704	24992
877	11.471266	96395264	65679360	37687048	24992
878	12.045161	96395264	65679360	45335296	24992
879	15.420591	96395264	65679360	37678272	24992
880	17.876477	96395264	65679360	32306368	24992
881	16.990388	96395264	65679360	42842680	24992
882	3.115708	96395264	65679360	39618680	24992
883	4.510369	96395264	65679360	42526616	24992
884	8.504413	96665600	66203648	30776048	24992
885	7.705832	96665600	66203648	35592984	24992
886	9.407845	96665600	66203648	41387456	24992
887	13.54761	96665600	66203648	32662488	24992
888	12.581158	96665600	66203648	40397096	24992
889	16.518403	96665600	66203648	33824448	24992
890	15.287562	96665600	66203648	43502000	24992
891	19.124672	96665600	66203648	38218608	24992
892	3.097621	96935936	66203648	36008328	24992
893	4.712318	96935936	66203648	38925224	24992
894	6.368926	96935936	66203648	42824704	24992
895	10.005881	96935936	66203648	32104344	24992
896	9.537469	96935936	66203648	37954584	24992
897	11.000441	96935936	66203648	44777184	24992
898	14.222221	96935936	66203648	36529368	24992
899	13.948344	96935936	66203648	45322336	24992
900	17.517197	97206272	66203648	39005344	24992
901	20.101201	97206272	66203648	34665528	24992
902	4.919487	97206272	66203648	31545576	24992
903	4.580196	97206272	66203648	34493952	24992
904	6.227755	97206272	66203648	38434616	24992
905	8.048013	97206272	66203648	43348952	24992
906	12.17869	97206272	66727936	33660144	24992
907	11.174311	97476608	66727936	40549656	24992
908	14.64668	97476608	66727936	33205176	24992
909	14.570723	97476608	66727936	42079792	24992
910	18.157213	97476608	66727936	36407184	24992
911	20.633995	97476608	66727936	32735216	24992
912	3.215669	97476608	66727936	45693176	24992
913	6.675246	97476608	66727936	32734408	24992
914	6.276483	97476608	66727936	36717296	24992
915	8.396303	97476608	66727936	41680376	24992
916	12.098317	97746944	66727936	32420272	24992
917	11.331774	97746944	66727936	39390976	24992
918	12.669236	97746944	66727936	47349152	24992
919	16.263738	97746944	66727936	39878064	24992
920	18.880703	97746944	66727936	34792688	24992
921	17.585578	97746944	66727936	45762960	24992
922	3.243202	97746944	66727936	42790880	24992
923	4.87037	97746944	66727936	45839856	24992
924	8.607191	98017280	67252224	33927624	24992
925	8.040063	98017280	67252224	38941312	24992
926	9.385166	98017280	67252224	44972048	24992
927	13.223553	98017280	67252224	36089504	24992
928	13.014923	98017280	67252224	44126032	24992
929	16.64407	98017280	67252224	37431328	24992
930	16.065414	98017280	67252224	47497104	24992
931	19.847228	98017280	67252224	42199520	24992
932	3.391801	98017280	67252224	40058560	24992
933	4.923225	98017280	67252224	43100640	24992
934	6.891449	98017280	67252224	47153136	24992
935	10.175199	98287616	67252224	36108152	24992
936	9.602705	98287616	67252224	42193168	24992
937	13.546831	98287616	67252224	33930800	24992
938	12.890212	98287616	67252224	42045576	24992
939	17.23198	98287616	67252224	35796416	24992
940	16.439948	98287616	67252224	45978344	24992
941	20.219386	98287616	67252224	41053024	24992
942	3.246521	98557952	67776512	39187504	24992
943	4.839661	98557952	67776512	42250632	24992
944	6.632925	98557952	67776512	46340624	24992
945	10.481436	98557952	67776512	35508096	24992
946	10.788533	98557952	67776512	41648064	24992
947	14.588219	98557952	67776512	33635152	24992
948	14.060657	98557952	67776512	41821552	24992
949	17.634226	98557952	67776512	35849504	24992
950	16.813548	98557952	67776512	46311256	24992
951	20.394531	98828288	67776512	41701920	24992
952	3.33014	98828288	67776512	40002928	24992
953	4.955748	98828288	67776512	43095392	24992
954	6.923341	98828288	67776512	47220184	24992
955	10.160085	98828288	67776512	36377992	24992
956	10.152124	98828288	67776512	42571032	24992
957	14.071803	99098624	68300800	34451616	24992
958	13.106843	99098624	68300800	42716336	24992
959	17.541597	99098624	68300800	36667816	24992
960	16.563263	99098624	68300800	47161624	24992
961	20.372296	99098624	68300800	42552256	24992
962	3.358858	99098624	68300800	40800784	24992
963	5.045452	99098624	68300800	43922392	24992
964	6.530321	99098624	68300800	48086312	24992
965	10.495864	99368960	68825088	37184056	24992
966	10.369089	99368960	68825088	43435680	24992
967	14.163708	99368960	68825088	35388944	24992
968	13.549756	99368960	68825088	43731280	24992
969	17.524047	99368960	68825088	37634016	24992
970	17.180462	99368960	68825088	48085232	24992
971	20.599476	99368960	68825088	43306328	24992
972	3.430799	99368960	68825088	41699016	24992
973	5.120237	99368960	68825088	44849984	24992
974	6.645616	99368960	68825088	49052760	24992
975	10.54716	99639296	68825088	38060224	24992
976	10.184335	99639296	68825088	44370232	24992
977	14.138044	99639296	68825088	36198672	24992
978	13.565344	99639296	68825088	44619080	24992
979	18.114651	99639296	68825088	38589600	24992
980	16.835681	99639296	68825088	49125616	24992
981	20.467684	99639296	69349376	44358152	24992
982	3.35124	99639296	69349376	42651416	24992
983	5.192466	99639296	69349376	45876384	24992
984	9.23929	99909632	69349376	34571920	24992
985	8.619901	99909632	69349376	39913448	24992
986	10.038178	99909632	69349376	46282136	24992
987	14.485242	99909632	69349376	37914400	24992
988	13.665287	99909632	69349376	46413112	24992
989	17.866876	99909632	69349376	40124976	24992
990	19.85434	99909632	69349376	36070984	24992
991	18.93404	100179968	69349376	47813840	24992
992	3.461055	100179968	69349376	45691112	24992
993	5.435408	100179968	69349376	48900680	24992
994	9.1144	100179968	69873664	37130264	24992
995	8.799852	100179968	69873664	42483616	24992
996	10.666708	100179968	69873664	48910640	24992
997	14.07072	100450304	69873664	40162152	24992
998	13.806439	100450304	69873664	48738888	24992
999	17.834726	100450304	69873664	42187104	24992
1000	19.881406	100450304	69873664	37999160	24992
