x	Duration	RSS	HeapTotal	HeapUsed	External
0	NA	109371392	104476672	18688712	24992
1	0.3009	109371392	104476672	18733264	24992
2	0.330092	109371392	104476672	18804472	24992
3	0.390082	109371392	104476672	18900840	24992
4	0.468096	109371392	104476672	19023456	24992
5	0.603355	109371392	104476672	19173776	24992
6	0.652967	109371392	104476672	19352512	24992
7	0.750413	109371392	104476672	19560592	24992
8	0.868728	109371392	104476672	19798976	24992
9	0.990066	109371392	104476672	20069512	24992
10	1.075439	109371392	104476672	20372288	24992
11	1.202462	109371392	104476672	20708032	24992
12	0.494028	109371392	104476672	21068320	24992
13	0.217099	109371392	104476672	21173664	24992
14	0.249779	109371392	104476672	21315512	24992
15	0.301441	109371392	104476672	21494624	24992
16	0.364771	109371392	104476672	21712536	24992
17	0.424489	109371392	104476672	21969776	24992
18	0.493916	109371392	104476672	22267024	24992
19	0.548078	109371392	104476672	22605776	24992
20	0.611415	109371392	104476672	22987072	24992
21	0.73042	109371392	104476672	23411312	24992
22	0.163044	109371392	104476672	23883480	24992
23	0.241046	109371392	104476672	24016760	24992
24	0.310144	109371392	104476672	24195728	24992
25	0.383299	109371392	104476672	24422416	24992
26	0.461268	109371392	104476672	24698256	24992
27	0.533865	109371392	104476672	25023768	24992
28	0.644201	109371392	104476672	25399648	24992
29	0.69695	109371392	104476672	25826952	24992
30	0.773752	109371392	104476672	26307576	24992
31	0.857022	109371392	104476672	26841512	24992
32	0.196639	109371392	104476672	27444584	24992
33	0.510965	109371392	104476672	27609152	24992
34	0.394399	109371392	104476672	27829680	24992
35	0.464515	109371392	104476672	28107280	24992
36	0.565959	109371392	104476672	28443208	24992
37	0.643026	109371392	104476672	28838712	24992
38	0.739682	109371392	104476672	29293288	24992
39	0.850109	109371392	104476672	29808496	24992
40	0.939373	109371392	104476672	30386304	24992
41	1.027538	109371392	104476672	31026664	24992
42	0.219478	109371392	104476672	31757336	24992
43	0.339215	109371392	104476672	31949744	24992
44	0.474413	109371392	104476672	32207464	24992
45	0.539639	109371392	104476672	32532104	24992
46	0.643519	109371392	104476672	32923792	24992
47	1.006065	109371392	104476672	33383608	24992
48	0.875617	109371392	104476672	33912416	24992
49	1.193008	109371392	104476672	34511168	24992
50	1.087973	109371392	104476672	35181848	24992
51	2.814728	109371392	104476672	20042856	24992
52	0.253993	109371392	104476672	20903064	24992
53	0.381072	109371392	104476672	21129824	24992
54	0.498546	109371392	104476672	21433184	24992
55	0.62702	109371392	104476672	21814192	24992
56	0.737071	109371392	104476672	22274288	24992
57	0.872744	109371392	104476672	22813920	24992
58	0.986481	109371392	104476672	23433968	24992
59	1.306564	109371392	104476672	24135352	24992
60	1.263474	109371392	104476672	24919912	24992
61	1.362206	109371392	104476672	25789488	24992
62	0.279246	109371392	104476672	26792056	24992
63	0.419899	109371392	104476672	27046656	24992
64	0.552408	109371392	104476672	27387312	24992
65	0.68398	109371392	104476672	27814816	24992
66	0.823211	109371392	104476672	28330688	24992
67	0.980777	109371392	104476672	28935336	24992
68	1.104031	109371392	104476672	29629672	24992
69	1.233697	109371392	104476672	30414696	24992
70	1.419205	109371392	104476672	31292080	24992
71	1.532117	109371392	104476672	32261920	24992
72	0.310146	109371392	104476672	33385672	24992
73	0.47154	109371392	104476672	33668208	24992
74	0.611046	109371392	104476672	34046016	24992
75	0.761359	109371392	104476672	34519992	24992
76	0.906462	109371392	104476672	35092376	24992
77	2.756477	109912064	104476672	20163552	24992
78	1.218584	109912064	104476672	20932192	24992
79	1.573158	109912064	104476672	21800720	24992
80	1.53745	109912064	104476672	22771176	24992
81	1.82707	109912064	104476672	23844256	24992
82	0.338157	109912064	104476672	25093200	24992
83	0.506676	109912064	104476672	25403592	24992
84	0.66327	109912064	104476672	25819632	24992
85	0.846037	109912064	104476672	26339960	24992
86	0.995579	109912064	104476672	26967232	24992
87	1.159916	109912064	104476672	27701768	24992
88	1.335647	109912064	104476672	28544680	24992
89	1.721827	109912064	104476672	29496632	24992
90	1.810256	109912064	104476672	30560632	24992
91	1.856726	109912064	104476672	31734576	24992
92	0.37034	109912064	104476672	33106320	24992
93	0.570742	109912064	104476672	33444624	24992
94	0.731935	109912064	104476672	33896728	24992
95	0.906875	109912064	104476672	34463536	24992
96	1.091501	109912064	104476672	35146664	24992
97	1.496508	109912064	104476672	35946216	24992
98	2.731132	110182400	104476672	20912272	24992
99	1.670248	110182400	104476672	21947768	24992
100	1.830392	110182400	104476672	23104792	24992
101	2.036532	110182400	104476672	24380816	24992
102	0.401197	110182400	104476672	25876176	24992
103	0.639369	110182400	104476672	26242440	24992
104	0.810827	110182400	104476672	26736728	24992
105	0.987266	110182400	104476672	27359608	24992
106	1.189234	110182400	104476672	28110816	24992
107	1.390742	110182400	104476672	28992072	24992
108	1.582725	110182400	104476672	30004248	24992
109	1.806045	110182400	104476672	31148240	24992
110	1.989182	110182400	104476672	32426016	24992
111	2.42419	110182400	104476672	33837504	24992
112	0.441165	110182400	104476672	35495736	24992
113	0.66126	110182400	104476672	35902392	24992
114	0.856924	110182400	104476672	36445576	24992
115	2.202109	110452736	104476672	21059880	24992
116	1.317057	110452736	104476672	21879744	24992
117	1.64078	110452736	104476672	22839128	24992
118	1.919478	110452736	104476672	23938080	24992
119	1.978818	110452736	104476672	25178120	24992
120	2.166146	110452736	104476672	26561432	24992
121	2.364348	110452736	104476672	28091184	24992
122	0.460826	110452736	104476672	29882984	24992
123	0.698182	110452736	104476672	30317656	24992
124	0.920614	110452736	104476672	30898040	24992
125	1.382538	110452736	104476672	31625096	24992
126	1.377511	110452736	104476672	32501280	24992
127	1.60772	110452736	104476672	33526472	24992
128	1.826282	110452736	104476672	34701184	24992
129	2.0628	110452736	104476672	36024808	24992
130	3.446732	110723072	104476672	21472200	24992
131	2.760453	110723072	104476672	23100496	24992
132	0.49308	110723072	104476672	25013504	24992
133	0.739772	110723072	104476672	25476016	24992
134	0.974579	110723072	104476672	26093624	24992
135	1.227937	110723072	104476672	26867152	24992
136	1.469685	110723072	104476672	27798072	24992
137	1.736783	110723072	104476672	28886864	24992
138	1.968682	110723072	104476672	30134440	24992
139	2.207868	110723072	104476672	31541720	24992
140	2.464503	110723072	104476672	33110472	24992
141	2.709096	110723072	104476672	34840624	24992
142	0.524645	110723072	104476672	36876568	24992
143	1.898117	110723072	104476672	21236704	24992
144	1.126052	110723072	104476672	21891496	24992
145	1.387744	110723072	104476672	22711520	24992
146	1.661901	110723072	104476672	23698288	24992
147	1.952466	110723072	104476672	24852192	24992
148	2.223555	110723072	104476672	26173952	24992
149	2.611452	110723072	104476672	27664768	24992
150	2.614421	110723072	104476672	29326408	24992
151	2.874044	110723072	104476672	31158784	24992
152	0.547039	110723072	104476672	33314104	24992
153	0.894912	110723072	104476672	33832568	24992
154	1.172097	110723072	104476672	34524512	24992
155	1.37189	110723072	104476672	35391016	24992
156	1.871477	110723072	104476672	36433456	24992
157	3.071143	110993408	104476672	21586736	24992
158	2.235238	110993408	104476672	22982792	24992
159	2.774338	110993408	104476672	24557064	24992
160	2.76107	110993408	104476672	26311432	24992
161	3.089018	110993408	104476672	28251704	24992
162	0.580892	110993408	104476672	30528288	24992
163	0.87252	110993408	104476672	31074624	24992
164	1.378687	110993408	104476672	31803864	24992
165	1.455295	110993408	104476672	32716720	24992
166	1.746429	110993408	104476672	33815056	24992
167	2.08695	110993408	104476672	35098776	24992
168	2.330874	110993408	104476672	36569512	24992
169	4.003293	110993408	104476672	22159232	24992
170	2.945384	110993408	104476672	24007320	24992
171	3.207801	110993408	104476672	26049168	24992
172	0.611067	110993408	104476672	28454880	24992
173	1.121466	110993408	104476672	29029144	24992
174	1.237028	110993408	104476672	29795472	24992
175	1.524353	110993408	104476672	30754920	24992
176	1.841279	110993408	104476672	31908768	24992
177	2.132902	110993408	104476672	33257632	24992
178	2.446421	110993408	104476672	34802304	24992
179	2.814082	110993408	104476672	36543704	24992
180	4.292163	111263744	104476672	22423176	24992
181	3.401606	111263744	104476672	24564104	24992
182	0.675087	111263744	104476672	27095704	24992
183	0.966968	111263744	104476672	27697872	24992
184	1.297374	111263744	104476672	28501400	24992
185	1.622936	111263744	104476672	29507264	24992
186	1.988544	111263744	104476672	30716872	24992
187	2.572142	111263744	104476672	32130656	24992
188	2.77155	111263744	104476672	33751032	24992
189	2.919957	111263744	104476672	35575864	24992
190	3.245774	111263744	104476672	37608664	24992
191	4.605532	111263744	104476672	23640512	24992
192	0.675142	111263744	104476672	26288584	24992
193	1.023844	111263744	104476672	26918688	24992
194	1.34422	111263744	104476672	27759520	24992
195	1.674912	111263744	104476672	28811824	24992
196	2.010347	111263744	104476672	30077184	24992
197	2.583584	111263744	104476672	31556000	24992
198	2.691554	111263744	104476672	33249192	24992
199	3.038003	111263744	104476672	35157648	24992
200	3.373439	111263744	104476672	37286216	24992
201	5.01677	111534080	104476672	23494736	24992
202	0.744076	111534080	104476672	26272184	24992
203	1.131386	111534080	104476672	26930200	24992
204	1.51041	111534080	104476672	27808200	24992
205	1.830386	111534080	104476672	28907064	24992
206	2.099309	111534080	104476672	30228208	24992
207	2.458904	111534080	104476672	31772032	24992
208	2.827235	111534080	104476672	33539520	24992
209	3.164638	111534080	104476672	35539816	24992
210	3.746288	111534080	104476672	37774976	24992
211	4.944133	111534080	104476672	24034960	24992
212	0.950766	111534080	104476672	26974920	24992
213	1.099886	111534080	104476672	27685680	24992
214	1.459752	111534080	104476672	28633824	24992
215	1.830421	111534080	104476672	29820384	24992
216	2.188404	111534080	104476672	31246712	24992
217	2.568498	111534080	104476672	32913360	24992
218	2.990744	111534080	104476672	34823464	24992
219	3.35961	111534080	104476672	36973464	24992
220	5.71603	111804416	104476672	23285312	24992
221	4.449097	111804416	104476672	25923216	24992
222	0.764339	111804416	104476672	29073120	24992
223	1.153531	111804416	104476672	29819088	24992
224	1.516407	111804416	104476672	30804520	24992
225	2.130017	111804416	104476672	32037584	24992
226	2.294692	111804416	104476672	33519736	24992
227	2.713774	111804416	104476672	35251320	24992
228	3.051924	111804416	104476672	37239736	24992
229	5.0341	111804416	104476672	23381168	24992
230	3.856103	111804416	104476672	25867856	24992
231	4.232685	111804416	104476672	28611824	24992
232	0.79116	111804416	104476672	31861336	24992
233	1.206124	111804416	104476672	32627976	24992
234	1.639019	111804416	104476672	33650824	24992
235	2.00834	111804416	104476672	34930368	24992
236	2.376491	111804416	104476672	36471104	24992
237	2.98955	111804416	104476672	38269712	24992
238	4.39865	111804416	104476672	24096864	24992
239	3.582528	111804416	104476672	26413936	24992
240	4.192319	111804416	104476672	28994536	24992
241	4.432298	111804416	104476672	31836496	24992
242	1.028139	111804416	104476672	35214864	24992
243	1.237168	111804416	104476672	36009440	24992
244	1.638684	111804416	104476672	37069208	24992
245	2.054202	111804416	104476672	38407720	24992
246	3.571151	112074752	104476672	23766032	24992
247	2.928959	112074752	104476672	25642880	24992
248	3.303729	112074752	104476672	27773560	24992
249	3.780155	112074752	104476672	30174304	24992
250	4.187676	112074752	104476672	32854600	24992
251	4.994997	112074752	104476672	35798776	24992
252	1.953447	112074752	104476672	23029664	24992
253	1.527352	112074752	104476672	23852088	24992
254	1.706209	112074752	104476672	24949024	24992
255	2.134185	112074752	104476672	26321480	24992
256	2.544127	112074752	104476672	27970840	24992
257	2.994347	112074752	104476672	29913448	24992
258	3.6188	112074752	104476672	32118416	24992
259	3.846024	112074752	104476672	34602624	24992
260	4.270221	112074752	104476672	37367664	24992
261	6.058823	112345088	104476672	24359480	24992
262	0.878859	112345088	104476672	27971136	24992
263	1.326752	112345088	104476672	28821592	24992
264	1.995818	112345088	104476672	29955848	24992
265	2.207311	112345088	104476672	31378192	24992
266	2.990353	112345088	104476672	33083432	24992
267	3.142601	112345088	104476672	35075272	24992
268	3.767417	112345088	104476672	37354808	24992
269	5.279338	112345088	104476672	23870352	24992
270	4.445042	112345088	104476672	26728496	24992
271	4.937137	112345088	104476672	29876888	24992
272	0.90251	112345088	104476672	33610112	24992
273	1.566476	112345088	104476672	34488448	24992
274	1.855531	112345088	104476672	35669688	24992
275	2.348233	112345088	104476672	37135120	24992
276	2.73039	112345088	104476672	38896120	24992
277	4.346625	112345088	104476672	24706944	24992
278	3.901756	112345088	104476672	27060880	24992
279	4.1402	112345088	104476672	29712128	24992
280	4.779693	112345088	104476672	32667336	24992
281	5.604914	112345088	104476672	35922032	24992
282	2.139941	112345088	104476672	23525696	24992
283	1.43351	112345088	104476672	24431904	24992
284	2.118617	112345088	104476672	25640448	24992
285	2.353442	112345088	104476672	27155640	24992
286	3.026426	112345088	104476672	28972160	24992
287	3.503996	112345088	104476672	31093976	24992
288	3.774752	112345088	104476672	33521840	24992
289	4.260057	112345088	104476672	36256656	24992
290	4.933414	112345088	104476672	39300384	24992
291	6.464415	112615424	104476672	26358688	24992
292	0.979625	112615424	104476672	30355744	24992
293	1.456059	112615424	104476672	31289920	24992
294	1.947096	112615424	104476672	32535776	24992
295	2.422498	112615424	104476672	34094152	24992
296	3.133222	112615424	104476672	35966496	24992
297	3.419847	112615424	104476672	38153256	24992
298	5.142939	112615424	104476672	24593992	24992
299	4.879089	112615424	104476672	27412408	24992
300	4.886679	112615424	104476672	30548928	24992
301	5.427441	112615424	104476672	34003600	24992
302	1.010037	112615424	104476672	38099808	24992
303	1.503309	112615424	104476672	39063448	24992
304	3.423728	112615424	104476672	24130360	24992
305	2.509662	112615424	104476672	25740320	24992
306	2.997091	112615424	104476672	27678392	24992
307	3.509863	112615424	104476672	29930200	24992
308	4.218957	112615424	104476672	32506664	24992
309	4.526053	112615424	104476672	35408600	24992
310	5.039773	112615424	104476672	38644592	24992
311	7.023078	112885760	104476672	26085632	24992
312	1.038341	112885760	104476672	30311408	24992
313	1.566395	112885760	104476672	31301432	24992
314	2.072807	112885760	104476672	32624920	24992
315	2.604307	112885760	104476672	34282624	24992
316	3.330537	112885760	104476672	36266448	24992
317	3.696356	112885760	104476672	38583224	24992
318	5.421905	112885760	104476672	25128552	24992
319	4.720866	112885760	104476672	28118504	24992
320	5.186329	112885760	104476672	31441056	24992
321	6.099227	112885760	104476672	35099944	24992
322	1.094454	112885760	104476672	39438584	24992
323	3.052247	112885760	104476672	24241920	24992
324	2.157575	112885760	104476672	25599280	24992
325	2.70161	112885760	104476672	27309000	24992
326	3.197088	112885760	104476672	29348576	24992
327	3.738929	112885760	104476672	31730392	24992
328	4.488497	113156096	104476672	34455248	24992
329	4.839832	113156096	104476672	37526544	24992
330	6.966934	113156096	104476672	25018848	24992
331	5.886357	113156096	104476672	28780024	24992
332	1.082853	113156096	104476672	33256136	24992
333	1.633107	113156096	104476672	34302024	24992
334	2.18512	113156096	104476672	35696744	24992
335	2.838311	113156096	104476672	37441000	24992
336	3.285148	113156096	104476672	39548848	24992
337	5.076222	113156096	104476672	25800272	24992
338	4.600314	113156096	104476672	28600040	24992
339	4.931375	113156096	104476672	31761312	24992
340	5.757358	113156096	104476672	35270280	24992
341	6.056114	113156096	104476672	39133208	24992
342	1.128366	113426432	104476672	27624112	24992
343	1.687531	113426432	104476672	28697984	24992
344	2.305864	113426432	104476672	30129736	24992
345	2.806951	113426432	104476672	31923632	24992
346	3.588156	113426432	104476672	34074976	24992
347	3.93882	113426432	104476672	36586936	24992
348	4.511517	113426432	104476672	39460272	24992
349	6.770885	113426432	104476672	26554160	24992
350	5.649262	113426432	104476672	30179672	24992
351	6.206259	113426432	104476672	34148600	24992
352	1.359985	113426432	104476672	38878424	24992
353	1.729811	113426432	104476672	39982336	24992
354	3.553973	113696768	104476672	25248000	24992
355	3.106464	113696768	104476672	27085224	24992
356	3.6696	113696768	104476672	29292008	24992
357	4.041828	113696768	104476672	31869904	24992
358	4.619219	113696768	104476672	34817712	24992
359	5.210078	113696768	104476672	38137408	24992
360	7.221008	113696768	104476672	25887312	24992
361	6.937099	113696768	104476672	29967560	24992
362	1.240974	113696768	104476672	34807264	24992
363	1.768258	113696768	104476672	35940728	24992
364	2.381061	113696768	104476672	37446968	24992
365	2.988436	113696768	104476672	39330640	24992
366	5.186572	113696768	104476672	25513776	24992
367	4.154159	113696768	104476672	28155584	24992
368	4.734688	113696768	104476672	31177592	24992
369	5.617035	113696768	104476672	34586120	24992
370	5.976386	113696768	104476672	38375344	24992
371	8.385914	113967104	104476672	26614032	24992
372	1.280652	113967104	104476672	31574936	24992
373	1.918753	113967104	104476672	32736624	24992
374	2.565901	113967104	104476672	34280112	24992
375	3.38052	113967104	104476672	36210272	24992
376	3.667572	113967104	104476672	38528664	24992
377	6.031559	113967104	104476672	25353744	24992
378	4.876817	113967104	104476672	28461928	24992
379	5.483046	113967104	104476672	31949712	24992
380	6.51586	113967104	104476672	35828936	24992
381	6.787037	113967104	104476672	40100368	24992
382	1.313937	113967104	104476672	29054552	24992
383	1.965308	113967104	104476672	30241744	24992
384	2.651553	113967104	104476672	31822536	24992
385	3.139196	113967104	104476672	33799280	24992
386	3.713868	113967104	104476672	36175320	24992
387	4.352857	113967104	104476672	38947200	24992
388	6.663189	114237440	104476672	26153936	24992
389	5.933364	114237440	104476672	29724368	24992
390	6.234332	114237440	104476672	33705880	24992
391	7.062998	114237440	104476672	38086000	24992
392	1.338633	114237440	104476672	27428640	24992
393	2.032646	114237440	104476672	28642208	24992
394	2.697108	114237440	104476672	30260016	24992
395	3.358127	114237440	104476672	32290464	24992
396	4.2481	114237440	104476672	34720232	24992
397	4.489326	114237440	104476672	37557152	24992
398	5.097652	114237440	104476672	40822104	24992
399	7.391405	114507776	104476672	28288144	24992
400	6.485084	114507776	104476672	32352936	24992
401	7.120387	114507776	104476672	36846312	24992
402	2.707123	114507776	104476672	25918880	24992
403	2.171947	114507776	104476672	27160328	24992
404	2.645496	114507776	104476672	28815360	24992
405	3.449812	114507776	104476672	30888016	24992
406	3.900606	114507776	104476672	33373488	24992
407	4.544068	114507776	104476672	36288232	24992
408	5.258559	114507776	104476672	39622976	24992
409	7.611649	114507776	104476672	27366632	24992
410	6.560742	114507776	104476672	31524232	24992
411	7.426951	114507776	104476672	36116784	24992
412	1.39256	114507776	104476672	41585664	24992
413	3.608976	114507776	104476672	26607728	24992
414	2.668503	114507776	104476672	28299952	24992
415	3.323994	114507776	104476672	30416064	24992
416	3.996131	114507776	104476672	32957408	24992
417	4.665075	114507776	104476672	35924440	24992
418	5.318146	114507776	104476672	39326592	24992
419	7.808113	114778112	104476672	27269024	24992
420	7.052247	114778112	104476672	31552528	24992
421	7.386254	114778112	104476672	36293144	24992
422	1.422934	114778112	104476672	41958536	24992
423	3.440941	114778112	104476672	27069040	24992
424	2.917828	114778112	104476672	28864296	24992
425	3.545306	114778112	104476672	31112456	24992
426	4.168605	114778112	104476672	33810984	24992
427	5.200407	114778112	104476672	36963568	24992
428	5.455754	114778112	104476672	40578432	24992
429	7.664325	114778112	104476672	28593104	24992
430	6.848598	114778112	104476672	33102976	24992
431	7.737968	114778112	104476672	38079600	24992
432	1.470435	115048448	104476672	28253552	24992
433	2.196661	115048448	104476672	29628304	24992
434	2.929627	115048448	104476672	31460712	24992
435	3.705862	115048448	104476672	33752088	24992
436	4.445157	115048448	104476672	36516008	24992
437	4.900475	115048448	104476672	39728056	24992
438	7.392121	115048448	104476672	27460944	24992
439	6.513876	115048448	104476672	31599416	24992
440	6.96953	115048448	104476672	36223848	24992
441	7.683762	115048448	104476672	41317552	24992
442	1.492062	115048448	104476672	31194704	24992
443	2.25357	115048448	104476672	32607736	24992
444	3.009464	115048448	104476672	34477456	24992
445	3.751486	115048448	104476672	36821848	24992
446	4.486236	115048448	104476672	39640888	24992
447	6.634781	115318784	104476672	27059072	24992
448	5.755512	115318784	104476672	30816184	24992
449	6.643636	115318784	104476672	35038920	24992
450	7.354211	115318784	104476672	39746760	24992
451	9.694764	115318784	104476672	28997768	24992
452	1.524614	115318784	104476672	35167880	24992
453	2.279244	115318784	104476672	36603776	24992
454	2.923026	115318784	104476672	38518792	24992
455	3.681737	115318784	104476672	40903096	24992
456	6.129845	115318784	104476672	27702688	24992
457	5.130473	115318784	104476672	31045016	24992
458	5.900661	115318784	104476672	34874688	24992
459	6.668814	115318784	104476672	39186608	24992
460	9.229575	115318784	104476672	28190832	24992
461	8.279813	115318784	104476672	33466760	24992
462	1.554271	115318784	104476672	39763648	24992
463	2.315551	115318784	104476672	41222032	24992
464	4.527953	115589120	104476672	27117584	24992
465	3.922979	115589120	104476672	29549448	24992
466	4.438775	115589120	104476672	32478720	24992
467	5.614535	115589120	104476672	35885920	24992
468	5.967962	115589120	104476672	39787088	24992
469	8.871467	115589120	104476672	28340376	24992
470	7.49391	115589120	104476672	33233616	24992
471	8.246627	115589120	104476672	38606584	24992
472	1.582338	115589120	104476672	29326520	24992
473	2.33521	115589120	104476672	30819464	24992
474	3.233461	115589120	104476672	32806168	24992
475	3.80098	115589120	104476672	35283256	24992
476	4.549023	115589120	104476672	38257808	24992
477	5.291638	115589120	104476672	41730576	24992
478	7.66749	115859456	104476672	29592352	24992
479	7.052032	115859456	104476672	34085640	24992
480	7.818148	115859456	104476672	39073288	24992
481	10.110391	115859456	104476672	28793080	24992
482	1.616103	115859456	104476672	35316832	24992
483	2.643125	115859456	104476672	36831160	24992
484	3.070261	115859456	104476672	38849704	24992
485	3.910636	115859456	104476672	41389528	24992
486	6.478585	115859456	104476672	28403624	24992
487	5.716904	115859456	104476672	31940760	24992
488	6.557842	115859456	104476672	35985960	24992
489	7.681103	115859456	104476672	40540088	24992
490	9.89672	115859456	104476672	29734264	24992
491	8.773274	115859456	104476672	35323800	24992
492	1.646423	115859456	104476672	41984120	24992
493	2.489243	115859456	104476672	43526208	24992
494	4.69223	116129792	104476672	29308240	24992
495	4.131591	116129792	104476672	31880592	24992
496	4.709309	116129792	104476672	34966832	24992
497	5.499824	116129792	104476672	38580592	24992
498	6.269383	116129792	104476672	42711040	24992
499	8.899545	116129792	104476672	31181112	24992
500	8.159891	116129792	104476672	36338800	24992
501	8.769418	116129792	104476672	42016536	24992
502	1.676582	116129792	104476672	32702072	24992
503	2.720519	116129792	104476672	34272288	24992
504	3.189971	116129792	104476672	36365144	24992
505	4.002047	116129792	104476672	38981664	24992
506	5.014584	116129792	104476672	42123376	24992
507	7.4792	116400128	104476672	29765424	24992
508	6.459459	116400128	104476672	33959232	24992
509	7.227544	116400128	104476672	38680272	24992
510	8.2462	116400128	104476672	43930464	24992
511	10.61485	116400128	104476672	33319432	24992
512	1.723368	116400128	104476672	40206632	24992
513	2.57626	116400128	104476672	41804728	24992
514	3.439212	116400128	104476672	43934888	24992
515	5.887306	116400128	104476672	30349104	24992
516	4.918694	116400128	104476672	33546544	24992
517	6.129688	116400128	104476672	37278840	24992
518	6.628942	116400128	104476672	41546680	24992
519	9.473675	116400128	104476672	30431680	24992
520	8.628391	116400128	104476672	35774960	24992
521	9.438093	116400128	104476672	41656488	24992
522	1.739786	116670464	104476672	32658312	24992
523	2.580221	116670464	104476672	34284264	24992
524	3.314602	116670464	104476672	36451576	24992
525	4.540316	116670464	104476672	39160904	24992
526	5.018614	116670464	104476672	42414728	24992
527	7.533001	116670464	104476672	30202024	24992
528	6.682665	116670464	104476672	34544288	24992
529	7.746413	116670464	104476672	39455744	24992
530	10.816687	116670464	104476672	29264768	24992
531	9.474764	116670464	104476672	35249144	24992
532	1.784457	116670464	104476672	42378784	24992
533	3.468987	116670464	104476672	44033016	24992
534	5.049106	116670464	104476672	29997424	24992
535	4.560521	116670464	104476672	32765512	24992
536	5.329181	116670464	104476672	36074640	24992
537	6.325182	116670464	104476672	39936880	24992
538	6.77619	116670464	104476672	44353560	24992
539	9.48476	116940800	104476672	33106464	24992
540	8.718219	116940800	104476672	38649424	24992
541	9.398017	116940800	104476672	44735320	24992
542	1.933611	116940800	104476672	35579120	24992
543	2.577375	116940800	104476672	37261088	24992
544	3.421566	116940800	104476672	39502768	24992
545	4.457689	116940800	104476672	42308016	24992
546	7.038978	116940800	104476672	29749104	24992
547	6.314488	116940800	104476672	33689992	24992
548	6.972695	116940800	104476672	38180680	24992
549	8.004423	116940800	104476672	43235992	24992
550	10.538608	116940800	104476672	32802592	24992
551	9.95862	116940800	104476672	39014456	24992
552	1.847749	117211136	104476672	30877424	24992
553	2.778918	117211136	104476672	32587184	24992
554	3.692579	117211136	104476672	34876080	24992
555	4.853627	117211136	104476672	37724920	24992
556	5.24547	117211136	104476672	41172184	24992
557	8.303096	117211136	104476672	29415984	24992
558	7.072094	117211136	104476672	33996968	24992
559	8.191505	117211136	104476672	39160488	24992
560	9.039222	117211136	104476672	44880584	24992
561	11.551922	117211136	104476672	34880904	24992
562	1.851259	117211136	104476672	42375152	24992
563	2.675276	117211136	104476672	44112824	24992
564	5.525655	117211136	104476672	30289384	24992
565	4.443007	117211136	104476672	33186400	24992
566	5.338985	117211136	104476672	36668840	24992
567	6.484678	117211136	104476672	40726048	24992
568	7.142779	117211136	104476672	45365504	24992
569	9.656497	117481472	104476672	34257552	24992
570	9.20532	117481472	104476672	40082712	24992
571	12.064393	117481472	104476672	30905608	24992
572	1.8881	117481472	104476672	38556376	24992
573	2.854458	117481472	104476672	40322056	24992
574	4.033403	117481472	104476672	42691128	24992
575	6.388128	117481472	104476672	29739512	24992
576	5.696243	117481472	104476672	33277568	24992
577	6.567995	117481472	104476672	37406912	24992
578	7.468018	117481472	104476672	42127152	24992
579	10.086313	117751808	104476672	31641136	24992
580	9.359129	117751808	104476672	37562104	24992
581	9.981803	117751808	104476672	44061264	24992
582	1.942219	117751808	104476672	35695712	24992
583	2.915565	117751808	104476672	37489400	24992
584	3.687652	117751808	104476672	39880112	24992
585	4.823791	117751808	104476672	42868496	24992
586	7.400195	117751808	104476672	30573632	24992
587	6.694647	117751808	104476672	34783768	24992
588	7.375263	117751808	104476672	39576992	24992
589	8.334142	117751808	104476672	44993184	24992
590	11.16295	117751808	104476672	34775448	24992
591	10.4537	117751808	104476672	41385192	24992
592	1.960505	117751808	104476672	33541320	24992
593	2.949372	117751808	104476672	35365016	24992
594	4.051722	117751808	104476672	37792688	24992
595	4.69992	117751808	104476672	40827400	24992
596	5.819968	117751808	104476672	44470848	24992
597	8.562825	118022144	104476672	32667496	24992
598	7.846697	118022144	104476672	37529784	24992
599	8.694161	118022144	104476672	43022032	24992
600	11.364949	118022144	104476672	33163952	24992
601	10.976789	118022144	104476672	39870688	24992
602	1.98255	118022144	104476672	32390040	24992
603	3.006169	118022144	104476672	34239448	24992
604	4.083228	118022144	104476672	36704312	24992
605	5.079411	118022144	104476672	39785544	24992
606	5.736155	118022144	104476672	43484656	24992
607	8.697959	118292480	104476672	31926488	24992
608	8.064383	118292480	104476672	36872392	24992
609	8.779357	118292480	104476672	42428880	24992
610	11.763616	118292480	104476672	32833496	24992
611	10.777311	118292480	104476672	39635744	24992
612	3.844763	118292480	104476672	31409816	24992
613	2.962344	118292480	104476672	33302072	24992
614	4.078108	118292480	104476672	35811040	24992
615	5.120049	118292480	104476672	38938728	24992
616	6.136404	118292480	104476672	42698800	24992
617	9.258751	118292480	104476672	31366040	24992
618	7.968599	118292480	104476672	36386648	24992
619	8.733929	118292480	104476672	42026624	24992
620	11.771793	118562816	104476672	32654704	24992
621	10.954114	118562816	104476672	39557736	24992
622	3.755539	118562816	104476672	31565480	24992
623	2.914198	118562816	104476672	33471680	24992
624	3.902629	118562816	104476672	36011032	24992
625	4.935418	118562816	104476672	39185952	24992
626	6.107935	118562816	104476672	42996584	24992
627	9.103042	118562816	104476672	31714216	24992
628	7.862238	118562816	104476672	36813392	24992
629	8.868094	118562816	104476672	42537160	24992
630	12.102175	118562816	104476672	33177960	24992
631	11.107231	118562816	104476672	40189432	24992
632	2.079303	118562816	104476672	33195968	24992
633	3.137598	118562816	104476672	35129272	24992
634	4.185403	118562816	104476672	37705856	24992
635	5.256112	118562816	104476672	40932472	24992
636	5.988835	118562816	104476672	44799304	24992
637	9.221048	118833152	104476672	33379680	24992
638	8.007996	118833152	104476672	38546392	24992
639	9.226415	118833152	104476672	44354232	24992
640	12.134893	118833152	104476672	34893048	24992
641	11.322177	118833152	104476672	42008960	24992
642	2.338702	118833152	104476672	34849464	24992
643	3.017049	118833152	104476672	36811144	24992
644	4.067559	118833152	104476672	39424928	24992
645	5.268637	118833152	104476672	42698032	24992
646	6.058832	118833152	104476672	46620160	24992
647	8.94159	119103488	104476672	34991384	24992
648	8.318322	119103488	104476672	40225288	24992
649	9.204872	119103488	104476672	46120104	24992
650	12.295375	119103488	104476672	36470808	24992
651	11.451827	119103488	104476672	43698232	24992
652	2.2776	119103488	104476672	36488064	24992
653	3.066835	119103488	104476672	38490992	24992
654	4.097612	119103488	104476672	41141864	24992
655	5.108148	119103488	104476672	44455432	24992
656	8.33244	119103488	104476672	32626536	24992
657	7.669696	119103488	104476672	37268960	24992
658	8.362819	119103488	104476672	42576888	24992
659	11.731828	119103488	104476672	32955768	24992
660	10.572389	119103488	104476672	39606856	24992
661	11.559998	119103488	104476672	46953928	24992
662	2.187576	119373824	104476672	39360328	24992
663	3.211671	119373824	104476672	41377352	24992
664	4.357117	119373824	104476672	44065472	24992
665	5.19309	119373824	104476672	47425712	24992
666	8.197285	119373824	104476672	35268760	24992
667	7.469836	119373824	104476672	39976120	24992
668	8.819326	119373824	104476672	45378696	24992
669	11.578285	119373824	104476672	35454752	24992
670	10.477632	119373824	104476672	42209784	24992
671	14.000911	119373824	104476672	34115808	24992
672	2.103189	119373824	104476672	42969064	24992
673	3.156192	119373824	104476672	45026088	24992
674	4.198591	119373824	104476672	47753864	24992
675	7.133478	119373824	104476672	34927944	24992
676	6.556924	119373824	104476672	39029520	24992
677	7.608669	119373824	104476672	43824136	24992
678	10.640756	119644160	104476672	33617352	24992
679	9.623061	119644160	104476672	39777696	24992
680	10.826256	119644160	104476672	46610424	24992
681	14.082032	119644160	104476672	37944480	24992
682	2.364483	119644160	104476672	46907552	24992
683	5.115454	119644160	104476672	32871496	24992
684	4.270832	119644160	104476672	35634072	24992
685	5.562231	119644160	104476672	39094984	24992
686	6.432128	119644160	104476672	43265112	24992
687	7.496327	119644160	104476672	48102600	24992
688	10.690259	119914496	104476672	37368136	24992
689	9.901863	119914496	104476672	43593760	24992
690	12.992467	119914496	104476672	34876960	24992
691	12.169209	119914496	104476672	42516944	24992
692	2.266331	119914496	104476672	36119656	24992
693	3.363505	119914496	104476672	38220456	24992
694	4.344353	119914496	104476672	41020128	24992
695	5.668713	119914496	104476672	44536360	24992
696	8.925278	119914496	104476672	33054704	24992
697	7.842236	119914496	104476672	37987640	24992
698	8.704114	119914496	104476672	43592824	24992
699	12.340834	120184832	104476672	34283464	24992
700	11.193573	120184832	104476672	41305032	24992
701	14.50694	120184832	104476672	33796904	24992
702	2.289877	120184832	104476672	43058976	24992
703	3.468455	120184832	104476672	45187984	24992
704	4.682963	120184832	104476672	48048024	24992
705	7.515067	120184832	104476672	35396232	24992
706	6.628726	120184832	104476672	39679920	24992
707	7.964393	120184832	104476672	44661544	24992
708	11.341512	120184832	104476672	34691896	24992
709	10.211239	120184832	104476672	41084128	24992
710	11.133882	120184832	104476672	48190960	24992
711	14.696932	120184832	104476672	39744296	24992
712	4.333672	120455168	104476672	32971304	24992
713	3.346126	120455168	104476672	35130984	24992
714	4.656187	120455168	104476672	38005112	24992
715	5.668927	120455168	104476672	41597600	24992
716	6.731074	120455168	104476672	45909976	24992
717	10.287833	120455168	104476672	35172072	24992
718	8.969221	120455168	104476672	40945880	24992
719	10.312126	120455168	104476672	47421624	24992
720	13.365674	120455168	104476672	38563392	24992
721	12.87024	120455168	104476672	46494632	24992
722	2.375524	120455168	104476672	39986776	24992
723	3.569351	120455168	104476672	42171464	24992
724	4.901385	120455168	104476672	45082776	24992
725	5.67885	120455168	104476672	48721816	24992
726	9.024211	120725504	104476672	36893080	24992
727	7.982812	120725504	104476672	41996224	24992
728	9.123225	120725504	104476672	47826296	24992
729	12.48351	120725504	104476672	38205592	24992
730	11.601712	120725504	104476672	45522176	24992
731	15.041099	120725504	104476672	37795120	24992
732	2.398931	120725504	104476672	47405032	24992
733	5.66385	120725504	104476672	33631600	24992
734	4.814554	120725504	104476672	36579976	24992
735	5.732644	120725504	104476672	40266176	24992
736	7.159147	120725504	104476672	44693056	24992
737	10.604051	120995840	104476672	34316248	24992
738	9.244714	120995840	104476672	40218528	24992
739	10.394994	120995840	104476672	46892080	24992
740	14.128666	120995840	104476672	38329336	24992
741	12.71526	120995840	104476672	46464968	24992
742	2.429002	120995840	104476672	40303832	24992
743	3.657083	120995840	104476672	42544264	24992
744	4.914896	120995840	104476672	45553368	24992
745	5.833284	120995840	104476672	49292832	24992
746	9.040834	120995840	104476672	37593376	24992
747	8.380622	120995840	104476672	42824456	24992
748	9.735992	120995840	104476672	48804472	24992
749	12.59507	121266176	104476672	39349208	24992
750	11.983257	121266176	104476672	46831864	24992
751	15.241509	121266176	104476672	39101624	24992
752	2.464407	121266176	104476672	48929056	24992
753	5.894433	121266176	104476672	35108880	24992
754	4.712959	121266176	104476672	38138752	24992
755	6.144393	121266176	104476672	41917024	24992
756	7.315118	121266176	104476672	46452248	24992
757	11.033767	121266176	104476672	36022392	24992
758	9.732334	121266176	104476672	42100688	24992
759	10.675925	121266176	104476672	48913520	24992
760	14.355976	121266176	104476672	40314112	24992
761	13.255301	121266176	104476672	48662896	24992
762	2.451938	121266176	104476672	42398392	24992
763	3.618518	121266176	104476672	44694832	24992
764	4.991986	121266176	104476672	47755088	24992
765	8.345362	121536512	104476672	35741040	24992
766	7.433004	121536512	104476672	40357272	24992
767	8.360004	121536512	104476672	45750928	24992
768	12.114787	121536512	104476672	36180728	24992
769	10.801711	121536512	104476672	43078560	24992
770	14.943503	121536512	104476672	35493832	24992
771	13.822475	121536512	104476672	43929216	24992
772	2.416468	121536512	104476672	38613672	24992
773	3.61496	121536512	104476672	40964856	24992
774	4.820635	121536512	104476672	44092832	24992
775	6.234203	121536512	104476672	47970920	24992
776	9.58178	121806848	104476672	36793376	24992
777	8.696752	121806848	104476672	42216480	24992
778	9.692301	121806848	104476672	48415912	24992
779	13.354334	121806848	104476672	39379232	24992
780	12.375018	121806848	104476672	47138544	24992
781	15.868335	121806848	104476672	39853168	24992
782	2.512306	121806848	104476672	50044008	24992
783	5.942453	121806848	104476672	36210456	24992
784	4.899189	121806848	104476672	39345048	24992
785	6.723308	121806848	104476672	43264016	24992
786	7.618503	121806848	104476672	48012296	24992
787	11.161474	122077184	104476672	37676792	24992
788	9.875162	122077184	104476672	43950560	24992
789	11.300923	122077184	104476672	51020024	24992
790	14.56938	122077184	104476672	42433600	24992
791	13.61451	122077184	104476672	51075464	24992
792	2.709628	122077184	104476672	44939824	24992
793	3.721752	122077184	104476672	47319872	24992
794	4.961507	122077184	104476672	50491616	24992
795	8.402823	122077184	104476672	38299128	24992
796	7.896491	122077184	104476672	43057320	24992
797	8.942206	122077184	104476672	48610088	24992
798	12.314396	122347520	104476672	39036696	24992
799	11.421633	122347520	104476672	46182656	24992
800	15.122413	122347520	104476672	38583960	24992
801	13.803072	122347520	104476672	47324472	24992
802	2.816932	122347520	104476672	41916104	24992
803	3.748055	122347520	104476672	44324168	24992
804	5.078098	122347520	104476672	47538072	24992
805	8.692677	122347520	104476672	35851592	24992
806	7.773905	122347520	104476672	40665504	24992
807	8.844099	122347520	104476672	46283184	24992
808	13.018955	122347520	104476672	37132504	24992
809	11.358748	122347520	104476672	44394424	24992
810	15.852523	122617856	104476672	37140056	24992
811	14.399495	122617856	104476672	46017856	24992
812	2.790917	122617856	104476672	41009560	24992
813	3.847053	122617856	104476672	43453792	24992
814	5.214882	122617856	104476672	46699992	24992
815	6.569803	122617856	104476672	50757312	24992
816	9.88798	122617856	104476672	39454456	24992
817	9.200437	122617856	104476672	45148792	24992
818	10.221054	122617856	104476672	51660896	24992
819	14.055524	122617856	104476672	42559088	24992
820	13.188994	122617856	104476672	50709328	24992
821	16.543623	122617856	104476672	43467344	24992
822	2.694316	122888192	104476672	39089240	24992
823	4.041882	122888192	104476672	41553232	24992
824	5.53737	122888192	104476672	44838248	24992
825	6.472802	122888192	104476672	48953120	24992
826	10.366786	122888192	104476672	38080736	24992
827	9.027201	122888192	104476672	43828296	24992
828	10.525181	122888192	104476672	50416640	24992
829	14.108514	122888192	104476672	41662808	24992
830	13.195626	122888192	104476672	49893384	24992
831	16.841682	122888192	104476672	42907736	24992
832	4.738127	122888192	104476672	37452664	24992
833	3.899796	122888192	104476672	39944568	24992
834	5.397458	122888192	104476672	43291192	24992
835	6.487273	122888192	104476672	47442880	24992
836	10.573181	123158528	104476672	36877440	24992
837	9.204112	123158528	104476672	42702640	24992
838	10.699515	123158528	104476672	49351480	24992
839	14.343572	123158528	104476672	40949968	24992
840	13.188251	123158528	104476672	49302384	24992
841	17.472753	123158528	104476672	42636752	24992
842	5.189601	123158528	104476672	37463296	24992
843	4.150799	123158528	104476672	40044248	24992
844	5.320197	123158528	104476672	43490984	24992
845	6.806434	123158528	104476672	47779160	24992
846	10.511891	123428864	104476672	37378248	24992
847	9.31824	123428864	104476672	43384352	24992
848	10.782298	123428864	104476672	50247632	24992
849	14.526823	123428864	104476672	41947216	24992
850	13.683742	123428864	104476672	50530400	24992
851	17.239836	123428864	104476672	43958608	24992
852	2.783047	123428864	104476672	40197304	24992
853	4.18473	123428864	104476672	42796624	24992
854	5.708369	123428864	104476672	46257416	24992
855	6.980029	123428864	104476672	50584576	24992
856	11.036121	123699200	104476672	39862200	24992
857	9.700497	123699200	104476672	45927152	24992
858	10.741058	123699200	104476672	52873704	24992
859	14.429278	123699200	104476672	44315056	24992
860	13.694386	123699200	104476672	36530376	24992
861	15.011836	123699200	104476672	46086384	24992
862	2.825162	123699200	104476672	42049312	24992
863	4.184806	123699200	104476672	44674256	24992
864	5.374371	123699200	104476672	48180800	24992
865	6.949998	123699200	104476672	52552640	24992
866	10.655483	123969536	104476672	41673088	24992
867	9.528774	123969536	104476672	47831512	24992
868	13.6182	123969536	104476672	39201136	24992
869	12.452586	123969536	104476672	47078160	24992
870	16.213749	123969536	104476672	40285048	24992
871	15.44729	123969536	104476672	49921040	24992
872	2.84779	123969536	104476672	45529376	24992
873	4.450184	123969536	104476672	48183152	24992
874	5.653995	123969536	104476672	51752136	24992
875	10.171121	123969536	104476672	40139336	24992
876	9.323462	123969536	104476672	45443440	24992
877	10.62298	123969536	104476672	51631224	24992
878	14.745128	123969536	104476672	42520480	24992
879	13.601803	123969536	104476672	50482536	24992
880	22.438284	124239872	104476672	43468672	24992
881	26.117815	107798528	79835136	17429048	24992
882	3.040744	107798528	79835136	29084960	24992
883	4.528489	108339200	79835136	15458096	24992
884	5.459316	108339200	79835136	19044168	24992
885	6.878386	108339200	79835136	23531376	24992
886	8.433937	108339200	79835136	28903592	24992
887	10.150467	108339200	79835136	18926632	24992
888	11.168542	108339200	79835136	26078416	24992
889	13.146038	108339200	79835136	18243352	24992
890	14.066051	108339200	79835136	27191440	24992
891	15.715003	108339200	79835136	20979880	24992
892	2.823914	108339200	79835136	17629760	24992
893	4.127509	108339200	79835136	20342904	24992
894	5.799723	108339200	79835136	23953824	24992
895	6.945654	108339200	79835136	28473040	24992
896	8.886025	108339200	79835136	17722112	24992
897	10.006905	108339200	79835136	24063208	24992
898	12.238424	108339200	79835136	15652504	24992
899	13.195295	108339200	79835136	23802456	24992
900	15.054479	108339200	79835136	17321256	24992
901	16.020214	108339200	79835136	27294280	24992
902	2.918176	108339200	79835136	23111224	24992
903	4.251446	108339200	79835136	25855768	24992
904	5.617132	108339200	79835136	29502608	24992
905	7.532933	108339200	79835136	17760840	24992
906	8.633325	108339200	79835136	23258392	24992
907	9.954955	108339200	79835136	29641432	24992
908	11.957511	108339200	79835136	20471976	24992
909	13.140414	108339200	79835136	28705824	24992
910	14.455066	108339200	79835136	21532928	24992
911	17.038483	108339200	79835136	16364696	24992
912	3.155721	108339200	79835136	28413024	24992
913	4.652039	108339200	79835136	15128768	24992
914	5.648032	108339200	79835136	18834304	24992
915	7.328347	108339200	79835136	23438648	24992
916	8.541314	108339200	79835136	28964664	24992
917	10.806623	108339200	79835136	19250104	24992
918	11.998798	108339200	79835136	26646400	24992
919	13.394949	108339200	79835136	19061888	24992
920	14.92912	108339200	79835136	28323072	24992
921	16.477992	108339200	79835136	22309408	24992
922	2.981602	108339200	79835136	19192920	24992
923	4.340997	108339200	79835136	21985648	24992
924	5.933314	108339200	79835136	25707288	24992
925	7.901319	108339200	79835136	14729464	24992
926	8.60973	108339200	79835136	20317320	24992
927	10.28149	108339200	79835136	26845928	24992
928	12.733145	108339200	79835136	18405680	24992
929	13.312518	108339200	79835136	26793912	24992
930	15.38921	108339200	79835136	20232112	24992
931	16.874475	108339200	79835136	15597984	24992
932	2.903118	108339200	79835136	27820504	24992
933	4.852193	108339200	79835136	14784032	24992
934	5.878864	108339200	79835136	18557304	24992
935	7.388677	108339200	79835136	23256752	24992
936	8.91697	108339200	79835136	28904024	24992
937	10.915208	108339200	79835136	19461240	24992
938	11.786809	108339200	79835136	26984352	24992
939	13.820972	108339200	79835136	19584152	24992
940	14.924285	108339200	79835136	29059744	24992
941	17.16014	108339200	79835136	23298336	24992
942	2.979159	108339200	79835136	20342472	24992
943	4.377422	108339200	79835136	23190984	24992
944	5.863774	108339200	79835136	26988496	24992
945	8.297469	108339200	79835136	15986744	24992
946	9.271579	108339200	79835136	21679888	24992
947	10.314324	108339200	79835136	28349256	24992
948	12.410326	108339200	79835136	19933872	24992
949	13.724253	108339200	79835136	28496400	24992
950	15.353806	108339200	79835136	21893584	24992
951	17.721988	108339200	79835136	17261488	24992
952	3.086841	108339200	79835136	29752872	24992
953	5.032403	108339200	79835136	16460104	24992
954	6.353183	108339200	79835136	20296880	24992
955	7.651633	108339200	79835136	25095136	24992
956	10.090483	108339200	79835136	15387264	24992
957	11.033702	108339200	79835136	22112568	24992
958	11.9789	108339200	79835136	29795864	24992
959	14.169225	108339200	79835136	22140992	24992
960	16.012947	108339200	79835136	16641240	24992
961	16.691126	108339200	79835136	27199400	24992
962	3.11513	108339200	79835136	23930488	24992
963	4.560778	108339200	79835136	26834912	24992
964	6.034157	108339200	79835136	30709376	24992
965	8.045835	108339200	79835136	19361896	24992
966	9.195877	108339200	79835136	25196512	24992
967	11.23544	108339200	79835136	16447656	24992
968	12.257135	108339200	79835136	24227128	24992
969	14.542219	108339200	79835136	17529744	24992
970	15.27541	108339200	79835136	27264320	24992
971	17.699532	108339200	79835136	22063008	24992
972	3.153219	108339200	79835136	19777544	24992
973	4.730926	108339200	79835136	22749536	24992
974	6.089553	108339200	79835136	26656832	24992
975	8.4377	108339200	79835136	15959848	24992
976	9.610339	108339200	79835136	21826952	24992
977	11.253947	108339200	79835136	28680816	24992
978	12.823549	108339200	79835136	20533464	24992
979	13.757302	108339200	79835136	29343080	24992
980	15.97574	108339200	79835136	23017480	24992
981	17.898398	108339200	79835136	18660224	24992
982	3.809885	108339200	79835136	15494816	24992
983	4.545995	108339200	79835136	18455104	24992
984	6.324421	108339200	79835136	22413744	24992
985	7.649252	108339200	79835136	27343240	24992
986	9.923944	108339200	79835136	17605960	24992
987	10.935964	108339200	79835136	24523424	24992
988	13.288181	108339200	79835136	17047328	24992
989	13.902271	108339200	79835136	25951728	24992
990	16.810376	108339200	79835136	20255152	24992
991	17.163944	108339200	79835136	31141512	24992
992	3.226001	108339200	79835136	27811376	24992
993	4.836703	108339200	79835136	30799568	24992
994	6.878326	108339200	79835136	18636584	24992
995	8.303568	108339200	79835136	23612592	24992
996	9.262886	108339200	79835136	29614024	24992
997	11.402205	108339200	79835136	20488360	24992
998	12.47814	108339200	79835136	28454832	24992
999	15.082001	108339200	79835136	21545736	24992
1000	16.192624	108339200	79835136	31524432	24992
x	Duration	RSS	HeapTotal	HeapUsed	External
0	NA	95854592	65155072	11985504	24992
1	0.265832	95854592	65155072	12037392	24992
2	0.203594	95854592	65155072	12114176	24992
3	0.233349	95854592	65155072	12218072	24992
4	0.300679	95854592	65155072	12350624	24992
5	0.33675	95854592	65155072	12513344	24992
6	0.393715	95854592	65155072	12706656	24992
7	0.461422	95854592	65155072	12931544	24992
8	0.512381	95854592	65155072	13189008	24992
9	0.566661	95854592	65155072	13480960	24992
10	0.890738	95854592	65155072	13808080	24992
11	0.996646	95854592	65155072	14171216	24992
12	0.165351	95854592	65155072	14563608	24992
13	0.292683	95854592	65155072	14679720	24992
14	0.329477	95854592	65155072	14831048	24992
15	0.377696	95854592	65155072	15022344	24992
16	0.453909	95854592	65155072	15255136	24992
17	0.526203	95854592	65155072	15529816	24992
18	0.779252	95854592	65155072	15847472	24992
19	0.626349	95854592	65155072	16209656	24992
20	0.696815	95854592	65155072	16617624	24992
21	0.769298	95854592	65155072	17071808	24992
22	0.194629	95854592	65155072	17580560	24992
23	0.318253	95854592	65155072	17723240	24992
24	0.375575	95854592	65155072	17916344	24992
25	0.436514	95854592	65155072	18160376	24992
26	0.519594	95854592	65155072	18457088	24992
27	0.691669	95854592	65155072	18806984	24992
28	0.901602	95854592	65155072	19211840	24992
29	0.824611	95854592	65155072	19670864	24992
30	0.896401	95854592	65155072	20189024	24992
31	0.9139	95854592	65155072	20761152	24992
32	0.203737	95854592	65155072	21411840	24992
33	0.308313	95854592	65155072	21586800	24992
34	0.431612	95854592	65155072	21821616	24992
35	0.553004	95854592	65155072	22117288	24992
36	0.588375	95854592	65155072	22475320	24992
37	0.678267	95854592	65155072	22896088	24992
38	0.778364	95854592	65155072	23380624	24992
39	0.87766	95854592	65155072	23929960	24992
40	0.988929	95854592	65155072	24545952	24992
41	1.081835	95854592	65155072	25228656	24992
42	0.23821	95854592	65155072	26012000	24992
43	0.358289	95854592	65155072	26216256	24992
44	0.536498	95854592	65155072	26492768	24992
45	0.618845	95854592	65155072	26838520	24992
46	0.698334	95854592	65155072	27256352	24992
47	0.79739	95854592	65155072	27747392	24992
48	0.964374	95854592	65155072	28312648	24992
49	2.118328	95854592	65155072	12692032	24992
50	1.269206	95854592	65155072	13413248	24992
51	1.365374	95854592	65155072	14212072	24992
52	0.283099	95854592	65155072	15137640	24992
53	0.432108	95854592	65155072	15380848	24992
54	0.564304	95854592	65155072	15704784	24992
55	0.709924	95854592	65155072	16111904	24992
56	0.836213	95854592	65155072	16603648	24992
57	0.974253	95854592	65155072	17180440	24992
58	1.284693	95854592	65155072	17843224	24992
59	1.367683	95854592	65155072	18593152	24992
60	1.280826	95854592	65155072	19432032	24992
61	1.408598	95854592	65155072	20359856	24992
62	0.290572	95854592	65155072	21434224	24992
63	0.443115	95854592	65155072	21705336	24992
64	0.581271	95854592	65155072	22068344	24992
65	0.717818	95854592	65155072	22524160	24992
66	0.904592	95854592	65155072	23074448	24992
67	1.027187	95854592	65155072	23719520	24992
68	1.148172	95854592	65155072	24460328	24992
69	1.287675	95854592	65155072	25297944	24992
70	1.450568	95854592	65155072	26234296	24992
71	1.580138	95854592	65155072	27269448	24992
72	0.324154	95854592	65155072	28471384	24992
73	0.484325	95854592	65155072	28771696	24992
74	1.394572	95854592	65155072	12955040	24992
75	0.862691	95854592	65155072	13459624	24992
76	1.040576	95854592	65155072	14068360	24992
77	1.126951	95854592	65155072	14781712	24992
78	1.275182	95854592	65155072	15600560	24992
79	1.628426	95854592	65155072	16525936	24992
80	1.591816	95854592	65155072	17559976	24992
81	1.813354	95854592	65155072	18703336	24992
82	0.361411	95854592	65155072	20037000	24992
83	0.536459	95854592	65155072	20366528	24992
84	0.715032	95854592	65155072	20809720	24992
85	0.877015	95854592	65155072	21365256	24992
86	1.046401	95854592	65155072	22035880	24992
87	1.224334	95854592	65155072	22821856	24992
88	1.595056	95854592	65155072	23724344	24992
89	1.571294	95854592	65155072	24744256	24992
90	1.757639	95854592	65155072	25883480	24992
91	1.928464	95854592	65155072	27142120	24992
92	0.401852	95854592	65155072	28614696	24992
93	0.579147	95854592	65155072	28976824	24992
94	1.319673	95854592	65155072	13159896	24992
95	0.963732	95854592	65155072	13767704	24992
96	1.346142	95854592	65155072	14500120	24992
97	1.339872	95854592	65155072	15359232	24992
98	1.516589	95854592	65155072	16343136	24992
99	1.891662	95854592	65155072	17454376	24992
100	1.898584	95854592	65155072	18694864	24992
101	2.141307	95854592	65155072	20064088	24992
102	0.448825	95854592	65155072	21679552	24992
103	0.673884	95854592	65155072	22083456	24992
104	0.88599	95854592	65155072	22624288	24992
105	1.115516	95854592	65155072	23301520	24992
106	1.329447	95854592	65155072	24117512	24992
107	1.54875	95854592	65155072	25072592	24992
108	1.773501	95854592	65155072	26167896	24992
109	1.985	95854592	65155072	27404096	24992
110	2.389776	95854592	65155072	28783968	24992
111	2.838171	95854592	65155072	14024864	24992
112	0.451061	95854592	65155072	15815808	24992
113	0.675154	95854592	65155072	16249008	24992
114	0.898348	95854592	65155072	16828144	24992
115	1.118943	95854592	65155072	17554168	24992
116	1.330182	95854592	65155072	18428640	24992
117	2.124337	95854592	65155072	19453560	24992
118	1.849364	95854592	65155072	20626744	24992
119	2.256993	95854592	65155072	21952680	24992
120	2.220123	95854592	65155072	23435296	24992
121	2.50173	95854592	65155072	25064912	24992
122	0.504849	95854592	65155072	26980480	24992
123	0.721729	95854592	65155072	27443216	24992
124	0.951331	95854592	65155072	28061280	24992
125	1.181709	95854592	65155072	28836032	24992
126	2.148385	95854592	65155072	13492608	24992
127	1.662315	95854592	65155072	14584168	24992
128	2.24749	95854592	65155072	15837432	24992
129	2.294534	95854592	65155072	17249216	24992
130	2.378512	95854592	65155072	18825544	24992
131	2.607748	95854592	65155072	20562536	24992
132	0.510555	95854592	65155072	22605520	24992
133	0.764074	95854592	65155072	23097168	24992
134	1.010885	95854592	65155072	23754248	24992
135	1.257876	95854592	65155072	24577832	24992
136	1.565104	95854592	65155072	25569216	24992
137	1.755532	95854592	65155072	26729656	24992
138	2.218443	95854592	65155072	28058856	24992
139	2.901944	95854592	65155072	13414576	24992
140	2.705831	95854592	65155072	15086248	24992
141	3.047693	95854592	65155072	16930360	24992
142	0.541212	95854592	65155072	19107968	24992
143	0.809706	95854592	65155072	19634352	24992
144	1.069869	95854592	65155072	20337888	24992
145	1.34207	95854592	65155072	21219296	24992
146	1.648368	95854592	65155072	22280296	24992
147	2.059368	95854592	65155072	23521352	24992
148	2.136941	95854592	65155072	24943104	24992
149	2.613405	95854592	65155072	26546816	24992
150	2.979047	95854592	65155072	28336472	24992
151	3.852783	95854592	65155072	14124976	24992
152	0.648519	95854592	65155072	16447912	24992
153	0.965671	95854592	65155072	17003608	24992
154	1.280521	95854592	65155072	17745992	24992
155	1.600631	95854592	65155072	18676248	24992
156	1.904636	95854592	65155072	19795728	24992
157	2.330978	95854592	65155072	21104992	24992
158	2.269781	95854592	65155072	22609688	24992
159	2.619228	95854592	65155072	24301168	24992
160	2.890817	95854592	65155072	26186376	24992
161	3.113538	95854592	65155072	28265184	24992
162	0.623611	95854592	65155072	14565768	24992
163	0.940112	95854592	65155072	15150784	24992
164	1.216967	95854592	65155072	15932272	24992
165	1.546751	95854592	65155072	16911224	24992
166	1.787787	95854592	65155072	18091208	24992
167	2.279211	95854592	65155072	19471616	24992
168	2.385899	95854592	65155072	21049944	24992
169	2.703787	95854592	65155072	22829328	24992
170	3.193027	95854592	65155072	24812000	24992
171	3.471504	95854592	65155072	26998072	24992
172	0.645574	95854592	65155072	29583896	24992
173	1.400038	95854592	65155072	13842272	24992
174	1.271845	95854592	65155072	14662768	24992
175	1.579361	95854592	65155072	15690544	24992
176	1.877597	95854592	65155072	16926960	24992
177	2.399593	95854592	65155072	18372568	24992
178	2.513223	95854592	65155072	20028392	24992
179	2.839643	95854592	65155072	21896960	24992
180	3.16082	95854592	65155072	23977552	24992
181	3.66379	95854592	65155072	26271568	24992
182	0.665075	95854592	65155072	28985088	24992
183	0.996156	95854592	65155072	29628504	24992
184	1.853052	95854592	65155072	14137512	24992
185	1.767267	95854592	65155072	15213992	24992
186	2.273977	95854592	65155072	16509000	24992
187	2.309058	95854592	65155072	18022984	24992
188	2.687892	95854592	65155072	19756872	24992
189	2.967213	95854592	65155072	21711616	24992
190	3.694647	95854592	65155072	23889312	24992
191	3.652319	95854592	65155072	26289832	24992
192	0.693564	95854592	65155072	29129704	24992
193	1.042875	95854592	65155072	29802368	24992
194	1.891462	95854592	65155072	14349576	24992
195	1.939055	95854592	65155072	15474832	24992
196	2.072945	95854592	65155072	16828328	24992
197	2.51219	95854592	65155072	18410456	24992
198	2.76268	95854592	65155072	20225024	24992
199	3.297217	95854592	65155072	22267544	24992
200	3.506273	95854592	65155072	24542720	24992
201	3.849227	95854592	65155072	27053048	24992
202	0.734823	95854592	65155072	30029328	24992
203	1.571232	95854592	65155072	14336552	24992
204	1.535286	95854592	65155072	15274040	24992
205	1.928245	95854592	65155072	16448080	24992
206	2.310239	95854592	65155072	17859992	24992
207	2.681767	95854592	65155072	19518720	24992
208	3.203885	95854592	65155072	21425072	24992
209	3.47727	95854592	65155072	23580128	24992
210	3.858517	95854592	65155072	25985744	24992
211	4.405596	95854592	65155072	28642080	24992
212	0.808238	95854592	65155072	15653944	24992
213	1.226653	95854592	65155072	16409864	24992
214	1.608521	95854592	65155072	17419328	24992
215	2.018603	95854592	65155072	18683240	24992
216	2.412264	95854592	65155072	20203344	24992
217	2.817022	95854592	65155072	21979984	24992
218	3.459262	95854592	65155072	24014000	24992
219	3.866377	95854592	65155072	26315688	24992
220	4.035173	95854592	65155072	28871112	24992
221	5.030508	95854592	65155072	15509208	24992
222	0.800673	95854592	65155072	18853432	24992
223	1.245872	95854592	65155072	19638552	24992
224	1.670327	95854592	65155072	20686944	24992
225	2.092808	95854592	65155072	21999984	24992
226	2.500738	95854592	65155072	23579856	24992
227	2.943911	95854592	65155072	25424672	24992
228	3.349202	95854592	65155072	27536728	24992
229	3.765889	95854592	65155072	29922664	24992
230	4.917265	95854592	65155072	16251752	24992
231	4.575465	95854592	65155072	19183632	24992
232	0.843074	95854592	65155072	22671768	24992
233	1.281241	95854592	65155072	23494800	24992
234	1.67879	95854592	65155072	24593736	24992
235	2.1441	95854592	65155072	25969576	24992
236	2.609645	95854592	65155072	27623896	24992
237	3.213132	95854592	65155072	29557800	24992
238	3.935822	95854592	65155072	15512640	24992
239	3.904557	95854592	65155072	18008080	24992
240	4.668759	95854592	65155072	20786344	24992
241	4.707197	95854592	65155072	23845656	24992
242	0.91412	95854592	65155072	27486048	24992
243	1.457092	95854592	65155072	28338928	24992
244	1.806831	95854592	65155072	29476928	24992
245	2.732961	95854592	65155072	14685472	24992
246	2.719937	95854592	65155072	16398056	24992
247	3.145864	95854592	65155072	18406472	24992
248	3.710979	95854592	65155072	20697032	24992
249	4.05905	95854592	65155072	23278088	24992
250	5.092895	95854592	65155072	26156520	24992
251	4.913157	95854592	65155072	29325008	24992
252	0.924489	95854592	65155072	16876048	24992
253	1.348712	95854592	65155072	17758672	24992
254	1.864443	95854592	65155072	18935512	24992
255	2.339683	95854592	65155072	20408752	24992
256	2.796818	95854592	65155072	22179704	24992
257	3.436002	95854592	65155072	24249104	24992
258	3.687488	95854592	65155072	26621984	24992
259	4.223005	95854592	65155072	29290904	24992
260	5.401709	95854592	65155072	16095648	24992
261	5.154331	95854592	65155072	19369032	24992
262	0.956332	95854592	65155072	23261376	24992
263	1.459913	95854592	65155072	24172168	24992
264	1.937135	95854592	65155072	25391280	24992
265	2.579845	95854592	65155072	26913224	24992
266	2.885299	95854592	65155072	28742776	24992
267	4.076743	95854592	65155072	14832648	24992
268	3.88377	95854592	65155072	17279256	24992
269	4.365195	95854592	65155072	20035920	24992
270	4.864224	95854592	65155072	23109408	24992
271	5.346515	95854592	65155072	26495552	24992
272	0.994631	95854592	65155072	30510544	24992
273	1.869384	95854592	65155072	15101304	24992
274	2.002027	95854592	65155072	16356144	24992
275	2.504677	95854592	65155072	17926824	24992
276	3.12942	95854592	65155072	19814848	24992
277	3.453003	95854592	65155072	22020712	24992
278	4.005783	95854592	65155072	24545312	24992
279	4.624305	95854592	65155072	27395928	24992
280	4.942345	95854592	65155072	30562040	24992
281	6.066248	95854592	65155072	17711784	24992
282	1.028228	95854592	65155072	21850952	24992
283	1.559365	95854592	65155072	22820248	24992
284	2.058009	95854592	65155072	24116440	24992
285	2.552791	95854592	65155072	25735928	24992
286	3.097937	95854592	65155072	27682440	24992
287	3.625132	95854592	65155072	29956528	24992
288	5.095567	95854592	65155072	16334136	24992
289	4.666099	95854592	65155072	19266120	24992
290	5.162857	95854592	65155072	22535624	24992
291	5.934302	95854592	65155072	26142832	24992
292	1.10239	95854592	65155072	30409168	24992
293	2.021117	95854592	65155072	15116792	24992
294	2.148836	95854592	65155072	16449536	24992
295	2.58385	95854592	65155072	18117672	24992
296	3.193477	95854592	65155072	20127304	24992
297	3.960233	95854592	65155072	22469504	24992
298	4.869058	95854592	65155072	25149928	24992
299	5.02634	95854592	65155072	28178440	24992
300	6.019895	95854592	65155072	15661960	24992
301	6.033345	95854592	65155072	19375488	24992
302	1.085746	95854592	65155072	23773144	24992
303	1.646603	95854592	65155072	24800808	24992
304	2.174111	95854592	65155072	26172664	24992
305	2.871691	95854592	65155072	27889600	24992
306	3.183673	95854592	65155072	29952944	24992
307	4.385687	95854592	65155072	16251968	24992
308	4.427213	95854592	65155072	19010672	24992
309	4.888245	95854592	65155072	22117992	24992
310	5.63264	95854592	65155072	25576296	24992
311	6.010155	95854592	65155072	29385352	24992
312	1.130025	95854592	65155072	17929392	24992
313	1.743156	95854592	65155072	18986224	24992
314	2.247145	95854592	65155072	20396960	24992
315	2.76562	95854592	65155072	22162616	24992
316	3.637951	95854592	65155072	24294320	24992
317	3.951245	95854592	65155072	26773080	24992
318	4.506102	95854592	65155072	29623376	24992
319	5.807675	95854592	65155072	16803768	24992
320	5.640131	95854592	65155072	20361992	24992
321	6.321384	95854592	65155072	24286816	24992
322	1.306526	95854592	65155072	28934352	24992
323	1.729383	95854592	65155072	30020568	24992
324	2.323551	95854592	65155072	31470280	24992
325	3.471609	95854592	65155072	16985688	24992
326	3.470755	95854592	65155072	19166168	24992
327	4.152019	95854592	65155072	21713256	24992
328	4.65244	95854592	65155072	24627808	24992
329	5.221721	95854592	65155072	27910728	24992
330	5.806151	95854592	65155072	31565160	24992
331	7.032148	95854592	65155072	19283632	24992
332	1.158497	95854592	65155072	24058488	24992
333	1.79625	95854592	65155072	25173864	24992
334	2.349786	95854592	65155072	26662656	24992
335	2.972333	95854592	65155072	28529032	24992
336	3.570306	95854592	65155072	30768840	24992
337	4.896228	95854592	65155072	17269784	24992
338	4.741297	95854592	65155072	20262664	24992
339	5.370823	95854592	65155072	23640808	24992
340	5.973892	95854592	65155072	27391720	24992
341	6.763665	95854592	65155072	31522784	24992
342	1.223306	95854592	65155072	20195992	24992
343	1.831066	95854592	65155072	21340664	24992
344	2.629626	95854592	65155072	22868408	24992
345	3.064336	95854592	65155072	24780296	24992
346	3.668427	95854592	65155072	27077736	24992
347	4.509351	95854592	65155072	29761168	24992
348	5.660559	95854592	65155072	16900648	24992
349	5.529137	95854592	65155072	20359120	24992
350	6.133148	95854592	65155072	24207480	24992
351	7.096614	95854592	65155072	28451632	24992
352	1.269404	95854592	65155072	17776344	24992
353	2.020851	95854592	65155072	18950304	24992
354	2.515199	95854592	65155072	20517144	24992
355	3.139599	95854592	65155072	22477680	24992
356	3.779921	95854592	65155072	24833688	24992
357	4.414484	95854592	65155072	27585352	24992
358	5.040775	95854592	65155072	30740704	24992
359	6.508266	95854592	65155072	18238944	24992
360	6.306848	95854592	65155072	22203936	24992
361	7.372444	95854592	65155072	26563656	24992
362	1.263372	95854592	65155072	31760848	24992
363	2.546049	95854592	65155072	16819008	24992
364	2.580758	95854592	65155072	18442664	24992
365	3.221893	95854592	65155072	20474808	24992
366	3.875632	95854592	65155072	22920032	24992
367	4.513139	95854592	65155072	25773008	24992
368	5.153063	95854592	65155072	29035056	24992
369	6.838228	95854592	65155072	17023944	24992
370	6.577968	95854592	65155072	21111728	24992
371	7.089454	95854592	65155072	25613600	24992
372	1.308941	95854592	65155072	30976960	24992
373	1.977243	95854592	65155072	32222816	24992
374	3.25088	95854592	65155072	17640824	24992
375	3.467603	95854592	65155072	19722416	24992
376	4.127895	95854592	65155072	22221960	24992
377	4.619187	95854592	65155072	25143352	24992
378	5.456891	95854592	65155072	28483408	24992
379	5.956121	95854592	65155072	32250552	24992
380	7.256394	95854592	65155072	20200256	24992
381	7.446578	95854592	65155072	24809136	24992
382	1.340251	95854592	65155072	30301832	24992
383	2.012044	95854592	65155072	31589376	24992
384	3.574264	95854592	65155072	17196024	24992
385	3.390362	95854592	65155072	19325208	24992
386	4.056549	95854592	65155072	21884648	24992
387	4.742513	95854592	65155072	24878896	24992
388	5.428386	95854592	65155072	28299584	24992
389	6.247171	95854592	65155072	32149168	24992
390	7.391465	95854592	65155072	20264064	24992
391	7.645373	95854592	65155072	24980288	24992
392	1.369715	95854592	65155072	30616104	24992
393	2.081924	95854592	65155072	31930040	24992
394	3.512796	95854592	65155072	17576816	24992
395	3.613802	95854592	65155072	19761624	24992
396	3.944991	95854592	65155072	22378264	24992
397	4.82865	95854592	65155072	25443256	24992
398	5.554411	95854592	65155072	28939752	24992
399	6.423803	95854592	65155072	32880048	24992
400	7.706072	95854592	65155072	21016656	24992
401	7.805855	95854592	65155072	25841464	24992
402	1.397194	95854592	65155072	31586848	24992
403	2.316657	95854592	65155072	32920368	24992
404	3.669319	95854592	65155072	18460912	24992
405	3.552443	95854592	65155072	20687640	24992
406	4.395356	95854592	65155072	23362840	24992
407	4.866785	95854592	65155072	26493768	24992
408	5.605341	95854592	65155072	30067880	24992
409	7.752249	95854592	65155072	18371592	24992
410	7.094181	95854592	65155072	22855832	24992
411	7.960316	95854592	65155072	27789008	24992
412	2.186914	95854592	65155072	17513248	24992
413	2.177898	95854592	65155072	18887552	24992
414	3.061772	95854592	65155072	20706032	24992
415	3.620516	95854592	65155072	22981392	24992
416	4.348174	95854592	65155072	25715040	24992
417	5.073088	95854592	65155072	28927000	24992
418	5.828761	95854592	65155072	32612136	24992
419	7.711741	95854592	65155072	20628120	24992
420	7.396744	95854592	65155072	25278280	24992
421	8.205758	95854592	65155072	30403480	24992
422	1.488382	95854592	65155072	20746944	24992
423	2.244639	95854592	65155072	22188304	24992
424	3.127275	95854592	65155072	24111760	24992
425	3.686198	95854592	65155072	26525352	24992
426	4.402247	95854592	65155072	29418064	24992
427	5.331344	95854592	65155072	32793840	24992
428	6.689056	95854592	65155072	20491504	24992
429	6.686114	95854592	65155072	24855376	24992
430	7.425554	95854592	65155072	29702416	24992
431	9.607159	95854592	65155072	19356672	24992
432	1.509868	95854592	65155072	25716968	24992
433	2.27008	95854592	65155072	27198512	24992
434	3.036414	95854592	65155072	29177776	24992
435	3.782894	95854592	65155072	31633032	24992
436	5.484257	95854592	65155072	18658296	24992
437	5.451489	95854592	65155072	22106960	24992
438	6.066264	95854592	65155072	26048920	24992
439	6.858991	95854592	65155072	30485496	24992
440	8.596038	95854592	65155072	19735088	24992
441	8.438652	95854592	65155072	25179032	24992
442	1.567788	95854592	65155072	31672424	24992
443	2.301119	95854592	65155072	33173344	24992
444	3.986488	95854592	65155072	19041640	24992
445	3.86399	95854592	65155072	21545608	24992
446	4.676918	95854592	65155072	24553472	24992
447	5.398583	95854592	65155072	28066264	24992
448	6.101998	95854592	65155072	32114120	24992
449	7.836705	95854592	65155072	20693744	24992
450	7.894172	95854592	65155072	25726232	24992
451	8.537828	95854592	65155072	31284000	24992
452	1.577949	95854592	65155072	22077360	24992
453	2.386597	95854592	65155072	23627120	24992
454	3.155082	95854592	65155072	25676328	24992
455	3.937445	95854592	65155072	28258408	24992
456	4.896218	95854592	65155072	31336328	24992
457	6.522439	95854592	65155072	19142848	24992
458	6.379042	95854592	65155072	23256704	24992
459	7.090682	95854592	65155072	27886712	24992
460	8.109654	95854592	65155072	33050560	24992
461	9.726989	95854592	65155072	22551968	24992
462	1.756008	95854592	65155072	29288552	24992
463	2.430833	95854592	65155072	30847000	24992
464	3.213694	95854592	65155072	32926392	24992
465	5.156165	95854592	65155072	19549296	24992
466	4.70609	95854592	65155072	22674216	24992
467	5.597025	95854592	65155072	26322952	24992
468	6.352959	95854592	65155072	30496968	24992
469	9.023016	95854592	65155072	19667136	24992
470	8.103122	95854592	65155072	24894664	24992
471	8.86557	95854592	65155072	30769808	24992
472	1.650308	95854592	65155072	21930328	24992
473	2.473654	95854592	65155072	23517848	24992
474	3.434978	95854592	65155072	25653312	24992
475	4.168916	95854592	65155072	28303456	24992
476	4.956857	95854592	65155072	31487008	24992
477	7.131676	95854592	65155072	19495512	24992
478	6.680602	95854592	65155072	23767656	24992
479	7.396681	95854592	65155072	28555064	24992
480	8.443212	95854592	65155072	33880200	24992
481	10.093083	95854592	65155072	23558640	24992
482	1.603098	95854592	65155072	30556264	24992
483	2.424264	95854592	65155072	32173168	24992
484	3.322896	95854592	65155072	34330544	24992
485	5.164504	95854592	65155072	20887952	24992
486	4.999679	95854592	65155072	24129800	24992
487	6.310164	95854592	65155072	27915744	24992
488	6.66899	95854592	65155072	32245528	24992
489	8.828569	95854592	65155072	21332200	24992
490	8.593016	95854592	65155072	26754888	24992
491	9.255668	95854592	65155072	32726872	24992
492	1.701243	95854592	65155072	23878296	24992
493	2.582358	95854592	65155072	25526832	24992
494	3.41604	95854592	65155072	27743904	24992
495	4.282795	95854592	65155072	30491616	24992
496	5.218901	95854592	65155072	33792048	24992
497	6.999568	95854592	65155072	21597320	24992
498	7.00543	95854592	65155072	26005016	24992
499	8.009686	95854592	65155072	30989920	24992
500	9.899484	95854592	65155072	20923720	24992
501	9.691615	95854592	65155072	27010016	24992
502	1.688404	95854592	65155072	34271304	24992
503	3.60383	95854592	65155072	19894944	24992
504	3.75814	95854592	65155072	22130336	24992
505	4.340409	95854592	65155072	24941008	24992
506	5.256051	95854592	65155072	28299936	24992
507	6.087593	95854592	65155072	32233856	24992
508	8.262801	95854592	65155072	21002248	24992
509	7.82532	95854592	65155072	26067144	24992
510	8.892735	95854592	65155072	31684608	24992
511	11.044518	95854592	65155072	22209976	24992
512	1.679097	95854592	65155072	29603824	24992
513	2.581282	95854592	65155072	31312592	24992
514	3.707673	95854592	65155072	33587008	24992
515	5.506545	95854592	65155072	20528360	24992
516	5.33799	95854592	65155072	23945824	24992
517	6.220879	95854592	65155072	27947504	24992
518	7.220519	95854592	65155072	32525952	24992
519	9.198032	95854592	65155072	21937928	24992
520	8.944088	95854592	65155072	27666728	24992
521	9.71436	95854592	65155072	33959304	24992
522	1.799085	95854592	65155072	25425848	24992
523	2.706133	95854592	65155072	27159704	24992
524	3.722763	95854592	65155072	29482424	24992
525	4.494352	95854592	65155072	32376352	24992
526	5.41005	95854592	65155072	35863112	24992
527	7.334227	95854592	65155072	23701104	24992
528	7.254047	95854592	65155072	28343904	24992
529	8.100434	95854592	65155072	33584808	24992
530	10.262471	95854592	65155072	23472792	24992
531	10.556497	95854592	65155072	29882456	24992
532	2.961207	95854592	65155072	21210424	24992
533	2.703759	95854592	65155072	22973504	24992
534	4.041701	95854592	65155072	25326288	24992
535	4.576459	95854592	65155072	28274968	24992
536	5.829106	95854592	65155072	31809208	24992
537	6.307698	95854592	65155072	35935656	24992
538	8.059292	95854592	65155072	24436032	24992
539	8.609473	95854592	65155072	29761568	24992
540	9.206931	95854592	65155072	35679240	24992
541	11.257735	95854592	65155072	25975464	24992
542	1.859242	95854592	65155072	33745320	24992
543	2.961805	95854592	65155072	35537648	24992
544	4.689114	95854592	65155072	21804560	24992
545	4.667191	95854592	65155072	24795976	24992
546	5.760968	95854592	65155072	28388856	24992
547	6.550179	95854592	65155072	32583704	24992
548	8.829852	95854592	65155072	21751744	24992
549	8.392635	95854592	65155072	27155064	24992
550	9.692208	95854592	65155072	33175608	24992
551	11.698529	95854592	65155072	24002664	24992
552	1.939914	95854592	65155072	31884176	24992
553	2.91819	95854592	65155072	33705784	24992
554	3.936833	95854592	65155072	36151560	24992
555	5.848616	95854592	65155072	23012024	24992
556	5.701751	95854592	65155072	26683280	24992
557	6.811819	95854592	65155072	30981192	24992
558	7.604295	95854592	65155072	35879912	24992
559	9.681638	95854592	65155072	25286408	24992
560	9.772684	95854592	65155072	31425584	24992
561	12.036628	95854592	65155072	22796272	24992
562	1.900101	95854592	65155072	30869312	24992
563	2.853771	95854592	65155072	32755536	24992
564	3.930254	95854592	65155072	35265672	24992
565	5.964588	95854592	65155072	22392808	24992
566	5.80038	95854592	65155072	26147984	24992
567	6.967804	95854592	65155072	30531120	24992
568	7.904526	95854592	65155072	35539680	24992
569	10.164572	95854592	65155072	25171632	24992
570	9.675858	95854592	65155072	31448440	24992
571	12.275159	95854592	65155072	23029120	24992
572	1.856598	95854592	65155072	31284176	24992
573	2.932779	95854592	65155072	33184656	24992
574	3.923677	95854592	65155072	35731976	24992
575	6.066027	95854592	65155072	22901616	24992
576	5.808312	95854592	65155072	26713152	24992
577	7.058197	95854592	65155072	31160352	24992
578	7.910948	95854592	65155072	36246416	24992
579	9.987195	95854592	65155072	25872480	24992
580	10.059448	95854592	65155072	32243032	24992
581	12.695564	95854592	65155072	23804304	24992
582	2.016248	95854592	65155072	32184632	24992
583	3.091819	95854592	65155072	34124672	24992
584	3.83055	95854592	65155072	36706112	24992
585	6.274365	95854592	65155072	23812416	24992
586	5.992069	95854592	65155072	27687824	24992
587	7.091483	95854592	65155072	32222672	24992
588	7.870209	95854592	65155072	37401432	24992
589	10.250459	95854592	65155072	26984528	24992
590	10.053215	95854592	65155072	33468104	24992
591	12.66528	95854592	65155072	24932240	24992
592	2.032827	95854592	65155072	33419104	24992
593	3.031218	95854592	65155072	35378080	24992
594	5.479867	95854592	65155072	22102720	24992
595	5.093407	95854592	65155072	25383736	24992
596	6.135929	95854592	65155072	29311768	24992
597	7.159518	95854592	65155072	33916624	24992
598	9.952911	95854592	65155072	23533832	24992
599	9.765259	95854592	65155072	29449920	24992
600	10.260803	95854592	65155072	36021136	24992
601	12.327671	95854592	65155072	27169752	24992
602	2.060465	95854592	65155072	35822072	24992
603	3.076702	95854592	65155072	37810296	24992
604	5.169499	95854592	65155072	24251968	24992
605	4.996425	95854592	65155072	27569856	24992
606	6.23915	95854592	65155072	31554544	24992
607	7.232862	95854592	65155072	36206448	24992
608	9.642251	95854592	65155072	25559024	24992
609	9.439132	95854592	65155072	31551040	24992
610	10.537489	95854592	65155072	38235528	24992
611	12.418685	95854592	65155072	29152576	24992
612	1.988879	95854592	65155072	37909624	24992
613	4.096775	95854592	65155072	23713832	24992
614	4.337618	95854592	65155072	26405336	24992
615	5.287955	95854592	65155072	29795608	24992
616	6.542436	95854592	65155072	33849688	24992
617	9.359239	95854592	65155072	23065408	24992
618	8.820705	95854592	65155072	28469288	24992
619	9.970033	95854592	65155072	34555600	24992
620	12.316767	95854592	65155072	25601832	24992
621	11.629568	95854592	65155072	33043000	24992
622	2.150302	95854592	65155072	26578424	24992
623	3.196441	95854592	65155072	28644976	24992
624	4.253861	95854592	65155072	31376232	24992
625	5.491526	95854592	65155072	34797344	24992
626	7.811847	95854592	65155072	23302008	24992
627	7.766951	95854592	65155072	28093360	24992
628	8.653035	95854592	65155072	33571008	24992
629	11.274433	95854592	65155072	24279048	24992
630	10.562832	95854592	65155072	31140256	24992
631	11.850006	95854592	65155072	38703560	24992
632	2.107412	95854592	65155072	31296008	24992
633	3.227841	95854592	65155072	33391672	24992
634	4.281699	95854592	65155072	36161816	24992
635	6.648679	95854592	65155072	23802816	24992
636	6.455042	95854592	65155072	27964000	24992
637	7.677536	95854592	65155072	32820648	24992
638	8.690905	95854592	65155072	38385872	24992
639	10.911034	95854592	65155072	28441656	24992
640	11.635725	95854592	65155072	35425816	24992
641	13.579562	95854592	65155072	27366744	24992
642	2.090726	95854592	65155072	36492768	24992
643	3.269003	95854592	65155072	38598072	24992
644	5.664522	95854592	65155072	25205624	24992
645	5.481063	95854592	65155072	28738256	24992
646	6.691308	95854592	65155072	32957088	24992
647	7.652991	95854592	65155072	37886448	24992
648	10.120455	95854592	65155072	27449616	24992
649	9.916464	95854592	65155072	33789952	24992
650	12.911695	95854592	65155072	25418536	24992
651	12.231655	95854592	65155072	33179272	24992
652	2.368765	95854592	65155072	27115424	24992
653	3.234493	95854592	65155072	29250000	24992
654	4.447905	95854592	65155072	32102328	24992
655	5.871544	95854592	65155072	35663960	24992
656	8.130299	95854592	65155072	24374328	24992
657	7.838293	95854592	65155072	29373624	24992
658	8.813492	95854592	65155072	35083552	24992
659	11.818088	95854592	65155072	25956680	24992
660	11.131051	95854592	65155072	33104640	24992
661	14.12636	95854592	65155072	25758112	24992
662	2.250208	95854592	65155072	35155104	24992
663	3.530656	95854592	65155072	37328072	24992
664	5.77466	95854592	65155072	24412936	24992
665	5.642666	95854592	65155072	28023184	24992
666	6.695024	95854592	65155072	32358760	24992
667	8.075754	95854592	65155072	37431352	24992
668	10.736524	95854592	65155072	27326104	24992
669	10.307346	95854592	65155072	33850816	24992
670	13.389345	95854592	65155072	25841672	24992
671	12.576614	95854592	65155072	33833000	24992
672	2.297571	95854592	65155072	28060368	24992
673	3.436814	95854592	65155072	30261160	24992
674	4.72146	95854592	65155072	33187808	24992
675	5.941028	95854592	65155072	36853936	24992
676	8.506456	95854592	65155072	25582144	24992
677	8.187766	95854592	65155072	30749968	24992
678	9.006869	95854592	65155072	36629688	24992
679	12.179957	95854592	65155072	27463408	24992
680	11.557195	95854592	65155072	34818304	24992
681	14.941534	95854592	65155072	27516704	24992
682	2.309084	95854592	65155072	37152232	24992
683	3.467142	95854592	65155072	39374616	24992
684	5.872385	95854592	65155072	26203872	24992
685	5.832515	95854592	65155072	29912040	24992
686	7.185168	95854592	65155072	34364936	24992
687	8.168526	95854592	65155072	39574024	24992
688	10.44513	95854592	65155072	29341864	24992
689	10.70175	95854592	65155072	36039760	24992
690	13.070815	95854592	65155072	27850760	24992
691	12.710645	95854592	65155072	36061920	24992
692	2.307264	95854592	65155072	30221000	24992
693	3.539888	95854592	65155072	32487488	24992
694	4.827087	95854592	65155072	35504056	24992
695	5.975611	95854592	65155072	39260624	24992
696	8.47871	95854592	65155072	27714992	24992
697	8.233385	95854592	65155072	32983672	24992
698	9.236186	95854592	65155072	39013184	24992
699	12.163699	95854592	65155072	29679984	24992
700	11.695977	95854592	65155072	37223232	24992
701	14.96435	95854592	65155072	29767472	24992
702	2.496808	95854592	65155072	39680704	24992
703	4.815611	95854592	65155072	25922168	24992
704	4.94973	95854592	65155072	28964776	24992
705	5.966422	95854592	65155072	32770760	24992
706	7.324269	95854592	65155072	37345064	24992
707	10.073652	95854592	65155072	27041968	24992
708	9.915571	95854592	65155072	33157216	24992
709	10.599642	95854592	65155072	40039856	24992
710	13.519139	95854592	65155072	31413432	24992
711	13.302937	95854592	65155072	39820312	24992
712	2.353291	95854592	65155072	33673256	24992
713	3.571509	95854592	65155072	35984560	24992
714	4.97669	95854592	65155072	39066200	24992
715	7.447205	95854592	65155072	26996400	24992
716	7.427774	95854592	65155072	31643680	24992
717	8.453679	95854592	65155072	37082944	24992
718	11.442593	95854592	65155072	27641800	24992
719	10.828716	95854592	65155072	34596520	24992
720	14.084124	95854592	65155072	27135552	24992
721	13.595306	95854592	65155072	35649224	24992
722	2.457946	95854592	65155072	30495728	24992
723	3.721147	95854592	65155072	32848264	24992
724	4.907182	95854592	65155072	35973264	24992
725	6.206016	95854592	65155072	39876280	24992
726	8.815726	95854592	65155072	28521144	24992
727	8.634742	95854592	65155072	34036688	24992
728	9.728079	95854592	65155072	40292912	24992
729	12.390767	95854592	65155072	31170240	24992
730	12.241795	95854592	65155072	39006256	24992
731	15.271215	95854592	65155072	31689112	24992
732	3.897746	95854592	65155072	25986496	24992
733	3.734732	95854592	65155072	28355080	24992
734	4.953852	95854592	65155072	31514696	24992
735	6.137271	95854592	65155072	35478200	24992
736	7.494828	95854592	65155072	40223544	24992
737	10.40236	95854592	65155072	29744152	24992
738	9.526607	95854592	65155072	36078456	24992
739	12.930025	95854592	65155072	27891280	24992
740	12.749359	95854592	65155072	35819488	24992
741	15.600652	95854592	65155072	29277496	24992
742	2.507158	95854592	65155072	39685912	24992
743	5.380308	95854592	65155072	26209432	24992
744	5.042771	95854592	65155072	29408088	24992
745	6.370688	95854592	65155072	33430216	24992
746	7.564285	95854592	65155072	38234112	24992
747	10.794504	95854592	65155072	28247152	24992
748	10.164087	95854592	65155072	34681960	24992
749	11.429928	95854592	65155072	41932312	24992
750	13.919468	95854592	65155072	33567376	24992
751	16.489712	95854592	65155072	27563480	24992
752	2.538182	95854592	65155072	38120688	24992
753	3.812978	95854592	65155072	40547752	24992
754	6.722716	95854592	65155072	27807512	24992
755	6.39307	95854592	65155072	31856720	24992
756	7.620961	95854592	65155072	36719152	24992
757	11.0225	95854592	65155072	27115104	24992
758	10.30753	95854592	65155072	33605448	24992
759	11.572757	95854592	65155072	40942952	24992
760	14.411212	95854592	65155072	32925568	24992
761	14.191868	95854592	65155072	41899712	24992
762	2.567603	95854592	65155072	36279648	24992
763	3.856482	95854592	65155072	38737000	24992
764	5.141558	95854592	65155072	42015832	24992
765	7.812716	95854592	65155072	29942992	24992
766	7.824249	95854592	65155072	34865112	24992
767	9.060553	95854592	65155072	40613216	24992
768	11.857115	95854592	65155072	31197720	24992
769	11.990337	95854592	65155072	38624072	24992
770	14.878953	95854592	65155072	31152192	24992
771	14.750945	95854592	65155072	40217824	24992
772	2.66203	95854592	65155072	35047424	24992
773	4.060181	95854592	65155072	37533024	24992
774	5.652391	95854592	65155072	40863432	24992
775	8.013651	95854592	65155072	29129552	24992
776	7.987043	95854592	65155072	34120696	24992
777	9.337524	95854592	65155072	39941272	24992
778	12.278013	95854592	65155072	30755496	24992
779	11.889569	95854592	65155072	38239304	24992
780	15.064487	95854592	65155072	31020296	24992
781	14.50411	95854592	65155072	40179544	24992
782	2.644866	95854592	65155072	35256040	24992
783	3.975931	95854592	65155072	37786368	24992
784	5.324471	95854592	65155072	41141040	24992
785	8.798517	95854592	65155072	29461960	24992
786	8.014441	95854592	65155072	34501136	24992
787	9.311549	95854592	65155072	40382352	24992
788	12.546635	95854592	65155072	31267360	24992
789	12.030099	95854592	65155072	38854400	24992
790	15.304023	95854592	65155072	31689304	24992
791	14.77903	95854592	65155072	40965760	24992
792	2.61142	95854592	65155072	36022632	24992
793	3.962432	95854592	65155072	38566776	24992
794	5.364987	95854592	65155072	41961256	24992
795	8.274219	95854592	65155072	30193640	24992
796	8.223899	95854592	65155072	35306272	24992
797	9.504817	95854592	65155072	41264888	24992
798	12.604822	95854592	65155072	32065080	24992
799	12.277659	95854592	65155072	39753712	24992
800	15.307195	95854592	65155072	32613120	24992
801	15.104605	95854592	65155072	41991912	24992
802	2.713285	95854592	65155072	37059440	24992
803	4.203416	95854592	65155072	39641016	24992
804	5.43846	95854592	65155072	43080080	24992
805	8.361454	95854592	65155072	31245024	24992
806	7.889366	95854592	65155072	36406064	24992
807	9.593077	95854592	65155072	42427696	24992
808	12.573944	95854592	65155072	33176952	24992
809	12.248033	95854592	65155072	40926416	24992
810	15.720678	95854592	65155072	33721592	24992
811	15.220655	95854592	65155072	43209776	24992
812	2.725037	95854592	65155072	38258576	24992
813	4.114626	95854592	65155072	40861232	24992
814	7.449606	95854592	65155072	28649760	24992
815	6.938181	95854592	65155072	32991600	24992
816	8.119405	95854592	65155072	38218048	24992
817	11.656357	95854592	65155072	28987608	24992
818	11.654972	95854592	65155072	35946032	24992
819	12.424295	95854592	65155072	43785648	24992
820	15.294242	95854592	65155072	36192848	24992
821	17.625916	95854592	65155072	30822312	24992
822	2.767497	95854592	65155072	42341016	24992
823	5.735093	95854592	65155072	29071696	24992
824	5.568669	95854592	65155072	32583016	24992
825	7.129841	95854592	65155072	36973584	24992
826	8.354558	95854592	65155072	42245488	24992
827	11.562908	95854592	65155072	32528704	24992
828	11.22072	95854592	65155072	39565144	24992
829	14.676113	95854592	65155072	31980248	24992
830	14.759066	95854592	65155072	40794168	24992
831	17.343167	95854592	65155072	34747048	24992
832	2.890911	95854592	65155072	30101848	24992
833	3.99814	95854592	65155072	32762992	24992
834	5.613165	95854592	65155072	36322768	24992
835	7.015608	95854592	65155072	40774464	24992
836	10.62282	95854592	65155072	30587456	24992
837	9.860143	95854592	65155072	36822920	24992
838	11.215998	95854592	65155072	43976448	24992
839	13.988208	95854592	65155072	35755016	24992
840	14.167818	95854592	65155072	44719656	24992
841	16.600315	95854592	65155072	38183680	24992
842	2.849049	95854592	65155072	34815496	24992
843	4.276379	95854592	65155072	37555112	24992
844	5.83519	95854592	65155072	41212384	24992
845	9.331073	95854592	65155072	30126456	24992
846	8.763151	95854592	65155072	35620872	24992
847	10.155364	95854592	65155072	42039184	24992
848	13.264682	95854592	65155072	33549976	24992
849	12.797021	95854592	65155072	41822408	24992
850	16.401174	95854592	65155072	35216688	24992
851	18.389924	95854592	65155072	30701120	24992
852	2.882483	95854592	65155072	42822600	24992
853	6.018425	95854592	65155072	29811144	24992
854	5.811256	95854592	65155072	33549024	24992
855	7.348427	95854592	65155072	38227376	24992
856	8.795965	95854592	65155072	43871920	24992
857	11.963395	95854592	65155072	34447424	24992
858	11.62892	95854592	65155072	41945392	24992
859	14.822703	95854592	65155072	34595304	24992
860	14.851872	95854592	65155072	43997136	24992
861	17.41443	95854592	65155072	38204920	24992
862	3.053009	95854592	65155072	35407832	24992
863	4.317729	95854592	65155072	38237016	24992
864	5.858409	95854592	65155072	42017512	24992
865	9.449501	95854592	65155072	31119784	24992
866	8.739447	95854592	65155072	36789608	24992
867	10.397888	95854592	65155072	43453432	24992
868	13.839731	95854592	65155072	35029552	24992
869	13.004328	95854592	65155072	43545640	24992
870	16.575634	95854592	65155072	36953056	24992
871	18.793383	95854592	65155072	32554616	24992
872	2.927859	95854592	65155072	45029328	24992
873	5.982767	95854592	65155072	31747768	24992
874	5.784961	95854592	65155072	35562296	24992
875	7.339755	95854592	65155072	40330872	24992
876	10.956371	95854592	65155072	30779352	24992
877	10.04718	95854592	65155072	37481720	24992
878	11.901835	95854592	65155072	45129968	24992
879	14.786756	95854592	65155072	37471528	24992
880	17.258991	95854592	65155072	32097744	24992
881	16.628168	95854592	65155072	42634520	24992
882	3.132507	95854592	65155072	39410048	24992
883	4.390842	95854592	65155072	42317984	24992
884	8.055204	95854592	65679360	30565048	24992
885	7.395694	95854592	65679360	35381952	24992
886	8.849513	95854592	65679360	41177880	24992
887	12.57115	95854592	66203648	32450136	24992
888	12.213174	95854592	66203648	40186104	24992
889	15.561899	95854592	66203648	33611144	24992
890	15.128191	95854592	66203648	43289592	24992
891	18.54711	96124928	66203648	38005256	24992
892	3.008934	96124928	66203648	35793568	24992
893	4.52327	96124928	66203648	38710496	24992
894	6.153703	96124928	66203648	42610408	24992
895	10.000396	96124928	66203648	31887656	24992
896	9.023963	96124928	66203648	37739816	24992
897	10.712055	96124928	66203648	44562416	24992
898	13.806247	96124928	66203648	36312712	24992
899	13.674218	96124928	66203648	45105680	24992
900	16.917057	96395264	66203648	38750552	24992
901	19.099554	96395264	66203648	34454240	24992
902	4.934192	96395264	66203648	31361664	24992
903	4.355765	96395264	66203648	34307688	24992
904	6.086553	96395264	66203648	38265232	24992
905	7.530798	96395264	66203648	43179568	24992
906	11.306714	96665600	66727936	33477480	24992
907	10.744513	96665600	66727936	40394936	24992
908	14.474378	96665600	66727936	33044512	24992
909	13.678897	96665600	66727936	41922384	24992
910	17.535698	96665600	66727936	36191264	24992
911	19.317126	96665600	66727936	32510488	24992
912	2.989975	96665600	66727936	45468968	24992
913	6.217043	96665600	66727936	32508680	24992
914	6.261215	96665600	66727936	36492616	24992
915	7.617758	96665600	66727936	41455696	24992
916	11.442215	96935936	66727936	32192808	24992
917	10.74278	96935936	66727936	39164880	24992
918	12.989408	96935936	66727936	47125952	24992
919	15.308219	96935936	66727936	39653448	24992
920	17.94575	96935936	66727936	34566264	24992
921	16.987035	96935936	66727936	45537000	24992
922	3.02981	96935936	66727936	42564448	24992
923	4.593681	96935936	66727936	45613424	24992
924	7.898819	97206272	67252224	33698768	24992
925	7.651965	97206272	67252224	38713936	24992
926	9.320733	97206272	67252224	44744672	24992
927	12.995555	97206272	67252224	35859352	24992
928	12.665207	97206272	67252224	43890440	24992
929	16.007156	97206272	67252224	37192960	24992
930	15.645976	97206272	67252224	47266896	24992
931	18.883346	97206272	67252224	41968368	24992
932	3.153379	97206272	67252224	39826464	24992
933	4.645778	97206272	67252224	42868544	24992
934	6.37975	97206272	67252224	46921040	24992
935	9.576029	97476608	67252224	35875584	24992
936	9.510332	97476608	67252224	41960600	24992
937	13.251997	97476608	67252224	33695416	24992
938	12.431256	97476608	67252224	41811120	24992
939	16.733886	97476608	67252224	35560248	24992
940	15.949636	97476608	67252224	45742944	24992
941	19.35498	97476608	67252224	40816680	24992
942	3.20718	97476608	67252224	38949752	24992
943	4.728924	97476608	67252224	42012880	24992
944	6.527126	97476608	67252224	46103336	24992
945	9.727178	97746944	67776512	35268632	24992
946	9.271248	97746944	67776512	41410304	24992
947	13.627132	97746944	67776512	33394488	24992
948	12.678295	97746944	67776512	41580976	24992
949	16.908495	97746944	67776512	35608136	24992
950	15.672307	97746944	67776512	46070664	24992
951	19.180032	98017280	67776512	41460384	24992
952	3.210992	98017280	67776512	39760080	24992
953	4.810366	98017280	67776512	42852448	24992
954	6.355081	98017280	67776512	46977176	24992
955	10.166444	98017280	67776512	36132976	24992
956	9.804609	98017280	67776512	42326016	24992
957	13.274167	98017280	67776512	34205784	24992
958	12.648263	98017280	67776512	42471496	24992
959	16.996172	98287616	67776512	36421104	24992
960	15.819726	98287616	67776512	46915840	24992
961	19.487863	98287616	67776512	42305528	24992
962	3.212781	98287616	67776512	40553112	24992
963	4.84622	98287616	67776512	43674720	24992
964	6.499115	98287616	67776512	47838640	24992
965	10.004625	98557952	68300800	36935912	24992
966	9.761719	98557952	68300800	43187536	24992
967	13.660537	98557952	68300800	35137896	24992
968	13.146284	98557952	68300800	43480536	24992
969	16.862437	98557952	68300800	37382240	24992
970	16.073844	98557952	68300800	47834256	24992
971	19.818025	98557952	68300800	43053728	24992
972	3.260017	98557952	68300800	41445808	24992
973	5.012168	98557952	68300800	44596904	24992
974	6.567109	98557952	68300800	48799680	24992
975	9.957353	98828288	68300800	37804872	24992
976	9.842183	98828288	68300800	44114856	24992
977	13.628432	98828288	68300800	35940480	24992
978	13.437663	98828288	68300800	44360920	24992
979	17.20126	98828288	68300800	38333432	24992
980	16.678374	98828288	68300800	48869448	24992
981	19.715554	98828288	68300800	44101040	24992
982	3.170849	98828288	68300800	42392680	24992
983	4.884355	98828288	68300800	45618328	24992
984	8.789373	99098624	68825088	34311912	24992
985	8.198372	99098624	68825088	39654920	24992
986	9.964264	99098624	68825088	46023608	24992
987	13.581138	99098624	68825088	37654456	24992
988	13.451535	99098624	68825088	46153168	24992
989	17.087293	99098624	68825088	39862688	24992
990	19.372591	99098624	69349376	35808128	24992
991	18.272066	99098624	69349376	47551536	24992
992	3.326461	99098624	69349376	45428336	24992
993	5.017347	99098624	69349376	48637904	24992
994	8.779381	99368960	69349376	36866544	24992
995	8.248881	99368960	69349376	42219896	24992
996	10.189837	99368960	69349376	48646920	24992
997	13.397503	99368960	69349376	39895656	24992
998	13.390483	99368960	69349376	48472392	24992
999	16.935822	99368960	69349376	41920552	24992
1000	19.208343	99639296	69349376	37731320	24992
