x	Duration	RSS	HeapTotal	HeapUsed	External
0	NA	103583744	73019392	12008976	24992
1	0.341374	103583744	73019392	12060904	24992
2	0.279235	103583744	73019392	12137688	24992
3	0.316482	103583744	73019392	12241584	24992
4	0.38453	103583744	73019392	12374136	24992
5	0.458127	103583744	73019392	12536872	24992
6	1.130643	103583744	73019392	12730200	24992
7	0.645074	103583744	73019392	12955088	24992
8	0.709553	103583744	73019392	13212568	24992
9	0.818638	103583744	73019392	13508112	24992
10	0.846328	103583744	73019392	13835184	24992
11	0.943898	103583744	73019392	14198376	24992
12	0.216109	103583744	73019392	14590768	24992
13	0.331981	103583744	73019392	14703192	24992
14	0.426632	103583744	73019392	14854520	24992
15	0.525129	103583744	73019392	15045816	24992
16	0.633227	103583744	73019392	15278608	24992
17	0.927239	103583744	73019392	15553288	24992
18	0.839066	103583744	73019392	15870944	24992
19	0.963118	103583744	73019392	16233128	24992
20	1.068168	103583744	73019392	16641096	24992
21	1.235937	103583744	73019392	17095280	24992
22	0.181732	103583744	73019392	17604032	24992
23	0.270833	103583744	73019392	17746712	24992
24	0.348768	103583744	73019392	17939816	24992
25	0.436508	103583744	73019392	18183848	24992
26	0.530836	103583744	73019392	18480560	24992
27	0.606722	103583744	73019392	18830456	24992
28	0.681918	103583744	73019392	19234352	24992
29	0.771129	103583744	73019392	19693392	24992
30	0.860788	103583744	73019392	20209520	24992
31	1.08675	103583744	73019392	20783744	24992
32	0.217508	103583744	73019392	21435560	24992
33	0.325611	103583744	73019392	21610760	24992
34	0.440741	103583744	73019392	21848024	24992
35	0.496372	103583744	73019392	22143696	24992
36	0.586564	103583744	73019392	22501760	24992
37	0.904136	103583744	73019392	22922528	24992
38	0.799258	103583744	73019392	23407072	24992
39	0.875418	103583744	73019392	23956344	24992
40	0.979256	103583744	73019392	24572296	24992
41	1.086057	103583744	73019392	25254968	24992
42	0.23204	103583744	73019392	26038224	24992
43	0.349786	103583744	73019392	26242448	24992
44	0.455764	103583744	73019392	26516264	24992
45	0.563976	103583744	73019392	26862016	24992
46	0.739538	103583744	73019392	27279848	24992
47	0.810092	103583744	73019392	27770888	24992
48	0.906774	103583744	73019392	28336144	24992
49	1.95882	103583744	73019392	12716216	24992
50	1.438922	103583744	73019392	13438152	24992
51	1.248444	103583744	73019392	14237008	24992
52	0.270979	103583744	73019392	15162672	24992
53	0.398824	103583744	73019392	15404472	24992
54	0.517515	103583744	73019392	15728408	24992
55	0.641553	103583744	73019392	16135480	24992
56	0.863268	103583744	73019392	16628008	24992
57	0.896179	103583744	73019392	17204840	24992
58	1.03313	103583744	73019392	17867672	24992
59	1.144076	103583744	73019392	18617680	24992
60	1.275526	103583744	73019392	19456456	24992
61	1.638792	103583744	73019392	20384256	24992
62	0.310568	103583744	73019392	21458600	24992
63	0.448384	103583744	73019392	21729768	24992
64	0.643312	103583744	73019392	22092744	24992
65	0.79075	103583744	73019392	22551256	24992
66	0.857559	103583744	73019392	23101440	24992
67	1.012164	103583744	73019392	23746528	24992
68	1.135788	103583744	73019392	24487320	24992
69	1.285376	103583744	73019392	25324920	24992
70	1.435353	103583744	73019392	26261272	24992
71	1.780621	103583744	73019392	27296304	24992
72	0.321926	103583744	73019392	28497952	24992
73	0.483854	103583744	73019392	28798264	24992
74	1.455121	103583744	73019392	12982328	24992
75	0.860534	103583744	73019392	13486928	24992
76	1.027023	103583744	73019392	14095720	24992
77	1.194816	103583744	73019392	14809048	24992
78	1.370053	103583744	73019392	15627920	24992
79	1.539421	103583744	73019392	16553328	24992
80	1.730763	103583744	73019392	17587344	24992
81	1.939039	103583744	73019392	18730768	24992
82	0.379923	103583744	73019392	20063568	24992
83	0.57412	103583744	73019392	20393128	24992
84	0.757683	103583744	73019392	20836288	24992
85	0.946803	103583744	73019392	21391824	24992
86	1.137568	103583744	73019392	22062392	24992
87	1.307182	103583744	73019392	22848376	24992
88	1.498789	103583744	73019392	23750792	24992
89	1.851393	103583744	73019392	24770704	24992
90	1.750287	103583744	73019392	25909928	24992
91	1.926	103583744	73019392	27168536	24992
92	0.385781	103583744	73019392	28640992	24992
93	0.590376	103583744	73019392	29003120	24992
94	1.379082	103583744	73019392	13184760	24992
95	0.979425	103583744	73019392	13792544	24992
96	1.136817	103583744	73019392	14524960	24992
97	1.553648	103583744	73019392	15383392	24992
98	1.557991	103583744	73019392	16367296	24992
99	1.710046	103583744	73019392	17478536	24992
100	1.890983	103583744	73019392	18719024	24992
101	2.096394	103583744	73019392	20088248	24992
102	0.410975	103583744	73019392	21703712	24992
103	0.624	103583744	73019392	22107616	24992
104	0.839318	103583744	73019392	22648448	24992
105	1.038905	103583744	73019392	23325680	24992
106	1.227608	103583744	73019392	24141672	24992
107	1.440829	103583744	73019392	25096752	24992
108	1.640288	103583744	73019392	26192056	24992
109	1.852746	103583744	73019392	27428256	24992
110	2.057322	103583744	73019392	28808128	24992
111	3.112519	103583744	73019392	14049024	24992
112	0.456748	103583744	73019392	15839968	24992
113	0.678145	103583744	73019392	16273168	24992
114	0.892428	103583744	73019392	16852304	24992
115	1.115185	103583744	73019392	17578328	24992
116	1.341983	103583744	73019392	18452800	24992
117	1.729721	103583744	73019392	19477720	24992
118	1.788086	103583744	73019392	20650904	24992
119	2.180071	103583744	73019392	21976840	24992
120	2.265662	103583744	73019392	23459456	24992
121	2.449314	103583744	73019392	25089072	24992
122	0.478252	103583744	73019392	27004640	24992
123	0.717965	103583744	73019392	27467376	24992
124	0.949298	103583744	73019392	28085440	24992
125	1.41272	103583744	73019392	28860192	24992
126	2.00813	103583744	73019392	13516768	24992
127	1.788059	103583744	73019392	14608328	24992
128	2.208388	103583744	73019392	15861592	24992
129	2.282547	103583744	73019392	17273376	24992
130	2.653501	103583744	73019392	18849704	24992
131	2.612068	103583744	73019392	20586696	24992
132	0.507544	103583744	73019392	22629680	24992
133	0.760081	103583744	73019392	23121328	24992
134	1.05865	103583744	73019392	23778408	24992
135	1.254495	103583744	73019392	24601992	24992
136	1.498771	103583744	73019392	25593376	24992
137	1.812273	103583744	73019392	26753816	24992
138	2.010363	103583744	73019392	28083016	24992
139	2.917434	103583744	73019392	13438736	24992
140	2.723754	103583744	73019392	15110408	24992
141	2.960941	103583744	73019392	16954520	24992
142	0.568901	103583744	73019392	19132128	24992
143	0.874296	103583744	73019392	19658512	24992
144	1.148112	103583744	73019392	20362048	24992
145	1.428439	103583744	73019392	21243456	24992
146	1.723254	103583744	73019392	22304456	24992
147	1.994607	103583744	73019392	23545512	24992
148	2.275619	103583744	73019392	24967264	24992
149	2.452779	103583744	73019392	26570976	24992
150	2.752226	103583744	73019392	28359640	24992
151	3.559323	103583744	73019392	14148144	24992
152	0.574089	103583744	73019392	16471080	24992
153	0.856833	103583744	73019392	17026776	24992
154	1.143034	103583744	73019392	17769160	24992
155	1.41802	103583744	73019392	18699416	24992
156	1.691838	103583744	73019392	19818896	24992
157	1.992707	103583744	73019392	21128160	24992
158	2.260504	103583744	73019392	22632856	24992
159	2.811838	103583744	73019392	24324336	24992
160	2.856301	103583744	73019392	26209544	24992
161	3.12065	103583744	73019392	28288352	24992
162	0.610567	103583744	73019392	14588936	24992
163	0.915282	103583744	73019392	15173952	24992
164	1.200519	103583744	73019392	15955440	24992
165	1.548603	103583744	73019392	16934392	24992
166	1.786822	103583744	73019392	18114376	24992
167	2.126445	103583744	73019392	19494784	24992
168	2.383754	103583744	73019392	21073112	24992
169	2.913778	103583744	73019392	22852496	24992
170	3.213081	103583744	73019392	24835168	24992
171	4.2632	103583744	73019392	27021448	24992
172	0.687048	103583744	73019392	29621920	24992
173	1.475159	103583744	73019392	13880296	24992
174	1.353489	103583744	73019392	14700792	24992
175	1.676913	103583744	73019392	15728568	24992
176	2.013938	103583744	73019392	16964984	24992
177	2.337295	103583744	73019392	18410592	24992
178	2.807916	103583744	73019392	20066416	24992
179	2.8331	103583744	73019392	21934984	24992
180	3.165614	103583744	73019392	24015576	24992
181	3.456602	103583744	73019392	26309592	24992
182	0.673301	103583744	73019392	29023112	24992
183	1.000994	103583744	73019392	29666528	24992
184	1.808278	103583744	73019392	14175536	24992
185	1.770967	103583744	73019392	15252016	24992
186	2.101486	103583744	73019392	16547024	24992
187	2.46796	103583744	73019392	18061008	24992
188	2.807557	103583744	73019392	19794896	24992
189	3.098444	103583744	73019392	21749640	24992
190	3.307073	103583744	73019392	23927336	24992
191	3.883323	103583744	73019392	26327856	24992
192	0.691546	103583744	73019392	29167728	24992
193	1.050722	103583744	73019392	29840392	24992
194	1.798744	103583744	73019392	14387600	24992
195	1.730069	103583744	73019392	15512856	24992
196	2.292774	103583744	73019392	16866352	24992
197	2.4178	103583744	73019392	18448480	24992
198	2.749036	103583744	73019392	20263048	24992
199	3.103488	103583744	73019392	22305568	24992
200	3.460616	103583744	73019392	24580744	24992
201	3.844697	103583744	73019392	27091072	24992
202	0.723513	103583744	73019392	30067352	24992
203	1.715274	103583744	73019392	14374576	24992
204	1.448493	103583744	73019392	15312064	24992
205	1.807149	103583744	73019392	16486104	24992
206	2.166358	103583744	73019392	17898016	24992
207	2.527492	103583744	73019392	19556744	24992
208	2.946672	103583744	73019392	21463096	24992
209	3.507466	103583744	73019392	23618152	24992
210	3.861359	103583744	73019392	26023768	24992
211	4.245366	103583744	73019392	28680104	24992
212	0.807462	103583744	73019392	15691968	24992
213	1.21279	103583744	73019392	16447888	24992
214	1.614182	103583744	73019392	17457352	24992
215	2.225014	103583744	73019392	18721264	24992
216	2.56205	103583744	73019392	20241368	24992
217	2.759556	103583744	73019392	22018008	24992
218	3.699545	103583744	73019392	24052176	24992
219	3.832535	103583744	73019392	26354016	24992
220	4.362657	103583744	73019392	28909440	24992
221	5.079915	103583744	73019392	15547536	24992
222	0.833077	103583744	73019392	18891760	24992
223	1.252038	103583744	73019392	19676880	24992
224	1.66623	103583744	73019392	20725272	24992
225	2.076749	103583744	73019392	22038312	24992
226	2.507588	103583744	73019392	23618184	24992
227	3.116486	103583744	73019392	25463000	24992
228	3.336858	103583744	73019392	27575056	24992
229	3.949173	103583744	73019392	29960992	24992
230	4.593213	103583744	73019392	16290040	24992
231	4.625908	103583744	73019392	19221920	24992
232	0.908589	103583744	73019392	22710056	24992
233	1.514774	103583744	73019392	23533088	24992
234	1.740039	103583744	73019392	24632024	24992
235	2.175461	103583744	73019392	26007864	24992
236	2.611688	103583744	73019392	27662184	24992
237	3.039464	103583744	73019392	29596088	24992
238	4.230477	103583744	73019392	15550928	24992
239	3.992947	103583744	73019392	18046368	24992
240	4.895917	103583744	73019392	20824632	24992
241	4.911832	103583744	73019392	23883944	24992
242	0.86288	103583744	73019392	27524336	24992
243	1.540345	103583744	73019392	28376568	24992
244	1.81548	103583744	73019392	29514568	24992
245	2.778985	103583744	73019392	14722560	24992
246	2.721592	103583744	73019392	16435112	24992
247	3.156269	103583744	73019392	18444112	24992
248	3.746638	103583744	73019392	20734672	24992
249	4.084828	103583744	73019392	23315728	24992
250	4.535922	103583744	73019392	26189912	24992
251	5.380474	103583744	73019392	29358400	24992
252	1.122522	103583744	73019392	16908968	24992
253	1.420219	103583744	73019392	17791592	24992
254	1.869583	103583744	73019392	18968432	24992
255	2.340168	103583744	73019392	20441672	24992
256	2.805772	103583744	73019392	22212624	24992
257	3.467233	103583744	73019392	24282024	24992
258	3.712785	103583744	73019392	26654904	24992
259	4.184751	103583744	73019392	29323824	24992
260	5.288842	103583744	73019392	16128496	24992
261	5.162224	103583744	73019392	19401880	24992
262	0.938943	103583744	73019392	23294224	24992
263	1.42371	103583744	73019392	24205016	24992
264	1.939413	103583744	73019392	25424128	24992
265	2.415505	103583744	73019392	26946072	24992
266	2.908602	103583744	73019392	28775624	24992
267	4.052474	103583744	73019392	14865496	24992
268	3.884399	103583744	73019392	17312104	24992
269	4.370192	103583744	73019392	20068768	24992
270	4.866553	103583744	73019392	23142256	24992
271	5.363239	103583744	73019392	26528400	24992
272	0.995452	103583744	73019392	30543392	24992
273	1.951896	103583744	73019392	15134152	24992
274	1.947684	103583744	73019392	16388992	24992
275	2.503692	103583744	73019392	17959672	24992
276	3.162764	103583744	73019392	19847696	24992
277	3.440103	103583744	73019392	22053560	24992
278	4.000051	103583744	73019392	24578160	24992
279	4.534822	103583744	73019392	27428776	24992
280	5.038352	103583744	73019392	30594888	24992
281	6.160854	103583744	73019392	17744632	24992
282	1.032852	103583744	73019392	21883800	24992
283	1.726161	103583744	73019392	22853096	24992
284	1.962554	103583744	73019392	24149288	24992
285	2.756214	103583744	73019392	25768776	24992
286	3.110721	103583744	73019392	27715288	24992
287	3.674425	103583744	73019392	29989376	24992
288	4.901722	103583744	73019392	16366984	24992
289	4.666133	103583744	73019392	19298968	24992
290	5.175093	103583744	73019392	22568472	24992
291	5.953342	103583744	73019392	26175680	24992
292	1.276205	103583744	73019392	30442016	24992
293	2.050265	103583744	73019392	15149640	24992
294	2.141312	103583744	73019392	16482384	24992
295	2.667434	103583744	73019392	18150520	24992
296	3.188171	103583744	73019392	20160152	24992
297	4.411674	103583744	73019392	22502352	24992
298	4.515752	103583744	73019392	25191848	24992
299	4.99167	103583744	73019392	28211392	24992
300	6.083925	103583744	73019392	15703192	24992
301	6.042314	103583744	73019392	19408440	24992
302	1.092865	103583744	73019392	23806096	24992
303	1.638867	103583744	73019392	24833760	24992
304	2.203161	103583744	73019392	26205616	24992
305	2.723317	103583744	73019392	27922552	24992
306	3.28086	103583744	73019392	29985896	24992
307	4.455383	103583744	73019392	16300992	24992
308	4.589241	103583744	73019392	19059568	24992
309	4.976116	103583744	73019392	22166896	24992
310	5.636084	103583744	73019392	25625216	24992
311	6.044229	103583744	73019392	29434464	24992
312	1.141881	103583744	73019392	17971304	24992
313	1.699353	103583744	73019392	19028256	24992
314	2.259498	103583744	73019392	20439024	24992
315	2.80972	103583744	73019392	22204648	24992
316	3.544462	103583744	73019392	24326960	24992
317	3.95748	103583744	73019392	26805704	24992
318	4.50825	103583744	73019392	29647456	24992
319	5.680959	103583744	73019392	16821680	24992
320	5.650191	103583744	73019392	20378792	24992
321	6.429238	103583744	73019392	24298856	24992
322	1.106944	103583744	73019392	28948680	24992
323	1.72927	103583744	73019392	30034992	24992
324	2.314514	103583744	73019392	31484672	24992
325	3.406216	103583744	73019392	16993576	24992
326	3.497439	103583744	73019392	19174064	24992
327	4.055574	103583744	73019392	21721088	24992
328	4.624158	103583744	73019392	24637528	24992
329	5.317292	103583744	73019392	27920352	24992
330	5.831031	103583744	73019392	31573888	24992
331	7.103888	103583744	73019392	19290520	24992
332	1.178077	103583744	73019392	24065328	24992
333	1.763271	103583744	73019392	25180808	24992
334	2.345481	103583744	73019392	26671544	24992
335	2.955032	103583744	73019392	28536240	24992
336	3.605116	103583744	73019392	30775112	24992
337	4.997495	103583744	73019392	17269272	24992
338	4.845638	103583744	73019392	20264512	24992
339	5.426978	103583744	73019392	23635168	24992
340	6.159717	103583744	73019392	27387096	24992
341	6.588855	103583744	73019392	31519984	24992
342	1.226696	103583744	73019392	20183336	24992
343	2.034264	103583744	73019392	21328024	24992
344	2.450466	103583744	73019392	22855792	24992
345	3.214355	103583744	73019392	24767656	24992
346	3.869923	103583744	73019392	27065120	24992
347	4.477492	103583744	73019392	29748872	24992
348	6.502851	103583744	73019392	16899680	24992
349	5.394707	103583744	73019392	20369216	24992
350	6.15305	103583744	73019392	24217832	24992
351	6.910527	103583744	73019392	28456008	24992
352	1.268013	103583744	73019392	17775592	24992
353	1.900893	103583744	73019392	18949520	24992
354	2.506275	103583744	73019392	20516392	24992
355	3.130405	103583744	73019392	22477064	24992
356	3.785984	103583744	73019392	24846360	24992
357	4.417488	103583744	73019392	27598296	24992
358	5.050977	103583744	73019392	30746880	24992
359	6.645481	103583744	73019392	18239680	24992
360	6.537554	103583744	73019392	22197312	24992
361	6.919349	103583744	73019392	26551784	24992
362	1.285736	103583744	73019392	31748840	24992
363	2.607523	103583744	73019392	16786520	24992
364	2.591445	103583744	73019392	18415168	24992
365	3.612693	103583744	73019392	20446824	24992
366	3.888522	103583744	73019392	22888040	24992
367	4.421345	103583744	73019392	25739176	24992
368	5.35852	103583744	73019392	29001152	24992
369	6.834153	103583744	73019392	16970696	24992
370	6.508767	103583744	73019392	21060904	24992
371	7.127592	103583744	73019392	25576360	24992
372	1.315111	103583744	73019392	30953848	24992
373	1.984984	103583744	73019392	32199640	24992
374	3.434102	103583744	73019392	17620296	24992
375	3.247479	103583744	73019392	19702608	24992
376	3.947885	103583744	73019392	22203432	24992
377	4.658826	103583744	73019392	25130824	24992
378	5.301532	103583744	73019392	28471816	24992
379	6.171542	103583744	73019392	32233568	24992
380	7.240666	103583744	73019392	20178960	24992
381	7.691816	103583744	73019392	24790568	24992
382	1.559096	103583744	73019392	30279520	24992
383	2.052836	103583744	73019392	31554640	24992
384	3.451627	103583744	73019392	17162752	24992
385	3.398014	103583744	73019392	19297560	24992
386	4.065794	103583744	73019392	21855768	24992
387	4.761964	103583744	73019392	24843552	24992
388	5.659477	103583744	73019392	28261648	24992
389	6.113711	103583744	73019392	32120504	24992
390	7.636233	103583744	73019392	20223088	24992
391	7.353269	103583744	73019392	24939528	24992
392	1.383234	103583744	73019392	30555840	24992
393	2.086741	103583744	73019392	31860728	24992
394	3.735497	103583744	73019392	17499400	24992
395	3.449372	103583744	73019392	19677312	24992
396	4.161409	103583744	73019392	22293984	24992
397	5.193114	103583744	73019392	25354376	24992
398	5.570648	103583744	73019392	28850512	24992
399	6.163203	103583744	73019392	32791344	24992
400	7.657057	103583744	73019392	20923088	24992
401	7.877355	103583744	73019392	25746848	24992
402	1.412703	103583744	73019392	31495880	24992
403	2.136402	103583744	73019392	32829464	24992
404	3.523724	103583744	73019392	18373776	24992
405	3.559268	103583744	73019392	20600416	24992
406	4.411342	103583744	73019392	23276616	24992
407	4.969465	103583744	73019392	26403896	24992
408	5.729943	103583744	73019392	29978040	24992
409	7.336435	103583744	73019392	18277568	24992
410	7.290732	103583744	73019392	22765112	24992
411	8.174361	103583744	73019392	27698744	24992
412	2.094959	103583744	73019392	17410848	24992
413	2.097238	103583744	73019392	18773528	24992
414	2.890687	103583744	73019392	20597952	24992
415	3.576193	103583744	73019392	22873488	24992
416	4.485683	103583744	73019392	25609736	24992
417	5.05076	103583744	73019392	28820824	24992
418	5.981326	103583744	73019392	32505864	24992
419	7.351544	103583744	73019392	20536352	24992
420	7.322495	103583744	73019392	25178352	24992
421	8.022521	103583744	73019392	30298640	24992
422	1.49011	103583744	73019392	20651128	24992
423	2.437985	103583744	73019392	22092520	24992
424	3.263107	103583744	73019392	24019256	24992
425	3.700956	103583744	73019392	26426792	24992
426	4.435544	103583744	73019392	29317648	24992
427	5.154926	103583744	73019392	32695720	24992
428	6.971985	103583744	73019392	20442208	24992
429	6.714092	103583744	73019392	24793352	24992
430	7.550652	103583744	73019392	29643872	24992
431	9.233841	103583744	73543680	19302720	24992
432	1.507939	103583744	73543680	25674712	24992
433	2.449733	103583744	73543680	27156288	24992
434	2.907396	103583744	73543680	29120960	24992
435	3.582421	103583744	73543680	31576096	24992
436	5.593065	103854080	73543680	18617544	24992
437	5.309236	103854080	73543680	22067432	24992
438	6.288833	103854080	73543680	26014584	24992
439	6.863008	103854080	73543680	30452064	24992
440	8.805673	103854080	73543680	19724696	24992
441	8.579688	103854080	73543680	25160360	24992
442	1.542341	103854080	73543680	31650344	24992
443	2.433414	103854080	73543680	33153560	24992
444	3.983061	103854080	73543680	19015176	24992
445	3.871842	103854080	73543680	21519144	24992
446	4.59926	103854080	73543680	24527008	24992
447	5.237784	103854080	73543680	28053984	24992
448	6.315951	103854080	73543680	32079496	24992
449	7.936429	104124416	73543680	20685072	24992
450	7.984482	104124416	73543680	25717808	24992
451	8.565982	104124416	73543680	31277616	24992
452	1.545089	104124416	73543680	22051904	24992
453	2.354844	104124416	73543680	23601664	24992
454	3.121976	104124416	73543680	25667584	24992
455	4.14479	104124416	73543680	28249664	24992
456	4.660239	104124416	73543680	31327584	24992
457	6.673326	104124416	73543680	19129848	24992
458	6.20782	104124416	73543680	23246544	24992
459	7.299451	104124416	73543680	27876552	24992
460	7.910754	104124416	73543680	33040400	24992
461	9.733397	104124416	73543680	22537056	24992
462	1.604905	104124416	73543680	29273736	24992
463	2.429104	104124416	73543680	30832184	24992
464	3.209964	104124416	73543680	32911608	24992
465	4.964064	104124416	73543680	19527712	24992
466	4.805935	104124416	73543680	22652752	24992
467	5.850118	104124416	73543680	26301520	24992
468	6.477689	104124416	73543680	30475104	24992
469	8.508054	104124416	73543680	19643360	24992
470	8.279772	104124416	73543680	24872368	24992
471	9.149421	104124416	73543680	30747976	24992
472	1.850057	104124416	73543680	21905072	24992
473	2.471788	104124416	73543680	23492656	24992
474	3.344563	104124416	73543680	25637920	24992
475	4.168527	104124416	73543680	28288064	24992
476	5.121804	104124416	73543680	31471616	24992
477	6.998302	104124416	73543680	19475912	24992
478	6.808918	104124416	73543680	23750848	24992
479	7.478436	104124416	73543680	28538256	24992
480	8.255646	104124416	73543680	33863392	24992
481	10.138424	104124416	73543680	23537080	24992
482	1.583267	104124416	73543680	30536624	24992
483	2.658652	104124416	73543680	32153528	24992
484	3.523229	104124416	73543680	34310904	24992
485	5.042377	104124416	73543680	20863920	24992
486	5.012129	104124416	73543680	24105800	24992
487	5.672729	104124416	73543680	27894216	24992
488	6.891933	104124416	73543680	32224000	24992
489	8.821759	104124416	73543680	21308312	24992
490	8.704524	104124416	73543680	26731000	24992
491	9.157994	104124416	73543680	32702984	24992
492	1.636508	104124416	73543680	23851160	24992
493	2.527541	104124416	73543680	25501056	24992
494	3.368324	104124416	73543680	27718128	24992
495	4.485032	104124416	73543680	30465840	24992
496	5.144227	104124416	73543680	33766272	24992
497	6.971494	104124416	73543680	21567264	24992
498	6.73202	104124416	73543680	25975104	24992
499	7.891056	104124416	73543680	30962728	24992
500	9.947534	104124416	73543680	20892240	24992
501	9.501784	104124416	73543680	26979992	24992
502	1.66429	104124416	73543680	34241280	24992
503	3.538766	104124416	73543680	19861584	24992
504	3.493218	104124416	73543680	22097008	24992
505	4.343796	104124416	73543680	24909568	24992
506	5.42689	104124416	73543680	28268496	24992
507	6.120361	104124416	73543680	32202416	24992
508	8.378084	104124416	73543680	20966416	24992
509	7.900527	104124416	73543680	26017056	24992
510	8.940329	104124416	73543680	31637480	24992
511	10.75773	104124416	73543680	22159112	24992
512	1.850867	104124416	73543680	29540880	24992
513	2.784693	104124416	73543680	31255688	24992
514	3.520084	104124416	73543680	33530144	24992
515	5.505138	104124416	73543680	20453744	24992
516	5.406741	104124416	73543680	23871200	24992
517	6.207709	104124416	73543680	27875472	24992
518	7.16672	104124416	73543680	32451080	24992
519	9.143896	104124416	73543680	21871600	24992
520	9.126387	104124416	73543680	27591560	24992
521	9.763863	104124416	73543680	33902592	24992
522	1.833757	104124416	73543680	25369848	24992
523	2.718814	104124416	73543680	27103728	24992
524	3.606769	104124416	73543680	29417016	24992
525	4.517332	104124416	73543680	32310952	24992
526	5.788513	104124416	73543680	35793568	24992
527	7.401617	104124416	73543680	23633856	24992
528	7.197672	104124416	73543680	28284480	24992
529	8.102263	104124416	73543680	33513824	24992
530	10.412964	104124416	73543680	23401792	24992
531	10.059906	104124416	73543680	29810944	24992
532	2.698987	104124416	73543680	21136288	24992
533	2.759533	104124416	73543680	22899392	24992
534	3.65375	104124416	73543680	25252248	24992
535	4.785608	104124416	73543680	28195368	24992
536	5.487759	104124416	73543680	31729712	24992
537	6.632233	104124416	73543680	35856128	24992
538	8.24976	104124416	73543680	24354136	24992
539	8.306738	104124416	73543680	29687984	24992
540	9.287985	104124416	73543680	35614128	24992
541	11.087662	104124416	73543680	25918632	24992
542	1.82152	104124416	73543680	33688488	24992
543	2.802517	104124416	73543680	35480816	24992
544	4.700319	104124416	73543680	21747728	24992
545	4.75975	104124416	73543680	24739144	24992
546	5.438731	104124416	73543680	28332024	24992
547	6.553644	104124416	73543680	32526872	24992
548	8.887581	104124416	73543680	21694912	24992
549	8.364433	104124416	73543680	27098232	24992
550	9.439749	104124416	73543680	33118776	24992
551	11.497825	104124416	73543680	23945832	24992
552	1.887903	104124416	73543680	31827344	24992
553	2.849571	104124416	73543680	33648952	24992
554	3.997263	104124416	73543680	36094728	24992
555	5.757082	104124416	73543680	22955192	24992
556	5.925214	104124416	73543680	26626448	24992
557	6.650162	104124416	73543680	30924360	24992
558	7.63217	104124416	73543680	35823080	24992
559	9.993393	104124416	73543680	25229576	24992
560	9.435684	104124416	73543680	31368752	24992
561	12.177034	104124416	73543680	22739440	24992
562	1.921777	104124416	73543680	30812480	24992
563	2.995596	104124416	73543680	32698704	24992
564	3.734749	104124416	73543680	35208840	24992
565	6.116392	104124416	73543680	22335976	24992
566	6.030353	104124416	73543680	26094360	24992
567	6.727584	104124416	73543680	30477496	24992
568	7.768127	104124416	73543680	35486056	24992
569	10.131039	104124416	73543680	25139520	24992
570	9.951771	104124416	73543680	31414536	24992
571	12.313098	104124416	74067968	22997800	24992
572	1.958543	104124416	74067968	31252856	24992
573	2.949281	104124416	74067968	33153336	24992
574	4.098411	104124416	74067968	35700656	24992
575	6.185148	104124416	74067968	22870296	24992
576	5.797587	104124416	74067968	26681832	24992
577	6.912076	104124416	74067968	31129032	24992
578	8.077756	104124416	74067968	36215096	24992
579	10.046086	104394752	74067968	25841160	24992
580	10.084398	104394752	74067968	32211712	24992
581	12.31716	104394752	74067968	23772984	24992
582	1.897336	104394752	74067968	32153312	24992
583	2.911264	104394752	74067968	34093352	24992
584	4.092932	104394752	74067968	36674792	24992
585	6.28776	104394752	74067968	23781096	24992
586	6.01512	104394752	74067968	27656504	24992
587	7.040448	104394752	74067968	32191352	24992
588	8.206365	104394752	74067968	37370112	24992
589	10.220264	104665088	74067968	26953208	24992
590	9.704108	104665088	74067968	33436784	24992
591	12.552761	104665088	74067968	24900920	24992
592	2.229764	104665088	74067968	33387784	24992
593	3.052647	104665088	74067968	35346760	24992
594	5.087463	104665088	74067968	22071400	24992
595	5.042994	104665088	74067968	25352416	24992
596	6.109147	104665088	74067968	29280448	24992
597	7.28153	104665088	74067968	33885304	24992
598	10.421236	104665088	74067968	23506248	24992
599	9.171985	104665088	74067968	29410320	24992
600	10.138066	104665088	74067968	35981600	24992
601	12.551283	104665088	74067968	27138432	24992
602	2.067623	104665088	74067968	35790752	24992
603	3.088633	104665088	74067968	37778976	24992
604	5.147967	104665088	74067968	24220648	24992
605	5.293867	104665088	74067968	27538536	24992
606	6.332022	104665088	74067968	31523224	24992
607	7.47808	104665088	74067968	36175128	24992
608	9.473418	104665088	74067968	25527704	24992
609	9.195496	104665088	74067968	31519720	24992
610	10.536678	104665088	74067968	38204208	24992
611	12.636482	104665088	74067968	29121256	24992
612	2.076858	104665088	74067968	37878304	24992
613	4.373628	104665088	74067968	23682512	24992
614	4.196524	104665088	74067968	26374016	24992
615	5.423694	104665088	74067968	29764288	24992
616	6.184171	104665088	74067968	33818368	24992
617	8.956364	104665088	74067968	23034088	24992
618	8.627296	104665088	74067968	28437968	24992
619	9.473042	104665088	74067968	34524280	24992
620	12.47754	104665088	74067968	25570512	24992
621	11.590181	104665088	74067968	33011680	24992
622	2.134861	104665088	74067968	26547104	24992
623	3.196982	104665088	74067968	28613656	24992
624	4.279868	104665088	74067968	31344912	24992
625	5.361206	104665088	74067968	34766024	24992
626	8.139453	104665088	74067968	23270688	24992
627	7.497754	104665088	74067968	28062040	24992
628	8.678579	104665088	74067968	33539688	24992
629	11.122045	104665088	74067968	24247728	24992
630	10.773534	104665088	74067968	31108936	24992
631	11.849525	104665088	74067968	38672240	24992
632	2.1486	104665088	74067968	31264688	24992
633	3.236831	104665088	74067968	33360352	24992
634	4.244911	104665088	74067968	36130496	24992
635	6.711891	104665088	74067968	23771496	24992
636	6.663389	104665088	74067968	27932680	24992
637	7.596219	104665088	74067968	32789328	24992
638	8.940087	104665088	74067968	38354552	24992
639	11.033013	104665088	74067968	28410336	24992
640	11.620648	104665088	74067968	35394608	24992
641	13.803167	104665088	74067968	27335536	24992
642	2.083321	104665088	74067968	36461560	24992
643	3.17946	104665088	74067968	38566864	24992
644	5.442642	104665088	74067968	25174416	24992
645	5.649996	104665088	74067968	28707048	24992
646	6.585857	104665088	74067968	32925880	24992
647	7.712973	104665088	74067968	37855240	24992
648	10.053274	104665088	74067968	27418408	24992
649	10.28721	104665088	74067968	33758744	24992
650	12.925421	104665088	74067968	25387328	24992
651	12.156433	104665088	74067968	33148064	24992
652	2.241389	104665088	74067968	27084216	24992
653	3.356058	104665088	74067968	29218792	24992
654	4.659775	104665088	74067968	32071120	24992
655	5.51072	104665088	74067968	35632752	24992
656	8.360964	104665088	74067968	24343120	24992
657	8.037321	104665088	74067968	29342416	24992
658	8.875817	104665088	74067968	35052344	24992
659	11.758499	104665088	74067968	25925472	24992
660	11.117792	104665088	74067968	33073432	24992
661	13.915597	104665088	74067968	25726904	24992
662	2.26215	104665088	74067968	35123896	24992
663	3.22768	104665088	74067968	37296864	24992
664	5.875269	104665088	74067968	24381728	24992
665	5.88753	104665088	74067968	27991976	24992
666	6.801123	104665088	74067968	32327552	24992
667	8.116996	104665088	74067968	37400144	24992
668	10.642048	104665088	74067968	27294896	24992
669	10.248802	104665088	74067968	33819608	24992
670	13.318251	104665088	74067968	25810464	24992
671	12.701096	104665088	74067968	33801792	24992
672	2.521943	104665088	74067968	28029160	24992
673	3.345912	104665088	74067968	30229952	24992
674	4.449229	104665088	74067968	33156600	24992
675	5.879951	104665088	74067968	36822728	24992
676	8.706059	104665088	74067968	25550936	24992
677	8.061158	104665088	74067968	30718760	24992
678	9.243507	104665088	74067968	36598480	24992
679	11.804415	104665088	74067968	27432200	24992
680	11.475578	104665088	74067968	34787096	24992
681	14.50084	104665088	74067968	27485496	24992
682	2.315969	104665088	74067968	37121024	24992
683	3.443858	104665088	74067968	39343408	24992
684	5.907532	104665088	74067968	26172664	24992
685	5.960202	104665088	74067968	29880832	24992
686	6.964478	104665088	74067968	34333728	24992
687	8.39904	104665088	74067968	39542816	24992
688	10.566806	104665088	74067968	29310656	24992
689	10.738116	104665088	74067968	36008552	24992
690	13.596579	104665088	74067968	27819552	24992
691	12.741514	104665088	74067968	36030712	24992
692	2.372689	104665088	74067968	30189792	24992
693	3.684445	104665088	74067968	32456280	24992
694	4.714099	104665088	74067968	35472848	24992
695	5.932202	104665088	74067968	39229416	24992
696	8.750708	104665088	74067968	27688872	24992
697	8.463217	104665088	74067968	32957552	24992
698	9.658357	104665088	74067968	38987064	24992
699	12.169723	104665088	74067968	29653864	24992
700	11.912922	104665088	74067968	37197112	24992
701	15.085072	104665088	74067968	29741352	24992
702	2.378017	104665088	74067968	39654584	24992
703	4.854777	104665088	74067968	25887000	24992
704	4.736761	104665088	74067968	28929608	24992
705	6.00209	104665088	74067968	32735592	24992
706	7.10994	104665088	74067968	37309896	24992
707	10.302277	104665088	74067968	27006800	24992
708	9.48142	104665088	74067968	33122048	24992
709	10.969677	104665088	74067968	40004688	24992
710	13.388861	104665088	74067968	31378264	24992
711	13.032985	104665088	74067968	39785144	24992
712	2.591328	104665088	74067968	33638088	24992
713	3.573695	104665088	74067968	35949392	24992
714	4.9823	104665088	74067968	39031032	24992
715	7.241403	104665088	74067968	26961232	24992
716	7.21112	104665088	74067968	31608512	24992
717	8.500566	104665088	74067968	37047776	24992
718	11.660733	104665088	74067968	27606632	24992
719	10.990219	104665088	74067968	34561352	24992
720	14.356752	104665088	74067968	27100384	24992
721	13.575292	104665088	74067968	35614056	24992
722	2.356507	104665088	74067968	30460560	24992
723	3.680415	104665088	74067968	32813096	24992
724	5.109402	104665088	74067968	35938096	24992
725	6.145499	104665088	74067968	39841112	24992
726	8.70981	104665088	74067968	28485976	24992
727	8.943951	104665088	74067968	34001520	24992
728	10.00653	104665088	74067968	40257744	24992
729	12.437295	104665088	74067968	31135072	24992
730	12.451663	104665088	74067968	38971088	24992
731	15.263938	104665088	74067968	31653944	24992
732	3.882649	104665088	74067968	25951328	24992
733	3.933057	104665088	74067968	28319912	24992
734	4.845617	104665088	74067968	31479528	24992
735	6.281731	104665088	74067968	35443032	24992
736	7.42088	104665088	74067968	40188376	24992
737	10.136313	104665088	74067968	29708984	24992
738	10.172995	104665088	74067968	36043288	24992
739	13.524323	104665088	74067968	27856112	24992
740	12.511244	104665088	74067968	35784320	24992
741	15.981155	104665088	74067968	29242328	24992
742	2.411407	104665088	74067968	39650744	24992
743	5.273242	104665088	74067968	26174264	24992
744	5.248535	104665088	74067968	29372920	24992
745	6.298074	104665088	74067968	33395048	24992
746	7.494433	104665088	74067968	38198944	24992
747	10.874409	104665088	74067968	28211984	24992
748	10.263529	104665088	74067968	34646792	24992
749	11.386821	104665088	74067968	41897144	24992
750	14.043796	104665088	74067968	33532208	24992
751	16.396414	104665088	74067968	27527336	24992
752	2.64877	104665088	74067968	38084544	24992
753	3.806552	104665088	74067968	40511608	24992
754	6.788608	104665088	74067968	27771368	24992
755	6.374924	104665088	74067968	31820576	24992
756	7.559204	104665088	74067968	36683008	24992
757	10.752502	104665088	74067968	27078960	24992
758	10.431582	104665088	74067968	33569304	24992
759	11.450108	104665088	74067968	40906808	24992
760	14.368017	104665088	74067968	32889424	24992
761	14.15845	104665088	74067968	41863568	24992
762	2.574466	104665088	74067968	36243504	24992
763	4.032723	104665088	74067968	38700856	24992
764	5.129243	104665088	74067968	41979688	24992
765	7.984197	104665088	74067968	29906848	24992
766	7.786262	104665088	74067968	34828968	24992
767	9.058476	104665088	74067968	40577072	24992
768	11.888843	104665088	74067968	31161576	24992
769	11.836653	104665088	74067968	38587928	24992
770	14.981101	104665088	74067968	31116048	24992
771	14.408665	104665088	74067968	40181680	24992
772	2.530988	104665088	74067968	35011280	24992
773	3.998722	104665088	74067968	37496880	24992
774	5.214569	104665088	74067968	40827288	24992
775	8.474532	104665088	74067968	29093408	24992
776	7.851613	104665088	74067968	34084552	24992
777	9.193244	104665088	74067968	39905128	24992
778	12.267781	104665088	74067968	30719352	24992
779	12.062263	104665088	74067968	38203160	24992
780	15.223442	104665088	74067968	30984152	24992
781	14.566254	104665088	74067968	40143400	24992
782	2.654623	104665088	74067968	35219896	24992
783	3.968484	104665088	74067968	37750224	24992
784	5.63747	104665088	74067968	41104896	24992
785	9.200206	104665088	74067968	29425704	24992
786	7.990538	104665088	74067968	34464880	24992
787	9.43483	104665088	74067968	40346096	24992
788	12.555888	104665088	74067968	31383168	24992
789	12.977193	104665088	74067968	38952336	24992
790	15.321937	104665088	74067968	31806128	24992
791	14.696143	104665088	74067968	41081776	24992
792	2.845074	104665088	74067968	36130368	24992
793	4.013715	104665088	74067968	38674512	24992
794	5.230899	104665088	74067968	42068992	24992
795	8.116496	104665088	74067968	30301376	24992
796	7.819327	104665088	74067968	35414008	24992
797	9.47138	104665088	74067968	41372624	24992
798	12.577614	104665088	74067968	32172816	24992
799	12.16869	104665088	74067968	39861448	24992
800	15.574496	104665088	74067968	32720856	24992
801	14.793156	104665088	74067968	42099648	24992
802	2.644415	104665088	74067968	37167176	24992
803	4.063039	104665088	74067968	39748752	24992
804	5.609669	104665088	74067968	43187816	24992
805	8.167011	104665088	74067968	31352760	24992
806	8.326151	104665088	74067968	36513800	24992
807	9.53995	104665088	74067968	42535432	24992
808	12.610585	104665088	74067968	33284688	24992
809	12.304156	104665088	74067968	41034152	24992
810	15.31033	104665088	74067968	33829328	24992
811	15.334007	104665088	74067968	43317512	24992
812	2.72949	104665088	74067968	38366312	24992
813	4.010945	104665088	74067968	40968968	24992
814	7.15539	104665088	74067968	28757496	24992
815	7.007297	104665088	74067968	33099336	24992
816	8.230913	104665088	74067968	38325784	24992
817	11.881676	104665088	74067968	29095344	24992
818	11.072551	104665088	74067968	36053768	24992
819	12.486169	104665088	74067968	43893384	24992
820	15.584337	104665088	74067968	36300584	24992
821	17.674988	104665088	74067968	30930048	24992
822	2.886987	104665088	74067968	42448752	24992
823	5.545199	104665088	74067968	29179432	24992
824	5.591723	104665088	74067968	32690752	24992
825	6.90226	104665088	74067968	37081320	24992
826	8.216459	104665088	74067968	42353224	24992
827	11.713755	104665088	74067968	32636440	24992
828	11.301605	104665088	74067968	39672880	24992
829	14.613355	104665088	74067968	32087984	24992
830	13.907467	104665088	74067968	40893504	24992
831	17.789192	104665088	74067968	34846384	24992
832	2.959118	104665088	74067968	30201184	24992
833	4.341989	104665088	74067968	32862328	24992
834	5.903911	104665088	74067968	36422104	24992
835	6.827593	104665088	74067968	40873800	24992
836	10.715232	104665088	74067968	30686792	24992
837	9.864756	104665088	74067968	36922256	24992
838	11.250264	104665088	74067968	44075784	24992
839	13.94545	104665088	74067968	35854352	24992
840	14.20347	104665088	74067968	44818992	24992
841	17.137472	104665088	74067968	38283016	24992
842	2.850983	104665088	74067968	34914832	24992
843	4.26085	104665088	74067968	37654448	24992
844	5.725562	104665088	74067968	41311720	24992
845	9.084851	104665088	74067968	30225792	24992
846	8.543231	104665088	74067968	35720208	24992
847	10.148056	104665088	74067968	42138520	24992
848	13.173422	104665088	74067968	33649312	24992
849	12.807987	104665088	74067968	41921744	24992
850	16.40712	104665088	74067968	35316024	24992
851	18.112093	104665088	74067968	30800456	24992
852	2.857323	104665088	74067968	42921936	24992
853	6.083236	104665088	74067968	29910480	24992
854	5.776716	104665088	74067968	33648360	24992
855	7.183274	104665088	74067968	38326712	24992
856	8.583674	104665088	74067968	43971256	24992
857	12.023645	104665088	74067968	34546760	24992
858	11.564771	104665088	74067968	42044728	24992
859	15.393137	104665088	74067968	34694640	24992
860	14.400706	104665088	74067968	44096472	24992
861	17.471683	104665088	74067968	38304256	24992
862	3.018381	104665088	74067968	35507168	24992
863	4.350088	104665088	74067968	38336352	24992
864	5.9506	104665088	74067968	42116848	24992
865	9.36172	104665088	74067968	31219120	24992
866	8.739263	104665088	74067968	36888944	24992
867	10.251533	104665088	74067968	43552768	24992
868	13.538386	104665088	74067968	35128888	24992
869	13.336384	104665088	74067968	43644976	24992
870	16.524974	104665088	74067968	37052392	24992
871	18.948819	104665088	74067968	32653952	24992
872	2.920668	104665088	74067968	45128664	24992
873	6.100775	104665088	74067968	31847104	24992
874	6.083246	104665088	74067968	35661632	24992
875	7.990987	104665088	74067968	40432880	24992
876	11.010562	104665088	74067968	30881360	24992
877	10.229913	104665088	74067968	37583728	24992
878	12.024315	104665088	74067968	45231976	24992
879	14.861752	104665088	74067968	37573536	24992
880	16.866938	104665088	74067968	32199752	24992
881	16.637432	104665088	74067968	42736528	24992
882	2.974502	104665088	74067968	39512056	24992
883	4.44566	104665088	74067968	42419992	24992
884	7.975617	104665088	74067968	30667056	24992
885	7.855186	104665088	74067968	35483960	24992
886	9.121396	104665088	74067968	41279888	24992
887	12.533855	104665088	74067968	32552144	24992
888	11.845448	104665088	74067968	40288112	24992
889	15.928545	104665088	74067968	33713152	24992
890	15.109362	104665088	74067968	43391600	24992
891	18.3918	104665088	74067968	38107264	24992
892	2.911324	104665088	74067968	35895576	24992
893	4.302099	104665088	74067968	38812504	24992
894	6.216928	104665088	74067968	42712416	24992
895	9.807738	104665088	74067968	31989664	24992
896	9.064729	104665088	74067968	37841824	24992
897	10.229383	104665088	74067968	44664424	24992
898	13.784726	104665088	74067968	36414720	24992
899	13.282183	104665088	74067968	45207688	24992
900	16.612412	104665088	74067968	38852560	24992
901	18.78104	104665088	74067968	34556248	24992
902	4.805015	104665088	74067968	31463672	24992
903	4.741621	104665088	74067968	34409696	24992
904	6.061814	104665088	74067968	38367240	24992
905	7.755678	104665088	74067968	43281576	24992
906	11.301234	104665088	74067968	33579488	24992
907	10.716949	104665088	74067968	40496944	24992
908	14.401915	104665088	74067968	33146520	24992
909	13.359604	104665088	74067968	42024392	24992
910	17.942083	104665088	74067968	36293272	24992
911	19.573258	104665088	74067968	32612496	24992
912	3.221036	104665088	74067968	45570976	24992
913	6.673774	104665088	74067968	32610688	24992
914	5.931746	104665088	74067968	36594624	24992
915	7.849058	104665088	74067968	41557704	24992
916	11.608166	104665088	74067968	32294816	24992
917	10.80177	104665088	74067968	39266888	24992
918	12.418332	104665088	74067968	47225064	24992
919	15.40987	104665088	74067968	39752560	24992
920	18.20674	104665088	74067968	34665264	24992
921	16.78721	104665088	74067968	45636616	24992
922	3.025172	104665088	74067968	42664104	24992
923	4.555009	104665088	74067968	45713080	24992
924	8.129095	104665088	74067968	33798496	24992
925	7.740106	104665088	74067968	38813664	24992
926	9.337103	104665088	74067968	44844400	24992
927	12.926464	104665088	74067968	35959080	24992
928	12.361032	104665088	74067968	43990168	24992
929	16.371953	104665088	74067968	37292688	24992
930	15.719734	104665088	74067968	47366624	24992
931	18.993976	104665088	74067968	42068096	24992
932	3.134839	104665088	74067968	39926192	24992
933	4.694909	104665088	74067968	42968272	24992
934	6.318879	104665088	74067968	47020768	24992
935	9.560986	104665088	74067968	35975312	24992
936	9.587614	104665088	74067968	42060328	24992
937	13.428507	104665088	74067968	33795144	24992
938	12.650771	104665088	74067968	41910848	24992
939	16.83143	104665088	74067968	35659976	24992
940	15.766256	104665088	74067968	45842672	24992
941	19.552325	104665088	74067968	40916408	24992
942	3.163757	104665088	74067968	39049480	24992
943	4.735381	104665088	74067968	42112608	24992
944	6.517	104665088	74067968	46203064	24992
945	10.030828	104665088	74067968	35368360	24992
946	9.402421	104665088	74067968	41510032	24992
947	13.763834	104665088	74067968	33494216	24992
948	12.422576	104665088	74067968	41680704	24992
949	17.118032	104665088	74067968	35707864	24992
950	15.71958	104665088	74067968	46170392	24992
951	19.332199	104665088	74067968	41560112	24992
952	3.054554	104665088	74067968	39859808	24992
953	4.80047	104665088	74067968	42952176	24992
954	6.142194	104665088	74067968	47076904	24992
955	10.175105	104665088	74067968	36232704	24992
956	9.575402	104665088	74067968	42425744	24992
957	13.548388	104665088	74067968	34305512	24992
958	12.872334	104665088	74067968	42571224	24992
959	16.900995	104665088	74067968	36520832	24992
960	16.349628	104665088	74067968	47015568	24992
961	19.713028	104665088	74067968	42405256	24992
962	3.233841	104665088	74067968	40652840	24992
963	4.827189	104665088	74067968	43774448	24992
964	6.597667	104665088	74067968	47938368	24992
965	10.001854	104665088	74067968	37035640	24992
966	9.762191	104665088	74067968	43287264	24992
967	13.945386	104665088	74067968	35237624	24992
968	13.098148	104665088	74067968	43580264	24992
969	17.006427	104665088	74067968	37481968	24992
970	16.349799	104665088	74067968	47933984	24992
971	19.669525	104665088	74067968	43153456	24992
972	3.26232	104665088	74067968	41545536	24992
973	5.067594	104665088	74067968	44696632	24992
974	6.307377	104665088	74067968	48899408	24992
975	9.79102	104665088	74067968	37904600	24992
976	9.553358	104665088	74067968	44214584	24992
977	13.748792	104665088	74067968	36040208	24992
978	12.825909	104665088	74067968	44460648	24992
979	16.917887	104665088	74067968	38433160	24992
980	16.446446	104665088	74067968	48969176	24992
981	19.773164	104665088	74067968	44200768	24992
982	3.311494	104665088	74067968	42492408	24992
983	4.944924	104665088	74067968	45718056	24992
984	8.836626	104665088	74067968	34411640	24992
985	8.483406	104665088	74067968	39754648	24992
986	9.834528	104665088	74067968	46123336	24992
987	14.048271	104665088	74067968	37754184	24992
988	13.395427	104665088	74067968	46252896	24992
989	17.205587	104665088	74067968	39962416	24992
990	19.165014	104665088	74067968	35907856	24992
991	18.302526	104665088	74067968	47651264	24992
992	3.313363	104665088	74067968	45528064	24992
993	4.990006	104665088	74067968	48737632	24992
994	8.649508	104665088	74067968	36966272	24992
995	8.177414	104665088	74067968	42319624	24992
996	10.203104	104665088	74067968	48746648	24992
997	13.654461	104665088	74067968	39995384	24992
998	13.457557	104665088	74067968	48572120	24992
999	16.941144	104665088	74067968	42020280	24992
1000	19.562206	104665088	74067968	37831048	24992
