x	Duration	RSS	HeapTotal	HeapUsed	External
0	NA	94863360	64106496	11995920	24992
1	0.327618	94863360	64106496	12047800	24992
2	0.262806	94863360	64106496	12124488	24992
3	0.307156	94863360	64106496	12228240	24992
4	0.395721	94863360	64106496	12360600	24992
5	0.440591	94863360	64106496	12523064	24992
6	0.512506	94863360	64106496	12716088	24992
7	0.588155	94863360	64106496	12940640	24992
8	0.664835	94863360	64106496	13197728	24992
9	1.095324	94863360	64106496	13489264	24992
10	1.232758	94863360	64106496	13815888	24992
11	0.967819	94863360	64106496	14182136	24992
12	0.204945	94863360	64106496	14575992	24992
13	0.307223	94863360	64106496	14688320	24992
14	0.394129	94863360	64106496	14839184	24992
15	0.481842	94863360	64106496	15029888	24992
16	0.574471	94863360	64106496	15261928	24992
17	1.184483	94863360	64106496	15535776	24992
18	0.77048	94863360	64106496	15852368	24992
19	1.254759	94863360	64106496	16213448	24992
20	0.68491	94863360	64106496	16620184	24992
21	0.79963	94863360	64106496	17073032	24992
22	0.176527	94863360	64106496	17580184	24992
23	0.262145	94863360	64106496	17722528	24992
24	0.339324	94863360	64106496	17914928	24992
25	0.427208	94863360	64106496	18158368	24992
26	0.53458	94863360	64106496	18463072	24992
27	0.582695	94863360	64106496	18812040	24992
28	0.663192	94863360	64106496	19214968	24992
29	0.746296	94863360	64106496	19672872	24992
30	0.834358	94863360	64106496	20187648	24992
31	0.930456	94863360	64106496	20759344	24992
32	0.221806	94863360	64106496	21409592	24992
33	0.309626	94863360	64106496	21584472	24992
34	0.415407	94863360	64106496	21819144	24992
35	0.499965	94863360	64106496	22115384	24992
36	0.782084	94863360	64106496	22473144	24992
37	0.716968	94863360	64106496	22893624	24992
38	0.78544	94863360	64106496	23377856	24992
39	0.882951	94863360	64106496	23926800	24992
40	0.993549	94863360	64106496	24542312	24992
41	1.10129	94863360	64106496	25224520	24992
42	0.234693	94863360	64106496	26007240	24992
43	0.353846	94863360	64106496	26211464	24992
44	0.463643	94863360	64106496	26485136	24992
45	0.571406	94863360	64106496	26830720	24992
46	0.707748	94863360	64106496	27248344	24992
47	0.796987	94863360	64106496	27739112	24992
48	0.908016	94863360	64106496	28304088	24992
49	2.091763	94863360	64106496	12683752	24992
50	1.190091	94863360	64106496	13404528	24992
51	1.258205	94863360	64106496	14202872	24992
52	0.265198	94863360	64106496	15127936	24992
53	0.401846	94863360	64106496	15369672	24992
54	0.519052	94863360	64106496	15693464	24992
55	0.64277	94863360	64106496	16100344	24992
56	0.773876	94863360	64106496	16591816	24992
57	0.899951	94863360	64106496	17168296	24992
58	1.035509	94863360	64106496	17830800	24992
59	1.161927	94863360	64106496	18580304	24992
60	1.290082	94863360	64106496	19418648	24992
61	1.654687	94863360	64106496	20345976	24992
62	0.321962	94863360	64106496	21419872	24992
63	0.479968	94863360	64106496	21690880	24992
64	0.826724	94863360	64106496	22053680	24992
65	0.735246	94863360	64106496	22509384	24992
66	0.89693	94863360	64106496	23062096	24992
67	1.007249	94863360	64106496	23706880	24992
68	1.156137	94863360	64106496	24447384	24992
69	1.294472	94863360	64106496	25284640	24992
70	1.435082	94863360	64106496	26220520	24992
71	1.808957	94863360	64106496	27255080	24992
72	0.325022	94863360	64106496	28456160	24992
73	0.494015	94863360	64106496	28756376	24992
74	1.425269	94863360	64106496	12941520	24992
75	0.869557	94863360	64106496	13446000	24992
76	1.031198	94863360	64106496	14054512	24992
77	1.209297	94863360	64106496	14767560	24992
78	1.358439	94863360	64106496	15586104	24992
79	1.549144	94863360	64106496	16511064	24992
80	1.727768	94863360	64106496	17544736	24992
81	1.966388	94863360	64106496	18687792	24992
82	0.381321	94863360	64106496	20021200	24992
83	0.577572	94863360	64106496	20350592	24992
84	0.754895	94863360	64106496	20793592	24992
85	0.954941	94863360	64106496	21348920	24992
86	1.237427	94863360	64106496	22019232	24992
87	1.250118	94863360	64106496	22807024	24992
88	1.402887	94863360	64106496	23709200	24992
89	1.846157	94863360	64106496	24728632	24992
90	1.889216	94863360	64106496	25867392	24992
91	2.098502	94863360	64106496	27125712	24992
92	0.420922	94863360	64106496	28598520	24992
93	0.628263	94863360	64106496	28960552	24992
94	1.416237	94863360	64106496	13147664	24992
95	1.039281	94863360	64106496	13755272	24992
96	1.422749	94863360	64106496	14487440	24992
97	1.347311	94863360	64106496	15344896	24992
98	1.526172	94863360	64106496	16329440	24992
99	1.732398	94863360	64106496	17440024	24992
100	1.911303	94863360	64106496	18679768	24992
101	2.118123	94863360	64106496	20048504	24992
102	0.482339	94863360	64106496	21663488	24992
103	0.628631	94863360	64106496	22067296	24992
104	0.829468	94863360	64106496	22607296	24992
105	1.032186	94863360	64106496	23284360	24992
106	1.244412	94863360	64106496	24100168	24992
107	1.442021	94863360	64106496	25054880	24992
108	1.650247	94863360	64106496	26149752	24992
109	2.096695	94863360	64106496	27389208	24992
110	2.068931	94863360	64106496	28768080	24992
111	3.110118	94863360	64106496	14013840	24992
112	0.452808	94863360	64106496	15802080	24992
113	0.68245	94863360	64106496	16235136	24992
114	0.89468	94863360	64106496	16814072	24992
115	1.122283	94863360	64106496	17539944	24992
116	1.333287	94863360	64106496	18414152	24992
117	1.551248	94863360	64106496	19437520	24992
118	2.337825	94863360	64106496	20612184	24992
119	2.158858	94863360	64106496	21937680	24992
120	2.262544	94863360	64106496	23414056	24992
121	2.458357	94863360	64106496	25043080	24992
122	0.508492	94863360	64106496	26958056	24992
123	0.964808	94863360	64106496	27420416	24992
124	0.960432	94863360	64106496	28038360	24992
125	1.184779	94863360	64106496	28812920	24992
126	2.031694	94863360	64106496	13479368	24992
127	1.781626	94863360	64106496	14570744	24992
128	2.041202	94863360	64106496	15823256	24992
129	2.2891	94863360	64106496	17235368	24992
130	2.645154	94863360	64106496	18809296	24992
131	2.648891	94863360	64106496	20546424	24992
132	0.519343	94863360	64106496	22590048	24992
133	0.768299	94863360	64106496	23082736	24992
134	1.012012	94863360	64106496	23742320	24992
135	1.260535	94863360	64106496	24565656	24992
136	1.572112	94863360	64106496	25556888	24992
137	1.770358	94863360	64106496	26717400	24992
138	2.276894	94863360	64106496	28048776	24992
139	2.908363	94863360	64106496	13404152	24992
140	2.606366	94863360	64106496	15079888	24992
141	3.025629	94863360	64106496	16923504	24992
142	0.576307	94863360	64106496	19101080	24992
143	0.872874	94863360	64106496	19627432	24992
144	1.147632	94863360	64106496	20330736	24992
145	1.447174	94863360	64106496	21211928	24992
146	1.618409	94863360	64106496	22272656	24992
147	2.203153	94863360	64106496	23513280	24992
148	2.146296	94863360	64106496	24934872	24992
149	2.475045	94863360	64106496	26538304	24992
150	2.695554	94863360	64106496	28327128	24992
151	3.726193	94863360	64106496	14117120	24992
152	0.57719	94863360	64106496	16439832	24992
153	0.913861	94863360	64106496	16995416	24992
154	1.137987	94863360	64106496	17737736	24992
155	1.419721	94863360	64106496	18669792	24992
156	1.753625	94863360	64106496	19789096	24992
157	1.985882	94863360	64106496	21099072	24992
158	2.65581	94863360	64106496	22598560	24992
159	2.604666	94863360	64106496	24289672	24992
160	2.91561	94863360	64106496	26174496	24992
161	3.140085	94863360	64106496	28252840	24992
162	0.614973	94863360	64106496	14552832	24992
163	0.914078	94863360	64106496	15137640	24992
164	1.253966	94863360	64106496	15919000	24992
165	1.497622	94863360	64106496	16898696	24992
166	1.804321	94863360	64106496	18076376	24992
167	2.096251	94863360	64106496	19453440	24992
168	2.632817	94863360	64106496	21031032	24992
169	2.935379	94863360	64106496	22810696	24992
170	3.064443	94863360	64106496	24792960	24992
171	3.318111	94863360	64106496	26979992	24992
172	0.632998	94863360	64106496	29564720	24992
173	1.473425	94863360	64106496	13831600	24992
174	1.27578	94863360	64106496	14651952	24992
175	1.576396	94863360	64106496	15679512	24992
176	1.905653	94863360	64106496	16915784	24992
177	2.342879	94863360	64106496	18361640	24992
178	2.671456	94863360	64106496	20016888	24992
179	2.995606	94863360	64106496	21883248	24992
180	3.327178	94863360	64106496	23962632	24992
181	3.727733	94863360	64106496	26257392	24992
182	0.69286	94863360	64106496	28968936	24992
183	1.001807	94863360	64106496	29612224	24992
184	1.796843	94863360	64106496	14142968	24992
185	1.715794	94863360	64106496	15219104	24992
186	1.98147	94863360	64106496	16513688	24992
187	2.546369	94863360	64106496	18027120	24992
188	2.648154	94863360	64106496	19760360	24992
189	2.978125	94863360	64106496	21714448	24992
190	3.324991	94863360	64106496	23891416	24992
191	3.687301	94863360	64106496	26296904	24992
192	0.696056	94863360	64106496	29137464	24992
193	1.058101	94863360	64106496	29810008	24992
194	1.836556	94863360	64106496	14364272	24992
195	1.967739	94863360	64106496	15490936	24992
196	2.102691	94863360	64106496	16843984	24992
197	2.640705	94863360	64106496	18425712	24992
198	2.776341	94863360	64106496	20237008	24992
199	3.181802	94863360	64106496	22279104	24992
200	3.837498	94863360	64106496	24553544	24992
201	3.847183	94863360	64106496	27060472	24992
202	0.728691	94863360	64106496	30034384	24992
203	1.726599	94863360	64106496	14346544	24992
204	1.452096	94863360	64106496	15284400	24992
205	1.820484	94863360	64106496	16458048	24992
206	2.165376	94863360	64106496	17871584	24992
207	2.534334	94863360	64106496	19529720	24992
208	3.115342	94863360	64106496	21435768	24992
209	3.254825	94863360	64106496	23590752	24992
210	3.734735	94863360	64106496	25995616	24992
211	4.027276	94863360	64106496	28651080	24992
212	0.807106	94863360	64106496	15667016	24992
213	1.218253	94863360	64106496	16422768	24992
214	1.769137	94863360	64106496	17431992	24992
215	1.969167	94863360	64106496	18695576	24992
216	2.591398	94863360	64106496	20215152	24992
217	2.660261	94863360	64106496	21991096	24992
218	3.397633	94863360	64106496	24024456	24992
219	3.886292	94863360	64106496	26319464	24992
220	4.209826	94863360	64106496	28871416	24992
221	5.0279	94863360	64106496	15507792	24992
222	0.834706	94863360	64106496	18845392	24992
223	1.257719	94863360	64106496	19630400	24992
224	1.681371	94863360	64106496	20680112	24992
225	2.100729	94863360	64106496	21992432	24992
226	2.506427	94863360	64106496	23577920	24992
227	2.938525	94863360	64106496	25423384	24992
228	3.582122	94863360	64106496	27534864	24992
229	3.756119	94863360	64106496	29920104	24992
230	4.802057	94863360	64106496	16244872	24992
231	4.521351	94863360	64106496	19173096	24992
232	0.862472	94863360	64106496	22656136	24992
233	1.52037	94863360	64106496	23479080	24992
234	1.738366	94863360	64106496	24577800	24992
235	2.179581	94863360	64106496	25953336	24992
236	2.605516	94863360	64106496	27607160	24992
237	3.058144	94863360	64106496	29539784	24992
238	3.960286	94863360	64106496	15499752	24992
239	3.915958	94863360	64106496	17993064	24992
240	4.56237	94863360	64106496	20770464	24992
241	5.004692	94863360	64106496	23829000	24992
242	0.895245	94863360	64106496	27462656	24992
243	1.357281	94863360	64106496	28314832	24992
244	1.988488	94863360	64106496	29452752	24992
245	2.710154	94863360	64106496	14660416	24992
246	2.708546	94863360	64106496	16379952	24992
247	3.164681	94863360	64106496	18380880	24992
248	3.632887	94863360	64106496	20671240	24992
249	4.106748	94863360	64106496	23252240	24992
250	4.481677	94863360	64106496	26125688	24992
251	5.256296	94863360	64106496	29294288	24992
252	0.936964	94863360	64106496	16862488	24992
253	1.405673	94863360	64106496	17748968	24992
254	2.038095	94863360	64106496	18925696	24992
255	2.342496	94863360	64106496	20398840	24992
256	2.803894	94863360	64106496	22175976	24992
257	3.277718	94863360	64106496	24245616	24992
258	3.882983	94863360	64106496	26613960	24992
259	4.247923	94863360	64106496	29282536	24992
260	5.265084	94863360	64106496	16099080	24992
261	5.174893	94863360	64106496	19372992	24992
262	0.960244	94863360	64106496	23264848	24992
263	1.654178	94863360	64106496	24175536	24992
264	1.93312	94863360	64106496	25399040	24992
265	2.422372	94863360	64106496	26920816	24992
266	2.909545	94863360	64106496	28750320	24992
267	4.122718	94863360	64106496	14840096	24992
268	3.728546	94863360	64106496	17286576	24992
269	4.369782	94863360	64106496	20043032	24992
270	4.885019	94863360	64106496	23112928	24992
271	5.35522	94863360	64106496	26493112	24992
272	0.947772	94863360	64106496	30513888	24992
273	1.832009	94863360	64106496	15104432	24992
274	2.014186	94863360	64106496	16359168	24992
275	2.507569	94863360	64106496	17929728	24992
276	2.989463	94863360	64106496	19817584	24992
277	3.684799	94863360	64106496	22025992	24992
278	4.01234	94863360	64106496	24550376	24992
279	4.523187	94863360	64106496	27399416	24992
280	4.993445	94863360	64106496	30565328	24992
281	5.922907	94863360	64106496	17717072	24992
282	1.221268	94863360	64106496	21856016	24992
283	1.493742	94863360	64106496	22825224	24992
284	2.072111	94863360	64106496	24124168	24992
285	2.758895	94863360	64106496	25743496	24992
286	3.100523	94863360	64106496	27689888	24992
287	3.863806	94863360	64106496	29963904	24992
288	4.678622	94863360	64106496	16346136	24992
289	4.560236	94863360	64106496	19278120	24992
290	5.182722	94863360	64106496	22547624	24992
291	5.912308	94863360	64106496	26154832	24992
292	1.05987	94863360	64106496	30421168	24992
293	2.186687	94863360	64106496	15128792	24992
294	2.040912	94863360	64106496	16461536	24992
295	2.664547	94863360	64106496	18129672	24992
296	3.200875	94863360	64106496	20139304	24992
297	3.735049	94863360	64106496	22481504	24992
298	4.882642	94863360	64106496	25161928	24992
299	4.859067	94863360	64106496	28190392	24992
300	6.14834	94863360	64106496	15673912	24992
301	5.881515	94863360	64106496	19387440	24992
302	1.084851	94863360	64106496	23785096	24992
303	1.640476	94863360	64106496	24812760	24992
304	2.184725	94863360	64106496	26184616	24992
305	2.740468	94863360	64106496	27901552	24992
306	3.280151	94863360	64106496	29964896	24992
307	4.444061	94863360	64106496	16263920	24992
308	4.582571	94863360	64106496	19022624	24992
309	4.852436	94863360	64106496	22129944	24992
310	5.484543	94863360	64106496	25588248	24992
311	6.244644	94863360	64106496	29397304	24992
312	1.133728	94863360	64106496	17941344	24992
313	1.692279	94863360	64106496	18998176	24992
314	2.255227	94863360	64106496	20408912	24992
315	2.820239	94863360	64106496	22174568	24992
316	3.580774	94863360	64106496	24306272	24992
317	3.930205	94863360	64106496	26785032	24992
318	4.580316	94863360	64106496	29635328	24992
319	6.148536	94863360	64106496	16815720	24992
320	5.863262	94863360	64106496	20373944	24992
321	6.311474	94863360	64106496	24298768	24992
322	1.151266	94863360	64106496	28946304	24992
323	1.937819	94863360	64106496	30032520	24992
324	2.313198	94863360	64106496	31482232	24992
325	3.413411	94863360	64106496	16997640	24992
326	3.485447	94863360	64106496	19178120	24992
327	4.036318	94863360	64106496	21725208	24992
328	4.78077	94863360	64106496	24639760	24992
329	5.550505	94863360	64106496	27922680	24992
330	5.936306	94863360	64106496	31577112	24992
331	7.006898	94863360	64106496	19295584	24992
332	1.184277	94863360	64106496	24070440	24992
333	1.77725	94863360	64106496	25185816	24992
334	2.542948	94863360	64106496	26674608	24992
335	2.99398	94863360	64106496	28540984	24992
336	3.575114	94863360	64106496	30780792	24992
337	5.007636	94863360	64106496	17281736	24992
338	4.954023	94863360	64106496	20274616	24992
339	5.569786	94863360	64106496	23652760	24992
340	6.152681	94863360	64106496	27403672	24992
341	6.676059	94863360	64106496	31534736	24992
342	1.226221	94863360	64106496	20207944	24992
343	1.838182	94863360	64106496	21352616	24992
344	2.606776	94863360	64106496	22880360	24992
345	3.048124	94863360	64106496	24792248	24992
346	3.696408	94863360	64106496	27089688	24992
347	4.291655	94863360	64106496	29773120	24992
348	5.722016	94863360	64106496	16912600	24992
349	5.71012	94863360	64106496	20371072	24992
350	6.627494	94863360	64106496	24222416	24992
351	6.949407	94863360	64106496	28466568	24992
352	1.45399	94863360	64106496	17791280	24992
353	1.902137	94863360	64106496	18965240	24992
354	2.529848	94863360	64106496	20532080	24992
355	3.149083	94863360	64106496	22492616	24992
356	3.769478	94863360	64106496	24848624	24992
357	4.598263	94863360	64106496	27600288	24992
358	5.050651	94863360	64106496	30755640	24992
359	6.463032	94863360	64106496	18253952	24992
360	6.312812	94863360	64106496	22218944	24992
361	7.105877	94863360	64106496	26575680	24992
362	1.27341	94863360	64106496	31772872	24992
363	2.58161	94863360	64106496	16816728	24992
364	2.582602	94863360	64106496	18440320	24992
365	3.335899	94863360	64106496	20480168	24992
366	3.86525	94863360	64106496	22932056	24992
367	4.527271	94863360	64106496	25785032	24992
368	5.361684	94863360	64106496	29047080	24992
369	6.779205	94863360	64106496	17021736	24992
370	6.591497	94863360	64106496	21109520	24992
371	7.069851	94863360	64106496	25611392	24992
372	1.278873	94863360	64106496	30974752	24992
373	1.983287	94863360	64106496	32220608	24992
374	3.245068	94863360	64106496	17638616	24992
375	3.419788	94863360	64106496	19720208	24992
376	3.950846	94863360	64106496	22219752	24992
377	4.625945	94863360	64106496	25141144	24992
378	5.447236	94863360	64106496	28481200	24992
379	6.02418	94863360	64106496	32248344	24992
380	7.468208	94863360	64106496	20198048	24992
381	7.442285	94863360	64106496	24806928	24992
382	1.341909	94863360	64106496	30299624	24992
383	2.216601	94863360	64106496	31587168	24992
384	3.43006	94863360	64106496	17193816	24992
385	3.388442	94863360	64106496	19323000	24992
386	4.086268	94863360	64106496	21882440	24992
387	4.755614	94863360	64106496	24876688	24992
388	5.430807	94863360	64106496	28297376	24992
389	6.422979	94863360	64106496	32146960	24992
390	7.604551	94863360	64106496	20261856	24992
391	7.436866	94863360	64106496	24978080	24992
392	1.395233	94863360	64106496	30613896	24992
393	1.971927	94863360	64106496	31927832	24992
394	3.518625	94863360	64106496	17574608	24992
395	3.921193	94863360	64106496	19759416	24992
396	4.133154	94863360	64106496	22376056	24992
397	4.884525	94863360	64106496	25441048	24992
398	5.745032	94863360	64106496	28937544	24992
399	6.262217	94863360	64106496	32877840	24992
400	7.69169	94863360	64106496	21014448	24992
401	7.683636	94863360	64106496	25839256	24992
402	1.6063	94863360	64106496	31584640	24992
403	2.115339	94863360	64106496	32918160	24992
404	3.482755	94863360	64106496	18457488	24992
405	3.5396	94863360	64106496	20684216	24992
406	4.74987	94863360	64106496	23360480	24992
407	4.86378	94863360	64106496	26491560	24992
408	5.827299	94863360	64106496	30065672	24992
409	7.468247	94863360	64106496	18369832	24992
410	7.288109	94863360	64106496	22853624	24992
411	8.174627	94863360	64106496	27786800	24992
412	2.175475	94863360	64106496	17511520	24992
413	2.374719	94863360	64106496	18885824	24992
414	2.919257	94863360	64106496	20704304	24992
415	3.792893	94863360	64106496	22979664	24992
416	4.512589	94863360	64106496	25713312	24992
417	5.085608	94863360	64106496	28925272	24992
418	5.814929	94863360	64106496	32610408	24992
419	7.444672	94863360	64106496	20626392	24992
420	7.301115	94863360	64106496	25276552	24992
421	8.009746	94863360	64106496	30401752	24992
422	1.496568	94863360	64106496	20745216	24992
423	2.116124	94863360	64106496	22186576	24992
424	3.093649	94863360	64106496	24110032	24992
425	3.682238	94863360	64106496	26523624	24992
426	4.450279	94863360	64106496	29416336	24992
427	5.210069	94863360	64106496	32792112	24992
428	6.738489	94863360	64106496	20489776	24992
429	6.886373	94863360	64106496	24853648	24992
430	7.61427	94863360	64106496	29700688	24992
431	9.342747	94863360	64106496	19354280	24992
432	1.517263	94863360	64106496	25715240	24992
433	2.263652	94863360	64106496	27196784	24992
434	3.038462	94863360	64106496	29176048	24992
435	3.786546	94863360	64106496	31631304	24992
436	5.510704	94863360	64106496	18656440	24992
437	5.327662	94863360	64106496	22105232	24992
438	6.098421	94863360	64106496	26047192	24992
439	6.890991	94863360	64106496	30483768	24992
440	8.812617	94863360	64106496	19733248	24992
441	8.396784	94863360	64106496	25177192	24992
442	1.536641	94863360	64106496	31670584	24992
443	2.512126	94863360	64106496	33171504	24992
444	3.880256	94863360	64106496	19039920	24992
445	3.876025	94863360	64106496	21543984	24992
446	4.81438	94863360	64106496	24551944	24992
447	5.375485	94863360	64106496	28064424	24992
448	6.372422	94863360	64106496	32112280	24992
449	7.9744	94863360	64106496	20691904	24992
450	7.781827	94863360	64106496	25724392	24992
451	8.701668	94863360	64106496	31282160	24992
452	1.742844	94863360	64106496	22075520	24992
453	2.282863	94863360	64106496	23625280	24992
454	3.162939	94863360	64106496	25674488	24992
455	3.875912	94863360	64106496	28256568	24992
456	4.741027	94863360	64106496	31334488	24992
457	6.638884	94863360	64106496	19141008	24992
458	6.480352	94863360	64106496	23254864	24992
459	7.106164	94863360	64106496	27884872	24992
460	8.031663	94863360	64106496	33048720	24992
461	9.655454	94863360	64106496	22550128	24992
462	1.605547	94863360	64106496	29286712	24992
463	2.414186	94863360	64106496	30845160	24992
464	3.218178	94863360	64106496	32924552	24992
465	5.178903	94863360	64106496	19547456	24992
466	4.861368	94863360	64106496	22672376	24992
467	5.658141	94863360	64106496	26321112	24992
468	6.466875	94863360	64106496	30495128	24992
469	8.663641	94863360	64106496	19660704	24992
470	8.258785	94863360	64106496	24888232	24992
471	9.032841	94863360	64106496	30763376	24992
472	1.651374	94863360	64106496	21923824	24992
473	2.64579	94863360	64106496	23511344	24992
474	3.139252	94863360	64106496	25646808	24992
475	4.033526	94863360	64106496	28296952	24992
476	5.139849	94863360	64106496	31480504	24992
477	6.982116	94863360	64106496	19489008	24992
478	6.596553	94863360	64106496	23761152	24992
479	7.435801	94863360	64106496	28548560	24992
480	8.202345	94863360	64106496	33873696	24992
481	9.968425	94863360	64106496	23552136	24992
482	1.667789	94863360	64106496	30549760	24992
483	2.513811	94863360	64106496	32166664	24992
484	3.350283	94863360	64106496	34324040	24992
485	5.278332	94863360	64106496	20881448	24992
486	5.052979	94863360	64106496	24123296	24992
487	5.974033	94863360	64106496	27909240	24992
488	6.668841	94863360	64106496	32239024	24992
489	8.7813	94863360	64106496	21325696	24992
490	8.763668	94863360	64106496	26748384	24992
491	9.161388	94863360	64106496	32720368	24992
492	1.753458	94863360	64106496	23871792	24992
493	2.68798	94863360	64106496	25520328	24992
494	3.584709	94863360	64106496	27737400	24992
495	4.330124	94863360	64106496	30485112	24992
496	5.269094	94863360	64106496	33785544	24992
497	6.991725	94863360	64106496	21590816	24992
498	6.997705	94863360	64106496	25998512	24992
499	7.69954	94863360	64106496	30983416	24992
500	10.021681	94863360	64106496	20917216	24992
501	9.220211	94863360	64106496	27003512	24992
502	1.930983	94863360	64106496	34264800	24992
503	3.606544	94863360	64106496	19888440	24992
504	3.487753	94863360	64106496	22123832	24992
505	4.562279	94863360	64106496	24934504	24992
506	5.350509	94863360	64106496	28293432	24992
507	6.27152	94863360	64106496	32227352	24992
508	8.392851	94863360	64106496	20995744	24992
509	8.051005	94863360	64106496	26060640	24992
510	8.585927	94863360	64106496	31678104	24992
511	11.066069	94863360	64106496	22203472	24992
512	1.766441	94863360	64106496	29597320	24992
513	2.662727	94863360	64106496	31306088	24992
514	3.457529	94863360	64106496	33580504	24992
515	5.515004	94863360	64106496	20521856	24992
516	5.483618	94863360	64106496	23939320	24992
517	6.214917	94863360	64106496	27941000	24992
518	7.204916	94863360	64106496	32519448	24992
519	9.254014	94863360	64106496	21931424	24992
520	8.856684	94863360	64106496	27660224	24992
521	9.829282	94863360	64106496	33952800	24992
522	1.738009	94863360	64106496	25419344	24992
523	2.658972	94863360	64106496	27153200	24992
524	3.782856	94863360	64106496	29475920	24992
525	4.51837	94863360	64106496	32369848	24992
526	5.705315	94863360	64106496	35856608	24992
527	7.177465	94863360	64106496	23694600	24992
528	7.144027	94863360	64106496	28337400	24992
529	8.220871	94863360	64106496	33578304	24992
530	10.032306	94863360	64106496	23466288	24992
531	10.186641	94863360	64106496	29866608	24992
532	2.711122	94863360	64106496	21195592	24992
533	2.946107	94863360	64106496	22958704	24992
534	3.657758	94863360	64106496	25311584	24992
535	4.586931	94863360	64106496	28259120	24992
536	5.684182	94863360	64106496	31793360	24992
537	6.448695	94863360	64106496	35919808	24992
538	8.507803	94863360	64106496	24421128	24992
539	8.437477	94863360	64106496	29746664	24992
540	9.179075	94863360	64106496	35664336	24992
541	11.087431	94863360	64106496	25963392	24992
542	1.853539	94863360	64106496	33733248	24992
543	2.827909	94863360	64106496	35525576	24992
544	4.736561	94863360	64106496	21793904	24992
545	4.686386	94863360	64106496	24785320	24992
546	5.757863	94863360	64106496	28378200	24992
547	6.708759	94863360	64106496	32573048	24992
548	8.834968	94863360	64106496	21744920	24992
549	8.46375	94863360	64106496	27146664	24992
550	9.446677	94863360	64106496	33166840	24992
551	11.720207	94863360	64106496	23997184	24992
552	1.887213	94863360	64106496	31879432	24992
553	2.836352	94863360	64106496	33701064	24992
554	3.837549	94863360	64106496	36144680	24992
555	5.709192	94863360	64106496	23006560	24992
556	5.556159	94863360	64106496	26677816	24992
557	6.832638	94863360	64106496	30975728	24992
558	7.35106	94863360	64106496	35874448	24992
559	9.847859	94863360	64106496	25299744	24992
560	9.909171	94863360	64106496	31438680	24992
561	12.281104	94863360	64106496	22795056	24992
562	1.945228	94863360	64106496	30868096	24992
563	2.89288	94863360	64106496	32754320	24992
564	4.028517	94863360	64106496	35264456	24992
565	5.994091	94863360	64106496	22392536	24992
566	5.930772	94863360	64106496	26147712	24992
567	6.79021	94863360	64106496	30530848	24992
568	7.776604	94863360	64106496	35539408	24992
569	10.146827	94863360	64106496	25178136	24992
570	9.864456	94863360	64106496	31470248	24992
571	12.410988	94863360	64106496	23033096	24992
572	1.95816	94863360	64106496	31288152	24992
573	2.891298	94863360	64106496	33188632	24992
574	3.933505	94863360	64106496	35735952	24992
575	6.388568	94863360	64106496	22908824	24992
576	5.596812	94863360	64106496	26724320	24992
577	6.537406	94863360	64106496	31172288	24992
578	7.705668	94863360	64106496	36261224	24992
579	9.982236	94863360	64106496	25890328	24992
580	10.072571	94863360	64106496	32258568	24992
581	12.530031	94863360	64106496	23813472	24992
582	1.990548	94863360	64106496	32193800	24992
583	3.084614	94863360	64106496	34133840	24992
584	3.829822	94863360	64106496	36715280	24992
585	6.138763	94863360	64106496	23824928	24992
586	5.977863	94863360	64106496	27697936	24992
587	7.039063	94863360	64106496	32232784	24992
588	7.931559	94863360	64106496	37411544	24992
589	10.197313	94863360	64106496	26998800	24992
590	10.208397	94863360	64106496	33480576	24992
591	12.763848	94863360	64106496	24946600	24992
592	2.029276	94863360	64106496	33433464	24992
593	3.209169	94863360	64106496	35392440	24992
594	5.269305	94863360	64106496	22119944	24992
595	5.107148	94863360	64106496	25399040	24992
596	6.182681	94863360	64106496	29327072	24992
597	7.146997	94863360	64106496	33931928	24992
598	9.724213	94863360	64106496	23552912	24992
599	9.892994	94863360	64106496	29467112	24992
600	10.188492	94863360	64106496	36038328	24992
601	12.540301	94863360	64106496	27188832	24992
602	2.052661	94863360	64106496	35841152	24992
603	3.09903	94863360	64106496	37829376	24992
604	5.33544	94863360	64106496	24274376	24992
605	5.162383	94863360	64106496	27592392	24992
606	6.481147	94863360	64106496	31576960	24992
607	7.239912	94863360	64106496	36228736	24992
608	9.606432	94863360	64106496	25581408	24992
609	9.498452	94863360	64106496	31573424	24992
610	10.553651	94863360	64106496	38257912	24992
611	12.648573	94863360	64106496	29176848	24992
612	2.091969	94863360	64106496	37933896	24992
613	4.39719	94863360	64106496	23741000	24992
614	4.037998	94863360	64106496	26432632	24992
615	5.095476	94863360	64106496	29821296	24992
616	6.316755	94863360	64106496	33875376	24992
617	9.045271	94863360	64106496	23094432	24992
618	8.525055	94863360	64106496	28496392	24992
619	9.463129	94863360	64106496	34582704	24992
620	12.278145	94863360	64106496	25632184	24992
621	11.514788	94863360	64106496	33071992	24992
622	2.237483	94863360	64106496	26608832	24992
623	3.519101	94863360	64106496	28675384	24992
624	4.481654	94863360	64106496	31406640	24992
625	5.720579	94863360	64106496	34827752	24992
626	8.044199	94863360	64106496	23335672	24992
627	7.449911	94863360	64106496	28124712	24992
628	8.497333	94863360	64106496	33602360	24992
629	11.275668	94863360	64106496	24314120	24992
630	10.681236	94863360	64106496	31173968	24992
631	11.609681	94863360	64106496	38737272	24992
632	2.126718	94863360	64106496	31361520	24992
633	3.235148	94863360	64106496	33443464	24992
634	4.310813	94863360	64106496	36215424	24992
635	7.196768	94863360	64106496	23891408	24992
636	6.44346	94863360	64106496	28051544	24992
637	7.688446	94863360	64106496	32937848	24992
638	8.694645	94863360	64106496	38496800	24992
639	11.0936	94863360	64106496	28552168	24992
640	11.01321	94863360	64106496	35520336	24992
641	13.577303	94863360	64106496	27420128	24992
642	2.17838	94863360	64106496	36585432	24992
643	3.277599	94863360	64106496	38694944	24992
644	5.66051	94863360	64106496	25308320	24992
645	5.502553	94863360	64106496	28821208	24992
646	6.60174	94863360	64106496	33055240	24992
647	7.696345	94863360	64106496	37980304	24992
648	10.183709	94863360	64106496	27542488	24992
649	10.133208	94863360	64106496	33922296	24992
650	12.765288	94863360	64106496	25566840	24992
651	12.312473	94863360	64106496	33329312	24992
652	2.241981	94863360	64106496	27288712	24992
653	3.350134	94863360	64106496	29423136	24992
654	4.474908	94863360	64106496	32294568	24992
655	5.663702	94863360	64106496	35856224	24992
656	8.319427	94863360	64106496	24499256	24992
657	7.990058	94863360	64106496	29516336	24992
658	8.966146	94863360	64106496	35249440	24992
659	11.858891	94863360	64106496	26064808	24992
660	11.365825	94863360	64106496	33218976	24992
661	14.22754	94863360	64106496	25819032	24992
662	2.265597	94863360	64106496	35215560	24992
663	3.545092	94863360	64106496	37384544	24992
664	5.793998	94863360	64106496	24472488	24992
665	5.785278	94863360	64106496	28082856	24992
666	6.466343	94863360	64106496	32430456	24992
667	7.852283	94863360	64106496	37506944	24992
668	10.593659	94863360	64106496	27383584	24992
669	9.890052	94863360	64106496	33904000	24992
670	13.582247	94863360	64106496	25889264	24992
671	12.507685	94863360	64106496	33879696	24992
672	2.298363	94863360	64106496	28108008	24992
673	3.425272	94863360	64106496	30308800	24992
674	4.760827	94863360	64106496	33235448	24992
675	5.760664	94863360	64106496	36901576	24992
676	8.579938	94863360	64106496	25633016	24992
677	8.180785	94863360	64106496	30798552	24992
678	9.049382	94863360	64106496	36678272	24992
679	12.299045	94863360	64106496	27515832	24992
680	12.181626	94863360	64106496	34869248	24992
681	14.87036	94863360	64106496	27569840	24992
682	2.256391	94863360	64106496	37204592	24992
683	3.472913	94863360	64106496	39426976	24992
684	6.152027	94863360	64106496	26259096	24992
685	5.76644	94863360	64106496	29967048	24992
686	7.179443	94863360	64106496	34419848	24992
687	8.177449	94863360	64106496	39627328	24992
688	10.4785	94863360	64106496	29397056	24992
689	10.736796	94863360	64106496	36094952	24992
690	13.311053	94863360	64106496	27907840	24992
691	13.267396	94863360	64106496	36119000	24992
692	2.258476	94863360	64106496	30279024	24992
693	3.533085	94863360	64106496	32545512	24992
694	4.823476	94863360	64106496	35562080	24992
695	5.677898	94863360	64106496	39318648	24992
696	8.562508	94863360	64106496	27790712	24992
697	8.289656	94863360	64106496	33077608	24992
698	9.471784	94863360	64106496	39100152	24992
699	12.296682	94863360	64106496	29741312	24992
700	11.882732	94863360	64106496	37284560	24992
701	15.105607	94863360	64106496	29830216	24992
702	2.27994	94863360	64106496	39743448	24992
703	4.816206	94863360	64106496	25976808	24992
704	4.98106	94863360	64106496	29019416	24992
705	5.974661	94863360	64106496	32825400	24992
706	7.339164	94863360	64106496	37399704	24992
707	10.234891	94863360	64106496	27102472	24992
708	9.755793	94863360	64106496	33213272	24992
709	10.815378	94863360	64106496	40095912	24992
710	13.381549	94863360	64106496	31471376	24992
711	13.317293	94863360	64106496	39878256	24992
712	2.412816	94863360	64106496	33732616	24992
713	3.815946	94863360	64106496	36043920	24992
714	4.974707	94863360	64106496	39125560	24992
715	7.69159	94863360	64106496	27058648	24992
716	7.226509	94863360	64106496	31703984	24992
717	8.444235	94863360	64106496	37143248	24992
718	11.558292	94863360	64106496	27705504	24992
719	11.169836	94863360	64106496	34660192	24992
720	14.153498	94863360	64106496	27199160	24992
721	13.455331	94863360	64106496	35712832	24992
722	2.363346	94863360	64106496	30560280	24992
723	3.585608	94863360	64106496	32912816	24992
724	4.904325	94863360	64106496	36037816	24992
725	6.316245	94863360	64106496	39940832	24992
726	9.078308	94863360	64106496	28588928	24992
727	8.797234	94863360	64106496	34102184	24992
728	9.825032	94863360	64106496	40358408	24992
729	12.64801	94863360	64106496	31239552	24992
730	12.464172	94863360	64106496	39078192	24992
731	15.516888	94863360	64106496	31760640	24992
732	3.93509	94863360	64106496	26057640	24992
733	3.739321	94863360	64106496	28426224	24992
734	4.947342	94863360	64106496	31585808	24992
735	6.212238	94863360	64106496	35548416	24992
736	7.566097	94863360	64106496	40293760	24992
737	10.219197	94863360	64106496	29816920	24992
738	10.010938	94863360	64106496	36151072	24992
739	13.459408	94863360	64106496	27966288	24992
740	12.296671	94863360	64106496	35894680	24992
741	16.62405	94863360	64106496	29361008	24992
742	2.51869	94863360	64106496	39769424	24992
743	5.339776	94863360	64106496	26295312	24992
744	5.053247	94863360	64106496	29493904	24992
745	6.228972	94863360	64106496	33514672	24992
746	7.694583	94863360	64106496	38318568	24992
747	10.374518	94863360	64106496	28334944	24992
748	10.136449	94863360	64106496	34767832	24992
749	11.597838	94863360	64106496	42018184	24992
750	13.909975	94863360	64106496	33656344	24992
751	16.287011	94863360	64106496	27652128	24992
752	2.542311	94863360	64106496	38208888	24992
753	3.826086	94863360	64106496	40635952	24992
754	6.66372	94863360	64106496	27896184	24992
755	6.398788	94863360	64106496	31945392	24992
756	7.49233	94863360	64106496	36807824	24992
757	10.931336	94863360	64106496	27207104	24992
758	10.187259	94863360	64106496	33697368	24992
759	11.736908	94863360	64106496	41033512	24992
760	14.495148	94863360	64106496	33017544	24992
761	14.347416	94863360	64106496	41991688	24992
762	2.565471	94863360	64106496	36373040	24992
763	3.862922	94863360	64106496	38830392	24992
764	5.059381	94863360	64106496	42109224	24992
765	8.072853	94863360	64106496	30039272	24992
766	7.541217	94863360	64106496	34960128	24992
767	9.179617	94863360	64106496	40707552	24992
768	12.143832	94863360	64106496	31298144	24992
769	11.730953	94863360	64106496	38720296	24992
770	14.896701	94863360	64106496	31249832	24992
771	14.145607	94863360	64106496	40315464	24992
772	2.610074	94863360	64106496	35146008	24992
773	3.892614	94863360	64106496	37631608	24992
774	5.394496	94863360	64106496	40962016	24992
775	8.328586	94863360	64106496	29231896	24992
776	7.879546	94863360	64106496	34220224	24992
777	9.293097	94863360	64106496	40040800	24992
778	12.840309	94863360	64106496	30856912	24992
779	11.829853	94863360	64106496	38340720	24992
780	15.026708	94863360	64106496	31123128	24992
781	14.331875	94863360	64106496	40282376	24992
782	2.655491	94863360	64106496	35359816	24992
783	3.970332	94863360	64106496	37890144	24992
784	5.410275	94863360	64106496	41244816	24992
785	9.256085	94863360	64106496	29568488	24992
786	7.921901	94863360	64106496	34606768	24992
787	9.24601	94863360	64106496	40491352	24992
788	12.379778	94863360	64106496	31407520	24992
789	11.891269	94863360	64106496	38983216	24992
790	15.469272	94863360	64106496	31798072	24992
791	14.876708	94863360	64106496	41074528	24992
792	2.67777	94863360	64106496	36132344	24992
793	4.22013	94863360	64106496	38676488	24992
794	5.292959	94863360	64106496	42070968	24992
795	8.490766	94863360	64106496	30306216	24992
796	8.091401	94863360	64106496	35416928	24992
797	9.447013	94863360	64106496	41375544	24992
798	12.75891	94863360	64106496	32177624	24992
799	11.923258	94863360	64106496	39866256	24992
800	15.706661	94863360	64106496	32727080	24992
801	14.778759	94863360	64106496	42105872	24992
802	2.69902	94863360	64106496	37174344	24992
803	4.064975	94863360	64106496	39755920	24992
804	5.729267	94863360	64106496	43194984	24992
805	8.38001	94863360	64106496	31360872	24992
806	8.404675	94863360	64106496	36521912	24992
807	9.548668	94863360	64106496	42543544	24992
808	12.688022	94863360	64106496	33294688	24992
809	12.659319	94863360	64106496	41044152	24992
810	15.800892	94863360	64106496	33840744	24992
811	14.936	94863360	64106496	43328928	24992
812	2.617259	94863360	64106496	38378672	24992
813	3.979965	94863360	64106496	40981328	24992
814	7.359181	94863360	64106496	28772192	24992
815	6.787984	94863360	64106496	33114000	24992
816	8.463056	94863360	64106496	38339088	24992
817	11.991206	94863360	64106496	29111456	24992
818	11.111603	94863360	64106496	36069784	24992
819	12.662292	94863360	64106496	43908104	24992
820	15.639422	94863360	64106496	36318080	24992
821	17.904688	94863360	64106496	30948616	24992
822	2.77922	94863360	64106496	42466304	24992
823	5.9144	94863360	64106496	29198936	24992
824	5.549074	94863360	64106496	32709792	24992
825	6.908493	94863360	64106496	37100240	24992
826	8.458022	94863360	64106496	42372064	24992
827	11.761314	94863360	64106496	32657920	24992
828	11.146592	94863360	64106496	39694360	24992
829	14.905985	94863360	64106496	32112368	24992
830	13.8033	94863360	64106496	40918232	24992
831	17.64615	94863360	64106496	34868656	24992
832	2.804955	94863360	64106496	30224832	24992
833	4.20088	94863360	64106496	32885976	24992
834	5.800144	94863360	64106496	36445320	24992
835	7.146237	94863360	64106496	40897016	24992
836	10.500642	94863360	64106496	30712736	24992
837	9.880016	94863360	64106496	36945944	24992
838	11.510303	94863360	64106496	44099472	24992
839	14.306555	94863360	64106496	35880400	24992
840	14.376596	94863360	64106496	44845040	24992
841	17.094587	94863360	64106496	38310480	24992
842	2.7262	94863360	64106496	34943240	24992
843	4.07807	94863360	64106496	37682856	24992
844	5.742109	94863360	64106496	41340128	24992
845	8.81789	95133696	64630784	30256496	24992
846	8.380359	95133696	64630784	35749088	24992
847	10.054937	95133696	64630784	42167400	24992
848	13.38342	95133696	65155072	33680080	24992
849	12.845871	95133696	65155072	41952512	24992
850	16.485878	95133696	65155072	35349352	24992
851	18.302504	95133696	65155072	30834080	24992
852	3.023932	95133696	65155072	42955064	24992
853	5.942245	95133696	65155072	29945592	24992
854	5.716917	95133696	65155072	33681960	24992
855	6.871913	95133696	65155072	38360312	24992
856	8.498921	95133696	65155072	44004856	24992
857	11.926396	95404032	65155072	34581776	24992
858	11.787612	95404032	65155072	42079744	24992
859	15.072901	95404032	65155072	34731544	24992
860	14.500925	95404032	65155072	44133376	24992
861	17.654062	95404032	65155072	38342104	24992
862	3.044953	95404032	65155072	35545960	24992
863	4.237098	95404032	65155072	38375144	24992
864	6.138156	95404032	65155072	42155640	24992
865	9.770886	95674368	65679360	31262832	24992
866	8.703875	95674368	65679360	36935008	24992
867	10.394776	95674368	65679360	43592032	24992
868	14.155073	95674368	65679360	35178440	24992
869	12.999419	95674368	65679360	43694528	24992
870	16.465883	95674368	65679360	37103360	24992
871	19.045879	95674368	65679360	32706448	24992
872	2.93001	95674368	65679360	45180576	24992
873	6.042395	95674368	65679360	31899488	24992
874	5.961173	95674368	65679360	35714016	24992
875	7.161533	95674368	65679360	40482592	24992
876	11.044488	95944704	65679360	30933912	24992
877	10.433471	95944704	65679360	37634856	24992
878	11.844468	95944704	65679360	45283104	24992
879	14.957515	95944704	65679360	37626080	24992
880	17.189591	95944704	65679360	32254176	24992
881	16.324701	95944704	65679360	42790488	24992
882	2.968462	95944704	65679360	39566488	24992
883	4.408695	95944704	65679360	42474424	24992
884	8.123457	96215040	66203648	30723856	24992
885	7.321559	96215040	66203648	35540792	24992
886	9.133107	96215040	66203648	41335264	24992
887	12.27124	96215040	66203648	32610296	24992
888	12.024378	96215040	66203648	40344904	24992
889	15.813928	96215040	66203648	33772256	24992
890	14.531125	96215040	66203648	43449808	24992
891	18.8166	96485376	66203648	38166416	24992
892	3.138819	96485376	66203648	35956136	24992
893	4.424103	96485376	66203648	38873032	24992
894	6.092789	96485376	66203648	42772512	24992
895	9.664139	96485376	66203648	32052152	24992
896	9.254551	96485376	66203648	37902392	24992
897	10.589701	96485376	66203648	44724992	24992
898	13.943724	96755712	66203648	36477176	24992
899	13.645825	96755712	66203648	45270144	24992
900	16.969673	96755712	66203648	38953152	24992
901	18.942742	96755712	66203648	34613336	24992
902	4.746343	96755712	66203648	31493384	24992
903	4.410979	96755712	66203648	34441760	24992
904	6.322383	96755712	66203648	38382424	24992
905	8.503586	96755712	66203648	43296760	24992
906	11.636733	97026048	66727936	33607952	24992
907	10.742049	97026048	66727936	40497464	24992
908	14.248656	97026048	66727936	33152984	24992
909	13.976363	97026048	66727936	42027600	24992
910	18.14761	97026048	66727936	36393776	24992
911	19.313106	97026048	66727936	32739744	24992
912	3.200857	97026048	66727936	45722752	24992
913	6.260078	97026048	66727936	32761872	24992
914	6.497533	97026048	66727936	36745472	24992
915	7.654921	97026048	66727936	41734608	24992
916	11.505838	97296384	66727936	32468392	24992
917	10.989451	97296384	66727936	39435072	24992
918	12.503849	97296384	66727936	47391728	24992
919	15.270757	97296384	66727936	39920856	24992
920	18.052226	97296384	66727936	34821984	24992
921	16.800339	97296384	66727936	45797416	24992
922	2.974707	97296384	66727936	42811792	24992
923	4.618284	97296384	66727936	45827664	24992
924	8.242658	97566720	67252224	33915432	24992
925	7.713452	97566720	67252224	38929120	24992
926	9.280097	97566720	67252224	44959856	24992
927	13.081851	97566720	67252224	36077312	24992
928	12.622131	97566720	67252224	44113840	24992
929	16.222263	97566720	67252224	37419136	24992
930	15.590253	97566720	67252224	47484912	24992
931	18.918925	97566720	67252224	42187328	24992
932	3.134431	97837056	67252224	40046368	24992
933	4.890785	97837056	67252224	43088448	24992
934	6.174099	97837056	67252224	47140944	24992
935	9.698695	97837056	67252224	36095960	24992
936	9.193367	97837056	67252224	42180976	24992
937	13.286109	97837056	67252224	33918608	24992
938	12.619294	97837056	67252224	42033384	24992
939	16.666458	98107392	67252224	35784224	24992
940	15.794146	98107392	67252224	45966152	24992
941	19.851333	98107392	67252224	41040832	24992
942	3.315814	98107392	67252224	39175312	24992
943	4.990647	98107392	67252224	42238440	24992
944	6.429012	98107392	67252224	46328432	24992
945	10.117594	98377728	67776512	35495904	24992
946	9.744507	98377728	67776512	41635872	24992
947	13.48432	98377728	67776512	33622960	24992
948	12.540836	98377728	67776512	41809360	24992
949	17.59247	98377728	67776512	35837312	24992
950	15.817451	98377728	67776512	46299064	24992
951	19.577044	98377728	67776512	41689728	24992
952	3.183452	98377728	67776512	39990736	24992
953	4.828689	98377728	67776512	43083200	24992
954	6.172344	98377728	67776512	47207992	24992
955	10.069946	98648064	67776512	36365800	24992
956	9.320792	98648064	67776512	42558840	24992
957	13.435469	98648064	67776512	34439424	24992
958	12.230613	98648064	67776512	42704144	24992
959	16.888204	98648064	68300800	36655624	24992
960	16.242383	98648064	68300800	47149432	24992
961	19.050732	98648064	68300800	42540064	24992
962	3.155537	98648064	68300800	40788592	24992
963	4.826697	98648064	68300800	43910200	24992
964	6.46718	98648064	68300800	48074120	24992
965	10.052275	98918400	68825088	37171864	24992
966	9.58351	98918400	68825088	43423488	24992
967	13.636957	98918400	68825088	35376752	24992
968	13.024888	98918400	68825088	43719088	24992
969	17.130624	98918400	68825088	37621824	24992
970	16.12179	98918400	68825088	48073040	24992
971	19.351433	98918400	68825088	43294136	24992
972	3.125552	98918400	68825088	41686824	24992
973	4.880709	98918400	68825088	44837792	24992
974	6.372146	98918400	68825088	49040568	24992
975	10.007044	99188736	68825088	38048032	24992
976	9.629759	99188736	68825088	44358040	24992
977	13.67403	99188736	68825088	36186480	24992
978	12.777513	99188736	68825088	44606888	24992
979	17.37712	99188736	68825088	38577408	24992
980	16.188109	99188736	68825088	49113424	24992
981	19.327144	99459072	69349376	44345960	24992
982	3.211654	99459072	69349376	42639224	24992
983	5.004044	99459072	69349376	45864192	24992
984	8.947223	99459072	69349376	34559728	24992
985	8.183344	99459072	69349376	39901256	24992
986	9.927823	99459072	69349376	46269944	24992
987	13.734495	99729408	69349376	37902208	24992
988	13.440213	99729408	69349376	46400920	24992
989	17.429362	99729408	69349376	40112784	24992
990	19.493216	99729408	69349376	36058792	24992
991	18.134836	99729408	69349376	47801648	24992
992	3.30572	99729408	69349376	45678920	24992
993	4.980803	99729408	69349376	48888488	24992
994	8.713746	99999744	69873664	37118072	24992
995	8.31724	99999744	69873664	42471424	24992
996	9.868625	99999744	69873664	48898448	24992
997	13.865136	99999744	69873664	40149960	24992
998	13.417214	99999744	69873664	48726696	24992
999	16.816893	99999744	69873664	42174912	24992
1000	19.631236	99999744	69873664	37986968	24992
