x	Duration	RSS	HeapTotal	HeapUsed	External
0	NA	94593024	63582208	11989648	24992
1	0.56378	94593024	63582208	12041576	24992
2	0.390936	94593024	63582208	12118360	24992
3	0.451674	94593024	63582208	12222256	24992
4	0.548883	94593024	63582208	12354808	24992
5	0.649303	94593024	63582208	12517544	24992
6	0.761277	94593024	63582208	12710856	24992
7	1.062409	94593024	63582208	12935744	24992
8	0.984763	94593024	63582208	13193192	24992
9	1.106823	94593024	63582208	13485144	24992
10	1.914684	94593024	63582208	13812224	24992
11	1.512153	94593024	63582208	14178952	24992
12	0.188786	94593024	63582208	14571360	24992
13	0.228872	94593024	63582208	14683864	24992
14	0.285413	94593024	63582208	14835192	24992
15	0.349428	94593024	63582208	15026488	24992
16	0.435943	94593024	63582208	15261312	24992
17	0.465903	94593024	63582208	15535432	24992
18	0.527529	94593024	63582208	15852360	24992
19	0.591216	94593024	63582208	16213848	24992
20	0.666704	94593024	63582208	16621016	24992
21	0.734179	94593024	63582208	17074296	24992
22	0.168801	94593024	63582208	17582024	24992
23	0.258008	94593024	63582208	17724464	24992
24	0.335246	94593024	63582208	17917080	24992
25	0.417351	94593024	63582208	18160712	24992
26	0.489735	94593024	63582208	18456960	24992
27	0.581287	94593024	63582208	18806288	24992
28	0.654215	94593024	63582208	19209544	24992
29	0.737855	94593024	63582208	19667800	24992
30	0.825388	94593024	63582208	20183040	24992
31	0.910679	94593024	63582208	20755264	24992
32	0.202854	94593024	63582208	21405944	24992
33	0.302958	94593024	63582208	21580952	24992
34	0.396467	94593024	63582208	21815768	24992
35	0.488247	94593024	63582208	22111464	24992
36	0.58367	94593024	63582208	22469520	24992
37	0.805309	94593024	63582208	22890304	24992
38	1.026253	94593024	63582208	23375928	24992
39	0.881219	94593024	63582208	23924880	24992
40	0.978797	94593024	63582208	24540432	24992
41	1.668638	94593024	63582208	25222648	24992
42	0.24001	94593024	63582208	26005360	24992
43	0.354752	94593024	63582208	26209480	24992
44	0.481615	94593024	63582208	26483152	24992
45	0.60083	94593024	63582208	26828888	24992
46	1.032167	94593024	63582208	27246696	24992
47	0.831196	94593024	63582208	27746272	24992
48	0.906729	94593024	63582208	28311144	24992
49	1.948111	94593024	63582208	12689368	24992
50	1.243255	94593024	63582208	13410088	24992
51	1.368766	94593024	63582208	14208456	24992
52	0.282019	94593024	63582208	15133544	24992
53	0.430947	94593024	63582208	15375280	24992
54	0.563329	94593024	63582208	15699072	24992
55	0.698577	94593024	63582208	16106448	24992
56	0.850297	94593024	63582208	16597928	24992
57	1.093957	94593024	63582208	17174472	24992
58	1.024129	94593024	63582208	17836944	24992
59	1.149841	94593024	63582208	18586592	24992
60	1.288193	94593024	63582208	19424944	24992
61	1.416455	94593024	63582208	20352840	24992
62	0.291336	94593024	63582208	21426696	24992
63	0.439337	94593024	63582208	21697680	24992
64	0.586656	94593024	63582208	22060480	24992
65	0.883985	94593024	63582208	22516104	24992
66	0.869981	94593024	63582208	23066056	24992
67	1.033285	94593024	63582208	23713800	24992
68	1.206999	94593024	63582208	24454272	24992
69	1.292073	94593024	63582208	25291632	24992
70	1.430058	94593024	63582208	26227560	24992
71	1.589302	94593024	63582208	27262120	24992
72	0.322816	94593024	63582208	28465096	24992
73	0.486899	94593024	63582208	28765312	24992
74	1.395994	94593024	63582208	12949616	24992
75	0.865046	94593024	63582208	13454064	24992
76	1.030926	94593024	63582208	14062552	24992
77	1.383969	94593024	63582208	14775568	24992
78	1.27206	94593024	63582208	15594056	24992
79	1.427797	94593024	63582208	16519072	24992
80	1.601894	94593024	63582208	17552992	24992
81	1.886031	94593024	63582208	18696016	24992
82	0.357975	94593024	63582208	20029136	24992
83	0.535926	94593024	63582208	20358528	24992
84	0.702179	94593024	63582208	20801536	24992
85	0.87328	94593024	63582208	21356856	24992
86	1.236255	94593024	63582208	22027656	24992
87	1.260113	94593024	63582208	22813336	24992
88	1.388206	94593024	63582208	23715464	24992
89	1.577168	94593024	63582208	24734912	24992
90	1.744703	94593024	63582208	25873680	24992
91	1.933415	94593024	63582208	27131848	24992
92	0.419849	94593024	63582208	28603672	24992
93	0.578814	94593024	63582208	28965704	24992
94	1.33984	94593024	63582208	13149656	24992
95	0.962237	94593024	63582208	13757240	24992
96	1.143518	94593024	63582208	14489408	24992
97	1.341961	94593024	63582208	15346816	24992
98	1.515707	94593024	63582208	16330296	24992
99	1.759439	94593024	63582208	17444296	24992
100	1.903091	94593024	63582208	18684008	24992
101	2.273335	94593024	63582208	20052696	24992
102	0.414406	94593024	63582208	21667744	24992
103	0.625347	94593024	63582208	22071520	24992
104	0.835909	94593024	63582208	22611432	24992
105	1.037487	94593024	63582208	23288464	24992
106	1.236909	94593024	63582208	24104208	24992
107	1.450468	94593024	63582208	25058960	24992
108	1.650253	94593024	63582208	26153776	24992
109	1.852606	94593024	63582208	27390520	24992
110	2.263378	94593024	63582208	28769304	24992
111	2.951021	94593024	63582208	14011752	24992
112	0.48361	94593024	63582208	15799560	24992
113	0.720193	94593024	63582208	16232616	24992
114	0.950766	94593024	63582208	16811560	24992
115	1.18474	94593024	63582208	17537392	24992
116	1.591575	94593024	63582208	18411600	24992
117	1.554231	94593024	63582208	19434672	24992
118	1.95396	94593024	63582208	20609168	24992
119	2.323536	94593024	63582208	21934696	24992
120	2.226939	94593024	63582208	23411064	24992
121	2.440935	94593024	63582208	25040192	24992
122	0.479524	94593024	63582208	26955296	24992
123	0.718661	94593024	63582208	27417584	24992
124	0.959487	94593024	63582208	28035592	24992
125	1.178441	94593024	63582208	28810152	24992
126	2.014843	94593024	63582208	13476200	24992
127	1.729542	94593024	63582208	14567544	24992
128	2.07227	94593024	63582208	15821648	24992
129	2.334379	94593024	63582208	17233760	24992
130	2.369684	94593024	63582208	18807608	24992
131	2.606803	94593024	63582208	20543936	24992
132	0.505293	94593024	63582208	22586408	24992
133	0.76065	94593024	63582208	23077944	24992
134	1.002551	94593024	63582208	23738600	24992
135	1.441939	94593024	63582208	24561904	24992
136	1.503395	94593024	63582208	25553192	24992
137	1.757401	94593024	63582208	26712752	24992
138	2.001155	94593024	63582208	28042768	24992
139	2.88599	94593024	63582208	13398264	24992
140	2.832296	94593024	63582208	15071744	24992
141	2.804531	94593024	63582208	16915360	24992
142	0.538072	94593024	63582208	19092936	24992
143	0.809036	94593024	63582208	19619288	24992
144	1.078007	94593024	63582208	20322592	24992
145	1.334806	94593024	63582208	21203784	24992
146	1.604273	94593024	63582208	22264512	24992
147	2.059524	94593024	63582208	23505136	24992
148	2.200646	94593024	63582208	24926728	24992
149	2.396746	94593024	63582208	26530160	24992
150	2.687747	94593024	63582208	28318984	24992
151	3.782004	94593024	63582208	14108976	24992
152	0.571788	94593024	63582208	16431688	24992
153	0.855897	94593024	63582208	16987272	24992
154	1.13342	94593024	63582208	17729592	24992
155	1.421435	94593024	63582208	18661648	24992
156	1.689918	94593024	63582208	19780952	24992
157	1.98917	94593024	63582208	21090928	24992
158	2.290922	94593024	63582208	22590416	24992
159	2.561083	94593024	63582208	24281528	24992
160	2.832925	94593024	63582208	26166352	24992
161	3.118296	94593024	63582208	28244696	24992
162	0.649221	94593024	63582208	14544688	24992
163	0.979398	94593024	63582208	15129496	24992
164	1.286209	94593024	63582208	15910856	24992
165	1.597845	94593024	63582208	16890552	24992
166	1.918667	94593024	63582208	18068232	24992
167	2.400228	94593024	63582208	19445296	24992
168	2.416533	94593024	63582208	21022888	24992
169	2.696312	94593024	63582208	22802552	24992
170	3.039404	94593024	63582208	24784816	24992
171	3.293091	94593024	63582208	26971848	24992
172	0.679942	94593024	63582208	29556576	24992
173	1.514411	94593024	63582208	13823456	24992
174	1.353447	94593024	63582208	14643808	24992
175	1.691763	94593024	63582208	15671368	24992
176	2.129509	94593024	63582208	16907640	24992
177	2.395471	94593024	63582208	18353024	24992
178	2.534632	94593024	63582208	20008488	24992
179	2.830136	94593024	63582208	21875184	24992
180	3.165983	94593024	63582208	23954880	24992
181	3.477341	94593024	63582208	26248992	24992
182	0.659883	94593024	63582208	28960936	24992
183	0.998341	94593024	63582208	29604256	24992
184	1.835508	94593024	63582208	14129864	24992
185	1.660823	94593024	63582208	15206160	24992
186	1.987223	94593024	63582208	16500872	24992
187	2.294117	94593024	63582208	18014424	24992
188	2.63859	94593024	63582208	19747944	24992
189	3.017687	94593024	63582208	21702312	24992
190	3.30671	94593024	63582208	23879456	24992
191	3.905546	94593024	63582208	26279448	24992
192	0.698124	94593024	63582208	29118432	24992
193	1.113311	94593024	63582208	29791040	24992
194	1.916446	94593024	63582208	14338216	24992
195	1.974199	94593024	63582208	15464496	24992
196	2.068705	94593024	63582208	16818824	24992
197	2.421062	94593024	63582208	18400704	24992
198	2.767472	94593024	63582208	20212224	24992
199	3.096216	94593024	63582208	22254440	24992
200	3.634242	94593024	63582208	24529192	24992
201	3.819238	94593024	63582208	27036424	24992
202	0.881497	94593024	63582208	30018496	24992
203	1.513826	94593024	63582208	14330688	24992
204	1.451564	94593024	63582208	15268632	24992
205	1.808864	94593024	63582208	16442408	24992
206	2.154244	94593024	63582208	17855792	24992
207	2.539466	94593024	63582208	19514152	24992
208	3.093432	94593024	63582208	21422016	24992
209	3.298247	94593024	63582208	23576600	24992
210	3.863959	94593024	63582208	25981832	24992
211	4.412748	94593024	63582208	28637696	24992
212	0.773724	94593024	63582208	15652080	24992
213	1.211799	94593024	63582208	16407904	24992
214	1.612912	94593024	63582208	17417216	24992
215	2.003324	94593024	63582208	18681080	24992
216	2.583364	94593024	63582208	20200968	24992
217	2.806317	94593024	63582208	21977224	24992
218	3.451959	94593024	63582208	24010840	24992
219	3.677893	94593024	63582208	26305896	24992
220	4.258902	94593024	63582208	28858176	24992
221	5.000849	94593024	63582208	15507760	24992
222	0.828443	94593024	63582208	18843784	24992
223	1.261114	94593024	63582208	19628824	24992
224	1.66691	94593024	63582208	20677144	24992
225	2.08303	94593024	63582208	21989608	24992
226	2.496058	94593024	63582208	23568416	24992
227	2.996426	94593024	63582208	25413768	24992
228	3.516956	94593024	63582208	27525376	24992
229	3.972497	94593024	63582208	29910800	24992
230	5.012889	94593024	63582208	16247656	24992
231	4.846259	94593024	63582208	19176160	24992
232	0.849022	94593024	63582208	22661432	24992
233	1.232845	94593024	63582208	23484432	24992
234	1.726956	94593024	63582208	24583304	24992
235	2.131522	94593024	63582208	25958952	24992
236	2.573281	94593024	63582208	27613096	24992
237	3.222616	94593024	63582208	29546032	24992
238	3.835263	94593024	63582208	15503928	24992
239	3.923097	94593024	63582208	17997328	24992
240	4.715392	94593024	63582208	20775008	24992
241	4.729791	94593024	63582208	23833888	24992
242	0.881861	94593024	63582208	27464480	24992
243	1.539367	94593024	63582208	28316688	24992
244	1.794038	94593024	63582208	29461448	24992
245	2.737371	94593024	63582208	14669352	24992
246	2.931993	94593024	63582208	16384192	24992
247	3.125755	94593024	63582208	18391888	24992
248	3.79849	94593024	63582208	20682544	24992
249	4.063358	94593024	63582208	23263776	24992
250	4.522999	94593024	63582208	26146016	24992
251	4.901715	94593024	63582208	29314648	24992
252	0.903467	94593024	63582208	16873400	24992
253	1.590235	94593024	63582208	17756584	24992
254	1.856401	94593024	63582208	18933424	24992
255	2.347359	94593024	63582208	20406688	24992
256	3.145727	94593024	63582208	22180832	24992
257	3.236407	94593024	63582208	24250320	24992
258	3.752607	94593024	63582208	26618784	24992
259	4.204068	94593024	63582208	29287336	24992
260	5.200961	94593024	63582208	16098344	24992
261	5.081913	94593024	63582208	19371352	24992
262	0.986393	94593024	63582208	23258208	24992
263	1.457107	94593024	63582208	24168896	24992
264	1.932635	94593024	63582208	25392400	24992
265	2.411723	94593024	63582208	26914176	24992
266	2.903391	94593024	63582208	28743680	24992
267	3.971149	94593024	63582208	14833528	24992
268	3.87006	94593024	63582208	17280008	24992
269	4.368279	94593024	63582208	20036464	24992
270	5.095218	94593024	63582208	23106456	24992
271	5.235577	94593024	63582208	26489320	24992
272	0.941536	94593024	63582208	30510096	24992
273	2.068186	94593024	63582208	15100640	24992
274	1.887435	94593024	63582208	16355376	24992
275	2.436741	94593024	63582208	17925936	24992
276	3.004121	94593024	63582208	19813792	24992
277	3.49196	94593024	63582208	22022200	24992
278	4.010766	94593024	63582208	24546584	24992
279	4.510784	94593024	63582208	27395624	24992
280	5.019657	94593024	63582208	30561536	24992
281	5.913279	94593024	63582208	17713280	24992
282	1.000827	94593024	63582208	21852224	24992
283	1.462334	94593024	63582208	22821432	24992
284	1.995207	94593024	63582208	24120376	24992
285	2.588889	94593024	63582208	25739704	24992
286	3.082882	94593024	63582208	27686096	24992
287	3.60522	94593024	63582208	29960064	24992
288	4.609038	94593024	63582208	16339664	24992
289	4.83169	94593024	63582208	19271648	24992
290	5.171482	94593024	63582208	22541152	24992
291	5.758389	94593024	63582208	26148360	24992
292	1.056454	94593024	63582208	30414696	24992
293	2.204722	94593024	63582208	15122320	24992
294	2.066721	94593024	63582208	16455064	24992
295	2.667547	94593024	63582208	18123200	24992
296	3.187794	94593024	63582208	20132832	24992
297	3.73429	94593024	63582208	22475032	24992
298	5.061989	94593024	63582208	25155456	24992
299	4.714915	94593024	63582208	28183920	24992
300	6.16287	94593024	63582208	15667440	24992
301	5.865959	94593024	63582208	19380968	24992
302	1.087553	94593024	63582208	23778624	24992
303	1.636498	94593024	63582208	24806288	24992
304	2.157104	94593024	63582208	26178144	24992
305	2.906458	94593024	63582208	27895080	24992
306	3.135687	94593024	63582208	29958424	24992
307	4.400874	94593024	63582208	16257448	24992
308	4.562075	94593024	63582208	19016152	24992
309	4.902816	94593024	63582208	22123472	24992
310	5.476243	94593024	63582208	25581776	24992
311	6.053237	94593024	63582208	29390832	24992
312	1.119691	94593024	63582208	17934872	24992
313	1.693453	94593024	63582208	18991704	24992
314	2.258804	94593024	63582208	20402440	24992
315	2.811542	94593024	63582208	22168096	24992
316	3.369737	94593024	63582208	24299800	24992
317	4.080631	94593024	63582208	26778560	24992
318	4.717676	94593024	63582208	29628856	24992
319	5.800803	94593024	63582208	16809248	24992
320	5.66264	94593024	63582208	20367472	24992
321	6.320051	94593024	63582208	24292296	24992
322	1.152764	94593024	63582208	28939832	24992
323	1.730393	94593024	63582208	30026048	24992
324	2.47298	94593024	63582208	31475760	24992
325	3.421118	94593024	63582208	16991168	24992
326	3.480482	94593024	63582208	19171648	24992
327	4.062292	94593024	63582208	21718736	24992
328	4.635524	94593024	63582208	24633288	24992
329	5.217484	94593024	63582208	27916208	24992
330	6.009194	94593024	63582208	31570640	24992
331	7.094962	94593024	63582208	19289112	24992
332	1.191813	94593024	63582208	24063968	24992
333	1.781597	94593024	63582208	25179344	24992
334	2.39211	94593024	63582208	26668136	24992
335	2.971416	94593024	63582208	28534512	24992
336	3.594323	94593024	63582208	30774320	24992
337	5.122525	94593024	63582208	17275264	24992
338	4.753509	94593024	63582208	20268144	24992
339	5.262964	94593024	63582208	23646288	24992
340	6.247658	94593024	63582208	27397200	24992
341	6.541138	94593024	63582208	31528264	24992
342	1.226124	94593024	63582208	20201472	24992
343	1.844257	94593024	63582208	21346144	24992
344	2.812054	94593024	63582208	22873888	24992
345	2.979047	94593024	63582208	24785776	24992
346	3.674974	94593024	63582208	27083216	24992
347	4.308524	94593024	63582208	29766648	24992
348	5.78715	94593024	63582208	16906128	24992
349	5.538626	94593024	63582208	20364600	24992
350	6.450905	94593024	63582208	24212960	24992
351	7.095361	94593024	63582208	28457112	24992
352	1.255601	94593024	63582208	17781824	24992
353	1.883724	94593024	63582208	18955784	24992
354	2.705533	94593024	63582208	20522624	24992
355	3.075925	94593024	63582208	22483160	24992
356	3.769786	94593024	63582208	24839168	24992
357	4.416593	94593024	63582208	27590832	24992
358	5.038163	94593024	63582208	30746184	24992
359	6.653618	94593024	63582208	18244424	24992
360	6.308694	94593024	63582208	22209416	24992
361	7.104638	94593024	63582208	26566152	24992
362	1.279105	94593024	63582208	31763344	24992
363	2.593692	94593024	63582208	16807200	24992
364	2.582665	94593024	63582208	18430792	24992
365	3.219127	94593024	63582208	20470640	24992
366	3.872473	94593024	63582208	22922528	24992
367	4.680689	94593024	63582208	25775504	24992
368	5.158713	94593024	63582208	29037552	24992
369	6.922096	94593024	63582208	17012208	24992
370	6.432197	94593024	63582208	21099992	24992
371	7.153546	94593024	63582208	25601864	24992
372	1.29817	94593024	63582208	30965224	24992
373	1.989689	94593024	63582208	32211080	24992
374	3.246608	94593024	63582208	17629088	24992
375	3.306505	94593024	63582208	19710680	24992
376	4.028007	94593024	63582208	22210224	24992
377	4.517351	94593024	63582208	25131616	24992
378	5.206409	94593024	63582208	28471672	24992
379	5.973486	94593024	63582208	32238816	24992
380	7.358086	94593024	63582208	20188520	24992
381	7.306925	94593024	63582208	24797400	24992
382	1.33602	94593024	63582208	30290096	24992
383	2.029628	94593024	63582208	31577640	24992
384	3.445578	94593024	63582208	17184288	24992
385	3.408745	94593024	63582208	19313472	24992
386	4.048763	94593024	63582208	21872912	24992
387	4.854411	94593024	63582208	24867160	24992
388	5.312447	94593024	63582208	28287848	24992
389	6.294866	94593024	63582208	32137432	24992
390	7.410782	94593024	63582208	20252328	24992
391	7.493493	94593024	63582208	24968552	24992
392	1.34093	94593024	63582208	30604368	24992
393	2.023994	94593024	63582208	31918304	24992
394	3.535258	94593024	63582208	17565080	24992
395	3.477564	94593024	63582208	19749888	24992
396	4.327131	94593024	63582208	22366528	24992
397	4.860122	94593024	63582208	25431520	24992
398	5.547524	94593024	63582208	28928016	24992
399	6.264876	94593024	63582208	32868312	24992
400	7.824734	94593024	63582208	21004920	24992
401	7.506776	94593024	63582208	25829728	24992
402	1.406971	94593024	63582208	31575112	24992
403	2.126472	94593024	63582208	32908632	24992
404	3.493743	94593024	63582208	18447960	24992
405	3.50131	94593024	63582208	20674688	24992
406	4.404887	94593024	63582208	23350952	24992
407	5.109963	94593024	63582208	26482032	24992
408	5.679592	94593024	63582208	30056144	24992
409	7.48634	94593024	63582208	18360304	24992
410	7.017594	94593024	63582208	22844096	24992
411	7.813179	94593024	63582208	27777272	24992
412	2.192405	94593024	63582208	17501992	24992
413	2.179021	94593024	63582208	18876296	24992
414	2.881736	94593024	63582208	20694776	24992
415	4.019495	94593024	63582208	22970136	24992
416	4.289704	94593024	63582208	25703784	24992
417	5.08157	94593024	63582208	28915744	24992
418	5.807967	94593024	63582208	32600880	24992
419	7.446895	94593024	63582208	20616864	24992
420	7.114387	94593024	63582208	25267024	24992
421	8.056412	94593024	63582208	30392224	24992
422	1.490431	94593024	63582208	20735688	24992
423	2.228087	94593024	63582208	22177048	24992
424	2.972862	94593024	63582208	24100504	24992
425	3.844941	94593024	63582208	26514096	24992
426	4.365127	94593024	63582208	29406808	24992
427	5.204197	94593024	63582208	32782584	24992
428	6.864957	94593024	63582208	20480248	24992
429	6.704961	94593024	63582208	24844120	24992
430	7.22467	94593024	63582208	29691160	24992
431	9.53903	94593024	63582208	19345416	24992
432	1.511136	94593024	63582208	25705712	24992
433	2.241303	94593024	63582208	27187256	24992
434	3.026586	94593024	63582208	29166520	24992
435	3.717739	94593024	63582208	31621776	24992
436	5.698507	94593024	63582208	18647040	24992
437	5.342585	94593024	63582208	22095704	24992
438	6.038425	94593024	63582208	26037664	24992
439	6.86127	94593024	63582208	30474240	24992
440	8.616528	94593024	63582208	19723832	24992
441	8.277792	94593024	63582208	25167776	24992
442	1.538831	94593024	63582208	31661168	24992
443	2.313804	94593024	63582208	33162088	24992
444	3.932085	94593024	63582208	19030384	24992
445	4.027154	94593024	63582208	21534352	24992
446	4.698371	94593024	63582208	24542216	24992
447	5.383837	94593024	63582208	28055008	24992
448	6.290208	94593024	63582208	32102864	24992
449	7.86719	94593024	63582208	20682488	24992
450	7.776173	94593024	63582208	25714976	24992
451	8.594496	94593024	63582208	31272744	24992
452	1.585128	94593024	63582208	22066104	24992
453	2.426158	94593024	63582208	23615864	24992
454	3.320516	94593024	63582208	25665072	24992
455	3.947654	94593024	63582208	28247152	24992
456	4.740142	94593024	63582208	31325072	24992
457	7.101922	94593024	63582208	19131648	24992
458	6.328484	94593024	63582208	23245448	24992
459	7.285249	94593024	63582208	27875456	24992
460	8.059555	94593024	63582208	33039304	24992
461	9.669572	94593024	63582208	22540712	24992
462	1.60461	94593024	63582208	29277296	24992
463	2.596364	94593024	63582208	30835744	24992
464	3.229973	94593024	63582208	32915136	24992
465	5.016445	94593024	63582208	19538040	24992
466	5.027248	94593024	63582208	22662960	24992
467	5.655616	94593024	63582208	26311696	24992
468	6.467683	94593024	63582208	30485712	24992
469	8.648075	94593024	63582208	19651288	24992
470	7.857845	94593024	63582208	24878816	24992
471	9.160223	94593024	63582208	30753960	24992
472	1.659687	94593024	63582208	21914408	24992
473	2.464743	94593024	63582208	23501928	24992
474	3.290982	94593024	63582208	25637392	24992
475	4.293808	94593024	63582208	28287536	24992
476	5.09625	94593024	63582208	31471088	24992
477	7.022055	94593024	63582208	19479592	24992
478	6.422213	94593024	63582208	23751736	24992
479	7.456088	94593024	63582208	28539144	24992
480	8.400759	94593024	63582208	33864280	24992
481	9.713689	94593024	63582208	23542720	24992
482	1.658806	94593024	63582208	30540344	24992
483	2.520989	94593024	63582208	32157248	24992
484	3.366557	94593024	63582208	34314624	24992
485	5.137546	94593024	63582208	20872032	24992
486	5.224617	94593024	63582208	24113880	24992
487	5.871464	94593024	63582208	27899824	24992
488	6.754721	94593024	63582208	32229608	24992
489	8.810174	94593024	63582208	21316280	24992
490	8.447839	94593024	63582208	26738968	24992
491	9.472862	94593024	63582208	32710952	24992
492	1.715567	94593024	63582208	23862376	24992
493	2.760005	94593024	63582208	25510912	24992
494	3.335658	94593024	63582208	27727984	24992
495	4.283121	94593024	63582208	30475696	24992
496	5.129549	94593024	63582208	33776128	24992
497	7.089677	94593024	63582208	21581400	24992
498	6.979573	94593024	63582208	25989096	24992
499	7.664997	94593024	63582208	30974000	24992
500	9.899865	94593024	63582208	20907800	24992
501	9.622663	94593024	63582208	26994096	24992
502	1.736858	94593024	63582208	34255384	24992
503	3.601872	94593024	63582208	19879024	24992
504	3.48481	94593024	63582208	22114416	24992
505	4.346749	94593024	63582208	24925088	24992
506	5.205654	94593024	63582208	28284016	24992
507	6.327168	94593024	63582208	32217936	24992
508	8.092033	94593024	63582208	20986328	24992
509	7.917004	94593024	63582208	26051224	24992
510	8.648543	94593024	63582208	31668688	24992
511	11.260772	94593024	63582208	22194056	24992
512	1.752691	94593024	63582208	29587904	24992
513	2.65308	94593024	63582208	31296672	24992
514	3.548701	94593024	63582208	33571088	24992
515	5.550772	94593024	63582208	20512440	24992
516	5.34615	94593024	63582208	23929904	24992
517	6.050144	94593024	63582208	27931584	24992
518	7.097333	94593024	63582208	32510032	24992
519	9.348004	94593024	63582208	21922008	24992
520	9.042549	94593024	63582208	27650808	24992
521	9.81802	94593024	63582208	33943384	24992
522	1.714319	94593024	63582208	25409928	24992
523	2.708915	94593024	63582208	27143784	24992
524	3.607144	94593024	63582208	29466504	24992
525	4.680345	94593024	63582208	32360432	24992
526	5.42761	94593024	63582208	35847192	24992
527	7.17075	94593024	63582208	23685184	24992
528	7.055673	94593024	63582208	28327984	24992
529	8.257262	94593024	63582208	33568888	24992
530	10.341645	94593024	63582208	23456872	24992
531	9.66563	94593024	63582208	29857192	24992
532	2.718593	94593024	63582208	21186176	24992
533	2.790446	94593024	63582208	22949288	24992
534	3.601456	94593024	63582208	25302168	24992
535	4.734078	94593024	63582208	28249704	24992
536	5.468432	94593024	63582208	31783944	24992
537	6.440507	94593024	63582208	35910392	24992
538	8.343456	94593024	63582208	24411712	24992
539	8.229137	94593024	63582208	29737248	24992
540	9.501104	94593024	63582208	35654920	24992
541	11.650387	94593024	63582208	25953976	24992
542	1.863203	94593024	63582208	33723832	24992
543	2.807014	94593024	63582208	35516160	24992
544	4.927782	94593024	63582208	21784488	24992
545	4.668055	94593024	63582208	24775904	24992
546	5.574237	94593024	63582208	28368784	24992
547	6.664882	94593024	63582208	32563632	24992
548	9.103947	94593024	63582208	21735504	24992
549	8.634242	94593024	63582208	27137248	24992
550	9.364114	94593024	63582208	33157424	24992
551	11.702225	94593024	63582208	23987768	24992
552	1.893104	94593024	63582208	31870016	24992
553	3.025513	94593024	63582208	33691648	24992
554	3.767928	94593024	63582208	36135264	24992
555	5.778777	94593024	63582208	22997144	24992
556	5.724205	94593024	63582208	26668400	24992
557	6.848119	94593024	63582208	30966312	24992
558	7.256116	94593024	63582208	35865032	24992
559	9.418541	94593024	63582208	25290328	24992
560	9.365058	94593024	63582208	31429264	24992
561	12.091774	94593024	63582208	22785640	24992
562	1.832937	94593024	63582208	30858680	24992
563	2.765183	94593024	63582208	32744904	24992
564	3.712928	94593024	63582208	35255040	24992
565	5.989895	94593024	63582208	22383120	24992
566	5.818529	94593024	63582208	26138296	24992
567	6.951107	94593024	63582208	30521432	24992
568	7.802468	94593024	63582208	35529992	24992
569	9.789192	94593024	63582208	25168720	24992
570	9.672478	94593024	63582208	31460832	24992
571	12.538042	94593024	63582208	23023680	24992
572	1.967267	94593024	63582208	31278736	24992
573	2.95006	94593024	63582208	33179216	24992
574	3.916675	94593024	63582208	35726536	24992
575	5.982204	94593024	63582208	22899408	24992
576	6.068526	94593024	63582208	26714904	24992
577	6.958586	94593024	63582208	31162872	24992
578	7.90943	94593024	63582208	36251808	24992
579	10.370849	94593024	63582208	25880912	24992
580	9.823882	94593024	63582208	32249152	24992
581	13.055068	94593024	63582208	23804056	24992
582	1.90734	94593024	63582208	32184384	24992
583	2.947458	94593024	63582208	34124424	24992
584	4.147805	94593024	63582208	36705864	24992
585	6.161875	94593024	63582208	23815512	24992
586	5.959843	94593024	63582208	27688520	24992
587	6.773175	94593024	63582208	32223368	24992
588	8.196015	94593024	63582208	37402128	24992
589	10.244948	94593024	63582208	26989384	24992
590	9.993671	94593024	63582208	33471160	24992
591	12.653752	94593024	63582208	24937184	24992
592	2.168823	94593024	63582208	33424048	24992
593	3.029393	94593024	63582208	35383024	24992
594	6.183946	94593024	63582208	22110888	24992
595	5.076276	94593024	63582208	25389984	24992
596	6.171803	94593024	63582208	29332960	24992
597	7.103022	94593024	63582208	33937816	24992
598	9.737978	94593024	63582208	23557688	24992
599	9.829389	94593024	63582208	29473000	24992
600	10.388693	94593024	63582208	36044216	24992
601	12.196164	94593024	63582208	27193632	24992
602	1.953573	94593024	63582208	35845952	24992
603	2.975422	94593024	63582208	37834176	24992
604	5.26278	94593024	63582208	24275848	24992
605	5.143477	94593024	63582208	27593736	24992
606	6.200002	94593024	63582208	31578424	24992
607	7.025872	94593024	63582208	36230328	24992
608	9.748179	94593024	63582208	25582904	24992
609	9.721501	94593024	63582208	31574920	24992
610	10.368745	94593024	63582208	38259408	24992
611	12.387521	94593024	63582208	29176456	24992
612	2.034112	94593024	63582208	37933504	24992
613	4.21702	94593024	63582208	23737712	24992
614	4.207386	94593024	63582208	26429216	24992
615	5.181847	94593024	63582208	29819488	24992
616	6.312297	94593024	63582208	33873568	24992
617	9.127659	94593024	63582208	23089288	24992
618	8.621655	94593024	63582208	28493168	24992
619	9.661766	94593024	63582208	34579480	24992
620	12.184287	94593024	63582208	25625712	24992
621	11.343488	94593024	63582208	33066880	24992
622	2.136876	94593024	63582208	26602304	24992
623	3.195502	94593024	63582208	28668856	24992
624	4.348665	94593024	63582208	31400112	24992
625	5.220132	94593024	63582208	34821224	24992
626	8.015643	94593024	63582208	23325888	24992
627	7.294466	94593024	63582208	28117240	24992
628	8.493698	94593024	63582208	33594888	24992
629	11.487218	94593024	63582208	24302928	24992
630	10.740148	94593024	63582208	31164136	24992
631	11.760921	94593024	63582208	38727440	24992
632	2.118073	94593024	63582208	31319888	24992
633	3.145365	94593024	63582208	33415552	24992
634	4.212656	94593024	63582208	36185696	24992
635	6.78935	94593024	63582208	23826696	24992
636	6.602947	94593024	63582208	27987880	24992
637	7.724088	94593024	63582208	32844528	24992
638	8.629845	94593024	63582208	38409752	24992
639	10.965102	94593024	63582208	28465536	24992
640	11.046756	94593024	63582208	35440968	24992
641	13.857968	94593024	63582208	27381992	24992
642	2.171011	94593024	63582208	36507920	24992
643	3.141136	94593024	63582208	38613224	24992
644	5.65569	94593024	63582208	25223064	24992
645	5.466789	94593024	63582208	28755576	24992
646	6.642373	94593024	63582208	32974408	24992
647	7.777127	94593024	63582208	37903768	24992
648	9.935925	94593024	63582208	27466936	24992
649	10.102551	94593024	63582208	33807272	24992
650	12.803737	94593024	63582208	25435856	24992
651	12.296588	94593024	63582208	33196592	24992
652	2.249131	94593024	63582208	27132744	24992
653	3.558527	94593024	63582208	29267320	24992
654	4.466669	94593024	63582208	32119648	24992
655	5.585965	94593024	63582208	35681280	24992
656	8.313597	94593024	63582208	24391648	24992
657	7.962337	94593024	63582208	29390944	24992
658	9.145248	94593024	63582208	35100872	24992
659	11.825183	94593024	63582208	25974000	24992
660	11.093554	94593024	63582208	33121960	24992
661	14.19282	94593024	63582208	25775432	24992
662	2.159678	94593024	63582208	35172424	24992
663	3.315405	94593024	63582208	37345392	24992
664	6.100436	94593024	63582208	24430256	24992
665	5.73874	94593024	63582208	28040504	24992
666	6.904173	94593024	63582208	32376080	24992
667	7.931235	94593024	63582208	37448672	24992
668	10.655424	94593024	63582208	27343424	24992
669	10.196263	94593024	63582208	33868136	24992
670	13.277081	94593024	63582208	25858992	24992
671	12.52473	94593024	63582208	33850320	24992
672	2.299768	94593024	63582208	28077688	24992
673	3.452002	94593024	63582208	30278480	24992
674	4.591711	94593024	63582208	33205128	24992
675	5.750069	94593024	63582208	36871256	24992
676	8.901467	94593024	63582208	25599464	24992
677	7.898748	94593024	63582208	30767288	24992
678	9.191769	94593024	63582208	36647008	24992
679	12.030146	94593024	63582208	27480728	24992
680	11.455141	94593024	63582208	34835624	24992
681	14.786641	94593024	63582208	27534024	24992
682	2.332109	94593024	63582208	37169552	24992
683	3.476621	94593024	63582208	39391936	24992
684	5.875978	94593024	63582208	26221192	24992
685	5.959875	94593024	63582208	29929360	24992
686	7.006068	94593024	63582208	34382256	24992
687	8.019302	94593024	63582208	39591344	24992
688	10.38259	94593024	63582208	29359184	24992
689	10.750416	94593024	63582208	36057080	24992
690	13.251822	94593024	63582208	27868080	24992
691	12.544249	94593024	63582208	36079240	24992
692	2.54806	94593024	63582208	30238320	24992
693	3.611108	94593024	63582208	32504808	24992
694	4.967604	94593024	63582208	35521376	24992
695	6.222446	94593024	63582208	39277944	24992
696	8.932063	94593024	63582208	27732312	24992
697	8.572332	94593024	63582208	33000992	24992
698	9.739194	94593024	63582208	39030504	24992
699	12.13425	94593024	63582208	29697304	24992
700	11.865255	94593024	63582208	37240552	24992
701	14.881387	94593024	63582208	29784792	24992
702	2.557064	94593024	63582208	39698024	24992
703	4.900748	94593024	63582208	25930440	24992
704	5.239379	94593024	63582208	28976032	24992
705	5.73372	94593024	63582208	32782016	24992
706	7.227375	94593024	63582208	37356320	24992
707	10.281614	94593024	63582208	27053224	24992
708	10.169695	94593024	63582208	33168472	24992
709	10.607618	94593024	63582208	40051112	24992
710	13.484007	94593024	64106496	31452488	24992
711	13.161628	94593024	64106496	39859368	24992
712	2.378402	94593024	64106496	33712312	24992
713	3.506377	94593024	64106496	36023616	24992
714	5.028678	94593024	64106496	39105256	24992
715	7.372644	94863360	64106496	27035456	24992
716	7.105883	94863360	64106496	31682736	24992
717	8.268448	94863360	64106496	37122000	24992
718	11.578813	94863360	64106496	27680856	24992
719	10.836297	94863360	64106496	34635576	24992
720	13.836919	94863360	64106496	27174608	24992
721	13.316877	94863360	64106496	35688280	24992
722	2.38714	94863360	64106496	30534784	24992
723	3.636461	94863360	64106496	32887320	24992
724	5.107231	94863360	64106496	36012320	24992
725	6.138142	94863360	64106496	39915336	24992
726	8.905811	94863360	64106496	28560200	24992
727	8.569056	94863360	64106496	34075744	24992
728	9.918856	94863360	64106496	40331968	24992
729	12.483594	95133696	64106496	31209296	24992
730	12.372226	95133696	64106496	39045312	24992
731	15.198425	95133696	64106496	31728168	24992
732	4.026689	95133696	64106496	26025552	24992
733	3.580595	95133696	64106496	28394136	24992
734	4.933245	95133696	64106496	31553752	24992
735	6.29015	95133696	64106496	35517256	24992
736	7.194459	95133696	64106496	40262600	24992
737	9.844458	95133696	64106496	29783208	24992
738	10.002069	95133696	64106496	36117512	24992
739	13.069901	95133696	64106496	27930336	24992
740	12.459674	95133696	64106496	35858544	24992
741	15.791834	95133696	64106496	29316552	24992
742	2.427704	95133696	64106496	39724968	24992
743	5.311521	95133696	64106496	26248488	24992
744	4.850981	95133696	64106496	29447144	24992
745	6.100189	95133696	64106496	33469272	24992
746	7.698683	95133696	64106496	38273168	24992
747	10.508612	95133696	64106496	28286208	24992
748	10.105084	95133696	64106496	34721016	24992
749	11.536165	95133696	64106496	41971368	24992
750	13.835888	95133696	64106496	33606432	24992
751	15.573416	95133696	64106496	27601560	24992
752	2.454068	95133696	64106496	38158768	24992
753	3.99661	95133696	64106496	40585832	24992
754	6.629147	95133696	64106496	27845592	24992
755	6.296587	95133696	64106496	31894800	24992
756	7.47681	95133696	64106496	36757232	24992
757	10.498996	95133696	64106496	27153184	24992
758	10.257865	95133696	64106496	33643528	24992
759	11.290318	95133696	64106496	40981032	24992
760	14.629304	95133696	64106496	32963648	24992
761	14.50398	95133696	64106496	41937792	24992
762	2.52905	95133696	64106496	36317728	24992
763	3.877784	95133696	64106496	38775080	24992
764	5.15869	95133696	64106496	42053912	24992
765	8.008579	95133696	64106496	29981072	24992
766	7.773809	95133696	64106496	34903192	24992
767	8.979748	95133696	64106496	40651296	24992
768	12.858676	95133696	64106496	31244928	24992
769	11.782443	95133696	64106496	38671280	24992
770	14.560948	95133696	64106496	31199400	24992
771	14.629081	95133696	64106496	40265032	24992
772	2.618545	95133696	64106496	35094632	24992
773	3.92857	95133696	64106496	37580232	24992
774	5.418643	95133696	64106496	40910640	24992
775	8.410131	95133696	64106496	29176760	24992
776	7.817534	95133696	64106496	34167904	24992
777	9.137155	95133696	64106496	39988480	24992
778	12.569171	95133696	64106496	30802704	24992
779	12.062282	95133696	64106496	38286512	24992
780	15.23112	95133696	64106496	31067504	24992
781	14.610735	95133696	64106496	40226752	24992
782	2.668788	95133696	64106496	35303248	24992
783	4.165092	95133696	64106496	37833576	24992
784	5.246676	95133696	64106496	41188248	24992
785	9.154051	95133696	64106496	29508808	24992
786	7.967139	95133696	64106496	34547984	24992
787	9.442365	95133696	64106496	40429200	24992
788	12.15595	95133696	64106496	31314208	24992
789	12.0853	95133696	64106496	38901248	24992
790	15.160636	95133696	64106496	31736152	24992
791	14.562057	95133696	64106496	41012608	24992
792	2.642253	95133696	64106496	36069480	24992
793	3.914762	95133696	64106496	38613624	24992
794	5.601682	95133696	64106496	42008104	24992
795	8.203401	95133696	64106496	30240488	24992
796	8.353479	95133696	64106496	35353120	24992
797	9.423512	95133696	64106496	41311736	24992
798	12.491984	95133696	64106496	32111928	24992
799	12.209837	95133696	64106496	39800560	24992
800	16.018042	95133696	64106496	32659968	24992
801	14.877343	95133696	64106496	42038760	24992
802	2.902574	95133696	64106496	37106288	24992
803	4.063029	95133696	64106496	39687864	24992
804	5.42913	95133696	64106496	43126928	24992
805	8.308424	95133696	64106496	31291872	24992
806	8.184312	95133696	64106496	36452912	24992
807	9.606254	95133696	64106496	42474544	24992
808	12.379252	95133696	64106496	33223800	24992
809	12.253747	95133696	64106496	40973264	24992
810	15.707571	95133696	64106496	33768440	24992
811	15.098078	95133696	64106496	43256624	24992
812	2.74118	95133696	64106496	38305424	24992
813	4.115215	95133696	64106496	40908080	24992
814	7.1379	95133696	64106496	28696608	24992
815	7.197516	95133696	64106496	33039424	24992
816	8.146185	95133696	64106496	38265872	24992
817	11.841164	95133696	64106496	29035432	24992
818	10.83725	95133696	64106496	35993856	24992
819	12.34371	95133696	64106496	43833472	24992
820	14.835163	95133696	64106496	36240672	24992
821	17.337817	95133696	64106496	30870136	24992
822	2.706519	95133696	64106496	42388840	24992
823	5.873441	95133696	64106496	29119520	24992
824	5.568113	95133696	64106496	32630840	24992
825	7.403472	95133696	64106496	37021408	24992
826	8.508258	95133696	64106496	42293312	24992
827	11.658479	95133696	64106496	32576528	24992
828	11.274102	95133696	64106496	39612968	24992
829	14.3579	95133696	64106496	32028072	24992
830	14.39845	95133696	64106496	40833592	24992
831	17.457007	95133696	64106496	34786472	24992
832	2.690463	95133696	64106496	30141272	24992
833	4.229573	95133696	64106496	32802416	24992
834	5.626119	95133696	64106496	36362192	24992
835	7.115918	95133696	64106496	40813888	24992
836	10.531227	95133696	64106496	30626880	24992
837	9.773336	95133696	64106496	36862344	24992
838	11.387115	95133696	64106496	44015872	24992
839	14.429709	95133696	64106496	35794440	24992
840	14.737463	95133696	64106496	44759080	24992
841	17.205169	95133696	64106496	38223104	24992
842	2.848014	95133696	64106496	34854920	24992
843	4.402723	95133696	64106496	37594536	24992
844	5.82784	95133696	64106496	41251808	24992
845	9.203138	95133696	64630784	30165880	24992
846	8.407498	95133696	64630784	35660296	24992
847	10.037206	95133696	64630784	42078608	24992
848	13.278683	95133696	64630784	33589400	24992
849	12.954443	95133696	64630784	41861832	24992
850	16.345623	95133696	64630784	35256112	24992
851	18.126268	95133696	64630784	30740544	24992
852	2.834446	95133696	64630784	42862024	24992
853	6.263261	95133696	64630784	29850568	24992
854	5.976108	95133696	64630784	33588448	24992
855	7.360259	95133696	64630784	38266800	24992
856	8.504152	95133696	64630784	43911344	24992
857	11.9911	95404032	64630784	34486848	24992
858	11.598364	95404032	64630784	41984816	24992
859	14.904664	95404032	64630784	34634728	24992
860	14.701686	95404032	64630784	44036560	24992
861	17.358928	95404032	64630784	38244344	24992
862	2.961396	95404032	64630784	35447256	24992
863	4.376854	95404032	64630784	38276440	24992
864	5.997118	95404032	64630784	42056936	24992
865	9.718882	95674368	65155072	31159208	24992
866	8.775406	95674368	65155072	36829032	24992
867	10.109067	95674368	65155072	43492856	24992
868	13.407238	95674368	65679360	35068976	24992
869	13.260957	95674368	65679360	43585064	24992
870	16.331504	95674368	65679360	36992480	24992
871	18.241086	95674368	65679360	32594040	24992
872	2.931336	95674368	65679360	45068752	24992
873	5.942442	95674368	65679360	31787192	24992
874	5.875521	95674368	65679360	35601720	24992
875	7.517656	95674368	65679360	40370296	24992
876	10.81335	95944704	65679360	30818776	24992
877	10.60335	95944704	65679360	37521144	24992
878	11.616929	95944704	65679360	45169392	24992
879	14.965375	95944704	65679360	37510952	24992
880	17.261303	95944704	65679360	32137168	24992
881	16.54552	95944704	65679360	42673944	24992
882	2.981035	95944704	65679360	39449472	24992
883	4.467521	95944704	65679360	42357408	24992
884	8.100266	96215040	66203648	30604472	24992
885	7.918804	96215040	66203648	35421376	24992
886	9.146806	96215040	66203648	41217304	24992
887	12.480856	96215040	66203648	32489560	24992
888	11.851659	96215040	66203648	40225528	24992
889	15.914182	96215040	66203648	33650568	24992
890	15.037195	96215040	66203648	43329016	24992
891	19.005323	96215040	66203648	38053376	24992
892	2.894876	96485376	66203648	35841688	24992
893	4.520011	96485376	66203648	38758616	24992
894	6.151254	96485376	66203648	42658528	24992
895	9.465605	96485376	66203648	31935776	24992
896	8.990978	96485376	66203648	37787936	24992
897	10.36617	96485376	66203648	44610536	24992
898	13.602582	96485376	66203648	36360832	24992
899	13.561485	96485376	66203648	45153800	24992
900	16.830847	96755712	66203648	38798672	24992
901	18.976062	96755712	66203648	34502360	24992
902	4.782007	96755712	66203648	31409784	24992
903	4.57636	96755712	66203648	34355808	24992
904	6.156209	96755712	66203648	38313352	24992
905	7.587879	96755712	66203648	43227688	24992
906	11.693319	96755712	66727936	33525600	24992
907	10.818157	96755712	66727936	40443056	24992
908	14.961695	97026048	66727936	33092632	24992
909	14.372532	97026048	66727936	41970504	24992
910	18.43907	97026048	66727936	36239384	24992
911	19.626255	97026048	66727936	32558608	24992
912	3.221835	97026048	66727936	45517088	24992
913	6.307973	97026048	66727936	32556800	24992
914	6.433672	97026048	66727936	36540736	24992
915	8.077279	97026048	66727936	41503816	24992
916	11.346993	97296384	66727936	32240928	24992
917	11.293868	97296384	66727936	39213000	24992
918	13.284663	97296384	66727936	47174280	24992
919	16.271502	97296384	66727936	39701776	24992
920	18.513221	97296384	66727936	34615288	24992
921	16.894099	97296384	66727936	45585904	24992
922	3.101165	97296384	66727936	42613464	24992
923	4.537083	97296384	66727936	45662440	24992
924	8.409472	97566720	67252224	33747784	24992
925	7.70401	97566720	67252224	38762952	24992
926	9.337642	97566720	67252224	44793688	24992
927	12.700233	97566720	67252224	35908368	24992
928	12.373357	97566720	67252224	43939456	24992
929	16.300128	97566720	67252224	37241976	24992
930	15.838246	97566720	67252224	47315912	24992
931	18.753204	97566720	67252224	42017384	24992
932	3.149362	97566720	67252224	39875480	24992
933	4.765809	97566720	67252224	42917560	24992
934	6.095548	97566720	67252224	46970056	24992
935	9.592167	97837056	67252224	35924600	24992
936	9.197077	97837056	67252224	42009616	24992
937	12.994099	97837056	67252224	33744432	24992
938	12.496851	97837056	67252224	41860136	24992
939	16.532452	97837056	67252224	35609264	24992
940	15.822471	97837056	67252224	45791960	24992
941	19.440047	97837056	67252224	40865696	24992
942	3.175439	97837056	67252224	38998768	24992
943	4.751076	97837056	67252224	42061896	24992
944	6.159785	97837056	67252224	46152352	24992
945	9.998633	98107392	67776512	35317648	24992
946	9.291395	98107392	67776512	41459320	24992
947	13.337009	98107392	67776512	33443504	24992
948	12.78068	98107392	67776512	41629992	24992
949	16.542641	98107392	67776512	35657152	24992
950	15.950547	98107392	67776512	46119680	24992
951	19.48909	98107392	67776512	41509400	24992
952	3.218359	98377728	67776512	39809096	24992
953	4.746249	98377728	67776512	42901464	24992
954	6.332757	98377728	67776512	47026192	24992
955	10.059216	98377728	67776512	36181992	24992
956	9.591482	98377728	67776512	42375032	24992
957	13.521435	98377728	67776512	34254800	24992
958	12.551089	98377728	67776512	42520512	24992
959	16.70977	98648064	67776512	36470120	24992
960	16.179677	98648064	67776512	46964856	24992
961	19.565132	98648064	67776512	42354544	24992
962	3.21971	98648064	67776512	40602128	24992
963	4.830737	98648064	67776512	43723736	24992
964	6.463365	98648064	67776512	47887656	24992
965	10.213924	98918400	68300800	36984928	24992
966	10.029249	98918400	68300800	43236552	24992
967	13.501004	98918400	68300800	35186912	24992
968	13.508847	98918400	68300800	43529552	24992
969	16.873686	98918400	68300800	37431256	24992
970	16.038699	98918400	68300800	47883272	24992
971	20.325689	98918400	68300800	43102744	24992
972	3.273671	98918400	68300800	41494824	24992
973	4.686288	98918400	68300800	44645920	24992
974	6.482407	98918400	68300800	48848696	24992
975	10.169173	99188736	68300800	37853888	24992
976	9.801936	99188736	68300800	44163872	24992
977	13.532247	99188736	68300800	35989496	24992
978	13.143995	99188736	68300800	44409936	24992
979	17.067213	99188736	68825088	38382448	24992
980	16.431634	99188736	68825088	48918464	24992
981	19.37618	99188736	68825088	44150056	24992
982	3.176403	99188736	68825088	42441696	24992
983	4.799416	99188736	68825088	45667344	24992
984	8.977333	99459072	68825088	34360928	24992
985	8.137562	99459072	68825088	39703936	24992
986	9.889092	99459072	68825088	46072624	24992
987	14.106736	99459072	68825088	37703472	24992
988	14.253228	99459072	68825088	46202184	24992
989	17.063097	99459072	68825088	39911704	24992
990	19.610427	99459072	68825088	35857144	24992
991	18.739079	99459072	68825088	47600552	24992
992	3.167474	99459072	68825088	45477352	24992
993	4.982277	99459072	68825088	48686920	24992
994	8.70907	99729408	69349376	36915560	24992
995	8.225051	99729408	69349376	42268912	24992
996	10.298098	99729408	69349376	48695936	24992
997	13.393194	99729408	69349376	39944672	24992
998	13.532324	99729408	69349376	48521408	24992
999	17.303542	99729408	69349376	41969568	24992
1000	19.035873	99729408	69349376	37780336	24992
