x	Duration	RSS	HeapTotal	HeapUsed	External
0	NA	96894976	66203648	12012096	24992
1	0.283052	96894976	66203648	12064024	24992
2	0.22033	96894976	66203648	12140808	24992
3	0.25221	96894976	66203648	12244704	24992
4	0.301654	96894976	66203648	12377256	24992
5	0.362158	96894976	66203648	12539992	24992
6	0.422253	96894976	66203648	12733304	24992
7	0.480159	96894976	66203648	12958192	24992
8	0.545998	96894976	66203648	13215640	24992
9	0.624763	96894976	66203648	13507592	24992
10	0.684903	96894976	66203648	13834656	24992
11	1.053136	96894976	66203648	14197808	24992
12	0.196846	96894976	66203648	14590216	24992
13	0.27109	96894976	66203648	14702720	24992
14	0.493725	96894976	66203648	14854048	24992
15	0.500716	96894976	66203648	15051064	24992
16	0.484553	96894976	66203648	15283456	24992
17	0.554181	96894976	66203648	15557576	24992
18	0.807393	96894976	66203648	15874560	24992
19	0.723125	96894976	66203648	16236080	24992
20	1.023013	96894976	66203648	16645656	24992
21	0.749246	96894976	66203648	17098960	24992
22	0.174837	96894976	66203648	17606664	24992
23	0.260621	96894976	66203648	17749104	24992
24	0.339634	96894976	66203648	17941720	24992
25	0.423623	96894976	66203648	18185352	24992
26	0.691441	96894976	66203648	18481568	24992
27	0.581796	96894976	66203648	18830976	24992
28	0.660689	96894976	66203648	19234232	24992
29	0.770511	96894976	66203648	19692512	24992
30	0.858549	96894976	66203648	20207680	24992
31	1.11699	96894976	66203648	20779784	24992
32	0.220144	96894976	66203648	21430760	24992
33	0.33844	96894976	66203648	21605720	24992
34	0.445239	96894976	66203648	21840536	24992
35	0.548071	96894976	66203648	22136224	24992
36	0.854552	96894976	66203648	22494256	24992
37	0.744472	96894976	66203648	22915024	24992
38	0.790137	96894976	66203648	23399592	24992
39	0.890521	96894976	66203648	23948904	24992
40	0.994365	96894976	66203648	24564928	24992
41	1.108596	96894976	66203648	25247560	24992
42	0.235518	96894976	66203648	26030768	24992
43	0.357113	96894976	66203648	26235040	24992
44	0.481195	96894976	66203648	26508856	24992
45	0.606199	96894976	66203648	26854632	24992
46	0.693541	96894976	66203648	27272496	24992
47	0.799872	96894976	66203648	27763600	24992
48	0.915112	96894976	66203648	28328888	24992
49	1.937222	96894976	66203648	12707552	24992
50	1.423791	96894976	66203648	13427344	24992
51	1.296122	96894976	66203648	14227800	24992
52	0.26492	96894976	66203648	15153376	24992
53	0.400929	96894976	66203648	15395200	24992
54	0.51895	96894976	66203648	15719136	24992
55	0.647016	96894976	66203648	16126256	24992
56	0.77618	96894976	66203648	16618008	24992
57	1.10327	96894976	66203648	17194816	24992
58	1.058071	96894976	66203648	17860296	24992
59	1.386553	96894976	66203648	18610168	24992
60	1.344341	96894976	66203648	19448952	24992
61	1.464763	96894976	66203648	20376720	24992
62	0.292579	96894976	66203648	21451144	24992
63	0.465057	96894976	66203648	21722392	24992
64	0.622524	96894976	66203648	22085336	24992
65	0.721501	96894976	66203648	22541200	24992
66	0.864251	96894976	66203648	23091416	24992
67	1.006428	96894976	66203648	23736480	24992
68	1.156954	96894976	66203648	24477440	24992
69	1.293275	96894976	66203648	25315112	24992
70	1.446562	96894976	66203648	26251512	24992
71	1.813225	96894976	66203648	27286576	24992
72	0.32348	96894976	66203648	28488080	24992
73	0.487703	96894976	66203648	28788392	24992
74	1.429548	96894976	66203648	12971768	24992
75	0.875471	96894976	66203648	13476360	24992
76	1.044101	96894976	66203648	14085136	24992
77	1.232057	96894976	66203648	14798464	24992
78	1.394389	96894976	66203648	15619008	24992
79	1.459221	96894976	66203648	16544416	24992
80	1.831133	96894976	66203648	17578456	24992
81	1.834348	96894976	66203648	18721896	24992
82	0.359862	96894976	66203648	20055600	24992
83	0.542388	96894976	66203648	20385632	24992
84	0.706601	96894976	66203648	20828784	24992
85	0.886266	96894976	66203648	21384320	24992
86	1.256664	96894976	66203648	22054920	24992
87	1.304411	96894976	66203648	22845336	24992
88	1.606041	96894976	66203648	23747896	24992
89	1.599226	96894976	66203648	24767808	24992
90	1.754813	96894976	66203648	25907032	24992
91	1.946144	96894976	66203648	27165640	24992
92	0.423483	96894976	66203648	28638680	24992
93	0.623809	96894976	66203648	29000808	24992
94	1.419218	96894976	66203648	13188016	24992
95	1.031888	96894976	66203648	13795816	24992
96	1.418224	96894976	66203648	14528296	24992
97	1.347219	96894976	66203648	15386424	24992
98	1.52156	96894976	66203648	16370352	24992
99	1.720468	96894976	66203648	17482336	24992
100	1.906817	96894976	66203648	18722744	24992
101	2.116235	96894976	66203648	20092296	24992
102	0.457147	96894976	66203648	21707720	24992
103	0.63138	96894976	66203648	22111624	24992
104	0.825874	96894976	66203648	22652168	24992
105	1.031758	96894976	66203648	23329392	24992
106	1.244176	96894976	66203648	24145352	24992
107	1.438784	96894976	66203648	25100368	24992
108	1.643407	96894976	66203648	26195576	24992
109	1.856916	96894976	66203648	27433400	24992
110	2.070592	96894976	66203648	28812640	24992
111	3.087249	96894976	66203648	14057232	24992
112	0.451037	96894976	66203648	15848392	24992
113	0.679633	96894976	66203648	16281592	24992
114	0.89558	96894976	66203648	16860728	24992
115	1.123481	96894976	66203648	17586752	24992
116	1.328403	96894976	66203648	18461224	24992
117	1.726476	96894976	66203648	19486144	24992
118	2.005461	96894976	66203648	20659328	24992
119	2.142473	96894976	66203648	21985264	24992
120	2.240304	96894976	66203648	23467880	24992
121	2.454975	96894976	66203648	25097496	24992
122	0.477403	96894976	66203648	27013064	24992
123	0.732506	96894976	66203648	27475800	24992
124	0.952646	96894976	66203648	28093864	24992
125	1.181534	96894976	66203648	28868616	24992
126	2.181399	96894976	66203648	13525192	24992
127	1.72602	96894976	66203648	14616752	24992
128	1.897204	96894976	66203648	15867912	24992
129	2.127394	96894976	66203648	17279696	24992
130	2.592382	96894976	66203648	18856024	24992
131	2.60923	96894976	66203648	20593016	24992
132	0.504475	96894976	66203648	22636000	24992
133	0.762644	96894976	66203648	23127648	24992
134	1.019159	96894976	66203648	23784728	24992
135	1.254683	96894976	66203648	24608312	24992
136	1.50382	96894976	66203648	25599696	24992
137	1.995587	96894976	66203648	26760136	24992
138	2.243701	96894976	66203648	28089336	24992
139	2.896614	96894976	66203648	13445056	24992
140	2.719876	96894976	66203648	15116728	24992
141	2.9984	96894976	66203648	16960840	24992
142	0.581525	96894976	66203648	19138448	24992
143	0.863431	96894976	66203648	19664832	24992
144	1.150415	96894976	66203648	20368368	24992
145	1.426565	96894976	66203648	21249776	24992
146	1.681632	96894976	66203648	22310776	24992
147	1.877366	96894976	66203648	23551832	24992
148	2.477814	96894976	66203648	24973584	24992
149	2.69864	96894976	66203648	26578288	24992
150	2.828174	96894976	66203648	28366952	24992
151	3.729619	96894976	66203648	14155456	24992
152	0.606317	96894976	66203648	16478392	24992
153	0.911909	96894976	66203648	17034088	24992
154	1.196904	96894976	66203648	17776472	24992
155	1.488708	96894976	66203648	18706728	24992
156	1.791779	96894976	66203648	19826208	24992
157	2.076128	96894976	66203648	21135472	24992
158	2.534605	96894976	66203648	22640168	24992
159	2.637176	96894976	66203648	24331648	24992
160	2.857275	96894976	66203648	26216856	24992
161	3.184162	96894976	66203648	28295664	24992
162	0.649675	96894976	66203648	14596248	24992
163	1.003514	96894976	66203648	15181264	24992
164	1.210479	96894976	66203648	15962752	24992
165	1.492178	96894976	66203648	16941704	24992
166	1.802056	96894976	66203648	18121688	24992
167	2.085351	96894976	66203648	19502096	24992
168	2.619533	96894976	66203648	21080424	24992
169	2.725556	96894976	66203648	22859808	24992
170	3.024564	96894976	66203648	24842480	24992
171	3.367082	96894976	66203648	27028552	24992
172	0.630094	96894976	66203648	29614376	24992
173	1.470688	96894976	66203648	13872752	24992
174	1.268714	96894976	66203648	14693248	24992
175	1.567349	96894976	66203648	15721024	24992
176	1.889287	96894976	66203648	16957440	24992
177	2.201039	96894976	66203648	18403048	24992
178	2.564449	96894976	66203648	20058872	24992
179	2.828528	96894976	66203648	21927440	24992
180	3.166496	96894976	66203648	24008032	24992
181	3.493424	96894976	66203648	26302048	24992
182	0.672572	96894976	66203648	29015568	24992
183	0.999651	96894976	66203648	29658984	24992
184	1.816802	96894976	66203648	14167992	24992
185	1.777182	96894976	66203648	15244472	24992
186	2.117834	96894976	66203648	16539480	24992
187	2.605739	96894976	66203648	18053464	24992
188	2.647738	96894976	66203648	19787352	24992
189	2.965069	96894976	66203648	21742096	24992
190	3.536405	96894976	66203648	23919792	24992
191	3.69771	96894976	66203648	26320312	24992
192	0.695228	96894976	66203648	29160184	24992
193	1.096069	96894976	66203648	29832848	24992
194	1.882537	96894976	66203648	14380056	24992
195	2.057897	96894976	66203648	15505312	24992
196	2.088133	96894976	66203648	16858808	24992
197	2.46351	96894976	66203648	18440936	24992
198	2.755574	96894976	66203648	20255504	24992
199	3.156946	96894976	66203648	22298024	24992
200	3.792346	96894976	66203648	24573200	24992
201	3.814039	96894976	66203648	27083528	24992
202	0.722037	96894976	66203648	30059808	24992
203	1.570331	96894976	66203648	14367032	24992
204	1.453665	96894976	66203648	15304520	24992
205	1.81133	96894976	66203648	16478560	24992
206	2.1583	96894976	66203648	17890472	24992
207	2.768385	96894976	66203648	19549200	24992
208	3.278662	96894976	66203648	21455552	24992
209	3.296543	96894976	66203648	23610608	24992
210	3.658282	96894976	66203648	26016224	24992
211	4.054735	96894976	66203648	28672560	24992
212	0.802188	96894976	66203648	15684424	24992
213	1.211137	96894976	66203648	16440344	24992
214	1.614821	96894976	66203648	17449808	24992
215	2.012302	96894976	66203648	18713720	24992
216	2.423593	96894976	66203648	20233824	24992
217	3.046614	96894976	66203648	22010464	24992
218	3.429608	96894976	66203648	24044480	24992
219	3.688321	96894976	66203648	26346168	24992
220	4.16774	96894976	66203648	28901592	24992
221	5.061069	96894976	66203648	15539688	24992
222	0.824081	96894976	66203648	18883912	24992
223	1.25602	96894976	66203648	19669032	24992
224	1.67743	96894976	66203648	20717424	24992
225	2.088682	96894976	66203648	22030464	24992
226	2.509225	96894976	66203648	23610336	24992
227	3.108877	96894976	66203648	25455152	24992
228	3.343698	96894976	66203648	27567208	24992
229	3.706987	96894976	66203648	29953144	24992
230	4.834566	96894976	66203648	16282232	24992
231	4.518509	96894976	66203648	19214112	24992
232	0.892017	96894976	66203648	22702248	24992
233	1.494528	96894976	66203648	23525280	24992
234	1.687727	96894976	66203648	24624216	24992
235	2.175059	96894976	66203648	26000056	24992
236	2.608064	96894976	66203648	27654376	24992
237	3.06051	96894976	66203648	29588280	24992
238	4.105498	96894976	66203648	15543120	24992
239	3.953733	96894976	66203648	18038560	24992
240	4.43263	96894976	66203648	20816824	24992
241	4.817514	96894976	66203648	23876136	24992
242	0.879556	96894976	66203648	27516528	24992
243	1.347629	96894976	66203648	28368760	24992
244	1.970498	96894976	66203648	29506760	24992
245	2.685002	96894976	66203648	14714752	24992
246	2.714626	96894976	66203648	16427304	24992
247	3.162325	96894976	66203648	18436304	24992
248	3.790592	96894976	66203648	20726864	24992
249	4.088881	96894976	66203648	23307920	24992
250	4.528331	96894976	66203648	26182104	24992
251	4.976441	96894976	66203648	29350592	24992
252	0.934949	96894976	66203648	16901160	24992
253	1.406942	96894976	66203648	17783784	24992
254	2.21202	96894976	66203648	18960624	24992
255	2.381267	96894976	66203648	20433864	24992
256	2.765703	96894976	66203648	22204816	24992
257	3.276644	96894976	66203648	24274216	24992
258	3.902215	96894976	66203648	26647096	24992
259	4.23281	96894976	66203648	29316016	24992
260	5.450642	96894976	66203648	16120688	24992
261	5.168557	96894976	66203648	19394072	24992
262	0.95973	96894976	66203648	23286416	24992
263	1.469067	96894976	66203648	24197208	24992
264	1.934741	96894976	66203648	25416320	24992
265	2.622327	96894976	66203648	26938264	24992
266	2.961358	96894976	66203648	28767816	24992
267	4.122166	96894976	66203648	14857688	24992
268	3.879804	96894976	66203648	17304296	24992
269	4.365246	96894976	66203648	20060960	24992
270	4.958166	96894976	66203648	23134448	24992
271	5.363112	96894976	66203648	26520592	24992
272	0.994608	96894976	66203648	30535584	24992
273	1.889591	96894976	66203648	15126344	24992
274	2.007096	96894976	66203648	16381184	24992
275	2.507686	96894976	66203648	17951864	24992
276	2.997784	96894976	66203648	19839888	24992
277	3.683071	96894976	66203648	22045752	24992
278	4.020675	96894976	66203648	24570352	24992
279	4.710345	96894976	66203648	27420968	24992
280	4.96559	96894976	66203648	30587080	24992
281	5.944789	96894976	66203648	17736824	24992
282	1.029129	96894976	66203648	21875992	24992
283	1.552896	96894976	66203648	22845288	24992
284	2.031585	96894976	66203648	24141480	24992
285	2.595243	96894976	66203648	25760968	24992
286	3.078728	96894976	66203648	27707480	24992
287	3.85532	96894976	66203648	29981568	24992
288	5.487185	96894976	66203648	16359176	24992
289	4.64281	96894976	66203648	19291160	24992
290	5.122072	96894976	66203648	22560664	24992
291	5.8962	96894976	66203648	26167872	24992
292	1.063503	96894976	66203648	30434208	24992
293	2.226535	96894976	66203648	15141832	24992
294	2.132011	96894976	66203648	16474576	24992
295	2.59856	96894976	66203648	18142712	24992
296	3.794024	96894976	66203648	20152344	24992
297	4.211689	96894976	66203648	22503464	24992
298	4.168687	96894976	66203648	25183888	24992
299	4.801653	96894976	66203648	28203432	24992
300	6.229346	96894976	66203648	15704008	24992
301	5.899325	96894976	66203648	19408856	24992
302	1.08704	96894976	66203648	23802216	24992
303	1.648662	96894976	66203648	24829880	24992
304	2.182276	96894976	66203648	26201736	24992
305	2.836334	96894976	66203648	27918600	24992
306	3.258581	96894976	66203648	29982000	24992
307	4.445958	96894976	66203648	16298120	24992
308	4.487247	96894976	66203648	19056608	24992
309	4.93341	96894976	66203648	22163928	24992
310	5.516422	96894976	66203648	25630720	24992
311	6.04175	96894976	66203648	29443280	24992
312	1.134775	96894976	66203648	17974184	24992
313	1.699909	96894976	66203648	19031184	24992
314	2.296801	96894976	66203648	20441968	24992
315	2.755473	96894976	66203648	22207624	24992
316	3.576169	96894976	66203648	24336392	24992
317	3.957212	96894976	66203648	26815152	24992
318	4.51963	96894976	66203648	29665448	24992
319	5.941769	96894976	66203648	16845840	24992
320	5.615322	96894976	66203648	20404064	24992
321	6.241579	96894976	66203648	24328888	24992
322	1.155067	96894976	66203648	28976424	24992
323	1.924952	96894976	66203648	30062640	24992
324	2.530733	96894976	66203648	31512352	24992
325	3.384016	96894976	66203648	17027760	24992
326	3.415853	96894976	66203648	19208240	24992
327	4.194701	96894976	66203648	21755328	24992
328	4.664671	96894976	66203648	24669880	24992
329	5.362348	96894976	66203648	27952800	24992
330	5.68128	96894976	66203648	31607232	24992
331	6.90611	96894976	66203648	19325704	24992
332	1.194619	96894976	66203648	24100560	24992
333	1.783799	96894976	66203648	25215936	24992
334	2.578207	96894976	66203648	26704728	24992
335	2.979484	96894976	66203648	28571104	24992
336	3.606708	96894976	66203648	30810912	24992
337	5.006383	96894976	66203648	17311856	24992
338	4.786397	96894976	66203648	20304736	24992
339	5.56567	96894976	66203648	23682880	24992
340	5.913211	96894976	66203648	27433792	24992
341	6.615182	96894976	66203648	31564856	24992
342	1.225483	96894976	66203648	20238064	24992
343	1.834677	96894976	66203648	21382736	24992
344	2.599836	96894976	66203648	22910480	24992
345	3.058542	96894976	66203648	24822368	24992
346	3.589247	96894976	66203648	27119808	24992
347	4.39823	96894976	66203648	29803240	24992
348	5.705564	96894976	66203648	16942720	24992
349	5.564086	96894976	66203648	20401192	24992
350	6.15732	96894976	66203648	24249552	24992
351	7.025735	96894976	66203648	28493704	24992
352	1.264049	96894976	66203648	17818416	24992
353	2.062445	96894976	66203648	18992376	24992
354	2.52003	96894976	66203648	20559216	24992
355	3.150171	96894976	66203648	22519752	24992
356	3.798993	96894976	66203648	24875760	24992
357	4.566563	96894976	66203648	27627424	24992
358	4.959094	96894976	66203648	30782776	24992
359	6.331723	96894976	66203648	18281016	24992
360	6.128893	96894976	66203648	22246008	24992
361	6.953956	96894976	66203648	26602744	24992
362	1.504404	96894976	66203648	31799936	24992
363	2.572727	96894976	66203648	16843792	24992
364	2.596714	96894976	66203648	18467384	24992
365	3.24451	96894976	66203648	20507232	24992
366	4.04409	96894976	66203648	22959120	24992
367	4.484166	96894976	66203648	25812096	24992
368	5.401361	96894976	66203648	29074144	24992
369	6.667013	96894976	66203648	17048800	24992
370	6.865453	96894976	66203648	21139568	24992
371	7.164379	96894976	66203648	25641440	24992
372	1.323341	96894976	66203648	31004800	24992
373	1.989313	96894976	66203648	32250656	24992
374	3.243163	96894976	66203648	17668808	24992
375	3.486357	96894976	66203648	19750256	24992
376	3.832098	96894976	66203648	22249800	24992
377	4.678782	96894976	66203648	25171192	24992
378	5.372512	96894976	66203648	28511248	24992
379	5.978177	96894976	66203648	32278392	24992
380	7.368359	96894976	66203648	20228168	24992
381	7.460098	96894976	66203648	24837048	24992
382	1.348963	96894976	66203648	30329744	24992
383	2.030434	96894976	66203648	31617288	24992
384	3.452277	96894976	66203648	17223936	24992
385	3.400027	96894976	66203648	19353120	24992
386	4.06951	96894976	66203648	21912560	24992
387	4.874074	96894976	66203648	24906808	24992
388	5.441893	96894976	66203648	28327496	24992
389	6.254235	96894976	66203648	32177080	24992
390	7.473907	96894976	66203648	20291976	24992
391	7.314587	96894976	66203648	25008200	24992
392	1.381435	96894976	66203648	30644016	24992
393	2.089909	96894976	66203648	31957952	24992
394	3.49781	96894976	66203648	17604728	24992
395	3.570392	96894976	66203648	19789536	24992
396	4.086334	96894976	66203648	22406176	24992
397	4.872678	96894976	66203648	25471168	24992
398	5.52398	96894976	66203648	28967664	24992
399	6.199627	96894976	66203648	32907960	24992
400	7.770767	96894976	66203648	21044568	24992
401	7.813768	96894976	66203648	25869376	24992
402	1.489747	96894976	66203648	31614760	24992
403	2.341612	96894976	66203648	32948280	24992
404	3.474989	96894976	66203648	18487608	24992
405	3.551323	96894976	66203648	20714336	24992
406	4.395201	96894976	66203648	23389600	24992
407	4.808175	96894976	66203648	26520680	24992
408	5.699762	96894976	66203648	30095792	24992
409	7.67651	96894976	66203648	18400416	24992
410	7.259546	96894976	66203648	22883744	24992
411	7.612616	96894976	66203648	27816920	24992
412	2.18473	96894976	66203648	17542120	24992
413	2.073317	96894976	66203648	18916424	24992
414	2.947359	96894976	66203648	20734904	24992
415	3.463155	96894976	66203648	23010264	24992
416	4.354483	96894976	66203648	25743912	24992
417	5.091303	96894976	66203648	28955872	24992
418	5.824613	96894976	66203648	32641008	24992
419	7.526095	96894976	66203648	20656992	24992
420	7.463232	96894976	66203648	25307152	24992
421	8.255893	96894976	66203648	30432352	24992
422	1.483114	96894976	66203648	20775816	24992
423	2.237929	96894976	66203648	22217176	24992
424	3.17088	96894976	66203648	24140632	24992
425	3.706832	96894976	66203648	26554224	24992
426	4.433862	96894976	66203648	29446936	24992
427	5.390643	96894976	66203648	32822712	24992
428	6.717796	96894976	66203648	20520376	24992
429	6.71659	96894976	66203648	24884248	24992
430	7.326556	96894976	66203648	29731288	24992
431	9.456197	96894976	66203648	19385544	24992
432	1.51238	96894976	66203648	25745840	24992
433	2.278919	96894976	66203648	27227384	24992
434	3.036709	96894976	66203648	29206648	24992
435	3.794298	96894976	66203648	31661904	24992
436	5.510138	96894976	66203648	18687168	24992
437	5.512395	96894976	66203648	22135832	24992
438	6.084881	96894976	66203648	26077792	24992
439	7.006676	96894976	66203648	30514368	24992
440	8.944574	96894976	66203648	19763960	24992
441	8.656413	96894976	66203648	25207904	24992
442	1.501402	96894976	66203648	31701296	24992
443	2.317608	96894976	66203648	33202216	24992
444	4.024885	96894976	66203648	19070632	24992
445	3.75196	96894976	66203648	21574696	24992
446	4.661605	96894976	66203648	24582656	24992
447	5.987811	96894976	66203648	28095136	24992
448	6.117192	96894976	66203648	32142992	24992
449	8.172345	96894976	66203648	20722616	24992
450	7.895522	96894976	66203648	25755104	24992
451	8.581246	96894976	66203648	31312872	24992
452	1.584058	96894976	66203648	22106232	24992
453	2.548749	96894976	66203648	23655992	24992
454	3.169349	96894976	66203648	25705200	24992
455	3.957764	96894976	66203648	28287280	24992
456	4.863472	96894976	66203648	31365200	24992
457	6.540836	96894976	66203648	19171776	24992
458	6.319743	96894976	66203648	23285576	24992
459	7.072263	96894976	66203648	27915584	24992
460	8.150552	96894976	66203648	33079432	24992
461	10.679321	96894976	66203648	22590224	24992
462	1.611809	96894976	66203648	29326808	24992
463	2.433684	96894976	66203648	30885256	24992
464	3.229139	96894976	66203648	32964648	24992
465	5.164942	96894976	66203648	19585048	24992
466	4.853968	96894976	66203648	22709968	24992
467	5.670514	96894976	66203648	26360312	24992
468	6.455335	96894976	66203648	30535224	24992
469	8.479518	96894976	66203648	19696496	24992
470	8.289366	96894976	66203648	24925504	24992
471	8.941247	96894976	66203648	30801112	24992
472	1.658373	96894976	66203648	21958208	24992
473	2.516252	96894976	66203648	23545792	24992
474	3.118519	96894976	66203648	25682656	24992
475	4.041863	96894976	66203648	28332800	24992
476	5.163338	96894976	66203648	31516352	24992
477	6.970792	96894976	66203648	19520648	24992
478	6.935488	96894976	66203648	23795584	24992
479	7.44315	96894976	66203648	28582992	24992
480	8.51331	96894976	66203648	33908128	24992
481	9.952599	96894976	66203648	23581816	24992
482	1.772847	96894976	66203648	30581360	24992
483	2.642113	96894976	66203648	32198264	24992
484	3.531466	96894976	66203648	34355640	24992
485	5.24566	96894976	66203648	20908656	24992
486	4.957966	96894976	66203648	24150536	24992
487	5.860347	96894976	66203648	27938952	24992
488	6.665655	96894976	66203648	32268736	24992
489	8.809792	96894976	66203648	21353048	24992
490	8.605421	96894976	66203648	26775736	24992
491	9.188192	96894976	66203648	32747720	24992
492	1.735094	96894976	66203648	23895896	24992
493	2.562924	96894976	66203648	25545792	24992
494	3.423005	96894976	66203648	27762864	24992
495	4.292568	96894976	66203648	30510576	24992
496	5.33811	96894976	66203648	33811008	24992
497	7.032353	96894976	66203648	21612000	24992
498	7.039646	96894976	66203648	26019840	24992
499	7.878888	96894976	66203648	31007464	24992
500	10.232231	96894976	66203648	20936976	24992
501	9.199521	96894976	66203648	27024728	24992
502	1.702874	96894976	66203648	34286016	24992
503	3.76	96894976	66203648	19906320	24992
504	3.456084	96894976	66203648	22141744	24992
505	4.355826	96894976	66203648	24954304	24992
506	5.187079	96894976	66203648	28313232	24992
507	6.149722	96894976	66203648	32247152	24992
508	8.238061	96894976	66203648	21011152	24992
509	8.031621	96894976	66203648	26061792	24992
510	8.549012	96894976	66203648	31682216	24992
511	10.989701	96894976	66203648	22203848	24992
512	1.77218	96894976	66203648	29585616	24992
513	2.64897	96894976	66203648	31300424	24992
514	3.709585	96894976	66203648	33574880	24992
515	5.521112	96894976	66203648	20498480	24992
516	5.51637	96894976	66203648	23915936	24992
517	6.209454	96894976	66203648	27920208	24992
518	7.282555	96894976	66203648	32495816	24992
519	9.428903	96894976	66203648	21916336	24992
520	8.906014	96894976	66203648	27636296	24992
521	9.638058	96894976	66203648	33947328	24992
522	1.813048	96894976	66203648	25414584	24992
523	2.701028	96894976	66203648	27148464	24992
524	3.686012	96894976	66203648	29461752	24992
525	4.443001	96894976	66203648	32355688	24992
526	5.431253	96894976	66203648	35838304	24992
527	7.262245	96894976	66203648	23678592	24992
528	7.451704	96894976	66203648	28329216	24992
529	8.351029	96894976	66203648	33558560	24992
530	10.263016	96894976	66203648	23446528	24992
531	9.91435	96894976	66203648	29855680	24992
532	2.685335	96894976	66203648	21181024	24992
533	2.991084	96894976	66203648	22944128	24992
534	3.619317	96894976	66203648	25296984	24992
535	4.595772	96894976	66203648	28240104	24992
536	5.484438	96894976	66203648	31774448	24992
537	6.450859	96894976	66203648	35900864	24992
538	8.46178	96894976	66203648	24398872	24992
539	8.485451	96894976	66203648	29732720	24992
540	9.275667	96894976	66203648	35658864	24992
541	11.132478	96894976	66203648	25963368	24992
542	1.864117	96894976	66203648	33733224	24992
543	2.984485	96894976	66203648	35525552	24992
544	4.756503	96894976	66203648	21792464	24992
545	4.683993	96894976	66203648	24783880	24992
546	5.619267	96894976	66203648	28376760	24992
547	6.785436	96894976	66203648	32571608	24992
548	8.940607	96894976	66203648	21739648	24992
549	8.60496	96894976	66203648	27142968	24992
550	9.368472	96894976	66203648	33163512	24992
551	11.852107	96894976	66203648	23990568	24992
552	1.918124	96894976	66203648	31872080	24992
553	2.745817	96894976	66203648	33693688	24992
554	3.767491	96894976	66203648	36139464	24992
555	5.896527	96894976	66203648	22999928	24992
556	5.725112	96894976	66203648	26671184	24992
557	6.692961	96894976	66203648	30969096	24992
558	7.828009	96894976	66203648	35867816	24992
559	9.655828	96894976	66203648	25274312	24992
560	9.50456	96894976	66203648	31413488	24992
561	12.19549	96894976	66203648	22784176	24992
562	1.888735	96894976	66203648	30857216	24992
563	2.98378	96894976	66203648	32743440	24992
564	3.667225	96894976	66203648	35253576	24992
565	5.955274	96894976	66203648	22380712	24992
566	6.023361	96894976	66203648	26135888	24992
567	6.739212	96894976	66203648	30519024	24992
568	7.978261	96894976	66203648	35527584	24992
569	10.098885	96894976	66203648	25159536	24992
570	9.70575	96894976	66203648	31436344	24992
571	12.506194	96894976	66203648	23017024	24992
572	1.972025	96894976	66203648	31272080	24992
573	2.956417	96894976	66203648	33172560	24992
574	3.933266	96894976	66203648	35719880	24992
575	5.987258	96894976	66203648	22889520	24992
576	6.108004	96894976	66203648	26701056	24992
577	6.655771	96894976	66203648	31148256	24992
578	7.937185	96894976	66203648	36234320	24992
579	9.932461	96894976	66203648	25860384	24992
580	9.896075	96894976	66203648	32230936	24992
581	12.955736	96894976	66203648	23792208	24992
582	2.010393	96894976	66203648	32172536	24992
583	3.001038	96894976	66203648	34112576	24992
584	3.997074	96894976	66203648	36694016	24992
585	6.253093	96894976	66203648	23800320	24992
586	6.053169	96894976	66203648	27675728	24992
587	7.084586	96894976	66203648	32210576	24992
588	8.046419	96894976	66203648	37389336	24992
589	10.097539	96894976	66203648	26972432	24992
590	9.910177	96894976	66203648	33456008	24992
591	12.285864	96894976	66203648	24920144	24992
592	2.026552	96894976	66203648	33407008	24992
593	3.253549	96894976	66203648	35365984	24992
594	5.306328	96894976	66203648	22090624	24992
595	5.016032	96894976	66203648	25371640	24992
596	6.31683	96894976	66203648	29299672	24992
597	7.132551	96894976	66203648	33904528	24992
598	10.106967	96894976	66203648	23525472	24992
599	9.305848	96894976	66203648	29429544	24992
600	10.373503	96894976	66203648	36000824	24992
601	12.465632	96894976	66203648	27157656	24992
602	2.013942	96894976	66203648	35809976	24992
603	3.194663	96894976	66203648	37798200	24992
604	5.111468	96894976	66203648	24239872	24992
605	5.175281	96894976	66203648	27557760	24992
606	6.212001	96894976	66203648	31542448	24992
607	7.432268	96894976	66203648	36194352	24992
608	9.512928	96894976	66203648	25546928	24992
609	9.498815	96894976	66203648	31538944	24992
610	10.274157	96894976	66203648	38223432	24992
611	12.715889	96894976	66203648	29140480	24992
612	1.995835	96894976	66203648	37897528	24992
613	4.241231	96894976	66203648	23701736	24992
614	4.231472	96894976	66203648	26393240	24992
615	5.492851	96894976	66203648	29783512	24992
616	6.531413	96894976	66203648	33837592	24992
617	9.073825	96894976	66203648	23053312	24992
618	8.237966	96894976	66203648	28457192	24992
619	9.623615	96894976	66203648	34543504	24992
620	12.044925	96894976	66203648	25589736	24992
621	11.612675	96894976	66203648	33030904	24992
622	2.153246	96894976	66203648	26566328	24992
623	3.201978	96894976	66203648	28632880	24992
624	4.276383	96894976	66203648	31364136	24992
625	5.520703	96894976	66203648	34785248	24992
626	7.892669	96894976	66203648	23289912	24992
627	7.831553	96894976	66203648	28081264	24992
628	8.561353	96894976	66203648	33558912	24992
629	11.39569	96894976	66203648	24266952	24992
630	10.688701	96894976	66203648	31128160	24992
631	11.999729	96894976	66203648	38691464	24992
632	2.151131	96894976	66203648	31283912	24992
633	3.236798	96894976	66203648	33379576	24992
634	4.313882	96894976	66203648	36149720	24992
635	6.945166	96894976	66203648	23790720	24992
636	7.238649	96894976	66203648	27960952	24992
637	7.501938	96894976	66203648	32817600	24992
638	8.814408	96894976	66203648	38382824	24992
639	10.904325	96894976	66203648	28438608	24992
640	10.961134	96894976	66203648	35422768	24992
641	13.773402	96894976	66203648	27363696	24992
642	2.143734	96894976	66203648	36489720	24992
643	3.234722	96894976	66203648	38595024	24992
644	5.527398	96894976	66203648	25202576	24992
645	5.502254	96894976	66203648	28735208	24992
646	6.627188	96894976	66203648	32954040	24992
647	7.899511	96894976	66203648	37883400	24992
648	9.825138	96894976	66203648	27446568	24992
649	9.940513	96894976	66203648	33786904	24992
650	12.767036	96894976	66203648	25415488	24992
651	12.296548	96894976	66203648	33176224	24992
652	2.156778	96894976	66203648	27112376	24992
653	3.345912	96894976	66203648	29246952	24992
654	4.650354	96894976	66203648	32099280	24992
655	5.796056	96894976	66203648	35660912	24992
656	9.016968	96894976	66203648	24371280	24992
657	7.729787	96894976	66203648	29370576	24992
658	8.984976	96894976	66203648	35080504	24992
659	11.947722	96894976	66203648	25953632	24992
660	11.254898	96894976	66203648	33101592	24992
661	14.306724	96894976	66203648	25755064	24992
662	2.247499	96894976	66203648	35152056	24992
663	3.393368	96894976	66203648	37325024	24992
664	5.893768	96894976	66203648	24409888	24992
665	5.806351	96894976	66203648	28020136	24992
666	6.701526	96894976	66203648	32355712	24992
667	8.131722	96894976	66203648	37428304	24992
668	10.771136	96894976	66203648	27323056	24992
669	10.300227	96894976	66203648	33847768	24992
670	13.250928	96894976	66203648	25838624	24992
671	12.434035	96894976	66203648	33829952	24992
672	2.262106	96894976	66203648	28057320	24992
673	3.626367	96894976	66203648	30258112	24992
674	4.475281	96894976	66203648	33184760	24992
675	5.683232	96894976	66203648	36850888	24992
676	8.579213	96894976	66203648	25579096	24992
677	8.396827	96894976	66203648	30746920	24992
678	9.339006	96894976	66203648	36626640	24992
679	11.929745	96894976	66203648	27460360	24992
680	11.722129	96894976	66203648	34815256	24992
681	14.889995	96894976	66203648	27513656	24992
682	2.330742	96894976	66203648	37150160	24992
683	3.520477	96894976	66203648	39372544	24992
684	6.125673	96894976	66203648	26201800	24992
685	5.829579	96894976	66203648	29909968	24992
686	7.157283	96894976	66203648	34362864	24992
687	8.174808	96894976	66203648	39571952	24992
688	10.579735	96894976	66203648	29339792	24992
689	10.759138	96894976	66203648	36037688	24992
690	13.309455	96894976	66203648	27848688	24992
691	13.048995	96894976	66203648	36059848	24992
692	2.37061	96894976	66203648	30218928	24992
693	3.555922	96894976	66203648	32485416	24992
694	4.948065	96894976	66203648	35501984	24992
695	5.968992	96894976	66203648	39258552	24992
696	8.78616	96894976	66203648	27712920	24992
697	8.399807	96894976	66203648	32981600	24992
698	9.665115	96894976	66203648	39011112	24992
699	12.07263	96894976	66203648	29677912	24992
700	12.034611	96894976	66203648	37221160	24992
701	14.672904	96894976	66203648	29765400	24992
702	2.388333	96894976	66203648	39678632	24992
703	5.067952	96894976	66203648	25911048	24992
704	4.772129	96894976	66203648	28953656	24992
705	6.131532	96894976	66203648	32759640	24992
706	7.16958	96894976	66203648	37333944	24992
707	10.336883	96894976	66203648	27030848	24992
708	9.749433	96894976	66203648	33146096	24992
709	10.728975	96894976	66203648	40028736	24992
710	13.434892	96894976	66203648	31402312	24992
711	13.941605	96894976	66203648	39809192	24992
712	2.958344	96894976	66203648	33662136	24992
713	3.578223	96894976	66203648	35973440	24992
714	4.677345	96894976	66203648	39055080	24992
715	8.030447	96894976	66203648	26985280	24992
716	7.511789	96894976	66203648	31632560	24992
717	8.417078	96894976	66203648	37071824	24992
718	11.318904	96894976	66203648	27630680	24992
719	10.914661	96894976	66203648	34585400	24992
720	14.392694	96894976	66203648	27124432	24992
721	13.968498	96894976	66203648	35638104	24992
722	2.347381	96894976	66203648	30484608	24992
723	3.68059	96894976	66203648	32837144	24992
724	4.777674	96894976	66203648	35962144	24992
725	6.132992	96894976	66203648	39865160	24992
726	8.829772	96894976	66203648	28510024	24992
727	8.817471	96894976	66203648	34025568	24992
728	9.903189	96894976	66203648	40281792	24992
729	12.562904	96894976	66203648	31159120	24992
730	12.472003	96894976	66203648	38995136	24992
731	15.392518	96894976	66203648	31677992	24992
732	4.088616	96894976	66203648	25975376	24992
733	3.689102	96894976	66203648	28343960	24992
734	4.965982	96894976	66203648	31503576	24992
735	6.260831	96894976	66203648	35467080	24992
736	7.293096	96894976	66203648	40212424	24992
737	10.390163	96894976	66203648	29733032	24992
738	10.085824	96894976	66203648	36067336	24992
739	13.241507	96894976	66203648	27880160	24992
740	12.733483	96894976	66203648	35808368	24992
741	16.062603	96894976	66203648	29266376	24992
742	2.508178	96894976	66203648	39674792	24992
743	5.295173	96894976	66203648	26198312	24992
744	4.999649	96894976	66203648	29396968	24992
745	6.240574	96894976	66203648	33419096	24992
746	7.606573	96894976	66203648	38222992	24992
747	10.6555	96894976	66203648	28236032	24992
748	10.0408	96894976	66203648	34670840	24992
749	11.480942	96894976	66203648	41921192	24992
750	13.680013	96894976	66203648	33556256	24992
751	16.002709	96894976	66203648	27551384	24992
752	2.55739	96894976	66203648	38108592	24992
753	3.807965	96894976	66203648	40535656	24992
754	6.742923	96894976	66203648	27795416	24992
755	6.110715	96894976	66203648	31844624	24992
756	7.868333	96894976	66203648	36707056	24992
757	10.789232	96894976	66203648	27103008	24992
758	10.223699	96894976	66203648	33593352	24992
759	11.459578	96894976	66203648	40930856	24992
760	14.481116	96894976	66203648	32913472	24992
761	14.533571	96894976	66203648	41896016	24992
762	2.573785	96894976	66203648	36275952	24992
763	4.019455	96894976	66203648	38733304	24992
764	5.035235	96894976	66203648	42012136	24992
765	7.800146	96894976	66203648	29939296	24992
766	7.827293	96894976	66203648	34861416	24992
767	8.889028	96894976	66203648	40609520	24992
768	12.012565	96894976	66203648	31194024	24992
769	11.80677	96894976	66203648	38620376	24992
770	15.127343	96894976	66203648	31148496	24992
771	14.287693	96894976	66203648	40214128	24992
772	2.527319	96894976	66203648	35043728	24992
773	3.940881	96894976	66203648	37529328	24992
774	5.241347	96894976	66203648	40859736	24992
775	8.287461	96894976	66203648	29125856	24992
776	7.561804	96894976	66203648	34117000	24992
777	9.367335	96894976	66203648	39937576	24992
778	12.180959	96894976	66203648	30751800	24992
779	11.968626	96894976	66203648	38235608	24992
780	15.267619	96894976	66203648	31016600	24992
781	14.290882	96894976	66203648	40175848	24992
782	2.652534	96894976	66203648	35252344	24992
783	3.975923	96894976	66203648	37782672	24992
784	5.363326	96894976	66203648	41137344	24992
785	9.157872	96894976	66203648	29458264	24992
786	8.167683	96894976	66203648	34497440	24992
787	9.198449	96894976	66203648	40378656	24992
788	12.505485	96894976	66727936	31294368	24992
789	12.05881	96894976	66727936	38881624	24992
790	15.153474	97165312	66727936	31716456	24992
791	14.961328	97165312	66727936	40992912	24992
792	2.633145	97165312	66727936	36049784	24992
793	4.079474	97165312	66727936	38593928	24992
794	5.3045	97165312	66727936	41988408	24992
795	8.366924	97165312	66727936	30220792	24992
796	8.169253	97165312	66727936	35333424	24992
797	9.391316	97165312	66727936	41292040	24992
798	12.598596	97165312	66727936	32092232	24992
799	12.268797	97165312	66727936	39780864	24992
800	14.798176	97165312	66727936	32640272	24992
801	14.704656	97165312	66727936	42019064	24992
802	2.719883	97435648	66727936	37086592	24992
803	4.069895	97435648	66727936	39668168	24992
804	5.606177	97435648	66727936	43107232	24992
805	8.150286	97435648	66727936	31272176	24992
806	8.208307	97435648	66727936	36433216	24992
807	9.430836	97435648	66727936	42454848	24992
808	12.532676	97435648	66727936	33204104	24992
809	12.481678	97435648	66727936	40953568	24992
810	15.713847	97435648	66727936	33748744	24992
811	15.141877	97435648	66727936	43236928	24992
812	2.738793	97435648	66727936	38285728	24992
813	4.111376	97435648	66727936	40888384	24992
814	7.199846	97435648	66727936	28676912	24992
815	6.88752	97435648	66727936	33018752	24992
816	8.124426	97435648	66727936	38245200	24992
817	11.679803	97435648	66727936	29014760	24992
818	10.924245	97435648	66727936	35973184	24992
819	12.267078	97435648	66727936	43812800	24992
820	15.238146	97435648	66727936	36220000	24992
821	17.337908	97435648	66727936	30849464	24992
822	2.632445	97435648	66727936	42368168	24992
823	5.835096	97435648	66727936	29098848	24992
824	5.6527	97435648	66727936	32610168	24992
825	7.067494	97435648	66727936	37000736	24992
826	8.520086	97435648	66727936	42272640	24992
827	11.572087	97435648	66727936	32555856	24992
828	11.411886	97435648	66727936	39592296	24992
829	14.502893	97435648	66727936	32007400	24992
830	13.691997	97435648	66727936	40812920	24992
831	17.43771	97435648	66727936	34765800	24992
832	2.826559	97435648	66727936	30120600	24992
833	4.213362	97435648	66727936	32781744	24992
834	5.781716	97435648	66727936	36341520	24992
835	7.128329	97435648	66727936	40793216	24992
836	10.428237	97435648	66727936	30606208	24992
837	9.903857	97435648	66727936	36841672	24992
838	11.128948	97435648	66727936	43995200	24992
839	14.282623	97435648	66727936	35773768	24992
840	14.388312	97435648	66727936	44738408	24992
841	17.017609	97435648	66727936	38202432	24992
842	3.030561	97435648	66727936	34834248	24992
843	4.273011	97435648	66727936	37573864	24992
844	5.885333	97435648	66727936	41231136	24992
845	9.068442	97435648	66727936	30145208	24992
846	8.778555	97435648	66727936	35639624	24992
847	9.91412	97435648	66727936	42057936	24992
848	13.418822	97435648	66727936	33568728	24992
849	12.861361	97435648	66727936	41841160	24992
850	16.482954	97435648	66727936	35235440	24992
851	18.506643	97435648	66727936	30719872	24992
852	3.020873	97435648	66727936	42841352	24992
853	6.084633	97435648	66727936	29829896	24992
854	5.76662	97435648	66727936	33567776	24992
855	7.200117	97435648	66727936	38246128	24992
856	8.784476	97435648	66727936	43890672	24992
857	11.979655	97435648	66727936	34466176	24992
858	11.307517	97435648	66727936	41964144	24992
859	14.830149	97435648	66727936	34614056	24992
860	14.636427	97435648	66727936	44015888	24992
861	17.508857	97435648	66727936	38223672	24992
862	3.137787	97435648	66727936	35426584	24992
863	4.209968	97435648	66727936	38255768	24992
864	6.008674	97435648	66727936	42036264	24992
865	9.133886	97435648	66727936	31138536	24992
866	8.600032	97435648	66727936	36808360	24992
867	10.64245	97435648	66727936	43472184	24992
868	13.430599	97435648	66727936	35048304	24992
869	13.156344	97435648	66727936	43564392	24992
870	16.529528	97435648	66727936	36971808	24992
871	18.666661	97435648	66727936	32573368	24992
872	3.170318	97435648	66727936	45048080	24992
873	5.811015	97435648	66727936	31766520	24992
874	5.95523	97435648	66727936	35581048	24992
875	7.091933	97435648	66727936	40349624	24992
876	10.797433	97435648	66727936	30798104	24992
877	10.184676	97435648	66727936	37500472	24992
878	11.969108	97435648	66727936	45148720	24992
879	14.656677	97435648	66727936	37490280	24992
880	17.451053	97435648	66727936	32116496	24992
881	16.340853	97435648	66727936	42653272	24992
882	2.917198	97435648	66727936	39428800	24992
883	4.486803	97435648	66727936	42336736	24992
884	8.056736	97435648	66727936	30583800	24992
885	7.609064	97435648	66727936	35400704	24992
886	8.875745	97435648	66727936	41196632	24992
887	12.483599	97435648	66727936	32468888	24992
888	12.35443	97435648	66727936	40204856	24992
889	15.860994	97435648	66727936	33629896	24992
890	14.974692	97435648	66727936	43308344	24992
891	18.450826	97435648	66727936	38024008	24992
892	3.013508	97435648	66727936	35812320	24992
893	4.770726	97435648	66727936	38729248	24992
894	6.026064	97435648	66727936	42629160	24992
895	9.936855	97435648	66727936	31906408	24992
896	9.123062	97435648	66727936	37758568	24992
897	10.387336	97435648	66727936	44581168	24992
898	13.853881	97435648	66727936	36331464	24992
899	13.669933	97435648	66727936	45124432	24992
900	17.264045	97435648	66727936	38769304	24992
901	19.066346	97435648	66727936	34472992	24992
902	4.860784	97435648	66727936	31380416	24992
903	4.580056	97435648	66727936	34326440	24992
904	6.241173	97435648	66727936	38283984	24992
905	7.689935	97435648	66727936	43198320	24992
906	10.870657	97435648	66727936	33496232	24992
907	10.686461	97435648	66727936	40413688	24992
908	14.792725	97435648	66727936	33063264	24992
909	13.616758	97435648	66727936	41941136	24992
910	17.697308	97435648	66727936	36210016	24992
911	20.009829	97435648	66727936	32529240	24992
912	3.030152	97435648	66727936	45487720	24992
913	6.419307	97435648	66727936	32527432	24992
914	6.308044	97435648	66727936	36511368	24992
915	7.540247	97435648	66727936	41474448	24992
916	11.576597	97435648	66727936	32211560	24992
917	10.986896	97435648	66727936	39183632	24992
918	12.208266	97435648	66727936	47141808	24992
919	15.857182	97435648	66727936	39669304	24992
920	17.312483	97435648	66727936	34582048	24992
921	17.158307	97435648	66727936	45552784	24992
922	3.09686	97435648	66727936	42580232	24992
923	4.648992	97435648	66727936	45629208	24992
924	8.096094	97435648	66727936	33714552	24992
925	7.834194	97435648	66727936	38729720	24992
926	9.458266	97435648	66727936	44760456	24992
927	12.956982	97435648	66727936	35875136	24992
928	12.581486	97435648	66727936	43906224	24992
929	16.258286	97435648	66727936	37208744	24992
930	15.760758	97435648	66727936	47282680	24992
931	18.740987	97435648	66727936	41984152	24992
932	3.079501	97435648	66727936	39842248	24992
933	4.718427	97435648	66727936	42884328	24992
934	6.313439	97435648	66727936	46936824	24992
935	9.896236	97705984	67252224	35891368	24992
936	9.511752	97705984	67252224	41976384	24992
937	13.276438	97705984	67776512	33711200	24992
938	12.621776	97705984	67776512	41826904	24992
939	16.474932	97705984	67776512	35576032	24992
940	15.793964	97705984	67776512	45758728	24992
941	19.323412	97705984	67776512	40832464	24992
942	3.097734	97705984	67776512	38965536	24992
943	4.751178	97705984	67776512	42028664	24992
944	6.198687	97705984	67776512	46119120	24992
945	10.054097	97976320	67776512	35284416	24992
946	9.892989	97976320	67776512	41426088	24992
947	13.243081	97976320	67776512	33410272	24992
948	12.435937	97976320	67776512	41596760	24992
949	16.613993	97976320	67776512	35623920	24992
950	15.761325	97976320	67776512	46086448	24992
951	19.560786	97976320	67776512	41476168	24992
952	3.060006	97976320	67776512	39775864	24992
953	4.777801	97976320	67776512	42868232	24992
954	6.474051	97976320	67776512	46992960	24992
955	10.262934	98246656	68300800	36148760	24992
956	9.61696	98246656	68300800	42341800	24992
957	13.387241	98246656	68300800	34221568	24992
958	12.873929	98246656	68300800	42487280	24992
959	16.989149	98246656	68300800	36436888	24992
960	16.028971	98246656	68300800	46931624	24992
961	19.670491	98246656	68300800	42321312	24992
962	3.150082	98516992	68300800	40568896	24992
963	4.977733	98516992	68300800	43690504	24992
964	6.477997	98516992	68300800	47854424	24992
965	9.756829	98516992	68300800	36951696	24992
966	9.971455	98516992	68300800	43203320	24992
967	13.573622	98516992	68300800	35153680	24992
968	12.726218	98516992	68300800	43496320	24992
969	17.210569	98516992	68300800	37398024	24992
970	16.053018	98787328	68300800	47850040	24992
971	19.705629	98787328	68300800	43069512	24992
972	3.14046	98787328	68300800	41461592	24992
973	4.834202	98787328	68300800	44612688	24992
974	6.558981	98787328	68300800	48815464	24992
975	10.296972	98787328	68825088	37820656	24992
976	10.314456	99057664	68825088	44130640	24992
977	13.717992	99057664	68825088	35956264	24992
978	13.219735	99057664	68825088	44376704	24992
979	17.022369	99057664	68825088	38349216	24992
980	15.981826	99057664	68825088	48885232	24992
981	20.032307	99057664	68825088	44116824	24992
982	3.294188	99057664	68825088	42408464	24992
983	4.744642	99057664	68825088	45634112	24992
984	8.831695	99328000	68825088	34327696	24992
985	9.099277	99328000	68825088	39675640	24992
986	9.884795	99328000	68825088	46044328	24992
987	13.693714	99328000	68825088	37675176	24992
988	13.19699	99328000	68825088	46173888	24992
989	16.988482	99328000	68825088	39883408	24992
990	19.198297	99328000	68825088	35828848	24992
991	18.210254	99328000	68825088	47572256	24992
992	3.326033	99328000	68825088	45449056	24992
993	5.17858	99328000	68825088	48658624	24992
994	8.524055	99598336	69349376	36887264	24992
995	8.572795	99598336	69349376	42240616	24992
996	9.983257	99598336	69349376	48667640	24992
997	13.642109	99598336	69349376	39916376	24992
998	13.600826	99598336	69349376	48493112	24992
999	16.797486	99598336	69349376	41941272	24992
1000	19.534127	99598336	69349376	37752040	24992
