x	Duration	RSS	HeapTotal	HeapUsed	External
0	NA	90697728	59912192	11731544	24992
1	0.339809	90697728	59912192	11780080	24992
2	0.303625	90697728	59912192	11851784	24992
3	0.319374	90697728	59912192	11948696	24992
4	0.385877	90697728	59912192	12072000	24992
5	0.455897	90697728	59912192	12223144	24992
6	0.535127	90697728	59912192	12402904	24992
7	0.614736	90697728	59912192	12612104	24992
8	0.716246	90697728	59912192	12851744	24992
9	0.82837	90697728	59912192	13123688	24992
10	0.828295	90697728	59912192	13427952	24992
11	0.617411	90697728	59912192	13765392	24992
12	0.165944	90697728	59912192	14127608	24992
13	0.234357	90697728	59912192	14233384	24992
14	0.407887	90697728	59912192	14379552	24992
15	0.515562	90697728	59912192	14559384	24992
16	0.450088	90697728	59912192	14779064	24992
17	0.466849	90697728	59912192	15037304	24992
18	1.046418	90697728	59912192	15338128	24992
19	0.607265	90697728	59912192	15678128	24992
20	0.674232	90697728	59912192	16060888	24992
21	0.826106	90697728	59912192	16490376	24992
22	0.186159	90697728	59912192	16964288	24992
23	0.254956	90697728	59912192	17098016	24992
24	0.335294	90697728	59912192	17277560	24992
25	0.573453	90697728	59912192	17504976	24992
26	0.520348	90697728	59912192	17781696	24992
27	0.921937	90697728	59912192	18108152	24992
28	0.710384	90697728	59912192	18487424	24992
29	0.723079	90697728	59912192	18915544	24992
30	0.797267	90697728	59912192	19396984	24992
31	0.926961	90697728	59912192	19931856	24992
32	0.204611	90697728	59912192	20535912	24992
33	0.315316	90697728	59912192	20701336	24992
34	0.384821	90697728	59912192	20922184	24992
35	0.473306	90697728	59912192	21200104	24992
36	0.565543	90697728	59912192	21536512	24992
37	0.659229	90697728	59912192	21931904	24992
38	0.78734	90697728	59912192	22387144	24992
39	0.861182	90697728	59912192	22903072	24992
40	0.950131	90697728	59912192	23481760	24992
41	1.056543	90697728	59912192	24123024	24992
42	0.225115	90697728	59912192	24854664	24992
43	0.34195	90697728	59912192	25047312	24992
44	0.444416	90697728	59912192	25305352	24992
45	0.547537	90697728	59912192	25630432	24992
46	0.653322	90697728	59912192	26022656	24992
47	0.821518	90697728	59912192	26483088	24992
48	0.878404	90697728	59912192	27012616	24992
49	0.986883	90697728	59912192	27612088	24992
50	1.103231	90697728	59912192	28283528	24992
51	1.993535	90697728	59912192	12736856	24992
52	0.27703	90697728	59912192	13598120	24992
53	0.420128	90697728	59912192	13825024	24992
54	0.553669	90697728	59912192	14128720	24992
55	0.683063	90697728	59912192	14510112	24992
56	0.973427	90697728	59912192	14970672	24992
57	0.881207	90697728	59912192	15510824	24992
58	1.008507	90697728	59912192	16131504	24992
59	1.241109	90697728	59912192	16833528	24992
60	1.376252	90697728	59912192	17618952	24992
61	1.517606	90697728	59912192	18487608	24992
62	0.342951	90697728	59912192	19492048	24992
63	0.461052	90697728	59912192	19746888	24992
64	0.634999	90697728	59912192	20090488	24992
65	0.702407	90697728	59912192	20518384	24992
66	1.037845	90697728	59912192	21034752	24992
67	1.000087	90697728	59912192	21639920	24992
68	1.121563	90697728	59912192	22334840	24992
69	1.260274	90697728	59912192	23120448	24992
70	1.453969	90697728	59912192	23998768	24992
71	1.550438	90697728	59912192	24969552	24992
72	0.312765	90697728	59912192	26094256	24992
73	0.475445	90697728	59912192	26377032	24992
74	0.626032	90697728	59912192	26755136	24992
75	0.777893	90697728	59912192	27229496	24992
76	0.930156	90697728	59912192	27801608	24992
77	1.144806	90697728	59912192	28471800	24992
78	2.099804	90697728	59912192	13036392	24992
79	1.528488	90697728	59912192	13905736	24992
80	1.689329	90697728	59912192	14877048	24992
81	1.922177	90697728	59912192	15952064	24992
82	0.374315	90697728	59912192	17202832	24992
83	0.565264	90697728	59912192	17513456	24992
84	0.962038	90697728	59912192	17929800	24992
85	0.86805	90697728	59912192	18450576	24992
86	1.031465	90697728	59912192	19078304	24992
87	1.19699	90697728	59912192	19813456	24992
88	1.386534	90697728	59912192	20656872	24992
89	1.536905	90697728	59912192	21609504	24992
90	1.729131	90697728	59912192	22673240	24992
91	1.893962	90697728	59912192	23848064	24992
92	0.3781	90697728	59912192	25219040	24992
93	0.571876	90697728	59912192	25557584	24992
94	0.75314	90697728	59912192	26010008	24992
95	0.958012	90697728	59912192	26577216	24992
96	1.273371	90697728	59912192	27263704	24992
97	1.325322	90697728	59912192	28063944	24992
98	2.228155	90697728	59912192	12773456	24992
99	1.698934	90697728	59912192	13809656	24992
100	1.875816	90697728	59912192	14966296	24992
101	2.254703	90697728	59912192	16243192	24992
102	0.408434	90697728	59912192	17739528	24992
103	0.614417	90697728	59912192	18106008	24992
104	0.8125	90697728	59912192	18599920	24992
105	1.010903	90697728	59912192	19222024	24992
106	1.223284	90697728	59912192	19973712	24992
107	1.426033	90697728	59912192	20855480	24992
108	1.617684	90697728	59912192	21868312	24992
109	1.892495	90697728	59912192	23013000	24992
110	2.025835	90697728	59912192	24291480	24992
111	2.245129	90697728	59912192	25703952	24992
112	0.434387	90697728	59912192	27366000	24992
113	0.658782	90697728	59912192	27772896	24992
114	1.050535	90697728	59912192	28316376	24992
115	1.118374	90697728	59912192	28997336	24992
116	1.996343	90697728	59912192	13475112	24992
117	1.804819	90697728	59912192	14436000	24992
118	1.877298	90697728	59912192	15535536	24992
119	2.244742	90697728	59912192	16778376	24992
120	2.347284	90697728	59912192	18162288	24992
121	2.593909	90697728	59912192	19689352	24992
122	0.468104	90697728	59912192	21482160	24992
123	0.715728	90697728	59912192	21916984	24992
124	0.932207	90697728	59912192	22497688	24992
125	1.164765	90697728	59912192	23225160	24992
126	1.404315	90697728	59912192	24100792	24992
127	1.629388	90697728	59912192	25125056	24992
128	2.036404	90697728	59912192	26300968	24992
129	2.170205	90697728	59912192	27626528	24992
130	2.415858	90697728	59912192	29103200	24992
131	3.205998	90697728	59912192	14373752	24992
132	0.497133	90697728	59912192	16287592	24992
133	0.751538	90697728	59912192	16750360	24992
134	1.206305	90697728	59912192	17368280	24992
135	1.282803	90697728	59912192	18142288	24992
136	1.481503	90697728	59912192	19075224	24992
137	1.737853	90697728	59912192	20164536	24992
138	2.026003	90697728	59912192	21412680	24992
139	2.226691	90697728	59912192	22820512	24992
140	2.489953	90697728	59912192	24390072	24992
141	2.72751	90697728	59912192	26121176	24992
142	0.526066	90697728	59912192	28157984	24992
143	0.790926	90697728	59912192	28648696	24992
144	1.58395	90697728	59912192	13024280	24992
145	1.832253	90697728	59912192	13844672	24992
146	1.847615	90697728	59912192	14831816	24992
147	1.883374	90697728	59912192	15991328	24992
148	2.104048	90697728	59912192	17313744	24992
149	2.372145	90697728	59912192	18805552	24992
150	2.680366	90697728	59912192	20467960	24992
151	3.115073	90697728	59912192	22301208	24992
152	0.561147	90697728	59912192	24457384	24992
153	0.841439	90697728	59912192	24976056	24992
154	1.111551	90697728	59912192	25668328	24992
155	1.42628	90697728	59912192	26535184	24992
156	1.687448	90697728	59912192	27578120	24992
157	1.943755	90697728	59912192	28799568	24992
158	2.812247	90697728	59912192	13898696	24992
159	2.690485	90697728	59912192	15473656	24992
160	2.980141	90697728	59912192	17228928	24992
161	3.309308	90697728	59912192	19164272	24992
162	0.58886	90697728	59912192	21441608	24992
163	0.903424	90697728	59912192	21988240	24992
164	1.176486	90697728	59912192	22717704	24992
165	1.464627	90697728	59912192	23631120	24992
166	1.780521	90697728	59912192	24729808	24992
167	2.052454	90697728	59912192	26014720	24992
168	2.555935	90697728	59912192	27485800	24992
169	2.65252	90697728	59912192	29144536	24992
170	3.52813	90697728	59912192	14660568	24992
171	3.446069	90697728	59912192	16698088	24992
172	0.847502	90697728	59912192	19105008	24992
173	0.939181	90697728	59912192	19679520	24992
174	1.231889	90697728	59912192	20446184	24992
175	1.542278	90697728	59912192	21406048	24992
176	2.053376	90697728	59912192	22560496	24992
177	2.340472	90697728	59912192	23909784	24992
178	2.477376	90697728	59912192	25455040	24992
179	2.793775	90697728	59912192	27198152	24992
180	3.101326	90697728	59912192	29139136	24992
181	4.142151	90697728	59912192	14955360	24992
182	0.653936	90697728	59912192	17483336	24992
183	0.977449	90697728	59912192	18085736	24992
184	1.300201	90697728	59912192	18889608	24992
185	1.621802	90697728	59912192	19901056	24992
186	1.944068	90697728	59912192	21111264	24992
187	2.321475	90697728	59912192	22529232	24992
188	2.603965	90697728	59912192	24148688	24992
189	2.927149	90697728	59912192	25977744	24992
190	3.259638	90697728	59912192	28011376	24992
191	4.431935	90697728	59912192	14089240	24992
192	0.716441	90697728	59912192	16744560	24992
193	1.101005	90697728	59912192	17374944	24992
194	1.361641	90697728	59912192	18216008	24992
195	1.694373	90697728	59912192	19268816	24992
196	2.266509	90697728	59912192	20534696	24992
197	2.38065	90697728	59912192	22014176	24992
198	2.730539	90697728	59912192	23711600	24992
199	3.066588	90697728	59912192	25620840	24992
200	3.41967	90697728	59912192	27747384	24992
201	4.37149	90697728	59912192	13993224	24992
202	0.744834	90697728	59912192	16771704	24992
203	1.317355	90697728	59912192	17430080	24992
204	1.426207	90697728	59912192	18308456	24992
205	1.771669	90697728	59912192	19407752	24992
206	2.132833	90697728	59912192	20729888	24992
207	2.488631	90697728	59912192	22274336	24992
208	2.894556	90697728	59912192	24044624	24992
209	3.402068	90697728	59912192	26045728	24992
210	3.569685	90697728	59912192	28281600	24992
211	4.490478	90697728	59912192	14580032	24992
212	0.756857	90697728	59912192	17521384	24992
213	1.121848	90697728	59912192	18232392	24992
214	1.482013	90697728	59912192	19180936	24992
215	1.854938	90697728	59912192	20367928	24992
216	2.220449	90697728	59912192	21795224	24992
217	2.65005	90697728	59912192	23462392	24992
218	3.220114	90697728	59912192	25370984	24992
219	3.659727	90968064	59912192	27524624	24992
220	3.953036	90968064	59912192	29919328	24992
221	4.550008	90968064	59912192	16168704	24992
222	0.769143	90968064	59912192	19296704	24992
223	1.162966	90968064	59912192	20035672	24992
224	1.745283	90968064	59912192	21021328	24992
225	1.926787	90968064	59912192	22254760	24992
226	2.318444	90968064	59912192	23737672	24992
227	2.711435	90968064	59912192	25471544	24992
228	3.084149	90968064	59912192	27454344	24992
229	3.548825	90968064	59912192	29691528	24992
230	4.455667	90968064	59912192	15847008	24992
231	4.693385	90968064	59912192	18587792	24992
232	0.799285	90968064	59912192	21843280	24992
233	1.203201	90968064	59912192	22610128	24992
234	1.658235	90968064	59912192	23633064	24992
235	2.005289	90968064	59912192	24913056	24992
236	2.621957	90968064	59912192	26451664	24992
237	2.812093	90968064	59912192	28253896	24992
238	3.677441	90968064	59912192	14169512	24992
239	3.637336	90968064	59912192	16487272	24992
240	4.265243	90968064	59912192	19069016	24992
241	4.448145	90968064	59912192	21912000	24992
242	0.86218	90968064	59912192	25288320	24992
243	1.261565	90968064	59912192	26083000	24992
244	1.671417	90968064	59912192	27142984	24992
245	2.078126	90968064	59912192	28469136	24992
246	2.497651	90968064	59912192	30062928	24992
247	3.57647	90968064	59912192	15528280	24992
248	3.341773	90968064	59912192	17659320	24992
249	3.799703	90968064	59912192	20063160	24992
250	4.269044	90968064	59912192	22736016	24992
251	4.611455	90968064	59912192	25680648	24992
252	0.856692	90968064	59912192	29178336	24992
253	1.523151	90968064	59912192	30000976	24992
254	2.155385	90968064	59912192	14744152	24992
255	2.296216	90968064	59912192	16116912	24992
256	2.759581	90968064	59912192	17766584	24992
257	3.026629	90968064	59912192	19698808	24992
258	3.896601	90968064	59912192	21904088	24992
259	3.897161	90968064	59912192	24388552	24992
260	4.342782	90968064	59912192	27154032	24992
261	4.972699	90968064	59912192	30200848	24992
262	0.892118	90968064	59912192	17413384	24992
263	1.379516	90968064	59912192	18264136	24992
264	1.833351	90968064	59912192	19398480	24992
265	2.233876	90968064	59912192	20821368	24992
266	2.6791	90968064	59912192	22526808	24992
267	3.13958	90968064	59912192	24518704	24992
268	3.804336	90968064	59912192	26798336	24992
269	4.038633	90968064	59912192	29371544	24992
270	5.072439	90968064	59912192	15975944	24992
271	5.236797	90968064	59912192	19130096	24992
272	0.916898	90968064	59912192	22866608	24992
273	1.390125	90968064	59912192	23749304	24992
274	1.906694	90968064	59912192	24920904	24992
275	2.309485	90968064	59912192	26386520	24992
276	2.787279	90968064	59912192	28147624	24992
277	3.248441	90968064	59912192	30204896	24992
278	4.343375	90968064	59912192	16212776	24992
279	4.204874	90968064	59912192	18864256	24992
280	4.64479	90968064	59912192	21815464	24992
281	5.313448	90968064	59912192	25066392	24992
282	0.948226	90968064	59912192	28920728	24992
283	1.531512	90968064	59912192	29827240	24992
284	2.311879	90968064	59912192	14737904	24992
285	2.527254	90968064	59912192	16249976	24992
286	3.023443	90968064	59912192	18066904	24992
287	3.530162	90968064	59912192	20188936	24992
288	4.141509	90968064	59912192	22619736	24992
289	4.327711	90968064	59912192	25355280	24992
290	4.9985	90968064	59912192	28399288	24992
291	6.086025	90968064	59912192	15653624	24992
292	0.983659	90968064	59912192	19629976	24992
293	1.476155	90968064	59912192	20564256	24992
294	1.973961	90968064	59912192	21810184	24992
295	2.466828	90968064	59912192	23368624	24992
296	2.953221	90968064	59912192	25241304	24992
297	4.225565	90968064	59912192	27428080	24992
298	4.239142	90968064	59912192	29939144	24992
299	5.286442	90968064	59912192	16480560	24992
300	5.299627	90968064	59912192	19617088	24992
301	5.927588	90968064	59912192	23071984	24992
302	1.008736	90968064	59912192	27168472	24992
303	1.533978	90968064	59912192	28130688	24992
304	2.076584	90968064	59912192	29413840	24992
305	3.226776	90968064	59912192	14868184	24992
306	3.202198	90968064	59912192	16796256	24992
307	3.692294	90968064	59912192	19048088	24992
308	4.290798	90968064	59912192	21624488	24992
309	4.657532	90968064	59912192	24526352	24992
310	5.308733	90968064	59912192	27755904	24992
311	6.724019	90968064	59912192	15467808	24992
312	1.088422	90968064	59912192	19685272	24992
313	1.640518	90968064	59912192	20675456	24992
314	2.177427	90968064	59912192	21995760	24992
315	2.791371	90968064	59912192	23647136	24992
316	3.155176	90968064	59912192	25631168	24992
317	3.866618	90968064	59912192	27954224	24992
318	4.198116	90968064	59912192	30604960	24992
319	5.371664	90968064	59912192	17350472	24992
320	5.50467	90968064	59912192	20674160	24992
321	6.220223	90968064	59912192	24333072	24992
322	1.113632	90968064	59912192	28674248	24992
323	1.669646	90968064	59912192	29692408	24992
324	2.922348	90968064	59912192	14937784	24992
325	2.827352	90968064	59912192	16635776	24992
326	3.470255	90968064	59912192	18675544	24992
327	3.827335	90968064	59912192	21066944	24992
328	4.537147	90968064	59912192	23793584	24992
329	4.864789	90968064	59912192	26862656	24992
330	5.667425	90968064	59912192	30277880	24992
331	6.69252	90968064	59912192	17846280	24992
332	1.109719	90968064	59912192	22308672	24992
333	1.708044	90968064	59912192	23354712	24992
334	2.216938	90968064	59912192	24749464	24992
335	2.760841	90968064	59912192	26493872	24992
336	3.37283	90968064	59912192	28589304	24992
337	3.903272	90968064	59912192	31047312	24992
338	5.135884	90968064	59912192	17605512	24992
339	5.217023	90968064	59912192	20758104	24992
340	5.559821	90968064	59912192	24273280	24992
341	6.326035	90968064	59912192	28136368	24992
342	1.18601	90968064	59912192	16919712	24992
343	1.788951	90968064	59912192	17993600	24992
344	2.385332	90968064	59912192	19425472	24992
345	2.985195	90968064	59912192	21216272	24992
346	3.687965	90968064	59912192	23367432	24992
347	3.999576	90968064	59912192	25879336	24992
348	4.556494	90968064	59912192	28768104	24992
349	6.101278	90968064	59912192	16122208	24992
350	6.051351	90968064	59912192	19722944	24992
351	6.298186	90968064	59912192	23688144	24992
352	1.227013	90968064	59912192	28408792	24992
353	1.990968	90968064	59912192	29510656	24992
354	2.336732	90968064	59912192	30983504	24992
355	3.490456	90968064	59912192	16628240	24992
356	3.522173	90968064	59912192	18847160	24992
357	4.307589	90968064	59912192	21431976	24992
358	4.687866	90968064	59912192	24387992	24992
359	5.321221	90968064	59912192	27707928	24992
360	5.913963	90968064	59912192	31415512	24992
361	7.277709	90968064	59912192	19245880	24992
362	1.246224	90968064	59912192	24087528	24992
363	2.117893	90968064	59912192	25220080	24992
364	2.401794	90968064	59912192	26726344	24992
365	2.991188	90968064	59912192	28621888	24992
366	3.614739	90968064	59912192	30892864	24992
367	4.88095	90968064	59912192	17417064	24992
368	4.839412	90968064	59912192	20439152	24992
369	5.63279	90968064	59912192	23842400	24992
370	6.060885	90968064	59912192	27628736	24992
371	6.858153	90968064	59912192	31800112	24992
372	1.27942	90968064	59912192	20475088	24992
373	1.944335	90968064	59912192	21635328	24992
374	2.458649	90968064	59912192	23185616	24992
375	3.069179	90968064	59912192	25117544	24992
376	3.926378	90968064	59912192	27436000	24992
377	4.509897	90968064	59912192	30143096	24992
378	5.759821	90968064	59912192	17196664	24992
379	5.933581	90968064	59912192	20683544	24992
380	6.231783	90968064	59912192	24574904	24992
381	6.804048	90968064	59912192	28857928	24992
382	1.494276	90968064	59912192	18100072	24992
383	1.890325	90968064	59912192	19285688	24992
384	2.519974	90968064	59912192	20866336	24992
385	3.145243	90968064	59912192	22842952	24992
386	3.9913	90968064	59912192	25223200	24992
387	4.415129	90968064	59912192	27995168	24992
388	5.07679	90968064	59912192	31167552	24992
389	6.625515	90968064	59912192	18604280	24992
390	6.646004	90968064	59912192	22576336	24992
391	7.181585	90968064	59912192	26949752	24992
392	1.280344	90968064	59912192	32166552	24992
393	2.627173	90968064	59912192	17131064	24992
394	2.754817	90968064	59912192	18748984	24992
395	3.285968	90968064	59912192	20772128	24992
396	3.916298	90968064	59912192	23202032	24992
397	4.737343	90968064	59912192	26039080	24992
398	5.4028	90968064	59912192	29284168	24992
399	6.867529	90968064	59912192	17120832	24992
400	6.999512	90968064	59912192	21185648	24992
401	7.144167	90968064	59912192	25661352	24992
402	1.379019	90968064	59912192	30995408	24992
403	2.074649	90968064	59912192	32237032	24992
404	3.577421	90968064	59912192	17634424	24992
405	3.314057	90968064	59912192	19704080	24992
406	4.047181	90968064	59912192	22189728	24992
407	5.061684	90968064	59912192	25093440	24992
408	5.299431	90968064	59912192	28417056	24992
409	6.178217	90968064	59912192	32155440	24992
410	7.614824	90968064	59912192	20098736	24992
411	7.709653	90968064	59912192	24676536	24992
412	1.402206	90968064	59912192	30138328	24992
413	2.131133	90968064	59912192	31407840	24992
414	3.631576	90968064	59912192	17034216	24992
415	3.729671	90968064	59912192	19150984	24992
416	4.055597	90968064	59912192	21692296	24992
417	4.728376	90968064	59912192	24659224	24992
418	5.417393	90968064	59912192	28052800	24992
419	6.167068	90968064	59912192	31890800	24992
420	7.779621	90968064	59912192	20046720	24992
421	7.701903	90968064	59912192	24791960	24992
422	1.370154	90968064	59912192	30469184	24992
423	2.089524	90968064	59912192	31816080	24992
424	3.592699	90968064	59912192	17487080	24992
425	3.627118	90968064	59912192	19732032	24992
426	4.553173	90968064	59912192	22427936	24992
427	4.905513	90968064	59912192	25576344	24992
428	5.529028	90968064	59912192	29180512	24992
429	7.413853	90968064	59912192	17481488	24992
430	7.003646	90968064	59912192	22003976	24992
431	7.86011	90968064	59912192	26981240	24992
432	1.45945	90968064	59912192	32908528	24992
433	2.872569	90968064	59912192	18029536	24992
434	3.049627	90968064	59912192	19862008	24992
435	3.537481	90968064	59912192	22168840	24992
436	4.467133	90968064	59912192	24928528	24992
437	5.005054	90968064	59912192	28151288	24992
438	5.665363	90968064	59912192	31839328	24992
439	7.481466	90968064	59912192	19899448	24992
440	7.118856	90968064	59912192	24502640	24992
441	8.02395	90968064	59912192	29570984	24992
442	1.509256	90968064	59912192	19805432	24992
443	2.257803	90968064	59912192	21207992	24992
444	3.017041	90968064	59912192	23092264	24992
445	4.060116	90968064	59912192	25430176	24992
446	4.342855	90968064	59912192	28238920	24992
447	5.260999	90968064	59912192	31516248	24992
448	6.702152	90968064	59912192	19278024	24992
449	6.587472	90968064	59912192	23497936	24992
450	7.249208	90968064	59912192	28200680	24992
451	8.20676	90968064	59912192	33371704	24992
452	1.54275	90968064	59912192	23222768	24992
453	2.313289	90968064	59912192	24653320	24992
454	3.050042	90968064	59912192	26560144	24992
455	3.716951	90968064	59912192	28950048	24992
456	4.459099	90968064	59912192	31813112	24992
457	6.247327	90968064	59912192	19108200	24992
458	5.951815	90968064	59912192	22941728	24992
459	6.881926	90968064	59912192	27253144	24992
460	7.4092	90968064	59912192	32039288	24992
461	9.295202	90968064	59912192	21198584	24992
462	1.567948	90968064	59912192	27481200	24992
463	2.352828	90968064	59912192	28939760	24992
464	3.148572	90968064	59912192	30883816	24992
465	4.130581	90968064	59912192	33320616	24992
466	5.668608	90968064	59912192	20055688	24992
467	5.493702	90968064	59912192	23468672	24992
468	6.038467	90968064	59912192	27365296	24992
469	6.793608	90968064	59912192	31760936	24992
470	8.583946	90968064	59912192	20667000	24992
471	8.537864	90968064	59912192	26055816	24992
472	1.592717	90968064	59912192	32460152	24992
473	2.406168	90968064	59912192	33946536	24992
474	4.059037	90968064	59912192	19677112	24992
475	4.021132	90968064	59912192	22154328	24992
476	4.82846	90968064	59912192	25128944	24992
477	5.739767	90968064	59912192	28601240	24992
478	6.159538	90968064	59912192	32574200	24992
479	8.109111	90968064	59912192	20997680	24992
480	7.74002	90968064	59912192	25982872	24992
481	8.552187	90968064	59912192	31464120	24992
482	1.634459	90968064	59912192	22018200	24992
483	2.462157	90968064	59912192	23537192	24992
484	3.157085	90968064	59912192	25573288	24992
485	3.922819	90968064	59912192	28097208	24992
486	5.006701	90968064	59912192	31127584	24992
487	6.794575	90968064	59912192	18839152	24992
488	6.678208	90968064	59912192	22884424	24992
489	7.092986	90968064	59912192	27438704	24992
490	8.241299	90968064	59912192	32523024	24992
491	9.682047	90968064	59912192	22004664	24992
492	1.63926	90968064	59912192	28649856	24992
493	2.449356	90968064	59912192	30192256	24992
494	3.334467	90968064	59912192	32248016	24992
495	5.435248	90968064	59912192	18860984	24992
496	4.984242	90968064	59912192	21947120	24992
497	5.911395	90968064	59912192	25549480	24992
498	6.635948	90968064	59912192	29669080	24992
499	7.266332	90968064	59912192	34306664	24992
500	9.268659	90968064	59912192	23222008	24992
501	9.22239	90968064	59912192	28899528	24992
502	2.622997	90968064	59912192	19433664	24992
503	2.546598	90968064	59912192	21006304	24992
504	3.401446	90968064	59912192	23099256	24992
505	4.32637	90968064	59912192	25715904	24992
506	5.087395	90968064	59912192	28857648	24992
507	5.772133	90968064	59912192	32524912	24992
508	7.871039	90968064	59912192	20763072	24992
509	7.362214	90968064	59912192	25484168	24992
510	8.44188	90968064	59912192	30735512	24992
511	10.299922	90968064	59912192	20814784	24992
512	1.721994	90968064	59912192	27702048	24992
513	2.584997	90968064	59912192	29300176	24992
514	3.45928	90968064	59912192	31430192	24992
515	4.445314	90968064	59912192	34105888	24992
516	6.031773	90968064	59912192	21136600	24992
517	5.826748	90968064	59912192	24883856	24992
518	6.66332	90968064	59912192	29151944	24992
519	7.751475	90968064	59912192	33956560	24992
520	9.731973	90968064	59912192	23171520	24992
521	9.190037	90968064	59912192	29053080	24992
522	2.835864	90968064	59912192	19816104	24992
523	2.535636	90968064	59912192	21462128	24992
524	3.375372	90968064	59912192	23629512	24992
525	4.212093	90968064	59912192	26339104	24992
526	5.358849	90968064	59912192	29592360	24992
527	5.915396	90968064	59912192	33399856	24992
528	8.073639	90968064	59912192	21734376	24992
529	8.12019	90968064	59912192	26623040	24992
530	8.576222	90968064	59912192	32059200	24992
531	10.961018	90968064	59912192	22194264	24992
532	1.77533	90968064	59912192	29323872	24992
533	2.880119	90968064	59912192	30988928	24992
534	3.449578	90968064	59912192	33193488	24992
535	5.506913	90968064	59912192	20020432	24992
536	5.408703	90968064	59912192	23352504	24992
537	6.156059	90968064	59912192	27214808	24992
538	7.039162	90968064	59912192	31652664	24992
539	9.294799	90968064	59912192	20888568	24992
540	8.653162	90968064	59912192	26417464	24992
541	9.9625	90968064	59912192	32503600	24992
542	1.815855	90968064	59912192	23855016	24992
543	2.944381	90968064	59912192	25546968	24992
544	3.56767	90968064	59912192	27788560	24992
545	4.366944	90968064	59912192	30591008	24992
546	5.541348	90968064	59912192	33955776	24992
547	7.328181	90968064	59912192	21868512	24992
548	7.254804	90968064	59912192	26368032	24992
549	7.954911	90968064	59912192	31423712	24992
550	10.141976	90968064	59912192	21301312	24992
551	10.021933	90968064	59912192	27505512	24992
552	1.855405	90968064	59912192	34882056	24992
553	4.035117	90968064	59912192	20418904	24992
554	3.736133	90968064	59912192	22713336	24992
555	4.646375	90968064	59912192	25562328	24992
556	5.655562	90968064	59912192	28999240	24992
557	6.287188	90968064	59912192	33003712	24992
558	8.887941	90968064	59912192	21748128	24992
559	8.081353	90968064	59912192	26890312	24992
560	9.14648	90968064	59912192	32624256	24992
561	11.135675	90968064	59912192	23049448	24992
562	1.986131	90968064	59912192	30551904	24992
563	2.712253	90968064	59912192	32293456	24992
564	3.661694	90968064	59912192	34609504	24992
565	6.004927	90968064	59912192	21460208	24992
566	5.446754	90968064	59912192	24936368	24992
567	6.5765	90968064	59912192	28993992	24992
568	7.318534	90968064	59912192	33633320	24992
569	9.591334	90968064	59912192	22959424	24992
570	9.333768	90968064	59912192	28779728	24992
571	10.333736	90968064	59912192	35172288	24992
572	1.909588	90968064	59912192	26586144	24992
573	2.881895	90968064	59912192	28365936	24992
574	3.848497	90968064	59912192	30719416	24992
575	5.104021	90968064	59912192	33662608	24992
576	6.848889	90968064	59912192	21311040	24992
577	6.765724	90968064	59912192	25438904	24992
578	7.408541	90968064	59912192	30168824	24992
579	8.337092	90968064	59912192	35475176	24992
580	10.631368	90968064	59912192	25152192	24992
581	10.451629	90968064	59912192	31661392	24992
582	1.93932	90968064	59912192	23757952	24992
583	2.929441	90968064	59912192	25556296	24992
584	3.979538	90968064	59912192	27946840	24992
585	4.736189	90968064	59912192	30935248	24992
586	5.868716	90968064	59912192	34525688	24992
587	7.850252	90968064	59912192	22742800	24992
588	7.551327	90968064	59912192	27545080	24992
589	8.678438	90968064	59912192	32934688	24992
590	11.083009	90968064	59912192	23152800	24992
591	10.629896	90968064	59912192	29762576	24992
592	3.301352	90968064	59912192	21406896	24992
593	2.870304	90968064	59912192	23233032	24992
594	3.854251	90968064	59912192	25660752	24992
595	4.990073	90968064	59912192	28695696	24992
596	5.707309	90968064	59912192	32339176	24992
597	6.680883	90968064	59912192	36591672	24992
598	9.021667	90968064	59912192	25239240	24992
599	8.846007	90968064	59912192	30730640	24992
600	9.800674	90968064	59912192	36817064	24992
601	12.124216	90968064	59912192	27209072	24992
602	2.00984	90968064	59912192	35191288	24992
603	2.913253	90968064	59912192	37040712	24992
604	5.20938	90968064	59912192	23232840	24992
605	4.880773	90968064	59912192	26316576	24992
606	5.819952	90968064	59912192	30030720	24992
607	6.978695	90968064	59912192	34354192	24992
608	9.586811	90968064	59912192	23427944	24992
609	8.974029	90968064	59912192	28985184	24992
610	9.789756	90968064	59912192	35169896	24992
611	12.453948	90968064	59912192	25938264	24992
612	2.034087	90968064	59912192	34065904	24992
613	3.06952	90968064	59912192	35943352	24992
614	5.401983	90968064	59912192	22401024	24992
615	5.150307	90968064	59912192	25528864	24992
616	6.167966	90968064	59912192	29294304	24992
617	7.147979	90968064	59912192	33677224	24992
618	9.573646	90968064	59912192	22944496	24992
619	8.949441	90968064	59912192	28591456	24992
620	9.910827	90968064	59912192	34866024	24992
621	12.471409	90968064	59912192	25817864	24992
622	2.084937	90968064	59912192	34042728	24992
623	3.123644	90968064	59912192	35949928	24992
624	5.510442	90968064	59912192	22464056	24992
625	5.284642	90968064	59912192	25652976	24992
626	6.139351	90968064	59912192	29475848	24992
627	7.292992	90968064	59912192	33933008	24992
628	9.769333	90968064	59912192	23279280	24992
629	9.470773	90968064	59912192	29013744	24992
630	10.514136	90968064	59912192	35412368	24992
631	12.69948	90968064	59912192	26398456	24992
632	2.110069	90968064	59912192	34739608	24992
633	3.175503	90968064	59912192	36673016	24992
634	5.385518	90968064	59912192	23137752	24992
635	5.743051	90968064	59912192	26360112	24992
636	6.194807	90968064	59912192	30235312	24992
637	7.537319	90968064	59912192	34747936	24992
638	10.064811	90968064	59912192	24092072	24992
639	9.424041	90968064	59912192	29912792	24992
640	10.225733	90968064	59912192	36370184	24992
641	13.090078	90968064	59912192	27396104	24992
642	2.408263	90968064	59912192	35863680	24992
643	3.383047	90968064	59912192	37827936	24992
644	5.397112	90968064	59912192	24250832	24992
645	5.199435	90968064	59912192	27530864	24992
646	6.181586	90968064	59912192	31453048	24992
647	7.472	90968064	59912192	36032480	24992
648	9.991885	90968064	60436480	25358672	24992
649	9.352025	90968064	60436480	31263496	24992
650	10.605697	90968064	60436480	37823472	24992
651	13.063908	90968064	60436480	28766432	24992
652	2.157713	90968064	60436480	37364960	24992
653	4.555991	90968064	60436480	23240656	24992
654	4.428889	90968064	60436480	25891752	24992
655	5.226369	90968064	60436480	29216232	24992
656	6.514522	90968064	60436480	33213120	24992
657	7.355026	90968064	60436480	37877304	24992
658	9.862924	91238400	60436480	26970360	24992
659	9.72532	91238400	60436480	32966568	24992
660	12.431414	91238400	60436480	24096752	24992
661	11.635866	91238400	60436480	31407816	24992
662	2.156143	91238400	60436480	23807360	24992
663	3.174646	91238400	60436480	25824344	24992
664	4.484923	91238400	60436480	28512552	24992
665	5.349619	91238400	60436480	31872736	24992
666	6.401094	91238400	60436480	35911784	24992
667	9.458235	91238400	60436480	24770272	24992
668	8.539438	91238400	60436480	30157112	24992
669	9.834044	91238400	60436480	36235072	24992
670	12.352677	91238400	60436480	26984224	24992
671	12.111199	91238400	60436480	34423424	24992
672	2.23424	91238400	60436480	27550792	24992
673	3.218895	91238400	60436480	29612576	24992
674	4.302607	91238400	60436480	32340408	24992
675	5.61253	91238400	60436480	35747144	24992
676	8.242454	91238400	60436480	24036264	24992
677	7.94877	91238400	60436480	28815656	24992
678	8.881445	91238400	60436480	34277256	24992
679	11.583258	91238400	60436480	24724984	24992
680	11.21628	91238400	60436480	31571656	24992
681	12.305581	91238400	60436480	39102240	24992
682	2.322717	91238400	60436480	31651744	24992
683	3.448472	91238400	60436480	33728832	24992
684	4.600284	91238400	60436480	36491416	24992
685	7.293786	91238400	60436480	24051048	24992
686	6.915649	91238400	60436480	28219048	24992
687	7.885957	91238400	60436480	33057816	24992
688	8.78012	91238400	60436480	38588808	24992
689	11.352269	91238400	60436480	28638320	24992
690	11.245743	91238400	60436480	35592936	24992
691	13.98086	91238400	60436480	27436576	24992
692	2.474701	91238400	60436480	36543984	24992
693	3.547386	91238400	60436480	38644848	24992
694	5.821426	91238400	60436480	25255144	24992
695	5.780881	91238400	60436480	28754632	24992
696	6.694573	91238400	60436480	32971400	24992
697	7.822759	91238400	60436480	37873928	24992
698	10.755146	91238400	60436480	27446728	24992
699	10.39323	91238400	60436480	33784680	24992
700	13.036938	91238400	60436480	25358744	24992
701	12.52758	91238400	60436480	33078264	24992
702	2.300997	91238400	60436480	26922472	24992
703	3.359639	91238400	60436480	29063488	24992
704	4.479111	91238400	60436480	31900440	24992
705	5.843713	91238400	60436480	35464400	24992
706	6.738454	91238400	60436480	39738976	24992
707	9.501065	91238400	60436480	28385152	24992
708	9.286286	91238400	60436480	34077992	24992
709	12.281498	91238400	60436480	24952608	24992
710	11.588552	91238400	60436480	32068992	24992
711	12.589643	91238400	60436480	39890416	24992
712	2.351732	91238400	60436480	32810672	24992
713	3.403307	91238400	60436480	34983864	24992
714	4.779155	91238400	60436480	37858000	24992
715	7.326288	91238400	60436480	25463352	24992
716	6.906526	91238400	60436480	29786440	24992
717	8.037652	91238400	60436480	34818968	24992
718	10.978991	91238400	60436480	25096000	24992
719	10.596649	91238400	60436480	31572480	24992
720	11.779472	91238400	60436480	38798592	24992
721	14.854017	91238400	60436480	30535144	24992
722	2.315631	91238400	60436480	39999136	24992
723	5.118322	91238400	60436480	25963264	24992
724	4.64749	91238400	60436480	28874704	24992
725	5.758053	91238400	60436480	32513800	24992
726	6.933025	91238400	60436480	36902632	24992
727	10.049533	91238400	60436480	26237968	24992
728	9.499937	91238400	60436480	32082912	24992
729	10.44624	91238400	60436480	38666520	24992
730	13.491502	91238400	60436480	29849352	24992
731	13.031126	91238400	60436480	37889144	24992
732	2.585316	91238400	60436480	31480976	24992
733	3.757549	91238400	60436480	33700848	24992
734	4.689395	91238400	60436480	36659352	24992
735	5.836837	91238400	60436480	40344784	24992
736	8.709564	91238400	60436480	28480288	24992
737	8.343203	91238400	60436480	33647168	24992
738	9.443405	91238400	60436480	39549576	24992
739	12.45916	91238400	60436480	30006112	24992
740	12.002513	91238400	60436480	37399624	24992
741	15.015271	91238400	60436480	29694160	24992
742	2.413231	91238400	60436480	39396880	24992
743	5.532352	91238400	60436480	25545056	24992
744	4.737256	91238400	60436480	28536320	24992
745	6.248652	91238400	60436480	32268240	24992
746	7.108982	91238400	60436480	36764640	24992
747	10.364228	91238400	60436480	26354624	24992
748	9.746967	91238400	60436480	32354072	24992
749	10.950865	91238400	60436480	39102704	24992
750	13.640804	91238400	60436480	30508016	24992
751	13.358758	91238400	60436480	38767848	24992
752	2.496222	91238400	60436480	32539744	24992
753	3.742176	91238400	60436480	34808216	24992
754	4.888784	91238400	60436480	37835368	24992
755	7.963435	91238400	60436480	25834024	24992
756	7.452939	91238400	60436480	30369272	24992
757	8.411867	91238400	60436480	35663624	24992
758	11.572246	91238400	60436480	26191192	24992
759	11.400731	91238400	60436480	33025184	24992
760	12.627057	91238400	60436480	40612904	24992
761	15.66517	91238400	60436480	32690432	24992
762	4.078875	91238400	60436480	26378456	24992
763	3.800579	91238400	60436480	28674904	24992
764	5.083824	91238400	60436480	31738440	24992
765	6.068205	91238400	60436480	35574088	24992
766	7.511695	91238400	60436480	40165440	24992
767	10.213441	91238400	60436480	29456048	24992
768	9.983298	91238400	60436480	35596720	24992
769	13.305355	91508736	60960768	26992088	24992
770	12.735417	91508736	60960768	34678768	24992
771	15.964993	91508736	60960768	27748184	24992
772	2.544456	91508736	60960768	37804832	24992
773	3.747483	91508736	60960768	40129304	24992
774	6.717602	91508736	60960768	27153840	24992
775	6.667105	91508736	60960768	31025376	24992
776	8.251313	91508736	60960768	35672176	24992
777	8.76441	91508736	60960768	41094752	24992
778	12.615472	91508736	60960768	31130544	24992
779	11.821489	91508736	60960768	38107656	24992
780	14.81502	91779072	60960768	30043840	24992
781	13.876317	91779072	60960768	38638136	24992
782	2.747308	91779072	61485056	32896864	24992
783	3.782159	91779072	61485056	35249096	24992
784	4.97239	91779072	61485056	38383688	24992
785	8.901243	91779072	61485056	26605192	24992
786	7.849635	91779072	61485056	31307752	24992
787	8.897809	91779072	61485056	36800568	24992
788	12.394045	92049408	61485056	27508216	24992
789	11.452595	92049408	61485056	34575296	24992
790	15.18467	92049408	61485056	27195288	24992
791	13.855462	92049408	61485056	35886480	24992
792	2.613717	92049408	61485056	30695280	24992
793	3.993346	92049408	61485056	33088288	24992
794	5.269683	92049408	61485056	36260064	24992
795	6.310887	92049408	61485056	40224256	24992
796	9.662254	92049408	61485056	29040368	24992
797	8.874038	92049408	61485056	34593720	24992
798	10.354248	92049408	61485056	40970448	24992
799	13.229229	92319744	61485056	31946888	24992
800	12.952469	92319744	61485056	39889232	24992
801	16.081779	92319744	61485056	32593856	24992
802	4.366155	92319744	62009344	26896200	24992
803	3.856311	92319744	62009344	29304296	24992
804	5.311215	92319744	62009344	32513256	24992
805	6.9844	92319744	62009344	36529776	24992
806	8.113736	92319744	62009344	41343824	24992
807	11.116235	92319744	62009344	30860752	24992
808	10.331739	92319744	62009344	37282944	24992
809	13.846533	92590080	62009344	28948824	24992
810	13.10922	92590080	62009344	37016472	24992
811	16.569528	92590080	62009344	30297368	24992
812	2.592164	92590080	62009344	40867920	24992
813	5.690754	92590080	62009344	27296608	24992
814	5.490391	92590080	62009344	30550912	24992
815	6.601709	92590080	62009344	34608232	24992
816	8.035457	92590080	62009344	39478072	24992
817	11.267167	92590080	62009344	29358600	24992
818	10.728177	92590080	62009344	35865784	24992
819	14.147959	92860416	62009344	27872856	24992
820	13.334437	92860416	62009344	36004480	24992
821	16.74594	92860416	62009344	29641808	24992
822	2.702442	92860416	62009344	40312224	24992
823	4.080304	92860416	62009344	42776272	24992
824	6.941421	92860416	62009344	29799040	24992
825	6.791687	92860416	62009344	33927760	24992
826	8.135027	92860416	62009344	38860520	24992
827	11.553525	92860416	62533632	28945784	24992
828	10.525502	93130752	62533632	35527800	24992
829	12.304952	93130752	62533632	42925632	24992
830	15.155907	93130752	62533632	34742216	24992
831	17.324396	93130752	62533632	28691880	24992
832	2.645982	93130752	62533632	39499728	24992
833	4.181443	93130752	62533632	42000376	24992
834	7.373223	93130752	62533632	29262696	24992
835	6.693325	93130752	62533632	33412960	24992
836	8.169387	93130752	62533632	38415080	24992
837	11.537683	93401088	62533632	28712336	24992
838	11.018943	93401088	62533632	35365744	24992
839	12.319323	93401088	62533632	42881008	24992
840	15.62846	93401088	62533632	34963024	24992
841	17.248512	93401088	63057920	29018552	24992
842	2.768952	93401088	63057920	40062376	24992
843	4.171474	93401088	63057920	42631496	24992
844	7.163164	93401088	63057920	29879560	24992
845	7.018192	93401088	63057920	34164680	24992
846	8.047301	93401088	63057920	39305736	24992
847	11.73305	93671424	63057920	29646416	24992
848	10.865148	93671424	63057920	36527528	24992
849	14.619622	93671424	63057920	28980784	24992
850	13.542722	93671424	63057920	37601976	24992
851	17.469056	93671424	63057920	31517336	24992
852	2.814112	93671424	63057920	42806392	24992
853	5.894505	93671424	63057920	29251152	24992
854	5.626119	93671424	63057920	32718288	24992
855	6.777905	93671424	63057920	37043680	24992
856	8.422266	93671424	63057920	42235056	24992
857	11.514705	93941760	63057920	32280088	24992
858	11.120704	93941760	63057920	39221144	24992
859	14.620731	93941760	63057920	31376496	24992
860	13.706328	93941760	63057920	40050512	24992
861	17.705464	93941760	63057920	33831568	24992
862	4.632339	93941760	63582208	29047728	24992
863	4.128079	93941760	63582208	31672704	24992
864	5.772373	93941760	63582208	35170680	24992
865	7.053299	93941760	63582208	39551176	24992
866	11.026158	94212096	63582208	29172584	24992
867	9.847584	94212096	63582208	35295464	24992
868	11.095149	94212096	63582208	42305464	24992
869	15.062008	94212096	63582208	34060400	24992
870	14.282159	94212096	63582208	42834256	24992
871	17.324604	94212096	63582208	36360584	24992
872	2.857153	94212096	63582208	32652536	24992
873	4.319414	94212096	63582208	35305704	24992
874	5.541978	94212096	63582208	38841456	24992
875	7.191049	94212096	63582208	43273768	24992
876	10.723927	94482432	63582208	32441832	24992
877	10.427335	94482432	63582208	38653112	24992
878	13.773216	94482432	63582208	30226960	24992
879	12.879828	94482432	63582208	38188072	24992
880	16.613374	94482432	63582208	31538680	24992
881	15.487213	94482432	63582208	41292592	24992
882	2.897822	94482432	64106496	37051112	24992
883	4.193901	94482432	64106496	39748144	24992
884	5.793351	94482432	64106496	43320584	24992
885	9.235768	94752768	64106496	31758800	24992
886	8.467386	94752768	64106496	37125912	24992
887	10.135196	94752768	64106496	43391344	24992
888	13.200984	94752768	64106496	34389016	24992
889	12.917603	94752768	64106496	42448440	24992
890	16.398082	94752768	64106496	35388680	24992
891	18.358482	94752768	64106496	30260872	24992
892	3.151109	94752768	64106496	42018080	24992
893	4.252726	94752768	64106496	44726864	24992
894	7.761763	94752768	64106496	32080720	24992
895	7.133449	94752768	64106496	36592064	24992
896	8.508077	94752768	64106496	42014416	24992
897	12.068055	95023104	64106496	32494416	24992
898	11.400642	95023104	64106496	39735056	24992
899	15.12984	95023104	64106496	32261192	24992
900	14.339945	95023104	64106496	41323272	24992
901	18.039977	95023104	64630784	35414552	24992
902	2.891942	95023104	64630784	32351400	24992
903	4.512709	95023104	64630784	35092080	24992
904	5.985061	95023104	64630784	38738856	24992
905	7.594289	95023104	64630784	43306784	24992
906	10.678314	95293440	64630784	32766480	24992
907	10.369974	95293440	64630784	39200048	24992
908	14.206566	95293440	64630784	31047704	24992
909	13.207182	95293440	64630784	39264640	24992
910	16.799267	95293440	64630784	32918840	24992
911	16.15632	95293440	64630784	43031936	24992
912	2.898706	95293440	65155072	39014416	24992
913	4.338378	95293440	65155072	41779208	24992
914	8.49044	95563776	65155072	29720704	24992
915	7.619141	95563776	65155072	34341544	24992
916	9.123231	95563776	65155072	39889704	24992
917	12.800657	95563776	65155072	30799624	24992
918	12.308603	95563776	65155072	38183088	24992
919	15.663056	95563776	65155072	31194864	24992
920	15.168295	95563776	65155072	40416520	24992
921	19.249612	95563776	65155072	34976224	24992
922	4.94009	95563776	65155072	30949984	24992
923	4.621827	95563776	65155072	33747976	24992
924	6.074319	95563776	65155072	37488256	24992
925	7.434988	95563776	65155072	42152456	24992
926	11.32176	95834112	65155072	32000520	24992
927	10.357254	95834112	65155072	38522800	24992
928	14.415533	95834112	65155072	30678312	24992
929	13.483343	95834112	65155072	39079136	24992
930	17.457028	95834112	65155072	33110808	24992
931	16.473125	95834112	65155072	43364056	24992
932	2.977478	95834112	65155072	39627416	24992
933	4.659558	95834112	65155072	42447968	24992
934	8.427771	96104448	65679360	30478904	24992
935	7.501077	96104448	65679360	35195824	24992
936	9.38194	96104448	65679360	40872400	24992
937	12.768097	96104448	65679360	31877768	24992
938	12.176957	96104448	65679360	39431552	24992
939	16.102458	96104448	65679360	32530848	24992
940	14.95738	96104448	65679360	41972296	24992
941	19.111821	96104448	65679360	36636840	24992
942	2.978676	96104448	65679360	34108232	24992
943	4.684037	96104448	65679360	36956744	24992
944	6.161333	96104448	65679360	40756016	24992
945	7.468745	96104448	65679360	45501640	24992
946	11.283876	96374784	65679360	35052376	24992
947	10.645899	96374784	65679360	41725424	24992
948	14.56277	96374784	65679360	33642216	24992
949	13.578516	96374784	65679360	42202552	24992
950	17.575881	96374784	65679360	35998464	24992
951	17.097794	96374784	65679360	46459160	24992
952	3.250059	96374784	65679360	42491904	24992
953	4.728532	96374784	65679360	45368512	24992
954	8.341085	96645120	65679360	33152424	24992
955	7.796227	96645120	65679360	37962576	24992
956	9.404981	96645120	65679360	43723472	24992
957	13.137741	96645120	66203648	34608608	24992
958	12.377738	96645120	66203648	42291952	24992
959	16.12313	96645120	66203648	35256224	24992
960	15.981633	96645120	66203648	44883240	24992
961	19.106975	96915456	66203648	39334888	24992
962	3.156402	96915456	66203648	36643816	24992
963	4.743978	96915456	66203648	39562928	24992
964	6.687935	96915456	66203648	43449624	24992
965	10.229852	96915456	66203648	32605224	24992
966	9.396878	96915456	66203648	38432104	24992
967	10.800968	96915456	66203648	45225632	24992
968	14.754908	97185792	66203648	36897464	24992
969	14.063029	97185792	66203648	45655856	24992
970	18.180785	97185792	66203648	39235752	24992
971	19.760438	97185792	66203648	34707192	24992
972	5.41024	97185792	66727936	31438832	24992
973	4.650216	97185792	66727936	34371232	24992
974	6.1975	97185792	66727936	38285832	24992
975	7.977134	97185792	66727936	43168960	24992
976	12.237883	97456128	67252224	33371440	24992
977	11.148211	97456128	67252224	40221432	24992
978	15.061993	97456128	67252224	32798368	24992
979	14.171185	97456128	67252224	41649552	24992
980	18.344719	97456128	67252224	35938848	24992
981	17.389695	97456128	67252224	46774560	24992
982	3.218254	97456128	67252224	43378232	24992
983	4.650117	97456128	67252224	46361576	24992
984	8.774886	97726464	67252224	34224808	24992
985	8.224103	97726464	67252224	39178536	24992
986	9.559729	97726464	67252224	45094648	24992
987	13.41581	97726464	67252224	36063656	24992
988	12.535762	97726464	67252224	43993160	24992
989	16.886632	97726464	67252224	37076264	24992
990	15.794528	97726464	67252224	46962544	24992
991	19.997674	97726464	67252224	41637656	24992
992	3.28023	97726464	67252224	39115768	24992
993	4.736964	97726464	67252224	42106264	24992
994	6.344257	97726464	67252224	46113152	24992
995	10.600485	97996800	67776512	35125056	24992
996	9.673326	97996800	67776512	41124536	24992
997	13.911398	97996800	67776512	32722112	24992
998	12.719781	97996800	67776512	40697824	24992
999	17.535839	97996800	67776512	34448288	24992
1000	16.260812	97996800	67776512	44438792	24992
x	Duration	RSS	HeapTotal	HeapUsed	External
0	NA	96829440	65679360	11992616	24992
1	0.339924	96829440	65679360	12044096	24992
2	0.283691	96829440	65679360	12120840	24992
3	0.325149	96829440	65679360	12224696	24992
4	0.395987	96829440	65679360	12357208	24992
5	0.468925	96829440	65679360	12519920	24992
6	0.574304	96829440	65679360	12713192	24992
7	0.627168	96829440	65679360	12938040	24992
8	0.711524	96829440	65679360	13195472	24992
9	1.153116	96829440	65679360	13487400	24992
10	0.914971	96829440	65679360	13814456	24992
11	1.042103	96829440	65679360	14181176	24992
12	0.252679	96829440	65679360	14573544	24992
13	0.349432	96829440	65679360	14685848	24992
14	0.472739	96829440	65679360	14840168	24992
15	0.540744	96829440	65679360	15031408	24992
16	0.647707	96829440	65679360	15264144	24992
17	0.743068	96829440	65679360	15538768	24992
18	0.847284	96829440	65679360	15856280	24992
19	0.959392	96829440	65679360	16218488	24992
20	1.285943	96829440	65679360	16626400	24992
21	0.842261	96829440	65679360	17080496	24992
22	0.179686	96829440	65679360	17592752	24992
23	0.273012	96829440	65679360	17735376	24992
24	0.350367	96829440	65679360	17928224	24992
25	0.431213	96829440	65679360	18172200	24992
26	0.520665	96829440	65679360	18468880	24992
27	0.60436	96829440	65679360	18818680	24992
28	0.725786	96829440	65679360	19222520	24992
29	0.77023	96829440	65679360	19681488	24992
30	0.857854	96829440	65679360	20197440	24992
31	1.153468	96829440	65679360	20770408	24992
32	0.23918	96829440	65679360	21424328	24992
33	0.312881	96829440	65679360	21599232	24992
34	0.396696	96829440	65679360	21833992	24992
35	0.490237	96829440	65679360	22129648	24992
36	0.584151	96829440	65679360	22487584	24992
37	0.913618	96829440	65679360	22908296	24992
38	0.795761	96829440	65679360	23392760	24992
39	0.871449	96829440	65679360	23941984	24992
40	0.977722	96829440	65679360	24557880	24992
41	1.119995	96829440	65679360	25240456	24992
42	0.233435	96829440	65679360	26023624	24992
43	0.351994	96829440	65679360	26227784	24992
44	0.457082	96829440	65679360	26501544	24992
45	0.567361	96829440	65679360	26847288	24992
46	0.877429	96829440	65679360	27265088	24992
47	0.810048	96829440	65679360	27756128	24992
48	0.910286	96829440	65679360	28321296	24992
49	2.110872	96829440	65679360	12704448	24992
50	1.201728	96829440	65679360	13425888	24992
51	1.247223	96829440	65679360	14226112	24992
52	0.261575	96829440	65679360	15151624	24992
53	0.398333	96829440	65679360	15393376	24992
54	0.515704	96829440	65679360	15717256	24992
55	0.781494	96829440	65679360	16124368	24992
56	0.776255	96829440	65679360	16616016	24992
57	1.004185	96829440	65679360	17195480	24992
58	1.023112	96829440	65679360	17858240	24992
59	1.143801	96829440	65679360	18608072	24992
60	1.273573	96829440	65679360	19446824	24992
61	1.627903	96829440	65679360	20374552	24992
62	0.315575	96829440	65679360	21450048	24992
63	0.475604	96829440	65679360	21721056	24992
64	0.635948	96829440	65679360	22083976	24992
65	0.978793	96829440	65679360	22539736	24992
66	0.859763	96829440	65679360	23089888	24992
67	0.998023	96829440	65679360	23734928	24992
68	1.152504	96829440	65679360	24475720	24992
69	1.285669	96829440	65679360	25313296	24992
70	1.43049	96829440	65679360	26249552	24992
71	1.592906	96829440	65679360	27284584	24992
72	0.346047	96829440	65679360	28486048	24992
73	0.524046	96829440	65679360	28786304	24992
74	1.420367	96829440	65679360	12973680	24992
75	0.860584	96829440	65679360	13478344	24992
76	1.02973	96829440	65679360	14086992	24992
77	1.211501	96829440	65679360	14800224	24992
78	1.382246	96829440	65679360	15619008	24992
79	1.55032	96829440	65679360	16544272	24992
80	1.90557	96829440	65679360	17578272	24992
81	1.8071	96829440	65679360	18721592	24992
82	0.356885	96829440	65679360	20055144	24992
83	0.534163	96829440	65679360	20384664	24992
84	0.700237	96829440	65679360	20827768	24992
85	0.870697	96829440	65679360	21383304	24992
86	1.052278	96829440	65679360	22053808	24992
87	1.220892	96829440	65679360	22839720	24992
88	1.388837	96829440	65679360	23742176	24992
89	1.81496	96829440	65679360	24761968	24992
90	1.747642	96829440	65679360	25901096	24992
91	1.930851	96829440	65679360	27159800	24992
92	0.386348	96829440	65679360	28632160	24992
93	0.580576	96829440	65679360	28994232	24992
94	1.383605	96829440	65679360	13174800	24992
95	1.037129	96829440	65679360	13782504	24992
96	1.230168	96829440	65679360	14514888	24992
97	1.593388	96829440	65679360	15372984	24992
98	1.524408	96829440	65679360	16356792	24992
99	1.712692	96829440	65679360	17468128	24992
100	1.89769	96829440	65679360	18708616	24992
101	2.184147	96829440	65679360	20077840	24992
102	0.443975	96829440	65679360	21693248	24992
103	0.689622	96829440	65679360	22097072	24992
104	0.891625	96829440	65679360	22638040	24992
105	1.116099	96829440	65679360	23315272	24992
106	1.331816	96829440	65679360	24131144	24992
107	1.560274	96829440	65679360	25086128	24992
108	1.77556	96829440	65679360	26181336	24992
109	2.020231	96829440	65679360	27417584	24992
110	2.09006	96829440	65679360	28796824	24992
111	3.058466	96829440	65679360	14038280	24992
112	0.449619	96829440	65679360	15829504	24992
113	0.676943	96829440	65679360	16262664	24992
114	0.890049	96829440	65679360	16841680	24992
115	1.124304	96829440	65679360	17567672	24992
116	1.325815	96829440	65679360	18442056	24992
117	1.723704	96829440	65679360	19466944	24992
118	2.006274	96829440	65679360	20640064	24992
119	2.134678	96829440	65679360	21965872	24992
120	2.223245	96829440	65679360	23449048	24992
121	2.456207	96829440	65679360	25078512	24992
122	0.477175	96829440	65679360	26994016	24992
123	0.775743	96829440	65679360	27456968	24992
124	0.986241	96829440	65679360	28075000	24992
125	1.181457	96829440	65679360	28849664	24992
126	2.008699	96829440	65679360	13506240	24992
127	1.774295	96829440	65679360	14597704	24992
128	2.218082	96829440	65679360	15850872	24992
129	2.138645	96829440	65679360	17262600	24992
130	2.417126	96829440	65679360	18839296	24992
131	2.599571	96829440	65679360	20576288	24992
132	0.536375	96829440	65679360	22619216	24992
133	0.817516	96829440	65679360	23110768	24992
134	1.073205	96829440	65679360	23767784	24992
135	1.338179	96829440	65679360	24591240	24992
136	1.795239	96829440	65679360	25582624	24992
137	1.763179	96829440	65679360	26743408	24992
138	2.021953	96829440	65679360	28072496	24992
139	2.832916	96829440	65679360	13428328	24992
140	2.773408	96829440	65679360	15100000	24992
141	2.999583	96829440	65679360	16943992	24992
142	0.541616	96829440	65679360	19121104	24992
143	0.812212	96829440	65679360	19647424	24992
144	1.072744	96829440	65679360	20350864	24992
145	1.330117	96829440	65679360	21232272	24992
146	1.639473	96829440	65679360	22293936	24992
147	1.863649	96829440	65679360	23534768	24992
148	2.139811	96829440	65679360	24956640	24992
149	2.546147	96829440	65679360	26560472	24992
150	2.85751	96829440	65679360	28348000	24992
151	3.783442	96829440	65679360	14137232	24992
152	0.599973	96829440	65679360	16460576	24992
153	0.898587	96829440	65679360	17016152	24992
154	1.199098	96829440	65679360	17758504	24992
155	1.485051	96829440	65679360	18688696	24992
156	1.788785	96829440	65679360	19808176	24992
157	2.068698	96829440	65679360	21117288	24992
158	2.51088	96829440	65679360	22622448	24992
159	2.597363	96829440	65679360	24313928	24992
160	2.879948	96829440	65679360	26199136	24992
161	3.176654	96829440	65679360	28277944	24992
162	0.646848	96829440	65679360	14578528	24992
163	0.966506	96829440	65679360	15163544	24992
164	1.289885	96829440	65679360	15945032	24992
165	1.590908	96829440	65679360	16923888	24992
166	1.917353	96829440	65679360	18103968	24992
167	2.228406	96829440	65679360	19484376	24992
168	2.522049	96829440	65679360	21062704	24992
169	2.745888	96829440	65679360	22841872	24992
170	2.994092	96829440	65679360	24824448	24992
171	3.302505	96829440	65679360	27010464	24992
172	0.629062	96829440	65679360	29596656	24992
173	1.452362	96829440	65679360	13855032	24992
174	1.269968	96829440	65679360	14675408	24992
175	1.564587	96829440	65679360	15703056	24992
176	1.882362	96829440	65679360	16939472	24992
177	2.188328	96829440	65679360	18385024	24992
178	2.732259	96829440	65679360	20040784	24992
179	2.828172	96829440	65679360	21909720	24992
180	3.190973	96829440	65679360	23990312	24992
181	3.453591	96829440	65679360	26284328	24992
182	0.664697	96829440	65679360	28997784	24992
183	0.991834	96829440	65679360	29641168	24992
184	1.750046	96829440	65679360	14150032	24992
185	1.658672	96829440	65679360	15226416	24992
186	1.963949	96829440	65679360	16521296	24992
187	2.532718	96829440	65679360	18035624	24992
188	2.624912	96829440	65679360	19769536	24992
189	2.999212	96829440	65679360	21724280	24992
190	3.295938	96829440	65679360	23901920	24992
191	3.872091	96829440	65679360	26302592	24992
192	0.694111	96829440	65679360	29142464	24992
193	1.045017	96829440	65679360	29815040	24992
194	1.884476	96829440	65679360	14362336	24992
195	1.839375	96829440	65679360	15487496	24992
196	2.151996	96829440	65679360	16840968	24992
197	2.416949	96829440	65679360	18423120	24992
198	2.794016	96829440	65679360	20237784	24992
199	3.100994	96829440	65679360	22280304	24992
200	3.675833	96829440	65679360	24555344	24992
201	3.810481	96829440	65679360	27065808	24992
202	0.71947	96829440	65679360	30042048	24992
203	1.732209	96829440	65679360	14349312	24992
204	1.466389	96829440	65679360	15286704	24992
205	1.797436	96829440	65679360	16460624	24992
206	2.160091	96829440	65679360	17872504	24992
207	2.535084	96829440	65679360	19531112	24992
208	3.053275	96829440	65679360	21437584	24992
209	3.461586	96829440	65679360	23592536	24992
210	3.866835	96829440	65679360	25998216	24992
211	4.232876	96829440	65679360	28654408	24992
212	0.802522	96829440	65679360	15666656	24992
213	1.207557	96829440	65679360	16422528	24992
214	1.607054	96829440	65679360	17431968	24992
215	1.998066	96829440	65679360	18696000	24992
216	2.60205	96829440	65679360	20215984	24992
217	2.779727	96829440	65679360	21992528	24992
218	3.196909	96829440	65679360	24026552	24992
219	3.615773	96829440	65679360	26325432	24992
220	4.059493	96829440	65679360	28880856	24992
221	5.014304	96829440	65679360	15514752	24992
222	0.829494	96829440	65679360	18852872	24992
223	1.257766	96829440	65679360	19637944	24992
224	1.670359	96829440	65679360	20686296	24992
225	2.07223	96829440	65679360	22005584	24992
226	2.506295	96829440	65679360	23585440	24992
227	2.911511	96829440	65679360	25430240	24992
228	3.443902	96829440	65679360	27542272	24992
229	3.773406	96829440	65679360	29928112	24992
230	4.588627	96829440	65679360	16252768	24992
231	4.646406	96829440	65679360	19184648	24992
232	0.818758	96829440	65679360	22672784	24992
233	1.236922	96829440	65679360	23495784	24992
234	1.863159	96829440	65679360	24594752	24992
235	2.141598	96829440	65679360	25970592	24992
236	2.633694	96829440	65679360	27624912	24992
237	3.047289	96829440	65679360	29558816	24992
238	4.223701	96829440	65679360	15513656	24992
239	3.876919	96829440	65679360	18009096	24992
240	4.473222	96829440	65679360	20787360	24992
241	4.977312	96829440	65679360	23846672	24992
242	0.932289	96829440	65679360	27487064	24992
243	1.355777	96829440	65679360	28339296	24992
244	2.008729	96829440	65679360	29477296	24992
245	2.720215	96829440	65679360	14685936	24992
246	2.708993	96829440	65679360	16398520	24992
247	3.149557	96829440	65679360	18406840	24992
248	3.614112	96829440	65679360	20697400	24992
249	4.023331	96829440	65679360	23278456	24992
250	4.943436	96829440	65679360	26156888	24992
251	4.954122	96829440	65679360	29325376	24992
252	0.923402	96829440	65679360	16876512	24992
253	1.400155	96829440	65679360	17759168	24992
254	2.05915	96829440	65679360	18936008	24992
255	2.313615	96829440	65679360	20409248	24992
256	2.759316	96829440	65679360	22180200	24992
257	3.264009	96829440	65679360	24249600	24992
258	3.8749	96829440	65679360	26622480	24992
259	4.112081	96829440	65679360	29291336	24992
260	5.238073	96829440	65679360	16096144	24992
261	5.176203	96829440	65679360	19369328	24992
262	0.959262	96829440	65679360	23261872	24992
263	1.450238	96829440	65679360	24172568	24992
264	2.131204	96829440	65679360	25391776	24992
265	2.418387	96829440	65679360	26913624	24992
266	2.896044	96829440	65679360	28743152	24992
267	4.003373	96829440	65679360	14832896	24992
268	4.140573	96829440	65679360	17279408	24992
269	4.369881	96829440	65679360	20036048	24992
270	5.050351	96829440	65679360	23109904	24992
271	5.28217	96829440	65679360	26496048	24992
272	0.982066	96829440	65679360	30510992	24992
273	1.844515	96829440	65679360	15101552	24992
274	2.012561	96829440	65679360	16356328	24992
275	2.481879	96829440	65679360	17927008	24992
276	2.898963	96829440	65679360	19815008	24992
277	3.692564	96829440	65679360	22020864	24992
278	4.002943	96829440	65679360	24545496	24992
279	4.49478	96829440	65679360	27396424	24992
280	5.047862	96829440	65679360	30562536	24992
281	5.894432	96829440	65679360	17712280	24992
282	1.02342	96829440	65679360	21851416	24992
283	1.5567	96829440	65679360	22820648	24992
284	2.035531	96829440	65679360	24116936	24992
285	2.570865	96829440	65679360	25736328	24992
286	3.199473	96829440	65679360	27682936	24992
287	3.612331	96829440	65679360	29957024	24992
288	4.811848	96829440	65679360	16334632	24992
289	4.61198	96829440	65679360	19266616	24992
290	5.375015	96829440	65679360	22536120	24992
291	5.866457	96829440	65679360	26143328	24992
292	1.014274	96829440	65679360	30409568	24992
293	1.97186	96829440	65679360	15117072	24992
294	2.046766	96829440	65679360	16449816	24992
295	2.624001	96829440	65679360	18117736	24992
296	3.183542	96829440	65679360	20127800	24992
297	4.50359	96829440	65679360	22469904	24992
298	4.173865	96829440	65679360	25159456	24992
299	4.982921	96829440	65679360	28179088	24992
300	6.443331	96829440	65679360	15671856	24992
301	5.994902	96829440	65679360	19376136	24992
302	1.081186	96829440	65679360	23773672	24992
303	1.63369	96829440	65679360	24801216	24992
304	2.212997	96829440	65679360	26173096	24992
305	2.724803	96829440	65679360	27889984	24992
306	3.243566	96829440	65679360	29953592	24992
307	4.419641	96829440	65679360	16273152	24992
308	4.599739	96829440	65679360	19031608	24992
309	4.866371	96829440	65679360	22138936	24992
310	5.472325	96829440	65679360	25597264	24992
311	6.151798	96829440	65679360	29406384	24992
312	1.097498	96829440	65679360	17950768	24992
313	1.689782	96829440	65679360	19007592	24992
314	2.246329	96829440	65679360	20418360	24992
315	2.810516	96829440	65679360	22183960	24992
316	3.361946	96829440	65679360	24315816	24992
317	4.128348	96829440	65679360	26794576	24992
318	4.52628	96829440	65679360	29644872	24992
319	5.872542	96829440	65679360	16825048	24992
320	5.619374	96829440	65679360	20380888	24992
321	6.164097	96829440	65679360	24299784	24992
322	1.147711	96829440	65679360	28947352	24992
323	1.732192	96829440	65679360	30033568	24992
324	2.515012	96829440	65679360	31483248	24992
325	3.393501	96829440	65679360	17007184	24992
326	3.473159	96829440	65679360	19187664	24992
327	4.395636	96829440	65679360	21734752	24992
328	4.634188	96829440	65679360	24649304	24992
329	5.192207	96829440	65679360	27932224	24992
330	5.818442	96829440	65679360	31586656	24992
331	7.101679	96829440	65679360	19305072	24992
332	1.191062	96829440	65679360	24079680	24992
333	1.779351	96829440	65679360	25195112	24992
334	2.584266	96829440	65679360	26683880	24992
335	2.989683	96829440	65679360	28551056	24992
336	3.544971	96829440	65679360	30790864	24992
337	4.791484	96829440	65679360	17291280	24992
338	4.685039	96829440	65679360	20284160	24992
339	5.346422	96829440	65679360	23662304	24992
340	6.184567	96829440	65679360	27413216	24992
341	6.554795	96829440	65679360	31544280	24992
342	1.220402	96829440	65679360	20217488	24992
343	1.841616	96829440	65679360	21362040	24992
344	2.464993	96829440	65679360	22889688	24992
345	3.043053	96829440	65679360	24801456	24992
346	3.663699	96829440	65679360	27098888	24992
347	4.280324	96829440	65679360	29782296	24992
348	5.845797	96829440	65679360	16921712	24992
349	5.514648	96829440	65679360	20380152	24992
350	6.32479	96829440	65679360	24228408	24992
351	6.741396	96829440	65679360	28473128	24992
352	1.260159	96829440	65679360	17797840	24992
353	1.893402	96829440	65679360	18971672	24992
354	2.697236	96829440	65679360	20538328	24992
355	3.153909	96829440	65679360	22498928	24992
356	3.765644	96829440	65679360	24854832	24992
357	4.548415	96829440	65679360	27606480	24992
358	4.953962	96829440	65679360	30762200	24992
359	6.337747	96829440	65679360	18260440	24992
360	6.174269	96829440	65679360	22225432	24992
361	7.317513	96829440	65679360	26585152	24992
362	1.283405	96829440	65679360	31782344	24992
363	2.696841	96829440	65679360	16826256	24992
364	2.569975	96829440	65679360	18449792	24992
365	3.206872	96829440	65679360	20489640	24992
366	3.860975	96829440	65679360	22941528	24992
367	4.510233	96829440	65679360	25794504	24992
368	5.161603	96829440	65679360	29056552	24992
369	7.021306	96829440	65679360	17031000	24992
370	6.451482	96829440	65679360	21118832	24992
371	7.238788	96829440	65679360	25620592	24992
372	1.309394	96829440	65679360	30984248	24992
373	1.980586	96829440	65679360	32229936	24992
374	3.214558	96829440	65679360	17647920	24992
375	3.3138	96829440	65679360	19729752	24992
376	4.028792	96829440	65679360	22229296	24992
377	4.635357	96829440	65679360	25150688	24992
378	5.589424	96829440	65679360	28490744	24992
379	5.959413	96829440	65679360	32257888	24992
380	7.125149	96829440	65679360	20207592	24992
381	7.296176	96829440	65679360	24816472	24992
382	1.339551	96829440	65679360	30309168	24992
383	2.027333	96829440	65679360	31596712	24992
384	3.608117	96829440	65679360	17203360	24992
385	3.342997	96829440	65679360	19332544	24992
386	4.05912	96829440	65679360	21891984	24992
387	4.751908	96829440	65679360	24886232	24992
388	5.420683	96829440	65679360	28306920	24992
389	6.233642	96829440	65679360	32156504	24992
390	7.442938	96829440	65679360	20271400	24992
391	7.639883	96829440	65679360	24987624	24992
392	1.405527	96829440	65679360	30623440	24992
393	2.068587	96829440	65679360	31937376	24992
394	3.519132	96829440	65679360	17584152	24992
395	3.467194	96829440	65679360	19768960	24992
396	4.346628	96829440	65679360	22385600	24992
397	4.847034	96829440	65679360	25450592	24992
398	6.089986	96829440	65679360	28947088	24992
399	6.255793	96829440	65679360	32887384	24992
400	7.687381	96829440	65679360	21023992	24992
401	7.652701	96829440	65679360	25848800	24992
402	1.571549	96829440	65679360	31594184	24992
403	2.029512	96829440	65679360	32927704	24992
404	3.638735	96829440	65679360	18467032	24992
405	3.561902	96829440	65679360	20693608	24992
406	4.208341	96829440	65679360	23368712	24992
407	5.323509	96829440	65679360	26501104	24992
408	5.6689	96829440	65679360	30075216	24992
409	7.477115	96829440	65679360	18379576	24992
410	7.280564	96829440	65679360	22863168	24992
411	7.814466	96829440	65679360	27796344	24992
412	2.185737	96829440	65679360	17521304	24992
413	2.174351	96829440	65679360	18895608	24992
414	2.980748	96829440	65679360	20714088	24992
415	3.584696	96829440	65679360	22989352	24992
416	4.343979	96829440	65679360	25722896	24992
417	5.089293	96829440	65679360	28935056	24992
418	5.718713	96829440	65679360	32620192	24992
419	7.591128	96829440	65679360	20636176	24992
420	7.258228	96829440	65679360	25286336	24992
421	8.036816	96829440	65679360	30411536	24992
422	1.485857	96829440	65679360	20755000	24992
423	2.225267	96829440	65679360	22196360	24992
424	2.987462	96829440	65679360	24119816	24992
425	3.736073	96829440	65679360	26533408	24992
426	4.446134	96829440	65679360	29426120	24992
427	5.385469	96829440	65679360	32801896	24992
428	6.632631	96829440	65679360	20499560	24992
429	6.890027	96829440	65679360	24863432	24992
430	7.42427	96829440	65679360	29710472	24992
431	9.337403	96829440	65679360	19364064	24992
432	1.514453	96829440	65679360	25725024	24992
433	2.261347	96829440	65679360	27206568	24992
434	3.021505	96829440	65679360	29185832	24992
435	3.889775	96829440	65679360	31641088	24992
436	5.361863	96829440	65679360	18666224	24992
437	5.314655	96829440	65679360	22115016	24992
438	5.916043	96829440	65679360	26056976	24992
439	7.000772	96829440	65679360	30493552	24992
440	8.762313	96829440	65679360	19743032	24992
441	8.378831	96829440	65679360	25186976	24992
442	1.540583	96829440	65679360	31680272	24992
443	2.305387	96829440	65679360	33181288	24992
444	3.921278	96829440	65679360	19049704	24992
445	4.085146	96829440	65679360	21553552	24992
446	4.43699	96829440	65679360	24561416	24992
447	5.581215	96829440	65679360	28074208	24992
448	6.186676	96829440	65679360	32122064	24992
449	7.966697	96829440	65679360	20701688	24992
450	7.956597	96829440	65679360	25734176	24992
451	8.520247	96829440	65679360	31291944	24992
452	1.584236	96829440	65679360	22085304	24992
453	2.358345	96829440	65679360	23635064	24992
454	3.174979	96829440	65679360	25684272	24992
455	3.941381	96829440	65679360	28266352	24992
456	4.723214	96829440	65679360	31344272	24992
457	6.790901	96829440	65679360	19150848	24992
458	6.275583	96829440	65679360	23264648	24992
459	7.117874	96829440	65679360	27894656	24992
460	7.943148	96829440	65679360	33058504	24992
461	9.845648	96829440	65679360	22559912	24992
462	1.779717	96829440	65679360	29296496	24992
463	2.320034	96829440	65679360	30854848	24992
464	3.172683	96829440	65679360	32934336	24992
465	5.007569	96829440	65679360	19557240	24992
466	4.861641	96829440	65679360	22682160	24992
467	5.660012	96829440	65679360	26330896	24992
468	6.646712	96829440	65679360	30504912	24992
469	8.716882	96829440	65679360	19670488	24992
470	8.069701	96829440	65679360	24898016	24992
471	8.837225	96829440	65679360	30773160	24992
472	1.642985	96829440	65679360	21933544	24992
473	2.467992	96829440	65679360	23521064	24992
474	3.291689	96829440	65679360	25656592	24992
475	4.055849	96829440	65679360	28306736	24992
476	4.941841	96829440	65679360	31490168	24992
477	7.210805	96829440	65679360	19498792	24992
478	6.370766	96829440	65679360	23770936	24992
479	7.570652	96829440	65679360	28558344	24992
480	8.413091	96829440	65679360	33883232	24992
481	10.360765	96829440	65679360	23561920	24992
482	1.677129	96829440	65679360	30559544	24992
483	2.501075	96829440	65679360	32176448	24992
484	3.34139	96829440	65679360	34333824	24992
485	5.079212	96829440	65679360	20890984	24992
486	5.137757	96829440	65679360	24132864	24992
487	5.661161	96829440	65679360	27919024	24992
488	6.954405	96829440	65679360	32248688	24992
489	8.661756	96829440	65679360	21335480	24992
490	8.201878	96829440	65679360	26758168	24992
491	9.253248	96829440	65679360	32730152	24992
492	1.715228	96829440	65679360	23881480	24992
493	2.56544	96829440	65679360	25530112	24992
494	3.543255	96829440	65679360	27747184	24992
495	4.228388	96829440	65679360	30494896	24992
496	5.119561	96829440	65679360	33795328	24992
497	7.028029	96829440	65679360	21600600	24992
498	7.011958	96829440	65679360	26008296	24992
499	7.63653	96829440	65679360	30993200	24992
500	10.225744	96829440	65679360	20926784	24992
501	10.266381	96829440	65679360	27026688	24992
502	1.736912	96829440	65679360	34287976	24992
503	3.449592	96829440	65679360	19910256	24992
504	3.664669	96829440	65679360	22145648	24992
505	4.294388	96829440	65679360	24957680	24992
506	5.244783	96829440	65679360	28316608	24992
507	6.080921	96829440	65679360	32250528	24992
508	8.43609	96829440	65679360	21015000	24992
509	7.778486	96829440	65679360	26065640	24992
510	8.904546	96829440	65679360	31686064	24992
511	10.998156	96829440	65679360	22207696	24992
512	1.919634	96829440	65679360	29589344	24992
513	2.628726	96829440	65679360	31304272	24992
514	3.435725	96829440	65679360	33578728	24992
515	5.760521	96829440	65679360	20502272	24992
516	5.219482	96829440	65679360	23919688	24992
517	6.370081	96829440	65679360	27924056	24992
518	7.147206	96829440	65679360	32499664	24992
519	9.353479	96829440	65679360	21920184	24992
520	8.891902	96829440	65679360	27640144	24992
521	10.105502	96829440	65679360	33951176	24992
522	1.803593	96829440	65679360	25418432	24992
523	2.709922	96829440	65679360	27152192	24992
524	3.590155	96829440	65679360	29465512	24992
525	4.482926	96829440	65679360	32359416	24992
526	5.401543	96829440	65679360	35842152	24992
527	7.445365	96829440	65679360	23682440	24992
528	7.41275	96829440	65679360	28333064	24992
529	8.036901	96829440	65679360	33562408	24992
530	10.243931	96829440	65679360	23450376	24992
531	10.001771	96829440	65679360	29859528	24992
532	2.682617	96829440	65679360	21184872	24992
533	2.756139	96829440	65679360	22947976	24992
534	3.768819	96829440	65679360	25300832	24992
535	4.556271	96829440	65679360	28243392	24992
536	5.490657	96829440	65679360	31777632	24992
537	6.504357	96829440	65679360	35904080	24992
538	8.451823	96829440	65679360	24402720	24992
539	8.264524	96829440	65679360	29736568	24992
540	9.15476	96829440	65679360	35662712	24992
541	11.319158	96829440	65679360	25967216	24992
542	1.849199	96829440	65679360	33736976	24992
543	2.796652	96829440	65679360	35529304	24992
544	4.742186	96829440	65679360	21796312	24992
545	4.670261	96829440	65679360	24787728	24992
546	5.768231	96829440	65679360	28380608	24992
547	6.482185	96829440	65679360	32575456	24992
548	9.055064	96829440	65679360	21743496	24992
549	8.430253	96829440	65679360	27146816	24992
550	9.326538	96829440	65679360	33167360	24992
551	11.800845	96829440	65679360	23994416	24992
552	1.884652	96829440	65679360	31875928	24992
553	2.854417	96829440	65679360	33697536	24992
554	3.792218	96829440	65679360	36143312	24992
555	5.974002	96829440	65679360	23003776	24992
556	5.622456	96829440	65679360	26675032	24992
557	6.728575	96829440	65679360	30972944	24992
558	7.464556	96829440	65679360	35871664	24992
559	9.806977	96829440	65679360	25278160	24992
560	9.588801	96829440	65679360	31417336	24992
561	12.124308	96829440	65679360	22788024	24992
562	1.944863	96829440	65679360	30861064	24992
563	2.742252	96829440	65679360	32747288	24992
564	3.852629	96829440	65679360	35257424	24992
565	6.166086	96829440	65679360	22384560	24992
566	5.816933	96829440	65679360	26139736	24992
567	6.917997	96829440	65679360	30522872	24992
568	7.888737	96829440	65679360	35531432	24992
569	10.135457	96829440	65679360	25163384	24992
570	9.528811	96829440	65679360	31440192	24992
571	12.340736	96829440	65679360	23020872	24992
572	1.954113	96829440	65679360	31275928	24992
573	3.356194	96829440	65679360	33176408	24992
574	3.939268	96829440	65679360	35723728	24992
575	6.414112	96829440	65679360	22893368	24992
576	5.853871	96829440	65679360	26704904	24992
577	6.996626	96829440	65679360	31152104	24992
578	7.867813	96829440	65679360	36238168	24992
579	10.080651	96829440	65679360	25864232	24992
580	9.89274	96829440	65679360	32234784	24992
581	12.669621	96829440	65679360	23796056	24992
582	1.99695	96829440	65679360	32176384	24992
583	2.989256	96829440	65679360	34116424	24992
584	3.989774	96829440	65679360	36697864	24992
585	6.095633	96829440	65679360	23803976	24992
586	6.132417	96829440	65679360	27679576	24992
587	6.997669	96829440	65679360	32214424	24992
588	8.227836	96829440	65679360	37393184	24992
589	9.985929	96829440	65679360	26976280	24992
590	10.242315	96829440	65679360	33459856	24992
591	12.783722	96829440	65679360	24923992	24992
592	2.017358	96829440	65679360	33410856	24992
593	3.040744	96829440	65679360	35369832	24992
594	5.45588	96829440	65679360	22094472	24992
595	5.069054	96829440	65679360	25375488	24992
596	6.296712	96829440	65679360	29303520	24992
597	7.088512	96829440	65679360	33908376	24992
598	9.853312	96829440	65679360	23525584	24992
599	9.68534	96829440	65679360	29433392	24992
600	10.17704	96829440	65679360	36004672	24992
601	12.601917	96829440	65679360	27161504	24992
602	2.052311	96829440	65679360	35813824	24992
603	3.082917	96829440	65679360	37802048	24992
604	5.105552	96829440	65679360	24243720	24992
605	4.932854	96829440	65679360	27561608	24992
606	6.172057	96829440	65679360	31546296	24992
607	7.174131	96829440	65679360	36198200	24992
608	9.760057	96829440	65679360	25550776	24992
609	9.410807	96829440	65679360	31542792	24992
610	10.471446	96829440	65679360	38227280	24992
611	12.676879	96829440	65679360	29144328	24992
612	2.080847	96829440	65679360	37901376	24992
613	4.181443	96829440	65679360	23705584	24992
614	4.369639	96829440	65679360	26397088	24992
615	5.214986	96829440	65679360	29787360	24992
616	6.31606	96829440	65679360	33841440	24992
617	8.93484	96829440	65679360	23057160	24992
618	8.612061	96829440	65679360	28461040	24992
619	9.681854	96829440	65679360	34547352	24992
620	11.922388	96829440	65679360	25593584	24992
621	11.548873	96829440	65679360	33034752	24992
622	2.143624	96829440	65679360	26570176	24992
623	3.19152	96829440	65679360	28636728	24992
624	4.264291	96829440	65679360	31367984	24992
625	5.332786	96829440	65679360	34789096	24992
626	8.140382	96829440	65679360	23293760	24992
627	7.674437	96829440	65679360	28085112	24992
628	8.570797	96829440	65679360	33562760	24992
629	11.236874	96829440	65679360	24270800	24992
630	10.854735	96829440	65679360	31132008	24992
631	11.837252	96829440	65679360	38695312	24992
632	2.148167	96829440	65679360	31287760	24992
633	3.357402	96829440	65679360	33383424	24992
634	4.296247	96829440	65679360	36153568	24992
635	6.937515	96829440	65679360	23794568	24992
636	6.503678	96829440	65679360	27955752	24992
637	7.601084	96829440	65679360	32812400	24992
638	8.853669	96829440	65679360	38377624	24992
639	11.087746	96829440	65679360	28433408	24992
640	11.134083	96829440	65679360	35417568	24992
641	14.19873	96829440	65679360	27358256	24992
642	2.19393	96829440	65679360	36484520	24992
643	3.279207	96829440	65679360	38589824	24992
644	5.652085	96829440	65679360	25197376	24992
645	5.465523	96829440	65679360	28730008	24992
646	6.746922	96829440	65679360	32948592	24992
647	7.564724	96829440	65679360	37878200	24992
648	9.97096	96829440	65679360	27441368	24992
649	9.987339	96829440	65679360	33781704	24992
650	12.732277	96829440	65679360	25410288	24992
651	12.198136	96829440	65679360	33171024	24992
652	2.226982	96829440	65679360	27107176	24992
653	3.5206	96829440	65679360	29241752	24992
654	4.455484	96829440	65679360	32094080	24992
655	5.623008	96829440	65679360	35655712	24992
656	8.444646	96829440	65679360	24366080	24992
657	7.859907	96829440	65679360	29365376	24992
658	9.112827	96829440	65679360	35075304	24992
659	11.749538	96829440	65679360	25948432	24992
660	11.42196	96829440	65679360	33096176	24992
661	14.179025	96829440	65679360	25749864	24992
662	2.240893	96829440	65679360	35146856	24992
663	3.380818	96829440	65679360	37319824	24992
664	6.114544	96829440	65679360	24404688	24992
665	5.60087	96829440	65679360	28014936	24992
666	6.72586	96829440	65679360	32350512	24992
667	7.898449	96829440	65679360	37423104	24992
668	10.41737	96829440	65679360	27317856	24992
669	10.513697	96829440	65679360	33842568	24992
670	12.943036	96829440	65679360	25833424	24992
671	12.658534	96829440	65679360	33824752	24992
672	2.304103	96829440	65679360	28052120	24992
673	3.5087	96829440	65679360	30261960	24992
674	4.714939	96829440	65679360	33188608	24992
675	5.662523	96829440	65679360	36854736	24992
676	8.634352	96829440	65679360	25582728	24992
677	8.224258	96829440	65679360	30750768	24992
678	9.370699	96829440	65679360	36630488	24992
679	12.124996	96829440	65679360	27464208	24992
680	11.684724	96829440	65679360	34819104	24992
681	14.409536	96829440	65679360	27517504	24992
682	2.516847	96829440	65679360	37152912	24992
683	3.471482	96829440	65679360	39375200	24992
684	6.057305	96829440	65679360	26204552	24992
685	5.814265	96829440	65679360	29912840	24992
686	6.927123	96829440	65679360	34365736	24992
687	7.916451	96829440	65679360	39574824	24992
688	10.786861	96829440	65679360	29342664	24992
689	10.453195	96829440	65679360	36040560	24992
690	13.597526	96829440	65679360	27851560	24992
691	12.900471	96829440	65679360	36062720	24992
692	2.364566	96829440	65679360	30221704	24992
693	3.53988	96829440	65679360	32488288	24992
694	4.862629	96829440	65679360	35504856	24992
695	5.873285	96829440	65679360	39261424	24992
696	8.697352	96829440	65679360	27715792	24992
697	8.329747	96829440	65679360	32984472	24992
698	9.433938	96829440	65679360	39013984	24992
699	12.279395	96829440	65679360	29680784	24992
700	12.052831	96829440	65679360	37224032	24992
701	14.902391	96829440	65679360	29768272	24992
702	2.374466	96829440	65679360	39681504	24992
703	4.951091	96829440	65679360	25913920	24992
704	4.958439	96829440	65679360	28956528	24992
705	5.929851	96829440	65679360	32762512	24992
706	7.075588	96829440	65679360	37336816	24992
707	10.110246	96829440	65679360	27033720	24992
708	9.777237	96829440	65679360	33148968	24992
709	10.843338	96829440	65679360	40031608	24992
710	13.414288	96829440	65679360	31405184	24992
711	13.201641	96829440	65679360	39812064	24992
712	2.411531	96829440	65679360	33665008	24992
713	3.617053	96829440	65679360	35976312	24992
714	4.910872	96829440	65679360	39057832	24992
715	7.566123	96829440	65679360	26987936	24992
716	7.204709	96829440	65679360	31635432	24992
717	8.521644	96829440	65679360	37074696	24992
718	11.720105	96829440	65679360	27633552	24992
719	11.324533	96829440	65679360	34588272	24992
720	14.403562	96829440	65679360	27127304	24992
721	13.752072	96829440	65679360	35641952	24992
722	2.636008	96829440	65679360	30488456	24992
723	3.690561	96829440	65679360	32840992	24992
724	4.894123	96829440	65679360	35965992	24992
725	6.280473	96829440	65679360	39868864	24992
726	8.969352	96829440	65679360	28513440	24992
727	8.301909	96829440	65679360	34029416	24992
728	9.716119	96829440	65679360	40285640	24992
729	12.517688	96829440	65679360	31162968	24992
730	12.537923	96829440	65679360	38998984	24992
731	15.069775	96829440	65679360	31681840	24992
732	3.893703	96829440	65679360	25979224	24992
733	3.745776	96829440	65679360	28347808	24992
734	4.97027	96829440	65679360	31507328	24992
735	6.213277	96829440	65679360	35470928	24992
736	7.635675	96829440	65679360	40216272	24992
737	10.274833	96829440	65679360	29736880	24992
738	9.842813	96829440	65679360	36071184	24992
739	13.118074	96829440	65679360	27884008	24992
740	12.815678	96829440	65679360	35812216	24992
741	15.70927	96829440	65679360	29270224	24992
742	2.502262	96829440	65679360	39678640	24992
743	5.250436	96829440	65679360	26202160	24992
744	4.888495	96829440	65679360	29400688	24992
745	6.42204	96829440	65679360	33422944	24992
746	7.733062	96829440	65679360	38226624	24992
747	10.595084	96829440	65679360	28238056	24992
748	10.168115	96829440	65679360	34674688	24992
749	11.443535	96829440	65679360	41925040	24992
750	13.922369	96829440	65679360	33560104	24992
751	16.337219	96829440	65679360	27555232	24992
752	2.543182	96829440	65679360	38112440	24992
753	3.793718	96829440	65679360	40539504	24992
754	6.573015	96829440	65679360	27799264	24992
755	6.46786	96829440	65679360	31848472	24992
756	7.588594	96829440	65679360	36710904	24992
757	10.713036	96829440	65679360	27106856	24992
758	10.539855	96829440	65679360	33597200	24992
759	11.536808	96829440	65679360	40934704	24992
760	14.288389	96829440	65679360	32917320	24992
761	14.269617	96829440	65679360	41891464	24992
762	2.572056	96829440	65679360	36271400	24992
763	3.866848	96829440	65679360	38728752	24992
764	5.255576	96829440	65679360	42007584	24992
765	7.74543	96829440	65679360	29934744	24992
766	7.584341	96829440	65679360	34856864	24992
767	9.259291	96829440	65679360	40604968	24992
768	12.147363	96829440	65679360	31189472	24992
769	12.081837	96829440	65679360	38615824	24992
770	15.039864	96829440	65679360	31143944	24992
771	14.202156	96829440	65679360	40209576	24992
772	2.609528	96829440	65679360	35039080	24992
773	3.909625	96829440	65679360	37524776	24992
774	5.227657	96829440	65679360	40855184	24992
775	8.110125	96829440	65679360	29121304	24992
776	8.104686	96829440	65679360	34112448	24992
777	9.348944	96829440	65679360	39933024	24992
778	12.42912	96829440	65679360	30747248	24992
779	11.831457	96829440	65679360	38231056	24992
780	15.380679	96829440	65679360	31012048	24992
781	14.561496	96829440	65679360	40171296	24992
782	2.66346	96829440	65679360	35247672	24992
783	3.951151	96829440	65679360	37778120	24992
784	5.300138	96829440	65679360	41132792	24992
785	8.892358	96829440	65679360	29453560	24992
786	8.064245	96829440	65679360	34492736	24992
787	9.100095	96829440	65679360	40373952	24992
788	12.457927	96829440	65679360	31403120	24992
789	11.980984	96829440	65679360	38977144	24992
790	15.511538	96829440	65679360	31856360	24992
791	14.945885	96829440	65679360	41125120	24992
792	2.668347	96829440	65679360	36189224	24992
793	4.026823	96829440	65679360	38749160	24992
794	5.527989	96829440	65679360	42161728	24992
795	8.430751	96829440	65679360	30395608	24992
796	8.00056	96829440	65679360	35492632	24992
797	9.419688	96829440	65679360	41453824	24992
798	12.58036	96829440	65679360	32278064	24992
799	12.35024	96829440	65679360	39937088	24992
800	16.272968	96829440	65679360	32777016	24992
801	14.638649	96829440	65679360	42150032	24992
802	2.69935	96829440	65679360	37203616	24992
803	4.060965	96829440	65679360	39785192	24992
804	5.532215	96829440	65679360	43224256	24992
805	8.294018	96829440	65679360	31389200	24992
806	8.560868	96829440	65679360	36550240	24992
807	9.51306	96829440	65679360	42571872	24992
808	12.607542	96829440	65679360	33321128	24992
809	12.393098	96829440	65679360	41070592	24992
810	15.3056	96829440	65679360	33865768	24992
811	15.208836	96829440	65679360	43353952	24992
812	2.724101	96829440	65679360	38402632	24992
813	4.097898	96829440	65679360	41005160	24992
814	7.473116	96829440	65679360	28793648	24992
815	6.70043	96829440	65679360	33135440	24992
816	8.335254	96829440	65679360	38362224	24992
817	11.552267	96829440	65679360	29131784	24992
818	10.888022	96829440	65679360	36090016	24992
819	12.601692	96829440	65679360	43929824	24992
820	15.445719	96829440	65679360	36337024	24992
821	17.70624	96829440	65679360	30966392	24992
822	2.765486	96829440	65679360	42485192	24992
823	5.824715	96829440	65679360	29215872	24992
824	5.907304	96829440	65679360	32727192	24992
825	6.992793	96829440	65679360	37117544	24992
826	8.386609	96829440	65679360	42389328	24992
827	11.722134	96829440	65679360	32672880	24992
828	11.141862	96829440	65679360	39709104	24992
829	14.692252	96829440	65679360	32123960	24992
830	14.195844	96829440	65679360	40929600	24992
831	17.448215	96829440	65679360	34882824	24992
832	2.701161	96829440	65679360	30237472	24992
833	4.143619	96829440	65679360	32898624	24992
834	5.583857	96829440	65679360	36458544	24992
835	6.881966	96829440	65679360	40910240	24992
836	10.8465	96829440	65679360	30723232	24992
837	9.953462	96829440	65679360	36958696	24992
838	11.223645	96829440	65679360	44112224	24992
839	14.189243	96829440	65679360	35890792	24992
840	14.555252	96829440	65679360	44855432	24992
841	17.060241	96829440	65679360	38319456	24992
842	3.026219	96829440	65679360	34951120	24992
843	4.266509	96829440	65679360	37690672	24992
844	5.820942	96829440	65679360	41348160	24992
845	9.118605	96829440	65679360	30262232	24992
846	8.656315	96829440	65679360	35756648	24992
847	10.437828	96829440	65679360	42174960	24992
848	13.437012	96829440	65679360	33685752	24992
849	12.878942	96829440	65679360	41958184	24992
850	16.795743	96829440	65679360	35352464	24992
851	17.837296	96829440	65679360	30836896	24992
852	3.015077	96829440	65679360	42958376	24992
853	6.091703	96829440	65679360	29946920	24992
854	5.72859	96829440	65679360	33684800	24992
855	7.19538	96829440	65679360	38363152	24992
856	8.734746	96829440	65679360	44007696	24992
857	12.312032	96829440	65679360	34583200	24992
858	11.451665	96829440	65679360	42081168	24992
859	15.184004	96829440	65679360	34731080	24992
860	14.621529	96829440	65679360	44132912	24992
861	17.461519	96829440	65679360	38340696	24992
862	2.907897	96829440	65679360	35543608	24992
863	4.362194	96829440	65679360	38372792	24992
864	5.771869	96829440	65679360	42153288	24992
865	9.245119	96829440	65679360	31255560	24992
866	8.6602	96829440	65679360	36925384	24992
867	10.214477	96829440	65679360	43589208	24992
868	13.669998	96829440	65679360	35165328	24992
869	13.311758	96829440	65679360	43681416	24992
870	16.291539	96829440	65679360	37088832	24992
871	18.333316	96829440	65679360	32690392	24992
872	2.902575	96829440	65679360	45165104	24992
873	5.824702	96829440	65679360	31883544	24992
874	6.049923	96829440	65679360	35698072	24992
875	7.353501	96829440	65679360	40466648	24992
876	11.141043	96829440	65679360	30915128	24992
877	10.376967	96829440	65679360	37617496	24992
878	12.093929	96829440	65679360	45265744	24992
879	14.475626	96829440	65679360	37607304	24992
880	17.430157	96829440	65679360	32233520	24992
881	16.178555	96829440	65679360	42770296	24992
882	2.955489	96829440	65679360	39545824	24992
883	4.465136	96829440	65679360	42453760	24992
884	7.965123	96829440	65679360	30700824	24992
885	7.573507	96829440	65679360	35517728	24992
886	9.032375	96829440	65679360	41313656	24992
887	12.552921	96829440	65679360	32585912	24992
888	12.261967	96829440	65679360	40321880	24992
889	15.903049	96829440	65679360	33746920	24992
890	14.868942	96829440	65679360	43425368	24992
891	18.768943	96829440	65679360	38141032	24992
892	3.021654	96829440	65679360	35929344	24992
893	4.478445	96829440	65679360	38846272	24992
894	6.032878	96829440	65679360	42746184	24992
895	9.593118	96829440	66203648	32023432	24992
896	9.063337	96829440	66203648	37875592	24992
897	10.636729	96829440	66203648	44698192	24992
898	14.055704	96829440	66203648	36448488	24992
899	13.550892	96829440	66203648	45241456	24992
900	17.082366	96829440	66203648	38886328	24992
901	19.032726	96829440	66203648	34590016	24992
902	4.786264	96829440	66203648	31497440	24992
903	4.561963	96829440	66203648	34443464	24992
904	6.150368	96829440	66203648	38401008	24992
905	7.532588	96829440	66203648	43315344	24992
906	11.368604	97099776	66203648	33613256	24992
907	10.874413	97099776	66203648	40530712	24992
908	14.577697	97099776	66203648	33180288	24992
909	13.638202	97099776	66203648	42058160	24992
910	17.683422	97099776	66203648	36327040	24992
911	19.526771	97099776	66203648	32646264	24992
912	3.082312	97099776	66203648	45604744	24992
913	6.363371	97099776	66203648	32644456	24992
914	6.0074	97099776	66203648	36628392	24992
915	7.603153	97099776	66203648	41591472	24992
916	11.62989	97370112	66727936	32328584	24992
917	10.894964	97370112	66727936	39300656	24992
918	12.74906	97370112	66727936	47261936	24992
919	15.785894	97370112	66727936	39789432	24992
920	17.565698	97370112	66727936	34702944	24992
921	17.085084	97370112	66727936	45673560	24992
922	3.037622	97640448	66727936	42701120	24992
923	4.630468	97640448	66727936	45750096	24992
924	8.000016	97640448	66727936	33835440	24992
925	7.836232	97640448	66727936	38850608	24992
926	9.346302	97640448	66727936	44881344	24992
927	12.894304	97640448	67252224	35996024	24992
928	12.478024	97640448	67252224	44027112	24992
929	16.348663	97910784	67252224	37329632	24992
930	15.815754	97910784	67252224	47403568	24992
931	18.640431	97910784	67252224	42105040	24992
932	3.000546	97910784	67252224	39963136	24992
933	4.542109	97910784	67252224	43005216	24992
934	6.54478	97910784	67252224	47057712	24992
935	9.769853	97910784	67252224	36012256	24992
936	9.490479	97910784	67252224	42097272	24992
937	13.432938	98181120	67252224	33832088	24992
938	12.554928	98181120	67252224	41947792	24992
939	17.182686	98181120	67252224	35696920	24992
940	15.806322	98181120	67252224	45879616	24992
941	19.132578	98181120	67252224	40953352	24992
942	3.097807	98181120	67252224	39086304	24992
943	5.024148	98181120	67252224	42149552	24992
944	6.169512	98181120	67252224	46240008	24992
945	10.058884	98451456	67776512	35405304	24992
946	9.688353	98451456	67776512	41546976	24992
947	13.602003	98451456	67776512	33531160	24992
948	12.646683	98451456	67776512	41717648	24992
949	16.667663	98451456	67776512	35744808	24992
950	15.939391	98451456	67776512	46207336	24992
951	19.482423	98451456	67776512	41597056	24992
952	3.092868	98451456	67776512	39896752	24992
953	4.613466	98451456	67776512	42989120	24992
954	6.265811	98451456	67776512	47113848	24992
955	10.054543	98721792	67776512	36269648	24992
956	9.722674	98721792	67776512	42462688	24992
957	13.174998	98721792	67776512	34342456	24992
958	12.96966	98721792	67776512	42608168	24992
959	16.859875	98721792	67776512	36557776	24992
960	16.148939	98721792	67776512	47052512	24992
961	19.684572	98721792	68300800	42442200	24992
962	3.085753	98721792	68300800	40689784	24992
963	4.894931	98721792	68300800	43811392	24992
964	6.769351	98721792	68300800	47975096	24992
965	10.089763	98992128	68300800	37072584	24992
966	9.703087	98992128	68300800	43324064	24992
967	14.019161	98992128	68300800	35274440	24992
968	12.929621	98992128	68300800	43616680	24992
969	16.933801	98992128	68300800	37518912	24992
970	16.511355	98992128	68300800	47970928	24992
971	19.619017	98992128	68300800	43190400	24992
972	3.427938	99262464	68300800	41582360	24992
973	4.904151	99262464	68300800	44733328	24992
974	6.47119	99262464	68300800	48935888	24992
975	9.8991	99262464	68300800	37941544	24992
976	9.921418	99262464	68300800	44251432	24992
977	13.759963	99262464	68825088	36076936	24992
978	13.251958	99262464	68825088	44497464	24992
979	17.271339	99532800	69349376	38470104	24992
980	16.301995	99532800	69349376	49006120	24992
981	19.985339	99532800	69349376	44237712	24992
982	3.293367	99532800	69349376	42529352	24992
983	4.733901	99532800	69349376	45755000	24992
984	9.069203	99532800	69349376	34448368	24992
985	8.165204	99803136	69349376	39791592	24992
986	10.096028	99803136	69349376	46160160	24992
987	13.484361	99803136	69349376	37791128	24992
988	13.587926	99803136	69349376	46289624	24992
989	16.839249	99803136	69349376	39999360	24992
990	19.108252	99803136	69349376	35944800	24992
991	18.356533	99803136	69349376	47688208	24992
992	3.236432	99803136	69349376	45565008	24992
993	4.968008	99803136	69349376	48774576	24992
994	8.325757	100073472	69873664	37003216	24992
995	8.205933	100073472	69873664	42356568	24992
996	9.954268	100073472	69873664	48783592	24992
997	13.351411	100073472	69873664	40032328	24992
998	13.494075	100073472	69873664	48608968	24992
999	16.972786	100073472	69873664	42057224	24992
1000	19.553406	100073472	69873664	37867992	24992
