x	Duration	RSS	HeapTotal	HeapUsed	External
0	NA	104386560	73543680	11738632	24992
1	0.291962	104386560	73543680	11787168	24992
2	0.224077	104386560	73543680	11858872	24992
3	0.254773	104386560	73543680	11955784	24992
4	0.333258	104386560	73543680	12079088	24992
5	0.367399	104386560	73543680	12230232	24992
6	0.425446	104386560	73543680	12409992	24992
7	0.483678	104386560	73543680	12619192	24992
8	0.552964	104386560	73543680	12858832	24992
9	0.618629	104386560	73543680	13130776	24992
10	1.056884	104386560	73543680	13435040	24992
11	0.779547	104386560	73543680	13772480	24992
12	0.852025	104386560	73543680	14144712	24992
13	0.933528	104386560	73543680	14556296	24992
14	1.522315	104386560	73543680	15000712	24992
15	2.00953	104386560	73543680	15487304	24992
16	1.099929	104386560	73543680	16006624	24992
17	1.417482	104386560	73543680	16567016	24992
18	1.020189	104386560	73543680	17167976	24992
19	1.104696	104386560	73543680	17819688	24992
20	1.085668	104386560	73543680	18504200	24992
21	1.145125	104386560	73543680	19231712	24992
22	0.163537	104386560	73543680	19971000	24992
23	0.248399	104386560	73543680	20104520	24992
24	0.319947	104386560	73543680	20284200	24992
25	0.719486	104386560	73543680	20511280	24992
26	0.516106	104386560	73543680	20787648	24992
27	0.579822	104386560	73543680	21113608	24992
28	0.699078	104386560	73543680	21492928	24992
29	0.73673	104386560	73543680	21920944	24992
30	0.878189	104386560	73543680	22403120	24992
31	1.080113	104386560	73543680	22937992	24992
32	0.931812	104386560	73543680	23527104	24992
33	1.020781	104386560	73543680	24171360	24992
34	1.117418	104386560	73543680	24871904	24992
35	1.193564	104386560	73543680	25629400	24992
36	1.291803	104386560	73543680	26444920	24992
37	1.378457	104386560	73543680	27319232	24992
38	1.471124	104386560	73543680	28255328	24992
39	2.713912	104386560	73543680	13185280	24992
40	1.661955	104386560	73543680	14244176	24992
41	1.76063	104386560	73543680	15366448	24992
42	0.226406	104386560	73543680	16547088	24992
43	0.337767	104386560	73543680	16739752	24992
44	0.436222	104386560	73543680	16997792	24992
45	0.547114	104386560	73543680	17324096	24992
46	0.65663	104386560	73543680	17716240	24992
47	0.752618	104386560	73543680	18176624	24992
48	0.863817	104386560	73543680	18706144	24992
49	1.013157	104386560	73543680	19305664	24992
50	1.299646	104386560	73543680	19977128	24992
51	1.300732	104386560	73543680	20723360	24992
52	1.323335	104386560	73543680	21543768	24992
53	1.736624	104386560	73543680	22442960	24992
54	1.531199	104386560	73543680	23415960	24992
55	1.655931	104386560	73543680	24466688	24992
56	1.7856	104386560	73543680	25595984	24992
57	1.89137	104386560	73543680	26804960	24992
58	2.335789	104386560	73543680	28097024	24992
59	3.56026	104386560	73543680	13805056	24992
60	2.443658	104386560	73543680	15260544	24992
61	2.560181	104386560	73543680	16801400	24992
62	0.290816	104386560	73543680	18442848	24992
63	0.431818	104386560	73543680	18697688	24992
64	0.566442	104386560	73543680	19038664	24992
65	0.691897	104386560	73543680	19466904	24992
66	0.894152	104386560	73543680	19983240	24992
67	0.966575	104386560	73543680	20588424	24992
68	1.115956	104386560	73543680	21283424	24992
69	1.425157	104386560	73543680	22070504	24992
70	1.406595	104386560	73543680	22950056	24992
71	1.535544	104386560	73543680	23922400	24992
72	2.059111	104386560	73543680	24988656	24992
73	1.828734	104386560	73543680	26147304	24992
74	2.014647	104386560	73543680	27401296	24992
75	2.108477	104386560	73543680	28753008	24992
76	3.779604	104386560	73543680	14394872	24992
77	2.664518	104386560	73543680	15940384	24992
78	2.599351	104386560	73543680	17586880	24992
79	2.771086	104386560	73543680	19333288	24992
80	2.881521	104386560	73543680	21181080	24992
81	3.493627	104386560	73543680	23131848	24992
82	0.347443	104386560	73543680	25225672	24992
83	0.520102	104386560	73543680	25536312	24992
84	0.686149	104386560	73543680	25952656	24992
85	0.851394	104386560	73543680	26473384	24992
86	1.02185	104386560	73543680	27101208	24992
87	1.17982	104386560	73543680	27836288	24992
88	1.349163	104386560	73543680	28679800	24992
89	1.710159	104386560	73543680	29632448	24992
90	2.814182	104386560	73543680	14714720	24992
91	1.88251	104386560	73543680	15890064	24992
92	2.053261	104386560	73543680	17176872	24992
93	2.226529	104386560	73543680	18576656	24992
94	2.416433	104386560	73543680	20090392	24992
95	2.578352	104386560	73543680	21719496	24992
96	2.780262	104386560	73543680	23463752	24992
97	3.005954	104386560	73543680	25325216	24992
98	3.16806	104386560	73543680	27308336	24992
99	3.426387	104386560	73543680	29407144	24992
100	4.719957	104386560	73543680	15667024	24992
101	3.734962	104386560	73543680	18006072	24992
102	0.409776	104386560	73543680	20531544	24992
103	0.610781	104386560	73543680	20898024	24992
104	0.809323	104386560	73543680	21391888	24992
105	1.001706	104386560	73543680	22013936	24992
106	1.26165	104386560	73543680	22765736	24992
107	1.406492	104386560	73543680	23647512	24992
108	1.59806	104386560	73543680	24660256	24992
109	2.020905	104386560	73543680	25805040	24992
110	2.008096	104386560	73543680	27087136	24992
111	2.216352	104386560	73543680	28499656	24992
112	2.430709	104386560	73543680	30049368	24992
113	4.020002	104386560	73543680	15699632	24992
114	2.844898	104386560	73543680	17519608	24992
115	3.06756	104386560	73543680	19476464	24992
116	3.290132	104386560	73543680	21575192	24992
117	3.67647	104386560	73543680	23809720	24992
118	3.751053	104386560	73543680	26191168	24992
119	3.934782	104386560	73543680	28709616	24992
120	5.75022	104386560	73543680	15486856	24992
121	4.700635	104386560	73543680	18290272	24992
122	0.49908	104386560	73543680	21326816	24992
123	0.763106	104386560	73543680	21761712	24992
124	0.995777	104386560	73543680	22342400	24992
125	1.250124	104386560	73543680	23069816	24992
126	1.493813	104386560	73543680	23945560	24992
127	1.741361	104386560	73543680	24970000	24992
128	1.99959	104386560	73543680	26143816	24992
129	2.584643	104386560	73543680	27469600	24992
130	2.361756	104386560	73543680	28946320	24992
131	2.565868	104386560	73543680	30575328	24992
132	4.384961	104386560	73543680	16240648	24992
133	3.389693	104386560	73543680	18177136	24992
134	3.292177	104386560	73543680	20268784	24992
135	3.581112	104386560	73543680	22518272	24992
136	3.756946	104386560	73543680	24922872	24992
137	4.016018	104386560	73543680	27485360	24992
138	4.501019	104386560	73543680	30209816	24992
139	6.019754	104386560	73543680	17024912	24992
140	4.797621	104386560	73543680	20067976	24992
141	5.22575	104386560	73543680	23272520	24992
142	0.56413	104386560	73543680	26749776	24992
143	0.84879	104386560	73543680	27240360	24992
144	1.135194	104386560	73543680	27895312	24992
145	1.403923	104386560	73543680	28717560	24992
146	1.691757	104386560	73543680	29704512	24992
147	2.030771	104386560	73543680	30862120	24992
148	3.378055	104386560	73543680	16063304	24992
149	2.378311	104386560	73543680	17556896	24992
150	2.633753	104386560	73543680	19218928	24992
151	3.087392	104386560	73543680	21051792	24992
152	3.218677	104386560	73543680	23056376	24992
153	3.447495	104386560	73543680	25234576	24992
154	3.873603	104386560	73543680	27585392	24992
155	4.018041	104386560	73543680	30110696	24992
156	5.639873	104386560	73543680	16795264	24992
157	4.557424	104386560	73543680	19672488	24992
158	4.816468	104386560	73543680	22730080	24992
159	5.128246	104386560	73543680	25964632	24992
160	5.378707	104386560	73543680	29380432	24992
161	7.171571	104386560	73543680	17055544	24992
162	0.595283	104386560	73543680	20958680	24992
163	0.905758	104386560	73543680	21505192	24992
164	1.17963	104386560	73543680	22234584	24992
165	1.890449	104386560	73543680	23147768	24992
166	2.123151	104386560	73543680	24248928	24992
167	2.110394	104386560	73543680	25532824	24992
168	2.339104	104386560	73543680	27003288	24992
169	2.640414	104386560	73543680	28661176	24992
170	3.103177	104386560	73543680	30508520	24992
171	4.642675	104386560	73543680	16518128	24992
172	3.545529	104386560	73543680	18745000	24992
173	3.928304	104386560	73543680	21163104	24992
174	4.204758	104386560	73543680	23773352	24992
175	4.449521	104386560	73543680	26576624	24992
176	4.934699	104386560	73543680	29573688	24992
177	6.64409	104386560	73543680	16879896	24992
178	5.730613	104386560	73543680	20269736	24992
179	5.995929	104386560	73543680	23856272	24992
180	6.198955	104386560	73543680	27640752	24992
181	6.330809	104386560	73543680	31623912	24992
182	0.663321	104386560	73543680	19790016	24992
183	0.979613	104386560	73543680	20392280	24992
184	1.305156	104386560	73543680	21195984	24992
185	1.613569	104386560	73543680	22201904	24992
186	1.993963	104386560	73543680	23412600	24992
187	2.25705	104386560	73543680	24826432	24992
188	2.738969	104386560	73543680	26445536	24992
189	2.944414	104386560	73543680	28270576	24992
190	3.250983	104386560	73543680	30303544	24992
191	5.436949	104386560	73543680	16604000	24992
192	3.943719	104386560	73543680	19055712	24992
193	4.437089	104386560	73543680	21715168	24992
194	4.585665	104386560	73543680	24585040	24992
195	4.912836	104386560	73543680	27671752	24992
196	5.465739	104386560	73543680	30969808	24992
197	7.282166	104386560	73543680	18425856	24992
198	6.166243	104386560	73543680	22153664	24992
199	6.474795	104386560	73543680	26097520	24992
200	6.872702	104386560	73543680	30254232	24992
201	8.861753	104386560	73543680	18692984	24992
202	0.931408	104386560	73543680	23471472	24992
203	1.076491	104386560	73543680	24131520	24992
204	1.415775	104386560	73543680	25009640	24992
205	1.781481	104386560	73543680	26108592	24992
206	2.119038	104386560	73543680	27436224	24992
207	2.502338	104386560	73543680	28980200	24992
208	3.027948	104386560	73543680	30747888	24992
209	3.186651	104386560	73543680	32748272	24992
210	5.037605	104386560	73543680	18760712	24992
211	4.116499	104386560	73543680	21230608	24992
212	4.275584	104386560	73543680	23936328	24992
213	4.834012	104386560	73543680	26885912	24992
214	5.194254	104386560	73543680	30065344	24992
215	7.016414	104386560	73543680	17656232	24992
216	5.829592	104386560	73543680	21314880	24992
217	6.134832	104386560	73543680	25220648	24992
218	6.567087	104386560	73543680	29360952	24992
219	8.886081	104386560	73543680	18000208	24992
220	7.482562	104386560	73543680	22631280	24992
221	7.838764	104386560	73543680	27504344	24992
222	0.777099	104386560	73543680	32830264	24992
223	2.679984	104386560	73543680	17391792	24992
224	1.555766	104386560	73543680	18377320	24992
225	1.938675	104386560	73543680	19610424	24992
226	2.31675	104386560	73543680	21093032	24992
227	2.705789	104386560	73543680	22825104	24992
228	3.086462	104386560	73543680	24807224	24992
229	3.555031	104386560	73543680	27043696	24992
230	4.125437	104386560	73543680	29530520	24992
231	4.305565	104386560	73543680	32270568	24992
232	6.267407	104386560	73543680	19166576	24992
233	5.396203	104386560	73543680	22415800	24992
234	5.451743	104386560	73543680	25920968	24992
235	6.048722	104386560	73543680	29690264	24992
236	6.291095	104386560	73543680	33719776	24992
237	8.333664	104386560	73543680	21691544	24992
238	7.105631	104386560	73543680	26238680	24992
239	7.46933	104386560	73543680	31046024	24992
240	9.759797	104386560	73543680	20171368	24992
241	8.480179	104386560	73543680	25500480	24992
242	0.841643	104386560	73543680	31320320	24992
243	1.453251	104386560	73543680	32116200	24992
244	1.682507	104386560	73543680	33176072	24992
245	3.701692	104386560	73543680	18331600	24992
246	2.661581	104386560	73543680	19932976	24992
247	3.189527	104386560	73543680	21794800	24992
248	3.382054	104386560	73543680	23925536	24992
249	3.757541	104386560	73543680	26334848	24992
250	4.37063	104386560	73543680	29007296	24992
251	4.608209	104386560	73543680	31951496	24992
252	6.954763	104386560	73543680	19168048	24992
253	5.4736	104386560	73543680	22666136	24992
254	5.887555	104386560	73543680	26431376	24992
255	6.33078	104386560	73543680	30471800	24992
256	8.767175	104386560	73543680	19025208	24992
257	7.203914	104386560	73543680	23619672	24992
258	7.830516	104386560	73543680	28498544	24992
259	8.251827	104386560	73543680	33668352	24992
260	10.133361	104386560	73543680	22868568	24992
261	8.95637	104386560	73543680	28584712	24992
262	2.510257	104386560	73543680	18575576	24992
263	1.610824	104386560	73543680	19429232	24992
264	1.856846	104386560	73543680	20563504	24992
265	2.243934	104386560	73543680	21983848	24992
266	2.870363	104386560	73543680	23689080	24992
267	3.132441	104386560	73543680	25686232	24992
268	3.590842	104386560	73543680	27970960	24992
269	4.042068	104386560	73543680	30538584	24992
270	4.55834	104386560	73543680	33400272	24992
271	6.991209	104386560	73543680	20407800	24992
272	5.785289	104386560	73543680	23847512	24992
273	6.021408	104386560	73543680	27587984	24992
274	6.342573	104386560	73543680	31612928	24992
275	8.628093	104386560	73543680	20057816	24992
276	7.463621	104386560	73543680	24672104	24992
277	7.889989	104386560	73543680	29584792	24992
278	8.207104	104386560	73543680	34799200	24992
279	10.520459	104386560	73543680	23967024	24992
280	9.409041	104386560	73543680	29778344	24992
281	11.618679	104386560	73543680	20268184	24992
282	0.966869	104386560	73543680	26946712	24992
283	1.452053	104386560	73543680	27853048	24992
284	1.912367	104386560	73543680	29061776	24992
285	2.39492	104386560	73543680	30573696	24992
286	3.20085	104386560	73543680	32391024	24992
287	3.358039	104386560	73543680	34513672	24992
288	5.533213	104386560	73543680	20723648	24992
289	4.516723	104386560	73543680	23459328	24992
290	4.804489	104386560	73543680	26503088	24992
291	5.387646	104386560	73543680	29857664	24992
292	5.830391	104386560	73543680	33525584	24992
293	8.313969	104386560	73543680	21448184	24992
294	6.765317	104386560	73543680	25732896	24992
295	7.434366	104386560	73543680	30331840	24992
296	7.801402	104386560	73543680	35246200	24992
297	10.165788	104386560	73543680	24137504	24992
298	8.886965	104386560	73543680	29680552	24992
299	11.432014	104386560	73543680	20001344	24992
300	10.022995	104386560	73543680	26180232	24992
301	10.452817	104386560	73543680	32677560	24992
302	1.059127	104386560	73543680	23842856	24992
303	1.528288	104386560	73543680	24805040	24992
304	2.035217	104386560	73543680	26088144	24992
305	2.76396	104386560	73543680	27693024	24992
306	3.054749	104386560	73543680	29621312	24992
307	3.580563	104386560	73543680	31874208	24992
308	4.093745	104386560	73543680	34451048	24992
309	6.739596	104386560	73543680	21234384	24992
310	6.493436	104386560	73543680	24464592	24992
311	5.738597	104386560	73543680	28034248	24992
312	6.396039	104386560	73543680	31922432	24992
313	8.69351	104386560	73543680	20359792	24992
314	7.466529	104386560	73543680	24905896	24992
315	7.923096	104386560	73543680	29781504	24992
316	8.251435	104386560	73543680	34988992	24992
317	10.832922	104386560	73543680	24310472	24992
318	9.486201	104386560	73543680	30187712	24992
319	12.103513	104386560	73543680	20869544	24992
320	10.970668	104386560	73543680	27418840	24992
321	11.347005	104386560	73543680	34318440	24992
322	1.095006	104386560	73543680	25730056	24992
323	1.634348	104386560	73543680	26748088	24992
324	2.168137	104386560	73543680	28105672	24992
325	2.703752	104386560	73543680	29803544	24992
326	3.242073	104386560	73543680	31843224	24992
327	3.801452	104386560	73543680	34225136	24992
328	6.499446	104386560	73543680	20923136	24992
329	4.89818	104386560	73543680	23993288	24992
330	5.616896	104386560	73543680	27415096	24992
331	6.004616	104386560	73543680	31176120	24992
332	6.599213	104386560	73543680	35297480	24992
333	8.969132	104386560	73543680	23549336	24992
334	7.90815	104386560	73543680	28358736	24992
335	8.375368	104386560	73543680	33512856	24992
336	11.012106	104386560	73543680	23091768	24992
337	9.332725	104386560	73543680	28959384	24992
338	9.960213	104386560	73543680	35170560	24992
339	13.177001	104386560	73543680	25584624	24992
340	11.222099	104386560	73543680	32507944	24992
341	13.922813	104386560	73543680	24016216	24992
342	1.165909	104386560	73543680	32007704	24992
343	1.760702	104386560	73543680	33083968	24992
344	2.283026	104386560	73543680	34515952	24992
345	2.860698	104386560	73543680	36306696	24992
346	5.482453	104386560	73543680	22180856	24992
347	4.011925	104386560	73543680	24692656	24992
348	4.562356	104386560	73543680	27566416	24992
349	5.163555	104386560	73543680	30803976	24992
350	5.714229	104386560	73543680	34409312	24992
351	8.631472	104386560	73543680	22411896	24992
352	7.224747	104386560	73543680	26742448	24992
353	7.477889	104386560	73543680	31450672	24992
354	8.251494	104386560	73543680	36515104	24992
355	10.572624	104386560	73543680	25649464	24992
356	9.63221	104386560	73543680	31452320	24992
357	12.304054	104386560	73543680	22076936	24992
358	10.997348	104386560	73543680	28621344	24992
359	11.647466	104386560	73543680	35537408	24992
360	13.728645	104386560	73543680	26674048	24992
361	12.571967	104386560	73543680	34349256	24992
362	1.294574	104386560	73543680	26824776	24992
363	1.906493	104386560	73543680	27954608	24992
364	2.551705	104386560	73543680	29460936	24992
365	3.175103	104386560	73543680	31350784	24992
366	3.775565	104386560	73543680	33613328	24992
367	4.396145	104386560	73543680	36255176	24992
368	7.756092	104386560	73543680	23117616	24992
369	5.664796	104386560	73543680	26520984	24992
370	6.031782	104386560	73543680	30315272	24992
371	7.03433	104386560	73543680	34498184	24992
372	9.6286	104386560	73543680	23118752	24992
373	7.893997	104386560	73543680	28067640	24992
374	9.125963	104386560	73543680	33393232	24992
375	11.503362	104386560	73543680	23333672	24992
376	9.800577	104386560	73543680	29434408	24992
377	10.71735	104386560	73543680	35922272	24992
378	13.308324	104386560	73543680	26656248	24992
379	11.605246	104386560	73543680	33932712	24992
380	14.684542	104386560	73543680	25778752	24992
381	13.056707	104386560	73543680	33831480	24992
382	1.49569	104386560	73543680	26859544	24992
383	1.934998	104386560	73543680	28045144	24992
384	2.532676	104386560	73543680	29625904	24992
385	3.151481	104386560	73543680	31609168	24992
386	3.833039	104386560	73543680	33983408	24992
387	4.713294	104386560	73543680	36755328	24992
388	7.197069	104386560	73543680	23768048	24992
389	5.828343	104386560	73543680	27339320	24992
390	6.575348	104386560	73543680	31311416	24992
391	7.080255	104386560	73543680	35685016	24992
392	10.007916	104386560	73543680	24437896	24992
393	8.34753	104386560	73543680	29620616	24992
394	8.922388	104386560	73543680	35209584	24992
395	12.093079	104386560	73543680	25227048	24992
396	10.481371	104386560	73543680	31626040	24992
397	13.653947	104386560	73543680	23030296	24992
398	12.171623	104386560	73543680	30244120	24992
399	12.580718	104386560	73543680	37865288	24992
400	14.948776	104386560	73543680	29531424	24992
401	13.777463	104386560	73543680	37973800	24992
402	1.411093	104386560	73543680	30892896	24992
403	2.270369	104386560	73543680	32134392	24992
404	2.651805	104386560	73543680	33789488	24992
405	3.305025	104386560	73543680	35859088	24992
406	3.996463	104386560	73543680	38344720	24992
407	6.761742	104386560	73543680	24899696	24992
408	5.34415	104386560	73543680	28219040	24992
409	6.236343	104386560	73543680	31956664	24992
410	6.841115	104386560	73543680	36114280	24992
411	9.636846	104386560	73543680	24705952	24992
412	8.226773	104386560	73543680	29716264	24992
413	8.907938	104386560	73543680	35136984	24992
414	12.067909	104386560	73543680	25102008	24992
415	10.31519	104386560	73543680	31374200	24992
416	11.140245	104386560	73543680	38076328	24992
417	13.820053	104386560	73543680	28886984	24992
418	12.438981	104386560	73543680	36434072	24992
419	15.439224	104386560	73543680	28373832	24992
420	13.849363	104386560	73543680	36814712	24992
421	16.898377	104386560	73543680	29570040	24992
422	3.621809	104386560	73543680	23074960	24992
423	2.336601	104386560	73543680	24421648	24992
424	2.972839	104386560	73543680	26217008	24992
425	3.473509	104386560	73543680	28461736	24992
426	4.164267	104386560	73543680	31157544	24992
427	5.041347	104386560	73543680	34309360	24992
428	5.556829	104386560	73543680	37915552	24992
429	8.618129	104386560	73543680	25756560	24992
430	7.008628	104386560	73543680	30273000	24992
431	8.096556	104386560	73543680	35249664	24992
432	11.236875	104386560	73543680	24853472	24992
433	9.39927	104386560	73543680	30739088	24992
434	10.045343	104386560	73543680	37087088	24992
435	13.192256	104386560	73543680	27759032	24992
436	12.055882	104386560	73543680	35019912	24992
437	14.679097	104386560	73543680	26936448	24992
438	13.148872	104386560	73543680	35126792	24992
439	16.198668	104386560	73543680	27953064	24992
440	14.356546	104386560	73543680	37067368	24992
441	17.602262	104386560	73543680	30570432	24992
442	1.537462	104386560	73543680	25986992	24992
443	2.285748	104386560	73543680	27396216	24992
444	3.064594	104386560	73543680	29265992	24992
445	3.822533	104386560	73543680	31603704	24992
446	4.354926	104386560	73543680	34420928	24992
447	5.10207	104386560	73543680	37702736	24992
448	8.157685	104386560	73543680	25371736	24992
449	6.602552	104386560	73543680	29591584	24992
450	7.249307	104386560	73543680	34289672	24992
451	8.360723	104386560	73543680	39460232	24992
452	11.62362	104386560	73543680	28720448	24992
453	9.690661	104386560	73543680	34837792	24992
454	13.152506	104386560	73543680	25712736	24992
455	11.625628	104386560	73543680	32784256	24992
456	14.706914	104386560	73543680	24954056	24992
457	12.703594	104386560	73543680	33003672	24992
458	16.426514	104386560	73543680	26111936	24992
459	15.346644	104386560	73543680	35121880	24992
460	17.593582	104386560	73543680	28871640	24992
461	15.967807	104386560	73543680	38844040	24992
462	1.618654	104386560	73543680	33542192	24992
463	2.383059	104386560	73543680	35000624	24992
464	3.191998	104386560	73543680	36944712	24992
465	4.053627	104386560	73543680	39388296	24992
466	6.941431	104386560	73543680	26064488	24992
467	5.610918	104386560	73543680	29477456	24992
468	6.504117	104386560	73543680	33377048	24992
469	6.860872	104386560	73543680	37772656	24992
470	10.085476	104386560	73543680	26605472	24992
471	8.427494	104386560	73543680	31994256	24992
472	9.328277	104386560	73543680	37864504	24992
473	12.605683	104386560	73543680	28186416	24992
474	10.835957	104386560	73543680	35040096	24992
475	14.531253	104386560	73543680	26773312	24992
476	12.93166	104386560	73543680	34629680	24992
477	16.136794	104386560	73543680	27417704	24992
478	14.110898	104386560	73543680	36266720	24992
479	17.731129	104386560	73543680	29789456	24992
480	16.499037	104386560	73543680	39655464	24992
481	18.9989	104386560	73543680	33725872	24992
482	1.680553	104386560	73543680	29668880	24992
483	2.479953	104386560	73543680	31187840	24992
484	3.307088	104386560	73543680	33223904	24992
485	4.040585	104386560	73543680	35777064	24992
486	4.818879	104386560	73543680	38816008	24992
487	8.405345	104386560	73543680	26287512	24992
488	6.362276	104386560	73543680	30332744	24992
489	7.305237	104386560	73543680	34888952	24992
490	7.874714	104386560	73543680	39974248	24992
491	11.168493	104386560	73543680	29251656	24992
492	9.699195	104386560	73543680	35344176	24992
493	13.242124	104386560	73543680	26338256	24992
494	11.122475	104386560	73543680	33460776	24992
495	15.260246	104386560	73543680	25796288	24992
496	13.270794	104386560	73543680	33944984	24992
497	16.793871	104386560	73543680	27247560	24992
498	14.362856	104386560	73543680	36445632	24992
499	18.288574	104386560	73543680	30427392	24992
500	15.994279	104386560	73543680	40664160	24992
501	19.578945	104386560	73543680	35011000	24992
502	1.724277	104386560	73543680	31272024	24992
503	2.591668	104386560	73543680	32842296	24992
504	3.569296	104386560	73543680	34935280	24992
505	4.141568	104386560	73543680	37551832	24992
506	4.946438	104386560	73543680	40693576	24992
507	8.555768	104386560	73543680	28091048	24992
508	6.60058	104386560	73543680	32284592	24992
509	7.372086	104386560	73543680	37064240	24992
510	11.289931	104386560	73543680	26506048	24992
511	9.44922	104386560	73543680	32285664	24992
512	10.094779	104386560	73543680	38673984	24992
513	13.341778	104386560	73543680	29489776	24992
514	11.766953	104386560	73543680	36862856	24992
515	15.390062	104386560	73543680	29037440	24992
516	13.528475	104386560	73543680	37477152	24992
517	16.983565	104386560	73543680	30647224	24992
518	15.521003	104386560	73543680	40159672	24992
519	18.447136	104386560	73543680	33970072	24992
520	20.022031	104386560	73543680	29270784	24992
521	17.573508	104386560	73543680	40408152	24992
522	1.791799	104386560	73543680	36368616	24992
523	2.683866	104386560	73543680	38018816	24992
524	3.570219	104386560	73543680	40186160	24992
525	7.062724	104386560	73543680	26795096	24992
526	5.526963	104386560	73543680	30048328	24992
527	5.939754	104386560	73543680	33845720	24992
528	6.998737	104386560	73543680	38202536	24992
529	10.596025	104386560	73543680	27222992	24992
530	8.627388	104386560	73543680	32659256	24992
531	9.594651	104386560	73543680	38642856	24992
532	13.144096	104386560	73543680	29252000	24992
533	11.36257	104386560	73543680	36334456	24992
534	15.013135	104386560	73543680	28352720	24992
535	13.069444	104386560	73543680	36537056	24992
536	16.788163	104386560	73543680	29650696	24992
537	14.844657	104386560	73543680	38961552	24992
538	18.830339	104386560	73543680	32833160	24992
539	19.725231	104386560	73543680	28187840	24992
540	17.736668	104386560	73543680	39165272	24992
541	21.618475	104386560	73543680	34666544	24992
542	1.864035	104386560	73543680	32010040	24992
543	2.775539	104386560	73543680	33691888	24992
544	3.519863	104386560	73543680	35933472	24992
545	4.481891	104386560	73543680	38736032	24992
546	5.324549	104386560	73543680	42100600	24992
547	8.759718	104386560	73543680	29670400	24992
548	7.0526	104386560	73543680	34177376	24992
549	8.168011	104386560	73543680	39240872	24992
550	11.632868	104386560	73543680	28944144	24992
551	9.732593	104386560	73543680	35137680	24992
552	11.400031	104386560	73543680	41898400	24992
553	14.709051	104386560	73543680	32920032	24992
554	13.234929	104386560	73543680	40812688	24992
555	16.304131	104386560	73543680	33125600	24992
556	14.595367	104386560	73543680	42181576	24992
557	17.656254	104386560	73543680	35393904	24992
558	19.738879	104386560	73543680	30265280	24992
559	17.236379	104386560	73543680	41025544	24992
560	21.187755	104386560	73543680	36193304	24992
561	22.525287	104386560	73543680	32616544	24992
562	1.920769	104386560	73543680	30739304	24992
563	2.870248	104386560	73543680	32488032	24992
564	3.813359	104386560	73543680	34804080	24992
565	4.739483	104386560	73543680	37707520	24992
566	5.453619	104386560	73543680	41183664	24992
567	9.356708	104386560	73543680	29155384	24992
568	7.532262	104386560	73543680	33797464	24992
569	8.212699	104386560	73543680	39036400	24992
570	12.313822	104386560	73543680	29056920	24992
571	10.278271	104386560	73543680	35463976	24992
572	11.255673	104386560	73543680	42455880	24992
573	14.915713	104386560	73543680	33731928	24992
574	12.866055	104386560	73543680	41901080	24992
575	16.750271	104386560	73543680	34422592	24992
576	18.13589	104386560	73543680	28613152	24992
577	15.928605	104386560	73543680	38546624	24992
578	20.148894	104386560	73543680	33320392	24992
579	21.092398	104386560	73543680	29457432	24992
580	18.810872	104386560	73543680	41170920	24992
581	22.905165	104386560	73543680	37335768	24992
582	1.988979	104386560	73543680	35284528	24992
583	2.958244	104386560	73543680	37078136	24992
584	3.797815	104386560	73543680	39468776	24992
585	4.776556	104386560	73543680	42457160	24992
586	8.758512	104386560	73543680	29860976	24992
587	6.615951	104386560	73543680	34056464	24992
588	7.721736	104386560	73543680	38844512	24992
589	11.714805	104386560	73543680	28530984	24992
590	9.944442	104386560	73543680	34544104	24992
591	10.401793	104386560	73543680	41142720	24992
592	14.775207	104386560	73543680	32311640	24992
593	12.504918	104386560	73543680	40119952	24992
594	16.4739	104386560	73543680	32649152	24992
595	14.502336	104386560	73543680	41692936	24992
596	18.287393	104386560	73543680	35181568	24992
597	19.827521	104386560	73543680	30241240	24992
598	17.400739	104386560	73543680	41093800	24992
599	21.174167	104386560	73543680	36499936	24992
600	22.557283	104386560	73543680	33235744	24992
601	23.911827	104386560	73543680	31088136	24992
602	4.797815	104386560	73543680	28667648	24992
603	3.055001	104386560	73543680	30517896	24992
604	4.096762	104386560	73543680	32982752	24992
605	5.25365	104386560	73543680	36064248	24992
606	5.891676	104386560	73543680	39779928	24992
607	9.880056	104386560	73543680	28391256	24992
608	8.049482	104386560	73543680	33327744	24992
609	8.999107	104386560	73543680	38893416	24992
610	12.884487	104386560	73543680	29419656	24992
611	11.046487	104386560	73543680	36220040	24992
612	11.914834	104386560	73543680	43664144	24992
613	15.725847	104386560	73543680	35400048	24992
614	17.144684	104386560	73543680	28940824	24992
615	15.317111	104386560	73543680	38239744	24992
616	19.152555	104386560	73543680	32648008	24992
617	17.072296	104386560	73543680	43211264	24992
618	20.878736	104386560	73543680	38109408	24992
619	22.253317	104386560	73543680	34435064	24992
620	23.641347	104386560	73543680	31921536	24992
621	24.957516	104386560	73543680	30443584	24992
622	5.053334	104386560	73543680	28657384	24992
623	3.06368	104386560	73543680	30563368	24992
624	4.195052	104386560	73543680	33102752	24992
625	5.047392	104386560	73543680	36277704	24992
626	6.064786	104386560	73543680	40088368	24992
627	10.290111	104386560	73543680	28885552	24992
628	8.325167	104386560	73543680	33984576	24992
629	9.039868	104386560	73543680	39708592	24992
630	13.527314	104386560	73543680	30442256	24992
631	11.381674	104386560	73543680	37472168	24992
632	15.687781	104386560	73543680	29798096	24992
633	13.353617	104386560	73543680	38087472	24992
634	17.67308	104386560	73543680	31627432	24992
635	15.494461	104386560	73543680	41211440	24992
636	19.488541	104386560	73543680	35576976	24992
637	21.012173	104386560	73543680	31456360	24992
638	18.746045	104386560	73543680	42997112	24992
639	22.730285	104386560	73543680	39034280	24992
640	24.158359	104386560	73543680	36318112	24992
641	25.617009	104386560	73543680	34664424	24992
642	2.165787	104386560	73543680	34556016	24992
643	3.251349	104386560	73543680	36523112	24992
644	4.376472	104386560	73543680	39137824	24992
645	5.389671	104386560	73543680	42405088	24992
646	9.462183	104386560	73543680	30377224	24992
647	7.515778	104386560	73543680	34954984	24992
648	8.339736	104386560	73543680	40188776	24992
649	12.952801	104386560	73543680	30459736	24992
650	10.495278	104386560	73543680	37010216	24992
651	11.63047	104386560	73543680	44226976	24992
652	15.769824	104386560	73543680	35826144	24992
653	13.575862	104386560	73543680	44378392	24992
654	17.749815	104386560	73543680	37341200	24992
655	19.878777	104386560	73543680	31975952	24992
656	17.345074	104386560	73543680	42556568	24992
657	21.445028	104386560	73543680	37719680	24992
658	23.169158	104386560	73543680	34348392	24992
659	24.571393	104386560	73543680	32123976	24992
660	21.76243	104386560	73543680	45311648	24992
661	25.389833	104386560	73543680	42754000	24992
662	2.232857	104386560	73543680	41955488	24992
663	3.354895	104386560	73543680	43972512	24992
664	7.624697	104386560	73543680	30598680	24992
665	5.805153	104386560	73543680	33959008	24992
666	6.465467	104386560	73543680	37992616	24992
667	7.631421	104386560	73543680	42704648	24992
668	11.89894	104386560	73543680	32179096	24992
669	9.945185	104386560	73543680	38238376	24992
670	10.691635	104386560	73543680	44992424	24992
671	15.027138	104386560	73543680	36113176	24992
672	13.210503	104386560	73543680	44215808	24992
673	17.273004	104386560	73543680	36785184	24992
674	19.132833	104386560	73543680	31241952	24992
675	16.651187	104386560	73543680	41375328	24992
676	20.9091	104386560	73543680	36500544	24992
677	22.399586	104386560	73543680	33009752	24992
678	20.216033	104386560	73543680	45204616	24992
679	24.077987	104386560	73543680	41780824	24992
680	25.609947	104386560	73543680	39583736	24992
681	26.612881	104386560	73543680	38411072	24992
682	2.295769	104386560	73543680	38812760	24992
683	3.448087	104386560	73543680	40886544	24992
684	4.65117	104386560	73543680	43654520	24992
685	9.35267	104386560	73543680	31177336	24992
686	6.788459	104386560	73543680	35331112	24992
687	7.668471	104386560	73543680	40177560	24992
688	8.89302	104386560	73543680	45708440	24992
689	13.344295	104386560	73543680	35635328	24992
690	11.263947	104386560	73543680	42587224	24992
691	15.837653	104386560	73543680	34388272	24992
692	13.554807	104386560	73543680	42725864	24992
693	17.674592	104386560	73543680	35836216	24992
694	15.764243	104386560	73543680	45565752	24992
695	20.058231	104386560	73543680	39700336	24992
696	22.152129	104386560	73543680	35441560	24992
697	23.282143	104386560	73543680	32514456	24992
698	20.059682	104386560	73543680	45081888	24992
699	24.319118	104386560	73543680	42130840	24992
700	25.905444	104386560	73543680	40262624	24992
701	27.597232	104386560	73543680	39420304	24992
702	2.361022	104386560	73543680	40210600	24992
703	3.471948	104386560	73543680	42341384	24992
704	4.554814	104386560	73543680	45178384	24992
705	9.028971	104386560	73543680	32591512	24992
706	7.017692	104386560	73543680	36848064	24992
707	7.901233	104386560	73543680	41826552	24992
708	12.694188	104386560	73543680	31826872	24992
709	10.42993	104386560	73543680	38243200	24992
710	11.537958	104386560	73543680	45350160	24992
711	15.887653	104386560	73543680	36976072	24992
712	14.111131	104386560	73543680	45540320	24992
713	18.348366	104386560	73543680	38602744	24992
714	19.990049	104386560	73543680	33435912	24992
715	17.408816	104386560	73543680	44141872	24992
716	22.2473	104386560	73543680	39551592	24992
717	23.8417	104386560	73543680	36447960	24992
718	25.910033	104386560	73543680	34515992	24992
719	26.964715	104386560	73543680	33601552	24992
720	27.980939	104386560	73543680	33528856	24992
721	28.836205	104386560	73543680	34176432	24992
722	2.417985	104386560	73543680	36333328	24992
723	3.628545	104386560	73543680	38526920	24992
724	4.925357	104386560	73543680	41439840	24992
725	5.811109	104386560	73543680	45091152	24992
726	10.733668	104386560	73543680	33489064	24992
727	8.159003	104386560	73543680	38586776	24992
728	9.515318	104386560	73543680	44421448	24992
729	14.107532	104386560	73543680	35004224	24992
730	11.663694	104386560	73543680	42316008	24992
731	16.759625	104386560	73543680	34693072	24992
732	14.509108	104386560	73543680	43475720	24992
733	18.949902	104386560	73543680	37214800	24992
734	16.921269	104386560	73543680	47457368	24992
735	20.994555	104386560	73543680	41999952	24992
736	22.999667	104386560	73543680	38168136	24992
737	24.254224	104386560	73543680	35639008	24992
738	25.749042	104386560	73543680	34278488	24992
739	27.567752	104386560	73543680	33871032	24992
740	28.34257	104386560	73543680	34224504	24992
741	29.766603	104386560	73543680	35366608	24992
742	2.462522	104386560	73543680	37757320	24992
743	3.557405	104386560	73543680	39997816	24992
744	4.831711	104386560	73543680	42990656	24992
745	5.971803	104386560	73543680	46722456	24992
746	10.988718	104386560	73543680	35107968	24992
747	8.814714	104386560	73543680	40342264	24992
748	9.737765	104386560	73543680	46336808	24992
749	14.426066	104386560	73543680	36877992	24992
750	12.192938	104386560	73543680	44356136	24992
751	16.864031	104386560	73543680	36756992	24992
752	14.579605	104386560	73543680	45751928	24992
753	19.18544	104386560	73543680	39431040	24992
754	21.230075	104386560	73543680	34856200	24992
755	18.77253	104386560	73543680	46112176	24992
756	23.252645	104386560	73543680	42036680	24992
757	24.644541	104386560	73543680	39293352	24992
758	26.440131	104386560	73543680	37768344	24992
759	27.507305	104386560	73543680	37234816	24992
760	29.074178	104386560	73543680	37579568	24992
761	30.147253	104386560	73543680	38628608	24992
762	2.560771	104386560	73543680	41090600	24992
763	3.838601	104386560	73543680	43401472	24992
764	5.185113	104386560	73543680	46483736	24992
765	10.215718	104386560	73543680	34348592	24992
766	7.336399	104386560	73543680	38953664	24992
767	8.730893	104386560	73543680	44330568	24992
768	13.980636	104386560	73543680	34741008	24992
769	11.084867	104386560	73543680	41638656	24992
770	16.37838	104386560	73543680	33923912	24992
771	13.957835	104386560	73543680	42383136	24992
772	18.720734	104386560	73543680	36099168	24992
773	16.55318	104386560	73543680	46098544	24992
774	20.922331	104386560	73543680	40804288	24992
775	22.975384	104386560	73543680	37130384	24992
776	24.443886	104386560	73543680	34783776	24992
777	21.64832	104386560	73543680	47920128	24992
778	26.169484	104386560	73543680	45499840	24992
779	28.006333	104386560	73543680	44206856	24992
780	29.644557	104386560	73543680	43955816	24992
781	30.994818	104386560	73543680	44519704	24992
782	2.614227	104386560	73543680	46627312	24992
783	3.936978	104386560	73543680	48979528	24992
784	8.678106	104386560	73543680	35758568	24992
785	6.452487	104386560	73543680	39676376	24992
786	7.896061	104386560	73543680	44437944	24992
787	12.705457	104386560	73543680	34202840	24992
788	10.226859	104386560	73543680	40476576	24992
789	12.097981	104386560	73543680	47578224	24992
790	16.491222	104386560	73543680	39256704	24992
791	14.135331	104386560	73543680	47901680	24992
792	20.32424	104386560	73543680	41227960	24992
793	21.536755	104386560	73543680	36298208	24992
794	17.929255	104386560	73543680	47308712	24992
795	22.907463	104386560	73543680	43015784	24992
796	25.070452	104386560	73543680	40132592	24992
797	26.554821	104386560	73543680	38550696	24992
798	27.874344	104386560	73543680	37988640	24992
799	29.148114	104386560	73543680	38385640	24992
800	30.311376	104386560	73543680	39440488	24992
801	31.55101	104386560	73543680	41153664	24992
802	2.683301	104386560	73543680	44250208	24992
803	4.029932	104386560	73543680	46658304	24992
804	9.033943	104386560	73543680	34037480	24992
805	6.743796	104386560	73543680	38048208	24992
806	8.066564	104386560	73543680	42862168	24992
807	8.960873	104386560	73543680	48496440	24992
808	14.211862	104386560	73543680	38757672	24992
809	11.804593	104386560	73543680	45985384	24992
810	16.770708	104386560	73543680	38224824	24992
811	14.478561	104386560	73543680	47085608	24992
812	19.534507	104386560	73543680	40736608	24992
813	21.307778	104386560	73543680	36215560	24992
814	18.705917	104386560	73543680	47487832	24992
815	24.017155	104386560	73543680	43541536	24992
816	25.568601	104386560	73543680	40984776	24992
817	27.188035	104386560	73543680	39582424	24992
818	28.878649	104386560	73543680	39278200	24992
819	29.627987	104386560	73543680	39862008	24992
820	31.112092	104386560	73543680	41208520	24992
821	32.543331	104386560	73543680	43100616	24992
822	2.764334	104386560	73543680	46477096	24992
823	4.029637	104386560	73543680	48946928	24992
824	8.943452	104386560	73543680	36158904	24992
825	6.723058	104386560	73543680	40265552	24992
826	7.921893	104386560	73543680	45204184	24992
827	13.308892	104386560	73543680	35331592	24992
828	11.159155	104386560	73543680	41910112	24992
829	12.529506	104386560	73543680	49333344	24992
830	17.188774	104386560	73543680	41298384	24992
831	14.8542	104386560	73543680	50362824	24992
832	19.659678	104386560	73543680	43817184	24992
833	21.405343	104386560	73543680	39133304	24992
834	23.928136	104386560	73543680	36032600	24992
835	20.408556	104386560	73543680	48402568	24992
836	25.515604	104386560	73543680	45549464	24992
837	27.177691	104386560	73543680	43927304	24992
838	28.268022	104386560	73543680	43384392	24992
839	30.008777	104386560	73543680	43806424	24992
840	31.118461	104386560	73543680	44977864	24992
841	32.553488	104386560	73543680	46884240	24992
842	2.825966	104386560	73543680	50257800	24992
843	7.691195	104386560	73543680	36635992	24992
844	5.664594	104386560	73543680	40059848	24992
845	7.222161	104386560	73543680	44338760	24992
846	8.284182	104386560	73543680	49475736	24992
847	13.079243	104386560	73543680	39324728	24992
848	11.100556	104386560	73543680	46182112	24992
849	16.467852	104386560	73543680	38232104	24992
850	13.744236	104386560	73543680	46827896	24992
851	19.307079	104386560	73543680	40516752	24992
852	16.708466	104386560	73543680	50840624	24992
853	21.342017	104386560	73543680	45600864	24992
854	23.238155	104386560	73543680	42031152	24992
855	25.282313	104386560	73543680	39918552	24992
856	27.239817	104386560	73543680	38934664	24992
857	28.08134	104386560	73543680	38962904	24992
858	29.946804	104386560	73543680	39848856	24992
859	31.086298	104386560	73543680	41511576	24992
860	32.81796	104386560	73543680	43761536	24992
861	33.457296	104386560	73543680	46613936	24992
862	2.886413	104386560	73543680	50858984	24992
863	7.973433	104386560	73543680	37299560	24992
864	5.797377	104386560	73543680	40812720	24992
865	7.091274	104386560	73543680	45184568	24992
866	8.439941	104386560	73543680	50444160	24992
867	13.624184	104656896	73543680	40291432	24992
868	11.163778	104656896	73543680	47301288	24992
869	16.981612	104656896	73543680	39410408	24992
870	14.125622	104656896	73543680	48167048	24992
871	19.252497	104656896	73543680	41923128	24992
872	21.541544	104656896	73543680	37426296	24992
873	18.831787	104656896	73543680	48856368	24992
874	23.705207	104656896	73543680	45121536	24992
875	25.488669	104656896	73543680	42938280	24992
876	27.069785	104656896	73543680	41922416	24992
877	29.257861	104656896	73543680	41939464	24992
878	30.457762	104656896	73543680	42853872	24992
879	31.894727	104656896	73543680	44446752	24992
880	32.880274	104656896	73543680	46748752	24992
881	34.64458	104656896	73543680	49588448	24992
882	2.970823	104656896	73543680	40233336	24992
883	4.488906	104656896	73543680	42914384	24992
884	5.796277	104656896	73543680	46512448	24992
885	7.014361	104656896	73543680	50999672	24992
886	14.559378	104656896	74067968	42446792	24992
887	10.97075	104656896	74067968	48699800	24992
888	17.667505	104656896	74067968	40357552	24992
889	14.149274	104927232	74067968	48406632	24992
890	23.01285	104927232	74067968	41849624	24992
891	28.77703	104927232	74592256	16628664	24992
892	16.83475	104927232	74592256	27384480	24992
893	18.699794	105467904	74592256	22934472	24992
894	20.334534	105467904	74592256	20101392	24992
895	22.558603	105467904	74592256	18569808	24992
896	23.854296	105467904	74592256	18175520	24992
897	25.468294	105467904	74592256	18763288	24992
898	26.311352	105467904	74592256	20098784	24992
899	27.921838	105467904	74592256	22200232	24992
900	29.029699	105467904	74592256	24845488	24992
901	30.293257	105467904	74592256	27992448	24992
902	2.927892	105467904	74592256	18845160	24992
903	4.363371	105467904	74592256	21585504	24992
904	5.676192	105467904	74592256	25257600	24992
905	7.047708	105467904	74592256	29830104	24992
906	10.592662	105467904	74592256	21316272	24992
907	10.201889	105467904	74592256	27733088	24992
908	12.158958	105467904	74592256	19424464	24992
909	13.381971	105467904	74592256	27663776	24992
910	15.40765	105467904	74592256	21087264	24992
911	16.090575	105467904	74592256	31145864	24992
912	18.084681	105467904	74592256	25948712	24992
913	19.781037	105467904	74592256	22358216	24992
914	21.107373	105467904	74592256	20255688	24992
915	22.775991	105467904	74592256	19500248	24992
916	24.649909	105467904	74592256	19707952	24992
917	26.36738	105467904	74592256	20716736	24992
918	27.219893	105467904	74592256	22548560	24992
919	28.640579	105467904	74592256	25133512	24992
920	29.56763	105467904	74592256	28166752	24992
921	30.477872	105467904	74592256	31734752	24992
922	2.986558	105467904	74592256	22795856	24992
923	4.527595	105467904	74592256	25588568	24992
924	5.774454	105467904	74592256	29318360	24992
925	7.736544	105467904	74592256	18083928	24992
926	8.868061	105467904	74592256	23679960	24992
927	10.086692	105467904	74592256	30195136	24992
928	12.51282	105467904	74592256	21625496	24992
929	13.50543	105467904	74592256	30016544	24992
930	15.987882	105467904	74592256	23316392	24992
931	17.400132	105467904	74592256	18623656	24992
932	17.617254	105467904	74592256	29821400	24992
933	19.644106	105467904	74592256	25950080	24992
934	21.613739	105467904	74592256	23698008	24992
935	23.218756	105467904	74592256	22652896	24992
936	24.603697	105467904	74592256	22703840	24992
937	25.858592	105467904	74592256	23721384	24992
938	27.829133	105467904	74592256	25509272	24992
939	28.884453	105467904	74592256	27961528	24992
940	30.371144	105467904	74592256	30968232	24992
941	33.055042	105467904	74592256	20853256	24992
942	3.060569	105467904	74592256	30583520	24992
943	4.39709	105467904	74592256	33458416	24992
944	6.945723	105467904	74592256	21502592	24992
945	7.3975	105467904	74592256	26249888	24992
946	8.769571	105467904	74592256	31944968	24992
947	11.008183	105467904	74592256	22831560	24992
948	11.984838	105467904	74592256	30425392	24992
949	14.201401	105467904	74592256	23383952	24992
950	15.247796	105467904	74592256	32893768	24992
951	17.113434	105467904	74592256	27421288	24992
952	19.329552	105467904	74592256	23660192	24992
953	19.412245	105467904	74592256	36039280	24992
954	21.966096	105467904	74592256	32906360	24992
955	23.949471	105467904	74592256	31285992	24992
956	24.432067	105467904	74592256	30805624	24992
957	26.378315	105467904	74592256	31429496	24992
958	28.157769	105467904	74592256	32889776	24992
959	29.197519	105467904	74592256	35091400	24992
960	32.020699	105467904	74592256	24136376	24992
961	32.879507	105467904	74592256	29656672	24992
962	3.112374	105467904	74592256	36312496	24992
963	4.973669	105467904	74592256	22968704	24992
964	5.999561	105467904	74592256	26838848	24992
965	7.538563	105467904	74592256	31680728	24992
966	9.701559	105467904	74592256	21772616	24992
967	10.80787	105467904	74592256	28575112	24992
968	12.174165	105467904	74592256	36333288	24992
969	14.166014	105467904	74592256	28640848	24992
970	15.852929	105467904	74592256	23139704	24992
971	16.936937	105467904	74592256	33818640	24992
972	18.997896	105467904	74592256	29454056	24992
973	20.956627	105467904	74592256	26810952	24992
974	22.275137	105467904	74592256	25406296	24992
975	23.997941	105467904	74592256	25298672	24992
976	25.837218	105467904	74592256	26152888	24992
977	27.681396	105467904	74592256	27879480	24992
978	29.129451	105467904	74592256	30244880	24992
979	30.133974	105467904	74592256	33343064	24992
980	33.260912	105467904	74592256	23375400	24992
981	35.111836	105467904	74592256	31827976	24992
982	3.183065	105467904	74592256	39033152	24992
983	5.167048	105467904	74592256	25833680	24992
984	6.395935	105467904	74592256	29811488	24992
985	7.700336	105467904	74592256	34741104	24992
986	10.386604	105467904	74592256	24954240	24992
987	11.089534	105467904	74592256	31897960	24992
988	12.42763	105467904	74592256	39793368	24992
989	14.729885	105467904	74592256	32201032	24992
990	16.640795	105467904	74592256	26841232	24992
991	17.549809	105467904	74592256	37716536	24992
992	19.407708	105467904	74592256	33450000	24992
993	21.039267	105467904	74592256	30949032	24992
994	23.062724	105467904	74592256	29680160	24992
995	24.91765	105467904	74592256	29685128	24992
996	26.231429	105467904	74592256	30678960	24992
997	28.213899	105467904	74592256	32507768	24992
998	28.947888	105467904	74592256	35160472	24992
999	30.797873	105467904	74592256	38356232	24992
1000	33.542934	105467904	74592256	28327048	24992
x	Duration	RSS	HeapTotal	HeapUsed	External
0	NA	91045888	59912192	11970872	24992
1	0.337028	91045888	59912192	12022752	24992
2	0.264085	91045888	59912192	12099440	24992
3	0.305151	91045888	59912192	12203192	24992
4	0.369841	91045888	59912192	12335552	24992
5	0.441159	91045888	59912192	12498016	24992
6	0.537801	91045888	59912192	12691040	24992
7	0.587717	91045888	59912192	12915592	24992
8	0.668224	91045888	59912192	13172680	24992
9	0.75024	91045888	59912192	13464200	24992
10	1.202932	91045888	59912192	13790824	24992
11	0.947921	91045888	59912192	14153496	24992
12	1.05811	91045888	59912192	14556704	24992
13	1.081118	91045888	59912192	14994288	24992
14	1.341892	91045888	59912192	15470840	24992
15	1.28121	91045888	59912192	15987304	24992
16	1.369901	91045888	59912192	16544704	24992
17	1.449646	91045888	59912192	17145840	24992
18	1.068521	91045888	59912192	17789872	24992
19	1.271985	91045888	59912192	18479712	24992
20	1.397343	91045888	59912192	19213704	24992
21	1.388202	91045888	59912192	19994352	24992
22	0.180068	91045888	59912192	20792416	24992
23	0.268063	91045888	59912192	20935040	24992
24	0.690649	91045888	59912192	21127776	24992
25	0.443548	91045888	59912192	21371616	24992
26	0.514634	91045888	59912192	21668088	24992
27	0.627749	91045888	59912192	22019624	24992
28	0.652569	91045888	59912192	22422544	24992
29	0.733377	91045888	59912192	22880400	24992
30	0.853209	91045888	59912192	23395208	24992
31	0.898768	91045888	59912192	23966856	24992
32	0.999383	91045888	59912192	24596512	24992
33	1.078382	91045888	59912192	25284912	24992
34	1.180342	91045888	59912192	26033040	24992
35	1.431532	91045888	59912192	26841992	24992
36	1.751792	91045888	59912192	27712712	24992
37	1.663164	91045888	59912192	28649888	24992
38	2.627785	91045888	59912192	13344816	24992
39	1.770881	91045888	59912192	14408496	24992
40	1.763135	91045888	59912192	15540736	24992
41	2.074983	91045888	59912192	16737120	24992
42	0.233683	91045888	59912192	18002616	24992
43	0.347053	91045888	59912192	18206736	24992
44	0.455557	91045888	59912192	18480408	24992
45	0.556989	91045888	59912192	18825992	24992
46	0.663244	91045888	59912192	19243688	24992
47	0.77283	91045888	59912192	19734432	24992
48	1.075964	91045888	59912192	20299352	24992
49	1.00089	91045888	59912192	20939368	24992
50	1.113805	91045888	59912192	21658600	24992
51	1.331844	91045888	59912192	22457752	24992
52	1.346019	91045888	59912192	23336368	24992
53	1.635469	91045888	59912192	24296000	24992
54	1.61618	91045888	59912192	25339872	24992
55	2.05055	91045888	59912192	26464736	24992
56	2.048209	91045888	59912192	27673648	24992
57	2.98332	91045888	59912192	12917488	24992
58	2.266986	91045888	59912192	14299264	24992
59	2.392934	91045888	59912192	15768280	24992
60	2.524376	91045888	59912192	17325848	24992
61	2.585801	91045888	59912192	18971920	24992
62	0.304357	91045888	59912192	20731568	24992
63	0.443862	91045888	59912192	21002528	24992
64	0.607042	91045888	59912192	21366952	24992
65	0.711187	91045888	59912192	21822600	24992
66	0.849871	91045888	59912192	22372560	24992
67	1.038982	91045888	59912192	23017320	24992
68	1.126296	91045888	59912192	23757792	24992
69	1.267893	91045888	59912192	24595000	24992
70	1.479623	91045888	59912192	25530896	24992
71	1.562763	91045888	59912192	26565488	24992
72	1.918345	91045888	59912192	27703328	24992
73	1.855439	91045888	59912192	28938296	24992
74	2.769666	91045888	59912192	13979056	24992
75	2.312969	91045888	59912192	15418200	24992
76	2.501095	91045888	59912192	16960864	24992
77	2.658836	91045888	59912192	18608112	24992
78	2.805002	91045888	59912192	20363952	24992
79	2.993827	91045888	59912192	22225032	24992
80	3.254008	91045888	59912192	24193992	24992
81	3.21402	91045888	59912192	26272200	24992
82	0.35381	91045888	59912192	28507224	24992
83	0.528037	91045888	59912192	28836616	24992
84	0.688764	91045888	59912192	29279656	24992
85	1.486251	91045888	59912192	13501152	24992
86	1.26661	91045888	59912192	14171448	24992
87	1.209718	91045888	59912192	14957152	24992
88	1.373384	91045888	59912192	15859296	24992
89	1.867084	91045888	59912192	16880272	24992
90	1.721636	91045888	59912192	18019032	24992
91	1.954115	91045888	59912192	19277352	24992
92	2.074726	91045888	59912192	20655816	24992
93	2.445357	91045888	59912192	22155536	24992
94	2.459759	91045888	59912192	23777448	24992
95	2.62309	91045888	59912192	25522632	24992
96	2.814271	91045888	59912192	27391952	24992
97	3.192636	91045888	59912192	29386984	24992
98	4.011262	91045888	59912192	15154368	24992
99	3.610617	91045888	59912192	17404048	24992
100	3.965465	91045888	59912192	19782896	24992
101	3.768087	91045888	59912192	22290056	24992
102	0.415262	91045888	59912192	25010592	24992
103	0.630774	91045888	59912192	25414360	24992
104	0.820211	91045888	59912192	25954352	24992
105	1.017909	91045888	59912192	26631464	24992
106	1.436178	91045888	59912192	27451160	24992
107	1.424261	91045888	59912192	28405960	24992
108	1.636097	91045888	59912192	29500784	24992
109	2.499692	91045888	59912192	14393344	24992
110	2.061015	91045888	59912192	15774048	24992
111	2.252539	91045888	59912192	17295888	24992
112	2.649975	91045888	59912192	18961680	24992
113	2.75875	91045888	59912192	20772400	24992
114	2.91616	91045888	59912192	22731296	24992
115	3.207832	91045888	59912192	24834680	24992
116	3.721799	91316224	59912192	27088440	24992
117	3.537313	91316224	59912192	29487992	24992
118	4.509473	91316224	59912192	15684648	24992
119	4.300548	91316224	59912192	18386688	24992
120	4.252907	91316224	59912192	21243328	24992
121	4.450758	91316224	59912192	24250064	24992
122	0.482783	91316224	59912192	27509896	24992
123	0.718726	91316224	59912192	27972160	24992
124	0.949694	91316224	59912192	28590048	24992
125	1.170372	91316224	59912192	29364448	24992
126	2.049574	91316224	59912192	14005680	24992
127	2.645764	91316224	59912192	15097312	24992
128	1.884159	91316224	59912192	16347912	24992
129	2.211196	91316224	59912192	17768008	24992
130	2.343589	91316224	59912192	19345128	24992
131	2.596875	91316224	59912192	21081072	24992
132	3.03336	91316224	59912192	22980576	24992
133	3.101131	91316224	59912192	25046792	24992
134	3.331943	91316224	59912192	27275944	24992
135	3.559046	91316224	59912192	29671480	24992
136	4.576165	91316224	59912192	15961456	24992
137	4.117706	91316224	59912192	18692624	24992
138	4.674119	91316224	59912192	21595032	24992
139	4.666793	91316224	59912192	24667504	24992
140	4.856563	91316224	59912192	27916808	24992
141	6.414437	91316224	59912192	15432704	24992
142	0.543639	91316224	59912192	19150432	24992
143	0.808413	91316224	59912192	19676648	24992
144	1.257229	91316224	59912192	20379856	24992
145	1.328275	91316224	59912192	21260976	24992
146	1.588501	91316224	59912192	22321472	24992
147	2.057439	91316224	59912192	23561888	24992
148	2.119355	91316224	59912192	24983512	24992
149	2.392286	91316224	59912192	26586624	24992
150	2.671955	91316224	59912192	28373856	24992
151	2.974401	91316224	59912192	30349616	24992
152	3.791864	91316224	59912192	16279576	24992
153	3.479383	91316224	59912192	18622600	24992
154	4.023729	91316224	59912192	21150912	24992
155	4.104858	91316224	59912192	23866496	24992
156	4.31228	91316224	59912192	26770880	24992
157	4.790476	91316224	59912192	29865384	24992
158	5.857192	91316224	59912192	17022496	24992
159	5.473868	91316224	59912192	20502024	24992
160	5.455702	91316224	59912192	24173296	24992
161	5.927046	91316224	59912192	28037544	24992
162	0.614703	91316224	59912192	16419752	24992
163	0.908042	91316224	59912192	17004472	24992
164	1.20793	91316224	59912192	17785616	24992
165	1.709717	91316224	59912192	18764384	24992
166	2.026978	91316224	59912192	19944888	24992
167	2.073026	91316224	59912192	21322752	24992
168	2.377794	91316224	59912192	22900968	24992
169	2.835569	91316224	59912192	24679688	24992
170	2.980472	91316224	59912192	26662096	24992
171	3.270438	91316224	59912192	28847200	24992
172	4.399523	91316224	59912192	15322208	24992
173	4.120894	91316224	59912192	17916768	24992
174	4.177565	91316224	59912192	20717624	24992
175	4.655342	91316224	59912192	23731928	24992
176	4.824036	91316224	59912192	26948080	24992
177	5.293187	91316224	59912192	30373288	24992
178	6.374389	91316224	59912192	17846464	24992
179	5.753348	91316224	59912192	21701672	24992
180	6.083695	91316224	59912192	25762800	24992
181	6.419422	91316224	59912192	30039456	24992
182	0.673737	91316224	59912192	18611784	24992
183	1.004792	91316224	59912192	19255072	24992
184	1.310624	91316224	59912192	20114312	24992
185	1.627835	91316224	59912192	21190440	24992
186	2.149842	91316224	59912192	22485024	24992
187	2.285912	91316224	59912192	23998472	24992
188	2.635721	91316224	59912192	25731800	24992
189	2.946867	91316224	59912192	27686056	24992
190	3.310742	91316224	59912192	29868136	24992
191	4.833745	91316224	59912192	16241176	24992
192	3.996487	91316224	59912192	18864512	24992
193	4.563452	91316224	59912192	21712712	24992
194	4.663718	91316224	59912192	24789200	24992
195	5.187095	91316224	59912192	28092368	24992
196	5.40501	91316224	59912192	15317416	24992
197	6.148129	91316224	59912192	19074296	24992
198	6.171234	91316224	59912192	23062704	24992
199	6.34821	91316224	59912192	27281704	24992
200	6.671252	91316224	59912192	31732912	24992
201	7.9146	91316224	59912192	20119080	24992
202	0.723232	91316224	59912192	25236440	24992
203	1.270704	91316224	59912192	25938176	24992
204	1.637309	91316224	59912192	26875400	24992
205	1.800272	91316224	59912192	28049144	24992
206	2.151056	91316224	59912192	29460672	24992
207	2.516756	91316224	59912192	31118952	24992
208	3.738582	91316224	59912192	16889160	24992
209	3.406399	91316224	59912192	19051120	24992
210	3.776545	91316224	59912192	21456120	24992
211	4.358899	91316224	59912192	24111776	24992
212	4.585646	91316224	59912192	27018792	24992
213	4.957305	91316224	59912192	30186920	24992
214	6.494111	91316224	59912192	17643144	24992
215	5.752481	91316224	59912192	21314808	24992
216	6.142817	91316224	59912192	25243104	24992
217	6.477154	91316224	59912192	29422416	24992
218	8.120777	91316224	59912192	18018688	24992
219	7.35625	91316224	59912192	22715704	24992
220	7.751416	91316224	59912192	27673592	24992
221	9.561227	91316224	59912192	17323376	24992
222	0.793519	91316224	59912192	23034280	24992
223	1.225889	91316224	59912192	23819320	24992
224	1.682424	91316224	59912192	24867520	24992
225	2.014904	91316224	59912192	26179880	24992
226	2.464892	91316224	59912192	27760568	24992
227	2.882973	91316224	59912192	29606032	24992
228	3.297709	91316224	59912192	31717512	24992
229	4.575602	91316224	59912192	17941464	24992
230	4.290885	91316224	59912192	20597056	24992
231	4.668271	91316224	59912192	23525688	24992
232	5.12074	91316224	59912192	26727808	24992
233	5.391764	91316224	59912192	30212024	24992
234	6.918214	91316224	59912192	18057616	24992
235	6.566047	91316224	59912192	22091248	24992
236	6.948684	91316224	59912192	26398616	24992
237	7.056751	91316224	59912192	30984712	24992
238	8.743875	91316224	59912192	19780624	24992
239	8.133899	91316224	59912192	24929352	24992
240	8.423244	91316224	59912192	30359920	24992
241	9.913414	91316224	59912192	20122176	24992
242	0.905265	91316224	59912192	26380304	24992
243	1.338408	91316224	59912192	27232480	24992
244	1.778689	91316224	59912192	28370536	24992
245	2.332377	91316224	59912192	29794896	24992
246	2.671673	91316224	59912192	31507400	24992
247	3.948881	91316224	59912192	17442752	24992
248	3.563678	91316224	59912192	19740048	24992
249	4.0099	91316224	59912192	22325080	24992
250	4.465246	91316224	59912192	25198536	24992
251	5.353338	91316224	59912192	28365880	24992
252	5.378788	91316224	59912192	31825656	24992
253	7.132853	91316224	59912192	19466328	24992
254	6.265294	91316224	59912192	23518248	24992
255	6.898058	91316224	59912192	27867184	24992
256	7.205467	91316224	59912192	32515696	24992
257	8.555443	91316224	59912192	21230696	24992
258	8.27869	91316224	59912192	26477680	24992
259	8.723019	91316224	59912192	32028648	24992
260	10.040692	91316224	59912192	21717272	24992
261	9.523166	91316224	59912192	27864120	24992
262	0.97444	91316224	59912192	19162704	24992
263	1.442963	91316224	59912192	20073376	24992
264	2.090593	91316224	59912192	21289240	24992
265	2.332104	91316224	59912192	22811064	24992
266	2.872518	91316224	59912192	24640424	24992
267	3.36179	91316224	59912192	26777784	24992
268	3.824435	91316224	59912192	29224072	24992
269	4.313336	91316224	59912192	31981856	24992
270	5.816851	91316224	59912192	18986800	24992
271	5.45407	91316224	59912192	22370560	24992
272	5.84877	91316224	59912192	26064352	24992
273	6.471308	91316224	59912192	30074304	24992
274	7.959336	91316224	59912192	18656656	24992
275	7.177018	91316224	59912192	23294296	24992
276	7.725969	91316224	59912192	28248728	24992
277	8.25919	91316224	59912192	33529336	24992
278	9.550242	91316224	59912192	22789096	24992
279	9.346323	91316224	59912192	28702008	24992
280	11.211293	91316224	59912192	19439744	24992
281	10.393856	91316224	59912192	25995808	24992
282	1.004876	91316224	59912192	33174136	24992
283	2.514646	91316224	59912192	17966000	24992
284	2.055681	91316224	59912192	19259824	24992
285	2.698604	91316224	59912192	20879600	24992
286	3.015497	91316224	59912192	22829496	24992
287	3.560923	91316224	59912192	25112568	24992
288	4.069656	91316224	59912192	27715024	24992
289	4.780674	91316224	59912192	30646872	24992
290	5.084507	91316224	59912192	33910968	24992
291	6.68391	91316224	59912192	21224584	24992
292	6.155623	91316224	59912192	25155824	24992
293	6.934785	91316224	59912192	29419544	24992
294	7.204878	91316224	59912192	34014384	24992
295	8.637004	91316224	59912192	22618208	24992
296	8.382202	91316224	59912192	27897944	24992
297	8.893398	91316224	59912192	33501840	24992
298	10.31207	91316224	59912192	23197648	24992
299	9.755778	91316224	59912192	29482352	24992
300	11.891526	91316224	59912192	20548032	24992
301	11.107936	91316224	59912192	27514128	24992
302	1.982457	91316224	59912192	18837992	24992
303	1.793674	91316224	59912192	19865616	24992
304	2.095196	91316224	59912192	21237416	24992
305	2.693942	91316224	59912192	22954216	24992
306	3.239972	91316224	59912192	25017552	24992
307	3.939091	91316224	59912192	27427920	24992
308	4.302927	91316224	59912192	30186344	24992
309	4.999779	91316224	59912192	33293728	24992
310	6.974252	91316224	59912192	20668216	24992
311	5.891657	91316224	59912192	24477464	24992
312	6.574624	91316224	59912192	28641760	24992
313	7.249969	91316224	59912192	33156600	24992
314	8.873147	91316224	59912192	21944776	24992
315	8.310927	91316224	59912192	27170984	24992
316	8.729047	91316224	59912192	32755296	24992
317	10.776175	91316224	59912192	22670928	24992
318	9.771426	91316224	59912192	28965816	24992
319	12.23438	91316224	59912192	20263672	24992
320	11.204342	91316224	59912192	27293752	24992
321	11.703914	91316224	59912192	34672072	24992
322	1.31638	91316224	59912192	26444048	24992
323	1.694436	91316224	59912192	27530208	24992
324	2.299599	91316224	59912192	28980088	24992
325	2.853309	91316224	59912192	30794360	24992
326	3.612914	91316224	59912192	32974712	24992
327	5.306108	91316224	59912192	19560904	24992
328	4.553226	91316224	59912192	22475408	24992
329	5.309338	91316224	59912192	25758208	24992
330	5.731652	91316224	59912192	29414920	24992
331	6.228576	91316224	59912192	33438800	24992
332	8.183484	91316224	59912192	21769576	24992
333	7.632296	91316224	59912192	26537240	24992
334	8.175906	91316224	59912192	31678080	24992
335	10.31764	91316224	59912192	21438224	24992
336	9.162962	91316224	59912192	27328880	24992
337	9.97185	91316224	59912192	33597152	24992
338	11.797462	91316224	59912192	24176064	24992
339	11.152834	91316224	59912192	31210768	24992
340	13.369719	91316224	59912192	22998696	24992
341	12.582251	91316224	59912192	30783160	24992
342	1.216744	91316224	59912192	23744792	24992
343	1.797712	91316224	59912192	24889408	24992
344	2.449175	91316224	59912192	26417448	24992
345	3.029998	91316224	59912192	28329968	24992
346	3.804595	91316224	59912192	30627424	24992
347	4.166993	91316224	59912192	33311976	24992
348	6.249866	91316224	59912192	20470376	24992
349	5.604335	91316224	59912192	23941336	24992
350	6.074011	91316224	59912192	27796560	24992
351	6.695088	91316224	59912192	32034824	24992
352	8.89553	91316224	59912192	20933696	24992
353	7.958998	91316224	59912192	25969920	24992
354	8.380546	91316224	59912192	31383848	24992
355	10.843505	91316224	59912192	21594616	24992
356	9.911568	91316224	59912192	27797128	24992
357	10.393912	91316224	59912192	34396656	24992
358	12.465606	91316224	59912192	25281696	24992
359	11.888576	91316224	59912192	32682760	24992
360	14.040541	91316224	59912192	24699480	24992
361	12.970867	91316224	59912192	32910560	24992
362	1.287353	91316224	59912192	26086400	24992
363	2.194572	91316224	59912192	27302912	24992
364	2.560319	91316224	59912192	28926584	24992
365	3.192073	91316224	59912192	30962096	24992
366	3.845986	91316224	59912192	33407288	24992
367	6.107783	91316224	59912192	20415960	24992
368	5.133508	91316224	59912192	23678048	24992
369	6.013431	91316224	59912192	27364408	24992
370	6.434064	91316224	59912192	31452248	24992
371	7.061535	91316224	59912192	35953928	24992
372	8.922173	91316224	59912192	24556144	24992
373	8.381669	91316224	59912192	29890672	24992
374	8.824582	91316224	59912192	35641320	24992
375	11.021398	91316224	59912192	25577128	24992
376	10.946495	91316224	59912192	32166456	24992
377	12.813444	91316224	59912192	23531992	24992
378	11.821641	91316224	59912192	30965096	24992
379	14.329251	91316224	59912192	23403144	24992
380	12.958769	91316224	59912192	31693416	24992
381	15.823913	91316224	59912192	24829904	24992
382	1.358783	91316224	59912192	34374120	24992
383	2.012374	91316224	59912192	35649152	24992
384	4.005917	91316224	59912192	21228624	24992
385	3.523042	91316224	59912192	23370120	24992
386	4.197653	91316224	59912192	25928408	24992
387	4.730941	91316224	59912192	28915984	24992
388	5.497117	91316224	59912192	32334184	24992
389	6.052048	91316224	59912192	36198432	24992
390	8.022129	91316224	59912192	24263664	24992
391	7.5866	91316224	59912192	28979856	24992
392	8.088144	91316224	59912192	34130472	24992
393	10.571545	91316224	59912192	23854256	24992
394	9.492793	91316224	59912192	29876464	24992
395	10.237166	91316224	59912192	36350192	24992
396	12.279354	91316224	59912192	26953440	24992
397	11.562067	91316224	59912192	34290528	24992
398	13.939807	91316224	59912192	26159592	24992
399	13.134317	91316224	59912192	34381832	24992
400	15.470952	91316224	59912192	27124576	24992
401	14.439288	91316224	59912192	36234568	24992
402	1.406996	91316224	59912192	29972368	24992
403	2.101694	91316224	59912192	31305800	24992
404	2.799899	91316224	59912192	33085320	24992
405	3.497527	91316224	59912192	35311984	24992
406	5.706301	91316224	59912192	22017768	24992
407	5.094134	91316224	59912192	25141936	24992
408	5.628936	91316224	59912192	28716608	24992
409	6.477622	91316224	59912192	32746992	24992
410	7.032482	91316224	59912192	37230016	24992
411	9.183255	91316224	59912192	25800832	24992
412	8.637594	91316224	59912192	31190616	24992
413	9.944926	91316224	59912192	37046576	24992
414	11.281852	91316224	59912192	27037016	24992
415	10.815426	91316224	59912192	33797192	24992
416	13.28249	91316224	59912192	25290120	24992
417	12.147365	91316224	59912192	32985752	24992
418	14.659608	91316224	59912192	25570080	24992
419	13.766285	91316224	59912192	34213528	24992
420	16.153496	91316224	59912192	27557480	24992
421	15.066192	91316224	59912192	37177336	24992
422	1.487347	91316224	59912192	31438208	24992
423	2.200803	91316224	59912192	32879720	24992
424	3.097639	91316224	59912192	34803120	24992
425	3.649168	91316224	59912192	37217112	24992
426	5.941461	91316224	59912192	23923424	24992
427	5.236485	91316224	59912192	27313000	24992
428	5.885264	91316224	59912192	31188528	24992
429	7.026151	91316224	59912192	35550184	24992
430	9.501808	91316224	59912192	24384400	24992
431	8.566317	91316224	59912192	29719360	24992
432	9.03525	91316224	59912192	35543936	24992
433	11.165498	91316224	59912192	25865056	24992
434	10.473763	91316224	59912192	32664768	24992
435	13.139129	91316224	59912192	24482040	24992
436	12.228607	91316224	59912192	32275096	24992
437	14.956552	91316224	59912192	25175688	24992
438	13.854591	91316224	59912192	33955336	24992
439	15.998838	91316224	59912192	27556720	24992
440	15.062071	91316224	59912192	37339808	24992
441	17.357101	91316224	59912192	31400256	24992
442	1.563333	91316224	59912192	27500304	24992
443	2.306749	91316224	59912192	29000136	24992
444	3.080442	91316224	59912192	31001544	24992
445	3.923995	91316224	59912192	33505456	24992
446	4.590873	91316224	59912192	36513408	24992
447	7.167719	91316224	60436480	24000968	24992
448	6.097356	91316224	60436480	28025960	24992
449	6.913947	91316224	60436480	32550096	24992
450	7.707286	91316224	60436480	37582632	24992
451	9.862721	91316224	60436480	26889312	24992
452	9.432256	91316224	60436480	32943392	24992
453	11.92742	91316224	60436480	24132160	24992
454	10.774272	91316224	60436480	31229544	24992
455	13.664448	91316224	60436480	23667936	24992
456	12.581318	91316224	60436480	31787848	24992
457	15.423801	91316224	60436480	25190896	24992
458	14.050081	91316224	60436480	34328832	24992
459	16.645944	91316224	60436480	28319320	24992
460	15.868397	91316224	60436480	38488048	24992
461	17.908241	91586560	60436480	32830952	24992
462	1.627411	91586560	60436480	29218536	24992
463	2.406889	91586560	60436480	30780680	24992
464	3.200787	91586560	60436480	32860056	24992
465	4.074268	91586560	60436480	35461416	24992
466	4.736029	91586560	60436480	38586320	24992
467	7.361827	91586560	60436480	25970528	24992
468	6.486024	91586560	60436480	30147328	24992
469	7.179306	91586560	60436480	34846840	24992
470	10.000865	91586560	60436480	24476880	24992
471	8.895165	91586560	60436480	30232088	24992
472	9.775789	91586560	60436480	36625552	24992
473	12.314568	91586560	60436480	27460432	24992
474	11.354275	91586560	60436480	34805200	24992
475	14.272183	91586560	60436480	27053640	24992
476	13.343232	91586560	60436480	35462800	24992
477	16.414869	91586560	60436480	28702216	24992
478	15.252574	91586560	60436480	38185104	24992
479	17.135177	91586560	60436480	31969768	24992
480	18.898971	91856896	60960768	27436592	24992
481	17.363841	91856896	60960768	38545496	24992
482	1.609925	91856896	60960768	34606184	24992
483	2.401281	91856896	60960768	36223104	24992
484	3.273221	91856896	60960768	38380544	24992
485	5.709896	91856896	60960768	24969736	24992
486	4.990067	91856896	60960768	28211584	24992
487	6.10381	91856896	60960768	32028920	24992
488	6.645989	91856896	60960768	36358592	24992
489	9.166273	91856896	60960768	25403248	24992
490	8.383066	91856896	60960768	30825688	24992
491	9.295461	91856896	60960768	36801112	24992
492	12.078805	92127232	60960768	27470320	24992
493	11.022955	92127232	60960768	34537776	24992
494	13.885217	92127232	60960768	26643904	24992
495	12.543067	92127232	60960768	34825520	24992
496	15.690594	92127232	60960768	27994528	24992
497	14.420472	92127232	60960768	37268888	24992
498	17.319069	92127232	60960768	31139320	24992
499	18.378534	92127232	60960768	26667064	24992
500	17.046296	92127232	60960768	37635192	24992
501	19.635606	92127232	60960768	33125480	24992
502	1.708604	92397568	61485056	30560136	24992
503	2.604674	92397568	61485056	32235512	24992
504	3.458059	92397568	61485056	34470784	24992
505	4.321191	92397568	61485056	37267200	24992
506	7.238433	92397568	61485056	24812600	24992
507	5.878848	92397568	61485056	28734568	24992
508	6.905966	92397568	61485056	33235808	24992
509	7.701512	92397568	61485056	38298368	24992
510	10.482174	92397568	61485056	27875416	24992
511	9.56895	92397568	61485056	34059792	24992
512	12.378921	92397568	61485056	25520592	24992
513	11.309501	92397568	61485056	32844648	24992
514	14.425603	92397568	61485056	25654224	24992
515	13.12417	92397568	61485056	34118104	24992
516	15.998172	92667904	61485056	27848944	24992
517	15.059182	92667904	61485056	37476256	24992
518	17.732051	92667904	61485056	31743648	24992
519	19.043378	92667904	61485056	27645096	24992
520	17.351815	92667904	61485056	38994904	24992
521	20.459164	92667904	61485056	34772752	24992
522	1.774195	92667904	61485056	32497232	24992
523	2.646945	92667904	61485056	34231088	24992
524	3.570288	92667904	61485056	36544400	24992
525	4.442428	92667904	61485056	39440352	24992
526	7.012727	92667904	61485056	26824384	24992
527	6.220042	92667904	61485056	30894928	24992
528	7.117116	92667904	61485056	35547160	24992
529	7.993267	92667904	61485056	40786920	24992
530	10.442712	92667904	61485056	30192536	24992
531	9.572602	92667904	61485056	36604960	24992
532	12.819884	92667904	61485056	27959072	24992
533	11.301408	92667904	61485056	35544456	24992
534	14.585542	92667904	61485056	28301632	24992
535	13.200872	92667904	61485056	37078336	24992
536	16.48716	92667904	61485056	30692440	24992
537	15.215474	92667904	61485056	40634400	24992
538	17.791759	92667904	61485056	34859648	24992
539	19.363687	92667904	61485056	30688416	24992
540	20.836468	92667904	61485056	27810464	24992
541	19.181196	92667904	61485056	40143480	24992
542	1.852556	92938240	62009344	37475832	24992
543	2.739382	92938240	62009344	39268536	24992
544	5.766306	92938240	62009344	25727648	24992
545	4.518073	92938240	62009344	28719848	24992
546	5.734331	92938240	62009344	32319304	24992
547	6.443989	92938240	62009344	36517160	24992
548	7.684092	92938240	62009344	41315776	24992
549	9.944358	92938240	62009344	30312104	24992
550	9.321701	92938240	62009344	36320952	24992
551	12.424148	92938240	62009344	27433808	24992
552	11.079046	92938240	62009344	34659312	24992
553	14.66127	92938240	62009344	27307368	24992
554	13.1835	92938240	62009344	35750024	24992
555	19.390346	93208576	62009344	29411728	24992
556	15.371495	93208576	62009344	39096952	24992
557	18.565051	93208576	62009344	33398064	24992
558	19.768686	93208576	62009344	29344520	24992
559	17.946982	93208576	62009344	40902856	24992
560	20.520917	93208576	62009344	36751728	24992
561	22.724594	93208576	62533632	33962440	24992
562	1.942711	93208576	62533632	32930440	24992
563	2.891004	93208576	62533632	34802040	24992
564	3.997779	93208576	62533632	37298592	24992
565	4.804359	93208576	62533632	40421424	24992
566	7.847125	93478912	62533632	28143400	24992
567	6.703035	93478912	62533632	32534568	24992
568	7.681958	93478912	62533632	37549816	24992
569	10.806638	93478912	62533632	27551856	24992
570	9.866534	93478912	62533632	33823416	24992
571	10.533943	93478912	62533632	40739136	24992
572	13.599868	93478912	62533632	32093552	24992
573	12.69652	93478912	62533632	40292656	24992
574	15.655821	93478912	62533632	33012904	24992
575	17.324703	93749248	62533632	27641288	24992
576	15.679589	93749248	62533632	37727064	24992
577	19.086222	93749248	62533632	32809616	24992
578	20.944484	93749248	62533632	29411808	24992
579	18.740523	93749248	62533632	41435696	24992
580	21.332618	93749248	62533632	37771352	24992
581	23.015438	93749248	62533632	35458576	24992
582	1.95884	93749248	63057920	34871528	24992
583	2.921537	93749248	63057920	36801280	24992
584	3.967053	93749248	63057920	39375848	24992
585	6.979679	94019584	63057920	26792592	24992
586	6.136924	94019584	63057920	30660560	24992
587	7.059442	94019584	63057920	35177136	24992
588	7.884931	94019584	63057920	40345048	24992
589	11.055159	94019584	63057920	30165216	24992
590	9.984816	94019584	63057920	36650464	24992
591	13.495595	94019584	63057920	28466208	24992
592	11.919055	94019584	63057920	36253536	24992
593	15.774646	94019584	63057920	29390488	24992
594	14.085603	94019584	63057920	38501464	24992
595	17.716298	94019584	63057920	32582192	24992
596	19.371914	94019584	63057920	28330264	24992
597	17.157413	94019584	63057920	39397584	24992
598	20.674025	94019584	63057920	35267696	24992
599	22.209226	94289920	63057920	32551272	24992
600	23.278968	94289920	63057920	30949984	24992
601	25.119972	94289920	63057920	30369792	24992
602	2.073003	94289920	63057920	31241424	24992
603	3.123921	94289920	63057920	33229856	24992
604	4.26494	94289920	63057920	35886072	24992
605	5.13905	94289920	63057920	39213928	24992
606	8.48014	94289920	63582208	27564496	24992
607	6.974926	94560256	63582208	32216360	24992
608	7.951642	94560256	63582208	37536352	24992
609	11.52532	94560256	63582208	28127560	24992
610	10.204728	94560256	63582208	34811368	24992
611	11.317155	94560256	63582208	42174312	24992
612	14.645504	94560256	63582208	33985928	24992
613	13.699269	94560256	63582208	42663152	24992
614	16.75602	94560256	63582208	35728616	24992
615	17.856915	94560256	63582208	30695160	24992
616	16.628581	94560256	63582208	41415584	24992
617	19.616719	94560256	63582208	36713112	24992
618	21.574938	94830592	63582208	33542216	24992
619	23.15273	94830592	63582208	31627216	24992
620	23.911497	94830592	63582208	30739296	24992
621	25.462682	94830592	63582208	30707184	24992
622	2.06906	94830592	63582208	32149520	24992
623	3.27337	94830592	63582208	34196224	24992
624	4.174007	94830592	63582208	36927512	24992
625	5.361528	94830592	63582208	40360592	24992
626	8.811829	94830592	64106496	28743240	24992
627	7.596407	94830592	64106496	33537744	24992
628	8.545625	94830592	64106496	39015176	24992
629	12.247833	95100928	64106496	29603208	24992
630	10.599919	95100928	64106496	36469408	24992
631	14.419194	95100928	64106496	28933144	24992
632	13.001052	95100928	64106496	37178328	24992
633	16.513021	95100928	64106496	30911856	24992
634	15.245834	95100928	64106496	40543032	24992
635	18.724329	95100928	64106496	35052840	24992
636	19.952017	95100928	64106496	31221120	24992
637	18.382169	95100928	64106496	42957200	24992
638	22.568177	95100928	64106496	39170432	24992
639	23.288827	95100928	64106496	36726424	24992
640	24.651919	95100928	64106496	35427576	24992
641	25.772872	95371264	64106496	35118592	24992
642	2.200363	95371264	64106496	36352888	24992
643	3.273521	95371264	64106496	38459584	24992
644	4.365726	95371264	64106496	41268168	24992
645	7.778286	95371264	64106496	29072992	24992
646	6.70488	95371264	64106496	33292776	24992
647	7.645849	95371264	64106496	38232408	24992
648	8.647913	95371264	64106496	43864656	24992
649	11.722305	95371264	64106496	33891288	24992
650	11.053919	95371264	64106496	40941760	24992
651	14.674962	95371264	64106496	32902000	24992
652	13.341139	95371264	64106496	41373920	24992
653	16.971126	95371264	64106496	34775448	24992
654	18.432096	95371264	64106496	29979552	24992
655	16.532044	95371264	64106496	40590752	24992
656	20.538299	95371264	64106496	36250480	24992
657	21.863871	95371264	64106496	33390904	24992
658	23.434709	95371264	64106496	31722608	24992
659	25.143582	95371264	64106496	31140184	24992
660	26.456409	95371264	64106496	31367784	24992
661	27.236983	95371264	64106496	32252640	24992
662	2.276233	95371264	64106496	34454648	24992
663	3.815705	95371264	64106496	36618784	24992
664	4.47357	95371264	64106496	39511216	24992
665	5.55747	95371264	64106496	43121560	24992
666	9.34863	95371264	64106496	31500776	24992
667	7.993893	95371264	64106496	36567248	24992
668	9.033045	95371264	64106496	42372800	24992
669	12.803525	95371264	64630784	32982888	24992
670	11.444365	95371264	64630784	40228424	24992
671	14.988135	95371264	64630784	32669152	24992
672	13.654095	95371264	64630784	41398256	24992
673	17.483402	95371264	64630784	35064200	24992
674	19.108572	95641600	64630784	30603632	24992
675	17.350177	95641600	64630784	41518952	24992
676	20.638389	95641600	64630784	37379448	24992
677	22.936906	95641600	64630784	34738976	24992
678	23.984486	95641600	65155072	33344600	24992
679	25.198791	95641600	65155072	32949856	24992
680	26.166435	95641600	65155072	33317152	24992
681	27.544826	95641600	65155072	34439272	24992
682	2.251833	95641600	65155072	36819360	24992
683	3.431749	95641600	65155072	39041752	24992
684	4.74033	95641600	65155072	42008216	24992
685	8.556958	95911936	65155072	30051456	24992
686	7.136897	95911936	65155072	34508264	24992
687	8.31337	95911936	65155072	39706592	24992
688	9.141112	95911936	65155072	45661624	24992
689	12.639631	95911936	65155072	35910840	24992
690	11.739335	95911936	65155072	43351304	24992
691	15.348816	95911936	65155072	35509624	24992
692	13.978868	95911936	65155072	44456176	24992
693	17.782673	95911936	65155072	37988152	24992
694	19.428647	96182272	65155072	33437944	24992
695	17.619684	96182272	65155072	44652296	24992
696	21.369914	96182272	65155072	40405696	24992
697	22.958046	96182272	65155072	37641072	24992
698	24.365919	96182272	65155072	36123648	24992
699	25.654662	96182272	65155072	35647952	24992
700	26.667746	96182272	65679360	36064304	24992
701	28.213974	96452608	65679360	37187840	24992
702	2.393153	96452608	65679360	39645544	24992
703	3.535348	96452608	65679360	41926632	24992
704	4.947788	96452608	65679360	44983784	24992
705	8.388297	96452608	65679360	32744200	24992
706	7.198784	96452608	65679360	37331640	24992
707	8.326504	96452608	65679360	42677016	24992
708	12.170423	96452608	65679360	33017640	24992
709	10.958993	96452608	65679360	39902320	24992
710	14.891391	96452608	65679360	32326072	24992
711	12.734159	96722944	65679360	40756896	24992
712	17.184481	96722944	65679360	34547208	24992
713	15.413002	96722944	65679360	44506176	24992
714	19.209621	96722944	65679360	39145896	24992
715	21.268297	96722944	65679360	35566912	24992
716	22.585612	96722944	65679360	33366688	24992
717	20.138647	96722944	65679360	46437416	24992
718	23.692788	96722944	65679360	43842688	24992
719	25.521385	96722944	65679360	42537840	24992
720	27.393255	96993280	65679360	42200656	24992
721	29.381402	96993280	65679360	42755664	24992
722	2.401239	96993280	66203648	44775088	24992
723	6.255055	96993280	66203648	31178504	24992
724	4.988755	96993280	66203648	34299112	24992
725	6.270477	96993280	66203648	38202216	24992
726	7.004679	96993280	66203648	42939256	24992
727	11.047305	97263616	66203648	32688280	24992
728	9.78117	97263616	66203648	38944600	24992
729	11.38865	97263616	66203648	46061056	24992
730	14.455115	97263616	66727936	37605752	24992
731	13.302716	97263616	66727936	46224408	24992
732	17.252049	97263616	66727936	39336232	24992
733	19.154174	97263616	66727936	34488264	24992
734	17.131037	97263616	66727936	45480448	24992
735	20.981295	97263616	66727936	41097776	24992
736	23.314648	97263616	66727936	38377168	24992
737	24.381526	97263616	66727936	36845952	24992
738	25.901936	97533952	66727936	36384984	24992
739	27.04233	97533952	66727936	36871944	24992
740	28.380595	97533952	66727936	38012256	24992
741	29.430003	97533952	66727936	39815440	24992
742	2.435956	97533952	66727936	42974536	24992
743	3.861971	97533952	66727936	45381608	24992
744	7.820794	97804288	66727936	32672664	24992
745	6.568439	97804288	66727936	36678784	24992
746	7.683648	97804288	66727936	41482496	24992
747	8.722705	97804288	66727936	47090208	24992
748	12.433038	97804288	66727936	37221760	24992
749	11.411592	97804288	66727936	44470800	24992
750	15.419674	97804288	66727936	36646400	24992
751	14.014645	97804288	66727936	45483184	24992
752	17.777603	97804288	67252224	39118360	24992
753	19.907947	97804288	67252224	34730528	24992
754	17.829062	97804288	67252224	45998024	24992
755	21.20726	98074624	67252224	41909464	24992
756	23.850887	98074624	67252224	39418136	24992
757	25.263445	98074624	67252224	38226272	24992
758	26.760577	98074624	67252224	38041208	24992
759	27.721128	98074624	67252224	38684592	24992
760	29.261249	98074624	67252224	40056392	24992
761	30.146093	98074624	67252224	42038904	24992
762	2.508028	98074624	67252224	45304960	24992
763	3.800533	98074624	67252224	47761264	24992
764	7.740748	98344960	67252224	34758136	24992
765	6.452221	98344960	67252224	38874568	24992
766	7.868172	98344960	67252224	43808344	24992
767	11.792687	98344960	67252224	33917752	24992
768	10.342157	98344960	67252224	40488224	24992
769	11.721143	98344960	67252224	47882056	24992
770	15.34134	98344960	67252224	39727744	24992
771	17.590522	98344960	67252224	33930968	24992
772	15.58677	98344960	67252224	43828136	24992
773	19.997065	98615296	67252224	38905968	24992
774	21.536293	98615296	67776512	35769112	24992
775	19.57016	98615296	67776512	48163400	24992
776	23.171075	98615296	67776512	44964504	24992
777	25.415603	98615296	67776512	43159424	24992
778	26.683238	98615296	68300800	42497856	24992
779	28.196298	98615296	68300800	42834616	24992
780	29.950395	98615296	68300800	43978928	24992
781	30.50248	98885632	68300800	45717976	24992
782	5.220632	98885632	68300800	32867344	24992
783	3.946101	98885632	68300800	35382496	24992
784	5.222666	98885632	68300800	38740760	24992
785	6.681458	98885632	68300800	42964392	24992
786	7.9988	98885632	68300800	48002256	24992
787	11.50156	98885632	68300800	37635360	24992
788	10.607341	98885632	68300800	44368720	24992
789	15.058179	99155968	68300800	36302152	24992
790	13.060634	99155968	68300800	44731296	24992
791	17.603749	99155968	68300800	38302240	24992
792	16.243906	99155968	68300800	48413168	24992
793	20.03977	99155968	68300800	43052552	24992
794	22.521146	99155968	68300800	39497624	24992
795	23.685123	99155968	68300800	37448968	24992
796	24.918112	99155968	68300800	36673936	24992
797	26.790856	99155968	68300800	36895656	24992
798	28.021379	99426304	68300800	37945800	24992
799	28.854366	99426304	68825088	39573872	24992
800	30.524061	99426304	68825088	41798816	24992
801	32.019888	99426304	68825088	44567056	24992
802	2.698485	99426304	68825088	48544824	24992
803	6.616422	99696640	68825088	34973464	24992
804	5.486217	99696640	68825088	38412528	24992
805	6.674459	99696640	68825088	42716880	24992
806	8.134975	99696640	68825088	47878968	24992
807	12.053063	99696640	68825088	37739152	24992
808	10.955538	99696640	68825088	44622112	24992
809	15.176315	99696640	68825088	36839312	24992
810	13.60418	99696640	68825088	45466792	24992
811	18.298272	99696640	68825088	39267000	24992
812	19.901367	99696640	68825088	35047264	24992
813	17.699584	99696640	68825088	46261168	24992
814	22.140088	99696640	68825088	42562480	24992
815	24.060187	99966976	68825088	40366016	24992
816	25.642498	99966976	68825088	39448352	24992
817	27.440944	99966976	68825088	39576480	24992
818	28.961151	99966976	68825088	40572320	24992
819	30.306135	99966976	68825088	42305664	24992
820	31.141013	99966976	68825088	44565472	24992
821	32.83873	99966976	69349376	47282680	24992
822	5.342709	100237312	69349376	35087816	24992
823	3.982152	100237312	69349376	37722864	24992
824	5.454786	100237312	69349376	41233568	24992
825	7.0343	100237312	69349376	45631864	24992
826	11.581285	100237312	69349376	35224368	24992
827	9.596523	100237312	69349376	41379408	24992
828	11.350884	100237312	69349376	48420128	24992
829	15.21243	100237312	69349376	40213784	24992
830	14.058708	100237312	69349376	49019512	24992
831	17.587652	100237312	69349376	42452704	24992
832	20.051342	100507648	69349376	38011736	24992
833	18.039436	100507648	69349376	49477312	24992
834	22.07498	100507648	69349376	45544216	24992
835	24.2222	100507648	69349376	43156648	24992
836	26.006744	100507648	69349376	42119768	24992
837	27.4909	100507648	69349376	42184096	24992
838	29.029363	100507648	69349376	43110208	24992
839	30.395339	100507648	69349376	44787208	24992
840	32.428263	100507648	69873664	47081448	24992
841	32.277481	100777984	69873664	49959968	24992
842	2.796583	100777984	69873664	40722264	24992
843	4.166739	100777984	69873664	43462032	24992
844	5.629418	100777984	69873664	47116584	24992
845	10.144049	100777984	69873664	35983184	24992
846	8.403976	100777984	69873664	41485512	24992
847	9.831702	100777984	69873664	47890640	24992
848	14.309467	101048320	69873664	39259832	24992
849	12.856006	101048320	69873664	47510912	24992
850	17.325439	101048320	69873664	40874896	24992
851	19.178881	101048320	69873664	36355872	24992
852	17.16302	101048320	69873664	47415664	24992
853	21.867848	101048320	70397952	43630800	24992
854	23.780439	101048320	70397952	41417544	24992
855	24.959217	101048320	70397952	40496024	24992
856	26.418204	101048320	70397952	40724424	24992
857	28.06969	101048320	70397952	41805112	24992
858	29.552088	101318656	70397952	43662752	24992
859	31.102965	101318656	70397952	46168744	24992
860	32.310669	101318656	70397952	49116408	24992
861	38.259237	101588992	70397952	39293120	24992
862	3.223162	104562688	73543680	49458928	24992
863	4.952746	104562688	73543680	52292216	24992
864	10.032299	104833024	74067968	40298912	24992
865	8.043755	104833024	74067968	45048352	24992
866	9.506795	104833024	74067968	50724976	24992
867	15.07293	104833024	74067968	41559912	24992
868	18.242502	104833024	74067968	49136760	24992
869	22.620269	102985728	72495104	19873184	24992
870	14.704109	102985728	72495104	29382672	24992
871	16.294028	103251968	72495104	23381904	24992
872	18.369364	103251968	72495104	19444032	24992
873	20.276404	103251968	72495104	17134400	24992
874	21.741955	103251968	72495104	16179272	24992
875	22.755012	103251968	72495104	16357400	24992
876	24.626971	103251968	72495104	17441352	24992
877	26.392062	103251968	72495104	19308632	24992
878	28.046475	103251968	72495104	21796816	24992
879	28.914396	103251968	72495104	24818552	24992
880	30.107022	103251968	72495104	28266416	24992
881	33.902105	103251968	72495104	18765800	24992
882	2.902903	103251968	72495104	29481576	24992
883	4.321652	103251968	72495104	32369296	24992
884	6.705344	103251968	72495104	20427856	24992
885	7.455375	103251968	72495104	25258736	24992
886	8.543695	103251968	72495104	31055192	24992
887	10.903206	103251968	72495104	21838984	24992
888	11.646037	103251968	72495104	29595352	24992
889	13.785062	103251968	72495104	22498136	24992
890	14.571516	103251968	72495104	32180648	24992
891	16.540591	103251968	72495104	26556744	24992
892	19.089625	103251968	72495104	22931400	24992
893	20.639228	103251968	72495104	20942896	24992
894	21.922055	103251968	72495104	20246992	24992
895	23.578692	103251968	72495104	20708680	24992
896	25.404997	103251968	72495104	22033912	24992
897	26.802418	103251968	72495104	24119272	24992
898	27.882646	103251968	72495104	26865696	24992
899	29.599817	103251968	72495104	30065216	24992
900	33.250061	103251968	72495104	20603296	24992
901	35.759011	104333312	73019392	29665608	24992
902	3.482053	104333312	73019392	21033456	24992
903	4.455663	104333312	73019392	23987192	24992
904	5.959525	104333312	73019392	27931168	24992
905	7.32967	104333312	73019392	32845392	24992
906	9.582422	104333312	73019392	23069288	24992
907	10.59332	104333312	73019392	29956328	24992
908	12.532371	104333312	73019392	22667864	24992
909	13.153702	104333312	73019392	31534232	24992
910	16.032396	104333312	73019392	25989856	24992
911	16.267551	104333312	73019392	36886848	24992
912	18.315627	104333312	73019392	32321168	24992
913	20.13094	104333312	73019392	29587904	24992
914	22.173507	104333312	73019392	28320976	24992
915	24.003737	104333312	73019392	28277344	24992
916	25.703551	104333312	73019392	29237104	24992
917	26.736235	104333312	73019392	30978240	24992
918	28.511024	104333312	73019392	33469488	24992
919	29.301091	104333312	73019392	36562960	24992
920	32.621184	104333312	73019392	26641320	24992
921	32.64493	104333312	73019392	32980704	24992
922	2.993995	104333312	73019392	27428504	24992
923	4.376602	104333312	73019392	30433040	24992
924	6.2915	104333312	73019392	34462936	24992
925	10.668187	104333312	73019392	26451152	24992
926	9.045961	104333312	73019392	32479608	24992
927	10.608278	104333312	73019392	39525424	24992
928	12.670321	104333312	73019392	31485512	24992
929	13.599678	104333312	73019392	40552384	24992
930	15.427419	104333312	73019392	34260592	24992
931	18.161989	104333312	73019392	30124504	24992
932	19.363826	104333312	73019392	27667688	24992
933	19.820504	104333312	73019392	40757320	24992
934	21.471537	104333312	73019392	38409528	24992
935	23.61071	104333312	73019392	37584208	24992
936	25.429183	104333312	73019392	37911496	24992
937	26.907753	104333312	73019392	39141520	24992
938	30.054086	104333312	73019392	27946960	24992
939	33.802369	104333312	73019392	35919104	24992
940	32.07947	104333312	73019392	41118624	24992
941	35.188397	104333312	73019392	33330056	24992
942	3.089432	104333312	73019392	45497728	24992
943	5.546635	104333312	73019392	33011120	24992
944	6.252952	104333312	73019392	37139344	24992
945	7.741725	104333312	73019392	42299344	24992
946	9.879301	104333312	73019392	33101776	24992
947	11.367995	104333312	73019392	40286864	24992
948	14.646795	104333312	73019392	33470048	24992
949	14.262136	104333312	73019392	42852752	24992
950	17.022934	104333312	73019392	37560216	24992
951	18.207214	104333312	73019392	34446360	24992
952	18.710354	104333312	73019392	47015632	24992
953	20.755888	104333312	73019392	44053632	24992
954	22.779941	104333312	73019392	42663880	24992
955	24.671465	104333312	73019392	42685248	24992
956	26.361176	104333312	73019392	43718200	24992
957	27.811019	104333312	73019392	45597376	24992
958	28.834834	104333312	73019392	48188704	24992
959	32.639169	104333312	73019392	37714936	24992
960	32.918174	104333312	73019392	43750656	24992
961	36.944388	104333312	73019392	36916920	24992
962	3.161301	104333312	73019392	49555464	24992
963	5.549022	104333312	73019392	37033960	24992
964	6.24272	104333312	73019392	41197640	24992
965	8.079468	104333312	73019392	46449408	24992
966	10.582281	104333312	73019392	37332736	24992
967	11.129723	104333312	73019392	44630928	24992
968	13.635122	104333312	73019392	37923224	24992
969	14.130472	104333312	73019392	47312512	24992
970	17.093041	104333312	73019392	42236432	24992
971	19.166287	104333312	73019392	39140568	24992
972	18.831971	104333312	73019392	51736080	24992
973	20.838812	104333312	73019392	49013104	24992
974	23.127934	104333312	73019392	47735688	24992
975	25.268474	104333312	73019392	47781288	24992
976	26.311085	104333312	73019392	48849168	24992
977	28.269119	104333312	73019392	50815024	24992
978	30.53969	104333312	73019392	40154576	24992
979	36.507811	106225664	75116544	48810288	24992
980	37.830707	106496000	75116544	54694288	24992
981	54.458518	105164800	76689408	19029712	24992
982	3.109758	107593728	76689408	30030192	24992
983	6.013928	107593728	76689408	17897688	24992
984	6.498827	107593728	76689408	22139664	24992
985	8.049746	107593728	76689408	27444144	24992
986	10.564604	107593728	76689408	18351936	24992
987	11.197171	107593728	76689408	25792608	24992
988	13.796795	107593728	76689408	19127744	24992
989	14.578951	107593728	76689408	28693056	24992
990	16.878843	107593728	76689408	23629680	24992
991	19.187689	107593728	76689408	20584232	24992
992	20.967135	107593728	76689408	19150640	24992
993	23.25558	107593728	76689408	19032168	24992
994	24.190178	107593728	76689408	19968784	24992
995	25.796961	107593728	76689408	21873304	24992
996	28.451547	107593728	76689408	24561720	24992
997	29.463536	107593728	76689408	27715768	24992
998	30.521934	107593728	76689408	31378576	24992
999	33.546747	107593728	76689408	22294448	24992
1000	36.731134	107593728	76689408	32422848	24992
