x	Duration	RSS	HeapTotal	HeapUsed	External
0	NA	91729920	60436480	11745168	24992
1	0.396229	91729920	60436480	11793704	24992
2	0.303595	91729920	60436480	11865408	24992
3	0.347765	91729920	60436480	11962320	24992
4	0.418351	91729920	60436480	12085624	24992
5	0.494972	91729920	60436480	12236768	24992
6	0.576482	91729920	60436480	12416528	24992
7	0.85639	91729920	60436480	12625728	24992
8	0.462442	91729920	60436480	12865368	24992
9	0.742545	91729920	60436480	13137328	24992
10	0.558967	91729920	60436480	13441576	24992
11	0.602058	91729920	60436480	13779016	24992
12	0.658759	91729920	60436480	14151248	24992
13	0.951843	91729920	60436480	14562832	24992
14	1.152823	91729920	60436480	15007248	24992
15	0.878162	91729920	60436480	15489120	24992
16	0.890958	91729920	60436480	16011344	24992
17	1.125935	91729920	60436480	16571720	24992
18	0.97248	91729920	60436480	17172680	24992
19	1.024018	91729920	60436480	17815536	24992
20	1.231796	91729920	60436480	18500104	24992
21	1.212381	91729920	60436480	19229024	24992
22	0.166624	91729920	60436480	19968336	24992
23	0.251312	91729920	60436480	20101856	24992
24	0.329118	91729920	60436480	20281320	24992
25	0.398319	91729920	60436480	20508400	24992
26	0.680256	91729920	60436480	20784768	24992
27	0.577993	91729920	60436480	21110728	24992
28	0.633272	91729920	60436480	21487296	24992
29	0.715031	91729920	60436480	21915320	24992
30	0.874057	91729920	60436480	22396768	24992
31	0.963594	91729920	60436480	22932296	24992
32	0.960966	91729920	60436480	23521376	24992
33	1.046674	91729920	60436480	24165632	24992
34	1.136119	91729920	60436480	24866056	24992
35	1.442049	91729920	60436480	25623552	24992
36	1.317191	91729920	60436480	26439008	24992
37	1.407487	91729920	60436480	27313320	24992
38	1.691894	91729920	60436480	28249416	24992
39	2.600511	91729920	60436480	12959768	24992
40	1.802048	91729920	60436480	14018640	24992
41	1.778246	91729920	60436480	15140336	24992
42	0.225868	91729920	60436480	16319416	24992
43	0.342951	91729920	60436480	16512064	24992
44	0.46363	91729920	60436480	16770144	24992
45	0.605746	91729920	60436480	17095184	24992
46	0.720973	91729920	60436480	17487432	24992
47	0.829434	91729920	60436480	17947768	24992
48	0.952969	91729920	60436480	18477208	24992
49	1.074468	91729920	60436480	19076760	24992
50	1.206347	91729920	60436480	19748208	24992
51	1.431746	91729920	60436480	20494456	24992
52	1.442189	91729920	60436480	21314824	24992
53	1.6601	91729920	60436480	22211912	24992
54	1.560293	91729920	60436480	23184864	24992
55	1.687685	91729920	60436480	24235688	24992
56	1.796412	91729920	60436480	25365496	24992
57	1.933041	91729920	60436480	26574344	24992
58	2.043814	91729920	60436480	27865560	24992
59	3.429262	91729920	60436480	13114712	24992
60	2.493672	91729920	60436480	14570288	24992
61	2.610483	91729920	60436480	16108928	24992
62	0.325764	91729920	60436480	17749640	24992
63	0.469121	91729920	60436480	18004480	24992
64	0.578264	91729920	60436480	18345416	24992
65	0.942376	91729920	60436480	18774920	24992
66	0.840112	91729920	60436480	19291248	24992
67	1.01626	91729920	60436480	19905336	24992
68	1.123136	91729920	60436480	20600320	24992
69	1.255568	91729920	60436480	21385928	24992
70	1.406566	91729920	60436480	22264280	24992
71	1.55094	91729920	60436480	23235008	24992
72	1.833722	91729920	60436480	24302680	24992
73	1.850814	91729920	60436480	25461416	24992
74	1.988389	91729920	60436480	26715400	24992
75	2.143614	91729920	60436480	28065864	24992
76	3.432476	91729920	60436480	13405760	24992
77	2.562623	91729920	60436480	14951312	24992
78	2.810555	91729920	60436480	16597824	24992
79	2.749762	91729920	60436480	18344336	24992
80	2.879058	91729920	60436480	20192128	24992
81	3.325916	91729920	60436480	22143600	24992
82	0.349617	91729920	60436480	24237360	24992
83	0.528406	91729920	60436480	24548064	24992
84	0.683547	91729920	60436480	24964408	24992
85	0.855441	91729920	60436480	25485240	24992
86	1.017318	91729920	60436480	26112960	24992
87	1.184721	91729920	60436480	26850960	24992
88	1.354776	91729920	60436480	27694368	24992
89	1.529062	91729920	60436480	28647072	24992
90	2.783132	91729920	60436480	13703800	24992
91	1.880701	91729920	60436480	14878608	24992
92	2.056713	91729920	60436480	16165488	24992
93	2.214648	91729920	60436480	17565312	24992
94	2.409575	91729920	60436480	19079016	24992
95	2.814577	91729920	60436480	20707776	24992
96	2.9877	91729920	60436480	22452000	24992
97	2.959791	91729920	60436480	24312896	24992
98	3.159896	91729920	60436480	26293224	24992
99	3.550491	91729920	60436480	28395320	24992
100	4.488516	91729920	60436480	14678464	24992
101	3.716899	91729920	60436480	17017368	24992
102	0.410266	91729920	60436480	19542800	24992
103	0.614503	91729920	60436480	19909280	24992
104	0.80903	91729920	60436480	20403096	24992
105	1.005563	91729920	60436480	21025200	24992
106	1.209779	91729920	60436480	21776920	24992
107	1.407289	91729920	60436480	22660176	24992
108	1.61058	91729920	60436480	23673056	24992
109	1.846448	91729920	60436480	24819040	24992
110	2.212813	91729920	60436480	26097664	24992
111	2.244131	91729920	60436480	27510056	24992
112	2.47816	91729920	60436480	29057168	24992
113	3.544768	91729920	60436480	14727304	24992
114	2.864823	91729920	60436480	16546656	24992
115	3.277448	91729920	60436480	18503752	24992
116	3.31111	91729920	60436480	20599048	24992
117	3.509427	91729920	60436480	22836040	24992
118	3.728135	91729920	60436480	25212784	24992
119	3.962355	91729920	60436480	27730680	24992
120	5.162751	91729920	60436480	14543576	24992
121	4.749292	91729920	60436480	17348552	24992
122	0.485142	91729920	60436480	20385528	24992
123	0.712468	91729920	60436480	20820464	24992
124	0.930369	91729920	60436480	21401152	24992
125	1.155166	91729920	60436480	22128648	24992
126	1.623592	91729920	60436480	23004304	24992
127	1.636284	91729920	60436480	24028560	24992
128	1.90313	91729920	60436480	25202376	24992
129	2.0927	91729920	60436480	26526712	24992
130	2.341048	91729920	60436480	28003480	24992
131	2.569091	91729920	60436480	29632472	24992
132	3.793999	91729920	60436480	15335216	24992
133	3.251173	91729920	60436480	17271680	24992
134	3.493167	91729920	60436480	19363248	24992
135	3.879462	91729920	60436480	21610896	24992
136	3.806357	91729920	60436480	24015784	24992
137	4.083954	91729920	60436480	26578208	24992
138	4.866499	91729920	60436480	29303184	24992
139	5.61927	91729920	60436480	16155344	24992
140	5.089833	91729920	60436480	19199032	24992
141	5.314091	91729920	60436480	22407424	24992
142	0.536453	91729920	60436480	25885472	24992
143	0.79993	91729920	60436480	26376096	24992
144	1.057157	91729920	60436480	27031840	24992
145	1.381607	91729920	60436480	27852040	24992
146	1.610121	91729920	60436480	28844648	24992
147	1.891109	91729920	60436480	29998640	24992
148	3.000453	91729920	60436480	15239464	24992
149	2.604395	91729920	60436480	16730624	24992
150	2.686972	91729920	60436480	18392544	24992
151	2.907872	91729920	60436480	20226128	24992
152	3.233137	91729920	60436480	22230568	24992
153	3.509541	91729920	60436480	24408176	24992
154	3.725244	91729920	60436480	26758992	24992
155	4.057816	91729920	60436480	29284280	24992
156	5.471372	91729920	60436480	15996328	24992
157	4.611308	91729920	60436480	18879160	24992
158	5.053426	91729920	60436480	21938968	24992
159	5.116564	91729920	60436480	25173672	24992
160	5.475107	91729920	60436480	28588760	24992
161	6.795953	91729920	60436480	16281440	24992
162	0.597481	91729920	60436480	20184840	24992
163	0.893172	91729920	60436480	20731336	24992
164	1.201301	91729920	60436480	21460640	24992
165	1.688334	91729920	60436480	22373952	24992
166	1.842834	91729920	60436480	23475000	24992
167	2.114131	91729920	60436480	24758832	24992
168	2.570428	91729920	60436480	26229264	24992
169	2.656591	91729920	60436480	27889592	24992
170	3.16026	91729920	60436480	29736856	24992
171	4.276348	91729920	60436480	15767568	24992
172	3.839826	91729920	60436480	17994392	24992
173	3.852848	91729920	60436480	20412616	24992
174	4.438643	91729920	60436480	23022736	24992
175	4.666512	91729920	60436480	25827536	24992
176	4.835807	91729920	60436480	28824768	24992
177	6.422178	91729920	60436480	16176680	24992
178	5.740247	91729920	60436480	19566400	24992
179	5.958908	91729920	60436480	23156960	24992
180	6.061826	91729920	60436480	26949696	24992
181	6.596829	91729920	60436480	30935576	24992
182	0.721411	91729920	60436480	19133608	24992
183	1.011249	91729920	60436480	19735944	24992
184	1.298736	91729920	60436480	20539624	24992
185	1.624637	91729920	60436480	21545616	24992
186	1.946567	91729920	60436480	22755384	24992
187	2.282219	91729920	60436480	24169296	24992
188	2.612247	91729920	60436480	25790536	24992
189	3.140757	91729920	60436480	27615568	24992
190	3.268268	91729920	60436480	29649360	24992
191	3.577922	91729920	60436480	31891504	24992
192	5.155141	91729920	60436480	18093280	24992
193	4.260802	91729920	60436480	20752808	24992
194	4.614393	91729920	60436480	23622840	24992
195	4.968549	91729920	60436480	26704448	24992
196	5.257258	91729920	60436480	29998640	24992
197	7.088741	91729920	60436480	17509792	24992
198	6.332293	91729920	60436480	21233512	24992
199	6.573812	91729920	60436480	25172648	24992
200	6.676433	91729920	60436480	29337984	24992
201	8.527296	91729920	60436480	17849976	24992
202	0.723383	91729920	60436480	22624448	24992
203	1.080562	91729920	60436480	23282544	24992
204	1.427761	91729920	60436480	24160568	24992
205	1.778796	91729920	60436480	25259520	24992
206	2.129446	91729920	60436480	26580696	24992
207	2.685626	91729920	60436480	28124512	24992
208	2.887091	91729920	60436480	29892384	24992
209	3.200878	91729920	60436480	31892992	24992
210	4.658166	91729920	60436480	17933560	24992
211	3.929039	91729920	60436480	20403376	24992
212	4.303914	91729920	60436480	23108736	24992
213	4.882177	91729920	60436480	26050640	24992
214	5.019363	91729920	60436480	29230088	24992
215	6.768196	91729920	60436480	16848856	24992
216	6.095373	91729920	60436480	20513816	24992
217	6.388469	91729920	60436480	24411088	24992
218	6.568155	91729920	60436480	28551520	24992
219	8.33249	91729920	60436480	17209400	24992
220	7.799513	91729920	60436480	21836768	24992
221	7.695418	91729920	60436480	26706496	24992
222	0.776934	91729920	60436480	32036648	24992
223	1.166859	91729920	60436480	32782584	24992
224	2.60454	91729920	60436480	17488792	24992
225	2.25949	91729920	60436480	18724440	24992
226	2.319	91729920	60436480	20206688	24992
227	2.706616	91729920	60436480	21946376	24992
228	3.329839	91729920	60436480	23928560	24992
229	3.692534	91729920	60436480	26164944	24992
230	3.886809	91729920	60436480	28651784	24992
231	4.290387	91729920	60436480	31391952	24992
232	5.791973	91729920	60436480	18316184	24992
233	5.065929	91729920	60436480	21569608	24992
234	5.723442	91729920	60436480	25082288	24992
235	6.322033	91729920	60436480	28848176	24992
236	6.475851	91729920	60436480	32869656	24992
237	8.013327	91729920	60436480	20855016	24992
238	7.210028	91729920	60436480	25398504	24992
239	8.047761	91729920	60436480	30201936	24992
240	9.162924	91729920	60436480	19351432	24992
241	8.610205	91729920	60436480	24676840	24992
242	0.850652	91729920	60436480	30498488	24992
243	1.2652	91729920	60436480	31293072	24992
244	1.675195	91729920	60436480	32357696	24992
245	3.190138	91729920	60436480	17523104	24992
246	2.726098	91729920	60436480	19116768	24992
247	2.931387	91729920	60436480	20978480	24992
248	3.341778	91729920	60436480	23109720	24992
249	3.992652	91729920	60436480	25511040	24992
250	4.197492	91729920	60436480	28183616	24992
251	4.608169	91729920	60436480	31128592	24992
252	6.554434	91729920	60436480	18376432	24992
253	5.538976	91729920	60436480	21866944	24992
254	6.108333	91729920	60436480	25649184	24992
255	6.361437	91729920	60436480	29694112	24992
256	8.60468	91729920	60436480	18247928	24992
257	7.563191	91729920	60436480	22842080	24992
258	7.711741	91729920	60436480	27716472	24992
259	8.369952	91729920	60436480	32870216	24992
260	10.678834	91729920	60436480	22113680	24992
261	9.165473	91729920	60436480	27828904	24992
262	1.989524	91729920	60436480	17856496	24992
263	1.427165	91729920	60436480	18707064	24992
264	1.899753	91729920	60436480	19851336	24992
265	2.375066	91729920	60436480	21270408	24992
266	2.831363	91729920	60436480	22980704	24992
267	3.383696	91729920	60436480	24972584	24992
268	3.595299	91729920	60436480	27251976	24992
269	4.04762	91729920	60436480	29819864	24992
270	4.704677	91729920	60436480	32678072	24992
271	6.281773	91729920	60436480	19721176	24992
272	5.725153	91729920	60436480	23161448	24992
273	6.163292	91729920	60436480	26893120	24992
274	6.553154	91729920	60436480	30927872	24992
275	8.089851	91729920	60436480	19369144	24992
276	7.456708	91729920	60436480	23988288	24992
277	7.824432	91729920	60436480	28897952	24992
278	8.373968	91729920	60436480	34106352	24992
279	10.419043	91729920	60436480	23275968	24992
280	9.518406	91729920	60436480	29083424	24992
281	11.17536	91729920	60436480	19593344	24992
282	0.976376	91729920	60436480	26268696	24992
283	1.453783	91729920	60436480	27175056	24992
284	1.920097	91729920	60436480	28383728	24992
285	2.561748	91729920	60436480	29906584	24992
286	2.910755	91729920	60436480	31723232	24992
287	3.367695	91729920	60436480	33845048	24992
288	5.143476	91729920	60436480	20051712	24992
289	4.576844	91729920	60436480	22789920	24992
290	5.048914	91729920	60436480	25834976	24992
291	5.524509	91729920	60436480	29187584	24992
292	5.973469	91729920	60436480	32850304	24992
293	7.941048	91729920	60436480	20779304	24992
294	6.775082	91729920	60436480	25067896	24992
295	7.451089	91729920	60436480	29665632	24992
296	7.995477	91729920	60436480	34576808	24992
297	9.899991	91729920	60436480	23460104	24992
298	9.289609	91729920	60436480	29002512	24992
299	9.544004	91729920	60436480	34862488	24992
300	11.077101	91729920	60436480	24674576	24992
301	10.290959	91729920	60436480	31174576	24992
302	1.035684	91729920	60436480	22469104	24992
303	1.545552	91729920	60436480	23431304	24992
304	2.045232	91729920	60436480	24714288	24992
305	2.741358	91729920	60436480	26319288	24992
306	3.110342	91729920	60436480	28247488	24992
307	3.572214	91729920	60436480	30500584	24992
308	4.098132	91729920	60436480	33080568	24992
309	5.983876	91729920	60436480	19937320	24992
310	5.134456	91729920	60436480	23175680	24992
311	6.045315	91729920	60436480	26732664	24992
312	6.144913	91729920	60436480	30618048	24992
313	6.863832	91729920	60436480	34832296	24992
314	8.472909	91729920	60436480	23102832	24992
315	7.794514	91729920	60436480	27978464	24992
316	8.563984	91729920	60436480	33185864	24992
317	10.407345	91729920	60436480	22646408	24992
318	9.347772	91729920	60436480	28523648	24992
319	10.068548	91729920	60436480	34734672	24992
320	11.914162	91729920	60436480	25004232	24992
321	11.33418	91729920	60436480	31888080	24992
322	1.143901	91729920	60436480	23559840	24992
323	1.717796	91729920	60436480	24577928	24992
324	2.269764	91729920	60436480	25935512	24992
325	2.849419	91729920	60436480	27633384	24992
326	3.435503	91729920	60436480	29675960	24992
327	3.988908	91729920	60436480	32057888	24992
328	4.641257	91729920	60436480	34783024	24992
329	6.458364	91729920	60436480	21636520	24992
330	5.453273	91729920	60436480	25051584	24992
331	6.171424	91729920	60436480	28818656	24992
332	6.618347	91729920	60436480	32926520	24992
333	8.959982	91729920	60436480	21411840	24992
334	8.033805	91729920	60436480	26216152	24992
335	8.286985	91729920	60436480	31370024	24992
336	10.313651	91729920	60436480	21144400	24992
337	9.438381	91729920	60436480	27007664	24992
338	10.131764	91729920	60436480	33221832	24992
339	12.19897	91729920	60436480	23820872	24992
340	11.371133	91729920	60436480	30741376	24992
341	13.467676	91729920	60436480	22390400	24992
342	1.185637	91729920	60436480	30370664	24992
343	1.728656	91729920	60436480	31444616	24992
344	2.504952	91729920	60436480	32876536	24992
345	2.912969	91729920	60436480	34667248	24992
346	5.087518	91729920	60436480	20693672	24992
347	4.347077	91729920	60436480	23205480	24992
348	4.637511	91729920	60436480	26079168	24992
349	5.219729	91729920	60436480	29315320	24992
350	5.744969	91729920	60436480	32916272	24992
351	8.069071	91729920	60436480	21027200	24992
352	6.974063	91729920	60436480	25358752	24992
353	7.707252	91729920	60436480	30055632	24992
354	8.205056	91729920	60436480	35122600	24992
355	10.158871	91729920	60436480	24370656	24992
356	9.629698	91729920	60436480	30172176	24992
357	10.173902	91729920	60436480	36345112	24992
358	12.135499	91729920	60436480	26517840	24992
359	11.556662	91729920	60436480	33456824	24992
360	13.484217	91729920	60436480	24794880	24992
361	12.269026	91729920	60436480	32465064	24992
362	1.47095	91729920	60436480	25096160	24992
363	1.905211	91729920	60436480	26226008	24992
364	2.464272	91729920	60436480	27732352	24992
365	3.062349	91729920	60436480	29626360	24992
366	3.822679	91729920	60436480	31896408	24992
367	4.308639	91729920	60436480	34539744	24992
368	6.493108	91729920	60436480	21553112	24992
369	5.798494	91729920	60436480	24957224	24992
370	6.203983	91729920	60436480	28743752	24992
371	6.933969	91729920	60436480	32919184	24992
372	9.202522	91729920	60436480	21662904	24992
373	8.354714	91729920	60436480	26610984	24992
374	8.693512	91729920	60436480	31938360	24992
375	11.224537	91729920	60436480	21985168	24992
376	10.356566	91729920	60436480	28090512	24992
377	10.478795	91729920	60436480	34584904	24992
378	12.892155	91729920	60436480	25430048	24992
379	11.877579	91729920	60436480	32699168	24992
380	14.194632	91729920	60436480	24612320	24992
381	13.436972	91729920	60436480	32665080	24992
382	1.344507	91729920	60436480	25771512	24992
383	2.059472	91729920	60436480	26959184	24992
384	2.5424	91729920	60436480	28539888	24992
385	3.173056	91729920	60436480	30516632	24992
386	3.810707	91729920	60436480	32894376	24992
387	4.450052	91729920	60436480	35666320	24992
388	6.819592	91729920	60436480	22742960	24992
389	5.760737	91729920	60436480	26317648	24992
390	6.608331	91729920	60436480	30289688	24992
391	7.348056	91729920	60436480	34663272	24992
392	9.510504	91729920	60436480	23470824	24992
393	8.660763	91729920	60436480	28650280	24992
394	9.321265	91729920	60436480	34236872	24992
395	11.57542	91729920	60436480	24321992	24992
396	10.439496	91729920	60436480	30727072	24992
397	13.772916	91729920	60436480	22140888	24992
398	11.763721	91729920	60436480	29353168	24992
399	12.590152	91729920	60436480	36974248	24992
400	15.050293	91729920	60436480	28703824	24992
401	13.672269	91729920	60436480	37148792	24992
402	1.405443	91729920	60436480	30105496	24992
403	2.256594	91729920	60436480	31346944	24992
404	2.663643	91729920	60436480	33002072	24992
405	3.321315	91729920	60436480	35071768	24992
406	3.991008	91729920	60436480	37557336	24992
407	6.212637	91729920	60436480	24144656	24992
408	5.366272	91729920	60436480	27464576	24992
409	6.283617	91729920	60436480	31202120	24992
410	6.929671	91729920	60436480	35363160	24992
411	9.143411	91729920	60436480	23924024	24992
412	8.260879	91729920	60436480	28925536	24992
413	8.984675	91729920	60436480	34348848	24992
414	11.414052	91729920	60436480	24358984	24992
415	10.121263	91729920	60436480	30626392	24992
416	10.776894	91729920	60436480	37325272	24992
417	14.105007	91729920	60436480	28127080	24992
418	12.281204	91729920	60436480	35680584	24992
419	14.953069	91729920	60436480	27646304	24992
420	13.859806	91729920	60436480	36082472	24992
421	16.275902	91729920	60436480	28893960	24992
422	2.959885	91729920	60436480	22415312	24992
423	2.198879	91729920	60436480	23763320	24992
424	2.870556	91729920	60436480	25567032	24992
425	3.490655	91729920	60436480	27815280	24992
426	4.195048	91729920	60436480	30511064	24992
427	4.904075	91729920	60436480	33667720	24992
428	5.836874	91729920	60436480	37282112	24992
429	8.201072	91729920	60436480	25127248	24992
430	7.064497	91729920	60436480	29640504	24992
431	7.709557	91729920	60436480	34617168	24992
432	10.777033	91729920	60436480	24225640	24992
433	9.48298	91729920	60436480	30109896	24992
434	9.909931	91729920	60436480	36457896	24992
435	12.298118	91729920	60436480	27135416	24992
436	11.588625	91729920	60436480	34392136	24992
437	14.292976	91729920	60436480	26310088	24992
438	13.755166	91729920	60436480	34500432	24992
439	15.613587	91729920	60436480	27327648	24992
440	14.240772	91729920	60436480	36441952	24992
441	17.363442	91729920	60436480	29945960	24992
442	1.539236	91729920	60436480	25363464	24992
443	2.229974	91729920	60436480	26772688	24992
444	3.084405	91729920	60436480	28642464	24992
445	3.913854	91729920	60436480	30980176	24992
446	4.556242	91729920	60436480	33797400	24992
447	5.188449	91729920	60436480	37079208	24992
448	8.114459	91729920	60436480	24756960	24992
449	6.644605	91729920	60436480	28992528	24992
450	7.732819	91729920	60436480	33704528	24992
451	8.15713	91729920	60436480	38883632	24992
452	10.824467	91729920	60436480	28135208	24992
453	9.941855	91729920	60436480	34256184	24992
454	12.572115	91729920	60436480	25138312	24992
455	11.25885	91729920	60436480	32215480	24992
456	14.390541	91729920	60436480	24390888	24992
457	12.855183	91729920	60436480	32423992	24992
458	15.851251	91729920	60436480	25485576	24992
459	14.872509	91729920	60436480	34479680	24992
460	17.756255	91729920	60436480	28244208	24992
461	15.84843	91729920	60436480	38206448	24992
462	1.593938	91729920	60436480	32892136	24992
463	2.527295	91729920	60436480	34350632	24992
464	3.035818	91729920	60436480	36294752	24992
465	3.789295	91729920	60436480	38737320	24992
466	6.458005	91729920	60436480	25406184	24992
467	5.811969	91729920	60436480	28824600	24992
468	6.201107	91729920	60436480	32731712	24992
469	6.937868	91729920	60436480	37126288	24992
470	9.882448	91729920	60436480	25972632	24992
471	9.237259	91729920	60436480	31356200	24992
472	9.177421	91729920	60436480	37227376	24992
473	12.18273	91729920	60436480	27577720	24992
474	10.964545	91729920	60436480	34431400	24992
475	13.753562	91729920	60436480	26166632	24992
476	12.920771	91729920	60436480	34023000	24992
477	15.554606	91729920	60436480	26812320	24992
478	13.929437	91729920	60436480	35661336	24992
479	17.534742	91729920	60436480	29185368	24992
480	16.704174	91729920	60436480	39050120	24992
481	18.236983	91729920	60436480	33121824	24992
482	1.676195	91729920	60960768	29084664	24992
483	2.467187	91729920	60960768	30603624	24992
484	3.310529	91729920	60960768	32639688	24992
485	4.227578	91729920	60960768	35192848	24992
486	4.838536	91729920	60960768	38231792	24992
487	7.71073	91729920	60960768	25707536	24992
488	6.736135	91729920	60960768	29752864	24992
489	7.52336	91729920	60960768	34331272	24992
490	7.933309	91729920	60960768	39418296	24992
491	11.021838	91729920	60960768	28671624	24992
492	9.795375	91729920	60960768	34764144	24992
493	12.764326	91729920	60960768	25762176	24992
494	11.599705	91729920	60960768	32883336	24992
495	14.505074	92000256	60960768	25221440	24992
496	13.225354	92000256	60960768	33368840	24992
497	16.313403	92000256	60960768	26673952	24992
498	14.503252	92000256	60960768	35870784	24992
499	17.478216	92000256	60960768	29853840	24992
500	16.458424	92000256	60960768	40090608	24992
501	19.241977	92000256	60960768	34438744	24992
502	1.724525	92000256	60960768	30701064	24992
503	2.562109	92000256	60960768	32271336	24992
504	3.442553	92000256	60960768	34364320	24992
505	4.352624	92000256	60960768	36980872	24992
506	5.150543	92000256	60960768	40122616	24992
507	7.84982	92270592	60960768	27524392	24992
508	6.787701	92270592	60960768	31717992	24992
509	7.395753	92270592	60960768	36493752	24992
510	10.598528	92270592	60960768	25941160	24992
511	9.518657	92270592	60960768	31723864	24992
512	10.310138	92270592	60960768	38107208	24992
513	13.156109	92270592	60960768	28926984	24992
514	11.918679	92270592	60960768	36300064	24992
515	14.928375	92270592	60960768	28476592	24992
516	13.618613	92270592	60960768	36916304	24992
517	16.583398	92270592	60960768	30086992	24992
518	15.04215	92270592	60960768	39599440	24992
519	18.349558	92270592	60960768	33412496	24992
520	19.576358	92270592	60960768	28712464	24992
521	18.33571	92270592	60960768	39849152	24992
522	1.726424	92270592	60960768	35811376	24992
523	2.551073	92270592	60960768	37460464	24992
524	3.398791	92270592	60960768	39627808	24992
525	6.321116	92270592	60960768	26239440	24992
526	5.206457	92270592	60960768	29492704	24992
527	6.215883	92270592	60960768	33290064	24992
528	6.846533	92270592	60960768	37645304	24992
529	10.197169	92270592	60960768	26670776	24992
530	8.994324	92270592	60960768	32107160	24992
531	9.855884	92270592	60960768	38090752	24992
532	12.65926	92270592	60960768	28703856	24992
533	11.428689	92270592	60960768	35786312	24992
534	14.556707	92270592	60960768	27817576	24992
535	13.152382	92270592	60960768	36001984	24992
536	16.538819	92270592	60960768	29117352	24992
537	15.801596	92270592	60960768	38428208	24992
538	18.344535	92270592	60960768	32301112	24992
539	19.241541	92270592	60960768	27649728	24992
540	18.080257	92270592	60960768	38618880	24992
541	20.545832	92270592	60960768	34121944	24992
542	1.854495	92270592	60960768	31465592	24992
543	2.774784	92270592	60960768	33147440	24992
544	3.674097	92270592	60960768	35389024	24992
545	4.672829	92270592	60960768	38191584	24992
546	5.30285	92270592	60960768	41556152	24992
547	8.588801	92270592	60960768	29132808	24992
548	7.116825	92270592	60960768	33636384	24992
549	8.046495	92270592	60960768	38699880	24992
550	11.236022	92270592	60960768	28455088	24992
551	9.980649	92270592	60960768	34650448	24992
552	10.863816	92270592	60960768	41410080	24992
553	13.921608	92270592	60960768	32451248	24992
554	12.781251	92270592	60960768	40359512	24992
555	16.004836	92270592	60960768	32685200	24992
556	14.405774	92270592	60960768	41732416	24992
557	17.480743	92270592	60960768	34936056	24992
558	18.906673	92270592	61485056	29807392	24992
559	17.553074	92270592	61485056	40568208	24992
560	20.364941	92270592	62009344	35703184	24992
561	21.483784	92270592	62009344	32109144	24992
562	1.913222	92270592	62009344	30233136	24992
563	2.755962	92270592	62009344	31981280	24992
564	3.678508	92270592	62009344	34297328	24992
565	4.66972	92270592	62009344	37200768	24992
566	5.617839	92270592	62009344	40676912	24992
567	8.700236	92540928	62009344	28652968	24992
568	7.5547	92540928	62009344	33299464	24992
569	8.302749	92540928	62009344	38530120	24992
570	11.667369	92540928	62009344	28554352	24992
571	10.527063	92540928	62009344	34961408	24992
572	11.366661	92540928	62009344	41953312	24992
573	14.970202	92540928	62009344	33240776	24992
574	13.254253	92540928	62009344	41409928	24992
575	16.849121	92811264	62009344	33933384	24992
576	17.942776	92811264	62009344	28124528	24992
577	16.844244	92811264	62009344	38057768	24992
578	19.577226	92811264	62009344	32831712	24992
579	20.790056	92811264	62009344	28969320	24992
580	18.833088	92811264	62009344	40682592	24992
581	22.361747	92811264	62009344	36847616	24992
582	1.952126	93081600	62533632	34796728	24992
583	2.904577	93081600	62533632	36590336	24992
584	3.841473	93081600	62533632	38980976	24992
585	4.965117	93081600	62533632	41969360	24992
586	7.792219	93081600	62533632	29373856	24992
587	6.890442	93081600	62533632	33568664	24992
588	7.59483	93081600	62533632	38356712	24992
589	10.88536	93081600	62533632	28043888	24992
590	9.825564	93081600	62533632	34057008	24992
591	10.680841	93081600	62533632	40655624	24992
592	13.664916	93081600	62533632	31825536	24992
593	12.94301	93081600	62533632	39633384	24992
594	15.982292	93351936	62533632	32163576	24992
595	14.72079	93351936	62533632	41206896	24992
596	17.817419	93351936	62533632	34695880	24992
597	19.366214	93351936	62533632	29756120	24992
598	17.749664	93351936	62533632	40608464	24992
599	22.18558	93351936	62533632	36014776	24992
600	22.424715	93351936	62533632	32750936	24992
601	23.408187	93351936	62533632	30603624	24992
602	4.042739	93622272	62533632	28183192	24992
603	2.967688	93622272	62533632	30033440	24992
604	3.965093	93622272	62533632	32498296	24992
605	4.928382	93622272	62533632	35579792	24992
606	6.131494	93622272	62533632	39295472	24992
607	9.739831	93622272	63057920	27907696	24992
608	7.902335	93622272	63057920	32844280	24992
609	9.090674	93622272	63057920	38408960	24992
610	12.526981	93622272	63057920	28936664	24992
611	11.291516	93622272	63057920	35737264	24992
612	11.930609	93622272	63057920	43180568	24992
613	16.557017	93892608	63057920	34926128	24992
614	16.894115	93892608	63057920	28467592	24992
615	15.034495	93892608	63057920	37766352	24992
616	18.97319	93892608	63057920	32174792	24992
617	17.054433	93892608	63057920	42738048	24992
618	20.700027	93892608	63057920	37636544	24992
619	22.098474	93892608	63057920	33962552	24992
620	22.755251	93892608	63057920	31449344	24992
621	24.35653	94162944	63057920	29971608	24992
622	4.334537	94162944	63582208	28185400	24992
623	3.037196	94162944	63582208	30091384	24992
624	4.08926	94162944	63582208	32630768	24992
625	5.083614	94162944	63582208	35805720	24992
626	6.076771	94162944	63582208	39616384	24992
627	9.76586	94162944	63582208	28414464	24992
628	8.509875	94162944	63582208	33512592	24992
629	9.158122	94162944	63582208	39236608	24992
630	12.75415	94162944	63582208	29971736	24992
631	11.460594	94162944	63582208	37001064	24992
632	15.034969	94433280	63582208	29327832	24992
633	13.329431	94433280	63582208	37616896	24992
634	17.498678	94433280	63582208	31157672	24992
635	15.363635	94433280	63582208	40741216	24992
636	19.326139	94433280	63582208	35108080	24992
637	20.658222	94433280	63582208	30987816	24992
638	19.126724	94433280	63582208	42528568	24992
639	22.150465	94433280	63582208	38565912	24992
640	23.237477	94703616	63582208	35850096	24992
641	25.28632	94703616	63582208	34196584	24992
642	2.163592	94703616	63582208	34088352	24992
643	3.133649	94703616	63582208	36055448	24992
644	4.204987	94703616	63582208	38670160	24992
645	5.382931	94703616	63582208	41937424	24992
646	8.998966	94703616	64106496	29910240	24992
647	7.510571	94703616	64106496	34519064	24992
648	8.339397	94703616	64106496	39771216	24992
649	12.203433	94703616	64106496	30034840	24992
650	10.643535	94703616	64106496	36606616	24992
651	11.745302	94973952	64106496	43861120	24992
652	15.131196	94973952	64106496	35429240	24992
653	13.90585	94973952	64106496	43985616	24992
654	17.186398	94973952	64106496	36891984	24992
655	18.960728	94973952	64106496	31527184	24992
656	17.082242	94973952	64106496	42091016	24992
657	21.311788	94973952	64630784	37254304	24992
658	22.358917	94973952	64630784	33883704	24992
659	23.558462	95244288	64630784	31659128	24992
660	21.739779	95244288	64630784	44846800	24992
661	25.129013	95244288	64630784	42289328	24992
662	2.231683	95244288	64630784	41491168	24992
663	3.346755	95244288	64630784	43508192	24992
664	6.716745	95244288	64630784	30134728	24992
665	5.459342	95244288	64630784	33496728	24992
666	6.628829	95244288	64630784	37530336	24992
667	7.509462	95244288	64630784	42240328	24992
668	11.267728	95514624	64630784	31715808	24992
669	9.809776	95514624	64630784	37774408	24992
670	11.051654	95514624	64630784	44528456	24992
671	14.786176	95514624	64630784	35649912	24992
672	13.035345	95514624	64630784	43752544	24992
673	16.733565	95514624	64630784	36322448	24992
674	18.193997	95514624	64630784	30779784	24992
675	16.610167	95514624	64630784	40912944	24992
676	20.341391	95514624	64630784	36038336	24992
677	21.648144	95514624	64630784	32548096	24992
678	20.810631	95514624	64630784	44751160	24992
679	23.629109	95784960	64630784	41327544	24992
680	24.535162	95784960	65155072	39130808	24992
681	26.218576	95784960	65155072	37958320	24992
682	2.447354	95784960	65155072	38360184	24992
683	3.301886	95784960	65155072	40433968	24992
684	4.439235	95784960	65155072	43201944	24992
685	8.427209	96055296	65155072	30725344	24992
686	6.903856	96055296	65155072	34878536	24992
687	7.755987	96055296	65155072	39724984	24992
688	8.927454	96055296	65155072	45255864	24992
689	12.651448	96055296	65155072	35183280	24992
690	11.328705	96055296	65155072	42135176	24992
691	14.975706	96055296	65155072	33936928	24992
692	13.370399	96055296	65155072	42274520	24992
693	17.642732	96055296	65155072	35385224	24992
694	15.585831	96055296	65155072	45114760	24992
695	19.831923	96055296	65155072	39249696	24992
696	21.170652	96055296	65155072	34991392	24992
697	22.780962	96325632	65155072	32064440	24992
698	20.880435	96325632	65155072	44631776	24992
699	23.988085	96325632	65155072	41680904	24992
700	25.929927	96325632	65679360	39813288	24992
701	26.981968	96325632	65679360	38971208	24992
702	2.353333	96325632	65679360	39761368	24992
703	3.531151	96325632	65679360	41892152	24992
704	4.580735	96325632	65679360	44729152	24992
705	8.851083	96595968	65679360	32142744	24992
706	6.805775	96595968	65679360	36399480	24992
707	7.980142	96595968	65679360	41377320	24992
708	12.222118	96595968	65679360	31378600	24992
709	10.488241	96595968	65679360	37794496	24992
710	11.403923	96595968	65679360	44901456	24992
711	15.443623	96595968	65679360	36528576	24992
712	13.973028	96595968	65679360	45092144	24992
713	17.897305	96595968	65679360	38155344	24992
714	19.159207	96595968	65679360	32988712	24992
715	17.584458	96595968	65679360	43694576	24992
716	21.505239	96866304	65679360	39104720	24992
717	22.939689	96866304	65679360	36001192	24992
718	24.812241	96866304	66203648	34060368	24992
719	26.237559	96866304	66203648	33146224	24992
720	26.994724	96866304	66203648	33073584	24992
721	28.233267	96866304	66203648	33721360	24992
722	2.579596	96866304	66203648	35878312	24992
723	3.48911	96866304	66203648	38071904	24992
724	4.704776	96866304	66203648	40984824	24992
725	5.803226	96866304	66203648	44636136	24992
726	9.844635	97136640	66203648	33034048	24992
727	8.433738	97136640	66203648	38131760	24992
728	9.358344	97136640	66203648	43966432	24992
729	13.416873	97136640	66203648	34550376	24992
730	11.956109	97136640	66203648	41861696	24992
731	15.813695	97136640	66203648	34239752	24992
732	14.692462	97136640	66203648	43021936	24992
733	18.686074	97136640	66203648	36762048	24992
734	17.056564	97136640	66203648	47003936	24992
735	20.442463	97406976	66727936	41546872	24992
736	22.406364	97406976	66727936	37715408	24992
737	23.705263	97406976	66727936	35186456	24992
738	25.229223	97406976	66727936	33826232	24992
739	26.893388	97406976	66727936	33419048	24992
740	28.135226	97406976	66727936	33806768	24992
741	29.095114	97406976	66727936	34914032	24992
742	2.493072	97677312	66727936	37304672	24992
743	3.897504	97677312	66727936	39545168	24992
744	4.821998	97677312	66727936	42538008	24992
745	6.164712	97677312	66727936	46269808	24992
746	10.268419	97677312	66727936	34656096	24992
747	8.537086	97677312	66727936	39889616	24992
748	9.609439	97677312	66727936	45884160	24992
749	13.73412	97677312	66727936	36426048	24992
750	12.275657	97677312	66727936	43904192	24992
751	16.423	97677312	66727936	36305576	24992
752	14.714134	97677312	66727936	45300512	24992
753	19.049517	97947648	66727936	38979976	24992
754	20.252219	97947648	66727936	34405704	24992
755	19.027709	97947648	66727936	45661464	24992
756	22.690494	97947648	66727936	41586144	24992
757	24.273908	97947648	67252224	38843168	24992
758	25.870034	97947648	67776512	37318336	24992
759	27.156781	97947648	67776512	36784984	24992
760	28.603342	97947648	67776512	37129912	24992
761	29.493289	98217984	67776512	38179128	24992
762	2.537614	98217984	67776512	40641296	24992
763	3.748866	98217984	67776512	42952168	24992
764	5.34568	98217984	67776512	46034432	24992
765	8.981078	98217984	67776512	33899872	24992
766	7.391083	98217984	67776512	38504360	24992
767	9.032466	98217984	67776512	43881264	24992
768	13.216245	98217984	67776512	34292912	24992
769	11.575252	98217984	67776512	41189880	24992
770	15.553999	98488320	67776512	33476008	24992
771	13.699812	98488320	67776512	41934888	24992
772	18.313989	98488320	67776512	35651488	24992
773	16.201765	98488320	67776512	45650648	24992
774	20.522845	98488320	67776512	40356744	24992
775	21.774833	98488320	67776512	36683408	24992
776	23.880993	98488320	67776512	34337008	24992
777	22.25772	98488320	67776512	47473112	24992
778	25.790621	98488320	67776512	45053000	24992
779	27.877142	98758656	67776512	43760368	24992
780	29.069976	98758656	67776512	43509504	24992
781	29.673431	98758656	68300800	44064432	24992
782	2.621318	98758656	68300800	46172216	24992
783	3.804229	98758656	68300800	48524432	24992
784	7.727737	98758656	68300800	35303720	24992
785	6.546434	98758656	68300800	39221496	24992
786	7.619763	98758656	68300800	43982848	24992
787	11.778478	99028992	68300800	33748600	24992
788	10.178066	99028992	68300800	40022216	24992
789	11.730099	99028992	68300800	47123304	24992
790	15.84025	99028992	68300800	38802824	24992
791	13.961687	99028992	68300800	47447464	24992
792	19.136209	99028992	68300800	40779208	24992
793	20.197859	99028992	68300800	35849904	24992
794	18.166505	99028992	68300800	46860408	24992
795	22.554443	99028992	68300800	42567776	24992
796	24.154123	99028992	68300800	39685064	24992
797	25.752445	99028992	68300800	38103000	24992
798	28.223556	99299328	68300800	37541336	24992
799	28.813286	99299328	68300800	37938448	24992
800	29.564093	99299328	68300800	38993320	24992
801	30.843066	99299328	68300800	40706672	24992
802	2.674891	99299328	68300800	43803392	24992
803	3.878152	99299328	68300800	46211488	24992
804	8.196746	99569664	68825088	33590976	24992
805	6.512851	99569664	68825088	37601736	24992
806	7.853161	99569664	68825088	42415688	24992
807	9.045618	99569664	68825088	48049624	24992
808	13.48444	99569664	68825088	38311888	24992
809	11.759367	99569664	68825088	45539720	24992
810	16.274956	99569664	68825088	37791984	24992
811	14.598998	99569664	68825088	46639848	24992
812	18.802377	99569664	68825088	40291752	24992
813	20.76759	99569664	68825088	35770504	24992
814	18.297242	99569664	68825088	47042776	24992
815	22.897531	99569664	68825088	43096656	24992
816	24.565711	99840000	68825088	40540248	24992
817	25.983156	99840000	68825088	39138192	24992
818	27.684184	99840000	68825088	38834024	24992
819	29.140764	99840000	68825088	39418104	24992
820	29.962397	99840000	68825088	40764696	24992
821	31.714327	99840000	68825088	42656968	24992
822	2.723657	99840000	68825088	46033624	24992
823	3.965466	99840000	68825088	48503456	24992
824	8.408582	100110336	69349376	35715864	24992
825	6.874208	100110336	69349376	39822080	24992
826	7.927803	100110336	69349376	44760712	24992
827	12.549652	100110336	69349376	34889056	24992
828	10.633748	100110336	69349376	41466992	24992
829	12.388375	100110336	69349376	48890224	24992
830	16.319473	100110336	69873664	40855792	24992
831	14.907482	100110336	69873664	49920232	24992
832	19.27707	100110336	69873664	43375120	24992
833	20.51617	100110336	69873664	38691416	24992
834	22.943101	100380672	69873664	35591304	24992
835	21.277892	100380672	69873664	47970072	24992
836	24.961664	100380672	69873664	45117144	24992
837	26.459259	100380672	69873664	43495160	24992
838	27.834005	100380672	69873664	42952248	24992
839	28.982823	100380672	69873664	43374280	24992
840	30.631441	100380672	69873664	44545720	24992
841	31.754997	100380672	69873664	46452096	24992
842	2.799183	100651008	69873664	49825656	24992
843	7.064235	100651008	69873664	36203848	24992
844	5.486301	100651008	69873664	39627704	24992
845	7.014522	100651008	69873664	43906616	24992
846	8.551656	100651008	69873664	49043592	24992
847	12.827954	100651008	69873664	38892584	24992
848	11.121767	100651008	69873664	45749968	24992
849	15.621318	100651008	69873664	37799960	24992
850	13.900694	100651008	69873664	46395752	24992
851	18.632768	100651008	69873664	40084608	24992
852	16.710943	100921344	69873664	50408480	24992
853	21.208167	100921344	70397952	45168720	24992
854	22.939994	100921344	70397952	41599008	24992
855	24.538973	100921344	70397952	39486408	24992
856	25.85774	100921344	70397952	38502520	24992
857	27.622418	100921344	70397952	38530760	24992
858	29.226607	100921344	70397952	39416712	24992
859	30.328805	100921344	70397952	41079432	24992
860	32.007977	101191680	70397952	43329392	24992
861	32.792071	101191680	70397952	46181792	24992
862	2.870684	101191680	70397952	50426840	24992
863	7.386679	101191680	70397952	36867416	24992
864	5.765617	101191680	70397952	40380576	24992
865	7.264971	101191680	70397952	44752424	24992
866	8.732059	101191680	70397952	50012016	24992
867	12.789389	101191680	70397952	39859288	24992
868	11.312382	101191680	70397952	46869144	24992
869	16.194884	101462016	70397952	38978264	24992
870	14.460749	101462016	70397952	47734904	24992
871	18.752722	101462016	70397952	41490984	24992
872	20.601609	101462016	70397952	36994152	24992
873	18.452683	101462016	70397952	48424224	24992
874	23.571219	101462016	70397952	44689392	24992
875	24.891196	101462016	70922240	42506136	24992
876	26.371374	101462016	70922240	41490272	24992
877	27.515543	101462016	70922240	41507320	24992
878	29.845278	101732352	70922240	42421728	24992
879	30.604148	101732352	70922240	44014608	24992
880	32.391515	101732352	70922240	46316608	24992
881	33.043189	101732352	70922240	49156304	24992
882	2.869682	102273024	71446528	39801192	24992
883	4.266024	102273024	71446528	42482240	24992
884	5.864872	102273024	71446528	46080304	24992
885	7.129769	102273024	71446528	50567528	24992
886	14.30977	104435712	73543680	42014648	24992
887	10.991584	104435712	73543680	48267656	24992
888	16.531163	104435712	73543680	39925408	24992
889	13.888756	104435712	73543680	47974488	24992
890	20.888685	104435712	73543680	41417480	24992
891	29.336016	103636992	73019392	15207280	24992
892	17.613758	103636992	73019392	25983224	24992
893	19.724265	103903232	73019392	21736392	24992
894	21.265331	103903232	73019392	19096360	24992
895	22.766044	103903232	73019392	17696480	24992
896	24.514176	103903232	73019392	17450696	24992
897	25.781859	103903232	73019392	18146464	24992
898	27.515318	103903232	73019392	19609336	24992
899	28.451366	103903232	73019392	21775480	24992
900	29.966472	103903232	73019392	24515744	24992
901	31.018762	103903232	73019392	27782072	24992
902	2.932743	103903232	73019392	18686544	24992
903	4.407073	103903232	73019392	21436624	24992
904	5.767365	103903232	73019392	25084672	24992
905	7.30694	103903232	73019392	29642584	24992
906	10.54878	104173568	73019392	21245520	24992
907	10.190212	104173568	73019392	27637152	24992
908	12.062828	104173568	73019392	19281576	24992
909	13.037676	104173568	73019392	27538328	24992
910	15.526395	104173568	73019392	21035128	24992
911	16.055098	104173568	73019392	31086280	24992
912	18.665288	104173568	73019392	25900440	24992
913	19.815863	104173568	73019392	22343512	24992
914	21.697795	104173568	73019392	20281784	24992
915	23.432781	104173568	73019392	19526344	24992
916	25.267905	104173568	73019392	19734048	24992
917	25.95442	104173568	73019392	20742832	24992
918	29.138523	104173568	73019392	22574656	24992
919	29.66045	104173568	73019392	25159608	24992
920	30.029207	104173568	73019392	28192848	24992
921	31.185022	104173568	73019392	31760848	24992
922	2.984696	104173568	73019392	22821952	24992
923	4.50281	104173568	73019392	25614664	24992
924	5.92749	104173568	73019392	29344456	24992
925	8.015153	104173568	73019392	18110024	24992
926	9.140444	104173568	73019392	23706056	24992
927	10.346913	104173568	73019392	30221232	24992
928	12.354784	104173568	73019392	21651592	24992
929	13.754843	104173568	73019392	30042640	24992
930	15.649493	104173568	73019392	23342488	24992
931	16.992324	104173568	73019392	18649752	24992
932	18.118046	104173568	73019392	29847496	24992
933	20.143552	104173568	73543680	25976176	24992
934	21.911182	104173568	74067968	23724104	24992
935	23.443527	104173568	74592256	22678992	24992
936	25.249655	104173568	75116544	22729936	24992
937	26.413301	104443904	75640832	23747480	24992
938	27.804534	104443904	76165120	25535368	24992
939	28.911619	104443904	76689408	27987624	24992
940	30.943658	104443904	77213696	30994328	24992
941	33.613192	104714240	78262272	20879352	24992
942	3.04889	107147264	80883712	30609616	24992
943	4.591232	107147264	80883712	33484512	24992
944	6.82985	107417600	81408000	21528688	24992
945	7.894489	107417600	81408000	26275984	24992
946	9.473502	107417600	81408000	31971064	24992
947	11.297526	107417600	81932288	22857656	24992
948	12.245475	107417600	81932288	30451488	24992
949	14.440101	107417600	82456576	23410048	24992
950	15.597721	107417600	82456576	32919864	24992
951	17.765063	107417600	82980864	27447384	24992
952	19.014245	107417600	83505152	23686288	24992
953	19.941587	107417600	83505152	36065376	24992
954	21.55305	107417600	84029440	32932456	24992
955	23.750665	107417600	84553728	31312088	24992
956	24.90316	107687936	85078016	30831720	24992
957	26.578084	107687936	85602304	31455592	24992
958	28.052469	107687936	86126592	32915872	24992
959	29.774643	107687936	86650880	35117496	24992
960	32.820318	107687936	87699456	24162472	24992
961	33.984089	107687936	88223744	29682768	24992
962	3.110918	107958272	88748032	36338592	24992
963	5.0292	107958272	89272320	22994800	24992
964	6.432789	107958272	89272320	26864944	24992
965	8.097713	107958272	89272320	31709408	24992
966	10.313764	107958272	89272320	21801296	24992
967	10.943839	107958272	89272320	28603792	24992
968	12.403397	107958272	89272320	36361968	24992
969	14.22034	107958272	89272320	28669528	24992
970	16.116417	107958272	89272320	23168384	24992
971	17.18116	107958272	89272320	33847320	24992
972	19.124001	107958272	89272320	29482736	24992
973	21.08197	107958272	89272320	26839632	24992
974	23.507017	107958272	89272320	25434976	24992
975	25.083688	107958272	89272320	25327352	24992
976	26.169476	107958272	89272320	26181568	24992
977	27.840984	107958272	89272320	27908160	24992
978	29.002171	107958272	89272320	30273560	24992
979	30.823866	107958272	89272320	33371744	24992
980	33.635325	108498944	89272320	23404080	24992
981	36.422211	110931968	89272320	31856656	24992
982	3.167304	110931968	89272320	39061832	24992
983	5.419711	110931968	89272320	25862360	24992
984	6.36381	110931968	89272320	29840168	24992
985	8.047427	110931968	89272320	34769784	24992
986	10.060809	110931968	89272320	24982920	24992
987	11.089505	110931968	89272320	31926640	24992
988	12.320963	110931968	89272320	39822048	24992
989	14.422824	110931968	89272320	32229712	24992
990	16.783875	110931968	89272320	26869912	24992
991	17.689914	110931968	89272320	37745216	24992
992	19.765604	111202304	89272320	33478680	24992
993	21.473273	111202304	89272320	30977712	24992
994	23.269084	111202304	89272320	29708840	24992
995	25.52114	111202304	89272320	29713808	24992
996	27.123114	111202304	89272320	30707640	24992
997	27.977896	111202304	89272320	32536448	24992
998	29.758942	111202304	89272320	35189152	24992
999	31.353953	111202304	89272320	38384912	24992
1000	34.212079	111472640	89272320	28355728	24992
x	Duration	RSS	HeapTotal	HeapUsed	External
0	NA	109899776	78786560	30721496	24992
1	0.272798	109899776	78786560	30769176	24992
2	0.286612	109899776	78786560	30845472	24992
3	0.334424	109899776	78786560	30948760	24992
4	0.403076	109899776	78786560	31080544	24992
5	0.477298	109899776	78786560	31242320	24992
6	0.559062	109899776	78786560	31434592	24992
7	0.640877	109899776	78786560	31658232	24992
8	0.756222	109899776	78786560	31914336	24992
9	0.818747	109899776	78786560	32204720	24992
10	0.912167	109899776	78786560	32530128	24992
11	1.023728	109899776	78786560	32891360	24992
12	1.309816	109899776	78786560	33289488	24992
13	0.666162	109899776	78786560	33725448	24992
14	0.720854	109899776	78786560	34200288	24992
15	1.187074	109899776	78786560	18307752	24992
16	0.956451	109899776	78786560	18863160	24992
17	0.902371	109899776	78786560	19462208	24992
18	0.971463	109899776	78786560	20104000	24992
19	1.023261	109899776	78786560	20791048	24992
20	1.318206	109899776	78786560	21522360	24992
21	1.16304	109899776	78786560	22299680	24992
22	0.168912	109899776	78786560	23095048	24992
23	0.247326	109899776	78786560	23237296	24992
24	0.319164	109899776	78786560	23429520	24992
25	0.607063	109899776	78786560	23672752	24992
26	0.47195	109899776	78786560	23968648	24992
27	0.546825	109899776	78786560	24317344	24992
28	0.627949	109899776	78786560	24719960	24992
29	0.702606	109899776	78786560	25177488	24992
30	0.789283	109899776	78786560	25691856	24992
31	0.871507	109899776	78786560	26263088	24992
32	0.948549	109899776	78786560	26892408	24992
33	1.038946	109899776	78786560	27580272	24992
34	1.207491	109899776	78786560	28327960	24992
35	1.220584	109899776	78786560	29136424	24992
36	1.309309	109899776	78786560	30006624	24992
37	1.426108	109899776	78786560	30939536	24992
38	1.497911	109899776	78786560	31937912	24992
39	1.596822	109899776	78786560	33000992	24992
40	1.702305	109899776	78786560	34130224	24992
41	2.978905	109899776	78786560	19088440	24992
42	0.246764	109899776	78786560	20351672	24992
43	0.369276	109899776	78786560	20555720	24992
44	0.482612	109899776	78786560	20829216	24992
45	0.59807	109899776	78786560	21174600	24992
46	0.897292	109899776	78786560	21591944	24992
47	0.792889	109899776	78786560	22082456	24992
48	0.874991	109899776	78786560	22647064	24992
49	0.987345	109899776	78786560	23286960	24992
50	1.108541	109899776	78786560	24005840	24992
51	1.209095	109899776	78786560	24803808	24992
52	1.331522	109899776	78786560	25681872	24992
53	1.452898	109899776	78786560	26641008	24992
54	1.567199	109899776	78786560	27682248	24992
55	1.94595	109899776	78786560	28806496	24992
56	1.810679	109899776	78786560	30014920	24992
57	1.936905	109899776	78786560	31308288	24992
58	2.068417	109899776	78786560	32689368	24992
59	2.199343	109899776	78786560	34157656	24992
60	3.301696	109899776	78786560	19536776	24992
61	2.620278	109899776	78786560	21182048	24992
62	0.309159	109899776	78786560	22941024	24992
63	0.465232	109899776	78786560	23211840	24992
64	0.617837	109899776	78786560	23574464	24992
65	0.756435	109899776	78786560	24030240	24992
66	0.916946	109899776	78786560	24580032	24992
67	1.064058	109899776	78786560	25224528	24992
68	1.21245	109899776	78786560	25965392	24992
69	1.545079	109899776	78786560	26802272	24992
70	1.41815	109899776	78786560	27737848	24992
71	1.551607	109899776	78786560	28772184	24992
72	1.704393	109899776	78786560	29905928	24992
73	1.847671	109899776	78786560	31140384	24992
74	2.005828	109899776	78786560	32476336	24992
75	2.147512	109899776	78786560	33914904	24992
76	3.336207	109899776	78786560	19308640	24992
77	2.486322	109899776	78786560	20955296	24992
78	2.606885	109899776	78786560	22709192	24992
79	2.874588	109899776	78786560	24571784	24992
80	2.97883	109899776	78786560	26540088	24992
81	3.185964	109899776	78786560	28617688	24992
82	0.376967	109899776	78786560	30852048	24992
83	0.560835	109899776	78786560	31181296	24992
84	0.737083	109899776	78786560	31624136	24992
85	0.918874	109899776	78786560	32179320	24992
86	1.271211	109899776	78786560	32849504	24992
87	1.206128	109899776	78786560	33634960	24992
88	1.358523	109899776	78786560	34537408	24992
89	2.202677	109899776	78786560	19328584	24992
90	1.716767	109899776	78786560	20467064	24992
91	1.898141	109899776	78786560	21724904	24992
92	2.082034	109899776	78786560	23102864	24992
93	2.469002	109899776	78786560	24602016	24992
94	2.592074	109899776	78786560	26226896	24992
95	2.597036	109899776	78786560	27971448	24992
96	2.797285	109899776	78786560	29840200	24992
97	2.99678	109899776	78786560	31834064	24992
98	3.213528	109899776	78786560	33955952	24992
99	4.056027	109899776	78786560	20067992	24992
100	3.763449	109899776	78786560	22445440	24992
101	3.729013	109899776	78786560	24951712	24992
102	0.411739	109899776	78786560	27671280	24992
103	0.620105	109899776	78786560	28074920	24992
104	0.812672	109899776	78786560	28617272	24992
105	1.003967	109899776	78786560	29294200	24992
106	1.42855	109899776	78786560	30109696	24992
107	1.416056	109899776	78786560	31064256	24992
108	1.621779	109899776	78786560	32158712	24992
109	1.817374	109899776	78786560	33394232	24992
110	2.244156	109899776	78786560	34773336	24992
111	3.068269	109899776	78786560	20046352	24992
112	2.679	109899776	78786560	21711624	24992
113	2.77597	109899776	78786560	23521848	24992
114	2.864411	109899776	78786560	25477864	24992
115	3.194544	109899776	78786560	27580800	24992
116	3.474833	109899776	78786560	29831576	24992
117	3.634334	109899776	78786560	32231168	24992
118	3.876633	109899776	78786560	34783320	24992
119	4.698688	109899776	78786560	21233624	24992
120	4.361039	109899776	78786560	24087576	24992
121	4.511474	109899776	78786560	27094168	24992
122	0.504352	109899776	78786560	30353968	24992
123	0.744709	109899776	78786560	30816552	24992
124	0.981264	109899776	78786560	31434320	24992
125	1.23822	109899776	78786560	32208688	24992
126	1.463358	109899776	78786560	33141160	24992
127	1.71773	109899776	78786560	34237064	24992
128	1.970351	109899776	78786560	35487640	24992
129	2.788041	109899776	78786560	20564552	24992
130	2.342298	109899776	78786560	22138048	24992
131	2.584047	109899776	78786560	23873912	24992
132	3.009067	109899776	78786560	25773160	24992
133	3.085139	109899776	78786560	27838008	24992
134	3.353752	109899776	78786560	30067024	24992
135	4.171807	109899776	78786560	32462448	24992
136	4.336038	109899776	78786560	35034096	24992
137	4.650062	109899776	78786560	21514392	24992
138	4.305131	109899776	78786560	24416552	24992
139	4.539082	109899776	78786560	27495176	24992
140	4.808645	109899776	78786560	30741208	24992
141	5.246921	109899776	78786560	34159920	24992
142	0.578927	109899776	78786560	21862520	24992
143	0.865889	109899776	78786560	22388656	24992
144	1.134361	109899776	78786560	23091728	24992
145	1.560664	109899776	78786560	23972752	24992
146	1.5886	109899776	78786560	25033240	24992
147	1.851681	109899776	78786560	26273528	24992
148	2.293191	109899776	78786560	27697432	24992
149	2.418686	109899776	78786560	29300856	24992
150	3.311725	109899776	78786560	31087712	24992
151	2.932249	109899776	78786560	33058280	24992
152	3.196089	109899776	78786560	35213584	24992
153	4.316743	109899776	78786560	21485168	24992
154	4.010634	109899776	78786560	24015504	24992
155	4.016544	109899776	78786560	26732784	24992
156	4.582293	109899776	78786560	29636952	24992
157	4.571189	109899776	78786560	32731048	24992
158	5.023343	109899776	78786560	36018192	24992
159	6.045195	109899776	78786560	23295632	24992
160	5.430921	109899776	78786560	26968840	24992
161	5.71487	109899776	78786560	30834704	24992
162	0.593742	109899776	78786560	35037128	24992
163	0.889713	109899776	78786560	35621832	24992
164	1.191968	109899776	78786560	36402944	24992
165	2.209849	109899776	78786560	21175800	24992
166	1.907302	109899776	78786560	22357048	24992
167	2.15384	109899776	78786560	23734248	24992
168	2.371463	109899776	78786560	25312120	24992
169	2.662936	109899776	78786560	27090784	24992
170	3.177055	109899776	78786560	29072608	24992
171	3.255853	109899776	78786560	31257768	24992
172	3.609122	109899776	78786560	33649800	24992
173	3.889649	109899776	78786560	36246232	24992
174	5.099188	109899776	78786560	22865400	24992
175	4.805557	109899776	78786560	25873424	24992
176	5.063128	109899776	78786560	29090752	24992
177	5.128259	109899776	78786560	32521176	24992
178	5.628119	109899776	78786560	36161880	24992
179	6.805143	109899776	78786560	23847040	24992
180	6.586586	109899776	78786560	27916328	24992
181	6.436564	109899776	78786560	32190008	24992
182	0.658661	109899776	78786560	36849888	24992
183	1.724433	109899776	78786560	21295464	24992
184	1.399679	109899776	78786560	22154544	24992
185	1.728098	109899776	78786560	23233048	24992
186	2.181257	109899776	78786560	24527544	24992
187	2.26987	109899776	78786560	26040968	24992
188	2.590852	109899776	78786560	27776928	24992
189	2.919503	109899776	78786560	29730992	24992
190	3.475046	109899776	78786560	31907736	24992
191	3.582019	109899776	78786560	34307456	24992
192	3.926805	109899776	78786560	36930808	24992
193	5.237135	109899776	78786560	23553888	24992
194	4.918385	109899776	78786560	26628104	24992
195	5.448875	109899776	78786560	29932640	24992
196	5.285326	109899776	78786560	33460840	24992
197	5.671957	109899776	78786560	37217704	24992
198	7.27979	109899776	78786560	24941768	24992
199	6.383315	109899776	78786560	29160456	24992
200	6.708361	109899776	78786560	33611224	24992
201	8.457351	109899776	78786560	22657384	24992
202	0.723335	109899776	78786560	27775624	24992
203	1.154664	109899776	78786560	28477360	24992
204	1.4547	109899776	78786560	29414464	24992
205	1.788081	109899776	78786560	30593984	24992
206	2.152214	109899776	78786560	32005480	24992
207	2.516568	109899776	78786560	33663672	24992
208	3.330162	109899776	78786560	35576664	24992
209	3.388231	109899776	78786560	37730992	24992
210	4.759775	109899776	78786560	23853160	24992
211	4.263937	109899776	78786560	26509152	24992
212	4.572545	109899776	78786560	29416016	24992
213	4.88091	109899776	78786560	32580616	24992
214	5.465492	109899776	78786560	35995240	24992
215	6.852185	109899776	78786560	23697432	24992
216	5.775111	109899776	78786560	27620120	24992
217	6.534177	109899776	78786560	31799248	24992
218	6.759868	109899776	78786560	36243376	24992
219	8.354173	109899776	78786560	24900504	24992
220	7.942749	109899776	78786560	29857640	24992
221	7.968668	109899776	78786560	35075344	24992
222	0.838994	109899776	78786560	24972336	24992
223	1.398988	109899776	78786560	25757304	24992
224	1.628024	109899776	78786560	26805424	24992
225	2.057809	109899776	78786560	28117816	24992
226	2.389138	109899776	78786560	29695792	24992
227	2.855942	109899776	78786560	31541104	24992
228	3.311447	109899776	78786560	33659848	24992
229	3.84251	109899776	78786560	36045096	24992
230	5.138505	109899776	78786560	22778400	24992
231	4.547258	109899776	78786560	25706896	24992
232	5.151396	109899776	78786560	28912544	24992
233	5.406076	109899776	78786560	32389568	24992
234	6.055472	109899776	78786560	36148704	24992
235	7.373787	109899776	78786560	24238576	24992
236	6.862861	109899776	78786560	28545904	24992
237	7.382493	109899776	78786560	33143184	24992
238	7.736962	109899776	78786560	38013184	24992
239	9.122164	109899776	78786560	26900976	24992
240	8.471325	109899776	78786560	32331584	24992
241	8.792753	109899776	78786560	38044776	24992
242	0.898189	109899776	78786560	28051144	24992
243	1.340097	109899776	78786560	28903160	24992
244	1.80832	109899776	78786560	30040816	24992
245	2.222305	109899776	78786560	31464984	24992
246	2.666756	109899776	78786560	33183064	24992
247	3.080916	109899776	78786560	35184096	24992
248	3.767256	109899776	78786560	37474544	24992
249	5.054736	109899776	78786560	23970808	24992
250	4.459528	109899776	78786560	26843952	24992
251	5.078405	109899776	78786560	30017672	24992
252	5.368818	109899776	78786560	33477208	24992
253	5.842421	109899776	78786560	37236616	24992
254	7.370736	109899776	78786560	25219520	24992
255	6.84581	109899776	78786560	29564728	24992
256	7.545771	109899776	78786560	34208056	24992
257	9.083177	109899776	78786560	23599192	24992
258	8.097794	109899776	78786560	28848600	24992
259	8.801179	109899776	78786560	34390544	24992
260	10.694118	109899776	78786560	24681336	24992
261	9.54288	109899776	78786560	30830856	24992
262	0.959516	109899776	78786560	37556024	24992
263	1.437337	109899776	78786560	38466616	24992
264	3.039743	109899776	78786560	23519984	24992
265	2.393381	109899776	78786560	25051080	24992
266	2.856225	109899776	78786560	26880312	24992
267	3.323299	109899776	78786560	29017640	24992
268	3.952365	109899776	78786560	31463904	24992
269	4.521625	109899776	78786560	34222232	24992
270	4.693912	109899776	78786560	37290416	24992
271	6.403431	109899776	78786560	24711544	24992
272	5.981078	109899776	78786560	28404456	24992
273	6.245886	109899776	78786560	32411536	24992
274	6.919839	109899776	78786560	36740224	24992
275	8.503707	109899776	78786560	25496464	24992
276	7.901255	109899776	78786560	30451816	24992
277	8.376492	109899776	78786560	35724032	24992
278	10.224086	109899776	78786560	25626384	24992
279	9.019226	109899776	78786560	31539192	24992
280	9.5351	109899776	78786560	37780200	24992
281	11.597715	109899776	78786560	28287664	24992
282	1.024975	109899776	78786560	35461368	24992
283	1.539329	109899776	78786560	36430536	24992
284	2.027113	109899776	78786560	37724224	24992
285	2.54156	109899776	78786560	39343464	24992
286	4.030497	109899776	78786560	25082184	24992
287	3.544855	109899776	78786560	27365224	24992
288	4.178017	109899776	78786560	29967504	24992
289	4.540086	109899776	78786560	32899248	24992
290	5.092318	109899776	78786560	36163528	24992
291	5.833813	109899776	78786560	39770152	24992
292	7.134053	109899776	78786560	27389920	24992
293	6.624891	109899776	78786560	31656208	24992
294	7.294768	109899776	78786560	36251128	24992
295	9.424661	109899776	78786560	25472224	24992
296	8.200067	109899776	78786560	30752736	24992
297	8.681464	109899776	78786560	36357904	24992
298	10.863498	109899776	78786560	26589536	24992
299	10.013666	109899776	78786560	32874160	24992
300	10.176058	109899776	78786560	39497680	24992
301	12.002552	109899776	78786560	30220328	24992
302	1.289163	109899776	78786560	37851592	24992
303	1.525671	109899776	78786560	38879216	24992
304	2.095125	109899776	78786560	40251536	24992
305	3.653442	109899776	78786560	25681176	24992
306	3.23236	109899776	78786560	27744504	24992
307	4.11974	109899776	78786560	30158552	24992
308	4.339538	109899776	78786560	32916944	24992
309	5.021244	109899776	78786560	36024200	24992
310	5.4879	109899776	78786560	39482464	24992
311	7.277914	109899776	78786560	27136488	24992
312	6.66483	109899776	78786560	31301368	24992
313	7.372632	109899776	78786560	35816672	24992
314	9.163598	109899776	78786560	25122808	24992
315	8.145146	109899776	78786560	30346056	24992
316	8.963293	109899776	78786560	35924376	24992
317	11.036142	109899776	78786560	26291888	24992
318	9.770933	109899776	78786560	32588304	24992
319	10.591311	109899776	78786560	39253072	24992
320	12.459778	109899776	78786560	30136896	24992
321	11.746323	109899776	78786560	37512176	24992
322	1.164416	109899776	78786560	29796608	24992
323	1.720849	109899776	78786560	30882680	24992
324	2.294088	109899776	78786560	32332312	24992
325	3.041866	109899776	78786560	34146552	24992
326	3.329014	109899776	78786560	36326896	24992
327	3.998497	109899776	78786560	38873736	24992
328	5.846282	109899776	78786560	25816792	24992
329	5.543086	109899776	78786560	29107128	24992
330	5.879406	109899776	78786560	32760504	24992
331	6.260252	109899776	78786560	36786576	24992
332	8.45161	109899776	78786560	25543608	24992
333	7.448124	109899776	78786560	30311096	24992
334	7.974886	109899776	78786560	35452032	24992
335	9.235768	109899776	78786560	40977888	24992
336	10.490968	109899776	78786560	30518488	24992
337	10.049529	109899776	78786560	36786544	24992
338	12.214043	109899776	78786560	27834664	24992
339	10.949507	109899776	78786560	34860760	24992
340	13.462616	109899776	78786560	27008664	24992
341	12.437085	109899776	78786560	34794568	24992
342	1.225717	109899776	78786560	28118064	24992
343	1.818673	109899776	78786560	29262704	24992
344	2.348437	109899776	78786560	30790504	24992
345	3.156497	109899776	78786560	32702304	24992
346	3.626755	109899776	78786560	34999672	24992
347	4.861838	109899776	78786560	37699360	24992
348	4.981716	109899776	78786560	40769680	24992
349	6.676823	109899776	78786560	28041176	24992
350	6.22135	109899776	78786560	31890136	24992
351	6.646557	109899776	78786560	36128472	24992
352	7.233159	109899776	78786560	40757568	24992
353	9.165644	109899776	78786560	29548240	24992
354	8.588319	109899776	78786560	34962512	24992
355	9.097137	109899776	78786560	40774968	24992
356	10.927201	109899776	78786560	30752120	24992
357	10.526599	109899776	78786560	37351664	24992
358	12.631281	109899776	78786560	28762296	24992
359	11.640329	109899776	78786560	36156872	24992
360	14.313423	109899776	78786560	28575440	24992
361	12.966403	109899776	78786560	36777720	24992
362	1.287239	109899776	78786560	30311144	24992
363	1.962444	109899776	78786560	31527928	24992
364	2.549034	109899776	78786560	33151384	24992
365	3.177574	109899776	78786560	35182824	24992
366	3.918078	109899776	78786560	37623800	24992
367	4.466938	109899776	78786560	40474816	24992
368	6.554175	109899776	78786560	27677728	24992
369	5.737249	109899776	78786560	31351696	24992
370	6.656652	109899776	78786560	35440384	24992
371	6.970599	109899776	78786560	39953528	24992
372	9.27005	109899776	78786560	28911376	24992
373	8.437545	109899776	78786560	34252512	24992
374	9.174954	109899776	78786560	40007336	24992
375	11.351036	109899776	78786560	30201408	24992
376	10.273499	109899776	78786560	36790736	24992
377	13.06676	109899776	78786560	28404680	24992
378	11.709602	109899776	78786560	35834232	24992
379	14.164222	109899776	78786560	28428840	24992
380	12.979298	109899776	78786560	36701616	24992
381	15.52009	109899776	78786560	29999304	24992
382	1.346425	109899776	78786560	39543864	24992
383	1.988433	109899776	78786560	40825248	24992
384	2.857958	109899776	78786560	42526720	24992
385	4.568722	109899776	78786560	28330688	24992
386	3.987511	109899776	78786560	30893872	24992
387	4.736507	109899776	78786560	33888056	24992
388	5.33517	109899776	78786560	37309400	24992
389	6.198579	109899776	78786560	41158944	24992
390	8.078423	109899776	78786560	29410112	24992
391	7.545146	109899776	78786560	34138824	24992
392	8.028761	109899776	78786560	39305696	24992
393	10.612461	109899776	78786560	29113064	24992
394	9.423991	109899776	78786560	35135448	24992
395	10.113482	109899776	78786560	41597616	24992
396	12.427722	109899776	78786560	32343584	24992
397	11.666882	109899776	78786560	39703816	24992
398	14.147441	109899776	78786560	31659136	24992
399	12.855966	109899776	78786560	39893392	24992
400	15.315451	109899776	78786560	32668040	24992
401	14.098759	109899776	78786560	41774384	24992
402	1.430704	109899776	78786560	35585696	24992
403	2.167137	109899776	78786560	36919080	24992
404	2.672897	109899776	78786560	38701952	24992
405	3.351404	109899776	78786560	40935792	24992
406	5.965087	109899776	78786560	27658016	24992
407	4.872914	109899776	78786560	30782264	24992
408	5.707734	109899776	78786560	34369272	24992
409	6.142866	109899776	78786560	38417288	24992
410	6.883639	109899776	78786560	42898896	24992
411	8.978311	109899776	78786560	31518384	24992
412	8.625182	109899776	78786560	36902904	24992
413	9.304414	109899776	78786560	42742992	24992
414	11.140123	109899776	78786560	32757288	24992
415	10.621342	109899776	78786560	39511648	24992
416	13.320194	109899776	78786560	31003320	24992
417	11.981307	109899776	78786560	38689216	24992
418	14.879481	109899776	78786560	31298384	24992
419	13.623067	109899776	78786560	39948944	24992
420	16.323411	109899776	78786560	33280024	24992
421	15.037001	109899776	78786560	42878152	24992
422	1.471797	109899776	78786560	37197816	24992
423	2.345028	109899776	78786560	38639240	24992
424	2.763728	109899776	78786560	40578424	24992
425	3.542971	109899776	78786560	42987704	24992
426	5.981735	109899776	78786560	29712816	24992
427	5.018931	109899776	78786560	33088592	24992
428	6.005997	109899776	78786560	36963264	24992
429	6.723922	109899776	78786560	41311824	24992
430	9.029813	109899776	78786560	30173616	24992
431	8.049782	109899776	78786560	35513248	24992
432	8.596489	109899776	78786560	41331072	24992
433	11.43856	109899776	78786560	31661896	24992
434	10.520278	109899776	78786560	38473264	24992
435	13.348804	109899776	78786560	30311800	24992
436	11.892389	109899776	78786560	38115024	24992
437	14.179246	109899776	78786560	31014608	24992
438	13.615835	109899776	78786560	39794224	24992
439	15.907142	109899776	78786560	33395576	24992
440	15.043312	109899776	78786560	43178648	24992
441	17.104064	109899776	78786560	37239048	24992
442	1.552578	109899776	78786560	33339064	24992
443	2.283484	109899776	78786560	34838864	24992
444	3.217969	109899776	78786560	36840120	24992
445	3.825071	109899776	78786560	39344024	24992
446	4.572693	109899776	78786560	42351920	24992
447	6.827974	109899776	78786560	29839504	24992
448	6.265227	109899776	78786560	33864528	24992
449	6.791975	109899776	78786560	38388632	24992
450	7.70841	109899776	78786560	43421040	24992
451	10.025548	109899776	78786560	32727568	24992
452	9.1525	109899776	78786560	38781832	24992
453	12.25083	109899776	78786560	29970552	24992
454	10.936103	109899776	78786560	37067920	24992
455	13.920037	109899776	78786560	29506232	24992
456	12.391541	109899776	78786560	37626160	24992
457	15.613034	109899776	78786560	31029080	24992
458	13.971791	109899776	78786560	40167080	24992
459	16.773565	109899776	78786560	34157536	24992
460	15.818731	109899776	78786560	44326232	24992
461	17.53306	109899776	78786560	38669104	24992
462	1.621092	109899776	78786560	35056656	24992
463	2.30173	109899776	78786560	36618768	24992
464	3.16132	109899776	78786560	38698112	24992
465	3.963348	109899776	78786560	41299440	24992
466	4.792391	109899776	78786560	44424312	24992
467	7.319028	109899776	78786560	31808256	24992
468	6.361065	109899776	78786560	35982024	24992
469	7.1989	109899776	78786560	40681592	24992
470	9.904364	109899776	78786560	30311632	24992
471	8.778258	109899776	78786560	36066904	24992
472	9.768503	109899776	78786560	42460336	24992
473	12.505328	109899776	78786560	33295112	24992
474	11.342015	109899776	78786560	40639848	24992
475	13.440279	109899776	78786560	32888040	24992
476	13.121052	109899776	78786560	41297264	24992
477	15.751383	109899776	78786560	34536648	24992
478	14.624939	109899776	78786560	44015912	24992
479	17.142319	109899776	78786560	37800640	24992
480	19.414941	109899776	78786560	33271120	24992
481	17.37651	109899776	78786560	44379992	24992
482	1.672281	109899776	78786560	40440648	24992
483	2.454664	109899776	78786560	42057536	24992
484	3.167107	109899776	78786560	44214944	24992
485	5.89428	109899776	78786560	30804104	24992
486	4.917097	109899776	78786560	34045920	24992
487	5.985981	109899776	78786560	37863224	24992
488	6.609278	109899776	78786560	42192864	24992
489	9.419388	109899776	78786560	31237488	24992
490	8.325192	109899776	78786560	36659896	24992
491	9.032509	109899776	78786560	42635288	24992
492	11.979298	109899776	78786560	33304464	24992
493	10.785718	109899776	78786560	40371888	24992
494	13.941514	109899776	78786560	32477888	24992
495	12.525602	109899776	78786560	40659568	24992
496	15.572507	109899776	78786560	33828456	24992
497	14.261708	109899776	78786560	43102872	24992
498	17.5128	109899776	78786560	36973184	24992
499	18.641868	109899776	78786560	32500984	24992
500	16.855326	109899776	78786560	43469080	24992
501	19.670818	109899776	78786560	38959336	24992
502	1.733945	109899776	78786560	36393960	24992
503	2.590478	109899776	78786560	38069304	24992
504	3.40886	109899776	78786560	40304544	24992
505	4.379986	109899776	78786560	43100928	24992
506	7.298611	109899776	78786560	30646216	24992
507	6.07306	109899776	78786560	34568016	24992
508	6.884164	109899776	78786560	39069440	24992
509	7.987242	109899776	78786560	44131968	24992
510	10.532578	109899776	78786560	33708984	24992
511	9.374956	109899776	78786560	39893328	24992
512	12.751836	109899776	78786560	31354048	24992
513	11.009681	109899776	78786560	38678120	24992
514	14.722196	109899776	78786560	31487632	24992
515	12.827308	109899776	78786560	39951512	24992
516	16.019937	109899776	78786560	33682320	24992
517	14.648008	109899776	78786560	43309600	24992
518	18.047039	109899776	78786560	37576960	24992
519	19.216816	109899776	78786560	33478376	24992
520	17.790627	109899776	78786560	44828152	24992
521	20.341201	109899776	78786560	40605968	24992
522	1.808683	109899776	78786560	38330416	24992
523	2.664489	109899776	78786560	40064240	24992
524	3.549719	109899776	78786560	42377520	24992
525	4.364873	109899776	78786560	45273440	24992
526	7.092383	109899776	78786560	32657288	24992
527	6.461242	109899776	78786560	36727952	24992
528	6.98316	109899776	78786560	41380152	24992
529	7.873069	109899776	78786560	46619880	24992
530	10.96226	109899776	78786560	36025464	24992
531	9.651591	109899776	78786560	42437856	24992
532	12.719678	109899776	78786560	33791816	24992
533	11.806566	109899776	78786560	41377288	24992
534	15.009454	109899776	78786560	34134432	24992
535	13.358899	109899776	78786560	42911104	24992
536	16.742379	109899776	78786560	36525176	24992
537	15.215819	109899776	78786560	46467104	24992
538	18.034431	109899776	78786560	40692320	24992
539	19.678226	109899776	78786560	36521056	24992
540	20.889445	109899776	78786560	33643072	24992
541	18.994151	109899776	78786560	45976056	24992
542	1.803093	109899776	78786560	43308376	24992
543	2.750128	109899776	78786560	45101048	24992
544	5.840773	109899776	78786560	31560128	24992
545	4.497509	109899776	78786560	34552296	24992
546	5.681418	109899776	78786560	38151720	24992
547	6.593974	109899776	78786560	42352528	24992
548	7.525955	109899776	78786560	47151112	24992
549	10.206885	109899776	78786560	36147408	24992
550	9.398869	109899776	78786560	42156224	24992
551	12.741766	109899776	78786560	33268968	24992
552	11.155832	109899776	78786560	40494592	24992
553	15.011276	109899776	78786560	33142616	24992
554	13.015357	109899776	78786560	41585240	24992
555	16.299303	109899776	78786560	35246912	24992
556	15.166351	109899776	78786560	44932104	24992
557	18.372913	109899776	78786560	39233184	24992
558	19.738097	109899776	78786560	35179608	24992
559	18.000702	109899776	78786560	46737912	24992
560	20.880985	109899776	78786560	42586752	24992
561	22.205118	109899776	78786560	39797432	24992
562	1.918737	109899776	78786560	38765400	24992
563	2.775338	109899776	78786560	40636968	24992
564	3.957054	109899776	78786560	43133424	24992
565	4.747779	109899776	78786560	46256192	24992
566	7.989469	109899776	78786560	33978232	24992
567	6.619857	109899776	78786560	38369368	24992
568	7.265951	109899776	78786560	43384584	24992
569	10.874114	109899776	78786560	33386440	24992
570	9.721199	109899776	78786560	39658120	24992
571	10.677339	109899776	78786560	46573808	24992
572	13.612158	109899776	78786560	37928192	24992
573	12.550398	109899776	78786560	46127264	24992
574	15.723745	109899776	78786560	38847480	24992
575	17.119669	109899776	78786560	33475800	24992
576	15.034404	109899776	78786560	43561576	24992
577	18.802141	109899776	78786560	38644096	24992
578	20.757893	109899776	78786560	35246256	24992
579	18.468131	109899776	78786560	47270112	24992
580	21.022579	109899776	78786560	43605736	24992
581	23.108718	109899776	78786560	41292928	24992
582	1.977744	109899776	78786560	40705848	24992
583	2.951183	109899776	78786560	42635568	24992
584	4.090028	109899776	78786560	45210104	24992
585	7.727592	109899776	78786560	32627216	24992
586	5.796497	109899776	78786560	36506312	24992
587	7.265493	109899776	78786560	41022856	24992
588	8.04092	109899776	78786560	46190736	24992
589	11.241821	109899776	78786560	36010872	24992
590	9.748833	109899776	78786560	42496088	24992
591	13.437733	109899776	78786560	34311752	24992
592	11.808727	109899776	78786560	42099168	24992
593	15.63407	109899776	78786560	35236088	24992
594	14.070337	109899776	78786560	44347032	24992
595	17.451843	109899776	78786560	38427728	24992
596	19.442705	109899776	78786560	34175720	24992
597	16.817798	109899776	78786560	45243056	24992
598	20.420508	109899776	78786560	41113136	24992
599	22.032561	109899776	78786560	38396680	24992
600	23.012926	109899776	78786560	36795360	24992
601	24.015751	109899776	78786560	36214984	24992
602	2.043366	109899776	78786560	37086736	24992
603	3.052191	109899776	78786560	39075136	24992
604	4.210568	109899776	78786560	41731320	24992
605	5.176001	109899776	78786560	45059144	24992
606	8.849622	109899776	78786560	33409624	24992
607	7.091479	109899776	78786560	38061512	24992
608	8.19166	109899776	78786560	43381472	24992
609	11.790661	109899776	78786560	33972600	24992
610	10.318263	109899776	78786560	40656424	24992
611	11.302002	109899776	78786560	48019336	24992
612	14.262503	109899776	78786560	39830920	24992
613	13.461323	109899776	78786560	48508112	24992
614	16.634406	109899776	78786560	41573544	24992
615	18.235617	109899776	78786560	36540056	24992
616	16.793603	109899776	78786560	47260448	24992
617	19.965813	109899776	78786560	42557944	24992
618	21.392406	109899776	78786560	39387016	24992
619	22.779408	109899776	78786560	37471984	24992
620	23.54555	109899776	78786560	36584032	24992
621	25.004645	109899776	78786560	36551888	24992
622	2.0586	109899776	78786560	37994192	24992
623	3.143188	109899776	78786560	40040864	24992
624	4.20579	109899776	78786560	42772120	24992
625	5.588381	109899776	78786560	46205168	24992
626	8.548639	109899776	78786560	34587688	24992
627	7.350801	109899776	78786560	39382256	24992
628	8.364496	109899776	78786560	44859656	24992
629	11.837892	109899776	78786560	35447656	24992
630	10.566886	109899776	78786560	42313824	24992
631	14.302386	109899776	78786560	34777392	24992
632	12.719395	109899776	78786560	43022680	24992
633	16.968072	109899776	78786560	36756176	24992
634	14.994703	109899776	78786560	46387320	24992
635	18.706902	109899776	78786560	40897096	24992
636	19.414085	109899776	78786560	37065344	24992
637	18.195311	109899776	78786560	48801392	24992
638	21.542222	109899776	78786560	45001728	24992
639	22.918894	109899776	78786560	42557688	24992
640	24.613559	109899776	78786560	41259280	24992
641	26.530256	109899776	78786560	40967112	24992
642	2.157683	109899776	78786560	42201848	24992
643	3.086278	109899776	78786560	44308512	24992
644	4.477221	109899776	78786560	47117064	24992
645	8.013891	109899776	78786560	34921856	24992
646	6.702043	109899776	78786560	39141608	24992
647	7.404879	109899776	78786560	44081208	24992
648	8.61591	109899776	78786560	49713424	24992
649	11.874184	109899776	78786560	39740024	24992
650	10.922894	109899776	78786560	46790464	24992
651	14.760704	109899776	78786560	38750672	24992
652	13.1995	109899776	78786560	47222560	24992
653	16.833683	109899776	78786560	40624056	24992
654	18.53908	109899776	78786560	35828096	24992
655	16.345426	109899776	78786560	46439296	24992
656	20.638054	109899776	78786560	42098992	24992
657	21.581812	109899776	78786560	39239384	24992
658	23.045355	109899776	78786560	37571056	24992
659	24.432972	109899776	78786560	36988600	24992
660	25.86795	109899776	78786560	37216072	24992
661	26.777678	109899776	78786560	38100840	24992
662	2.251429	109899776	78786560	40302968	24992
663	3.347865	109899776	78786560	42466720	24992
664	4.459937	109899776	78786560	45353376	24992
665	5.568255	109899776	78786560	48963688	24992
666	9.232352	109899776	78786560	37342872	24992
667	7.788718	109899776	78786560	42409312	24992
668	9.079247	109899776	78786560	48214832	24992
669	12.788273	109899776	78786560	38824888	24992
670	11.061737	109899776	78786560	46070392	24992
671	15.284833	109899776	78786560	38511088	24992
672	13.731404	109899776	78786560	47240160	24992
673	17.494547	109899776	78786560	40906072	24992
674	18.977136	109899776	78786560	36445440	24992
675	16.833316	109899776	78786560	47360760	24992
676	20.225235	109899776	78786560	43221224	24992
677	22.077796	109899776	78786560	40580720	24992
678	23.909542	109899776	78786560	39186312	24992
679	25.146757	109899776	78786560	38791536	24992
680	26.293836	109899776	78786560	39158800	24992
681	28.052058	109899776	78786560	40290304	24992
682	2.299589	109899776	78786560	42670360	24992
683	3.438532	109899776	78786560	44892568	24992
684	4.776893	109899776	78786560	47859152	24992
685	8.321051	109899776	78786560	35902224	24992
686	6.930583	109899776	78786560	40359136	24992
687	7.921741	109899776	78786560	45557432	24992
688	9.160167	109899776	78786560	51512432	24992
689	12.425224	109899776	78786560	41761616	24992
690	11.625531	109899776	78786560	49202048	24992
691	15.290887	109899776	78786560	41360336	24992
692	13.716189	109899776	78786560	50306856	24992
693	17.249988	109899776	78786560	43838800	24992
694	18.946672	109899776	78786560	39288560	24992
695	17.806075	109899776	78786560	50502880	24992
696	20.969707	109899776	78786560	46256248	24992
697	22.928167	109899776	78786560	43491592	24992
698	23.974355	109899776	78786560	41974136	24992
699	25.016476	109899776	78786560	41498408	24992
700	27.239472	109899776	78786560	41914728	24992
701	27.633932	109899776	78786560	43038232	24992
702	2.380041	109899776	78786560	45495904	24992
703	3.525949	109899776	78786560	47776960	24992
704	4.690439	109899776	78786560	50834080	24992
705	8.233598	109899776	78786560	38594464	24992
706	7.288305	109899776	78786560	43181872	24992
707	8.22109	109899776	78786560	48527216	24992
708	12.535457	109899776	78786560	38867808	24992
709	11.053926	109899776	78786560	45753432	24992
710	14.521553	109899776	78786560	38177152	24992
711	13.080881	109899776	78786560	46607944	24992
712	17.074987	109899776	78786560	40398080	24992
713	15.352594	109899776	78786560	50357160	24992
714	18.99576	109899776	78786560	44996848	24992
715	21.27866	109899776	78786560	41417832	24992
716	22.282508	109899776	78786560	39217576	24992
717	20.293486	109899776	78786560	52288272	24992
718	23.825348	109899776	78786560	49693512	24992
719	25.666435	109899776	78786560	48388632	24992
720	27.048614	109899776	78786560	48051416	24992
721	28.34908	109899776	78786560	48606392	24992
722	2.423864	109899776	78786560	50625784	24992
723	6.207321	109899776	78786560	37029168	24992
724	4.744207	109899776	78786560	40149744	24992
725	5.944952	109899776	78786560	44052600	24992
726	7.613552	109899776	78786560	48789824	24992
727	11.130074	109899776	78786560	38538816	24992
728	9.685321	109899776	78786560	44795104	24992
729	10.922659	109899776	78786560	51911528	24992
730	14.267873	109899776	78786560	43456192	24992
731	13.42408	109899776	78786560	52074816	24992
732	17.336775	109899776	78786560	45186608	24992
733	19.297605	109899776	78786560	40338488	24992
734	16.88734	109899776	78786560	51330760	24992
735	20.409192	109899776	78786560	46948056	24992
736	22.761484	109899776	78786560	44227416	24992
737	24.429467	109899776	78786560	42696168	24992
738	25.965127	109899776	78786560	42235072	24992
739	26.786055	109899776	78786560	42722096	24992
740	28.219072	109899776	78786560	43862376	24992
741	29.364569	109899776	78786560	45665528	24992
742	2.481362	109899776	78786560	48824456	24992
743	3.69719	109899776	78786560	51222248	24992
744	7.896108	109899776	78786560	38513272	24992
745	6.412783	109899776	78786560	42519360	24992
746	7.420379	109899776	78786560	47323040	24992
747	8.409213	109899776	78786560	52930720	24992
748	12.26039	109899776	78786560	43062240	24992
749	11.132921	109899776	78786560	50311248	24992
750	15.943923	109899776	78786560	42495872	24992
751	14.021002	109899776	78786560	51332096	24992
752	17.847844	109899776	78786560	44967240	24992
753	19.715628	109899776	78786560	40579376	24992
754	17.854976	109899776	78786560	51846840	24992
755	21.548004	109899776	78786560	47758248	24992
756	23.378768	109899776	78786560	45266672	24992
757	24.774382	109899776	78786560	44074992	24992
758	26.289981	109899776	78786560	43889896	24992
759	27.399402	109899776	78786560	44533248	24992
760	28.968528	109899776	78786560	45905016	24992
761	29.793421	109899776	78786560	47887496	24992
762	2.638288	109899776	78786560	51153520	24992
763	3.79901	109899776	78786560	53609792	24992
764	7.755727	109899776	78786560	40606632	24992
765	6.299265	109899776	78786560	44723032	24992
766	7.643532	109899776	78786560	49656776	24992
767	11.920838	109899776	78786560	39766152	24992
768	10.214319	109899776	78786560	46336592	24992
769	11.648203	109899776	78786560	53730392	24992
770	15.207909	109899776	78786560	45576048	24992
771	17.551441	109899776	78786560	39779240	24992
772	15.53623	109899776	78786560	49676376	24992
773	19.485142	109899776	78786560	44754176	24992
774	21.610715	109899776	78786560	41617160	24992
775	19.356699	109899776	78786560	54011544	24992
776	22.234579	109899776	78786560	50812616	24992
777	24.88208	109899776	78786560	49007504	24992
778	26.990975	109899776	78786560	48345904	24992
779	27.751674	109899776	78786560	48682632	24992
780	30.007504	109899776	78786560	49826912	24992
781	30.995291	109899776	78786560	51565928	24992
782	5.313822	109899776	78786560	38715168	24992
783	3.99123	109899776	78786560	41230384	24992
784	5.201006	109899776	78786560	44588616	24992
785	6.353909	109899776	78786560	48812216	24992
786	8.053836	109899776	78786560	53850048	24992
787	11.838998	109899776	78786560	43483120	24992
788	10.371196	109899776	78786560	50216448	24992
789	14.49231	109899776	78786560	42149848	24992
790	13.223774	109899776	78786560	50578960	24992
791	17.352806	109899776	78786560	44149872	24992
792	15.90981	109899776	78786560	54260768	24992
793	19.599898	109899776	78786560	48900120	24992
794	22.062978	109899776	78786560	45335584	24992
795	23.471991	109899776	78786560	43286896	24992
796	25.086919	109899776	78786560	42512008	24992
797	26.279777	109899776	78786560	42733872	24992
798	28.685852	109899776	78786560	43792784	24992
799	29.092043	109899776	78786560	45421000	24992
800	30.525515	109899776	78786560	47645912	24992
801	31.435116	109899776	78786560	50414120	24992
802	2.675849	109899776	78786560	54391856	24992
803	7.136908	109899776	78786560	40820464	24992
804	6.094634	109899776	78786560	44259496	24992
805	7.383207	109899776	78786560	48563816	24992
806	8.715393	109899776	78786560	53725872	24992
807	13.698951	109899776	78786560	43586088	24992
808	11.8643	109899776	78786560	50469016	24992
809	19.273093	109899776	78786560	42687352	24992
810	26.707215	106913792	76165120	15493376	24992
811	15.623798	106913792	76165120	25000224	24992
812	16.877098	107454464	76165120	19820944	24992
813	18.966136	107454464	76165120	16419728	24992
814	18.595849	107454464	76165120	28514640	24992
815	20.622091	107454464	76165120	25322312	24992
816	23.39099	107454464	76165120	23477672	24992
817	24.441944	107454464	76165120	22962336	24992
818	25.660372	107454464	76165120	23320992	24992
819	27.085158	107454464	76165120	24562216	24992
820	28.437174	107454464	76165120	26452600	24992
821	28.968276	107454464	76165120	28877136	24992
822	2.674737	107454464	76165120	19304624	24992
823	4.164535	107454464	76165120	21936472	24992
824	5.385896	107454464	76165120	25449808	24992
825	6.611849	107454464	76165120	29840336	24992
826	8.656552	107454464	76165120	18774848	24992
827	9.487625	107454464	76165120	24928408	24992
828	11.879096	107454464	76165120	16433392	24992
829	12.370465	107454464	76165120	24355952	24992
830	15.057245	107454464	76165120	17814160	24992
831	14.792268	107454464	76165120	27505592	24992
832	16.876331	107454464	76165120	22067984	24992
833	19.146625	107454464	76165120	18596384	24992
834	20.828061	107454464	76165120	16650456	24992
835	21.310044	107454464	76165120	29923528	24992
836	22.629208	107454464	76165120	27637824	24992
837	24.121822	107454464	76165120	26679944	24992
838	26.161416	107454464	76165120	26806160	24992
839	27.513296	107454464	76165120	27826512	24992
840	28.499194	107454464	76165120	29571080	24992
841	31.989032	107454464	76165120	18618408	24992
842	2.806537	107454464	76165120	24962768	24992
843	4.163974	107454464	76165120	27733752	24992
844	6.081451	107454464	76165120	15565920	24992
845	7.142903	107454464	76165120	20164432	24992
846	8.51513	107454464	76165120	25708272	24992
847	10.649171	107454464	76165120	16607512	24992
848	11.246762	107454464	76165120	23935488	24992
849	14.005069	107454464	76165120	17014072	24992
850	14.061934	107454464	76165120	26208512	24992
851	16.661351	107454464	76165120	20674368	24992
852	17.944737	107454464	76165120	17064576	24992
853	18.511891	107454464	76165120	29077512	24992
854	20.36863	107454464	76165120	25834696	24992
855	22.499033	107454464	76689408	24138896	24992
856	23.674765	107454464	77213696	23696848	24992
857	25.402454	107454464	77737984	24250880	24992
858	26.834699	107454464	78262272	25633416	24992
859	28.300765	107454464	78786560	27770848	24992
860	28.783665	107454464	79310848	30387856	24992
861	32.817422	107724800	80359424	20039904	24992
862	2.847678	107724800	80883712	27060160	24992
863	4.228768	107724800	80883712	29889376	24992
864	6.290307	107724800	81408000	17538008	24992
865	7.182919	107724800	81408000	22282480	24992
866	8.728249	107724800	81408000	27960960	24992
867	10.96454	107724800	81932288	18749968	24992
868	11.382631	107724800	81932288	26349040	24992
869	14.016303	107724800	82456576	19219400	24992
870	14.596038	107724800	82456576	28694144	24992
871	16.76335	107724800	82980864	23180088	24992
872	18.669133	107995136	83505152	19587944	24992
873	20.31097	107995136	84029440	17566368	24992
874	19.948727	107995136	84029440	30900720	24992
875	21.940141	107995136	84553728	28759064	24992
876	23.646651	107995136	85078016	27993656	24992
877	25.401096	107995136	85602304	28279640	24992
878	27.102964	107995136	86126592	29485720	24992
879	31.148255	108265472	87175168	18112960	24992
880	33.274753	110968832	90320896	25855016	24992
881	32.499474	111239168	90845184	30968640	24992
882	3.024144	111779840	92418048	24187048	24992
883	4.355197	111779840	92418048	27082712	24992
884	5.73877	111779840	92418048	30934608	24992
885	10.972508	114483200	95563776	22838184	24992
886	9.174232	114483200	95563776	28631128	24992
887	10.258925	114483200	95563776	35393336	24992
888	12.468645	114483200	96088064	27204704	24992
889	13.470925	114483200	96088064	35895512	24992
890	15.217222	114753536	96612352	29417304	24992
891	17.626783	114753536	97136640	25132640	24992
892	17.755561	114753536	97136640	36757128	24992
893	20.022491	114753536	97660928	33065768	24992
894	21.731398	114753536	98185216	30998920	24992
895	23.174932	114753536	98709504	30252736	24992
896	25.064706	114753536	99233792	30651672	24992
897	26.671208	114753536	99758080	32064584	24992
898	28.12205	114753536	100282368	34091368	24992
899	29.474713	114753536	100806656	36745048	24992
900	32.324103	115023872	101855232	26502208	24992
901	33.095507	115023872	102379520	32555568	24992
902	3.50915	115294208	103428096	23432952	24992
903	4.401781	115294208	103428096	26391048	24992
904	5.977584	115294208	103428096	30335024	24992
905	7.61191	115294208	103428096	35249248	24992
906	9.352027	115294208	103952384	25262712	24992
907	10.368823	115294208	103952384	32152760	24992
908	12.983594	115294208	104476672	24777184	24992
909	13.547449	115294208	104476672	33672648	24992
910	16.001784	115294208	105000960	27939544	24992
911	17.724786	115294208	105525248	24263184	24992
912	18.510383	115294208	105525248	36155864	24992
913	20.40517	115294208	106049536	32958200	24992
914	22.206001	115294208	106573824	31374424	24992
915	24.236355	115294208	107098112	31012192	24992
916	25.866663	115294208	107622400	31737112	24992
917	27.587081	115294208	108146688	33326392	24992
918	28.522376	115294208	108670976	35585544	24992
919	30.113565	115294208	109195264	38484824	24992
920	32.649575	115294208	110243840	28324840	24992
921	33.647591	115564544	110768128	34547616	24992
922	3.056306	116105216	112340992	28723576	24992
923	4.577072	116105216	112340992	31732584	24992
924	6.31259	116105216	112340992	35740448	24992
925	11.405491	118808576	115486720	27867256	24992
926	9.264726	118808576	115486720	33884768	24992
927	10.566174	118808576	115486720	40924512	24992
928	12.757872	119078912	116011008	32818920	24992
929	13.935672	119078912	116011008	41888512	24992
930	16.05564	119078912	116535296	35536280	24992
931	18.146855	119078912	117059584	31372136	24992
932	20.066221	119078912	117583872	28915320	24992
933	20.297414	119078912	117583872	42004952	24992
934	21.766424	119078912	118108160	39657160	24992
935	24.348712	119078912	118108160	38833256	24992
936	26.103354	119078912	118108160	39160544	24992
937	27.475129	119078912	118108160	40390568	24992
938	30.770452	119619584	118108160	29195944	24992
939	34.206899	122322944	118108160	37167968	24992
940	32.24658	122322944	118108160	42367392	24992
941	35.762412	122863616	118108160	34578976	24992
942	3.164698	125566976	118108160	46746648	24992
943	5.62712	126107648	118108160	34260040	24992
944	6.14086	126107648	118108160	38388264	24992
945	7.846784	126107648	118108160	43548264	24992
946	10.203068	126107648	118108160	34350648	24992
947	11.536859	126107648	118108160	41535784	24992
948	13.608082	126107648	118108160	34718848	24992
949	14.232281	126107648	118108160	44101672	24992
950	16.705681	126107648	118108160	38809136	24992
951	18.304041	126107648	118108160	35695280	24992
952	18.537649	126107648	118108160	48264552	24992
953	20.971105	126107648	118108160	45302552	24992
954	23.189329	126107648	118108160	43912800	24992
955	24.94163	126107648	118108160	43934168	24992
956	26.613361	126107648	118108160	44967120	24992
957	27.93148	126107648	118108160	46846296	24992
958	29.371148	126107648	118108160	49437624	24992
959	32.807955	126107648	118108160	38963792	24992
960	33.887821	126107648	118108160	44999512	24992
961	36.430391	126918656	118108160	38165712	24992
962	3.207109	129622016	118108160	50804256	24992
963	5.48015	130162688	118108160	38282600	24992
964	6.557733	130162688	118108160	42446336	24992
965	7.970057	130162688	118108160	47698200	24992
966	10.036027	130162688	118108160	38581528	24992
967	11.200425	130162688	118108160	45879720	24992
968	14.179609	130162688	118108160	39171896	24992
969	14.417952	130162688	118108160	48561208	24992
970	16.972592	130162688	118108160	43485224	24992
971	19.041373	130162688	118108160	40389264	24992
972	19.691643	130162688	118108160	52984872	24992
973	21.119083	130162688	118108160	50261896	24992
974	23.37212	130162688	118108160	48984480	24992
975	25.733939	130162688	118108160	49030080	24992
976	27.26522	130162688	118108160	50097840	24992
977	29.337397	130162688	118108160	52072736	24992
978	31.911267	130433024	118108160	41419392	24992
979	36.8248	133136384	118108160	50082464	24992
980	37.612813	133406720	118108160	56011336	24992
981	51.881366	97517568	67252224	20624552	24992
982	3.765354	97517568	67252224	13968072	24992
983	4.841511	97517568	67252224	17148320	24992
984	6.493024	97517568	67252224	21390104	24992
985	7.998878	97517568	67252224	26735648	24992
986	10.334942	97517568	67252224	17189808	24992
987	11.327711	97517568	67252224	24622856	24992
988	13.945863	97517568	67252224	17573248	24992
989	14.763614	97517568	67252224	27146032	24992
990	16.963121	97517568	67252224	21734376	24992
991	19.07787	97517568	67252224	18356288	24992
992	21.095102	97517568	67252224	16746064	24992
993	23.023043	97517568	67252224	16413096	24992
994	24.597733	97517568	67252224	17243080	24992
995	25.983677	97517568	67252224	19067096	24992
996	28.099477	97517568	67252224	21535400	24992
997	29.184595	97517568	67252224	24691616	24992
998	30.961038	97517568	67252224	28354208	24992
999	34.418984	97517568	67252224	19150608	24992
1000	34.330717	97517568	67252224	25924232	24992
