x	Duration	RSS	HeapTotal	HeapUsed	External
0	NA	97370112	65155072	11739248	24992
1	0.275359	97370112	65155072	11787784	24992
2	0.209284	97370112	65155072	11859488	24992
3	0.238295	97370112	65155072	11956400	24992
4	0.284564	97370112	65155072	12079704	24992
5	0.3369	97370112	65155072	12230848	24992
6	0.392479	97370112	65155072	12410608	24992
7	0.469542	97370112	65155072	12619808	24992
8	0.512242	97370112	65155072	12859448	24992
9	0.568949	97370112	65155072	13131392	24992
10	0.633052	97370112	65155072	13435656	24992
11	1.046483	97370112	65155072	13773112	24992
12	0.793294	97370112	65155072	14145328	24992
13	0.865343	97370112	65155072	14553144	24992
14	1.152959	97370112	65155072	15001328	24992
15	0.992148	97370112	65155072	15483200	24992
16	1.286625	97370112	65155072	16004840	24992
17	0.963878	97370112	65155072	16565200	24992
18	1.0269	97370112	65155072	17166160	24992
19	1.081769	97370112	65155072	17808952	24992
20	1.16437	97370112	65155072	18493520	24992
21	1.229962	97370112	65155072	19221128	24992
22	0.177703	97370112	65155072	19960432	24992
23	0.43336	97370112	65155072	20093952	24992
24	0.360597	97370112	65155072	20273400	24992
25	0.405469	97370112	65155072	20500480	24992
26	0.480892	97370112	65155072	20776848	24992
27	0.558743	97370112	65155072	21102808	24992
28	0.642766	97370112	65155072	21479432	24992
29	0.775356	97370112	65155072	21907448	24992
30	1.114092	97370112	65155072	22388968	24992
31	0.92737	97370112	65155072	22924496	24992
32	0.974555	97370112	65155072	23513608	24992
33	1.052346	97370112	65155072	24157864	24992
34	1.14039	97370112	65155072	24858408	24992
35	1.225582	97370112	65155072	25615904	24992
36	1.315995	97370112	65155072	26431424	24992
37	1.636942	97370112	65155072	27305856	24992
38	1.717022	97370112	65155072	28244480	24992
39	2.574339	97370112	65155072	12953120	24992
40	1.780992	97370112	65155072	14012664	24992
41	1.805812	97370112	65155072	15134168	24992
42	0.228287	97370112	65155072	16313464	24992
43	0.342077	97370112	65155072	16506112	24992
44	0.458471	97370112	65155072	16764192	24992
45	0.552824	97370112	65155072	17089232	24992
46	0.664976	97370112	65155072	17481448	24992
47	0.767512	97370112	65155072	17941880	24992
48	0.877426	97370112	65155072	18471344	24992
49	1.012153	97370112	65155072	19070872	24992
50	1.104556	97370112	65155072	19742320	24992
51	1.330637	97370112	65155072	20488720	24992
52	1.347355	97370112	65155072	21309088	24992
53	1.696497	97370112	65155072	22206176	24992
54	1.59439	97370112	65155072	23181112	24992
55	1.677024	97370112	65155072	24231880	24992
56	1.793687	97370112	65155072	25362032	24992
57	2.155657	97370112	65155072	26571000	24992
58	2.050168	97370112	65155072	27862232	24992
59	3.265036	97370112	65155072	13111600	24992
60	2.502314	97370112	65155072	14567072	24992
61	2.636124	97370112	65155072	16105848	24992
62	0.305326	97370112	65155072	17746448	24992
63	0.439845	97370112	65155072	18001288	24992
64	0.637942	97370112	65155072	18343824	24992
65	0.702389	97370112	65155072	18771696	24992
66	0.836549	97370112	65155072	19288024	24992
67	0.972018	97370112	65155072	19893200	24992
68	1.122118	97370112	65155072	20588152	24992
69	1.270629	97370112	65155072	21373816	24992
70	1.405892	97370112	65155072	22252480	24992
71	1.60088	97370112	65155072	23223208	24992
72	1.693261	97370112	65155072	24288920	24992
73	1.857316	97370112	65155072	25447656	24992
74	1.988353	97370112	65155072	26701640	24992
75	2.145846	97370112	65155072	28052104	24992
76	3.31677	97370112	65155072	13293688	24992
77	2.695716	97370112	65155072	14839200	24992
78	2.638707	97370112	65155072	16485664	24992
79	2.80098	97370112	65155072	18232000	24992
80	3.12383	97370112	65155072	20080840	24992
81	3.533056	97370112	65155072	22031800	24992
82	0.353398	97370112	65155072	24125904	24992
83	0.525936	97370112	65155072	24436528	24992
84	0.686069	97370112	65155072	24852872	24992
85	0.923634	97370112	65155072	25373648	24992
86	1.019522	97370112	65155072	26001424	24992
87	1.189456	97370112	65155072	26736672	24992
88	1.587511	97370112	65155072	27580064	24992
89	1.533919	97370112	65155072	28532776	24992
90	2.692816	97370112	65155072	13344688	24992
91	1.891596	97370112	65155072	14519560	24992
92	2.278832	97370112	65155072	15806400	24992
93	2.236956	97370112	65155072	17206192	24992
94	2.632261	97370112	65155072	18719912	24992
95	2.61059	97370112	65155072	20348464	24992
96	2.792306	97370112	65155072	22092696	24992
97	2.982573	97370112	65155072	23953616	24992
98	3.362193	97370112	65155072	25933920	24992
99	3.406201	97370112	65155072	28032784	24992
100	4.276953	97370112	65155072	14053000	24992
101	3.745582	97370112	65155072	16391952	24992
102	0.418327	97370112	65155072	18917704	24992
103	0.616826	97370112	65155072	19284224	24992
104	0.807684	97370112	65155072	19778040	24992
105	1.019805	97370112	65155072	20400088	24992
106	1.212135	97370112	65155072	21151792	24992
107	1.406648	97370112	65155072	22033608	24992
108	1.835993	97370112	65155072	23046392	24992
109	1.822743	97370112	65155072	24191176	24992
110	2.449491	97370112	65155072	25469800	24992
111	2.281283	97370112	65155072	26885928	24992
112	2.453919	97370112	65155072	28433064	24992
113	3.49463	97370112	65155072	13885088	24992
114	2.872521	97370112	65155072	15705408	24992
115	3.068179	97370112	65155072	17663952	24992
116	3.768126	97370112	65155072	19761632	24992
117	3.540822	97370112	65155072	21998712	24992
118	3.88495	97370112	65155072	24375712	24992
119	3.958282	97370112	65155072	26893712	24992
120	4.390456	97370112	65155072	29561304	24992
121	4.902632	97370112	65155072	15981200	24992
122	0.473991	97370112	65155072	19017608	24992
123	0.70901	97370112	65155072	19452496	24992
124	0.942963	97370112	65155072	20033184	24992
125	1.168035	97370112	65155072	20760624	24992
126	1.39329	97370112	65155072	21636248	24992
127	1.632572	97370112	65155072	22660536	24992
128	1.890991	97370112	65155072	23834352	24992
129	2.092256	97370112	65155072	25158656	24992
130	2.888752	97370112	65155072	26636728	24992
131	2.58958	97370112	65155072	28265816	24992
132	3.667939	97370112	65155072	13859424	24992
133	3.245157	97370112	65155072	15800632	24992
134	3.308012	97370112	65155072	17892184	24992
135	3.590458	97370112	65155072	20139872	24992
136	3.795829	97370112	65155072	22547384	24992
137	4.49118	97370112	65155072	25111488	24992
138	4.573295	97370112	65155072	27848840	24992
139	5.448321	97370112	65155072	14600184	24992
140	4.797619	97370112	65155072	17643416	24992
141	5.035783	97370112	65155072	20848176	24992
142	0.536204	97370112	65155072	24325528	24992
143	0.801562	97370112	65155072	24816112	24992
144	1.056546	97370112	65155072	25471096	24992
145	1.320724	97370112	65155072	26291264	24992
146	1.580367	97370112	65155072	27278224	24992
147	1.856405	97370112	65155072	28432240	24992
148	2.113275	97370112	65155072	29754424	24992
149	2.885437	97370112	65155072	14886120	24992
150	2.655254	97370112	65155072	16548048	24992
151	2.898694	97370112	65155072	18380832	24992
152	3.390356	97370112	65155072	20385296	24992
153	3.45873	97370112	65155072	22562504	24992
154	3.727054	97370112	65155072	24913272	24992
155	4.212118	97370112	65155072	27438504	24992
156	4.994173	97370112	65155072	14105744	24992
157	4.918701	97370112	65155072	16984840	24992
158	4.862251	97370112	65155072	20041272	24992
159	5.126666	97370112	65155072	23275800	24992
160	5.651564	97370112	65155072	26689888	24992
161	6.509308	97370112	65155072	14363448	24992
162	0.604346	97370112	65155072	18267816	24992
163	0.890069	97370112	65155072	18814280	24992
164	1.178477	97370112	65155072	19543672	24992
165	1.47939	97370112	65155072	20458472	24992
166	1.988023	97370112	65155072	21557088	24992
167	2.210981	97370112	65155072	22843600	24992
168	2.578874	97370112	65155072	24314072	24992
169	2.652432	97370112	65155072	25974096	24992
170	2.946463	97370112	65155072	27821320	24992
171	3.463023	97370112	65155072	29858040	24992
172	4.05359	97370112	65155072	15749176	24992
173	4.459036	97370112	65155072	18167280	24992
174	4.415719	97370112	65155072	20786520	24992
175	4.471933	97370112	65155072	23589656	24992
176	4.756133	97370112	65155072	26586744	24992
177	5.117845	97370112	65155072	29778760	24992
178	6.203439	97370112	65155072	16908528	24992
179	6.019204	97370112	65155072	20495080	24992
180	6.048536	97370112	65155072	24280760	24992
181	6.618455	97370112	65155072	28263912	24992
182	0.66487	97370112	65155072	16613872	24992
183	0.988406	97370112	65155072	17216112	24992
184	1.296479	97370112	65155072	18019816	24992
185	1.673477	97370112	65155072	19025856	24992
186	1.935522	97370112	65155072	20235616	24992
187	2.268327	97370112	65155072	21649608	24992
188	2.797859	97370112	65155072	23268608	24992
189	2.932886	97370112	65155072	25096160	24992
190	3.2685	97370112	65155072	27129128	24992
191	3.608865	97370112	65155072	29369928	24992
192	4.991244	97370112	65155072	15735608	24992
193	4.260441	97370112	65155072	18399040	24992
194	4.595886	97370112	65155072	21270048	24992
195	4.991533	97370112	65155072	24356664	24992
196	5.260988	97370112	65155072	27654720	24992
197	6.719998	97370112	65155072	15357128	24992
198	6.283757	97370112	65155072	19081088	24992
199	6.49542	97370112	65155072	23023432	24992
200	6.637113	97370112	65155072	27180400	24992
201	7.983712	97370112	65155072	15816208	24992
202	0.76247	97370112	65155072	20593264	24992
203	1.128089	97370112	65155072	21251352	24992
204	1.497631	97370112	65155072	22130224	24992
205	1.867198	97370112	65155072	23229072	24992
206	2.428592	97370112	65155072	24550320	24992
207	2.499258	97370112	65155072	26094328	24992
208	2.83662	97370112	65155072	27861888	24992
209	3.197079	97370112	65155072	29862272	24992
210	4.377498	97370112	65155072	16022680	24992
211	3.934921	97370112	65155072	18498264	24992
212	4.299485	97370112	65155072	21204712	24992
213	4.943291	97370112	65155072	24146712	24992
214	5.016425	97370112	65155072	27328056	24992
215	5.620033	97370112	65155072	30751544	24992
216	6.844369	97370112	65155072	18223320	24992
217	6.604706	97370112	65155072	22120592	24992
218	6.759786	97370112	65155072	26261024	24992
219	7.113687	97370112	65155072	30650872	24992
220	8.085047	97370112	65155072	19089040	24992
221	7.640946	97370112	65155072	23959576	24992
222	0.780891	97370112	65155072	29291992	24992
223	1.165781	97370112	65155072	30030816	24992
224	1.551453	97370112	65155072	31022352	24992
225	2.650936	97370112	65155072	16052576	24992
226	2.583907	97370112	65155072	17534816	24992
227	2.705452	97370112	65155072	19266576	24992
228	3.083589	97370112	65155072	21249456	24992
229	3.483653	97370112	65155072	23487944	24992
230	3.884671	97370112	65155072	25974728	24992
231	4.31491	97370112	65155072	28721224	24992
232	4.868898	97370112	65155072	31715264	24992
233	5.778969	97370112	65155072	18667088	24992
234	5.46737	97370112	65155072	22172424	24992
235	6.084617	97370112	65155072	25934728	24992
236	6.269966	97370112	65155072	29956512	24992
237	7.527743	97370112	65155072	18188120	24992
238	7.295161	97370112	65155072	22728792	24992
239	7.474567	97370112	65155072	27536328	24992
240	9.120912	97370112	65155072	16911104	24992
241	8.356278	97370112	65155072	22239272	24992
242	0.842611	97370112	65155072	28068240	24992
243	1.259345	97370112	65155072	28862848	24992
244	1.747669	97370112	65155072	29922848	24992
245	2.082298	97370112	65155072	31249016	24992
246	3.348254	97370112	65155072	16680904	24992
247	3.154433	97370112	65155072	18553368	24992
248	3.564893	97370112	65155072	20684112	24992
249	3.767143	97370112	65155072	23084920	24992
250	4.185934	97370112	65155072	25765280	24992
251	4.614233	97370112	65155072	28709488	24992
252	5.099267	97370112	65155072	31929760	24992
253	6.525273	97370112	65155072	19182568	24992
254	5.891831	97370112	65155072	22947744	24992
255	6.541879	97370112	65155072	26993176	24992
256	6.765335	97370112	65155072	31313736	24992
257	8.065976	97370112	65155072	19747256	24992
258	7.886553	97370112	65155072	24621880	24992
259	8.321954	97370112	65155072	29775480	24992
260	9.481886	97370112	65155072	19252192	24992
261	9.219569	97370112	65155072	24967512	24992
262	0.960119	97370112	65155072	31214976	24992
263	1.429452	97370112	65155072	32065400	24992
264	2.762957	97370112	65155072	16962224	24992
265	2.563099	97370112	65155072	18381240	24992
266	2.691472	97370112	65155072	20086368	24992
267	3.160768	97370112	65155072	22078352	24992
268	3.58429	97370112	65155072	24357800	24992
269	4.255401	97370112	65155072	26925688	24992
270	4.499963	97370112	65155072	29784264	24992
271	6.262066	97370112	65155072	17068704	24992
272	5.569568	97370112	65155072	20508352	24992
273	6.380802	97370112	65155072	24243832	24992
274	6.38462	97370112	65155072	28268760	24992
275	7.105312	97370112	65155072	32587728	24992
276	8.178519	97370112	65155072	20910528	24992
277	7.801739	97370112	65155072	25828072	24992
278	8.417815	97370112	65155072	31036696	24992
279	9.959575	97370112	65155072	20483696	24992
280	9.139721	97370112	65155072	26290232	24992
281	9.723356	97370112	65155072	32398096	24992
282	1.000401	97370112	65155072	22810144	24992
283	1.443881	97370112	65155072	23716816	24992
284	2.423945	97370112	65155072	24925528	24992
285	2.396708	97370112	65155072	26437504	24992
286	2.930654	97370112	65155072	28254224	24992
287	3.417349	97370112	65155072	30376016	24992
288	4.336076	97370112	65155072	32803856	24992
289	5.242753	97370112	65155072	19280144	24992
290	5.145851	97370112	65155072	22324136	24992
291	5.651475	97370112	65155072	25676752	24992
292	6.019434	97370112	65155072	29339696	24992
293	6.280761	97370112	65155072	33312656	24992
294	7.921787	97370112	65155072	21249328	24992
295	7.415037	97370112	65155072	25849320	24992
296	8.227781	97370112	65155072	30765664	24992
297	9.836102	97370112	65155072	20027696	24992
298	9.025531	97370112	65155072	25574024	24992
299	9.311644	97370112	65155072	31440880	24992
300	11.128289	97370112	65155072	21574008	24992
301	10.522467	97370112	65155072	28075128	24992
302	1.094098	97370112	65155072	19636968	24992
303	1.620438	97370112	65155072	20599192	24992
304	2.279103	97370112	65155072	21882176	24992
305	2.584943	97370112	65155072	23487272	24992
306	3.06176	97370112	65155072	25421064	24992
307	3.571666	97370112	65155072	27675176	24992
308	4.104811	97370112	65155072	30252072	24992
309	4.838339	97370112	65155072	33156192	24992
310	6.364234	97370112	65155072	20170704	24992
311	5.67425	97370112	65155072	23727472	24992
312	6.459368	97370112	65155072	27617536	24992
313	6.693252	97370112	65155072	31834536	24992
314	8.343091	97370112	65155072	20316872	24992
315	8.034012	97370112	65155072	25192288	24992
316	8.269367	97370112	65155072	30406480	24992
317	10.328604	97370112	65155072	20099992	24992
318	9.398793	97370112	65155072	25979200	24992
319	10.125395	97370112	65155072	32200712	24992
320	11.733594	97370112	65155072	22666360	24992
321	10.943552	97370112	65155072	29550288	24992
322	1.10186	97370112	65155072	21411584	24992
323	1.633619	97370112	65155072	22429736	24992
324	2.181818	97370112	65155072	23793208	24992
325	2.711625	97370112	65155072	25491144	24992
326	3.6881	97370112	65155072	27540864	24992
327	3.797972	97370112	65155072	29932232	24992
328	4.349428	97370112	65155072	32658840	24992
329	6.060118	97370112	65155072	19642632	24992
330	5.447867	97370112	65155072	23057640	24992
331	6.212637	97370112	65155072	26818704	24992
332	6.761078	97370112	65155072	30928896	24992
333	8.56514	97370112	65155072	19540432	24992
334	7.731932	97370112	65155072	24351784	24992
335	8.467324	97370112	65155072	29518360	24992
336	10.184152	97370112	65155072	19391800	24992
337	9.614356	97370112	65155072	25257008	24992
338	10.013908	97370112	65155072	31470592	24992
339	12.014412	97370112	65155072	22138600	24992
340	11.382255	97370112	65155072	29056960	24992
341	13.587793	97370112	65155072	20786584	24992
342	1.167727	97370112	65155072	28774136	24992
343	1.723934	97370112	65155072	29848056	24992
344	2.512143	97370112	65155072	31279960	24992
345	2.864633	97370112	65155072	33083120	24992
346	4.64224	97370112	65155072	19159648	24992
347	4.033534	97370112	65155072	21671592	24992
348	4.585701	97370112	65155072	24558808	24992
349	5.168844	97370112	65155072	27795032	24992
350	5.96763	97370112	65155072	31395736	24992
351	7.926327	97370112	65155072	19556848	24992
352	6.970924	97370112	65155072	23887144	24992
353	7.576633	97370112	65155072	28583968	24992
354	8.371069	97370112	65155072	33670432	24992
355	9.959622	97370112	65155072	22947952	24992
356	9.556976	97370112	65155072	28783616	24992
357	9.866773	97370112	65155072	34965176	24992
358	11.81599	97370112	65155072	25146640	24992
359	11.51395	97370112	65155072	32062960	24992
360	13.03732	97370112	65155072	23456728	24992
361	13.136345	97370112	65155072	31119896	24992
362	1.26639	97370112	65155072	23775896	24992
363	1.810382	97370112	65155072	24906808	24992
364	2.46577	97370112	65155072	26413080	24992
365	3.045983	97370112	65155072	28296864	24992
366	3.697453	97370112	65155072	30559400	24992
367	4.550223	97370112	65155072	33208080	24992
368	6.203098	97370112	65155072	20228840	24992
369	5.83338	97370112	65155072	23632056	24992
370	6.095703	97370112	65155072	27418336	24992
371	6.897059	97370112	65155072	31587864	24992
372	9.164634	97370112	65155072	20370592	24992
373	7.936287	97370112	65155072	25308656	24992
374	8.757952	97370112	65155072	30640112	24992
375	11.192085	97370112	65155072	20692112	24992
376	10.131382	97370112	65155072	26794456	24992
377	10.694182	97370112	65155072	33281464	24992
378	12.90465	97370112	65155072	24137912	24992
379	11.915699	97370112	65155072	31413864	24992
380	14.268968	97370112	65155072	23308008	24992
381	13.698123	97370112	65155072	31370384	24992
382	1.524049	97370112	65155072	24465720	24992
383	1.918013	97370112	65155072	25651328	24992
384	2.548619	97370112	65155072	27238856	24992
385	3.171821	97370112	65155072	29215576	24992
386	3.813376	97370112	65155072	31589720	24992
387	4.448383	97370112	65155072	34361696	24992
388	6.742393	97370112	65155072	21447608	24992
389	5.761219	97370112	65155072	25017960	24992
390	6.824106	97370112	65155072	28998424	24992
391	7.012831	97370112	65155072	33371952	24992
392	9.425128	97370112	65155072	22175656	24992
393	8.795059	97370112	65155072	27355144	24992
394	8.967533	97370112	65155072	32938904	24992
395	11.331019	97370112	65155072	23036728	24992
396	10.336648	97370112	65155072	29432968	24992
397	12.897559	97370112	65155072	20846848	24992
398	11.945898	97370112	65155072	28059032	24992
399	12.410389	97370112	65155072	35680264	24992
400	14.742817	97370112	65155072	27418584	24992
401	13.825941	97370112	65155072	35872120	24992
402	1.431517	97370112	65155072	28828824	24992
403	2.104247	97370112	65155072	30070288	24992
404	2.96019	97370112	65155072	31725400	24992
405	3.332603	97370112	65155072	33796576	24992
406	4.066259	97370112	65155072	36282208	24992
407	5.986684	97370112	65155072	22871232	24992
408	5.352651	97370112	65155072	26191984	24992
409	6.236595	97370112	65155072	29929528	24992
410	6.71521	97370112	65155072	34090568	24992
411	9.366527	97370112	65155072	22651432	24992
412	8.156529	97370112	65155072	27652944	24992
413	9.009437	97370112	65155072	33076256	24992
414	11.270172	97370112	65155072	23086392	24992
415	10.340313	97370112	65155072	29353800	24992
416	10.781973	97370112	65155072	36052680	24992
417	13.326978	97370112	65155072	26854488	24992
418	12.400155	97370112	65155072	34407992	24992
419	14.604093	97370112	65155072	26373712	24992
420	13.999613	97370112	65155072	34809880	24992
421	16.252832	97370112	65155072	27621368	24992
422	3.1022	97370112	65155072	21142720	24992
423	2.205775	97370112	65155072	22490728	24992
424	2.942202	97370112	65155072	24294440	24992
425	3.693154	97370112	65155072	26542688	24992
426	4.5054	97370112	65155072	29238472	24992
427	4.892018	97370112	65155072	32395128	24992
428	5.636058	97370112	65155072	36009520	24992
429	7.974203	97370112	65155072	23854656	24992
430	7.265416	97370112	65155072	28367912	24992
431	8.178943	97370112	65155072	33344576	24992
432	10.128522	97370112	65155072	22953048	24992
433	9.275316	97370112	65155072	28837304	24992
434	10.163477	97370112	65155072	35185304	24992
435	12.390827	97370112	65155072	25862824	24992
436	11.334897	97370112	65155072	33119544	24992
437	13.931164	97370112	65155072	25037496	24992
438	12.949272	97370112	65155072	33227840	24992
439	15.734202	97370112	65155072	26055056	24992
440	14.430096	97370112	65155072	35169360	24992
441	16.90243	97370112	65155072	28673368	24992
442	1.546731	97370112	65155072	24090872	24992
443	2.301834	97370112	65155072	25500096	24992
444	3.074911	97370112	65155072	27369872	24992
445	3.84805	97370112	65155072	29707584	24992
446	5.346207	97370112	65155072	32524808	24992
447	5.456119	97370112	65155072	35819608	24992
448	7.456063	97370112	65155072	23497360	24992
449	6.812773	97370112	65155072	27732928	24992
450	7.309944	97370112	65155072	32443320	24992
451	8.207187	97370112	65155072	37622424	24992
452	10.677648	97370112	65155072	26873528	24992
453	9.965117	97370112	65155072	32994504	24992
454	12.340496	97370112	65155072	23873848	24992
455	11.355362	97370112	65155072	30951912	24992
456	14.246201	97370112	65155072	23125328	24992
457	12.56022	97370112	65155072	31159480	24992
458	15.479034	97370112	65155072	24219072	24992
459	14.367238	97370112	65155072	33212120	24992
460	17.09192	97370112	65155072	26977808	24992
461	15.788203	97370112	65155072	36940048	24992
462	1.621493	97370112	65155072	31624792	24992
463	2.402823	97370112	65155072	33083288	24992
464	3.238602	97370112	65155072	35027408	24992
465	4.038665	97370112	65155072	37469976	24992
466	6.107654	97370112	65155072	24129632	24992
467	5.558481	97370112	65155072	27539560	24992
468	6.612441	97370112	65155072	31455168	24992
469	6.880113	97370112	65155072	35858000	24992
470	9.678889	97370112	65155072	24682368	24992
471	8.750931	97370112	65155072	30064080	24992
472	9.891877	97370112	65155072	35933304	24992
473	12.053966	97370112	65155072	26257640	24992
474	10.775681	97370112	65155072	33133936	24992
475	13.774186	97370112	65155072	24848736	24992
476	12.519285	97370112	65155072	32699216	24992
477	15.51646	97370112	65155072	25481744	24992
478	14.25754	97370112	65155072	34328392	24992
479	16.989342	97370112	65155072	27847056	24992
480	17.213355	97370112	65155072	37714032	24992
481	18.540513	97370112	65155072	31774040	24992
482	1.673234	97370112	65155072	27689360	24992
483	2.384573	97370112	65155072	29203616	24992
484	3.471791	97370112	65155072	31232456	24992
485	4.191263	97370112	65155072	33756160	24992
486	5.199658	97370112	65155072	36786600	24992
487	7.477821	97370112	65155072	24286744	24992
488	6.538964	97370112	65155072	28336792	24992
489	7.285549	97370112	65155072	32899728	24992
490	8.268613	97370112	65155072	37982768	24992
491	11.303894	97370112	65155072	27323728	24992
492	9.549153	97370112	65155072	33439720	24992
493	12.657522	97370112	65155072	24439672	24992
494	11.191287	97370112	65155072	31563784	24992
495	14.340496	97370112	65155072	23898896	24992
496	13.046236	97370112	65155072	32045448	24992
497	15.994845	97370112	65155072	25350976	24992
498	14.607499	97370112	65155072	34542584	24992
499	17.6336	97370112	65155072	28506120	24992
500	16.341639	97370112	65155072	38733712	24992
501	18.910022	97370112	65155072	33110048	24992
502	1.747362	97370112	65155072	29385232	24992
503	2.586693	97370112	65155072	30957872	24992
504	3.370129	97370112	65155072	33050824	24992
505	4.16871	97370112	65155072	35667472	24992
506	5.159313	97370112	65155072	38809216	24992
507	7.847629	97370112	65155072	26204600	24992
508	6.845049	97370112	65155072	30399216	24992
509	7.449149	97370112	65155072	35191272	24992
510	10.559657	97370112	65155072	24634392	24992
511	9.150595	97370112	65155072	30414128	24992
512	10.170956	97370112	65155072	36801896	24992
513	13.155641	97370112	65155072	27619872	24992
514	12.365935	97370112	65155072	34992952	24992
515	14.872692	97370112	65155072	27167944	24992
516	14.183932	97370112	65155072	35607776	24992
517	16.745568	97370112	65155072	28777736	24992
518	15.255165	97370112	65155072	38289968	24992
519	17.870263	97370112	65155072	32100936	24992
520	19.200987	97370112	65155072	27402096	24992
521	18.078467	97370112	65155072	38539152	24992
522	1.806448	97370112	65155072	34500240	24992
523	2.693535	97370112	65155072	36149992	24992
524	3.768608	97370112	65155072	38320320	24992
525	6.477515	97370112	65155072	24929432	24992
526	5.307024	97370112	65155072	28182664	24992
527	6.18482	97370112	65155072	31980056	24992
528	6.807738	97370112	65155072	36336872	24992
529	9.729379	97370112	65155072	25358640	24992
530	8.795778	97370112	65155072	30794872	24992
531	9.61754	97370112	65155072	36778504	24992
532	12.504896	97370112	65155072	27388784	24992
533	11.387262	97370112	65155072	34471024	24992
534	14.781109	97370112	65155072	26489136	24992
535	13.29052	97370112	65155072	34673472	24992
536	16.379537	97370112	65155072	27787216	24992
537	14.670268	97370112	65155072	37098072	24992
538	17.879713	97370112	65155072	30970032	24992
539	19.659978	97370112	65155072	26325064	24992
540	17.92281	97370112	65155072	37302496	24992
541	20.86526	97370112	65155072	32804408	24992
542	1.866544	97370112	65155072	30147792	24992
543	2.793978	97370112	65155072	31829640	24992
544	3.65073	97370112	65155072	34071224	24992
545	4.455568	97370112	65155072	36873784	24992
546	5.545182	97370112	65155072	40238352	24992
547	8.031774	97370112	65155072	27809144	24992
548	7.304354	97370112	65155072	32315128	24992
549	7.958311	97370112	65155072	37378624	24992
550	11.244959	97370112	65155072	27082776	24992
551	9.79067	97370112	65155072	33276312	24992
552	10.906584	97370112	65155072	40037032	24992
553	14.362507	97370112	65155072	31068136	24992
554	12.504839	97370112	65155072	38960792	24992
555	16.07375	97370112	65155072	31274584	24992
556	14.388587	97370112	65155072	40330208	24992
557	17.414394	97370112	65155072	33542888	24992
558	18.795174	97370112	65155072	28414616	24992
559	17.583692	97370112	65155072	39174880	24992
560	20.245721	97370112	65155072	34342816	24992
561	21.732639	97370112	65155072	30766408	24992
562	1.940631	97370112	65155072	28889344	24992
563	2.762409	97370112	65155072	30638072	24992
564	3.880737	97370112	65155072	32954120	24992
565	4.555393	97370112	65155072	35857560	24992
566	5.543237	97370112	65155072	39333704	24992
567	8.688218	97370112	65155072	27306448	24992
568	7.815025	97370112	65155072	31947504	24992
569	8.306725	97370112	65155072	37186440	24992
570	11.578576	97370112	65155072	27207840	24992
571	10.192032	97370112	65155072	33614896	24992
572	11.242076	97370112	65155072	40606800	24992
573	14.147962	97370112	65155072	31883376	24992
574	13.208603	97370112	65155072	40052528	24992
575	16.40942	97370112	65155072	32574568	24992
576	17.52886	97370112	65155072	26765712	24992
577	16.267446	97370112	65155072	36698952	24992
578	19.94771	97370112	65155072	31472896	24992
579	21.353024	97370112	65155072	27610504	24992
580	19.140728	97370112	65155072	39323776	24992
581	22.293707	97370112	65155072	35488800	24992
582	1.990857	97370112	65155072	33437912	24992
583	2.916549	97370112	65155072	35231520	24992
584	4.058743	97370112	65155072	37622160	24992
585	5.426467	97370112	65155072	40610544	24992
586	8.173084	97370112	65155072	28015040	24992
587	7.39075	97370112	65155072	32209848	24992
588	8.100708	97370112	65155072	36997896	24992
589	11.610948	97370112	65155072	26685072	24992
590	9.91335	97370112	65155072	32698192	24992
591	10.588099	97370112	65155072	39296808	24992
592	13.8083	97370112	65155072	30466720	24992
593	12.659953	97370112	65155072	38274568	24992
594	16.066717	97370112	65155072	30804760	24992
595	14.554858	97370112	65155072	39848080	24992
596	17.727523	97370112	65155072	33337064	24992
597	19.092136	97370112	65155072	28397304	24992
598	18.723963	97370112	65155072	39249648	24992
599	21.16203	97370112	65155072	34655960	24992
600	22.498988	97370112	65155072	31392120	24992
601	23.389994	97370112	65155072	29244808	24992
602	4.116283	97370112	65155072	26824376	24992
603	3.076201	97370112	65155072	28674624	24992
604	4.140564	97370112	65155072	31139480	24992
605	4.924682	97370112	65155072	34220976	24992
606	5.894002	97370112	65155072	37936656	24992
607	9.521297	97370112	65155072	26548880	24992
608	8.07584	97370112	65155072	31485464	24992
609	8.845199	97370112	65155072	37050144	24992
610	12.505133	97370112	65155072	27577848	24992
611	10.907473	97370112	65155072	34378448	24992
612	12.262372	97370112	65155072	41821752	24992
613	15.19988	97370112	65155072	33558184	24992
614	16.754438	97370112	65155072	27099648	24992
615	15.077777	97370112	65155072	36398408	24992
616	18.75411	97370112	65155072	30806848	24992
617	17.286251	97370112	65155072	41370104	24992
618	20.652737	97370112	65155072	36268600	24992
619	21.809546	97370112	65155072	32594608	24992
620	22.896608	97370112	65155072	30081400	24992
621	24.346325	97370112	65155072	28603664	24992
622	4.349502	97370112	65155072	26817456	24992
623	3.188524	97370112	65155072	28723440	24992
624	4.433948	97370112	65155072	31262824	24992
625	5.272412	97370112	65155072	34437776	24992
626	6.132453	97370112	65155072	38248440	24992
627	9.642767	97370112	65155072	27046520	24992
628	8.427119	97370112	65155072	32144648	24992
629	9.764926	97370112	65155072	37868664	24992
630	12.63327	97370112	65155072	28603792	24992
631	11.70625	97370112	65155072	35633120	24992
632	15.522434	97370112	65155072	27959888	24992
633	13.417049	97370112	65155072	36248952	24992
634	17.384703	97370112	65155072	29789728	24992
635	15.368286	97370112	65155072	39373272	24992
636	19.256057	97370112	65155072	33739160	24992
637	20.587545	97370112	65155072	29618896	24992
638	19.042517	97370112	65155072	41159648	24992
639	22.426882	97370112	65155072	37196992	24992
640	23.509981	97370112	65155072	34481176	24992
641	24.686982	97370112	65155072	32827664	24992
642	2.372346	97370112	65155072	32719432	24992
643	3.17259	97370112	65155072	34686528	24992
644	4.388491	97370112	65155072	37301240	24992
645	5.265186	97370112	65155072	40568504	24992
646	9.103302	97370112	65155072	28541320	24992
647	7.728784	97370112	65155072	33150144	24992
648	8.355397	97370112	65155072	38402296	24992
649	12.193125	97370112	65155072	28665920	24992
650	10.467149	97370112	65155072	35237696	24992
651	11.713779	97370112	65155072	42492200	24992
652	15.07662	97370112	65155072	34060320	24992
653	13.98996	97370112	65155072	42616696	24992
654	17.227073	97370112	65155072	35523064	24992
655	19.063999	97370112	65155072	30158264	24992
656	17.207979	97370112	65155072	40722096	24992
657	20.774544	97370112	65155072	35885384	24992
658	22.752488	97370112	65155072	32514784	24992
659	24.472608	97370112	65155072	30290208	24992
660	21.980754	97370112	65155072	43477880	24992
661	24.978416	97370112	65155072	40920408	24992
662	2.256225	97370112	65155072	40122248	24992
663	3.36311	97370112	65155072	42139272	24992
664	7.079827	97370112	65155072	28765808	24992
665	5.805269	97370112	65155072	32127808	24992
666	6.625482	97370112	65155072	36161416	24992
667	7.920431	97370112	65155072	40871408	24992
668	11.334694	97370112	65155072	30346888	24992
669	9.974929	97370112	65155072	36405488	24992
670	10.760075	97370112	65155072	43159536	24992
671	14.717912	97370112	65679360	34280992	24992
672	13.211082	97370112	65679360	42383624	24992
673	16.466476	97370112	65679360	34953528	24992
674	18.5112	97370112	65679360	29410864	24992
675	16.931141	97370112	65679360	39544024	24992
676	20.745952	97370112	65679360	34669416	24992
677	22.321023	97370112	65679360	31179176	24992
678	19.876922	97370112	65679360	43373840	24992
679	23.740245	97370112	65679360	39950224	24992
680	24.894554	97640448	65679360	37753488	24992
681	26.523889	97640448	65679360	36581000	24992
682	2.31439	97640448	65679360	36982864	24992
683	3.476995	97640448	65679360	39056648	24992
684	4.564583	97640448	65679360	41824624	24992
685	8.812832	97640448	65679360	29348024	24992
686	6.637358	97640448	65679360	33501216	24992
687	7.977192	97640448	65679360	38347664	24992
688	8.8383	97640448	65679360	43878544	24992
689	12.631098	97640448	66203648	33805960	24992
690	11.169247	97640448	66203648	40757856	24992
691	15.317899	97910784	66203648	32559608	24992
692	13.478625	97910784	66203648	40897200	24992
693	17.293146	97910784	66203648	34007904	24992
694	15.873656	97910784	66203648	43737440	24992
695	19.660002	97910784	66203648	37872376	24992
696	21.375562	97910784	66203648	33614072	24992
697	23.429214	97910784	66203648	30687120	24992
698	20.601559	97910784	66203648	43254456	24992
699	24.22493	97910784	66203648	40303584	24992
700	26.318267	98181120	66203648	38435968	24992
701	27.491116	98181120	66203648	37593888	24992
702	2.375187	98181120	66203648	38384048	24992
703	3.564303	98181120	66203648	40514832	24992
704	4.808755	98181120	66203648	43351832	24992
705	8.312591	98181120	66203648	30765424	24992
706	7.031303	98181120	66203648	35022160	24992
707	7.951354	98181120	66203648	40000000	24992
708	12.078717	98181120	66727936	30001280	24992
709	10.312358	98181120	66727936	36417176	24992
710	11.762507	98181120	66727936	43524136	24992
711	15.583184	98451456	66727936	35151256	24992
712	14.020504	98451456	66727936	43714824	24992
713	17.577615	98451456	66727936	36778024	24992
714	19.678741	98451456	66727936	31611392	24992
715	17.815014	98451456	66727936	42317256	24992
716	21.397035	98451456	66727936	37727400	24992
717	23.141322	98451456	66727936	34623872	24992
718	24.735255	98451456	66727936	32683048	24992
719	25.950013	98721792	66727936	31768904	24992
720	27.600672	98721792	66727936	31696264	24992
721	28.531211	98721792	66727936	32344040	24992
722	2.452595	98721792	66727936	34500992	24992
723	3.622262	98721792	66727936	36694584	24992
724	4.712536	98721792	66727936	39607504	24992
725	6.029463	98721792	66727936	43258816	24992
726	10.167875	98721792	66727936	31656728	24992
727	8.228503	98721792	66727936	36754440	24992
728	9.542414	98721792	66727936	42589112	24992
729	13.591433	98721792	66727936	33173056	24992
730	12.054011	98721792	66727936	40484376	24992
731	15.982615	98721792	66727936	32862432	24992
732	14.365229	98721792	66727936	41644616	24992
733	18.532373	98992128	66727936	35384728	24992
734	16.727975	98992128	66727936	45626616	24992
735	20.422911	98992128	66727936	40169552	24992
736	21.9381	98992128	66727936	36338088	24992
737	23.777395	98992128	66727936	33809136	24992
738	25.309233	98992128	66727936	32448912	24992
739	26.948029	98992128	66727936	32041728	24992
740	28.011813	98992128	66727936	32429448	24992
741	29.123291	98992128	66727936	33536712	24992
742	2.44414	98992128	66727936	35927352	24992
743	3.599594	98992128	66727936	38167848	24992
744	5.038619	98992128	66727936	41160688	24992
745	6.177453	98992128	66727936	44892488	24992
746	10.222579	98992128	66727936	33278776	24992
747	8.635808	98992128	66727936	38512296	24992
748	9.833371	98992128	66727936	44506840	24992
749	13.446829	98992128	66727936	35048728	24992
750	12.268167	98992128	66727936	42526872	24992
751	16.282581	98992128	66727936	34928256	24992
752	14.753725	98992128	66727936	43923192	24992
753	18.61579	98992128	66727936	37602656	24992
754	20.441023	98992128	66727936	33028384	24992
755	18.643331	98992128	66727936	44284144	24992
756	23.074383	98992128	66727936	40208824	24992
757	24.257603	98992128	66727936	37465848	24992
758	25.765405	98992128	66727936	35941016	24992
759	26.890583	98992128	66727936	35407664	24992
760	28.305573	98992128	66727936	35752592	24992
761	29.641661	98992128	66727936	36801808	24992
762	2.569103	98992128	66727936	39263976	24992
763	3.865396	98992128	66727936	41574848	24992
764	5.202387	98992128	66727936	44657112	24992
765	9.228362	98992128	66727936	32522552	24992
766	7.696849	98992128	66727936	37127040	24992
767	8.666987	98992128	66727936	42503944	24992
768	13.372531	98992128	66727936	32915592	24992
769	11.385677	98992128	66727936	39812560	24992
770	15.719003	98992128	66727936	32098688	24992
771	13.819563	98992128	66727936	40557568	24992
772	17.94934	98992128	66727936	34274168	24992
773	16.520428	98992128	66727936	44273328	24992
774	20.232567	98992128	66727936	38979424	24992
775	22.468985	98992128	66727936	35306088	24992
776	23.829988	98992128	66727936	32959688	24992
777	21.931668	98992128	66727936	46095792	24992
778	25.677127	98992128	66727936	43675680	24992
779	27.45595	98992128	66727936	42383048	24992
780	28.449364	98992128	66727936	42132184	24992
781	29.719015	98992128	66727936	42687112	24992
782	2.644128	98992128	66727936	44794896	24992
783	3.969376	98992128	66727936	47147112	24992
784	8.03381	98992128	66727936	33926400	24992
785	6.508975	98992128	66727936	37844176	24992
786	7.582595	98992128	66727936	42605528	24992
787	11.873446	98992128	66727936	32371280	24992
788	10.363087	98992128	66727936	38644896	24992
789	11.830421	98992128	66727936	45745984	24992
790	15.672425	98992128	66727936	37425504	24992
791	14.212783	98992128	66727936	46070144	24992
792	18.069961	98992128	66727936	39396952	24992
793	20.328837	98992128	66727936	34467648	24992
794	18.75679	98992128	66727936	45478152	24992
795	22.179081	98992128	66727936	41185520	24992
796	24.313089	98992128	66727936	38302808	24992
797	25.648258	98992128	66727936	36720744	24992
798	26.825236	98992128	66727936	36159080	24992
799	28.711942	98992128	66727936	36556192	24992
800	29.633398	98992128	66727936	37611064	24992
801	31.251618	98992128	66727936	39324416	24992
802	2.689642	98992128	67252224	42421136	24992
803	4.048499	98992128	67252224	44829232	24992
804	8.926378	98992128	67252224	32208720	24992
805	6.669018	98992128	67252224	36219480	24992
806	7.74112	98992128	67252224	41033432	24992
807	9.319475	98992128	67252224	46667368	24992
808	13.291971	98992128	67776512	36929632	24992
809	11.907876	98992128	67776512	44157464	24992
810	16.525933	98992128	67776512	36409728	24992
811	14.862373	98992128	67776512	45257592	24992
812	19.440475	99262464	67776512	38909496	24992
813	20.984569	99262464	67776512	34388248	24992
814	18.791708	99262464	67776512	45660520	24992
815	23.297693	99262464	67776512	41714400	24992
816	24.863384	99262464	67776512	39157992	24992
817	26.31068	99262464	67776512	37755936	24992
818	27.372515	99262464	67776512	37451768	24992
819	29.245514	99262464	67776512	38035848	24992
820	30.469161	99532800	67776512	39382440	24992
821	31.385225	99532800	67776512	41274712	24992
822	2.661122	99532800	67776512	44651368	24992
823	3.991539	99532800	67776512	47121200	24992
824	8.508406	99532800	67776512	34333608	24992
825	7.032336	99532800	67776512	38439824	24992
826	8.150852	99532800	67776512	43378456	24992
827	12.712195	99532800	67776512	33506800	24992
828	10.638086	99532800	67776512	40084736	24992
829	12.401496	99803136	67776512	47507968	24992
830	16.41164	99803136	67776512	39473536	24992
831	15.055908	99803136	67776512	48537976	24992
832	19.055408	99803136	68300800	41992864	24992
833	20.948322	99803136	68300800	37309160	24992
834	22.892276	99803136	68300800	34209048	24992
835	20.931717	99803136	68300800	46578776	24992
836	25.902308	99803136	68300800	43735152	24992
837	27.028818	99803136	68300800	42113344	24992
838	27.904154	100073472	68300800	41570432	24992
839	29.725248	100073472	68300800	41992464	24992
840	30.661239	100073472	68300800	43163904	24992
841	31.82497	100073472	68300800	45070280	24992
842	2.838504	100073472	68300800	48443840	24992
843	7.099518	100343808	68300800	34822032	24992
844	5.448494	100343808	68300800	38245888	24992
845	7.064477	100343808	68300800	42524800	24992
846	8.368656	100343808	68300800	47661776	24992
847	12.711458	100343808	68300800	37510768	24992
848	11.246807	100343808	68300800	44368152	24992
849	15.717688	100343808	68300800	36418144	24992
850	13.826989	100343808	68300800	45013936	24992
851	18.636702	100343808	68300800	38702792	24992
852	16.697793	100343808	68300800	49026664	24992
853	21.072566	100343808	68300800	43786904	24992
854	22.833734	100343808	68300800	40217192	24992
855	24.599546	100343808	68825088	38104592	24992
856	26.021157	100614144	68825088	37120704	24992
857	27.697388	100614144	69349376	37148944	24992
858	29.016379	100614144	69349376	38034896	24992
859	30.727475	100614144	69349376	39697616	24992
860	32.103195	100614144	69349376	41947576	24992
861	33.313816	100614144	69349376	44799976	24992
862	2.772344	100614144	69349376	49045024	24992
863	7.62002	100884480	69349376	35485600	24992
864	5.751222	100884480	69349376	38998760	24992
865	7.129825	100884480	69349376	43370608	24992
866	8.505145	100884480	69349376	48630200	24992
867	12.750842	100884480	69349376	38477472	24992
868	11.464088	100884480	69349376	45487328	24992
869	16.042507	100884480	69349376	37596448	24992
870	14.264032	100884480	69349376	46353088	24992
871	18.796529	100884480	69349376	40109168	24992
872	20.800356	100884480	69349376	35612336	24992
873	18.791143	100884480	69349376	47042408	24992
874	23.040412	101154816	69349376	43307576	24992
875	24.838075	101154816	69349376	41124320	24992
876	26.661426	101154816	69349376	40108456	24992
877	27.904995	101154816	69349376	40125504	24992
878	29.538206	101154816	69349376	41039912	24992
879	30.593868	101154816	69873664	42632792	24992
880	31.951643	101154816	69873664	44934792	24992
881	33.47053	101154816	69873664	47774488	24992
882	2.981645	101695488	69873664	38419376	24992
883	4.472056	101695488	69873664	41100424	24992
884	5.764293	101695488	69873664	44698488	24992
885	7.488379	101695488	69873664	49185712	24992
886	13.844879	104128512	72495104	40632832	24992
887	9.971483	104128512	72495104	46885840	24992
888	15.113945	104128512	72495104	38543000	24992
889	13.059126	104128512	72495104	46592512	24992
890	18.010661	104128512	72495104	40035008	24992
891	16.428767	104128512	72495104	49893488	24992
892	20.617103	104128512	72495104	44674592	24992
893	22.517923	104128512	72495104	41138720	24992
894	24.401766	104128512	72495104	39040152	24992
895	21.97032	104128512	72495104	52505176	24992
896	26.573174	104128512	72495104	50539864	24992
897	28.396821	104398848	72495104	49788584	24992
898	29.671328	104398848	72495104	50108408	24992
899	32.492246	104398848	72495104	51175256	24992
900	35.140444	104398848	72495104	53018168	24992
901	48.609144	102825984	70922240	19803128	24992
902	2.870313	102825984	70922240	25458912	24992
903	4.225792	102825984	70922240	28195816	24992
904	6.067472	102825984	70922240	15658064	24992
905	7.136614	102825984	70922240	20215976	24992
906	8.452352	102825984	70922240	25690360	24992
907	10.661905	102825984	70922240	16200160	24992
908	12.188731	102825984	70922240	23514832	24992
909	13.469351	102825984	70922240	16100904	24992
910	14.455202	102825984	70922240	25229560	24992
911	16.638691	102825984	70922240	19428344	24992
912	18.57548	102825984	70922240	15459072	24992
913	19.12874	102825984	70922240	27341304	24992
914	20.97867	102825984	70922240	23994832	24992
915	22.38416	102825984	70922240	22066320	24992
916	24.039254	102825984	70922240	21379416	24992
917	25.395689	102825984	70922240	21714048	24992
918	27.078674	102825984	70922240	22895960	24992
919	28.463851	102825984	70922240	24851216	24992
920	30.067126	102825984	70922240	27400248	24992
921	32.955459	103096320	70922240	16778592	24992
922	2.99985	103636992	71446528	26012352	24992
923	4.703719	103636992	71446528	28805080	24992
924	6.432959	103636992	71446528	16761632	24992
925	7.722731	103636992	71446528	21421360	24992
926	8.860173	103636992	71446528	27009256	24992
927	10.960333	103636992	71446528	17917704	24992
928	11.786213	103636992	71446528	25377360	24992
929	13.960506	103636992	71446528	18269960	24992
930	15.246108	103636992	71446528	27590752	24992
931	16.78805	103636992	71446528	22143968	24992
932	18.654102	103636992	71970816	18473816	24992
933	19.380456	103636992	71970816	30627240	24992
934	21.289513	103636992	71970816	27553480	24992
935	22.942835	103636992	71970816	25829304	24992
936	24.216459	103636992	71970816	25296632	24992
937	25.793754	103636992	71970816	25791920	24992
938	27.545083	103636992	71970816	27178512	24992
939	28.803203	103636992	71970816	29224080	24992
940	30.11332	103636992	71970816	31965584	24992
941	32.94799	103636992	71970816	21280040	24992
942	3.084518	103636992	71970816	28194264	24992
943	4.606309	103636992	71970816	31042776	24992
944	6.649988	103907328	71970816	18778416	24992
945	7.771648	103907328	71970816	23525216	24992
946	8.805194	103907328	71970816	29233936	24992
947	11.337436	103907328	71970816	20008232	24992
948	11.837601	103907328	71970816	27612480	24992
949	14.084905	103907328	71970816	20403448	24992
950	15.039853	103907328	71970816	29915888	24992
951	17.247741	103907328	71970816	24346024	24992
952	18.872039	103907328	71970816	20611688	24992
953	20.707275	103907328	71970816	18407576	24992
954	21.693953	103907328	71970816	31767288	24992
955	23.105857	103907328	71970816	29813016	24992
956	24.879637	103907328	71970816	29090328	24992
957	26.584762	103907328	71970816	29441280	24992
958	27.680751	103907328	71970816	30630792	24992
959	31.121553	104177664	71970816	18871112	24992
960	34.627227	104177664	71970816	26027400	24992
961	33.025303	104177664	71970816	31075776	24992
962	3.118896	104177664	71970816	21016576	24992
963	4.892594	104177664	71970816	23944872	24992
964	6.224225	104177664	71970816	27830072	24992
965	7.697326	104177664	71970816	32667528	24992
966	9.654646	104177664	71970816	22484216	24992
967	10.574853	104177664	71970816	29267232	24992
968	13.046552	104177664	71970816	21588576	24992
969	13.804638	104177664	71970816	30304936	24992
970	15.911626	104177664	71970816	24380432	24992
971	16.811415	104177664	71970816	35074112	24992
972	18.607256	104177664	71970816	30357272	24992
973	20.952326	104177664	71970816	27302984	24992
974	22.815671	104177664	71970816	25732088	24992
975	24.474312	104177664	71970816	25277408	24992
976	26.261263	104177664	71970816	26008248	24992
977	27.105633	104177664	71970816	27533128	24992
978	28.732457	104177664	71970816	29800248	24992
979	30.407817	104177664	71970816	32716160	24992
980	33.276025	104177664	71970816	22642448	24992
981	35.555355	104177664	71970816	31126640	24992
982	3.347783	104177664	71970816	38372952	24992
983	4.945576	104177664	71970816	25050840	24992
984	6.372836	104177664	71970816	28998168	24992
985	7.893488	104177664	71970816	33927792	24992
986	9.76974	104177664	71970816	24158456	24992
987	10.972757	104177664	71970816	31080680	24992
988	13.172698	104177664	71970816	23728920	24992
989	14.550323	104177664	71970816	32636480	24992
990	16.319321	104177664	71970816	26964096	24992
991	17.108268	104177664	71970816	37838408	24992
992	19.8429	104177664	71970816	33438016	24992
993	21.207563	104177664	71970816	30662080	24992
994	22.781619	104177664	71970816	29289584	24992
995	24.91338	104177664	71970816	29192672	24992
996	26.220056	104177664	71970816	30069888	24992
997	28.495004	104177664	71970816	31808936	24992
998	29.682736	104177664	71970816	34297976	24992
999	30.109517	104177664	71970816	37470032	24992
1000	33.561235	104177664	71970816	27291184	24992
x	Duration	RSS	HeapTotal	HeapUsed	External
0	NA	99610624	68300800	11971328	24992
1	0.397599	99610624	68300800	12023256	24992
2	0.348947	99610624	68300800	12100040	24992
3	0.377588	99610624	68300800	12203936	24992
4	0.453338	99610624	68300800	12336488	24992
5	0.53843	99610624	68300800	12499224	24992
6	0.625753	99610624	68300800	12692536	24992
7	0.719246	99610624	68300800	12917424	24992
8	0.938284	99610624	68300800	13174872	24992
9	0.55499	99610624	68300800	13466824	24992
10	0.839443	99610624	68300800	13793904	24992
11	0.661587	99610624	68300800	14157040	24992
12	0.715481	99610624	68300800	14557232	24992
13	0.962762	99610624	68300800	14999112	24992
14	0.843871	99610624	68300800	15476320	24992
15	0.876443	99610624	68300800	15993592	24992
16	0.952272	99610624	68300800	16551696	24992
17	1.039743	99610624	68300800	17153808	24992
18	1.102916	99610624	68300800	17798640	24992
19	1.528497	99610624	68300800	18488464	24992
20	1.429046	99610624	68300800	19225160	24992
21	1.279215	99610624	68300800	20004136	24992
22	0.175436	99610624	68300800	20801368	24992
23	0.265188	99610624	68300800	20943864	24992
24	0.338373	99610624	68300800	21136408	24992
25	0.429426	99610624	68300800	21380040	24992
26	0.496213	99610624	68300800	21676256	24992
27	0.578608	99610624	68300800	22025560	24992
28	0.661523	99610624	68300800	22428816	24992
29	0.746009	99610624	68300800	22887112	24992
30	0.831269	99610624	68300800	23402384	24992
31	0.928344	99610624	68300800	23974512	24992
32	1.011039	99610624	68300800	24604576	24992
33	1.109938	99610624	68300800	25293552	24992
34	1.20411	99610624	68300800	26042472	24992
35	1.284194	99610624	68300800	26852168	24992
36	1.376845	99610624	68300800	27723824	24992
37	1.481009	99610624	68300800	28658008	24992
38	2.549867	99610624	68300800	13351592	24992
39	1.850694	99610624	68300800	14416176	24992
40	1.944247	99610624	68300800	15546872	24992
41	2.296004	99610624	68300800	16744240	24992
42	0.254585	99610624	68300800	18010800	24992
43	0.383165	99610624	68300800	18215016	24992
44	0.502004	99610624	68300800	18488872	24992
45	0.618561	99610624	68300800	18834616	24992
46	0.749378	99610624	68300800	19252440	24992
47	0.860566	99610624	68300800	19743472	24992
48	0.98441	99610624	68300800	20308696	24992
49	1.027667	99610624	68300800	20949200	24992
50	1.13079	99610624	68300800	21668848	24992
51	1.359989	99610624	68300800	22468712	24992
52	1.575126	99610624	68300800	23347752	24992
53	1.49202	99610624	68300800	24307952	24992
54	1.619932	99610624	68300800	25350344	24992
55	1.741552	99610624	68300800	26475840	24992
56	2.162272	99610624	68300800	27687648	24992
57	3.22766	99610624	68300800	12923744	24992
58	2.362645	99610624	68300800	14306400	24992
59	2.315684	99610624	68300800	15776040	24992
60	2.374839	99610624	68300800	17334016	24992
61	2.524794	99610624	68300800	18980936	24992
62	0.348182	99610624	68300800	20741528	24992
63	0.453663	99610624	68300800	21012616	24992
64	0.650837	99610624	68300800	21377208	24992
65	0.719779	99610624	68300800	21833024	24992
66	0.860174	99610624	68300800	22383224	24992
67	1.201039	99610624	68300800	23028296	24992
68	1.143994	99610624	68300800	23769152	24992
69	1.288811	99610624	68300800	24606784	24992
70	1.507445	99610624	68300800	25543168	24992
71	1.582444	99610624	68300800	26578200	24992
72	1.915873	99610624	68300800	27714968	24992
73	1.915994	99610624	68300800	28950448	24992
74	2.826491	99610624	68300800	13988200	24992
75	2.360397	99610624	68300800	15428672	24992
76	2.535137	99610624	68300800	16971928	24992
77	2.867648	99610624	68300800	18621672	24992
78	2.671504	99610624	68300800	20376960	24992
79	2.82343	99610624	68300800	22238984	24992
80	3.007583	99610624	68300800	24208848	24992
81	3.518098	99610624	68300800	26288152	24992
82	0.367645	99610624	68300800	28523792	24992
83	0.538956	99610624	68300800	28853344	24992
84	0.743456	99610624	68300800	29305408	24992
85	1.519618	99610624	68300800	13524080	24992
86	1.045861	99610624	68300800	14194648	24992
87	1.212643	99610624	68300800	14980824	24992
88	1.57351	99610624	68300800	15883264	24992
89	1.565106	99610624	68300800	16903176	24992
90	1.745581	99610624	68300800	18042400	24992
91	1.937611	99610624	68300800	19301104	24992
92	2.104504	99610624	68300800	20679992	24992
93	2.278314	99610624	68300800	22180264	24992
94	2.665671	99610624	68300800	23802824	24992
95	2.844109	99610624	68300800	25548608	24992
96	2.842635	99610624	68300800	27418632	24992
97	3.046481	99610624	68300800	29413800	24992
98	4.125811	99610624	68300800	15328592	24992
99	3.420809	99610624	68300800	17580080	24992
100	3.625892	99610624	68300800	19959216	24992
101	3.859849	99610624	68300800	22469272	24992
102	0.417534	99610624	68300800	25190664	24992
103	0.637541	99610624	68300800	25594560	24992
104	0.828175	99610624	68300800	26134656	24992
105	1.080402	99610624	68300800	26813096	24992
106	1.2292	99610624	68300800	27629040	24992
107	1.434943	99610624	68300800	28584056	24992
108	1.652602	99610624	68300800	29679224	24992
109	2.640733	99610624	68300800	14811736	24992
110	2.066143	99610624	68300800	16190984	24992
111	2.263165	99610624	68300800	17713904	24992
112	2.475371	99610624	68300800	19380120	24992
113	3.120922	99610624	68300800	21192112	24992
114	2.956748	99610624	68300800	23154104	24992
115	3.119561	99610624	68300800	25257072	24992
116	3.347276	99610624	68300800	27507792	24992
117	3.737709	99610624	68300800	29907456	24992
118	4.815304	99610624	68300800	16312160	24992
119	4.288337	99610624	68300800	19015464	24992
120	4.478302	99610624	68300800	21869544	24992
121	5.068476	99610624	68300800	24885384	24992
122	0.484974	99610624	68300800	28145144	24992
123	0.723654	99610624	68300800	28607512	24992
124	0.957584	99610624	68300800	29225424	24992
125	1.175473	99610624	68300800	29999864	24992
126	2.286342	99610624	68300800	14800016	24992
127	1.788274	99610624	68300800	15891064	24992
128	2.023156	99610624	68300800	17141632	24992
129	2.34403	99610624	68300800	18552688	24992
130	2.373225	99610624	68300800	20126192	24992
131	2.61621	99610624	68300800	21862176	24992
132	2.844501	99610624	68300800	23761544	24992
133	3.094607	99610624	68300800	25825232	24992
134	3.392094	99610624	68300800	28054280	24992
135	4.33442	99610624	68300800	14270576	24992
136	4.092933	99610624	68300800	16833384	24992
137	4.291424	99610624	68300800	19565536	24992
138	4.561759	99610624	68300800	22471040	24992
139	4.652463	99610624	68300800	25543584	24992
140	4.860229	99610624	68300800	28789768	24992
141	6.354657	99610624	68300800	16263000	24992
142	0.54792	99610624	68300800	19982224	24992
143	0.82474	99610624	68300800	20508480	24992
144	1.073852	99610624	68300800	21211712	24992
145	1.337321	99610624	68300800	22092752	24992
146	1.793579	99610624	68300800	23153304	24992
147	1.874443	99610624	68300800	24393808	24992
148	2.143274	99610624	68300800	25815152	24992
149	2.398323	99610624	68300800	27418248	24992
150	2.674555	99610624	68300800	29205208	24992
151	3.967196	99610624	68300800	15235200	24992
152	3.454891	99610624	68300800	17390912	24992
153	3.749784	99610624	68300800	19732168	24992
154	4.139743	99610624	68300800	22264232	24992
155	4.075047	99610624	68300800	24981544	24992
156	4.347552	99610624	68300800	27885744	24992
157	4.819103	99610624	68300800	30979872	24992
158	5.762119	99610624	68300800	18042416	24992
159	5.381256	99610624	68300800	21520272	24992
160	5.529648	99610624	68300800	25191088	24992
161	5.943428	99610624	68300800	29055360	24992
162	0.648646	99610624	68300800	17334312	24992
163	0.9667	99610624	68300800	17919104	24992
164	1.302349	99610624	68300800	18703104	24992
165	1.533366	99610624	68300800	19681736	24992
166	1.80195	99610624	68300800	20859320	24992
167	2.120705	99610624	68300800	22236312	24992
168	2.390145	99610624	68300800	23813648	24992
169	2.689831	99610624	68300800	25592168	24992
170	3.271399	99610624	68300800	27574240	24992
171	3.478482	99610624	68300800	29760648	24992
172	4.844617	99610624	68300800	16178912	24992
173	4.495092	99610624	68300800	18773632	24992
174	4.2587	99610624	68300800	21574368	24992
175	4.749959	99610624	68300800	24583984	24992
176	4.84077	99610624	68300800	27800152	24992
177	5.212936	99610624	68300800	31225912	24992
178	6.623642	99610624	68300800	18637344	24992
179	5.834716	99610624	68300800	22485752	24992
180	6.316242	99610624	68300800	26551912	24992
181	6.418126	99610624	68300800	30829864	24992
182	0.722777	99610624	68300800	19348256	24992
183	1.06619	99610624	68300800	19991512	24992
184	1.40392	99610624	68300800	20853456	24992
185	1.698774	99610624	68300800	21929632	24992
186	1.970916	99610624	68300800	23224192	24992
187	2.312515	99610624	68300800	24737664	24992
188	2.638469	99610624	68300800	26471224	24992
189	3.029323	99610624	68300800	28428264	24992
190	3.7794	99610624	68300800	30612064	24992
191	4.74591	99610624	68300800	16950000	24992
192	4.925474	99610624	68300800	19573344	24992
193	4.606132	99610624	68300800	22430192	24992
194	4.713756	99610624	68300800	25511032	24992
195	5.302115	99610624	68300800	28811472	24992
196	6.477709	99610624	68300800	16595536	24992
197	6.049764	99610624	68300800	20352288	24992
198	6.02898	99610624	68300800	24343736	24992
199	6.687507	99610624	68300800	28563304	24992
200	8.510597	99610624	68300800	17338296	24992
201	7.098479	99610624	68300800	22026032	24992
202	0.735693	99610624	68300800	27143544	24992
203	1.09219	99610624	68300800	27845272	24992
204	1.444031	99610624	68300800	28782416	24992
205	1.859388	99610624	68300800	29956088	24992
206	2.15584	99610624	68300800	31367720	24992
207	3.785543	99610624	68300800	16944920	24992
208	3.083265	99610624	68300800	18851312	24992
209	3.472055	99610624	68300800	21005824	24992
210	4.034935	99610624	68300800	23419824	24992
211	4.264432	99610624	68300800	26075432	24992
212	4.651096	99610624	68300800	28982384	24992
213	5.156194	99610624	68300800	32141864	24992
214	6.408221	99610624	68300800	19329960	24992
215	5.84672	99610624	68300800	22999720	24992
216	6.234076	99610624	68300800	26922440	24992
217	6.656779	99610624	68300800	31101632	24992
218	8.316702	99610624	68300800	19484008	24992
219	7.464642	99610624	68300800	24191704	24992
220	7.921597	99610624	68300800	29149008	24992
221	9.490689	99610624	68300800	18632512	24992
222	1.182338	99610624	68300800	24352808	24992
223	1.231854	99610624	68300800	25137840	24992
224	1.670043	99610624	68300800	26186032	24992
225	2.091342	99610624	68300800	27500040	24992
226	2.510849	99610624	68300800	29081168	24992
227	2.897887	99610624	68300800	30925408	24992
228	4.632549	99610624	68300800	17068352	24992
229	3.763758	99610624	68300800	19453704	24992
230	4.177113	99610624	68300800	22109048	24992
231	4.631049	99610624	68300800	25045264	24992
232	5.033601	99610624	68300800	28247312	24992
233	5.555631	99610624	68300800	31727552	24992
234	7.105519	99610624	68300800	19405096	24992
235	6.514669	99610624	68300800	23437536	24992
236	6.776358	99610624	68300800	27748848	24992
237	7.267938	99610624	68300800	32335176	24992
238	9.751879	99610624	68300800	21027864	24992
239	8.255576	99610624	68300800	26182056	24992
240	8.546129	99610624	68300800	31615760	24992
241	10.394314	99610624	68300800	21251056	24992
242	0.911344	99610624	68300800	27503376	24992
243	1.359258	99610624	68300800	28359744	24992
244	1.768171	99610624	68300800	29497440	24992
245	2.227877	99610624	68300800	30921688	24992
246	2.748427	99610624	68300800	32634120	24992
247	4.415557	99610624	68300800	18459800	24992
248	3.629883	99610624	68300800	20757776	24992
249	4.104545	99610624	68300800	23345096	24992
250	4.654142	99610624	68300800	26225784	24992
251	5.156171	99610624	68300800	29391400	24992
252	5.310451	99610624	68300800	32857344	24992
253	7.191494	99610624	68300800	20421720	24992
254	6.379816	99610624	68300800	24470384	24992
255	7.008178	99610624	68300800	28816704	24992
256	7.425796	99610624	68300800	33466888	24992
257	8.943967	99610624	68300800	22099072	24992
258	8.289542	99610624	68300800	27340912	24992
259	8.762245	99610624	68300800	32891168	24992
260	10.418782	99610624	68300800	22537120	24992
261	9.77063	99610624	68300800	28691592	24992
262	1.008309	99610624	68300800	19936296	24992
263	1.468531	99610624	68300800	20846864	24992
264	1.971742	99610624	68300800	22062576	24992
265	2.3882	99610624	68300800	23589368	24992
266	2.963799	99610624	68300800	25418800	24992
267	3.532907	99610624	68300800	27557288	24992
268	3.912901	99610624	68300800	30003768	24992
269	4.404852	99610624	68300800	32760160	24992
270	6.559008	99610624	68300800	19719128	24992
271	5.387582	99610624	68300800	23099424	24992
272	5.904877	99610624	68300800	26792632	24992
273	6.28721	99610624	68300800	30799600	24992
274	8.232107	99610624	68300800	19349536	24992
275	7.757963	99610624	68300800	23989776	24992
276	7.852495	99610624	68300800	28950664	24992
277	8.346268	99610624	68300800	34223208	24992
278	9.917416	99610624	68300800	23471624	24992
279	9.210837	99610624	68300800	29384392	24992
280	11.554695	99610624	68300800	20091944	24992
281	10.365025	99610624	68300800	26647328	24992
282	1.04421	99610624	68300800	33826152	24992
283	2.732539	99610624	68300800	18609280	24992
284	2.059393	99610624	68300800	19903064	24992
285	2.729591	99610624	68300800	21524464	24992
286	3.041915	99610624	68300800	23471008	24992
287	3.627662	99610624	68300800	25749864	24992
288	4.152272	99610624	68300800	28352416	24992
289	4.667181	99610624	68300800	31284312	24992
290	5.190967	99610624	68300800	34548400	24992
291	6.827772	99610624	68300800	21836376	24992
292	6.240396	99610624	68300800	25763520	24992
293	6.754545	99610624	68300800	30041304	24992
294	7.231467	99610624	68300800	34636176	24992
295	8.949488	99610624	68300800	23243432	24992
296	9.001716	99610624	68300800	28532584	24992
297	8.909695	99610624	68300800	34137784	24992
298	10.66079	99610624	68300800	23837792	24992
299	9.949453	99610624	68300800	30123216	24992
300	12.601694	99610624	68300800	21199376	24992
301	10.865202	99610624	68300800	28178928	24992
302	1.160322	99610624	68300800	19482648	24992
303	1.640843	99610624	68300800	20516792	24992
304	2.200142	99610624	68300800	21888608	24992
305	2.727991	99610624	68300800	23609456	24992
306	3.464463	99610624	68300800	25677024	24992
307	3.901255	99610624	68300800	28088088	24992
308	4.394892	99610624	68300800	30851984	24992
309	5.121728	99610624	68300800	33959856	24992
310	6.877583	99610624	68300800	21319624	24992
311	6.080439	99610624	68300800	25129704	24992
312	6.796122	99610624	68300800	29290848	24992
313	7.146543	99610624	68300800	33804952	24992
314	9.259271	99610624	68300800	22549680	24992
315	8.33574	99610624	68300800	27782016	24992
316	8.877625	99610624	68300800	33361856	24992
317	11.076598	99610624	68300800	23273712	24992
318	10.124773	99610624	68300800	29573464	24992
319	12.2659	99610624	68300800	20851216	24992
320	11.415336	99610624	68300800	27867456	24992
321	11.808376	99610624	68300800	35250040	24992
322	1.17742	99610624	68300800	27001384	24992
323	1.74712	99610624	68300800	28090264	24992
324	2.32807	99610624	68300800	29540144	24992
325	2.908803	99610624	68300800	31362848	24992
326	3.492987	99610624	68300800	33543296	24992
327	5.679387	99610624	68300800	20133240	24992
328	4.619085	99610624	68300800	23047744	24992
329	5.028734	99610624	68300800	26332536	24992
330	5.988238	99610624	68300800	29992120	24992
331	6.455348	99610624	68300800	34016080	24992
332	8.236688	99610624	68300800	22347992	24992
333	7.667218	99610624	68300800	27115688	24992
334	8.370224	99610624	68300800	32256624	24992
335	10.413021	99610624	68300800	22015424	24992
336	9.540909	99610624	68300800	27913440	24992
337	10.280062	99610624	68300800	34186200	24992
338	12.100398	99610624	68300800	24761168	24992
339	11.717925	99610624	68300800	31785392	24992
340	14.432235	99610624	68300800	23548672	24992
341	13.135362	99610624	68300800	31351096	24992
342	1.192529	99610624	68300800	24311064	24992
343	1.840499	99610624	68300800	25457656	24992
344	2.383541	99610624	68300800	26990368	24992
345	3.075151	99610624	68300800	28906864	24992
346	3.81787	99610624	68300800	31204392	24992
347	4.18811	99610624	68300800	33887888	24992
348	6.701961	99610624	68825088	21025312	24992
349	5.46297	99610624	68825088	24487712	24992
350	6.045175	99610624	68825088	28336600	24992
351	6.782748	99610624	68825088	32574928	24992
352	9.216305	99610624	68825088	21470672	24992
353	8.24511	99610624	68825088	26502568	24992
354	8.503126	99610624	68825088	31916496	24992
355	11.031814	99610624	68825088	22126096	24992
356	9.968971	99610624	68825088	28328640	24992
357	10.575937	99610624	68825088	34928600	24992
358	12.730697	99880960	68825088	25813112	24992
359	12.003888	99880960	68825088	33214176	24992
360	14.402505	99880960	68825088	25229936	24992
361	13.015244	99880960	68825088	33441448	24992
362	1.317322	99880960	68825088	26616816	24992
363	1.962246	99880960	68825088	27833360	24992
364	2.578629	99880960	68825088	29456904	24992
365	3.207113	99880960	68825088	31492632	24992
366	3.903241	99880960	68825088	33937824	24992
367	6.313792	99880960	68825088	20945432	24992
368	5.324486	99880960	68825088	24207416	24992
369	5.789027	99880960	68825088	27894768	24992
370	6.645237	99880960	68825088	31982608	24992
371	7.170938	99880960	68825088	36484288	24992
372	9.193811	100151296	68825088	25084848	24992
373	8.630122	100151296	68825088	30420152	24992
374	9.324195	100151296	68825088	36170800	24992
375	11.129059	100151296	68825088	26105728	24992
376	10.419888	100151296	68825088	32695056	24992
377	13.109344	100151296	68825088	24060064	24992
378	12.008659	100151296	68825088	31493168	24992
379	14.623504	100151296	68825088	23930712	24992
380	13.309036	100151296	68825088	32221136	24992
381	15.760094	100151296	68825088	25357272	24992
382	1.372299	100151296	68825088	34901488	24992
383	2.191218	100151296	68825088	36176520	24992
384	4.182274	100151296	68825088	21755640	24992
385	3.414945	100151296	68825088	23897136	24992
386	4.042735	100151296	68825088	26455424	24992
387	4.754766	100151296	68825088	29443000	24992
388	5.453942	100151296	68825088	32861200	24992
389	6.28779	100151296	68825088	36725448	24992
390	8.448079	100151296	68825088	24790328	24992
391	7.667148	100151296	68825088	29506520	24992
392	8.354599	100151296	68825088	34657136	24992
393	10.882978	100151296	68825088	24379864	24992
394	9.606049	100151296	68825088	30402072	24992
395	10.62129	100151296	68825088	36875800	24992
396	12.483061	100151296	68825088	27478056	24992
397	11.891874	100151296	68825088	34815024	24992
398	14.360583	100151296	68825088	26684144	24992
399	13.138268	100151296	68825088	34906384	24992
400	15.76122	100151296	68825088	27648776	24992
401	14.798778	100151296	68825088	36758768	24992
402	1.433352	100151296	68825088	30496216	24992
403	2.137261	100151296	68825088	31829648	24992
404	2.829199	100151296	68825088	33609168	24992
405	3.727295	100151296	68825088	35835832	24992
406	5.80394	100151296	68825088	22540864	24992
407	5.083438	100151296	68825088	25665048	24992
408	5.838514	100151296	68825088	29240280	24992
409	6.460747	100151296	68825088	33270664	24992
410	7.077502	100151296	68825088	37753688	24992
411	9.324898	100151296	68825088	26322872	24992
412	8.814121	100151296	68825088	31713584	24992
413	9.438501	100151296	68825088	37560416	24992
414	11.568584	100151296	68825088	27549392	24992
415	10.666799	100151296	68825088	34310152	24992
416	13.685271	100151296	68825088	25802552	24992
417	12.249335	100151296	68825088	33498184	24992
418	14.935901	100151296	68825088	26081848	24992
419	13.999548	100151296	68825088	34725608	24992
420	16.683011	100151296	68825088	28069208	24992
421	15.385258	100151296	68825088	37689064	24992
422	1.51713	100151296	68825088	31949584	24992
423	2.234842	100151296	68825088	33391096	24992
424	2.985922	100151296	68825088	35314496	24992
425	3.66482	100151296	68825088	37728488	24992
426	6.069754	100151296	68825088	24434624	24992
427	5.298805	100151296	68825088	27824200	24992
428	6.061619	100151296	68825088	31699728	24992
429	6.724649	100151296	68825088	36061384	24992
430	9.292066	100151296	68825088	24894216	24992
431	8.197382	100151296	68825088	30229856	24992
432	8.957334	100151296	68825088	36054432	24992
433	11.605266	100151296	68825088	26374288	24992
434	10.839237	100151296	68825088	33174560	24992
435	13.512016	100151296	68825088	24990992	24992
436	12.135932	100151296	68825088	32784360	24992
437	15.31742	100151296	68825088	25683624	24992
438	13.594423	100151296	68825088	34463272	24992
439	16.402071	100151296	68825088	28064064	24992
440	15.152477	100151296	68825088	37847392	24992
441	17.592307	100151296	68825088	31907488	24992
442	1.560015	100151296	68825088	28007184	24992
443	2.342391	100151296	68825088	29507016	24992
444	3.134715	100151296	68825088	31508424	24992
445	3.908253	100151296	68825088	34012336	24992
446	4.864373	100151296	68825088	37020288	24992
447	7.559712	100151296	68825088	24506928	24992
448	6.452024	100151296	68825088	28532840	24992
449	6.951349	100151296	68825088	33056976	24992
450	7.872416	100151296	68825088	38089512	24992
451	10.174084	100151296	68825088	27394632	24992
452	9.365464	100151296	68825088	33449392	24992
453	12.390106	100151296	68825088	24637392	24992
454	11.198895	100151296	68825088	31734840	24992
455	14.041027	100151296	68825088	24172544	24992
456	12.644776	100151296	68825088	32292792	24992
457	15.70821	100151296	68825088	25695176	24992
458	14.174915	100151296	68825088	34833424	24992
459	16.990334	100151296	68825088	28823560	24992
460	15.664387	100151296	68825088	38992288	24992
461	17.979427	100151296	68825088	33334840	24992
462	1.561223	100151296	68825088	29722072	24992
463	2.368412	100151296	68825088	31284216	24992
464	3.271325	100151296	68825088	33363592	24992
465	4.070154	100151296	68825088	35964952	24992
466	4.850912	100151296	68825088	39089856	24992
467	7.756813	100151296	68825088	26473168	24992
468	6.717325	100151296	68825088	30649968	24992
469	7.245984	100151296	68825088	35349568	24992
470	10.151141	100151296	68825088	24978976	24992
471	9.181103	100151296	68825088	30734376	24992
472	9.795444	100151296	68825088	37128208	24992
473	12.734262	100151296	68825088	27961936	24992
474	11.631657	100151296	68825088	35306744	24992
475	14.575362	100151296	68825088	27554344	24992
476	13.148472	100151296	68825088	35963600	24992
477	16.35515	100151296	68825088	29203248	24992
478	14.837779	100151296	68825088	38682640	24992
479	17.491348	100151296	68825088	32466736	24992
480	19.697961	100151296	68825088	27970800	24992
481	17.441365	100151296	68825088	39060304	24992
482	1.707718	100151296	68825088	35131016	24992
483	2.53453	100151296	68825088	36747912	24992
484	3.376151	100151296	68825088	38905256	24992
485	6.101675	100151296	68825088	25490440	24992
486	5.007516	100151296	68825088	28732256	24992
487	6.155144	100151296	68825088	32548480	24992
488	6.74804	100151296	68825088	36878152	24992
489	9.799989	100151296	68825088	25921600	24992
490	8.22598	100151296	68825088	31344040	24992
491	9.454885	100151296	68825088	37320144	24992
492	12.402199	100151296	68825088	27988648	24992
493	11.062313	100151296	68825088	35056104	24992
494	14.357647	100151296	68825088	27161392	24992
495	12.637476	100151296	68825088	35343320	24992
496	16.075447	100151296	68825088	28511520	24992
497	14.555356	100151296	68825088	37785936	24992
498	17.526868	100151296	68825088	31655616	24992
499	18.718072	100151296	68825088	27183808	24992
500	17.358101	100151296	68825088	38151936	24992
501	20.123566	100151296	68825088	33642048	24992
502	1.788011	100151296	68825088	31076352	24992
503	2.647487	100151296	68825088	32751728	24992
504	3.533238	100151296	68825088	34987000	24992
505	4.482846	100151296	68825088	37783416	24992
506	7.170662	100151296	68825088	25328136	24992
507	6.215588	100151296	68825088	29250104	24992
508	7.162208	100151296	68825088	33752024	24992
509	7.829346	100151296	68825088	38814584	24992
510	10.79518	100151296	68825088	28390928	24992
511	9.891637	100151296	68825088	34575304	24992
512	13.185836	100151296	68825088	26035016	24992
513	11.672932	100151296	68825088	33359456	24992
514	14.991822	100151296	68825088	26168336	24992
515	13.439082	100151296	68825088	34632560	24992
516	16.208468	100151296	68825088	28362704	24992
517	15.195301	100151296	68825088	37990360	24992
518	18.241991	100151296	68825088	32257400	24992
519	19.541403	100151296	68825088	28158376	24992
520	18.005846	100151296	68825088	39508304	24992
521	20.807003	100151296	68825088	35285976	24992
522	1.837876	100151296	68825088	33010104	24992
523	2.753782	100151296	68825088	34743960	24992
524	4.019661	100151296	68825088	37060280	24992
525	4.674762	100151296	68825088	39956232	24992
526	7.543572	100151296	68825088	27339680	24992
527	6.53553	100151296	68825088	31410808	24992
528	7.28854	100151296	68825088	36063040	24992
529	8.022971	100151296	68825088	41302800	24992
530	10.990755	100151296	68825088	30707784	24992
531	10.098775	100151296	68825088	37120208	24992
532	13.428425	100151296	68825088	28473368	24992
533	11.844052	100151296	68825088	36059000	24992
534	15.590046	100151296	68825088	28815824	24992
535	13.632096	100151296	68825088	37592528	24992
536	17.118618	100151296	68825088	31206280	24992
537	15.73443	100151296	68825088	41148240	24992
538	18.210608	100151296	68825088	35373136	24992
539	20.079117	100151296	68825088	31201552	24992
540	21.685665	100151296	68825088	28323272	24992
541	19.688307	100151296	68825088	40656440	24992
542	2.065161	100151296	68825088	37988616	24992
543	2.796167	100151296	68825088	39781320	24992
544	5.690735	100151296	68825088	26239888	24992
545	4.714024	100151296	68825088	29232456	24992
546	5.654761	100151296	68825088	32831912	24992
547	6.686991	100151296	68825088	37029768	24992
548	7.541054	100151296	68825088	41828384	24992
549	10.486964	100151296	68825088	30821512	24992
550	9.432684	100151296	68825088	36828920	24992
551	12.785139	100151296	68825088	27944720	24992
552	11.544271	100151296	68825088	35170688	24992
553	14.670735	100151296	68825088	27818048	24992
554	13.430338	100151296	68825088	36261048	24992
555	17.146431	100151296	68825088	29922400	24992
556	15.235907	100151296	68825088	39607624	24992
557	18.608474	100151296	68825088	33908384	24992
558	19.582373	100151296	68825088	29854288	24992
559	18.760616	100151296	68825088	41412824	24992
560	21.483224	100151296	68825088	37261520	24992
561	22.860404	100151296	68825088	34471880	24992
562	1.950811	100151296	68825088	33439704	24992
563	2.885609	100151296	68825088	35311304	24992
564	3.870011	100151296	68825088	37807856	24992
565	4.950111	100151296	68825088	40930688	24992
566	8.172905	100151296	68825088	28652016	24992
567	6.950485	100151296	68825088	33043832	24992
568	7.819793	100151296	68825088	38059080	24992
569	11.322138	100151296	68825088	28059832	24992
570	9.816875	100151296	68825088	34331976	24992
571	10.887828	100151296	68825088	41247696	24992
572	13.724915	100151296	68825088	32601584	24992
573	12.983815	100151296	68825088	40800688	24992
574	15.885466	100151296	68825088	33520408	24992
575	17.660742	100151296	68825088	28148256	24992
576	15.744905	100151296	68825088	38234216	24992
577	19.251775	100151296	68825088	33316592	24992
578	20.78906	100151296	68825088	29918432	24992
579	18.791425	100151296	68825088	41942320	24992
580	21.946099	100151296	68825088	38277800	24992
581	23.489709	100151296	68825088	35964672	24992
582	2.035499	100151296	68825088	35377448	24992
583	3.020333	100151296	68825088	37307200	24992
584	4.184806	100151296	68825088	39881768	24992
585	7.227969	100151296	68825088	27298016	24992
586	6.247185	100151296	68825088	31166480	24992
587	6.956372	100151296	68825088	35683056	24992
588	8.38969	100151296	68825088	40850968	24992
589	11.537725	100151296	68825088	30669928	24992
590	10.124448	100151296	68825088	37155856	24992
591	13.860883	100151296	68825088	28970528	24992
592	12.293323	100151296	68825088	36758224	24992
593	16.035439	100151296	68825088	29894504	24992
594	14.344382	100151296	68825088	39005800	24992
595	17.920809	100151296	68825088	33086176	24992
596	19.404718	100151296	68825088	28833744	24992
597	17.654405	100151296	68825088	39901216	24992
598	20.977361	100151296	68825088	35771152	24992
599	22.592396	100151296	68825088	33054376	24992
600	23.797458	100151296	68825088	31452912	24992
601	25.970037	100151296	68825088	30885464	24992
602	2.057458	100151296	68825088	31757168	24992
603	3.131718	100151296	68825088	33745600	24992
604	4.191009	100151296	68825088	36401816	24992
605	5.207773	100151296	68825088	39729672	24992
606	8.752938	100151296	68825088	28076640	24992
607	7.29388	100151296	68825088	32728576	24992
608	8.396155	100151296	68825088	38050880	24992
609	11.972682	100151296	68825088	28637848	24992
610	10.507831	100151296	68825088	35323576	24992
611	11.464397	100151296	68825088	42686520	24992
612	14.765905	100151296	68825088	34494520	24992
613	13.685719	100151296	68825088	43171592	24992
614	17.030189	100151296	68825088	36236936	24992
615	18.580044	100151296	68825088	31202184	24992
616	16.728998	100151296	68825088	41922608	24992
617	20.270857	100151296	68825088	37219488	24992
618	22.102372	100151296	68825088	34047296	24992
619	23.442085	100151296	68825088	32131648	24992
620	24.997418	100151296	68825088	31242432	24992
621	25.904001	100151296	68825088	31209760	24992
622	2.163817	100151296	68825088	32651424	24992
623	3.212279	100151296	68825088	34698712	24992
624	4.437453	100151296	68825088	37430000	24992
625	5.68265	100151296	68825088	40863080	24992
626	9.016939	100151296	68825088	29242224	24992
627	7.497218	100151296	68825088	34039760	24992
628	8.734006	100151296	68825088	39517192	24992
629	12.225154	100151296	68825088	30101048	24992
630	10.985763	100151296	68825088	36968360	24992
631	14.565549	100151296	68825088	29428832	24992
632	12.861379	100151296	68825088	37675336	24992
633	16.8984	100151296	68825088	31406424	24992
634	15.347005	100151296	68825088	41038744	24992
635	19.080458	100151296	68825088	35547256	24992
636	20.286563	100151296	68825088	31713712	24992
637	18.267042	100151296	68825088	43450320	24992
638	22.061093	100151296	68825088	39650040	24992
639	23.444889	100151296	68825088	37204736	24992
640	24.996173	100151296	68825088	35905712	24992
641	26.378309	100151296	68825088	35596552	24992
642	2.227525	100151296	68825088	36830672	24992
643	3.322657	100151296	68825088	38937368	24992
644	4.527481	100151296	68825088	41745952	24992
645	8.492874	100151296	68825088	29550216	24992
646	6.832626	100151296	68825088	33770560	24992
647	7.745563	100151296	68825088	38710192	24992
648	8.975412	100151296	68825088	44342440	24992
649	12.228283	100151296	68825088	34367864	24992
650	11.302987	100151296	68825088	41418240	24992
651	15.001223	100151296	68825088	33377440	24992
652	13.389578	100151296	68825088	41849424	24992
653	17.092655	100151296	68825088	35251648	24992
654	18.673819	100151296	68825088	30455264	24992
655	17.04847	100151296	68825088	41066600	24992
656	20.643752	100151296	68825088	36726152	24992
657	22.609466	100151296	68825088	33866224	24992
658	23.501748	100151296	68825088	32197752	24992
659	25.165793	100151296	68825088	31614904	24992
660	26.779748	100151296	68825088	31842360	24992
661	27.233635	100151296	68825088	32727104	24992
662	2.292121	100151296	68825088	34929088	24992
663	3.410429	100151296	68825088	37092872	24992
664	4.557111	100151296	68825088	39979560	24992
665	5.626693	100151296	68825088	43589904	24992
666	9.256214	100151296	68825088	31969120	24992
667	8.094731	100151296	68825088	37035592	24992
668	9.172067	100151296	68825088	42841144	24992
669	13.216325	100151296	68825088	33450528	24992
670	11.630579	100151296	68825088	40696064	24992
671	15.454082	100151296	68825088	33135832	24992
672	13.768555	100151296	68825088	41866344	24992
673	17.837792	100151296	68825088	35531936	24992
674	19.225539	100151296	68825088	31070832	24992
675	17.603166	100151296	68825088	41986336	24992
676	21.353122	100151296	68825088	37846656	24992
677	23.200027	100151296	68825088	35205832	24992
678	24.506598	100151296	68825088	33811280	24992
679	25.405132	100151296	68825088	33416208	24992
680	27.025385	100151296	68825088	33783328	24992
681	28.008356	100151296	68825088	34905424	24992
682	2.349035	100151296	68825088	37285336	24992
683	3.504959	100151296	68825088	39507728	24992
684	4.616274	100151296	68825088	42474192	24992
685	8.530109	100151296	68825088	30516880	24992
686	7.030215	100151296	68825088	34974240	24992
687	8.222676	100151296	68825088	40172568	24992
688	9.262252	100151296	68825088	46127600	24992
689	12.679343	100151296	68825088	36376288	24992
690	11.550426	100151296	68825088	43816752	24992
691	15.5245	100151296	68825088	35974544	24992
692	13.999554	100151296	68825088	44921096	24992
693	17.694055	100151296	68825088	38452544	24992
694	19.548667	100151296	68825088	33901888	24992
695	17.895602	100151296	68825088	45116336	24992
696	21.309154	100151296	68825088	40868512	24992
697	23.597487	100151296	68825088	38104584	24992
698	24.696781	100151296	68825088	36586984	24992
699	26.336669	100151296	68825088	36110896	24992
700	27.811304	100151296	68825088	36527288	24992
701	28.916528	100151296	68825088	37650648	24992
702	2.407929	100151296	68825088	40108176	24992
703	3.603641	100151296	68825088	42389264	24992
704	4.690524	100151296	68825088	45446416	24992
705	8.396712	100151296	68825088	33206832	24992
706	7.614795	100151296	68825088	37794272	24992
707	8.435093	100151296	68825088	43139648	24992
708	12.520466	100151296	68825088	33479744	24992
709	10.727423	100151296	68825088	40364424	24992
710	15.325744	100151296	68825088	32787432	24992
711	13.176997	100151296	68825088	41218472	24992
712	17.274651	100151296	68825088	35008048	24992
713	15.971915	100151296	68825088	44967400	24992
714	19.668673	100151296	68825088	39606768	24992
715	21.579049	100151296	68825088	36027432	24992
716	23.24284	100151296	68825088	33826904	24992
717	20.769631	100151296	68825088	46897760	24992
718	24.207123	100151296	68825088	44302856	24992
719	26.016866	100151296	68825088	42997656	24992
720	27.863244	100151296	68825088	42660296	24992
721	28.843602	100151296	68825088	43215128	24992
722	2.484677	100151296	68825088	45234376	24992
723	6.483183	100151296	68825088	31637640	24992
724	4.886925	100151296	68825088	34758400	24992
725	6.090303	100151296	68825088	38661504	24992
726	7.586696	100151296	68825088	43398544	24992
727	11.573227	100151296	68825088	33147392	24992
728	9.88162	100151296	68825088	39403712	24992
729	11.424079	100151296	68825088	46520168	24992
730	15.03635	100151296	68825088	38064160	24992
731	14.527502	100151296	68825088	46682816	24992
732	17.529027	100151296	68825088	39794016	24992
733	19.619535	100151296	68825088	34945576	24992
734	17.379428	100151296	68825088	45937976	24992
735	20.928983	100151296	68825088	41555128	24992
736	23.887232	100151296	68825088	38834072	24992
737	24.681801	100151296	68825088	37302776	24992
738	26.187816	100151296	68825088	36841536	24992
739	27.407498	100151296	68825088	37328416	24992
740	28.678695	100151296	68825088	38468304	24992
741	30.418189	100151296	68825088	40271560	24992
742	2.553475	100151296	68825088	43430344	24992
743	3.79012	100151296	68825088	45828168	24992
744	7.934019	100151296	68825088	33118856	24992
745	6.533053	100151296	68825088	37125344	24992
746	7.57778	100151296	68825088	41929056	24992
747	8.81242	100151296	68825088	47536768	24992
748	12.693535	100151296	68825088	37667968	24992
749	11.479485	100151296	68825088	44917008	24992
750	15.745295	100151296	68825088	37091536	24992
751	13.899046	100151296	68825088	45928688	24992
752	18.06484	100151296	68825088	39563512	24992
753	20.089195	100151296	68825088	35175328	24992
754	17.882794	100151296	68825088	46442824	24992
755	21.669484	100151296	68825088	42354088	24992
756	24.007798	100151296	68825088	39862192	24992
757	25.772025	100151296	68825088	38670368	24992
758	27.333228	100151296	68825088	38485128	24992
759	28.065769	100151296	68825088	39128120	24992
760	29.570343	100151296	68825088	40499744	24992
761	30.970099	100151296	68825088	42455992	24992
762	2.612714	100151296	68825088	45748176	24992
763	3.912681	100151296	68825088	48204480	24992
764	7.539938	100151296	68825088	35201352	24992
765	6.665778	100151296	68825088	39317784	24992
766	7.972558	100151296	68825088	44251560	24992
767	12.175328	100151296	68825088	34360616	24992
768	10.409129	100151296	68825088	40931088	24992
769	11.764196	100151296	68825088	48324920	24992
770	15.482653	100151296	68825088	40170080	24992
771	17.432645	100151296	68825088	34372656	24992
772	15.580963	100151296	68825088	44269944	24992
773	20.246019	100151296	68825088	39347600	24992
774	22.051293	100151296	68825088	36210144	24992
775	19.812231	100151296	68825088	48604680	24992
776	23.566917	100151296	68825088	45405608	24992
777	25.650826	100151296	68825088	43600176	24992
778	27.185169	100151296	68825088	42938432	24992
779	28.767546	100151296	68825088	43275016	24992
780	29.907916	100151296	68825088	44419152	24992
781	31.637142	100151296	68825088	46158024	24992
782	5.345445	100151296	68825088	33307216	24992
783	4.009923	100151296	68825088	35822368	24992
784	5.191302	100151296	68825088	39180632	24992
785	6.736388	100151296	68825088	43404264	24992
786	8.045256	100151296	68825088	48442128	24992
787	11.790159	100151296	68825088	38032272	24992
788	10.890435	100151296	68825088	44783680	24992
789	14.986264	100151296	68825088	36725968	24992
790	13.724746	100151296	68825088	45145376	24992
791	17.978207	100151296	68825088	38740416	24992
792	16.038482	100151296	68825088	48851808	24992
793	20.304122	100151296	68825088	43490840	24992
794	22.447559	100151296	68825088	39925984	24992
795	23.960601	100151296	68825088	37877152	24992
796	25.712312	100151296	68825088	37102120	24992
797	27.166327	100151296	68825088	37323840	24992
798	28.432144	100151296	68825088	38373984	24992
799	29.779783	100151296	68825088	40002056	24992
800	30.949438	100151296	68825088	42227000	24992
801	32.38965	100151296	68825088	44995240	24992
802	2.742657	100151296	68825088	48973008	24992
803	6.720417	100151296	68825088	35401648	24992
804	5.609309	100151296	68825088	38840712	24992
805	6.886698	100151296	68825088	43145064	24992
806	8.901747	100151296	68825088	48307152	24992
807	12.804432	100151296	68825088	38167336	24992
808	10.99471	100151296	68825088	45050296	24992
809	15.886962	100151296	69349376	37267496	24992
810	13.784979	100151296	69349376	45894976	24992
811	18.855757	100151296	69873664	39695184	24992
812	20.006838	100151296	69873664	35475448	24992
813	18.097213	100151296	69873664	46689352	24992
814	22.442553	100151296	69873664	42990664	24992
815	24.059873	100151296	69873664	40794200	24992
816	26.081053	100151296	69873664	39876536	24992
817	27.263267	100421632	69873664	40004664	24992
818	28.758376	100421632	69873664	41000504	24992
819	30.52009	100421632	69873664	42733848	24992
820	31.666261	100421632	69873664	44993656	24992
821	32.889387	100421632	69873664	47710864	24992
822	5.518209	100691968	69873664	35516000	24992
823	4.203724	100691968	69873664	38151048	24992
824	5.347794	100691968	69873664	41661752	24992
825	6.842367	100691968	69873664	46060048	24992
826	11.363018	100691968	69873664	35652552	24992
827	9.982592	100691968	69873664	41807592	24992
828	11.235622	100691968	69873664	48848312	24992
829	15.363441	100691968	69873664	40641968	24992
830	14.150638	100691968	69873664	49447696	24992
831	18.26205	100691968	69873664	42880888	24992
832	20.408941	100691968	70397952	38439920	24992
833	18.400084	100691968	70397952	49905496	24992
834	22.573747	100962304	70397952	45972400	24992
835	24.819991	100962304	70397952	43584832	24992
836	26.974816	100962304	70397952	42547952	24992
837	27.532828	100962304	70397952	42612280	24992
838	29.440142	100962304	70397952	43538392	24992
839	30.78163	100962304	70397952	45215392	24992
840	32.318904	100962304	70397952	47509632	24992
841	32.949025	100962304	70397952	50388152	24992
842	2.876985	101232640	70397952	41150448	24992
843	4.289207	101232640	70397952	43890216	24992
844	5.873369	101232640	70397952	47544768	24992
845	10.35449	101232640	70397952	36411368	24992
846	8.761289	101232640	70397952	41913696	24992
847	10.066731	101232640	70397952	48318824	24992
848	14.633031	101232640	70397952	39688016	24992
849	12.950197	101232640	70397952	47939096	24992
850	17.711853	101502976	70397952	41303080	24992
851	19.291963	101502976	70397952	36784056	24992
852	17.356605	101502976	70397952	47843848	24992
853	22.370985	101502976	70397952	44058984	24992
854	23.810003	101502976	70922240	41845728	24992
855	25.534245	101502976	70922240	40924208	24992
856	27.65947	101502976	70922240	41152608	24992
857	28.444369	101502976	70922240	42233296	24992
858	30.404622	101502976	70922240	44090936	24992
859	31.360576	101773312	70922240	46596928	24992
860	32.490665	101773312	70922240	49544592	24992
861	38.754085	102043648	70922240	39721304	24992
862	3.188281	105017344	74067968	49887112	24992
863	4.777805	105017344	74067968	52720400	24992
864	10.671144	105287680	74592256	40727096	24992
865	7.95307	105287680	74592256	45476536	24992
866	9.442759	105287680	74592256	51153160	24992
867	14.994136	105287680	74592256	41988096	24992
868	18.948919	105287680	74592256	49564944	24992
869	22.213463	103587840	73019392	20433792	24992
870	17.295312	103854080	73019392	15141016	24992
871	15.967517	103854080	73019392	25560256	24992
872	18.504396	103854080	73019392	21181848	24992
873	20.366589	103854080	73019392	18542456	24992
874	21.987757	103854080	73019392	17355320	24992
875	23.060898	103854080	73019392	17300624	24992
876	24.855671	103854080	73019392	18223640	24992
877	26.146009	103854080	73019392	19951536	24992
878	27.557439	103854080	73019392	22313440	24992
879	29.683464	103854080	73019392	25269416	24992
880	30.325888	103854080	73019392	28699624	24992
881	33.422846	103854080	73019392	19068888	24992
882	3.089592	103854080	73019392	26649896	24992
883	4.244578	103854080	73019392	29537616	24992
884	6.389539	103854080	73019392	17250712	24992
885	7.044972	103854080	73019392	22073728	24992
886	8.752336	103854080	73019392	27870184	24992
887	10.930882	103854080	73019392	18661656	24992
888	12.062939	103854080	73019392	26418024	24992
889	14.255933	103854080	73019392	19358288	24992
890	14.615232	103854080	73019392	29054464	24992
891	16.725492	103854080	73019392	23429592	24992
892	18.967517	103854080	73019392	19812032	24992
893	21.141146	103854080	73019392	17847608	24992
894	22.353473	103854080	73019392	17203008	24992
895	24.22671	103854080	73019392	17680488	24992
896	25.373682	103854080	73019392	18995392	24992
897	26.618843	103854080	73019392	21123008	24992
898	28.73275	103854080	73019392	23866896	24992
899	29.724379	103854080	73019392	27116088	24992
900	33.498022	103854080	73019392	17674136	24992
901	36.04635	104935424	73543680	26774864	24992
902	3.65437	104935424	73543680	18142216	24992
903	4.480206	104935424	73543680	21094376	24992
904	6.034404	104935424	73543680	25056464	24992
905	7.704768	104935424	73543680	29970808	24992
906	9.861266	104935424	73543680	20182768	24992
907	10.488463	104935424	73543680	27080904	24992
908	13.436193	104935424	73543680	19781128	24992
909	13.436659	104935424	73543680	28673992	24992
910	16.378769	104935424	73543680	23158824	24992
911	16.264983	104935424	73543680	34052904	24992
912	18.424484	104935424	73543680	29482248	24992
913	20.976867	104935424	73543680	26753608	24992
914	22.335821	104935424	73543680	25553192	24992
915	24.142147	104935424	73543680	25530832	24992
916	26.235892	104935424	73543680	26489416	24992
917	27.547435	104935424	73543680	28313656	24992
918	28.981048	104935424	73543680	30758176	24992
919	30.286692	104935424	73543680	33849824	24992
920	32.904331	104935424	73543680	23940592	24992
921	33.88565	104935424	73543680	30261984	24992
922	3.032299	104935424	73543680	24760744	24992
923	4.584659	104935424	73543680	27765408	24992
924	5.862238	104935424	73543680	31778616	24992
925	10.342455	104935424	73543680	23779504	24992
926	9.22623	104935424	73543680	29804224	24992
927	10.688825	104935424	73543680	36847632	24992
928	12.996273	104935424	73543680	28813648	24992
929	13.728329	104935424	73543680	37880520	24992
930	15.770084	104935424	73543680	31630008	24992
931	18.279204	104935424	73543680	27505288	24992
932	19.879445	104935424	73543680	25104912	24992
933	20.239227	104935424	73543680	38217912	24992
934	22.530116	104935424	73543680	35894632	24992
935	24.108523	104935424	73543680	35126600	24992
936	26.114934	104935424	73543680	35434936	24992
937	27.854102	104935424	73543680	36711928	24992
938	30.782091	104935424	73543680	25557392	24992
939	33.632189	104935424	73543680	33473088	24992
940	33.218999	104935424	73543680	38759464	24992
941	36.163725	104935424	73543680	31127792	24992
942	3.12221	104935424	73543680	43136656	24992
943	5.904232	104935424	73543680	30645872	24992
944	6.404971	104935424	73543680	34747048	24992
945	7.639359	104935424	73543680	39873944	24992
946	10.279342	104935424	73543680	30694888	24992
947	11.096161	104935424	73543680	37865440	24992
948	14.238932	104935424	73543680	31078592	24992
949	14.03638	104935424	73543680	40445872	24992
950	17.046196	104935424	73543680	35188688	24992
951	19.206498	104935424	73543680	32087560	24992
952	18.846277	104935424	73543680	44644160	24992
953	21.112614	104935424	73543680	41718688	24992
954	23.672619	104935424	73543680	40590640	24992
955	25.383156	104935424	73543680	40621000	24992
956	27.501857	104935424	73543680	41684552	24992
957	28.278037	104935424	73543680	43434424	24992
958	29.496975	104935424	73543680	45948864	24992
959	33.317968	104935424	73543680	35498232	24992
960	34.256645	104935424	73543680	41542936	24992
961	37.904268	104935424	73543680	34745552	24992
962	3.200851	104935424	73543680	47388976	24992
963	6.092386	104935424	73543680	34871424	24992
964	6.376768	104935424	73543680	39035376	24992
965	7.926651	104935424	73543680	44282944	24992
966	10.659389	104935424	73543680	35184744	24992
967	10.94126	104935424	73543680	42508872	24992
968	14.408806	104935424	73543680	35803624	24992
969	14.481255	104935424	73543680	45193032	24992
970	17.486329	104935424	73543680	40140408	24992
971	19.735137	104935424	73543680	37046544	24992
972	19.172868	104935424	73543680	49623544	24992
973	21.711417	104935424	73543680	47032304	24992
974	24.08347	104935424	73543680	45794200	24992
975	25.605687	104935424	73543680	45819920	24992
976	27.258443	104935424	73543680	46909064	24992
977	29.054518	104935424	73543680	48836448	24992
978	32.848636	104935424	73543680	38196232	24992
979	35.415107	104935424	73543680	46909472	24992
980	34.484606	104935424	73543680	52837728	24992
981	38.028828	104935424	73543680	45280384	24992
982	4.354796	104935424	73543680	38684088	24992
983	4.89627	104935424	73543680	41864456	24992
984	6.184019	104935424	73543680	46106360	24992
985	8.105416	104935424	73543680	51450176	24992
986	11.174718	104935424	73543680	41928656	24992
987	11.183293	104935424	73543680	49387544	24992
988	14.690606	104935424	74592256	42370552	24992
989	14.551245	104935424	74592256	51935736	24992
990	17.446079	105205760	74592256	46505616	24992
991	19.339486	105205760	74592256	43140264	24992
992	21.828071	105205760	74592256	41550128	24992
993	23.507053	105205760	74592256	41233120	24992
994	25.345862	105205760	74592256	42076360	24992
995	26.888229	105205760	74592256	43933200	24992
996	29.052726	105205760	74592256	46420768	24992
997	30.125279	105205760	74592256	49586752	24992
998	33.686674	105205760	74592256	53256296	24992
999	40.018436	105476096	74592256	44029072	24992
1000	56.112829	105476096	76165120	23319008	24992
