x	Duration	RSS	HeapTotal	HeapUsed	External
0	NA	108400640	77213696	37550992	24992
1	0.348638	108400640	77213696	37598672	24992
2	0.382208	108400640	77213696	37674912	24992
3	0.509606	108400640	77213696	37778200	24992
4	0.545876	108400640	77213696	37909984	24992
5	0.642446	108400640	77213696	38071848	24992
6	0.784866	108400640	77213696	38264072	24992
7	0.852797	108400640	77213696	38487712	24992
8	1.047685	108400640	77213696	38743864	24992
9	1.14827	108400640	77213696	39034248	24992
10	1.29626	108400640	77213696	39359592	24992
11	1.434111	108400640	77213696	39720912	24992
12	1.670252	108400640	77213696	40119024	24992
13	0.696675	108400640	77213696	40554992	24992
14	0.764341	108400640	77213696	41029816	24992
15	1.725422	108400640	77213696	25547400	24992
16	0.920837	108400640	77213696	26102936	24992
17	0.938536	108400640	77213696	26702072	24992
18	1.273851	108400640	77213696	27343864	24992
19	1.189095	108400640	77213696	28032896	24992
20	1.190414	108400640	77213696	28764104	24992
21	1.211425	108400640	77213696	29541320	24992
22	0.196115	108400640	77213696	30336712	24992
23	0.257432	108400640	77213696	30478936	24992
24	0.336801	108400640	77213696	30671160	24992
25	0.412046	108400640	77213696	30914416	24992
26	0.474901	108400640	77213696	31210152	24992
27	0.628434	108400640	77213696	31558904	24992
28	0.645848	108400640	77213696	31961536	24992
29	0.774732	108400640	77213696	32419056	24992
30	0.829934	108400640	77213696	32933448	24992
31	0.960714	108400640	77213696	33504752	24992
32	0.991483	108400640	77213696	34133968	24992
33	1.118958	108400640	77213696	34821864	24992
34	1.221904	108400640	77213696	35569696	24992
35	1.428332	108400640	77213696	36379168	24992
36	1.705633	108400640	77213696	37249288	24992
37	1.475326	108400640	77213696	38182792	24992
38	1.56094	108400640	77213696	39181248	24992
39	1.707459	108400640	77213696	40244304	24992
40	1.752973	108400640	77213696	41373416	24992
41	3.195297	108400640	77213696	26316792	24992
42	0.265162	108400640	77213696	27580176	24992
43	0.361465	108400640	77213696	27784152	24992
44	0.459657	108400640	77213696	28057648	24992
45	0.547979	108400640	77213696	28402992	24992
46	0.685142	108400640	77213696	28820368	24992
47	0.935179	108400640	77213696	29310840	24992
48	0.923617	108400640	77213696	29875456	24992
49	1.014223	108400640	77213696	30515192	24992
50	1.118803	108400640	77213696	31234096	24992
51	1.334426	108400640	77213696	32032040	24992
52	1.362114	108400640	77213696	32910144	24992
53	1.77515	108400640	77213696	33869392	24992
54	1.848978	108400640	77213696	34913032	24992
55	1.713206	108400640	77213696	36037304	24992
56	1.853711	108400640	77213696	37245552	24992
57	1.925108	108400640	77213696	38538832	24992
58	2.510315	108400640	77213696	39919920	24992
59	2.464622	108400640	77213696	41391704	24992
60	3.456794	108400640	77213696	26754328	24992
61	2.645365	108400640	77213696	28399648	24992
62	0.312692	108400640	77213696	30158480	24992
63	0.463588	108400640	77213696	30429312	24992
64	0.573327	108400640	77213696	30791936	24992
65	0.69965	108400640	77213696	31247376	24992
66	1.041563	108400640	77213696	31797088	24992
67	0.978946	108400640	77213696	32441848	24992
68	1.112443	108400640	77213696	33182016	24992
69	1.260667	108400640	77213696	34019008	24992
70	1.442112	108400640	77213696	34954488	24992
71	1.56578	108400640	77213696	35988792	24992
72	1.748854	108400640	77213696	37122640	24992
73	1.843142	108400640	77213696	38357064	24992
74	1.999989	108400640	77213696	39693032	24992
75	2.178045	108400640	77213696	41131504	24992
76	3.146149	108400640	77213696	26511752	24992
77	2.46087	108400640	77213696	28158256	24992
78	2.58891	108400640	77213696	29912352	24992
79	3.027466	108400640	77213696	31772736	24992
80	2.928345	108400640	77213696	33741576	24992
81	3.133816	108400640	77213696	35819368	24992
82	0.396007	108400640	77213696	38053392	24992
83	0.566205	108400640	77213696	38382736	24992
84	0.736013	108400640	77213696	38825560	24992
85	0.914608	108400640	77213696	39380752	24992
86	1.113952	108400640	77213696	40050784	24992
87	1.237281	108400640	77213696	40844920	24992
88	1.382302	108400640	77213696	41746752	24992
89	2.348744	108400640	77213696	26535592	24992
90	1.71948	108400640	77213696	27674368	24992
91	1.902518	108400640	77213696	28935280	24992
92	2.054005	108400640	77213696	30313296	24992
93	2.281409	108400640	77213696	31812504	24992
94	2.478103	108400640	77213696	33433912	24992
95	2.596517	108400640	77213696	35178480	24992
96	2.998771	108400640	77213696	37047128	24992
97	3.023336	108400640	77213696	39041152	24992
98	3.180688	108400640	77213696	41163008	24992
99	4.332306	108400640	77213696	27266520	24992
100	3.575353	108400640	77213696	29643800	24992
101	3.935779	108400640	77213696	32150168	24992
102	0.450897	108400640	77213696	34869896	24992
103	0.620165	108400640	77213696	35273584	24992
104	0.843768	108400640	77213696	35813408	24992
105	1.010965	108400640	77213696	36490312	24992
106	1.227695	108400640	77213696	37305776	24992
107	1.473927	108400640	77213696	38260256	24992
108	1.745455	108400640	77213696	39354728	24992
109	1.876521	108400640	77213696	40590224	24992
110	2.030313	108400640	77213696	41968656	24992
111	3.139844	108400640	77213696	27241816	24992
112	2.51027	108400640	77213696	28907968	24992
113	2.68145	108400640	77213696	30718992	24992
114	2.883172	108400640	77213696	32676224	24992
115	3.335417	108400640	77213696	34779064	24992
116	3.500125	108400640	77213696	37029880	24992
117	3.722081	108400640	77213696	39429376	24992
118	3.784588	108400640	77213696	41980448	24992
119	4.633515	108400640	77213696	28418016	24992
120	4.249256	108400640	77213696	31273456	24992
121	4.46995	108400640	77213696	34280160	24992
122	0.532012	108400640	77213696	37539880	24992
123	0.732508	108400640	77213696	38002080	24992
124	0.9417	108400640	77213696	38619904	24992
125	1.168741	108400640	77213696	39394232	24992
126	1.614971	108400640	77213696	40326664	24992
127	1.638909	108400640	77213696	41420752	24992
128	1.882293	108400640	77213696	42671776	24992
129	2.695489	108400640	77213696	27748680	24992
130	2.371008	108400640	77213696	29323200	24992
131	2.808157	108400640	77213696	31062920	24992
132	2.848385	108400640	77213696	32962256	24992
133	3.097214	108400640	77213696	35025968	24992
134	3.323879	108400640	77213696	37255000	24992
135	4.439049	108400640	77213696	39652416	24992
136	3.930011	108400640	77213696	42224024	24992
137	4.739658	108400640	77213696	28703096	24992
138	4.525375	108400640	77213696	31608584	24992
139	4.577972	108400640	77213696	34681008	24992
140	4.997441	108400640	77213696	37925088	24992
141	5.150218	108400640	77213696	41341304	24992
142	0.553249	108400640	77213696	29030416	24992
143	0.811595	108400640	77213696	29556536	24992
144	1.06242	108400640	77213696	30260472	24992
145	1.400279	108400640	77213696	31142032	24992
146	1.590519	108400640	77213696	32202600	24992
147	1.854697	108400640	77213696	33442984	24992
148	2.129115	108400640	77213696	34864440	24992
149	2.60213	108400640	77213696	36471120	24992
150	2.723806	108400640	77213696	38258008	24992
151	2.95768	108400640	77213696	40234264	24992
152	3.297305	108400640	77213696	42389624	24992
153	4.481402	108400640	77213696	28643848	24992
154	3.890699	108400640	77213696	31171664	24992
155	4.12404	108400640	77213696	33887072	24992
156	4.542704	108400640	77213696	36792696	24992
157	4.608575	108400640	77213696	39886360	24992
158	4.899779	108400640	77213696	43172808	24992
159	5.963152	108400640	77213696	30434880	24992
160	5.861773	108400640	77213696	34115944	24992
161	5.939642	108400640	77213696	37980192	24992
162	0.604741	108400640	77213696	42182592	24992
163	0.89513	108400640	77213696	42767320	24992
164	1.211857	108400640	77213696	43548408	24992
165	2.220232	108400640	77213696	28312000	24992
166	1.777961	108400640	77213696	29494824	24992
167	2.272386	108400640	77213696	30874912	24992
168	2.678768	108400640	77213696	32453296	24992
169	2.682553	108400640	77213696	34231832	24992
170	2.985189	108400640	77213696	36214960	24992
171	3.307503	108400640	77213696	38400168	24992
172	3.770158	108400640	77213696	40789616	24992
173	4.1002	108400640	77213696	43384256	24992
174	5.034045	108400640	77213696	29993760	24992
175	4.687226	108400640	77213696	33007592	24992
176	4.929846	108400640	77213696	36224160	24992
177	5.294227	108400640	77213696	39654584	24992
178	5.684809	108400640	77213696	43292432	24992
179	7.040531	108400640	77213696	30968360	24992
180	6.081948	108400640	77213696	35033320	24992
181	6.645653	108400640	77213696	39307000	24992
182	0.667241	108400640	77213696	43966880	24992
183	1.98045	108400640	77213696	28406520	24992
184	1.329056	108400640	77213696	29266584	24992
185	1.630656	108400640	77213696	30346800	24992
186	1.956289	108400640	77213696	31641296	24992
187	2.334118	108400640	77213696	33154720	24992
188	2.6193	108400640	77213696	34890680	24992
189	3.000239	108400640	77213696	36844744	24992
190	3.278651	108400640	77213696	39021488	24992
191	3.656661	108400640	77213696	41421208	24992
192	4.151263	108400640	77213696	44044560	24992
193	5.165169	108400640	77213696	30658400	24992
194	4.624922	108400640	77213696	33733200	24992
195	5.181186	108400640	77213696	37041504	24992
196	5.348375	108400640	77213696	40570240	24992
197	5.662005	108400640	77213696	44327200	24992
198	7.231044	108400640	77213696	32037840	24992
199	6.650331	108400640	77213696	36256696	24992
200	7.165983	108400640	77213696	40708576	24992
201	8.593838	108400640	77213696	29738696	24992
202	0.730557	108400640	77213696	34856000	24992
203	1.084487	108400640	77213696	35557736	24992
204	1.432141	108400640	77213696	36494872	24992
205	1.813748	108400640	77213696	37668488	24992
206	2.371737	108400640	77213696	39079968	24992
207	2.510073	108400640	77213696	40738704	24992
208	2.926443	108400640	77213696	42644432	24992
209	3.276776	108400640	77213696	44798800	24992
210	4.820819	108400640	77213696	30913704	24992
211	4.052486	108400640	77213696	33570312	24992
212	4.592895	108400640	77213696	36477248	24992
213	4.939353	108400640	77213696	39636560	24992
214	5.359998	108400640	77213696	43049424	24992
215	6.931606	108400640	77213696	30742192	24992
216	6.110532	108400640	77213696	34664848	24992
217	6.622017	108400640	77213696	38844560	24992
218	7.538258	108400640	77213696	43284864	24992
219	8.157348	108400640	77213696	31954072	24992
220	7.945153	108400640	77213696	36917496	24992
221	8.070499	108400640	77213696	42136544	24992
222	0.847467	108400640	77213696	32029800	24992
223	1.443076	108400640	77213696	32814768	24992
224	1.655108	108400640	77213696	33862888	24992
225	2.070479	108400640	77213696	35175280	24992
226	2.477328	108400640	77213696	36753352	24992
227	2.900749	108400640	77213696	38597392	24992
228	3.437184	108400640	77213696	40709832	24992
229	3.616887	108400640	77213696	43096296	24992
230	5.342751	108400640	77213696	29822416	24992
231	4.738525	108400640	77213696	32750464	24992
232	5.02313	108400640	77213696	35958848	24992
233	5.570937	108400640	77213696	39435856	24992
234	5.889539	108400640	77213696	43193264	24992
235	7.625837	108400640	77213696	31268792	24992
236	6.645958	108400640	77213696	35580536	24992
237	7.105009	108400640	77213696	40166960	24992
238	7.619374	108400640	77213696	45034576	24992
239	8.932006	108400640	77213696	33948488	24992
240	8.465113	108400640	77213696	39379720	24992
241	9.011487	108400640	77213696	45093064	24992
242	0.914194	108400640	77213696	35096168	24992
243	1.368286	108400640	77213696	35948176	24992
244	1.761059	108400640	77213696	37087120	24992
245	2.238705	108400640	77213696	38511360	24992
246	2.635791	108400640	77213696	40223656	24992
247	3.285173	108400640	77213696	42224584	24992
248	3.543835	108400640	77213696	44515048	24992
249	5.085664	108400640	77213696	31004512	24992
250	4.602395	108400640	77213696	33877896	24992
251	4.913147	108400640	77213696	37044272	24992
252	5.395845	108400640	77213696	40512080	24992
253	5.965999	108400640	77213696	44266592	24992
254	7.556172	108400640	77213696	32244496	24992
255	6.809425	108400640	77213696	36589584	24992
256	7.338402	108400640	77213696	41234048	24992
257	8.803658	108400640	77213696	29822016	24992
258	7.994164	108400640	77213696	35068248	24992
259	8.624047	108400640	77213696	40610512	24992
260	10.808951	108400640	77213696	31064208	24992
261	9.751222	108400640	77213696	37210880	24992
262	0.991127	108400640	77213696	43935416	24992
263	1.468426	108400640	77213696	44845936	24992
264	1.90382	108400640	77213696	46063320	24992
265	3.401309	108400640	77213696	31326216	24992
266	2.978273	108400640	77213696	33160592	24992
267	3.312024	108400640	77213696	35299264	24992
268	3.6875	108400640	77213696	37746080	24992
269	4.240127	108400640	77213696	40502544	24992
270	4.801984	108400640	77213696	43572000	24992
271	6.81741	108400640	77213696	31151456	24992
272	5.738184	108400640	77213696	34845408	24992
273	6.530424	108400640	77213696	38860152	24992
274	6.708411	108400640	77213696	43182528	24992
275	8.645402	108400640	77213696	32033560	24992
276	7.700392	108400640	77213696	36988912	24992
277	8.223893	108400640	77213696	42261128	24992
278	10.417936	108400640	77213696	32245864	24992
279	9.230339	108400640	77213696	38165184	24992
280	9.758096	108400640	77213696	44402640	24992
281	11.702733	108400640	77213696	34974096	24992
282	1.184295	108400640	77213696	42148632	24992
283	1.475579	108400640	77213696	43117648	24992
284	2.03365	108400640	77213696	44413408	24992
285	2.543671	108400640	77213696	46032568	24992
286	4.213462	108400640	77213696	31820264	24992
287	3.537875	108400640	77213696	34095776	24992
288	4.056255	108400640	77213696	36698552	24992
289	4.607101	108400640	77213696	39630384	24992
290	5.368334	108400640	77213696	42896984	24992
291	5.635925	108400640	77213696	46504080	24992
292	7.441465	108400640	77213696	34178488	24992
293	6.680698	108400640	77213696	38438864	24992
294	7.218614	108400640	77213696	43041176	24992
295	9.566383	108400640	77213696	32310584	24992
296	8.351534	108400640	77213696	37585744	24992
297	8.646394	108400640	77213696	43192112	24992
298	10.834596	108400640	77213696	33436184	24992
299	10.02135	108400640	77213696	39720272	24992
300	10.460144	108400640	77213696	46350016	24992
301	12.151824	108400640	77213696	37099528	24992
302	1.062574	108400640	77213696	44722520	24992
303	1.629425	108400640	77213696	45750072	24992
304	2.16513	108400640	77213696	47121848	24992
305	3.983647	108400640	77213696	32570616	24992
306	3.186373	108400640	77213696	34633912	24992
307	3.793401	108400640	77213696	37044248	24992
308	4.490217	108400640	77213696	39812288	24992
309	4.843688	108400640	77213696	42927856	24992
310	5.666655	108400640	77213696	46386056	24992
311	7.172696	108400640	77213696	34045240	24992
312	6.322236	108400640	77213696	38206288	24992
313	6.911861	108400640	77213696	42720792	24992
314	7.655083	108400640	77213696	47593952	24992
315	9.174555	108400640	77213696	36449744	24992
316	8.637343	108400640	77213696	42039928	24992
317	10.836094	108400640	77213696	32600152	24992
318	9.956534	108400640	77213696	38902984	24992
319	10.432187	108400640	77213696	45559488	24992
320	12.36107	108400640	77213696	36554568	24992
321	11.640501	108400640	77213696	43945744	24992
322	1.16188	108400640	77213696	36331352	24992
323	1.728866	108400640	77213696	37417480	24992
324	2.285849	108400640	77213696	38867080	24992
325	2.936763	108400640	77213696	40681392	24992
326	3.412576	108400640	77213696	42863000	24992
327	4.054347	108400640	77213696	45409744	24992
328	6.126477	108400640	77213696	32426848	24992
329	5.382913	108400640	77213696	35709616	24992
330	5.994961	108400640	77213696	39375152	24992
331	6.588347	108400640	77213696	43398792	24992
332	6.922295	108400640	77213696	47806616	24992
333	8.914881	108400640	77213696	36262120	24992
334	8.376154	108400640	77213696	41412792	24992
335	8.754539	108400640	77213696	46934416	24992
336	10.827177	108400640	77213696	36664528	24992
337	9.908031	108400640	77213696	42937552	24992
338	12.38231	108400640	77213696	34115328	24992
339	11.276961	108400640	77213696	41159128	24992
340	14.070471	108400640	77213696	33429248	24992
341	12.145979	108400640	77213696	41216920	24992
342	1.410151	108400640	77213696	34623752	24992
343	1.808799	108400640	77213696	35768320	24992
344	2.419358	108400640	77213696	37296000	24992
345	3.030535	108400640	77213696	39207856	24992
346	3.661832	108400640	77213696	41505200	24992
347	4.233956	108400640	77213696	44190832	24992
348	4.866035	108400640	77213696	47274208	24992
349	6.826032	108400640	77213696	34623592	24992
350	6.044011	108400640	77213696	38471888	24992
351	6.404858	108400640	77213696	42710664	24992
352	7.168142	108400640	77213696	47354816	24992
353	9.326647	108400640	77213696	36217672	24992
354	8.64942	108400640	77213696	41635016	24992
355	9.060264	108400640	77213696	47447968	24992
356	11.163814	108400640	77213696	37474416	24992
357	10.701218	108400640	77213696	44072944	24992
358	12.890071	108400640	77213696	35485712	24992
359	11.584303	108400640	77213696	42885440	24992
360	14.08292	108400640	77213696	35368448	24992
361	13.076864	108400640	77213696	43574560	24992
362	1.33151	108400640	77213696	37118480	24992
363	1.910372	108400640	77213696	38345368	24992
364	2.681193	108400640	77213696	39968832	24992
365	3.057282	108400640	77213696	42000336	24992
366	3.744286	108400640	77213696	44441320	24992
367	4.570411	108400640	77213696	47292544	24992
368	6.552556	108400640	77213696	34545032	24992
369	5.714793	108400640	77213696	38227568	24992
370	6.236698	108400640	77213696	42315296	24992
371	7.127778	108400640	77213696	46818248	24992
372	9.355017	108400640	77213696	35757720	24992
373	8.395153	108400640	77213696	41094704	24992
374	8.951959	108400640	77213696	46849184	24992
375	11.391949	108400640	77213696	37036808	24992
376	10.186478	108400640	77213696	43634536	24992
377	12.723595	108400640	77213696	35203720	24992
378	11.604613	108400640	77213696	42632184	24992
379	14.068795	108400640	77213696	35283400	24992
380	13.144597	108400640	77213696	43558584	24992
381	15.856577	108400640	77213696	36895232	24992
382	1.282999	108400640	77213696	46452976	24992
383	1.975892	108400640	77213696	47727880	24992
384	2.677431	108400640	77213696	49429328	24992
385	4.82377	108400640	77213696	35259344	24992
386	3.977702	108400640	77213696	37817520	24992
387	4.668852	108400640	77213696	40805120	24992
388	5.546717	108400640	77213696	44223120	24992
389	6.314734	108400640	77213696	48077920	24992
390	8.519347	108400640	77213696	36313304	24992
391	7.510246	108400640	77213696	41029616	24992
392	8.025744	108400640	77213696	46181664	24992
393	10.150141	108400640	77213696	36017208	24992
394	9.424753	108400640	77213696	42040216	24992
395	9.906617	108400640	77213696	48513904	24992
396	12.269994	108400640	77213696	39236288	24992
397	11.680048	108400640	77213696	46573808	24992
398	14.160742	108400640	77213696	38546632	24992
399	13.101654	108400640	77213696	46769624	24992
400	15.469458	108400640	77213696	39591648	24992
401	14.269733	108400640	77213696	48709504	24992
402	1.354274	108400640	77213696	42518312	24992
403	2.058158	108400640	77213696	43852728	24992
404	2.792803	108400640	77213696	45636672	24992
405	3.619609	108400640	77213696	47863240	24992
406	5.833454	108400640	77213696	34596184	24992
407	4.747708	108400640	77213696	37721656	24992
408	5.543732	108400640	77213696	41315576	24992
409	6.495896	108400640	77213696	45363592	24992
410	6.940376	108400640	77213696	49845200	24992
411	9.266645	108400640	77213696	38461624	24992
412	8.467798	108400640	77213696	43846144	24992
413	9.144624	108400640	77213696	49686232	24992
414	11.499831	108400640	77213696	39697288	24992
415	10.643993	108400640	77213696	46451648	24992
416	13.276905	108400640	77213696	37941376	24992
417	12.138477	108400640	77213696	45627272	24992
418	14.889977	108400640	77213696	38218144	24992
419	13.288205	108400640	77213696	46859800	24992
420	15.960284	108400640	77213696	40198776	24992
421	15.076	108400640	77213696	49801160	24992
422	1.48755	108400640	77213696	44131984	24992
423	2.182153	108400640	77213696	45573408	24992
424	2.9155	108400640	77213696	47512592	24992
425	3.965942	108400640	77213696	49921872	24992
426	5.730415	108400640	77213696	36645864	24992
427	5.299445	108400640	77213696	40021640	24992
428	5.816192	108400640	77213696	43896312	24992
429	6.533166	108400640	77213696	48244872	24992
430	8.919561	108400640	77213696	37101000	24992
431	7.987365	108400640	77213696	42443232	24992
432	8.767598	108400640	77213696	48261056	24992
433	11.093703	108400640	77213696	38587344	24992
434	10.197532	108400640	77213696	45400656	24992
435	13.849749	108400640	77213696	37245136	24992
436	11.731667	108400640	77213696	45033280	24992
437	14.763194	108400640	77213696	37917040	24992
438	13.626797	108400640	77213696	46727504	24992
439	16.313278	108400640	77213696	40326216	24992
440	15.238326	108400640	77213696	50110632	24992
441	17.40149	108400640	77213696	44169736	24992
442	1.58376	108400640	77213696	40268456	24992
443	2.236683	108400640	77213696	41768256	24992
444	3.058303	108400640	77213696	43769512	24992
445	3.923155	108400640	77213696	46273416	24992
446	4.640813	108400640	77213696	49281312	24992
447	7.291345	108400640	77213696	36764768	24992
448	6.013789	108400640	77213696	40793448	24992
449	6.890352	108400640	77213696	45317552	24992
450	7.690602	108400640	77213696	50349960	24992
451	10.081401	108400640	77213696	39650056	24992
452	9.4304	108400640	77213696	45707040	24992
453	12.082172	108400640	77213696	36893120	24992
454	10.721331	108400640	77213696	43990536	24992
455	13.782943	108400640	77213696	36426208	24992
456	12.369516	108400640	77213696	44547480	24992
457	15.6079	108400640	77213696	37947840	24992
458	13.893061	108400640	77213696	47087104	24992
459	17.146895	108400640	77213696	41077240	24992
460	15.664547	108400640	77213696	51245936	24992
461	18.075351	108400640	77213696	45587512	24992
462	1.589579	108400640	77213696	41973768	24992
463	2.39538	108400640	77213696	43535880	24992
464	3.176437	108400640	77213696	45615224	24992
465	4.080664	108400640	77213696	48216552	24992
466	4.675172	108400640	77213696	51341424	24992
467	7.299329	108400640	77213696	38721280	24992
468	6.339993	108400640	77213696	42895048	24992
469	7.176836	108400640	77213696	47594712	24992
470	10.008439	108400640	77213696	37223880	24992
471	8.811625	108400640	77213696	42979032	24992
472	9.566048	108400640	77213696	49373264	24992
473	12.357546	108400640	77213696	40204128	24992
474	11.219249	108400640	77213696	47548888	24992
475	14.202948	108400640	77213696	39794112	24992
476	12.627309	108400640	77213696	48203336	24992
477	15.493771	108400640	77213696	41443152	24992
478	14.510734	108400640	77213696	50922512	24992
479	16.961897	108400640	77213696	44704368	24992
480	19.707015	108400640	77213696	40209496	24992
481	16.854733	108400640	77213696	51298992	24992
482	1.671428	108400640	77213696	47364264	24992
483	2.510581	108400640	77213696	48981152	24992
484	3.301434	108400640	77213696	51138560	24992
485	5.947813	108400640	77213696	37724096	24992
486	4.946413	108400640	77213696	40965912	24992
487	5.938457	108400640	77213696	44774032	24992
488	6.652369	108400640	77213696	49103800	24992
489	9.653719	108400640	77213696	38152128	24992
490	8.347407	108400640	77213696	43574536	24992
491	9.312716	108400640	77213696	49555368	24992
492	12.201991	108400640	77213696	40221952	24992
493	10.966298	108400640	77213696	47289376	24992
494	13.604459	108400640	77213696	39392168	24992
495	12.613311	108400640	77213696	47575112	24992
496	16.045138	108400640	77213696	40741304	24992
497	13.971923	108400640	77213696	50015536	24992
498	17.332068	108400640	77213696	43883424	24992
499	19.196418	108400640	77213696	39421336	24992
500	17.081781	108400640	77213696	50389432	24992
501	20.053854	108400640	77213696	45879040	24992
502	1.691142	108400640	77213696	43312368	24992
503	2.468128	108400640	77213696	44987712	24992
504	3.417259	108400640	77213696	47222952	24992
505	4.524594	108400640	77213696	50019336	24992
506	7.404166	108400640	77213696	37561104	24992
507	6.312735	108400640	77213696	41482984	24992
508	7.026685	108400640	77213696	45972880	24992
509	7.800999	108400640	77213696	51035392	24992
510	10.677354	108400640	77213696	40606336	24992
511	9.42107	108400640	77213696	46790616	24992
512	12.711758	108400640	77213696	38258984	24992
513	11.303643	108400640	77213696	45590400	24992
514	14.899184	108400640	77213696	38397256	24992
515	12.894921	108400640	77213696	46862496	24992
516	16.454524	108400640	77213696	40590648	24992
517	14.813771	108400640	77213696	50219288	24992
518	18.163071	108400640	77213696	44484216	24992
519	19.070498	108400640	77213696	40384792	24992
520	17.523626	108400640	77213696	51735248	24992
521	20.695848	108400640	77213696	47512416	24992
522	1.728703	108400640	77213696	45235568	24992
523	2.68367	108400640	77213696	46969392	24992
524	4.08883	108400640	77213696	49285656	24992
525	4.532698	108400640	77213696	52181576	24992
526	7.584488	108400640	77213696	39658000	24992
527	6.391954	108400640	77213696	43716320	24992
528	6.977087	108400640	77213696	48358192	24992
529	7.893024	108400640	77213696	53584240	24992
530	10.750755	108400640	77213696	43076552	24992
531	10.065368	108400640	77213696	49485784	24992
532	12.59194	108400640	77213696	40831008	24992
533	11.758512	108400640	77213696	48405608	24992
534	14.873821	108400640	77213696	41101944	24992
535	13.612792	108400640	77213696	49869464	24992
536	16.76269	108400640	77213696	43486048	24992
537	15.544138	108400640	77213696	53436288	24992
538	18.1024	108400640	77213696	47669696	24992
539	19.793003	108400640	77213696	43472992	24992
540	21.439683	108400640	77213696	40609432	24992
541	18.8102	108400640	77213696	52951520	24992
542	1.850094	108400640	77213696	50284304	24992
543	2.686504	108400640	77213696	52076616	24992
544	5.886266	108400640	77213696	38532896	24992
545	4.549809	108400640	77213696	41526888	24992
546	5.524361	108400640	77213696	45134008	24992
547	6.722736	108400640	77213696	49331832	24992
548	7.301507	108400640	77213696	54129424	24992
549	10.055272	108400640	77213696	43130256	24992
550	9.298081	108400640	77213696	49137632	24992
551	12.781098	108400640	77213696	40250144	24992
552	11.203047	108400640	77213696	47476976	24992
553	14.808415	108400640	77213696	40122344	24992
554	13.222438	108400640	77213696	48566328	24992
555	16.788611	108400640	77213696	42226704	24992
556	14.90585	108400640	77213696	51911896	24992
557	18.168525	108400640	77213696	46211680	24992
558	19.451065	108400640	77213696	42156160	24992
559	17.765633	108400640	77213696	53715112	24992
560	20.833709	108400640	77213696	49563304	24992
561	22.555528	108400640	77213696	46772688	24992
562	1.952026	108400640	77213696	45740008	24992
563	2.854045	108400640	77213696	47611576	24992
564	3.6441	108400640	77213696	50108032	24992
565	4.921403	108400640	77213696	53230800	24992
566	8.044569	108400640	77213696	40949184	24992
567	6.39396	108400640	77213696	45343504	24992
568	7.728783	108400640	77213696	50358720	24992
569	11.20952	108400640	77213696	40355624	24992
570	9.349335	108400640	77213696	46629192	24992
571	10.225082	108400640	77213696	53544880	24992
572	13.736069	108400640	77213696	44897320	24992
573	12.723244	108400640	77213696	53096392	24992
574	15.73384	108400640	77213696	45814664	24992
575	17.530371	108400640	77213696	40440984	24992
576	15.566709	108400640	77213696	50527464	24992
577	19.030373	108400640	77213696	45609336	24992
578	20.582639	108400640	77213696	42210200	24992
579	18.291254	108400640	77213696	54234056	24992
580	21.288848	108400640	77213696	50569032	24992
581	22.720371	108400640	77213696	48254928	24992
582	1.898059	108400640	77213696	47667200	24992
583	2.895036	108400640	77213696	49596920	24992
584	3.9423	108400640	77213696	52171456	24992
585	8.265561	108400640	77213696	39586984	24992
586	6.034647	108400640	77213696	43470352	24992
587	6.878523	108400640	77213696	47986896	24992
588	7.810119	108400640	77213696	53154776	24992
589	11.214822	108400640	77213696	42970456	24992
590	10.033517	108400640	77213696	49457712	24992
591	13.962021	108400640	77213696	41269544	24992
592	12.106921	108400640	77213696	49058200	24992
593	16.114038	108400640	77213696	42192560	24992
594	13.773753	108400640	77213696	51304768	24992
595	17.600507	108400640	77213696	45384168	24992
596	18.990514	108400640	77213696	41130208	24992
597	16.953693	108400640	77213696	52198200	24992
598	20.447456	108400640	77213696	48067632	24992
599	22.301305	108400640	77213696	45349880	24992
600	23.003751	108400640	77213696	43747232	24992
601	24.986317	108400640	77213696	43166208	24992
602	1.960509	108400640	77213696	44037992	24992
603	3.019264	108400640	77213696	46026392	24992
604	4.150556	108400640	77213696	48682576	24992
605	5.07007	108400640	77213696	52010400	24992
606	8.499338	108400640	77213696	40357280	24992
607	7.039568	108400640	77213696	45009144	24992
608	8.02884	108400640	77213696	50331512	24992
609	11.818882	108400640	77213696	40918400	24992
610	10.228128	108400640	77213696	47604144	24992
611	11.416771	108400640	77213696	54967056	24992
612	14.779182	108400640	77213696	46775024	24992
613	13.311197	108400640	77213696	55452064	24992
614	16.664533	108400640	77213696	48517376	24992
615	18.339414	108400640	77213696	43482592	24992
616	16.305212	108400640	77213696	54202984	24992
617	19.757366	108400640	77213696	49499832	24992
618	21.705333	108400640	77213696	46327608	24992
619	23.271798	108400640	77213696	44411928	24992
620	24.071608	108400640	77213696	43522624	24992
621	25.0944	108400640	77213696	43489856	24992
622	2.054918	108400640	77213696	44931608	24992
623	3.158124	108400640	77213696	46978864	24992
624	4.198483	108400640	77213696	49710120	24992
625	5.200403	108400640	77213696	53143168	24992
626	8.921728	108400640	77213696	41522160	24992
627	7.346994	108400640	77213696	46319784	24992
628	8.467995	108400640	77213696	51797184	24992
629	12.208753	108400640	77213696	42381008	24992
630	10.508279	108400640	77213696	49248288	24992
631	15.115494	108400640	77213696	41708680	24992
632	13.603159	108400640	77213696	49955200	24992
633	16.817679	108400640	77213696	43686136	24992
634	15.144661	108400640	77213696	53318544	24992
635	18.30233	108400640	77213696	47827024	24992
636	20.198816	108400640	77213696	43993352	24992
637	18.15522	108400640	77213696	55730024	24992
638	21.523408	108400640	77213696	51929712	24992
639	23.077379	108400640	77213696	49484376	24992
640	24.2402	108400640	77213696	48185320	24992
641	25.683382	108400640	77213696	47876128	24992
642	2.210213	108400640	77213696	49110216	24992
643	3.246737	108400640	77213696	51216880	24992
644	4.478259	108400640	77213696	54025432	24992
645	8.067995	108400640	77213696	41829664	24992
646	6.497262	108400640	77213696	46049976	24992
647	7.680905	108400640	77213696	50989576	24992
648	8.797003	108400640	77213696	56621792	24992
649	11.684122	108400640	77213696	46647088	24992
650	10.918401	108400640	77213696	53697528	24992
651	14.7105	108400640	77213696	45656696	24992
652	13.177199	108400640	77213696	54128648	24992
653	16.776349	108400640	77213696	47530840	24992
654	18.495333	108400640	77213696	42734376	24992
655	16.253985	108400640	77213696	53345264	24992
656	20.312033	108400640	77213696	49005248	24992
657	21.863447	108400640	77213696	46145288	24992
658	23.127577	108400640	77213696	44473968	24992
659	24.673913	108400640	77213696	43893904	24992
660	26.115773	108400640	77213696	44121232	24992
661	27.413371	108400640	77213696	45005944	24992
662	2.257539	108400640	77213696	47207992	24992
663	3.826193	108400640	77213696	49371896	24992
664	4.630845	108400640	77213696	52263896	24992
665	5.643401	108400640	77213696	55874208	24992
666	9.331838	108400640	77213696	44253392	24992
667	7.979539	108400640	77213696	49319832	24992
668	8.892623	108400640	77213696	55125352	24992
669	12.981116	108400640	77213696	45734704	24992
670	11.152008	108400640	77213696	52980208	24992
671	15.750931	108400640	77213696	45419944	24992
672	13.456901	108400640	77213696	54149448	24992
673	17.401595	108670976	77737984	47815008	24992
674	18.974167	108670976	77737984	43353840	24992
675	16.870587	108670976	77737984	54269344	24992
676	21.258848	108670976	78262272	50129632	24992
677	23.113055	108670976	78262272	47488776	24992
678	23.564378	108670976	78262272	46094192	24992
679	25.127532	108670976	78262272	45699088	24992
680	25.824206	108670976	78262272	46066176	24992
681	27.384253	108941312	78262272	47188240	24992
682	2.267458	108941312	78262272	49568120	24992
683	3.400484	108941312	78262272	51790328	24992
684	4.552478	108941312	78262272	54756912	24992
685	8.343803	108941312	78262272	42799464	24992
686	6.938322	108941312	78262272	47256896	24992
687	8.116956	108941312	78262272	52455192	24992
688	9.051439	108941312	78262272	58410192	24992
689	12.715837	108941312	78262272	48658848	24992
690	11.472785	108941312	78262272	56099280	24992
691	15.346533	109211648	78262272	48257040	24992
692	13.718927	109211648	78262272	57203560	24992
693	17.431126	109211648	78262272	50734976	24992
694	18.905182	109211648	78262272	46184072	24992
695	17.21847	109211648	78262272	57398704	24992
696	21.242802	109211648	78262272	53150848	24992
697	23.24843	109211648	78262272	50386888	24992
698	24.472226	109211648	78786560	48869256	24992
699	25.8664	109211648	78786560	48393136	24992
700	26.989614	109481984	78786560	48809496	24992
701	28.16399	109481984	78786560	49932824	24992
702	2.359037	109481984	78786560	52390320	24992
703	3.394045	109481984	78786560	54671376	24992
704	4.796182	109481984	78786560	57728496	24992
705	8.924688	109481984	78786560	45488880	24992
706	7.254061	109481984	78786560	50076288	24992
707	8.214678	109481984	78786560	55421632	24992
708	12.164035	109752320	78786560	45761696	24992
709	10.694769	109752320	78786560	52646344	24992
710	14.770891	109752320	78786560	45069168	24992
711	12.855567	109752320	78786560	53500328	24992
712	17.180584	109752320	78786560	47289824	24992
713	14.93709	109752320	78786560	57249192	24992
714	19.368157	109752320	78786560	51888528	24992
715	21.501047	109752320	78786560	48309160	24992
716	22.321449	109752320	78786560	46108600	24992
717	20.438014	109752320	78786560	59179424	24992
718	23.940002	109752320	78786560	56584488	24992
719	25.821812	110022656	78786560	55279256	24992
720	27.161176	110022656	79310848	54941864	24992
721	28.556194	110022656	79310848	55496664	24992
722	2.440493	110022656	79310848	57515880	24992
723	6.29824	110292992	79310848	43919016	24992
724	4.8187	110292992	79310848	47039592	24992
725	5.915417	110292992	79310848	50942448	24992
726	7.164425	110292992	79310848	55679920	24992
727	11.020478	110292992	79310848	45428736	24992
728	9.748046	110292992	79310848	51685024	24992
729	10.777588	110292992	79310848	58801448	24992
730	14.607152	110292992	79310848	50345408	24992
731	14.012276	110292992	79310848	58964032	24992
732	17.25897	110292992	79310848	52074984	24992
733	19.166438	110292992	79310848	47226728	24992
734	16.949654	110292992	79310848	58219096	24992
735	21.300543	110292992	79310848	53836216	24992
736	23.310073	110563328	79310848	51115008	24992
737	24.130518	110563328	79310848	49583704	24992
738	25.455247	110563328	79310848	49122280	24992
739	27.216637	110563328	79835136	49609376	24992
740	28.303825	110563328	79835136	50749232	24992
741	29.536604	110563328	79835136	52552456	24992
742	2.43788	110563328	79835136	55711208	24992
743	3.711015	110563328	79835136	58109000	24992
744	7.672782	110833664	79835136	45399656	24992
745	6.233123	110833664	79835136	49406112	24992
746	7.407612	110833664	79835136	54209792	24992
747	8.792353	110833664	79835136	59817472	24992
748	13.258311	110833664	79835136	49948640	24992
749	12.231278	110833664	79835136	57197648	24992
750	17.147851	110833664	79835136	49372832	24992
751	15.02532	110833664	79835136	58209488	24992
752	27.708141	110833664	79835136	51844904	24992
753	21.921538	110833664	79835136	23270544	24992
754	18.773161	110833664	79835136	19284872	24992
755	20.122607	110833664	79835136	16748472	24992
756	21.588378	110833664	79835136	15494840	24992
757	21.470187	110833664	79835136	29204240	24992
758	23.319087	110833664	79835136	27274504	24992
759	24.414958	110833664	79835136	26571024	24992
760	25.753376	110833664	79835136	26778688	24992
761	27.02297	110833664	79835136	27719976	24992
762	2.86544	110833664	79835136	14034504	24992
763	3.681499	110833664	79835136	16504656	24992
764	5.203329	110833664	79835136	19781384	24992
765	6.26405	110833664	79835136	23879368	24992
766	7.600618	110833664	79835136	28821264	24992
767	9.292789	110833664	79835136	18233144	24992
768	10.03526	110833664	79835136	24802752	24992
769	12.014212	110833664	79835136	16606512	24992
770	12.848082	110833664	79835136	24835064	24992
771	14.91734	110833664	79835136	18281776	24992
772	15.111471	110833664	79835136	28181744	24992
773	17.18086	110833664	79835136	22720160	24992
774	19.064926	110833664	79835136	19147024	24992
775	20.431908	110833664	79835136	16965264	24992
776	22.03464	110833664	79835136	16068728	24992
777	23.561048	110833664	79835136	16140864	24992
778	25.306769	110833664	79835136	17046016	24992
779	26.441642	110833664	79835136	18699368	24992
780	27.505968	110833664	79835136	20870352	24992
781	28.787998	110833664	79835136	23468672	24992
782	2.61663	110833664	79835136	27308088	24992
783	3.920973	110833664	79835136	29823016	24992
784	5.444586	110833664	79835136	16843664	24992
785	6.64189	110833664	79835136	21069488	24992
786	7.959515	110833664	79835136	26133568	24992
787	9.925751	110833664	79835136	16306528	24992
788	10.293212	110833664	79835136	23059544	24992
789	13.009571	110833664	79835136	15492592	24992
790	13.315643	110833664	79835136	23912152	24992
791	15.484526	110833664	79835136	17874224	24992
792	15.518651	110833664	79835136	27990944	24992
793	17.798761	110833664	79835136	22888696	24992
794	19.578772	110833664	79835136	19586312	24992
795	21.247917	110833664	79835136	17741760	24992
796	23.060575	110833664	79835136	17074968	24992
797	24.155215	110833664	79835136	17387136	24992
798	25.703176	110833664	79835136	18462288	24992
799	26.844046	110833664	79835136	20213472	24992
800	27.737395	110833664	79835136	22541304	24992
801	29.693197	110833664	79835136	25267960	24992
802	2.686249	110833664	79835136	29295840	24992
803	4.332523	110833664	79835136	15718184	24992
804	5.212	110833664	79835136	19153128	24992
805	6.618293	110833664	79835136	23459624	24992
806	7.689512	110833664	79835136	28620728	24992
807	9.691251	110833664	79835136	18476616	24992
808	10.62576	110833664	79835136	25359384	24992
809	13.043773	110833664	79835136	17547728	24992
810	13.273302	110833664	79835136	26171120	24992
811	15.402002	110833664	79835136	19943288	24992
812	16.048311	110833664	79835136	30296448	24992
813	17.622761	110833664	79835136	25080176	24992
814	20.282065	110833664	79835136	21660024	24992
815	22.474479	110833664	79835136	19779200	24992
816	23.832276	110833664	79835136	19141528	24992
817	25.126323	110833664	79835136	19476232	24992
818	26.115978	110833664	79835136	20630288	24992
819	27.472456	110833664	79835136	22501824	24992
820	29.216094	110833664	79835136	24855072	24992
821	29.724581	110833664	79835136	27672840	24992
822	3.077096	110833664	79835136	15611368	24992
823	4.006057	110833664	79835136	18243264	24992
824	5.390786	110833664	79835136	21754024	24992
825	7.172168	110833664	79835136	26144440	24992
826	9.156762	110833664	79835136	15863784	24992
827	9.772631	110833664	79835136	22020552	24992
828	11.208638	110833664	79835136	29072544	24992
829	13.174654	110833664	79835136	20845312	24992
830	13.92058	110833664	79835136	29652352	24992
831	15.509242	110833664	79835136	23108664	24992
832	17.718742	110833664	79835136	18634728	24992
833	17.794846	110833664	79835136	30132664	24992
834	19.540244	110833664	79835136	26164776	24992
835	22.039228	110833664	79835136	23820024	24992
836	23.568804	110833664	79835136	22744312	24992
837	24.869137	110833664	79835136	22767672	24992
838	26.195674	110833664	79835136	23691872	24992
839	27.375192	110833664	79835136	25358048	24992
840	29.170379	110833664	79835136	27678040	24992
841	30.69479	110833664	79835136	30532096	24992
842	2.802353	110833664	79835136	21329320	24992
843	4.171897	110833664	79835136	24084896	24992
844	5.559268	110833664	79835136	27742912	24992
845	7.692218	110833664	79835136	16569968	24992
846	8.368751	110833664	79835136	22097144	24992
847	9.823888	110833664	79835136	28502208	24992
848	11.832673	110833664	79835136	19827128	24992
849	12.939746	110833664	79835136	28085872	24992
850	15.324827	110833664	79835136	21439200	24992
851	16.893253	110833664	79835136	16917504	24992
852	16.856258	110833664	79835136	27981072	24992
853	19.112467	110833664	79835136	24152808	24992
854	21.209467	110833664	79835136	21911496	24992
855	22.841726	110833664	79835136	20982056	24992
856	24.180329	110833664	79835136	21148888	24992
857	25.635399	110833664	79835136	22278680	24992
858	27.622813	110833664	79835136	24136904	24992
859	28.000313	110833664	79835136	26625928	24992
860	29.835184	110833664	79835136	29514720	24992
861	33.41514	110833664	79835136	19664704	24992
862	2.883374	110833664	79835136	29833696	24992
863	4.33027	110833664	79835136	32665008	24992
864	6.408653	110833664	79835136	20637320	24992
865	7.109452	110833664	79835136	25358328	24992
866	8.449057	110833664	79835136	31036032	24992
867	10.737881	110833664	79835136	21855584	24992
868	11.729958	110833664	79835136	29425792	24992
869	14.129414	110833664	79835136	22467384	24992
870	14.283662	110833664	79835136	31938296	24992
871	16.743191	110833664	79835136	26404152	24992
872	18.454697	110833664	79835136	22850888	24992
873	20.373206	110833664	79835136	20880968	24992
874	20.351726	110833664	79835136	34182488	24992
875	21.966082	110833664	79835136	32137144	24992
876	24.103654	110833664	79835136	31393248	24992
877	26.317304	110833664	79835136	31790624	24992
878	27.260249	110833664	79835136	33019032	24992
879	28.488314	110833664	79835136	34980776	24992
880	32.414036	110833664	79835136	24118952	24992
881	32.582594	110833664	79835136	29728944	24992
882	3.392162	110833664	79835136	20099208	24992
883	4.237169	110833664	79835136	22987032	24992
884	5.771735	110833664	79835136	26840288	24992
885	7.243362	110833664	79835136	31657272	24992
886	9.619919	110833664	79835136	21644464	24992
887	10.281017	110833664	79835136	28410104	24992
888	12.821774	110833664	79835136	20920024	24992
889	12.903953	110833664	79835136	29633336	24992
890	16.204898	110833664	79835136	23873864	24992
891	15.931214	110833664	79835136	34515392	24992
892	18.016446	110833664	79835136	29813928	24992
893	20.410539	110833664	79835136	26948512	24992
894	22.204533	110833664	79835136	25564808	24992
895	23.508131	110833664	79835136	25374016	24992
896	25.527935	110833664	79835136	26279128	24992
897	27.066628	110833664	79835136	27988984	24992
898	28.26758	110833664	79835136	30331088	24992
899	29.466822	110833664	79835136	33225616	24992
900	32.157655	110833664	79835136	23348472	24992
901	35.261124	110833664	79835136	32476040	24992
902	3.376633	110833664	79835136	23698664	24992
903	4.44803	110833664	79835136	26644752	24992
904	5.818725	110833664	79835136	30582792	24992
905	7.254459	110833664	79835136	35525968	24992
906	9.836052	110833664	79835136	25637416	24992
907	10.475738	110833664	79835136	32538928	24992
908	12.644782	110833664	79835136	25163528	24992
909	13.480194	110833664	79835136	34034184	24992
910	15.996773	110833664	79835136	28274912	24992
911	17.727808	110833664	79835136	24587040	24992
912	18.10409	110833664	79835136	36426016	24992
913	19.886057	110833664	79835136	33337616	24992
914	22.50192	110833664	79835136	31737392	24992
915	24.106548	110833664	79835136	31507256	24992
916	25.430031	110833664	79835136	32269424	24992
917	27.730316	110833664	79835136	33850912	24992
918	29.29474	110833664	79835136	36169272	24992
919	30.250928	110833664	79835136	39088688	24992
920	33.062212	110833664	79835136	28971784	24992
921	34.179104	110833664	79835136	35211376	24992
922	3.24056	111104000	79835136	29411456	24992
923	4.44243	111104000	79835136	32420464	24992
924	6.166309	111104000	79835136	36428328	24992
925	10.940246	111104000	79835136	28566360	24992
926	9.122711	111104000	79835136	34583744	24992
927	10.591192	111104000	79835136	41612392	24992
928	12.843416	111104000	79835136	33553776	24992
929	13.855652	111104000	79835136	42635608	24992
930	15.2736	111104000	79835136	36313624	24992
931	18.026623	111104000	79835136	32160152	24992
932	20.069329	111104000	79835136	29716104	24992
933	20.153672	111104000	79835136	42837168	24992
934	21.778809	111104000	79835136	40513016	24992
935	24.097737	111104000	79835136	39741648	24992
936	25.87665	111104000	79835136	40005064	24992
937	27.329103	111104000	79835136	41247824	24992
938	30.784282	111104000	79835136	30079920	24992
939	33.609331	111104000	79835136	38035320	24992
940	32.536777	111104000	79835136	43281600	24992
941	37.474207	111104000	79835136	35505952	24992
942	3.140456	111104000	79835136	47639744	24992
943	5.760115	111104000	79835136	35169104	24992
944	6.295358	111104000	79835136	39297328	24992
945	7.871276	111104000	79835136	44457328	24992
946	10.367132	111104000	79835136	35275392	24992
947	11.107535	111104000	79835136	42449152	24992
948	14.002366	111104000	79835136	35656984	24992
949	14.243164	111104000	79835136	45029608	24992
950	17.12218	111104000	79835136	39764528	24992
951	19.066707	111104000	79835136	36660712	24992
952	18.821454	111104000	79835136	49225688	24992
953	21.038443	111104000	79835136	46286688	24992
954	23.254294	111104000	79835136	44926968	24992
955	25.060732	111104000	79835136	44953304	24992
956	26.937243	111104000	79835136	45999960	24992
957	28.135056	111104000	79835136	47886752	24992
958	29.474147	111104000	79835136	50500960	24992
959	33.35337	111104000	79835136	40045944	24992
960	34.149223	111104000	79835136	46095384	24992
961	37.308173	111104000	79835136	39286640	24992
962	3.34554	111104000	79835136	51925184	24992
963	7.099166	111104000	79835136	39423000	24992
964	6.903915	111104000	79835136	43586832	24992
965	8.609038	111104000	79835136	48835416	24992
966	12.68029	111104000	79835136	39735104	24992
967	12.830002	111104000	79835136	47061856	24992
968	23.463202	111104000	79835136	40352376	24992
969	21.963833	106930176	76689408	21168032	24992
970	18.555971	108011520	76689408	16941544	24992
971	17.657932	108011520	76689408	28429400	24992
972	19.642148	108011520	76689408	24846456	24992
973	22.046539	108011520	76689408	23026696	24992
974	23.796235	108011520	76689408	22498632	24992
975	25.57424	108011520	76689408	23240944	24992
976	26.877328	108011520	76689408	24829720	24992
977	28.879349	108011520	76689408	27229848	24992
978	29.66127	108011520	76689408	30168896	24992
979	33.129474	108011520	76689408	20236632	24992
980	34.641439	108011520	76689408	26580376	24992
981	37.4325	108011520	76689408	19938224	24992
982	3.267946	108011520	76689408	32841376	24992
983	5.558057	108011520	76689408	20336232	24992
984	6.810696	108011520	76689408	24577920	24992
985	8.279461	108011520	76689408	29923528	24992
986	10.63937	108011520	76689408	20739352	24992
987	11.561631	108011520	76689408	28176608	24992
988	14.076289	108011520	76689408	21403192	24992
989	14.679832	108011520	76689408	31005512	24992
990	17.722557	108011520	76689408	25906184	24992
991	19.153327	108011520	76689408	22758912	24992
992	21.374066	108011520	76689408	21217056	24992
993	22.797025	108011520	76689408	21039072	24992
994	24.500607	108011520	76689408	21929672	24992
995	26.533518	108011520	76689408	23762064	24992
996	27.983824	108011520	76689408	26328072	24992
997	29.579091	108011520	76689408	29517240	24992
998	30.970214	108011520	76689408	33206272	24992
999	34.130469	108011520	76689408	24014880	24992
1000	37.82043	108011520	76689408	34181256	24992
