x	Duration	RSS	HeapTotal	HeapUsed	External
0	NA	111030272	80359424	34361816	24992
1	0.36262	111030272	80359424	34409536	24992
2	0.396313	111030272	80359424	34485832	24992
3	0.465651	111030272	80359424	34589120	24992
4	0.558846	111030272	80359424	34720904	24992
5	0.719761	111030272	80359424	34882680	24992
6	0.787733	111030272	80359424	35074952	24992
7	0.889408	111030272	80359424	35298592	24992
8	1.034618	111030272	80359424	35554696	24992
9	1.167796	111030272	80359424	35845080	24992
10	1.276857	111030272	80359424	36170488	24992
11	1.416749	111030272	80359424	36531720	24992
12	1.250835	111030272	80359424	36929848	24992
13	0.652962	111030272	80359424	37365808	24992
14	0.705797	111030272	80359424	37840648	24992
15	1.143957	111030272	80359424	21948112	24992
16	0.877432	111030272	80359424	22503520	24992
17	0.893443	111030272	80359424	23102568	24992
18	0.946242	111030272	80359424	23744360	24992
19	1.00478	111030272	80359424	24431408	24992
20	1.122868	111030272	80359424	25162720	24992
21	1.131333	111030272	80359424	25940040	24992
22	0.165154	111030272	80359424	26735392	24992
23	0.247068	111030272	80359424	26877656	24992
24	0.315349	111030272	80359424	27069880	24992
25	0.588597	111030272	80359424	27313112	24992
26	0.501435	111030272	80359424	27609008	24992
27	0.540049	111030272	80359424	27957704	24992
28	0.616558	111030272	80359424	28360320	24992
29	0.701738	111030272	80359424	28817848	24992
30	0.775696	111030272	80359424	29332216	24992
31	0.875571	111030272	80359424	29903448	24992
32	0.936758	111030272	80359424	30532768	24992
33	1.620918	111030272	80359424	31220664	24992
34	1.191354	111030272	80359424	31968320	24992
35	1.209287	111030272	80359424	32776784	24992
36	1.352858	111030272	80359424	33650720	24992
37	1.594922	111030272	80359424	34583632	24992
38	1.688887	111030272	80359424	35582008	24992
39	1.611763	111030272	80359424	36647496	24992
40	1.670794	111030272	80359424	37776728	24992
41	3.061774	111030272	80359424	22734944	24992
42	0.242135	111030272	80359424	23998160	24992
43	0.364663	111030272	80359424	24202144	24992
44	0.672987	111030272	80359424	24475640	24992
45	0.551164	111030272	80359424	24821016	24992
46	0.647433	111030272	80359424	25238448	24992
47	0.760547	111030272	80359424	25728960	24992
48	0.889134	111030272	80359424	26293568	24992
49	0.979743	111030272	80359424	26933464	24992
50	1.083201	111030272	80359424	27652344	24992
51	1.197824	111030272	80359424	28450312	24992
52	1.319672	111030272	80359424	29328376	24992
53	1.423276	111030272	80359424	30287512	24992
54	1.546234	111030272	80359424	31328752	24992
55	1.684706	111030272	80359424	32453000	24992
56	1.789097	111030272	80359424	33661424	24992
57	1.976712	111030272	80359424	34954792	24992
58	2.443606	111030272	80359424	36335992	24992
59	2.258116	111030272	80359424	37804160	24992
60	3.609675	111030272	80359424	23194480	24992
61	2.420998	111030272	80359424	24840000	24992
62	0.284823	111030272	80359424	26598840	24992
63	0.431862	111030272	80359424	26869672	24992
64	0.560841	111030272	80359424	27232296	24992
65	0.700073	111030272	80359424	27688360	24992
66	0.82716	111030272	80359424	28238136	24992
67	0.963289	111030272	80359424	28882584	24992
68	1.106952	111030272	80359424	29622800	24992
69	1.459367	111030272	80359424	30459680	24992
70	1.395605	111030272	80359424	31395216	24992
71	1.536349	111030272	80359424	32429456	24992
72	1.682188	111030272	80359424	33563208	24992
73	1.824912	111030272	80359424	34797656	24992
74	1.97746	111030272	80359424	36133608	24992
75	2.112753	111030272	80359424	37572168	24992
76	3.08592	111030272	80359424	22965912	24992
77	2.442121	111030272	80359424	24612416	24992
78	2.588422	111030272	80359424	26366224	24992
79	2.736508	111030272	80359424	28227016	24992
80	3.113092	111030272	80359424	30195320	24992
81	3.159195	111030272	80359424	32272920	24992
82	0.346866	111030272	80359424	34507280	24992
83	0.517849	111030272	80359424	34836528	24992
84	0.679733	111030272	80359424	35279368	24992
85	0.847408	111030272	80359424	35834552	24992
86	1.201866	111030272	80359424	36504736	24992
87	1.209441	111030272	80359424	37290192	24992
88	1.342082	111030272	80359424	38192640	24992
89	2.220083	111030272	80359424	22981088	24992
90	1.699773	111030272	80359424	24119600	24992
91	1.878278	111030272	80359424	25377416	24992
92	2.037738	111030272	80359424	26755408	24992
93	2.255948	111030272	80359424	28254536	24992
94	2.560088	111030272	80359424	29879776	24992
95	2.592641	111030272	80359424	31624296	24992
96	2.964453	111030272	80359424	33493176	24992
97	3.359405	111030272	80359424	35487008	24992
98	3.15081	111030272	80359424	37609240	24992
99	4.075566	111030272	80359424	23719136	24992
100	3.508384	111030272	80359424	26096432	24992
101	4.122094	111030272	80359424	28602824	24992
102	0.712959	111030272	80359424	31322616	24992
103	0.638901	111030272	80359424	31726280	24992
104	0.806885	111030272	80359424	32269776	24992
105	0.991221	111030272	80359424	32946704	24992
106	1.384956	111030272	80359424	33762200	24992
107	1.424089	111030272	80359424	34716760	24992
108	1.591745	111030272	80359424	35811216	24992
109	1.801442	111030272	80359424	37046736	24992
110	1.997729	111030272	80359424	38425840	24992
111	2.847164	111030272	80359424	23698856	24992
112	2.636196	111030272	80359424	25364128	24992
113	2.626315	111030272	80359424	27174352	24992
114	2.860364	111030272	80359424	29130368	24992
115	3.060491	111030272	80359424	31233304	24992
116	3.270639	111030272	80359424	33484080	24992
117	3.489909	111030272	80359424	35883672	24992
118	3.697888	111030272	80359424	38435824	24992
119	4.898512	111030272	80359424	24886128	24992
120	4.156087	111030272	80359424	27740080	24992
121	4.361727	111030272	80359424	30746672	24992
122	0.475626	111030272	80359424	34006472	24992
123	0.706343	111030272	80359424	34469056	24992
124	0.937005	111030272	80359424	35086824	24992
125	1.150152	111030272	80359424	35861192	24992
126	1.377063	111030272	80359424	36793664	24992
127	1.626535	111030272	80359424	37889568	24992
128	1.839169	111030272	80359424	39140144	24992
129	2.604807	111030272	80359424	24217056	24992
130	2.321712	111030272	80359424	25790552	24992
131	2.564468	111030272	80359424	27526416	24992
132	2.805705	111030272	80359424	29425664	24992
133	3.230857	111030272	80359424	31490512	24992
134	3.258567	111030272	80359424	33719528	24992
135	3.513952	111030272	80359424	36114952	24992
136	4.356145	111030272	80359424	38677680	24992
137	4.875198	111030272	80359424	25155432	24992
138	4.244764	111030272	80359424	28057712	24992
139	4.57	111030272	80359424	31134672	24992
140	4.744116	111030272	80359424	34378992	24992
141	5.033448	111030272	80359424	37795208	24992
142	0.542702	111030272	80359424	25482232	24992
143	0.802368	111030272	80359424	26008360	24992
144	1.089779	111030272	80359424	26711424	24992
145	1.30781	111030272	80359424	27592472	24992
146	1.57305	111030272	80359424	28653360	24992
147	2.177781	111030272	80359424	29893792	24992
148	2.122292	111030272	80359424	31315008	24992
149	2.421956	111030272	80359424	32923288	24992
150	2.673613	111030272	80359424	34710120	24992
151	2.934737	111030272	80359424	36684480	24992
152	3.175649	111030272	80359424	38839776	24992
153	4.165071	111030272	80359424	25114120	24992
154	3.711469	111030272	80359424	27645720	24992
155	4.191001	111030272	80359424	30363000	24992
156	4.267659	111030272	80359424	33267168	24992
157	4.730472	111030272	80359424	36361264	24992
158	4.995307	111030272	80359424	39648408	24992
159	5.737616	111030272	80359424	26925848	24992
160	5.384303	111030272	80359424	30599056	24992
161	5.667651	111030272	80359424	34464920	24992
162	0.589195	111030272	80359424	38667328	24992
163	0.885058	111030272	80359424	39252048	24992
164	1.168544	111030272	80359424	40033160	24992
165	2.105156	111030272	80359424	24806136	24992
166	1.758936	111030272	80359424	25987264	24992
167	2.412362	111030272	80359424	27364464	24992
168	2.34595	111030272	80359424	28942336	24992
169	2.696552	111030272	80359424	30721000	24992
170	3.00335	111030272	80359424	32702824	24992
171	3.452029	111030272	80359424	34887984	24992
172	3.539353	111030272	80359424	37280016	24992
173	3.894911	111030272	80359424	39876448	24992
174	5.037742	111030272	80359424	26495728	24992
175	4.440641	111030272	80359424	29503752	24992
176	4.743629	111030272	80359424	32721080	24992
177	5.265586	111030272	80359424	36151504	24992
178	5.351772	111030272	80359424	39792208	24992
179	6.656524	111030272	80359424	27477368	24992
180	6.000536	111030272	80359424	31546656	24992
181	6.64245	111030272	80359424	35820336	24992
182	0.868086	111030272	80359424	40480168	24992
183	1.688476	111030272	80359424	24925872	24992
184	1.303037	111030272	80359424	25784960	24992
185	1.674384	111030272	80359424	26863376	24992
186	1.943608	111030272	80359424	28157872	24992
187	2.309808	111030272	80359424	29671296	24992
188	2.781272	111030272	80359424	31407256	24992
189	2.902357	111030272	80359424	33361320	24992
190	3.252792	111030272	80359424	35538064	24992
191	3.579095	111030272	80359424	37937784	24992
192	3.921903	111030272	80359424	40561136	24992
193	4.952438	111030272	80359424	27184328	24992
194	4.65135	111030272	80359424	30258544	24992
195	4.966187	111030272	80359424	33563080	24992
196	5.238265	111030272	80359424	37091280	24992
197	5.785485	111030272	80359424	40848144	24992
198	6.668631	111030272	80359424	28572208	24992
199	6.276728	111030272	80359424	32790896	24992
200	6.595901	111030272	80359424	37241664	24992
201	8.039903	111030272	80359424	26287824	24992
202	0.726948	111030272	80359424	31406064	24992
203	1.067588	111030272	80359424	32107800	24992
204	1.413641	111030272	80359424	33044904	24992
205	1.76674	111030272	80359424	34224424	24992
206	2.10877	111030272	80359424	35635920	24992
207	2.489625	111030272	80359424	37294112	24992
208	3.094531	111030272	80359424	39207104	24992
209	3.392906	111030272	80359424	41361432	24992
210	4.727729	111030272	80359424	27483648	24992
211	4.002969	111030272	80359424	30139592	24992
212	4.543424	111030272	80359424	33046456	24992
213	5.113689	111030272	80359424	36211056	24992
214	5.371578	111030272	80359424	39625680	24992
215	6.490911	111030272	80359424	27327984	24992
216	6.132321	111030272	80359424	31250672	24992
217	6.695331	111030272	80359424	35429832	24992
218	6.916985	111030272	80359424	39873960	24992
219	8.46067	111030272	80359424	28531088	24992
220	7.729014	111030272	80359424	33488224	24992
221	8.116871	111030272	80359424	38705928	24992
222	0.836967	111030272	80359424	28603016	24992
223	1.232457	111030272	80359424	29387888	24992
224	1.648314	111030272	80359424	30436008	24992
225	2.043997	111030272	80359424	31748400	24992
226	2.464748	111030272	80359424	33326376	24992
227	2.859416	111030272	80359424	35171688	24992
228	3.290328	111030272	80359424	37290432	24992
229	3.695231	111030272	80359424	39675680	24992
230	5.090752	111030272	80359424	26409096	24992
231	4.729978	111030272	80359424	29337592	24992
232	4.906891	111030272	80359424	32543240	24992
233	5.399999	111030272	80359424	36020264	24992
234	5.942359	111030272	80359424	39779400	24992
235	7.210665	111030272	80359424	27869272	24992
236	6.555638	111030272	80359424	32176600	24992
237	7.148531	111030272	80359424	36773880	24992
238	7.430909	111030272	80359424	41643216	24992
239	8.711209	111030272	80359424	30531008	24992
240	8.368391	111030272	80359424	35961616	24992
241	8.822962	111030272	80359424	41674808	24992
242	0.893844	111030272	80359424	31681080	24992
243	1.333409	111030272	80359424	32533096	24992
244	2.031338	111030272	80359424	33670736	24992
245	2.209765	111030272	80359424	35095016	24992
246	2.484566	111030272	80359424	36813096	24992
247	3.169845	111030272	80359424	38814128	24992
248	3.836651	111030272	80359424	41104576	24992
249	4.982011	111030272	80359424	27600840	24992
250	4.417609	111030272	80359424	30473984	24992
251	5.035304	111030272	80359424	33647704	24992
252	5.311555	111030272	80359424	37107240	24992
253	5.802088	111030272	80359424	40866648	24992
254	7.352988	111030272	80359424	28849552	24992
255	7.007442	111030272	80359424	33194760	24992
256	7.71359	111030272	80359424	37838088	24992
257	8.891423	111030272	80359424	27229224	24992
258	8.160312	111030272	80359424	32478632	24992
259	8.481108	111030272	80359424	38020576	24992
260	10.580017	111030272	80359424	28311368	24992
261	9.368451	111030272	80359424	34460888	24992
262	0.951971	111030272	80359424	41186056	24992
263	1.443743	111030272	80359424	42096648	24992
264	2.881566	111030272	80359424	27150016	24992
265	2.387073	111030272	80359424	28681112	24992
266	2.86669	111030272	80359424	30510344	24992
267	3.316271	111030272	80359424	32647672	24992
268	4.03015	111030272	80359424	35093936	24992
269	4.292122	111030272	80359424	37850656	24992
270	5.085932	111030272	80359424	40918840	24992
271	6.43766	111030272	80359424	28339968	24992
272	5.660414	111030272	80359424	32032880	24992
273	6.203492	111030272	80359424	36039960	24992
274	6.896879	111030272	80359424	40368648	24992
275	8.657093	111030272	80359424	29124888	24992
276	7.906474	111030272	80359424	34080240	24992
277	8.667195	111030272	80359424	39352456	24992
278	9.943724	111030272	80359424	29254808	24992
279	9.193959	111030272	80359424	35167616	24992
280	9.83616	111030272	80359424	41408624	24992
281	11.262448	111030272	80359424	31916088	24992
282	1.216307	111030272	80359424	39089776	24992
283	1.456299	111030272	80359424	40058960	24992
284	1.902425	111030272	80359424	41352648	24992
285	2.68969	111030272	80359424	42971888	24992
286	4.217121	111030272	80359424	28710608	24992
287	3.612969	111030272	80359424	30993648	24992
288	4.092546	111030272	80359424	33595928	24992
289	4.506236	111030272	80359424	36527672	24992
290	5.288525	111030272	80359424	39791952	24992
291	5.597638	111030272	80359424	43398576	24992
292	7.121589	111030272	80359424	31018344	24992
293	6.698457	111030272	80359424	35284632	24992
294	7.420674	111030272	80359424	39879552	24992
295	9.178719	111030272	80359424	29100648	24992
296	8.10403	111030272	80359424	34381160	24992
297	8.731583	111030272	80359424	39986328	24992
298	10.874521	111030272	80359424	30217960	24992
299	9.9866	111030272	80359424	36502584	24992
300	10.219016	111030272	80359424	43126104	24992
301	12.057805	111030272	80359424	33848752	24992
302	1.08216	111030272	80359424	41480016	24992
303	1.612946	111030272	80359424	42507640	24992
304	2.144327	111030272	80359424	43879960	24992
305	3.681096	111030272	80359424	29309600	24992
306	3.224519	111030272	80359424	31372928	24992
307	3.764749	111030272	80359424	33783240	24992
308	4.290538	111030272	80359424	36541632	24992
309	5.008865	111030272	80359424	39648888	24992
310	5.392485	111030272	80359424	43107152	24992
311	7.265058	111030272	80359424	30761176	24992
312	6.618861	111030272	80359424	34923648	24992
313	7.033739	111030272	80359424	39438952	24992
314	9.283319	111030272	80359424	28745088	24992
315	8.121306	111030272	80359424	33968336	24992
316	8.754424	111030272	80359424	39546656	24992
317	10.616481	111030272	80359424	29914168	24992
318	9.893324	111030272	80359424	36210584	24992
319	10.641129	111030272	80359424	42875352	24992
320	12.440399	111030272	80359424	33759176	24992
321	11.53458	111030272	80359424	41134456	24992
322	1.113042	111030272	80359424	33418888	24992
323	1.74653	111030272	80359424	34504960	24992
324	2.274587	111030272	80359424	35954592	24992
325	2.833314	111030272	80359424	37768832	24992
326	3.541962	111030272	80359424	39949176	24992
327	3.996588	111030272	80359424	42496016	24992
328	5.994799	111030272	80359424	29439072	24992
329	5.135564	111030272	80359424	32729408	24992
330	5.71164	111030272	80359424	36382784	24992
331	6.383335	111030272	80359424	40408856	24992
332	8.544103	111030272	80359424	29165888	24992
333	7.442249	111030272	80359424	33933376	24992
334	8.003232	111030272	80359424	39074312	24992
335	8.598798	111030272	80359424	44591440	24992
336	10.503604	111030272	80359424	34132040	24992
337	9.496781	111030272	80359424	40400096	24992
338	11.897594	111030272	80359424	31448216	24992
339	11.044876	111030272	80359424	38474312	24992
340	13.404361	111030272	80359424	30622216	24992
341	12.111117	111030272	80359424	38408120	24992
342	1.217126	111030272	80359424	31731616	24992
343	1.941814	111030272	80359424	32876256	24992
344	2.424251	111030272	80359424	34404056	24992
345	3.010105	111030272	80359424	36315856	24992
346	3.625533	111030272	80359424	38613224	24992
347	4.226444	111030272	80359424	41307896	24992
348	5.034659	111030272	80359424	44378216	24992
349	6.617834	111030272	80359424	31649712	24992
350	6.215344	111030272	80359424	35498672	24992
351	6.652297	111030272	80359424	39737008	24992
352	7.107303	111030272	80359424	44366104	24992
353	9.343284	111030272	80359424	33156776	24992
354	8.432425	111030272	80359424	38571048	24992
355	9.15245	111030272	80359424	44383504	24992
356	10.980887	111030272	80359424	34360656	24992
357	10.417984	111030272	80359424	40960200	24992
358	12.871896	111030272	80359424	32370832	24992
359	11.791486	111030272	80359424	39765408	24992
360	14.139623	111030272	80359424	32183976	24992
361	12.996734	111030272	80359424	40386256	24992
362	1.25561	111030272	80359424	33919680	24992
363	2.112991	111030272	80359424	35136464	24992
364	2.55805	111030272	80359424	36759920	24992
365	3.088693	111030272	80359424	38791360	24992
366	3.622	111030272	80359424	41232336	24992
367	4.576067	111030272	80359424	44083352	24992
368	6.531442	111030272	80359424	31286264	24992
369	5.730435	111030272	80359424	34960232	24992
370	6.295819	111030272	80359424	39048920	24992
371	7.790356	111296512	80359424	43562064	24992
372	9.319996	111296512	80359424	32532776	24992
373	8.534326	111296512	80359424	37873912	24992
374	8.863829	111296512	80359424	43628736	24992
375	11.441108	111296512	80359424	33822808	24992
376	10.465004	111296512	80359424	40412136	24992
377	13.140298	111296512	80359424	32049616	24992
378	11.566875	111296512	80359424	39482808	24992
379	14.20379	111296512	80359424	32078384	24992
380	13.050209	111296512	80359424	40369000	24992
381	15.808616	111296512	80359424	33667776	24992
382	1.341172	111296512	80359424	43222640	24992
383	2.063122	111296512	80359424	44497528	24992
384	2.654433	111296512	80359424	46198912	24992
385	4.551206	111296512	80359424	31995968	24992
386	3.95475	111296512	80359424	34554024	24992
387	4.818458	111296512	80359424	37541528	24992
388	5.530327	111296512	80359424	40959536	24992
389	6.160396	111296512	80359424	44808896	24992
390	8.16485	111296512	80359424	33048600	24992
391	7.357596	111296512	80359424	37776032	24992
392	8.206087	111296512	80359424	42933632	24992
393	10.29472	111296512	80359424	32739256	24992
394	9.580551	111296512	80359424	38761640	24992
395	10.044902	111296512	80359424	45222352	24992
396	12.401366	111296512	80359424	35947648	24992
397	11.488628	111296512	80359424	43294416	24992
398	13.936674	111296512	80359424	35273872	24992
399	13.027148	111296512	80359424	43496784	24992
400	15.565214	111296512	80359424	36286048	24992
401	14.414378	111296512	80359424	45395904	24992
402	1.402861	111296512	80359424	39208432	24992
403	2.081057	111296512	80359424	40541832	24992
404	2.857304	111296512	80359424	42324784	24992
405	3.455449	111296512	80359424	44558624	24992
406	5.758844	111296512	80359424	31277568	24992
407	4.817819	111296512	80359424	34401952	24992
408	5.558682	111296512	80359424	37991160	24992
409	6.409659	111296512	80359424	42039176	24992
410	7.158899	111296512	80359424	46520784	24992
411	9.727598	111296512	80359424	35146960	24992
412	8.584932	111296512	80359424	40531480	24992
413	9.156997	111296512	80359424	46371568	24992
414	11.179027	111296512	80359424	36383504	24992
415	10.593948	111296512	80359424	43137864	24992
416	13.083108	111296512	80359424	34628120	24992
417	11.96713	111296512	80359424	42314016	24992
418	14.893961	111296512	80359424	34905456	24992
419	13.543982	111296512	80359424	43546896	24992
420	16.04462	111296512	80359424	36886224	24992
421	15.213004	111296512	80359424	46488608	24992
422	1.479748	111296512	80359424	40819784	24992
423	2.181811	111296512	80359424	42261208	24992
424	3.084635	111296512	80359424	44200392	24992
425	3.629155	111296512	80359424	46609672	24992
426	6.16133	111296512	80359424	33333840	24992
427	5.080031	111296512	80359424	36709616	24992
428	5.97176	111296512	80359424	40584288	24992
429	6.723927	111296512	80359424	44932848	24992
430	9.003099	111296512	80359424	33790456	24992
431	8.035347	111296512	80359424	39131912	24992
432	8.924632	111296512	80359424	44949736	24992
433	11.279446	111296512	80359424	35277192	24992
434	10.276455	111296512	80359424	42090040	24992
435	12.907408	111296512	80359424	33926384	24992
436	11.974433	111296512	80359424	41731360	24992
437	14.634178	111296512	80359424	34630000	24992
438	13.318592	111296512	80359424	43409616	24992
439	16.454691	111296512	80359424	37008872	24992
440	14.641363	111296512	80359424	46793096	24992
441	17.177664	111296512	80359424	40852552	24992
442	1.536935	111296512	80359424	36951624	24992
443	2.289977	111296512	80359424	38451424	24992
444	3.223963	111296512	80359424	40452680	24992
445	3.802334	111296512	80359424	42956584	24992
446	4.575314	111296512	80359424	45964480	24992
447	7.240682	111296512	80359424	33448736	24992
448	6.176268	111296512	80359424	37476616	24992
449	7.031162	111296512	80359424	42000720	24992
450	7.833774	111296512	80359424	47033128	24992
451	9.932483	111296512	80359424	36334784	24992
452	9.182518	111296512	80359424	42391088	24992
453	12.298211	111296512	80359424	33577872	24992
454	10.848061	111296512	80359424	40675288	24992
455	14.699135	111296512	80359424	33111736	24992
456	12.367074	111296512	80359424	41232584	24992
457	15.428233	111296512	80359424	34633664	24992
458	14.179186	111296512	80359424	43772560	24992
459	16.924109	111296512	80359424	37762072	24992
460	15.666484	111296512	80359424	47930768	24992
461	17.89415	111296512	80359424	42272696	24992
462	1.637688	111296512	80359424	38659304	24992
463	2.379724	111296512	80359424	40221416	24992
464	3.162068	111296512	80359424	42300760	24992
465	3.931818	111296512	80359424	44902088	24992
466	4.955599	111296512	80359424	48026960	24992
467	7.182393	111296512	80359424	35407712	24992
468	6.468503	111296512	80359424	39581480	24992
469	7.045694	111296512	80359424	44281048	24992
470	10.067972	111296512	80359424	33909928	24992
471	8.767961	111296512	80359424	39665200	24992
472	9.729045	111296512	80359424	46059680	24992
473	12.426063	111296512	80359424	36891456	24992
474	11.152414	111296512	80359424	44236200	24992
475	14.223549	111296512	80359424	36482048	24992
476	12.782339	111296512	80359424	44891176	24992
477	15.81337	111296512	80359424	38131440	24992
478	14.531556	111296512	80359424	47610800	24992
479	16.588472	111296512	80359424	41393592	24992
480	19.221996	111296512	80359424	36897616	24992
481	16.800219	111296512	80359424	47987112	24992
482	1.668059	111296512	80359424	44052632	24992
483	2.424857	111296512	80359424	45669520	24992
484	3.288302	111296512	80359424	47826928	24992
485	5.852569	111296512	80359424	34413104	24992
486	5.139734	111296512	80359424	37654920	24992
487	5.666032	111296512	80359424	41462576	24992
488	6.809009	111296512	80359424	45792344	24992
489	9.380057	111296512	80359424	34841880	24992
490	8.376484	111296512	80359424	40264288	24992
491	9.073438	111296512	80359424	46244440	24992
492	12.033753	111296512	80359424	36911728	24992
493	10.905663	111296512	80359424	43979152	24992
494	13.935704	111296512	80359424	36082840	24992
495	12.727747	111296512	80359424	44265416	24992
496	15.518167	111296512	80359424	37432312	24992
497	14.416309	111296512	80359424	46706872	24992
498	17.362477	111296512	80359424	40575344	24992
499	19.294175	111296512	80359424	36104000	24992
500	17.587126	111296512	80359424	47072096	24992
501	19.520407	111296512	80359424	42561880	24992
502	1.745917	111296512	80359424	39995560	24992
503	2.575934	111296512	80359424	41670904	24992
504	3.413377	111296512	80359424	43906144	24992
505	4.708578	111296512	80359424	46704896	24992
506	7.043209	111296512	80359424	34247352	24992
507	6.152816	111296512	80359424	38169224	24992
508	7.035264	111296512	80359424	42658440	24992
509	7.722244	111296512	80359424	47720952	24992
510	10.618432	111296512	80359424	37293280	24992
511	9.589381	111296512	80359424	43477776	24992
512	12.800832	111296512	80359424	34946672	24992
513	11.337913	111296512	80359424	42277368	24992
514	14.687058	111296512	80359424	35085040	24992
515	13.123024	111296512	80359424	43549816	24992
516	15.826075	111296512	80359424	37278656	24992
517	14.794376	111296512	80359424	46906960	24992
518	17.849476	111296512	80359424	41172240	24992
519	19.312392	111296512	80359424	37073264	24992
520	17.265289	111296512	80359424	48423624	24992
521	21.021092	111296512	80359424	44209464	24992
522	1.789827	111296512	80359424	41932968	24992
523	2.669484	111296512	80359424	43666792	24992
524	3.537776	111296512	80359424	45980072	24992
525	4.281338	111296512	80359424	48875992	24992
526	7.407883	111296512	80359424	36256432	24992
527	6.290627	111296512	80359424	40330032	24992
528	7.07022	111296512	80359424	44982232	24992
529	8.329015	111296512	80359424	50221960	24992
530	10.567202	111296512	80359424	39624480	24992
531	9.977235	111296512	80359424	46036872	24992
532	12.960009	111296512	80359424	37387000	24992
533	11.563319	111296512	80359424	44973712	24992
534	14.980882	111296512	80359424	37729560	24992
535	13.507109	111296512	80359424	46506232	24992
536	16.935849	111296512	80359424	40119008	24992
537	14.843909	111296512	80359424	50060936	24992
538	18.166305	111296512	80359424	44284856	24992
539	19.563406	111296512	80359424	40095512	24992
540	21.351882	111296512	80359424	37232976	24992
541	18.705304	111296512	80359424	49566648	24992
542	1.807458	111296512	80359424	46898320	24992
543	2.754758	111296512	80359424	48690992	24992
544	5.809056	111296512	80359424	35147128	24992
545	4.799587	111296512	80359424	38141120	24992
546	5.555758	111296512	80359424	41740544	24992
547	6.225561	111296512	80359424	45938368	24992
548	7.444711	111296512	80359424	50736952	24992
549	10.25916	111296512	80359424	39728632	24992
550	9.165949	111296512	80359424	45736008	24992
551	12.722898	111296512	80359424	36848520	24992
552	11.128523	111296512	80359424	44075352	24992
553	14.64748	111296512	80359424	36720720	24992
554	13.244036	111296512	80359424	45164704	24992
555	16.549182	111296512	80359424	38825080	24992
556	15.031537	111296512	80359424	48510272	24992
557	18.108354	111296512	80359424	42810056	24992
558	19.736059	111296512	80359424	38754536	24992
559	17.57835	111296512	80359424	50313488	24992
560	20.495576	111296512	80359424	46161680	24992
561	22.193321	111296512	80359424	43371064	24992
562	1.929681	111296512	80359424	42338384	24992
563	2.86087	111296512	80359424	44209952	24992
564	3.980134	111296512	80359424	46706408	24992
565	4.753976	111296512	80359424	49829176	24992
566	7.936269	111296512	80359424	37547560	24992
567	6.587282	111296512	80359424	41941880	24992
568	8.163537	111296512	80359424	46960080	24992
569	10.980355	111296512	80359424	36957080	24992
570	9.571254	111296512	80359424	43230552	24992
571	10.485581	111296512	80359424	50146240	24992
572	13.52266	111296512	80359424	41498752	24992
573	11.997772	111296512	80359424	49697824	24992
574	15.516294	111296512	80359424	42416096	24992
575	17.139087	111296512	80359424	37042416	24992
576	15.308708	111296512	80359424	47128896	24992
577	19.079898	111296512	80359424	42210768	24992
578	20.102632	111296512	80359424	38811632	24992
579	18.162582	111296512	80359424	50835488	24992
580	21.244041	111296512	80359424	47170464	24992
581	22.682682	111296512	80359424	44856360	24992
582	1.978599	111296512	80359424	44268632	24992
583	2.939465	111296512	80359424	46198352	24992
584	3.938134	111296512	80359424	48772888	24992
585	8.289626	111296512	80359424	36188416	24992
586	6.133734	111296512	80359424	40071680	24992
587	7.024901	111296512	80359424	44588224	24992
588	7.793638	111296512	80359424	49756104	24992
589	11.195391	111296512	80359424	39571784	24992
590	9.999828	111296512	80359424	46059040	24992
591	13.599514	111296512	80359424	37870872	24992
592	11.848689	111296512	80359424	45659528	24992
593	15.514127	111296512	80359424	38793888	24992
594	14.061825	111296512	80359424	47906096	24992
595	16.820453	111296512	80359424	41985496	24992
596	19.03918	111296512	80359424	37731536	24992
597	16.888975	111296512	80359424	48799528	24992
598	20.516381	111296512	80359424	44668960	24992
599	21.693938	111296512	80359424	41951208	24992
600	22.909741	111296512	80359424	40348560	24992
601	24.415738	111296512	80359424	39767536	24992
602	2.064382	111296512	80359424	40639320	24992
603	2.889223	111296512	80359424	42627720	24992
604	4.230642	111296512	80359424	45283904	24992
605	5.47077	111296512	80359424	48611728	24992
606	9.66471	111296512	80359424	36958608	24992
607	7.08118	111296512	80359424	41610472	24992
608	8.54027	111296512	80359424	46932840	24992
609	12.03721	111296512	80359424	37519728	24992
610	10.457457	111296512	80359424	44205472	24992
611	11.261699	111296512	80359424	51568384	24992
612	14.260762	111296512	80359424	43376352	24992
613	13.479335	111296512	80359424	52053392	24992
614	15.947755	111296512	80359424	45118704	24992
615	18.624518	111296512	80359424	40083920	24992
616	16.489274	111296512	80359424	50804312	24992
617	19.78397	111296512	80359424	46101160	24992
618	21.545869	111296512	80359424	42928936	24992
619	22.799619	111296512	80359424	41013256	24992
620	23.626439	111296512	80359424	40123952	24992
621	25.078992	111296512	80359424	40091184	24992
622	2.117281	111296512	80359424	41532936	24992
623	3.12969	111296512	80359424	43580192	24992
624	4.190311	111296512	80359424	46311448	24992
625	5.241114	111296512	80359424	49744496	24992
626	8.688026	111296512	80359424	38123488	24992
627	7.451598	111296512	80359424	42921112	24992
628	8.360501	111296512	80359424	48398512	24992
629	11.806832	111296512	80359424	38982336	24992
630	10.22736	111296512	80359424	45849616	24992
631	14.455631	111296512	80359424	38310008	24992
632	12.447524	111296512	80359424	46556528	24992
633	16.29592	111296512	80359424	40287464	24992
634	14.447304	111296512	80359424	49919872	24992
635	18.32013	111296512	80359424	44428352	24992
636	19.822598	111296512	80359424	40594680	24992
637	18.061941	111296512	80359424	52331352	24992
638	21.323214	111296512	80359424	48531040	24992
639	23.102276	111296512	80359424	46085704	24992
640	24.596682	111296512	80359424	44786648	24992
641	25.635573	111296512	80359424	44477456	24992
642	2.181395	111296512	80359424	45711544	24992
643	3.234323	111296512	80359424	47818208	24992
644	4.470445	111296512	80359424	50626760	24992
645	7.952785	111296512	80359424	38430992	24992
646	6.830374	111296512	80359424	42651304	24992
647	7.674856	111296512	80359424	47590904	24992
648	9.207156	111296512	80359424	53223120	24992
649	11.825097	111296512	80359424	43248416	24992
650	10.806129	111296512	80359424	50298856	24992
651	14.423977	111296512	80359424	42258024	24992
652	13.18357	111296512	80359424	50729976	24992
653	16.530565	111296512	80359424	44132168	24992
654	17.816321	111296512	80359424	39335704	24992
655	16.2004	111296512	80359424	49946592	24992
656	20.164628	111296512	80359424	45606576	24992
657	21.329905	111296512	80359424	42746616	24992
658	23.271055	111296512	80359424	41075296	24992
659	24.772271	111296512	80359424	40495232	24992
660	25.692193	111296512	80359424	40722560	24992
661	27.21205	111296512	80359424	41607272	24992
662	2.131065	111296512	80359424	43809320	24992
663	3.220514	111296512	80359424	45973072	24992
664	4.473997	111296512	80359424	48859728	24992
665	5.449632	111296512	80359424	52470040	24992
666	9.039832	111296512	80359424	40849224	24992
667	7.940998	111296512	80359424	45915664	24992
668	8.853697	111296512	80359424	51721184	24992
669	12.499556	111296512	80359424	42330536	24992
670	11.23115	111296512	80359424	49576040	24992
671	14.910021	111296512	80359424	42015776	24992
672	13.632013	111296512	80359424	50745280	24992
673	17.254193	111296512	80359424	44410840	24992
674	18.810283	111296512	80359424	39949672	24992
675	16.951379	111296512	80359424	50865176	24992
676	21.417932	111296512	80359424	46725464	24992
677	22.726605	111296512	80359424	44084608	24992
678	24.190826	111296512	80359424	42690024	24992
679	24.933578	111296512	80359424	42294920	24992
680	26.195677	111296512	80359424	42662008	24992
681	27.212445	111296512	80359424	43784072	24992
682	2.241258	111296512	80359424	46163952	24992
683	3.423735	111296512	80359424	48386160	24992
684	4.834677	111296512	80359424	51352744	24992
685	8.230466	111296512	80359424	39395296	24992
686	7.041015	111296512	80359424	43852728	24992
687	8.108268	111296512	80359424	49051024	24992
688	9.091764	111296512	80359424	55006024	24992
689	13.241655	111296512	80359424	45254680	24992
690	12.852969	111296512	80359424	52695112	24992
691	16.258996	111296512	80359424	44852912	24992
692	15.036596	111296512	80359424	53799432	24992
693	24.247975	111296512	80359424	47331792	24992
694	25.591743	107925504	76689408	20802480	24992
695	18.8383	107925504	76689408	17021480	24992
696	18.314242	107925504	76689408	28995096	24992
697	20.209271	107925504	76689408	25244768	24992
698	22.141012	107925504	76689408	22906704	24992
699	23.634968	107925504	76689408	21815648	24992
700	24.930922	107925504	76689408	21682984	24992
701	25.832542	107925504	76689408	22304192	24992
702	2.366626	107925504	76689408	24428208	24992
703	3.467102	107925504	76689408	26709008	24992
704	5.416692	107925504	76689408	13945488	24992
705	6.058284	107925504	76689408	17750920	24992
706	6.981425	107925504	76689408	22323744	24992
707	8.130826	107925504	76689408	27662960	24992
708	10.039583	107925504	76689408	17634704	24992
709	10.598833	107925504	76689408	24516568	24992
710	12.527841	107925504	76689408	16624216	24992
711	12.834862	107925504	76689408	25029672	24992
712	14.803437	107925504	76689408	18546224	24992
713	15.402051	107925504	76689408	28507072	24992
714	16.721333	107925504	76689408	22936904	24992
715	19.023487	107925504	76689408	19187160	24992
716	20.261095	107925504	76689408	16903664	24992
717	22.138748	107925504	76689408	15817904	24992
718	23.32023	107925504	76689408	15658912	24992
719	24.670054	107925504	76689408	16268640	24992
720	25.906928	107925504	76689408	17629696	24992
721	27.285435	107925504	76689408	19523736	24992
722	2.423358	107925504	76689408	22637288	24992
723	3.541463	107925504	76689408	24976576	24992
724	4.731428	107925504	76689408	28097224	24992
725	6.659133	107925504	76689408	15919784	24992
726	7.056797	107925504	76689408	20606536	24992
727	8.583468	107925504	76689408	26107712	24992
728	10.367195	107925504	76689408	16610888	24992
729	10.841206	107925504	76689408	23653496	24992
730	13.246909	107925504	76689408	16200256	24992
731	13.521354	107925504	76689408	24875016	24992
732	15.513635	107925504	76689408	18744632	24992
733	15.572087	107925504	76689408	29024864	24992
734	17.49179	107925504	76689408	23699168	24992
735	19.47529	107925504	76689408	20147888	24992
736	21.055044	107925504	76689408	18076504	24992
737	22.391003	107925504	76689408	17097120	24992
738	24.113518	107925504	76689408	17164808	24992
739	24.899134	107925504	76689408	18054240	24992
740	26.221336	107925504	76689408	19482760	24992
741	27.085312	107925504	76689408	21490888	24992
742	2.367854	107925504	76689408	24813352	24992
743	3.538317	107925504	76689408	27211232	24992
744	5.401388	107925504	76689408	14639064	24992
745	6.091778	107925504	76689408	18639624	24992
746	7.38854	107925504	76689408	23464440	24992
747	8.791969	107925504	76689408	29072008	24992
748	10.389035	107925504	76689408	19243920	24992
749	11.029031	107925504	76689408	26461976	24992
750	13.420296	107925504	76689408	18732480	24992
751	14.121505	107925504	76689408	27574080	24992
752	15.757689	107925504	76689408	21212768	24992
753	17.54331	107925504	76689408	16861448	24992
754	17.096906	107925504	76689408	28123704	24992
755	18.979987	107925504	76689408	24169784	24992
756	21.545148	107925504	76689408	21751976	24992
757	22.937091	107925504	76689408	20582456	24992
758	24.494073	107925504	76689408	20384120	24992
759	25.30298	107925504	76689408	21108112	24992
760	26.853785	107925504	76689408	22532816	24992
761	28.461427	107925504	76689408	24476136	24992
762	2.558495	107925504	76689408	27773096	24992
763	3.812999	107925504	76689408	30229432	24992
764	5.320322	107925504	76689408	17210728	24992
765	6.43895	107925504	76689408	21327192	24992
766	7.885723	107925504	76689408	26261000	24992
767	9.546801	107925504	76689408	16363680	24992
768	10.337743	107925504	76689408	22934184	24992
769	11.540159	107925504	76689408	30328048	24992
770	12.854416	107925504	76689408	22149504	24992
771	15.454869	107925504	76689408	16326688	24992
772	15.312058	107925504	76689408	26216504	24992
773	18.072239	107925504	76689408	21284048	24992
774	19.396135	107925504	76689408	18123136	24992
775	19.538594	107925504	76689408	30534704	24992
776	20.553982	107925504	76689408	27268632	24992
777	23.20062	107925504	76689408	25440088	24992
778	23.991999	107925504	76689408	24795120	24992
779	26.002138	107925504	76689408	25089768	24992
780	27.340296	107925504	76689408	26226736	24992
781	28.57657	107925504	76689408	27960488	24992
782	3.011531	107925504	76689408	15070408	24992
783	3.890997	107925504	76689408	17585256	24992
784	5.521545	107925504	76689408	20963272	24992
785	6.446983	107925504	76689408	25186936	24992
786	7.897156	107925504	76689408	30224832	24992
787	9.62644	107925504	76689408	19797280	24992
788	10.43194	107925504	76689408	26521520	24992
789	12.853259	107925504	76689408	18467064	24992
790	12.943699	107925504	76689408	26906224	24992
791	14.700065	107925504	76689408	20474744	24992
792	15.680121	107925504	76689408	30589160	24992
793	17.433291	107925504	76689408	25200552	24992
794	19.732844	107925504	76689408	21612576	24992
795	21.16047	107925504	76689408	19502680	24992
796	22.739452	107925504	76689408	18688088	24992
797	23.950852	107925504	76689408	18862896	24992
798	25.494592	107925504	76689408	19908152	24992
799	26.794882	107925504	76689408	21540864	24992
800	27.867562	107925504	76689408	23757064	24992
801	29.229037	107925504	76689408	26438592	24992
802	2.667706	107925504	76689408	30428272	24992
803	4.627035	107925504	76689408	16808792	24992
804	5.441003	107925504	76689408	20245872	24992
805	7.061307	107925504	76689408	24539944	24992
806	7.912261	107925504	76689408	29698664	24992
807	9.773786	107925504	76689408	19565456	24992
808	10.70014	107925504	76689408	26460688	24992
809	13.155661	107925504	76689408	18649224	24992
810	13.500246	107925504	76689408	27291144	24992
811	15.788219	107925504	76689408	21063952	24992
812	17.22323	107925504	76689408	16828384	24992
813	16.966053	107925504	76689408	28074248	24992
814	19.997353	107925504	76689408	24315600	24992
815	21.595856	107925504	76689408	22094008	24992
816	22.747139	107925504	76689408	21177912	24992
817	24.838688	107925504	76689408	21278192	24992
818	25.795599	107925504	76689408	22314792	24992
819	27.630842	107925504	76689408	24054848	24992
820	28.170429	107925504	76689408	26320592	24992
821	30.661644	107925504	76689408	28981464	24992
822	3.187718	107925504	76689408	16775424	24992
823	4.070171	107925504	76689408	19407360	24992
824	5.394283	107925504	76689408	22919216	24992
825	6.944608	107925504	76689408	27309864	24992
826	9.037043	107925504	76689408	16890144	24992
827	9.616306	107925504	76689408	23043824	24992
828	10.799964	107925504	76689408	30080160	24992
829	13.005408	107925504	76689408	21835152	24992
830	13.716726	107925504	76689408	30640920	24992
831	15.203188	107925504	76689408	24065288	24992
832	17.884716	107925504	76689408	19591464	24992
833	17.551659	107925504	76689408	31065816	24992
834	19.704927	107925504	76689408	27097928	24992
835	22.065639	107925504	76689408	24753176	24992
836	23.34337	107925504	76689408	23677464	24992
837	25.321836	107925504	76689408	23700824	24992
838	26.622444	107925504	76689408	24625024	24992
839	27.368381	107925504	76689408	26291200	24992
840	29.305256	107925504	76689408	28611192	24992
841	30.680021	107925504	76689408	31465248	24992
842	2.80037	107925504	76689408	22262472	24992
843	4.19723	107925504	76689408	25018048	24992
844	5.57557	107925504	76689408	28676064	24992
845	7.93722	107925504	76689408	17503120	24992
846	8.178284	107925504	76689408	23030296	24992
847	9.96633	107925504	76689408	29435360	24992
848	12.26569	107925504	76689408	20760280	24992
849	12.671831	107925504	76689408	29019024	24992
850	14.620782	107925504	76689408	22372352	24992
851	16.6131	107925504	76689408	17850656	24992
852	16.901792	107925504	76689408	28914224	24992
853	19.640951	107925504	76689408	25085960	24992
854	20.823487	107925504	76689408	22844648	24992
855	22.75144	107925504	76689408	21915208	24992
856	24.770429	107925504	76689408	22082040	24992
857	25.163874	107925504	76689408	23211832	24992
858	27.71663	107925504	76689408	25070056	24992
859	29.39392	107925504	76689408	27568000	24992
860	29.681366	107925504	76689408	30497784	24992
861	33.165542	107925504	76689408	20676240	24992
862	2.869478	107925504	76689408	30842080	24992
863	4.303057	107925504	76689408	33675400	24992
864	6.532472	107925504	76689408	21682200	24992
865	6.951237	107925504	76689408	26431672	24992
866	8.211793	107925504	76689408	32108328	24992
867	11.03566	107925504	76689408	22947168	24992
868	11.347401	107925504	76689408	30522104	24992
869	13.918626	107925504	76689408	23593784	24992
870	14.566483	107925504	76689408	33058632	24992
871	16.807114	107925504	76689408	27533280	24992
872	18.929812	107925504	76689408	23943360	24992
873	20.499329	107925504	76689408	21996784	24992
874	19.9689	107925504	76689408	35314848	24992
875	22.048461	107925504	76689408	33295952	24992
876	23.96732	107925504	76689408	32594376	24992
877	25.340263	107925504	76689408	32988064	24992
878	26.9816	107925504	76689408	34257960	24992
879	27.735632	107925504	76689408	36224912	24992
880	31.610187	107925504	76689408	25354680	24992
881	32.735106	107925504	76689408	30910808	24992
882	3.554632	107925504	76689408	21364896	24992
883	4.382319	107925504	76689408	24252616	24992
884	6.002349	107925504	76689408	28127736	24992
885	7.471088	107925504	76689408	32960296	24992
886	9.66622	107925504	76689408	22988096	24992
887	10.483893	107925504	76689408	29755744	24992
888	12.974363	107925504	76689408	22229328	24992
889	12.871785	107925504	76689408	30918600	24992
890	16.020419	107925504	76689408	25173736	24992
891	16.471344	107925504	76689408	35835784	24992
892	17.64489	107925504	76689408	31199376	24992
893	20.739261	107925504	76689408	28377976	24992
894	22.613161	107925504	76689408	27031440	24992
895	23.578284	107925504	76689408	26827784	24992
896	25.250613	107925504	76689408	27665440	24992
897	26.834395	107925504	76689408	29412856	24992
898	27.966244	107925504	76689408	31790304	24992
899	29.890351	107925504	76689408	34695672	24992
900	32.74953	107925504	76689408	24824128	24992
901	36.189845	108466176	77213696	33976152	24992
902	3.727268	108736512	77737984	25155104	24992
903	4.482696	108736512	77737984	28101200	24992
904	5.952334	108736512	77737984	32079136	24992
905	7.190406	108736512	77737984	37041104	24992
906	10.224712	108736512	77737984	27174368	24992
907	10.648825	108736512	77737984	34099776	24992
908	13.229145	108736512	77737984	26746168	24992
909	13.519955	108736512	77737984	35626792	24992
910	16.56127	108736512	77737984	29925104	24992
911	18.185238	108736512	77737984	26232144	24992
912	17.829685	108736512	77737984	38099784	24992
913	20.774849	108736512	77737984	35035192	24992
914	22.814552	108736512	77737984	33475872	24992
915	24.319686	108736512	77737984	33171472	24992
916	25.995345	108736512	77737984	33928056	24992
917	27.767042	108736512	77737984	35533016	24992
918	28.711205	108736512	77737984	37825584	24992
919	30.13683	108736512	77737984	40772000	24992
920	33.06271	109006848	77737984	30629496	24992
921	33.86522	109006848	77737984	36853072	24992
922	3.045156	109006848	77737984	31089712	24992
923	4.558115	109006848	77737984	34094272	24992
924	5.928684	109006848	77737984	38102040	24992
925	10.692491	109006848	77737984	30273728	24992
926	9.196317	109006848	77737984	36329536	24992
927	10.647712	109006848	77737984	43352888	24992
928	12.668367	109006848	77737984	35287216	24992
929	13.628246	109006848	77737984	44368360	24992
930	15.661894	109006848	77737984	38003808	24992
931	18.545392	109006848	77737984	33845584	24992
932	20.533806	109006848	77737984	31401176	24992
933	20.316877	109006848	77737984	44531176	24992
934	21.790445	109006848	77737984	42201512	24992
935	24.484634	109006848	77737984	41374088	24992
936	25.940816	109006848	77737984	41692936	24992
937	28.24858	109006848	77737984	42924992	24992
938	31.318542	109006848	77737984	31718008	24992
939	34.077524	109006848	77737984	39645120	24992
940	33.079672	109006848	77737984	44916696	24992
941	37.379896	109006848	77737984	37306088	24992
942	3.044527	109006848	77737984	49309176	24992
943	5.84192	109006848	77737984	36826824	24992
944	6.146606	109006848	77737984	40928000	24992
945	7.813059	109006848	77737984	46054896	24992
946	10.773268	109006848	77737984	36872960	24992
947	11.316613	109006848	77737984	44046720	24992
948	14.536003	109006848	77737984	37254552	24992
949	14.120966	109006848	77737984	46627176	24992
950	17.217293	109006848	77737984	41362096	24992
951	18.959662	109006848	77737984	38258280	24992
952	18.703459	109006848	77737984	50823256	24992
953	21.246012	109006848	77737984	47884256	24992
954	23.682527	109006848	77737984	46524536	24992
955	25.688339	109006848	77737984	46550872	24992
956	26.581855	109006848	77737984	47597528	24992
957	29.087593	109006848	77737984	49484320	24992
958	29.353118	109006848	77737984	52098528	24992
959	33.961766	109006848	77737984	41643512	24992
960	34.335526	109006848	77737984	47693616	24992
961	37.872657	109006848	77737984	40884872	24992
962	3.360798	109006848	77737984	53523416	24992
963	7.199557	109006848	77737984	41021344	24992
964	7.028069	109006848	77737984	45185176	24992
965	8.837016	109006848	77737984	50433760	24992
966	12.709147	109006848	77737984	41333448	24992
967	14.389417	109006848	77737984	48660200	24992
968	24.574486	109006848	77737984	41950720	24992
969	19.236057	107962368	77737984	23196440	24992
970	16.941805	109043712	77737984	18563128	24992
971	17.415569	109043712	77737984	30050768	24992
972	19.14882	109043712	77737984	26296912	24992
973	21.863741	109043712	77737984	24168624	24992
974	24.119921	109043712	77737984	23481000	24992
975	25.380894	109043712	77737984	24084824	24992
976	27.318457	109043712	77737984	25530200	24992
977	28.954914	109043712	77737984	27787424	24992
978	32.084415	109043712	77737984	17608064	24992
979	35.06427	109043712	77737984	26191536	24992
980	34.098573	109043712	77737984	32139400	24992
981	37.302582	109043712	77737984	24850352	24992
982	4.489636	109043712	77737984	22602184	24992
983	4.644415	109043712	77737984	25782432	24992
984	6.428417	109043712	77737984	30024336	24992
985	8.096172	109043712	77737984	35356904	24992
986	10.393912	109043712	77737984	25826448	24992
987	11.579468	109043712	77737984	33259376	24992
988	14.150007	109043712	77737984	26236976	24992
989	14.380532	109043712	77737984	35802848	24992
990	16.973584	109043712	77737984	30421368	24992
991	19.347312	109043712	77737984	27051960	24992
992	20.969677	109043712	77737984	25451728	24992
993	22.845967	109043712	77737984	25129712	24992
994	24.444935	109043712	77737984	25973912	24992
995	25.93063	109043712	77737984	27848576	24992
996	27.731963	109043712	77737984	30335656	24992
997	29.37124	109043712	77737984	33500968	24992
998	30.986175	109043712	77737984	37170952	24992
999	34.413667	109043712	77737984	27939600	24992
1000	34.141727	109043712	77737984	34726608	24992
