x	Duration	RSS	HeapTotal	HeapUsed	External
0	NA	110133248	86126592	35485088	24992
1	0.403934	110133248	86126592	35532808	24992
2	0.43198	110133248	86126592	35609112	24992
3	0.507992	110133248	86126592	35712400	24992
4	0.676639	110133248	86126592	35844184	24992
5	0.733809	110133248	86126592	36005960	24992
6	0.855241	110133248	86126592	36198224	24992
7	1.002159	110133248	86126592	36421864	24992
8	1.136685	110133248	86126592	36677920	24992
9	1.257699	110133248	86126592	36968304	24992
10	1.392147	110133248	86126592	37293688	24992
11	1.573511	110133248	86126592	37654920	24992
12	1.717357	110133248	86126592	38053080	24992
13	1.962251	110133248	86126592	38489048	24992
14	0.734594	110133248	86126592	38963840	24992
15	1.426714	110133248	86126592	23212448	24992
16	0.92948	110133248	86126592	23767840	24992
17	0.975471	110133248	86126592	24366872	24992
18	0.961996	110133248	86126592	25008616	24992
19	1.031234	110133248	86126592	25695160	24992
20	1.121073	110133248	86126592	26426376	24992
21	1.191614	110133248	86126592	27203664	24992
22	0.16962	110133248	86126592	27998976	24992
23	0.253523	110133248	86126592	28141200	24992
24	0.322986	110133248	86126592	28333424	24992
25	0.395661	110133248	86126592	28576672	24992
26	0.698462	110133248	86126592	28872408	24992
27	0.557241	110133248	86126592	29221112	24992
28	0.649999	110133248	86126592	29623728	24992
29	0.708936	110133248	86126592	30081248	24992
30	0.791773	110133248	86126592	30595656	24992
31	0.892473	110133248	86126592	31166912	24992
32	0.959699	110133248	86126592	31795992	24992
33	1.046375	110133248	86126592	32483856	24992
34	1.144237	110133248	86126592	33231600	24992
35	1.249465	110133248	86126592	34040112	24992
36	1.327637	110133248	86126592	34910256	24992
37	1.427522	110133248	86126592	35843096	24992
38	1.522511	110133248	86126592	36841488	24992
39	1.599518	110133248	86126592	37904616	24992
40	1.754479	110133248	86126592	39033728	24992
41	3.870664	110403584	86126592	24475192	24992
42	0.234596	110403584	86126592	25738408	24992
43	0.345994	110403584	86126592	25942856	24992
44	0.446532	110403584	86126592	26216352	24992
45	0.730552	110403584	86126592	26561696	24992
46	0.684473	110403584	86126592	26979120	24992
47	0.775318	110403584	86126592	27469632	24992
48	0.873726	110403584	86126592	28034208	24992
49	0.98665	110403584	86126592	28674408	24992
50	1.111095	110403584	86126592	29393264	24992
51	1.224319	110403584	86126592	30191232	24992
52	1.331628	110403584	86126592	31069416	24992
53	1.462204	110403584	86126592	32028552	24992
54	1.57884	110403584	86126592	33069808	24992
55	1.890641	110403584	86126592	34194136	24992
56	1.830235	110403584	86126592	35402408	24992
57	1.9528	110403584	86126592	36695664	24992
58	2.07396	110403584	86126592	38076792	24992
59	2.209005	110403584	86126592	39544936	24992
60	4.269488	110673920	86126592	25416712	24992
61	2.477379	110673920	86126592	27061960	24992
62	0.294747	110673920	86126592	28820888	24992
63	0.434676	110673920	86126592	29091784	24992
64	0.571736	110673920	86126592	29454408	24992
65	0.712839	110673920	86126592	29909856	24992
66	0.839326	110673920	86126592	30459592	24992
67	0.985635	110673920	86126592	31104136	24992
68	1.129538	110673920	86126592	31844320	24992
69	1.453888	110673920	86126592	32681264	24992
70	1.410578	110673920	86126592	33616752	24992
71	1.562616	110673920	86126592	34650952	24992
72	1.708099	110673920	86126592	35784712	24992
73	1.85233	110673920	86126592	37019128	24992
74	2.018889	110673920	86126592	38355160	24992
75	2.339995	110673920	86126592	39793656	24992
76	4.004744	110944256	86126592	25462384	24992
77	2.474741	110944256	86126592	27108888	24992
78	2.632285	110944256	86126592	28862808	24992
79	3.037167	110944256	86126592	30723176	24992
80	3.053078	110944256	86126592	32691496	24992
81	3.212042	110944256	86126592	34769104	24992
82	0.391722	110944256	86126592	37003616	24992
83	0.528839	110944256	86126592	37332872	24992
84	0.98964	110944256	86126592	37775776	24992
85	0.881856	110944256	86126592	38330968	24992
86	1.022757	110944256	86126592	39001032	24992
87	1.191688	110944256	86126592	39786616	24992
88	1.418419	110944256	86126592	40690552	24992
89	3.216111	111214592	86126592	25689056	24992
90	1.853303	111214592	86126592	26827528	24992
91	2.210623	111214592	86126592	28085200	24992
92	2.078842	111214592	86126592	29463320	24992
93	2.275929	111214592	86126592	30962472	24992
94	2.431775	111214592	86126592	32583880	24992
95	2.632991	111214592	86126592	34328488	24992
96	3.004297	111214592	86126592	36197344	24992
97	2.998921	111214592	86126592	38191288	24992
98	3.185705	111214592	86126592	40313032	24992
99	4.989429	111484928	86126592	26590136	24992
100	3.596296	111484928	86126592	28967472	24992
101	3.751258	111484928	86126592	31473824	24992
102	0.598286	111484928	86126592	34193336	24992
103	0.64179	111484928	86126592	34597016	24992
104	0.820038	111484928	86126592	35136752	24992
105	1.020462	111484928	86126592	35813624	24992
106	1.234786	111484928	86126592	36630608	24992
107	1.42324	111484928	86126592	37585056	24992
108	1.624468	111484928	86126592	38679544	24992
109	1.834543	111484928	86126592	39915064	24992
110	2.058039	111484928	86126592	41297136	24992
111	3.982223	111755264	86126592	26708528	24992
112	2.475046	111755264	86126592	28373984	24992
113	2.671016	111755264	86126592	30185816	24992
114	2.881037	111755264	86126592	32141968	24992
115	3.296906	111755264	86126592	34245016	24992
116	3.321825	111755264	86126592	36495896	24992
117	3.560528	111755264	86126592	38895544	24992
118	3.971385	111755264	86126592	41447568	24992
119	5.534753	112025600	86126592	28007392	24992
120	4.22112	112025600	86126592	30861752	24992
121	4.638286	112025600	86126592	33868600	24992
122	0.478044	112025600	86126592	37129136	24992
123	0.715374	112025600	86126592	37591272	24992
124	0.942082	112025600	86126592	38209040	24992
125	1.36797	112025600	86126592	38983392	24992
126	1.408137	112025600	86126592	39915824	24992
127	1.637457	112025600	86126592	41006824	24992
128	3.439591	112025600	86126592	26219504	24992
129	2.13138	112025600	86126592	27630464	24992
130	2.351928	112025600	86126592	29204136	24992
131	2.786394	112025600	86126592	30944624	24992
132	2.853404	112025600	86126592	32845200	24992
133	3.099118	112025600	86126592	34908960	24992
134	3.328986	112025600	86126592	37140112	24992
135	3.575348	112025600	86126592	39535944	24992
136	3.826755	112025600	86126592	42099688	24992
137	5.786814	112295936	86126592	28635376	24992
138	4.327595	112295936	86126592	31543888	24992
139	4.613111	112295936	86126592	34616312	24992
140	5.030497	112295936	86126592	37861064	24992
141	5.182137	112295936	86126592	41277376	24992
142	0.567822	112295936	86126592	28939472	24992
143	0.817875	112295936	86126592	29465728	24992
144	1.067137	112295936	86126592	30168832	24992
145	1.334013	112295936	86126592	31049880	24992
146	1.648728	112295936	86126592	32110328	24992
147	1.856537	112295936	86126592	33350768	24992
148	2.155794	112295936	86126592	34772680	24992
149	2.394173	112295936	86126592	36375736	24992
150	2.681607	112295936	86126592	38162448	24992
151	2.990374	112295936	86126592	40133648	24992
152	3.420457	112295936	86126592	42289064	24992
153	5.03173	112566272	86126592	28456488	24992
154	3.782382	112566272	86126592	30985080	24992
155	4.237218	112566272	86126592	33700520	24992
156	4.555964	112566272	86126592	36604528	24992
157	4.614677	112566272	86126592	39702496	24992
158	6.795681	112566272	86126592	27234184	24992
159	5.24576	112566272	86126592	30713800	24992
160	5.723712	112566272	86126592	34385888	24992
161	5.809366	112566272	86126592	38250048	24992
162	0.660131	112566272	86126592	42452472	24992
163	2.503018	112836608	86126592	26878352	24992
164	1.210502	112836608	86126592	27660160	24992
165	1.48767	112836608	86126592	28638664	24992
166	1.841676	112836608	86126592	29816144	24992
167	2.079595	112836608	86126592	31192984	24992
168	2.419981	112836608	86126592	32770288	24992
169	2.741208	112836608	86126592	34549640	24992
170	3.186976	112836608	86126592	36531520	24992
171	3.511018	112836608	86126592	38718640	24992
172	3.635693	112836608	86126592	41108096	24992
173	5.851604	112836608	86126592	27785712	24992
174	4.212772	112836608	86126592	30591768	24992
175	4.496022	112836608	86126592	33603392	24992
176	5.070747	112836608	86126592	36819512	24992
177	5.156822	112836608	86126592	40245728	24992
178	7.539738	113106944	86126592	28128944	24992
179	5.796913	113106944	86126592	31977160	24992
180	6.276624	113106944	86126592	36037880	24992
181	6.412935	113106944	86126592	40317216	24992
182	0.682743	113106944	86126592	29213520	24992
183	1.205592	113106944	86126592	29856648	24992
184	1.317923	113106944	86126592	30715752	24992
185	1.640529	113106944	86126592	31791832	24992
186	2.16025	113106944	86126592	33086384	24992
187	2.319286	113106944	86126592	34599800	24992
188	2.662172	113106944	86126592	36333872	24992
189	2.964673	113106944	86126592	38287960	24992
190	3.486975	113106944	86126592	40464856	24992
191	3.764277	113106944	86126592	42864568	24992
192	5.768323	113377280	86126592	29340672	24992
193	4.491676	113377280	86126592	32188880	24992
194	4.688439	113377280	86126592	35262608	24992
195	4.983362	113377280	86126592	38563888	24992
196	5.308315	113377280	86126592	42092200	24992
197	7.649864	113377280	86126592	29842200	24992
198	6.058407	113377280	86126592	33832224	24992
199	6.572268	113377280	86126592	38050864	24992
200	6.738551	113377280	86126592	42501600	24992
201	9.352048	113377280	86126592	31099984	24992
202	0.739302	113377280	86126592	36220448	24992
203	1.093017	113377280	86126592	36922184	24992
204	1.436431	113377280	86126592	37859328	24992
205	1.784608	113377280	86126592	39033024	24992
206	2.156768	113377280	86126592	40444512	24992
207	2.70381	113377280	86126592	42102632	24992
208	2.862657	113377280	86126592	44008328	24992
209	5.064494	113647616	86126592	29894256	24992
210	3.993797	113647616	86126592	32299032	24992
211	3.955607	113647616	86126592	34954424	24992
212	4.329266	113647616	86126592	37861256	24992
213	5.08848	113647616	86126592	41020752	24992
214	7.048919	113647616	86126592	28700496	24992
215	5.632542	113647616	86126592	32367736	24992
216	5.880612	113647616	86126592	36290960	24992
217	6.391271	113647616	86126592	40475040	24992
218	9.018981	113917952	86126592	29233520	24992
219	6.951049	113917952	86126592	33940368	24992
220	7.338758	113917952	86126592	38898816	24992
221	7.696023	113917952	86126592	44118968	24992
222	0.801856	113917952	86126592	33554272	24992
223	1.179068	113917952	86126592	34339168	24992
224	1.555954	113917952	86126592	35387352	24992
225	2.136904	113917952	86126592	36699616	24992
226	2.33591	113917952	86126592	38277672	24992
227	2.716953	113917952	86126592	40121880	24992
228	3.122815	113917952	86126592	42233096	24992
229	3.693955	113917952	86126592	44623040	24992
230	5.613792	113917952	86126592	30996200	24992
231	4.329848	113917952	86126592	33929856	24992
232	4.681796	113917952	86126592	37131768	24992
233	5.115994	113917952	86126592	40610192	24992
234	5.704547	113917952	86126592	44362792	24992
235	7.644349	114188288	86126592	32123616	24992
236	6.496438	114188288	86126592	36433152	24992
237	6.759151	114188288	86126592	41026344	24992
238	9.267792	114188288	86126592	30214016	24992
239	7.613024	114188288	86126592	35362432	24992
240	7.964654	114188288	86126592	40792888	24992
241	10.726267	114188288	86126592	30850488	24992
242	0.867254	114188288	86126592	37102592	24992
243	1.269747	114188288	86126592	37959944	24992
244	1.965991	114188288	86126592	39097576	24992
245	2.131524	114188288	86126592	40521704	24992
246	2.904808	114188288	86126592	42235736	24992
247	3.00228	114188288	86126592	44236584	24992
248	5.549804	114458624	86126592	30380408	24992
249	4.024693	114458624	86126592	32968808	24992
250	4.649211	114458624	86126592	35845352	24992
251	4.706304	114458624	86126592	39011152	24992
252	5.166994	114458624	86126592	42471848	24992
253	7.767856	114458624	86126592	30399552	24992
254	7.364591	114458624	86126592	34455464	24992
255	6.609496	114458624	86126592	38817040	24992
256	7.034936	114458624	86126592	43462136	24992
257	9.900164	114728960	86126592	32383600	24992
258	7.745072	114728960	86126592	37627112	24992
259	8.420888	114728960	86126592	43169776	24992
260	11.234227	114728960	86126592	33038976	24992
261	9.287201	114728960	86126592	39190360	24992
262	2.758801	114728960	86126592	29668640	24992
263	1.379043	114728960	86126592	30580280	24992
264	1.807514	114728960	86126592	31796000	24992
265	2.246077	114728960	86126592	33317752	24992
266	2.700648	114728960	86126592	35147192	24992
267	3.345401	114728960	86126592	37289040	24992
268	3.619394	114728960	86126592	39735360	24992
269	4.072678	114728960	86126592	42491640	24992
270	4.713294	114728960	86126592	45569920	24992
271	6.84717	114999296	86126592	32652632	24992
272	5.495331	114999296	86126592	36345592	24992
273	5.90403	114999296	86126592	40353552	24992
274	6.566462	114999296	86126592	44675400	24992
275	9.026256	114999296	86126592	33186296	24992
276	7.304986	114999296	86126592	38143792	24992
277	7.944507	114999296	86126592	43415992	24992
278	10.407582	114999296	86126592	33053008	24992
279	8.719807	114999296	86126592	38980336	24992
280	9.458678	114999296	86126592	45215872	24992
281	11.767504	115269632	86126592	35521048	24992
282	0.983603	115269632	86126592	42706648	24992
283	1.457384	115269632	86126592	43675784	24992
284	1.915716	115269632	86126592	44972272	24992
285	4.415667	115269632	86126592	30476328	24992
286	2.907504	115269632	86126592	32422672	24992
287	3.372902	115269632	86126592	34696600	24992
288	4.033866	115269632	86126592	37298960	24992
289	4.321979	115269632	86126592	40240536	24992
290	4.830733	115269632	86126592	43503888	24992
291	7.687856	115269632	86126592	31262600	24992
292	5.847617	115269632	86126592	35206512	24992
293	6.28858	115269632	86126592	39467480	24992
294	7.756134	115269632	86126592	44071608	24992
295	9.666312	115539968	86126592	33016320	24992
296	7.813683	115539968	86126592	38282848	24992
297	8.54479	115539968	86126592	43894360	24992
298	11.287658	115539968	86126592	33912808	24992
299	9.514929	115539968	86126592	40198344	24992
300	12.549291	115539968	86126592	31563512	24992
301	10.52063	115539968	86126592	38529368	24992
302	1.085021	115539968	86126592	46161136	24992
303	3.540294	115539968	86126592	30976560	24992
304	2.051696	115539968	86126592	32348232	24992
305	2.556395	115539968	86126592	34066672	24992
306	3.259783	115539968	86126592	36130096	24992
307	3.639741	115539968	86126592	38540408	24992
308	4.184285	115539968	86126592	41299600	24992
309	4.964741	115539968	86126592	44407416	24992
310	7.450977	115810304	86126592	31944128	24992
311	5.976985	115810304	86126592	35755384	24992
312	6.230824	115810304	86126592	39916496	24992
313	6.872368	115810304	86126592	44430568	24992
314	9.814619	115810304	86126592	33350816	24992
315	7.888572	115810304	86126592	38573680	24992
316	8.556802	115810304	86126592	44154016	24992
317	11.631044	115810304	86126592	34219536	24992
318	9.722065	115810304	86126592	40517608	24992
319	12.009657	116080640	86126592	30786768	24992
320	10.624171	116080640	86126592	37800328	24992
321	10.958261	116080640	86126592	45181264	24992
322	1.116609	116080640	86126592	37221200	24992
323	1.633151	116080640	86126592	38307288	24992
324	2.172243	116080640	86126592	39757704	24992
325	2.707213	116080640	86126592	41572040	24992
326	3.546129	116080640	86126592	43752456	24992
327	3.78996	116080640	86126592	46304256	24992
328	6.508446	116080640	86126592	33092968	24992
329	4.937682	116080640	86126592	36375792	24992
330	5.602716	116080640	86126592	40029040	24992
331	6.032367	116080640	86126592	44059416	24992
332	9.279603	116080640	86126592	32673976	24992
333	7.278726	116080640	86126592	37451176	24992
334	8.213787	116080640	86126592	42603376	24992
335	11.017515	116350976	86126592	32600144	24992
336	8.79748	116350976	86126592	38490768	24992
337	9.390509	116350976	86126592	44764576	24992
338	12.802306	116350976	86126592	35530296	24992
339	10.629228	116350976	86126592	42554496	24992
340	13.859262	116350976	86126592	34440392	24992
341	11.786956	116350976	86126592	42227336	24992
342	1.183297	116350976	86126592	35330096	24992
343	1.734991	116350976	86126592	36474720	24992
344	2.393334	116350976	86126592	38002384	24992
345	3.062349	116350976	86126592	39914128	24992
346	3.486525	116350976	86126592	42211464	24992
347	4.305974	116350976	86126592	44904736	24992
348	7.027764	116621312	86126592	32159440	24992
349	5.372197	116621312	86126592	35618800	24992
350	5.920414	116621312	86126592	39469600	24992
351	6.374599	116621312	86126592	43707856	24992
352	9.55362	116621312	86126592	32694096	24992
353	7.694635	116621312	86126592	37716688	24992
354	8.135715	116621312	86126592	43130584	24992
355	11.433231	116621312	86126592	33399392	24992
356	9.482654	116621312	86126592	39601872	24992
357	9.881101	116621312	86126592	46205432	24992
358	13.867455	116621312	86126592	37156816	24992
359	11.240951	116621312	86126592	44566840	24992
360	14.488771	116621312	86126592	36605712	24992
361	12.494986	116621312	86126592	44810008	24992
362	1.285097	116621312	86126592	38013824	24992
363	1.843172	116621312	86126592	39242600	24992
364	2.417732	116621312	86126592	40866064	24992
365	3.021421	116621312	86126592	42897568	24992
366	3.806704	116621312	86126592	45338552	24992
367	4.243884	116621312	86126592	48189776	24992
368	7.16933	116621312	86126592	35177368	24992
369	5.441237	116621312	86126592	38851456	24992
370	6.093316	116621312	86126592	42939384	24992
371	6.711146	116621312	86126592	47445512	24992
372	9.696431	116621312	86126592	36183024	24992
373	8.096842	116621312	86126592	41515568	24992
374	8.516831	116621312	86126592	47266064	24992
375	11.600018	116621312	86126592	37251984	24992
376	9.98541	116621312	86126592	43841520	24992
377	13.232559	116621312	86126592	35289696	24992
378	11.311329	116621312	86126592	42731128	24992
379	14.799561	116621312	86126592	35244480	24992
380	12.542616	116621312	86126592	43525720	24992
381	15.86678	116621312	86126592	36728112	24992
382	1.296525	116621312	86126592	46273248	24992
383	1.897916	116621312	86126592	47554704	24992
384	4.846176	116621312	86126592	33174512	24992
385	3.178764	116621312	86126592	35303472	24992
386	3.812267	116621312	86126592	37861496	24992
387	4.62138	116621312	86126592	40849096	24992
388	5.079702	116621312	86126592	44266960	24992
389	5.803125	116621312	86126592	48116400	24992
390	8.847849	116621312	86126592	36215208	24992
391	7.402728	116621312	86126592	40931696	24992
392	7.827355	116621312	86126592	46082376	24992
393	11.343284	116621312	86126592	35795088	24992
394	9.447766	116621312	86126592	41817208	24992
395	10.213931	116621312	86126592	48286200	24992
396	12.76229	116621312	86126592	38937920	24992
397	11.136697	116621312	86126592	46274960	24992
398	14.595433	116621312	86126592	38170368	24992
399	12.634532	116621312	86126592	46402920	24992
400	15.689752	116621312	86126592	39174456	24992
401	13.537513	116621312	86126592	48288496	24992
402	1.359912	116621312	86126592	42070816	24992
403	2.183015	116621312	86126592	43404280	24992
404	2.659477	116621312	86126592	45185640	24992
405	3.313344	116621312	86126592	47412144	24992
406	6.670442	116621312	86126592	34116176	24992
407	4.70883	116621312	86126592	37240264	24992
408	5.552726	116621312	86126592	40814328	24992
409	5.984592	116621312	86126592	44839216	24992
410	7.758812	116621312	86126592	49325448	24992
411	9.907175	116621312	86126592	37928992	24992
412	8.028883	116621312	86126592	43325376	24992
413	8.731917	116621312	86126592	49164784	24992
414	11.664583	116621312	86126592	39151160	24992
415	10.247833	116621312	86126592	45917232	24992
416	13.641934	116621312	86126592	37413920	24992
417	11.65887	116621312	86126592	45114368	24992
418	15.14597	116621312	86126592	37701528	24992
419	13.047002	116621312	86126592	46349336	24992
420	16.522553	116621312	86126592	39677896	24992
421	14.411469	116621312	86126592	49280760	24992
422	1.408637	116621312	86126592	43544960	24992
423	2.28214	116621312	86126592	44986384	24992
424	2.776395	116621312	86126592	46909680	24992
425	3.453642	116621312	86126592	49317752	24992
426	6.583662	116621312	86126592	36028024	24992
427	4.919468	116621312	86126592	39403800	24992
428	5.760454	116621312	86126592	43271424	24992
429	6.270794	116621312	86126592	47635880	24992
430	9.736175	116621312	86126592	36471696	24992
431	7.888035	116621312	86126592	41809968	24992
432	8.426979	116621312	86126592	47627792	24992
433	11.910967	116621312	86126592	37954080	24992
434	10.053873	116621312	86126592	44767392	24992
435	13.598304	116621312	86126592	36602744	24992
436	11.436719	116621312	86126592	44390888	24992
437	15.093518	116621312	86126592	37274648	24992
438	12.865703	116621312	86126592	46085112	24992
439	16.332447	116621312	86126592	39683824	24992
440	14.372004	116621312	86126592	49468240	24992
441	17.887405	116621312	86126592	43527344	24992
442	1.479487	116621312	86126592	39626064	24992
443	2.241468	116621312	86126592	41125864	24992
444	3.220127	116621312	86126592	43127120	24992
445	3.785876	116621312	86126592	45631024	24992
446	4.421492	116621312	86126592	48638920	24992
447	7.962575	116621312	86126592	36122376	24992
448	5.866427	116621312	86126592	40151056	24992
449	6.650061	116621312	86126592	44675160	24992
450	7.511331	116621312	86126592	49707568	24992
451	10.782334	116621312	86126592	39007664	24992
452	8.77269	116621312	86126592	45064648	24992
453	12.795116	116621312	86126592	36250728	24992
454	10.24644	116621312	86126592	43348144	24992
455	14.407654	116621312	86126592	35783816	24992
456	11.970598	116621312	86126592	43905088	24992
457	15.753227	116621312	86126592	37305448	24992
458	13.428782	116621312	86126592	46444712	24992
459	17.202227	116621312	86126592	40433872	24992
460	14.937304	116621312	86126592	50602568	24992
461	18.178058	116621312	86126592	44944144	24992
462	1.539193	116621312	86126592	41330400	24992
463	2.483349	116621312	86126592	42892512	24992
464	3.257821	116621312	86126592	44971856	24992
465	3.775892	116621312	86126592	47573184	24992
466	4.534857	116621312	86126592	50698056	24992
467	7.976476	116621312	86126592	38077912	24992
468	6.052944	116621312	86126592	42251680	24992
469	6.99074	116621312	86126592	46951344	24992
470	10.520661	116621312	86126592	36580512	24992
471	8.55776	116621312	86126592	42335664	24992
472	9.126479	116621312	86126592	48729896	24992
473	12.92983	116621312	86126592	39560760	24992
474	10.700164	116621312	86126592	46905520	24992
475	14.801477	116621312	86126592	39150744	24992
476	12.233917	116621312	86126592	47559968	24992
477	16.307725	116621312	86126592	40799784	24992
478	14.065011	116621312	86126592	50279144	24992
479	17.406246	116621312	86126592	44061000	24992
480	19.547517	116621312	86126592	39566512	24992
481	16.30824	116621312	86126592	50656008	24992
482	1.588701	116621312	86126592	46721392	24992
483	2.54277	116621312	86126592	48338280	24992
484	3.131758	116621312	86126592	50495688	24992
485	6.578925	116621312	86126592	37081224	24992
486	4.746763	116621312	86126592	40323040	24992
487	5.534464	116621312	86126592	44131160	24992
488	6.492747	116621312	86126592	48460928	24992
489	10.330146	116621312	86126592	37509256	24992
490	7.981186	116621312	86126592	42931664	24992
491	8.842125	116621312	86126592	48912496	24992
492	12.940388	116621312	86126592	39579080	24992
493	10.897906	116621312	86126592	46646504	24992
494	14.832877	116621312	86126592	38749296	24992
495	12.100255	116621312	86126592	46932240	24992
496	16.063991	116621312	86126592	40098432	24992
497	13.73088	116621312	86126592	49372664	24992
498	17.258391	116621312	86126592	43240552	24992
499	19.142763	116621312	86126592	38769768	24992
500	16.617596	116621312	86126592	49740848	24992
501	20.03259	116621312	86126592	45230456	24992
502	1.722245	116621312	86126592	42663856	24992
503	2.45514	116621312	86126592	44339200	24992
504	3.257274	116621312	86126592	46574440	24992
505	4.271863	116621312	86126592	49370824	24992
506	7.800919	116621312	86126592	36912592	24992
507	5.928269	116621312	86126592	40834472	24992
508	6.506867	116621312	86126592	45324368	24992
509	7.523616	116621312	86126592	50386880	24992
510	11.287207	116621312	86126592	39957824	24992
511	9.201779	116621312	86126592	46142104	24992
512	13.255257	116621312	86126592	37610424	24992
513	10.906598	116621312	86126592	44941888	24992
514	15.002059	116621312	86126592	37748744	24992
515	12.542609	116621312	86126592	46213984	24992
516	16.662875	116621312	86126592	39942136	24992
517	14.211768	116621312	86126592	49570776	24992
518	18.165432	116621312	86126592	43835704	24992
519	19.636129	116621312	86126592	39736280	24992
520	16.855461	116621312	86126592	51086736	24992
521	20.680963	116621312	86126592	46863904	24992
522	1.729361	116621312	86126592	44587056	24992
523	2.54002	116621312	86126592	46320880	24992
524	3.380563	116621312	86126592	48634160	24992
525	4.425326	116621312	86126592	51530080	24992
526	8.120695	116621312	86126592	38910520	24992
527	6.279187	116621312	86126592	42984120	24992
528	7.09328	116621312	86126592	47636320	24992
529	7.663192	116621312	86126592	52876048	24992
530	11.437767	116621312	86126592	42278568	24992
531	9.730409	116621312	86126592	48690960	24992
532	13.792794	116621312	86126592	40041088	24992
533	11.290589	116621312	86126592	47627800	24992
534	15.427903	116621312	86126592	40383648	24992
535	12.907549	116621312	86126592	49160320	24992
536	17.343998	116621312	86126592	42773096	24992
537	14.785286	116621312	86126592	52715024	24992
538	18.367822	116621312	86126592	46938944	24992
539	20.379044	116621312	86126592	42749600	24992
540	21.600128	116621312	86126592	39887064	24992
541	18.316954	116621312	86126592	52220736	24992
542	1.77061	116621312	86126592	49552408	24992
543	2.637278	116621312	86126592	51345080	24992
544	6.484304	116621312	86126592	37801216	24992
545	4.628006	116621312	86126592	40795208	24992
546	5.292954	116621312	86126592	44394632	24992
547	6.29681	116621312	86126592	48592456	24992
548	6.988762	116621312	86126592	53391040	24992
549	10.632093	116621312	86126592	42382720	24992
550	8.977446	116621312	86126592	48390096	24992
551	13.428965	116621312	86126592	39502608	24992
552	10.812427	116621312	86126592	46729440	24992
553	15.065476	116621312	86126592	39374808	24992
554	12.427752	116621312	86126592	47818792	24992
555	16.889061	116621312	86126592	41479168	24992
556	14.402223	116621312	86126592	51164360	24992
557	19.045522	116621312	86126592	45464144	24992
558	19.830052	116621312	86126592	41408624	24992
559	17.413447	116621312	86126592	52967576	24992
560	21.057445	116621312	86126592	48815768	24992
561	22.531197	116621312	86126592	46025152	24992
562	1.929426	116621312	86126592	44992472	24992
563	2.918967	116621312	86126592	46864040	24992
564	3.814134	116621312	86126592	49360496	24992
565	4.601859	116621312	86126592	52483264	24992
566	8.696289	116621312	86126592	40201648	24992
567	6.537048	116621312	86126592	44595968	24992
568	7.266376	116621312	86126592	49611184	24992
569	11.47813	116621312	86126592	39608088	24992
570	9.504528	116621312	86126592	45881656	24992
571	10.503106	116621312	86126592	52797344	24992
572	14.678813	116621312	86126592	44149784	24992
573	12.318251	116621312	86126592	52348856	24992
574	16.279994	116891648	86650880	45067128	24992
575	17.640129	116891648	86650880	39693448	24992
576	15.22609	116891648	86650880	49779928	24992
577	19.746353	116891648	86650880	44861800	24992
578	20.732724	116891648	86650880	41462664	24992
579	17.732215	116891648	86650880	53486520	24992
580	21.794537	116891648	86650880	49821496	24992
581	23.33748	116891648	86650880	47507392	24992
582	1.891138	116891648	86650880	46919664	24992
583	2.814059	116891648	86650880	48849384	24992
584	3.921505	116891648	86650880	51423920	24992
585	7.89172	117161984	86650880	38837640	24992
586	6.664557	117161984	86650880	42710184	24992
587	7.092137	117161984	86650880	47239912	24992
588	7.548703	117161984	86650880	52407792	24992
589	11.915176	117161984	86650880	42223472	24992
590	9.570728	117161984	86650880	48710728	24992
591	14.191615	117161984	86650880	40522560	24992
592	11.651086	117161984	86650880	48311216	24992
593	16.111788	117161984	86650880	41445576	24992
594	13.420717	117161984	86650880	50557784	24992
595	18.242633	117161984	86650880	44637184	24992
596	19.925803	117161984	86650880	40383224	24992
597	16.42635	117161984	86650880	51451216	24992
598	21.05266	117161984	86650880	47320648	24992
599	22.458183	117432320	86650880	44602896	24992
600	23.413926	117432320	86650880	43000248	24992
601	24.49539	117432320	86650880	42419224	24992
602	1.959067	117432320	86650880	43291008	24992
603	2.9914	117432320	86650880	45279408	24992
604	4.058327	117432320	86650880	47935592	24992
605	4.852748	117432320	86650880	51263416	24992
606	9.404394	117432320	86650880	39610296	24992
607	7.33424	117432320	86650880	44262160	24992
608	7.739884	117432320	86650880	49584528	24992
609	12.322783	117702656	87175168	40171416	24992
610	10.096613	117702656	87175168	46857160	24992
611	10.875292	117702656	87175168	54220072	24992
612	15.19288	117702656	87175168	46028040	24992
613	12.908271	117702656	87175168	54705080	24992
614	16.918321	117702656	87175168	47770392	24992
615	18.704202	117702656	87175168	42735608	24992
616	15.917749	117702656	87175168	53456000	24992
617	19.859852	117702656	87175168	48752848	24992
618	22.017068	117702656	87175168	45580624	24992
619	23.294499	117702656	87175168	43664944	24992
620	24.392561	117702656	87175168	42775640	24992
621	25.427215	117702656	87175168	42742872	24992
622	2.035132	117972992	87175168	44184624	24992
623	3.051141	117972992	87175168	46231880	24992
624	4.189994	117972992	87175168	48963136	24992
625	5.065396	117972992	87175168	52396184	24992
626	9.56521	117972992	87175168	40775176	24992
627	7.39742	117972992	87175168	45572800	24992
628	8.391872	117972992	87175168	51050200	24992
629	12.935638	117972992	87175168	41634024	24992
630	10.034641	117972992	87175168	48501304	24992
631	14.957933	117972992	87175168	40961696	24992
632	12.175968	117972992	87175168	49208216	24992
633	16.90015	117972992	87175168	42939152	24992
634	14.138944	117972992	87175168	52571560	24992
635	18.925356	118243328	87175168	47080040	24992
636	20.776175	118243328	87699456	43246368	24992
637	17.463609	118243328	87699456	54983040	24992
638	21.825261	118243328	87699456	51182728	24992
639	23.823122	118243328	87699456	48737392	24992
640	24.639201	118243328	87699456	47438336	24992
641	26.002451	118243328	87699456	47129144	24992
642	2.083427	118243328	87699456	48363232	24992
643	3.086217	118243328	87699456	50469896	24992
644	4.107261	118243328	87699456	53278448	24992
645	8.899015	118513664	87699456	41082680	24992
646	6.214144	118513664	87699456	45302992	24992
647	7.187595	118513664	87699456	50242592	24992
648	8.249133	118513664	87699456	55874808	24992
649	12.48025	118513664	87699456	45900104	24992
650	10.42268	118513664	87699456	52950544	24992
651	14.960942	118513664	87699456	44909712	24992
652	12.530928	118513664	87699456	53381664	24992
653	17.144625	118513664	87699456	46783856	24992
654	18.606055	118513664	87699456	41987392	24992
655	15.888699	118513664	87699456	52598280	24992
656	20.88151	118513664	87699456	48258264	24992
657	22.213673	118513664	87699456	45398304	24992
658	23.344707	118784000	87699456	43726984	24992
659	24.871434	118784000	87699456	43146920	24992
660	26.650025	118784000	87699456	43374248	24992
661	30.39829	118784000	87699456	44259672	24992
662	3.639806	118784000	87699456	46461720	24992
663	6.020132	118784000	87699456	48625472	24992
664	7.139137	118784000	87699456	51512128	24992
665	10.815594	118784000	87699456	55129248	24992
666	15.682987	111464448	80359424	15264320	24992
667	8.340998	111464448	80359424	20348448	24992
668	9.798277	111464448	80359424	26136816	24992
669	10.663143	111464448	80359424	17187392	24992
670	10.707042	111464448	80359424	24442112	24992
671	13.23826	111464448	80359424	17260936	24992
672	13.002249	111464448	80359424	25970200	24992
673	14.903278	111464448	80359424	19610000	24992
674	16.516263	111464448	80359424	15137928	24992
675	16.592773	111464448	80359424	26052632	24992
676	18.285849	111464448	80359424	21892072	24992
677	20.256057	111464448	80359424	19217440	24992
678	21.481457	111464448	80359424	17809776	24992
679	22.563256	111464448	80359424	17413888	24992
680	24.224562	111464448	80359424	17738312	24992
681	24.741773	111464448	80359424	18811640	24992
682	2.218264	111464448	80359424	21169912	24992
683	3.280037	111464448	80359424	23392208	24992
684	4.506764	111464448	80359424	26356912	24992
685	6.486408	111464448	80359424	14372256	24992
686	6.563047	111464448	80359424	18835976	24992
687	7.643485	111464448	80359424	24034336	24992
688	8.936716	111464448	80359424	29989400	24992
689	10.330989	111464448	80359424	20217272	24992
690	11.137665	111464448	80359424	27663768	24992
691	13.066578	111464448	80359424	19768320	24992
692	13.42964	111464448	80359424	28722848	24992
693	14.927024	111464448	80359424	22245424	24992
694	16.72422	111464448	80359424	17679200	24992
695	16.916098	111464448	80359424	28898656	24992
696	18.769991	111464448	80359424	24631584	24992
697	20.001064	111464448	80359424	21840624	24992
698	21.719826	111464448	80359424	20311240	24992
699	23.193917	111464448	80359424	19813208	24992
700	24.133244	111464448	80359424	20199872	24992
701	25.76881	111464448	80359424	21283400	24992
702	2.252592	111464448	80359424	23741904	24992
703	3.365377	111464448	80359424	26026856	24992
704	4.525523	111464448	80359424	29080176	24992
705	6.183808	111464448	80359424	16796704	24992
706	7.1034	111464448	80359424	21382816	24992
707	7.856967	111464448	80359424	26717488	24992
708	9.872958	111464448	80359424	17027600	24992
709	10.172103	111464448	80359424	23894848	24992
710	12.426484	111464448	80359424	16310088	24992
711	12.594275	111464448	80359424	24727568	24992
712	14.700176	111464448	80359424	18523312	24992
713	14.878906	111464448	80359424	28483232	24992
714	17.089084	111464448	80359424	23140984	24992
715	18.61068	111464448	80359424	19553200	24992
716	19.817821	111464448	80359424	17340448	24992
717	19.644526	111464448	80359424	30409608	24992
718	21.279674	111464448	80359424	27776856	24992
719	22.984166	111464448	80359424	26422072	24992
720	24.750293	111464448	80359424	26044696	24992
721	25.935401	111464448	80359424	26548968	24992
722	2.3189	111464448	80359424	28548352	24992
723	3.979541	111464448	80359424	14934160	24992
724	4.884475	111464448	80359424	18057616	24992
725	5.763522	111464448	80359424	21960688	24992
726	6.924193	111464448	80359424	26647536	24992
727	9.162941	111464448	80359424	16419592	24992
728	9.280565	111464448	80359424	22700736	24992
729	10.634887	111464448	80359424	29743200	24992
730	12.131805	111464448	80359424	21271512	24992
731	12.7533	111464448	80359424	29952296	24992
732	14.6195	111464448	80359424	23034288	24992
733	16.370775	111464448	80359424	18156992	24992
734	16.496327	111464448	80359424	29225696	24992
735	18.548063	111464448	80359424	24875720	24992
736	20.203613	111464448	80359424	22130224	24992
737	21.842619	111464448	80359424	20578744	24992
738	22.961583	111464448	80359424	20105888	24992
739	24.136845	111464448	80359424	20573976	24992
740	25.120665	111464448	80359424	21702032	24992
741	26.507844	111464448	80359424	23478384	24992
742	2.404368	111464448	80359424	26624296	24992
743	3.548232	111464448	80359424	29022176	24992
744	5.522047	111464448	80359424	16295808	24992
745	6.103476	111464448	80359424	20298920	24992
746	7.317388	111464448	80359424	25102640	24992
747	8.328488	111464448	80359424	30710168	24992
748	10.272085	111464448	80359424	20818632	24992
749	10.893121	111464448	80359424	28069792	24992
750	13.187455	111464448	80359424	20212768	24992
751	13.097349	111464448	80359424	29046184	24992
752	15.35872	111464448	80359424	22636040	24992
753	16.919197	111464448	80359424	18230512	24992
754	16.908863	111464448	80359424	29515600	24992
755	18.392447	111464448	80359424	25413144	24992
756	20.7425	111464448	80359424	22876240	24992
757	22.025573	111464448	80359424	21702424	24992
758	23.630558	111464448	80359424	21487000	24992
759	24.727909	111464448	80359424	22106920	24992
760	25.699575	111464448	80359424	23496632	24992
761	27.090129	111464448	80359424	25437928	24992
762	2.656171	111464448	80359424	28718448	24992
763	3.687209	111464448	80359424	31174784	24992
764	5.471703	111464448	80359424	18156080	24992
765	6.246476	111464448	80359424	22272544	24992
766	7.6668	111464448	80359424	27206352	24992
767	9.438559	111464448	80359424	17309032	24992
768	9.926289	111464448	80359424	23879536	24992
769	11.55105	111464448	80359424	31273400	24992
770	12.983117	111464448	80359424	23094856	24992
771	15.158267	111464448	80359424	17272040	24992
772	14.854612	111464448	80359424	27161856	24992
773	17.634731	111464448	80359424	22229400	24992
774	18.881609	111464448	80359424	19068488	24992
775	19.393383	111464448	80359424	31480056	24992
776	20.109953	111464448	80359424	28213984	24992
777	22.25526	111464448	80359424	26385440	24992
778	23.821357	111464448	80359424	25740472	24992
779	25.218752	111464448	80359424	26035120	24992
780	26.465989	111464448	80359424	27172088	24992
781	27.768892	111464448	80359424	28905840	24992
782	2.967331	111464448	80359424	16015760	24992
783	3.74457	111464448	80359424	18530608	24992
784	5.026248	111464448	80359424	21908624	24992
785	6.262215	111464448	80359424	26132288	24992
786	7.711972	111464448	80359424	31170184	24992
787	9.038412	111464448	80359424	20742632	24992
788	10.069929	111464448	80359424	27466872	24992
789	12.275782	111464448	80359424	19412416	24992
790	12.748064	111464448	80359424	27851576	24992
791	14.905366	111464448	80359424	21420096	24992
792	15.732788	111464448	80359424	31535928	24992
793	16.590602	111464448	80359424	26164008	24992
794	19.122813	111464448	80359424	22576008	24992
795	20.454932	111464448	80359424	20514144	24992
796	22.128563	111464448	80359424	19725096	24992
797	23.852207	111464448	80359424	19915064	24992
798	24.851938	111464448	80359424	20932904	24992
799	26.960801	111464448	80359424	22546112	24992
800	27.35829	111464448	80359424	24741448	24992
801	28.809578	111464448	80359424	27410304	24992
802	2.574587	111464448	80359424	31411760	24992
803	4.380404	111464448	80359424	17792280	24992
804	5.254364	111464448	80359424	21224968	24992
805	6.641394	111464448	80359424	25517992	24992
806	7.848984	111464448	80359424	30672848	24992
807	9.565694	111464448	80359424	20528880	24992
808	10.311328	111464448	80359424	27424208	24992
809	12.624481	111464448	80359424	19628416	24992
810	13.463784	111464448	80359424	28280968	24992
811	15.399917	111464448	80359424	22069552	24992
812	17.513033	111464448	80359424	17812128	24992
813	17.021624	111464448	80359424	29037768	24992
814	19.728129	111464448	80359424	25270528	24992
815	20.719322	111464448	80359424	23040776	24992
816	22.728298	111464448	80359424	22124680	24992
817	23.962827	111464448	80359424	22224960	24992
818	25.596912	111464448	80359424	23260144	24992
819	28.622133	111464448	80359424	25000200	24992
820	28.858172	111464448	80359424	27265944	24992
821	29.095292	111734784	80359424	29926816	24992
822	3.025282	111734784	80359424	17720776	24992
823	3.92407	111734784	80359424	20352712	24992
824	5.434219	111734784	80359424	23864568	24992
825	6.904075	111734784	80359424	28255216	24992
826	8.81767	111734784	80359424	17835496	24992
827	9.3573	111734784	80359424	23989176	24992
828	10.701667	111734784	80359424	31025512	24992
829	12.539999	111734784	80359424	22780504	24992
830	13.343743	111734784	80359424	31586272	24992
831	15.066416	111734784	80359424	25010640	24992
832	17.02031	111734784	80359424	20536816	24992
833	17.546312	111734784	80359424	32011168	24992
834	19.019104	111734784	80359424	28043280	24992
835	22.17573	111734784	80359424	25738728	24992
836	22.592371	111734784	80359424	24725888	24992
837	23.965127	111734784	80359424	24799976	24992
838	26.022308	111734784	80359424	25751176	24992
839	27.423346	111734784	80359424	27429096	24992
840	28.490917	111734784	80359424	29724256	24992
841	29.464504	111734784	80359424	32603696	24992
842	2.704373	111734784	80359424	23367272	24992
843	4.013143	111734784	80359424	26107072	24992
844	5.396415	111734784	80359424	29761656	24992
845	7.868257	111734784	80359424	18628288	24992
846	8.055014	111734784	80359424	24130648	24992
847	9.455489	111734784	80359424	30535712	24992
848	11.618747	111734784	80359424	21910520	24992
849	12.122585	111734784	80359424	30159280	24992
850	14.509325	111734784	80359424	23527784	24992
851	16.366686	111734784	80359424	19009544	24992
852	16.605664	111734784	80359424	30068568	24992
853	18.730779	111734784	80359424	26284624	24992
854	20.869855	111734784	80359424	24073176	24992
855	22.527044	111734784	80359424	23160976	24992
856	23.737545	111734784	80359424	23381896	24992
857	25.732184	111734784	80359424	24464504	24992
858	26.6945	111734784	80359424	26323064	24992
859	28.024582	111734784	80359424	28829736	24992
860	28.808575	111734784	80359424	31778080	24992
861	32.276101	111734784	80359424	21956056	24992
862	2.769997	111734784	80359424	32121896	24992
863	4.136643	111734784	80359424	34955216	24992
864	6.356801	111734784	80359424	22962016	24992
865	7.195614	111734784	80359424	27711488	24992
866	8.256535	111734784	80359424	33388144	24992
867	10.491776	111734784	80359424	24225824	24992
868	11.028954	111734784	80359424	31801440	24992
869	13.501731	111734784	80359424	24871920	24992
870	14.071824	111734784	80359424	34337248	24992
871	16.402661	111734784	80359424	28811416	24992
872	18.118752	111734784	80359424	25221016	24992
873	19.750118	111734784	80359424	23273984	24992
874	19.847903	111734784	80359424	36592264	24992
875	21.895549	111734784	80359424	34573128	24992
876	23.676376	111734784	80359424	33871072	24992
877	25.511041	111734784	80359424	34264520	24992
878	27.196992	111734784	80359424	35534176	24992
879	27.601042	111734784	80359424	37500888	24992
880	31.081901	111734784	80359424	26630416	24992
881	31.583027	111734784	80359424	32185304	24992
882	3.512311	111734784	80359424	22639152	24992
883	4.451134	111734784	80359424	25526872	24992
884	5.812256	111734784	80359424	29401992	24992
885	7.285503	111734784	80359424	34234552	24992
886	9.464391	111734784	80359424	24262352	24992
887	9.843148	111734784	80359424	31030000	24992
888	12.555049	111734784	80359424	23503584	24992
889	12.913972	111734784	80359424	32192856	24992
890	15.538196	111734784	80359424	26447992	24992
891	15.757017	111734784	80359424	37110040	24992
892	17.672878	111734784	80359424	32473632	24992
893	20.011249	111734784	80359424	29652232	24992
894	21.993965	111734784	80359424	28305696	24992
895	23.345802	111734784	80359424	28102040	24992
896	24.498575	111734784	80359424	28939696	24992
897	25.970395	111734784	80359424	30687112	24992
898	27.446184	111734784	80359424	33064560	24992
899	28.97861	111734784	80359424	35969928	24992
900	31.639424	111734784	80359424	26098384	24992
901	34.789744	111734784	80359424	35250408	24992
902	3.537127	111734784	80359424	26429360	24992
903	4.569738	111734784	80359424	29375456	24992
904	5.812416	111734784	80359424	33353392	24992
905	7.290493	111734784	80359424	38315360	24992
906	9.957212	111734784	80359424	28448624	24992
907	10.464897	111734784	80359424	35374032	24992
908	13.051603	111734784	80359424	28020424	24992
909	13.4104	111734784	80359424	36901048	24992
910	15.698012	111734784	80359424	31199360	24992
911	17.844611	111734784	80359424	27506400	24992
912	17.604974	111734784	80359424	39374040	24992
913	20.712833	111734784	80359424	36309448	24992
914	22.612281	111734784	80359424	34750128	24992
915	23.448941	111734784	80359424	34445728	24992
916	25.040152	111734784	80359424	35202312	24992
917	26.683446	111734784	80359424	36807272	24992
918	28.361204	111734784	80359424	39099840	24992
919	29.480991	111734784	80359424	42046256	24992
920	32.70424	111734784	80359424	31903752	24992
921	33.216997	111734784	80359424	38127328	24992
922	2.946783	111734784	80359424	32363968	24992
923	4.45171	111734784	80359424	35368528	24992
924	6.099507	111734784	80359424	39376296	24992
925	11.065081	111734784	80359424	31547984	24992
926	8.851532	111734784	80359424	37603792	24992
927	10.481952	111734784	80359424	44627144	24992
928	12.840862	111734784	80359424	36561472	24992
929	13.448897	111734784	80359424	45642616	24992
930	15.95883	111734784	80359424	39278064	24992
931	17.942658	111734784	80359424	35119840	24992
932	20.043289	111734784	80359424	32675432	24992
933	19.853425	111734784	80359424	45805432	24992
934	21.293426	111734784	80359424	43475768	24992
935	23.927881	111734784	80359424	42648344	24992
936	25.80209	111734784	80359424	42967856	24992
937	26.912955	111734784	80359424	44199912	24992
938	30.945377	111734784	80359424	32992928	24992
939	33.384966	111734784	80359424	40920040	24992
940	32.559745	111734784	80359424	46191616	24992
941	35.809448	111734784	80359424	38581008	24992
942	2.996734	111734784	80359424	50584096	24992
943	5.769693	111734784	80359424	38101856	24992
944	6.15954	111734784	80359424	42203032	24992
945	7.750634	111734784	80359424	47329928	24992
946	10.601014	111734784	80359424	38147992	24992
947	10.565449	111734784	80359424	45321752	24992
948	13.530461	111734784	80359424	38529584	24992
949	14.050952	111734784	80359424	47902208	24992
950	16.733188	111734784	80359424	42637096	24992
951	18.837104	111734784	80359424	39533248	24992
952	18.548556	111734784	80359424	52098192	24992
953	20.442326	111734784	80359424	49159160	24992
954	23.088209	111734784	80359424	47799408	24992
955	24.914603	111734784	80359424	47825712	24992
956	26.540121	111734784	80359424	48872336	24992
957	27.848385	111734784	80359424	50759096	24992
958	29.19861	111734784	80359424	53373272	24992
959	32.484534	111734784	80359424	42918224	24992
960	33.433789	111734784	80359424	48967632	24992
961	37.355884	111734784	80359424	42158856	24992
962	3.338754	111734784	80359424	54797368	24992
963	7.059848	111734784	80359424	42295584	24992
964	7.028456	111734784	80359424	46459384	24992
965	11.885577	111734784	80359424	51707936	24992
966	17.786468	111734784	80359424	42607592	24992
967	19.423622	108064768	77737984	22453168	24992
968	13.207331	108064768	77737984	30796896	24992
969	15.171469	109146112	77737984	24317200	24992
970	16.660523	109146112	77737984	20023208	24992
971	17.016743	109146112	77737984	31510488	24992
972	19.456291	109146112	77737984	28021200	24992
973	21.592677	109146112	77737984	26272248	24992
974	22.931475	109146112	77737984	25850872	24992
975	24.735221	109146112	77737984	26611040	24992
976	26.608531	109146112	77737984	28191208	24992
977	28.222109	109146112	77737984	30650384	24992
978	29.682319	109146112	77737984	33618488	24992
979	32.404329	109146112	77737984	23779296	24992
980	33.052838	109146112	77737984	30130640	24992
981	36.569158	109146112	77737984	23519656	24992
982	3.268637	109146112	77737984	36470880	24992
983	5.820074	109146112	77737984	23992080	24992
984	6.742378	109146112	77737984	28233768	24992
985	8.058131	109146112	77737984	33549512	24992
986	10.785884	109146112	77737984	24381176	24992
987	11.161183	109146112	77737984	31814224	24992
988	14.179531	109146112	77737984	25019640	24992
989	14.215477	109146112	77737984	34618248	24992
990	16.806542	109146112	77737984	29542904	24992
991	18.751317	109146112	77737984	26398360	24992
992	20.531203	109146112	77737984	24872024	24992
993	22.300091	109146112	77737984	24706776	24992
994	24.298533	109146112	77737984	25615352	24992
995	25.76824	109146112	77737984	27501240	24992
996	27.839313	109146112	77737984	30052704	24992
997	28.61109	109146112	77737984	33269232	24992
998	30.738041	109146112	77737984	36992056	24992
999	33.003448	109146112	77737984	27847960	24992
1000	36.506826	109146112	77737984	38008528	24992
