x	Duration	RSS	HeapTotal	HeapUsed	External
0	NA	91254784	59912192	11976216	24992
1	0.3398	91254784	59912192	12028144	24992
2	0.259691	91254784	59912192	12104928	24992
3	0.300128	91254784	59912192	12208824	24992
4	0.362383	91254784	59912192	12341376	24992
5	0.463335	91254784	59912192	12504112	24992
6	0.504254	91254784	59912192	12697424	24992
7	0.577208	91254784	59912192	12922312	24992
8	0.651502	91254784	59912192	13179760	24992
9	0.731672	91254784	59912192	13471712	24992
10	0.810828	91254784	59912192	13798776	24992
11	1.420648	91254784	59912192	14161928	24992
12	1.0832	91254784	59912192	14562120	24992
13	1.172216	91254784	59912192	15004000	24992
14	1.195799	91254784	59912192	15482640	24992
15	1.230051	91254784	59912192	15999912	24992
16	1.324258	91254784	59912192	16558016	24992
17	1.290529	91254784	59912192	17160128	24992
18	1.411713	91254784	59912192	17805056	24992
19	1.209921	91254784	59912192	18494808	24992
20	1.881853	91254784	59912192	19229976	24992
21	1.381756	91254784	59912192	20008968	24992
22	0.186914	91254784	59912192	20808840	24992
23	0.265155	91254784	59912192	20951304	24992
24	0.336051	91254784	59912192	21143848	24992
25	0.411927	91254784	59912192	21387480	24992
26	0.519601	91254784	59912192	21692624	24992
27	0.567079	91254784	59912192	22041920	24992
28	0.647448	91254784	59912192	22445176	24992
29	0.961449	91254784	59912192	22903456	24992
30	0.864522	91254784	59912192	23418648	24992
31	0.893841	91254784	59912192	23990888	24992
32	0.981003	91254784	59912192	24621024	24992
33	1.119126	91254784	59912192	25310032	24992
34	1.161078	91254784	59912192	26058816	24992
35	1.252096	91254784	59912192	26868680	24992
36	1.400305	91254784	59912192	27740864	24992
37	1.495506	91254784	59912192	28675080	24992
38	2.548133	91254784	59912192	13518424	24992
39	1.656242	91254784	59912192	14583240	24992
40	1.735797	91254784	59912192	15713936	24992
41	2.100015	91254784	59912192	16912912	24992
42	0.236456	91254784	59912192	18179856	24992
43	0.351308	91254784	59912192	18384072	24992
44	0.466671	91254784	59912192	18657976	24992
45	0.555782	91254784	59912192	19003720	24992
46	0.667523	91254784	59912192	19421576	24992
47	0.769757	91254784	59912192	19912720	24992
48	1.092828	91254784	59912192	20478728	24992
49	1.000158	91254784	59912192	21119208	24992
50	1.10914	91254784	59912192	21838800	24992
51	1.338167	91254784	59912192	22638432	24992
52	1.356918	91254784	59912192	23517472	24992
53	1.467206	91254784	59912192	24477744	24992
54	1.59148	91254784	59912192	25520152	24992
55	1.702149	91254784	59912192	26645584	24992
56	2.029428	91254784	59912192	27855192	24992
57	3.108089	91254784	59912192	13500504	24992
58	2.100988	91254784	59912192	14883160	24992
59	2.217826	91254784	59912192	16352952	24992
60	2.325151	91254784	59912192	17911472	24992
61	2.679235	91254784	59912192	19558400	24992
62	0.451477	91254784	59912192	21318976	24992
63	0.466415	91254784	59912192	21590040	24992
64	0.579339	91254784	59912192	21952984	24992
65	0.716206	91254784	59912192	22408840	24992
66	0.857246	91254784	59912192	22959048	24992
67	1.001365	91254784	59912192	23604488	24992
68	1.143163	91254784	59912192	24345344	24992
69	1.27522	91254784	59912192	25182928	24992
70	1.495904	91254784	59912192	26119256	24992
71	1.764287	91254784	59912192	27155864	24992
72	1.851437	91254784	59912192	28292688	24992
73	2.973367	91254784	59912192	13800304	24992
74	2.202815	91254784	59912192	15137352	24992
75	2.347158	91254784	59912192	16577104	24992
76	2.752682	91254784	59912192	18122536	24992
77	2.524578	91254784	59912192	19770416	24992
78	2.618434	91254784	59912192	21526240	24992
79	2.847289	91254784	59912192	23387960	24992
80	3.171436	91254784	59912192	25357848	24992
81	3.217271	91254784	59912192	27437136	24992
82	0.357211	91254784	59912192	29673696	24992
83	1.593799	91254784	59912192	14021856	24992
84	0.757364	91254784	59912192	14465192	24992
85	0.949864	91254784	59912192	15020784	24992
86	1.12613	91254784	59912192	15691320	24992
87	1.993305	91254784	59912192	16477360	24992
88	1.585307	91254784	59912192	17379760	24992
89	1.558364	91254784	59912192	18399600	24992
90	1.791663	91254784	59912192	19538880	24992
91	2.014858	91254784	59912192	20810344	24992
92	2.436413	91254784	59912192	22189264	24992
93	2.270711	91254784	59912192	23690880	24992
94	2.514289	91254784	59912192	25313504	24992
95	2.894873	91254784	59912192	27059424	24992
96	2.831042	91254784	59912192	28929480	24992
97	4.34768	91254784	59912192	15032752	24992
98	3.226762	91254784	59912192	17156152	24992
99	3.395863	91254784	59912192	19406640	24992
100	3.605127	91254784	59912192	21785960	24992
101	3.785638	91254784	59912192	24294056	24992
102	0.419599	91254784	59912192	27015504	24992
103	0.625607	91254784	59912192	27419376	24992
104	0.99542	91254784	59912192	27959440	24992
105	1.051509	91254784	59912192	28636720	24992
106	1.225595	91254784	59912192	29452712	24992
107	1.436633	91254784	59912192	30408344	24992
108	2.611618	91254784	59912192	15400648	24992
109	1.852476	91254784	59912192	16636800	24992
110	2.042945	91254784	59912192	18015960	24992
111	2.472536	91254784	59912192	19538192	24992
112	2.492214	91254784	59912192	21204504	24992
113	2.698881	91254784	59912192	23015816	24992
114	2.913744	91254784	59912192	24972976	24992
115	3.143755	91254784	59912192	27078424	24992
116	3.322353	91254784	59912192	29330472	24992
117	4.636	91254784	59912192	15777136	24992
118	3.986342	91254784	59912192	18329824	24992
119	3.991736	91254784	59912192	21033432	24992
120	4.531834	91254784	59912192	23888968	24992
121	4.854799	91254784	59912192	26899032	24992
122	0.488584	91254784	59912192	30161224	24992
123	0.75239	91254784	59912192	30623640	24992
124	2.038555	91254784	59912192	15123784	24992
125	1.275969	91254784	59912192	15898536	24992
126	1.548833	91254784	59912192	16831472	24992
127	2.293931	91254784	59912192	17925056	24992
128	2.002317	91254784	59912192	19176256	24992
129	2.198416	91254784	59912192	20597096	24992
130	2.555989	91254784	59912192	22171352	24992
131	2.955436	91254784	59912192	23908176	24992
132	2.849939	91254784	59912192	25810392	24992
133	3.087546	91254784	59912192	27880352	24992
134	3.346639	91254784	59912192	30110648	24992
135	4.858529	91254784	59912192	16468640	24992
136	3.843761	91254784	59912192	19032792	24992
137	4.258574	91254784	59912192	21765376	24992
138	4.429149	91254784	59912192	24669032	24992
139	4.586988	91254784	59912192	27746592	24992
140	5.05153	91254784	59912192	30992280	24992
141	6.150591	91254784	59912192	18235304	24992
142	0.548376	91254784	59912192	21957160	24992
143	0.814168	91254784	59912192	22483720	24992
144	1.074654	91254784	59912192	23187152	24992
145	1.338754	91254784	59912192	24068632	24992
146	1.597927	91254784	59912192	25129592	24992
147	1.920477	91254784	59912192	26370544	24992
148	2.189167	91254784	59912192	27792632	24992
149	2.459305	91254784	59912192	29396400	24992
150	2.673934	91254784	59912192	31184640	24992
151	3.951659	91254784	59912192	17001944	24992
152	3.223086	91254784	59912192	19158192	24992
153	3.998508	91254784	59912192	21501392	24992
154	3.777517	91254784	59912192	24030192	24992
155	4.116702	91254784	59912192	26747032	24992
156	4.588756	91254784	59912192	29654208	24992
157	5.792371	91254784	59912192	16838456	24992
158	5.107781	91254784	59912192	20129776	24992
159	5.183285	91254784	59912192	23609304	24992
160	5.543018	91254784	59912192	27281952	24992
161	5.76624	91254784	59912192	31147952	24992
162	0.663787	91254784	59912192	19201408	24992
163	0.922841	91254784	59912192	19788472	24992
164	1.198317	91254784	59912192	20569856	24992
165	1.496047	91254784	59912192	21548792	24992
166	2.015497	91254784	59912192	22728208	24992
167	2.125825	91254784	59912192	24107696	24992
168	2.615336	91254784	59912192	25690512	24992
169	2.683847	91254784	59912192	27469080	24992
170	2.980411	91254784	59912192	29451696	24992
171	3.270792	91254784	59912192	31636840	24992
172	4.911474	91254784	59912192	17854704	24992
173	4.090625	91254784	59912192	20449960	24992
174	4.396197	91254784	59912192	23250840	24992
175	4.514126	91254784	59912192	26258960	24992
176	4.845708	91254784	59912192	29475544	24992
177	6.693007	91254784	59912192	17111704	24992
178	5.850904	91254784	59912192	20749120	24992
179	6.18881	91254784	59912192	24597528	24992
180	6.538661	91254784	59912192	28663248	24992
181	8.066524	91254784	59912192	17273560	24992
182	0.674322	91254784	59912192	21933536	24992
183	1.005304	91254784	59912192	22576824	24992
184	1.315902	91254784	59912192	23436064	24992
185	1.639107	91254784	59912192	24512192	24992
186	1.970805	91254784	59912192	25806736	24992
187	2.348697	91254784	59912192	27320128	24992
188	3.018074	91254784	59912192	29053400	24992
189	2.980363	91254784	59912192	31007512	24992
190	4.99266	91254784	59912192	17200432	24992
191	3.905939	91254784	59912192	19600728	24992
192	3.96995	91254784	59912192	22224320	24992
193	4.290962	91254784	59912192	25075088	24992
194	4.883019	91254784	59912192	28153800	24992
195	5.776296	91254784	59912192	31462792	24992
196	7.028664	91254784	59912192	18941816	24992
197	5.947929	91254784	59912192	22699040	24992
198	6.205996	91254784	59912192	26687552	24992
199	6.594562	91254784	59912192	30906592	24992
200	8.023405	91254784	59912192	19378448	24992
201	7.46922	91254784	59912192	24061704	24992
202	0.740818	91254784	59912192	29185872	24992
203	1.103314	91254784	59912192	29887608	24992
204	1.439553	91254784	59912192	30824824	24992
205	1.789052	91254784	59912192	31998408	24992
206	3.551751	91254784	59912192	17315552	24992
207	2.532417	91254784	59912192	18977464	24992
208	3.260257	91254784	59912192	20883288	24992
209	3.456682	91254784	59912192	23037832	24992
210	3.850866	91254784	59912192	25443400	24992
211	4.449242	91254784	59912192	28101168	24992
212	4.750439	91254784	59912192	31008856	24992
213	6.767149	91254784	59912192	18271648	24992
214	5.391821	91254784	59912192	21685120	24992
215	5.905403	91254784	59912192	25365912	24992
216	5.982773	91254784	59912192	29295064	24992
217	8.229818	91254784	59912192	17836472	24992
218	7.032324	91254784	59912192	22280040	24992
219	7.575396	91254784	59912192	26979208	24992
220	7.811148	91254784	59912192	31936512	24992
221	9.645579	91254784	59912192	21071776	24992
222	1.030076	91254784	59912192	26780328	24992
223	1.250721	91254784	59912192	27565432	24992
224	1.656166	91254784	59912192	28613688	24992
225	2.228311	91254784	59912192	29926032	24992
226	2.513063	91254784	59912192	31504152	24992
227	2.940494	91254784	59912192	33350120	24992
228	4.475162	91254784	59912192	19220872	24992
229	3.766078	91254784	59912192	21606888	24992
230	4.175851	91254784	59912192	24267328	24992
231	4.801095	91254784	59912192	27195600	24992
232	4.984089	91254784	59912192	30400288	24992
233	7.163991	91254784	59912192	18133376	24992
234	5.788207	91254784	59912192	21886168	24992
235	6.313454	91254784	59912192	25923664	24992
236	6.720641	91254784	59912192	30231032	24992
237	8.738228	91254784	59912192	19087280	24992
238	7.835925	91254784	59912192	23957408	24992
239	8.004826	91254784	59912192	29109168	24992
240	11.24011	91254784	59912192	19036528	24992
241	9.24672	91254784	59912192	24749936	24992
242	0.909345	91254784	59912192	31016664	24992
243	1.367832	91254784	59912192	31868848	24992
244	1.79253	91254784	59912192	33006624	24992
245	3.668639	91254784	59912192	18338368	24992
246	2.871175	91254784	59912192	20050832	24992
247	3.066271	91254784	59912192	22051776	24992
248	3.591275	91254784	59912192	24343992	24992
249	4.056589	91254784	59912192	26930128	24992
250	4.69712	91254784	59912192	29803552	24992
251	4.954988	91254784	59912192	32969280	24992
252	6.963235	91254784	59912192	20364280	24992
253	5.885959	91254784	59912192	24117832	24992
254	6.475274	91254784	59912192	28175128	24992
255	6.8204	91254784	59912192	32522976	24992
256	8.748569	91254784	59912192	21146120	24992
257	7.834698	91254784	59912192	26088784	24992
258	8.341009	91254784	59912192	31335768	24992
259	10.220346	91254784	59912192	21055160	24992
260	9.192979	91254784	59912192	26898656	24992
261	9.803844	91254784	59912192	33051824	24992
262	0.986467	91254784	59912192	23684944	24992
263	1.467	91254784	59912192	24595536	24992
264	1.943274	91254784	59912192	25811200	24992
265	2.654864	91254784	59912192	27335432	24992
266	2.805064	91254784	59912192	29167568	24992
267	3.387111	91254784	59912192	31305280	24992
268	3.873073	91254784	59912192	33751728	24992
269	5.901742	91254784	59912192	20360520	24992
270	4.838244	91254784	59912192	23430624	24992
271	5.469388	91254784	59912192	26812528	24992
272	5.828085	91254784	59912192	30507696	24992
273	6.164644	91254784	59912192	34515640	24992
274	7.90123	91254784	59912192	22539512	24992
275	7.400544	91254784	59912192	27177248	24992
276	7.897008	91254784	59912192	32140984	24992
277	9.944957	91254784	59912192	21539640	24992
278	8.780215	91254784	59912192	27138472	24992
279	9.425668	91254784	59912192	33052328	24992
280	11.842405	91254784	59912192	23244288	24992
281	11.811379	91254784	59912192	29804088	24992
282	1.068839	91254784	59912192	21515976	24992
283	1.563204	91254784	59912192	22485176	24992
284	2.270156	91254784	59912192	23779432	24992
285	2.581178	91254784	59912192	25398720	24992
286	3.178482	91254784	59912192	27345040	24992
287	3.566446	91254784	59912192	29619000	24992
288	4.102302	91254784	59912192	32221336	24992
289	5.050769	91254784	59912192	35156928	24992
290	6.648684	91254784	59912192	22108776	24992
291	5.71448	91254784	59912192	25703608	24992
292	6.18611	91254784	59912192	29631608	24992
293	6.675647	91254784	59912192	33892224	24992
294	8.682147	91254784	59912192	22404848	24992
295	8.102515	91254784	59912192	27352880	24992
296	8.385441	91254784	59912192	32631256	24992
297	10.635066	91254784	59912192	22360272	24992
298	9.436783	91254784	59912192	28312304	24992
299	10.142381	91254784	59912192	34603880	24992
300	12.097287	91254784	59912192	25028248	24992
301	11.220873	91254784	59912192	31993088	24992
302	1.120546	91254784	59912192	23891400	24992
303	1.656389	91254784	59912192	24919048	24992
304	2.190292	91254784	59912192	26290760	24992
305	2.889065	91254784	59912192	28007528	24992
306	3.274948	91254784	59912192	30076072	24992
307	3.866306	91254784	59912192	32486592	24992
308	4.414321	91254784	59912192	35253120	24992
309	6.308473	91254784	59912192	22147616	24992
310	5.597555	91254784	59912192	25617000	24992
311	6.474804	91254784	59912192	29428288	24992
312	6.603626	91254784	59912192	33598160	24992
313	8.830285	91254784	59912192	22135976	24992
314	7.945664	91254784	59912192	27014400	24992
315	8.255189	91254784	59912192	32239336	24992
316	10.705002	91254784	59912192	22077192	24992
317	9.53579	91254784	59912192	28017256	24992
318	9.941487	91254784	59912192	34312144	24992
319	12.400191	91254784	59912192	24885840	24992
320	11.065474	91254784	59912192	31904136	24992
321	13.38154	91254784	59912192	23631664	24992
322	1.174827	91254784	59912192	31704184	24992
323	1.74353	91254784	59912192	32790368	24992
324	2.323748	91254784	59912192	34240048	24992
325	2.890026	91254784	59912192	36054472	24992
326	4.848605	91254784	59912192	21957888	24992
327	4.206689	91254784	59912192	24504752	24992
328	4.643012	91254784	59912192	27419328	24992
329	5.400932	91254784	59912192	30702256	24992
330	5.821008	91254784	59912192	34355544	24992
331	8.065518	91254784	59912192	22413936	24992
332	6.983171	91254784	59912192	26816904	24992
333	7.808661	91254784	59912192	31590648	24992
334	10.044643	91254784	59912192	21206584	24992
335	8.815639	91254784	59912192	26722520	24992
336	9.62014	91254784	59912192	32623688	24992
337	12.052156	91254784	59912192	23188152	24992
338	10.669833	91254784	59912192	29834160	24992
339	13.727369	91254784	59912192	21676768	24992
340	11.830372	91254784	59912192	29084416	24992
341	14.509096	91254784	59912192	21798136	24992
342	1.243123	91254784	59912192	30346296	24992
343	1.842427	91254784	59912192	31490896	24992
344	2.414776	91254784	59912192	33018648	24992
345	3.076532	91254784	59912192	34930504	24992
346	5.306086	91254784	59912192	21233128	24992
347	4.329285	91254784	59912192	23918592	24992
348	5.020409	91254784	59912192	26998056	24992
349	5.542984	91254784	59912192	30467520	24992
350	6.268304	91254784	59912192	34316696	24992
351	8.590569	91254784	59912192	22687120	24992
352	7.575847	91254784	59912192	27317416	24992
353	8.232639	91254784	59912192	32339824	24992
354	10.81436	91254784	59912192	22214312	24992
355	9.306526	91254784	59912192	28022040	24992
356	10.110646	91254784	59912192	34224576	24992
357	12.435777	91254784	59912192	24968544	24992
358	11.182525	91254784	59912192	31966160	24992
359	13.767202	91254784	59912192	23891344	24992
360	12.635712	91254784	59912192	31696624	24992
361	15.488818	91254784	59912192	24509144	24992
362	1.497575	91254784	59912192	33535448	24992
363	1.947541	91254784	59912192	34751944	24992
364	2.577906	91254784	59912192	36380608	24992
365	5.009428	91254784	59912192	22282680	24992
366	3.851542	91254784	59912192	24726184	24992
367	4.531047	91254784	59912192	27577792	24992
368	5.165617	91254784	59912192	30839880	24992
369	6.003706	91254784	59912192	34513976	24992
370	8.374411	91254784	59912192	22797088	24992
371	7.207192	91254784	59912192	27298800	24992
372	7.736252	91254784	59912192	32218136	24992
373	8.402971	91254784	59912192	37563712	24992
374	10.704563	91254784	59912192	26935696	24992
375	9.929415	91254784	59912192	33103320	24992
376	12.399058	91254784	59912192	24089400	24992
377	11.141188	91254784	59912192	31094960	24992
378	13.844799	91254784	59912192	23288048	24992
379	12.675459	91254784	59912192	31137984	24992
380	15.041321	91254784	59912192	24175104	24992
381	13.853892	91254784	59912192	32875144	24992
382	1.384382	91254784	59912192	26890528	24992
383	2.05248	91254784	59912192	28165528	24992
384	2.726879	91254784	59912192	29867080	24992
385	3.411926	91254784	59912192	31997120	24992
386	4.090095	91254784	59912192	34560768	24992
387	4.770452	91254784	59912192	37555048	24992
388	7.031436	91254784	59912192	24712896	24992
389	6.14429	91254784	59912192	28562392	24992
390	6.80486	91254784	59912192	32849872	24992
391	7.51958	91254784	59912192	37566160	24992
392	9.924539	91254784	59912192	26398648	24992
393	8.871529	91254784	59912192	31984848	24992
394	9.829755	91254784	59912192	38016712	24992
395	11.869382	91254784	59912192	28091200	24992
396	11.051698	91254784	59912192	35001528	24992
397	13.731079	91254784	59912192	26525376	24992
398	12.426921	91254784	59912192	34304432	24992
399	15.468422	91254784	59912192	26820864	24992
400	13.534384	91254784	59912192	35498200	24992
401	16.669777	91254784	59912192	28725672	24992
402	3.068582	91254784	59912192	22534408	24992
403	2.141655	91254784	59912192	23867920	24992
404	2.857051	91254784	59912192	25647464	24992
405	3.547016	91254784	59912192	27879048	24992
406	4.588327	91254784	59912192	30557152	24992
407	4.97644	91254784	59912192	33681368	24992
408	6.068448	91254784	59912192	37262160	24992
409	8.269844	91254784	59912192	25173952	24992
410	7.208675	91254784	59912192	29654864	24992
411	8.056283	91254784	59912192	34585736	24992
412	10.594422	91254784	59912192	24299672	24992
413	9.327738	91254784	59912192	30139344	24992
414	10.139894	91254784	59912192	36444064	24992
415	12.831377	91254784	59912192	27176304	24992
416	11.53891	91254784	59912192	34398944	24992
417	14.331117	91254784	59912192	26445224	24992
418	13.002205	91254784	59912192	34625224	24992
419	16.166827	91254784	59912192	27594152	24992
420	14.694671	91254784	59912192	36725568	24992
421	17.300159	91254784	59912192	30307096	24992
422	1.520301	91254784	59912192	26053200	24992
423	2.259784	91254784	59912192	27494600	24992
424	3.195709	91254784	59912192	29418024	24992
425	3.72188	91254784	59912192	31827400	24992
426	4.474467	91254784	59912192	34736408	24992
427	5.403885	91254784	59912192	38112312	24992
428	7.601422	91254784	59912192	25781160	24992
429	6.70514	91254784	59912192	30132776	24992
430	7.653886	91254784	59912192	34979712	24992
431	10.19584	91254784	59912192	24625336	24992
432	9.38693	91254784	59912192	30450672	24992
433	9.642374	91254784	59912192	36773552	24992
434	12.61693	91254784	60436480	27567112	24992
435	11.452294	91254784	60436480	34858848	24992
436	14.137668	91254784	60436480	26988264	24992
437	12.994457	91254784	60436480	35270864	24992
438	15.722468	91254784	60436480	28338664	24992
439	14.481457	91254784	60436480	37639912	24992
440	17.243404	91525120	60436480	31308752	24992
441	18.958954	91525120	60436480	26546184	24992
442	1.56484	91525120	60436480	37843336	24992
443	2.348919	91525120	60436480	39343296	24992
444	4.93693	91525120	60436480	25099912	24992
445	3.866586	91525120	60436480	27616920	24992
446	4.68632	91525120	60436480	30624808	24992
447	5.436703	91525120	60436480	34136984	24992
448	6.525954	91525120	60436480	38154728	24992
449	8.822611	91525120	60436480	26591320	24992
450	7.873019	91525120	60436480	31623776	24992
451	8.598064	91525120	60436480	37170688	24992
452	11.444061	91525120	60436480	27244384	24992
453	10.14061	91525120	60436480	33837512	24992
454	13.074569	91795456	60960768	25512840	24992
455	11.963927	91795456	60960768	33104592	24992
456	15.39702	91795456	60960768	25993736	24992
457	13.95016	91795456	60960768	34619232	24992
458	16.652833	91795456	60960768	28261048	24992
459	14.608537	91795456	60960768	37927560	24992
460	17.917922	91795456	60960768	32033264	24992
461	18.819692	92065792	60960768	27721384	24992
462	1.616153	92065792	60960768	39482480	24992
463	4.297102	92065792	60960768	24832536	24992
464	3.19337	92065792	60960768	26911928	24992
465	3.817282	92065792	60960768	29513448	24992
466	5.004773	92065792	60960768	32638304	24992
467	6.079082	92065792	60960768	36287424	24992
468	8.754061	92065792	60960768	24847320	24992
469	7.301707	92065792	60960768	29547136	24992
470	7.937413	92065792	60960768	34774536	24992
471	11.142949	92065792	60960768	25086880	24992
472	9.839885	92065792	60960768	31371096	24992
473	10.778991	92065792	60960768	38308536	24992
474	13.456372	92336128	61485056	29618048	24992
475	12.267519	92336128	61485056	37494584	24992
476	15.419865	92336128	61485056	30022944	24992
477	13.913823	92336128	61485056	38981368	24992
478	16.913453	92336128	61485056	32336968	24992
479	17.972523	92336128	61485056	27339464	24992
480	17.495964	92336128	61485056	37901936	24992
481	19.627621	92606464	61485056	33041032	24992
482	1.646735	92606464	61485056	30145416	24992
483	2.416038	92606464	61485056	31762336	24992
484	3.424835	92606464	61485056	33919776	24992
485	4.137412	92606464	61485056	36618496	24992
486	4.851855	92606464	61485056	39860280	24992
487	7.881316	92606464	61485056	27493000	24992
488	6.711056	92606464	61485056	31822760	24992
489	7.943109	92606464	61485056	36700656	24992
490	10.605976	92606464	61485056	26425128	24992
491	9.498014	92606464	61485056	32395072	24992
492	10.169254	92606464	61485056	38925776	24992
493	13.296772	92876800	61485056	29939216	24992
494	12.259011	92876800	61485056	37566688	24992
495	15.176438	92876800	61485056	29898832	24992
496	14.365388	92876800	61485056	38639640	24992
497	16.660576	92876800	61485056	31910736	24992
498	18.537747	92876800	61485056	26909912	24992
499	16.404853	92876800	61485056	37321760	24992
500	19.126034	92876800	61485056	32491456	24992
501	20.884248	92876800	61485056	29052192	24992
502	3.615376	92876800	61485056	25527136	24992
503	2.632135	92876800	61485056	27202536	24992
504	3.418499	92876800	61485056	29437816	24992
505	4.46098	92876800	61485056	32234320	24992
506	5.42437	92876800	61485056	35593104	24992
507	6.305047	92876800	61485056	39514904	24992
508	9.38025	92876800	61485056	27986080	24992
509	8.068521	92876800	61485056	33036896	24992
510	8.917549	92876800	61485056	38661776	24992
511	11.785518	92876800	61485056	28904368	24992
512	10.714998	92876800	61485056	35660336	24992
513	14.034759	92876800	61485056	27615824	24992
514	12.541996	92876800	61485056	35527432	24992
515	15.945372	92876800	61485056	28635896	24992
516	14.282166	92876800	61485056	37682624	24992
517	17.418468	92876800	61485056	31562160	24992
518	18.824106	92876800	61485056	27076872	24992
519	17.341177	92876800	61485056	37847024	24992
520	20.955184	92876800	61485056	33425392	24992
521	21.77092	92876800	61485056	30368680	24992
522	1.757571	92876800	61485056	29081464	24992
523	2.605368	92876800	61485056	30815344	24992
524	3.811373	92876800	61485056	33128632	24992
525	4.538432	92876800	61485056	36022568	24992
526	5.447623	92876800	61485056	39505184	24992
527	8.774857	92876800	61485056	27658888	24992
528	7.237299	92876800	61485056	32305432	24992
529	8.191292	92876800	61485056	37543056	24992
530	11.771383	92876800	61485056	27720680	24992
531	10.054923	92876800	61485056	34133104	24992
532	10.955829	92876800	61485056	41142640	24992
533	14.044907	92876800	61485056	32502040	24992
534	12.970513	92876800	61485056	40683360	24992
535	15.979553	92876800	61485056	33275512	24992
536	17.562655	92876800	61485056	27798008	24992
537	15.898816	92876800	61485056	37741264	24992
538	18.995335	92876800	61485056	32647656	24992
539	20.732014	92876800	61485056	29079912	24992
540	18.501145	92876800	61485056	40820864	24992
541	21.658166	92876800	61485056	36963472	24992
542	1.909983	92876800	61485056	35012472	24992
543	2.834112	92876800	61485056	36805176	24992
544	3.951398	92876800	61485056	39196528	24992
545	4.826897	92876800	61485056	42201584	24992
546	7.949369	92876800	62009344	29545336	24992
547	6.550127	92876800	62009344	33744160	24992
548	7.716073	92876800	62009344	38541952	24992
549	11.015957	92876800	62533632	28239096	24992
550	9.368941	92876800	62533632	34263544	24992
551	10.521921	92876800	62533632	40879208	24992
552	13.448637	92876800	62533632	31993128	24992
553	12.353574	92876800	62533632	39825816	24992
554	15.548153	93147136	62533632	32355424	24992
555	14.081023	93147136	62533632	41406376	24992
556	17.389933	93147136	62533632	34882136	24992
557	18.901242	93147136	62533632	30131064	24992
558	17.110355	93147136	62533632	41057248	24992
559	20.635145	93147136	62533632	36464488	24992
560	21.860626	93147136	62533632	33330144	24992
561	23.418158	93417472	62533632	31370512	24992
562	1.990042	93417472	62533632	31071016	24992
563	2.930307	93417472	62533632	32959648	24992
564	3.810203	93417472	62533632	35469784	24992
565	4.998923	93417472	62533632	38596312	24992
566	5.804338	93417472	62533632	42350464	24992
567	9.085617	93417472	62533632	30529704	24992
568	7.615589	93417472	62533632	35548104	24992
569	8.886765	93417472	62533632	41197984	24992
570	11.59609	93417472	62533632	31366704	24992
571	10.666153	93417472	62533632	38270016	24992
572	14.271594	93687808	62533632	30232296	24992
573	12.432902	93687808	62533632	38410904	24992
574	16.570193	93687808	63057920	31650080	24992
575	14.678814	93687808	63057920	41096880	24992
576	17.657472	93687808	63057920	35153584	24992
577	19.468739	93687808	63057920	30855888	24992
578	17.68921	93687808	63057920	42224432	24992
579	21.025261	93687808	63057920	38009584	24992
580	23.032561	93958144	63057920	35184520	24992
581	24.187993	93958144	63057920	33469464	24992
582	2.034021	93958144	63057920	33408600	24992
583	3.135755	93958144	63057920	35338304	24992
584	4.150093	93958144	63057920	37912800	24992
585	4.923033	93958144	63057920	41137776	24992
586	8.109637	93958144	63057920	29095520	24992
587	7.365606	93958144	63057920	33631360	24992
588	8.083487	93958144	63057920	38810120	24992
589	11.546839	93958144	63057920	29063128	24992
590	10.150725	93958144	63057920	35530232	24992
591	11.198097	93958144	63057920	42652936	24992
592	14.580323	94228480	63057920	34249312	24992
593	13.305849	94228480	63057920	42691176	24992
594	16.563925	94228480	63057920	35582568	24992
595	18.329806	94228480	63057920	30313344	24992
596	16.44296	94228480	63057920	40719896	24992
597	19.610652	94228480	63057920	35888864	24992
598	21.415444	94228480	63582208	32601944	24992
599	22.893638	94498816	63582208	30530120	24992
600	20.595194	94498816	63582208	43572776	24992
601	23.684263	94498816	63582208	40964704	24992
602	2.005643	94498816	63582208	40153384	24992
603	3.013157	94498816	63582208	42141616	24992
604	6.359091	94498816	63582208	28806320	24992
605	5.561369	94498816	63582208	32124192	24992
606	6.108549	94498816	63582208	36108768	24992
607	7.219875	94498816	63582208	40760624	24992
608	10.740166	94769152	63582208	30306840	24992
609	9.194727	94769152	63582208	36296152	24992
610	10.398974	94769152	63582208	42965000	24992
611	13.558808	94769152	63582208	34120024	24992
612	12.557349	94769152	63582208	42130632	24992
613	16.373265	94769152	63582208	34806184	24992
614	15.064448	94769152	63582208	44159464	24992
615	17.88555	94769152	64106496	37816088	24992
616	20.235963	94769152	64106496	33227504	24992
617	21.038577	94769152	64106496	30161576	24992
618	18.880345	94769152	64106496	42224920	24992
619	23.061262	95039488	64106496	38955696	24992
620	24.060874	95039488	64106496	36955496	24992
621	25.666293	95039488	64106496	35999688	24992
622	2.1605	95039488	64106496	36599400	24992
623	3.073096	95039488	64106496	38646224	24992
624	4.24226	95039488	64106496	41376800	24992
625	7.792838	95309824	64106496	29088120	24992
626	6.57392	95309824	64106496	33190520	24992
627	7.494113	95309824	64106496	37980488	24992
628	8.690377	95309824	64106496	43460104	24992
629	12.157276	95309824	64106496	33453704	24992
630	10.835051	95309824	64106496	40319880	24992
631	14.476302	95309824	64106496	32280824	24992
632	12.835782	95309824	64106496	40540120	24992
633	16.801042	95309824	64106496	33892960	24992
634	15.326776	95309824	64106496	43539184	24992
635	18.472275	95309824	64630784	37668024	24992
636	20.672339	95580160	64630784	33584592	24992
637	22.044721	95580160	64630784	30939056	24992
638	19.372641	95580160	64630784	43380272	24992
639	23.267763	95580160	64630784	40400712	24992
640	24.377638	95580160	64630784	38649432	24992
641	26.124771	95580160	64630784	37945584	24992
642	2.238153	95580160	64630784	38776056	24992
643	3.337261	95580160	64630784	40881552	24992
644	4.315839	95580160	64630784	43690264	24992
645	8.09765	95850496	65155072	31232368	24992
646	6.533404	95850496	65155072	35451104	24992
647	7.864055	95850496	65155072	40376048	24992
648	11.286618	95850496	65155072	30537176	24992
649	9.841046	95850496	65155072	36877544	24992
650	11.251878	95850496	65155072	43928088	24992
651	14.710151	95850496	65155072	35544672	24992
652	13.474162	95850496	65155072	44045120	24992
653	16.514546	95850496	65155072	37054360	24992
654	18.700862	95850496	65155072	32051704	24992
655	16.511604	96120832	65155072	42662600	24992
656	20.585627	96120832	65155072	38061400	24992
657	21.670693	96120832	65155072	35036912	24992
658	23.48794	96120832	65155072	33248280	24992
659	25.263197	96120832	65155072	32566712	24992
660	26.82159	96120832	65155072	32730024	24992
661	27.4726	96120832	65155072	33603920	24992
662	2.315873	96120832	65155072	35812888	24992
663	3.439836	96120832	65155072	37976768	24992
664	4.372036	96120832	65155072	40863456	24992
665	5.759492	96120832	65155072	44473952	24992
666	9.602333	96391168	65679360	32740040	24992
667	7.892971	96391168	65679360	37801424	24992
668	9.016508	96391168	65679360	43595776	24992
669	12.889987	96391168	65679360	34199112	24992
670	11.463489	96391168	65679360	41450648	24992
671	15.194056	96391168	65679360	33883632	24992
672	13.869407	96391168	65679360	42611000	24992
673	17.68214	96661504	65679360	36265112	24992
674	19.441105	96661504	65679360	31823152	24992
675	16.980806	96661504	65679360	42729856	24992
676	21.304275	96661504	65679360	38580664	24992
677	23.388441	96661504	65679360	35969024	24992
678	24.334511	96661504	65679360	34520472	24992
679	25.578151	96661504	65679360	34111848	24992
680	26.695916	96661504	65679360	34474064	24992
681	27.982351	96931840	65679360	35570968	24992
682	2.353809	96931840	65679360	37928880	24992
683	3.489046	96931840	65679360	40151240	24992
684	4.69989	96931840	65679360	43116160	24992
685	8.5244	96931840	65679360	31160112	24992
686	7.363914	96931840	65679360	35622016	24992
687	8.240087	96931840	65679360	40826432	24992
688	12.272442	96931840	66203648	31407832	24992
689	10.253369	96931840	66203648	38126952	24992
690	11.602908	96931840	66203648	45596304	24992
691	15.255687	97202176	66727936	37614232	24992
692	14.237864	97202176	66727936	46558744	24992
693	17.699733	97202176	66727936	39844648	24992
694	19.495753	97202176	66727936	35176136	24992
695	17.898182	97202176	66727936	46384800	24992
696	21.294605	97202176	66727936	42029704	24992
697	23.16496	97202176	66727936	39238216	24992
698	25.044739	97202176	66727936	37650568	24992
699	26.020229	97202176	66727936	37162704	24992
700	27.589619	97472512	66727936	37460680	24992
701	28.702225	97472512	66727936	38522936	24992
702	2.343059	97472512	66727936	41006768	24992
703	3.52078	97472512	66727936	43287608	24992
704	5.035394	97472512	66727936	46331720	24992
705	8.334952	97472512	66727936	33953784	24992
706	7.148828	97472512	66727936	38523720	24992
707	8.563738	97742848	66727936	43864400	24992
708	12.555794	97742848	66727936	34206712	24992
709	10.920372	97742848	66727936	41093648	24992
710	15.150467	97742848	66727936	33425752	24992
711	13.459652	97742848	66727936	41834504	24992
712	17.463444	97742848	66727936	35591168	24992
713	15.93391	97742848	66727936	45548968	24992
714	19.614806	97742848	67252224	40171552	24992
715	21.531755	97742848	67252224	36592216	24992
716	22.911663	97742848	67252224	34391688	24992
717	20.680799	97742848	67252224	47462544	24992
718	23.824234	98013184	67252224	44867640	24992
719	26.156839	98013184	67252224	43562440	24992
720	27.913964	98013184	67252224	43225080	24992
721	28.503982	98013184	67252224	43779912	24992
722	2.495364	98013184	67252224	45799160	24992
723	6.451042	98283520	67252224	32202424	24992
724	4.819968	98283520	67252224	35323184	24992
725	6.353615	98283520	67252224	39226288	24992
726	7.585723	98283520	67252224	43963328	24992
727	11.373353	98283520	67252224	33712176	24992
728	10.132048	98283520	67252224	39968496	24992
729	11.02454	98283520	67252224	47084952	24992
730	14.964604	98283520	67252224	38628944	24992
731	13.681168	98283520	67252224	47247600	24992
732	17.211774	98283520	67252224	40358800	24992
733	19.141464	98283520	67252224	35510360	24992
734	17.419533	98283520	67252224	46502760	24992
735	20.968774	98283520	67252224	42119912	24992
736	23.765879	98553856	67776512	39398856	24992
737	24.647552	98553856	67776512	37867560	24992
738	26.090505	98553856	67776512	37406320	24992
739	27.769615	98553856	67776512	37893200	24992
740	28.628218	98553856	67776512	39033088	24992
741	30.314395	98553856	67776512	40836344	24992
742	2.555769	98553856	67776512	43995128	24992
743	3.998573	98553856	67776512	46392952	24992
744	7.852966	98824192	67776512	33683640	24992
745	6.471017	98824192	67776512	37690128	24992
746	7.535358	98824192	67776512	42493840	24992
747	8.908863	98824192	67776512	48101552	24992
748	12.492735	98824192	67776512	38232752	24992
749	11.467079	98824192	67776512	45481792	24992
750	15.544663	98824192	67776512	37656320	24992
751	14.190016	98824192	67776512	46493472	24992
752	18.026869	98824192	67776512	40128296	24992
753	19.925592	99094528	67776512	35740112	24992
754	17.696975	99094528	67776512	47007608	24992
755	21.57049	99094528	67776512	42918872	24992
756	23.739393	99094528	67776512	40426976	24992
757	25.288175	99094528	67776512	39235152	24992
758	26.447209	99094528	68300800	39049912	24992
759	28.711483	99094528	68825088	39692904	24992
760	28.92979	99094528	68825088	41064528	24992
761	30.889731	99364864	68825088	43020776	24992
762	2.622178	99364864	68825088	46312960	24992
763	3.899596	99364864	68825088	48769264	24992
764	7.83798	99364864	68825088	35766136	24992
765	6.218807	99364864	68825088	39882568	24992
766	7.935625	99364864	68825088	44816344	24992
767	11.886898	99364864	68825088	34925400	24992
768	10.473121	99364864	68825088	41495872	24992
769	11.93401	99364864	68825088	48889704	24992
770	15.53455	99635200	68825088	40734864	24992
771	17.426223	99635200	68825088	34937440	24992
772	15.982863	99635200	68825088	44834728	24992
773	20.038746	99635200	68825088	39912384	24992
774	21.98351	99635200	68825088	36774928	24992
775	19.929532	99635200	68825088	49169464	24992
776	23.409027	99635200	68825088	45970392	24992
777	25.587437	99635200	68825088	44164960	24992
778	26.715309	99635200	68825088	43503216	24992
779	28.506658	99905536	68825088	43839800	24992
780	29.654577	99905536	68825088	44983936	24992
781	31.595563	99905536	69349376	46722808	24992
782	5.261497	100175872	69349376	33872000	24992
783	3.943818	100175872	69349376	36387152	24992
784	5.650999	100175872	69349376	39745416	24992
785	6.777973	100175872	69349376	43969048	24992
786	8.170327	100175872	69349376	49006912	24992
787	11.728194	100175872	69349376	38597056	24992
788	10.788474	100175872	69349376	45348464	24992
789	15.235472	100175872	69349376	37290752	24992
790	13.568649	100175872	69349376	45710160	24992
791	18.063417	100175872	69349376	39305200	24992
792	15.8228	100175872	69349376	49416592	24992
793	19.911964	100175872	69349376	44055624	24992
794	22.306001	100175872	69349376	40490768	24992
795	23.996105	100175872	69349376	38441936	24992
796	24.931638	100175872	69349376	37666904	24992
797	26.963708	100446208	69349376	37888624	24992
798	27.859004	100446208	69349376	38938768	24992
799	29.347388	100446208	69349376	40566840	24992
800	30.610844	100446208	69349376	42791784	24992
801	32.465753	100446208	69349376	45560024	24992
802	2.624716	100446208	69873664	49537792	24992
803	6.610222	100716544	69873664	35966432	24992
804	5.318354	100716544	69873664	39405496	24992
805	6.723282	100716544	69873664	43709848	24992
806	8.081858	100716544	69873664	48871936	24992
807	12.338494	100716544	69873664	38732120	24992
808	10.851276	100716544	69873664	45615080	24992
809	15.522379	100716544	69873664	37832280	24992
810	13.719454	100716544	69873664	46459760	24992
811	18.346004	100716544	69873664	40259968	24992
812	19.938576	100716544	69873664	36040232	24992
813	17.867584	100716544	69873664	47254136	24992
814	22.743165	100716544	69873664	43555448	24992
815	24.426384	100986880	69873664	41358984	24992
816	26.594215	100986880	69873664	40441320	24992
817	26.951892	100986880	69873664	40569448	24992
818	28.843283	100986880	69873664	41565288	24992
819	30.100386	100986880	69873664	43298632	24992
820	31.844125	100986880	69873664	45558440	24992
821	32.619197	100986880	69873664	48275648	24992
822	5.407406	101257216	70397952	36080784	24992
823	4.053661	101257216	70397952	38715832	24992
824	5.382704	101257216	70397952	42226536	24992
825	6.733581	101257216	70397952	46624832	24992
826	11.437914	101257216	70397952	36217336	24992
827	10.25317	101257216	70397952	42372376	24992
828	10.928049	101257216	70397952	49413096	24992
829	15.610867	101257216	70397952	41206752	24992
830	14.278738	101257216	70397952	50012480	24992
831	17.939659	101527552	70397952	43445672	24992
832	20.409589	101527552	70922240	39004704	24992
833	18.069934	101527552	70922240	50470280	24992
834	22.248636	101527552	70922240	46537184	24992
835	24.422124	101527552	70922240	44149616	24992
836	26.260202	101527552	70922240	43112736	24992
837	27.595705	101527552	70922240	43177064	24992
838	29.487623	101527552	70922240	44103176	24992
839	30.724767	101527552	70922240	45780176	24992
840	32.150743	101797888	70922240	48074416	24992
841	33.159049	101797888	70922240	50952936	24992
842	2.866849	101797888	70922240	41715232	24992
843	4.207444	101797888	70922240	44455000	24992
844	5.98963	101797888	70922240	48109552	24992
845	10.13813	102068224	70922240	36976152	24992
846	8.552767	102068224	70922240	42478480	24992
847	9.684621	102068224	70922240	48883608	24992
848	14.495603	102068224	70922240	40252800	24992
849	13.034743	102068224	70922240	48503880	24992
850	17.556397	102068224	70922240	41867864	24992
851	19.134907	102068224	70922240	37348840	24992
852	17.006018	102068224	70922240	48408632	24992
853	22.222143	102068224	71446528	44623768	24992
854	23.603908	102068224	71446528	42410512	24992
855	25.66611	102068224	71446528	41488992	24992
856	26.792931	102068224	71446528	41717392	24992
857	27.888801	102338560	71446528	42798080	24992
858	29.767654	102338560	71446528	44655720	24992
859	31.661003	102338560	71446528	47161712	24992
860	32.837244	102338560	71446528	50109376	24992
861	38.464944	102608896	71446528	40286088	24992
862	3.233921	105582592	74592256	50451896	24992
863	4.837045	105582592	74592256	53285184	24992
864	10.488973	105852928	75116544	41291880	24992
865	8.116962	105852928	75116544	46041320	24992
866	9.244158	105852928	75116544	51717944	24992
867	15.169249	105852928	75116544	42552880	24992
868	19.321056	105852928	75116544	50129728	24992
869	21.386706	104026112	73543680	20769008	24992
870	15.985239	104292352	73543680	15430304	24992
871	15.956141	104292352	73543680	25865216	24992
872	18.283962	104292352	73543680	21426560	24992
873	20.009994	104292352	73543680	18764920	24992
874	21.663909	104292352	73543680	17611112	24992
875	24.066732	104292352	73543680	17565344	24992
876	25.111756	104292352	73543680	18486032	24992
877	26.551601	104292352	73543680	20178208	24992
878	28.447554	104292352	73543680	22496944	24992
879	28.813818	104292352	73543680	25429584	24992
880	30.902322	104292352	73543680	28788928	24992
881	33.436846	104292352	73543680	19097680	24992
882	2.954692	104292352	73543680	26708144	24992
883	4.392988	104292352	73543680	29603376	24992
884	6.348863	104292352	73543680	17252040	24992
885	7.14565	104292352	73543680	22097616	24992
886	8.850798	104292352	73543680	27892032	24992
887	10.90731	104292352	73543680	18592400	24992
888	11.905083	104292352	73543680	26348768	24992
889	14.329333	104292352	73543680	19251552	24992
890	14.591914	104292352	73543680	28934064	24992
891	16.523713	104292352	73543680	23310160	24992
892	18.97195	104292352	73543680	19684816	24992
893	20.732178	104292352	73543680	17696312	24992
894	22.196783	104292352	73543680	17000408	24992
895	24.311321	104292352	73543680	17462096	24992
896	25.985284	104292352	73543680	18787328	24992
897	26.949881	104292352	73543680	20872688	24992
898	28.103022	104292352	73543680	23619112	24992
899	29.586393	104292352	73543680	26818632	24992
900	33.004889	104292352	73543680	17356712	24992
901	36.319747	104292352	73543680	26419024	24992
902	3.549472	104292352	73543680	17786872	24992
903	4.475317	104292352	73543680	20740608	24992
904	6.13972	104292352	73543680	24684584	24992
905	7.451596	104292352	73543680	29598808	24992
906	10.1251	104292352	73543680	19822704	24992
907	10.493436	104292352	73543680	26709744	24992
908	12.803959	104292352	73543680	19421280	24992
909	13.124993	104292352	73543680	28287648	24992
910	16.035245	104292352	73543680	22743272	24992
911	16.412675	104292352	73543680	33640264	24992
912	18.453177	104292352	73543680	29074584	24992
913	20.383071	104292352	73543680	26341320	24992
914	23.020701	104292352	73543680	25074392	24992
915	24.066377	104292352	73543680	25030760	24992
916	26.406156	104292352	73543680	25990520	24992
917	27.370903	104292352	73543680	27731656	24992
918	28.755172	104292352	73543680	30222904	24992
919	30.415021	104292352	73543680	33316376	24992
920	32.964503	104292352	73543680	23394736	24992
921	33.445042	104292352	73543680	29734120	24992
922	3.047216	104833024	73543680	24181920	24992
923	4.55578	104833024	73543680	27186456	24992
924	6.133182	104833024	73543680	31214288	24992
925	11.018305	105373696	74067968	23202504	24992
926	9.303006	105373696	74067968	29230960	24992
927	10.711147	105373696	74067968	36276776	24992
928	12.762957	105373696	74067968	28236792	24992
929	14.012843	105373696	74067968	37303664	24992
930	15.435356	105373696	74067968	31011872	24992
931	18.146849	105373696	74067968	26875784	24992
932	20.299313	105373696	74067968	24418968	24992
933	20.295887	105373696	74067968	37508600	24992
934	21.68836	105373696	74067968	35160808	24992
935	23.981973	105373696	74067968	34335488	24992
936	25.873832	105373696	74067968	34662776	24992
937	27.188671	105373696	74067968	35892800	24992
938	31.055435	105373696	74067968	24698240	24992
939	33.790999	105373696	74067968	32670384	24992
940	33.130158	105373696	74067968	37869904	24992
941	36.06603	105373696	74067968	30081336	24992
942	3.135063	105373696	74067968	42249008	24992
943	5.634684	105373696	74067968	29762400	24992
944	5.955846	105373696	74067968	33890624	24992
945	8.008835	105373696	74067968	39050624	24992
946	10.451022	105373696	74067968	29853056	24992
947	11.095462	105373696	74067968	37038144	24992
948	13.845595	105373696	74067968	30221328	24992
949	14.079798	105373696	74067968	39604032	24992
950	17.184504	105373696	74067968	34311496	24992
951	17.608123	105373696	74067968	31197640	24992
952	18.757828	105373696	74067968	43766912	24992
953	20.800754	105373696	74067968	40804912	24992
954	23.133352	105373696	74067968	39415160	24992
955	24.911005	105373696	74067968	39436528	24992
956	28.316265	105373696	74067968	40517496	24992
957	27.885704	105373696	74592256	42407264	24992
958	29.569686	105373696	74592256	45023504	24992
959	32.25645	105644032	74592256	34571560	24992
960	33.548465	105644032	74592256	40624376	24992
961	36.70303	105914368	74592256	33826992	24992
962	3.222544	105914368	74592256	46470416	24992
963	5.70241	105914368	74592256	33952864	24992
964	6.354569	105914368	74592256	38116816	24992
965	7.861779	105914368	74592256	43364384	24992
966	10.807662	105914368	74592256	34266184	24992
967	11.244402	105914368	74592256	41590312	24992
968	13.891215	105914368	74592256	34885064	24992
969	14.793264	105914368	74592256	44274472	24992
970	17.140677	105914368	74592256	39221848	24992
971	19.554508	105914368	74592256	36127984	24992
972	19.328912	105914368	74592256	48704984	24992
973	21.388158	105914368	74592256	46113744	24992
974	23.993544	105914368	74592256	44875640	24992
975	25.367376	105914368	74592256	44901360	24992
976	26.402082	105914368	74592256	45990504	24992
977	28.725299	105914368	74592256	47917888	24992
978	31.79923	105914368	74592256	37277672	24992
979	35.815703	105914368	74592256	45990912	24992
980	34.162173	105914368	74592256	51919168	24992
981	37.353996	105914368	74592256	44361824	24992
982	4.137519	105914368	74592256	37765528	24992
983	5.122028	105914368	74592256	40945896	24992
984	6.791067	105914368	74592256	45187800	24992
985	8.193529	105914368	74592256	50531616	24992
986	10.526621	105914368	74592256	41010096	24992
987	11.440196	105914368	74592256	48468984	24992
988	14.659936	105914368	74592256	41451992	24992
989	14.571796	105914368	74592256	51017176	24992
990	17.162022	105914368	74592256	45587056	24992
991	19.407087	105914368	74592256	42221704	24992
992	21.728575	105914368	74592256	40631568	24992
993	23.424354	105914368	74592256	40314560	24992
994	24.725653	105914368	74592256	41156384	24992
995	27.402108	105914368	74592256	43014640	24992
996	28.58448	105914368	74592256	45503560	24992
997	29.42577	105914368	74592256	48669544	24992
998	31.350453	105914368	74592256	52339088	24992
999	34.093666	105914368	74592256	43108280	24992
1000	35.277372	105914368	74592256	49895288	24992
