x	Duration	RSS	HeapTotal	HeapUsed	External
0	NA	111620096	80359424	30734944	24992
1	0.371728	111620096	80359424	30782664	24992
2	0.399057	111620096	80359424	30858960	24992
3	0.473849	111620096	80359424	30962248	24992
4	0.766889	111620096	80359424	31094032	24992
5	0.48738	111620096	80359424	31255808	24992
6	0.566306	111620096	80359424	31448080	24992
7	0.645964	111620096	80359424	31671720	24992
8	0.747696	111620096	80359424	31927824	24992
9	1.012086	111620096	80359424	32218208	24992
10	0.919829	111620096	80359424	32543616	24992
11	1.027248	111620096	80359424	32904848	24992
12	1.131235	111620096	80359424	33302976	24992
13	1.152649	111620096	80359424	33738936	24992
14	0.736322	111620096	80359424	34213776	24992
15	1.203908	111620096	80359424	18321240	24992
16	0.937573	111620096	80359424	18876648	24992
17	0.987381	111620096	80359424	19475696	24992
18	0.985566	111620096	80359424	20117488	24992
19	1.038069	111620096	80359424	20804536	24992
20	1.312478	111620096	80359424	21535848	24992
21	1.208641	111620096	80359424	22313168	24992
22	0.169043	111620096	80359424	23108536	24992
23	0.252567	111620096	80359424	23250784	24992
24	0.323844	111620096	80359424	23443008	24992
25	0.429568	111620096	80359424	23686240	24992
26	0.505613	111620096	80359424	23982136	24992
27	0.551227	111620096	80359424	24330832	24992
28	0.63472	111620096	80359424	24733448	24992
29	0.710364	111620096	80359424	25190976	24992
30	0.805764	111620096	80359424	25705344	24992
31	0.888855	111620096	80359424	26276576	24992
32	0.9636	111620096	80359424	26905896	24992
33	1.052363	111620096	80359424	27593760	24992
34	1.165907	111620096	80359424	28341448	24992
35	1.288636	111620096	80359424	29149912	24992
36	1.360496	111620096	80359424	30020112	24992
37	1.62465	111620096	80359424	30953024	24992
38	1.755239	111620096	80359424	31951400	24992
39	1.609641	111620096	80359424	33014480	24992
40	1.709869	111620096	80359424	34143712	24992
41	2.926134	111620096	80359424	19101928	24992
42	0.232002	111620096	80359424	20365160	24992
43	0.345227	111620096	80359424	20569208	24992
44	0.445711	111620096	80359424	20842704	24992
45	0.564141	111620096	80359424	21188088	24992
46	0.690156	111620096	80359424	21605432	24992
47	0.773636	111620096	80359424	22095944	24992
48	0.877519	111620096	80359424	22660552	24992
49	0.987058	111620096	80359424	23300448	24992
50	1.113758	111620096	80359424	24019328	24992
51	1.219635	111620096	80359424	24817296	24992
52	1.339195	111620096	80359424	25695360	24992
53	1.457978	111620096	80359424	26654496	24992
54	1.571323	111620096	80359424	27695736	24992
55	1.929282	111620096	80359424	28819984	24992
56	1.819867	111620096	80359424	30028408	24992
57	2.018843	111620096	80359424	31321776	24992
58	2.086517	111620096	80359424	32702856	24992
59	2.21074	111620096	80359424	34171144	24992
60	3.540651	111620096	80359424	19550264	24992
61	2.464669	111620096	80359424	21195536	24992
62	0.288837	111620096	80359424	22954512	24992
63	0.430648	111620096	80359424	23225328	24992
64	0.582387	111620096	80359424	23587952	24992
65	0.708107	111620096	80359424	24043728	24992
66	0.852755	111620096	80359424	24593520	24992
67	0.981683	111620096	80359424	25238016	24992
68	1.127609	111620096	80359424	25978880	24992
69	1.294669	111620096	80359424	26815760	24992
70	1.444855	111620096	80359424	27751336	24992
71	1.552187	111620096	80359424	28785672	24992
72	1.709434	111620096	80359424	29919416	24992
73	1.853667	111620096	80359424	31153872	24992
74	2.022951	111620096	80359424	32489824	24992
75	2.15434	111620096	80359424	33928392	24992
76	3.337349	111620096	80359424	19322128	24992
77	2.658505	111620096	80359424	20968784	24992
78	2.81552	111620096	80359424	22722680	24992
79	2.842737	111620096	80359424	24585272	24992
80	3.163829	111620096	80359424	26553576	24992
81	3.205584	111620096	80359424	28631176	24992
82	0.350951	111620096	80359424	30865536	24992
83	0.525243	111620096	80359424	31194784	24992
84	0.688113	111620096	80359424	31637624	24992
85	0.856614	111620096	80359424	32192808	24992
86	1.069146	111620096	80359424	32862992	24992
87	1.199745	111620096	80359424	33648448	24992
88	1.360607	111620096	80359424	34550896	24992
89	2.248081	111620096	80359424	19339344	24992
90	1.846538	111620096	80359424	20477856	24992
91	2.036055	111620096	80359424	21735672	24992
92	2.222014	111620096	80359424	23113664	24992
93	2.605687	111620096	80359424	24612792	24992
94	2.615994	111620096	80359424	26238032	24992
95	2.656094	111620096	80359424	27982552	24992
96	2.807118	111620096	80359424	29851432	24992
97	3.199064	111620096	80359424	31845264	24992
98	3.173068	111620096	80359424	33967496	24992
99	4.148819	111620096	80359424	20077392	24992
100	3.833235	111620096	80359424	22454688	24992
101	4.020429	111620096	80359424	24961080	24992
102	0.420775	111620096	80359424	27680888	24992
103	0.619979	111620096	80359424	28084536	24992
104	0.816112	111620096	80359424	28628032	24992
105	1.207047	111620096	80359424	29304960	24992
106	1.236251	111620096	80359424	30120456	24992
107	1.415582	111620096	80359424	31075016	24992
108	1.630065	111620096	80359424	32169472	24992
109	1.824566	111620096	80359424	33404992	24992
110	2.322089	111620096	80359424	34784096	24992
111	2.845047	111620096	80359424	20057112	24992
112	2.683838	111620096	80359424	21722384	24992
113	2.709016	111620096	80359424	23532608	24992
114	2.892024	111620096	80359424	25488624	24992
115	3.100555	111620096	80359424	27591560	24992
116	3.350683	111620096	80359424	29842336	24992
117	3.53702	111620096	80359424	32241928	24992
118	3.735632	111620096	80359424	34794080	24992
119	4.778317	111620096	80359424	21244384	24992
120	4.196938	111620096	80359424	24098336	24992
121	4.428166	111620096	80359424	27104928	24992
122	0.504592	111620096	80359424	30364728	24992
123	0.759039	111620096	80359424	30827312	24992
124	0.962999	111620096	80359424	31445080	24992
125	1.169712	111620096	80359424	32219448	24992
126	1.406454	111620096	80359424	33151920	24992
127	1.638925	111620096	80359424	34247824	24992
128	1.917395	111620096	80359424	35498400	24992
129	2.633126	111620096	80359424	20575312	24992
130	2.42081	111620096	80359424	22148808	24992
131	2.638139	111620096	80359424	23884672	24992
132	2.810848	111620096	80359424	25783920	24992
133	3.300712	111620096	80359424	27848768	24992
134	3.362362	111620096	80359424	30077784	24992
135	4.344289	111620096	80359424	32473208	24992
136	4.349044	111620096	80359424	35044856	24992
137	4.622287	111620096	80359424	21525000	24992
138	4.588972	111620096	80359424	24427192	24992
139	4.609228	111620096	80359424	27505936	24992
140	4.798553	111620096	80359424	30751968	24992
141	5.056829	111620096	80359424	34170680	24992
142	0.575903	111620096	80359424	21873240	24992
143	1.070648	111620096	80359424	22399376	24992
144	1.099872	111620096	80359424	23102448	24992
145	1.359128	111620096	80359424	23983472	24992
146	1.586796	111620096	80359424	25043960	24992
147	1.901473	111620096	80359424	26284248	24992
148	2.11095	111620096	80359424	27708152	24992
149	2.391283	111620096	80359424	29311576	24992
150	2.861017	111620096	80359424	31098432	24992
151	2.910856	111620096	80359424	33069000	24992
152	3.186125	111620096	80359424	35224304	24992
153	4.305604	111620096	80359424	21495888	24992
154	3.990974	111620096	80359424	24026224	24992
155	4.066838	111620096	80359424	26743504	24992
156	4.288981	111620096	80359424	29647672	24992
157	4.939096	111620096	80359424	32741768	24992
158	5.223941	111620096	80359424	36027912	24992
159	6.247669	111620096	80359424	23306816	24992
160	5.437071	111620096	80359424	26979560	24992
161	5.921364	111620096	80359424	30845424	24992
162	0.601023	111620096	80359424	35047848	24992
163	0.889998	111620096	80359424	35632552	24992
164	1.188443	111620096	80359424	36413664	24992
165	2.106856	111620096	80359424	21186760	24992
166	1.803968	111620096	80359424	22368008	24992
167	2.053493	111620096	80359424	23745208	24992
168	2.364554	111620096	80359424	25323080	24992
169	2.639288	111620096	80359424	27101744	24992
170	3.17397	111620096	80359424	29083568	24992
171	3.252715	111620096	80359424	31268728	24992
172	3.60302	111620096	80359424	33660760	24992
173	4.073875	111620096	80359424	36257192	24992
174	4.869609	111620096	80359424	22876360	24992
175	4.482263	111620096	80359424	25884384	24992
176	4.798729	111620096	80359424	29101712	24992
177	5.124309	111620096	80359424	32532136	24992
178	5.61695	111620096	80359424	36172840	24992
179	7.001529	111620096	80359424	23858000	24992
180	6.495538	111620096	80359424	27927288	24992
181	6.45689	111620096	80359424	32200968	24992
182	0.659206	111620096	80359424	36860848	24992
183	1.717804	111620096	80359424	21306424	24992
184	1.39819	111620096	80359424	22165504	24992
185	1.726309	111620096	80359424	23244008	24992
186	2.213503	111620096	80359424	24538504	24992
187	2.280219	111620096	80359424	26051928	24992
188	2.59176	111620096	80359424	27787888	24992
189	2.926669	111620096	80359424	29741952	24992
190	3.291786	111620096	80359424	31918696	24992
191	3.596087	111620096	80359424	34318416	24992
192	4.065285	111620096	80359424	36941768	24992
193	5.219427	111620096	80359424	23564848	24992
194	4.66067	111620096	80359424	26639064	24992
195	4.97574	111620096	80359424	29943600	24992
196	5.668793	111620096	80359424	33471800	24992
197	5.622372	111620096	80359424	37228664	24992
198	6.786522	111620096	80359424	24952728	24992
199	6.747931	111620096	80359424	29171416	24992
200	6.655702	111620096	80359424	33622184	24992
201	8.767761	111620096	80359424	22668344	24992
202	1.201336	111620096	80359424	27786584	24992
203	1.090932	111620096	80359424	28488320	24992
204	1.422425	111620096	80359424	29425424	24992
205	1.833612	111620096	80359424	30604944	24992
206	2.179051	111620096	80359424	32016440	24992
207	2.729321	111620096	80359424	33674632	24992
208	3.077105	111620096	80359424	35587624	24992
209	3.418598	111620096	80359424	37741952	24992
210	4.550446	111620096	80359424	23864120	24992
211	4.373188	111620096	80359424	26520112	24992
212	4.52808	111620096	80359424	29426976	24992
213	4.956825	111620096	80359424	32591576	24992
214	5.383386	111620096	80359424	36006200	24992
215	6.746953	111620096	80359424	23708392	24992
216	6.099243	111620096	80359424	27631080	24992
217	6.323065	111620096	80359424	31810208	24992
218	6.786053	111620096	80359424	36254336	24992
219	8.531092	111620096	80359424	24911464	24992
220	7.565732	111620096	80359424	29868600	24992
221	8.246027	111620096	80359424	35086304	24992
222	0.841524	111620096	80359424	24983296	24992
223	1.242474	111620096	80359424	25768264	24992
224	1.657241	111620096	80359424	26816384	24992
225	2.077186	111620096	80359424	28128776	24992
226	2.608598	111620096	80359424	29706752	24992
227	2.865126	111620096	80359424	31552064	24992
228	3.297243	111620096	80359424	33670808	24992
229	3.724371	111620096	80359424	36056056	24992
230	5.424998	111620096	80359424	22789360	24992
231	4.55099	111620096	80359424	25717856	24992
232	5.178257	111620096	80359424	28923504	24992
233	5.410618	111620096	80359424	32400528	24992
234	5.949525	111620096	80359424	36159664	24992
235	7.34398	111620096	80359424	24249536	24992
236	6.861642	111620096	80359424	28556864	24992
237	7.255179	111620096	80359424	33154808	24992
238	7.517353	111620096	80359424	38024144	24992
239	8.880006	111620096	80359424	26911936	24992
240	8.624841	111620096	80359424	32342544	24992
241	8.842397	111620096	80359424	38055736	24992
242	0.901739	111620096	80359424	28062104	24992
243	1.338565	111620096	80359424	28914120	24992
244	1.978178	111620096	80359424	30051776	24992
245	2.197842	111620096	80359424	31475944	24992
246	2.661332	111620096	80359424	33194024	24992
247	3.104413	111620096	80359424	35195056	24992
248	3.573264	111620096	80359424	37485504	24992
249	5.013086	111620096	80359424	23981768	24992
250	4.461601	111620096	80359424	26854912	24992
251	5.372215	111620096	80359424	30030392	24992
252	5.374829	111620096	80359424	33489928	24992
253	5.998733	111620096	80359424	37249336	24992
254	7.560327	111620096	80359424	25232240	24992
255	6.735656	111620096	80359424	29577448	24992
256	7.401492	111620096	80359424	34220776	24992
257	8.975182	111620096	80359424	23611912	24992
258	8.291462	111620096	80359424	28861320	24992
259	8.589988	111620096	80359424	34403264	24992
260	10.689883	111620096	80359424	24694056	24992
261	9.53997	111620096	80359424	30843576	24992
262	0.955377	111620096	80359424	37568744	24992
263	1.455721	111620096	80359424	38479336	24992
264	3.238321	111620096	80359424	23532704	24992
265	2.406387	111620096	80359424	25063800	24992
266	2.843183	111620096	80359424	26893032	24992
267	3.33302	111620096	80359424	29030360	24992
268	4.072232	111620096	80359424	31476624	24992
269	4.22188	111620096	80359424	34233344	24992
270	5.007146	111620096	80359424	37301528	24992
271	6.442372	111620096	80359424	24722656	24992
272	5.917529	111620096	80359424	28415568	24992
273	6.070693	111620096	80359424	32422648	24992
274	6.89605	111620096	80359424	36751336	24992
275	8.510923	111620096	80359424	25507576	24992
276	8.248158	111620096	80359424	30462928	24992
277	8.613076	111620096	80359424	35735144	24992
278	10.323471	111620096	80359424	25637496	24992
279	9.065232	111620096	80359424	31550304	24992
280	9.695906	111620096	80359424	37791312	24992
281	11.317147	111620096	80359424	28298776	24992
282	1.021612	111620096	80359424	35472480	24992
283	1.473182	111620096	80359424	36441648	24992
284	1.960908	111620096	80359424	37735336	24992
285	2.531202	111620096	80359424	39354576	24992
286	4.094312	111620096	80359424	25093296	24992
287	3.497208	111620096	80359424	27376336	24992
288	4.043303	111620096	80359424	29978616	24992
289	4.475985	111620096	80359424	32910360	24992
290	4.971296	111620096	80359424	36174640	24992
291	5.599106	111620096	80359424	39781264	24992
292	7.034466	111620096	80359424	27401032	24992
293	6.768661	111620096	80359424	31667320	24992
294	7.056236	111620096	80359424	36262240	24992
295	8.901065	111620096	80359424	25483336	24992
296	8.053384	111620096	80359424	30763848	24992
297	8.502861	111620096	80359424	36369016	24992
298	10.615539	111620096	80359424	26600648	24992
299	9.765924	111620096	80359424	32885272	24992
300	10.146323	111620096	80359424	39508792	24992
301	11.805616	111620096	80359424	30231440	24992
302	1.052821	111620096	80359424	37862704	24992
303	1.609337	111620096	80359424	38890328	24992
304	2.12782	111620096	80359424	40262648	24992
305	3.690584	111620096	80359424	25692288	24992
306	3.230422	111620096	80359424	27755616	24992
307	4.1542	111620096	80359424	30169664	24992
308	4.213935	111620096	80359424	32928056	24992
309	4.767295	111620096	80359424	36035312	24992
310	5.366759	111620096	80359424	39493576	24992
311	7.104019	111620096	80359424	27147600	24992
312	6.479651	111620096	80359424	31310072	24992
313	7.204681	111620096	80359424	35827784	24992
314	8.923189	111620096	80359424	25133920	24992
315	8.053185	111620096	80359424	30357168	24992
316	8.607848	111620096	80359424	35935488	24992
317	10.835397	111620096	80359424	26303000	24992
318	9.558853	111620096	80359424	32599416	24992
319	10.177398	111620096	80359424	39264184	24992
320	12.176917	111620096	80359424	30148008	24992
321	11.421947	111620096	80359424	37523288	24992
322	1.159917	111620096	80359424	29807720	24992
323	1.73312	111620096	80359424	30893792	24992
324	2.279074	111620096	80359424	32343424	24992
325	2.81277	111620096	80359424	34157664	24992
326	3.419809	111620096	80359424	36338008	24992
327	3.927315	111620096	80359424	38884848	24992
328	5.984469	111620096	80359424	25827904	24992
329	5.155729	111620096	80359424	29118240	24992
330	5.704873	111620096	80359424	32771616	24992
331	6.268347	111620096	80359424	36797688	24992
332	8.135343	111620096	80359424	25554720	24992
333	7.383661	111620096	80359424	30322208	24992
334	7.946232	111620096	80359424	35463144	24992
335	9.301471	111620096	80359424	40989000	24992
336	10.483491	111620096	80359424	30529600	24992
337	9.547031	111620096	80359424	36797656	24992
338	11.841133	111620096	80359424	27845776	24992
339	10.944481	111620096	80359424	34871872	24992
340	13.426915	111620096	80359424	27019776	24992
341	12.083108	111620096	80359424	34805680	24992
342	1.22801	111620096	80359424	28129176	24992
343	1.797772	111620096	80359424	29273816	24992
344	2.422477	111620096	80359424	30801616	24992
345	2.984483	111620096	80359424	32713416	24992
346	3.619838	111620096	80359424	35010784	24992
347	4.274951	111620096	80359424	37705456	24992
348	4.806802	111620096	80359424	40775776	24992
349	6.623722	111620096	80359424	28047272	24992
350	5.935442	111620096	80359424	31896232	24992
351	6.62056	111620096	80359424	36134568	24992
352	7.229269	111620096	80359424	40763664	24992
353	9.054361	111620096	80359424	29554336	24992
354	8.407774	111620096	80359424	34968608	24992
355	8.99006	111620096	80359424	40781064	24992
356	10.951956	111620096	80359424	30758216	24992
357	10.30125	111620096	80359424	37357760	24992
358	12.47964	111620096	80359424	28768392	24992
359	11.736238	111620096	80359424	36162968	24992
360	14.131784	111620096	80359424	28581536	24992
361	12.766253	111620096	80359424	36783816	24992
362	1.29787	111620096	80359424	30317240	24992
363	1.898052	111620096	80359424	31534024	24992
364	2.518426	111620096	80359424	33157480	24992
365	3.155842	111620096	80359424	35188920	24992
366	3.808543	111620096	80359424	37629896	24992
367	4.473999	111620096	80359424	40480912	24992
368	6.378238	111620096	80359424	27683824	24992
369	5.660066	111620096	80359424	31357792	24992
370	6.290852	111620096	80359424	35446480	24992
371	6.918387	111620096	80359424	39959624	24992
372	9.259853	111620096	80359424	28917472	24992
373	8.055784	111620096	80359424	34258608	24992
374	8.899602	111620096	80359424	40013432	24992
375	11.072045	111620096	80359424	30207504	24992
376	10.234489	111620096	80359424	36796832	24992
377	12.687617	111620096	80359424	28410776	24992
378	11.265096	111620096	80359424	35840328	24992
379	14.031983	111620096	80359424	28434936	24992
380	12.734816	111620096	80359424	36707712	24992
381	15.242483	111620096	80359424	30005400	24992
382	1.340142	111620096	80359424	39549960	24992
383	1.975075	111620096	80359424	40831344	24992
384	2.653287	111620096	80359424	42532816	24992
385	4.513882	111620096	80359424	28336784	24992
386	3.910953	111620096	80359424	30899968	24992
387	4.613151	111620096	80359424	33894152	24992
388	5.235665	111620096	80359424	37315496	24992
389	6.154304	111620096	80359424	41165040	24992
390	8.084552	111620096	80359424	29416208	24992
391	7.216736	111620096	80359424	34144920	24992
392	7.92344	111620096	80359424	39311792	24992
393	10.325383	111620096	80359424	29119160	24992
394	9.326955	111620096	80359424	35141544	24992
395	10.056093	111620096	80359424	41603712	24992
396	12.191056	111620096	80359424	32349680	24992
397	11.399285	111620096	80359424	39709912	24992
398	13.677521	111620096	80359424	31665232	24992
399	12.770499	111620096	80359424	39899488	24992
400	15.101344	111620096	80359424	32674136	24992
401	14.382499	111620096	80359424	41780480	24992
402	1.402329	111620096	80359424	35591792	24992
403	2.0979	111620096	80359424	36925176	24992
404	2.6649	111620096	80359424	38708048	24992
405	3.430567	111620096	80359424	40941888	24992
406	5.599306	111620096	80359424	27664112	24992
407	4.79035	111620096	80359424	30788360	24992
408	5.547867	111620096	80359424	34375368	24992
409	6.203066	111620096	80359424	38423384	24992
410	6.789993	111620096	80359424	42904992	24992
411	8.827911	111620096	80359424	31524480	24992
412	8.322464	111620096	80359424	36909000	24992
413	8.976851	111620096	80359424	42749088	24992
414	11.080964	111620096	80359424	32763384	24992
415	10.274292	111620096	80359424	39517744	24992
416	13.093433	111620096	80359424	31009416	24992
417	11.863682	111620096	80359424	38695312	24992
418	14.560802	111620096	80359424	31304480	24992
419	13.245502	111620096	80359424	39955040	24992
420	15.506409	111620096	80359424	33286120	24992
421	14.859314	111620096	80359424	42884248	24992
422	1.435348	111620096	80359424	37203912	24992
423	2.175306	111620096	80359424	38645336	24992
424	2.902115	111620096	80359424	40584520	24992
425	3.621575	111620096	80359424	42993800	24992
426	5.829829	111620096	80359424	29718912	24992
427	4.889222	111620096	80359424	33094688	24992
428	5.612517	111620096	80359424	36969360	24992
429	6.350678	111620096	80359424	41317920	24992
430	8.996349	111620096	80359424	30179712	24992
431	7.84416	111620096	80359424	35519344	24992
432	8.417162	111620096	80359424	41337168	24992
433	11.14961	111620096	80359424	31667992	24992
434	10.092462	111620096	80359424	38479360	24992
435	12.801784	111620096	80359424	30317896	24992
436	11.601978	111620096	80359424	38121120	24992
437	14.249411	111620096	80359424	31020704	24992
438	13.302883	111620096	80359424	39800320	24992
439	16.007999	111620096	80359424	33401672	24992
440	14.676199	111620096	80359424	43184744	24992
441	16.776365	111620096	80359424	37245144	24992
442	1.542157	111620096	80359424	33345160	24992
443	2.249319	111620096	80359424	34844960	24992
444	2.99741	111620096	80359424	36846216	24992
445	3.693368	111620096	80359424	39350120	24992
446	4.431079	111620096	80359424	42358016	24992
447	6.945771	111620096	80359424	29845600	24992
448	5.806985	111620096	80359424	33870624	24992
449	6.734535	111620096	80359424	38394728	24992
450	7.405632	111620096	80359424	43427136	24992
451	9.62791	111620096	80359424	32733664	24992
452	9.30367	111620096	80359424	38787928	24992
453	11.844123	111620096	80359424	29976648	24992
454	10.673356	111620096	80359424	37074016	24992
455	13.937355	111620096	80359424	29512328	24992
456	11.944608	111620096	80359424	37632256	24992
457	15.254882	111620096	80359424	31035176	24992
458	13.753009	111620096	80359424	40173176	24992
459	16.721199	111620096	80359424	34163632	24992
460	15.115303	111620096	80359424	44332328	24992
461	17.563818	111620096	80359424	38675200	24992
462	1.598949	111620096	80359424	35062752	24992
463	2.403659	111620096	80359424	36624864	24992
464	3.367495	111620096	80359424	38704208	24992
465	4.376017	111620096	80359424	41310256	24992
466	4.872581	111620096	80359424	44435128	24992
467	7.057747	111620096	80359424	31837648	24992
468	6.501895	111620096	80359424	36011416	24992
469	7.134287	111620096	80359424	40710864	24992
470	9.95704	111620096	80359424	30359968	24992
471	8.951993	111620096	80359424	36115120	24992
472	9.60049	111620096	80359424	42506344	24992
473	11.870631	111620096	80359424	33340864	24992
474	11.390835	111620096	80359424	40685560	24992
475	14.366229	111620096	80359424	32933656	24992
476	12.873123	111620096	80359424	41342880	24992
477	16.116634	111620096	80359424	34566064	24992
478	14.638275	111620096	80359424	44048920	24992
479	17.118395	111620096	80359424	37833552	24992
480	19.497997	111620096	80359424	33333368	24992
481	16.902929	111620096	80359424	44422744	24992
482	1.668931	111620096	80359424	40493568	24992
483	2.461565	111620096	80359424	42110432	24992
484	3.285556	111620096	80359424	44267744	24992
485	5.995829	111620096	80359424	30853504	24992
486	4.916145	111620096	80359424	34095320	24992
487	5.852005	111620096	80359424	37911048	24992
488	6.613403	111620096	80359424	42240688	24992
489	9.420188	111620096	80359424	31285312	24992
490	8.412283	111620096	80359424	36707720	24992
491	9.131221	111620096	80359424	42683112	24992
492	11.905397	111620096	80359424	33352288	24992
493	10.80663	111620096	80359424	40419712	24992
494	14.252535	111620096	80359424	32525712	24992
495	12.514773	111620096	80359424	40707392	24992
496	15.661299	111620096	80359424	33876280	24992
497	14.392107	111620096	80359424	43150696	24992
498	17.086553	111620096	80359424	37021008	24992
499	18.82774	111620096	80359424	32548808	24992
500	17.197845	111620096	80359424	43519888	24992
501	19.572046	111620096	80359424	39010144	24992
502	1.737632	111620096	80359424	36444840	24992
503	2.563614	111620096	80359424	38120184	24992
504	3.427037	111620096	80359424	40355424	24992
505	4.466081	111620096	80359424	43151808	24992
506	7.44351	111620096	80359424	30697096	24992
507	6.260215	111620096	80359424	34618896	24992
508	6.878123	111620096	80359424	39120320	24992
509	7.68814	111620096	80359424	44182848	24992
510	10.4579	111620096	80359424	33759864	24992
511	9.395136	111620096	80359424	39944208	24992
512	12.826391	111620096	80359424	31404928	24992
513	11.377355	111620096	80359424	38729000	24992
514	14.613519	111620096	80359424	31538512	24992
515	13.136419	111620096	80359424	40002392	24992
516	16.356289	111620096	80359424	33733200	24992
517	14.554575	111620096	80359424	43360480	24992
518	17.771284	111620096	80359424	37627840	24992
519	19.208565	111620096	80359424	33529256	24992
520	17.36045	111620096	80359424	44879032	24992
521	20.682255	111620096	80359424	40656848	24992
522	1.79571	111620096	80359424	38381296	24992
523	2.675067	111620096	80359424	40115120	24992
524	3.526105	111620096	80359424	42428400	24992
525	4.784039	111620096	80359424	45324320	24992
526	7.322431	111620096	80359424	32708168	24992
527	6.50897	111620096	80359424	36778832	24992
528	7.175699	111620096	80359424	41431032	24992
529	8.093471	111620096	80359424	46670760	24992
530	10.605712	111620096	80359424	36076344	24992
531	9.540178	111620096	80359424	42488736	24992
532	13.329757	111620096	80359424	33842696	24992
533	11.797886	111620096	80359424	41428168	24992
534	15.094416	111620096	80359424	34185312	24992
535	13.581208	111620096	80359424	42961984	24992
536	16.770904	111620096	80359424	36576056	24992
537	15.657267	111620096	80359424	46517984	24992
538	17.864904	111620096	80359424	40743200	24992
539	20.072523	111620096	80359424	36571936	24992
540	20.992729	111620096	80359424	33693952	24992
541	18.704254	111620096	80359424	46026936	24992
542	1.837627	111620096	80359424	43359256	24992
543	2.922057	111620096	80359424	45151928	24992
544	5.773117	111620096	80359424	31611008	24992
545	4.571768	111620096	80359424	34603176	24992
546	5.69295	111620096	80359424	38202600	24992
547	6.417858	111620096	80359424	42400424	24992
548	7.326932	111620096	80359424	47199008	24992
549	10.197399	111620096	80359424	36195304	24992
550	9.147177	111620096	80359424	42204120	24992
551	12.772765	111620096	80359424	33316792	24992
552	10.931525	111620096	80359424	40542416	24992
553	14.913603	111620096	80359424	33190440	24992
554	12.937497	111620096	80359424	41633064	24992
555	16.458372	111620096	80359424	35294736	24992
556	15.014855	111620096	80359424	44979928	24992
557	18.395856	111620096	80359424	39281008	24992
558	19.62597	111620096	80359424	35227432	24992
559	17.756113	111620096	80359424	46785736	24992
560	20.682535	111620096	80359424	42634576	24992
561	22.225059	111620096	80359424	39845256	24992
562	1.912162	111620096	80359424	38813224	24992
563	2.859961	111620096	80359424	40684792	24992
564	3.811984	111620096	80359424	43181248	24992
565	4.919595	111620096	80359424	46304016	24992
566	7.839702	111620096	80359424	34026056	24992
567	6.775455	111620096	80359424	38417192	24992
568	7.81907	111620096	80359424	43432408	24992
569	10.910145	111620096	80359424	33434264	24992
570	9.784804	111620096	80359424	39705944	24992
571	10.533328	111620096	80359424	46621632	24992
572	13.599533	111620096	80359424	37976016	24992
573	12.48053	111620096	80359424	46175088	24992
574	15.865276	111620096	80359424	38895304	24992
575	16.726785	111620096	80359424	33523624	24992
576	15.373044	111620096	80359424	43609400	24992
577	18.802406	111620096	80359424	38691920	24992
578	20.70345	111620096	80359424	35294080	24992
579	18.161194	111620096	80359424	47317936	24992
580	21.89284	111620096	80359424	43653560	24992
581	23.219419	111620096	80359424	41340752	24992
582	1.972428	111620096	80359424	40753672	24992
583	2.940105	111620096	80359424	42683392	24992
584	4.106998	111620096	80359424	45257928	24992
585	7.796829	111620096	80359424	32685768	24992
586	5.961152	111620096	80359424	36553784	24992
587	6.865343	111620096	80359424	41070328	24992
588	8.065985	111620096	80359424	46238208	24992
589	11.123795	111620096	80883712	36081544	24992
590	10.074518	111620096	80883712	42566760	24992
591	13.499596	111620096	80883712	34382352	24992
592	11.915141	111620096	80883712	42169768	24992
593	15.556526	111620096	80883712	35306688	24992
594	14.097245	111620096	80883712	44417632	24992
595	17.459583	111620096	80883712	38498328	24992
596	18.91408	111620096	80883712	34246320	24992
597	17.170909	111620096	80883712	45313656	24992
598	20.472389	111620096	80883712	41183736	24992
599	21.895672	111890432	80883712	38467280	24992
600	23.259232	111890432	80883712	36865960	24992
601	24.159409	111890432	80883712	36285584	24992
602	2.212187	111890432	80883712	37157336	24992
603	3.041815	111890432	80883712	39145736	24992
604	3.971359	111890432	80883712	41801920	24992
605	5.235937	111890432	80883712	45129744	24992
606	8.657627	111890432	80883712	33480224	24992
607	7.04986	111890432	80883712	38132112	24992
608	8.277483	111890432	80883712	43452072	24992
609	11.630658	111890432	80883712	34043200	24992
610	10.210197	111890432	80883712	40727024	24992
611	11.307301	111890432	80883712	48089936	24992
612	14.117427	111890432	80883712	39901520	24992
613	13.460506	111890432	80883712	48578712	24992
614	16.444496	111890432	80883712	41644144	24992
615	18.408325	111890432	80883712	36610656	24992
616	16.327435	111890432	80883712	47331048	24992
617	19.868844	111890432	80883712	42628544	24992
618	21.940666	111890432	80883712	39457616	24992
619	22.634362	111890432	80883712	37542584	24992
620	23.814671	111890432	80883712	36654632	24992
621	26.108418	111890432	80883712	36622488	24992
622	2.111122	111890432	80883712	38064792	24992
623	3.120671	111890432	80883712	40111464	24992
624	4.185303	111890432	80883712	42842720	24992
625	5.583384	111890432	80883712	46275768	24992
626	8.883445	111890432	80883712	34658288	24992
627	7.628914	111890432	80883712	39452856	24992
628	8.34694	111890432	80883712	44930256	24992
629	12.161482	111890432	80883712	35518256	24992
630	10.512019	111890432	80883712	42384424	24992
631	14.476691	111890432	80883712	34847992	24992
632	12.81348	111890432	80883712	43093280	24992
633	16.745327	111890432	80883712	36826776	24992
634	14.852797	111890432	80883712	46457920	24992
635	18.544757	111890432	80883712	40967696	24992
636	20.234335	111890432	80883712	37135944	24992
637	17.889205	111890432	80883712	48871992	24992
638	21.220642	111890432	80883712	45072328	24992
639	22.940245	111890432	80883712	42628288	24992
640	24.530736	111890432	80883712	41329880	24992
641	26.903621	111890432	80883712	41031744	24992
642	2.17815	111890432	80883712	42266480	24992
643	3.242098	111890432	80883712	44373144	24992
644	4.46651	111890432	80883712	47181696	24992
645	8.20436	111890432	80883712	34986488	24992
646	6.553932	111890432	80883712	39206240	24992
647	8.096847	111890432	80883712	44145840	24992
648	8.66841	111890432	80883712	49778056	24992
649	11.677247	111890432	80883712	39804656	24992
650	10.792408	111890432	80883712	46855096	24992
651	14.652805	111890432	80883712	38815304	24992
652	13.160479	111890432	80883712	47287192	24992
653	16.831748	111890432	80883712	40688688	24992
654	18.423181	111890432	80883712	35892728	24992
655	16.529182	111890432	80883712	46503928	24992
656	20.592698	111890432	80883712	42163624	24992
657	22.113498	111890432	80883712	39304016	24992
658	23.061737	111890432	80883712	37635688	24992
659	24.821882	111890432	80883712	37053232	24992
660	26.097012	111890432	80883712	37280704	24992
661	26.818281	111890432	80883712	38165472	24992
662	2.235293	111890432	80883712	40367600	24992
663	3.338642	111890432	80883712	42531352	24992
664	4.44876	111890432	80883712	45418008	24992
665	5.593043	111890432	80883712	49028320	24992
666	9.076455	111890432	80883712	37407504	24992
667	8.782074	111890432	80883712	42480048	24992
668	8.851803	111890432	80883712	48285568	24992
669	12.568171	111890432	80883712	38895624	24992
670	11.093554	111890432	80883712	46141128	24992
671	14.914516	111890432	80883712	38581824	24992
672	13.711932	111890432	80883712	47310896	24992
673	17.292702	111890432	80883712	40976808	24992
674	19.146459	111890432	80883712	36516176	24992
675	16.683461	111890432	80883712	47431496	24992
676	21.029446	111890432	80883712	43291960	24992
677	22.448434	111890432	80883712	40651456	24992
678	23.981639	111890432	80883712	39257048	24992
679	24.717758	111890432	80883712	38862272	24992
680	26.088176	111890432	80883712	39229536	24992
681	28.134393	112160768	80883712	40360752	24992
682	2.314529	112160768	80883712	42740808	24992
683	3.412426	112160768	80883712	44963016	24992
684	4.573103	112160768	80883712	47929600	24992
685	8.426136	112160768	80883712	35972672	24992
686	6.81467	112160768	80883712	40429584	24992
687	8.128008	112160768	80883712	45627880	24992
688	9.353533	112160768	80883712	51582880	24992
689	12.526775	112160768	80883712	41832064	24992
690	11.603269	112160768	80883712	49272496	24992
691	15.308299	112160768	80883712	41430784	24992
692	13.792334	112160768	80883712	50377304	24992
693	17.281708	112160768	80883712	43909248	24992
694	18.902404	112160768	80883712	39359008	24992
695	17.758475	112160768	80883712	50573328	24992
696	20.933787	112160768	80883712	46326696	24992
697	22.745851	112160768	80883712	43562040	24992
698	24.353716	112160768	80883712	42044584	24992
699	25.647742	112160768	80883712	41568856	24992
700	26.99152	112160768	80883712	41985176	24992
701	27.666246	112160768	80883712	43108680	24992
702	2.357282	112160768	80883712	45566352	24992
703	3.502477	112160768	80883712	47847408	24992
704	4.683445	112160768	80883712	50904528	24992
705	8.32438	112160768	80883712	38664912	24992
706	7.033967	112160768	80883712	43252320	24992
707	8.175571	112160768	80883712	48597664	24992
708	12.241505	112160768	80883712	38938256	24992
709	10.483694	112160768	80883712	45823880	24992
710	14.930614	112160768	80883712	38247600	24992
711	12.664042	112160768	80883712	46678392	24992
712	17.030991	112160768	80883712	40468528	24992
713	15.002568	112160768	80883712	50427608	24992
714	19.570577	112160768	80883712	45067296	24992
715	21.385331	112160768	80883712	41488280	24992
716	22.793847	112160768	80883712	39288024	24992
717	20.047721	112160768	80883712	52358720	24992
718	23.889076	112160768	80883712	49763960	24992
719	25.688709	112160768	80883712	48459080	24992
720	27.058351	112160768	80883712	48121864	24992
721	28.466227	112160768	80883712	48676840	24992
722	2.417914	112160768	80883712	50696232	24992
723	6.228138	112160768	80883712	37099616	24992
724	4.686984	112160768	80883712	40220192	24992
725	6.080406	112160768	80883712	44123048	24992
726	7.166307	112160768	80883712	48860272	24992
727	11.327782	112160768	80883712	38609264	24992
728	9.604376	112160768	80883712	44865552	24992
729	11.036641	112160768	80883712	51981976	24992
730	14.44715	112160768	80883712	43526640	24992
731	13.300444	112160768	80883712	52145264	24992
732	16.847786	112160768	80883712	45257056	24992
733	19.449291	112160768	80883712	40408936	24992
734	17.154004	112160768	80883712	51401208	24992
735	20.91071	112160768	80883712	47018504	24992
736	22.54998	112160768	80883712	44297864	24992
737	24.035782	112160768	80883712	42766616	24992
738	26.009265	112160768	80883712	42305520	24992
739	27.871815	112160768	80883712	42792544	24992
740	28.362314	112160768	80883712	43932824	24992
741	29.436157	112160768	80883712	45735976	24992
742	2.406182	112160768	80883712	48894904	24992
743	3.797897	112160768	80883712	51292696	24992
744	7.885556	112160768	80883712	38583720	24992
745	6.305558	112160768	80883712	42589808	24992
746	7.223301	112160768	80883712	47393488	24992
747	8.637432	112160768	80883712	53001168	24992
748	12.398744	112160768	80883712	43132688	24992
749	11.266805	112160768	80883712	50381696	24992
750	15.336514	112160768	80883712	42557112	24992
751	14.203648	112160768	80883712	51402656	24992
752	17.888209	112160768	80883712	45037800	24992
753	19.828694	112160768	80883712	40649936	24992
754	17.301762	112160768	80883712	51917400	24992
755	21.347442	112160768	80883712	47828808	24992
756	23.245845	112160768	80883712	45337232	24992
757	24.723972	112160768	80883712	44145552	24992
758	26.898225	112160768	80883712	43960456	24992
759	27.888526	112160768	80883712	44603808	24992
760	30.755304	112160768	80883712	45975576	24992
761	31.562298	112160768	80883712	47958056	24992
762	2.545748	112160768	80883712	51224080	24992
763	3.804009	112160768	80883712	53680352	24992
764	7.460025	112160768	80883712	40677192	24992
765	6.411265	112160768	80883712	44793592	24992
766	7.84009	112160768	80883712	49727336	24992
767	12.008708	112160768	80883712	39836712	24992
768	10.363871	112160768	80883712	46407152	24992
769	11.517669	112160768	80883712	53800952	24992
770	15.37949	112160768	80883712	45646608	24992
771	17.328737	112160768	80883712	39849800	24992
772	14.797788	112160768	80883712	49746936	24992
773	20.168825	112160768	80883712	44824736	24992
774	21.367227	112160768	80883712	41687720	24992
775	19.189004	112160768	80883712	54082104	24992
776	22.380605	112160768	80883712	50883176	24992
777	24.882527	112160768	80883712	49078064	24992
778	26.568777	112160768	80883712	48416464	24992
779	28.26777	112160768	80883712	48753192	24992
780	29.243054	112160768	80883712	49897472	24992
781	30.599532	112160768	80883712	51636488	24992
782	5.345011	112160768	80883712	38785728	24992
783	3.700257	112160768	80883712	41300944	24992
784	5.083678	112160768	80883712	44659176	24992
785	6.636758	112160768	80883712	48882776	24992
786	7.698176	112160768	80883712	53920608	24992
787	11.803358	112160768	80883712	43553680	24992
788	10.474354	112160768	80883712	50287008	24992
789	14.562216	112160768	80883712	42220408	24992
790	13.202349	112160768	80883712	50649520	24992
791	17.68232	112160768	80883712	44220432	24992
792	15.760739	112160768	80883712	54331328	24992
793	19.953504	112160768	80883712	48970680	24992
794	22.06723	112160768	80883712	45406144	24992
795	23.314844	112160768	80883712	43357456	24992
796	24.864281	112160768	80883712	42582568	24992
797	27.388714	112160768	80883712	42813056	24992
798	28.162626	112160768	80883712	43863344	24992
799	29.244812	112160768	80883712	45491384	24992
800	29.747254	112160768	80883712	47716296	24992
801	33.346719	112160768	80883712	50484504	24992
802	2.900321	112160768	80883712	54462656	24992
803	7.698717	112160768	80883712	40891904	24992
804	8.467063	112160768	80883712	44330936	24992
805	11.309496	112160768	80883712	48635256	24992
806	16.303197	108490752	77213696	16877864	24992
807	10.892336	108490752	77213696	22903568	24992
808	11.81177	108490752	77213696	14493136	24992
809	12.044199	108490752	77213696	22261768	24992
810	14.467428	108490752	77213696	15660480	24992
811	14.681071	108490752	77213696	25144384	24992
812	17.178374	108490752	77213696	19794472	24992
813	18.825319	108490752	77213696	16243224	24992
814	18.668186	108490752	77213696	28353776	24992
815	20.495927	108490752	77213696	24997768	24992
816	22.439484	108490752	77213696	23138312	24992
817	24.404872	108490752	77213696	22462008	24992
818	25.873383	108490752	77213696	22821096	24992
819	26.789109	108490752	77213696	24034256	24992
820	28.401273	108490752	77213696	25805272	24992
821	29.8684	108490752	77213696	28200688	24992
822	2.669766	108490752	77213696	18628176	24992
823	3.912563	108490752	77213696	21260024	24992
824	5.240797	108490752	77213696	24773360	24992
825	6.834358	108490752	77213696	29163888	24992
826	8.751119	108490752	77213696	18098400	24992
827	9.469884	108490752	77213696	24251960	24992
828	11.876173	108490752	77213696	15756944	24992
829	12.54908	108490752	77213696	23679504	24992
830	15.021076	108490752	77213696	17137712	24992
831	15.262084	108490752	77213696	26829144	24992
832	17.02954	108490752	77213696	21391536	24992
833	19.079541	108490752	77213696	17919936	24992
834	20.702	108490752	77213696	15974008	24992
835	20.809738	108490752	77213696	29247080	24992
836	22.24994	108490752	77213696	26961376	24992
837	24.443215	108490752	77213696	26003496	24992
838	25.710136	108490752	77213696	26129712	24992
839	27.317048	108490752	77213696	27150064	24992
840	28.120093	108490752	77213696	28894632	24992
841	32.365493	108490752	77213696	17941960	24992
842	2.818813	108490752	77213696	24286320	24992
843	4.181389	108490752	77213696	27057304	24992
844	6.692581	108490752	77213696	14889472	24992
845	6.959156	108490752	77213696	19487984	24992
846	8.767661	108490752	77213696	25031824	24992
847	10.896168	108490752	77213696	15931064	24992
848	11.959998	108490752	77213696	23259040	24992
849	14.299956	108490752	77213696	16337624	24992
850	13.799342	108490752	77213696	25532064	24992
851	16.36207	108490752	77213696	19997920	24992
852	18.427299	108490752	77213696	16388128	24992
853	18.266627	108490752	77213696	28401064	24992
854	20.70107	108490752	77213696	25158248	24992
855	22.497946	108490752	77737984	23462448	24992
856	23.884063	108490752	78262272	23020400	24992
857	25.483686	108490752	78786560	23574432	24992
858	26.876858	108490752	79310848	24956968	24992
859	28.218525	108490752	79835136	27094400	24992
860	29.002578	108490752	80359424	29711408	24992
861	32.817337	108490752	81408000	19363456	24992
862	2.862475	108490752	81932288	26383712	24992
863	4.290874	108490752	81932288	29212928	24992
864	6.179528	108761088	82456576	16861560	24992
865	7.242604	108761088	82456576	21606032	24992
866	8.594829	108761088	82456576	27284512	24992
867	10.790897	108761088	82980864	18073520	24992
868	11.441759	108761088	82980864	25672592	24992
869	13.658188	108761088	83505152	18542952	24992
870	14.767216	108761088	83505152	28017696	24992
871	15.965502	108761088	84029440	22503640	24992
872	18.584513	108761088	84553728	18911496	24992
873	20.257191	108761088	85078016	16889920	24992
874	20.284844	108761088	85078016	30224272	24992
875	21.885294	108761088	85602304	28082616	24992
876	23.856748	108761088	86126592	27317208	24992
877	25.556974	109031424	86650880	27603192	24992
878	26.757651	109031424	87175168	28809272	24992
879	30.821659	109301760	88223744	17436512	24992
880	34.189234	112005120	91369472	25178568	24992
881	32.372809	112005120	91893760	30292192	24992
882	2.775275	112816128	93466624	23510600	24992
883	4.232603	112816128	93466624	26406264	24992
884	6.318954	112816128	93466624	30258160	24992
885	10.946256	115519488	96612352	22161736	24992
886	8.807612	115519488	96612352	27954680	24992
887	10.424686	115519488	96612352	34716888	24992
888	12.620263	115519488	97136640	26528256	24992
889	13.242019	115519488	97136640	35219064	24992
890	15.146058	115519488	97660928	28740856	24992
891	17.495664	115519488	98185216	24456192	24992
892	17.592559	115519488	98185216	36080680	24992
893	19.736345	115519488	98709504	32389320	24992
894	21.870396	115789824	99233792	30322472	24992
895	23.405716	115789824	99758080	29576288	24992
896	25.552516	115789824	100282368	29975224	24992
897	26.560638	115789824	100806656	31388136	24992
898	28.380334	115789824	101330944	33414920	24992
899	29.777105	115789824	101855232	36068600	24992
900	32.737495	115789824	102903808	25825760	24992
901	33.605384	116060160	103428096	31879120	24992
902	3.432782	116060160	104476672	22756504	24992
903	4.709618	116060160	104476672	25714600	24992
904	5.913956	116060160	104476672	29658576	24992
905	7.432716	116060160	104476672	34572800	24992
906	9.805649	116060160	105000960	24586264	24992
907	10.496267	116060160	105000960	31476312	24992
908	12.897795	116330496	105525248	24100736	24992
909	13.400608	116330496	105525248	32996200	24992
910	16.101069	116330496	106049536	27263096	24992
911	17.984419	116330496	106573824	23586736	24992
912	18.361232	116330496	106573824	35479416	24992
913	19.888015	116330496	107098112	32281752	24992
914	22.550313	116330496	107622400	30697976	24992
915	23.764485	116330496	108146688	30335744	24992
916	25.476374	116330496	108670976	31060664	24992
917	27.405482	116330496	109195264	32649944	24992
918	28.601781	116330496	109719552	34909096	24992
919	29.668196	116330496	110243840	37808376	24992
920	32.473453	116330496	111292416	27648392	24992
921	33.951999	116330496	111816704	33871168	24992
922	3.073025	117141504	113389568	28047128	24992
923	4.440911	117141504	113389568	31056136	24992
924	6.142387	117141504	113389568	35064000	24992
925	11.310313	119844864	116535296	27190808	24992
926	9.06169	119844864	116535296	33208320	24992
927	10.714874	119844864	116535296	40248064	24992
928	12.783475	120115200	117059584	32142472	24992
929	13.788521	120115200	117059584	41212064	24992
930	15.421938	120115200	117583872	34859832	24992
931	17.958219	120115200	118108160	30695688	24992
932	19.781195	120115200	118632448	28238872	24992
933	20.418446	120115200	118632448	41329920	24992
934	21.699022	120115200	118632448	38982128	24992
935	23.791721	120115200	118632448	38156808	24992
936	25.902294	120115200	118632448	38484096	24992
937	27.369045	120115200	118632448	39714120	24992
938	31.339177	120385536	118632448	28519496	24992
939	34.566555	123088896	118632448	36491520	24992
940	32.676862	123359232	118632448	41690944	24992
941	36.70298	123629568	118632448	33902528	24992
942	3.131973	126603264	118632448	46070200	24992
943	5.866666	127143936	118632448	33583592	24992
944	6.070088	127143936	118632448	37711816	24992
945	7.915687	127143936	118632448	42871816	24992
946	10.388569	127143936	118632448	33674200	24992
947	10.787936	127143936	118632448	40859336	24992
948	13.811394	127143936	118632448	34042400	24992
949	14.499034	127143936	118632448	43425224	24992
950	16.827199	127143936	118632448	38132688	24992
951	18.602968	127143936	118632448	35018832	24992
952	19.009402	127143936	118632448	47588104	24992
953	20.935679	127143936	118632448	44626104	24992
954	23.401868	127143936	118632448	43236352	24992
955	25.101479	127143936	118632448	43257720	24992
956	26.872065	127143936	118632448	44290672	24992
957	28.176233	127143936	118632448	46169848	24992
958	29.108309	127143936	118632448	48761176	24992
959	32.659381	127143936	118632448	38287344	24992
960	33.031218	127143936	118632448	44323064	24992
961	37.059738	127954944	118632448	37489264	24992
962	3.183198	130658304	118632448	50127808	24992
963	5.63237	130928640	118632448	37606152	24992
964	6.106922	130928640	118632448	41769888	24992
965	8.119597	130928640	118632448	47021752	24992
966	10.902175	130928640	118632448	37905080	24992
967	11.098805	130928640	118632448	45203272	24992
968	13.842725	130928640	118632448	38495448	24992
969	14.324523	130928640	118632448	47884760	24992
970	17.12318	130928640	118632448	42808776	24992
971	18.922885	130928640	118632448	39712816	24992
972	19.364156	130928640	118632448	52308424	24992
973	21.116007	130928640	118632448	49585448	24992
974	24.293689	130928640	118632448	48316952	24992
975	24.952287	130928640	118632448	48401528	24992
976	26.879679	131198976	118632448	49564360	24992
977	27.99212	131198976	118632448	51492488	24992
978	31.490735	131469312	118632448	40843144	24992
979	36.1788	134172672	118632448	49522744	24992
980	37.713202	134443008	118632448	55424968	24992
981	58.164496	100413440	72495104	19618200	24992
982	3.267981	102842368	72495104	30399904	24992
983	6.005996	102842368	72495104	18332632	24992
984	6.350499	102842368	72495104	22621464	24992
985	8.010718	102842368	72495104	27925984	24992
986	10.759946	102842368	72495104	18747040	24992
987	11.198335	102842368	72495104	26205928	24992
988	14.039476	102842368	72495104	19551048	24992
989	14.684602	102842368	72495104	29117184	24992
990	17.099013	102842368	72495104	24047440	24992
991	19.653525	102842368	72495104	20973536	24992
992	21.029376	102842368	72495104	19537176	24992
993	22.792403	102842368	72495104	19355448	24992
994	24.777525	102842368	72495104	20254456	24992
995	26.612879	102842368	72495104	22083664	24992
996	27.656285	102842368	72495104	24686176	24992
997	29.405156	102842368	72495104	27843752	24992
998	30.619032	102842368	72495104	31522448	24992
999	33.414838	102842368	72495104	22372064	24992
1000	36.788836	103112704	72495104	32501712	24992
