x	Duration	RSS	HeapTotal	HeapUsed	External
0	NA	90591232	59387904	11969944	24992
1	0.316678	90591232	59387904	12021832	24992
2	0.252889	90591232	59387904	12098616	24992
3	0.299733	90591232	59387904	12202512	24992
4	0.363038	90591232	59387904	12335064	24992
5	0.432651	90591232	59387904	12497784	24992
6	0.521644	90591232	59387904	12691096	24992
7	0.596247	90591232	59387904	12915984	24992
8	0.68784	90591232	59387904	13173448	24992
9	0.749223	90591232	59387904	13465400	24992
10	0.82702	90591232	59387904	13792504	24992
11	1.221386	90591232	59387904	14155656	24992
12	1.183774	90591232	59387904	14555848	24992
13	1.08057	90591232	59387904	14997728	24992
14	1.295021	90591232	59387904	15474952	24992
15	1.442805	90591232	59387904	15994016	24992
16	0.968002	90591232	59387904	16550808	24992
17	1.033066	90591232	59387904	17151256	24992
18	1.299573	90591232	59387904	17794592	24992
19	1.207328	90591232	59387904	18482776	24992
20	1.359611	90591232	59387904	19216680	24992
21	1.334517	90591232	59387904	19995744	24992
22	0.185712	90591232	59387904	20792920	24992
23	0.275319	90591232	59387904	20935368	24992
24	0.357282	90591232	59387904	21127912	24992
25	0.570753	90591232	59387904	21371544	24992
26	0.53943	90591232	59387904	21667896	24992
27	0.866999	90591232	59387904	22017208	24992
28	0.696041	90591232	59387904	22420464	24992
29	0.987226	90591232	59387904	22881408	24992
30	0.860158	90591232	59387904	23396640	24992
31	0.978218	90591232	59387904	23968744	24992
32	1.047839	90591232	59387904	24598784	24992
33	1.120972	90591232	59387904	25287704	24992
34	1.212232	90591232	59387904	26036488	24992
35	1.31724	90591232	59387904	26846296	24992
36	1.407805	90591232	59387904	27717728	24992
37	1.965828	90591232	59387904	28652416	24992
38	2.631411	90591232	59387904	13346920	24992
39	1.728984	90591232	59387904	14412864	24992
40	1.982518	90591232	59387904	15545920	24992
41	2.145402	90591232	59387904	16743320	24992
42	0.243503	90591232	59387904	18011040	24992
43	0.368667	90591232	59387904	18215256	24992
44	0.701123	90591232	59387904	18489104	24992
45	0.583724	90591232	59387904	18834848	24992
46	0.690873	90591232	59387904	19252736	24992
47	0.801474	90591232	59387904	19743824	24992
48	0.91757	90591232	59387904	20309048	24992
49	1.047676	90591232	59387904	20949504	24992
50	1.155009	90591232	59387904	21669424	24992
51	1.376374	90591232	59387904	22469072	24992
52	1.407221	90591232	59387904	23349024	24992
53	1.710784	90591232	59387904	24311336	24992
54	1.828502	90591232	59387904	25353784	24992
55	1.760699	90591232	59387904	26480248	24992
56	1.898401	90591232	59387904	27689912	24992
57	2.99974	90591232	59387904	12924688	24992
58	2.36033	90591232	59387904	14307304	24992
59	2.648576	90591232	59387904	15777504	24992
60	2.435166	90591232	59387904	17335536	24992
61	3.007562	90591232	59387904	18982456	24992
62	0.331753	90591232	59387904	20743048	24992
63	0.507186	90591232	59387904	21015904	24992
64	0.613887	90591232	59387904	21378848	24992
65	0.765884	90591232	59387904	21843416	24992
66	0.878182	90591232	59387904	22393632	24992
67	1.077359	90591232	59387904	23038736	24992
68	1.165721	90591232	59387904	23779672	24992
69	1.314908	90591232	59387904	24617344	24992
70	1.875674	90591232	59387904	25553640	24992
71	1.614832	90591232	59387904	26588688	24992
72	2.134961	90591232	59387904	27725432	24992
73	1.909456	90591232	59387904	28960888	24992
74	2.918474	90591232	59387904	13998864	24992
75	2.224453	90591232	59387904	15438544	24992
76	2.370925	90591232	59387904	16981816	24992
77	2.616741	90591232	59387904	18632392	24992
78	2.715034	90591232	59387904	20388392	24992
79	2.866019	90591232	59387904	22250232	24992
80	3.029931	90591232	59387904	24220192	24992
81	3.331208	90591232	59387904	26299400	24992
82	0.366528	90591232	59387904	28535200	24992
83	0.542327	90591232	59387904	28864688	24992
84	0.71105	90591232	59387904	29307832	24992
85	1.51115	90591232	59387904	13524928	24992
86	1.067427	90591232	59387904	14195552	24992
87	1.234033	90591232	59387904	14982600	24992
88	1.418252	90591232	59387904	15885160	24992
89	1.588797	90591232	59387904	16905072	24992
90	1.779009	90591232	59387904	18044296	24992
91	2.469525	90591232	59387904	19304320	24992
92	2.139956	90591232	59387904	20683272	24992
93	2.314036	90591232	59387904	22183576	24992
94	2.516131	90591232	59387904	23807296	24992
95	2.874933	90591232	59387904	25553160	24992
96	2.911967	90591232	59387904	27423152	24992
97	3.084972	90591232	59387904	29418368	24992
98	4.078339	90591232	59387904	15185312	24992
99	3.822319	90591232	59387904	17435784	24992
100	3.716666	90591232	59387904	19814752	24992
101	3.865419	90591232	59387904	22322904	24992
102	0.427155	90591232	59387904	25044264	24992
103	0.639714	90591232	59387904	25448128	24992
104	0.837689	90591232	59387904	25988200	24992
105	1.053628	90591232	59387904	26665496	24992
106	1.249716	90591232	59387904	27481424	24992
107	1.45951	90591232	59387904	28439784	24992
108	1.673573	90591232	59387904	29535488	24992
109	2.678368	90591232	59387904	14413536	24992
110	2.121062	90591232	59387904	15792792	24992
111	2.310162	90591232	59387904	17315096	24992
112	2.514372	90591232	59387904	18981576	24992
113	2.756808	90591232	59387904	20792824	24992
114	3.159185	90591232	59387904	22750160	24992
115	3.188102	90591232	59387904	24856368	24992
116	3.409989	90591232	59387904	27108320	24992
117	3.67731	90591232	59387904	29509104	24992
118	4.593867	90591232	59387904	15695776	24992
119	4.383408	90591232	59387904	18400272	24992
120	4.80562	90591232	59387904	21255832	24992
121	4.543489	90591232	59387904	24265848	24992
122	0.503255	90591232	59387904	27531032	24992
123	0.928023	90591232	59387904	27993432	24992
124	0.999977	90591232	59387904	28611496	24992
125	1.203106	90591232	59387904	29386272	24992
126	1.979467	90591232	59387904	14027112	24992
127	1.79726	90591232	59387904	15118688	24992
128	2.055684	90591232	59387904	16370688	24992
129	2.306412	90591232	59387904	17782752	24992
130	2.527283	90591232	59387904	19357008	24992
131	2.678116	90591232	59387904	21093752	24992
132	3.480944	90591232	59387904	22994056	24992
133	3.429086	90591232	59387904	25067792	24992
134	3.417218	90591232	59387904	27298032	24992
135	3.708074	90591232	59387904	29695512	24992
136	4.427068	90591232	59387904	15942232	24992
137	4.375726	90591232	59387904	18674688	24992
138	4.594289	90591232	59387904	21579408	24992
139	4.951435	90591232	59387904	24659424	24992
140	4.932493	90591232	59387904	27905304	24992
141	6.043621	90591232	59387904	15384024	24992
142	0.586636	90591232	59387904	19101240	24992
143	0.877431	90591232	59387904	19628032	24992
144	1.163967	90591232	59387904	20331264	24992
145	1.445486	90591232	59387904	21212544	24992
146	1.728744	90591232	59387904	22273192	24992
147	2.166769	90591232	59387904	23513760	24992
148	2.24144	90591232	59387904	24935840	24992
149	2.457154	90591232	59387904	26539168	24992
150	2.739716	90591232	59387904	28327488	24992
151	3.218991	90591232	59387904	30298408	24992
152	3.951545	90591232	59387904	16229016	24992
153	3.566366	90591232	59387904	18573616	24992
154	3.841632	90591232	59387904	21105576	24992
155	4.181415	90591232	59387904	23821440	24992
156	4.420568	90591232	59387904	26726152	24992
157	4.916716	90591232	59387904	29822832	24992
158	5.905752	90591232	59387904	16980760	24992
159	5.493649	90591232	59387904	20460496	24992
160	5.605967	90591232	59387904	24132784	24992
161	5.898678	90591232	59387904	27997656	24992
162	0.66724	90591232	59387904	16386736	24992
163	0.985982	90591232	59387904	16971624	24992
164	1.292889	90591232	59387904	17752928	24992
165	2.036399	90591232	59387904	18731832	24992
166	1.864793	90591232	59387904	19912176	24992
167	2.122266	90591232	59387904	21292248	24992
168	2.412252	90591232	59387904	22869472	24992
169	2.722784	90591232	59387904	24648192	24992
170	3.237778	90591232	59387904	26630088	24992
171	3.349513	90591232	59387904	28815368	24992
172	4.484892	90591232	59387904	15290240	24992
173	3.963656	90591232	59387904	17885816	24992
174	4.249702	90591232	59387904	20690072	24992
175	4.632281	90591232	59387904	23699784	24992
176	5.097427	90591232	59387904	26917008	24992
177	5.322983	90591232	59387904	30342456	24992
178	6.504276	90591232	59387904	17817600	24992
179	5.940316	90591232	59387904	21666656	24992
180	6.492252	90591232	59387904	25727456	24992
181	6.711301	90591232	59387904	30001280	24992
182	0.703845	90591232	59387904	18575312	24992
183	1.0299	90591232	59387904	19218600	24992
184	1.337049	90591232	59387904	20077840	24992
185	1.662353	90591232	59387904	21153968	24992
186	2.229736	90591232	59387904	22448488	24992
187	2.334148	90591232	59387904	23961904	24992
188	2.687383	90591232	59387904	25695176	24992
189	3.231216	90591232	59387904	27649368	24992
190	3.363797	90591232	59387904	29829968	24992
191	4.598715	90591232	59387904	16202104	24992
192	4.229573	90591232	59387904	18825464	24992
193	4.595807	90591232	59387904	21673608	24992
194	4.742407	90591232	59387904	24751032	24992
195	5.443937	90591232	59387904	28058368	24992
196	6.43191	90591232	59387904	15877296	24992
197	6.091861	90591232	59387904	19634544	24992
198	6.110064	90591232	59387904	23625680	24992
199	6.561436	90591232	59387904	27850816	24992
200	8.015324	90591232	59387904	16655968	24992
201	7.683555	90591232	59387904	21346928	24992
202	0.742524	90591232	59387904	26464416	24992
203	1.113427	90591232	59387904	27166152	24992
204	1.511745	90591232	59387904	28103368	24992
205	1.813484	90591232	59387904	29276968	24992
206	2.230006	90591232	59387904	30688488	24992
207	3.821015	90591232	59387904	16268688	24992
208	3.100826	90591232	59387904	18174592	24992
209	3.33791	90591232	59387904	20331528	24992
210	3.688413	90591232	59387904	22736352	24992
211	4.45691	90591232	59387904	25393328	24992
212	4.5967	90591232	59387904	28305312	24992
213	5.213948	90591232	59387904	31466152	24992
214	6.350913	90591232	59387904	18693024	24992
215	6.130198	90591232	59387904	22363608	24992
216	6.294052	90591232	59387904	26287720	24992
217	6.617741	90591232	59387904	30468240	24992
218	8.095914	90591232	59387904	18872984	24992
219	7.476397	90591232	59387904	23570704	24992
220	7.858717	90591232	59387904	28527856	24992
221	9.730084	90591232	59387904	18025768	24992
222	0.850458	90591232	59387904	23740400	24992
223	1.273975	90591232	59387904	24525464	24992
224	1.69797	90591232	59387904	25573712	24992
225	2.102356	90591232	59387904	26886168	24992
226	2.526767	90591232	59387904	28468808	24992
227	2.958134	90591232	59387904	30318720	24992
228	4.491257	90591232	59387904	16461088	24992
229	3.802231	90591232	59387904	18846448	24992
230	4.227635	90591232	59387904	21501744	24992
231	4.741203	90591232	59387904	24439024	24992
232	4.799289	90591232	59387904	27641024	24992
233	5.264549	90591232	59387904	31126120	24992
234	6.93568	90591232	59387904	18803800	24992
235	6.566702	90591232	59387904	22836096	24992
236	6.871565	90591232	59387904	27143472	24992
237	7.426548	90591232	59387904	31729800	24992
238	9.202897	90591232	59387904	20427352	24992
239	8.137967	90591232	59387904	25594400	24992
240	8.605276	90591232	59387904	31031392	24992
241	10.302758	90591232	59387904	20667248	24992
242	0.918263	90591232	59387904	26919472	24992
243	1.380575	90591232	59387904	27779024	24992
244	1.817866	90591232	59387904	28916720	24992
245	2.269438	90591232	59387904	30340968	24992
246	2.726182	90591232	59387904	32053400	24992
247	4.09792	90591232	59387904	17880504	24992
248	3.655683	90591232	59387904	20177584	24992
249	4.499937	90591232	59387904	22766512	24992
250	4.576146	90591232	59387904	25647200	24992
251	5.025213	90591232	59387904	28812816	24992
252	5.649021	90591232	59387904	32278760	24992
253	6.928476	90591232	59387904	19843904	24992
254	6.515689	90591232	59387904	23892568	24992
255	6.884106	90591232	59387904	28238888	24992
256	7.362214	90591232	59387904	32889072	24992
257	8.743577	90591232	59387904	21523520	24992
258	8.594469	90591232	59387904	26767304	24992
259	8.685868	90591232	59387904	32322880	24992
260	10.258418	90591232	59387904	21967280	24992
261	9.918962	90591232	59387904	28115536	24992
262	0.997895	90591232	59387904	19360768	24992
263	1.481514	90591232	59387904	20271336	24992
264	1.968148	90591232	59387904	21487048	24992
265	2.445162	90591232	59387904	23013840	24992
266	2.950074	90591232	59387904	24843272	24992
267	3.429006	90591232	59387904	26981760	24992
268	3.92992	90591232	59387904	29428240	24992
269	4.560138	90591232	59387904	32184632	24992
270	6.011549	90591232	59387904	19141192	24992
271	5.477341	90591232	59387904	22521480	24992
272	5.94175	90591232	59387904	26214704	24992
273	6.405498	90591232	59387904	30222304	24992
274	8.153208	90591232	59387904	18773088	24992
275	7.568215	90591232	59387904	23410920	24992
276	7.899059	90591232	59387904	28371128	24992
277	8.416628	90591232	59387904	33643672	24992
278	10.160247	90591232	59387904	22892792	24992
279	9.442757	90591232	59387904	28805560	24992
280	11.437756	90591232	59387904	19514128	24992
281	10.362356	90591232	59387904	26069536	24992
282	1.056307	90591232	59387904	33248024	24992
283	2.601816	90591232	59387904	18031856	24992
284	2.103004	90591232	59387904	19325584	24992
285	2.602978	90591232	59387904	20946688	24992
286	3.106595	90591232	59387904	22893232	24992
287	3.812541	90591232	59387904	25172088	24992
288	4.356325	90591232	59387904	27774640	24992
289	4.981308	90591232	59387904	30706536	24992
290	5.157621	90591232	59387904	33970624	24992
291	6.91634	90591232	59387904	21260408	24992
292	6.060746	90591232	59387904	25187448	24992
293	6.926869	90591232	59387904	29463880	24992
294	7.38578	90591232	59387904	34058752	24992
295	8.878525	90591232	59387904	22667416	24992
296	8.587848	90591232	59387904	27947840	24992
297	9.277154	90591232	59387904	33553040	24992
298	10.533727	90591232	59387904	23254336	24992
299	10.171018	90591232	59387904	29539176	24992
300	11.811893	90591232	59387904	20615864	24992
301	11.116432	90591232	59387904	27595416	24992
302	1.29993	90591232	59387904	18899488	24992
303	1.663818	90591232	59387904	19933632	24992
304	2.222317	90591232	59387904	21305448	24992
305	2.763196	90591232	59387904	23026296	24992
306	3.301756	90591232	59387904	25093864	24992
307	3.967092	90591232	59387904	27504928	24992
308	4.423864	90591232	59387904	30268824	24992
309	4.894705	90591232	59387904	33376696	24992
310	6.756066	90591232	59387904	20736640	24992
311	6.230453	90591232	59387904	24546720	24992
312	6.650731	90591232	59387904	28707864	24992
313	7.397613	90591232	59387904	33221968	24992
314	8.816971	90591232	59387904	21968784	24992
315	8.515767	90591232	59387904	27200440	24992
316	9.130426	90591232	59387904	32780280	24992
317	10.892505	90591232	59387904	22692840	24992
318	10.122817	90591232	59387904	28992592	24992
319	12.559104	90591232	59387904	20271184	24992
320	11.297524	90591232	59387904	27287112	24992
321	11.740707	90591232	59387904	34669696	24992
322	1.188726	90591232	59387904	26421392	24992
323	1.759439	90591232	59387904	27510272	24992
324	2.375541	90591232	59387904	28960152	24992
325	3.094043	90591232	59387904	30782856	24992
326	3.45165	90591232	59387904	32963304	24992
327	5.338483	90591232	59387904	19553600	24992
328	4.709134	90591232	59387904	22468104	24992
329	5.280359	90591232	59387904	25752896	24992
330	5.998266	90591232	59387904	29412480	24992
331	6.582142	90591232	59387904	33436440	24992
332	8.46669	90591232	59387904	21769232	24992
333	7.658062	90591232	59387904	26536928	24992
334	8.248184	90591232	59387904	31677864	24992
335	10.35421	90591232	59387904	21438008	24992
336	9.698682	90591232	59387904	27335560	24992
337	10.099742	90591232	59387904	33608320	24992
338	12.238183	90591232	59387904	24184400	24992
339	11.502896	90591232	59387904	31210152	24992
340	13.634034	90591232	59387904	22975848	24992
341	12.529022	90591232	59387904	30774272	24992
342	1.260287	90591232	59387904	23734840	24992
343	1.830936	90591232	59387904	24881184	24992
344	2.630662	90591232	59387904	26413896	24992
345	3.09994	90591232	59387904	28330392	24992
346	3.729591	90591232	59387904	30627920	24992
347	4.556604	90591232	59387904	33311416	24992
348	6.313383	90591232	59387904	20450008	24992
349	5.71964	90591232	59387904	23911416	24992
350	6.166093	90591232	59387904	27760304	24992
351	6.952007	90591232	59387904	31998632	24992
352	8.92807	90591232	59387904	20896112	24992
353	8.153096	90591232	59387904	25927328	24992
354	8.950932	90591232	59387904	31341256	24992
355	11.210398	90591232	59387904	21552024	24992
356	10.12655	90591232	59387904	27754536	24992
357	10.989452	90591232	59387904	34354064	24992
358	13.033394	90591232	59387904	25239104	24992
359	12.142495	90591232	59387904	32640168	24992
360	14.538911	90591232	59387904	24656888	24992
361	12.95552	90591232	59387904	32867968	24992
362	1.319917	90591232	59387904	26043808	24992
363	2.175133	90591232	59387904	27260320	24992
364	2.612124	90591232	59387904	28883992	24992
365	3.302015	90591232	59387904	30919504	24992
366	3.911121	90591232	59387904	33364696	24992
367	6.079881	90591232	59387904	20373368	24992
368	5.223627	90591232	59387904	23635456	24992
369	6.072904	90591232	59387904	27321816	24992
370	6.545817	90591232	59387904	31409656	24992
371	7.382431	90591232	59387904	35911336	24992
372	9.061261	90591232	59387904	24513336	24992
373	8.740634	90591232	59387904	29848080	24992
374	8.773011	90591232	59387904	35598728	24992
375	11.156008	90591232	59387904	25534536	24992
376	10.667845	90591232	59387904	32123864	24992
377	13.213627	90591232	59387904	23489400	24992
378	12.150344	90591232	59387904	30922504	24992
379	14.537359	90591232	59387904	23360552	24992
380	13.641658	90591232	59387904	31650824	24992
381	15.674764	90591232	59387904	24787312	24992
382	1.332457	90591232	59387904	34331528	24992
383	1.962089	90591232	59387904	35606560	24992
384	4.213474	90591232	59387904	21186032	24992
385	3.430263	90591232	59387904	23327528	24992
386	4.116694	90591232	59387904	25885816	24992
387	4.811851	90591232	59387904	28873392	24992
388	5.50569	90591232	59387904	32291592	24992
389	6.472289	90591232	59387904	36155840	24992
390	8.13779	90591232	59387904	24221072	24992
391	7.690601	90591232	59387904	28937264	24992
392	8.085527	90591232	59387904	34087880	24992
393	10.799589	90591232	59387904	23811664	24992
394	9.698008	90591232	59387904	29833872	24992
395	10.119521	90591232	59387904	36307600	24992
396	12.27503	90591232	59387904	26910848	24992
397	11.718324	90591232	59387904	34247936	24992
398	14.267421	90591232	59387904	26117000	24992
399	13.038098	90591232	59387904	34339240	24992
400	15.766527	90591232	59387904	27081984	24992
401	14.599838	90591232	59387904	36191976	24992
402	1.390207	90591232	59387904	29929776	24992
403	2.178898	90591232	59387904	31263208	24992
404	2.783914	90591232	59387904	33042728	24992
405	3.589524	90591232	59387904	35269392	24992
406	5.835718	90591232	59387904	21975176	24992
407	4.951937	90591232	59387904	25099344	24992
408	5.789585	90591232	59387904	28674016	24992
409	6.382012	90591232	59387904	32704400	24992
410	7.560902	90591232	59387904	37187424	24992
411	9.181863	90591232	59387904	25758240	24992
412	8.500848	90591232	59387904	31148024	24992
413	9.249913	90591232	59387904	36994856	24992
414	12.438179	90591232	59387904	26994520	24992
415	10.993371	90591232	59387904	33754600	24992
416	13.81783	90591232	59387904	25247528	24992
417	12.40698	90591232	59387904	32943160	24992
418	15.413016	90591232	59387904	25527488	24992
419	13.8145	90591232	59387904	34170936	24992
420	16.422502	90591232	59387904	27514888	24992
421	15.064899	90591232	59387904	37134744	24992
422	1.446156	90591232	59387904	31395616	24992
423	2.252534	90591232	59387904	32837128	24992
424	2.994462	90591232	59387904	34760528	24992
425	3.806987	90591232	59387904	37174520	24992
426	5.879883	90591232	59387904	23880832	24992
427	5.39773	90591232	59387904	27270408	24992
428	6.200701	90591232	59387904	31145936	24992
429	6.611914	90591232	59387904	35507592	24992
430	9.384766	90591232	59387904	24341808	24992
431	8.252505	90591232	59387904	29676768	24992
432	9.22271	90591232	59387904	35501344	24992
433	11.505349	90591232	59387904	25822464	24992
434	10.789991	90591232	59387904	32622176	24992
435	13.217221	90591232	59387904	24439448	24992
436	12.445095	90591232	59387904	32232504	24992
437	15.010672	90591232	59387904	25132120	24992
438	13.973599	90591232	59387904	33912744	24992
439	16.587836	90591232	59387904	27514128	24992
440	15.36046	90591232	59387904	37297216	24992
441	17.386122	90591232	59387904	31357664	24992
442	1.580902	90591232	59387904	27457712	24992
443	2.37448	90591232	59387904	28957544	24992
444	3.128413	90591232	59387904	30958952	24992
445	4.125288	90591232	59387904	33462864	24992
446	4.742662	90591232	59387904	36470816	24992
447	7.229351	90591232	59387904	23958376	24992
448	6.216495	90591232	59387904	27983368	24992
449	7.117561	90591232	59387904	32507504	24992
450	7.768267	90591232	59387904	37540040	24992
451	10.369912	90591232	59387904	26846720	24992
452	9.473141	90591232	59387904	32900800	24992
453	12.236361	90591232	59387904	24089616	24992
454	10.742197	90591232	59387904	31186952	24992
455	13.950086	90591232	59387904	23625344	24992
456	12.571502	90591232	59387904	31745256	24992
457	15.654409	90591232	59387904	25148304	24992
458	14.200556	90591232	59387904	34286240	24992
459	16.997779	90591232	59387904	28276728	24992
460	15.920897	90591232	59387904	38445456	24992
461	18.142966	90591232	59387904	32788360	24992
462	1.656127	90591232	59387904	29175944	24992
463	2.453361	90591232	59387904	30738088	24992
464	3.276353	90591232	59387904	32817464	24992
465	4.171254	90591232	59387904	35418824	24992
466	4.875951	90591232	59387904	38543728	24992
467	7.712663	90591232	59387904	25927936	24992
468	6.802851	90591232	59387904	30104736	24992
469	7.200657	90591232	59387904	34804248	24992
470	10.118339	90591232	59387904	24470328	24992
471	9.04283	90591232	59387904	30226216	24992
472	9.912612	90591232	59387904	36599672	24992
473	12.519577	90591232	59912192	27452624	24992
474	11.535433	90591232	59912192	34797352	24992
475	14.584719	90861568	59912192	27045912	24992
476	13.120379	90861568	59912192	35455168	24992
477	15.781846	90861568	59912192	28677952	24992
478	15.75127	90861568	59912192	38169240	24992
479	17.219858	90861568	59912192	31953904	24992
480	19.924994	90861568	59912192	27420728	24992
481	17.64988	90861568	59912192	38529632	24992
482	1.866399	90861568	59912192	34590320	24992
483	2.45492	90861568	59912192	36207240	24992
484	3.527685	90861568	59912192	38364680	24992
485	6.05541	91131904	59912192	24953872	24992
486	5.229416	91131904	59912192	28195720	24992
487	6.042178	91131904	59912192	32013056	24992
488	6.501781	91131904	59912192	36342728	24992
489	9.490363	91131904	59912192	25387384	24992
490	8.384416	91131904	59912192	30809824	24992
491	9.356337	91131904	59912192	36785248	24992
492	11.970133	91131904	59912192	27454456	24992
493	11.413331	91131904	59912192	34521912	24992
494	14.094054	91131904	59912192	26628040	24992
495	12.565089	91131904	59912192	34809656	24992
496	16.163964	91131904	59912192	27978664	24992
497	15.267169	91131904	59912192	37253024	24992
498	17.832352	91131904	59912192	31123456	24992
499	18.832053	91131904	59912192	26651200	24992
500	17.343841	91131904	59912192	37619328	24992
501	20.105505	91131904	59912192	33109616	24992
502	1.710182	91131904	60436480	30544272	24992
503	2.620304	91131904	60436480	32219648	24992
504	3.522848	91131904	60436480	34454920	24992
505	4.611367	91131904	60436480	37251336	24992
506	7.867649	91402240	60436480	24801232	24992
507	6.17715	91402240	60436480	28723144	24992
508	7.044953	91402240	60436480	33224384	24992
509	8.104129	91402240	60436480	38286944	24992
510	10.762455	91402240	60436480	27864064	24992
511	9.608596	91402240	60436480	34048440	24992
512	12.815762	91402240	60436480	25509240	24992
513	11.596983	91402240	60436480	32833296	24992
514	14.894436	91402240	60436480	25642872	24992
515	13.545393	91402240	60436480	34106752	24992
516	16.701875	91402240	60436480	27837592	24992
517	15.214369	91402240	60436480	37464904	24992
518	18.283961	91402240	60436480	31732296	24992
519	19.602747	91672576	60436480	27633744	24992
520	18.004442	91672576	60436480	38983552	24992
521	20.748826	91672576	60960768	34761400	24992
522	1.87266	91672576	60960768	32485880	24992
523	2.926102	91672576	60960768	34219736	24992
524	3.551809	91672576	60960768	36533048	24992
525	4.754361	91672576	60960768	39429000	24992
526	7.795341	91672576	60960768	26813032	24992
527	6.256938	91672576	60960768	30883576	24992
528	7.770816	91672576	60960768	35535808	24992
529	8.315452	91672576	60960768	40775568	24992
530	10.943693	91942912	60960768	30181184	24992
531	10.77006	91942912	60960768	36602152	24992
532	13.222582	91942912	60960768	27956112	24992
533	11.929724	91942912	60960768	35541648	24992
534	15.257751	91942912	60960768	28298648	24992
535	13.514066	91942912	60960768	37075352	24992
536	17.093586	91942912	60960768	30689104	24992
537	15.567865	91942912	60960768	40631064	24992
538	18.769988	91942912	60960768	34855960	24992
539	20.125324	92213248	60960768	30684376	24992
540	21.462422	92213248	61485056	27806096	24992
541	19.620449	92213248	61485056	40139264	24992
542	1.919096	92213248	61485056	37471440	24992
543	2.791556	92213248	61485056	39264144	24992
544	5.84606	92483584	61485056	25722712	24992
545	5.076559	92483584	61485056	28715280	24992
546	5.691843	92483584	61485056	32314736	24992
547	6.843433	92483584	61485056	36515872	24992
548	7.525943	92483584	61485056	41314488	24992
549	10.372572	92483584	61485056	30307616	24992
550	9.310033	92483584	61485056	36315024	24992
551	12.755496	92483584	61485056	27430896	24992
552	11.529116	92483584	61485056	34656864	24992
553	14.968402	92483584	61485056	27304224	24992
554	13.356776	92483584	61485056	35747224	24992
555	17.094768	92483584	61485056	29408576	24992
556	15.241852	92483584	61485056	39093800	24992
557	18.656764	92483584	61485056	33394560	24992
558	19.830514	92753920	61485056	29340464	24992
559	18.467786	92753920	61485056	40899000	24992
560	20.876841	92753920	62009344	36747696	24992
561	22.562633	92753920	62009344	33958056	24992
562	1.955881	92753920	62009344	32925880	24992
563	2.835615	92753920	62009344	34797480	24992
564	3.820472	92753920	62009344	37294032	24992
565	4.971604	92753920	62009344	40416864	24992
566	8.118788	93024256	62009344	28138192	24992
567	6.761301	93024256	62009344	32530008	24992
568	7.659181	93024256	62009344	37545256	24992
569	11.021442	93024256	62009344	27546008	24992
570	9.458519	93024256	62009344	33818152	24992
571	10.891237	93024256	62009344	40733872	24992
572	13.91874	93024256	62009344	32087760	24992
573	12.682851	93024256	62009344	40286864	24992
574	15.629002	93024256	62009344	33006584	24992
575	17.313057	93024256	62009344	27634432	24992
576	15.657863	93024256	62009344	37720392	24992
577	19.11816	93024256	62009344	32802768	24992
578	20.696937	93294592	62009344	29404608	24992
579	18.584046	93294592	62009344	41428496	24992
580	21.689777	93294592	62533632	37763976	24992
581	23.271538	93294592	62533632	35450848	24992
582	1.955803	93294592	62533632	34863624	24992
583	2.976578	93294592	62533632	36793376	24992
584	4.111815	93294592	62533632	39367944	24992
585	7.056462	93564928	62533632	26784192	24992
586	5.901966	93564928	62533632	30652656	24992
587	6.984228	93564928	62533632	35169232	24992
588	8.112459	93564928	62533632	40337144	24992
589	11.347616	93564928	62533632	30156104	24992
590	10.209702	93564928	62533632	36642032	24992
591	13.561392	93564928	62533632	28456704	24992
592	12.049521	93564928	62533632	36244400	24992
593	16.08967	93564928	62533632	29380680	24992
594	14.666692	93564928	62533632	38491976	24992
595	17.811775	93564928	62533632	32572352	24992
596	19.394431	93564928	62533632	28319920	24992
597	17.276643	93564928	62533632	39387392	24992
598	21.035853	93835264	63057920	35257328	24992
599	22.773163	93835264	63057920	32540552	24992
600	23.469402	93835264	63057920	30939088	24992
601	25.134596	93835264	63057920	30358472	24992
602	2.029538	93835264	63057920	31230176	24992
603	3.021745	93835264	63057920	33218608	24992
604	4.345325	93835264	63057920	35874824	24992
605	5.260607	93835264	63057920	39202680	24992
606	8.640375	94105600	63057920	27552512	24992
607	7.380263	94105600	63057920	32204432	24992
608	8.270549	94105600	63057920	37524424	24992
609	11.929979	94105600	63057920	28115112	24992
610	10.463297	94105600	63057920	34799416	24992
611	11.855693	94105600	63057920	42162360	24992
612	15.439244	94105600	63057920	33972888	24992
613	13.941522	94105600	63057920	42650672	24992
614	16.951486	94105600	63057920	35715608	24992
615	18.5432	94105600	63057920	30681800	24992
616	17.301335	94105600	63057920	41402224	24992
617	20.319915	94375936	63582208	36699576	24992
618	21.949917	94375936	63582208	33528328	24992
619	23.004384	94375936	63582208	31613152	24992
620	24.281975	94375936	63582208	30724952	24992
621	26.02151	94375936	63582208	30692672	24992
622	2.092896	94375936	63582208	32134928	24992
623	3.096047	94375936	63582208	34181632	24992
624	4.1551	94375936	63582208	36912920	24992
625	5.684278	94375936	63582208	40346000	24992
626	9.379724	94646272	63582208	28727872	24992
627	7.798504	94646272	63582208	33523152	24992
628	8.611156	94646272	63582208	39000584	24992
629	12.298395	94646272	63582208	29587912	24992
630	10.845868	94646272	63582208	36454112	24992
631	14.944294	94646272	63582208	28916952	24992
632	12.879798	94646272	63582208	37162504	24992
633	17.071748	94646272	63582208	30895432	24992
634	15.161049	94646272	63582208	40526856	24992
635	18.953307	94646272	64106496	35036312	24992
636	20.175062	94916608	64106496	31204048	24992
637	18.207079	94916608	64106496	42940320	24992
638	22.693961	94916608	64106496	39150528	24992
639	23.94377	94916608	64106496	36706168	24992
640	25.09751	94916608	64106496	35407144	24992
641	25.982486	94916608	64106496	35097984	24992
642	2.144979	94916608	64106496	36332104	24992
643	3.205126	94916608	64106496	38438800	24992
644	4.362534	94916608	64106496	41247384	24992
645	7.876734	95186944	64106496	29051648	24992
646	7.072214	95186944	64106496	33271992	24992
647	7.788978	95186944	64106496	38211624	24992
648	9.083661	95186944	64106496	43843872	24992
649	11.982221	95186944	64106496	33869296	24992
650	10.928048	95186944	64106496	40919672	24992
651	14.809749	95186944	64106496	32878872	24992
652	13.542115	95186944	64106496	41350856	24992
653	17.30375	95186944	64106496	34753080	24992
654	18.422882	95186944	64106496	29956696	24992
655	17.030728	95186944	64106496	40568032	24992
656	20.918796	95457280	64630784	36227584	24992
657	21.815637	95457280	64630784	33367656	24992
658	24.014349	95457280	64630784	31699184	24992
659	25.514374	95457280	64630784	31116336	24992
660	26.460516	95457280	64630784	31343792	24992
661	27.054585	95457280	64630784	32228536	24992
662	2.302856	95457280	64630784	34430520	24992
663	3.453419	95457280	64630784	36594304	24992
664	4.655779	95457280	64630784	39480992	24992
665	5.984204	95457280	64630784	43091336	24992
666	9.260621	95727616	64630784	31470552	24992
667	7.874781	95727616	64630784	36537024	24992
668	9.121145	95727616	64630784	42342576	24992
669	12.582726	95727616	64630784	32951960	24992
670	11.49148	95727616	64630784	40197496	24992
671	15.67323	95727616	64630784	32637264	24992
672	13.902907	95727616	64630784	41366800	24992
673	17.646469	95727616	64630784	35032392	24992
674	19.395269	95727616	64630784	30571288	24992
675	17.65508	95727616	64630784	41486792	24992
676	21.256972	95727616	65155072	37347112	24992
677	22.429722	95997952	65155072	34706288	24992
678	24.32786	95997952	65155072	33311736	24992
679	25.663255	95997952	65155072	32916664	24992
680	26.394905	95997952	65155072	33283784	24992
681	28.043536	95997952	65155072	34405880	24992
682	2.289759	95997952	65155072	36785792	24992
683	3.391896	95997952	65155072	39008184	24992
684	4.50066	95997952	65155072	41974648	24992
685	8.475384	96268288	65155072	30017336	24992
686	7.132896	96268288	65155072	34474696	24992
687	8.279357	96268288	65155072	39673024	24992
688	9.146783	96268288	65155072	45628056	24992
689	12.781133	96268288	65155072	35876744	24992
690	12.135286	96268288	65155072	43317208	24992
691	15.720849	96268288	65155072	35475000	24992
692	14.185464	96268288	65155072	44421552	24992
693	17.567261	96268288	65155072	37953000	24992
694	19.297626	96268288	65155072	33402344	24992
695	17.939639	96268288	65155072	44616792	24992
696	21.133337	96268288	65679360	40368968	24992
697	23.063498	96538624	65679360	37605040	24992
698	25.152043	96538624	65679360	36087440	24992
699	25.838125	96538624	65679360	35611352	24992
700	27.312689	96538624	65679360	36027744	24992
701	28.866842	96538624	65679360	37151104	24992
702	2.560245	96538624	65679360	39608632	24992
703	3.832517	96538624	65679360	41889720	24992
704	5.275111	96538624	65679360	44946872	24992
705	8.982794	96808960	65679360	32707288	24992
706	7.268955	96808960	65679360	37294728	24992
707	8.358654	96808960	65679360	42640104	24992
708	12.363638	96808960	65679360	32980200	24992
709	11.407154	96808960	65679360	39864880	24992
710	15.162008	96808960	65679360	32287888	24992
711	13.607724	96808960	65679360	40718928	24992
712	17.790963	96808960	65679360	34508504	24992
713	15.783695	96808960	65679360	44467856	24992
714	19.526775	96808960	66203648	39107224	24992
715	21.274958	96808960	66203648	35527888	24992
716	22.784847	96808960	66203648	33327360	24992
717	20.591565	96808960	66203648	46398216	24992
718	24.375575	97079296	66203648	43803312	24992
719	25.844855	97079296	66203648	42498112	24992
720	27.813328	97079296	66203648	42160752	24992
721	28.60259	97079296	66203648	42715584	24992
722	2.395953	97079296	66203648	44734832	24992
723	6.363877	97349632	66203648	31138096	24992
724	5.058999	97349632	66203648	34258856	24992
725	6.25766	97349632	66203648	38161960	24992
726	7.763018	97349632	66203648	42899000	24992
727	11.433561	97349632	66203648	32647848	24992
728	9.834737	97349632	66203648	38904168	24992
729	10.953455	97349632	66203648	46020624	24992
730	15.197765	97349632	66727936	37564616	24992
731	13.527924	97349632	66727936	46183272	24992
732	17.249455	97349632	66727936	39294472	24992
733	19.288176	97349632	66727936	34446032	24992
734	17.660205	97349632	66727936	45438432	24992
735	21.43751	97619968	66727936	41055584	24992
736	23.555548	97619968	66727936	38334528	24992
737	24.717428	97619968	66727936	36803232	24992
738	26.086586	97619968	66727936	36341992	24992
739	27.966528	97619968	66727936	36828872	24992
740	28.501962	97619968	66727936	37968760	24992
741	30.297422	97619968	66727936	39772016	24992
742	2.573744	97619968	66727936	42930800	24992
743	3.764299	97619968	66727936	45328624	24992
744	7.797544	97890304	66727936	32619312	24992
745	6.295125	97890304	66727936	36625800	24992
746	8.217629	97890304	66727936	41429512	24992
747	8.987396	97890304	66727936	47037224	24992
748	12.71124	97890304	67252224	37168424	24992
749	11.648331	97890304	67252224	44417464	24992
750	15.60547	97890304	67252224	36591992	24992
751	14.191755	97890304	67252224	45429144	24992
752	17.554528	97890304	67252224	39063968	24992
753	20.41328	98160640	67252224	34675784	24992
754	18.337301	98160640	67252224	45943280	24992
755	21.954258	98160640	67252224	41854544	24992
756	24.275734	98160640	67252224	39362648	24992
757	25.676813	98160640	67252224	38170824	24992
758	27.046431	98160640	67252224	37985584	24992
759	28.472293	98160640	67252224	38628576	24992
760	30.02607	98160640	67252224	40000200	24992
761	30.661405	98160640	67252224	41956448	24992
762	2.63596	98160640	67252224	45248632	24992
763	3.951048	98160640	67252224	47704936	24992
764	7.800046	98430976	67252224	34701808	24992
765	6.511151	98430976	67252224	38818240	24992
766	7.885955	98430976	67252224	43752016	24992
767	12.105896	98430976	67252224	33861072	24992
768	10.577531	98430976	67252224	40431544	24992
769	11.744776	98430976	67252224	47825376	24992
770	15.629834	98430976	67776512	39670536	24992
771	17.814965	98430976	67776512	33873112	24992
772	16.072892	98430976	67776512	43770400	24992
773	20.374359	98701312	67776512	38848056	24992
774	22.270369	98701312	67776512	35710600	24992
775	19.522386	98701312	67776512	48105136	24992
776	23.872114	98701312	67776512	44906064	24992
777	25.958181	98701312	67776512	43100632	24992
778	27.094048	98701312	67776512	42438888	24992
779	28.7203	98701312	67776512	42775472	24992
780	29.974937	98701312	67776512	43919608	24992
781	31.401835	98701312	67776512	45658480	24992
782	5.169245	98971648	67776512	32807672	24992
783	4.040955	98971648	67776512	35322824	24992
784	5.35767	98971648	67776512	38681088	24992
785	6.524388	98971648	67776512	42904720	24992
786	8.509351	98971648	67776512	47942584	24992
787	11.619545	98971648	67776512	37532728	24992
788	11.500197	98971648	67776512	44284136	24992
789	15.817372	98971648	67776512	36226424	24992
790	13.610741	98971648	67776512	44645832	24992
791	17.790092	98971648	68300800	38240872	24992
792	16.509208	98971648	68300800	48352264	24992
793	20.020171	98971648	68300800	42991296	24992
794	23.206565	99241984	68300800	39426440	24992
795	24.110772	99241984	68300800	37377608	24992
796	25.94878	99241984	68825088	36602576	24992
797	26.208039	99241984	68825088	36824296	24992
798	28.515078	99241984	68825088	37874440	24992
799	30.13287	99241984	68825088	39502512	24992
800	30.759486	99241984	68825088	41727456	24992
801	32.198112	99241984	68825088	44495696	24992
802	2.758223	99512320	68825088	48473464	24992
803	6.660486	99512320	68825088	34902104	24992
804	5.680149	99512320	68825088	38341168	24992
805	6.601848	99512320	68825088	42645520	24992
806	8.173549	99512320	68825088	47807608	24992
807	12.336841	99512320	68825088	37667792	24992
808	10.83275	99512320	68825088	44550752	24992
809	15.487676	99512320	68825088	36767952	24992
810	13.47671	99512320	68825088	45395432	24992
811	18.968522	99512320	68825088	39195640	24992
812	20.185232	99782656	68825088	34975904	24992
813	18.134277	99782656	68825088	46189808	24992
814	22.099928	99782656	68825088	42491120	24992
815	24.339638	99782656	68825088	40294656	24992
816	25.910691	99782656	68825088	39376992	24992
817	27.728436	99782656	68825088	39505120	24992
818	29.420627	99782656	69349376	40500960	24992
819	30.678616	99782656	69349376	42234304	24992
820	31.643406	100052992	69349376	44494112	24992
821	33.201591	100052992	69349376	47211320	24992
822	5.384876	100052992	69349376	35016456	24992
823	4.046445	100052992	69349376	37651504	24992
824	5.433182	100052992	69349376	41162208	24992
825	7.185242	100052992	69349376	45560504	24992
826	11.539468	100323328	69349376	35153008	24992
827	9.68073	100323328	69349376	41308048	24992
828	11.493646	100323328	69349376	48348768	24992
829	15.459806	100323328	69349376	40142424	24992
830	14.384649	100323328	69349376	48948152	24992
831	17.925239	100323328	69349376	42381344	24992
832	20.560367	100323328	69349376	37940376	24992
833	18.440029	100323328	69349376	49405952	24992
834	22.307276	100323328	69349376	45472856	24992
835	23.957793	100323328	69349376	43085288	24992
836	25.737012	100323328	69349376	42048408	24992
837	27.827388	100323328	69349376	42112736	24992
838	29.511258	100593664	69349376	43038848	24992
839	30.465259	100593664	69873664	44715848	24992
840	32.634353	100593664	69873664	47010088	24992
841	33.441659	100593664	69873664	49888608	24992
842	2.790343	100593664	69873664	40650904	24992
843	4.130815	100593664	69873664	43390672	24992
844	5.53952	100593664	69873664	47045224	24992
845	10.147322	100864000	69873664	35911824	24992
846	8.416469	100864000	69873664	41414152	24992
847	9.876381	100864000	69873664	47819280	24992
848	14.254729	100864000	69873664	39188472	24992
849	12.693075	100864000	69873664	47439552	24992
850	17.741594	100864000	69873664	40803536	24992
851	19.567726	100864000	69873664	36284512	24992
852	17.205862	100864000	69873664	47344304	24992
853	22.37759	100864000	69873664	43559440	24992
854	23.83791	101134336	69873664	41346184	24992
855	25.520018	101134336	70397952	40424664	24992
856	26.929207	101134336	70397952	40653064	24992
857	28.143105	101134336	70397952	41733752	24992
858	29.898905	101134336	70397952	43591392	24992
859	31.98135	101134336	70397952	46097384	24992
860	32.715268	101134336	70397952	49045048	24992
861	39.018188	101675008	70397952	39221760	24992
862	3.259081	104378368	73543680	49387568	24992
863	4.86053	104378368	73543680	52220856	24992
864	10.604104	104919040	74067968	40227552	24992
865	8.360933	104919040	74067968	44976992	24992
866	9.685223	104919040	74067968	50653616	24992
867	15.112901	104919040	74067968	41488552	24992
868	19.062105	104919040	74067968	49065400	24992
869	22.064642	102912000	72495104	20514992	24992
870	15.819032	103178240	72495104	15259928	24992
871	15.915642	103178240	72495104	25717736	24992
872	18.507459	103178240	72495104	21343264	24992
873	20.513759	103178240	72495104	18694536	24992
874	21.691585	103178240	72495104	17549352	24992
875	23.680514	103178240	72495104	17501328	24992
876	25.353538	103178240	72495104	18408944	24992
877	26.885683	103178240	72495104	20085168	24992
878	28.114755	103178240	72495104	22402072	24992
879	29.30166	103178240	72495104	25374504	24992
880	30.719744	103178240	72495104	28822368	24992
881	33.798609	103178240	72495104	19131120	24992
882	2.898582	103178240	72495104	26741584	24992
883	4.705366	103178240	72495104	29636816	24992
884	6.525512	103178240	72495104	17285480	24992
885	7.614549	103178240	72495104	22131056	24992
886	8.727549	103178240	72495104	27925472	24992
887	10.738959	103178240	72495104	18625840	24992
888	11.69607	103178240	72495104	26382208	24992
889	14.152023	103178240	72495104	19284992	24992
890	14.634976	103178240	72495104	28967504	24992
891	16.676283	103178240	72495104	23343600	24992
892	18.926712	103178240	72495104	19718256	24992
893	20.853624	103178240	72495104	17729752	24992
894	23.151592	103178240	72495104	17033848	24992
895	24.047438	103178240	72495104	17495536	24992
896	25.398122	103178240	72495104	18820768	24992
897	27.065951	103178240	72495104	20906128	24992
898	28.5105	103178240	72495104	23652552	24992
899	30.304447	103178240	72495104	26852072	24992
900	33.480158	103178240	72495104	17390152	24992
901	36.699655	103178240	72495104	26452464	24992
902	3.581058	103178240	72495104	17820312	24992
903	4.510183	103178240	72495104	20774048	24992
904	6.215121	103178240	72495104	24718024	24992
905	7.548743	103178240	72495104	29632248	24992
906	9.79439	103178240	72495104	19856144	24992
907	10.656719	103178240	72495104	26743184	24992
908	12.99364	103178240	72495104	19454720	24992
909	13.784083	103178240	72495104	28321088	24992
910	16.515693	103178240	72495104	22776712	24992
911	16.879971	103178240	72495104	33673704	24992
912	18.490038	103178240	72495104	29108024	24992
913	20.893959	103178240	72495104	26374760	24992
914	23.092856	103178240	72495104	25107832	24992
915	24.976975	103178240	72495104	25064200	24992
916	26.272229	103178240	72495104	26023960	24992
917	27.627678	103178240	72495104	27765096	24992
918	28.928179	103178240	72495104	30256344	24992
919	30.403418	103178240	72495104	33349816	24992
920	33.023225	103178240	72495104	23428176	24992
921	33.951371	103178240	72495104	29767560	24992
922	3.081705	103448576	72495104	24215360	24992
923	4.599223	103448576	72495104	27219896	24992
924	6.527751	103448576	72495104	31247728	24992
925	11.278895	104259584	73019392	23235944	24992
926	9.158786	104259584	73019392	29264400	24992
927	10.902678	104259584	73019392	36310216	24992
928	13.065148	104259584	73019392	28270232	24992
929	14.208748	104259584	73019392	37337104	24992
930	15.816487	104259584	73019392	31045312	24992
931	17.927151	104259584	73019392	26909224	24992
932	20.356549	104259584	73019392	24452408	24992
933	20.47254	104259584	73019392	37542040	24992
934	21.668938	104259584	73019392	35194248	24992
935	24.507252	104259584	73019392	34368928	24992
936	26.134695	104259584	73019392	34696216	24992
937	27.086434	104259584	73019392	35926240	24992
938	31.311043	104259584	73019392	24731680	24992
939	34.448989	104259584	73019392	32703824	24992
940	32.216055	104259584	73019392	37903344	24992
941	35.166245	104259584	73019392	30114776	24992
942	3.170895	104259584	73019392	42282448	24992
943	5.646616	104259584	73019392	29795840	24992
944	6.653867	104259584	73019392	33924064	24992
945	7.973349	104259584	73019392	39084064	24992
946	10.549208	104259584	73019392	29886496	24992
947	11.277108	104259584	73019392	37071584	24992
948	13.531571	104259584	73019392	30254768	24992
949	14.142277	104259584	73019392	39637472	24992
950	17.101517	104259584	73019392	34344936	24992
951	19.184466	104259584	73019392	31231080	24992
952	18.700278	104259584	73019392	43800352	24992
953	20.893042	104259584	73019392	40838352	24992
954	22.9854	104259584	73019392	39448600	24992
955	25.105481	104259584	73019392	39469968	24992
956	26.893312	104259584	73019392	40502920	24992
957	28.620117	104259584	73019392	42382096	24992
958	30.341826	104259584	73019392	44973424	24992
959	32.720825	104259584	73019392	34499656	24992
960	33.786861	104259584	73019392	40535376	24992
961	37.764453	104259584	73019392	33701640	24992
962	3.228682	104259584	73019392	46340184	24992
963	5.669291	104259584	73019392	33818680	24992
964	6.732491	104259584	73019392	37982360	24992
965	8.076936	104259584	73019392	43234128	24992
966	10.434327	104259584	73019392	34117456	24992
967	11.320391	104259584	73019392	41415648	24992
968	14.068068	104259584	73019392	34707944	24992
969	14.431633	104259584	73019392	44097232	24992
970	17.373113	104259584	73019392	39021152	24992
971	19.388575	104259584	73019392	35925288	24992
972	20.073175	104259584	73019392	48520800	24992
973	21.4703	104259584	73019392	45797824	24992
974	23.773267	104259584	73019392	44520408	24992
975	25.57149	104259584	73019392	44566008	24992
976	27.860319	104259584	73019392	45633888	24992
977	28.787118	104259584	73019392	47599744	24992
978	31.626895	104259584	73019392	36939296	24992
979	35.27706	104259584	73019392	45595008	24992
980	34.540929	104259584	73019392	51478912	24992
981	37.077959	104259584	73019392	43896808	24992
982	3.857833	104259584	73019392	37352696	24992
983	4.9087	104259584	73019392	40532968	24992
984	6.738225	104259584	73019392	44774752	24992
985	8.198012	104259584	73019392	50078976	24992
986	10.486839	104259584	73019392	40534648	24992
987	11.669379	104259584	73019392	47967792	24992
988	14.345735	104259584	73019392	40944160	24992
989	15.010091	104259584	73019392	50509328	24992
990	16.859918	104259584	73019392	45101880	24992
991	19.659931	104259584	73019392	41746784	24992
992	21.532777	104259584	73019392	40143824	24992
993	23.477617	104259584	73019392	39818936	24992
994	25.65206	104259584	73019392	40650216	24992
995	26.922277	104259584	73019392	42474232	24992
996	28.002966	104259584	73019392	44942536	24992
997	30.237742	104259584	73019392	48098752	24992
998	31.232133	104259584	73019392	51761560	24992
999	34.291956	104259584	73019392	42557808	24992
1000	35.225643	104259584	73019392	49331432	24992
