x	Duration	RSS	HeapTotal	HeapUsed	External
0	NA	109207552	78786560	34341544	24992
1	0.362975	109207552	78786560	34389264	24992
2	0.392395	109207552	78786560	34465568	24992
3	0.463318	109207552	78786560	34568856	24992
4	0.556263	109207552	78786560	34700640	24992
5	0.660109	109207552	78786560	34862416	24992
6	0.790127	109207552	78786560	35054680	24992
7	0.894477	109207552	78786560	35278320	24992
8	1.028631	109207552	78786560	35534376	24992
9	1.132687	109207552	78786560	35824760	24992
10	1.283239	109207552	78786560	36150144	24992
11	1.402959	109207552	78786560	36511376	24992
12	1.555922	109207552	78786560	36909536	24992
13	1.01538	109207552	78786560	37345504	24992
14	0.700779	109207552	78786560	37820296	24992
15	1.329062	109207552	78786560	22072504	24992
16	0.898939	109207552	78786560	22627936	24992
17	0.920155	109207552	78786560	23227024	24992
18	0.938502	109207552	78786560	23868784	24992
19	0.994967	109207552	78786560	24555336	24992
20	1.157507	109207552	78786560	25286640	24992
21	1.329345	109207552	78786560	26064888	24992
22	0.167104	109207552	78786560	26860224	24992
23	0.246125	109207552	78786560	27002464	24992
24	0.313114	109207552	78786560	27194688	24992
25	0.593525	109207552	78786560	27437920	24992
26	0.48281	109207552	78786560	27733656	24992
27	0.550614	109207552	78786560	28082424	24992
28	0.614994	109207552	78786560	28485040	24992
29	0.68692	109207552	78786560	28942560	24992
30	0.76585	109207552	78786560	29457040	24992
31	0.855523	109207552	78786560	30028304	24992
32	0.942695	109207552	78786560	30657416	24992
33	1.02106	109207552	78786560	31345384	24992
34	1.106741	109207552	78786560	32093064	24992
35	1.248477	109207552	78786560	32901592	24992
36	1.28672	109207552	78786560	33771816	24992
37	1.374723	109207552	78786560	34704976	24992
38	1.699381	109207552	78786560	35703432	24992
39	1.56623	109207552	78786560	36766488	24992
40	1.67663	109207552	78786560	37895600	24992
41	3.624582	109477888	78786560	23341664	24992
42	0.229063	109477888	78786560	24604904	24992
43	0.338937	109477888	78786560	24808960	24992
44	0.435462	109477888	78786560	25082456	24992
45	0.541173	109477888	78786560	25429536	24992
46	0.665758	109477888	78786560	25846896	24992
47	0.757599	109477888	78786560	26337408	24992
48	0.858919	109477888	78786560	26902248	24992
49	0.969595	109477888	78786560	27541920	24992
50	1.096792	109477888	78786560	28260704	24992
51	1.205652	109477888	78786560	29058696	24992
52	1.309304	109477888	78786560	29936808	24992
53	1.43594	109477888	78786560	30896056	24992
54	1.55776	109477888	78786560	31937368	24992
55	1.708797	109477888	78786560	33061992	24992
56	2.028578	109477888	78786560	34270600	24992
57	1.927355	109477888	78786560	35565312	24992
58	2.118334	109477888	78786560	36946640	24992
59	2.270023	109477888	78786560	38414736	24992
60	4.349953	109477888	78786560	24286696	24992
61	2.425219	109477888	78786560	25932040	24992
62	0.287561	109477888	78786560	27690872	24992
63	0.429439	109477888	78786560	27961744	24992
64	0.566526	109477888	78786560	28324368	24992
65	0.691868	109477888	78786560	28779832	24992
66	0.834955	109477888	78786560	29329552	24992
67	0.969106	109477888	78786560	29974120	24992
68	1.102357	109477888	78786560	30714336	24992
69	1.449829	109477888	78786560	31551376	24992
70	1.413129	109477888	78786560	32488936	24992
71	1.58009	109477888	78786560	33523120	24992
72	1.688716	109477888	78786560	34657048	24992
73	1.880003	109477888	78786560	35891464	24992
74	1.982322	109477888	78786560	37227400	24992
75	2.136027	109477888	78786560	38666056	24992
76	3.828953	109477888	78786560	24334472	24992
77	2.641619	109477888	78786560	25980976	24992
78	2.797525	109477888	78786560	27734832	24992
79	2.964771	109477888	78786560	29595512	24992
80	3.15393	109477888	78786560	31566232	24992
81	3.186157	109477888	78786560	33643912	24992
82	0.348586	109477888	78786560	35880440	24992
83	0.518185	109477888	78786560	36209792	24992
84	0.679714	109477888	78786560	36652640	24992
85	0.854733	109477888	78786560	37207800	24992
86	1.240042	109477888	78786560	37877848	24992
87	1.181495	109477888	78786560	38663368	24992
88	1.342775	109477888	78786560	39565120	24992
89	2.776428	109477888	78786560	24564400	24992
90	1.712218	109477888	78786560	25703416	24992
91	1.87203	109477888	78786560	26961112	24992
92	2.262252	109477888	78786560	28339216	24992
93	2.406484	109477888	78786560	29839232	24992
94	2.538179	109477888	78786560	31460672	24992
95	2.626592	109477888	78786560	33206576	24992
96	2.768899	109477888	78786560	35075312	24992
97	3.032408	109477888	78786560	37069224	24992
98	3.36682	109477888	78786560	39191824	24992
99	4.602083	109477888	78786560	25468288	24992
100	3.725121	109477888	78786560	27846288	24992
101	3.774668	109477888	78786560	30352696	24992
102	0.412936	109477888	78786560	33075528	24992
103	0.610176	109477888	78786560	33479152	24992
104	0.803985	109477888	78786560	34018904	24992
105	1.019284	109477888	78786560	34695864	24992
106	1.193908	109477888	78786560	35511336	24992
107	1.396342	109477888	78786560	36465816	24992
108	1.608708	109477888	78786560	37563160	24992
109	1.806955	109477888	78786560	38800336	24992
110	2.019222	109477888	78786560	40178752	24992
111	3.350887	109477888	78786560	25587968	24992
112	2.44173	109477888	78786560	27253200	24992
113	2.651496	109477888	78786560	29063312	24992
114	2.862005	109477888	78786560	31019440	24992
115	3.071514	109477888	78786560	33122360	24992
116	3.294628	109477888	78786560	35373096	24992
117	3.728785	109477888	78786560	37772704	24992
118	3.708962	109477888	78786560	40324880	24992
119	5.064482	109477888	78786560	26881976	24992
120	4.414928	109477888	78786560	29736056	24992
121	4.819304	109477888	78786560	32742968	24992
122	0.495535	109477888	78786560	36002568	24992
123	0.743148	109477888	78786560	36464720	24992
124	0.979145	109477888	78786560	37082488	24992
125	1.229344	109477888	78786560	37856840	24992
126	1.486438	109477888	78786560	38792112	24992
127	1.909175	109477888	78786560	39883112	24992
128	3.028351	109477888	78786560	25097472	24992
129	2.109877	109477888	78786560	26509672	24992
130	2.342758	109477888	78786560	28083096	24992
131	2.56758	109477888	78786560	29819016	24992
132	3.032657	109477888	78786560	31718288	24992
133	3.277084	109477888	78786560	33783192	24992
134	3.303774	109477888	78786560	36012192	24992
135	3.560815	109477888	78786560	38407664	24992
136	3.79902	109477888	78786560	40970368	24992
137	5.390068	109477888	78786560	27507528	24992
138	4.512534	109477888	78786560	30410944	24992
139	4.549153	109477888	78786560	33483456	24992
140	4.785484	109477888	78786560	36727544	24992
141	5.287994	109477888	78786560	40148408	24992
142	0.573386	109477888	78786560	27805816	24992
143	0.868127	109477888	78786560	28332904	24992
144	1.125191	109477888	78786560	29036048	24992
145	1.400632	109477888	78786560	29917064	24992
146	1.69126	109477888	78786560	30977512	24992
147	1.959313	109477888	78786560	32217952	24992
148	2.251472	109477888	78786560	33640816	24992
149	2.522935	109477888	78786560	35243800	24992
150	2.874373	109477888	78786560	37031608	24992
151	2.918211	109477888	78786560	39002160	24992
152	3.206265	109477888	78786560	41157640	24992
153	4.797194	109477888	78786560	27325256	24992
154	3.736675	109477888	78786560	29853152	24992
155	4.220299	109477888	78786560	32568592	24992
156	4.292403	109477888	78786560	35472616	24992
157	4.571884	109477888	78786560	38569552	24992
158	6.42178	109477888	78786560	26097928	24992
159	5.140138	109477888	78786560	29576432	24992
160	5.581896	109477888	78786560	33248520	24992
161	5.763315	109477888	78786560	37112680	24992
162	0.814049	109477888	78786560	41315104	24992
163	2.058797	109477888	78786560	25740984	24992
164	1.200611	109477888	78786560	26522792	24992
165	1.473289	109477888	78786560	27501296	24992
166	1.756589	109477888	78786560	28678776	24992
167	2.063033	109477888	78786560	30055616	24992
168	2.347317	109477888	78786560	31632920	24992
169	2.877446	109477888	78786560	33412272	24992
170	2.959721	109477888	78786560	35394152	24992
171	3.27168	109477888	78786560	37581272	24992
172	3.966929	109477888	78786560	39970728	24992
173	5.348073	109477888	78786560	26652080	24992
174	4.466645	109477888	78786560	29458136	24992
175	4.765279	109477888	78786560	32469760	24992
176	4.788986	109477888	78786560	35685880	24992
177	5.585197	109477888	78786560	39114504	24992
178	7.075902	109477888	78786560	26997720	24992
179	5.953381	109477888	78786560	30845936	24992
180	6.062972	109477888	78786560	34906656	24992
181	6.567657	109477888	78786560	39185992	24992
182	0.722957	109477888	78786560	28082296	24992
183	0.990043	109477888	78786560	28725424	24992
184	1.327082	109477888	78786560	29584528	24992
185	1.631815	109477888	78786560	30660608	24992
186	1.9441	109477888	78786560	31955160	24992
187	2.278949	109477888	78786560	33468576	24992
188	2.797739	109477888	78786560	35202648	24992
189	2.939585	109477888	78786560	37156736	24992
190	3.257226	109477888	78786560	39333632	24992
191	3.594607	109477888	78786560	41733344	24992
192	5.430719	109477888	78786560	28209448	24992
193	4.273066	109477888	78786560	31057656	24992
194	4.590936	109477888	78786560	34131384	24992
195	4.933144	109477888	78786560	37432664	24992
196	5.256437	109477888	78786560	40960976	24992
197	7.24633	109477888	78786560	28711008	24992
198	6.717568	109477888	78786560	32709792	24992
199	6.325017	109477888	78786560	36928464	24992
200	6.969167	109477888	78786560	41379232	24992
201	8.407673	109477888	78786560	29977648	24992
202	0.724742	109477888	78786560	35098144	24992
203	1.069374	109477888	78786560	35799912	24992
204	1.424539	109477888	78786560	36737088	24992
205	1.764613	109477888	78786560	37910816	24992
206	2.354424	109477888	78786560	39322336	24992
207	2.487296	109477888	78786560	40980488	24992
208	2.891961	109477888	78786560	42886216	24992
209	4.553348	109477888	78786560	28772176	24992
210	3.981389	109477888	78786560	31176984	24992
211	4.142475	109477888	78786560	33832408	24992
212	4.757704	109477888	78786560	36739272	24992
213	4.74023	109477888	78786560	39898800	24992
214	7.168341	109477888	78786560	27578576	24992
215	5.578863	109477888	78786560	31245848	24992
216	6.315686	109477888	78786560	35169104	24992
217	6.380815	109477888	78786560	39353216	24992
218	8.790682	109477888	78786560	28111696	24992
219	7.199801	109477888	78786560	32818544	24992
220	7.698546	109477888	78786560	37776992	24992
221	8.329477	109477888	78786560	42997144	24992
222	0.80753	109477888	78786560	32432448	24992
223	1.235498	109477888	78786560	33217344	24992
224	1.64815	109477888	78786560	34265528	24992
225	2.048531	109477888	78786560	35577792	24992
226	2.479305	109477888	78786560	37155848	24992
227	2.890895	109477888	78786560	39000056	24992
228	3.297632	109477888	78786560	41111272	24992
229	3.698272	109477888	78786560	43501216	24992
230	5.626872	109477888	78786560	29874376	24992
231	4.533611	109477888	78786560	32808032	24992
232	4.954542	109477888	78786560	36009944	24992
233	5.608706	109477888	78786560	39488368	24992
234	5.788325	109477888	78786560	43240968	24992
235	7.591999	109477888	78786560	31001792	24992
236	7.01218	109477888	78786560	35311328	24992
237	7.045779	109477888	78786560	39904520	24992
238	9.593448	109477888	78786560	29092096	24992
239	8.125884	109477888	78786560	34240608	24992
240	8.411241	109477888	78786560	39671064	24992
241	10.786021	109477888	78786560	29728664	24992
242	0.897628	109477888	78786560	35980768	24992
243	1.33997	109477888	78786560	36838120	24992
244	1.762582	109477888	78786560	37975752	24992
245	2.43523	109477888	78786560	39399880	24992
246	2.607126	109477888	78786560	41112304	24992
247	3.137038	109477888	78786560	43113152	24992
248	4.982407	109477888	78786560	29256976	24992
249	4.626563	109477888	78786560	31846984	24992
250	4.432954	109477888	78786560	34723528	24992
251	5.050129	109477888	78786560	37889328	24992
252	5.367972	109477888	78786560	41350024	24992
253	7.611756	109477888	78786560	29277728	24992
254	6.272307	109477888	78786560	33333432	24992
255	6.669464	109477888	78786560	37682144	24992
256	7.195601	109477888	78786560	42327240	24992
257	9.600231	109477888	78786560	31251256	24992
258	8.431414	109477888	78786560	36496296	24992
259	8.606179	109477888	78786560	42046224	24992
260	10.944192	109477888	78786560	31917704	24992
261	9.546065	109477888	78786560	38063672	24992
262	2.335934	109477888	78786560	28544408	24992
263	1.456217	109477888	78786560	29454984	24992
264	1.897767	109477888	78786560	30670728	24992
265	2.381987	109477888	78786560	32192384	24992
266	2.842103	109477888	78786560	34021592	24992
267	3.335999	109477888	78786560	36160664	24992
268	3.887752	109477888	78786560	38607000	24992
269	4.330376	109477888	78786560	41363400	24992
270	4.784159	109477888	78786560	44437384	24992
271	6.820876	109477888	78786560	31525840	24992
272	5.755249	109477888	78786560	35218984	24992
273	6.213196	109477888	78786560	39226296	24992
274	6.915382	109477888	78786560	43548048	24992
275	8.789752	109477888	78786560	32059424	24992
276	7.81206	109477888	78786560	37016920	24992
277	8.445502	109477888	78786560	42289120	24992
278	10.622498	109477888	78786560	31929504	24992
279	9.218246	109477888	78786560	37855352	24992
280	9.815467	109477888	78786560	44090888	24992
281	11.510244	109477888	78786560	34398688	24992
282	1.042675	109477888	78786560	41583080	24992
283	1.467581	109477888	78786560	42552216	24992
284	2.00077	109477888	78786560	43848704	24992
285	4.254457	109477888	78786560	29356464	24992
286	3.209092	109477888	78786560	31302808	24992
287	3.612239	109477888	78786560	33576704	24992
288	4.278771	109477888	78786560	36179056	24992
289	4.565184	109477888	78786560	39118384	24992
290	5.302427	109477888	78786560	42381736	24992
291	7.239298	109477888	78786560	30142808	24992
292	6.069283	109477888	78786560	34086720	24992
293	6.672683	109477888	78786560	38347688	24992
294	7.338995	109477888	78786560	42942696	24992
295	9.595466	109477888	78786560	31892280	24992
296	8.392544	109477888	78786560	37158656	24992
297	8.946222	109477888	78786560	42768280	24992
298	11.205005	109477888	78786560	32788616	24992
299	10.013318	109477888	78786560	39074152	24992
300	12.724397	109477888	78786560	30441712	24992
301	10.696861	109477888	78786560	37406592	24992
302	1.110794	109477888	78786560	45038360	24992
303	3.304805	109477888	78786560	29856672	24992
304	2.057867	109477888	78786560	31228344	24992
305	2.958309	109477888	78786560	32946728	24992
306	3.090563	109477888	78786560	35010304	24992
307	3.82092	109477888	78786560	37420616	24992
308	4.514618	109477888	78786560	40181728	24992
309	4.81313	109477888	78786560	43289080	24992
310	7.444143	109477888	78786560	30832656	24992
311	5.900033	109477888	78786560	34642704	24992
312	6.400042	109477888	78786560	38803816	24992
313	7.235593	109477888	78786560	43317888	24992
314	9.447359	109477888	78786560	32236000	24992
315	8.329875	109477888	78786560	37469840	24992
316	8.629954	109477888	78786560	43050632	24992
317	10.886788	109477888	78786560	33104784	24992
318	9.782007	109477888	78786560	39401880	24992
319	11.970713	109477888	78786560	29673400	24992
320	10.684744	109477888	78786560	36686928	24992
321	11.61274	109477888	78786560	44066952	24992
322	1.142025	109477888	78786560	36107832	24992
323	1.712931	109477888	78786560	37193920	24992
324	2.29161	109477888	78786560	38644336	24992
325	2.862293	109477888	78786560	40458672	24992
326	3.42301	109477888	78786560	42639088	24992
327	4.087921	109477888	78786560	45190888	24992
328	6.21545	109477888	78786560	31984416	24992
329	5.15571	109477888	78786560	35267240	24992
330	5.888888	109477888	78786560	38920488	24992
331	6.301844	109477888	78786560	42947464	24992
332	8.800136	109477888	78786560	31567240	24992
333	7.62845	109477888	78786560	36342528	24992
334	8.237188	109477888	78786560	41494728	24992
335	10.473034	109477888	78786560	31494744	24992
336	8.913093	109477888	78786560	37385248	24992
337	9.968792	109477888	78786560	43657816	24992
338	12.58095	109477888	78786560	34427024	24992
339	10.942908	109477888	78786560	41451096	24992
340	13.962736	109477888	78786560	33343416	24992
341	12.068336	109477888	78786560	41127640	24992
342	1.424583	109477888	78786560	34227112	24992
343	1.748232	109477888	78786560	35371736	24992
344	2.284213	109477888	78786560	36899400	24992
345	2.962339	109477888	78786560	38811144	24992
346	3.609732	109477888	78786560	41108480	24992
347	4.412766	109477888	78786560	43801752	24992
348	6.643929	109477888	78786560	31060712	24992
349	5.394796	109477888	78786560	34520720	24992
350	6.010902	109477888	78786560	38369352	24992
351	6.824686	109477888	78786560	42607616	24992
352	9.471881	109477888	78786560	31597864	24992
353	7.698101	109477888	78786560	36619096	24992
354	8.268091	109477888	78786560	42032960	24992
355	11.448332	109477888	78786560	32307520	24992
356	10.076112	109477888	78786560	38520448	24992
357	10.453935	109477888	78786560	45126144	24992
358	13.145313	109477888	78786560	36078544	24992
359	11.734601	109477888	78786560	43473888	24992
360	14.342991	109477888	78786560	35507624	24992
361	12.871977	109477888	78786560	43720296	24992
362	1.287336	109477888	78786560	36921968	24992
363	2.105727	109477888	78786560	38141128	24992
364	2.534213	109477888	78786560	39764592	24992
365	3.107453	109477888	78786560	41796096	24992
366	3.673683	109477888	78786560	44237080	24992
367	4.662971	109477888	78786560	47088304	24992
368	6.717713	109477888	78786560	34080024	24992
369	5.757667	109477888	78786560	37753960	24992
370	6.292093	109477888	78786560	41843864	24992
371	7.199153	109477888	78786560	46346560	24992
372	9.637882	109477888	78786560	35085800	24992
373	8.122499	109477888	78786560	40418344	24992
374	8.890082	109477888	78786560	46168840	24992
375	11.738442	109477888	78786560	36171728	24992
376	10.289366	109477888	78786560	42769472	24992
377	13.409471	109477888	78786560	34208480	24992
378	11.651363	109477888	78786560	41637208	24992
379	14.488274	109477888	78786560	34152416	24992
380	12.826871	109477888	78786560	42432744	24992
381	15.891561	109477888	78786560	35637872	24992
382	1.331153	109477888	78786560	45194816	24992
383	1.97904	109477888	78786560	46472344	24992
384	4.5467	109477888	78786560	32088400	24992
385	3.271531	109477888	78786560	34217360	24992
386	3.87414	109477888	78786560	36775416	24992
387	4.636661	109477888	78786560	39762984	24992
388	5.312317	109477888	78786560	43180864	24992
389	6.380417	109477888	78786560	47030288	24992
390	8.311897	109477888	78786560	35130552	24992
391	7.388919	109477888	78786560	39869576	24992
392	7.916107	109477888	78786560	45036448	24992
393	10.759865	109477888	78786560	34751080	24992
394	9.558789	109477888	78786560	40780472	24992
395	9.994122	109477888	78786560	47239952	24992
396	12.689228	109477888	78786560	37905216	24992
397	11.465741	109477888	78786560	45245336	24992
398	14.453703	109477888	78786560	37146576	24992
399	12.920442	109477888	78786560	45366768	24992
400	15.695413	109477888	78786560	38151024	24992
401	14.31081	109477888	78786560	47271864	24992
402	1.398978	109477888	78786560	41030656	24992
403	2.090659	109477888	78786560	42364112	24992
404	2.757707	109477888	78786560	44143608	24992
405	3.494265	109477888	78786560	46370152	24992
406	6.388282	109477888	78786560	33076024	24992
407	4.68652	109477888	78786560	36200088	24992
408	5.525384	109477888	78786560	39775008	24992
409	6.120692	109477888	78786560	43815880	24992
410	6.971798	109477888	78786560	48298952	24992
411	9.433924	109477888	78786560	36872272	24992
412	8.390603	109477888	78786560	42263384	24992
413	9.144651	109477888	78786560	48110184	24992
414	11.638031	109477888	78786560	38100592	24992
415	10.563807	109477888	78786560	44860736	24992
416	13.636471	109477888	78786560	36353632	24992
417	11.649235	109477888	78786560	44049232	24992
418	15.035526	109477888	78786560	36633528	24992
419	13.297716	109477888	78786560	45276944	24992
420	16.453654	109477888	78786560	38620864	24992
421	14.954088	109477888	78786560	48240688	24992
422	1.470731	109477888	78786560	42501528	24992
423	2.155915	109477888	78786560	43942856	24992
424	2.914401	109477888	78786560	45866224	24992
425	3.623922	109477888	78786560	48280336	24992
426	6.498461	109477888	78786560	34986616	24992
427	5.100818	109477888	78786560	38376160	24992
428	6.144926	109477888	78786560	42251656	24992
429	6.585228	109477888	78786560	46613280	24992
430	9.777441	109477888	78786560	35447344	24992
431	8.507872	109477888	78786560	40782392	24992
432	8.643828	109477888	78786560	46606936	24992
433	11.7259	109477888	78786560	36927928	24992
434	10.280624	109477888	78786560	43727704	24992
435	13.594772	109477888	78786560	35544944	24992
436	11.87322	109477888	78786560	43337968	24992
437	15.284971	109477888	78786560	36237552	24992
438	13.513978	109477888	78786560	45017168	24992
439	16.595908	109477888	78786560	38618520	24992
440	14.987395	109477888	78786560	48401592	24992
441	17.450499	109477888	78786560	42461992	24992
442	1.535352	109477888	78786560	38562008	24992
443	2.260284	109477888	78786560	40061808	24992
444	3.02378	109477888	78786560	42063064	24992
445	3.803071	109477888	78786560	44566968	24992
446	4.58516	109477888	78786560	47574864	24992
447	7.519916	109477888	78786560	35062448	24992
448	6.231036	109477888	78786560	39087472	24992
449	6.969921	109477888	78786560	43611576	24992
450	7.467821	109477888	78786560	48643984	24992
451	10.186611	109477888	78786560	37950512	24992
452	9.375973	109477888	78786560	44004776	24992
453	12.951794	109477888	78786560	35193512	24992
454	10.831927	109477888	78786560	42290864	24992
455	14.438838	109477888	78786560	34729176	24992
456	12.224899	109477888	78786560	42849104	24992
457	15.901929	109477888	78786560	36252024	24992
458	14.130869	109477888	78786560	45390024	24992
459	17.067089	109477888	78786560	39380480	24992
460	15.536555	109477888	78786560	49549176	24992
461	18.514081	109477888	78786560	43892048	24992
462	1.78887	109477888	78786560	40279600	24992
463	2.370091	109477888	78786560	41841712	24992
464	3.165182	109477888	78786560	43921056	24992
465	3.961708	109477888	78786560	46522384	24992
466	4.758136	109477888	78786560	49647256	24992
467	7.609472	109477888	78786560	37031200	24992
468	6.577899	109477888	78786560	41204968	24992
469	7.34829	109477888	78786560	45904536	24992
470	10.417476	109477888	78786560	35534576	24992
471	8.935441	109477888	78786560	41289848	24992
472	9.678542	109477888	78786560	47683280	24992
473	12.925973	109477888	78786560	38518056	24992
474	11.189416	109477888	78786560	45862792	24992
475	14.955523	109477888	78786560	38110984	24992
476	12.901966	109477888	78786560	46520208	24992
477	16.425933	109477888	78786560	39759712	24992
478	14.642365	109477888	78786560	49242568	24992
479	17.268516	109477888	78786560	43027200	24992
480	20.303831	109477888	78786560	38527016	24992
481	16.851409	109477888	78786560	49616392	24992
482	1.662433	109477888	79310848	45687216	24992
483	2.443185	109477888	79310848	47304080	24992
484	3.390868	109477888	79310848	49461392	24992
485	6.617726	109748224	79310848	36047152	24992
486	4.893657	109748224	79310848	39288968	24992
487	6.086513	109748224	79310848	43104696	24992
488	6.468087	109748224	79310848	47434336	24992
489	9.678653	109748224	79310848	36478960	24992
490	8.28817	109748224	79310848	41901368	24992
491	9.216315	109748224	79310848	47876760	24992
492	12.385623	109748224	79310848	38545936	24992
493	10.874994	109748224	79310848	45613360	24992
494	14.217612	109748224	79310848	37719360	24992
495	12.467893	109748224	79310848	45901040	24992
496	15.964545	109748224	79310848	39069928	24992
497	14.585126	109748224	79310848	48344344	24992
498	17.599622	109748224	79310848	42214656	24992
499	19.009864	110018560	79310848	37742456	24992
500	16.865856	110018560	79310848	48710552	24992
501	20.110166	110018560	79310848	44200808	24992
502	1.740328	110018560	79310848	41635432	24992
503	2.569512	110018560	79310848	43310776	24992
504	3.420441	110018560	79310848	45546016	24992
505	4.119131	110018560	79310848	48342400	24992
506	7.52562	110018560	79310848	35887688	24992
507	6.356221	110018560	79310848	39809488	24992
508	8.041251	110018560	79310848	44311296	24992
509	7.757275	110284800	79310848	49386688	24992
510	11.171105	110284800	79310848	38963704	24992
511	9.470528	110284800	79310848	45148048	24992
512	13.076833	110284800	79310848	36607336	24992
513	11.417916	110284800	79310848	43932368	24992
514	15.054794	110284800	79310848	36740040	24992
515	13.10642	110284800	79310848	45204816	24992
516	16.79086	110284800	79310848	38933656	24992
517	14.859361	110284800	79310848	48561960	24992
518	18.55319	110284800	79310848	42827240	24992
519	19.432403	110284800	79310848	38728264	24992
520	17.256589	110284800	79310848	50078624	24992
521	20.707581	110284800	79310848	45855968	24992
522	1.764941	110284800	79310848	43579472	24992
523	2.647402	110284800	79310848	45313296	24992
524	3.535498	110284800	79310848	47626576	24992
525	4.584656	110284800	79310848	50522496	24992
526	7.871882	110284800	79310848	37903616	24992
527	6.564411	110284800	79310848	41976536	24992
528	7.16704	110284800	79310848	46628736	24992
529	8.20723	110284800	79310848	51868464	24992
530	11.268408	110284800	79310848	41271688	24992
531	10.033681	110284800	79310848	47684080	24992
532	13.354079	110284800	79310848	39035344	24992
533	11.783348	110284800	79310848	46621624	24992
534	15.554175	110284800	79310848	39377824	24992
535	13.651821	110284800	79310848	48154496	24992
536	17.360751	110284800	79310848	41767624	24992
537	15.253803	110284800	79310848	51709552	24992
538	18.265404	110284800	79310848	45933824	24992
539	20.165596	110284800	79310848	41744832	24992
540	21.112093	110284800	79310848	38882672	24992
541	18.731931	110284800	79310848	51216144	24992
542	1.855516	110284800	79310848	48547992	24992
543	2.659781	110284800	79310848	50340664	24992
544	6.271293	110284800	79310848	36797320	24992
545	4.463135	110284800	79310848	39790968	24992
546	5.629456	110284800	79310848	43390392	24992
547	6.933012	110284800	79310848	47588216	24992
548	7.604208	110284800	79310848	52395928	24992
549	10.63836	110284800	79310848	41387960	24992
550	9.323539	110284800	79310848	47395336	24992
551	13.048871	110284800	79310848	38509040	24992
552	11.167192	110284800	79310848	45735560	24992
553	15.126507	110284800	79310848	38381712	24992
554	13.100634	110284800	79310848	46825264	24992
555	16.93808	110284800	79310848	40485992	24992
556	15.077018	110284800	79310848	50171184	24992
557	18.840592	110284800	79310848	44471320	24992
558	19.940736	110284800	79310848	40416216	24992
559	17.892338	110284800	79310848	51975104	24992
560	20.952179	110284800	79310848	47823472	24992
561	22.391505	110284800	79310848	45033208	24992
562	1.923944	110284800	79310848	44000704	24992
563	2.864214	110284800	79310848	45872272	24992
564	4.317571	110284800	79310848	48368728	24992
565	4.702461	110284800	79310848	51491496	24992
566	8.332108	110284800	79310848	39210680	24992
567	6.649307	110284800	79310848	43604200	24992
568	7.680101	110284800	79310848	48619416	24992
569	11.453085	110284800	79310848	38617552	24992
570	9.565747	110284800	79310848	44890592	24992
571	10.578692	110284800	79310848	51806280	24992
572	14.088503	110284800	79310848	43159248	24992
573	12.667031	110284800	79310848	51358320	24992
574	16.21598	110284800	79310848	44078096	24992
575	17.960808	110284800	79310848	38704952	24992
576	15.285115	110284800	79310848	48791248	24992
577	19.431765	110284800	79310848	43873296	24992
578	20.865286	110284800	79310848	40474512	24992
579	18.521736	110284800	79310848	52498368	24992
580	21.797672	110284800	79310848	48833520	24992
581	23.394094	110284800	79310848	46519768	24992
582	1.952552	110284800	79310848	45932216	24992
583	2.831998	110284800	79310848	47861936	24992
584	3.935911	110284800	79310848	50436472	24992
585	8.736078	110284800	79310848	37852656	24992
586	5.964649	110284800	79310848	41735336	24992
587	7.038471	110284800	79310848	46251880	24992
588	7.850411	110284800	79310848	51419760	24992
589	11.638613	110284800	79310848	41236336	24992
590	9.906116	110284800	79310848	47723224	24992
591	13.960294	110284800	79310848	39536072	24992
592	12.000942	110284800	79310848	47324416	24992
593	16.088798	110284800	79310848	40459376	24992
594	13.933577	110284800	79310848	49571336	24992
595	18.052831	110284800	79310848	43651088	24992
596	19.081797	110284800	79310848	39397664	24992
597	17.182963	110284800	79310848	50465472	24992
598	20.882448	110284800	79310848	46335080	24992
599	22.424593	110284800	79310848	43617680	24992
600	23.648218	110284800	79310848	42015424	24992
601	24.832771	110284800	79310848	41434608	24992
602	1.957173	110284800	79310848	42306320	24992
603	3.008318	110284800	79310848	44294720	24992
604	4.085555	110284800	79310848	46950904	24992
605	4.986707	110284800	79310848	50278728	24992
606	9.01839	110284800	79310848	38626344	24992
607	6.875203	110284800	79310848	43278152	24992
608	8.09945	110284800	79310848	48599840	24992
609	12.203555	110284800	79310848	39187928	24992
610	10.319431	110284800	79310848	45873176	24992
611	11.562981	110284800	79310848	53236088	24992
612	14.712173	110284800	79310848	45044584	24992
613	13.618251	110284800	79310848	53721624	24992
614	17.162001	110284800	79310848	46796144	24992
615	18.803618	110284800	79310848	41761712	24992
616	16.197174	110284800	79310848	52482104	24992
617	20.384133	110284800	79310848	47779128	24992
618	22.14679	110284800	79310848	44607256	24992
619	22.946065	110284800	79310848	42691752	24992
620	24.855124	110284800	79310848	41802792	24992
621	25.758557	110284800	79310848	41770152	24992
622	2.126199	110284800	79310848	43211960	24992
623	3.143833	110284800	79310848	45259216	24992
624	4.370806	110284800	79310848	47990472	24992
625	5.107632	110284800	79310848	51423520	24992
626	9.284175	110284800	79310848	39803192	24992
627	7.460686	110284800	79310848	44600136	24992
628	8.444969	110284800	79310848	50077536	24992
629	12.561359	110284800	79310848	40662064	24992
630	10.438418	110284800	79310848	47529344	24992
631	14.86949	110284800	79310848	39990576	24992
632	13.699599	110284800	79310848	48236784	24992
633	19.030959	110284800	79310848	41969248	24992
634	16.301233	110284800	79310848	51600512	24992
635	23.446137	110284800	79310848	46110160	24992
636	30.067156	105955328	75116544	18888872	24992
637	19.713028	106221568	75116544	16056776	24992
638	19.28306	106221568	75116544	28504088	24992
639	20.476857	106221568	75116544	25269448	24992
640	21.965533	106221568	75116544	23367304	24992
641	23.870532	106221568	75116544	22574264	24992
642	2.192577	106221568	75116544	23287960	24992
643	3.254995	106221568	75116544	25393376	24992
644	4.35252	106221568	75116544	28202008	24992
645	5.910964	106221568	75116544	15599744	24992
646	6.471194	106221568	75116544	19826336	24992
647	7.570102	106221568	75116544	24751432	24992
648	9.523912	106221568	75116544	14786336	24992
649	9.736345	106221568	75116544	21126592	24992
650	10.722857	106221568	75116544	28177000	24992
651	12.360214	106221568	75116544	19729576	24992
652	13.082765	106221568	75116544	28201344	24992
653	14.757659	106221568	75116544	21160848	24992
654	16.591406	106221568	75116544	16096816	24992
655	16.562694	106221568	75116544	26711976	24992
656	18.340108	106221568	75116544	22098272	24992
657	20.165825	106221568	75116544	19042480	24992
658	21.283936	106221568	75116544	17258848	24992
659	22.389264	106221568	75116544	16560312	24992
660	23.874114	106221568	75116544	16698656	24992
661	25.648458	106221568	75116544	17561872	24992
662	2.245384	106221568	75116544	19758304	24992
663	3.343904	106221568	75116544	21922000	24992
664	5.277358	106221568	75116544	24813616	24992
665	5.421575	106221568	75116544	28424016	24992
666	7.132534	106221568	75116544	16665912	24992
667	7.496112	106221568	75116544	21727416	24992
668	8.905127	106221568	75116544	27530792	24992
669	10.903948	106221568	75116544	18102808	24992
670	11.200223	106221568	75116544	25369920	24992
671	13.320143	106221568	75116544	17774224	24992
672	13.288479	106221568	75116544	26508856	24992
673	15.359775	106221568	75116544	20143760	24992
674	17.096146	106221568	75116544	15673768	24992
675	16.775475	106221568	75116544	26585392	24992
676	18.973587	106221568	75116544	22407280	24992
677	20.742669	106221568	75116544	19739888	24992
678	21.471593	106221568	75116544	18295040	24992
679	23.052433	106221568	75116544	17885648	24992
680	23.774704	106221568	75116544	18236616	24992
681	25.583112	106221568	75116544	19308776	24992
682	2.289107	106221568	75116544	21652576	24992
683	3.350036	106221568	75116544	23874872	24992
684	4.72857	106221568	75116544	26839920	24992
685	6.622378	106221568	75116544	14860144	24992
686	7.024928	106221568	75116544	19330232	24992
687	8.151822	106221568	75116544	24534680	24992
688	10.116196	106221568	75116544	15091376	24992
689	10.35108	106221568	75116544	21783944	24992
690	11.443279	106221568	75116544	29230640	24992
691	13.206313	106221568	75116544	21208128	24992
692	13.937965	106221568	75116544	30164352	24992
693	15.235635	106221568	75116544	23442840	24992
694	17.651099	106221568	75116544	18741392	24992
695	17.599398	106221568	75116544	29956408	24992
696	18.756127	106221568	75116544	25564648	24992
697	21.232482	106221568	75116544	22742432	24992
698	22.155173	106221568	75116544	21188568	24992
699	23.250998	106221568	75116544	20690512	24992
700	25.339923	106221568	75116544	20971584	24992
701	26.433695	106221568	75116544	21985416	24992
702	2.373974	106221568	75116544	24486392	24992
703	3.53362	106221568	75116544	26767168	24992
704	4.900716	106221568	75116544	29810504	24992
705	6.299713	106221568	75116544	17427072	24992
706	7.224047	106221568	75116544	21996936	24992
707	8.124905	106221568	75116544	27345912	24992
708	10.269857	106221568	75116544	17663576	24992
709	10.63373	106221568	75116544	24534688	24992
710	12.970512	106221568	75116544	16857136	24992
711	13.157783	106221568	75116544	25287000	24992
712	15.166286	106221568	75116544	18992248	24992
713	15.627329	106221568	75116544	28967472	24992
714	17.402564	106221568	75116544	23569032	24992
715	19.235484	106221568	75116544	19964464	24992
716	20.554131	106221568	75116544	17751712	24992
717	20.429029	106221568	75116544	30820872	24992
718	22.036815	106221568	75116544	28188120	24992
719	23.289042	106221568	75116544	26833336	24992
720	24.740152	106221568	75116544	26455960	24992
721	26.399487	106221568	75116544	26960232	24992
722	2.412639	106221568	75116544	28959616	24992
723	4.391516	106221568	75116544	15345424	24992
724	4.750927	106221568	75116544	18468880	24992
725	6.148178	106221568	75116544	22371952	24992
726	7.30937	106221568	75116544	27058800	24992
727	9.138464	106221568	75116544	16830856	24992
728	9.684112	106221568	75116544	23112000	24992
729	11.085005	106221568	75116544	30154464	24992
730	13.580724	107118592	75116544	21682776	24992
731	15.235381	107118592	75116544	30363560	24992
732	14.812659	107118592	75116544	23445552	24992
733	17.003129	107118592	75116544	18568256	24992
734	17.448672	107118592	75116544	29636960	24992
735	19.335246	107118592	75116544	25286984	24992
736	20.939841	107118592	75116544	22541488	24992
737	22.25135	107118592	75116544	20990008	24992
738	23.970753	107118592	75116544	20517152	24992
739	25.240167	107118592	75116544	20985240	24992
740	26.173293	107118592	75116544	22113296	24992
741	27.509042	107118592	75116544	23889648	24992
742	2.410088	107118592	75116544	27035560	24992
743	3.668887	107118592	75116544	29433440	24992
744	5.780603	107118592	75116544	16707072	24992
745	6.174273	107118592	75116544	20710184	24992
746	7.420206	107118592	75116544	25513904	24992
747	8.72589	107118592	75116544	31121432	24992
748	10.148714	107118592	75116544	21229896	24992
749	11.580575	107118592	75116544	28481056	24992
750	13.357923	107118592	75116544	20624032	24992
751	13.705188	107118592	75116544	29457448	24992
752	15.564967	107118592	75116544	23047304	24992
753	17.513836	107118592	75116544	18641776	24992
754	17.538427	107118592	75116544	29926864	24992
755	19.174541	107118592	75116544	25824408	24992
756	21.147644	107118592	75116544	23287504	24992
757	23.372616	107118592	75116544	22113688	24992
758	24.845576	107118592	75116544	21898264	24992
759	25.519027	107118592	75116544	22519600	24992
760	26.605202	107118592	75116544	23909312	24992
761	28.871894	107118592	75116544	25850608	24992
762	2.559277	107118592	75116544	29131128	24992
763	3.690399	107118592	75116544	31587464	24992
764	5.64478	107118592	75116544	18568760	24992
765	6.201352	107118592	75116544	22685224	24992
766	7.975396	107118592	75116544	27619032	24992
767	9.941352	107118592	75116544	17721712	24992
768	10.005564	107118592	75116544	24292216	24992
769	11.422063	107118592	75116544	31686080	24992
770	12.943116	107118592	75116544	23507536	24992
771	15.495587	107118592	75116544	17684720	24992
772	15.531705	107118592	75116544	27574536	24992
773	17.891652	107118592	75116544	22642080	24992
774	19.536123	107118592	75116544	19481168	24992
775	19.650552	107118592	75116544	31892736	24992
776	20.985384	107118592	75116544	28626664	24992
777	22.735056	107118592	75116544	26798120	24992
778	24.126875	107118592	75116544	26153152	24992
779	27.444971	107118592	75116544	26447800	24992
780	27.765092	107118592	75116544	27584768	24992
781	28.637211	107118592	75116544	29318520	24992
782	3.264125	107118592	75116544	16428440	24992
783	3.920199	107118592	75116544	18943288	24992
784	5.406292	107118592	75116544	22321304	24992
785	6.88596	107118592	75116544	26544968	24992
786	8.214811	107118592	75116544	31582864	24992
787	9.452726	107118592	75116544	21155312	24992
788	10.403781	107118592	75116544	27879552	24992
789	12.735567	107118592	75116544	19825096	24992
790	12.979126	107118592	75116544	28264256	24992
791	15.466322	107118592	75116544	21832776	24992
792	15.689913	107118592	75116544	31947192	24992
793	17.576954	107118592	75116544	26558584	24992
794	20.316169	107118592	75116544	22970608	24992
795	21.128787	107118592	75116544	20860712	24992
796	22.275143	107118592	75116544	20046120	24992
797	24.612434	107118592	75116544	20220928	24992
798	25.387148	107118592	75116544	21266184	24992
799	26.970649	107118592	75116544	22898896	24992
800	28.221279	107118592	75116544	25115096	24992
801	29.741454	107118592	75116544	27830488	24992
802	2.697197	107118592	75116544	31862944	24992
803	4.35021	107118592	75116544	18262496	24992
804	5.473233	107118592	75116544	21700064	24992
805	6.727623	107118592	75116544	25993056	24992
806	8.44488	107118592	75116544	31147944	24992
807	9.807159	107118592	75116544	21012888	24992
808	10.570496	107118592	75116544	27895728	24992
809	12.825852	107118592	75116544	20136232	24992
810	13.872645	107118592	75116544	28774136	24992
811	15.824774	107118592	75116544	22579448	24992
812	17.792726	107118592	75116544	18347472	24992
813	17.670141	107118592	75116544	29568328	24992
814	20.097365	107118592	75116544	25856880	24992
815	21.52538	107118592	75116544	23640528	24992
816	23.638356	107118592	75116544	22774192	24992
817	24.816074	107118592	75116544	22905904	24992
818	26.098724	107118592	75116544	23901224	24992
819	27.76099	107118592	75116544	25634080	24992
820	28.947836	107118592	75116544	27926776	24992
821	30.447465	107118592	75116544	30694520	24992
822	3.214572	107118592	75116544	18500760	24992
823	4.096606	107118592	75116544	21135840	24992
824	5.589342	107118592	75116544	24646576	24992
825	7.242607	107118592	75116544	29044904	24992
826	8.939847	107118592	75116544	18640664	24992
827	9.750436	107118592	75116544	24796504	24992
828	11.163372	107118592	75116544	31833736	24992
829	13.247578	107118592	75116544	23631272	24992
830	13.815642	107118592	75116544	32437032	24992
831	15.584191	107118592	75116544	25872392	24992
832	17.743939	107118592	75116544	21432400	24992
833	17.633258	107118592	75116544	32898008	24992
834	19.913432	107118592	75116544	28965416	24992
835	21.700656	107118592	75116544	26578824	24992
836	23.224319	107118592	75116544	25542448	24992
837	25.723472	107118592	75116544	25607280	24992
838	26.742797	107118592	75116544	26533896	24992
839	27.69763	107118592	75116544	28211400	24992
840	29.922581	107118592	75116544	30506144	24992
841	31.177762	107118592	75116544	33385168	24992
842	2.736634	107118592	75116544	24148328	24992
843	4.212049	107118592	75116544	26888128	24992
844	5.80322	107118592	75116544	30542712	24992
845	8.203133	107118592	75116544	19409344	24992
846	8.917077	107118592	75116544	24911704	24992
847	9.821794	107118592	75116544	31316768	24992
848	12.421613	107118592	75116544	22688968	24992
849	12.707083	107118592	75116544	30939088	24992
850	15.461995	107118592	75116544	24305576	24992
851	16.723177	107118592	75116544	19786904	24992
852	17.306277	107118592	75116544	30846296	24992
853	19.519204	107118592	75116544	27061936	24992
854	21.512925	107118592	75116544	24849656	24992
855	23.401938	107118592	75116544	23928640	24992
856	24.543068	107118592	75116544	24157544	24992
857	25.716026	107118592	75116544	25238736	24992
858	27.837484	107118592	75116544	27096880	24992
859	28.41038	107118592	75116544	29603376	24992
860	30.462153	107118592	75116544	32551544	24992
861	33.462734	107118592	75116544	22729168	24992
862	2.80672	107118592	75116544	32895008	24992
863	4.474188	107118592	75116544	35728328	24992
864	6.90327	107118592	75116544	23735128	24992
865	7.149575	107118592	75116544	28484600	24992
866	8.776201	107118592	75116544	34161256	24992
867	10.990355	107118592	75116544	24998000	24992
868	11.758964	107118592	75116544	32574200	24992
869	15.145787	107118592	75116544	25643720	24992
870	14.937985	107118592	75116544	35109480	24992
871	16.895297	107118592	75116544	29583296	24992
872	18.778206	107118592	75116544	25992544	24992
873	20.851385	107118592	75116544	24045152	24992
874	20.565454	107118592	75116544	37363616	24992
875	22.27061	107118592	75116544	35344304	24992
876	25.056448	107118592	75116544	34641896	24992
877	26.260919	107118592	75116544	35035168	24992
878	27.907246	107118592	75116544	36304648	24992
879	28.710882	107118592	75116544	38271184	24992
880	31.985418	107118592	75116544	27400536	24992
881	33.190417	107118592	75116544	32955248	24992
882	3.681434	107118592	75116544	23408920	24992
883	4.433749	107118592	75116544	26296640	24992
884	6.196109	107118592	75116544	30171760	24992
885	7.850895	107118592	75116544	35004320	24992
886	9.874153	107118592	75116544	25032120	24992
887	10.463335	107118592	75116544	31799768	24992
888	13.152498	107118592	75116544	24272184	24992
889	13.712256	107118592	75116544	32959760	24992
890	15.955876	107118592	75116544	27214568	24992
891	16.478709	107118592	75116544	37878752	24992
892	18.497604	107118592	75116544	33241992	24992
893	21.018351	107118592	75116544	30420240	24992
894	22.759917	107118592	75116544	29073528	24992
895	24.100253	107118592	75116544	28869696	24992
896	25.958683	107118592	75116544	29707176	24992
897	27.867012	107118592	75116544	31454416	24992
898	28.720496	107118592	75116544	33831688	24992
899	30.33903	107118592	75116544	36736880	24992
900	33.837311	107118592	75116544	26868480	24992
901	36.067084	107118592	75116544	36020504	24992
902	3.663091	107118592	75116544	27199944	24992
903	4.495398	107118592	75116544	30146040	24992
904	5.859144	107118592	75116544	34123976	24992
905	7.297286	107118592	75116544	39085944	24992
906	10.249211	107118592	75116544	29219208	24992
907	10.670785	107118592	75116544	36144616	24992
908	13.362042	107118592	75116544	28789968	24992
909	13.534385	107118592	75116544	37670928	24992
910	16.466457	107118592	75116544	31968888	24992
911	18.349434	107118592	75116544	28275360	24992
912	18.24803	107118592	75116544	40143216	24992
913	20.867137	107118592	75116544	37078448	24992
914	22.944622	107118592	75116544	35518776	24992
915	24.540932	107118592	75116544	35214200	24992
916	26.658921	107118592	75116544	35970608	24992
917	27.994064	107118592	75116544	37575392	24992
918	29.246619	107118592	75116544	39867752	24992
919	30.090193	107118592	75116544	42813960	24992
920	33.186172	107118592	75116544	32671192	24992
921	34.769141	107118592	75116544	38894616	24992
922	3.048946	107118592	75116544	33131160	24992
923	4.57187	107118592	75116544	36135688	24992
924	6.267809	107118592	75116544	40143424	24992
925	11.024851	107118592	75116544	32315080	24992
926	9.064725	107118592	75116544	38370856	24992
927	10.700898	107118592	75116544	45394176	24992
928	13.244505	107118592	75116544	37320024	24992
929	13.805072	107118592	75116544	46366432	24992
930	16.470683	107118592	75116544	39997704	24992
931	18.928543	107118592	75116544	35839016	24992
932	20.478067	107118592	75116544	33398896	24992
933	20.046579	107118592	75116544	46516288	24992
934	22.901342	107118592	75116544	44197640	24992
935	24.860501	107118592	75116544	43416744	24992
936	26.462091	107118592	75116544	43731648	24992
937	28.016364	107118592	75116544	44963496	24992
938	31.745849	107118592	75116544	33756128	24992
939	34.573627	107118592	75116544	41683112	24992
940	33.677864	107118592	75116544	46954576	24992
941	36.964362	107118592	75116544	39343584	24992
942	3.124552	107118592	75116544	51346640	24992
943	5.860864	107118592	75116544	38864368	24992
944	6.178911	107118592	75116544	42965512	24992
945	7.966624	107118592	75116544	48092376	24992
946	11.269436	107118592	75116544	38909712	24992
947	11.109707	107118592	75116544	46083960	24992
948	14.312307	107118592	75116544	39290888	24992
949	14.567583	107118592	75116544	48663824	24992
950	16.7258	107118592	75116544	43397896	24992
951	19.455033	107118592	75116544	40294040	24992
952	18.999251	107118592	75116544	52859104	24992
953	21.743561	107118592	75116544	49919560	24992
954	23.76769	107118592	75116544	48558896	24992
955	25.639093	107118592	75116544	48585920	24992
956	26.710855	107118592	75116544	49632368	24992
957	28.535326	107118592	75116544	51518952	24992
958	30.215731	107118592	75116544	54132952	24992
959	33.489649	107118592	75116544	43677304	24992
960	34.184576	107118592	75116544	49726960	24992
961	43.028898	107118592	75116544	42918464	24992
962	5.262065	109277184	77213696	55556824	24992
963	10.654765	109277184	79310848	21971200	24992
964	6.658194	109277184	79310848	26135928	24992
965	8.063151	109277184	79310848	31385752	24992
966	10.548684	111439872	79310848	21797760	24992
967	11.199866	111439872	79310848	29095736	24992
968	13.894825	111439872	79310848	22026688	24992
969	14.463818	111439872	79310848	31467680	24992
970	16.802546	111439872	79310848	25983728	24992
971	19.016332	111439872	79310848	22623848	24992
972	20.847136	111439872	79310848	20923120	24992
973	20.862293	111439872	79310848	34629104	24992
974	23.245834	111439872	79310848	32791688	24992
975	24.806576	111439872	79310848	32396536	24992
976	26.45632	111439872	79310848	33153440	24992
977	29.416395	111439872	79310848	21465840	24992
978	33.901564	111439872	79310848	29017328	24992
979	32.842007	111439872	79310848	34143624	24992
980	35.976363	111439872	79310848	26450712	24992
981	38.085439	111439872	79310848	37174568	24992
982	3.457079	111439872	79310848	32949736	24992
983	4.801156	111439872	79310848	36130104	24992
984	6.310359	111439872	79310848	40371888	24992
985	11.010546	111439872	79310848	32667632	24992
986	9.714559	111439872	79310848	39036144	24992
987	12.35208	111439872	79310848	31532000	24992
988	13.267388	111439872	79310848	40053760	24992
989	15.657828	111439872	79310848	34067312	24992
990	16.108301	111439872	79310848	44748208	24992
991	18.385264	111439872	79310848	40193792	24992
992	20.826464	111439872	79310848	37414512	24992
993	22.182801	111439872	79310848	36273144	24992
994	24.274107	111439872	79310848	36428960	24992
995	26.146924	111439872	79310848	37676192	24992
996	27.591547	111439872	79310848	39683096	24992
997	29.409894	111439872	79310848	42438672	24992
998	32.49682	111439872	79310848	32671128	24992
999	35.80853	111439872	79310848	41732880	24992
1000	35.022694	111439872	79310848	48003304	24992
