x	Duration	RSS	HeapTotal	HeapUsed	External
0	NA	99528704	68825088	11733024	24992
1	0.289956	99528704	68825088	11781472	24992
2	0.228732	99528704	68825088	11853080	24992
3	0.273755	99528704	68825088	11949848	24992
4	0.356039	99528704	68825088	12072960	24992
5	0.37995	99528704	68825088	12223864	24992
6	0.437456	99528704	68825088	12403304	24992
7	0.500192	99528704	68825088	12612168	24992
8	0.569747	99528704	68825088	12851536	24992
9	0.639211	99528704	68825088	13123048	24992
10	1.257651	99528704	68825088	13426824	24992
11	0.809379	99528704	68825088	13763736	24992
12	0.898594	99528704	68825088	14139128	24992
13	0.912472	99528704	68825088	14546496	24992
14	1.014781	99528704	68825088	14990208	24992
15	1.086005	99528704	68825088	15471424	24992
16	1.1627	99528704	68825088	15991024	24992
17	1.249479	99528704	68825088	16551736	24992
18	1.301436	99528704	68825088	17153080	24992
19	1.091553	99528704	68825088	17796288	24992
20	1.324861	99528704	68825088	18481176	24992
21	1.317649	99528704	68825088	19211080	24992
22	0.167777	99528704	68825088	19949368	24992
23	0.254094	99528704	68825088	20082792	24992
24	0.326532	99528704	68825088	20261968	24992
25	0.4025	99528704	68825088	20488856	24992
26	0.500925	99528704	68825088	20764976	24992
27	0.582332	99528704	68825088	21090648	24992
28	0.709089	99528704	68825088	21467176	24992
29	0.738691	99528704	68825088	21895488	24992
30	0.794867	99528704	68825088	22376528	24992
31	0.877055	99528704	68825088	22910832	24992
32	1.178162	99528704	68825088	23499352	24992
33	1.042087	99528704	68825088	24143048	24992
34	1.129601	99528704	68825088	24842880	24992
35	1.227926	99528704	68825088	25599704	24992
36	1.317789	99528704	68825088	26414464	24992
37	1.410703	99528704	68825088	27288088	24992
38	1.712446	99528704	68825088	28223312	24992
39	2.428201	99528704	68825088	12932168	24992
40	1.956394	99528704	68825088	13990248	24992
41	1.786813	99528704	68825088	15110848	24992
42	0.228417	99528704	68825088	16288856	24992
43	0.33822	99528704	68825088	16481408	24992
44	0.446442	99528704	68825088	16739824	24992
45	0.54802	99528704	68825088	17064672	24992
46	0.654908	99528704	68825088	17456592	24992
47	0.811548	99528704	68825088	17916736	24992
48	0.873159	99528704	68825088	18445848	24992
49	0.982958	99528704	68825088	19044952	24992
50	1.095165	99528704	68825088	19715944	24992
51	1.547563	99528704	68825088	20461800	24992
52	1.42209	99528704	68825088	21282472	24992
53	1.46133	99528704	68825088	22178088	24992
54	1.685474	99528704	68825088	23150400	24992
55	1.693065	99528704	68825088	24201936	24992
56	1.849255	99528704	68825088	25330656	24992
57	2.482016	99528704	68825088	26540520	24992
58	2.097405	99528704	68825088	27831008	24992
59	3.163839	99528704	68825088	13080272	24992
60	2.327486	99528704	68825088	14534800	24992
61	2.670721	99528704	68825088	16073048	24992
62	0.292145	99528704	68825088	17712624	24992
63	0.433257	99528704	68825088	17967368	24992
64	0.571565	99528704	68825088	18308120	24992
65	0.697215	99528704	68825088	18735880	24992
66	0.842952	99528704	68825088	19252016	24992
67	0.978513	99528704	68825088	19856896	24992
68	1.11522	99528704	68825088	20551904	24992
69	1.266098	99528704	68825088	21337224	24992
70	1.437767	99528704	68825088	22214992	24992
71	1.577092	99528704	68825088	23185280	24992
72	2.124839	99528704	68825088	24251000	24992
73	1.843549	99528704	68825088	25409208	24992
74	2.040717	99528704	68825088	26665296	24992
75	2.143934	99528704	68825088	28014920	24992
76	3.503376	99528704	68825088	13263888	24992
77	2.739746	99528704	68825088	14809984	24992
78	3.2673	99528704	68825088	16455600	24992
79	2.818804	99528704	68825088	18205400	24992
80	2.905059	99528704	68825088	20052392	24992
81	3.39228	99528704	68825088	22002040	24992
82	0.350861	99528704	68825088	24094624	24992
83	0.525588	99528704	68825088	24405152	24992
84	0.686399	99528704	68825088	24821360	24992
85	0.863802	99528704	68825088	25341912	24992
86	1.025151	99528704	68825088	25969536	24992
87	1.195219	99528704	68825088	26704408	24992
88	1.358097	99528704	68825088	27547544	24992
89	1.752536	99528704	68825088	28499784	24992
90	2.409501	99528704	68825088	13308568	24992
91	1.896306	99528704	68825088	14482920	24992
92	2.071257	99528704	68825088	15769216	24992
93	2.257791	99528704	68825088	17169496	24992
94	2.478041	99528704	68825088	18682600	24992
95	2.607347	99528704	68825088	20310416	24992
96	2.797412	99528704	68825088	22054200	24992
97	2.990929	99528704	68825088	23917776	24992
98	3.378618	99528704	68825088	25897304	24992
99	3.418373	99528704	68825088	27995280	24992
100	4.342255	99528704	68825088	14010912	24992
101	3.9655	99528704	68825088	16348960	24992
102	0.417033	99528704	68825088	18874416	24992
103	0.627004	99528704	68825088	19240896	24992
104	0.816741	99528704	68825088	19734560	24992
105	1.012064	99528704	68825088	20356392	24992
106	1.271199	99528704	68825088	21111416	24992
107	1.416413	99528704	68825088	21992944	24992
108	1.909472	99528704	68825088	23005400	24992
109	1.891509	99528704	68825088	24149672	24992
110	2.046498	99528704	68825088	25427896	24992
111	2.233266	99528704	68825088	26839824	24992
112	2.495256	99528704	68825088	28386936	24992
113	3.559789	99528704	68825088	13830376	24992
114	2.937695	99528704	68825088	15652272	24992
115	3.171353	99528704	68825088	17608448	24992
116	3.341385	99528704	68825088	19702952	24992
117	3.899156	99528704	68825088	21936216	24992
118	3.755824	99528704	68825088	24311592	24992
119	3.977723	99528704	68825088	26832992	24992
120	4.214499	99528704	68825088	29495856	24992
121	5.247755	99528704	68825088	15921448	24992
122	0.478932	99528704	68825088	18957056	24992
123	0.714715	99528704	68825088	19391720	24992
124	0.938088	99528704	68825088	19972120	24992
125	1.175303	99528704	68825088	20699216	24992
126	1.571928	99528704	68825088	21574464	24992
127	1.632438	99528704	68825088	22598264	24992
128	1.927454	99528704	68825088	23771496	24992
129	2.340705	99528704	68825088	25097584	24992
130	2.56737	99528704	68825088	26573552	24992
131	2.633459	99528704	68825088	28201752	24992
132	3.478718	99528704	68825088	13810192	24992
133	3.052766	99528704	68825088	15745728	24992
134	3.512538	99528704	68825088	17836176	24992
135	3.546389	99528704	68825088	20082984	24992
136	3.775232	99528704	68825088	22486400	24992
137	4.25371	99528704	68825088	25047680	24992
138	4.490071	99528704	68825088	27769528	24992
139	5.389429	99528704	68825088	14536464	24992
140	4.803798	99528704	68825088	17578864	24992
141	5.274067	99528704	68825088	20785800	24992
142	0.534563	99528704	68825088	24265560	24992
143	0.798564	99528704	68825088	24756088	24992
144	1.108954	99528704	68825088	25410904	24992
145	1.327399	99528704	68825088	26230944	24992
146	1.582787	99528704	68825088	27217720	24992
147	1.845551	99528704	68825088	28371552	24992
148	2.117921	99528704	68825088	29693560	24992
149	2.829633	99528704	68825088	14824904	24992
150	2.653299	99528704	68825088	16489416	24992
151	2.980687	99528704	68825088	18325272	24992
152	3.508929	99528704	68825088	20329448	24992
153	3.476587	99528704	68825088	22506160	24992
154	3.750626	99528704	68825088	24856576	24992
155	4.232341	99528704	68825088	27382880	24992
156	4.886488	99528704	68825088	14043128	24992
157	4.819001	99528704	68825088	16921016	24992
158	4.865667	99528704	68825088	19976720	24992
159	5.148632	99528704	68825088	23212184	24992
160	5.612775	99528704	68825088	26626072	24992
161	6.356125	99528704	68825088	14298144	24992
162	0.609008	99528704	68825088	18204720	24992
163	0.89793	99528704	68825088	18751104	24992
164	1.181143	99528704	68825088	19480408	24992
165	1.733481	99528704	68825088	20393424	24992
166	1.840195	99528704	68825088	21494256	24992
167	2.143684	99528704	68825088	22778096	24992
168	2.37875	99528704	68825088	24249472	24992
169	2.660823	99528704	68825088	25907344	24992
170	2.959603	99528704	68825088	27754696	24992
171	3.255711	99528704	68825088	29791384	24992
172	4.899027	99528704	68825088	15682576	24992
173	4.049291	99528704	68825088	18111496	24992
174	4.425651	99528704	68825088	20726632	24992
175	4.472252	99528704	68825088	23529864	24992
176	4.774696	99528704	68825088	26527176	24992
177	5.078668	99528704	68825088	29719216	24992
178	5.922601	99528704	68825088	16864520	24992
179	5.987421	99528704	68825088	20451016	24992
180	6.23425	99528704	68825088	24235496	24992
181	6.777343	99528704	68825088	28218656	24992
182	0.679425	99528704	68825088	16579832	24992
183	0.983991	99528704	68825088	17182144	24992
184	1.305405	99528704	68825088	17985744	24992
185	1.629741	99528704	68825088	18991784	24992
186	1.941735	99528704	68825088	20203240	24992
187	2.273501	99528704	68825088	21617208	24992
188	2.67917	99528704	68825088	23236216	24992
189	3.216544	99528704	68825088	25061408	24992
190	3.310353	99528704	68825088	27094624	24992
191	3.63512	99528704	68825088	29335392	24992
192	4.856536	99528704	68825088	15701824	24992
193	4.429596	99528704	68825088	18362136	24992
194	4.61703	99528704	68825088	21232128	24992
195	5.18067	99528704	68825088	24314104	24992
196	5.285319	99528704	68825088	27612160	24992
197	6.692297	99528704	68825088	15312968	24992
198	5.95934	99528704	68825088	19043720	24992
199	6.596242	99528704	68825088	22990144	24992
200	7.264721	99528704	68825088	27145664	24992
201	7.847324	99528704	68825088	15785456	24992
202	0.724472	99528704	68825088	20560000	24992
203	1.076187	99528704	68825088	21218088	24992
204	1.42654	99528704	68825088	22096128	24992
205	1.783158	99528704	68825088	23195112	24992
206	2.133608	99528704	68825088	24516376	24992
207	2.61182	99528704	68825088	26063536	24992
208	2.854494	99528704	68825088	27831128	24992
209	3.214725	99528704	68825088	29831608	24992
210	4.551738	99528704	68825088	15997840	24992
211	3.957926	99528704	68825088	18467568	24992
212	4.312775	99528704	68825088	21176304	24992
213	4.900717	99528704	68825088	24118328	24992
214	5.124465	99528704	68825088	27298400	24992
215	5.447705	99528704	68825088	30716024	24992
216	6.795666	99528704	68825088	18185544	24992
217	6.370313	99528704	68825088	22082880	24992
218	6.598859	99528704	68825088	26223304	24992
219	7.107174	99528704	68825088	30605752	24992
220	7.913173	99528704	68825088	19054992	24992
221	7.715727	99528704	68825088	23934144	24992
222	0.79222	99528704	68825088	29267608	24992
223	1.17102	99528704	68825088	30006376	24992
224	1.547102	99528704	68825088	30991928	24992
225	2.663766	99528704	68825088	16036760	24992
226	2.667024	99528704	68825088	17519024	24992
227	2.707622	99528704	68825088	19250744	24992
228	3.119598	99528704	68825088	21235800	24992
229	3.513922	99528704	68825088	23478368	24992
230	3.921025	99528704	68825088	25965152	24992
231	4.275355	99528704	68825088	28711648	24992
232	4.679837	99528704	68825088	31705688	24992
233	6.06279	99528704	68825088	18657400	24992
234	5.504525	99528704	68825088	22162736	24992
235	6.148836	99528704	68825088	25925040	24992
236	6.29409	99528704	68825088	29946824	24992
237	7.871977	99528704	68825088	18178432	24992
238	7.562385	99528704	68825088	22719104	24992
239	7.851325	99528704	68825088	27526640	24992
240	9.367023	99528704	68825088	16901416	24992
241	8.789182	99528704	68825088	22229584	24992
242	0.870156	99528704	68825088	28058552	24992
243	1.296894	99528704	68825088	28853160	24992
244	1.685902	99528704	68825088	29913160	24992
245	2.085578	99528704	68825088	31239328	24992
246	3.283397	99528704	68825088	16671080	24992
247	2.94949	99528704	68825088	18543680	24992
248	3.355916	99528704	68825088	20674424	24992
249	3.786726	99528704	68825088	23075232	24992
250	4.465906	99528704	68825088	25755592	24992
251	4.629871	99528704	68825088	28699800	24992
252	5.27369	99528704	68825088	31920072	24992
253	6.561626	99528704	68825088	19172768	24992
254	6.087434	99528704	68825088	22937944	24992
255	6.401824	99528704	68825088	26983376	24992
256	7.000385	99528704	68825088	31303936	24992
257	8.317137	99528704	68825088	19737456	24992
258	8.070694	99528704	68825088	24612080	24992
259	8.504568	99528704	68825088	29765680	24992
260	9.932565	99528704	68825088	19242392	24992
261	9.43033	99528704	68825088	24957712	24992
262	0.918663	99528704	68825088	31205176	24992
263	1.353062	99528704	68825088	32055600	24992
264	2.902516	99528704	68825088	16952328	24992
265	2.257647	99528704	68825088	18371312	24992
266	2.700255	99528704	68825088	20076480	24992
267	3.200048	99528704	68825088	22068336	24992
268	3.872907	99528704	68825088	24347688	24992
269	4.266673	99528704	68825088	26915888	24992
270	4.793786	99528704	68825088	29774464	24992
271	6.092975	99528704	68825088	17058792	24992
272	5.454173	99528704	68825088	20498440	24992
273	6.245203	99528704	68825088	24234584	24992
274	6.422636	99528704	68825088	28259512	24992
275	7.022951	99528704	68825088	32578480	24992
276	8.128103	99528704	68825088	20901280	24992
277	7.802697	99528704	68825088	25818824	24992
278	8.455698	99528704	68825088	31027448	24992
279	9.804775	99528704	68825088	20474448	24992
280	9.233036	99528704	68825088	26280984	24992
281	9.885996	99528704	68825088	32388848	24992
282	0.980041	99528704	68825088	22800896	24992
283	1.714401	99528704	68825088	23707568	24992
284	1.927649	99528704	68825088	24916280	24992
285	2.416169	99528704	68825088	26428256	24992
286	2.882201	99528704	68825088	28244976	24992
287	3.37099	99528704	68825088	30366768	24992
288	3.910471	99528704	68825088	32794608	24992
289	5.128074	99528704	68825088	19270896	24992
290	5.109559	99528704	68825088	22314888	24992
291	5.308435	99528704	68825088	25667504	24992
292	6.030352	99528704	68825088	29330448	24992
293	6.302587	99528704	68825088	33303408	24992
294	7.626704	99528704	68825088	21240080	24992
295	7.293457	99528704	68825088	25840072	24992
296	8.031295	99528704	68825088	30756416	24992
297	9.496016	99528704	68825088	20018448	24992
298	8.86249	99528704	68825088	25564776	24992
299	9.296013	99528704	68825088	31431632	24992
300	12.133275	99528704	68825088	21579360	24992
301	10.788419	99528704	68825088	28080712	24992
302	1.090588	99528704	68825088	19642552	24992
303	1.643584	99528704	68825088	20604776	24992
304	2.162645	99528704	68825088	21887760	24992
305	2.712994	99528704	68825088	23492856	24992
306	3.227445	99528704	68825088	25426648	24992
307	3.813098	99528704	68825088	27680760	24992
308	4.160525	99528704	68825088	30257656	24992
309	4.640351	99528704	68825088	33161776	24992
310	6.230459	99528704	68825088	20163320	24992
311	5.676676	99528704	68825088	23721136	24992
312	6.195308	99528704	68825088	27607000	24992
313	6.71827	99528704	68825088	31821496	24992
314	8.612708	99528704	68825088	20312776	24992
315	8.255065	99528704	68825088	25188352	24992
316	8.412535	99528704	68825088	30398376	24992
317	10.427732	99528704	68825088	20089992	24992
318	9.753298	99528704	68825088	25977704	24992
319	10.295907	99528704	68825088	32199216	24992
320	11.570619	99528704	68825088	22663448	24992
321	11.189303	99528704	68825088	29547376	24992
322	1.118069	99528704	68825088	21406448	24992
323	1.702638	99528704	68825088	22424512	24992
324	2.165152	99528704	68825088	23788880	24992
325	2.944889	99528704	68825088	25486816	24992
326	3.279274	99528704	68825088	27536536	24992
327	3.824615	99528704	68825088	29927904	24992
328	4.576757	99528704	68825088	32654512	24992
329	5.915096	99528704	68825088	19634640	24992
330	5.467576	99528704	68825088	23049648	24992
331	6.028265	99528704	68825088	26810712	24992
332	6.793582	99528704	68825088	30919544	24992
333	8.35098	99528704	68825088	19529496	24992
334	8.023961	99528704	68825088	24342736	24992
335	8.666317	99528704	68825088	29509312	24992
336	10.309012	99528704	68825088	19379464	24992
337	9.59246	99528704	68825088	25246072	24992
338	9.970225	99528704	68825088	31459656	24992
339	13.437335	99799040	68825088	22124464	24992
340	11.37986	99799040	68825088	29043024	24992
341	14.016004	99799040	68825088	20779328	24992
342	1.160556	99799040	68825088	28773152	24992
343	1.752636	99799040	68825088	29847072	24992
344	2.540211	99799040	68825088	31281384	24992
345	2.900271	99799040	68825088	33084544	24992
346	4.720069	99799040	68825088	19157328	24992
347	4.034203	99799040	68825088	21669352	24992
348	4.595587	99799040	68825088	24559288	24992
349	5.39581	99799040	68825088	27795512	24992
350	5.765588	99799040	68825088	31396216	24992
351	7.59836	99799040	68825088	19552240	24992
352	7.19797	99799040	68825088	23882752	24992
353	7.517944	99799040	68825088	28579680	24992
354	8.540358	99799040	68825088	33668080	24992
355	9.788968	99799040	68825088	22941448	24992
356	9.520442	99799040	68825088	28778904	24992
357	9.891662	99799040	68825088	34960464	24992
358	11.782525	99799040	68825088	25139216	24992
359	11.433025	99799040	68825088	32055464	24992
360	12.954107	99799040	68825088	23440240	24992
361	12.649115	99799040	68825088	31103408	24992
362	1.307701	99799040	68825088	23758696	24992
363	1.915898	99799040	68825088	24892552	24992
364	2.538608	99799040	68825088	26398808	24992
365	3.176328	99799040	68825088	28282512	24992
366	3.736684	99799040	68825088	30545064	24992
367	4.262277	99799040	68825088	33200096	24992
368	6.274701	99799040	68825088	20211408	24992
369	5.973703	99799040	68825088	23614656	24992
370	6.455139	99799040	68825088	27410072	24992
371	6.957662	99799040	68825088	31587664	24992
372	8.845879	99799040	68825088	20366288	24992
373	8.185903	99799040	68825088	25304472	24992
374	8.600448	99799040	68825088	30636608	24992
375	10.545144	99799040	68825088	20685696	24992
376	10.034019	99799040	68825088	26789064	24992
377	10.654266	99799040	68825088	33276072	24992
378	12.653897	99799040	68825088	24128040	24992
379	12.027398	99799040	68825088	31405448	24992
380	13.864757	99799040	68825088	23298176	24992
381	13.09402	99799040	68825088	31360552	24992
382	1.347033	99799040	68825088	24453896	24992
383	2.012235	99799040	68825088	25639528	24992
384	2.682059	99799040	68825088	27228080	24992
385	3.185194	99799040	68825088	29204800	24992
386	4.050501	99799040	68825088	31578944	24992
387	4.559864	99799040	68825088	34350920	24992
388	6.690851	99799040	68825088	21435888	24992
389	5.797235	99799040	68825088	25006240	24992
390	6.707698	99799040	68825088	28986704	24992
391	7.172943	99799040	68825088	33360232	24992
392	8.960449	99799040	68825088	22160632	24992
393	8.654693	99799040	68825088	27340120	24992
394	9.250691	99799040	68825088	32923880	24992
395	11.007349	99799040	68825088	23019816	24992
396	10.5529	99799040	68825088	29416056	24992
397	12.565948	99799040	68825088	20827512	24992
398	12.08797	99799040	68825088	28039712	24992
399	12.639608	99799040	68825088	35660888	24992
400	14.948106	99799040	68825088	27407712	24992
401	14.031115	99799040	68825088	35861248	24992
402	1.411981	99799040	68825088	28816536	24992
403	2.094953	99799040	68825088	30058000	24992
404	2.761345	99799040	68825088	31713112	24992
405	3.340122	99799040	68825088	33784288	24992
406	4.022411	99799040	68825088	36269920	24992
407	5.988382	99799040	68825088	22855184	24992
408	5.397551	99799040	68825088	26174544	24992
409	6.255822	99799040	68825088	29913576	24992
410	6.773685	99799040	68825088	34077336	24992
411	8.681928	99799040	68825088	22635368	24992
412	8.354906	99799040	68825088	27636880	24992
413	9.130759	99799040	68825088	33060192	24992
414	11.186768	99799040	68825088	23066352	24992
415	10.189641	99799040	68825088	29333960	24992
416	11.190094	99799040	68825088	36034728	24992
417	12.722644	99799040	68825088	26835120	24992
418	12.389556	99799040	68825088	34388624	24992
419	14.85246	99799040	68825088	26352928	24992
420	14.2845	99799040	68825088	34789096	24992
421	15.749853	99799040	68825088	27599640	24992
422	2.823085	99799040	68825088	21119056	24992
423	2.097748	99799040	68825088	22468056	24992
424	3.021507	99799040	68825088	24271768	24992
425	3.500334	99799040	68825088	26520016	24992
426	4.470683	99799040	68825088	29215800	24992
427	4.919884	99799040	68825088	32372456	24992
428	5.652539	99799040	68825088	35986848	24992
429	7.54665	99799040	68825088	23827856	24992
430	7.303584	99799040	68825088	28344296	24992
431	7.894192	99799040	68825088	33320960	24992
432	9.921166	99799040	68825088	22924768	24992
433	9.181142	99799040	68825088	28810384	24992
434	10.11421	99799040	68825088	35158384	24992
435	12.163528	99799040	68825088	25830328	24992
436	11.511294	99799040	68825088	33091208	24992
437	13.724342	99799040	68825088	25007744	24992
438	13.299514	99799040	68825088	33198088	24992
439	15.18888	99799040	68825088	26024360	24992
440	14.870865	99799040	68825088	35138664	24992
441	17.256743	99799040	68825088	28641728	24992
442	1.534899	99799040	68825088	24058288	24992
443	2.501846	99799040	68825088	25467512	24992
444	2.935613	99799040	68825088	27337288	24992
445	3.663186	99799040	68825088	29675000	24992
446	4.39081	99799040	68825088	32492224	24992
447	5.108383	99799040	68825088	35774032	24992
448	7.484815	99799040	68825088	23443032	24992
449	6.861147	99799040	68825088	27662880	24992
450	7.352145	99799040	68825088	32360968	24992
451	8.097889	99799040	68825088	37531528	24992
452	10.326765	99799040	68825088	26791744	24992
453	9.99693	99799040	68825088	32909088	24992
454	11.887214	99799040	68825088	23784032	24992
455	11.144866	99799040	68825088	30855552	24992
456	14.091845	99799040	68825088	23025352	24992
457	12.84868	99799040	68825088	31074968	24992
458	15.433318	99799040	68825088	24183232	24992
459	14.4849	99799040	68825088	33185192	24992
460	17.061396	99799040	68825088	26935200	24992
461	15.824582	99799040	68825088	36907352	24992
462	1.79172	99799040	68825088	31605680	24992
463	2.291779	99799040	68825088	33064112	24992
464	3.052969	99799040	68825088	35008200	24992
465	3.805306	99799040	68825088	37451784	24992
466	6.081353	99799040	68825088	24128152	24992
467	5.577917	99799040	68825088	27541120	24992
468	6.436571	99799040	68825088	31440712	24992
469	6.927695	99799040	68825088	35836320	24992
470	9.306015	99799040	68825088	24669840	24992
471	8.469215	99799040	68825088	30058624	24992
472	9.420774	99799040	68825088	35928872	24992
473	11.872237	99799040	68825088	26275696	24992
474	10.765413	99799040	68825088	33130168	24992
475	13.440192	99799040	68825088	24855680	24992
476	13.11414	99799040	68825088	32703464	24992
477	14.866274	99799040	68825088	25483712	24992
478	14.173949	99799040	68825088	34332728	24992
479	16.943114	99799040	68825088	27855816	24992
480	16.603594	99799040	68825088	37720416	24992
481	18.092754	99799040	68825088	31791176	24992
482	1.673333	99799040	68825088	27753112	24992
483	2.474814	99799040	68825088	29272072	24992
484	3.329136	99799040	68825088	31308136	24992
485	4.240559	99799040	68825088	33861296	24992
486	5.081773	99799040	68825088	36900240	24992
487	7.629688	99799040	68825088	24372640	24992
488	6.610714	99799040	68825088	28417872	24992
489	7.159157	99799040	68825088	32999248	24992
490	8.258784	99799040	68825088	38086272	24992
491	10.70044	99799040	68825088	27336768	24992
492	9.898649	99799040	68825088	33429288	24992
493	12.326987	99799040	68825088	24424536	24992
494	11.321974	99799040	68825088	31546592	24992
495	14.347704	99799040	68825088	23882840	24992
496	13.185506	99799040	68825088	32031152	24992
497	15.832632	99799040	68825088	25334424	24992
498	15.190099	99799040	68825088	34532152	24992
499	17.119925	99799040	68825088	28514264	24992
500	17.201663	99799040	68825088	38754312	24992
501	18.601781	99799040	68825088	33130624	24992
502	1.735135	99799040	69349376	29486232	24992
503	2.572297	99799040	69349376	31056480	24992
504	3.425118	99799040	69349376	33149488	24992
505	4.327916	99799040	69349376	35766048	24992
506	4.940953	99799040	69349376	38907760	24992
507	7.497416	99799040	69349376	26306088	24992
508	6.609686	99799040	69349376	30527648	24992
509	7.433006	99799040	69349376	35248936	24992
510	10.198092	99799040	69349376	24691992	24992
511	9.566533	99799040	69349376	30471400	24992
512	10.090205	99799040	69349376	36793168	24992
513	12.826274	99799040	69349376	27614832	24992
514	11.749825	99799040	69349376	34987912	24992
515	14.540705	100069376	69349376	27154184	24992
516	13.58005	100069376	69349376	35593896	24992
517	15.942208	100069376	69349376	28759776	24992
518	15.343518	100069376	69349376	38272008	24992
519	17.688825	100069376	69349376	32082976	24992
520	19.510285	100069376	69349376	27384136	24992
521	17.80075	100069376	69349376	38521192	24992
522	1.735918	100069376	69349376	34482280	24992
523	2.56215	100069376	69349376	36132032	24992
524	3.432479	100069376	69349376	38299376	24992
525	6.081834	100339712	69349376	24908488	24992
526	5.154687	100339712	69349376	28161720	24992
527	6.198296	100339712	69349376	31959112	24992
528	6.899073	100339712	69349376	36315928	24992
529	9.572895	100339712	69349376	25337624	24992
530	8.709153	100339712	69349376	30773856	24992
531	9.574403	100339712	69349376	36757488	24992
532	12.93974	100339712	69349376	27367768	24992
533	11.220176	100339712	69349376	34450008	24992
534	14.196623	100339712	69349376	26468120	24992
535	13.30982	100339712	69349376	34652456	24992
536	16.150909	100339712	69349376	27766200	24992
537	15.107062	100339712	69349376	37077056	24992
538	17.568231	100339712	69349376	30949016	24992
539	18.998678	100339712	69349376	26304048	24992
540	17.841578	100339712	69349376	37281480	24992
541	20.230054	100339712	69349376	32783392	24992
542	1.851857	100339712	69349376	30126776	24992
543	2.765384	100339712	69349376	31808624	24992
544	3.69066	100339712	69349376	34050208	24992
545	4.707987	100339712	69349376	36852768	24992
546	5.332506	100339712	69349376	40217336	24992
547	7.978411	100339712	69349376	27788128	24992
548	7.114315	100339712	69349376	32294112	24992
549	8.004294	100339712	69349376	37357608	24992
550	10.840747	100339712	69349376	27061760	24992
551	10.115581	100339712	69349376	33255296	24992
552	10.735638	100339712	69349376	40016016	24992
553	13.715439	100339712	69349376	31038176	24992
554	12.788962	100339712	69349376	38930832	24992
555	15.142401	100339712	69349376	31244624	24992
556	14.853333	100339712	69349376	40300248	24992
557	16.823294	100339712	69349376	33512928	24992
558	18.697136	100339712	69349376	28384656	24992
559	17.213457	100339712	69349376	39144920	24992
560	20.434828	100339712	69349376	34312856	24992
561	21.921138	100339712	69349376	30736448	24992
562	1.924063	100339712	69349376	28859384	24992
563	2.850973	100339712	69349376	30608112	24992
564	3.781137	100339712	69349376	32924160	24992
565	4.612975	100339712	69349376	35827600	24992
566	5.993735	100339712	69349376	39303744	24992
567	8.380162	100339712	69349376	27276488	24992
568	7.357469	100339712	69349376	31917544	24992
569	8.543686	100339712	69349376	37156480	24992
570	11.322331	100339712	69349376	27177880	24992
571	10.395409	100339712	69349376	33584936	24992
572	11.112118	100339712	69349376	40576840	24992
573	14.223065	100339712	69349376	31853416	24992
574	13.185665	100339712	69349376	40022568	24992
575	15.697578	100339712	69349376	32544608	24992
576	17.520237	100339712	69349376	26735752	24992
577	16.147565	100339712	69349376	36668992	24992
578	18.910475	100339712	69349376	31442936	24992
579	20.437103	100339712	69349376	27580544	24992
580	19.215483	100339712	69349376	39293816	24992
581	21.657558	100339712	69349376	35458840	24992
582	1.992898	100339712	69349376	33407952	24992
583	2.958493	100339712	69349376	35201560	24992
584	3.911578	100339712	69349376	37592200	24992
585	4.764595	100339712	69349376	40580584	24992
586	7.489362	100339712	69349376	27985080	24992
587	6.66168	100339712	69349376	32179888	24992
588	7.807248	100339712	69349376	36967936	24992
589	10.714222	100339712	69349376	26655112	24992
590	9.561976	100339712	69349376	32668232	24992
591	10.479693	100339712	69349376	39266848	24992
592	13.693876	100339712	69349376	30436760	24992
593	12.700403	100339712	69349376	38244608	24992
594	15.5383	100339712	69349376	30774800	24992
595	14.632317	100339712	69349376	39818120	24992
596	17.470667	100339712	69349376	33307104	24992
597	18.814349	100339712	69349376	28367344	24992
598	17.751002	100339712	69349376	39219688	24992
599	20.756312	100339712	69349376	34626000	24992
600	22.676228	100339712	69349376	31362160	24992
601	23.843805	100339712	69349376	29214848	24992
602	3.726352	100339712	69349376	26794416	24992
603	2.96893	100339712	69349376	28644664	24992
604	3.992105	100339712	69349376	31109520	24992
605	5.10285	100339712	69349376	34191016	24992
606	6.094231	100339712	69349376	37906696	24992
607	9.299441	100339712	69349376	26518920	24992
608	7.960961	100339712	69349376	31455504	24992
609	9.115774	100339712	69349376	37020184	24992
610	12.458165	100339712	69349376	27547888	24992
611	11.136199	100339712	69349376	34348488	24992
612	12.07945	100339712	69349376	41791792	24992
613	14.792207	100339712	69349376	33528224	24992
614	16.82332	100339712	69349376	27069688	24992
615	15.065233	100339712	69349376	36368448	24992
616	18.260509	100339712	69349376	30776888	24992
617	17.177845	100339712	69349376	41340144	24992
618	20.312976	100339712	69349376	36238640	24992
619	21.006362	100339712	69349376	32564648	24992
620	22.929923	100339712	69349376	30051440	24992
621	24.492001	100339712	69349376	28573704	24992
622	4.012469	100339712	69349376	26787496	24992
623	3.039143	100339712	69349376	28693480	24992
624	4.093909	100339712	69349376	31232864	24992
625	5.317708	100339712	69349376	34407816	24992
626	6.26776	100339712	69349376	38218480	24992
627	9.630394	100339712	69349376	27016560	24992
628	8.346612	100339712	69349376	32114688	24992
629	9.119043	100339712	69349376	37838704	24992
630	12.531181	100339712	69349376	28573832	24992
631	11.24958	100339712	69349376	35603160	24992
632	15.014116	100339712	69349376	27929928	24992
633	13.325942	100339712	69349376	36218992	24992
634	16.743329	100339712	69349376	29759768	24992
635	15.550099	100339712	69349376	39343312	24992
636	18.687048	100339712	69349376	33709200	24992
637	20.449066	100339712	69349376	29588936	24992
638	18.7113	100339712	69349376	41129688	24992
639	21.859624	100339712	69349376	37167032	24992
640	22.990234	100339712	69349376	34451216	24992
641	24.007322	100339712	69349376	32797704	24992
642	2.369925	100339712	69349376	32689472	24992
643	3.30901	100339712	69349376	34656568	24992
644	4.553208	100339712	69349376	37271280	24992
645	5.38873	100339712	69349376	40538544	24992
646	8.541228	100339712	69349376	28511360	24992
647	7.593711	100339712	69349376	33120184	24992
648	8.603728	100339712	69349376	38372336	24992
649	11.855053	100339712	69349376	28635960	24992
650	10.965431	100339712	69349376	35207736	24992
651	12.001046	100339712	69349376	42462240	24992
652	14.762808	100339712	69349376	34030360	24992
653	14.135765	100339712	69349376	42586736	24992
654	17.038427	100339712	69349376	35493104	24992
655	18.666683	100339712	69349376	30128304	24992
656	17.152533	100339712	69349376	40692136	24992
657	20.453696	100339712	69349376	35855424	24992
658	22.132532	100339712	69349376	32484824	24992
659	23.151375	100339712	69349376	30260248	24992
660	21.853902	100339712	69349376	43447920	24992
661	24.718688	100339712	69349376	40890448	24992
662	2.241982	100339712	69349376	40092288	24992
663	3.334309	100339712	69349376	42109312	24992
664	6.636589	100339712	69349376	28735848	24992
665	5.428295	100339712	69349376	32097848	24992
666	6.693123	100339712	69349376	36131456	24992
667	7.523782	100339712	69349376	40841448	24992
668	10.906774	100339712	69349376	30316928	24992
669	9.770088	100339712	69349376	36375528	24992
670	10.994729	100339712	69349376	43129576	24992
671	14.349053	100339712	69349376	34251032	24992
672	13.072813	100339712	69349376	42353664	24992
673	16.559874	100339712	69349376	34923568	24992
674	17.770007	100339712	69349376	29380904	24992
675	16.805919	100339712	69349376	39514064	24992
676	20.122539	100339712	69349376	34639456	24992
677	21.760521	100339712	69349376	31149216	24992
678	20.556908	100339712	69349376	43343880	24992
679	23.351954	100339712	69349376	39920264	24992
680	24.287127	100339712	69349376	37723528	24992
681	25.890279	100339712	69349376	36551040	24992
682	2.307303	100339712	69349376	36952904	24992
683	3.468307	100339712	69349376	39026688	24992
684	4.672827	100339712	69349376	41794664	24992
685	8.095965	100339712	69349376	29318064	24992
686	7.310694	100339712	69349376	33471256	24992
687	7.971531	100339712	69349376	38317704	24992
688	9.070612	100339712	69349376	43848584	24992
689	12.061981	100339712	69349376	33776000	24992
690	11.426766	100339712	69349376	40727896	24992
691	14.663762	100339712	69349376	32529648	24992
692	13.428085	100339712	69349376	40867240	24992
693	17.442369	100339712	69349376	33977944	24992
694	15.654492	100339712	69349376	43707480	24992
695	19.731504	100339712	69349376	37845080	24992
696	20.885766	100339712	69349376	33586776	24992
697	22.637472	100339712	69349376	30659824	24992
698	21.218274	100339712	69349376	43227160	24992
699	23.727114	100339712	69349376	40276288	24992
700	25.322579	100339712	69349376	38408672	24992
701	26.613487	100339712	69349376	37566592	24992
702	2.292567	100339712	69349376	38356752	24992
703	3.429283	100339712	69349376	40487536	24992
704	4.749242	100339712	69349376	43324536	24992
705	8.029633	100339712	69349376	30738128	24992
706	7.045252	100339712	69349376	34994864	24992
707	7.974985	100339712	69349376	39972704	24992
708	11.762647	100339712	69349376	29973984	24992
709	10.577854	100339712	69349376	36389880	24992
710	11.501011	100339712	69349376	43496840	24992
711	15.174832	100339712	69349376	35123960	24992
712	13.984377	100339712	69349376	43687528	24992
713	17.356984	100339712	69349376	36750728	24992
714	19.101238	100339712	69349376	31584096	24992
715	17.496331	100339712	69349376	42289960	24992
716	21.304163	100339712	69349376	37700104	24992
717	22.537655	100339712	69349376	34596576	24992
718	24.167694	100339712	69349376	32655752	24992
719	25.035439	100339712	69349376	31741608	24992
720	26.675922	100339712	69349376	31668968	24992
721	28.079316	100339712	69349376	32316744	24992
722	2.594045	100339712	69349376	34473696	24992
723	3.499589	100339712	69349376	36667288	24992
724	4.719722	100339712	69349376	39580208	24992
725	5.966443	100339712	69349376	43231520	24992
726	9.288166	100339712	69349376	31629432	24992
727	8.41446	100339712	69349376	36727144	24992
728	9.403177	100339712	69349376	42561816	24992
729	13.222933	100339712	69349376	33145760	24992
730	12.005143	100339712	69349376	40457080	24992
731	15.915638	100339712	69349376	32835136	24992
732	14.582637	100339712	69349376	41617320	24992
733	18.102768	100339712	69349376	35357432	24992
734	17.066905	100339712	69349376	45599320	24992
735	20.114693	100339712	69349376	40142256	24992
736	21.691292	100339712	69349376	36310792	24992
737	23.279938	100339712	69349376	33781840	24992
738	25.143663	100339712	69349376	32421616	24992
739	26.320119	100339712	69349376	32014432	24992
740	27.726931	100339712	69349376	32402152	24992
741	29.567529	100339712	69349376	33509416	24992
742	2.492157	100339712	69349376	35900056	24992
743	3.746148	100339712	69349376	38140552	24992
744	5.17205	100339712	69349376	41133392	24992
745	6.06578	100339712	69349376	44865192	24992
746	9.910849	100339712	69349376	33251480	24992
747	8.644458	100339712	69349376	38485000	24992
748	10.059325	100339712	69349376	44479544	24992
749	13.157705	100339712	69349376	35021432	24992
750	12.340236	100339712	69349376	42499576	24992
751	15.976492	100339712	69349376	34900960	24992
752	14.806584	100339712	69349376	43895896	24992
753	18.375691	100339712	69349376	37575360	24992
754	20.14731	100339712	69349376	33001088	24992
755	18.456766	100339712	69349376	44256848	24992
756	22.560332	100339712	69349376	40181528	24992
757	23.702579	100339712	69349376	37438552	24992
758	25.447524	100339712	69349376	35913720	24992
759	26.613142	100339712	69349376	35380368	24992
760	28.471759	100339712	69349376	35725296	24992
761	29.141342	100339712	69349376	36774512	24992
762	2.517365	100339712	69349376	39236680	24992
763	3.677284	100339712	69349376	41547552	24992
764	4.919329	100339712	69349376	44629816	24992
765	8.568563	100339712	69349376	32495256	24992
766	7.422717	100339712	69349376	37099744	24992
767	8.64563	100339712	69349376	42476648	24992
768	12.766392	100339712	69349376	32888296	24992
769	11.167613	100339712	69349376	39785264	24992
770	15.383505	100339712	69349376	32071392	24992
771	13.71038	100339712	69349376	40530272	24992
772	18.080742	100339712	69349376	34246872	24992
773	17.013344	100339712	69349376	44246032	24992
774	20.547254	100339712	69349376	38952128	24992
775	22.11495	100339712	69349376	35278792	24992
776	23.902175	100339712	69349376	32932392	24992
777	21.748303	100339712	69349376	46068496	24992
778	25.154072	100339712	69349376	43648384	24992
779	26.915146	100339712	69349376	42355752	24992
780	28.414376	100339712	69349376	42104888	24992
781	29.715161	100339712	69349376	42659816	24992
782	2.626386	100339712	69349376	44767600	24992
783	3.929609	100339712	69349376	47119816	24992
784	7.847646	100339712	69349376	33899104	24992
785	6.341116	100339712	69349376	37816880	24992
786	8.021732	100339712	69349376	42578232	24992
787	11.686856	100339712	69349376	32343984	24992
788	10.167887	100339712	69349376	38617600	24992
789	11.616241	100339712	69349376	45718688	24992
790	15.598272	100339712	69349376	37398208	24992
791	14.227515	100339712	69349376	46042848	24992
792	18.100484	100339712	69349376	39369656	24992
793	19.630344	100339712	69349376	34440352	24992
794	18.246855	100339712	69349376	45450856	24992
795	22.034299	100339712	69349376	41158224	24992
796	23.832206	100339712	69349376	38275512	24992
797	25.656893	100339712	69349376	36693448	24992
798	27.097268	100339712	69349376	36131784	24992
799	28.658169	100339712	69349376	36528896	24992
800	29.516713	100339712	69349376	37583768	24992
801	30.478543	100339712	69349376	39297120	24992
802	2.678608	100339712	69349376	42393840	24992
803	4.030839	100339712	69349376	44801936	24992
804	7.975969	100339712	69349376	32181424	24992
805	6.53079	100339712	69349376	36192184	24992
806	7.902902	100339712	69349376	41006136	24992
807	9.278396	100339712	69349376	46640072	24992
808	13.087798	100339712	69349376	36902336	24992
809	11.712837	100339712	69349376	44130168	24992
810	16.106423	100339712	69349376	36382432	24992
811	14.568194	100339712	69349376	45230296	24992
812	18.523999	100339712	69349376	38882200	24992
813	20.292994	100339712	69349376	34360952	24992
814	18.737469	100339712	69349376	45633224	24992
815	22.229867	100339712	69349376	41687104	24992
816	24.137491	100339712	69349376	39130696	24992
817	26.762483	100339712	69349376	37730320	24992
818	27.903361	100339712	69349376	37426152	24992
819	29.044538	100339712	69349376	38010232	24992
820	29.972855	100339712	69349376	39356824	24992
821	32.316834	100339712	69349376	41249096	24992
822	2.899325	100339712	69349376	44625752	24992
823	4.327215	100339712	69349376	47095584	24992
824	8.289267	100339712	69349376	34307992	24992
825	6.763851	100339712	69349376	38414208	24992
826	8.157313	100339712	69349376	43352840	24992
827	12.378633	100339712	69349376	33481184	24992
828	10.701818	100339712	69349376	40059120	24992
829	12.372686	100339712	69349376	47482352	24992
830	16.191976	100339712	69349376	39447920	24992
831	15.110862	100339712	69349376	48512360	24992
832	18.869134	100339712	69349376	41967248	24992
833	21.138051	100339712	69349376	37283544	24992
834	22.517017	100339712	69349376	34183432	24992
835	21.426919	100339712	69349376	46562464	24992
836	24.352471	100339712	69349376	43709536	24992
837	26.203814	100339712	69349376	42087552	24992
838	27.594183	100339712	69349376	41544640	24992
839	29.1639	100339712	69349376	41966672	24992
840	30.305482	100339712	69349376	43138112	24992
841	32.39379	100339712	69349376	45044488	24992
842	2.81924	100339712	69349376	48418048	24992
843	7.116159	100339712	69349376	34796240	24992
844	5.631742	100339712	69349376	38220096	24992
845	7.202899	100339712	69349376	42499008	24992
846	8.317835	100339712	69349376	47635984	24992
847	12.486214	100339712	69349376	37484976	24992
848	11.350545	100339712	69349376	44342360	24992
849	15.554611	100339712	69349376	36392352	24992
850	14.382239	100339712	69349376	44988144	24992
851	18.043874	100339712	69349376	38677000	24992
852	17.238509	100339712	69349376	49000872	24992
853	20.467077	100339712	69349376	43761112	24992
854	22.894527	100339712	69349376	40191400	24992
855	24.807848	100339712	69349376	38078800	24992
856	25.980509	100339712	69349376	37094912	24992
857	27.353637	100339712	69349376	37123152	24992
858	28.636041	100339712	69349376	38009104	24992
859	30.137224	100339712	69349376	39671824	24992
860	31.576514	100339712	69349376	41921784	24992
861	32.454581	100339712	69349376	44774184	24992
862	2.78515	100339712	69349376	49019232	24992
863	6.86359	100339712	69349376	35459808	24992
864	5.657712	100339712	69349376	38972968	24992
865	7.222501	100339712	69349376	43344816	24992
866	8.310089	100339712	69349376	48604408	24992
867	12.561401	100339712	69349376	38451680	24992
868	11.21762	100339712	69349376	45461536	24992
869	16.142499	100339712	69349376	37570656	24992
870	13.958755	100339712	69349376	46327296	24992
871	18.553968	100339712	69349376	40083376	24992
872	20.630074	100339712	69349376	35586544	24992
873	19.212882	100339712	69349376	47016616	24992
874	22.706246	100339712	69349376	43281784	24992
875	24.851055	100339712	69349376	41098528	24992
876	26.680916	100339712	69349376	40082664	24992
877	28.08054	100339712	69349376	40099712	24992
878	29.528177	100339712	69349376	41014120	24992
879	30.616258	100339712	69349376	42607000	24992
880	32.207912	100339712	69349376	44909000	24992
881	33.488404	100339712	69349376	47748696	24992
882	2.964871	100610048	69873664	38393584	24992
883	4.417193	100610048	69873664	41074632	24992
884	5.975021	100610048	69873664	44672696	24992
885	7.505537	100610048	69873664	49159920	24992
886	13.678306	102772736	71970816	40607040	24992
887	10.091865	102772736	71970816	46860048	24992
888	14.830842	102772736	72495104	38517208	24992
889	13.136688	102772736	72495104	46566720	24992
890	17.471351	102772736	72495104	40009216	24992
891	16.14031	102772736	72495104	49867696	24992
892	20.150632	103043072	72495104	44648800	24992
893	22.679457	103043072	72495104	41112928	24992
894	24.361877	103043072	72495104	39014360	24992
895	22.112623	103043072	72495104	52479384	24992
896	26.263538	103043072	72495104	50514072	24992
897	28.217733	103043072	73019392	49762792	24992
898	29.562779	103043072	73019392	50082616	24992
899	31.092721	103043072	73019392	51149464	24992
900	34.335774	103043072	73019392	52991864	24992
901	42.357656	103313408	73019392	41567688	24992
902	3.349491	102305792	74592256	26417312	24992
903	4.207234	102305792	74592256	29154184	24992
904	6.669852	104194048	74592256	16751720	24992
905	7.295805	104734720	74592256	21309576	24992
906	8.872048	104734720	74592256	26796832	24992
907	10.551829	104734720	74592256	17408216	24992
908	11.580161	104734720	74592256	24719240	24992
909	13.837869	104734720	74592256	17476208	24992
910	14.19632	104734720	74592256	26606224	24992
911	16.616918	104734720	74592256	20861136	24992
912	18.685117	104734720	74592256	17084296	24992
913	18.927477	104734720	74592256	28965632	24992
914	20.702606	104734720	74592256	25739184	24992
915	22.499098	104734720	74592256	23870600	24992
916	24.02564	104734720	74592256	23201280	24992
917	25.875809	104734720	74592256	23606296	24992
918	27.12619	104734720	74592256	24915952	24992
919	28.795902	104734720	74592256	26871200	24992
920	29.812419	104734720	74592256	29486904	24992
921	33.009269	104734720	74592256	18892320	24992
922	3.030776	106086400	75116544	28051064	24992
923	4.405795	106086400	75116544	30855216	24992
924	6.618288	106086400	75116544	18945632	24992
925	7.528234	106086400	75116544	23597696	24992
926	9.067109	106086400	75116544	29179544	24992
927	11.082314	106086400	75116544	20088312	24992
928	12.118629	106086400	75116544	27549520	24992
929	14.547662	106086400	75116544	20600736	24992
930	15.625616	106086400	75116544	29919688	24992
931	17.017438	106086400	75116544	24430160	24992
932	18.524949	106086400	75116544	20727376	24992
933	19.408269	106086400	75116544	32875240	24992
934	21.306395	106086400	75116544	29770728	24992
935	22.89093	106086400	75116544	28052600	24992
936	24.744631	106086400	75116544	27554056	24992
937	26.349873	106086400	75116544	28120496	24992
938	27.622547	106086400	75116544	29469128	24992
939	28.996261	106086400	75116544	31591320	24992
940	30.173932	106086400	75116544	34332824	24992
941	33.502796	106086400	75116544	23647280	24992
942	2.980778	106086400	75116544	30561504	24992
943	4.449171	106086400	75116544	33410016	24992
944	6.333854	106086400	75116544	21145656	24992
945	7.51185	106086400	75116544	25892456	24992
946	9.368033	106086400	75116544	31601176	24992
947	11.655952	106086400	75116544	22375472	24992
948	12.531317	106086400	75116544	29979720	24992
949	14.354317	106086400	75116544	22770688	24992
950	15.057419	106086400	75116544	32283128	24992
951	17.093716	106086400	75116544	26713264	24992
952	18.934955	106086400	75116544	22978928	24992
953	21.304304	106086400	75116544	20774816	24992
954	21.02832	106086400	75116544	34134528	24992
955	23.234561	106086400	75116544	32180256	24992
956	24.864007	106086400	75116544	31457568	24992
957	26.38195	106086400	75116544	31808520	24992
958	27.845189	106086400	75116544	32998032	24992
959	31.410616	106086400	75116544	21238352	24992
960	33.769048	106086400	75116544	28394640	24992
961	33.113805	106086400	75116544	33443016	24992
962	3.099194	106086400	75116544	23383816	24992
963	4.689134	106086400	75116544	26312112	24992
964	6.04954	106086400	75116544	30197312	24992
965	7.787588	106086400	75116544	35034768	24992
966	9.757143	106086400	75116544	24851456	24992
967	10.764547	106086400	75116544	31634472	24992
968	13.113726	106086400	75116544	23955816	24992
969	13.700457	106086400	75116544	32672176	24992
970	16.119486	106086400	75116544	26747672	24992
971	16.876731	106086400	75116544	37441352	24992
972	18.697484	106086400	75116544	32724512	24992
973	20.586003	106086400	75116544	29670224	24992
974	22.361102	106086400	75116544	28099328	24992
975	24.36736	106086400	75116544	27644648	24992
976	26.148393	106086400	75116544	28375488	24992
977	27.595412	106086400	75116544	29900368	24992
978	28.777994	106086400	75116544	32167488	24992
979	30.747853	106086400	75116544	35083400	24992
980	33.335431	106086400	75116544	25009688	24992
981	35.775474	106086400	75116544	33493880	24992
982	3.17056	106086400	75116544	40740192	24992
983	5.058385	106086400	75116544	27418080	24992
984	6.468495	106086400	75116544	31365408	24992
985	7.892681	106086400	75116544	36295032	24992
986	9.967184	106086400	75116544	26525696	24992
987	11.095178	106086400	75116544	33447920	24992
988	13.40438	106086400	75116544	26096160	24992
989	13.98781	106086400	75116544	35003720	24992
990	16.38291	106086400	75116544	29331336	24992
991	17.298425	106086400	75116544	40205648	24992
992	19.291902	106086400	75116544	35805256	24992
993	21.210034	106086400	75116544	33029320	24992
994	23.080538	106086400	75116544	31656824	24992
995	24.446083	106086400	75116544	31559912	24992
996	29.983964	106086400	75116544	32437128	24992
997	28.094396	106086400	75116544	34176176	24992
998	29.230855	106086400	75116544	36665216	24992
999	30.634297	106086400	75116544	39837272	24992
1000	33.507866	106086400	75116544	29658424	24992
x	Duration	RSS	HeapTotal	HeapUsed	External
0	NA	107876352	78786560	15969936	24992
1	0.611677	107876352	78786560	16021312	24992
2	0.483363	107876352	78786560	16097888	24992
3	0.550458	107876352	78786560	16201552	24992
4	0.663954	107876352	78786560	16333736	24992
5	0.786928	107876352	78786560	16495992	24992
6	0.93824	107876352	78786560	16688784	24992
7	1.063664	107876352	78786560	16913064	24992
8	1.199476	107876352	78786560	17169824	24992
9	1.665937	107876352	78786560	17461040	24992
10	0.658347	107876352	78786560	17787288	24992
11	0.70662	107876352	78786560	18149480	24992
12	0.775553	107876352	78786560	18548664	24992
13	0.844655	107876352	78786560	18985848	24992
14	0.936685	107876352	78786560	19461880	24992
15	1.143774	107876352	78786560	19977800	24992
16	1.106644	107876352	78786560	20535984	24992
17	1.190266	107876352	78786560	21136488	24992
18	1.244995	107876352	78786560	21779864	24992
19	1.31262	107876352	78786560	22468088	24992
20	1.819673	108146688	78786560	23201040	24992
21	1.531892	108146688	78786560	23981312	24992
22	0.187491	108146688	78786560	24780832	24992
23	0.316834	108146688	78786560	24923064	24992
24	0.345477	108146688	78786560	25115328	24992
25	0.416259	108146688	78786560	25358592	24992
26	0.491482	108146688	78786560	25654384	24992
27	0.57267	108146688	78786560	26003112	24992
28	0.652898	108146688	78786560	26405784	24992
29	0.733335	108146688	78786560	26863392	24992
30	0.826427	108146688	78786560	27377840	24992
31	0.913084	108146688	78786560	27949096	24992
32	0.999341	108146688	78786560	28578264	24992
33	1.083915	108146688	78786560	29266200	24992
34	1.415376	108146688	78786560	30013912	24992
35	3.921246	108957696	79310848	16383968	24992
36	1.586554	109768704	79310848	17254344	24992
37	1.675042	110579712	79310848	18187192	24992
38	1.563769	110579712	79310848	19185664	24992
39	1.672293	110579712	79310848	20248776	24992
40	1.97553	110579712	79310848	21377872	24992
41	2.181201	110579712	79310848	22575112	24992
42	0.258047	110579712	79310848	23840152	24992
43	0.377534	110579712	79310848	24044216	24992
44	0.485943	110579712	79310848	24317744	24992
45	0.566719	110579712	79310848	24663216	24992
46	0.683799	110579712	79310848	25080608	24992
47	0.999422	110579712	79310848	25571136	24992
48	0.90672	110579712	79310848	26135760	24992
49	0.998597	110579712	79310848	26775464	24992
50	1.471154	110579712	79310848	27494288	24992
51	1.234155	110579712	79310848	28292272	24992
52	1.355324	110579712	79310848	29170568	24992
53	1.473681	110579712	79310848	30129736	24992
54	1.588814	110579712	79310848	31170968	24992
55	1.732337	110579712	79310848	32295264	24992
56	3.839041	110579712	79310848	17326584	24992
57	1.979685	110579712	79310848	18619896	24992
58	2.137494	110579712	79310848	20010304	24992
59	2.207099	110579712	79310848	21478504	24992
60	2.341122	110579712	79310848	23035144	24992
61	2.73095	110579712	79310848	24680720	24992
62	0.293796	110579712	79310848	26440864	24992
63	0.441268	110579712	79310848	26711712	24992
64	0.59083	110579712	79310848	27074432	24992
65	0.720318	110579712	79310848	27529880	24992
66	0.851553	110579712	79310848	28079616	24992
67	0.989382	110579712	79310848	28724160	24992
68	1.140408	110579712	79310848	29464456	24992
69	1.277514	110579712	79310848	30301352	24992
70	1.422754	110579712	79310848	31236888	24992
71	1.596277	110579712	79310848	32271032	24992
72	2.819694	110579712	79310848	17368784	24992
73	2.037765	110579712	79310848	18603232	24992
74	2.18988	110579712	79310848	19939232	24992
75	2.371489	110579712	79310848	21378160	24992
76	2.706132	110579712	79310848	22920264	24992
77	2.501558	110579712	79310848	24566800	24992
78	2.918193	110579712	79310848	26323128	24992
79	2.871969	110579712	79310848	28183456	24992
80	3.200607	110579712	79310848	30151696	24992
81	3.205807	110579712	79310848	32229888	24992
82	0.371294	110579712	79310848	18576936	24992
83	0.543353	110579712	79310848	18906216	24992
84	0.706169	110579712	79310848	19349080	24992
85	0.877002	110579712	79310848	19904296	24992
86	1.26953	110579712	79310848	20574400	24992
87	1.221188	110579712	79310848	21359960	24992
88	1.392811	110579712	79310848	22261776	24992
89	1.58356	110579712	79310848	23281032	24992
90	1.746341	110579712	79310848	24419496	24992
91	1.934478	110579712	79310848	25677168	24992
92	2.115703	110579712	79310848	27055544	24992
93	2.516791	110579712	79310848	28555664	24992
94	2.486741	110579712	79310848	30177024	24992
95	2.682391	110579712	79310848	31921640	24992
96	4.086597	110579712	79310848	17964008	24992
97	3.195825	110579712	79310848	19957912	24992
98	3.248065	110579712	79310848	22079712	24992
99	3.479539	110579712	79310848	24328712	24992
100	3.86661	110579712	79310848	26706080	24992
101	3.839159	110579712	79310848	29212616	24992
102	0.421372	110579712	79310848	31937904	24992
103	0.631137	110579712	79310848	32341560	24992
104	0.831515	110579712	79310848	32881496	24992
105	1.048743	110579712	79310848	33558400	24992
106	2.71554	110579712	79310848	18317144	24992
107	1.491595	110579712	79310848	19271832	24992
108	1.659591	110579712	79310848	20366320	24992
109	1.863173	110579712	79310848	21601848	24992
110	2.075077	110579712	79310848	22980360	24992
111	2.396763	110579712	79310848	24502352	24992
112	2.526449	110579712	79310848	26167808	24992
113	2.729572	110579712	79310848	27980208	24992
114	2.950618	110579712	79310848	29936296	24992
115	3.162216	110579712	79310848	32039944	24992
116	4.701823	110579712	79310848	18461456	24992
117	3.632879	110579712	79310848	20861008	24992
118	3.845424	110579712	79310848	23413504	24992
119	4.093603	110579712	79310848	26115384	24992
120	4.561234	110579712	79310848	28969480	24992
121	4.951018	110579712	79310848	31976848	24992
122	0.517329	110579712	79310848	19437432	24992
123	0.737353	110579712	79310848	19902192	24992
124	0.967273	110579712	79310848	20519968	24992
125	1.19532	110579712	79310848	21294400	24992
126	1.797548	110579712	79310848	22227200	24992
127	1.681238	110579712	79310848	23318176	24992
128	1.936108	110579712	79310848	24570992	24992
129	2.166076	110579712	79310848	25983136	24992
130	2.404057	110579712	79310848	27556600	24992
131	2.649446	110579712	79310848	29294032	24992
132	2.88206	110579712	79310848	31193368	24992
133	3.41736	110579712	79310848	33257040	24992
134	4.551213	110579712	79310848	19515712	24992
135	3.698011	110579712	79310848	21911296	24992
136	3.930711	110579712	79310848	24474200	24992
137	4.23871	110579712	79310848	27206952	24992
138	4.475863	110579712	79310848	30109296	24992
139	4.809049	110579712	79310848	33184888	24992
140	6.334609	110579712	79310848	20463440	24992
141	5.386292	110579712	79310848	23880200	24992
142	0.552767	110579712	79310848	27596608	24992
143	0.835938	110579712	79310848	28122768	24992
144	1.098818	110579712	79310848	28827520	24992
145	1.355276	110579712	79310848	29708616	24992
146	1.811257	110579712	79310848	30769168	24992
147	1.919238	110579712	79310848	32009640	24992
148	2.162023	110579712	79310848	33430832	24992
149	2.456187	110579712	79310848	35033816	24992
150	3.646587	110579712	79310848	20610304	24992
151	3.006251	110579712	79310848	22580904	24992
152	3.485266	110579712	79310848	24736904	24992
153	3.564012	110579712	79310848	27078208	24992
154	3.913581	110579712	79310848	29606160	24992
155	4.321561	110579712	79310848	32321600	24992
156	4.403842	110579712	79310848	35227112	24992
157	5.612887	110579712	79310848	22092264	24992
158	5.328755	110579712	79310848	25379272	24992
159	5.314338	110579712	79310848	28857128	24992
160	5.62702	110579712	79310848	32539000	24992
161	7.169085	110579712	79310848	20620440	24992
162	0.625577	110579712	79310848	24822840	24992
163	0.920064	110579712	79310848	25407512	24992
164	1.216508	110579712	79310848	26188680	24992
165	1.510236	110579712	79310848	27167264	24992
166	1.810679	110579712	79310848	28344880	24992
167	2.355595	110579712	79310848	29721728	24992
168	2.423818	110579712	79310848	31298880	24992
169	2.735774	110579712	79310848	33078592	24992
170	3.1729	110579712	79310848	35060496	24992
171	4.767133	110579712	79310848	21101480	24992
172	3.707146	110579712	79310848	23491184	24992
173	4.00909	110579712	79310848	26085816	24992
174	4.359944	110579712	79310848	28887008	24992
175	4.626068	110579712	79310848	31895064	24992
176	5.146163	110579712	79310848	35114480	24992
177	6.386265	110579712	79310848	22400328	24992
178	5.949997	110579712	79310848	26039640	24992
179	5.895538	110579712	79310848	29888112	24992
180	6.243067	110579712	79310848	33953352	24992
181	7.858736	110579712	79310848	22266080	24992
182	0.733521	110579712	79310848	26926648	24992
183	1.015014	110579712	79310848	27571512	24992
184	1.341753	110579712	79310848	28430656	24992
185	1.721295	110579712	79310848	29511512	24992
186	1.995082	110579712	79310848	30806096	24992
187	2.605628	110579712	79310848	32319544	24992
188	2.720461	110579712	79310848	34056368	24992
189	3.015994	110579712	79310848	36013960	24992
190	4.392388	110579712	79310848	21933296	24992
191	3.921082	110579712	79310848	24332888	24992
192	4.066321	110579712	79310848	26958440	24992
193	4.589678	110579712	79310848	29806616	24992
194	4.72298	110579712	79310848	32880448	24992
195	5.197433	110579712	79310848	36181768	24992
196	6.887918	110579712	79310848	23449704	24992
197	5.813576	110579712	79310848	27206600	24992
198	6.559028	110579712	79310848	31194728	24992
199	6.769297	110579712	79310848	35413616	24992
200	8.032979	110579712	79310848	23718808	24992
201	7.413742	110579712	79310848	28403424	24992
202	0.761123	110579712	79310848	33526008	24992
203	1.109153	110579712	79310848	34227680	24992
204	1.463795	110579712	79310848	35164816	24992
205	1.833284	110579712	79310848	36338408	24992
206	3.463775	110579712	79310848	21515424	24992
207	2.574663	110579712	79310848	23173616	24992
208	3.153958	110579712	79310848	25079312	24992
209	3.298913	110579712	79310848	27233800	24992
210	3.711859	110579712	79310848	29644744	24992
211	4.497292	110579712	79310848	32302552	24992
212	4.685407	110579712	79310848	35209456	24992
213	6.379381	110579712	79310848	22331960	24992
214	5.666491	110579712	79310848	25747696	24992
215	6.085823	110579712	79310848	29415336	24992
216	6.113411	110579712	79310848	33342912	24992
217	8.378912	110579712	79310848	21802472	24992
218	7.205303	110579712	79310848	26240856	24992
219	7.489473	110579712	79310848	30938384	24992
220	8.131875	110579712	79310848	35894856	24992
221	9.383553	110579712	79310848	24958760	24992
222	0.851466	110579712	79310848	30668680	24992
223	1.27212	110579712	79310848	31456272	24992
224	2.084013	110579712	79310848	32504680	24992
225	2.30846	110579712	79310848	33821864	24992
226	2.456468	110579712	79310848	35400056	24992
227	4.227067	110579712	79310848	21246200	24992
228	3.552648	110579712	79310848	23357720	24992
229	3.76414	110579712	79310848	25743032	24992
230	4.198578	110579712	79310848	28398224	24992
231	5.010114	110579712	79310848	31331624	24992
232	5.100669	110579712	79310848	34533672	24992
233	7.438598	110579712	79310848	22190192	24992
234	5.95803	110579712	79310848	25943064	24992
235	6.419539	110579712	79310848	29976088	24992
236	6.834004	110579712	79310848	34283632	24992
237	9.002026	110579712	79310848	23067952	24992
238	7.660367	110579712	79310848	27935872	24992
239	8.164175	110579712	79310848	33084448	24992
240	10.449284	110579712	79310848	22914176	24992
241	9.233424	110579712	79310848	28629080	24992
242	0.929769	110579712	79310848	34881192	24992
243	1.366734	110579712	79310848	35733288	24992
244	1.833955	110579712	79310848	36871000	24992
245	3.697623	110579712	79310848	22126072	24992
246	2.713797	110579712	79310848	23838392	24992
247	3.125251	110579712	79310848	25839304	24992
248	3.449448	110579712	79310848	28130048	24992
249	4.205249	110579712	79310848	30711000	24992
250	4.578862	110579712	79310848	33584208	24992
251	5.028841	110579712	79310848	36749960	24992
252	7.036262	110579712	79310848	24093096	24992
253	6.170143	110579712	79310848	27846496	24992
254	6.863345	110579712	79310848	31896864	24992
255	7.097127	110579712	79310848	36251960	24992
256	8.821931	110579712	79310848	24838376	24992
257	7.754192	110579712	79310848	29779008	24992
258	8.327643	110579712	79310848	35027424	24992
259	10.510264	110579712	79310848	24714912	24992
260	9.446633	110579712	79310848	30559712	24992
261	9.658953	110579712	79310848	36712120	24992
262	1.001933	110579712	79310848	27318480	24992
263	1.47328	110579712	79310848	28229144	24992
264	2.1554	110579712	79310848	29444816	24992
265	2.396131	110579712	79310848	30966656	24992
266	2.935009	110579712	79310848	32797208	24992
267	3.563647	110579712	79310848	34934696	24992
268	4.129126	110579712	79310848	37385136	24992
269	5.685849	110579712	79310848	23981312	24992
270	4.886368	110579712	79310848	27055384	24992
271	5.36704	110579712	79310848	30441464	24992
272	6.132814	110579712	79310848	34136912	24992
273	6.400305	110579712	79310848	38149120	24992
274	8.407596	110579712	79310848	26166072	24992
275	7.434496	110579712	79310848	30806984	24992
276	8.076587	110579712	79310848	35762584	24992
277	10.247804	110579712	79310848	25142016	24992
278	9.081889	110579712	79310848	30741512	24992
279	9.620773	110579712	79310848	36654160	24992
280	11.36664	110579712	79310848	26837728	24992
281	10.478382	110579712	79310848	33394760	24992
282	1.264107	110579712	79310848	25105216	24992
283	1.50762	110579712	79310848	26074416	24992
284	2.032812	110579712	79310848	27371072	24992
285	2.611553	110579712	79310848	28990344	24992
286	3.145726	110579712	79310848	30936704	24992
287	3.686722	110579712	79310848	33210448	24992
288	4.177708	110579712	79310848	35812768	24992
289	4.723548	110579712	79310848	38750080	24992
290	6.888424	110579712	79310848	25695712	24992
291	5.767344	110579712	79310848	29291872	24992
292	6.427924	110579712	79310848	33223056	24992
293	6.842909	110579712	79310848	37483496	24992
294	8.733253	110579712	79310848	25972720	24992
295	8.125677	110579712	79310848	30902800	24992
296	8.55097	110579712	79310848	36169960	24992
297	10.364493	110579712	79310848	25911712	24992
298	9.520299	110579712	79310848	31857936	24992
299	10.220608	110579712	79310848	38145248	24992
300	12.062164	110579712	79310848	28573664	24992
301	11.207528	110579712	79310848	35542488	24992
302	1.133649	110579712	79310848	27434488	24992
303	1.886139	110579712	79310848	28472584	24992
304	2.117842	110579712	79310848	29845632	24992
305	2.76167	110579712	79310848	31562400	24992
306	3.40425	110579712	79310848	33625720	24992
307	3.779552	110579712	79310848	36043632	24992
308	4.289639	110579712	79310848	38801992	24992
309	6.330169	110579712	79310848	25707712	24992
310	5.708497	110579712	79310848	29165944	24992
311	6.109106	110579712	79310848	32975192	24992
312	6.807588	110579712	79310848	37141000	24992
313	8.889084	110579712	79310848	25691344	24992
314	7.693507	110579712	79310848	30559312	24992
315	8.552279	110579712	79310848	35792016	24992
316	10.995052	110579712	79310848	25634720	24992
317	9.583401	110579712	79310848	31569952	24992
318	10.206248	110579712	79310848	37866296	24992
319	12.141546	110579712	79310848	28438808	24992
320	11.273618	110579712	79310848	35475416	24992
321	14.152442	110579712	79310848	27198912	24992
322	1.184619	110579712	79310848	35272504	24992
323	1.741737	110579712	79310848	36358608	24992
324	2.256813	110579712	79310848	37812152	24992
325	3.129352	110579712	79310848	39626976	24992
326	4.862108	110579712	79310848	25535200	24992
327	4.104872	110579712	79310848	28090976	24992
328	4.843822	110579712	79310848	31010128	24992
329	5.294866	110579712	79310848	34313424	24992
330	5.836927	110579712	79310848	37966680	24992
331	7.980496	110579712	79310848	26023720	24992
332	7.217537	110579712	79310848	30418784	24992
333	7.549399	110579712	79310848	35187112	24992
334	10.280034	110579712	79310848	24816920	24992
335	8.923313	110579712	79310848	30332056	24992
336	9.475389	110579712	79310848	36222560	24992
337	12.025181	110579712	79310848	26786128	24992
338	10.942387	110579712	79310848	33434992	24992
339	13.50399	110579712	79310848	25279376	24992
340	12.403656	110579712	79310848	32683152	24992
341	14.872614	110579712	79310848	25397504	24992
342	1.195941	110579712	79310848	33938944	24992
343	1.980308	110579712	79310848	35083520	24992
344	2.497368	110579712	79310848	36611232	24992
345	3.085465	110579712	79310848	38523032	24992
346	5.440623	110579712	79310848	24822440	24992
347	4.473914	110579712	79310848	27508920	24992
348	4.84511	110579712	79310848	30579312	24992
349	5.656916	110579712	79310848	34037728	24992
350	6.242957	110579712	79310848	37886040	24992
351	8.634069	110579712	79310848	26270200	24992
352	7.156678	110579712	79310848	30912248	24992
353	8.048038	110579712	79310848	35943032	24992
354	11.114412	110579712	79310848	25782376	24992
355	9.327685	110579712	79310848	31589968	24992
356	10.072865	110579712	79310848	37794360	24992
357	12.566031	110579712	79310848	28531520	24992
358	11.369567	110579712	79310848	35528496	24992
359	14.180471	110579712	79310848	27459888	24992
360	12.708819	110579712	79310848	35262504	24992
361	15.637223	110579712	79310848	28077136	24992
362	1.314093	110579712	79310848	37092488	24992
363	1.975393	110579712	79310848	38308888	24992
364	2.615696	110579712	79310848	39933568	24992
365	5.137462	110579712	79310848	25839288	24992
366	3.811635	110579712	79310848	28280440	24992
367	4.590549	110579712	79310848	31132048	24992
368	5.407725	110579712	79310848	34394136	24992
369	5.902491	110579712	79310848	38068232	24992
370	8.560055	110579712	79310848	26357416	24992
371	7.43952	110579712	79310848	30859032	24992
372	7.80246	110579712	79310848	35779456	24992
373	8.622495	110579712	79310848	41120856	24992
374	10.958348	110579712	79310848	30496080	24992
375	9.989169	110579712	79310848	36663704	24992
376	12.607091	110579712	79310848	27653608	24992
377	11.50214	110579712	79310848	34673600	24992
378	14.444513	110579712	79310848	26860776	24992
379	12.550813	110579712	79310848	34717632	24992
380	16.036128	110579712	79310848	27743672	24992
381	14.491051	110579712	79310848	36440096	24992
382	1.402778	110579712	79310848	30456584	24992
383	2.067256	110579712	79310848	31731488	24992
384	2.622715	110579712	79310848	33432944	24992
385	3.43565	110579712	79310848	35563296	24992
386	4.138456	110579712	79310848	38126944	24992
387	4.834547	110579712	79310848	41121224	24992
388	7.315652	110579712	79310848	28284616	24992
389	6.367105	110579712	79310848	32134136	24992
390	6.634557	110579712	79310848	36425688	24992
391	7.61894	110579712	79310848	41155896	24992
392	10.062432	110579712	79310848	30008504	24992
393	8.73193	110579712	79310848	35597216	24992
394	9.905936	110579712	79310848	41619280	24992
395	11.91201	110579712	79310848	31694440	24992
396	11.450955	110579712	79310848	38595920	24992
397	14.024815	110579712	79310848	30109688	24992
398	12.897722	110579712	79310848	37888744	24992
399	15.649511	110579712	79310848	30402960	24992
400	14.095835	110579712	79310848	39075688	24992
401	17.516154	110579712	79310848	32304456	24992
402	3.139694	110579712	79310848	26115368	24992
403	2.197863	110579712	79310848	27448896	24992
404	2.86231	110579712	79310848	29228440	24992
405	3.767562	110579712	79310848	31459128	24992
406	4.284458	110579712	79310848	34137232	24992
407	5.064333	110579712	79310848	37261448	24992
408	5.9553	110579712	79310848	40842240	24992
409	8.365018	110579712	79310848	28761640	24992
410	7.242385	110579712	79310848	33244632	24992
411	8.103897	110579712	79310848	38175416	24992
412	10.809094	110579712	79310848	27887056	24992
413	9.536026	110579712	79310848	33726696	24992
414	10.291429	110579712	79310848	40029624	24992
415	12.822246	110579712	79310848	30763808	24992
416	11.830279	110579712	79310848	37986448	24992
417	14.699352	110579712	79310848	30038832	24992
418	13.167197	110579712	79310848	38214672	24992
419	16.415294	110579712	79310848	31186104	24992
420	14.735544	110579712	79310848	40316312	24992
421	17.435191	110579712	79310848	33899136	24992
422	1.50857	110579712	79310848	29646536	24992
423	2.275057	110579712	79310848	31087936	24992
424	3.020193	110579712	79310848	33011360	24992
425	3.964348	110579712	79310848	35420736	24992
426	4.794117	110579712	79310848	38331504	24992
427	5.30691	110579712	79310848	41707312	24992
428	8.036721	110579712	79310848	29380848	24992
429	6.735046	110579712	79310848	33736624	24992
430	7.474626	110579712	79310848	38575280	24992
431	10.656565	110579712	79310848	28227088	24992
432	9.330205	110579712	79310848	34050600	24992
433	9.858482	110579712	79310848	40373480	24992
434	12.95569	110579712	79310848	31168984	24992
435	11.506404	110579712	79310848	38460720	24992
436	14.456185	110579712	79310848	30596568	24992
437	13.155491	110579712	79310848	38879000	24992
438	16.225891	110579712	79310848	31951936	24992
439	14.694732	110579712	79310848	41245024	24992
440	17.585663	110579712	79310848	34915160	24992
441	19.021669	110579712	79310848	30153888	24992
442	1.590704	110579712	79310848	41451040	24992
443	2.354111	110579712	79310848	42951000	24992
444	5.106159	110579712	79310848	28708264	24992
445	3.940558	110579712	79310848	31225272	24992
446	4.893466	110579712	79310848	34233064	24992
447	5.789019	110579712	79310848	37745336	24992
448	6.39521	110579712	79310848	41762984	24992
449	9.099659	110579712	79310848	30207600	24992
450	8.114963	110579712	79310848	35240056	24992
451	8.722197	110579712	79310848	40781280	24992
452	11.658733	110579712	79310848	30858216	24992
453	10.426337	110579712	79310848	37451344	24992
454	13.211762	110579712	79310848	29129760	24992
455	12.076603	110579712	79310848	36743168	24992
456	15.589177	110579712	79310848	29632000	24992
457	13.578109	110579712	79310848	38261080	24992
458	17.68598	110579712	79310848	31910872	24992
459	15.026046	110579712	79310848	41558904	24992
460	18.536509	110579712	79310848	35658120	24992
461	19.416986	110579712	79310848	31347536	24992
462	1.6456	110579712	79310848	43108632	24992
463	4.493986	110579712	79310848	28460848	24992
464	3.473523	110579712	79310848	30540304	24992
465	4.154317	110579712	79310848	33141824	24992
466	5.005796	110579712	79310848	36266712	24992
467	5.85402	110579712	79310848	39915568	24992
468	8.906367	110579712	79310848	28444096	24992
469	7.311225	110579712	79310848	33143576	24992
470	8.106708	110579712	79310848	38371048	24992
471	11.484945	110579712	79310848	28670176	24992
472	10.050896	110579712	79310848	34954272	24992
473	10.698947	110579712	79310848	41767816	24992
474	13.74035	110579712	79310848	33063480	24992
475	12.542102	110579712	79310848	40973552	24992
476	15.702585	110579712	79310848	33502224	24992
477	14.345823	110579712	79310848	42570200	24992
478	17.503621	110579712	79310848	35947904	24992
479	18.49313	110579712	79310848	30952360	24992
480	17.554555	110579712	79310848	41514592	24992
481	19.979296	110579712	79310848	36655544	24992
482	1.662135	110850048	79835136	33762736	24992
483	2.520786	110850048	79835136	35379656	24992
484	3.321827	110850048	79835136	37537096	24992
485	4.341703	110850048	79835136	40235848	24992
486	5.14399	110850048	79835136	43477848	24992
487	8.130199	110850048	79835136	31123888	24992
488	6.818755	110850048	79835136	35453688	24992
489	7.654583	110850048	79835136	40331592	24992
490	10.928507	110850048	79835136	30061432	24992
491	9.687546	110850048	79835136	36031440	24992
492	10.379057	110850048	79835136	42562256	24992
493	13.354052	110850048	79835136	33579328	24992
494	12.094679	110850048	79835136	41201016	24992
495	15.420117	110850048	79835136	33529544	24992
496	13.65196	110850048	79835136	42276128	24992
497	16.886726	111120384	79835136	35538104	24992
498	18.603389	111120384	79835136	30539128	24992
499	16.689464	111120384	79835136	40950424	24992
500	20.088234	111120384	79835136	36120768	24992
501	20.920194	111120384	79835136	32682800	24992
502	3.736913	111120384	79835136	29159192	24992
503	2.555151	111120384	79835136	30834568	24992
504	3.460367	111120384	79835136	33069808	24992
505	4.544845	111120384	79835136	35866352	24992
506	5.524743	111120384	79835136	39225248	24992
507	6.031336	111120384	79835136	43147056	24992
508	9.295966	111120384	79835136	31622080	24992
509	8.136452	111120384	79835136	36673176	24992
510	8.794978	111120384	79835136	42293976	24992
511	11.886465	111120384	79835136	32542280	24992
512	10.784402	111120384	79835136	39309904	24992
513	14.441787	111120384	79835136	31267320	24992
514	12.256867	111120384	79835136	39165464	24992
515	16.305067	111120384	79835136	32275936	24992
516	14.194148	111120384	79835136	41321952	24992
517	17.797622	111120384	79835136	35202784	24992
518	18.754636	111120384	79835136	30719344	24992
519	17.18787	111120384	79835136	41488944	24992
520	20.774367	111120384	79835136	37067960	24992
521	22.325819	111120384	79835136	34013008	24992
522	1.877459	111120384	79835136	32725976	24992
523	2.818732	111120384	79835136	34459856	24992
524	3.80872	111120384	79835136	36773144	24992
525	4.609167	111120384	79835136	39667080	24992
526	5.621826	111120384	79835136	43149696	24992
527	8.695701	111120384	79835136	31303872	24992
528	7.384069	111120384	79835136	35950416	24992
529	8.276652	111120384	79835136	41188040	24992
530	11.933388	111120384	79835136	31386160	24992
531	10.285402	111120384	79835136	37789992	24992
532	11.427321	111120384	79835136	44791336	24992
533	14.308779	111120384	79835136	36152680	24992
534	12.810939	111120384	79835136	44334000	24992
535	15.953728	111120384	79835136	36928096	24992
536	17.809161	111120384	79835136	31452544	24992
537	16.012244	111120384	79835136	41395144	24992
538	19.768373	111120384	79835136	36302184	24992
539	21.172535	111120384	79835136	32737560	24992
540	18.721014	111120384	79835136	44476688	24992
541	22.259529	111120384	79835136	40619944	24992
542	1.883682	111120384	79835136	38670240	24992
543	2.856414	111120384	79835136	40462944	24992
544	3.964188	111120384	79835136	42854296	24992
545	4.82719	111120384	79835136	45859352	24992
546	8.13953	111120384	79835136	33206512	24992
547	6.659243	111120384	79835136	37402400	24992
548	7.794456	111120384	79835136	42200192	24992
549	11.189128	111120384	79835136	31900400	24992
550	9.45673	111120384	79835136	37924848	24992
551	10.447088	111120384	79835136	44540512	24992
552	13.992022	111120384	79835136	35656376	24992
553	12.493662	111120384	79835136	43489064	24992
554	16.41932	111120384	79835136	36020616	24992
555	14.451577	111120384	79835136	45071568	24992
556	18.017033	111120384	79835136	38548624	24992
557	19.223895	111120384	79835136	33798848	24992
558	17.483951	111120384	79835136	44725032	24992
559	20.486562	111120384	79835136	40132920	24992
560	22.677509	111120384	79835136	36999872	24992
561	24.46072	111120384	79835136	35050696	24992
562	1.959362	111120384	79835136	34751848	24992
563	2.988846	111120384	79835136	36640480	24992
564	4.076229	111120384	79835136	39150616	24992
565	5.036558	111120384	79835136	42277144	24992
566	5.928011	111120384	79835136	46031296	24992
567	9.37719	111120384	79835136	34210536	24992
568	7.841192	111120384	79835136	39228936	24992
569	9.057228	111120384	79835136	44878816	24992
570	12.162395	111120384	79835136	35048864	24992
571	10.658148	111120384	79835136	41951728	24992
572	14.556316	111120384	79835136	33914536	24992
573	12.820784	111120384	79835136	42093144	24992
574	16.904485	111120384	79835136	35332672	24992
575	14.798418	111120384	79835136	44779472	24992
576	18.380274	111120384	79835136	38836528	24992
577	19.758074	111120384	79835136	34539184	24992
578	17.647428	111120384	79835136	45907728	24992
579	21.369286	111120384	79835136	41693056	24992
580	23.400857	111120384	79835136	38868344	24992
581	24.80793	111120384	79835136	37153464	24992
582	2.045513	111120384	79835136	37092776	24992
583	3.059163	111120384	79835136	39022480	24992
584	4.273834	111120384	79835136	41596976	24992
585	5.639961	111120384	79835136	44822048	24992
586	8.825718	111120384	79835136	32791912	24992
587	7.124141	111120384	79835136	37323696	24992
588	8.111902	111120384	79835136	42502456	24992
589	12.001116	111120384	79835136	32756552	24992
590	10.337734	111120384	79835136	39223344	24992
591	11.282055	111120384	79835136	46346048	24992
592	14.586274	111120384	79835136	37942880	24992
593	13.570498	111120384	79835136	46384744	24992
594	16.853532	111120384	79835136	39276664	24992
595	18.891153	111120384	79835136	34008008	24992
596	16.666043	111120384	79835136	44414344	24992
597	19.990748	111120384	79835136	39583488	24992
598	22.010206	111120384	79835136	36297016	24992
599	23.218078	111120384	79835136	34225392	24992
600	21.108714	111120384	79835136	47267928	24992
601	24.601373	111120384	79835136	44669368	24992
602	2.112923	111120384	79835136	43858400	24992
603	3.149664	111120384	79835136	45846632	24992
604	6.794836	111120384	79835136	32512056	24992
605	5.259841	111120384	79835136	35829888	24992
606	6.234474	111120384	79835136	39814456	24992
607	7.31983	111120384	79835136	44466264	24992
608	10.994209	111120384	79835136	34013568	24992
609	9.452375	111120384	79835136	40002728	24992
610	10.601042	111120384	79835136	46670368	24992
611	14.384516	111120384	79835136	37826096	24992
612	12.739647	111120384	79835136	45836704	24992
613	16.713075	111120384	79835136	38512784	24992
614	14.800505	111120384	79835136	47866064	24992
615	18.067264	111120384	79835136	41523040	24992
616	19.79319	111120384	79835136	36934808	24992
617	21.318412	111120384	79835136	33869160	24992
618	19.092461	111120384	79835136	45932400	24992
619	22.831583	111120384	79835136	42663352	24992
620	24.202083	111120384	79835136	40663504	24992
621	26.169367	111120384	79835136	39707872	24992
622	2.174435	111120384	79835136	40307760	24992
623	3.254924	111120384	79835136	42354432	24992
624	4.618936	111120384	79835136	45084944	24992
625	8.352303	111120384	79835136	32796976	24992
626	6.762379	111120384	79835136	36898880	24992
627	7.584618	111120384	79835136	41688848	24992
628	8.493488	111120384	79835136	47168464	24992
629	12.068428	111120384	79835136	37162592	24992
630	10.916898	111120384	79835136	44029744	24992
631	14.633183	111120384	79835136	35991704	24992
632	13.336581	111120384	79835136	44250688	24992
633	16.904159	111120384	79835136	37604096	24992
634	15.148548	111120384	79835136	47250104	24992
635	19.449876	111120384	79835136	41379296	24992
636	21.115797	111120384	79835136	37296216	24992
637	22.74688	111120384	79835136	34650936	24992
638	20.232463	111120384	79835136	47092072	24992
639	23.426281	111120384	79835136	44112688	24992
640	25.468516	111120384	79835136	42361760	24992
641	26.636918	111120384	79835136	41658208	24992
642	2.266687	111120384	79835136	42488736	24992
643	3.369795	111120384	79835136	44594232	24992
644	4.633572	111120384	79835136	47402696	24992
645	8.118845	111120384	79835136	34945048	24992
646	6.797593	111120384	79835136	39163784	24992
647	7.581288	111120384	79835136	44088728	24992
648	11.810478	111120384	79835136	34250848	24992
649	10.119211	111120384	79835136	40591064	24992
650	11.319178	111120384	79835136	47641760	24992
651	15.370549	111120384	79835136	39260912	24992
652	13.286776	111120384	79835136	47758856	24992
653	17.097786	111120384	79835136	40768624	24992
654	19.300132	111120384	79835136	35766536	24992
655	16.968972	111120384	79835136	46377464	24992
656	21.310629	111120384	79835136	41776624	24992
657	22.800564	111120384	79835136	38752488	24992
658	24.500401	111120384	79835136	36971760	24992
659	25.753045	111120384	79835136	36282208	24992
660	26.923292	111120384	79835136	36445792	24992
661	27.959624	111120384	79835136	37319864	24992
662	2.504456	111120384	79835136	39528912	24992
663	3.638057	111120384	79835136	41692576	24992
664	4.617222	111120384	79835136	44579144	24992
665	5.647704	111120384	79835136	48189512	24992
666	9.970451	111120384	79835136	36456064	24992
667	8.353694	111120384	79835136	41517448	24992
668	9.281419	111120384	79835136	47311800	24992
669	13.271946	111120384	79835136	37916400	24992
670	12.200678	111120384	79835136	45176016	24992
671	15.670763	111120384	79835136	37609528	24992
672	13.944727	111120384	79835136	46336896	24992
673	18.299021	111120384	79835136	39991360	24992
674	19.942349	111120384	79835136	35549832	24992
675	17.448131	111120384	79835136	46456456	24992
676	21.974866	111120384	79835136	42307440	24992
677	23.679117	111120384	79835136	39696152	24992
678	24.810535	111120384	79835136	38247896	24992
679	26.29961	111120384	79835136	37839424	24992
680	27.528821	111120384	79835136	38201720	24992
681	28.509106	111120384	79835136	39298800	24992
682	2.377804	111120384	79835136	41656888	24992
683	3.559681	111120384	79835136	43879152	24992
684	4.627253	111120384	79835136	46844168	24992
685	9.080458	111120384	79835136	34888536	24992
686	7.2558	111120384	79835136	39350024	24992
687	8.315719	111120384	79835136	44554440	24992
688	12.94563	111120384	79835136	35136840	24992
689	10.852622	111120384	79835136	41855488	24992
690	11.940935	111120384	79835136	49324840	24992
691	16.152539	111120384	79835136	41349168	24992
692	14.195272	111120384	79835136	50316832	24992
693	18.128427	111120384	79835136	43589632	24992
694	19.747179	111120384	79835136	38904264	24992
695	17.972239	111120384	79835136	50112928	24992
696	22.025427	111120384	79835136	45759824	24992
697	24.090394	111120384	79835136	42968688	24992
698	25.360188	111120384	79835136	41381216	24992
699	27.102637	111120384	79835136	40893528	24992
700	27.521995	111120384	79835136	41191680	24992
701	29.331848	111120384	79835136	42254112	24992
702	2.443274	111120384	79835136	44738120	24992
703	3.659748	111120384	79835136	47018960	24992
704	4.83215	111120384	79835136	50063072	24992
705	8.938602	111120384	79835136	37685664	24992
706	7.287225	111120384	79835136	42255520	24992
707	8.51577	111120384	79835136	47595752	24992
708	12.783951	111120384	79835136	37939176	24992
709	11.191841	111120384	79835136	44825528	24992
710	15.780137	111120384	79835136	37158496	24992
711	13.233942	111120384	79835136	45566912	24992
712	18.22458	111120384	79835136	39324144	24992
713	15.745193	111120384	79835136	49281728	24992
714	19.996313	111120384	79835136	43904664	24992
715	21.978707	111120384	79835136	40325680	24992
716	23.048508	111120384	79835136	38125456	24992
717	21.320093	111120384	79835136	51196184	24992
718	26.146238	111120384	79835136	48601456	24992
719	27.661136	111120384	79835136	47296608	24992
720	28.217326	111120384	79835136	46959424	24992
721	29.491457	111120384	79835136	47514432	24992
722	2.644258	111120384	79835136	49533856	24992
723	6.861038	111120384	79835136	35937272	24992
724	5.207144	111120384	79835136	39057880	24992
725	6.340921	111120384	79835136	42960768	24992
726	7.739646	111120384	79835136	47698024	24992
727	11.944145	111120384	79835136	37447048	24992
728	10.068144	111120384	79835136	43703368	24992
729	11.300533	111120384	79835136	50819824	24992
730	15.254291	111120384	79835136	42364520	24992
731	13.884018	111120384	79835136	50983176	24992
732	17.81282	111120384	79835136	44095000	24992
733	19.813085	111120384	79835136	39246912	24992
734	18.058107	111120384	79835136	50239216	24992
735	21.671687	111120384	79835136	45856544	24992
736	23.832798	111120384	79835136	43135936	24992
737	25.487015	111120384	79835136	41604720	24992
738	26.086017	111120384	79835136	41143656	24992
739	28.348381	111120384	79835136	41630712	24992
740	29.263292	111120384	79835136	42771024	24992
741	30.97612	111120384	79835136	44574208	24992
742	2.584558	111120384	79835136	47733168	24992
743	3.838917	111120384	79835136	50130992	24992
744	8.063026	111120384	79835136	37422048	24992
745	6.488474	111120384	79835136	41428168	24992
746	7.484599	111120384	79835136	46231880	24992
747	9.082998	111120384	79835136	51839592	24992
748	13.032808	111120384	79835136	41971144	24992
749	11.462763	111120384	79835136	49220184	24992
750	16.230323	111120384	79835136	41395632	24992
751	14.280329	111120384	79835136	50232568	24992
752	18.897523	111120384	79835136	43867744	24992
753	20.811146	111120384	79835136	39479912	24992
754	18.109199	111120384	79835136	50747408	24992
755	22.511241	111120384	79835136	46658848	24992
756	23.942222	111120384	79835136	44167304	24992
757	26.138425	111120384	79835136	42975656	24992
758	27.809735	111120384	79835136	42790592	24992
759	28.398119	111120384	79835136	43433976	24992
760	30.798431	111120384	79835136	44805776	24992
761	31.423597	111120384	79835136	46788288	24992
762	2.641488	111120384	79835136	50054344	24992
763	3.948593	111120384	79835136	52510648	24992
764	8.254822	111120384	79835136	39507520	24992
765	6.606212	111120384	79835136	43623952	24992
766	7.780284	111120384	79835136	48557728	24992
767	12.425076	111120384	79835136	38667136	24992
768	10.600829	111120384	79835136	45237608	24992
769	11.89913	111120384	79835136	52631440	24992
770	16.139969	111120384	79835136	44477128	24992
771	18.30074	111120384	79835136	38680352	24992
772	16.588856	111120384	79835136	48577520	24992
773	21.070424	111120384	79835136	43655352	24992
774	22.677896	111120384	79835136	40518368	24992
775	20.410416	111120384	79835136	52912784	24992
776	24.365442	111120384	79835136	49713888	24992
777	26.626178	111120384	79835136	47908808	24992
778	27.94139	111120384	79835136	47247240	24992
779	29.583382	111120384	79835136	47584000	24992
780	30.853349	111120384	79835136	48728312	24992
781	31.679745	111120384	79835136	50467360	24992
782	5.659681	111120384	79835136	37616632	24992
783	4.2572	111120384	79835136	40135416	24992
784	5.41305	111120384	79835136	43493680	24992
785	6.668909	111120384	79835136	47717312	24992
786	8.237588	111120384	79835136	52755176	24992
787	12.509845	111120384	79835136	42388280	24992
788	10.765959	111120384	79835136	49121640	24992
789	15.698286	111120384	79835136	41055144	24992
790	13.679838	111120384	79835136	49484288	24992
791	18.811734	111120384	79835136	43055232	24992
792	16.467362	111120384	79835136	53166160	24992
793	20.704706	111120384	79835136	47805544	24992
794	22.64867	111120384	79835136	44241040	24992
795	24.490788	111120384	79835136	42192384	24992
796	26.161276	111120384	79835136	41417528	24992
797	27.829512	111120384	79835136	41639424	24992
798	29.027034	111120384	79835136	42689744	24992
799	30.579744	111120384	79835136	44317992	24992
800	31.711522	111120384	79835136	46543112	24992
801	32.821871	111120384	79835136	49311528	24992
802	2.800756	111120384	79835136	53289472	24992
803	6.979178	111120384	79835136	39718112	24992
804	5.545284	111120384	79835136	43157176	24992
805	7.101213	111120384	79835136	47461528	24992
806	8.467485	111120384	79835136	52623616	24992
807	12.924813	111120384	79835136	42483976	24992
808	11.188268	111120384	79835136	49366936	24992
809	16.067627	111120384	79835136	41585176	24992
810	13.915785	111120384	79835136	50212320	24992
811	19.905912	111120384	79835136	44018080	24992
812	20.846668	111120384	79835136	39798840	24992
813	17.969143	111120384	79835136	51012600	24992
814	23.345189	111120384	79835136	47314088	24992
815	24.856198	111120384	79835136	45117976	24992
816	26.798854	111120384	79835136	44200584	24992
817	27.831637	111120384	79835136	44328792	24992
818	29.890756	111120384	79835136	45324928	24992
819	30.361433	111120384	79835136	47058424	24992
820	32.472671	111120384	79835136	49318408	24992
821	33.833665	111120384	79835136	52035696	24992
822	5.842263	111120384	79835136	39841008	24992
823	4.225168	111120384	79835136	42476056	24992
824	5.883917	111120384	79835136	45986760	24992
825	7.227195	111120384	79835136	50385056	24992
826	12.08835	111120384	79835136	39978240	24992
827	10.048126	111120384	79835136	46136120	24992
828	11.401755	111120384	79835136	53173320	24992
829	15.889582	111120384	79835136	44967680	24992
830	13.956874	111120384	79835136	53773408	24992
831	18.717744	111120384	79835136	47207128	24992
832	21.614632	111120384	79835136	42766512	24992
833	18.501042	111120384	79835136	54232088	24992
834	23.013725	111120384	79835136	50299168	24992
835	25.591545	111120384	79835136	47920592	24992
836	26.861797	111120384	79835136	46883888	24992
837	28.627567	111120384	79835136	46948216	24992
838	30.036609	111120384	79835136	47874328	24992
839	31.584165	111120384	79835136	49551328	24992
840	33.190523	111120384	79835136	51845568	24992
841	34.006754	111120384	79835136	54724088	24992
842	2.901224	111120384	79835136	45486384	24992
843	4.354426	111120384	79835136	48226152	24992
844	5.691502	111120384	79835136	51880704	24992
845	10.732256	111120384	79835136	40747304	24992
846	8.907016	111120384	79835136	46249632	24992
847	10.094417	111120384	79835136	52654664	24992
848	15.117518	111120384	79835136	44023952	24992
849	13.121036	111120384	79835136	52275032	24992
850	18.150602	111120384	79835136	45639016	24992
851	19.693493	111120384	79835136	41119960	24992
852	19.648245	111120384	79835136	52179784	24992
853	25.323324	111120384	79835136	48394952	24992
854	31.016707	111120384	79835136	46182512	24992
855	34.236952	108773376	78262272	23213240	24992
856	24.825175	109584384	78262272	22866584	24992
857	25.505278	109584384	78262272	23433696	24992
858	27.400684	109584384	78262272	24954424	24992
859	28.023518	109584384	78262272	27108808	24992
860	29.448463	109584384	78262272	29838272	24992
861	33.532495	109584384	78262272	19539816	24992
862	2.96878	109584384	78262272	26566408	24992
863	4.345438	109584384	78262272	29395624	24992
864	6.307398	109584384	78262272	17076888	24992
865	7.011569	109584384	78262272	21804696	24992
866	8.303777	109584384	78262272	27483176	24992
867	10.774973	109584384	78262272	18294176	24992
868	11.630666	109584384	78262272	25879432	24992
869	14.00921	109584384	78262272	18784992	24992
870	14.22384	109584384	78262272	28282952	24992
871	16.649776	109584384	78262272	22777584	24992
872	18.807515	109584384	78262272	19189560	24992
873	20.548871	109584384	78262272	17171752	24992
874	20.465566	109584384	78262272	30497512	24992
875	22.404721	109584384	78262272	28368584	24992
876	24.450208	109584384	78262272	27648336	24992
877	26.235776	109584384	78262272	27933248	24992
878	27.27787	109584384	78262272	29155992	24992
879	31.673217	109584384	78262272	17858784	24992
880	33.189506	109584384	78262272	25574720	24992
881	32.656872	109584384	78262272	30683384	24992
882	2.932049	109584384	78262272	23925672	24992
883	4.423621	109584384	78262272	26821336	24992
884	5.929823	109584384	78262272	30673232	24992
885	10.209206	109584384	78262272	22587224	24992
886	8.918013	109584384	78262272	28378224	24992
887	10.243643	109584384	78262272	35131960	24992
888	12.877249	109584384	78262272	26973144	24992
889	13.250507	109584384	78262272	35663952	24992
890	15.557892	109584384	78262272	29227760	24992
891	17.974979	109584384	78262272	24953808	24992
892	17.758908	109584384	78262272	36559016	24992
893	19.846585	109584384	78262272	32867224	24992
894	22.378444	109584384	78262272	30883888	24992
895	24.235116	109584384	78262272	30170016	24992
896	25.597797	109584384	78262272	30606400	24992
897	27.179502	109584384	78262272	32007360	24992
898	27.955786	109584384	78262272	34106016	24992
899	29.431816	109584384	78262272	36796408	24992
900	32.730093	109584384	78262272	26556056	24992
901	32.880774	109584384	78262272	32585296	24992
902	3.59206	109584384	78262272	23516584	24992
903	4.429082	109584384	78262272	26462680	24992
904	6.315194	109584384	78262272	30440616	24992
905	7.499942	109584384	78262272	35402584	24992
906	10.158397	109584384	78262272	25368048	24992
907	10.452578	109584384	78262272	32266496	24992
908	13.127563	109584384	78262272	24824688	24992
909	13.161383	109584384	78262272	33730936	24992
910	16.538147	109584384	78262272	28014720	24992
911	17.916849	109584384	78262272	24323488	24992
912	18.618903	109584384	78262272	36245528	24992
913	20.786832	109584384	78262272	33002648	24992
914	22.666863	109584384	78262272	31443344	24992
915	24.286615	109584384	78262272	31074888	24992
916	26.394106	109584384	78262272	31848816	24992
917	27.584123	109584384	78262272	33493360	24992
918	28.624661	109584384	78262272	35766280	24992
919	33.209273	109584384	78262272	25566320	24992
920	35.62015	109584384	78262272	34117576	24992
921	33.878845	109584384	78262272	39948560	24992
922	3.057439	109584384	78262272	33580960	24992
923	4.598627	109584384	78262272	36585616	24992
924	6.223839	109584384	78262272	40610264	24992
925	11.058158	109584384	78262272	32754960	24992
926	9.216769	109584384	78262272	38787400	24992
927	11.992593	109584384	78262272	30992776	24992
928	12.494779	109584384	78262272	39027440	24992
929	15.561598	109584384	78262272	32850776	24992
930	15.449014	109584384	78262272	42909056	24992
931	17.978152	109584384	78262272	38076368	24992
932	20.068168	109584384	78262272	35109056	24992
933	22.120377	109584384	78262272	33722248	24992
934	24.18597	109584384	78262272	33513976	24992
935	25.373229	109584384	78262272	34369712	24992
936	26.628568	109584384	78262272	36131896	24992
937	29.012968	109584384	78262272	38631344	24992
938	30.485833	109584384	78262272	41595416	24992
939	31.009288	109584384	78262272	45238624	24992
940	35.261002	109584384	78262272	35723768	24992
941	34.434794	109584384	78262272	42341032	24992
942	3.125441	109584384	78262272	37046680	24992
943	4.71125	109584384	78262272	40109840	24992
944	6.189275	109584384	78262272	44195560	24992
945	11.112272	109584384	78262272	36340952	24992
946	9.341211	109584384	78262272	42477776	24992
947	12.204351	109584384	78262272	34665240	24992
948	12.487978	109584384	78262272	42956816	24992
949	15.650561	109584384	78262272	37008408	24992
950	15.580149	109584384	78262272	47252008	24992
951	18.753256	109584384	78262272	42624448	24992
952	21.068512	109584384	78262272	39747864	24992
953	21.934477	109584384	78262272	38671712	24992
954	23.827884	109584384	78262272	38565504	24992
955	25.425483	109584384	78262272	39531432	24992
956	27.756037	109584384	78262272	41364800	24992
957	29.079921	109584384	78262272	44235064	24992
958	31.464606	109584384	78262272	47408912	24992
959	33.988936	109584384	78262272	37860952	24992
960	37.295756	109584384	78262272	47267808	24992
961	38.890426	109584384	78262272	41228440	24992
962	3.762163	109584384	78262272	53683000	24992
963	5.294794	109584384	78262272	56811784	24992
964	8.561286	109584384	78262272	44876944	24992
965	8.861452	109584384	78262272	50123984	24992
966	10.711577	109584384	78262272	56375632	24992
967	15.54056	109584384	78262272	47397440	24992
968	24.657667	109584384	78262272	15650088	24992
969	16.406505	109584384	78262272	25060368	24992
970	17.487639	109584384	78262272	19812312	24992
971	19.259226	109584384	78262272	16491000	24992
972	19.355934	109584384	78262272	29028368	24992
973	21.389194	109584384	78262272	26141600	24992
974	23.921569	109584384	78262272	24861680	24992
975	25.414717	109584384	78262272	24822024	24992
976	27.121166	109584384	78262272	25869624	24992
977	28.765701	109584384	78262272	27771512	24992
978	32.664249	109584384	78262272	17092704	24992
979	35.706844	110125056	78786560	25760672	24992
980	34.19662	110125056	78786560	31655088	24992
981	37.723895	110125056	78786560	24074736	24992
982	3.860755	110125056	78786560	17506736	24992
983	4.89026	110125056	78786560	20686952	24992
984	6.737394	110125056	78786560	24928736	24992
985	8.149365	110125056	78786560	30233112	24992
986	10.636928	110125056	78786560	20688536	24992
987	11.904492	110125056	78786560	28121712	24992
988	14.170664	110125056	78786560	21095112	24992
989	14.874238	110125056	78786560	30660280	24992
990	17.176331	110125056	78786560	25252832	24992
991	19.602451	110125056	78786560	21897736	24992
992	21.031	110125056	78786560	20294680	24992
993	23.161834	110125056	78786560	19969768	24992
994	24.769655	110125056	78786560	20799752	24992
995	26.215711	110125056	78786560	22623768	24992
996	28.478956	110125056	78786560	25092072	24992
997	30.578078	110125056	78786560	28248288	24992
998	31.653341	110125056	78786560	31910880	24992
999	34.519719	110125056	78786560	22707280	24992
1000	35.134902	110125056	78786560	29480904	24992
