x	Duration	RSS	HeapTotal	HeapUsed	External
0	NA	110682112	80359424	30732808	24992
1	0.370824	110682112	80359424	30780528	24992
2	0.400207	110682112	80359424	30856824	24992
3	0.474456	110682112	80359424	30960112	24992
4	0.570297	110682112	80359424	31091896	24992
5	0.685273	110682112	80359424	31253672	24992
6	0.784786	110682112	80359424	31445944	24992
7	0.893004	110682112	80359424	31669584	24992
8	1.05678	110682112	80359424	31925688	24992
9	1.165113	110682112	80359424	32216072	24992
10	1.28392	110682112	80359424	32541480	24992
11	1.434515	110682112	80359424	32902712	24992
12	1.601027	110682112	80359424	33300840	24992
13	1.739328	110682112	80359424	33736800	24992
14	1.084031	110682112	80359424	34211640	24992
15	1.152216	110682112	80359424	18319104	24992
16	0.838397	110682112	80359424	18874512	24992
17	0.892096	110682112	80359424	19473560	24992
18	1.178393	110682112	80359424	20115352	24992
19	1.014019	110682112	80359424	20802400	24992
20	1.087157	110682112	80359424	21533712	24992
21	1.373303	110682112	80359424	22311032	24992
22	0.170745	110682112	80359424	23106400	24992
23	0.249675	110682112	80359424	23248648	24992
24	0.321961	110682112	80359424	23440872	24992
25	0.395938	110682112	80359424	23684104	24992
26	0.470867	110682112	80359424	23980000	24992
27	0.910437	110682112	80359424	24328696	24992
28	0.631063	110682112	80359424	24731312	24992
29	0.72352	110682112	80359424	25188840	24992
30	0.793109	110682112	80359424	25703208	24992
31	0.866766	110682112	80359424	26274440	24992
32	1.002997	110682112	80359424	26903760	24992
33	1.616042	110682112	80359424	27591656	24992
34	1.212341	110682112	80359424	28339312	24992
35	1.348491	110682112	80359424	29151512	24992
36	1.339562	110682112	80359424	30021712	24992
37	1.957658	110682112	80359424	30954624	24992
38	1.530898	110682112	80359424	31955408	24992
39	1.597235	110682112	80359424	33018488	24992
40	1.916171	110682112	80359424	34147720	24992
41	2.990683	110682112	80359424	19105936	24992
42	0.231711	110682112	80359424	20369168	24992
43	0.341992	110682112	80359424	20573216	24992
44	0.442011	110682112	80359424	20846712	24992
45	0.605329	110682112	80359424	21192096	24992
46	0.65419	110682112	80359424	21609440	24992
47	0.765369	110682112	80359424	22099952	24992
48	0.868021	110682112	80359424	22664560	24992
49	0.977771	110682112	80359424	23304456	24992
50	1.312292	110682112	80359424	24023336	24992
51	1.201758	110682112	80359424	24821304	24992
52	1.339626	110682112	80359424	25699368	24992
53	1.645941	110682112	80359424	26658504	24992
54	1.549964	110682112	80359424	27699744	24992
55	1.898517	110682112	80359424	28823992	24992
56	1.790978	110682112	80359424	30032416	24992
57	1.929695	110682112	80359424	31325784	24992
58	2.496585	110682112	80359424	32706984	24992
59	2.412416	110682112	80359424	34175152	24992
60	3.503725	110682112	80359424	19565472	24992
61	2.75973	110682112	80359424	21210992	24992
62	0.289537	110682112	80359424	22969848	24992
63	0.437478	110682112	80359424	23240664	24992
64	0.569564	110682112	80359424	23603288	24992
65	0.695673	110682112	80359424	24059352	24992
66	0.828798	110682112	80359424	24609128	24992
67	0.965544	110682112	80359424	25253576	24992
68	1.10382	110682112	80359424	25993792	24992
69	1.489117	110682112	80359424	26830672	24992
70	1.603604	110682112	80359424	27766208	24992
71	1.540764	110682112	80359424	28800448	24992
72	1.675757	110682112	80359424	29934200	24992
73	1.829611	110682112	80359424	31168648	24992
74	1.975094	110682112	80359424	32504600	24992
75	2.136447	110682112	80359424	33943160	24992
76	3.04375	110682112	80359424	19336904	24992
77	2.439003	110682112	80359424	20983408	24992
78	2.666372	110682112	80359424	22737216	24992
79	2.739462	110682112	80359424	24598008	24992
80	3.126437	110682112	80359424	26566312	24992
81	3.12768	110682112	80359424	28643912	24992
82	0.350217	110682112	80359424	30878272	24992
83	0.519707	110682112	80359424	31207520	24992
84	0.679357	110682112	80359424	31650360	24992
85	0.847693	110682112	80359424	32205544	24992
86	1.235725	110682112	80359424	32875728	24992
87	1.187321	110682112	80359424	33661184	24992
88	1.351654	110682112	80359424	34563632	24992
89	2.196587	110682112	80359424	19352080	24992
90	1.7026	110682112	80359424	20490592	24992
91	1.878692	110682112	80359424	21748408	24992
92	2.042502	110682112	80359424	23126400	24992
93	2.344889	110682112	80359424	24625528	24992
94	2.406434	110682112	80359424	26249352	24992
95	2.747198	110682112	80359424	27995288	24992
96	2.820941	110682112	80359424	29864168	24992
97	3.197993	110682112	80359424	31858000	24992
98	3.150027	110682112	80359424	33980232	24992
99	4.047197	110682112	80359424	20090128	24992
100	3.708729	110682112	80359424	22467424	24992
101	3.770858	110682112	80359424	24973816	24992
102	0.417626	110682112	80359424	27693624	24992
103	0.616814	110682112	80359424	28097272	24992
104	0.804165	110682112	80359424	28640768	24992
105	1.003192	110682112	80359424	29317696	24992
106	1.219836	110682112	80359424	30133192	24992
107	1.417508	110682112	80359424	31087752	24992
108	1.605149	110682112	80359424	32182208	24992
109	1.811661	110682112	80359424	33417728	24992
110	2.008534	110682112	80359424	34796832	24992
111	2.819831	110682112	80359424	20069848	24992
112	2.676186	110682112	80359424	21735120	24992
113	2.64683	110682112	80359424	23545344	24992
114	2.867618	110682112	80359424	25501360	24992
115	3.14008	110682112	80359424	27604296	24992
116	3.501201	110682112	80359424	29855072	24992
117	3.505669	110682112	80359424	32254664	24992
118	3.710284	110682112	80359424	34806816	24992
119	4.533504	110682112	80359424	21257120	24992
120	4.168073	110682112	80359424	24111072	24992
121	4.720088	110682112	80359424	27117664	24992
122	0.478691	110682112	80359424	30377464	24992
123	0.705872	110682112	80359424	30840048	24992
124	0.93758	110682112	80359424	31457816	24992
125	1.162914	110682112	80359424	32232184	24992
126	1.387208	110682112	80359424	33164656	24992
127	1.678962	110682112	80359424	34260560	24992
128	1.852235	110682112	80359424	35511136	24992
129	2.791771	110682112	80359424	20588048	24992
130	2.557168	110682112	80359424	22161544	24992
131	2.560648	110682112	80359424	23897408	24992
132	2.809948	110682112	80359424	25796656	24992
133	3.064256	110682112	80359424	27861504	24992
134	3.407951	110682112	80359424	30090520	24992
135	3.565784	110682112	80359424	32485944	24992
136	3.779048	110682112	80359424	35048672	24992
137	5.442714	110682112	80359424	21517504	24992
138	4.342055	110682112	80359424	24428704	24992
139	4.751526	110682112	80359424	27505664	24992
140	4.834156	110682112	80359424	30749984	24992
141	5.518417	110682112	80359424	34166200	24992
142	0.544886	110682112	80359424	21844288	24992
143	0.854945	110682112	80359424	22370512	24992
144	1.060345	110682112	80359424	23073600	24992
145	1.315393	110682112	80359424	23955176	24992
146	1.813317	110682112	80359424	25019928	24992
147	1.832951	110682112	80359424	26260272	24992
148	2.159008	110682112	80359424	27681456	24992
149	2.384722	110682112	80359424	29284480	24992
150	2.646321	110682112	80359424	31071328	24992
151	3.125768	110682112	80359424	33041872	24992
152	3.192029	110682112	80359424	35197168	24992
153	4.154657	110682112	80359424	21472048	24992
154	3.737519	110682112	80359424	23999800	24992
155	4.02379	110682112	80359424	26718456	24992
156	4.287307	110682112	80359424	29622568	24992
157	4.921339	110682112	80359424	32721120	24992
158	4.846763	110682112	80359424	36007696	24992
159	6.166711	110682112	80359424	23284552	24992
160	5.429651	110682112	80359424	26956760	24992
161	5.780038	110682112	80359424	30822848	24992
162	0.598123	110682112	80359424	35025248	24992
163	0.893298	110682112	80359424	35609976	24992
164	1.184125	110682112	80359424	36391064	24992
165	2.092391	110682112	80359424	21163584	24992
166	1.987839	110682112	80359424	22344672	24992
167	2.056944	110682112	80359424	23723128	24992
168	2.360939	110682112	80359424	25301016	24992
169	2.645564	110682112	80359424	27079584	24992
170	3.015753	110682112	80359424	29061416	24992
171	3.518582	110682112	80359424	31246544	24992
172	3.563596	110682112	80359424	33637432	24992
173	3.852658	110682112	80359424	36233896	24992
174	4.844427	110682112	80359424	22853112	24992
175	4.475949	110682112	80359424	25860992	24992
176	5.003557	110682112	80359424	29082832	24992
177	5.104111	110682112	80359424	32513256	24992
178	5.413016	110682112	80359424	36153960	24992
179	6.830161	110682112	80359424	23839120	24992
180	6.056575	110682112	80359424	27908408	24992
181	6.38921	110682112	80359424	32182088	24992
182	0.660995	110682112	80359424	36841968	24992
183	1.702004	110682112	80359424	21287544	24992
184	1.341316	110682112	80359424	22146624	24992
185	1.627508	110682112	80359424	23225128	24992
186	1.96284	110682112	80359424	24519624	24992
187	2.283159	110682112	80359424	26033048	24992
188	2.873833	110682112	80359424	27769008	24992
189	2.94067	110682112	80359424	29723072	24992
190	3.582524	110682112	80359424	31901424	24992
191	4.01473	110682112	80359424	34301144	24992
192	3.922894	110682112	80359424	36924496	24992
193	5.244063	110682112	80359424	23547576	24992
194	4.952849	110682112	80359424	26621792	24992
195	5.061736	110682112	80359424	29926328	24992
196	5.670215	110682112	80359424	33454528	24992
197	5.648897	110682112	80359424	37211392	24992
198	7.172765	110682112	80359424	24935456	24992
199	6.342117	110682112	80359424	29154144	24992
200	6.853719	110682112	80359424	33604912	24992
201	8.223731	110682112	80359424	22651072	24992
202	0.776428	110682112	80359424	27769312	24992
203	1.075947	110682112	80359424	28471048	24992
204	1.417509	110682112	80359424	29408152	24992
205	1.994249	110682112	80359424	30587672	24992
206	2.129892	110682112	80359424	31999168	24992
207	2.545431	110682112	80359424	33657360	24992
208	2.870227	110682112	80359424	35570352	24992
209	3.600743	110682112	80359424	37724680	24992
210	4.404661	110682112	80359424	23846848	24992
211	4.069325	110682112	80359424	26502840	24992
212	4.583159	110682112	80359424	29409704	24992
213	4.954242	110682112	80359424	32574304	24992
214	5.53918	110682112	80359424	35988928	24992
215	6.453959	110682112	80359424	23691120	24992
216	6.293556	110682112	80359424	27613808	24992
217	6.366398	110682112	80359424	31792936	24992
218	7.152285	110682112	80359424	36237064	24992
219	8.334991	110682112	80359424	24894192	24992
220	7.793765	110682112	80359424	29851328	24992
221	8.330836	110682112	80359424	35069032	24992
222	0.840041	110682112	80359424	24966024	24992
223	1.244774	110682112	80359424	25750992	24992
224	1.655676	110682112	80359424	26799112	24992
225	2.044944	110682112	80359424	28111504	24992
226	2.47739	110682112	80359424	29689480	24992
227	3.061219	110682112	80359424	31534792	24992
228	3.270009	110682112	80359424	33653536	24992
229	3.886995	110682112	80359424	36038784	24992
230	5.409293	110682112	80359424	22772088	24992
231	4.52899	110682112	80359424	25700584	24992
232	4.940961	110682112	80359424	28906232	24992
233	5.595542	110682112	80359424	32383256	24992
234	5.947883	110682112	80359424	36142392	24992
235	7.368314	110682112	80359424	24232264	24992
236	6.844063	110682112	80359424	28539592	24992
237	7.009314	110682112	80359424	33136872	24992
238	7.994521	110682112	80359424	38006872	24992
239	9.053277	110682112	80359424	26894664	24992
240	8.594492	110682112	80359424	32325272	24992
241	9.006631	110682112	80359424	38038464	24992
242	0.899695	110682112	80359424	28044832	24992
243	1.336097	110682112	80359424	28896848	24992
244	1.774993	110682112	80359424	30034504	24992
245	2.211635	110682112	80359424	31458672	24992
246	2.854387	110682112	80359424	33176752	24992
247	3.068487	110682112	80359424	35177784	24992
248	3.565455	110682112	80359424	37468232	24992
249	5.00257	110682112	80359424	23964496	24992
250	4.448195	110682112	80359424	26837640	24992
251	4.892416	110682112	80359424	30011360	24992
252	5.544053	110682112	80359424	33470896	24992
253	5.818629	110682112	80359424	37230304	24992
254	7.395836	110682112	80359424	25213208	24992
255	6.742834	110682112	80359424	29558416	24992
256	7.116782	110682112	80359424	34201744	24992
257	9.147602	110682112	80359424	23592880	24992
258	8.204592	110682112	80359424	28842288	24992
259	8.579567	110682112	80359424	34384232	24992
260	10.674607	110682112	80359424	24675024	24992
261	9.634723	110682112	80359424	30824544	24992
262	0.956754	110682112	80359424	37549712	24992
263	1.427718	110682112	80359424	38460304	24992
264	2.876879	110682112	80359424	23513672	24992
265	2.400485	110682112	80359424	25044768	24992
266	2.817939	110682112	80359424	26874000	24992
267	3.333677	110682112	80359424	29011328	24992
268	3.816358	110682112	80359424	31457592	24992
269	4.453134	110682112	80359424	34214312	24992
270	4.790985	110682112	80359424	37282496	24992
271	6.579079	110682112	80359424	24703624	24992
272	5.759627	110682112	80359424	28396536	24992
273	6.243451	110682112	80359424	32403616	24992
274	6.728064	110682112	80359424	36732304	24992
275	8.6614	110682112	80359424	25488544	24992
276	7.928711	110682112	80359424	30443896	24992
277	8.182729	110682112	80359424	35716112	24992
278	10.427135	110682112	80359424	25618560	24992
279	9.299272	110682112	80359424	31531272	24992
280	10.052075	110682112	80359424	37772280	24992
281	11.512678	110682112	80359424	28279744	24992
282	1.022125	110682112	80359424	35453448	24992
283	1.529236	110682112	80359424	36422616	24992
284	2.028496	110682112	80359424	37716304	24992
285	2.545428	110682112	80359424	39335544	24992
286	4.206814	110682112	80359424	25074264	24992
287	3.562169	110682112	80359424	27357304	24992
288	4.069512	110682112	80359424	29959584	24992
289	4.700517	110682112	80359424	32891328	24992
290	4.994808	110682112	80359424	36155608	24992
291	5.76443	110682112	80359424	39762232	24992
292	6.836527	110682112	80359424	27382000	24992
293	6.662249	110682112	80359424	31648288	24992
294	7.179016	110682112	80359424	36243208	24992
295	9.328051	110682112	80359424	25464304	24992
296	8.341372	110682112	80359424	30744816	24992
297	8.57001	110682112	80359424	36349984	24992
298	10.577534	110682112	80359424	26581616	24992
299	10.021188	110682112	80359424	32866240	24992
300	10.385376	110682112	80359424	39489760	24992
301	12.026838	110682112	80359424	30212408	24992
302	1.082146	110682112	80359424	37843672	24992
303	1.6165	110682112	80359424	38871296	24992
304	2.136893	110682112	80359424	40243616	24992
305	3.946189	110682112	80359424	25673256	24992
306	3.231616	110682112	80359424	27736584	24992
307	3.763467	110682112	80359424	30146896	24992
308	4.447227	110682112	80359424	32905288	24992
309	4.906436	110682112	80359424	36012544	24992
310	5.556233	110682112	80359424	39470808	24992
311	7.096397	110682112	80359424	27124832	24992
312	6.46411	110682112	80359424	31287304	24992
313	7.046385	110682112	80359424	35802608	24992
314	9.301045	110682112	80359424	25108744	24992
315	8.369713	110682112	80359424	30331992	24992
316	8.70368	110682112	80359424	35910312	24992
317	11.256076	110682112	80359424	26277824	24992
318	9.754182	110682112	80359424	32574240	24992
319	10.555032	110682112	80359424	39239008	24992
320	12.209231	110682112	80359424	30122832	24992
321	11.662534	110682112	80359424	37498112	24992
322	1.165504	110682112	80359424	29782544	24992
323	1.732691	110682112	80359424	30868616	24992
324	2.242488	110682112	80359424	32318248	24992
325	2.860458	110682112	80359424	34132488	24992
326	3.432282	110682112	80359424	36312832	24992
327	4.180628	110682112	80359424	38859672	24992
328	5.888199	110682112	80359424	25802728	24992
329	5.320795	110682112	80359424	29093064	24992
330	5.591582	110682112	80359424	32746440	24992
331	6.274919	110682112	80359424	36772512	24992
332	8.421018	110682112	80359424	25529544	24992
333	7.698023	110682112	80359424	30297032	24992
334	8.182738	110682112	80359424	35437968	24992
335	8.586458	110682112	80359424	40955096	24992
336	10.341887	110682112	80359424	30495696	24992
337	9.919083	110682112	80359424	36763752	24992
338	12.062039	110682112	80359424	27811872	24992
339	11.044565	110682112	80359424	34837968	24992
340	13.423062	110682112	80359424	26985872	24992
341	12.443157	110682112	80359424	34771776	24992
342	1.227988	110682112	80359424	28095272	24992
343	2.015354	110682112	80359424	29239912	24992
344	2.374203	110682112	80359424	30767712	24992
345	3.008932	110682112	80359424	32679512	24992
346	3.61511	110682112	80359424	34976880	24992
347	4.231027	110682112	80359424	37671552	24992
348	4.865365	110682112	80359424	40741872	24992
349	6.824764	110682112	80359424	28013368	24992
350	6.060547	110682112	80359424	31862328	24992
351	6.844676	110682112	80359424	36100664	24992
352	7.222458	110682112	80359424	40729760	24992
353	9.186603	110682112	80359424	29520432	24992
354	8.569965	110682112	80359424	34934704	24992
355	9.06187	110682112	80359424	40747160	24992
356	11.079505	110682112	80359424	30724312	24992
357	10.311969	110682112	80359424	37323856	24992
358	12.925002	110682112	80359424	28734488	24992
359	11.82887	110682112	80359424	36129064	24992
360	14.186575	110682112	80359424	28547632	24992
361	12.811611	110682112	80359424	36749912	24992
362	1.230312	110682112	80359424	30283336	24992
363	1.867756	110682112	80359424	31500120	24992
364	2.549211	110682112	80359424	33123576	24992
365	3.163939	110682112	80359424	35155016	24992
366	3.903071	110682112	80359424	37595992	24992
367	4.650768	110682112	80359424	40447008	24992
368	6.445603	110682112	80359424	27649920	24992
369	6.145444	110682112	80359424	31323888	24992
370	6.366429	110682112	80359424	35412576	24992
371	7.878431	110682112	80359424	39926104	24992
372	9.328688	110682112	80359424	28896816	24992
373	8.410233	110682112	80359424	34237952	24992
374	8.924451	110682112	80359424	39992776	24992
375	11.207042	110682112	80359424	30186848	24992
376	10.183837	110682112	80359424	36776176	24992
377	13.033417	110682112	80359424	28353992	24992
378	11.621139	110682112	80359424	35793096	24992
379	14.371639	110682112	80359424	28404768	24992
380	13.022424	110682112	80359424	36681560	24992
381	15.710692	110682112	80359424	29979400	24992
382	1.340504	110682112	80359424	39526000	24992
383	2.004011	110682112	80359424	40807384	24992
384	2.673683	110682112	80359424	42508856	24992
385	4.714907	110682112	80359424	28309528	24992
386	3.994338	110682112	80359424	30875064	24992
387	4.681474	110682112	80359424	33869248	24992
388	5.364231	110682112	80359424	37290592	24992
389	5.96219	110682112	80359424	41140136	24992
390	8.208114	110682112	80359424	29387128	24992
391	7.56194	110682112	80359424	34117656	24992
392	8.015202	110682112	80359424	39284528	24992
393	10.414532	110682112	80359424	29088176	24992
394	9.819902	110682112	80359424	35110560	24992
395	10.201362	110682112	80359424	41571272	24992
396	12.361278	110682112	80359424	32296568	24992
397	11.469887	110682112	80359424	39643336	24992
398	13.927695	110682112	80359424	31622792	24992
399	13.109623	110682112	80359424	39845704	24992
400	15.559332	110682112	80359424	32634968	24992
401	14.501801	110682112	80359424	41744824	24992
402	1.415199	110682112	80359424	35557448	24992
403	2.103594	110682112	80359424	36890832	24992
404	2.785192	110682112	80359424	38673704	24992
405	3.482421	110682112	80359424	40907544	24992
406	5.93803	110682112	80359424	27626488	24992
407	5.031998	110682112	80359424	30750872	24992
408	5.589032	110682112	80359424	34340080	24992
409	6.397714	110682112	80359424	38388096	24992
410	6.896918	110682112	80359424	42869704	24992
411	9.117207	110682112	80359424	31486832	24992
412	9.101957	110682112	80359424	36880600	24992
413	9.31433	110682112	80359424	42720568	24992
414	11.020585	110682112	80359424	32732504	24992
415	10.551993	110682112	80359424	39486864	24992
416	13.046431	110682112	80359424	30977120	24992
417	12.375736	110682112	80359424	38663016	24992
418	14.70061	110682112	80359424	31254456	24992
419	13.751658	110682112	80359424	39895896	24992
420	16.232574	110682112	80359424	33235224	24992
421	15.166586	110682112	80359424	42837608	24992
422	1.479436	110682112	80359424	37168784	24992
423	2.203078	110682112	80359424	38610208	24992
424	2.950928	110682112	80359424	40549392	24992
425	3.666955	110682112	80359424	42958672	24992
426	5.721185	110682112	80359424	29682840	24992
427	5.200101	110682112	80359424	33058616	24992
428	5.846863	110682112	80359424	36933288	24992
429	6.774933	110682112	80359424	41281848	24992
430	8.986083	110682112	80359424	30139456	24992
431	7.984423	110682112	80359424	35480912	24992
432	8.945008	110682112	80359424	41298736	24992
433	11.658207	110682112	80359424	31626192	24992
434	10.258065	110682112	80359424	38439040	24992
435	13.051082	110682112	80359424	30275384	24992
436	12.116236	110682112	80359424	38080360	24992
437	14.639625	110682112	80359424	30979000	24992
438	13.556209	110682112	80359424	39758616	24992
439	16.113108	110682112	80359424	33357872	24992
440	14.847474	110682112	80359424	43142096	24992
441	17.166522	110682112	80359424	37201552	24992
442	1.552783	110682112	80359424	33300624	24992
443	2.334948	110682112	80359424	34800424	24992
444	2.963952	110682112	80359424	36801680	24992
445	3.924575	110682112	80359424	39305584	24992
446	4.58538	110682112	80359424	42313480	24992
447	7.005045	110682112	80359424	29797736	24992
448	6.104756	110682112	80359424	33825616	24992
449	7.052435	110682112	80359424	38349720	24992
450	7.567234	110682112	80359424	43382128	24992
451	10.142699	110682112	80359424	32683784	24992
452	9.38885	110682112	80359424	38740088	24992
453	12.063386	110682112	80359424	29926872	24992
454	10.920687	110682112	80359424	37024288	24992
455	13.848799	110682112	80359424	29460736	24992
456	12.349129	110682112	80359424	37581584	24992
457	15.7222	110682112	80359424	30982664	24992
458	14.142955	110682112	80359424	40121560	24992
459	16.780167	110682112	80359424	34111072	24992
460	15.582094	110682112	80359424	44279768	24992
461	17.710229	110682112	80359424	38621696	24992
462	1.773042	110682112	80359424	35008304	24992
463	2.374356	110682112	80359424	36570416	24992
464	3.180762	110682112	80359424	38649760	24992
465	3.965624	110682112	80359424	41251088	24992
466	4.680342	110682112	80359424	44375960	24992
467	7.085316	110682112	80359424	31756712	24992
468	6.522492	110682112	80359424	35930480	24992
469	7.488644	110682112	80359424	40630048	24992
470	9.666914	110682112	80359424	30258928	24992
471	8.825026	110682112	80359424	36014200	24992
472	9.720093	110682112	80359424	42408680	24992
473	12.161081	110682112	80359424	33240456	24992
474	11.232625	110682112	80359424	40585200	24992
475	14.127962	110682112	80359424	32831048	24992
476	13.067254	110682112	80359424	41240176	24992
477	16.180226	110682112	80359424	34489136	24992
478	14.608812	110682112	80359424	43968496	24992
479	16.994273	110682112	80359424	37751288	24992
480	19.206591	110682112	80359424	33255136	24992
481	17.069329	110682112	80359424	44344632	24992
482	1.819282	110682112	80359424	40410152	24992
483	2.359634	110682112	80359424	42027040	24992
484	3.270868	110682112	80359424	44184448	24992
485	6.072375	110682112	80359424	30770624	24992
486	4.97498	110682112	80359424	34012440	24992
487	5.965867	110682112	80359424	37820096	24992
488	6.627681	110682112	80359424	42149864	24992
489	9.602815	110682112	80359424	31199400	24992
490	8.303397	110682112	80359424	36621808	24992
491	9.231266	110682112	80359424	42601960	24992
492	11.971928	110682112	80359424	33269248	24992
493	10.865283	110682112	80359424	40336672	24992
494	13.917145	110682112	80359424	32440360	24992
495	12.496447	110682112	80359424	40622936	24992
496	15.10128	110682112	80359424	33789832	24992
497	14.337595	110682112	80359424	43064392	24992
498	17.044022	110682112	80359424	36932864	24992
499	18.534905	110682112	80359424	32461520	24992
500	17.09545	110682112	80359424	43429616	24992
501	19.615896	110682112	80359424	38919400	24992
502	1.744487	110682112	80359424	36353080	24992
503	2.572466	110682112	80359424	38028424	24992
504	3.346481	110682112	80359424	40263664	24992
505	4.445469	110682112	80359424	43060048	24992
506	7.312181	110682112	80359424	30602504	24992
507	5.983188	110682112	80359424	34524376	24992
508	7.023676	110682112	80359424	39013592	24992
509	7.731746	110682112	80359424	44076104	24992
510	10.708555	110682112	80359424	33648432	24992
511	9.5008	110682112	80359424	39832928	24992
512	12.751383	110682112	80359424	31301824	24992
513	11.402407	110682112	80359424	38632520	24992
514	14.294226	110682112	80359424	31440192	24992
515	13.179997	110682112	80359424	39904968	24992
516	16.417306	110682112	80359424	33633808	24992
517	14.79875	110682112	80359424	43262112	24992
518	18.011488	110682112	80359424	37527392	24992
519	18.810471	110682112	80359424	33428416	24992
520	17.539235	110682112	80359424	44778776	24992
521	21.14175	110682112	80359424	40564512	24992
522	1.809154	110682112	80359424	38288016	24992
523	2.679705	110682112	80359424	40021840	24992
524	3.572734	110682112	80359424	42335120	24992
525	4.351151	110682112	80359424	45231040	24992
526	7.328017	110682112	80359424	32611480	24992
527	6.54226	110682112	80359424	36685080	24992
528	7.318731	110682112	80359424	41337280	24992
529	8.140861	110682112	80359424	46577008	24992
530	10.706725	110682112	80359424	35979528	24992
531	9.757253	110682112	80359424	42391920	24992
532	13.015053	110682112	80359424	33742048	24992
533	11.694517	110682112	80359424	41328760	24992
534	15.306723	110682112	80359424	34084608	24992
535	13.424183	110682112	80359424	42861280	24992
536	16.747026	110682112	80359424	36474056	24992
537	15.480782	110682112	80359424	46415984	24992
538	17.95074	110682112	80359424	40639904	24992
539	19.877806	110682112	80359424	36450560	24992
540	21.049491	110682112	80359424	33588024	24992
541	18.879468	110682112	80359424	45921696	24992
542	1.855409	110682112	80359424	43253368	24992
543	2.762624	110682112	80359424	45046040	24992
544	5.614268	110682112	80359424	31502176	24992
545	4.589974	110682112	80359424	34496168	24992
546	5.691302	110682112	80359424	38095592	24992
547	6.330738	110682112	80359424	42293416	24992
548	7.41019	110682112	80359424	47092000	24992
549	9.877219	110682112	80359424	36083680	24992
550	9.254897	110682112	80359424	42091056	24992
551	12.564175	110682112	80359424	33203568	24992
552	11.223544	110682112	80359424	40430400	24992
553	14.753415	110682112	80359424	33075768	24992
554	13.119346	110682112	80359424	41519752	24992
555	16.175537	110682112	80359424	35180128	24992
556	15.051239	110682112	80359424	44865320	24992
557	18.021236	110682112	80359424	39165104	24992
558	19.734192	110682112	80359424	35109584	24992
559	17.791847	110682112	80359424	46668536	24992
560	20.625525	110682112	80359424	42516728	24992
561	22.520351	110682112	80359424	39726112	24992
562	1.945064	110682112	80359424	38693432	24992
563	2.857385	110682112	80359424	40565000	24992
564	3.863845	110682112	80359424	43061456	24992
565	4.819518	110682112	80359424	46184224	24992
566	7.870564	110682112	80359424	33902608	24992
567	6.728319	110682112	80359424	38296928	24992
568	7.868884	110682112	80359424	43315128	24992
569	10.868346	110682112	80359424	33312128	24992
570	9.607005	110682112	80359424	39585600	24992
571	10.316725	110682112	80359424	46501288	24992
572	13.49505	110682112	80359424	37853800	24992
573	12.513923	110682112	80359424	46052872	24992
574	15.741155	110682112	80359424	38771144	24992
575	16.813403	110682112	80359424	33397464	24992
576	15.591498	110682112	80359424	43483944	24992
577	18.773079	110682112	80359424	38565816	24992
578	20.318307	110682112	80359424	35166680	24992
579	18.169477	110682112	80359424	47190536	24992
580	21.770887	110682112	80359424	43525512	24992
581	23.860125	110682112	80359424	41211408	24992
582	1.925541	110682112	80359424	40623680	24992
583	2.949865	110682112	80359424	42553400	24992
584	4.096335	110682112	80359424	45127936	24992
585	7.691227	110682112	80359424	32543464	24992
586	6.233433	110682112	80359424	36426832	24992
587	6.795264	110682112	80359424	40943376	24992
588	7.942291	110682112	80359424	46111256	24992
589	11.051109	110682112	80359424	35949376	24992
590	10.118053	110682112	80359424	42430976	24992
591	13.577184	110682112	80359424	34254568	24992
592	11.647377	110682112	80359424	42037688	24992
593	15.449677	110682112	80359424	35172048	24992
594	14.118171	110682112	80359424	44284256	24992
595	17.470247	110682112	80359424	38363656	24992
596	19.023003	110682112	80359424	34109696	24992
597	17.075226	110682112	80359424	45177688	24992
598	20.620399	110682112	80359424	41047120	24992
599	22.030912	110682112	80359424	38329368	24992
600	22.790919	110682112	80359424	36726720	24992
601	24.897014	110682112	80359424	36145696	24992
602	1.949466	110682112	80359424	37017480	24992
603	2.906612	110682112	80359424	39005880	24992
604	4.064002	110682112	80359424	41662064	24992
605	5.135927	110682112	80359424	44989888	24992
606	8.573565	110682112	80359424	33336768	24992
607	7.455707	110682112	80359424	37988632	24992
608	8.284178	110682112	80359424	43311000	24992
609	11.585404	110682112	80359424	33897888	24992
610	10.360845	110682112	80359424	40583632	24992
611	10.912264	110682112	80359424	47946544	24992
612	14.18647	110682112	80359424	39754512	24992
613	13.397155	110682112	80359424	48431552	24992
614	16.042546	110682112	80359424	41496864	24992
615	18.358055	110682112	80359424	36462080	24992
616	16.486742	110682112	80359424	47182472	24992
617	20.074276	110682112	80359424	42479320	24992
618	21.186086	110682112	80359424	39307096	24992
619	22.718466	110682112	80359424	37391416	24992
620	24.264209	110682112	80359424	36502112	24992
621	24.919191	110682112	80359424	36469344	24992
622	2.123445	110682112	80359424	37911096	24992
623	3.153766	110682112	80359424	39958352	24992
624	4.382783	110682112	80359424	42689608	24992
625	5.229252	110682112	80359424	46122656	24992
626	8.694264	110682112	80359424	34501648	24992
627	7.287149	110682112	80359424	39299272	24992
628	8.398731	110682112	80359424	44776672	24992
629	11.774969	110682112	80359424	35360496	24992
630	10.589192	110682112	80359424	42227776	24992
631	14.031237	110682112	80359424	34688168	24992
632	12.688574	110682112	80359424	42934688	24992
633	16.530905	110682112	80359424	36665624	24992
634	14.900425	110682112	80359424	46298032	24992
635	18.435222	110682112	80359424	40806512	24992
636	19.716994	110682112	80359424	36972840	24992
637	17.996241	110682112	80359424	48709512	24992
638	20.873044	110682112	80359424	44909200	24992
639	23.198374	110682112	80359424	42463864	24992
640	24.596272	110682112	80359424	41164808	24992
641	25.503473	110682112	80359424	40855616	24992
642	2.174438	110682112	80359424	42089704	24992
643	3.28017	110682112	80359424	44196368	24992
644	4.320573	110682112	80359424	47004920	24992
645	7.625614	110682112	80359424	34809152	24992
646	6.656494	110682112	80359424	39029464	24992
647	7.548972	110682112	80359424	43969064	24992
648	8.718925	110682112	80359424	49601280	24992
649	11.754063	110682112	80359424	39626576	24992
650	11.01643	110682112	80359424	46677016	24992
651	14.30025	110682112	80359424	38636184	24992
652	12.979195	110682112	80359424	47108136	24992
653	16.84504	110682112	80359424	40510328	24992
654	18.300247	110682112	80359424	35713864	24992
655	16.445793	110682112	80359424	46324752	24992
656	20.029997	110682112	80359424	41984736	24992
657	21.480991	110682112	80359424	39124776	24992
658	22.923949	110682112	80359424	37453456	24992
659	24.705854	110682112	80359424	36873392	24992
660	25.944458	110682112	80359424	37100720	24992
661	26.84507	110682112	80359424	37985432	24992
662	2.511617	110682112	80359424	40187480	24992
663	3.240098	110682112	80359424	42351232	24992
664	4.450274	110682112	80359424	45237888	24992
665	5.820936	110682112	80359424	48848200	24992
666	8.979713	110682112	80359424	37227384	24992
667	7.804189	110682112	80359424	42293824	24992
668	9.037009	110682112	80359424	48099344	24992
669	12.345339	110682112	80359424	38708696	24992
670	11.189222	110682112	80359424	45954200	24992
671	15.066387	110682112	80359424	38393936	24992
672	13.633871	110682112	80359424	47123440	24992
673	17.299945	110682112	80359424	40789000	24992
674	18.962492	110682112	80359424	36327832	24992
675	17.047281	110682112	80359424	47243336	24992
676	20.869463	110682112	80359424	43103624	24992
677	22.398682	110682112	80359424	40462768	24992
678	24.381447	110682112	80359424	39068184	24992
679	25.296818	110682112	80359424	38673080	24992
680	25.967651	110682112	80359424	39040168	24992
681	27.184414	110682112	80359424	40162232	24992
682	2.258682	110682112	80359424	42542112	24992
683	3.441692	110682112	80359424	44764320	24992
684	4.681101	110682112	80359424	47730904	24992
685	8.09892	110682112	80359424	35773456	24992
686	7.089641	110682112	80359424	40230888	24992
687	7.743357	110682112	80359424	45429184	24992
688	9.638699	110682112	80359424	51384184	24992
689	13.003661	110682112	80359424	41632840	24992
690	11.72336	110682112	80359424	49073272	24992
691	15.213994	110682112	80359424	41231032	24992
692	14.018511	110682112	80359424	50177552	24992
693	17.310951	110682112	80359424	43708968	24992
694	19.271388	110682112	80359424	39158064	24992
695	17.482934	110682112	80359424	50372696	24992
696	20.64509	110682112	80359424	46124840	24992
697	22.480884	110682112	80359424	43360880	24992
698	23.933655	110682112	80359424	41843248	24992
699	25.477338	110682112	80359424	41367128	24992
700	26.399532	110682112	80359424	41783488	24992
701	27.664636	110682112	80359424	42906816	24992
702	2.587204	110682112	80359424	45364312	24992
703	3.534672	110682112	80359424	47645368	24992
704	4.782198	110682112	80359424	50702488	24992
705	8.069466	110682112	80359424	38462872	24992
706	7.262733	110682112	80359424	43050280	24992
707	8.228172	110682112	80359424	48395624	24992
708	12.088649	110682112	80359424	38735688	24992
709	10.783947	110682112	80359424	45620336	24992
710	14.633698	110682112	80359424	38043160	24992
711	13.080831	110682112	80359424	46474320	24992
712	17.085948	110682112	80359424	40263816	24992
713	15.37277	110682112	80359424	50223184	24992
714	19.029049	110682112	80359424	44862520	24992
715	20.802945	110682112	80359424	41283152	24992
716	22.567503	110682112	80359424	39082592	24992
717	20.406474	110682112	80359424	52153416	24992
718	23.024699	110682112	80359424	49558480	24992
719	25.367193	110682112	80359424	48253248	24992
720	26.668315	110682112	80359424	47915856	24992
721	28.081807	110682112	80359424	48470656	24992
722	2.43187	110682112	80359424	50489872	24992
723	5.989252	110682112	80359424	36893008	24992
724	4.819837	110682112	80359424	40013584	24992
725	6.37933	110682112	80359424	43916440	24992
726	7.193657	110682112	80359424	48653912	24992
727	11.22501	110682112	80359424	38402728	24992
728	9.695792	110682112	80359424	44659016	24992
729	11.041037	110682112	80359424	51775440	24992
730	14.035367	110682112	80359424	43319400	24992
731	13.295382	110682112	80359424	51938024	24992
732	16.712302	110682112	80359424	45048976	24992
733	19.0898	110682112	80359424	40200720	24992
734	17.236303	110682112	80359424	51193088	24992
735	21.075292	110682112	80359424	46810208	24992
736	22.76145	110682112	80359424	44089000	24992
737	23.937871	110682112	80359424	42557696	24992
738	25.379694	110682112	80359424	42096272	24992
739	27.03016	110682112	80359424	42583368	24992
740	28.289278	110682112	80359424	43723224	24992
741	29.146224	110682112	80359424	45526448	24992
742	2.4882	110682112	80359424	48685200	24992
743	3.704091	110682112	80359424	51082992	24992
744	7.843982	110682112	80359424	38373648	24992
745	6.214484	110682112	80359424	42380104	24992
746	7.448477	110682112	80359424	47183784	24992
747	8.804721	110682112	80359424	52791464	24992
748	12.30791	110682112	80359424	42922632	24992
749	11.252926	110682112	80359424	50171640	24992
750	15.076529	110682112	80359424	42345920	24992
751	13.8796	110682112	80359424	51183256	24992
752	17.683816	110682112	80359424	44818048	24992
753	19.21757	110682112	80359424	40429832	24992
754	17.481698	110682112	80359424	51697296	24992
755	20.665995	110682112	80359424	47608528	24992
756	22.83696	110682112	80359424	45116600	24992
757	24.328064	110682112	80359424	43924744	24992
758	25.644365	110682112	80359424	43739472	24992
759	27.489905	110682112	80359424	44382432	24992
760	29.011492	110682112	80359424	45754024	24992
761	30.328158	110682112	80359424	47713064	24992
762	2.556652	110682112	80359424	51005216	24992
763	3.809442	110682112	80359424	53461488	24992
764	7.316867	110682112	80359424	40458328	24992
765	6.272803	110682112	80359424	44574728	24992
766	7.450611	110682112	80359424	49508472	24992
767	11.664545	110682112	80359424	39617496	24992
768	10.005752	110682112	80359424	46187936	24992
769	11.668452	110682112	80359424	53581736	24992
770	15.373303	110682112	80359424	45426864	24992
771	17.479135	110682112	80359424	39629312	24992
772	15.525064	110682112	80359424	49526664	24992
773	19.707273	110682112	80359424	44604288	24992
774	21.454778	110682112	80359424	41466704	24992
775	19.369429	110682112	80359424	53861304	24992
776	22.544958	110682112	80359424	50662200	24992
777	24.69347	110682112	80359424	48856736	24992
778	26.347048	110682112	80359424	48194960	24992
779	28.094856	110682112	80359424	48531512	24992
780	29.17625	110682112	80359424	49675616	24992
781	31.058894	110682112	80359424	51414456	24992
782	5.050862	110682112	80359424	38563520	24992
783	3.884282	110682112	80359424	41078736	24992
784	5.41347	110682112	80359424	44436968	24992
785	6.480659	110682112	80359424	48660568	24992
786	7.927388	110682112	80359424	53698400	24992
787	11.773031	110682112	80359424	43288512	24992
788	10.651942	110682112	80359424	50039888	24992
789	14.903242	110682112	80359424	41982144	24992
790	13.562458	110682112	80359424	50401520	24992
791	17.255681	110682112	80359424	43996528	24992
792	15.797657	110682112	80359424	54107888	24992
793	19.485447	110682112	80359424	48746888	24992
794	21.600229	110682112	80359424	45182000	24992
795	22.987966	110682112	80359424	43133136	24992
796	25.813634	110682112	80359424	42358072	24992
797	27.118066	110682112	80359424	42579760	24992
798	27.338051	110682112	80359424	43629872	24992
799	29.640583	110682112	80359424	45257912	24992
800	30.069329	110682112	80359424	47482824	24992
801	31.645938	110682112	80359424	50251032	24992
802	2.603107	110682112	80359424	54228768	24992
803	6.408568	110952448	80359424	40657376	24992
804	5.224254	110952448	80359424	44096408	24992
805	6.696607	110952448	80359424	48400728	24992
806	7.951825	110952448	80359424	53562784	24992
807	12.447465	110952448	80359424	43422936	24992
808	11.570652	110952448	80359424	50305864	24992
809	16.9132	110952448	80359424	42523656	24992
810	14.775437	110952448	80359424	51150672	24992
811	22.3282	110952448	80359424	44951408	24992
812	28.823767	108822528	78262272	18383000	24992
813	17.487703	108822528	78262272	29607376	24992
814	19.382467	109363200	78262272	25262936	24992
815	21.450384	109363200	78262272	22521424	24992
816	22.442307	109363200	78262272	21240480	24992
817	24.563687	109363200	78262272	21079808	24992
818	26.23627	109363200	78262272	21792592	24992
819	26.760699	109363200	78262272	23199136	24992
820	28.948228	109363200	78262272	25295656	24992
821	29.711226	109363200	78262272	27862576	24992
822	2.73034	109363200	78262272	15369328	24992
823	4.073355	109363200	78262272	18001224	24992
824	5.410265	109363200	78262272	21532144	24992
825	6.765831	109363200	78262272	25922576	24992
826	9.061298	109363200	78262272	15503040	24992
827	9.634388	109363200	78262272	21656600	24992
828	10.950138	109363200	78262272	28693072	24992
829	12.987874	109363200	78262272	20450120	24992
830	13.798789	109363200	78262272	29256016	24992
831	14.706318	109363200	78262272	22660744	24992
832	17.466214	109363200	78262272	18190800	24992
833	17.743749	109363200	78262272	29656432	24992
834	19.623618	109363200	78262272	25647984	24992
835	21.836331	109363200	78262272	23260808	24992
836	23.783018	109363200	78262272	22208768	24992
837	25.464592	109363200	78262272	22225704	24992
838	26.746028	109363200	78262272	23135832	24992
839	27.407221	109363200	78262272	24799728	24992
840	29.44405	109363200	78262272	27049496	24992
841	30.677219	109363200	78262272	29874400	24992
842	2.756345	109363200	78262272	20610456	24992
843	4.196021	109363200	78262272	23361472	24992
844	5.763316	109363200	78262272	27015936	24992
845	7.87018	109363200	78262272	15910184	24992
846	8.706164	109363200	78262272	21433312	24992
847	9.604811	109363200	78262272	27876480	24992
848	12.142901	109363200	78262272	19213144	24992
849	12.587571	109363200	78262272	27456584	24992
850	15.097755	109363200	78262272	20748752	24992
851	17.112199	109363200	78262272	16177232	24992
852	17.062419	109363200	78262272	27244848	24992
853	19.359063	109363200	78262272	23416616	24992
854	21.19891	109363200	78262272	21156168	24992
855	22.971318	109363200	78262272	20218680	24992
856	24.43075	109363200	78262272	20393776	24992
857	25.759789	109363200	78262272	21482184	24992
858	26.949553	109363200	78262272	23340408	24992
859	28.551138	109363200	78262272	25829432	24992
860	29.086112	109363200	78262272	28718224	24992
861	33.989147	109363200	78262272	18868208	24992
862	2.859927	109363200	78262272	29037200	24992
863	4.28906	109363200	78262272	31868512	24992
864	6.666829	109363200	78262272	19840824	24992
865	7.403466	109363200	78262272	24561832	24992
866	8.507197	109363200	78262272	30239536	24992
867	10.979349	109363200	78262272	21059088	24992
868	11.488734	109363200	78262272	28629296	24992
869	13.880681	109363200	78262272	21670888	24992
870	14.379861	109363200	78262272	31141800	24992
871	16.694629	109363200	78262272	25607656	24992
872	18.492557	109363200	78262272	22054392	24992
873	20.452118	109363200	78262272	20084472	24992
874	20.069684	109363200	78262272	33385992	24992
875	21.774819	109363200	78262272	31340648	24992
876	23.993156	109363200	78262272	30596752	24992
877	25.377368	109363200	78262272	30992712	24992
878	27.189411	109363200	78262272	32221120	24992
879	28.250163	109363200	78262272	34182864	24992
880	32.479211	109363200	78262272	23321040	24992
881	32.228058	109363200	78262272	28931032	24992
882	3.217931	109363200	78262272	19301296	24992
883	4.238707	109363200	78262272	22189120	24992
884	5.740721	109363200	78262272	26042376	24992
885	7.087567	109363200	78262272	30859360	24992
886	9.304795	109363200	78262272	20846552	24992
887	10.267919	109363200	78262272	27612192	24992
888	12.652961	109363200	78262272	20122112	24992
889	13.612597	109363200	78262272	28835424	24992
890	15.913661	109363200	78262272	23075952	24992
891	16.278054	109363200	78262272	33717480	24992
892	18.045244	109363200	78262272	29016016	24992
893	20.566446	109363200	78262272	26150600	24992
894	22.311556	109363200	78262272	24766896	24992
895	24.152833	109363200	78262272	24576104	24992
896	25.766015	109363200	78262272	25481216	24992
897	29.147919	109363200	78262272	27191072	24992
898	28.206531	109363200	78262272	29533176	24992
899	29.184263	109363200	78262272	32427704	24992
900	32.898625	109363200	78262272	22550560	24992
901	36.083913	109363200	78262272	31678128	24992
902	3.360755	109363200	78262272	22900752	24992
903	4.465309	109363200	78262272	25846840	24992
904	5.814233	109363200	78262272	29784880	24992
905	7.416736	109363200	78262272	34728056	24992
906	10.197226	109363200	78262272	24839504	24992
907	10.496602	109363200	78262272	31741016	24992
908	13.062538	109363200	78262272	24365616	24992
909	13.61459	109363200	78262272	33236272	24992
910	15.899466	109363200	78262272	27477000	24992
911	18.028159	109363200	78262272	23789128	24992
912	17.558113	109363200	78262272	35628104	24992
913	20.415708	109363200	78262272	32539704	24992
914	22.540532	109363200	78262272	30939480	24992
915	24.056734	109363200	78262272	30709344	24992
916	25.764629	109363200	78262272	31471512	24992
917	26.697002	109363200	78262272	33053000	24992
918	28.675806	109363200	78262272	35362440	24992
919	29.984097	109363200	78262272	38281784	24992
920	33.177898	109363200	78262272	28138208	24992
921	34.313778	109363200	78262272	34377800	24992
922	3.020538	109363200	78262272	28553760	24992
923	4.562126	109363200	78262272	31562768	24992
924	6.031865	109363200	78262272	35570632	24992
925	10.514562	109363200	78262272	27697440	24992
926	8.994839	109363200	78262272	33714952	24992
927	10.644467	109363200	78262272	40754696	24992
928	12.91702	109363200	78262272	32649104	24992
929	13.858607	109363200	78262272	41718696	24992
930	15.335576	109363200	78262272	35366464	24992
931	17.912581	109363200	78262272	31202320	24992
932	20.002761	109363200	78262272	28745504	24992
933	20.525924	109363200	78262272	41835136	24992
934	21.838574	109363200	78262272	39487344	24992
935	24.24994	109363200	78262272	38662024	24992
936	26.031447	109363200	78262272	38990728	24992
937	26.676328	109363200	78262272	40220752	24992
938	31.114629	109363200	78262272	29026128	24992
939	33.390572	109363200	78262272	36998152	24992
940	32.303543	109363200	78262272	42197576	24992
941	36.359692	109363200	78262272	34409160	24992
942	3.171111	109363200	78262272	46576832	24992
943	5.312259	109363200	78262272	34090224	24992
944	6.262944	109363200	78262272	38218448	24992
945	7.841611	109363200	78262272	43378448	24992
946	10.55467	109363200	78262272	34180832	24992
947	11.628092	109363200	78262272	41365968	24992
948	13.952807	109363200	78262272	34549032	24992
949	14.237139	109363200	78262272	43931856	24992
950	16.805712	109363200	78262272	38639320	24992
951	19.144678	109363200	78262272	35525464	24992
952	20.044109	109363200	78262272	48094736	24992
953	21.198116	109363200	78262272	45132736	24992
954	23.145478	109363200	78262272	43742984	24992
955	24.350284	109363200	78262272	43764352	24992
956	27.203352	109363200	78262272	44797304	24992
957	27.625156	109363200	78262272	46676480	24992
958	29.185458	109363200	78262272	49267808	24992
959	32.178333	109363200	78262272	38793976	24992
960	33.83923	109363200	78262272	44829696	24992
961	36.637888	109363200	78262272	37995896	24992
962	3.194661	109633536	78262272	50634440	24992
963	5.648851	109633536	78262272	38112784	24992
964	6.558603	109633536	78262272	42276520	24992
965	7.721533	109633536	78262272	47528384	24992
966	10.44516	109633536	78262272	38411712	24992
967	11.515601	109633536	78262272	45709904	24992
968	13.731074	109633536	78262272	39002080	24992
969	14.241751	109633536	78262272	48391392	24992
970	17.28782	109633536	78262272	43315408	24992
971	19.102906	109633536	78262272	40219448	24992
972	19.338576	109633536	78262272	52815056	24992
973	20.974972	109633536	78262272	50092080	24992
974	23.613919	109633536	78262272	48814664	24992
975	25.483956	109633536	78262272	48860264	24992
976	27.224112	109633536	78262272	49928024	24992
977	27.927975	109633536	78262272	51894000	24992
978	32.279326	109633536	78262272	41275576	24992
979	35.813823	110174208	78786560	49974520	24992
980	37.055544	110174208	78786560	55876744	24992
981	55.736654	110174208	81408000	19737000	24992
982	3.194816	112607232	81408000	30564400	24992
983	6.062789	112607232	81408000	18596944	24992
984	6.253132	112607232	81408000	22838864	24992
985	8.057997	112607232	81408000	28143208	24992
986	10.789133	112607232	81408000	18994744	24992
987	11.418829	112607232	81408000	26428552	24992
988	14.124594	112607232	81408000	19689120	24992
989	14.676986	112607232	81408000	29256920	24992
990	17.504399	112607232	81408000	24169744	24992
991	19.703417	112607232	81408000	21095272	24992
992	21.14969	112607232	81408000	19631496	24992
993	23.000365	112607232	81408000	19450912	24992
994	24.947977	112607232	81408000	20347640	24992
995	26.662145	112607232	81408000	22163128	24992
996	28.363101	112607232	81408000	24761312	24992
997	29.998854	112607232	81408000	27916848	24992
998	30.509215	112607232	81408000	31595544	24992
999	33.72834	112607232	81408000	22445160	24992
1000	37.240003	112607232	81408000	32574808	24992
