x	Duration	RSS	HeapTotal	HeapUsed	External
0	NA	98889728	67776512	11972792	24992
1	0.599505	98889728	67776512	12024672	24992
2	0.83451	98889728	67776512	12101360	24992
3	0.588563	98889728	67776512	12205112	24992
4	0.708966	98889728	67776512	12337472	24992
5	0.834729	98889728	67776512	12499936	24992
6	1.22058	98889728	67776512	12692960	24992
7	0.598651	98889728	67776512	12917512	24992
8	0.871899	98889728	67776512	13174600	24992
9	0.796803	98889728	67776512	13467744	24992
10	1.156293	98889728	67776512	13794384	24992
11	0.944025	98889728	67776512	14157040	24992
12	1.048609	98889728	67776512	14560248	24992
13	1.064538	98889728	67776512	14997832	24992
14	1.45992	98889728	67776512	15474384	24992
15	1.147329	98889728	67776512	15994224	24992
16	0.923077	98889728	67776512	16551624	24992
17	1.25651	98889728	67776512	17152760	24992
18	1.103278	98889728	67776512	17798896	24992
19	1.103787	98889728	67776512	18487736	24992
20	1.372029	98889728	67776512	19221728	24992
21	1.29662	98889728	67776512	20001472	24992
22	0.177321	98889728	67776512	20799536	24992
23	0.416259	98889728	67776512	20942160	24992
24	0.365066	98889728	67776512	21134880	24992
25	0.457999	98889728	67776512	21378720	24992
26	0.613097	98889728	67776512	21677304	24992
27	0.566451	98889728	67776512	22026328	24992
28	0.636965	98889728	67776512	22429248	24992
29	0.722618	98889728	67776512	22887136	24992
30	0.804676	98889728	67776512	23402024	24992
31	0.902191	98889728	67776512	23973760	24992
32	0.976948	98889728	67776512	24603632	24992
33	1.14607	98889728	67776512	25292032	24992
34	1.196192	98889728	67776512	26040160	24992
35	1.254143	98889728	67776512	26849112	24992
36	1.356163	98889728	67776512	27719832	24992
37	1.695	98889728	67776512	28653272	24992
38	2.733487	98889728	67776512	13346160	24992
39	1.772507	98889728	67776512	14409880	24992
40	1.863141	98889728	67776512	15540232	24992
41	2.169272	98889728	67776512	16738144	24992
42	0.231866	98889728	67776512	18002256	24992
43	0.344552	98889728	67776512	18206376	24992
44	0.646868	98889728	67776512	18480048	24992
45	0.552953	98889728	67776512	18825672	24992
46	0.65661	98889728	67776512	19243304	24992
47	0.779212	98889728	67776512	19734096	24992
48	0.873944	98889728	67776512	20298968	24992
49	0.994413	98889728	67776512	20939232	24992
50	1.100159	98889728	67776512	21658432	24992
51	1.322614	98889728	67776512	22457616	24992
52	1.361401	98889728	67776512	23336168	24992
53	1.443728	98889728	67776512	24295832	24992
54	1.568139	98889728	67776512	25337600	24992
55	1.893048	98889728	67776512	26462664	24992
56	1.806638	98889728	67776512	27671528	24992
57	3.160094	98889728	67776512	12905936	24992
58	2.233641	98889728	67776512	14287176	24992
59	2.189748	98889728	67776512	15755328	24992
60	2.617901	98889728	67776512	17311696	24992
61	2.454977	98889728	67776512	18956984	24992
62	0.290897	98889728	67776512	20715984	24992
63	0.438844	98889728	67776512	20986872	24992
64	0.5798	98889728	67776512	21349560	24992
65	0.704016	98889728	67776512	21805080	24992
66	0.839759	98889728	67776512	22354904	24992
67	0.980937	98889728	67776512	22999448	24992
68	1.122547	98889728	67776512	23739720	24992
69	1.570483	98889728	67776512	24577152	24992
70	1.414527	98889728	67776512	25512728	24992
71	1.560512	98889728	67776512	26546952	24992
72	1.702022	98889728	67776512	27680824	24992
73	1.867405	98889728	67776512	28915232	24992
74	2.699574	98889728	67776512	13956856	24992
75	2.363855	98889728	67776512	15395496	24992
76	2.311823	98889728	67776512	16937632	24992
77	2.52229	98889728	67776512	18584264	24992
78	2.628086	98889728	67776512	20338240	24992
79	2.776436	98889728	67776512	22198672	24992
80	3.141744	98889728	67776512	24166952	24992
81	3.196882	98889728	67776512	26246280	24992
82	0.355338	98889728	67776512	28480464	24992
83	0.529982	98889728	67776512	28809776	24992
84	0.690476	98889728	67776512	29252752	24992
85	1.654143	98889728	67776512	13479808	24992
86	1.043276	98889728	67776512	14149904	24992
87	1.204118	98889728	67776512	14935464	24992
88	1.379755	98889728	67776512	15837320	24992
89	1.543422	98889728	67776512	16856520	24992
90	1.723832	98889728	67776512	17995032	24992
91	1.945214	98889728	67776512	19256248	24992
92	2.311228	98889728	67776512	20634288	24992
93	2.278872	98889728	67776512	22134520	24992
94	2.457544	98889728	67776512	23756040	24992
95	2.698464	98889728	67776512	25500792	24992
96	2.833049	98889728	67776512	27369648	24992
97	3.293966	98889728	67776512	29363568	24992
98	3.769414	98889728	67776512	15131600	24992
99	3.383789	98889728	67776512	17380696	24992
100	3.640801	98889728	67776512	19761528	24992
101	3.818655	98889728	67776512	22268000	24992
102	0.416033	98889728	67776512	24987656	24992
103	0.623719	98889728	67776512	25391368	24992
104	0.829053	98889728	67776512	25931184	24992
105	1.016572	98889728	67776512	26608144	24992
106	1.419264	98889728	67776512	27423656	24992
107	1.426556	98889728	67776512	28378160	24992
108	1.861676	98889728	67776512	29474744	24992
109	2.51137	98889728	67776512	14375480	24992
110	2.187247	98889728	67776512	15756744	24992
111	2.393887	98889728	67776512	17278336	24992
112	2.672533	98889728	67776512	18943792	24992
113	2.694564	98889728	67776512	20754032	24992
114	3.628177	98889728	67776512	22713808	24992
115	3.27901	98889728	67776512	24816712	24992
116	3.513124	98889728	67776512	27080704	24992
117	3.726826	98889728	67776512	29480264	24992
118	4.672461	98889728	67776512	15720120	24992
119	4.002488	98889728	67776512	18423432	24992
120	4.211127	98889728	67776512	21278952	24992
121	4.618432	98889728	67776512	24286440	24992
122	0.479857	98889728	67776512	27546104	24992
123	0.720222	98889728	67776512	28011008	24992
124	0.942558	98889728	67776512	28628872	24992
125	1.174831	98889728	67776512	29403272	24992
126	2.080752	98889728	67776512	14181760	24992
127	1.895625	98889728	67776512	15273736	24992
128	1.925483	98889728	67776512	16524264	24992
129	2.133539	98889728	67776512	17935688	24992
130	2.337848	98889728	67776512	19509256	24992
131	2.602044	98889728	67776512	21245208	24992
132	3.016394	98889728	67776512	23148096	24992
133	3.081949	98889728	67776512	25220168	24992
134	3.320889	98889728	67776512	27449328	24992
135	3.559089	98889728	67776512	29844880	24992
136	4.98579	98889728	67776512	16231480	24992
137	4.341549	98889728	67776512	18962696	24992
138	4.747941	98889728	67776512	21865040	24992
139	4.94066	98889728	67776512	24937696	24992
140	4.827348	98889728	67776512	28181800	24992
141	6.252679	98889728	67776512	15702632	24992
142	0.540685	98889728	67776512	19419312	24992
143	1.007637	98889728	67776512	19946200	24992
144	1.066971	98889728	67776512	20649320	24992
145	1.324164	98889728	67776512	21530480	24992
146	1.599555	98889728	67776512	22590960	24992
147	1.856848	98889728	67776512	23831464	24992
148	2.128448	98889728	67776512	25252752	24992
149	2.381073	98889728	67776512	26855848	24992
150	2.849908	98889728	67776512	28642808	24992
151	3.827971	98889728	67776512	14688096	24992
152	3.440107	98889728	67776512	16843416	24992
153	3.646501	98889728	67776512	19184648	24992
154	3.761178	98889728	67776512	21712464	24992
155	4.04471	98889728	67776512	24428688	24992
156	4.507336	98889728	67776512	27335320	24992
157	4.609384	98889728	67776512	30429192	24992
158	6.771419	98889728	67776512	17512896	24992
159	5.165417	98889728	67776512	20991136	24992
160	5.776732	98889728	67776512	24662696	24992
161	5.801994	98889728	67776512	28527232	24992
162	0.614052	98889728	67776512	16836200	24992
163	0.903981	98889728	67776512	17420936	24992
164	1.188188	98889728	67776512	18202216	24992
165	1.486587	98889728	67776512	19180872	24992
166	1.772797	98889728	67776512	20358512	24992
167	2.074861	98889728	67776512	21735472	24992
168	2.35653	98889728	67776512	23312720	24992
169	2.734929	98889728	67776512	25091344	24992
170	3.027874	98889728	67776512	27073360	24992
171	3.327561	98889728	67776512	29258784	24992
172	4.666964	98889728	67776512	15673912	24992
173	3.89377	98889728	67776512	18274920	24992
174	4.179528	98889728	67776512	21075848	24992
175	4.875279	98889728	67776512	24084752	24992
176	4.803396	98889728	67776512	27304680	24992
177	5.52331	98889728	67776512	30730000	24992
178	6.473131	98889728	67776512	18164864	24992
179	6.050777	98889728	67776512	22013088	24992
180	6.105016	98889728	67776512	26074248	24992
181	6.510471	98889728	67776512	30348176	24992
182	0.708989	98889728	67776512	18884240	24992
183	1.068695	98889728	67776512	19527472	24992
184	1.354541	98889728	67776512	20386624	24992
185	1.631824	98889728	67776512	21463720	24992
186	2.013187	98889728	67776512	22758272	24992
187	2.279159	98889728	67776512	24271704	24992
188	2.632351	98889728	67776512	26006768	24992
189	3.153055	98889728	67776512	27961752	24992
190	3.584111	98889728	67776512	30140440	24992
191	4.695288	98889728	67776512	16506304	24992
192	4.273661	98889728	67776512	19129880	24992
193	4.279278	98889728	67776512	21978224	24992
194	4.615679	98889728	67776512	25053952	24992
195	5.149856	98889728	67776512	28362288	24992
196	6.451078	98889728	67776512	16166264	24992
197	6.056964	98889728	67776512	19925984	24992
198	6.932856	98889728	67776512	23924768	24992
199	6.524081	98889728	67776512	28143528	24992
200	8.170005	98889728	67776512	16908120	24992
201	7.274467	98889728	67776512	21591632	24992
202	0.725766	98889728	67776512	26712392	24992
203	1.091395	98889728	67776512	27414128	24992
204	1.439172	98889728	67776512	28351408	24992
205	1.79334	98889728	67776512	29525160	24992
206	2.342527	98889728	67776512	30938712	24992
207	3.452787	98889728	67776512	16510168	24992
208	2.904918	98889728	67776512	18415888	24992
209	3.438985	98889728	67776512	20570352	24992
210	3.942261	98889728	67776512	22975296	24992
211	4.207698	98889728	67776512	25635352	24992
212	4.599477	98889728	67776512	28547616	24992
213	4.881362	98889728	67776512	31707104	24992
214	6.268476	98889728	67776512	18905200	24992
215	5.890024	98889728	67776512	22572600	24992
216	6.30247	98889728	67776512	26496016	24992
217	6.661264	98889728	67776512	30675328	24992
218	7.983329	98889728	67776512	19070472	24992
219	7.277962	98889728	67776512	23772640	24992
220	7.930066	98889728	67776512	28729696	24992
221	9.345229	98889728	67776512	18218208	24992
222	0.836508	98889728	67776512	23931944	24992
223	1.263272	98889728	67776512	24717008	24992
224	1.656423	98889728	67776512	25765256	24992
225	2.071498	98889728	67776512	27077712	24992
226	2.476219	98889728	67776512	28660352	24992
227	3.094795	98889728	67776512	30510264	24992
228	4.513283	98889728	67776512	16647552	24992
229	3.743132	98889728	67776512	19033320	24992
230	4.156142	98889728	67776512	21688568	24992
231	4.690455	98889728	67776512	24616696	24992
232	4.911154	98889728	67776512	27819288	24992
233	5.315744	98889728	67776512	31296192	24992
234	6.854225	98889728	67776512	18967264	24992
235	6.433425	98889728	67776512	23003896	24992
236	6.714047	98889728	67776512	27311328	24992
237	7.322939	98889728	67776512	31897472	24992
238	8.559733	98889728	67776512	20602704	24992
239	8.006298	98889728	67776512	25763224	24992
240	8.491466	98889728	67776512	31209912	24992
241	10.092628	98889728	67776512	20842344	24992
242	0.902778	98889728	67776512	27094632	24992
243	1.356534	98889728	67776512	27952232	24992
244	1.789788	98889728	67776512	29089968	24992
245	2.20317	98889728	67776512	30514224	24992
246	2.690432	98889728	67776512	32226616	24992
247	4.208352	98889728	67776512	18049056	24992
248	3.583839	98889728	67776512	20340112	24992
249	4.009892	98889728	67776512	22923320	24992
250	4.799351	98889728	67776512	25804160	24992
251	4.953435	98889728	67776512	28972248	24992
252	5.392882	98889728	67776512	32431848	24992
253	6.878927	98889728	67776512	19998568	24992
254	6.304186	98889728	67776512	24047296	24992
255	6.683991	98889728	67776512	28394920	24992
256	7.408156	98889728	67776512	33044928	24992
257	8.543714	98889728	67776512	21673248	24992
258	8.076051	98889728	67776512	26920160	24992
259	8.797267	98889728	67776512	32462456	24992
260	10.237131	98889728	67776512	22103872	24992
261	10.190762	98889728	67776512	28269488	24992
262	1.01656	98889728	67776512	19513160	24992
263	1.379271	98889728	67776512	20423816	24992
264	1.904243	98889728	67776512	21647288	24992
265	2.442197	98889728	67776512	23169032	24992
266	3.060814	98889728	67776512	24998504	24992
267	3.373194	98889728	67776512	27135968	24992
268	3.860786	98889728	67776512	29582720	24992
269	4.493711	98889728	67776512	32345976	24992
270	6.079948	98889728	67776512	19308632	24992
271	5.24997	98889728	67776512	22688904	24992
272	5.819505	98889728	67776512	26382072	24992
273	6.481238	98889728	67776512	30391456	24992
274	7.987084	98889728	67776512	18943312	24992
275	7.529267	98889728	67776512	23581048	24992
276	7.712143	98889728	67776512	28543176	24992
277	8.36999	98889728	67776512	33815720	24992
278	9.544878	98889728	67776512	23062952	24992
279	9.234713	98889728	67776512	28975720	24992
280	11.388418	98889728	67776512	19681504	24992
281	11.016577	98889728	67776512	26240528	24992
282	1.073839	98889728	67776512	33420032	24992
283	2.464107	98889728	67776512	18201032	24992
284	2.001563	98889728	67776512	19494816	24992
285	2.569079	98889728	67776512	21114320	24992
286	3.066439	98889728	67776512	23064296	24992
287	4.089272	98889728	67776512	25345560	24992
288	4.261714	98889728	67776512	27948112	24992
289	4.818819	98889728	67776512	30880008	24992
290	5.149182	98889728	67776512	34144096	24992
291	6.861087	98889728	67776512	21428808	24992
292	6.086072	98889728	67776512	25356032	24992
293	6.793342	98889728	67776512	29622760	24992
294	7.20812	98889728	67776512	34219704	24992
295	8.779774	98889728	67776512	22805272	24992
296	8.275735	98889728	67776512	28078696	24992
297	8.843187	98889728	67776512	33683560	24992
298	10.537722	98889728	67776512	23382120	24992
299	10.079774	98889728	67776512	29665648	24992
300	12.027895	98889728	67776512	20733648	24992
301	11.154496	98889728	67776512	27704424	24992
302	2.098613	98889728	67776512	18999056	24992
303	1.634692	98889728	67776512	20026648	24992
304	2.334648	98889728	67776512	21398384	24992
305	2.686557	98889728	67776512	23116752	24992
306	3.38224	98889728	67776512	25180120	24992
307	3.77558	98889728	67776512	27602376	24992
308	4.362192	98889728	67776512	30360760	24992
309	4.919507	98889728	67776512	33468144	24992
310	7.404213	98889728	67776512	20834872	24992
311	6.049997	98889728	67776512	24652760	24992
312	6.824313	98889728	67776512	28814920	24992
313	7.014832	98889728	67776512	33329232	24992
314	9.097927	98889728	67776512	22079480	24992
315	8.151327	98889728	67776512	27302968	24992
316	8.925993	98889728	67776512	32883880	24992
317	10.751089	98889728	67776512	22793544	24992
318	9.804914	98889728	67776512	29088432	24992
319	12.013931	98889728	67776512	20384096	24992
320	11.228729	98889728	67776512	27414952	24992
321	11.90785	98889728	67776512	34793272	24992
322	1.162688	98889728	67776512	26564304	24992
323	1.870236	98889728	67776512	27650464	24992
324	2.348496	98889728	67776512	29100344	24992
325	2.970073	98889728	67776512	30914616	24992
326	3.709527	98889728	67776512	33094968	24992
327	6.14786	98889728	67776512	19676944	24992
328	4.560698	98889728	67776512	22591432	24992
329	5.702556	98889728	67776512	25874448	24992
330	5.800562	98889728	67776512	29533760	24992
331	6.909739	98889728	67776512	33557640	24992
332	8.459693	98889728	67776512	21885584	24992
333	7.538319	98889728	67776512	26653248	24992
334	8.464091	98889728	67776512	31794088	24992
335	10.42619	98889728	67776512	21550512	24992
336	9.466847	98889728	67776512	27441016	24992
337	9.852201	98889728	67776512	33710800	24992
338	11.916927	98889728	67776512	24286600	24992
339	11.319486	98889728	67776512	31323000	24992
340	14.191061	98889728	67776512	23109512	24992
341	12.943091	98889728	67776512	30893976	24992
342	1.251355	98889728	67776512	23850336	24992
343	1.84445	98889728	67776512	24995008	24992
344	2.448654	98889728	67776512	26522672	24992
345	3.226346	98889728	67776512	28434744	24992
346	3.663707	98889728	67776512	30732200	24992
347	4.173936	98889728	67776512	33415600	24992
348	6.310285	98889728	67776512	20571976	24992
349	5.474579	98889728	67776512	24030392	24992
350	6.11908	98889728	67776512	27896984	24992
351	6.736992	98889728	67776512	32135504	24992
352	9.11441	98889728	67776512	21031040	24992
353	8.05816	98889728	67776512	26055656	24992
354	8.306188	98889728	67776512	31473032	24992
355	11.101877	98889728	67776512	21678512	24992
356	10.042243	98889728	67776512	27883864	24992
357	10.631694	98889728	67776512	34482128	24992
358	12.543594	98889728	67776512	25360752	24992
359	11.843077	98889728	67776512	32761496	24992
360	14.242954	98889728	67776512	24778296	24992
361	13.067332	98889728	67776512	32988128	24992
362	1.311759	98889728	67776512	26177984	24992
363	1.882628	98889728	67776512	27394520	24992
364	2.486962	98889728	67776512	29018888	24992
365	3.220058	98889728	67776512	31055392	24992
366	3.892853	98889728	67776512	33507248	24992
367	6.005285	98889728	67776512	20512168	24992
368	5.188838	98889728	67776512	23774344	24992
369	5.856096	98889728	67776512	27463424	24992
370	6.728212	98889728	67776512	31551264	24992
371	7.124581	98889728	67776512	36052944	24992
372	8.962008	98889728	67776512	24649824	24992
373	8.582708	98889728	67776512	29986856	24992
374	9.227822	98889728	67776512	35737504	24992
375	10.97824	98889728	67776512	25670952	24992
376	10.418484	98889728	67776512	32260280	24992
377	13.018243	98889728	67776512	23624400	24992
378	11.916023	98889728	67776512	31057504	24992
379	14.264828	98889728	67776512	23493680	24992
380	12.879076	98889728	67776512	31784880	24992
381	15.771323	98889728	67776512	24920424	24992
382	1.362538	98889728	67776512	34464640	24992
383	2.043757	98889728	67776512	35739672	24992
384	4.062386	98889728	67776512	21318200	24992
385	3.370678	98889728	67776512	23459696	24992
386	4.044435	98889728	67776512	26017984	24992
387	4.877092	98889728	67776512	29005560	24992
388	5.406492	98889728	67776512	32423760	24992
389	6.217475	98889728	67776512	36288008	24992
390	8.294672	98889728	67776512	24349160	24992
391	7.438912	98889728	67776512	29065384	24992
392	8.17679	98889728	67776512	34216120	24992
393	10.578584	98889728	67776512	23937192	24992
394	9.604206	98889728	67776512	29959432	24992
395	10.240461	98889728	67776512	36429160	24992
396	12.21098	98889728	67776512	27035400	24992
397	11.986979	98889728	67776512	34372704	24992
398	14.363426	98889728	67776512	26241616	24992
399	12.958507	98889728	67776512	34463856	24992
400	15.570313	98889728	67776512	27205656	24992
401	14.569904	98889728	67776512	36315648	24992
402	1.419088	98889728	67776512	30052504	24992
403	2.138231	98889728	67776512	31385936	24992
404	2.741215	98889728	67776512	33165456	24992
405	3.700868	98889728	67776512	35392120	24992
406	5.869482	98889728	67776512	22094656	24992
407	4.959003	98889728	67776512	25218872	24992
408	5.679483	98889728	67776512	28794632	24992
409	6.34687	98889728	67776512	32826184	24992
410	7.271801	98889728	67776512	37309208	24992
411	9.418267	98889728	67776512	25875256	24992
412	8.496823	98889728	67776512	31267448	24992
413	9.323753	98889728	67776512	37114280	24992
414	11.364342	98889728	67776512	27101096	24992
415	10.804344	98889728	67776512	33862536	24992
416	13.612764	98889728	67776512	25354048	24992
417	12.408616	98889728	67776512	33049680	24992
418	15.123399	98889728	67776512	25632168	24992
419	13.684837	98889728	67776512	34276512	24992
420	16.344474	98889728	67776512	27603008	24992
421	15.508746	98889728	67776512	37216392	24992
422	1.488913	98889728	67776512	31468392	24992
423	2.208233	98889728	67776512	32909848	24992
424	2.966468	98889728	67776512	34833232	24992
425	3.837129	98889728	67776512	37239704	24992
426	6.016435	98889728	67776512	23948144	24992
427	5.130117	98889728	67776512	27324048	24992
428	5.880419	98889728	67776512	31191608	24992
429	6.805287	98889728	67776512	35556096	24992
430	8.991376	98889728	67776512	24393448	24992
431	8.289781	98889728	67776512	29730952	24992
432	9.096847	98889728	67776512	35548808	24992
433	11.384788	98889728	67776512	25876416	24992
434	10.45952	98889728	67776512	32689176	24992
435	13.374356	98889728	67776512	24525552	24992
436	12.25007	98889728	67776512	32329584	24992
437	14.84122	98889728	67776512	25228256	24992
438	13.682328	98889728	67776512	34007904	24992
439	16.452955	98889728	67776512	27607432	24992
440	14.880377	98889728	67776512	37391432	24992
441	17.721354	98889728	67776512	31450936	24992
442	1.534905	98889728	67776512	27550040	24992
443	2.329915	98889728	67776512	29049872	24992
444	2.930557	98889728	67776512	31051280	24992
445	3.97109	98889728	67776512	33555192	24992
446	4.702899	98889728	67776512	36563144	24992
447	7.127942	98889728	67776512	24047368	24992
448	6.178343	98889728	67776512	28075224	24992
449	7.198688	98889728	67776512	32599360	24992
450	7.949119	98889728	67776512	37631896	24992
451	10.036738	98889728	67776512	26933920	24992
452	9.468073	98889728	67776512	32989824	24992
453	12.256279	98889728	67776512	24176640	24992
454	10.943822	98889728	67776512	31274088	24992
455	13.896399	98889728	67776512	23710616	24992
456	12.654011	98889728	67776512	31831448	24992
457	15.567205	98889728	67776512	25232560	24992
458	14.081025	98889728	67776512	34371488	24992
459	17.223353	98889728	67776512	28361032	24992
460	15.900173	98889728	67776512	38529760	24992
461	18.083776	98889728	67776512	32871720	24992
462	1.648279	98889728	67776512	29258360	24992
463	2.429432	98889728	67776512	30820504	24992
464	3.518677	98889728	67776512	32905496	24992
465	4.132181	98889728	67776512	35506856	24992
466	4.998201	98889728	67776512	38631760	24992
467	7.341096	98889728	67776512	26012776	24992
468	6.544706	98889728	67776512	30189576	24992
469	7.411975	98889728	67776512	34889088	24992
470	10.020137	98889728	67776512	24517944	24992
471	8.815235	98889728	67776512	30273248	24992
472	9.868584	98889728	67776512	36667760	24992
473	12.496548	98889728	67776512	27499832	24992
474	11.500111	98889728	67776512	34844632	24992
475	14.488374	98889728	67776512	27090512	24992
476	13.058709	98889728	67776512	35499768	24992
477	15.819717	98889728	67776512	28739848	24992
478	14.867745	98889728	67776512	38219360	24992
479	17.269536	98889728	67776512	32001968	24992
480	19.580725	98889728	67776512	27472768	24992
481	17.384424	98889728	67776512	38582040	24992
482	1.877133	98889728	67776512	34642256	24992
483	2.42779	98889728	67776512	36259176	24992
484	3.354878	98889728	67776512	38416616	24992
485	5.839398	98889728	67776512	25003040	24992
486	4.938403	98889728	67776512	28244888	24992
487	5.866786	98889728	67776512	32052360	24992
488	6.762375	98889728	67776512	36382160	24992
489	9.557364	98889728	67776512	25431848	24992
490	8.598151	98889728	67776512	30854288	24992
491	9.133919	98889728	67776512	36834352	24992
492	11.843673	98889728	67776512	27501672	24992
493	10.905202	98889728	67776512	34569128	24992
494	14.292387	98889728	67776512	26672848	24992
495	12.960816	98889728	67776512	34855456	24992
496	15.576965	98889728	67776512	28022520	24992
497	14.321507	98889728	67776512	37296976	24992
498	17.592212	98889728	67776512	31165568	24992
499	19.352563	98889728	67776512	26694168	24992
500	17.39324	98889728	67776512	37662296	24992
501	20.219161	98889728	67776512	33152112	24992
502	1.751211	98889728	67776512	30585824	24992
503	2.621877	98889728	67776512	32261200	24992
504	3.603794	98889728	67776512	34496472	24992
505	4.418487	98889728	67776512	37292888	24992
506	7.207711	98889728	67776512	24835480	24992
507	6.097982	98889728	67776512	28757432	24992
508	6.948737	98889728	67776512	33246528	24992
509	7.825606	98889728	67776512	38309072	24992
510	10.685584	98889728	67776512	27881584	24992
511	9.603785	98889728	67776512	34065960	24992
512	12.95096	98889728	67776512	25534888	24992
513	11.298621	98889728	67776512	32865616	24992
514	14.732799	98889728	67776512	25673320	24992
515	13.415572	98889728	67776512	34138128	24992
516	16.467605	98889728	67776512	27867096	24992
517	14.970214	98889728	67776512	37495336	24992
518	18.06362	98889728	67776512	31760648	24992
519	19.128323	98889728	67776512	27661824	24992
520	17.342836	98889728	67776512	39012096	24992
521	20.520764	98889728	67776512	34789472	24992
522	1.746168	98889728	67776512	32513008	24992
523	2.640607	98889728	67776512	34246864	24992
524	4.290737	98889728	67776512	36563160	24992
525	4.585011	98889728	67776512	39459112	24992
526	7.277215	98889728	67776512	26840384	24992
527	6.324078	98889728	67776512	30913216	24992
528	7.362167	98889728	67776512	35565448	24992
529	8.146659	98889728	67776512	40805208	24992
530	11.0091	98889728	67776512	30208536	24992
531	9.888445	98889728	67776512	36620960	24992
532	13.105881	98889728	67776512	27972256	24992
533	11.730671	98889728	67776512	35558568	24992
534	14.991386	98889728	67776512	28314800	24992
535	13.940798	98889728	67776512	37091504	24992
536	16.991401	98889728	67776512	30704664	24992
537	15.606896	98889728	67776512	40646624	24992
538	18.17636	98889728	67776512	34870928	24992
539	20.157095	98889728	67776512	30681968	24992
540	21.470663	98889728	67776512	27819840	24992
541	19.343829	98889728	67776512	40153344	24992
542	1.881525	98889728	67776512	37485224	24992
543	2.668735	98889728	67776512	39277928	24992
544	5.689749	98889728	67776512	25734736	24992
545	4.755559	98889728	67776512	28728296	24992
546	5.747437	98889728	67776512	32327752	24992
547	6.548796	98889728	67776512	36525608	24992
548	7.439219	98889728	67776512	41324224	24992
549	10.073447	98889728	67776512	30316288	24992
550	9.562114	98889728	67776512	36323696	24992
551	12.576735	98889728	67776512	27437432	24992
552	11.569443	98889728	67776512	34666560	24992
553	14.468168	98889728	67776512	27312744	24992
554	13.410073	98889728	67776512	35756328	24992
555	16.409629	98889728	67776512	29417088	24992
556	15.330945	98889728	67776512	39102312	24992
557	18.170899	98889728	67776512	33402480	24992
558	19.765021	98889728	67776512	29347592	24992
559	18.200648	98889728	67776512	40906328	24992
560	20.778491	98889728	67776512	36754728	24992
561	22.728034	98889728	67776512	33964496	24992
562	1.874009	98889728	67776512	32932024	24992
563	2.801251	98889728	67776512	34803624	24992
564	3.867118	98889728	67776512	37300176	24992
565	4.799205	98889728	67776512	40423008	24992
566	7.839306	98889728	67776512	28142128	24992
567	6.825871	98889728	67776512	32535680	24992
568	7.892881	98889728	67776512	37550928	24992
569	11.088193	98889728	67776512	27549096	24992
570	9.264633	98889728	67776512	33822168	24992
571	10.859562	98889728	67776512	40737888	24992
572	13.678713	98889728	67776512	32090888	24992
573	12.794354	98889728	67776512	40289992	24992
574	15.455961	98889728	67776512	33008824	24992
575	17.519803	98889728	67776512	27635816	24992
576	15.451924	98889728	67776512	37722040	24992
577	18.744091	98889728	67776512	32804120	24992
578	20.660305	98889728	67776512	29405368	24992
579	18.851445	98889728	67776512	41429256	24992
580	21.750369	98889728	67776512	37764440	24992
581	23.267564	98889728	67776512	35450720	24992
582	2.007834	98889728	67776512	34863200	24992
583	3.002882	98889728	67776512	36792952	24992
584	3.991658	98889728	67776512	39367520	24992
585	7.009772	98889728	67776512	26781904	24992
586	6.080017	98889728	67776512	30651760	24992
587	7.058268	98889728	67776512	35168336	24992
588	8.107101	98889728	67776512	40336248	24992
589	11.179054	98889728	67776512	30152856	24992
590	10.064488	98889728	67776512	36639776	24992
591	13.845022	98889728	67776512	28452704	24992
592	12.340412	98889728	67776512	36240960	24992
593	15.703481	98889728	67776512	29376104	24992
594	14.274545	98889728	67776512	38487944	24992
595	17.783646	98889728	67776512	32567728	24992
596	19.075584	98889728	67776512	28314384	24992
597	17.356882	98889728	67776512	39382176	24992
598	20.862584	98889728	67776512	35251816	24992
599	22.234843	98889728	67776512	32534448	24992
600	23.090562	98889728	67776512	30932224	24992
601	24.845986	98889728	67776512	30351560	24992
602	2.105028	98889728	67776512	31223184	24992
603	3.117287	98889728	67776512	33211616	24992
604	4.311007	98889728	67776512	35867832	24992
605	5.064392	98889728	67776512	39195688	24992
606	8.38902	98889728	67776512	27543392	24992
607	7.220104	98889728	67776512	32195272	24992
608	8.38424	98889728	67776512	37516896	24992
609	11.919275	98889728	67776512	28105120	24992
610	10.469126	98889728	67776512	34790296	24992
611	11.299719	98889728	67776512	42153240	24992
612	14.495829	98889728	67776512	33961768	24992
613	13.630883	98889728	67776512	42638840	24992
614	16.656614	98889728	67776512	35704712	24992
615	18.821855	98889728	67776512	30670312	24992
616	16.753801	98889728	67776512	41390736	24992
617	20.095816	98889728	67776512	36687792	24992
618	21.745354	98889728	67776512	33515952	24992
619	23.300564	98889728	67776512	31600480	24992
620	24.097802	98889728	67776512	30711552	24992
621	25.637451	98889728	67776512	30679040	24992
622	2.149897	98889728	67776512	32120784	24992
623	3.220958	98889728	67776512	34168072	24992
624	4.157427	98889728	67776512	36899360	24992
625	5.501779	98889728	67776512	40332440	24992
626	8.996058	98889728	67776512	28712264	24992
627	7.598131	98889728	67776512	33509120	24992
628	8.541523	98889728	67776512	38986552	24992
629	12.230937	98889728	67776512	29571112	24992
630	10.759359	98889728	67776512	36438424	24992
631	14.758526	98889728	67776512	28899744	24992
632	13.022101	98889728	67776512	37145928	24992
633	16.86858	98889728	67776512	30877712	24992
634	15.02341	98889728	67776512	40509688	24992
635	18.822146	98889728	67776512	35018552	24992
636	20.468384	98889728	67776512	31185552	24992
637	18.421036	98889728	67776512	42921968	24992
638	21.560031	98889728	67776512	39121864	24992
639	22.988993	98889728	67776512	36676912	24992
640	24.981511	98889728	67776512	35378064	24992
641	26.1163	98889728	67776512	35069080	24992
642	2.210003	98889728	67776512	36303376	24992
643	3.256395	98889728	67776512	38410072	24992
644	4.24391	98889728	67776512	41218656	24992
645	7.841532	98889728	67776512	29023480	24992
646	6.524589	98889728	67776512	33243264	24992
647	7.556874	98889728	67776512	38182896	24992
648	8.742725	98889728	67776512	43815144	24992
649	11.778561	98889728	67776512	33841776	24992
650	11.111892	98889728	67776512	40892248	24992
651	14.892234	98889728	67776512	32852488	24992
652	13.226985	98889728	67776512	41324408	24992
653	17.059703	98889728	67776512	34725936	24992
654	18.69867	98889728	67776512	29930040	24992
655	16.697477	98889728	67776512	40541240	24992
656	20.700535	98889728	67776512	36200968	24992
657	21.983178	98889728	67776512	33341392	24992
658	23.35345	98889728	67776512	31673096	24992
659	25.228319	98889728	67776512	31090672	24992
660	26.584503	98889728	67776512	31318272	24992
661	27.390802	98889728	67776512	32203128	24992
662	2.294942	98889728	67776512	34405136	24992
663	3.416432	98889728	67776512	36568920	24992
664	4.491883	98889728	67776512	39455608	24992
665	5.642513	98889728	67776512	43065952	24992
666	9.423562	98889728	67776512	31445168	24992
667	8.07723	98889728	67776512	36511640	24992
668	9.021036	98889728	67776512	42317192	24992
669	12.699208	98889728	67776512	32927280	24992
670	11.466545	98889728	67776512	40172816	24992
671	16.605899	98889728	67776512	32613544	24992
672	13.675289	98889728	67776512	41342648	24992
673	17.211008	98889728	67776512	35008592	24992
674	19.313743	98889728	67776512	30548024	24992
675	17.283239	98889728	67776512	41463344	24992
676	20.973233	98889728	67776512	37323840	24992
677	22.500156	98889728	67776512	34683368	24992
678	24.268087	98889728	67776512	33288992	24992
679	25.797299	98889728	67776512	32894248	24992
680	26.590076	98889728	67776512	33261544	24992
681	27.984591	98889728	67776512	34383664	24992
682	2.344829	98889728	67776512	36763752	24992
683	3.516282	98889728	67776512	38986144	24992
684	4.661926	98889728	67776512	41952608	24992
685	8.709973	98889728	67776512	29995848	24992
686	7.012403	98889728	67776512	34452656	24992
687	8.191594	98889728	67776512	39650984	24992
688	9.310108	98889728	67776512	45606016	24992
689	12.767276	98889728	67776512	35855232	24992
690	11.595373	98889728	67776512	43295696	24992
691	15.260161	98889728	67776512	35454016	24992
692	13.920091	98889728	67776512	44400568	24992
693	17.958061	98889728	67776512	37932544	24992
694	19.13259	98889728	67776512	33382336	24992
695	17.78737	98889728	67776512	44596688	24992
696	21.166633	98889728	67776512	40350088	24992
697	23.187601	98889728	67776512	37585464	24992
698	24.596058	98889728	67776512	36068040	24992
699	26.41657	98889728	67776512	35592344	24992
700	27.480741	98889728	67776512	36008696	24992
701	28.746639	98889728	67776512	37132232	24992
702	2.412213	98889728	67776512	39589936	24992
703	3.642786	98889728	67776512	41871024	24992
704	4.832146	98889728	67776512	44928176	24992
705	8.67501	98889728	67776512	32688592	24992
706	7.376715	98889728	67776512	37276032	24992
707	8.38698	98889728	67776512	42621408	24992
708	12.493892	98889728	67776512	32962032	24992
709	10.831469	98889728	67776512	39846712	24992
710	15.140825	98889728	67776512	32270464	24992
711	13.424172	98889728	67776512	40701288	24992
712	17.559212	98889728	67776512	34491600	24992
713	15.68777	98889728	67776512	44450568	24992
714	19.506103	98889728	67776512	39090288	24992
715	21.629991	98889728	67776512	35511304	24992
716	23.270088	98889728	67776512	33311080	24992
717	21.063523	98889728	67776512	46381808	24992
718	24.46249	98889728	67776512	43787080	24992
719	26.203895	98889728	67776512	42482232	24992
720	27.779999	98889728	67776512	42145048	24992
721	29.100131	98889728	67776512	42700056	24992
722	2.472795	98889728	67776512	44719480	24992
723	6.334222	98889728	67776512	31122896	24992
724	4.849308	98889728	67776512	34243504	24992
725	5.958585	98889728	67776512	38146608	24992
726	7.503023	98889728	67776512	42883648	24992
727	11.54679	98889728	67776512	32632672	24992
728	10.056794	98889728	67776512	38888992	24992
729	11.138316	98889728	67776512	46005448	24992
730	14.859711	98889728	67776512	37550144	24992
731	13.210737	98889728	67776512	46168800	24992
732	17.265094	98889728	67776512	39280624	24992
733	19.706584	98889728	67776512	34432656	24992
734	18.02204	98889728	67776512	45424840	24992
735	21.035083	98889728	67776512	41042168	24992
736	22.983211	98889728	67776512	38321560	24992
737	24.511121	98889728	67776512	36790344	24992
738	25.789421	98889728	67776512	36329376	24992
739	27.091368	98889728	67776512	36816336	24992
740	28.006015	98889728	67776512	37956648	24992
741	29.77377	98889728	67776512	39759832	24992
742	2.532866	98889728	67776512	42918792	24992
743	3.79404	98889728	67776512	45316616	24992
744	7.824023	98889728	67776512	32607672	24992
745	6.304501	98889728	67776512	36613792	24992
746	7.310925	98889728	67776512	41417504	24992
747	8.813813	98889728	67776512	47025216	24992
748	12.592129	98889728	67776512	37156768	24992
749	11.403377	98889728	67776512	44405808	24992
750	15.25887	98889728	67776512	36581408	24992
751	13.901112	98889728	67776512	45418192	24992
752	18.123364	98889728	67776512	39053368	24992
753	20.005671	98889728	67776512	34665536	24992
754	17.533021	98889728	67776512	45933032	24992
755	21.395028	98889728	67776512	41844472	24992
756	23.403821	98889728	67776512	39353144	24992
757	25.09758	98889728	67776512	38161280	24992
758	26.475078	98889728	67776512	37976216	24992
759	28.62539	98889728	67776512	38619600	24992
760	29.02737	98889728	67776512	39991400	24992
761	30.687122	98889728	67776512	41973912	24992
762	2.551666	98889728	67776512	45239968	24992
763	3.887341	98889728	67776512	47696272	24992
764	8.013263	98889728	67776512	34693144	24992
765	6.507363	98889728	67776512	38809576	24992
766	8.163956	98889728	67776512	43743352	24992
767	12.185062	98889728	67776512	33852760	24992
768	10.308928	98889728	67776512	40423232	24992
769	11.743571	98889728	67776512	47817064	24992
770	15.4358	98889728	67776512	39662752	24992
771	18.117628	98889728	67776512	33865976	24992
772	15.365356	98889728	67776512	43763144	24992
773	20.541916	98889728	67776512	38840976	24992
774	21.943897	98889728	67776512	35704120	24992
775	19.636392	98889728	67776512	48098408	24992
776	24.237892	98889728	67776512	44908304	24992
777	25.493695	98889728	67776512	43103224	24992
778	27.293457	98889728	67776512	42441480	24992
779	28.709639	98889728	67776512	42778064	24992
780	30.188185	98889728	67776512	43922200	24992
781	31.605788	98889728	67776512	45661072	24992
782	5.288587	98889728	67776512	32810264	24992
783	3.965791	98889728	67776512	35325416	24992
784	5.293135	98889728	67776512	38683680	24992
785	6.516536	98889728	67776512	42907312	24992
786	8.208551	98889728	67776512	47945176	24992
787	12.297464	98889728	67776512	37535320	24992
788	11.261324	98889728	67776512	44286728	24992
789	15.466728	98889728	67776512	36229016	24992
790	13.375216	98889728	67776512	44648424	24992
791	18.117717	98889728	67776512	38243464	24992
792	16.130506	98889728	67776512	48354856	24992
793	20.123281	98889728	68825088	42993888	24992
794	22.20845	98889728	68825088	39429032	24992
795	23.883578	98889728	68825088	37380200	24992
796	25.172703	98889728	68825088	36605168	24992
797	26.809619	99160064	68825088	36826888	24992
798	28.052972	99160064	68825088	37877032	24992
799	29.811109	99160064	68825088	39505104	24992
800	30.592954	99160064	68825088	41730048	24992
801	31.968783	99160064	68825088	44498288	24992
802	2.730093	99160064	68825088	48476056	24992
803	6.750258	99430400	68825088	34904696	24992
804	5.625714	99430400	68825088	38343760	24992
805	6.645781	99430400	68825088	42648112	24992
806	8.469739	99430400	68825088	47810200	24992
807	12.159817	99430400	68825088	37670384	24992
808	10.811615	99430400	68825088	44553344	24992
809	16.093698	99430400	68825088	36770544	24992
810	13.534917	99430400	68825088	45398024	24992
811	18.027404	99430400	68825088	39198232	24992
812	19.997593	99430400	68825088	34978496	24992
813	18.141937	99430400	68825088	46192400	24992
814	22.469137	99430400	68825088	42493712	24992
815	24.179164	99700736	69349376	40297248	24992
816	25.857298	99700736	69349376	39379584	24992
817	27.402525	99700736	69349376	39507712	24992
818	28.898926	99700736	69349376	40503552	24992
819	30.574696	99700736	69349376	42236896	24992
820	31.843044	99700736	69349376	44496704	24992
821	32.365269	99700736	69349376	47213912	24992
822	5.583206	99971072	69349376	35019048	24992
823	4.031246	99971072	69349376	37654096	24992
824	5.482355	99971072	69349376	41164800	24992
825	6.923237	99971072	69349376	45563096	24992
826	11.765961	99971072	69349376	35155600	24992
827	9.725031	99971072	69349376	41310640	24992
828	11.223662	99971072	69349376	48351360	24992
829	15.352718	99971072	69349376	40145016	24992
830	13.737814	99971072	69349376	48950744	24992
831	17.987562	100241408	69349376	42383936	24992
832	20.574263	100241408	69349376	37942968	24992
833	18.199289	100241408	69349376	49408544	24992
834	22.74661	100241408	69349376	45475448	24992
835	24.462805	100241408	69349376	43087880	24992
836	26.264659	100241408	69873664	42051000	24992
837	27.72389	100241408	69873664	42115328	24992
838	29.584261	100241408	69873664	43041440	24992
839	30.933452	100241408	69873664	44718440	24992
840	32.008495	100511744	69873664	47012680	24992
841	33.499235	100511744	69873664	49891200	24992
842	2.851543	100511744	69873664	40653496	24992
843	4.215076	100511744	69873664	43393264	24992
844	5.479285	100511744	69873664	47047816	24992
845	10.188903	100782080	69873664	35914416	24992
846	8.45356	100782080	69873664	41416744	24992
847	9.848771	100782080	69873664	47821872	24992
848	14.446207	100782080	69873664	39191064	24992
849	12.867418	100782080	69873664	47442144	24992
850	17.695243	100782080	69873664	40806128	24992
851	19.184089	100782080	69873664	36287104	24992
852	17.166341	100782080	69873664	47346896	24992
853	21.971041	100782080	69873664	43562032	24992
854	23.777258	100782080	69873664	41348776	24992
855	25.902062	100782080	69873664	40427256	24992
856	26.877426	100782080	69873664	40655656	24992
857	28.377441	101052416	70397952	41736344	24992
858	30.01967	101052416	70397952	43593984	24992
859	31.501962	101052416	70397952	46099976	24992
860	32.532725	101052416	70397952	49047640	24992
861	38.824327	101322752	70397952	39224352	24992
862	3.188577	104296448	73543680	49390160	24992
863	4.721869	104296448	73543680	52223448	24992
864	10.559782	104566784	74067968	40230144	24992
865	8.312154	104566784	74067968	44979584	24992
866	9.29592	104566784	74067968	50656208	24992
867	15.024683	104566784	74067968	41491144	24992
868	18.0345	104566784	74067968	49067992	24992
869	22.166757	102731776	72495104	20165728	24992
870	15.733856	102998016	72495104	14858488	24992
871	15.923639	102998016	72495104	25316112	24992
872	17.977762	102998016	72495104	21034200	24992
873	20.463511	102998016	72495104	18434000	24992
874	22.108582	102998016	72495104	17226816	24992
875	23.131609	102998016	72495104	17195112	24992
876	24.1876	102998016	72495104	18157472	24992
877	25.910641	102998016	72495104	19861640	24992
878	27.780189	102998016	72495104	22318792	24992
879	29.330473	102998016	72495104	25265848	24992
880	30.254781	102998016	72495104	28695984	24992
881	33.55958	102998016	72495104	19020088	24992
882	2.925702	102998016	72495104	26601096	24992
883	4.385233	102998016	72495104	29488816	24992
884	6.520342	102998016	72495104	17180736	24992
885	7.4911	102998016	72495104	22011616	24992
886	8.822727	102998016	72495104	27808072	24992
887	10.89869	102998016	72495104	18591864	24992
888	11.448809	102998016	72495104	26348232	24992
889	13.505919	102998016	72495104	19251016	24992
890	14.461187	102998016	72495104	28933528	24992
891	16.58877	102998016	72495104	23309624	24992
892	19.046978	102998016	72495104	19684280	24992
893	20.776757	102998016	72495104	17695776	24992
894	22.100054	102998016	72495104	16999872	24992
895	23.978565	102998016	72495104	17461560	24992
896	25.651494	102998016	72495104	18786792	24992
897	26.835234	102998016	72495104	20872152	24992
898	28.128102	102998016	72495104	23618576	24992
899	29.108842	102998016	72495104	26818096	24992
900	32.764364	102998016	72495104	17356176	24992
901	35.049383	104079360	73019392	26418488	24992
902	3.517566	104079360	73019392	17786336	24992
903	4.44425	104079360	73019392	20740072	24992
904	5.844959	104079360	73019392	24684048	24992
905	7.256417	104079360	73019392	29598272	24992
906	9.481075	104079360	73019392	19822168	24992
907	10.378939	104079360	73019392	26709208	24992
908	12.829764	104079360	73019392	19420744	24992
909	13.216824	104079360	73019392	28287112	24992
910	16.022991	104079360	73019392	22742736	24992
911	16.673358	104079360	73019392	33639728	24992
912	18.682799	104079360	73019392	29074048	24992
913	20.528889	104079360	73019392	26340784	24992
914	22.077904	104079360	73019392	25073856	24992
915	24.734788	104079360	73019392	25030224	24992
916	26.070861	104079360	73019392	25989984	24992
917	27.179467	104079360	73019392	27731120	24992
918	28.01608	104079360	73019392	30222368	24992
919	30.210659	104079360	73019392	33315840	24992
920	33.268429	104079360	73019392	23394200	24992
921	33.646977	104079360	73019392	29733584	24992
922	3.188578	104079360	73019392	24182800	24992
923	4.543311	104079360	73019392	27187336	24992
924	5.956445	104079360	73019392	31215168	24992
925	10.321764	104079360	73019392	23203384	24992
926	9.444425	104079360	73019392	29231840	24992
927	10.601115	104079360	73019392	36277656	24992
928	12.744438	104079360	73019392	28237672	24992
929	13.480907	104079360	73019392	37304544	24992
930	15.802599	104079360	73019392	31012752	24992
931	18.325854	104079360	73019392	26876664	24992
932	19.848398	104079360	73019392	24419848	24992
933	19.89364	104079360	73019392	37509480	24992
934	21.987595	104079360	73019392	35161688	24992
935	23.863006	104079360	73019392	34336368	24992
936	25.785473	104079360	73019392	34663656	24992
937	27.029061	104079360	73019392	35893680	24992
938	30.848785	104079360	73019392	24699120	24992
939	34.12402	104079360	73019392	32671264	24992
940	32.603042	104079360	73019392	37870784	24992
941	35.627195	104079360	73019392	30082216	24992
942	3.11795	104079360	73019392	42249888	24992
943	5.57533	104079360	73019392	29763280	24992
944	6.239161	104079360	73019392	33891504	24992
945	7.603511	104079360	73019392	39051504	24992
946	10.285156	104079360	73019392	29853936	24992
947	10.959017	104079360	73019392	37039024	24992
948	13.453039	104079360	73019392	30222208	24992
949	14.321725	104079360	73019392	39604912	24992
950	16.541	104079360	73019392	34312376	24992
951	18.850801	104079360	73019392	31198520	24992
952	18.810436	104079360	73019392	43767792	24992
953	20.502048	104079360	73019392	40805792	24992
954	23.126339	104079360	73019392	39416040	24992
955	24.672842	104079360	73019392	39437408	24992
956	26.093757	104079360	73019392	40470360	24992
957	27.998201	104079360	73019392	42349536	24992
958	28.400468	104079360	73019392	44940864	24992
959	32.302509	104079360	73019392	34467096	24992
960	33.510647	104079360	73019392	40502816	24992
961	36.395928	104079360	73019392	33669080	24992
962	3.019838	104079360	73019392	46307624	24992
963	5.488239	104079360	73019392	33786120	24992
964	6.115993	104079360	73019392	37949800	24992
965	7.753301	104079360	73019392	43201568	24992
966	10.478848	104079360	73019392	34084896	24992
967	11.148084	104079360	73019392	41383088	24992
968	13.964246	104079360	73019392	34675384	24992
969	14.4389	104079360	73019392	44064672	24992
970	17.137948	104079360	73019392	38988592	24992
971	19.332443	104079360	73019392	35892728	24992
972	19.270876	104079360	73019392	48488240	24992
973	21.260259	104079360	73019392	45765264	24992
974	23.057485	104079360	73019392	44487848	24992
975	25.40258	104079360	73019392	44534424	24992
976	26.723023	104079360	73019392	45602304	24992
977	28.070434	104079360	73019392	47568160	24992
978	31.611079	104079360	73019392	36907712	24992
979	34.751788	104079360	73019392	45563424	24992
980	34.098812	104079360	73019392	51447328	24992
981	37.476425	104079360	73019392	43865224	24992
982	3.787224	104079360	73019392	37321112	24992
983	4.82538	104079360	73019392	40501384	24992
984	6.325975	104079360	73019392	44743168	24992
985	7.724203	104079360	73019392	50047392	24992
986	10.156675	104079360	73019392	40503064	24992
987	11.486805	104079360	73019392	47936208	24992
988	13.651095	104079360	73019392	40912576	24992
989	14.532897	104079360	73019392	50477744	24992
990	16.903343	104079360	73019392	45070296	24992
991	19.004603	104079360	73019392	41715200	24992
992	21.116601	104079360	73019392	40112240	24992
993	23.119267	104079360	73019392	39787352	24992
994	25.357252	104079360	73019392	40617216	24992
995	26.545634	104079360	73019392	42441232	24992
996	27.716607	104079360	73019392	44909536	24992
997	29.342091	104079360	73019392	48065752	24992
998	31.078905	104079360	73019392	51728560	24992
999	34.287029	104079360	73019392	42524808	24992
1000	34.885119	104079360	73019392	49298432	24992
