x	Duration	RSS	HeapTotal	HeapUsed	External
0	NA	107941888	77213696	34952600	24992
1	0.260283	107941888	77213696	35000320	24992
2	0.274293	107941888	77213696	35076616	24992
3	0.320491	107941888	77213696	35179904	24992
4	0.384586	107941888	77213696	35311688	24992
5	0.454744	107941888	77213696	35473464	24992
6	0.533475	107941888	77213696	35665736	24992
7	0.606397	107941888	77213696	35889376	24992
8	0.73574	107941888	77213696	36145480	24992
9	0.777106	107941888	77213696	36435864	24992
10	0.874886	107941888	77213696	36761272	24992
11	0.966151	107941888	77213696	37122504	24992
12	1.239774	107941888	77213696	37520632	24992
13	0.666615	107941888	77213696	37956592	24992
14	0.719545	107941888	77213696	38431432	24992
15	1.183884	107941888	77213696	22538968	24992
16	0.952803	107941888	77213696	23094352	24992
17	0.922436	107941888	77213696	23693352	24992
18	1.013654	107941888	77213696	24335144	24992
19	1.023736	107941888	77213696	25022192	24992
20	1.151503	107941888	77213696	25753504	24992
21	1.15883	107941888	77213696	26530824	24992
22	0.169737	107941888	77213696	27326192	24992
23	0.249329	107941888	77213696	27468440	24992
24	0.320061	107941888	77213696	27660664	24992
25	0.583872	107941888	77213696	27903896	24992
26	0.497751	107941888	77213696	28199752	24992
27	0.563404	107941888	77213696	28548488	24992
28	0.621648	107941888	77213696	28951104	24992
29	0.703151	107941888	77213696	29408632	24992
30	0.789924	107941888	77213696	29923000	24992
31	0.874634	107941888	77213696	30494232	24992
32	0.955903	107941888	77213696	31123552	24992
33	1.039283	107941888	77213696	31811416	24992
34	1.174511	107941888	77213696	32559104	24992
35	1.22309	107941888	77213696	33367568	24992
36	1.307837	107941888	77213696	34237768	24992
37	1.410512	107941888	77213696	35170680	24992
38	1.718618	107941888	77213696	36169056	24992
39	1.599241	107941888	77213696	37232136	24992
40	1.704995	107941888	77213696	38361272	24992
41	2.97955	107941888	77213696	23319656	24992
42	0.247974	107941888	77213696	24582888	24992
43	0.368775	107941888	77213696	24786936	24992
44	0.480699	107941888	77213696	25060432	24992
45	0.595567	107941888	77213696	25405816	24992
46	0.728032	107941888	77213696	25823160	24992
47	0.838474	107941888	77213696	26313672	24992
48	0.952611	107941888	77213696	26878280	24992
49	1.07277	107941888	77213696	27518176	24992
50	1.205935	107941888	77213696	28237056	24992
51	1.322868	107941888	77213696	29035024	24992
52	1.479192	107941888	77213696	29913088	24992
53	1.5093	107941888	77213696	30872224	24992
54	1.575938	107941888	77213696	31913464	24992
55	1.94595	107941888	77213696	33037712	24992
56	2.020192	107941888	77213696	34246136	24992
57	1.991939	107941888	77213696	35539504	24992
58	2.074559	107941888	77213696	36920584	24992
59	2.197584	107941888	77213696	38388776	24992
60	3.44467	107941888	77213696	23767992	24992
61	2.513793	107941888	77213696	25413264	24992
62	0.288769	107941888	77213696	27172240	24992
63	0.43357	107941888	77213696	27443056	24992
64	0.573404	107941888	77213696	27805680	24992
65	0.709973	107941888	77213696	28261456	24992
66	0.840982	107941888	77213696	28811248	24992
67	0.980077	107941888	77213696	29455744	24992
68	1.114745	107941888	77213696	30196608	24992
69	1.340133	107941888	77213696	31033488	24992
70	1.458408	107941888	77213696	31969064	24992
71	1.557558	107941888	77213696	33003400	24992
72	1.706906	107941888	77213696	34137144	24992
73	1.853195	107941888	77213696	35371600	24992
74	2.224362	107941888	77213696	36707552	24992
75	2.410045	107941888	77213696	38147536	24992
76	3.29666	107941888	77213696	23541272	24992
77	2.478937	107941888	77213696	25187928	24992
78	2.603672	107941888	77213696	26941824	24992
79	2.765518	107941888	77213696	28804416	24992
80	3.139691	107941888	77213696	30772720	24992
81	3.191847	107941888	77213696	32850320	24992
82	0.352257	107941888	77213696	35084640	24992
83	0.525688	107941888	77213696	35413888	24992
84	0.682254	107941888	77213696	35856720	24992
85	0.850531	107941888	77213696	36411832	24992
86	1.25447	107941888	77213696	37082016	24992
87	1.190499	107941888	77213696	37867440	24992
88	1.358834	107941888	77213696	38770040	24992
89	2.239582	107941888	77213696	23561216	24992
90	1.720516	107941888	77213696	24699696	24992
91	1.891053	107941888	77213696	25957536	24992
92	2.053761	107941888	77213696	27335496	24992
93	2.474437	107941888	77213696	28834648	24992
94	2.53966	107941888	77213696	30458112	24992
95	2.607154	107941888	77213696	32202664	24992
96	2.832742	107941888	77213696	34071416	24992
97	3.196082	107941888	77213696	36065280	24992
98	3.169045	107941888	77213696	38187168	24992
99	4.231097	107941888	77213696	24299208	24992
100	3.966858	107941888	77213696	26676656	24992
101	3.72989	107941888	77213696	29182928	24992
102	0.414533	107941888	77213696	31902496	24992
103	0.620704	107941888	77213696	32306136	24992
104	0.808832	107941888	77213696	32848488	24992
105	1.004912	107941888	77213696	33525416	24992
106	1.225234	107941888	77213696	34340912	24992
107	1.410206	107941888	77213696	35295472	24992
108	1.628622	107941888	77213696	36389928	24992
109	1.807947	107941888	77213696	37625448	24992
110	2.012541	107941888	77213696	39004552	24992
111	2.828976	107941888	77213696	24277568	24992
112	2.670656	107941888	77213696	25942840	24992
113	2.662212	107941888	77213696	27753064	24992
114	2.856767	107941888	77213696	29709080	24992
115	3.31286	107941888	77213696	31812016	24992
116	3.512431	107941888	77213696	34062792	24992
117	4.223161	107941888	77213696	36462384	24992
118	4.084784	107941888	77213696	39023456	24992
119	4.819234	107941888	77213696	25481240	24992
120	4.373646	107941888	77213696	28335120	24992
121	4.615672	107941888	77213696	31344880	24992
122	0.476102	107941888	77213696	34604672	24992
123	0.708866	107941888	77213696	35066832	24992
124	0.934773	107941888	77213696	35684656	24992
125	1.1709	107941888	77213696	36459024	24992
126	1.391748	107941888	77213696	37391496	24992
127	1.633414	107941888	77213696	38483736	24992
128	2.086207	107941888	77213696	39734208	24992
129	2.701491	107941888	77213696	24926608	24992
130	2.333209	107941888	77213696	26500000	24992
131	2.575206	107941888	77213696	28235960	24992
132	2.987567	107941888	77213696	30135256	24992
133	3.074087	107941888	77213696	32199576	24992
134	3.29415	107941888	77213696	34428592	24992
135	3.601846	107941888	77213696	36824016	24992
136	4.031135	107941888	77213696	39387656	24992
137	4.801616	107941888	77213696	26052056	24992
138	4.285441	107941888	77213696	28959000	24992
139	4.766573	107941888	77213696	32031384	24992
140	4.798441	107941888	77213696	35275896	24992
141	5.257175	107941888	77213696	38692056	24992
142	0.579346	107941888	77213696	26444920	24992
143	0.862683	107941888	77213696	26971080	24992
144	1.140018	107941888	77213696	27674176	24992
145	1.433502	107941888	77213696	28555192	24992
146	1.704907	107941888	77213696	29616128	24992
147	1.992594	107941888	77213696	30856552	24992
148	2.247907	107941888	77213696	32277736	24992
149	2.401548	107941888	77213696	33880712	24992
150	2.836259	107941888	77213696	35667696	24992
151	2.932912	107941888	77213696	37638344	24992
152	3.198514	107941888	77213696	39795048	24992
153	4.235756	107941888	77213696	26048184	24992
154	4.172118	107941888	77213696	28576832	24992
155	4.013286	107941888	77213696	31292728	24992
156	4.284875	107941888	77213696	34197048	24992
157	4.57662	107941888	77213696	37290928	24992
158	4.840168	107941888	77213696	40577336	24992
159	6.188168	107941888	77213696	27825744	24992
160	5.419252	107941888	77213696	31496464	24992
161	5.908349	107941888	77213696	35360664	24992
162	0.59762	107941888	77213696	39563008	24992
163	0.891581	107941888	77213696	40147744	24992
164	1.176582	107941888	77213696	40928848	24992
165	2.283702	107941888	77213696	25700408	24992
166	1.898694	107941888	77213696	26877888	24992
167	2.183583	107941888	77213696	28254728	24992
168	2.373118	107941888	77213696	29832032	24992
169	2.645063	107941888	77213696	31610528	24992
170	3.177414	107941888	77213696	33592368	24992
171	3.262557	107941888	77213696	35777664	24992
172	3.567565	107941888	77213696	38167120	24992
173	4.076313	107941888	77213696	40765984	24992
174	5.145058	107941888	77213696	27388440	24992
175	4.78546	107941888	77213696	30396496	24992
176	5.143331	107941888	77213696	33613856	24992
177	5.457242	107941888	77213696	37039152	24992
178	5.634588	107941888	77213696	40678872	24992
179	6.899229	107941888	77213696	28363856	24992
180	6.393993	107941888	77213696	32424504	24992
181	6.361888	107941888	77213696	36698152	24992
182	0.683276	107941888	77213696	41358016	24992
183	1.760469	107941888	77213696	25769296	24992
184	1.385675	107941888	77213696	26632168	24992
185	1.725176	107941888	77213696	27708184	24992
186	2.191331	107941888	77213696	29002656	24992
187	2.327283	107941888	77213696	30515984	24992
188	2.613411	107941888	77213696	32249160	24992
189	2.930287	107941888	77213696	34203144	24992
190	3.807148	107941888	77213696	36381848	24992
191	3.598632	107941888	77213696	38785400	24992
192	3.971834	107941888	77213696	41408728	24992
193	5.344235	107941888	77213696	28035328	24992
194	4.728727	107941888	77213696	31109456	24992
195	5.305566	107941888	77213696	34413480	24992
196	5.671564	107941888	77213696	37941544	24992
197	6.219513	107941888	77213696	41698312	24992
198	6.938748	107941888	77213696	29414912	24992
199	6.526081	107941888	77213696	33633856	24992
200	6.679222	107941888	77213696	38085608	24992
201	8.245231	107941888	77213696	27116704	24992
202	0.721802	107941888	77213696	32238928	24992
203	1.07599	107941888	77213696	32940664	24992
204	1.433548	107941888	77213696	33877696	24992
205	1.774139	107941888	77213696	35051168	24992
206	2.185875	107941888	77213696	36462632	24992
207	2.487416	107941888	77213696	38120896	24992
208	3.056472	107941888	77213696	40026568	24992
209	3.274809	107941888	77213696	42180856	24992
210	4.636246	107941888	77213696	28300008	24992
211	4.207907	107941888	77213696	30955400	24992
212	4.58802	107941888	77213696	33862384	24992
213	5.400541	107941888	77213696	37023120	24992
214	5.170404	107941888	77213696	40436080	24992
215	7.103172	107941888	77213696	28138072	24992
216	6.132949	107941888	77213696	32065520	24992
217	6.571103	107941888	77213696	36246768	24992
218	6.975787	107941888	77213696	40685800	24992
219	8.643462	107941888	77213696	29347256	24992
220	7.90099	107941888	77213696	34305160	24992
221	7.958444	107941888	77213696	39529064	24992
222	0.843844	107941888	77213696	29422152	24992
223	1.257207	107941888	77213696	30207024	24992
224	1.647574	107941888	77213696	31255144	24992
225	2.292988	107941888	77213696	32567536	24992
226	2.467261	107941888	77213696	34145512	24992
227	2.890245	107941888	77213696	35992336	24992
228	3.301327	107941888	77213696	38104024	24992
229	3.864542	107941888	77213696	40489280	24992
230	5.237954	107941888	77213696	27223688	24992
231	4.490344	107941888	77213696	30151968	24992
232	4.931716	107941888	77213696	33356744	24992
233	5.321028	107941888	77213696	36833712	24992
234	5.915866	107941888	77213696	40587808	24992
235	7.306406	107941888	77213696	28675488	24992
236	7.069806	107941888	77213696	32982864	24992
237	7.104852	107941888	77213696	37576016	24992
238	7.752577	107941888	77213696	42445352	24992
239	9.15584	107941888	77213696	31332928	24992
240	8.595724	107941888	77213696	36763384	24992
241	8.811863	107941888	77213696	42476512	24992
242	0.890757	107941888	77213696	32482848	24992
243	1.658422	107941888	77213696	33334864	24992
244	1.703631	107941888	77213696	34472520	24992
245	2.403234	107941888	77213696	35896688	24992
246	2.622212	107941888	77213696	37615232	24992
247	3.006947	107941888	77213696	39616264	24992
248	3.718636	107941888	77213696	41906712	24992
249	5.085309	107941888	77213696	28402976	24992
250	4.615447	107941888	77213696	31276120	24992
251	4.983479	107941888	77213696	34449840	24992
252	5.343353	107941888	77213696	37909376	24992
253	5.721617	107941888	77213696	41668784	24992
254	7.261476	107941888	77213696	29651688	24992
255	6.901867	107941888	77213696	33996896	24992
256	7.396743	107941888	77213696	38640224	24992
257	9.089037	107941888	77213696	28031360	24992
258	7.874547	107941888	77213696	33280768	24992
259	8.669705	107941888	77213696	38822712	24992
260	10.483561	107941888	77213696	29113504	24992
261	9.433765	107941888	77213696	35263024	24992
262	0.956737	107941888	77213696	41988192	24992
263	1.444571	107941888	77213696	42898784	24992
264	3.099692	107941888	77213696	27952152	24992
265	2.314904	107941888	77213696	29483248	24992
266	2.856562	107941888	77213696	31312480	24992
267	3.321885	107941888	77213696	33449808	24992
268	3.990484	107941888	77213696	35896072	24992
269	4.282114	107941888	77213696	38652792	24992
270	4.774169	107941888	77213696	41720976	24992
271	6.419216	107941888	77213696	29142104	24992
272	5.942733	107941888	77213696	32835016	24992
273	6.136363	107941888	77213696	36842096	24992
274	6.801948	107941888	77213696	41170784	24992
275	8.125992	107941888	77213696	29927024	24992
276	7.616313	107941888	77213696	34882376	24992
277	8.452969	107941888	77213696	40154592	24992
278	10.237857	107941888	77213696	30057040	24992
279	8.977792	107941888	77213696	35969752	24992
280	9.578903	107941888	77213696	42210760	24992
281	11.525752	107941888	77213696	32718224	24992
282	0.968279	107941888	77213696	39891928	24992
283	1.814727	107941888	77213696	40861096	24992
284	1.977314	107941888	77213696	42154784	24992
285	2.567451	107941888	77213696	43777760	24992
286	4.108558	107941888	77213696	29516480	24992
287	3.567939	107941888	77213696	31799520	24992
288	4.266008	107941888	77213696	34401800	24992
289	4.476327	107941888	77213696	37333544	24992
290	5.019722	107941888	77213696	40597824	24992
291	5.765104	107941888	77213696	44204448	24992
292	6.984999	107941888	77213696	31824216	24992
293	6.939055	107941888	77213696	36092912	24992
294	7.276765	107941888	77213696	40687832	24992
295	9.170444	107941888	77213696	29908928	24992
296	8.422109	107941888	77213696	35189440	24992
297	8.705306	107941888	77213696	40794608	24992
298	10.882936	107941888	77213696	31026240	24992
299	9.760884	107941888	77213696	37310864	24992
300	10.214738	107941888	77213696	43934384	24992
301	11.963465	107941888	77213696	34657032	24992
302	1.08865	107941888	77213696	42288296	24992
303	1.811205	107941888	77213696	43315920	24992
304	2.151607	107941888	77213696	44688240	24992
305	3.728229	107941888	77213696	30117880	24992
306	3.388839	107941888	77213696	32181208	24992
307	3.967067	107941888	77213696	34591520	24992
308	4.319215	107941888	77213696	37349912	24992
309	4.863081	107941888	77213696	40457168	24992
310	5.577523	107941888	77213696	43915432	24992
311	7.557927	107941888	77213696	31569456	24992
312	6.514836	107941888	77213696	35731928	24992
313	7.240832	107941888	77213696	40247232	24992
314	9.460582	107941888	77213696	29553368	24992
315	8.674197	107941888	77213696	34785344	24992
316	9.330957	107941888	77213696	40363664	24992
317	11.211306	107941888	77213696	30731176	24992
318	10.024887	107941888	77213696	37027592	24992
319	10.321143	107941888	77213696	43692360	24992
320	12.505654	107941888	77213696	34576184	24992
321	11.7224	107941888	77213696	41951464	24992
322	1.16716	107941888	77213696	34235896	24992
323	1.723929	107941888	77213696	35321968	24992
324	2.29317	107941888	77213696	36771600	24992
325	3.061904	107941888	77213696	38585840	24992
326	3.424388	107941888	77213696	40766184	24992
327	4.023624	107941888	77213696	43313024	24992
328	6.140661	107941888	77213696	30256080	24992
329	5.163372	107941888	77213696	33546416	24992
330	5.754699	107941888	77213696	37199792	24992
331	6.482934	107941888	77213696	41225864	24992
332	8.626613	107941888	77213696	29982896	24992
333	7.496163	107941888	77213696	34750384	24992
334	8.138269	107941888	77213696	39891320	24992
335	8.660184	107941888	77213696	45408448	24992
336	10.627227	107941888	77213696	34949048	24992
337	10.002039	107941888	77213696	41217104	24992
338	12.16492	107941888	77213696	32265224	24992
339	11.244047	107941888	77213696	39291320	24992
340	13.534326	107941888	77213696	31439224	24992
341	12.138189	107941888	77213696	39225128	24992
342	1.230053	107941888	77213696	32548624	24992
343	1.843072	107941888	77213696	33693264	24992
344	2.61925	107941888	77213696	35221064	24992
345	3.172656	107941888	77213696	37132864	24992
346	3.625393	107941888	77213696	39430232	24992
347	4.242413	107941888	77213696	42124904	24992
348	4.847674	107941888	77213696	45195224	24992
349	6.765405	107941888	77213696	32466720	24992
350	6.267597	107941888	77213696	36315680	24992
351	6.680317	107941888	77213696	40554016	24992
352	7.513813	107941888	77213696	45183112	24992
353	9.243603	107941888	77213696	33973784	24992
354	8.701705	107941888	77213696	39388056	24992
355	9.102315	107941888	77213696	45200512	24992
356	11.2178	107941888	77213696	35177664	24992
357	10.307695	107941888	77213696	41777208	24992
358	13.040367	107941888	77213696	33187840	24992
359	11.871379	107941888	77213696	40582416	24992
360	14.211167	107941888	77213696	33000984	24992
361	13.301125	107941888	77213696	41203264	24992
362	1.30766	107941888	77213696	34736688	24992
363	1.906726	107941888	77213696	35953472	24992
364	2.561121	107941888	77213696	37576928	24992
365	3.381326	107941888	77213696	39608368	24992
366	3.713456	107941888	77213696	42049344	24992
367	4.454324	107941888	77213696	44900360	24992
368	6.729179	107941888	77213696	32103272	24992
369	5.753119	107941888	77213696	35777240	24992
370	6.419027	107941888	77213696	39865928	24992
371	6.822172	107941888	77213696	44379072	24992
372	9.477173	107941888	77213696	33336920	24992
373	8.285412	107941888	77213696	38678056	24992
374	8.81911	107941888	77213696	44432880	24992
375	11.458048	107941888	77213696	34626952	24992
376	10.527892	107941888	77213696	41216280	24992
377	13.305611	107941888	77213696	32830224	24992
378	11.76118	107941888	77213696	40259776	24992
379	14.252475	107941888	77213696	32854384	24992
380	13.107775	107941888	77213696	41127160	24992
381	16.000072	107941888	77213696	34424848	24992
382	1.347515	107941888	77213696	43969408	24992
383	2.119445	107941888	77213696	45250792	24992
384	2.605867	107941888	77213696	46952264	24992
385	4.585254	107941888	77213696	32756232	24992
386	4.160765	107941888	77213696	35319416	24992
387	4.655633	107941888	77213696	38313600	24992
388	5.348042	107941888	77213696	41734944	24992
389	6.068129	107941888	77213696	45584488	24992
390	8.478854	107941888	77213696	33835656	24992
391	7.40456	107941888	77213696	38564368	24992
392	8.179416	107941888	77213696	43731240	24992
393	10.63513	107941888	77213696	33538608	24992
394	9.460736	107941888	77213696	39560992	24992
395	10.34451	107941888	77213696	46023160	24992
396	12.352442	107941888	77213696	36769128	24992
397	11.450865	107941888	77213696	44129360	24992
398	14.172822	107941888	77213696	36084680	24992
399	13.060405	107941888	77213696	44318936	24992
400	15.40103	107941888	77213696	37093584	24992
401	14.715564	107941888	77213696	46199928	24992
402	1.415957	107941888	77213696	40011240	24992
403	2.107717	107941888	77213696	41344624	24992
404	2.791562	107941888	77213696	43127496	24992
405	3.704276	107941888	77213696	45361336	24992
406	5.764013	107941888	77213696	32083560	24992
407	4.888913	107941888	77213696	35207808	24992
408	5.721268	107941888	77213696	38794816	24992
409	6.292237	107941888	77213696	42842832	24992
410	7.021467	107941888	77213696	47324440	24992
411	9.215035	107941888	77213696	35943928	24992
412	8.618725	107941888	77213696	41328448	24992
413	8.981809	107941888	77213696	47168536	24992
414	11.279441	107941888	77213696	37182832	24992
415	10.752838	107941888	77213696	43937192	24992
416	13.37988	107941888	77213696	35428864	24992
417	12.216497	107941888	77213696	43114760	24992
418	15.116795	107941888	77213696	35723928	24992
419	13.434162	107941888	77213696	44374488	24992
420	16.295624	107941888	77213696	37705568	24992
421	15.133598	107941888	77213696	47303696	24992
422	1.481658	107941888	77213696	41623360	24992
423	2.196103	107941888	77213696	43064784	24992
424	2.913844	107941888	77213696	45003968	24992
425	3.649737	107941888	77213696	47413248	24992
426	5.889344	107941888	77213696	34138360	24992
427	5.094381	107941888	77213696	37514136	24992
428	5.870579	107941888	77213696	41388808	24992
429	6.805346	107941888	77213696	45737368	24992
430	9.23226	107941888	77213696	34599280	24992
431	8.387694	107941888	77213696	39938792	24992
432	9.242428	107941888	77213696	45756616	24992
433	11.350556	107941888	77213696	36087440	24992
434	10.277986	107941888	77213696	42898808	24992
435	13.325852	107941888	77213696	34737464	24992
436	11.766126	107941888	77213696	42540568	24992
437	14.496334	107941888	77213696	35440152	24992
438	13.442978	107941888	77213696	44219768	24992
439	16.734399	107941888	77213696	37865976	24992
440	15.150694	107941888	77213696	47638424	24992
441	17.2345	108212224	77737984	41710704	24992
442	1.542761	108212224	77737984	37839640	24992
443	2.298713	108212224	77737984	39355832	24992
444	3.056654	108212224	77737984	41357088	24992
445	4.015651	108212224	77737984	43860904	24992
446	4.589467	108212224	77737984	46868824	24992
447	6.957951	108212224	77737984	34384920	24992
448	6.050508	108212224	77737984	38427080	24992
449	7.037807	108212224	77737984	42982128	24992
450	7.474321	108212224	77737984	48014528	24992
451	10.144108	108212224	77737984	37350280	24992
452	9.233612	108212224	77737984	43400232	24992
453	12.118647	108212224	77737984	34483744	24992
454	10.989241	108212224	77737984	41574688	24992
455	13.624941	108482560	77737984	34021624	24992
456	12.518769	108482560	77737984	42130888	24992
457	15.293415	108482560	77737984	35542560	24992
458	13.945749	108482560	77737984	44676384	24992
459	16.878937	108482560	77737984	38689376	24992
460	15.475327	108482560	77737984	48864528	24992
461	17.87843	108482560	77737984	43180256	24992
462	1.602342	108482560	77737984	39539200	24992
463	2.408273	108482560	77737984	41097488	24992
464	3.234786	108482560	77737984	43176888	24992
465	4.027007	108482560	77737984	45778216	24992
466	4.604043	108482560	77737984	48903072	24992
467	7.050167	108482560	77737984	36287344	24992
468	6.228073	108482560	77737984	40461112	24992
469	7.150351	108482560	77737984	45160560	24992
470	10.027953	108482560	77737984	34777848	24992
471	8.837037	108482560	77737984	40533000	24992
472	9.799918	108482560	77737984	46924224	24992
473	12.326218	108482560	77737984	37758744	24992
474	11.273588	108482560	77737984	45103440	24992
475	14.274562	108482560	77737984	37351536	24992
476	12.938785	108482560	77737984	45760760	24992
477	15.770922	108482560	77737984	38983944	24992
478	14.475495	108482560	77737984	48466800	24992
479	16.865128	108482560	77737984	42251432	24992
480	19.330496	108482560	77737984	37751224	24992
481	17.029928	108482560	77737984	48840600	24992
482	1.586565	108482560	78262272	44911496	24992
483	2.474985	108482560	78262272	46528360	24992
484	3.29505	108482560	78262272	48685672	24992
485	6.033058	108752896	78262272	35271432	24992
486	4.932498	108752896	78262272	38513248	24992
487	6.109279	108752896	78262272	42328976	24992
488	6.777479	108752896	78262272	46658616	24992
489	9.363569	108752896	78262272	35703240	24992
490	8.19374	108752896	78262272	41125648	24992
491	9.130842	108752896	78262272	47101040	24992
492	12.098084	108752896	78262272	37770216	24992
493	11.01709	108752896	78262272	44837640	24992
494	14.00454	108752896	78262272	36943640	24992
495	12.602996	108752896	78262272	45125320	24992
496	15.501452	108752896	78262272	38294208	24992
497	14.208796	108752896	78262272	47568624	24992
498	17.40453	109023232	78262272	41438936	24992
499	18.414714	109023232	78262272	36966736	24992
500	16.969845	109023232	78262272	47934832	24992
501	19.534638	109023232	78262272	43425088	24992
502	1.734815	109023232	78262272	40859712	24992
503	2.598444	109023232	78262272	42535056	24992
504	3.430384	109023232	78262272	44770296	24992
505	4.28195	109023232	78262272	47566680	24992
506	7.375596	109023232	78262272	35111968	24992
507	5.727038	109023232	78262272	39033768	24992
508	7.007759	109023232	78262272	43535192	24992
509	7.689643	109023232	78262272	48597720	24992
510	10.605538	109023232	78262272	38174736	24992
511	9.580837	109023232	78262272	44359080	24992
512	12.483671	109023232	78262272	35819800	24992
513	11.152422	109023232	78262272	43143872	24992
514	14.799587	109023232	78262272	35953384	24992
515	13.10334	109023232	78262272	44417264	24992
516	16.633919	109023232	78262272	38148072	24992
517	14.791502	109023232	78262272	47775352	24992
518	17.943996	109023232	78262272	42042712	24992
519	19.693778	109023232	78262272	37944128	24992
520	17.384264	109023232	78262272	49293904	24992
521	20.469381	109023232	78262272	45071720	24992
522	1.790763	109023232	78262272	42796168	24992
523	2.673455	109023232	78262272	44529992	24992
524	3.560428	109023232	78262272	46843272	24992
525	4.461067	109023232	78262272	49739192	24992
526	7.317191	109023232	78262272	37123040	24992
527	6.149884	109023232	78262272	41193704	24992
528	7.160187	109023232	78262272	45845904	24992
529	7.988064	109023232	78262272	51085632	24992
530	10.564856	109023232	78262272	40491216	24992
531	9.897653	109023232	78262272	46903608	24992
532	13.142466	109023232	78262272	38257568	24992
533	11.661613	109023232	78262272	45843040	24992
534	15.737461	109023232	78262272	38600184	24992
535	13.427079	109023232	78262272	47376856	24992
536	16.904631	109023232	78262272	40990928	24992
537	15.483536	109023232	78262272	50932856	24992
538	18.039652	109023232	78262272	45158072	24992
539	20.132745	109023232	78262272	40986808	24992
540	21.328632	109023232	78262272	38108824	24992
541	19.238937	109023232	78262272	50441808	24992
542	1.847946	109023232	78262272	47774128	24992
543	2.746371	109023232	78262272	49566800	24992
544	5.809537	109023232	78262272	36025880	24992
545	4.368975	109023232	78262272	39018048	24992
546	5.46769	109023232	78262272	42617472	24992
547	6.767161	109023232	78262272	46818280	24992
548	7.27624	109023232	78262272	51616864	24992
549	10.134664	109023232	78262272	40613160	24992
550	9.129289	109023232	78262272	46621976	24992
551	12.819801	109023232	78262272	37734720	24992
552	10.844704	109023232	78262272	44960344	24992
553	14.49024	109023232	78262272	37608368	24992
554	13.363455	109023232	78262272	46050992	24992
555	16.520663	109023232	78262272	39712664	24992
556	14.77896	109023232	78262272	49397856	24992
557	18.148572	109023232	78262272	43698936	24992
558	19.690616	109023232	78262272	39645360	24992
559	18.369148	109023232	78262272	51203664	24992
560	20.989399	109023232	78262272	47052504	24992
561	22.348672	109023232	78262272	44263184	24992
562	2.136828	109023232	78262272	43231152	24992
563	2.833234	109023232	78262272	45102720	24992
564	3.774812	109023232	78262272	47599176	24992
565	4.883923	109023232	78262272	50721944	24992
566	7.735012	109023232	78262272	38443984	24992
567	6.544197	109023232	78262272	42835120	24992
568	7.667128	109023232	78262272	47850336	24992
569	11.429219	109023232	78262272	37852192	24992
570	9.498224	109023232	78262272	44123872	24992
571	10.679312	109023232	78262272	51039560	24992
572	13.48508	109023232	78262272	42393944	24992
573	12.55147	109023232	78262272	50593016	24992
574	15.905204	109023232	78262272	43313232	24992
575	17.244799	109023232	78262272	37941552	24992
576	15.299645	109023232	78262272	48027328	24992
577	19.296831	109023232	78262272	43109848	24992
578	20.868878	109023232	78262272	39712008	24992
579	18.243067	109023232	78262272	51735864	24992
580	21.135	109023232	78262272	48071488	24992
581	23.438814	109023232	78262272	45758680	24992
582	1.964651	109023232	78262272	45171600	24992
583	2.950576	109023232	78262272	47101320	24992
584	4.077092	109023232	78262272	49675856	24992
585	7.531401	109023232	78262272	37101400	24992
586	5.937056	109023232	78262272	40969416	24992
587	7.070402	109023232	78262272	45485960	24992
588	7.886161	109023232	78262272	50653840	24992
589	11.175649	109023232	78786560	40497176	24992
590	10.051175	109023232	78786560	46982392	24992
591	13.437088	109293568	78786560	38797984	24992
592	12.342868	109293568	78786560	46585400	24992
593	15.835729	109293568	78786560	39722320	24992
594	13.703636	109293568	78786560	48833264	24992
595	17.672775	109293568	78786560	42913960	24992
596	19.181735	109293568	78786560	38661952	24992
597	17.220414	109293568	78786560	49729288	24992
598	20.839516	109293568	78786560	45599368	24992
599	21.715638	109293568	78786560	42882912	24992
600	23.160555	109293568	78786560	41281592	24992
601	24.495656	109293568	78786560	40701216	24992
602	1.953028	109293568	78786560	41572968	24992
603	2.950457	109293568	78786560	43561368	24992
604	4.214233	109293568	78786560	46217552	24992
605	5.257515	109293568	78786560	49545376	24992
606	9.020357	109563904	78786560	37895856	24992
607	7.000811	109563904	78786560	42547744	24992
608	8.140892	109563904	78786560	47867704	24992
609	11.546201	109563904	78786560	38458832	24992
610	10.334594	109563904	78786560	45142656	24992
611	11.367374	109563904	78786560	52505568	24992
612	14.355671	109563904	78786560	44317152	24992
613	13.431	109563904	78786560	52994344	24992
614	16.588496	109563904	78786560	46059776	24992
615	18.53537	109563904	78786560	41026288	24992
616	16.533193	109563904	78786560	51746680	24992
617	19.898258	109563904	78786560	47044176	24992
618	21.174136	109563904	78786560	43873248	24992
619	23.205793	109563904	78786560	41958216	24992
620	24.084593	109563904	78786560	41070264	24992
621	25.930509	109563904	78786560	41038120	24992
622	2.119722	109563904	78786560	42490608	24992
623	3.128206	109563904	78786560	44537280	24992
624	4.14889	109563904	78786560	47268536	24992
625	5.366365	109563904	78786560	50701584	24992
626	9.072866	109563904	78786560	39081728	24992
627	7.667709	109563904	78786560	43878672	24992
628	8.401087	109563904	78786560	49356072	24992
629	12.00455	109563904	78786560	39940600	24992
630	10.794835	109563904	78786560	46807880	24992
631	14.931852	109563904	78786560	39269112	24992
632	12.788772	109563904	78786560	47515320	24992
633	16.547578	109563904	78786560	41247072	24992
634	14.642521	109563904	78786560	50879016	24992
635	18.467396	109563904	78786560	45387848	24992
636	19.983847	109563904	78786560	41554720	24992
637	18.330811	109563904	78786560	53291200	24992
638	21.843148	109563904	78786560	49491064	24992
639	22.941014	109563904	78786560	47046080	24992
640	24.139742	109563904	78786560	45747200	24992
641	25.466729	109563904	78786560	45438184	24992
642	2.17508	109563904	78786560	46672448	24992
643	3.271044	109563904	78786560	48779112	24992
644	4.492359	109563904	78786560	51587664	24992
645	8.15436	109563904	78786560	39392456	24992
646	6.785187	109563904	78786560	43612208	24992
647	7.744913	109563904	78786560	48551808	24992
648	8.84483	109563904	78786560	54184024	24992
649	11.823156	109563904	78786560	44210624	24992
650	10.671849	109563904	78786560	51261064	24992
651	14.859082	109563904	78786560	43221272	24992
652	12.921975	109563904	78786560	51693160	24992
653	16.965469	109563904	78786560	45094656	24992
654	18.154488	109563904	78786560	40298696	24992
655	16.712086	109563904	78786560	50912472	24992
656	20.68455	109563904	78786560	46572168	24992
657	22.087471	109563904	78786560	43712560	24992
658	23.399278	109563904	78786560	42044232	24992
659	24.678584	109563904	78786560	41461776	24992
660	26.462934	109563904	78786560	41689248	24992
661	27.962794	109563904	79310848	42583144	24992
662	2.18016	109563904	79310848	44785272	24992
663	3.273183	109563904	79310848	46949024	24992
664	4.579692	109563904	79310848	49835680	24992
665	5.529006	109563904	79310848	53445992	24992
666	9.622147	109834240	79310848	41825176	24992
667	7.671052	109834240	79310848	46891616	24992
668	8.843061	109834240	79310848	52697136	24992
669	12.414157	109834240	79310848	43307192	24992
670	11.213379	109834240	79310848	50552696	24992
671	15.039986	109834240	79310848	42993392	24992
672	13.166419	109834240	79310848	51722464	24992
673	17.379996	109834240	79310848	45388376	24992
674	18.667514	109834240	79310848	40927744	24992
675	16.662057	109834240	79310848	51843064	24992
676	20.912343	109834240	79310848	47703528	24992
677	22.333745	110104576	79310848	45063024	24992
678	24.141933	110104576	79310848	43668616	24992
679	25.228407	110104576	79310848	43273840	24992
680	26.283248	110104576	79310848	43641104	24992
681	27.049804	110104576	79310848	44763192	24992
682	2.310978	110104576	79310848	47143248	24992
683	3.423786	110104576	79310848	49365456	24992
684	4.716333	110104576	79310848	52332040	24992
685	8.796759	110104576	79310848	40375112	24992
686	7.151945	110104576	79310848	44832024	24992
687	7.643463	110104576	79310848	50030320	24992
688	9.225789	110104576	79310848	55986296	24992
689	12.556911	110104576	79310848	46235480	24992
690	11.425271	110104576	79310848	53675912	24992
691	15.468321	110104576	79310848	45834200	24992
692	13.854233	110104576	79310848	54780720	24992
693	17.024984	110104576	79310848	48312664	24992
694	19.553468	110104576	79310848	43762424	24992
695	17.238674	110104576	79310848	54976744	24992
696	20.683683	110104576	79310848	50730112	24992
697	23.03393	110104576	79310848	47965456	24992
698	24.535889	110104576	79310848	46448000	24992
699	25.723061	110104576	79310848	45972272	24992
700	27.035186	110104576	79310848	46388592	24992
701	27.183143	110104576	79310848	47512096	24992
702	2.366758	110104576	79310848	49969768	24992
703	3.524332	110104576	79310848	52250824	24992
704	4.853301	110104576	79310848	55307944	24992
705	8.511658	110104576	79310848	43068328	24992
706	7.05491	110104576	79310848	47655736	24992
707	8.424585	110104576	79310848	53001080	24992
708	12.304221	110104576	79310848	43341672	24992
709	10.638777	110104576	79310848	50226320	24992
710	15.112674	110104576	79310848	42650040	24992
711	13.103694	110104576	79310848	51080832	24992
712	17.252924	110104576	79310848	44870968	24992
713	15.519444	110104576	79310848	54830048	24992
714	18.961893	110104576	79310848	49469736	24992
715	21.464059	110104576	79310848	45890720	24992
716	22.740418	110104576	79310848	43690464	24992
717	20.248294	110104576	79310848	56761160	24992
718	23.808417	110104576	79310848	54166400	24992
719	27.1604	110104576	79310848	52861520	24992
720	29.622018	110104576	79310848	52524816	24992
721	46.011598	109064192	78786560	15542912	24992
722	2.461464	109604864	78786560	21462336	24992
723	3.761059	109604864	78786560	23827344	24992
724	4.822606	109604864	78786560	26950272	24992
725	6.060912	109604864	78786560	30854456	24992
726	7.855149	109604864	78786560	19373408	24992
727	8.619891	109604864	78786560	24845000	24992
728	9.653715	109604864	78786560	31101352	24992
729	11.135801	109604864	78786560	21812416	24992
730	12.052892	109604864	78786560	29728240	24992
731	14.889239	109604864	78786560	22299816	24992
732	14.479942	109604864	78786560	31707856	24992
733	16.163752	109604864	78786560	25447032	24992
734	18.416293	109604864	78786560	21138336	24992
735	20.071998	109604864	78786560	18410616	24992
736	19.714001	109604864	78786560	30984840	24992
737	21.534639	109604864	78786560	28066880	24992
738	23.003074	109604864	78786560	26462344	24992
739	24.663796	109604864	78786560	25963576	24992
740	25.892697	109604864	78786560	26405008	24992
741	27.119836	109604864	78786560	27456360	24992
742	2.475889	109604864	78786560	30018336	24992
743	4.304944	109604864	78786560	16477528	24992
744	5.116575	109604864	78786560	19676152	24992
745	6.034177	109604864	78786560	23687192	24992
746	7.526817	109604864	78786560	28490808	24992
747	9.663804	109604864	78786560	18340600	24992
748	9.879947	109604864	78786560	24774864	24992
749	11.008116	109604864	78786560	32019128	24992
750	12.812487	109604864	78786560	23598528	24992
751	14.774939	109604864	78786560	17547648	24992
752	15.161784	109604864	78786560	27216608	24992
753	17.415453	109604864	78786560	22108712	24992
754	19.723287	109604864	78786560	18793080	24992
755	19.82201	109604864	78786560	30896240	24992
756	21.037424	109604864	78786560	27596640	24992
757	22.516185	109604864	78786560	25711992	24992
758	24.022292	109604864	78786560	24957272	24992
759	25.627214	109604864	78786560	25172592	24992
760	26.745446	109604864	78786560	26168640	24992
761	28.484325	109604864	78786560	27824152	24992
762	2.550626	109604864	78786560	30900376	24992
763	4.296412	109604864	78786560	17291456	24992
764	4.992467	109604864	78786560	20568064	24992
765	6.601849	109604864	78786560	24675472	24992
766	7.743674	109604864	78786560	29609304	24992
767	9.552438	109604864	78786560	19488096	24992
768	10.517537	109604864	78786560	26083104	24992
769	12.561531	109604864	78786560	18194936	24992
770	12.895833	109604864	78786560	26452952	24992
771	15.409365	109604864	78786560	20209632	24992
772	15.208287	109604864	78786560	30115720	24992
773	17.390052	109604864	78786560	24798416	24992
774	19.408494	109604864	78786560	21360280	24992
775	21.000837	109604864	78786560	19348552	24992
776	20.684935	109604864	78786560	32587936	24992
777	21.935742	109604864	78786560	30187312	24992
778	24.845648	109604864	78786560	29035552	24992
779	27.022202	109604864	78786560	28995232	24992
780	26.795084	109604864	78786560	29783048	24992
781	28.474654	109604864	78786560	31329248	24992
782	2.992985	109604864	78786560	18030304	24992
783	3.906955	109604864	78786560	20545232	24992
784	5.443732	109604864	78786560	23899936	24992
785	6.280932	109604864	78786560	28098992	24992
786	8.671528	109604864	78786560	17559872	24992
787	9.198843	109604864	78786560	23462520	24992
788	10.299355	109604864	78786560	30187192	24992
789	12.571184	109604864	78786560	21861456	24992
790	13.051493	109604864	78786560	30286744	24992
791	15.375745	109604864	78786560	23570120	24992
792	17.331557	109604864	78786560	18975032	24992
793	16.941008	109604864	78786560	29955096	24992
794	19.400577	109604864	78786560	25912920	24992
795	20.369274	109604864	78786560	23470880	24992
796	22.1835	109604864	78786560	22358784	24992
797	23.996069	109604864	78786560	22235560	24992
798	25.43349	109604864	78786560	22978560	24992
799	27.267758	109604864	78786560	24411920	24992
800	27.871992	109604864	78786560	26489392	24992
801	29.25732	109604864	78786560	29036472	24992
802	2.681757	109604864	78786560	32895864	24992
803	4.396039	109604864	78786560	19276512	24992
804	5.725195	109604864	78786560	22709200	24992
805	6.519287	109604864	78786560	27008096	24992
806	7.907517	109604864	78786560	32173280	24992
807	9.831834	109604864	78786560	22001160	24992
808	10.873864	109604864	78786560	28882568	24992
809	12.99949	109604864	78786560	20993128	24992
810	13.345176	109604864	78786560	29605344	24992
811	15.538353	109604864	78786560	23388024	24992
812	18.016262	109604864	78786560	19118920	24992
813	17.312165	109604864	78786560	30338104	24992
814	19.99736	109604864	78786560	26566104	24992
815	21.571968	109604864	78786560	24299768	24992
816	23.496421	109604864	78786560	23362528	24992
817	25.182955	109604864	78786560	23481216	24992
818	26.233306	109604864	78786560	24454736	24992
819	27.794829	109604864	78786560	26140296	24992
820	28.660132	109604864	78786560	28412392	24992
821	30.231986	109604864	78786560	31117576	24992
822	3.124762	109604864	78786560	18887184	24992
823	4.094255	109604864	78786560	21522264	24992
824	5.555178	109604864	78786560	25033000	24992
825	6.701294	109604864	78786560	29431328	24992
826	8.739337	109604864	78786560	19011144	24992
827	9.545437	109604864	78786560	25170632	24992
828	10.926076	109604864	78786560	32212528	24992
829	12.742597	109604864	78786560	23986408	24992
830	13.790994	109604864	78786560	32794064	24992
831	15.459311	109604864	78786560	26166144	24992
832	17.922484	109604864	78786560	21697096	24992
833	18.298612	109604864	78786560	33192256	24992
834	19.813582	109604864	78786560	29245480	24992
835	21.747661	109604864	78786560	26848488	24992
836	23.878326	109604864	78786560	25812768	24992
837	25.262225	109604864	78786560	25862096	24992
838	26.663786	109604864	78786560	26772224	24992
839	27.552121	109604864	78786560	28432256	24992
840	29.03162	109604864	78786560	30700720	24992
841	30.255773	109604864	78786560	33534808	24992
842	2.760464	109604864	78786560	24306992	24992
843	4.212518	109604864	78786560	27055520	24992
844	5.706208	109604864	78786560	30709952	24992
845	7.779386	109604864	78786560	19543784	24992
846	8.308175	109604864	78786560	25070960	24992
847	9.505985	109604864	78786560	31476024	24992
848	12.0762	109604864	78786560	22800944	24992
849	12.803878	109604864	78786560	31059688	24992
850	15.172824	109604864	78786560	24414432	24992
851	17.142969	109604864	78786560	19892736	24992
852	17.058413	109604864	78786560	30956304	24992
853	19.496361	109604864	78786560	27128040	24992
854	21.289768	109604864	78786560	24886728	24992
855	23.048939	109604864	78786560	23957288	24992
856	23.93655	109604864	78786560	24124120	24992
857	26.01248	109604864	78786560	25253912	24992
858	27.042954	109604864	78786560	27112136	24992
859	28.020512	109604864	78786560	29601160	24992
860	29.486926	109604864	78786560	32489952	24992
861	33.274107	109604864	78786560	22639936	24992
862	2.879416	109604864	78786560	32808928	24992
863	4.322181	109604864	78786560	35640240	24992
864	6.208671	109604864	78786560	23612552	24992
865	7.279482	109604864	78786560	28333560	24992
866	8.362267	109604864	78786560	34011264	24992
867	10.853378	109604864	78786560	24830816	24992
868	11.505539	109604864	78786560	32401024	24992
869	14.107468	109604864	78786560	25442616	24992
870	14.492813	109604864	78786560	34913528	24992
871	16.478929	109604864	78786560	29379384	24992
872	18.5497	109604864	78786560	25826120	24992
873	20.265277	109604864	78786560	23856200	24992
874	20.059589	109604864	78786560	37157720	24992
875	21.671813	109604864	78786560	35112376	24992
876	23.310603	109604864	78786560	34368480	24992
877	25.251337	109604864	78786560	34764440	24992
878	27.263499	109604864	78786560	35992848	24992
879	28.066935	109604864	78786560	37954592	24992
880	32.193842	109604864	78786560	27092768	24992
881	31.844198	109604864	78786560	32702760	24992
882	3.380421	109604864	78786560	23073024	24992
883	4.37633	109604864	78786560	25960848	24992
884	5.809435	109604864	78786560	29814104	24992
885	7.186748	109604864	78786560	34631088	24992
886	9.47736	109604864	78786560	24618280	24992
887	10.534616	109604864	78786560	31383920	24992
888	12.638815	109604864	78786560	23893840	24992
889	13.033261	109604864	78786560	32607152	24992
890	15.516952	109604864	78786560	26847680	24992
891	17.10192	109604864	78786560	37498128	24992
892	18.392943	109604864	78786560	32796664	24992
893	21.545154	109604864	78786560	29943128	24992
894	22.482546	109604864	78786560	28577808	24992
895	23.638308	109604864	78786560	28395200	24992
896	25.721124	109604864	78786560	29350336	24992
897	26.575301	109604864	78786560	31097944	24992
898	28.653491	109604864	78786560	33482040	24992
899	29.5855	109604864	78786560	36397424	24992
900	33.172886	109604864	78786560	26526008	24992
901	36.988427	109604864	78786560	35678032	24992
902	3.474511	109875200	79310848	26857048	24992
903	4.43267	109875200	79310848	29803144	24992
904	5.803728	109875200	79310848	33781080	24992
905	7.401312	109875200	79310848	38743048	24992
906	9.729093	109875200	79310848	28876312	24992
907	10.472906	109875200	79310848	35801720	24992
908	12.991309	109875200	79310848	28448496	24992
909	13.394341	109875200	79310848	37328992	24992
910	15.990251	109875200	79310848	31627432	24992
911	18.060586	109875200	79310848	27934600	24992
912	18.001527	109875200	79310848	39802240	24992
913	20.302758	109875200	79310848	36737712	24992
914	22.668766	109875200	79310848	35178520	24992
915	23.719834	109875200	79310848	34874184	24992
916	26.065582	109875200	79310848	35630832	24992
917	28.093409	110145536	79310848	37236856	24992
918	28.440183	110145536	79310848	39529488	24992
919	30.379524	110145536	79310848	42475728	24992
920	33.843814	110145536	79310848	32332992	24992
921	33.907597	110145536	79310848	38556448	24992
922	3.05227	110145536	79310848	32792912	24992
923	4.526759	110145536	79310848	35797472	24992
924	6.460243	110145536	79310848	39805240	24992
925	10.427115	110145536	79310848	31976928	24992
926	9.440679	110145536	79310848	38032736	24992
927	10.532849	110145536	79310848	45056088	24992
928	12.616459	110145536	79310848	36981968	24992
929	14.032091	110145536	79310848	46028408	24992
930	15.924147	110145536	79310848	39659712	24992
931	18.581247	110145536	79310848	35501056	24992
932	20.226191	110145536	79310848	33060968	24992
933	20.375148	110145536	79310848	46178392	24992
934	21.936073	110145536	79310848	43859776	24992
935	24.578984	110145536	79310848	43078912	24992
936	25.649261	110145536	79310848	43393848	24992
937	27.160712	110145536	79310848	44625728	24992
938	32.369361	110145536	79310848	33418392	24992
939	34.611604	110145536	79310848	41345408	24992
940	33.457922	110145536	79310848	46616904	24992
941	37.09574	110145536	79310848	39005944	24992
942	3.11603	110145536	79310848	51009032	24992
943	5.957569	110145536	79310848	38526680	24992
944	6.539457	110145536	79310848	42627856	24992
945	7.852948	110145536	79310848	47754752	24992
946	10.787763	110145536	79310848	38572120	24992
947	10.987974	110145536	79310848	45746400	24992
948	14.075672	110145536	79310848	38953360	24992
949	14.170518	110145536	79310848	48326328	24992
950	16.91001	110145536	79310848	43060432	24992
951	19.381916	110145536	79310848	39956608	24992
952	19.154965	110145536	79310848	52521704	24992
953	21.186315	110145536	79310848	49582192	24992
954	23.977121	110145536	79310848	48221560	24992
955	25.716706	110145536	79310848	48248616	24992
956	26.485669	110145536	79310848	49295096	24992
957	28.782825	110145536	79310848	51181712	24992
958	29.72804	110145536	79310848	53795744	24992
959	33.954177	110145536	79310848	43340128	24992
960	34.615738	110145536	79310848	49389816	24992
961	38.078162	110145536	79310848	42580720	24992
962	3.45005	110956544	80359424	55219264	24992
963	7.135713	111497216	80883712	42717184	24992
964	6.912955	111497216	80883712	46880888	24992
965	12.367042	111497216	80883712	52129816	24992
966	18.568325	111497216	80883712	43028800	24992
967	17.616634	107954176	78262272	23208936	24992
968	13.288977	107954176	78262272	31634504	24992
969	14.926393	109035520	78262272	24988848	24992
970	17.4384	109035520	78262272	20636952	24992
971	17.634527	109035520	78262272	32124448	24992
972	19.855044	109035520	78262272	28567080	24992
973	22.23697	109035520	78262272	26684256	24992
974	24.07656	109035520	78262272	26196744	24992
975	26.059876	109035520	78262272	26913144	24992
976	27.728706	109035520	78262272	28564848	24992
977	28.090127	109035520	78262272	30940216	24992
978	30.500383	109035520	78262272	33902336	24992
979	33.090109	109035520	78262272	23862080	24992
980	33.993948	109035520	78262272	30223808	24992
981	37.925253	109035520	78262272	23587760	24992
982	3.270749	109035520	78262272	36511432	24992
983	5.55541	109035520	78262272	24015888	24992
984	6.692354	109035520	78262272	28257792	24992
985	7.70648	109035520	78262272	33573536	24992
986	10.736827	109035520	78262272	24404560	24992
987	11.42453	109035520	78262272	31837488	24992
988	14.28832	109035520	78262272	25041512	24992
989	14.919927	109035520	78262272	34640464	24992
990	17.414894	109035520	78262272	29564768	24992
991	19.706185	109035520	78262272	26419872	24992
992	21.364503	109035520	78262272	24893904	24992
993	23.074565	109035520	78262272	24728384	24992
994	24.615616	109035520	78262272	25636568	24992
995	26.162046	109035520	78262272	27523816	24992
996	28.685221	109035520	78262272	30074888	24992
997	30.110564	109035520	78262272	33291456	24992
998	30.913818	109035520	78262272	37014104	24992
999	34.536249	109035520	78262272	27869656	24992
1000	38.148098	109035520	78262272	38030224	24992
