x	Duration	RSS	HeapTotal	HeapUsed	External
0	NA	116277248	81932288	14500688	33184
1	0.319394	116277248	81932288	14552936	33184
2	0.248715	116277248	81932288	14620896	33184
3	0.27698	116277248	81932288	14713592	33184
4	0.357168	116277248	81932288	14832696	33184
5	0.402059	116277248	81932288	14979968	33184
6	0.466062	116277248	81932288	15156096	33184
7	0.534492	116277248	81932288	15362312	33184
8	0.633565	116277248	81932288	15599832	33184
9	0.688756	116277248	81932288	15871192	33184
10	0.779905	116277248	81932288	16176648	33184
11	1.171162	116277248	81932288	16517408	33184
12	0.646901	116277248	81932288	16894760	33184
13	0.842102	116277248	81932288	17309936	33184
14	0.920656	116277248	81932288	17770152	33184
15	0.975637	116277248	81932288	18264432	33184
16	0.866127	116277248	81932288	18800136	33184
17	0.981006	116277248	81932288	19380376	33184
18	1.028701	116277248	81932288	20004512	33184
19	1.465536	116277248	81932288	20680056	33184
20	1.132501	116277248	81932288	21398456	33184
21	1.178481	116277248	81932288	22161960	33184
22	1.47138	116277248	81932288	22975096	33184
23	1.322366	116277248	81932288	23839128	33184
24	1.746576	116277248	81932288	24755296	33184
25	1.515179	116277248	81932288	25725736	33184
26	1.491993	116277248	81932288	26748160	33184
27	1.582316	116277248	81932288	27826168	33184
28	1.649241	116277248	81932288	28961104	33184
29	1.919973	116277248	81932288	30154240	33184
30	2.822168	116277248	81932288	15182912	33184
31	2.117623	116277248	81932288	16496096	33184
32	2.220219	116277248	81932288	17873720	33184
33	2.895558	116277248	81932288	19318752	33184
34	2.448459	116277248	81932288	20828504	33184
35	2.360173	116277248	81932288	22403752	33184
36	2.44875	116277248	81932288	24045848	33184
37	2.764846	116277248	81932288	25776856	33184
38	2.502873	116277248	81932288	27556208	33184
39	2.947197	116277248	81932288	29408096	33184
40	2.83227	116277248	81932288	31329616	33184
41	4.336034	116277248	81932288	17130184	33184
42	3.377915	116277248	81932288	19198960	33184
43	3.061631	116277248	81932288	21343224	33184
44	3.088196	116277248	81932288	23564976	33184
45	3.426246	116277248	81932288	25867112	33184
46	3.656913	116277248	81932288	28251688	33184
47	3.434764	116277248	81932288	30716032	33184
48	4.864301	116277248	81932288	17056168	33184
49	3.928583	116277248	81932288	19688216	33184
50	4.543017	116277248	81932288	22407328	33184
51	4.457951	116277248	81932288	25221712	33184
52	0.288998	116277248	81932288	28031640	33184
53	0.418856	116277248	81932288	28296824	33184
54	0.544388	116277248	81932288	28652528	33184
55	0.667428	116277248	81932288	29100080	33184
56	0.795068	116277248	81932288	29641160	33184
57	0.944306	116277248	81932288	30276528	33184
58	1.056046	116277248	81932288	31007352	33184
59	1.188233	116277248	81932288	31834944	33184
60	2.5908	116277248	81932288	16549976	33184
61	1.474336	116277248	81932288	17575576	33184
62	1.610959	116277248	81932288	18701608	33184
63	1.905677	116277248	81932288	19929256	33184
64	2.101667	116277248	81932288	21259776	33184
65	2.317259	116277248	81932288	22694336	33184
66	2.82851	116277248	81932288	24234224	33184
67	2.49894	116277248	81932288	25883624	33184
68	2.548092	116277248	81932288	27639648	33184
69	2.678222	116277248	81932288	29504696	33184
70	2.983882	116277248	81932288	31480248	33184
71	4.124149	116277248	81932288	17517464	33184
72	3.393977	116277248	81932288	19717104	33184
73	3.563201	116277248	81932288	22030568	33184
74	3.639778	116277248	81932288	24459712	33184
75	3.875484	116277248	81932288	27004824	33184
76	3.863609	116277248	81932288	29667288	33184
77	4.099787	116277248	81932288	32448616	33184
78	5.02455	116277248	81932288	19255176	33184
79	4.453984	116277248	81932288	22277712	33184
80	4.481758	116277248	81932288	25422904	33184
81	4.726331	116277248	81932288	28692656	33184
82	5.140431	116277248	81932288	32086176	33184
83	6.343093	116277248	81932288	19544976	33184
84	5.41179	116277248	81932288	23201328	33184
85	5.404161	116277248	81932288	26987216	33184
86	5.681295	116277248	81932288	30903288	33184
87	7.033418	116277248	81932288	19011664	33184
88	6.663772	116277248	81932288	23195048	33184
89	6.10862	116277248	81932288	27511624	33184
90	6.44885	116277248	81932288	31964144	33184
91	7.884953	116277248	81932288	20473504	33184
92	6.649007	116277248	81932288	25205752	33184
93	7.00973	116277248	81932288	30081696	33184
94	8.505242	116277248	81932288	19289064	33184
95	7.496831	116277248	81932288	24450248	33184
96	7.455567	116277248	81932288	29756472	33184
97	8.922975	116277248	81932288	19448568	33184
98	8.142362	116277248	81932288	25049560	33184
99	9.124525	116277248	81932288	30807232	33184
100	10.353273	116277248	81932288	20830000	33184
101	8.752548	116277248	81932288	26882160	33184
102	0.479974	116277248	81932288	33078648	33184
103	0.698764	116277248	81932288	33537440	33184
104	0.908435	116277248	81932288	34151312	33184
105	2.34947	116277248	81932288	18731280	33184
106	1.360898	116277248	81932288	19659648	33184
107	1.580248	116277248	81932288	20746784	33184
108	1.868393	116277248	81932288	21993928	33184
109	2.229163	116277248	81932288	23402544	33184
110	2.271378	116277248	81932288	24974528	33184
111	2.675442	116277248	81932288	26710256	33184
112	2.767988	116277248	81932288	28610856	33184
113	2.946385	116277248	81932288	30677784	33184
114	3.195182	116277248	81932288	32912048	33184
115	4.667833	116277248	81932288	19280672	33184
116	3.675148	116277248	81932288	21853480	33184
117	3.898601	116277248	81932288	24597280	33184
118	4.349948	116277248	81932288	27515208	33184
119	4.401537	116277248	81932288	30606840	33184
120	4.841814	116277248	81932288	33875520	33184
121	6.590919	116277248	81932288	21178136	33184
122	5.175216	116277248	81932288	24798392	33184
123	5.409855	116277248	81932288	28596896	33184
124	5.653717	116277248	81932288	32575256	33184
125	7.286402	116277248	81932288	20740768	33184
126	6.396023	116277248	81932288	25081912	33184
127	6.439765	116277248	81932288	29606272	33184
128	7.091411	116277248	81932288	34316400	33184
129	8.463863	116277248	81932288	23009064	33184
130	7.968103	116277248	81932288	28092416	33184
131	7.793779	116277248	81932288	33362688	33184
132	9.184612	116277248	81932288	22758392	33184
133	8.073988	116277248	81932288	28412568	33184
134	8.557558	116277248	81932288	34261744	33184
135	9.948263	116277248	81932288	24131672	33184
136	8.920834	116277248	81932288	30369000	33184
137	10.686501	116277248	81932288	21149760	33184
138	9.676056	116277248	81932288	27780640	33184
139	9.938514	116277248	81932288	34609264	33184
140	11.378396	116277248	81932288	25448520	33184
141	10.578005	116277248	81932288	32676688	33184
142	12.356904	116277248	81932288	24194440	33184
143	11.132991	116277248	81932288	31831104	33184
144	12.845559	116277248	81932288	23883496	33184
145	11.577698	116277248	81932288	31933464	33184
146	13.860621	116277248	81932288	24408840	33184
147	12.3566	116277248	81932288	32878264	33184
148	14.019796	116277248	81932288	25654160	33184
149	13.004516	116277248	81932288	34546360	33184
150	15.062018	116277248	81932288	27558808	33184
151	16.181426	116277248	81932288	21705776	33184
152	0.688739	116277248	81932288	31305896	33184
153	0.983351	116277248	81932288	31954152	33184
154	1.288269	116277248	81932288	32820824	33184
155	1.814646	116277248	81932288	33907016	33184
156	1.914403	116277248	81932288	35214512	33184
157	2.243727	116277248	81932288	36743944	33184
158	3.903725	116277248	81932288	22189960	33184
159	3.240487	116277248	81932288	24167072	33184
160	3.226705	116277248	81932288	26370920	33184
161	3.536957	116277248	81932288	28801768	33184
162	3.927046	116277248	81932288	31460704	33184
163	4.237228	116277248	81932288	34350704	33184
164	6.02775	116277248	81932288	21499856	33184
165	5.17357	116277248	81932288	24850672	33184
166	5.211395	116277248	81932288	28434512	33184
167	5.727017	116277248	81932288	32252752	33184
168	5.854363	116277248	81932288	36311096	33184
169	7.773483	116277248	81932288	24377864	33184
170	6.744266	116277248	81932288	28908144	33184
171	6.933404	116277248	81932288	33677768	33184
172	9.077443	116277248	81932288	22832440	33184
173	7.692487	116277248	81932288	28084328	33184
174	8.500433	116277248	81932288	33579000	33184
175	10.319395	116277248	81932288	23466880	33184
176	9.24625	116277248	81932288	29451208	33184
177	9.298519	116277248	81932288	35682304	33184
178	11.219752	116277248	81932288	26050296	33184
179	9.876841	116277248	81932288	32777784	33184
180	12.499269	116277248	81932288	24043520	33184
181	10.970684	116277248	81932288	31282464	33184
182	13.08439	116277248	81932288	23248352	33184
183	11.272078	116277248	81932288	31003256	33184
184	13.739574	116277248	81932288	23552072	33184
185	12.376158	116277248	81932288	31831544	33184
186	14.585526	116277248	81932288	24818168	33184
187	12.941144	116277248	81932288	33622496	33184
188	15.092538	116277248	81932288	26913248	33184
189	13.539505	116277248	81932288	36247352	33184
190	15.748055	116277248	81932288	29719736	33184
191	16.734779	116277248	81932288	24350712	33184
192	14.86848	116277248	81932288	34488832	33184
193	16.956755	116277248	81932288	29033824	33184
194	18.833029	116277248	81932288	24587616	33184
195	16.009515	116277248	81932288	35540552	33184
196	18.5727	116277248	81932288	30771168	33184
197	19.531909	116277248	81932288	26958272	33184
198	17.569808	116277248	81932288	38742464	33184
199	19.592386	116277248	81932288	34444024	33184
200	20.572119	116277248	81932288	30994832	33184
201	20.774587	116277248	81932288	28287792	33184
202	0.875544	116277248	81932288	26343896	33184
203	1.269062	116277248	81932288	27188728	33184
204	1.666701	116277248	81932288	28321072	33184
205	2.090792	116277248	81932288	29734808	33184
206	2.483401	116277248	81932288	31435888	33184
207	2.96532	116277248	81932288	33424056	33184
208	3.963351	116277248	81932288	35703952	33184
209	3.931135	116277248	81932288	38270808	33184
210	5.783483	116277248	81932288	24911536	33184
211	4.77402	116277248	81932288	28063096	33184
212	5.004301	116277248	81932288	31508176	33184
213	5.718367	116277248	81932288	35250608	33184
214	5.859992	116277248	81932288	39287632	33184
215	7.967808	116277248	81932288	27279560	33184
216	6.760114	116277248	81932288	31911520	33184
217	7.357521	116277248	81932288	36843320	33184
218	9.685032	116277248	81932288	26070496	33184
219	8.137259	116277248	81932288	31607464	33184
220	8.650317	116277248	81932288	37448744	33184
221	10.804989	116277248	81932288	27502520	33184
222	9.363557	116277248	81932288	33953784	33184
223	12.064761	116277248	81932288	25091200	33184
224	10.55703	116277248	81932288	32159016	33184
225	10.897585	116277248	81932288	39535720	33184
226	12.773237	116277248	81932288	30868616	33184
227	11.791341	116277248	81932288	38868096	33184
228	13.801413	116277248	81932288	30931904	33184
229	12.712485	116277248	81932288	39565288	33184
230	14.867005	116277248	81932288	32176792	33184
231	15.802789	116277248	81932288	26103736	33184
232	14.285459	116277248	81932288	35693928	33184
233	16.517876	116277248	81932288	29802256	33184
234	14.923386	116277248	81932288	40045176	33184
235	17.385234	116277248	81932288	34262112	33184
236	18.063449	116277248	81932288	29561440	33184
237	19.438891	116277248	81932288	25822136	33184
238	17.501006	116277248	81932288	37377184	33184
239	19.48562	116277248	81932288	33251768	33184
240	20.735023	116277248	81932288	30039560	33184
241	21.489719	116277248	81932288	27573424	33184
242	19.069376	116277248	81932288	40449104	33184
243	21.577201	116277248	81932288	37299512	33184
244	21.831563	116277248	81932288	34923112	33184
245	22.649398	116277248	81932288	33176728	33184
246	23.48537	116277248	81932288	32042560	33184
247	25.427642	116277248	81932288	31420320	33184
248	24.907831	116277248	81932288	31206600	33184
249	26.111566	116277248	81932288	31382096	33184
250	25.828479	116277248	81932288	31877608	33184
251	26.35707	116277248	81932288	32664448	33184
252	1.067462	116277248	81932288	33919000	33184
253	1.550636	116277248	81932288	34956552	33184
254	2.066431	116277248	81932288	36342184	33184
255	2.546663	116277248	81932288	38077024	33184
256	3.106733	116277248	81932288	40163024	33184
257	6.392174	116277248	81932288	26432504	33184
258	4.10389	116277248	81932288	29223232	33184
259	4.990347	116277248	81932288	32368136	33184
260	5.11253	116277248	81932288	35869656	33184
261	5.846726	116277248	81932288	39727768	33184
262	8.088352	116277248	81932288	27823440	33184
263	6.695992	116277248	81932288	32398512	33184
264	7.205708	116277248	81932288	37337192	33184
265	10.130019	116277248	81932288	26879728	33184
266	8.47795	116277248	81932288	32539440	33184
267	9.025329	116277248	81932288	38563192	33184
268	11.448138	116277248	81932288	29022112	33184
269	10.181009	116277248	81932288	35779584	33184
270	12.976894	116277248	81932288	27347440	33184
271	11.140683	116277248	81932288	34845488	33184
272	14.248564	116277248	81932288	27294416	33184
273	12.624391	116277248	81932288	35530464	33184
274	15.194678	116277248	81932288	28625128	33184
275	13.422785	116277248	81932288	37613368	33184
276	16.097071	116277248	81932288	31197720	33184
277	14.501072	116277248	81932288	40934216	33184
278	16.859393	116277248	81932288	34834792	33184
279	18.089319	116277248	81932288	29952464	33184
280	16.119146	116277248	81932288	40823096	33184
281	19.053017	116277248	81932288	35863928	33184
282	19.596869	116277248	81932288	31972768	33184
283	21.318078	116277248	81932288	28985768	33184
284	18.974943	116277248	81932288	41406248	33184
285	20.800049	116277248	81932288	37948760	33184
286	21.933245	116277248	81932288	35381504	33184
287	23.418266	116277248	81932288	33506600	33184
288	23.64388	116277248	81932288	32311944	33184
289	24.565063	116277248	81932288	31674704	33184
290	25.500577	116277248	81932288	31550648	33184
291	25.87863	116277248	81932288	31839960	33184
292	26.662739	116277248	81932288	32502768	33184
293	28.138923	116277248	81932288	33454048	33184
294	27.682093	116277248	81932288	34699440	33184
295	28.065567	116277248	81932288	36171624	33184
296	28.548076	116277248	81932288	37834368	33184
297	28.562416	116277248	81932288	39699408	33184
298	30.072766	116277248	81932288	41733704	33184
299	29.45714	116277248	81932288	43889752	33184
300	34.864949	116277248	81932288	31955360	33184
301	32.214657	116277248	81932288	36299800	33184
302	1.267278	116277248	81932288	40753344	33184
303	1.850722	116277248	81932288	41974912	33184
304	2.440163	116277248	81932288	43608288	33184
305	5.114744	116277248	81932288	29351752	33184
306	3.705833	116277248	81932288	31805792	33184
307	4.451994	116277248	81932288	34673096	33184
308	4.872384	116277248	81932288	37955760	33184
309	5.473147	116277248	81932288	41654208	33184
310	8.461648	116277248	81932288	29703952	33184
311	6.950722	116277248	81932288	34237000	33184
312	7.337231	116277248	81932288	39189160	33184
313	11.76661	116277248	81932288	28864312	33184
314	9.033663	116277248	81932288	34661256	33184
315	9.372001	116277248	81932288	40879528	33184
316	12.485407	116277248	81932288	31656368	33184
317	10.699211	116277248	81932288	38723240	33184
318	13.675995	116277248	81932288	30592504	33184
319	11.940706	116277248	81932288	38515752	33184
320	14.983241	116277248	81932288	31262416	33184
321	13.024556	116277248	81932288	40045192	33184
322	16.51679	116277248	81932288	33473104	33184
323	14.657187	116277248	81932288	43122760	33184
324	17.750119	116277248	81932288	37012328	33184
325	18.98438	116277248	81932288	32169080	33184
326	16.531865	116277248	81932288	43123328	33184
327	19.749837	116277248	81932288	38302512	33184
328	20.347783	116277248	81932288	34593064	33184
329	21.942531	116277248	81932288	31822616	33184
330	19.209594	116277248	81932288	44534720	33184
331	22.280161	116277248	81932288	41336024	33184
332	22.968994	116277248	81932288	39024968	33184
333	24.492061	116277248	81932288	37452936	33184
334	24.707919	116277248	81932288	36582912	33184
335	25.654062	116277248	81932288	36269320	33184
336	26.240367	116277248	81932288	36462296	33184
337	26.839597	116277248	81932288	37079576	33184
338	27.879451	116277248	81932288	38067656	33184
339	27.977237	116277248	81932288	39398920	33184
340	29.044469	116277248	81932288	40998480	33184
341	29.16737	116277248	81932288	42842080	33184
342	30.002422	116277248	81932288	44879064	33184
343	35.109443	116277248	81932288	33008712	33184
344	33.029343	116277248	81932288	37352560	33184
345	32.433324	116277248	81932288	41582648	33184
346	32.254666	116277248	81932288	45694568	33184
347	37.752673	116277248	81932288	35560088	33184
348	34.810475	116277248	81932288	41412744	33184
349	40.904248	116277248	81932288	33315640	33184
350	39.111926	116277248	81932288	42688112	33184
351	41.857234	116277248	81932288	35990256	33184
352	1.458025	116277248	81932288	46640080	33184
353	2.156605	116277248	81932288	48045792	33184
354	2.842759	116277248	81932288	49922240	33184
355	3.559647	116277248	81932288	52270968	33184
356	6.658652	116277248	81932288	38733536	33184
357	5.141812	116277248	81932288	42030192	33184
358	5.689215	116277248	81932288	45810760	33184
359	6.381805	116277248	81932288	50076648	33184
360	9.803272	116277248	81932288	38725448	33184
361	7.845914	116277248	81932288	43975264	33184
362	8.520545	116277248	81932288	49718352	33184
363	12.070964	116277248	81932288	39914144	33184
364	10.271508	116277248	81932288	46650824	33184
365	13.836614	116277248	81932288	38264304	33184
366	11.43919	116277248	81932288	45993024	33184
367	15.499409	116277248	81932288	38673920	33184
368	13.08214	116277248	81932288	47405712	33184
369	16.717314	116277248	81932288	40919088	33184
370	14.864934	116277248	81932288	50658872	33184
371	17.744504	116277248	81932288	44737200	33184
372	19.165913	116277248	81932288	40131928	33184
373	16.895968	116277248	81932288	51385544	33184
374	20.817557	116277248	81932288	46898256	33184
375	21.76025	116277248	81932288	43554768	33184
376	23.504119	116277248	81932288	41166392	33184
377	24.214471	116277248	81932288	39631320	33184
378	24.7199	116277248	81932288	38815480	33184
379	21.786486	116277248	81932288	53146280	33184
380	24.696057	116277248	81932288	51553496	33184
381	25.239126	116277248	81932288	50680008	33184
382	26.713373	116277248	81932288	50445248	33184
383	26.830883	116277248	81932288	50778648	33184
384	27.980275	116277248	81932288	51564720	33184
385	28.496697	116277248	81932288	52783168	33184
386	34.191576	116277248	81932288	40207504	33184
387	31.66372	116277248	81932288	44021624	33184
388	31.572198	116277248	81932288	47897232	33184
389	31.779695	116277248	81932288	51769192	33184
390	37.745494	116277248	81932288	41630352	33184
391	36.710542	116277248	81932288	49767000	33184
392	34.892998	116277248	81932288	55545448	33184
393	39.64419	116277248	81932288	46709872	33184
394	36.666168	116277248	81932288	53758976	33184
395	41.88177	116277248	81932288	46516368	33184
396	43.49575	116277248	81932288	57325448	33184
397	54.310335	116817920	82456576	51403696	33184
398	52.594002	115838976	81408000	22461336	33184
399	40.324783	115838976	81408000	34762120	33184
400	40.413316	115838976	81408000	30028264	33184
401	41.707085	115838976	81408000	26590440	33184
402	1.627019	115838976	81408000	28329048	33184
403	2.413691	115838976	81408000	29956888	33184
404	3.14546	115838976	81408000	32131096	33184
405	3.973617	115838976	81408000	34849928	33184
406	4.81001	115838976	81408000	38116704	33184
407	8.1403	115838976	81408000	27843688	33184
408	6.346529	115838976	81408000	32208456	33184
409	7.138271	115838976	81408000	37129048	33184
410	8.99099	115838976	81408000	26998304	33184
411	8.709184	115838976	81408000	33021088	33184
412	9.654898	115838976	81408000	39598048	33184
413	11.020617	115838976	81408000	30633824	33184
414	11.177856	115838976	81408000	38324192	33184
415	13.417457	115838976	81408000	30660504	33184
416	12.744541	115838976	81408000	39471432	33184
417	14.227202	115838976	81408000	32778240	33184
418	15.861392	115838976	81408000	27543376	33184
419	15.643713	115838976	81408000	38043648	33184
420	17.134223	115838976	81408000	33231744	33184
421	18.268667	115838976	81408000	29644072	33184
422	17.854786	115838976	81408000	41838816	33184
423	19.220137	115838976	81408000	38206608	33184
424	20.080065	115838976	81408000	35642264	33184
425	21.491229	115838976	81408000	33981352	33184
426	22.752167	115838976	81408000	33135160	33184
427	23.562574	115838976	81408000	33008768	33184
428	24.921209	115838976	81408000	33459424	33184
429	24.827547	115838976	81408000	34422824	33184
430	25.8097	115838976	81408000	35835360	33184
431	26.333303	115838976	81408000	37637576	33184
432	27.155625	115838976	81408000	39767328	33184
433	27.802228	115838976	81408000	42188864	33184
434	31.107129	115838976	81408000	30704056	33184
435	31.070321	115838976	81408000	35553944	33184
436	30.639043	115838976	81408000	40314592	33184
437	34.309881	115838976	81408000	31082112	33184
438	36.392443	115838976	81408000	40052296	33184
439	37.649709	115838976	81408000	32938528	33184
440	37.310124	115838976	81408000	43047856	33184
441	38.546188	115838976	81408000	36965976	33184
442	38.934994	115838976	81408000	48265224	33184
443	39.07122	115838976	81408000	42955000	33184
444	44.939286	115838976	81408000	42803968	33184
445	41.544574	115838976	81408000	55743240	33184
446	41.535739	115838976	81408000	51859064	33184
447	49.778837	116920320	82456576	53502680	33184
448	61.905484	120705024	86650880	55584720	33184
449	60.961737	120705024	86650880	28618288	33184
450	51.589526	120705024	86650880	31970264	33184
451	51.592037	120705024	86650880	35884720	33184
452	1.839493	120975360	86650880	40880328	33184
453	2.669858	120975360	86650880	42692176	33184
454	3.519084	120975360	86650880	45111432	33184
455	4.470794	120975360	86650880	48137336	33184
456	8.503483	120975360	86650880	38009936	33184
457	6.1997	120975360	86650880	42258232	33184
458	7.246373	120975360	86650880	47119168	33184
459	9.179609	120975360	86650880	37295008	33184
460	9.360293	120975360	86650880	43387120	33184
461	9.844274	120975360	86650880	50084536	33184
462	11.705778	120975360	86650880	41064016	33184
463	12.225572	120975360	86650880	48994536	33184
464	13.193817	120975360	86650880	41369616	33184
465	13.499134	120975360	86650880	50538480	33184
466	14.928813	120975360	86650880	43948720	33184
467	16.631806	120975360	86650880	38868944	33184
468	16.194189	120975360	86650880	49913408	33184
469	17.633529	120975360	86650880	45277080	33184
470	18.815567	120975360	86650880	41896392	33184
471	20.590038	120975360	86650880	39618448	33184
472	21.651959	120975360	86650880	38314576	33184
473	23.015129	120975360	86650880	37803216	33184
474	23.898554	120975360	86650880	38004672	33184
475	24.820398	120975360	86650880	38785176	33184
476	25.496491	120975360	86650880	40107864	33184
477	26.667272	120975360	86650880	41901792	33184
478	28.191129	120975360	86650880	44074944	33184
479	27.801129	120975360	86650880	46581352	33184
480	28.496965	120975360	86650880	49405728	33184
481	31.99271	120975360	86650880	38503936	33184
482	34.094749	120975360	86650880	45983280	33184
483	31.864934	120975360	86650880	51279840	33184
484	35.049958	120975360	86650880	42517216	33184
485	36.390499	120975360	86650880	51906312	33184
486	37.258308	120975360	86650880	45212560	33184
487	38.379927	120975360	86650880	55922368	33184
488	38.627267	120975360	86650880	50223864	33184
489	40.179191	120975360	86650880	62193608	33184
490	40.896133	120975360	86650880	57255512	33184
491	42.116456	120975360	86650880	53808936	33184
492	48.271179	123138048	88748032	55101800	33184
493	52.686141	125030400	90845184	69552240	33184
494	62.022539	123727872	89272320	24127696	33184
495	50.070454	123727872	89272320	27280224	33184
496	50.571944	123727872	89272320	31049744	33184
497	51.034843	123727872	89272320	35516232	33184
498	52.218182	123727872	89272320	40611192	33184
499	53.334846	124268544	89796608	46355464	33184
500	54.483778	124268544	89796608	52750848	33184
501	56.623685	124268544	89796608	59814320	33184
502	2.348424	124268544	89796608	55566104	33184
503	3.449139	124268544	89796608	57567152	33184
504	4.689	124268544	89796608	60230608	33184
505	5.6171	124268544	89796608	63563080	33184
506	8.001871	124268544	89796608	67565960	33184
507	17.512366	124809216	90845184	57852936	33184
508	17.24863	122187776	88223744	21191104	33184
509	9.226625	122187776	88223744	27212104	33184
510	10.203981	122187776	88223744	33911480	33184
511	11.708775	122187776	88223744	25041304	33184
512	12.170713	122187776	88223744	33095072	33184
513	13.201859	122187776	88223744	25677240	33184
514	13.874941	122187776	88223744	35087888	33184
515	15.237257	122187776	88223744	28778672	33184
516	16.986092	122187776	88223744	23985600	33184
517	16.878624	122187776	88223744	35452112	33184
518	18.183218	122187776	88223744	31128672	33184
519	19.687659	122187776	88223744	28083280	33184
520	21.144934	122187776	88223744	26154504	33184
521	22.381087	122187776	88223744	25161696	33184
522	23.626718	122187776	88223744	25010784	33184
523	24.36446	122187776	88223744	25548464	33184
524	25.255161	122187776	88223744	26724320	33184
525	26.706286	122187776	88223744	28461512	33184
526	27.031116	122187776	88223744	30606144	33184
527	28.382378	122187776	88223744	33196080	33184
528	32.010667	122187776	88223744	22179720	33184
529	33.358743	122187776	88223744	29522240	33184
530	31.641604	122187776	88223744	34721480	33184
531	35.045403	122187776	88223744	26043344	33184
532	36.559446	122187776	88223744	35481936	33184
533	37.969588	122187776	88223744	28898928	33184
534	39.167732	122187776	88223744	39730240	33184
535	39.470985	122187776	88223744	34169872	33184
536	41.007787	122187776	88223744	46448296	33184
537	41.308676	122187776	88223744	41697248	33184
538	42.518454	122187776	88223744	38504904	33184
539	47.927744	122187776	88223744	40238040	33184
540	50.25401	122998784	88748032	42584840	33184
541	51.280652	123269120	88748032	45611952	33184
542	51.066783	123269120	88748032	49367360	33184
543	51.957256	123269120	88748032	53854960	33184
544	68.952133	125702144	91369472	59054336	33184
545	63.268289	124653568	90320896	33438160	33184
546	56.180912	124653568	90320896	40165088	33184
547	60.763075	124653568	90320896	34985704	33184
548	57.239932	124653568	90320896	43031984	33184
549	59.527845	125194240	90845184	51800264	33184
550	63.416247	125194240	90845184	48723952	33184
551	60.66657	125194240	90845184	58979688	33184
552	2.428913	125734912	91369472	58051120	33184
553	3.577512	125734912	91369472	60238632	33184
554	4.778733	125734912	91369472	63151992	33184
555	5.928494	125734912	91369472	66791136	33184
556	12.288994	127627264	93466624	57217272	33184
557	8.505866	127627264	93466624	62340592	33184
558	10.630252	127627264	93466624	68202504	33184
559	19.694056	127627264	93466624	58967368	33184
560	20.74892	124481536	90320896	23814496	33184
561	12.10072	124481536	90320896	31903504	33184
562	13.732614	124481536	90320896	24830760	33184
563	14.343588	124481536	90320896	34410968	33184
564	15.673191	124481536	90320896	28537944	33184
565	17.395261	124481536	90320896	24202112	33184
566	17.403395	124481536	90320896	36032176	33184
567	19.092578	124481536	90320896	32147336	33184
568	20.900653	124481536	90320896	29573904	33184
569	21.900988	124481536	90320896	28084272	33184
570	23.670001	124481536	90320896	27581344	33184
571	24.350588	124481536	90320896	27890488	33184
572	26.488653	124481536	90320896	28980808	33184
573	26.583469	124481536	90320896	30623752	33184
574	27.209683	124481536	90320896	32816880	33184
575	28.407457	124481536	90320896	35470288	33184
576	31.506068	124481536	90320896	24464736	33184
577	31.896536	124481536	90320896	29848936	33184
578	31.52666	124481536	90320896	35236720	33184
579	36.300541	124481536	90320896	26616840	33184
580	37.105529	124481536	90320896	36685704	33184
581	38.362125	124481536	90320896	30355480	33184
582	39.476461	124481536	90320896	41962336	33184
583	39.822259	124481536	90320896	36755264	33184
584	42.518798	124481536	90320896	33119616	33184
585	48.321625	124481536	90320896	34388328	33184
586	44.84089	124481536	90320896	48895768	33184
587	44.320683	124481536	90320896	46431104	33184
588	46.716151	124481536	90320896	45241360	33184
589	52.384329	124751872	90320896	49668792	33184
590	53.973752	124751872	90320896	54635576	33184
591	54.513817	124751872	90320896	60499528	33184
592	61.23901	124751872	90320896	54514224	33184
593	78.142536	126914560	92942336	61875128	33184
594	67.617267	124817408	90845184	25962512	33184
595	60.107947	124817408	90845184	34866008	33184
596	59.854767	124817408	90845184	44593280	33184
597	65.046532	124817408	90845184	42538304	33184
598	62.671641	125358080	90845184	53884440	33184
599	68.682674	125358080	90845184	53424952	33184
600	64.748021	125358080	90845184	66270560	33184
601	77.779191	127520768	93466624	67383496	33184
602	2.411265	129359872	95039488	36990368	33184
603	8.269987	129359872	95039488	26725976	33184
604	4.835101	129359872	95039488	29907640	33184
605	5.871819	129359872	95039488	33888248	33184
606	7.399401	129359872	95039488	38672448	33184
607	10.126229	129359872	95039488	29534408	33184
608	9.397721	129359872	95039488	35917304	33184
609	11.525765	129359872	95039488	27386616	33184
610	11.878767	129359872	95039488	35379920	33184
611	13.963241	129359872	95039488	28516512	33184
612	14.478909	129359872	95039488	38120304	33184
613	15.801285	129359872	95039488	32546800	33184
614	18.361233	129359872	95039488	28561400	33184
615	17.766272	129359872	95039488	40600072	33184
616	19.247507	129359872	95039488	37097992	33184
617	20.927323	129359872	95039488	34889888	33184
618	22.566572	129359872	95039488	33820440	33184
619	23.851537	129359872	95039488	33690648	33184
620	25.376957	129359872	95039488	34392632	33184
621	26.080309	129359872	95039488	35808272	33184
622	27.322561	129359872	95039488	37867984	33184
623	27.79292	129359872	95039488	40476496	33184
624	32.274052	129359872	95039488	29465448	33184
625	34.03984	129359872	95039488	37283472	33184
626	32.252458	129359872	95039488	43017592	33184
627	35.821958	129359872	95039488	34505400	33184
628	38.314434	129359872	95039488	44820808	33184
629	38.534309	129359872	95039488	38655480	33184
630	44.572679	129359872	95039488	37984264	33184
631	41.529145	129359872	95039488	50586208	33184
632	42.331691	129359872	95039488	46719592	33184
633	47.911745	129359872	95039488	48510176	33184
634	49.081198	129359872	95039488	51017248	33184
635	50.953716	129359872	95039488	54405088	33184
636	52.199944	129359872	95039488	58478904	33184
637	75.717474	130170880	96088064	63527016	33184
638	55.144741	123355136	89272320	36117880	33184
639	59.446343	123355136	89272320	30372000	33184
640	56.909361	123355136	89272320	37955568	33184
641	57.559512	123355136	89272320	46242352	33184
642	63.862858	124166144	89796608	42943384	33184
643	60.015836	124166144	89796608	52987808	33184
644	61.144629	124166144	89796608	63828160	33184
645	69.507751	124977152	90845184	63003344	33184
646	94.581741	128417792	95563776	33035576	33184
647	69.947392	129765376	95563776	33107376	33184
648	66.34177	129765376	95563776	47364696	33184
649	71.448857	129765376	95563776	49942672	33184
650	73.280944	129765376	95563776	53378968	33184
651	74.890504	130035712	95563776	57695024	33184
652	2.558868	130035712	95563776	63651224	33184
653	3.838006	130035712	95563776	66219808	33184
654	5.081991	130035712	95563776	69646840	33184
655	10.224744	130035712	95563776	60338168	33184
656	8.668441	130035712	95563776	65486104	33184
657	9.931442	130035712	95563776	71496160	33184
658	13.151645	130035712	95563776	62811464	33184
659	15.759047	130035712	95563776	70560320	33184
660	24.960379	125317120	90320896	17561208	33184
661	15.416647	124792832	90320896	27046736	33184
662	16.908338	124792832	90320896	22290856	33184
663	18.445293	124792832	90320896	18643440	33184
664	18.407432	124792832	90320896	30728416	33184
665	19.546081	124792832	90320896	27425816	33184
666	21.093308	124792832	90320896	25455352	33184
667	22.807382	124792832	90320896	24625304	33184
668	24.273346	124792832	90320896	24804720	33184
669	25.722998	124792832	90320896	25856992	33184
670	26.745357	124792832	90320896	27608504	33184
671	27.794173	124792832	90320896	30024712	33184
672	32.356649	124792832	90320896	19047496	33184
673	34.257786	124792832	90320896	26659208	33184
674	32.56733	124792832	90320896	32251368	33184
675	36.313282	124792832	90320896	24003408	33184
676	37.894735	124792832	90320896	34287232	33184
677	39.954573	124792832	90320896	28323352	33184
678	40.566409	124792832	90320896	40330608	33184
679	41.002499	124792832	90320896	35545336	33184
680	43.977621	124792832	90320896	32481264	33184
681	48.041222	124792832	90320896	34475216	33184
682	50.0178	124792832	90320896	37311992	33184
683	52.306938	124792832	90320896	41041608	33184
684	52.333021	124792832	90320896	45695536	33184
685	59.926638	124792832	90320896	51208888	33184
686	76.952427	117723136	85078016	31751184	33184
687	57.049584	119345152	85078016	38762192	33184
688	62.161441	119345152	85078016	34382928	33184
689	60.11438	119345152	85078016	43469488	33184
690	60.264181	119345152	85078016	53455064	33184
691	65.680588	119345152	85078016	51887016	33184
692	67.135441	119885824	85602304	51133208	33184
693	66.527689	123400192	89272320	63800336	33184
694	97.723015	124755968	91893760	36040416	33184
695	71.883605	126103552	91893760	37211464	33184
696	72.885949	126103552	91893760	40131992	33184
697	73.938234	126103552	91893760	43914240	33184
698	76.099476	126103552	91893760	48621128	33184
699	77.665967	126103552	91893760	54237128	33184
700	80.385642	126914560	92942336	60817072	33184
701	109.784243	127291392	94515200	37756896	33184
702	7.352488	128638976	94515200	33689472	33184
703	4.341989	128638976	94515200	36446112	33184
704	5.742558	128638976	94515200	40118544	33184
705	7.252456	128638976	94515200	44716344	33184
706	10.898702	128638976	94515200	35853056	33184
707	9.821468	128638976	94515200	42292800	33184
708	12.079034	128638976	94515200	34124024	33184
709	12.732413	128638976	94515200	42414352	33184
710	14.91164	128638976	94515200	36098304	33184
711	15.056962	128638976	94515200	46250976	33184
712	17.224685	128638976	94515200	41261664	33184
713	18.827811	128638976	94515200	37893360	33184
714	21.18393	128638976	94515200	35973664	33184
715	22.956071	128638976	94515200	35268584	33184
716	24.467794	128638976	94515200	35569160	33184
717	25.853276	128638976	94515200	36768792	33184
718	27.063813	128638976	94515200	38796616	33184
719	28.062443	128638976	94515200	41510192	33184
720	29.587924	128638976	94515200	44835128	33184
721	29.956783	128638976	94515200	48584016	33184
722	33.793899	128638976	94515200	38673400	33184
723	33.625217	128638976	94515200	45216656	33184
724	37.163599	128638976	94515200	38116584	33184
725	39.506908	128638976	94515200	49138960	33184
726	40.017775	128638976	94515200	43943032	33184
727	46.357894	128638976	94515200	44314488	33184
728	43.072734	128638976	94515200	58102744	33184
729	43.268446	128638976	94515200	55236096	33184
730	45.866122	128638976	94515200	53866608	33184
731	52.198908	128638976	94515200	58020856	33184
732	53.457977	128909312	94515200	63097160	33184
733	54.671804	128909312	94515200	69156328	33184
734	65.041415	131612672	97136640	63535784	33184
735	76.791984	128905216	96088064	37090048	33184
736	62.357371	130252800	96088064	32370904	33184
737	61.311074	130252800	96088064	42334048	33184
738	65.687889	130252800	96088064	40661584	33184
739	63.144147	130252800	96088064	52522576	33184
740	69.475938	130252800	96088064	52821032	33184
741	70.558915	130523136	96088064	54043312	33184
742	68.700788	130523136	96088064	68821920	33184
743	101.364258	126935040	92942336	27348072	33184
744	73.781273	126935040	92942336	31725856	33184
745	75.664391	126935040	92942336	36821760	33184
746	76.606736	126935040	92942336	43019264	33184
747	78.167452	126935040	92942336	50158848	33184
748	79.309259	127475712	92942336	58289680	33184
749	87.897885	128557056	94515200	67403704	33184
750	109.181404	129323008	95039488	32733928	33184
751	84.645686	129323008	95039488	43860264	33184
752	3.120904	129323008	95039488	44295616	33184
753	4.361618	129323008	95039488	47281648	33184
754	5.785613	129323008	95039488	51270088	33184
755	10.134608	129323008	95039488	42474432	33184
756	8.738118	129323008	95039488	48458848	33184
757	10.437148	129323008	95039488	55442824	33184
758	12.689388	129323008	95039488	47387544	33184
759	13.309752	129323008	95039488	56382368	33184
760	14.813956	129323008	95039488	49986736	33184
761	17.235418	129323008	95039488	45389344	33184
762	19.006886	129323008	95039488	42500144	33184
763	19.645207	129323008	95039488	55535984	33184
764	21.221449	129323008	95039488	53256144	33184
765	22.572947	129323008	95039488	52312128	33184
766	24.469768	129323008	95039488	52503264	33184
767	25.813841	129323008	95039488	53672432	33184
768	27.329911	129323008	95039488	55695688	33184
769	31.411108	129323008	95039488	44372432	33184
770	32.207996	129323008	95039488	49757728	33184
771	32.765663	129323008	95039488	55390672	33184
772	36.406267	129323008	95039488	47231512	33184
773	38.568376	129323008	95039488	57977808	33184
774	39.189673	129323008	95039488	52391936	33184
775	45.972947	129323008	95039488	52610440	33184
776	46.665471	129323008	95039488	53648872	33184
777	43.974091	129323008	95039488	68332224	33184
778	44.649715	129323008	95039488	66384464	33184
779	58.166784	129323008	95039488	70649496	33184
780	72.72124	130392064	96088064	28110024	33184
781	54.089575	130392064	96088064	34368632	33184
782	56.633808	130392064	96088064	41590216	33184
783	61.685329	130392064	96088064	37247512	33184
784	59.390302	130392064	96088064	46538688	33184
785	60.552299	130392064	96088064	56878920	33184
786	66.0628	130392064	96088064	55684288	33184
787	73.586797	130392064	96088064	55459848	33184
788	92.094989	123826176	89796608	25745000	33184
789	66.286207	123826176	89796608	40184104	33184
790	72.960566	123826176	89796608	43165040	33184
791	73.737102	123826176	89796608	47166920	33184
792	75.058644	123826176	89796608	52135320	33184
793	77.134831	123826176	89796608	58247808	33184
794	79.843175	125988864	91893760	65353544	33184
795	111.592254	130580480	96088064	28857928	33184
796	82.84778	130580480	96088064	38232632	33184
797	83.38356	130580480	96088064	48415488	33184
798	89.154638	130580480	96088064	47198888	33184
799	87.446946	130580480	96088064	59622224	33184
800	93.235236	130580480	96088064	60433448	33184
801	115.811437	128499712	96088064	27374424	33184
802	7.577689	130387968	96088064	30151192	33184
803	4.925759	130387968	96088064	33324232	33184
804	6.521862	130387968	96088064	37553144	33184
805	8.087195	130387968	96088064	42843112	33184
806	11.603264	130387968	96088064	34632224	33184
807	10.862004	130387968	96088064	42071384	33184
808	13.045525	130387968	96088064	34475336	33184
809	14.171191	130387968	96088064	44017952	33184
810	15.933563	130387968	96088064	38302488	33184
811	18.399772	130387968	96088064	34435032	33184
812	20.600867	130387968	96088064	32164560	33184
813	22.443975	130387968	96088064	31318056	33184
814	24.226343	130387968	96088064	31606216	33184
815	25.755533	130387968	96088064	32924360	33184
816	26.926514	130387968	96088064	35159152	33184
817	28.167188	130387968	96088064	38189152	33184
818	28.990336	130387968	96088064	41872856	33184
819	33.348602	130387968	96088064	32329936	33184
820	35.696368	130387968	96088064	41282328	33184
821	37.611731	130387968	96088064	34717872	33184
822	39.14972	130387968	96088064	45799096	33184
823	41.062041	130387968	96088064	40963792	33184
824	46.176746	130387968	96088064	41563928	33184
825	43.398629	130387968	96088064	55770256	33184
826	44.37913	130387968	96088064	53423904	33184
827	50.836372	130387968	96088064	57293200	33184
828	52.399306	130387968	96088064	62150192	33184
829	56.115439	130387968	96088064	68087336	33184
830	82.32406	125976576	92942336	30666640	33184
831	57.448857	127324160	92942336	38115736	33184
832	63.512677	127324160	92942336	34748232	33184
833	62.391653	127324160	92942336	45074448	33184
834	67.133711	127324160	92942336	43947008	33184
835	63.901113	127324160	92942336	56492400	33184
836	70.507657	127324160	92942336	57603984	33184
837	71.607168	127864832	93466624	59799832	33184
838	100.986441	128135168	96088064	31381856	33184
839	75.541065	130023424	96088064	34996240	33184
840	76.482158	130023424	96088064	40441168	33184
841	78.791252	130023424	96088064	46922264	33184
842	80.999734	130023424	96088064	54565584	33184
843	81.484704	130023424	96088064	63273368	33184
844	83.484334	130564096	96088064	73122048	33184
845	116.03397	128569344	94515200	22102264	33184
846	85.988303	128569344	94515200	34318744	33184
847	91.798052	128569344	94515200	34893888	33184
848	89.6421	128569344	94515200	49187816	33184
849	95.146013	128569344	94515200	52035112	33184
850	112.668229	128839680	94515200	55956512	33184
851	114.386142	123076608	88748032	31526232	33184
852	7.820551	123076608	88748032	38861976	33184
853	5.128744	123076608	88748032	42251968	33184
854	6.708752	123076608	88748032	46783624	33184
855	10.558319	123076608	88748032	38432672	33184
856	9.895537	123076608	88748032	45219672	33184
857	11.904328	123076608	88748032	53144272	33184
858	13.414662	123076608	88748032	45714488	33184
859	16.108319	123076608	88748032	40425680	33184
860	16.513391	123076608	88748032	51752896	33184
861	18.859613	123076608	88748032	47962120	33184
862	20.619314	123076608	88748032	45804352	33184
863	22.879831	123076608	88748032	45073688	33184
864	24.727644	123076608	88748032	45614960	33184
865	26.275485	123076608	88748032	47165720	33184
866	28.127608	123076608	88748032	49732712	33184
867	28.875601	123076608	88748032	53064896	33184
868	33.765836	123076608	88748032	42843752	33184
869	33.041162	123076608	88748032	49428672	33184
870	37.319899	123076608	88748032	42521848	33184
871	39.259253	123076608	88748032	53967728	33184
872	40.626556	123076608	88748032	49203608	33184
873	46.49669	123076608	88748032	50455672	33184
874	47.832955	123076608	88748032	52521544	33184
875	49.968346	123076608	88748032	55920344	33184
876	53.290916	126320640	92418048	60359336	33184
877	78.864289	130105344	96088064	66016288	33184
878	62.554206	129396736	95039488	28182272	33184
879	58.121564	129396736	95039488	36121992	33184
880	58.575426	129396736	95039488	45187424	33184
881	65.307049	129396736	95039488	42940400	33184
882	62.721395	129396736	95039488	54452208	33184
883	69.210615	129396736	95039488	54447680	33184
884	72.460386	129396736	95039488	55657120	33184
885	75.818824	129396736	95039488	70632208	33184
886	95.434569	125861888	91369472	28256112	33184
887	74.738281	125861888	91369472	33002720	33184
888	76.279728	125861888	91369472	38893992	33184
889	78.544113	125861888	91369472	45951048	33184
890	80.153234	125861888	91369472	54155864	33184
891	82.467247	125861888	91369472	63541488	33184
892	113.639821	125841408	92942336	28648416	33184
893	86.5077	127188992	92942336	39625784	33184
894	91.833954	127188992	92942336	39919672	33184
895	92.917961	127188992	92942336	41460544	33184
896	91.599982	127188992	92942336	56710616	33184
897	103.029481	127188992	92942336	60623792	33184
898	120.070295	126595072	92418048	36369256	33184
899	100.463796	126595072	92418048	42640904	33184
900	101.910111	126595072	92418048	50066016	33184
901	104.145963	126595072	92418048	58704888	33184
902	3.9329	127676416	93466624	69731424	33184
903	5.797047	127676416	93466624	73305496	33184
904	14.227483	129568768	95563776	64651864	33184
905	12.235283	129568768	95563776	70615352	33184
906	24.239032	130650112	96612352	63044640	33184
907	21.624206	128552960	94515200	28826536	33184
908	14.738865	128552960	94515200	38372984	33184
909	16.74629	128552960	94515200	32758912	33184
910	18.649283	128552960	94515200	29123224	33184
911	21.823704	128552960	94515200	27169224	33184
912	23.668516	128552960	94515200	26755016	33184
913	25.385273	128552960	94515200	27572040	33184
914	26.536455	128552960	94515200	29451112	33184
915	28.099481	128552960	94515200	32326128	33184
916	29.290661	128552960	94515200	35951360	33184
917	34.350386	128552960	94515200	26508048	33184
918	35.993331	128552960	94515200	35702120	33184
919	38.970004	128552960	94515200	29510608	33184
920	39.591245	128552960	94515200	41059160	33184
921	41.16477	128552960	94515200	36655568	33184
922	47.473144	128552960	94515200	38016728	33184
923	49.671684	128552960	94515200	40446728	33184
924	50.521763	128552960	94515200	44124320	33184
925	53.788437	128552960	94515200	49043128	33184
926	55.2025	128552960	94515200	55167136	33184
927	56.246794	128823296	94515200	62527224	33184
928	58.619256	129363968	95039488	71085712	33184
929	90.144799	128888832	96088064	20706024	33184
930	63.558627	130506752	96088064	30596424	33184
931	68.783533	130506752	96088064	30246640	33184
932	66.011694	130506752	96088064	43646192	33184
933	72.460593	130506752	96088064	45822416	33184
934	73.783679	130506752	96088064	49166560	33184
935	75.684451	130506752	96088064	53713960	33184
936	93.799219	132939776	98709504	59477480	33184
937	87.92072	122904576	88748032	35546232	33184
938	82.650608	122904576	88748032	43827200	33184
939	87.891847	122904576	88748032	40761704	33184
940	83.193851	122904576	88748032	51526776	33184
941	85.564363	123174912	88748032	63372176	33184
942	115.351243	126418944	92418048	63950944	33184
943	95.693452	126939136	92942336	34317712	33184
944	96.548412	126939136	92942336	37481856	33184
945	92.684136	126939136	92942336	54400072	33184
946	99.450751	126939136	92942336	59911128	33184
947	103.927141	127209472	92942336	66739032	33184
948	135.999954	127303680	92942336	32088384	33184
949	104.518172	127303680	92942336	41336416	33184
950	107.199233	127303680	92942336	51848184	33184
951	109.581877	127303680	92942336	63769056	33184
952	4.108165	131629056	97660928	65384512	33184
953	6.155902	131629056	97660928	69138104	33184
954	8.150051	131629056	97660928	74146208	33184
955	15.135402	133521408	99233792	66324936	33184
956	15.832488	133521408	99233792	73842464	33184
957	26.958729	133521408	99233792	66879848	33184
958	20.523627	129335296	95039488	32477752	33184
959	17.704999	129335296	95039488	28253936	33184
960	20.270971	129335296	95039488	25992648	33184
961	20.360175	129335296	95039488	39816040	33184
962	22.573655	129335296	95039488	38423512	33184
963	24.647806	129335296	95039488	38480648	33184
964	26.450823	129335296	95039488	39808664	33184
965	31.401313	129335296	95039488	28030904	33184
966	31.409851	129335296	95039488	33382168	33184
967	34.472555	129335296	95039488	39181208	33184
968	36.481245	129335296	95039488	31383376	33184
969	36.774307	129335296	95039488	40007144	33184
970	39.876494	129335296	95039488	34532632	33184
971	43.058792	129335296	95039488	31751208	33184
972	49.555717	129335296	95039488	34436632	33184
973	51.304034	129335296	95039488	38307736	33184
974	52.965687	129335296	95039488	43478192	33184
975	54.75625	129335296	95039488	49938736	33184
976	57.071773	129335296	95039488	57703672	33184
977	63.415794	129335296	95039488	54168400	33184
978	61.90975	129335296	95039488	64428520	33184
979	68.258136	130146304	95563776	63410560	33184
980	96.627253	128696320	96088064	30431424	33184
981	70.739742	130043904	96088064	31087384	33184
982	69.899733	130043904	96088064	46510960	33184
983	74.899545	130043904	96088064	50723472	33184
984	76.331874	130043904	96088064	56135808	33184
985	78.918052	130043904	96088064	62913208	33184
986	81.374173	130584576	96088064	70970264	33184
987	108.871714	133287936	99233792	67783280	33184
988	91.113809	132476928	98185216	30081104	33184
989	87.022439	132476928	98185216	42101160	33184
990	93.996886	132476928	98185216	42823248	33184
991	90.046946	132476928	98185216	57430040	33184
992	97.03457	132476928	98185216	60726776	33184
993	124.844112	125095936	92418048	32944800	33184
994	100.727253	126443520	92418048	37898856	33184
995	105.063735	126443520	92418048	45024120	33184
996	103.575779	126443520	92418048	53514152	33184
997	105.497986	126443520	92418048	63224896	33184
998	135.421068	124145664	89796608	29483336	33184
999	110.807546	124145664	89796608	41897496	33184
1000	116.661782	124145664	89796608	43092560	33184
