x	Duration	RSS	HeapTotal	HeapUsed	External
0	NA	125243392	93466624	23207224	33184
1	0.23451	125243392	93466624	23250624	33184
2	0.157747	125243392	93466624	23318232	33184
3	0.183772	125243392	93466624	23410640	33184
4	0.209952	125243392	93466624	23529376	33184
5	0.243087	125243392	93466624	23676200	33184
6	0.280466	125243392	93466624	23851800	33184
7	0.333692	125243392	93466624	24057440	33184
8	0.368835	125243392	93466624	24294272	33184
9	0.413437	125243392	93466624	24564968	33184
10	0.470977	125243392	93466624	24869552	33184
11	0.514249	125243392	93466624	25209424	33184
12	0.608979	125243392	93466624	25585792	33184
13	0.630253	125243392	93466624	25999776	33184
14	0.685478	125243392	93466624	26452672	33184
15	0.734053	125243392	93466624	26945720	33184
16	0.791888	125243392	93466624	27480112	33184
17	0.923057	125243392	93466624	28058976	33184
18	0.92531	125243392	93466624	28681616	33184
19	0.994915	125243392	93466624	29350456	33184
20	1.072126	125243392	93466624	30065488	33184
21	1.194158	125243392	93466624	30828944	33184
22	1.213873	125243392	93466624	31642080	33184
23	1.304207	125243392	93466624	32506064	33184
24	1.80512	125243392	93466624	33422168	33184
25	2.182782	125243392	93466624	34393040	33184
26	1.845565	125243392	93466624	35415288	33184
27	1.587916	125243392	93466624	36493224	33184
28	1.665141	125509632	93466624	37628104	33184
29	1.746023	125509632	93466624	38821264	33184
30	4.286768	126586880	93466624	24563664	33184
31	2.168591	126857216	93466624	25876792	33184
32	1.954064	126857216	93466624	27254432	33184
33	2.231771	126857216	93466624	28699504	33184
34	2.11472	126857216	93466624	30209112	33184
35	2.529035	126857216	93466624	31785328	33184
36	2.657109	126857216	93466624	33428800	33184
37	2.41248	126857216	93466624	35139032	33184
38	2.530206	126857216	93466624	36918432	33184
39	2.601178	126857216	93466624	38768248	33184
40	4.221808	126857216	93466624	24588760	33184
41	3.033985	126857216	93466624	26585600	33184
42	2.935431	126857216	93466624	28654200	33184
43	3.002918	126857216	93466624	30798216	33184
44	3.17572	126857216	93466624	33019968	33184
45	3.215377	126857216	93466624	35321888	33184
46	3.335654	126857216	93466624	37704480	33184
47	3.442711	126857216	93466624	40169552	33184
48	5.154526	126857216	93466624	26445168	33184
49	4.490281	126857216	93466624	29077608	33184
50	4.128914	126857216	93466624	31803648	33184
51	3.922306	126857216	93466624	34609136	33184
52	0.287564	126857216	93466624	37419336	33184
53	0.416392	126857216	93466624	37684440	33184
54	0.539571	126857216	93466624	38040168	33184
55	0.669309	126857216	93466624	38487696	33184
56	0.812044	126857216	93466624	39028768	33184
57	1.489976	126857216	93466624	39664080	33184
58	1.070801	126857216	93466624	40394880	33184
59	2.650859	126857216	93466624	25052512	33184
60	1.392847	126857216	93466624	25986944	33184
61	1.703893	126857216	93466624	27012560	33184
62	1.628058	126857216	93466624	28138520	33184
63	1.773321	126857216	93466624	29366160	33184
64	1.89179	126857216	93466624	30696624	33184
65	2.047816	126857216	93466624	32131224	33184
66	2.42467	126857216	93466624	33671224	33184
67	2.382162	126857216	93466624	35320504	33184
68	2.490875	126857216	93466624	37076512	33184
69	2.841399	126857216	93466624	38941472	33184
70	2.802635	126857216	93466624	40916936	33184
71	4.273457	126857216	93466624	26901360	33184
72	3.47396	126857216	93466624	29101968	33184
73	3.318136	126857216	93466624	31415400	33184
74	3.467593	126857216	93466624	33844032	33184
75	3.57074	126857216	93466624	36390376	33184
76	4.001369	126857216	93466624	39052808	33184
77	5.114381	126857216	93466624	25972648	33184
78	4.283471	126857216	93466624	28873880	33184
79	4.260141	126857216	93466624	31897104	33184
80	4.428047	126857216	93466624	35042240	33184
81	4.669102	126857216	93466624	38311968	33184
82	5.980611	126857216	93466624	25956472	33184
83	5.599024	126857216	93466624	29480352	33184
84	5.263804	126857216	93466624	33136616	33184
85	5.588753	126857216	93466624	36922536	33184
86	5.510866	126857216	93466624	40838528	33184
87	6.919235	126857216	93466624	28805840	33184
88	5.917825	126857216	93466624	32987728	33184
89	6.288111	126857216	93466624	37304272	33184
90	6.777346	126857216	93466624	41758328	33184
91	7.832048	126857216	93466624	30174408	33184
92	6.742463	126857216	93466624	34907328	33184
93	6.877591	126857216	93466624	39781176	33184
94	8.464075	126857216	93466624	28834976	33184
95	7.282516	126857216	93466624	33996512	33184
96	8.019509	126857216	93466624	39303816	33184
97	9.121433	126857216	93466624	28872376	33184
98	7.906842	126857216	93466624	34473032	33184
99	8.149884	126857216	93466624	40222936	33184
100	10.418318	126857216	93466624	30146232	33184
101	8.857962	126857216	93466624	36198576	33184
102	0.47735	126857216	93466624	42398064	33184
103	0.694909	126857216	93466624	42856808	33184
104	1.972947	126857216	93466624	27239120	33184
105	1.217616	126857216	93466624	28009552	33184
106	1.450175	126857216	93466624	28937968	33184
107	1.69999	126857216	93466624	30025176	33184
108	1.937926	126857216	93466624	31272400	33184
109	2.136855	126857216	93466624	32680864	33184
110	2.255705	126857216	93466624	34252832	33184
111	2.524768	126857216	93466624	35988504	33184
112	2.784624	126857216	93466624	37889208	33184
113	2.963306	126857216	93466624	39956136	33184
114	3.424191	126857216	93466624	42190320	33184
115	4.839837	126857216	93466624	28449424	33184
116	3.705031	126857216	93466624	31022616	33184
117	4.11794	126857216	93466624	33766480	33184
118	4.402941	126857216	93466624	36684480	33184
119	4.624507	126857216	93466624	39776112	33184
120	4.857617	126857216	93466624	43042696	33184
121	5.927893	126857216	93466624	30267520	33184
122	5.410377	126857216	93466624	33887392	33184
123	5.391889	126857216	93466624	37685920	33184
124	5.684761	126857216	93466624	41664240	33184
125	7.130446	126857216	93466624	29769760	33184
126	6.388658	126857216	93466624	34111872	33184
127	6.862964	126857216	93466624	38636480	33184
128	6.702001	126857216	93466624	43345560	33184
129	8.207263	126857216	93466624	31980888	33184
130	7.22407	126857216	93466624	37063992	33184
131	7.692475	126857216	93466624	42335248	33184
132	9.362198	126857216	93466624	31681312	33184
133	8.818776	126857216	93466624	37334320	33184
134	8.358374	126857216	93466624	43183800	33184
135	10.133423	126857216	93466624	32999328	33184
136	8.919045	126857216	93466624	39236680	33184
137	10.854984	126857216	93466624	29965680	33184
138	9.699333	126857216	93466624	36595400	33184
139	9.72689	126857216	93466624	43425696	33184
140	11.215606	126857216	93466624	34205096	33184
141	10.528966	126857216	93466624	41433216	33184
142	12.607264	126857216	93466624	32898280	33184
143	11.436854	126857216	93466624	40535288	33184
144	13.103554	126857216	93466624	32544160	33184
145	12.560751	126857216	93466624	40595704	33184
146	14.199529	126857216	93466624	33025960	33184
147	12.691816	126857216	93466624	41494304	33184
148	13.866767	126857216	93466624	34227160	33184
149	12.92073	126857216	93466624	43118688	33184
150	14.533581	126857216	93466624	36088312	33184
151	15.515954	126857216	93466624	30215528	33184
152	0.691788	126857216	93466624	39813936	33184
153	0.980644	126857216	93466624	40462192	33184
154	1.336785	126857216	93466624	41328728	33184
155	1.593898	126857216	93466624	42415128	33184
156	1.912004	126857216	93466624	43722592	33184
157	2.224998	126857216	93466624	45252000	33184
158	3.902622	126857216	93466624	30676328	33184
159	2.933982	126857216	93466624	32653352	33184
160	3.196542	126857216	93466624	34857152	33184
161	3.710354	126857216	93466624	37287912	33184
162	3.89785	126857216	93466624	39947416	33184
163	4.388843	126857216	93466624	42836064	33184
164	6.272004	126857216	93466624	29977352	33184
165	5.046288	126857216	93466624	33328040	33184
166	5.613978	126857216	93466624	36915232	33184
167	5.507152	126857216	93466624	40733152	33184
168	6.12671	126857216	93466624	44788560	33184
169	7.5407	126857216	93466624	32851976	33184
170	6.771679	126857216	93466624	37382488	33184
171	6.907877	126857216	93466624	42152136	33184
172	8.797754	126857216	93466624	31300832	33184
173	7.835079	126857216	93466624	36556208	33184
174	8.107332	126857216	93466624	42050776	33184
175	10.147071	126857216	93466624	31934864	33184
176	8.856165	126857216	93466624	37918952	33184
177	9.007296	126857216	93466624	44149584	33184
178	11.033078	126857216	93466624	34516264	33184
179	10.002737	126857216	93466624	41243624	33184
180	12.018695	126857216	93466624	32508288	33184
181	10.47035	126857216	93466624	39746768	33184
182	13.197482	126857216	93466624	31711920	33184
183	11.252651	126857216	93466624	39467208	33184
184	13.835729	126857216	93466624	32006392	33184
185	12.744053	126857216	93466624	40287760	33184
186	14.476635	126857216	93466624	33253344	33184
187	12.975961	126857216	93466624	42059632	33184
188	14.774689	126857216	93466624	35332872	33184
189	13.901777	126857216	93466624	44667416	33184
190	15.513074	126857216	93466624	38120216	33184
191	16.915904	126857216	93466624	32736920	33184
192	14.902806	126857216	93466624	42874616	33184
193	17.146817	126857216	93466624	37400000	33184
194	17.966331	126857216	93466624	32941576	33184
195	16.962271	126857216	93466624	43902072	33184
196	18.192645	126857216	93466624	39122472	33184
197	19.576705	126857216	93466624	35300648	33184
198	17.31431	126857216	93466624	47081256	33184
199	19.250782	126857216	93466624	42780336	33184
200	19.814706	126857216	93466624	39330112	33184
201	20.726338	126857216	93466624	36628496	33184
202	0.868944	126857216	93466624	34689312	33184
203	1.295971	126857216	93466624	35534200	33184
204	1.702861	126857216	93466624	36662824	33184
205	2.079988	126857216	93466624	38076512	33184
206	2.877087	126857216	93466624	39777800	33184
207	2.936647	126857216	93466624	41765880	33184
208	3.589023	126857216	93466624	44042664	33184
209	3.948476	126857216	93466624	46609488	33184
210	5.770028	126857216	93466624	33253992	33184
211	4.583698	126857216	93466624	36405448	33184
212	5.034449	126857216	93466624	39850664	33184
213	5.48361	126857216	93466624	43590712	33184
214	5.85399	126857216	93466624	47626792	33184
215	7.830069	126857216	93466624	35627024	33184
216	6.696556	126857216	93466624	40258848	33184
217	7.371142	126857216	93466624	45190512	33184
218	9.614463	126857216	93466624	34412480	33184
219	8.14126	126857216	93466624	39949416	33184
220	8.824843	126857216	93466624	45790672	33184
221	10.806116	126857216	93466624	35845640	33184
222	9.404062	126857216	93466624	42297136	33184
223	12.335111	126857216	93466624	33443560	33184
224	10.73245	126857216	93466624	40514072	33184
225	10.729533	126857216	93466624	47890680	33184
226	12.888167	126857216	93466624	39220040	33184
227	11.808386	126857216	93466624	47219552	33184
228	13.754088	126857216	93466624	39285656	33184
229	12.703995	126857216	93466624	47920808	33184
230	14.923436	126857216	93466624	40531352	33184
231	16.055172	126857216	93466624	34458352	33184
232	14.139637	126857216	93466624	44050016	33184
233	16.518306	126857216	93466624	38154408	33184
234	15.094955	126857216	93466624	48397912	33184
235	17.292623	126857216	93466624	42614496	33184
236	17.884898	126857216	93466624	37914864	33184
237	19.579201	126857216	93466624	34174200	33184
238	16.795217	126857216	93466624	45724000	33184
239	19.441353	126857216	93466624	41604088	33184
240	20.390504	126857216	93466624	38394872	33184
241	21.285892	126857216	93466624	35928552	33184
242	19.334849	126857216	93466624	48804240	33184
243	21.692952	126857216	93466624	45654528	33184
244	22.118126	126857216	93466624	43277776	33184
245	22.687404	126857216	93466624	41531216	33184
246	23.585824	126857216	93466624	40396872	33184
247	24.487936	126857216	93466624	39766344	33184
248	24.811975	126857216	93466624	39552448	33184
249	25.471513	126857216	93466624	39727944	33184
250	25.786301	126857216	93466624	40223456	33184
251	26.496392	126857216	93466624	41010296	33184
252	1.063928	126857216	93466624	42264776	33184
253	1.546603	126857216	93466624	43302336	33184
254	2.043285	126857216	93466624	44687936	33184
255	2.592996	126857216	93466624	46422800	33184
256	3.044962	126857216	93466624	48508736	33184
257	6.171889	126857216	93466624	34778232	33184
258	4.310487	126857216	93466624	37569080	33184
259	4.827023	126857216	93466624	40713984	33184
260	5.112511	126857216	93466624	44215504	33184
261	5.648081	126857216	93466624	48073544	33184
262	8.127071	126857216	93466624	36169288	33184
263	6.926897	126857216	93466624	40744360	33184
264	7.433282	126857216	93466624	45683040	33184
265	10.065286	126857216	93466624	35225576	33184
266	8.513074	126857216	93466624	40885288	33184
267	9.016961	126857216	93466624	46909040	33184
268	11.863658	126857216	93466624	37367864	33184
269	10.089331	126857216	93466624	44125432	33184
270	12.783752	126857216	93466624	35693144	33184
271	11.206854	126857216	93466624	43191336	33184
272	14.155187	126857216	93466624	35640232	33184
273	12.109231	126857216	93466624	43876312	33184
274	15.366038	126857216	93466624	36970976	33184
275	13.446785	126857216	93466624	45959216	33184
276	16.072758	126857216	93466624	39543568	33184
277	14.627206	126857216	93466624	49280064	33184
278	16.608798	126857216	93466624	43180640	33184
279	18.327447	126857216	93466624	38298312	33184
280	15.891639	126857216	93466624	49168944	33184
281	18.723013	126857216	93466624	44209776	33184
282	19.365067	126857216	93466624	40318616	33184
283	21.295763	126857216	93466624	37331616	33184
284	19.163175	126857216	93466624	49752096	33184
285	20.930278	126857216	93466624	46294608	33184
286	21.900251	126857216	93466624	43727352	33184
287	23.477211	126857216	93466624	41852448	33184
288	23.834077	126857216	93466624	40657672	33184
289	24.931856	126857216	93466624	40020552	33184
290	25.152707	126857216	93466624	39896248	33184
291	25.992765	126857216	93466624	40185560	33184
292	27.714927	126857216	93466624	40858112	33184
293	27.760473	126857216	93466624	41799568	33184
294	28.608037	126857216	93466624	43053744	33184
295	27.758432	126857216	93466624	44525928	33184
296	28.622067	126857216	93466624	46188672	33184
297	28.726796	126857216	93466624	48053728	33184
298	29.17081	126857216	93466624	50079504	33184
299	29.20236	126857216	93466624	52235552	33184
300	34.178291	126857216	93466624	40301096	33184
301	32.15046	126857216	93466624	44645536	33184
302	1.261371	126857216	93466624	49099080	33184
303	1.836554	126857216	93466624	50320648	33184
304	2.440599	126857216	93466624	51954024	33184
305	5.305625	126857216	93466624	37697352	33184
306	3.870035	126857216	93466624	40151424	33184
307	4.352177	126857216	93466624	43018736	33184
308	5.05636	126857216	93466624	46301496	33184
309	5.448665	126857216	93466624	49999944	33184
310	8.339986	126857216	93466624	38049688	33184
311	6.927071	126857216	93466624	42582736	33184
312	7.298479	126857216	93466624	47534896	33184
313	11.445409	127127552	93466624	37217592	33184
314	8.698532	127127552	93466624	43011880	33184
315	9.780121	127127552	93466624	49229296	33184
316	12.377883	127127552	93466624	39961232	33184
317	10.431976	127127552	93466624	47027984	33184
318	14.223868	127127552	93466624	38902000	33184
319	12.353331	127127552	93466624	46828560	33184
320	15.39971	127127552	93466624	39578000	33184
321	12.977853	127127552	93466624	48360912	33184
322	16.493167	127127552	93466624	41784976	33184
323	14.315904	127127552	93466624	51434184	33184
324	17.307739	127127552	93466624	45325232	33184
325	18.60301	127127552	93466624	40475640	33184
326	16.610067	127127552	93466624	51428536	33184
327	19.464553	127127552	93466624	46606376	33184
328	20.602784	127127552	93466624	42892832	33184
329	21.379806	127127552	93466624	40122248	33184
330	19.353927	127127552	93466624	52834488	33184
331	22.1506	127127552	93466624	49635792	33184
332	23.086643	127127552	93466624	47324736	33184
333	23.819895	127127552	93466624	45752384	33184
334	24.715315	127127552	93466624	44882680	33184
335	25.348694	127127552	93466624	44569088	33184
336	26.265317	127127552	93466624	44762064	33184
337	27.317555	127127552	93466624	45378232	33184
338	27.409905	127127552	93466624	46367424	33184
339	28.671673	127127552	93466624	47698688	33184
340	28.823723	127127552	93466624	49298248	33184
341	29.58217	127127552	93466624	51141848	33184
342	29.796422	127127552	93466624	53178832	33184
343	34.999803	127127552	93466624	41309184	33184
344	32.402136	127127552	93466624	45652800	33184
345	32.474905	127127552	93466624	49883024	33184
346	32.347371	127127552	93466624	53994944	33184
347	37.540792	127127552	93466624	43860400	33184
348	35.196211	127127552	93466624	49713056	33184
349	39.838276	127127552	93466624	41615888	33184
350	39.179498	127127552	93466624	50988360	33184
351	41.631032	127127552	93466624	44290440	33184
352	1.470249	127127552	93466624	54940264	33184
353	2.124326	127127552	93466624	56345856	33184
354	2.833037	127127552	93466624	58222288	33184
355	3.805936	127127552	93466624	60571152	33184
356	6.621612	127127552	93466624	47033568	33184
357	5.19266	127127552	93466624	50330256	33184
358	6.548208	127127552	93466624	54115744	33184
359	6.400697	127127552	93466624	58381520	33184
360	10.132431	127127552	93466624	47091544	33184
361	8.094171	127127552	93466624	52341216	33184
362	8.563598	127127552	93466624	58084304	33184
363	12.164359	127127552	93466624	48329280	33184
364	10.142196	127127552	93466624	55064664	33184
365	13.786794	127127552	93466624	46676472	33184
366	11.64115	127127552	93466624	54405016	33184
367	15.466777	127127552	93466624	47074776	33184
368	12.830211	127127552	93466624	55807680	33184
369	16.610835	127127552	93466624	49311856	33184
370	14.526322	127127552	93466624	59050696	33184
371	17.832873	127127552	93466624	53138800	33184
372	19.136118	127127552	93466624	48533384	33184
373	16.66354	127127552	93466624	59787384	33184
374	20.387635	127127552	93466624	55301592	33184
375	21.412474	127127552	93466624	51951424	33184
376	22.604626	127127552	93466624	49560840	33184
377	24.239852	127127552	93466624	48023512	33184
378	24.957829	127127552	93466624	47200232	33184
379	21.693653	127127552	93466624	61533056	33184
380	24.652502	127127552	93466624	59942064	33184
381	25.456041	127127552	93466624	59072432	33184
382	26.210059	127127552	93466624	58840296	33184
383	27.401116	127127552	93466624	59173904	33184
384	27.977827	127127552	93466624	59963184	33184
385	28.412507	127127552	93466624	61180472	33184
386	34.868566	127127552	93466624	48611848	33184
387	32.225344	127127552	93466624	52410944	33184
388	32.396881	127127552	93466624	56284584	33184
389	32.027483	127127552	93466624	60150968	33184
390	37.365031	127127552	93466624	49996368	33184
391	36.796821	127127552	93466624	58135616	33184
392	35.021353	127127552	93466624	63911344	33184
393	39.728451	127127552	93466624	55075704	33184
394	36.699793	127127552	93466624	62124808	33184
395	41.837435	127127552	93466624	54882136	33184
396	40.875494	127397888	93466624	65691216	33184
397	43.503888	127397888	93466624	59767504	33184
398	49.964755	128749568	95039488	58991464	33184
399	53.177452	128749568	95039488	71208384	33184
400	58.636608	126545920	92942336	22863096	33184
401	41.744674	126545920	92942336	36283448	33184
402	1.633255	126545920	92942336	32983760	33184
403	2.371741	126545920	92942336	34611656	33184
404	3.392009	126545920	92942336	36784200	33184
405	7.846201	126545920	92942336	26412712	33184
406	5.185797	126545920	92942336	29679288	33184
407	5.482535	126545920	92942336	33494344	33184
408	6.269724	126545920	92942336	37859176	33184
409	8.495924	126545920	92942336	27648840	33184
410	8.14443	126545920	92942336	33117912	33184
411	9.080718	126545920	92942336	39144912	33184
412	10.134247	126545920	92942336	29516080	33184
413	10.237988	126545920	92942336	36649480	33184
414	12.142267	126545920	92942336	28465776	33184
415	12.111649	126545920	92942336	36715232	33184
416	13.348312	126545920	92942336	29643336	33184
417	13.686859	126545920	92942336	39012280	33184
418	15.269108	126545920	92942336	32747072	33184
419	16.543053	126545920	92942336	27922104	33184
420	16.188049	126545920	92942336	38991048	33184
421	17.094294	126545920	92942336	34416424	33184
422	18.980187	126545920	92942336	31058200	33184
423	20.219149	126545920	92942336	28711536	33184
424	21.25719	126545920	92942336	27258312	33184
425	20.606408	126545920	92942336	41168760	33184
426	22.009863	126545920	92942336	39177808	33184
427	22.634115	126545920	92942336	38031208	33184
428	23.583802	126545920	92942336	37589480	33184
429	24.112035	126545920	92942336	37791424	33184
430	25.511425	126545920	92942336	38544704	33184
431	25.795651	126545920	92942336	39766808	33184
432	27.280582	126545920	92942336	41426784	33184
433	30.412551	126545920	92942336	29220288	33184
434	29.637191	126545920	92942336	33499136	33184
435	30.643094	126545920	92942336	37805536	33184
436	33.549873	126545920	92942336	28292280	33184
437	34.512746	126545920	92942336	36643680	33184
438	32.685534	126545920	92942336	42669704	33184
439	35.408162	126545920	92942336	34329120	33184
440	37.666346	126545920	92942336	44521104	33184
441	37.466047	126545920	92942336	38022024	33184
442	39.666448	126545920	92942336	49373968	33184
443	39.228123	126545920	92942336	43695248	33184
444	40.845916	126545920	92942336	39582728	33184
445	41.847826	126545920	92942336	52634816	33184
446	41.043525	126545920	92942336	48540192	33184
447	43.192805	126545920	92942336	45822000	33184
448	48.298365	126816256	92942336	47997936	33184
449	48.933823	126816256	92942336	50698024	33184
450	50.907496	126816256	92942336	53984984	33184
451	64.045743	130060288	96088064	57881664	33184
452	1.869534	121671680	87699456	31408504	33184
453	2.650831	121671680	87699456	33220376	33184
454	3.530043	121671680	87699456	35645528	33184
455	8.055944	121671680	87699456	25443040	33184
456	5.60102	121671680	87699456	29077712	33184
457	6.379319	121671680	87699456	33324528	33184
458	7.291065	121671680	87699456	38185912	33184
459	9.387273	121671680	87699456	28277608	33184
460	8.830177	121671680	87699456	34360096	33184
461	10.715257	121671680	87699456	25440312	33184
462	10.747911	121671680	87699456	32753616	33184
463	12.877375	121671680	87699456	25269920	33184
464	12.799416	121671680	87699456	33820968	33184
465	14.702258	121671680	87699456	27432920	33184
466	14.681426	121671680	87699456	37222432	33184
467	15.703604	121671680	87699456	31621600	33184
468	17.4611	121671680	87699456	27390112	33184
469	17.158293	121671680	87699456	39068072	33184
470	18.570531	121671680	87699456	35110384	33184
471	19.788943	121671680	87699456	32290296	33184
472	21.444184	121671680	87699456	30493024	33184
473	22.82924	121671680	87699456	29564752	33184
474	23.578314	121671680	87699456	29434840	33184
475	24.41446	121671680	87699456	29952720	33184
476	25.183988	121671680	87699456	30992184	33184
477	25.863212	121671680	87699456	32538160	33184
478	26.780491	121671680	87699456	34529872	33184
479	27.66151	121671680	87699456	36877448	33184
480	29.155992	121671680	87699456	39531952	33184
481	33.963203	121671680	87699456	28400480	33184
482	34.159125	121671680	87699456	35912416	33184
483	31.125355	121671680	87699456	41175488	33184
484	36.185581	121671680	87699456	32265760	33184
485	36.860954	121671680	87699456	41668960	33184
486	37.894992	121671680	87699456	34884392	33184
487	39.519932	121671680	87699456	45592912	33184
488	38.935065	121671680	87699456	39837560	33184
489	40.780577	121671680	87699456	51831104	33184
490	40.43888	121671680	87699456	46793120	33184
491	42.531035	121671680	87699456	43260176	33184
492	48.464237	121671680	87699456	44562200	33184
493	43.993859	121671680	87699456	58983904	33184
494	44.892864	121942016	88223744	56281368	33184
495	45.218464	122212352	88223744	54759632	33184
496	52.797371	122212352	88223744	58687944	33184
497	52.734409	122482688	88748032	63154888	33184
498	60.004481	126537728	92942336	68253432	33184
499	76.704337	125190144	91893760	27686976	33184
500	54.543178	125460480	91893760	34208704	33184
501	56.504891	125460480	91893760	41251096	33184
502	2.074907	125460480	91893760	36978448	33184
503	3.037958	125460480	91893760	38977888	33184
504	4.047717	125460480	91893760	41649480	33184
505	4.989996	125460480	91893760	44981712	33184
506	5.860819	125460480	91893760	48984496	33184
507	8.87361	125460480	91893760	39249944	33184
508	8.120409	125460480	91893760	44596416	33184
509	10.021792	125460480	91893760	50620256	33184
510	10.259742	125460480	91893760	41022800	33184
511	11.060973	125460480	91893760	48394984	33184
512	12.538858	125460480	91893760	40482288	33184
513	13.113536	125460480	91893760	49215800	33184
514	14.599411	125460480	91893760	42509360	33184
515	17.002	125460480	91893760	37449280	33184
516	16.360311	125460480	91893760	48229256	33184
517	17.952705	125460480	91893760	43720744	33184
518	19.838772	125460480	91893760	40540176	33184
519	20.605811	125460480	91893760	38498208	33184
520	20.056426	125460480	91893760	52021728	33184
521	21.878482	125460480	91893760	49759856	33184
522	22.721984	125460480	91893760	48509632	33184
523	24.122669	125460480	91893760	48090752	33184
524	24.674758	125460480	91893760	48416864	33184
525	25.677629	125460480	91893760	49430920	33184
526	26.498755	125460480	91893760	50960808	33184
527	30.123374	125460480	91893760	38930136	33184
528	32.710811	125460480	91893760	45589648	33184
529	30.597669	125460480	91893760	50183952	33184
530	31.176164	125460480	91893760	54771320	33184
531	34.46176	125460480	91893760	45242712	33184
532	33.728067	125460480	91893760	51894832	33184
533	36.973582	125460480	91893760	44440400	33184
534	38.83286	125460480	91893760	55321048	33184
535	39.308629	125460480	91893760	49534304	33184
536	45.550229	126001152	91893760	49216720	33184
537	42.00859	126001152	91893760	61991264	33184
538	42.092917	126001152	91893760	58088088	33184
539	53.347914	126001152	91893760	59882976	33184
540	69.160592	121171968	88748032	31383376	33184
541	50.613243	122519552	88748032	33770688	33184
542	51.572949	122519552	88748032	37504216	33184
543	52.288046	122519552	88748032	42010912	33184
544	53.63397	122519552	88748032	47205760	33184
545	54.358644	122519552	88748032	53096520	33184
546	59.141784	122519552	88748032	47151064	33184
547	56.187965	122789888	88748032	54474120	33184
548	58.424009	122789888	88748032	62546768	33184
549	89.477361	123977728	91893760	28458512	33184
550	59.910492	125325312	91893760	37381896	33184
551	65.457317	125325312	91893760	35013192	33184
552	2.292647	125325312	91893760	46643080	33184
553	3.38595	125325312	91893760	48827264	33184
554	8.083212	125325312	91893760	38674272	33184
555	5.739051	125325312	91893760	42323088	33184
556	6.431208	125325312	91893760	46707568	33184
557	7.917475	125325312	91893760	51829488	33184
558	9.957989	125325312	91893760	42527184	33184
559	9.698743	125325312	91893760	49126872	33184
560	11.474254	125325312	91893760	40676912	33184
561	11.753837	125325312	91893760	48764896	33184
562	14.73552	125325312	91893760	41880528	33184
563	13.974648	125325312	91893760	51460640	33184
564	16.253091	125325312	91893760	45679536	33184
565	17.670732	125325312	91893760	41443720	33184
566	17.908209	125325312	91893760	53275312	33184
567	18.586966	125325312	91893760	49487848	33184
568	20.632487	125325312	91893760	47004768	33184
569	22.013779	125325312	91893760	45569816	33184
570	22.963621	125325312	91893760	45102672	33184
571	24.440913	125325312	91893760	45485568	33184
572	25.328803	125325312	91893760	46563168	33184
573	26.043987	125325312	91893760	48280120	33184
574	27.318502	125325312	91893760	50492688	33184
575	28.079414	125325312	91893760	53169840	33184
576	31.70581	125325312	91893760	42178128	33184
577	33.484297	125325312	91893760	49927824	33184
578	31.62475	125325312	91893760	55534696	33184
579	35.013887	125325312	91893760	46875496	33184
580	37.053805	125325312	91893760	56931032	33184
581	37.718328	125325312	91893760	50554520	33184
582	40.821451	125325312	91893760	62187592	33184
583	40.301529	125325312	91893760	56951936	33184
584	41.70374	125865984	91893760	53316984	33184
585	47.522101	126406656	92418048	54585632	33184
586	44.198191	126406656	92418048	69093072	33184
587	43.867607	126406656	92418048	66628344	33184
588	46.018138	126406656	92418048	65434056	33184
589	59.006184	128299008	94515200	69862064	33184
590	75.478914	127754240	93990912	27197504	33184
591	54.603564	127754240	93990912	33078320	33184
592	54.763882	127754240	93990912	39678024	33184
593	56.234327	127754240	93990912	47053600	33184
594	62.11872	127754240	93990912	42568904	33184
595	59.434273	127754240	93990912	51492480	33184
596	59.705061	127754240	93990912	61218104	33184
597	67.008047	128565248	94515200	59116024	33184
598	92.383382	121655296	89272320	27584104	33184
599	63.391212	123002880	89272320	39223832	33184
600	69.127859	123002880	89272320	39521256	33184
601	69.188331	123002880	89272320	40644288	33184
602	2.465584	123002880	89272320	55787104	33184
603	7.972422	123002880	89272320	45392080	33184
604	4.777612	123002880	89272320	48573600	33184
605	5.854687	123002880	89272320	52569112	33184
606	7.023076	123002880	89272320	57349040	33184
607	10.077127	123002880	89272320	48210856	33184
608	9.321643	123002880	89272320	54604120	33184
609	11.579915	123002880	89272320	46189632	33184
610	11.866482	123002880	89272320	54180984	33184
611	13.734901	123002880	89272320	47419520	33184
612	14.649942	123002880	89272320	57036944	33184
613	16.15902	123002880	89272320	51510200	33184
614	18.099501	123002880	89272320	47564120	33184
615	17.61908	123002880	89272320	59600704	33184
616	19.845679	123002880	89272320	56153816	33184
617	20.69961	123002880	89272320	54010824	33184
618	22.49029	123002880	89272320	52936960	33184
619	23.939576	123002880	89272320	52869928	33184
620	24.718813	123002880	89272320	53654656	33184
621	26.935163	123002880	89272320	55163472	33184
622	27.133658	123002880	89272320	57262760	33184
623	28.754817	123002880	89272320	59862632	33184
624	31.812478	123002880	89272320	48897488	33184
625	34.640548	123002880	89272320	56722384	33184
626	32.034717	123002880	89272320	62459816	33184
627	35.590036	123002880	89272320	53955800	33184
628	37.126146	123002880	89272320	64277448	33184
629	38.522192	123002880	89272320	58106632	33184
630	44.769452	124895232	90845184	57427728	33184
631	43.218444	126787584	92942336	70005704	33184
632	64.884634	122310656	90320896	18505624	33184
633	45.112935	124198912	90320896	31892472	33184
634	44.519754	124198912	90320896	29599472	33184
635	51.258168	124198912	90320896	33055440	33184
636	52.134652	124198912	90320896	37301296	33184
637	53.360865	124198912	90320896	42241952	33184
638	53.940161	124198912	90320896	48126752	33184
639	59.418017	124198912	90320896	42212824	33184
640	56.462309	124198912	90320896	49774552	33184
641	58.534167	124198912	90320896	58063600	33184
642	82.575812	122245120	90320896	23393048	33184
643	60.713501	124133376	90320896	32866024	33184
644	66.144017	124133376	90320896	31225944	33184
645	62.3433	124133376	90320896	43028088	33184
646	68.107658	124133376	90320896	43033528	33184
647	64.911894	124133376	90320896	56426976	33184
648	71.578786	124133376	90320896	58124728	33184
649	92.447522	124944384	90845184	60736056	33184
650	79.672194	123236352	89272320	33917776	33184
651	74.601489	123236352	89272320	38220640	33184
652	2.662015	123236352	89272320	44171272	33184
653	3.939134	123236352	89272320	46743416	33184
654	5.224085	123236352	89272320	50170368	33184
655	9.606213	123236352	89272320	40863040	33184
656	8.046447	123236352	89272320	46013128	33184
657	9.064126	123236352	89272320	52023360	33184
658	11.102621	123236352	89272320	43339456	33184
659	11.861318	123236352	89272320	51086192	33184
660	13.291807	123236352	89272320	43521128	33184
661	13.919538	123236352	89272320	52998912	33184
662	16.607205	123236352	89272320	46920320	33184
663	17.98696	123236352	89272320	42536912	33184
664	20.040486	123236352	89272320	39625808	33184
665	19.363345	123236352	89272320	52591096	33184
666	21.132417	123236352	89272320	50057912	33184
667	23.138956	123236352	89272320	48756512	33184
668	24.050008	123236352	89272320	48530920	33184
669	25.453424	123236352	89272320	49188120	33184
670	26.510009	123236352	89272320	50618672	33184
671	27.932449	123236352	89272320	52748888	33184
672	31.638633	123236352	89272320	41365472	33184
673	32.045662	123236352	89272320	46568112	33184
674	32.055489	123236352	89272320	51920352	33184
675	36.728681	123236352	89272320	43406360	33184
676	38.845636	123236352	89272320	53703224	33184
677	39.182019	123236352	89272320	47684848	33184
678	44.838509	123236352	89272320	47120432	33184
679	42.290805	123236352	89272320	59862688	33184
680	42.792944	123236352	89272320	56278120	33184
681	49.719606	123236352	89272320	58364936	33184
682	68.52289	126210048	92418048	61273168	33184
683	55.268489	123592704	89796608	32490048	33184
684	53.120733	123592704	89796608	37180208	33184
685	54.268078	123592704	89796608	42713248	33184
686	58.993886	123592704	89796608	36583920	33184
687	56.686658	123592704	89796608	43872816	33184
688	57.824237	123592704	89796608	52056672	33184
689	59.328653	123592704	89796608	61133160	33184
690	67.150386	123863040	89796608	58690480	33184
691	69.876897	126296064	92418048	69605800	33184
692	82.718871	127602688	93990912	35667560	33184
693	68.821246	127602688	93990912	35961144	33184
694	69.853285	127602688	93990912	37057360	33184
695	67.205669	127602688	93990912	51583592	33184
696	73.733239	127602688	93990912	54486016	33184
697	75.161882	127602688	93990912	58261472	33184
698	82.565142	127873024	93990912	62973216	33184
699	97.099628	125816832	91893760	37967472	33184
700	78.071367	125816832	91893760	44561752	33184
701	83.017506	125816832	91893760	39474656	33184
702	2.78288	125816832	91893760	48694592	33184
703	4.088293	125816832	91893760	51447200	33184
704	5.622465	125816832	91893760	55119608	33184
705	10.180047	125816832	91893760	46011920	33184
706	8.170066	125816832	91893760	51528200	33184
707	9.463308	125816832	91893760	57967704	33184
708	11.979115	125816832	91893760	49598088	33184
709	12.529272	125816832	91893760	57888104	33184
710	14.75677	125816832	91893760	51018240	33184
711	16.547045	125816832	91893760	46018576	33184
712	16.910964	125816832	91893760	57112824	33184
713	18.647923	125816832	91893760	53109144	33184
714	20.824489	125816832	91893760	50678536	33184
715	22.740954	125816832	91893760	49469840	33184
716	24.451641	125816832	91893760	49431768	33184
717	25.134289	125816832	91893760	50365480	33184
718	26.75076	125816832	91893760	52104176	33184
719	27.339181	125816832	91893760	54561936	33184
720	28.982039	125816832	91893760	57602480	33184
721	32.925158	125816832	91893760	47350152	33184
722	34.624114	125816832	91893760	55526040	33184
723	33.752105	125816832	91893760	61779296	33184
724	36.656306	125816832	91893760	54033824	33184
725	39.589817	125816832	91893760	65177920	33184
726	40.18283	125816832	91893760	59699480	33184
727	42.621326	125816832	91893760	56104120	33184
728	47.43298	125816832	91893760	57372784	33184
729	53.642627	127168512	93466624	72109432	33184
730	61.281864	125091840	91369472	25953200	33184
731	51.453357	125091840	91369472	30089704	33184
732	52.999636	125091840	91369472	35172544	33184
733	54.501961	125091840	91369472	41203784	33184
734	56.065503	125091840	91369472	48223896	33184
735	61.023192	125091840	91369472	43576344	33184
736	59.770793	125091840	91369472	52542264	33184
737	60.290265	125091840	91369472	62496976	33184
738	83.687818	125902848	92418048	60780936	33184
739	74.452716	125366272	91893760	27805000	33184
740	64.080778	125366272	91893760	40616560	33184
741	70.1757	125366272	91893760	41889056	33184
742	72.415144	125366272	91893760	44106624	33184
743	73.792326	125366272	91893760	47253616	33184
744	73.961137	125906944	91893760	51525160	33184
745	85.962208	126447616	92418048	56661464	33184
746	93.727375	125829120	92418048	30986488	33184
747	79.854747	126369792	92418048	38121672	33184
748	80.694352	126369792	92418048	46256200	33184
749	81.296037	126369792	92418048	55467104	33184
750	88.070722	126369792	92418048	53127120	33184
751	90.591429	127721472	93990912	64305448	33184
752	2.939774	126382080	92942336	33533248	33184
753	4.414283	126382080	92942336	36535672	33184
754	6.015469	126382080	92942336	40524064	33184
755	10.325955	126382080	92942336	31705656	33184
756	8.994659	126382080	92942336	37692920	33184
757	11.534665	126382080	92942336	29573264	33184
758	11.803974	126382080	92942336	37560000	33184
759	14.468603	126382080	92942336	30953096	33184
760	14.815342	126382080	92942336	40952512	33184
761	16.91771	126382080	92942336	35967656	33184
762	18.627333	126382080	92942336	32675360	33184
763	21.044165	126382080	92942336	30806272	33184
764	22.775246	126382080	92942336	30207840	33184
765	24.954104	126382080	92942336	30700432	33184
766	26.537946	126382080	92942336	32136448	33184
767	27.241733	126382080	92942336	34424984	33184
768	28.451324	126382080	92942336	37367640	33184
769	29.361972	126382080	92942336	40921120	33184
770	33.594225	126382080	92942336	31228000	33184
771	35.758991	126382080	92942336	39904848	33184
772	33.316954	126382080	92942336	46587816	33184
773	37.824819	126382080	92942336	39169824	33184
774	40.079	126382080	92942336	34674264	33184
775	41.208571	126382080	92942336	47432728	33184
776	42.291583	126382080	92942336	43732544	33184
777	48.435238	126382080	92942336	45993328	33184
778	50.950288	126382080	92942336	49076288	33184
779	52.912223	126382080	92942336	53224696	33184
780	52.963385	126922752	92942336	58390112	33184
781	54.849845	126922752	92942336	64564312	33184
782	66.306048	127733760	93990912	71770160	33184
783	74.335343	126967808	93466624	33022896	33184
784	62.726708	126967808	93466624	29869072	33184
785	62.247933	126967808	93466624	40168168	33184
786	66.351559	126967808	93466624	38981560	33184
787	63.130215	126967808	93466624	51371040	33184
788	68.970295	126967808	93466624	52209960	33184
789	70.824665	127238144	93466624	54104648	33184
790	100.451334	122929152	90845184	27678888	33184
791	74.939335	124817408	90845184	31218656	33184
792	71.253951	124817408	90845184	48871056	33184
793	77.038616	124817408	90845184	54882696	33184
794	82.247579	124817408	90845184	49358536	33184
795	79.774471	125358080	91369472	57565632	33184
796	83.373405	128061440	94515200	66789232	33184
797	112.070378	128204800	96088064	28782264	33184
798	85.202737	129552384	96088064	39063464	33184
799	94.441714	129552384	96088064	38864464	33184
800	87.521484	129552384	96088064	52288872	33184
801	92.857678	129552384	96088064	54217184	33184
802	3.463865	129552384	96088064	58100120	33184
803	5.113134	129552384	96088064	61270128	33184
804	6.909895	129552384	96088064	65499128	33184
805	13.143764	129552384	96088064	56915256	33184
806	10.274969	129552384	96088064	63266792	33184
807	15.980899	129552384	96088064	70710280	33184
808	24.873086	129552384	96088064	62962240	33184
809	18.550985	124796928	90845184	30843416	33184
810	16.724815	124796928	90845184	25971128	33184
811	17.005574	124796928	90845184	37648544	33184
812	19.849273	124796928	90845184	34013840	33184
813	21.154306	124796928	90845184	31918464	33184
814	22.754809	124796928	90845184	31183232	33184
815	24.887791	124796928	90845184	31602552	33184
816	25.99181	124796928	90845184	33094392	33184
817	27.832654	124796928	90845184	35411392	33184
818	32.111948	124796928	90845184	24610256	33184
819	34.396572	124796928	90845184	32512784	33184
820	33.106011	124796928	90845184	38523992	33184
821	36.654489	124796928	90845184	30870608	33184
822	39.396993	124796928	90845184	41968792	33184
823	40.129834	124796928	90845184	36688320	33184
824	47.071142	124796928	90845184	37357392	33184
825	47.547195	124796928	90845184	38931176	33184
826	49.230746	124796928	90845184	41577008	33184
827	51.684839	124796928	90845184	45384256	33184
828	52.462831	124796928	90845184	50231408	33184
829	54.901065	125337600	91369472	56150184	33184
830	58.028853	125337600	91369472	63155368	33184
831	87.138494	128585728	96088064	27114720	33184
832	60.271738	129933312	96088064	35557016	33184
833	64.95801	129933312	96088064	33229800	33184
834	62.225338	129933312	96088064	44619864	33184
835	71.566108	129933312	96088064	44568008	33184
836	66.375127	129933312	96088064	58186296	33184
837	71.115003	129933312	96088064	60331280	33184
838	74.757658	129933312	96088064	63527488	33184
839	100.769415	128811008	96612352	36409304	33184
840	76.921018	130158592	96612352	41050688	33184
841	77.468593	130158592	96612352	47569664	33184
842	79.694502	130158592	96612352	55151744	33184
843	85.534417	130158592	96612352	51352824	33184
844	82.299275	130158592	96612352	61170104	33184
845	86.416733	130699264	96612352	72162456	33184
846	116.729784	132222976	98185216	37440864	33184
847	94.637657	132222976	98185216	38185024	33184
848	90.230589	132222976	98185216	52423400	33184
849	95.288301	132222976	98185216	55225488	33184
850	97.513102	132222976	98185216	59291600	33184
851	103.472071	132222976	98185216	64273048	33184
852	3.347941	131125248	97660928	37868592	33184
853	4.952892	131125248	97660928	41270224	33184
854	10.286683	131125248	97660928	32398456	33184
855	8.688455	131125248	97660928	38046344	33184
856	10.014528	131125248	97660928	44838848	33184
857	12.95261	131125248	97660928	37279064	33184
858	14.719868	131125248	97660928	31029288	33184
859	15.061846	131125248	97660928	41226440	33184
860	17.686425	131125248	97660928	36775960	33184
861	19.76366	131125248	97660928	34073960	33184
862	22.039226	131125248	97660928	32832880	33184
863	24.193221	131125248	97660928	32888000	33184
864	25.544693	131125248	97660928	34095656	33184
865	27.130466	131125248	97660928	36290464	33184
866	28.721541	131125248	97660928	39313256	33184
867	29.397807	131125248	97660928	43062944	33184
868	33.73605	131125248	97660928	33591392	33184
869	35.671332	131125248	97660928	42811272	33184
870	38.451834	131125248	97660928	36512840	33184
871	39.631436	131125248	97660928	47992824	33184
872	40.825086	131125248	97660928	43448624	33184
873	48.468594	131125248	97660928	44549648	33184
874	48.408476	131125248	97660928	46805336	33184
875	50.017552	131125248	97660928	50108112	33184
876	51.293149	131125248	97660928	54627776	33184
877	53.50867	131125248	97660928	60362880	33184
878	56.736906	131665920	97660928	67063200	33184
879	87.55375	131678208	99233792	29476072	33184
880	59.022912	133025792	99233792	37473640	33184
881	65.380643	133025792	99233792	35152808	33184
882	62.0992	133025792	99233792	46610536	33184
883	67.848758	133025792	99233792	46636024	33184
884	70.183712	133025792	99233792	47846968	33184
885	67.464303	133025792	99233792	62828928	33184
886	74.548864	133025792	99233792	66380080	33184
887	98.557926	127639552	95039488	39222944	33184
888	81.331821	128987136	95039488	31819720	33184
889	77.961338	128987136	95039488	38878472	33184
890	79.70244	128987136	95039488	47054752	33184
891	81.149054	128987136	95039488	56480432	33184
892	82.948428	128987136	95039488	67128952	33184
893	94.702649	130879488	97136640	66221888	33184
894	113.306528	133750784	100282368	32658128	33184
895	88.771592	133750784	100282368	46795240	33184
896	95.003158	133750784	100282368	49444000	33184
897	97.69933	133750784	100282368	53385216	33184
898	97.570065	133750784	100282368	58479312	33184
899	118.649996	136183808	102903808	64774248	33184
900	107.223523	130191360	96088064	38078576	33184
901	104.707453	130191360	96088064	46764600	33184
902	3.515393	130191360	96088064	57721984	33184
903	9.548399	130191360	96088064	48353368	33184
904	7.093587	130191360	96088064	53114440	33184
905	8.730895	130191360	96088064	59078168	33184
906	12.425863	130191360	96088064	51460904	33184
907	12.447519	130191360	96088064	59818912	33184
908	14.293831	130191360	96088064	53164272	33184
909	17.291055	130191360	96088064	48652824	33184
910	18.430967	130191360	96088064	60618600	33184
911	19.976502	130191360	96088064	57473208	33184
912	21.650094	130191360	96088064	55956488	33184
913	24.077132	130191360	96088064	55864856	33184
914	25.91148	130191360	96088064	57026200	33184
915	27.943146	130191360	96088064	59228040	33184
916	32.138784	130191360	96088064	48450568	33184
917	34.270259	130191360	96088064	56364688	33184
918	33.199907	130191360	96088064	62651008	33184
919	37.664548	130191360	96088064	55326440	33184
920	40.615335	130191360	96088064	66938256	33184
921	40.918302	130191360	96088064	62106296	33184
922	43.721735	130191360	96088064	59260224	33184
923	49.940862	130191360	96088064	61845928	33184
924	71.900568	132354048	98709504	65539752	33184
925	52.982182	124510208	90845184	35478512	33184
926	49.539391	124510208	90845184	36442824	33184
927	55.140761	124510208	90845184	26080744	33184
928	57.503519	124510208	90845184	34611616	33184
929	59.479491	124510208	90845184	44414184	33184
930	65.65468	124510208	90845184	42910976	33184
931	66.534644	124510208	90845184	55066856	33184
932	71.606276	124510208	90845184	56005416	33184
933	71.658265	124780544	90845184	58094424	33184
934	90.235754	128294912	94515200	61436792	33184
935	84.201282	129036288	95039488	32820808	33184
936	76.762624	129036288	95039488	38597840	33184
937	78.84108	129036288	95039488	45647168	33184
938	80.809652	129036288	95039488	53977664	33184
939	86.42377	129036288	95039488	50907104	33184
940	84.366851	129036288	95039488	61563952	33184
941	118.984445	124334080	90845184	30576112	33184
942	87.9272	124334080	90845184	43872816	33184
943	94.40923	124334080	90845184	45720048	33184
944	95.697961	124334080	90845184	48758312	33184
945	92.92465	124874752	90845184	65626112	33184
946	102.632893	130551808	96612352	71271920	33184
947	133.296595	132816896	99233792	31443032	33184
948	103.071733	132816896	99233792	39562632	33184
949	104.955997	132816896	99233792	48848040	33184
950	107.04703	132816896	99233792	59364696	33184
951	108.004248	132816896	99233792	71274864	33184
952	3.745894	128413696	94515200	35249288	33184
953	9.766053	128413696	94515200	26196008	33184
954	7.865867	128413696	94515200	31202552	33184
955	9.191188	128413696	94515200	37469536	33184
956	12.905953	128684032	94515200	30006344	33184
957	13.807829	128684032	94515200	38782120	33184
958	15.554628	128684032	94515200	32451656	33184
959	17.971928	128684032	94515200	28235288	33184
960	20.629513	128684032	94515200	25923120	33184
961	20.839691	128684032	94515200	39742344	33184
962	23.343994	128684032	94515200	38342376	33184
963	24.892662	128684032	94515200	38425696	33184
964	26.868782	128684032	94515200	39734968	33184
965	31.422778	128684032	94515200	27939256	33184
966	31.952437	128684032	94515200	33276544	33184
967	32.947482	128684032	94515200	39075584	33184
968	37.185318	128684032	94515200	31277752	33184
969	37.186532	128684032	94515200	39901520	33184
970	40.110324	128684032	94515200	34427008	33184
971	43.195004	128684032	94515200	31645584	33184
972	50.170997	128684032	94515200	34330248	33184
973	51.159014	128684032	94515200	38201352	33184
974	54.035924	128684032	94515200	43371808	33184
975	55.306988	128684032	94515200	49832352	33184
976	57.38311	128684032	94515200	57597288	33184
977	63.871746	128684032	94515200	54062016	33184
978	66.002476	128684032	94515200	64322488	33184
979	86.692152	125870080	91893760	31558248	33184
980	68.989794	125870080	91893760	31951904	33184
981	67.214969	125870080	91893760	46079776	33184
982	74.308797	125870080	91893760	48938048	33184
983	75.214851	125870080	91893760	53104488	33184
984	76.244337	125870080	91893760	58535800	33184
985	85.648088	125870080	92418048	65288656	33184
986	105.827755	127029248	92942336	29671400	33184
987	82.190974	127029248	92942336	38964752	33184
988	85.099429	127029248	92942336	49589888	33184
989	91.327544	127029248	92942336	48969880	33184
990	89.929364	127029248	92942336	62140264	33184
991	99.04063	127299584	93466624	64112776	33184
992	119.387962	128368640	94515200	35284784	33184
993	98.023691	128368640	94515200	39729192	33184
994	100.52462	128368640	94515200	45612824	33184
995	104.256174	128368640	94515200	52773280	33184
996	105.669193	128909312	95039488	61351448	33184
997	126.768012	129187840	95039488	33515248	33184
998	113.060193	129187840	95039488	32229832	33184
999	110.609616	129187840	95039488	44749008	33184
1000	113.743872	129187840	95039488	58485640	33184
