x	Duration	RSS	HeapTotal	HeapUsed	External
0	NA	114798592	80359424	14535840	33184
1	0.239792	114798592	80359424	14588088	33184
2	0.175062	114798592	80359424	14656048	33184
3	0.300833	114798592	80359424	14748744	33184
4	0.233993	114798592	80359424	14867848	33184
5	0.548039	114798592	80359424	15015960	33184
6	0.328713	114798592	80359424	15192128	33184
7	0.366096	114798592	80359424	15398344	33184
8	0.644724	114798592	80359424	15635928	33184
9	0.467691	114798592	80359424	15907288	33184
10	0.542316	114798592	80359424	16216544	33184
11	0.557422	114798592	80359424	16557288	33184
12	0.606204	114798592	80359424	16934672	33184
13	0.658372	114798592	80359424	17349824	33184
14	1.107646	114798592	80359424	17803888	33184
15	1.529983	114798592	80359424	18298168	33184
16	1.410122	114798592	80359424	18839152	33184
17	1.273472	114798592	80359424	19419392	33184
18	1.201459	114798592	80359424	20043552	33184
19	1.111918	114798592	80359424	20713896	33184
20	1.218532	114798592	80359424	21440312	33184
21	1.148919	114798592	80359424	22204072	33184
22	1.215725	114798592	80359424	23017600	33184
23	1.301269	114798592	80359424	23881952	33184
24	1.380867	114798592	80359424	24798424	33184
25	1.434512	114798592	80359424	25768312	33184
26	1.739261	114798592	80359424	26792832	33184
27	1.601065	114798592	80359424	27873136	33184
28	1.697139	114798592	80359424	29010320	33184
29	1.901525	114798592	80359424	30205824	33184
30	3.15901	114798592	80359424	15547464	33184
31	2.028649	114798592	80359424	16863080	33184
32	2.99909	114798592	80359424	18243312	33184
33	2.18591	114798592	80359424	19691096	33184
34	2.260868	114798592	80359424	21203576	33184
35	2.419155	114798592	80359424	22781688	33184
36	2.791717	114798592	80359424	24426568	33184
37	2.891766	114798592	80359424	26161488	33184
38	2.638707	114798592	80359424	27943920	33184
39	3.19308	114798592	80359424	29799032	33184
40	5.05177	114798592	80359424	16372024	33184
41	3.135211	114798592	80359424	18369816	33184
42	3.110036	114798592	80359424	20441824	33184
43	5.317651	114798592	80359424	22599736	33184
44	3.276901	114798592	80359424	24824968	33184
45	3.376043	114798592	80359424	27130688	33184
46	3.503059	114798592	80359424	29516424	33184
47	3.591225	114798592	80359424	31984440	33184
48	5.433257	114798592	80359424	19117192	33184
49	4.695071	114798592	80359424	21753184	33184
50	4.245125	114798592	80359424	24485320	33184
51	3.989036	114798592	80359424	27290784	33184
52	0.29315	114798592	80359424	30100744	33184
53	0.461889	114798592	80359424	30365896	33184
54	0.633706	114798592	80359424	30721592	33184
55	0.681621	114798592	80359424	31169192	33184
56	0.808948	114798592	80359424	31710328	33184
57	0.936293	114798592	80359424	32345712	33184
58	3.097293	114798592	80359424	17669552	33184
59	1.214867	114798592	80359424	18497104	33184
60	1.58744	114798592	80359424	19423600	33184
61	1.522798	114798592	80359424	20449200	33184
62	1.633447	114798592	80359424	21575264	33184
63	1.759523	114798592	80359424	22802856	33184
64	1.947119	114798592	80359424	24134072	33184
65	2.071409	114798592	80359424	25568664	33184
66	3.031056	114798592	80359424	27109952	33184
67	2.40639	114798592	80359424	28759248	33184
68	2.515709	114798592	80359424	30515200	33184
69	2.65134	114798592	80359424	32380208	33184
70	4.55433	114798592	80359424	18664112	33184
71	2.971547	114798592	80359424	20751064	33184
72	3.143643	114798592	80359424	22950648	33184
73	3.325592	114798592	80359424	25264216	33184
74	3.650187	114798592	80359424	27692832	33184
75	3.604554	114798592	80359424	30237888	33184
76	3.772414	114798592	80359424	32900328	33184
77	5.668386	114798592	80359424	19722632	33184
78	4.107218	114798592	80359424	22624464	33184
79	4.503904	114798592	80359424	25647080	33184
80	4.458654	114798592	80359424	28792304	33184
81	4.725275	114798592	80359424	32062456	33184
82	6.441134	114798592	80359424	19575448	33184
83	5.582881	114798592	80359424	23099296	33184
84	5.473224	114798592	80359424	26755584	33184
85	5.416984	114798592	80359424	30541552	33184
86	5.755867	114798592	80359424	34457520	33184
87	7.099238	114798592	80359424	22369512	33184
88	6.102943	114798592	80359424	26552344	33184
89	6.111954	114798592	80359424	30868976	33184
90	8.313986	114798592	80359424	19644080	33184
91	7.238797	114798592	80359424	24235896	33184
92	6.7387	114798592	80359424	28968072	33184
93	7.383428	114798592	80359424	33842200	33184
94	8.97409	114798592	80359424	22809984	33184
95	7.317286	114798592	80359424	27970976	33184
96	7.704235	114798592	80359424	33277184	33184
97	9.671126	114798592	80359424	22778472	33184
98	8.489754	114798592	80359424	28379272	33184
99	8.51498	114798592	80359424	34129688	33184
100	10.078227	114798592	80359424	23974280	33184
101	8.920245	114798592	80359424	30026312	33184
102	2.259365	114798592	80359424	20023304	33184
103	0.747607	114798592	80359424	20482064	33184
104	0.978721	114798592	80359424	21095920	33184
105	1.2286	114798592	80359424	21866168	33184
106	1.418861	114798592	80359424	22794528	33184
107	1.575623	114798592	80359424	23881672	33184
108	1.851184	114798592	80359424	25129208	33184
109	2.031992	114798592	80359424	26539008	33184
110	2.269216	114798592	80359424	28110896	33184
111	2.494991	114798592	80359424	29846536	33184
112	2.742695	114798592	80359424	31747168	33184
113	2.972318	114798592	80359424	33814280	33184
114	3.412802	114798592	80359424	36048608	33184
115	5.099845	114798592	80359424	22219400	33184
116	3.672282	114798592	80359424	24792072	33184
117	4.127255	114798592	80359424	27536016	33184
118	4.152816	114798592	80359424	30454216	33184
119	4.415452	114798592	80359424	33545776	33184
120	6.603002	114798592	80359424	20903720	33184
121	4.944463	114798592	80359424	24346432	33184
122	5.21676	114798592	80359424	27967296	33184
123	5.401687	114798592	80359424	31765640	33184
124	5.93902	114798592	80359424	35743800	33184
125	7.410782	114798592	80359424	23716856	33184
126	6.403388	114798592	80359424	28057976	33184
127	6.453819	114798592	80359424	32584232	33184
128	8.504184	114798592	80359424	21539056	33184
129	7.270875	114798592	80359424	26434152	33184
130	7.241247	114798592	80359424	31516136	33184
131	7.730447	114798592	80359424	36786424	33184
132	9.480664	114798592	80359424	25962880	33184
133	8.277439	114798592	80359424	31616832	33184
134	10.542221	114798592	80359424	21858120	33184
135	8.855665	114798592	80359424	27901480	33184
136	8.916372	114798592	80359424	34142840	33184
137	11.122501	114798592	80359424	24640200	33184
138	10.353462	114798592	80359424	31278536	33184
139	12.079585	114798592	80359424	22581184	33184
140	10.372015	114798592	80359424	29608544	33184
141	10.654165	114798592	80359424	36836464	33184
142	12.174694	114798592	80359424	28025600	33184
143	11.395429	114798592	80359424	35662200	33184
144	13.285216	114798592	80359424	27440720	33184
145	11.803168	114798592	80359424	35490856	33184
146	14.434146	114798592	80359424	27694776	33184
147	12.856688	114798592	80359424	36163168	33184
148	14.319982	114798592	80359424	28719968	33184
149	12.913334	114798592	80359424	37613224	33184
150	15.848935	114798592	80359424	30440240	33184
151	16.126702	114798592	80359424	24434584	33184
152	0.680869	114798592	80359424	34031848	33184
153	0.987672	114798592	80359424	34680144	33184
154	1.286119	114798592	80359424	35547992	33184
155	1.649266	114798592	80359424	36634128	33184
156	2.136638	114798592	80359424	37942080	33184
157	3.973073	114798592	80359424	23216976	33184
158	2.737577	114798592	80359424	24969608	33184
159	3.065064	114798592	80359424	26946760	33184
160	3.422671	114798592	80359424	29150680	33184
161	3.77137	114798592	80359424	31581464	33184
162	4.177077	114798592	80359424	34240936	33184
163	4.400569	114798592	80359424	37129160	33184
164	6.469994	114798592	80359424	24127456	33184
165	5.777282	114798592	80359424	27484392	33184
166	5.189024	114798592	80359424	31068120	33184
167	5.740677	114798592	80359424	34886160	33184
168	7.851959	114798592	80359424	23129248	33184
169	6.227965	114798592	80359424	27421256	33184
170	6.590978	114798592	80359424	31951888	33184
171	7.092172	114798592	80359424	36721584	33184
172	9.366499	114798592	80359424	25671128	33184
173	7.657886	114798592	80359424	30922872	33184
174	7.966666	114798592	80359424	36417424	33184
175	10.360324	114798592	80359424	26144376	33184
176	8.900145	114798592	80359424	32128464	33184
177	9.01325	114798592	80359424	38359216	33184
178	11.052583	114798592	80359424	28583304	33184
179	10.032877	114798592	80359424	35310736	33184
180	12.273298	114798592	80359424	26454944	33184
181	10.447308	114798592	80359424	33692472	33184
182	13.28128	114798592	80359424	25551784	33184
183	11.415072	114798592	80359424	33307392	33184
184	13.921815	114798592	80359424	25761840	33184
185	12.211235	114798592	80359424	34044216	33184
186	15.07896	114798592	80359424	26947960	33184
187	13.529863	114798592	80359424	35752208	33184
188	15.796455	114798592	80359424	28977744	33184
189	13.68068	114798592	80359424	38312720	33184
190	16.062018	114798592	80359424	31736296	33184
191	16.793284	114798592	80359424	26308640	33184
192	15.005323	114798592	80359424	36450512	33184
193	17.472786	114798592	80359424	30938704	33184
194	18.181086	114798592	80359424	26454888	33184
195	16.398921	114798592	80359424	37411704	33184
196	18.505407	114798592	80359424	32602712	33184
197	19.749033	114798592	80359424	28758168	33184
198	17.574652	114798592	80359424	40536656	33184
199	19.983631	114798592	80359424	36206592	33184
200	20.68838	114798592	80359424	32735504	33184
201	20.824586	114798592	80359424	30047968	33184
202	0.87006	114798592	80359424	28096032	33184
203	1.323763	114798592	80359424	28940880	33184
204	1.667368	114798592	80359424	30069568	33184
205	2.074546	114798592	80359424	31483320	33184
206	2.514075	114798592	80359424	33183896	33184
207	3.129824	114798592	80359424	35174016	33184
208	3.54091	114798592	80359424	37451368	33184
209	3.936422	114798592	80359424	40018216	33184
210	6.289178	114798592	80359424	26655912	33184
211	5.008562	114798592	80359424	29807352	33184
212	4.983995	114798592	80359424	33255072	33184
213	5.63765	114798592	80359424	36995136	33184
214	5.869989	114798592	80359424	41031232	33184
215	8.163466	114798592	80359424	29013728	33184
216	6.912923	114798592	80359424	33645576	33184
217	7.123994	114798592	80359424	38577384	33184
218	9.860699	114798592	80359424	27778248	33184
219	8.003977	114798592	80359424	33319440	33184
220	8.445484	114798592	80359424	39160216	33184
221	11.222461	114798592	80359424	29195424	33184
222	9.548472	114798592	80359424	35650224	33184
223	12.398231	114798592	80359424	26779312	33184
224	10.501444	114798592	80359424	33846256	33184
225	10.940539	114798592	80359424	41222816	33184
226	13.513605	114798592	80359424	32551616	33184
227	11.812284	114798592	80359424	40555088	33184
228	14.176781	114798592	80359424	32620336	33184
229	12.556641	114798592	80359424	41253768	33184
230	15.248632	114798592	80359424	33863856	33184
231	16.093552	114798592	80359424	27786264	33184
232	14.385822	114798592	80359424	37376160	33184
233	16.899238	114798592	80359424	31470920	33184
234	15.057482	114798592	80359424	41718832	33184
235	17.518197	114798592	80359424	35935416	33184
236	18.576124	114798592	80359424	31235920	33184
237	19.868183	114798592	80359424	27499440	33184
238	17.510925	114798592	80359424	39051176	33184
239	20.421215	114798592	80359424	34927632	33184
240	20.66454	114798592	80359424	31709568	33184
241	22.089359	114798592	80359424	29245208	33184
242	19.640506	114798592	80359424	42123840	33184
243	21.613138	114798592	80359424	38975320	33184
244	22.095886	114798592	80359424	36574104	33184
245	23.481049	114798592	80359424	34832968	33184
246	23.905407	114798592	80359424	33687328	33184
247	24.50531	114798592	80359424	33046600	33184
248	25.54729	114798592	80359424	32837672	33184
249	26.139901	114798592	80359424	33013504	33184
250	26.27553	114798592	80359424	33505448	33184
251	26.582703	114798592	80359424	34288464	33184
252	1.060421	114798592	80359424	35541744	33184
253	1.545801	114798592	80359424	36579368	33184
254	2.048655	114798592	80359424	37964992	33184
255	2.53852	114798592	80359424	39699840	33184
256	3.108537	114798592	80359424	41785840	33184
257	6.522493	114798592	80359424	28052904	33184
258	4.330478	114798592	80359424	30843664	33184
259	4.799746	114798592	80359424	33988568	33184
260	5.094625	114798592	80359424	37491448	33184
261	5.829563	114798592	80359424	41349400	33184
262	8.424553	114798592	80359424	29442200	33184
263	6.673364	114798592	80359424	34017184	33184
264	7.732035	114798592	80359424	38953976	33184
265	10.341085	114798592	80359424	28496512	33184
266	8.499659	114798592	80359424	34156224	33184
267	8.743455	114798592	80359424	40179976	33184
268	11.93724	114798592	80359424	30638896	33184
269	10.084348	114798592	80359424	37396368	33184
270	13.532834	114798592	80359424	28964224	33184
271	11.195074	114798592	80359424	36462272	33184
272	14.414174	114798592	80359424	28911200	33184
273	12.230374	114798592	80359424	37147248	33184
274	15.868256	114798592	80359424	30241912	33184
275	13.731003	114798592	80359424	39230152	33184
276	16.241378	114798592	80359424	32814504	33184
277	14.437829	114798592	80359424	42551000	33184
278	17.245812	114798592	80359424	36451576	33184
279	18.468877	114798592	80359424	31569248	33184
280	16.02545	114798592	80359424	42439880	33184
281	18.890058	114798592	80359424	37480712	33184
282	20.267792	114798592	80359424	33589552	33184
283	21.320306	114798592	80359424	30602552	33184
284	18.419251	114798592	80359424	43023032	33184
285	21.467444	114798592	80359424	39565544	33184
286	22.507187	114798592	80359424	36998288	33184
287	23.15615	114798592	80359424	35123384	33184
288	24.488981	114798592	80359424	33928728	33184
289	25.047109	114798592	80359424	33291488	33184
290	25.468097	114798592	80359424	33167432	33184
291	26.501003	114798592	80359424	33456744	33184
292	26.993151	114798592	80359424	34119552	33184
293	27.492571	114798592	80359424	35061224	33184
294	28.616994	114798592	80359424	36316368	33184
295	28.404883	114798592	80359424	37788416	33184
296	28.73081	114798592	80359424	39451160	33184
297	29.379712	114798592	80359424	41316200	33184
298	30.599028	114798592	80359424	43350704	33184
299	29.868171	114798592	80359424	45506752	33184
300	35.029577	114798592	80359424	33572360	33184
301	32.723942	114798592	80359424	37916800	33184
302	1.283557	114798592	80359424	42370344	33184
303	1.856088	114798592	80359424	43591912	33184
304	2.426004	114798592	80359424	45225288	33184
305	5.887707	114798592	80359424	30968752	33184
306	3.860635	114798592	80359424	33422792	33184
307	4.444344	114798592	80359424	36290096	33184
308	5.045537	114798592	80359424	39572760	33184
309	5.659545	114798592	80359424	43271208	33184
310	9.034585	114798592	80359424	31320952	33184
311	7.047693	114798592	80359424	35854000	33184
312	7.656817	114798592	80359424	40806160	33184
313	12.033519	114798592	80359424	30481312	33184
314	8.776973	114798592	80359424	36278256	33184
315	9.56835	114798592	80359424	42496528	33184
316	12.53825	114798592	80359424	33273368	33184
317	10.619497	114798592	80359424	40340240	33184
318	14.217919	114798592	80359424	32209504	33184
319	11.956177	114798592	80359424	40132752	33184
320	15.542879	114798592	80359424	32879416	33184
321	13.222624	114798592	80359424	41662192	33184
322	16.59043	114798592	80359424	35090104	33184
323	14.412026	114798592	80359424	44739760	33184
324	17.776745	114798592	80359424	38629328	33184
325	19.148806	114798592	80359424	33786080	33184
326	16.627527	114798592	80359424	44740328	33184
327	20.367696	114798592	80359424	39919512	33184
328	21.99987	114798592	80359424	36210064	33184
329	22.024764	114798592	80359424	33439616	33184
330	19.417501	114798592	80359424	46151720	33184
331	22.35377	114798592	80359424	42953024	33184
332	23.709155	114798592	80359424	40641968	33184
333	24.192716	114798592	80359424	39069936	33184
334	25.395958	114798592	80359424	38199912	33184
335	26.175615	114798592	80359424	37886320	33184
336	26.864083	114798592	80359424	38079296	33184
337	27.439816	114798592	80359424	38696576	33184
338	28.184173	114798592	80359424	39684656	33184
339	28.366029	114798592	80359424	41015920	33184
340	29.34471	114798592	80359424	42620400	33184
341	29.414972	114798592	80359424	44464688	33184
342	29.649732	114798592	80359424	46507160	33184
343	36.117074	114798592	80359424	34634560	33184
344	32.764424	114798592	80359424	38977776	33184
345	32.464996	114798592	80359424	43203288	33184
346	33.220442	114798592	80359424	47314536	33184
347	38.958565	114798592	80359424	37176952	33184
348	35.577761	114798592	80359424	43029744	33184
349	40.659932	114798592	80359424	34932640	33184
350	39.091273	114798592	80359424	44305112	33184
351	43.028412	114798592	80359424	37607256	33184
352	1.514944	114798592	80359424	48257080	33184
353	2.211553	114798592	80359424	49662792	33184
354	2.938712	114798592	80359424	51539240	33184
355	3.66246	114798592	80359424	53887968	33184
356	7.012097	114798592	80359424	40350536	33184
357	4.934474	114798592	80359424	43647192	33184
358	5.61988	114798592	80359424	47427760	33184
359	6.396892	114798592	80359424	51693648	33184
360	9.919323	114798592	80359424	40342448	33184
361	7.984023	114798592	80359424	45592264	33184
362	8.4382	114798592	80359424	51335352	33184
363	12.369107	114798592	80359424	41531144	33184
364	10.341011	114798592	80359424	48267824	33184
365	14.064448	114798592	80359424	39881304	33184
366	11.321335	114798592	80359424	47610024	33184
367	16.399473	114798592	80359424	40290920	33184
368	13.931625	114798592	80359424	49022712	33184
369	18.258376	114798592	80359424	42536088	33184
370	14.769059	114798592	80359424	52275872	33184
371	18.517598	114798592	80359424	46354200	33184
372	19.452998	114798592	80359424	41748928	33184
373	16.624423	114798592	80359424	53002544	33184
374	20.826151	114798592	80359424	48515256	33184
375	21.728236	114798592	80359424	45171768	33184
376	22.822377	114798592	80359424	42783392	33184
377	24.250207	114798592	80359424	41248320	33184
378	25.273031	114798592	80359424	40432480	33184
379	21.214542	114798592	80359424	54763280	33184
380	24.587775	114798592	80359424	53170496	33184
381	25.651947	114798592	80359424	52297008	33184
382	26.432792	114798592	80359424	52062248	33184
383	27.504654	114798592	80359424	52395648	33184
384	28.253842	114798592	80359424	53181720	33184
385	28.675571	114798592	80359424	54400168	33184
386	35.310862	114798592	80359424	41824504	33184
387	32.163891	114798592	80359424	45638624	33184
388	32.247987	114798592	80359424	49514232	33184
389	32.410899	114798592	80359424	53386192	33184
390	38.511351	114798592	80359424	43247352	33184
391	37.500319	114798592	80359424	51384000	33184
392	35.13649	114798592	80359424	57162448	33184
393	41.800907	114798592	80359424	48326872	33184
394	41.267123	114798592	80359424	55376840	33184
395	57.888631	114798592	80359424	24079920	33184
396	43.107532	114798592	80359424	21783872	33184
397	38.681317	114798592	80359424	32916616	33184
398	38.694803	114798592	80359424	27659848	33184
399	44.175655	114798592	80359424	27347624	33184
400	40.813628	114798592	80359424	40116784	33184
401	41.617677	114798592	80359424	36168528	33184
402	1.618858	115339264	80883712	37953472	33184
403	2.374646	115339264	80883712	39581296	33184
404	3.353855	115339264	80883712	41754080	33184
405	3.907769	115339264	80883712	44472928	33184
406	4.71546	115339264	80883712	47749416	33184
407	7.976408	115339264	80883712	37450432	33184
408	6.817977	115339264	80883712	41815456	33184
409	7.456384	115339264	80883712	46731496	33184
410	9.168438	115339264	80883712	36591352	33184
411	8.65903	115339264	80883712	42613936	33184
412	9.665921	115339264	80883712	49203696	33184
413	10.639648	115339264	80883712	40060384	33184
414	11.340547	115339264	80883712	47751240	33184
415	12.552759	115339264	80883712	39903632	33184
416	13.078997	115339264	80883712	48718704	33184
417	13.840698	115339264	80883712	41863064	33184
418	15.744866	115339264	80883712	36499776	33184
419	15.266789	115339264	80883712	46995696	33184
420	16.749804	115339264	80883712	42058888	33184
421	18.180969	115339264	80883712	38369432	33184
422	17.723753	115339264	80883712	50570280	33184
423	19.44924	115339264	80883712	46861448	33184
424	20.337546	115339264	80883712	44210176	33184
425	21.34709	115339264	80883712	42482528	33184
426	22.634226	115339264	80883712	41586000	33184
427	23.235913	115339264	80883712	41390200	33184
428	24.397482	115339264	80883712	41795224	33184
429	25.291394	115339264	80883712	42738464	33184
430	25.500211	115339264	80883712	44128416	33184
431	26.521423	115339264	80883712	45891224	33184
432	27.22377	115339264	80883712	47990736	33184
433	27.903878	115339264	80883712	50375936	33184
434	31.632858	115339264	80883712	38899488	33184
435	31.923695	115339264	80883712	43764952	33184
436	31.13948	115339264	80883712	48583200	33184
437	34.531871	115339264	80883712	39427304	33184
438	35.861023	115339264	80883712	48451048	33184
439	36.562344	115339264	80883712	41418144	33184
440	39.20776	115339264	80883712	51570096	33184
441	43.525544	115339264	80883712	45568304	33184
442	57.533842	114036736	81408000	29222840	33184
443	43.139973	115388416	81408000	26970320	33184
444	44.726579	115388416	81408000	26615216	33184
445	40.841575	115388416	81408000	39583248	33184
446	41.946953	115388416	81408000	35739080	33184
447	48.359613	115929088	81408000	37372248	33184
448	48.023793	115929088	81408000	39479800	33184
449	48.923512	115929088	81408000	42162448	33184
450	49.705129	115929088	81408000	45438704	33184
451	51.161422	117280768	82980864	49327336	33184
452	1.993012	121065472	87175168	54364712	33184
453	2.965425	121065472	87175168	56176696	33184
454	3.945068	121065472	87175168	58594928	33184
455	4.877388	121065472	87175168	61620488	33184
456	5.893096	121065472	87175168	65261632	33184
457	12.120519	123228160	89272320	55230608	33184
458	7.876534	123228160	89272320	60086304	33184
459	9.21437	123228160	89272320	65554328	33184
460	16.921518	123498496	89272320	55720424	33184
461	21.253459	120352768	86126592	21381128	33184
462	10.645688	120352768	86126592	28700024	33184
463	12.283821	120352768	86126592	21009944	33184
464	12.323993	120352768	86126592	29564872	33184
465	13.980898	120352768	86126592	23013664	33184
466	14.156823	120352768	86126592	32804792	33184
467	15.424281	120352768	86126592	27040384	33184
468	17.350499	120352768	86126592	22728392	33184
469	16.77897	120352768	86126592	34399088	33184
470	17.94568	120352768	86126592	30314608	33184
471	19.408524	120352768	86126592	27413880	33184
472	21.464869	120352768	86126592	25527128	33184
473	22.526066	120352768	86126592	24533280	33184
474	23.858841	120352768	86126592	24309056	33184
475	24.263224	120352768	86126592	24753152	33184
476	25.485219	120352768	86126592	25789880	33184
477	25.842399	120352768	86126592	27306560	33184
478	26.340796	120352768	86126592	29258232	33184
479	27.51828	120352768	86126592	31555640	33184
480	28.04726	120352768	86126592	34178552	33184
481	31.733686	120352768	86126592	23022192	33184
482	33.234153	120352768	86126592	30525976	33184
483	31.394358	120352768	86126592	35750656	33184
484	33.899934	120352768	86126592	26763616	33184
485	36.355997	120352768	86126592	36173504	33184
486	36.923806	120352768	86126592	29340936	33184
487	38.64305	120352768	86126592	40020344	33184
488	38.606058	120352768	86126592	34218808	33184
489	40.441624	120352768	86126592	46204488	33184
490	41.049648	120352768	86126592	41140416	33184
491	41.268885	120352768	86126592	37585568	33184
492	46.83879	120893440	86650880	38864728	33184
493	43.356153	121163776	86650880	53252680	33184
494	43.863865	121163776	86650880	50508136	33184
495	44.651967	121163776	86650880	48965600	33184
496	51.595656	121163776	86650880	52872928	33184
497	51.719385	121163776	86650880	57321624	33184
498	55.223289	121163776	86650880	62394240	33184
499	82.530548	122331136	89272320	25932728	33184
500	56.849583	123678720	89272320	31808560	33184
501	54.961637	123678720	89272320	38832112	33184
502	2.002197	123678720	89272320	47139032	33184
503	7.436169	123678720	89272320	36392208	33184
504	4.012691	123678720	89272320	39055696	33184
505	4.950083	123678720	89272320	42388784	33184
506	5.847664	123678720	89272320	46394640	33184
507	9.253417	123678720	89272320	36707176	33184
508	8.01656	123678720	89272320	42057064	33184
509	8.722981	123678720	89272320	48077504	33184
510	10.378105	123678720	89272320	38817424	33184
511	10.873074	123678720	89272320	46189640	33184
512	12.739312	123678720	89272320	38545056	33184
513	12.908075	123678720	89272320	47274296	33184
514	14.971093	123678720	89272320	40843952	33184
515	14.663164	123678720	89272320	50933248	33184
516	16.166886	123678720	89272320	45387272	33184
517	17.75056	123678720	89272320	41250640	33184
518	19.328291	123678720	89272320	38372304	33184
519	21.516498	123678720	89272320	51219264	33184
520	20.760543	123678720	89272320	48389704	33184
521	21.442637	123678720	89272320	46678736	33184
522	22.853696	123678720	89272320	45863360	33184
523	24.58728	123678720	89272320	45902440	33184
524	24.975134	123678720	89272320	46624216	33184
525	26.207094	123678720	89272320	47937616	33184
526	27.211605	123678720	89272320	49792384	33184
527	27.523702	123678720	89272320	52061960	33184
528	31.40862	123678720	89272320	40516520	33184
529	30.807178	123678720	89272320	45441240	33184
530	31.239884	123678720	89272320	50424432	33184
531	34.83363	123678720	89272320	41425960	33184
532	36.322908	123678720	89272320	50892408	33184
533	38.03422	123678720	89272320	44176512	33184
534	38.746448	123678720	89272320	55087752	33184
535	39.175326	123678720	89272320	49467592	33184
536	45.645576	123678720	89272320	49169368	33184
537	42.021392	123678720	89272320	61990040	33184
538	42.807585	123678720	89272320	58181264	33184
539	49.300407	123949056	89272320	60015024	33184
540	56.330812	127733760	93466624	62365520	33184
541	71.929183	124157952	91369472	32925104	33184
542	50.852903	125505536	91369472	35728792	33184
543	52.536554	125505536	91369472	40191040	33184
544	53.017472	125505536	91369472	45375200	33184
545	57.772965	125505536	91369472	38737080	33184
546	54.873484	126046208	91369472	45354728	33184
547	58.02951	126046208	91369472	52698864	33184
548	58.899604	126046208	91369472	60772288	33184
549	67.595097	126046208	91369472	56985864	33184
550	83.615418	124121088	91369472	36633048	33184
551	63.526366	125468672	91369472	33539256	33184
552	2.19286	125468672	91369472	45164160	33184
553	7.369306	125468672	91369472	34602632	33184
554	4.362722	125468672	91369472	37511624	33184
555	5.351476	125468672	91369472	41155648	33184
556	6.396712	125468672	91369472	45540264	33184
557	9.467903	125468672	91369472	36134456	33184
558	8.585547	125468672	91369472	41992200	33184
559	9.59716	125468672	91369472	48594800	33184
560	11.30997	125468672	91369472	39639704	33184
561	11.958608	125468672	91369472	47727760	33184
562	13.190176	125468672	91369472	40349000	33184
563	15.16929	125468672	91369472	34724112	33184
564	15.279478	125468672	91369472	45057352	33184
565	17.231249	125468672	91369472	40313816	33184
566	18.672499	125468672	91369472	36948904	33184
567	18.754608	125468672	91369472	49530488	33184
568	20.55829	125468672	91369472	46447856	33184
569	21.222564	125468672	91369472	44518856	33184
570	22.878273	125468672	91369472	43595760	33184
571	24.24806	125468672	91369472	43570200	33184
572	24.660621	125468672	91369472	44306408	33184
573	26.493537	125468672	91369472	45705264	33184
574	26.993025	125468672	91369472	47677184	33184
575	30.761139	125468672	91369472	36146112	33184
576	32.577079	125468672	91369472	43156480	33184
577	31.378774	125468672	91369472	48150176	33184
578	34.942011	125468672	91369472	39453808	33184
579	36.207863	125468672	91369472	48735104	33184
580	37.723353	125468672	91369472	42173192	33184
581	38.63351	126009344	91369472	52918320	33184
582	39.329082	126009344	91369472	47576144	33184
583	40.670938	126009344	91369472	59912096	33184
584	41.111415	126009344	91369472	55374272	33184
585	42.684796	126009344	91369472	52546992	33184
586	48.061456	126009344	91369472	54518496	33184
587	49.911711	126009344	91369472	57195104	33184
588	66.353694	129253376	95039488	60672856	33184
589	59.532045	126631936	92418048	31679392	33184
590	52.441679	126631936	92418048	36834664	33184
591	53.878091	126631936	92418048	42613352	33184
592	60.437836	126631936	92418048	36595264	33184
593	57.238618	126631936	92418048	43982632	33184
594	56.779591	127172608	92418048	52076184	33184
595	58.00046	127172608	92418048	61011176	33184
596	64.089228	127172608	92418048	58136440	33184
597	67.514105	127713280	93466624	68594024	33184
598	83.619502	128155648	93990912	33770320	33184
599	67.006425	128155648	93990912	33359872	33184
600	63.706608	128155648	93990912	46217256	33184
601	69.427695	128155648	93990912	47331152	33184
602	2.367183	128155648	93990912	49905392	33184
603	3.502981	128155648	93990912	52297704	33184
604	4.711597	128155648	93990912	55479152	33184
605	9.26992	128696320	93990912	45867840	33184
606	7.078566	128696320	93990912	50655416	33184
607	8.203905	128696320	93990912	56235848	33184
608	10.480593	128696320	93990912	47314040	33184
609	10.49981	128696320	93990912	54504048	33184
610	12.680001	128696320	93990912	46912760	33184
611	13.212088	128696320	93990912	55718944	33184
612	14.886448	128696320	93990912	49556680	33184
613	15.31942	128696320	93990912	59968304	33184
614	16.828269	128696320	93990912	54867248	33184
615	18.765744	128696320	93990912	51253064	33184
616	21.318831	128696320	93990912	49003728	33184
617	21.866979	128696320	93990912	47844432	33184
618	23.912436	128696320	93990912	47674944	33184
619	24.39645	128696320	93990912	48344464	33184
620	26.347917	128696320	93990912	49754296	33184
621	26.463112	128696320	93990912	51832616	33184
622	27.374552	128696320	93990912	54401976	33184
623	28.562916	128696320	93990912	57446576	33184
624	29.57077	128696320	93990912	60905176	33184
625	33.446101	128696320	94515200	50557568	33184
626	32.740938	128696320	94515200	56592328	33184
627	36.62035	129236992	94515200	48961880	33184
628	38.287023	129236992	94515200	59274768	33184
629	38.991947	129236992	94515200	53489136	33184
630	39.904148	129236992	94515200	65464272	33184
631	42.485268	129236992	94515200	60793336	33184
632	64.11537	131399680	97136640	61779536	33184
633	51.409109	122486784	88223744	30382256	33184
634	50.120309	122486784	88223744	32991600	33184
635	50.547067	122486784	88223744	36305360	33184
636	51.467807	122486784	88223744	40429120	33184
637	52.517159	122486784	88223744	45507328	33184
638	53.788126	122486784	88223744	51270736	33184
639	54.909583	122757120	88223744	57979720	33184
640	60.403429	123297792	88748032	52917480	33184
641	63.182882	124108800	89796608	61329744	33184
642	84.680606	126554112	92418048	26321392	33184
643	60.254361	126554112	92418048	36439080	33184
644	65.884413	126554112	92418048	34830304	33184
645	62.233693	126554112	92418048	46578616	33184
646	68.298235	126554112	92418048	46601744	33184
647	64.423333	126554112	92418048	59987520	33184
648	71.49721	127094784	92418048	61721680	33184
649	95.080172	128446464	93990912	64306672	33184
650	74.203298	124887040	90320896	35205624	33184
651	74.419942	124887040	90320896	39462576	33184
652	2.574283	124887040	90320896	45409152	33184
653	3.810684	124887040	90320896	47985936	33184
654	8.743656	124887040	90320896	38242712	33184
655	6.821046	124887040	90320896	42529392	33184
656	8.095907	124887040	90320896	47678392	33184
657	10.422327	124887040	90320896	38918496	33184
658	10.15492	124887040	90320896	45798416	33184
659	12.555567	124887040	90320896	38057160	33184
660	12.827477	124887040	90320896	46663304	33184
661	15.102312	124887040	90320896	40543768	33184
662	15.409996	124887040	90320896	50883848	33184
663	16.842018	124887040	90320896	45929472	33184
664	19.03646	124887040	90320896	42526008	33184
665	20.900502	124887040	90320896	40476416	33184
666	22.39503	124887040	90320896	39583040	33184
667	24.108579	124887040	90320896	39689784	33184
668	25.367105	124887040	90320896	40649208	33184
669	26.4587	124887040	90320896	42355544	33184
670	27.607233	124887040	90320896	44687072	33184
671	28.588042	124887040	90320896	47610096	33184
672	29.41863	124887040	90320896	50999728	33184
673	33.419802	124887040	90320896	40928528	33184
674	36.070228	124887040	90320896	49379560	33184
675	33.810746	124887040	90320896	55707672	33184
676	36.415459	124887040	90320896	47742696	33184
677	36.322566	124887040	90320896	55921240	33184
678	38.813597	124887040	90320896	49710896	33184
679	41.906371	124887040	90320896	45983992	33184
680	47.583201	124887040	90320896	47098016	33184
681	43.543211	124887040	90320896	61620160	33184
682	44.357522	124887040	90320896	59317488	33184
683	53.23005	125427712	90845184	63219856	33184
684	81.445708	123240448	90320896	25282608	33184
685	55.733152	124858368	90320896	30145048	33184
686	55.770236	124858368	90320896	36498648	33184
687	56.911863	124858368	90320896	43807680	33184
688	56.990938	124858368	90320896	51993408	33184
689	63.111922	124858368	90320896	48577928	33184
690	62.512383	124858368	90320896	58636704	33184
691	67.451973	125399040	90845184	57001768	33184
692	64.691674	126210048	91893760	68776552	33184
693	95.367579	126623744	93466624	37045144	33184
694	68.914636	127971328	93466624	37303640	33184
695	72.092568	127971328	93466624	39311744	33184
696	71.944849	127971328	93466624	42202776	33184
697	68.93063	127971328	93466624	58548232	33184
698	76.159946	128512000	93990912	63302440	33184
699	77.176806	128512000	93990912	68972448	33184
700	106.12279	126590976	93466624	29369424	33184
701	78.950742	127938560	93466624	35744944	33184
702	2.742624	127938560	93466624	45020312	33184
703	8.308908	127938560	93466624	34919152	33184
704	5.562575	127938560	93466624	38597608	33184
705	6.771147	127938560	93466624	43190824	33184
706	10.227968	127938560	93466624	34428512	33184
707	9.522724	127938560	93466624	40868024	33184
708	10.774405	127938560	93466624	48240344	33184
709	12.532859	127938560	93466624	40196672	33184
710	14.723737	127938560	93466624	34187408	33184
711	14.922374	127938560	93466624	44334368	33184
712	17.25241	127938560	93466624	39641400	33184
713	18.948541	127938560	93466624	36518808	33184
714	20.865467	127938560	93466624	34757656	33184
715	20.399204	127938560	93466624	48687384	33184
716	24.737237	127938560	93466624	47181480	33184
717	23.860542	127938560	93466624	46831848	33184
718	25.761178	127938560	93466624	47449928	33184
719	26.442956	127938560	93466624	48929528	33184
720	30.930501	127938560	93466624	37061400	33184
721	31.207913	127938560	93466624	41944040	33184
722	32.640828	127938560	93466624	47107592	33184
723	35.407409	127938560	93466624	38572904	33184
724	37.941856	127938560	93466624	48690584	33184
725	38.792459	127938560	93466624	42715072	33184
726	40.177298	127938560	93466624	54721200	33184
727	41.269973	127938560	93466624	50016032	33184
728	42.972912	127938560	93466624	47019184	33184
729	48.394172	127938560	93466624	49368480	33184
730	49.68457	127938560	93466624	52458312	33184
731	56.573094	127938560	93466624	56560216	33184
732	73.381426	120926208	87699456	31188520	33184
733	54.242941	122273792	87699456	36706064	33184
734	55.734752	122273792	87699456	43634520	33184
735	61.121226	122273792	87699456	39039080	33184
736	58.740716	122273792	87699456	47998352	33184
737	64.719869	122273792	87699456	45353176	33184
738	62.916615	122273792	87699456	56198912	33184
739	67.978739	122814464	88748032	55536664	33184
740	95.198786	126869504	94515200	25688960	33184
741	68.085892	129032192	94515200	38972208	33184
742	71.77725	129032192	94515200	41172736	33184
743	72.613711	129032192	94515200	44439424	33184
744	74.015741	129032192	94515200	48627136	33184
745	76.284329	129032192	94515200	53774952	33184
746	76.720933	129032192	94515200	60065848	33184
747	84.530195	132276224	97660928	67120832	33184
748	103.913395	129421312	95039488	28459416	33184
749	80.99105	129421312	95039488	37487192	33184
750	82.148044	129421312	95039488	47662432	33184
751	88.932275	129421312	95039488	46127160	33184
752	2.926865	129421312	95039488	59309904	33184
753	4.36771	129421312	95039488	62301072	33184
754	9.093598	129421312	95039488	52944904	33184
755	7.548672	129421312	95039488	57930408	33184
756	8.656599	129421312	95039488	63917792	33184
757	11.832545	129421312	95039488	55712736	33184
758	11.573248	129421312	95039488	63703432	33184
759	14.032169	129421312	95039488	56897120	33184
760	14.747268	129421312	95039488	66902224	33184
761	16.571612	129421312	95039488	61669472	33184
762	18.519516	129421312	95039488	58158336	33184
763	20.588032	129421312	95039488	56142344	33184
764	22.810087	129421312	95039488	55414984	33184
765	24.425185	129421312	95039488	55824816	33184
766	25.735987	129421312	95039488	57172168	33184
767	26.764013	129421312	95039488	59358584	33184
768	28.02623	129421312	95039488	62262824	33184
769	29.586931	129421312	95039488	65764008	33184
770	33.250134	129691648	95039488	55924712	33184
771	35.886794	129691648	95039488	64693416	33184
772	33.441962	129691648	95039488	71377784	33184
773	37.357146	129691648	95039488	63864808	33184
774	45.854189	129961984	95563776	59278432	33184
775	55.00201	121053184	86650880	32463216	33184
776	41.719751	121053184	86650880	28074472	33184
777	43.546593	121053184	86650880	25847904	33184
778	50.100338	121053184	86650880	29076592	33184
779	50.974558	121053184	86650880	33206792	33184
780	52.683613	121053184	86650880	38350112	33184
781	54.016891	121053184	86650880	44545664	33184
782	57.94329	121053184	86650880	51727240	33184
783	64.7275	121053184	86650880	47463648	33184
784	80.232225	121864192	87175168	56826616	33184
785	70.415043	118194176	83505152	28228456	33184
786	61.971481	118194176	83505152	39587432	33184
787	67.172871	118194176	83505152	39441288	33184
788	65.195669	118194176	83505152	52982784	33184
789	71.018763	118194176	83505152	54893520	33184
790	72.637044	119816192	85602304	57905152	33184
791	76.525047	125763584	91893760	61993096	33184
792	103.787055	126222336	93466624	35907736	33184
793	76.871487	127569920	93466624	41290464	33184
794	78.505747	127840256	93466624	48353824	33184
795	84.151769	127840256	93466624	43914800	33184
796	82.714296	127840256	93466624	53214504	33184
797	82.457409	128110592	93466624	63478664	33184
798	86.993266	130002944	95563776	74831488	33184
799	117.087909	129241088	94515200	40162304	33184
800	91.336069	129241088	94515200	41055672	33184
801	93.113196	129241088	94515200	43017272	33184
802	3.128925	129241088	94515200	59593048	33184
803	8.569756	129241088	94515200	49879792	33184
804	6.297703	129241088	94515200	54108896	33184
805	7.672291	129241088	94515200	59397888	33184
806	11.197563	129241088	94515200	51155904	33184
807	10.775011	129241088	94515200	58569552	33184
808	13.204123	129241088	94515200	51453632	33184
809	13.991496	129241088	94515200	60996456	33184
810	15.959296	129241088	94515200	55666928	33184
811	18.240374	129241088	94515200	52120456	33184
812	18.545897	129241088	94515200	64868968	33184
813	20.971096	129241088	94515200	62207696	33184
814	22.643209	129241088	94515200	61012800	33184
815	24.387415	129241088	94515200	61029280	33184
816	25.602494	129241088	94515200	62114032	33184
817	27.173353	129241088	94515200	64135952	33184
818	31.391957	129241088	94515200	52864288	33184
819	31.917264	129241088	94515200	58344336	33184
820	32.017911	129241088	94515200	64157032	33184
821	36.569599	129241088	94515200	56148840	33184
822	36.097086	129241088	94515200	64434048	33184
823	39.373534	129241088	94515200	58534736	33184
824	42.268338	129241088	94515200	55223424	33184
825	47.460379	129241088	94515200	56907560	33184
826	45.157328	129241088	94515200	72136888	33184
827	45.79479	129241088	94515200	70549768	33184
828	47.383142	129241088	94515200	70315448	33184
829	67.101584	131133440	96612352	76368704	33184
830	70.462465	127782912	93466624	34535176	33184
831	62.870938	127782912	93466624	30268056	33184
832	58.703976	127782912	93466624	39478440	33184
833	65.589995	127782912	93466624	37201080	33184
834	63.431604	127782912	93466624	48562064	33184
835	68.099707	127782912	93466624	48527888	33184
836	65.358011	127782912	93466624	62078832	33184
837	94.546501	128053248	93466624	64178344	33184
838	76.519279	124854272	90320896	35391688	33184
839	75.953776	124854272	90320896	39712544	33184
840	75.787277	124854272	90320896	45158624	33184
841	77.836525	124854272	90320896	51652440	33184
842	79.361623	124854272	90320896	59294448	33184
843	87.824673	127016960	92418048	55449016	33184
844	103.438803	127631360	92942336	33727968	33184
845	84.801295	127631360	92942336	44680392	33184
846	89.780927	127631360	92942336	44146048	33184
847	86.580272	127631360	92942336	57375496	33184
848	95.026263	127631360	92942336	59080632	33184
849	100.853649	129794048	95563776	61932320	33184
850	120.182138	130764800	96088064	33373064	33184
851	100.677711	130764800	96088064	38438928	33184
852	7.816008	130764800	96088064	45798256	33184
853	5.173089	130764800	96088064	49186544	33184
854	6.995686	130764800	96088064	53703072	33184
855	11.300355	130764800	96088064	45351128	33184
856	10.058899	130764800	96088064	52137080	33184
857	11.507383	130764800	96088064	60056328	33184
858	13.614668	130764800	96088064	52680392	33184
859	15.869165	130764800	96088064	47403712	33184
860	16.510416	130764800	96088064	58732176	33184
861	18.84404	130764800	96088064	54969616	33184
862	25.210108	130764800	96088064	52795400	33184
863	23.013599	130764800	96088064	52093400	33184
864	24.245847	130764800	96088064	52652496	33184
865	25.812458	130764800	96088064	54229320	33184
866	27.605809	130764800	96088064	56796312	33184
867	29.403996	130764800	96088064	60128496	33184
868	33.013441	130764800	96088064	49904856	33184
869	34.241938	130764800	96088064	56498768	33184
870	37.105914	130764800	96088064	49612392	33184
871	39.428379	130764800	96088064	61074904	33184
872	40.658627	130764800	96088064	56376040	33184
873	47.399101	130764800	96088064	57667440	33184
874	48.680236	130764800	96088064	59798936	33184
875	50.70481	130764800	96088064	63298336	33184
876	75.574451	133738496	99233792	67812392	33184
877	57.242981	130068480	95563776	24837448	33184
878	55.588714	130068480	95563776	31691848	33184
879	56.410362	130068480	95563776	39636744	33184
880	58.801342	130068480	95563776	48887432	33184
881	64.949723	130068480	95563776	46671336	33184
882	61.731831	130068480	95563776	58216840	33184
883	71.871306	130068480	95563776	58307032	33184
884	76.205553	130068480	95563776	59531792	33184
885	92.244496	127713280	93466624	30517280	33184
886	73.943367	127713280	93466624	34100360	33184
887	74.853652	127713280	93466624	38815856	33184
888	75.464272	127713280	93466624	44712576	33184
889	78.683227	127713280	93466624	51817280	33184
890	80.688581	127713280	93466624	60038152	33184
891	90.049883	127983616	93466624	69445720	33184
892	105.869634	130236416	96088064	34893728	33184
893	84.246093	130236416	96088064	46614328	33184
894	90.431297	130236416	96088064	46983632	33184
895	92.736618	130236416	96088064	48472544	33184
896	90.698277	130236416	96088064	63798016	33184
897	120.256712	133210112	99233792	67661208	33184
898	99.518606	129052672	94515200	38878336	33184
899	99.819557	129052672	94515200	45170672	33184
900	101.612284	129052672	94515200	52615784	33184
901	104.865377	129052672	94515200	61286664	33184
902	5.971548	129593344	95039488	72210288	33184
903	17.377485	131485696	97136640	62856272	33184
904	16.325389	131485696	97136640	67624696	33184
905	11.555477	125362176	92418048	29445032	33184
906	10.997727	125362176	92418048	36604192	33184
907	13.027396	126709760	92418048	28810792	33184
908	13.855031	126709760	92418048	38352688	33184
909	15.875559	126709760	92418048	32722624	33184
910	18.257342	126709760	92418048	29075744	33184
911	20.636008	126709760	92418048	27125000	33184
912	22.604186	126709760	92418048	26645544	33184
913	24.405742	126709760	92418048	27448912	33184
914	26.304632	126709760	92418048	29341560	33184
915	27.711812	126709760	92418048	32206048	33184
916	29.631379	126709760	92418048	35816312	33184
917	33.576919	126709760	92418048	26338600	33184
918	36.793966	126709760	92418048	35522184	33184
919	38.687184	126709760	92418048	29324808	33184
920	39.45162	126709760	92418048	40873360	33184
921	40.934025	126709760	92418048	36469768	33184
922	47.250627	126709760	92418048	37830928	33184
923	49.435725	126709760	92418048	40257984	33184
924	49.814286	126709760	92418048	43935576	33184
925	52.471456	126709760	92418048	48852824	33184
926	54.044803	126709760	92418048	54976832	33184
927	55.843984	127520768	92942336	62336920	33184
928	57.749144	127520768	92942336	70895408	33184
929	89.422807	128712704	95563776	20354760	33184
930	63.627309	130060288	95563776	30253288	33184
931	67.44905	130060288	95563776	29843552	33184
932	65.675751	130060288	95563776	43279016	33184
933	71.509631	130060288	95563776	45353752	33184
934	72.390484	130060288	95563776	48694456	33184
935	75.459083	130060288	95563776	53266136	33184
936	85.455633	130060288	95563776	59061864	33184
937	90.300205	123809792	89272320	33247152	33184
938	79.763413	123809792	89272320	41517240	33184
939	81.728065	123809792	89272320	51010040	33184
940	88.149151	123809792	89272320	49148384	33184
941	84.646003	123809792	89272320	61182600	33184
942	109.54601	127053824	92942336	61735960	33184
943	100.070378	128086016	93466624	31694192	33184
944	90.856376	128086016	93466624	47339144	33184
945	95.672993	128086016	93466624	51624672	33184
946	98.783054	128086016	93466624	57264192	33184
947	101.595836	128086016	93466624	64088464	33184
948	132.805164	126554112	92418048	40852184	33184
949	103.99701	126554112	92418048	50170784	33184
950	112.964998	126554112	92418048	48215160	33184
951	107.83357	127094784	92418048	60028880	33184
952	3.89666	130068480	96088064	74442576	33184
953	10.544798	132231168	98185216	65272264	33184
954	8.180026	132231168	98185216	70296880	33184
955	10.019696	132231168	98185216	76558016	33184
956	16.061585	133582848	99758080	69147664	33184
957	20.891449	133582848	99758080	77938264	33184
958	20.492437	127291392	93466624	23159864	33184
959	17.813474	127291392	93466624	19166752	33184
960	20.542214	127291392	93466624	16961752	33184
961	20.432531	127291392	93466624	30789048	33184
962	22.451817	127291392	93466624	29514576	33184
963	24.717293	127291392	93466624	29675680	33184
964	26.427619	127291392	93466624	31096288	33184
965	31.277302	127291392	93466624	19455664	33184
966	31.824684	127291392	93466624	24792704	33184
967	32.544109	127291392	93466624	30697728	33184
968	36.782296	127291392	93466624	22951552	33184
969	36.725969	127291392	93466624	31722104	33184
970	39.771227	127291392	93466624	26388472	33184
971	43.042554	127291392	93466624	23645760	33184
972	49.34128	127291392	93466624	26393408	33184
973	51.197339	127291392	93466624	30315368	33184
974	53.279197	127291392	93466624	35452024	33184
975	53.934728	127291392	93466624	41882152	33184
976	55.939162	127291392	93466624	49615104	33184
977	62.975805	127832064	93466624	46105184	33184
978	67.299933	128102400	93990912	56417728	33184
979	87.831693	119648256	85078016	28656304	33184
980	64.000357	119648256	85078016	41565264	33184
981	70.405377	119648256	85078016	43073448	33184
982	72.499081	119648256	85078016	45960600	33184
983	73.822558	119648256	85078016	50092920	33184
984	75.788834	119648256	85078016	55573968	33184
985	86.659454	125325312	90845184	62274792	33184
986	104.408167	127049728	92418048	27296120	33184
987	80.61323	127049728	92418048	36611032	33184
988	84.510526	127049728	92418048	47257520	33184
989	91.251917	127049728	92418048	46608984	33184
990	88.663694	127049728	92418048	59787496	33184
991	99.435864	128401408	93990912	61775528	33184
992	119.223995	126144512	91893760	33043672	33184
993	98.961522	126144512	91893760	37442864	33184
994	96.416518	126144512	91893760	55837776	33184
995	104.427549	126144512	91893760	62989336	33184
996	104.082773	126685184	92418048	71407504	33184
997	135.35606	127770624	95563776	33695680	33184
998	106.81317	129658880	95563776	43679368	33184
999	114.740659	129658880	95563776	43521600	33184
1000	111.708526	129658880	95563776	57130768	33184
