x	Duration	RSS	HeapTotal	HeapUsed	External
0	NA	114286592	80883712	14504208	33184
1	0.450072	114286592	80883712	14556432	33184
2	0.373956	114286592	80883712	14624280	33184
3	0.632561	114286592	80883712	14716816	33184
4	0.406999	114286592	80883712	14835712	33184
5	0.681944	114286592	80883712	14982744	33184
6	1.030386	114286592	80883712	15159624	33184
7	0.67768	114286592	80883712	15365488	33184
8	0.778103	114286592	80883712	15602648	33184
9	0.872028	114286592	80883712	15877376	33184
10	0.925491	114556928	80883712	16182320	33184
11	0.997069	114556928	80883712	16522520	33184
12	1.439739	114556928	80883712	16899272	33184
13	1.470427	114556928	80883712	17313760	33184
14	1.941427	114556928	80883712	17768120	33184
15	0.910776	114556928	80883712	18261720	33184
16	1.480153	114556928	80883712	18803472	33184
17	1.294461	114556928	80883712	19382624	33184
18	1.038144	114556928	80883712	20005304	33184
19	1.089541	114556928	80883712	20674072	33184
20	1.609978	114556928	80883712	21397376	33184
21	1.184331	114556928	80883712	22160832	33184
22	1.262514	114556928	80883712	22974184	33184
23	1.614601	114556928	80883712	23838240	33184
24	1.684479	114556928	80883712	24757400	33184
25	1.516285	115093504	80883712	25727584	33184
26	2.253295	115093504	80883712	26749896	33184
27	2.039933	115363840	80883712	27827928	33184
28	1.971566	113717248	80883712	29042624	33184
29	1.822691	113717248	80883712	30235704	33184
30	3.189569	113717248	80883712	15438040	33184
31	1.862386	113717248	80883712	16751256	33184
32	2.402543	113717248	80883712	18131880	33184
33	2.161713	113717248	80883712	19579152	33184
34	2.08824	113717248	80883712	21088784	33184
35	2.167849	113717248	80883712	22664112	33184
36	2.271036	113717248	80883712	24306120	33184
37	2.351364	113717248	80883712	26016248	33184
38	3.065985	113717248	80883712	27796944	33184
39	2.58763	113717248	80883712	29646848	33184
40	2.654447	113717248	80883712	31568432	33184
41	4.544921	113717248	80883712	17706672	33184
42	2.848037	113717248	80883712	19775256	33184
43	3.00448	113717248	80883712	21919400	33184
44	3.218121	113717248	80883712	24141192	33184
45	3.368112	113717248	80883712	26443168	33184
46	3.292474	113717248	80883712	28826464	33184
47	3.401769	113717248	80883712	31290656	33184
48	5.469418	113717248	80883712	18023384	33184
49	4.43302	113717248	80883712	20665168	33184
50	3.742045	113717248	80883712	23383352	33184
51	4.160549	113717248	80883712	26189504	33184
52	0.286656	113717248	80883712	28999528	33184
53	0.412746	113717248	80883712	29264680	33184
54	0.539812	113717248	80883712	29620392	33184
55	0.669197	113717248	80883712	30067944	33184
56	0.793279	113717248	80883712	30609096	33184
57	0.919681	113717248	80883712	31244416	33184
58	1.052203	113717248	80883712	31975264	33184
59	3.108657	113717248	80883712	16963120	33184
60	1.452348	113717248	80883712	17889536	33184
61	1.612576	113717248	80883712	18915192	33184
62	1.744459	113717248	80883712	20041296	33184
63	1.91589	113717248	80883712	21268952	33184
64	2.044665	113717248	80883712	22599384	33184
65	2.261464	113717248	80883712	24034040	33184
66	2.180647	113717248	80883712	25573880	33184
67	2.332544	113717248	80883712	27220432	33184
68	2.491892	113717248	80883712	28976440	33184
69	2.620367	113717248	80883712	30841424	33184
70	2.986223	113717248	80883712	32816960	33184
71	4.291627	113717248	80883712	18867104	33184
72	3.137613	113717248	80883712	21066688	33184
73	3.444863	113717248	80883712	23380168	33184
74	3.430508	113717248	80883712	25808872	33184
75	3.585218	113717248	80883712	28353768	33184
76	3.762389	113717248	80883712	31016160	33184
77	5.435196	113717248	80883712	17950736	33184
78	4.456601	113717248	80883712	20852056	33184
79	4.61664	113717248	80883712	23875984	33184
80	4.440922	113717248	80883712	27021088	33184
81	5.14622	113717248	80883712	30291608	33184
82	5.114791	113717248	80883712	33685072	33184
83	7.140669	113717248	80883712	21060272	33184
84	5.197294	113717248	80883712	24716600	33184
85	5.369161	113717248	80883712	28501760	33184
86	5.821173	113717248	80883712	32417784	33184
87	7.233732	113717248	80883712	20446584	33184
88	6.424459	113717248	80883712	24629008	33184
89	6.54115	113717248	80883712	28954160	33184
90	6.583951	113717248	80883712	33407608	33184
91	8.301422	113717248	80883712	21860864	33184
92	7.144037	113717248	80883712	26593792	33184
93	6.861983	113717248	80883712	31467768	33184
94	8.612673	113717248	80883712	20571808	33184
95	7.278665	113717248	80883712	25732720	33184
96	7.696098	113717248	80883712	31040456	33184
97	9.592807	113717248	80883712	20664848	33184
98	8.830819	113717248	80883712	26265688	33184
99	8.161594	113717248	80883712	32015656	33184
100	9.991842	113717248	80883712	21974384	33184
101	8.780025	113717248	80883712	28026432	33184
102	0.476615	113717248	80883712	34222064	33184
103	0.693476	113717248	80883712	34680776	33184
104	2.216271	113717248	80883712	19103264	33184
105	1.133534	113717248	80883712	19873488	33184
106	1.343093	113717248	80883712	20801768	33184
107	1.575072	113717248	80883712	21888920	33184
108	1.794212	113717248	80883712	23136216	33184
109	2.238866	113717248	80883712	24544792	33184
110	2.250844	113717248	80883712	26117256	33184
111	2.484909	113717248	80883712	27853104	33184
112	2.716232	113717248	80883712	29753824	33184
113	3.005124	113717248	80883712	31820688	33184
114	3.410324	113717248	80883712	34054952	33184
115	4.847886	113717248	80883712	20346320	33184
116	3.664118	113717248	80883712	22919008	33184
117	3.906574	113717248	80883712	25662768	33184
118	4.205643	113717248	80883712	28581088	33184
119	4.629757	113717248	80883712	31672640	33184
120	4.643449	113717248	80883712	34939320	33184
121	6.788872	113717248	80883712	22187760	33184
122	5.173543	113717248	80883712	25807832	33184
123	5.395032	113717248	80883712	29606504	33184
124	5.66965	113717248	80883712	33585424	33184
125	7.841442	113717248	80883712	21720184	33184
126	6.449005	113717248	80883712	26062312	33184
127	6.650524	113717248	80883712	30587832	33184
128	6.70293	113717248	80883712	35298864	33184
129	8.312465	113717248	80883712	23956056	33184
130	7.435718	113717248	80883712	29038424	33184
131	7.48921	113717248	80883712	34309512	33184
132	9.496721	113717248	80883712	23672896	33184
133	8.064584	113717248	80883712	29328280	33184
134	8.37051	113717248	80883712	35177704	33184
135	10.204719	113717248	80883712	25006944	33184
136	9.154786	113717248	80883712	31246712	33184
137	10.944562	113717248	80883712	21980640	33184
138	9.73218	113717248	80883712	28612712	33184
139	9.945475	113717248	80883712	35441120	33184
140	11.716799	113717248	80883712	26229680	33184
141	10.33171	113717248	80883712	33457656	33184
142	12.420029	113717248	80883712	24932736	33184
143	11.16205	113717248	80883712	32571176	33184
144	12.888663	113717248	80883712	24583040	33184
145	11.77752	113717248	80883712	32634440	33184
146	14.113555	113717248	80883712	25075400	33184
147	12.332586	113717248	80883712	33545584	33184
148	14.615568	113717248	80883712	26285640	33184
149	12.741245	113717248	80883712	35177456	33184
150	14.963559	113717248	80883712	28157224	33184
151	16.336692	113717248	80883712	22284160	33184
152	0.689569	113717248	80883712	31884640	33184
153	1.010185	113717248	80883712	32532864	33184
154	1.30716	113717248	80883712	33399504	33184
155	1.599186	113717248	80883712	34485736	33184
156	1.975431	113717248	80883712	35793112	33184
157	2.231689	113717248	80883712	37322608	33184
158	4.273308	113717248	80883712	22747184	33184
159	2.896187	113717248	80883712	24724312	33184
160	3.3144	113717248	80883712	26928200	33184
161	4.034057	113717248	80883712	29359008	33184
162	4.047013	113717248	80883712	32017928	33184
163	4.392378	113717248	80883712	34906248	33184
164	6.533046	113717248	80883712	22046728	33184
165	4.906793	113717248	80883712	25397360	33184
166	5.42024	113717248	80883712	28981024	33184
167	5.579137	113717248	80883712	32800416	33184
168	6.071754	113717248	80883712	36855680	33184
169	7.808975	113717248	80883712	24918360	33184
170	6.64344	113717248	80883712	29448800	33184
171	7.123048	113717248	80883712	34218240	33184
172	9.295832	113717248	80883712	23372488	33184
173	7.812278	113717248	80883712	28624240	33184
174	8.350961	113717248	80883712	34119032	33184
175	10.429166	113717248	80883712	24011160	33184
176	8.647338	113717248	80883712	29995248	33184
177	9.293478	113717248	80883712	36225784	33184
178	11.190643	113717248	80883712	26591816	33184
179	10.1304	113717248	80883712	33319112	33184
180	12.289127	113717248	80883712	24590920	33184
181	10.461072	113717248	80883712	31829992	33184
182	13.321632	113717248	80883712	23799000	33184
183	11.5758	113717248	80883712	31553704	33184
184	14.333241	113717248	80883712	24092712	33184
185	11.982835	113717248	80883712	32377440	33184
186	14.693717	113717248	80883712	25343024	33184
187	12.957224	113717248	80883712	34149312	33184
188	15.259534	113717248	80883712	27422552	33184
189	13.711149	113717248	80883712	36757096	33184
190	15.785515	113717248	80883712	30209896	33184
191	17.221731	113717248	80883712	24826600	33184
192	14.739562	113717248	80883712	34964608	33184
193	17.659615	113717248	80883712	29489680	33184
194	18.62107	113717248	80883712	25031392	33184
195	16.082839	113717248	80883712	35983872	33184
196	18.697775	113717248	80883712	31204272	33184
197	19.341796	113717248	80883712	27373208	33184
198	17.589118	113717248	80883712	39153992	33184
199	20.765371	113717248	80883712	34842152	33184
200	20.017382	113717248	80883712	31375568	33184
201	21.139795	113717248	80883712	28669632	33184
202	0.869637	113717248	80883712	26733008	33184
203	1.26067	113717248	80883712	27577824	33184
204	1.766896	113717248	80883712	28706416	33184
205	2.081476	113717248	80883712	30120168	33184
206	2.721254	113717248	80883712	31820696	33184
207	2.918459	113717248	80883712	33808736	33184
208	3.321664	113717248	80883712	36085512	33184
209	3.962412	113717248	80883712	38652336	33184
210	5.975885	113717248	80883712	25299248	33184
211	4.630715	113717248	80883712	28451360	33184
212	5.146161	113717248	80883712	31896616	33184
213	5.471583	113717248	80883712	35636872	33184
214	6.497764	113717248	80883712	39676280	33184
215	8.607746	113717248	80883712	27676888	33184
216	6.941833	113717248	80883712	32308776	33184
217	7.368622	113717248	80883712	37240512	33184
218	9.614588	113717248	80883712	26462560	33184
219	8.076667	113717248	80883712	31999936	33184
220	8.742287	113717248	80883712	37844608	33184
221	11.016519	113717248	80883712	27901600	33184
222	9.389835	113717248	80883712	34353096	33184
223	12.305671	113717248	80883712	25499616	33184
224	10.477178	113717248	80883712	32570032	33184
225	11.689804	113717248	80883712	39946640	33184
226	13.366365	113717248	80883712	31276368	33184
227	11.928465	113717248	80883712	39275728	33184
228	14.166786	113717248	80883712	31341616	33184
229	12.838202	113717248	80883712	39976768	33184
230	15.164223	113717248	80883712	32587744	33184
231	16.31074	113717248	80883712	26514432	33184
232	14.118015	113717248	80883712	36105976	33184
233	16.649713	113717248	80883712	30210368	33184
234	15.36841	113717248	80883712	40453872	33184
235	17.620121	113717248	80883712	34670456	33184
236	18.673137	113717248	80883712	29970824	33184
237	19.631046	113717248	80883712	26230280	33184
238	17.411773	113717248	80883712	37779960	33184
239	20.161645	113717248	80883712	33660048	33184
240	22.342454	113717248	80883712	30450832	33184
241	22.472278	113717248	80883712	27984512	33184
242	19.573892	113717248	80883712	40860200	33184
243	22.322036	113717248	80883712	37710488	33184
244	22.45622	113717248	80883712	35333736	33184
245	23.527333	113717248	80883712	33587176	33184
246	23.893221	113717248	80883712	32452832	33184
247	24.713077	113717248	80883712	31822304	33184
248	25.246476	113717248	80883712	31608408	33184
249	25.701721	113717248	80883712	31783904	33184
250	26.406611	113717248	80883712	32279416	33184
251	26.609316	113717248	80883712	33066256	33184
252	1.07821	113717248	80883712	34320736	33184
253	1.546289	113717248	80883712	35358296	33184
254	2.061102	113717248	80883712	36743896	33184
255	2.55567	113717248	80883712	38478760	33184
256	3.280566	113717248	80883712	40564696	33184
257	6.472884	113717248	80883712	26834312	33184
258	4.329786	113717248	80883712	29625040	33184
259	4.811811	113717248	80883712	32769944	33184
260	5.110245	113717248	80883712	36271464	33184
261	5.850218	113717248	80883712	40129576	33184
262	8.305121	113717248	80883712	28225248	33184
263	6.695559	113717248	80883712	32800320	33184
264	7.195395	113717248	80883712	37739000	33184
265	10.367106	113717248	80883712	27281536	33184
266	8.490528	113717248	80883712	32941248	33184
267	9.346924	113717248	80883712	38965000	33184
268	11.968296	113717248	80883712	29423920	33184
269	10.105464	113717248	80883712	36181392	33184
270	13.351627	113717248	80883712	27749248	33184
271	11.509079	113717248	80883712	35247296	33184
272	14.567768	113717248	80883712	27696224	33184
273	12.094807	113717248	80883712	35932272	33184
274	15.528547	113717248	80883712	29026936	33184
275	13.335795	113717248	80883712	38015176	33184
276	16.60726	113717248	80883712	31599528	33184
277	14.438465	113717248	80883712	41336024	33184
278	16.984789	113717248	80883712	35236600	33184
279	19.248108	113717248	80883712	30354272	33184
280	16.23563	113717248	80883712	41224904	33184
281	19.61661	113717248	80883712	36265736	33184
282	20.662918	113717248	80883712	32374576	33184
283	21.024275	113717248	80883712	29387576	33184
284	18.763803	113717248	80883712	41808056	33184
285	21.588993	113717248	80883712	38350568	33184
286	22.209931	113717248	80883712	35783312	33184
287	22.72945	113717248	80883712	33908408	33184
288	24.307039	113717248	80883712	32713752	33184
289	26.137107	113717248	80883712	32086144	33184
290	25.688529	113717248	80883712	31961840	33184
291	26.091897	113717248	80883712	32251008	33184
292	27.292663	113717248	80883712	32913920	33184
293	28.127339	113717248	80883712	33855232	33184
294	28.497609	113717248	80883712	35109200	33184
295	28.466771	113717248	80883712	36581384	33184
296	28.417208	113717248	80883712	38244128	33184
297	28.884738	113717248	80883712	40109184	33184
298	29.59835	113717248	80883712	42134960	33184
299	30.320711	113717248	80883712	44291008	33184
300	34.746288	113717248	80883712	32356616	33184
301	32.351394	113717248	80883712	36701056	33184
302	1.263919	113717248	80883712	41154600	33184
303	1.850518	113717248	80883712	42376168	33184
304	2.433977	113717248	80883712	44009544	33184
305	5.559126	113717248	80883712	29753008	33184
306	4.109525	113717248	80883712	32207048	33184
307	4.291993	113717248	80883712	35074352	33184
308	5.072991	113717248	80883712	38357016	33184
309	5.474952	113717248	80883712	42055464	33184
310	8.792288	113717248	80883712	30105208	33184
311	6.843538	113717248	80883712	34638256	33184
312	7.33299	113717248	80883712	39590416	33184
313	11.662936	113717248	80883712	29265656	33184
314	8.835758	113717248	80883712	35062664	33184
315	9.278941	113717248	80883712	41280936	33184
316	12.733806	113717248	80883712	32004168	33184
317	10.679464	113717248	80883712	39070824	33184
318	14.520563	113717248	80883712	30940104	33184
319	11.957343	113717248	80883712	38863352	33184
320	15.684715	113717248	80883712	31609672	33184
321	12.996701	113717248	80883712	40392784	33184
322	16.784033	113717248	80883712	33820840	33184
323	14.404362	113717248	80883712	43470560	33184
324	17.70576	113717248	80883712	37360128	33184
325	19.044334	113717248	80883712	32516880	33184
326	16.44993	113717248	80883712	43471128	33184
327	19.721599	113717248	80883712	38650312	33184
328	20.6822	113717248	80883712	34940864	33184
329	21.963453	113717248	80883712	32170416	33184
330	19.016907	113717248	80883712	44882520	33184
331	22.450873	113717248	80883712	41683824	33184
332	22.951367	113717248	80883712	39372768	33184
333	24.362446	113717248	80883712	37800736	33184
334	24.754967	113717248	80883712	36930712	33184
335	26.182289	113717248	80883712	36617120	33184
336	27.138068	113717248	80883712	36810096	33184
337	27.860542	113717248	80883712	37427376	33184
338	28.579108	113717248	80883712	38415456	33184
339	29.143162	113717248	80883712	39750088	33184
340	28.963771	113717248	80883712	41349648	33184
341	29.82272	113717248	80883712	43193248	33184
342	30.143701	113717248	80883712	45230232	33184
343	35.356644	113717248	80883712	33357000	33184
344	33.023561	113717248	80883712	37700848	33184
345	32.920188	113717248	80883712	41930936	33184
346	33.018773	113717248	80883712	46042856	33184
347	38.253146	113717248	80883712	35908376	33184
348	35.885539	113717248	80883712	41761032	33184
349	40.580159	113717248	80883712	33663928	33184
350	40.008998	113717248	80883712	43036400	33184
351	42.553173	113717248	80883712	36338544	33184
352	1.457454	113717248	80883712	46988368	33184
353	2.133626	113717248	80883712	48393960	33184
354	2.841068	113717248	80883712	50270392	33184
355	3.583349	113717248	80883712	52619256	33184
356	7.098277	113717248	80883712	39081824	33184
357	5.176555	113717248	80883712	42378480	33184
358	5.855837	113717248	80883712	46158984	33184
359	6.332719	113717248	80883712	50424784	33184
360	10.190337	113717248	80883712	39073736	33184
361	8.376016	113717248	80883712	44323400	33184
362	8.550668	113717248	80883712	50066520	33184
363	12.231909	113717248	80883712	40262432	33184
364	10.25033	113717248	80883712	46999112	33184
365	14.040624	113717248	80883712	38612592	33184
366	11.424773	113717248	80883712	46341312	33184
367	16.015166	113717248	80883712	39022208	33184
368	12.851386	113717248	80883712	47754000	33184
369	16.833492	113717248	80883712	41267376	33184
370	14.392504	113717248	80883712	51007160	33184
371	18.82445	113717248	80883712	45085488	33184
372	19.808788	113717248	80883712	40480216	33184
373	16.788538	113717248	80883712	51733832	33184
374	20.358279	113717248	80883712	47246544	33184
375	21.636301	113717248	80883712	43903056	33184
376	22.396578	113717248	80883712	41514680	33184
377	24.145472	113717248	80883712	39979608	33184
378	25.347424	113717248	80883712	39163768	33184
379	21.653388	113717248	80883712	53494568	33184
380	25.301383	113717248	80883712	51901784	33184
381	25.56408	113717248	80883712	51028296	33184
382	27.314079	113717248	80883712	50793536	33184
383	27.35981	113717248	80883712	51126936	33184
384	28.327661	113717248	80883712	51913008	33184
385	29.055518	113717248	80883712	53131456	33184
386	34.708179	113717248	80883712	40555792	33184
387	32.23691	113717248	80883712	44369912	33184
388	32.203152	113717248	80883712	48245520	33184
389	32.505367	113717248	80883712	52117496	33184
390	38.065362	113717248	80883712	41978640	33184
391	37.705636	113717248	80883712	50115288	33184
392	35.203147	113717248	80883712	55893736	33184
393	40.520447	113717248	80883712	47058160	33184
394	36.910715	113717248	80883712	54107264	33184
395	42.709159	113717248	80883712	46864656	33184
396	43.432603	113717248	80883712	57673736	33184
397	55.85237	114257920	81408000	51751984	33184
398	53.095112	114257920	81408000	22676400	33184
399	40.138454	114257920	81408000	34961080	33184
400	40.553613	114257920	81408000	30163488	33184
401	42.03389	114257920	81408000	26743968	33184
402	1.635913	114257920	81408000	28476088	33184
403	2.372039	114257920	81408000	30108064	33184
404	3.253013	114257920	81408000	32280760	33184
405	4.509993	114257920	81408000	35001272	33184
406	5.156458	114257920	81408000	38267920	33184
407	8.024943	114257920	81408000	27980352	33184
408	6.982242	114257920	81408000	32345400	33184
409	7.076316	114257920	81408000	37266760	33184
410	9.064348	114257920	81408000	27136048	33184
411	8.916497	114257920	81408000	33158616	33184
412	9.465203	114257920	81408000	39735672	33184
413	11.072497	114257920	81408000	30759304	33184
414	11.292704	114257920	81408000	38449400	33184
415	12.505698	114257920	81408000	30794712	33184
416	12.998085	114257920	81408000	39604416	33184
417	14.244328	114257920	81408000	32906008	33184
418	15.669146	114257920	81408000	27658432	33184
419	15.813387	114257920	81408000	38156760	33184
420	16.625082	114257920	81408000	33337744	33184
421	18.498172	114257920	81408000	29743832	33184
422	17.807092	114257920	81408000	41938728	33184
423	19.388323	114257920	81408000	38302656	33184
424	20.315797	114257920	81408000	35727648	33184
425	21.710512	114257920	81408000	34066736	33184
426	23.296861	114257920	81408000	33220544	33184
427	23.609002	114257920	81408000	33094152	33184
428	24.355169	114257920	81408000	33544808	33184
429	24.961678	114257920	81408000	34508208	33184
430	26.039534	114257920	81408000	35920744	33184
431	26.756992	114257920	81408000	37722960	33184
432	27.35707	114257920	81408000	39852712	33184
433	27.520361	114257920	81408000	42274248	33184
434	31.848194	114257920	81408000	30789440	33184
435	31.459008	114257920	81408000	35639328	33184
436	31.160307	114257920	81408000	40399976	33184
437	34.210373	114257920	81408000	31167496	33184
438	35.972421	114257920	81408000	40137680	33184
439	36.806768	114798592	81932288	33023912	33184
440	37.767582	114798592	81932288	43133240	33184
441	38.803929	114798592	81932288	37051360	33184
442	39.371379	114798592	81932288	48350608	33184
443	39.533562	114798592	81932288	43040384	33184
444	44.757558	114798592	81932288	42889352	33184
445	41.452229	114798592	81932288	55828624	33184
446	41.498647	114798592	81932288	51944448	33184
447	49.597835	115339264	82456576	53590472	33184
448	61.493956	119123968	86650880	55672512	33184
449	60.916438	119123968	86650880	28602928	33184
450	50.036708	119123968	86650880	31930072	33184
451	52.816894	119123968	86650880	35838296	33184
452	1.816222	119394304	86650880	40835608	33184
453	2.678273	119394304	86650880	42647488	33184
454	3.580516	119394304	86650880	45065600	33184
455	4.635303	119394304	86650880	48091152	33184
456	8.649893	119394304	86650880	37979560	33184
457	6.209449	119394304	86650880	42224208	33184
458	8.045885	119394304	86650880	47087936	33184
459	9.504657	119394304	86650880	37267824	33184
460	8.878714	119394304	86650880	43350976	33184
461	9.957084	119394304	86650880	50051328	33184
462	11.399056	119394304	86650880	41110360	33184
463	11.86166	119394304	86650880	49046472	33184
464	13.120879	119394304	86650880	41480672	33184
465	13.756007	119394304	86650880	50649224	33184
466	15.288495	119394304	86650880	44120056	33184
467	16.37885	119394304	86650880	39087912	33184
468	16.385131	119394304	86650880	50127832	33184
469	17.828599	119394304	86650880	45531016	33184
470	19.203858	119394304	86650880	42176192	33184
471	20.363626	119394304	86650880	39925360	33184
472	22.244065	119394304	86650880	38629048	33184
473	23.058437	119394304	86650880	38155824	33184
474	24.465194	119394304	86650880	38358600	33184
475	25.257652	119394304	86650880	39162432	33184
476	25.77888	119394304	86650880	40502192	33184
477	26.904747	119394304	86650880	42317072	33184
478	26.973211	119394304	86650880	44505136	33184
479	28.115332	119394304	86650880	47019488	33184
480	28.445737	119394304	86650880	49826240	33184
481	32.101704	119394304	86650880	38931472	33184
482	33.343943	119394304	86650880	46432008	33184
483	31.812541	119394304	86650880	51724600	33184
484	34.795379	119394304	86650880	42967360	33184
485	36.854308	119394304	86650880	52359736	33184
486	37.517681	119394304	86650880	45685864	33184
487	38.727877	119394304	86650880	56351168	33184
488	39.312144	119394304	86650880	50635808	33184
489	40.353376	119394304	86650880	62606328	33184
490	40.503993	119394304	86650880	57659248	33184
491	42.487435	119394304	86650880	54212584	33184
492	48.45857	121827328	89272320	55506160	33184
493	53.396787	123719680	91369472	69956888	33184
494	61.818501	121901056	89272320	24712864	33184
495	50.911853	121901056	89272320	27863384	33184
496	51.085062	121901056	89272320	31661760	33184
497	51.216715	121901056	89272320	36094360	33184
498	52.71355	121901056	89272320	41189672	33184
499	53.855679	122712064	89796608	46945608	33184
500	55.525035	122712064	89796608	53344416	33184
501	55.666946	122712064	89796608	60393400	33184
502	2.205256	123252736	90320896	56135408	33184
503	3.250945	123252736	90320896	58131448	33184
504	4.357891	123252736	90320896	60795000	33184
505	5.507563	123252736	90320896	64127248	33184
506	8.652291	123252736	90320896	68129888	33184
507	17.202782	125145088	92418048	58392376	33184
508	16.316532	119902208	87175168	21705824	33184
509	9.209729	119902208	87175168	27727112	33184
510	9.789609	119902208	87175168	34424848	33184
511	11.337807	119902208	87175168	25467632	33184
512	11.742754	119902208	87175168	33517192	33184
513	13.379807	119902208	87175168	26038160	33184
514	13.931416	119902208	87175168	35453712	33184
515	15.181574	119902208	87175168	29075696	33184
516	17.057359	119902208	87175168	24232024	33184
517	19.078118	119902208	87175168	20773512	33184
518	17.910561	119902208	87175168	32930880	33184
519	19.366492	119902208	87175168	29623384	33184
520	20.774243	119902208	87175168	27463960	33184
521	22.071139	119902208	87175168	26311096	33184
522	23.770356	119902208	87175168	25997864	33184
523	24.806623	119902208	87175168	26434576	33184
524	25.273192	119902208	87175168	27483168	33184
525	26.474973	119902208	87175168	29097032	33184
526	27.203147	119902208	87175168	31151904	33184
527	28.201919	119902208	87175168	33640864	33184
528	31.857448	119902208	87175168	22516640	33184
529	33.3877	119902208	87175168	29894152	33184
530	31.497388	119902208	87175168	35093528	33184
531	35.878569	119902208	87175168	26361832	33184
532	36.337753	119902208	87175168	35840600	33184
533	37.760523	119902208	87175168	29196800	33184
534	38.407096	119902208	87175168	40005792	33184
535	39.387048	119902208	87175168	34520848	33184
536	41.606016	119902208	87175168	46777136	33184
537	40.802893	119902208	87175168	42009752	33184
538	42.310719	119902208	87175168	38762208	33184
539	47.65864	119902208	87175168	40521360	33184
540	48.80015	119902208	87175168	42898208	33184
541	49.338218	120172544	87175168	45948960	33184
542	51.133404	120172544	87175168	49706504	33184
543	52.299696	120172544	87699456	54184448	33184
544	69.092392	123957248	91369472	59359160	33184
545	61.901247	122908672	90320896	33349560	33184
546	55.920252	122908672	90320896	40059496	33184
547	61.293163	122908672	90320896	34903776	33184
548	57.311495	122908672	90320896	42952208	33184
549	58.89475	122908672	90320896	51753952	33184
550	64.003328	123179008	90320896	48695360	33184
551	60.862904	123179008	90320896	58932712	33184
552	2.47373	123990016	91369472	57995672	33184
553	3.574542	123990016	91369472	60175744	33184
554	4.796588	123990016	91369472	63084720	33184
555	6.335931	123990016	91369472	66723880	33184
556	12.62794	126152704	93466624	57184096	33184
557	8.371052	126152704	93466624	62301488	33184
558	10.795922	126152704	93466624	68159320	33184
559	19.058675	126152704	93466624	58941472	33184
560	19.838805	123117568	90320896	24131256	33184
561	12.331038	123117568	90320896	32220072	33184
562	14.4184	123117568	90320896	25129616	33184
563	14.029655	123117568	90320896	34710896	33184
564	16.088309	123117568	90320896	28773528	33184
565	17.404671	123117568	90320896	24437752	33184
566	17.531903	123117568	90320896	36268304	33184
567	18.945445	123117568	90320896	32370424	33184
568	20.249293	123117568	90320896	29797048	33184
569	22.064449	123117568	90320896	28277408	33184
570	23.847911	123117568	90320896	27752432	33184
571	24.356915	123117568	90320896	28045112	33184
572	25.988418	123117568	90320896	29099344	33184
573	27.395003	123117568	90320896	30708264	33184
574	27.590411	123117568	90320896	32989048	33184
575	28.132899	123117568	90320896	35654304	33184
576	31.957697	123117568	90320896	24634656	33184
577	31.557807	123117568	90320896	30042400	33184
578	31.692393	123117568	90320896	35434352	33184
579	35.319614	123117568	90320896	26800008	33184
580	37.305253	123117568	90320896	36860176	33184
581	38.294352	123117568	90320896	30534456	33184
582	40.252529	123117568	90320896	42136072	33184
583	40.272055	123117568	90320896	36925024	33184
584	42.226623	123117568	90320896	33306688	33184
585	47.537495	123117568	90320896	34584568	33184
586	45.730183	123117568	90320896	49118368	33184
587	45.89898	123117568	90320896	46628144	33184
588	47.213009	123117568	90320896	45394136	33184
589	52.29139	123117568	90320896	49824400	33184
590	54.083059	123928576	90845184	54817160	33184
591	54.375717	123928576	90845184	60647296	33184
592	60.299946	123928576	90845184	54687048	33184
593	77.043964	125550592	92942336	62034600	33184
594	67.919579	123453440	90845184	25885752	33184
595	59.225971	123453440	90845184	34798624	33184
596	59.752031	123453440	90845184	44540408	33184
597	66.86668	123453440	90845184	42501184	33184
598	62.040384	123453440	90845184	53797568	33184
599	68.168484	124264448	91369472	53315064	33184
600	64.275548	124264448	91369472	66236592	33184
601	75.687313	126156800	93466624	67317080	33184
602	2.52375	128507904	96088064	37557496	33184
603	7.912238	128507904	96088064	27245232	33184
604	4.779594	128507904	96088064	30427696	33184
605	6.044699	128507904	96088064	34407536	33184
606	7.24621	128507904	96088064	39190560	33184
607	10.393153	128507904	96088064	30023624	33184
608	9.55702	128507904	96088064	36406160	33184
609	11.751356	128507904	96088064	27826272	33184
610	11.77461	128507904	96088064	35817664	33184
611	13.943806	128507904	96088064	28951192	33184
612	14.517625	128507904	96088064	38559200	33184
613	15.820611	128507904	96088064	32888992	33184
614	18.041869	128507904	96088064	28830328	33184
615	17.646466	128507904	96088064	40862176	33184
616	19.53011	128507904	96088064	37316688	33184
617	21.092645	128507904	96088064	35117640	33184
618	22.398676	128507904	96088064	33991704	33184
619	23.793625	128507904	96088064	33859568	33184
620	25.44082	128507904	96088064	34541120	33184
621	26.637711	128507904	96088064	35934472	33184
622	27.369115	128507904	96088064	37976352	33184
623	28.476306	128507904	96088064	40568912	33184
624	32.206341	128507904	96088064	29550104	33184
625	34.265748	128507904	96088064	37371064	33184
626	32.665745	128507904	96088064	43116760	33184
627	35.649996	128507904	96088064	34589928	33184
628	38.012615	128507904	96088064	44905112	33184
629	38.86532	128507904	96088064	38736656	33184
630	44.702963	128507904	96088064	38065440	33184
631	41.303335	128507904	96088064	50667384	33184
632	42.169016	128507904	96088064	46800768	33184
633	48.534303	128507904	96088064	48591352	33184
634	50.648331	129048576	96088064	51098424	33184
635	51.442963	129048576	96088064	54486264	33184
636	52.179143	129048576	96088064	58560080	33184
637	72.038314	130400256	97660928	63608192	33184
638	57.890986	121487360	88748032	35912712	33184
639	61.165082	121487360	88748032	30230384	33184
640	57.169115	121487360	88748032	37662456	33184
641	59.108367	121487360	88748032	46105648	33184
642	63.767408	121487360	88748032	42774232	33184
643	60.275378	122298368	89272320	52737352	33184
644	61.286721	122298368	89272320	63674744	33184
645	70.313054	123650048	90845184	62896400	33184
646	98.43676	126046208	94515200	32611736	33184
647	70.215909	127393792	94515200	32744336	33184
648	67.113426	127393792	94515200	46986488	33184
649	72.429333	127393792	94515200	49546232	33184
650	74.474838	127393792	94515200	53011040	33184
651	75.581457	127393792	94515200	57289328	33184
652	2.562523	127393792	94515200	63208544	33184
653	3.803638	127393792	94515200	65777136	33184
654	5.168715	127393792	94515200	69204032	33184
655	9.851888	127393792	94515200	59840080	33184
656	8.386808	127393792	94515200	64991560	33184
657	10.132575	127393792	94515200	71001944	33184
658	13.375207	127393792	94515200	62320064	33184
659	14.8117	127393792	94515200	70061672	33184
660	26.257596	121688064	88748032	17098832	33184
661	14.912307	121688064	88748032	26573000	33184
662	17.43682	121688064	88748032	21827624	33184
663	18.493901	121688064	88748032	18207664	33184
664	18.218781	121688064	88748032	30296552	33184
665	19.958149	121688064	88748032	27079752	33184
666	22.050345	121688064	88748032	25207552	33184
667	23.102975	121688064	88748032	24425784	33184
668	24.333235	121688064	88748032	24655288	33184
669	25.700351	121688064	88748032	25768208	33184
670	26.612787	121688064	88748032	27533416	33184
671	28.044981	121688064	88748032	29941272	33184
672	32.213716	121688064	88748032	19003336	33184
673	34.223574	121688064	88748032	26632672	33184
674	32.469949	121688064	88748032	32209424	33184
675	36.578587	121688064	88748032	24041376	33184
676	37.871409	121688064	88748032	34281888	33184
677	39.294841	121688064	88748032	28308112	33184
678	40.962318	121688064	88748032	40302488	33184
679	40.795725	121688064	88748032	35539592	33184
680	43.043355	121688064	88748032	32453272	33184
681	48.36359	121688064	88748032	34494832	33184
682	49.836469	121688064	88748032	37358968	33184
683	51.395327	121688064	88748032	41074632	33184
684	52.121964	121688064	88748032	45706064	33184
685	56.132988	121688064	88748032	51269880	33184
686	74.03961	123580416	90845184	57711576	33184
687	63.403947	117813248	85078016	36261544	33184
688	62.92287	117813248	85078016	31992312	33184
689	59.374467	117813248	85078016	41060736	33184
690	61.531566	117813248	85078016	51047832	33184
691	68.283628	117813248	85078016	49450336	33184
692	67.911166	118083584	85078016	48739536	33184
693	65.665479	119975936	87175168	61420392	33184
694	80.483388	125923328	93466624	62524608	33184
695	92.973965	125202432	92418048	33595888	33184
696	72.957971	125202432	92418048	36565912	33184
697	74.217988	125472768	92418048	40353464	33184
698	76.092755	125472768	92418048	45072224	33184
699	77.317445	125472768	92418048	50752480	33184
700	78.865441	125472768	92418048	57314544	33184
701	85.525338	126013440	93466624	64738992	33184
702	2.801131	123781120	91369472	29464432	33184
703	4.101717	123781120	91369472	32229080	33184
704	5.530947	123781120	91369472	35901512	33184
705	6.881348	123781120	91369472	40499856	33184
706	10.914038	123781120	91369472	31628592	33184
707	9.546587	123781120	91369472	38068424	33184
708	11.882959	123781120	91369472	29729920	33184
709	12.232942	123781120	91369472	38023768	33184
710	14.818463	123781120	91369472	31483792	33184
711	15.029251	123781120	91369472	41645520	33184
712	16.940386	123781120	91369472	36482320	33184
713	18.927092	123781120	91369472	32955384	33184
714	20.991333	123781120	91369472	30890664	33184
715	22.39157	123781120	91369472	30057104	33184
716	24.323499	123781120	91369472	30297504	33184
717	25.804217	123781120	91369472	31488200	33184
718	27.352438	123781120	91369472	33441912	33184
719	27.918394	123781120	91369472	36048848	33184
720	30.003428	123781120	91369472	39275184	33184
721	29.739105	123781120	91369472	43018200	33184
722	34.279456	123781120	91369472	33098872	33184
723	33.507297	123781120	91369472	39645536	33184
724	37.304777	123781120	91369472	32484616	33184
725	39.08584	123781120	91369472	43548728	33184
726	40.015924	123781120	91369472	38307744	33184
727	46.005794	123781120	91369472	38687576	33184
728	42.984396	123781120	91369472	52508768	33184
729	44.289474	123781120	91369472	49551952	33184
730	46.146126	123781120	91369472	48076040	33184
731	52.105072	123781120	91369472	52296040	33184
732	53.029111	123781120	91369472	57414552	33184
733	55.111167	124321792	91369472	63456672	33184
734	61.183049	124321792	91369472	57854008	33184
735	63.198818	127836160	95039488	65859536	33184
736	82.442234	127741952	95039488	27945368	33184
737	61.23461	127741952	95039488	37969216	33184
738	66.367582	127741952	95039488	36301448	33184
739	63.221555	127741952	95039488	48151968	33184
740	68.796341	127741952	95039488	48416704	33184
741	70.49449	127741952	95039488	49744112	33184
742	67.171884	127741952	95039488	64481928	33184
743	78.823458	128012288	95039488	67712216	33184
744	99.543126	124010496	91369472	26682920	33184
745	76.400263	124010496	91369472	31798832	33184
746	77.419514	124010496	91369472	38101184	33184
747	79.07749	124010496	91369472	45137304	33184
748	79.267151	124010496	91369472	53404232	33184
749	81.462305	124280832	91369472	62419496	33184
750	111.967324	125526016	93990912	27417928	33184
751	88.195036	126873600	93990912	37691904	33184
752	3.065844	126873600	93990912	38130344	33184
753	4.586711	126873600	93990912	41122656	33184
754	6.073537	126873600	93990912	45121808	33184
755	10.68378	126873600	93990912	36299360	33184
756	8.989226	126873600	93990912	42282192	33184
757	10.590417	126873600	93990912	49284608	33184
758	12.66276	126873600	93990912	41240000	33184
759	13.329996	126873600	93990912	50235504	33184
760	15.186184	126873600	93990912	43887112	33184
761	17.27491	126873600	93990912	39346312	33184
762	19.441454	126873600	93990912	36468712	33184
763	19.209144	126873600	93990912	49497560	33184
764	21.40286	126873600	93990912	47250864	33184
765	22.918537	126873600	93990912	46328584	33184
766	24.588864	126873600	93990912	46553760	33184
767	26.381975	126873600	93990912	47752960	33184
768	27.362677	126873600	93990912	49790448	33184
769	32.788609	126873600	93990912	38497776	33184
770	31.52647	126873600	93990912	43885984	33184
771	32.206546	126873600	93990912	49554600	33184
772	36.076123	126873600	93990912	41420232	33184
773	38.680089	126873600	93990912	52167512	33184
774	39.839334	126873600	93990912	46607840	33184
775	46.599869	126873600	93990912	46815112	33184
776	47.489244	126873600	93990912	47882648	33184
777	44.064314	126873600	93990912	62554448	33184
778	45.231958	126873600	93990912	60612104	33184
779	53.924318	126873600	93990912	64913928	33184
780	80.575781	122978304	91369472	26158688	33184
781	54.255837	124325888	91369472	31740512	33184
782	56.055384	124325888	91369472	38954112	33184
783	57.484531	124325888	91369472	47196872	33184
784	64.295624	124325888	91369472	43870592	33184
785	60.048157	124325888	91369472	54209672	33184
786	67.37544	124325888	91369472	53015928	33184
787	64.240096	124325888	91369472	65435352	33184
788	75.818281	125947904	93466624	66299576	33184
789	91.530355	127606784	94515200	35317952	33184
790	72.860513	127606784	94515200	38414616	33184
791	74.990964	127606784	94515200	42435632	33184
792	75.725988	127606784	94515200	47549168	33184
793	76.642768	127606784	94515200	53609584	33184
794	78.259375	127606784	94515200	60677232	33184
795	88.061946	127606784	94515200	68874136	33184
796	105.919652	123695104	90845184	33159848	33184
797	84.273186	123695104	90845184	43433560	33184
798	89.672844	123695104	90845184	42112656	33184
799	87.009305	123695104	90845184	54534704	33184
800	92.02882	123695104	90845184	55292240	33184
801	97.783479	126128128	93466624	69841992	33184
802	3.153788	127447040	95039488	41653216	33184
803	9.301117	127447040	95039488	31901992	33184
804	6.666159	127447040	95039488	36130952	33184
805	7.745751	127447040	95039488	41420000	33184
806	11.541574	127447040	95039488	33154736	33184
807	11.312428	127447040	95039488	40598224	33184
808	13.451684	127447040	95039488	33253912	33184
809	14.011408	127447040	95039488	42796432	33184
810	16.403424	127447040	95039488	37290432	33184
811	18.393102	127447040	95039488	33591952	33184
812	20.842886	127447040	95039488	31470240	33184
813	22.728596	127447040	95039488	30698488	33184
814	24.429662	127447040	95039488	31064024	33184
815	25.727861	127447040	95039488	32523464	33184
816	27.326363	127447040	95039488	34833264	33184
817	28.670537	127447040	95039488	37853960	33184
818	29.398936	127447040	95039488	41541616	33184
819	34.529827	127447040	95039488	32055936	33184
820	35.497433	127447040	95039488	40964536	33184
821	34.525557	127447040	95039488	47916960	33184
822	37.906357	127447040	95039488	40738416	33184
823	40.927842	127447040	95039488	36426480	33184
824	41.994766	127447040	95039488	49623928	33184
825	42.874635	127447040	95039488	46220944	33184
826	50.038942	127447040	95039488	49040024	33184
827	51.145851	127447040	95039488	52778040	33184
828	53.39107	127447040	95039488	57616800	33184
829	55.1624	127987712	95039488	63533496	33184
830	56.771101	127987712	95039488	70543904	33184
831	83.40643	130420736	97660928	66098640	33184
832	65.298214	126615552	93990912	27468560	33184
833	62.053921	126615552	93990912	37745800	33184
834	66.963705	126615552	93990912	36543048	33184
835	63.853393	126615552	93990912	49003088	33184
836	70.621351	126615552	93990912	50082960	33184
837	72.128909	126615552	93990912	52172816	33184
838	82.508582	126885888	93990912	55408312	33184
839	99.448837	121241600	88223744	29825048	33184
840	76.952334	121241600	88223744	35369576	33184
841	77.541557	121241600	88223744	41852352	33184
842	79.680224	121241600	88223744	49513880	33184
843	81.402147	121241600	88223744	58242408	33184
844	83.578915	121511936	88748032	68120408	33184
845	117.564737	125607936	92418048	21453984	33184
846	89.189743	124334080	92418048	32629624	33184
847	89.050837	124334080	92418048	45830784	33184
848	94.544657	124334080	92418048	47605864	33184
849	97.047993	124334080	92418048	50591656	33184
850	92.574264	124334080	92418048	67216304	33184
851	123.428362	122322944	89796608	24434040	33184
852	7.774781	122322944	89796608	31859152	33184
853	5.253675	122322944	89796608	35244296	33184
854	6.962982	122322944	89796608	39762712	33184
855	10.886888	122322944	89796608	31422624	33184
856	10.35102	122322944	89796608	38222832	33184
857	12.772119	122322944	89796608	30748656	33184
858	13.520118	122322944	89796608	39815392	33184
859	16.440051	122322944	89796608	34370240	33184
860	16.505654	122322944	89796608	45698464	33184
861	18.914157	122322944	89796608	41791784	33184
862	20.753079	122322944	89796608	39510240	33184
863	23.013305	122322944	89796608	38645536	33184
864	25.299804	122322944	89796608	39066760	33184
865	26.255763	122322944	89796608	40628712	33184
866	28.551432	122322944	89796608	43067800	33184
867	32.805994	122322944	89796608	32441664	33184
868	35.139167	122322944	89796608	40524512	33184
869	33.799448	122322944	89796608	46820488	33184
870	37.095601	122322944	89796608	39378496	33184
871	39.542581	122322944	89796608	50947384	33184
872	41.046657	122322944	89796608	45953272	33184
873	42.682472	122322944	89796608	42917840	33184
874	48.248076	122322944	89796608	45275856	33184
875	50.255299	122322944	89796608	48503968	33184
876	52.010993	122322944	89796608	53080960	33184
877	54.888215	123404288	90320896	58673384	33184
878	79.613429	126377984	93466624	65467488	33184
879	62.717446	123232256	90320896	27782936	33184
880	59.387079	123232256	90320896	36843856	33184
881	65.98899	123232256	90320896	34547360	33184
882	63.554002	123232256	90320896	46066000	33184
883	68.649083	123232256	90320896	46101216	33184
884	65.820411	123232256	90320896	59930496	33184
885	72.063694	123232256	90320896	62318944	33184
886	101.978173	124395520	92942336	21535408	33184
887	73.704911	125743104	92942336	37955600	33184
888	77.530226	125743104	92942336	43818296	33184
889	83.344325	125743104	92942336	38229760	33184
890	79.33109	125743104	92942336	46492016	33184
891	82.704154	125743104	92942336	55943720	33184
892	89.419029	125743104	92942336	66528472	33184
893	108.692937	122191872	89272320	34136768	33184
894	87.650311	122191872	89272320	47029880	33184
895	93.51198	122191872	89272320	48579640	33184
896	94.281756	122191872	89272320	51329312	33184
897	92.625133	122191872	89272320	67795208	33184
898	129.293943	126668800	95563776	27722920	33184
899	102.670916	128016384	95563776	33145360	33184
900	102.287654	128016384	95563776	40595016	33184
901	104.117141	128016384	95563776	49255096	33184
902	3.527297	128016384	95563776	60259032	33184
903	5.245481	128016384	95563776	63838400	33184
904	10.632224	128557056	95563776	55226680	33184
905	8.934385	128557056	95563776	61186160	33184
906	10.466017	128557056	95563776	68340160	33184
907	15.080003	128557056	95563776	61003168	33184
908	18.22342	128557056	95563776	55231736	33184
909	18.08294	128557056	95563776	65975440	33184
910	35.51721	121741312	88748032	17984072	33184
911	22.642294	121741312	88748032	31157136	33184
912	23.265681	121741312	88748032	30281512	33184
913	23.647422	121741312	88748032	29931016	33184
914	25.77313	121741312	88748032	30624912	33184
915	27.081164	121741312	88748032	32435592	33184
916	32.087991	121741312	88748032	21129744	33184
917	32.423094	121741312	88748032	26689248	33184
918	33.099173	121741312	88748032	32700328	33184
919	37.362268	121741312	88748032	24971864	33184
920	40.237163	121741312	88748032	20350672	33184
921	41.755562	121741312	88748032	33050304	33184
922	42.655475	121741312	88748032	29722328	33184
923	50.028826	121741312	88748032	32366760	33184
924	50.690436	121741312	88748032	36062352	33184
925	52.658788	121741312	88748032	40936040	33184
926	55.195716	121741312	88748032	47055760	33184
927	56.802616	121741312	88748032	54351464	33184
928	67.764018	121741312	88748032	50256664	33184
929	80.365898	117022720	85602304	33577200	33184
930	66.529279	118644736	85602304	31891112	33184
931	63.327227	118644736	85602304	44037808	33184
932	69.694668	118644736	85602304	44963520	33184
933	70.478907	118644736	85602304	47066440	33184
934	73.749582	119185408	86126592	50399056	33184
935	71.197109	120807424	87699456	67558200	33184
936	106.788126	121626624	90845184	28462176	33184
937	79.255792	123514880	90845184	34629288	33184
938	80.510658	123514880	90845184	42979888	33184
939	87.359713	123514880	90845184	40006576	33184
940	84.647531	123514880	90845184	50798848	33184
941	85.627179	123514880	90845184	62769832	33184
942	115.759605	122576896	90845184	31980304	33184
943	94.759293	123924480	90845184	33141832	33184
944	95.939816	123924480	90845184	36220320	33184
945	93.474686	123924480	90845184	53171528	33184
946	99.025801	123924480	90845184	58736864	33184
947	125.752365	125005824	91893760	65500808	33184
948	105.982714	124907520	91893760	42460416	33184
949	109.396551	124907520	91893760	39235336	33184
950	109.314671	124907520	91893760	49720096	33184
951	108.566927	124907520	91893760	61612104	33184
952	3.729039	125493248	93990912	30587512	33184
953	5.876337	125493248	93990912	34344704	33184
954	11.39021	126840832	93990912	25050152	33184
955	9.672581	126840832	93990912	31318136	33184
956	11.387768	126840832	93990912	38837152	33184
957	14.38245	126840832	93990912	31911072	33184
958	15.949416	126840832	93990912	26610320	33184
959	16.692377	126840832	93990912	37905136	33184
960	18.877613	126840832	93990912	34277744	33184
961	21.115555	126840832	93990912	32396672	33184
962	23.695732	126840832	93990912	31967560	33184
963	25.726642	126840832	93990912	32937848	33184
964	27.220482	126840832	93990912	35041648	33184
965	28.993598	126840832	93990912	38068816	33184
966	33.683655	126840832	93990912	28035864	33184
967	36.037732	126840832	93990912	37034552	33184
968	39.304326	126840832	93990912	30538008	33184
969	40.490692	126840832	93990912	42063504	33184
970	41.500464	126840832	93990912	37727648	33184
971	47.770923	126840832	93990912	39134624	33184
972	50.268856	126840832	93990912	41767248	33184
973	51.29517	126840832	93990912	45674488	33184
974	52.744816	126840832	93990912	50854616	33184
975	56.088674	126840832	93990912	57290648	33184
976	56.85035	126840832	93990912	65016640	33184
977	78.316001	127922176	95039488	61510144	33184
978	73.133622	127807488	95039488	24984392	33184
979	61.956738	127807488	95039488	36541840	33184
980	69.469147	127807488	95039488	36805712	33184
981	65.818827	127807488	95039488	50972632	33184
982	72.560638	127807488	95039488	53840904	33184
983	74.862359	127807488	95039488	57961752	33184
984	83.138839	128888832	96612352	63416496	33184
985	104.597423	124407808	91369472	27450184	33184
986	81.031898	124407808	91369472	35454176	33184
987	81.353361	124407808	91369472	44760224	33184
988	83.397273	124407808	91369472	55373424	33184
989	90.88328	124407808	91369472	54742264	33184
990	90.234058	124678144	91893760	67967536	33184
991	122.353938	128733184	95563776	39048592	33184
992	96.498416	128733184	95563776	42381800	33184
993	98.545581	128733184	95563776	46996296	33184
994	100.349457	128733184	95563776	52749608	33184
995	104.040641	128733184	95563776	59905960	33184
996	126.692718	133328896	100282368	68300496	33184
997	110.340531	128286720	95039488	42933576	33184
998	112.355018	128286720	95039488	41395000	33184
999	109.066357	128286720	95039488	53804776	33184
1000	112.259221	128286720	95039488	67477224	33184
