x	Duration	RSS	HeapTotal	HeapUsed	External
0	NA	119808000	85078016	14518104	33184
1	0.226248	119808000	85078016	14570352	33184
2	0.174518	119808000	85078016	14638312	33184
3	0.190743	119808000	85078016	14731008	33184
4	0.23114	119808000	85078016	14850112	33184
5	0.275018	119808000	85078016	14997384	33184
6	0.317687	119808000	85078016	15173512	33184
7	0.391494	119808000	85078016	15379728	33184
8	0.433203	119808000	85078016	15617248	33184
9	0.467012	119808000	85078016	15888608	33184
10	0.534906	119808000	85078016	16194064	33184
11	0.841254	119808000	85078016	16534824	33184
12	0.653721	119808000	85078016	16912176	33184
13	0.863962	119808000	85078016	17327352	33184
14	1.481705	119808000	85078016	17785328	33184
15	0.950586	119808000	85078016	18279608	33184
16	0.873095	119808000	85078016	18815312	33184
17	1.153223	119808000	85078016	19395552	33184
18	1.042017	119808000	85078016	20024896	33184
19	1.109517	119808000	85078016	20695216	33184
20	1.310339	119808000	85078016	21412008	33184
21	1.568731	119808000	85078016	22197368	33184
22	1.279104	119808000	85078016	23012264	33184
23	1.673324	119808000	85078016	23879072	33184
24	1.439599	119808000	85078016	24798008	33184
25	1.6151	119808000	85078016	25767808	33184
26	1.509003	119808000	85078016	26792232	33184
27	1.582268	119808000	85078016	27872520	33184
28	1.748509	119808000	85078016	29009728	33184
29	1.746246	119808000	85078016	30206000	33184
30	2.787411	119808000	85078016	15236056	33184
31	2.29284	119808000	85078016	16551696	33184
32	2.401095	119808000	85078016	17934824	33184
33	2.11153	119808000	85078016	19382544	33184
34	2.180758	119808000	85078016	20894984	33184
35	2.35332	119808000	85078016	22473144	33184
36	2.57215	119808000	85078016	24118120	33184
37	2.647003	119808000	85078016	25832920	33184
38	2.574513	119808000	85078016	27615256	33184
39	2.663609	119808000	85078016	29468184	33184
40	2.966087	119808000	85078016	31395200	33184
41	4.27984	119808000	85078016	17189384	33184
42	3.209683	119808000	85078016	19261496	33184
43	3.206404	119808000	85078016	21409024	33184
44	3.370658	119808000	85078016	23634416	33184
45	4.060737	119808000	85078016	25940048	33184
46	3.504051	119808000	85078016	28333880	33184
47	3.700936	119808000	85078016	30801896	33184
48	4.967114	119808000	85078016	17138512	33184
49	4.180144	119808000	85078016	19775928	33184
50	4.038943	119808000	85078016	22498016	33184
51	3.971879	119808000	85078016	25307528	33184
52	0.289936	119808000	85078016	28121816	33184
53	0.423126	119808000	85078016	28387128	33184
54	0.548146	119808000	85078016	28743104	33184
55	0.891097	119808000	85078016	29190984	33184
56	0.818915	119808000	85078016	29732544	33184
57	0.990068	119808000	85078016	30368384	33184
58	1.092375	119808000	85078016	31099784	33184
59	1.410597	119808000	85078016	31928080	33184
60	2.605299	119808000	85078016	16572376	33184
61	1.609154	119808000	85078016	17600480	33184
62	1.635684	119808000	85078016	18727400	33184
63	1.983195	119808000	85078016	19956216	33184
64	1.92775	119808000	85078016	21287872	33184
65	2.154482	119808000	85078016	22723920	33184
66	2.441274	119808000	85078016	24264952	33184
67	2.595439	119808000	85078016	25915576	33184
68	2.706091	119808000	85078016	27673296	33184
69	2.816824	119808000	85078016	29540496	33184
70	2.865745	119808000	85078016	31516656	33184
71	3.840443	119808000	85078016	17345792	33184
72	3.413687	119808000	85078016	19546160	33184
73	3.485586	119808000	85078016	21861888	33184
74	3.508412	119808000	85078016	24291248	33184
75	3.815605	119808000	85078016	26837504	33184
76	3.849338	119808000	85078016	29500784	33184
77	3.967948	119808000	85078016	32283088	33184
78	5.589929	119808000	85078016	18820784	33184
79	4.388184	119808000	85078016	21852216	33184
80	4.491051	119808000	85078016	24998320	33184
81	4.795763	119808000	85078016	28269208	33184
82	5.033729	119808000	85078016	31663856	33184
83	6.345329	119808000	85078016	18983440	33184
84	5.2518	119808000	85078016	22640264	33184
85	5.679457	119808000	85078016	26426080	33184
86	6.156071	119808000	85078016	30342304	33184
87	7.128816	119808000	85078016	18485192	33184
88	5.920655	119808000	85078016	22668168	33184
89	6.299912	119808000	85078016	26984664	33184
90	6.318829	119808000	85078016	31437520	33184
91	7.644577	119808000	85078016	20024320	33184
92	6.933273	119808000	85078016	24757384	33184
93	7.457052	119808000	85078016	29631208	33184
94	8.762003	119808000	85078016	18908368	33184
95	7.910993	119808000	85078016	24070512	33184
96	7.670325	119808000	85078016	29376984	33184
97	9.31454	119808000	85078016	19126648	33184
98	7.946764	119808000	85078016	24727592	33184
99	8.139083	119808000	85078016	30477784	33184
100	9.837124	119808000	85078016	20573656	33184
101	8.965271	119808000	85078016	26626832	33184
102	0.486215	119808000	85078016	32824968	33184
103	0.700546	119808000	85078016	33283712	33184
104	1.107212	119808000	85078016	33897528	33184
105	2.129388	119808000	85078016	18505912	33184
106	1.425222	119808000	85078016	19434216	33184
107	1.581166	119808000	85078016	20521360	33184
108	1.824676	119808000	85078016	21768528	33184
109	2.030449	119808000	85078016	23177112	33184
110	2.278598	119808000	85078016	24749032	33184
111	2.507627	119808000	85078016	26484760	33184
112	2.727595	119808000	85078016	28385328	33184
113	3.173675	119808000	85078016	30452256	33184
114	3.215501	119808000	85078016	32686520	33184
115	4.579678	119808000	85078016	19057112	33184
116	3.980536	119808000	85078016	21629888	33184
117	4.233044	119808000	85078016	24373720	33184
118	4.494219	119808000	85078016	27291720	33184
119	4.715485	119808000	85078016	30383320	33184
120	4.688993	119808000	85078016	33649992	33184
121	6.16132	119808000	85078016	20944152	33184
122	5.19749	119808000	85078016	24565256	33184
123	5.687742	119808000	85078016	28363744	33184
124	5.681611	119808000	85078016	32344016	33184
125	7.202615	119808000	85078016	20510424	33184
126	6.247323	119808000	85078016	24851568	33184
127	6.493694	119808000	85078016	29376080	33184
128	6.806951	119808000	85078016	34085704	33184
129	8.159876	119808000	85078016	22778408	33184
130	7.499831	119808000	85078016	27860080	33184
131	7.532208	119808000	85078016	33130360	33184
132	9.31113	119808000	85078016	22527240	33184
133	8.419391	119808000	85078016	28181760	33184
134	8.459886	119808000	85078016	34030992	33184
135	9.831264	119808000	85078016	23902040	33184
136	8.957686	119808000	85078016	30139424	33184
137	10.599815	119808000	85078016	20920120	33184
138	9.844466	119808000	85078016	27550680	33184
139	10.415874	119808000	85078016	34380432	33184
140	11.418433	119808000	85078016	25218912	33184
141	10.404894	119808000	85078016	32446808	33184
142	11.88671	119808000	85078016	23966072	33184
143	11.335745	119808000	85078016	31602608	33184
144	13.160746	119808000	85078016	23654976	33184
145	12.590275	119808000	85078016	31713448	33184
146	14.120758	119808000	85078016	24190288	33184
147	12.178767	119808000	85078016	32659800	33184
148	14.025709	119808000	85078016	25435328	33184
149	12.946248	119808000	85078016	34328176	33184
150	14.2959	119808000	85078016	27341616	33184
151	15.789038	119808000	85078016	21488584	33184
152	0.731672	119808000	85078016	31088704	33184
153	1.045557	119808000	85078016	31736960	33184
154	1.370491	119808000	85078016	32603632	33184
155	1.720818	119808000	85078016	33689824	33184
156	2.137956	119808000	85078016	34997320	33184
157	2.453073	119808000	85078016	36526752	33184
158	3.639882	119808000	85078016	21972768	33184
159	2.884573	119808000	85078016	23949880	33184
160	3.212033	119808000	85078016	26153728	33184
161	3.732071	119808000	85078016	28584576	33184
162	3.889408	119808000	85078016	31243512	33184
163	4.204132	119808000	85078016	34133512	33184
164	6.107638	119808000	85078016	21282664	33184
165	4.865219	119808000	85078016	24633480	33184
166	5.385163	119808000	85078016	28217320	33184
167	5.556429	119808000	85078016	32035560	33184
168	6.195478	119808000	85078016	36094880	33184
169	7.408299	119808000	85078016	24161648	33184
170	6.823833	119808000	85078016	28691928	33184
171	6.927685	119808000	85078016	33461552	33184
172	8.679647	119808000	85078016	22616224	33184
173	7.805403	119808000	85078016	27868112	33184
174	8.15317	119808000	85078016	33362784	33184
175	9.77458	119808000	85078016	23250664	33184
176	8.773444	119808000	85078016	29234992	33184
177	9.49419	119808000	85078016	35466088	33184
178	11.10301	119808000	85078016	25834080	33184
179	9.950454	119808000	85078016	32561568	33184
180	12.034513	119808000	85078016	23827304	33184
181	10.696471	119808000	85078016	31066248	33184
182	13.073285	119808000	85078016	23032136	33184
183	11.865498	119808000	85078016	30787040	33184
184	13.753816	119808000	85078016	23335856	33184
185	12.357759	119808000	85078016	31615328	33184
186	14.416338	119808000	85078016	24601952	33184
187	13.265003	119808000	85078016	33406280	33184
188	15.054868	119808000	85078016	26697032	33184
189	13.965854	119808000	85078016	36031136	33184
190	15.825084	119808000	85078016	29503520	33184
191	16.68473	119808000	85078016	24134496	33184
192	15.036547	119808000	85078016	34272616	33184
193	17.068157	119808000	85078016	28817608	33184
194	18.302196	119808000	85078016	24371400	33184
195	16.309886	119808000	85078016	35324336	33184
196	17.938246	119808000	85078016	30554952	33184
197	20.411981	119808000	85078016	26750040	33184
198	18.028939	119808000	85078016	38533256	33184
199	19.211357	119808000	85078016	34234816	33184
200	20.238769	119808000	85078016	30784824	33184
201	20.821193	119808000	85078016	28077672	33184
202	0.920756	119808000	85078016	26133984	33184
203	1.341454	119808000	85078016	26978816	33184
204	1.784182	119808000	85078016	28111160	33184
205	2.209832	119808000	85078016	29524896	33184
206	2.601676	119808000	85078016	31225976	33184
207	3.001389	119808000	85078016	33214144	33184
208	3.519162	119808000	85078016	35490920	33184
209	3.751547	119808000	85078016	38057776	33184
210	5.807085	119808000	85078016	24697144	33184
211	4.591784	119808000	85078016	27848608	33184
212	5.054261	119808000	85078016	31293776	33184
213	5.65635	119808000	85078016	35034392	33184
214	5.860591	119808000	85078016	39071552	33184
215	8.051491	119808000	85078016	27062936	33184
216	7.201327	119808000	85078016	31694896	33184
217	7.181341	119808000	85078016	36626696	33184
218	9.610206	119808000	85078016	25848840	33184
219	8.513492	119808000	85078016	31385808	33184
220	8.526052	119808000	85078016	37228152	33184
221	10.724991	119808000	85078016	27281576	33184
222	9.623691	119808000	85078016	33732840	33184
223	11.946725	119808000	85078016	24871296	33184
224	10.473491	119808000	85078016	31939336	33184
225	11.393332	119808000	85078016	39318776	33184
226	12.952659	119808000	85078016	30653112	33184
227	11.785529	119808000	85078016	38652624	33184
228	13.594085	119808000	85078016	30720856	33184
229	12.798268	119808000	85078016	39353824	33184
230	15.113113	119808000	85078016	31964800	33184
231	16.171553	119808000	85078016	25891488	33184
232	14.165409	119808000	85078016	35483016	33184
233	16.641995	119808000	85078016	29587424	33184
234	15.187872	119808000	85078016	39830928	33184
235	17.480374	119808000	85078016	34047512	33184
236	18.114511	119808000	85078016	29347880	33184
237	19.11429	119808000	85078016	25607336	33184
238	17.243874	119808000	85078016	37157016	33184
239	19.382216	119808000	85078016	33037104	33184
240	20.087573	119808000	85078016	29827944	33184
241	21.468675	119808000	85078016	27361568	33184
242	19.261766	119808000	85078016	40237312	33184
243	20.72308	119808000	85078016	37087544	33184
244	22.086916	119808000	85078016	34710792	33184
245	22.966849	119808000	85078016	32964232	33184
246	23.57649	119808000	85078016	31829888	33184
247	24.134056	119808000	85078016	31199360	33184
248	24.525941	119808000	85078016	30985464	33184
249	25.390246	119808000	85078016	31160960	33184
250	26.111618	119808000	85078016	31656472	33184
251	26.480662	119808000	85078016	32443312	33184
252	1.066958	119808000	85078016	33697864	33184
253	1.560941	119808000	85078016	34735416	33184
254	2.059835	119808000	85078016	36121048	33184
255	2.712752	119808000	85078016	37855888	33184
256	3.086982	119808000	85078016	39941888	33184
257	5.738815	119808000	85078016	26211368	33184
258	4.319237	119808000	85078016	29002096	33184
259	4.617045	119808000	85078016	32147000	33184
260	5.121558	119808000	85078016	35648520	33184
261	5.890869	119808000	85078016	39506632	33184
262	8.167029	119808000	85078016	27602304	33184
263	6.72563	119808000	85078016	32177376	33184
264	7.653865	119808000	85078016	37116056	33184
265	9.910166	119808000	85078016	26658592	33184
266	8.286578	119808000	85078016	32318304	33184
267	8.881091	119808000	85078016	38342056	33184
268	11.511788	119808000	85078016	28800976	33184
269	10.09908	119808000	85078016	35558448	33184
270	13.116587	119808000	85078016	27126304	33184
271	11.471071	119808000	85078016	34624352	33184
272	14.301112	119808000	85078016	27073280	33184
273	12.276096	119808000	85078016	35309328	33184
274	15.031171	119808000	85078016	28403992	33184
275	13.77518	119808000	85078016	37392232	33184
276	16.023851	119808000	85078016	30976584	33184
277	14.297109	119808000	85078016	40713080	33184
278	17.012747	119808000	85078016	34613656	33184
279	17.929754	119808000	85078016	29731328	33184
280	16.112977	119808000	85078016	40601960	33184
281	18.676034	119808000	85078016	35642792	33184
282	19.55539	119808000	85078016	31751632	33184
283	20.746258	119808000	85078016	28764632	33184
284	18.585545	119808000	85078016	41185112	33184
285	20.9062	119808000	85078016	37727624	33184
286	21.500368	119808000	85078016	35160368	33184
287	22.464582	119808000	85078016	33285464	33184
288	24.082309	119808000	85078016	32090808	33184
289	24.789237	119808000	85078016	31453568	33184
290	25.302959	119808000	85078016	31329512	33184
291	25.827389	119808000	85078016	31618824	33184
292	26.713827	119808000	85078016	32281632	33184
293	26.98385	119808000	85078016	33223304	33184
294	28.010473	119808000	85078016	34478360	33184
295	28.18448	119808000	85078016	35950408	33184
296	28.592035	119808000	85078016	37613152	33184
297	28.75373	119808000	85078016	39478192	33184
298	28.817178	119808000	85078016	41503984	33184
299	29.146357	119808000	85078016	43660032	33184
300	33.640004	119808000	85078016	31725640	33184
301	31.98947	119808000	85078016	36070080	33184
302	1.266409	119808000	85078016	40523624	33184
303	1.857721	119808000	85078016	41745192	33184
304	2.445875	119808000	85078016	43378568	33184
305	5.063385	119808000	85078016	29122032	33184
306	3.6847	119808000	85078016	31576072	33184
307	4.294809	119808000	85078016	34443376	33184
308	4.903699	119808000	85078016	37726040	33184
309	5.519034	119808000	85078016	41424488	33184
310	8.238359	119808000	85078016	29474232	33184
311	6.811075	119808000	85078016	34007280	33184
312	7.364729	119808000	85078016	38959440	33184
313	11.57553	119808000	85078016	28634800	33184
314	8.792011	119808000	85078016	34431744	33184
315	9.17607	119808000	85078016	40650016	33184
316	12.49352	119808000	85078016	31426512	33184
317	10.546094	119808000	85078016	38493384	33184
318	14.0073	119808000	85078016	30362648	33184
319	11.915322	119808000	85078016	38285896	33184
320	15.046859	119808000	85078016	31032560	33184
321	13.235601	119808000	85078016	39815336	33184
322	16.154378	119808000	85078016	33243248	33184
323	14.618294	119808000	85078016	42892904	33184
324	17.244397	119808000	85078016	36782472	33184
325	18.767883	119808000	85078016	31939224	33184
326	16.408842	119808000	85078016	42893472	33184
327	19.18863	119808000	85078016	38072656	33184
328	20.267939	119808000	85078016	34363208	33184
329	21.894794	119808000	85078016	31592760	33184
330	19.640935	119808000	85078016	44304864	33184
331	21.860667	119808000	85078016	41106168	33184
332	22.518784	119808000	85078016	38795112	33184
333	23.587204	119808000	85078016	37223080	33184
334	24.759308	119808000	85078016	36353056	33184
335	25.441996	119808000	85078016	36039464	33184
336	26.345137	119808000	85078016	36232440	33184
337	26.834956	119808000	85078016	36849720	33184
338	27.679637	119808000	85078016	37837800	33184
339	27.947249	119808000	85078016	39169064	33184
340	28.56864	119808000	85078016	40768624	33184
341	29.167857	119808000	85078016	42612224	33184
342	29.288102	119808000	85078016	44649208	33184
343	34.170272	119808000	85078016	32775976	33184
344	33.009518	119808000	85078016	37122488	33184
345	32.556236	119808000	85078016	41352576	33184
346	32.47916	119808000	85078016	45464496	33184
347	37.839661	119808000	85078016	35330016	33184
348	34.958073	119808000	85078016	41182672	33184
349	39.77593	119808000	85078016	33085568	33184
350	38.978886	119808000	85078016	42458040	33184
351	41.495677	119808000	85078016	35760184	33184
352	1.473801	119808000	85078016	46410008	33184
353	2.135734	119808000	85078016	47815720	33184
354	2.847958	119808000	85078016	49692168	33184
355	3.561909	119808000	85078016	52040896	33184
356	6.779386	119808000	85078016	38503464	33184
357	5.021422	119808000	85078016	41800120	33184
358	5.81898	119808000	85078016	45580688	33184
359	6.341176	119808000	85078016	49846576	33184
360	9.481013	119808000	85078016	38495376	33184
361	7.994079	119808000	85078016	43745192	33184
362	8.546433	119808000	85078016	49488280	33184
363	12.036749	119808000	85078016	39684072	33184
364	10.030102	119808000	85078016	46420752	33184
365	13.66493	119808000	85078016	38034232	33184
366	11.419732	119808000	85078016	45762952	33184
367	15.425793	119808000	85078016	38443848	33184
368	13.136233	119808000	85078016	47175640	33184
369	16.23563	119808000	85078016	40689016	33184
370	14.511865	119808000	85078016	50428800	33184
371	17.87315	119808000	85078016	44507128	33184
372	19.183958	119808000	85078016	39901856	33184
373	17.227556	119808000	85078016	51155472	33184
374	20.007618	119808000	85078016	46668184	33184
375	20.819205	119808000	85078016	43324696	33184
376	22.915337	119808000	85078016	40936320	33184
377	23.877754	119808000	85078016	39401248	33184
378	24.997715	119808000	85078016	38585408	33184
379	21.904027	119808000	85078016	52916208	33184
380	24.798249	119808000	85078016	51323424	33184
381	25.199146	119808000	85078016	50449936	33184
382	26.247574	119808000	85078016	50215176	33184
383	26.865693	119808000	85078016	50548576	33184
384	27.641688	119808000	85078016	51334648	33184
385	28.770425	119808000	85078016	52553096	33184
386	33.870691	119808000	85078016	39977432	33184
387	32.403257	119808000	85078016	43791552	33184
388	31.7565	119808000	85078016	47667160	33184
389	31.69911	119808000	85078016	51539120	33184
390	37.660044	119808000	85078016	41400280	33184
391	36.866642	119808000	85078016	49536928	33184
392	34.549978	119808000	85078016	55315376	33184
393	39.658318	119808000	85078016	46479800	33184
394	36.798149	119808000	85078016	53528904	33184
395	41.317327	119808000	85078016	46286296	33184
396	42.573815	119808000	85078016	57095376	33184
397	53.781404	120078336	85602304	51173624	33184
398	50.912102	116408320	81932288	22388408	33184
399	40.387772	116408320	81932288	34693032	33184
400	40.593634	116408320	81932288	29899320	33184
401	42.000587	116408320	81932288	26470432	33184
402	1.628957	116408320	81932288	28217736	33184
403	2.380466	116408320	81932288	29845656	33184
404	3.206694	116408320	81932288	32018448	33184
405	3.997044	116408320	81932288	34746744	33184
406	4.764947	116408320	81932288	38013360	33184
407	8.519904	116408320	81932288	27760456	33184
408	6.331848	116408320	81932288	32125200	33184
409	7.083877	116408320	81932288	37041152	33184
410	9.049084	116408320	81932288	26901848	33184
411	8.787912	116408320	81932288	32924320	33184
412	9.797392	116408320	81932288	39504616	33184
413	11.119581	116408320	81932288	30570320	33184
414	11.689549	116408320	81932288	38260864	33184
415	12.962347	116408320	81932288	30597000	33184
416	12.95937	116408320	81932288	39407128	33184
417	14.277892	116408320	81932288	32707584	33184
418	16.149923	116408320	81932288	27491136	33184
419	15.547613	116408320	81932288	37991088	33184
420	17.152587	116408320	81932288	33197536	33184
421	18.263484	116408320	81932288	29625136	33184
422	17.886171	116408320	81932288	41819416	33184
423	19.197416	116408320	81932288	38196384	33184
424	20.17493	116408320	81932288	35630824	33184
425	21.961578	116408320	81932288	33971720	33184
426	22.296341	116408320	81932288	33133024	33184
427	23.35782	116408320	81932288	33000632	33184
428	24.294576	116408320	81932288	33450224	33184
429	25.016485	116408320	81932288	34411368	33184
430	25.960909	116408320	81932288	35823912	33184
431	26.350396	116408320	81932288	37624856	33184
432	27.310008	116408320	81932288	39763016	33184
433	27.889265	116408320	81932288	42189864	33184
434	31.347778	116408320	81932288	30700872	33184
435	31.79491	116408320	81932288	35547680	33184
436	30.688514	116408320	81932288	40305392	33184
437	34.190559	116408320	81932288	31074688	33184
438	35.912185	116408320	81932288	40047456	33184
439	37.490625	116678656	81932288	32940544	33184
440	37.340997	116678656	81932288	43063064	33184
441	38.40902	116678656	81932288	36987160	33184
442	38.750098	116678656	81932288	48286408	33184
443	39.342587	116678656	81932288	42976184	33184
444	44.794047	116678656	81932288	42825152	33184
445	41.776249	116678656	81932288	55764424	33184
446	41.383056	116678656	81932288	51880248	33184
447	48.975107	117219328	82456576	53523864	33184
448	62.389758	121004032	86650880	55605904	33184
449	58.373491	121004032	86650880	28791128	33184
450	50.504222	121004032	86650880	32149840	33184
451	51.201447	121004032	86650880	36020280	33184
452	1.817837	121274368	86650880	41071552	33184
453	2.666676	121274368	86650880	42883504	33184
454	3.55699	121274368	86650880	45301704	33184
455	4.455201	121274368	86650880	48327128	33184
456	8.744317	121274368	86650880	38200480	33184
457	6.40699	121274368	86650880	42445064	33184
458	7.282981	121274368	86650880	47303360	33184
459	9.363723	121274368	86650880	37478224	33184
460	9.049986	121274368	86650880	43566816	33184
461	9.795885	121274368	86650880	50264408	33184
462	11.239486	121274368	86650880	41246856	33184
463	11.752747	121274368	86650880	49177584	33184
464	13.291798	121274368	86650880	41550040	33184
465	13.9018	121274368	86650880	50726720	33184
466	15.137459	121274368	86650880	44105088	33184
467	16.427672	121274368	86650880	38993200	33184
468	16.515463	121274368	86650880	50036784	33184
469	17.758752	121274368	86650880	45391672	33184
470	18.784415	121274368	86650880	42004176	33184
471	20.252486	121274368	86650880	39726144	33184
472	22.429195	121274368	86650880	38377944	33184
473	23.044469	121274368	86650880	37883488	33184
474	24.059152	121274368	86650880	38053976	33184
475	25.380719	121274368	86650880	38839240	33184
476	25.94427	121274368	86650880	40155464	33184
477	26.394341	121274368	86650880	41949592	33184
478	26.993762	121274368	86650880	44108808	33184
479	28.453689	121274368	86650880	46598576	33184
480	28.196515	121274368	86650880	49391840	33184
481	32.187384	121274368	86650880	38490048	33184
482	33.826321	121274368	86650880	45969392	33184
483	31.730081	121274368	86650880	51265952	33184
484	34.953949	121274368	86650880	42503328	33184
485	37.87748	121274368	86650880	51892424	33184
486	37.21165	121274368	86650880	45198672	33184
487	38.146241	121274368	86650880	55908480	33184
488	39.454088	121274368	86650880	50209976	33184
489	40.413018	121274368	86650880	62179720	33184
490	40.605491	121274368	86650880	57241624	33184
491	42.750864	121274368	86650880	53795048	33184
492	48.317802	123166720	88748032	55087912	33184
493	53.197197	125329408	90845184	69538352	33184
494	61.539443	122978304	88223744	24397520	33184
495	49.743613	122978304	88223744	27570264	33184
496	50.958031	122978304	88223744	31322256	33184
497	51.465693	122978304	88223744	35730328	33184
498	52.3209	122978304	88223744	40810352	33184
499	53.731431	123518976	88748032	46553928	33184
500	54.450682	123518976	88748032	52937376	33184
501	55.46954	123518976	88748032	59980352	33184
502	2.217086	123518976	88748032	55729304	33184
503	3.25131	123518976	88748032	57725248	33184
504	4.309866	123518976	88748032	60389288	33184
505	5.534656	123518976	88748032	63721744	33184
506	7.831011	123518976	88748032	67724536	33184
507	17.279745	125140992	90845184	58000600	33184
508	17.549233	122613760	88223744	20783800	33184
509	9.084001	122613760	88223744	26804880	33184
510	9.972644	122613760	88223744	33503904	33184
511	11.377596	122613760	88223744	24695200	33184
512	11.908799	122613760	88223744	32745136	33184
513	13.404375	122613760	88223744	25358544	33184
514	13.726039	122613760	88223744	34766576	33184
515	15.369364	122613760	88223744	28485056	33184
516	16.991712	122613760	88223744	23734256	33184
517	17.158242	122613760	88223744	35193944	33184
518	18.188089	122613760	88223744	30930296	33184
519	19.494976	122613760	88223744	27897760	33184
520	20.860551	122613760	88223744	25996952	33184
521	23.020857	122613760	88223744	25056504	33184
522	24.063906	122613760	88223744	24894224	33184
523	24.646886	122613760	88223744	25471424	33184
524	25.825271	122613760	88223744	26652568	33184
525	26.313561	122613760	88223744	28387920	33184
526	27.702609	122613760	88223744	30536408	33184
527	28.414196	122613760	88223744	33123288	33184
528	31.61652	122613760	88223744	22116376	33184
529	33.628843	122613760	88223744	29463056	33184
530	31.347695	122613760	88223744	34676720	33184
531	35.032908	122613760	88223744	26011208	33184
532	36.433577	122613760	88223744	35444144	33184
533	37.54454	122613760	88223744	28871848	33184
534	38.30808	122613760	88223744	39699784	33184
535	39.494419	122613760	88223744	34163264	33184
536	41.866185	122613760	88223744	46448976	33184
537	41.031747	122613760	88223744	41692400	33184
538	42.464862	122613760	88223744	38496848	33184
539	49.112963	123154432	88223744	40231936	33184
540	48.645573	123154432	88223744	42573656	33184
541	49.810771	123154432	88223744	45603416	33184
542	50.429029	123154432	88223744	49356328	33184
543	51.636616	123154432	88223744	53845200	33184
544	68.174405	126128128	91369472	59031704	33184
545	62.114198	125603840	90845184	33259760	33184
546	56.310877	125603840	90845184	39964672	33184
547	62.464681	125603840	90845184	34758792	33184
548	58.937875	125603840	90845184	42839040	33184
549	58.628249	125603840	90845184	51599728	33184
550	64.821686	125603840	90845184	48592216	33184
551	60.975358	125603840	90845184	58757576	33184
552	3.049241	126144512	91369472	57840736	33184
553	3.856567	126144512	91369472	60029096	33184
554	4.974084	126144512	91369472	62938048	33184
555	6.077694	126144512	91369472	66580136	33184
556	12.187072	128036864	93466624	57004120	33184
557	8.316289	128036864	93466624	62125472	33184
558	11.037856	128036864	93466624	67988456	33184
559	18.608214	128036864	93466624	58804832	33184
560	20.703367	125939712	91369472	23911064	33184
561	12.099594	125939712	91369472	32007784	33184
562	13.685866	125939712	91369472	24919328	33184
563	14.07369	125939712	91369472	34506768	33184
564	16.1438	125939712	91369472	28615480	33184
565	17.624176	125939712	91369472	24281128	33184
566	17.806217	125939712	91369472	36121512	33184
567	18.947949	125939712	91369472	32232168	33184
568	20.287062	125939712	91369472	29658464	33184
569	22.066605	125939712	91369472	28152920	33184
570	23.453018	125939712	91369472	27630960	33184
571	24.453141	125939712	91369472	27918600	33184
572	26.914417	125939712	91369472	29015072	33184
573	26.249421	125939712	91369472	30662000	33184
574	27.479589	125939712	91369472	32871584	33184
575	28.599588	125939712	91369472	35554456	33184
576	31.790849	125939712	91369472	24567144	33184
577	31.634861	125939712	91369472	29991880	33184
578	31.71398	125939712	91369472	35392232	33184
579	35.366456	125939712	91369472	26783488	33184
580	37.168566	125939712	91369472	36867696	33184
581	38.090261	125939712	91369472	30560224	33184
582	39.675938	125939712	91369472	42201376	33184
583	40.213197	125939712	91369472	36972616	33184
584	42.280073	125939712	91369472	33366088	33184
585	47.929199	125939712	91369472	34717608	33184
586	44.428338	125939712	91369472	49284192	33184
587	44.949276	125939712	91369472	46794536	33184
588	46.510327	125939712	91369472	45563848	33184
589	52.634419	125939712	91369472	50043480	33184
590	53.168805	126210048	91369472	55141528	33184
591	55.179414	126210048	91369472	60952760	33184
592	60.511035	126210048	91369472	55094424	33184
593	78.071529	128372736	93990912	62524432	33184
594	64.851665	125227008	90845184	26078816	33184
595	59.895462	125227008	90845184	35111928	33184
596	59.575253	125227008	90845184	44869008	33184
597	65.632593	125227008	90845184	42869360	33184
598	61.929793	125497344	90845184	54259424	33184
599	67.982018	126308352	91369472	53852960	33184
600	64.394771	126308352	91369472	66819920	33184
601	77.640065	128200704	93466624	68001224	33184
602	6.751269	129523712	95039488	25101928	33184
603	3.593817	129523712	95039488	27486504	33184
604	4.714426	129523712	95039488	30668040	33184
605	5.889796	129523712	95039488	34647848	33184
606	7.241606	129523712	95039488	39427792	33184
607	10.16119	129523712	95039488	30285272	33184
608	9.340753	129523712	95039488	36677216	33184
609	11.434013	129523712	95039488	28065360	33184
610	11.83106	129523712	95039488	36057168	33184
611	13.815365	129523712	95039488	29111184	33184
612	14.210381	129523712	95039488	38714872	33184
613	16.071741	129523712	95039488	33040272	33184
614	17.756511	129523712	95039488	28944648	33184
615	17.735573	129523712	95039488	40981176	33184
616	19.219125	129523712	95039488	37440912	33184
617	20.931977	129523712	95039488	35194560	33184
618	22.609988	129523712	95039488	34049552	33184
619	23.641678	129523712	95039488	33909080	33184
620	24.764546	129523712	95039488	34587504	33184
621	25.910953	129523712	95039488	35960800	33184
622	27.397426	129523712	95039488	37997456	33184
623	28.054096	129523712	95039488	40609056	33184
624	32.119965	129523712	95039488	29529552	33184
625	34.186035	129523712	95039488	37395488	33184
626	32.690083	129523712	95039488	43086632	33184
627	35.40291	129523712	95039488	34537016	33184
628	37.89984	129523712	95039488	44854456	33184
629	39.115064	129523712	95039488	38690848	33184
630	44.550246	129523712	95039488	38022552	33184
631	41.991085	129523712	95039488	50614768	33184
632	42.186753	129523712	95039488	46761160	33184
633	48.363374	129794048	95039488	48555960	33184
634	49.321012	129794048	95039488	51064128	33184
635	51.488975	129794048	95039488	54440416	33184
636	52.774062	129794048	95039488	58521840	33184
637	74.394871	130605056	96088064	63582488	33184
638	56.90807	124313600	89796608	36514880	33184
639	54.502034	124313600	89796608	25459008	33184
640	56.768859	124313600	89796608	32892888	33184
641	60.323487	124313600	89796608	41326760	33184
642	60.187832	124313600	89796608	50470608	33184
643	67.907742	124583936	89796608	47946200	33184
644	61.471967	124583936	89796608	58862632	33184
645	68.170261	124583936	89796608	58014808	33184
646	73.81127	127287296	92418048	58041032	33184
647	91.607415	130453504	95563776	27100704	33184
648	67.057787	130453504	95563776	41478064	33184
649	72.46175	130453504	95563776	44059664	33184
650	73.426656	130453504	95563776	47481472	33184
651	74.645766	130453504	96088064	51790320	33184
652	2.576698	130994176	96088064	57742928	33184
653	3.788896	130994176	96088064	60312352	33184
654	5.089145	130994176	96088064	63743016	33184
655	9.5413	130994176	96088064	54352408	33184
656	7.903736	130994176	96088064	59505464	33184
657	9.022409	130994176	96088064	65516072	33184
658	11.162753	130994176	96088064	56835720	33184
659	11.569167	130994176	96088064	64577360	33184
660	13.990371	130994176	96088064	57252264	33184
661	14.702932	130994176	96088064	66726960	33184
662	15.797172	130994176	96088064	60833032	33184
663	17.959632	130994176	96088064	56638264	33184
664	19.776299	130994176	96088064	53887936	33184
665	19.901412	130994176	96088064	66853056	33184
666	21.305202	130994176	96088064	64427384	33184
667	22.633208	130994176	96088064	63205984	33184
668	24.075535	130994176	96088064	63074648	33184
669	25.534606	130994176	96088064	63840256	33184
670	26.46234	130994176	96088064	65350456	33184
671	27.487095	130994176	96088064	67538536	33184
672	32.486698	130994176	96088064	56275336	33184
673	34.954343	130994176	96088064	63914008	33184
674	37.92715	130994176	96088064	69459032	33184
675	47.873485	122605568	87699456	28415872	33184
676	42.220666	122605568	87699456	25274064	33184
677	39.107897	122605568	87699456	36154920	33184
678	39.912147	122605568	87699456	30639280	33184
679	41.815353	122605568	87699456	26884088	33184
680	47.263328	122605568	87699456	27976952	33184
681	44.299824	122605568	87699456	42515568	33184
682	44.72136	122605568	87699456	40242192	33184
683	51.158901	122605568	87699456	44118960	33184
684	54.03301	122605568	87699456	48691552	33184
685	55.897207	123146240	88223744	54201464	33184
686	72.59654	123416576	88748032	48185936	33184
687	69.569765	118239232	83505152	29695984	33184
688	58.050514	118239232	83505152	37905472	33184
689	64.024684	118239232	83505152	34530944	33184
690	61.386542	118239232	83505152	44568152	33184
691	66.089857	118239232	83505152	42873816	33184
692	63.03664	118239232	83505152	54651296	33184
693	71.056932	120401920	86126592	54834488	33184
694	75.32294	124456960	89796608	68472568	33184
695	93.89256	122544128	88223744	26234272	33184
696	68.936597	122544128	88223744	41635632	33184
697	74.298861	122544128	88223744	45468272	33184
698	75.513281	122544128	88223744	50184992	33184
699	78.337471	122814464	88223744	55803616	33184
700	78.942037	123084800	88223744	62316224	33184
701	107.413169	121913344	88748032	25693696	33184
702	2.787734	123531264	88748032	34173280	33184
703	4.161963	123531264	88748032	36926000	33184
704	9.209882	123531264	88748032	27416744	33184
705	7.129692	123531264	88748032	32010088	33184
706	8.164783	123531264	88748032	37533008	33184
707	11.135035	123531264	88748032	28979552	33184
708	10.935345	123531264	88748032	36344000	33184
709	13.445241	123531264	88748032	29113488	33184
710	13.928478	123531264	88748032	38331808	33184
711	15.888374	123531264	88748032	32702000	33184
712	18.088306	123531264	88748032	28756104	33184
713	18.489113	123531264	88748032	40768728	33184
714	20.20248	123531264	88748032	37584872	33184
715	21.687184	123531264	88748032	35841232	33184
716	23.492814	123531264	88748032	35300608	33184
717	24.748088	123531264	88748032	35736776	33184
718	26.143514	123531264	88748032	37118336	33184
719	27.466952	123531264	88748032	39208056	33184
720	28.028393	123531264	88748032	41996424	33184
721	32.215596	123531264	88748032	31312904	33184
722	34.655912	123531264	88748032	39541080	33184
723	33.027675	123531264	88748032	45686360	33184
724	36.083734	123531264	88748032	37637152	33184
725	36.420941	123531264	88748032	45824032	33184
726	39.249784	123531264	88748032	39680736	33184
727	41.729772	123531264	88748032	35991544	33184
728	47.798968	123531264	88748032	37318064	33184
729	45.176176	123531264	88748032	52048872	33184
730	44.737363	123531264	88748032	49946176	33184
731	47.484708	123531264	88748032	49346640	33184
732	53.419173	123531264	88748032	54567936	33184
733	54.573661	123531264	88748032	60526328	33184
734	60.421076	123531264	88748032	54944088	33184
735	76.967564	125693952	91369472	62927984	33184
736	67.879001	122023936	87699456	26960048	33184
737	60.161557	122023936	87699456	36813448	33184
738	65.906623	122023936	87699456	35095552	33184
739	62.934553	122023936	87699456	47011840	33184
740	68.470138	122294272	87699456	47231688	33184
741	65.411724	122564608	87699456	61104680	33184
742	71.790396	123916288	89272320	63315056	33184
743	100.356283	124563456	91893760	21045680	33184
744	72.821396	128344064	94515200	36955360	33184
745	78.64743	134291456	100806656	42163256	33184
746	79.783468	139968512	107098112	48331256	33184
747	80.385894	145915904	113389568	55497528	33184
748	86.746067	153485312	121778176	51048352	33184
749	85.615658	159432704	128069632	60211096	33184
750	106.574761	105603072	70922240	38559704	33184
751	90.514001	105603072	70922240	37148824	33184
752	2.953884	107765760	73019392	50184256	33184
753	4.382893	107765760	73019392	53170288	33184
754	10.23196	109658112	75116544	43911016	33184
755	7.582332	109658112	75116544	48893416	33184
756	8.911843	109658112	75116544	54876488	33184
757	11.949078	111009792	76689408	46697320	33184
758	11.638091	111009792	76689408	54683840	33184
759	13.907766	111009792	76689408	47515184	33184
760	16.527056	111009792	76689408	42358824	33184
761	16.033866	111009792	76689408	53364168	33184
762	18.508506	111009792	76689408	49427880	33184
763	20.108715	111280128	76689408	47057544	33184
764	22.201448	111280128	76689408	45951288	33184
765	23.545051	111280128	76689408	46022056	33184
766	25.371751	111280128	76689408	47105264	33184
767	27.033927	111280128	76689408	49053024	33184
768	27.738934	111280128	76689408	51763344	33184
769	29.266513	111280128	76689408	55124480	33184
770	33.380232	111550464	77213696	45044888	33184
771	36.115227	113713152	79310848	53846448	33184
772	37.935067	114794496	80359424	47047904	33184
773	39.229284	116957184	82456576	57777176	33184
774	40.498381	117768192	82980864	52561392	33184
775	41.941779	119930880	85602304	65366392	33184
776	42.46853	120471552	86126592	61428192	33184
777	44.008965	121012224	87175168	59202488	33184
778	51.664685	125067264	90845184	62411032	33184
779	58.016737	129122304	95039488	66533880	33184
780	74.415193	110510080	76165120	24921424	33184
781	54.976849	110510080	76165120	31245768	33184
782	55.845156	110510080	76165120	38454728	33184
783	57.381409	111050752	76165120	46733832	33184
784	63.200429	111050752	76165120	43459928	33184
785	62.48479	112132096	77737984	53815600	33184
786	67.806855	118079488	84029440	52613832	33184
787	66.645061	121864192	87699456	65013376	33184
788	95.980233	114933760	81932288	35421416	33184
789	71.752191	116281344	81932288	36839384	33184
790	72.59039	116551680	81932288	39723048	33184
791	74.496147	116551680	81932288	43715720	33184
792	75.964426	116822016	81932288	48706792	33184
793	79.089505	121147392	86650880	54865568	33184
794	80.814689	126824448	92418048	61941080	33184
795	109.397439	119336960	86650880	38976024	33184
796	86.29686	120954880	86650880	34903544	33184
797	83.436781	120954880	86650880	45209136	33184
798	84.165773	120954880	86650880	56506472	33184
799	92.391352	121495552	86650880	56244712	33184
800	90.565665	126631936	91893760	69671536	33184
801	123.174833	121970688	88748032	23870224	33184
802	3.273192	123318272	88748032	39340408	33184
803	8.685862	123318272	88748032	29642048	33184
804	6.444617	123318272	88748032	33876264	33184
805	8.308152	123318272	88748032	39183512	33184
806	11.3877	123318272	88748032	31009920	33184
807	10.90261	123318272	88748032	38436584	33184
808	13.679916	123318272	88748032	31369984	33184
809	14.27387	123318272	88748032	40912608	33184
810	16.376028	123318272	88748032	35619144	33184
811	18.539283	123318272	88748032	32141960	33184
812	18.815801	123318272	88748032	44888136	33184
813	20.990969	123318272	88748032	42291680	33184
814	22.87449	123318272	88748032	41089664	33184
815	24.314869	123318272	88748032	41105064	33184
816	25.805185	123318272	88748032	42203000	33184
817	27.135481	123318272	88748032	44208560	33184
818	32.220771	123318272	88748032	32964336	33184
819	32.346931	123318272	88748032	38482888	33184
820	33.003268	123318272	88748032	44285960	33184
821	36.191884	123318272	88748032	36294504	33184
822	36.168387	123318272	88748032	44597216	33184
823	39.462645	123318272	88748032	38754368	33184
824	41.969799	123318272	88748032	35463528	33184
825	48.105881	123588608	88748032	37128256	33184
826	44.788925	123588608	88748032	52386024	33184
827	45.726128	123588608	88748032	50750408	33184
828	47.323969	123588608	88748032	50559096	33184
829	53.665029	123588608	88748032	56630624	33184
830	59.600068	123588608	88748032	51084712	33184
831	57.071234	123588608	88748032	59179760	33184
832	61.347014	124940288	90320896	68402848	33184
833	88.980403	122757120	89796608	34629096	33184
834	67.62837	124104704	89796608	32679416	33184
835	64.371131	124104704	89796608	45168440	33184
836	69.724224	124104704	89796608	46180208	33184
837	72.294856	124104704	89796608	48339008	33184
838	73.476729	124645376	89796608	51601664	33184
839	74.752473	124645376	89796608	55887344	33184
840	92.690502	130052096	95563776	61311488	33184
841	86.840969	124071936	89272320	34387296	33184
842	79.831556	124071936	89272320	41986360	33184
843	82.195683	124071936	89272320	50736312	33184
844	88.808172	124071936	89272320	47951832	33184
845	84.722995	124071936	89272320	58870328	33184
846	95.812888	127045632	92418048	58407432	33184
847	116.202993	125714432	91369472	28525368	33184
848	90.889157	125714432	91369472	42823344	33184
849	99.272973	125714432	91369472	45665120	33184
850	98.483403	125714432	91369472	49619104	33184
851	94.650697	125714432	91369472	67264688	33184
852	6.070253	131932160	97136640	74576312	33184
853	17.392716	133824512	99233792	65101064	33184
854	16.51238	127655936	93990912	23371144	33184
855	8.959795	127655936	93990912	29042064	33184
856	10.448394	127655936	93990912	35825568	33184
857	12.614572	128462848	93990912	27662024	33184
858	13.32278	128462848	93990912	36725760	33184
859	15.35109	128462848	93990912	30707152	33184
860	17.885297	128462848	93990912	26703184	33184
861	20.132551	128462848	93990912	24339288	33184
862	20.110363	128462848	93990912	37951184	33184
863	22.292732	128462848	93990912	36330320	33184
864	23.696925	128462848	93990912	36101712	33184
865	25.568168	128462848	93990912	37063384	33184
866	30.490643	128462848	93990912	24993408	33184
867	32.87941	128462848	93990912	31919936	33184
868	31.783752	128462848	93990912	37251472	33184
869	35.47969	128462848	93990912	29177824	33184
870	38.068126	128462848	93990912	39521904	33184
871	38.943746	128462848	93990912	34052352	33184
872	41.066333	128462848	93990912	46770160	33184
873	41.709421	128462848	93990912	42781512	33184
874	43.908714	128462848	93990912	40586600	33184
875	50.222091	128462848	93990912	44139544	33184
876	53.38716	128462848	93990912	48487616	33184
877	53.459762	128462848	93990912	54207976	33184
878	55.346997	128462848	93990912	61022464	33184
879	61.146844	128462848	93990912	56347048	33184
880	60.151186	129273856	94515200	65480648	33184
881	92.832668	128516096	95563776	31234648	33184
882	66.359823	129863680	95563776	29184264	33184
883	64.051293	129863680	95563776	41830032	33184
884	70.546666	129863680	95563776	43039120	33184
885	73.286578	129863680	95563776	45421952	33184
886	68.697747	129863680	95563776	61591632	33184
887	76.155584	129863680	95563776	66269104	33184
888	85.417427	130404352	95563776	72148656	33184
889	99.793703	130912256	96612352	32631800	33184
890	80.135565	130912256	96612352	40833760	33184
891	81.785196	130912256	96612352	50207472	33184
892	88.433502	130912256	96612352	48235600	33184
893	85.920743	130912256	96612352	59989848	33184
894	96.763818	131723264	97660928	60343320	33184
895	116.936831	127770624	93466624	30413288	33184
896	92.664794	127770624	93466624	45727832	33184
897	96.620274	127770624	93466624	49578104	33184
898	97.784296	127770624	93466624	54671264	33184
899	100.499514	128581632	93990912	60922576	33184
900	132.325592	129884160	96088064	22669704	33184
901	100.431546	130707456	96088064	42842696	33184
902	3.534126	130707456	96088064	41289792	33184
903	5.237437	130707456	96088064	44859040	33184
904	7.327971	130707456	96088064	49620088	33184
905	11.324932	130707456	96088064	41524616	33184
906	10.466102	130707456	96088064	48675192	33184
907	13.271343	130707456	96088064	41404752	33184
908	14.177551	130707456	96088064	50950344	33184
909	16.810091	130707456	96088064	45715464	33184
910	18.83963	130707456	96088064	42409392	33184
911	21.611219	130707456	96088064	40804464	33184
912	23.857805	130707456	96088064	40568408	33184
913	25.422708	130707456	96088064	41528368	33184
914	26.864913	130707456	96088064	43605640	33184
915	28.192481	130707456	96088064	46644320	33184
916	29.364438	130707456	96088064	50402488	33184
917	33.643632	130707456	96088064	41122816	33184
918	35.908332	130707456	96088064	50243616	33184
919	38.248211	130707456	96088064	44101120	33184
920	39.332614	130707456	96088064	55631160	33184
921	41.386385	130707456	96088064	51354392	33184
922	47.281772	130707456	96088064	52764736	33184
923	49.842331	134221824	99758080	55255248	33184
924	51.946124	138006528	103952384	58967096	33184
925	64.650463	140709888	106049536	63823464	33184
926	61.674881	119865344	85078016	33379032	33184
927	61.98321	119865344	85078016	28305904	33184
928	58.145628	119865344	85078016	36842944	33184
929	60.558833	119865344	85078016	46635712	33184
930	66.910517	119865344	85078016	45137064	33184
931	63.370704	119865344	85078016	57419280	33184
932	70.760317	119865344	85078016	58326680	33184
933	88.8399	125001728	90320896	60440040	33184
934	81.413149	122970112	88223744	31988088	33184
935	75.422198	122970112	88223744	36536216	33184
936	77.025028	122970112	88223744	42302368	33184
937	78.453383	122970112	88223744	49296856	33184
938	80.275088	122970112	88223744	57534936	33184
939	84.218322	122970112	88223744	66986792	33184
940	116.892317	124645376	90320896	35199960	33184
941	90.134274	124645376	90320896	34573016	33184
942	87.326655	124645376	90320896	47844840	33184
943	93.436565	124645376	90320896	49757736	33184
944	91.475074	125186048	90320896	65336304	33184
945	104.278844	130052096	95563776	69641984	33184
946	118.392425	128716800	93990912	41885944	33184
947	102.43294	128716800	93990912	48701432	33184
948	102.145229	128716800	93990912	56699000	33184
949	108.945106	128716800	93990912	53505320	33184
950	110.080868	129257472	94515200	63991136	33184
951	144.159308	129204224	94515200	31555384	33184
952	3.717478	129204224	94515200	45837016	33184
953	5.540518	129204224	94515200	49592296	33184
954	10.950138	129474560	94515200	41169136	33184
955	9.502251	129474560	94515200	47433720	33184
956	11.063091	129474560	94515200	54955872	33184
957	14.440719	129474560	94515200	47921504	33184
958	16.05384	129474560	94515200	42636304	33184
959	17.00801	129474560	94515200	53931984	33184
960	19.095464	129474560	94515200	50304104	33184
961	21.472461	129474560	94515200	48445872	33184
962	23.472602	129474560	94515200	48052704	33184
963	25.584911	129474560	94515200	49045840	33184
964	27.467144	129474560	94515200	51125344	33184
965	28.655054	129474560	94515200	54150912	33184
966	33.553073	129474560	94515200	44129264	33184
967	36.377122	129474560	94515200	53097736	33184
968	38.266762	129474560	94515200	46642328	33184
969	40.495076	129474560	94515200	58181864	33184
970	41.347749	129474560	94515200	53846008	33184
971	47.984996	129474560	94515200	55254400	33184
972	49.330001	129474560	94515200	57887024	33184
973	50.936569	129474560	94515200	61794264	33184
974	53.653978	132177920	97660928	66974392	33184
975	61.990167	136232960	101855232	73409360	33184
976	76.805982	130723840	96612352	29893952	33184
977	59.375104	130723840	96612352	39020632	33184
978	64.48788	130994176	96612352	36744648	33184
979	62.501716	130994176	96612352	48332816	33184
980	68.85899	130994176	96612352	48555160	33184
981	71.090569	130994176	96612352	50168536	33184
982	67.656774	130994176	96612352	65596568	33184
983	82.201278	132075520	97136640	69700592	33184
984	96.617191	125083648	90320896	29937080	33184
985	79.11009	125083648	90320896	36642392	33184
986	80.091368	125083648	90320896	44693280	33184
987	82.087124	125083648	90320896	54015680	33184
988	87.303932	125083648	90320896	52062656	33184
989	87.600726	125353984	90845184	63951056	33184
990	122.064272	129769472	95039488	34091264	33184
991	94.605849	129769472	95039488	36219248	33184
992	92.597175	129769472	95039488	52023240	33184
993	98.037954	129769472	95039488	56595784	33184
994	100.08819	129769472	95039488	62474912	33184
995	107.728508	133013504	98709504	69707848	33184
996	126.590741	132001792	97136640	31410736	33184
997	105.514362	132001792	97136640	41239880	33184
998	109.032183	132001792	97136640	52232912	33184
999	114.114487	132001792	97136640	64679608	33184
1000	122.119514	133353472	98709504	65820712	33184
