x	Duration	RSS	HeapTotal	HeapUsed	External
0	NA	105041920	72495104	14501760	33184
1	0.383908	105041920	72495104	14554008	33184
2	0.33814	105041920	72495104	14621968	33184
3	0.385896	105041920	72495104	14714664	33184
4	0.462289	105041920	72495104	14833768	33184
5	0.56061	105041920	72495104	14981040	33184
6	0.648096	105041920	72495104	15157168	33184
7	0.78516	105041920	72495104	15363384	33184
8	0.872798	105041920	72495104	15600904	33184
9	0.95002	105041920	72495104	15872264	33184
10	1.077759	105041920	72495104	16177720	33184
11	1.196408	105041920	72495104	16518464	33184
12	0.960766	105041920	72495104	16895832	33184
13	0.915761	105041920	72495104	17311008	33184
14	1.105323	105041920	72495104	17768984	33184
15	1.064415	105041920	72495104	18263928	33184
16	0.931719	105041920	72495104	18804840	33184
17	0.975964	105041920	72495104	19385080	33184
18	1.073495	105041920	72495104	20009216	33184
19	1.156456	105041920	72495104	20679536	33184
20	1.191171	105041920	72495104	21396328	33184
21	1.267635	105041920	72495104	22161520	33184
22	1.536954	105041920	72495104	22976432	33184
23	1.438655	105041920	72495104	23842336	33184
24	1.707172	105041920	72495104	24760536	33184
25	1.593725	105041920	72495104	25734144	33184
26	1.613303	105041920	72495104	26758656	33184
27	1.694607	105041920	72495104	27838800	33184
28	1.882033	105041920	72495104	28976096	33184
29	2.140433	105041920	72495104	30172200	33184
30	3.669351	105041920	72495104	15203120	33184
31	2.172226	105041920	72495104	16517280	33184
32	2.508074	105041920	72495104	17898072	33184
33	2.697306	105308160	72495104	19346432	33184
34	2.828269	105308160	72495104	20876360	33184
35	2.406474	105308160	72495104	22452776	33184
36	2.51615	105308160	72495104	24105200	33184
37	2.49991	105308160	72495104	25816488	33184
38	2.834538	105308160	72495104	27597168	33184
39	2.72241	105308160	72495104	29448288	33184
40	2.838624	105308160	72495104	31371152	33184
41	4.229074	105308160	72495104	17167336	33184
42	3.317148	105308160	72495104	19240224	33184
43	3.13474	105308160	72495104	21385648	33184
44	4.029765	105308160	72495104	23616752	33184
45	3.369898	105308160	72495104	25920368	33184
46	3.491041	105308160	72495104	28304072	33184
47	3.637469	105308160	72495104	30769880	33184
48	5.768212	105308160	72495104	17115480	33184
49	4.178074	105308160	72495104	19749224	33184
50	4.669901	105578496	72495104	22471208	33184
51	4.059465	105578496	72495104	25276696	33184
52	0.298896	105578496	72495104	28088856	33184
53	0.43024	105578496	72495104	28353992	33184
54	0.554215	105578496	72495104	28709696	33184
55	0.691504	105578496	72495104	29157264	33184
56	0.822269	105578496	72495104	29698320	33184
57	1.149688	105578496	72495104	30333672	33184
58	1.093905	105578496	72495104	31064512	33184
59	1.226414	105578496	72495104	31892048	33184
60	2.500364	105578496	72495104	16541528	33184
61	1.647703	105578496	72495104	17567920	33184
62	1.787253	105578496	72495104	18693976	33184
63	1.931312	105578496	72495104	19921728	33184
64	2.114361	105578496	72495104	21252168	33184
65	2.24689	105578496	72495104	22686744	33184
66	2.430863	105578496	72495104	24226560	33184
67	2.783807	105578496	72495104	25874352	33184
68	2.533175	105578496	72495104	27630432	33184
69	2.904826	105578496	72495104	29495528	33184
70	2.849855	105578496	72495104	31471072	33184
71	3.793002	105578496	72495104	17308040	33184
72	3.366605	105578496	72495104	19507776	33184
73	3.381083	105578496	72495104	21822192	33184
74	3.487592	105578496	72495104	24250872	33184
75	3.698449	105578496	72495104	26795856	33184
76	4.025189	105578496	72495104	29458744	33184
77	4.014217	105578496	72495104	32240048	33184
78	5.210069	105578496	72495104	18776760	33184
79	4.350756	105578496	72495104	21799296	33184
80	4.51681	105578496	72495104	24944464	33184
81	5.089808	105578496	72495104	28216312	33184
82	4.935006	105578496	72495104	31610088	33184
83	6.011271	105578496	72495104	18843816	33184
84	5.251406	105578496	72495104	22499968	33184
85	6.383095	105578496	72495104	26294392	33184
86	5.720459	105578496	72495104	30210664	33184
87	6.834029	105578496	72495104	18192552	33184
88	6.016005	105578496	72495104	22374512	33184
89	6.653992	105578496	72495104	26693408	33184
90	6.392216	105578496	72495104	31145856	33184
91	7.625878	105578496	72495104	19693808	33184
92	6.79891	105578496	72495104	24426128	33184
93	7.186781	105578496	72495104	29300688	33184
94	8.301375	105578496	72495104	18601576	33184
95	7.38938	105578496	72495104	23762616	33184
96	7.837089	105578496	72495104	29069184	33184
97	9.137663	105578496	72495104	18834424	33184
98	8.238621	105578496	72495104	24435176	33184
99	8.412526	105578496	72495104	30186000	33184
100	9.75166	105578496	72495104	20296928	33184
101	8.913884	105578496	72495104	26350488	33184
102	0.487773	105578496	72495104	32546504	33184
103	0.712671	105578496	72495104	33005264	33184
104	0.923032	105578496	72495104	33619120	33184
105	2.02802	105578496	72495104	18233408	33184
106	1.376837	105578496	72495104	19161720	33184
107	1.605115	105578496	72495104	20248880	33184
108	1.822653	105578496	72495104	21496104	33184
109	2.08195	105578496	72495104	22904680	33184
110	2.297884	105578496	72495104	24476616	33184
111	2.527154	105578496	72495104	26212296	33184
112	2.755478	105578496	72495104	28113136	33184
113	3.003144	105578496	72495104	30179896	33184
114	3.438319	105578496	72495104	32414064	33184
115	4.639056	105578496	72495104	18784648	33184
116	3.73764	105578496	72495104	21357672	33184
117	4.180165	105578496	72495104	24102192	33184
118	4.445347	105578496	72495104	27020224	33184
119	4.682717	105578496	72495104	30111704	33184
120	4.752291	105578496	72495104	33378456	33184
121	6.16664	105578496	72495104	20672152	33184
122	5.637776	105578496	72495104	24292272	33184
123	5.903698	105578496	72495104	28090776	33184
124	6.110151	105578496	72495104	32069552	33184
125	7.181402	105578496	72495104	20244472	33184
126	6.279281	105578496	72495104	24585576	33184
127	6.778085	105578496	72495104	29109864	33184
128	6.846619	105578496	72495104	33819016	33184
129	8.300758	105578496	72495104	22518752	33184
130	7.632035	105578496	72495104	27600672	33184
131	7.657263	105578496	72495104	32872424	33184
132	9.064974	105578496	72495104	22271360	33184
133	8.240667	105578496	72495104	27925096	33184
134	8.499695	105578496	72495104	33774456	33184
135	9.856473	105578496	72495104	23649512	33184
136	9.409638	105578496	72495104	29888216	33184
137	10.785092	105578496	72495104	20678008	33184
138	10.493045	105578496	72495104	27316328	33184
139	10.11379	105578496	72495104	34144344	33184
140	11.748004	105578496	72495104	24987296	33184
141	10.494272	105578496	72495104	32215464	33184
142	12.010532	105578496	72495104	23743344	33184
143	11.108035	105578496	72495104	31382488	33184
144	12.780688	105578496	72495104	23434008	33184
145	11.704394	105578496	72495104	31484000	33184
146	13.932478	105578496	72495104	23967392	33184
147	12.675553	105578496	72495104	32437312	33184
148	14.046122	105578496	72495104	25214560	33184
149	13.412201	105578496	72495104	34108928	33184
150	14.411542	105578496	72495104	27118768	33184
151	15.40298	105578496	72495104	21268688	33184
152	0.688173	105578496	72495104	30866992	33184
153	0.996393	105578496	72495104	31515240	33184
154	1.316536	105578496	72495104	32381840	33184
155	1.619229	105578496	72495104	33467968	33184
156	1.951826	105578496	72495104	34775432	33184
157	2.262808	105578496	72495104	36304864	33184
158	3.574748	105578496	72495104	21746480	33184
159	2.930608	105578496	72495104	23723584	33184
160	3.287776	105578496	72495104	25927400	33184
161	3.581489	105578496	72495104	28358512	33184
162	3.89923	105578496	72495104	31017400	33184
163	4.235207	105578496	72495104	33905656	33184
164	5.851991	105578496	72495104	21063368	33184
165	5.532004	105578496	72495104	24421784	33184
166	5.785075	105578496	72495104	28005520	33184
167	5.637718	105578496	72495104	31823488	33184
168	6.013741	105578496	72495104	35878728	33184
169	7.680632	105578496	72495104	23941512	33184
170	6.869798	105578496	72495104	28471864	33184
171	7.009623	105578496	72495104	33241424	33184
172	8.671212	105578496	72495104	22388744	33184
173	7.728758	105578496	72495104	27640520	33184
174	8.071677	105578496	72495104	33135056	33184
175	9.830556	105578496	72495104	23025320	33184
176	9.016268	105578496	72495104	29013512	33184
177	9.300282	105578496	72495104	35245072	33184
178	10.850217	105578496	72495104	25608376	33184
179	10.061382	105578496	72495104	32335800	33184
180	11.953376	105578496	72495104	23610096	33184
181	11.14367	105578496	72495104	30848672	33184
182	12.840329	105578496	72495104	22821840	33184
183	11.379585	105578496	72495104	30577064	33184
184	13.610783	105578496	72495104	23120360	33184
185	12.392619	105578496	72495104	31404680	33184
186	14.890523	105578496	72495104	24390416	33184
187	13.487706	105578496	72495104	33195208	33184
188	14.992908	105578496	72495104	26486472	33184
189	13.913753	105578496	72495104	35820480	33184
190	15.580661	105578496	72495104	29294104	33184
191	16.353077	105578496	72495104	23924152	33184
192	15.036407	105578496	72495104	34062544	33184
193	17.315559	105578496	72495104	28604712	33184
194	17.786033	105578496	72495104	24159120	33184
195	16.249084	105578496	72495104	35115240	33184
196	17.985031	105578496	72495104	30347696	33184
197	19.473247	105578496	72495104	26533944	33184
198	17.646129	105578496	72495104	38317376	33184
199	19.078364	105578496	72495104	34018616	33184
200	20.278238	105578496	72495104	30568336	33184
201	20.377336	105578496	72495104	27860840	33184
202	0.926852	105578496	72495104	25916992	33184
203	1.351524	105578496	72495104	26761824	33184
204	1.797707	105578496	72495104	27894384	33184
205	2.221717	105578496	72495104	29308120	33184
206	2.794935	105578496	72495104	31009200	33184
207	2.987929	105578496	72495104	32997368	33184
208	3.352919	105578496	72495104	35274144	33184
209	3.804519	105578496	72495104	37841000	33184
210	5.923576	105578496	72495104	24476048	33184
211	4.810955	105578496	72495104	27627488	33184
212	5.045502	105578496	72495104	31072584	33184
213	5.49402	105578496	72495104	34812960	33184
214	5.901227	105578496	72495104	38851432	33184
215	7.968012	105578496	72495104	26839312	33184
216	7.215778	105578496	72495104	31471200	33184
217	7.43898	105578496	72495104	36402928	33184
218	9.34217	105578496	72495104	25621256	33184
219	8.09573	105578496	72495104	31158200	33184
220	8.729132	105578496	72495104	37002512	33184
221	10.899902	105578496	72495104	27052512	33184
222	9.898891	105578496	72495104	33503800	33184
223	11.592223	105578496	72495104	24641632	33184
224	10.538626	105578496	72495104	31708584	33184
225	11.228492	105578496	72495104	39085504	33184
226	13.075726	105578496	72495104	30415960	33184
227	11.6898	105578496	72495104	38415904	33184
228	13.54959	105578496	72495104	30478016	33184
229	12.946505	105578496	72495104	39114752	33184
230	15.154031	105578496	72495104	31723984	33184
231	16.52204	105578496	72495104	25651304	33184
232	14.165354	105578496	72495104	35241352	33184
233	16.655061	105578496	72495104	29348592	33184
234	15.717905	105578496	72495104	39592096	33184
235	17.526101	105578496	72495104	33807736	33184
236	18.04553	105578496	72495104	29107816	33184
237	19.118205	105578496	72495104	25366912	33184
238	17.241084	105578496	72495104	36916808	33184
239	19.349892	105578496	72495104	32796288	33184
240	20.153825	105578496	72495104	29578984	33184
241	21.884179	105578496	72495104	27112528	33184
242	19.037552	105578496	72495104	39989112	33184
243	21.03322	105578496	72495104	36839792	33184
244	22.017317	105578496	72495104	34458816	33184
245	22.840717	105578496	72495104	32720152	33184
246	23.574285	105578496	72495104	31584184	33184
247	24.194798	105578496	72495104	30947992	33184
248	25.204827	105578496	72495104	30733864	33184
249	25.382511	105578496	72495104	30905736	33184
250	25.925364	105578496	72495104	31412344	33184
251	26.494736	105578496	72495104	32198120	33184
252	1.077976	105578496	72495104	33448664	33184
253	1.576407	105578496	72495104	34486248	33184
254	2.06163	105578496	72495104	35871912	33184
255	2.617667	105578496	72495104	37606792	33184
256	3.138113	105578496	72495104	39692696	33184
257	5.505881	105578496	72495104	25959336	33184
258	4.376704	105578496	72495104	28750064	33184
259	4.811852	105578496	72495104	31894968	33184
260	5.216441	105578496	72495104	35397416	33184
261	6.126862	105578496	72495104	39255384	33184
262	7.921727	105578496	72495104	27351384	33184
263	6.993613	105578496	72495104	31926440	33184
264	7.279595	105578496	72495104	36862552	33184
265	9.647446	105578496	72495104	26406592	33184
266	8.509507	105578496	72495104	32068128	33184
267	9.26365	105578496	72495104	38092032	33184
268	11.33456	105578496	72495104	28524096	33184
269	9.945483	105578496	72495104	35281664	33184
270	12.733854	105578496	72495104	26854272	33184
271	11.35503	105578496	72495104	34348880	33184
272	13.917513	105578496	72495104	26797920	33184
273	12.375683	105578496	72495104	35033824	33184
274	15.033063	105578496	72495104	28133328	33184
275	13.417358	105578496	72495104	37117264	33184
276	15.833465	105578496	72495104	30706200	33184
277	14.695443	105578496	72495104	40439888	33184
278	16.485665	105578496	72495104	34338472	33184
279	18.073032	105578496	72495104	29460312	33184
280	15.999987	105578496	72495104	40330384	33184
281	18.322266	105578496	72495104	35379128	33184
282	19.425519	105578496	72495104	31485736	33184
283	20.855479	105578496	72495104	28499864	33184
284	19.262697	105578496	72495104	40909592	33184
285	20.63057	105578496	72495104	37455576	33184
286	21.894625	105578496	72495104	34899072	33184
287	22.898668	105578496	72495104	33027416	33184
288	23.48983	105578496	72495104	31832400	33184
289	24.407255	105578496	72495104	31195232	33184
290	25.073501	105578496	72495104	31070784	33184
291	26.233827	105578496	72495104	31359952	33184
292	26.738728	105578496	72495104	32022864	33184
293	27.004651	105578496	72495104	32964176	33184
294	27.550056	105578496	72495104	34209640	33184
295	27.900824	105578496	72495104	35681824	33184
296	27.812142	105578496	72495104	37344568	33184
297	28.722047	105578496	72495104	39209608	33184
298	28.646497	105578496	72495104	41235400	33184
299	29.705158	105578496	72495104	43391448	33184
300	33.731545	105578496	72495104	31457056	33184
301	32.412196	105578496	72495104	35801496	33184
302	1.270193	105578496	72495104	40255040	33184
303	1.870668	105578496	72495104	41476608	33184
304	2.453176	105578496	72495104	43109984	33184
305	5.39605	105578496	72495104	28853448	33184
306	3.874164	105578496	72495104	31307488	33184
307	4.318673	105578496	72495104	34174792	33184
308	4.938377	105578496	72495104	37457456	33184
309	5.531984	105578496	72495104	41155904	33184
310	8.063557	105578496	72495104	29205648	33184
311	6.772834	105578496	72495104	33738696	33184
312	7.57964	105578496	72495104	38690856	33184
313	11.160991	105578496	72495104	28366152	33184
314	8.641705	105578496	72495104	34163160	33184
315	9.286206	105578496	72495104	40381432	33184
316	12.086929	105578496	72495104	31104664	33184
317	10.72676	105578496	72495104	38171536	33184
318	13.664672	105578496	72495104	30040800	33184
319	11.987144	105578496	72495104	37964048	33184
320	15.135821	105578496	72495104	30710712	33184
321	13.322889	105578496	72495104	39493488	33184
322	16.506234	105578496	72495104	32921400	33184
323	14.51541	105578496	72495104	42571056	33184
324	17.359669	105578496	72495104	36460624	33184
325	18.459332	105578496	72495104	31617376	33184
326	16.679359	105578496	72495104	42571624	33184
327	19.617584	105578496	72495104	37750808	33184
328	20.261687	105578496	72495104	34041360	33184
329	22.011214	105578496	72495104	31270912	33184
330	18.878149	105578496	72495104	43983016	33184
331	21.891321	105578496	72495104	40784320	33184
332	22.744171	105578496	72495104	38473264	33184
333	23.955869	105578496	72495104	36901232	33184
334	24.39155	105578496	72495104	36031208	33184
335	25.290717	105578496	72495104	35717616	33184
336	25.940391	105578496	72495104	35910592	33184
337	26.89065	105578496	72495104	36527872	33184
338	27.734114	105578496	72495104	37515952	33184
339	28.053042	105578496	72495104	38847216	33184
340	28.966991	105578496	72495104	40451696	33184
341	28.93553	105578496	72495104	42295984	33184
342	29.613497	105578496	72495104	44338456	33184
343	34.265713	105578496	72495104	32465856	33184
344	33.166234	105578496	72495104	36809072	33184
345	32.675274	105578496	72495104	41034584	33184
346	32.874695	105578496	72495104	45145832	33184
347	37.461074	105578496	72495104	35008248	33184
348	35.16555	105578496	72495104	40861040	33184
349	39.429346	105578496	72495104	32763936	33184
350	38.409252	105578496	72495104	42136408	33184
351	41.239613	105578496	72495104	35438552	33184
352	1.488803	105848832	73019392	46088376	33184
353	2.34703	105848832	73019392	47494088	33184
354	2.899213	105848832	73019392	49370536	33184
355	3.595394	105848832	73019392	51719264	33184
356	6.45119	105848832	73019392	38181832	33184
357	5.187116	105848832	73019392	41478488	33184
358	5.669046	105848832	73019392	45259056	33184
359	6.379539	105848832	73019392	49524944	33184
360	9.301643	105848832	73019392	38173744	33184
361	7.909825	105848832	73019392	43423560	33184
362	8.520838	105848832	73019392	49166648	33184
363	11.760815	105848832	73019392	39362440	33184
364	10.768285	105848832	73019392	46099120	33184
365	14.517381	106119168	73019392	37712600	33184
366	12.090303	106119168	73019392	45441320	33184
367	15.036228	106119168	73019392	38122216	33184
368	13.581363	106119168	73019392	46854008	33184
369	16.449928	106119168	73019392	40367384	33184
370	14.599446	106119168	73019392	50107168	33184
371	17.532683	106119168	73019392	44185496	33184
372	19.63197	106119168	73019392	39580224	33184
373	17.228691	106119168	73019392	50833840	33184
374	19.699825	106119168	73543680	46346552	33184
375	21.857068	106389504	73543680	43003064	33184
376	22.696289	106389504	73543680	40614688	33184
377	23.509957	106389504	73543680	39079616	33184
378	24.28487	106389504	73543680	38263776	33184
379	21.44887	106389504	73543680	52594576	33184
380	24.253036	106389504	73543680	51001792	33184
381	25.031799	106659840	73543680	50128304	33184
382	26.216486	106659840	73543680	49893544	33184
383	26.666965	106659840	73543680	50226944	33184
384	27.736907	106659840	73543680	51013016	33184
385	28.127128	106659840	73543680	52231464	33184
386	33.894788	106930176	73543680	39655800	33184
387	31.310113	106930176	73543680	43469920	33184
388	31.744962	106930176	73543680	47345528	33184
389	31.718086	106930176	74067968	51217488	33184
390	36.862859	107200512	74067968	41078648	33184
391	37.277618	108281856	75116544	49215296	33184
392	34.594226	108552192	75640832	54993744	33184
393	39.402165	108822528	75640832	46158168	33184
394	36.373641	108822528	76165120	53207272	33184
395	41.70166	109363200	76165120	45964664	33184
396	43.415955	111525888	78262272	56773744	33184
397	54.225309	112336896	79310848	50851992	33184
398	51.102873	110829568	77737984	22270608	33184
399	40.849607	110829568	77737984	34565120	33184
400	41.061677	110829568	77737984	29752504	33184
401	43.475382	110829568	77737984	26366064	33184
402	1.785829	111099904	77737984	28129312	33184
403	2.636065	111099904	77737984	29757248	33184
404	3.49514	111099904	77737984	31930040	33184
405	4.352235	111099904	77737984	34648888	33184
406	4.938381	111099904	77737984	37915352	33184
407	8.320278	111099904	77737984	27610056	33184
408	6.634533	111099904	77737984	31974952	33184
409	7.415632	111099904	77737984	36890904	33184
410	8.993249	111099904	77737984	26760744	33184
411	9.498413	111099904	77737984	32791400	33184
412	9.582603	111099904	77737984	39368672	33184
413	11.072946	111099904	77737984	30434552	33184
414	11.388166	111099904	77737984	38124480	33184
415	12.975933	111099904	77737984	30483304	33184
416	13.068808	111099904	77737984	39291384	33184
417	14.306333	111099904	77737984	32591656	33184
418	14.64926	111099904	77737984	42524488	33184
419	16.006259	111099904	77737984	36549512	33184
420	17.071553	111099904	77737984	31926520	33184
421	18.741659	111099904	77737984	28520544	33184
422	18.303136	111099904	77737984	40721480	33184
423	19.334768	111099904	77737984	37238616	33184
424	20.914965	111099904	77737984	34802784	33184
425	21.593122	111099904	77737984	33283144	33184
426	22.965754	111099904	77737984	32532296	33184
427	23.614136	111099904	77737984	32473128	33184
428	24.611787	111099904	77737984	32999960	33184
429	25.489736	111099904	77737984	34026336	33184
430	25.829951	111099904	77737984	35500008	33184
431	26.288608	111099904	77737984	37330648	33184
432	27.553312	111099904	77737984	39496264	33184
433	27.664701	111099904	77737984	41957424	33184
434	31.42967	111099904	77737984	30525056	33184
435	31.062916	111099904	77737984	35432888	33184
436	31.304029	111099904	77737984	40247096	33184
437	34.410659	111099904	77737984	31030160	33184
438	36.193214	111099904	77737984	40010624	33184
439	37.203973	111099904	77737984	32911584	33184
440	37.362507	111099904	77737984	43046992	33184
441	38.180006	111099904	77737984	36962832	33184
442	38.810238	111099904	77737984	48268272	33184
443	39.550004	111099904	77737984	42937856	33184
444	45.035568	111099904	77737984	42822008	33184
445	42.230561	111370240	78262272	55735744	33184
446	42.403888	111640576	78786560	51859632	33184
447	50.027922	115695616	82980864	53492416	33184
448	62.563863	119480320	86650880	55577800	33184
449	60.245924	117907456	85078016	28559144	33184
450	50.472132	118448128	85078016	31908304	33184
451	50.879919	118448128	85078016	35818064	33184
452	1.825051	118718464	85602304	40809056	33184
453	2.681223	118718464	85602304	42621008	33184
454	3.558561	118718464	85602304	45039952	33184
455	4.694054	118718464	85602304	48065432	33184
456	8.520133	118718464	85602304	37939448	33184
457	6.26474	118718464	85602304	42184776	33184
458	7.291382	118718464	85602304	47048160	33184
459	9.35424	118718464	85602304	37223960	33184
460	8.946889	118718464	85602304	43316200	33184
461	9.949192	118718464	85602304	50013584	33184
462	11.205473	118718464	85602304	41015696	33184
463	11.570482	118718464	85602304	48951808	33184
464	13.209373	118718464	85602304	41326080	33184
465	13.642925	118718464	85602304	50494848	33184
466	14.73076	118718464	85602304	43899312	33184
467	17.1657	118718464	85602304	38830104	33184
468	16.323969	118718464	85602304	49867136	33184
469	17.77855	118718464	85602304	45236696	33184
470	19.125564	118718464	85602304	41860120	33184
471	20.699867	118718464	85602304	39584320	33184
472	22.405	118718464	85602304	38291224	33184
473	23.450745	118718464	85602304	37788952	33184
474	24.115771	118718464	85602304	37991520	33184
475	24.988009	118718464	85602304	38781680	33184
476	26.186013	118718464	85602304	40090968	33184
477	27.062203	118718464	85602304	41873200	33184
478	27.604361	118718464	85602304	44030624	33184
479	28.460097	118718464	85602304	46535592	33184
480	28.537757	118718464	85602304	49413168	33184
481	32.059325	118718464	85602304	38547232	33184
482	34.004139	118718464	85602304	46005928	33184
483	31.75821	118718464	85602304	51308992	33184
484	35.099423	118718464	85602304	42558168	33184
485	36.853686	118718464	85602304	51956648	33184
486	37.946061	118718464	85602304	45262048	33184
487	38.817017	118718464	85602304	55971856	33184
488	39.819139	118718464	85602304	50273352	33184
489	41.223458	118718464	85602304	62243096	33184
490	41.168994	118718464	85602304	57305000	33184
491	42.223053	118988800	85602304	53858424	33184
492	48.962264	121962496	88748032	55151288	33184
493	53.348145	123854848	90845184	69601728	33184
494	61.63163	118882304	86126592	24482432	33184
495	50.63444	118882304	86126592	27656312	33184
496	51.401792	119422976	86126592	31419408	33184
497	52.840513	119422976	86126592	35849872	33184
498	53.836111	119963648	86650880	40928840	33184
499	54.664903	119963648	86650880	46655456	33184
500	55.003501	119963648	86650880	53048552	33184
501	56.25851	119963648	86650880	60117136	33184
502	2.240288	121856000	88748032	55867952	33184
503	3.281769	121856000	88748032	57863872	33184
504	4.392135	121856000	88748032	60527360	33184
505	5.494942	121856000	88748032	63866608	33184
506	8.153233	121856000	88748032	67870168	33184
507	17.057782	123748352	90845184	58129456	33184
508	17.346246	121651200	88748032	21381728	33184
509	10.037527	121651200	88748032	27415216	33184
510	10.672885	121651200	88748032	34117944	33184
511	11.254973	121651200	88748032	25211816	33184
512	11.994361	121651200	88748032	33261288	33184
513	13.466745	121651200	88748032	25845304	33184
514	14.024886	121651200	88748032	35253608	33184
515	15.40868	121651200	88748032	28908760	33184
516	17.055408	121651200	88748032	24097072	33184
517	17.052941	121651200	88748032	35554744	33184
518	18.469761	121651200	88748032	31217752	33184
519	19.587002	121651200	88748032	28171744	33184
520	21.245067	121651200	88748032	26202392	33184
521	22.64259	121651200	88748032	25206064	33184
522	24.376638	121651200	88748032	25041248	33184
523	25.030073	121651200	88748032	25576080	33184
524	25.86369	121651200	88748032	26736744	33184
525	26.588691	121651200	88748032	28467568	33184
526	27.273021	121651200	88748032	30612200	33184
527	28.1058	121651200	88748032	33202136	33184
528	31.95522	121651200	88748032	22185776	33184
529	33.764088	121651200	88748032	29528296	33184
530	31.419572	121651200	88748032	34727536	33184
531	35.214365	121651200	88748032	26048736	33184
532	36.789559	121651200	88748032	35487328	33184
533	38.204266	121651200	88748032	28904320	33184
534	38.678392	121651200	88748032	39735632	33184
535	40.276998	121651200	88748032	34175264	33184
536	42.14875	121651200	88748032	46453688	33184
537	41.769041	121651200	88748032	41702640	33184
538	42.733831	121651200	88748032	38510296	33184
539	49.10526	122732544	89272320	40243432	33184
540	50.090176	122732544	89272320	42590232	33184
541	50.5825	122732544	89272320	45617344	33184
542	51.812221	122732544	89272320	49372752	33184
543	53.062088	122732544	89272320	53860352	33184
544	68.497316	124624896	91369472	59059728	33184
545	65.274024	122003456	88748032	33190720	33184
546	56.262196	122003456	88748032	39909768	33184
547	62.278059	122003456	88748032	34713552	33184
548	57.223423	122003456	88748032	42806000	33184
549	58.536685	122544128	89272320	51569608	33184
550	64.662544	122544128	89272320	48522056	33184
551	61.614438	122544128	89272320	58720776	33184
552	2.445754	124436480	91369472	57783240	33184
553	3.604907	124436480	91369472	59963272	33184
554	4.81015	124436480	91369472	62875432	33184
555	6.234857	124436480	91369472	66514472	33184
556	12.328706	126599168	93466624	56939696	33184
557	8.406996	126599168	93466624	62058544	33184
558	10.723125	126599168	93466624	67916536	33184
559	18.563845	126599168	93466624	58739584	33184
560	21.942094	123977728	90845184	23512544	33184
561	12.798645	123977728	90845184	31605032	33184
562	14.027477	123977728	90845184	24609760	33184
563	14.687157	123977728	90845184	34193416	33184
564	16.461095	123977728	90845184	28317448	33184
565	17.879561	123977728	90845184	23988568	33184
566	17.564388	123977728	90845184	35820744	33184
567	18.904177	123977728	90845184	31997800	33184
568	20.53492	123977728	90845184	29436272	33184
569	21.514781	123977728	90845184	27997664	33184
570	23.578284	123977728	90845184	27520768	33184
571	25.086863	123977728	90845184	27830032	33184
572	25.755611	123977728	90845184	28882440	33184
573	27.312015	123977728	90845184	30523688	33184
574	27.308588	123977728	90845184	32807656	33184
575	28.585618	123977728	90845184	35496400	33184
576	31.930393	123977728	90845184	24526744	33184
577	32.14552	123977728	90845184	29928432	33184
578	32.353056	123977728	90845184	35351152	33184
579	36.150701	123977728	90845184	26764072	33184
580	38.042169	123977728	90845184	36854304	33184
581	38.399602	123977728	90845184	30558688	33184
582	40.099625	123977728	90845184	42184192	33184
583	40.530154	123977728	90845184	36995096	33184
584	41.867512	123977728	90845184	33402336	33184
585	47.677386	123977728	90845184	34749576	33184
586	44.194771	123977728	90845184	49319400	33184
587	44.392084	123977728	90845184	46833056	33184
588	46.300376	123977728	90845184	45614248	33184
589	53.122209	124788736	91369472	50087576	33184
590	53.969576	124788736	91369472	55174072	33184
591	55.685422	124788736	91369472	60981848	33184
592	61.396413	124788736	91369472	55147056	33184
593	76.493961	126140416	92942336	62554464	33184
594	64.367489	123789312	90320896	26055872	33184
595	60.068801	123789312	90320896	35069192	33184
596	60.049581	123789312	90320896	44821112	33184
597	66.038864	123789312	90320896	42819440	33184
598	62.590005	123789312	90845184	54203720	33184
599	68.037839	124329984	90845184	53792512	33184
600	65.854413	124329984	90845184	66793272	33184
601	76.718698	126492672	93466624	67972472	33184
602	2.417667	128466944	95563776	37658936	33184
603	8.234144	128466944	95563776	27401064	33184
604	4.778683	128466944	95563776	30582640	33184
605	6.099356	128466944	95563776	34562456	33184
606	7.219751	128466944	95563776	39347768	33184
607	10.019379	128466944	95563776	30207752	33184
608	9.622137	128466944	95563776	36590128	33184
609	11.63104	128466944	95563776	27990536	33184
610	11.918822	128466944	95563776	35981920	33184
611	13.933302	128466944	95563776	29047456	33184
612	14.449318	128466944	95563776	38651064	33184
613	15.977637	128466944	95563776	32975880	33184
614	17.829507	128466944	95563776	28888640	33184
615	18.149974	128466944	95563776	40931296	33184
616	19.200001	128466944	95563776	37378448	33184
617	20.873441	128466944	95563776	35131368	33184
618	22.217581	128466944	95563776	34001488	33184
619	24.099456	128466944	95563776	33862600	33184
620	25.343416	128466944	95563776	34554096	33184
621	26.204398	128466944	95563776	35933456	33184
622	27.396599	128466944	95563776	37963312	33184
623	28.413184	128466944	95563776	40562024	33184
624	32.244105	128466944	95563776	29504584	33184
625	35.353652	128466944	95563776	37369552	33184
626	32.84271	128466944	95563776	43065216	33184
627	35.870587	128466944	95563776	34520104	33184
628	37.925565	128466944	95563776	44838856	33184
629	39.285719	128466944	95563776	38779872	33184
630	44.89976	128466944	95563776	38111576	33184
631	41.210701	128466944	95563776	50703792	33184
632	42.34242	128466944	95563776	46850184	33184
633	48.725115	129007616	95563776	48644984	33184
634	50.096599	129007616	95563776	51153152	33184
635	51.008548	129007616	95563776	54529440	33184
636	52.37671	129007616	95563776	58610864	33184
637	73.876348	130088960	97136640	63671512	33184
638	57.23452	122494976	89272320	36299856	33184
639	60.829286	122494976	89272320	30509768	33184
640	56.832824	122494976	89272320	38055592	33184
641	58.113236	122494976	89272320	46394480	33184
642	64.227773	122765312	89272320	43042936	33184
643	60.647111	122765312	89272320	53138912	33184
644	62.702067	122765312	89272320	64006608	33184
645	69.953437	123576320	90320896	63137800	33184
646	95.234304	127631360	96088064	32774760	33184
647	70.03131	128983040	96088064	32902512	33184
648	66.588503	128983040	96088064	47198376	33184
649	72.979215	128983040	96088064	49789480	33184
650	74.53167	128983040	96088064	53218216	33184
651	75.818298	129794048	96612352	57503624	33184
652	2.578605	129794048	96612352	63450336	33184
653	3.814787	129794048	96612352	66018984	33184
654	5.16884	129794048	96612352	69445944	33184
655	10.015461	129794048	96612352	60092120	33184
656	8.466973	129794048	96612352	65245416	33184
657	9.815616	129794048	96612352	71255960	33184
658	13.178219	130064384	96612352	62576376	33184
659	15.90499	130064384	96612352	70318816	33184
660	26.086245	122220544	88748032	17181024	33184
661	15.882678	122220544	88748032	26669008	33184
662	17.918146	122220544	88748032	21945416	33184
663	18.373066	122220544	88748032	18273784	33184
664	18.350373	122220544	88748032	30368072	33184
665	19.900315	122220544	88748032	27159456	33184
666	21.898317	122220544	88748032	25227640	33184
667	23.087124	122220544	88748032	24445904	33184
668	24.755813	122220544	88748032	24677232	33184
669	26.128226	122220544	88748032	25727560	33184
670	27.130152	122220544	88748032	27483608	33184
671	28.160626	122220544	88748032	29883408	33184
672	32.521349	122220544	88748032	18937344	33184
673	34.056949	122220544	88748032	26565016	33184
674	32.713202	122220544	88748032	32142016	33184
675	35.787378	122220544	88748032	23972856	33184
676	38.600456	122220544	88748032	34202208	33184
677	39.453149	122220544	88748032	28228536	33184
678	41.206984	122220544	88748032	40222912	33184
679	41.123194	122220544	88748032	35460016	33184
680	42.779822	122220544	88748032	32373696	33184
681	48.9615	122220544	88748032	34415256	33184
682	50.061339	122220544	88748032	37279392	33184
683	52.003778	122220544	88748032	40995056	33184
684	52.498868	122220544	88748032	45626488	33184
685	60.318453	122220544	88748032	51136440	33184
686	77.415447	116215808	84553728	31459760	33184
687	58.094371	117567488	84553728	38406224	33184
688	62.916463	117567488	84553728	34128736	33184
689	59.562341	117567488	84553728	43253576	33184
690	62.816195	117567488	84553728	53239136	33184
691	67.361665	117837824	84553728	51542976	33184
692	63.989441	117837824	84553728	63329408	33184
693	72.601305	122163200	89272320	63540320	33184
694	97.982741	123129856	91369472	35177008	33184
695	73.352362	124477440	91369472	36443088	33184
696	73.748804	124477440	91369472	39302648	33184
697	75.14095	124477440	91369472	43109464	33184
698	75.541049	124477440	91369472	47809760	33184
699	77.569543	124477440	91369472	53455344	33184
700	78.275188	125829120	92942336	60049400	33184
701	108.56664	126287872	94515200	36804080	33184
702	2.878997	127905792	94515200	45200344	33184
703	8.567703	127905792	94515200	35165176	33184
704	5.74869	127905792	94515200	38837640	33184
705	7.178593	127905792	94515200	43430960	33184
706	10.478477	127905792	94515200	34666064	33184
707	9.996088	127905792	94515200	41105736	33184
708	11.229432	127905792	94515200	48470104	33184
709	12.770095	127905792	94515200	40370216	33184
710	15.156167	127905792	94515200	34340976	33184
711	15.690699	127905792	94515200	44488368	33184
712	17.349095	127905792	94515200	39750824	33184
713	19.690644	127905792	94515200	36623760	33184
714	21.707634	127905792	94515200	34838808	33184
715	21.530872	127905792	94515200	48747776	33184
716	22.732063	127905792	94515200	47219432	33184
717	24.282912	127905792	94515200	46814536	33184
718	25.920116	127905792	94515200	47433336	33184
719	27.180625	127905792	94515200	48904792	33184
720	31.1726	127905792	94515200	36991440	33184
721	31.566055	127905792	94515200	41868696	33184
722	31.807883	127905792	94515200	47028832	33184
723	35.433564	127905792	94515200	38488664	33184
724	39.137073	127905792	94515200	48591128	33184
725	39.064517	127905792	94515200	42621056	33184
726	41.040258	127905792	94515200	54627184	33184
727	41.200279	127905792	94515200	49922016	33184
728	43.289789	127905792	94515200	46925168	33184
729	48.552699	127905792	94515200	49274464	33184
730	51.302772	127905792	94515200	52372280	33184
731	52.440207	127905792	94515200	56473704	33184
732	53.0574	127905792	94515200	61518448	33184
733	55.564503	128716800	95563776	67573256	33184
734	84.941435	127557632	96088064	28189824	33184
735	58.712291	128905216	96088064	35098896	33184
736	58.963313	128905216	96088064	44020632	33184
737	65.954943	128905216	96088064	41408672	33184
738	62.304592	128905216	96088064	52281872	33184
739	68.007193	128905216	96088064	51565640	33184
740	68.841215	128905216	96088064	51854104	33184
741	66.429305	129445888	96088064	65670664	33184
742	96.996759	126410752	94515200	21867024	33184
743	68.573648	127758336	94515200	36751448	33184
744	74.558985	127758336	94515200	40965280	33184
745	78.341891	127758336	94515200	46119344	33184
746	78.969874	127758336	94515200	52334528	33184
747	78.877068	127758336	94515200	59429144	33184
748	86.411196	127758336	94515200	54981640	33184
749	106.478329	123658240	90845184	32722248	33184
750	84.920938	123658240	90845184	42831656	33184
751	90.014335	123658240	90845184	41565672	33184
752	3.029591	123658240	90845184	54586112	33184
753	4.815075	123658240	90845184	57572032	33184
754	9.604636	124198912	90845184	48323544	33184
755	7.564695	124198912	90845184	53305808	33184
756	8.728171	124198912	90845184	59288608	33184
757	11.619887	124198912	90845184	51109272	33184
758	11.67477	124198912	90845184	59098760	33184
759	14.360798	124198912	90845184	52134088	33184
760	14.976633	124198912	90845184	62131912	33184
761	16.948872	124198912	90845184	56799280	33184
762	18.657063	124198912	90845184	53189968	33184
763	21.169658	124198912	90845184	51064664	33184
764	23.006516	124198912	90845184	50267872	33184
765	24.874198	124198912	90845184	50589208	33184
766	25.772402	124198912	90845184	51912960	33184
767	27.078252	124198912	90845184	54022760	33184
768	28.447112	124198912	90845184	56894208	33184
769	29.579417	124198912	90845184	60364712	33184
770	33.464234	124198912	90845184	50505584	33184
771	35.937809	124198912	90845184	59263192	33184
772	37.684004	124198912	90845184	52566504	33184
773	38.885441	124198912	90845184	63246160	33184
774	40.323237	124198912	90845184	58241808	33184
775	41.946221	124739584	91893760	71036928	33184
776	42.296404	125280256	92418048	67151128	33184
777	45.262121	126091264	93466624	64925088	33184
778	77.628508	128159744	97136640	22840272	33184
779	48.189253	130048000	97136640	38482544	33184
780	48.220406	130048000	97136640	38224760	33184
781	53.267799	130048000	97136640	26613352	33184
782	56.142217	130048000	97136640	33842736	33184
783	57.631024	130048000	97136640	42069488	33184
784	59.206167	130048000	97136640	51341608	33184
785	65.640008	130048000	97136640	49132808	33184
786	62.462735	130048000	97136640	60491424	33184
787	68.263897	130588672	97136640	60263960	33184
788	72.255433	131399680	98185216	61104496	33184
789	92.581217	128544768	95563776	29039968	33184
790	73.512225	128544768	95563776	32088288	33184
791	70.828469	128544768	95563776	48668648	33184
792	76.082195	128544768	95563776	53651552	33184
793	78.074443	128544768	95563776	59743896	33184
794	84.793644	128544768	95563776	54295928	33184
795	86.85267	128815104	95563776	62416464	33184
796	107.246817	127762432	94515200	27206472	33184
797	83.429808	127762432	94515200	37487088	33184
798	86.589231	127762432	94515200	48800928	33184
799	92.011059	127762432	94515200	48517080	33184
800	88.675943	127762432	94515200	62010128	33184
801	100.769689	128303104	95039488	63819040	33184
802	3.186473	129953792	96612352	36332248	33184
803	4.67762	129953792	96612352	39502424	33184
804	9.753114	129953792	96612352	30340008	33184
805	8.183568	129953792	96612352	35629216	33184
806	9.30469	129953792	96612352	41980256	33184
807	12.268169	129953792	96612352	34067112	33184
808	12.430714	129953792	96612352	42565928	33184
809	14.912659	129953792	96612352	36006472	33184
810	16.810529	129953792	96612352	31371240	33184
811	17.731079	129953792	96612352	43049568	33184
812	19.115661	129953792	96612352	39612480	33184
813	21.507786	129953792	96612352	37719800	33184
814	23.517727	129953792	96612352	37125872	33184
815	24.887822	129953792	96612352	37714960	33184
816	26.476926	129953792	96612352	39269856	33184
817	27.958	129953792	96612352	41719648	33184
818	28.932324	129953792	96612352	44918696	33184
819	33.348575	129953792	96612352	34529376	33184
820	33.23968	129953792	96612352	40864656	33184
821	37.551686	129953792	96612352	33687168	33184
822	39.276008	129953792	96612352	44780240	33184
823	40.53371	129953792	96612352	39693456	33184
824	47.724953	129953792	96612352	40394320	33184
825	43.200254	129953792	96612352	54537904	33184
826	45.242155	129953792	96612352	51997248	33184
827	46.922	129953792	96612352	50951344	33184
828	53.425496	129953792	96612352	55919600	33184
829	54.51633	129953792	96612352	61827592	33184
830	60.795464	129953792	96612352	56328280	33184
831	57.706026	129953792	96612352	64439800	33184
832	69.579441	130224128	97136640	73674112	33184
833	78.906886	131276800	98185216	35548056	33184
834	67.110486	131276800	98185216	34558016	33184
835	69.604044	131276800	98185216	34471432	33184
836	66.472323	131276800	98185216	48049736	33184
837	72.17802	131276800	98185216	50180064	33184
838	73.516958	131276800	98185216	53433376	33184
839	79.324386	131547136	98185216	57721792	33184
840	100.210983	123576320	90320896	32431072	33184
841	78.439301	123576320	90320896	38969808	33184
842	80.504009	123576320	90320896	46606632	33184
843	81.599002	123576320	90320896	55366648	33184
844	88.641394	123576320	90320896	52617704	33184
845	87.728676	123576320	90320896	63632960	33184
846	116.517876	126373888	94515200	29713680	33184
847	92.486619	127721472	94515200	29258376	33184
848	91.090877	127721472	94515200	43602880	33184
849	96.583936	127721472	94515200	46437904	33184
850	99.554843	127721472	94515200	50390720	33184
851	102.735473	127721472	94515200	68023440	33184
852	3.557756	124092416	90845184	32495648	33184
853	5.220032	124092416	90845184	35894504	33184
854	6.699921	124092416	90845184	40410272	33184
855	11.279477	124092416	90845184	32082800	33184
856	9.974857	124092416	90845184	38864312	33184
857	12.780208	124092416	90845184	31367376	33184
858	13.509272	124092416	90845184	40430096	33184
859	15.867147	124092416	90845184	34883144	33184
860	18.348044	124092416	90845184	31229984	33184
861	18.472827	124092416	90845184	43712800	33184
862	20.540974	124092416	90845184	41157952	33184
863	22.580158	124092416	90845184	40138120	33184
864	24.507317	124092416	90845184	40365416	33184
865	26.052828	124092416	90845184	41702952	33184
866	28.335581	124092416	90845184	43971056	33184
867	32.517133	124092416	90845184	33130456	33184
868	35.57083	124092416	90845184	41206856	33184
869	32.875022	124092416	90845184	47473576	33184
870	37.428383	124092416	90845184	39841792	33184
871	36.782432	124092416	90845184	48534816	33184
872	40.162591	124092416	90845184	42949720	33184
873	43.126512	124092416	90845184	39931216	33184
874	49.618043	124092416	90845184	42270456	33184
875	50.156808	124092416	90845184	45516344	33184
876	53.351218	124092416	90845184	50081352	33184
877	53.44119	124092416	90845184	55660864	33184
878	55.469974	124092416	90845184	62499088	33184
879	61.082727	125984768	92942336	70534880	33184
880	88.53327	126226432	94515200	35125224	33184
881	65.306158	127574016	94515200	31806720	33184
882	63.683435	127574016	94515200	43299520	33184
883	68.958203	127574016	94515200	43343696	33184
884	71.179039	127574016	94515200	44524016	33184
885	68.036111	127574016	94515200	59516360	33184
886	74.139334	127574016	94515200	63019576	33184
887	83.514598	127844352	94515200	67721640	33184
888	101.782125	127238144	93990912	28624144	33184
889	79.327385	127238144	93990912	35622696	33184
890	80.502185	127238144	93990912	43846928	33184
891	84.42684	127238144	93990912	53333968	33184
892	90.09503	127238144	93990912	51257416	33184
893	88.326998	127238144	93990912	63047016	33184
894	120.137602	128299008	95039488	32781408	33184
895	89.950821	128299008	95039488	46924464	33184
896	95.263421	128299008	95039488	49611640	33184
897	97.417398	128299008	95039488	53491576	33184
898	99.290141	128299008	95039488	58619304	33184
899	106.576725	131272704	98185216	64889160	33184
900	126.934409	130936832	97660928	38333136	33184
901	105.084106	130936832	97660928	46959648	33184
902	3.530211	130936832	97660928	57993272	33184
903	9.45022	130936832	97660928	48677416	33184
904	7.182069	130936832	97660928	53438464	33184
905	9.382843	130936832	97660928	59392928	33184
906	12.444245	130936832	97660928	51686352	33184
907	12.812364	130936832	97660928	60035088	33184
908	14.685887	130936832	97660928	53368448	33184
909	17.191436	130936832	97660928	48855272	33184
910	18.10557	130936832	97660928	60800408	33184
911	20.290627	130936832	97660928	57627736	33184
912	22.227488	130936832	97660928	56098128	33184
913	23.886538	130936832	97660928	55958760	33184
914	25.596103	130936832	97660928	57054936	33184
915	27.174103	130936832	97660928	59211232	33184
916	32.131143	130936832	97660928	48415648	33184
917	34.573777	130936832	97660928	56294456	33184
918	33.367523	130936832	97660928	62556480	33184
919	37.95438	130936832	97660928	55228848	33184
920	40.059433	130936832	97660928	66825248	33184
921	40.798509	130936832	97660928	61955576	33184
922	43.468658	130936832	97660928	59085992	33184
923	50.430575	130936832	97660928	61663144	33184
924	51.257828	130936832	97660928	65347416	33184
925	80.658806	128217088	96612352	23407072	33184
926	57.468694	129564672	96612352	28507712	33184
927	58.075306	129564672	96612352	35800840	33184
928	58.984757	129564672	96612352	44378960	33184
929	64.962026	129564672	96612352	41591536	33184
930	61.571117	129564672	96612352	52647800	33184
931	69.144444	129564672	96612352	52319800	33184
932	67.049374	129564672	96612352	65831136	33184
933	78.795134	129835008	96612352	67963856	33184
934	90.506929	127299584	94515200	37922768	33184
935	75.160413	127299584	94515200	42551968	33184
936	77.977375	127299584	94515200	48399040	33184
937	79.812323	127299584	94515200	55381592	33184
938	85.605511	127299584	94515200	50982232	33184
939	83.072788	127840256	94515200	60443440	33184
940	113.402331	125710336	93990912	26568080	33184
941	87.912818	127057920	93990912	37505976	33184
942	91.772047	127057920	93990912	38073352	33184
943	90.545447	127057920	93990912	52473848	33184
944	97.016433	127057920	93990912	55629312	33184
945	104.199789	127328256	93990912	59999672	33184
946	123.697281	124616704	91369472	36752312	33184
947	101.793106	124616704	91369472	43547336	33184
948	104.368199	124616704	91369472	51571272	33184
949	106.149746	124616704	91369472	61006672	33184
950	107.418767	126779392	93466624	71464488	33184
951	137.041013	127238144	93990912	34177152	33184
952	3.757644	127238144	93990912	36122360	33184
953	5.65694	127238144	93990912	39875656	33184
954	7.617816	127238144	93990912	44883360	33184
955	11.868961	127238144	93990912	36965656	33184
956	11.276361	127238144	93990912	44495672	33184
957	13.80946	127238144	93990912	37549688	33184
958	15.039454	127238144	93990912	47582448	33184
959	17.609538	127238144	93990912	42464992	33184
960	19.528536	127238144	93990912	39324232	33184
961	21.852572	127238144	93990912	37809056	33184
962	24.016978	127238144	93990912	37775480	33184
963	26.160091	127238144	93990912	39027760	33184
964	27.50132	127238144	93990912	41362896	33184
965	29.522287	127238144	93990912	44663064	33184
966	33.819061	127238144	93990912	34973560	33184
967	36.88583	127238144	93990912	43956936	33184
968	38.509595	127238144	93990912	37654072	33184
969	40.213169	127238144	93990912	49157360	33184
970	41.452171	127238144	93990912	44913016	33184
971	48.887511	127238144	93990912	46390216	33184
972	50.793523	127238144	93990912	49004496	33184
973	52.096713	127238144	93990912	52907920	33184
974	59.252151	128049152	95039488	58108160	33184
975	74.445303	122134528	90320896	34106456	33184
976	61.696771	123482112	90320896	28549928	33184
977	59.611047	123482112	90320896	37544864	33184
978	61.269899	123482112	90320896	47852240	33184
979	67.933042	123482112	90320896	46895728	33184
980	69.102588	123482112	90320896	47125960	33184
981	66.217326	123482112	90320896	61316992	33184
982	78.986727	123752448	90845184	64205192	33184
983	95.881131	125108224	91893760	36641416	33184
984	77.618792	125108224	91893760	42063824	33184
985	79.626049	125108224	91893760	48835368	33184
986	85.03678	125108224	91893760	44327600	33184
987	83.739193	125108224	91893760	53631848	33184
988	84.668614	125108224	91893760	64237584	33184
989	114.488246	124313600	92418048	30333960	33184
990	93.444308	125661184	92418048	30091760	33184
991	92.140324	125661184	92418048	44603032	33184
992	99.011833	125661184	92418048	47825112	33184
993	97.72516	125661184	92418048	52468032	33184
994	112.905003	125661184	92418048	58231264	33184
995	116.844207	123580416	90320896	34709872	33184
996	103.555828	123580416	90320896	43223072	33184
997	106.321018	123580416	90320896	53014464	33184
998	107.525335	123580416	90320896	64004416	33184
999	135.456868	129527808	96612352	63965440	33184
1000	127.728318	130609152	97660928	32484800	33184
