x	Duration	RSS	HeapTotal	HeapUsed	External
0	NA	119615488	85078016	14501712	33184
1	0.297793	119615488	85078016	14553872	33184
2	0.243204	119615488	85078016	14621656	33184
3	0.271187	119615488	85078016	14714128	33184
4	0.322303	119615488	85078016	14832960	33184
5	0.401804	119615488	85078016	14979912	33184
6	0.459876	119615488	85078016	15155800	33184
7	1.14818	119615488	85078016	15361784	33184
8	0.518389	119615488	85078016	15598888	33184
9	0.474382	119615488	85078016	15869736	33184
10	0.828058	119615488	85078016	16177152	33184
11	0.615575	119615488	85078016	16517288	33184
12	0.697981	119615488	85078016	16897792	33184
13	0.735451	119615488	85078016	17312192	33184
14	0.73891	119615488	85078016	17765536	33184
15	0.80564	119615488	85078016	18259056	33184
16	0.863624	119615488	85078016	18793992	33184
17	0.937524	119615488	85078016	19373344	33184
18	1.338615	119615488	85078016	19996592	33184
19	1.309755	119615488	85078016	20667520	33184
20	1.372581	119615488	85078016	21383416	33184
21	1.252303	119615488	85078016	22148584	33184
22	1.37631	119615488	85078016	22961008	33184
23	1.52963	119615488	85078016	23824184	33184
24	2.095661	119615488	85078016	24744656	33184
25	1.515205	119615488	85078016	25713232	33184
26	1.521322	119615488	85078016	26736360	33184
27	1.605807	119615488	85078016	27815144	33184
28	2.064838	119615488	85078016	28970072	33184
29	1.750795	119615488	85078016	30164040	33184
30	2.603435	119615488	85078016	15192016	33184
31	2.140469	119615488	85078016	16506168	33184
32	2.301223	119615488	85078016	17887648	33184
33	2.982682	119615488	85078016	19335888	33184
34	2.148477	119615488	85078016	20846520	33184
35	2.487406	119615488	85078016	22430776	33184
36	2.336506	119615488	85078016	24074112	33184
37	2.537842	119615488	85078016	25787024	33184
38	2.831455	119615488	85078016	27567624	33184
39	2.610834	119615488	85078016	29418624	33184
40	2.700962	119615488	85078016	31341400	33184
41	4.223942	119615488	85078016	17254560	33184
42	3.345236	119615488	85078016	19324584	33184
43	3.064881	119615488	85078016	21470088	33184
44	3.128959	119615488	85078016	23693328	33184
45	3.445585	119615488	85078016	25996744	33184
46	3.420323	119615488	85078016	28380416	33184
47	3.467921	119615488	85078016	30846104	33184
48	5.245565	119615488	85078016	17468656	33184
49	4.370086	119615488	85078016	20110128	33184
50	3.993857	119615488	85078016	22831288	33184
51	4.140121	119615488	85078016	25638312	33184
52	0.289495	119615488	85078016	28450656	33184
53	0.498597	119615488	85078016	28715824	33184
54	0.572688	119615488	85078016	29072024	33184
55	0.686639	119615488	85078016	29519488	33184
56	0.80946	119615488	85078016	30060464	33184
57	0.933026	119615488	85078016	30695728	33184
58	1.069022	119615488	85078016	31426568	33184
59	1.21745	119615488	85078016	32254064	33184
60	2.952839	119615488	85078016	17201520	33184
61	1.647432	119615488	85078016	18227144	33184
62	1.619379	119615488	85078016	19353112	33184
63	1.778976	119615488	85078016	20580672	33184
64	1.899191	119615488	85078016	21911160	33184
65	2.26609	119615488	85078016	23345600	33184
66	2.445899	119615488	85078016	24885704	33184
67	2.444008	119615488	85078016	26535400	33184
68	2.610581	119615488	85078016	28291336	33184
69	2.634895	119615488	85078016	30156288	33184
70	3.012717	119615488	85078016	32132768	33184
71	4.511476	119615488	85078016	18214424	33184
72	3.382753	119615488	85078016	20414096	33184
73	3.65464	119615488	85078016	22727720	33184
74	3.551911	119615488	85078016	25156640	33184
75	3.754541	119615488	85078016	27701648	33184
76	4.303209	119615488	85078016	30364128	33184
77	5.505201	119615488	85078016	17326584	33184
78	4.215655	119615488	85078016	20227856	33184
79	4.505412	119615488	85078016	23250304	33184
80	4.507295	119615488	85078016	26396136	33184
81	4.832755	119615488	85078016	29664768	33184
82	5.077058	119615488	85078016	33060696	33184
83	7.295511	119615488	85078016	20461096	33184
84	5.219584	119615488	85078016	24117168	33184
85	5.55756	119615488	85078016	27903040	33184
86	5.499766	119615488	85078016	31819288	33184
87	7.316441	119615488	85078016	19880936	33184
88	5.863449	119615488	85078016	24062840	33184
89	6.280305	119615488	85078016	28379392	33184
90	6.503095	119615488	85078016	32831792	33184
91	7.898735	119615488	85078016	21290576	33184
92	6.649134	119615488	85078016	26023440	33184
93	7.045286	119615488	85078016	30898136	33184
94	8.731456	119615488	85078016	20025656	33184
95	7.856552	119615488	85078016	25186592	33184
96	7.777611	119615488	85078016	30493024	33184
97	9.648065	119615488	85078016	20139832	33184
98	8.677112	119615488	85078016	25741088	33184
99	8.160503	119615488	85078016	31490920	33184
100	10.275598	119615488	85078016	21471992	33184
101	8.832786	119615488	85078016	27524040	33184
102	0.478291	119615488	85078016	33719816	33184
103	0.69485	119615488	85078016	34178528	33184
104	2.407743	119615488	85078016	18612680	33184
105	1.224021	119615488	85078016	19382904	33184
106	1.474568	119615488	85078016	20311272	33184
107	1.595086	119615488	85078016	21398440	33184
108	1.793435	119615488	85078016	22645656	33184
109	2.250909	119615488	85078016	24054288	33184
110	2.269363	119615488	85078016	25626312	33184
111	2.470911	119615488	85078016	27362056	33184
112	2.725416	119615488	85078016	29262712	33184
113	2.964124	119615488	85078016	31330048	33184
114	3.172355	119615488	85078016	33564360	33184
115	5.002507	119615488	85078016	19876888	33184
116	4.132978	119615488	85078016	22449720	33184
117	3.952328	119615488	85078016	25193536	33184
118	4.197071	119615488	85078016	28111640	33184
119	4.64161	119615488	85078016	31203320	33184
120	4.645279	119615488	85078016	34470176	33184
121	6.559346	119615488	85078016	21736784	33184
122	5.139364	119615488	85078016	25357008	33184
123	5.402717	119615488	85078016	29155432	33184
124	5.920074	119615488	85078016	33133544	33184
125	7.717854	119615488	85078016	21275504	33184
126	6.314815	119615488	85078016	25617984	33184
127	6.671454	119615488	85078016	30142472	33184
128	7.015781	119615488	85078016	34851744	33184
129	8.527544	119615488	85078016	23519480	33184
130	7.452509	119615488	85078016	28601424	33184
131	8.040077	119615488	85078016	33880136	33184
132	9.564216	119615488	85078016	23255736	33184
133	8.321509	119615488	85078016	28908888	33184
134	8.557933	119615488	85078016	34760816	33184
135	10.19682	119615488	85078016	24596824	33184
136	9.239097	119615488	85078016	30834224	33184
137	11.337315	119615488	85078016	21572000	33184
138	10.207846	119615488	85078016	28203520	33184
139	10.428759	119615488	85078016	35031504	33184
140	11.666121	119615488	85078016	25824992	33184
141	10.604972	119615488	85078016	33053448	33184
142	12.666257	119615488	85078016	24528112	33184
143	11.157472	119615488	85078016	32164832	33184
144	12.895426	119615488	85078016	24179112	33184
145	11.789278	119615488	85078016	32229200	33184
146	14.483629	119615488	85078016	24686536	33184
147	12.138503	119615488	85078016	33154936	33184
148	14.313082	119615488	85078016	25902208	33184
149	12.902909	119615488	85078016	34795256	33184
150	14.892824	119615488	85078016	27779656	33184
151	16.125482	119615488	85078016	21909272	33184
152	0.676449	119615488	85078016	31506576	33184
153	0.985366	119615488	85078016	32154840	33184
154	1.287888	119615488	85078016	33021504	33184
155	1.593881	119615488	85078016	34107624	33184
156	2.133198	119615488	85078016	35415080	33184
157	2.236346	119615488	85078016	36944488	33184
158	4.181917	119615488	85078016	22369032	33184
159	3.067404	119615488	85078016	24346176	33184
160	3.509243	119615488	85078016	26549984	33184
161	3.573762	119615488	85078016	28980872	33184
162	3.854684	119615488	85078016	31639904	33184
163	4.268224	119615488	85078016	34528112	33184
164	6.387586	119615488	85078016	21674816	33184
165	5.636617	119615488	85078016	25028568	33184
166	5.216667	119615488	85078016	28612296	33184
167	5.798544	119615488	85078016	32433408	33184
168	5.919754	119615488	85078016	36491048	33184
169	8.110205	119615488	85078016	24553728	33184
170	6.814316	119615488	85078016	29084168	33184
171	7.129607	119615488	85078016	33853888	33184
172	9.380366	119615488	85078016	23008168	33184
173	8.169905	119615488	85078016	28259864	33184
174	7.986308	119615488	85078016	33755504	33184
175	10.40806	119615488	85078016	23646528	33184
176	8.914391	119615488	85078016	29630616	33184
177	9.050145	119615488	85078016	35861152	33184
178	11.464304	119615488	85078016	26227184	33184
179	10.055132	119615488	85078016	32954480	33184
180	12.2746	119615488	85078016	24226288	33184
181	10.498541	119615488	85078016	31465360	33184
182	13.241308	119615488	85078016	23434368	33184
183	11.590883	119615488	85078016	31189072	33184
184	14.210248	119615488	85078016	23728080	33184
185	12.427302	119615488	85078016	32012808	33184
186	14.488755	119615488	85078016	24978392	33184
187	12.786539	119615488	85078016	33784680	33184
188	15.120758	119615488	85078016	27057920	33184
189	13.593652	119615488	85078016	36392448	33184
190	16.048612	119615488	85078016	29845264	33184
191	17.026036	119615488	85078016	24461968	33184
192	14.739291	119615488	85078016	34599976	33184
193	17.541039	119615488	85078016	29125048	33184
194	18.924386	119615488	85078016	24666760	33184
195	17.80458	119615488	85078016	35619240	33184
196	23.034711	119615488	85078016	30839640	33184
197	19.74344	119615488	85078016	27009552	33184
198	17.154837	119615488	85078016	38790336	33184
199	20.755665	119615488	85078016	34478248	33184
200	20.413949	119615488	85078016	31011664	33184
201	21.728445	119615488	85078016	28305728	33184
202	0.865649	119615488	85078016	26370040	33184
203	1.285546	119615488	85078016	27214944	33184
204	1.77741	119615488	85078016	28343576	33184
205	2.204994	119615488	85078016	29757280	33184
206	2.78351	119615488	85078016	31462184	33184
207	2.907914	119615488	85078016	33450272	33184
208	3.335025	119615488	85078016	35727048	33184
209	3.714051	119615488	85078016	38293872	33184
210	6.370898	119615488	85078016	24939576	33184
211	4.853074	119615488	85078016	28091072	33184
212	5.067518	119615488	85078016	31536248	33184
213	5.473871	119615488	85078016	35277128	33184
214	6.075977	119615488	85078016	39313216	33184
215	8.252651	119615488	85078016	27315832	33184
216	7.054733	119615488	85078016	31947760	33184
217	7.20358	119615488	85078016	36879496	33184
218	10.032971	119615488	85078016	26101504	33184
219	8.023502	119615488	85078016	31638472	33184
220	8.672892	119615488	85078016	37479480	33184
221	10.853366	119615488	85078016	27534448	33184
222	9.583408	119615488	85078016	33985944	33184
223	12.412798	119615488	85078016	25132464	33184
224	11.03113	119615488	85078016	32202880	33184
225	10.726235	119615488	85078016	39579488	33184
226	13.225384	119615488	85078016	30909216	33184
227	11.813969	119615488	85078016	38908576	33184
228	14.362087	119615488	85078016	30974464	33184
229	12.761521	119615488	85078016	39609616	33184
230	14.986875	119615488	85078016	32220592	33184
231	16.260071	119615488	85078016	26147280	33184
232	14.191804	119615488	85078016	35738808	33184
233	16.843698	119615488	85078016	29843216	33184
234	14.961592	119615488	85078016	40086720	33184
235	17.616865	119615488	85078016	34303304	33184
236	18.400573	119615488	85078016	29603672	33184
237	19.807225	119615488	85078016	25863128	33184
238	17.309389	119615488	85078016	37412808	33184
239	19.624281	119615488	85078016	33292896	33184
240	20.583615	119615488	85078016	30083736	33184
241	21.559665	119615488	85078016	27617360	33184
242	19.206211	119615488	85078016	40493104	33184
243	21.441183	119615488	85078016	37343336	33184
244	22.541359	119615488	85078016	34966584	33184
245	22.977993	119615488	85078016	33220024	33184
246	23.7643	119615488	85078016	32085680	33184
247	24.578609	119615488	85078016	31455152	33184
248	25.506893	119615488	85078016	31241256	33184
249	25.457758	119615488	85078016	31416752	33184
250	26.163503	119615488	85078016	31912264	33184
251	26.689968	119615488	85078016	32699104	33184
252	1.293228	119615488	85078016	33953656	33184
253	1.552751	119615488	85078016	34991208	33184
254	2.054021	119615488	85078016	36376840	33184
255	2.559427	119615488	85078016	38111680	33184
256	3.087941	119615488	85078016	40197680	33184
257	6.305065	119615488	85078016	26467160	33184
258	4.326769	119615488	85078016	29257888	33184
259	4.593098	119615488	85078016	32402792	33184
260	5.141407	119615488	85078016	35904312	33184
261	5.858638	119615488	85078016	39762424	33184
262	8.360487	119615488	85078016	27858096	33184
263	6.682606	119615488	85078016	32433168	33184
264	7.461381	119615488	85078016	37371848	33184
265	10.800788	119615488	85078016	26914384	33184
266	8.359939	119615488	85078016	32574096	33184
267	9.095752	119615488	85078016	38597848	33184
268	11.752243	119615488	85078016	29056768	33184
269	10.091271	119615488	85078016	35814240	33184
270	13.306649	119615488	85078016	27382096	33184
271	11.275814	119615488	85078016	34880144	33184
272	14.650057	119615488	85078016	27329072	33184
273	12.274203	119615488	85078016	35565120	33184
274	15.543233	119615488	85078016	28659784	33184
275	13.4327	119615488	85078016	37648024	33184
276	16.718547	119615488	85078016	31232376	33184
277	14.450457	119615488	85078016	40968872	33184
278	17.401113	119615488	85078016	34869448	33184
279	18.635323	119615488	85078016	29987120	33184
280	16.371295	119615488	85078016	40857752	33184
281	18.844217	119615488	85078016	35898584	33184
282	20.358814	119615488	85078016	32007424	33184
283	21.352417	119615488	85078016	29020424	33184
284	18.335133	119615488	85078016	41440904	33184
285	21.291033	119615488	85078016	37983416	33184
286	22.415034	119615488	85078016	35416160	33184
287	23.203597	119615488	85078016	33541256	33184
288	24.035586	119615488	85078016	32346600	33184
289	24.949832	119615488	85078016	31709360	33184
290	25.627725	119615488	85078016	31585304	33184
291	27.541559	119615488	85078016	31874616	33184
292	26.876786	119615488	85078016	32537424	33184
293	27.43826	119615488	85078016	33479096	33184
294	28.648987	119615488	85078016	34734448	33184
295	28.541303	119615488	85078016	36206496	33184
296	28.804786	119615488	85078016	37869240	33184
297	28.871513	119615488	85078016	39734280	33184
298	29.416355	119615488	85078016	41760072	33184
299	30.338085	119615488	85078016	43916120	33184
300	35.21127	119615488	85078016	31981728	33184
301	32.783372	119615488	85078016	36326168	33184
302	1.26419	119615488	85078016	40779712	33184
303	1.838801	119615488	85078016	42001280	33184
304	2.450881	119615488	85078016	43634656	33184
305	5.564797	119615488	85078016	29378120	33184
306	3.693673	119615488	85078016	31832160	33184
307	4.305754	119615488	85078016	34699464	33184
308	5.095206	119615488	85078016	37982128	33184
309	5.959922	119615488	85078016	41680576	33184
310	8.601494	119615488	85078016	29730320	33184
311	6.820713	119615488	85078016	34263368	33184
312	7.543239	119615488	85078016	39215528	33184
313	11.486624	119615488	85078016	28897968	33184
314	8.883385	119615488	85078016	34692200	33184
315	9.174425	119615488	85078016	40909616	33184
316	12.628469	119615488	85078016	31641552	33184
317	10.935833	119615488	85078016	38708304	33184
318	13.915783	119615488	85078016	30582424	33184
319	11.984199	119615488	85078016	38508880	33184
320	15.721248	119615488	85078016	31258320	33184
321	13.216179	119615488	85078016	40041232	33184
322	16.580449	119615488	85078016	33465504	33184
323	14.261419	119615488	85078016	43114504	33184
324	18.213086	119615488	85078016	37005552	33184
325	19.083568	119615488	85078016	32155960	33184
326	16.640843	119615488	85078016	43108856	33184
327	20.350676	119615488	85078016	38286696	33184
328	21.008037	119615488	85078016	34573152	33184
329	22.496563	119615488	85078016	31802704	33184
330	19.340714	119615488	85078016	44514808	33184
331	21.989508	119615488	85078016	41316112	33184
332	23.44267	119615488	85078016	39005056	33184
333	24.799321	119615488	85078016	37433024	33184
334	24.941612	119615488	85078016	36563000	33184
335	26.357169	119615488	85078016	36249408	33184
336	26.237985	119615488	85078016	36442384	33184
337	27.147933	119615488	85078016	37059664	33184
338	28.344777	119615488	85078016	38047744	33184
339	28.39353	119615488	85078016	39379008	33184
340	28.918405	119615488	85078016	40978568	33184
341	30.348048	119615488	85078016	42825080	33184
342	30.309795	119615488	85078016	44862064	33184
343	35.46939	119615488	85078016	32988832	33184
344	33.186255	119615488	85078016	37332680	33184
345	33.131593	119615488	85078016	41562768	33184
346	33.394879	119615488	85078016	45674688	33184
347	38.137927	119615488	85078016	35540208	33184
348	35.598651	119615488	85078016	41392864	33184
349	40.564035	119615488	85078016	33295760	33184
350	39.761752	119615488	85078016	42668232	33184
351	42.11674	119615488	85078016	35970376	33184
352	1.457536	119615488	85078016	46620200	33184
353	2.234281	119615488	85078016	48025912	33184
354	2.811822	119615488	85078016	49902360	33184
355	3.564185	119615488	85078016	52251088	33184
356	6.893766	119615488	85078016	38713656	33184
357	5.03616	119615488	85078016	42010312	33184
358	5.715295	119615488	85078016	45790880	33184
359	6.359563	119615488	85078016	50056768	33184
360	9.977522	119615488	85078016	38705568	33184
361	7.846342	119615488	85078016	43955384	33184
362	8.487678	119615488	85078016	49698472	33184
363	12.027462	119615488	85078016	39894264	33184
364	9.974152	119615488	85078016	46630944	33184
365	13.860192	119615488	85078016	38244424	33184
366	11.514709	119615488	85078016	45973144	33184
367	15.620307	119615488	85078016	38654040	33184
368	12.829069	119615488	85078016	47385832	33184
369	16.703051	119615488	85078016	40899208	33184
370	14.365581	119615488	85078016	50638992	33184
371	18.112811	119615488	85078016	44717320	33184
372	19.752118	119615488	85078016	40112048	33184
373	16.857022	119615488	85078016	51365664	33184
374	20.374842	119615488	85078016	46878376	33184
375	21.688164	119615488	85078016	43534888	33184
376	22.783035	119615488	85078016	41146512	33184
377	24.242812	119615488	85078016	39611440	33184
378	25.166353	119615488	85078016	38795600	33184
379	21.616398	119615488	85078016	53126400	33184
380	25.303323	119615488	85078016	51533616	33184
381	25.527725	119615488	85078016	50660128	33184
382	27.315111	119615488	85078016	50425368	33184
383	27.948376	119615488	85078016	50758768	33184
384	28.226665	119615488	85078016	51544840	33184
385	28.959889	119615488	85078016	52763288	33184
386	34.522375	119615488	85078016	40187624	33184
387	32.176419	119615488	85078016	44001744	33184
388	32.430915	119615488	85078016	47877352	33184
389	32.224186	119615488	85078016	51749312	33184
390	38.03862	119615488	85078016	41610472	33184
391	37.697341	119615488	85078016	49747120	33184
392	35.216377	119615488	85078016	55525568	33184
393	40.048754	119615488	85078016	46689992	33184
394	37.235552	119615488	85078016	53739096	33184
395	42.381859	119615488	85078016	46496488	33184
396	43.99115	119615488	85078016	57305568	33184
397	55.223122	119615488	85078016	51383816	33184
398	52.084519	116731904	81932288	22595720	33184
399	40.473899	116731904	81932288	34880400	33184
400	40.745231	116731904	81932288	30082808	33184
401	42.433047	116731904	81932288	26663288	33184
402	1.716553	116731904	81932288	28395408	33184
403	2.48477	116731904	81932288	30027384	33184
404	3.31097	116731904	81932288	32200080	33184
405	4.16252	116731904	81932288	34919032	33184
406	5.237999	116731904	81932288	38185808	33184
407	8.412145	116731904	81932288	27898248	33184
408	6.298163	116731904	81932288	32263280	33184
409	7.523534	116731904	81932288	37184520	33184
410	8.835688	116731904	81932288	27053808	33184
411	9.024394	116731904	81932288	33076592	33184
412	9.644014	116731904	81932288	39653896	33184
413	11.266202	116731904	81932288	30677064	33184
414	11.089649	116731904	81932288	38370656	33184
415	12.912012	116731904	81932288	30712472	33184
416	12.935929	116731904	81932288	39522176	33184
417	14.344524	116731904	81932288	32823768	33184
418	15.836557	116731904	81932288	27576192	33184
419	15.669059	116731904	81932288	38074520	33184
420	17.031482	116731904	81932288	33255504	33184
421	18.583743	116731904	81932288	29661592	33184
422	17.663967	116731904	81932288	41856488	33184
423	19.496638	116731904	81932288	38220416	33184
424	20.564815	116731904	81932288	35645408	33184
425	21.29745	116731904	81932288	33984496	33184
426	22.446192	116731904	81932288	33138304	33184
427	23.837899	116731904	81932288	33011912	33184
428	24.590864	116731904	81932288	33462568	33184
429	25.309563	116731904	81932288	34425968	33184
430	26.181224	116731904	81932288	35838504	33184
431	27.00893	116731904	81932288	37640720	33184
432	27.308165	116731904	81932288	39770472	33184
433	27.901546	116731904	81932288	42192008	33184
434	31.258087	116731904	81932288	30707200	33184
435	30.732994	116731904	81932288	35557088	33184
436	30.450674	116731904	81932288	40317736	33184
437	34.104164	116731904	81932288	31085256	33184
438	35.890729	116731904	81932288	40055440	33184
439	36.741684	116731904	81932288	32941672	33184
440	37.308416	116731904	81932288	43051000	33184
441	38.596911	116731904	81932288	36969120	33184
442	38.964706	116731904	81932288	48268368	33184
443	39.149579	116731904	81932288	42958144	33184
444	46.063553	116731904	81932288	42815176	33184
445	41.510497	116731904	81932288	55805776	33184
446	42.546481	116731904	81932288	52038648	33184
447	49.202938	117542912	82980864	53803848	33184
448	62.482013	121327616	86650880	55978272	33184
449	59.357563	121327616	86650880	28836328	33184
450	50.154652	121327616	86650880	32178048	33184
451	50.585065	121327616	86650880	36061912	33184
452	1.799711	121327616	86650880	41099352	33184
453	2.654645	121327616	86650880	42911184	33184
454	3.737375	121327616	86650880	45329288	33184
455	4.421779	121327616	86650880	48354808	33184
456	8.579215	121597952	86650880	38246536	33184
457	6.456372	121597952	86650880	42491120	33184
458	7.351447	121597952	86650880	47347064	33184
459	9.363807	121597952	86650880	37509016	33184
460	8.826514	121597952	86650880	43599208	33184
461	9.739274	121597952	86650880	50300192	33184
462	11.173426	121597952	86650880	41285032	33184
463	11.71953	121597952	86650880	49218440	33184
464	13.112624	121597952	86650880	41594568	33184
465	13.763885	121597952	86650880	50763440	33184
466	15.309208	121597952	86650880	44147040	33184
467	16.648341	121597952	86650880	39023616	33184
468	16.798879	121597952	86650880	50060528	33184
469	17.824823	121597952	86650880	45395184	33184
470	19.313109	121597952	86650880	41998000	33184
471	20.29175	121597952	86650880	39719704	33184
472	22.098899	121597952	86650880	38392656	33184
473	23.354375	121597952	86650880	37882320	33184
474	24.508701	121597952	86650880	38041368	33184
475	25.234971	121597952	86650880	38821192	33184
476	26.068776	121597952	86650880	40137416	33184
477	26.377283	121597952	86650880	41931544	33184
478	27.15113	121597952	86650880	44090760	33184
479	27.425523	121597952	86650880	46572536	33184
480	28.291693	121597952	86650880	49351104	33184
481	31.404971	121597952	86650880	38419480	33184
482	33.37959	121597952	86650880	45878104	33184
483	31.130719	121597952	86650880	51149680	33184
484	34.636436	121597952	86650880	42355728	33184
485	36.464017	121597952	86650880	51730216	33184
486	37.054359	121597952	86650880	44976496	33184
487	39.799638	121597952	86650880	55658952	33184
488	39.26626	121597952	86650880	49932784	33184
489	40.41954	121597952	86650880	61895528	33184
490	40.245987	121597952	86650880	56869160	33184
491	41.929468	121597952	86650880	53423232	33184
492	47.773468	123219968	88748032	54698088	33184
493	51.834118	125382656	90845184	69144272	33184
494	62.086654	122761216	88223744	23835600	33184
495	49.519993	122761216	88223744	26988944	33184
496	51.290484	122761216	88223744	30724744	33184
497	51.650282	122761216	88223744	35132256	33184
498	53.537781	123031552	88223744	40215936	33184
499	53.714668	123572224	88748032	45950664	33184
500	54.198256	123572224	88748032	52352000	33184
501	55.667729	123572224	88748032	59396664	33184
502	9.268775	124383232	89796608	55145728	33184
503	3.502869	124383232	89796608	57141768	33184
504	4.600733	124383232	89796608	59810328	33184
505	5.452907	124383232	89796608	63142792	33184
506	7.577298	124383232	89796608	67154032	33184
507	16.996352	126275584	91893760	57430096	33184
508	17.80454	122605568	88223744	20187200	33184
509	9.287653	122605568	88223744	26222688	33184
510	10.00571	122605568	88223744	32918784	33184
511	11.341605	122605568	88223744	24139056	33184
512	11.935325	122605568	88223744	32194184	33184
513	13.625693	122605568	88223744	24880736	33184
514	13.709933	122605568	88223744	34293944	33184
515	15.344817	122605568	88223744	28062544	33184
516	17.227674	122605568	88223744	23389248	33184
517	17.142119	122605568	88223744	34852824	33184
518	18.533182	122605568	88223744	30597192	33184
519	19.530937	122605568	88223744	27641512	33184
520	21.238011	122605568	88223744	25749936	33184
521	23.007428	122605568	88223744	24806736	33184
522	23.725107	122605568	88223744	24696184	33184
523	24.919161	122605568	88223744	25310728	33184
524	25.661174	122605568	88223744	26529368	33184
525	26.498575	122605568	88223744	28266040	33184
526	27.282851	122605568	88223744	30433136	33184
527	28.234455	122605568	88223744	33024992	33184
528	31.935883	122605568	88223744	22045200	33184
529	33.38864	122605568	88223744	29390784	33184
530	31.815741	122605568	88223744	34595856	33184
531	35.117803	122605568	88223744	25970272	33184
532	37.115146	122605568	88223744	35410536	33184
533	37.51326	122605568	88223744	28910800	33184
534	38.689861	122605568	88223744	39776352	33184
535	39.850806	122605568	88223744	34305168	33184
536	40.949817	122605568	88223744	46620208	33184
537	41.969196	122605568	88223744	41967952	33184
538	42.285948	122605568	88223744	38814096	33184
539	48.38916	122605568	88223744	40627376	33184
540	49.31193	123416576	88748032	43047064	33184
541	50.123149	123686912	88748032	46149360	33184
542	51.314452	123686912	88748032	49964072	33184
543	52.865687	123686912	88748032	54508504	33184
544	68.552408	126390272	91893760	59777840	33184
545	62.498168	124293120	89796608	33278136	33184
546	56.524345	124293120	89796608	39989632	33184
547	60.896632	124293120	89796608	34833912	33184
548	57.025298	124293120	89796608	42882344	33184
549	58.051901	124833792	89796608	51684088	33184
550	63.552763	125104128	90320896	48625496	33184
551	60.554744	125104128	90320896	58864264	33184
552	2.449139	125915136	91369472	57917496	33184
553	3.571051	125915136	91369472	60097568	33184
554	5.337347	125915136	91369472	63006544	33184
555	5.948024	125915136	91369472	66645704	33184
556	12.380445	128077824	93466624	57105920	33184
557	8.501846	128077824	93466624	62223312	33184
558	10.481202	128077824	93466624	68081144	33184
559	19.828946	128077824	93466624	58871608	33184
560	20.250808	125456384	90845184	23808552	33184
561	12.114832	125456384	90845184	31897680	33184
562	14.079123	125456384	90845184	24826008	33184
563	14.183289	125456384	90845184	34407640	33184
564	15.723085	125456384	90845184	28536344	33184
565	17.680502	125456384	90845184	24200512	33184
566	17.374461	125456384	90845184	36030576	33184
567	18.973341	125456384	90845184	32145736	33184
568	21.138579	125456384	90845184	29572304	33184
569	21.828015	125456384	90845184	28082672	33184
570	23.079756	125456384	90845184	27579744	33184
571	24.939284	125456384	90845184	27888888	33184
572	25.229286	125456384	90845184	28947296	33184
573	26.363893	125456384	90845184	30578048	33184
574	27.116321	125456384	90845184	32746520	33184
575	28.500884	125456384	90845184	35377704	33184
576	31.929617	125456384	90845184	24335472	33184
577	31.493687	125456384	90845184	29721720	33184
578	31.559703	125456384	90845184	35085408	33184
579	35.800065	125456384	90845184	26437904	33184
580	37.310786	125456384	90845184	36498080	33184
581	38.342342	125456384	90845184	30132968	33184
582	39.635356	125456384	90845184	41729160	33184
583	40.749934	125456384	90845184	36458920	33184
584	41.693786	125456384	90845184	32857816	33184
585	47.361209	125456384	90845184	34050368	33184
586	44.299784	125456384	90845184	48557144	33184
587	44.231202	125456384	90845184	46053272	33184
588	45.658596	125456384	90845184	44863232	33184
589	52.419886	125456384	90845184	49240896	33184
590	52.785729	125726720	90845184	54216912	33184
591	55.74732	125726720	90845184	60056344	33184
592	60.365486	125726720	90845184	53993480	33184
593	73.960873	127348736	92942336	61404440	33184
594	64.527873	124727296	90320896	37263240	33184
595	63.981371	124727296	90320896	33754296	33184
596	59.289863	124727296	90320896	43451944	33184
597	65.084991	124727296	90320896	41357024	33184
598	62.069956	125267968	90320896	52651832	33184
599	69.033432	125808640	90845184	52162928	33184
600	64.805335	125808640	90845184	65027400	33184
601	76.874409	127971328	93466624	66126720	33184
602	2.42849	129941504	95563776	36370032	33184
603	7.780729	129941504	95563776	26099768	33184
604	4.946611	129941504	95563776	29281328	33184
605	6.020651	129941504	95563776	33261160	33184
606	6.98437	129941504	95563776	38041040	33184
607	10.107691	129941504	95563776	28910616	33184
608	9.386939	129941504	95563776	35293128	33184
609	11.562559	129941504	95563776	26837968	33184
610	12.05373	129941504	95563776	34838592	33184
611	14.086831	129941504	95563776	28079968	33184
612	14.443918	129941504	95563776	37691928	33184
613	16.409934	129941504	95563776	32139496	33184
614	17.715035	129941504	95563776	28152520	33184
615	18.047559	129941504	95563776	40187288	33184
616	19.371131	129941504	95563776	36738744	33184
617	21.159788	129941504	95563776	34575880	33184
618	23.007096	129941504	95563776	33510368	33184
619	23.872274	129941504	95563776	33432376	33184
620	24.927801	129941504	95563776	34189896	33184
621	25.93252	129941504	95563776	35690528	33184
622	27.036893	129941504	95563776	37782536	33184
623	28.209293	129941504	95563776	40376720	33184
624	32.579398	129941504	95563776	29406872	33184
625	33.743481	129941504	95563776	37257928	33184
626	31.970141	129941504	95563776	43027968	33184
627	35.59087	129941504	95563776	34594352	33184
628	37.725189	129941504	95563776	44925704	33184
629	38.595627	129941504	95563776	38861352	33184
630	44.419269	129941504	95563776	38220696	33184
631	40.993973	129941504	95563776	50863096	33184
632	41.967894	129941504	95563776	47098024	33184
633	49.0187	129941504	95563776	48919456	33184
634	50.353613	130482176	95563776	51565904	33184
635	51.509856	130482176	95563776	54902984	33184
636	52.750213	130482176	95563776	59141520	33184
637	73.597368	132644864	98185216	64233304	33184
638	56.676021	124256256	89796608	36359208	33184
639	59.88191	124256256	89796608	30555568	33184
640	55.95371	124256256	89796608	38095464	33184
641	57.958703	124256256	89796608	46481976	33184
642	63.43586	124256256	89796608	43083864	33184
643	60.052189	124796928	89796608	53155224	33184
644	61.163012	124796928	89796608	64037784	33184
645	68.234065	125067264	90320896	63148088	33184
646	95.935655	128696320	95563776	32687240	33184
647	69.894216	130043904	95563776	32841784	33184
648	66.810125	130043904	95563776	47147136	33184
649	72.296602	130043904	95563776	49693616	33184
650	74.599226	130043904	95563776	53141136	33184
651	74.453741	130314240	95563776	57394240	33184
652	2.559108	130314240	95563776	63340216	33184
653	3.786902	130314240	95563776	65908744	33184
654	5.251722	130314240	95563776	69335696	33184
655	10.182231	130314240	95563776	59942680	33184
656	8.426006	130314240	95563776	65090672	33184
657	9.687441	130314240	95563776	71104912	33184
658	13.293014	130314240	95563776	62427688	33184
659	15.167971	130314240	95563776	70168120	33184
660	26.518955	125595648	90845184	17166360	33184
661	14.654246	125595648	90845184	26641792	33184
662	17.159803	125595648	90845184	21919344	33184
663	18.411262	125595648	90845184	18260216	33184
664	18.026358	125595648	90845184	30343296	33184
665	20.057183	125595648	90845184	27127752	33184
666	21.628138	125595648	90845184	25209728	33184
667	23.420531	125595648	90845184	24447872	33184
668	24.556665	125595648	90845184	24679408	33184
669	25.780595	125595648	90845184	25729736	33184
670	26.928416	125595648	90845184	27485784	33184
671	27.97016	125595648	90845184	29885584	33184
672	32.265821	125595648	90845184	18937888	33184
673	34.165573	125595648	90845184	26565560	33184
674	32.864419	125595648	90845184	32141800	33184
675	35.964771	125595648	90845184	23972640	33184
676	38.59029	125865984	90845184	34201992	33184
677	39.047452	125865984	90845184	28228320	33184
678	40.872778	125865984	90845184	40222696	33184
679	41.074093	125865984	90845184	35459800	33184
680	42.842626	125865984	90845184	32373480	33184
681	48.962102	125865984	90845184	34415040	33184
682	49.758541	125865984	90845184	37280176	33184
683	51.010752	125865984	90845184	40995840	33184
684	52.559565	125865984	90845184	45627272	33184
685	58.888817	125865984	90845184	51129160	33184
686	76.408158	118001664	84553728	31561024	33184
687	57.532283	119353344	84553728	38583600	33184
688	62.79024	119353344	84553728	34221776	33184
689	58.650824	119353344	84553728	43338584	33184
690	60.494288	119353344	84553728	53316424	33184
691	67.966256	119353344	84553728	51667816	33184
692	68.247674	119894016	85078016	50939304	33184
693	67.100705	123678720	89272320	63649744	33184
694	98.804914	125734912	92418048	35571360	33184
695	72.049122	127082496	92418048	36738656	33184
696	72.490205	127082496	92418048	39659152	33184
697	73.716772	127082496	92418048	43499056	33184
698	75.181275	127082496	92418048	48209552	33184
699	76.761749	127082496	92418048	53865120	33184
700	80.581332	127623168	92942336	60396840	33184
701	110.270409	127819776	95039488	37427512	33184
702	7.142607	129978368	95039488	33175376	33184
703	5.012697	129978368	95039488	35935408	33184
704	5.565129	129978368	95039488	39615832	33184
705	7.163365	129978368	95039488	44213632	33184
706	10.910005	129978368	95039488	35564592	33184
707	9.742274	129978368	95039488	42004360	33184
708	11.931531	129978368	95039488	34003544	33184
709	12.901293	129978368	95039488	42293992	33184
710	14.94502	129978368	95039488	36011656	33184
711	15.352079	129978368	95039488	46170040	33184
712	17.394028	129978368	95039488	41263600	33184
713	19.338323	129978368	95039488	37935248	33184
714	22.001463	129978368	95039488	36040864	33184
715	23.346395	129978368	95039488	35348744	33184
716	24.682359	129978368	95039488	35731840	33184
717	26.278459	129978368	95039488	36981584	33184
718	27.330306	129978368	95039488	39037480	33184
719	28.691344	129978368	95039488	41783096	33184
720	28.888926	129978368	95039488	45113328	33184
721	30.247877	129978368	95039488	48897776	33184
722	33.816623	129978368	95039488	39055544	33184
723	33.835322	129978368	95039488	45618240	33184
724	37.129584	129978368	95039488	38578008	33184
725	38.899405	129978368	95039488	49620152	33184
726	40.207497	129978368	95039488	44455352	33184
727	46.224256	129978368	95039488	44852576	33184
728	42.950441	129978368	95039488	58659000	33184
729	44.660876	129978368	95039488	55793712	33184
730	45.296256	129978368	95039488	54404816	33184
731	51.92514	129978368	95039488	58579240	33184
732	53.756126	129978368	95039488	63715240	33184
733	55.453853	129978368	95039488	69774208	33184
734	66.663897	132681728	98185216	64186424	33184
735	81.24292	129277952	94515200	23980688	33184
736	59.615486	129277952	94515200	33071392	33184
737	60.294773	129277952	94515200	42985792	33184
738	66.144357	129277952	94515200	41337896	33184
739	63.220966	129277952	94515200	53194728	33184
740	69.271895	129277952	94515200	53481992	33184
741	69.954348	129277952	94515200	54757144	33184
742	68.606763	129277952	94515200	69544816	33184
743	103.670473	126906368	91893760	28027544	33184
744	75.212386	126906368	91893760	32296880	33184
745	75.62028	126906368	91893760	37510352	33184
746	76.898446	126906368	91893760	43596416	33184
747	79.004264	126906368	91893760	50883392	33184
748	79.178361	126906368	91893760	58933824	33184
749	87.706759	128798720	93990912	68134312	33184
750	107.913368	129208320	94515200	33020128	33184
751	83.799186	129208320	94515200	44062248	33184
752	2.936204	129208320	94515200	44605232	33184
753	4.356968	129208320	94515200	47594576	33184
754	5.875554	129208320	94515200	51578112	33184
755	10.069633	129208320	94515200	42700264	33184
756	9.078171	129208320	94515200	48683320	33184
757	10.514172	129208320	94515200	55670264	33184
758	12.294314	129208320	94515200	47610888	33184
759	13.277296	129208320	94515200	56605048	33184
760	15.118726	129208320	94515200	50142080	33184
761	17.03933	129208320	94515200	45543016	33184
762	19.218611	129208320	94515200	42657728	33184
763	19.439468	129208320	94515200	55688848	33184
764	21.168013	129208320	94515200	53375120	33184
765	22.99876	129208320	94515200	52431880	33184
766	24.545	129208320	94515200	52634704	33184
767	26.138552	129208320	94515200	53780576	33184
768	27.246297	129208320	94515200	55776248	33184
769	31.845312	129208320	94515200	44438952	33184
770	31.910872	129208320	94515200	49844072	33184
771	32.034207	129208320	94515200	55450128	33184
772	35.672445	129208320	94515200	47277432	33184
773	39.230172	129208320	94515200	58025368	33184
774	39.553411	129208320	94515200	52412024	33184
775	45.647449	129208320	94515200	52609448	33184
776	47.144949	129208320	94515200	53647880	33184
777	43.682298	129208320	94515200	68331232	33184
778	44.754535	129208320	94515200	66383472	33184
779	60.216745	130830336	96088064	70648504	33184
780	71.721327	127492096	92942336	28602760	33184
781	55.075369	127492096	92942336	34900584	33184
782	56.100898	127492096	92942336	42078160	33184
783	61.970372	127492096	92942336	37761792	33184
784	59.13029	127492096	92942336	47074488	33184
785	60.47048	127492096	92942336	57333224	33184
786	66.194007	127492096	92942336	56140608	33184
787	72.954995	127762432	92942336	55966760	33184
788	93.780775	124145664	89796608	25941296	33184
789	66.170603	124145664	89796608	40482992	33184
790	72.272177	124145664	89796608	43441960	33184
791	74.460418	124145664	89796608	47370944	33184
792	75.295197	124145664	89796608	52432152	33184
793	76.817298	124145664	89796608	58508416	33184
794	82.226376	126578688	91893760	65568864	33184
795	111.676754	131563520	97136640	29800296	33184
796	81.677212	131563520	97136640	39123376	33184
797	83.5191	131563520	97136640	49293104	33184
798	89.091072	131563520	97136640	48091952	33184
799	86.386147	131563520	97136640	60492448	33184
800	95.007731	131833856	97136640	61310264	33184
801	117.248898	126566400	93990912	28288880	33184
802	3.16217	128454656	93990912	31100256	33184
803	4.665191	128454656	93990912	34270296	33184
804	6.277715	128454656	93990912	38520328	33184
805	10.47996	128454656	93990912	29952200	33184
806	9.508094	128454656	93990912	36316528	33184
807	11.008626	128454656	93990912	43730168	33184
808	13.217396	128454656	93990912	36006288	33184
809	15.51411	128454656	93990912	30306544	33184
810	15.797243	128454656	93990912	40916296	33184
811	18.003781	128454656	93990912	36684408	33184
812	20.182268	128454656	93990912	34133824	33184
813	21.989366	128454656	93990912	33019344	33184
814	24.155542	128454656	93990912	33125256	33184
815	25.543869	128454656	93990912	34286072	33184
816	27.161444	128454656	93990912	36380256	33184
817	27.860608	128454656	93990912	39251024	33184
818	29.342736	128454656	93990912	42797552	33184
819	33.706974	128454656	93990912	32984368	33184
820	36.595658	128454656	93990912	41890264	33184
821	37.724125	128454656	93990912	35336400	33184
822	39.778883	128454656	93990912	46367944	33184
823	40.53035	128454656	93990912	41438056	33184
824	45.630975	128454656	93990912	42078736	33184
825	43.337238	128454656	93990912	56237064	33184
826	43.926185	128454656	93990912	53809008	33184
827	46.003048	128454656	93990912	53039208	33184
828	52.632585	128454656	93990912	57992096	33184
829	54.904416	128454656	93990912	63919744	33184
830	66.109745	128995328	94515200	58391240	33184
831	77.483494	127594496	94515200	35218448	33184
832	63.396533	128942080	94515200	31047256	33184
833	60.824182	128942080	94515200	41328912	33184
834	66.316815	128942080	94515200	40183888	33184
835	63.886507	128942080	94515200	52707672	33184
836	69.900385	128942080	94515200	53648960	33184
837	71.507193	128942080	94515200	55780784	33184
838	77.032019	130023424	95039488	59009696	33184
839	97.326088	128069632	93466624	31063416	33184
840	76.225943	128069632	93466624	36595416	33184
841	77.329026	128069632	93466624	43107560	33184
842	78.833077	128069632	93466624	50791200	33184
843	81.740229	128069632	93466624	59502896	33184
844	87.837129	128069632	93466624	56778104	33184
845	112.977235	126517248	93990912	22534864	33184
846	88.531492	128405504	93990912	33617592	33184
847	87.099666	128675840	93990912	46812592	33184
848	93.275969	128675840	93990912	48517984	33184
849	95.96674	128675840	93990912	51399192	33184
850	93.19928	128675840	93990912	67931552	33184
851	127.017286	125698048	91369472	26649472	33184
852	3.35172	125968384	91369472	34032624	33184
853	4.91609	125968384	91369472	37417760	33184
854	6.58858	125968384	91369472	41936112	33184
855	11.429472	125968384	91369472	33603352	33184
856	10.123737	125968384	91369472	40388424	33184
857	12.858136	126238720	91369472	32851392	33184
858	13.695299	126238720	91369472	41902960	33184
859	15.789611	126238720	91369472	36162576	33184
860	18.30473	126238720	91369472	32329312	33184
861	18.748433	126238720	91369472	44804328	33184
862	20.576367	126238720	91369472	42122608	33184
863	22.194664	126238720	91369472	40955760	33184
864	24.564893	126238720	91369472	41073416	33184
865	26.013658	126238720	91369472	42344600	33184
866	27.871347	126238720	91369472	44611688	33184
867	31.469985	126238720	91369472	33603400	33184
868	35.29926	126238720	91369472	41713928	33184
869	33.110673	126238720	91369472	47977152	33184
870	37.18883	126238720	91369472	40230584	33184
871	40.46055	126238720	91369472	35598360	33184
872	41.422052	126238720	91369472	48151688	33184
873	43.023411	126238720	91369472	44676448	33184
874	49.38005	126238720	91369472	46887728	33184
875	50.522875	126238720	91369472	50315936	33184
876	53.124994	126238720	91369472	54754608	33184
877	59.939601	126509056	91893760	60416288	33184
878	78.483819	122687488	88223744	24106384	33184
879	56.935516	122687488	88223744	32104128	33184
880	59.129642	122687488	88223744	41215312	33184
881	63.952237	122687488	88223744	38936592	33184
882	62.993475	122687488	88223744	50436480	33184
883	69.246947	122687488	88223744	50456504	33184
884	66.927848	122687488	88223744	64304432	33184
885	78.064891	124579840	89796608	66763832	33184
886	97.00304	124788736	89796608	26158448	33184
887	71.039669	124788736	89796608	43416608	33184
888	75.804608	124788736	89796608	49281184	33184
889	84.306247	124788736	89796608	43789912	33184
890	81.401174	124788736	89796608	52019160	33184
891	81.477495	124788736	89796608	61377480	33184
892	111.159555	124604416	91369472	26019096	33184
893	86.444255	125952000	91369472	37013304	33184
894	91.147968	125952000	91369472	37363256	33184
895	90.269716	125952000	91369472	51509080	33184
896	95.120458	125952000	91369472	54249856	33184
897	101.180904	126222336	91369472	58100800	33184
898	124.782241	126124032	91369472	33750144	33184
899	100.378806	126124032	91369472	39983184	33184
900	101.479695	126124032	91369472	47442840	33184
901	103.297533	126124032	91369472	56117176	33184
902	3.658425	128557056	93990912	67098984	33184
903	5.528247	128557056	93990912	70668112	33184
904	11.281381	130449408	95563776	62005408	33184
905	9.929113	130449408	95563776	67968504	33184
906	11.668224	130449408	95563776	75117704	33184
907	15.71738	131260416	96612352	67800448	33184
908	25.332118	131260416	96612352	62100656	33184
909	22.529923	125493248	90845184	24891632	33184
910	19.44599	125493248	90845184	21332968	33184
911	21.217441	125493248	90845184	19467344	33184
912	23.352013	125493248	90845184	19052864	33184
913	26.012834	125493248	90845184	19926944	33184
914	27.857138	125493248	90845184	21951672	33184
915	27.949293	125493248	90845184	24819976	33184
916	29.923353	125493248	90845184	28492648	33184
917	33.476666	125493248	90845184	19092840	33184
918	36.148279	125493248	90845184	28297848	33184
919	38.133226	125493248	90845184	22133512	33184
920	39.898169	125493248	90845184	33672224	33184
921	41.010602	125493248	90845184	29306160	33184
922	47.111138	125493248	90845184	30662888	33184
923	49.817126	125493248	90845184	33128808	33184
924	50.525008	125493248	90845184	36825944	33184
925	53.548791	125493248	90845184	41750544	33184
926	55.735413	125493248	90845184	47883576	33184
927	57.824073	125763584	90845184	55225320	33184
928	86.569524	121569280	88748032	23983128	33184
929	60.797052	123731968	88748032	33532736	33184
930	61.354267	123731968	88748032	44526200	33184
931	67.446986	123731968	88748032	44209016	33184
932	69.02149	123731968	88748032	45126888	33184
933	67.489508	123731968	88748032	59775536	33184
934	73.820738	125083648	90320896	63131728	33184
935	76.73173	131031040	96612352	67664312	33184
936	102.177007	125063168	90320896	24134608	33184
937	79.019507	125063168	90320896	31319920	33184
938	81.30887	125063168	90320896	39560304	33184
939	82.916528	125063168	90320896	49067080	33184
940	88.403846	125063168	90320896	47270840	33184
941	86.676594	125333504	90320896	59230744	33184
942	122.113737	125382656	90845184	31534232	33184
943	89.701879	125382656	90845184	45963536	33184
944	96.311208	125382656	90845184	49146800	33184
945	98.100955	125382656	90845184	53555312	33184
946	98.624995	125652992	90845184	59052488	33184
947	107.73873	133492736	98709504	65847416	33184
948	127.44108	130580480	96088064	39574768	33184
949	106.344188	130580480	96088064	48819384	33184
950	112.601558	130580480	96088064	46824112	33184
951	108.345815	130580480	96088064	58701352	33184
952	4.072783	130850816	96088064	72987536	33184
953	12.771281	132743168	98185216	63862032	33184
954	8.22836	132743168	98185216	68868808	33184
955	14.861548	132743168	98185216	75130632	33184
956	26.893455	133824512	99233792	67779592	33184
957	15.330166	124387328	89796608	32237040	33184
958	15.963506	124387328	89796608	26889672	33184
959	16.95927	124387328	89796608	38196568	33184
960	18.914364	124387328	89796608	34566536	33184
961	21.239903	124387328	89796608	32646336	33184
962	23.74958	124387328	89796608	32183240	33184
963	25.787359	124387328	89796608	33109648	33184
964	27.183755	124387328	89796608	35193424	33184
965	29.029524	124387328	89796608	38208096	33184
966	33.293488	124387328	89796608	28166656	33184
967	36.076718	124387328	89796608	37142224	33184
968	37.814259	124387328	89796608	30658784	33184
969	41.173879	124387328	89796608	42193424	33184
970	41.086877	124387328	89796608	37860760	33184
971	48.378363	124387328	89796608	39277400	33184
972	51.645449	124387328	89796608	41890168	33184
973	52.382758	124387328	89796608	45777944	33184
974	53.118931	124387328	89796608	50949528	33184
975	55.38736	124387328	89796608	57394856	33184
976	57.146217	125198336	90320896	65092752	33184
977	65.636232	129794048	95039488	61564224	33184
978	89.786463	131170304	98185216	25746984	33184
979	62.503752	132517888	98185216	36547704	33184
980	68.719448	132788224	98185216	36756336	33184
981	66.566451	132788224	98185216	50913440	33184
982	73.253152	132788224	98185216	53785360	33184
983	74.810718	132788224	98185216	57906208	33184
984	75.956333	132788224	98185216	63360952	33184
985	77.536786	133058560	98709504	70091224	33184
986	102.058718	128839680	93990912	26991560	33184
987	82.948131	128839680	93990912	36528224	33184
988	87.509801	128839680	93990912	34617632	33184
989	87.321645	128839680	93990912	46524136	33184
990	91.800456	128839680	93990912	47139040	33184
991	95.412305	128839680	93990912	61631800	33184
992	117.462565	125665280	90845184	35550232	33184
993	98.709341	125665280	90845184	40124936	33184
994	101.202959	125665280	90845184	45908600	33184
995	100.942009	125665280	90845184	53079608	33184
996	105.186414	128098304	93466624	61463896	33184
997	137.758114	132505600	98185216	40315536	33184
998	107.247909	132505600	98185216	51437176	33184
999	114.114126	132505600	98185216	51259360	33184
1000	111.094753	132505600	98185216	64919864	33184
