x	Duration	RSS	HeapTotal	HeapUsed	External
0	NA	114806784	81408000	14507488	33184
1	0.276954	114806784	81408000	14559760	33184
2	0.222155	114806784	81408000	14627704	33184
3	0.246773	114806784	81408000	14720384	33184
4	0.296113	114806784	81408000	14839472	33184
5	0.682337	114806784	81408000	14986744	33184
6	0.433612	114806784	81408000	15162880	33184
7	0.674744	114806784	81408000	15369080	33184
8	0.56093	114806784	81408000	15606616	33184
9	0.665606	114806784	81408000	15881776	33184
10	0.679536	114806784	81408000	16187208	33184
11	0.725621	114806784	81408000	16527936	33184
12	0.976214	114806784	81408000	16905264	33184
13	0.871507	114806784	81408000	17320384	33184
14	0.943628	114806784	81408000	17774480	33184
15	1.214166	114806784	81408000	18268768	33184
16	1.131508	114806784	81408000	18804504	33184
17	1.197618	114806784	81408000	19384744	33184
18	1.344895	114806784	81408000	20014056	33184
19	1.526895	114806784	81408000	20684392	33184
20	1.132466	114806784	81408000	21401128	33184
21	1.198092	114806784	81408000	22166336	33184
22	1.506906	114806784	81408000	22981264	33184
23	2.396951	114806784	81408000	23849352	33184
24	1.787203	114806784	81408000	24768784	33184
25	1.45329	114806784	81408000	25738576	33184
26	1.90511	115073024	81408000	26762984	33184
27	1.708799	115073024	81408000	27862312	33184
28	1.978369	115073024	81408000	28999488	33184
29	1.757272	115073024	81408000	30194808	33184
30	2.725355	115073024	81408000	15223592	33184
31	1.952965	115073024	81408000	16537760	33184
32	2.353065	115073024	81408000	17917312	33184
33	2.102684	115073024	81408000	19363528	33184
34	2.194148	115073024	81408000	20874528	33184
35	2.349557	115073024	81408000	22450832	33184
36	2.37642	115073024	81408000	24094112	33184
37	2.985894	115073024	81408000	25807152	33184
38	2.56372	115073024	81408000	27587832	33184
39	2.891931	115073024	81408000	29441072	33184
40	2.959686	115073024	81408000	31363952	33184
41	4.128474	115073024	81408000	17161000	33184
42	2.947236	115073024	81408000	19231080	33184
43	3.082457	115073024	81408000	21376360	33184
44	3.928499	115073024	81408000	23603584	33184
45	3.269433	115073024	81408000	25907112	33184
46	3.37639	115073024	81408000	28290808	33184
47	3.494069	115073024	81408000	30756648	33184
48	5.188868	115073024	81408000	17094352	33184
49	3.790663	115073024	81408000	19727864	33184
50	4.398465	115073024	81408000	22450128	33184
51	3.949658	115073024	81408000	25255584	33184
52	0.285141	115073024	81408000	28065456	33184
53	0.420644	115073024	81408000	28330576	33184
54	0.53939	115073024	81408000	28686272	33184
55	0.670997	115073024	81408000	29133776	33184
56	0.800459	115073024	81408000	29674840	33184
57	1.161627	115073024	81408000	30310248	33184
58	1.064675	115073024	81408000	31041040	33184
59	1.202312	115073024	81408000	31868664	33184
60	2.376757	115073024	81408000	16518104	33184
61	1.616345	115073024	81408000	17543720	33184
62	1.858326	115073024	81408000	18669704	33184
63	2.40696	115073024	81408000	19897424	33184
64	2.112787	115073024	81408000	21235800	33184
65	2.060929	115073024	81408000	22670400	33184
66	2.457522	115073024	81408000	24210256	33184
67	2.515139	115073024	81408000	25859560	33184
68	2.492182	115073024	81408000	27615544	33184
69	2.900999	115073024	81408000	29480600	33184
70	2.810256	115073024	81408000	31456304	33184
71	4.181797	115073024	81408000	17294616	33184
72	3.545628	115073024	81408000	19494312	33184
73	3.496507	115073024	81408000	21808352	33184
74	3.43093	115073024	81408000	24237080	33184
75	3.66173	115073024	81408000	26781936	33184
76	3.768061	115073024	81408000	29444360	33184
77	3.940354	115073024	81408000	32225672	33184
78	5.469742	115073024	81408000	18763696	33184
79	4.315116	115073024	81408000	21786304	33184
80	4.449315	115073024	81408000	24931448	33184
81	5.158949	115073024	81408000	28202448	33184
82	4.930311	115073024	81408000	31596560	33184
83	6.805148	115073024	81408000	18840384	33184
84	5.286656	115073024	81408000	22496536	33184
85	5.727779	115073024	81408000	26285248	33184
86	6.239147	115073024	81408000	30202184	33184
87	6.993658	115073024	81408000	18253424	33184
88	6.164762	115073024	81408000	22435320	33184
89	6.105649	115073024	81408000	26751760	33184
90	6.237042	115073024	81408000	31204160	33184
91	7.84988	115073024	81408000	19805280	33184
92	7.036407	115073024	81408000	24538224	33184
93	6.85276	115073024	81408000	29412560	33184
94	8.527675	115073024	81408000	18701928	33184
95	7.763553	115073024	81408000	23864440	33184
96	7.499685	115073024	81408000	29171144	33184
97	9.024084	115073024	81408000	18930296	33184
98	8.614635	115073024	81408000	24530984	33184
99	8.306369	115073024	81408000	30281920	33184
100	9.615357	115073024	81408000	20389224	33184
101	8.746716	115073024	81408000	26441224	33184
102	0.47751	115073024	81408000	32637016	33184
103	0.694223	115073024	81408000	33095768	33184
104	0.913642	115073024	81408000	33709608	33184
105	2.027819	115073024	81408000	18319248	33184
106	1.359661	115073024	81408000	19247544	33184
107	1.5794	115073024	81408000	20334704	33184
108	1.79511	115073024	81408000	21581888	33184
109	2.377307	115073024	81408000	22990392	33184
110	2.264284	115073024	81408000	24563328	33184
111	2.487936	115073024	81408000	26299144	33184
112	2.800272	115073024	81408000	28200824	33184
113	2.952081	115073024	81408000	30267648	33184
114	3.418959	115073024	81408000	32503920	33184
115	4.435254	115073024	81408000	18874208	33184
116	3.675394	115073024	81408000	21447672	33184
117	4.136685	115073024	81408000	24191608	33184
118	4.209346	115073024	81408000	27110008	33184
119	4.486428	115073024	81408000	30202448	33184
120	4.658332	115073024	81408000	33469224	33184
121	6.075912	115073024	81408000	20763352	33184
122	5.447874	115073024	81408000	24383320	33184
123	5.420689	115073024	81408000	28181728	33184
124	5.896242	115073024	81408000	32160968	33184
125	7.119663	115073024	81408000	20341192	33184
126	6.674367	115073024	81408000	24682376	33184
127	7.244742	115073024	81408000	29206840	33184
128	6.733887	115073024	81408000	33915888	33184
129	8.427888	115073024	81408000	22620352	33184
130	7.274837	115073024	81408000	27702152	33184
131	7.521366	115073024	81408000	32972496	33184
132	8.994104	115073024	81408000	22368488	33184
133	8.516161	115073024	81408000	28021760	33184
134	8.416075	115073024	81408000	33870936	33184
135	9.829382	115073024	81408000	23747928	33184
136	8.945581	115073024	81408000	29987008	33184
137	10.750058	115073024	81408000	20776288	33184
138	9.714281	115073024	81408000	27406904	33184
139	9.758615	115073024	81408000	34235920	33184
140	11.134084	115073024	81408000	25075080	33184
141	10.967909	115073024	81408000	32304800	33184
142	12.144824	115073024	81408000	23833728	33184
143	11.25498	115073024	81408000	31470336	33184
144	12.716689	115073024	81408000	23522824	33184
145	11.770063	115073024	81408000	31573448	33184
146	13.317842	115073024	81408000	24049624	33184
147	12.505325	115073024	81408000	32519808	33184
148	14.022105	115073024	81408000	25295992	33184
149	12.962961	115073024	81408000	34187632	33184
150	14.727112	115073024	81408000	27199128	33184
151	16.137932	115073024	81408000	21347216	33184
152	0.730156	115073024	81408000	30944464	33184
153	1.220413	115073024	81408000	31592704	33184
154	1.296388	115073024	81408000	32459280	33184
155	1.614708	115073024	81408000	33545400	33184
156	1.917334	115073024	81408000	34852776	33184
157	2.247095	115073024	81408000	36382552	33184
158	3.957403	115073024	81408000	21828440	33184
159	2.908367	115073024	81408000	23805568	33184
160	3.253729	115073024	81408000	26009392	33184
161	3.571654	115073024	81408000	28440608	33184
162	4.100253	115073024	81408000	31099528	33184
163	4.238701	115073024	81408000	33987768	33184
164	5.918666	115073024	81408000	21144736	33184
165	4.869642	115073024	81408000	24495512	33184
166	5.186311	115073024	81408000	28079240	33184
167	5.873805	115073024	81408000	31898304	33184
168	5.896295	115073024	81408000	35955944	33184
169	7.634727	115073024	81408000	24020480	33184
170	6.657007	115073024	81408000	28551048	33184
171	6.9842	115073024	81408000	33320632	33184
172	8.897364	115073024	81408000	22476048	33184
173	7.844604	115073024	81408000	27727808	33184
174	8.24673	115073024	81408000	33222336	33184
175	9.787633	115073024	81408000	23114448	33184
176	8.907626	115073024	81408000	29098560	33184
177	9.233195	115073024	81408000	35329192	33184
178	10.650904	115073024	81408000	25696288	33184
179	9.826528	115073024	81408000	32424744	33184
180	12.061855	115073024	81408000	23696160	33184
181	10.774295	115073024	81408000	30933776	33184
182	12.886963	115073024	81408000	22903480	33184
183	11.319351	115073024	81408000	30658320	33184
184	13.822503	115073024	81408000	23205416	33184
185	12.533005	115073024	81408000	31485704	33184
186	14.431738	115073024	81408000	24472968	33184
187	13.066724	115073024	81408000	33277328	33184
188	14.715076	115073024	81408000	26568904	33184
189	13.815896	115073024	81408000	35902800	33184
190	15.414689	115073024	81408000	29376576	33184
191	16.721631	115073024	81408000	24008024	33184
192	14.888133	115073024	81408000	34146600	33184
193	17.368871	115073024	81408000	28691592	33184
194	17.935035	115073024	81408000	24245384	33184
195	15.976489	115073024	81408000	35198320	33184
196	18.603257	115073024	81408000	30428936	33184
197	20.844815	115073024	81408000	26624024	33184
198	18.079501	115073024	81408000	38407240	33184
199	19.27238	115073024	81408000	34108816	33184
200	20.287404	115073024	81408000	30658808	33184
201	21.225233	115073024	81408000	27951656	33184
202	0.878757	115073024	81408000	26007968	33184
203	1.270898	115073024	81408000	26852800	33184
204	1.666302	115073024	81408000	27985144	33184
205	2.092992	115073024	81408000	29398880	33184
206	2.675917	115073024	81408000	31099960	33184
207	2.931455	115073024	81408000	33088128	33184
208	3.383357	115073024	81408000	35364904	33184
209	3.868617	115073024	81408000	37931760	33184
210	5.832763	115073024	81408000	24571128	33184
211	4.792932	115073024	81408000	27722592	33184
212	4.998318	115073024	81408000	31167760	33184
213	5.462134	115073024	81408000	34908376	33184
214	6.085874	115073024	81408000	38945536	33184
215	7.770098	115073024	81408000	26936920	33184
216	6.73263	115073024	81408000	31568880	33184
217	7.370961	115073024	81408000	36500608	33184
218	9.53793	115073024	81408000	25722616	33184
219	8.067384	115073024	81408000	31259544	33184
220	8.556375	115073024	81408000	37102136	33184
221	10.675302	115073024	81408000	27155560	33184
222	9.562826	115073024	81408000	33606824	33184
223	11.879892	115073024	81408000	24745280	33184
224	10.89071	115073024	81408000	31813320	33184
225	10.920167	115073024	81408000	39189928	33184
226	12.829796	115073024	81408000	30519656	33184
227	12.198246	115073024	81408000	38522072	33184
228	13.91016	115073024	81408000	30587960	33184
229	12.831096	115073024	81408000	39223112	33184
230	15.139864	115073024	81408000	31834088	33184
231	15.766499	115073024	81408000	25760776	33184
232	14.321156	115073024	81408000	35352320	33184
233	16.384489	115073024	81408000	29456712	33184
234	15.110168	115073024	81408000	39700216	33184
235	17.116319	115073024	81408000	33916800	33184
236	17.970607	115073024	81408000	29217168	33184
237	20.369881	115073024	81408000	25476624	33184
238	17.254315	115073024	81408000	37026304	33184
239	19.182458	115073024	81408000	32906392	33184
240	20.415688	115073024	81408000	29697176	33184
241	21.480422	115073024	81408000	27230856	33184
242	19.514609	115073024	81408000	40106544	33184
243	21.825671	115073024	81408000	36956832	33184
244	21.646497	115073024	81408000	34580080	33184
245	22.399994	115073024	81408000	32833520	33184
246	23.286128	115073024	81408000	31699176	33184
247	24.475792	115073024	81408000	31068648	33184
248	24.877736	115073024	81408000	30854752	33184
249	25.410486	115073024	81408000	31030248	33184
250	26.01196	115073024	81408000	31525760	33184
251	26.137704	115073024	81408000	32312600	33184
252	1.091722	115073024	81408000	33567080	33184
253	1.557227	115073024	81408000	34604640	33184
254	2.06697	115073024	81408000	35990240	33184
255	2.560851	115073024	81408000	37725104	33184
256	3.291425	115073024	81408000	39811040	33184
257	5.9361	115073024	81408000	26080656	33184
258	4.347813	115073024	81408000	28871384	33184
259	5.049704	115073024	81408000	32016288	33184
260	5.139015	115073024	81408000	35517808	33184
261	5.879787	115073024	81408000	39375920	33184
262	8.007504	115073024	81408000	27471592	33184
263	6.805083	115073024	81408000	32046664	33184
264	7.223347	115073024	81408000	36985344	33184
265	9.998877	115073024	81408000	26527880	33184
266	8.531621	115073024	81408000	32187592	33184
267	8.869163	115073024	81408000	38211344	33184
268	11.476896	115073024	81408000	28670264	33184
269	9.909277	115073024	81408000	35427736	33184
270	12.956789	115073024	81408000	26995592	33184
271	11.82751	115073024	81408000	34493640	33184
272	14.021278	115073024	81408000	26942568	33184
273	12.607997	115073024	81408000	35178616	33184
274	15.154463	115073024	81408000	28273280	33184
275	13.50558	115073024	81408000	37261520	33184
276	16.139681	115073024	81408000	30845872	33184
277	14.652104	115073024	81408000	40582368	33184
278	16.965168	115073024	81408000	34482944	33184
279	18.257385	115073024	81408000	29600616	33184
280	16.289147	115073024	81408000	40471248	33184
281	18.862292	115073024	81408000	35512080	33184
282	19.810158	115073024	81408000	31620920	33184
283	21.415871	115073024	81408000	28633920	33184
284	18.998481	115073024	81408000	41054400	33184
285	21.073228	115073024	81408000	37596912	33184
286	21.918794	115073024	81408000	35029656	33184
287	23.064567	115073024	81408000	33154752	33184
288	23.692663	115073024	81408000	31960096	33184
289	24.933233	115073024	81408000	31322856	33184
290	25.345439	115073024	81408000	31198800	33184
291	26.817277	115073024	81408000	31488112	33184
292	26.831315	115073024	81408000	32150920	33184
293	26.852604	115073024	81408000	33092592	33184
294	27.681253	115073024	81408000	34338264	33184
295	28.020407	115073024	81408000	35810312	33184
296	28.211801	115073024	81408000	37473200	33184
297	29.984427	115073024	81408000	39356608	33184
298	28.905863	115073024	81408000	41382528	33184
299	29.723975	115073024	81408000	43538576	33184
300	34.022218	115073024	81408000	31604184	33184
301	31.849675	115073024	81408000	35948624	33184
302	1.26055	115073024	81408000	40402168	33184
303	1.84892	115073024	81408000	41623736	33184
304	2.724925	115073024	81408000	43257112	33184
305	5.144374	115073024	81408000	29000576	33184
306	3.884379	115073024	81408000	31454616	33184
307	4.486995	115073024	81408000	34321920	33184
308	5.125876	115073024	81408000	37604584	33184
309	5.49607	115073024	81408000	41303032	33184
310	8.444727	115073024	81408000	29352776	33184
311	6.731614	115073024	81408000	33885824	33184
312	7.319026	115073024	81408000	38837984	33184
313	11.450477	115073024	81408000	28519720	33184
314	9.090973	115073024	81408000	34313952	33184
315	9.188348	115073024	81408000	40531368	33184
316	12.245968	115073024	81408000	31263304	33184
317	10.672926	115073024	81408000	38330056	33184
318	13.626499	115073024	81408000	30204176	33184
319	12.197057	115073024	81408000	38130632	33184
320	15.143945	115073024	81408000	30880072	33184
321	13.021619	115073024	81408000	39662984	33184
322	16.18427	115073024	81408000	33087256	33184
323	14.798337	115073024	81408000	42736256	33184
324	17.212081	115073024	81408000	36627304	33184
325	18.42671	115073024	81408000	31777712	33184
326	16.614342	115073024	81408000	42730608	33184
327	19.104958	115073024	81408000	37908448	33184
328	20.212277	115073024	81408000	34194904	33184
329	22.198779	115073024	81408000	31424456	33184
330	19.380457	115073024	81408000	44136560	33184
331	21.977464	115073024	81408000	40937864	33184
332	22.908261	115073024	81408000	38626808	33184
333	24.707267	115073024	81408000	37054776	33184
334	24.87838	115073024	81408000	36184752	33184
335	26.294774	115073024	81408000	35871160	33184
336	26.215562	115073024	81408000	36064136	33184
337	26.818751	115073024	81408000	36681416	33184
338	27.855536	115073024	81408000	37669496	33184
339	28.809505	115073024	81408000	39000760	33184
340	28.405337	115073024	81408000	40600320	33184
341	29.077527	115073024	81408000	42443920	33184
342	29.204832	115073024	81408000	44480904	33184
343	35.020131	115073024	81408000	32611040	33184
344	32.478601	115073024	81408000	36954888	33184
345	32.296394	115073024	81408000	41184976	33184
346	32.208621	115073024	81408000	45296896	33184
347	37.625324	115073024	81408000	35162416	33184
348	34.857118	115073024	81408000	41015072	33184
349	40.381409	115073024	81408000	32917968	33184
350	40.14941	115073024	81408000	42290440	33184
351	41.347761	115073024	81408000	35592584	33184
352	1.453451	115073024	81408000	46242408	33184
353	2.150697	115073024	81408000	47648000	33184
354	3.034955	115073024	81408000	49524432	33184
355	3.550349	115073024	81408000	51873296	33184
356	6.660981	115073024	81408000	38335864	33184
357	4.948625	115073024	81408000	41632520	33184
358	5.732492	115073024	81408000	45413024	33184
359	6.583263	115073024	81408000	49678824	33184
360	9.675526	115073024	81408000	38327776	33184
361	7.853392	115073024	81408000	43577440	33184
362	8.564797	115073024	81408000	49320560	33184
363	11.824535	115073024	81408000	39516472	33184
364	10.223453	115073024	81408000	46253152	33184
365	13.54603	115073024	81408000	37866632	33184
366	11.950884	115073024	81408000	45595352	33184
367	15.480409	115073024	81408000	38276248	33184
368	13.008928	115073024	81408000	47008040	33184
369	17.01445	115073024	81408000	40521416	33184
370	14.566734	115073024	81408000	50261200	33184
371	17.8413	115073024	81408000	44339528	33184
372	19.160325	115073024	81408000	39734256	33184
373	16.817676	115073024	81408000	50987872	33184
374	19.839859	115073024	81408000	46500584	33184
375	21.447694	115073024	81408000	43157096	33184
376	22.872215	115073024	81408000	40768720	33184
377	23.685383	115073024	81408000	39233648	33184
378	24.809154	115073024	81408000	38417808	33184
379	21.656251	115073024	81408000	52748608	33184
380	24.713116	115073024	81408000	51155824	33184
381	25.008248	115073024	81408000	50282336	33184
382	26.697879	115073024	81408000	50047576	33184
383	27.267044	115073024	81408000	50380976	33184
384	27.802371	115073024	81408000	51167048	33184
385	28.271355	115073024	81408000	52385496	33184
386	34.481758	115073024	81408000	39809832	33184
387	31.955105	115073024	81408000	43623952	33184
388	31.613333	115073024	81408000	47499560	33184
389	32.288625	115073024	81408000	51371536	33184
390	37.183607	115073024	81408000	41232680	33184
391	36.755417	115073024	81408000	49369328	33184
392	34.734448	115073024	81408000	55147776	33184
393	39.66986	115073024	81408000	46312200	33184
394	36.689166	115073024	81408000	53361304	33184
395	42.202446	115073024	81408000	46118696	33184
396	43.962091	115073024	81408000	56932544	33184
397	53.899468	115613696	82456576	51010864	33184
398	53.320885	114565120	81408000	22375752	33184
399	41.488422	114565120	81408000	34680376	33184
400	41.573449	114565120	81408000	29878432	33184
401	41.956035	114565120	81408000	26456464	33184
402	1.698442	114565120	81408000	28203568	33184
403	2.519602	114565120	81408000	29831464	33184
404	3.296988	114565120	81408000	32004280	33184
405	3.996236	114565120	81408000	34726504	33184
406	4.780652	114565120	81408000	37992920	33184
407	8.469908	115105792	81408000	27738064	33184
408	6.646186	115105792	81408000	32102800	33184
409	7.116539	115105792	81408000	37018880	33184
410	8.872082	115105792	81408000	26878136	33184
411	8.938974	115105792	81408000	32900568	33184
412	9.704908	115105792	81408000	39489456	33184
413	11.09299	115105792	81408000	30555192	33184
414	11.156244	115105792	81408000	38245520	33184
415	13.270708	115105792	81408000	30581656	33184
416	12.828596	115105792	81408000	39389984	33184
417	14.579754	115105792	81408000	32690632	33184
418	16.103719	115105792	81408000	27475184	33184
419	15.816999	115105792	81408000	37971344	33184
420	17.964147	115105792	81408000	33183864	33184
421	18.971215	115105792	81408000	29604352	33184
422	17.92469	115105792	81408000	41798064	33184
423	19.703119	115105792	81408000	38178216	33184
424	20.283257	115105792	81408000	35621600	33184
425	21.548014	115105792	81408000	33962496	33184
426	22.520696	115105792	81408000	33123800	33184
427	23.570039	115105792	81408000	32991408	33184
428	24.600998	115105792	81408000	33441000	33184
429	25.03963	115105792	81408000	34402144	33184
430	25.765935	115105792	81408000	35814688	33184
431	26.745798	115105792	81408000	37615632	33184
432	27.081501	115105792	81408000	39753792	33184
433	28.122747	115105792	81408000	42180640	33184
434	31.226317	115105792	81408000	30691648	33184
435	31.512864	115105792	81408000	35538456	33184
436	31.040471	115105792	81408000	40296168	33184
437	34.341359	115105792	81408000	31065464	33184
438	36.371045	115105792	81408000	40038232	33184
439	37.554027	115105792	81408000	32931320	33184
440	38.129587	115105792	81408000	43053840	33184
441	38.603961	115105792	81408000	36977936	33184
442	39.112915	115105792	81408000	48277184	33184
443	39.91006	115105792	81408000	42966960	33184
444	45.209061	115105792	81408000	42815928	33184
445	41.430927	115105792	81408000	55755200	33184
446	42.582458	115105792	81408000	51871024	33184
447	48.89454	115916800	82456576	53514640	33184
448	63.761198	119971840	86650880	55596680	33184
449	58.310944	119971840	86650880	28932256	33184
450	50.268452	119971840	86650880	32269904	33184
451	51.477252	119971840	86650880	36149784	33184
452	1.820113	120242176	86650880	41178896	33184
453	2.665656	120242176	86650880	42995408	33184
454	3.551537	120242176	86650880	45413472	33184
455	4.451501	120242176	86650880	48439016	33184
456	8.730916	120242176	86650880	38320800	33184
457	6.648399	120242176	86650880	42565448	33184
458	7.123147	120242176	86650880	47421080	33184
459	9.247053	120242176	86650880	37593848	33184
460	9.086569	120242176	86650880	43680128	33184
461	9.751984	120242176	86650880	50377400	33184
462	11.146958	120242176	86650880	41357040	33184
463	11.525559	120242176	86650880	49290696	33184
464	13.173	120242176	86650880	41629696	33184
465	13.409902	120242176	86650880	50800336	33184
466	14.52729	120242176	86650880	44175824	33184
467	16.667612	120242176	86650880	39052264	33184
468	16.389969	120242176	86650880	50100760	33184
469	17.885475	120242176	86650880	45431304	33184
470	18.884628	120242176	86650880	42027104	33184
471	20.462377	120242176	86650880	39757856	33184
472	22.162818	120242176	86650880	38417464	33184
473	23.528874	120242176	86650880	37910616	33184
474	24.617346	120242176	86650880	38083856	33184
475	25.364959	120242176	86650880	38847888	33184
476	26.226609	120242176	86650880	40158576	33184
477	26.617113	120242176	86650880	41940464	33184
478	27.524443	120242176	86650880	44099680	33184
479	27.611313	120242176	86650880	46581456	33184
480	29.106248	120242176	86650880	49368016	33184
481	32.221348	120242176	86650880	38452784	33184
482	33.859309	120242176	86650880	45928008	33184
483	31.907519	120242176	86650880	51226928	33184
484	34.969745	120242176	86650880	42468672	33184
485	37.017934	120242176	86650880	51858736	33184
486	37.248196	120242176	86650880	45164016	33184
487	39.487528	120242176	86650880	55873824	33184
488	38.962704	120242176	86650880	50175320	33184
489	40.941838	120242176	86650880	62145064	33184
490	41.328624	120242176	86650880	57206968	33184
491	42.558192	120242176	86650880	53760392	33184
492	49.767107	122134528	88748032	55053056	33184
493	54.136758	124297216	90845184	69503784	33184
494	61.598176	121421824	87699456	24822704	33184
495	51.10501	121421824	87699456	28019984	33184
496	50.782295	121421824	87699456	31776416	33184
497	51.956037	121421824	87699456	36190464	33184
498	52.915745	121962496	88223744	41272632	33184
499	53.601576	121962496	88223744	47018184	33184
500	55.00946	121962496	88223744	53450768	33184
501	56.645379	121962496	88223744	60491704	33184
502	2.233555	121962496	88748032	56227136	33184
503	3.234402	121962496	88748032	58224424	33184
504	4.326576	121962496	88748032	60887952	33184
505	5.486779	121962496	88748032	64220176	33184
506	8.350261	121962496	88748032	68222968	33184
507	17.466853	124125184	90845184	58526936	33184
508	16.090272	122146816	88748032	21545544	33184
509	9.106178	122146816	88748032	27566488	33184
510	10.030345	122146816	88748032	34263392	33184
511	11.293368	122146816	88748032	25321240	33184
512	11.941346	122146816	88748032	33375184	33184
513	13.576648	122146816	88748032	25913664	33184
514	13.750886	122146816	88748032	35321824	33184
515	15.21187	122146816	88748032	28947608	33184
516	16.832842	122146816	88748032	24109792	33184
517	16.998863	122146816	88748032	35568488	33184
518	18.422178	122146816	88748032	31233880	33184
519	20.217773	122146816	88748032	28189936	33184
520	21.289465	122146816	88748032	26213392	33184
521	22.520634	122146816	88748032	25208560	33184
522	23.369443	122146816	88748032	25052784	33184
523	24.272802	122146816	88748032	25583256	33184
524	25.427962	122146816	88748032	26744672	33184
525	26.04431	122146816	88748032	28460656	33184
526	27.183552	122146816	88748032	30617672	33184
527	28.131197	122146816	88748032	33193992	33184
528	31.673197	122146816	88748032	22179048	33184
529	33.488504	122146816	88748032	29519928	33184
530	31.307356	122146816	88748032	34708848	33184
531	34.945149	122146816	88748032	26022208	33184
532	36.434946	122146816	88748032	35459968	33184
533	37.563211	122146816	88748032	28878352	33184
534	38.194922	122146816	88748032	39717048	33184
535	39.297387	122146816	88748032	34160560	33184
536	41.509621	122146816	88748032	46447992	33184
537	40.884042	122146816	88748032	41690696	33184
538	42.417853	122146816	88748032	38499224	33184
539	49.538179	122417152	88748032	40255536	33184
540	50.298319	122417152	88748032	42602440	33184
541	50.337345	122417152	88748032	45615520	33184
542	51.844177	122417152	88748032	49356544	33184
543	53.167059	122417152	88748032	53828312	33184
544	71.113028	124850176	91369472	59023496	33184
545	59.764307	123801600	90320896	34062848	33184
546	56.025496	123801600	90320896	40842088	33184
547	60.940726	123801600	90320896	35611312	33184
548	58.428112	123801600	90320896	43666968	33184
549	59.094577	124071936	90320896	52448744	33184
550	64.760107	124071936	90320896	49385320	33184
551	60.658645	124071936	90320896	59654904	33184
552	2.461669	124882944	91369472	58716584	33184
553	3.892012	124882944	91369472	60899376	33184
554	4.828547	124882944	91369472	63816600	33184
555	6.176473	124882944	91369472	67455640	33184
556	12.247725	126775296	93466624	57867904	33184
557	8.593791	126775296	93466624	62987656	33184
558	11.827611	126775296	93466624	68849272	33184
559	20.720769	127045632	93466624	59593184	33184
560	17.942829	125472768	91893760	25054312	33184
561	12.748166	125472768	91893760	33144344	33184
562	14.228932	125472768	91893760	25898992	33184
563	14.103557	125472768	91893760	35486432	33184
564	15.66812	125472768	91893760	29418536	33184
565	17.402248	125472768	91893760	24953888	33184
566	19.098364	125472768	91893760	21882424	33184
567	19.137199	125472768	91893760	34472176	33184
568	20.346467	125472768	91893760	31577560	33184
569	21.622594	125472768	91893760	29850344	33184
570	23.194403	125472768	91893760	29074936	33184
571	24.260376	125472768	91893760	29148208	33184
572	26.600611	125472768	91893760	30024776	33184
573	26.24311	125472768	91893760	31540000	33184
574	27.275108	125472768	91893760	33635096	33184
575	28.289911	125472768	91893760	36207728	33184
576	31.723363	125472768	91893760	24984536	33184
577	32.047078	125472768	91893760	30267736	33184
578	31.810192	125472768	91893760	35616648	33184
579	35.680487	125472768	91893760	26883400	33184
580	35.01987	125472768	91893760	34241248	33184
581	38.948094	125472768	91893760	27428616	33184
582	39.74155	125472768	91893760	39032240	33184
583	40.185769	125472768	91893760	33817120	33184
584	42.749267	125472768	91893760	30241952	33184
585	47.616998	125472768	91893760	31469600	33184
586	45.457181	125472768	91893760	45980664	33184
587	45.176466	125472768	91893760	43521720	33184
588	46.491217	125472768	91893760	42370096	33184
589	52.068755	125472768	91893760	46768760	33184
590	53.936027	125743104	91893760	51759368	33184
591	55.114187	125743104	91893760	57623128	33184
592	60.012492	125743104	91893760	51622696	33184
593	60.500696	125743104	91893760	58973024	33184
594	87.489278	124370944	92942336	24029240	33184
595	61.495005	126259200	92942336	32327192	33184
596	60.728702	126259200	92942336	42028152	33184
597	65.436586	126259200	92942336	39949544	33184
598	61.712694	126259200	92942336	51212344	33184
599	68.277331	127340544	93466624	50715416	33184
600	64.694645	127340544	93466624	63573264	33184
601	70.709767	127340544	93466624	64641216	33184
602	6.906611	127307776	95039488	20675136	33184
603	4.332756	127307776	95039488	23069576	33184
604	5.464207	127307776	95039488	26251040	33184
605	5.893645	127307776	95039488	30230752	33184
606	7.262813	127307776	95039488	35010616	33184
607	9.473636	128655360	95039488	24717888	33184
608	9.582861	128655360	95039488	31100936	33184
609	11.545038	128655360	95039488	22542896	33184
610	11.749893	128655360	95039488	30538936	33184
611	13.955976	128655360	95039488	23672624	33184
612	14.416775	128655360	95039488	33276408	33184
613	16.258672	128655360	95039488	27630912	33184
614	18.475242	128655360	95039488	23602112	33184
615	17.915901	128655360	95039488	35642224	33184
616	19.603613	128655360	95039488	32110896	33184
617	20.857206	128655360	95039488	29927544	33184
618	22.308739	128655360	95039488	28822336	33184
619	24.184873	128655360	95039488	28686208	33184
620	25.386159	128655360	95039488	29366800	33184
621	26.220399	128655360	95039488	30767480	33184
622	27.762471	128655360	95039488	32822064	33184
623	28.343269	128655360	95039488	35414624	33184
624	32.238797	128655360	95039488	24395816	33184
625	34.515655	128655360	95039488	32216776	33184
626	32.569527	128655360	95039488	37962472	33184
627	35.896829	128655360	95039488	29435640	33184
628	37.800465	128655360	95039488	39750824	33184
629	38.575075	128655360	95039488	33582368	33184
630	44.255508	128655360	95039488	32911152	33184
631	41.23277	128655360	95039488	45513096	33184
632	41.92703	128655360	95039488	41646480	33184
633	48.507534	128655360	95039488	43437064	33184
634	49.087153	128655360	95039488	45944136	33184
635	52.135547	132169728	98709504	49331976	33184
636	52.917902	135954432	102903808	53405792	33184
637	54.629027	140009472	107098112	58448480	33184
638	74.521908	142712832	109195264	64268752	33184
639	59.057814	118210560	84553728	24870096	33184
640	57.13988	118210560	84553728	32447056	33184
641	58.174419	118210560	84553728	40713480	33184
642	63.82868	118210560	84553728	37379616	33184
643	60.908066	118210560	84553728	47475992	33184
644	62.514804	118210560	84553728	58302584	33184
645	67.259974	118210560	84553728	57464696	33184
646	83.321309	123617280	90320896	57493144	33184
647	81.700661	122515456	89272320	27311856	33184
648	67.690964	122515456	89272320	41577032	33184
649	73.0211	122515456	89272320	44188096	33184
650	74.382847	122515456	89272320	47621560	33184
651	74.396188	123056128	89272320	51882392	33184
652	2.77762	123056128	89272320	57843832	33184
653	3.853761	123056128	89272320	60425936	33184
654	5.104717	123056128	89272320	63857152	33184
655	10.111646	123056128	89272320	54511464	33184
656	8.502971	123056128	89272320	59659352	33184
657	9.853812	123056128	89272320	65669424	33184
658	13.561244	123056128	89272320	57000544	33184
659	13.003307	123056128	89272320	64740952	33184
660	22.81695	123056128	89272320	57410496	33184
661	19.751328	117813248	84029440	23402056	33184
662	16.900815	117813248	84029440	18390856	33184
663	16.927349	117813248	84029440	29601144	33184
664	18.379299	117813248	84029440	25516216	33184
665	20.088163	117813248	84029440	22820104	33184
666	22.329135	117813248	84029440	21417616	33184
667	23.310154	117813248	84029440	21073272	33184
668	24.980385	117813248	84029440	21645304	33184
669	26.048402	117813248	84029440	23003320	33184
670	26.762861	117813248	84029440	25087592	33184
671	28.148262	117813248	84029440	27710424	33184
672	28.792393	117813248	84029440	30885032	33184
673	34.129582	117813248	84029440	20374912	33184
674	32.957315	117813248	84029440	26447976	33184
675	36.859174	117813248	84029440	18947896	33184
676	38.572547	117813248	84029440	29120936	33184
677	39.243021	117813248	84029440	23458640	33184
678	40.277004	117813248	84029440	35413976	33184
679	43.082108	117813248	84029440	30957552	33184
680	47.82383	117813248	84029440	32164384	33184
681	49.082782	117813248	84029440	34056448	33184
682	50.208596	117813248	84029440	36910344	33184
683	51.498043	117813248	84029440	40697112	33184
684	53.444332	117813248	84029440	45315528	33184
685	58.885123	117813248	84029440	50860160	33184
686	78.462969	117813248	85602304	30898672	33184
687	57.752492	119435264	85602304	37919912	33184
688	62.916177	119435264	85602304	33544184	33184
689	60.885781	119435264	85602304	42638592	33184
690	61.90308	119435264	85602304	52606424	33184
691	66.05733	119975936	86126592	50987776	33184
692	63.612993	119975936	86126592	62802008	33184
693	71.564101	122679296	89272320	62981592	33184
694	95.955883	125231104	92942336	34440776	33184
695	73.140935	126578688	92942336	35725008	33184
696	73.322125	126578688	92942336	38651080	33184
697	74.312849	126578688	92942336	42446640	33184
698	76.911294	126578688	92942336	47141280	33184
699	76.777967	126578688	92942336	52746912	33184
700	81.742194	127119360	93466624	59282640	33184
701	107.796863	126373888	94515200	35665592	33184
702	2.776047	128262144	94515200	44145840	33184
703	8.205023	128262144	94515200	34056544	33184
704	5.611431	128262144	94515200	37728856	33184
705	6.906877	128262144	94515200	42322328	33184
706	10.230352	128262144	94515200	33560872	33184
707	9.590457	128262144	94515200	40019072	33184
708	11.127535	128262144	94515200	47383952	33184
709	12.707934	128262144	94515200	39436984	33184
710	13.694465	128262144	94515200	48655248	33184
711	15.418182	128262144	94515200	42420952	33184
712	17.419086	128262144	94515200	37977712	33184
713	19.56767	128262144	94515200	35105864	33184
714	19.502323	128262144	94515200	48067384	33184
715	21.576405	128262144	94515200	45649192	33184
716	22.830061	128262144	94515200	44497160	33184
717	24.335823	128262144	94515200	44480560	33184
718	25.737845	128262144	94515200	45436184	33184
719	27.12465	128262144	94515200	47198384	33184
720	31.245004	128262144	94515200	35677424	33184
721	33.614017	128262144	94515200	42945280	33184
722	32.315216	128262144	94515200	48334904	33184
723	35.939962	128262144	94515200	40047096	33184
724	37.469703	128262144	94515200	50162384	33184
725	38.730388	128262144	94515200	44298872	33184
726	39.930261	128262144	94515200	56286288	33184
727	41.558512	128262144	94515200	51680480	33184
728	43.486631	128262144	94515200	48961032	33184
729	50.674073	128262144	94515200	51215088	33184
730	50.526118	128262144	94515200	54324096	33184
731	52.893196	128262144	94515200	58418184	33184
732	53.443846	128262144	94515200	63501936	33184
733	61.1682	131776512	98185216	69513784	33184
734	77.066406	127975424	94515200	27795256	33184
735	59.028645	127975424	94515200	35931288	33184
736	62.975034	127975424	94515200	32259152	33184
737	60.5845	127975424	94515200	42216808	33184
738	62.90579	127975424	94515200	53093016	33184
739	69.786383	127975424	94515200	52374184	33184
740	69.661526	128245760	94515200	52664168	33184
741	68.491323	128245760	94515200	66514800	33184
742	97.785986	124010496	92418048	38507280	33184
743	73.639108	125898752	92418048	40942160	33184
744	74.792824	125898752	92418048	45140040	33184
745	77.523708	125898752	92418048	50313448	33184
746	78.075345	125898752	92418048	56531912	33184
747	78.170336	126169088	92418048	63643216	33184
748	82.178819	126169088	92418048	71841928	33184
749	112.56433	130224128	96612352	36318456	33184
750	88.222897	130224128	96612352	33960240	33184
751	87.602523	130224128	96612352	45078400	33184
752	2.978035	130224128	96612352	58292968	33184
753	8.521114	130224128	96612352	48388304	33184
754	5.989508	130224128	96612352	52373096	33184
755	7.708107	130224128	96612352	57355560	33184
756	10.696272	130494464	96612352	48891280	33184
757	10.3114	130494464	96612352	55890456	33184
758	12.64554	130494464	96612352	48358120	33184
759	13.66439	130494464	96612352	57364192	33184
760	15.439827	130494464	96612352	51663208	33184
761	16.255595	130494464	96612352	62679184	33184
762	18.308092	130494464	96612352	58267824	33184
763	20.162091	130494464	96612352	55483704	33184
764	22.114211	130494464	96612352	54108800	33184
765	24.106826	130494464	96612352	53883568	33184
766	25.178487	130494464	96612352	54732112	33184
767	26.884246	130494464	96612352	56531912	33184
768	27.39544	130494464	96612352	59069328	33184
769	28.793505	130494464	96612352	62252400	33184
770	33.060283	130494464	96612352	51943048	33184
771	32.591401	130494464	96612352	58200240	33184
772	36.621469	130494464	96612352	50927528	33184
773	38.260756	130494464	96612352	61688456	33184
774	39.829618	130494464	96612352	56535664	33184
775	45.367886	130494464	96612352	56743072	33184
776	42.667404	130494464	96612352	70402000	33184
777	48.514862	130494464	96612352	67707768	33184
778	73.498024	125091840	91369472	23922248	33184
779	52.097123	125091840	91369472	28117376	33184
780	53.077636	125091840	91369472	33261496	33184
781	55.155951	125091840	91369472	39414512	33184
782	57.235503	125091840	91369472	46622224	33184
783	59.133124	125091840	91369472	54909552	33184
784	63.588453	125091840	91369472	51598472	33184
785	61.0047	125091840	91369472	61906248	33184
786	83.965697	127524864	93990912	60682096	33184
787	73.621365	125325312	91893760	28795808	33184
788	66.159736	125325312	91893760	42175968	33184
789	71.313396	125325312	91893760	44038472	33184
790	73.504631	125325312	91893760	47015536	33184
791	74.783952	125325312	91893760	50976208	33184
792	75.440253	125595648	91893760	55980440	33184
793	97.333135	126676992	92942336	62144216	33184
794	83.801496	124985344	91369472	37881352	33184
795	85.549746	124985344	91369472	33431256	33184
796	82.651683	124985344	91369472	42557176	33184
797	83.558556	124985344	91369472	52897712	33184
798	84.693132	124985344	91369472	64197960	33184
799	113.022235	127959040	94515200	64041312	33184
800	98.172549	125308928	91893760	33171680	33184
801	94.174187	125308928	91893760	35148240	33184
802	3.16482	125308928	91893760	51634240	33184
803	4.667622	125308928	91893760	54816704	33184
804	10.076835	125308928	91893760	45743288	33184
805	8.073005	125308928	91893760	51032392	33184
806	11.904082	125308928	91893760	42894280	33184
807	11.607291	125308928	91893760	50311024	33184
808	13.877655	125308928	91893760	43404688	33184
809	14.163338	125308928	91893760	52947128	33184
810	17.132577	125308928	91893760	47852488	33184
811	18.816614	125308928	91893760	44516536	33184
812	19.255138	125308928	91893760	57262704	33184
813	20.766879	125308928	91893760	54745704	33184
814	22.919425	125308928	91893760	53675504	33184
815	24.245866	125308928	91893760	53812832	33184
816	25.978429	125308928	91893760	55029696	33184
817	27.298632	125308928	91893760	57157696	33184
818	32.35481	125308928	91893760	45968704	33184
819	35.089326	125308928	91893760	53860016	33184
820	33.276841	125308928	91893760	59902800	33184
821	36.947668	125308928	91893760	51917144	33184
822	36.059133	125308928	91893760	60212456	33184
823	40.3369	125308928	91893760	54391120	33184
824	42.653247	125308928	91893760	51187880	33184
825	48.411334	125308928	91893760	52854464	33184
826	45.456372	125308928	91893760	68085480	33184
827	45.870579	125579264	91893760	66437792	33184
828	48.482725	125579264	91893760	66260256	33184
829	64.964813	126390272	92942336	72339648	33184
830	73.197909	124600320	91369472	32770512	33184
831	64.006817	124600320	91369472	28501120	33184
832	60.159147	124600320	91369472	37742848	33184
833	61.029813	124600320	91369472	48000824	33184
834	67.003101	124600320	91369472	46750704	33184
835	64.157062	124600320	91369472	59229200	33184
836	70.679822	125140992	91369472	60309960	33184
837	93.512844	126222336	92942336	62444016	33184
838	75.364083	124653568	91369472	33990960	33184
839	75.561314	124653568	91369472	38291920	33184
840	77.168733	124653568	91369472	43719880	33184
841	78.203728	124653568	91369472	50204560	33184
842	79.954836	124653568	91369472	57885272	33184
843	82.689557	124653568	91369472	66578320	33184
844	116.532407	124002304	90320896	34707552	33184
845	85.841182	124002304	90320896	45629616	33184
846	91.609987	124002304	90320896	45128608	33184
847	87.988998	124002304	90320896	58358712	33184
848	93.403508	124002304	90320896	60055872	33184
849	104.190115	128868352	95563776	62882816	33184
850	120.145182	128131072	94515200	34930872	33184
851	99.139843	128131072	94515200	40078728	33184
852	3.480262	128131072	94515200	47300088	33184
853	4.957229	128131072	94515200	50685192	33184
854	6.850987	128131072	94515200	55204304	33184
855	11.18258	128401408	94515200	46878344	33184
856	10.154885	128401408	94515200	53663720	33184
857	12.96538	128401408	94515200	46138200	33184
858	13.529087	128401408	94515200	55192600	33184
859	15.802472	128401408	94515200	49605608	33184
860	18.248694	128401408	94515200	45935632	33184
861	18.747237	128401408	94515200	58415608	33184
862	20.371446	128401408	94515200	55799608	33184
863	22.414556	128401408	94515200	54668600	33184
864	24.50837	128401408	94515200	54816944	33184
865	26.122588	128401408	94515200	56075008	33184
866	27.903079	128401408	94515200	58345192	33184
867	31.949294	128401408	94515200	47442368	33184
868	34.526359	128401408	94515200	55516904	33184
869	33.625645	128401408	94515200	61843280	33184
870	37.25493	128401408	94515200	54169616	33184
871	36.113031	128401408	94515200	62794296	33184
872	40.030109	128401408	94515200	57180144	33184
873	42.69698	128401408	94515200	54140352	33184
874	48.544053	128401408	94515200	56511048	33184
875	49.763063	128401408	94515200	59732824	33184
876	53.915237	128942080	95563776	64319256	33184
877	81.456986	126222336	93990912	23645024	33184
878	57.728401	129732608	96088064	29407160	33184
879	59.501606	133517312	100282368	37431768	33184
880	61.554151	137302016	104476672	46557152	33184
881	67.028314	143249408	110768128	44221904	33184
882	63.301056	147034112	114962432	55631264	33184
883	70.810385	152981504	121253888	55682632	33184
884	71.743996	158658560	127545344	56867712	33184
885	73.991067	162713600	131739648	71889928	33184
886	101.520587	105783296	71970816	27971208	33184
887	74.986673	105783296	71970816	32652024	33184
888	75.75668	105783296	71970816	38547256	33184
889	79.83249	110108672	76689408	45622872	33184
890	82.418378	116056064	82980864	53861776	33184
891	83.796398	122003456	88748032	63265920	33184
892	113.830188	106344448	74592256	28109832	33184
893	86.395654	107962368	74592256	39063592	33184
894	91.402643	107962368	74592256	39434024	33184
895	88.74426	108232704	74592256	53542712	33184
896	98.162533	114991104	81932288	56257696	33184
897	103.762526	122830848	89272320	60100976	33184
898	123.327141	115220480	81932288	35351584	33184
899	99.659529	115490816	81932288	41605952	33184
900	102.238968	115490816	81932288	49046696	33184
901	105.855389	119275520	85602304	57663992	33184
902	3.876106	127115264	93466624	68671000	33184
903	5.81381	127115264	93466624	72244408	33184
904	14.021999	129007616	95563776	63574528	33184
905	11.224175	129007616	95563776	69532360	33184
906	22.872571	130088960	96612352	61963936	33184
907	25.464864	117506048	84029440	27609832	33184
908	15.555639	117506048	84029440	37173688	33184
909	16.735505	117506048	84029440	31741712	33184
910	18.909938	117506048	84029440	28283864	33184
911	21.682191	117506048	84029440	26515656	33184
912	24.03551	117506048	84029440	26147344	33184
913	25.307398	117506048	84029440	27073416	33184
914	27.352151	117506048	84029440	29082120	33184
915	27.983445	117506048	84029440	31947112	33184
916	29.811712	117506048	84029440	35730392	33184
917	34.305701	117506048	84029440	26349384	33184
918	36.408947	117506048	84029440	35541464	33184
919	38.303368	117506048	84029440	29354224	33184
920	39.622279	117506048	84029440	40906320	33184
921	41.335828	117506048	84029440	36565112	33184
922	47.671424	117506048	84029440	37914424	33184
923	49.3697	117506048	84029440	40392520	33184
924	50.935284	117506048	84029440	44145720	33184
925	53.010698	118317056	84553728	49127416	33184
926	55.067203	118587392	85078016	55345816	33184
927	57.127794	122642432	89272320	62731336	33184
928	59.552305	126427136	92942336	71342728	33184
929	90.346749	120479744	88223744	20706248	33184
930	63.271778	121827328	88223744	30596648	33184
931	68.110389	121827328	88223744	30246104	33184
932	65.830638	121827328	88223744	43645656	33184
933	72.282004	121827328	88223744	45821880	33184
934	74.516802	121827328	88223744	49166024	33184
935	75.801164	121827328	88223744	53714424	33184
936	92.388023	125071360	91369472	59477944	33184
937	89.331351	123088896	89272320	34949008	33184
938	80.445748	123088896	89272320	43207920	33184
939	85.985388	123088896	89272320	40103096	33184
940	85.229091	123088896	89272320	50793072	33184
941	86.201206	123088896	89272320	62738096	33184
942	113.538869	125792256	92418048	63373960	33184
943	102.594272	124022784	90320896	33346136	33184
944	96.576232	124022784	90320896	36544840	33184
945	94.477459	124022784	90320896	53365536	33184
946	100.178517	124022784	90320896	58910664	33184
947	103.825449	124563456	90845184	65730280	33184
948	137.7241	126304256	92942336	30915792	33184
949	105.885273	126304256	92942336	40226776	33184
950	107.973502	126304256	92942336	50714112	33184
951	109.048043	126304256	92942336	62593152	33184
952	8.878866	131170304	97660928	64168760	33184
953	6.197964	131170304	97660928	67926456	33184
954	8.225324	131170304	97660928	72932968	33184
955	15.219391	132792320	99233792	65113680	33184
956	14.522496	132792320	99233792	72634200	33184
957	26.892986	123670528	90320896	17446480	33184
958	17.723555	123670528	90320896	27496800	33184
959	18.079624	123936768	90320896	23269760	33184
960	20.275865	123936768	90320896	20866496	33184
961	22.750502	123936768	90320896	19858416	33184
962	24.727151	123936768	90320896	20255528	33184
963	26.332016	123936768	90320896	21810640	33184
964	28.179591	123936768	90320896	24397392	33184
965	30.060395	123936768	90320896	27940928	33184
966	31.385319	123936768	90320896	32232688	33184
967	35.140031	123936768	90320896	23133952	33184
968	34.826667	123936768	90320896	30646640	33184
969	39.465682	123936768	90320896	24451072	33184
970	45.982382	123936768	90320896	24695272	33184
971	44.140672	123936768	90320896	38629592	33184
972	45.336222	123936768	90320896	36108896	33184
973	47.169447	123936768	90320896	35346752	33184
974	53.922107	123936768	90320896	40632488	33184
975	56.564473	123936768	90320896	47122368	33184
976	61.785615	123936768	90320896	42263216	33184
977	60.323806	123936768	90320896	51291248	33184
978	69.98988	123936768	90320896	49007944	33184
979	84.107462	119541760	87175168	33581672	33184
980	69.924428	120893440	87175168	33663488	33184
981	70.353698	120893440	87175168	35267960	33184
982	68.248416	120893440	87175168	50650568	33184
983	75.216945	120893440	87175168	54847896	33184
984	77.732825	120893440	87175168	60268408	33184
985	80.496015	123867136	90320896	67058384	33184
986	108.263081	123662336	91893760	28928400	33184
987	84.333173	125550592	91893760	37227192	33184
988	89.482006	125550592	91893760	35340712	33184
989	86.271354	125550592	91893760	47247272	33184
990	94.680349	125550592	91893760	47955168	33184
991	91.927941	125550592	91893760	62429992	33184
992	126.048018	124006400	90320896	37058416	33184
993	99.894109	124006400	90320896	41703992	33184
994	102.429991	124006400	90320896	47594296	33184
995	103.267889	124006400	90320896	54697648	33184
996	105.301737	126439424	92942336	63205336	33184
997	136.020746	129789952	97660928	25660968	33184
998	111.529428	131137536	97660928	35672680	33184
999	109.269511	131137536	97660928	48164608	33184
1000	116.981947	131137536	97660928	49201112	33184
