x	Duration	RSS	HeapTotal	HeapUsed	External
0	NA	116289536	80883712	14527840	33184
1	0.244035	116289536	80883712	14580096	33184
2	0.195736	116289536	80883712	14647960	33184
3	0.212987	116289536	80883712	14740512	33184
4	0.277889	116289536	80883712	14859424	33184
5	0.305598	116289536	80883712	15006456	33184
6	0.355888	116289536	80883712	15182368	33184
7	0.408401	116289536	80883712	15388248	33184
8	0.484073	116289536	80883712	15625432	33184
9	0.518887	116289536	80883712	15896360	33184
10	0.592913	116289536	80883712	16201384	33184
11	0.642887	116289536	80883712	16541600	33184
12	1.034502	116289536	80883712	16918384	33184
13	0.789865	116289536	80883712	17332832	33184
14	0.848229	116289536	80883712	17786272	33184
15	0.951434	116289536	80883712	18283720	33184
16	0.983615	116289536	80883712	18818680	33184
17	1.042766	116289536	80883712	19398144	33184
18	1.10679	116289536	80883712	20021424	33184
19	1.500693	116289536	80883712	20690864	33184
20	1.164588	116289536	80883712	21406592	33184
21	1.21381	116289536	80883712	22170752	33184
22	1.472212	116289536	80883712	22984640	33184
23	1.374093	116289536	80883712	23849384	33184
24	1.665548	116289536	80883712	24766360	33184
25	2.296684	116289536	80883712	25738728	33184
26	1.560566	116289536	80883712	26761912	33184
27	1.967094	116289536	80883712	27840776	33184
28	1.943746	116289536	80883712	28976832	33184
29	2.047947	116289536	80883712	30170960	33184
30	2.685231	116289536	80883712	15209288	33184
31	2.210108	116289536	80883712	16542592	33184
32	2.342414	116289536	80883712	17921296	33184
33	2.130869	116289536	80883712	19368288	33184
34	2.273658	116289536	80883712	20879296	33184
35	2.286927	116289536	80883712	22455656	33184
36	2.443253	116289536	80883712	24099032	33184
37	3.445322	116289536	80883712	25813624	33184
38	2.653594	116289536	80883712	27594480	33184
39	3.018596	116289536	80883712	29448368	33184
40	2.895542	116289536	80883712	31373384	33184
41	4.076951	116289536	80883712	17170856	33184
42	3.21093	116289536	80883712	19243320	33184
43	3.091184	116289536	80883712	21388728	33184
44	3.191567	116289536	80883712	23612056	33184
45	3.253929	116289536	80883712	25915608	33184
46	3.554997	116289536	80883712	28299512	33184
47	3.673405	116289536	80883712	30765200	33184
48	4.890324	116289536	80883712	17103584	33184
49	4.069657	116289536	80883712	19737128	33184
50	4.633867	116289536	80883712	22456928	33184
51	4.897436	116289536	80883712	25272496	33184
52	0.292606	116289536	80883712	28092056	33184
53	0.422916	116289536	80883712	28357272	33184
54	0.63508	116289536	80883712	28713128	33184
55	0.919562	116289536	80883712	29161336	33184
56	0.845339	116289536	80883712	29702424	33184
57	0.944949	116289536	80883712	30337752	33184
58	1.077616	116289536	80883712	31068544	33184
59	1.265797	116289536	80883712	31896112	33184
60	2.460304	116289536	80883712	16555040	33184
61	1.633286	116289536	80883712	17580944	33184
62	1.626053	116289536	80883712	18707000	33184
63	1.958191	116289536	80883712	19934728	33184
64	1.943876	116289536	80883712	21265200	33184
65	2.064572	116289536	80883712	22699800	33184
66	2.438579	116289536	80883712	24239672	33184
67	2.506622	116289536	80883712	25888976	33184
68	2.536606	116289536	80883712	27644984	33184
69	2.678538	116289536	80883712	29510368	33184
70	2.809249	116289536	80883712	31485960	33184
71	4.143959	116289536	80883712	17332544	33184
72	3.622331	116289536	80883712	19532280	33184
73	3.369932	116289536	80883712	21845792	33184
74	3.516377	116289536	80883712	24274360	33184
75	3.882439	116289536	80883712	26819304	33184
76	3.784911	116289536	80883712	29481976	33184
77	3.96562	116289536	80883712	32263288	33184
78	5.1276	116289536	80883712	18799648	33184
79	4.491469	116289536	80883712	21822184	33184
80	4.48254	116289536	80883712	24967248	33184
81	4.947026	116289536	80883712	28238008	33184
82	4.847818	116289536	80883712	31631784	33184
83	6.354442	116289536	80883712	18870104	33184
84	6.065442	116289536	80883712	22527360	33184
85	5.389986	116289536	80883712	26321400	33184
86	5.842434	116289536	80883712	30238336	33184
87	6.915194	116289536	80883712	18224088	33184
88	6.164719	116289536	80883712	22406144	33184
89	6.354051	116289536	80883712	26723104	33184
90	6.345556	116289536	80883712	31175632	33184
91	7.506267	116289536	80883712	19693560	33184
92	6.925495	116289536	80883712	24425648	33184
93	6.916643	116289536	80883712	29300808	33184
94	8.353537	116289536	80883712	18553200	33184
95	7.429654	116289536	80883712	23714168	33184
96	7.685478	116289536	80883712	29020640	33184
97	9.21056	116289536	80883712	18750008	33184
98	8.466839	116289536	80883712	24350888	33184
99	8.114169	116289536	80883712	30102320	33184
100	9.761654	116289536	80883712	20176280	33184
101	8.812282	116289536	80883712	26229232	33184
102	0.478723	116289536	80883712	32425176	33184
103	0.698151	116289536	80883712	32883904	33184
104	0.91463	116289536	80883712	33497736	33184
105	2.016942	116289536	80883712	18074984	33184
106	1.36347	116289536	80883712	19003264	33184
107	1.5873	116289536	80883712	20090400	33184
108	1.797428	116289536	80883712	21337624	33184
109	2.195378	116289536	80883712	22746992	33184
110	2.294303	116289536	80883712	24318976	33184
111	2.560382	116289536	80883712	26054616	33184
112	2.731942	116289536	80883712	27956352	33184
113	2.99378	116289536	80883712	30023216	33184
114	3.394208	116289536	80883712	32257480	33184
115	4.506866	116289536	80883712	18624488	33184
116	3.987122	116289536	80883712	21197232	33184
117	4.243974	116289536	80883712	23941296	33184
118	4.511174	116289536	80883712	26859320	33184
119	4.930292	116289536	80883712	29953312	33184
120	4.67666	116289536	80883712	33220544	33184
121	5.83214	116289536	80883712	20530288	33184
122	5.368559	116289536	80883712	24150280	33184
123	5.43248	116289536	80883712	27948720	33184
124	5.889474	116289536	80883712	31926912	33184
125	6.950808	116289536	80883712	20109272	33184
126	6.604103	116289536	80883712	24450424	33184
127	6.504894	116289536	80883712	28974888	33184
128	6.7324	116289536	80883712	33683960	33184
129	8.075165	116289536	80883712	22385976	33184
130	7.345409	116289536	80883712	27468496	33184
131	7.721753	116289536	80883712	32738896	33184
132	8.780468	116289536	80883712	22143184	33184
133	8.197352	116289536	80883712	27796288	33184
134	8.63723	116289536	80883712	33645664	33184
135	9.746897	116289536	80883712	23509984	33184
136	9.174403	116289536	80883712	29749152	33184
137	10.502022	116289536	80883712	20524296	33184
138	9.515454	116289536	80883712	27155128	33184
139	10.015694	116289536	80883712	33983248	33184
140	11.713557	116289536	80883712	24795848	33184
141	10.798607	116289536	80883712	32024624	33184
142	12.227252	116289536	80883712	23520848	33184
143	11.463846	116289536	80883712	31160320	33184
144	12.717003	116289536	80883712	23192032	33184
145	11.9426	116289536	80883712	31242216	33184
146	13.546551	116289536	80883712	23700400	33184
147	12.423419	116289536	80883712	32170472	33184
148	14.356673	116289536	80883712	24926824	33184
149	13.22704	116289536	80883712	33819600	33184
150	14.850468	116289536	80883712	26806256	33184
151	13.408203	116289536	80883712	36126728	33184
152	0.688576	116289536	80883712	29372264	33184
153	0.983152	116289536	80883712	30020528	33184
154	1.494548	116289536	80883712	30887120	33184
155	1.605377	116289536	80883712	31973352	33184
156	1.930122	116289536	80883712	33280840	33184
157	2.239333	116289536	80883712	34812032	33184
158	3.686616	116289536	80883712	20401912	33184
159	3.172418	116289536	80883712	22379136	33184
160	3.211235	116289536	80883712	24583080	33184
161	3.545005	116289536	80883712	27014048	33184
162	4.069426	116289536	80883712	29672928	33184
163	4.206298	116289536	80883712	32561240	33184
164	4.597733	116289536	80883712	35680064	33184
165	6.175815	116289536	80883712	22809976	33184
166	5.26244	116289536	80883712	26394088	33184
167	5.808982	116289536	80883712	30214952	33184
168	5.882922	116289536	80883712	34271416	33184
169	7.470952	116289536	80883712	22513960	33184
170	6.600516	116289536	80883712	27046128	33184
171	6.971954	116289536	80883712	31815960	33184
172	8.90906	116289536	80883712	21115592	33184
173	7.826863	116289536	80883712	26368120	33184
174	8.23061	116289536	80883712	31862592	33184
175	10.01642	116289536	80883712	21891552	33184
176	8.889167	116289536	80883712	27875456	33184
177	9.053271	116289536	80883712	34111232	33184
178	10.738733	116289536	80883712	24587752	33184
179	10.474446	116289536	80883712	31320048	33184
180	12.326538	116289536	80883712	22686168	33184
181	10.995384	116289536	80883712	29923968	33184
182	12.886493	116289536	80883712	21976320	33184
183	11.535947	116289536	80883712	29735168	33184
184	13.949429	116289536	80883712	22374192	33184
185	12.203177	116289536	80883712	30653664	33184
186	14.366275	116289536	80883712	23679944	33184
187	13.052362	116289536	80883712	32484768	33184
188	14.732343	116289536	80883712	25809016	33184
189	13.784662	116289536	80883712	35147016	33184
190	15.367217	116289536	80883712	28646184	33184
191	16.56177	116289536	80883712	23293776	33184
192	14.918282	116289536	80883712	33432008	33184
193	17.11033	116289536	80883712	27985640	33184
194	17.991543	116289536	80883712	23562272	33184
195	16.181528	116289536	80883712	34516728	33184
196	18.292817	116289536	80883712	29760840	33184
197	19.040684	116289536	80883712	25962360	33184
198	18.752047	116289536	80883712	37750520	33184
199	19.713596	116289536	80883712	33438096	33184
200	19.871471	116289536	80883712	30007896	33184
201	20.796251	116289536	80883712	27321696	33184
202	0.87621	116289536	80883712	25403184	33184
203	1.267462	116289536	80883712	26247992	33184
204	1.74345	116289536	80883712	27376680	33184
205	2.081586	116289536	80883712	28791848	33184
206	2.697252	116289536	80883712	30492504	33184
207	2.917837	116289536	80883712	32480680	33184
208	3.323914	116289536	80883712	34758248	33184
209	3.751485	116289536	80883712	37325016	33184
210	5.754085	116289536	80883712	23994976	33184
211	4.69406	116289536	80883712	27147784	33184
212	5.011674	116289536	80883712	30592928	33184
213	5.447658	116289536	80883712	34332776	33184
214	6.080695	116289536	80883712	38370032	33184
215	7.596043	116289536	80883712	26381720	33184
216	6.936895	116289536	80883712	31014664	33184
217	7.377316	116289536	80883712	35948512	33184
218	9.310987	116289536	80883712	25170528	33184
219	8.121365	116289536	80883712	30709848	33184
220	8.700893	116289536	80883712	36550536	33184
221	10.618563	116289536	80883712	26603272	33184
222	9.461526	116289536	80883712	33054792	33184
223	11.785606	116289536	80883712	24217856	33184
224	10.486873	116289536	80883712	31284656	33184
225	10.933553	116289536	80883712	38661928	33184
226	12.78208	116289536	80883712	30010440	33184
227	11.92218	116289536	80883712	38012272	33184
228	13.734864	116289536	80883712	30084304	33184
229	12.796779	116289536	80883712	38719704	33184
230	14.343435	116289536	80883712	31334208	33184
231	15.730677	116289536	80883712	25264264	33184
232	14.134551	116289536	80883712	34856712	33184
233	16.461609	116289536	80883712	28966568	33184
234	15.109256	116289536	80883712	39210072	33184
235	17.256239	116289536	80883712	33426656	33184
236	18.238701	116289536	80883712	28727024	33184
237	19.457987	116289536	80883712	24986480	33184
238	17.10352	116289536	80883712	36536160	33184
239	19.285285	116289536	80883712	32416248	33184
240	20.662456	116289536	80883712	29207088	33184
241	21.258561	116289536	80883712	26740712	33184
242	19.731024	116289536	80883712	39616456	33184
243	21.096624	116289536	80883712	36466688	33184
244	21.859587	116289536	80883712	34089936	33184
245	22.428224	116289536	80883712	32343376	33184
246	23.545906	116289536	80883712	31209032	33184
247	24.011668	116289536	80883712	30578504	33184
248	24.424673	116289536	80883712	30364608	33184
249	25.469265	116289536	80883712	30540104	33184
250	25.70014	116289536	80883712	31035616	33184
251	26.258203	116289536	80883712	31822456	33184
252	1.07096	116289536	80883712	33077008	33184
253	1.56176	116289536	80883712	34114560	33184
254	2.062036	116289536	80883712	35500192	33184
255	2.560118	116289536	80883712	37235032	33184
256	3.270219	116289536	80883712	39321032	33184
257	5.866419	116289536	80883712	25590512	33184
258	4.305565	116289536	80883712	28381240	33184
259	4.80246	116289536	80883712	31526144	33184
260	5.124651	116289536	80883712	35027664	33184
261	5.839487	116289536	80883712	38885776	33184
262	8.248154	116289536	80883712	26981448	33184
263	6.699154	116289536	80883712	31556520	33184
264	7.276311	116289536	80883712	36495200	33184
265	9.910632	116289536	80883712	26037736	33184
266	8.293455	116289536	80883712	31697448	33184
267	9.052836	116289536	80883712	37721200	33184
268	11.182887	116289536	80883712	28180120	33184
269	10.100464	116289536	80883712	34937592	33184
270	12.74204	116289536	80883712	26505448	33184
271	11.226406	116289536	80883712	34003496	33184
272	13.838424	116289536	80883712	26452424	33184
273	12.3088	116289536	80883712	34688472	33184
274	15.021163	116289536	80883712	27783136	33184
275	13.38928	116289536	80883712	36771376	33184
276	16.544324	116289536	80883712	30355728	33184
277	14.996117	116289536	80883712	40092224	33184
278	17.564934	116289536	80883712	33992800	33184
279	18.007468	116289536	80883712	29110472	33184
280	16.030166	116289536	80883712	39981104	33184
281	18.814382	116289536	80883712	35021936	33184
282	19.540048	116289536	80883712	31130776	33184
283	20.773572	116289536	80883712	28143776	33184
284	18.707897	116289536	80883712	40564256	33184
285	20.744626	116289536	80883712	37106768	33184
286	21.59774	116289536	80883712	34539512	33184
287	22.815573	116289536	80883712	32664608	33184
288	24.63011	116289536	80883712	31479408	33184
289	24.319463	116289536	80883712	30842168	33184
290	25.309118	116289536	80883712	30717720	33184
291	25.812067	116289536	80883712	31006888	33184
292	26.554928	116289536	80883712	31669800	33184
293	26.622358	116289536	80883712	32611112	33184
294	28.30466	116289536	80883712	33865080	33184
295	27.86015	116289536	80883712	35337264	33184
296	28.499423	116289536	80883712	37000008	33184
297	28.643262	116289536	80883712	38865048	33184
298	28.458523	116289536	80883712	40890840	33184
299	29.171677	116289536	80883712	43046888	33184
300	34.126821	116289536	80883712	31112496	33184
301	32.239623	116289536	80883712	35456936	33184
302	1.290974	116289536	80883712	39910480	33184
303	1.872897	116289536	80883712	41132048	33184
304	2.43257	116289536	80883712	42765424	33184
305	4.953714	116289536	80883712	28508888	33184
306	3.861617	116289536	80883712	30962928	33184
307	4.290679	116289536	80883712	33830232	33184
308	5.056659	116289536	80883712	37112896	33184
309	5.47557	116289536	80883712	40811344	33184
310	8.181271	116289536	80883712	28861088	33184
311	6.732864	116289536	80883712	33394136	33184
312	7.541603	116289536	80883712	38346296	33184
313	11.399788	116289536	80883712	28021592	33184
314	8.819191	116289536	80883712	33818600	33184
315	9.276024	116289536	80883712	40036872	33184
316	12.142706	116289536	80883712	30760104	33184
317	10.521284	116289536	80883712	37826976	33184
318	13.936234	116289536	80883712	29696240	33184
319	11.834003	116289536	80883712	37619488	33184
320	14.896114	116289536	80883712	30366152	33184
321	13.257791	116289536	80883712	39148928	33184
322	16.088151	116289536	80883712	32576840	33184
323	14.681462	116289536	80883712	42226496	33184
324	17.206644	116289536	80883712	36116064	33184
325	18.463238	116289536	80883712	31272816	33184
326	16.673157	116289536	80883712	42227064	33184
327	19.647981	116289536	80883712	37406248	33184
328	20.44193	116289536	80883712	33696800	33184
329	21.649811	116289536	80883712	30926352	33184
330	19.918078	116289536	80883712	43638456	33184
331	21.735588	116289536	80883712	40439760	33184
332	22.651062	116289536	80883712	38128704	33184
333	23.564114	116289536	80883712	36556672	33184
334	24.765282	116289536	80883712	35686648	33184
335	25.877642	116289536	80883712	35373056	33184
336	26.198254	116289536	80883712	35566032	33184
337	27.162162	116289536	80883712	36183312	33184
338	27.090743	116289536	80883712	37171392	33184
339	28.079999	116289536	80883712	38502656	33184
340	29.647416	116289536	80883712	40102216	33184
341	29.528022	116289536	80883712	41945816	33184
342	29.796249	116289536	80883712	43985728	33184
343	34.805087	116289536	80883712	32112496	33184
344	32.084754	116289536	80883712	36456344	33184
345	32.23958	116289536	80883712	40686432	33184
346	32.656708	116289536	80883712	44798352	33184
347	37.765872	116289536	80883712	34663872	33184
348	35.245503	116289536	80883712	40516528	33184
349	40.218127	116289536	80883712	32419424	33184
350	38.725432	116289536	80883712	41791896	33184
351	41.49462	116289536	80883712	35094040	33184
352	1.455022	116289536	80883712	45743864	33184
353	2.146835	116289536	80883712	47149576	33184
354	2.853283	116289536	80883712	49026024	33184
355	3.543684	116289536	80883712	51374752	33184
356	6.474218	116289536	80883712	37837320	33184
357	5.003824	116289536	80883712	41133976	33184
358	5.882876	116289536	80883712	44914544	33184
359	6.363088	116289536	80883712	49180432	33184
360	9.569002	116289536	80883712	37829232	33184
361	7.997674	116289536	80883712	43079048	33184
362	8.738626	116289536	80883712	48822136	33184
363	11.699578	116289536	80883712	39017928	33184
364	9.949584	116289536	80883712	45754608	33184
365	13.746124	116289536	80883712	37368088	33184
366	11.607311	116289536	80883712	45096808	33184
367	15.139332	116289536	80883712	37777704	33184
368	13.059578	116289536	80883712	46509496	33184
369	16.405889	116289536	80883712	40022872	33184
370	14.583815	116289536	80883712	49762656	33184
371	17.711518	116289536	80883712	43840984	33184
372	19.199827	116289536	80883712	39235712	33184
373	16.590862	116289536	80883712	50489328	33184
374	19.90566	116289536	80883712	46002040	33184
375	20.731679	116289536	80883712	42658552	33184
376	22.404782	116289536	80883712	40270176	33184
377	24.026524	116289536	80883712	38735104	33184
378	24.585869	116289536	80883712	37919264	33184
379	21.772812	116289536	80883712	52250064	33184
380	24.432835	116289536	80883712	50657280	33184
381	25.480743	116289536	80883712	49783792	33184
382	26.687942	116289536	80883712	49549032	33184
383	27.013867	116289536	80883712	49882432	33184
384	27.734634	116289536	80883712	50668504	33184
385	28.439507	116289536	80883712	51886952	33184
386	33.701833	116289536	80883712	39311288	33184
387	32.122402	116289536	80883712	43125408	33184
388	31.426447	116289536	80883712	47001016	33184
389	31.77317	116289536	80883712	50872976	33184
390	36.966327	116289536	80883712	40734136	33184
391	37.34797	116289536	80883712	48875256	33184
392	34.255562	116289536	80883712	54714416	33184
393	39.09363	116289536	80883712	45878840	33184
394	36.467135	116289536	80883712	52927944	33184
395	41.061834	116289536	80883712	45685336	33184
396	42.591212	116289536	80883712	56494416	33184
397	53.526708	116830208	81932288	50572664	33184
398	50.439316	116830208	81932288	22299936	33184
399	40.205135	116830208	81932288	34594448	33184
400	40.425402	116830208	81932288	29781832	33184
401	41.616193	116830208	81932288	26395392	33184
402	1.685633	116830208	81932288	28158640	33184
403	2.49254	116830208	81932288	29786576	33184
404	3.349497	116830208	81932288	31959368	33184
405	3.997489	116830208	81932288	34678216	33184
406	4.775827	116830208	81932288	37944680	33184
407	8.104956	117370880	81932288	27639384	33184
408	6.390436	117370880	81932288	32004280	33184
409	7.155127	117370880	81932288	36920232	33184
410	8.900301	117370880	81932288	26790072	33184
411	8.846402	117370880	81932288	32820728	33184
412	9.579422	117370880	81932288	39398000	33184
413	10.966871	117370880	81932288	30463880	33184
414	11.166116	117370880	81932288	38153808	33184
415	12.594166	117370880	81932288	30512632	33184
416	12.82539	117370880	81932288	39320712	33184
417	14.531263	117370880	81932288	32620984	33184
418	14.440724	117370880	81932288	42553816	33184
419	15.82484	117370880	81932288	36578840	33184
420	17.332369	117370880	81932288	31955848	33184
421	18.85582	117370880	81932288	28549872	33184
422	18.092284	117370880	81932288	40746544	33184
423	19.397922	117370880	81932288	37263680	33184
424	20.827135	117370880	81932288	34827776	33184
425	21.498148	117370880	81932288	33308136	33184
426	23.172102	117370880	81932288	32558704	33184
427	23.835719	117370880	81932288	32499536	33184
428	24.377691	117370880	81932288	33026368	33184
429	25.712631	117370880	81932288	34052744	33184
430	25.732586	117370880	81932288	35526416	33184
431	26.777722	117370880	81932288	37357056	33184
432	27.317812	117370880	81932288	39522688	33184
433	28.045432	117370880	81932288	41986848	33184
434	31.074781	117370880	81932288	30554552	33184
435	31.260723	117370880	81932288	35462384	33184
436	30.634442	117370880	81932288	40276592	33184
437	34.43454	117370880	81932288	31059656	33184
438	36.130749	117370880	81932288	40040120	33184
439	37.009245	117370880	81932288	32943488	33184
440	37.330863	117370880	81932288	43078912	33184
441	37.964252	117370880	81932288	36994736	33184
442	38.958702	117370880	81932288	48300176	33184
443	39.172654	117370880	81932288	42969760	33184
444	45.214462	117370880	81932288	42853912	33184
445	41.448796	117370880	81932288	55767648	33184
446	42.372285	117370880	81932288	51891536	33184
447	49.277675	117641216	82456576	53524320	33184
448	62.15764	121425920	86650880	55609704	33184
449	60.184222	121696256	86650880	28553912	33184
450	51.318068	121696256	86650880	31881056	33184
451	51.437709	121696256	86650880	35789280	33184
452	1.885974	121966592	86650880	40786592	33184
453	2.779526	121966592	86650880	42598472	33184
454	3.694156	121966592	86650880	45016584	33184
455	4.613473	121966592	86650880	48042136	33184
456	8.487571	121966592	86650880	37930544	33184
457	6.41229	121966592	86650880	42175192	33184
458	7.066535	121966592	86650880	47030928	33184
459	9.390765	121966592	86650880	37201728	33184
460	9.095481	121966592	86650880	43288096	33184
461	9.920875	121966592	86650880	49994320	33184
462	11.186377	121966592	86650880	41005096	33184
463	11.50329	121966592	86650880	48938320	33184
464	13.334576	121966592	86650880	41312600	33184
465	13.544458	121966592	86650880	50488040	33184
466	14.7275	121966592	86650880	43911792	33184
467	16.466313	121966592	86650880	38874024	33184
468	16.436816	121966592	86650880	49915904	33184
469	17.561922	121966592	86650880	45277464	33184
470	19.354993	121966592	86650880	41901536	33184
471	20.48046	121966592	86650880	39623952	33184
472	21.830109	121966592	86650880	38322904	33184
473	23.483783	121966592	86650880	37816088	33184
474	24.239918	121966592	86650880	38018656	33184
475	24.954615	121966592	86650880	38808816	33184
476	26.34072	121966592	86650880	40118104	33184
477	26.805089	121966592	86650880	41900336	33184
478	28.194946	121966592	86650880	44065752	33184
479	27.502828	121966592	86650880	46605240	33184
480	28.595389	121966592	86650880	49449624	33184
481	31.870861	121966592	86650880	38600792	33184
482	34.042408	121966592	86650880	46100560	33184
483	31.504689	121966592	86650880	51427736	33184
484	35.272953	121966592	86650880	42719952	33184
485	36.779459	121966592	86650880	52143416	33184
486	37.487278	121966592	86650880	45510264	33184
487	38.725766	121966592	86650880	56182160	33184
488	39.045973	121966592	86650880	50489456	33184
489	40.169598	121966592	86650880	62526248	33184
490	40.786507	121966592	86650880	57600016	33184
491	42.808843	121966592	86650880	54164816	33184
492	50.379041	124129280	88748032	55485480	33184
493	54.706867	126021632	90845184	69931584	33184
494	60.299998	123146240	88223744	25277080	33184
495	50.091133	123146240	88223744	28470960	33184
496	50.938641	123146240	88223744	32229872	33184
497	51.619709	123146240	88223744	36641104	33184
498	52.889084	123957248	88748032	41747192	33184
499	53.660933	123957248	88748032	47469504	33184
500	54.700676	123957248	88748032	53880432	33184
501	55.734108	123957248	88748032	60936992	33184
502	2.214868	123957248	88748032	56684600	33184
503	3.277069	123957248	88748032	58680544	33184
504	4.358921	123957248	88748032	61344064	33184
505	5.490998	123957248	88748032	64676552	33184
506	13.813432	125579264	90320896	54817040	33184
507	12.629489	125579264	90320896	59491032	33184
508	16.470323	122957824	87699456	22082544	33184
509	9.092806	122957824	87699456	28106808	33184
510	9.978773	122957824	87699456	34809128	33184
511	11.192567	122957824	87699456	25836624	33184
512	11.962731	122957824	87699456	33886528	33184
513	13.70399	122957824	87699456	26381776	33184
514	15.12532	122957824	87699456	20588568	33184
515	14.974928	122957824	87699456	30686144	33184
516	16.966072	122957824	87699456	25667344	33184
517	18.64407	122957824	87699456	22034792	33184
518	18.341858	122957824	87699456	34176120	33184
519	19.599912	122957824	87699456	30736800	33184
520	21.19534	122957824	87699456	28469672	33184
521	22.475033	122957824	87699456	27168824	33184
522	23.498696	122957824	87699456	26750824	33184
523	24.356368	122957824	87699456	27114800	33184
524	25.393449	122957824	87699456	28109056	33184
525	26.647648	122957824	87699456	29685616	33184
526	27.217709	122957824	87699456	31698384	33184
527	28.015278	122957824	87699456	34142312	33184
528	31.862938	122957824	87699456	22950168	33184
529	34.003798	122957824	87699456	30305200	33184
530	31.361016	122957824	87699456	35505360	33184
531	35.379484	122957824	87699456	26712408	33184
532	37.227985	122957824	87699456	36159568	33184
533	37.861617	122957824	87699456	29480296	33184
534	38.380005	122957824	87699456	40329320	33184
535	39.022364	122957824	87699456	34780456	33184
536	40.451288	122957824	87699456	47026232	33184
537	40.644261	122957824	87699456	42267952	33184
538	42.601016	122957824	87699456	38979560	33184
539	48.423538	122957824	87699456	40733464	33184
540	49.660035	122957824	87699456	43089320	33184
541	50.214159	122957824	87699456	46187712	33184
542	50.805668	122957824	87699456	49955608	33184
543	53.183053	123228160	88223744	54413352	33184
544	69.790591	126742528	91369472	59604752	33184
545	62.344784	126218240	90845184	33922496	33184
546	56.007105	126218240	90845184	40650040	33184
547	61.698819	126218240	90845184	35468528	33184
548	56.991395	126218240	90845184	43513832	33184
549	58.205475	126218240	90845184	52310472	33184
550	63.958311	126218240	90845184	49280144	33184
551	60.270158	126218240	90845184	59499048	33184
552	2.444104	126218240	91369472	58555480	33184
553	3.599065	126218240	91369472	60737656	33184
554	4.988483	126218240	91369472	63654896	33184
555	6.150775	126218240	91369472	67294040	33184
556	12.498386	128380928	93466624	57747992	33184
557	8.537074	128380928	93466624	62865152	33184
558	11.771149	128380928	93466624	68723480	33184
559	20.349138	128380928	93466624	59514320	33184
560	18.051504	125235200	90320896	24959312	33184
561	12.243777	125235200	90320896	33047976	33184
562	13.690477	125235200	90320896	25851352	33184
563	14.038651	125235200	90320896	35432336	33184
564	15.796111	125235200	90320896	29377632	33184
565	17.396202	125235200	90320896	24920952	33184
566	19.42477	125235200	90320896	21843184	33184
567	18.771513	125235200	90320896	34426040	33184
568	20.39242	125235200	90320896	31563240	33184
569	21.635278	125235200	90320896	29835360	33184
570	23.018038	125235200	90320896	29054064	33184
571	24.590872	125235200	90320896	29130040	33184
572	25.366718	125235200	90320896	29962688	33184
573	27.229564	125235200	90320896	31481320	33184
574	27.418816	125235200	90320896	33567656	33184
575	28.220415	125235200	90320896	36134104	33184
576	31.829638	125235200	90320896	24931336	33184
577	31.548393	125235200	90320896	30211512	33184
578	32.364362	125235200	90320896	35561144	33184
579	35.272067	125235200	90320896	26851032	33184
580	34.744728	125235200	90320896	34204280	33184
581	37.85981	125235200	90320896	27381488	33184
582	39.39489	125235200	90320896	38988576	33184
583	40.103069	125235200	90320896	33755744	33184
584	41.82249	125235200	90320896	30192048	33184
585	47.14917	125235200	90320896	31421480	33184
586	44.001526	125235200	90320896	45936832	33184
587	44.725595	125235200	90320896	43477816	33184
588	45.964059	125235200	90320896	42319776	33184
589	51.924884	125235200	90320896	46724936	33184
590	53.591453	125505536	90320896	51708136	33184
591	54.224792	125505536	90320896	57552256	33184
592	61.282559	125505536	90320896	51556368	33184
593	57.629135	125505536	90320896	58940944	33184
594	87.021724	126873600	93466624	24170728	33184
595	59.662075	128761856	93990912	32453880	33184
596	60.771687	128761856	93990912	42099720	33184
597	65.833071	128761856	93990912	40038064	33184
598	62.031488	129302528	93990912	51370232	33184
599	68.671488	129302528	93990912	50884344	33184
600	64.222893	129302528	93990912	63687688	33184
601	71.472478	129302528	93990912	64770472	33184
602	7.8013	127393792	93990912	20446056	33184
603	4.031169	127393792	93990912	22850472	33184
604	5.21448	127393792	93990912	26034832	33184
605	6.972043	127393792	93990912	30024568	33184
606	7.625324	127393792	93990912	34804496	33184
607	9.4949	128741376	93990912	24598760	33184
608	9.361733	128741376	93990912	30982736	33184
609	11.387172	128741376	93990912	22431072	33184
610	11.703054	128741376	93990912	30422352	33184
611	13.848419	128741376	93990912	23555928	33184
612	14.06496	128741376	93990912	33161520	33184
613	16.16311	128741376	93990912	27540872	33184
614	18.255688	128741376	93990912	23545368	33184
615	17.830296	128741376	93990912	35583800	33184
616	19.809546	128741376	93990912	32076696	33184
617	21.251044	128741376	93990912	29865232	33184
618	22.803934	128741376	93990912	28783976	33184
619	24.378853	128741376	93990912	28658296	33184
620	24.940645	128741376	93990912	29352120	33184
621	26.513955	128741376	93990912	30760496	33184
622	27.300621	128741376	93990912	32820208	33184
623	28.261088	128741376	93990912	35428720	33184
624	32.024969	128741376	93990912	24417672	33184
625	34.419069	128741376	93990912	32235696	33184
626	32.189364	128741376	93990912	37969816	33184
627	35.512504	128741376	93990912	29457624	33184
628	37.439284	128741376	93990912	39772864	33184
629	38.888102	128741376	93990912	33604408	33184
630	44.007823	128741376	93990912	32933192	33184
631	41.097453	128741376	93990912	45535136	33184
632	42.22865	128741376	93990912	41668520	33184
633	48.177602	128741376	93990912	43461512	33184
634	49.254071	128741376	93990912	45968584	33184
635	51.275856	128741376	93990912	49356424	33184
636	51.991402	129282048	93990912	53430240	33184
637	54.51285	129282048	93990912	58472928	33184
638	77.427755	130093056	95039488	64293560	33184
639	58.502571	125648896	90320896	26042336	33184
640	56.122754	125648896	90320896	33504584	33184
641	58.406436	125648896	90320896	41931864	33184
642	63.385773	125648896	90320896	38568976	33184
643	59.591705	125648896	90320896	48589736	33184
644	61.273855	126189568	90845184	59559032	33184
645	67.500888	126189568	90845184	58751192	33184
646	73.91353	127541248	92418048	58780736	33184
647	90.656988	129933312	95039488	28076224	33184
648	66.892197	129933312	95039488	42447168	33184
649	71.728874	129933312	95039488	45024920	33184
650	73.346379	129933312	95039488	48450328	33184
651	74.260864	129933312	95039488	52735104	33184
652	2.703592	130744320	95563776	58690856	33184
653	4.017179	130744320	95563776	61259336	33184
654	5.206007	130744320	95563776	64686328	33184
655	9.679994	130744320	95563776	55356488	33184
656	7.976055	130744320	95563776	60506608	33184
657	8.841204	130744320	95563776	66516992	33184
658	11.607226	131014656	95563776	57833632	33184
659	11.511147	131014656	95563776	65574760	33184
660	13.637376	131014656	95563776	58122232	33184
661	14.317664	131014656	95563776	67593912	33184
662	15.658052	131014656	95563776	61599488	33184
663	17.620071	131014656	95563776	57281136	33184
664	19.626782	131014656	95563776	54486408	33184
665	19.60187	131014656	95563776	67448544	33184
666	21.322844	131014656	95563776	64980280	33184
667	22.495149	131014656	95563776	63694392	33184
668	23.805693	131014656	95563776	63450296	33184
669	25.086863	131014656	95563776	64119576	33184
670	26.285275	131014656	95563776	65606272	33184
671	27.568657	131014656	95563776	67762424	33184
672	31.623754	131014656	95563776	56403352	33184
673	32.300015	131014656	95563776	61674784	33184
674	32.263082	131014656	95563776	67200352	33184
675	35.819934	131014656	95563776	58735048	33184
676	39.878218	131014656	95563776	69000072	33184
677	55.615296	131014656	95563776	63001048	33184
678	45.981276	124198912	88748032	26289264	33184
679	41.899424	124198912	88748032	22512944	33184
680	47.602788	124198912	88748032	23670552	33184
681	44.434467	124198912	88748032	38183080	33184
682	44.957386	124198912	88748032	35911320	33184
683	51.897166	124198912	88748032	39825568	33184
684	52.396387	124198912	88748032	44505064	33184
685	54.48774	124198912	88748032	50030504	33184
686	60.578559	124198912	88748032	43875928	33184
687	63.269874	124198912	88748032	51202688	33184
688	77.922826	118702080	85078016	33562232	33184
689	65.267779	120053760	85078016	29786904	33184
690	60.391002	120053760	85078016	39808232	33184
691	66.09831	120053760	85078016	38162224	33184
692	63.150453	120053760	85078016	49956664	33184
693	69.245568	120324096	85078016	50133144	33184
694	66.642584	120324096	85602304	63721976	33184
695	80.291146	126271488	91893760	65743152	33184
696	89.920199	126193664	91369472	36953456	33184
697	74.630646	126734336	91369472	40815584	33184
698	75.854651	126734336	91369472	45520152	33184
699	77.366719	126734336	91369472	51155384	33184
700	78.587453	126734336	91369472	57690736	33184
701	80.256064	126734336	91369472	65143480	33184
702	12.859035	129978368	95039488	61868648	33184
703	8.351503	129978368	95039488	64621144	33184
704	13.103169	125456384	91893760	23112344	33184
705	8.27992	125456384	91893760	27706600	33184
706	9.262287	125456384	91893760	33222736	33184
707	10.692501	126803968	91893760	23766024	33184
708	11.044181	126803968	91893760	31139392	33184
709	13.028301	126803968	91893760	23787920	33184
710	13.877992	126803968	91893760	33007320	33184
711	15.718921	126803968	91893760	27274392	33184
712	18.295442	126803968	91893760	23252776	33184
713	17.928988	126803968	91893760	35263416	33184
714	19.806181	126803968	91893760	32037496	33184
715	22.079806	126803968	91893760	30173912	33184
716	22.971847	126803968	91893760	29508272	33184
717	24.696637	126803968	91893760	29929096	33184
718	26.250755	126803968	91893760	31246208	33184
719	27.368103	126803968	91893760	33315312	33184
720	29.383865	126803968	91893760	36114264	33184
721	32.44443	126803968	91893760	25436144	33184
722	34.904279	126803968	91893760	33653336	33184
723	32.820042	126803968	91893760	39823376	33184
724	36.917371	126803968	91893760	31693832	33184
725	36.191183	126803968	91893760	39836544	33184
726	39.172308	126803968	91893760	33633088	33184
727	41.740682	126803968	91893760	29940192	33184
728	48.101396	126803968	91893760	31321792	33184
729	44.529895	126803968	91893760	46080816	33184
730	45.72554	126803968	91893760	43981480	33184
731	46.635311	126803968	91893760	43333560	33184
732	53.358316	126803968	91893760	48550384	33184
733	54.951259	126803968	91893760	54511656	33184
734	60.933851	126803968	91893760	48943768	33184
735	57.33889	127074304	91893760	56943888	33184
736	58.524467	127074304	91893760	65857656	33184
737	82.014987	129777664	94515200	63208696	33184
738	72.202329	128679936	93466624	27632496	33184
739	63.223835	128679936	93466624	39493688	33184
740	68.725542	128679936	93466624	39769856	33184
741	71.131074	128679936	93466624	41003312	33184
742	66.981875	128679936	93466624	55838272	33184
743	73.663207	128679936	93466624	59068552	33184
744	80.432591	128679936	93466624	63204016	33184
745	95.255196	126775296	91893760	37204472	33184
746	78.112763	126775296	91893760	43486928	33184
747	83.892761	126775296	91893760	37975144	33184
748	80.190123	126775296	91893760	46204312	33184
749	82.320564	126775296	91893760	55235504	33184
750	82.994572	127315968	92418048	65438440	33184
751	112.962559	127336448	93466624	31106656	33184
752	3.108773	128684032	93466624	30697256	33184
753	4.438201	128684032	93466624	33686552	33184
754	6.095089	128684032	93466624	37671064	33184
755	10.187783	128684032	93466624	28790304	33184
756	8.774981	128684032	93466624	34776880	33184
757	10.178794	128684032	93466624	41763232	33184
758	12.406671	128684032	93466624	33723872	33184
759	13.122773	128684032	93466624	42714248	33184
760	15.004329	128684032	93466624	36513008	33184
761	17.392391	128684032	93466624	32121552	33184
762	17.568101	128684032	93466624	44136888	33184
763	20.074336	128684032	93466624	40751528	33184
764	21.444841	128684032	93466624	38828840	33184
765	22.830664	128684032	93466624	38181344	33184
766	24.247945	128684032	93466624	38652968	33184
767	25.594428	128684032	93466624	40031288	33184
768	27.580008	128684032	93466624	42301976	33184
769	31.452067	128684032	93466624	31301960	33184
770	34.541111	128684032	93466624	39032528	33184
771	32.513907	128684032	93466624	44878344	33184
772	36.72785	128684032	93466624	36956000	33184
773	38.416346	128684032	93466624	47763472	33184
774	39.878376	128684032	93466624	42248872	33184
775	46.024766	128684032	93466624	42478440	33184
776	42.960976	128684032	93466624	56136888	33184
777	43.818992	128684032	93466624	53151592	33184
778	45.5323	128684032	93466624	51732648	33184
779	52.040636	128684032	93466624	56046264	33184
780	53.104546	128684032	93466624	61233888	33184
781	61.437308	128684032	93466624	67527984	33184
782	80.14084	125435904	90320896	29784440	33184
783	57.784707	125435904	90320896	38154920	33184
784	63.217823	125435904	90320896	34858792	33184
785	61.967763	125435904	90320896	45138760	33184
786	66.964571	125435904	90320896	43975120	33184
787	64.729151	125435904	90320896	56351856	33184
788	69.019668	125435904	90320896	57207672	33184
789	87.782955	127598592	92418048	59103160	33184
790	81.563625	124612608	89272320	30647816	33184
791	75.988016	124612608	89272320	34604480	33184
792	75.619813	124612608	89272320	39624792	33184
793	77.33914	124612608	89272320	45715984	33184
794	79.427926	124612608	89272320	52827872	33184
795	81.901828	124612608	89272320	61065560	33184
796	113.755006	125644800	90845184	27412008	33184
797	86.214507	125644800	90845184	37758312	33184
798	84.185324	125644800	90845184	48970320	33184
799	91.074813	125644800	90845184	48816984	33184
800	87.553292	126185472	90845184	62241464	33184
801	94.993483	129159168	94515200	64082304	33184
802	3.151805	127864832	94515200	32413360	33184
803	4.726589	127864832	94515200	35583416	33184
804	9.142778	129212416	94515200	25202608	33184
805	8.304234	129212416	94515200	30491704	33184
806	9.658916	129212416	94515200	36847840	33184
807	12.406405	129212416	94515200	29102376	33184
808	12.669875	129212416	94515200	37579960	33184
809	14.553797	129212416	94515200	30741960	33184
810	17.216905	129212416	94515200	25938808	33184
811	17.062028	129212416	94515200	37616160	33184
812	19.616286	129212416	94515200	33984592	33184
813	21.069677	129212416	94515200	31929184	33184
814	23.265244	129212416	94515200	31216736	33184
815	24.974583	129212416	94515200	31631312	33184
816	26.247316	129212416	94515200	33122720	33184
817	37.913285	129212416	94515200	35457592	33184
818	54.693038	129482752	94515200	24668464	33184
819	58.446068	129753088	94515200	32571128	33184
820	56.677315	129753088	94515200	38575136	33184
821	62.273906	129753088	94515200	30901600	33184
822	67.267931	129753088	94515200	41996328	33184
823	57.634802	129753088	94515200	36707680	33184
824	46.69919	129753088	94515200	37366664	33184
825	47.978991	129753088	94515200	38957696	33184
826	50.158063	129753088	94515200	41632672	33184
827	51.117113	129753088	94515200	45413864	33184
828	52.401151	129753088	94515200	50235144	33184
829	54.212673	129753088	94515200	56165224	33184
830	61.106483	129753088	94515200	63196232	33184
831	81.722176	129699840	94515200	26367600	33184
832	59.043755	129699840	94515200	35671912	33184
833	66.095598	129699840	94515200	33365616	33184
834	62.822642	129699840	94515200	44745944	33184
835	69.033367	129699840	94515200	44727880	33184
836	66.995545	129699840	94515200	58269048	33184
837	72.223742	129699840	94515200	60458280	33184
838	94.759816	131862528	96612352	63629712	33184
839	76.714574	127619072	92418048	35413720	33184
840	77.420914	127619072	92418048	40863808	33184
841	77.711335	127619072	92418048	47352744	33184
842	80.058964	127619072	92418048	54982216	33184
843	85.227178	127619072	92418048	51148744	33184
844	89.278549	127619072	92418048	61031688	33184
845	111.599969	125583360	90320896	29471080	33184
846	85.104746	125583360	90320896	41487800	33184
847	91.885095	125583360	90320896	42057952	33184
848	89.551974	125583360	90320896	56383632	33184
849	98.511361	125583360	90320896	59320648	33184
850	114.337302	131530752	96612352	63383896	33184
851	109.226249	130318336	95039488	35200808	33184
852	3.336433	130318336	95039488	42663040	33184
853	4.946178	130318336	95039488	46048168	33184
854	6.810484	130318336	95039488	50566592	33184
855	11.33295	130318336	95039488	42239704	33184
856	10.080451	130318336	95039488	49024872	33184
857	13.207026	130318336	95039488	41558616	33184
858	13.343791	130318336	95039488	50613200	33184
859	15.621727	130318336	95039488	44748120	33184
860	17.863556	130318336	95039488	40784008	33184
861	19.347364	130318336	95039488	53258784	33184
862	21.446458	130318336	95039488	50422456	33184
863	22.427811	130318336	95039488	49146152	33184
864	24.345648	130318336	95039488	49142520	33184
865	25.682432	130318336	95039488	50279032	33184
866	27.704198	130318336	95039488	52418008	33184
867	31.900418	130318336	95039488	41337832	33184
868	32.534838	130318336	95039488	47061928	33184
869	32.69312	130318336	95039488	53093136	33184
870	36.809351	130318336	95039488	45377848	33184
871	40.113171	130318336	95039488	40748056	33184
872	40.873106	130318336	95039488	53318736	33184
873	43.194969	130318336	95039488	49852016	33184
874	49.23685	130318336	95039488	52154280	33184
875	51.607036	130318336	95039488	55530472	33184
876	53.35613	130318336	95039488	60102416	33184
877	55.223686	130318336	95039488	65722256	33184
878	85.019814	124923904	91369472	27404624	33184
879	57.805759	126271488	91369472	34537328	33184
880	58.393414	126271488	91369472	43652728	33184
881	65.204695	126271488	91369472	41322680	33184
882	61.85899	126271488	91369472	52753000	33184
883	67.828004	126271488	91369472	52792776	33184
884	70.350882	126812160	91369472	53966520	33184
885	67.67648	126812160	91369472	69021440	33184
886	100.442379	127508480	93990912	26365456	33184
887	75.880778	128856064	93990912	30112408	33184
888	76.338591	128856064	93990912	35978904	33184
889	78.421939	128856064	93990912	42963944	33184
890	82.281567	128856064	93990912	51232888	33184
891	82.313251	128856064	93990912	60685416	33184
892	101.385573	128856064	93990912	58600368	33184
893	98.45922	125566976	90320896	39350824	33184
894	91.572552	125566976	90320896	39729936	33184
895	88.170473	125566976	90320896	53817480	33184
896	96.611092	125566976	90320896	56559336	33184
897	96.112745	125566976	90320896	60439552	33184
898	123.921824	129118208	95563776	33124216	33184
899	99.059448	130465792	95563776	38454448	33184
900	101.230345	130465792	95563776	45870536	33184
901	102.950669	130465792	95563776	54526864	33184
902	3.522985	130465792	95563776	65519160	33184
903	9.829977	130465792	95563776	56203456	33184
904	7.832373	130465792	95563776	60965752	33184
905	9.711713	130465792	95563776	66922696	33184
906	14.98065	131006464	95563776	59250688	33184
907	14.66167	131006464	95563776	67600856	33184
908	28.202493	123666432	88223744	17003192	33184
909	16.46162	123666432	88223744	27761784	33184
910	19.50457	123666432	88223744	24821168	33184
911	20.490246	123666432	88223744	22636080	33184
912	22.923943	123666432	88223744	21895592	33184
913	24.715289	123666432	88223744	22435984	33184
914	26.102263	123666432	88223744	24097696	33184
915	27.986915	123666432	88223744	26818464	33184
916	30.170589	123666432	88223744	30294456	33184
917	34.838023	123666432	88223744	20587464	33184
918	36.190327	123666432	88223744	29779336	33184
919	38.55118	123666432	88223744	23452176	33184
920	39.819683	123666432	88223744	34988496	33184
921	41.385232	123666432	88223744	30558096	33184
922	47.475411	123666432	88223744	31966880	33184
923	48.783003	123666432	88223744	34478480	33184
924	50.484769	123666432	88223744	38151520	33184
925	52.367143	123666432	88223744	43023384	33184
926	54.218881	123666432	88223744	49076312	33184
927	62.820213	123936768	88748032	56397760	33184
928	81.486056	121888768	86650880	25373704	33184
929	59.981896	121888768	86650880	35179808	33184
930	66.318674	121888768	86650880	33552816	33184
931	63.56015	121888768	86650880	45775504	33184
932	69.443687	121888768	86650880	46601896	33184
933	70.744823	121888768	86650880	48709168	33184
934	69.38349	121888768	86650880	64630568	33184
935	102.793906	123932672	90320896	24741984	33184
936	77.979533	125280256	90320896	29676640	33184
937	79.651135	125280256	90320896	36670352	33184
938	80.93863	125280256	90320896	44891896	33184
939	82.56701	125280256	90320896	54367608	33184
940	89.164004	125280256	90320896	52527336	33184
941	108.901515	126091264	90845184	64540944	33184
942	95.456998	125566976	90320896	33485872	33184
943	93.628297	125566976	90320896	35288952	33184
944	91.427013	125566976	90320896	50920640	33184
945	99.000324	125566976	90320896	55359352	33184
946	105.962912	125837312	90845184	61050096	33184
947	125.032151	127168512	92418048	37794280	33184
948	102.637316	127168512	92418048	45976152	33184
949	103.503806	127168512	92418048	55193672	33184
950	107.264731	127168512	92418048	65743240	33184
951	115.067644	130953216	95563776	64981568	33184
952	3.75196	132538368	97660928	34560104	33184
953	5.734976	132538368	97660928	38314296	33184
954	7.576176	132538368	97660928	43322088	33184
955	11.822446	132538368	97660928	35450976	33184
956	11.237841	132538368	97660928	42978504	33184
957	13.810528	132538368	97660928	35986736	33184
958	15.161897	132538368	97660928	46019360	33184
959	17.309086	132538368	97660928	41127000	33184
960	19.518964	132538368	97660928	38151304	33184
961	22.287437	132538368	97660928	36795560	33184
962	24.193175	132538368	97660928	36877488	33184
963	25.756446	132538368	97660928	38212736	33184
964	27.633148	132538368	97660928	40634920	33184
965	29.524483	132538368	97660928	43982632	33184
966	34.047095	132538368	97660928	34392016	33184
967	36.114127	132538368	97660928	43416848	33184
968	35.193152	132538368	97660928	50625400	33184
969	38.56687	132538368	97660928	43891840	33184
970	41.720562	132538368	97660928	40134048	33184
971	47.516999	132538368	97660928	41559456	33184
972	45.220293	132538368	97660928	56755512	33184
973	46.425579	132538368	97660928	55403424	33184
974	48.101513	132538368	97660928	55589296	33184
975	61.460331	132538368	97660928	49658840	33184
976	58.890842	132538368	97660928	57397304	33184
977	58.981551	132538368	97660928	66347504	33184
978	64.61744	133079040	97660928	64074704	33184
979	71.390295	136323072	101330944	75641464	33184
980	83.380794	132493312	97660928	37238376	33184
981	70.864448	132493312	97660928	38999832	33184
982	72.373558	132493312	97660928	41906680	33184
983	75.353736	132493312	97660928	46004744	33184
984	76.886133	132493312	97660928	51461984	33184
985	78.050791	132493312	97660928	58175320	33184
986	84.98711	132493312	97660928	66247336	33184
987	104.590888	127672320	92418048	30548608	33184
988	84.664689	127672320	92418048	41225400	33184
989	90.242987	127672320	92418048	40559800	33184
990	88.098427	127672320	92418048	53765440	33184
991	94.518759	127672320	92418048	55697672	33184
992	100.498369	129024000	93990912	71509160	33184
993	122.318043	131960832	97136640	30506672	33184
994	95.286131	131960832	97136640	48905624	33184
995	101.846529	131960832	97136640	56063832	33184
996	103.255459	131960832	97136640	64480088	33184
997	114.089561	131960832	97136640	61675352	33184
998	130.441173	128794624	93466624	41093080	33184
999	113.065931	128794624	93466624	40941648	33184
1000	112.668411	128794624	93466624	54568312	33184
