x	Duration	RSS	HeapTotal	HeapUsed	External
0	NA	128106496	93466624	23184872	33184
1	0.23224	128106496	93466624	23228232	33184
2	0.155773	128106496	93466624	23295840	33184
3	0.167669	128106496	93466624	23388248	33184
4	0.21525	128106496	93466624	23507008	33184
5	0.236513	128106496	93466624	23653832	33184
6	0.273451	128106496	93466624	23829432	33184
7	0.325499	128106496	93466624	24035088	33184
8	0.359296	128106496	93466624	24271920	33184
9	0.405076	128106496	93466624	24542512	33184
10	0.471498	128106496	93466624	24847120	33184
11	0.509781	128106496	93466624	25187064	33184
12	0.555278	128106496	93466624	25563360	33184
13	0.610585	128106496	93466624	25977344	33184
14	0.66822	128106496	93466624	26430296	33184
15	0.720344	128106496	93466624	26923360	33184
16	0.801176	128106496	93466624	27457808	33184
17	0.871797	128106496	93466624	28036720	33184
18	0.898351	128106496	93466624	28659400	33184
19	0.962331	128106496	93466624	29328464	33184
20	1.078439	128106496	93466624	30043504	33184
21	1.170508	128106496	93466624	30807040	33184
22	1.207179	128106496	93466624	31620168	33184
23	1.259457	128106496	93466624	32484328	33184
24	1.780941	128106496	93466624	33400456	33184
25	1.483495	128106496	93466624	34372160	33184
26	1.474113	128106496	93466624	35394480	33184
27	1.503433	128106496	93466624	36472496	33184
28	1.629919	128106496	93466624	37607416	33184
29	1.70074	128106496	93466624	38800640	33184
30	4.064508	128913408	93466624	24443800	33184
31	1.940797	129454080	93466624	25756968	33184
32	2.186111	129454080	93466624	27134832	33184
33	2.000715	129454080	93466624	28579872	33184
34	2.080444	129454080	93466624	30089472	33184
35	2.164645	129454080	93466624	31664680	33184
36	2.258291	129454080	93466624	33306656	33184
37	2.36201	129454080	93466624	35016776	33184
38	2.446989	129454080	93466624	36796136	33184
39	2.569249	129454080	93466624	38645896	33184
40	4.038043	129454080	93466624	24473568	33184
41	3.019103	129454080	93466624	26468328	33184
42	3.141907	129454080	93466624	28536984	33184
43	3.21733	129454080	93466624	30680880	33184
44	3.106055	129454080	93466624	32902632	33184
45	3.177379	129454080	93466624	35204616	33184
46	3.301982	129454080	93466624	37586776	33184
47	3.40911	129454080	93466624	40051120	33184
48	4.845425	129454080	93466624	26329752	33184
49	4.644152	129454080	93466624	28963416	33184
50	3.959795	129454080	93466624	31681584	33184
51	4.060347	129454080	93466624	34486888	33184
52	0.286656	129454080	93466624	37296760	33184
53	0.415982	129454080	93466624	37561864	33184
54	0.551182	129454080	93466624	37917584	33184
55	0.672632	129454080	93466624	38365072	33184
56	0.792041	129454080	93466624	38906136	33184
57	0.927756	129454080	93466624	39541440	33184
58	1.060791	129454080	93466624	40272248	33184
59	2.258378	129454080	93466624	24847208	33184
60	1.454948	129454080	93466624	25773720	33184
61	1.711027	129454080	93466624	26799312	33184
62	1.603292	129454080	93466624	27925368	33184
63	1.805677	129454080	93466624	29153048	33184
64	1.992912	129454080	93466624	30483536	33184
65	2.053973	129454080	93466624	31918064	33184
66	2.427619	129454080	93466624	33458400	33184
67	2.595197	129454080	93466624	35107760	33184
68	2.549305	129454080	93466624	36863744	33184
69	2.629861	129454080	93466624	38728736	33184
70	2.988894	129454080	93466624	40704368	33184
71	3.923302	129454080	93466624	26459872	33184
72	3.235162	129454080	93466624	28659456	33184
73	3.303406	129454080	93466624	30972896	33184
74	3.792373	129454080	93466624	33403064	33184
75	3.582045	129454080	93466624	35948048	33184
76	3.756097	129454080	93466624	38610480	33184
77	5.114995	129454080	93466624	25300576	33184
78	4.350084	129454080	93466624	28201768	33184
79	4.293537	129454080	93466624	31224280	33184
80	4.459348	129454080	93466624	34369456	33184
81	4.675856	129454080	93466624	37640448	33184
82	5.04385	129454080	93466624	41034080	33184
83	6.307077	129454080	93466624	28178720	33184
84	6.275378	129454080	93466624	31842880	33184
85	5.495682	129454080	93466624	35629744	33184
86	5.688784	129454080	93466624	39545984	33184
87	6.693565	129454080	93466624	27456920	33184
88	6.337291	129454080	93466624	31638560	33184
89	6.177666	129454080	93466624	35955264	33184
90	6.441564	129454080	93466624	40407648	33184
91	7.250276	129454080	93466624	28857504	33184
92	7.485635	129454080	93466624	33597848	33184
93	6.807541	129454080	93466624	38471632	33184
94	8.024058	129454080	93466624	27626528	33184
95	7.404717	129454080	93466624	32787432	33184
96	7.374114	129454080	93466624	38093800	33184
97	9.288571	129454080	93466624	27791640	33184
98	7.822709	129454080	93466624	33392264	33184
99	8.201513	129454080	93466624	39142440	33184
100	9.573205	129454080	93466624	29177792	33184
101	8.835216	129454080	93466624	35229744	33184
102	0.475886	129454080	93466624	41425384	33184
103	0.693531	129454080	93466624	41884240	33184
104	0.903072	129454080	93466624	42498064	33184
105	1.994403	129454080	93466624	27069488	33184
106	1.340457	129454080	93466624	27997808	33184
107	1.562099	129454080	93466624	29084920	33184
108	1.996672	129454080	93466624	30332160	33184
109	2.001627	129454080	93466624	31740656	33184
110	2.279939	129454080	93466624	33312640	33184
111	2.471361	129454080	93466624	35048520	33184
112	2.688314	129454080	93466624	36949088	33184
113	2.949416	129454080	93466624	39017960	33184
114	3.170743	129454080	93466624	41252064	33184
115	4.391568	129454080	93466624	27592464	33184
116	3.868761	129454080	93466624	30165200	33184
117	3.878951	129454080	93466624	32909072	33184
118	4.125906	129454080	93466624	35827000	33184
119	4.582126	129454080	93466624	38918592	33184
120	4.61206	129454080	93466624	42185440	33184
121	6.116851	129454080	93466624	29458672	33184
122	5.496112	129454080	93466624	33078576	33184
123	5.614393	129454080	93466624	36876960	33184
124	5.616306	129454080	93466624	40855048	33184
125	7.305907	129454080	93466624	29009184	33184
126	6.189307	129454080	93466624	33350368	33184
127	6.600612	129454080	93466624	37874824	33184
128	6.661964	129454080	93466624	42583976	33184
129	8.080392	129454080	93466624	31262568	33184
130	7.412083	129454080	93466624	36344568	33184
131	7.479189	129454080	93466624	41614880	33184
132	8.699403	129454080	93466624	30991288	33184
133	8.301664	129454080	93466624	36644704	33184
134	8.311553	129454080	93466624	42495120	33184
135	10.345111	129454080	93466624	32363872	33184
136	9.057092	129454080	93466624	38602264	33184
137	10.666895	129454080	93466624	29382776	33184
138	9.463805	129454080	93466624	36014928	33184
139	9.91036	129454080	93466624	42844664	33184
140	11.66604	129454080	93466624	33672040	33184
141	10.498582	129454080	93466624	40899992	33184
142	12.051583	129454080	93466624	32407176	33184
143	11.073722	129454080	93466624	40045464	33184
144	12.774454	129454080	93466624	32086840	33184
145	11.744792	129454080	93466624	40139584	33184
146	13.41931	129454080	93466624	32608104	33184
147	12.45599	129454080	93466624	41077160	33184
148	14.206894	129454080	93466624	33843776	33184
149	12.667677	129454080	93466624	42737928	33184
150	14.782747	129454080	93466624	35735376	33184
151	15.372697	129454080	93466624	29882464	33184
152	0.682165	129454080	93466624	39479824	33184
153	1.188333	129454080	93466624	40129480	33184
154	1.331367	129454080	93466624	40996064	33184
155	1.58719	129454080	93466624	42083272	33184
156	1.911828	129454080	93466624	43390736	33184
157	2.217729	129454080	93466624	44920264	33184
158	3.567937	129454080	93466624	30365848	33184
159	3.081874	129454080	93466624	32343120	33184
160	3.177168	129454080	93466624	34549776	33184
161	3.574051	129454080	93466624	36980512	33184
162	3.84478	129454080	93466624	39639408	33184
163	4.664479	129454080	93466624	42533688	33184
164	5.836569	129454080	93466624	29682848	33184
165	5.081121	129454080	93466624	33033632	33184
166	5.222161	129454080	93466624	36617512	33184
167	5.707678	129454080	93466624	40436616	33184
168	5.813105	129454080	93466624	44495296	33184
169	7.283619	129454080	93466624	32557152	33184
170	6.503888	129454080	93466624	37087464	33184
171	7.086529	129454080	93466624	41857136	33184
172	9.179341	129454080	93466624	31007800	33184
173	7.548353	129454080	93466624	36259520	33184
174	8.241478	129454080	93466624	41753992	33184
175	9.85212	129454080	93466624	31637168	33184
176	8.900136	129454080	93466624	37621040	33184
177	8.95979	129454080	93466624	43851456	33184
178	10.898668	129454080	93466624	34216680	33184
179	9.922699	129454080	93466624	40943800	33184
180	11.780902	129454080	93466624	32207104	33184
181	10.622892	129454080	93466624	39445152	33184
182	12.48436	129454080	93466624	31411040	33184
183	11.380629	129454080	93466624	39165944	33184
184	13.805823	129454080	93466624	31714760	33184
185	11.994174	129454080	93466624	39994232	33184
186	14.583221	129454080	93466624	32980608	33184
187	13.180908	129454080	93466624	41784752	33184
188	14.969085	129454080	93466624	35075728	33184
189	13.431282	129454080	93466624	44409584	33184
190	15.420295	129454080	93466624	37881496	33184
191	17.459177	129454080	93466624	32521312	33184
192	15.109878	129454080	93466624	42659112	33184
193	16.726074	129454080	93466624	37200456	33184
194	18.012201	129454080	93466624	32755584	33184
195	15.752646	129454080	93466624	43709584	33184
196	18.526488	129454080	93466624	38942360	33184
197	19.228495	129454080	93466624	35129464	33184
198	17.377009	129454080	93466624	46912680	33184
199	19.006672	129454080	93466624	42614256	33184
200	19.840182	129454080	93466624	39164600	33184
201	20.94397	129454080	93466624	36457872	33184
202	0.912277	129454080	93466624	34514112	33184
203	1.366792	129454080	93466624	35358944	33184
204	1.662409	129454080	93466624	36491288	33184
205	2.061598	129454080	93466624	37905024	33184
206	2.473656	129454080	93466624	39606104	33184
207	3.109866	129454080	93466624	41594272	33184
208	3.349275	129454080	93466624	43871048	33184
209	3.70929	129454080	93466624	46437904	33184
210	5.92458	129454080	93466624	33079608	33184
211	4.550598	129454080	93466624	36231168	33184
212	4.974162	129454080	93466624	39676248	33184
213	5.384169	129454080	93466624	43418680	33184
214	5.798094	129454080	93466624	47455704	33184
215	7.811063	129454080	93466624	35447288	33184
216	6.894096	129454080	93466624	40079384	33184
217	7.102098	129454080	93466624	45011256	33184
218	9.345103	129454080	93466624	34238568	33184
219	8.198034	129454080	93466624	39775536	33184
220	8.393148	129454080	93466624	45616816	33184
221	10.658036	129454080	93466624	35670592	33184
222	9.365255	129454080	93466624	42121856	33184
223	11.898879	129454080	93466624	33259240	33184
224	10.408671	129454080	93466624	40327088	33184
225	10.646121	129454080	93466624	47703792	33184
226	12.98978	129454080	93466624	39036688	33184
227	11.728337	129454080	93466624	47036168	33184
228	13.397781	129454080	93466624	39099976	33184
229	12.945285	129454080	93466624	47733360	33184
230	14.83155	129454080	93466624	40344864	33184
231	15.729297	129454080	93466624	34271688	33184
232	14.085983	129454080	93466624	43862000	33184
233	16.172867	129454080	93466624	37970328	33184
234	15.172264	129454080	93466624	48213248	33184
235	17.58628	129454080	93466624	42430184	33184
236	18.687076	129454080	93466624	37729264	33184
237	19.149851	129454080	93466624	33990208	33184
238	17.466316	129454080	93466624	45539464	33184
239	19.22699	129454080	93466624	41416536	33184
240	20.334167	129454080	93466624	38207576	33184
241	21.739088	129454080	93466624	35741496	33184
242	18.689885	129454080	93466624	48617120	33184
243	21.503502	129454080	93466624	45467584	33184
244	21.775996	129454080	93466624	43091184	33184
245	22.943137	129454080	93466624	41344800	33184
246	23.44443	129454080	93466624	40210632	33184
247	24.875886	129454080	93466624	39588392	33184
248	24.329289	129454080	93466624	39374672	33184
249	25.287682	129454080	93466624	39550168	33184
250	25.593182	129454080	93466624	40045680	33184
251	26.465443	129454080	93466624	40832520	33184
252	1.055582	129454080	93466624	42087000	33184
253	1.547159	129454080	93466624	43124560	33184
254	2.028018	129454080	93466624	44510160	33184
255	2.582368	129454080	93466624	46245024	33184
256	3.247233	129454080	93466624	48330960	33184
257	5.789284	129454080	93466624	34600456	33184
258	4.305544	129454080	93466624	37391304	33184
259	4.960724	129454080	93466624	40536208	33184
260	5.538659	129454080	93466624	44037728	33184
261	5.82227	129454080	93466624	47895768	33184
262	7.991964	129454080	93466624	35991512	33184
263	6.870092	129454080	93466624	40566584	33184
264	7.160858	129454080	93466624	45505264	33184
265	9.792981	129454080	93466624	35047800	33184
266	8.503489	129454080	93466624	40707512	33184
267	8.967606	129454080	93466624	46731264	33184
268	11.449867	129454080	93466624	37190088	33184
269	10.426787	129454080	93466624	43947656	33184
270	12.893804	129454080	93466624	35515368	33184
271	11.410441	129454080	93466624	43013560	33184
272	14.554414	129454080	93466624	35462456	33184
273	12.204919	129454080	93466624	43698536	33184
274	14.950022	129454080	93466624	36793200	33184
275	13.565543	129454080	93466624	45781440	33184
276	16.322874	129454080	93466624	39365792	33184
277	14.356265	129454080	93466624	49102288	33184
278	16.829838	129454080	93466624	43002864	33184
279	18.234706	129454080	93466624	38120536	33184
280	16.057854	129454080	93466624	48991168	33184
281	18.573511	129454080	93466624	44032000	33184
282	19.502573	129454080	93466624	40140840	33184
283	21.46281	129454080	93466624	37153840	33184
284	18.553931	129454080	93466624	49574320	33184
285	21.323557	129454080	93466624	46116832	33184
286	21.661224	129454080	93466624	43549576	33184
287	23.291387	129454080	93466624	41674672	33184
288	23.600995	129454080	93466624	40479896	33184
289	24.777313	129454080	93466624	39842776	33184
290	25.044952	129454080	93466624	39718472	33184
291	26.609469	129454080	93466624	40007784	33184
292	26.423699	129454080	93466624	40670840	33184
293	26.956051	129454080	93466624	41612296	33184
294	27.286026	129454080	93466624	42858184	33184
295	27.915012	129454080	93466624	44330232	33184
296	28.521534	129454080	93466624	45993120	33184
297	29.073863	129454080	93466624	47868072	33184
298	29.335951	129454080	93466624	49893992	33184
299	29.27941	129454080	93466624	52050040	33184
300	34.134626	129454080	93466624	40115584	33184
301	32.078898	129454080	93466624	44460024	33184
302	1.254784	129454080	93466624	48913568	33184
303	1.843046	129454080	93466624	50135136	33184
304	2.422643	129454080	93466624	51768512	33184
305	5.062879	129454080	93466624	37511840	33184
306	3.702366	129454080	93466624	39965912	33184
307	4.281534	129454080	93466624	42833224	33184
308	4.843126	129454080	93466624	46115984	33184
309	5.437257	129454080	93466624	49814432	33184
310	8.320782	129454080	93466624	37864176	33184
311	6.70841	129454080	93466624	42397224	33184
312	7.289888	129454080	93466624	47349384	33184
313	11.711527	129454080	93466624	37032032	33184
314	8.842446	129454080	93466624	42826424	33184
315	9.117323	129454080	93466624	49043840	33184
316	12.298846	129454080	93466624	39775712	33184
317	10.597887	129454080	93466624	46842464	33184
318	13.708687	129454080	93466624	38716480	33184
319	11.999294	129454080	93466624	46643040	33184
320	15.05365	129454080	93466624	39392480	33184
321	13.135142	129454080	93466624	48175392	33184
322	16.086963	129454080	93466624	41599456	33184
323	14.681381	129454080	93466624	51248664	33184
324	17.283793	129454080	93466624	45139712	33184
325	18.390546	129454080	93466624	40290120	33184
326	16.316093	129454080	93466624	51243016	33184
327	19.077206	129454080	93466624	46420856	33184
328	20.314633	129454080	93466624	42707312	33184
329	22.190414	129454080	93466624	39936728	33184
330	19.540188	129454080	93466624	52648968	33184
331	22.204641	129454080	93466624	49450272	33184
332	23.506408	129454080	93466624	47139216	33184
333	23.879602	129454080	93466624	45566864	33184
334	25.107189	129454080	93466624	44697160	33184
335	25.585502	129454080	93466624	44383568	33184
336	26.594445	129454080	93466624	44576544	33184
337	27.254262	129454080	93466624	45192712	33184
338	27.590352	129454080	93466624	46181904	33184
339	28.030628	129454080	93466624	47513168	33184
340	28.568377	129454080	93466624	49112728	33184
341	29.173461	129454080	93466624	50956328	33184
342	29.01421	129454080	93466624	52993312	33184
343	34.951894	129454080	93466624	41123664	33184
344	32.415102	129454080	93466624	45467280	33184
345	32.71506	129454080	93466624	49697504	33184
346	32.114051	129454080	93466624	53809424	33184
347	38.481638	129454080	93466624	43674880	33184
348	34.427744	129454080	93466624	49527536	33184
349	40.570571	129454080	93466624	41430368	33184
350	39.059865	129454080	93466624	50802840	33184
351	41.659623	129454080	93466624	44104920	33184
352	1.452988	129454080	93466624	54754744	33184
353	2.113252	129454080	93466624	56160336	33184
354	2.813326	129454080	93466624	58036768	33184
355	3.723935	129454080	93466624	60385632	33184
356	6.617892	129454080	93466624	46848048	33184
357	5.163976	129454080	93466624	50144736	33184
358	5.608767	129454080	93466624	53925288	33184
359	6.307827	129454080	93466624	58191064	33184
360	9.430225	129454080	93466624	46840040	33184
361	8.185102	129454080	93466624	52089776	33184
362	9.123354	129454080	93466624	57837656	33184
363	11.673971	129454080	93466624	48091056	33184
364	10.097711	129454080	93466624	54825448	33184
365	13.683566	129454080	93466624	46494656	33184
366	11.397253	129454080	93466624	54223104	33184
367	15.101952	129454080	93466624	46889080	33184
368	12.977142	129454080	93466624	55621984	33184
369	16.388568	129454080	93466624	49126160	33184
370	14.43845	129454080	93466624	58865000	33184
371	17.869381	129454080	93466624	52953104	33184
372	19.413452	129454080	93466624	48348792	33184
373	16.464854	129454080	93466624	59602792	33184
374	19.907792	129454080	93466624	55117000	33184
375	20.895429	129454080	93466624	51766832	33184
376	22.466891	129454080	93466624	49376248	33184
377	23.733686	129454080	93466624	47838920	33184
378	25.037588	129454080	93466624	47015640	33184
379	21.309469	129454080	93466624	61348464	33184
380	24.775168	129454080	93466624	59757472	33184
381	25.398821	129454080	93466624	58887840	33184
382	26.247983	129454080	93466624	58655704	33184
383	26.626688	129454080	93466624	58989312	33184
384	27.988089	129454080	93466624	59778592	33184
385	28.432403	129454080	93466624	60995880	33184
386	34.034842	129454080	93466624	48427256	33184
387	31.606831	129454080	93466624	52226352	33184
388	31.463259	129454080	93466624	56099992	33184
389	31.735977	129454080	93466624	59966376	33184
390	37.194927	129454080	93466624	49811776	33184
391	36.898509	129454080	93466624	57951024	33184
392	34.561836	129454080	93466624	63726752	33184
393	39.835821	129454080	93466624	54891112	33184
394	36.460505	129454080	93466624	61940216	33184
395	41.246768	129454080	93466624	54697544	33184
396	40.576879	129454080	93466624	65506624	33184
397	43.018409	129454080	93466624	59582912	33184
398	49.819171	132427776	96088064	58806872	33184
399	54.099431	133509120	97136640	71023792	33184
400	58.003807	128266240	91893760	23019760	33184
401	42.260053	128266240	91893760	36464936	33184
402	1.61414	128266240	91893760	33083392	33184
403	2.372048	128266240	91893760	34721424	33184
404	3.129088	128266240	91893760	36894008	33184
405	4.578297	128266240	91893760	23269736	33184
406	4.732553	128266240	91893760	26545616	33184
407	5.457582	128266240	91893760	30360888	33184
408	6.244384	128266240	91893760	34734920	33184
409	7.695333	128266240	91893760	23581536	33184
410	8.150954	128266240	91893760	29050600	33184
411	8.979001	128266240	91893760	35073320	33184
412	10.366203	128266240	91893760	25553384	33184
413	10.425485	128266240	91893760	32688168	33184
414	11.80414	128266240	91893760	24605440	33184
415	12.253337	128266240	91893760	32855072	33184
416	13.763806	128266240	91893760	25857720	33184
417	13.720335	128266240	91893760	35226512	33184
418	15.451483	128266240	91893760	29022192	33184
419	16.735727	128266240	91893760	24264808	33184
420	16.235723	128266240	91893760	35330864	33184
421	17.902118	128266240	91893760	30820888	33184
422	18.859967	128266240	91893760	27486888	33184
423	20.215457	128266240	91893760	25188464	33184
424	21.79405	128266240	91893760	23802680	33184
425	20.367349	128266240	91893760	37707792	33184
426	21.124597	128266240	91893760	35730640	33184
427	22.260435	128266240	91893760	34589448	33184
428	23.718476	128266240	91893760	34183472	33184
429	24.908336	128266240	91893760	34386168	33184
430	25.012723	128266240	91893760	35173768	33184
431	26.38203	128266240	91893760	36420832	33184
432	26.880106	128266240	91893760	38083288	33184
433	29.970543	128266240	91893760	25889184	33184
434	30.249902	128266240	91893760	30207080	33184
435	29.997792	128266240	91893760	34515920	33184
436	33.280359	128266240	91893760	24996480	33184
437	35.119917	128266240	91893760	33355192	33184
438	32.041373	128266240	91893760	39384264	33184
439	35.792922	128266240	91893760	31067264	33184
440	37.767713	128266240	91893760	41234792	33184
441	38.235789	128266240	91893760	34736472	33184
442	39.22921	128266240	91893760	46081328	33184
443	38.852112	128266240	91893760	40417024	33184
444	40.598778	128266240	91893760	36302736	33184
445	41.423803	128266240	91893760	49351624	33184
446	41.324777	128266240	91893760	45263128	33184
447	42.978563	128266240	91893760	42559464	33184
448	48.10428	128806912	92418048	44742000	33184
449	48.671756	128806912	92418048	47438200	33184
450	49.90459	128806912	92418048	50728888	33184
451	51.86851	128806912	92418048	54627552	33184
452	3.238096	129077248	92942336	59632488	33184
453	4.82332	129077248	92942336	61444288	33184
454	7.69481	129077248	92942336	63866224	33184
455	8.581186	124882944	88748032	23638800	33184
456	5.628987	124882944	88748032	27274280	33184
457	6.32766	124882944	88748032	31518928	33184
458	6.966671	124882944	88748032	36374784	33184
459	8.676733	124882944	88748032	25423408	33184
460	9.13851	124882944	88748032	31506248	33184
461	10.424172	124882944	88748032	22430536	33184
462	10.749935	124882944	88748032	29743776	33184
463	12.782803	124882944	88748032	22136272	33184
464	12.333294	124882944	88748032	30685360	33184
465	14.241114	124882944	88748032	24208456	33184
466	14.392817	124882944	88748032	33998064	33184
467	16.194575	124882944	88748032	28316560	33184
468	17.254763	124882944	88748032	24038968	33184
469	16.782305	124882944	88748032	35700904	33184
470	18.418505	124882944	88748032	31663976	33184
471	19.950695	124882944	88748032	28819960	33184
472	21.173442	124882944	88748032	27003104	33184
473	22.438251	124882944	88748032	26064992	33184
474	23.703205	124882944	88748032	25850160	33184
475	24.511216	124882944	88748032	26317176	33184
476	26.028357	124882944	88748032	27372928	33184
477	26.184458	124882944	88748032	28901576	33184
478	27.094526	124882944	88748032	30860544	33184
479	28.52346	124882944	88748032	33181008	33184
480	27.858299	124882944	88748032	35834152	33184
481	31.65367	124882944	88748032	24686712	33184
482	32.837888	124882944	88748032	32188088	33184
483	32.474616	124882944	88748032	37430040	33184
484	34.814903	124882944	88748032	28542416	33184
485	36.281955	124882944	88748032	37958680	33184
486	37.246101	124882944	88748032	31180792	33184
487	37.786697	124882944	88748032	41888176	33184
488	38.761168	124882944	88748032	36122864	33184
489	39.918861	124882944	88748032	48106672	33184
490	40.534071	124882944	88748032	43065856	33184
491	42.009355	124882944	88748032	39530344	33184
492	46.969086	124882944	88748032	40825680	33184
493	43.482382	125153280	88748032	55247448	33184
494	43.821571	125153280	88748032	52544912	33184
495	45.389353	125153280	88748032	51023176	33184
496	51.678277	125153280	88748032	54951488	33184
497	52.139532	125153280	88748032	59418432	33184
498	52.698039	125153280	88748032	64516240	33184
499	64.249659	128937984	92942336	70279632	33184
500	74.578336	130310144	93990912	30543232	33184
501	55.495852	130310144	93990912	37731016	33184
502	1.992259	130310144	93990912	33465728	33184
503	2.921666	130310144	93990912	35461672	33184
504	3.966779	130310144	93990912	38129088	33184
505	5.101402	130310144	93990912	41463136	33184
506	6.056821	130310144	93990912	45466808	33184
507	9.027851	130310144	93990912	35705376	33184
508	8.033325	130310144	93990912	41056256	33184
509	8.779523	130310144	93990912	47076536	33184
510	10.36572	130310144	93990912	37479760	33184
511	10.699217	130310144	93990912	44852968	33184
512	12.545906	130310144	93990912	36848288	33184
513	12.853196	130310144	93990912	45580000	33184
514	14.522222	130310144	93990912	38845664	33184
515	16.371929	130310144	93990912	33698952	33184
516	16.356092	130310144	93990912	44477008	33184
517	17.745685	130310144	93990912	39924408	33184
518	18.923738	130310144	93990912	36703888	33184
519	20.407571	130310144	93990912	34608568	33184
520	21.971244	130310144	93990912	33493024	33184
521	21.282005	130310144	93990912	47696544	33184
522	22.820671	130310144	93990912	46187064	33184
523	23.33684	130310144	93990912	45557536	33184
524	24.501841	130310144	93990912	45694536	33184
525	25.517137	130310144	93990912	46530968	33184
526	26.249905	130310144	93990912	47911184	33184
527	30.796289	130310144	93990912	35607168	33184
528	29.96417	130310144	93990912	39899880	33184
529	30.707144	130310144	93990912	44343304	33184
530	34.314135	130310144	93990912	35098472	33184
531	35.643149	130310144	93990912	43839936	33184
532	33.43105	130310144	93990912	50234016	33184
533	36.388546	130310144	93990912	42285632	33184
534	35.787759	130310144	93990912	50265376	33184
535	38.90146	130310144	93990912	43752056	33184
536	41.455771	130310144	93990912	39548448	33184
537	42.368567	130310144	93990912	52501192	33184
538	42.084599	130310144	93990912	48546744	33184
539	47.797818	130310144	93990912	50357552	33184
540	48.900494	130310144	93990912	52708712	33184
541	51.705257	130310144	93990912	55761296	33184
542	68.54394	130850816	94515200	59513272	33184
543	56.057854	125616128	89272320	32633968	33184
544	53.107761	125616128	89272320	37915520	33184
545	55.072706	125616128	89272320	43825328	33184
546	59.070135	125616128	89272320	37878416	33184
547	56.378168	125616128	89272320	45236368	33184
548	58.154611	125616128	89272320	53314392	33184
549	57.979198	125616128	89272320	62064280	33184
550	64.063522	125616128	89272320	59054800	33184
551	69.79926	128860160	92418048	69280664	33184
552	2.198592	129646592	93466624	35788752	33184
553	7.667726	129646592	93466624	25326728	33184
554	4.348399	129646592	93466624	28235560	33184
555	5.338917	129646592	93466624	31874640	33184
556	6.793618	129646592	93466624	36262768	33184
557	9.308746	129646592	93466624	26822144	33184
558	8.726758	129646592	93466624	32680760	33184
559	9.65945	129646592	93466624	39290216	33184
560	11.17264	129646592	93466624	30344888	33184
561	11.901138	129646592	93466624	38433096	33184
562	13.25422	129646592	93466624	31090088	33184
563	14.06527	129646592	93466624	40670392	33184
564	15.365728	129646592	93466624	34517520	33184
565	17.287593	129646592	93466624	29970864	33184
566	20.061646	129646592	93466624	26785256	33184
567	18.147592	129646592	93466624	39373288	33184
568	20.127067	129646592	93466624	36404544	33184
569	20.946667	129646592	93466624	34592064	33184
570	22.926176	129646592	93466624	33813392	33184
571	24.92124	129646592	93466624	33902720	33184
572	24.82117	129646592	93466624	34741400	33184
573	26.313922	129646592	93466624	36207656	33184
574	26.814036	129646592	93466624	38244768	33184
575	27.967494	129646592	93466624	40785200	33184
576	31.800934	129646592	93466624	29516304	33184
577	30.79606	129646592	93466624	34808344	33184
578	31.412405	129646592	93466624	40091904	33184
579	34.64654	129646592	93466624	31298448	33184
580	34.484985	129646592	93466624	38607176	33184
581	37.760996	129646592	93466624	31728648	33184
582	39.373177	129646592	93466624	43325560	33184
583	41.012247	129646592	93466624	38086680	33184
584	41.408781	129646592	93466624	34513208	33184
585	47.20469	129646592	93466624	35759000	33184
586	44.016689	129646592	93466624	50272920	33184
587	43.870248	129646592	93466624	47808184	33184
588	45.428595	129646592	93466624	46633216	33184
589	52.25473	129646592	93466624	51047640	33184
590	53.124675	129646592	93466624	56022856	33184
591	53.920884	129916928	93466624	61886744	33184
592	59.071949	129916928	93466624	55901392	33184
593	76.393066	130727936	94515200	63262216	33184
594	65.441799	125755392	89272320	26132552	33184
595	58.444429	125755392	89272320	35096576	33184
596	59.123114	125755392	89272320	44820944	33184
597	65.741671	125755392	89272320	42755760	33184
598	62.843293	125755392	89272320	54098608	33184
599	68.00387	125755392	89272320	53640576	33184
600	64.792653	125755392	89272320	66512472	33184
601	77.828768	129540096	93466624	67629920	33184
602	2.378553	130789376	94515200	37687120	33184
603	7.775836	130789376	94515200	27427672	33184
604	4.704227	130789376	94515200	30609120	33184
605	5.832927	130789376	94515200	34588968	33184
606	7.184909	130789376	94515200	39369152	33184
607	10.155206	130789376	94515200	30229136	33184
608	9.380402	130789376	94515200	36625112	33184
609	11.395259	130789376	94515200	28014984	33184
610	11.869661	130789376	94515200	36006152	33184
611	14.250683	130789376	94515200	29070080	33184
612	14.496836	130789376	94515200	38673728	33184
613	15.582203	130789376	94515200	32998272	33184
614	17.496472	130789376	94515200	28905728	33184
615	17.670738	130789376	94515200	40948384	33184
616	19.064107	130789376	94515200	37395536	33184
617	20.614584	130789376	94515200	35148112	33184
618	22.105345	130789376	94515200	34018576	33184
619	23.471341	130789376	94515200	33879688	33184
620	24.318986	130789376	94515200	34571184	33184
621	25.687359	130789376	94515200	35950544	33184
622	27.551297	130789376	94515200	37990736	33184
623	28.08348	130789376	94515200	40589520	33184
624	32.198387	130789376	94515200	29532016	33184
625	33.992765	130789376	94515200	37395568	33184
626	32.026136	130789376	94515200	43091232	33184
627	36.280798	130789376	94515200	34546040	33184
628	37.220415	130789376	94515200	44861792	33184
629	38.715549	130789376	94515200	38694992	33184
630	44.378613	130789376	94515200	38026632	33184
631	40.720584	130789376	94515200	50618848	33184
632	41.500165	130789376	94515200	46765176	33184
633	47.541925	130789376	94515200	48559912	33184
634	48.790815	130789376	94515200	51068016	33184
635	50.130982	130789376	94515200	54444240	33184
636	52.0055	130789376	94515200	58525600	33184
637	73.086743	131330048	95039488	63586184	33184
638	57.195431	125562880	89272320	35945528	33184
639	61.064024	125562880	89272320	30273416	33184
640	57.119614	125562880	89272320	37746280	33184
641	57.42321	125562880	89272320	46112328	33184
642	63.213312	125562880	89272320	42785760	33184
643	61.320245	125562880	89272320	52749712	33184
644	61.29081	125833216	89272320	63660272	33184
645	69.633777	126914560	90845184	62891664	33184
646	94.465405	130699264	96088064	32709248	33184
647	70.075251	132321280	96088064	32832256	33184
648	66.261794	132321280	96088064	47177056	33184
649	72.259477	132321280	96088064	49714816	33184
650	73.866024	132321280	96088064	53162272	33184
651	74.226095	132321280	96088064	57415312	33184
652	2.5721	132321280	96088064	63359872	33184
653	4.06673	132321280	96088064	65928400	33184
654	5.065866	132321280	96088064	69355352	33184
655	10.226579	132321280	96088064	59962336	33184
656	8.777653	132321280	96088064	65110328	33184
657	9.904086	132321280	96088064	71124568	33184
658	13.072469	132591616	96088064	62447344	33184
659	16.532738	132591616	96088064	70187776	33184
660	24.227705	127385600	90845184	17486520	33184
661	14.627019	127385600	90845184	26976648	33184
662	17.115253	127385600	90845184	22220704	33184
663	18.744378	127385600	90845184	18524608	33184
664	18.105793	127385600	90845184	30612552	33184
665	19.510473	127385600	90845184	27328528	33184
666	21.52075	127385600	90845184	25370776	33184
667	22.990952	127385600	90845184	24586160	33184
668	24.358011	127385600	90845184	24799264	33184
669	25.752854	127385600	90845184	25830672	33184
670	26.915477	127385600	90845184	27566808	33184
671	27.722236	127385600	90845184	29958056	33184
672	32.403731	127385600	90845184	18983856	33184
673	34.103735	127385600	90845184	26599440	33184
674	32.782022	127385600	90845184	32185216	33184
675	35.774189	127385600	90845184	24005944	33184
676	38.536185	127385600	90845184	34234584	33184
677	38.44022	127385600	90845184	28253960	33184
678	41.018102	127385600	90845184	40266208	33184
679	41.730706	127385600	90845184	35497840	33184
680	42.846014	127385600	90845184	32402352	33184
681	48.021942	127385600	90845184	34441008	33184
682	50.010372	127385600	90845184	37306984	33184
683	51.361448	127385600	90845184	41017288	33184
684	51.814478	127385600	90845184	45649808	33184
685	60.155743	127385600	90845184	51207744	33184
686	75.691377	119521280	85078016	31374872	33184
687	57.981129	121143296	85078016	38324976	33184
688	63.003112	121143296	85078016	34075224	33184
689	59.016714	121143296	85078016	43190280	33184
690	61.09954	121143296	85078016	53212744	33184
691	66.230509	121143296	85078016	51487496	33184
692	62.760876	121413632	85078016	63257952	33184
693	72.171868	125468672	89272320	63499400	33184
694	98.690814	127954944	93466624	34250744	33184
695	71.213261	129302528	93466624	35544152	33184
696	75.611749	129302528	93466624	38415600	33184
697	74.871133	129302528	93466624	42225848	33184
698	71.443759	129302528	93466624	59454240	33184
699	76.732662	129302528	93466624	65112440	33184
700	82.130449	129843200	93466624	59119488	33184
701	109.022759	129044480	95039488	35817456	33184
702	2.772586	130932736	95039488	44219560	33184
703	8.110764	130932736	95039488	34119048	33184
704	5.716592	130932736	95039488	37791360	33184
705	6.829767	130932736	95039488	42395832	33184
706	10.763884	130932736	95039488	33633776	33184
707	9.745114	130932736	95039488	40074000	33184
708	10.805922	130932736	95039488	47438272	33184
709	12.960034	130932736	95039488	39484048	33184
710	13.730772	130932736	95039488	48716224	33184
711	16.3014	130932736	95039488	42487352	33184
712	17.763676	130932736	95039488	38036288	33184
713	19.609702	130932736	95039488	35165152	33184
714	19.343197	130932736	95039488	48123704	33184
715	21.286614	130932736	95039488	45707912	33184
716	22.444097	130932736	95039488	44551104	33184
717	24.041796	130932736	95039488	44521024	33184
718	25.700859	130932736	95039488	45471984	33184
719	26.648333	130932736	95039488	47234184	33184
720	31.086583	130932736	95039488	35713160	33184
721	33.499493	130932736	95039488	42981016	33184
722	31.615966	130932736	95039488	48370640	33184
723	35.349195	130932736	95039488	40082768	33184
724	37.356539	130932736	95039488	50198056	33184
725	38.525991	130932736	95039488	44334480	33184
726	39.682926	130932736	95039488	56321896	33184
727	40.782122	130932736	95039488	51713616	33184
728	43.032444	130932736	95039488	48994104	33184
729	48.404224	130932736	95039488	51240112	33184
730	49.920532	130932736	95039488	54349056	33184
731	51.805394	130932736	95039488	58443080	33184
732	52.676651	131473408	95563776	63526768	33184
733	62.378879	134717440	98185216	69546536	33184
734	77.211026	130715648	94515200	28089072	33184
735	57.414252	130715648	94515200	36146392	33184
736	62.309078	130715648	94515200	32575912	33184
737	59.638801	130715648	94515200	42532720	33184
738	61.9629	130715648	94515200	53350600	33184
739	66.956761	130715648	94515200	52686520	33184
740	68.372104	130715648	94515200	52976264	33184
741	66.626677	130715648	94515200	66781240	33184
742	96.590278	126910464	92418048	37789056	33184
743	73.362357	128798720	92418048	40384176	33184
744	73.886056	128798720	92418048	44554704	33184
745	75.756036	128798720	92418048	49720528	33184
746	76.141369	128798720	92418048	55944816	33184
747	78.256865	128798720	92418048	63053208	33184
748	81.863581	128798720	92418048	71243800	33184
749	110.596345	134205440	98185216	34905352	33184
750	83.584499	134205440	98185216	45187752	33184
751	88.953756	134205440	98185216	43804048	33184
752	2.940161	134205440	98185216	56932824	33184
753	8.220476	134205440	98185216	47031576	33184
754	6.002765	134205440	98185216	51015080	33184
755	7.416429	134205440	98185216	55997552	33184
756	10.806013	134205440	98185216	47500536	33184
757	10.864584	134205440	98185216	54500488	33184
758	11.949022	134205440	98185216	62487520	33184
759	13.725568	134205440	98185216	55131632	33184
760	15.530036	134205440	98185216	49738672	33184
761	16.371485	134205440	98185216	60750664	33184
762	18.253365	134205440	98185216	56607408	33184
763	20.426329	134205440	98185216	54099392	33184
764	21.531157	134205440	98185216	52882928	33184
765	23.800298	134205440	98185216	52856136	33184
766	25.591347	134205440	98185216	53866000	33184
767	26.987904	134205440	98185216	55758112	33184
768	27.507405	134205440	98185216	58465888	33184
769	29.362767	134205440	98185216	61748216	33184
770	34.869797	134205440	98185216	51606048	33184
771	36.198328	134205440	98185216	60311776	33184
772	37.271959	134205440	98185216	53461864	33184
773	39.010468	134205440	98185216	64219656	33184
774	40.210896	134205440	98185216	59127888	33184
775	45.819705	134475776	98185216	59252808	33184
776	52.261271	134475776	98185216	72915816	33184
777	59.671211	128712704	92418048	24695672	33184
778	49.481117	128712704	92418048	27969480	33184
779	51.376676	128712704	92418048	32068224	33184
780	52.074281	128712704	92418048	37232880	33184
781	53.542707	128712704	92418048	43397248	33184
782	55.486713	128712704	92418048	50601312	33184
783	56.962126	128712704	92418048	58813120	33184
784	65.962577	128712704	92418048	55540704	33184
785	66.769667	129253376	92942336	65883152	33184
786	82.781023	128790528	92418048	33495800	33184
787	68.343544	128790528	92418048	33442256	33184
788	64.714255	128790528	92418048	46881568	33184
789	70.11457	128790528	92418048	48744008	33184
790	73.382226	128790528	92418048	51721008	33184
791	74.927801	128790528	92418048	55681616	33184
792	82.877321	128790528	92942336	60685784	33184
793	98.225948	128712704	92942336	36676696	33184
794	78.629535	128712704	92942336	43914000	33184
795	83.910075	128712704	92942336	39434416	33184
796	80.835641	128712704	92942336	48729152	33184
797	82.712002	128712704	92942336	58907400	33184
798	88.930552	129794048	93466624	57609648	33184
799	118.192902	129556480	95039488	39880008	33184
800	91.201708	130904064	95039488	40114040	33184
801	94.472661	130904064	95039488	41968976	33184
802	3.230162	130904064	95039488	58595784	33184
803	4.75702	130904064	95039488	61765944	33184
804	13.783722	130904064	95039488	52635920	33184
805	8.117473	130904064	95039488	57924936	33184
806	11.300068	130904064	95039488	49780136	33184
807	11.32973	130904064	95039488	57219552	33184
808	13.704801	130904064	95039488	50313192	33184
809	14.367481	130904064	95039488	59879264	33184
810	16.546681	130904064	95039488	54678928	33184
811	18.905095	130904064	95039488	51251784	33184
812	18.698242	130904064	95039488	64011640	33184
813	20.653398	130904064	95039488	61468424	33184
814	22.396694	130904064	95039488	60402448	33184
815	24.190378	130904064	95039488	60544664	33184
816	25.888365	130904064	95039488	61683504	33184
817	27.284627	130904064	95039488	63764392	33184
818	31.447689	130904064	95039488	52558448	33184
819	31.880367	130904064	95039488	58072192	33184
820	32.704958	130904064	95039488	63892736	33184
821	36.542277	130904064	95039488	55914184	33184
822	39.09259	130904064	95039488	67013528	33184
823	40.334296	130904064	95039488	61696392	33184
824	42.434078	130904064	95039488	58292016	33184
825	47.579971	131444736	95039488	59972160	33184
826	50.880828	133337088	97136640	62665320	33184
827	68.585454	137121792	101330944	66415488	33184
828	57.921128	133996544	98185216	33965888	33184
829	54.037498	133996544	98185216	40013240	33184
830	59.988487	133996544	98185216	34520744	33184
831	57.29753	134266880	98185216	42633056	33184
832	58.783031	134537216	98185216	51868032	33184
833	65.128051	134537216	98185216	49555384	33184
834	62.872458	134537216	98185216	60908176	33184
835	69.302121	134537216	98185216	60888976	33184
836	96.868163	128495616	93466624	30759240	33184
837	71.408467	129843200	93466624	32266008	33184
838	68.145932	129843200	93466624	48048136	33184
839	74.147128	129843200	93466624	52371688	33184
840	77.590661	129843200	93466624	57763472	33184
841	78.349306	129843200	93466624	64282248	33184
842	83.719794	129843200	93466624	59346824	33184
843	111.101683	133357568	99233792	36556384	33184
844	84.436294	135520256	99233792	45626320	33184
845	89.469038	135520256	99233792	44120704	33184
846	85.705057	135520256	99233792	56249672	33184
847	92.032897	135520256	99233792	56968656	33184
848	88.13097	135520256	99233792	71324840	33184
849	123.605257	133337088	98709504	26028760	33184
850	94.129867	134684672	98709504	41502616	33184
851	98.91754	134684672	98709504	46615088	33184
852	3.312875	134684672	98709504	53892328	33184
853	8.733325	134684672	98709504	44391824	33184
854	6.710999	134684672	98709504	48912360	33184
855	8.248627	134684672	98709504	54564480	33184
856	11.81813	134684672	98709504	46659032	33184
857	11.468381	134684672	98709504	54576944	33184
858	14.086185	134684672	98709504	47916440	33184
859	14.720395	134684672	98709504	58112080	33184
860	16.851532	134684672	98709504	53240144	33184
861	19.412099	134684672	98709504	50224728	33184
862	21.106776	134684672	98709504	48718064	33184
863	23.389146	134684672	98709504	48645672	33184
864	24.862301	134684672	98709504	49707312	33184
865	26.3526	134684672	98709504	51742280	33184
866	27.536065	134684672	98709504	54636960	33184
867	28.779224	134684672	98709504	58251296	33184
868	33.687802	134684672	98709504	48551552	33184
869	35.837004	134684672	98709504	57790280	33184
870	37.669254	134684672	98709504	51413872	33184
871	39.108399	134684672	98709504	62852472	33184
872	40.956542	134684672	98709504	58178488	33184
873	47.816124	134684672	98709504	59408904	33184
874	63.358979	135225344	99233792	61558944	33184
875	57.296444	128933888	92942336	30919096	33184
876	52.103567	128933888	92942336	35614680	33184
877	54.090804	128933888	92942336	41129840	33184
878	55.73928	128933888	92942336	47977680	33184
879	60.839468	128933888	92942336	43357960	33184
880	59.389584	128933888	92942336	52448592	33184
881	63.449788	128933888	92942336	50159656	33184
882	61.633407	129474560	92942336	61595608	33184
883	83.717	131637248	95563776	61619256	33184
884	79.254755	129372160	93466624	29039312	33184
885	72.44811	129372160	93466624	31431280	33184
886	68.746185	129372160	93466624	47600896	33184
887	74.89827	129372160	93466624	52278304	33184
888	76.767614	129372160	93466624	58159208	33184
889	78.198037	129372160	93466624	65140736	33184
890	106.678512	124186624	89272320	29006392	33184
891	81.699104	125534208	89272320	37611216	33184
892	88.299013	125534208	89272320	35647456	33184
893	84.767807	125534208	89272320	47384216	33184
894	90.213731	125534208	89272320	47725072	33184
895	90.293139	125534208	89272320	61834888	33184
896	122.504128	127787008	91893760	35336464	33184
897	98.217538	127787008	91893760	39278952	33184
898	98.729361	127787008	91893760	44370192	33184
899	95.656699	127787008	91893760	63197176	33184
900	101.614475	128327680	91893760	70636976	33184
901	129.328807	136708096	100806656	66705384	33184
902	3.707829	131944448	96088064	42271488	33184
903	9.708138	131944448	96088064	32910008	33184
904	7.238532	131944448	96088064	37671600	33184
905	8.926388	131944448	96088064	43626728	33184
906	12.271117	131944448	96088064	35979584	33184
907	12.375089	131944448	96088064	44324640	33184
908	14.538239	131944448	96088064	37771064	33184
909	16.863854	131944448	96088064	33257296	33184
910	17.938409	131944448	96088064	45205480	33184
911	19.698779	131944448	96088064	42161352	33184
912	21.931949	131944448	96088064	40680848	33184
913	24.18323	131944448	96088064	40657008	33184
914	25.622847	131944448	96088064	41822712	33184
915	27.00551	131944448	96088064	44050816	33184
916	31.946627	131944448	96088064	33275712	33184
917	34.408307	131944448	96088064	41215256	33184
918	32.926178	131944448	96088064	47466784	33184
919	37.182081	131944448	96088064	40097488	33184
920	39.514004	131944448	96088064	51713952	33184
921	40.963424	132485120	96088064	46878264	33184
922	43.103216	132485120	96088064	44000480	33184
923	49.460047	132485120	96088064	46575936	33184
924	50.387442	132485120	96088064	50259136	33184
925	52.745842	132485120	96088064	55195528	33184
926	54.120903	132485120	96088064	61391456	33184
927	56.967819	132485120	96088064	68704464	33184
928	85.919756	126476288	92418048	31450880	33184
929	59.882094	128364544	92418048	40431736	33184
930	66.487687	128364544	92418048	38768192	33184
931	67.079742	128364544	92418048	38358104	33184
932	66.340867	128364544	92418048	51867616	33184
933	71.431452	128364544	92418048	54031200	33184
934	72.507205	128905216	92418048	57412496	33184
935	80.562456	129716224	93466624	62031312	33184
936	97.731557	129626112	93466624	34880736	33184
937	78.427718	129896448	93466624	41972624	33184
938	80.98863	129896448	93466624	50224528	33184
939	86.091846	129896448	93466624	47153448	33184
940	83.243892	129896448	93466624	57907096	33184
941	85.646906	129896448	93466624	69911776	33184
942	119.447434	127782912	91893760	22766256	33184
943	89.605391	127782912	91893760	37307088	33184
944	95.825398	127782912	91893760	40423408	33184
945	96.601115	127782912	91893760	44823048	33184
946	98.358096	127782912	91893760	50323736	33184
947	124.647909	123736064	88748032	26494616	33184
948	104.021477	125083648	88748032	33943976	33184
949	104.741437	125083648	88748032	43374736	33184
950	106.17742	125083648	88748032	53819640	33184
951	107.968015	125083648	88748032	65618096	33184
952	3.701595	128020480	91893760	34335648	33184
953	9.817953	128020480	91893760	25244256	33184
954	7.774824	128020480	91893760	30255296	33184
955	9.095669	128020480	91893760	36520168	33184
956	12.63938	128020480	91893760	29100312	33184
957	13.006109	128020480	91893760	37890992	33184
958	15.188614	128020480	91893760	31730608	33184
959	18.409124	128020480	91893760	27667560	33184
960	20.340146	128020480	91893760	25397536	33184
961	20.665252	128020480	91893760	39221152	33184
962	22.584823	128020480	91893760	37952752	33184
963	24.706187	128020480	91893760	38111960	33184
964	26.743893	128020480	91893760	39492856	33184
965	30.972816	128020480	91893760	27767560	33184
966	32.024293	128020480	91893760	33098520	33184
967	32.576887	128020480	91893760	38979440	33184
968	36.358695	128020480	91893760	31164968	33184
969	35.993825	128020480	91893760	39818616	33184
970	39.88978	128020480	91893760	34398440	33184
971	43.141677	128020480	91893760	31601072	33184
972	49.556374	128020480	91893760	34288352	33184
973	51.250094	128020480	91893760	38184904	33184
974	53.029431	128020480	91893760	43347024	33184
975	54.463854	128020480	91893760	49789928	33184
976	56.635158	128020480	91893760	57490216	33184
977	62.866035	128020480	91893760	53970456	33184
978	65.990833	128290816	91893760	64262976	33184
979	85.896766	127746048	91369472	31375776	33184
980	68.653448	127746048	91369472	31758512	33184
981	67.14983	127746048	91369472	45937000	33184
982	72.353808	127746048	91369472	48861792	33184
983	73.357171	127746048	91369472	52986288	33184
984	75.970761	127746048	91369472	58442592	33184
985	85.419902	127746048	91369472	65176664	33184
986	105.503933	129462272	93466624	30053280	33184
987	81.62792	129462272	93466624	39296848	33184
988	83.642985	129462272	93466624	49945392	33184
989	89.093958	129462272	93466624	49293088	33184
990	87.341839	129462272	93466624	62506160	33184
991	99.493559	130813952	94515200	64413368	33184
992	119.688867	130494464	94515200	35530064	33184
993	96.601106	130494464	94515200	39998344	33184
994	98.925617	130494464	94515200	45829704	33184
995	102.163619	130494464	94515200	53064192	33184
996	104.894328	130764800	94515200	61411872	33184
997	137.463652	131588096	95563776	41131168	33184
998	113.696774	131588096	95563776	39827184	33184
999	109.275699	131588096	95563776	52265608	33184
1000	113.472118	131588096	95563776	65841008	33184
