x	Duration	RSS	HeapTotal	HeapUsed	External
0	NA	114774016	79835136	14514952	33184
1	0.329523	114774016	79835136	14567192	33184
2	0.281006	114774016	79835136	14635056	33184
3	0.310073	114774016	79835136	14727608	33184
4	0.371807	114774016	79835136	14846520	33184
5	0.441467	114774016	79835136	14993552	33184
6	0.52046	114774016	79835136	15169464	33184
7	0.610902	114774016	79835136	15375344	33184
8	0.691629	114774016	79835136	15612528	33184
9	0.76897	114774016	79835136	15883456	33184
10	0.857799	114774016	79835136	16188480	33184
11	1.349679	114774016	79835136	16528712	33184
12	0.779096	114774016	79835136	16905480	33184
13	0.69436	114774016	79835136	17319928	33184
14	0.784091	114774016	79835136	17777184	33184
15	0.795046	114774016	79835136	18270816	33184
16	1.055402	114774016	79835136	18805776	33184
17	1.168126	114774016	79835136	19386216	33184
18	1.105344	114774016	79835136	20010912	33184
19	1.132388	114774016	79835136	20680352	33184
20	1.126698	114774016	79835136	21396080	33184
21	1.191364	114774016	79835136	22160240	33184
22	1.403384	114774016	79835136	22974128	33184
23	1.8086	114774016	79835136	23838872	33184
24	1.42837	114774016	79835136	24755848	33184
25	4.560125	114774016	79835136	25742040	33184
26	1.7214	114774016	79835136	26765224	33184
27	1.58188	114774016	79835136	27844216	33184
28	2.036743	114774016	79835136	28980152	33184
29	1.856132	115040256	79835136	30193368	33184
30	2.63228	115040256	79835136	15222760	33184
31	2.042855	115040256	79835136	16537088	33184
32	2.004357	115040256	79835136	17915776	33184
33	2.55682	115040256	79835136	19362688	33184
34	2.189001	115040256	79835136	20873472	33184
35	2.297476	115040256	79835136	22449808	33184
36	2.506269	115040256	79835136	24094720	33184
37	2.485952	115040256	79835136	25806248	33184
38	2.568872	115040256	79835136	27586856	33184
39	2.944866	115040256	79835136	29439920	33184
40	2.764724	115040256	79835136	31361480	33184
41	4.098126	115040256	79835136	17161520	33184
42	3.034688	115040256	79835136	19230216	33184
43	3.076456	115040256	79835136	21374328	33184
44	3.22679	115040256	79835136	23596168	33184
45	3.247675	115040256	79835136	25898568	33184
46	4.216476	115040256	79835136	28280736	33184
47	3.572829	115040256	79835136	30753088	33184
48	5.340889	115040256	79835136	17111896	33184
49	4.635954	115040256	79835136	19744280	33184
50	4.882951	115040256	79835136	22476080	33184
51	4.106561	115040256	79835136	25281440	33184
52	0.286644	115040256	79835136	28091392	33184
53	0.417404	115040256	79835136	28356528	33184
54	0.545033	115040256	79835136	28712224	33184
55	0.709404	115040256	79835136	29159824	33184
56	0.792829	115040256	79835136	29700936	33184
57	0.924804	115040256	79835136	30336304	33184
58	1.055765	115040256	79835136	31067184	33184
59	1.412616	115040256	79835136	31894984	33184
60	2.636774	115040256	79835136	16742048	33184
61	1.600555	115040256	79835136	17767664	33184
62	1.736032	115040256	79835136	18893720	33184
63	1.895414	115040256	79835136	20121424	33184
64	1.916276	115040256	79835136	21451896	33184
65	2.046293	115040256	79835136	22886552	33184
66	2.183532	115040256	79835136	24426352	33184
67	2.335092	115040256	79835136	26072832	33184
68	2.488744	115040256	79835136	27828840	33184
69	2.631166	115040256	79835136	29693840	33184
70	3.016374	115040256	79835136	31669472	33184
71	4.4159	115040256	79835136	17793120	33184
72	3.18159	115040256	79835136	19993112	33184
73	3.511368	115040256	79835136	22306688	33184
74	3.429632	115040256	79835136	24735304	33184
75	3.607234	115040256	79835136	27280152	33184
76	3.764999	115040256	79835136	29942664	33184
77	3.928427	115040256	79835136	32723928	33184
78	5.065217	115040256	79835136	19517152	33184
79	4.487796	115040256	79835136	22539624	33184
80	4.435886	115040256	79835136	25684760	33184
81	4.82742	115040256	79835136	28954608	33184
82	5.026715	115040256	79835136	32348176	33184
83	6.178119	115040256	79835136	19795712	33184
84	5.329332	115040256	79835136	23451840	33184
85	5.418023	115040256	79835136	27237872	33184
86	5.975879	115040256	79835136	31154968	33184
87	7.057076	115040256	79835136	19265456	33184
88	6.241777	115040256	79835136	23447296	33184
89	6.245659	115040256	79835136	27765288	33184
90	6.293515	115040256	79835136	32217960	33184
91	7.912271	115040256	79835136	20715408	33184
92	6.669077	115040256	79835136	25447496	33184
93	7.054434	115040256	79835136	30322128	33184
94	8.60119	115040256	79835136	19520800	33184
95	7.245762	115040256	79835136	24681760	33184
96	7.773119	115040256	79835136	29988912	33184
97	9.176088	115040256	79835136	19673304	33184
98	7.891372	115040256	79835136	25274312	33184
99	8.073681	115040256	79835136	31024216	33184
100	9.931274	115040256	79835136	21032608	33184
101	8.528454	115040256	79835136	27084752	33184
102	0.482725	115040256	79835136	33280464	33184
103	0.694045	115040256	79835136	33739264	33184
104	0.908339	115040256	79835136	34353080	33184
105	2.230042	115040256	79835136	18893264	33184
106	1.454579	115040256	79835136	19821632	33184
107	1.687455	115040256	79835136	20908792	33184
108	1.934653	115040256	79835136	22156008	33184
109	2.169737	115040256	79835136	23564528	33184
110	2.33275	115040256	79835136	25137096	33184
111	2.546006	115040256	79835136	26872832	33184
112	2.709918	115040256	79835136	28773520	33184
113	3.163794	115040256	79835136	30840328	33184
114	3.231439	115040256	79835136	33074592	33184
115	4.874647	115040256	79835136	19414120	33184
116	3.666149	115040256	79835136	21987312	33184
117	3.950586	115040256	79835136	24731248	33184
118	4.374946	115040256	79835136	27649584	33184
119	4.443287	115040256	79835136	30741192	33184
120	4.741377	115040256	79835136	34007824	33184
121	6.238591	115040256	79835136	21292704	33184
122	5.152567	115040256	79835136	24912616	33184
123	5.750622	115040256	79835136	28710984	33184
124	5.639858	115040256	79835136	32689824	33184
125	7.579384	115040256	79835136	20857336	33184
126	6.636075	115040256	79835136	25198384	33184
127	6.892303	115040256	79835136	29723328	33184
128	6.983364	115040256	79835136	34432544	33184
129	8.205824	115040256	79835136	23121896	33184
130	7.51981	115040256	79835136	28205696	33184
131	7.50965	115040256	79835136	33475952	33184
132	9.014069	115040256	79835136	22870480	33184
133	8.142238	115040256	79835136	28523768	33184
134	8.617718	115040256	79835136	34373192	33184
135	9.775816	115040256	79835136	24225848	33184
136	8.906365	115040256	79835136	30463352	33184
137	11.253105	115040256	79835136	21217088	33184
138	9.666893	115040256	79835136	27848416	33184
139	9.810756	115040256	79835136	34676720	33184
140	11.68396	115040256	79835136	25483320	33184
141	10.533056	115040256	79835136	32711768	33184
142	12.233936	115040256	79835136	24207304	33184
143	10.952193	115040256	79835136	31844816	33184
144	12.867126	115040256	79835136	23871520	33184
145	11.805828	115040256	79835136	31921568	33184
146	13.49024	115040256	79835136	24370496	33184
147	12.378004	115040256	79835136	32838720	33184
148	14.146766	115040256	79835136	25587280	33184
149	13.46817	115040256	79835136	34480472	33184
150	15.220096	115040256	79835136	27462096	33184
151	15.736829	115040256	79835136	21601328	33184
152	0.729257	115040256	79835136	31198888	33184
153	0.982186	115040256	79835136	31847240	33184
154	1.286194	115040256	79835136	32713872	33184
155	1.617988	115040256	79835136	33800088	33184
156	1.914859	115040256	79835136	35107584	33184
157	2.237582	115040256	79835136	36637072	33184
158	3.910122	115040256	79835136	22061528	33184
159	3.04398	115040256	79835136	24038640	33184
160	3.425657	115040256	79835136	26242488	33184
161	3.519281	115040256	79835136	28673296	33184
162	3.900312	115040256	79835136	31332240	33184
163	4.660976	115040256	79835136	34220744	33184
164	6.251895	115040256	79835136	21374464	33184
165	5.645209	115040256	79835136	24728456	33184
166	5.180819	115040256	79835136	28312224	33184
167	5.739669	115040256	79835136	32130952	33184
168	6.143371	115040256	79835136	36186416	33184
169	7.982978	115040256	79835136	24266056	33184
170	6.5312	115040256	79835136	28796568	33184
171	6.894345	115040256	79835136	33569088	33184
172	9.021489	115040256	79835136	22727952	33184
173	7.616278	115040256	79835136	27979704	33184
174	8.139872	115040256	79835136	33474280	33184
175	10.200946	115040256	79835136	23369904	33184
176	9.225238	115040256	79835136	29354328	33184
177	9.045839	115040256	79835136	35587712	33184
178	11.164519	115040256	79835136	25954248	33184
179	9.920214	115040256	79835136	32682016	33184
180	12.150695	115040256	79835136	23958624	33184
181	11.068328	115040256	79835136	31200320	33184
182	13.211077	115040256	79835136	23176864	33184
183	11.45751	115040256	79835136	30932224	33184
184	13.555353	115040256	79835136	23470632	33184
185	12.169944	115040256	79835136	31756360	33184
186	14.870464	115040256	79835136	24725600	33184
187	13.106733	115040256	79835136	33530184	33184
188	15.141007	115040256	79835136	26801472	33184
189	14.049675	115040256	79835136	36136032	33184
190	15.583689	115040256	79835136	29591232	33184
191	17.735523	115040256	79835136	24217824	33184
192	15.064171	115040256	79835136	34355832	33184
193	17.492818	115040256	79835136	28888384	33184
194	18.308209	115040256	79835136	24445624	33184
195	16.134848	115040256	79835136	35398224	33184
196	18.443572	115040256	79835136	30631912	33184
197	19.21199	115040256	79835136	26818568	33184
198	17.518172	115040256	79835136	38598056	33184
199	18.964129	115040256	79835136	34294552	33184
200	20.108589	115040256	79835136	30844544	33184
201	21.237763	115040256	79835136	28143344	33184
202	0.872633	115040256	79835136	26202896	33184
203	1.270575	115040256	79835136	27047752	33184
204	1.658211	115040256	79835136	28177688	33184
205	2.314438	115040256	79835136	29591456	33184
206	2.479655	115040256	79835136	31292864	33184
207	3.114044	115040256	79835136	33280920	33184
208	3.551365	115040256	79835136	35557696	33184
209	3.95642	115040256	79835136	38124552	33184
210	5.732047	115040256	79835136	24767632	33184
211	4.786522	115040256	79835136	27919032	33184
212	5.228405	115040256	79835136	31364168	33184
213	5.415218	115040256	79835136	35104072	33184
214	5.944944	115040256	79835136	39140248	33184
215	7.990405	115040256	79835136	27134704	33184
216	6.705566	115040256	79835136	31766632	33184
217	7.378894	115040256	79835136	36698368	33184
218	9.312029	115040256	79835136	25920376	33184
219	8.006693	115040256	79835136	31457344	33184
220	8.665695	115040256	79835136	37298352	33184
221	10.788468	115040256	79835136	27353320	33184
222	9.341067	115040256	79835136	33804816	33184
223	12.308426	115040256	79835136	24951336	33184
224	10.587095	115040256	79835136	32021752	33184
225	10.771805	115040256	79835136	39398360	33184
226	13.094922	115040256	79835136	30728088	33184
227	11.844022	115040256	79835136	38727448	33184
228	13.623049	115040256	79835136	30793336	33184
229	12.7434	115040256	79835136	39428488	33184
230	14.871674	115040256	79835136	32039464	33184
231	16.246756	115040256	79835136	25966152	33184
232	14.261466	115040256	79835136	35557680	33184
233	16.554618	115040256	79835136	29662088	33184
234	15.40276	115040256	79835136	39905592	33184
235	17.291544	115040256	79835136	34122176	33184
236	18.504822	115040256	79835136	29422544	33184
237	20.03849	115040256	79835136	25682000	33184
238	17.217169	115040256	79835136	37231680	33184
239	19.467405	115040256	79835136	33111768	33184
240	20.207972	115040256	79835136	29902608	33184
241	21.464	115040256	79835136	27436232	33184
242	18.7614	115040256	79835136	40311976	33184
243	21.988452	115040256	79835136	37162208	33184
244	21.8881	115040256	79835136	34785456	33184
245	22.294611	115040256	79835136	33038896	33184
246	23.659252	115040256	79835136	31904552	33184
247	24.820088	115040256	79835136	31274024	33184
248	24.883069	115040256	79835136	31060128	33184
249	25.384539	115040256	79835136	31235624	33184
250	25.833539	115040256	79835136	31731136	33184
251	26.0077	115040256	79835136	32517976	33184
252	1.071907	115040256	79835136	33772528	33184
253	1.55282	115040256	79835136	34810080	33184
254	2.045518	115040256	79835136	36195712	33184
255	2.544082	115040256	79835136	37930552	33184
256	3.297378	115040256	79835136	40016552	33184
257	6.134218	115040256	79835136	26286032	33184
258	4.328986	115040256	79835136	29076760	33184
259	4.798674	115040256	79835136	32221664	33184
260	5.177227	115040256	79835136	35723184	33184
261	5.864463	115040256	79835136	39581296	33184
262	8.043154	115040256	79835136	27676968	33184
263	6.67758	115040256	79835136	32252040	33184
264	7.229507	115040256	79835136	37190720	33184
265	10.109326	115040256	79835136	26733256	33184
266	8.48044	115040256	79835136	32392968	33184
267	8.953255	115040256	79835136	38416720	33184
268	11.673666	115040256	79835136	28875640	33184
269	10.33099	115040256	79835136	35633112	33184
270	12.750392	115040256	79835136	27200968	33184
271	11.289016	115040256	79835136	34699016	33184
272	14.591986	115040256	79835136	27147944	33184
273	12.299326	115040256	79835136	35383992	33184
274	15.269386	115040256	79835136	28478656	33184
275	13.313156	115040256	79835136	37466896	33184
276	16.156619	115040256	79835136	31051248	33184
277	14.395334	115040256	79835136	40787744	33184
278	17.444248	115040256	79835136	34688320	33184
279	18.20009	115040256	79835136	29805992	33184
280	16.32744	115040256	79835136	40676624	33184
281	18.731817	115040256	79835136	35717456	33184
282	19.396136	115040256	79835136	31826296	33184
283	21.206645	115040256	79835136	28839296	33184
284	18.766644	115040256	79835136	41259776	33184
285	21.23708	115040256	79835136	37802288	33184
286	22.35346	115040256	79835136	35235032	33184
287	22.87724	115040256	79835136	33360128	33184
288	24.816055	115040256	79835136	32175104	33184
289	26.593073	115040256	79835136	31546496	33184
290	25.69583	115040256	79835136	31422048	33184
291	26.11723	115040256	79835136	31711216	33184
292	27.136238	115040256	79835136	32374128	33184
293	27.284559	115040256	79835136	33315440	33184
294	27.586157	115040256	79835136	34560904	33184
295	28.320405	115040256	79835136	36033088	33184
296	28.452971	115040256	79835136	37695832	33184
297	28.724338	115040256	79835136	39560872	33184
298	28.917232	115040256	79835136	41586664	33184
299	29.903938	115040256	79835136	43742712	33184
300	34.290413	115040256	79835136	31808320	33184
301	32.387932	115040256	79835136	36152760	33184
302	1.260803	115040256	79835136	40606304	33184
303	1.84463	115040256	79835136	41827872	33184
304	2.424584	115040256	79835136	43461248	33184
305	5.716328	115040256	79835136	29204712	33184
306	3.764715	115040256	79835136	31658752	33184
307	4.255127	115040256	79835136	34526056	33184
308	4.848114	115040256	79835136	37808720	33184
309	5.46055	115040256	79835136	41507168	33184
310	8.933514	115040256	79835136	29556912	33184
311	6.90932	115040256	79835136	34089960	33184
312	7.297216	115040256	79835136	39042120	33184
313	11.447203	115040256	79835136	28717208	33184
314	8.868961	115040256	79835136	34514216	33184
315	9.354352	115040256	79835136	40732488	33184
316	12.129501	115040256	79835136	31455720	33184
317	10.644956	115040256	79835136	38522592	33184
318	13.862429	115040256	79835136	30391856	33184
319	12.2883	115040256	79835136	38315104	33184
320	15.397885	115040256	79835136	31061768	33184
321	12.977456	115040256	79835136	39844544	33184
322	16.519553	115040256	79835136	33272456	33184
323	14.942131	115040256	79835136	42922112	33184
324	17.40112	115040256	79835136	36811680	33184
325	18.626034	115040256	79835136	31968432	33184
326	16.528542	115040256	79835136	42922680	33184
327	20.486914	115040256	79835136	38104744	33184
328	20.396375	115040256	79835136	34395296	33184
329	21.946339	115040256	79835136	31624848	33184
330	18.865125	115040256	79835136	44336952	33184
331	22.062283	115040256	79835136	41138256	33184
332	22.737139	115040256	79835136	38827200	33184
333	24.451143	115040256	79835136	37255168	33184
334	25.718946	115040256	79835136	36385144	33184
335	26.070643	115040256	79835136	36071552	33184
336	26.572888	115040256	79835136	36264528	33184
337	27.475697	115040256	79835136	36881808	33184
338	27.84251	115040256	79835136	37869888	33184
339	28.229145	115040256	79835136	39201152	33184
340	28.826054	115040256	79835136	40800712	33184
341	29.116993	115040256	79835136	42644312	33184
342	30.023385	115040256	79835136	44681296	33184
343	34.677961	115040256	79835136	32808064	33184
344	32.740442	115040256	79835136	37151912	33184
345	32.822661	115040256	79835136	41382000	33184
346	32.877187	115040256	79835136	45493920	33184
347	37.606225	115040256	79835136	35359440	33184
348	34.85692	115040256	79835136	41212096	33184
349	39.735592	115040256	79835136	33114992	33184
350	38.77994	115040256	79835136	42487464	33184
351	42.376797	115040256	79835136	35789608	33184
352	1.450726	115040256	79835136	46439432	33184
353	2.138657	115040256	79835136	47845144	33184
354	2.812492	115040256	79835136	49721592	33184
355	3.559876	115040256	79835136	52070320	33184
356	6.771514	115040256	79835136	38532888	33184
357	4.973813	115040256	79835136	41829544	33184
358	5.834856	115040256	79835136	45610112	33184
359	6.327052	115040256	79835136	49876000	33184
360	9.793562	115040256	79835136	38524800	33184
361	7.846281	115040256	79835136	43774616	33184
362	8.669225	115040256	79835136	49517704	33184
363	11.9904	115040256	79835136	39713496	33184
364	9.908092	115040256	79835136	46450176	33184
365	13.783534	115040256	79835136	38063656	33184
366	11.942452	115040256	79835136	45792376	33184
367	15.827672	115040256	79835136	38473272	33184
368	13.065751	115040256	79835136	47205064	33184
369	16.547152	115040256	79835136	40718440	33184
370	14.549505	115040256	79835136	50458224	33184
371	17.915632	115040256	79835136	44536552	33184
372	19.260776	115040256	79835136	39931280	33184
373	16.711729	115040256	79835136	51184896	33184
374	20.275558	115040256	79835136	46697608	33184
375	21.771725	115040256	79835136	43354120	33184
376	22.718756	115040256	79835136	40965744	33184
377	24.274539	115040256	79835136	39430672	33184
378	24.922803	115040256	79835136	38614832	33184
379	22.11466	115040256	79835136	52945632	33184
380	24.592478	115040256	79835136	51352848	33184
381	25.706144	115040256	79835136	50479360	33184
382	26.04251	115040256	79835136	50244600	33184
383	27.190242	115040256	79835136	50578000	33184
384	27.539789	115040256	79835136	51364072	33184
385	28.596827	115040256	79835136	52582520	33184
386	34.132633	115040256	79835136	40006856	33184
387	31.704831	115040256	79835136	43820976	33184
388	31.650311	115040256	79835136	47696584	33184
389	32.665086	115040256	79835136	51568544	33184
390	37.431927	115040256	79835136	41429704	33184
391	37.708458	115040256	79835136	49566352	33184
392	34.716092	115040256	79835136	55344800	33184
393	40.03487	115040256	79835136	46509224	33184
394	36.288513	115040256	79835136	53558328	33184
395	41.828672	115040256	79835136	46315720	33184
396	42.400714	115040256	79835136	57124800	33184
397	53.941886	115040256	79835136	51203048	33184
398	51.673139	115040256	79835136	22283168	33184
399	40.819829	115040256	79835136	34577680	33184
400	40.130924	115040256	79835136	29765064	33184
401	42.619336	115040256	79835136	26378624	33184
402	1.755312	115040256	79835136	28141872	33184
403	2.538538	115040256	79835136	29772216	33184
404	3.314592	115040256	79835136	31945008	33184
405	4.144597	115040256	79835136	34663856	33184
406	5.004406	115040256	79835136	37930320	33184
407	8.437102	115040256	79835136	27625024	33184
408	6.727329	115040256	79835136	31989920	33184
409	7.330347	115040256	79835136	36905872	33184
410	9.232622	115040256	79835136	26775712	33184
411	8.976351	115040256	79835136	32806368	33184
412	9.520205	115040256	79835136	39383640	33184
413	11.569234	115040256	79835136	30449520	33184
414	11.639676	115040256	79835136	38139448	33184
415	12.766019	115040256	79835136	30498272	33184
416	13.169146	115040256	79835136	39306352	33184
417	14.031314	115040256	79835136	32606624	33184
418	14.728197	115040256	79835136	42539456	33184
419	16.048131	115040256	79835136	36564480	33184
420	17.373727	115040256	79835136	31941488	33184
421	18.539828	115040256	79835136	28535512	33184
422	18.051522	115040256	79835136	40732184	33184
423	19.420457	115040256	79835136	37249320	33184
424	20.845097	115040256	79835136	34813416	33184
425	21.737916	115040256	79835136	33293776	33184
426	22.517302	115040256	79835136	32542928	33184
427	23.736136	115040256	79835136	32483760	33184
428	24.804892	115040256	79835136	33010592	33184
429	25.136609	115040256	79835136	34036968	33184
430	25.895532	115040256	79835136	35510640	33184
431	26.735158	115040256	79835136	37341280	33184
432	27.413442	115040256	79835136	39506896	33184
433	27.913206	115040256	79835136	41968056	33184
434	31.343367	115040256	79835136	30535688	33184
435	31.306996	115040256	79835136	35443520	33184
436	30.398362	115040256	79835136	40257728	33184
437	34.041667	115040256	79835136	31040792	33184
438	35.790583	115040256	79835136	40021256	33184
439	37.148278	115040256	79835136	32922216	33184
440	37.537289	115040256	79835136	43057624	33184
441	37.809946	115040256	79835136	36973464	33184
442	39.488227	115040256	79835136	48278904	33184
443	38.923714	115040256	79835136	42948488	33184
444	46.275892	115040256	79835136	42840952	33184
445	42.017196	115040256	79835136	55754688	33184
446	41.438702	115040256	79835136	51878576	33184
447	49.847869	117743616	82456576	53511360	33184
448	62.059191	121528320	86650880	55596744	33184
449	59.879895	121528320	86650880	28567984	33184
450	50.149145	121528320	86650880	31917144	33184
451	51.700715	121528320	86650880	35826904	33184
452	2.049803	121798656	86650880	40817896	33184
453	2.675881	121798656	86650880	42629848	33184
454	3.565978	121798656	86650880	45048792	33184
455	4.698891	121798656	86650880	48074272	33184
456	8.739447	122339328	87175168	37948288	33184
457	8.43571	122339328	87175168	42193616	33184
458	12.405738	122339328	87175168	47057000	33184
459	9.906861	122339328	87175168	37232800	33184
460	8.855682	122339328	87175168	43325040	33184
461	9.934321	122339328	87175168	50022424	33184
462	10.929408	122339328	87175168	41024536	33184
463	11.710772	122339328	87175168	48960648	33184
464	13.006276	122339328	87175168	41334920	33184
465	13.380806	122339328	87175168	50503688	33184
466	15.168388	122339328	87175168	43908152	33184
467	16.456892	122339328	87175168	38838944	33184
468	16.045906	122339328	87175168	49875976	33184
469	17.844806	122339328	87175168	45245536	33184
470	18.860938	122339328	87175168	41868960	33184
471	20.576701	122339328	87175168	39593160	33184
472	22.130908	122339328	87175168	38300064	33184
473	23.51736	122339328	87175168	37797792	33184
474	24.022282	122339328	87175168	38000360	33184
475	25.19819	122339328	87175168	38790520	33184
476	26.040148	122339328	87175168	40099808	33184
477	26.50517	122339328	87175168	41882040	33184
478	29.637638	122339328	87175168	44047456	33184
479	27.792022	122339328	87175168	46648752	33184
480	28.529648	122339328	87175168	49472976	33184
481	31.710905	122339328	87175168	38582344	33184
482	34.333617	122339328	87175168	46058864	33184
483	31.555477	122339328	87175168	51357712	33184
484	35.200904	122339328	87175168	42599456	33184
485	36.749076	122339328	87175168	51989520	33184
486	37.369357	122339328	87175168	45294800	33184
487	39.237222	122339328	87175168	56004608	33184
488	39.317657	122339328	87175168	50306104	33184
489	40.951798	122339328	87175168	62275848	33184
490	40.320795	122339328	87175168	57337752	33184
491	41.851256	122339328	87175168	53891176	33184
492	47.926116	123961344	88748032	55184040	33184
493	52.260308	125853696	90845184	69634480	33184
494	64.428237	122978304	88223744	24138608	33184
495	49.797381	122978304	88223744	27292280	33184
496	50.71021	122978304	88223744	31064880	33184
497	51.00148	122978304	88223744	35531376	33184
498	52.753913	123518976	88223744	40626336	33184
499	54.27571	124059648	88748032	46370608	33184
500	54.54962	124059648	88748032	52765992	33184
501	55.430525	124059648	88748032	59829464	33184
502	2.333687	124059648	88748032	55581248	33184
503	3.426585	124059648	88748032	57582296	33184
504	4.515295	124059648	88748032	60245752	33184
505	5.454363	124059648	88748032	63578224	33184
506	7.491899	124059648	88748032	67581104	33184
507	16.995233	125681664	90845184	57868080	33184
508	17.909233	122064896	87175168	20638360	33184
509	9.413705	122064896	87175168	26662736	33184
510	9.982636	122064896	87175168	33362912	33184
511	11.420406	122064896	87175168	24537592	33184
512	11.721396	122064896	87175168	32587928	33184
513	13.412949	122064896	87175168	25256120	33184
514	13.889097	122064896	87175168	34674840	33184
515	15.31436	122064896	87175168	28400048	33184
516	17.548883	122064896	87175168	23644312	33184
517	17.367492	122064896	87175168	35100040	33184
518	18.138699	122064896	87175168	30844024	33184
519	20.370324	122064896	87175168	27828456	33184
520	21.340122	122064896	87175168	25930896	33184
521	22.321163	122064896	87175168	24991648	33184
522	23.963259	122064896	87175168	24843808	33184
523	25.291322	122064896	87175168	25411896	33184
524	25.258956	122064896	87175168	26626232	33184
525	26.37525	122064896	87175168	28363344	33184
526	26.936367	122064896	87175168	30516136	33184
527	28.142355	122064896	87175168	33092136	33184
528	31.578123	122064896	87175168	22082688	33184
529	33.290207	122064896	87175168	29423416	33184
530	31.675041	122064896	87175168	34624592	33184
531	35.263241	122064896	87175168	25995432	33184
532	36.811965	122064896	87175168	35431320	33184
533	37.506951	122064896	87175168	28863256	33184
534	38.462046	122064896	87175168	39691192	33184
535	39.326087	122064896	87175168	34154672	33184
536	41.004527	122064896	87175168	46440384	33184
537	41.002367	122064896	87175168	41683808	33184
538	44.228126	122064896	87175168	38488256	33184
539	47.785926	122064896	87175168	40223344	33184
540	49.409796	123146240	87699456	42565064	33184
541	50.075962	123146240	87699456	45594824	33184
542	50.345114	123146240	87699456	49347736	33184
543	52.47681	123146240	87699456	53836608	33184
544	69.819885	126660608	91369472	59023112	33184
545	62.789742	125087744	89796608	33661928	33184
546	56.503972	125087744	89796608	40342296	33184
547	60.73087	125087744	89796608	35122600	33184
548	57.033765	125087744	89796608	43164504	33184
549	58.309519	125087744	89796608	51966824	33184
550	64.895171	125087744	89796608	48900480	33184
551	60.862374	125087744	89796608	59128960	33184
552	2.432505	126439424	91369472	58235200	33184
553	3.578621	126439424	91369472	60415264	33184
554	4.820303	126439424	91369472	63324144	33184
555	5.947372	126439424	91369472	66963192	33184
556	12.421173	128602112	93466624	57382160	33184
557	8.295142	128602112	93466624	62501456	33184
558	10.379557	128602112	93466624	68359232	33184
559	18.739721	128602112	93466624	59099464	33184
560	23.239095	125456384	90320896	23605392	33184
561	12.154935	125456384	90320896	31696816	33184
562	13.974764	125456384	90320896	24668128	33184
563	14.03631	125456384	90320896	34254888	33184
564	15.99052	125456384	90320896	28374456	33184
565	17.742051	125456384	90320896	24041368	33184
566	18.038851	125456384	90320896	35872192	33184
567	18.655833	125456384	90320896	32047912	33184
568	20.416173	125456384	90320896	29467904	33184
569	21.375588	125456384	90320896	28012296	33184
570	23.032139	125456384	90320896	27535400	33184
571	24.927402	125456384	90320896	27844664	33184
572	25.54499	125456384	90320896	28897072	33184
573	27.272513	125456384	90320896	30539320	33184
574	26.941456	125456384	90320896	32711264	33184
575	28.676742	125456384	90320896	35364888	33184
576	31.835873	125456384	90320896	24356448	33184
577	34.121329	125456384	90320896	32157672	33184
578	32.021853	125456384	90320896	37771440	33184
579	36.217168	125456384	90320896	29117784	33184
580	37.267918	125456384	90320896	39182336	33184
581	38.33603	125456384	90320896	32839304	33184
582	39.857125	125456384	90320896	44446352	33184
583	40.247164	125456384	90320896	39229056	33184
584	42.565199	125456384	90320896	35575288	33184
585	47.799264	125456384	90320896	36851808	33184
586	44.880886	125456384	90320896	51385376	33184
587	44.494958	125456384	90320896	48881000	33184
588	45.804955	125456384	90320896	47642568	33184
589	51.776706	126267392	90845184	52072832	33184
590	53.986815	126267392	90845184	57070016	33184
591	54.456514	126267392	90845184	62900152	33184
592	64.336469	126267392	90845184	56940048	33184
593	78.695968	125411328	91893760	32930272	33184
594	62.940926	126758912	91893760	27840544	33184
595	58.49887	126758912	91893760	36824232	33184
596	59.162502	126758912	91893760	46511048	33184
597	67.943013	126758912	91893760	44426048	33184
598	63.97902	127299584	91893760	55718592	33184
599	66.936169	127299584	91893760	55229056	33184
600	64.709436	127299584	91893760	68086648	33184
601	97.426931	127459328	93990912	22660536	33184
602	2.402591	128806912	93990912	36954576	33184
603	7.677965	128806912	93990912	26554032	33184
604	4.75248	128806912	93990912	29735480	33184
605	5.846915	128806912	93990912	33715328	33184
606	7.22544	128806912	93990912	38495304	33184
607	10.264633	128806912	93990912	29352752	33184
608	9.63639	128806912	93990912	35735528	33184
609	11.319265	128806912	93990912	27265032	33184
610	12.10413	128806912	93990912	35256144	33184
611	14.860885	128806912	93990912	28434528	33184
612	14.968774	128806912	93990912	38050576	33184
613	16.722578	128806912	93990912	32498592	33184
614	17.927193	128806912	93990912	28502656	33184
615	18.208868	128806912	93990912	40537232	33184
616	19.494317	128806912	93990912	37054528	33184
617	20.807953	128806912	93990912	34846512	33184
618	22.483519	128806912	93990912	33765752	33184
619	24.048425	128806912	93990912	33643096	33184
620	25.530139	128806912	93990912	34370024	33184
621	26.381454	128806912	93990912	35789144	33184
622	27.343582	128806912	93990912	37877720	33184
623	28.398594	128806912	93990912	40480296	33184
624	31.904389	128806912	93990912	29485440	33184
625	34.049999	128806912	93990912	37309728	33184
626	32.438842	128806912	93990912	43038440	33184
627	35.831447	128806912	93990912	34528832	33184
628	37.956286	128806912	93990912	44832032	33184
629	38.972206	128806912	93990912	38660288	33184
630	44.511836	128806912	93990912	37997976	33184
631	40.985867	128806912	93990912	50584712	33184
632	44.702455	128806912	93990912	46731688	33184
633	47.922812	129347584	93990912	48506736	33184
634	48.878729	129888256	94515200	50998192	33184
635	52.134199	129888256	94515200	54395800	33184
636	66.843167	132321280	97136640	58492840	33184
637	61.47988	120262656	85078016	32297864	33184
638	54.27701	120262656	85078016	38282424	33184
639	56.075121	120262656	85078016	44934592	33184
640	60.502532	120262656	85078016	39885448	33184
641	58.962783	120262656	85078016	48229064	33184
642	60.326702	120532992	85078016	57408336	33184
643	65.8675	120532992	85078016	54977128	33184
644	62.93151	124047360	89272320	65854944	33184
645	90.898253	129994752	95563776	65003856	33184
646	69.560463	124682240	90320896	31247240	33184
647	69.487125	124682240	90320896	32123168	33184
648	67.537009	124682240	90320896	46444672	33184
649	73.586332	124682240	90320896	49024912	33184
650	74.240604	125222912	90320896	52461592	33184
651	74.703178	125493248	90320896	56704080	33184
652	5.892095	128737280	93466624	62659136	33184
653	10.754267	122486784	88748032	21637216	33184
654	5.365857	122486784	88748032	25079448	33184
655	6.516916	122486784	88748032	29365936	33184
656	7.545209	122486784	88748032	34517168	33184
657	10.506565	123834368	88748032	24880256	33184
658	10.320352	123834368	88748032	31768960	33184
659	12.314271	123834368	88748032	23707504	33184
660	12.972775	123834368	88748032	32313456	33184
661	14.747001	123834368	88748032	25960088	33184
662	15.408989	123834368	88748032	36306592	33184
663	16.907035	123834368	88748032	31122152	33184
664	18.658336	123834368	88748032	27491304	33184
665	20.493872	123834368	88748032	25236424	33184
666	22.541394	123834368	88748032	24193456	33184
667	24.174703	123834368	88748032	24150264	33184
668	25.372099	123834368	88748032	24984008	33184
669	26.50305	123834368	88748032	26592200	33184
670	27.903454	123834368	88748032	28880600	33184
671	30.680628	123834368	88748032	31766128	33184
672	29.411331	123834368	88748032	35186184	33184
673	33.262286	123834368	88748032	24975288	33184
674	35.13283	123834368	88748032	33512744	33184
675	33.311047	123834368	88748032	39842864	33184
676	36.822075	123834368	88748032	31796944	33184
677	39.560631	123834368	88748032	26734232	33184
678	40.946076	123834368	88748032	38670576	33184
679	41.708928	123834368	88748032	34403232	33184
680	48.534645	123834368	88748032	35643008	33184
681	48.715521	123834368	88748032	37556976	33184
682	47.548716	123834368	88748032	52988576	33184
683	46.763957	123834368	88748032	51388264	33184
684	47.542925	123834368	88748032	51084360	33184
685	55.247619	123834368	88748032	56719968	33184
686	60.172325	124104704	88748032	50577032	33184
687	56.945997	124104704	88748032	57902144	33184
688	84.405503	126808064	91893760	66132400	33184
689	66.917854	127254528	91893760	32240992	33184
690	60.444115	127254528	91893760	42204144	33184
691	67.082354	127254528	91893760	40626600	33184
692	63.585752	127254528	91893760	52453552	33184
693	69.013327	127254528	91893760	52581552	33184
694	73.221066	127254528	91893760	53654656	33184
695	68.31317	127795200	92418048	68154560	33184
696	98.823359	127406080	94515200	24610064	33184
697	75.006877	129294336	94515200	27323680	33184
698	75.218787	129294336	94515200	32055960	33184
699	76.62615	129294336	94515200	37704520	33184
700	80.332691	129294336	94515200	44208112	33184
701	80.067135	129564672	94515200	51648280	33184
702	3.113425	130375680	95039488	60930552	33184
703	4.581986	130375680	95039488	63688368	33184
704	7.404526	130375680	95039488	67360776	33184
705	18.115344	130916352	96088064	58239240	33184
706	17.915198	130916352	96088064	63762800	33184
707	15.993453	123236352	88748032	28205064	33184
708	11.738266	123236352	88748032	35570776	33184
709	13.467028	123502592	88748032	27617720	33184
710	13.821988	123502592	88748032	36836200	33184
711	15.411187	123502592	88748032	30593008	33184
712	17.445255	123502592	88748032	26133896	33184
713	20.396752	123502592	88748032	23264704	33184
714	19.498417	123502592	88748032	36229608	33184
715	21.081198	123502592	88748032	33821248	33184
716	22.887787	123502592	88748032	32677160	33184
717	24.271252	123502592	88748032	32660560	33184
718	25.965818	123502592	88748032	33616184	33184
719	27.136312	123502592	88748032	35378384	33184
720	30.937763	123502592	88748032	23857424	33184
721	34.358717	123502592	88748032	31125280	33184
722	32.293705	123502592	88748032	36514904	33184
723	35.734131	123502592	88748032	28227096	33184
724	37.75986	123502592	88748032	38342384	33184
725	38.78062	123502592	88748032	32478872	33184
726	40.109798	123502592	88748032	44466288	33184
727	42.460529	123502592	88748032	39858072	33184
728	44.875913	123502592	88748032	37146608	33184
729	48.804244	123502592	88748032	39392680	33184
730	50.424562	123502592	88748032	42501688	33184
731	52.127691	123502592	88748032	46595776	33184
732	52.693734	123502592	88748032	51679528	33184
733	55.000181	123772928	88748032	57690896	33184
734	57.414426	125394944	90320896	64686064	33184
735	91.226888	128319488	94515200	28872008	33184
736	60.01177	129667072	94515200	37071088	33184
737	65.119766	129667072	94515200	34392792	33184
738	61.476523	129667072	94515200	45302880	33184
739	67.011552	129667072	94515200	44581032	33184
740	63.545419	129667072	94515200	57428544	33184
741	70.590413	129667072	94515200	58713672	33184
742	71.909928	129667072	94515200	60949592	33184
743	99.747971	128364544	94515200	32945496	33184
744	74.59999	129712128	94515200	36373048	33184
745	77.449334	129712128	94515200	41647472	33184
746	77.736708	129712128	94515200	47741312	33184
747	79.972068	129712128	94515200	54991640	33184
748	79.647989	129712128	94515200	63041640	33184
749	82.399221	129712128	94515200	72231224	33184
750	112.478377	128851968	95039488	34226784	33184
751	88.126389	130199552	95039488	31630208	33184
752	2.935712	130199552	95039488	44654064	33184
753	8.228184	130199552	95039488	34759880	33184
754	5.971202	130199552	95039488	38746136	33184
755	7.669924	130199552	95039488	43728512	33184
756	11.079871	130199552	95039488	35293000	33184
757	10.613033	130199552	95039488	42282544	33184
758	11.649016	130199552	95039488	50272272	33184
759	13.816198	130199552	95039488	42908416	33184
760	15.878709	130199552	95039488	37495048	33184
761	16.271393	130199552	95039488	48513416	33184
762	18.414021	130199552	95039488	44369856	33184
763	20.351334	130199552	95039488	41833936	33184
764	22.397233	130199552	95039488	40610024	33184
765	23.467529	130199552	95039488	40555000	33184
766	25.799007	130199552	95039488	41557640	33184
767	27.391271	130199552	95039488	43449600	33184
768	27.911389	130199552	95039488	46156848	33184
769	29.406142	130199552	95039488	49438616	33184
770	33.180503	130199552	95039488	39286984	33184
771	36.384868	130199552	95039488	47992712	33184
772	37.043652	130199552	95039488	41141520	33184
773	38.331856	130199552	95039488	51898584	33184
774	40.039729	130199552	95039488	46806136	33184
775	46.440423	130199552	95039488	46932744	33184
776	42.898267	130199552	95039488	60595752	33184
777	44.022355	130199552	95039488	57930272	33184
778	52.983609	130199552	95039488	61207696	33184
779	83.764998	123203584	89272320	22971520	33184
780	57.042532	124551168	89272320	27485944	33184
781	54.380679	124551168	89272320	33651400	33184
782	55.509494	124551168	89272320	40917264	33184
783	57.789297	124551168	89272320	49151744	33184
784	63.472368	124551168	89272320	45854920	33184
785	60.087672	124551168	89272320	56174792	33184
786	66.869655	126443520	91369472	54998512	33184
787	64.636579	130498560	95563776	67354728	33184
788	92.370706	123174912	89796608	32334472	33184
789	70.600683	125063168	89796608	33362456	33184
790	72.943174	125063168	89796608	36359248	33184
791	74.283737	125063168	89796608	40319680	33184
792	74.515548	125063168	89796608	45351848	33184
793	78.792404	125063168	89796608	51528416	33184
794	95.037067	125603840	90320896	58659960	33184
795	92.121926	123482112	88223744	36946384	33184
796	85.536221	123482112	88223744	33599016	33184
797	84.460782	123482112	88223744	43867456	33184
798	83.608069	123482112	88223744	55224792	33184
799	92.415179	123482112	88223744	55035608	33184
800	117.468283	126648320	92942336	24357400	33184
801	90.812568	127995904	92942336	38160872	33184
802	3.135826	127995904	92942336	42134288	33184
803	4.720523	127995904	92942336	45304368	33184
804	9.633407	127995904	92942336	36193056	33184
805	8.073722	127995904	92942336	41494192	33184
806	9.474954	127995904	92942336	47845304	33184
807	12.146186	127995904	92942336	39918712	33184
808	12.616707	127995904	92942336	48396912	33184
809	14.764353	127995904	92942336	41985456	33184
810	17.32564	127995904	92942336	37489496	33184
811	17.316357	127995904	92942336	49166944	33184
812	19.546949	127995904	92942336	45830392	33184
813	21.169658	127995904	92942336	43971136	33184
814	24.13643	127995904	92942336	43495528	33184
815	25.315179	127995904	92942336	44122704	33184
816	26.662382	127995904	92942336	45774832	33184
817	28.345098	127995904	92942336	48205720	33184
818	29.181146	127995904	92942336	51433656	33184
819	33.082961	127995904	92942336	41170008	33184
820	33.379725	127995904	92942336	47582680	33184
821	37.521478	127995904	92942336	40458824	33184
822	38.829637	127995904	92942336	51559344	33184
823	40.023964	127995904	92942336	46498944	33184
824	46.767898	127995904	92942336	47126208	33184
825	43.356003	127995904	92942336	61260608	33184
826	44.100025	127995904	92942336	58672584	33184
827	46.879233	127995904	92942336	57668680	33184
828	53.095423	127995904	92942336	62645632	33184
829	56.834867	128266240	92942336	68602448	33184
830	85.27607	125546496	91893760	31005752	33184
831	58.507204	126894080	91893760	38436416	33184
832	64.254045	126894080	91893760	35062912	33184
833	61.072406	126894080	91893760	45369840	33184
834	65.767555	126894080	91893760	44168080	33184
835	64.628722	126894080	91893760	56675352	33184
836	70.567014	126894080	91893760	57700296	33184
837	72.350487	127164416	91893760	59844424	33184
838	101.476594	128786432	95039488	32255472	33184
839	75.901671	130134016	95039488	35827128	33184
840	75.942812	130134016	95039488	41265832	33184
841	77.592139	130134016	95039488	47831432	33184
842	81.258632	130134016	95039488	55432288	33184
843	81.579084	130134016	95039488	64201200	33184
844	88.017712	130674688	95563776	61432656	33184
845	113.751112	132718592	99233792	39910384	33184
846	92.029498	134066176	99233792	38568368	33184
847	88.724105	134066176	99233792	51809656	33184
848	93.984015	134066176	99233792	53630120	33184
849	95.906937	134066176	99233792	56627504	33184
850	92.717181	134066176	99233792	73186256	33184
851	124.840955	129249280	94515200	27766728	33184
852	3.335402	129789952	94515200	35180072	33184
853	5.178773	129789952	94515200	38569400	33184
854	6.778144	129789952	94515200	43085136	33184
855	11.095272	129789952	94515200	34753736	33184
856	10.384367	129789952	94515200	41546144	33184
857	12.605686	129789952	94515200	34043424	33184
858	13.586039	129789952	94515200	43110744	33184
859	15.520288	129789952	94515200	37222664	33184
860	17.95517	129789952	94515200	33264664	33184
861	18.666047	129789952	94515200	45737016	33184
862	20.260702	129789952	94515200	42944176	33184
863	22.629073	129789952	94515200	41619368	33184
864	24.658291	129789952	94515200	41635144	33184
865	25.796872	129789952	94515200	42793760	33184
866	27.575061	129789952	94515200	44921608	33184
867	31.67133	129789952	94515200	33851808	33184
868	32.686819	129789952	94515200	39580264	33184
869	32.609463	129789952	94515200	45621776	33184
870	36.787758	129789952	94515200	37875208	33184
871	39.420413	129789952	94515200	33242984	33184
872	41.079308	129789952	94515200	45796312	33184
873	42.10827	129789952	94515200	42321072	33184
874	49.452429	129789952	94515200	44532352	33184
875	50.692163	129789952	94515200	47960560	33184
876	52.615004	129789952	94515200	52399232	33184
877	53.847901	129789952	94515200	58058088	33184
878	61.442411	130060288	95039488	64948448	33184
879	82.201773	126246912	91369472	28182680	33184
880	58.419141	126246912	91369472	37308952	33184
881	64.961933	126246912	91369472	35040128	33184
882	63.607069	126246912	91369472	46542728	33184
883	68.182105	126246912	91369472	46597040	33184
884	69.214503	126246912	91369472	47804864	33184
885	66.639523	126246912	91369472	62776976	33184
886	101.239618	121454592	87699456	21490392	33184
887	72.600224	122802176	87699456	38147720	33184
888	77.595847	123072512	87699456	44003024	33184
889	83.740256	123072512	87699456	38541408	33184
890	81.192421	123072512	87699456	46731696	33184
891	81.436523	123072512	87699456	56126768	33184
892	90.039801	124153856	89272320	66700048	33184
893	112.431815	126156800	91369472	35247320	33184
894	91.32019	126156800	91369472	35594296	33184
895	88.767317	126156800	91369472	49671160	33184
896	94.815569	126156800	91369472	52428360	33184
897	96.589021	126697472	91369472	56327928	33184
898	124.629651	126697472	92942336	28879240	33184
899	101.419263	128045056	92942336	34219248	33184
900	102.89417	128045056	92942336	41716312	33184
901	103.787437	128045056	92942336	50376224	33184
902	3.524573	128045056	92942336	61399224	33184
903	5.34396	128045056	92942336	64986672	33184
904	10.401693	128315392	92942336	56389008	33184
905	8.845438	128315392	92942336	62365008	33184
906	12.25114	128315392	92942336	54750624	33184
907	13.421193	128315392	92942336	63097752	33184
908	16.818556	128315392	92942336	57051096	33184
909	18.859206	128315392	92942336	67797952	33184
910	34.204448	123072512	87699456	18222688	33184
911	20.122958	123072512	87699456	31366904	33184
912	23.472983	123072512	87699456	30626080	33184
913	23.683449	123072512	87699456	30211080	33184
914	25.965895	123072512	87699456	30913432	33184
915	26.876461	123072512	87699456	32664368	33184
916	31.389201	123072512	87699456	21243552	33184
917	31.876672	123072512	87699456	26753072	33184
918	33.278789	123072512	87699456	32754776	33184
919	36.889998	123072512	87699456	24949200	33184
920	40.106587	123072512	87699456	20268856	33184
921	42.414985	123072512	87699456	33023184	33184
922	42.753191	123072512	87699456	29639712	33184
923	49.758049	123072512	87699456	32237768	33184
924	51.092645	123072512	87699456	35989592	33184
925	52.406087	123072512	87699456	40894384	33184
926	54.690114	123072512	87699456	47005584	33184
927	56.260782	123072512	87699456	54333160	33184
928	67.622225	123613184	88223744	50263312	33184
929	81.242491	119947264	86126592	33624328	33184
930	67.829132	121298944	86126592	31860832	33184
931	63.152793	121298944	86126592	44092448	33184
932	70.469017	121298944	86126592	45001624	33184
933	71.291815	121298944	86126592	47130904	33184
934	73.931323	121298944	86126592	50473568	33184
935	71.25595	122650624	87699456	67618736	33184
936	107.593245	123551744	89796608	29014920	33184
937	78.191546	124899328	89796608	35056560	33184
938	81.638067	124899328	89796608	43373888	33184
939	87.934397	124899328	89796608	40342512	33184
940	84.699181	124899328	89796608	51117408	33184
941	86.303157	124899328	89796608	63231840	33184
942	119.5142	124424192	90845184	32540120	33184
943	95.003105	125771776	90845184	33778192	33184
944	98.695047	125771776	90845184	36832768	33184
945	94.224034	125771776	90845184	53692432	33184
946	100.218954	125771776	90845184	59287176	33184
947	132.761104	125272064	91893760	23577160	33184
948	105.192145	126619648	91893760	30968368	33184
949	105.688859	126619648	91893760	40283208	33184
950	110.078691	126619648	91893760	50780272	33184
951	109.396892	127160320	91893760	62659312	33184
952	3.960089	129581056	96088064	32624368	33184
953	5.535839	129581056	96088064	36378800	33184
954	10.876569	130928640	96088064	26970144	33184
955	9.513797	130928640	96088064	33234216	33184
956	13.156592	130928640	96088064	26103960	33184
957	12.995216	130928640	96088064	34902288	33184
958	15.985964	130928640	96088064	29084384	33184
959	18.351387	130928640	96088064	25357760	33184
960	18.614222	130928640	96088064	37920536	33184
961	21.068817	130928640	96088064	35567488	33184
962	22.87652	130928640	96088064	34788560	33184
963	24.88942	130928640	96088064	35311032	33184
964	26.880033	130928640	96088064	37061984	33184
965	31.684842	130928640	96088064	25888376	33184
966	34.235326	130928640	96088064	33711136	33184
967	32.876086	130928640	96088064	39798936	33184
968	36.677732	130928640	96088064	32373072	33184
969	39.775631	130928640	96088064	43957096	33184
970	40.614123	130928640	96088064	39266680	33184
971	43.385066	130928640	96088064	36613432	33184
972	50.016366	130928640	96088064	39353088	33184
973	52.992883	130928640	96088064	43253856	33184
974	54.304397	130928640	96088064	48423944	33184
975	55.877599	130928640	96088064	54854288	33184
976	56.792263	130928640	96088064	62606856	33184
977	63.521239	131469312	96088064	59073480	33184
978	90.175608	128196608	94515200	24994960	33184
979	64.847947	129814528	94515200	35890064	33184
980	69.968415	129814528	94515200	36208656	33184
981	67.024029	129814528	94515200	50322088	33184
982	73.346047	129814528	94515200	53193616	33184
983	73.901644	129814528	94515200	57313688	33184
984	76.76768	129814528	94515200	62795632	33184
985	82.126515	132788224	97660928	69506424	33184
986	106.164557	130936832	96088064	30273512	33184
987	82.784995	130936832	96088064	39618288	33184
988	84.358984	130936832	96088064	50264856	33184
989	90.758329	130936832	96088064	49609464	33184
990	87.916354	130936832	96088064	62806472	33184
991	101.009558	131477504	96088064	64816984	33184
992	120.035416	129757184	94515200	37169512	33184
993	98.834007	129757184	94515200	41723056	33184
994	99.190233	129757184	94515200	47612736	33184
995	101.010972	129757184	94515200	54716088	33184
996	103.289803	129757184	94515200	63193640	33184
997	138.980321	134344704	99233792	24610952	33184
998	109.108752	134344704	99233792	35775768	33184
999	109.408722	134344704	99233792	48210840	33184
1000	116.753559	134344704	99233792	49246384	33184
