x	Duration	RSS	HeapTotal	HeapUsed	External
0	NA	128053248	93466624	51627944	24992
1	0.339339	128053248	93466624	51673392	24992
2	0.308235	128053248	93466624	51744664	24992
3	0.351614	128053248	93466624	51841032	24992
4	0.422563	128053248	93466624	51963648	24992
5	0.501484	128053248	93466624	52113960	24992
6	0.77363	128053248	93466624	52292696	24992
7	3.056681	128053248	93466624	40112600	24992
8	0.446454	128053248	93466624	40350960	24992
9	0.494796	128053248	93466624	40621512	24992
10	0.477695	128053248	93466624	40924200	24992
11	0.536105	128053248	93466624	41259952	24992
12	0.571373	128053248	93466624	41630360	24992
13	0.624006	128053248	93466624	42036160	24992
14	0.857002	128053248	93466624	42478416	24992
15	0.798253	128053248	93466624	42959032	24992
16	1.29672	128053248	93466624	43476912	24992
17	0.900708	128053248	93466624	44035832	24992
18	0.907911	128053248	93466624	44635264	24992
19	1.201939	128053248	93466624	45276520	24992
20	1.030025	128053248	93466624	45959696	24992
21	1.174794	128053248	93466624	46693472	24992
22	1.165107	128053248	93466624	47463120	24992
23	1.231669	128053248	93466624	48277464	24992
24	1.295222	128053248	93466624	49137480	24992
25	1.541852	128053248	93466624	50045328	24992
26	1.446168	128053248	93466624	51001728	24992
27	1.529289	128053248	93466624	52007744	24992
28	1.582277	128053248	93466624	53064224	24992
29	1.66257	128053248	93466624	54172240	24992
30	4.310992	128053248	93466624	41253432	24992
31	2.124258	128053248	93466624	42467016	24992
32	1.900987	128053248	93466624	43737312	24992
33	2.05609	128053248	93466624	45067232	24992
34	2.084598	128053248	93466624	46453432	24992
35	2.175368	128053248	93466624	47896568	24992
36	2.25957	128053248	93466624	49397736	24992
37	2.342868	128053248	93466624	50957736	24992
38	2.828524	128053248	93466624	52578360	24992
39	2.665372	128053248	93466624	54259792	24992
40	2.921213	128053248	93466624	56002032	24992
41	4.689401	128053248	93466624	42334248	24992
42	3.085074	128053248	93466624	44202736	24992
43	3.044071	128053248	93466624	46135560	24992
44	3.208497	128053248	93466624	48134568	24992
45	3.135908	128053248	93466624	50200352	24992
46	3.234475	128053248	93466624	52332840	24992
47	3.342009	128053248	93466624	54533440	24992
48	3.626082	128053248	93466624	56803176	24992
49	5.526344	128053248	93466624	43606880	24992
50	3.741385	128053248	93466624	46017832	24992
51	3.85641	128053248	93466624	48503608	24992
52	4.184831	128053248	93466624	51066344	24992
53	4.227685	128053248	93466624	53702416	24992
54	4.559104	128053248	93466624	56415304	24992
55	6.071254	128053248	93466624	43643520	24992
56	4.926973	128053248	93466624	46515744	24992
57	4.667796	128053248	93466624	49465384	24992
58	4.766955	128053248	93466624	52494600	24992
59	4.727755	128053248	93466624	55604968	24992
60	5.012198	128053248	93466624	58797912	24992
61	7.078701	128053248	93466624	46258424	24992
62	5.673856	128053248	93466624	49618624	24992
63	5.270893	128053248	93466624	53064064	24992
64	5.361468	128053248	93466624	56595784	24992
65	7.681126	128053248	93466624	44649008	24992
66	5.792194	128053248	93466624	48363104	24992
67	5.956801	128053248	93466624	52166104	24992
68	6.165362	128053248	93466624	56061392	24992
69	8.071024	128053248	93466624	44578392	24992
70	6.775802	128053248	93466624	48654224	24992
71	6.351416	128053248	93466624	52821728	24992
72	6.735971	128053248	93466624	57082584	24992
73	8.740497	128053248	93466624	45852504	24992
74	6.797512	128053248	93466624	50303096	24992
75	7.120444	128053248	93466624	54850072	24992
76	7.091783	128053248	93466624	59494944	24992
77	9.725117	128053248	93466624	48415408	24992
78	7.623224	128053248	93466624	53256600	24992
79	7.752009	128053248	93466624	58198416	24992
80	9.706489	128053248	93466624	47597296	24992
81	8.058107	128053248	93466624	52750256	24992
82	8.305759	128053248	93466624	57999512	24992
83	10.662273	128053248	93466624	47729280	24992
84	8.40306	128053248	93466624	53188120	24992
85	9.594681	128053248	93466624	58758944	24992
86	10.924108	128053248	93466624	48774272	24992
87	9.431456	128053248	93466624	54551000	24992
88	9.250138	128053248	93466624	60435328	24992
89	11.126644	128053248	93466624	50655656	24992
90	9.908661	128053248	93466624	56759112	24992
91	10.592056	128053248	93466624	62982952	24992
92	12.620929	128053248	93466624	53398800	24992
93	9.959258	128053248	93466624	59838056	24992
94	12.667225	128053248	93466624	50781576	24992
95	10.516927	128053248	93466624	57449232	24992
96	12.996066	128053248	93466624	49015672	24992
97	10.903991	128053248	93466624	55916800	24992
98	11.008097	128053248	93466624	62937712	24992
99	13.415356	128053248	93466624	54186200	24992
100	11.353612	128053248	93466624	61443464	24992
101	14.188639	128053248	93466624	53167288	24992
102	0.424698	128053248	93466624	60464592	24992
103	0.610001	128053248	93466624	60830872	24992
104	0.964151	128053248	93466624	61324368	24992
105	1.011451	128053248	93466624	61945960	24992
106	1.199335	128053248	93466624	62697144	24992
107	1.388591	128053248	93466624	63578288	24992
108	1.577981	128053248	93466624	64590512	24992
109	3.856687	128053248	93466624	49768392	24992
110	2.139642	128053248	93466624	51046096	24992
111	2.370782	128053248	93466624	52457536	24992
112	2.576808	128053248	93466624	54003920	24992
113	2.798684	128053248	93466624	55685680	24992
114	3.025158	128053248	93466624	57503768	24992
115	3.399102	128053248	93466624	59459288	24992
116	3.416779	128053248	93466624	61553112	24992
117	3.800652	128053248	93466624	63786696	24992
118	6.063273	128053248	93466624	50220272	24992
119	4.401642	128053248	93466624	52736640	24992
120	4.513375	128053248	93466624	55397784	24992
121	4.31983	128053248	93466624	58199544	24992
122	4.716713	128053248	93466624	61146136	24992
123	4.824737	128053248	93466624	64243880	24992
124	7.224755	128053248	93466624	51495952	24992
125	5.439938	128053248	93466624	54880992	24992
126	5.521571	128053248	93466624	58414176	24992
127	5.864107	128053248	93466624	62093272	24992
128	6.09427	128053248	93466624	65923424	24992
129	8.730738	128053248	93466624	53728144	24992
130	6.749832	128053248	93466624	57859080	24992
131	6.591185	128053248	93466624	62145088	24992
132	9.896587	128053248	93466624	50921168	24992
133	7.406354	128053248	93466624	55514368	24992
134	7.350803	128053248	93466624	60266200	24992
135	7.792525	128053248	93466624	65174504	24992
136	10.2778	128053248	93466624	54184464	24992
137	8.326569	128053248	93466624	59413128	24992
138	8.665297	128053248	93466624	64796800	24992
139	11.206261	128053248	93466624	54369416	24992
140	9.430219	128053248	93466624	60071312	24992
141	9.755407	128053248	93466624	65937720	24992
142	11.489465	128053248	93466624	55834744	24992
143	9.582204	128053248	93466624	62025120	24992
144	12.425737	128053248	93466624	52812648	24992
145	10.346821	128053248	93466624	59340456	24992
146	10.571941	128053248	93466624	66025736	24992
147	12.95485	128053248	93466624	56772792	24992
148	11.117381	128053248	93466624	63793680	24992
149	13.593809	128053248	93466624	55238288	24992
150	11.6196	128053248	93466624	62598056	24992
151	14.363692	128053248	93466624	54541440	24992
152	12.16579	128053248	93466624	62245456	24992
153	15.054404	128053248	93466624	54599024	24992
154	13.055592	128053248	93466624	62650552	24992
155	15.881466	128053248	93466624	55343440	24992
156	14.062373	128053248	93466624	63743328	24992
157	16.381549	128053248	93466624	56664944	24992
158	13.814572	128053248	93466624	65419120	24992
159	16.823902	128053248	93466624	58463248	24992
160	14.699396	128053248	93466624	67573552	24992
161	17.333689	128053248	93466624	60712984	24992
162	17.740825	128053248	93466624	55001760	24992
163	15.244789	128053248	93466624	64655568	24992
164	18.005332	128053248	93466624	58757840	24992
165	16.380004	128053248	93466624	68781056	24992
166	18.180984	128053248	93466624	62795088	24992
167	19.508911	128053248	93466624	57791616	24992
168	17.032313	128053248	93466624	68380360	24992
169	20.151529	128053248	93466624	63010736	24992
170	20.022849	128053248	93466624	58591176	24992
171	17.836671	128053248	93466624	69747176	24992
172	20.404008	128053248	93466624	64822408	24992
173	21.293776	128053248	93466624	60774768	24992
174	21.943382	128323584	93466624	57516136	24992
175	18.812995	128323584	93466624	69438784	24992
176	21.690976	128323584	93466624	65363480	24992
177	22.343286	128323584	93466624	62101552	24992
178	22.709994	128323584	93466624	59454776	24992
179	23.573318	128323584	93466624	57445600	24992
180	20.28301	128323584	93466624	70346432	24992
181	23.481386	128323584	93466624	67240720	24992
182	24.110042	128323584	93466624	64814168	24992
183	24.640672	128323584	93466624	62881416	24992
184	25.573597	128323584	93466624	61445624	24992
185	25.658777	128323584	93466624	60463024	24992
186	26.575731	128323584	93466624	59859224	24992
187	26.45784	128323584	93466624	59563712	24992
188	27.185704	128323584	93466624	59549888	24992
189	27.677969	128323584	93466624	59770312	24992
190	27.998968	128323584	93466624	60163256	24992
191	28.485336	128323584	93466624	60752864	24992
192	28.65549	128323584	93466624	61484256	24992
193	28.431953	128323584	93466624	62343352	24992
194	28.897867	128323584	93990912	63311152	24992
195	28.888681	128323584	93990912	64355200	24992
196	29.739731	128593920	93990912	65496424	24992
197	29.967122	128593920	93990912	66707808	24992
198	29.978205	128864256	95039488	67994472	24992
199	30.148706	129134592	95039488	69299728	24992
200	30.628695	129134592	95039488	70662072	24992
201	30.876949	129404928	95039488	72078896	24992
202	0.749442	129675264	95563776	73454032	24992
203	1.077642	129675264	95563776	74112032	24992
204	1.399381	129675264	95563776	74990032	24992
205	4.629368	129675264	95563776	59774768	24992
206	2.182608	129675264	95563776	61096568	24992
207	2.444661	129675264	95563776	62640384	24992
208	2.832002	129675264	95563776	64411064	24992
209	3.364491	129675264	95563776	66411376	24992
210	3.53137	129675264	95563776	68646272	24992
211	3.879416	129675264	95563776	71116008	24992
212	4.231233	129675264	95563776	73821264	24992
213	7.746331	129675264	95563776	60621736	24992
214	4.982748	129675264	95563776	63802488	24992
215	5.514582	129675264	95563776	67220224	24992
216	5.694931	129945600	95563776	70881608	24992
217	6.503589	129945600	95563776	74778816	24992
218	9.711564	129945600	95563776	62697840	24992
219	6.918149	129945600	95563776	67082424	24992
220	7.439282	129945600	95563776	71711720	24992
221	10.932563	129945600	95563776	60813528	24992
222	8.128177	130215936	95563776	65932544	24992
223	8.416271	130215936	95563776	71292792	24992
224	12.021174	130215936	96088064	61176816	24992
225	9.343783	130215936	96088064	67033504	24992
226	9.682015	130215936	96088064	73136880	24992
227	13.166877	130215936	96088064	63533320	24992
228	10.297816	130486272	96088064	70142008	24992
229	14.306574	130486272	96088064	61477624	24992
230	11.451507	130486272	96088064	68584760	24992
231	11.644639	130486272	96088064	75948296	24992
232	15.054443	130486272	96612352	67241880	24992
233	12.393798	130756608	96612352	75115984	24992
234	15.899225	130756608	96612352	67058464	24992
235	13.271942	130756608	96612352	75447960	24992
236	16.767488	131026944	96612352	67878800	24992
237	18.065145	131026944	96612352	61627360	24992
238	14.958562	131026944	96612352	70800384	24992
239	18.183689	131026944	96612352	64659104	24992
240	15.436572	131026944	96612352	74356584	24992
241	18.844944	131297280	97136640	68305040	24992
242	19.771349	131297280	97136640	63380216	24992
243	16.786553	131297280	97136640	73878248	24992
244	20.854447	131567616	97136640	68674608	24992
245	21.399726	131567616	97660928	64534032	24992
246	17.736448	131567616	97660928	75816360	24992
247	21.732778	131837952	97660928	71178672	24992
248	22.158418	131837952	97660928	67479112	24992
249	23.239034	132108288	97660928	64555712	24992
250	19.544783	132108288	97660928	76911072	24992
251	23.603833	132108288	97660928	73229512	24992
252	23.731937	132378624	98185216	70398296	24992
253	24.499236	132378624	98185216	68217104	24992
254	25.520431	132378624	98185216	66643104	24992
255	25.853431	132648960	98185216	65587592	24992
256	26.84773	132648960	98185216	64997168	24992
257	26.995303	132919296	98709504	64776880	24992
258	27.684926	132919296	98709504	64879720	24992
259	28.736679	132919296	98709504	65270200	24992
260	28.833098	133189632	98709504	65900120	24992
261	29.054677	133189632	98709504	66745784	24992
262	29.425168	133459968	98709504	67761320	24992
263	29.764451	133459968	99233792	68918736	24992
264	29.8203	133730304	99233792	70211640	24992
265	32.120356	133730304	99758080	71630096	24992
266	38.532629	133730304	99758080	73126176	24992
267	37.880929	125665280	92418048	27193384	24992
268	28.49877	126472192	92418048	28393336	24992
269	28.357365	126472192	92418048	29736744	24992
270	30.781982	126472192	92418048	17120688	24992
271	30.232881	126472192	92418048	20737768	24992
272	31.360698	126472192	92418048	24102360	24992
273	30.728316	126472192	92418048	27257352	24992
274	32.705372	126472192	92418048	16465064	24992
275	33.621128	126472192	92418048	23677832	24992
276	32.760135	126472192	92418048	28207328	24992
277	32.243676	126472192	92418048	32376416	24992
278	34.402302	126472192	92418048	22201000	24992
279	34.166352	126472192	92418048	27874192	24992
280	33.866071	126472192	92418048	33028312	24992
281	35.654678	126472192	92418048	23649656	24992
282	35.716674	126472192	92418048	30019384	24992
283	37.537626	126472192	92418048	22046664	24992
284	37.894764	126472192	92418048	31937312	24992
285	38.256349	126472192	92418048	25121016	24992
286	38.894429	126472192	92418048	35588952	24992
287	38.98982	126472192	92418048	29203328	24992
288	39.839831	126472192	92418048	40310896	24992
289	39.780715	126472192	92418048	34294336	24992
290	44.045825	126472192	92418048	33595752	24992
291	42.254209	126742528	92418048	45448760	24992
292	41.850431	126742528	92418048	40533192	24992
293	45.493932	126742528	92418048	40797184	24992
294	44.446034	126742528	92418048	53615072	24992
295	50.026551	127283200	92418048	49417296	24992
296	62.028486	116592640	81932288	20544816	24992
297	43.938293	116592640	81932288	34484504	24992
298	44.878712	116592640	81932288	30681352	24992
299	45.264184	116592640	81932288	28111088	24992
300	48.537169	116592640	81932288	30480320	24992
301	48.548224	116592640	81932288	33055232	24992
302	1.04773	116592640	81932288	35998832	24992
303	1.533975	116592640	81932288	36960952	24992
304	2.007428	116592640	81932288	38246568	24992
305	2.705528	116592640	81932288	39851384	24992
306	3.275009	116592640	81932288	41781960	24992
307	3.573368	116592640	81932288	44042232	24992
308	4.216861	116592640	81932288	46625992	24992
309	6.515327	116592640	81932288	35555088	24992
310	5.342664	116592640	81932288	38784400	24992
311	5.750236	116592640	81932288	42343728	24992
312	6.064757	116592640	81932288	46228696	24992
313	6.604155	116592640	81932288	50443104	24992
314	7.729123	116592640	81932288	38710456	24992
315	7.638695	116592640	81932288	43585928	24992
316	8.336898	116592640	81932288	48801456	24992
317	9.349856	116592640	81932288	38231816	24992
318	9.292964	116592640	81932288	44119312	24992
319	9.977584	116592640	81932288	50332576	24992
320	11.186805	116592640	81932288	40535984	24992
321	11.276143	116592640	81932288	47419736	24992
322	12.058243	116592640	81932288	38761048	24992
323	12.042254	116592640	81932288	46330384	24992
324	13.516476	116592640	81932288	38473672	24992
325	13.190446	116592640	81932288	46716488	24992
326	14.251596	116592640	81932288	39513520	24992
327	14.326161	116592640	81932288	48444704	24992
328	15.435552	116592640	81932288	41652624	24992
329	15.266521	116592640	81932288	51268640	24992
330	16.403346	116592640	81932288	44767968	24992
331	17.732961	116592640	81932288	39557280	24992
332	17.323525	116592640	81932288	50217064	24992
333	18.311266	116592640	81932288	44920776	24992
334	19.262268	116592640	81932288	40764664	24992
335	19.679444	116592640	81932288	37602048	24992
336	19.803359	116592640	81932288	49667416	24992
337	20.211355	116592640	81932288	45866096	24992
338	21.510453	116592640	81932288	42970080	24992
339	22.293719	116592640	81932288	40865808	24992
340	23.006544	116592640	81932288	39469032	24992
341	23.580886	116592640	81932288	38635320	24992
342	24.367804	116592640	81932288	38294808	24992
343	24.80511	116592640	81932288	38367112	24992
344	27.574698	116592640	81932288	38764232	24992
345	26.894416	116592640	81932288	39468928	24992
346	26.661761	116592640	81932288	40429320	24992
347	26.616774	116592640	81932288	41633168	24992
348	27.768061	116592640	81932288	43019800	24992
349	27.633604	116592640	81932288	44565216	24992
350	28.917343	116592640	81932288	46240672	24992
351	28.350496	116592640	81932288	48030616	24992
352	30.021793	116592640	81932288	49925632	24992
353	29.850088	116592640	81932288	51909648	24992
354	32.658502	116592640	81932288	40073632	24992
355	31.385967	116592640	81932288	44350016	24992
356	31.991284	116592640	81932288	48410584	24992
357	31.809981	116592640	81932288	52221216	24992
358	34.348412	116592640	81932288	41882896	24992
359	34.023221	116592640	81932288	47404952	24992
360	34.082271	116592640	81932288	52513928	24992
361	35.861655	116592640	81932288	43317000	24992
362	35.782381	116592640	81932288	49833040	24992
363	37.622283	116592640	81932288	42128608	24992
364	38.862105	116592640	81932288	52293792	24992
365	39.085663	116592640	81932288	45830376	24992
366	39.470147	116592640	81932288	56757904	24992
367	40.097423	116592640	81932288	50778928	24992
368	42.626104	117133312	82456576	62483936	24992
369	53.242145	117944320	83505152	56900048	24992
370	47.108158	118964224	84553728	24168592	24992
371	45.030363	118964224	84553728	24526096	24992
372	43.630801	118964224	84553728	37515664	24992
373	42.946299	118964224	84553728	33147920	24992
374	44.649683	118964224	84553728	29970424	24992
375	48.474612	118964224	84553728	31911288	24992
376	48.480009	118964224	84553728	34133824	24992
377	46.58347	118964224	84553728	49091992	24992
378	46.411086	118964224	84553728	46387208	24992
379	47.337263	118964224	84553728	44715688	24992
380	51.217822	119234560	84553728	48620256	24992
381	53.031288	119234560	84553728	52781864	24992
382	69.392195	120586240	86126592	57333632	24992
383	57.687369	119078912	84553728	34066504	24992
384	53.410322	119078912	84553728	39391432	24992
385	56.814474	119078912	84553728	32930352	24992
386	54.919363	119078912	84553728	38958016	24992
387	55.286367	119078912	84553728	45474360	24992
388	55.459872	119078912	84553728	52336896	24992
389	56.164102	119078912	84553728	59645624	24992
390	64.579218	123133952	88748032	55141968	24992
391	74.164247	121380864	88223744	31339960	24992
392	61.379585	122728448	88223744	26916600	24992
393	60.52269	122728448	88223744	35727400	24992
394	60.384662	122728448	88223744	45060248	24992
395	62.799575	122728448	88223744	42622560	24992
396	62.675294	122728448	88223744	52793584	24992
397	64.774019	122728448	88223744	51217072	24992
398	68.574309	123809792	89272320	62171000	24992
399	83.069442	124952576	90320896	28683648	24992
400	67.29377	124952576	90320896	28334600	24992
401	64.788099	124952576	90320896	40405384	24992
402	1.400583	124952576	90320896	40995424	24992
403	2.076748	124952576	90320896	42239000	24992
404	2.754461	124952576	90320896	43905560	24992
405	3.367264	124952576	90320896	45980528	24992
406	3.952551	124952576	90320896	48473656	24992
407	4.666938	124952576	90320896	51375760	24992
408	7.183023	124952576	90320896	40707032	24992
409	6.280268	124952576	90320896	44444552	24992
410	6.9402	124952576	90320896	48606112	24992
411	7.65721	124952576	90320896	53187192	24992
412	8.707854	124952576	90320896	42222656	24992
413	8.549888	124952576	90320896	47648592	24992
414	9.475222	124952576	90320896	53492200	24992
415	10.631931	124952576	90320896	43500224	24992
416	10.720741	124952576	90320896	50197376	24992
417	12.221205	124952576	90320896	41530616	24992
418	12.431978	124952576	90320896	49077048	24992
419	14.500908	124952576	90320896	41467000	24992
420	13.485254	124952576	90320896	49910064	24992
421	15.016767	124952576	90320896	43074600	24992
422	15.066028	124952576	90320896	52402552	24992
423	16.214163	124952576	90320896	46108184	24992
424	17.422613	124952576	90320896	41189408	24992
425	16.942712	124952576	90320896	51866816	24992
426	18.358894	124952576	90320896	46964880	24992
427	19.405884	124952576	90320896	43272096	24992
428	20.167133	124952576	90320896	40593320	24992
429	19.846239	124952576	90320896	53085848	24992
430	21.183925	124952576	90320896	49841056	24992
431	22.356871	124952576	90320896	47519816	24992
432	23.314201	124952576	90320896	46037944	24992
433	23.726484	124952576	90320896	45230800	24992
434	24.255349	124952576	90320896	44965280	24992
435	25.518358	124952576	90320896	45228912	24992
436	26.469076	124952576	90320896	45910080	24992
437	27.014676	124952576	90320896	46984072	24992
438	27.465832	124952576	90320896	48340552	24992
439	28.018365	124952576	90320896	49986048	24992
440	28.54257	124952576	90320896	51849456	24992
441	29.09326	124952576	90320896	53895848	24992
442	31.612858	124952576	90320896	42209528	24992
443	33.134595	124952576	90320896	49087216	24992
444	32.336945	124952576	90320896	53405848	24992
445	32.270713	124952576	90320896	57476416	24992
446	33.857544	124952576	90320896	47406536	24992
447	33.813432	124952576	90320896	53335712	24992
448	35.690017	124952576	90320896	45378352	24992
449	38.807599	124952576	90320896	54967720	24992
450	37.717784	124952576	90320896	48434880	24992
451	38.856764	124952576	90320896	58942008	24992
452	39.340144	124952576	90320896	53015400	24992
453	46.216498	124952576	90320896	64527232	24992
454	54.240164	116576256	81932288	28784512	24992
455	44.12689	116576256	81932288	28218528	24992
456	45.332605	116576256	81932288	28616352	24992
457	43.361822	116576256	81932288	41872992	24992
458	45.403048	116576256	81932288	37838608	24992
459	45.271822	116576256	81932288	35196136	24992
460	48.232981	116576256	81932288	37815504	24992
461	49.165962	116576256	81932288	40690936	24992
462	48.96562	116576256	81932288	44120120	24992
463	50.353386	116576256	81932288	47977432	24992
464	55.452553	118468608	84029440	52369392	24992
465	68.681132	120631296	88223744	27082336	24992
466	52.604027	122793984	88223744	31866752	24992
467	53.137632	122793984	88223744	37504208	24992
468	53.284053	122793984	88223744	43719704	24992
469	56.942271	122793984	88223744	38181896	24992
470	54.828122	122793984	88223744	45266632	24992
471	55.773498	122793984	88223744	52987992	24992
472	59.291708	123334656	88748032	61170208	24992
473	79.515251	121577472	89272320	26096984	24992
474	58.313204	123465728	89272320	34766072	24992
475	62.060095	123465728	89272320	32109352	24992
476	59.66762	123465728	89272320	42261888	24992
477	60.524017	123465728	89272320	52869920	24992
478	63.898859	123465728	89272320	51710392	24992
479	62.051961	124006400	89272320	63317600	24992
480	70.514514	125898752	91369472	63163600	24992
481	81.16539	124166144	89796608	29767816	24992
482	68.26973	124166144	89796608	30705880	24992
483	66.087966	124166144	89796608	44414448	24992
484	68.307238	124166144	89796608	46225056	24992
485	69.598684	124166144	89796608	48482536	24992
486	71.793581	124166144	89796608	51341920	24992
487	73.775291	124436480	89796608	66964488	24992
488	89.05585	121856000	87175168	24987872	24992
489	70.022264	121856000	87175168	41528392	24992
490	76.107467	121856000	87175168	46457032	24992
491	75.999482	121856000	87175168	52051664	24992
492	75.123508	121856000	87175168	58165368	24992
493	81.84097	123478016	88748032	64761808	24992
494	94.450913	122834944	88223744	27980776	24992
495	76.675943	122834944	88223744	35350528	24992
496	78.042689	122834944	88223744	43270336	24992
497	78.901675	122834944	88223744	51735064	24992
498	79.915537	122834944	88223744	60706816	24992
499	94.623777	125538304	90845184	57881368	24992
500	92.537164	123392000	88748032	34441968	24992
501	87.133837	123392000	88748032	32692808	24992
502	1.732673	123392000	88748032	44074088	24992
503	2.59317	123392000	88748032	45644368	24992
504	3.293797	123392000	88748032	47737288	24992
505	4.035798	123392000	88748032	50353872	24992
506	6.984648	123392000	88748032	40149400	24992
507	5.782638	123392000	88748032	43888616	24992
508	6.429548	123392000	88748032	48082368	24992
509	7.560244	123392000	88748032	52803688	24992
510	8.882806	123392000	88748032	42551784	24992
511	9.3864	123392000	88748032	48331456	24992
512	10.183915	123392000	88748032	54641280	24992
513	11.183655	123392000	88748032	45149136	24992
514	11.517164	123392000	88748032	52522224	24992
515	13.070807	123392000	88748032	44423584	24992
516	13.628324	123392000	88748032	52911560	24992
517	14.319841	123392000	88748032	45810504	24992
518	15.040515	123392000	88748032	55322736	24992
519	15.797181	123392000	88748032	48906280	24992
520	17.015063	123392000	88748032	44008568	24992
521	17.359652	123392000	88748032	55134408	24992
522	18.863528	123392000	88748032	50473736	24992
523	19.752638	123392000	88748032	46978032	24992
524	20.734052	123392000	88748032	44578816	24992
525	21.812523	123392000	88748032	43028136	24992
526	22.704054	123392000	88748032	42247760	24992
527	24.12804	123392000	88748032	42153632	24992
528	25.22926	123392000	88748032	42616360	24992
529	25.988519	123392000	88748032	43550440	24992
530	26.516626	123392000	88748032	44881560	24992
531	27.170533	123392000	88748032	46639280	24992
532	27.983474	123392000	88748032	48595368	24992
533	28.589309	123392000	88748032	50896152	24992
534	29.424416	123392000	88748032	53370232	24992
535	31.704639	123392000	88748032	42267032	24992
536	33.560661	123392000	88748032	49564504	24992
537	32.576332	123392000	88748032	54290856	24992
538	34.767839	123392000	88748032	45396200	24992
539	36.117673	123392000	88748032	54216280	24992
540	34.917454	123392000	88748032	60407384	24992
541	36.316255	123392000	88748032	52277024	24992
542	37.931472	123392000	88748032	62972368	24992
543	38.550913	123392000	88748032	56550408	24992
544	46.644307	125014016	90320896	55957520	24992
545	59.706493	120537088	88223744	22461248	24992
546	41.664789	122425344	88223744	34211528	24992
547	42.368523	122425344	88223744	29957136	24992
548	44.154477	122425344	88223744	26965568	24992
549	48.196567	122425344	88223744	29154472	24992
550	47.431366	122425344	88223744	31808688	24992
551	48.533435	122425344	88223744	35017656	24992
552	47.073702	122425344	88223744	51051088	24992
553	46.819226	122425344	88223744	49542024	24992
554	48.012592	122425344	88223744	49038008	24992
555	52.133944	122425344	88223744	54739104	24992
556	56.422028	122966016	88223744	48495136	24992
557	58.087827	123506688	88748032	55167664	24992
558	74.061086	120037376	87699456	30809176	24992
559	56.019671	121925632	87699456	37964824	24992
560	59.009401	121925632	87699456	33879856	24992
561	57.279265	121925632	87699456	42685504	24992
562	58.34885	121925632	87699456	52020896	24992
563	61.41913	121925632	87699456	49764944	24992
564	60.542994	122466304	87699456	60291632	24992
565	78.889468	125710336	91369472	59069184	24992
566	71.753021	121638912	87175168	25527280	24992
567	63.405099	121638912	87175168	37817688	24992
568	67.562488	121638912	87175168	38409776	24992
569	66.874854	121638912	87175168	39624592	24992
570	65.229136	121638912	87175168	53621824	24992
571	69.813115	121638912	87175168	55960816	24992
572	93.251009	118849536	86126592	28888592	24992
573	71.67752	120737792	86126592	32116672	24992
574	73.59578	120737792	86126592	36186096	24992
575	71.242076	120737792	86126592	53144288	24992
576	74.568094	120737792	86126592	58355656	24992
577	74.291749	120737792	86126592	64207600	24992
578	86.316934	126414848	91893760	70596784	24992
579	95.41226	124899328	90320896	30823656	24992
580	77.12826	124899328	90320896	38446912	24992
581	79.378274	124899328	90320896	46651960	24992
582	78.578653	124899328	90320896	55428104	24992
583	82.693481	124899328	90320896	52579048	24992
584	97.966404	127062016	92942336	62629000	24992
585	91.809518	124534784	89796608	27330696	24992
586	84.090378	124534784	89796608	38673968	24992
587	83.982831	124534784	89796608	50601896	24992
588	87.869201	124534784	89796608	50786400	24992
589	91.323113	125345792	90845184	63959240	24992
590	109.774341	123490304	88748032	34238336	24992
591	90.589187	123490304	88748032	36150424	24992
592	89.86351	123490304	88748032	51009800	24992
593	91.699707	123490304	88748032	54243920	24992
594	97.462652	125112320	90845184	57944832	24992
595	113.510191	124063744	89796608	30355392	24992
596	94.121643	124063744	89796608	47528208	24992
597	97.915391	124063744	89796608	53076280	24992
598	96.686732	124063744	89796608	59224800	24992
599	99.53936	126767104	92942336	66045536	24992
600	124.660531	128958464	94515200	40109160	24992
601	102.472017	128958464	94515200	48178408	24992
602	5.188457	128958464	94515200	45071776	24992
603	2.884666	128958464	94515200	46921264	24992
604	3.810499	128958464	94515200	49386240	24992
605	4.806264	128958464	94515200	52467504	24992
606	6.086201	128958464	94515200	56166608	24992
607	8.642095	128958464	94515200	46370888	24992
608	7.848881	128958464	94515200	51323632	24992
609	8.600232	128958464	94515200	56880280	24992
610	10.325359	128958464	94515200	47241720	24992
611	10.736384	128958464	94515200	54050048	24992
612	12.502476	128958464	94515200	46108184	24992
613	12.820585	128958464	94515200	54174856	24992
614	14.723026	128958464	94515200	47500952	24992
615	14.468588	128958464	94515200	56805928	24992
616	16.167098	128958464	94515200	50954256	24992
617	17.645837	128958464	94515200	46651928	24992
618	17.542225	128958464	94515200	57840112	24992
619	19.946738	128958464	94515200	53776512	24992
620	20.542442	128958464	94515200	50874408	24992
621	21.723423	128958464	94515200	49086768	24992
622	23.160059	128958464	94515200	48225728	24992
623	24.071531	128958464	94515200	48149632	24992
624	25.323205	128958464	94515200	48761640	24992
625	26.280488	128958464	94515200	49894744	24992
626	26.968833	128958464	94515200	51462768	24992
627	28.041341	128958464	94515200	53401632	24992
628	28.781433	128958464	94515200	55696832	24992
629	29.49924	128958464	94515200	58229008	24992
630	30.911845	128958464	94515200	61039904	24992
631	32.953876	128958464	94515200	50170216	24992
632	33.222577	128958464	94515200	55574544	24992
633	33.546668	128958464	94515200	60773096	24992
634	35.774645	128958464	94515200	51995216	24992
635	35.757657	128958464	94515200	59091280	24992
636	38.257437	128958464	94515200	52032544	24992
637	39.843363	128958464	94515200	63336872	24992
638	40.473671	128958464	94515200	57782896	24992
639	44.590088	129228800	94515200	58105456	24992
640	42.953105	129769472	95039488	71175632	24992
641	43.697477	129769472	95039488	67164328	24992
642	44.609926	129769472	95039488	64706368	24992
643	54.190656	132202496	97660928	67583664	24992
644	62.869428	124428288	91893760	33610248	24992
645	49.915027	126316544	91893760	36272960	24992
646	47.892799	126316544	91893760	35096304	24992
647	49.321987	126316544	91893760	34958536	24992
648	53.205234	126316544	91893760	41058488	24992
649	56.691557	126316544	91893760	35480072	24992
650	55.451649	126316544	91893760	42808632	24992
651	55.941793	126316544	91893760	50783784	24992
652	57.112314	126316544	91893760	59377840	24992
653	66.232373	127127552	92418048	56449000	24992
654	75.543215	120532992	87699456	34931744	24992
655	63.071398	122421248	87699456	32793152	24992
656	61.956231	122421248	87699456	43986856	24992
657	65.223798	122421248	87699456	43766504	24992
658	67.103427	122421248	87699456	44100968	24992
659	64.25719	122421248	87699456	57290704	24992
660	72.506983	122691584	88223744	59001552	24992
661	85.408044	125427712	91369472	28736904	24992
662	70.506095	125968384	91369472	31923144	24992
663	73.01606	125968384	91369472	35651120	24992
664	70.092051	125968384	91369472	52116224	24992
665	73.894603	125968384	91369472	57188968	24992
666	74.475887	125968384	91369472	62868408	24992
667	97.483079	123138048	90845184	23113776	24992
668	78.416238	125026304	90845184	29376936	24992
669	79.096522	125026304	90845184	37064040	24992
670	79.324861	125026304	90845184	45557960	24992
671	80.210769	125026304	90845184	54634808	24992
672	88.154504	125566976	91369472	52218256	24992
673	101.93697	121966592	87175168	32354912	24992
674	83.10452	121966592	87175168	43530360	24992
675	87.064826	121966592	87175168	43229440	24992
676	85.690542	121966592	87175168	55696920	24992
677	91.184499	122507264	88223744	56597952	24992
678	110.387058	123215872	90845184	23697240	24992
679	89.395181	125104128	90845184	37319392	24992
680	92.359365	125104128	90845184	40359528	24992
681	93.209251	125104128	90845184	44054592	24992
682	92.206482	125104128	90845184	60709744	24992
683	118.01337	121540608	88748032	20814672	24992
684	94.864029	123428864	88748032	38231992	24992
685	97.046695	123428864	88748032	44684584	24992
686	100.135895	123428864	88748032	51740416	24992
687	100.151577	123428864	88748032	59612672	24992
688	124.547426	126164992	91893760	21374256	24992
689	101.885609	126164992	91893760	30850752	24992
690	103.132862	126164992	91893760	40786544	24992
691	103.835414	126164992	91893760	51411040	24992
692	123.72604	127516672	93466624	62664808	24992
693	112.72579	119988224	85602304	31356504	24992
694	109.203568	119988224	85602304	44055888	24992
695	109.522859	119988224	85602304	57476904	24992
696	118.256779	125394944	90845184	59341624	24992
697	131.21897	126955520	92418048	43012872	24992
698	115.947039	126955520	92418048	46338560	24992
699	115.263986	126955520	92418048	50384768	24992
700	116.669781	127225856	92942336	67376864	24992
701	141.429516	125526016	91369472	22295720	24992
702	2.240189	125796352	91369472	41218616	24992
703	3.356494	125796352	91369472	43359136	24992
704	7.477741	125796352	91369472	33379816	24992
705	5.760739	125796352	91369472	36934096	24992
706	7.32069	125796352	91369472	41200624	24992
707	7.912666	125796352	91369472	46174736	24992
708	10.312864	125796352	91369472	36840896	24992
709	9.974455	125796352	91369472	43239064	24992
710	11.907731	126066688	91369472	34640872	24992
711	12.38547	126066688	91369472	42462360	24992
712	14.173966	126066688	91369472	35404848	24992
713	14.571444	126066688	91369472	44671176	24992
714	16.431823	126066688	91369472	38752096	24992
715	17.733947	126066688	91369472	34492304	24992
716	18.302453	126066688	91369472	45914496	24992
717	19.611144	126066688	91369472	41923720	24992
718	21.312354	126066688	91369472	39295416	24992
719	23.008966	126066688	91369472	37845024	24992
720	23.877061	126066688	91369472	37308928	24992
721	25.815733	126066688	91369472	37602816	24992
722	26.464186	126066688	91369472	38535920	24992
723	27.225023	126066688	91369472	40093840	24992
724	28.434567	126066688	91369472	42134960	24992
725	29.079487	126066688	91369472	44574432	24992
726	30.734999	126066688	91369472	47346376	24992
727	33.01727	126066688	91369472	36681840	24992
728	33.510889	126066688	91369472	42197672	24992
729	33.944455	126066688	91369472	47586816	24992
730	36.620811	126066688	91369472	39077344	24992
731	36.39651	126066688	91369472	46471112	24992
732	39.31827	126066688	91369472	39743656	24992
733	40.791185	126066688	91369472	51524376	24992
734	40.80675	126066688	91369472	46266312	24992
735	42.622721	126066688	91369472	42739408	24992
736	46.555366	126066688	91369472	44501000	24992
737	44.953253	126066688	91369472	59050752	24992
738	46.400243	126066688	91369472	56376648	24992
739	47.281208	126066688	91369472	55079848	24992
740	52.350817	126066688	91369472	59871816	24992
741	75.048285	116428800	84029440	21737272	24992
742	55.470961	118317056	84029440	27281384	24992
743	55.099487	118317056	84029440	34066848	24992
744	56.459965	118317056	84029440	41509832	24992
745	57.619224	118317056	84029440	49813328	24992
746	60.641187	118317056	84029440	46701968	24992
747	60.148702	118857728	84553728	56411816	24992
748	64.319348	123183104	88748032	54751072	24992
749	85.026724	127508480	92942336	65945376	24992
750	67.864979	123805696	89272320	32459608	24992
751	67.133463	124076032	89272320	32958600	24992
752	65.570508	124076032	89272320	46548080	24992
753	68.788805	124076032	89272320	48569400	24992
754	69.906707	124076032	89272320	51382312	24992
755	68.807113	124346368	89796608	67188288	24992
756	81.054351	128131072	93990912	71583720	24992
757	90.48137	122458112	88223744	28428616	24992
758	75.500977	122458112	88223744	34268184	24992
759	76.818742	122458112	88223744	40879368	24992
760	78.49242	122458112	88223744	48314472	24992
761	78.48547	122458112	88223744	56566664	24992
762	85.89635	125161472	90845184	65563016	24992
763	99.706577	122970112	88748032	30450360	24992
764	85.063104	122970112	88748032	40862368	24992
765	86.132379	122970112	88748032	39855640	24992
766	84.610471	122970112	88748032	51811480	24992
767	86.363939	122970112	88748032	64571576	24992
768	110.772762	121077760	88748032	31447816	24992
769	91.488345	122966016	88748032	32645824	24992
770	93.530628	122966016	88748032	35421888	24992
771	90.826784	122966016	88748032	51269784	24992
772	96.89587	123506688	88748032	55636928	24992
773	120.488695	122855424	88223744	31829112	24992
774	97.637011	122855424	88223744	37839272	24992
775	98.050803	122855424	88223744	44452544	24992
776	96.532024	122855424	88223744	64102384	24992
777	101.386123	127721472	93466624	72266304	24992
778	124.702495	123912192	89272320	29461008	24992
779	104.0461	123912192	89272320	39530072	24992
780	104.784771	123912192	89272320	50097784	24992
781	108.678005	123912192	89272320	49311416	24992
782	130.352679	119189504	86650880	30238656	24992
783	111.059307	121077760	86650880	30493072	24992
784	109.559396	121077760	86650880	44166624	24992
785	110.472616	121077760	86650880	58668336	24992
786	135.53509	123379712	90845184	29639960	24992
787	115.944077	125267968	90845184	33018112	24992
788	115.680656	125267968	90845184	49903992	24992
789	118.814227	125267968	90845184	55219136	24992
790	139.438157	123015168	88223744	27660160	24992
791	120.922871	123015168	88223744	34881224	24992
792	122.233683	123015168	88223744	42676808	24992
793	123.68992	123015168	88223744	63497152	24992
794	149.83142	123195392	88748032	45115968	24992
795	126.388199	123195392	88748032	55271288	24992
796	130.865844	123195392	88748032	54087016	24992
797	135.461129	133197824	98709504	65859856	24992
798	151.990211	130191360	95563776	43413552	24992
799	130.943522	130191360	95563776	56752608	24992
800	133.792597	130191360	95563776	58694920	24992
801	140.525125	134787072	100282368	73639360	24992
802	2.546062	127913984	93466624	41462072	24992
803	3.833831	127913984	93466624	43870184	24992
804	5.14055	127913984	93466624	47085656	24992
805	8.780077	127913984	93466624	37809296	24992
806	7.748025	127913984	93466624	42623424	24992
807	9.147248	127913984	93466624	48247440	24992
808	10.918481	127913984	93466624	39400328	24992
809	11.654433	127913984	93466624	46628072	24992
810	13.509214	127913984	93466624	38950688	24992
811	14.321808	127913984	93466624	47831904	24992
812	16.195535	127913984	93466624	41551680	24992
813	17.920199	127913984	93466624	37039160	24992
814	17.886016	127913984	93466624	48317496	24992
815	20.144147	127913984	93466624	44448960	24992
816	21.587827	127913984	93466624	41935784	24992
817	22.808809	127913984	93466624	40684904	24992
818	24.316892	127913984	93466624	40384912	24992
819	25.778736	127913984	93466624	41004672	24992
820	26.893606	127913984	93466624	42336968	24992
821	28.204776	127913984	93466624	44220664	24992
822	29.433878	127913984	93466624	46669848	24992
823	30.618006	127913984	93466624	49587768	24992
824	33.122839	127913984	93466624	39078448	24992
825	35.317133	127913984	93466624	47446816	24992
826	34.547927	127913984	93466624	53301152	24992
827	37.230964	127913984	93466624	45105392	24992
828	37.371812	127913984	93466624	52771712	24992
829	39.421981	127913984	93466624	46365336	24992
830	43.803926	127913984	93466624	46586776	24992
831	42.621978	127913984	93466624	59616480	24992
832	43.273163	127913984	93466624	55944976	24992
833	47.832881	127913984	93466624	58677264	24992
834	49.340963	127913984	93466624	61970608	24992
835	50.547806	128995328	94515200	66110304	24992
836	57.891252	133320704	98709504	71092328	24992
837	68.743809	127033344	92418048	25422976	24992
838	54.701225	127033344	92418048	32275672	24992
839	56.615938	127033344	92418048	39819072	24992
840	60.322712	127033344	92418048	36032240	24992
841	58.503334	127033344	92418048	45327048	24992
842	59.837958	127033344	92418048	55398608	24992
843	64.959538	127033344	92418048	54271320	24992
844	87.978515	120971264	88223744	23905792	24992
845	65.820231	122859520	88223744	36198880	24992
846	68.009936	122859520	88223744	37484312	24992
847	67.410941	122859520	88223744	51779312	24992
848	70.277358	122859520	88223744	54739248	24992
849	72.837869	122859520	88223744	58593024	24992
850	74.483077	125022208	90845184	63322888	24992
851	98.250495	128352256	96088064	35582832	24992
852	76.573276	130240512	96088064	41279568	24992
853	77.705889	130240512	96088064	48572216	24992
854	81.029872	130240512	96088064	44554544	24992
855	79.717446	130240512	96088064	53412528	24992
856	80.961328	130240512	96088064	63293152	24992
857	103.681909	124874752	92418048	25632064	24992
858	84.014459	126763008	92418048	36113144	24992
859	88.536781	126763008	92418048	36427864	24992
860	87.254818	126763008	92418048	49619344	24992
861	90.705505	126763008	92418048	51705848	24992
862	112.586003	122109952	89796608	23112176	24992
863	91.91001	124272640	89796608	38476992	24992
864	95.339652	124272640	89796608	43069016	24992
865	97.25853	124272640	89796608	48550632	24992
866	97.756979	124272640	89796608	55016248	24992
867	125.673535	124317696	89796608	32289728	24992
868	100.772714	124317696	89796608	40445376	24992
869	101.492654	124317696	89796608	49342744	24992
870	103.737929	124317696	89796608	59169712	24992
871	106.874002	130265088	96088064	69997200	24992
872	132.429948	130154496	95563776	33806808	24992
873	107.158674	130154496	95563776	46252432	24992
874	108.903878	130154496	95563776	59623656	24992
875	111.879986	130154496	95563776	61589976	24992
876	121.45514	133668864	99233792	76777960	24992
877	133.512737	128114688	93466624	42952664	24992
878	117.344295	128114688	93466624	47477848	24992
879	118.037598	128114688	93466624	53116592	24992
880	118.102128	128114688	93466624	71796552	24992
881	148.097188	127733760	92942336	33647872	24992
882	120.414634	127733760	92942336	54114992	24992
883	124.843867	127733760	92942336	63131624	24992
884	126.055861	130166784	95563776	73233376	24992
885	150.064952	129028096	94515200	30951288	24992
886	127.506753	129028096	94515200	42652616	24992
887	130.154486	129028096	94515200	55364312	24992
888	156.485563	120467456	87699456	26779048	24992
889	132.933941	122355712	87699456	41013752	24992
890	134.028429	122355712	87699456	56371016	24992
891	138.734195	125059072	90320896	60429816	24992
892	166.612352	131276800	96612352	35154856	24992
893	136.700475	131276800	96612352	53264640	24992
894	141.603233	131276800	96612352	59963072	24992
895	151.018664	137494528	102903808	79821736	24992
896	163.128544	130744320	96088064	37578672	24992
897	142.666132	130744320	96088064	59316376	24992
898	147.173405	130744320	96088064	69617800	24992
899	173.327356	129155072	94515200	29658336	24992
900	151.661012	129155072	94515200	41763088	24992
901	151.572307	129155072	94515200	54899272	24992
902	2.853943	121819136	87175168	36992624	24992
903	6.827736	121819136	87175168	27317168	24992
904	5.877399	121819136	87175168	30963976	24992
905	7.277249	121819136	87175168	35557464	24992
906	10.433397	121819136	87175168	26977272	24992
907	10.237689	121819136	87175168	33363952	24992
908	11.439877	121819136	87175168	40672720	24992
909	13.006	121819136	87175168	32610768	24992
910	15.202749	121819136	87175168	26671056	24992
911	15.809243	121819136	87175168	36761136	24992
912	17.741538	121819136	87175168	32001112	24992
913	19.575761	121819136	87175168	28959864	24992
914	21.333532	121819136	87175168	27280248	24992
915	21.757784	121819136	87175168	41065288	24992
916	23.570086	121819136	87175168	39409528	24992
917	24.547029	121819136	87175168	38916744	24992
918	26.38003	121819136	87175168	39372712	24992
919	27.678201	121819136	87175168	40764992	24992
920	30.960863	121819136	87175168	29041712	24992
921	31.858368	121819136	87175168	33788448	24992
922	32.894452	121819136	87175168	38809000	24992
923	35.753328	121819136	87175168	30322832	24992
924	38.051407	121819136	87175168	40398672	24992
925	38.569375	121819136	87175168	34466288	24992
926	40.600696	121819136	87175168	46244632	24992
927	41.52531	121819136	87175168	41676184	24992
928	45.221469	121819136	87175168	43143312	24992
929	47.475637	121819136	87175168	45452016	24992
930	48.590919	121819136	87175168	48672528	24992
931	49.806117	121819136	87175168	52833224	24992
932	52.147063	123981824	89272320	57903616	24992
933	71.176912	128307200	93990912	63886168	24992
934	60.802935	126132224	91893760	36565040	24992
935	60.291864	126132224	91893760	32424600	24992
936	57.391106	126132224	91893760	41229472	24992
937	58.741345	126132224	91893760	51059608	24992
938	62.802724	126132224	91893760	49612496	24992
939	61.297563	126132224	91893760	61283432	24992
940	65.909594	126943232	92418048	61800448	24992
941	82.743786	129646592	95039488	63220880	24992
942	75.065854	125874176	91369472	29272512	24992
943	70.417633	125874176	91369472	32560728	24992
944	71.729292	125874176	91369472	36715704	24992
945	73.313866	125874176	91369472	41830168	24992
946	74.523811	125874176	91369472	47990976	24992
947	86.623564	129658880	95039488	54956752	24992
948	91.564226	121249792	86650880	30940584	24992
949	80.193871	121249792	86650880	39850640	24992
950	80.387757	121249792	86650880	49781736	24992
951	85.237076	121249792	86650880	48449264	24992
952	84.661311	121249792	86650880	60233128	24992
953	111.908265	121356288	87175168	30083872	24992
954	87.400568	121356288	87175168	43824504	24992
955	91.094627	121356288	87175168	46219944	24992
956	91.595712	121356288	87175168	49741576	24992
957	91.531204	124059648	89272320	66271528	24992
958	121.808964	123162624	90845184	22795072	24992
959	97.737815	125591552	90845184	40327504	24992
960	98.574052	125591552	90845184	47547168	24992
961	99.234483	125591552	90845184	55906656	24992
962	100.664082	125591552	90845184	65139976	24992
963	126.108124	121266176	86650880	28793544	24992
964	104.676521	121266176	86650880	40103640	24992
965	108.013977	121266176	86650880	40115736	24992
966	106.932135	121266176	86650880	53154328	24992
967	133.331606	120221696	85602304	23057064	24992
968	111.119805	120221696	85602304	38065856	24992
969	115.179938	120221696	85602304	41881304	24992
970	112.756103	120221696	85602304	58721624	24992
971	139.89819	122556416	88223744	31168392	24992
972	119.592034	122826752	88223744	37842680	24992
973	120.444801	122826752	88223744	45505040	24992
974	123.873911	124989440	90845184	54153376	24992
975	147.782924	119791616	85602304	34510808	24992
976	127.735605	119791616	85602304	45091648	24992
977	128.464715	122224640	87699456	56772272	24992
978	134.865358	133038080	98709504	69385048	24992
979	153.742815	130265088	95563776	35613328	24992
980	130.545488	130265088	95563776	50016248	24992
981	132.546138	130265088	95563776	65603832	24992
982	156.757723	136212480	101855232	69849880	24992
983	148.715205	129695744	95039488	37712160	24992
984	137.052648	129695744	95039488	56250944	24992
985	143.759814	129695744	95039488	63452632	24992
986	164.856213	126607360	92418048	33861648	24992
987	146.120888	126607360	92418048	43060520	24992
988	145.744609	126607360	92418048	53300280	24992
989	168.477479	120254464	85602304	31874496	24992
990	149.659743	120254464	85602304	43934448	24992
991	150.016861	120254464	85602304	57222448	24992
992	177.737329	121208832	86650880	26132824	24992
993	158.106674	121208832	86650880	41398112	24992
994	155.632378	121208832	86650880	57624584	24992
995	192.373428	122245120	87699456	46996944	24992
996	161.944194	122245120	87699456	52923656	24992
997	162.552794	133058560	98709504	72161184	24992
998	195.959947	127619072	95039488	38130512	24992
999	165.504886	129507328	95039488	45774408	24992
1000	169.130236	129507328	95039488	55723664	24992
x	Duration	RSS	HeapTotal	HeapUsed	External
0	NA	132390912	98185216	56645960	24992
1	0.438342	132390912	98185216	56694552	24992
2	0.463594	132390912	98185216	56770872	24992
3	0.486732	132390912	98185216	56874240	24992
4	0.570087	132390912	98185216	57006040	24992
5	0.669543	132390912	98185216	57167832	24992
6	0.777306	132390912	98185216	57360072	24992
7	1.084966	132390912	98185216	57583736	24992
8	0.580233	132390912	98185216	57839792	24992
9	0.445531	132390912	98185216	58130192	24992
10	0.493871	132390912	98185216	58455616	24992
11	0.543718	132390912	98185216	58816864	24992
12	0.607591	132390912	98185216	59215000	24992
13	0.649345	132390912	98185216	59650976	24992
14	4.480957	132390912	98185216	48019448	24992
15	0.799374	132390912	98185216	48534056	24992
16	0.818348	132390912	98185216	49089496	24992
17	0.886912	132390912	98185216	49688512	24992
18	0.97646	132390912	98185216	50330320	24992
19	1.241141	132390912	98185216	51017896	24992
20	1.075266	132390912	98185216	51749128	24992
21	1.151278	132390912	98185216	52526360	24992
22	1.440436	132390912	98185216	53350752	24992
23	1.272436	132390912	98185216	54223072	24992
24	2.047122	132390912	98185216	55145304	24992
25	1.508718	132390912	98185216	56126672	24992
26	1.48853	132390912	98185216	57152000	24992
27	1.744721	132390912	98185216	58230176	24992
28	1.636717	132390912	98185216	59362288	24992
29	1.754989	132390912	98185216	60549328	24992
30	1.794396	132390912	98185216	61792280	24992
31	5.117137	132390912	98185216	48881344	24992
32	2.007847	132390912	98185216	50241952	24992
33	2.068454	132390912	98185216	51665272	24992
34	2.227429	132390912	98185216	53148800	24992
35	2.251766	132390912	98185216	54693040	24992
36	2.323291	132390912	98185216	56299152	24992
37	2.66435	132390912	98185216	57968128	24992
38	2.558224	132390912	98185216	59700848	24992
39	2.614829	132390912	98185216	61498136	24992
40	2.720849	132390912	98185216	63361248	24992
41	4.772455	132661248	98185216	49645552	24992
42	2.978259	132661248	98185216	51644144	24992
43	3.013567	132661248	98185216	53710112	24992
44	3.275376	132661248	98185216	55845712	24992
45	3.232195	132661248	98185216	58053072	24992
46	3.356653	132661248	98185216	60331912	24992
47	3.435888	132661248	98185216	62685024	24992
48	3.722829	132661248	98185216	65111232	24992
49	5.52749	132661248	98185216	51890232	24992
50	3.83446	132661248	98185216	54470976	24992
51	3.883699	132661248	98185216	57130864	24992
52	4.159407	132661248	98185216	59871464	24992
53	4.340375	132661248	98185216	62692296	24992
54	4.537675	132661248	98185216	65597192	24992
55	6.081779	132661248	98185216	52812744	24992
56	4.684357	132661248	98185216	55882928	24992
57	4.643789	132661248	98185216	59038160	24992
58	5.772963	132661248	98185216	62288112	24992
59	4.874787	132661248	98185216	65617912	24992
60	6.828359	132661248	98185216	53259376	24992
61	6.340164	132661248	98185216	56774040	24992
62	5.81163	132661248	98185216	60369168	24992
63	5.462818	132661248	98185216	64055208	24992
64	7.565609	132661248	98185216	52274928	24992
65	5.786174	132661248	98185216	56153856	24992
66	5.857439	132661248	98185216	60126360	24992
67	6.050203	132661248	98185216	64193792	24992
68	8.095862	132661248	98185216	52787616	24992
69	6.311874	132661248	98185216	57047920	24992
70	6.623405	132661248	98185216	61405648	24992
71	6.638898	132661248	98185216	65862008	24992
72	9.226571	132661248	98185216	54650848	24992
73	7.307728	132661248	98185216	59307272	24992
74	7.734682	132661248	98185216	64065440	24992
75	9.323861	132661248	98185216	53470512	24992
76	7.594267	132661248	98185216	58434840	24992
77	7.685491	132661248	98185216	63503528	24992
78	7.708111	132661248	98185216	68678120	24992
79	9.610301	132661248	98185216	57959760	24992
80	8.039109	132661248	98185216	63348400	24992
81	8.93525	132661248	98185216	68854776	24992
82	10.388788	132661248	98185216	58505936	24992
83	8.687919	132661248	98185216	64224624	24992
84	11.036789	132661248	98185216	54771000	24992
85	10.674878	132661248	98185216	60726176	24992
86	9.276656	132661248	98185216	66783968	24992
87	11.628061	132661248	98185216	57371520	24992
88	10.134088	132661248	98185216	63661224	24992
89	10.174479	132661248	98185216	70068472	24992
90	11.768155	132661248	98185216	60687232	24992
91	10.096797	132661248	98185216	67331992	24992
92	12.291575	132661248	98185216	58500832	24992
93	10.37469	132661248	98185216	65387488	24992
94	12.970084	132661248	98185216	57145920	24992
95	11.013341	132661248	98185216	64277632	24992
96	10.870044	132661248	98185216	71534280	24992
97	13.580111	132661248	98185216	62906024	24992
98	11.517429	132661248	98185216	70417048	24992
99	13.729206	132661248	98185216	62181448	24992
100	12.137881	132661248	98185216	69944712	24992
101	14.679809	132661248	98185216	62084600	24992
102	0.441549	132661248	98185216	69928672	24992
103	0.626226	132661248	98185216	70332352	24992
104	0.821437	132661248	98185216	70872112	24992
105	1.019067	132661248	98185216	71548984	24992
106	1.205884	132661248	98185216	72364976	24992
107	3.321793	132661248	98185216	57315784	24992
108	1.64893	132661248	98185216	58410272	24992
109	2.048886	132661248	98185216	59645768	24992
110	2.021669	132661248	98185216	61024152	24992
111	2.239884	132661248	98185216	62545648	24992
112	2.440594	132661248	98185216	64210920	24992
113	2.643119	132661248	98185216	66021184	24992
114	3.219238	132661248	98185216	67977240	24992
115	3.084067	132661248	98185216	70081720	24992
116	3.290763	132661248	98185216	72336432	24992
117	5.585427	132661248	98185216	58673360	24992
118	3.747003	132661248	98185216	61224536	24992
119	4.010509	132661248	98185216	63926512	24992
120	4.217072	132661248	98185216	66780584	24992
121	4.432157	132661248	98185216	69787912	24992
122	4.650327	132661248	98185216	72950152	24992
123	6.844749	132661248	98185216	60125056	24992
124	5.101411	132661248	98185216	63595632	24992
125	5.339143	132661248	98185216	67224504	24992
126	5.538216	132661248	98185216	71009424	24992
127	8.027569	132661248	98185216	59141640	24992
128	6.46618	132661248	98185216	63248560	24992
129	6.362956	132661248	98185216	67514840	24992
130	6.927041	132661248	98185216	71942648	24992
131	8.702358	132661248	98185216	60555816	24992
132	6.992387	132661248	98185216	65308144	24992
133	7.506519	132661248	98185216	70230728	24992
134	9.863308	132661248	98185216	59678696	24992
135	7.983735	132661248	98185216	64936968	24992
136	7.960633	132661248	98185216	70358584	24992
137	10.784416	132661248	98185216	60296384	24992
138	8.5493	132661248	98185216	66055952	24992
139	8.971352	132661248	98185216	71985592	24992
140	11.068554	132661248	98185216	62193096	24992
141	9.487006	132661248	98185216	68467936	24992
142	12.379671	132661248	98185216	59655464	24992
143	10.091307	132661248	98185216	66288232	24992
144	10.223832	132661248	98185216	73090104	24992
145	12.385559	132661248	98185216	64035360	24992
146	11.28491	132661248	98185216	71198032	24992
147	13.310101	132661248	98185216	62884456	24992
148	11.411852	132661248	98185216	70407568	24992
149	13.922642	132661248	98185216	62568024	24992
150	11.880994	132661248	98185216	70451792	24992
151	14.504283	132661248	98185216	63005512	24992
152	12.683062	132661248	98185216	71258528	24992
153	14.860522	132661248	98185216	64089544	24992
154	13.35261	132661248	98185216	72719704	24992
155	15.970809	132661248	98185216	65708624	24992
156	14.321505	132661248	98185216	74711952	24992
157	16.007756	132661248	98185216	67779408	24992
158	17.100329	132661248	98185216	62184152	24992
159	14.581258	132661248	98185216	71762968	24992
160	17.401159	132661248	98185216	65913536	24992
161	14.962318	132661248	98185216	75875488	24992
162	17.360777	132661248	98185216	69832304	24992
163	18.550494	132661248	98185216	64959432	24992
164	16.095336	132661248	98185216	75506664	24992
165	18.376579	132661248	98185216	70105912	24992
166	19.27753	132661248	98185216	65868816	24992
167	16.958759	132661248	98185216	77018776	24992
168	19.567188	132661248	98185216	72080152	24992
169	20.535427	132661248	98185216	68140240	24992
170	21.722386	132661248	98185216	65099312	24992
171	18.486865	132661248	98185216	77068840	24992
172	20.552963	132661248	98709504	72992960	24992
173	21.776478	132931584	98709504	69810656	24992
174	22.869572	132931584	98709504	67348944	24992
175	23.78433	132931584	98709504	65535872	24992
176	20.094756	132931584	98709504	78528976	24992
177	22.147221	133201920	99233792	75438096	24992
178	23.208054	133201920	99233792	72998328	24992
179	24.335309	133472256	99233792	71203896	24992
180	25.206256	133472256	99233792	69890488	24992
181	24.355358	133742592	99758080	69036072	24992
182	25.284256	133742592	99758080	68595584	24992
183	26.264295	134012928	99758080	68460136	24992
184	26.322036	134012928	99758080	68592992	24992
185	26.794271	134283264	100282368	68941376	24992
186	26.871427	134283264	100282368	69471936	24992
187	27.229564	134553600	100282368	70166224	24992
188	27.421034	134553600	100282368	70987304	24992
189	27.843017	134823936	100806656	71892968	24992
190	27.87614	135094272	100806656	72909608	24992
191	28.35818	135094272	101330944	74002368	24992
192	29.206998	135364608	101330944	75151528	24992
193	28.701491	135634944	101330944	76339624	24992
194	29.012461	135634944	101330944	77592544	24992
195	29.557474	135905280	101855232	78888680	24992
196	29.411013	136175616	102379520	80211216	24992
197	29.819068	136175616	102379520	81560288	24992
198	34.472113	136445952	102379520	69382664	24992
199	32.177763	136716288	102379520	73134368	24992
200	31.812087	136716288	102903808	76504560	24992
201	31.842735	136986624	102903808	79537480	24992
202	0.809364	137256960	102903808	82279848	24992
203	3.722427	137256960	102903808	66738448	24992
204	1.51173	137256960	102903808	67675496	24992
205	1.834068	137256960	102903808	68849056	24992
206	2.357229	137256960	102903808	70260488	24992
207	2.645201	137256960	102903808	71922624	24992
208	2.91228	137256960	102903808	73828312	24992
209	3.31119	137256960	102903808	75982696	24992
210	3.643669	137256960	102903808	78387568	24992
211	4.242861	137256960	102903808	81045904	24992
212	7.256857	137256960	102903808	67910288	24992
213	4.798641	137256960	102903808	71080664	24992
214	5.167988	137256960	102903808	74499184	24992
215	5.748992	137256960	102903808	78166416	24992
216	5.947151	137256960	102903808	82088968	24992
217	9.48912	137527296	103428096	70121656	24992
218	6.756743	137527296	103428096	74560640	24992
219	7.342369	137527296	103428096	79257856	24992
220	10.862598	137527296	103952384	68548672	24992
221	8.197222	137527296	103952384	73765888	24992
222	8.445458	137527296	103952384	79244112	24992
223	11.882643	137797632	103952384	69321752	24992
224	9.471962	137797632	103952384	75325608	24992
225	9.789762	137797632	103952384	81607328	24992
226	12.977623	137797632	103952384	72092416	24992
227	10.516475	137797632	103952384	78894536	24992
228	14.185529	138067968	103952384	70389128	24992
229	11.424195	138067968	103952384	77729944	24992
230	15.726769	138067968	103952384	69985064	24992
231	12.411434	138067968	103952384	77871792	24992
232	15.936396	138338304	103952384	70683160	24992
233	13.162598	138338304	103952384	79116592	24992
234	16.976014	138338304	104476672	72258400	24992
235	14.049542	138338304	104476672	81262280	24992
236	17.451579	138338304	104476672	74603392	24992
237	14.888511	138608640	104476672	84152400	24992
238	18.335704	138608640	104476672	77651272	24992
239	18.955244	138608640	104476672	72484712	24992
240	16.201378	138608640	104476672	82880144	24992
241	20.080491	138878976	104476672	77422352	24992
242	21.225298	138878976	104476672	73197040	24992
243	17.414439	138878976	104476672	84441688	24992
244	21.032396	139149312	105000960	79608984	24992
245	22.212925	139149312	105525248	75900584	24992
246	23.138853	139419648	105525248	73116136	24992
247	23.882065	139419648	105525248	71101168	24992
248	19.799405	139419648	105525248	83781000	24992
249	23.406898	139419648	105525248	80566480	24992
250	24.446144	139689984	105525248	78208952	24992
251	25.140683	139689984	105525248	76515712	24992
252	25.239273	139960320	106049536	75413008	24992
253	26.144277	139960320	106049536	74847232	24992
254	26.903957	139960320	106049536	74668152	24992
255	27.440298	140230656	106049536	74841672	24992
256	27.599841	140230656	106049536	75319336	24992
257	28.273934	140230656	106049536	76022248	24992
258	28.551975	140500992	106049536	76919480	24992
259	30.536593	140500992	106573824	77997608	24992
260	30.513044	140771328	106573824	79168584	24992
261	39.430828	140771328	106573824	80477608	24992
262	36.306733	126857216	93466624	29076408	24992
263	27.814064	127664128	93466624	29823568	24992
264	31.122349	127664128	93466624	17134856	24992
265	30.530888	127664128	93466624	20626320	24992
266	30.317586	127664128	93466624	23800496	24992
267	30.707342	127664128	93466624	26752528	24992
268	30.584178	127664128	93466624	29505256	24992
269	33.50394	127664128	93466624	18511560	24992
270	32.498206	127664128	93466624	23325224	24992
271	32.84775	127664128	93466624	27617264	24992
272	35.684261	127664128	93466624	18239928	24992
273	36.517553	127664128	93466624	26971736	24992
274	34.225201	127664128	93466624	32276232	24992
275	36.223181	127664128	93466624	23394224	24992
276	37.648009	127664128	93466624	33092408	24992
277	38.671376	127664128	93466624	26005616	24992
278	39.371305	127664128	93466624	36314632	24992
279	39.818941	127664128	93466624	29865320	24992
280	39.750374	127664128	93466624	40771840	24992
281	40.192616	127664128	93466624	34688832	24992
282	40.420355	127664128	93466624	46270504	24992
283	40.740825	127664128	93466624	40467344	24992
284	47.259697	127664128	93466624	40889840	24992
285	43.873318	127664128	93466624	53203312	24992
286	50.140293	127664128	93466624	48413272	24992
287	62.650528	112959488	80883712	33704488	24992
288	47.960049	115122176	80883712	33678448	24992
289	44.322622	115122176	80883712	29936656	24992
290	49.659018	115122176	80883712	32467096	24992
291	50.183438	115122176	80883712	35098328	24992
292	50.838826	115122176	80883712	38081776	24992
293	45.587645	115122176	80883712	53082416	24992
294	46.649475	115122176	80883712	50494304	24992
295	47.975701	115122176	80883712	49066008	24992
296	53.000246	115392512	80883712	53570784	24992
297	55.310348	119177216	85078016	58232096	24992
298	75.851043	124043264	89796608	63208632	24992
299	56.781222	122544128	88223744	35942464	24992
300	49.059269	122544128	88223744	35200728	24992
301	50.293075	122544128	88223744	35113552	24992
302	1.071944	122544128	88223744	41805576	24992
303	6.399971	122544128	88223744	31068728	24992
304	2.184585	122544128	88223744	32440456	24992
305	2.682995	122544128	88223744	34157240	24992
306	3.273257	122544128	88223744	36220592	24992
307	3.794782	122544128	88223744	38631088	24992
308	4.291255	122544128	88223744	41395568	24992
309	4.798601	122544128	88223744	44504208	24992
310	7.526437	122544128	88223744	33739520	24992
311	6.227033	122544128	88223744	37559928	24992
312	6.490044	122544128	88223744	41721472	24992
313	7.090897	122544128	88223744	46235608	24992
314	8.301928	122544128	88223744	34918240	24992
315	8.191265	122544128	88223744	40147184	24992
316	8.727321	122544128	88223744	45734248	24992
317	10.243027	122544128	88223744	35549904	24992
318	10.200113	122544128	88223744	41858864	24992
319	11.943519	122544128	88223744	33075192	24992
320	11.225135	122544128	88223744	40089408	24992
321	11.910462	122544128	88223744	47473024	24992
322	12.710242	122544128	88223744	38820048	24992
323	12.737203	122544128	88223744	46921096	24992
324	14.304401	122544128	88223744	39083888	24992
325	15.519471	122544128	88223744	33004672	24992
326	14.654628	122544128	88223744	42200304	24992
327	16.601256	122544128	88223744	36302592	24992
328	15.97094	122544128	88223744	46259200	24992
329	17.252062	122544128	88223744	40406256	24992
330	18.833982	122544128	88223744	35936600	24992
331	17.503883	122544128	88223744	46986480	24992
332	18.745787	122544128	88223744	42131360	24992
333	20.040347	122544128	88223744	38495400	24992
334	21.866097	122544128	88223744	35884592	24992
335	22.066226	122544128	88223744	34149632	24992
336	20.108395	122544128	88223744	47064064	24992
337	21.876402	122544128	88223744	44101672	24992
338	23.056135	122544128	88223744	42053928	24992
339	24.044563	122544128	88223744	40761144	24992
340	24.808942	122544128	88223744	40062856	24992
341	25.647636	122544128	88223744	39891288	24992
342	26.239835	122544128	88223744	40120912	24992
343	26.834939	122544128	88223744	40719568	24992
344	28.043839	122544128	88223744	41593808	24992
345	27.75483	122544128	88223744	42726192	24992
346	28.850847	122544128	88223744	44072904	24992
347	28.974681	122544128	88223744	45554792	24992
348	29.875105	122544128	88223744	47201168	24992
349	29.271175	122544128	88223744	48957264	24992
350	34.21164	122544128	88223744	37279184	24992
351	32.74842	122544128	88223744	41582592	24992
352	32.482085	122544128	88223744	45525776	24992
353	32.66564	122544128	88223744	49185664	24992
354	35.966559	122544128	88223744	39128064	24992
355	35.110366	122544128	88223744	44715216	24992
356	35.31087	122544128	88223744	49753560	24992
357	37.756895	122544128	88223744	40813144	24992
358	37.085443	122544128	88223744	47399504	24992
359	39.8151	122544128	88223744	40023368	24992
360	41.158702	122544128	88223744	50922416	24992
361	42.116892	122544128	88223744	44766136	24992
362	41.926148	122544128	88223744	56432448	24992
363	43.007488	122544128	88223744	50711024	24992
364	44.87159	122544128	88223744	46775896	24992
365	43.669771	122544128	88223744	59544480	24992
366	44.620721	122544128	88223744	55131224	24992
367	51.345208	122814464	88223744	57142848	24992
368	58.202703	126599168	92418048	59328320	24992
369	69.449117	122077184	89796608	29576032	24992
370	49.925931	123965440	89796608	31173184	24992
371	52.193256	123965440	89796608	34557120	24992
372	53.049432	123965440	89796608	38305144	24992
373	52.76314	123965440	89796608	42551864	24992
374	54.667505	123965440	89796608	47162016	24992
375	54.468461	123965440	89796608	52191840	24992
376	56.037741	124235776	89796608	57666976	24992
377	77.322188	126668800	92418048	63559264	24992
378	58.583363	124743680	90320896	36861792	24992
379	62.386864	124743680	90320896	32099816	24992
380	58.312064	124743680	90320896	39216512	24992
381	59.097378	124743680	90320896	46755808	24992
382	59.694512	124743680	90320896	54724856	24992
383	59.404128	124743680	90320896	63072664	24992
384	65.852274	125284352	91369472	60360688	24992
385	89.366569	126144512	94515200	25481496	24992
386	62.977258	128843776	94515200	34014624	24992
387	62.438797	129114112	94515200	44080752	24992
388	67.248298	129114112	94515200	43067512	24992
389	63.249373	129114112	94515200	53942912	24992
390	68.756002	129114112	94515200	53798568	24992
391	64.661888	129114112	94515200	65600584	24992
392	93.448256	125837312	91893760	18697224	24992
393	68.475512	129126400	95563776	30062128	24992
394	73.137026	136425472	103428096	31707888	24992
395	69.921435	141291520	108670976	45410048	24992
396	74.57818	148590592	116535296	48019648	24992
397	74.951002	155889664	124399616	51055176	24992
398	73.266637	160755712	129642496	66053424	24992
399	96.891296	102068224	67776512	35989384	24992
400	75.923488	102338560	67776512	40264864	24992
401	76.709118	105312256	70922240	44830784	24992
402	1.603516	112611328	78262272	50157144	24992
403	2.070801	112611328	78262272	51490656	24992
404	2.822588	112611328	78262272	53279064	24992
405	3.438985	112611328	78262272	55505648	24992
406	4.30887	112611328	78262272	58181136	24992
407	8.232507	115044352	80883712	48101480	24992
408	5.964256	115044352	80883712	51685352	24992
409	6.220164	115044352	80883712	55733432	24992
410	7.136744	115044352	80883712	60215104	24992
411	8.87226	115855360	81932288	49589776	24992
412	8.262387	115855360	81932288	54983000	24992
413	9.196013	115855360	81932288	60823576	24992
414	10.395794	115855360	81932288	50840080	24992
415	10.406922	115855360	81932288	57592248	24992
416	12.340055	115855360	81932288	49100160	24992
417	11.86153	115855360	81932288	56788128	24992
418	13.647555	116125696	81932288	49411472	24992
419	13.521491	116125696	81932288	58060920	24992
420	15.229162	116125696	82456576	51403968	24992
421	14.872617	116125696	82456576	61008032	24992
422	16.229741	116125696	82456576	54785816	24992
423	17.2629	116125696	82456576	50163328	24992
424	17.36349	116125696	82456576	61206120	24992
425	18.154488	116125696	82456576	56425168	24992
426	20.071211	116125696	82456576	52993424	24992
427	21.018051	116125696	82456576	50626152	24992
428	21.709523	116125696	82456576	49147968	24992
429	22.498845	116125696	82456576	48451152	24992
430	24.199959	116396032	82456576	48336232	24992
431	24.791395	116396032	82456576	48750632	24992
432	25.155495	116396032	82456576	49581992	24992
433	26.982883	116396032	82456576	50803080	24992
434	26.699433	116396032	82456576	52247248	24992
435	27.106418	116396032	82456576	53942760	24992
436	27.508461	116396032	82456576	55819992	24992
437	28.097713	116396032	82456576	57879552	24992
438	28.317839	116396032	82456576	60112784	24992
439	29.976731	116666368	82456576	62449464	24992
440	32.123976	116666368	82456576	51305808	24992
441	31.702468	116666368	82456576	56184840	24992
442	32.389589	116666368	82456576	60748840	24992
443	34.608088	116936704	82456576	51611128	24992
444	38.28184	119910400	85602304	61144984	24992
445	37.693431	120991744	87175168	54187128	24992
446	46.204151	123695104	89796608	64641352	24992
447	54.964828	104120320	70397952	27576312	24992
448	44.231509	104386560	70397952	26446384	24992
449	40.654751	104386560	70397952	38149216	24992
450	40.600457	104656896	70397952	32919280	24992
451	46.536105	104656896	70397952	34212200	24992
452	42.56631	104656896	70397952	47491648	24992
453	42.695384	105197568	70922240	43369392	24992
454	44.869458	105467904	70922240	40771224	24992
455	50.33996	107900928	73543680	44020984	24992
456	50.954598	112766976	78786560	47620016	24992
457	53.134806	117633024	83505152	51679216	24992
458	68.295158	122228736	88223744	56307944	24992
459	64.791163	114995200	80883712	31471424	24992
460	53.318298	114995200	80883712	37154472	24992
461	53.123567	114995200	80883712	43303112	24992
462	54.774101	114995200	80883712	50063064	24992
463	55.542355	115265536	80883712	57178952	24992
464	61.423333	119050240	84553728	53327984	24992
465	57.932159	123645952	89272320	61501616	24992
466	65.280308	128512000	94515200	70226336	24992
467	77.007943	117264384	82980864	30813824	24992
468	64.584951	117264384	82980864	29175128	24992
469	60.567669	117264384	82980864	39465728	24992
470	61.914435	117264384	82980864	50258088	24992
471	66.013388	117264384	82980864	49998840	24992
472	64.463176	118075392	84029440	61991640	24992
473	88.47105	125374464	91369472	62728800	24992
474	71.491994	118468608	84553728	30122376	24992
475	70.366692	118468608	84553728	32077888	24992
476	67.793043	118468608	84553728	46190640	24992
477	71.883473	118738944	84553728	49121904	24992
478	73.517965	120090624	85602304	52473912	24992
479	83.355321	124416000	90320896	56445480	24992
480	86.489664	121151488	86650880	27948968	24992
481	75.157913	121151488	86650880	32936184	24992
482	71.673036	121151488	86650880	50132368	24992
483	76.669385	121151488	86650880	56262232	24992
484	77.047111	121151488	86650880	62919552	24992
485	104.539352	119144448	86650880	24978520	24992
486	79.897127	121032704	86650880	31742144	24992
487	78.727519	121032704	86650880	40260128	24992
488	80.301966	121032704	86650880	49266784	24992
489	81.962302	121032704	86650880	58806280	24992
490	107.551014	118427648	86126592	24937008	24992
491	82.920157	120315904	86126592	34741184	24992
492	83.278456	120315904	86126592	45808288	24992
493	89.972956	120315904	86126592	45719752	24992
494	86.548142	120856576	86650880	57775160	24992
495	120.427178	123322368	88748032	29479272	24992
496	88.2548	123322368	88748032	42689528	24992
497	92.383749	123322368	88748032	44798096	24992
498	88.603081	123322368	88748032	59170472	24992
499	95.050676	129269760	95039488	62365360	24992
500	123.74959	130084864	95563776	31554320	24992
501	92.253447	130084864	95563776	47635720	24992
502	1.939591	130084864	95563776	52999808	24992
503	2.56849	130084864	95563776	54675120	24992
504	3.435859	130084864	95563776	56910568	24992
505	7.399448	130084864	95563776	47211976	24992
506	5.162657	130084864	95563776	50587384	24992
507	6.272387	130084864	95563776	54509208	24992
508	6.936614	130084864	95563776	58995144	24992
509	9.234451	130084864	95563776	49092152	24992
510	8.494826	130084864	95563776	54719232	24992
511	9.621488	130084864	95563776	60915784	24992
512	10.994241	130084864	95563776	51577720	24992
513	11.135377	130084864	95563776	58907048	24992
514	12.603084	130084864	95563776	51012904	24992
515	13.149984	130084864	95563776	59481616	24992
516	14.851143	130084864	95563776	52628720	24992
517	14.820515	130084864	95563776	62246040	24992
518	16.102478	130084864	95563776	56079104	24992
519	17.938192	130084864	95563776	51570776	24992
520	17.697902	130084864	95563776	62914232	24992
521	18.903536	130084864	95563776	58352248	24992
522	20.042002	130084864	95563776	55158616	24992
523	21.904282	130084864	95563776	53106200	24992
524	22.984739	130084864	95563776	52050560	24992
525	23.824692	130084864	95563776	51764360	24992
526	24.634844	130084864	95563776	52064192	24992
527	25.480543	130084864	95563776	52958064	24992
528	26.659794	130084864	95563776	54232496	24992
529	27.470665	130084864	95563776	55916528	24992
530	28.142598	130084864	95563776	57861384	24992
531	29.052371	130084864	95563776	60029840	24992
532	29.476725	130084864	95563776	62418616	24992
533	32.245702	130084864	95563776	51511208	24992
534	32.714847	130084864	95563776	56623536	24992
535	33.019499	130084864	95563776	61441728	24992
536	36.071312	130084864	95563776	52657568	24992
537	37.766623	130084864	95563776	62588856	24992
538	38.780396	130084864	95563776	56049480	24992
539	39.93745	130084864	95563776	67126144	24992
540	41.119969	130084864	95563776	61473016	24992
541	42.933328	130084864	95563776	73836192	24992
542	42.095329	130084864	95563776	68790184	24992
543	43.096094	130084864	96088064	65580168	24992
544	55.019854	135221248	101330944	68001784	24992
545	65.751653	122773504	90845184	31978352	24992
546	49.377547	124661760	90845184	33758496	24992
547	52.925681	124661760	90845184	37650112	24992
548	51.756294	124661760	90845184	42279240	24992
549	54.761931	124932096	90845184	47375640	24992
550	54.847037	124932096	90845184	53143320	24992
551	54.380582	124932096	90845184	59500064	24992
552	58.070252	124932096	90845184	66529400	24992
553	83.887661	122667008	90320896	29944280	24992
554	56.922755	124555264	90320896	37464424	24992
555	62.964132	124555264	90320896	34632608	24992
556	59.523489	124555264	90320896	44085392	24992
557	59.33276	124555264	90320896	54086984	24992
558	65.380821	124555264	90320896	53091672	24992
559	63.622363	124555264	90320896	64363920	24992
560	92.106995	125861888	93466624	31443864	24992
561	68.747001	127750144	93466624	31629752	24992
562	65.099815	127750144	93466624	44727232	24992
563	70.477007	127750144	93466624	46858248	24992
564	71.40737	127750144	93466624	49620152	24992
565	69.125342	127750144	93466624	64615688	24992
566	79.710079	129101824	95039488	68684832	24992
567	92.061517	130662400	96612352	37136232	24992
568	75.528606	130662400	96612352	42603096	24992
569	77.365005	130662400	96612352	48539848	24992
570	77.598217	130662400	96612352	55096216	24992
571	78.753049	130662400	96612352	62259312	24992
572	104.022399	122351616	89796608	24156280	24992
573	81.733222	124239872	89796608	31535640	24992
574	80.82988	124239872	89796608	40612016	24992
575	82.417225	124239872	89796608	50283456	24992
576	83.096464	124239872	89796608	60532560	24992
577	104.996064	126402560	91893760	60017616	24992
578	91.147396	126275584	91893760	38430528	24992
579	89.80353	126275584	91893760	39072240	24992
580	86.716343	126275584	91893760	51912152	24992
581	92.811789	126275584	91893760	53787088	24992
582	115.783113	123453440	91893760	22888896	24992
583	91.236183	126423040	91893760	36658312	24992
584	94.433893	126423040	91893760	40510240	24992
585	91.733052	126423040	91893760	56619424	24992
586	99.141727	126423040	91893760	61743952	24992
587	130.369934	122368000	88223744	36569984	24992
588	99.408426	122368000	88223744	43089096	24992
589	101.563626	122368000	88223744	50133976	24992
590	103.462645	125341696	91369472	57855464	24992
591	112.647206	132640768	98709504	77825280	24992
592	121.906216	128598016	94515200	37541200	24992
593	103.244658	128868352	94515200	47175616	24992
594	105.947357	128868352	94515200	57532664	24992
595	107.55263	128868352	94515200	68496696	24992
596	139.07217	125325312	90845184	35343144	24992
597	107.797376	125325312	90845184	47609720	24992
598	109.776454	125325312	90845184	60557536	24992
599	116.386594	130732032	96612352	62494592	24992
600	137.780793	127832064	93990912	24517568	24992
601	112.100313	128102400	93990912	39645392	24992
602	6.725702	128372736	93990912	44074288	24992
603	3.092407	128372736	93990912	46062736	24992
604	4.064223	128372736	93990912	48716944	24992
605	5.268423	128372736	93990912	52048912	24992
606	6.052706	128372736	93990912	56064240	24992
607	9.28208	128643072	93990912	46770576	24992
608	8.19276	128643072	93990912	52095304	24992
609	9.062764	128643072	93990912	58084600	24992
610	11.331187	128643072	93990912	48655336	24992
611	11.443889	128643072	93990912	56018312	24992
612	13.404508	128643072	93990912	48306600	24992
613	13.283355	128643072	93990912	56984168	24992
614	15.263962	128643072	93990912	50431232	24992
615	16.821179	128643072	93990912	45765184	24992
616	16.801911	128643072	93990912	56484360	24992
617	18.220091	128643072	93990912	52069896	24992
618	19.585273	128643072	93990912	49138408	24992
619	21.208547	128643072	93990912	47406208	24992
620	22.76431	128643072	93990912	46727824	24992
621	23.665016	128643072	93990912	46840248	24992
622	24.600754	128643072	93990912	47592200	24992
623	26.18683	128643072	93990912	48871248	24992
624	26.620555	128643072	93990912	50618760	24992
625	28.133017	128643072	93990912	52761016	24992
626	29.20853	128643072	93990912	55198680	24992
627	29.346846	128643072	93990912	57838080	24992
628	33.10031	128643072	93990912	47568664	24992
629	34.223479	128643072	93990912	55825552	24992
630	33.210994	128643072	93990912	61052272	24992
631	36.071804	128643072	93990912	52862712	24992
632	37.214012	128643072	93990912	63234952	24992
633	42.572999	128643072	93990912	57075568	24992
634	61.014053	119631872	87175168	24202360	24992
635	41.205113	121520128	87175168	35489024	24992
636	42.213385	121520128	87175168	30735160	24992
637	43.297769	121520128	87175168	27775240	24992
638	49.678859	121520128	87175168	30615024	24992
639	50.031283	121520128	87175168	33932344	24992
640	46.817341	121520128	87175168	49537760	24992
641	46.440289	121520128	87175168	47584816	24992
642	47.422173	121520128	87175168	46988960	24992
643	54.753362	121520128	87175168	53321712	24992
644	56.151914	121520128	87175168	60141176	24992
645	66.762166	121790464	87175168	56148744	24992
646	75.068152	121733120	89272320	32947000	24992
647	63.30175	123621376	89272320	29669640	24992
648	59.864251	123621376	89272320	39388152	24992
649	59.798845	123621376	89272320	49620488	24992
650	67.097737	123621376	89272320	49139824	24992
651	64.927145	123621376	89272320	60882784	24992
652	74.959247	125243392	90845184	61838648	24992
653	89.115138	126156800	91893760	29475104	24992
654	70.231097	126156800	91893760	31906424	24992
655	67.219242	126156800	91893760	46516272	24992
656	71.918523	126156800	91893760	50328576	24992
657	74.395	126156800	91893760	54858848	24992
658	80.292316	126967808	92418048	60156136	24992
659	98.862366	124710912	90320896	32463520	24992
660	76.009896	124710912	90320896	39207360	24992
661	77.99586	124710912	90320896	46462192	24992
662	79.559783	124710912	90320896	54544384	24992
663	79.371199	124710912	90320896	63434896	24992
664	108.194321	124706816	92418048	26602296	24992
665	84.21075	126595072	92418048	35688040	24992
666	83.143273	126595072	92418048	46691720	24992
667	89.301646	126595072	92418048	46764000	24992
668	85.457735	126595072	92418048	59220880	24992
669	114.109449	122880000	90320896	27803728	24992
670	94.249303	124768256	90320896	29251920	24992
671	90.52172	124768256	90320896	43898424	24992
672	95.203206	124768256	90320896	47658496	24992
673	92.316782	124768256	90320896	63736816	24992
674	127.00667	127778816	93466624	38419440	24992
675	98.690683	127778816	93466624	44507608	24992
676	99.514421	127778816	93466624	51206320	24992
677	100.215359	127778816	93466624	58637672	24992
678	120.231805	135077888	100806656	66815840	24992
679	111.476635	128245760	93990912	37843944	24992
680	104.351197	128245760	93990912	47488424	24992
681	104.581552	128245760	93990912	57781040	24992
682	106.72503	128245760	93990912	68917296	24992
683	142.55442	125853696	91893760	35949096	24992
684	108.581244	125853696	91893760	48548392	24992
685	110.238459	125853696	91893760	61941216	24992
686	116.722075	130990080	96612352	64582328	24992
687	138.652385	128344064	93990912	26731056	24992
688	114.478783	128344064	93990912	42653200	24992
689	119.55517	128344064	93990912	47428080	24992
690	119.900264	128344064	93990912	64466576	24992
691	150.933577	125833216	91369472	40909600	24992
692	123.422541	125833216	91369472	47918160	24992
693	119.104009	125833216	91369472	67224176	24992
694	128.166678	134754304	100806656	75801144	24992
695	159.368461	136179712	101855232	36085744	24992
696	123.088222	136179712	101855232	57754536	24992
697	128.495337	136179712	101855232	68508832	24992
698	142.763628	137261056	102903808	80180136	24992
699	156.615094	129007616	94515200	41904536	24992
700	132.402462	129007616	94515200	54997432	24992
701	133.594353	129007616	94515200	68820720	24992
702	2.340293	132476928	98185216	31909616	24992
703	3.555977	132476928	98185216	34194224	24992
704	4.570524	132476928	98185216	37249152	24992
705	9.061324	132476928	98185216	28598904	24992
706	7.089153	132476928	98185216	33185448	24992
707	8.078201	132476928	98185216	38520000	24992
708	10.602469	132476928	98185216	29585392	24992
709	10.588616	132476928	98185216	36454568	24992
710	12.873671	132476928	98185216	28561416	24992
711	13.04601	132476928	98185216	36995136	24992
712	15.303644	132476928	98185216	30514992	24992
713	15.445706	132476928	98185216	40488488	24992
714	16.967468	132476928	98185216	34890928	24992
715	18.977135	132476928	98185216	31151112	24992
716	20.600879	132476928	98185216	28885352	24992
717	21.70708	132476928	98185216	27816224	24992
718	22.994442	132476928	98185216	27657280	24992
719	24.379711	132476928	98185216	28267080	24992
720	25.677968	132476928	98185216	29628112	24992
721	26.988583	132476928	98185216	31522056	24992
722	28.099082	132476928	98185216	33825936	24992
723	29.050763	132476928	98185216	36426872	24992
724	30.275917	132476928	98185216	39427040	24992
725	33.296339	132476928	98185216	29466968	24992
726	35.567884	132476928	98185216	38354112	24992
727	35.293155	132476928	98185216	44066392	24992
728	37.264998	132476928	98185216	36046688	24992
729	36.560503	132476928	98185216	43669960	24992
730	39.10364	132476928	98185216	37366016	24992
731	46.112883	132476928	98185216	38579448	24992
732	42.889927	132476928	98185216	51857800	24992
733	43.636185	132476928	98185216	48133408	24992
734	46.04058	132476928	98185216	46225200	24992
735	52.880662	132476928	98185216	50529440	24992
736	52.976385	132476928	98185216	55391888	24992
737	55.144728	132476928	98185216	61124192	24992
738	85.983866	125415424	90845184	23043648	24992
739	59.212646	125222912	90845184	29554016	24992
740	57.625371	125222912	90845184	37743616	24992
741	59.162439	125222912	90845184	46512280	24992
742	65.876871	125222912	90845184	44616472	24992
743	62.916082	125222912	90845184	55103688	24992
744	61.784406	125222912	90845184	66422928	24992
745	93.126535	124682240	92942336	19932768	24992
746	64.457513	127381504	92942336	31502896	24992
747	70.17372	127381504	92942336	33675536	24992
748	67.479622	127381504	92942336	48121768	24992
749	73.700289	127381504	92942336	51930456	24992
750	74.482841	127381504	92942336	56385184	24992
751	89.382713	118669312	86650880	27565936	24992
752	76.023849	121098240	86650880	33125336	24992
753	77.727626	121098240	86650880	40144208	24992
754	80.311956	121098240	86650880	47925464	24992
755	79.254808	121098240	86650880	56556760	24992
756	108.488633	121896960	89796608	23406808	24992
757	85.357349	123785216	89796608	32852200	24992
758	83.970162	123785216	89796608	43825376	24992
759	90.092081	123785216	89796608	44164920	24992
760	88.006615	123785216	89796608	56840936	24992
761	122.872809	124174336	89796608	29244312	24992
762	88.512886	124174336	89796608	43610384	24992
763	95.186552	124174336	89796608	47197384	24992
764	93.185095	124174336	89796608	63106208	24992
765	102.584213	131203072	97136640	68411912	24992
766	125.38996	135606272	101330944	38602600	24992
767	101.642166	135606272	101330944	45794960	24992
768	102.520574	135606272	101330944	53529120	24992
769	102.652485	135606272	101330944	62111432	24992
770	110.756354	136957952	102903808	71470464	24992
771	133.304864	125640704	91369472	32338800	24992
772	107.798064	125640704	91369472	43246832	24992
773	108.787249	125640704	91369472	55130896	24992
774	109.536236	129155072	95039488	67793056	24992
775	143.382467	131563520	97136640	35778912	24992
776	111.85097	131563520	97136640	50031816	24992
777	114.16015	131563520	97136640	65268560	24992
778	119.77692	132644864	98185216	69889600	24992
779	141.498952	128380928	93990912	32355392	24992
780	121.249726	128380928	93990912	38735136	24992
781	120.471148	128380928	93990912	57274816	24992
782	130.958434	128921600	94515200	65153528	24992
783	152.248555	125915136	91369472	43955872	24992
784	127.433008	125915136	91369472	53648296	24992
785	127.813057	126455808	91893760	63981984	24992
786	152.816292	127041536	95039488	37523640	24992
787	129.65543	129470464	95039488	48222248	24992
788	137.117739	129470464	95039488	49595944	24992
789	139.74466	130011136	95563776	63317344	24992
790	163.900019	129359872	95039488	45539832	24992
791	136.901093	129359872	95039488	60994688	24992
792	141.965325	130711552	96612352	65725384	24992
793	164.970838	132538368	98709504	29430392	24992
794	139.959434	132538368	98709504	47648144	24992
795	146.160668	132538368	98709504	54981592	24992
796	174.35836	125472768	93990912	29600728	24992
797	146.194204	127901696	93990912	49278424	24992
798	151.052377	127901696	93990912	59230528	24992
799	175.405072	135200768	100806656	69968872	24992
800	157.344036	136187904	101855232	46648168	24992
801	155.552152	136458240	101855232	59030432	24992
802	2.931324	137539584	103428096	73278320	24992
803	6.308309	137539584	103428096	75854824	24992
804	9.005885	137539584	103428096	79288192	24992
805	19.99728	139972608	105525248	70706016	24992
806	20.822972	127537152	93990912	29262448	24992
807	10.36326	127537152	93990912	35283472	24992
808	12.448155	127537152	93990912	42174160	24992
809	12.767658	128344064	93990912	33778624	24992
810	13.387143	128344064	93990912	42391424	24992
811	15.328788	128344064	93990912	35699808	24992
812	17.712666	128344064	93990912	31128056	24992
813	17.314923	128344064	93990912	42350688	24992
814	19.075351	128344064	93990912	38274952	24992
815	21.863861	128344064	93990912	35897824	24992
816	22.693138	128344064	93990912	34704248	24992
817	24.682892	128344064	93990912	34664376	24992
818	25.976468	128344064	93990912	35496312	24992
819	27.349599	128344064	93990912	37064544	24992
820	28.858825	128344064	93990912	39170488	24992
821	29.90958	128344064	93990912	41845624	24992
822	33.096023	128344064	93990912	31622616	24992
823	35.696584	128344064	93990912	40467408	24992
824	34.535772	128344064	93990912	46254048	24992
825	37.485062	128344064	93990912	38360256	24992
826	37.620238	128344064	93990912	46192424	24992
827	39.674805	128344064	93990912	40126312	24992
828	46.651698	128344064	93990912	41760896	24992
829	47.695705	128344064	93990912	44040320	24992
830	44.896106	128344064	93990912	58694760	24992
831	44.864548	128344064	93990912	56342744	24992
832	53.735801	133210112	99233792	61461504	24992
833	53.933888	138076160	104476672	67355704	24992
834	54.344847	138887168	104476672	73993760	24992
835	61.857462	139427840	105000960	70171800	24992
836	86.870756	131690496	99758080	26386728	24992
837	60.717716	134119424	99758080	34269368	24992
838	61.689441	134119424	99758080	44458512	24992
839	67.333804	134119424	99758080	44200856	24992
840	62.593968	134119424	99758080	56351152	24992
841	68.774983	134119424	99758080	57792448	24992
842	71.10792	134119424	99758080	60263696	24992
843	101.210396	130916352	99233792	29866032	24992
844	73.339242	133345280	99233792	33075144	24992
845	71.941726	133345280	99233792	49569824	24992
846	76.854071	133345280	99233792	55806552	24992
847	77.519437	133345280	99233792	62740128	24992
848	78.339677	133345280	99233792	70587712	24992
849	101.935701	130093056	98185216	29788696	24992
850	83.803584	132521984	98185216	37955720	24992
851	85.686561	132521984	98185216	37119944	24992
852	84.915348	132521984	98185216	48716312	24992
853	85.027676	132521984	98185216	61168744	24992
854	113.927252	125272064	93466624	29568888	24992
855	95.143861	127705088	93466624	31666432	24992
856	89.805677	127705088	93466624	46950464	24992
857	95.903093	127705088	93466624	51681208	24992
858	110.496017	129056768	95039488	57375744	24992
859	111.678763	124817408	90845184	31903128	24992
860	95.91721	124817408	90845184	50898176	24992
861	104.058573	124817408	90845184	59339032	24992
862	104.163712	125628416	91369472	68822168	24992
863	135.18292	127447040	92942336	34788832	24992
864	105.552115	127447040	92942336	46010368	24992
865	108.7899	127447040	92942336	58170880	24992
866	108.119811	128528384	94515200	71321528	24992
867	137.198632	127016960	92942336	33276736	24992
868	114.307426	127287296	92942336	37117944	24992
869	112.448929	127287296	92942336	53115688	24992
870	124.697396	127827968	93466624	58496952	24992
871	148.426867	126414848	91893760	34963152	24992
872	117.533459	126414848	91893760	53857600	24992
873	123.691508	126414848	91893760	62017104	24992
874	147.800035	136687616	102379520	71209264	24992
875	130.405814	132145152	97660928	43585280	24992
876	127.747651	132145152	97660928	54698032	24992
877	129.396004	132145152	97660928	66744576	24992
878	153.322159	125771776	91369472	29568848	24992
879	131.747171	125771776	91369472	43473008	24992
880	133.037088	125771776	91369472	58422120	24992
881	162.048955	124731392	90320896	29390624	24992
882	135.337328	124731392	90320896	46307856	24992
883	140.04042	124731392	90320896	52613472	24992
884	167.037229	121200640	89272320	37389056	24992
885	147.762303	123629568	89272320	44783520	24992
886	143.922825	124170240	89796608	53974336	24992
887	177.520244	129626112	97136640	29537736	24992
888	146.625861	131514368	97136640	51214904	24992
889	149.173485	131514368	97136640	63356176	24992
890	190.005446	127483904	95039488	30146928	24992
891	156.366952	142618624	109195264	42999360	24992
892	157.607479	157487104	124923904	58046392	24992
893	176.019541	172085248	138031104	73820976	24992
894	176.270747	111267840	77213696	51898336	24992
895	164.865459	125054976	90845184	58203320	24992
896	195.624595	132059136	73019392	28302400	24992
897	167.356873	110993408	77213696	47135792	24992
898	165.59168	125591552	92942336	67963904	24992
899	202.054151	106209280	74067968	40031776	24992
900	169.782215	110800896	76689408	49988288	24992
901	175.748492	128102400	93990912	62197664	24992
902	3.024081	106643456	72495104	36543504	24992
903	4.323458	106643456	72495104	39513904	24992
904	9.117967	106913792	72495104	30954480	24992
905	7.628088	106913792	72495104	35869008	24992
906	8.95077	106913792	72495104	41771752	24992
907	11.763302	106913792	72495104	33792000	24992
908	11.465107	106913792	72495104	41682040	24992
909	14.261496	106913792	72495104	34799488	24992
910	14.857006	106913792	72495104	44679848	24992
911	16.792517	106913792	72495104	39220648	24992
912	19.087378	106913792	72495104	35651872	24992
913	20.998955	106913792	72495104	33764008	24992
914	24.025716	106913792	72495104	33271832	24992
915	24.238138	106913792	72495104	33803624	24992
916	25.571472	106913792	72495104	35312192	24992
917	27.256594	106913792	72495104	37447752	24992
918	28.471241	106913792	72495104	40186056	24992
919	29.665572	106913792	72495104	43403552	24992
920	33.127577	106913792	72495104	33922792	24992
921	35.459542	106913792	72495104	43472944	24992
922	37.383907	106913792	72495104	37138584	24992
923	38.342095	106913792	72495104	48670552	24992
924	40.025821	107184128	73019392	43938184	24992
925	47.240824	112050176	77737984	45793496	24992
926	44.274824	114753536	80359424	60182120	24992
927	44.12329	115023872	80883712	57412488	24992
928	45.64262	115564544	81408000	56438232	24992
929	53.012075	120700928	86650880	62338800	24992
930	54.297575	125566976	91369472	69056320	24992
931	75.007781	132866048	98709504	65321296	24992
932	61.667803	109740032	75640832	34114352	24992
933	62.374639	109740032	75640832	32509152	24992
934	62.987117	109740032	75640832	43291760	24992
935	67.480622	110010368	75640832	43489352	24992
936	65.211387	112984064	78786560	56363440	24992
937	73.055562	120283136	86126592	58593928	24992
938	99.278771	117063680	85078016	31501784	24992
939	75.180866	118951936	85078016	35315888	24992
940	72.75728	118951936	85078016	40660456	24992
941	75.846409	119492608	85078016	47016416	24992
942	78.46545	121114624	87175168	54338072	24992
943	79.817328	128684032	94515200	62943880	24992
944	109.152208	119480320	88223744	38292552	24992
945	87.061924	122179584	88223744	36242704	24992
946	81.403252	122179584	88223744	47564616	24992
947	84.035899	122449920	88223744	60116784	24992
948	93.034711	127586304	93466624	62133968	24992
949	96.325688	134885376	100806656	76592400	24992
950	107.625934	122540032	88223744	41036320	24992
951	93.229152	122540032	88223744	46076584	24992
952	95.182835	122540032	88223744	52274528	24992
953	101.125788	124162048	89796608	59623752	24992
954	126.435592	120664064	88223744	32658280	24992
955	103.544725	122552320	88223744	40803824	24992
956	101.760217	122552320	88223744	51148984	24992
957	103.498939	122552320	88223744	62707992	24992
958	133.142227	122957824	90845184	30139504	24992
959	110.977869	124846080	90845184	42908616	24992
960	112.94599	124846080	90845184	45939544	24992
961	110.979924	124846080	90845184	61319392	24992
962	139.24225	124096512	89796608	30311888	24992
963	118.215672	124096512	89796608	36331688	24992
964	113.556401	124096512	89796608	54958192	24992
965	125.27394	124366848	89796608	62858904	24992
966	151.480667	127393792	92942336	40659168	24992
967	122.355506	127393792	92942336	50788032	24992
968	124.250762	127393792	92942336	62250880	24992
969	153.152349	126414848	94515200	36595272	24992
970	129.688065	128843776	94515200	37264112	24992
971	128.557926	128843776	94515200	51597032	24992
972	138.592084	129384448	95039488	67004768	24992
973	167.877409	128811008	94515200	40005672	24992
974	135.527652	128811008	94515200	57654568	24992
975	140.87819	132055040	97660928	64614784	24992
976	168.772762	128831488	95039488	31150704	24992
977	140.650099	129372160	95039488	40293360	24992
978	142.089699	129372160	95039488	62118112	24992
979	176.0274	123121664	88748032	26702032	24992
980	144.548828	123121664	88748032	50567112	24992
981	151.868924	123121664	88748032	63914408	24992
982	186.825005	123285504	88748032	50992232	24992
983	153.356492	123285504	88748032	66657344	24992
984	160.325472	138964992	105000960	71531520	24992
985	176.991256	123219968	88748032	31677456	24992
986	157.002293	123219968	88748032	50405064	24992
987	194.860766	120451072	88748032	29090776	24992
988	161.987855	123150336	88748032	49673904	24992
989	168.329528	129908736	96088064	60120984	24992
990	192.27482	125796352	91369472	30330400	24992
991	169.405924	125796352	91369472	54485232	24992
992	175.103498	127418368	93466624	67921568	24992
993	210.338225	128352256	93990912	53556200	24992
994	173.084316	128892928	94515200	69092512	24992
995	180.660513	145924096	111816704	85791088	24992
996	220.298235	140591104	106049536	49918448	24992
997	178.330394	140591104	106049536	68929272	24992
998	194.018317	147890176	113913856	89065904	24992
999	210.088162	132755456	98185216	55533856	24992
1000	189.170192	133296128	99233792	66134544	24992
