x	Duration	RSS	HeapTotal	HeapUsed	External
0	NA	127270912	93466624	41992672	24992
1	0.435707	127270912	93466624	42037304	24992
2	0.414122	127270912	93466624	42108496	24992
3	0.484431	127270912	93466624	42204896	24992
4	0.580415	127270912	93466624	42327496	24992
5	0.694835	127270912	93466624	42477792	24992
6	0.803038	127270912	93466624	42656512	24992
7	0.664308	127270912	93466624	42864584	24992
8	0.399613	127270912	93466624	43102928	24992
9	0.431454	127270912	93466624	43373448	24992
10	0.474098	127270912	93466624	43676120	24992
11	0.526582	127270912	93466624	44011912	24992
12	0.578596	127270912	93466624	44382280	24992
13	0.625779	127270912	93466624	44788064	24992
14	0.727433	127270912	93466624	45230280	24992
15	0.742896	127270912	93466624	45709856	24992
16	0.795445	127270912	93466624	46227696	24992
17	0.862438	127270912	93466624	46786616	24992
18	0.941395	127270912	93466624	47386184	24992
19	1.003673	127270912	93466624	48027384	24992
20	1.041974	127270912	93466624	48710184	24992
21	1.110277	127270912	93466624	49435960	24992
22	1.384164	127270912	93466624	50205520	24992
23	1.241322	127270912	93466624	51019816	24992
24	1.302958	127270912	93466624	51880064	24992
25	1.417921	127270912	93466624	52788112	24992
26	1.450285	127270912	93466624	53744456	24992
27	4.289988	127270912	93466624	40850640	24992
28	1.850981	127270912	93466624	41907088	24992
29	1.862523	127270912	93466624	43016368	24992
30	1.770306	127270912	93466624	44176624	24992
31	1.838184	127270912	93466624	45390072	24992
32	1.929461	127270912	93466624	46660440	24992
33	2.021271	127270912	93466624	47990208	24992
34	2.297718	127270912	93466624	49376360	24992
35	2.247411	127270912	93466624	50819616	24992
36	2.278025	127270912	93466624	52320800	24992
37	3.61053	127270912	93466624	53881792	24992
38	2.542285	127270912	93466624	55505320	24992
39	4.515761	127270912	93466624	41357288	24992
40	2.865015	127270912	93466624	43099856	24992
41	2.93752	127270912	93466624	44904784	24992
42	3.16671	127270912	93466624	46773144	24992
43	2.909307	127270912	93466624	48705952	24992
44	3.048265	127270912	93466624	50704728	24992
45	3.13816	127270912	93466624	52770496	24992
46	3.271991	127270912	93466624	54903728	24992
47	3.346297	127270912	93466624	57104376	24992
48	5.475854	127270912	93466624	43428008	24992
49	4.429109	127270912	93466624	45770320	24992
50	3.856322	127270912	93466624	48181312	24992
51	3.793033	127270912	93466624	50667568	24992
52	4.401471	127270912	93466624	53227808	24992
53	3.997276	127270912	93466624	55863784	24992
54	5.786181	127270912	93466624	43012688	24992
55	4.230144	127270912	93466624	45803280	24992
56	4.389451	127270912	93466624	48672352	24992
57	5.083	127270912	93466624	51620928	24992
58	4.698824	127270912	93466624	54658760	24992
59	4.938404	127270912	93466624	57769208	24992
60	6.817602	127270912	93466624	45205376	24992
61	5.350275	127270912	93466624	48481568	24992
62	5.282639	127270912	93466624	51841856	24992
63	5.214768	127270912	93466624	55287584	24992
64	7.28629	127270912	93466624	43332656	24992
65	5.975035	127270912	93466624	46959304	24992
66	6.078574	127270912	93466624	50673672	24992
67	6.342361	127270912	93466624	54477408	24992
68	5.932403	127270912	93466624	58370104	24992
69	8.657927	127270912	93466624	46543680	24992
70	6.390324	127270912	93466624	50618608	24992
71	6.519592	127270912	93466624	54785960	24992
72	6.635616	127270912	93466624	59047056	24992
73	8.68842	127270912	93466624	47569544	24992
74	7.36178	127270912	93466624	52020208	24992
75	6.906442	127270912	93466624	56567208	24992
76	9.001422	127270912	93466624	45648088	24992
77	7.294042	127270912	93466624	50391816	24992
78	7.416864	127270912	93466624	55232912	24992
79	7.750285	127270912	93466624	60174000	24992
80	9.443306	127270912	93466624	49300384	24992
81	7.941696	127270912	93466624	54445424	24992
82	8.386191	127270912	93466624	59693080	24992
83	10.293886	127270912	93466624	49189664	24992
84	9.150751	127270912	93466624	54655632	24992
85	8.675696	127270912	93466624	60220048	24992
86	11.034979	127270912	93466624	50002544	24992
87	8.824905	127270912	93466624	55780288	24992
88	9.214067	127270912	93466624	61667512	24992
89	11.930658	127270912	93466624	51686984	24992
90	10.092443	127270912	93466624	57792672	24992
91	11.687981	127270912	93466624	48485768	24992
92	10.125804	127270912	93466624	54812304	24992
93	10.05006	127270912	93466624	61251688	24992
94	12.841819	127270912	93466624	51973320	24992
95	10.614644	127270912	93466624	58641824	24992
96	13.090755	127270912	93466624	49969312	24992
97	10.694056	127270912	93466624	56871200	24992
98	13.319064	127270912	93466624	48634064	24992
99	11.273998	127270912	93466624	55771376	24992
100	11.26305	127270912	93466624	63028192	24992
101	13.75276	127270912	93466624	54507480	24992
102	0.451166	127270912	93466624	61805088	24992
103	0.653664	127270912	93466624	62171400	24992
104	0.866606	127270912	93466624	62665200	24992
105	1.211495	127270912	93466624	63286760	24992
106	1.192257	127270912	93466624	64037968	24992
107	3.450955	127270912	93466624	49025288	24992
108	1.590287	127270912	93466624	50037336	24992
109	1.970386	127270912	93466624	51181312	24992
110	1.977296	127270912	93466624	52459088	24992
111	2.233298	127270912	93466624	53870448	24992
112	2.388133	127270912	93466624	55417584	24992
113	2.579943	127270912	93466624	57099216	24992
114	2.985229	127270912	93466624	58917360	24992
115	3.005303	127270912	93466624	60872952	24992
116	3.225429	127270912	93466624	62970928	24992
117	5.604876	127270912	93466624	49309424	24992
118	3.648957	127270912	93466624	51685328	24992
119	3.889266	127270912	93466624	54202288	24992
120	4.082381	127270912	93466624	56861056	24992
121	4.302613	127270912	93466624	59663328	24992
122	4.526285	127270912	93466624	62608936	24992
123	6.831267	127270912	93466624	49883400	24992
124	5.709047	127270912	93466624	53120488	24992
125	5.623217	127270912	93466624	56511392	24992
126	5.539231	127270912	93466624	60042040	24992
127	5.944983	127270912	93466624	63721976	24992
128	7.882296	127270912	93466624	51576672	24992
129	6.109012	127270912	93466624	55555680	24992
130	6.525001	127270912	93466624	59691688	24992
131	6.901568	127270912	93466624	63975664	24992
132	9.041356	127270912	93466624	52416296	24992
133	7.621638	127270912	93466624	57008880	24992
134	7.673331	127270912	93466624	61760672	24992
135	9.890095	127270912	93466624	50998144	24992
136	8.04698	127270912	93466624	56063096	24992
137	8.536296	127270912	93466624	61286760	24992
138	10.828359	127270912	93466624	51083752	24992
139	8.748027	127270912	93466624	56625896	24992
140	9.04093	127270912	93466624	62331776	24992
141	11.40977	127270912	93466624	52501768	24992
142	9.519109	127270912	93466624	58529928	24992
143	9.53401	127270912	93466624	64719288	24992
144	12.215786	127270912	93466624	55064520	24992
145	10.300857	127270912	93466624	61583688	24992
146	13.07967	127270912	93466624	52717720	24992
147	11.020312	127270912	93466624	59570248	24992
148	11.084921	127270912	93466624	66591088	24992
149	13.375563	127270912	93466624	57561152	24992
150	11.424425	127270912	93466624	64924208	24992
151	13.922241	127270912	93466624	56494680	24992
152	12.25514	127270912	93466624	64199560	24992
153	14.383535	127270912	93466624	56204448	24992
154	13.200375	127270912	93466624	64254104	24992
155	15.298614	127270912	93466624	56613288	24992
156	13.416507	127270912	93466624	65012464	24992
157	15.742931	127270912	93466624	57660496	24992
158	13.769858	127270912	93466624	66418960	24992
159	16.168953	127270912	93466624	59258936	24992
160	17.170521	127270912	93466624	53295808	24992
161	15.446411	127270912	93466624	62591592	24992
162	17.523821	127270912	93466624	56519328	24992
163	15.593302	127270912	93466624	66179104	24992
164	17.97993	127270912	93466624	60037224	24992
165	18.708671	127270912	93466624	54956752	24992
166	15.908731	127270912	93466624	65171040	24992
167	19.048897	127270912	93466624	59749088	24992
168	19.503403	127270912	93466624	55319912	24992
169	17.231011	127270912	93466624	66092704	24992
170	20.524423	127270912	93466624	61161800	24992
171	20.719346	127270912	93466624	57166008	24992
172	17.965217	127270912	93466624	68514800	24992
173	20.751676	127270912	93466624	63850984	24992
174	21.539286	127270912	93466624	60075248	24992
175	22.513401	127270912	93466624	57000992	24992
176	20.209463	127270912	93466624	69133680	24992
177	21.858251	127270912	93466624	65244896	24992
178	22.443961	127270912	93466624	62138960	24992
179	23.189111	127270912	93466624	59629896	24992
180	23.70929	127270912	93466624	57723168	24992
181	20.941808	127270912	93466624	70826728	24992
182	23.901757	127270912	93466624	67835928	24992
183	24.291714	127270912	93466624	65464488	24992
184	24.461818	127270912	93466624	63654856	24992
185	25.169961	127270912	93466624	62259632	24992
186	25.998539	127270912	93466624	61286840	24992
187	26.644932	127270912	93466624	60694824	24992
188	27.004598	127270912	93466624	60422112	24992
189	27.37129	127270912	93466624	60451016	24992
190	28.258967	127541248	93466624	60674368	24992
191	31.74369	127541248	93466624	61110648	24992
192	44.310977	118484992	86126592	15038432	24992
193	27.615785	119832576	86126592	16781160	24992
194	27.510957	119832576	86126592	18118808	24992
195	27.57895	119832576	86126592	19405480	24992
196	27.700417	119832576	86126592	20723968	24992
197	27.802982	119832576	86126592	22060904	24992
198	27.464088	119832576	86126592	23424600	24992
199	27.972361	119832576	86126592	24799800	24992
200	28.610219	119832576	86126592	26212408	24992
201	28.358917	119832576	86126592	27644944	24992
202	0.768695	119832576	86126592	29049904	24992
203	1.06842	119832576	86126592	29707976	24992
204	1.419861	119832576	86126592	30586000	24992
205	2.134461	119832576	86126592	15403584	24992
206	2.188562	119832576	86126592	16724760	24992
207	2.469373	119832576	86126592	18268888	24992
208	2.853934	119832576	86126592	20036424	24992
209	3.277285	119832576	86126592	22038000	24992
210	3.715197	119832576	86126592	24277696	24992
211	4.163966	119832576	86126592	26751280	24992
212	4.433263	119832576	86126592	29463104	24992
213	5.296779	119832576	86126592	16281320	24992
214	5.273014	119832576	86126592	19460712	24992
215	5.592845	119832576	86126592	22878280	24992
216	5.925145	119832576	86126592	26535328	24992
217	6.059611	119832576	86126592	30441200	24992
218	7.279178	119832576	86126592	18327888	24992
219	6.80919	119832576	86126592	22710408	24992
220	7.197919	119832576	86126592	27351800	24992
221	8.454685	119832576	86126592	16434096	24992
222	8.010306	119832576	86126592	21548664	24992
223	8.653727	119832576	86126592	26917248	24992
224	9.662206	119832576	86126592	16790192	24992
225	9.486776	119832576	86126592	22647240	24992
226	9.460928	119832576	86126592	28750872	24992
227	10.461304	119832576	86126592	19098720	24992
228	10.404135	119832576	86126592	25704624	24992
229	11.587098	119832576	86126592	17000288	24992
230	11.45983	119832576	86126592	24107200	24992
231	11.798897	119832576	86126592	31489648	24992
232	12.37141	119832576	86126592	22722080	24992
233	12.364287	119832576	86126592	30600688	24992
234	13.509215	119832576	86126592	22470776	24992
235	13.255565	119832576	86126592	30864240	24992
236	14.611678	119832576	86126592	23221712	24992
237	14.175306	119832576	86126592	32129552	24992
238	15.386514	119832576	86126592	24852840	24992
239	16.090664	119832576	86126592	18873880	24992
240	15.431232	119832576	86126592	28573736	24992
241	16.440448	119832576	86126592	22579912	24992
242	17.678599	119832576	86126592	17728728	24992
243	16.455036	119832576	86126592	28207984	24992
244	18.612943	119832576	86126592	23077736	24992
245	18.456863	119832576	86126592	18969024	24992
246	18.327593	119832576	86126592	30250296	24992
247	19.005348	119832576	86126592	25711568	24992
248	19.876474	119832576	86126592	22136616	24992
249	20.160167	119832576	86126592	19340768	24992
250	20.154512	119832576	86126592	31708864	24992
251	21.118883	119832576	86126592	28090328	24992
252	21.473021	119832576	86126592	25300080	24992
253	21.748671	119832576	86126592	23176272	24992
254	22.455681	119832576	86126592	21627152	24992
255	23.321617	119832576	86126592	20620944	24992
256	23.924884	119832576	86126592	20041448	24992
257	24.488192	119832576	86126592	19845248	24992
258	25.337137	119832576	86126592	19957224	24992
259	26.821246	119832576	86126592	20359872	24992
260	26.243863	119832576	86126592	20996144	24992
261	26.173056	119832576	86126592	21830336	24992
262	26.994186	119832576	86126592	22841280	24992
263	26.77724	119832576	86126592	24007680	24992
264	27.204963	119832576	86126592	25284176	24992
265	27.339805	119832576	86126592	26663432	24992
266	28.303991	119832576	86126592	28204584	24992
267	28.360732	119832576	86126592	29773048	24992
268	28.509256	119832576	86126592	31412808	24992
269	29.312466	119832576	86126592	33106504	24992
270	29.214588	119832576	86126592	34868168	24992
271	31.934545	119832576	86126592	22634552	24992
272	31.06356	119832576	86126592	26577640	24992
273	31.204703	119832576	86126592	30240248	24992
274	32.022496	119832576	86126592	33682696	24992
275	34.485525	119832576	86126592	23031024	24992
276	34.803182	119832576	86126592	30594616	24992
277	33.846327	119832576	86126592	35432504	24992
278	35.467833	119832576	86126592	25988784	24992
279	36.502236	119832576	86126592	34398392	24992
280	34.314272	119832576	86126592	40011840	24992
281	37.039755	119832576	86126592	31078944	24992
282	37.405371	119832576	86126592	40437848	24992
283	39.086301	119832576	86126592	33148512	24992
284	38.923253	119832576	86126592	43064304	24992
285	40.575804	119832576	86126592	36438256	24992
286	39.191316	119832576	86126592	46942336	24992
287	40.362756	119832576	86126592	40766160	24992
288	41.25526	119832576	86126592	51885576	24992
289	41.447288	119832576	86126592	45994384	24992
290	49.146812	120373248	86126592	45342400	24992
291	58.578127	120373248	86126592	57218336	24992
292	45.645779	116068352	81932288	30599952	24992
293	41.50785	116068352	81932288	26056392	24992
294	46.281282	116068352	81932288	26529856	24992
295	42.636321	116068352	81932288	39648128	24992
296	42.801418	116068352	81932288	35543320	24992
297	46.379175	116068352	81932288	37012792	24992
298	47.102923	116068352	81932288	38638496	24992
299	45.522459	116068352	81932288	52947184	24992
300	45.680405	116068352	81932288	49690704	24992
301	45.748819	116068352	81932288	47396960	24992
302	1.0519	116068352	81932288	50523936	24992
303	1.526825	116068352	81932288	51486152	24992
304	2.002963	116068352	81932288	52774048	24992
305	2.557242	116068352	81932288	54378848	24992
306	3.054644	116068352	81932288	56312504	24992
307	5.834003	116068352	81932288	45306792	24992
308	4.248387	116068352	81932288	47883728	24992
309	4.714396	116068352	81932288	50785768	24992
310	5.056365	116068352	81932288	54015080	24992
311	5.729533	116068352	81932288	57591680	24992
312	7.301363	116068352	81932288	46260248	24992
313	6.80843	116068352	81932288	50477016	24992
314	7.136035	116068352	81932288	55021432	24992
315	7.849147	116068352	81932288	59898264	24992
316	8.78236	116068352	81932288	48852592	24992
317	8.88388	116068352	81932288	54400168	24992
318	9.160214	116068352	81932288	60277584	24992
319	10.509437	116068352	81932288	50191576	24992
320	10.467342	116068352	81932288	56751320	24992
321	11.785853	116068352	81932288	47834384	24992
322	11.41956	116068352	81932288	55062288	24992
323	12.812477	116068352	81932288	47078384	24992
324	12.56937	116068352	81932288	54989352	24992
325	13.879752	116068352	81932288	47704776	24992
326	13.565802	116068352	81932288	56286032	24992
327	15.046879	116068352	81932288	49519272	24992
328	15.148524	116068352	81932288	58789296	24992
329	15.917057	116068352	81932288	52352696	24992
330	16.93195	116068352	81932288	47182672	24992
331	16.977718	116068352	81932288	57488656	24992
332	17.765743	116068352	81932288	52266800	24992
333	18.731852	116068352	81932288	48159312	24992
334	18.405283	116068352	81932288	59514056	24992
335	19.901774	116068352	81932288	55048776	24992
336	20.453426	116068352	81932288	51609088	24992
337	21.18091	116068352	81932288	49041672	24992
338	20.489218	116068352	81932288	61806496	24992
339	21.215916	116068352	81932288	58454200	24992
340	22.241747	116068352	81932288	55894928	24992
341	23.012584	116068352	81932288	54101928	24992
342	23.592088	116068352	81932288	52921496	24992
343	25.256363	116068352	81932288	52317880	24992
344	24.867035	116068352	81932288	52156648	24992
345	25.702548	116068352	81932288	52422128	24992
346	26.480146	116068352	81932288	53040368	24992
347	26.583305	116068352	81932288	53926016	24992
348	26.766573	116068352	82456576	55071392	24992
349	27.678739	116338688	82980864	56401224	24992
350	27.867732	116338688	82980864	57903864	24992
351	28.486947	116609024	82980864	59572688	24992
352	29.051475	116609024	82980864	61370088	24992
353	31.525728	116879360	82980864	49406672	24992
354	34.116278	119312384	85602304	55890312	24992
355	35.521972	119312384	85602304	59806392	24992
356	46.686384	117575680	84029440	19471992	24992
357	35.306092	117841920	84029440	26064184	24992
358	33.563794	117841920	84029440	30988864	24992
359	34.644201	117841920	84029440	20955744	24992
360	33.913701	117841920	84029440	26816976	24992
361	36.61676	117841920	84029440	18686176	24992
362	37.784194	117841920	84029440	28039544	24992
363	35.71881	117841920	84029440	34439024	24992
364	37.602109	117841920	84029440	26212328	24992
365	37.147892	117841920	84029440	33630240	24992
366	40.012387	117841920	84029440	26415232	24992
367	38.280114	117841920	84029440	34577296	24992
368	40.915006	117841920	84029440	27953576	24992
369	42.23498	117841920	84029440	23503144	24992
370	41.802804	117841920	84029440	35858368	24992
371	42.980263	117841920	84029440	31086936	24992
372	45.858034	117841920	84029440	31906032	24992
373	43.437441	117841920	84029440	45260616	24992
374	43.77618	117841920	84029440	41244392	24992
375	44.343588	118112256	84029440	38440328	24992
376	48.830239	118112256	84029440	40767944	24992
377	50.689836	118112256	84029440	43343472	24992
378	58.886911	118923264	85078016	46322872	24992
379	64.970758	115109888	80883712	24645064	24992
380	51.889187	115109888	80883712	28360584	24992
381	51.469131	115109888	80883712	32492240	24992
382	51.916405	115109888	80883712	37015600	24992
383	52.289676	115109888	80883712	41933952	24992
384	54.135911	115109888	80883712	47208432	24992
385	54.618295	116461568	82456576	53043600	24992
386	56.840877	120516608	86650880	59182664	24992
387	60.820955	124841984	90845184	65772288	24992
388	74.282875	121225216	87699456	25999904	24992
389	57.099577	121225216	87699456	33431184	24992
390	57.875529	121225216	87699456	41163888	24992
391	61.158212	121225216	87699456	37079184	24992
392	58.68952	121495552	87699456	45567288	24992
393	59.388151	121495552	87699456	54464680	24992
394	62.935166	121765888	87699456	51523256	24992
395	77.849429	123387904	89272320	61206184	24992
396	68.802886	119349248	85078016	28151944	24992
397	61.970729	119349248	85078016	38642160	24992
398	65.434252	119349248	85078016	37360472	24992
399	63.419799	119349248	85078016	48665432	24992
400	66.118589	119349248	85078016	48224488	24992
401	64.198299	119889920	85602304	60305752	24992
402	1.531103	124485632	90320896	60892064	24992
403	2.232119	124485632	90320896	62133544	24992
404	2.982682	124485632	90320896	63788672	24992
405	3.700438	124485632	90320896	65858984	24992
406	4.288803	124485632	90320896	68344528	24992
407	10.113607	126648320	92942336	57775376	24992
408	5.918612	126648320	92942336	61110896	24992
409	6.441796	126648320	92942336	64851536	24992
410	9.524774	126648320	92942336	69009080	24992
411	14.821889	127188992	93466624	58215496	24992
412	15.317981	123129856	89796608	19645384	24992
413	8.870511	123129856	89796608	25070000	24992
414	9.680471	123129856	89796608	30921600	24992
415	10.770188	123396096	89796608	21273712	24992
416	10.811153	123396096	89796608	27972008	24992
417	12.003981	123396096	89796608	19605968	24992
418	12.287274	123396096	89796608	27165344	24992
419	13.665138	123396096	89796608	19820632	24992
420	13.801825	123396096	89796608	28263688	24992
421	15.175317	123396096	89796608	21606888	24992
422	14.969095	123396096	89796608	30950088	24992
423	16.246938	123396096	89796608	24851600	24992
424	17.208287	123396096	89796608	20072016	24992
425	16.926015	123396096	89796608	30768456	24992
426	18.780995	123396096	89796608	25999384	24992
427	19.472893	123396096	89796608	22441336	24992
428	19.615368	123396096	89796608	34478776	24992
429	20.414265	123396096	89796608	30514880	24992
430	21.241187	123396096	89796608	27644584	24992
431	22.281426	123396096	89796608	25648640	24992
432	23.159456	123396096	89796608	24408056	24992
433	24.167811	123396096	89796608	23829960	24992
434	25.650119	123396096	89796608	23783336	24992
435	25.936498	123396096	89796608	24225400	24992
436	27.461268	123396096	89796608	25091184	24992
437	26.702768	123396096	89796608	26275400	24992
438	27.617596	123396096	89796608	27784472	24992
439	28.554182	123396096	89796608	29554072	24992
440	28.634868	123396096	89796608	31503032	24992
441	29.214257	123396096	89796608	33656480	24992
442	31.880309	123396096	89796608	22108400	24992
443	33.896713	123396096	89796608	28994816	24992
444	32.050264	123396096	89796608	33405544	24992
445	32.381417	123396096	89796608	37551400	24992
446	34.507335	123396096	89796608	27566080	24992
447	34.145311	123396096	89796608	33523432	24992
448	36.475376	123396096	89796608	25662512	24992
449	37.721818	123396096	89796608	35265440	24992
450	38.429496	123396096	89796608	28747752	24992
451	38.870335	123396096	89796608	39272264	24992
452	39.74263	123396096	89796608	33508640	24992
453	40.782489	123396096	89796608	45037456	24992
454	40.942116	123396096	89796608	39703656	24992
455	44.792862	123396096	89796608	39888176	24992
456	43.736657	123396096	89796608	52673736	24992
457	42.862177	123396096	89796608	48535192	24992
458	46.577604	123396096	89796608	50189552	24992
459	48.099548	123936768	89796608	52022424	24992
460	54.551498	123936768	89796608	54370976	24992
461	66.72439	121122816	89272320	25873640	24992
462	49.676398	123011072	89272320	28344664	24992
463	49.992134	123011072	89272320	32132032	24992
464	50.60513	123011072	89272320	36351240	24992
465	51.013654	123011072	89272320	41067984	24992
466	52.212007	123011072	89272320	46283136	24992
467	52.87952	123011072	89272320	51965608	24992
468	53.759125	123011072	89272320	58202280	24992
469	55.99631	124092416	89796608	64848008	24992
470	78.125109	122675200	90845184	27884024	24992
471	55.819955	124563456	90845184	34928464	24992
472	59.281828	124563456	90845184	30775144	24992
473	57.421057	124563456	90845184	39329504	24992
474	59.285366	124563456	90845184	48538512	24992
475	61.602906	124563456	90845184	45843624	24992
476	59.550477	124563456	90845184	55901928	24992
477	63.044136	125104128	90845184	66585088	24992
478	83.555186	122621952	90845184	33590904	24992
479	64.736867	124510208	90845184	32217032	24992
480	65.284443	124510208	90845184	44297392	24992
481	67.822469	124510208	90845184	44602320	24992
482	66.758956	124510208	90845184	45463032	24992
483	66.695315	124510208	90845184	59089752	24992
484	69.877811	125050880	90845184	60871040	24992
485	89.950944	123465728	91369472	31363040	24992
486	71.778594	125353984	91369472	33595152	24992
487	71.952121	125353984	91369472	36965680	24992
488	73.467553	125353984	91369472	40859104	24992
489	71.085866	125353984	91369472	57512584	24992
490	74.791949	125353984	91369472	62490160	24992
491	76.969504	126164992	91893760	67884184	24992
492	100.400542	128090112	93990912	26903472	24992
493	76.509606	128090112	93990912	33432208	24992
494	76.30212	128090112	93990912	40388184	24992
495	77.559335	128090112	93990912	47756408	24992
496	78.789725	128090112	93990912	55670840	24992
497	79.68468	128090112	93990912	64149456	24992
498	102.481615	123170816	91369472	25239504	24992
499	82.867839	125059072	91369472	33757408	24992
500	82.08059	125059072	91369472	43777352	24992
501	84.905997	125059072	91369472	41915864	24992
502	1.713382	125059072	91369472	53336128	24992
503	2.413078	125059072	91369472	54906408	24992
504	3.241194	125059072	91369472	56999328	24992
505	6.45747	125059072	91369472	46589472	24992
506	5.312703	125059072	91369472	49731216	24992
507	5.61406	125059072	91369472	53398608	24992
508	6.656023	125059072	91369472	57592360	24992
509	8.988439	125059072	91369472	47464120	24992
510	8.245685	125059072	91369472	52714688	24992
511	9.027115	125059072	91369472	58494336	24992
512	10.501487	125059072	91369472	48900384	24992
513	11.095638	125059072	91369472	55831616	24992
514	12.82043	125059072	91369472	47645992	24992
515	12.434017	125059072	91369472	55551896	24992
516	13.983919	125059072	91369472	48508672	24992
517	13.987688	125059072	91369472	57483544	24992
518	15.440094	125059072	91369472	51218344	24992
519	15.664038	125059072	91369472	61267552	24992
520	17.095879	125059072	91369472	55510760	24992
521	18.311888	125059072	91369472	51152872	24992
522	19.351476	125059072	91369472	47974520	24992
523	19.78709	125059072	91369472	60199784	24992
524	21.034725	125059072	91369472	56768360	24992
525	21.384793	125059072	91369472	54358256	24992
526	22.868876	125059072	91369472	52878792	24992
527	23.485807	125059072	91369472	52168096	24992
528	24.445655	125059072	91369472	52102784	24992
529	26.078272	125059072	91369472	52642784	24992
530	26.384283	125059072	91369472	53626128	24992
531	27.020718	125059072	91369472	55056992	24992
532	27.610003	125059072	91369472	56810208	24992
533	29.680904	125059072	91369472	58805104	24992
534	29.781042	125059072	91369472	61164272	24992
535	32.025625	125059072	91369472	49755488	24992
536	38.70946	125599744	91893760	57058472	24992
537	49.487572	115257344	81932288	18730848	24992
538	35.65145	116064256	81932288	26403248	24992
539	33.616124	116064256	81932288	32131264	24992
540	36.303261	116064256	81932288	23696128	24992
541	37.515882	116064256	81932288	33719808	24992
542	38.418985	116064256	81932288	27148400	24992
543	39.486221	116064256	81932288	38304024	24992
544	39.919496	116064256	81932288	32537496	24992
545	43.241849	116064256	81932288	32514904	24992
546	43.98084	116064256	81932288	45172512	24992
547	42.841443	116064256	81932288	40898512	24992
548	45.773095	116064256	81932288	42544792	24992
549	47.656049	116064256	81932288	44503048	24992
550	50.653581	120389632	86650880	47042208	24992
551	64.542727	114794496	82980864	20751960	24992
552	51.008018	116682752	82980864	24380456	24992
553	50.189891	117223424	82980864	28613560	24992
554	51.54076	117223424	82980864	33393928	24992
555	52.333741	117223424	82980864	38756952	24992
556	52.85414	117223424	82980864	44742424	24992
557	53.829614	117223424	82980864	51180032	24992
558	55.595587	120737792	87175168	58296944	24992
559	59.264723	125063168	91369472	65896456	24992
560	72.917732	118173696	84029440	27918784	24992
561	57.569387	118173696	84029440	36752432	24992
562	62.878843	118173696	84029440	33878544	24992
563	58.855011	118173696	84029440	43777192	24992
564	62.788558	118173696	84029440	42081096	24992
565	61.563659	118173696	84029440	53076592	24992
566	68.611195	119525376	85602304	52496600	24992
567	82.06118	119140352	87175168	34010912	24992
568	66.888678	121028608	87175168	34166216	24992
569	67.321028	121028608	87175168	35430856	24992
570	65.570629	121028608	87175168	49346232	24992
571	68.699161	121028608	87175168	51674624	24992
572	70.182288	121298944	87175168	54603720	24992
573	75.58073	124272640	90320896	58137880	24992
574	93.018203	124706816	90845184	29022128	24992
575	74.181769	124706816	90845184	33756784	24992
576	74.390053	124706816	90845184	39014176	24992
577	75.079118	124706816	90845184	44906464	24992
578	75.591948	124706816	90845184	51291488	24992
579	78.934867	124706816	90845184	58357648	24992
580	100.905609	122036224	89796608	34316856	24992
581	80.878195	123924480	89796608	42058376	24992
582	82.039769	123924480	89796608	38880704	24992
583	80.79465	123924480	89796608	48416992	24992
584	81.182892	123924480	89796608	58569488	24992
585	82.632035	124735488	90845184	69366504	24992
586	104.475438	123457536	91369472	31408864	24992
587	86.448079	125345792	91369472	29897064	24992
588	84.956199	125345792	91369472	42245800	24992
589	87.863391	125345792	91369472	42934040	24992
590	87.549141	125345792	91369472	56547104	24992
591	108.668708	118870016	86650880	27298992	24992
592	92.342981	120758272	86650880	29371088	24992
593	89.300651	120758272	86650880	44721928	24992
594	92.852891	120758272	86650880	48499752	24992
595	94.569604	120758272	86650880	52791840	24992
596	121.628329	123535360	89272320	28668280	24992
597	94.215009	123535360	89272320	46462088	24992
598	97.770055	123535360	89272320	52616960	24992
599	98.733953	123535360	89272320	59427976	24992
600	100.79325	126509056	92942336	66768256	24992
601	123.19795	122859520	89272320	23772984	24992
602	1.95347	123400192	89272320	33084520	24992
603	2.846846	123400192	89272320	34942312	24992
604	3.818814	123400192	89272320	37407216	24992
605	4.848292	123400192	89272320	40488488	24992
606	7.826215	123400192	89272320	30620560	24992
607	6.895795	123400192	89272320	34941656	24992
608	7.664338	123400192	89272320	39901200	24992
609	9.658175	123400192	89272320	30188496	24992
610	9.66532	123400192	89272320	36367032	24992
611	10.746357	123400192	89272320	43167680	24992
612	12.082616	123400192	89272320	34434152	24992
613	12.689342	123400192	89272320	42489088	24992
614	14.310549	123400192	89272320	35129224	24992
615	14.452507	123400192	89272320	44436456	24992
616	16.153099	123400192	89272320	38021104	24992
617	17.37665	123400192	89272320	33227896	24992
618	17.917729	123400192	89272320	44419728	24992
619	18.623431	123400192	89272320	39893152	24992
620	20.57668	123400192	89272320	36716272	24992
621	22.034461	123400192	89272320	34640632	24992
622	22.464851	123400192	89272320	33522344	24992
623	23.824529	123400192	89272320	33158888	24992
624	24.777666	123400192	89272320	33565160	24992
625	26.078913	123400192	89272320	34514704	24992
626	27.622098	123400192	89272320	36014792	24992
627	27.820207	123400192	89272320	37822264	24992
628	28.622989	123400192	89272320	40014472	24992
629	30.621463	123400192	89272320	42591424	24992
630	30.312729	123400192	89272320	45423200	24992
631	34.009571	123400192	89272320	34591864	24992
632	33.460037	123400192	89272320	39997424	24992
633	34.711612	123400192	89272320	45240736	24992
634	36.40405	123400192	89272320	36378016	24992
635	36.455443	123400192	89272320	43372032	24992
636	38.139852	123400192	89272320	36430832	24992
637	40.075219	123400192	89272320	47741384	24992
638	40.821413	123400192	89272320	42230680	24992
639	42.114352	123400192	89272320	38439520	24992
640	43.478029	123400192	89272320	51659824	24992
641	43.240875	123400192	89272320	47828672	24992
642	47.939404	123400192	89272320	50206800	24992
643	49.110798	123400192	89272320	52912816	24992
644	54.15751	124481536	90320896	56337080	24992
645	67.773911	117415936	85602304	28750056	24992
646	51.142575	119304192	85602304	32828200	24992
647	52.158449	119304192	85602304	38167832	24992
648	53.294309	119304192	85602304	44122560	24992
649	56.443259	119304192	85602304	38533960	24992
650	55.634623	119844864	85602304	45822840	24992
651	56.651311	119844864	85602304	53744624	24992
652	59.096402	119844864	85602304	62329384	24992
653	81.7351	119603200	87699456	28303224	24992
654	59.677108	121491456	87699456	37771000	24992
655	62.845961	121491456	87699456	36094432	24992
656	61.348387	121491456	87699456	47348800	24992
657	66.01487	121491456	87699456	47054792	24992
658	64.208622	121491456	87699456	59610576	24992
659	67.39402	122302464	88223744	60597608	24992
660	84.767207	126627840	92942336	62254760	24992
661	73.667436	122998784	89272320	29977144	24992
662	70.151822	122998784	89272320	32971120	24992
663	71.616416	122998784	89272320	36734248	24992
664	69.554474	122998784	89272320	53172112	24992
665	74.136813	122998784	89272320	58182552	24992
666	79.949119	124080128	89796608	63904920	24992
667	95.280961	121847808	87699456	26990136	24992
668	77.923226	121847808	87699456	34045168	24992
669	77.627419	121847808	87699456	41862368	24992
670	80.002649	121847808	87699456	50206376	24992
671	81.100506	121847808	87699456	59307696	24992
672	105.485469	121929728	89796608	24318152	24992
673	83.742734	123817984	89796608	34044480	24992
674	85.348332	123817984	89796608	45169592	24992
675	87.178511	123817984	89796608	44858664	24992
676	86.206655	123817984	89796608	57266000	24992
677	103.361363	124088320	89796608	58268360	24992
678	99.318628	122368000	88223744	28154888	24992
679	90.979548	122368000	88223744	42741192	24992
680	91.853198	122368000	88223744	45790144	24992
681	90.993574	122368000	88223744	61659152	24992
682	100.791652	123990016	89796608	66043696	24992
683	113.068757	125542400	91893760	38684880	24992
684	96.292972	125542400	91893760	44454280	24992
685	100.066954	125542400	91893760	50995368	24992
686	99.949645	125542400	91893760	58158648	24992
687	119.202804	129056768	95039488	65920560	24992
688	106.43248	124448768	90320896	39851832	24992
689	102.165048	124448768	90320896	49163696	24992
690	106.944746	124448768	90320896	46869088	24992
691	104.657418	124448768	90320896	57608552	24992
692	134.847601	123080704	89272320	38206584	24992
693	108.98375	123080704	89272320	50260592	24992
694	109.977796	123080704	89272320	50793328	24992
695	109.202672	123891712	89796608	64187608	24992
696	118.6272	133894144	100282368	66168832	24992
697	135.597073	131674112	97660928	32007976	24992
698	111.997984	131674112	97660928	47626160	24992
699	115.865287	131674112	97660928	51660728	24992
700	114.271825	131674112	97660928	68558264	24992
701	140.652442	124018688	90320896	23989016	24992
702	2.244057	124018688	90320896	42975072	24992
703	6.258725	124018688	90320896	32612384	24992
704	4.485124	124018688	90320896	35449304	24992
705	5.692961	124018688	90320896	39002104	24992
706	6.801493	124018688	90320896	43284280	24992
707	9.358677	124018688	90320896	33991136	24992
708	8.860814	124018688	90320896	39670560	24992
709	10.225649	124018688	90320896	46062824	24992
710	11.894696	124018688	90320896	37101968	24992
711	14.614076	124018688	90320896	44954792	24992
712	13.967509	124018688	90320896	37655648	24992
713	14.869259	124018688	90320896	46923888	24992
714	16.381792	124018688	90320896	40712064	24992
715	17.665654	124018688	90320896	36192800	24992
716	18.480679	124018688	90320896	47631192	24992
717	19.524077	124018688	90320896	43492168	24992
718	21.614387	124018688	90320896	40700832	24992
719	22.355248	124018688	90320896	39067056	24992
720	24.132743	124018688	90320896	38357808	24992
721	25.286355	124018688	90320896	38529832	24992
722	26.548529	124018688	90320896	39435264	24992
723	27.40559	124018688	90320896	40919752	24992
724	28.356006	124018688	90320896	42925208	24992
725	29.34949	124018688	90320896	45360568	24992
726	30.394084	124018688	90320896	48185280	24992
727	33.279043	124018688	90320896	37445464	24992
728	33.18242	124018688	90320896	42903944	24992
729	34.475036	124018688	90320896	48266896	24992
730	36.561435	124018688	90320896	39797288	24992
731	36.888654	124018688	90320896	47143784	24992
732	39.115342	124018688	90320896	40565504	24992
733	44.058566	124018688	90320896	40186624	24992
734	42.049845	124018688	90320896	52571024	24992
735	43.966333	124018688	90320896	48574800	24992
736	47.399649	124018688	90320896	50475768	24992
737	52.706856	124559360	91369472	52806912	24992
738	65.915939	116965376	85078016	24689464	24992
739	50.202273	118853632	85078016	28073768	24992
740	51.210214	118853632	85078016	32497752	24992
741	52.066771	118853632	85078016	37864208	24992
742	53.042382	118853632	85078016	43870248	24992
743	54.248469	118853632	85078016	50633824	24992
744	55.66744	118853632	85078016	58159128	24992
745	60.406551	119123968	85078016	54286936	24992
746	77.247219	123449344	89272320	63227912	24992
747	66.616674	122761216	88748032	28589640	24992
748	62.380064	122761216	88748032	39057816	24992
749	64.491975	122761216	88748032	38145048	24992
750	62.560232	122761216	88748032	50118720	24992
751	66.668365	122761216	88748032	50713704	24992
752	65.787894	122761216	88748032	64197992	24992
753	70.566576	124923904	90845184	66281008	24992
754	92.446495	124092416	91893760	35410800	24992
755	72.375716	125980672	91893760	38213256	24992
756	72.577863	125980672	91893760	42533376	24992
757	73.323519	125980672	91893760	47603936	24992
758	74.636115	125980672	91893760	53526856	24992
759	75.908768	125980672	91893760	60117696	24992
760	100.860578	123867136	91893760	19889344	24992
761	79.238916	125755392	91893760	27183784	24992
762	80.040066	125755392	91893760	36060824	24992
763	80.280999	125755392	91893760	45721584	24992
764	82.395135	125755392	91893760	56073160	24992
765	90.056861	126566400	92418048	55145728	24992
766	104.635659	123428864	89272320	36652704	24992
767	88.14072	123428864	89272320	37319032	24992
768	87.356345	123428864	89272320	50803776	24992
769	91.663158	123428864	89272320	52903104	24992
770	89.68346	123428864	89272320	67966256	24992
771	117.39202	124243968	90320896	23336680	24992
772	91.581668	124243968	90320896	39987304	24992
773	96.4745	124243968	90320896	45143016	24992
774	97.492631	124243968	90320896	51265656	24992
775	103.737686	125054976	90845184	58119032	24992
776	121.689769	120774656	86650880	35863776	24992
777	100.334432	120774656	86650880	44148480	24992
778	103.334415	120774656	86650880	53198328	24992
779	103.818064	121315328	87175168	63017960	24992
780	130.536246	126324736	94515200	26732936	24992
781	106.877268	128212992	94515200	37188568	24992
782	107.227083	128212992	94515200	49368840	24992
783	110.419837	128212992	94515200	50196520	24992
784	114.79073	128753664	95039488	63963952	24992
785	132.313793	122363904	88223744	34578104	24992
786	113.567778	122363904	88223744	49835776	24992
787	115.859858	122363904	88223744	53560520	24992
788	114.867714	125607936	91369472	70559680	24992
789	145.591438	127549440	93466624	25642104	24992
790	116.299349	127549440	93466624	44041680	24992
791	121.968488	127549440	93466624	51155256	24992
792	129.88582	128360448	94515200	58863176	24992
793	145.235344	119144448	85078016	39210688	24992
794	123.945047	119144448	85078016	48694352	24992
795	125.498587	120766464	86650880	58847624	24992
796	134.02192	131309568	97660928	69770744	24992
797	150.479264	128745472	94515200	34903280	24992
798	130.76336	128745472	94515200	47543856	24992
799	132.920447	128745472	94515200	61008984	24992
800	158.878822	123424768	91369472	27772752	24992
801	132.804126	125313024	91369472	41802120	24992
802	5.231479	125313024	91369472	45958584	24992
803	3.79462	125313024	91369472	48374120	24992
804	5.08431	125313024	91369472	51583112	24992
805	6.450996	125313024	91369472	55604424	24992
806	9.672606	125313024	91369472	46515816	24992
807	8.802875	125313024	91369472	52133488	24992
808	10.09858	125313024	91369472	58556072	24992
809	12.150566	125313024	91369472	49954648	24992
810	12.773456	125313024	91369472	58020416	24992
811	14.426581	125313024	91369472	51042792	24992
812	15.513046	125313024	91369472	60709888	24992
813	16.953353	125313024	91369472	54983760	24992
814	19.125851	125313024	91369472	50902104	24992
815	20.208613	125313024	91369472	48250344	24992
816	20.92109	125313024	91369472	61156096	24992
817	22.282724	125313024	91369472	58546592	24992
818	23.898007	125313024	91369472	57219472	24992
819	25.288504	125313024	91369472	56859160	24992
820	26.483793	125313024	91369472	57414128	24992
821	27.828106	125313024	91369472	58699408	24992
822	28.976886	125313024	91369472	60582976	24992
823	32.086949	125313024	91369472	49257824	24992
824	34.25726	125313024	91369472	56812304	24992
825	32.983107	125313024	91369472	61922432	24992
826	36.174577	125313024	91369472	53552144	24992
827	37.685373	125313024	91369472	63454624	24992
828	39.129567	126124032	91893760	57194064	24992
829	40.287643	126124032	91893760	68771328	24992
830	46.162202	126124032	91893760	63811312	24992
831	61.827629	121630720	89796608	30602256	24992
832	46.490609	123518976	89796608	31152016	24992
833	47.959366	123518976	89796608	33701792	24992
834	48.923429	123518976	89796608	37074632	24992
835	51.121446	123518976	89796608	41217760	24992
836	52.028516	123518976	89796608	46185184	24992
837	53.561591	123518976	89796608	51962584	24992
838	54.200661	123789312	89796608	58645872	24992
839	67.409789	124600320	90320896	53965936	24992
840	69.374956	120786944	86650880	29579416	24992
841	60.394104	120786944	86650880	38794496	24992
842	62.094332	120786944	86650880	36747080	24992
843	60.860021	120786944	86650880	47584704	24992
844	64.570355	120786944	86650880	47252880	24992
845	63.529306	120786944	86650880	59746136	24992
846	73.013169	125112320	91893760	61103760	24992
847	86.102505	121401344	87699456	31217056	24992
848	70.526876	121401344	87699456	34210520	24992
849	72.001851	121401344	87699456	38077752	24992
850	73.008776	121401344	87699456	42799432	24992
851	74.415344	121401344	87699456	48326192	24992
852	80.106669	121942016	87699456	54763344	24992
853	95.93718	121331712	87699456	30004656	24992
854	78.830005	121331712	87699456	38137120	24992
855	80.242526	121331712	87699456	47132928	24992
856	80.858722	121331712	87699456	56985952	24992
857	86.163864	121872384	87699456	55581496	24992
858	89.866567	126197760	92418048	67060288	24992
859	106.220349	127180800	93466624	33329008	24992
860	89.116673	127180800	93466624	34503712	24992
861	88.416658	127180800	93466624	48593296	24992
862	93.293692	127180800	93466624	51563432	24992
863	92.145505	127180800	93466624	67381048	24992
864	119.178533	122224640	88223744	39230552	24992
865	96.004902	122494976	88223744	44687312	24992
866	97.667263	122494976	88223744	51103832	24992
867	99.650998	122494976	88223744	58320704	24992
868	102.449894	127631360	93466624	66354304	24992
869	127.84954	130142208	96088064	40869768	24992
870	105.880018	130142208	96088064	38655848	24992
871	103.608252	130142208	96088064	49390320	24992
872	105.373736	130142208	96088064	61077672	24992
873	114.06138	130953216	97136640	73578096	24992
874	129.538035	125472768	91369472	37829888	24992
875	115.343626	125472768	91369472	39890744	24992
876	110.955464	125472768	91369472	55077512	24992
877	115.147995	126554112	92418048	58904352	24992
878	140.459894	129646592	95563776	43597888	24992
879	117.492023	129646592	95563776	49256256	24992
880	118.807647	129646592	95563776	55659136	24992
881	119.952684	130187264	96088064	63135712	24992
882	146.373881	130265088	98185216	33190344	24992
883	123.210905	132153344	98185216	41056472	24992
884	124.280086	132153344	98185216	51111352	24992
885	126.080157	132153344	98185216	61961456	24992
886	152.33582	123953152	89796608	26442200	24992
887	128.571585	123953152	89796608	39066776	24992
888	129.764419	123953152	89796608	52747720	24992
889	155.611204	118538240	86650880	24132976	24992
890	134.954845	120426496	86650880	39368704	24992
891	134.534071	120426496	86650880	55586568	24992
892	143.216138	125022208	90845184	60588776	24992
893	168.913781	129605632	95563776	36049976	24992
894	138.34688	129605632	95563776	55152376	24992
895	144.092927	129605632	95563776	62734872	24992
896	151.170808	139067392	105000960	71316376	24992
897	169.423089	132276224	98185216	42886080	24992
898	147.247417	132276224	98185216	53194072	24992
899	149.228063	132276224	98185216	64513448	24992
900	174.011872	127729664	95563776	37531280	24992
901	151.588599	129617920	95563776	49316792	24992
902	5.788048	129617920	95563776	51863264	24992
903	4.440678	129617920	95563776	54600112	24992
904	6.092782	129617920	95563776	58254864	24992
905	7.407269	129617920	95563776	62812624	24992
906	10.108099	129617920	95563776	54085824	24992
907	10.088937	129617920	95563776	60498152	24992
908	12.262844	129617920	95563776	52299416	24992
909	13.216926	129617920	95563776	60522872	24992
910	15.166876	129617920	95563776	54150160	24992
911	15.986327	129617920	95563776	64214248	24992
912	17.606605	129617920	95563776	59149136	24992
913	19.712048	129617920	95563776	55662664	24992
914	21.453845	129617920	95563776	53661480	24992
915	22.576724	129617920	95563776	52891448	24992
916	24.471921	129617920	95563776	53180392	24992
917	25.780945	129617920	95563776	54378160	24992
918	27.318027	129617920	95563776	56350496	24992
919	28.779679	129617920	95563776	58907120	24992
920	29.854401	129617920	95563776	62033752	24992
921	30.858608	129617920	95563776	65541456	24992
922	33.702981	129617920	95563776	55617088	24992
923	34.219356	129617920	95563776	62005904	24992
924	37.089751	129617920	95563776	55030720	24992
925	38.611056	129617920	95563776	66022160	24992
926	40.375748	129617920	95563776	60748480	24992
927	48.354172	129617920	95563776	61439648	24992
928	61.798967	126124032	93990912	26557024	24992
929	47.707894	128012288	93990912	27747192	24992
930	48.959148	128012288	93990912	30924736	24992
931	50.240413	128012288	93990912	35166152	24992
932	51.441922	128012288	93990912	40285016	24992
933	53.45488	128012288	93990912	46326584	24992
934	55.258169	128012288	93990912	53383536	24992
935	56.735581	128012288	93990912	61428536	24992
936	74.722306	130174976	96088064	58152832	24992
937	69.406984	121704448	87699456	22272088	24992
938	60.329078	121704448	87699456	33044792	24992
939	65.180814	121704448	87699456	32430736	24992
940	63.419392	121704448	87699456	45092424	24992
941	68.324066	121704448	87699456	46405448	24992
942	67.787257	121704448	87699456	60915120	24992
943	94.046632	116359168	84553728	20198240	24992
944	69.226551	118247424	84553728	36052920	24992
945	73.697358	118247424	84553728	41172080	24992
946	75.478516	118247424	84553728	47271888	24992
947	75.646658	118247424	84553728	54335976	24992
948	79.753738	118788096	84553728	50086504	24992
949	104.004059	118673408	86650880	29649088	24992
950	83.447437	120832000	86650880	39367000	24992
951	82.932677	120832000	86650880	50134584	24992
952	86.571886	120832000	86650880	49729984	24992
953	86.529074	124076032	90320896	62463264	24992
954	90.929784	132456448	99758080	63910104	24992
955	106.528038	117764096	84029440	26452040	24992
956	91.937685	117764096	84029440	30104008	24992
957	91.012912	117764096	84029440	46745048	24992
958	95.026449	117764096	84029440	52064288	24992
959	102.638913	118845440	84553728	58371232	24992
960	118.860135	119033856	85078016	36723896	24992
961	99.793346	119033856	85078016	44954136	24992
962	101.75961	119033856	85078016	54154320	24992
963	102.815552	120655872	86650880	64342912	24992
964	128.736261	121819136	89796608	28309720	24992
965	105.531894	123707392	89796608	39531720	24992
966	109.81494	123707392	89796608	40459784	24992
967	108.61589	123707392	89796608	54481680	24992
968	116.644002	124518400	90320896	69372952	24992
969	132.776233	124911616	90845184	40796464	24992
970	118.283025	124911616	90845184	45536176	24992
971	117.147574	124911616	90845184	51221832	24992
972	118.352971	127074304	93466624	70097632	24992
973	149.806377	128167936	94515200	32504464	24992
974	119.557237	128167936	94515200	53470704	24992
975	123.130555	128167936	94515200	63149088	24992
976	126.3064	129789952	95563776	73639440	24992
977	149.30729	126566400	92418048	32127304	24992
978	129.157962	126566400	92418048	44634488	24992
979	134.814545	126566400	92418048	46158776	24992
980	153.464261	118992896	87175168	30299480	24992
981	133.304265	120881152	87175168	45477816	24992
982	136.942665	120881152	87175168	49913328	24992
983	137.659904	123854848	89796608	67245120	24992
984	167.125345	127090688	92942336	43186816	24992
985	142.303235	127090688	92942336	50416368	24992
986	139.945271	127090688	92942336	70798920	24992
987	175.230209	125026304	92942336	30006912	24992
988	146.850907	126914560	92942336	39201360	24992
989	149.588681	126914560	92942336	50479616	24992
990	155.095906	129617920	95563776	62512520	24992
991	174.639641	126496768	92418048	43739560	24992
992	152.473509	126496768	92418048	57769016	24992
993	157.078114	130011136	96088064	72919648	24992
994	181.857914	126046208	91893760	35422840	24992
995	160.467131	126046208	91893760	40340312	24992
996	158.632377	126046208	91893760	58575416	24992
997	183.614085	123453440	89272320	31556616	24992
998	163.030051	123453440	89272320	51635752	24992
999	171.428285	124264448	90320896	60523040	24992
1000	190.822792	119283712	85078016	43550104	24992
x	Duration	RSS	HeapTotal	HeapUsed	External
0	NA	106553344	71446528	12295112	24992
1	0.26475	106553344	71446528	12347024	24992
2	0.191032	106553344	71446528	12423792	24992
3	0.460539	106553344	71446528	12527688	24992
4	0.271385	106553344	71446528	12660224	24992
5	0.324758	106553344	71446528	12822952	24992
6	0.360967	106553344	71446528	13016248	24992
7	0.413247	106553344	71446528	13241120	24992
8	0.489395	106553344	71446528	13502152	24992
9	0.530059	106553344	71446528	13794088	24992
10	0.5588	106553344	71446528	14121144	24992
11	0.614829	106553344	71446528	14484296	24992
12	0.673522	106553344	71446528	14884472	24992
13	0.742401	106553344	71446528	15322672	24992
14	0.798031	106553344	71446528	15799888	24992
15	1.071643	106553344	71446528	16317128	24992
16	1.095834	106553344	71446528	16875232	24992
17	1.024376	106553344	71446528	17482480	24992
18	1.123438	106553344	71446528	18127296	24992
19	1.486998	106553344	71446528	18817264	24992
20	1.205953	106553344	71446528	19551864	24992
21	1.318024	106553344	71446528	20333096	24992
22	1.299872	106553344	71446528	21159152	24992
23	1.37564	106553344	71446528	22033280	24992
24	1.652198	106553344	71446528	22957488	24992
25	1.525722	106553344	71446528	23932800	24992
26	1.698863	106553344	71446528	24960816	24992
27	1.680358	106553344	71446528	26041400	24992
28	1.751561	106553344	71446528	27175824	24992
29	2.046667	106553344	71446528	28365192	24992
30	2.773628	106553344	71446528	13347240	24992
31	2.019151	106553344	71446528	14649560	24992
32	3.028573	106553344	71446528	16015344	24992
33	2.620766	106553344	71446528	17443656	24992
34	2.307227	106553344	71446528	18937984	24992
35	2.716331	106553344	71446528	20485136	24992
36	3.216949	106553344	71446528	22097224	24992
37	2.503008	106553344	71446528	23768288	24992
38	2.617167	106553344	71446528	25500776	24992
39	2.842231	106553344	71446528	27298160	24992
40	2.766003	106553344	71446528	29161504	24992
41	4.860683	106553344	71446528	14905992	24992
42	2.99626	106553344	71446528	16903344	24992
43	3.099691	106553344	71446528	18970848	24992
44	3.148079	106553344	71446528	21106296	24992
45	3.277191	106553344	71446528	23314416	24992
46	3.553584	106553344	71446528	25593456	24992
47	3.467782	106553344	71446528	27945744	24992
48	5.420223	106553344	71446528	14716544	24992
49	4.071145	106553344	71446528	17218320	24992
50	4.018102	106553344	71446528	19798360	24992
51	3.957398	106553344	71446528	22458048	24992
52	4.233841	106553344	71446528	25198024	24992
53	4.208826	106553344	71446528	28018856	24992
54	6.49608	106553344	71446528	15710016	24992
55	4.660929	106553344	71446528	18698296	24992
56	4.527122	106553344	71446528	21768512	24992
57	4.815447	106553344	71446528	24923736	24992
58	4.830514	106553344	71446528	28165328	24992
59	7.678394	106553344	71446528	16197768	24992
60	5.462003	106553344	71446528	19613952	24992
61	5.785963	106553344	71446528	23119224	24992
62	5.736544	106553344	71446528	26714368	24992
63	5.653382	106553344	71446528	30400312	24992
64	7.83426	106553344	71446528	18486072	24992
65	6.380895	106553344	71446528	22364896	24992
66	5.89172	106553344	71446528	26337336	24992
67	6.539122	106553344	71446528	30404784	24992
68	8.133039	106553344	71446528	18884224	24992
69	7.076772	106553344	71446528	23152488	24992
70	7.391765	106553344	71446528	27519672	24992
71	7.132372	106553344	71446528	31976184	24992
72	8.542918	106553344	71446528	20709496	24992
73	7.543106	106553344	71446528	25367280	24992
74	7.062628	106553344	71446528	30126176	24992
75	9.419633	106553344	71446528	19415640	24992
76	8.077878	106553344	71446528	24382712	24992
77	7.78144	106553344	71446528	29451752	24992
78	9.792448	106553344	71446528	19208208	24992
79	8.106578	106553344	71446528	24490784	24992
80	8.201641	106553344	71446528	29879320	24992
81	10.461565	106553344	71446528	19937776	24992
82	8.383687	106553344	71446528	25544232	24992
83	8.707978	106553344	71446528	31262672	24992
84	12.148304	106553344	71446528	21525352	24992
85	9.088213	106553344	71446528	27468688	24992
86	9.022056	106553344	71446528	33526504	24992
87	11.569958	106553344	71446528	23856256	24992
88	9.42834	106553344	71446528	30149432	24992
89	11.964554	106553344	71446528	21217160	24992
90	9.920682	106553344	71446528	27743480	24992
91	10.0881	106553344	71446528	34390536	24992
92	12.146242	106553344	71446528	25240032	24992
93	10.537243	106553344	71446528	32128352	24992
94	12.909091	106553344	71446528	23629424	24992
95	11.351084	106553344	71446528	30763360	24992
96	13.424588	106553344	71446528	22706752	24992
97	11.37072	106553344	71446528	30091688	24992
98	13.958329	106553344	71446528	22472224	24992
99	11.526069	106553344	71446528	30107528	24992
100	14.524682	106553344	71446528	22805136	24992
101	12.097963	106553344	71446528	30697432	24992
102	0.47713	106553344	71446528	23480464	24992
103	0.675635	106553344	71446528	23884208	24992
104	0.909862	106553344	71446528	24423952	24992
105	1.026327	106553344	71446528	25100896	24992
106	1.223202	106553344	71446528	25916424	24992
107	1.603219	106553344	71446528	26874144	24992
108	1.652375	106553344	71446528	27968728	24992
109	1.832263	106553344	71446528	29204224	24992
110	2.221558	106553344	71446528	30582752	24992
111	2.466801	106553344	71446528	32104096	24992
112	2.467264	106553344	71446528	33769408	24992
113	2.91567	106553344	71446528	35579680	24992
114	3.130112	106553344	71446528	37535856	24992
115	4.913022	106553344	71446528	23609424	24992
116	3.333115	106553344	71446528	25860648	24992
117	3.767055	106553344	71446528	28261400	24992
118	3.785883	106553344	71446528	30812672	24992
119	3.989321	106553344	71446528	33514680	24992
120	4.2231	106553344	71446528	36369000	24992
121	6.361277	106553344	71446528	23467192	24992
122	4.875365	106553344	71446528	26627568	24992
123	4.902492	106553344	71446528	29943704	24992
124	5.118794	106553344	71446528	33414376	24992
125	5.553037	106553344	71446528	37041568	24992
126	7.465606	106553344	71446528	24827312	24992
127	5.841895	106553344	71446528	28772456	24992
128	6.444089	106553344	71446528	32880352	24992
129	6.306754	106553344	71446528	37143664	24992
130	8.630603	106553344	71446528	25575344	24992
131	6.804186	106553344	71446528	30162752	24992
132	7.305914	106553344	71446528	34916880	24992
133	9.573641	106553344	71446528	24231328	24992
134	7.600165	106553344	71446528	29322832	24992
135	7.849846	106553344	71446528	34577608	24992
136	10.414646	106553344	71446528	24461032	24992
137	8.510638	106553344	71446528	30054384	24992
138	8.795179	106553344	71446528	35816208	24992
139	11.402807	106553344	71446528	26051344	24992
140	9.283185	106553344	71446528	32152168	24992
141	9.801159	106553344	71446528	38426656	24992
142	12.030744	106553344	71446528	28776152	24992
143	10.106393	106553344	71446528	35400280	24992
144	12.632498	106553344	71446528	26626552	24992
145	10.473545	106553344	71446528	33610080	24992
146	13.267569	106553344	71446528	25504000	24992
147	11.127932	106553344	71446528	32847248	24992
148	13.963697	106553344	71446528	25253664	24992
149	12.323789	106553344	71446528	32957376	24992
150	14.78016	106553344	71446528	25754912	24992
151	12.482484	106553344	71446528	33822864	24992
152	15.225277	106553344	71446528	26869488	24992
153	12.789059	106553344	71446528	35317424	24992
154	15.496348	106553344	71446528	28498472	24992
155	13.20876	106553344	71446528	37313416	24992
156	15.789512	106553344	71446528	30584832	24992
157	13.758055	106553344	71446528	39776480	24992
158	16.349153	106553344	71446528	33038064	24992
159	17.425476	106553344	71446528	27610632	24992
160	15.935206	106553344	71446528	37383944	24992
161	18.015166	106553344	71446528	31631456	24992
162	18.905688	106553344	71446528	27115784	24992
163	15.58612	106553344	71446528	37466080	24992
164	18.948713	106553344	71446528	32341792	24992
165	19.420939	106553344	71446528	28350296	24992
166	17.024151	106553344	71446528	39302680	24992
167	19.717146	106553344	71446528	34517432	24992
168	20.150531	106553344	71446528	30798448	24992
169	18.231714	106553344	71446528	42352464	24992
170	19.721519	106553344	71446528	37803496	24992
171	21.157388	106553344	71446528	34188728	24992
172	22.17903	106553344	71446528	31409336	24992
173	22.368294	106553344	71446528	29310488	24992
174	19.132944	106553344	71446528	41884144	24992
175	21.929335	106553344	71446528	38480808	24992
176	22.961852	106553344	71446528	35892736	24992
177	23.206381	106553344	71446528	33923512	24992
178	23.838114	106553344	71446528	32529304	24992
179	24.269649	106553344	71446528	31625024	24992
180	25.530214	106553344	71446528	31095144	24992
181	25.840237	106553344	71446528	30933712	24992
182	26.068444	106553344	71446528	31027304	24992
183	26.208545	106553344	71446528	31355784	24992
184	26.948857	106553344	71446528	31874480	24992
185	26.62171	106553344	71446528	32551320	24992
186	27.491055	106553344	71446528	33362032	24992
187	27.373602	106553344	71446528	34241240	24992
188	28.005735	106553344	71446528	35211120	24992
189	28.112887	106553344	71446528	36263688	24992
190	28.435568	106553344	71446528	37359152	24992
191	28.099716	106553344	71446528	38537408	24992
192	28.53992	106553344	71446528	39760424	24992
193	28.835482	106553344	71446528	40999184	24992
194	29.523527	106553344	71446528	42292272	24992
195	29.50801	106553344	71446528	43629384	24992
196	29.466693	106553344	71446528	44981040	24992
197	30.091645	106553344	71446528	46363120	24992
198	34.429138	106553344	71446528	34222160	24992
199	32.20255	106553344	71446528	37998376	24992
200	31.905037	106553344	71446528	41376168	24992
201	32.381518	106553344	71446528	44424680	24992
202	0.782068	106553344	71446528	47186192	24992
203	1.115232	106553344	71446528	47887928	24992
204	3.896615	106553344	71446528	32466704	24992
205	1.799438	106553344	71446528	33640264	24992
206	2.212788	106553344	71446528	35051744	24992
207	2.599434	106553344	71446528	36709936	24992
208	3.059475	106553344	71446528	38615680	24992
209	3.365204	106553344	71446528	40770224	24992
210	3.906382	106553344	71446528	43175128	24992
211	4.223078	106553344	71446528	45830624	24992
212	7.15125	106553344	71446528	32718080	24992
213	5.050809	106553344	71446528	35883296	24992
214	5.269705	106553344	71446528	39296112	24992
215	5.836185	106553344	71446528	42968672	24992
216	6.202227	106553344	71446528	46892752	24992
217	9.755662	106553344	71446528	34961200	24992
218	7.015872	106553344	71446528	39407560	24992
219	7.438709	106553344	71446528	44104496	24992
220	11.044068	106553344	71446528	33419000	24992
221	8.307516	106553344	71446528	38643328	24992
222	8.577967	106553344	71446528	44132520	24992
223	12.418618	106553344	71446528	34220848	24992
224	9.511481	106553344	71446528	40224392	24992
225	9.892497	106553344	71446528	46492344	24992
226	13.03084	106553344	71446528	36999752	24992
227	11.158072	106553344	71446528	43798752	24992
228	14.90277	106553344	71446528	35291720	24992
229	11.893963	106553344	71446528	42635552	24992
230	15.38334	106553344	71446528	34899632	24992
231	12.675718	106553344	71446528	42791008	24992
232	16.177024	106553344	71446528	35595016	24992
233	13.479554	106553344	71446528	44046448	24992
234	17.048003	106553344	71446528	37194928	24992
235	14.388165	106553344	71446528	46201256	24992
236	18.122882	106553344	71446528	39558368	24992
237	14.897081	106553344	71446528	49113128	24992
238	18.190041	106553344	71446528	42590360	24992
239	19.513658	106553344	71446528	37428040	24992
240	16.418748	106553344	71446528	47820240	24992
241	20.039427	106553344	71446528	42374304	24992
242	21.126217	106553344	71446528	38148776	24992
243	17.951236	106553344	71446528	49389512	24992
244	21.114066	106553344	71446528	44566240	24992
245	22.410709	106553344	71446528	40856472	24992
246	23.341612	106553344	71446528	38065400	24992
247	23.871883	106553344	71446528	36044192	24992
248	19.994172	106553344	71446528	48723192	24992
249	23.124158	106553344	71446528	45501560	24992
250	24.649273	106553344	71446528	43136504	24992
251	25.412928	106553344	71446528	41450528	24992
252	26.127983	106553344	71446528	40366832	24992
253	26.93487	106553344	71446528	39807376	24992
254	27.622435	106553344	71446528	39632360	24992
255	27.823303	106553344	71446528	39807176	24992
256	28.050123	106553344	71446528	40284784	24992
257	28.91195	106553344	71446528	40996320	24992
258	28.98365	106553344	71446528	41893584	24992
259	30.48592	106553344	71446528	42972528	24992
260	30.074933	106553344	71446528	44143536	24992
261	30.487495	106823680	71970816	45451632	24992
262	30.73536	106823680	71970816	46850456	24992
263	30.775689	106823680	71970816	48329656	24992
264	31.363217	107094016	71970816	49900088	24992
265	31.737534	107094016	71970816	51485192	24992
266	36.927913	107094016	72495104	39578360	24992
267	34.07558	107364352	72495104	43631264	24992
268	33.971752	107364352	72495104	47321392	24992
269	33.964801	107634688	72495104	50671160	24992
270	39.204494	107634688	72495104	40357136	24992
271	40.113306	110067712	75116544	48533304	24992
272	40.695222	110338048	75640832	53407688	24992
273	51.880993	109035520	74067968	21190472	24992
274	36.954168	109035520	74067968	29570376	24992
275	36.390332	109035520	74067968	21736544	24992
276	38.378782	109035520	74067968	31459848	24992
277	37.881028	109035520	74067968	24367800	24992
278	38.480217	109846528	74592256	34645200	24992
279	39.429877	109846528	74592256	28130104	24992
280	39.005998	109846528	74592256	39061352	24992
281	40.08924	109846528	74592256	32983864	24992
282	41.898366	109846528	74592256	44563480	24992
283	40.740293	109846528	74592256	38768344	24992
284	46.042688	109846528	74592256	39219064	24992
285	43.56733	109846528	74592256	51527608	24992
286	48.255648	109846528	74592256	46722128	24992
287	65.276766	112549888	79835136	33285424	24992
288	46.803073	114442240	79835136	33270280	24992
289	43.700334	114712576	79835136	29499320	24992
290	49.50925	114712576	79835136	31812048	24992
291	49.24637	115523584	80359424	34291288	24992
292	45.751103	115523584	80359424	48892248	24992
293	45.713514	115523584	80359424	45734184	24992
294	46.802297	115523584	80359424	43747520	24992
295	51.225337	115523584	80359424	47731720	24992
296	53.536865	115523584	80359424	51868280	24992
297	55.170472	119308288	84553728	56397696	24992
298	74.057899	124174336	89272320	61250792	24992
299	58.610523	120479744	85602304	35142000	24992
300	55.147992	120479744	85602304	40717136	24992
301	55.609784	120479744	85602304	46627840	24992
302	1.096698	120479744	85602304	46325816	24992
303	2.171184	120479744	85602304	31119232	24992
304	2.15172	120479744	85602304	32490936	24992
305	2.716313	120479744	85602304	34208952	24992
306	3.386171	120479744	85602304	36272592	24992
307	3.729729	120479744	85602304	38682968	24992
308	4.190307	120479744	85602304	41444144	24992
309	4.983869	120479744	85602304	44551560	24992
310	6.174525	120479744	85602304	32000248	24992
311	5.842602	120479744	85602304	35810360	24992
312	6.510285	120479744	85602304	39971536	24992
313	7.226177	120479744	85602304	44485672	24992
314	8.657755	120479744	85602304	33404064	24992
315	8.096841	120479744	85602304	38637752	24992
316	8.832652	120479744	85602304	44218608	24992
317	10.476642	120479744	85602304	34272824	24992
318	9.997681	120479744	85602304	40569984	24992
319	11.227895	120479744	85602304	30841584	24992
320	10.901141	120479744	85602304	37855304	24992
321	11.719099	120479744	85602304	45235248	24992
322	13.011082	120479744	85602304	36930720	24992
323	12.719805	120479744	85602304	45039944	24992
324	14.347754	120479744	85602304	37509880	24992
325	14.021883	120479744	85602304	46337960	24992
326	15.103725	120479744	85602304	39328184	24992
327	16.573989	120479744	85602304	33912984	24992
328	15.887082	120479744	85602304	43841648	24992
329	17.445471	120479744	85602304	38359968	24992
330	18.407783	120479744	85602304	34272240	24992
331	17.510973	120479744	85602304	45308096	24992
332	19.517587	120479744	85602304	40722424	24992
333	20.188332	120479744	85602304	37318656	24992
334	21.348047	120479744	85602304	34877800	24992
335	19.901478	120479744	85602304	47422016	24992
336	20.937178	120479744	85602304	43994960	24992
337	22.455904	120479744	85602304	41580152	24992
338	23.428227	120479744	85602304	39948464	24992
339	24.501722	120479744	85602304	38993960	24992
340	24.922823	120479744	85602304	38608400	24992
341	26.046086	120479744	85602304	38695280	24992
342	26.191203	120479744	85602304	39158504	24992
343	27.094753	120479744	85602304	39934560	24992
344	27.444444	120479744	85602304	40951648	24992
345	28.019012	120479744	85602304	42186704	24992
346	28.355776	120479744	85602304	43608552	24992
347	28.87566	120479744	85602304	45149448	24992
348	29.677237	120479744	85602304	46849184	24992
349	29.826374	120479744	85602304	48649768	24992
350	33.306105	120479744	85602304	37065072	24992
351	32.438878	120479744	85602304	41406440	24992
352	32.341368	120479744	85602304	45410448	24992
353	32.615193	120479744	85602304	49099344	24992
354	35.150218	120479744	85602304	39054096	24992
355	34.641224	120750080	85602304	44667672	24992
356	34.990366	120750080	85602304	49692784	24992
357	37.664788	120750080	85602304	40758024	24992
358	36.760815	120750080	85602304	47330472	24992
359	39.940145	121020416	86126592	39989328	24992
360	40.231176	121290752	86126592	50850928	24992
361	40.892262	121290752	86126592	44679776	24992
362	41.555255	121290752	86126592	56355448	24992
363	42.614139	121290752	86126592	50643424	24992
364	44.073973	121290752	86126592	46736912	24992
365	43.558139	121290752	86126592	59472408	24992
366	44.264865	121290752	86126592	55076576	24992
367	50.526944	122642432	87699456	57074544	24992
368	57.918982	127508480	92942336	59283680	24992
369	67.498685	121221120	88223744	29058736	24992
370	50.124365	123109376	88223744	30722832	24992
371	51.756575	123379712	88223744	34050016	24992
372	51.900159	123379712	88223744	37863128	24992
373	53.079528	123920384	88748032	42045904	24992
374	53.610876	123920384	88748032	46701216	24992
375	53.696898	123920384	88748032	51733136	24992
376	54.955559	123920384	88748032	57163312	24992
377	79.838872	126623744	91893760	63007000	24992
378	57.344077	125038592	90320896	36907616	24992
379	61.267422	125038592	90320896	32164336	24992
380	57.147552	125038592	90320896	39259616	24992
381	58.144031	125038592	90320896	46776160	24992
382	58.786513	125579264	90320896	54747312	24992
383	59.637203	125579264	90320896	63085304	24992
384	64.463735	126119936	91369472	60370440	24992
385	89.297854	125341696	92942336	25608552	24992
386	62.060093	128040960	92942336	34161104	24992
387	61.544769	128040960	92942336	44230088	24992
388	67.235714	128040960	92942336	43174712	24992
389	62.506249	128040960	92942336	54168320	24992
390	68.370392	128040960	92942336	53982800	24992
391	64.264628	129662976	95039488	65813072	24992
392	96.116999	123326464	90320896	18916472	24992
393	67.968602	125485056	90320896	30265200	24992
394	71.389115	125485056	90320896	31968112	24992
395	67.126436	125485056	90320896	45667792	24992
396	72.346946	125485056	90320896	48222040	24992
397	73.257784	125485056	90320896	51286096	24992
398	73.093688	127377408	92418048	66280032	24992
399	91.345512	124370944	89272320	35986424	24992
400	74.577129	124370944	89272320	40253920	24992
401	75.803868	124370944	89272320	44819840	24992
402	1.436121	124370944	89272320	50146200	24992
403	2.280259	124370944	89272320	51479712	24992
404	2.811464	124370944	89272320	53276896	24992
405	3.469139	124370944	89272320	55503480	24992
406	4.225682	124370944	89272320	58178968	24992
407	7.804713	124370944	89272320	48099312	24992
408	5.626978	124370944	89272320	51683184	24992
409	7.13863	124370944	89272320	55740496	24992
410	7.024254	124370944	89272320	60222168	24992
411	8.96764	124370944	89272320	49596840	24992
412	8.446236	124370944	89272320	54990064	24992
413	9.083547	124370944	89272320	60830640	24992
414	10.350706	124370944	89272320	50847144	24992
415	10.527903	124370944	89272320	57599312	24992
416	12.211631	124370944	89272320	49107224	24992
417	12.296815	124370944	89272320	56795192	24992
418	13.761022	124370944	89272320	49418536	24992
419	13.634637	124370944	89272320	58067984	24992
420	15.375148	124370944	89272320	51412008	24992
421	14.828318	124370944	89272320	61016072	24992
422	16.273298	124370944	89272320	54793856	24992
423	18.068117	124370944	89272320	50171368	24992
424	18.032313	124370944	89272320	61214160	24992
425	18.804093	124370944	89272320	56433208	24992
426	20.0818	124370944	89272320	53001464	24992
427	21.069955	124370944	89272320	50634192	24992
428	22.082316	124370944	89272320	49156008	24992
429	22.842563	124370944	89272320	48459192	24992
430	23.745447	124370944	89272320	48344272	24992
431	24.562814	124370944	89272320	48758672	24992
432	24.918845	124370944	89272320	49590032	24992
433	26.437622	124370944	89272320	50811120	24992
434	26.8239	124370944	89272320	52255288	24992
435	28.285593	124370944	89272320	53959448	24992
436	27.916278	124370944	89272320	55836016	24992
437	28.47448	124370944	89272320	57896992	24992
438	28.794141	124370944	89272320	60130224	24992
439	29.538782	124370944	89272320	62465488	24992
440	31.785573	124370944	89272320	51321896	24992
441	31.817592	124370944	89272320	56200864	24992
442	32.426802	124370944	89272320	60767272	24992
443	35.226984	124370944	89272320	51627152	24992
444	36.38967	124370944	89272320	61161008	24992
445	37.552631	124370944	89272320	54203152	24992
446	45.705145	124370944	89272320	64657376	24992
447	54.974991	121655296	87175168	27573576	24992
448	44.680557	121921536	87175168	26443648	24992
449	40.347895	121921536	87175168	38146480	24992
450	39.8675	121921536	87175168	32916544	24992
451	45.89306	121921536	87175168	34209464	24992
452	42.303727	121921536	87175168	47488912	24992
453	42.699013	121921536	87175168	43366656	24992
454	45.313175	121921536	87175168	40768488	24992
455	49.865739	123002880	87699456	44018248	24992
456	50.549871	123002880	87699456	47617280	24992
457	52.264682	123002880	87699456	51676480	24992
458	68.380862	125165568	90320896	56360120	24992
459	64.293155	124977152	89796608	31430024	24992
460	52.701168	124977152	89796608	37103856	24992
461	53.991074	124977152	89796608	43252608	24992
462	55.150453	124977152	89796608	49866752	24992
463	56.25044	124977152	89796608	57057168	24992
464	60.49693	124977152	89796608	53111712	24992
465	56.762508	124977152	89796608	61431784	24992
466	66.191134	129302528	94515200	70236320	24992
467	78.348104	127983616	92942336	31119504	24992
468	64.939286	127983616	92942336	29411408	24992
469	60.889037	127983616	92942336	39811432	24992
470	62.320873	127983616	92942336	50685576	24992
471	66.529285	128524288	93466624	50391808	24992
472	63.235139	128524288	93466624	62423600	24992
473	90.027466	130686976	96088064	63149600	24992
474	69.538299	122941440	88223744	29455352	24992
475	69.754051	122941440	88223744	31418840	24992
476	65.832567	122941440	88223744	45532616	24992
477	72.389079	122941440	88223744	48474768	24992
478	73.772335	123482112	88223744	51879256	24992
479	85.849331	126996480	92418048	55830776	24992
480	82.990776	123969536	89272320	28240232	24992
481	74.246956	123969536	89272320	33274128	24992
482	70.547202	123969536	89272320	50444896	24992
483	76.97499	123969536	89272320	56583488	24992
484	76.987735	124510208	89272320	63212496	24992
485	105.037885	119701504	86650880	25669976	24992
486	80.518429	121589760	86650880	32447952	24992
487	79.649561	121589760	86650880	40889992	24992
488	79.951804	121589760	86650880	49827232	24992
489	81.610486	121860096	86650880	59345784	24992
490	108.219939	121081856	88223744	25936328	24992
491	82.767045	122970112	88223744	35640696	24992
492	83.609648	122970112	88223744	46669480	24992
493	89.052783	122970112	88223744	46581136	24992
494	85.977233	123240448	88223744	58649032	24992
495	118.767014	124321792	89272320	30622536	24992
496	87.311888	124321792	89272320	43971384	24992
497	92.468782	124321792	89272320	46075312	24992
498	89.091907	124321792	89272320	60455344	24992
499	95.221955	129728512	95039488	63622592	24992
500	123.354799	129699840	95039488	33214552	24992
501	93.372094	129699840	95039488	49315416	24992
502	1.746552	129699840	95039488	54603696	24992
503	2.579356	129699840	95039488	56279160	24992
504	3.57127	129699840	95039488	58529736	24992
505	7.535354	129699840	95039488	48771088	24992
506	5.265902	129699840	95039488	52129848	24992
507	6.010882	129699840	95039488	56051704	24992
508	6.858443	129699840	95039488	60545744	24992
509	9.335257	129699840	95039488	50705816	24992
510	8.617924	129699840	95039488	56338304	24992
511	9.482808	129699840	95039488	62537608	24992
512	10.666193	129699840	95039488	52913464	24992
513	11.220044	129699840	95039488	60234432	24992
514	12.86252	129699840	95039488	52146968	24992
515	12.869028	129699840	95039488	60622440	24992
516	14.742172	129699840	95039488	53564848	24992
517	15.917702	129699840	95039488	48358896	24992
518	15.826764	129699840	95039488	58553648	24992
519	17.361603	129699840	95039488	53605472	24992
520	19.062277	129699840	95039488	50155904	24992
521	17.746935	129699840	95039488	62087048	24992
522	19.460316	129699840	95039488	58248120	24992
523	21.280742	129699840	95039488	55646432	24992
524	22.532714	129699840	95039488	54085928	24992
525	23.437571	129699840	95039488	53422640	24992
526	23.990668	129699840	95039488	53448072	24992
527	25.311061	129699840	95039488	54037496	24992
528	26.843247	129699840	95039488	55127528	24992
529	27.05287	129699840	95039488	56585248	24992
530	27.660557	129699840	95039488	58424432	24992
531	28.658684	129699840	95039488	60473792	24992
532	29.193258	129699840	95039488	62783272	24992
533	31.87444	129699840	95039488	51745024	24992
534	31.802645	129699840	95039488	56784784	24992
535	32.477532	129699840	95039488	61513512	24992
536	35.248754	129699840	95039488	52741248	24992
537	38.856434	129699840	95039488	62646568	24992
538	38.286123	129699840	95039488	56089304	24992
539	39.86524	129970176	95039488	67157000	24992
540	39.767959	130240512	95039488	61457392	24992
541	43.361283	130781184	95563776	73769544	24992
542	41.102029	130781184	95563776	68643048	24992
543	43.214085	130781184	95563776	65340848	24992
544	54.951986	135647232	100806656	67707216	24992
545	66.095799	124768256	91893760	31704992	24992
546	49.033008	126656512	91893760	33514984	24992
547	51.521391	126656512	91893760	37430704	24992
548	52.599139	126656512	91893760	41943536	24992
549	52.762423	126656512	91893760	47125000	24992
550	53.102289	126656512	91893760	52866360	24992
551	55.57809	126656512	91893760	59166296	24992
552	59.556846	127197184	92418048	66163000	24992
553	84.714532	123080704	90320896	30662120	24992
554	56.844995	124968960	90320896	37985096	24992
555	63.416072	124968960	90320896	35175832	24992
556	59.030997	124968960	90320896	44641808	24992
557	59.28378	124968960	90320896	54620576	24992
558	65.479192	125509632	90320896	53665176	24992
559	64.246155	125509632	90320896	64907704	24992
560	92.203526	125726720	92942336	33069040	24992
561	67.91009	127614976	92942336	33028304	24992
562	64.468017	127614976	92942336	46149504	24992
563	69.957566	127614976	92942336	48327240	24992
564	70.591403	127614976	92942336	51065136	24992
565	69.325715	128155648	92942336	66059136	24992
566	80.68381	129777664	94515200	70068736	24992
567	96.033224	130785280	95563776	26615880	24992
568	72.343432	130785280	95563776	43445456	24992
569	76.151631	130785280	95563776	49410456	24992
570	76.925995	130785280	95563776	55927000	24992
571	78.084778	130785280	95563776	63104104	24992
572	107.617299	121360384	88223744	25380744	24992
573	79.78104	123248640	88223744	32723312	24992
574	81.304141	123248640	88223744	41712416	24992
575	82.673438	123248640	88223744	51384912	24992
576	87.641469	123248640	88223744	50080000	24992
577	102.335245	125952000	90845184	61109272	24992
578	91.056826	125915136	90845184	39671832	24992
579	90.474559	125915136	90845184	40278480	24992
580	86.409918	125915136	90845184	53159608	24992
581	92.627176	125915136	90845184	55041984	24992
582	115.201087	124366848	91369472	24412000	24992
583	93.80946	126255104	91369472	38210064	24992
584	95.27844	126255104	91369472	42039384	24992
585	92.267448	126255104	91369472	58113320	24992
586	98.380853	126255104	91369472	63208416	24992
587	128.119439	126959616	91893760	38023712	24992
588	98.610095	126959616	91893760	44468280	24992
589	98.967853	126959616	91893760	51541128	24992
590	100.871084	126959616	91893760	59263712	24992
591	122.288197	135610368	100806656	67695624	24992
592	107.506474	132136960	97136640	38969272	24992
593	103.681701	132136960	97136640	48584696	24992
594	103.102292	132136960	97136640	58864456	24992
595	106.822004	132136960	97136640	69845608	24992
596	139.62622	124350464	89272320	36573112	24992
597	109.86223	124350464	89272320	48805416	24992
598	109.619177	124350464	89272320	61701168	24992
599	115.892855	131108864	96088064	63792792	24992
600	139.442259	127213568	92418048	25576616	24992
601	112.19669	127483904	92418048	40814344	24992
602	2.339138	127483904	92418048	45314920	24992
603	3.028016	127483904	92418048	47307944	24992
604	4.064167	127483904	92418048	49974920	24992
605	5.200377	127483904	92418048	53292856	24992
606	6.173089	127483904	92418048	57277448	24992
607	9.301344	127483904	92418048	48019096	24992
608	7.960101	127483904	92418048	53343000	24992
609	9.630016	127483904	92418048	59340632	24992
610	10.487984	127483904	92418048	49719448	24992
611	11.084943	127483904	92418048	57057888	24992
612	12.567073	127483904	92418048	49163408	24992
613	13.37474	127483904	92418048	57875192	24992
614	15.067363	127483904	92418048	51207704	24992
615	16.888295	127483904	92418048	46388368	24992
616	16.367268	127483904	92418048	57100272	24992
617	18.535641	127483904	92418048	52574400	24992
618	19.671806	127483904	92418048	49554712	24992
619	20.913543	127483904	92418048	47742424	24992
620	22.133225	127483904	92418048	46951152	24992
621	24.213022	127483904	92418048	46953648	24992
622	24.822921	127483904	92418048	47656640	24992
623	25.410937	127483904	92418048	48929200	24992
624	26.66389	127483904	92418048	50649712	24992
625	28.22378	127483904	92418048	52784752	24992
626	28.991297	127483904	92418048	55201280	24992
627	29.463184	127483904	92418048	57840680	24992
628	33.022905	127483904	92418048	47571264	24992
629	34.939705	127483904	92418048	55828152	24992
630	32.740023	127483904	92418048	61054872	24992
631	36.023389	127483904	92418048	52865312	24992
632	38.810079	127483904	92418048	63237552	24992
633	47.586051	127754240	92418048	57078376	24992
634	52.235968	120803328	85602304	21550864	24992
635	41.529009	120803328	85602304	33863024	24992
636	41.648325	120803328	85602304	29264632	24992
637	48.123706	120803328	85602304	31457624	24992
638	49.679883	120803328	85602304	34049000	24992
639	48.847909	120803328	85602304	37344264	24992
640	46.516934	120803328	85602304	53003472	24992
641	46.462131	120803328	85602304	51055904	24992
642	47.152708	120803328	85602304	50489080	24992
643	54.547643	120803328	85602304	56812336	24992
644	61.948237	121344000	86126592	63595064	24992
645	73.580961	120754176	85602304	28598848	24992
646	56.581979	120754176	85602304	36816440	24992
647	63.831892	120754176	85602304	34296752	24992
648	59.571657	120754176	85602304	43941840	24992
649	59.741835	120754176	85602304	54192472	24992
650	67.162025	120754176	85602304	53790520	24992
651	100.680918	123998208	89272320	65466216	24992
652	107.588583	123396096	88748032	34678912	24992
653	111.556728	123396096	88748032	36355696	24992
654	76.79338	123396096	88748032	50270688	24992
655	70.744443	123396096	88748032	53286368	24992
656	72.411426	123396096	88748032	57073904	24992
657	81.492784	130154496	95039488	61585712	24992
658	92.423488	129462272	94515200	31541936	24992
659	79.191713	129462272	94515200	37675384	24992
660	76.457356	129462272	94515200	44347128	24992
661	77.807611	129462272	94515200	51831720	24992
662	78.618334	129462272	94515200	60037400	24992
663	86.126808	130273280	95039488	68935408	24992
664	105.2843	127324160	92418048	31027032	24992
665	82.494175	127594496	92418048	41092280	24992
666	83.72318	127594496	92418048	52173496	24992
667	89.907617	127594496	92418048	52204920	24992
668	92.720353	129486848	94515200	64724224	24992
669	114.872052	127664128	92418048	32983400	24992
670	87.378506	127664128	92418048	46889568	24992
671	94.827207	127664128	92418048	49829856	24992
672	90.715169	127664128	92418048	65237296	24992
673	103.414245	130367488	95563776	69815424	24992
674	117.144457	129638400	95039488	39350432	24992
675	98.876502	129638400	95039488	45252200	24992
676	100.065052	129638400	95039488	51967336	24992
677	100.189572	129638400	95039488	59371216	24992
678	123.015875	126705664	93990912	31865368	24992
679	101.74525	128593920	93990912	39466024	24992
680	103.556531	128593920	93990912	49178808	24992
681	103.65833	129134592	93990912	59553480	24992
682	134.338634	123084800	90320896	25840128	24992
683	108.478813	124973056	90320896	37064064	24992
684	108.609808	124973056	90320896	49651784	24992
685	108.438417	124973056	90320896	62942232	24992
686	138.391724	126001152	92942336	31574448	24992
687	116.744558	127889408	92942336	33948288	24992
688	113.556774	127889408	92942336	49481960	24992
689	114.641457	127889408	92942336	65833528	24992
690	147.040689	126054400	90845184	24506512	24992
691	117.523397	126054400	90845184	42434752	24992
692	122.965868	126054400	90845184	49678664	24992
693	149.671632	119111680	86126592	27163448	24992
694	120.124994	120999936	86126592	46828360	24992
695	124.827923	120999936	86126592	56126800	24992
696	130.016453	125595648	90845184	66238536	24992
697	161.315637	129503232	94515200	46256656	24992
698	129.62117	129503232	94515200	57875280	24992
699	129.707108	129503232	94515200	70175000	24992
700	148.353376	138694656	103952384	83266808	24992
701	151.102204	129110016	93990912	45970984	24992
702	6.738869	129110016	93990912	49591128	24992
703	3.575654	129110016	93990912	51875312	24992
704	4.660408	129110016	93990912	54918000	24992
705	5.900938	129110016	93990912	58723560	24992
706	7.106287	129110016	93990912	63294344	24992
707	10.220035	129110016	93990912	54339488	24992
708	9.575884	129110016	93990912	60443176	24992
709	11.836317	129110016	93990912	51800456	24992
710	11.766028	129110016	93990912	59443088	24992
711	13.960427	129110016	93990912	52546056	24992
712	14.363645	129110016	93990912	61732976	24992
713	16.197465	129110016	93990912	55921632	24992
714	18.349625	129110016	93990912	51940960	24992
715	17.713936	129110016	93990912	63454488	24992
716	20.481033	129110016	93990912	59654160	24992
717	21.40071	129110016	93990912	57323704	24992
718	23.034976	129110016	93990912	56209416	24992
719	23.919655	129110016	93990912	56122192	24992
720	25.282658	129110016	93990912	56819888	24992
721	26.748683	129110016	93990912	58150480	24992
722	28.257035	129110016	93990912	60004064	24992
723	29.001585	129110016	93990912	62374456	24992
724	29.74003	129110016	93990912	65131928	24992
725	32.807872	129110016	93990912	54741920	24992
726	32.82601	129110016	93990912	60402584	24992
727	33.302232	129110016	93990912	65833616	24992
728	36.223017	129110016	93990912	57542896	24992
729	36.504316	129110016	93990912	65125968	24992
730	39.12241	129110016	93990912	58731888	24992
731	41.711693	129110016	93990912	55262624	24992
732	42.582395	129110016	93990912	68618544	24992
733	42.596282	129110016	93990912	64900960	24992
734	49.677028	130732032	96088064	68454840	24992
735	58.882722	135868416	101330944	72577184	24992
736	71.680715	126697472	92418048	24695480	24992
737	54.712477	126697472	92418048	30625608	24992
738	55.725387	126967808	92418048	37104936	24992
739	56.073335	126967808	92418048	44434392	24992
740	57.587391	126967808	92418048	52441832	24992
741	63.748002	126967808	92418048	49750008	24992
742	60.73391	126967808	92418048	59487288	24992
743	92.043674	123633664	91369472	26830568	24992
744	62.325608	126062592	91369472	37637736	24992
745	68.219295	126062592	91369472	38052952	24992
746	63.763513	126062592	91369472	50947736	24992
747	72.26347	126062592	91369472	53145560	24992
748	70.758609	126062592	91369472	56187936	24992
749	82.253821	128495616	93990912	71577168	24992
750	86.962215	129564672	94515200	29876752	24992
751	77.034097	129564672	94515200	35083696	24992
752	75.681997	129564672	94515200	41291768	24992
753	77.862604	129564672	94515200	48317280	24992
754	78.165891	129564672	94515200	56056864	24992
755	108.81046	124952576	92418048	34490696	24992
756	81.575625	127381504	92418048	43177936	24992
757	81.879397	127381504	92418048	53326928	24992
758	87.701384	127381504	92418048	52947072	24992
759	85.548143	127381504	92418048	64777224	24992
760	101.979534	133599232	98709504	77442016	24992
761	105.104913	129490944	94515200	30215648	24992
762	89.049397	129490944	94515200	44441392	24992
763	95.046902	129490944	94515200	48165936	24992
764	92.239695	129490944	94515200	64143200	24992
765	120.744138	122253312	89796608	34105112	24992
766	98.379377	124682240	89796608	39204656	24992
767	97.766737	124682240	89796608	46098272	24992
768	101.337945	124682240	89796608	53783080	24992
769	127.012269	120627200	87699456	30785744	24992
770	105.980325	122515456	87699456	39501712	24992
771	105.362416	122515456	87699456	49601064	24992
772	107.792493	122515456	87699456	60681048	24992
773	133.357656	125161472	90320896	27125720	24992
774	108.861723	125161472	90320896	39955904	24992
775	110.370893	125161472	90320896	53420816	24992
776	121.559027	125972480	90845184	56354136	24992
777	141.745121	122429440	87699456	42506112	24992
778	118.077998	122429440	87699456	47119152	24992
779	115.044472	122970112	87699456	64014656	24992
780	130.083454	134594560	99758080	70310696	24992
781	147.730045	131842048	96612352	41386064	24992
782	123.666851	131842048	96612352	49308448	24992
783	124.338684	131842048	96612352	58016800	24992
784	135.844296	136167424	101330944	79014648	24992
785	151.053543	129544192	94515200	40095696	24992
786	130.380602	129544192	94515200	51329288	24992
787	129.083025	129544192	94515200	63399120	24992
788	156.686113	129261568	94515200	26184680	24992
789	133.473625	129261568	94515200	39973704	24992
790	134.459222	129261568	94515200	54514976	24992
791	175.705619	123686912	90845184	37269896	24992
792	227.213826	125575168	90845184	41533424	24992
793	146.601566	125575168	90845184	58602408	24992
794	172.180364	124907520	92418048	32100160	24992
795	141.444037	127336448	92418048	50095664	24992
796	146.077121	127336448	92418048	58410480	24992
797	171.743827	134905856	100282368	67404584	24992
798	158.134867	132849664	97660928	43561368	24992
799	150.604231	132849664	97660928	54372264	24992
800	149.450404	134471680	99758080	77423776	24992
801	193.991875	128110592	92942336	43250344	24992
802	2.660926	128110592	92942336	57475960	24992
803	3.979222	128110592	92942336	60049416	24992
804	5.321912	128110592	92942336	63482096	24992
805	6.61032	128110592	92942336	67802736	24992
806	10.458466	128110592	92942336	59193936	24992
807	10.206214	128110592	92942336	65223592	24992
808	11.565378	128110592	92942336	56831520	24992
809	11.933788	128110592	92942336	64587720	24992
810	14.535728	128110592	92942336	58020336	24992
811	14.761556	128110592	92942336	67499640	24992
812	17.277317	128110592	92942336	62181792	24992
813	18.573647	128110592	92942336	58713672	24992
814	19.234717	128110592	92942336	70807640	24992
815	20.761961	128110592	92942336	67518408	24992
816	22.821197	128110592	92942336	65704304	24992
817	24.424239	128110592	92942336	65053272	24992
818	25.492767	128110592	92942336	65449616	24992
819	26.868953	128110592	92942336	66652496	24992
820	28.193751	128110592	92942336	68467224	24992
821	30.093847	128110592	92942336	70879096	24992
822	32.911543	128110592	92942336	60338192	24992
823	33.324223	128110592	92942336	66008256	24992
824	34.087431	128110592	93466624	71519360	24992
825	37.262099	128380928	93466624	63518264	24992
826	37.077897	128380928	93466624	71227576	24992
827	40.109218	128380928	93466624	65109744	24992
828	42.46765	128651264	93466624	61933440	24992
829	44.85055	131354624	96088064	75878664	24992
830	45.073272	131624960	96612352	72533944	24992
831	46.85173	132435968	97660928	71023464	24992
832	54.031271	137572352	102379520	76232184	24992
833	65.12388	142438400	107622400	82011448	24992
834	62.550737	126726144	91893760	32023736	24992
835	55.987217	126726144	91893760	39643928	24992
836	61.355063	126726144	91893760	36603584	24992
837	59.318165	126726144	91893760	45880352	24992
838	60.498406	126726144	91893760	56166448	24992
839	72.3416	127807488	93466624	55948264	24992
840	86.889919	121225216	86126592	26636680	24992
841	63.220212	121225216	86126592	39697880	24992
842	69.297101	121225216	86126592	42045176	24992
843	70.484802	121225216	86126592	45475376	24992
844	68.422246	121225216	86126592	61131688	24992
845	77.115996	124739584	89796608	66424816	24992
846	106.712419	126939136	91893760	27196240	24992
847	76.406935	126939136	91893760	34280344	24992
848	78.516219	126939136	91893760	42143768	24992
849	79.300258	126939136	91893760	50947064	24992
850	80.843951	127209472	92418048	60680088	24992
851	90.480032	132075520	97136640	71374848	24992
852	107.088	127131648	92418048	34522064	24992
853	83.710043	127131648	92418048	47068584	24992
854	91.21584	127131648	92418048	48926752	24992
855	87.502151	127131648	92418048	63266960	24992
856	99.152786	130105344	95039488	67090480	24992
857	118.545063	127488000	92418048	36641360	24992
858	95.046148	127488000	92418048	42234672	24992
859	97.021268	127488000	92418048	48812104	24992
860	95.444597	127488000	92418048	67920824	24992
861	129.785567	126779392	93990912	29501848	24992
862	101.976164	128667648	93990912	37591512	24992
863	102.719576	128667648	93990912	47871016	24992
864	105.503535	128667648	93990912	59109112	24992
865	136.006963	123637760	91369472	26726872	24992
866	107.800558	126066688	91369472	39047888	24992
867	108.972757	126066688	91369472	53195824	24992
868	114.926041	126066688	91369472	56689440	24992
869	139.834623	125288448	90320896	26304440	24992
870	114.823522	125288448	90320896	43460952	24992
871	120.494731	125558784	90320896	49881888	24992
872	125.872532	126099456	90845184	57271776	24992
873	148.554917	123932672	88748032	46133448	24992
874	123.009739	123932672	88748032	55317056	24992
875	123.342238	125825024	90845184	65448784	24992
876	138.02485	137990144	103428096	76540824	24992
877	154.46311	132685824	97660928	38553920	24992
878	128.537048	132685824	97660928	51583160	24992
879	130.621758	132685824	97660928	65604168	24992
880	162.102074	129400832	94515200	28428488	24992
881	132.089647	129400832	94515200	44617848	24992
882	133.74214	129400832	94515200	61530520	24992
883	162.042681	132104192	97136640	67732488	24992
884	150.914804	128503808	93466624	40437664	24992
885	138.731164	128503808	93466624	60222304	24992
886	151.497507	133910528	99233792	69477400	24992
887	174.840266	132763648	97660928	46039336	24992
888	147.48978	132763648	97660928	57097224	24992
889	151.555081	136548352	101330944	69221928	24992
890	185.515844	134365184	99233792	46772008	24992
891	151.330327	134365184	99233792	60770168	24992
892	156.075751	140582912	106049536	75914048	24992
893	183.15475	134180864	99233792	31567448	24992
894	155.519063	134180864	99233792	48695176	24992
895	158.062811	134180864	99233792	66667400	24992
896	190.434583	129069056	93990912	36557192	24992
897	163.034285	129069056	93990912	44788784	24992
898	169.270144	130961408	96088064	65638384	24992
899	202.367767	127823872	92942336	47580112	24992
900	164.815902	127823872	92942336	70326736	24992
901	185.904093	143233024	108670976	82465424	24992
902	6.863081	140046336	105000960	45448416	24992
903	4.693418	140046336	105000960	48394528	24992
904	5.970788	140046336	105000960	52327232	24992
905	7.556943	140046336	105000960	57243544	24992
906	10.766366	140046336	105000960	49030120	24992
907	10.588156	140046336	105000960	55926816	24992
908	13.039346	140046336	105000960	48352000	24992
909	13.603224	140046336	105000960	57250984	24992
910	15.699295	140046336	105000960	51325176	24992
911	18.163609	140046336	105000960	47452856	24992
912	18.323974	140046336	105000960	59302256	24992
913	20.4874	140046336	105000960	55993424	24992
914	22.35826	140046336	105000960	54302952	24992
915	23.995379	140046336	105000960	53916080	24992
916	25.585901	140046336	105000960	54640872	24992
917	27.418231	140046336	105000960	56209408	24992
918	28.644171	140046336	105000960	58449008	24992
919	32.55947	140046336	105000960	48207680	24992
920	34.655464	140046336	105000960	56771896	24992
921	33.715466	140046336	105000960	62531896	24992
922	36.211819	140046336	105000960	55046856	24992
923	39.298156	140046336	105000960	66604912	24992
924	39.920232	140046336	105000960	61378152	24992
925	43.114022	140046336	105000960	58505016	24992
926	47.161998	140046336	105000960	61350512	24992
927	45.97746	140046336	105000960	76678896	24992
928	45.481601	140046336	105000960	74671016	24992
929	48.251684	140046336	105000960	74358016	24992
930	52.957916	140046336	105000960	81387112	24992
931	76.913102	126484480	93990912	19803864	24992
932	57.841684	129183744	93990912	28403240	24992
933	57.756013	129183744	93990912	38196824	24992
934	95.971394	129183744	93990912	37392416	24992
935	102.117626	129183744	93990912	49180232	24992
936	106.948759	129183744	93990912	50500896	24992
937	99.847342	125943808	84553728	25556952	24992
938	68.452745	119713792	84553728	40313768	24992
939	70.928453	119713792	84553728	44622368	24992
940	72.609297	119713792	84553728	50031592	24992
941	73.912825	120254464	85078016	56339344	24992
942	78.883292	127283200	92418048	63620936	24992
943	102.950448	121204736	88223744	22878960	24992
944	80.770285	123092992	88223744	31156768	24992
945	79.438717	123092992	88223744	41688472	24992
946	81.623428	123092992	88223744	53265664	24992
947	89.358003	123092992	88223744	53980528	24992
948	116.244037	123895808	90845184	24435832	24992
949	87.826413	125784064	90845184	38060944	24992
950	91.247219	125784064	90845184	42259184	24992
951	93.863932	125784064	90845184	47334984	24992
952	92.272744	126054400	90845184	64994832	24992
953	130.819498	125845504	90845184	40231096	24992
954	97.312411	125845504	90845184	48520144	24992
955	98.875619	125845504	90845184	57819536	24992
956	104.707876	126386176	91369472	68130392	24992
957	131.988611	124588032	92418048	30213328	24992
958	105.105993	127016960	92418048	41216424	24992
959	110.362286	127016960	92418048	42964408	24992
960	107.797569	127016960	92418048	57454640	24992
961	139.612495	125489152	90845184	26000432	24992
962	112.635918	125489152	90845184	42671344	24992
963	115.514696	125489152	90845184	48548768	24992
964	115.563478	125489152	90845184	67211744	24992
965	155.449288	126496768	91369472	45260616	24992
966	124.619314	137310208	103428096	54312928	24992
967	124.938414	138391552	103428096	64349392	24992
968	133.811574	140283904	105525248	75889328	24992
969	158.362888	124325888	89272320	38271784	24992
970	127.118841	124325888	89272320	51542464	24992
971	130.915505	128921600	93990912	66114616	24992
972	158.244509	128147456	93466624	29347648	24992
973	136.118018	128147456	93466624	45941408	24992
974	137.460535	128147456	93466624	52180328	24992
975	164.4634	131661824	96612352	70838928	24992
976	141.683796	128425984	93466624	44534816	24992
977	142.159083	128696320	93466624	53804752	24992
978	151.47011	133562368	98709504	75616928	24992
979	175.227853	131657728	96612352	51503408	24992
980	146.916475	131657728	96612352	63840560	24992
981	150.168379	135442432	100806656	77199672	24992
982	186.957679	134479872	99233792	45038304	24992
983	152.658041	134479872	99233792	60597608	24992
984	154.291966	138534912	103428096	77267512	24992
985	175.245927	127447040	92418048	37549632	24992
986	160.378032	127447040	92418048	44697224	24992
987	188.397768	119873536	85078016	35086712	24992
988	163.586266	119873536	85078016	44448952	24992
989	165.317576	126631936	91893760	66446880	24992
990	205.722788	128516096	93466624	49000640	24992
991	169.593815	129056768	94515200	61464336	24992
992	172.775853	143384576	108670976	86433952	24992
993	215.57567	133541888	98709504	49510776	24992
994	174.248432	133541888	98709504	65337504	24992
995	187.591147	146788352	112340992	82108256	24992
996	211.996151	134189056	99233792	46770344	24992
997	179.493983	134189056	99233792	65610656	24992
998	219.818392	131874816	99233792	32827496	24992
999	184.254267	133763072	99233792	52629728	24992
1000	182.824049	134844416	99758080	74739528	24992
