x	Duration	RSS	HeapTotal	HeapUsed	External
0	NA	128577536	94515200	44488968	24992
1	0.426043	128577536	94515200	44534416	24992
2	0.41973	128577536	94515200	44605688	24992
3	0.46861	128577536	94515200	44702056	24992
4	0.558875	128577536	94515200	44824672	24992
5	0.658451	128577536	94515200	44974984	24992
6	0.776816	128577536	94515200	45153720	24992
7	1.094706	128577536	94515200	45361808	24992
8	0.383893	128577536	94515200	45600168	24992
9	0.607832	128577536	94515200	45870712	24992
10	0.459522	128577536	94515200	46173400	24992
11	0.511178	128577536	94515200	46509152	24992
12	0.565828	128577536	94515200	46879480	24992
13	0.628687	128577536	94515200	47285280	24992
14	0.68975	128577536	94515200	47727552	24992
15	0.727107	128577536	94515200	48207136	24992
16	0.958733	128577536	94515200	48724992	24992
17	0.849115	128577536	94515200	49283952	24992
18	0.979022	128577536	94515200	49885808	24992
19	0.964043	128577536	94515200	50527000	24992
20	1.010079	128577536	94515200	51209848	24992
21	1.085744	128577536	94515200	51935608	24992
22	1.345353	128577536	94515200	52705192	24992
23	1.203282	128577536	94515200	53519584	24992
24	3.817548	128577536	94515200	40896096	24992
25	1.369901	128847872	94515200	41803848	24992
26	2.040737	128847872	94515200	42760312	24992
27	1.590555	128847872	94515200	43774232	24992
28	1.78255	128847872	94515200	44830760	24992
29	1.768831	128847872	94515200	45940016	24992
30	1.728832	128847872	94515200	47100352	24992
31	1.840126	128847872	94515200	48313912	24992
32	1.923715	128847872	94515200	49584256	24992
33	1.971641	128847872	94515200	50914256	24992
34	2.072544	128847872	94515200	52300392	24992
35	2.13732	128847872	94515200	53743616	24992
36	2.237889	128847872	94515200	55244824	24992
37	4.740746	128847872	94515200	41333600	24992
38	2.843728	128847872	94515200	42962048	24992
39	2.479253	128847872	94515200	44642608	24992
40	2.739951	128847872	94515200	46384968	24992
41	2.76749	128847872	94515200	48189928	24992
42	2.782499	128847872	94515200	50058384	24992
43	2.879205	128847872	94515200	51991192	24992
44	3.15832	128847872	94515200	53991520	24992
45	3.063137	128847872	94515200	56057336	24992
46	4.724056	128847872	94515200	42263376	24992
47	3.278944	128847872	94515200	44463960	24992
48	3.378433	128847872	94515200	46733592	24992
49	3.672945	128847872	94515200	49073400	24992
50	3.594633	128847872	94515200	51484808	24992
51	3.718587	128847872	94515200	53970640	24992
52	3.800413	128847872	94515200	56531312	24992
53	5.950024	128847872	94515200	43467928	24992
54	4.4057	128847872	94515200	46180616	24992
55	4.524737	128847872	94515200	48971648	24992
56	4.641261	128847872	94515200	51841856	24992
57	4.687759	128847872	94515200	54790448	24992
58	4.950776	128847872	94515200	57819568	24992
59	7.033446	128847872	94515200	45149848	24992
60	4.837491	128847872	94515200	48343472	24992
61	4.9614	128847872	94515200	51620872	24992
62	5.035607	128847872	94515200	54981256	24992
63	5.374077	128847872	94515200	58426512	24992
64	7.388248	128847872	94515200	46114080	24992
65	5.494762	128847872	94515200	49742384	24992
66	5.781672	128847872	94515200	53460616	24992
67	5.780897	128847872	94515200	57263464	24992
68	7.824623	128847872	94515200	45439504	24992
69	6.00018	128847872	94515200	49423056	24992
70	6.378191	128847872	94515200	53498384	24992
71	6.453209	128847872	94515200	57665928	24992
72	8.214971	128847872	94515200	46200488	24992
73	6.592713	128847872	94515200	50555944	24992
74	6.73557	128847872	94515200	55006576	24992
75	7.116699	128847872	94515200	59553512	24992
76	8.824482	128847872	94515200	48299576	24992
77	7.207561	128847872	94515200	53041920	24992
78	7.857003	128847872	94515200	57883832	24992
79	9.382009	128847872	94515200	47095632	24992
80	7.685281	128847872	94515200	52137704	24992
81	7.932565	128847872	94515200	57282456	24992
82	10.641819	128847872	94515200	46949392	24992
83	9.345922	128847872	94515200	52313200	24992
84	8.329119	128847872	94515200	57770864	24992
85	10.483149	128847872	94515200	47714312	24992
86	8.870634	128847872	94515200	53383872	24992
87	9.006268	128847872	94515200	59161408	24992
88	10.731373	128847872	94515200	49282808	24992
89	10.123824	128847872	94515200	55285288	24992
90	9.304921	128847872	94515200	61390776	24992
91	11.810895	128847872	94515200	51680888	24992
92	10.003819	128847872	94515200	58008008	24992
93	12.365428	128847872	94515200	48962232	24992
94	10.236897	128847872	94515200	55516208	24992
95	10.224555	128847872	94515200	62184672	24992
96	12.743887	128847872	94515200	53076584	24992
97	10.795239	128847872	94515200	59977520	24992
98	13.217781	128847872	94515200	51389304	24992
99	11.211746	128847872	94515200	58527464	24992
100	13.653852	128847872	94515200	50377880	24992
101	11.941874	128847872	94515200	57757904	24992
102	0.454762	128847872	94515200	49795880	24992
103	0.639926	128847872	94515200	50162088	24992
104	0.840786	128847872	94515200	50655528	24992
105	1.203709	128847872	94515200	51277184	24992
106	1.182359	128847872	94515200	52028432	24992
107	1.384278	128847872	94515200	52909616	24992
108	1.574255	128847872	94515200	53921832	24992
109	1.758958	128847872	94515200	55065792	24992
110	1.969182	128847872	94515200	56343584	24992
111	2.176403	128847872	94515200	57755048	24992
112	2.381975	128847872	94515200	59301072	24992
113	2.623506	128847872	94515200	60982704	24992
114	2.782737	128847872	94515200	62800848	24992
115	4.896137	128847872	94515200	48911440	24992
116	3.24093	128847872	94515200	51005288	24992
117	3.409668	128847872	94515200	53238600	24992
118	3.649794	128847872	94515200	55613816	24992
119	4.03932	128847872	94515200	58132184	24992
120	4.190693	128847872	94515200	60794984	24992
121	4.307966	128847872	94515200	63599808	24992
122	6.576587	128847872	94515200	50553872	24992
123	4.73325	128847872	94515200	53647440	24992
124	5.152108	128847872	94515200	56887688	24992
125	5.175026	128847872	94515200	60272608	24992
126	5.389169	128847872	94515200	63803176	24992
127	7.596325	128847872	94515200	51485792	24992
128	6.057227	128847872	94515200	55316424	24992
129	6.092584	128847872	94515200	59295616	24992
130	6.573434	128847872	94515200	63425848	24992
131	8.684402	128847872	94515200	51755128	24992
132	7.04713	128847872	94515200	56190728	24992
133	7.287069	128847872	94515200	60785776	24992
134	7.327813	128847872	94515200	65537688	24992
135	9.437	128847872	94515200	54254984	24992
136	7.771998	128847872	94515200	59323552	24992
137	8.211357	128847872	94515200	64547152	24992
138	10.088497	128847872	94515200	53882712	24992
139	8.72546	128847872	94515200	59425568	24992
140	8.951043	128847872	94515200	65127712	24992
141	11.3173	128847872	94515200	54896208	24992
142	9.460121	128847872	94515200	60924096	24992
143	12.019723	128847872	94515200	51600832	24992
144	9.984693	128847872	94515200	57954912	24992
145	10.29704	128847872	94515200	64478680	24992
146	12.452529	128847872	94515200	55170088	24992
147	10.778034	128847872	94515200	62030712	24992
148	13.157408	128847872	94515200	53448216	24992
149	11.346457	128847872	94515200	60649448	24992
150	13.979672	128847872	94515200	52579432	24992
151	11.818638	128847872	94515200	60112392	24992
152	14.346572	128847872	94515200	52526408	24992
153	12.455792	128847872	94515200	60402032	24992
154	15.135025	128847872	94515200	53156176	24992
155	13.573985	128847872	94515200	61383408	24992
156	15.668269	128847872	94515200	54343416	24992
157	13.540917	128847872	94515200	62922472	24992
158	15.986829	128847872	94515200	56067120	24992
159	13.949283	128847872	94515200	65001128	24992
160	16.620003	128847872	94515200	58214648	24992
161	15.098438	128847872	94515200	67518048	24992
162	16.993181	128847872	94515200	60786648	24992
163	18.020796	128847872	94515200	55175712	24992
164	15.629325	128847872	94515200	65018584	24992
165	18.149236	128847872	94515200	59200528	24992
166	18.83327	128847872	94515200	54430896	24992
167	16.30266	128847872	94515200	64834848	24992
168	19.238102	128847872	94515200	59648968	24992
169	20.645001	128847872	94515200	55433016	24992
170	17.586312	128847872	94515200	66398904	24992
171	20.109653	128847872	94515200	61588600	24992
172	21.005452	128847872	94515200	57722488	24992
173	18.368583	128847872	94515200	69260624	24992
174	21.221506	128847872	94515200	64723288	24992
175	21.996173	128847872	94515200	61024912	24992
176	22.127656	128847872	94515200	58056608	24992
177	19.345751	128847872	94515200	70374344	24992
178	22.105463	128847872	94515200	66591768	24992
179	22.753492	128847872	94515200	63495568	24992
180	23.342242	128847872	94515200	61067104	24992
181	23.729119	128847872	94515200	59143496	24992
182	24.482458	128847872	94515200	57746504	24992
183	21.457667	128847872	94515200	71246480	24992
184	24.273917	128847872	94515200	68664272	24992
185	24.466787	128847872	94515200	66589944	24992
186	25.106226	128847872	94515200	65068896	24992
187	25.50906	128847872	94515200	63875424	24992
188	25.793564	128847872	94515200	63112144	24992
189	26.778652	128847872	94515200	62688744	24992
190	26.891056	128847872	94515200	62565656	24992
191	28.359741	128847872	94515200	62697392	24992
192	27.552392	128847872	94515200	63021912	24992
193	27.880774	128847872	94515200	63527544	24992
194	28.304515	128847872	94515200	64208496	24992
195	28.736514	128847872	94515200	65033976	24992
196	29.649183	128847872	94515200	65978064	24992
197	29.55557	128847872	94515200	66993664	24992
198	29.469682	128847872	94515200	68113664	24992
199	29.675551	128847872	94515200	69315680	24992
200	30.23554	128847872	95039488	70588336	24992
201	30.624054	129118208	95039488	71896112	24992
202	0.739019	129118208	95039488	73210432	24992
203	1.059451	129118208	95039488	73868464	24992
204	4.125328	129118208	95039488	58504224	24992
205	1.968167	129118208	95039488	59603032	24992
206	2.087255	129118208	95039488	60924176	24992
207	2.634575	129118208	95039488	62468024	24992
208	2.982579	129118208	95039488	64235520	24992
209	3.325927	129118208	95039488	66238904	24992
210	3.51341	129118208	95039488	68473920	24992
211	4.030007	129118208	95039488	70943736	24992
212	4.389079	129118208	95039488	73649128	24992
213	7.322792	129118208	95039488	60390688	24992
214	5.15872	129118208	95039488	63572024	24992
215	5.48751	129118208	95039488	66989640	24992
216	5.881801	129118208	95039488	70654552	24992
217	6.025305	129118208	95039488	74551816	24992
218	9.177992	129118208	95039488	62411504	24992
219	6.973638	129118208	95039488	66793768	24992
220	7.206669	129118208	95039488	71424552	24992
221	10.677829	129118208	95039488	60468496	24992
222	8.16554	129118208	95039488	65596448	24992
223	8.459889	129118208	95039488	70956696	24992
224	11.867238	129118208	95039488	60809760	24992
225	9.062824	129118208	95039488	66665552	24992
226	9.641319	129118208	95039488	72771736	24992
227	12.803698	129388544	95563776	63126512	24992
228	10.509225	129388544	95563776	69735984	24992
229	14.270362	129388544	95563776	61038520	24992
230	11.158149	129388544	95563776	68149440	24992
231	15.066033	129388544	95563776	60195472	24992
232	12.00334	129388544	95563776	67810352	24992
233	16.352836	129658880	95563776	60437608	24992
234	12.753594	129658880	95563776	68584088	24992
235	16.612251	129658880	95563776	61640672	24992
236	13.622628	129658880	95563776	70292704	24992
237	17.344292	129929216	96088064	63629816	24992
238	14.578239	129929216	96088064	72797416	24992
239	18.335095	129929216	96088064	66293872	24992
240	15.174677	129929216	96088064	75991376	24992
241	18.450112	130199552	96612352	69605696	24992
242	19.431652	130199552	96612352	64378112	24992
243	16.332367	130199552	96612352	74866960	24992
244	20.061098	130469888	96612352	69466416	24992
245	21.19062	130469888	96612352	65089584	24992
246	17.975816	130469888	96612352	76375192	24992
247	20.921913	130740224	96612352	71573432	24992
248	21.845216	130740224	96612352	67730592	24992
249	22.782359	130740224	97136640	64726840	24992
250	23.698402	131010560	97136640	62421744	24992
251	19.72323	131010560	97136640	75050216	24992
252	23.285165	131010560	97660928	71854080	24992
253	24.386496	131280896	97660928	69412832	24992
254	24.906605	131280896	97660928	67572504	24992
255	25.603655	131551232	97660928	66272976	24992
256	26.751159	131551232	97660928	65507616	24992
257	29.393813	131551232	97660928	65113384	24992
258	43.293614	125227008	90320896	14502112	24992
259	26.017854	122605568	90320896	29353784	24992
260	25.061267	123953152	90320896	28343272	24992
261	24.869933	123953152	90320896	27589584	24992
262	25.034694	123953152	90320896	27193088	24992
263	25.781071	123953152	90320896	27145296	24992
264	26.227535	123953152	90320896	27426128	24992
265	26.67483	123953152	90320896	27937640	24992
266	27.444231	123953152	90320896	28677504	24992
267	27.547395	123953152	90320896	29594312	24992
268	28.60192	123953152	90320896	30686120	24992
269	30.508108	123953152	90320896	17871816	24992
270	30.089669	123953152	90320896	21304880	24992
271	29.949734	123953152	90320896	24489768	24992
272	30.162365	123953152	90320896	27509256	24992
273	30.948578	123953152	90320896	30405144	24992
274	32.88646	123953152	90320896	19175128	24992
275	32.187854	123953152	90320896	23906336	24992
276	32.611014	123953152	90320896	28247088	24992
277	34.515859	123953152	90320896	18535824	24992
278	35.068599	123953152	90320896	26633928	24992
279	33.445092	123953152	90320896	31921160	24992
280	35.538931	123953152	90320896	22951080	24992
281	36.630816	123953152	90320896	31957408	24992
282	36.566554	123953152	90320896	24506816	24992
283	37.931177	123953152	90320896	34057944	24992
284	36.134816	123953152	90320896	40594496	24992
285	38.721242	123953152	90320896	32468088	24992
286	36.580826	123953152	90320896	39927032	24992
287	39.838371	123953152	90320896	32701368	24992
288	37.612567	123953152	90320896	40771776	24992
289	39.811568	123953152	90320896	34034152	24992
290	41.035563	123953152	90320896	29387152	24992
291	41.110939	123953152	90320896	41394704	24992
292	41.093227	123953152	90320896	36461616	24992
293	45.265252	123953152	90320896	36719776	24992
294	43.869636	124223488	90320896	49552320	24992
295	43.394329	124223488	90320896	45282600	24992
296	47.544792	124764160	90320896	46516920	24992
297	56.067187	125034496	90845184	47869520	24992
298	61.585614	116711424	82456576	23196216	24992
299	44.970837	116711424	82456576	37552688	24992
300	45.130088	116711424	82456576	34378456	24992
301	46.307082	116711424	82456576	32368344	24992
302	1.048004	116711424	82456576	35515352	24992
303	1.529302	116711424	82456576	36477600	24992
304	2.003534	116711424	82456576	37760616	24992
305	2.553782	116711424	82456576	39365504	24992
306	3.058119	116711424	82456576	41293656	24992
307	3.741327	116711424	82456576	43545488	24992
308	6.18424	116711424	82456576	32519344	24992
309	4.748014	116711424	82456576	35428008	24992
310	5.048789	116711424	82456576	38661496	24992
311	5.608247	116711424	82456576	42218344	24992
312	6.117813	116711424	82456576	46110760	24992
313	7.512247	116711424	82456576	34612904	24992
314	7.289847	116711424	82456576	39157480	24992
315	7.788176	116711424	82456576	44052192	24992
316	8.716379	116711424	82456576	33261824	24992
317	9.063307	116711424	82456576	38804512	24992
318	9.2689	116711424	82456576	44680912	24992
319	10.405098	116711424	82456576	34800144	24992
320	10.413262	116711424	82456576	41347112	24992
321	11.553584	116711424	82456576	32627656	24992
322	11.494025	116711424	82456576	39859736	24992
323	12.966129	116711424	82456576	32056392	24992
324	12.569193	116711424	82456576	39965296	24992
325	13.965965	116711424	82456576	32843776	24992
326	14.476867	116711424	82456576	41435640	24992
327	14.905121	116711424	82456576	34745240	24992
328	14.547302	116711424	82456576	44014304	24992
329	15.935484	116711424	82456576	37639592	24992
330	17.032116	116711424	82456576	32580584	24992
331	16.19066	116711424	82456576	42884928	24992
332	17.699913	116711424	82456576	37747088	24992
333	18.850237	116711424	82456576	33721656	24992
334	18.150653	116711424	82456576	45083864	24992
335	19.089569	116711424	82456576	40666776	24992
336	20.152985	116711424	82456576	37276272	24992
337	21.157118	116711424	82456576	34709856	24992
338	21.314077	116711424	82456576	47484368	24992
339	20.949586	116711424	82456576	44143640	24992
340	22.290006	116711424	82456576	41631128	24992
341	23.790625	116711424	82456576	39855688	24992
342	23.44552	116711424	82456576	38726256	24992
343	24.378089	116711424	82456576	38111704	24992
344	24.857769	116711424	82456576	37951584	24992
345	25.982248	116711424	82456576	38194904	24992
346	25.841475	116711424	82456576	38753264	24992
347	26.699349	116711424	82456576	39582408	24992
348	27.005049	116711424	82456576	40675872	24992
349	27.763323	116711424	82456576	41988832	24992
350	28.308169	116711424	82456576	43451520	24992
351	28.707242	116711424	82456576	45064480	24992
352	29.218847	116711424	82456576	46803944	24992
353	31.166122	116711424	82456576	34768888	24992
354	32.926792	116711424	82456576	41206992	24992
355	31.628168	116711424	82456576	45024200	24992
356	32.190655	116711424	82456576	48670120	24992
357	34.631674	116711424	82456576	38388088	24992
358	34.769724	116711424	82456576	46313968	24992
359	33.305842	116711424	82456576	51509992	24992
360	35.934754	116711424	82456576	42450664	24992
361	37.484686	116711424	82456576	51493424	24992
362	37.407829	116711424	82456576	44199960	24992
363	37.817061	116711424	82456576	53985240	24992
364	38.749054	116711424	82456576	47476064	24992
365	39.05842	117522432	83505152	57969384	24992
366	39.768499	118333440	84553728	52060000	24992
367	42.789036	120766464	87175168	63336624	24992
368	51.999437	121577472	87699456	57785440	24992
369	49.059768	117964800	84029440	23346184	24992
370	44.620938	117964800	84029440	23315472	24992
371	42.576478	117964800	84029440	35950360	24992
372	42.7632	118235136	84029440	31486496	24992
373	46.775572	118235136	84029440	32719856	24992
374	47.672884	118235136	84029440	34091744	24992
375	45.547753	118235136	84029440	48276864	24992
376	44.982674	118235136	84029440	44929304	24992
377	46.250887	118235136	84029440	42815992	24992
378	49.866468	118235136	84029440	45943664	24992
379	50.619899	118235136	84029440	49334504	24992
380	54.889669	118235136	84029440	53069168	24992
381	68.602691	118202368	85602304	28192184	24992
382	53.49844	119549952	85602304	32314648	24992
383	53.626282	119549952	85602304	37200112	24992
384	54.617191	119549952	85602304	42480080	24992
385	54.220919	119549952	85602304	48246192	24992
386	57.499797	119549952	85602304	42138560	24992
387	56.502693	119549952	85602304	48586400	24992
388	56.524667	119820288	85602304	55510488	24992
389	76.412021	122523648	88223744	62763256	24992
390	62.901986	121884672	87699456	26475608	24992
391	59.042595	121884672	87699456	34517200	24992
392	57.895402	121884672	87699456	43037224	24992
393	62.92439	121884672	87699456	39780952	24992
394	59.363314	121884672	87699456	49083872	24992
395	60.268075	121884672	87699456	58849112	24992
396	64.11851	122425344	88223744	56835912	24992
397	68.55661	125669376	91893760	67404088	24992
398	80.742874	124702720	90845184	30965128	24992
399	66.132609	124702720	90845184	30203168	24992
400	63.321702	124702720	90845184	41910784	24992
401	67.490234	124702720	90845184	41865728	24992
402	1.481273	124702720	90845184	54638432	24992
403	4.958913	124702720	90845184	43504992	24992
404	2.804062	124702720	90845184	45161360	24992
405	3.441048	124702720	90845184	47235160	24992
406	4.136842	124702720	90845184	49720808	24992
407	4.834114	124702720	90845184	52624040	24992
408	5.23658	124702720	90845184	55943616	24992
409	7.420694	124702720	90845184	45305472	24992
410	6.671594	124702720	90845184	49471960	24992
411	7.333804	124702720	90845184	54049784	24992
412	7.972608	124702720	90845184	59056896	24992
413	9.265092	124702720	90845184	48114624	24992
414	9.397584	124702720	90845184	53964864	24992
415	10.625505	124702720	90845184	44630704	24992
416	10.780626	124702720	90845184	51324560	24992
417	11.428268	124702720	90845184	58445464	24992
418	12.5339	124702720	90845184	49733248	24992
419	12.871521	124702720	90845184	57723736	24992
420	13.788913	124702720	90845184	50030232	24992
421	14.193863	124702720	90845184	58911400	24992
422	15.225253	124702720	90845184	51918736	24992
423	16.418105	124702720	90845184	46425128	24992
424	16.236207	124702720	90845184	56666464	24992
425	17.818809	124702720	90845184	51346552	24992
426	18.929528	124702720	90845184	47292640	24992
427	18.678054	124702720	90845184	58891112	24992
428	19.334672	124702720	90845184	54628096	24992
429	20.316841	124702720	90845184	51489688	24992
430	21.471644	124702720	90845184	49220008	24992
431	22.493861	124702720	90845184	47780272	24992
432	23.453474	124702720	90845184	47007040	24992
433	24.300872	124702720	90845184	46813920	24992
434	24.728972	124702720	90845184	47076232	24992
435	25.841266	124702720	90845184	47798656	24992
436	27.088694	124702720	90845184	48862368	24992
437	27.840889	124702720	90845184	50269960	24992
438	27.730577	124702720	90845184	51877800	24992
439	28.151161	124702720	90845184	53749664	24992
440	28.737262	124702720	90845184	55777336	24992
441	28.945716	124702720	90845184	57952736	24992
442	29.944775	124702720	90845184	60302992	24992
443	32.017086	124702720	90845184	48731320	24992
444	32.38388	124702720	90845184	53409072	24992
445	32.420867	124702720	90845184	57869808	24992
446	34.663328	124702720	90845184	48334896	24992
447	36.252228	124702720	90845184	57071424	24992
448	34.316669	124702720	90845184	63001192	24992
449	36.448757	124702720	90845184	54329392	24992
450	35.828328	124702720	90845184	61416784	24992
451	38.917498	124702720	90845184	54150040	24992
452	45.359699	125243392	91369472	65187656	24992
453	53.008804	117231616	82980864	29582552	24992
454	40.575161	117231616	82980864	23795112	24992
455	43.884954	117231616	82980864	23976464	24992
456	43.473331	117231616	82980864	36754424	24992
457	43.002892	117231616	82980864	32601528	24992
458	46.173847	117231616	82980864	34324640	24992
459	46.821408	117231616	82980864	36229688	24992
460	47.481075	117231616	82980864	38654776	24992
461	45.67997	117231616	82980864	53889656	24992
462	47.003631	117231616	82980864	51704968	24992
463	47.288832	117231616	82980864	50475016	24992
464	50.704184	117231616	82980864	55058544	24992
465	57.133888	117231616	83505152	59926608	24992
466	71.619018	121556992	87699456	22546024	24992
467	53.142477	121556992	87699456	28272544	24992
468	53.741861	121556992	87699456	34515208	24992
469	53.86216	121556992	87699456	41166128	24992
470	55.318837	121556992	87699456	48362920	24992
471	57.878418	121556992	87699456	43713808	24992
472	56.835148	121556992	87699456	51913400	24992
473	62.21634	122368000	88223744	60519072	24992
474	78.492536	120483840	86126592	25796472	24992
475	59.247452	120483840	86126592	35455992	24992
476	62.289661	120483840	86126592	33257400	24992
477	60.258069	120483840	86126592	43848680	24992
478	63.754173	120483840	86126592	42753192	24992
479	62.282847	120483840	86126592	54309376	24992
480	71.225444	121294848	87175168	54115072	24992
481	85.801184	121880576	87699456	23325704	24992
482	64.488565	121880576	87699456	36508440	24992
483	68.460282	121880576	87699456	37826432	24992
484	68.470794	121880576	87699456	39649320	24992
485	67.242842	121880576	87699456	54263696	24992
486	70.292295	121880576	87699456	57142648	24992
487	75.491101	123502592	89796608	60449480	24992
488	91.334252	123625472	89796608	31228624	24992
489	72.713048	123625472	89796608	35710496	24992
490	73.3275	123625472	89796608	40535944	24992
491	75.815705	123625472	89796608	45954736	24992
492	77.261343	123625472	89796608	52035624	24992
493	76.384886	123625472	89796608	58599552	24992
494	100.848537	122482688	90320896	34693736	24992
495	77.115792	124370944	90320896	41508696	24992
496	78.047692	124370944	90320896	49420320	24992
497	80.66089	124370944	90320896	45561856	24992
498	79.515237	124370944	90320896	54560488	24992
499	82.390356	124641280	90320896	64048056	24992
500	102.665706	124076032	91893760	25892560	24992
501	82.484471	125964288	91893760	35405264	24992
502	1.708134	125964288	91893760	34479672	24992
503	2.567959	125964288	91893760	36049952	24992
504	3.252993	125964288	91893760	38142872	24992
505	4.297885	125964288	91893760	40759456	24992
506	5.007566	125964288	91893760	43904728	24992
507	7.593196	125964288	91893760	33719968	24992
508	6.440786	125964288	91893760	37952248	24992
509	7.451608	125964288	91893760	42673568	24992
510	8.305821	125964288	91893760	47924168	24992
511	9.428014	125964288	91893760	37547064	24992
512	9.710549	125964288	91893760	43856920	24992
513	11.464457	125964288	91893760	35002504	24992
514	11.72901	125964288	91893760	42375712	24992
515	13.994613	125964288	91893760	34797984	24992
516	13.344483	125964288	91893760	43295048	24992
517	14.72597	125964288	91893760	36638488	24992
518	14.903648	125964288	91893760	46150968	24992
519	16.230277	125964288	91893760	40126432	24992
520	17.65669	125964288	91893760	35549792	24992
521	17.395327	125964288	91893760	46675432	24992
522	19.180807	125964288	91893760	42178416	24992
523	20.15497	125964288	91893760	38903360	24992
524	20.845049	125964288	91893760	36762128	24992
525	22.43856	125964288	91893760	35433840	24992
526	23.326589	125964288	91893760	34805016	24992
527	24.043172	125964288	91893760	34913304	24992
528	25.586327	125964288	91893760	35476080	24992
529	25.702881	125964288	91893760	36486104	24992
530	26.55213	125964288	91893760	37892624	24992
531	27.397841	125964288	91893760	39752424	24992
532	28.391163	125964288	91893760	41782400	24992
533	28.942324	125964288	91893760	44068240	24992
534	29.326469	125964288	91893760	46593168	24992
535	30.02324	125964288	91893760	49297880	24992
536	32.566805	125964288	91893760	38211808	24992
537	32.547489	125964288	91893760	43257896	24992
538	33.186121	125964288	91893760	48111216	24992
539	34.931152	125964288	91893760	38962904	24992
540	37.556753	125964288	91893760	48415120	24992
541	37.399652	125964288	91893760	41410392	24992
542	38.203273	125964288	91893760	51997896	24992
543	39.068983	125964288	91893760	45899592	24992
544	40.283407	125964288	91893760	57546272	24992
545	40.59542	125964288	91893760	52153664	24992
546	42.004887	125964288	91893760	48453032	24992
547	42.304308	125964288	91893760	61739720	24992
548	42.623599	125964288	91893760	57683888	24992
549	46.137699	125964288	91893760	55122208	24992
550	63.058617	126775296	92418048	57863600	24992
551	55.303878	121454592	87175168	29675424	24992
552	50.163959	121454592	87175168	33353528	24992
553	50.67028	121454592	87175168	37543672	24992
554	52.280849	121454592	87175168	42369272	24992
555	53.851002	121454592	87175168	47745760	24992
556	53.186158	121454592	87175168	53684936	24992
557	54.765164	121454592	87175168	60189576	24992
558	58.248123	121454592	87175168	55110080	24992
559	72.954659	125509632	91369472	62636768	24992
560	64.267768	124125184	89796608	25585840	24992
561	57.702535	124125184	89796608	34316640	24992
562	59.089598	124125184	89796608	43738952	24992
563	62.125775	124125184	89796608	41374568	24992
564	59.857727	124125184	89796608	51919808	24992
565	63.616192	124125184	89796608	50730792	24992
566	63.620808	124395520	90320896	62379376	24992
567	81.71418	128450560	94515200	62399728	24992
568	70.899311	125407232	91369472	27165208	24992
569	65.602681	125407232	91369472	40557448	24992
570	68.526032	125407232	91369472	42298256	24992
571	68.796688	125407232	91369472	44667888	24992
572	70.332112	125407232	91369472	47579256	24992
573	74.411563	126218240	92418048	51073312	24992
574	91.476716	119496704	85602304	24839976	24992
575	70.798094	119496704	85602304	41798168	24992
576	75.095237	119496704	85602304	47022480	24992
577	75.18996	119496704	85602304	52863392	24992
578	75.823407	119496704	85602304	59280296	24992
579	78.402341	121118720	87175168	66306400	24992
580	100.466172	119050240	87175168	27616680	24992
581	79.445068	120938496	87175168	34895936	24992
582	79.712033	120938496	87175168	43817600	24992
583	82.937088	120938496	87175168	41080120	24992
584	81.21346	120938496	87175168	51207248	24992
585	87.549332	122019840	87699456	61916096	24992
586	103.609422	122544128	88223744	30610344	24992
587	84.580234	122544128	88223744	42333792	24992
588	87.536437	122544128	88223744	42447696	24992
589	86.026192	122544128	88223744	55424856	24992
590	90.219267	123084800	88748032	56756240	24992
591	112.419912	124219392	91893760	39541200	24992
592	92.551121	126107648	91893760	41642912	24992
593	93.280066	126107648	91893760	44817656	24992
594	90.970437	126107648	91893760	60829992	24992
595	94.306172	126648320	92418048	65209168	24992
596	118.350727	126738432	94515200	21653048	24992
597	96.568856	128626688	94515200	38498200	24992
598	97.185113	128626688	94515200	44727048	24992
599	99.006288	128626688	94515200	51447224	24992
600	99.526549	128626688	94515200	58897720	24992
601	121.988936	119033856	87175168	33361408	24992
602	4.486645	120922112	87175168	29390624	24992
603	2.954568	120922112	87175168	31240056	24992
604	3.860659	120922112	87175168	33720432	24992
605	4.956511	120922112	87175168	36804320	24992
606	6.054586	120922112	87175168	40518584	24992
607	8.290373	120922112	87175168	30786944	24992
608	7.863341	120922112	87175168	35723488	24992
609	8.815014	120922112	87175168	41298864	24992
610	10.361638	120922112	87175168	31609864	24992
611	10.558186	120922112	87175168	38410448	24992
612	12.374029	120922112	87175168	30380504	24992
613	12.8669	120922112	87175168	38446800	24992
614	14.712236	120922112	87175168	31665384	24992
615	14.53398	120922112	87175168	40978984	24992
616	16.374851	120922112	87175168	35083256	24992
617	18.494392	120922112	87175168	30782328	24992
618	17.797836	120922112	87175168	41987768	24992
619	19.493138	120922112	87175168	37813792	24992
620	20.754852	120922112	87175168	34899544	24992
621	21.716326	120922112	87175168	33113824	24992
622	22.96784	120922112	87175168	32279424	24992
623	24.220406	120922112	87175168	32096880	24992
624	25.068821	120922112	87175168	32718656	24992
625	26.929279	120922112	87175168	33841832	24992
626	28.734339	120922112	87175168	35417920	24992
627	29.160498	120922112	87175168	37357344	24992
628	28.822149	120922112	87175168	39652328	24992
629	29.40304	120922112	87175168	42167936	24992
630	31.391592	120922112	87175168	44986824	24992
631	32.668936	120922112	87175168	34157264	24992
632	32.747061	120922112	87175168	39569888	24992
633	33.650777	120922112	87175168	44796904	24992
634	36.415348	120922112	87175168	36069760	24992
635	35.626308	120922112	87175168	43239696	24992
636	38.176616	120922112	87175168	36264920	24992
637	40.026361	120922112	87175168	47601464	24992
638	40.759779	120922112	87175168	42018776	24992
639	42.332772	120922112	87175168	38283608	24992
640	43.26555	120922112	87175168	51476448	24992
641	43.5966	120922112	87175168	47582256	24992
642	50.22479	121462784	87175168	49856336	24992
643	49.593177	121462784	87175168	52608384	24992
644	54.447092	121462784	87175168	56034808	24992
645	67.548102	115892224	83505152	28736032	24992
646	51.904053	117780480	83505152	32786696	24992
647	52.653307	117780480	83505152	38078576	24992
648	53.060614	117780480	83505152	44040504	24992
649	56.300385	117780480	83505152	38468384	24992
650	55.421721	117780480	83505152	45787640	24992
651	56.139811	117780480	83505152	53708848	24992
652	59.936989	118591488	84553728	62300720	24992
653	82.472019	121298944	89272320	28283320	24992
654	61.210682	123187200	89272320	37751160	24992
655	62.765259	123187200	89272320	36074656	24992
656	62.877192	123187200	89272320	47338384	24992
657	65.142819	123187200	89272320	47034248	24992
658	63.604288	123187200	89272320	59590096	24992
659	68.339276	123998208	89796608	60577192	24992
660	86.265254	126971904	92942336	62234408	24992
661	72.715247	122609664	88748032	30273616	24992
662	70.080396	122609664	88748032	33361592	24992
663	91.104109	122609664	88748032	37068920	24992
664	125.833117	122609664	88748032	41481272	24992
665	123.417992	122609664	88748032	58692152	24992
666	157.965409	117448704	85078016	20391496	24992
667	132.201923	119336960	85078016	26466032	24992
668	133.682435	119336960	85078016	33585288	24992
669	95.725582	119336960	85078016	41428888	24992
670	78.920555	119336960	85078016	49729720	24992
671	81.094648	119336960	85078016	58883000	24992
672	106.461685	123977728	89796608	26449320	24992
673	82.176831	123977728	89796608	36981080	24992
674	84.875404	123977728	89796608	48050744	24992
675	86.51756	123977728	89796608	47625640	24992
676	85.401738	123977728	89796608	60177680	24992
677	103.285535	129384448	95039488	61119560	24992
678	100.343632	123482112	89272320	27432664	24992
679	88.428967	123482112	89272320	42083760	24992
680	93.469499	123482112	89272320	45104944	24992
681	91.308002	123482112	89272320	61011808	24992
682	99.296637	124293120	90320896	65381720	24992
683	114.30601	122150912	88223744	38225000	24992
684	96.571986	122150912	88223744	44012680	24992
685	98.624249	122150912	88223744	50552952	24992
686	99.014196	122150912	88223744	57662640	24992
687	119.993676	127827968	93990912	65520688	24992
688	106.680004	126050304	91893760	40085480	24992
689	103.130762	126050304	91893760	49303848	24992
690	107.237788	126050304	91893760	46995960	24992
691	105.511248	126050304	91893760	57634360	24992
692	130.929274	122236928	88223744	38185848	24992
693	108.047728	122236928	88223744	50112640	24992
694	112.590543	122236928	88223744	50700704	24992
695	108.825698	123588608	89796608	64074616	24992
696	118.752625	134131712	100282368	66046064	24992
697	132.780629	130715648	96612352	31730712	24992
698	114.58221	130715648	96612352	47227472	24992
699	117.514944	130985984	96612352	51209632	24992
700	116.148497	130985984	96612352	68229608	24992
701	139.314911	125083648	90845184	23315064	24992
702	2.252099	125083648	90845184	42205640	24992
703	3.320714	125083648	90845184	44334600	24992
704	6.888669	125083648	90845184	34404832	24992
705	5.579981	125083648	90845184	37950896	24992
706	6.633403	125083648	90845184	42207576	24992
707	9.178096	125083648	90845184	32916952	24992
708	8.901381	125083648	90845184	38596472	24992
709	9.982795	125083648	90845184	44988736	24992
710	11.678835	125083648	90845184	36197136	24992
711	13.106935	125083648	90845184	44041488	24992
712	14.047916	125083648	90845184	36772736	24992
713	14.583859	125083648	90845184	46029080	24992
714	16.068866	125083648	90845184	39883808	24992
715	17.658905	125083648	90845184	35404688	24992
716	17.865956	125083648	90845184	46819248	24992
717	19.345244	125083648	90845184	42715280	24992
718	21.073313	125083648	90845184	39992776	24992
719	23.181064	125083648	90845184	38411048	24992
720	23.680798	125083648	90845184	37777376	24992
721	24.797689	125083648	90845184	37972368	24992
722	26.245048	125083648	90845184	38912880	24992
723	27.465256	125083648	90845184	40316760	24992
724	28.609765	125083648	90845184	42245808	24992
725	29.313522	125083648	90845184	44716384	24992
726	30.349964	125083648	90845184	47513416	24992
727	32.870803	125083648	90845184	36694688	24992
728	34.04077	125083648	90845184	42236384	24992
729	34.211783	125083648	90845184	47626312	24992
730	36.679343	125083648	90845184	39054040	24992
731	36.786906	125083648	90845184	46447808	24992
732	39.541962	125083648	90845184	39720352	24992
733	41.725854	125083648	90845184	51501072	24992
734	41.939937	125083648	90845184	46243008	24992
735	42.782629	125083648	90845184	42716104	24992
736	46.681614	125083648	90845184	44477696	24992
737	46.176718	125083648	90845184	59037928	24992
738	45.795465	125083648	90845184	56363824	24992
739	48.199871	125083648	90845184	55068440	24992
740	57.453975	125894656	91893760	59861048	24992
741	71.058611	116346880	82456576	21522568	24992
742	53.766178	116346880	82456576	27635776	24992
743	54.644968	116346880	82456576	34305872	24992
744	56.182251	116346880	82456576	41942272	24992
745	57.475412	116346880	82456576	50169704	24992
746	61.556422	116617216	82456576	47005920	24992
747	59.054239	116617216	82456576	56680240	24992
748	77.002365	122564608	88748032	55066736	24992
749	72.692784	120446976	86650880	34363160	24992
750	65.969321	120446976	86650880	34246912	24992
751	66.579686	120446976	86650880	34853720	24992
752	65.009385	120446976	86650880	48286160	24992
753	69.198348	120446976	86650880	50346376	24992
754	70.498162	120987648	86650880	53214616	24992
755	96.323594	119062528	87175168	27228112	24992
756	73.092893	121491456	87175168	31215224	24992
757	74.363334	121491456	87175168	36332064	24992
758	72.791557	121491456	87175168	54303208	24992
759	78.564019	121491456	87175168	48832664	24992
760	79.0021	127168512	93466624	56188024	24992
761	97.094612	131223552	97136640	64357560	24992
762	87.257047	122933248	88748032	37084960	24992
763	84.470848	122933248	88748032	34510288	24992
764	82.257504	122933248	88748032	44882800	24992
765	83.602598	122933248	88748032	56145360	24992
766	88.583038	122933248	88748032	55892056	24992
767	112.9959	121565184	89272320	38845192	24992
768	90.416364	123453440	89272320	39623736	24992
769	90.914388	123453440	89272320	41785208	24992
770	89.889473	123453440	89272320	56772848	24992
771	94.09599	124264448	90320896	60412056	24992
772	111.663176	132915200	98709504	64857608	24992
773	105.291917	127627264	93466624	32861232	24992
774	101.659532	127627264	93466624	38749808	24992
775	98.914813	127627264	93466624	45425768	24992
776	99.331628	127627264	93466624	52972664	24992
777	125.280181	120213504	88223744	27838440	24992
778	102.482564	122101760	88223744	36108640	24992
779	103.417607	122101760	88223744	45917096	24992
780	104.135044	122101760	88223744	56459104	24992
781	112.566769	123723776	89796608	55646744	24992
782	131.453823	125112320	90845184	37209184	24992
783	108.80358	125112320	90845184	50238848	24992
784	111.967543	125112320	90845184	51768808	24992
785	111.805671	125112320	90845184	66272176	24992
786	135.914531	125526016	93466624	32417720	24992
787	116.596657	127414272	93466624	35224944	24992
788	115.488706	127414272	93466624	52107144	24992
789	118.760047	127414272	93466624	57692712	24992
790	141.905439	121622528	89272320	31601848	24992
791	121.377854	123510784	89272320	37982536	24992
792	122.572567	123510784	89272320	45833480	24992
793	123.646088	123510784	89272320	54436544	24992
794	145.177677	127852544	93990912	29350824	24992
795	127.22606	127852544	93990912	39729856	24992
796	127.416626	127852544	93990912	50769768	24992
797	134.112298	128663552	94515200	62467064	24992
798	153.372502	120766464	86650880	33903776	24992
799	131.202195	120766464	86650880	47235976	24992
800	132.549525	123199488	89272320	61477808	24992
801	160.785701	127602688	95563776	28964760	24992
802	2.519558	129761280	95563776	44382008	24992
803	3.810855	129761280	95563776	46790136	24992
804	7.456849	129761280	95563776	37114432	24992
805	6.366143	129761280	95563776	41152896	24992
806	7.541017	129761280	95563776	45966856	24992
807	10.403134	129761280	95563776	37144536	24992
808	10.293192	129761280	95563776	43582856	24992
809	11.594334	129761280	95563776	50836560	24992
810	13.06168	129761280	95563776	42448096	24992
811	15.091077	129761280	95563776	36172176	24992
812	15.426878	129761280	95563776	45835048	24992
813	17.307752	129761280	95563776	40685192	24992
814	19.106051	129761280	95563776	37114944	24992
815	19.251714	129761280	95563776	49206744	24992
816	21.442055	129761280	95563776	45941376	24992
817	23.01386	129761280	95563776	44068392	24992
818	24.159203	129761280	95563776	43278048	24992
819	25.22091	129761280	95563776	43411344	24992
820	26.696516	129761280	95563776	44334184	24992
821	28.514266	129761280	95563776	46006232	24992
822	29.340888	129761280	95563776	48187104	24992
823	30.560593	129761280	95563776	50870760	24992
824	33.139718	129761280	95563776	40041032	24992
825	34.265052	129761280	95563776	45575872	24992
826	34.871926	129761280	95563776	51075960	24992
827	36.873107	129761280	95563776	42679128	24992
828	37.340038	129761280	95563776	50320896	24992
829	39.407873	129761280	95563776	43860000	24992
830	41.958067	129761280	95563776	40098992	24992
831	42.807637	129761280	95563776	53246848	24992
832	43.452151	129761280	95563776	49482128	24992
833	47.959886	129761280	95563776	52127312	24992
834	50.091472	129761280	95563776	55492320	24992
835	50.636085	129761280	95563776	59695488	24992
836	52.780925	129761280	95563776	64698296	24992
837	77.238997	119726080	87699456	23420096	24992
838	55.653806	121614336	87699456	29182032	24992
839	55.918172	121614336	87699456	36655936	24992
840	57.826802	121614336	87699456	44948128	24992
841	62.446367	121614336	87699456	42067568	24992
842	59.791714	121614336	87699456	52237432	24992
843	64.831371	121884672	87699456	50958120	24992
844	64.463738	122966016	88748032	62849680	24992
845	89.111625	124203008	91893760	30194120	24992
846	68.543567	126091264	91893760	30792760	24992
847	66.669735	126091264	91893760	45010296	24992
848	70.757635	126091264	91893760	48026736	24992
849	71.888151	126091264	91893760	51815224	24992
850	73.817003	126091264	91893760	56548224	24992
851	79.162308	126631936	92418048	62134896	24992
852	93.471285	126623744	92418048	34186216	24992
853	77.546632	126623744	92418048	41581080	24992
854	78.699233	126623744	92418048	49731888	24992
855	82.841413	126623744	92418048	46583600	24992
856	82.265231	126623744	92418048	56287632	24992
857	88.257797	127975424	93990912	67065096	24992
858	102.168041	125812736	91893760	32923152	24992
859	87.363531	125812736	91893760	45473080	24992
860	89.903165	125812736	91893760	46554144	24992
861	91.3062	125812736	91893760	48431720	24992
862	90.383042	125812736	91893760	63596960	24992
863	116.951192	123990016	89796608	35079920	24992
864	94.609136	123990016	89796608	39822704	24992
865	96.348611	123990016	89796608	45391888	24992
866	97.88349	123990016	89796608	51730096	24992
867	97.859175	125882368	91893760	71201696	24992
868	123.205789	126013440	91893760	28564136	24992
869	102.74573	126013440	91893760	37726800	24992
870	104.593074	126013440	91893760	47546312	24992
871	108.291545	126013440	91893760	58276792	24992
872	130.273953	117841920	85602304	27062672	24992
873	107.538677	119730176	85602304	39089232	24992
874	111.477948	119730176	85602304	40252592	24992
875	110.797741	119730176	85602304	54605992	24992
876	136.269113	123916288	91893760	25900760	24992
877	113.800574	125804544	91893760	41418440	24992
878	116.402743	125804544	91893760	46156624	24992
879	118.244331	125804544	91893760	51915120	24992
880	143.11523	122875904	90845184	25016512	24992
881	119.872402	124764160	90845184	43955576	24992
882	121.760828	124764160	90845184	52091960	24992
883	123.592681	124764160	90845184	61286488	24992
884	150.092019	125358080	91369472	24263616	24992
885	125.977511	125358080	91369472	35181176	24992
886	128.070053	125358080	91369472	47037080	24992
887	130.083007	125358080	91369472	59767456	24992
888	160.164404	125100032	90845184	44114616	24992
889	135.568	125100032	90845184	46448096	24992
890	133.249836	125100032	90845184	61788880	24992
891	140.90443	134021120	100282368	78042408	24992
892	164.645967	134340608	100282368	46432008	24992
893	142.723012	134340608	100282368	52235152	24992
894	142.346282	134340608	100282368	58952768	24992
895	168.899267	125206528	92942336	29154632	24992
896	144.966395	127094784	92942336	36694072	24992
897	142.97184	127094784	92942336	58315376	24992
898	149.138682	127635456	93466624	68612656	24992
899	176.932611	131227648	97136640	48456552	24992
900	150.021499	131227648	97136640	60575976	24992
901	152.07007	131227648	97136640	73644088	24992
902	2.893511	132153344	98185216	35474800	24992
903	6.745312	132153344	98185216	25917920	24992
904	5.917269	132153344	98185216	29580520	24992
905	7.23017	132153344	98185216	34138280	24992
906	8.500599	132153344	98185216	39625384	24992
907	11.043752	132153344	98185216	31122728	24992
908	11.566501	132153344	98185216	38419688	24992
909	13.48653	132153344	98185216	30724848	24992
910	14.301953	132153344	98185216	39858264	24992
911	16.132129	132153344	98185216	33758848	24992
912	18.191306	132153344	98185216	29496712	24992
913	18.630096	132153344	98185216	41420272	24992
914	20.706473	132153344	98185216	37808608	24992
915	22.602863	132153344	98185216	35669568	24992
916	24.277928	132153344	98185216	34804088	24992
917	25.867897	132153344	98185216	35028144	24992
918	27.143687	132153344	98185216	36080592	24992
919	28.273743	132153344	98185216	37914808	24992
920	29.613521	132153344	98185216	40387464	24992
921	32.859756	132153344	98185216	29577968	24992
922	34.444063	132153344	98185216	37930640	24992
923	34.009612	132153344	98185216	43795928	24992
924	36.939215	132153344	98185216	35805304	24992
925	37.188058	132153344	98185216	43728784	24992
926	39.392651	132153344	98185216	37577680	24992
927	42.398999	132153344	98185216	34129768	24992
928	43.115348	132153344	98185216	47875576	24992
929	44.066855	132153344	98185216	44508744	24992
930	46.363692	132153344	98185216	42868640	24992
931	50.292858	132153344	98185216	47224984	24992
932	51.747304	132153344	98185216	52291920	24992
933	52.843324	132153344	98185216	58330592	24992
934	54.419411	132153344	98185216	65253064	24992
935	62.966284	132964352	98709504	60842200	24992
936	76.64803	123564032	89272320	22117624	24992
937	58.811805	123564032	89272320	31966728	24992
938	61.234704	123564032	89272320	42757096	24992
939	65.104499	123564032	89272320	42220952	24992
940	64.130534	123564032	89272320	54744480	24992
941	67.142845	123564032	89272320	56083016	24992
942	70.014854	123564032	89272320	58458344	24992
943	93.179731	124022784	91893760	29847248	24992
944	72.431416	125911040	91893760	33562488	24992
945	74.430791	125911040	91893760	38651912	24992
946	75.58051	125911040	91893760	44831392	24992
947	77.558584	125911040	91893760	51862504	24992
948	78.765565	126181376	91893760	59833848	24992
949	101.56985	126808064	94515200	21278024	24992
950	81.279656	128696320	94515200	30271032	24992
951	83.087988	128696320	94515200	41100008	24992
952	86.593121	128696320	94515200	40658384	24992
953	85.746898	128696320	94515200	53458728	24992
954	100.652126	131670016	97660928	55023112	24992
955	102.859651	119349248	85078016	38341272	24992
956	92.787823	119349248	85078016	41813456	24992
957	95.013514	119349248	85078016	46270888	24992
958	95.208761	119349248	85078016	51584568	24992
959	102.112569	124755968	90845184	70093104	24992
960	120.340887	124129280	89796608	31551992	24992
961	99.26457	124129280	89796608	39791184	24992
962	102.531531	124129280	89796608	49025376	24992
963	104.442078	124129280	89796608	59297160	24992
964	128.896105	123064320	88748032	22825664	24992
965	106.445161	123064320	88748032	35036144	24992
966	107.483005	123064320	88748032	48076360	24992
967	111.499123	123064320	88748032	49891800	24992
968	131.092278	117997568	86126592	33064176	24992
969	114.60651	119885824	86126592	36326368	24992
970	116.998969	119885824	86126592	41169200	24992
971	116.159719	120156160	86126592	59098672	24992
972	139.711676	122523648	88748032	32169752	24992
973	121.411704	122523648	88748032	39966480	24992
974	122.375169	122523648	88748032	48680184	24992
975	128.413952	123064320	89272320	58343584	24992
976	147.228091	120868864	86650880	39931616	24992
977	126.696006	120868864	86650880	51555128	24992
978	129.222426	121409536	87699456	64120160	24992
979	143.076519	131952640	97660928	77480456	24992
980	151.360641	130805760	96612352	44141224	24992
981	135.742212	130805760	96612352	47536448	24992
982	134.978873	130805760	96612352	64046584	24992
983	158.851638	124862464	90845184	31929432	24992
984	142.681024	124862464	90845184	38336376	24992
985	141.41282	124862464	90845184	57809440	24992
986	163.255559	126214144	92418048	65994440	24992
987	152.047092	123949056	89796608	43191528	24992
988	146.66484	123949056	89796608	53352400	24992
989	151.743534	128544768	94515200	64608376	24992
990	177.81817	132022272	97660928	44877528	24992
991	151.83098	132022272	97660928	58020008	24992
992	154.614737	132022272	97660928	72281896	24992
993	181.230436	132218880	100282368	34955576	24992
994	156.574348	134107136	100282368	49875064	24992
995	159.8654	134107136	100282368	54806536	24992
996	164.388241	134918144	100806656	72867520	24992
997	187.202679	126640128	92418048	45622496	24992
998	165.066219	126640128	92418048	53522320	24992
999	209.178908	133668864	99758080	74692392	24992
1000	329.276069	136044544	101855232	46385664	24992
x	Duration	RSS	HeapTotal	HeapUsed	External
0	NA	133906432	99758080	55456400	24992
1	0.220393	133906432	99758080	55504216	24992
2	0.206661	133906432	99758080	55580456	24992
3	0.238146	133906432	99758080	55683744	24992
4	0.289101	133906432	99758080	55815584	24992
5	0.362744	133906432	99758080	55977360	24992
6	0.392799	133906432	99758080	56169584	24992
7	0.44916	133906432	99758080	56393248	24992
8	0.518979	133906432	99758080	56649288	24992
9	0.570261	133906432	99758080	56939704	24992
10	0.631326	133906432	99758080	57265032	24992
11	0.909082	133906432	99758080	57626400	24992
12	0.868583	133906432	99758080	58024512	24992
13	0.654323	133906432	99758080	58460496	24992
14	0.709403	133906432	99758080	58935360	24992
15	0.820065	133906432	99758080	59449984	24992
16	0.859638	133906432	99758080	60005432	24992
17	4.458606	133906432	99758080	48166808	24992
18	1.008882	133906432	99758080	48808656	24992
19	1.018541	133906432	99758080	49495352	24992
20	1.0981	133906432	99758080	50226584	24992
21	1.367217	133906432	99758080	51003880	24992
22	1.213052	133906432	99758080	51828192	24992
23	1.278347	133906432	99758080	52700448	24992
24	1.411454	133906432	99758080	53622680	24992
25	1.423524	133906432	99758080	54595960	24992
26	1.506371	133906432	99758080	55621200	24992
27	1.772853	133906432	99758080	56700112	24992
28	1.644706	133906432	99758080	57832368	24992
29	1.943884	133906432	99758080	59019472	24992
30	1.805092	133906432	99758080	60262360	24992
31	1.933549	133906432	99758080	61562256	24992
32	1.984216	133906432	99758080	62922576	24992
33	4.678401	133906432	99758080	49579816	24992
34	3.028863	133906432	99758080	51064312	24992
35	2.518131	133906432	99758080	52608552	24992
36	2.395238	133906432	99758080	54223464	24992
37	2.394463	133906432	99758080	55892384	24992
38	2.483583	133906432	99758080	57624936	24992
39	2.587617	133906432	99758080	59422224	24992
40	2.673694	133906432	99758080	61285304	24992
41	2.770647	133906432	99758080	63214896	24992
42	4.696187	133906432	99758080	49315256	24992
43	3.04518	133906432	99758080	51381336	24992
44	3.059601	133906432	99758080	53516792	24992
45	3.162534	133906432	99758080	55724160	24992
46	3.495473	133906432	99758080	58004072	24992
47	3.384687	133906432	99758080	60356176	24992
48	3.510589	133906432	99758080	62783024	24992
49	5.348412	133906432	99758080	49736896	24992
50	4.06497	133906432	99758080	52317624	24992
51	4.352562	133906432	99758080	54977096	24992
52	3.963737	133906432	99758080	57716760	24992
53	4.124563	133906432	99758080	60537560	24992
54	4.385664	133906432	99758080	63440592	24992
55	7.055672	133906432	99758080	50894816	24992
56	4.990945	133906432	99758080	53965080	24992
57	5.261136	133906432	99758080	57120088	24992
58	4.769153	133906432	99758080	60370048	24992
59	5.072777	133906432	99758080	63699128	24992
60	6.901371	133906432	99758080	51569936	24992
61	5.461336	133906432	99758080	55075240	24992
62	5.603971	133906432	99758080	58670184	24992
63	5.740521	133906432	99758080	62357016	24992
64	5.430098	133906432	99758080	66135168	24992
65	7.629535	133906432	99758080	54172720	24992
66	5.825548	133906432	99758080	58145096	24992
67	6.292768	133906432	99758080	62215816	24992
68	6.048122	133906432	99758080	66378792	24992
69	8.435552	133906432	99758080	54782184	24992
70	6.845659	133906432	99758080	59139856	24992
71	7.176517	133906432	99758080	63605448	24992
72	8.805923	133906432	99758080	52696496	24992
73	7.143994	133906432	99758080	57352984	24992
74	6.953644	133906432	99758080	62112656	24992
75	7.324308	133906432	99758080	66973496	24992
76	9.447669	133906432	99758080	56030240	24992
77	7.536407	133906432	99758080	61099240	24992
78	7.863221	133906432	99758080	66273472	24992
79	9.891041	133906432	99758080	55790256	24992
80	7.944691	133906432	99758080	61179632	24992
81	8.763586	133906432	99758080	66681592	24992
82	10.162682	133906432	99758080	56469848	24992
83	8.878264	133906432	99758080	62188664	24992
84	9.394477	133906432	99758080	68027824	24992
85	10.629586	133906432	99758080	58036024	24992
86	8.910115	133906432	99758080	64094184	24992
87	11.618302	133906432	99758080	54974128	24992
88	9.686501	133906432	99758080	61264312	24992
89	10.684178	133906432	99758080	67679184	24992
90	11.935075	133906432	99758080	58453424	24992
91	9.821639	133906432	99758080	65099768	24992
92	12.691261	133906432	99758080	56586848	24992
93	10.322667	133906432	99758080	63474440	24992
94	10.344431	133906432	99758080	70483504	24992
95	13.263774	133906432	99758080	61647512	24992
96	10.973204	133906432	99758080	68904560	24992
97	13.545665	133906432	99758080	60530144	24992
98	11.56335	133906432	99758080	68038192	24992
99	14.238424	133906432	99758080	60091184	24992
100	12.108501	133906432	99758080	67854784	24992
101	14.392253	133906432	99758080	60196504	24992
102	0.443253	133906432	99758080	68036848	24992
103	0.620575	133906432	99758080	68440440	24992
104	0.810267	133906432	99758080	68980448	24992
105	1.006002	133906432	99758080	69658256	24992
106	1.202365	133906432	99758080	70473704	24992
107	1.606972	133906432	99758080	71428120	24992
108	1.603952	133906432	99758080	72522544	24992
109	3.897355	133906432	99758080	57696112	24992
110	2.018517	133906432	99758080	59074536	24992
111	2.206113	133906432	99758080	60595968	24992
112	2.460019	133906432	99758080	62261264	24992
113	2.628295	133906432	99758080	64071488	24992
114	2.823955	133906432	99758080	66027464	24992
115	3.28875	133906432	99758080	68130384	24992
116	3.713744	133906432	99758080	70383816	24992
117	3.682737	133906432	99758080	72785176	24992
118	6.21907	133906432	99758080	59177040	24992
119	3.973794	133906432	99758080	61878952	24992
120	4.136329	133906432	99758080	64732872	24992
121	4.370861	133906432	99758080	67739664	24992
122	4.588423	133906432	99758080	70902976	24992
123	7.289839	133906432	99758080	58348536	24992
124	5.046104	133906432	99758080	61819208	24992
125	5.374865	133906432	99758080	65447328	24992
126	5.717696	133906432	99758080	69239536	24992
127	5.700542	133906432	99758080	73182984	24992
128	8.248118	133906432	99758080	61087688	24992
129	6.426469	133906432	99758080	65351616	24992
130	6.435248	133906432	99758080	69776392	24992
131	9.250726	133906432	99758080	58730232	24992
132	6.995152	133906432	99758080	63483520	24992
133	7.15526	133906432	99758080	68401400	24992
134	7.657653	133906432	99758080	73488944	24992
135	10.015872	133906432	99758080	62538960	24992
136	7.917139	133906432	99758080	67961192	24992
137	8.17886	133906432	99758080	73551616	24992
138	10.753677	133906432	99758080	63128512	24992
139	8.916926	133906432	99758080	69057744	24992
140	11.447335	133906432	99758080	59716000	24992
141	9.206546	133906432	99758080	65990104	24992
142	9.88598	133906432	99758080	72439800	24992
143	12.336692	133906432	99758080	63072352	24992
144	10.037665	133906432	99758080	69874136	24992
145	12.981325	133906432	99758080	61331736	24992
146	10.727362	133906432	99758080	68490872	24992
147	13.459569	133906432	99758080	60553120	24992
148	11.231552	133906432	99758080	68073464	24992
149	14.300373	133906432	99758080	60604392	24992
150	11.638177	133906432	99758080	68488704	24992
151	15.135423	133906432	99758080	61339624	24992
152	12.314771	133906432	99758080	69592480	24992
153	15.424656	133906432	99758080	62650392	24992
154	13.066645	133906432	99758080	71276224	24992
155	15.944348	133906432	99758080	64468200	24992
156	13.983843	133906432	99758080	73470120	24992
157	16.40156	133906432	99758080	66690240	24992
158	17.456049	133906432	99758080	61240872	24992
159	14.985524	133906432	99758080	70815856	24992
160	18.072789	133906432	99758080	65063568	24992
161	14.927022	133906432	99758080	75023744	24992
162	18.087466	133906432	99758080	69045320	24992
163	18.274423	133906432	99758080	64270960	24992
164	16.019826	133906432	99758080	74823080	24992
165	18.428306	133906432	99758080	69459816	24992
166	19.790698	133906432	99758080	65271944	24992
167	17.276101	133906432	99758080	76422192	24992
168	19.491648	133906432	99758080	71503472	24992
169	20.456049	133906432	99758080	67615824	24992
170	21.266384	133906432	99758080	64610824	24992
171	18.1275	133906432	99758080	76568496	24992
172	21.552565	133906432	99758080	72499224	24992
173	22.276947	133906432	99758080	69341864	24992
174	22.530341	133906432	99758080	66902656	24992
175	23.969886	133906432	99758080	65132192	24992
176	19.809427	133906432	99758080	78124344	24992
177	23.25411	133906432	99758080	75025192	24992
178	23.843963	133906432	99758080	72616272	24992
179	25.054651	133906432	99758080	70831840	24992
180	24.298052	134176768	100282368	69535656	24992
181	28.200387	134176768	100282368	68700408	24992
182	34.826676	134176768	100282368	68260704	24992
183	32.164326	121352192	88748032	26340240	24992
184	24.418248	122699776	88748032	25227208	24992
185	23.840092	122699776	88748032	24679912	24992
186	24.668256	122699776	88748032	24481352	24992
187	24.961022	122699776	88748032	24589312	24992
188	25.076674	122699776	88748032	24933632	24992
189	25.76642	122699776	88748032	25488152	24992
190	26.83805	122699776	88748032	26189360	24992
191	26.512468	122699776	88748032	27046840	24992
192	26.648744	122699776	88748032	28012096	24992
193	27.177235	122699776	88748032	29082288	24992
194	27.297271	122699776	88748032	30251064	24992
195	27.715057	122699776	88748032	31459640	24992
196	27.57837	122970112	88748032	32731496	24992
197	31.402285	122970112	88748032	20543752	24992
198	30.548907	122970112	88748032	24218160	24992
199	29.52759	122970112	88748032	27593544	24992
200	30.160735	122970112	88748032	30658880	24992
201	30.117889	122970112	88748032	33461440	24992
202	0.775993	122970112	88748032	22534024	24992
203	1.085984	122970112	88748032	23235760	24992
204	1.439263	122970112	88748032	24179480	24992
205	1.799904	122970112	88748032	25354616	24992
206	2.131417	122970112	88748032	26768768	24992
207	2.543427	122970112	88748032	28426944	24992
208	3.123363	122970112	88748032	30335320	24992
209	3.4422	122970112	88748032	32489704	24992
210	3.831337	122970112	88748032	34894520	24992
211	5.746391	122970112	88748032	21223456	24992
212	4.458808	122970112	88748032	24130352	24992
213	4.915286	122970112	88748032	27294984	24992
214	5.530062	122970112	88748032	30709640	24992
215	5.72593	122970112	88748032	34376960	24992
216	7.766062	122970112	88748032	22107408	24992
217	6.529645	122970112	88748032	26286704	24992
218	6.945136	122970112	88748032	30725120	24992
219	9.294245	122970112	88748032	19846872	24992
220	7.703795	122970112	88748032	24811896	24992
221	8.448341	122970112	88748032	30028840	24992
222	10.534868	122970112	88748032	20043520	24992
223	9.109222	122970112	88748032	25784056	24992
224	9.354757	122970112	88748032	31791720	24992
225	11.646788	122970112	88748032	22334896	24992
226	10.199145	122970112	88748032	28875624	24992
227	10.610182	122970112	88748032	35676784	24992
228	12.578432	122970112	88748032	26411064	24992
229	11.397957	122970112	88748032	33756616	24992
230	13.712469	122970112	88748032	25342408	24992
231	12.414114	122970112	88748032	33228608	24992
232	14.850628	122970112	88748032	25476088	24992
233	13.089798	122970112	88748032	33917728	24992
234	15.337437	122970112	88748032	26605976	24992
235	14.161078	122970112	88748032	35600680	24992
236	15.574826	122970112	88748032	28580040	24992
237	17.220824	122970112	88748032	23041872	24992
238	15.500335	122970112	88748032	32876296	24992
239	17.793821	122970112	88748032	27160344	24992
240	19.203442	122970112	88748032	22753336	24992
241	16.900504	122970112	88748032	33426520	24992
242	19.068702	122970112	88748032	28532752	24992
243	20.043821	122970112	88748032	24771800	24992
244	17.967248	122970112	88748032	36302968	24992
245	20.188536	122970112	88748032	31781440	24992
246	21.636939	122970112	88748032	28361200	24992
247	22.431815	122970112	88748032	25804400	24992
248	23.15089	122970112	88748032	23991880	24992
249	20.479949	122970112	88748032	36961120	24992
250	21.953455	122970112	88748032	33890312	24992
251	23.538179	122970112	88748032	31620528	24992
252	24.306953	122970112	88748032	30022880	24992
253	24.838763	122970112	88748032	29004016	24992
254	25.44028	122970112	88748032	28467896	24992
255	26.099486	122970112	88748032	28387144	24992
256	27.10037	122970112	88748032	28603328	24992
257	26.759219	122970112	88748032	29111128	24992
258	28.051672	122970112	88748032	29810656	24992
259	28.840699	122970112	88748032	30736384	24992
260	28.409031	122970112	88748032	31833616	24992
261	29.374003	122970112	88748032	33073656	24992
262	29.364048	122970112	88748032	34375248	24992
263	29.580334	122970112	88748032	35788912	24992
264	30.215517	122970112	88748032	37261624	24992
265	30.795378	122970112	88748032	38815952	24992
266	35.226874	122970112	88748032	26862736	24992
267	32.319608	122970112	88748032	30891120	24992
268	32.782387	122970112	88748032	34544464	24992
269	32.848955	122970112	88748032	37914824	24992
270	37.61852	122970112	88748032	27589992	24992
271	37.508598	122970112	88748032	35742288	24992
272	34.695438	122970112	88748032	40622304	24992
273	39.135387	122970112	88748032	31446048	24992
274	37.979723	122970112	88748032	40531888	24992
275	36.125159	122970112	88748032	46175664	24992
276	39.749002	122970112	88748032	37385520	24992
277	37.449869	122970112	88748032	44027544	24992
278	41.344708	122970112	88748032	36592696	24992
279	40.945834	122970112	88748032	47247600	24992
280	42.841563	122970112	88748032	40927344	24992
281	41.928284	122970112	88748032	52219472	24992
282	43.77203	122970112	88748032	46264256	24992
283	55.870148	123781120	89796608	46420864	24992
284	68.351258	115896320	83505152	20717280	24992
285	42.713026	117784576	83505152	32379208	24992
286	41.877947	117784576	83505152	27822768	24992
287	47.506356	117784576	83505152	29179984	24992
288	42.952841	117784576	83505152	42450216	24992
289	43.634287	117784576	83505152	38338696	24992
290	49.821176	117784576	83505152	40729688	24992
291	49.405653	117784576	83505152	43187864	24992
292	49.554462	118054912	84029440	45968416	24992
293	46.156955	120487936	86650880	60916536	24992
294	45.158675	120758272	87699456	58051184	24992
295	46.501438	121298944	88748032	56335768	24992
296	55.184766	126164992	94515200	60646104	24992
297	67.712174	117993472	85602304	32382880	24992
298	53.69537	119881728	85602304	36485256	24992
299	54.733545	119881728	85602304	41615200	24992
300	49.351793	119881728	85602304	40718704	24992
301	49.178798	119881728	85602304	40476376	24992
302	1.117412	119881728	85602304	47028296	24992
303	1.621135	119881728	85602304	48057456	24992
304	6.583881	119881728	85602304	37501512	24992
305	2.732008	119881728	85602304	39218408	24992
306	3.171538	119881728	85602304	41281856	24992
307	3.62298	119881728	85602304	43694168	24992
308	4.28229	119881728	85602304	46452536	24992
309	4.822369	119881728	85602304	49559936	24992
310	7.710917	119881728	85602304	38774416	24992
311	5.892881	119881728	85602304	42583480	24992
312	6.455444	119881728	85602304	46749904	24992
313	6.959196	119881728	85602304	51263984	24992
314	8.091228	119881728	85602304	39923568	24992
315	8.169399	119881728	85602304	45148240	24992
316	8.884241	119881728	85602304	50731528	24992
317	10.211404	119881728	85602304	40558904	24992
318	9.976426	119881728	85602304	46856552	24992
319	11.324725	119881728	85602304	38063344	24992
320	11.015899	119881728	85602304	45080752	24992
321	11.685583	119881728	85602304	52474128	24992
322	13.069868	119881728	85602304	43776520	24992
323	12.792166	119881728	85602304	51875912	24992
324	13.763878	119881728	85602304	44044936	24992
325	13.842822	119881728	85602304	52878736	24992
326	14.854466	119881728	85602304	45678184	24992
327	16.643145	119881728	85602304	40112752	24992
328	15.590095	119881728	85602304	50044072	24992
329	17.204129	119881728	85602304	44457680	24992
330	18.301718	119881728	85602304	40245384	24992
331	17.473073	119881728	85602304	51280144	24992
332	19.430225	119881728	85602304	46595960	24992
333	20.011318	119881728	85602304	43145976	24992
334	21.597356	119881728	85602304	40642840	24992
335	19.54357	119881728	85602304	53189424	24992
336	21.076191	119881728	85602304	49722904	24992
337	22.005818	119881728	85602304	47244720	24992
338	22.893505	119881728	85602304	45590152	24992
339	24.764348	119881728	85602304	44601456	24992
340	24.759894	119881728	85602304	44191632	24992
341	25.446427	119881728	85602304	44228112	24992
342	25.727883	119881728	85602304	44641088	24992
343	26.59186	119881728	85602304	45380616	24992
344	27.249051	119881728	85602304	46366008	24992
345	28.077898	119881728	85602304	47593208	24992
346	27.723173	119881728	85602304	49001312	24992
347	28.970868	119881728	85602304	50538440	24992
348	29.311672	119881728	85602304	52239408	24992
349	29.61147	119881728	85602304	54044240	24992
350	32.294001	119881728	85602304	42399752	24992
351	32.304996	119881728	85602304	46738280	24992
352	32.271548	119881728	85602304	50719704	24992
353	33.479058	119881728	85602304	54397240	24992
354	35.269525	119881728	85602304	44335376	24992
355	34.538015	119881728	85602304	49928704	24992
356	34.488844	119881728	85602304	54942624	24992
357	36.887461	119881728	85602304	45996120	24992
358	35.897265	119881728	85602304	52568568	24992
359	40.039316	119881728	85602304	45207712	24992
360	40.128248	119881728	85602304	56069312	24992
361	41.189949	119881728	85602304	49885776	24992
362	41.895387	119881728	85602304	61561448	24992
363	41.979584	119881728	85602304	55836720	24992
364	45.074332	119881728	85602304	51932224	24992
365	52.528768	121233408	87175168	64667720	24992
366	61.223054	121503744	87175168	31188216	24992
367	49.800262	121503744	87175168	32368664	24992
368	49.51561	121503744	87175168	34530560	24992
369	50.062477	121503744	87175168	37119192	24992
370	50.113775	121503744	87175168	40048096	24992
371	51.537404	121503744	87175168	43468288	24992
372	52.732619	121774080	87699456	47247528	24992
373	48.995003	122044416	87699456	63116296	24992
374	68.099233	116899840	85078016	17663184	24992
375	55.437224	119328768	85078016	22285024	24992
376	54.158701	119328768	85078016	27693240	24992
377	55.97319	119328768	85078016	33558008	24992
378	55.59885	119328768	85078016	39822984	24992
379	56.163496	119328768	85078016	46547928	24992
380	56.945203	119328768	85078016	53661416	24992
381	80.414818	115691520	83505152	19722944	24992
382	58.761067	117579776	83505152	27022464	24992
383	58.644628	117579776	83505152	35370064	24992
384	60.414057	117579776	83505152	44190504	24992
385	65.5189	117579776	83505152	41909168	24992
386	62.335526	117850112	83505152	51557744	24992
387	64.865502	117850112	83505152	61618560	24992
388	90.938295	121094144	89272320	31405800	24992
389	68.665772	122986496	89272320	30309296	24992
390	64.597169	122986496	89272320	41659296	24992
391	70.451941	122986496	89272320	41894976	24992
392	66.110334	122986496	89272320	54207624	24992
393	70.572737	124067840	89796608	55373936	24992
394	74.877821	125960192	91893760	68507528	24992
395	86.052453	123297792	89272320	35976992	24992
396	71.983539	123297792	89272320	38567696	24992
397	73.833015	123297792	89272320	41374856	24992
398	73.71463	123297792	89272320	44678048	24992
399	70.250189	123297792	89272320	59916128	24992
400	81.603304	123838464	89796608	64092192	24992
401	94.216643	123047936	89272320	36101240	24992
402	1.444523	123588608	89272320	41610016	24992
403	2.082118	123588608	89272320	42947104	24992
404	2.900625	123588608	89272320	44726680	24992
405	7.348917	123588608	89272320	34634168	24992
406	4.179277	123588608	89272320	37310632	24992
407	4.856393	123588608	89272320	40434752	24992
408	5.583054	123588608	89272320	44017624	24992
409	8.66948	123588608	89272320	33838696	24992
410	6.922365	123588608	89272320	38321728	24992
411	8.16526	123588608	89272320	43252568	24992
412	8.732286	123588608	89272320	48653088	24992
413	9.244927	123588608	89272320	38057872	24992
414	10.146726	123588608	89272320	44353272	24992
415	11.551036	123588608	89272320	35452608	24992
416	11.302124	123588608	89272320	42668888	24992
417	12.970696	123588608	89272320	34986512	24992
418	12.644058	123588608	89272320	43149608	24992
419	14.619027	123588608	89272320	36342664	24992
420	14.199683	123588608	89272320	45461352	24992
421	15.660036	123588608	89272320	39215424	24992
422	17.026676	123588608	89272320	34574992	24992
423	16.837753	123588608	89272320	45143224	24992
424	18.01943	123588608	89272320	40415600	24992
425	19.42421	123588608	89272320	36980616	24992
426	19.262529	123588608	89272320	48998384	24992
427	19.479139	123588608	89272320	45040768	24992
428	21.207287	123588608	89272320	42255680	24992
429	22.585896	123588608	89272320	40452864	24992
430	23.342261	123588608	89272320	39448160	24992
431	24.055959	123588608	89272320	39136072	24992
432	24.78145	123588608	89272320	39358544	24992
433	25.910088	123588608	89272320	40064336	24992
434	26.572966	123588608	89272320	41120768	24992
435	27.205485	123588608	89272320	42497400	24992
436	27.333766	123588608	89272320	44140512	24992
437	27.939238	123588608	89272320	45931240	24992
438	28.797067	123588608	89272320	47949848	24992
439	32.030565	123588608	89272320	36683784	24992
440	34.714268	123588608	89272320	44218632	24992
441	31.078263	123588608	89272320	48686608	24992
442	34.836818	123588608	89272320	39682552	24992
443	36.178203	123588608	89272320	48661984	24992
444	34.06625	123588608	89272320	54399232	24992
445	36.100453	123588608	89272320	46163120	24992
446	38.669913	123588608	89272320	56723904	24992
447	38.914233	123588608	89272320	50311680	24992
448	40.086972	123588608	89272320	61886880	24992
449	39.26777	123588608	89272320	56142832	24992
450	42.513385	123588608	89272320	52288584	24992
451	43.258106	124129280	89796608	65202472	24992
452	46.073585	124129280	89796608	60940992	24992
453	67.187914	120180736	88223744	30495800	24992
454	49.932048	122068992	88223744	32150328	24992
455	49.604451	122068992	88223744	35276736	24992
456	49.871521	122068992	88223744	38775320	24992
457	50.320229	122068992	88223744	42901952	24992
458	50.926502	122068992	88223744	47498848	24992
459	52.769052	122068992	88223744	52585384	24992
460	55.110053	123150336	88748032	58209976	24992
461	78.408492	124772352	90845184	64367352	24992
462	61.038902	124030976	89796608	26650160	24992
463	57.549265	124030976	89796608	33834864	24992
464	55.634015	124030976	89796608	41585088	24992
465	57.228741	124030976	89796608	49911088	24992
466	58.116707	124030976	89796608	58681760	24992
467	63.868525	124030976	89796608	56270888	24992
468	62.354651	124301312	90320896	66077504	24992
469	88.028073	126693376	94515200	31707008	24992
470	66.663305	128581632	94515200	29900968	24992
471	62.746925	128581632	94515200	41384480	24992
472	68.271397	128581632	94515200	41631824	24992
473	63.730468	128581632	94515200	54149936	24992
474	69.453463	128581632	94515200	55421608	24992
475	66.874636	128581632	94515200	68960928	24992
476	95.952545	124608512	92418048	37349592	24992
477	71.420994	126496768	92418048	39257320	24992
478	73.632449	126496768	92418048	42643672	24992
479	73.736608	126496768	92418048	46579888	24992
480	74.134724	126496768	92418048	51069192	24992
481	70.904632	126496768	92418048	67731776	24992
482	101.007011	124076032	91893760	25442488	24992
483	78.098955	125964288	91893760	30513176	24992
484	77.06381	125964288	91893760	37355248	24992
485	77.873555	125964288	91893760	44656568	24992
486	79.220211	125964288	91893760	52662072	24992
487	88.494446	126504960	92418048	61052976	24992
488	105.768766	125173760	90845184	27770296	24992
489	82.882465	125173760	90845184	37231536	24992
490	82.482295	125173760	90845184	47120304	24992
491	83.072006	125173760	90845184	57561872	24992
492	82.920608	125173760	90845184	68630456	24992
493	110.65838	121528320	89272320	32436952	24992
494	89.502855	123416576	89272320	31611416	24992
495	86.203256	123416576	89272320	44225520	24992
496	92.702442	123416576	89272320	45786872	24992
497	91.265314	123416576	89272320	59637000	24992
498	124.513496	124579840	90320896	32605880	24992
499	90.499524	124579840	90320896	47452296	24992
500	96.141395	124579840	90320896	51196176	24992
501	97.137095	124579840	90320896	55519520	24992
502	1.922072	129175552	95039488	72452016	24992
503	2.797349	129175552	95039488	74127328	24992
504	10.885104	131608576	97660928	64199480	24992
505	4.721016	131608576	97660928	66995904	24992
506	6.058222	131608576	97660928	70355712	24992
507	9.312007	131608576	97660928	74277600	24992
508	16.880622	133500928	99233792	64535376	24992
509	18.343953	127324160	93466624	23469968	24992
510	8.952887	127324160	93466624	29088512	24992
511	9.577542	127324160	93466624	35281912	24992
512	10.820436	127590400	93466624	26034728	24992
513	10.963277	127590400	93466624	33355592	24992
514	13.550713	127590400	93466624	25626000	24992
515	13.557988	127590400	93466624	34105432	24992
516	14.412059	127590400	93466624	27351312	24992
517	15.184248	127590400	93466624	36971208	24992
518	17.012407	127590400	93466624	30895576	24992
519	17.755267	127590400	93466624	26461296	24992
520	17.439053	127590400	93466624	37818864	24992
521	18.644563	127590400	93466624	33305040	24992
522	20.445228	127590400	93466624	30176920	24992
523	21.906114	127590400	93466624	28139520	24992
524	22.409159	127590400	93466624	27074200	24992
525	23.883742	127590400	93466624	26779256	24992
526	25.399088	127590400	93466624	27145488	24992
527	25.445252	127590400	93466624	28014840	24992
528	26.185699	127590400	93466624	29341648	24992
529	27.151856	127590400	93466624	31011192	24992
530	28.321544	127590400	93466624	32981664	24992
531	28.950703	127590400	93466624	35159232	24992
532	29.088492	127590400	93466624	37568160	24992
533	32.731586	127590400	93466624	26692744	24992
534	32.559263	127590400	93466624	31817064	24992
535	32.848246	127590400	93466624	36652432	24992
536	36.302833	127590400	93466624	27997120	24992
537	37.954476	127590400	93466624	37946640	24992
538	38.880972	127590400	93466624	31454168	24992
539	38.792046	127590400	93466624	42546896	24992
540	39.968479	127590400	93466624	36923528	24992
541	42.721988	127590400	93466624	49247984	24992
542	41.099203	127590400	93466624	44143400	24992
543	43.505449	127590400	93466624	40855240	24992
544	48.503453	127590400	93466624	43204296	24992
545	45.26389	127590400	93466624	57630480	24992
546	44.8756	127590400	93466624	54674224	24992
547	47.123898	127590400	93466624	53205944	24992
548	52.361276	127590400	93466624	57980304	24992
549	53.417121	127590400	93466624	63107976	24992
550	59.65728	128401408	93990912	68917608	24992
551	71.973282	127062016	92942336	26473328	24992
552	55.562143	127062016	92942336	33615016	24992
553	56.968071	127062016	92942336	41201120	24992
554	57.885284	127062016	92942336	49379928	24992
555	64.161827	127062016	92942336	46565192	24992
556	60.403651	127062016	92942336	56024056	24992
557	61.609362	127062016	92942336	66044104	24992
558	89.422619	121884672	89796608	33353376	24992
559	65.909948	123772928	89796608	32295488	24992
560	63.247936	123772928	89796608	44162496	24992
561	69.098242	123772928	89796608	45071672	24992
562	65.567937	123772928	89796608	58171496	24992
563	70.386444	124043264	89796608	60266736	24992
564	88.553541	128098304	93990912	63067208	24992
565	76.320234	125562880	91369472	30609776	24992
566	73.203358	125562880	91369472	34596008	24992
567	74.824067	125562880	91369472	39243664	24992
568	71.333842	125562880	91369472	56090408	24992
569	77.565161	125562880	91369472	61991040	24992
570	101.615864	119844864	87699456	23768152	24992
571	79.479843	121733120	87699456	29994960	24992
572	80.614882	121733120	87699456	37758976	24992
573	81.081051	121733120	87699456	46132824	24992
574	80.830193	121733120	87699456	55180448	24992
575	106.863858	120041472	87699456	21566112	24992
576	84.388757	121929728	87699456	31264472	24992
577	83.542538	121929728	87699456	42188448	24992
578	85.960978	121929728	87699456	53748560	24992
579	93.0213	121929728	87699456	54448200	24992
580	112.295904	121782272	89796608	22769968	24992
581	89.689009	123670528	89796608	35383416	24992
582	94.71363	123670528	89796608	37876176	24992
583	92.97283	123670528	89796608	52820888	24992
584	95.661553	124481536	90320896	56781864	24992
585	127.427985	126095360	91893760	30728504	24992
586	94.822324	126095360	91893760	47526920	24992
587	98.350104	126095360	91893760	53217768	24992
588	97.164132	126095360	91893760	59594432	24992
589	101.226832	133124096	99233792	66611792	24992
590	133.572203	132685824	98709504	37355896	24992
591	102.123949	132685824	98709504	45907464	24992
592	104.353535	132685824	98709504	54833120	24992
593	104.997834	132685824	98709504	64474888	24992
594	113.423932	135659520	101855232	74809408	24992
595	131.306705	128094208	93990912	35355152	24992
596	108.591373	128094208	93990912	46979808	24992
597	109.584202	128094208	93990912	59168424	24992
598	112.335415	128634880	94515200	72118296	24992
599	145.617637	129761280	95563776	40033992	24992
600	112.606103	129761280	95563776	54193296	24992
601	118.007755	129761280	95563776	57531920	24992
602	2.425229	130301952	96088064	73563632	24992
603	3.05396	130301952	96088064	75554760	24992
604	8.933532	132734976	98709504	66014752	24992
605	5.558853	132734976	98709504	69332640	24992
606	6.695626	132734976	98709504	73317336	24992
607	7.623307	132734976	98709504	77969176	24992
608	12.807399	134627328	100282368	68636568	24992
609	12.767202	134627328	100282368	74628616	24992
610	19.207014	124710912	90320896	16577864	24992
611	11.579349	124710912	90320896	23924584	24992
612	13.284903	124710912	90320896	16386272	24992
613	13.254651	124710912	90320896	25063016	24992
614	15.421365	124710912	90320896	18698832	24992
615	15.082465	124710912	90320896	28744520	24992
616	16.832193	124710912	90320896	23097152	24992
617	18.532657	124710912	90320896	19104128	24992
618	20.219404	124710912	90320896	16529080	24992
619	19.743206	124710912	90320896	29295064	24992
620	20.920926	124710912	90320896	26250968	24992
621	22.744265	124710912	90320896	24431792	24992
622	23.712733	124710912	90320896	23604176	24992
623	25.123654	124710912	90320896	23653032	24992
624	25.899521	124710912	90320896	24341272	24992
625	27.107939	124710912	90320896	25607824	24992
626	28.274064	124710912	90320896	27330840	24992
627	29.509577	124710912	90320896	29438672	24992
628	32.210244	124710912	90320896	18372240	24992
629	32.525228	124710912	90320896	23572632	24992
630	32.485017	124710912	90320896	28501056	24992
631	35.858712	124710912	90320896	19866528	24992
632	35.585755	124710912	90320896	26891024	24992
633	38.424933	124710912	90320896	20226304	24992
634	39.925532	124710912	90320896	31999216	24992
635	40.537326	124710912	90320896	26738664	24992
636	46.914441	124710912	90320896	28346216	24992
637	49.078462	124710912	90320896	30311920	24992
638	45.355935	124710912	90320896	44617536	24992
639	45.284968	124710912	90320896	41842136	24992
640	52.330645	124710912	90320896	46130584	24992
641	53.312583	127414272	93466624	50903416	24992
642	69.822757	130387968	96088064	56394488	24992
643	57.911749	116744192	82456576	33140424	24992
644	59.83154	116744192	82456576	28376544	24992
645	55.970007	116744192	82456576	35851520	24992
646	56.952577	116744192	82456576	44117992	24992
647	58.99675	116744192	82456576	53066128	24992
648	65.480124	117284864	82980864	51170696	24992
649	81.596595	121610240	87699456	61483256	24992
650	71.61837	122449920	88223744	30465728	24992
651	62.165857	122449920	88223744	42214264	24992
652	68.439669	122449920	88223744	43118024	24992
653	65.20401	122449920	88223744	56328144	24992
654	70.31355	122449920	88223744	58680224	24992
655	73.34786	127315968	93466624	61737392	24992
656	98.65325	125939712	94515200	32070920	24992
657	74.321336	128909312	94515200	35502184	24992
658	77.024234	128909312	94515200	40740872	24992
659	78.258568	128909312	94515200	46661168	24992
660	74.428779	128909312	94515200	64727952	24992
661	84.032887	129449984	95039488	60671664	24992
662	109.050006	123621376	91369472	34995688	24992
663	81.689655	125509632	91369472	42739496	24992
664	82.045279	125509632	91369472	52299120	24992
665	88.843533	125509632	91369472	50969440	24992
666	84.682035	125509632	91369472	61960776	24992
667	87.952026	131997696	97660928	73670952	24992
668	115.429659	132505600	98709504	36785144	24992
669	92.538138	132505600	98709504	38573848	24992
670	89.796291	132505600	98709504	52469640	24992
671	95.363888	132505600	98709504	55449744	24992
672	91.669032	133586944	99233792	70887864	24992
673	123.076016	126152704	91893760	40282264	24992
674	98.508562	126152704	91893760	45704256	24992
675	98.869417	126152704	91893760	51724752	24992
676	100.329581	126152704	91893760	58460224	24992
677	109.764843	131829760	97660928	77594128	24992
678	116.989183	130347008	96088064	36954712	24992
679	103.807086	130347008	96088064	45842288	24992
680	103.721804	130347008	96088064	55438944	24992
681	107.412839	130347008	96088064	65828904	24992
682	134.157498	124993536	90845184	43569392	24992
683	113.686514	124993536	90845184	43984072	24992
684	109.551831	124993536	90845184	56610832	24992
685	111.836804	128778240	94515200	70065488	24992
686	138.611284	128126976	96088064	32843136	24992
687	116.755082	130015232	96088064	34691008	24992
688	113.352915	130015232	96088064	50270496	24992
689	120.101853	130015232	96088064	55140440	24992
690	140.672898	127221760	93466624	24574816	24992
691	118.655606	127221760	93466624	42582408	24992
692	124.066292	127221760	93466624	49699824	24992
693	130.465897	129654784	95563776	57456176	24992
694	151.091106	126898176	92942336	46790376	24992
695	126.751899	126898176	92942336	56108744	24992
696	128.223671	126898176	92942336	66170744	24992
697	138.905586	136900608	102903808	76972512	24992
698	156.184239	132927488	98709504	38671352	24992
699	130.670807	132927488	98709504	50944120	24992
700	132.209869	132927488	98709504	64034352	24992
701	159.301085	128577536	94515200	26157848	24992
702	2.476866	128847872	94515200	41536496	24992
703	3.413987	128847872	94515200	43826032	24992
704	4.687357	128847872	94515200	46868568	24992
705	5.935388	128847872	94515200	50673912	24992
706	9.882059	128847872	94515200	41738000	24992
707	8.234508	128847872	94515200	47096960	24992
708	10.891923	128847872	94515200	38376408	24992
709	10.518526	128847872	94515200	45243896	24992
710	11.99859	128847872	94515200	52902464	24992
711	13.349997	128847872	94515200	45018360	24992
712	15.575264	128847872	94515200	39370504	24992
713	15.331395	128847872	94515200	49320760	24992
714	17.588089	128847872	94515200	44382808	24992
715	18.617407	128847872	94515200	41113064	24992
716	19.109124	128847872	94515200	53402224	24992
717	20.891976	128847872	94515200	50050280	24992
718	22.104854	128847872	94515200	48084304	24992
719	23.907893	128847872	94515200	47281944	24992
720	25.123246	128847872	94515200	47426136	24992
721	26.248456	128847872	94515200	48249936	24992
722	27.65726	128847872	94515200	49680408	24992
723	28.195659	128847872	94515200	51640736	24992
724	32.730461	128847872	94515200	40923872	24992
725	34.357815	128847872	94515200	49027472	24992
726	32.713693	128847872	94515200	54115656	24992
727	35.820302	128847872	94515200	46080792	24992
728	37.586399	128847872	94515200	56531976	24992
729	39.940751	128847872	94515200	50615944	24992
730	40.301946	128847872	94515200	62608672	24992
731	40.364492	128847872	94515200	57535824	24992
732	48.339465	128847872	94515200	59547608	24992
733	52.95419	129388544	95039488	62053904	24992
734	67.150076	124809216	92418048	29547920	24992
735	51.118619	126697472	92418048	32544416	24992
736	53.096187	126697472	92418048	37415120	24992
737	54.512246	126697472	92418048	43080568	24992
738	56.336884	126697472	92418048	49490000	24992
739	57.079177	126697472	92418048	56778752	24992
740	63.414278	126697472	92418048	53413480	24992
741	63.748968	126697472	92418048	62365120	24992
742	80.748889	127135744	92942336	26186984	24992
743	60.889875	127135744	92942336	36735128	24992
744	67.605227	127135744	92942336	36545792	24992
745	62.862678	127135744	92942336	48588480	24992
746	67.647474	127135744	92942336	49871040	24992
747	65.229214	127135744	92942336	63719168	24992
748	97.210444	124071936	92418048	21144264	24992
749	69.428956	126500864	92418048	35394376	24992
750	73.243668	126500864	92418048	39797568	24992
751	75.614062	126500864	92418048	45282864	24992
752	75.816101	126500864	92418048	51377424	24992
753	79.551874	126500864	92418048	58301056	24992
754	100.334215	120909824	86650880	33883280	24992
755	79.872197	120909824	86650880	42473488	24992
756	81.637421	120909824	86650880	51973736	24992
757	87.375505	121450496	87175168	50679984	24992
758	86.254189	124964864	90845184	61784688	24992
759	121.957233	130818048	96612352	29254984	24992
760	87.082311	130818048	96612352	42034392	24992
761	89.538103	130818048	96612352	55559032	24992
762	92.294987	130818048	96612352	58376216	24992
763	89.91889	130818048	96612352	73511968	24992
764	120.072346	126005248	91893760	26142000	24992
765	97.841005	126005248	91893760	31837376	24992
766	93.87549	126005248	91893760	49568416	24992
767	100.689472	126005248	91893760	56738096	24992
768	122.391407	121016320	89272320	32997432	24992
769	102.116741	123445248	89272320	40880976	24992
770	104.523162	123445248	89272320	50295232	24992
771	104.726429	123445248	89272320	60413888	24992
772	132.648413	124510208	90320896	26388536	24992
773	106.879041	124510208	90320896	38330152	24992
774	109.522849	124510208	90320896	51028008	24992
775	113.779382	124510208	90320896	64540040	24992
776	148.813803	121430016	87175168	38730872	24992
777	111.255151	121430016	87175168	53861176	24992
778	119.578314	121970688	88223744	58376224	24992
779	119.70545	131702784	97660928	75222416	24992
780	150.497861	131309568	97136640	45923232	24992
781	123.120675	131309568	97136640	52891168	24992
782	123.546145	131309568	97136640	60687968	24992
783	132.127495	136986624	102903808	69414368	24992
784	156.328888	128802816	95039488	41677352	24992
785	128.06211	128802816	95039488	52171376	24992
786	130.825923	129343488	95039488	63321592	24992
787	160.440514	129175552	97660928	26034576	24992
788	130.758746	131874816	97660928	37652736	24992
789	131.513449	131874816	97660928	51400160	24992
790	135.986133	132415488	98185216	65967040	24992
791	155.933534	124583936	90320896	29435824	24992
792	135.590912	124583936	90320896	45666688	24992
793	149.896471	125124608	90845184	51319040	24992
794	176.626619	126099456	91893760	42091688	24992
795	144.102214	126099456	91893760	60840424	24992
796	151.430284	132587520	98709504	69042304	24992
797	167.107849	144752640	110768128	89680264	24992
798	173.189771	133496832	99233792	44484304	24992
799	154.117742	133496832	99233792	55170024	24992
800	154.112711	134037504	99758080	78390456	24992
801	197.385889	130490368	96088064	44507944	24992
802	2.692734	130490368	96088064	58680512	24992
803	4.046795	130490368	96088064	61253896	24992
804	5.439573	130490368	96088064	64693232	24992
805	9.774169	130490368	96088064	56102144	24992
806	8.246796	130490368	96088064	61293352	24992
807	9.626692	130490368	96088064	67314848	24992
808	12.031262	130490368	96088064	58782872	24992
809	12.381163	130490368	96088064	66536232	24992
810	14.833281	130490368	96088064	59614200	24992
811	15.19897	130490368	96088064	69102416	24992
812	16.964538	130490368	96088064	63430736	24992
813	19.475552	130490368	96088064	59658272	24992
814	20.719066	130490368	96088064	57455896	24992
815	21.326234	130490368	96088064	70446000	24992
816	22.019913	130490368	96088064	67950760	24992
817	24.319792	130490368	96088064	66796680	24992
818	26.198258	130490368	96088064	66786048	24992
819	27.514193	130490368	96088064	67672560	24992
820	29.011078	130490368	96088064	69238872	24992
821	29.86746	130490368	96088064	71488648	24992
822	34.139	130490368	96088064	60606504	24992
823	33.459121	130490368	96088064	66118624	24992
824	34.448884	130490368	96088064	71417784	24992
825	38.495187	130490368	96088064	63234928	24992
826	38.325117	130490368	96088064	70954240	24992
827	41.14642	130490368	96088064	64822944	24992
828	44.058276	130490368	96088064	61618328	24992
829	45.372846	130490368	96088064	75568144	24992
830	46.062191	130490368	96088064	72084248	24992
831	47.527741	130760704	96612352	70487360	24992
832	54.63441	136167424	101855232	75599304	24992
833	67.215567	141033472	107098112	81439312	24992
834	62.740197	127901696	93990912	32218544	24992
835	61.955727	127901696	93990912	28357240	24992
836	58.799023	127901696	93990912	36862136	24992
837	61.244909	127901696	93990912	46335736	24992
838	62.910787	127901696	93990912	56617704	24992
839	73.754075	128712704	95039488	56256480	24992
840	92.223624	120668160	86650880	27709040	24992
841	66.533883	120668160	86650880	40721808	24992
842	72.733558	120668160	86650880	43266008	24992
843	73.121488	120668160	86650880	46520128	24992
844	70.180356	120668160	86650880	62321064	24992
845	79.574499	123371520	89272320	67398896	24992
846	108.865922	125755392	91893760	29581976	24992
847	80.815948	125755392	91893760	36783632	24992
848	81.583075	125755392	91893760	44631768	24992
849	81.535569	125755392	91893760	53494856	24992
850	83.499861	126296064	91893760	63396024	24992
851	100.048799	130621440	96612352	74175592	24992
852	99.779293	126283776	92418048	38544736	24992
853	94.82882	126283776	92418048	39511536	24992
854	89.408725	126283776	92418048	52931968	24992
855	94.938864	126283776	92418048	55801264	24992
856	123.607251	121319424	89796608	26721208	24992
857	100.180261	123748352	89796608	30289016	24992
858	95.710484	123748352	89796608	47533208	24992
859	99.830019	123748352	89796608	54140544	24992
860	109.732663	124559360	90845184	61629136	24992
861	129.038117	126033920	91893760	38393120	24992
862	105.392264	126033920	91893760	47828440	24992
863	107.675402	126033920	91893760	58256616	24992
864	108.506053	126844928	92942336	69470064	24992
865	132.340497	125796352	92418048	30994312	24992
866	110.328997	126607360	92418048	44495240	24992
867	117.239843	126607360	92418048	47053264	24992
868	115.597413	126607360	92418048	62065344	24992
869	150.676722	124694528	90845184	37552280	24992
870	115.812919	124964864	90845184	54519192	24992
871	123.061834	124964864	90845184	60842176	24992
872	126.917365	135237632	101330944	68122736	24992
873	158.43719	135528448	101330944	40120632	24992
874	126.509831	135528448	101330944	49272760	24992
875	128.835477	135528448	101330944	59438984	24992
876	131.52281	138772480	105000960	70545744	24992
877	162.049647	130940928	97136640	44459952	24992
878	130.26426	130940928	97136640	57371480	24992
879	133.911207	130940928	97136640	71345584	24992
880	146.46796	141754368	108146688	74773216	24992
881	165.639514	135409664	101330944	39443704	24992
882	138.443982	135409664	101330944	56300040	24992
883	140.759588	135409664	101330944	74150840	24992
884	174.812706	132509696	98709504	27389120	24992
885	144.359628	132509696	98709504	47323424	24992
886	148.855689	132509696	98709504	56586680	24992
887	178.7363	126066688	93990912	32511376	24992
888	154.074338	127954944	93990912	42721664	24992
889	153.513488	127954944	93990912	54892976	24992
890	182.339255	131813376	99758080	32785512	24992
891	155.256222	133701632	99758080	45917952	24992
892	158.193633	133701632	99758080	60890016	24992
893	192.554006	130097152	98185216	29589224	24992
894	163.342348	131985408	98185216	45428576	24992
895	163.196005	131985408	98185216	63308624	24992
896	196.795741	132960256	100806656	33882808	24992
897	165.881829	134848512	100806656	52690168	24992
898	171.843973	134848512	100806656	61927176	24992
899	200.662083	132485120	98709504	33345528	24992
900	174.093233	132485120	98709504	44773224	24992
901	170.957573	132485120	98709504	68416744	24992
902	3.029013	128057344	93990912	32468184	24992
903	4.394703	128057344	93990912	35414352	24992
904	6.052415	128057344	93990912	39344336	24992
905	10.735735	128327680	93990912	31080560	24992
906	9.555093	128327680	93990912	37009648	24992
907	11.074926	128327680	93990912	43906344	24992
908	12.929523	128327680	93990912	35697752	24992
909	13.66374	128327680	93990912	44610552	24992
910	15.892856	128327680	93990912	38179312	24992
911	18.821359	128327680	93990912	33825440	24992
912	19.421784	128327680	93990912	31339720	24992
913	20.204534	128327680	93990912	44175184	24992
914	22.60594	128327680	93990912	41755256	24992
915	23.986494	128327680	93990912	40838872	24992
916	26.317947	128327680	93990912	41101280	24992
917	27.159792	128327680	93990912	42253912	24992
918	29.129341	128327680	93990912	44215080	24992
919	32.722897	128327680	93990912	33508776	24992
920	32.879773	128327680	93990912	39107520	24992
921	34.265643	128327680	93990912	44715400	24992
922	37.933128	128327680	93990912	37050704	24992
923	38.379637	128327680	93990912	45032584	24992
924	41.090152	128327680	93990912	39340624	24992
925	43.848125	128327680	93990912	36438808	24992
926	49.752796	128327680	93990912	39244816	24992
927	45.797646	128327680	93990912	54575760	24992
928	47.507957	128327680	93990912	52670200	24992
929	48.680967	128327680	93990912	52348392	24992
930	54.687474	128327680	93990912	59320136	24992
931	67.668636	129138688	95039488	55525032	24992
932	76.622186	122355712	90320896	33423624	24992
933	62.368372	124243968	90320896	30866424	24992
934	61.592952	124243968	90320896	41689832	24992
935	67.772621	124243968	90320896	41937256	24992
936	65.586242	124243968	90320896	54782968	24992
937	69.833811	124514304	90320896	57004168	24992
938	88.953887	127758336	93990912	60324776	24992
939	78.517982	125153280	91369472	30312064	24992
940	75.389073	125153280	91369472	35706488	24992
941	76.314396	125153280	91369472	42102416	24992
942	77.203379	125153280	91369472	49496488	24992
943	81.71501	125153280	91369472	57811960	24992
944	109.786745	121606144	89272320	36983808	24992
945	83.325552	123494400	89272320	47058872	24992
946	89.862718	123494400	89272320	46735104	24992
947	85.932286	123494400	89272320	59293848	24992
948	94.423244	127279104	93466624	61305648	24992
949	119.017469	123117568	91369472	27708080	24992
950	94.336867	125546496	91369472	30307592	24992
951	93.396902	125546496	91369472	46953920	24992
952	98.367427	125546496	91369472	53176160	24992
953	104.341751	125546496	91369472	60167336	24992
954	126.079258	124592128	90320896	36808960	24992
955	105.036991	124592128	90320896	45857688	24992
956	104.679229	124592128	90320896	56235456	24992
957	106.311239	129728512	96088064	67515808	24992
958	126.901468	125591552	91369472	27508288	24992
959	109.54822	125591552	91369472	41191672	24992
960	114.988616	125591552	91369472	44254976	24992
961	114.48899	125591552	91369472	59672728	24992
962	149.344581	123551744	89272320	35004992	24992
963	117.558589	123551744	89272320	52674912	24992
964	122.147741	123551744	89272320	59587384	24992
965	125.987492	135446528	101330944	67814856	24992
966	154.898878	137551872	103428096	40236696	24992
967	126.561353	137551872	103428096	50516352	24992
968	129.043212	137551872	103428096	61688400	24992
969	131.478154	138362880	104476672	74015648	24992
970	166.051158	130940928	96612352	37239440	24992
971	132.561842	130940928	96612352	51577384	24992
972	135.164391	130940928	96612352	66985120	24992
973	151.83024	140943360	107098112	83366248	24992
974	160.397643	137605120	103428096	48620016	24992
975	143.651058	137605120	103428096	55682368	24992
976	140.8058	137605120	103428096	75174856	24992
977	168.976318	127250432	93466624	30659232	24992
978	145.568482	127250432	93466624	40866312	24992
979	145.785479	127250432	93466624	63687248	24992
980	188.088353	127225856	92942336	47108656	24992
981	150.247072	127225856	92942336	60501944	24992
982	153.480261	136146944	102379520	74921808	24992
983	182.58967	131559424	97660928	31426400	24992
984	153.12022	131559424	97660928	48407536	24992
985	156.474171	131559424	97660928	66007744	24992
986	188.073962	130940928	96612352	34216152	24992
987	163.059363	145539072	112865280	54101824	24992
988	167.009551	162570240	131215360	63349416	24992
989	191.276109	99778560	65679360	33417680	24992
990	171.376597	111943680	77737984	44818448	24992
991	195.193134	126541824	92418048	68636712	24992
992	177.530836	111988736	78262272	52043472	24992
993	176.464218	128479232	94515200	66757736	24992
994	208.8625	105291776	71446528	29491080	24992
995	178.878015	114212864	80359424	46372664	24992
996	185.172617	131244032	97136640	64197432	24992
997	218.838606	114364416	80359424	52704008	24992
998	185.434041	130314240	96088064	72750400	24992
999	216.748735	149508096	116011008	82292240	24992
1000	202.018711	116985856	82980864	49662240	24992
