x	Duration	RSS	HeapTotal	HeapUsed	External
0	NA	123498496	88748032	33775968	24992
1	0.432907	123498496	88748032	33821456	24992
2	0.413905	123498496	88748032	33892744	24992
3	0.456292	123498496	88748032	33989128	24992
4	0.549415	123498496	88748032	34111760	24992
5	0.673302	123498496	88748032	34262088	24992
6	0.770005	123498496	88748032	34440864	24992
7	0.877143	123498496	88748032	34648960	24992
8	1.015561	123498496	88748032	34887408	24992
9	1.326019	123498496	88748032	35157960	24992
10	0.490088	123498496	88748032	35460664	24992
11	0.534564	123498496	88748032	35796424	24992
12	0.59804	123498496	88748032	36166752	24992
13	0.643863	123498496	88748032	36572640	24992
14	0.699202	123498496	88748032	37014968	24992
15	0.900542	123498496	88748032	37494568	24992
16	0.822889	123498496	88748032	38012472	24992
17	0.888123	123498496	88748032	38571432	24992
18	1.028396	123498496	88748032	39170920	24992
19	3.668232	123498496	88748032	26756568	24992
20	1.412575	123498496	88748032	27439472	24992
21	1.137307	123498496	88748032	28165264	24992
22	1.19138	123498496	88748032	28934896	24992
23	1.355226	123498496	88748032	29749304	24992
24	1.336706	123498496	88748032	30609536	24992
25	1.413385	123498496	88748032	31517360	24992
26	1.739177	123498496	88748032	32474776	24992
27	2.070692	123498496	88748032	33480744	24992
28	1.996446	123498496	88748032	34537184	24992
29	1.935235	123498496	88748032	35654456	24992
30	1.795245	123498496	88748032	36814736	24992
31	1.852041	123498496	88748032	38028264	24992
32	2.215587	123498496	88748032	39301128	24992
33	2.060926	123498496	88748032	40630912	24992
34	4.271232	123498496	88748032	27173432	24992
35	2.280287	123498496	88748032	28616560	24992
36	2.360272	123498496	88748032	30118400	24992
37	2.419097	123498496	88748032	31678416	24992
38	2.904317	123498496	88748032	33299024	24992
39	2.661033	123498496	88748032	34979920	24992
40	2.766635	123498496	88748032	36722280	24992
41	2.805894	123498496	88748032	38527216	24992
42	3.086039	123498496	88748032	40395656	24992
43	3.177922	123498496	88748032	42328528	24992
44	5.01407	123498496	88748032	28663352	24992
45	3.265053	123498496	88748032	30729200	24992
46	3.316736	123498496	88748032	32861616	24992
47	3.634889	123498496	88748032	35062168	24992
48	3.541432	123498496	88748032	37332144	24992
49	3.806963	123498496	88748032	39671896	24992
50	3.958394	123498496	88748032	42082984	24992
51	6.210251	123498496	88748032	29052424	24992
52	4.251015	123498496	88748032	31615160	24992
53	4.144698	123498496	88748032	34251136	24992
54	4.41505	123498496	88748032	36963944	24992
55	4.385525	123498496	88748032	39754664	24992
56	4.520568	123498496	88748032	42624352	24992
57	6.615481	123498496	88748032	29978760	24992
58	5.026707	123498496	88748032	33007904	24992
59	5.565675	123498496	88748032	36122232	24992
60	4.955962	123498496	88748032	39315176	24992
61	5.255659	123498496	88748032	42591400	24992
62	7.15379	123498496	88748032	30380224	24992
63	5.624159	123498496	88748032	33825464	24992
64	5.469693	123498496	88748032	37357424	24992
65	5.636711	123498496	88748032	40983800	24992
66	5.798952	123498496	88748032	44698080	24992
67	7.975939	123498496	88748032	32703280	24992
68	6.055669	123498496	88748032	36596032	24992
69	6.474085	123498496	88748032	40579472	24992
70	6.738515	123498496	88748032	44654616	24992
71	9.151348	123498496	88748032	33049216	24992
72	6.702674	123498496	88748032	37310456	24992
73	6.975299	123498496	88748032	41665968	24992
74	6.944269	123498496	88748032	46118120	24992
75	9.421757	123498496	88748032	34774024	24992
76	7.466639	123498496	88748032	39417976	24992
77	7.582962	123498496	88748032	44160440	24992
78	10.110633	123498496	88748032	33339944	24992
79	8.573178	123498496	88748032	38291864	24992
80	7.932645	123498496	88748032	43336184	24992
81	10.972356	123498496	88748032	32975400	24992
82	8.611506	123498496	88748032	38222200	24992
83	8.54956	123498496	88748032	43574272	24992
84	11.122982	123498496	88748032	33520112	24992
85	8.923971	123498496	88748032	39082064	24992
86	9.071821	123498496	88748032	44750592	24992
87	11.228103	123498496	88748032	34915104	24992
88	9.483399	123498496	88748032	40800176	24992
89	9.788475	123498496	88748032	46793512	24992
90	11.908273	123498496	88748032	37059616	24992
91	9.793516	123498496	88748032	43274040	24992
92	13.247855	123498496	88748032	34242808	24992
93	10.388246	123498496	88748032	40682960	24992
94	11.242449	123498496	88748032	47244656	24992
95	12.840245	123498496	88748032	38048264	24992
96	11.097113	123498496	88748032	44832712	24992
97	13.424584	123498496	88748032	36309632	24992
98	11.46005	123498496	88748032	43328136	24992
99	11.39078	123498496	88748032	50466672	24992
100	14.111218	123498496	88748032	41729152	24992
101	11.899339	123498496	88748032	49105856	24992
102	0.434103	123498496	88748032	40573176	24992
103	0.61845	123498496	88748032	40939472	24992
104	0.797823	123498496	88748032	41432968	24992
105	1.005473	123498496	88748032	42054560	24992
106	1.183615	123498496	88748032	42805808	24992
107	1.383459	123498496	88748032	43688192	24992
108	1.788622	123498496	88748032	44700288	24992
109	1.792814	123498496	88748032	45844400	24992
110	2.003661	123498496	88748032	47122096	24992
111	2.202988	123498496	88748032	48533560	24992
112	2.421342	123498496	88748032	50080048	24992
113	5.069089	123498496	88748032	35898928	24992
114	2.836784	123498496	88748032	37717088	24992
115	3.034783	123498496	88748032	39672624	24992
116	3.256741	123498496	88748032	41767488	24992
117	3.515277	123498496	88748032	44000784	24992
118	3.731452	123498496	88748032	46376664	24992
119	3.940355	123498496	88748032	48893056	24992
120	4.633558	123498496	88748032	51552056	24992
121	6.622522	123498496	88748032	38156752	24992
122	4.759268	123498496	88748032	41102744	24992
123	4.834973	123498496	88748032	44193272	24992
124	5.076003	123498496	88748032	47429480	24992
125	5.241866	123498496	88748032	50812360	24992
126	7.919042	123498496	88748032	38281176	24992
127	5.789563	123498496	88748032	41960240	24992
128	6.140412	123498496	88748032	45789024	24992
129	6.174702	123498496	88748032	49771744	24992
130	8.936638	123498496	88748032	37982288	24992
131	6.857163	123498496	88748032	42266112	24992
132	6.938018	123498496	88748032	46702064	24992
133	7.180077	123498496	88748032	51294640	24992
134	9.876092	123498496	88748032	39947520	24992
135	7.695567	123498496	88748032	44855712	24992
136	8.049018	123498496	88748032	49920824	24992
137	10.767751	123498496	88748032	39250920	24992
138	8.655841	123498496	88748032	44632728	24992
139	8.724127	123498496	88748032	50175696	24992
140	11.387603	123498496	88748032	39952304	24992
141	9.341728	123498496	88748032	45815816	24992
142	9.611922	123498496	88748032	51848312	24992
143	12.113281	123498496	88748032	41929984	24992
144	10.164711	123498496	88748032	48283968	24992
145	13.028805	123498496	88748032	39201456	24992
146	10.495856	123498496	88748032	45891496	24992
147	10.87944	123498496	88748032	52745264	24992
148	13.671538	123498496	88748032	43565672	24992
149	11.579168	123498496	88748032	50755560	24992
150	14.215652	123498496	88748032	42223568	24992
151	11.934819	123498496	88748032	49757712	24992
152	14.976191	123498496	88748032	41708712	24992
153	12.717517	123498496	88748032	49586160	24992
154	15.900254	123498496	88748032	41949984	24992
155	13.351756	123498496	88748032	50174000	24992
156	16.109075	123498496	88748032	42838472	24992
157	13.671685	123498496	88748032	51414280	24992
158	16.839192	123498496	88748032	44261992	24992
159	14.2196	123498496	88748032	53194056	24992
160	16.847169	123498496	88748032	46190400	24992
161	18.078174	123498496	88748032	40355320	24992
162	15.592882	123498496	88748032	49834472	24992
163	18.674462	123498496	88748032	43845872	24992
164	15.602784	123498496	88748032	53682688	24992
165	18.90318	123498496	88748032	47603552	24992
166	19.899113	123498496	88748032	42583584	24992
167	16.680758	123498496	88748032	52985248	24992
168	19.962976	123498496	88748032	47563232	24992
169	20.397414	123498496	88748032	43157336	24992
170	17.781124	123498496	88748032	54127272	24992
171	20.721563	123498496	88748032	49171920	24992
172	21.506194	123498496	88748032	45145072	24992
173	22.111441	123498496	88748032	41880528	24992
174	19.981762	123498496	88748032	53614728	24992
175	22.437959	123498496	88748032	49570744	24992
176	23.05033	123498496	88748032	46335424	24992
177	23.870769	123498496	88748032	43735016	24992
178	20.471118	123498496	88748032	56239688	24992
179	23.491905	123498496	88748032	52717128	24992
180	23.707636	123498496	88748032	49905160	24992
181	24.219724	123498496	88748032	47680096	24992
182	24.979376	123498496	88748032	45975200	24992
183	25.59771	123498496	88748032	44744184	24992
184	26.101512	123498496	88748032	43928440	24992
185	22.894836	123498496	88748032	57845304	24992
186	25.610589	123498496	88748032	55694864	24992
187	26.313551	123498496	88748032	54026408	24992
188	26.925993	123498496	88748032	52824584	24992
189	27.097351	123498496	88748032	51931640	24992
190	27.760349	123498496	88748032	51398464	24992
191	28.052893	123498496	88748032	51197112	24992
192	28.564897	123498496	88748032	51254016	24992
193	28.884704	123498496	88748032	51544240	24992
194	29.036815	123498496	88748032	52020504	24992
195	29.277703	123498496	88748032	52671592	24992
196	30.071205	123498496	88748032	53449312	24992
197	30.123563	123498496	88748032	54342528	24992
198	30.455778	123498496	88748032	55350376	24992
199	30.828269	123498496	88748032	56460520	24992
200	31.40168	123498496	88748032	57662456	24992
201	31.24859	123498496	88748032	58912784	24992
202	0.741527	123498496	88748032	60180208	24992
203	1.071354	123498496	88748032	60838216	24992
204	4.578987	123498496	88748032	45425192	24992
205	1.964012	123498496	88748032	46524072	24992
206	2.100164	123498496	88748032	47845216	24992
207	2.657094	123498496	88748032	49389040	24992
208	3.019084	123498496	88748032	51156672	24992
209	3.167173	123498496	88748032	53160744	24992
210	3.71775	123498496	88748032	55395856	24992
211	4.062995	123498496	88748032	57865688	24992
212	4.262778	123498496	88748032	60571056	24992
213	8.286808	123498496	88748032	47253856	24992
214	5.031615	123498496	88748032	50433360	24992
215	5.521841	123498496	88748032	53851080	24992
216	5.725049	123498496	88748032	57508136	24992
217	6.264589	123498496	88748032	61405312	24992
218	9.932136	123498496	88748032	49238936	24992
219	6.806795	123498496	88748032	53621256	24992
220	7.411463	123498496	88748032	58247200	24992
221	11.27111	123498496	88748032	47260232	24992
222	8.113807	123498496	88748032	52381416	24992
223	8.346208	123498496	88748032	57741808	24992
224	12.509916	123498496	88748032	47583752	24992
225	9.358155	123498496	88748032	53442960	24992
226	9.680809	123498496	88748032	59547408	24992
227	13.691644	123498496	88748032	49880496	24992
228	10.892135	123498496	88748032	56493760	24992
229	14.564153	123498496	88748032	47764584	24992
230	11.507572	123498496	88748032	54878904	24992
231	15.505728	123498496	88748032	46916128	24992
232	12.111998	123498496	88748032	54536456	24992
233	16.458072	123498496	88748032	47134704	24992
234	12.899947	123498496	88748032	55271176	24992
235	16.978693	123498496	88748032	48325128	24992
236	13.724186	123498496	88748032	56982272	24992
237	18.036844	123498496	88748032	50311680	24992
238	14.640777	123498496	88748032	59477760	24992
239	18.744887	123498496	88748032	52975176	24992
240	15.340165	123498496	88748032	62669560	24992
241	19.043564	123498496	88748032	56282120	24992
242	19.783611	123498496	88748032	51027824	24992
243	16.69084	123498496	88748032	61508248	24992
244	20.838032	123498496	88748032	56105576	24992
245	21.602007	123498496	88748032	51730064	24992
246	18.333104	123498496	88748032	63020120	24992
247	21.99837	123498496	88748032	58209176	24992
248	22.484466	123498496	88748032	54362072	24992
249	23.877806	123498496	88748032	51349664	24992
250	24.551612	123498496	88748032	49063472	24992
251	20.165697	123498496	88748032	61692856	24992
252	24.637673	123498496	88748032	58487880	24992
253	24.69912	123498496	88748032	56038472	24992
254	25.964023	123498496	88748032	54191544	24992
255	26.060324	123498496	88748032	52888944	24992
256	26.957331	123498496	88748032	52117976	24992
257	27.041937	123498496	88748032	51718904	24992
258	27.61403	123498496	88748032	51680384	24992
259	28.859915	123498496	88748032	51947184	24992
260	28.940651	123498496	88748032	52479088	24992
261	29.136884	123498496	88748032	53221176	24992
262	29.05272	123498496	88748032	54152048	24992
263	29.574942	123498496	88748032	55219144	24992
264	30.372939	123498496	88748032	56430344	24992
265	31.226601	123498496	88748032	57807984	24992
266	33.87658	123498496	88748032	59276120	24992
267	48.218432	117141504	82456576	18567160	24992
268	31.010934	117407744	82456576	22637328	24992
269	29.4829	117407744	82456576	25589504	24992
270	29.632019	117407744	82456576	27825176	24992
271	29.524659	117407744	82456576	30022912	24992
272	32.157794	117407744	82456576	18254816	24992
273	31.55006	117407744	82456576	22500040	24992
274	31.928126	117407744	82456576	26408576	24992
275	31.242381	117407744	82456576	30060752	24992
276	33.769305	117407744	82456576	19524176	24992
277	34.906277	117407744	82456576	27387872	24992
278	33.772	117407744	82456576	32398720	24992
279	35.379038	117407744	82456576	22897992	24992
280	35.949827	117407744	82456576	31628712	24992
281	34.823499	117407744	82456576	37392504	24992
282	36.678573	117407744	82456576	28320704	24992
283	36.484968	117407744	82456576	34954952	24992
284	37.327261	117407744	82456576	27110304	24992
285	38.700098	117407744	82456576	37301296	24992
286	38.711879	117407744	82456576	30581664	24992
287	39.684029	117407744	82456576	41388752	24992
288	39.302329	117407744	82456576	35080024	24992
289	41.041858	117407744	82456576	46534192	24992
290	40.827508	117407744	82456576	40570744	24992
291	42.478382	117407744	82456576	35965040	24992
292	42.087099	117407744	82456576	48305328	24992
293	41.913042	117407744	82456576	43484600	24992
294	45.700158	117407744	82456576	44091728	24992
295	48.852434	117407744	82456576	57224232	24992
296	57.904093	112705536	77737984	27580192	24992
297	44.795297	112705536	77737984	24250632	24992
298	47.393133	112705536	77737984	25986064	24992
299	48.728416	112705536	77737984	27914448	24992
300	45.952299	112705536	77737984	42559184	24992
301	46.480173	112705536	77737984	39586328	24992
302	1.117154	112705536	77737984	37741864	24992
303	1.52392	112705536	77737984	38706216	24992
304	2.0225	112705536	77737984	39989232	24992
305	2.519078	112705536	77737984	41595296	24992
306	3.073965	112705536	77737984	43531160	24992
307	6.123257	112705536	77737984	32721544	24992
308	4.144567	112705536	77737984	35303968	24992
309	4.574934	112705536	77737984	38211408	24992
310	5.069466	112705536	77737984	41440720	24992
311	5.636138	112705536	77737984	45006480	24992
312	7.101173	112705536	77737984	33633320	24992
313	6.677054	112705536	77737984	37849560	24992
314	7.142302	112705536	77737984	42394128	24992
315	7.684562	112705536	77737984	47269640	24992
316	8.560132	112705536	77737984	36035928	24992
317	8.719305	112705536	77737984	41581064	24992
318	9.399559	112705536	77737984	47457456	24992
319	10.290241	112705536	77737984	37207480	24992
320	10.364892	112705536	77737984	43755712	24992
321	11.634395	112705536	77737984	34727656	24992
322	11.871589	112705536	77737984	41957448	24992
323	12.976297	112705536	77737984	33857928	24992
324	12.656369	112705536	77737984	41758264	24992
325	13.763481	112705536	77737984	34390456	24992
326	13.782608	112705536	77737984	42971520	24992
327	15.114057	112705536	77737984	36108072	24992
328	14.891347	112705536	77737984	45390304	24992
329	15.857003	112705536	77737984	38842136	24992
330	17.120915	112705536	77737984	33628096	24992
331	16.631342	112705536	77737984	43943920	24992
332	18.006902	112705536	77737984	38665480	24992
333	18.998385	112705536	77737984	34549704	24992
334	18.690131	112705536	77737984	45901464	24992
335	19.530339	112705536	77737984	41406192	24992
336	20.109825	112705536	77737984	37906744	24992
337	21.199322	112705536	77737984	35280960	24992
338	21.667682	112705536	77737984	33424008	24992
339	21.574521	112705536	77737984	46549376	24992
340	22.329762	112705536	77737984	43748064	24992
341	23.004464	112705536	77737984	41705008	24992
342	23.555673	112705536	77737984	40329992	24992
343	25.094226	112705536	77737984	39520216	24992
344	24.850678	112705536	77737984	39205952	24992
345	25.614638	112705536	77737984	39293040	24992
346	26.3283	112705536	77737984	39741056	24992
347	26.954356	112705536	77737984	40466600	24992
348	27.666372	112705536	77737984	41465464	24992
349	27.812164	112705536	77737984	42649264	24992
350	28.175256	112705536	77737984	44027264	24992
351	29.638214	112705536	77737984	45592664	24992
352	29.2017	112705536	77737984	47287552	24992
353	32.880897	112705536	77737984	35235032	24992
354	32.814386	112705536	77737984	41714488	24992
355	32.034668	112705536	77737984	45630016	24992
356	32.169259	112705536	77737984	49287288	24992
357	33.979994	112705536	77737984	39019696	24992
358	35.348266	112705536	77737984	46940208	24992
359	33.852535	112705536	77737984	52141200	24992
360	36.150063	112705536	77737984	43038984	24992
361	36.47467	112705536	77737984	52085920	24992
362	37.683212	112975872	78262272	44830600	24992
363	39.725527	115408896	80883712	54578816	24992
364	44.157858	116219904	81932288	48060432	24992
365	51.62766	114974720	82456576	29014048	24992
366	39.534161	116862976	82456576	22144424	24992
367	40.188745	116862976	82456576	33449352	24992
368	40.096511	116862976	82456576	27467096	24992
369	41.906873	116862976	82456576	23148208	24992
370	42.141431	117133312	82456576	35487824	24992
371	42.344753	117133312	82456576	30768720	24992
372	46.02368	117133312	82456576	31596976	24992
373	44.576189	117133312	82456576	44953240	24992
374	44.260912	117133312	82456576	40943824	24992
375	45.569096	117133312	82456576	38176888	24992
376	48.794666	117133312	82456576	40525040	24992
377	50.058021	117944320	82980864	43142032	24992
378	49.820727	117944320	82980864	46116328	24992
379	54.228553	118214656	83505152	49521928	24992
380	67.598244	119382016	86650880	24059928	24992
381	51.532707	121270272	86650880	27733016	24992
382	52.012558	121270272	86650880	32216864	24992
383	53.06004	121270272	86650880	37165264	24992
384	53.849443	121270272	86650880	42453240	24992
385	54.829152	121270272	86650880	48154472	24992
386	55.200844	121270272	86650880	54305576	24992
387	55.645821	122081280	87175168	60782056	24992
388	70.650192	125054976	90320896	55504744	24992
389	67.300904	119377920	84553728	30132088	24992
390	58.746279	119377920	84553728	37911080	24992
391	60.879798	119377920	84553728	33933096	24992
392	58.900491	119377920	84553728	42569952	24992
393	59.278995	119377920	84553728	51596864	24992
394	63.103025	119648256	84553728	48849408	24992
395	62.476012	119648256	84553728	58683120	24992
396	85.042712	119603200	86650880	27093472	24992
397	62.549993	121491456	86650880	37128248	24992
398	65.114752	121491456	86650880	35844168	24992
399	63.574065	121491456	86650880	47149368	24992
400	67.076329	121491456	86650880	46682200	24992
401	65.311766	121491456	86650880	58863608	24992
402	1.416324	122032128	87175168	59426672	24992
403	2.056354	122032128	87175168	60668192	24992
404	2.764542	122032128	87175168	62323256	24992
405	3.468478	122032128	87175168	64392896	24992
406	6.793555	123383808	88748032	53774040	24992
407	5.174833	123383808	88748032	56675920	24992
408	5.745924	123383808	88748032	59995240	24992
409	6.429805	123383808	88748032	63732848	24992
410	7.197307	123383808	88748032	67901712	24992
411	10.15194	124465152	89796608	57021592	24992
412	8.664516	124465152	89796608	62029728	24992
413	11.917966	124465152	89796608	67452304	24992
414	18.181925	124465152	89796608	57164728	24992
415	12.662656	118173696	83505152	19165056	24992
416	11.105858	118173696	83505152	25871352	24992
417	11.981767	118173696	83505152	17020744	24992
418	12.205588	118173696	83505152	24570976	24992
419	13.530273	118173696	83505152	16778448	24992
420	13.961501	118173696	83505152	25219600	24992
421	14.905205	118173696	83505152	18200392	24992
422	15.098826	118173696	83505152	27545880	24992
423	16.239027	118173696	83505152	21101016	24992
424	17.046205	118173696	83505152	16082080	24992
425	17.211613	118173696	83505152	26771728	24992
426	18.37849	118173696	83505152	21780712	24992
427	19.723222	118173696	83505152	18037144	24992
428	20.684277	118173696	83505152	15335744	24992
429	20.182213	118173696	83505152	27826376	24992
430	21.861794	118173696	83505152	24531072	24992
431	29.932839	118173696	83505152	22164176	24992
432	39.923757	118173696	83505152	20644352	24992
433	41.508825	118173696	83505152	19819912	24992
434	42.391768	118173696	83505152	19568464	24992
435	44.415162	118173696	83505152	19768616	24992
436	38.778327	118173696	83505152	20440200	24992
437	26.940409	118173696	83505152	21448624	24992
438	27.26629	118173696	83505152	22796320	24992
439	28.34887	118173696	83505152	24436496	24992
440	28.810254	118173696	83505152	26263816	24992
441	29.642763	118173696	83505152	28260440	24992
442	31.472774	118173696	83505152	16554032	24992
443	33.225742	118173696	83505152	23466992	24992
444	31.64442	118173696	83505152	27760328	24992
445	32.297703	118173696	83505152	31810000	24992
446	34.173401	118173696	83505152	21751936	24992
447	33.899527	118173696	83505152	27689272	24992
448	36.215918	118173696	83505152	19747432	24992
449	37.532922	118173696	83505152	29359832	24992
450	37.509647	118173696	83505152	22779264	24992
451	38.421414	118173696	83505152	33289032	24992
452	40.678648	118173696	83505152	27413072	24992
453	41.0074	118173696	83505152	38914040	24992
454	40.117915	118173696	83505152	33580776	24992
455	44.623783	118173696	83505152	33729608	24992
456	42.211151	118173696	83505152	46492176	24992
457	42.409699	118173696	83505152	42354952	24992
458	46.664654	118714368	83505152	43996936	24992
459	51.232467	118984704	84029440	45856000	24992
460	65.378203	114569216	81932288	21240968	24992
461	49.138346	117542912	82456576	23927832	24992
462	47.55026	117542912	82456576	39592432	24992
463	46.652429	117542912	82456576	37610680	24992
464	47.131069	117542912	82456576	36669176	24992
465	52.262705	117542912	82456576	41619336	24992
466	52.687224	117542912	82456576	46886328	24992
467	52.645237	117542912	82456576	52555320	24992
468	57.882772	120516608	85602304	46471264	24992
469	55.458645	124571648	90320896	53118584	24992
470	59.184683	128626688	94515200	60343328	24992
471	74.57621	115331072	80359424	22136656	24992
472	57.410622	115331072	80359424	30357000	24992
473	57.660456	115331072	80359424	38956120	24992
474	61.243288	115331072	80359424	35844704	24992
475	58.74452	115331072	80359424	45392608	24992
476	59.85164	115331072	80359424	55548328	24992
477	64.380195	118845440	84029440	53915192	24992
478	86.333829	120913920	88223744	22613464	24992
479	66.609665	122802176	88223744	33807600	24992
480	66.268761	122802176	88223744	33625968	24992
481	63.647511	122802176	88223744	46184824	24992
482	66.678089	122802176	88223744	47031344	24992
483	65.081317	122802176	88223744	60708544	24992
484	68.804581	124964864	90320896	62543296	24992
485	87.671342	128208896	93466624	64843576	24992
486	73.171203	120782848	86126592	32118536	24992
487	72.226307	120782848	86126592	35461728	24992
488	72.264258	120782848	86126592	39487560	24992
489	72.747073	120782848	86126592	44041376	24992
490	74.822763	120782848	86126592	49132512	24992
491	86.583793	124567552	89796608	54624648	24992
492	84.868557	120909824	86126592	29295008	24992
493	76.356699	120909824	86126592	35695120	24992
494	76.738559	120909824	86126592	42581272	24992
495	77.368136	120909824	86126592	49995888	24992
496	77.83736	120909824	86126592	57912936	24992
497	85.39827	123072512	88223744	66338776	24992
498	102.184681	122830848	87699456	30463576	24992
499	81.729194	122830848	87699456	39947072	24992
500	82.917365	122830848	87699456	49950496	24992
501	86.184946	122830848	87699456	48244864	24992
502	1.721041	122830848	87699456	59692272	24992
503	2.504089	122830848	87699456	61262520	24992
504	3.215688	122830848	87699456	63355472	24992
505	6.434608	122830848	87699456	52945800	24992
506	5.273815	122830848	87699456	56087576	24992
507	6.311693	122830848	87699456	59754872	24992
508	6.98016	122830848	87699456	63948592	24992
509	10.833625	123101184	88223744	53794576	24992
510	9.16647	123101184	88223744	59074520	24992
511	10.034651	123101184	88223744	64854376	24992
512	17.357723	123101184	88223744	55240952	24992
513	16.494494	119054336	84553728	17235920	24992
514	11.649544	119054336	84553728	24669888	24992
515	13.262152	119320576	84553728	16786296	24992
516	13.230201	119320576	84553728	25226032	24992
517	14.622334	119320576	84553728	18348288	24992
518	14.89634	119320576	84553728	27860912	24992
519	16.323973	119320576	84553728	21692192	24992
520	17.892305	119320576	84553728	16968808	24992
521	17.699774	119320576	84553728	28094248	24992
522	18.648056	119320576	84553728	23464288	24992
523	19.719921	119320576	84553728	20065656	24992
524	21.14318	119320576	84553728	17724336	24992
525	22.388963	119320576	84553728	16357040	24992
526	23.255281	119320576	84553728	15652608	24992
527	24.040424	119320576	84553728	15696632	24992
528	25.171042	119320576	84553728	16252984	24992
529	25.659802	119320576	84553728	17271600	24992
530	26.684075	119320576	84553728	18685808	24992
531	27.404373	119320576	84553728	20437496	24992
532	28.370394	119320576	84553728	22431944	24992
533	28.606195	119320576	84553728	24755472	24992
534	29.649117	119320576	84553728	27227144	24992
535	31.632394	119320576	84553728	16123944	24992
536	33.345258	119320576	84553728	23421416	24992
537	31.850733	119320576	84553728	28147768	24992
538	34.753923	119320576	84553728	19253112	24992
539	36.47744	119320576	84553728	28073192	24992
540	34.692081	119320576	84553728	34264296	24992
541	37.724597	119320576	84553728	26143608	24992
542	38.85934	119320576	84553728	36837592	24992
543	39.346569	119320576	84553728	30415632	24992
544	44.151613	119320576	84553728	29830040	24992
545	42.530492	119320576	84553728	41928008	24992
546	42.043612	119320576	84553728	37343528	24992
547	45.465475	119320576	84553728	38408968	24992
548	43.674764	119320576	84553728	52119808	24992
549	44.119862	119320576	84553728	48638032	24992
550	45.517273	119320576	84553728	46405056	24992
551	53.826802	119320576	84553728	49797456	24992
552	65.910293	114032640	81408000	26249416	24992
553	51.063761	115924992	81408000	30395288	24992
554	51.170508	115924992	81408000	35123880	24992
555	51.661314	115924992	81408000	40495080	24992
556	53.643906	115924992	81408000	46427768	24992
557	54.204654	115924992	81408000	52919240	24992
558	57.350031	116465664	81408000	47729552	24992
559	57.059806	118898688	84029440	55355664	24992
560	77.0812	123224064	88223744	63513208	24992
561	63.140628	123174912	88223744	27959624	24992
562	58.719122	123174912	88223744	37343920	24992
563	61.984367	123174912	88223744	35034488	24992
564	60.245681	123174912	88223744	45512392	24992
565	61.235801	123174912	88223744	56621720	24992
566	68.738218	123174912	88223744	56024888	24992
567	66.679424	124526592	89796608	55999784	24992
568	89.322258	125136896	92418048	24491304	24992
569	65.550834	127025152	92418048	37181616	24992
570	68.324369	127565824	92418048	38967240	24992
571	70.26231	127565824	92418048	41304816	24992
572	68.420598	127565824	92418048	56402456	24992
573	71.242745	127565824	92418048	59904720	24992
574	73.156715	129998848	95039488	63999248	24992
575	93.547289	119844864	87175168	19489600	24992
576	72.566203	121733120	87175168	36089224	24992
577	74.537773	122273792	87175168	41920016	24992
578	75.865245	122273792	87175168	48339280	24992
579	79.06309	122273792	87175168	43132472	24992
580	77.919722	122273792	87175168	50731616	24992
581	105.510153	118009856	85078016	30904808	24992
582	80.444236	119898112	85078016	39453552	24992
583	80.234296	119898112	85078016	49026576	24992
584	84.443007	119898112	85078016	47005360	24992
585	84.053	120709120	85602304	57666496	24992
586	85.249901	126386176	91893760	68998352	24992
587	106.991706	122486784	89796608	31842520	24992
588	87.740009	124375040	89796608	30735736	24992
589	86.07431	124375040	89796608	43823920	24992
590	89.015269	124375040	89796608	45117904	24992
591	87.930753	124375040	89796608	59360176	24992
592	111.231249	117149696	84029440	30671368	24992
593	94.187785	119037952	84029440	33293232	24992
594	94.577716	119037952	84029440	37096200	24992
595	92.569682	119037952	84029440	53666128	24992
596	97.025406	119578624	84553728	58633488	24992
597	121.002311	123936768	89272320	35114200	24992
598	97.813205	123936768	89272320	41292208	24992
599	99.45269	123936768	89272320	47973176	24992
600	99.9075	123936768	89272320	55425296	24992
601	104.969778	128532480	93990912	63407240	24992
602	1.960714	129613824	95039488	38669576	24992
603	2.8609	129613824	95039488	40519112	24992
604	6.316607	129613824	95039488	30420912	24992
605	4.998797	129613824	95039488	33507064	24992
606	5.817752	129613824	95039488	37213040	24992
607	6.93785	129613824	95039488	41530360	24992
608	9.439402	129613824	95039488	31824808	24992
609	8.661771	129613824	95039488	37391296	24992
610	10.241675	129613824	95039488	43578016	24992
611	11.193815	129613824	95039488	34203776	24992
612	11.595065	129613824	95039488	41649512	24992
613	13.269438	129613824	95039488	33802744	24992
614	13.690861	129613824	95039488	42480000	24992
615	15.166636	129613824	95039488	35714144	24992
616	16.929516	129613824	95039488	30658096	24992
617	16.651535	129613824	95039488	41232512	24992
618	18.560822	129613824	95039488	36579264	24992
619	19.299594	129613824	95039488	33232560	24992
620	21.23944	129613824	95039488	31085048	24992
621	20.948895	129613824	95039488	44184560	24992
622	21.883896	129613824	95039488	41649024	24992
623	23.514591	129613824	95039488	40124144	24992
624	24.72334	129613824	95039488	39415768	24992
625	25.566612	129613824	95039488	39456160	24992
626	26.570407	129613824	95039488	40125744	24992
627	27.380461	129613824	95039488	41285024	24992
628	29.528966	129613824	95039488	42969968	24992
629	29.207904	129613824	95039488	45066552	24992
630	31.802254	129613824	95039488	33450488	24992
631	32.032284	129613824	95039488	38284192	24992
632	33.652032	129613824	95039488	43069672	24992
633	35.141811	129613824	95039488	34124832	24992
634	37.56193	129613824	95039488	43512536	24992
635	37.580325	129613824	95039488	36749624	24992
636	39.111229	129613824	95039488	47328560	24992
637	39.456194	129613824	95039488	41668976	24992
638	40.692114	129613824	95039488	53590832	24992
639	41.929162	129613824	95039488	48611104	24992
640	46.005786	129613824	95039488	49624152	24992
641	46.751875	129613824	95039488	51113848	24992
642	44.60375	129613824	95039488	65455680	24992
643	45.742407	129613824	95039488	62669736	24992
644	46.968167	129613824	95039488	61242152	24992
645	50.366533	129884160	95039488	65458112	24992
646	52.708663	130695168	95563776	70150616	24992
647	75.44368	125616128	92942336	26627984	24992
648	53.69493	127504384	92942336	31333808	24992
649	54.230005	127504384	92942336	37949952	24992
650	55.47936	127504384	92942336	45229344	24992
651	60.171211	127504384	92942336	41008152	24992
652	57.533266	127504384	92942336	49636264	24992
653	58.542552	127504384	92942336	58893992	24992
654	62.324358	127504384	92942336	56618032	24992
655	84.33663	124841984	91893760	23275560	24992
656	61.703532	127000576	91893760	33945720	24992
657	65.468779	127000576	91893760	33705504	24992
658	63.653913	127000576	91893760	46310184	24992
659	67.136496	127000576	91893760	47311880	24992
660	66.450234	127000576	91893760	61236120	24992
661	68.990027	127000576	91893760	63645760	24992
662	91.612204	123944960	90845184	19476024	24992
663	69.09765	125833216	90845184	34475248	24992
664	73.698397	125833216	90845184	38789480	24992
665	75.089669	125833216	90845184	43839752	24992
666	75.33256	125833216	90845184	49548072	24992
667	75.740537	125833216	90845184	55900264	24992
668	99.890131	121655296	84553728	18993368	24992
669	121.741903	119619584	84553728	26275328	24992
670	125.102838	119619584	84553728	34646360	24992
671	81.044978	119619584	84553728	43851512	24992
672	80.98878	119619584	84553728	53512656	24992
673	83.235371	123133952	88223744	63997512	24992
674	102.514378	113774592	78786560	28348536	24992
675	86.896225	113774592	78786560	28071904	24992
676	85.59272	113774592	78786560	40660504	24992
677	89.042828	113774592	78786560	41614536	24992
678	94.831751	115666944	80883712	55525120	24992
679	109.198491	119570432	84553728	31054232	24992
680	89.85166	119570432	84553728	46330792	24992
681	93.498185	119570432	84553728	50015944	24992
682	93.860768	119570432	84553728	54426336	24992
683	101.673178	126599168	91893760	59461552	24992
684	118.912503	126468096	91369472	32459808	24992
685	97.916616	126468096	91369472	38933720	24992
686	100.61438	126468096	91369472	46034968	24992
687	100.235468	126468096	91369472	53959680	24992
688	105.856327	129712128	95039488	62500064	24992
689	121.642188	125554688	90845184	37438048	24992
690	104.142817	125554688	90845184	47362896	24992
691	106.431246	125554688	90845184	58025440	24992
692	108.935182	125554688	90845184	57117120	24992
693	132.011727	127492096	94515200	22425256	24992
694	110.911484	129380352	94515200	34207928	24992
695	109.611972	129650688	94515200	47519528	24992
696	113.180775	129650688	94515200	49458336	24992
697	115.999299	131272704	96612352	64284736	24992
698	133.265718	121835520	87175168	34622248	24992
699	114.620686	121835520	87175168	50862280	24992
700	117.070981	121835520	87175168	55575152	24992
701	122.628035	128593920	93990912	60965808	24992
702	2.262101	131166208	96612352	35075128	24992
703	3.290421	131166208	96612352	37204088	24992
704	4.595149	131166208	96612352	40041120	24992
705	5.582553	131166208	96612352	43602440	24992
706	8.680891	131166208	96612352	34121408	24992
707	7.963532	131166208	96612352	39089080	24992
708	9.325862	131166208	96612352	44768568	24992
709	11.079678	131166208	96612352	35458720	24992
710	11.126033	131166208	96612352	42588056	24992
711	13.126405	131166208	96612352	34809928	24992
712	13.573571	131166208	96612352	43368656	24992
713	15.246594	131166208	96612352	36960096	24992
714	16.446751	131166208	96612352	46948936	24992
715	17.481436	131166208	96612352	41403904	24992
716	20.185573	131166208	96612352	37449416	24992
717	20.769881	131166208	96612352	34765496	24992
718	20.742672	131166208	96612352	47628880	24992
719	22.37762	131166208	96612352	44892952	24992
720	24.0231	131166208	96612352	43303312	24992
721	24.433167	131166208	96612352	42654648	24992
722	25.759277	131166208	96612352	42812320	24992
723	27.443263	131166208	96612352	43697888	24992
724	28.25882	131166208	96612352	45141240	24992
725	29.503395	131166208	96612352	47068000	24992
726	46.218731	131166208	96612352	35726720	24992
727	58.629477	131166208	96612352	43139712	24992
728	57.746076	131166208	96612352	48124216	24992
729	59.851974	131166208	96612352	39431832	24992
730	36.982878	131166208	96612352	49026720	24992
731	38.450645	131166208	96612352	42533208	24992
732	38.990969	131166208	96612352	53497720	24992
733	40.568113	131166208	96612352	48172192	24992
734	44.061895	131166208	96612352	48455904	24992
735	43.618518	131166208	96612352	61515968	24992
736	44.165155	131166208	96612352	58013840	24992
737	48.130913	131166208	96612352	60525040	24992
738	50.147066	131166208	96612352	63531088	24992
739	50.13238	132517888	97660928	67399488	24992
740	58.022432	136843264	101855232	71885632	24992
741	69.977709	124755968	90320896	23665784	24992
742	53.553858	124755968	90320896	29953248	24992
743	55.012181	124755968	90320896	36708816	24992
744	56.369711	124755968	90320896	44214112	24992
745	59.905856	124755968	90320896	40284384	24992
746	58.991398	124755968	90320896	49237128	24992
747	59.797137	124755968	90320896	59038488	24992
748	69.125089	125837312	90845184	57359136	24992
749	81.468494	124268544	89272320	23957272	24992
750	63.008749	124268544	89272320	36079312	24992
751	66.966112	124268544	89272320	36668240	24992
752	65.193105	124268544	89272320	50136688	24992
753	68.863799	124268544	89272320	52257256	24992
754	70.265762	124268544	89272320	55141648	24992
755	75.850383	126160896	91369472	58749416	24992
756	90.945641	128049152	92942336	29933472	24992
757	74.651877	128049152	92942336	35220456	24992
758	75.095933	128049152	92942336	41020424	24992
759	76.676441	128049152	92942336	47648000	24992
760	77.767419	128049152	92942336	55058528	24992
761	80.167089	128049152	92942336	63194568	24992
762	105.411921	124968960	90320896	27683192	24992
763	82.566523	124968960	90320896	37391792	24992
764	82.985832	124968960	90320896	47854480	24992
765	88.387117	124968960	90320896	46823680	24992
766	85.042112	124968960	90320896	58794360	24992
767	88.086575	127672320	92942336	71514544	24992
768	113.453035	130232320	95563776	38267848	24992
769	91.442629	130232320	95563776	40399376	24992
770	92.0986	130232320	95563776	43243576	24992
771	91.686212	130232320	95563776	59113160	24992
772	94.816225	130232320	95563776	63454808	24992
773	115.772041	124530688	91893760	32008440	24992
774	97.546059	126418944	91893760	36946480	24992
775	98.133417	126418944	91893760	43609496	24992
776	99.646782	126418944	91893760	51095480	24992
777	106.078978	126959616	92418048	59385776	24992
778	124.797263	124362752	89272320	38847840	24992
779	103.361506	124362752	89272320	48653496	24992
780	108.333393	124362752	89272320	47070968	24992
781	105.653527	124633088	89796608	58429288	24992
782	131.53162	126451712	91893760	21966984	24992
783	108.470266	126451712	91893760	34918152	24992
784	109.368887	126451712	91893760	48629120	24992
785	113.323342	126451712	91893760	51036216	24992
786	132.11482	118849536	86126592	34090600	24992
787	117.423404	120737792	86126592	37415296	24992
788	118.046923	120737792	86126592	42254320	24992
789	117.895789	120737792	86126592	59899984	24992
790	140.658833	124887040	90320896	32940720	24992
791	120.837451	124887040	90320896	40084880	24992
792	122.066551	124887040	90320896	47945920	24992
793	128.612942	125427712	90845184	56532352	24992
794	147.438596	121184256	86126592	37455640	24992
795	126.019203	121184256	86126592	47740456	24992
796	127.339718	122265600	87175168	58722344	24992
797	135.904383	132808704	98185216	70470240	24992
798	153.887235	131665920	96612352	36070248	24992
799	132.263529	131665920	96612352	49551808	24992
800	133.33605	131665920	96612352	63662976	24992
801	159.939312	124514304	91893760	31056440	24992
802	2.528908	126943232	91893760	46507600	24992
803	6.321888	126943232	91893760	36494184	24992
804	5.133919	126943232	91893760	39703176	24992
805	6.543891	126943232	91893760	43719608	24992
806	7.605199	126943232	91893760	48557392	24992
807	10.104194	126943232	91893760	39562808	24992
808	10.399837	126943232	91893760	45997104	24992
809	12.38508	126943232	91893760	37612840	24992
810	13.007483	126943232	91893760	45675424	24992
811	14.936999	126943232	91893760	38943736	24992
812	15.454844	126943232	91893760	48610584	24992
813	17.318256	126943232	91893760	43009336	24992
814	19.097051	126943232	91893760	39067912	24992
815	20.427596	126943232	91893760	36548936	24992
816	20.563231	126943232	91893760	49444768	24992
817	22.346527	126943232	91893760	46952120	24992
818	24.123847	126943232	91893760	45650472	24992
819	25.552999	126943232	91893760	45434224	24992
820	26.741807	126943232	91893760	46005920	24992
821	28.016377	126943232	91893760	47340032	24992
822	28.707879	126943232	91893760	49305720	24992
823	32.202854	126943232	91893760	38098080	24992
824	34.154264	126943232	91893760	45648512	24992
825	33.498324	126943232	91893760	50740072	24992
826	36.298236	126943232	91893760	42370960	24992
827	38.152759	126943232	91893760	52277216	24992
828	38.941607	126943232	91893760	46163368	24992
829	41.131946	126943232	91893760	57733408	24992
830	42.163521	126943232	91893760	52752632	24992
831	45.492549	126943232	91893760	53763168	24992
832	46.671256	126943232	91893760	55356160	24992
833	48.128459	126943232	91893760	70089832	24992
834	65.292738	119816192	86650880	20690176	24992
835	51.392895	121704448	86650880	23881168	24992
836	52.588878	121704448	86650880	28860976	24992
837	53.766943	121704448	86650880	34677992	24992
838	54.655577	121704448	86650880	41340224	24992
839	56.708959	121704448	86650880	48862304	24992
840	60.393714	121704448	86650880	45022056	24992
841	64.181712	122245120	87175168	54168696	24992
842	79.281	120496128	85602304	23633464	24992
843	61.35768	120496128	85602304	34569888	24992
844	65.450747	120496128	85602304	34140160	24992
845	63.996308	120496128	85602304	46742952	24992
846	67.849156	120496128	85602304	47994384	24992
847	69.110921	120496128	85602304	50112296	24992
848	73.417273	122388480	87699456	65209904	24992
849	90.883003	123043840	88223744	24490000	24992
850	71.062965	123043840	88223744	41403744	24992
851	74.699265	123043840	88223744	46971032	24992
852	76.368864	123043840	88223744	53370824	24992
853	76.972125	123043840	88223744	60632928	24992
854	91.919032	126287872	91369472	56492272	24992
855	91.58372	122195968	87175168	32796808	24992
856	82.32433	122195968	87175168	42615128	24992
857	85.288388	122195968	87175168	41221744	24992
858	84.634449	122195968	87175168	52835712	24992
859	86.165626	125440000	90845184	65356528	24992
860	103.962165	117919744	82980864	30689672	24992
861	90.750267	117919744	82980864	32932824	24992
862	92.669403	117919744	82980864	35660312	24992
863	90.778715	117919744	82980864	51751736	24992
864	112.733004	119812096	85078016	56247928	24992
865	104.182977	118616064	84029440	33915176	24992
866	101.281091	118616064	84029440	40229872	24992
867	101.910804	118616064	84029440	47374712	24992
868	101.779793	121319424	86650880	55566288	24992
869	129.849419	124882944	90320896	34882832	24992
870	102.834139	125423616	90320896	44747808	24992
871	105.513189	125423616	90320896	55465992	24992
872	106.400513	126775296	91893760	67036272	24992
873	115.644931	132722688	98185216	67306840	24992
874	134.782742	125980672	90845184	32848080	24992
875	111.607058	125980672	90845184	47124840	24992
876	114.480448	125980672	90845184	50197376	24992
877	113.65844	126521344	91893760	66385576	24992
878	135.39364	126029824	91369472	33305968	24992
879	118.412411	126029824	91369472	39124480	24992
880	122.099485	126029824	91369472	45461352	24992
881	125.727092	126840832	91893760	52922064	24992
882	147.116828	122056704	87175168	32645456	24992
883	120.756155	122056704	87175168	54004200	24992
884	127.15745	122056704	87175168	64028576	24992
885	130.480168	130707456	96088064	74849736	24992
886	157.700891	133775360	98709504	40587416	24992
887	129.652531	133775360	98709504	53297344	24992
888	131.4555	133775360	98709504	66951800	24992
889	140.029781	134856704	100282368	69192712	24992
890	158.350422	128536576	93466624	36445664	24992
891	136.899563	128536576	93466624	52734312	24992
892	139.706623	128536576	93466624	57669800	24992
893	167.141477	132882432	100282368	26758424	24992
894	141.88463	134770688	100282368	44738760	24992
895	143.811566	134770688	100282368	52491376	24992
896	144.435468	134770688	100282368	61007088	24992
897	176.200856	125276160	90320896	39135848	24992
898	149.979056	125276160	90320896	49467072	24992
899	147.082433	127979520	93466624	72928400	24992
900	169.029794	140685312	106049536	85260720	24992
901	167.857117	136953856	102379520	46115032	24992
902	2.945934	136953856	102379520	60966320	24992
903	6.965007	136953856	102379520	51139320	24992
904	5.707964	136953856	102379520	54786840	24992
905	7.28123	136953856	102379520	59344600	24992
906	8.462465	136953856	102379520	64836568	24992
907	11.056479	136953856	102379520	56224616	24992
908	11.510016	136953856	102379520	63545280	24992
909	13.404412	136953856	102379520	55769224	24992
910	14.612395	136953856	102379520	64903416	24992
911	16.319023	136953856	102379520	58852360	24992
912	18.398209	136953856	102379520	54616056	24992
913	18.766584	136953856	102379520	66519312	24992
914	20.692788	136953856	102379520	62863184	24992
915	22.834239	136953856	102379520	60764872	24992
916	24.419455	136953856	102379520	59926392	24992
917	25.972742	136953856	102379520	60115488	24992
918	26.873668	136953856	102379520	61143104	24992
919	28.640044	136953856	102379520	62994736	24992
920	29.752717	136953856	102379520	65485792	24992
921	32.85821	136953856	102379520	54697608	24992
922	35.028027	136953856	102379520	63056032	24992
923	34.092417	136953856	102379520	68942672	24992
924	37.117973	136953856	102379520	60983120	24992
925	37.400027	136953856	102379520	68918840	24992
926	39.787652	136953856	102379520	62800368	24992
927	42.293799	136953856	102379520	59351120	24992
928	43.2518	136953856	102379520	73096928	24992
929	44.259656	136953856	102379520	69767128	24992
930	46.045471	136953856	102379520	68138592	24992
931	56.620444	138035200	103428096	72558792	24992
932	68.615913	123715584	88748032	25597712	24992
933	53.797975	123715584	88748032	31739224	24992
934	54.806779	123715584	88748032	38661472	24992
935	56.05223	123715584	88748032	46566912	24992
936	59.877799	123715584	88748032	43258656	24992
937	59.214152	123715584	88748032	52994240	24992
938	62.927909	123715584	88748032	51508936	24992
939	67.505878	123715584	88748032	63240880	24992
940	82.28619	124407808	89796608	30689136	24992
941	67.671609	124407808	89796608	32135056	24992
942	68.985402	124407808	89796608	34441632	24992
943	67.500254	124407808	89796608	49813048	24992
944	74.768728	124407808	89796608	54085048	24992
945	74.003056	124407808	89796608	59245152	24992
946	99.645197	121765888	88748032	35552848	24992
947	76.6077	123654144	88748032	42154576	24992
948	80.759944	123654144	88748032	37966928	24992
949	79.108672	123654144	88748032	46918944	24992
950	80.601252	123654144	88748032	56744704	24992
951	84.233863	125276160	90845184	67626672	24992
952	108.915454	129544192	95039488	33591248	24992
953	88.330522	129544192	95039488	34260672	24992
954	87.131056	129544192	95039488	47978632	24992
955	90.771613	129544192	95039488	50453488	24992
956	90.411925	129544192	95039488	66025752	24992
957	118.094172	123957248	90845184	22483080	24992
958	93.981487	125845504	90845184	38994816	24992
959	97.047582	125845504	90845184	45370144	24992
960	99.268055	125845504	90845184	52596112	24992
961	99.75482	125845504	90845184	60810896	24992
962	122.026806	125833216	90845184	23063584	24992
963	103.122782	125833216	90845184	33385704	24992
964	105.137958	125833216	90845184	44499024	24992
965	106.820103	125833216	90845184	56611848	24992
966	129.008307	119275520	86650880	25620448	24992
967	110.075995	121163776	86650880	39292552	24992
968	113.085846	121163776	86650880	42124400	24992
969	112.221701	121704448	87175168	58093648	24992
970	135.280452	127381504	92418048	62947904	24992
971	126.494847	127401984	92418048	35718704	24992
972	120.695365	127401984	92418048	42342064	24992
973	118.753746	127401984	92418048	62185320	24992
974	128.832163	129294336	94515200	70863680	24992
975	145.189771	126484480	91369472	34451152	24992
976	125.587836	126484480	91369472	44895344	24992
977	128.126841	126484480	91369472	56445344	24992
978	150.808748	133242880	98185216	69105448	24992
979	138.400302	131051520	96088064	34995168	24992
980	131.837786	131051520	96088064	49616680	24992
981	133.844689	131051520	96088064	65177440	24992
982	159.848142	126312448	91369472	32101976	24992
983	139.929527	126312448	91369472	37544008	24992
984	139.108636	126312448	91369472	55813776	24992
985	161.779867	128204800	93466624	63162448	24992
986	156.624929	124375040	89272320	40190904	24992
987	144.856536	124375040	89272320	49489248	24992
988	145.713097	127348736	92418048	71751704	24992
989	170.730331	126758912	91893760	32303872	24992
990	149.868779	126758912	91893760	44593480	24992
991	152.611329	126758912	91893760	57734432	24992
992	186.708067	123637760	88748032	44882248	24992
993	154.605676	123637760	88748032	59888568	24992
994	160.855493	132829184	98185216	63879200	24992
995	189.291956	128258048	96088064	27953840	24992
996	163.325903	130146304	96088064	44794808	24992
997	160.84946	130146304	96088064	63912784	24992
998	170.678818	134471680	99758080	71794624	24992
999	190.875485	128565248	93990912	46346448	24992
1000	169.206393	128565248	93990912	56186832	24992
x	Duration	RSS	HeapTotal	HeapUsed	External
0	NA	120074240	85602304	12323760	24992
1	0.574966	120074240	85602304	12375576	24992
2	0.461507	120074240	85602304	12452168	24992
3	0.536698	120074240	85602304	12555792	24992
4	0.643062	120074240	85602304	12687992	24992
5	1.548565	120074240	85602304	12850320	24992
6	0.977976	120074240	85602304	13043120	24992
7	1.240968	120074240	85602304	13271008	24992
8	1.245972	120074240	85602304	13528496	24992
9	1.297231	120074240	85602304	13819696	24992
10	1.438121	120074240	85602304	14146008	24992
11	1.502492	120074240	85602304	14508240	24992
12	0.867678	120074240	85602304	14907456	24992
13	0.772557	120074240	85602304	15347104	24992
14	0.794715	120074240	85602304	15823224	24992
15	0.933061	120074240	85602304	16339160	24992
16	1.194109	120074240	85602304	16896056	24992
17	1.069268	120074240	85602304	17496600	24992
18	1.250366	120074240	85602304	18140016	24992
19	1.175259	120074240	85602304	18828240	24992
20	2.874315	120074240	85602304	19571992	24992
21	1.314018	120074240	85602304	20349360	24992
22	1.471795	120074240	85602304	21173648	24992
23	1.862167	120074240	85602304	22048048	24992
24	1.581503	120074240	85602304	22974000	24992
25	1.557768	120074240	85602304	23947352	24992
26	1.563745	120074240	85602304	24972656	24992
27	1.662508	120074240	85602304	26050848	24992
28	2.04609	120074240	85602304	27182976	24992
29	1.807469	120074240	85602304	28370080	24992
30	3.635997	120074240	85602304	13354384	24992
31	2.066065	120074240	85602304	14654208	24992
32	2.349761	120074240	85602304	16024344	24992
33	2.456011	120074240	85602304	17447728	24992
34	2.207157	120074240	85602304	18931336	24992
35	2.497051	120074240	85602304	20475808	24992
36	2.534491	120074240	85602304	22083392	24992
37	2.670549	120074240	85602304	23752296	24992
38	2.804683	120074240	85602304	25484856	24992
39	2.764139	120074240	85602304	27282272	24992
40	3.048821	120074240	85602304	29145368	24992
41	4.815395	120074240	85602304	15135696	24992
42	2.982473	120074240	85602304	17133160	24992
43	3.069134	120074240	85602304	19199184	24992
44	3.145044	120074240	85602304	21334776	24992
45	3.486226	120074240	85602304	23543048	24992
46	3.458237	120074240	85602304	25821984	24992
47	3.486686	120074240	85602304	28174016	24992
48	5.564306	120074240	85602304	14990920	24992
49	3.904852	120074240	85602304	17492432	24992
50	3.853752	120074240	85602304	20072680	24992
51	4.146149	120074240	85602304	22732296	24992
52	4.720012	120074240	85602304	25471976	24992
53	4.414093	120074240	85602304	28301688	24992
54	6.291588	120074240	85602304	15623392	24992
55	4.82243	120074240	85602304	18610064	24992
56	4.530975	120074240	85602304	21680416	24992
57	4.6655	120074240	85602304	24835736	24992
58	4.981271	120074240	85602304	28077720	24992
59	6.769991	120074240	85602304	15863520	24992
60	5.50152	120074240	85602304	19279656	24992
61	5.510869	120074240	85602304	22784872	24992
62	5.616967	120074240	85602304	26385056	24992
63	5.415827	120074240	85602304	30071064	24992
64	8.062545	120074240	85602304	18062424	24992
65	5.898489	120074240	85602304	21940992	24992
66	5.846957	120074240	85602304	25914352	24992
67	5.987919	120074240	85602304	29981648	24992
68	8.095312	120074240	85602304	18394872	24992
69	6.710548	120074240	85602304	22654480	24992
70	6.649613	120074240	85602304	27014280	24992
71	7.70895	120074240	85602304	31478704	24992
72	9.553644	120074240	85602304	20141808	24992
73	6.84977	120074240	85602304	24798336	24992
74	7.437587	120074240	85602304	29556496	24992
75	9.28409	120074240	85602304	18849600	24992
76	7.353527	120074240	85602304	23813984	24992
77	7.736653	120074240	85602304	28883472	24992
78	10.224883	120074240	85602304	18659272	24992
79	7.804798	120074240	85602304	23941200	24992
80	8.004279	120074240	85602304	29333232	24992
81	10.68372	120074240	85602304	19422760	24992
82	8.531589	120074240	85602304	25030696	24992
83	9.144003	120074240	85602304	30752000	24992
84	11.336822	120074240	85602304	21032504	24992
85	8.967474	120074240	85602304	26978616	24992
86	9.175795	120074240	85602304	33036352	24992
87	11.395931	120074240	85602304	23379168	24992
88	9.980269	120074240	85602304	29671680	24992
89	12.165113	120074240	85602304	20767544	24992
90	9.740739	120074240	85602304	27296328	24992
91	9.915166	120074240	85602304	33941480	24992
92	13.387203	120074240	85602304	24802872	24992
93	10.552958	120074240	85602304	31689984	24992
94	13.286358	120074240	85602304	23203360	24992
95	10.991038	120074240	85602304	30336040	24992
96	14.10429	120074240	85602304	22282944	24992
97	11.033323	120074240	85602304	29665176	24992
98	14.471358	120074240	85602304	22062640	24992
99	11.676489	120074240	85602304	29699056	24992
100	14.915498	120074240	85602304	22415160	24992
101	12.229566	120074240	85602304	30310296	24992
102	0.473624	120074240	85602304	23097632	24992
103	0.669249	120074240	85602304	23501272	24992
104	0.875689	120074240	85602304	24041072	24992
105	1.088953	120074240	85602304	24717920	24992
106	1.463119	120074240	85602304	25533520	24992
107	1.437769	120074240	85602304	26488024	24992
108	1.834095	120074240	85602304	27586344	24992
109	1.834736	120074240	85602304	28821872	24992
110	2.096499	120074240	85602304	30200272	24992
111	2.254444	120074240	85602304	31721696	24992
112	2.522628	120074240	85602304	33387272	24992
113	2.879899	120074240	85602304	35197568	24992
114	2.893081	120074240	85602304	37153752	24992
115	5.538953	120074240	85602304	23224032	24992
116	3.511681	120074240	85602304	25477512	24992
117	3.536687	120074240	85602304	27877040	24992
118	3.738959	120074240	85602304	30428152	24992
119	3.997179	120074240	85602304	33133256	24992
120	4.209216	120074240	85602304	35988560	24992
121	6.777688	120074240	85602304	23087200	24992
122	4.678227	120074240	85602304	26252288	24992
123	4.925287	120074240	85602304	29570776	24992
124	5.319156	120074240	85602304	33041520	24992
125	5.335761	120074240	85602304	36668832	24992
126	7.952295	120074240	85602304	24454792	24992
127	5.870091	120074240	85602304	28398040	24992
128	6.031959	120074240	85602304	32500896	24992
129	6.310509	120074240	85602304	36764488	24992
130	8.943835	120074240	85602304	25199304	24992
131	6.812021	120074240	85602304	29788032	24992
132	7.124075	120074240	85602304	34538568	24992
133	9.935901	120074240	85602304	23850896	24992
134	7.827223	120074240	85602304	28938424	24992
135	7.994217	120074240	85602304	34192896	24992
136	10.954042	120074240	85602304	24100272	24992
137	8.303079	120074240	85602304	29693096	24992
138	8.552767	120074240	85602304	35453112	24992
139	11.928865	120074240	85602304	25704416	24992
140	9.756901	120074240	85602304	31809152	24992
141	9.351115	120074240	85602304	38085416	24992
142	12.302185	120074240	85602304	28440216	24992
143	10.387362	120074240	85602304	35064232	24992
144	13.124919	120074240	85602304	26292112	24992
145	10.569951	120074240	85602304	33273408	24992
146	13.599651	120074240	85602304	25163704	24992
147	11.622193	120074240	85602304	32503752	24992
148	14.377907	120074240	85602304	24919760	24992
149	11.512594	120074240	85602304	32620432	24992
150	15.460071	120074240	85602304	25418616	24992
151	12.780616	120074240	85602304	33486296	24992
152	15.794744	120074240	85602304	26534248	24992
153	12.581653	120074240	85602304	34977112	24992
154	16.079708	120074240	85602304	28164336	24992
155	13.347768	120074240	85602304	36977648	24992
156	16.660815	120074240	85602304	30248304	24992
157	14.575056	120074240	85602304	39440528	24992
158	16.983532	120074240	85602304	32708384	24992
159	18.363897	120074240	85602304	27280952	24992
160	14.821343	120074240	85602304	37048240	24992
161	18.068743	120074240	85602304	31295752	24992
162	19.016689	120074240	85602304	26780080	24992
163	15.678936	120074240	85602304	37130376	24992
164	19.003266	120074240	85602304	32006088	24992
165	19.821946	120074240	85602304	28014592	24992
166	16.774993	120074240	85602304	38966976	24992
167	19.833206	120074240	85602304	34181728	24992
168	20.719282	120074240	85602304	30462744	24992
169	17.635868	120074240	85602304	42016760	24992
170	20.771989	120074240	85602304	37467792	24992
171	21.531415	120074240	85602304	33853024	24992
172	22.375468	120074240	85602304	31073632	24992
173	22.677286	120074240	85602304	28974784	24992
174	19.759608	120074240	85602304	41548440	24992
175	22.538029	120074240	85602304	38151472	24992
176	23.561155	120074240	85602304	35580320	24992
177	24.253331	120074240	85602304	33616216	24992
178	24.234177	120074240	85602304	32222752	24992
179	24.994422	120074240	85602304	31319520	24992
180	25.555625	120074240	85602304	30789520	24992
181	26.705752	120074240	85602304	30626944	24992
182	27.035631	120074240	85602304	30715216	24992
183	26.943	120074240	85602304	31038136	24992
184	26.730205	120074240	85602304	31552536	24992
185	27.435456	120074240	85602304	32229376	24992
186	27.827403	120074240	85602304	33040088	24992
187	28.272379	120074240	85602304	33919296	24992
188	28.184185	120074240	85602304	34889176	24992
189	29.027686	120074240	85602304	35941744	24992
190	28.855846	120074240	85602304	37037208	24992
191	29.063088	120074240	85602304	38215464	24992
192	29.592055	120074240	85602304	39438480	24992
193	29.442986	120074240	85602304	40677240	24992
194	30.014469	120074240	85602304	41970328	24992
195	30.431979	120074240	85602304	43307440	24992
196	30.218402	120074240	85602304	44659096	24992
197	30.695258	120074240	85602304	46041176	24992
198	36.877454	120074240	85602304	33900216	24992
199	33.333427	120074240	85602304	37676432	24992
200	32.653628	120074240	85602304	41054224	24992
201	32.832193	120074240	85602304	44102736	24992
202	0.777491	120074240	85602304	46864248	24992
203	1.119673	120074240	85602304	47565984	24992
204	4.594873	120074240	85602304	32144760	24992
205	1.790572	120074240	85602304	33318320	24992
206	2.385667	120074240	85602304	34729800	24992
207	2.518472	120074240	85602304	36387992	24992
208	3.355866	120074240	85602304	38293736	24992
209	3.553713	120074240	85602304	40448280	24992
210	3.910247	120074240	85602304	42853184	24992
211	4.146282	120074240	85602304	45508680	24992
212	8.199756	120074240	85602304	32396136	24992
213	4.996366	120074240	85602304	35561352	24992
214	5.369709	120074240	85602304	38974168	24992
215	5.770923	120074240	85602304	42646728	24992
216	6.23011	120074240	85602304	46570808	24992
217	10.071705	120074240	85602304	34639256	24992
218	7.170508	120074240	85602304	39085616	24992
219	7.667627	120074240	85602304	43782552	24992
220	11.477287	120074240	85602304	33097056	24992
221	8.23423	120074240	85602304	38321384	24992
222	8.827068	120074240	85602304	43810576	24992
223	12.953489	120074240	85602304	33898904	24992
224	9.410468	120074240	85602304	39902448	24992
225	10.024083	120074240	85602304	46170400	24992
226	13.84137	120074240	85602304	36677808	24992
227	10.680943	120074240	85602304	43476808	24992
228	14.995467	120074240	85602304	34969776	24992
229	11.523374	120074240	85602304	42313608	24992
230	15.973752	120074240	85602304	34577688	24992
231	12.337517	120074240	85602304	42469064	24992
232	16.740189	120074240	85602304	35273072	24992
233	13.346092	120074240	85602304	43724504	24992
234	17.997371	120074240	85602304	36872984	24992
235	14.265055	120074240	85602304	45879312	24992
236	18.592279	120074240	85602304	39236424	24992
237	15.122902	120074240	85602304	48791184	24992
238	18.650728	120074240	85602304	42268416	24992
239	20.578536	120074240	85602304	37106096	24992
240	16.275058	120074240	85602304	47498296	24992
241	21.11877	120074240	85602304	42052360	24992
242	21.905916	120074240	85602304	37824032	24992
243	17.582953	120074240	85602304	49064768	24992
244	21.550748	120074240	85602304	44241496	24992
245	23.284739	120074240	85602304	40531728	24992
246	23.930049	120074240	85602304	37740656	24992
247	24.569023	120074240	85602304	35719448	24992
248	20.149892	120074240	85602304	48398448	24992
249	23.999775	120074240	85602304	45176816	24992
250	25.131277	120074240	85602304	42811760	24992
251	26.018419	120074240	85602304	41125784	24992
252	26.786442	120074240	85602304	40042088	24992
253	27.298223	120074240	85602304	39482632	24992
254	27.757235	120074240	85602304	39307816	24992
255	28.448486	120074240	85602304	39482432	24992
256	29.186245	120074240	85602304	39960040	24992
257	28.965655	120074240	85602304	40671576	24992
258	29.597942	120074240	85602304	41568840	24992
259	30.982209	120074240	85602304	42636352	24992
260	30.415802	120074240	85602304	43807288	24992
261	31.007657	120074240	85602304	45115384	24992
262	31.696653	120074240	85602304	46514208	24992
263	31.552809	120074240	85602304	47993408	24992
264	32.232423	120074240	85602304	49563840	24992
265	31.385139	120074240	85602304	51148944	24992
266	37.970763	120074240	85602304	39242112	24992
267	33.933003	120074240	85602304	43295016	24992
268	34.437198	120074240	85602304	46985144	24992
269	34.44256	120074240	85602304	50334912	24992
270	40.252442	120074240	85602304	40020888	24992
271	40.310205	120074240	85602304	48197056	24992
272	41.046562	120074240	85602304	53071440	24992
273	52.881316	110637056	76165120	21477720	24992
274	37.756687	110637056	76165120	29823664	24992
275	36.640972	110637056	76165120	21951160	24992
276	35.419137	110637056	76165120	28374520	24992
277	37.678353	110637056	76165120	20889728	24992
278	38.113714	110637056	76165120	31177744	24992
279	38.665626	110637056	76165120	24725200	24992
280	39.48325	110637056	76165120	35636488	24992
281	40.173528	110637056	76165120	29613360	24992
282	40.181737	110637056	76165120	41170888	24992
283	39.912392	110637056	76165120	35358640	24992
284	45.859566	110637056	76165120	35807952	24992
285	41.462993	110637056	76165120	48119784	24992
286	42.205244	110637056	76165120	43350456	24992
287	53.615039	110637056	76689408	44716584	24992
288	66.157189	113340416	81408000	22289800	24992
289	44.739536	115232768	81408000	35431112	24992
290	43.205167	115232768	81408000	31573520	24992
291	45.145057	115503104	81408000	29031192	24992
292	49.320308	115503104	81408000	31998648	24992
293	49.754205	115503104	81408000	35136744	24992
294	50.105466	115503104	81408000	38603360	24992
295	46.733852	115503104	81408000	54202520	24992
296	48.683562	115773440	81408000	51894760	24992
297	47.791251	115773440	81408000	50614168	24992
298	53.584897	115773440	81408000	55701192	24992
299	54.04549	119017472	84553728	60893992	24992
300	62.372647	123883520	89796608	66437824	24992
301	72.740793	121237504	87175168	26491320	24992
302	1.14812	121237504	87175168	32925288	24992
303	1.642299	121237504	87175168	33954992	24992
304	2.100507	121237504	87175168	35326816	24992
305	2.803813	121237504	87175168	37044872	24992
306	3.175364	121237504	87175168	39112472	24992
307	7.117719	121507840	87175168	28655672	24992
308	4.479736	121507840	87175168	31419912	24992
309	4.912504	121507840	87175168	34531096	24992
310	5.345186	121507840	87175168	37989264	24992
311	6.0948	121507840	87175168	41798544	24992
312	7.652099	121778176	87175168	30644152	24992
313	6.999347	121778176	87175168	35163176	24992
314	8.130635	121778176	87175168	40036456	24992
315	10.230794	121778176	87175168	29396760	24992
316	8.603822	121778176	87175168	34975192	24992
317	9.360324	121778176	87175168	40919248	24992
318	10.498719	121778176	87175168	31158608	24992
319	10.338943	121778176	87175168	37818264	24992
320	11.895826	121778176	87175168	29318568	24992
321	12.094539	121778176	87175168	36697248	24992
322	13.859383	121778176	87175168	29160552	24992
323	12.854671	121778176	87175168	37259128	24992
324	14.473441	121778176	87175168	30345448	24992
325	13.863216	121778176	87175168	39175232	24992
326	15.082329	121778176	87175168	32632464	24992
327	14.878658	121778176	87175168	42191864	24992
328	16.132993	121778176	87175168	35848160	24992
329	17.383287	121778176	87175168	30999864	24992
330	16.745038	121778176	87175168	41671264	24992
331	17.88996	121778176	87175168	36549880	24992
332	19.171093	121778176	87175168	32695400	24992
333	20.064924	121778176	87175168	29918072	24992
334	18.780715	121778176	87175168	42079088	24992
335	20.048189	121778176	87175168	38412872	24992
336	21.317682	121778176	87175168	35753136	24992
337	21.959095	121778176	87175168	33951792	24992
338	23.177934	121778176	87175168	32853672	24992
339	23.678348	121778176	87175168	32318464	24992
340	24.192774	121778176	87175168	32297592	24992
341	24.79344	121778176	87175168	32648976	24992
342	25.403097	121778176	87175168	33321808	24992
343	26.39359	121778176	87175168	34255560	24992
344	26.336497	121778176	87175168	35413744	24992
345	27.512773	121778176	87175168	36737272	24992
346	28.272538	121778176	87175168	38239960	24992
347	28.560644	121778176	87175168	39832264	24992
348	28.849142	121778176	87175168	41593168	24992
349	29.061083	121778176	87175168	43389344	24992
350	32.11656	121778176	87175168	31828592	24992
351	31.64542	121778176	87175168	36190920	24992
352	31.803494	121778176	87175168	40173960	24992
353	32.0785	121778176	87175168	43837552	24992
354	33.830246	121778176	87175168	33771768	24992
355	33.808339	121778176	87175168	39371232	24992
356	33.981553	121778176	87175168	44385784	24992
357	36.384383	121778176	87175168	35405696	24992
358	35.479584	121778176	87175168	41987920	24992
359	38.987961	121778176	87175168	34551176	24992
360	38.804022	121778176	87175168	45392480	24992
361	41.378304	121778176	87175168	39247664	24992
362	40.863898	121778176	87175168	50937176	24992
363	40.172834	121778176	87175168	45219104	24992
364	42.559614	121778176	87175168	41321592	24992
365	42.441403	122318848	87699456	54073672	24992
366	42.671117	122318848	87699456	49636520	24992
367	48.392413	122318848	87699456	51634792	24992
368	55.085308	123670528	89272320	53900824	24992
369	66.514316	118595584	86126592	25451592	24992
370	50.650685	120483840	86126592	27636272	24992
371	51.281623	120483840	86126592	31004664	24992
372	51.969017	120483840	86126592	34777632	24992
373	47.666409	120483840	86126592	50640288	24992
374	47.171462	120483840	86126592	48620456	24992
375	47.767463	120483840	86126592	47673632	24992
376	54.226675	120483840	86126592	53314816	24992
377	54.845322	120483840	86126592	59177536	24992
378	58.119362	120483840	86126592	65457216	24992
379	83.165607	120586240	88223744	29227576	24992
380	57.695579	122474496	88223744	35516344	24992
381	58.443571	122474496	88223744	42992648	24992
382	63.30529	122474496	88223744	39452136	24992
383	59.239607	122474496	88223744	47822504	24992
384	59.429565	122474496	88223744	56625272	24992
385	60.363389	122474496	88223744	65877800	24992
386	89.896782	120348672	88223744	18445472	24992
387	63.782291	123318272	89796608	27391968	24992
388	63.219203	128184320	95039488	37848320	24992
389	69.921411	135213056	102903808	37245944	24992
390	64.151534	140079104	108146688	48586280	24992
391	70.388541	142241792	108146688	48855816	24992
392	71.075245	142512128	108146688	61076240	24992
393	89.591869	102834176	68300800	32086232	24992
394	71.264636	102834176	68300800	33772856	24992
395	67.656194	102834176	68300800	47263616	24992
396	73.31947	109862912	75640832	49711904	24992
397	74.398002	117161984	82980864	52496080	24992
398	71.045988	121757696	87699456	67332832	24992
399	106.554184	110542848	76689408	26902824	24992
400	70.664488	110542848	76689408	42695776	24992
401	76.579208	111083520	76689408	47347928	24992
402	1.415403	112164864	77737984	52679752	24992
403	2.081651	112164864	77737984	54013512	24992
404	2.787721	112164864	77737984	55793632	24992
405	3.419903	112164864	77737984	58031616	24992
406	8.446187	114597888	80359424	48014176	24992
407	4.9366	114597888	80359424	51139168	24992
408	5.52157	114597888	80359424	54713344	24992
409	6.531717	114597888	80359424	58738368	24992
410	9.386933	115949568	81932288	48348320	24992
411	7.554715	115949568	81932288	53287264	24992
412	8.399368	115949568	81932288	58671832	24992
413	9.673856	115949568	81932288	48630768	24992
414	9.647735	115949568	81932288	54925904	24992
415	10.653543	115949568	81932288	61683048	24992
416	11.574169	115949568	81932288	52469792	24992
417	11.960585	115949568	81932288	60155776	24992
418	13.049108	115949568	81932288	52162216	24992
419	13.451091	115949568	81932288	60804008	24992
420	14.687563	115949568	82456576	53685208	24992
421	15.893444	116219904	82456576	48306328	24992
422	15.434211	116219904	82456576	58415120	24992
423	17.050114	116219904	82456576	53133416	24992
424	18.375233	116219904	82456576	49288488	24992
425	17.515166	116219904	82456576	60833120	24992
426	18.921447	116219904	82456576	56596736	24992
427	20.448248	116219904	82456576	53590432	24992
428	21.825857	116219904	82456576	51598488	24992
429	22.326029	116219904	82456576	50450712	24992
430	23.293547	116219904	82456576	50021120	24992
431	24.061737	116219904	82456576	50178608	24992
432	25.308161	116490240	82456576	50771576	24992
433	25.428546	116490240	82456576	51739120	24992
434	26.970091	116490240	82456576	53034144	24992
435	27.24917	116490240	82456576	54632192	24992
436	27.514236	116490240	82456576	56412944	24992
437	27.936581	116490240	82456576	58387072	24992
438	28.938461	116490240	82456576	60511400	24992
439	31.551316	117030912	82456576	49441280	24992
440	34.083274	119734272	85602304	56947608	24992
441	31.942967	119734272	86126592	61415432	24992
442	31.38359	119734272	86126592	65559928	24992
443	33.196171	120004608	86126592	55945952	24992
444	33.63584	120004608	86126592	62086304	24992
445	36.020177	120545280	86650880	54554464	24992
446	39.252756	123248640	89272320	65036336	24992
447	40.414379	124329984	90320896	58870800	24992
448	49.501584	127033344	92942336	70363096	24992
449	52.700043	112902144	78786560	31925896	24992
450	44.501692	112902144	78786560	31565368	24992
451	42.149593	112902144	78786560	27434024	24992
452	47.02042	112902144	78786560	29149800	24992
453	43.636667	112902144	78786560	42910424	24992
454	42.406329	112902144	78786560	39473728	24992
455	49.120305	112902144	78786560	42761552	24992
456	49.997772	112902144	78786560	46382896	24992
457	51.978485	113713152	79310848	50434400	24992
458	57.860281	118579200	84553728	55036496	24992
459	71.63017	116461568	84029440	30072512	24992
460	53.581788	118349824	84029440	35083976	24992
461	54.147938	118349824	84029440	41223408	24992
462	54.310007	118349824	84029440	47860656	24992
463	60.956345	118349824	84029440	43425600	24992
464	56.804896	118349824	84029440	51116616	24992
465	56.791182	119160832	85078016	59387184	24992
466	68.250147	123756544	90320896	68184072	24992
467	77.223979	120520704	86650880	31888048	24992
468	64.501902	120520704	86650880	30208632	24992
469	60.430447	120791040	86650880	40519200	24992
470	61.61325	120791040	86650880	51416592	24992
471	66.87903	120791040	86650880	51125552	24992
472	63.018705	120791040	86650880	62949904	24992
473	92.467328	119988224	87699456	19455072	24992
474	65.964009	121876480	87699456	31441560	24992
475	69.11694	121876480	87699456	33282800	24992
476	65.621412	121876480	87699456	47215240	24992
477	71.204887	121876480	87699456	50171016	24992
478	72.435374	121876480	87699456	53611720	24992
479	87.442157	124309504	90320896	57519048	24992
480	82.751185	122294272	88223744	29139680	24992
481	76.229696	122294272	88223744	34151648	24992
482	75.149071	122294272	88223744	39723744	24992
483	71.104383	122294272	88223744	57470456	24992
484	76.273455	122294272	88223744	64113016	24992
485	102.857041	119787520	87699456	26006624	24992
486	77.650062	121675776	87699456	32870944	24992
487	79.270129	121675776	87699456	41115136	24992
488	80.312023	121675776	87699456	49955968	24992
489	80.274211	121675776	87699456	59276856	24992
490	107.213347	118964224	86650880	25496200	24992
491	81.632854	120852480	86650880	35297576	24992
492	83.473417	120852480	86650880	46294528	24992
493	87.770949	120852480	86650880	46196704	24992
494	85.675286	120852480	86650880	58261680	24992
495	121.354925	124399616	90320896	30102960	24992
496	85.747504	124399616	90320896	43256024	24992
497	91.144824	124399616	90320896	45364768	24992
498	89.312391	124399616	90320896	59650392	24992
499	94.37018	129265664	95039488	62870008	24992
500	124.006304	129212416	95039488	32239008	24992
501	91.87847	129212416	95039488	48345776	24992
502	1.713452	129212416	95039488	53635720	24992
503	2.530831	129212416	95039488	55311144	24992
504	3.590174	129212416	95039488	57546568	24992
505	7.390493	129212416	95039488	47810912	24992
506	5.276145	129212416	95039488	51169912	24992
507	5.998283	129212416	95039488	55107672	24992
508	6.823407	129212416	95039488	59593360	24992
509	9.41318	129212416	95039488	49801600	24992
510	8.487308	129212416	95039488	55435912	24992
511	9.584472	129212416	95039488	61636208	24992
512	10.920961	129212416	95039488	52218640	24992
513	11.658435	129212416	95039488	59546128	24992
514	12.784615	129212416	95039488	51614408	24992
515	13.01565	129212416	95039488	60083056	24992
516	14.866832	129212416	95039488	53204840	24992
517	14.904157	129212416	95039488	62825440	24992
518	15.978056	129212416	95039488	56595624	24992
519	17.523644	129212416	95039488	52092624	24992
520	18.814092	129212416	95039488	48923016	24992
521	18.074524	129212416	95039488	60855992	24992
522	20.136027	129212416	95039488	57297848	24992
523	21.089455	129212416	95039488	55004688	24992
524	22.305366	129212416	95039488	53650920	24992
525	23.525379	129212416	95039488	53126168	24992
526	24.179836	129212416	95039488	53266080	24992
527	25.291803	129212416	95039488	53994312	24992
528	26.687739	129212416	95039488	55199544	24992
529	27.010841	129212416	95039488	56779936	24992
530	27.701157	129212416	95039488	58666800	24992
531	28.751272	129212416	95039488	60777520	24992
532	29.224441	129212416	95039488	63151648	24992
533	32.309177	129212416	95039488	52170952	24992
534	31.93867	129212416	95039488	57241376	24992
535	32.553861	129212416	95039488	62013024	24992
536	35.57213	129212416	95039488	53278000	24992
537	38.363177	129212416	95039488	63188744	24992
538	38.477948	129212416	95039488	56634080	24992
539	39.239386	129212416	95039488	67734632	24992
540	39.98526	129212416	95039488	62119488	24992
541	41.34564	129482752	95039488	74425616	24992
542	40.997218	129482752	95039488	69356920	24992
543	43.236701	130564096	96088064	66016944	24992
544	55.000646	135700480	101330944	68393752	24992
545	65.054871	124604416	92418048	32061848	24992
546	49.58118	126492672	92418048	33817016	24992
547	52.136163	126492672	92418048	37671184	24992
548	51.847402	126492672	92418048	42300048	24992
549	53.431767	126492672	92418048	47387848	24992
550	54.352047	126492672	92418048	53139328	24992
551	54.27864	126492672	92418048	59496072	24992
552	57.748165	126492672	92418048	66525408	24992
553	82.574899	123392000	90845184	30226896	24992
554	57.357508	125280256	90845184	37610088	24992
555	62.094215	125280256	90845184	34799864	24992
556	59.164889	125280256	90845184	44214328	24992
557	58.875196	125280256	90845184	54218224	24992
558	64.848724	125280256	90845184	53269376	24992
559	62.848546	125280256	90845184	64521152	24992
560	90.42905	126345216	93990912	32058072	24992
561	67.998558	128233472	93990912	32108976	24992
562	64.375263	128233472	93990912	45227192	24992
563	69.494857	128233472	93990912	47367600	24992
564	70.268296	128233472	93990912	50141776	24992
565	68.87426	128233472	93990912	65146688	24992
566	78.581906	129314816	95039488	69190664	24992
567	91.04351	131125248	97136640	36987408	24992
568	75.415647	131125248	97136640	42430688	24992
569	75.667652	131125248	97136640	48332776	24992
570	77.466463	131125248	97136640	54842056	24992
571	77.60632	131125248	97136640	61965136	24992
572	103.336263	122601472	90320896	23812320	24992
573	79.278329	124489728	90320896	31238480	24992
574	80.764852	124489728	90320896	40275880	24992
575	84.167304	124489728	90320896	49930928	24992
576	83.862108	124489728	90320896	60254792	24992
577	107.329705	126922752	92942336	59697920	24992
578	91.700718	127512576	93466624	38753952	24992
579	91.253522	127512576	93466624	39320368	24992
580	86.15475	127512576	93466624	52196088	24992
581	93.930354	127512576	93466624	54091928	24992
582	114.441306	123752448	91369472	22788496	24992
583	91.353741	125911040	91369472	36679616	24992
584	94.754014	125911040	91369472	40531544	24992
585	91.693099	125911040	91369472	56640728	24992
586	100.847129	125911040	91369472	61765256	24992
587	128.997661	123621376	89272320	36591216	24992
588	99.054246	123621376	89272320	43119560	24992
589	98.020377	123621376	89272320	50165416	24992
590	101.787426	125513728	91369472	57886904	24992
591	110.639908	132812800	98709504	77848736	24992
592	118.401746	130449408	96612352	37483944	24992
593	103.402002	130719744	96612352	47111648	24992
594	103.500294	130719744	96612352	57364208	24992
595	108.085167	130719744	96612352	68348984	24992
596	139.746767	126390272	91893760	35046848	24992
597	107.141955	126390272	91893760	47315872	24992
598	108.983284	126390272	91893760	60192456	24992
599	112.462408	128552960	94515200	73820848	24992
600	144.847343	129200128	95039488	24548840	24992
601	110.400095	129200128	95039488	39716360	24992
602	6.428904	129200128	95039488	44120472	24992
603	2.938669	129200128	95039488	46108744	24992
604	3.93644	129200128	95039488	48761928	24992
605	4.885992	129200128	95039488	52089816	24992
606	6.352143	129200128	95039488	56105144	24992
607	8.99729	129200128	95039488	46792968	24992
608	8.289709	129200128	95039488	52117696	24992
609	9.583829	129200128	95039488	58115400	24992
610	10.782986	129200128	95039488	48677728	24992
611	11.112928	129200128	95039488	56040704	24992
612	13.17503	129200128	95039488	48328992	24992
613	13.045622	129200128	95039488	57006560	24992
614	14.859176	129200128	95039488	50453624	24992
615	16.69616	129200128	95039488	45787576	24992
616	16.529406	129200128	95039488	56506752	24992
617	18.271971	129200128	95039488	52092288	24992
618	19.658125	129200128	95039488	49160800	24992
619	21.080461	129200128	95039488	47428600	24992
620	22.614902	129200128	95039488	46750216	24992
621	23.630649	129200128	95039488	46862640	24992
622	24.546307	129200128	95039488	47614496	24992
623	25.788519	129200128	95039488	48893640	24992
624	26.383522	129200128	95039488	50641152	24992
625	27.887648	129200128	95039488	52784824	24992
626	28.034353	129200128	95039488	55221072	24992
627	29.341826	129200128	95039488	57860472	24992
628	33.047526	129200128	95039488	47591056	24992
629	34.325632	129200128	95039488	55847944	24992
630	34.968036	129200128	95039488	61074664	24992
631	36.832725	129200128	95039488	52885104	24992
632	37.011335	129200128	95039488	63257344	24992
633	38.842581	129200128	95039488	57097192	24992
634	48.290855	129470464	95039488	68828640	24992
635	54.386822	120557568	86126592	31231304	24992
636	46.361226	120557568	86126592	31891448	24992
637	47.531484	120557568	86126592	33865528	24992
638	48.799586	120557568	86126592	36458936	24992
639	49.8448	120557568	86126592	39774664	24992
640	49.881137	120557568	86126592	43824896	24992
641	50.947385	120557568	86126592	48583640	24992
642	57.956616	121098240	86650880	54033672	24992
643	73.656004	121675776	89272320	29572832	24992
644	55.855456	123564032	89272320	35846440	24992
645	57.071865	123564032	89272320	43345416	24992
646	61.633632	123564032	89272320	39968304	24992
647	58.127766	123564032	89272320	48879224	24992
648	59.692308	123564032	89272320	58477816	24992
649	65.86918	123834368	89272320	57293672	24992
650	93.804813	126066688	93990912	26102520	24992
651	64.151243	131469312	97660928	37008456	24992
652	68.438107	138768384	105525248	37947592	24992
653	65.237464	143634432	110768128	51061144	24992
654	70.620168	150933504	118632448	53388528	24992
655	72.18209	158232576	126496768	56446448	24992
656	68.535823	162828288	131739648	71744952	24992
657	93.016561	97464320	63057920	23633392	24992
658	77.210252	98004992	63582208	29070752	24992
659	77.969506	100708352	66727936	34965144	24992
660	78.837102	108007424	74067968	41819280	24992
661	80.71834	115306496	81408000	49255320	24992
662	110.208777	107278336	75640832	29858528	24992
663	83.206185	109977600	75640832	38600192	24992
664	82.737848	110247936	76165120	48050008	24992
665	84.054535	117547008	84029440	58325736	24992
666	89.087128	127279104	94515200	57729168	24992
667	88.299721	134578176	102379520	69562672	24992
668	110.122343	112668672	78262272	31356624	24992
669	88.47498	112668672	78262272	44468696	24992
670	92.667736	113209344	78786560	46859032	24992
671	90.30015	119967744	85602304	61432552	24992
672	103.951195	129699840	95563776	65099408	24992
673	116.960344	115372032	81408000	35261384	24992
674	98.807707	115372032	81408000	40470472	24992
675	93.068894	115372032	81408000	58038896	24992
676	101.046816	123211776	88748032	64700936	24992
677	128.956665	112586752	80883712	24248496	24992
678	102.461942	115286016	80883712	31299512	24992
679	99.393785	115286016	80883712	51770120	24992
680	104.192066	119070720	85078016	61380912	24992
681	120.359752	129884160	95563776	60209256	24992
682	122.059634	116326400	81932288	36933984	24992
683	106.496739	116326400	81932288	48747592	24992
684	107.30402	118218752	84029440	61388624	24992
685	120.084528	130383872	96612352	63205096	24992
686	137.537737	121331712	87175168	43394488	24992
687	116.730722	121602048	87175168	46619512	24992
688	113.359005	121602048	87175168	62169928	24992
689	121.680744	132956160	98709504	67163352	24992
690	150.835763	126713856	92418048	37702568	24992
691	117.343152	126713856	92418048	55411496	24992
692	120.933254	126713856	92418048	62374800	24992
693	125.514481	135364608	101330944	70211544	24992
694	146.558263	121049088	87175168	33358416	24992
695	128.148791	121319424	87175168	42926304	24992
696	127.144616	121319424	87175168	53030872	24992
697	150.54449	126185472	91893760	63810464	24992
698	136.159058	124801024	90320896	43982256	24992
699	130.726156	124801024	90320896	56328960	24992
700	131.118278	126693376	92418048	69494048	24992
701	155.851377	123908096	89796608	32354840	24992
702	2.472425	123908096	89796608	47564784	24992
703	7.026909	123908096	89796608	38053584	24992
704	5.062711	123908096	89796608	41096272	24992
705	5.668391	123908096	89796608	44901832	24992
706	7.533197	123908096	89796608	49473328	24992
707	10.080664	123908096	89796608	40550832	24992
708	9.334709	123908096	89796608	46652576	24992
709	10.608587	123908096	89796608	53525048	24992
710	11.942524	123908096	89796608	44698248	24992
711	13.068349	123908096	89796608	53116752	24992
712	14.621369	123908096	89796608	45970456	24992
713	16.666538	123908096	89796608	40822552	24992
714	16.538452	123908096	89796608	51551104	24992
715	18.618324	123908096	89796608	46970248	24992
716	20.414887	123908096	89796608	43997216	24992
717	21.541765	123908096	89796608	42332712	24992
718	22.903702	123908096	89796608	41744176	24992
719	24.02251	123908096	89796608	42069888	24992
720	25.564814	123908096	89796608	43144296	24992
721	26.975641	123908096	89796608	44783992	24992
722	27.655875	123908096	89796608	46907704	24992
723	28.938091	123908096	89796608	49467376	24992
724	30.223792	123908096	89796608	52315416	24992
725	32.750671	123908096	89796608	42109432	24992
726	35.670373	123908096	89796608	51027080	24992
727	33.619483	123908096	89796608	56801320	24992
728	36.502602	123908096	89796608	48576128	24992
729	36.261799	123908096	89796608	56064808	24992
730	38.456219	123908096	89796608	49683808	24992
731	45.601451	123908096	89796608	50943392	24992
732	45.178868	124719104	90320896	64181296	24992
733	57.098244	124719104	90320896	60496656	24992
734	51.971888	120090624	85602304	28414416	24992
735	51.170294	120090624	85602304	32566160	24992
736	52.702324	120090624	85602304	37421504	24992
737	53.565509	120090624	85602304	43038424	24992
738	54.724218	120090624	85602304	49542024	24992
739	59.950513	120090624	85602304	45253496	24992
740	63.690836	120090624	85602304	53343176	24992
741	79.215159	120631296	88223744	33078328	24992
742	66.407238	122523648	88223744	30665736	24992
743	61.860478	122523648	88223744	41130464	24992
744	63.53237	122523648	88223744	52345416	24992
745	68.586206	122523648	88223744	52859504	24992
746	72.210367	122523648	88223744	54291208	24992
747	74.616748	126038016	91893760	67890680	24992
748	87.184936	126414848	92418048	36361840	24992
749	73.645291	126414848	92418048	40279280	24992
750	72.442363	126414848	92418048	44752088	24992
751	73.622502	126414848	92418048	50177744	24992
752	74.30654	126414848	92418048	56251088	24992
753	98.097163	127496192	93466624	63268544	24992
754	83.104409	123338752	89272320	36979960	24992
755	79.015754	123338752	89272320	45622240	24992
756	85.731022	123338752	89272320	43496992	24992
757	83.764963	123338752	89272320	53731472	24992
758	92.229582	124420096	90320896	64796280	24992
759	109.841901	129286144	95039488	33155968	24992
760	86.611478	129286144	95039488	45831608	24992
761	90.205074	129286144	95039488	47797064	24992
762	89.013642	129286144	95039488	62051504	24992
763	114.154695	133070848	98709504	65660848	24992
764	102.436808	126197760	91893760	34613752	24992
765	97.317732	126197760	91893760	39870008	24992
766	94.533069	126197760	91893760	57439336	24992
767	101.16419	126197760	91893760	64406096	24992
768	129.445445	125353984	91369472	40900808	24992
769	101.894643	125353984	91369472	49482488	24992
770	104.54262	125353984	91369472	58924800	24992
771	105.634989	126164992	91893760	69230856	24992
772	133.796418	126648320	95039488	30679184	24992
773	109.387223	129077248	95039488	41281536	24992
774	108.861493	129077248	95039488	53920848	24992
775	115.563526	129077248	95039488	55839400	24992
776	139.344585	124768256	90320896	23590552	24992
777	111.695227	124768256	90320896	38958824	24992
778	113.002121	124768256	90320896	55018520	24992
779	119.333421	124768256	90320896	60343464	24992
780	154.923803	127459328	93466624	36652240	24992
781	119.203797	127459328	93466624	55179520	24992
782	121.833123	127459328	93466624	63044184	24992
783	127.478699	136380416	102379520	71862160	24992
784	156.440094	137326592	102903808	43728184	24992
785	126.590722	137326592	102903808	54046600	24992
786	126.680942	137326592	102903808	65260544	24992
787	130.345837	138948608	105000960	77325304	24992
788	166.464636	131633152	97136640	39631424	24992
789	132.532457	131633152	97136640	53361928	24992
790	135.945751	131633152	97136640	67922280	24992
791	150.695434	140824576	106573824	83340832	24992
792	157.519988	137936896	103428096	47328296	24992
793	141.790541	137936896	103428096	53035656	24992
794	138.022173	137936896	103428096	70974128	24992
795	166.809241	127451136	93466624	36513064	24992
796	146.011658	127451136	93466624	44755304	24992
797	146.889245	127451136	93466624	53728544	24992
798	186.115351	124551168	90320896	49827824	24992
799	150.103615	124551168	90320896	60566416	24992
800	153.940579	135364608	101330944	72111024	24992
801	181.800344	130666496	96612352	27291008	24992
802	6.640529	130936832	96612352	41641944	24992
803	3.887215	130936832	96612352	44231400	24992
804	5.259819	130936832	96612352	47670640	24992
805	6.452979	130936832	96612352	51972968	24992
806	10.375815	130936832	96612352	43408888	24992
807	9.551458	130936832	96612352	49437232	24992
808	10.773844	130936832	96612352	56336976	24992
809	12.345392	130936832	96612352	47828568	24992
810	13.358301	130936832	96612352	56456064	24992
811	14.933846	130936832	96612352	49641024	24992
812	17.656719	130936832	96612352	44928880	24992
813	17.137911	130936832	96612352	56143448	24992
814	19.275473	130936832	96612352	52087400	24992
815	21.248624	130936832	96612352	49595600	24992
816	23.209536	130936832	96612352	48402024	24992
817	25.403963	130936832	96612352	48362152	24992
818	26.068058	130936832	96612352	49194088	24992
819	27.572381	130936832	96612352	50762320	24992
820	28.180462	130936832	96612352	52868264	24992
821	29.997946	130936832	96612352	55543400	24992
822	33.346303	130936832	96612352	45320392	24992
823	36.516505	130936832	96612352	54165184	24992
824	34.195306	130936832	96612352	59951824	24992
825	36.991462	130936832	96612352	52058032	24992
826	36.682629	130936832	96612352	59890200	24992
827	40.149043	130936832	96612352	53824088	24992
828	46.16664	130936832	96612352	55458672	24992
829	48.818814	130936832	96612352	57738096	24992
830	45.60081	130936832	96612352	72392536	24992
831	45.354573	130936832	96612352	70040520	24992
832	62.152227	133910528	99758080	75159792	24992
833	68.579855	126283776	91893760	28900960	24992
834	56.659655	126283776	91893760	35837792	24992
835	57.294162	126283776	91893760	43504648	24992
836	62.824784	126283776	91893760	40561824	24992
837	58.095241	126283776	91893760	49882888	24992
838	60.56503	126283776	91893760	60110352	24992
839	72.40102	126824448	92418048	59760496	24992
840	88.98384	126746624	92418048	27504672	24992
841	64.64781	126746624	92418048	40535736	24992
842	70.15376	126746624	92418048	43046712	24992
843	71.917329	126746624	92418048	46323144	24992
844	70.395255	126746624	92418048	61999032	24992
845	74.698407	126746624	92418048	67204320	24992
846	106.63429	128819200	94515200	28011328	24992
847	77.324945	128819200	94515200	35026136	24992
848	79.129668	128819200	94515200	42980144	24992
849	78.357229	128819200	94515200	51771864	24992
850	81.193788	128819200	94515200	61577496	24992
851	94.209233	130981888	97136640	72276584	24992
852	104.319407	126689280	92418048	36330184	24992
853	89.392363	126689280	92418048	37327920	24992
854	88.516085	126689280	92418048	50776256	24992
855	89.233384	126689280	92418048	65081072	24992
856	99.868125	129122304	95039488	68951280	24992
857	117.591277	128884736	95039488	38219184	24992
858	96.605225	128884736	95039488	43749752	24992
859	98.796316	128884736	95039488	50388704	24992
860	99.44863	129425408	95039488	57956792	24992
861	123.354487	126840832	94515200	30990456	24992
862	101.854533	128729088	94515200	39087808	24992
863	103.593905	128729088	94515200	49336256	24992
864	105.909496	128729088	94515200	60597384	24992
865	136.449181	124968960	92942336	28005600	24992
866	109.244821	127397888	92942336	40417848	24992
867	109.866682	127397888	92942336	54550128	24992
868	115.087802	127397888	92942336	57952744	24992
869	138.118414	128782336	94515200	27193880	24992
870	113.082833	128782336	94515200	44315216	24992
871	118.318814	128782336	94515200	50759568	24992
872	125.706929	129593344	95039488	58048872	24992
873	151.782012	125120512	90845184	36009632	24992
874	118.69821	125120512	90845184	56752072	24992
875	122.786884	125120512	90845184	66990360	24992
876	137.409331	137285632	102903808	78092064	24992
877	155.908112	132845568	98709504	39348408	24992
878	131.102442	132845568	98709504	52365624	24992
879	130.859985	132845568	98709504	66314704	24992
880	160.058408	129720320	95563776	29150488	24992
881	134.121392	129720320	95563776	45321656	24992
882	133.127313	129720320	95563776	62274104	24992
883	164.875673	132423680	98185216	68487496	24992
884	147.835466	128479232	93990912	41920400	24992
885	140.54769	128479232	93990912	61666808	24992
886	153.811389	133074944	98709504	70811592	24992
887	178.799654	132395008	98185216	46827200	24992
888	146.568995	132395008	98185216	57778056	24992
889	149.605748	135639040	101330944	69962848	24992
890	186.876686	134643712	100282368	47603808	24992
891	152.16343	134643712	100282368	61542640	24992
892	154.943311	137076736	102903808	76485160	24992
893	187.209756	135962624	101855232	33385240	24992
894	158.697691	135962624	101855232	50623064	24992
895	160.002219	135962624	101855232	68431072	24992
896	188.042368	127901696	93466624	38349448	24992
897	164.941273	127901696	93466624	46552408	24992
898	171.544759	130064384	96088064	67429896	24992
899	202.608883	126787584	92418048	48577880	24992
900	169.443276	127868928	93990912	59765400	24992
901	206.462381	133287936	101330944	33256904	24992
902	6.451567	135176192	101330944	46061272	24992
903	4.636593	135176192	101330944	49019312	24992
904	5.939394	135176192	101330944	52949096	24992
905	7.56122	135176192	101330944	57875712	24992
906	11.147636	135176192	101330944	49740192	24992
907	10.529226	135176192	101330944	56638576	24992
908	12.742799	135176192	101330944	48912048	24992
909	13.522363	135176192	101330944	57784752	24992
910	15.931955	135176192	101330944	51862680	24992
911	18.678269	135176192	101330944	47978360	24992
912	18.163127	135176192	101330944	59822512	24992
913	19.988182	135176192	101330944	56526352	24992
914	22.037954	135176192	101330944	54769176	24992
915	23.602325	135176192	101330944	54387008	24992
916	25.562875	135176192	101330944	54975776	24992
917	27.228313	135176192	101330944	56540576	24992
918	28.265373	135176192	101330944	58763296	24992
919	31.75482	135176192	101330944	48456728	24992
920	34.785674	135176192	101330944	56966760	24992
921	32.783841	135176192	101330944	62761304	24992
922	37.652743	135176192	101330944	55223264	24992
923	39.684441	135176192	101330944	66779856	24992
924	39.855307	135176192	101330944	61691832	24992
925	42.517131	135176192	101330944	58776872	24992
926	48.47709	135446528	101330944	61570640	24992
927	45.802538	135716864	101330944	76901584	24992
928	46.156821	135716864	101330944	74969280	24992
929	47.296589	135716864	101330944	74630840	24992
930	68.237759	137068544	102903808	81587360	24992
931	65.294632	126935040	92942336	34170384	24992
932	56.70489	126935040	92942336	24993376	24992
933	58.99213	126935040	92942336	34731640	24992
934	59.831846	126935040	92942336	45479592	24992
935	66.063797	126935040	92942336	45864032	24992
936	63.76458	126935040	92942336	58671032	24992
937	70.487166	126935040	92942336	60953048	24992
938	95.05415	123932672	91369472	32683440	24992
939	71.676018	125820928	91369472	36533384	24992
940	72.398618	125820928	91369472	41784200	24992
941	73.65854	125820928	91369472	48236016	24992
942	76.659247	125820928	91369472	55641072	24992
943	79.901851	128253952	93990912	64029744	24992
944	108.828278	132145152	99758080	39033864	24992
945	84.242285	134033408	99758080	37091896	24992
946	83.530986	134033408	99758080	48426200	24992
947	86.258609	134033408	99758080	60962176	24992
948	93.068292	134033408	99758080	62985592	24992
949	112.140921	127766528	95563776	28409760	24992
950	92.338088	129654784	95563776	31166368	24992
951	90.477561	129654784	95563776	47796960	24992
952	94.143459	129654784	95563776	54049864	24992
953	102.828189	130465792	96088064	61352072	24992
954	126.249547	127971328	93466624	37084984	24992
955	102.902037	127971328	93466624	46309960	24992
956	101.409415	127971328	93466624	56694040	24992
957	105.070675	127971328	93466624	67919328	24992
958	133.207187	128282624	93990912	29592880	24992
959	108.11917	128282624	93990912	43116152	24992
960	112.152072	128282624	93990912	46063208	24992
961	114.455448	128282624	93990912	61566424	24992
962	149.985842	125759488	91369472	37898360	24992
963	115.254017	125759488	91369472	55532600	24992
964	120.655908	125759488	91369472	62535616	24992
965	122.825239	135221248	101330944	70736824	24992
966	155.509593	136863744	102903808	42830232	24992
967	125.00176	136863744	102903808	53077632	24992
968	125.632933	136863744	102903808	64204976	24992
969	128.220336	138485760	104476672	76594920	24992
970	164.017377	131641344	97136640	38940760	24992
971	130.100035	131641344	97136640	53519968	24992
972	130.245951	131641344	97136640	68866336	24992
973	153.612073	141746176	107098112	85530264	24992
974	155.932813	138412032	103428096	39272576	24992
975	136.395699	138412032	103428096	58157928	24992
976	144.849272	138412032	103428096	66448768	24992
977	178.917404	128241664	92942336	41547344	24992
978	143.146918	128241664	92942336	63365720	24992
979	146.904042	134729728	99758080	74612536	24992
980	178.971476	134287360	99233792	30077936	24992
981	149.026088	134287360	99233792	43718416	24992
982	150.539365	134287360	99233792	58288224	24992
983	182.336998	128282624	92942336	37343864	24992
984	157.021252	128282624	92942336	42489792	24992
985	157.598173	128282624	92942336	60113456	24992
986	185.37453	130826240	95563776	31192312	24992
987	158.221089	130826240	95563776	50870960	24992
988	178.605288	134610944	99758080	60202456	24992
989	181.911501	126615552	91369472	52578864	24992
990	166.370872	127967232	92942336	63973512	24992
991	202.72321	130146304	97660928	37820928	24992
992	169.618197	132575232	97660928	50281792	24992
993	172.164125	133386240	98185216	64958024	24992
994	205.988115	128651264	93466624	40358592	24992
995	175.234434	128651264	93466624	57004344	24992
996	196.382971	132435968	97660928	63205904	24992
997	196.31273	127242240	91893760	51143328	24992
998	181.059311	131837952	96612352	71165232	24992
999	217.065862	134729728	99758080	37266144	24992
1000	183.838164	134729728	99758080	59596392	24992
