x	Duration	RSS	HeapTotal	HeapUsed	External
0	NA	103628800	68825088	12074232	24992
1	0.397059	103628800	68825088	12122736	24992
2	0.314787	103628800	68825088	12194408	24992
3	0.361634	103628800	68825088	12291288	24992
4	0.436241	103628800	68825088	12414560	24992
5	0.526675	103628800	68825088	12565672	24992
6	0.619038	103628800	68825088	12745408	24992
7	1.784355	103628800	68825088	12955608	24992
8	1.730073	103628800	68825088	13195240	24992
9	0.588971	103628800	68825088	13470920	24992
10	0.553226	103628800	68825088	13775144	24992
11	0.585853	103628800	68825088	14112552	24992
12	0.659384	103628800	68825088	14484752	24992
13	0.738241	103628800	68825088	14892552	24992
14	0.770796	103628800	68825088	15336952	24992
15	0.975023	103628800	68825088	15818856	24992
16	0.90294	103628800	68825088	16339168	24992
17	1.224138	103628800	68825088	16900896	24992
18	1.068262	103628800	68825088	17503024	24992
19	1.107831	103628800	68825088	18152320	24992
20	1.153893	103628800	68825088	18838160	24992
21	1.456613	103628800	68825088	19567056	24992
22	1.470866	103628800	68825088	20339912	24992
23	1.777093	103628800	68825088	21159288	24992
24	1.399182	103628800	68825088	22021264	24992
25	1.502986	103628800	68825088	22931344	24992
26	1.642437	103628800	68825088	23891008	24992
27	1.631627	103628800	68825088	24899344	24992
28	1.888341	103628800	68825088	25958128	24992
29	1.75923	103628800	68825088	27068688	24992
30	1.853877	103628800	68825088	28231368	24992
31	2.765882	103628800	68825088	13182968	24992
32	2.281558	103628800	68825088	14456752	24992
33	2.466112	103628800	68825088	15791496	24992
34	2.186682	103628800	68825088	17180432	24992
35	2.484953	103628800	68825088	18626528	24992
36	2.790673	103628800	68825088	20132264	24992
37	2.449135	103628800	68825088	21695272	24992
38	2.747485	103628800	68825088	23318192	24992
39	2.803429	103628800	68825088	25004096	24992
40	2.692721	103628800	68825088	26749528	24992
41	3.345485	103628800	68825088	28558600	24992
42	4.557018	103628800	68825088	14278096	24992
43	3.697506	103628800	68825088	16219112	24992
44	3.297283	103628800	68825088	18219544	24992
45	3.36133	103628800	68825088	20286840	24992
46	3.491651	103628800	68825088	22420840	24992
47	5.512894	103628800	68825088	24632240	24992
48	3.678998	103628800	68825088	26903552	24992
49	3.575898	103628800	68825088	29244824	24992
50	4.867506	103628800	68825088	15400048	24992
51	4.078543	103628800	68825088	17887096	24992
52	4.109272	103628800	68825088	20449048	24992
53	4.019132	103628800	68825088	23086792	24992
54	4.975721	103628800	68825088	25802648	24992
55	4.370818	103628800	68825088	28602880	24992
56	5.693231	103628800	68825088	15282088	24992
57	4.510492	103628800	68825088	18232888	24992
58	4.647426	103628800	68825088	21263880	24992
59	4.83442	103628800	68825088	24376256	24992
60	4.879063	103628800	68825088	27571000	24992
61	6.821039	103628800	68825088	15063360	24992
62	5.191686	103628800	68825088	18426352	24992
63	5.477343	103628800	68825088	21871960	24992
64	5.391345	103628800	68825088	25403832	24992
65	5.754297	103628800	68825088	29030184	24992
66	8.095194	103628800	68825088	16993000	24992
67	5.813627	103628800	68825088	20796088	24992
68	5.91371	103628800	68825088	24688832	24992
69	6.31737	103628800	68825088	28673224	24992
70	8.147021	103628800	68825088	17063072	24992
71	6.376137	103628800	68825088	21231936	24992
72	7.412255	103628800	68825088	25501232	24992
73	6.834667	103628800	68825088	29856584	24992
74	8.862015	103628800	68825088	18494240	24992
75	7.369134	103628800	68825088	23041272	24992
76	7.132288	103628800	68825088	27685280	24992
77	9.01482	103628800	68825088	16933608	24992
78	8.257561	103628800	68825088	21782952	24992
79	7.807111	103628800	68825088	26724048	24992
80	7.992218	103628800	68825088	31766144	24992
81	10.268037	103628800	68825088	21014416	24992
82	8.262924	103628800	68825088	26261296	24992
83	8.193842	103628800	68825088	31613400	24992
84	10.669806	103628800	68825088	21281664	24992
85	8.731096	103628800	68825088	26844456	24992
86	9.085084	103628800	68825088	32512848	24992
87	11.251408	103628800	68825088	22455864	24992
88	9.04583	103628800	68825088	28339944	24992
89	11.46046	103628800	68825088	18974032	24992
90	9.595012	103628800	68825088	25077488	24992
91	12.250677	103628800	68825088	31300144	24992
92	11.950278	103628800	68825088	21963256	24992
93	10.120321	103628800	68825088	28402560	24992
94	12.601289	103628800	68825088	19712088	24992
95	10.514124	103628800	68825088	26380200	24992
96	10.682336	103628800	68825088	33164240	24992
97	12.602736	103628800	68825088	24227080	24992
98	11.12015	103628800	68825088	31246016	24992
99	13.378723	103628800	68825088	22880112	24992
100	11.280853	103628800	68825088	30138384	24992
101	13.867492	103628800	68825088	22113000	24992
102	0.431914	103628800	68825088	29410632	24992
103	0.616981	103628800	68825088	29776880	24992
104	0.814068	103628800	68825088	30270344	24992
105	0.997325	103628800	68825088	30891960	24992
106	1.190265	103628800	68825088	31647144	24992
107	1.413505	103628800	68825088	32528456	24992
108	1.630678	103628800	68825088	33540632	24992
109	1.788181	103628800	68825088	34685184	24992
110	2.207567	103628800	68825088	35962992	24992
111	4.094787	103628800	68825088	21386896	24992
112	2.918057	103628800	68825088	22933064	24992
113	2.61375	103628800	68825088	24614680	24992
114	2.852181	103628800	68825088	26433480	24992
115	3.083555	103628800	68825088	28392096	24992
116	3.590725	103628800	68825088	30486080	24992
117	3.460509	103628800	68825088	32719440	24992
118	3.680336	103628800	68825088	35095008	24992
119	5.752315	103628800	68825088	21670840	24992
120	4.116933	103628800	68825088	24332992	24992
121	4.331137	103628800	68825088	27134800	24992
122	4.762025	103628800	68825088	30080776	24992
123	4.820344	103628800	68825088	33172864	24992
124	5.211442	103628800	68825088	36409776	24992
125	7.223189	103628800	68825088	23668736	24992
126	5.540856	103628800	68825088	27199432	24992
127	5.728963	103628800	68825088	30880288	24992
128	6.131754	103628800	68825088	34708872	24992
129	8.128026	103628800	68825088	22800928	24992
130	6.610614	103628800	68825088	26931312	24992
131	6.644326	103628800	68825088	31214112	24992
132	6.865246	103628800	68825088	35649744	24992
133	9.178922	103628800	68825088	24245536	24992
134	7.391815	103628800	68825088	28998000	24992
135	8.016391	103628800	68825088	33909136	24992
136	9.864037	103628800	68825088	23256560	24992
137	8.322834	103628800	68825088	28481360	24992
138	8.362878	103628800	68825088	33863120	24992
139	10.910942	103628800	68825088	23700896	24992
140	8.854938	103628800	68825088	29402992	24992
141	9.392381	103628800	68825088	35266744	24992
142	11.606052	103628800	68825088	25421536	24992
143	9.689378	103628800	68825088	31611144	24992
144	9.875782	103628800	68825088	37965064	24992
145	12.237279	103628800	68825088	28295960	24992
146	10.641884	103628800	68825088	34982848	24992
147	13.26262	103628800	68825088	26057032	24992
148	11.488432	103628800	68825088	33077696	24992
149	13.695748	103628800	68825088	24758536	24992
150	11.80273	103628800	68825088	32120432	24992
151	14.511644	103628800	68825088	24314072	24992
152	12.313762	103628800	68825088	32017488	24992
153	14.923822	103628800	68825088	24598600	24992
154	12.845855	103628800	68825088	32654440	24992
155	15.399818	103628800	68825088	25490608	24992
156	13.594656	103628800	68825088	33894424	24992
157	16.030342	103628800	68825088	26953712	24992
158	13.927615	103628800	68825088	35711520	24992
159	16.835017	103628800	68825088	28907816	24992
160	14.482143	103628800	68825088	38018952	24992
161	17.044171	103628800	68825088	31254584	24992
162	17.85539	103628800	68825088	25638504	24992
163	15.375789	103628800	68825088	35296176	24992
164	17.968359	103628800	68825088	29475448	24992
165	16.151187	103628800	68825088	39497992	24992
166	18.255113	103628800	68825088	33542360	24992
167	19.389834	103628800	68825088	28576464	24992
168	16.953776	103628800	68825088	39161824	24992
169	19.52743	103628800	68825088	33806680	24992
170	19.985026	103628800	68825088	29446888	24992
171	18.042527	103628800	68825088	40603592	24992
172	20.289906	103628800	68825088	35696080	24992
173	21.457927	103628800	68825088	31693312	24992
174	21.832339	103628800	68825088	28429424	24992
175	19.123718	103628800	68825088	40351808	24992
176	21.948108	103628800	68825088	36308696	24992
177	22.792799	103628800	68825088	33068792	24992
178	22.753672	103628800	68825088	30448016	24992
179	23.392676	103628800	68825088	28446384	24992
180	20.760477	103628800	68825088	41349288	24992
181	23.948933	103628800	68825088	38257568	24992
182	24.10366	103628800	68825088	35831304	24992
183	24.982537	103628800	68825088	33890688	24992
184	24.865715	103628800	68825088	32478720	24992
185	25.932141	103628800	68825088	31489832	24992
186	26.653777	103628800	68825088	30904080	24992
187	27.311985	103628800	68825088	30628240	24992
188	26.809499	103628800	68825088	30622472	24992
189	27.717269	103628800	68825088	30841288	24992
190	27.806176	103628800	68825088	31268432	24992
191	28.423851	103628800	68825088	31853400	24992
192	28.997044	103628800	68825088	32599496	24992
193	28.475172	103628800	68825088	33454744	24992
194	29.25478	103628800	68825088	34428232	24992
195	29.132847	103628800	68825088	35464472	24992
196	30.287198	103628800	68825088	36597464	24992
197	29.632578	103628800	68825088	37807712	24992
198	29.845229	103628800	68825088	39090392	24992
199	30.570205	103628800	68825088	40401208	24992
200	31.039243	103628800	68825088	41773760	24992
201	30.287301	103628800	68825088	43191784	24992
202	0.753417	103628800	68825088	44573536	24992
203	1.08612	103628800	68825088	45231656	24992
204	1.416884	103628800	68825088	46109600	24992
205	4.656438	103628800	68825088	30894048	24992
206	2.353453	103628800	68825088	32217992	24992
207	2.451664	103628800	68825088	33761840	24992
208	2.861485	103628800	68825088	35532552	24992
209	3.389112	103628800	68825088	37532896	24992
210	3.549128	103628800	68825088	39767824	24992
211	3.891792	103628800	68825088	42237592	24992
212	4.246437	103628800	68825088	44942880	24992
213	7.572759	103628800	68825088	31743384	24992
214	5.258984	103628800	68825088	34924168	24992
215	5.375888	103628800	68825088	38341936	24992
216	6.138027	103628800	68825088	42003352	24992
217	6.089383	103628800	68825088	45900592	24992
218	9.318251	103628800	68825088	33819648	24992
219	7.109448	103628800	68825088	38204264	24992
220	7.218515	103628800	68825088	42833592	24992
221	10.873675	103628800	68825088	31935432	24992
222	8.09667	103628800	68825088	37054480	24992
223	8.353219	103628800	68825088	42414760	24992
224	12.058703	103628800	68825088	32298816	24992
225	9.451475	103628800	68825088	38155536	24992
226	9.536563	103628800	68825088	44258944	24992
227	13.113398	103628800	68825088	34655416	24992
228	10.516782	103628800	68825088	41264136	24992
229	14.188556	103628800	68825088	32599784	24992
230	11.36004	103628800	68825088	39706952	24992
231	11.659136	103628800	68825088	47070520	24992
232	14.827884	103628800	68825088	38364136	24992
233	12.612744	103628800	68825088	46238272	24992
234	16.28032	103628800	68825088	38180784	24992
235	13.117299	103628800	68825088	46570312	24992
236	17.037001	103628800	68825088	39001184	24992
237	18.344301	103628800	68825088	32749776	24992
238	15.139517	103628800	68825088	41922832	24992
239	18.356063	103628800	68825088	35781584	24992
240	15.418406	103628800	68825088	45479096	24992
241	18.886012	103628800	68825088	39427584	24992
242	20.141606	103628800	68825088	34502792	24992
243	16.84548	103628800	68825088	45000856	24992
244	20.392263	103628800	68825088	39797248	24992
245	21.408647	103628800	68825088	35656704	24992
246	18.151732	103628800	68825088	46939064	24992
247	21.685231	103628800	68825088	42301408	24992
248	22.244906	103628800	68825088	38601880	24992
249	23.785333	103899136	69349376	35678512	24992
250	19.768034	103899136	69349376	48033904	24992
251	23.714025	103899136	69349376	44352376	24992
252	24.177633	103899136	69349376	41521192	24992
253	24.65698	104169472	69349376	39340032	24992
254	25.262521	104169472	69349376	37766064	24992
255	25.752549	104169472	69873664	36710584	24992
256	26.949762	104439808	69873664	36120192	24992
257	27.096062	104439808	69873664	35899936	24992
258	27.593647	104439808	69873664	36002808	24992
259	28.83552	104710144	69873664	36393320	24992
260	29.321673	104710144	69873664	37023272	24992
261	29.243136	104710144	70397952	37868968	24992
262	29.370796	104980480	70397952	38884536	24992
263	29.659135	104980480	70397952	40041984	24992
264	30.440453	104980480	70397952	41334920	24992
265	30.035817	105250816	70397952	42753408	24992
266	30.882585	105250816	70397952	44248560	24992
267	30.815989	105250816	70397952	45826912	24992
268	32.574668	105250816	70397952	47509680	24992
269	31.569003	105250816	70397952	49240328	24992
270	32.020166	105250816	70397952	51001824	24992
271	37.543752	105250816	70922240	38764176	24992
272	34.157187	105521152	71446528	42694616	24992
273	34.443768	105521152	71446528	46374752	24992
274	34.437563	105791488	71446528	49805296	24992
275	39.602562	106061824	71970816	39163520	24992
276	39.196036	108494848	74067968	46710928	24992
277	40.444377	108765184	74592256	51568560	24992
278	52.115258	107462656	73019392	19396848	24992
279	36.016617	107462656	73019392	27357040	24992
280	35.534109	107462656	73019392	19226424	24992
281	36.064536	107462656	73019392	28215512	24992
282	34.635664	107462656	73019392	34262712	24992
283	36.573985	107462656	73019392	25552368	24992
284	35.868112	107462656	73019392	32488400	24992
285	37.447328	107462656	73019392	24851120	24992
286	38.383862	108003328	73543680	35394200	24992
287	38.373706	108544000	73543680	28833264	24992
288	39.439943	108544000	73543680	39945728	24992
289	39.923525	108544000	73543680	33775664	24992
290	40.884513	108544000	73543680	29076752	24992
291	41.587801	108544000	73543680	41055072	24992
292	41.222669	108544000	73543680	35996128	24992
293	45.057672	108544000	73543680	36162720	24992
294	42.737375	108544000	73543680	48956520	24992
295	42.659444	108544000	73543680	44612384	24992
296	52.91784	110706688	76165120	45774752	24992
297	65.8014	113139712	79835136	22165592	24992
298	48.291843	114491392	79835136	23555320	24992
299	46.288554	114491392	79835136	37905944	24992
300	46.136644	114491392	79835136	34725792	24992
301	46.138346	114491392	79835136	32764944	24992
302	1.050431	114761728	79835136	35901088	24992
303	1.498696	114761728	79835136	36863240	24992
304	2.006396	114761728	79835136	38146936	24992
305	2.488295	114761728	79835136	39751728	24992
306	3.232788	114761728	79835136	41681216	24992
307	3.538422	114761728	79835136	43934208	24992
308	6.081951	114761728	79835136	32958176	24992
309	4.760534	114761728	79835136	35860072	24992
310	5.00729	114761728	79835136	39089712	24992
311	5.550871	114761728	79835136	42647560	24992
312	6.101641	114761728	79835136	46532784	24992
313	7.669746	114761728	79835136	35084344	24992
314	7.298801	114761728	79835136	39628864	24992
315	7.631778	114761728	79835136	44504768	24992
316	9.036549	114761728	79835136	33775696	24992
317	9.233136	114761728	79835136	39318040	24992
318	9.126606	114761728	79835136	45205536	24992
319	10.736826	114761728	79835136	35379184	24992
320	10.212736	114761728	79835136	41926392	24992
321	11.830336	114761728	79835136	33280168	24992
322	11.506487	114761728	79835136	40501368	24992
323	12.832607	114761728	79835136	32767016	24992
324	12.594187	114761728	79835136	40684288	24992
325	14.191214	114761728	79835136	33609048	24992
326	13.584241	114761728	79835136	42196696	24992
327	15.123271	114761728	79835136	35607536	24992
328	14.487853	114761728	79835136	44882288	24992
329	16.866515	114761728	79835136	38551680	24992
330	16.961655	114761728	79835136	33504568	24992
331	16.680981	114761728	79835136	43812336	24992
332	17.916466	114761728	79835136	38698544	24992
333	18.631715	114761728	79835136	34704376	24992
334	18.250877	114761728	79835136	46076504	24992
335	19.785521	114761728	79835136	41694808	24992
336	20.686789	114761728	79835136	38310072	24992
337	21.153911	114761728	79835136	35776592	24992
338	21.128874	114761728	79835136	48539632	24992
339	21.658501	114761728	79835136	45265928	24992
340	21.916665	114761728	79835136	42855544	24992
341	23.367296	114761728	79835136	41133976	24992
342	23.638245	114761728	79835136	40010312	24992
343	24.765617	114761728	79835136	39437960	24992
344	25.005086	114761728	79835136	39319336	24992
345	26.044362	114761728	79835136	39554040	24992
346	26.351572	114761728	79835136	40153920	24992
347	27.226618	114761728	79835136	41015952	24992
348	27.296567	114761728	79835136	42148120	24992
349	28.040985	114761728	79835136	43474824	24992
350	28.038991	114761728	79835136	44964120	24992
351	29.180348	114761728	79835136	46636088	24992
352	29.345171	114761728	79835136	48449848	24992
353	31.834035	114761728	79835136	36488272	24992
354	32.990158	114761728	79835136	42969896	24992
355	31.952879	114761728	79835136	46883536	24992
356	31.808099	114761728	79835136	50529792	24992
357	34.803986	114761728	79835136	40225088	24992
358	35.199588	114761728	79835136	48188784	24992
359	34.591293	114761728	79835136	53364552	24992
360	35.865709	114761728	79835136	44250464	24992
361	36.798098	114761728	79835136	53297400	24992
362	37.962586	114761728	79835136	46029888	24992
363	38.966701	116383744	81932288	55778104	24992
364	39.780016	117465088	82980864	49244408	24992
365	48.444016	119627776	85602304	59745248	24992
366	55.997028	114249728	80359424	25976992	24992
367	43.478022	114786304	80359424	24189920	24992
368	41.568162	115056640	80359424	35636504	24992
369	40.968614	115056640	80359424	30185344	24992
370	44.819275	115056640	80359424	30285576	24992
371	43.2785	115867648	80883712	42898632	24992
372	43.072682	115867648	80883712	38397824	24992
373	46.899243	115867648	80883712	39630768	24992
374	48.588765	115867648	80883712	41077280	24992
375	45.993971	115867648	80883712	55243480	24992
376	45.89657	115867648	80883712	51940744	24992
377	46.673864	115867648	80883712	49824280	24992
378	51.02618	116137984	81408000	52926008	24992
379	65.60719	120193024	85602304	56303448	24992
380	57.904416	119754752	85078016	30337064	24992
381	52.158054	119754752	85078016	34537184	24992
382	52.796753	119754752	85078016	39090376	24992
383	53.165542	119754752	85078016	44008224	24992
384	53.354665	120295424	85602304	49327288	24992
385	54.302566	120295424	85602304	55074016	24992
386	53.910795	120295424	85602304	61117072	24992
387	59.863772	121917440	87175168	55435112	24992
388	74.674164	125972480	91369472	62375576	24992
389	63.369921	122945536	88223744	37074440	24992
390	60.612542	122945536	88223744	32695160	24992
391	58.256516	122945536	88223744	40839568	24992
392	58.8873	122945536	88748032	49417888	24992
393	62.472127	123486208	88748032	46166664	24992
394	59.440229	123486208	88748032	55488552	24992
395	61.168484	123486208	88748032	65230720	24992
396	69.776701	127000576	92418048	63244008	24992
397	80.289709	123289600	88748032	26955704	24992
398	62.372195	123289600	88748032	38009400	24992
399	66.007093	123289600	88748032	37133232	24992
400	64.284524	123289600	88748032	48866304	24992
401	67.906679	123559936	88748032	48798440	24992
402	1.421553	123559936	88748032	49325408	24992
403	2.053588	123559936	88748032	50569200	24992
404	2.75595	123559936	88748032	52224304	24992
405	3.459744	123559936	88748032	54293840	24992
406	4.111461	123559936	88748032	56779400	24992
407	4.962837	123559936	88748032	59682408	24992
408	7.65335	123559936	88748032	49073896	24992
409	6.113416	123559936	88748032	52811344	24992
410	6.590904	123559936	88748032	56969032	24992
411	7.395443	123559936	88748032	61546800	24992
412	8.700391	123559936	88748032	50589872	24992
413	8.651645	123559936	88748032	56013032	24992
414	9.385434	123559936	88748032	61867584	24992
415	10.853764	123559936	88748032	52113056	24992
416	10.562055	123559936	88748032	58805784	24992
417	12.158767	123559936	88748032	50350232	24992
418	12.139753	123559936	88748032	57901664	24992
419	13.568678	123559936	88748032	50496896	24992
420	14.029266	123559936	88748032	58932360	24992
421	15.302654	123559936	88748032	52223032	24992
422	14.662047	123559936	88748032	61556328	24992
423	16.009307	123559936	88748032	55380792	24992
424	17.272672	123559936	88748032	50575088	24992
425	17.013668	123559936	88748032	61253608	24992
426	19.21212	123559936	88748032	56489464	24992
427	20.485521	123559936	88748032	52881800	24992
428	19.531161	123559936	88748032	64916640	24992
429	22.475051	123559936	88748032	60947328	24992
430	23.951497	123559936	88748032	58006392	24992
431	34.79054	123559936	88748032	56018696	24992
432	24.868434	116965376	82980864	27994576	24992
433	23.485886	117772288	82980864	26137312	24992
434	24.195773	117772288	82980864	25019936	24992
435	24.836986	117772288	82980864	24523800	24992
436	25.66404	117772288	82980864	24587592	24992
437	27.098281	117772288	82980864	25092496	24992
438	27.454397	117772288	82980864	25997256	24992
439	27.58135	117772288	82980864	27272136	24992
440	27.876574	117772288	82980864	28816104	24992
441	31.02206	117772288	82980864	16750056	24992
442	33.133693	117772288	82980864	23207696	24992
443	31.755066	117772288	82980864	27171208	24992
444	31.438461	117772288	82980864	31005640	24992
445	34.679281	117772288	82980864	21014928	24992
446	35.553393	117772288	82980864	29320760	24992
447	34.015997	117772288	82980864	34884672	24992
448	36.018734	117772288	82980864	26019128	24992
449	38.459594	117772288	82980864	35812376	24992
450	37.619406	117772288	82980864	28868840	24992
451	39.878176	117772288	82980864	39464960	24992
452	39.80444	117772288	82980864	33310328	24992
453	40.54573	117772288	82980864	44859536	24992
454	41.13668	117772288	82980864	39181912	24992
455	42.531032	117772288	82980864	35104320	24992
456	43.27657	118312960	83505152	48028968	24992
457	42.692487	118312960	83505152	43766792	24992
458	44.506041	118312960	83505152	40896072	24992
459	48.240966	118312960	83505152	42885168	24992
460	56.630193	119934976	85078016	45230304	24992
461	65.720203	115306496	82456576	35244496	24992
462	48.757978	117198848	82456576	37019448	24992
463	49.986519	117198848	82456576	40744280	24992
464	49.880356	117198848	82456576	45010408	24992
465	51.098362	117198848	82456576	49729248	24992
466	52.522037	117739520	82980864	54952512	24992
467	52.234055	117739520	82980864	60635032	24992
468	58.273111	121524224	87175168	54575584	24992
469	55.698972	125579264	90845184	61273032	24992
470	78.219738	122605568	89796608	22898776	24992
471	55.97575	124493824	89796608	29692256	24992
472	56.700875	124493824	89796608	37882816	24992
473	58.106842	124493824	89796608	46534504	24992
474	60.90406	124493824	89796608	43355208	24992
475	58.629077	124493824	89796608	52962792	24992
476	62.94333	124493824	89796608	50831472	24992
477	60.81484	124493824	89796608	61583680	24992
478	85.874431	121614336	88748032	27926168	24992
479	63.096274	123502592	88748032	38956824	24992
480	66.253673	123502592	88748032	38790144	24992
481	66.572529	123502592	88748032	39058064	24992
482	65.732707	123502592	88748032	52189680	24992
483	68.312893	123502592	88748032	53505984	24992
484	70.826502	123502592	88748032	55322888	24992
485	92.158042	126164992	93466624	25704800	24992
486	67.693817	128053248	93466624	40247000	24992
487	70.777244	128053248	93466624	43570064	24992
488	73.259657	128053248	93466624	47431536	24992
489	72.027937	128053248	93466624	51744160	24992
490	73.175981	128323584	93466624	56611376	24992
491	74.290809	128864256	93990912	62003144	24992
492	98.400026	127098880	94515200	34759176	24992
493	76.363162	128987136	94515200	40329944	24992
494	76.816895	128987136	94515200	47206968	24992
495	77.991207	128987136	94515200	54623848	24992
496	80.608865	128987136	94515200	50266208	24992
497	79.53522	129257472	94515200	58730776	24992
498	100.955246	126889984	93990912	19300488	24992
499	81.942789	128778240	93990912	27912200	24992
500	82.286383	128778240	93990912	37909072	24992
501	82.194076	128778240	93990912	48624208	24992
502	1.704582	128778240	93990912	47824968	24992
503	2.403895	128778240	93990912	49395216	24992
504	3.410394	128778240	93990912	51488288	24992
505	4.201378	128778240	93990912	54104872	24992
506	4.81124	128778240	93990912	57246536	24992
507	7.811782	128778240	93990912	47090520	24992
508	6.443834	128778240	93990912	51284240	24992
509	7.413282	128778240	93990912	56005344	24992
510	8.044936	128778240	93990912	61255848	24992
511	9.472385	128778240	93990912	50902312	24992
512	9.860602	128778240	93990912	57212352	24992
513	11.720464	128778240	93990912	48416400	24992
514	11.804411	128778240	93990912	55789360	24992
515	14.416495	128778240	93990912	48288520	24992
516	13.60113	128778240	93990912	56728592	24992
517	15.874913	128778240	93990912	50135360	24992
518	15.042592	128778240	93990912	59647592	24992
519	16.3283	128778240	93990912	53710888	24992
520	17.497245	128778240	93990912	49181408	24992
521	17.249062	128778240	93990912	60308248	24992
522	19.416857	128778240	93990912	55895880	24992
523	20.238303	128778240	93990912	52703016	24992
524	20.900641	128778240	93990912	50474048	24992
525	22.537767	128778240	93990912	49125528	24992
526	24.010289	128778240	93990912	48568808	24992
527	24.392707	128778240	93990912	48634600	24992
528	25.515176	128778240	93990912	49247824	24992
529	26.340097	128778240	93990912	50333560	24992
530	27.405363	128778240	93990912	51788856	24992
531	27.681301	128778240	93990912	53568888	24992
532	28.390742	128778240	93990912	55658208	24992
533	28.989955	128778240	93990912	58012072	24992
534	29.9418	128778240	93990912	60524720	24992
535	32.009713	128778240	93990912	49531792	24992
536	34.68822	128778240	93990912	56901696	24992
537	35.533734	128778240	93990912	61688224	24992
538	47.995776	115924992	81408000	21805336	24992
539	34.945408	116191232	81408000	29768096	24992
540	36.778349	116191232	81408000	22088728	24992
541	35.289741	116191232	81408000	29141888	24992
542	38.194469	116191232	81408000	22005600	24992
543	39.541208	116191232	81408000	33156928	24992
544	39.317773	116191232	81408000	27421744	24992
545	42.692304	116191232	81408000	27393296	24992
546	41.596319	116191232	81408000	40020616	24992
547	42.504037	116191232	81408000	35662696	24992
548	45.722037	116191232	81408000	37218048	24992
549	46.653734	116191232	81408000	39163904	24992
550	49.714603	116191232	81408000	41699064	24992
551	57.380652	116461568	81932288	44797856	24992
552	66.560642	114954240	82456576	36020728	24992
553	50.51529	116846592	82456576	38754896	24992
554	51.10353	116846592	82456576	43514720	24992
555	52.64181	116846592	82456576	48899576	24992
556	55.464748	116846592	82456576	42611760	24992
557	53.53175	116846592	82456576	49098304	24992
558	56.604389	117657600	82980864	56138192	24992
559	56.436082	121982976	87175168	63834592	24992
560	65.452219	128200704	93466624	59761528	24992
561	74.952254	122662912	89272320	34647048	24992
562	60.677207	124010496	89272320	30751144	24992
563	59.615614	124010496	89272320	40642104	24992
564	64.20217	124010496	89272320	38926984	24992
565	60.69171	124010496	89272320	49981016	24992
566	65.094392	124010496	89272320	49446904	24992
567	62.496575	124010496	89272320	61680456	24992
568	83.43269	125632512	90845184	62345656	24992
569	70.707958	124530688	89796608	29336160	24992
570	67.38488	124530688	89796608	31044072	24992
571	66.653381	124530688	89796608	45658400	24992
572	70.350192	124530688	89796608	48545272	24992
573	72.253176	124530688	89796608	52083496	24992
574	75.931504	125071360	90320896	56249624	24992
575	93.15912	122032128	87699456	30286920	24992
576	74.484088	122032128	87699456	35508720	24992
577	74.345259	122032128	87699456	41420248	24992
578	75.486848	122032128	87699456	47796712	24992
579	77.701036	122032128	87699456	54824232	24992
580	80.409039	123113472	88223744	62399896	24992
581	104.34034	126279680	91893760	25925536	24992
582	78.918941	126279680	91893760	34788016	24992
583	79.621477	126279680	91893760	44200992	24992
584	80.89978	126279680	91893760	54228496	24992
585	84.298126	126279680	91893760	52497712	24992
586	85.116594	127361024	92418048	63643344	24992
587	111.120248	127655936	92942336	29314600	24992
588	85.305165	127655936	92942336	41779280	24992
589	88.77834	127926272	92942336	42566176	24992
590	87.84115	127926272	92942336	56161584	24992
591	90.960546	127926272	92942336	58102040	24992
592	95.917556	129548288	95039488	72855520	24992
593	110.016549	128929792	93990912	27268376	24992
594	92.365422	128929792	93990912	43299848	24992
595	93.298044	128929792	93990912	47664680	24992
596	97.114986	128929792	93990912	52664584	24992
597	108.679851	131903488	97136640	58180704	24992
598	110.786817	123953152	89272320	31367128	24992
599	97.961485	123953152	89272320	38177264	24992
600	98.078125	123953152	89272320	45636216	24992
601	99.624837	123953152	89272320	53549672	24992
602	2.18402	123154432	90320896	29797448	24992
603	3.100839	123154432	90320896	31649432	24992
604	3.822512	123154432	90320896	34119368	24992
605	6.844115	125042688	90320896	23092920	24992
606	5.947882	125042688	90320896	26792192	24992
607	6.6846	125042688	90320896	31109672	24992
608	9.152904	125042688	90320896	21619920	24992
609	8.569943	125042688	90320896	27180840	24992
610	9.727433	125042688	90320896	33371272	24992
611	11.36306	125042688	90320896	24263544	24992
612	11.682481	125042688	90320896	31692720	24992
613	13.337094	125042688	90320896	24106472	24992
614	13.392814	125042688	90320896	32778544	24992
615	15.350343	125042688	90320896	26255096	24992
616	15.386054	125042688	90320896	36190992	24992
617	16.810565	125042688	90320896	30423640	24992
618	18.284425	125042688	90320896	26161984	24992
619	20.235803	125042688	90320896	23207184	24992
620	19.290795	125042688	90320896	35662352	24992
621	21.221978	125042688	90320896	32494792	24992
622	22.060014	125042688	90320896	30482048	24992
623	23.421251	125042688	90320896	29414224	24992
624	24.765743	125042688	90320896	29142552	24992
625	25.92008	125042688	90320896	29502424	24992
626	26.456834	125042688	90320896	30497312	24992
627	27.558554	125042688	90320896	31937224	24992
628	29.145863	125042688	90320896	33821128	24992
629	29.953195	125042688	90320896	36051160	24992
630	31.781538	125042688	90320896	24794128	24992
631	33.937289	125042688	90320896	32258120	24992
632	32.89629	125042688	90320896	37175664	24992
633	35.044876	125042688	90320896	28282520	24992
634	36.23654	125042688	90320896	37707200	24992
635	37.028182	125042688	90320896	30916704	24992
636	39.544666	125042688	90320896	41565832	24992
637	39.351211	125042688	90320896	35811328	24992
638	40.397941	125042688	90320896	47728736	24992
639	41.136559	125042688	90320896	42711480	24992
640	45.194484	125042688	90320896	43625000	24992
641	47.516439	125042688	90320896	45064912	24992
642	44.865922	125042688	90320896	59412960	24992
643	44.938033	125042688	90320896	56559528	24992
644	50.773708	125042688	90320896	60162016	24992
645	73.104569	121724928	88748032	20870976	24992
646	51.779216	123613184	88748032	24885016	24992
647	52.370655	123613184	88748032	30166880	24992
648	53.116095	123613184	88748032	36169768	24992
649	54.014617	123613184	88748032	42815848	24992
650	55.112823	123613184	88748032	50109864	24992
651	55.784872	123613184	88748032	58043440	24992
652	59.962779	123613184	88748032	54435560	24992
653	63.722418	125505536	90845184	63812488	24992
654	76.519397	124542976	89796608	27664768	24992
655	59.960903	124542976	89796608	38286312	24992
656	65.960059	124542976	89796608	37393616	24992
657	62.993529	124542976	89796608	49346520	24992
658	65.974596	124542976	89796608	49821936	24992
659	66.91147	124542976	89796608	50990680	24992
660	73.017306	124542976	89796608	65039096	24992
661	84.265212	120573952	86126592	35355648	24992
662	69.989443	120573952	86126592	38431368	24992
663	71.333971	120573952	86126592	42157560	24992
664	72.455276	120573952	86126592	46558672	24992
665	74.17466	120573952	86126592	51585400	24992
666	79.502097	122736640	88223744	57267792	24992
667	94.543759	123609088	88748032	32278248	24992
668	76.599763	123609088	88748032	39413424	24992
669	80.179444	123609088	88748032	47162344	24992
670	78.558863	123609088	88748032	55577152	24992
671	82.157813	123609088	88748032	52380832	24992
672	86.392515	125501440	90845184	62293776	24992
673	101.388972	125485056	90845184	26877584	24992
674	82.467595	125485056	90845184	37914376	24992
675	84.86449	125485056	90845184	49779616	24992
676	87.627618	125485056	90845184	50047472	24992
677	85.636769	125485056	90845184	63211208	24992
678	112.170585	122241024	89796608	30296944	24992
679	90.736656	124129280	89796608	31691744	24992
680	89.181771	124129280	89796608	46927696	24992
681	93.043363	124129280	89796608	50644344	24992
682	94.736796	124129280	89796608	55033144	24992
683	120.482761	122040320	87699456	30867800	24992
684	96.875775	122040320	87699456	36694176	24992
685	94.036342	122040320	87699456	55499808	24992
686	98.073277	122040320	87699456	62672272	24992
687	100.996399	127176704	92942336	70448664	24992
688	124.097197	123105280	88748032	28069424	24992
689	102.211729	123105280	88748032	37466592	24992
690	102.209573	123105280	88748032	47401592	24992
691	103.851949	123105280	88748032	57946152	24992
692	130.835275	119762944	87175168	26412304	24992
693	106.567043	121651200	87175168	38033856	24992
694	107.38295	121651200	87175168	50689128	24992
695	111.596907	121651200	87175168	51974120	24992
696	133.604723	124354560	91893760	21807288	24992
697	111.359756	126787584	91893760	36178568	24992
698	111.736764	126787584	91893760	51679648	24992
699	115.654947	126787584	91893760	55742248	24992
700	130.927482	129220608	94515200	60506256	24992
701	131.837597	122392576	87699456	33094312	24992
702	2.240626	122392576	87699456	52008456	24992
703	5.761539	122392576	87699456	41699560	24992
704	4.445729	122392576	87699456	44542816	24992
705	5.804388	122392576	87699456	48088912	24992
706	7.040629	122392576	87699456	52345584	24992
707	9.08309	122392576	87699456	42960952	24992
708	9.184112	122392576	87699456	48665344	24992
709	10.122253	122392576	87699456	55061304	24992
710	11.716051	122392576	87699456	46139824	24992
711	12.994647	122392576	87699456	53969688	24992
712	13.93048	122392576	87699456	46566264	24992
713	14.718374	122392576	87699456	55827120	24992
714	16.555094	122392576	87699456	49674024	24992
715	17.914971	122392576	87699456	45140704	24992
716	18.508076	122392576	87699456	56582056	24992
717	19.490428	122392576	87699456	52456760	24992
718	20.894276	122392576	87699456	49649160	24992
719	22.260228	122392576	87699456	48020944	24992
720	23.427007	122392576	87699456	47386256	24992
721	24.973003	122392576	87699456	47590328	24992
722	25.819782	122392576	87699456	48440840	24992
723	27.63514	122392576	87699456	49872864	24992
724	27.799555	122392576	87699456	51804600	24992
725	29.29267	122392576	87699456	54173208	24992
726	30.743913	122392576	87699456	56970240	24992
727	32.457435	122392576	87699456	46151512	24992
728	33.320694	122392576	87699456	51693208	24992
729	33.826285	122392576	87699456	57082472	24992
730	36.223647	122392576	87699456	48510200	24992
731	36.495826	122392576	87699456	55903968	24992
732	38.265739	122392576	87699456	49176512	24992
733	40.61692	122392576	87699456	60957232	24992
734	40.854372	122392576	87699456	55699168	24992
735	42.811004	122392576	87699456	52172264	24992
736	48.234046	122662912	87699456	53951360	24992
737	45.074455	123473920	88748032	68509176	24992
738	45.451554	123744256	89272320	65921768	24992
739	47.556399	124284928	89796608	64652056	24992
740	56.753806	128880640	93990912	69433872	24992
741	67.730471	124129280	89796608	25288624	24992
742	53.212995	124129280	89796608	31496400	24992
743	54.735444	124129280	89796608	38280984	24992
744	55.030819	124129280	89796608	45712312	24992
745	60.66483	124129280	89796608	41857024	24992
746	58.509082	124129280	89796608	50919152	24992
747	59.122844	124129280	89796608	60598440	24992
748	77.405382	125480960	91369472	58878000	24992
749	69.473888	121409536	86650880	24437600	24992
750	64.80012	121409536	86650880	36509800	24992
751	68.401653	121409536	86650880	37029704	24992
752	68.00779	121409536	86650880	38312912	24992
753	65.987138	121409536	86650880	52567608	24992
754	71.810884	121409536	86650880	55359728	24992
755	95.681338	118906880	86126592	29744512	24992
756	73.441407	120795136	86126592	33802224	24992
757	72.895926	120795136	86126592	38880544	24992
758	75.73147	120795136	86126592	44764168	24992
759	76.362373	120795136	86126592	51404360	24992
760	78.558321	123228160	88748032	58750744	24992
761	101.933072	121417728	88748032	19586088	24992
762	81.751281	123305984	88748032	27531504	24992
763	80.737517	123305984	88748032	37156184	24992
764	82.081976	123305984	88748032	47543984	24992
765	86.369485	123305984	88748032	46618520	24992
766	88.543171	123846656	89272320	58534648	24992
767	107.700314	123060224	88223744	28621968	24992
768	86.876862	123060224	88223744	42170000	24992
769	90.835728	123060224	88223744	44267768	24992
770	89.247542	123060224	88223744	59274496	24992
771	95.042571	124411904	89796608	62855376	24992
772	120.350155	129220608	94515200	34394416	24992
773	96.403999	129220608	94515200	39583560	24992
774	97.516755	129220608	94515200	45575872	24992
775	99.157798	129220608	94515200	52344760	24992
776	96.722176	129761280	95039488	71981128	24992
777	121.815922	127492096	92942336	29266856	24992
778	105.363912	127492096	92942336	38696448	24992
779	103.478526	127492096	92942336	48592192	24992
780	110.275334	127492096	92942336	47110816	24992
781	126.856318	120045568	87175168	27359336	24992
782	106.718532	121933824	87175168	39078408	24992
783	111.306723	121933824	87175168	39831640	24992
784	109.790911	121933824	87175168	53484416	24992
785	135.397387	124637184	91893760	23944720	24992
786	111.74487	126529536	91893760	38803784	24992
787	115.03636	126529536	91893760	42541312	24992
788	114.242826	126529536	91893760	59338264	24992
789	138.348292	127881216	93466624	64949208	24992
790	124.234995	127180800	92418048	37823264	24992
791	120.019565	127180800	92418048	44868440	24992
792	121.292573	127180800	92418048	52693200	24992
793	145.519667	123756544	90845184	27965608	24992
794	126.068219	125644800	90845184	36587784	24992
795	126.317171	125644800	90845184	46757568	24992
796	126.13522	126726144	92418048	57751216	24992
797	150.26776	122990592	88223744	34092376	24992
798	131.562377	122990592	88223744	34628632	24992
799	129.107979	122990592	88223744	47992472	24992
800	149.289827	125423616	90845184	62204824	24992
801	146.809956	121159680	86650880	34904256	24992
802	2.623208	121159680	86650880	51356584	24992
803	3.90583	121159680	86650880	53764712	24992
804	5.267347	121159680	86650880	56984488	24992
805	8.714337	121159680	86650880	47642008	24992
806	7.9109	121159680	86650880	52470832	24992
807	8.969773	121159680	86650880	58088384	24992
808	11.726939	121159680	86650880	49196600	24992
809	11.247	121159680	86650880	56451224	24992
810	13.402973	121159680	86650880	48919000	24992
811	14.023212	121159680	86650880	57782656	24992
812	15.850709	121159680	86650880	51728808	24992
813	17.64923	121159680	86650880	47365680	24992
814	17.960543	121159680	86650880	58663960	24992
815	20.665559	121159680	86650880	54893632	24992
816	21.742649	121159680	86650880	52507880	24992
817	23.383959	121159680	86650880	51255808	24992
818	24.925954	121159680	86650880	51073208	24992
819	25.962931	121159680	86650880	51717200	24992
820	27.372614	121159680	86650880	53057808	24992
821	28.054037	121159680	86650880	55067880	24992
822	29.166329	121159680	86650880	57591728	24992
823	30.68808	121159680	86650880	60548320	24992
824	33.348207	121159680	86650880	50215352	24992
825	35.265792	121159680	86650880	58601520	24992
826	34.226607	121159680	86650880	64415576	24992
827	37.644617	121430016	86650880	56341744	24992
828	37.556118	121430016	86650880	64100880	24992
829	40.796844	121430016	86650880	57749600	24992
830	45.66201	124944384	90320896	57982120	24992
831	45.853944	127107072	92418048	71011824	24992
832	62.151412	117911552	85078016	19298112	24992
833	50.264222	119799808	85078016	20891664	24992
834	46.829742	119799808	85078016	36391728	24992
835	48.560115	119799808	85078016	34607648	24992
836	48.866914	119799808	85078016	34188976	24992
837	53.944836	119799808	85078016	40162104	24992
838	57.472723	119799808	85078016	34715944	24992
839	56.931205	119799808	85078016	42243864	24992
840	57.918518	119799808	85078016	50624568	24992
841	60.615781	119799808	85078016	59815984	24992
842	82.912415	119599104	86650880	28833104	24992
843	62.25511	121491456	86650880	39465992	24992
844	65.776808	121491456	86650880	39072392	24992
845	66.763388	121491456	86650880	39492032	24992
846	68.882919	121491456	86650880	52963576	24992
847	69.443937	121491456	86650880	55053160	24992
848	76.234633	123654144	89272320	58038424	24992
849	91.537848	126361600	91893760	29486192	24992
850	73.085862	126361600	91893760	34320704	24992
851	74.490762	126361600	91893760	39853600	24992
852	75.605525	126361600	91893760	46201944	24992
853	76.534933	126361600	91893760	53401456	24992
854	80.369384	126361600	91893760	61572832	24992
855	105.530915	124174336	91369472	38348560	24992
856	85.469304	126062592	91369472	35357184	24992
857	82.98052	126062592	91369472	46185064	24992
858	83.852402	126062592	91369472	57699328	24992
859	87.994554	126062592	91369472	57841904	24992
860	89.024313	127954944	93466624	71214048	24992
861	113.59167	132087808	97660928	38178248	24992
862	92.289357	132087808	97660928	41187256	24992
863	93.201718	132087808	97660928	44925648	24992
864	92.981896	132087808	97660928	61709016	24992
865	96.543383	132087808	97660928	67246224	24992
866	118.484235	124452864	89796608	23563608	24992
867	99.682817	124723200	89796608	31042008	24992
868	101.125932	124723200	89796608	39169144	24992
869	101.126036	124723200	89796608	48104272	24992
870	113.90748	127696896	93466624	57926368	24992
871	119.434837	119283712	84553728	37307664	24992
872	105.705097	119283712	84553728	48831264	24992
873	109.588327	119824384	85602304	49122128	24992
874	111.276174	128475136	95563776	62551920	24992
875	132.485027	115785728	81408000	27574880	24992
876	111.256879	115785728	81408000	42714376	24992
877	115.15942	115785728	81408000	46419032	24992
878	121.849638	118759424	84029440	51119392	24992
879	138.475804	122626048	87699456	41350648	24992
880	119.508955	122626048	87699456	47876248	24992
881	120.063265	122626048	87699456	55189096	24992
882	125.907753	130465792	96088064	63400088	24992
883	149.625002	129892352	95563776	38808840	24992
884	124.912715	129892352	95563776	48828984	24992
885	126.777453	129892352	95563776	59675480	24992
886	128.591889	132055040	97136640	71489192	24992
887	153.992398	123535360	88748032	30457008	24992
888	130.326044	123535360	88748032	43958728	24992
889	135.164278	123535360	88748032	46287936	24992
890	151.06867	126509056	91893760	61682528	24992
891	146.893745	124731392	89796608	35250056	24992
892	136.605737	124731392	89796608	52458904	24992
893	141.912773	126623744	91893760	58244568	24992
894	162.734291	123572224	89272320	27791400	24992
895	140.583121	123572224	89272320	47520272	24992
896	147.155291	123572224	89272320	56071768	24992
897	172.253729	120684544	88223744	33908432	24992
898	148.553738	122572800	88223744	43844448	24992
899	150.121084	122572800	88223744	55060736	24992
900	171.597714	129331200	94515200	67299376	24992
901	157.643288	128270336	93466624	47514616	24992
902	2.967049	128270336	93466624	62329128	24992
903	7.024643	128270336	93466624	52574928	24992
904	5.719662	128270336	93466624	56221736	24992
905	7.242762	128270336	93466624	60781440	24992
906	10.379078	128270336	93466624	52137744	24992
907	10.416129	128270336	93466624	58528048	24992
908	11.630127	128270336	93466624	65833416	24992
909	13.238151	128270336	93466624	57754488	24992
910	15.281368	128270336	93466624	51798216	24992
911	16.169365	128270336	93466624	61876416	24992
912	17.8942	128270336	93466624	57065344	24992
913	19.853886	128270336	93466624	53964936	24992
914	21.628521	128270336	93466624	52276232	24992
915	21.819058	128270336	93466624	66062248	24992
916	23.531662	128270336	93466624	64324920	24992
917	24.979072	128270336	93466624	63783392	24992
918	26.617793	128270336	93466624	64239360	24992
919	28.104117	128270336	93466624	65631640	24992
920	31.043072	128270336	93466624	53908360	24992
921	31.923	128270336	93466624	58655096	24992
922	32.708402	128270336	93466624	63675648	24992
923	36.125247	128270336	93466624	55189480	24992
924	37.595038	128270336	93466624	65265320	24992
925	39.501401	128270336	93466624	59332936	24992
926	40.287302	128270336	93466624	71111280	24992
927	42.388202	128540672	93990912	66542832	24992
928	51.608704	132595712	97660928	68010624	24992
929	61.237802	122757120	89796608	31974536	24992
930	49.067328	124645376	89796608	33974928	24992
931	51.34537	124645376	89796608	38135376	24992
932	51.332785	124645376	89796608	43202440	24992
933	53.177741	124645376	89796608	49235496	24992
934	56.908232	124645376	89796608	43975080	24992
935	55.601455	124645376	89796608	51876304	24992
936	57.357894	124645376	89796608	60721968	24992
937	75.005903	125456384	90845184	58364616	24992
938	70.819109	124203008	89272320	23408616	24992
939	62.42972	124203008	89272320	35061288	24992
940	66.494381	124203008	89272320	35526680	24992
941	64.562269	124203008	89272320	49118944	24992
942	68.834265	124203008	89272320	51436336	24992
943	71.519764	124203008	89272320	54756712	24992
944	95.429557	120897536	88223744	29096904	24992
945	74.467079	122785792	88223744	34017840	24992
946	76.335749	122785792	88223744	40096192	24992
947	76.098448	122785792	88223744	47151144	24992
948	78.140545	122785792	88223744	55190632	24992
949	80.975354	123326464	88748032	64163016	24992
950	104.4805	124203008	91893760	26827232	24992
951	82.455808	126361600	91893760	36577720	24992
952	86.453728	126361600	91893760	36182944	24992
953	84.713409	126361600	91893760	48946360	24992
954	89.948796	126361600	91893760	50486160	24992
955	113.168165	120102912	87175168	21897312	24992
956	89.782361	121991168	87175168	36934080	24992
957	94.647224	121991168	87175168	41381896	24992
958	96.714221	121991168	87175168	46696464	24992
959	97.583933	121991168	87175168	52983096	24992
960	127.187495	126095360	91369472	31199928	24992
961	100.515557	126095360	91369472	39485824	24992
962	101.287797	126095360	91369472	48746000	24992
963	102.231518	126095360	91369472	58859824	24992
964	107.269747	130420736	96088064	69932760	24992
965	131.439812	127803392	93466624	35003312	24992
966	108.755905	128344064	93466624	48044424	24992
967	111.20051	128344064	93466624	49859864	24992
968	110.768899	129966080	95563776	64930392	24992
969	130.996301	139698176	106573824	68649160	24992
970	126.698669	125288448	90845184	34713016	24992
971	115.468172	125288448	90845184	52693784	24992
972	118.904738	125288448	90845184	59366968	24992
973	127.320127	129073152	94515200	67094184	24992
974	143.374161	125800448	90845184	43038640	24992
975	124.456126	125800448	90845184	52581320	24992
976	125.725058	125800448	90845184	63067104	24992
977	140.031005	131207168	96612352	74675792	24992
978	146.687251	130437120	95563776	40525752	24992
979	130.298863	130437120	95563776	54114480	24992
980	137.854286	130437120	95563776	56385976	24992
981	156.116434	124211200	91369472	36231424	24992
982	137.029107	126099456	91369472	39634480	24992
983	137.326544	126099456	91369472	57018888	24992
984	144.858619	126640128	91893760	63484960	24992
985	162.280386	127369216	92418048	39809544	24992
986	143.160509	127369216	92418048	48045792	24992
987	143.569426	127369216	92418048	69458416	24992
988	174.011134	133124096	98709504	28467224	24992
989	148.87459	133124096	98709504	39925400	24992
990	150.996144	133124096	98709504	52020704	24992
991	169.456148	133935104	99758080	65259472	24992
992	162.058308	124637184	89796608	46828136	24992
993	156.707309	124637184	89796608	62001312	24992
994	160.757555	132206592	97660928	65959192	24992
995	187.891069	137109504	102379520	49934624	24992
996	164.800318	137109504	102379520	55785224	24992
997	160.646004	137109504	102379520	74860208	24992
998	191.533598	131534848	96612352	27679200	24992
999	164.097198	131534848	96612352	48747088	24992
1000	167.851409	131534848	96612352	58714528	24992
x	Duration	RSS	HeapTotal	HeapUsed	External
0	NA	115630080	81408000	12298928	24992
1	3.295337	115630080	81408000	12360944	24992
2	0.189345	115630080	81408000	12437440	24992
3	0.213298	115630080	81408000	12540968	24992
4	0.255454	115630080	81408000	12673072	24992
5	0.303161	115630080	81408000	12835296	24992
6	0.353867	115630080	81408000	13028000	24992
7	0.405382	115630080	81408000	13252200	24992
8	0.458017	115630080	81408000	13508896	24992
9	0.512334	115630080	81408000	13800000	24992
10	0.609257	115630080	81408000	14126136	24992
11	0.864608	115630080	81408000	14488304	24992
12	0.710532	115630080	81408000	14887408	24992
13	0.759915	115630080	81408000	15324536	24992
14	0.828676	115630080	81408000	15804072	24992
15	1.231221	115630080	81408000	16319952	24992
16	0.920892	115630080	81408000	16876664	24992
17	0.989147	115630080	81408000	17477096	24992
18	1.058295	115630080	81408000	18120448	24992
19	1.174642	115630080	81408000	18808584	24992
20	1.200933	115630080	81408000	19541416	24992
21	1.274388	115630080	81408000	20320432	24992
22	1.565294	115630080	81408000	21146464	24992
23	1.75914	115630080	81408000	22022672	24992
24	1.529722	115630080	81408000	22947896	24992
25	1.535641	115630080	81408000	23921112	24992
26	1.595092	115630080	81408000	24947120	24992
27	1.686688	115630080	81408000	26025240	24992
28	1.796892	115630080	81408000	27157320	24992
29	2.053513	115630080	81408000	28344496	24992
30	3.094295	115630080	81408000	13325312	24992
31	2.027601	115630080	81408000	14624976	24992
32	2.196454	115630080	81408000	15985232	24992
33	2.407556	115630080	81408000	17410776	24992
34	2.534985	115630080	81408000	18894192	24992
35	2.591835	115630080	81408000	20438408	24992
36	2.76265	115630080	81408000	22047080	24992
37	2.960628	115630080	81408000	23719040	24992
38	2.843764	115630080	81408000	25451600	24992
39	3.474519	115630080	81408000	27248944	24992
40	3.266757	115630080	81408000	29122344	24992
41	4.38455	115630080	81408000	14882512	24992
42	3.371673	115630080	81408000	16881616	24992
43	3.35898	115630080	81408000	18947512	24992
44	3.473645	115630080	81408000	21083032	24992
45	3.625215	115630080	81408000	23290320	24992
46	3.625114	115630080	81408000	25569304	24992
47	3.524667	115630080	81408000	27921320	24992
48	5.442084	115630080	81408000	14556896	24992
49	4.09393	115630080	81408000	17058440	24992
50	4.177751	115630080	81408000	19638328	24992
51	4.190884	115630080	81408000	22297984	24992
52	4.138219	115630080	81408000	25037688	24992
53	4.227244	115630080	81408000	27858456	24992
54	6.107756	115630080	81408000	15216216	24992
55	5.142649	115630080	81408000	18203960	24992
56	4.981548	115630080	81408000	21283824	24992
57	4.726501	115630080	81408000	24439480	24992
58	5.124964	115630080	81408000	27682064	24992
59	7.086243	115630080	81408000	15500120	24992
60	5.301419	115630080	81408000	18917872	24992
61	5.822238	115630080	81408000	22422960	24992
62	5.584779	115630080	81408000	26027488	24992
63	5.490001	115630080	81408000	29713520	24992
64	7.225181	115630080	81408000	17711752	24992
65	5.765273	115630080	81408000	21590928	24992
66	6.60652	115630080	81408000	25568032	24992
67	5.990596	115630080	81408000	29636416	24992
68	8.864371	115630080	81408000	18074368	24992
69	7.021188	115630080	81408000	22335768	24992
70	6.403272	115630080	81408000	26693056	24992
71	6.766536	115630080	81408000	31149352	24992
72	9.013184	115630080	81408000	19808080	24992
73	7.015361	115630080	81408000	24464504	24992
74	7.554287	115630080	81408000	29223168	24992
75	9.154195	115630080	81408000	18483560	24992
76	7.907938	115630080	81408000	23447936	24992
77	8.693196	115630080	81408000	28525848	24992
78	9.906888	115630080	81408000	18231944	24992
79	7.835258	115630080	81408000	23512928	24992
80	8.48282	115630080	81408000	28901352	24992
81	10.825585	115630080	81408000	18978720	24992
82	8.700516	115630080	81408000	24585544	24992
83	8.464595	115630080	81408000	30302784	24992
84	11.326141	115630080	81408000	20602960	24992
85	8.938959	115630080	81408000	26546256	24992
86	9.198577	115630080	81408000	32604152	24992
87	11.472345	115630080	81408000	22959880	24992
88	9.375982	115630080	81408000	29249536	24992
89	12.090368	115630080	81408000	20362904	24992
90	10.835638	115630080	81408000	26898536	24992
91	9.905193	115630080	81408000	33543568	24992
92	12.823921	115630080	81408000	24401392	24992
93	10.357855	115630080	81408000	31288688	24992
94	12.995285	115630080	81408000	22813392	24992
95	10.886849	115630080	81408000	29948056	24992
96	13.789405	115630080	81408000	21909192	24992
97	11.264598	115630080	81408000	29291656	24992
98	14.056435	115630080	81408000	21697680	24992
99	12.014434	115630080	81408000	29332768	24992
100	14.51173	115630080	81408000	22049240	24992
101	12.676365	115630080	81408000	29946536	24992
102	0.473845	115630080	81408000	22744560	24992
103	0.666441	115630080	81408000	23148264	24992
104	0.87454	115630080	81408000	23688040	24992
105	1.089093	115630080	81408000	24364912	24992
106	1.317431	115630080	81408000	25180440	24992
107	1.525027	115630080	81408000	26135808	24992
108	1.743896	115630080	81408000	27230352	24992
109	1.955067	115630080	81408000	28465840	24992
110	2.181183	115630080	81408000	29844296	24992
111	2.405588	115630080	81408000	31367864	24992
112	2.741406	115630080	81408000	33033288	24992
113	2.692357	115630080	81408000	34845656	24992
114	2.897455	115630080	81408000	36801712	24992
115	5.707067	115630080	81408000	22872952	24992
116	3.328724	115630080	81408000	25124976	24992
117	3.535371	115630080	81408000	27524504	24992
118	3.772262	115630080	81408000	30078496	24992
119	3.984567	115630080	81408000	32780344	24992
120	4.20441	115630080	81408000	35634264	24992
121	6.815626	115630080	81408000	22737784	24992
122	4.681164	115630080	81408000	25898064	24992
123	5.127735	115630080	81408000	29213416	24992
124	5.111027	115630080	81408000	32685768	24992
125	5.353264	115630080	81408000	36315744	24992
126	7.821119	115630080	81408000	24102536	24992
127	6.129136	115630080	81408000	28045792	24992
128	6.06369	115630080	81408000	32151728	24992
129	6.549574	115630080	81408000	36415200	24992
130	8.736061	115630080	81408000	24854280	24992
131	6.808635	115630080	81408000	29444896	24992
132	7.317868	115630080	81408000	34197752	24992
133	9.672607	115630080	81408000	23509952	24992
134	7.769451	115630080	81408000	28597480	24992
135	7.799173	115630080	81408000	33855256	24992
136	10.959814	115630080	81408000	23763896	24992
137	8.339673	115630080	81408000	29353672	24992
138	8.789119	115630080	81408000	35115664	24992
139	11.358546	115630080	81408000	25363720	24992
140	9.329746	115630080	81408000	31465152	24992
141	9.747838	115630080	81408000	37739624	24992
142	12.334462	115630080	81408000	28102296	24992
143	10.266733	115630080	81408000	34726256	24992
144	13.108763	115630080	81408000	25955280	24992
145	10.754806	115630080	81408000	32934280	24992
146	13.368155	115630080	81408000	24824368	24992
147	11.50303	115630080	81408000	32168032	24992
148	14.424586	115630080	81408000	24585824	24992
149	11.748293	115630080	81408000	32287728	24992
150	14.904698	115630080	81408000	25086080	24992
151	12.035772	115630080	81408000	33153760	24992
152	15.751745	115630080	81408000	26201712	24992
153	13.271069	115630080	81408000	34644576	24992
154	15.918323	115630080	81408000	27831800	24992
155	13.229628	115630080	81408000	36645112	24992
156	16.596037	115630080	81408000	29915768	24992
157	13.997656	115630080	81408000	39107992	24992
158	16.654321	115630080	81408000	32375848	24992
159	17.570069	115630080	81408000	26948416	24992
160	14.880852	115630080	81408000	36715704	24992
161	18.15651	115630080	81408000	30963216	24992
162	18.836627	115630080	81408000	26447544	24992
163	15.739532	115630080	81408000	36797840	24992
164	19.083529	115630080	81408000	31673552	24992
165	19.753896	115630080	81408000	27682056	24992
166	17.297143	115630080	81408000	38634440	24992
167	20.218276	115630080	81408000	33849192	24992
168	20.834244	115630080	81408000	30130208	24992
169	17.857304	115630080	81408000	41684224	24992
170	21.326498	115630080	81408000	37141896	24992
171	21.544077	115630080	81408000	33527128	24992
172	22.156854	115630080	81408000	30747736	24992
173	23.142779	115630080	81408000	28648888	24992
174	19.488842	115630080	81408000	41222544	24992
175	22.269144	115630080	81408000	37819208	24992
176	23.676405	115630080	81408000	35231136	24992
177	24.053997	115630080	81408000	33261912	24992
178	24.26798	115630080	81408000	31867704	24992
179	24.867725	115630080	81408000	30963424	24992
180	25.777864	115630080	81408000	30433544	24992
181	26.377756	115630080	81408000	30272112	24992
182	26.154916	115630080	81408000	30365704	24992
183	26.820957	115630080	81408000	30694184	24992
184	27.444483	115630080	81408000	31212880	24992
185	27.488262	115630080	81408000	31889720	24992
186	28.195347	115630080	81408000	32700432	24992
187	27.851892	115630080	81408000	33579640	24992
188	27.851082	115630080	81408000	34549520	24992
189	28.140716	115630080	81408000	35602088	24992
190	28.918265	115630080	81408000	36697552	24992
191	28.716359	115630080	81408000	37875808	24992
192	29.097201	115630080	81408000	39098824	24992
193	30.102508	115630080	81408000	40337584	24992
194	30.094089	115630080	81408000	41630672	24992
195	29.886018	115630080	81408000	42967784	24992
196	30.719868	115630080	81408000	44319440	24992
197	29.926159	115630080	81408000	45701520	24992
198	35.768571	115630080	81408000	33560560	24992
199	32.396797	115630080	81408000	37336776	24992
200	32.290081	115630080	81408000	40714568	24992
201	32.261212	115630080	81408000	43763080	24992
202	0.782398	115630080	81408000	46524592	24992
203	1.12242	115630080	81408000	47226328	24992
204	4.397498	115630080	81408000	31805104	24992
205	1.797791	115630080	81408000	32978664	24992
206	2.382577	115630080	81408000	34390144	24992
207	2.56581	115630080	81408000	36048336	24992
208	2.905693	115630080	81408000	37954080	24992
209	3.404805	115630080	81408000	40108624	24992
210	3.945273	115630080	81408000	42513528	24992
211	4.165048	115630080	81408000	45169024	24992
212	7.979664	115630080	81408000	32056480	24992
213	5.28853	115630080	81408000	35221696	24992
214	5.139317	115630080	81408000	38634512	24992
215	5.813128	115630080	81408000	42307072	24992
216	6.224905	115630080	81408000	46231152	24992
217	10.136089	115630080	81408000	34299600	24992
218	6.85446	115630080	81408000	38745960	24992
219	7.542318	115630080	81408000	43442680	24992
220	11.375476	115630080	81408000	32757400	24992
221	8.424423	115630080	81408000	37981728	24992
222	8.867198	115630080	81408000	43470920	24992
223	12.770355	115630080	81408000	33559248	24992
224	9.475712	115630080	81408000	39562808	24992
225	9.866167	115630080	81408000	45830744	24992
226	13.678408	115630080	81408000	36338152	24992
227	10.922218	115630080	81408000	43137152	24992
228	14.848409	115630080	81408000	34630160	24992
229	11.654772	115630080	81408000	41973952	24992
230	16.084901	115630080	81408000	34238032	24992
231	12.446432	115630080	81408000	42129408	24992
232	17.104555	115630080	81408000	34933416	24992
233	13.215004	115630080	81408000	43384848	24992
234	18.107942	115630080	81408000	36533328	24992
235	14.341909	115630080	81408000	45539656	24992
236	18.390702	115630080	81408000	38896768	24992
237	15.27668	115630080	81408000	48451528	24992
238	18.353755	115630080	81408000	41928760	24992
239	20.385968	115630080	81408000	36766440	24992
240	16.60967	115630080	81408000	47158640	24992
241	20.170663	115630080	81408000	41712704	24992
242	21.489652	115630080	81408000	37484008	24992
243	18.33219	115630080	81408000	48725112	24992
244	21.138236	115630080	81408000	43901840	24992
245	22.796538	115630080	81408000	40192072	24992
246	23.527005	115630080	81408000	37401000	24992
247	24.736459	115630080	81408000	35379792	24992
248	20.189058	115630080	81408000	48058792	24992
249	24.031961	115630080	81408000	44837160	24992
250	25.434381	115630080	81408000	42472104	24992
251	25.984337	115630080	81408000	40786128	24992
252	27.028529	115630080	81408000	39702432	24992
253	27.088439	115630080	81408000	39142976	24992
254	28.184112	115630080	81408000	38968160	24992
255	28.925421	115630080	81408000	39142776	24992
256	29.238966	115630080	81408000	39620384	24992
257	29.014166	115630080	81408000	40331920	24992
258	30.228793	115630080	81408000	41229184	24992
259	31.66765	115630080	81408000	42317264	24992
260	30.409963	115630080	81408000	43489912	24992
261	31.195597	115630080	81408000	44799424	24992
262	31.459956	115630080	81408000	46207432	24992
263	31.772777	115630080	81408000	47666912	24992
264	31.786391	115630080	81408000	49235208	24992
265	31.977978	115630080	81408000	50820312	24992
266	38.021263	115630080	81408000	38913480	24992
267	34.411999	115630080	81408000	42966384	24992
268	34.87757	115630080	81408000	46656512	24992
269	34.223895	115630080	81408000	50006280	24992
270	40.468373	115630080	81408000	39692256	24992
271	40.037216	115630080	81408000	47868424	24992
272	40.942359	115630080	81408000	52742808	24992
273	54.469791	110387200	76165120	21245392	24992
274	37.086261	110387200	76165120	29605272	24992
275	37.273465	110387200	76165120	21782656	24992
276	38.116462	110387200	76165120	31492992	24992
277	38.696793	110387200	76165120	24394864	24992
278	39.154872	110387200	76165120	34667816	24992
279	39.298743	110387200	76165120	28170936	24992
280	40.765182	110387200	76165120	39095832	24992
281	40.183089	110387200	76165120	33024064	24992
282	41.975213	110387200	76165120	44610040	24992
283	41.32933	110387200	76165120	38795040	24992
284	47.132583	110387200	76165120	39223824	24992
285	43.965434	110387200	76165120	51533744	24992
286	48.065787	110387200	76165120	46724808	24992
287	67.049155	111738880	79835136	32961352	24992
288	47.284097	113901568	79835136	32984208	24992
289	43.858674	113901568	79835136	29291872	24992
290	49.010402	113901568	79835136	31624520	24992
291	50.119089	114171904	79835136	34107832	24992
292	46.899262	114171904	79835136	48713656	24992
293	47.208363	114171904	79835136	45557664	24992
294	46.530419	114171904	79835136	43588376	24992
295	52.013896	114171904	79835136	47594248	24992
296	53.418681	114171904	79835136	51758248	24992
297	55.193243	118497280	84553728	56282256	24992
298	73.417531	123363328	89272320	61170736	24992
299	58.68793	120770560	86650880	34860792	24992
300	54.377065	120770560	86650880	40460704	24992
301	55.412924	120770560	86650880	46348432	24992
302	1.129818	120770560	86650880	46102632	24992
303	2.169067	120770560	86650880	30919896	24992
304	2.165598	120770560	86650880	32297872	24992
305	2.726035	120770560	86650880	34014648	24992
306	3.21396	120770560	86650880	36078680	24992
307	3.803187	120770560	86650880	38489104	24992
308	4.380082	120770560	86650880	41248000	24992
309	4.862396	120770560	86650880	44356856	24992
310	6.169588	120770560	86650880	31873504	24992
311	5.930309	120770560	86650880	35682752	24992
312	6.527389	120770560	86650880	39846776	24992
313	7.092332	120770560	86650880	44368656	24992
314	8.56096	120770560	86650880	33345104	24992
315	8.188992	120770560	86650880	38569928	24992
316	8.644308	120770560	86650880	44154208	24992
317	10.328513	120770560	86650880	34248232	24992
318	9.888197	120770560	86650880	40543576	24992
319	10.566794	120770560	86650880	47199128	24992
320	11.555454	120770560	86650880	37840936	24992
321	11.588151	120770560	86650880	45217456	24992
322	12.992277	120770560	86650880	36930560	24992
323	12.76211	120770560	86650880	45030304	24992
324	14.156515	120770560	86650880	37497408	24992
325	13.736435	120770560	86650880	46338048	24992
326	15.182396	120770560	86650880	39340648	24992
327	16.643347	120770560	86650880	33929408	24992
328	15.884352	120770560	86650880	43856496	24992
329	17.541528	120770560	86650880	38395216	24992
330	18.565113	120770560	86650880	34305016	24992
331	17.357007	120770560	86650880	45347520	24992
332	19.073767	120770560	86650880	40748952	24992
333	20.410675	120770560	86650880	37357648	24992
334	22.914694	120770560	86650880	34912328	24992
335	20.117412	120770560	86650880	47461088	24992
336	21.539979	120770560	86650880	44018304	24992
337	22.676608	120770560	86650880	41574848	24992
338	23.596096	120770560	86650880	39941352	24992
339	25.48569	120770560	86650880	38994192	24992
340	24.728565	120770560	86650880	38600384	24992
341	25.691215	120770560	86650880	38678856	24992
342	26.494044	120770560	86650880	39133512	24992
343	26.935083	120770560	86650880	39900840	24992
344	27.177695	120770560	86650880	40909040	24992
345	28.39664	120770560	86650880	42134808	24992
346	28.662352	120770560	86650880	43547688	24992
347	28.776394	120770560	86650880	45079216	24992
348	29.658721	120770560	86650880	46767016	24992
349	29.929294	120770560	86650880	48560320	24992
350	33.322509	120770560	86650880	36928096	24992
351	32.288194	120770560	86650880	41255048	24992
352	33.49484	120770560	86650880	45251984	24992
353	32.602148	120770560	86650880	48918880	24992
354	35.525959	120770560	86650880	38859240	24992
355	35.198572	120770560	86650880	44470024	24992
356	34.535414	120770560	86650880	49517904	24992
357	38.243168	120770560	86650880	40588944	24992
358	36.91331	121040896	86650880	47160208	24992
359	40.123619	121311232	87175168	39807352	24992
360	40.502312	121581568	87175168	50668952	24992
361	42.527725	121581568	87175168	44493920	24992
362	41.841148	121581568	87175168	56169592	24992
363	42.146065	121581568	87175168	50457568	24992
364	44.622931	121581568	87175168	46551056	24992
365	43.223533	121581568	87175168	59286552	24992
366	44.561605	121581568	87175168	54890720	24992
367	50.729707	121851904	87699456	56888688	24992
368	57.742099	126447616	92418048	59097824	24992
369	69.793147	121315328	89272320	28823376	24992
370	49.799796	123203584	89272320	30561984	24992
371	51.441954	123203584	89272320	33935608	24992
372	51.850907	123203584	89272320	37688808	24992
373	53.223804	124014592	89796608	41938560	24992
374	52.999723	124014592	89796608	46546432	24992
375	54.165177	124014592	89796608	51566648	24992
376	54.412716	124014592	89796608	57036744	24992
377	74.88722	125906944	91893760	62933624	24992
378	62.746779	124813312	90845184	36324832	24992
379	61.098332	124813312	90845184	31565624	24992
380	56.7629	124813312	90845184	38626680	24992
381	57.698409	125083648	90845184	46181320	24992
382	58.534107	125624320	91369472	54173208	24992
383	59.860141	125624320	91369472	62536984	24992
384	64.309058	125624320	91893760	59821016	24992
385	92.874888	124895232	93466624	24860136	24992
386	61.95086	127324160	93466624	33403104	24992
387	61.607588	127324160	93466624	43484128	24992
388	66.542028	127324160	93466624	42444504	24992
389	63.405865	128135168	93990912	53369632	24992
390	68.133684	128135168	93990912	53207816	24992
391	64.192172	128135168	93990912	64993856	24992
392	91.958022	131919872	98185216	65699512	24992
393	71.598516	130199552	97136640	29762096	24992
394	73.090946	137498624	105000960	31414232	24992
395	68.599889	142094336	110243840	45135576	24992
396	74.234841	149663744	118108160	47735328	24992
397	75.2508	156962816	125972480	50734032	24992
398	74.302489	161828864	131215360	65754896	24992
399	97.533359	101359616	67252224	36307344	24992
400	74.851972	101629952	67252224	40590664	24992
401	77.170394	105144320	70922240	45174936	24992
402	1.443329	112443392	78262272	50510544	24992
403	2.094723	112443392	78262272	51844440	24992
404	2.858393	112443392	78262272	53634720	24992
405	3.467521	112443392	78262272	55861352	24992
406	4.202842	112443392	78262272	58551512	24992
407	8.383074	114876416	80883712	48460024	24992
408	5.631665	114876416	80883712	52040288	24992
409	6.207127	114876416	80883712	56067568	24992
410	6.984043	114876416	80883712	60545544	24992
411	8.878467	115687424	81932288	49919384	24992
412	9.128489	115687424	81932288	55313432	24992
413	9.180216	115687424	81932288	61153176	24992
414	10.206139	115687424	81932288	51142152	24992
415	10.741863	115687424	81932288	57904416	24992
416	12.158363	115957760	81932288	49337208	24992
417	11.873614	115957760	81932288	57028968	24992
418	13.579314	115957760	82456576	49566360	24992
419	13.604055	115957760	82456576	58209416	24992
420	14.818405	115957760	82456576	51530400	24992
421	15.453006	115957760	82456576	61133272	24992
422	16.713826	115957760	82456576	54919848	24992
423	17.55562	115957760	82456576	50261872	24992
424	17.310346	115957760	82456576	61310696	24992
425	19.479052	115957760	82456576	56467984	24992
426	19.892073	115957760	82456576	53003984	24992
427	20.861375	115957760	82456576	50636712	24992
428	21.652971	116228096	82456576	49158528	24992
429	23.072205	116228096	82456576	48461712	24992
430	23.590787	116228096	82456576	48346792	24992
431	24.256255	116228096	82456576	48761192	24992
432	25.21469	116228096	82456576	49592552	24992
433	26.63482	116228096	82456576	50821624	24992
434	26.92539	116228096	82456576	52265792	24992
435	27.281219	116228096	82456576	53961304	24992
436	28.134516	116228096	82456576	55838536	24992
437	27.438084	116228096	82456576	57898096	24992
438	29.225945	116498432	82456576	60131328	24992
439	29.381998	116498432	82456576	62468008	24992
440	32.093233	116498432	82456576	51324352	24992
441	31.86722	116498432	82980864	56203384	24992
442	32.574951	116498432	82980864	60769792	24992
443	34.766329	116768768	82980864	51629672	24992
444	37.27602	119742464	85602304	61163528	24992
445	37.922874	120823808	87175168	54205672	24992
446	46.63086	123527168	89796608	64659896	24992
447	55.802174	103501824	69873664	27874000	24992
448	44.035193	103768064	69873664	26578448	24992
449	41.906859	103768064	69873664	38315616	24992
450	40.264669	103768064	69873664	33035912	24992
451	43.236736	103768064	69873664	29583696	24992
452	43.2541	103768064	69873664	43000904	24992
453	43.694551	103768064	69873664	38976688	24992
454	45.244544	103768064	69873664	36543304	24992
455	50.762256	104849408	70397952	39777696	24992
456	51.197432	108904448	74592256	43372896	24992
457	52.710863	113770496	79835136	47464928	24992
458	53.809348	118366208	84553728	52109288	24992
459	68.348238	123232256	89272320	57342056	24992
460	64.739116	113586176	79310848	32266080	24992
461	54.568906	113586176	79310848	38503072	24992
462	55.590808	113586176	79310848	45160632	24992
463	56.822824	113586176	79310848	52338952	24992
464	62.786047	114126848	80359424	48403768	24992
465	58.685105	118992896	85078016	56579040	24992
466	58.597785	123858944	89796608	65321032	24992
467	80.531981	130887680	97136640	62973344	24992
468	68.117178	115527680	81408000	23966072	24992
469	61.232584	115527680	81408000	34176472	24992
470	62.853649	115798016	81408000	45047976	24992
471	67.41132	115798016	81408000	44759728	24992
472	64.459692	115798016	81408000	56650120	24992
473	70.239386	119582720	85602304	57471448	24992
474	94.760954	118812672	86650880	28374896	24992
475	67.000454	120700928	86650880	41256336	24992
476	72.211921	120700928	86650880	43629136	24992
477	72.803657	120700928	86650880	46555728	24992
478	72.392488	120971264	86650880	49995720	24992
479	70.295946	122593280	88748032	65691176	24992
480	82.061479	129892352	96088064	70243256	24992
481	96.256764	121753600	88223744	26860080	24992
482	72.018744	121753600	88223744	44009912	24992
483	77.04064	121753600	88223744	50108688	24992
484	77.676732	121753600	88223744	56769400	24992
485	78.782615	122023936	88223744	64053256	24992
486	103.99878	117686272	85602304	25917616	24992
487	79.899862	119574528	85602304	33165408	24992
488	80.937649	119574528	85602304	42109784	24992
489	82.130247	119574528	85602304	51458624	24992
490	87.380938	119844864	85602304	49718096	24992
491	103.64579	124440576	90320896	60174320	24992
492	88.430799	122576896	88223744	39038456	24992
493	90.838273	122576896	88223744	38901368	24992
494	86.449438	122576896	88223744	51002096	24992
495	91.681383	122576896	88223744	52029712	24992
496	110.20796	126631936	92418048	65200608	24992
497	93.733241	122863616	88748032	33488584	24992
498	90.121094	122863616	88748032	47875992	24992
499	97.161841	122863616	88748032	51196368	24992
500	96.554768	123133952	88748032	55186376	24992
501	124.952914	123809792	91893760	41700792	24992
502	1.771686	126238720	91893760	46498648	24992
503	2.446284	126238720	91893760	48174104	24992
504	3.346396	126238720	91893760	50409528	24992
505	7.502549	126238720	91893760	40694680	24992
506	5.224067	126238720	91893760	44053640	24992
507	5.972563	126238720	91893760	47980360	24992
508	6.87828	126238720	91893760	52466024	24992
509	9.297259	126238720	91893760	42617664	24992
510	8.620263	126238720	91893760	48235112	24992
511	9.616455	126238720	91893760	54419584	24992
512	10.644259	126238720	91893760	44707192	24992
513	11.234883	126238720	91893760	52039776	24992
514	13.039188	126238720	91893760	43910112	24992
515	13.037676	126238720	91893760	52379832	24992
516	14.484471	126238720	91893760	45334848	24992
517	16.477981	126238720	91893760	40134872	24992
518	15.497521	126238720	91893760	50317800	24992
519	17.891299	126238720	91893760	45370672	24992
520	18.412516	126238720	91893760	41896584	24992
521	18.778822	126238720	91893760	53826720	24992
522	19.36542	126238720	91893760	49952008	24992
523	21.584559	126238720	91893760	47354264	24992
524	22.867886	126238720	91893760	45799608	24992
525	23.980865	126238720	91893760	45127848	24992
526	24.586656	126238720	91893760	45154952	24992
527	25.426615	126238720	91893760	45744312	24992
528	26.853542	126238720	91893760	46822320	24992
529	26.744977	126238720	91893760	48304184	24992
530	27.959183	126238720	91893760	50080776	24992
531	28.621307	126238720	91893760	52152696	24992
532	29.636046	126238720	91893760	54434776	24992
533	32.278276	126238720	91893760	43400184	24992
534	32.990109	126238720	91893760	48445496	24992
535	32.309525	126238720	91893760	53199168	24992
536	35.419977	126238720	91893760	44404312	24992
537	39.363864	126238720	91893760	54308424	24992
538	38.55506	126238720	91893760	47720752	24992
539	39.529421	126238720	91893760	58809400	24992
540	40.092536	126238720	91893760	53118496	24992
541	43.521008	126238720	91893760	65430104	24992
542	41.372952	126238720	91893760	60252216	24992
543	43.578674	126238720	91893760	56931640	24992
544	48.988916	126509056	92418048	59237576	24992
545	46.119934	128942080	95039488	73707056	24992
546	44.438249	129212416	95039488	70714648	24992
547	45.911882	129753088	95563776	69187584	24992
548	59.68137	134889472	100806656	73931568	24992
549	70.287846	125329408	91369472	26167216	24992
550	56.348211	125329408	91369472	32225144	24992
551	54.916499	125329408	91369472	38549792	24992
552	55.312066	125329408	91369472	45495496	24992
553	58.264379	125329408	91369472	53055288	24992
554	63.368249	125329408	91369472	49791752	24992
555	59.469007	125329408	91369472	58713640	24992
556	88.611392	123203584	90845184	25315616	24992
557	62.866597	125091840	90845184	34762392	24992
558	61.929191	125091840	90845184	45362560	24992
559	67.658881	125091840	90845184	45124200	24992
560	63.92676	125091840	90845184	56951008	24992
561	68.460255	125091840	90845184	57796384	24992
562	70.500513	126984192	92942336	59348136	24992
563	98.244958	129859584	98185216	28335864	24992
564	67.757965	132288512	98185216	41628616	24992
565	73.967092	132288512	98185216	44988352	24992
566	74.820103	132288512	98185216	49019808	24992
567	75.193718	132288512	98185216	53667472	24992
568	77.511894	132288512	98185216	58943224	24992
569	83.911842	132829184	98709504	76432584	24992
570	92.60385	128266240	93990912	33018520	24992
571	81.166444	128266240	93990912	40149952	24992
572	80.366892	128266240	93990912	47940256	24992
573	80.368056	128266240	93990912	56345016	24992
574	83.460998	128266240	93990912	65351504	24992
575	114.294162	126230528	92418048	31543768	24992
576	81.882132	126230528	92418048	41925832	24992
577	84.598245	126230528	92418048	52840656	24992
578	90.630675	126230528	92418048	52883200	24992
579	85.955213	126771200	92418048	65085256	24992
580	111.669065	125157376	92942336	29467136	24992
581	92.229772	127045632	92942336	30051032	24992
582	90.45067	127045632	92942336	44218072	24992
583	93.749705	127045632	92942336	47348248	24992
584	93.370771	127045632	92942336	62804824	24992
585	127.742319	125579264	91369472	37151304	24992
586	96.416781	125579264	91369472	42279336	24992
587	101.524666	125579264	91369472	48084768	24992
588	96.985195	125579264	91369472	66110968	24992
589	108.11853	132067328	98185216	73156032	24992
590	124.697861	129691648	95563776	32153224	24992
591	104.104737	129691648	95563776	40589216	24992
592	102.14008	129691648	95563776	61182072	24992
593	110.348003	129691648	95563776	59220488	24992
594	138.289404	125456384	91369472	37414176	24992
595	106.928123	125456384	91369472	48435872	24992
596	109.330055	125456384	91369472	60153800	24992
597	108.772844	127078400	92942336	72334480	24992
598	141.959287	134643712	97660928	22761640	24992
599	117.824797	131559424	97660928	35023536	24992
600	114.111916	131559424	97660928	49283040	24992
601	114.890026	131559424	97660928	64186672	24992
602	4.592477	132370432	98709504	68696240	24992
603	9.176085	125759488	93466624	24459176	24992
604	5.331275	125759488	93466624	27116248	24992
605	5.836833	125759488	93466624	30446320	24992
606	6.980904	125759488	93466624	34463560	24992
607	8.757343	126836736	93466624	24163864	24992
608	8.349354	127918080	93466624	29483792	24992
609	9.292532	127918080	93466624	35495936	24992
610	11.042993	127918080	93466624	26392000	24992
611	11.25044	127918080	93466624	33739064	24992
612	13.266565	127918080	93466624	26316768	24992
613	13.326865	127918080	93466624	34993696	24992
614	15.308106	127918080	93466624	28681288	24992
615	15.644458	127918080	93466624	38723528	24992
616	16.461686	127918080	93466624	33135768	24992
617	18.958748	127918080	93466624	29207560	24992
618	20.28275	127918080	93466624	26675472	24992
619	19.652254	127918080	93466624	39418872	24992
620	21.627973	127918080	93466624	36395904	24992
621	22.900397	127918080	93466624	34601920	24992
622	24.220164	127918080	93466624	33843192	24992
623	25.964293	127918080	93466624	33933656	24992
624	26.391003	127918080	93466624	34653152	24992
625	27.308697	127918080	93466624	35975360	24992
626	29.332321	127918080	93466624	37731600	24992
627	29.38683	127918080	93466624	39838368	24992
628	32.149296	127918080	93466624	28806376	24992
629	32.193348	127918080	93466624	34030416	24992
630	32.782684	127918080	93466624	38968576	24992
631	35.596299	127918080	93466624	30327864	24992
632	37.996011	127918080	93466624	40791680	24992
633	38.597364	127918080	93466624	34577712	24992
634	40.570221	127918080	93466624	46322128	24992
635	40.871516	127918080	93466624	40979816	24992
636	43.086294	127918080	93466624	37579696	24992
637	44.129036	127918080	93466624	51315720	24992
638	43.850237	127918080	93466624	47654136	24992
639	45.23554	127918080	93466624	45580328	24992
640	53.462534	127918080	93466624	49852960	24992
641	53.362993	127918080	93466624	54560160	24992
642	54.990628	127918080	93466624	59980336	24992
643	56.540941	127918080	93466624	66114304	24992
644	82.928472	128393216	96088064	27306752	24992
645	59.153766	130281472	96088064	33646272	24992
646	57.696919	130281472	96088064	41800528	24992
647	64.692675	130281472	96088064	39228568	24992
648	60.540568	130281472	96088064	48946192	24992
649	60.375915	130281472	96088064	59180896	24992
650	67.562324	130281472	96088064	58759976	24992
651	70.828926	130281472	96088064	70457584	24992
652	80.48314	130981888	96612352	34924984	24992
653	71.072761	130981888	96612352	36772632	24992
654	68.95975	130981888	96612352	39060888	24992
655	67.565376	130981888	96612352	53740152	24992
656	72.645732	130981888	96612352	57488000	24992
657	80.906072	132603904	98709504	61985704	24992
658	96.361193	126140416	92418048	34392160	24992
659	76.864044	126140416	92418048	40474992	24992
660	77.758176	126140416	92418048	47026096	24992
661	78.111579	126140416	92418048	54351384	24992
662	79.318335	126681088	92418048	62512864	24992
663	107.29857	122650624	90845184	25416536	24992
664	82.426889	125079552	90845184	33868896	24992
665	82.435607	125079552	90845184	44049544	24992
666	87.556353	125079552	90845184	43506256	24992
667	86.756205	125079552	90845184	55200496	24992
668	112.247594	123953152	91893760	23463648	24992
669	88.878689	125841408	91893760	35796352	24992
670	94.550751	125841408	91893760	38097456	24992
671	89.572369	125841408	91893760	52668568	24992
672	97.596454	125841408	91893760	56521688	24992
673	127.084599	128393216	94515200	30418896	24992
674	95.613786	128393216	94515200	47278600	24992
675	100.494524	128393216	94515200	53201008	24992
676	101.449429	128393216	94515200	59942560	24992
677	102.46976	133799936	99758080	67498312	24992
678	132.046301	132890624	98709504	38216136	24992
679	105.531588	132890624	98709504	47329304	24992
680	104.921039	132890624	98709504	57031016	24992
681	106.254442	132890624	98709504	67480056	24992
682	117.014209	136404992	102379520	78555888	24992
683	126.517308	130301952	96088064	39490728	24992
684	107.919329	130301952	96088064	51976312	24992
685	114.517352	130301952	96088064	53853768	24992
686	117.668183	132194304	98185216	67913752	24992
687	142.88914	128864256	94515200	37165352	24992
688	116.923846	128864256	94515200	52774928	24992
689	120.339154	128864256	94515200	57567480	24992
690	126.01601	131837952	97660928	74573304	24992
691	146.972823	130080768	96088064	44847592	24992
692	124.7049	130080768	96088064	51905736	24992
693	124.356369	130080768	96088064	59691712	24992
694	151.453717	128299008	96088064	31894104	24992
695	127.541044	130187264	96088064	40111048	24992
696	130.512965	130187264	96088064	50167360	24992
697	131.718572	130187264	96088064	60946464	24992
698	161.548727	131825664	97660928	41262560	24992
699	133.058686	131825664	97660928	53612168	24992
700	135.158247	131825664	97660928	66676344	24992
701	135.999661	139665408	105525248	80539624	24992
702	2.277467	141770752	107622400	44613904	24992
703	3.523158	141770752	107622400	46894712	24992
704	4.906959	141770752	107622400	49951152	24992
705	8.757641	141770752	107622400	40924792	24992
706	6.869405	141770752	107622400	45510008	24992
707	8.218326	141770752	107622400	50844928	24992
708	10.842926	142041088	107622400	41971936	24992
709	10.762145	142041088	107622400	48861160	24992
710	13.06371	142041088	107622400	40933120	24992
711	13.061817	142041088	107622400	49355456	24992
712	15.81628	142041088	107622400	42872064	24992
713	15.115282	142041088	107622400	52855880	24992
714	16.823242	142041088	107622400	47247848	24992
715	19.25789	142041088	107622400	43492128	24992
716	20.857734	142041088	107622400	41202184	24992
717	21.864133	142041088	107622400	40101896	24992
718	23.489569	142041088	107622400	39921480	24992
719	24.712355	142041088	107622400	40529728	24992
720	25.931578	142041088	107622400	41884328	24992
721	27.341044	142041088	107622400	43782432	24992
722	28.186225	142041088	107622400	46053112	24992
723	29.196605	142041088	107622400	48654048	24992
724	30.337067	142041088	107622400	51654216	24992
725	33.875709	142041088	107622400	41694144	24992
726	36.011142	142041088	107622400	50581288	24992
727	34.186628	142041088	107622400	56293568	24992
728	37.18219	142041088	107622400	48273864	24992
729	37.000526	142041088	107622400	55897136	24992
730	39.350596	142041088	107622400	49593192	24992
731	47.034468	142041088	107622400	50806624	24992
732	43.82663	142041088	107622400	64084976	24992
733	43.624796	142041088	107622400	60360584	24992
734	45.979618	142041088	107622400	58452376	24992
735	53.537518	142041088	107622400	62756616	24992
736	53.780353	142041088	107622400	67619064	24992
737	54.709983	142041088	107622400	73351368	24992
738	65.721222	143392768	109195264	79787904	24992
739	64.365825	130236416	96088064	31572872	24992
740	58.040401	130236416	96088064	39557304	24992
741	64.351919	130236416	96088064	37025840	24992
742	59.864841	130236416	96088064	46617800	24992
743	66.311605	130236416	96088064	45575392	24992
744	69.393321	131047424	97136640	56979016	24992
745	90.258753	119869440	85602304	27308288	24992
746	64.520379	119869440	85602304	40182512	24992
747	71.10714	119869440	85602304	42359944	24992
748	70.99245	119869440	85602304	45300792	24992
749	68.527535	119869440	85602304	60559888	24992
750	76.59628	123383808	89272320	65143032	24992
751	101.721896	123645952	91369472	37909792	24992
752	76.794227	125534208	91369472	43247112	24992
753	78.215255	125534208	91369472	50272136	24992
754	80.278143	125534208	91369472	58186648	24992
755	81.099427	125534208	91369472	66719624	24992
756	93.68782	130670592	96612352	64594328	24992
757	103.490372	126812160	92942336	38845088	24992
758	90.935451	126812160	92942336	38517136	24992
759	86.605024	126812160	92942336	50441136	24992
760	87.117726	126812160	92942336	63179800	24992
761	95.524829	127623168	93466624	65076096	24992
762	123.982297	127664128	93466624	34399408	24992
763	95.986401	127664128	93466624	38223184	24992
764	92.735583	127664128	93466624	54175432	24992
765	97.701031	127664128	93466624	59467664	24992
766	100.891266	132800512	98709504	65532712	24992
767	130.484929	133976064	99758080	36004976	24992
768	102.028556	133976064	99758080	43901440	24992
769	104.790156	133976064	99758080	52507848	24992
770	105.042705	133976064	99758080	61871304	24992
771	112.655359	136679424	102903808	72116064	24992
772	130.024961	130392064	96088064	33306192	24992
773	109.518328	130392064	96088064	45175360	24992
774	109.776976	130392064	96088064	57920616	24992
775	112.793876	130392064	96088064	71505472	24992
776	142.690898	129134592	95039488	40076864	24992
777	111.930874	129134592	95039488	55181760	24992
778	120.494255	129134592	95039488	59596976	24992
779	117.567614	131837952	97660928	76467448	24992
780	146.24769	130695168	96612352	27834416	24992
781	118.166854	130695168	96612352	46335632	24992
782	125.015678	130695168	96612352	54172392	24992
783	145.774167	131506176	97660928	62917712	24992
784	133.570375	125538304	91369472	41397776	24992
785	129.125172	125538304	91369472	51725912	24992
786	129.501382	126889984	92942336	62981600	24992
787	156.55125	127909888	93990912	25184056	24992
788	132.603523	127909888	93990912	38237504	24992
789	132.571536	127909888	93990912	52205800	24992
790	162.061633	123924480	91893760	34457696	24992
791	137.337926	125812736	91893760	49341392	24992
792	143.224132	125812736	91893760	54100304	24992
793	170.59869	125018112	93466624	26888968	24992
794	144.270278	127447040	93466624	44201344	24992
795	142.39838	127447040	93466624	62967168	24992
796	153.614387	132583424	98709504	71121472	24992
797	180.427	132902912	98709504	45855800	24992
798	151.71499	132902912	98709504	56006040	24992
799	148.119303	133984256	99758080	78106600	24992
800	172.660283	122052608	88223744	35643024	24992
801	154.685952	122052608	88223744	48188240	24992
802	2.658233	119361536	87699456	34767432	24992
803	3.876593	119361536	87699456	37340696	24992
804	9.036103	122064896	87699456	28331472	24992
805	6.478304	122064896	87699456	32624520	24992
806	8.129614	122064896	87699456	37810416	24992
807	11.108291	122064896	87699456	29336104	24992
808	10.3995	122064896	87699456	36222544	24992
809	13.13748	122064896	87699456	28847960	24992
810	13.406419	122064896	87699456	37483728	24992
811	15.941013	122064896	87699456	31599536	24992
812	16.690602	122064896	87699456	41972728	24992
813	17.808522	122064896	87699456	37032536	24992
814	20.641494	122064896	87699456	33889208	24992
815	22.166218	122064896	87699456	32090664	24992
816	23.153545	122064896	87699456	31500112	24992
817	24.957944	122064896	87699456	31927112	24992
818	26.400375	122064896	87699456	33192136	24992
819	27.825107	122064896	87699456	35045400	24992
820	29.230385	122064896	87699456	37460208	24992
821	29.818861	122064896	87699456	40367904	24992
822	34.771874	122064896	87699456	30594584	24992
823	35.200822	122064896	87699456	39320216	24992
824	34.335227	122064896	87699456	45143768	24992
825	37.662749	122064896	87699456	37522840	24992
826	40.571565	122064896	87699456	48866088	24992
827	40.587958	122064896	87699456	43346624	24992
828	44.039595	122064896	87699456	40197640	24992
829	44.903742	122064896	87699456	54102712	24992
830	45.268705	122064896	87699456	50906560	24992
831	46.490469	122064896	87699456	49431776	24992
832	51.832673	122064896	87699456	54617856	24992
833	53.484317	122064896	87699456	60391368	24992
834	56.634761	124768256	90845184	67120120	24992
835	62.416246	129634304	96088064	74638944	24992
836	86.800839	127025152	95039488	35599432	24992
837	62.853643	128913408	95039488	32049040	24992
838	62.391889	128913408	95039488	42235008	24992
839	65.833478	128913408	95039488	42042624	24992
840	64.067417	128913408	95039488	54205024	24992
841	72.005117	128913408	95039488	55660464	24992
842	74.736359	129454080	96088064	69801256	24992
843	96.294096	122884096	88748032	26687336	24992
844	69.913345	122884096	88748032	42432176	24992
845	75.067729	122884096	88748032	47445632	24992
846	76.421241	122884096	88748032	53643040	24992
847	79.599854	122884096	88748032	60476264	24992
848	107.640797	123494400	91369472	23192632	24992
849	82.737511	125382656	91369472	30946360	24992
850	81.485961	125382656	91369472	40669544	24992
851	81.708967	125382656	91369472	51380440	24992
852	91.795516	125382656	91369472	51453320	24992
853	108.166965	121204736	89796608	30015104	24992
854	90.455481	123633664	89796608	31362808	24992
855	89.258151	123633664	89796608	45711584	24992
856	93.600594	123633664	89796608	49450920	24992
857	97.50531	123904000	90320896	65715312	24992
858	116.330225	125235200	90845184	40168656	24992
859	96.958961	125235200	90845184	46719952	24992
860	100.275293	125235200	90845184	54244784	24992
861	102.180973	125775872	91893760	62807632	24992
862	134.854545	126251008	92418048	40117000	24992
863	104.66811	126251008	92418048	50595152	24992
864	106.035952	126251008	92418048	61907600	24992
865	111.149104	129495040	95563776	62557840	24992
866	138.099714	125878272	93990912	24648112	24992
867	111.682843	128307200	93990912	37433792	24992
868	112.980277	128307200	93990912	52523656	24992
869	116.91459	128307200	93990912	56945896	24992
870	143.428756	123256832	91893760	27065064	24992
871	117.131416	125685760	91893760	43904160	24992
872	124.065478	125685760	91893760	51259936	24992
873	123.946705	126496768	92418048	59606360	24992
874	147.850681	127332352	93466624	32250376	24992
875	125.250124	127332352	93466624	42708920	24992
876	127.438476	127332352	93466624	53901128	24992
877	150.133812	128413696	94515200	65953112	24992
878	138.489593	125136896	90845184	46500424	24992
879	133.153858	125136896	90845184	60550248	24992
880	139.489541	129462272	95563776	63882560	24992
881	169.398429	133476352	99233792	47848784	24992
882	143.306343	133476352	99233792	53082208	24992
883	138.23665	133476352	99233792	70836344	24992
884	171.840713	145100800	111292416	78033144	24992
885	148.013047	135004160	100806656	43436816	24992
886	143.608705	135004160	100806656	64257416	24992
887	148.969318	135004160	100806656	74282744	24992
888	185.723028	130727936	96612352	51052928	24992
889	151.406503	130727936	96612352	62941104	24992
890	153.30097	135323648	101330944	76117592	24992
891	181.86294	131338240	97136640	32781608	24992
892	154.767938	131338240	97136640	47876216	24992
893	156.531715	131338240	97136640	63724544	24992
894	184.617161	125198336	91369472	32612320	24992
895	159.525345	125198336	91369472	50493160	24992
896	168.581631	126009344	91893760	69424352	24992
897	192.505524	126136320	91893760	48571432	24992
898	163.020526	126136320	91893760	69310232	24992
899	204.201349	134352896	102903808	30049112	24992
900	168.81905	136781824	102903808	51631992	24992
901	172.561234	136781824	102903808	64023920	24992
902	2.998429	131387392	97660928	38129072	24992
903	4.429704	131387392	97660928	41075192	24992
904	9.179614	131387392	97660928	32732488	24992
905	7.365842	131387392	97660928	37646832	24992
906	8.809195	131387392	97660928	43573128	24992
907	11.692389	131387392	97660928	35450432	24992
908	12.016172	131387392	97660928	43341864	24992
909	14.002015	131387392	97660928	36078888	24992
910	16.052825	131387392	97660928	31211768	24992
911	15.990863	131387392	97660928	42103808	24992
912	18.952845	131387392	97660928	38064560	24992
913	21.041763	131387392	97660928	35798816	24992
914	22.779978	131387392	97660928	34914192	24992
915	24.043635	131387392	97660928	35162240	24992
916	25.711073	131387392	97660928	36382776	24992
917	27.231914	131387392	97660928	38352536	24992
918	29.03476	131387392	97660928	40937256	24992
919	29.980773	131387392	97660928	44160824	24992
920	32.212829	131387392	97660928	34342448	24992
921	33.73874	131387392	97660928	40775952	24992
922	37.024634	131387392	97660928	34203944	24992
923	38.712189	131387392	97660928	45717208	24992
924	40.078388	131387392	97660928	40885424	24992
925	46.244124	131387392	97660928	42773392	24992
926	43.769763	131387392	97660928	57118128	24992
927	44.214222	131387392	97660928	54295432	24992
928	46.193889	131387392	97660928	53350688	24992
929	52.085856	131387392	97660928	59213760	24992
930	54.263007	131387392	97660928	65975144	24992
931	58.449923	131928064	97660928	62209192	24992
932	86.39299	130154496	98709504	24291040	24992
933	61.234908	132583424	98709504	32764232	24992
934	60.367093	132853760	98709504	43527440	24992
935	65.764883	132853760	98709504	43695128	24992
936	63.285337	132853760	98709504	56522248	24992
937	68.770877	132853760	98709504	58792320	24992
938	70.21939	132853760	98709504	62108848	24992
939	100.29195	125845504	94515200	31869552	24992
940	76.636259	128274432	94515200	36215136	24992
941	74.64712	128274432	94515200	42520392	24992
942	76.145272	128274432	94515200	49927984	24992
943	77.088855	128815104	94515200	58330064	24992
944	81.993214	129355776	95039488	67734288	24992
945	111.88622	132026368	97660928	30163080	24992
946	84.50105	132026368	97660928	41750168	24992
947	85.643441	132026368	97660928	54273280	24992
948	91.083895	132026368	97660928	56425280	24992
949	90.198514	132026368	97660928	70942264	24992
950	120.31251	127823872	93990912	23941312	24992
951	91.888148	127823872	93990912	40954752	24992
952	97.127982	127823872	93990912	46830048	24992
953	100.12983	127823872	93990912	54138656	24992
954	124.90695	128905216	95039488	62334616	24992
955	107.754295	125661184	91369472	40121000	24992
956	101.751562	125661184	91369472	50441720	24992
957	102.887144	125661184	91369472	61811984	24992
958	124.548867	130256896	96088064	62777584	24992
959	118.090562	125730816	91369472	41989256	24992
960	111.486141	125730816	91369472	45036920	24992
961	111.246846	125730816	91369472	60430616	24992
962	134.268861	132759552	98709504	65495784	24992
963	127.261585	128749568	94515200	35243232	24992
964	115.668556	128749568	94515200	53734872	24992
965	119.797897	128749568	94515200	61837376	24992
966	145.914002	124715008	92418048	33736664	24992
967	123.282516	126603264	92418048	42827608	24992
968	125.424721	126603264	92418048	54179992	24992
969	134.932203	127143936	92942336	66505696	24992
970	177.617116	127782912	93466624	37200464	24992
971	132.778695	127782912	93466624	51535280	24992
972	132.025068	128864256	95039488	66943016	24992
973	160.413973	130502656	96612352	30333784	24992
974	135.886434	130502656	96612352	47959920	24992
975	142.056863	130502656	96612352	55218320	24992
976	167.171347	123645952	91369472	29177192	24992
977	141.59659	125534208	91369472	49113600	24992
978	144.177226	125534208	91369472	59417008	24992
979	175.130627	134184960	100282368	70729960	24992
980	155.916683	136667136	102379520	47705376	24992
981	151.683574	136667136	102379520	61291736	24992
982	159.214511	137207808	102903808	75686112	24992
983	189.48304	128245760	93990912	43064256	24992
984	155.158905	128245760	93990912	59726240	24992
985	160.786792	138248192	104476672	77366776	24992
986	195.854739	140722176	106573824	47870376	24992
987	159.36833	140722176	106573824	67607008	24992
988	163.986281	141262848	107098112	76881776	24992
989	184.78809	129077248	95039488	39228160	24992
990	169.45303	129077248	95039488	50486584	24992
991	201.298884	124694528	90320896	32265112	24992
992	171.870521	124694528	90320896	45821384	24992
993	172.734014	127397888	93466624	71864736	24992
994	203.758021	124502016	90320896	36476592	24992
995	176.234213	124502016	90320896	53320128	24992
996	207.557879	126935040	92942336	39207512	24992
997	180.143966	127205376	92942336	58135288	24992
998	193.418225	131530752	97660928	66680736	24992
999	222.522043	133230592	99233792	57371232	24992
1000	187.375145	133771264	99758080	67971736	24992
