x	Duration	RSS	HeapTotal	HeapUsed	External
0	NA	129990656	96088064	44272280	24992
1	0.430192	129990656	96088064	44317768	24992
2	0.389603	129990656	96088064	44389040	24992
3	0.458723	129990656	96088064	44485408	24992
4	0.582856	129990656	96088064	44608024	24992
5	0.640452	129990656	96088064	44758336	24992
6	0.73804	129990656	96088064	44937112	24992
7	0.842001	129990656	96088064	45145192	24992
8	0.97817	129990656	96088064	45383624	24992
9	0.849961	129990656	96088064	45654160	24992
10	0.476522	129990656	96088064	45956936	24992
11	0.521001	129990656	96088064	46292680	24992
12	0.576395	129990656	96088064	46663064	24992
13	0.624018	129990656	96088064	47068952	24992
14	0.671751	129990656	96088064	47511280	24992
15	0.76192	129990656	96088064	47990880	24992
16	0.787532	129990656	96088064	48508784	24992
17	0.897765	129990656	96088064	49067744	24992
18	0.907265	129990656	96088064	49667232	24992
19	1.031519	129990656	96088064	50308488	24992
20	1.035763	129990656	96088064	50991328	24992
21	1.1094	129990656	96088064	51717056	24992
22	1.167342	129990656	96088064	52486632	24992
23	1.257522	129990656	96088064	53301216	24992
24	3.774928	129990656	96088064	40581520	24992
25	1.796241	129990656	96088064	41489360	24992
26	1.714461	129990656	96088064	42445936	24992
27	1.569477	129990656	96088064	43455616	24992
28	1.891819	129990656	96088064	44513056	24992
29	2.430241	129990656	96088064	45621648	24992
30	1.884319	129990656	96088064	46789872	24992
31	1.864294	129990656	96088064	48003368	24992
32	1.964714	129990656	96088064	49273800	24992
33	2.001355	129990656	96088064	50603616	24992
34	2.32121	129990656	96088064	51989744	24992
35	2.166169	129990656	96088064	53432824	24992
36	3.107281	129990656	96088064	54938776	24992
37	4.173457	129990656	96088064	41193984	24992
38	2.695525	129990656	96088064	42813872	24992
39	2.531688	129990656	96088064	44494576	24992
40	2.622114	129990656	96088064	46236784	24992
41	2.69863	129990656	96088064	48041648	24992
42	2.818716	129990656	96088064	49909976	24992
43	3.108321	129990656	96088064	51844224	24992
44	3.082568	129990656	96088064	53843208	24992
45	3.118072	129990656	96088064	55909352	24992
46	4.950564	129990656	96088064	42219592	24992
47	3.612498	129990656	96088064	44421000	24992
48	3.421182	129990656	96088064	46690744	24992
49	3.744371	129990656	96088064	49030464	24992
50	3.62963	129990656	96088064	51441456	24992
51	3.767508	129990656	96088064	53926904	24992
52	3.997868	129990656	96088064	56487080	24992
53	5.769081	129990656	96088064	43405768	24992
54	4.384051	129990656	96088064	46118648	24992
55	4.484251	129990656	96088064	48909056	24992
56	4.344171	129990656	96088064	51778136	24992
57	4.657127	129990656	96088064	54726760	24992
58	4.570991	129990656	96088064	57756232	24992
59	6.367605	129990656	96088064	45106424	24992
60	5.057344	129990656	96088064	48299440	24992
61	4.96337	129990656	96088064	51576056	24992
62	6.012902	129990656	96088064	54944856	24992
63	5.208938	129990656	96088064	58391544	24992
64	7.339833	129990656	96088064	46106840	24992
65	5.827129	129990656	96088064	49733120	24992
66	5.856358	129990656	96088064	53447272	24992
67	5.761606	129990656	96088064	57250376	24992
68	7.951604	129990656	96088064	45431608	24992
69	7.905831	129990656	96088064	49432520	24992
70	6.191809	129990656	96088064	53507736	24992
71	6.28701	129990656	96088064	57675424	24992
72	8.350204	129990656	96088064	46203288	24992
73	6.95137	129990656	96088064	50558800	24992
74	7.22124	129990656	96088064	55010088	24992
75	7.140968	129990656	96088064	59558088	24992
76	8.823711	129990656	96088064	48312592	24992
77	7.37139	129990656	96088064	53054720	24992
78	7.406243	129990656	96088064	57895752	24992
79	9.616151	129990656	96088064	47146632	24992
80	7.675052	129990656	96088064	52188696	24992
81	7.925076	129990656	96088064	57333728	24992
82	10.363318	129990656	96088064	46996096	24992
83	8.351408	129990656	96088064	52347912	24992
84	8.457742	129990656	96088064	57806360	24992
85	10.719162	129990656	96088064	47750496	24992
86	9.52324	129990656	96088064	53427232	24992
87	9.004425	129990656	96088064	59204352	24992
88	11.019205	129990656	96088064	49350368	24992
89	9.428057	129990656	96088064	55343680	24992
90	9.577882	129990656	96088064	61447184	24992
91	11.627489	129990656	96088064	51791504	24992
92	9.680801	129990656	96088064	58121248	24992
93	12.368867	129990656	96088064	49093080	24992
94	11.117217	129990656	96088064	55655352	24992
95	10.251998	129990656	96088064	62325488	24992
96	12.757989	129990656	96088064	53215776	24992
97	10.811775	129990656	96088064	60116712	24992
98	13.177979	129990656	96088064	51527944	24992
99	11.251634	129990656	96088064	58666440	24992
100	14.001227	129990656	96088064	50516528	24992
101	11.418608	129990656	96088064	57896552	24992
102	0.433658	129990656	96088064	49933904	24992
103	0.608554	129990656	96088064	50300112	24992
104	0.785793	129990656	96088064	50793536	24992
105	0.993863	129990656	96088064	51415544	24992
106	1.173141	129990656	96088064	52166792	24992
107	1.38529	129990656	96088064	53047976	24992
108	1.62795	129990656	96088064	54060192	24992
109	1.866722	129990656	96088064	55204152	24992
110	2.086473	129990656	96088064	56481944	24992
111	2.286074	129990656	96088064	57893408	24992
112	2.507355	129990656	96088064	59439432	24992
113	2.726534	129990656	96088064	61121064	24992
114	3.100973	129990656	96088064	62939208	24992
115	5.440947	129990656	96088064	49042904	24992
116	3.280968	129990656	96088064	51136816	24992
117	3.42526	129990656	96088064	53370072	24992
118	5.216549	129990656	96088064	55745520	24992
119	5.164833	129990656	96088064	58261976	24992
120	4.829726	129990656	96088064	60920816	24992
121	4.5622	129990656	96088064	63722712	24992
122	7.022673	129990656	96088064	50666816	24992
123	4.81844	129990656	96088064	53757392	24992
124	5.202934	129990656	96088064	56993648	24992
125	5.196986	129990656	96088064	60376600	24992
126	5.417999	129990656	96088064	63907440	24992
127	7.840721	129990656	96088064	51587336	24992
128	6.112527	129990656	96088064	55419880	24992
129	6.318407	129990656	96088064	59401920	24992
130	6.599882	129990656	96088064	63532152	24992
131	9.031884	129990656	96088064	51868592	24992
132	7.051774	129990656	96088064	56305832	24992
133	7.272341	129990656	96088064	60898440	24992
134	7.36957	129990656	96088064	65650192	24992
135	10.130402	129990656	96088064	54363936	24992
136	8.048312	129990656	96088064	59428888	24992
137	8.058973	129990656	96088064	64653416	24992
138	10.515259	129990656	96088064	53991008	24992
139	8.843933	129990656	96088064	59533424	24992
140	9.099353	129990656	96088064	65235416	24992
141	11.474346	129990656	96088064	54996408	24992
142	9.568434	129990656	96088064	61024760	24992
143	12.241776	129990656	96088064	51699352	24992
144	10.229788	129990656	96088064	58055360	24992
145	10.134904	129990656	96088064	64578200	24992
146	12.879544	129990656	96088064	55270152	24992
147	11.076068	129990656	96088064	62123920	24992
148	14.341122	129990656	96088064	53538424	24992
149	11.38061	129990656	96088064	60728184	24992
150	14.060319	129990656	96088064	52660616	24992
151	11.939409	129990656	96088064	60194896	24992
152	14.902502	129990656	96088064	52608280	24992
153	12.314839	129990656	96088064	60488760	24992
154	15.454646	129990656	96088064	53237432	24992
155	13.054233	129990656	96088064	61465760	24992
156	16.240753	129990656	96088064	54441064	24992
157	13.6113	129990656	96088064	63017552	24992
158	16.227493	129990656	96088064	56158880	24992
159	14.14792	129990656	96088064	65095896	24992
160	17.175329	129990656	96088064	58309352	24992
161	14.710983	129990656	96088064	67600008	24992
162	17.468783	129990656	96088064	60870648	24992
163	18.214646	129990656	96088064	55261248	24992
164	15.829145	129990656	96088064	65097872	24992
165	18.48788	129990656	96088064	59282680	24992
166	19.512063	129990656	96088064	54512688	24992
167	17.32568	129990656	96088064	64914072	24992
168	19.649924	129990656	96088064	59730488	24992
169	19.940836	129990656	96088064	55501960	24992
170	17.677559	129990656	96088064	66469464	24992
171	20.928752	129990656	96088064	61681600	24992
172	22.191006	129990656	96088064	57824000	24992
173	18.51031	129990656	96088064	69366536	24992
174	21.506547	129990656	96088064	64829200	24992
175	21.640608	129990656	96088064	61130824	24992
176	22.352319	129990656	96088064	58162520	24992
177	19.832582	129990656	96088064	70480256	24992
178	22.829476	129990656	96088064	66697680	24992
179	23.429578	129990656	96088064	63601480	24992
180	23.670811	129990656	96088064	61173016	24992
181	24.17425	129990656	96088064	59249408	24992
182	25.212337	129990656	96088064	57852416	24992
183	22.402929	129990656	96088064	71352392	24992
184	25.088932	129990656	96088064	68770184	24992
185	24.950233	129990656	96088064	66695856	24992
186	25.971144	129990656	96088064	65174808	24992
187	26.397232	129990656	96088064	63981336	24992
188	26.387778	129990656	96088064	63218056	24992
189	27.313048	129990656	96088064	62794656	24992
190	27.14728	129990656	96088064	62671568	24992
191	27.78568	129990656	96088064	62803304	24992
192	28.174478	129990656	96088064	63127824	24992
193	28.49991	129990656	96088064	63633456	24992
194	29.140445	129990656	96088064	64314408	24992
195	29.207222	129990656	96088064	65139888	24992
196	29.975112	129990656	96088064	66083976	24992
197	29.602901	129990656	96088064	67099576	24992
198	30.088976	129990656	96088064	68219576	24992
199	30.386861	129990656	96088064	69421592	24992
200	30.752809	129990656	96088064	70694248	24992
201	31.260103	129990656	96088064	72002024	24992
202	0.74402	129990656	96088064	73316344	24992
203	1.056013	129990656	96088064	73974376	24992
204	4.418518	129990656	96088064	58610136	24992
205	2.072512	129990656	96088064	59708944	24992
206	2.121015	129990656	96088064	61030088	24992
207	2.659315	129990656	96088064	62573936	24992
208	2.814767	129990656	96088064	64341432	24992
209	3.169156	129990656	96088064	66344816	24992
210	3.536931	129990656	96088064	68579832	24992
211	4.07232	129990656	96088064	71049648	24992
212	4.427469	129990656	96088064	73755040	24992
213	7.775037	129990656	96088064	60496600	24992
214	5.200351	129990656	96088064	63677936	24992
215	5.328899	129990656	96088064	67095552	24992
216	6.137993	129990656	96088064	70760464	24992
217	6.031014	129990656	96088064	74657728	24992
218	9.54284	129990656	96088064	62517416	24992
219	7.011571	129990656	96088064	66899680	24992
220	7.228302	129990656	96088064	71530464	24992
221	11.025105	129990656	96088064	60574408	24992
222	8.001793	129990656	96088064	65702360	24992
223	8.503617	129990656	96088064	71062608	24992
224	12.244407	129990656	96088064	60915552	24992
225	9.291057	129990656	96088064	66771464	24992
226	9.580745	129990656	96088064	72877648	24992
227	13.438222	129990656	96088064	63232424	24992
228	10.464606	129990656	96088064	69841896	24992
229	14.495527	129990656	96088064	61144432	24992
230	11.237823	129990656	96088064	68255352	24992
231	15.208321	129990656	96088064	60301384	24992
232	12.010249	129990656	96088064	67916264	24992
233	16.127409	129990656	96088064	60543520	24992
234	12.580865	129990656	96088064	68690000	24992
235	17.089075	129990656	96088064	61746584	24992
236	13.479302	129990656	96088064	70398616	24992
237	17.597049	130260992	96612352	63735728	24992
238	14.671269	130260992	96612352	72903328	24992
239	18.576081	130260992	96612352	66399784	24992
240	15.322849	130260992	96612352	76097288	24992
241	18.795945	130531328	96612352	69711608	24992
242	19.956858	130531328	96612352	64484024	24992
243	16.963043	130531328	96612352	74972872	24992
244	20.606679	130531328	96612352	69572328	24992
245	21.644952	130801664	97136640	65195496	24992
246	18.381269	130801664	97136640	76481104	24992
247	22.256449	130801664	97136640	71679344	24992
248	22.342155	130801664	97136640	67836504	24992
249	22.640406	131072000	97136640	64832752	24992
250	24.431108	131072000	97136640	62527656	24992
251	20.435504	131072000	97136640	75156128	24992
252	24.226945	131072000	97136640	71959992	24992
253	24.446037	131342336	97660928	69518744	24992
254	25.570413	131342336	97660928	67678416	24992
255	26.241749	131612672	97660928	66378888	24992
256	26.802704	131612672	97660928	65613528	24992
257	27.198296	131612672	97660928	65218944	24992
258	28.020906	131883008	98185216	65184456	24992
259	28.774316	131883008	98185216	65451256	24992
260	28.403039	131883008	98185216	65983208	24992
261	29.102245	132153344	98709504	66725176	24992
262	29.516224	132153344	98709504	67656048	24992
263	30.229955	132423680	98709504	68723144	24992
264	29.967779	132423680	98709504	69934344	24992
265	30.733305	132694016	98709504	71311984	24992
266	31.288318	132694016	98709504	72779128	24992
267	30.675479	132964352	99233792	74319784	24992
268	31.859483	132964352	99758080	75951920	24992
269	32.150789	133234688	99758080	77635520	24992
270	31.924621	133234688	99758080	79387600	24992
271	37.504018	133505024	99758080	67134304	24992
272	34.622558	133505024	99758080	71053640	24992
273	34.645119	133775360	100282368	74726760	24992
274	34.429161	133775360	100282368	78148624	24992
275	39.547406	134045696	100282368	67499792	24992
276	38.83729	136478720	102903808	75047880	24992
277	46.67504	136749056	102903808	79921120	24992
278	42.64373	126836736	92942336	19449200	24992
279	35.194045	126836736	92942336	27652464	24992
280	36.293697	126836736	92942336	19577424	24992
281	36.692164	126836736	92942336	28572536	24992
282	35.524731	126836736	92942336	34611784	24992
283	36.481724	126836736	92942336	26004624	24992
284	36.310821	126836736	92942336	32982344	24992
285	37.928067	126836736	92942336	25427288	24992
286	38.651337	126836736	92942336	35933400	24992
287	39.418683	126836736	92942336	29416152	24992
288	39.773651	126836736	92942336	40539984	24992
289	40.617104	126836736	92942336	34386744	24992
290	41.835852	126836736	92942336	29798888	24992
291	42.209628	126836736	92942336	41746040	24992
292	41.388519	126836736	92942336	36716416	24992
293	45.582337	126836736	92942336	36922088	24992
294	42.852351	126836736	92942336	49708824	24992
295	42.486703	126836736	92942336	45347480	24992
296	50.462234	127647744	93466624	46492616	24992
297	63.769288	112476160	80359424	20963216	24992
298	45.305281	114368512	80359424	34850152	24992
299	44.495996	114368512	80359424	31388208	24992
300	47.26878	114368512	80359424	28994248	24992
301	49.675038	114368512	80359424	31908864	24992
302	1.040553	114368512	80359424	35034784	24992
303	1.855288	114368512	80359424	35997568	24992
304	2.28292	114368512	80359424	37284408	24992
305	2.530097	114368512	80359424	38889344	24992
306	3.030811	114368512	80359424	40819088	24992
307	3.555038	114368512	80359424	43071288	24992
308	6.150428	114368512	80359424	32078016	24992
309	4.577647	114368512	80359424	34980024	24992
310	5.334266	114368512	80359424	38209368	24992
311	5.571996	114368512	80359424	41775544	24992
312	6.2888	114368512	80359424	45662464	24992
313	7.480475	114368512	80359424	34255144	24992
314	7.145329	114368512	80359424	38799640	24992
315	7.803887	114368512	80359424	43675296	24992
316	8.857045	114368512	80359424	33145880	24992
317	9.222488	114368512	80359424	38691928	24992
318	9.673724	114368512	80359424	44578632	24992
319	10.753557	114368512	80359424	34919712	24992
320	10.498405	114368512	80359424	41471000	24992
321	11.854619	114368512	80359424	32931072	24992
322	11.737668	114368512	80359424	40166672	24992
323	12.079833	114368512	80359424	47728160	24992
324	12.91541	114368512	80359424	39298632	24992
325	13.155269	114368512	80359424	47539248	24992
326	14.646622	114368512	80359424	39872928	24992
327	15.383858	114368512	80359424	33667568	24992
328	15.021246	114368512	80359424	42949104	24992
329	16.212672	114368512	80359424	36958688	24992
330	15.822936	114368512	80359424	46913984	24992
331	17.281781	114368512	80359424	41104024	24992
332	18.036346	114368512	80359424	36479744	24992
333	17.512015	114368512	80359424	47478808	24992
334	19.13889	114368512	80359424	42599800	24992
335	20.10368	114368512	80359424	38811784	24992
336	20.871859	114368512	80359424	35910496	24992
337	19.895076	114368512	80359424	48334688	24992
338	21.444626	114368512	80359424	44774600	24992
339	22.064938	114368512	80359424	42136488	24992
340	23.096081	114368512	80359424	40249728	24992
341	23.859676	114368512	80359424	38992096	24992
342	24.512313	114368512	80359424	38328464	24992
343	24.908188	114368512	80359424	38115208	24992
344	25.25393	114368512	80359424	38307200	24992
345	26.696911	114368512	80359424	38811248	24992
346	27.916349	114368512	80359424	39644928	24992
347	27.509498	114368512	80359424	40708808	24992
348	27.129141	114368512	80359424	41987968	24992
349	28.650844	114368512	80359424	43456184	24992
350	28.508392	114368512	80359424	45046248	24992
351	29.371279	114368512	80359424	46754120	24992
352	29.450157	114368512	80359424	48594736	24992
353	32.448988	114368512	80359424	36712944	24992
354	33.509943	114368512	80359424	43194632	24992
355	31.579041	114368512	80359424	47059240	24992
356	32.631867	114368512	80359424	50774080	24992
357	34.684873	114368512	80359424	40529208	24992
358	35.548185	114368512	80359424	48461584	24992
359	33.862027	114368512	80359424	53638256	24992
360	36.317871	114368512	80359424	44562856	24992
361	37.215678	114368512	80359424	53601224	24992
362	38.644225	114368512	80359424	46295784	24992
363	39.339736	115990528	82456576	56081064	24992
364	39.553873	117071872	82980864	49559376	24992
365	46.286694	119504896	85602304	60061008	24992
366	54.923343	117063680	83505152	24799088	24992
367	44.059733	117329920	83505152	23161184	24992
368	40.609559	117329920	83505152	34599768	24992
369	41.445742	117329920	83505152	29303696	24992
370	44.820937	117329920	83505152	29387896	24992
371	42.766217	117329920	83505152	41971520	24992
372	43.244864	117329920	83505152	37648432	24992
373	46.614931	117329920	83505152	38874136	24992
374	47.301103	117329920	83505152	40345488	24992
375	46.102256	117329920	83505152	54444064	24992
376	45.371503	117329920	83505152	51243944	24992
377	50.359105	118140928	84029440	54040384	24992
378	64.330116	120033280	86126592	56984264	24992
379	57.490717	119025664	85078016	30097056	24992
380	51.301831	119025664	85078016	33945952	24992
381	51.231633	119025664	85078016	38111472	24992
382	52.750463	119025664	85078016	42597328	24992
383	53.414127	119025664	85078016	47537928	24992
384	54.168968	119025664	85078016	52888072	24992
385	54.015687	119025664	85078016	58577360	24992
386	54.908355	119025664	85078016	64732328	24992
387	73.53329	124973056	91369472	59040608	24992
388	58.939083	122863616	89272320	31955472	24992
389	62.203608	122863616	89272320	27160504	24992
390	57.696253	122863616	89272320	34854160	24992
391	58.644658	122863616	89272320	42978320	24992
392	59.127872	122863616	89272320	51552192	24992
393	62.401843	122863616	89272320	48272880	24992
394	61.705151	122863616	89272320	57652872	24992
395	84.982567	118116352	86126592	26280936	24992
396	61.00419	120004608	86126592	35954304	24992
397	65.631768	120004608	86126592	34280144	24992
398	62.744985	120004608	86126592	45145960	24992
399	66.879015	120004608	86126592	44286208	24992
400	64.46909	120004608	86126592	55979992	24992
401	67.534573	120545280	86650880	55930344	24992
402	1.952172	124329984	90845184	68699312	24992
403	3.361662	124329984	90845184	69940792	24992
404	10.505494	126492672	92942336	59053640	24992
405	6.500374	126492672	92942336	61123240	24992
406	6.883162	126492672	92942336	63608888	24992
407	8.343694	121524224	89272320	21139320	24992
408	6.208617	121524224	89272320	24465392	24992
409	6.939222	121524224	89272320	28210320	24992
410	6.540415	121524224	89272320	32376120	24992
411	8.208465	122871808	89272320	20744528	24992
412	7.877897	122871808	89272320	25743760	24992
413	8.532262	122871808	89272320	31183104	24992
414	9.954579	122871808	89272320	21011056	24992
415	10.169357	122871808	89272320	27284080	24992
416	10.544097	122871808	89272320	33992144	24992
417	11.74433	122871808	89272320	24651800	24992
418	12.776329	122871808	89272320	32209960	24992
419	13.421219	122871808	89272320	24029600	24992
420	13.258648	122871808	89272320	32475208	24992
421	14.87311	122871808	89272320	25157688	24992
422	17.997129	122871808	89272320	19390552	24992
423	15.675771	122871808	89272320	29190336	24992
424	17.370205	122871808	89272320	23697472	24992
425	18.647676	122871808	89272320	19501048	24992
426	18.413065	122871808	89272320	30667560	24992
427	19.002201	122871808	89272320	26317416	24992
428	20.245026	122871808	89272320	23074768	24992
429	21.714781	122871808	89272320	20801968	24992
430	21.66312	122871808	89272320	33746832	24992
431	22.215053	122871808	89272320	30770480	24992
432	22.835556	122871808	89272320	28693008	24992
433	23.931665	122871808	89272320	27392584	24992
434	23.971036	122871808	89272320	26790680	24992
435	25.158254	122871808	89272320	26710800	24992
436	26.289543	122871808	89272320	27113704	24992
437	26.648031	122871808	89272320	27931824	24992
438	27.012562	122871808	89272320	29089816	24992
439	28.205478	122871808	89272320	30516648	24992
440	28.102174	122871808	89272320	32178288	24992
441	28.964267	122871808	89272320	34058208	24992
442	31.153951	122871808	89272320	22172488	24992
443	30.907322	122871808	89272320	26495280	24992
444	32.302645	122871808	89272320	30686040	24992
445	31.87953	122871808	89272320	34699640	24992
446	35.248427	122871808	89272320	24587200	24992
447	33.879995	122871808	89272320	30507280	24992
448	35.803938	122871808	89272320	22489880	24992
449	38.129829	122871808	89272320	32096872	24992
450	38.108642	122871808	89272320	25487376	24992
451	38.983352	122871808	89272320	36057232	24992
452	39.16403	122871808	89272320	30252120	24992
453	39.767365	122871808	89272320	41713752	24992
454	40.254863	122871808	89272320	36356488	24992
455	44.407477	122871808	89272320	36530008	24992
456	42.358942	122871808	89272320	49336344	24992
457	43.173275	122871808	89272320	45185832	24992
458	47.120043	122871808	89272320	46771496	24992
459	48.62466	122871808	89272320	48636696	24992
460	47.858028	123412480	89272320	51013432	24992
461	51.844394	123412480	89272320	66183520	24992
462	63.16205	118185984	84553728	21171736	24992
463	51.085755	118185984	84553728	24891568	24992
464	50.525036	118185984	84553728	29196840	24992
465	51.228027	118185984	84553728	33910496	24992
466	51.71955	118185984	84553728	39130680	24992
467	53.934122	118185984	84553728	44873024	24992
468	54.400823	118185984	84553728	51092944	24992
469	57.118861	118726656	84553728	57754704	24992
470	78.617053	120668160	88748032	22930008	24992
471	58.25237	122560512	88748032	30205536	24992
472	56.787726	122560512	88748032	38366056	24992
473	57.519989	122560512	88748032	46988088	24992
474	60.83993	122560512	88748032	43808960	24992
475	58.90481	122560512	88748032	53471192	24992
476	63.800353	122560512	88748032	51344216	24992
477	61.681337	122830848	88748032	61974336	24992
478	87.185019	122843136	90845184	29085440	24992
479	65.009891	124731392	90845184	27688832	24992
480	63.176236	124731392	90845184	39783136	24992
481	66.847419	124731392	90845184	40104888	24992
482	64.069265	124731392	90845184	53223544	24992
483	68.026295	124731392	90845184	54520496	24992
484	68.717224	124731392	90845184	56384080	24992
485	92.151337	125325312	93466624	26739616	24992
486	68.447263	127213568	93466624	41287656	24992
487	71.468019	127213568	93466624	44596184	24992
488	72.789674	127213568	93466624	48482152	24992
489	72.406475	127213568	93466624	52929536	24992
490	74.349649	127213568	93466624	57810384	24992
491	74.998269	128024576	93990912	63205240	24992
492	98.31823	128483328	96612352	35325584	24992
493	75.236035	130371584	96612352	40873760	24992
494	76.491858	130371584	96612352	47811328	24992
495	77.115726	130371584	96612352	55220928	24992
496	80.438077	130371584	96612352	50789272	24992
497	79.673611	130371584	96612352	59215152	24992
498	100.700841	125366272	93466624	19703536	24992
499	83.636289	127524864	93466624	28349000	24992
500	81.642572	127524864	93466624	38316936	24992
501	82.89691	127524864	93466624	48768472	24992
502	1.712885	127524864	93466624	47887512	24992
503	2.553154	127524864	93466624	49457792	24992
504	3.391051	127524864	93466624	51550712	24992
505	4.055605	127524864	93466624	54167296	24992
506	4.885724	127524864	93466624	57309072	24992
507	7.650463	127524864	93466624	47131664	24992
508	6.692018	127524864	93466624	51325256	24992
509	7.451595	127524864	93466624	56109248	24992
510	8.042262	127524864	93466624	61359848	24992
511	9.508704	127524864	93466624	50919480	24992
512	9.919925	127524864	93466624	57324616	24992
513	11.32298	127524864	93466624	48387464	24992
514	11.650302	127524864	93466624	55812376	24992
515	13.148865	127524864	93466624	48157472	24992
516	13.260331	127524864	93466624	56597336	24992
517	14.53535	127524864	93466624	49944792	24992
518	14.991565	127524864	93466624	59502304	24992
519	16.194479	127524864	93466624	53479080	24992
520	17.488175	127524864	93466624	48946216	24992
521	17.394025	127524864	93466624	60092024	24992
522	18.937175	127524864	93466624	55609160	24992
523	20.248698	127524864	93466624	52314288	24992
524	21.647062	127524864	93466624	50046200	24992
525	21.89296	127524864	93466624	48645920	24992
526	23.156661	127524864	93466624	48017000	24992
527	24.385688	127524864	93466624	48033488	24992
528	25.504716	127524864	93466624	48596264	24992
529	26.344921	127524864	93466624	49608696	24992
530	26.359061	127524864	93466624	51039368	24992
531	27.367931	127524864	93466624	52821296	24992
532	28.332431	127524864	93466624	54851272	24992
533	28.800357	127524864	93466624	57137112	24992
534	29.755377	127524864	93466624	59659320	24992
535	30.726893	127524864	93466624	62364032	24992
536	32.610998	127524864	93466624	51275552	24992
537	32.513853	127524864	93466624	56321640	24992
538	32.721785	127524864	93466624	61174960	24992
539	35.666308	127524864	93466624	52028064	24992
540	38.103633	127524864	93466624	61480280	24992
541	45.461691	127524864	93466624	54476968	24992
542	48.881502	117096448	82980864	19226776	24992
543	39.155268	117096448	82980864	30238280	24992
544	40.82153	117096448	82980864	24840336	24992
545	42.224768	117096448	82980864	37098640	24992
546	41.797517	117096448	82980864	32169144	24992
547	42.72515	117096448	82980864	28846600	24992
548	45.884237	117096448	82980864	30382144	24992
549	44.197187	117096448	82980864	44804504	24992
550	44.716553	117096448	82980864	41926376	24992
551	45.764738	117096448	82980864	40303064	24992
552	49.67492	117096448	82980864	44202992	24992
553	50.134049	117096448	82980864	48477624	24992
554	56.663095	117096448	82980864	53435808	24992
555	68.077449	113963008	81932288	31490864	24992
556	54.275532	115851264	81932288	37170792	24992
557	56.812839	115851264	81932288	31401408	24992
558	55.966761	115851264	81932288	38391512	24992
559	55.936728	115851264	81932288	46128752	24992
560	57.3917	115851264	81932288	54306056	24992
561	61.359146	116121600	81932288	50802520	24992
562	64.855694	119906304	86126592	60146400	24992
563	77.114665	121229312	87175168	26041752	24992
564	60.146532	121229312	87175168	36598224	24992
565	63.893267	121229312	87175168	35470248	24992
566	61.874599	121229312	87175168	47135224	24992
567	65.813353	121229312	87175168	47145520	24992
568	63.45121	121229312	87175168	59937208	24992
569	71.973078	121769984	87699456	61143560	24992
570	86.242969	120827904	87175168	30905104	24992
571	69.59458	120827904	87175168	33411568	24992
572	70.677877	120827904	87175168	36339280	24992
573	69.797751	120827904	87175168	52028040	24992
574	71.392256	120827904	87175168	56124152	24992
575	72.726973	120827904	87175168	60780048	24992
576	95.277787	122073088	90320896	20254952	24992
577	76.852508	123961344	90320896	25340256	24992
578	77.04592	123961344	90320896	31738056	24992
579	76.38517	123961344	90320896	38796384	24992
580	78.200093	123961344	90320896	46461280	24992
581	79.505696	123961344	90320896	54707824	24992
582	103.687526	118292480	86126592	33916120	24992
583	81.392961	120180736	86126592	43140744	24992
584	84.083808	120180736	86126592	41085072	24992
585	84.408542	120180736	86126592	51827056	24992
586	84.375234	120180736	86126592	63239440	24992
587	93.660609	127209472	93466624	62937824	24992
588	105.482079	125775872	91893760	28433200	24992
589	87.151383	125775872	91893760	41413248	24992
590	89.415623	125775872	91893760	42744640	24992
591	88.410432	125775872	91893760	56952768	24992
592	92.360448	125775872	91893760	59512568	24992
593	117.279028	122474496	88748032	30725520	24992
594	91.415315	122474496	88748032	46785400	24992
595	94.888092	122474496	88748032	51192784	24992
596	96.306807	122474496	88748032	56143256	24992
597	96.964258	125448192	92418048	61869072	24992
598	116.717899	123088896	91369472	31338728	24992
599	98.063073	125247488	91369472	37154952	24992
600	101.032367	125247488	91369472	44467912	24992
601	101.544877	125247488	91369472	52596144	24992
602	2.424398	125247488	91369472	61642200	24992
603	3.385206	125247488	91369472	63496024	24992
604	8.85791	125788160	91893760	53217464	24992
605	5.257137	125788160	91893760	56298760	24992
606	6.185444	125788160	91893760	59998032	24992
607	7.664876	125788160	91893760	64315552	24992
608	15.374986	126328832	92418048	54571712	24992
609	15.259957	126328832	92418048	60128384	24992
610	17.209788	119848960	86126592	25227048	24992
611	11.416143	119848960	86126592	32042864	24992
612	13.2346	120115200	86126592	23807432	24992
613	12.677863	120115200	86126592	31887520	24992
614	14.344447	120115200	86126592	24940920	24992
615	14.781597	120115200	86126592	34250680	24992
616	16.084079	120115200	86126592	28177088	24992
617	17.612996	120115200	86126592	23660288	24992
618	17.678086	120115200	86126592	34852920	24992
619	19.764088	120115200	86126592	30585320	24992
620	20.621952	120115200	86126592	27621960	24992
621	22.410822	120115200	86126592	25726304	24992
622	23.558907	120115200	86126592	24747096	24992
623	24.06124	120115200	86126592	24611904	24992
624	25.451424	120115200	86126592	25103800	24992
625	26.20647	120115200	86126592	26147168	24992
626	27.080717	120115200	86126592	27731296	24992
627	28.431889	120115200	86126592	29682928	24992
628	29.266147	120115200	86126592	31977016	24992
629	29.718732	120115200	86126592	34498744	24992
630	30.512981	120115200	86126592	37312768	24992
631	32.519849	120115200	86126592	26359744	24992
632	33.282015	120115200	86126592	31727784	24992
633	34.47674	120115200	86126592	36934648	24992
634	36.301255	120115200	86126592	28156768	24992
635	35.95866	120115200	86126592	35252832	24992
636	38.638108	120115200	86126592	28195096	24992
637	41.63784	120115200	86126592	39511152	24992
638	40.432869	120115200	86126592	33992656	24992
639	44.842741	120115200	86126592	34335432	24992
640	42.523761	120115200	86126592	47405608	24992
641	43.202294	120115200	86126592	43427456	24992
642	45.022453	120115200	86126592	40975576	24992
643	48.638327	120115200	86126592	43850320	24992
644	49.309312	120115200	86126592	47353328	24992
645	52.070424	120115200	86126592	51423232	24992
646	51.503007	120655872	86650880	56134328	24992
647	54.165803	124170240	90320896	61496352	24992
648	77.059841	125505536	93466624	21451056	24992
649	56.872045	127393792	93466624	27230800	24992
650	55.124737	127393792	93466624	34506032	24992
651	56.955865	127393792	93466624	42441880	24992
652	58.006296	127393792	93466624	50994608	24992
653	61.150086	127393792	93466624	48069672	24992
654	59.482767	127393792	93466624	58040408	24992
655	63.396968	127393792	93466624	56382272	24992
656	86.291961	124604416	92418048	23205864	24992
657	65.31227	126492672	92418048	34452680	24992
658	66.892548	126492672	92418048	34836600	24992
659	66.225345	126492672	92418048	48038104	24992
660	69.545473	126492672	92418048	49746704	24992
661	69.059418	126492672	92418048	52102096	24992
662	68.055298	126492672	92418048	67392016	24992
663	94.208899	121065472	89272320	23093048	24992
664	74.791775	122953728	89272320	26438432	24992
665	75.640842	122953728	89272320	31538432	24992
666	77.515896	122953728	89272320	37333616	24992
667	76.430692	122953728	89272320	43683624	24992
668	77.887452	123494400	89272320	50732856	24992
669	103.509082	119865344	87699456	30113248	24992
670	81.222295	121753600	87699456	38242144	24992
671	79.505406	121753600	87699456	47305288	24992
672	82.547427	121753600	87699456	57087584	24992
673	85.162426	122023936	88223744	55324640	24992
674	84.220742	125538304	91893760	66531264	24992
675	107.875071	124284928	92418048	28563656	24992
676	89.124165	126173184	92418048	27686672	24992
677	86.46184	126173184	92418048	40910800	24992
678	90.520164	126173184	92418048	42555104	24992
679	89.382168	126173184	92418048	57135232	24992
680	112.196627	118292480	86126592	28932888	24992
681	93.337534	120180736	86126592	32107848	24992
682	94.403168	120180736	86126592	36487680	24992
683	92.969334	120180736	86126592	53822680	24992
684	97.435677	120451072	86650880	59537992	24992
685	122.183541	124022784	90320896	36257280	24992
686	98.80748	124022784	90320896	43483296	24992
687	99.547725	124022784	90320896	51372480	24992
688	100.755358	124022784	90320896	59818040	24992
689	105.388913	128348160	94515200	69059176	24992
690	130.277199	127983616	93990912	32361264	24992
691	104.189721	127983616	93990912	43029624	24992
692	106.014158	127983616	93990912	54290088	24992
693	106.246361	127983616	93990912	66388864	24992
694	131.698338	132308992	98709504	66891064	24992
695	115.916617	126902272	92942336	32638664	24992
696	110.104186	126902272	92942336	46865520	24992
697	113.419367	127172608	92942336	49437448	24992
698	113.107376	127172608	92942336	64967208	24992
699	142.638006	124874752	90845184	37460904	24992
700	119.701604	124874752	90845184	42260888	24992
701	118.969006	124874752	90845184	59879896	24992
702	2.331275	127307776	93466624	66599592	24992
703	3.441089	127307776	93466624	68728464	24992
704	4.429801	127307776	93466624	71581288	24992
705	8.310506	129470464	95563776	61905024	24992
706	6.910068	129470464	95563776	66161696	24992
707	7.970586	129470464	95563776	71129248	24992
708	10.672303	130281472	96612352	61883272	24992
709	11.237976	130281472	96612352	68293976	24992
710	12.400647	130281472	96612352	75411408	24992
711	14.454344	130281472	96612352	66990584	24992
712	21.702069	130281472	96612352	75527816	24992
713	20.242835	121114624	87175168	19875264	24992
714	17.696648	121114624	87175168	16068624	24992
715	17.027463	121114624	87175168	26780512	24992
716	19.072047	121114624	87175168	23104832	24992
717	20.227387	121114624	87175168	19860024	24992
718	21.321276	121114624	87175168	17881280	24992
719	23.374369	121114624	87175168	16941632	24992
720	24.943554	121114624	87175168	16866080	24992
721	25.419882	121114624	87175168	17508856	24992
722	27.149432	121114624	87175168	18745632	24992
723	27.807452	121114624	87175168	20522384	24992
724	29.190779	121114624	87175168	22806752	24992
725	29.346373	121114624	87175168	25500016	24992
726	30.715478	121114624	87175168	28487976	24992
727	33.04901	121114624	87175168	18046680	24992
728	34.902573	121114624	87175168	26218048	24992
729	33.984796	121114624	87175168	31846520	24992
730	35.934561	121114624	87175168	23441504	24992
731	38.729198	121114624	87175168	33770456	24992
732	39.040467	121114624	87175168	27586840	24992
733	43.232352	121114624	87175168	27077264	24992
734	42.312076	121114624	87175168	39429240	24992
735	42.242189	121114624	87175168	35400160	24992
736	47.116438	121114624	87175168	37169080	24992
737	47.852146	121114624	87175168	39494800	24992
738	50.785044	121114624	87175168	42517752	24992
739	54.1999	121114624	87175168	58607768	24992
740	69.274874	113594368	81408000	30654272	24992
741	52.135312	115486720	81408000	34475496	24992
742	54.761926	115486720	81408000	40454040	24992
743	57.154724	115486720	81408000	35113544	24992
744	57.031103	115486720	81408000	42545192	24992
745	57.259169	115486720	81408000	50810528	24992
746	58.863282	115486720	81408000	59825624	24992
747	63.815221	120623104	86650880	57445848	24992
748	85.477349	121913344	89796608	24721088	24992
749	63.283134	123801600	89796608	35300464	24992
750	65.562717	123801600	89796608	35148304	24992
751	63.929233	123801600	89796608	47892800	24992
752	68.067391	123801600	89796608	49242992	24992
753	69.555983	123801600	89796608	51369984	24992
754	68.326672	124342272	90320896	66401472	24992
755	93.110877	120369152	88223744	23251928	24992
756	73.295644	122257408	88223744	26628072	24992
757	74.042662	122257408	88223744	31715872	24992
758	74.927576	122257408	88223744	37536360	24992
759	76.137226	122257408	88223744	44139440	24992
760	77.666158	122257408	88223744	51528608	24992
761	103.458096	120434688	88748032	30839392	24992
762	80.946758	122322944	88748032	39520264	24992
763	83.262182	122322944	88748032	49170400	24992
764	85.992504	122322944	88748032	47481288	24992
765	83.564303	122322944	88748032	58773448	24992
766	88.538146	126107648	92418048	70823872	24992
767	113.704277	122568704	88748032	21126192	24992
768	88.03946	122568704	88748032	34869592	24992
769	90.634819	122568704	88748032	36911064	24992
770	89.755964	122568704	88748032	51984976	24992
771	97.493683	122568704	88748032	55571888	24992
772	124.402302	120152064	86126592	31625280	24992
773	96.11087	120152064	86126592	36856408	24992
774	96.634079	120152064	86126592	54861368	24992
775	98.755003	120152064	86126592	61520264	24992
776	101.463045	126640128	92942336	68961272	24992
777	123.387559	124534784	90845184	26158416	24992
778	102.376636	124534784	90845184	35483648	24992
779	103.833148	124534784	90845184	45334760	24992
780	105.247653	124534784	90845184	55928576	24992
781	128.49225	117227520	85078016	23928256	24992
782	107.262117	119115776	85078016	35779440	24992
783	109.038114	119115776	85078016	48730904	24992
784	113.024892	119115776	85078016	50236888	24992
785	133.107609	124522496	90845184	64666368	24992
786	119.700512	126488576	92418048	36164272	24992
787	114.334755	126488576	92418048	52124672	24992
788	116.632364	126488576	92418048	56800736	24992
789	134.707542	130002944	96088064	62359472	24992
790	130.317842	122290176	88223744	35240600	24992
791	123.627306	122290176	88223744	42407848	24992
792	121.06844	122290176	88223744	62459664	24992
793	131.077072	129048576	95039488	71372280	24992
794	147.709626	128565248	94515200	34037288	24992
795	125.975868	128565248	94515200	44205528	24992
796	127.609765	128565248	94515200	55343840	24992
797	148.565116	132349952	98709504	67107888	24992
798	136.729267	126140416	92418048	44688824	24992
799	134.076107	126140416	92418048	45861368	24992
800	134.165282	126140416	92418048	59962784	24992
801	159.751543	128450560	94515200	26231200	24992
802	2.528848	128450560	94515200	42959824	24992
803	3.743132	128450560	94515200	45367984	24992
804	7.440743	128450560	94515200	35694912	24992
805	6.529323	128450560	94515200	39713168	24992
806	7.7408	128450560	94515200	44527248	24992
807	10.436667	128450560	94515200	35567192	24992
808	10.077443	128450560	94515200	42020016	24992
809	11.535054	128450560	94515200	49273720	24992
810	13.241497	128450560	94515200	41127648	24992
811	13.870481	128450560	94515200	49970104	24992
812	15.705061	128450560	94515200	43376088	24992
813	17.4887	128450560	94515200	38612552	24992
814	17.904002	128450560	94515200	49900896	24992
815	19.794523	128450560	94515200	45759728	24992
816	21.283748	128450560	94515200	43047432	24992
817	22.903167	128450560	94515200	41541336	24992
818	24.723347	128450560	94515200	41097376	24992
819	25.501122	128450560	94515200	41575696	24992
820	27.813958	128450560	94515200	42771344	24992
821	28.46126	128450560	94515200	44664288	24992
822	29.1911	128450560	94515200	46987992	24992
823	30.635529	128450560	94515200	49789624	24992
824	33.552025	128450560	94515200	39268656	24992
825	35.483137	128450560	94515200	47545528	24992
826	34.723838	128450560	94515200	53422784	24992
827	37.22797	128450560	94515200	45124224	24992
828	37.243872	128450560	94515200	52773760	24992
829	39.745909	128450560	94515200	46367384	24992
830	44.010171	128450560	94515200	46588824	24992
831	42.977477	128450560	94515200	59618528	24992
832	43.421418	128450560	94515200	55947024	24992
833	48.543672	128450560	94515200	58679312	24992
834	54.646931	128991232	95039488	61973232	24992
835	67.926387	118923264	87175168	32657072	24992
836	51.79266	120811520	87175168	36707528	24992
837	56.10773	120811520	87175168	30351944	24992
838	55.236138	120811520	87175168	36959272	24992
839	56.296915	120811520	87175168	44494408	24992
840	57.624615	120811520	87175168	52886576	24992
841	61.946056	121081856	87175168	49953192	24992
842	66.193315	121081856	87175168	59928136	24992
843	82.307779	122294272	88223744	26914296	24992
844	62.878101	122294272	88223744	38685760	24992
845	66.93075	122294272	88223744	39172256	24992
846	68.130412	122294272	88223744	40410928	24992
847	67.685854	122294272	88223744	54649864	24992
848	70.972451	122294272	88223744	57721728	24992
849	90.987375	125538304	91893760	61532544	24992
850	79.447221	122392576	88748032	33471264	24992
851	74.757618	122392576	88748032	39157032	24992
852	76.017764	122392576	88748032	45586720	24992
853	78.11703	122392576	88748032	52976968	24992
854	78.554376	122392576	88748032	61210984	24992
855	102.276304	118427648	86650880	25817392	24992
856	81.9066	120315904	86650880	35049544	24992
857	85.13445	120315904	86650880	33528696	24992
858	85.597955	120315904	86650880	45218560	24992
859	84.582031	120315904	86650880	57653536	24992
860	105.195518	121937920	88223744	58728336	24992
861	98.21805	121253888	87699456	29325160	24992
862	89.767237	121253888	87699456	44427000	24992
863	92.842022	121253888	87699456	48107712	24992
864	94.193508	121253888	87699456	52786760	24992
865	117.398787	120750080	88748032	25789360	24992
866	98.746712	122638336	88748032	31435392	24992
867	99.00973	122638336	88748032	38747840	24992
868	99.553617	122638336	88748032	46813448	24992
869	106.305932	123179008	89272320	55731448	24992
870	123.180164	123944960	89796608	35124464	24992
871	105.193774	123944960	89796608	45833104	24992
872	106.316353	123944960	89796608	57376784	24992
873	110.19214	124215296	90320896	57691088	24992
874	133.414596	126742528	95039488	22919352	24992
875	112.264345	128630784	95039488	36104488	24992
876	112.459431	128630784	95039488	51257864	24992
877	116.961956	128630784	95039488	55048808	24992
878	128.3536	129171456	95563776	59749488	24992
879	131.196463	122867712	88748032	32132936	24992
880	116.747019	122867712	88748032	50775808	24992
881	120.575873	122867712	88748032	58204992	24992
882	128.900536	129085440	95039488	66403216	24992
883	147.28659	131633152	97660928	42015704	24992
884	124.685386	131633152	97660928	52040168	24992
885	126.502436	131633152	97660928	63016560	24992
886	134.291395	135958528	102379520	74777904	24992
887	152.940603	127086592	92942336	39083408	24992
888	131.317325	127086592	92942336	52682888	24992
889	134.37606	127086592	92942336	67067688	24992
890	159.446061	126799872	95039488	34148584	24992
891	137.340562	128688128	95039488	37424384	24992
892	136.86062	128688128	95039488	54584056	24992
893	144.489687	129228800	95563776	60445792	24992
894	165.214383	125460480	91369472	36060208	24992
895	140.603189	125460480	91369472	55956408	24992
896	144.859695	126812160	92942336	64642360	24992
897	175.0059	131813376	99758080	37306416	24992
898	148.875227	133701632	99758080	46439112	24992
899	149.081032	133701632	99758080	57688912	24992
900	156.148342	134242304	100282368	69866792	24992
901	174.491819	124395520	90320896	38178008	24992
902	2.83112	124395520	90320896	53033136	24992
903	4.185882	124395520	90320896	55770016	24992
904	5.682823	124395520	90320896	59430240	24992
905	7.202613	124395520	90320896	63994336	24992
906	10.240652	124395520	90320896	55221448	24992
907	10.301227	124395520	90320896	61621848	24992
908	12.061194	124395520	90320896	53313224	24992
909	12.946704	124395520	90320896	61552536	24992
910	15.017412	124395520	90320896	54976024	24992
911	16.020444	124395520	90320896	65034624	24992
912	17.570643	124395520	90320896	59837472	24992
913	19.685663	124395520	90320896	56246976	24992
914	21.190378	124395520	90320896	54144448	24992
915	23.432345	124395520	90320896	53389984	24992
916	24.305483	124395520	90320896	53597688	24992
917	25.721822	124395520	90320896	54606472	24992
918	27.641531	124395520	90320896	56438296	24992
919	29.115485	124395520	90320896	59023248	24992
920	30.403396	124395520	90320896	62126824	24992
921	31.243265	124395520	90320896	65702976	24992
922	34.143201	124395520	90320896	55851280	24992
923	34.408131	124395520	90320896	62218264	24992
924	37.174815	124395520	90320896	55241768	24992
925	38.624946	124395520	90320896	66263712	24992
926	41.095096	124936192	90845184	61088640	24992
927	45.62979	129261568	95039488	61736792	24992
928	43.605147	131153920	97136640	75404136	24992
929	50.836085	131694592	97660928	72511632	24992
930	63.176555	128335872	94515200	24404016	24992
931	50.7455	128335872	94515200	28851664	24992
932	51.846177	128335872	94515200	33926704	24992
933	53.357962	128335872	94515200	39952368	24992
934	54.240378	128335872	94515200	46900744	24992
935	58.741001	128335872	94515200	42571280	24992
936	57.28541	128335872	94515200	51387528	24992
937	64.327032	129146880	95039488	61124544	24992
938	79.091384	121221120	87175168	28024408	24992
939	61.900474	121221120	87175168	39653296	24992
940	66.077249	121221120	87175168	40152368	24992
941	68.087211	121221120	87175168	41491856	24992
942	66.453088	121221120	87175168	56088832	24992
943	69.997796	121221120	87175168	59192424	24992
944	93.385949	121171968	89272320	18467760	24992
945	73.553819	123330560	89272320	35253368	24992
946	74.517429	123330560	89272320	41381184	24992
947	76.27421	123330560	89272320	48416376	24992
948	80.324011	123330560	89272320	44258824	24992
949	78.783358	123330560	89272320	53194360	24992
950	96.185393	116633600	84553728	29817320	24992
951	85.386804	118521856	84553728	27841944	24992
952	84.265766	118521856	84553728	39716808	24992
953	84.85395	118521856	84553728	52460448	24992
954	89.720994	119062528	85078016	53955032	24992
955	112.203182	121225216	89272320	25040928	24992
956	93.532266	123117568	89272320	27960432	24992
957	91.491306	123117568	89272320	44466192	24992
958	95.093758	123117568	89272320	49797432	24992
959	97.27316	123117568	89272320	56087088	24992
960	127.619374	123494400	89796608	34647208	24992
961	100.74289	123494400	89796608	42981480	24992
962	102.547416	123494400	89796608	52128176	24992
963	103.236631	123494400	89796608	62255584	24992
964	108.087953	129171456	95563776	73363208	24992
965	131.224716	128032768	93990912	38089816	24992
966	111.111059	128032768	93990912	51172864	24992
967	111.465859	128032768	93990912	52987312	24992
968	111.394679	128032768	93990912	67973376	24992
969	134.462643	123641856	91893760	34964096	24992
970	116.83465	125530112	91893760	38815032	24992
971	117.882771	125530112	91893760	44680656	24992
972	119.080522	125530112	91893760	51575496	24992
973	141.759167	124850176	90845184	24940448	24992
974	124.204702	124850176	90845184	33720184	24992
975	126.400871	124850176	90845184	43368176	24992
976	125.292001	124850176	90845184	53876264	24992
977	156.746108	124841984	90845184	36069392	24992
978	128.751166	124841984	90845184	48697616	24992
979	133.153315	124841984	90845184	62313528	24992
980	133.211383	132411392	98709504	76614304	24992
981	161.081805	126435328	93466624	24791536	24992
982	136.654017	126976000	93466624	41364552	24992
983	139.062438	126976000	93466624	46506968	24992
984	159.620888	120786944	87175168	33646368	24992
985	142.04024	120786944	87175168	40905552	24992
986	143.939882	120786944	87175168	49210800	24992
987	170.365389	119648256	85602304	25748904	24992
988	144.283921	119648256	85602304	48146088	24992
989	147.768364	119648256	85602304	59395000	24992
990	178.913725	123985920	91893760	26930376	24992
991	153.032502	125874176	91893760	39568384	24992
992	152.57225	125874176	91893760	53619200	24992
993	159.683562	135335936	102379520	68870232	24992
994	179.798315	124280832	90320896	39018016	24992
995	157.942516	124280832	90320896	56050288	24992
996	162.074005	131309568	98185216	74074376	24992
997	188.124895	117751808	84553728	29372520	24992
998	162.140386	118292480	84553728	49575632	24992
999	191.404079	116891648	85078016	31618328	24992
1000	170.309241	118779904	85078016	41534128	24992
x	Duration	RSS	HeapTotal	HeapUsed	External
0	NA	121937920	90320896	32737920	24992
1	0.240037	121937920	90320896	32786496	24992
2	0.200469	121937920	90320896	32862800	24992
3	0.228038	121937920	90320896	32966088	24992
4	0.274458	121937920	90320896	33097872	24992
5	0.326468	121937920	90320896	33259704	24992
6	0.379657	121937920	90320896	33451928	24992
7	0.455477	121937920	90320896	33675568	24992
8	0.50464	121937920	90320896	33931656	24992
9	0.554474	121937920	90320896	34222040	24992
10	0.615641	121937920	90320896	34547448	24992
11	0.680343	121937920	90320896	34908808	24992
12	0.752777	121937920	90320896	35307000	24992
13	1.222129	121937920	90320896	35743976	24992
14	0.774037	121937920	90320896	36218848	24992
15	0.840817	121937920	90320896	36733488	24992
16	0.886867	121937920	90320896	37288912	24992
17	0.974044	121937920	90320896	37888056	24992
18	1.046418	121937920	90320896	38529872	24992
19	1.10017	121937920	90320896	39216512	24992
20	1.175341	121937920	90320896	39947712	24992
21	2.012286	121937920	90320896	40725016	24992
22	1.334766	121937920	90320896	41549240	24992
23	1.730959	121937920	90320896	42421480	24992
24	1.53031	121937920	90320896	43351688	24992
25	1.574371	121937920	90320896	44324952	24992
26	4.821196	123015168	90320896	31309632	24992
27	1.956399	123826176	90320896	32387952	24992
28	1.83654	123826176	90320896	33520136	24992
29	1.906296	123826176	90320896	34707176	24992
30	1.994213	123826176	90320896	35950152	24992
31	2.078623	123826176	90320896	37249912	24992
32	2.186266	123826176	90320896	38610248	24992
33	2.291342	123826176	90320896	40033616	24992
34	2.56471	123826176	90320896	41517040	24992
35	2.680321	123826176	90320896	43062816	24992
36	2.602228	123826176	90320896	44668800	24992
37	2.70708	123826176	90320896	46338016	24992
38	5.512041	123826176	90320896	32752208	24992
39	3.566565	123826176	90320896	34558256	24992
40	3.020765	123826176	90320896	36421240	24992
41	3.137198	123826176	90320896	38351024	24992
42	3.821022	123826176	90320896	40357488	24992
43	3.357569	123826176	90320896	42423344	24992
44	3.616211	123826176	90320896	44558808	24992
45	3.573124	123826176	90320896	46766248	24992
46	5.803347	123826176	90320896	33474904	24992
47	4.467995	123826176	90320896	35826992	24992
48	4.170755	123826176	90320896	38261648	24992
49	4.207821	123826176	90320896	40763120	24992
50	4.380935	123826176	90320896	43343040	24992
51	4.311733	123826176	90320896	46002672	24992
52	6.65325	123826176	90320896	33210632	24992
53	4.990259	123826176	90320896	36031480	24992
54	5.090593	123826176	90320896	38936096	24992
55	5.245928	123826176	90320896	41922192	24992
56	5.582302	123826176	90320896	44992248	24992
57	5.123012	123826176	90320896	48147344	24992
58	7.554827	123826176	90320896	35591824	24992
59	5.097361	123826176	90320896	38921240	24992
60	5.139104	123826176	90320896	42337656	24992
61	5.460596	123826176	90320896	45842720	24992
62	7.266303	123826176	90320896	33989216	24992
63	5.957285	123826176	90320896	37675176	24992
64	6.175864	123826176	90320896	41453184	24992
65	5.763958	123826176	90320896	45331992	24992
66	6.020631	123826176	90320896	49304440	24992
67	7.758111	123826176	90320896	37493992	24992
68	6.209855	123826176	90320896	41657200	24992
69	6.275411	123826176	90320896	45916912	24992
70	7.661828	123826176	90320896	50282616	24992
71	8.447689	123826176	90320896	38831488	24992
72	6.779136	123826176	90320896	43387448	24992
73	7.248005	123826176	90320896	48044704	24992
74	9.123866	123826176	90320896	37183984	24992
75	7.318271	123826176	90320896	42045560	24992
76	8.104474	123826176	90320896	47015648	24992
77	9.965625	123826176	90320896	36719408	24992
78	8.322415	123826176	90320896	41894000	24992
79	8.02178	123826176	90320896	47174880	24992
80	10.622959	123826176	90320896	37180544	24992
81	8.4687	123826176	90320896	42679952	24992
82	8.71258	123826176	90320896	48288216	24992
83	10.985492	123826176	90320896	38530480	24992
84	8.864834	123826176	90320896	44361528	24992
85	8.822665	123826176	90320896	50307096	24992
86	11.342164	123826176	90320896	40631800	24992
87	9.493106	123826176	90320896	46806120	24992
88	11.656179	123826176	90320896	37919264	24992
89	9.700489	123826176	90320896	44326352	24992
90	10.77581	123826176	90320896	50859768	24992
91	12.189537	123826176	90320896	41764128	24992
92	10.469763	123826176	90320896	48530544	24992
93	12.596435	123826176	90320896	40116008	24992
94	10.851622	123826176	90320896	47124776	24992
95	10.802152	123826176	90320896	54260216	24992
96	12.762923	123826176	90320896	45503360	24992
97	11.129387	123826176	90320896	52885888	24992
98	13.65286	123826176	90320896	44534568	24992
99	11.353171	123826176	90320896	52170376	24992
100	14.00627	123826176	90320896	44235464	24992
101	12.107025	123826176	90320896	52127872	24992
102	0.466287	123826176	90320896	44292040	24992
103	0.622164	123826176	90320896	44695656	24992
104	0.808985	123826176	90320896	45235360	24992
105	1.004642	123826176	90320896	45912176	24992
106	1.254904	123826176	90320896	46727648	24992
107	1.404653	123826176	90320896	47682080	24992
108	1.623342	123826176	90320896	48776616	24992
109	1.831244	123826176	90320896	50012064	24992
110	2.01538	123826176	90320896	51390480	24992
111	2.411762	123826176	90320896	52914456	24992
112	2.425288	123826176	90320896	54579696	24992
113	4.683707	123826176	90320896	40443720	24992
114	3.100168	123826176	90320896	42400208	24992
115	3.03989	123826176	90320896	44506664	24992
116	3.322482	123826176	90320896	46757304	24992
117	3.496048	123826176	90320896	49157104	24992
118	4.02319	123826176	90320896	51712056	24992
119	4.228858	123826176	90320896	54413936	24992
120	6.696471	123826176	90320896	41298008	24992
121	4.37386	123826176	90320896	44304736	24992
122	4.612584	123826176	90320896	47465032	24992
123	5.024189	123826176	90320896	50780088	24992
124	5.073713	123826176	90320896	54251232	24992
125	7.403204	123826176	90320896	41973944	24992
126	5.696708	123826176	90320896	45758664	24992
127	6.056736	123826176	90320896	49706336	24992
128	5.984694	123826176	90320896	53809048	24992
129	8.577659	123826176	90320896	42281760	24992
130	6.481327	123826176	90320896	46707392	24992
131	6.702065	123826176	90320896	51294672	24992
132	7.142197	123826176	90320896	56045472	24992
133	9.621063	123826176	90320896	44814336	24992
134	7.838299	123826176	90320896	49901728	24992
135	7.814676	123826176	90320896	55163400	24992
136	10.682514	123826176	90320896	44610864	24992
137	8.572673	123826176	90320896	50200784	24992
138	8.434953	123826176	90320896	55961968	24992
139	10.882305	123826176	90320896	45800856	24992
140	9.300001	123826176	90320896	51903560	24992
141	12.270087	123826176	90320896	42779952	24992
142	9.896143	123826176	90320896	49229760	24992
143	9.987685	123826176	90320896	55855392	24992
144	12.800747	123826176	90320896	46613720	24992
145	10.838898	123826176	90320896	53597400	24992
146	13.377313	123826176	90320896	45146248	24992
147	11.205765	123826176	90320896	52491528	24992
148	14.010425	123826176	90320896	44573840	24992
149	12.15619	123826176	90320896	52279088	24992
150	14.918003	123826176	90320896	44796904	24992
151	12.10328	123826176	90320896	52864928	24992
152	15.165908	123826176	90320896	45689096	24992
153	12.708761	123826176	90320896	54129304	24992
154	15.800723	123826176	90320896	47154672	24992
155	13.265707	123826176	90320896	55968064	24992
156	16.146643	123826176	90320896	49073520	24992
157	13.778496	123826176	90320896	58267152	24992
158	16.899064	123826176	90320896	51429928	24992
159	17.219439	123826176	90320896	45920704	24992
160	14.682898	123826176	90320896	55693936	24992
161	17.578826	123826176	90320896	49875744	24992
162	18.815686	123826176	90320896	45278648	24992
163	15.514274	123826176	90320896	55632688	24992
164	18.44904	123826176	90320896	50456640	24992
165	19.332232	123826176	90320896	46418128	24992
166	16.44622	123826176	90320896	57373904	24992
167	19.452161	123826176	90320896	52547600	24992
168	20.29509	123826176	90320896	48799072	24992
169	18.143355	123826176	90320896	60357168	24992
170	20.374236	123826176	90320896	55792592	24992
171	21.439907	123826176	90320896	52151504	24992
172	21.573887	123826176	90320896	49365912	24992
173	22.576854	123826176	90320896	47234600	24992
174	19.444203	123826176	90320896	59815264	24992
175	22.475355	123826176	90320896	56391560	24992
176	23.032897	123826176	90320896	53794720	24992
177	23.611107	123826176	90320896	51813832	24992
178	23.665715	123826176	90320896	50424768	24992
179	24.32498	123826176	90320896	49498496	24992
180	24.880223	123826176	90320896	48968928	24992
181	25.170834	123826176	90320896	48805392	24992
182	25.704857	123826176	90320896	48894096	24992
183	27.098025	123826176	90320896	49212432	24992
184	26.671632	123826176	90320896	49718792	24992
185	27.213284	123826176	90320896	50391152	24992
186	27.164749	123826176	90320896	51201832	24992
187	27.355858	123826176	90320896	52081008	24992
188	27.598275	123826176	90320896	53050856	24992
189	27.685589	123826176	90320896	54103392	24992
190	28.641739	123826176	90320896	55198824	24992
191	28.202108	123826176	90320896	56377048	24992
192	29.334956	123826176	90320896	57600032	24992
193	29.220804	123826176	90320896	58838760	24992
194	29.2118	123826176	90320896	60131816	24992
195	29.631596	123826176	90320896	61468896	24992
196	29.435836	123826176	90320896	62820520	24992
197	29.456231	123826176	90320896	64202568	24992
198	35.505187	123826176	90320896	52061576	24992
199	31.724342	123826176	90320896	55837760	24992
200	32.170058	123826176	90320896	59215520	24992
201	31.856784	123826176	90320896	62264000	24992
202	0.7646	123826176	90320896	65025480	24992
203	1.089505	123826176	90320896	65727184	24992
204	4.110213	123826176	90320896	50305928	24992
205	1.823137	123826176	90320896	51479456	24992
206	2.133143	123826176	90320896	52890904	24992
207	2.723775	123826176	90320896	54549064	24992
208	3.013002	123826176	90320896	56454776	24992
209	3.597431	123826176	90320896	58609288	24992
210	3.848753	123826176	90320896	61014160	24992
211	4.19163	123826176	90320896	63669624	24992
212	7.557264	123826176	90320896	50557048	24992
213	4.9568	123826176	90320896	53722232	24992
214	5.367456	123826176	90320896	57135016	24992
215	5.961393	123826176	90320896	60807544	24992
216	6.145531	123826176	90320896	64731592	24992
217	9.763881	123826176	90320896	52800008	24992
218	7.019358	123826176	90320896	57246336	24992
219	7.161379	123826176	90320896	61943024	24992
220	11.18341	123826176	90320896	51257712	24992
221	8.270987	123826176	90320896	56482008	24992
222	8.763167	123826176	90320896	61971168	24992
223	12.300422	123826176	90320896	52059464	24992
224	9.218865	123826176	90320896	58062992	24992
225	9.852899	123826176	90320896	64330896	24992
226	13.147489	123826176	90320896	54838272	24992
227	10.860863	123826176	90320896	61637240	24992
228	14.5543	123826176	90320896	53130176	24992
229	11.608053	123826176	90320896	60473976	24992
230	15.56515	123826176	90320896	52738024	24992
231	12.519448	123826176	90320896	60629368	24992
232	16.794195	123826176	90320896	53433344	24992
233	13.507275	123826176	90320896	61884744	24992
234	16.734165	123826176	90320896	55033192	24992
235	14.230757	123826176	90320896	64039488	24992
236	17.910566	123826176	90320896	57396568	24992
237	15.060027	123826176	90320896	66951296	24992
238	18.186282	123826176	90320896	60428496	24992
239	19.749824	123826176	90320896	55266144	24992
240	16.446709	123826176	90320896	65658312	24992
241	20.017514	123826176	90320896	60212344	24992
242	21.248664	123826176	90320896	55983616	24992
243	17.573508	123826176	90320896	67224688	24992
244	21.351147	123826176	90320896	62403968	24992
245	22.476665	123826176	90320896	58694168	24992
246	22.945287	123826176	90320896	55903064	24992
247	23.88176	123826176	90320896	53881824	24992
248	19.823424	123826176	90320896	66560792	24992
249	23.897524	123826176	90320896	63339128	24992
250	24.560964	123826176	90320896	60974040	24992
251	26.036244	123826176	90845184	59288032	24992
252	25.888067	123826176	90845184	58204304	24992
253	26.627521	124096512	90845184	57644816	24992
254	27.485108	124096512	90845184	57469768	24992
255	27.990359	124096512	90845184	57644552	24992
256	28.656091	124096512	90845184	58122128	24992
257	28.755369	124366848	90845184	58833632	24992
258	28.91531	124366848	91369472	59730864	24992
259	29.185687	124637184	91369472	60798344	24992
260	29.923464	124637184	91369472	61969248	24992
261	29.839128	124637184	91369472	63277312	24992
262	31.063768	124907520	91369472	64676104	24992
263	30.701239	124907520	91369472	66155272	24992
264	31.479923	124907520	91893760	67725672	24992
265	30.972624	125177856	91893760	69310744	24992
266	37.443721	125177856	91893760	57403880	24992
267	33.550733	125177856	91893760	61456752	24992
268	34.22639	125448192	91893760	65146848	24992
269	33.83395	125448192	92418048	68496584	24992
270	40.49332	125718528	92418048	58182528	24992
271	39.330205	127070208	93990912	66358664	24992
272	35.818929	127340544	94515200	71232184	24992
273	41.619753	127881216	95039488	62072872	24992
274	40.042761	130854912	97660928	71166920	24992
275	37.194582	131125248	98185216	76800816	24992
276	41.809041	131395584	98185216	68014040	24992
277	38.169233	131395584	98185216	74657096	24992
278	43.760907	131936256	98709504	67221648	24992
279	42.39262	134639616	101330944	77864032	24992
280	46.19062	135720960	102379520	71554952	24992
281	63.79382	138694656	105525248	82881200	24992
282	48.228185	125460480	92418048	30989448	24992
283	41.553395	125460480	92418048	25804136	24992
284	41.863503	125460480	92418048	37971136	24992
285	42.147568	125460480	92418048	32706272	24992
286	47.759062	125460480	92418048	33784560	24992
287	43.05146	125460480	92418048	46735880	24992
288	43.394054	125460480	92418048	42232664	24992
289	44.450155	125460480	92418048	39253336	24992
290	48.749816	126001152	92418048	41494376	24992
291	45.483603	126001152	92418048	55788840	24992
292	44.800513	126001152	92418048	52373224	24992
293	46.956523	126001152	92418048	50201240	24992
294	51.897457	126541824	92942336	53846440	24992
295	57.05447	127352832	93990912	57619928	24992
296	71.089228	118501376	87175168	30968912	24992
297	53.274456	120389632	87175168	34558840	24992
298	54.994343	120389632	87175168	39324712	24992
299	54.29016	120389632	87175168	44476840	24992
300	54.993309	120389632	87175168	49953008	24992
301	58.322237	120659968	87175168	55775840	24992
302	1.476163	121200640	87699456	45735176	24992
303	1.57261	121200640	87699456	46762768	24992
304	2.082961	121200640	87699456	48134472	24992
305	2.676276	121200640	87699456	49851280	24992
306	3.272766	121200640	87699456	51914768	24992
307	3.951644	121200640	87699456	54325168	24992
308	4.503472	121200640	87699456	57083720	24992
309	5.011748	121200640	87699456	60191504	24992
310	5.884917	121200640	87699456	47482944	24992
311	6.280365	121200640	87699456	51292128	24992
312	6.585761	121200640	87699456	55459744	24992
313	7.284122	121200640	87699456	59974440	24992
314	9.095532	121200640	87699456	48780712	24992
315	8.398889	121200640	87699456	54005784	24992
316	8.784304	121200640	87699456	59594536	24992
317	10.268212	121200640	87699456	49526984	24992
318	10.016895	121200640	87699456	55824144	24992
319	11.537506	121200640	87699456	47161744	24992
320	11.105349	121200640	87699456	54176560	24992
321	11.960966	121200640	87699456	61554704	24992
322	12.687522	121200640	87699456	52990032	24992
323	12.924189	121200640	87699456	61093920	24992
324	14.480132	121200640	87699456	53322656	24992
325	14.057948	121200640	87699456	62149648	24992
326	15.111643	121200640	87699456	54945080	24992
327	16.554525	121200640	87699456	49355328	24992
328	15.768361	121200640	87699456	59296856	24992
329	17.649055	121200640	87699456	53720944	24992
330	18.640071	121200640	87699456	49524632	24992
331	17.858698	121200640	87699456	60564664	24992
332	19.13528	121200640	87699456	55880848	24992
333	20.163551	121200640	87699456	52420696	24992
334	21.170282	121200640	87699456	49920888	24992
335	20.155098	121200640	87699456	62457408	24992
336	21.246173	121200640	87699456	58989080	24992
337	22.52264	121200640	87699456	56505552	24992
338	23.422228	121200640	87699456	54851432	24992
339	25.086606	121200640	87699456	53856048	24992
340	25.334574	121200640	87699456	53451976	24992
341	26.083179	121200640	87699456	53487776	24992
342	26.293419	121200640	87699456	53905144	24992
343	26.813639	121200640	87699456	54649800	24992
344	27.436768	121200640	87699456	55634048	24992
345	28.044585	121200640	87699456	56873992	24992
346	28.448245	121200640	87699456	58274664	24992
347	28.847924	121200640	87699456	59818048	24992
348	29.238677	121200640	87699456	61527552	24992
349	29.863712	121200640	87699456	63332352	24992
350	32.750629	121200640	87699456	51687864	24992
351	31.880022	121200640	87699456	56026392	24992
352	32.284049	121200640	87699456	60007816	24992
353	32.804109	121200640	87699456	63676808	24992
354	35.595901	121200640	87699456	53615120	24992
355	35.030684	121200640	87699456	59208448	24992
356	34.675137	121200640	87699456	64222544	24992
357	37.89304	121200640	87699456	55276392	24992
358	36.0213	121200640	87699456	61848840	24992
359	39.495025	121200640	87699456	54487672	24992
360	48.486393	121741312	88223744	65356752	24992
361	57.072791	119136256	85602304	29300344	24992
362	47.008995	119136256	85602304	28338656	24992
363	47.007318	119136256	85602304	28459472	24992
364	41.736904	119136256	85602304	40618672	24992
365	42.764298	119136256	85602304	35908496	24992
366	48.117526	119136256	85602304	37465496	24992
367	45.584034	119136256	85602304	50866504	24992
368	44.85444	119136256	85602304	46857208	24992
369	50.916319	119406592	86126592	49675352	24992
370	57.097175	119676928	86650880	52621096	24992
371	70.352649	117239808	85602304	27609352	24992
372	54.162345	119128064	85602304	30836752	24992
373	52.739743	119128064	85602304	35001512	24992
374	54.839747	119128064	85602304	39651200	24992
375	56.115286	119128064	85602304	44727960	24992
376	54.996839	119128064	85602304	50180256	24992
377	56.147374	119668736	86126592	56029848	24992
378	57.986971	121290752	87699456	62282784	24992
379	83.819672	121454592	90320896	25721776	24992
380	58.0165	123883520	90320896	31963304	24992
381	57.796593	123883520	90320896	39472696	24992
382	58.860359	123883520	90320896	47402088	24992
383	64.061699	123883520	90320896	44239968	24992
384	59.93206	123883520	90320896	53019800	24992
385	61.033645	124424192	90845184	62245504	24992
386	83.092349	127938560	94515200	60402328	24992
387	69.035285	122761216	89272320	24094080	24992
388	64.134183	122761216	89272320	34527992	24992
389	64.167456	122761216	89272320	45639160	24992
390	68.832181	122761216	89272320	45688616	24992
391	65.116067	122761216	89272320	57638704	24992
392	71.915668	122761216	89272320	58465800	24992
393	97.145572	120508416	89272320	29487960	24992
394	66.973618	122396672	89272320	41857480	24992
395	72.327187	122396672	89272320	43808464	24992
396	72.508704	122396672	89272320	46265680	24992
397	68.750654	122396672	89272320	60626752	24992
398	73.718776	122937344	89272320	63948272	24992
399	83.476011	129425408	96088064	67677816	24992
400	93.29285	126763008	93466624	35952520	24992
401	75.820725	126763008	93466624	40787344	24992
402	1.440861	126763008	93466624	46085672	24992
403	2.111254	126763008	93466624	47419112	24992
404	2.791886	126763008	93466624	49198720	24992
405	3.709767	126763008	93466624	51431472	24992
406	7.829772	126763008	93466624	41422448	24992
407	5.048807	126763008	93466624	44546544	24992
408	5.626064	126763008	93466624	48133608	24992
409	6.550498	126763008	93466624	52158760	24992
410	8.794636	126763008	93466624	41798688	24992
411	7.738259	126763008	93466624	46729376	24992
412	8.689182	126763008	93466624	52120064	24992
413	10.156983	126763008	93466624	42101328	24992
414	10.087843	126763008	93466624	48398712	24992
415	10.800284	126763008	93466624	55161296	24992
416	11.709029	126763008	93466624	45948040	24992
417	12.151625	126763008	93466624	53634024	24992
418	13.347851	126763008	93466624	45640464	24992
419	13.660305	126763008	93466624	54282256	24992
420	14.970513	126763008	93466624	47162480	24992
421	16.25023	126763008	93466624	41783600	24992
422	15.952997	126763008	93466624	51892392	24992
423	17.736187	126763008	93466624	46610688	24992
424	18.952974	126763008	93466624	42765760	24992
425	18.150358	126763008	93466624	54310392	24992
426	19.341305	126763008	93466624	50074008	24992
427	21.126011	126763008	93466624	47069120	24992
428	21.464408	126763008	93466624	45077176	24992
429	23.040271	126763008	93466624	43929400	24992
430	24.319394	126763008	93466624	43499808	24992
431	24.568256	126763008	93466624	43657296	24992
432	25.821186	126763008	93466624	44250264	24992
433	26.361687	126763008	93466624	45220216	24992
434	27.905877	126763008	93466624	46507256	24992
435	27.768896	126763008	93466624	48104640	24992
436	28.231932	126763008	93466624	49885392	24992
437	28.470066	126763008	93466624	51859520	24992
438	30.063508	126763008	93466624	53993080	24992
439	32.09968	126763008	93466624	42922960	24992
440	34.582831	126763008	93466624	50430288	24992
441	32.322728	126763008	93466624	54897672	24992
442	32.166218	126763008	93466624	59042168	24992
443	35.027777	126763008	93466624	49428192	24992
444	34.098261	126763008	93466624	55568544	24992
445	37.221589	126763008	93466624	48036704	24992
446	39.036234	126763008	93466624	58570296	24992
447	38.882527	126763008	93466624	52447816	24992
448	40.188611	127033344	93466624	63947192	24992
449	40.622213	127033344	93466624	58439360	24992
450	51.865418	127033344	93466624	59274816	24992
451	62.987954	122470400	90845184	25887512	24992
452	48.510199	124358656	90845184	26366696	24992
453	44.676032	124358656	90845184	40136584	24992
454	44.502694	124358656	90845184	36503728	24992
455	45.310807	124358656	90845184	34299312	24992
456	50.34562	124358656	90845184	38095968	24992
457	52.102108	124358656	90845184	42171376	24992
458	52.050185	124358656	90845184	46778896	24992
459	53.023373	124358656	90845184	51882496	24992
460	54.045377	124358656	90845184	57529728	24992
461	76.710593	127873024	94515200	63672104	24992
462	60.227239	125628416	92418048	37435152	24992
463	62.710164	125628416	92418048	33033232	24992
464	57.226337	125628416	92418048	40807392	24992
465	57.683794	125628416	92418048	49088576	24992
466	58.403982	125628416	92418048	57885984	24992
467	63.991267	125628416	92418048	55511760	24992
468	61.994104	125898752	92418048	65314384	24992
469	89.669556	124665856	93466624	30605672	24992
470	62.814912	126554112	93466624	40492512	24992
471	67.170015	126554112	93466624	40214176	24992
472	63.843822	126554112	93466624	52041000	24992
473	68.52973	126554112	93466624	52845944	24992
474	70.125709	126554112	93466624	54137600	24992
475	67.35452	127094784	93466624	67697040	24992
476	97.168013	127377408	96088064	37132088	24992
477	72.085051	129265664	96088064	38893608	24992
478	73.663556	129265664	96088064	42332752	24992
479	72.838649	129265664	96088064	46421624	24992
480	70.183634	129265664	96088064	62580488	24992
481	71.652124	129265664	96088064	67660224	24992
482	100.525993	126926848	95563776	25793960	24992
483	76.844239	128815104	95563776	30581416	24992
484	78.104316	128815104	95563776	37226120	24992
485	78.187401	128815104	95563776	44436296	24992
486	79.820403	128815104	95563776	52272312	24992
487	85.15653	129085440	95563776	60471752	24992
488	101.396565	124321792	90845184	38061584	24992
489	85.803211	124321792	90845184	35921128	24992
490	82.541778	124321792	90845184	45811776	24992
491	82.756773	124321792	90845184	56267216	24992
492	85.214661	124321792	90845184	67345528	24992
493	113.898433	127418368	93990912	34448024	24992
494	85.554081	127418368	93990912	46749464	24992
495	91.389714	127418368	93990912	47731208	24992
496	88.134374	127418368	93990912	60865320	24992
497	93.498717	127688704	93990912	62966032	24992
498	122.919808	128016384	94515200	31825504	24992
499	90.208862	128016384	94515200	46756232	24992
500	95.697328	128016384	94515200	50591392	24992
501	95.981144	128016384	94515200	54943992	24992
502	1.742648	129097728	96088064	71880912	24992
503	2.536964	129097728	96088064	73556320	24992
504	8.269439	131530752	98709504	63626376	24992
505	4.598526	131530752	98709504	66439896	24992
506	5.680314	131530752	98709504	69798856	24992
507	6.548562	131530752	98709504	73732808	24992
508	11.643685	133152768	100282368	63995360	24992
509	8.430026	133423104	100282368	69059744	24992
510	12.864703	133423104	100282368	74693928	24992
511	19.479509	123502592	90845184	14063520	24992
512	11.492009	123502592	90845184	20824000	24992
513	12.943728	123502592	90845184	28150608	24992
514	13.930501	123768832	90845184	20116640	24992
515	13.179105	123768832	90845184	28592368	24992
516	14.378536	123768832	90845184	21551496	24992
517	16.43203	123768832	90845184	16224840	24992
518	15.505144	123768832	90845184	26419088	24992
519	17.696803	123768832	90845184	21424584	24992
520	18.971441	123768832	90845184	17930648	24992
521	18.630998	123768832	90845184	29861792	24992
522	19.834125	123768832	90845184	26006480	24992
523	21.476163	123768832	90845184	23432344	24992
524	22.735381	123768832	90845184	21868560	24992
525	23.765097	123768832	90845184	21138256	24992
526	24.528163	123768832	90845184	21198696	24992
527	25.870477	123768832	90845184	21833928	24992
528	26.457685	123768832	90845184	22936392	24992
529	27.429848	123768832	90845184	24440104	24992
530	28.349729	123768832	90845184	26271176	24992
531	29.058888	123768832	90845184	28370376	24992
532	29.568805	123768832	90845184	30691984	24992
533	33.009771	123768832	90845184	19644248	24992
534	32.431398	123768832	90845184	24706000	24992
535	32.945182	123768832	90845184	29521320	24992
536	35.501125	123768832	90845184	20682824	24992
537	38.52966	123768832	90845184	30681888	24992
538	38.736008	124309504	90845184	24166944	24992
539	40.179241	124309504	90845184	35286488	24992
540	40.557702	124309504	90845184	29623008	24992
541	47.306539	124309504	90845184	30269912	24992
542	42.250616	124309504	90845184	42923824	24992
543	43.489457	124309504	90845184	38937800	24992
544	50.457289	124309504	90845184	41295968	24992
545	50.670369	128634880	95563776	44138800	24992
546	50.698273	131067904	98185216	59201968	24992
547	56.213519	112250880	78786560	28998440	24992
548	45.986282	112250880	78786560	26812080	24992
549	47.279635	112250880	78786560	25849288	24992
550	55.729167	112250880	78786560	31876448	24992
551	56.31655	112250880	78786560	38248368	24992
552	60.531503	112250880	78786560	33605040	24992
553	56.578483	112521216	78786560	41200160	24992
554	58.068976	112521216	78786560	49407168	24992
555	79.579182	114413568	80883712	58164656	24992
556	71.53678	119279616	85602304	28974176	24992
557	61.031174	119279616	85602304	38914696	24992
558	61.095319	119279616	85602304	49521680	24992
559	66.994534	119279616	85602304	49176136	24992
560	62.91759	119279616	85602304	61037152	24992
561	69.860733	125227008	91893760	62032992	24992
562	67.832868	129822720	96612352	75027696	24992
563	100.314971	123187200	90320896	27296400	24992
564	68.395658	123187200	90320896	41778448	24992
565	72.741546	123457536	90320896	45271744	24992
566	73.181939	123457536	90320896	49244568	24992
567	75.748391	123457536	90320896	53853728	24992
568	77.149525	125620224	92418048	59145616	24992
569	105.213971	123187200	92418048	32464216	24992
570	78.142774	125616128	92418048	38056064	24992
571	79.909786	125616128	92418048	45258608	24992
572	80.334887	125616128	92418048	53032240	24992
573	80.97557	125616128	92418048	61455800	24992
574	82.880622	128860160	95563776	70519280	24992
575	112.763943	130744320	97136640	32607024	24992
576	83.312453	130744320	97136640	43072304	24992
577	85.102882	130744320	97136640	54076576	24992
578	89.712029	130744320	97136640	54017512	24992
579	86.819691	130744320	97136640	66394312	24992
580	114.021292	123719680	92418048	31610296	24992
581	91.854533	125607936	92418048	32022584	24992
582	91.514663	125607936	92418048	46141608	24992
583	94.384048	125607936	92418048	49338064	24992
584	92.612236	125878272	92418048	64797752	24992
585	123.999355	124903424	91369472	38153720	24992
586	98.449402	124903424	91369472	43317544	24992
587	100.851354	124903424	91369472	49048328	24992
588	96.210505	124903424	91369472	67085568	24992
589	113.768299	131391488	98185216	74135000	24992
590	122.340525	131104768	97660928	33834912	24992
591	103.855954	131104768	97660928	42148168	24992
592	104.647904	131104768	97660928	51124384	24992
593	104.947578	131104768	97660928	60831536	24992
594	138.2886	126521344	92942336	38876944	24992
595	108.475592	126521344	92942336	49918824	24992
596	106.730523	126521344	92942336	61635640	24992
597	113.190458	129224704	96088064	62250208	24992
598	137.3909	128036864	96612352	24506072	24992
599	111.463361	129925120	96612352	36751840	24992
600	112.43957	129925120	96612352	51000160	24992
601	118.577322	129925120	96612352	54240136	24992
602	7.685278	126373888	93990912	23475792	24992
603	3.666744	125325312	93990912	25484072	24992
604	4.036975	125325312	93990912	28142360	24992
605	6.008364	125325312	93990912	31474328	24992
606	7.124403	125325312	93990912	35489656	24992
607	9.167929	127483904	93990912	25234032	24992
608	8.170744	127483904	93990912	30571944	24992
609	9.170161	127483904	93990912	36566728	24992
610	11.090172	127483904	93990912	27314480	24992
611	11.385243	127483904	93990912	34652024	24992
612	13.172742	127483904	93990912	27052104	24992
613	13.349463	127483904	93990912	35740184	24992
614	15.180383	127483904	93990912	29305496	24992
615	15.556841	127483904	93990912	39343576	24992
616	16.696343	127483904	93990912	33607576	24992
617	18.835997	127483904	93990912	29568944	24992
618	20.025396	127483904	93990912	26945320	24992
619	22.156188	127483904	93990912	25463208	24992
620	20.79053	127483904	93990912	38901856	24992
621	21.717038	127483904	93990912	36650192	24992
622	23.83799	127483904	93990912	35473112	24992
623	24.950028	127483904	93990912	35161200	24992
624	26.10678	127483904	93990912	35669664	24992
625	27.296407	127483904	93990912	36744040	24992
626	27.998825	127483904	93990912	38262792	24992
627	31.75858	127483904	93990912	26981200	24992
628	34.057945	127483904	93990912	34634056	24992
629	32.096843	127483904	93990912	39204880	24992
630	35.17663	127483904	93990912	30581112	24992
631	36.579269	127483904	93990912	40242040	24992
632	38.731185	127483904	93990912	33890352	24992
633	39.291818	127483904	93990912	44829824	24992
634	40.415108	127483904	93990912	39568472	24992
635	42.202425	127483904	93990912	51965200	24992
636	41.745484	127483904	93990912	47296912	24992
637	49.197735	127483904	93990912	49467448	24992
638	50.004595	127483904	93990912	52195048	24992
639	49.943322	127483904	93990912	55557160	24992
640	48.272849	127483904	93990912	71185888	24992
641	65.763986	121552896	90320896	20879088	24992
642	54.422183	123981824	90320896	25544288	24992
643	53.389793	123981824	90320896	31693208	24992
644	55.052163	123981824	90320896	38507344	24992
645	57.921135	123981824	90320896	45975584	24992
646	58.263834	123981824	90320896	54215976	24992
647	62.920337	123981824	90320896	51530760	24992
648	80.208929	124522496	90845184	61268424	24992
649	69.560933	122761216	89272320	29456208	24992
650	61.943769	122761216	89272320	40575088	24992
651	65.848405	122761216	89272320	40702760	24992
652	64.615037	122761216	89272320	53196840	24992
653	69.88447	122761216	89272320	54810016	24992
654	67.40111	123842560	90845184	68659000	24992
655	97.360053	122580992	91369472	23724680	24992
656	74.658648	124739584	91369472	26241760	24992
657	70.295945	124739584	91369472	42221120	24992
658	74.559654	124739584	91369472	47448664	24992
659	75.496871	124739584	91369472	53401616	24992
660	78.280956	124739584	91369472	60023248	24992
661	106.934314	123203584	91893760	36622536	24992
662	79.208508	125091840	91893760	44228936	24992
663	81.711562	125091840	91893760	53080288	24992
664	87.018486	125091840	91893760	51065120	24992
665	84.81015	125091840	91893760	61522768	24992
666	92.674163	131309568	97660928	72503656	24992
667	107.663273	129196032	95563776	35326528	24992
668	85.486087	129196032	95563776	47716328	24992
669	92.798817	129196032	95563776	49246208	24992
670	90.095847	129196032	95563776	63212240	24992
671	100.579668	130007040	96612352	66133688	24992
672	118.631776	126005248	92418048	35878664	24992
673	97.044963	126005248	92418048	40358224	24992
674	93.426337	126005248	92418048	57134016	24992
675	97.035004	126005248	92418048	63094056	24992
676	127.856105	128049152	96612352	22355384	24992
677	99.063487	129937408	96612352	40282640	24992
678	102.660564	129937408	96612352	48472784	24992
679	103.941938	129937408	96612352	57350160	24992
680	110.055223	131559424	98185216	66955320	24992
681	134.133561	122777600	89272320	33385216	24992
682	107.095049	122777600	89272320	44588184	24992
683	108.323638	122777600	89272320	56403840	24992
684	112.221328	127913984	94515200	68959784	24992
685	144.34013	129617920	96088064	36558136	24992
686	113.153677	129617920	96088064	50614912	24992
687	117.173605	129617920	96088064	54001464	24992
688	115.598556	131239936	98185216	69654072	24992
689	139.640894	125349888	91893760	32203944	24992
690	122.734401	125349888	91893760	38076080	24992
691	118.09716	125349888	91893760	55978976	24992
692	129.355778	125890560	92418048	63037072	24992
693	150.371319	123371520	89796608	41730920	24992
694	126.41172	123371520	89796608	50313120	24992
695	128.235498	125263872	91893760	59615632	24992
696	155.018791	128761856	98185216	33672480	24992
697	130.688016	131190784	98185216	43162696	24992
698	131.295968	131190784	98185216	54678768	24992
699	132.795458	131461120	98185216	66987904	24992
700	168.246631	126504960	92942336	37216328	24992
701	135.110839	126504960	92942336	50960520	24992
702	2.304062	128667648	95563776	66265328	24992
703	3.690071	128667648	95563776	68549280	24992
704	4.588384	128667648	95563776	71591968	24992
705	9.445012	131100672	97660928	62567208	24992
706	7.085874	131100672	97660928	67141664	24992
707	8.352087	131100672	97660928	72478768	24992
708	10.985101	131911680	98709504	63600288	24992
709	10.479339	131911680	98709504	70474088	24992
710	12.68103	131911680	98709504	62993448	24992
711	13.054975	131911680	98709504	71412288	24992
712	15.432057	131911680	98709504	65307744	24992
713	15.396863	131911680	98709504	75286272	24992
714	17.602055	131911680	98709504	69960560	24992
715	18.966319	131911680	98709504	66389528	24992
716	20.501585	131911680	98709504	64259400	24992
717	20.128182	131911680	98709504	77305128	24992
718	21.745423	131911680	98709504	74788760	24992
719	23.491496	131911680	98709504	73476696	24992
720	25.228978	131911680	98709504	73209400	24992
721	25.964715	131911680	98709504	73722704	24992
722	27.516809	131911680	98709504	74904592	24992
723	28.167495	131911680	98709504	76719688	24992
724	31.645475	132182016	98709504	65601192	24992
725	35.256195	135155712	101855232	73705896	24992
726	32.700432	135155712	101855232	78806536	24992
727	36.638241	135696384	102379520	70510808	24992
728	52.177982	138399744	105000960	80961960	24992
729	48.032973	128864256	95563776	21771984	24992
730	42.145293	128864256	95563776	33695536	24992
731	41.626148	128864256	95563776	28777440	24992
732	47.599021	128864256	95563776	30766072	24992
733	49.608633	128864256	95563776	33273600	24992
734	46.327716	128864256	95563776	48120960	24992
735	45.506621	128864256	95563776	45757560	24992
736	48.301867	128864256	95563776	45033856	24992
737	54.006554	128864256	95563776	50805560	24992
738	56.172874	128864256	95563776	57293400	24992
739	63.479033	129675264	96088064	64499480	24992
740	74.880415	120283136	86650880	29082208	24992
741	59.463888	120283136	86650880	38042904	24992
742	64.824465	120283136	86650880	36294312	24992
743	60.589223	120283136	86650880	46674968	24992
744	66.312596	120283136	86650880	46447280	24992
745	63.950145	120283136	86650880	58552456	24992
746	94.508838	122511360	91369472	29083504	24992
747	67.343176	124399616	91369472	42318248	24992
748	72.85455	124399616	91369472	45498872	24992
749	72.800702	124399616	91369472	49249024	24992
750	73.904164	124669952	91369472	53926136	24992
751	76.41136	125751296	92418048	59395384	24992
752	106.884084	127823872	96612352	33175936	24992
753	78.658194	129712128	96612352	39114392	24992
754	81.576028	129712128	96612352	46958360	24992
755	80.702643	129712128	96612352	55582912	24992
756	81.974502	129712128	96612352	65007488	24992
757	85.048823	130252800	96612352	75308248	24992
758	114.664104	131891200	98185216	38079488	24992
759	91.825442	131891200	98185216	38650128	24992
760	89.50543	131891200	98185216	51267000	24992
761	93.271974	131891200	98185216	53389760	24992
762	91.524206	131891200	98185216	67644040	24992
763	121.633418	130457600	97136640	36752016	24992
764	96.73415	130457600	97136640	41280184	24992
765	94.175061	130457600	97136640	57998584	24992
766	99.968311	130457600	97136640	64151184	24992
767	107.442195	132620288	99233792	70967528	24992
768	125.468237	130736128	97660928	41664528	24992
769	104.973121	130736128	97660928	50230648	24992
770	103.981774	130736128	97660928	59602944	24992
771	106.954466	130736128	97660928	69859912	24992
772	133.210512	126746624	93466624	30458088	24992
773	109.003088	126746624	93466624	42560648	24992
774	116.220267	126746624	93466624	43824336	24992
775	111.914269	126746624	93466624	57314672	24992
776	144.135768	125431808	91893760	42895320	24992
777	119.106275	125431808	91893760	46677096	24992
778	115.173723	125431808	91893760	62745264	24992
779	121.372149	133001216	99758080	68211392	24992
780	143.830655	128856064	96088064	30819144	24992
781	125.947611	129126400	96088064	38216248	24992
782	121.918627	129126400	96088064	57535272	24992
783	133.444229	129667072	96612352	66401336	24992
784	154.814077	124837888	91369472	45176304	24992
785	128.34641	124837888	91369472	55593432	24992
786	130.411168	125648896	92418048	66831392	24992
787	157.376516	129511424	96088064	28496888	24992
788	133.115372	129511424	96088064	41705144	24992
789	133.669858	129511424	96088064	55430256	24992
790	166.460789	121204736	90320896	26401248	24992
791	137.534599	123904000	90320896	41235928	24992
792	138.126245	123904000	90320896	57441080	24992
793	140.50169	131473408	98709504	74480056	24992
794	168.601793	123699200	90320896	27884800	24992
795	142.040487	123699200	90320896	46674992	24992
796	163.595801	128024576	94515200	55099000	24992
797	172.786747	124514304	90845184	47345544	24992
798	151.523077	124514304	90845184	57365232	24992
799	154.085093	134787072	101855232	67990400	24992
800	169.847842	119250944	86126592	36949120	24992
801	155.041038	119250944	86126592	49270560	24992
802	2.983285	121413632	88223744	63396136	24992
803	4.331635	121413632	88223744	65969488	24992
804	15.838816	124116992	90845184	57098008	24992
805	12.000446	124116992	90845184	61391664	24992
806	17.444579	124116992	90845184	66547296	24992
807	18.056776	123117568	91369472	33340216	24992
808	10.835677	123117568	91369472	40240856	24992
809	12.938704	124465152	91369472	32183560	24992
810	13.431905	124465152	91369472	40817856	24992
811	15.502747	124465152	91369472	34276392	24992
812	17.194398	124465152	91369472	29876240	24992
813	17.123102	124465152	91369472	41107592	24992
814	19.753361	124465152	91369472	37163464	24992
815	21.604114	124465152	91369472	34897128	24992
816	23.351574	124465152	91369472	33810152	24992
817	24.184218	124465152	91369472	33901000	24992
818	26.199979	124465152	91369472	34775192	24992
819	27.185533	124465152	91369472	36342528	24992
820	28.716535	124465152	91369472	38600008	24992
821	29.700751	124465152	91369472	41249768	24992
822	33.799225	124465152	91369472	31236264	24992
823	36.327903	124465152	91369472	39954768	24992
824	34.350454	124465152	91369472	45657416	24992
825	37.362473	124465152	91369472	37963376	24992
826	39.78099	124465152	91369472	49487664	24992
827	41.592079	124465152	91369472	44110032	24992
828	43.707401	124465152	91369472	40914392	24992
829	43.488272	124465152	91369472	54864208	24992
830	44.407564	124465152	91369472	51418104	24992
831	46.778098	124465152	91369472	49833320	24992
832	52.326371	124465152	91369472	55058680	24992
833	54.73022	124465152	91369472	60832296	24992
834	56.268436	125276160	91893760	67474176	24992
835	57.50315	129871872	96612352	75116608	24992
836	69.546253	137170944	104476672	72146288	24992
837	82.137461	126083072	92942336	27855160	24992
838	62.126882	126353408	92942336	38381544	24992
839	66.1455	126353408	92942336	38132160	24992
840	62.304606	126353408	92942336	50303920	24992
841	67.836874	126353408	92942336	51744256	24992
842	66.217378	126353408	92942336	65665224	24992
843	99.427524	122982400	91893760	23388936	24992
844	72.994001	125411328	91893760	26471904	24992
845	69.537237	125411328	91893760	43090264	24992
846	75.953342	125411328	91893760	49135136	24992
847	77.56175	125411328	91893760	56063888	24992
848	83.766904	125952000	92418048	64064136	24992
849	103.991539	125034496	91369472	30289232	24992
850	82.117667	125034496	91369472	39957024	24992
851	82.256126	125034496	91369472	50699072	24992
852	83.840962	125034496	91369472	62265184	24992
853	94.996317	126386176	92942336	63198544	24992
854	112.591208	125620224	92418048	31130120	24992
855	89.341154	125620224	92418048	45408960	24992
856	93.838669	125620224	92418048	49260216	24992
857	92.506702	125620224	92418048	65547704	24992
858	104.185539	130486272	97136640	71150784	24992
859	117.282126	128716800	95563776	40756936	24992
860	98.952389	128716800	95563776	48368168	24992
861	99.284209	128716800	95563776	56802136	24992
862	104.847091	128716800	95563776	66264728	24992
863	130.189754	126980096	93466624	26760208	24992
864	107.005574	126980096	93466624	38296704	24992
865	108.211057	126980096	93466624	50519176	24992
866	109.136401	126980096	93466624	63749776	24992
867	138.061391	124624896	91369472	32333992	24992
868	115.221117	124895232	91369472	35988536	24992
869	111.673487	124895232	91369472	52050056	24992
870	126.728523	125435904	91893760	57475144	24992
871	132.276757	121470976	88223744	44347768	24992
872	121.154417	121741312	88223744	51526504	24992
873	123.279616	124715008	91369472	59780384	24992
874	151.741395	126771200	95563776	32015400	24992
875	126.994884	128659456	95563776	41239680	24992
876	128.39927	128659456	95563776	52364256	24992
877	129.04919	129200128	95563776	64484840	24992
878	163.53382	128487424	95039488	45748552	24992
879	129.960446	128757760	95039488	59715176	24992
880	135.145256	129839104	96612352	63088200	24992
881	167.034496	132243456	100806656	27082960	24992
882	141.26853	144674816	112340992	42712520	24992
883	139.189926	156839936	125448192	60604104	24992
884	145.811955	171438080	141176832	67709280	24992
885	166.930697	94539776	60960768	33926384	24992
886	149.514371	106434560	73019392	43116672	24992
887	153.95924	118599680	85078016	64914560	24992
888	184.138191	109277184	75640832	47171568	24992
889	152.443327	120901632	87699456	59047056	24992
890	155.837558	135499776	102379520	72145432	24992
891	172.564532	100548608	67252224	30677888	24992
892	157.375398	108658688	75116544	45581232	24992
893	176.267022	123256832	89796608	61554552	24992
894	184.278904	112852992	79310848	47784608	24992
895	161.994452	123396096	89796608	65830072	24992
896	174.258552	140427264	107098112	73072224	24992
897	198.227999	116568064	82980864	44170816	24992
898	165.143109	125218816	91893760	65048400	24992
899	178.96764	142249984	109195264	75289456	24992
900	204.450374	118452224	85078016	48069472	24992
901	170.664361	125480960	92418048	71834168	24992
902	5.439416	142782464	109195264	85778448	24992
903	17.450421	145215488	111816704	76759152	24992
904	16.333492	139538432	86650880	30038280	24992
905	8.986938	118042624	86650880	34987232	24992
906	9.994738	118042624	86650880	40887608	24992
907	11.698236	119930880	86650880	32226416	24992
908	12.203188	119930880	86650880	40129808	24992
909	14.850323	119930880	86650880	33570832	24992
910	14.939584	119930880	86650880	43452744	24992
911	17.162568	119930880	86650880	38236456	24992
912	19.359956	119930880	86650880	35041576	24992
913	20.924409	119930880	86650880	33327360	24992
914	22.391608	119930880	86650880	32945200	24992
915	24.267124	119930880	86650880	33590800	24992
916	25.423121	119930880	86650880	35167800	24992
917	27.113173	119930880	86650880	37434968	24992
918	28.810861	119930880	86650880	40326632	24992
919	29.79147	119930880	86650880	43721480	24992
920	33.344009	119930880	86650880	34236040	24992
921	35.769047	119930880	86650880	43776760	24992
922	37.256899	119930880	86650880	37429216	24992
923	39.378349	119930880	86650880	48981472	24992
924	41.534758	119930880	86650880	44283992	24992
925	45.851742	119930880	86650880	46159360	24992
926	43.878384	119930880	86650880	60460552	24992
927	44.126956	119930880	86650880	57657280	24992
928	45.955021	119930880	86650880	56745120	24992
929	52.867441	120741888	87175168	62587232	24992
930	54.432091	125607936	92418048	69325720	24992
931	59.964725	133177344	99758080	65562392	24992
932	59.485368	137773056	104476672	74274168	24992
933	87.642996	117710848	86126592	30688096	24992
934	63.030288	119599104	86126592	39969808	24992
935	65.38413	119599104	86126592	40206376	24992
936	63.464067	119599104	86126592	52992784	24992
937	67.919514	119599104	86126592	55211856	24992
938	72.621436	121491456	88223744	58556056	24992
939	79.588908	129060864	95563776	62801248	24992
940	93.721448	122449920	89272320	32278872	24992
941	77.512404	122449920	89272320	38937752	24992
942	76.307175	122720256	89272320	46234944	24992
943	77.113762	122720256	89272320	54507512	24992
944	78.772867	123260928	89796608	63989032	24992
945	97.739059	128667648	95563776	74805592	24992
946	97.097961	124321792	90845184	38781472	24992
947	88.984533	124321792	90845184	39781032	24992
948	83.966085	124321792	90845184	53237672	24992
949	90.730618	124321792	90845184	56465216	24992
950	119.4555	120672256	89272320	27357608	24992
951	97.282383	122560512	89272320	31494296	24992
952	91.862481	122560512	89272320	49141168	24992
953	97.372669	122560512	89272320	56449904	24992
954	110.1874	123912192	90845184	64726528	24992
955	123.519591	126115840	92418048	43163064	24992
956	106.137997	126115840	92418048	41883608	24992
957	103.697169	126115840	92418048	53195976	24992
958	107.310156	128008192	94515200	65402840	24992
959	145.508207	129699840	96612352	33820048	24992
960	110.568819	129699840	96612352	48216416	24992
961	110.136953	129699840	96612352	63779896	24992
962	115.36068	132132864	98709504	68865688	24992
963	139.996432	126640128	93466624	32214600	24992
964	119.2873	126640128	93466624	39757024	24992
965	122.281096	126640128	93466624	47819256	24992
966	124.653395	126640128	93466624	68574864	24992
967	148.409941	124510208	90845184	46627392	24992
968	122.48097	124510208	90845184	57805728	24992
969	126.424068	125321216	91893760	69945440	24992
970	158.02576	128626688	95563776	32645288	24992
971	130.506934	129167360	95563776	47379936	24992
972	135.836845	129167360	95563776	51291912	24992
973	161.159315	119689216	88748032	34111328	24992
974	139.94909	122118144	88748032	39608528	24992
975	137.579523	122118144	88748032	58266128	24992
976	162.587571	132390912	99233792	66269760	24992
977	154.87185	133283840	99758080	41166168	24992
978	141.523107	133283840	99758080	63008216	24992
979	148.78623	133824512	100282368	74286912	24992
980	181.779614	128323584	95039488	51581296	24992
981	149.787647	128323584	95039488	64922496	24992
982	154.878691	135081984	101855232	79269016	24992
983	184.022973	129318912	96088064	36732320	24992
984	155.609391	129589248	96088064	53188576	24992
985	163.266952	129589248	96088064	59251784	24992
986	194.968153	126476288	92942336	50073672	24992
987	164.541861	126476288	93466624	58239576	24992
988	166.127144	140533760	107098112	79160736	24992
989	187.736367	124477440	90845184	30240416	24992
990	166.5542	124477440	90845184	53255192	24992
991	200.581166	121118720	87699456	34970944	24992
992	172.075598	121118720	87699456	48561760	24992
993	175.933705	129228800	96088064	63256216	24992
994	212.671496	130723840	97136640	49820688	24992
995	176.428318	130723840	97136640	66734064	24992
996	182.577726	146403328	113389568	84659688	24992
997	221.05026	139026432	105525248	50333136	24992
998	183.374236	139026432	105525248	70344968	24992
999	203.377104	147947520	114438144	91443128	24992
1000	205.359894	131985408	98709504	58996584	24992
