x	Duration	RSS	HeapTotal	HeapUsed	External
0	NA	114716672	79835136	12313360	24992
1	0.255604	114716672	79835136	12365160	24992
2	0.18086	114716672	79835136	12441736	24992
3	0.208106	114716672	79835136	12545344	24992
4	0.248107	114716672	79835136	12677528	24992
5	0.310646	114716672	79835136	12839784	24992
6	0.350763	114716672	79835136	13032568	24992
7	0.433867	114716672	79835136	13256848	24992
8	0.471431	114716672	79835136	13513608	24992
9	0.509577	114716672	79835136	13804792	24992
10	0.575726	114716672	79835136	14131072	24992
11	0.884093	114987008	79835136	14493336	24992
12	0.719162	114987008	79835136	14892520	24992
13	0.814137	114987008	79835136	15329640	24992
14	0.833242	114987008	79835136	15809304	24992
15	0.985579	114987008	79835136	16325304	24992
16	0.938293	114987008	79835136	16882072	24992
17	1.072207	114987008	79835136	17487792	24992
18	1.178812	114987008	79835136	18131120	24992
19	1.357109	114987008	79835136	18819272	24992
20	1.234152	114987008	79835136	19552184	24992
21	1.259013	114987008	79835136	20331200	24992
22	1.477704	114987008	79835136	21157352	24992
23	1.478715	114987008	79835136	22033744	24992
24	1.602985	114987008	79835136	22957544	24992
25	1.515234	114987008	79835136	23930832	24992
26	1.648453	114987008	79835136	24956072	24992
27	1.65344	114987008	79835136	26035192	24992
28	1.759725	114987008	79835136	27167360	24992
29	1.825865	114987008	79835136	28354424	24992
30	2.762428	114987008	79835136	13336480	24992
31	2.399401	114987008	79835136	14636304	24992
32	2.434463	114987008	79835136	15999544	24992
33	2.91692	114987008	79835136	17423024	24992
34	2.327626	114987008	79835136	18906512	24992
35	2.388597	114987008	79835136	20458712	24992
36	3.038022	114987008	79835136	22066552	24992
37	2.518555	114987008	79835136	23737592	24992
38	2.575	114987008	79835136	25470136	24992
39	2.697862	114987008	79835136	27267464	24992
40	3.2599	114987008	79835136	29132720	24992
41	4.333374	114987008	79835136	15044568	24992
42	3.027295	114987008	79835136	17041952	24992
43	3.050171	114987008	79835136	19107816	24992
44	3.382332	114987008	79835136	21243944	24992
45	3.266901	114987008	79835136	23451664	24992
46	3.508855	114987008	79835136	25731352	24992
47	3.509302	114987008	79835136	28083496	24992
48	5.29979	114987008	79835136	14833056	24992
49	4.033627	114987008	79835136	17334480	24992
50	4.195738	114987008	79835136	19914520	24992
51	3.969687	114987008	79835136	22574488	24992
52	4.396277	114987008	79835136	25314328	24992
53	4.401475	114987008	79835136	28135176	24992
54	6.153158	114987008	79835136	15464832	24992
55	4.416637	114987008	79835136	18451568	24992
56	4.546738	114987008	79835136	21521680	24992
57	4.871172	114987008	79835136	24677376	24992
58	4.799283	114987008	79835136	27918592	24992
59	7.145094	114987008	79835136	15714272	24992
60	5.768352	114987008	79835136	19139296	24992
61	5.457883	114987008	79835136	22644752	24992
62	5.80189	114987008	79835136	26242400	24992
63	5.73787	114987008	79835136	29928360	24992
64	7.758724	114987008	79835136	17914176	24992
65	6.904027	114987008	79835136	21793296	24992
66	5.88176	114987008	79835136	25776208	24992
67	6.2161	114987008	79835136	29843856	24992
68	8.033987	114987008	79835136	18261840	24992
69	6.659859	114987008	79835136	22521544	24992
70	6.417565	114987008	79835136	26878912	24992
71	7.115853	114987008	79835136	31344080	24992
72	8.72366	114987008	79835136	19998856	24992
73	6.84457	114987008	79835136	24655352	24992
74	7.173285	114987008	79835136	29414904	24992
75	8.905421	114987008	79835136	18667024	24992
76	7.354034	114987008	79835136	23631400	24992
77	7.895397	114987008	79835136	28701456	24992
78	9.742079	114987008	79835136	18405808	24992
79	8.485176	114987008	79835136	23686880	24992
80	8.189435	114987008	79835136	29076680	24992
81	10.591532	114987008	79835136	19100856	24992
82	8.428944	114987008	79835136	24707344	24992
83	9.242601	114987008	79835136	30428440	24992
84	10.756095	114987008	79835136	20646256	24992
85	8.823182	114987008	79835136	26589680	24992
86	9.14179	114987008	79835136	32649464	24992
87	11.068071	114987008	79835136	22922704	24992
88	9.630809	114987008	79835136	29212328	24992
89	12.560139	114987008	79835136	20265272	24992
90	10.074027	114987008	79835136	26790672	24992
91	10.863999	114987008	79835136	33443952	24992
92	12.234947	114987008	79835136	24275248	24992
93	10.31908	114987008	79835136	31161704	24992
94	13.01586	114987008	79835136	22698480	24992
95	10.63069	114987008	79835136	29831896	24992
96	13.895068	114987008	79835136	21798152	24992
97	11.268692	114987008	79835136	29181024	24992
98	13.668441	114987008	79835136	21595664	24992
99	11.707896	114987008	79835136	29231056	24992
100	14.874173	114987008	79835136	21960584	24992
101	11.855933	114987008	79835136	29853472	24992
102	0.459768	114987008	79835136	22655080	24992
103	0.63166	114987008	79835136	23058728	24992
104	0.819923	114987008	79835136	23600536	24992
105	1.02057	114987008	79835136	24277432	24992
106	1.217384	114987008	79835136	25092832	24992
107	1.633136	114987008	79835136	26047352	24992
108	1.620214	114987008	79835136	27141848	24992
109	1.834524	114987008	79835136	28377336	24992
110	2.031657	114987008	79835136	29756160	24992
111	2.457942	114987008	79835136	31277688	24992
112	2.470749	114987008	79835136	32943456	24992
113	2.668179	114987008	79835136	34753648	24992
114	2.99449	114987008	79835136	36709672	24992
115	5.221579	114987008	79835136	22797368	24992
116	3.598224	114987008	79835136	25048064	24992
117	3.534636	114987008	79835136	27447560	24992
118	3.77676	114987008	79835136	29998632	24992
119	3.979582	114987008	79835136	32700456	24992
120	4.597288	114987008	79835136	35556568	24992
121	6.799565	114987008	79835136	22669248	24992
122	4.666599	114987008	79835136	25829688	24992
123	4.896679	114987008	79835136	29144760	24992
124	5.338109	114987008	79835136	32618344	24992
125	5.341153	114987008	79835136	36251504	24992
126	7.582269	114987008	79835136	24039344	24992
127	5.818365	114987008	79835136	27982672	24992
128	6.498286	114987008	79835136	32088480	24992
129	6.506812	114987008	79835136	36352320	24992
130	8.765604	114987008	79835136	24794368	24992
131	7.268883	114987008	79835136	29386096	24992
132	7.552299	114987008	79835136	34138952	24992
133	9.481417	114987008	79835136	23451152	24992
134	7.759333	114987008	79835136	28538680	24992
135	7.814212	114987008	79835136	33796456	24992
136	10.592142	114987008	79835136	23705096	24992
137	8.338004	114987008	79835136	29294872	24992
138	8.772768	114987008	79835136	35056864	24992
139	11.513926	114987008	79835136	25304920	24992
140	9.535441	114987008	79835136	31406352	24992
141	9.556792	114987008	79835136	37680824	24992
142	12.418564	114987008	79835136	28043496	24992
143	9.999194	114987008	79835136	34667456	24992
144	13.203724	114987008	79835136	25896480	24992
145	10.388532	114987008	79835136	32875480	24992
146	13.28001	114987008	79835136	24765568	24992
147	10.901072	114987008	79835136	32109232	24992
148	14.294266	114987008	79835136	24527024	24992
149	11.504598	114987008	79835136	32228928	24992
150	14.581403	114987008	79835136	25027280	24992
151	12.364649	114987008	79835136	33094960	24992
152	15.114445	114987008	79835136	26142912	24992
153	12.999784	114987008	79835136	34585776	24992
154	16.094701	114987008	79835136	27774096	24992
155	13.382294	114987008	79835136	36587408	24992
156	15.981084	114987008	79835136	29858208	24992
157	14.439945	114987008	79835136	39050432	24992
158	16.603716	114987008	79835136	32318288	24992
159	17.514014	114987008	79835136	26890856	24992
160	15.439402	114987008	79835136	36658144	24992
161	17.805801	114987008	79835136	30905656	24992
162	19.322762	114987008	79835136	26389984	24992
163	15.938947	114987008	79835136	36740280	24992
164	18.296983	114987008	79835136	31615992	24992
165	19.755648	114987008	79835136	27624496	24992
166	16.855644	114987008	79835136	38576880	24992
167	19.754698	114987008	79835136	33791632	24992
168	20.377144	114987008	79835136	30072648	24992
169	17.622899	114987008	79835136	41626664	24992
170	20.752787	114987008	79835136	37084016	24992
171	21.076584	114987008	79835136	33469248	24992
172	21.555288	114987008	79835136	30689856	24992
173	22.82963	114987008	79835136	28591008	24992
174	19.435328	114987008	79835136	41164664	24992
175	22.669071	114987008	79835136	37761328	24992
176	23.026375	114987008	79835136	35173256	24992
177	23.996136	114987008	79835136	33204032	24992
178	24.176788	114987008	79835136	31809824	24992
179	24.850965	114987008	79835136	30905544	24992
180	25.311185	114987008	79835136	30375664	24992
181	25.693653	114987008	79835136	30214232	24992
182	25.77801	114987008	79835136	30307824	24992
183	26.710932	114987008	79835136	30636304	24992
184	26.702832	114987008	79835136	31155000	24992
185	27.688582	114987008	79835136	31831840	24992
186	27.143314	114987008	79835136	32642552	24992
187	27.679138	114987008	79835136	33521760	24992
188	28.146905	114987008	79835136	34491640	24992
189	28.416776	114987008	79835136	35544208	24992
190	28.130457	114987008	79835136	36639672	24992
191	28.305132	114987008	79835136	37817928	24992
192	29.204107	114987008	79835136	39040944	24992
193	29.543725	114987008	79835136	40279704	24992
194	29.080201	114987008	79835136	41572792	24992
195	29.307741	114987008	79835136	42909904	24992
196	30.068685	114987008	79835136	44261560	24992
197	30.432507	114987008	79835136	45643640	24992
198	34.558342	114987008	79835136	33502680	24992
199	32.651188	114987008	79835136	37278896	24992
200	32.814994	114987008	79835136	40656688	24992
201	31.820281	114987008	79835136	43705200	24992
202	0.776425	114987008	79835136	46466712	24992
203	1.109225	114987008	79835136	47168448	24992
204	3.959884	114987008	79835136	31747224	24992
205	1.790957	114987008	79835136	32920784	24992
206	2.203371	114987008	79835136	34332264	24992
207	2.535031	114987008	79835136	35990456	24992
208	2.905933	114987008	79835136	37896200	24992
209	3.411431	114987008	79835136	40050744	24992
210	3.923376	114987008	79835136	42455648	24992
211	4.079722	114987008	79835136	45111144	24992
212	7.705153	114987008	79835136	31998600	24992
213	5.035708	114987008	79835136	35163816	24992
214	5.431566	114987008	79835136	38576632	24992
215	5.818694	114987008	79835136	42249192	24992
216	6.407898	114987008	79835136	46173272	24992
217	9.734733	114987008	79835136	34241720	24992
218	7.136661	114987008	79835136	38688080	24992
219	7.36764	114987008	79835136	43384800	24992
220	11.192281	114987008	79835136	32699520	24992
221	8.258036	114987008	79835136	37923848	24992
222	8.832078	114987008	79835136	43413040	24992
223	12.281229	114987008	79835136	33501368	24992
224	9.938725	114987008	79835136	39504928	24992
225	10.211716	114987008	79835136	45772864	24992
226	13.453294	114987008	79835136	36280272	24992
227	11.085224	114987008	79835136	43079272	24992
228	14.654901	114987008	79835136	34572240	24992
229	11.960772	114987008	79835136	41916072	24992
230	15.478393	114987008	79835136	34180152	24992
231	12.699545	114987008	79835136	42071528	24992
232	16.52084	114987008	79835136	34875536	24992
233	13.526015	114987008	79835136	43326968	24992
234	17.164818	114987008	79835136	36475448	24992
235	14.381868	114987008	79835136	45481776	24992
236	17.871207	114987008	79835136	38838888	24992
237	15.234584	114987008	79835136	48393648	24992
238	18.184118	114987008	79835136	41870880	24992
239	19.389165	114987008	79835136	36708560	24992
240	16.701649	114987008	79835136	47100760	24992
241	20.181916	114987008	79835136	41654824	24992
242	20.799922	114987008	79835136	37426128	24992
243	17.650704	114987008	79835136	48667232	24992
244	21.127265	114987008	79835136	43843960	24992
245	21.937349	114987008	79835136	40134192	24992
246	23.265715	114987008	79835136	37343120	24992
247	24.66424	114987008	79835136	35321912	24992
248	20.007829	114987008	79835136	48000912	24992
249	23.829695	114987008	79835136	44779280	24992
250	24.962417	114987008	79835136	42414224	24992
251	25.326024	114987008	79835136	40728248	24992
252	26.126796	114987008	79835136	39644552	24992
253	26.993165	114987008	79835136	39085096	24992
254	27.350786	114987008	79835136	38910080	24992
255	28.213044	114987008	79835136	39084896	24992
256	28.632034	114987008	79835136	39562504	24992
257	28.558148	114987008	79835136	40274040	24992
258	29.626324	114987008	79835136	41171304	24992
259	31.272692	114987008	79835136	42259400	24992
260	30.269527	114987008	79835136	43440784	24992
261	31.286064	114987008	79835136	44750296	24992
262	30.574129	114987008	79835136	46158304	24992
263	31.813073	114987008	79835136	47621336	24992
264	31.283994	114987008	79835136	49189632	24992
265	32.006183	114987008	79835136	50774736	24992
266	37.343091	114987008	79835136	38867904	24992
267	34.294493	114987008	79835136	42920808	24992
268	34.271141	114987008	79835136	46610936	24992
269	34.552227	114987008	79835136	49960704	24992
270	39.590431	114987008	79835136	39646680	24992
271	40.289234	114987008	79835136	47822848	24992
272	40.446041	114987008	79835136	52697232	24992
273	52.588734	111874048	76689408	20339184	24992
274	37.448366	111874048	76689408	28875080	24992
275	37.463389	111874048	76689408	21138608	24992
276	38.517388	111874048	76689408	30838632	24992
277	38.173946	111874048	76689408	23829928	24992
278	38.881383	111874048	76689408	34118616	24992
279	40.547025	111874048	76689408	27706488	24992
280	40.32197	111874048	76689408	38609232	24992
281	40.540307	111874048	76689408	32647192	24992
282	40.685255	111874048	76689408	44221912	24992
283	40.544256	111874048	76689408	38435528	24992
284	46.190013	111874048	76689408	38855152	24992
285	43.235987	111874048	76689408	51172720	24992
286	48.655609	111874048	76689408	46404176	24992
287	63.420224	112447488	79835136	32988992	24992
288	47.86947	114339840	79835136	32956176	24992
289	44.583271	114610176	79835136	29301664	24992
290	50.48991	114610176	79835136	31614920	24992
291	49.442034	114880512	79835136	34105072	24992
292	46.400162	114880512	79835136	48704000	24992
293	45.390479	114880512	79835136	45548776	24992
294	46.353587	114880512	79835136	43607872	24992
295	53.875265	114880512	79835136	47619544	24992
296	53.178321	114880512	79835136	51836960	24992
297	55.316245	119205888	84553728	56335000	24992
298	73.000174	124071936	89272320	61239336	24992
299	58.892921	120971264	86126592	34449496	24992
300	55.488117	120971264	86126592	40006208	24992
301	56.335938	120971264	86126592	45825032	24992
302	1.11769	120971264	86126592	35779120	24992
303	1.624243	120971264	86126592	36806808	24992
304	2.161118	120971264	86126592	38178488	24992
305	2.725018	120971264	86126592	39895320	24992
306	3.21723	120971264	86126592	41958712	24992
307	3.799727	120971264	86126592	44369128	24992
308	4.373653	120971264	86126592	47129952	24992
309	4.82775	120971264	86126592	50244384	24992
310	5.729041	120971264	86126592	37476536	24992
311	5.991216	120971264	86126592	41285944	24992
312	6.515655	120971264	86126592	45458224	24992
313	7.084106	120971264	86126592	49979432	24992
314	8.246124	120971264	86126592	38685656	24992
315	8.189551	120971264	86126592	43908680	24992
316	8.809833	120971264	86126592	49491576	24992
317	10.012472	120971264	86126592	39317752	24992
318	9.862659	120971264	86126592	45617488	24992
319	11.497966	120971264	86126592	36883448	24992
320	11.049983	120971264	86126592	43904504	24992
321	11.593942	120971264	86126592	51278960	24992
322	12.504294	120971264	86126592	42625808	24992
323	12.818261	120971264	86126592	50739808	24992
324	13.734474	120971264	86126592	42883648	24992
325	13.889856	120971264	86126592	51711728	24992
326	14.786196	120971264	86126592	44443536	24992
327	16.153114	120971264	86126592	38793016	24992
328	15.633047	120971264	86126592	48719640	24992
329	17.118806	120971264	86126592	43081656	24992
330	18.345958	120971264	86126592	38783912	24992
331	17.384358	120971264	86126592	49828448	24992
332	18.544967	120971264	86126592	45073816	24992
333	19.878904	120971264	86126592	41584208	24992
334	21.118578	120971264	86126592	39104864	24992
335	19.55118	120971264	86126592	51651272	24992
336	21.156565	120971264	86126592	48129192	24992
337	22.244757	120971264	86126592	45619896	24992
338	23.032095	120971264	86126592	43922488	24992
339	23.939075	120971264	86126592	42891008	24992
340	25.027457	120971264	86126592	42449728	24992
341	25.269186	120971264	86126592	42464608	24992
342	25.424286	120971264	86126592	42869272	24992
343	26.272298	120971264	86126592	43601712	24992
344	27.09776	120971264	86126592	44560960	24992
345	27.742479	120971264	86126592	45754768	24992
346	27.701805	120971264	86126592	47100664	24992
347	27.938817	120971264	86126592	48595320	24992
348	28.98823	120971264	86126592	50231344	24992
349	29.654541	120971264	86126592	51984488	24992
350	32.128963	120971264	86126592	40299560	24992
351	32.249617	120971264	86126592	44634640	24992
352	31.628376	120971264	86126592	48560600	24992
353	33.01382	120971264	86126592	52205096	24992
354	34.548243	120971264	86126592	42085760	24992
355	33.964307	120971264	86126592	47709792	24992
356	34.823095	120971264	86126592	52678024	24992
357	36.796951	120971264	86126592	43673288	24992
358	36.590025	120971264	86126592	50233312	24992
359	39.333809	121241600	86126592	42788280	24992
360	40.664793	121241600	86126592	53650992	24992
361	40.616279	121241600	86126592	47555344	24992
362	42.481252	121241600	86126592	59229504	24992
363	41.352606	121241600	86126592	53509656	24992
364	43.795702	121241600	86126592	49638536	24992
365	43.852083	121241600	86126592	62392888	24992
366	43.44765	121241600	86126592	57932864	24992
367	50.867168	125296640	90320896	59924240	24992
368	66.947705	130433024	95563776	62175112	24992
369	56.044382	125071360	90320896	30323520	24992
370	50.944633	125071360	90320896	33443872	24992
371	52.456513	125071360	90320896	36790632	24992
372	52.054991	125071360	90320896	40612016	24992
373	52.661605	125341696	90320896	44785864	24992
374	53.295318	125341696	90320896	49438000	24992
375	54.485047	125341696	90320896	54471264	24992
376	54.197084	126152704	91369472	59896896	24992
377	78.87782	131018752	96088064	65767896	24992
378	56.902084	126164992	91369472	37514688	24992
379	50.972182	126164992	91369472	37590432	24992
380	51.902871	126164992	91369472	38116104	24992
381	57.360107	126164992	91369472	27673224	24992
382	58.703272	126164992	91369472	35549304	24992
383	59.800755	126164992	91369472	43932232	24992
384	60.570949	126164992	91369472	52761192	24992
385	66.14111	126435328	91369472	50445232	24992
386	61.034845	126435328	91369472	60069904	24992
387	63.168444	126976000	91893760	70203008	24992
388	90.280848	127897600	95039488	35127912	24992
389	67.92343	129785856	95039488	33401160	24992
390	64.618574	129785856	95039488	44726336	24992
391	70.306716	129785856	95039488	44984800	24992
392	65.251179	129785856	95039488	57224104	24992
393	72.669644	130056192	95039488	58368000	24992
394	86.967922	131678208	96612352	59975840	24992
395	77.099379	126369792	91369472	27442576	24992
396	68.23754	126369792	91369472	41340904	24992
397	74.435698	126369792	91369472	44215872	24992
398	74.727116	126369792	91369472	47509520	24992
399	74.633453	126369792	91369472	51236048	24992
400	78.154674	128262144	93466624	66902832	24992
401	98.001177	123543552	88748032	26895408	24992
402	1.379901	123543552	88748032	43711144	24992
403	6.665748	123543552	88748032	33357424	24992
404	2.988362	123543552	88748032	35138080	24992
405	3.620167	123543552	88748032	37372936	24992
406	4.071372	123543552	88748032	40048040	24992
407	5.033567	123543552	88748032	43172216	24992
408	5.590146	123543552	88748032	46755400	24992
409	8.370168	123543552	88748032	36442232	24992
410	7.011274	123543552	88748032	40925368	24992
411	7.914103	123543552	88748032	45856704	24992
412	9.108543	123543552	88748032	35332904	24992
413	9.293129	123543552	88748032	41173664	24992
414	10.667997	123543552	88748032	47478088	24992
415	11.050128	123543552	88748032	38005320	24992
416	11.529409	123543552	88748032	45226448	24992
417	13.16282	123543552	88748032	37097168	24992
418	12.546465	123543552	88748032	45285456	24992
419	14.423227	123543552	88748032	38109192	24992
420	14.254023	123543552	88748032	47229824	24992
421	15.923507	123543552	88748032	40687672	24992
422	17.164009	123543552	88748032	35777192	24992
423	16.635649	123543552	88748032	46342760	24992
424	17.871523	123543552	88748032	41384320	24992
425	19.7105	123543552	88748032	37785472	24992
426	20.325902	123543552	88748032	35303192	24992
427	19.613558	123543552	88748032	47812656	24992
428	20.616444	123543552	88748032	44563632	24992
429	21.973194	123543552	88748032	42342744	24992
430	22.922711	123543552	88748032	41022496	24992
431	24.739992	123543552	88748032	40431864	24992
432	24.756138	123543552	88748032	40446680	24992
433	27.246759	123543552	88748032	40957600	24992
434	26.035514	123543552	88748032	41865104	24992
435	27.275435	123543552	88748032	43135960	24992
436	28.653287	123543552	88748032	44693328	24992
437	28.241444	123543552	88748032	46409864	24992
438	28.98345	123543552	88748032	48334608	24992
439	31.890656	123543552	88748032	37019816	24992
440	35.027515	123543552	88748032	44557496	24992
441	31.409771	123543552	88748032	48960056	24992
442	35.487217	123543552	88748032	39906888	24992
443	36.528311	123543552	88748032	48890048	24992
444	33.688722	123543552	88748032	54550112	24992
445	36.804394	123543552	88748032	46306336	24992
446	39.250557	123543552	88748032	56848616	24992
447	38.925388	123543552	88748032	50404440	24992
448	40.086443	123543552	88748032	61950656	24992
449	40.435669	123813888	88748032	56227648	24992
450	42.969492	123813888	88748032	52417024	24992
451	44.483814	123813888	88748032	65310016	24992
452	56.095711	123813888	88748032	61058488	24992
453	48.926272	119111680	84029440	26803080	24992
454	49.268902	119111680	84029440	29468816	24992
455	50.314385	119111680	84029440	32584776	24992
456	51.133413	119111680	84029440	36143200	24992
457	51.352443	119111680	84029440	40253600	24992
458	52.113444	119111680	84029440	44867944	24992
459	53.922425	119111680	84029440	49974624	24992
460	69.855058	119922688	85078016	55589656	24992
461	64.711067	122085376	87175168	32831896	24992
462	54.756788	122085376	87175168	39510152	24992
463	56.511285	122085376	87175168	46650040	24992
464	62.051722	122085376	87175168	42680040	24992
465	58.35741	122085376	87175168	50952256	24992
466	58.550469	122085376	87175168	59752808	24992
467	62.009786	124248064	89272320	69065040	24992
468	88.684492	121659392	88748032	19529640	24992
469	63.400368	123547648	88748032	28661784	24992
470	61.307658	123547648	88748032	39498368	24992
471	68.16939	123547648	88748032	39219752	24992
472	64.601186	123547648	88748032	51210904	24992
473	69.100506	123547648	88748032	51947072	24992
474	67.319377	123817984	88748032	65031456	24992
475	94.059923	122540032	89796608	35305608	24992
476	72.762368	124698624	89796608	37178656	24992
477	73.11465	124698624	89796608	40062672	24992
478	68.122445	124698624	89796608	55131152	24992
479	74.302006	124698624	89796608	59088672	24992
480	76.317371	124698624	89796608	63569808	24992
481	104.507598	126181376	93466624	36988720	24992
482	77.815265	128069632	93466624	41640928	24992
483	78.011352	128069632	93466624	47972432	24992
484	78.76312	128069632	93466624	54735792	24992
485	79.033201	128880640	93990912	62089216	24992
486	81.361328	128880640	93990912	69942768	24992
487	108.868961	130871296	96088064	31413024	24992
488	80.801241	130871296	96088064	40406184	24992
489	81.439586	130871296	96088064	49818880	24992
490	82.977482	130871296	96088064	59636752	24992
491	89.074299	130871296	96088064	58468008	24992
492	111.666645	124628992	91893760	21914032	24992
493	86.276882	126517248	91893760	32198640	24992
494	86.375845	126517248	91893760	44331952	24992
495	91.484467	126517248	91893760	45316968	24992
496	87.513816	126517248	91893760	58491840	24992
497	116.088429	120844288	88223744	27402624	24992
498	94.413738	122732544	88223744	29210192	24992
499	89.899352	122732544	88223744	44089512	24992
500	94.772382	122732544	88223744	47868480	24992
501	93.093327	123273216	88223744	63788992	24992
502	1.750849	125902848	91369472	38504968	24992
503	2.64482	125902848	91369472	40180440	24992
504	7.095154	125902848	91369472	30324968	24992
505	4.14749	125902848	91369472	33121328	24992
506	5.207819	125902848	91369472	36480320	24992
507	5.943394	125902848	91369472	40419792	24992
508	8.852388	125902848	91369472	30736432	24992
509	7.694227	125902848	91369472	35804680	24992
510	8.639131	125902848	91369472	41424000	24992
511	10.66413	125902848	91369472	31971720	24992
512	10.43039	125902848	91369472	38731648	24992
513	11.09366	125902848	91369472	46052480	24992
514	12.485582	125902848	91369472	37495744	24992
515	13.557533	125902848	91369472	45976192	24992
516	14.303595	125902848	91369472	38568464	24992
517	16.280711	125902848	91369472	33050968	24992
518	15.666192	125902848	91369472	43249440	24992
519	17.559022	125902848	91369472	38037248	24992
520	18.670547	125902848	91369472	34359176	24992
521	18.850972	125902848	91369472	29801288	24992
522	18.983575	125902848	91369472	42308320	24992
523	21.450777	125902848	91369472	39586512	24992
524	22.668531	125902848	91369472	37946432	24992
525	23.801287	125902848	91369472	37162568	24992
526	24.606678	125902848	91369472	37099200	24992
527	25.725272	125902848	91369472	37621320	24992
528	26.202652	125902848	91369472	38641072	24992
529	27.388929	125902848	91369472	40093032	24992
530	27.917638	125902848	91369472	41841488	24992
531	28.820845	125902848	91369472	43882384	24992
532	28.97334	125902848	91369472	46132008	24992
533	33.912586	125902848	91369472	35087992	24992
534	33.887975	125902848	91369472	40097272	24992
535	32.285554	125902848	91369472	44826008	24992
536	35.236866	125902848	91369472	36090984	24992
537	38.460144	125902848	91369472	46001728	24992
538	38.72853	125902848	91369472	39444656	24992
539	39.525927	125902848	91369472	50545208	24992
540	39.369058	125902848	91369472	44921752	24992
541	41.341178	125902848	91369472	57227880	24992
542	41.121307	125902848	91369472	52159184	24992
543	43.509287	125902848	91369472	48827520	24992
544	48.197799	125902848	91369472	51195376	24992
545	45.365152	125902848	91369472	65612864	24992
546	44.732342	125902848	91369472	62679816	24992
547	49.064631	125902848	91369472	61152816	24992
548	52.053667	127254528	92418048	65958936	24992
549	59.828395	132120576	97660928	71108264	24992
550	71.666036	127795200	92942336	26523944	24992
551	55.020034	127795200	92942336	33096480	24992
552	55.783463	127795200	92942336	40089024	24992
553	56.716426	127795200	92942336	47630952	24992
554	63.267189	127795200	92942336	44177272	24992
555	58.69827	127795200	92942336	52963544	24992
556	60.285637	127795200	92942336	62345992	24992
557	87.779279	123510784	90845184	29415688	24992
558	61.289888	125399040	90845184	39386104	24992
559	66.034199	125399040	90845184	39096032	24992
560	62.796007	125399040	90845184	50908232	24992
561	68.386852	125399040	90845184	51826072	24992
562	66.196527	125399040	90845184	64880960	24992
563	76.399033	127021056	92418048	67054832	24992
564	88.341514	130060288	95563776	35059000	24992
565	72.155643	130060288	95563776	38574088	24992
566	72.622905	130060288	95563776	42481704	24992
567	75.067391	130060288	95563776	47145928	24992
568	76.104582	130060288	95563776	52415728	24992
569	79.744873	130600960	96088064	69880304	24992
570	96.85557	124911616	89796608	30641248	24992
571	78.805963	124911616	89796608	37769416	24992
572	80.574768	124911616	89796608	45545296	24992
573	81.749924	124911616	89796608	53910328	24992
574	82.965543	124911616	89796608	62976008	24992
575	116.172549	127078400	92418048	29079520	24992
576	83.446141	127078400	92418048	39483232	24992
577	83.252395	127078400	92418048	50431216	24992
578	85.67333	127078400	92418048	62062192	24992
579	94.18782	127889408	92942336	62667000	24992
580	112.924374	126873600	93990912	26981808	24992
581	88.34779	128761856	93990912	39149200	24992
582	95.341507	128761856	93990912	41744504	24992
583	90.604153	128761856	93990912	56511432	24992
584	97.087301	128761856	93990912	60348560	24992
585	125.878814	125861888	90845184	33928272	24992
586	97.228285	125861888	90845184	39067824	24992
587	93.685472	125861888	90845184	56477760	24992
588	98.793546	125861888	90845184	62901952	24992
589	107.508342	133160960	98709504	69925944	24992
590	120.491998	131620864	97136640	41369320	24992
591	102.292255	131620864	97136640	49682512	24992
592	102.601322	131620864	97136640	58737216	24992
593	103.78468	131620864	97136640	68406952	24992
594	130.558388	125583360	90845184	28320312	24992
595	107.279224	125583360	90845184	39460792	24992
596	108.55552	125583360	90845184	51099080	24992
597	108.122985	125583360	90845184	63365632	24992
598	135.021395	123785216	88748032	30052880	24992
599	110.629415	123785216	88748032	43731168	24992
600	116.26321	123785216	88748032	46368040	24992
601	118.338859	124325888	89796608	61201160	24992
602	2.050687	122306560	87175168	37396560	24992
603	3.023345	122306560	87175168	39384968	24992
604	4.089202	122306560	87175168	42039080	24992
605	5.264159	122306560	87175168	45366480	24992
606	8.692132	122306560	87175168	36088448	24992
607	7.431346	122306560	87175168	40741064	24992
608	7.992971	122306560	87175168	46061104	24992
609	10.010717	122306560	87175168	36642392	24992
610	10.169844	122306560	87175168	43305056	24992
611	12.561099	122306560	87175168	35334952	24992
612	12.495843	122306560	87175168	43346512	24992
613	14.566533	122306560	87175168	36699888	24992
614	14.516357	122306560	87175168	46066800	24992
615	16.301244	122306560	87175168	40306536	24992
616	17.872401	122306560	87175168	36313664	24992
617	17.603568	122306560	87175168	47707336	24992
618	19.730216	122306560	87175168	43667080	24992
619	20.914729	122306560	87175168	41066576	24992
620	22.997263	122306560	87175168	39608712	24992
621	23.683397	122306560	87175168	39136992	24992
622	24.576734	122306560	87175168	39388320	24992
623	26.016859	122306560	87175168	40274048	24992
624	27.048556	122306560	87175168	41754800	24992
625	27.280173	122306560	87175168	43582544	24992
626	28.867332	122306560	87175168	45805848	24992
627	29.202977	122306560	87175168	48277072	24992
628	33.004993	122306560	87175168	37750792	24992
629	35.557819	122306560	87175168	46039912	24992
630	33.448128	122306560	87175168	51274608	24992
631	36.32051	122306560	87175168	42907672	24992
632	38.32468	122306560	87175168	53274992	24992
633	38.536458	122306560	87175168	47155136	24992
634	40.505831	122306560	87175168	58851056	24992
635	39.957368	122306560	87175168	53553504	24992
636	48.086619	122306560	87175168	55026824	24992
637	43.711192	123387904	88223744	68610104	24992
638	43.482805	123928576	89272320	64942952	24992
639	45.517369	124469248	89796608	62797040	24992
640	53.890801	129605632	95039488	66954232	24992
641	77.423183	128901120	96612352	23927040	24992
642	53.141682	131330048	96612352	28167680	24992
643	54.712204	131330048	96612352	34233976	24992
644	54.405427	131330048	96612352	41046560	24992
645	56.320175	131330048	96612352	48545320	24992
646	57.49875	131330048	96612352	56801752	24992
647	63.230367	131600384	96612352	54222416	24992
648	60.972198	131600384	96612352	63803536	24992
649	90.228717	125177856	92942336	28200952	24992
650	63.883207	127606784	92942336	38419328	24992
651	66.349881	127606784	92942336	38596928	24992
652	63.953382	127606784	92942336	51030912	24992
653	69.24111	127606784	92942336	52729224	24992
654	70.494184	128417792	93466624	55041592	24992
655	68.727867	128417792	93466624	69638864	24992
656	99.532994	131235840	96612352	26225120	24992
657	70.5384	131235840	96612352	42441208	24992
658	74.794692	131235840	96612352	47632392	24992
659	75.396149	131235840	96612352	53554688	24992
660	76.830632	131235840	96612352	60129480	24992
661	78.781162	132046848	97136640	67499272	24992
662	108.979472	127885312	92942336	29151912	24992
663	81.517206	127885312	92942336	38087784	24992
664	81.864357	127885312	92942336	47642672	24992
665	83.17153	127885312	92942336	57896920	24992
666	83.279037	127885312	92942336	68874640	24992
667	114.400856	128606208	96088064	21301576	24992
668	86.800407	131035136	96088064	32411056	24992
669	88.321528	131035136	96088064	45581360	24992
670	93.415	131035136	96088064	47926448	24992
671	89.88522	131035136	96088064	62447464	24992
672	114.136269	121921536	89796608	30060736	24992
673	96.69571	124350464	89796608	33928624	24992
674	97.692613	124350464	89796608	39154688	24992
675	93.660029	124891136	89796608	56625504	24992
676	118.495436	124891136	89796608	63267088	24992
677	106.685695	124276736	89272320	38496592	24992
678	104.049405	124276736	89272320	46670888	24992
679	102.688588	124276736	89272320	55577264	24992
680	109.132739	126709760	91893760	65198928	24992
681	129.106036	129622016	95039488	43287480	24992
682	110.367995	129622016	95039488	42874376	24992
683	108.848842	129622016	95039488	54683800	24992
684	109.865421	130433024	95563776	67211496	24992
685	142.660521	131035136	96088064	35321352	24992
686	111.093876	131035136	96088064	49417256	24992
687	112.803806	131035136	96088064	64322272	24992
688	118.536394	132657152	97660928	68379056	24992
689	138.353942	131944448	97136640	30680160	24992
690	120.537742	131944448	97136640	36578904	24992
691	118.446859	131944448	97136640	54435808	24992
692	129.947763	132755456	97660928	61447864	24992
693	150.273856	124317696	89272320	39154376	24992
694	124.235536	124317696	89272320	47647872	24992
695	124.159361	124317696	89272320	68575224	24992
696	158.139227	129753088	97136640	30329664	24992
697	128.40832	131641344	97136640	39905624	24992
698	129.303387	131641344	97136640	51522224	24992
699	132.119458	131641344	97136640	63739360	24992
700	163.929614	129445888	94515200	45522504	24992
701	134.47176	129445888	94515200	59338200	24992
702	2.267945	130256896	95563776	62960824	24992
703	3.411266	130256896	95563776	65242616	24992
704	4.724007	130256896	95563776	68286200	24992
705	6.141764	130256896	95563776	72095840	24992
706	10.23752	132689920	98185216	63213048	24992
707	8.110302	132689920	98185216	68549008	24992
708	9.345749	132689920	98185216	74661008	24992
709	11.266437	132960256	98185216	65614112	24992
710	11.644757	132960256	98185216	73261896	24992
711	13.778686	132960256	98185216	66013336	24992
712	14.369734	132960256	98185216	75196344	24992
713	16.416059	132960256	98185216	69140496	24992
714	17.744406	132960256	98185216	65024888	24992
715	17.895226	132960256	98185216	76528584	24992
716	19.056061	132960256	98185216	72608000	24992
717	21.163058	132960256	98185216	70115704	24992
718	22.93188	132960256	98185216	68846344	24992
719	24.043382	132960256	98185216	68633528	24992
720	25.569343	132960256	98185216	69183928	24992
721	26.464493	132960256	98185216	70477648	24992
722	27.852922	132960256	98185216	72292432	24992
723	28.579901	132960256	98185216	74573368	24992
724	29.967677	132960256	98185216	77190888	24992
725	32.756583	132960256	98185216	66784096	24992
726	33.233235	132960256	98185216	72444760	24992
727	33.948186	133230592	98185216	77875792	24992
728	37.385946	133230592	98185216	69586072	24992
729	36.612419	133230592	98185216	77169144	24992
730	39.262639	133230592	98185216	70775064	24992
731	43.000141	134582272	99758080	67305800	24992
732	43.001818	137285632	102903808	80661720	24992
733	43.415519	137826304	102903808	76944136	24992
734	73.062444	130584576	98185216	26644680	24992
735	51.28078	133013504	98185216	29035456	24992
736	52.959171	133013504	98185216	33839536	24992
737	54.723402	133013504	98185216	39600080	24992
738	56.585577	133013504	98185216	46087472	24992
739	56.745394	133013504	98185216	53459816	24992
740	58.213521	133283840	98185216	61523096	24992
741	68.857653	133824512	98709504	58950928	24992
742	79.838401	125665280	93466624	34808720	24992
743	66.724426	128094208	93466624	32910104	24992
744	62.287417	128094208	93466624	44203848	24992
745	71.054387	128094208	93466624	44817392	24992
746	64.53454	128094208	93466624	57529360	24992
747	71.498005	128364544	93466624	59713760	24992
748	89.7622	129175552	94515200	62603568	24992
749	77.239325	126394368	91893760	31100280	24992
750	73.558549	126394368	91893760	35664056	24992
751	74.668379	126394368	91893760	40909760	24992
752	77.175978	126394368	91893760	47133544	24992
753	79.2695	126394368	91893760	54149728	24992
754	108.697422	125468672	92942336	31534120	24992
755	83.882611	127897600	92942336	39647024	24992
756	80.737503	127897600	92942336	49085768	24992
757	82.807886	127897600	92942336	59248104	24992
758	87.028779	128438272	93466624	58837688	24992
759	93.355669	133844992	99233792	70721752	24992
760	110.456051	131063808	96612352	34093208	24992
761	88.873406	131063808	96612352	47599200	24992
762	94.489744	131063808	96612352	50332760	24992
763	90.97118	131063808	96612352	65412680	24992
764	102.379554	132956160	98185216	69808224	24992
765	120.790088	126783488	91893760	39476448	24992
766	96.2072	126783488	91893760	45491472	24992
767	100.703009	126783488	91893760	52436264	24992
768	100.951742	126783488	91893760	60101056	24992
769	125.455497	126140416	93990912	32761168	24992
770	103.279347	128569344	93990912	40786128	24992
771	105.563059	128569344	93990912	50954280	24992
772	106.263947	128569344	93990912	62014144	24992
773	137.850426	124502016	91893760	29433272	24992
774	109.074126	126930944	91893760	41187152	24992
775	110.951852	126930944	91893760	54651544	24992
776	116.15944	126930944	91893760	57605104	24992
777	137.956274	128864256	93990912	25990640	24992
778	114.556052	128864256	93990912	42113584	24992
779	119.813364	128864256	93990912	47524320	24992
780	117.687978	129134592	93990912	65139120	24992
781	152.403069	124723200	89796608	41629504	24992
782	123.810996	124723200	89796608	49541672	24992
783	125.052107	126615552	91893760	58330976	24992
784	126.764661	136077312	101330944	79284112	24992
785	164.652992	134225920	99233792	40135144	24992
786	127.549438	134225920	99233792	51380784	24992
787	129.098414	134225920	99233792	63437616	24992
788	162.789745	127627264	95039488	26448288	24992
789	135.153527	130056192	95039488	38914552	24992
790	134.335961	130056192	95039488	53665760	24992
791	136.164338	130596864	95563776	69160360	24992
792	176.937464	129044480	94515200	41608336	24992
793	137.875744	129044480	94515200	58793608	24992
794	145.358129	133099520	98185216	65442320	24992
795	171.71636	132800512	99758080	31453144	24992
796	141.940613	134688768	99758080	49630432	24992
797	150.007863	134688768	99758080	58778136	24992
798	155.392405	135770112	100806656	68688720	24992
799	183.142372	131538944	96612352	44955192	24992
800	151.132247	131538944	96612352	56439504	24992
801	153.733168	136945664	102379520	69010976	24992
802	2.598064	138440704	103428096	47951376	24992
803	3.982175	138440704	103428096	50524920	24992
804	8.738026	138440704	103428096	41665392	24992
805	6.896313	138440704	103428096	45958336	24992
806	7.897997	138440704	103428096	51113072	24992
807	10.896425	138440704	103428096	42644768	24992
808	10.619967	138440704	103428096	49551992	24992
809	12.051769	138440704	103428096	57310328	24992
810	13.461092	138440704	103428096	49478296	24992
811	16.058273	138440704	103428096	43947984	24992
812	15.873992	138440704	103428096	54294904	24992
813	18.694574	138440704	103428096	49656616	24992
814	20.413037	138440704	103428096	46658480	24992
815	21.499944	138440704	103428096	45153816	24992
816	22.798629	138440704	103428096	44803560	24992
817	24.858838	138440704	103428096	45416504	24992
818	26.470589	138440704	103428096	46744568	24992
819	27.650923	138440704	103428096	48736536	24992
820	29.099942	138440704	103428096	51175024	24992
821	29.464278	138440704	103428096	54084032	24992
822	30.945992	138440704	103428096	57372312	24992
823	34.762702	138440704	103428096	47479608	24992
824	34.764895	138440704	103428096	53704856	24992
825	38.140208	138440704	103428096	46784704	24992
826	39.61494	138440704	103428096	58169416	24992
827	41.290789	138440704	103428096	53031832	24992
828	45.392901	138440704	103428096	54671840	24992
829	44.023832	138440704	103428096	68419456	24992
830	44.272736	138440704	103428096	65137440	24992
831	46.596472	138440704	103428096	63800512	24992
832	51.580335	138440704	103428096	68882496	24992
833	52.994186	138440704	103428096	74618864	24992
834	56.032821	140603392	106049536	81361392	24992
835	77.859008	135364608	95039488	18775464	24992
836	59.928788	132075520	97660928	26981400	24992
837	60.298273	136941568	102903808	36258536	24992
838	63.560192	142077952	108146688	46504336	24992
839	67.52537	145592320	110768128	46163064	24992
840	64.365895	145592320	110768128	58292616	24992
841	89.075434	148025344	113389568	59844400	24992
842	81.141658	107589632	73019392	29875920	24992
843	71.463399	107589632	73019392	33113432	24992
844	68.967764	107589632	73019392	48960968	24992
845	76.341312	111104000	76165120	53970936	24992
846	79.825897	118403072	83505152	60172160	24992
847	104.482952	109744128	77213696	22441984	24992
848	82.254608	112173056	77213696	29535072	24992
849	79.748446	112173056	77213696	38364880	24992
850	80.924186	112713728	77737984	48056600	24992
851	85.065279	117309440	82456576	58762464	24992
852	112.349733	112357376	79835136	27011768	24992
853	89.928058	114786304	79835136	38703104	24992
854	90.229116	114786304	79835136	40664312	24992
855	88.666278	115326976	80359424	54950336	24992
856	101.335549	122355712	87699456	58857616	24992
857	118.742253	120107008	85602304	33025456	24992
858	93.283455	120107008	85602304	50206584	24992
859	97.316946	120107008	85602304	56877616	24992
860	100.568983	124973056	90320896	64432248	24992
861	128.389175	118636544	84029440	24340176	24992
862	102.632232	118636544	84029440	34011896	24992
863	103.818258	118636544	84029440	44346536	24992
864	106.119349	119447552	84553728	55558104	24992
865	132.597883	118108160	85602304	34769632	24992
866	111.410314	120537088	85602304	35434496	24992
867	109.54212	120537088	85602304	49595168	24992
868	110.847896	121077760	86126592	64664704	24992
869	139.719611	120655872	86126592	33442856	24992
870	117.957526	120655872	86126592	38980136	24992
871	116.203878	120655872	86126592	56952248	24992
872	142.5386	123899904	89272320	64306792	24992
873	125.667738	122195968	87175168	41407224	24992
874	121.91942	122195968	87175168	50565304	24992
875	126.755232	127062016	92418048	60741000	24992
876	161.835968	129253376	94515200	41458296	24992
877	127.20927	129253376	94515200	53581456	24992
878	129.394116	129253376	94515200	66567832	24992
879	135.635378	140337152	105525248	80461328	24992
880	164.666041	134602752	99758080	43693880	24992
881	133.797042	134602752	99758080	59553864	24992
882	139.240014	134602752	99758080	64816840	24992
883	169.581335	130052096	97136640	30271296	24992
884	137.354808	131940352	97136640	47590752	24992
885	143.879448	131940352	97136640	55772616	24992
886	143.963349	133021696	98185216	76634736	24992
887	186.558173	132505600	97660928	41176600	24992
888	142.990947	132505600	97660928	63814328	24992
889	151.518324	134938624	100282368	75730832	24992
890	177.479549	131698688	97136640	32098320	24992
891	152.703555	131698688	97136640	45991208	24992
892	152.723839	131698688	97136640	60946488	24992
893	180.663756	124612608	89796608	29066272	24992
894	156.699474	124612608	89796608	46069136	24992
895	164.796681	125964288	91369472	63836504	24992
896	198.985139	125415424	90320896	43100200	24992
897	162.090141	125956096	91369472	62946120	24992
898	179.706022	140554240	106049536	83767120	24992
899	182.977626	136482816	101855232	55160872	24992
900	168.338621	136482816	101855232	66311440	24992
901	200.913777	144052224	109195264	78612776	24992
902	3.035353	132087808	97136640	52573144	24992
903	4.388922	132087808	97136640	55524688	24992
904	8.920065	132087808	97136640	46940360	24992
905	7.4555	132087808	97136640	51883752	24992
906	8.649646	132087808	97136640	57826504	24992
907	11.951684	132087808	97136640	49798280	24992
908	12.22484	132087808	97136640	57717224	24992
909	14.451473	132087808	97136640	50801904	24992
910	14.831364	132087808	97136640	60664248	24992
911	17.347266	132087808	97136640	55217192	24992
912	19.375129	132087808	97136640	51666528	24992
913	21.527196	132087808	97136640	49794208	24992
914	22.826769	132087808	97136640	49293000	24992
915	24.171346	132087808	97136640	49823832	24992
916	25.888017	132087808	97136640	51277168	24992
917	27.107859	132087808	97136640	53412728	24992
918	28.513366	132087808	97136640	56151032	24992
919	29.59909	132087808	97136640	59368528	24992
920	33.295321	132087808	97136640	49887768	24992
921	35.993569	132087808	97136640	59437920	24992
922	37.166464	132087808	97136640	53103560	24992
923	39.166612	132087808	97136640	64635528	24992
924	40.073812	132087808	97136640	59903160	24992
925	46.380503	132087808	97136640	61758472	24992
926	46.75921	132358144	97660928	76167104	24992
927	44.239049	132628480	97660928	73433032	24992
928	45.739426	132628480	97660928	72458776	24992
929	55.473327	137494528	102903808	78359344	24992
930	78.355527	130560000	98185216	31338104	24992
931	57.376608	132988928	98185216	37620104	24992
932	59.192278	132988928	98185216	34738384	24992
933	58.283605	132988928	98185216	44497240	24992
934	59.970512	132988928	98185216	55292048	24992
935	65.670083	132988928	98185216	55604112	24992
936	63.28217	132988928	98185216	68471088	24992
937	91.744693	127619072	94515200	22718480	24992
938	68.146695	129507328	94515200	36457840	24992
939	70.210266	129507328	94515200	40745336	24992
940	73.879175	129507328	94515200	46189360	24992
941	75.109209	129507328	94515200	52625616	24992
942	82.615758	130318336	95563776	60107280	24992
943	98.670437	123334656	88748032	36775832	24992
944	78.741338	123334656	88748032	46175568	24992
945	83.437033	123334656	88748032	45124160	24992
946	82.560561	123334656	88748032	56488792	24992
947	85.505284	125227008	90320896	69025544	24992
948	118.702373	125739008	90845184	37134136	24992
949	89.866315	125739008	90845184	40484808	24992
950	88.89949	125739008	90845184	56049104	24992
951	93.191989	125739008	90845184	61384200	24992
952	105.020885	131956736	97136640	67667960	24992
953	119.9923	130138112	95563776	39225216	24992
954	96.35544	130138112	95563776	47502104	24992
955	99.185042	130138112	95563776	56819888	24992
956	105.227827	130138112	95563776	66882280	24992
957	132.156975	126951424	92418048	27765216	24992
958	108.841704	127492096	92418048	40265256	24992
959	106.727398	127492096	92418048	53800880	24992
960	111.406105	127492096	92418048	56649912	24992
961	130.708889	124301312	89272320	23880104	24992
962	111.837167	124301312	89272320	40479000	24992
963	115.851019	124301312	89272320	46612976	24992
964	138.681054	127275008	92418048	65149776	24992
965	127.754954	123670528	88748032	42016320	24992
966	121.977208	123670528	88748032	51020256	24992
967	125.43975	126644224	91893760	61282200	24992
968	157.508106	128442368	93466624	41836072	24992
969	127.038422	128442368	93466624	54171992	24992
970	127.364584	128442368	93466624	67407664	24992
971	132.643093	139796480	105525248	81962440	24992
972	165.708696	136970240	101855232	45146528	24992
973	132.670497	136970240	101855232	61573512	24992
974	137.907767	136970240	101855232	67717208	24992
975	166.178629	129028096	96612352	33164344	24992
976	141.74259	131457024	96612352	39912768	24992
977	138.854896	131457024	96612352	60704328	24992
978	166.23703	134430720	99758080	71080968	24992
979	153.561276	131407872	96612352	46993120	24992
980	148.958139	131407872	96612352	59485672	24992
981	157.25741	136814592	101855232	73102344	24992
982	182.845808	135315456	100282368	51616488	24992
983	152.597749	135315456	100282368	67251344	24992
984	161.164667	139100160	104476672	72370968	24992
985	194.745432	134930432	99758080	53593240	24992
986	162.928413	134930432	99758080	60670160	24992
987	161.106306	140066816	105525248	80397424	24992
988	188.948776	134004736	99758080	39614648	24992
989	166.391499	134275072	99758080	49984920	24992
990	171.354127	134815744	100282368	61443304	24992
991	201.189774	125829120	90845184	55772784	24992
992	168.38204	127991808	93466624	69178976	24992
993	186.470594	145022976	110243840	83883640	24992
994	206.455432	141197312	106049536	47341024	24992
995	174.921356	141197312	106049536	64096000	24992
996	207.728099	128983040	96088064	41822448	24992
997	181.000752	130871296	96088064	47684264	24992
998	180.929254	132222976	97660928	67737480	24992
999	211.35827	131198976	96088064	35131688	24992
1000	184.610872	131198976	96088064	57239704	24992
