x	Duration	RSS	HeapTotal	HeapUsed	External
0	NA	118255616	82980864	12300384	24992
1	0.600995	118255616	82980864	12352184	24992
2	0.466226	118255616	82980864	12428760	24992
3	0.539311	118255616	82980864	12532368	24992
4	0.649534	118255616	82980864	12664552	24992
5	0.777397	118255616	82980864	12826808	24992
6	0.907312	118255616	82980864	13019592	24992
7	1.628381	118255616	82980864	13243888	24992
8	1.292936	118255616	82980864	13500728	24992
9	1.420167	118255616	82980864	13795504	24992
10	1.447759	118255616	82980864	14121760	24992
11	1.606215	118255616	82980864	14483968	24992
12	1.091246	118255616	82980864	14883152	24992
13	0.739276	118255616	82980864	15320312	24992
14	0.800307	118255616	82980864	15796400	24992
15	1.013355	118255616	82980864	16312328	24992
16	1.282875	118255616	82980864	16869096	24992
17	1.025394	118255616	82980864	17474816	24992
18	1.255277	118255616	82980864	18118144	24992
19	1.345636	118255616	82980864	18808088	24992
20	1.157696	118255616	82980864	19539376	24992
21	1.225555	118255616	82980864	20316728	24992
22	1.8659	118255616	82980864	21143808	24992
23	1.526808	118255616	82980864	22016056	24992
24	1.515894	118255616	82980864	22940536	24992
25	1.500651	118255616	82980864	23913816	24992
26	1.585533	118255616	82980864	24939032	24992
27	1.714202	118255616	82980864	26017272	24992
28	1.77036	118255616	82980864	27149384	24992
29	2.001898	118255616	82980864	28336544	24992
30	3.311681	118255616	82980864	13318912	24992
31	2.015895	118255616	82980864	14618736	24992
32	2.2823	118255616	82980864	15979880	24992
33	2.146956	118255616	82980864	17403336	24992
34	2.672736	118255616	82980864	18887848	24992
35	2.960387	118255616	82980864	20432208	24992
36	2.730193	118255616	82980864	22039928	24992
37	2.82588	118255616	82980864	23718504	24992
38	2.754447	118255616	82980864	25451104	24992
39	2.673427	118255616	82980864	27248472	24992
40	2.766976	118255616	82980864	29111616	24992
41	4.470992	118255616	82980864	14979048	24992
42	3.225766	118255616	82980864	16976416	24992
43	3.081115	118255616	82980864	19042656	24992
44	3.209054	118255616	82980864	21178152	24992
45	3.480606	118255616	82980864	23386336	24992
46	3.434722	118255616	82980864	25665328	24992
47	4.061027	118255616	82980864	28017536	24992
48	5.511312	118255616	82980864	14744776	24992
49	4.197031	118255616	82980864	17247872	24992
50	4.040834	118255616	82980864	19828360	24992
51	4.219803	118255616	82980864	22488048	24992
52	4.21141	118255616	82980864	25227808	24992
53	4.229416	118255616	82980864	28048728	24992
54	6.495165	118255616	82980864	15375304	24992
55	4.489893	118255616	82980864	18361416	24992
56	4.713355	118255616	82980864	21431704	24992
57	5.441747	118255616	82980864	24586968	24992
58	5.532649	118255616	82980864	27837000	24992
59	6.93515	118255616	82980864	15650600	24992
60	5.287861	118255616	82980864	19068568	24992
61	5.924286	118255616	82980864	22573712	24992
62	5.380502	118255616	82980864	26171312	24992
63	5.39165	118255616	82980864	29857536	24992
64	7.372989	118255616	82980864	17845632	24992
65	5.702705	118255616	82980864	21724296	24992
66	5.996311	118255616	82980864	25696912	24992
67	6.648172	118255616	82980864	29764256	24992
68	7.930378	118255616	82980864	18197320	24992
69	6.244049	118255616	82980864	22457176	24992
70	6.664973	118255616	82980864	26814584	24992
71	6.907208	118255616	82980864	31271672	24992
72	8.758883	118255616	82980864	19928152	24992
73	7.27789	118255616	82980864	24586504	24992
74	7.829914	118255616	82980864	29354360	24992
75	9.288458	118255616	82980864	18609136	24992
76	7.925626	118255616	82980864	23573688	24992
77	8.126258	118255616	82980864	28642632	24992
78	10.623582	118255616	82980864	18393056	24992
79	7.812862	118255616	82980864	23676384	24992
80	8.253134	118255616	82980864	29064848	24992
81	10.694616	118255616	82980864	19161728	24992
82	8.682822	118255616	82980864	24770056	24992
83	8.726228	118255616	82980864	30489712	24992
84	10.958038	118255616	82980864	20778120	24992
85	9.449636	118255616	82980864	26721816	24992
86	9.385651	118255616	82980864	32783840	24992
87	12.4004	118255616	82980864	23141648	24992
88	9.5456	118255616	82980864	29432000	24992
89	11.826879	118255616	82980864	20527536	24992
90	9.911353	118255616	82980864	27052792	24992
91	10.454739	118255616	82980864	33697416	24992
92	12.924302	118255616	82980864	24552464	24992
93	10.588359	118255616	82980864	31438712	24992
94	13.119989	118255616	82980864	22965032	24992
95	10.657903	118255616	82980864	30097096	24992
96	13.48475	118255616	82980864	22052472	24992
97	11.291412	118255616	82980864	29435712	24992
98	14.073576	118255616	82980864	21832952	24992
99	12.175385	118255616	82980864	29468192	24992
100	14.668105	118255616	82980864	22183432	24992
101	12.185436	118255616	82980864	30078600	24992
102	0.446379	118255616	82980864	22869792	24992
103	0.637847	118255616	82980864	23273440	24992
104	0.817567	118255616	82980864	23813208	24992
105	1.013624	118255616	82980864	24490112	24992
106	1.219789	118255616	82980864	25305632	24992
107	1.623544	118255616	82980864	26260160	24992
108	1.62433	118255616	82980864	27354648	24992
109	1.832574	118255616	82980864	28590136	24992
110	2.030677	118255616	82980864	29968624	24992
111	2.248928	118255616	82980864	31490216	24992
112	2.445535	118255616	82980864	33155544	24992
113	2.847789	118255616	82980864	34967792	24992
114	2.887384	118255616	82980864	36923848	24992
115	5.007004	118255616	82980864	22995088	24992
116	3.378043	118255616	82980864	25247112	24992
117	3.521015	118255616	82980864	27646640	24992
118	3.762296	118255616	82980864	30200632	24992
119	4.178863	118255616	82980864	32902480	24992
120	4.546243	118255616	82980864	35756400	24992
121	6.892667	118255616	82980864	22859920	24992
122	4.700032	118255616	82980864	26020200	24992
123	4.925539	118255616	82980864	29335552	24992
124	5.290593	118255616	82980864	32807904	24992
125	5.352904	118255616	82980864	36437880	24992
126	7.756269	118255616	82980864	24224672	24992
127	6.009409	118255616	82980864	28167928	24992
128	6.42425	118255616	82980864	32273864	24992
129	6.339172	118255616	82980864	36537336	24992
130	8.958991	118255616	82980864	24976416	24992
131	6.986955	118255616	82980864	29567032	24992
132	7.074948	118255616	82980864	34319888	24992
133	9.738236	118255616	82980864	23632088	24992
134	7.577749	118255616	82980864	28719616	24992
135	8.07583	118255616	82980864	33977392	24992
136	10.29192	118255616	82980864	23886032	24992
137	8.484859	118255616	82980864	29475808	24992
138	8.76779	118255616	82980864	35237800	24992
139	11.201823	118255616	82980864	25485856	24992
140	9.320177	118255616	82980864	31587288	24992
141	9.283383	118255616	82980864	37861760	24992
142	11.783113	118255616	82980864	28224432	24992
143	10.242278	118255616	82980864	34848392	24992
144	12.561168	118255616	82980864	26077416	24992
145	10.446121	118255616	82980864	33056416	24992
146	13.294125	118255616	82980864	24946504	24992
147	11.196751	118255616	82980864	32290168	24992
148	14.016658	118255616	82980864	24707960	24992
149	11.710287	118255616	82980864	32409864	24992
150	14.791958	118255616	82980864	25208216	24992
151	12.040238	118255616	82980864	33275896	24992
152	15.046523	118255616	82980864	26323848	24992
153	12.950837	118255616	82980864	34766712	24992
154	15.55161	118255616	82980864	27955032	24992
155	13.350277	118255616	82980864	36768344	24992
156	16.20968	118255616	82980864	30039072	24992
157	13.888592	118255616	82980864	39231296	24992
158	16.352638	118255616	82980864	32499152	24992
159	17.49136	118255616	82980864	27071720	24992
160	14.810354	118255616	82980864	36839008	24992
161	17.694849	118255616	82980864	31086520	24992
162	18.707235	118255616	82980864	26570848	24992
163	15.524123	118255616	82980864	36921144	24992
164	18.936198	118255616	82980864	31796856	24992
165	19.20295	118255616	82980864	27805360	24992
166	16.867038	118255616	82980864	38757744	24992
167	19.645604	118255616	82980864	33972496	24992
168	20.500318	118255616	82980864	30253512	24992
169	17.404892	118255616	82980864	41807528	24992
170	20.540174	118255616	82980864	37258560	24992
171	21.005539	118255616	82980864	33643792	24992
172	21.80934	118255616	82980864	30864400	24992
173	22.519634	118255616	82980864	28765552	24992
174	19.415307	118255616	82980864	41339208	24992
175	22.008085	118255616	82980864	37935872	24992
176	22.736173	118255616	82980864	35347800	24992
177	23.285361	118255616	82980864	33378576	24992
178	24.893149	118255616	82980864	31989384	24992
179	24.816307	118255616	82980864	31085104	24992
180	24.967818	118255616	82980864	30555224	24992
181	25.914831	118255616	82980864	30393792	24992
182	26.075633	118255616	82980864	30487384	24992
183	26.769812	118255616	82980864	30815864	24992
184	26.523549	118255616	82980864	31334560	24992
185	27.561076	118255616	82980864	32011400	24992
186	27.674179	118255616	82980864	32822112	24992
187	27.654487	118255616	82980864	33701320	24992
188	28.207244	118255616	82980864	34671200	24992
189	27.844095	118255616	82980864	35723768	24992
190	28.188942	118255616	82980864	36819232	24992
191	28.521555	118255616	82980864	37997488	24992
192	28.816833	118255616	82980864	39220504	24992
193	29.176354	118255616	82980864	40459264	24992
194	29.259758	118255616	82980864	41752352	24992
195	29.763369	118255616	82980864	43089464	24992
196	29.709565	118255616	82980864	44441120	24992
197	30.305287	118255616	82980864	45823200	24992
198	34.399296	118255616	82980864	33682240	24992
199	32.131266	118255616	82980864	37458456	24992
200	32.276064	118255616	82980864	40836248	24992
201	32.464792	118255616	82980864	43884760	24992
202	0.774434	118255616	82980864	46646272	24992
203	1.117024	118255616	82980864	47348008	24992
204	4.006122	118255616	82980864	31926784	24992
205	1.794992	118255616	82980864	33100344	24992
206	2.206842	118255616	82980864	34511824	24992
207	2.506871	118255616	82980864	36170016	24992
208	2.924742	118255616	82980864	38075760	24992
209	3.516697	118255616	82980864	40230304	24992
210	4.024534	118255616	82980864	42635208	24992
211	4.303954	118255616	82980864	45290704	24992
212	7.632447	118255616	82980864	32178160	24992
213	4.980065	118255616	82980864	35343376	24992
214	5.497367	118255616	82980864	38756192	24992
215	5.646934	118255616	82980864	42428752	24992
216	6.284955	118255616	82980864	46352832	24992
217	9.587457	118255616	82980864	34421280	24992
218	6.910952	118255616	82980864	38867640	24992
219	7.531714	118255616	82980864	43564360	24992
220	11.090025	118255616	82980864	32879080	24992
221	8.378934	118255616	82980864	38103408	24992
222	8.415981	118255616	82980864	43592600	24992
223	11.902526	118255616	82980864	33680928	24992
224	9.588	118255616	82980864	39684488	24992
225	9.968983	118255616	82980864	45952424	24992
226	13.122593	118255616	82980864	36459832	24992
227	10.546394	118255616	82980864	43258832	24992
228	14.487621	118255616	82980864	34751800	24992
229	11.669717	118255616	82980864	42095632	24992
230	15.503371	118255616	82980864	34359712	24992
231	12.399116	118255616	82980864	42251088	24992
232	16.3104	118255616	82980864	35055096	24992
233	13.458648	118255616	82980864	43506528	24992
234	17.102133	118255616	82980864	36655008	24992
235	14.114686	118255616	82980864	45661336	24992
236	17.515308	118255616	82980864	39018448	24992
237	15.187254	118255616	82980864	48573208	24992
238	18.568999	118255616	82980864	42050440	24992
239	19.596037	118255616	82980864	36888120	24992
240	16.563398	118255616	82980864	47280320	24992
241	19.984779	118255616	82980864	41834384	24992
242	21.174096	118255616	82980864	37605688	24992
243	18.164914	118255616	82980864	48846792	24992
244	20.880078	118255616	82980864	44023520	24992
245	22.977585	118255616	82980864	40317072	24992
246	22.965806	118255616	82980864	37526000	24992
247	24.075666	118255616	82980864	35504792	24992
248	20.083871	118255616	82980864	48183792	24992
249	23.731898	118255616	82980864	44962160	24992
250	24.913393	118255616	82980864	42597104	24992
251	25.282508	118255616	82980864	40911128	24992
252	26.166102	118255616	82980864	39827432	24992
253	26.850521	118255616	82980864	39267976	24992
254	27.137174	118255616	82980864	39093160	24992
255	28.153219	118255616	82980864	39267776	24992
256	28.267536	118255616	82980864	39745384	24992
257	28.983971	118255616	82980864	40456920	24992
258	29.140851	118255616	82980864	41354184	24992
259	30.429592	118255616	82980864	42432624	24992
260	29.551288	118255616	82980864	43603632	24992
261	30.138535	118255616	82980864	44911728	24992
262	31.282766	118255616	82980864	46310552	24992
263	31.188057	118255616	82980864	47789752	24992
264	31.739061	118255616	82980864	49360184	24992
265	31.553839	118255616	82980864	50945288	24992
266	37.067463	118255616	82980864	39038456	24992
267	34.10493	118255616	82980864	43091360	24992
268	33.953193	118255616	82980864	46781488	24992
269	34.000064	118255616	82980864	50131256	24992
270	39.886208	118255616	82980864	39817232	24992
271	39.403264	118255616	82980864	47993400	24992
272	40.348858	118255616	82980864	52867784	24992
273	52.661849	111964160	76689408	20493032	24992
274	37.431291	111964160	76689408	28989120	24992
275	36.916871	111964160	76689408	21256840	24992
276	38.063022	111964160	76689408	30916856	24992
277	38.560994	111964160	76689408	23927040	24992
278	39.143717	111964160	76689408	34179768	24992
279	39.41729	111964160	76689408	27766656	24992
280	39.234149	111964160	76689408	38644400	24992
281	40.860241	111964160	76689408	32677056	24992
282	40.540774	111964160	76689408	44222928	24992
283	41.057494	111964160	76689408	38441896	24992
284	46.081931	111964160	76689408	38851128	24992
285	43.651304	111964160	76689408	51157408	24992
286	48.58773	111964160	76689408	46388864	24992
287	64.479262	112775168	79835136	32923368	24992
288	47.374124	114937856	79835136	32878664	24992
289	44.746398	114937856	79835136	29224384	24992
290	49.163971	114937856	79835136	31532112	24992
291	50.513559	114937856	79835136	34001288	24992
292	45.954636	115208192	79835136	48615488	24992
293	45.534864	115208192	79835136	45473064	24992
294	46.692973	115208192	79835136	43548816	24992
295	52.364727	115208192	79835136	47547968	24992
296	53.843379	115208192	79835136	51710880	24992
297	54.459519	119533568	84553728	56243560	24992
298	73.268764	124399616	89272320	61073184	24992
299	56.893698	121786368	86650880	34773744	24992
300	55.192878	121786368	86650880	40369544	24992
301	55.85577	121786368	86650880	46266968	24992
302	1.125522	121786368	86650880	46021496	24992
303	2.152612	121786368	86650880	30844920	24992
304	2.163245	121786368	86650880	32219456	24992
305	2.857598	121786368	86650880	33940336	24992
306	3.179125	121786368	86650880	36007936	24992
307	3.841193	121786368	86650880	38419032	24992
308	4.439339	121786368	86650880	41182960	24992
309	4.971036	121786368	86650880	44290864	24992
310	6.147164	121786368	86650880	31811136	24992
311	5.897777	121786368	86650880	35620808	24992
312	6.411743	121786368	86650880	39785232	24992
313	7.21049	121786368	86650880	44301304	24992
314	8.47912	121786368	86650880	33277312	24992
315	8.292326	121786368	86650880	38508080	24992
316	8.844783	121786368	86650880	44095144	24992
317	10.401134	121786368	86650880	34200784	24992
318	9.853658	121786368	86650880	40503024	24992
319	10.373992	121786368	86650880	47156904	24992
320	11.658712	121786368	86650880	37811704	24992
321	11.678473	121786368	86650880	45186112	24992
322	13.102519	121786368	86650880	36902480	24992
323	12.752574	121786368	86650880	45001200	24992
324	14.182792	121786368	86650880	37501360	24992
325	13.974467	121786368	86650880	46332376	24992
326	15.300333	121786368	86650880	39329800	24992
327	16.795167	121786368	86650880	33919576	24992
328	15.65489	121786368	86650880	43845960	24992
329	17.581699	121786368	86650880	38391440	24992
330	18.738436	121786368	86650880	34308896	24992
331	17.330988	121786368	86650880	45367296	24992
332	19.362759	121786368	86650880	40783104	24992
333	20.612021	121786368	86650880	37391800	24992
334	21.069762	121786368	86650880	34946480	24992
335	20.240646	121786368	86650880	47495240	24992
336	21.355078	121786368	86650880	44052456	24992
337	22.244545	121786368	86650880	41609000	24992
338	23.378891	121786368	86650880	39975504	24992
339	24.463036	121786368	86650880	39028344	24992
340	24.753887	121786368	86650880	38634536	24992
341	25.809782	121786368	86650880	38713008	24992
342	25.867316	121786368	86650880	39167664	24992
343	26.824784	121786368	86650880	39934992	24992
344	27.253779	121786368	86650880	40943192	24992
345	27.765129	121786368	86650880	42168960	24992
346	28.393641	121786368	86650880	43581840	24992
347	28.668595	121786368	86650880	45113368	24992
348	28.824409	121786368	86650880	46801168	24992
349	29.391321	121786368	86650880	48592064	24992
350	33.098609	121786368	86650880	36959840	24992
351	32.316787	121786368	86650880	41286792	24992
352	32.382304	121786368	86650880	45279992	24992
353	33.571443	121786368	86650880	48950624	24992
354	35.875466	121786368	86650880	38890984	24992
355	34.670241	121786368	86650880	44501768	24992
356	34.753733	121786368	86650880	49549648	24992
357	37.815446	121786368	86650880	40620688	24992
358	37.204876	121786368	86650880	47200264	24992
359	39.679108	121786368	86650880	39839096	24992
360	40.860316	122056704	86650880	50700696	24992
361	41.237123	122056704	86650880	44517512	24992
362	42.081045	122056704	86650880	56201336	24992
363	42.237642	122056704	86650880	50477176	24992
364	45.218157	122056704	86650880	46570664	24992
365	43.014981	122056704	86650880	59306160	24992
366	44.324729	122056704	86650880	54910328	24992
367	50.418	122597376	87699456	56908296	24992
368	57.073008	127463424	92942336	59117432	24992
369	68.214222	121794560	88748032	28739408	24992
370	50.425035	123682816	88748032	30460448	24992
371	51.422667	123953152	88748032	33767904	24992
372	52.09321	123953152	88748032	37602592	24992
373	52.974188	124493824	89272320	41799224	24992
374	53.48257	124493824	89272320	46434896	24992
375	54.066782	124493824	89272320	51501528	24992
376	55.282004	124493824	89272320	56937136	24992
377	75.429192	126926848	91893760	62781632	24992
378	60.070126	125833216	90845184	36208840	24992
379	57.849552	125833216	90845184	42972176	24992
380	61.909579	125833216	90845184	38580336	24992
381	58.157497	125833216	90845184	46124016	24992
382	57.530567	126103552	90845184	54064984	24992
383	60.108789	126103552	90845184	62503008	24992
384	65.298537	126644224	91369472	59771856	24992
385	89.665433	127324160	95039488	24942176	24992
386	62.406186	129753088	95039488	33475640	24992
387	62.120798	130293760	95039488	43556912	24992
388	68.535948	130293760	95039488	42498488	24992
389	63.366643	130293760	95039488	53484760	24992
390	70.405507	130293760	95039488	53326576	24992
391	64.777585	130293760	95039488	65079120	24992
392	88.220794	132997120	98185216	65789008	24992
393	72.561239	128192512	93466624	29145016	24992
394	66.100328	128192512	93466624	42252632	24992
395	72.783946	128192512	93466624	44276712	24992
396	73.536289	128462848	93466624	46768992	24992
397	69.028702	128733184	93466624	61230760	24992
398	81.207798	130084864	95039488	64577064	24992
399	93.326842	123641856	88748032	36031696	24992
400	75.50214	123641856	88748032	40290880	24992
401	76.720867	123641856	88748032	44928744	24992
402	1.420198	124452864	89272320	50281672	24992
403	2.135252	124452864	89272320	51615240	24992
404	2.766297	124452864	89272320	53395320	24992
405	3.418237	124452864	89272320	55621992	24992
406	4.125067	124452864	89272320	58298720	24992
407	7.45667	124452864	89272320	48197168	24992
408	5.663876	124452864	89272320	51779128	24992
409	6.323233	124452864	89272320	55818632	24992
410	7.073187	124452864	89272320	60300824	24992
411	9.733845	124452864	89272320	49684792	24992
412	8.42745	124452864	89272320	55073640	24992
413	9.238871	124452864	89272320	60913112	24992
414	10.394578	124452864	89272320	50906352	24992
415	10.647249	124452864	89272320	57660344	24992
416	12.411342	124452864	89272320	49182912	24992
417	11.905534	124452864	89272320	56871808	24992
418	13.879365	124452864	89272320	49480488	24992
419	13.754717	124452864	89272320	58125504	24992
420	14.960229	124452864	89272320	51472696	24992
421	15.16517	124452864	89272320	61073728	24992
422	15.867389	124452864	89272320	54851200	24992
423	17.53404	124452864	89272320	50211024	24992
424	17.270415	124452864	89272320	61269192	24992
425	18.348709	124452864	89272320	56453272	24992
426	19.763604	124452864	89272320	53021448	24992
427	20.783211	124452864	89272320	50645824	24992
428	21.623494	124452864	89272320	49159360	24992
429	23.146116	124452864	89272320	48462544	24992
430	23.787834	124452864	89272320	48347624	24992
431	24.990092	124452864	89272320	48762024	24992
432	25.131658	124452864	89272320	49593384	24992
433	27.150185	124452864	89272320	50822456	24992
434	26.609892	124452864	89272320	52266624	24992
435	27.762526	124452864	89272320	53962800	24992
436	27.726906	124452864	89272320	55839368	24992
437	27.883393	124452864	89272320	57898928	24992
438	29.340499	124452864	89272320	60132160	24992
439	29.133272	124452864	89272320	62467424	24992
440	32.5643	124452864	89272320	51323768	24992
441	31.600839	124452864	89272320	56202800	24992
442	32.889049	124452864	89272320	60769208	24992
443	34.990537	124452864	89272320	51629088	24992
444	36.367866	124452864	89272320	61162944	24992
445	37.71552	124452864	89272320	54205088	24992
446	44.515923	125534208	90320896	64663048	24992
447	47.634961	118865920	84029440	25732056	24992
448	43.585413	119132160	84029440	24304792	24992
449	45.084115	119132160	84029440	24311240	24992
450	41.299166	119132160	84029440	36550808	24992
451	43.205496	119132160	84029440	32111232	24992
452	48.031163	119132160	84029440	33836072	24992
453	44.716509	119402496	84029440	47620152	24992
454	43.576857	119402496	84029440	43982896	24992
455	45.480122	119402496	84029440	41881872	24992
456	49.846925	119943168	84553728	45594616	24992
457	57.960248	119943168	84553728	49780968	24992
458	69.649902	116330496	83505152	28196496	24992
459	54.931559	118493184	83505152	32894632	24992
460	53.626445	118493184	83505152	38519272	24992
461	54.733123	118493184	83505152	44694976	24992
462	54.972422	118493184	83505152	51325440	24992
463	60.85924	118763520	83505152	46941136	24992
464	56.238979	120115200	85078016	54601504	24992
465	63.438558	124710912	90320896	62837208	24992
466	78.943237	123301888	88223744	25984032	24992
467	60.030398	123301888	88223744	35350104	24992
468	61.165416	123572224	88223744	45193520	24992
469	67.617645	123572224	88223744	43813368	24992
470	62.140325	123572224	88223744	54700416	24992
471	68.022395	123572224	88223744	54411384	24992
472	70.125566	124383232	89272320	66413608	24992
473	85.929606	123764736	88748032	33577968	24992
474	69.721431	123764736	88748032	34970024	24992
475	70.929446	123764736	88748032	36762024	24992
476	66.871088	123764736	88748032	50825984	24992
477	72.397656	124035072	89272320	53722488	24992
478	78.990681	125386752	90320896	57082920	24992
479	94.018442	123666432	88748032	28948072	24992
480	73.785589	123666432	88748032	33520280	24992
481	70.700515	123666432	88748032	50172456	24992
482	76.760543	123666432	88748032	55741472	24992
483	76.963734	123666432	88748032	61891968	24992
484	79.720948	126640128	91893760	68534968	24992
485	105.592346	128765952	93990912	29654344	24992
486	80.947041	128765952	93990912	37662432	24992
487	80.296243	128765952	93990912	46079400	24992
488	81.838425	128765952	93990912	55079592	24992
489	80.755505	129306624	93990912	64703512	24992
490	94.229938	130658304	95563776	74774432	24992
491	98.878694	126984192	91893760	36910656	24992
492	89.197422	126984192	91893760	36216792	24992
493	85.177127	126984192	91893760	47745952	24992
494	84.548914	126984192	91893760	59840576	24992
495	97.427557	129417216	94515200	60822816	24992
496	115.054347	127045632	91893760	29872296	24992
497	90.447065	127045632	91893760	43537688	24992
498	94.472245	127045632	91893760	46206928	24992
499	92.868083	127045632	91893760	61018024	24992
500	100.45151	130289664	95563776	64760592	24992
501	120.337155	129671168	95039488	34936104	24992
502	1.70198	129671168	95039488	40188488	24992
503	2.541864	129671168	95039488	41863928	24992
504	3.314256	129671168	95039488	44099256	24992
505	4.268068	129671168	95039488	46898400	24992
506	5.134359	129671168	95039488	50257360	24992
507	8.716261	129941504	95039488	40530400	24992
508	6.89086	129941504	95039488	45016144	24992
509	7.72729	129941504	95039488	50066792	24992
510	9.531942	129941504	95039488	40108736	24992
511	9.267437	129941504	95039488	46307936	24992
512	10.403589	129941504	95039488	53065144	24992
513	11.462495	129941504	95039488	44203600	24992
514	12.015605	129941504	95039488	52100840	24992
515	13.612297	129941504	95039488	44508096	24992
516	13.851022	129941504	95039488	53561264	24992
517	15.027343	129941504	95039488	46897424	24992
518	17.182738	129941504	95039488	41963336	24992
519	16.860312	129941504	95039488	52726856	24992
520	18.016496	129941504	95039488	47890752	24992
521	19.41829	129941504	95039488	44513000	24992
522	20.413741	129941504	95039488	42276680	24992
523	21.876846	129941504	95039488	41039520	24992
524	20.617723	129941504	95039488	54691464	24992
525	21.848919	129941504	95039488	52467072	24992
526	23.264321	129941504	95039488	51212448	24992
527	24.742183	129941504	95039488	50737832	24992
528	25.365665	129941504	95039488	50930960	24992
529	26.300586	129941504	95039488	51699848	24992
530	26.882352	129941504	95039488	52873112	24992
531	27.716948	129941504	95039488	54448600	24992
532	31.037207	129941504	95039488	42815816	24992
533	31.100484	129941504	95039488	47365472	24992
534	31.400674	129941504	95039488	51686224	24992
535	35.104894	129941504	95039488	42738304	24992
536	35.736051	129941504	95039488	52061936	24992
537	34.479834	129941504	95039488	58085104	24992
538	36.904287	129941504	95039488	49993072	24992
539	37.591498	129941504	95039488	57461088	24992
540	39.071265	129941504	95039488	50777904	24992
541	42.509788	129941504	95039488	46856736	24992
542	43.613118	129941504	95039488	59624584	24992
543	42.728111	129941504	95039488	55467096	24992
544	48.777617	129941504	95039488	57869480	24992
545	48.880061	130211840	95039488	60683496	24992
546	67.647076	133996544	99233792	64026216	24992
547	57.397825	128798720	93990912	31955936	24992
548	50.925756	128798720	93990912	36671720	24992
549	52.636538	128798720	93990912	41846888	24992
550	53.77088	128798720	93990912	47674120	24992
551	54.699347	128798720	93990912	53993904	24992
552	56.702516	128798720	93990912	60928400	24992
553	61.916036	129339392	93990912	56894736	24992
554	63.333217	129609728	94515200	65081976	24992
555	77.514991	128786432	93990912	25780848	24992
556	58.494854	128786432	93990912	35346976	24992
557	60.06989	128786432	93990912	45430120	24992
558	66.884019	128786432	93990912	44510368	24992
559	61.225664	128786432	93990912	55707584	24992
560	68.274738	128786432	93990912	56023840	24992
561	71.236644	129327104	94515200	68412984	24992
562	84.324633	125628416	90320896	35478768	24992
563	70.946842	125628416	90320896	37737480	24992
564	72.103848	125628416	90320896	40505968	24992
565	67.536422	125628416	90320896	55404416	24992
566	73.734526	125628416	90320896	59441008	24992
567	81.097588	125628416	90320896	64179072	24992
568	94.492923	125706240	90845184	36261400	24992
569	78.011756	125706240	90845184	42338840	24992
570	79.798283	125706240	90845184	48866880	24992
571	78.849834	125706240	90845184	56040288	24992
572	80.025291	125706240	90845184	63856368	24992
573	104.816428	125095936	91893760	25838200	24992
574	82.412444	126984192	91893760	33807656	24992
575	83.316345	126984192	91893760	43500184	24992
576	83.606382	126984192	91893760	53755432	24992
577	89.881504	126984192	91893760	53065400	24992
578	107.646504	128335872	93466624	64731224	24992
579	92.382217	126910464	91893760	31903168	24992
580	87.828044	126910464	91893760	44759984	24992
581	95.052131	126910464	91893760	46702648	24992
582	90.448225	126910464	91893760	60836544	24992
583	116.608848	122494976	89272320	29912192	24992
584	95.35277	124383232	89272320	32800840	24992
585	91.751919	124383232	89272320	48873184	24992
586	98.096043	124383232	89272320	54013976	24992
587	102.86042	124383232	89272320	59714704	24992
588	124.537174	126459904	91369472	34682944	24992
589	100.442295	126459904	91369472	41764560	24992
590	102.852573	126459904	91369472	49492496	24992
591	102.443357	126459904	91369472	69456360	24992
592	131.888349	126529536	93466624	30889432	24992
593	105.407133	128417792	93466624	39207560	24992
594	106.499829	128417792	93466624	49514512	24992
595	105.775524	128417792	93466624	60442272	24992
596	134.443029	124157952	90845184	27341200	24992
597	110.034696	126046208	90845184	38847008	24992
598	111.244056	126046208	90845184	51779752	24992
599	118.401526	126046208	90845184	53723776	24992
600	136.31535	126693376	93466624	34604056	24992
601	116.387392	128581632	93466624	36949936	24992
602	2.061163	128581632	93466624	53017688	24992
603	3.038856	128581632	93466624	55005976	24992
604	7.500905	128581632	93466624	45450584	24992
605	5.204087	128581632	93466624	48768416	24992
606	6.221673	128581632	93466624	52771160	24992
607	6.996461	128581632	93466624	57443520	24992
608	9.614297	128581632	93466624	48081880	24992
609	9.121193	128581632	93466624	54093664	24992
610	11.112505	128581632	93466624	45357016	24992
611	11.506212	128581632	93466624	52688688	24992
612	13.786569	128581632	93466624	45579920	24992
613	13.368996	128581632	93466624	54257824	24992
614	16.08725	128581632	93466624	48183408	24992
615	15.523757	128581632	93466624	58214040	24992
616	17.527613	128581632	93466624	52809368	24992
617	18.945892	128581632	93466624	49038632	24992
618	20.272876	128581632	93466624	46630736	24992
619	19.892533	128581632	93466624	59388200	24992
620	21.330739	128581632	93466624	56494184	24992
621	23.479891	128581632	93466624	54836424	24992
622	23.669391	128581632	93466624	54121240	24992
623	24.944973	128581632	93466624	54236712	24992
624	26.29262	128581632	93466624	55024904	24992
625	27.507683	128581632	93466624	56343128	24992
626	28.453624	128581632	93466624	58154088	24992
627	28.6851	128581632	93466624	60340416	24992
628	32.629453	128581632	93466624	49339680	24992
629	32.500053	128581632	93466624	54505880	24992
630	33.308763	128581632	93466624	59425592	24992
631	35.763142	128581632	93466624	50840456	24992
632	38.133447	128581632	93466624	61187232	24992
633	39.256173	128581632	93466624	55038488	24992
634	41.851241	128581632	93466624	66814688	24992
635	55.595968	128581632	93466624	61525888	24992
636	48.192941	123506688	88223744	26449704	24992
637	48.521567	123506688	88223744	28522928	24992
638	50.05963	123506688	88223744	31142728	24992
639	50.697896	123506688	88223744	34471560	24992
640	51.651683	123506688	88223744	38475736	24992
641	52.613701	123506688	88223744	43199152	24992
642	54.343709	123506688	88223744	48643088	24992
643	69.145853	124317696	89272320	54807168	24992
644	67.804065	122834944	87699456	32703576	24992
645	55.994446	122834944	87699456	40200328	24992
646	58.510075	122834944	87699456	48405328	24992
647	62.970972	122834944	87699456	45828552	24992
648	60.01758	122834944	87699456	55565232	24992
649	61.564636	122834944	87699456	65772304	24992
650	67.590222	128241664	93990912	65341400	24992
651	92.913676	125972480	93990912	30557112	24992
652	63.987986	128401408	93990912	41987496	24992
653	70.694626	128671744	93990912	43573632	24992
654	70.477513	128671744	93990912	45901280	24992
655	67.165054	128671744	93990912	60410784	24992
656	74.286716	129212416	93990912	64234208	24992
657	81.205739	130834432	96088064	68760160	24992
658	96.764009	128507904	93466624	26453488	24992
659	73.77552	128507904	93466624	43926704	24992
660	78.128164	128507904	93466624	50485792	24992
661	79.190868	128507904	93466624	57855072	24992
662	81.10319	128778240	93466624	65892432	24992
663	107.376715	121720832	88748032	28568504	24992
664	85.684401	123609088	88748032	36940040	24992
665	87.356303	123609088	88748032	35621976	24992
666	84.93362	123609088	88748032	46606624	24992
667	87.152013	123879424	88748032	58324696	24992
668	119.475054	124026880	88748032	29985744	24992
669	88.749344	124026880	88748032	43186192	24992
670	94.113374	124026880	88748032	45551752	24992
671	91.172663	124026880	88748032	60115880	24992
672	98.839823	130785280	96088064	63934048	24992
673	123.323995	131993600	97136640	33354816	24992
674	96.04665	131993600	97136640	50277656	24992
675	100.851182	131993600	97136640	56181328	24992
676	101.557582	131993600	97136640	62861608	24992
677	102.611021	134156288	99233792	70339312	24992
678	131.059837	130523136	95563776	41076176	24992
679	103.015828	130523136	95563776	50083248	24992
680	105.055795	130523136	95563776	59721680	24992
681	106.687857	130523136	95563776	70128904	24992
682	121.970219	136740864	101855232	81294208	24992
683	123.669783	132272128	97136640	42296800	24992
684	117.580726	132272128	97136640	43397480	24992
685	110.835594	132272128	97136640	56790848	24992
686	118.50281	134164480	99233792	70886776	24992
687	139.601686	127549440	92418048	39414456	24992
688	114.409574	127549440	92418048	55017216	24992
689	121.885089	127549440	92418048	59805144	24992
690	128.702678	132415488	97136640	76863928	24992
691	144.310423	131362816	96088064	35512440	24992
692	119.250612	131362816	96088064	54040392	24992
693	125.889445	131362816	96088064	61833048	24992
694	149.140501	125722624	92418048	33660992	24992
695	127.470788	127610880	92418048	41826144	24992
696	129.044886	127610880	92418048	51941120	24992
697	130.911751	128151552	92942336	62824856	24992
698	163.050139	132739072	97660928	43357744	24992
699	133.917762	133009408	97660928	55595440	24992
700	132.716507	133009408	97660928	68676872	24992
701	147.403488	140038144	105000960	82494928	24992
702	2.327788	136736768	101855232	46111712	24992
703	3.467694	136736768	101855232	48396464	24992
704	8.65427	136736768	101855232	39188952	24992
705	6.430423	136736768	101855232	43006000	24992
706	6.897548	136736768	101855232	47592544	24992
707	10.716567	136736768	101855232	38698448	24992
708	9.676505	136736768	101855232	44803696	24992
709	10.752039	136736768	101855232	51675504	24992
710	12.711312	137007104	101855232	43242744	24992
711	13.128069	137007104	101855232	51653448	24992
712	14.808372	137007104	101855232	44771912	24992
713	16.941783	137007104	101855232	39891000	24992
714	16.67582	137007104	101855232	50626192	24992
715	19.055576	137007104	101855232	46200904	24992
716	20.659924	137007104	101855232	43355912	24992
717	21.95621	137007104	101855232	41870608	24992
718	23.193112	137007104	101855232	41428360	24992
719	24.653952	137007104	101855232	41761800	24992
720	26.027661	137007104	101855232	42870456	24992
721	27.013482	137007104	101855232	44513064	24992
722	28.231591	137007104	101855232	46628888	24992
723	29.205639	137007104	101855232	49170512	24992
724	30.477266	137007104	101855232	52040456	24992
725	33.960328	137007104	101855232	41925592	24992
726	36.523123	137007104	101855232	50814632	24992
727	34.107461	137007104	101855232	56475544	24992
728	37.346431	137007104	101855232	48375728	24992
729	36.942979	137007104	101855232	56082776	24992
730	39.661823	137007104	101855232	49694520	24992
731	46.49565	137007104	101855232	50932584	24992
732	43.492268	137007104	101855232	64207208	24992
733	43.662393	137007104	101855232	60457096	24992
734	46.02025	137007104	101855232	58589152	24992
735	52.119125	137007104	101855232	62902544	24992
736	53.758567	137007104	101855232	67765800	24992
737	61.256448	137818112	102903808	73444960	24992
738	74.184751	132435968	97660928	26993424	24992
739	57.767372	132435968	97660928	34511400	24992
740	58.298814	132435968	97660928	42587880	24992
741	64.726258	132435968	97660928	39917992	24992
742	59.751064	132435968	97660928	49573896	24992
743	62.057239	132435968	97660928	59950944	24992
744	72.664218	132976640	97660928	59796392	24992
745	85.254877	125149184	90320896	26721880	24992
746	66.130201	125149184	90320896	39756136	24992
747	72.082093	125149184	90320896	41835576	24992
748	72.032671	125149184	90320896	44861816	24992
749	69.997624	125149184	90320896	60036920	24992
750	77.665722	125419520	90320896	64772264	24992
751	101.359752	127782912	94515200	37635368	24992
752	77.768831	129671168	94515200	43072376	24992
753	77.401002	129671168	94515200	50038632	24992
754	80.02287	129671168	94515200	57723888	24992
755	82.790957	129671168	94515200	66376944	24992
756	93.024698	131833856	97136640	64267672	24992
757	105.611631	132714496	97660928	37983912	24992
758	90.189041	132714496	97660928	37823624	24992
759	87.454551	132984832	97660928	49618080	24992
760	87.482731	132984832	97660928	62279552	24992
761	93.191035	132984832	97660928	64308160	24992
762	123.66756	130220032	95039488	32912928	24992
763	91.463077	130220032	95039488	48217816	24992
764	98.684501	130220032	95039488	52744712	24992
765	98.554772	130220032	95039488	57980464	24992
766	96.657015	131571712	96612352	75622640	24992
767	124.426191	127897600	92942336	28464704	24992
768	103.099574	127897600	92942336	36506576	24992
769	102.764983	127897600	92942336	44943200	24992
770	105.616379	127897600	92942336	54320712	24992
771	129.167101	122073088	89272320	32157856	24992
772	107.370499	124502016	89272320	42404648	24992
773	113.747948	124502016	89272320	42897920	24992
774	108.085037	124502016	89272320	55580904	24992
775	133.383726	125698048	92942336	35755544	24992
776	116.69457	128126976	92942336	37563224	24992
777	113.937026	128126976	92942336	52802184	24992
778	118.341097	128126976	92942336	57379184	24992
779	147.724048	128200704	92942336	44540904	24992
780	120.688781	128200704	92942336	50759656	24992
781	122.234118	128200704	92942336	57847408	24992
782	120.625477	135229440	100282368	77163496	24992
783	147.432515	128331776	93466624	29051072	24992
784	127.375041	128331776	93466624	38550776	24992
785	129.040844	128331776	93466624	49004888	24992
786	158.001924	124186624	91893760	29199080	24992
787	132.647678	126615552	91893760	40742912	24992
788	133.083725	126615552	91893760	53647568	24992
789	141.57464	129048576	93990912	67369336	24992
790	168.532611	133914624	98709504	38894752	24992
791	138.40164	133914624	98709504	54360432	24992
792	138.433803	133914624	98709504	70724120	24992
793	163.813769	130179072	95039488	34533984	24992
794	145.514714	130179072	95039488	41286008	24992
795	140.785337	130179072	95039488	60195952	24992
796	171.706935	127131648	93990912	33816048	24992
797	149.735405	129019904	93990912	42277848	24992
798	145.974123	129019904	93990912	63602736	24992
799	184.733492	134381568	101855232	28586984	24992
800	148.02164	136810496	101855232	50818464	24992
801	154.12107	136810496	101855232	63278032	24992
802	4.406689	140324864	105525248	77480496	24992
803	6.947173	140324864	105525248	80053912	24992
804	16.804808	141135872	106049536	71182584	24992
805	15.693085	141135872	106049536	75502248	24992
806	15.678795	128344064	94515200	32690208	24992
807	11.091509	128344064	94515200	38712600	24992
808	11.763914	129691648	94515200	30066096	24992
809	12.076816	129691648	94515200	37824464	24992
810	14.567437	129691648	94515200	31066160	24992
811	14.833358	129691648	94515200	40556184	24992
812	17.159308	129691648	94515200	35038992	24992
813	18.931596	129691648	94515200	31354680	24992
814	18.736195	129691648	94515200	43469416	24992
815	20.694552	129691648	94515200	39946096	24992
816	22.087393	129691648	94515200	37956280	24992
817	24.073533	129691648	94515200	37281848	24992
818	25.438155	129691648	94515200	37540760	24992
819	27.119059	129691648	94515200	38631704	24992
820	28.773741	129691648	94515200	40498608	24992
821	29.271935	129691648	94515200	42846352	24992
822	32.872672	129691648	94515200	32255024	24992
823	33.388386	129691648	94515200	37877800	24992
824	34.081875	129691648	94515200	43366736	24992
825	37.573976	129691648	94515200	35324688	24992
826	37.901798	129691648	94515200	43049168	24992
827	40.034784	129691648	94515200	36907256	24992
828	42.713704	129691648	94515200	33589696	24992
829	44.036208	129691648	94515200	47567752	24992
830	45.55172	129691648	94515200	44320256	24992
831	46.626824	129691648	94515200	42821144	24992
832	52.982118	129691648	94515200	48026072	24992
833	53.744309	129691648	94515200	53828368	24992
834	55.846003	129691648	94515200	60603208	24992
835	58.806852	129691648	94515200	68280600	24992
836	64.575295	131313664	96088064	65313136	24992
837	63.080562	136179712	101330944	74710504	24992
838	87.450504	133451776	100806656	34148152	24992
839	67.619744	135880704	100806656	32299840	24992
840	64.227371	135880704	100806656	44275008	24992
841	69.46604	135880704	100806656	45859616	24992
842	65.72635	135880704	100806656	59723192	24992
843	72.592827	135880704	100806656	62972224	24992
844	78.5101	136421376	101330944	67352152	24992
845	94.37671	130199552	95039488	35619560	24992
846	77.857507	130199552	95039488	41874472	24992
847	77.170209	130199552	95039488	48820168	24992
848	78.814508	130199552	95039488	56813272	24992
849	79.235023	130199552	95039488	65562624	24992
850	107.205518	125247488	92942336	28170000	24992
851	83.496001	127676416	92942336	37903504	24992
852	88.817774	127676416	92942336	37927600	24992
853	88.790847	127676416	92942336	50465120	24992
854	88.322997	127676416	92942336	63923992	24992
855	123.489255	124444672	89272320	36686568	24992
856	94.245563	124444672	89272320	40483824	24992
857	92.592443	124444672	89272320	56794192	24992
858	96.619603	124444672	89272320	62450224	24992
859	108.846769	133365760	98709504	69003184	24992
860	124.827404	131854336	96612352	40476392	24992
861	101.075863	131854336	96612352	48870488	24992
862	101.231122	131854336	96612352	58300472	24992
863	106.350833	131854336	96612352	68582592	24992
864	128.946313	126533632	91369472	29553504	24992
865	107.365071	126533632	91369472	41991264	24992
866	112.861755	126533632	91369472	43692528	24992
867	111.054857	126803968	91893760	57853704	24992
868	144.659309	127508480	92418048	43976120	24992
869	118.36756	127508480	92418048	48343040	24992
870	114.792778	127508480	92418048	65279784	24992
871	120.707741	134537216	99758080	71701104	24992
872	144.92829	129249280	94515200	34773224	24992
873	122.721617	129249280	94515200	43285568	24992
874	127.07171	129249280	94515200	52572048	24992
875	146.106168	129789952	95039488	62978368	24992
876	135.562255	126611456	91369472	42294624	24992
877	127.928951	126611456	91369472	54347504	24992
878	130.158589	128233472	93466624	67315992	24992
879	157.280617	129175552	93990912	30728568	24992
880	133.600056	129175552	93990912	45520400	24992
881	135.457416	129175552	93990912	61419064	24992
882	162.287902	126521344	91369472	33420912	24992
883	142.441929	126521344	91369472	39742976	24992
884	139.459423	126521344	91369472	58606328	24992
885	170.727472	123260928	88223744	32018760	24992
886	147.034425	123260928	88223744	41260408	24992
887	142.919731	123260928	88223744	62868984	24992
888	179.496626	127053824	91893760	27199624	24992
889	145.646915	127053824	91893760	50731152	24992
890	150.995807	127053824	91893760	63738104	24992
891	178.292769	124035072	89272320	30733264	24992
892	155.07308	124035072	89272320	45644456	24992
893	162.216189	125116416	89796608	61706936	24992
894	191.451523	127152128	91893760	50739744	24992
895	159.944235	127152128	91893760	68512784	24992
896	171.042804	140939264	106049536	75737592	24992
897	198.219122	137580544	102379520	46293032	24992
898	163.660791	137580544	102379520	67108776	24992
899	176.526072	142987264	108146688	77425568	24992
900	206.858955	131842048	96612352	49583200	24992
901	173.110906	131842048	96612352	61745248	24992
902	5.345874	143466496	108670976	87380400	24992
903	18.750405	145899520	111292416	78349264	24992
904	13.25029	137289728	104476672	31753424	24992
905	8.159455	137289728	104476672	36708928	24992
906	10.007139	137289728	104476672	42609336	24992
907	11.951304	139177984	104476672	33610136	24992
908	11.76865	139177984	104476672	41495952	24992
909	14.423325	139177984	104476672	34604920	24992
910	15.075705	139177984	104476672	44476208	24992
911	17.048621	139177984	104476672	39035592	24992
912	18.85642	139177984	104476672	35605680	24992
913	21.349174	139177984	104476672	33761768	24992
914	22.664914	139177984	104476672	33215248	24992
915	24.530347	139177984	104476672	33810528	24992
916	25.959572	139177984	104476672	35303888	24992
917	27.152938	139177984	104476672	37495672	24992
918	29.982163	139177984	104476672	40241960	24992
919	29.855086	139177984	104476672	43459456	24992
920	33.653589	139177984	104476672	33978696	24992
921	36.183771	139177984	104476672	43528848	24992
922	37.827519	139177984	104476672	37194488	24992
923	39.963875	139177984	104476672	48726456	24992
924	40.013141	139177984	104476672	43994088	24992
925	45.623184	139177984	104476672	45849400	24992
926	45.416264	139177984	104476672	60250048	24992
927	44.507019	139177984	104476672	57480488	24992
928	45.799186	139177984	104476672	56506232	24992
929	52.2031	139177984	104476672	62407800	24992
930	53.780808	139177984	104476672	69125320	24992
931	58.745569	139718656	104476672	65389816	24992
932	58.141078	140259328	105000960	74054144	24992
933	86.656298	132145152	99758080	30704200	24992
934	62.271106	134574080	99758080	39985912	24992
935	66.931075	134574080	99758080	40222480	24992
936	63.636305	134574080	99758080	53008888	24992
937	68.292141	134574080	99758080	55227960	24992
938	69.517569	134574080	99758080	58572160	24992
939	77.911402	135925760	101330944	62817352	24992
940	92.394048	133083136	98185216	32131584	24992
941	76.257165	133083136	98185216	38610904	24992
942	75.311342	133083136	98185216	46147632	24992
943	77.105017	133083136	98185216	54444456	24992
944	78.344768	133083136	98185216	64006728	24992
945	88.560275	133353472	98185216	74389720	24992
946	101.628061	127504384	92418048	36696680	24992
947	87.9317	127504384	92418048	37778352	24992
948	86.111305	127774720	92418048	51369392	24992
949	91.883947	127774720	92418048	54456744	24992
950	118.551098	126545920	93466624	24969752	24992
951	93.253069	128434176	93466624	40619432	24992
952	96.744168	128434176	93466624	46660408	24992
953	97.624777	128434176	93466624	53884856	24992
954	104.268914	128704512	93466624	61896400	24992
955	126.427528	127639552	92418048	38277120	24992
956	108.419355	127639552	92418048	48550904	24992
957	107.366276	127639552	92418048	59913312	24992
958	109.4223	128180224	92942336	72234224	24992
959	130.476749	129298432	94515200	33566360	24992
960	114.960095	129298432	94515200	36848584	24992
961	111.998503	129298432	94515200	52517544	24992
962	121.815557	129839104	95039488	57518608	24992
963	142.757207	126042112	90845184	44958456	24992
964	116.99214	126042112	90845184	51962368	24992
965	121.298047	126042112	90845184	60163576	24992
966	142.105975	137125888	102379520	69282392	24992
967	131.203178	134885376	99758080	41467472	24992
968	125.783	134885376	99758080	52769536	24992
969	129.426445	134885376	99758080	64943960	24992
970	154.393323	125014016	90320896	28146016	24992
971	129.132508	125014016	90320896	42458104	24992
972	129.742995	125014016	90320896	57821656	24992
973	164.015125	124583936	89796608	28977088	24992
974	133.502983	124583936	89796608	46656208	24992
975	140.928249	124583936	89796608	53809104	24992
976	168.012404	126287872	91369472	26734544	24992
977	138.385357	126287872	91369472	47474704	24992
978	145.710931	126287872	91369472	57765008	24992
979	174.621518	126377984	93466624	33834640	24992
980	148.012748	128266240	93466624	45496840	24992
981	148.024039	128266240	93466624	58904776	24992
982	178.925272	129368064	96612352	37093272	24992
983	152.767883	131796992	96612352	51711688	24992
984	158.135774	131796992	96612352	56616920	24992
985	184.071193	131125248	96088064	36528600	24992
986	161.917724	131125248	96088064	43870328	24992
987	161.24313	131125248	96088064	63623840	24992
988	188.118832	125952000	90845184	34859568	24992
989	168.578868	125952000	90845184	45123088	24992
990	190.301138	130277376	95039488	68152408	24992
991	173.863666	125026304	89796608	50619640	24992
992	171.777159	129351680	94515200	64324336	24992
993	204.006354	130994176	96088064	37926768	24992
994	173.837237	130994176	96088064	53795816	24992
995	177.498492	131264512	96088064	70565136	24992
996	217.912074	129130496	93990912	46554632	24992
997	179.677969	132644864	97660928	65547312	24992
998	193.14437	149405696	114438144	85378568	24992
999	219.434562	141144064	106049536	51848816	24992
1000	184.862934	141144064	106049536	74048720	24992
