x	Duration	RSS	HeapTotal	HeapUsed	External
0	NA	122929152	88223744	28624712	24992
1	0.363549	122929152	88223744	28670120	24992
2	0.324477	122929152	88223744	28741392	24992
3	0.368244	122929152	88223744	28837760	24992
4	0.447505	122929152	88223744	28960448	24992
5	0.52099	122929152	88223744	29110760	24992
6	0.63956	122929152	88223744	29289496	24992
7	0.699408	122929152	88223744	29497576	24992
8	0.813912	122929152	88223744	29735936	24992
9	0.900628	122929152	88223744	30006480	24992
10	1.188685	122929152	88223744	30309168	24992
11	1.132992	122929152	88223744	30644952	24992
12	1.230432	122929152	88223744	31015264	24992
13	1.355929	122929152	88223744	31421120	24992
14	0.681501	122929152	88223744	31863368	24992
15	0.789143	122929152	88223744	32343008	24992
16	0.787997	122929152	88223744	32860992	24992
17	0.856883	122929152	88223744	33420288	24992
18	0.972611	122929152	88223744	34019720	24992
19	1.57731	122929152	88223744	34660936	24992
20	1.071133	122929152	88223744	35343880	24992
21	1.362601	122929152	88223744	36069624	24992
22	1.184856	122929152	88223744	36839320	24992
23	1.29485	122929152	88223744	37653632	24992
24	1.527874	122929152	88223744	38521640	24992
25	1.379624	122929152	88223744	39429392	24992
26	1.434597	122929152	88223744	40385800	24992
27	3.987548	122929152	88223744	27597688	24992
28	1.614532	122929152	88223744	28654168	24992
29	1.667482	122929152	88223744	29761992	24992
30	1.965115	122929152	88223744	30922296	24992
31	1.828054	122929152	88223744	32135824	24992
32	2.002155	122929152	88223744	33406112	24992
33	2.0279	122929152	88223744	34735848	24992
34	2.097415	122929152	88223744	36121976	24992
35	2.164313	122929152	88223744	37565328	24992
36	2.45941	122929152	88223744	39066536	24992
37	2.359184	122929152	88223744	40626600	24992
38	2.438042	122929152	88223744	42246464	24992
39	4.517995	122929152	88223744	28627184	24992
40	2.85455	122929152	88223744	30369640	24992
41	2.73199	122929152	88223744	32174848	24992
42	2.843335	122929152	88223744	34043248	24992
43	2.921756	122929152	88223744	35976304	24992
44	3.228093	122929152	88223744	37975208	24992
45	3.135925	122929152	88223744	40041080	24992
46	3.255556	122929152	88223744	42173464	24992
47	5.657091	122929152	88223744	29121104	24992
48	3.514406	122929152	88223744	31390768	24992
49	3.880627	122929152	88223744	33733048	24992
50	3.863871	122929152	88223744	36144960	24992
51	3.830872	122929152	88223744	38630960	24992
52	4.029847	122929152	88223744	41191792	24992
53	4.271443	122929152	88223744	43828944	24992
54	5.861029	122929152	88223744	31035200	24992
55	4.56391	122929152	88223744	33825832	24992
56	4.532336	122929152	88223744	36696224	24992
57	4.48856	122929152	88223744	39645096	24992
58	4.789086	122929152	88223744	42676664	24992
59	6.589125	122929152	88223744	30314112	24992
60	5.029863	122929152	88223744	33507736	24992
61	5.00633	122929152	88223744	36784072	24992
62	5.237447	122929152	88223744	40144480	24992
63	5.278658	122929152	88223744	43589880	24992
64	7.308094	122929152	88223744	31480656	24992
65	5.532979	122929152	88223744	35106928	24992
66	5.658796	122929152	88223744	38821080	24992
67	5.869883	122929152	88223744	42624672	24992
68	8.117328	122929152	88223744	31017440	24992
69	6.498137	122929152	88223744	35002952	24992
70	6.428586	122929152	88223744	39077992	24992
71	6.547981	122929152	88223744	43245928	24992
72	8.731889	122929152	88223744	31943752	24992
73	6.99748	122929152	88223744	36299336	24992
74	6.818118	122929152	88223744	40750656	24992
75	7.182998	122929152	88223744	45298376	24992
76	9.55459	122929152	88223744	34175176	24992
77	7.290305	122929152	88223744	38918680	24992
78	7.602121	122929152	88223744	43762280	24992
79	9.95432	122929152	88223744	33166016	24992
80	7.813785	122929152	88223744	38208216	24992
81	8.25625	122929152	88223744	43353736	24992
82	10.578293	122929152	88223744	33120088	24992
83	8.552872	122929152	88223744	38472008	24992
84	8.800774	122929152	88223744	43933304	24992
85	12.010821	122929152	88223744	34011280	24992
86	8.729041	122929152	88223744	39679760	24992
87	9.75394	122929152	88223744	45463744	24992
88	11.545979	122929152	88223744	35718952	24992
89	9.448327	122929152	88223744	41715056	24992
90	9.466848	122929152	88223744	47819856	24992
91	12.883686	122929152	88223744	38204000	24992
92	10.608129	122929152	88223744	44540760	24992
93	12.703303	122929152	88223744	35591728	24992
94	10.669605	122929152	88223744	42145888	24992
95	10.24948	122929152	88223744	48814376	24992
96	12.857749	122929152	88223744	39700856	24992
97	11.157898	122929152	88223744	46603168	24992
98	14.134294	122929152	88223744	38085000	24992
99	11.72175	122929152	88223744	45222736	24992
100	14.255867	122929152	88223744	37092984	24992
101	11.864699	122929152	88223744	44469904	24992
102	2.937126	122929152	88223744	35774520	24992
103	0.658806	122929152	88223744	36140752	24992
104	0.854526	122929152	88223744	36634232	24992
105	1.068111	122929152	88223744	37255800	24992
106	1.275606	122929152	88223744	38006976	24992
107	1.475652	122929152	88223744	38888136	24992
108	1.821667	122929152	88223744	39900232	24992
109	1.790034	122929152	88223744	41044272	24992
110	1.985198	122929152	88223744	42325592	24992
111	2.181478	122929152	88223744	43737024	24992
112	2.396552	122929152	88223744	45283152	24992
113	2.775122	122929152	88223744	46964816	24992
114	2.795703	122929152	88223744	48782944	24992
115	3.023498	122929152	88223744	50738480	24992
116	5.811033	122929152	88223744	36890128	24992
117	3.669237	122929152	88223744	39123280	24992
118	3.897097	122929152	88223744	41498608	24992
119	3.892333	122929152	88223744	44016472	24992
120	4.198817	122929152	88223744	46675216	24992
121	4.499798	122929152	88223744	49476968	24992
122	7.377254	122929152	88223744	36630712	24992
123	5.535092	122929152	88223744	39721352	24992
124	5.155768	122929152	88223744	42965952	24992
125	5.222839	122929152	88223744	46352408	24992
126	5.617726	122929152	88223744	49883000	24992
127	8.245673	122929152	88223744	37691400	24992
128	6.17537	122929152	88223744	41523440	24992
129	6.136638	122929152	88223744	45507120	24992
130	6.398152	122929152	88223744	49637536	24992
131	9.254677	122929152	88223744	38124656	24992
132	6.882944	122929152	88223744	42561712	24992
133	7.245354	122929152	88223744	47154640	24992
134	7.360746	122929152	88223744	51912432	24992
135	9.938991	122929152	88223744	40717152	24992
136	8.089666	122929152	88223744	45784216	24992
137	8.313796	122929152	88223744	51007920	24992
138	10.822433	122929152	88223744	40428432	24992
139	8.811873	122929152	88223744	45974112	24992
140	8.99253	122929152	88223744	51677128	24992
141	11.654544	122929152	88223744	41497248	24992
142	9.362781	122929152	88223744	47525848	24992
143	12.511385	122929152	88223744	38266192	24992
144	10.104995	122929152	88223744	44620312	24992
145	10.102521	122929152	88223744	51147016	24992
146	13.380251	122929152	88223744	41908120	24992
147	10.861447	122929152	88223744	48760648	24992
148	13.616905	122929152	88223744	40241024	24992
149	11.388658	122929152	88223744	47431056	24992
150	14.686915	122929152	88223744	39419104	24992
151	11.771889	122929152	88223744	46956752	24992
152	15.465265	122929152	88223744	39414600	24992
153	12.621405	122929152	88223744	47290768	24992
154	15.921371	122929152	88223744	40070616	24992
155	13.110507	122929152	88223744	48302928	24992
156	15.999982	122929152	88223744	41302960	24992
157	13.564607	122929152	88223744	49879640	24992
158	17.04715	122929152	88223744	43041592	24992
159	14.268815	122929152	88223744	51973624	24992
160	17.231293	122929152	88223744	45201600	24992
161	14.686071	122929152	88223744	54493248	24992
162	17.857484	122929152	88223744	47778376	24992
163	18.644395	122929152	88223744	42190232	24992
164	15.560092	122929152	88223744	52029944	24992
165	18.442494	122929152	88223744	46219200	24992
166	19.833614	122929152	88223744	41471144	24992
167	16.37914	122929152	88223744	51875856	24992
168	19.788358	122929152	88223744	46704568	24992
169	20.372869	122929152	88223744	42502096	24992
170	18.170781	122929152	88223744	53473336	24992
171	20.624998	122929152	88223744	48679464	24992
172	21.683011	122929152	88223744	44816344	24992
173	18.324028	122929152	88223744	56352968	24992
174	21.365613	122929152	88223744	51824472	24992
175	22.261626	122929152	88223744	48133880	24992
176	23.074056	122929152	88223744	45161744	24992
177	19.74736	122929152	88223744	57471792	24992
178	23.317692	122929152	88223744	53679144	24992
179	23.401626	122929152	88223744	50600160	24992
180	24.090827	122929152	88223744	48162696	24992
181	24.696721	122929152	88223744	46236736	24992
182	25.213862	122929152	88223744	44833776	24992
183	22.228324	122929152	88223744	58332016	24992
184	25.095992	122929152	88223744	55748888	24992
185	25.473726	122929152	88223744	53676176	24992
186	26.419282	122929152	88223744	52149464	24992
187	26.077228	122929152	88223744	50989896	24992
188	27.098949	122929152	88223744	50220128	24992
189	27.333968	122929152	88223744	49801760	24992
190	27.589924	122929152	88223744	49681248	24992
191	28.500878	122929152	88223744	49787192	24992
192	28.661	122929152	88223744	50131792	24992
193	29.418335	122929152	88223744	50649848	24992
194	29.639172	122929152	88223744	51332800	24992
195	29.525377	122929152	88223744	52158280	24992
196	29.515443	122929152	88223744	53102368	24992
197	30.225668	122929152	88223744	54117968	24992
198	30.166075	122929152	88223744	55237968	24992
199	30.800821	122929152	88223744	56439984	24992
200	30.849173	122929152	88223744	57712640	24992
201	32.162816	122929152	88223744	59020416	24992
202	0.74657	122929152	88223744	60334736	24992
203	1.065251	122929152	88223744	60992768	24992
204	4.642878	122929152	88223744	45628528	24992
205	1.786665	122929152	88223744	46727336	24992
206	2.129768	122929152	88223744	48048480	24992
207	2.468139	122929152	88223744	49592328	24992
208	2.863655	122929152	88223744	51359824	24992
209	3.370633	122929152	88223744	53363208	24992
210	3.712997	122929152	88223744	55598224	24992
211	3.886422	122929152	88223744	58068040	24992
212	4.280941	122929152	88223744	60773432	24992
213	8.279692	122929152	88223744	47514992	24992
214	4.992966	122929152	88223744	50696328	24992
215	5.320191	122929152	88223744	54113944	24992
216	5.912902	122929152	88223744	57778856	24992
217	6.061138	122929152	88223744	61676120	24992
218	10.152373	122929152	88223744	49535808	24992
219	7.645832	122929152	88223744	53918072	24992
220	7.672349	122929152	88223744	58548856	24992
221	11.65784	122929152	88223744	47592800	24992
222	7.968751	122929152	88223744	52720752	24992
223	8.506782	122929152	88223744	58081000	24992
224	12.442349	122929152	88223744	47934064	24992
225	9.136788	122929152	88223744	53789856	24992
226	9.552542	122929152	88223744	59896040	24992
227	13.815231	122929152	88223744	50250816	24992
228	10.515078	122929152	88223744	56860288	24992
229	14.641166	122929152	88223744	48162824	24992
230	11.42026	122929152	88223744	55273744	24992
231	15.307945	122929152	88223744	47319776	24992
232	12.06473	122929152	88223744	54934656	24992
233	16.325711	122929152	88223744	47561912	24992
234	12.899374	122929152	88223744	55708392	24992
235	17.158848	122929152	88223744	48764976	24992
236	13.58502	122929152	88223744	57417008	24992
237	18.025206	122929152	88223744	50754120	24992
238	14.436348	122929152	88223744	59921720	24992
239	19.098171	122929152	88223744	53418176	24992
240	15.512959	122929152	88223744	63115680	24992
241	19.079213	122929152	88223744	56730000	24992
242	20.290643	122929152	88223744	51502416	24992
243	16.860499	122929152	88223744	61991264	24992
244	20.45501	122929152	88223744	56590720	24992
245	21.869648	122929152	88223744	52213888	24992
246	18.260884	122929152	88223744	63499496	24992
247	21.874552	122929152	88223744	58697736	24992
248	22.90088	122929152	88223744	54854896	24992
249	23.553839	122929152	88223744	51851144	24992
250	24.355351	122929152	88223744	49546048	24992
251	20.67159	122929152	88223744	62174520	24992
252	24.394683	122929152	88223744	58978384	24992
253	25.280786	122929152	88223744	56537136	24992
254	25.629953	122929152	88223744	54696808	24992
255	26.548024	122929152	88223744	53397280	24992
256	27.773622	122929152	88223744	52631920	24992
257	28.039507	122929152	88223744	52237336	24992
258	28.272299	122929152	88223744	52202848	24992
259	28.866949	122929152	88223744	52458232	24992
260	29.628026	122929152	88223744	52981400	24992
261	32.416076	122929152	88223744	53723688	24992
262	38.302471	122929152	88223744	54658312	24992
263	34.795498	113938432	80359424	27273040	24992
264	26.692724	115286016	80359424	27415736	24992
265	27.321332	115286016	80359424	27816808	24992
266	27.418046	115286016	80359424	28491016	24992
267	27.92134	115286016	80359424	29341064	24992
268	28.10315	115286016	80359424	30370088	24992
269	30.433254	115286016	80359424	17487736	24992
270	30.147024	115286016	80359424	20830712	24992
271	31.136657	115286016	80359424	23980584	24992
272	30.589267	115286016	80359424	26960472	24992
273	30.588798	115286016	80359424	29809680	24992
274	32.80452	115286016	80359424	18550264	24992
275	32.858023	115286016	80359424	23254688	24992
276	32.693039	115286016	80359424	27574416	24992
277	35.103246	115286016	80359424	17845720	24992
278	35.372124	115286016	80359424	25943904	24992
279	33.583673	115286016	80359424	31250688	24992
280	36.095524	115286016	80359424	22217624	24992
281	36.762607	115286016	80359424	31237904	24992
282	37.513446	115286016	80359424	23791608	24992
283	38.588877	115286016	80359424	33360064	24992
284	36.0062	115286016	80359424	39904096	24992
285	38.393073	115286016	80359424	31754080	24992
286	37.330367	115286016	80359424	39167488	24992
287	39.699179	115286016	80359424	31801072	24992
288	39.66942	115286016	80359424	39869544	24992
289	40.257274	115286016	80359424	33063664	24992
290	42.15275	115286016	80359424	28438928	24992
291	41.723835	115286016	80359424	40426344	24992
292	42.612623	115286016	80359424	35472008	24992
293	47.062551	115826688	80883712	35764064	24992
294	43.97595	115826688	80883712	48560672	24992
295	43.412068	115826688	80883712	44310816	24992
296	47.216399	115826688	80883712	45544016	24992
297	55.780465	117989376	82980864	46885192	24992
298	58.391541	114438144	81408000	35384208	24992
299	45.795574	116326400	81408000	31511856	24992
300	46.044987	116326400	81408000	28964888	24992
301	48.569153	116326400	81408000	31660592	24992
302	1.054841	116326400	81408000	34666200	24992
303	2.083335	116326400	81408000	35628856	24992
304	2.087008	116326400	81408000	36917152	24992
305	2.565907	116326400	81408000	38521992	24992
306	3.0732	116326400	81408000	40450288	24992
307	3.605493	116326400	81408000	42710560	24992
308	6.373794	116326400	81408000	31712240	24992
309	4.84443	116326400	81408000	34614104	24992
310	5.187719	116326400	81408000	37843656	24992
311	5.599841	116326400	81408000	41402272	24992
312	6.306901	116326400	81408000	45287384	24992
313	7.589712	116326400	81408000	33758600	24992
314	7.21726	116326400	81408000	38302920	24992
315	8.0256	116326400	81408000	43178608	24992
316	9.119275	116326400	81408000	32500944	24992
317	8.852106	116326400	81408000	38041864	24992
318	9.490613	116326400	81408000	43924392	24992
319	10.727979	116326400	81408000	34149840	24992
320	10.584315	116326400	81408000	40697552	24992
321	12.018855	116326400	81408000	32057104	24992
322	11.718824	116326400	81408000	39285944	24992
323	12.328544	116326400	81408000	46862440	24992
324	12.883968	116326400	81408000	38341240	24992
325	13.195359	116326400	81408000	46586976	24992
326	14.157658	116326400	81408000	38793824	24992
327	15.306159	116326400	81408000	32512704	24992
328	15.452761	116326400	81408000	41790392	24992
329	16.31541	116326400	81408000	35739800	24992
330	16.299551	116326400	81408000	45700624	24992
331	17.493685	116326400	81408000	39772176	24992
332	18.380042	116326400	81408000	35082496	24992
333	17.485017	116326400	81408000	46081224	24992
334	18.819163	116326400	81408000	41139704	24992
335	20.222991	116326400	81408000	37297592	24992
336	20.827422	116326400	81408000	34374216	24992
337	20.822368	116326400	81408000	46786600	24992
338	21.607594	116326400	81408000	43163624	24992
339	21.481281	116326400	81408000	40451224	24992
340	22.48758	116326400	81408000	38518648	24992
341	23.701417	116326400	81408000	37226440	24992
342	24.319475	116326400	81408000	36498624	24992
343	25.208463	116326400	81408000	36233800	24992
344	25.374351	116326400	81408000	36373616	24992
345	26.938676	116326400	81408000	36859504	24992
346	26.200355	116326400	81408000	37614688	24992
347	27.638204	116326400	81408000	38628752	24992
348	28.214684	116326400	81408000	39872696	24992
349	28.366458	116326400	81408000	41301008	24992
350	28.491151	116326400	81408000	42856416	24992
351	28.753913	116326400	81408000	44550960	24992
352	29.461172	116326400	81408000	46378048	24992
353	30.089524	116326400	81408000	48304480	24992
354	32.136977	116326400	81408000	36310488	24992
355	32.626614	116326400	81408000	40497024	24992
356	33.221867	116326400	81408000	44438440	24992
357	32.352817	116326400	81408000	48181656	24992
358	34.206575	116326400	81408000	37808280	24992
359	34.011427	116326400	81408000	43350368	24992
360	33.994572	116326400	81408000	48474672	24992
361	36.53156	116326400	81408000	39217032	24992
362	36.547732	116326400	81408000	45675776	24992
363	37.692949	116326400	81408000	37992688	24992
364	39.968654	116326400	81408000	48151272	24992
365	39.767782	116326400	81408000	41682832	24992
366	40.513525	116326400	81408000	52607512	24992
367	39.974222	116326400	81408000	46621512	24992
368	41.062585	116326400	81408000	58310600	24992
369	41.516675	116326400	81408000	52713488	24992
370	42.691647	116326400	81408000	48520344	24992
371	43.355566	117137408	82456576	61284712	24992
372	43.598157	117948416	83505152	56781504	24992
373	44.769001	118759424	84029440	53652848	24992
374	52.624047	123084800	88748032	55261656	24992
375	64.662982	118685696	86126592	25092288	24992
376	48.936373	120573952	86126592	26491696	24992
377	49.279875	120573952	86126592	29063872	24992
378	49.359596	120573952	86126592	32024592	24992
379	47.69373	120573952	86126592	47752448	24992
380	47.523985	120573952	86126592	45691624	24992
381	48.213942	120573952	86126592	44454904	24992
382	52.468727	120573952	86126592	49169008	24992
383	52.862046	121655296	86650880	54143200	24992
384	53.258925	121655296	86650880	59442168	24992
385	60.823678	121655296	86650880	52946768	24992
386	73.12766	120254464	87175168	27940400	24992
387	57.945196	121602048	87175168	33833784	24992
388	56.594401	121602048	87175168	40701720	24992
389	59.539301	121602048	87175168	35799440	24992
390	57.50498	121602048	87175168	43467688	24992
391	60.034321	121872384	87175168	51528328	24992
392	58.982743	121872384	87175168	60031832	24992
393	63.131315	121872384	87175168	56698664	24992
394	86.446566	123441152	90845184	24034400	24992
395	61.287142	125329408	90845184	32922832	24992
396	62.297238	125329408	90845184	42961912	24992
397	64.447173	125329408	90845184	41342392	24992
398	63.428197	125329408	90845184	52198856	24992
399	66.603381	125870080	91369472	51443656	24992
400	64.408668	126410752	91369472	63273192	24992
401	71.670658	126410752	91369472	63261904	24992
402	1.365081	126291968	91893760	29619064	24992
403	1.976275	126291968	91893760	30860640	24992
404	2.62915	126291968	91893760	32515768	24992
405	3.331351	126291968	91893760	34585368	24992
406	6.287029	126291968	91893760	24081592	24992
407	4.824715	126291968	91893760	26983664	24992
408	5.450472	126291968	91893760	30305208	24992
409	5.992439	126291968	91893760	34044792	24992
410	6.619056	126291968	91893760	38213592	24992
411	8.21387	126291968	91893760	27302024	24992
412	8.144799	126291968	91893760	32306064	24992
413	8.802223	126291968	91893760	37731208	24992
414	9.925779	126291968	91893760	27364344	24992
415	10.16818	126291968	91893760	33631624	24992
416	11.415402	126291968	91893760	24726216	24992
417	11.386272	126291968	91893760	31845760	24992
418	13.897652	126291968	91893760	24056088	24992
419	13.446518	126291968	91893760	32052328	24992
420	14.772466	126291968	91893760	25148120	24992
421	14.33184	126291968	91893760	34044152	24992
422	15.904039	126291968	91893760	27716624	24992
423	15.738788	126291968	91893760	37505064	24992
424	17.17775	126291968	91893760	31540744	24992
425	18.25275	126291968	91893760	26941048	24992
426	18.418512	126291968	91893760	38075472	24992
427	19.026258	126291968	91893760	33408448	24992
428	20.066061	126291968	91893760	29854600	24992
429	20.996844	126291968	91893760	27307408	24992
430	22.675691	126291968	91893760	25601384	24992
431	22.349641	126291968	91893760	39008944	24992
432	22.952604	126291968	91893760	36477016	24992
433	23.832278	126291968	91893760	34775328	24992
434	24.139204	126291968	91893760	33780032	24992
435	24.967558	126291968	91893760	33415416	24992
436	26.041791	126291968	91893760	33587664	24992
437	26.623738	126291968	91893760	34162400	24992
438	26.983497	126291968	91893760	35142112	24992
439	27.98692	126291968	91893760	36424320	24992
440	28.566941	126291968	91893760	37944648	24992
441	29.18474	126291968	91893760	39775152	24992
442	31.626491	126291968	91893760	27727440	24992
443	31.970699	126291968	91893760	32002568	24992
444	32.504265	126562304	91893760	36126400	24992
445	32.393164	126562304	91893760	40065184	24992
446	34.882655	126562304	91893760	29870712	24992
447	34.609506	126562304	91893760	35763112	24992
448	36.776831	126832640	91893760	27668872	24992
449	38.371741	126832640	91893760	37287040	24992
450	38.33747	126832640	91893760	30676304	24992
451	39.518978	126832640	91893760	41226536	24992
452	39.080392	126832640	91893760	35294088	24992
453	40.360242	126832640	91893760	46791936	24992
454	40.464049	126832640	91893760	41413912	24992
455	47.311542	126832640	91893760	41504552	24992
456	43.253075	126832640	91893760	54252792	24992
457	42.726147	126832640	91893760	50052008	24992
458	47.145416	126832640	91893760	51573128	24992
459	47.627731	127373312	92418048	53419888	24992
460	58.92902	131428352	96612352	55726096	24992
461	59.87827	121049088	86126592	26967360	24992
462	50.494085	121049088	86126592	30330816	24992
463	50.063253	121049088	86126592	34243440	24992
464	53.442057	121049088	86126592	38599576	24992
465	51.70157	121049088	86126592	43501720	24992
466	53.659061	121049088	86126592	48803216	24992
467	56.021305	121049088	86650880	54687600	24992
468	54.508986	121589760	86650880	61002480	24992
469	62.463474	125104128	90320896	67824552	24992
470	71.929353	123232256	88223744	28343408	24992
471	56.167795	123232256	88223744	36110032	24992
472	59.462288	123232256	88223744	31987480	24992
473	57.957604	123232256	88223744	40602768	24992
474	60.090517	123232256	88223744	49712096	24992
475	62.160506	123232256	88223744	47130560	24992
476	62.445242	123772928	88748032	57236824	24992
477	85.011612	118497280	85602304	25597856	24992
478	62.770404	120385536	85602304	36414384	24992
479	66.302232	120385536	85602304	35711800	24992
480	64.161004	120385536	85602304	47871312	24992
481	66.695104	120385536	85602304	48193080	24992
482	68.503534	120385536	85602304	49028008	24992
483	65.874827	121196544	86650880	62622648	24992
484	90.792517	120721408	88223744	17945272	24992
485	69.087698	122609664	88223744	31695952	24992
486	72.250923	123150336	88223744	34527872	24992
487	71.397302	123150336	88223744	37846744	24992
488	72.330213	123150336	88223744	41727112	24992
489	70.056598	123150336	88223744	58306104	24992
490	79.199144	123961344	89272320	63215384	24992
491	92.156723	118697984	84029440	25888624	24992
492	76.560462	118697984	84029440	31836592	24992
493	76.694568	118697984	84029440	38150368	24992
494	77.238072	118697984	84029440	45105608	24992
495	79.592407	118968320	84029440	52705664	24992
496	96.862329	123564032	88748032	60801784	24992
497	84.418716	122040320	87175168	36921488	24992
498	82.5079	122040320	87175168	33595040	24992
499	80.661036	122040320	87175168	43029888	24992
500	81.548962	122040320	87175168	53006112	24992
501	82.570854	122310656	87699456	63492720	24992
502	1.674275	119746560	87175168	29694728	24992
503	2.432586	119746560	87175168	31264952	24992
504	5.793053	121634816	87175168	19802712	24992
505	4.124443	121634816	87175168	22419304	24992
506	4.865527	121634816	87175168	25560976	24992
507	5.651057	121634816	87175168	29286840	24992
508	6.714499	121634816	87175168	33480592	24992
509	8.94579	121634816	87175168	23382968	24992
510	8.618467	121634816	87175168	28633472	24992
511	9.389927	121634816	87175168	34485960	24992
512	10.312122	121634816	87175168	24503592	24992
513	10.583186	121634816	87175168	31426592	24992
514	12.434642	121634816	87175168	22946552	24992
515	12.428415	121634816	87175168	30943744	24992
516	13.902621	121634816	87175168	23606488	24992
517	14.236727	121634816	87175168	32581120	24992
518	15.458084	121634816	87175168	26092256	24992
519	16.742735	121634816	87175168	21095800	24992
520	16.738781	121634816	87175168	31682808	24992
521	18.228707	121634816	87175168	26968032	24992
522	19.113959	121634816	87175168	23476256	24992
523	20.949001	121634816	87175168	21084632	24992
524	20.571987	121634816	87175168	33831496	24992
525	21.522438	121634816	87175168	30885560	24992
526	22.792125	121634816	87175168	28946592	24992
527	24.191985	121634816	87175168	27866408	24992
528	24.377945	121634816	87175168	27478976	24992
529	25.693863	121634816	87175168	27735752	24992
530	26.637639	121634816	87175168	28458688	24992
531	27.289915	121634816	87175168	29641120	24992
532	28.253635	121634816	87175168	31200904	24992
533	28.538277	121634816	87175168	33095288	24992
534	30.405658	121634816	87175168	35250952	24992
535	31.82706	121634816	87175168	23705544	24992
536	32.23082	121634816	87175168	28442960	24992
537	32.472357	121634816	87175168	32961824	24992
538	34.553174	121634816	87175168	23717392	24992
539	36.297449	121634816	87175168	32618144	24992
540	34.949966	121634816	87175168	38791472	24992
541	37.165496	121634816	87175168	30455456	24992
542	37.301182	121634816	87175168	37917040	24992
543	39.132669	121634816	87175168	31010816	24992
544	43.093447	121634816	87175168	30389264	24992
545	41.152301	121634816	87175168	42379176	24992
546	41.726736	121634816	87175168	37776200	24992
547	45.623204	121634816	87175168	38708112	24992
548	44.852478	121634816	87175168	52489984	24992
549	44.120729	121634816	87175168	48937288	24992
550	45.884755	121634816	87175168	46750568	24992
551	49.260706	121634816	87175168	49939376	24992
552	51.83466	122175488	87175168	53589936	24992
553	68.213001	123527168	88748032	57832688	24992
554	58.596084	121630720	86650880	32432272	24992
555	53.503186	121630720	86650880	37845544	24992
556	53.705398	121630720	86650880	43772088	24992
557	56.761298	121630720	86650880	38007944	24992
558	55.450904	121630720	86650880	45113512	24992
559	56.678847	121630720	86650880	52668880	24992
560	57.765655	121630720	86650880	60930696	24992
561	65.877561	124063744	89272320	57412040	24992
562	75.856251	123789312	90845184	34776440	24992
563	62.485279	125677568	90845184	31634248	24992
564	60.643529	125677568	90845184	42191976	24992
565	64.068963	125677568	90845184	41042408	24992
566	61.756234	125677568	90845184	52639272	24992
567	66.151308	125677568	90845184	52660096	24992
568	67.064687	125677568	90845184	53234848	24992
569	90.825197	123432960	90845184	23595912	24992
570	66.363519	125321216	90845184	37006784	24992
571	70.032497	125321216	90845184	39376416	24992
572	70.399559	125321216	90845184	42287784	24992
573	71.705492	125321216	90845184	45792048	24992
574	69.812329	125321216	90845184	62130712	24992
575	74.468342	125861888	90845184	66821600	24992
576	95.281307	123449344	90845184	23835352	24992
577	74.781802	125337600	90845184	28595984	24992
578	78.569813	125337600	90845184	35118944	24992
579	76.628337	125337600	90845184	42158968	24992
580	78.026158	125337600	90845184	49711208	24992
581	79.799584	125337600	90845184	57980104	24992
582	103.35842	119062528	86126592	37619528	24992
583	84.471276	120950784	86126592	34506368	24992
584	83.198945	120950784	86126592	44472712	24992
585	84.738026	120950784	86126592	55124944	24992
586	86.542279	120950784	86126592	54018568	24992
587	92.264203	127168512	92418048	65773952	24992
588	105.989696	125816832	90845184	32267464	24992
589	86.359577	125816832	90845184	45235144	24992
590	91.818794	125816832	90845184	46649832	24992
591	90.798739	125816832	90845184	48585672	24992
592	90.330487	125816832	90845184	63395720	24992
593	115.55155	122716160	87699456	34482736	24992
594	94.129544	122716160	87699456	38328696	24992
595	95.060048	122716160	87699456	42720776	24992
596	96.067891	122716160	87699456	59986064	24992
597	98.292372	125689856	90845184	65529152	24992
598	121.121627	125599744	90845184	21981568	24992
599	100.240552	125599744	90845184	28919344	24992
600	98.270613	125599744	90845184	48560184	24992
601	100.355717	125599744	90845184	56556904	24992
602	8.201662	127492096	92942336	53399408	24992
603	4.674514	127492096	92942336	55251048	24992
604	6.57172	127492096	92942336	57726592	24992
605	8.315088	127492096	92942336	60810480	24992
606	12.536258	119844864	84553728	22394496	24992
607	7.415191	117223424	84553728	26761688	24992
608	7.969475	117223424	84553728	31698360	24992
609	9.758411	118300672	84553728	21689632	24992
610	10.149916	119111680	84553728	27895024	24992
611	10.749886	119111680	84553728	34709944	24992
612	12.310399	119111680	84553728	26053256	24992
613	12.754831	119111680	84553728	34133344	24992
614	14.378548	119111680	84553728	26807896	24992
615	14.806899	119111680	84553728	36105728	24992
616	16.615864	119111680	84553728	29765112	24992
617	17.622261	119111680	84553728	24963064	24992
618	19.181752	119111680	84553728	36172184	24992
619	19.021114	119111680	84553728	31718888	24992
620	20.396257	119111680	84553728	28575208	24992
621	22.006708	119111680	84553728	26498888	24992
622	23.111568	119111680	84553728	25450520	24992
623	24.026281	119111680	84553728	25128168	24992
624	25.066088	119111680	84553728	25557224	24992
625	25.82416	119111680	84553728	26540360	24992
626	27.088854	119111680	84553728	28038568	24992
627	28.129554	119111680	84553728	29875488	24992
628	28.885565	119111680	84553728	32081960	24992
629	29.316161	119111680	84553728	34632864	24992
630	30.632293	119111680	84553728	37429032	24992
631	33.030252	119111680	84553728	26539952	24992
632	33.407811	119111680	84553728	31904696	24992
633	34.111842	119111680	84553728	37045256	24992
634	36.169517	119111680	84553728	28247872	24992
635	35.762609	119111680	84553728	35286304	24992
636	38.635258	119111680	84553728	28311192	24992
637	40.732067	119111680	84553728	39631072	24992
638	41.420554	119111680	84553728	34048384	24992
639	42.961999	119111680	84553728	30313216	24992
640	43.114817	119111680	84553728	43506056	24992
641	44.298497	119111680	84553728	39611864	24992
642	48.136743	119111680	84553728	41885944	24992
643	49.486853	119111680	84553728	44637992	24992
644	50.670733	119111680	84553728	48063680	24992
645	50.838367	119111680	84553728	52120384	24992
646	52.694687	121004032	86126592	56796360	24992
647	55.709882	125059072	90320896	62142424	24992
648	78.186779	122781696	90320896	23080640	24992
649	55.465564	124669952	90320896	28806088	24992
650	56.844507	124669952	90320896	36086944	24992
651	57.320461	124669952	90320896	43962400	24992
652	61.414464	124669952	90320896	40384000	24992
653	58.310028	124669952	90320896	49690760	24992
654	60.415193	124669952	90320896	59667792	24992
655	64.212781	125751296	90845184	58008648	24992
656	88.247271	122851328	90320896	25018600	24992
657	64.520606	124739584	90320896	36261832	24992
658	66.670095	124739584	90320896	36669064	24992
659	64.927909	124739584	90320896	49966768	24992
660	70.058501	124739584	90320896	51633456	24992
661	70.992826	125280256	90320896	54036000	24992
662	71.428651	125280256	90320896	57165824	24992
663	95.096446	126959616	93990912	28467984	24992
664	74.933527	128847872	93990912	32130552	24992
665	73.936099	128847872	93990912	37231216	24992
666	76.474131	128847872	93990912	43026400	24992
667	75.950088	128847872	93990912	49376408	24992
668	77.504616	128847872	93990912	56425640	24992
669	84.264194	129658880	95039488	64279528	24992
670	95.851704	129556480	95039488	36471848	24992
671	83.445052	129556480	95039488	33594352	24992
672	82.529731	129556480	95039488	43287776	24992
673	82.777606	129556480	95039488	53785744	24992
674	86.553487	129556480	95039488	52662984	24992
675	105.538693	133070848	98185216	64517296	24992
676	91.055235	126746624	91893760	31048016	24992
677	87.252723	126746624	91893760	44204768	24992
678	89.968522	126746624	91893760	45806680	24992
679	89.48634	126746624	91893760	60363544	24992
680	98.432744	127287296	92942336	63477816	24992
681	114.234821	123047936	88223744	35392552	24992
682	95.000805	123047936	88223744	39766408	24992
683	98.462388	123047936	88223744	44817376	24992
684	98.640422	123047936	88223744	62871400	24992
685	105.170881	126291968	91369472	69312600	24992
686	119.013238	126242816	91369472	30788576	24992
687	100.913441	126242816	91369472	38679936	24992
688	101.018022	126242816	91369472	47224984	24992
689	105.496751	126242816	91369472	56413664	24992
690	125.321917	122388480	89796608	31937528	24992
691	105.685604	124276736	89796608	41771128	24992
692	108.82771	124276736	89796608	40948896	24992
693	110.232327	124276736	89796608	52914744	24992
694	133.625009	121880576	89272320	22320896	24992
695	109.989558	124039168	89272320	35230896	24992
696	111.647296	124309504	89272320	49304776	24992
697	113.811901	124309504	89272320	51863744	24992
698	117.880491	131608576	98185216	67348856	24992
699	133.786768	122454016	87699456	38091448	24992
700	117.73763	122724352	87699456	42889352	24992
701	116.978123	122724352	87699456	60436088	24992
702	2.642552	127860736	93466624	67184296	24992
703	3.591973	127860736	93466624	69324784	24992
704	4.831173	127860736	93466624	72161768	24992
705	11.125628	130023424	95563776	62549120	24992
706	7.694394	130023424	95563776	66832872	24992
707	11.74136	130023424	95563776	71814560	24992
708	19.046838	131104768	96088064	62487992	24992
709	18.429181	124317696	89796608	25684816	24992
710	11.794639	124317696	89796608	32803144	24992
711	13.358674	124583936	89796608	25129776	24992
712	13.689483	124583936	89796608	33687824	24992
713	15.656474	124583936	89796608	27375704	24992
714	15.755851	124583936	89796608	37361976	24992
715	17.666499	124583936	89796608	31842416	24992
716	18.777518	124583936	89796608	27923296	24992
717	21.442149	124583936	89796608	25358056	24992
718	20.736226	124583936	89796608	38244440	24992
719	23.078598	124583936	89796608	35520088	24992
720	23.714676	124583936	89796608	33957880	24992
721	24.581463	124583936	89796608	33295320	24992
722	25.778825	124583936	89796608	33475088	24992
723	26.991251	124583936	89796608	34403200	24992
724	29.45222	124583936	89796608	35946376	24992
725	29.467936	124583936	89796608	38010056	24992
726	32.291215	124583936	89796608	26726864	24992
727	33.668375	124583936	89796608	34145208	24992
728	33.09804	124583936	89796608	39155896	24992
729	35.866289	124583936	89796608	30494384	24992
730	37.692473	124583936	89796608	40091464	24992
731	38.479425	124583936	89796608	33660384	24992
732	40.529709	124583936	89796608	44645608	24992
733	41.628014	124583936	89796608	39335624	24992
734	46.00005	124583936	89796608	39660680	24992
735	43.574453	124583936	89796608	52676312	24992
736	43.894336	124583936	89796608	49204832	24992
737	48.889071	124583936	89796608	51713944	24992
738	50.109288	124583936	89796608	54750856	24992
739	51.134905	125124608	90320896	58654608	24992
740	53.589441	127827968	92942336	63133352	24992
741	76.339554	125358080	92418048	21869592	24992
742	55.668627	127246336	92418048	26777344	24992
743	56.441632	127246336	92418048	33618016	24992
744	56.229929	127246336	92418048	41125488	24992
745	57.361259	127246336	92418048	49291672	24992
746	62.316902	127246336	92418048	46141080	24992
747	60.1288	127246336	92418048	55971560	24992
748	60.665644	127246336	92418048	66440000	24992
749	82.974857	127201280	86126592	17681648	24992
750	66.124187	120971264	86126592	28925256	24992
751	66.705949	120971264	86126592	29489696	24992
752	66.155558	120971264	86126592	42983680	24992
753	70.961995	120971264	86126592	45164888	24992
754	71.303513	120971264	86126592	47953840	24992
755	76.608818	122052608	87175168	51497952	24992
756	90.755077	120426496	85602304	25671968	24992
757	74.638241	120426496	85602304	30870112	24992
758	75.216081	120426496	85602304	36702072	24992
759	76.749409	120426496	85602304	43264280	24992
760	77.94535	120426496	85602304	50633184	24992
761	81.904804	124211200	89796608	58802464	24992
762	105.334606	124489728	91893760	35941296	24992
763	84.518901	126377984	91893760	32702256	24992
764	83.033016	126377984	91893760	43115464	24992
765	85.201621	126377984	91893760	54336056	24992
766	92.299162	126377984	91893760	54086000	24992
767	88.433302	128270336	93466624	66773992	24992
768	112.586514	128819200	93990912	33265424	24992
769	92.858943	128819200	93990912	35500712	24992
770	91.17457	128819200	93990912	50515048	24992
771	96.393751	128819200	93990912	54104392	24992
772	96.400388	128819200	93990912	58530920	24992
773	117.194223	124248064	91369472	28224208	24992
774	97.629779	126136320	91369472	32888248	24992
775	99.388048	126136320	91369472	39651024	24992
776	100.501592	126136320	91369472	47292008	24992
777	102.729015	126136320	91369472	55716584	24992
778	127.925191	125702144	90845184	34644976	24992
779	103.591145	125702144	90845184	44596688	24992
780	105.4134	125702144	90845184	55164712	24992
781	106.226593	125702144	90845184	66551720	24992
782	115.52292	132730880	98185216	66550040	24992
783	130.347301	131526656	96612352	31672496	24992
784	111.538952	131526656	96612352	45378232	24992
785	113.559628	131526656	96612352	59904456	24992
786	115.16424	131526656	96612352	63042192	24992
787	135.934945	126144512	91369472	28762200	24992
788	121.344018	126144512	91369472	33561120	24992
789	116.207305	126144512	91369472	51253296	24992
790	121.150318	126144512	91369472	57603840	24992
791	151.575617	120373248	85602304	36349232	24992
792	122.770326	120643584	85602304	44170088	24992
793	126.814519	121184256	86650880	52898904	24992
794	125.413773	129564672	95039488	74405256	24992
795	151.740027	122204160	88223744	32653112	24992
796	130.058436	122744832	88223744	43523888	24992
797	131.037536	122744832	88223744	55205248	24992
798	156.783229	120954880	88223744	26120344	24992
799	133.85728	123113472	88223744	39309512	24992
800	136.476287	123113472	88223744	53535904	24992
801	138.665307	125276160	90845184	56483736	24992
802	2.551951	125300736	90845184	43324536	24992
803	3.965783	125300736	90845184	45732696	24992
804	7.456852	125300736	90845184	36191536	24992
805	6.61836	125300736	90845184	40202312	24992
806	7.784919	125300736	90845184	45025448	24992
807	10.090891	125300736	90845184	36093400	24992
808	10.393102	125300736	90845184	42535000	24992
809	11.440971	125300736	90845184	49782000	24992
810	13.404235	125300736	90845184	41633792	24992
811	14.377734	125300736	90845184	50476344	24992
812	15.920163	125300736	90845184	43805856	24992
813	17.493893	125300736	90845184	38965480	24992
814	18.652191	125300736	90845184	50247552	24992
815	19.780584	125300736	90845184	46005312	24992
816	21.357306	125300736	90845184	43244344	24992
817	23.200629	125300736	90845184	41735560	24992
818	24.875744	125300736	90845184	41285792	24992
819	26.019011	125300736	90845184	41689096	24992
820	27.087552	125300736	90845184	42869440	24992
821	28.194739	125300736	90845184	44675928	24992
822	29.707011	125300736	90845184	47001552	24992
823	30.250813	125300736	90845184	49793760	24992
824	34.192177	125300736	90845184	39280112	24992
825	35.585484	125300736	90845184	47568080	24992
826	34.718519	125300736	90845184	53451120	24992
827	37.468803	125300736	90845184	45215216	24992
828	37.59418	125300736	90845184	52901912	24992
829	40.361195	125300736	90845184	46508888	24992
830	45.098524	125300736	90845184	46760384	24992
831	43.710524	125300736	90845184	59738464	24992
832	44.646942	125300736	90845184	56024304	24992
833	48.376498	125300736	90845184	58787600	24992
834	49.981699	125841408	90845184	62095120	24992
835	51.996506	129085440	94515200	66232072	24992
836	53.083602	133410816	99233792	71235128	24992
837	55.479875	137465856	103428096	77060296	24992
838	77.72826	123731968	91369472	30530656	24992
839	56.111529	125620224	91369472	36512616	24992
840	60.468489	125620224	91369472	32644848	24992
841	59.217429	125620224	91369472	41850912	24992
842	60.394658	125890560	91369472	51903344	24992
843	64.780647	125890560	91369472	50630912	24992
844	63.488233	125890560	91369472	62416000	24992
845	71.619488	126431232	91893760	62784184	24992
846	83.993713	125829120	90845184	30376136	24992
847	70.225196	125829120	90845184	32605952	24992
848	71.592319	125829120	90845184	35523128	24992
849	69.802302	125829120	90845184	51529312	24992
850	73.553231	125829120	90845184	56297832	24992
851	75.143797	125829120	90845184	61863248	24992
852	97.980484	123383808	90845184	22351232	24992
853	77.782816	125272064	90845184	28749240	24992
854	79.197789	125272064	90845184	36881024	24992
855	80.452269	125272064	90845184	45940384	24992
856	81.195404	125272064	90845184	55773160	24992
857	90.047418	125812736	91369472	54189808	24992
858	103.483449	123224064	88223744	35351992	24992
859	90.486745	123224064	88223744	35686808	24992
860	87.671803	123224064	88223744	49007816	24992
861	90.90973	123224064	88223744	51072896	24992
862	90.458186	123224064	88223744	66156312	24992
863	116.752292	124608512	89796608	21556008	24992
864	92.998402	124608512	89796608	38493984	24992
865	96.112195	124608512	89796608	43835504	24992
866	97.96512	124608512	89796608	50319304	24992
867	104.222523	125149184	90320896	57436368	24992
868	121.265569	121053184	86126592	36283928	24992
869	103.179842	121053184	86126592	45325464	24992
870	104.293485	121053184	86126592	55150720	24992
871	106.514175	121593856	86650880	65834704	24992
872	131.573659	125947904	92942336	30119432	24992
873	110.98627	127836160	92942336	41827840	24992
874	113.254004	127836160	92942336	42931664	24992
875	110.550789	127836160	92942336	57239072	24992
876	128.606129	131350528	96612352	60087944	24992
877	126.018866	122494976	87699456	31603792	24992
878	116.472235	122494976	87699456	48529224	24992
879	118.473231	122765312	87699456	54115592	24992
880	133.022222	129523712	95039488	60542512	24992
881	137.519844	127193088	92418048	34395064	24992
882	126.035672	127193088	92418048	42663168	24992
883	121.778694	127193088	92418048	64006048	24992
884	135.846798	130166784	95563776	74032992	24992
885	147.402787	126918656	91893760	37691056	24992
886	129.513456	126918656	91893760	49525816	24992
887	131.114665	126918656	91893760	62182472	24992
888	157.063956	127422464	94515200	28455408	24992
889	133.681357	129310720	94515200	42104968	24992
890	133.678962	129310720	94515200	57611192	24992
891	139.455114	129310720	94515200	61850848	24992
892	160.706292	128831488	93990912	30119000	24992
893	142.011509	128831488	93990912	35937864	24992
894	142.287123	128831488	93990912	54961280	24992
895	166.538995	120950784	86126592	30902824	24992
896	151.251725	120950784	86126592	39432736	24992
897	146.572768	120950784	86126592	48888136	24992
898	174.563312	122372096	89796608	27146840	24992
899	149.685674	124260352	89796608	37953280	24992
900	150.561198	124260352	89796608	50104976	24992
901	157.750967	130748416	96088064	63299224	24992
902	2.839376	129515520	94515200	45697344	24992
903	4.272028	129515520	94515200	48434280	24992
904	7.964497	129515520	94515200	39162168	24992
905	7.187209	129515520	94515200	43735472	24992
906	8.544316	129515520	94515200	49205680	24992
907	11.133169	129515520	94515200	40731344	24992
908	11.496286	129515520	94515200	48029112	24992
909	13.505145	129515520	94515200	40743392	24992
910	14.313496	129515520	94515200	49871432	24992
911	16.405837	129515520	94515200	44160008	24992
912	18.131804	129515520	94515200	40193256	24992
913	18.687969	129515520	94515200	52090328	24992
914	20.424253	129515520	94515200	48742016	24992
915	22.340183	129515520	94515200	46853712	24992
916	23.942181	129515520	94515200	46183712	24992
917	25.92066	129515520	94515200	46588656	24992
918	26.756916	129515520	94515200	47783680	24992
919	28.666444	129515520	94515200	49738960	24992
920	29.671733	129515520	94515200	52366408	24992
921	32.806036	129515520	94515200	41756248	24992
922	34.748957	129515520	94515200	49973112	24992
923	34.07703	129515520	94515200	55869824	24992
924	36.803593	129515520	94515200	47869800	24992
925	38.45615	129515520	94515200	55798536	24992
926	39.968354	129515520	94515200	49646104	24992
927	44.719101	129515520	94515200	50299248	24992
928	46.325085	131678208	97136640	51697792	24992
929	44.994488	133840896	99233792	66252592	24992
930	45.972969	134111232	100282368	64023472	24992
931	51.068169	138436608	105000960	68327528	24992
932	52.574149	142761984	109719552	73391312	24992
933	54.28785	146817024	114438144	79391968	24992
934	73.921984	112578560	79835136	30240768	24992
935	58.191702	114466816	79835136	24379008	24992
936	58.161347	114466816	79835136	33279096	24992
937	59.024128	114466816	79835136	43086336	24992
938	63.751841	114466816	79835136	41554440	24992
939	62.23318	114466816	79835136	53208400	24992
940	68.216275	115007488	80359424	53700240	24992
941	90.716989	119062528	86650880	27402304	24992
942	69.825122	121225216	86650880	29458056	24992
943	68.102568	121225216	86650880	44969544	24992
944	73.234714	121225216	86650880	49110536	24992
945	74.13386	121225216	86650880	54272352	24992
946	75.953185	121495552	86650880	60498936	24992
947	82.725066	127172608	92418048	67580624	24992
948	97.508712	122884096	88223744	28718024	24992
949	79.523526	122884096	88223744	37610472	24992
950	81.365251	122884096	88223744	47473560	24992
951	85.175941	122884096	88223744	46160968	24992
952	84.99655	122884096	88223744	57972528	24992
953	108.66032	120864768	88223744	24593656	24992
954	88.143284	122753024	88223744	37609056	24992
955	91.183299	122753024	88223744	40032960	24992
956	93.851556	122753024	88223744	43472216	24992
957	92.120719	122753024	88223744	60054056	24992
958	114.391177	120131584	87175168	32871864	24992
959	97.707356	122019840	87175168	38599576	24992
960	98.360563	122019840	87175168	45843728	24992
961	100.96402	122019840	87175168	54188824	24992
962	106.52145	122290176	87699456	63422312	24992
963	124.508693	124792832	89796608	30987632	24992
964	107.155569	124792832	89796608	42127968	24992
965	107.641747	124792832	89796608	54196840	24992
966	107.557225	124792832	89796608	67253536	24992
967	201.025537	122736640	88223744	23873400	24992
968	192.226541	122736640	88223744	38889368	24992
969	185.526578	122736640	88223744	42670496	24992
970	115.643055	122736640	88223744	59538128	24992
971	148.407641	124678144	89796608	35663904	24992
972	121.949552	124678144	89796608	42368728	24992
973	121.277603	124678144	89796608	62211920	24992
974	123.850883	129003520	94515200	70890216	24992
975	150.996156	126259200	93990912	28876656	24992
976	127.850045	128147456	93990912	38149104	24992
977	127.480012	128147456	93990912	49866656	24992
978	131.687312	128147456	93990912	62501296	24992
979	154.090773	126836736	92418048	27508952	24992
980	132.730925	126836736	92418048	42207168	24992
981	133.798713	126836736	92418048	57706480	24992
982	143.720642	128188416	93990912	61918608	24992
983	163.246806	125091840	90320896	37283472	24992
984	138.832652	125362176	90320896	55725536	24992
985	143.079849	126713856	91893760	63000296	24992
986	170.202003	129961984	97136640	33877704	24992
987	145.741606	131850240	97136640	42069632	24992
988	147.760856	131850240	97136640	52151240	24992
989	155.647684	132120576	97660928	63298872	24992
990	172.321657	126275584	91369472	42993408	24992
991	151.761798	126275584	91369472	56181048	24992
992	154.609937	130330624	95563776	70150320	24992
993	181.787544	133550080	98709504	32370408	24992
994	157.261458	133550080	98709504	48412832	24992
995	166.646467	133550080	98709504	53309152	24992
996	181.485441	125116416	90320896	37614008	24992
997	163.226477	125116416	90320896	44492664	24992
998	166.968008	125116416	90320896	64635176	24992
999	199.145206	123715584	88748032	45057960	24992
1000	169.178304	123715584	88748032	55052896	24992
x	Duration	RSS	HeapTotal	HeapUsed	External
0	NA	119545856	84553728	40357504	24992
1	0.252135	119545856	84553728	40406120	24992
2	0.225497	119545856	84553728	40482424	24992
3	0.240027	119545856	84553728	40585712	24992
4	0.284885	119545856	84553728	40717496	24992
5	0.364131	119545856	84553728	40879296	24992
6	0.392512	119545856	84553728	41071520	24992
7	0.452704	119545856	84553728	41295160	24992
8	0.522898	119545856	84553728	41551248	24992
9	0.572751	119545856	84553728	41841672	24992
10	0.637325	119545856	84553728	42167000	24992
11	4.541456	119545856	84553728	30598592	24992
12	0.82386	119545856	84553728	30996712	24992
13	0.660169	119545856	84553728	31432688	24992
14	0.724079	119545856	84553728	31907480	24992
15	0.771562	119545856	84553728	32422136	24992
16	0.826665	119545856	84553728	32977584	24992
17	0.95162	119545856	84553728	33576736	24992
18	0.955259	119545856	84553728	34218488	24992
19	1.019992	119545856	84553728	34905048	24992
20	1.095442	119545856	84553728	35636296	24992
21	1.509352	119545856	84553728	36413504	24992
22	1.225747	119545856	84553728	37238568	24992
23	1.287273	119545856	84553728	38110736	24992
24	1.395247	119545856	84553728	39033000	24992
25	1.430119	119545856	84553728	40006240	24992
26	1.508209	119545856	84553728	41031440	24992
27	1.579748	119545856	84553728	42109648	24992
28	1.657893	119545856	84553728	43241800	24992
29	2.153718	119545856	84553728	44430280	24992
30	4.775042	119545856	84553728	31449880	24992
31	1.961927	119545856	84553728	32750016	24992
32	1.996707	119545856	84553728	34110352	24992
33	2.473814	119545856	84553728	35533800	24992
34	2.182385	119545856	84553728	37017408	24992
35	2.876317	119545856	84553728	38561816	24992
36	2.999315	119545856	84553728	40167992	24992
37	2.839689	119545856	84553728	41854184	24992
38	2.9831	119545856	84553728	43587336	24992
39	2.930932	119545856	84553728	45388328	24992
40	2.961816	119545856	84553728	47251288	24992
41	4.311756	119545856	84553728	33040312	24992
42	3.027932	119545856	84553728	35037672	24992
43	3.068709	119816192	84553728	37103552	24992
44	3.147746	119816192	84553728	39239112	24992
45	3.305347	119816192	84553728	41446520	24992
46	3.368714	119816192	84553728	43725416	24992
47	3.780646	119816192	84553728	46079880	24992
48	6.042916	119816192	84553728	32762952	24992
49	3.78264	119816192	84553728	35264440	24992
50	3.853416	119816192	84553728	37844512	24992
51	4.180997	119816192	84553728	40503880	24992
52	4.040733	119816192	84553728	43243568	24992
53	4.432439	119816192	84553728	46064408	24992
54	5.815109	119816192	84553728	33395824	24992
55	4.416888	119816192	84553728	36382040	24992
56	4.74773	119816192	84553728	39452192	24992
57	4.662623	119816192	84553728	42608440	24992
58	5.024748	119816192	84553728	45849792	24992
59	6.746028	119816192	84553728	33633688	24992
60	5.538813	119816192	84553728	37051072	24992
61	5.210079	119816192	84553728	40558192	24992
62	5.308734	119816192	84553728	44153152	24992
63	5.443133	119816192	84553728	47839080	24992
64	7.352105	119816192	84553728	35816856	24992
65	5.938533	119816192	84553728	39696872	24992
66	6.140479	119816192	84553728	43669704	24992
67	6.022117	119816192	84553728	47736920	24992
68	7.843248	119816192	84553728	36147096	24992
69	6.323481	119816192	84553728	40407816	24992
70	7.133907	119816192	84553728	44773856	24992
71	6.589464	119816192	84553728	49231128	24992
72	8.569315	119816192	84553728	37883648	24992
73	7.127841	119816192	84553728	42540080	24992
74	7.299157	119816192	84553728	47299056	24992
75	8.823502	119816192	84553728	36539912	24992
76	7.712283	119816192	84553728	41504104	24992
77	7.528022	119816192	84553728	46573344	24992
78	9.669347	119816192	84553728	36271344	24992
79	7.88287	119816192	84553728	41553776	24992
80	8.251135	119816192	84553728	46942208	24992
81	10.182823	119816192	84553728	36964088	24992
82	8.640446	119816192	84553728	42570512	24992
83	8.854538	119816192	84553728	48287816	24992
84	11.871784	119816192	84553728	38512624	24992
85	9.199101	119816192	84553728	44456080	24992
86	9.062572	119816192	84553728	50513872	24992
87	11.55928	119816192	84553728	40822168	24992
88	9.901938	119816192	84553728	47111792	24992
89	12.82069	119816192	84553728	38233112	24992
90	9.888131	119816192	84553728	44760728	24992
91	10.509379	119816192	84553728	51405728	24992
92	12.370727	119816192	84553728	42263520	24992
93	10.37442	119816192	84553728	49150784	24992
94	12.978868	119816192	84553728	40675280	24992
95	10.937275	119816192	84553728	47809912	24992
96	13.557968	119816192	84553728	39771016	24992
97	11.372013	119816192	84553728	47153448	24992
98	14.009727	119816192	84553728	39559440	24992
99	11.760359	119816192	84553728	47194496	24992
100	14.448062	119816192	84553728	39910936	24992
101	12.114945	119816192	84553728	47808200	24992
102	0.474761	119816192	84553728	40606192	24992
103	0.646538	119816192	84553728	41009864	24992
104	0.819776	119816192	84553728	41549608	24992
105	1.022003	119816192	84553728	42226448	24992
106	1.213283	119816192	84553728	43041944	24992
107	1.419552	119816192	84553728	43997280	24992
108	1.620649	119816192	84553728	45091792	24992
109	1.815141	119816192	84553728	46327248	24992
110	2.219871	119816192	84553728	47705672	24992
111	2.242853	119816192	84553728	49229208	24992
112	2.447539	119816192	84553728	50894600	24992
113	2.654021	119816192	84553728	52706936	24992
114	2.872301	119816192	84553728	54662960	24992
115	5.250083	119816192	84553728	40734168	24992
116	3.566495	119816192	84553728	42986160	24992
117	3.779767	119816192	84553728	45385656	24992
118	4.02012	119816192	84553728	47939616	24992
119	4.253246	119816192	84553728	50641432	24992
120	4.5902	119816192	84553728	53495320	24992
121	6.349013	119816192	84553728	40598808	24992
122	4.843338	119816192	84553728	43759056	24992
123	4.872436	119816192	84553728	47074376	24992
124	5.282257	119816192	84553728	50546696	24992
125	5.351339	119816192	84553728	54176640	24992
126	7.380067	119816192	84553728	41963400	24992
127	5.995631	119816192	84553728	45906624	24992
128	6.169607	119816192	84553728	50012528	24992
129	6.3064	119816192	84553728	54275968	24992
130	8.713786	119816192	84553728	42715016	24992
131	7.218996	119816192	84553728	47305600	24992
132	7.297211	119816192	84553728	52058424	24992
133	9.452856	119816192	84553728	41370592	24992
134	7.619787	119816192	84553728	46458088	24992
135	7.819004	119816192	84553728	51715832	24992
136	10.366266	119816192	84553728	41624440	24992
137	8.456188	119816192	84553728	47214184	24992
138	8.561911	119816192	84553728	52976144	24992
139	11.084221	119816192	84553728	43224168	24992
140	9.567093	119816192	84553728	49325568	24992
141	9.445647	119816192	84553728	55600008	24992
142	11.419586	119816192	84553728	45962648	24992
143	10.030041	119816192	84553728	52586576	24992
144	12.540518	119816192	84553728	43815568	24992
145	10.399677	119816192	84553728	50794536	24992
146	13.246239	119816192	85078016	42684592	24992
147	11.262009	119816192	85078016	50028224	24992
148	13.693487	120086528	85602304	42445984	24992
149	11.623934	120086528	85602304	50147856	24992
150	14.690362	120086528	86126592	42946176	24992
151	12.023872	120356864	86126592	51013824	24992
152	14.960176	120356864	86650880	44061744	24992
153	12.795719	120356864	86650880	52504576	24992
154	15.462814	120627200	87175168	45691768	24992
155	13.483837	120627200	87175168	54505048	24992
156	15.771191	120897536	87699456	47775672	24992
157	13.948589	120897536	87699456	56967864	24992
158	16.837978	120897536	88223744	50235688	24992
159	17.257477	121167872	88748032	44808224	24992
160	14.891797	121167872	88748032	54575480	24992
161	18.070126	121438208	89272320	48822960	24992
162	18.553699	121708544	89796608	44307256	24992
163	15.623846	121708544	89796608	54657520	24992
164	18.392793	121708544	90320896	49533200	24992
165	19.815286	121978880	90845184	45541672	24992
166	17.126104	121978880	90845184	56494024	24992
167	19.523729	122249216	91369472	51708744	24992
168	20.100336	122249216	91893760	47989728	24992
169	17.619808	122519552	91893760	59543712	24992
170	20.228371	122519552	92418048	54994712	24992
171	21.105502	122789888	92942336	51379912	24992
172	22.548302	122789888	93466624	48605728	24992
173	23.493347	123060224	93990912	46509720	24992
174	21.806082	123060224	93990912	59083256	24992
175	36.496856	115716096	80883712	15836112	24992
176	19.690448	115716096	80883712	28826160	24992
177	21.137934	115716096	80883712	25583296	24992
178	21.076611	115716096	80883712	23005008	24992
179	25.512818	115716096	80883712	21080560	24992
180	22.195908	115716096	80883712	19730984	24992
181	22.558099	115716096	80883712	18821136	24992
182	24.257032	115716096	80883712	18308296	24992
183	24.440522	115716096	80883712	18118808	24992
184	24.530405	115716096	80883712	18184960	24992
185	25.433137	115716096	80883712	18469600	24992
186	25.334067	115716096	80883712	18937312	24992
187	25.205996	115716096	80883712	19537448	24992
188	25.276304	115716096	80883712	20275240	24992
189	25.589354	115716096	80883712	21095976	24992
190	26.083915	115716096	80883712	22013520	24992
191	26.571207	115716096	80883712	23017368	24992
192	27.043971	115716096	80883712	24090600	24992
193	27.879644	115716096	80883712	25187680	24992
194	27.621714	115716096	80883712	26339672	24992
195	26.984633	115716096	80883712	27533864	24992
196	27.721891	115716096	80883712	28766000	24992
197	28.378865	115716096	80883712	30035120	24992
198	31.001131	115716096	80883712	17812968	24992
199	30.577802	115716096	80883712	21580168	24992
200	30.726786	115716096	80883712	24941888	24992
201	30.075526	115716096	80883712	27972560	24992
202	0.770904	115716096	80883712	30723368	24992
203	1.089398	115716096	80883712	31425136	24992
204	2.114222	115716096	80883712	15996528	24992
205	1.78743	115716096	80883712	17171664	24992
206	2.187551	115716096	80883712	18585816	24992
207	2.511985	115716096	80883712	20243992	24992
208	2.857771	115716096	80883712	22152368	24992
209	3.476618	115716096	80883712	24306752	24992
210	3.822732	115716096	80883712	26711568	24992
211	4.200471	115716096	80883712	29366944	24992
212	5.543469	115716096	80883712	16262256	24992
213	4.994252	115716096	80883712	19427632	24992
214	5.552561	115716096	80883712	22840576	24992
215	5.786133	115716096	80883712	26512848	24992
216	6.055523	115716096	80883712	30438416	24992
217	7.104618	115716096	80883712	18512448	24992
218	7.143588	115716096	80883712	22962088	24992
219	7.442942	115716096	80883712	27658840	24992
220	8.846916	115716096	80883712	16978752	24992
221	8.5648	115716096	80883712	22204928	24992
222	8.765462	115716096	80883712	27694152	24992
223	10.277436	115716096	80883712	17784456	24992
224	9.42442	115716096	80883712	23788048	24992
225	9.911323	115716096	80883712	30056016	24992
226	11.223735	115716096	80883712	20574024	24992
227	10.633898	115716096	80883712	27378776	24992
228	12.571013	115716096	80883712	18882976	24992
229	11.641842	115716096	80883712	26225368	24992
230	13.360663	115716096	80883712	18479168	24992
231	12.557004	115716096	80883712	26368608	24992
232	14.61737	115716096	80883712	19175864	24992
233	13.150131	115716096	80883712	27616632	24992
234	15.240574	115716096	80883712	20762248	24992
235	14.031739	115716096	80883712	29760016	24992
236	15.883277	115716096	80883712	23099136	24992
237	14.998444	115716096	80883712	32649352	24992
238	16.229176	115716096	80883712	26103872	24992
239	17.433973	115716096	80883712	20939672	24992
240	16.454998	115716096	80883712	31331016	24992
241	17.948369	115716096	80883712	25879288	24992
242	18.803486	115716096	80883712	21639264	24992
243	17.534845	115716096	80883712	32883752	24992
244	18.480889	115716096	80883712	28045040	24992
245	20.189151	115716096	80883712	24314640	24992
246	21.358293	115716096	80883712	21504568	24992
247	21.55425	115716096	80883712	19474040	24992
248	20.172279	115716096	80883712	32161872	24992
249	21.216125	115716096	80883712	28919040	24992
250	22.429733	115716096	80883712	26548840	24992
251	23.373747	115716096	80883712	24869432	24992
252	24.506494	115716096	80883712	23781520	24992
253	24.501433	115716096	80883712	23211896	24992
254	25.582557	115716096	80883712	23026656	24992
255	25.731666	115716096	80883712	23190736	24992
256	26.148859	115716096	80883712	23657648	24992
257	26.789	115716096	80883712	24358328	24992
258	26.846199	115716096	80883712	25244576	24992
259	27.637772	115716096	80883712	26320768	24992
260	27.717773	115716096	80883712	27482080	24992
261	28.407666	115716096	80883712	28788408	24992
262	28.554424	115716096	80883712	30184760	24992
263	29.31035	115716096	80883712	31632424	24992
264	30.758639	115716096	80883712	33196624	24992
265	30.469307	115716096	80883712	34769592	24992
266	33.156797	115716096	80883712	22863224	24992
267	32.529182	115716096	80883712	26916128	24992
268	31.898848	115716096	80883712	30606576	24992
269	32.294558	115716096	80883712	33956664	24992
270	35.467003	115716096	80883712	23643280	24992
271	36.477914	115716096	80883712	31819448	24992
272	33.911068	115716096	80883712	36693320	24992
273	37.477351	115716096	80883712	27534680	24992
274	37.869629	115716096	80883712	36628760	24992
275	35.476083	115716096	80883712	42263008	24992
276	38.839119	115716096	80883712	33476904	24992
277	36.738269	115716096	80883712	40119992	24992
278	40.026004	115716096	80883712	32685216	24992
279	40.500179	115716096	80883712	43327632	24992
280	41.786085	115716096	80883712	37019224	24992
281	41.877475	115716096	80883712	48345504	24992
282	42.197067	115716096	80883712	42390672	24992
283	48.643737	115986432	80883712	42553952	24992
284	50.173013	115986432	80883712	54563320	24992
285	61.636142	113467392	78786560	25246456	24992
286	48.412594	114008064	78786560	26038128	24992
287	43.467327	114008064	78786560	39002968	24992
288	43.577679	114008064	78786560	34507144	24992
289	44.922775	114008064	78786560	31502832	24992
290	49.992808	114008064	78786560	33826816	24992
291	45.241036	114008064	78786560	48085624	24992
292	44.973169	114008064	78786560	44684576	24992
293	46.463905	114008064	78786560	42555984	24992
294	51.202838	114008064	78786560	46200408	24992
295	51.409339	114278400	79310848	50002120	24992
296	53.039098	119144448	84029440	54122272	24992
297	69.508766	123740160	88748032	58614744	24992
298	60.008726	123822080	88748032	32300584	24992
299	53.802367	123822080	88748032	37488392	24992
300	55.062513	123822080	88748032	42969192	24992
301	55.173072	123822080	88748032	48809552	24992
302	1.129632	123822080	88748032	55113976	24992
303	1.63193	123822080	88748032	56141560	24992
304	6.21703	123822080	88748032	45576744	24992
305	2.932363	123822080	88748032	47293736	24992
306	3.172181	123822080	88748032	49357104	24992
307	3.788773	123822080	88748032	51767384	24992
308	4.523418	123822080	88748032	54525992	24992
309	4.923641	123822080	88748032	57633504	24992
310	7.447107	123822080	88748032	46843448	24992
311	6.548575	123822080	88748032	50670096	24992
312	6.773126	123822080	88748032	54832512	24992
313	7.325157	123822080	88748032	59348184	24992
314	8.444301	123822080	88748032	48056632	24992
315	8.193268	123822080	88748032	53289264	24992
316	8.76863	123822080	88748032	58867800	24992
317	10.389517	123822080	88748032	48740176	24992
318	9.994497	123822080	88748032	55035640	24992
319	11.406517	123822080	88748032	46303800	24992
320	11.286534	123822080	88748032	53319688	24992
321	12.264803	123822080	88748032	60705440	24992
322	12.525427	123822080	88748032	52049408	24992
323	12.825486	123822080	88748032	60147984	24992
324	13.963363	123822080	88748032	52341528	24992
325	13.898798	123822080	88748032	61172544	24992
326	15.123726	123822080	88748032	53907264	24992
327	16.477457	123822080	88748032	48308944	24992
328	16.412721	123822080	88748032	58246000	24992
329	17.236194	123822080	88748032	52662784	24992
330	18.387356	123822080	88748032	48434800	24992
331	17.850773	123822080	88748032	59470016	24992
332	18.776968	123822080	88748032	54794696	24992
333	20.152763	123822080	88748032	51340680	24992
334	21.266154	123822080	88748032	48858952	24992
335	19.634311	123822080	88748032	61405456	24992
336	20.72593	123822080	88748032	57944120	24992
337	22.065133	123822080	88748032	55458328	24992
338	23.818487	123822080	88748032	53802160	24992
339	24.131885	123822080	88748032	52814936	24992
340	24.820153	123822080	88748032	52401488	24992
341	25.522596	123822080	88748032	52458072	24992
342	25.6864	123822080	88748032	52891576	24992
343	25.930781	123822080	88748032	53627312	24992
344	27.099045	123822080	88748032	54627840	24992
345	27.682705	123822080	88748032	55852952	24992
346	28.087481	123822080	88748032	57265848	24992
347	28.503823	123822080	88748032	58797056	24992
348	28.736985	123822080	88748032	60484536	24992
349	29.900996	123822080	88748032	62275112	24992
350	33.530887	123822080	88748032	50642248	24992
351	31.334902	123822080	88748032	54969016	24992
352	31.974664	123822080	88748032	58962048	24992
353	32.7108	123822080	88748032	62628624	24992
354	35.175782	123822080	88748032	52568344	24992
355	34.36216	123822080	88748032	58179128	24992
356	35.172695	123822080	88748032	63226688	24992
357	36.985388	123822080	88748032	54274184	24992
358	36.757317	123822080	88748032	60834008	24992
359	39.026603	123822080	88748032	53453072	24992
360	40.379226	123822080	88748032	64313120	24992
361	41.240236	123822080	88748032	58166832	24992
362	43.344321	125714432	90845184	69845888	24992
363	59.91043	118870016	86650880	17551632	24992
364	42.391755	121298944	86650880	28436184	24992
365	44.703655	121298944	86650880	24089184	24992
366	47.898001	121298944	86650880	25605648	24992
367	44.713379	121298944	86650880	39058568	24992
368	44.280472	121298944	86650880	35159992	24992
369	51.35459	121298944	86650880	37982952	24992
370	50.542858	121298944	86650880	40938048	24992
371	51.619354	121298944	86650880	44331360	24992
372	52.203124	121839616	86650880	48088472	24992
373	65.890527	123731968	88748032	52307696	24992
374	68.179259	120283136	85078016	28714944	24992
375	53.327292	120283136	85078016	33740208	24992
376	54.748229	120283136	85078016	39191520	24992
377	55.362884	120283136	85078016	45101400	24992
378	56.268657	120283136	85078016	51411688	24992
379	56.688089	120283136	85078016	58102976	24992
380	58.087819	122986496	88223744	65211568	24992
381	71.753998	127852544	93466624	72787016	24992
382	68.571176	123432960	88748032	33189264	24992
383	64.292794	123973632	88748032	30299456	24992
384	59.296388	123973632	88748032	39096192	24992
385	59.259112	123973632	88748032	48281664	24992
386	66.141297	123973632	88748032	46406920	24992
387	62.40061	123973632	88748032	56514232	24992
388	70.255119	123973632	88748032	67016448	24992
389	81.689617	125009920	89796608	33498312	24992
390	70.384867	125009920	89796608	33457248	24992
391	64.413358	125009920	89796608	45210448	24992
392	69.268029	125009920	89796608	45899816	24992
393	65.34529	125009920	89796608	58580944	24992
394	70.813002	125009920	89796608	60102968	24992
395	99.857461	123883520	90845184	31734248	24992
396	72.784636	125771776	90845184	33323560	24992
397	68.208803	125771776	90845184	47726128	24992
398	74.224001	125771776	90845184	51085944	24992
399	74.816601	125771776	90845184	54788808	24992
400	74.719067	126042112	90845184	58955768	24992
401	84.531307	130367488	95563776	75133848	24992
402	1.45181	126885888	91893760	31785928	24992
403	1.99333	126885888	91893760	33126168	24992
404	2.651471	126885888	91893760	34905832	24992
405	3.67919	126885888	91893760	37132344	24992
406	7.093753	126885888	91893760	27024440	24992
407	4.889844	126885888	91893760	30163624	24992
408	5.624635	126885888	91893760	33737768	24992
409	6.475178	126885888	91893760	37764152	24992
410	8.734641	126885888	91893760	27406520	24992
411	7.768848	126885888	91893760	32356272	24992
412	8.393505	126885888	91893760	37740912	24992
413	10.255013	126885888	91893760	27914944	24992
414	10.020712	126885888	91893760	34222784	24992
415	10.732642	126885888	91893760	40974736	24992
416	11.982169	126885888	91893760	31955320	24992
417	12.140424	126885888	91893760	39645664	24992
418	13.48777	126885888	91893760	31803480	24992
419	13.634776	126885888	91893760	40446376	24992
420	14.86989	126885888	91893760	33407064	24992
421	16.772941	126885888	91893760	28124280	24992
422	15.619098	126885888	91893760	38206424	24992
423	17.737931	126885888	91893760	33011096	24992
424	18.733528	126885888	91893760	29248016	24992
425	18.226495	126885888	91893760	40780008	24992
426	19.278884	126885888	91893760	36604704	24992
427	20.796699	126885888	91893760	33676576	24992
428	22.042034	126885888	91893760	31768784	24992
429	22.434375	126885888	91893760	30665264	24992
430	23.771443	126885888	91893760	30247880	24992
431	24.680361	126885888	91893760	30380136	24992
432	25.353787	126885888	91893760	31020056	24992
433	25.744894	126885888	91893760	32000056	24992
434	26.021625	126885888	91893760	33308544	24992
435	27.386226	126885888	91893760	34937424	24992
436	27.979077	126885888	91893760	36718200	24992
437	28.438863	126885888	91893760	38694056	24992
438	29.498097	126885888	91893760	40851440	24992
439	32.480954	126885888	91893760	29827528	24992
440	33.392937	126885888	91893760	37360768	24992
441	32.198042	126885888	91893760	41887384	24992
442	31.957569	126885888	91893760	46085536	24992
443	34.568546	126885888	91893760	36481784	24992
444	34.363706	126885888	91893760	42647160	24992
445	37.555065	126885888	91893760	35152728	24992
446	38.067638	126885888	91893760	45652248	24992
447	39.283412	126885888	91893760	39521200	24992
448	40.078539	126885888	91893760	51020576	24992
449	40.723725	126885888	91893760	45505048	24992
450	46.210964	126885888	91893760	46338536	24992
451	42.647888	126885888	91893760	59118648	24992
452	43.567186	126885888	91893760	55015320	24992
453	49.68276	126885888	91893760	57301040	24992
454	64.885715	130400256	95563776	59933520	24992
455	59.668374	123682816	88748032	29675704	24992
456	49.653904	123682816	88748032	33356960	24992
457	51.123282	123682816	88748032	37405016	24992
458	51.553166	123682816	88748032	42010360	24992
459	52.078961	123682816	88748032	47115864	24992
460	54.29826	123682816	88748032	52759048	24992
461	55.760211	124223488	89272320	58899744	24992
462	56.323831	126115840	91369472	65589912	24992
463	83.787627	126767104	93990912	26486264	24992
464	57.061314	128655360	93990912	33278912	24992
465	57.446142	128655360	93990912	41445056	24992
466	62.486411	128655360	93990912	38581440	24992
467	59.084776	128655360	93990912	47808504	24992
468	60.13476	128655360	93990912	57630256	24992
469	65.796378	128655360	93990912	56304768	24992
470	67.999389	129466368	94515200	67144088	24992
471	83.560845	128622592	93466624	31479016	24992
472	68.285539	128622592	93466624	31921256	24992
473	64.016506	128622592	93466624	44291128	24992
474	69.791581	128622592	93466624	45634480	24992
475	66.134514	128622592	93466624	59087104	24992
476	72.333713	128622592	93466624	61460960	24992
477	97.425735	124387328	91369472	33462688	24992
478	73.198694	126275584	91369472	36163160	24992
479	74.163525	126275584	91369472	40250616	24992
480	69.035468	126275584	91369472	56408480	24992
481	70.913108	126275584	91369472	61437184	24992
482	76.42539	126545920	91369472	66979184	24992
483	101.720592	124735488	91893760	25113624	24992
484	78.241278	126623744	91893760	30451096	24992
485	78.406552	126623744	91893760	37962104	24992
486	78.817661	126623744	91893760	45827584	24992
487	80.544186	126623744	91893760	54322552	24992
488	85.982094	126894080	91893760	63331592	24992
489	105.642873	126050304	90845184	28979576	24992
490	82.951156	126050304	90845184	38860232	24992
491	81.321448	126050304	90845184	49408792	24992
492	82.515224	126050304	90845184	60398304	24992
493	94.960308	128212992	93466624	60257872	24992
494	108.328113	125890560	90845184	38720696	24992
495	91.501621	125890560	90845184	39830640	24992
496	88.065252	125890560	90845184	53072512	24992
497	91.496925	125890560	90845184	55111552	24992
498	91.303902	127782912	92942336	69565408	24992
499	120.624492	129150976	93990912	37957832	24992
500	96.032646	129150976	93990912	41810696	24992
501	92.462291	129150976	93990912	57738232	24992
502	1.746568	129150976	93990912	63141736	24992
503	2.582971	129150976	93990912	64817160	24992
504	3.442031	129150976	93990912	67052584	24992
505	7.231522	129150976	93990912	57337736	24992
506	5.16864	129150976	93990912	60696696	24992
507	6.172678	129150976	93990912	64624832	24992
508	7.053135	129150976	93990912	69110496	24992
509	9.158297	129150976	93990912	59262136	24992
510	8.768172	129150976	93990912	64879584	24992
511	9.474725	129150976	93990912	71064056	24992
512	10.716156	129150976	93990912	61351664	24992
513	11.533875	129150976	93990912	68684248	24992
514	12.80207	129150976	93990912	60554584	24992
515	13.188554	129150976	93990912	69024304	24992
516	14.537374	129150976	93990912	61979320	24992
517	16.031773	129150976	93990912	56779344	24992
518	15.645504	129150976	93990912	66962272	24992
519	18.066811	129150976	93990912	62017552	24992
520	19.002941	129150976	93990912	58543464	24992
521	18.800746	129150976	93990912	70477336	24992
522	19.475132	129150976	93990912	66602624	24992
523	21.44523	129150976	93990912	64004880	24992
524	22.088401	129150976	93990912	62450224	24992
525	23.647146	129150976	93990912	61778464	24992
526	24.259283	129150976	93990912	61805568	24992
527	25.403607	129150976	93990912	62394928	24992
528	26.318321	129150976	93990912	63475432	24992
529	27.44217	129150976	93990912	64957296	24992
530	28.451965	129150976	93990912	66734888	24992
531	28.858903	129150976	93990912	68806808	24992
532	29.003304	129150976	93990912	71088888	24992
533	32.628893	129150976	93990912	60054296	24992
534	32.133789	129150976	93990912	65099608	24992
535	32.981646	129150976	93990912	69853280	24992
536	35.249973	129150976	93990912	61058424	24992
537	39.698117	129691648	95039488	70970528	24992
538	52.149494	131043328	96088064	64512616	24992
539	44.094433	125681664	90845184	23781192	24992
540	44.595218	125681664	90845184	23712704	24992
541	40.678063	125681664	90845184	35739504	24992
542	41.453435	125681664	90845184	31254128	24992
543	46.651251	125681664	90845184	33004584	24992
544	44.040152	125681664	90845184	46804080	24992
545	44.120074	125681664	90845184	43411088	24992
546	53.382713	125681664	90845184	47010872	24992
547	54.574306	125681664	90845184	50924288	24992
548	56.856985	125952000	90845184	55541496	24992
549	71.346888	120217600	87175168	31262224	24992
550	53.805793	122109952	87175168	36555104	24992
551	56.1344	122109952	87175168	42872136	24992
552	60.170928	122109952	87175168	38230192	24992
553	57.125761	122109952	87175168	45781232	24992
554	55.961523	122109952	87175168	53992536	24992
555	57.884012	122109952	87175168	62771536	24992
556	87.305001	123187200	90320896	19821632	24992
557	62.589277	125075456	90320896	28210688	24992
558	60.859761	125075456	90320896	38804616	24992
559	66.442204	125075456	90320896	38454520	24992
560	62.842205	125075456	90320896	50295464	24992
561	69.583107	125075456	90320896	51309456	24992
562	65.598511	125075456	90320896	64360176	24992
563	93.390384	121954304	88748032	35102040	24992
564	70.382456	123842560	88748032	37320360	24992
565	71.794237	123842560	88748032	40738712	24992
566	75.402909	123842560	88748032	44763112	24992
567	71.346474	123842560	88748032	61049120	24992
568	77.260967	125194240	90320896	66384600	24992
569	108.33238	131952640	97136640	26553008	24992
570	72.571204	131952640	97136640	44717088	24992
571	78.220376	131952640	97136640	51868768	24992
572	83.338908	131952640	97136640	48088984	24992
573	79.771089	131952640	97136640	56468624	24992
574	85.798325	132222976	97136640	65463136	24992
575	107.805889	126447616	91369472	27597664	24992
576	83.033687	126447616	91369472	37815152	24992
577	84.228014	126447616	91369472	48786824	24992
578	84.451899	126447616	91369472	60380976	24992
579	92.287445	127528960	92418048	60951072	24992
580	122.370542	130215936	95039488	28992104	24992
581	89.705197	130215936	95039488	42612944	24992
582	88.360729	130215936	95039488	56751960	24992
583	93.788291	130215936	95039488	59884072	24992
584	94.536397	130756608	96088064	63704088	24992
585	117.899604	128704512	96088064	29401984	24992
586	96.004995	131133440	96088064	32945560	24992
587	92.939346	131133440	96088064	50279768	24992
588	99.503725	131133440	96088064	56644112	24992
589	106.422172	131674112	96612352	63739776	24992
590	124.164161	125902848	90845184	40320496	24992
591	101.72227	125902848	90845184	48702064	24992
592	103.442455	125902848	90845184	57766504	24992
593	103.615821	126443520	91369472	67352872	24992
594	128.587527	126709760	91893760	27325192	24992
595	105.947055	126709760	91893760	38483320	24992
596	110.61894	126709760	91893760	50166048	24992
597	109.0979	126709760	91893760	62397456	24992
598	132.464287	122769408	87699456	29273512	24992
599	108.881165	122769408	87699456	43059408	24992
600	116.339264	122769408	87699456	45854464	24992
601	119.379629	124391424	89272320	60797792	24992
602	2.343638	123813888	88748032	36471040	24992
603	3.114712	123813888	88748032	38461976	24992
604	4.115889	123813888	88748032	41122640	24992
605	4.985973	123813888	88748032	44440528	24992
606	8.637493	123813888	88748032	35150152	24992
607	6.863126	123813888	88748032	39802088	24992
608	8.213333	123813888	88748032	45122112	24992
609	10.272498	123813888	88748032	35716168	24992
610	10.092689	123813888	88748032	42406224	24992
611	11.35028	123813888	88748032	49769200	24992
612	12.964675	123813888	88748032	41305944	24992
613	14.611361	123813888	88748032	35008496	24992
614	14.650751	123813888	88748032	44365640	24992
615	16.683428	123813888	88748032	38890912	24992
616	16.508496	123813888	88748032	49609984	24992
617	18.040577	123813888	88748032	44556936	24992
618	20.345046	123813888	88748032	41069000	24992
619	21.303774	123813888	88748032	38931616	24992
620	22.60234	123813888	88748032	37902424	24992
621	23.73266	123813888	88748032	37675048	24992
622	25.422915	123813888	88748032	38242584	24992
623	26.029156	123813888	88748032	39391696	24992
624	26.867037	123813888	88748032	40975792	24992
625	28.287776	123813888	88748032	42993448	24992
626	28.661735	123813888	88748032	45309448	24992
627	29.75361	123813888	88748032	47873520	24992
628	32.893067	123813888	88748032	37491592	24992
629	35.107025	123813888	88748032	45827640	24992
630	33.252783	123813888	88748032	50965960	24992
631	36.537414	123813888	88748032	42690096	24992
632	37.964746	123813888	88748032	53098360	24992
633	39.255639	123813888	88748032	46906448	24992
634	40.348403	123813888	88748032	58640896	24992
635	40.386533	123813888	88748032	53401064	24992
636	48.543839	123813888	88748032	54898960	24992
637	43.999415	123813888	88748032	68499592	24992
638	43.002224	123813888	89796608	64789264	24992
639	45.438579	124624896	90320896	62637712	24992
640	54.285614	129761280	95563776	66896008	24992
641	79.654095	128049152	95563776	23741360	24992
642	55.136057	133181440	99233792	28009536	24992
643	55.158726	137777152	104476672	34137592	24992
644	56.339084	142643200	109719552	40938728	24992
645	56.656093	147509248	114962432	48437496	24992
646	58.079676	152375296	120205312	56621840	24992
647	65.254471	159674368	128069632	54029768	24992
648	61.429486	164540416	133312512	63771864	24992
649	80.672247	98234368	65679360	23989376	24992
650	61.503825	100663296	65679360	33920840	24992
651	66.997623	100933632	65679360	34152648	24992
652	64.700578	105529344	70922240	46491040	24992
653	70.733059	112828416	78786560	48179192	24992
654	72.359109	117424128	82456576	50513928	24992
655	95.192857	122019840	87175168	65118152	24992
656	72.73635	110559232	75640832	38428744	24992
657	73.68596	110829568	75640832	42900864	24992
658	74.581636	111370240	76689408	48046904	24992
659	77.726321	118669312	83505152	53910872	24992
660	78.812767	125968384	90845184	60579120	24992
661	84.275185	132997120	98185216	67948800	24992
662	102.733965	112484352	77737984	38242744	24992
663	85.924746	112484352	77737984	35706272	24992
664	81.620896	112754688	77737984	45336328	24992
665	85.037583	117350400	82456576	55674712	24992
666	86.701488	124919808	89796608	66751632	24992
667	112.542361	109723648	76689408	30723968	24992
668	89.657229	111611904	76689408	30383120	24992
669	88.756098	111611904	76689408	43505720	24992
670	97.650331	113504256	78786560	45804296	24992
671	92.182668	120803328	86126592	60512992	24992
672	125.413241	120455168	85602304	33814392	24992
673	95.907993	120455168	85602304	38369744	24992
674	93.005693	120455168	85602304	55233560	24992
675	99.646556	123969536	89272320	61215264	24992
676	105.526245	133701632	98709504	67989008	24992
677	122.721224	121692160	86650880	39026480	24992
678	102.271696	121692160	86650880	47176136	24992
679	101.827042	121692160	86650880	56121840	24992
680	105.034445	126828544	91893760	65701832	24992
681	128.769828	119742464	85078016	25924360	24992
682	107.169921	119742464	85078016	37206224	24992
683	107.115294	119742464	85078016	49207088	24992
684	107.608519	120823808	85602304	61700048	24992
685	134.206849	120143872	85078016	28859056	24992
686	111.065379	120143872	85078016	43195048	24992
687	115.785182	120143872	85078016	46516000	24992
688	120.786401	121495552	86650880	62074088	24992
689	147.090563	121708544	86650880	38228768	24992
690	115.503045	121708544	86650880	55357272	24992
691	120.491181	123330560	88223744	61615928	24992
692	145.993417	135495680	100806656	68730336	24992
693	128.945786	128352256	93466624	39911592	24992
694	125.635172	128352256	93466624	48491864	24992
695	121.78599	128352256	93466624	69246656	24992
696	151.3153	125472768	90845184	29764032	24992
697	127.58241	126013440	90845184	40841480	24992
698	128.696479	126013440	90845184	52386856	24992
699	144.090087	129527808	94515200	64667408	24992
700	139.812668	124428288	89272320	44281688	24992
701	132.745326	124428288	89272320	58155680	24992
702	7.214089	130646016	95563776	61799552	24992
703	3.813317	130646016	95563776	64088832	24992
704	5.078668	130646016	95563776	67131952	24992
705	6.679723	130646016	95563776	70948976	24992
706	7.42933	130646016	95563776	75518960	24992
707	13.543278	132808704	98185216	66550608	24992
708	12.319538	132808704	98185216	72658840	24992
709	20.552549	121556992	86126592	14378032	24992
710	12.580505	120508416	86126592	22026248	24992
711	15.228765	120774656	86126592	15789760	24992
712	14.496299	120774656	86126592	24992904	24992
713	16.814585	120774656	86126592	19457248	24992
714	16.690402	120774656	86126592	30176088	24992
715	18.267475	120774656	86126592	25197536	24992
716	20.151589	120774656	86126592	21946328	24992
717	21.580446	120774656	86126592	20015056	24992
718	23.404718	120774656	86126592	19307768	24992
719	24.272584	120774656	86126592	19506048	24992
720	25.798484	120774656	86126592	20390768	24992
721	27.12718	120774656	86126592	21913136	24992
722	27.803132	120774656	86126592	23909224	24992
723	29.486827	120774656	86126592	26400160	24992
724	30.080354	120774656	86126592	29197256	24992
725	33.31929	120774656	86126592	18965824	24992
726	35.817336	120774656	86126592	27854976	24992
727	34.117044	120774656	86126592	33604504	24992
728	36.972881	120774656	86126592	25313784	24992
729	36.84652	120774656	86126592	32896856	24992
730	39.33588	120774656	86126592	26502776	24992
731	43.825681	120774656	86126592	23034928	24992
732	42.276543	120774656	86126592	36390848	24992
733	43.53953	120774656	86126592	32673264	24992
734	49.485655	120774656	86126592	36227144	24992
735	51.87866	120774656	86126592	40348912	24992
736	53.836218	120774656	86126592	45341240	24992
737	55.724406	120774656	86126592	50961544	24992
738	76.317771	122937344	88223744	57406368	24992
739	62.125985	119472128	84553728	36465680	24992
740	62.516262	119472128	84553728	33168984	24992
741	58.507204	119472128	84553728	41938472	24992
742	59.427968	119472128	84553728	51535776	24992
743	65.718933	119472128	84553728	50541920	24992
744	62.359602	121905152	87175168	61789232	24992
745	76.906157	129474560	94515200	62279656	24992
746	87.838135	126627840	91893760	28802896	24992
747	66.254106	126627840	91893760	42576768	24992
748	72.380916	126627840	91893760	45511784	24992
749	72.749548	126898176	91893760	49266272	24992
750	73.869169	126898176	91893760	53798096	24992
751	80.623196	127438848	92942336	59269648	24992
752	99.80578	126402560	91369472	31661032	24992
753	77.787723	126402560	91369472	38813184	24992
754	78.56519	126402560	91369472	46626880	24992
755	79.29189	126402560	91369472	55173288	24992
756	79.933338	126402560	91369472	64630376	24992
757	108.481405	124403712	91893760	28011880	24992
758	86.480168	126832640	91893760	37833896	24992
759	89.292774	126832640	91893760	38267256	24992
760	87.133326	126832640	91893760	50882408	24992
761	85.923435	126832640	91893760	64358352	24992
762	114.192042	124121088	91369472	33054704	24992
763	95.789591	126009344	91369472	35772856	24992
764	95.632108	126009344	91369472	40162152	24992
765	93.350522	126009344	91369472	57033832	24992
766	116.157962	128712704	94515200	63100888	24992
767	106.990655	125845504	90845184	37568120	24992
768	101.473765	125845504	90845184	45283328	24992
769	103.324452	125845504	90845184	53811904	24992
770	108.059744	130981888	96088064	63211408	24992
771	129.027281	126377984	91369472	39029536	24992
772	106.885005	126377984	91369472	50005888	24992
773	108.965225	126377984	91369472	61883576	24992
774	113.126582	130703360	96088064	63145104	24992
775	141.945595	131346432	96612352	42717648	24992
776	116.244154	131346432	96612352	45704400	24992
777	113.194453	131346432	96612352	60900784	24992
778	120.243476	133779456	98709504	65589464	24992
779	141.776801	129044480	93990912	28054152	24992
780	117.281426	129044480	93990912	46042056	24992
781	120.69075	129044480	93990912	53094968	24992
782	129.110524	129585152	94515200	61101944	24992
783	150.83508	125874176	90845184	38818000	24992
784	125.718988	125874176	90845184	48405624	24992
785	123.040848	127766528	92942336	70293008	24992
786	159.445288	128167936	95563776	30511456	24992
787	131.246107	130596864	95563776	41487088	24992
788	131.148648	130596864	95563776	54380320	24992
789	135.715725	131137536	96088064	68105248	24992
790	169.794421	132009984	97136640	39509560	24992
791	137.28136	132009984	97136640	54912952	24992
792	137.989513	132820992	98185216	71149464	24992
793	169.925049	131772416	98709504	36475480	24992
794	144.204123	133660672	98709504	41535008	24992
795	141.676457	133660672	98709504	60249440	24992
796	168.320641	135012352	99758080	68539568	24992
797	153.33618	129630208	94515200	43136912	24992
798	145.26246	129630208	94515200	64720744	24992
799	152.399375	134496256	99758080	75339768	24992
800	186.317302	137490432	102379520	40750264	24992
801	151.650312	137490432	102379520	64757920	24992
802	2.676534	137490432	102379520	78895424	24992
803	8.100867	138842112	103952384	69619064	24992
804	5.385973	138842112	103952384	73051880	24992
805	7.016301	138842112	103952384	77357368	24992
806	7.619353	138842112	103952384	82522008	24992
807	12.195014	140464128	105525248	73927320	24992
808	11.930191	140464128	105525248	80822552	24992
809	14.41921	140464128	105525248	72864224	24992
810	21.929083	140464128	105525248	81510528	24992
811	21.835144	126021632	91369472	23139408	24992
812	17.606461	126287872	91369472	18247064	24992
813	17.43812	126287872	91369472	29484288	24992
814	19.33304	126287872	91369472	25227064	24992
815	22.00173	126287872	91369472	22672320	24992
816	22.708774	126287872	91369472	21501744	24992
817	24.78319	126287872	91369472	21341072	24992
818	25.941948	126287872	91369472	22053856	24992
819	27.136475	126287872	91369472	23460400	24992
820	28.055099	126287872	91369472	25556920	24992
821	29.727066	126287872	91369472	28123840	24992
822	33.191846	126287872	91369472	17850856	24992
823	35.945126	126287872	91369472	26734280	24992
824	34.551246	126287872	91369472	32529248	24992
825	37.030673	126287872	91369472	24625232	24992
826	37.206891	126287872	91369472	32375216	24992
827	40.797835	126287872	91369472	26258872	24992
828	43.639007	126287872	91369472	23109888	24992
829	44.455583	126287872	91369472	37014960	24992
830	44.745198	126287872	91369472	33818808	24992
831	46.761552	126287872	91369472	32344024	24992
832	51.284671	126287872	91369472	37530104	24992
833	54.162128	126287872	91369472	43303616	24992
834	55.818312	126287872	91369472	50040248	24992
835	58.722953	126287872	91369472	57554336	24992
836	86.460831	118329344	85078016	27434272	24992
837	61.128379	120221696	85078016	36539848	24992
838	65.106383	120221696	85078016	35373160	24992
839	61.85413	120221696	85078016	46577216	24992
840	67.627848	120221696	85078016	47142728	24992
841	64.549397	120762368	86126592	60165936	24992
842	81.15356	128331776	93466624	62620384	24992
843	91.322205	127602688	92942336	31744928	24992
844	72.836056	127602688	92942336	36210576	24992
845	75.085733	127602688	92942336	41456056	24992
846	74.941735	127602688	92942336	47414536	24992
847	78.221402	127873024	92942336	54437400	24992
848	97.236409	130576384	95563776	62404456	24992
849	86.28228	125251584	90320896	36444608	24992
850	80.523066	125251584	90320896	46106872	24992
851	87.382977	125251584	90320896	45329120	24992
852	83.940292	125251584	90320896	56873544	24992
853	93.423329	127143936	92418048	69347456	24992
854	108.603737	126562304	91893760	37428648	24992
855	92.141815	126562304	91893760	40229944	24992
856	90.12681	126562304	91893760	55510472	24992
857	95.101253	126562304	91893760	60239296	24992
858	119.021515	124387328	91893760	31534296	24992
859	98.070367	126816256	91893760	36867368	24992
860	100.66316	126816256	91893760	44436240	24992
861	101.884437	126816256	91893760	53042192	24992
862	122.074266	130871296	96088064	62460024	24992
863	108.295357	123985920	89272320	39637760	24992
864	105.302937	123985920	89272320	50983536	24992
865	104.699605	123985920	89272320	63141752	24992
866	129.325078	130473984	95563776	64671720	24992
867	118.58829	127451136	92418048	43710752	24992
868	113.324078	127451136	92418048	47257592	24992
869	112.95413	127451136	92418048	63255336	24992
870	139.749925	133668864	98709504	68636600	24992
871	123.48418	127488000	92418048	38510240	24992
872	116.589177	127488000	92418048	57357952	24992
873	122.917409	127488000	92418048	65653432	24992
874	149.060618	127733760	92942336	25408616	24992
875	120.937145	127733760	92942336	47409008	24992
876	126.709872	127733760	92942336	58540336	24992
877	134.402495	128004096	92942336	70628504	24992
878	155.61105	124342272	89272320	39235480	24992
879	131.62273	124342272	89272320	53145344	24992
880	133.833509	129478656	94515200	68040832	24992
881	159.48936	128344064	93466624	32394312	24992
882	135.33811	128344064	93466624	49238184	24992
883	139.705888	128344064	93466624	55410752	24992
884	164.070527	126095360	91369472	29065840	24992
885	138.839465	126095360	91369472	48709968	24992
886	144.513938	126095360	91369472	57886344	24992
887	171.686895	122765312	87699456	33233152	24992
888	147.331691	122765312	87699456	44196528	24992
889	150.634233	123305984	88223744	56271096	24992
890	188.694844	125349888	90320896	42521472	24992
891	152.654235	125349888	90320896	56583744	24992
892	156.631035	138596352	103428096	71492720	24992
893	185.636756	130154496	95039488	28794448	24992
894	155.215179	130154496	95039488	45535664	24992
895	157.130622	130154496	95039488	63521936	24992
896	183.667088	125992960	90845184	33745840	24992
897	161.169349	125992960	90845184	53609208	24992
898	184.279512	129507328	94515200	62823560	24992
899	180.261153	122773504	87699456	54917560	24992
900	170.024783	127098880	92418048	66083840	24992
901	202.224661	129413120	96612352	39185792	24992
902	2.989653	131301376	96612352	52127240	24992
903	4.463674	131301376	96612352	55073328	24992
904	9.441785	131301376	96612352	46599672	24992
905	7.703731	131301376	96612352	51528472	24992
906	9.171146	131301376	96612352	57436448	24992
907	11.747546	131301376	96612352	49450640	24992
908	12.067637	131301376	96612352	57363904	24992
909	14.547829	131301376	96612352	50489624	24992
910	15.052601	131301376	96612352	60360248	24992
911	17.185902	131301376	96612352	54919632	24992
912	19.244783	131301376	96612352	51489720	24992
913	20.981673	131301376	96612352	49645808	24992
914	22.837731	131301376	96612352	49101696	24992
915	24.424543	131301376	96612352	49698392	24992
916	26.026519	131301376	96612352	51191752	24992
917	28.288991	131301376	96612352	53383536	24992
918	29.753961	131301376	96612352	56121840	24992
919	30.048632	131301376	96612352	59339336	24992
920	33.742121	131301376	96612352	49858576	24992
921	35.909956	131301376	96612352	59408728	24992
922	37.861381	131301376	96612352	53074368	24992
923	39.086053	131301376	96612352	64606336	24992
924	40.195283	131301376	96612352	59873968	24992
925	46.053361	131571712	96612352	61729280	24992
926	43.24919	131842048	96612352	76117904	24992
927	43.857659	131842048	97136640	73348272	24992
928	46.104418	132382720	98185216	72374016	24992
929	63.471802	137519104	102903808	78275064	24992
930	67.574981	125812736	91369472	30387264	24992
931	56.759912	125812736	91369472	38504144	24992
932	60.199383	125812736	91369472	35748152	24992
933	58.360451	125812736	91369472	45487384	24992
934	59.878887	126353408	91369472	56180640	24992
935	64.777544	126353408	91369472	56488144	24992
936	81.234717	126623744	91893760	57740368	24992
937	80.363815	125976576	90845184	26389280	24992
938	66.5676	125976576	90845184	41228640	24992
939	73.529996	125976576	90845184	45465240	24992
940	76.365314	125976576	90845184	50898648	24992
941	74.471352	125976576	90845184	57221016	24992
942	96.913052	130572288	95563776	64701312	24992
943	80.971202	127107072	91893760	38461064	24992
944	83.286223	127107072	91893760	36319992	24992
945	79.609227	127107072	91893760	46743256	24992
946	83.286466	127107072	91893760	58171288	24992
947	105.277776	131162112	96612352	59398592	24992
948	94.93142	124387328	89796608	39846904	24992
949	92.305128	124387328	89796608	43106856	24992
950	92.55071	124387328	89796608	47041104	24992
951	91.594475	124928000	89796608	63655624	24992
952	114.692319	122929152	90320896	33978320	24992
953	96.340566	125358080	90320896	40070336	24992
954	98.449926	125358080	90320896	48371992	24992
955	98.152884	125358080	90320896	57661832	24992
956	128.598	125292544	92418048	22741416	24992
957	106.92875	136101888	102379520	33624984	24992
958	107.851002	145833984	112865280	46135184	24992
959	108.149411	155566080	123351040	59383928	24992
960	136.062639	130506752	68300800	25494736	24992
961	112.003467	103215104	68300800	40463480	24992
962	117.587641	115380224	81408000	45416152	24992
963	116.074789	125112320	91893760	63085176	24992
964	141.624942	101310464	66203648	31964232	24992
965	120.251746	102932480	68300800	40243672	24992
966	124.222316	114827264	79835136	49332808	24992
967	139.421898	126992384	92418048	59631232	24992
968	140.205825	108494848	73543680	38945648	24992
969	128.997863	116604928	81932288	51273792	24992
970	129.867319	128770048	93990912	64624760	24992
971	158.415291	103907328	69349376	28475264	24992
972	130.249228	104718336	69873664	43867712	24992
973	135.745323	116883456	82456576	60538984	24992
974	168.267177	108101632	73019392	32657360	24992
975	137.025896	108642304	73543680	39977648	24992
976	141.698456	119185408	84029440	59664496	24992
977	171.008715	110301184	75640832	33125352	24992
978	144.324464	110571520	75640832	43490456	24992
979	150.442838	122195968	87175168	54828544	24992
980	174.878809	112160768	78262272	31411232	24992
981	148.690243	113242112	78262272	44821504	24992
982	154.006938	123244544	88748032	59205080	24992
983	188.700177	121196544	86126592	46925920	24992
984	152.979217	123899904	89272320	63644200	24992
985	159.892065	138227712	103428096	81273592	24992
986	183.590001	110993408	76165120	30675584	24992
987	158.741574	111804416	76689408	50525472	24992
988	196.858187	117309440	85078016	30384024	24992
989	165.142639	119738368	85078016	52135584	24992
990	170.558524	129740800	95563776	63437904	24992
991	195.032232	116162560	81408000	36272096	24992
992	171.113115	116162560	81408000	49627968	24992
993	181.921073	129949696	95039488	64382352	24992
994	209.545071	125800448	90845184	50356264	24992
995	175.572649	130396160	95563776	67144832	24992
996	215.224947	122949632	89796608	32829720	24992
997	177.50811	124837888	89796608	50412304	24992
998	182.991092	131866624	97136640	70425736	24992
999	214.129423	121769984	87175168	36469008	24992
1000	184.054587	122310656	87175168	58729888	24992
