x	Duration	RSS	HeapTotal	HeapUsed	External
0	NA	128659456	95039488	36187016	24992
1	0.459627	128659456	95039488	36232424	24992
2	0.309043	128659456	95039488	36303696	24992
3	0.347997	128659456	95039488	36400064	24992
4	0.460612	128659456	95039488	36522704	24992
5	0.541571	128659456	95039488	36673016	24992
6	0.632253	128659456	95039488	36851752	24992
7	0.745467	128659456	95039488	37059928	24992
8	0.760342	128659456	95039488	37298288	24992
9	0.413	128659456	95039488	37568840	24992
10	0.456629	128659456	95039488	37871528	24992
11	0.509508	128659456	95039488	38207384	24992
12	0.552664	128659456	95039488	38577752	24992
13	0.601923	128659456	95039488	38983552	24992
14	3.288002	128659456	95039488	26766960	24992
15	0.751203	128659456	95039488	27246648	24992
16	0.827458	128659456	95039488	27764528	24992
17	0.832795	128659456	95039488	28323504	24992
18	0.880675	128659456	95039488	28922944	24992
19	0.950167	128659456	95039488	29564192	24992
20	1.236387	128659456	95039488	30247008	24992
21	1.092096	128659456	95039488	30972824	24992
22	1.128067	128659456	95039488	31742432	24992
23	1.213067	128659456	95039488	32556816	24992
24	1.287178	128659456	95039488	33417008	24992
25	1.331201	128659456	95039488	34324840	24992
26	1.880986	128659456	95039488	35281248	24992
27	1.515046	128659456	95039488	36289624	24992
28	2.325695	128659456	95039488	37346120	24992
29	1.690995	128659456	95039488	38454032	24992
30	2.012775	128659456	95039488	39615104	24992
31	1.826248	128659456	95039488	40836792	24992
32	4.254438	128659456	95039488	27429920	24992
33	2.225771	128659456	95039488	28759728	24992
34	2.063098	128659456	95039488	30145832	24992
35	2.244254	128659456	95039488	31588936	24992
36	2.249601	128659456	95039488	33090232	24992
37	2.384773	128659456	95039488	34650312	24992
38	2.679131	128659456	95039488	36270200	24992
39	2.524678	128659456	95039488	37950712	24992
40	2.629045	128659456	95039488	39693392	24992
41	2.824463	128659456	95039488	41498264	24992
42	4.328677	128659456	95039488	27303464	24992
43	3.006107	128659456	95039488	29237272	24992
44	2.982351	128659456	95039488	31236256	24992
45	3.095671	128659456	95039488	33302008	24992
46	3.413656	128659456	95039488	35435808	24992
47	3.314101	128659456	95039488	37636400	24992
48	3.41888	128659456	95039488	39906056	24992
49	3.734531	128659456	95039488	42245760	24992
50	4.903152	128659456	95039488	28495104	24992
51	4.070982	128659456	95039488	30980360	24992
52	4.215576	128659456	95039488	33540664	24992
53	4.181117	128659456	95039488	36178160	24992
54	4.093028	128659456	95039488	38891056	24992
55	4.995875	128659456	95039488	41681824	24992
56	5.624985	128659456	95039488	28484576	24992
57	4.793517	128659456	95039488	31433248	24992
58	4.592533	128659456	95039488	34462744	24992
59	4.732602	128659456	95039488	37573432	24992
60	5.062527	128659456	95039488	40766376	24992
61	4.918555	128659456	95039488	44042472	24992
62	6.416595	128659456	95039488	31379016	24992
63	5.27688	128659456	95039488	34824416	24992
64	5.760974	128659456	95039488	38356152	24992
65	5.519643	128659456	95039488	41982728	24992
66	7.868578	128659456	95039488	30115216	24992
67	6.173454	128659456	95039488	33918088	24992
68	6.09705	128659456	95039488	37810776	24992
69	6.002814	128659456	95039488	41794152	24992
70	7.964681	128659456	95039488	30315536	24992
71	6.877202	128659456	95039488	34482952	24992
72	6.428541	128659456	95039488	38743928	24992
73	6.80632	128659456	95039488	43101680	24992
74	9.018777	128659456	95039488	31885536	24992
75	6.980749	128659456	95039488	36432424	24992
76	7.242886	128659456	95039488	41076568	24992
77	7.164095	128659456	95039488	45818824	24992
78	9.110455	128659456	95039488	34746272	24992
79	7.492977	128659456	95039488	39688320	24992
80	7.63347	128659456	95039488	44733264	24992
81	10.230909	128659456	95039488	34048144	24992
82	8.199409	128659456	95039488	39294872	24992
83	8.227786	128659456	95039488	44646632	24992
84	10.964431	128659456	95039488	34346832	24992
85	8.486463	128659456	95039488	39910880	24992
86	8.869757	128659456	95039488	45579816	24992
87	10.662707	128659456	95039488	35479584	24992
88	9.06316	128659456	95039488	41363720	24992
89	9.223524	128659456	95039488	47357064	24992
90	11.275815	128659456	95039488	37482848	24992
91	9.793226	128659456	95039488	43700224	24992
92	11.684604	128659456	95039488	34462120	24992
93	10.883497	128659456	95039488	40909632	24992
94	10.428787	128659456	95039488	47462816	24992
95	12.484147	128659456	95039488	38213000	24992
96	10.61591	128659456	95039488	44996952	24992
97	12.763717	128659456	95039488	36332744	24992
98	11.281981	128659456	95039488	43351528	24992
99	13.298739	128659456	95039488	35145928	24992
100	11.862804	128659456	95039488	42402520	24992
101	11.57974	128659456	95039488	49779624	24992
102	0.448802	128659456	95039488	41103648	24992
103	0.659976	128659456	95039488	41469928	24992
104	0.843988	128659456	95039488	41963360	24992
105	1.077056	128659456	95039488	42585672	24992
106	1.186013	128659456	95039488	43336848	24992
107	1.404433	128659456	95039488	44218056	24992
108	1.575839	128659456	95039488	45230208	24992
109	1.793589	128659456	95039488	46374168	24992
110	1.977243	128659456	95039488	47651928	24992
111	2.39705	128659456	95039488	49063336	24992
112	4.48646	128659456	95039488	34735768	24992
113	2.798874	128659456	95039488	36417432	24992
114	3.089362	128659456	95039488	38235640	24992
115	3.086261	128659456	95039488	40191192	24992
116	3.424272	128659456	95039488	42285024	24992
117	3.697036	128659456	95039488	44519216	24992
118	3.927425	128659456	95039488	46894416	24992
119	4.233729	128659456	95039488	49410696	24992
120	6.002304	128659456	95039488	36092696	24992
121	4.770092	128659456	95039488	38894320	24992
122	4.545155	128659456	95039488	41839912	24992
123	4.742531	128659456	95039488	44930392	24992
124	5.006613	128659456	95039488	48166560	24992
125	7.016566	128659456	95039488	35709120	24992
126	5.674253	128659456	95039488	39239768	24992
127	5.661715	128659456	95039488	42920968	24992
128	6.117662	128659456	95039488	46749560	24992
129	6.124224	128659456	95039488	50732760	24992
130	8.005839	128659456	95039488	38692560	24992
131	6.837658	128659456	95039488	42975232	24992
132	6.895581	128659456	95039488	47410896	24992
133	9.218044	128659456	95039488	36314248	24992
134	7.884951	128659456	95039488	41066192	24992
135	8.000953	128659456	95039488	45974632	24992
136	8.24773	128659456	95039488	51041320	24992
137	10.176932	128659456	95039488	40084200	24992
138	8.35204	128659456	95039488	45465936	24992
139	8.556717	128659456	95039488	51007232	24992
140	10.714697	128659456	95039488	40572968	24992
141	9.280692	128659456	95039488	46436776	24992
142	11.573084	128659456	95039488	36950512	24992
143	9.91426	128659456	95039488	43140120	24992
144	10.520246	128659456	95039488	49494416	24992
145	12.400821	128659456	95039488	40093880	24992
146	10.590696	128659456	95039488	46780056	24992
147	12.682958	128659456	95039488	38146920	24992
148	11.321768	128659456	95039488	45171072	24992
149	11.986958	128659456	95039488	52364288	24992
150	13.457096	128659456	95039488	43503448	24992
151	11.981888	128659456	95039488	51039672	24992
152	14.143346	128659456	95039488	42720376	24992
153	12.495856	128659456	95039488	50597904	24992
154	14.901988	128659456	95039488	42695600	24992
155	13.066777	128659456	95039488	50919600	24992
156	16.281729	128659456	95039488	43324704	24992
157	13.800304	128659456	95039488	51903696	24992
158	15.876842	128659456	95039488	44551248	24992
159	14.190476	128659456	95039488	53488152	24992
160	16.589808	128659456	95039488	46345040	24992
161	18.150808	128659456	95039488	40356248	24992
162	15.529062	128659456	95039488	49828168	24992
163	18.058321	128659456	95039488	43769184	24992
164	15.843499	128659456	95039488	53609112	24992
165	18.168679	128659456	95039488	47429904	24992
166	18.606529	128659456	95039488	42276480	24992
167	16.659891	128659456	95039488	52678800	24992
168	18.490965	128659456	95039488	47187144	24992
169	19.646814	128659456	95039488	42697024	24992
170	17.53585	128659456	95039488	53666000	24992
171	20.232753	128659456	95039488	48637768	24992
172	20.730199	128659456	95039488	44552192	24992
173	21.681985	128659456	95039488	41246200	24992
174	18.8437	128659456	95039488	52974344	24992
175	21.873755	128659456	95039488	48897848	24992
176	22.809159	128659456	95039488	45626896	24992
177	23.017764	128659456	95039488	42974128	24992
178	20.055025	128659456	95039488	55480368	24992
179	23.019507	128659456	95039488	51941120	24992
180	23.281011	128659456	95039488	49108328	24992
181	23.887479	128659456	95039488	46851560	24992
182	24.043573	128659456	95039488	45127792	24992
183	25.614213	128659456	95039488	43901968	24992
184	25.584571	128659456	95039488	43062080	24992
185	22.999066	128659456	95039488	56972832	24992
186	24.85098	128659456	95039488	54804384	24992
187	25.392698	128659456	95039488	53112536	24992
188	26.419242	128659456	95039488	51900360	24992
189	26.073658	128659456	95039488	51005032	24992
190	26.902858	128659456	95039488	50465496	24992
191	26.949024	128659456	95039488	50262296	24992
192	27.691923	128659456	95039488	50315728	24992
193	28.072526	128659456	95039488	50605952	24992
194	28.063454	128659456	95039488	51082216	24992
195	28.402194	128659456	95039488	51733304	24992
196	28.575346	128659456	95039488	52511024	24992
197	29.517744	128659456	95039488	53404240	24992
198	29.271417	128659456	95039488	54412088	24992
199	30.134206	128659456	95039488	55522232	24992
200	29.767852	128659456	95039488	56724168	24992
201	31.378611	128659456	95039488	57974496	24992
202	0.75402	128659456	95039488	59241800	24992
203	1.062497	128659456	95039488	59899792	24992
204	3.789773	128659456	95039488	44486376	24992
205	1.753111	128659456	95039488	45585184	24992
206	2.160484	128659456	95039488	46906248	24992
207	2.448576	128659456	95039488	48450072	24992
208	2.850534	128659456	95039488	50217472	24992
209	3.20862	128659456	95039488	52218008	24992
210	3.730558	128659456	95039488	54453056	24992
211	4.079997	128659456	95039488	56922736	24992
212	4.228983	128659456	95039488	59628040	24992
213	7.335616	128659456	95039488	46310480	24992
214	4.965198	128659456	95039488	49489744	24992
215	5.325538	128659456	95039488	52907512	24992
216	5.964823	128659456	95039488	56564408	24992
217	6.277721	128659456	95039488	60462184	24992
218	9.600554	128659456	95039488	48297944	24992
219	7.080959	128659456	95039488	52680288	24992
220	7.165913	128659456	95039488	57308584	24992
221	10.534243	128659456	95039488	46321448	24992
222	7.974215	128659456	95039488	51443224	24992
223	8.489644	128659456	95039488	56803504	24992
224	11.722607	128659456	95039488	46644560	24992
225	9.599826	128659456	95039488	52504344	24992
226	9.671854	128659456	95039488	58608792	24992
227	12.921295	128659456	95039488	48941880	24992
228	10.970498	128659456	95039488	55555144	24992
229	13.834563	128659456	95039488	46825968	24992
230	11.013841	128659456	95039488	53940288	24992
231	15.102995	128659456	95039488	45977512	24992
232	12.352238	128659456	95039488	53597840	24992
233	15.348746	128659456	95039488	46196136	24992
234	12.921922	128659456	95039488	54332560	24992
235	16.422353	128659456	95039488	47386512	24992
236	13.74604	128659456	95039488	56043656	24992
237	17.363921	128659456	95039488	49373064	24992
238	15.246813	128659456	95039488	58539144	24992
239	17.931336	128659456	95039488	52036560	24992
240	15.501323	128659456	95039488	61730944	24992
241	18.73354	128659456	95039488	55343504	24992
242	19.392062	128659456	95039488	50089208	24992
243	16.841113	128659456	95039488	60569632	24992
244	20.113445	128659456	95039488	55166712	24992
245	21.199144	128659456	95039488	50791448	24992
246	18.100364	128659456	95039488	62081504	24992
247	21.273515	128659456	95039488	57270560	24992
248	22.200652	128659456	95039488	53423456	24992
249	22.522961	128659456	95039488	50411048	24992
250	23.791635	128659456	95039488	48124856	24992
251	20.538179	128659456	95039488	60754240	24992
252	23.844303	128659456	95039488	57549264	24992
253	24.376242	128659456	95039488	55099856	24992
254	24.84864	128659456	95039488	53252928	24992
255	25.662543	128659456	95039488	51950328	24992
256	26.364688	128659456	95039488	51179360	24992
257	26.9662	128659456	95039488	50780288	24992
258	27.470166	128659456	95039488	50741768	24992
259	28.516446	128659456	95039488	51008968	24992
260	28.691554	128659456	95039488	51540800	24992
261	29.09878	128659456	95039488	52282888	24992
262	28.57363	128659456	95039488	53213760	24992
263	29.22	128659456	95039488	54280856	24992
264	29.262691	128659456	95039488	55492056	24992
265	30.086459	128659456	95039488	56869696	24992
266	30.008295	128659456	95039488	58336840	24992
267	30.466995	128659456	95039488	59877496	24992
268	31.080872	128659456	95039488	61509632	24992
269	31.475118	128659456	95039488	63193232	24992
270	31.546068	128659456	95039488	64945312	24992
271	36.808569	128659456	95039488	52692016	24992
272	33.488891	128659456	95039488	56611352	24992
273	33.781687	128659456	95039488	60284472	24992
274	33.864926	128659456	95039488	63706336	24992
275	38.63416	128659456	95039488	53057504	24992
276	38.019605	128659456	95039488	60605592	24992
277	42.739197	128659456	95039488	65478832	24992
278	51.990143	114827264	80883712	25922456	24992
279	37.984799	114827264	80883712	20726048	24992
280	36.546648	114827264	80883712	29172008	24992
281	36.703701	114827264	80883712	21445208	24992
282	36.787388	114827264	80883712	30717784	24992
283	35.805991	114827264	80883712	36995088	24992
284	37.07418	114827264	80883712	28607376	24992
285	36.519026	114827264	80883712	35839200	24992
286	38.34727	114827264	80883712	28387264	24992
287	40.058244	114827264	80883712	39218672	24992
288	40.286616	114827264	80883712	32807736	24992
289	38.363818	114827264	80883712	41101568	24992
290	40.144004	114827264	80883712	34472336	24992
291	41.338747	114827264	80883712	29836888	24992
292	42.364695	115097600	81408000	42114736	24992
293	42.27398	115367936	81408000	37190640	24992
294	45.099319	115367936	81408000	37699696	24992
295	43.410233	115367936	81408000	50783664	24992
296	43.393703	115367936	81408000	46491928	24992
297	43.888809	115367936	81408000	43388536	24992
298	52.328375	115367936	81408000	45131704	24992
299	64.455999	112287744	79835136	20827232	24992
300	47.503945	113909760	79835136	35380584	24992
301	45.853363	113909760	79835136	32578496	24992
302	1.105803	113909760	79835136	30885312	24992
303	1.599356	113909760	79835136	31852280	24992
304	2.132886	113909760	79835136	33135280	24992
305	2.651576	113909760	79835136	34742584	24992
306	3.2916	113909760	79835136	36676544	24992
307	6.204823	113909760	79835136	25877664	24992
308	4.158589	113909760	79835136	28461856	24992
309	4.582841	113909760	79835136	31366008	24992
310	5.280291	113909760	79835136	34595584	24992
311	5.825393	113909760	79835136	38156120	24992
312	7.364401	113909760	79835136	26855472	24992
313	6.690743	113909760	79835136	31069864	24992
314	7.368443	113909760	79835136	35614280	24992
315	8.489849	113909760	79835136	24830432	24992
316	8.676139	113909760	79835136	30038832	24992
317	8.689227	113909760	79835136	35594816	24992
318	10.384983	113909760	79835136	25814344	24992
319	10.507062	113909760	79835136	32025560	24992
320	10.274176	113909760	79835136	38582664	24992
321	11.777098	113909760	79835136	29417352	24992
322	11.828385	113909760	79835136	36659168	24992
323	13.235842	113909760	79835136	28460280	24992
324	12.714247	113909760	79835136	36370920	24992
325	14.115573	113909760	79835136	28877352	24992
326	14.224553	113909760	79835136	37465792	24992
327	15.548437	113909760	79835136	30529872	24992
328	15.630087	113909760	79835136	39811328	24992
329	16.416256	113909760	79835136	33221440	24992
330	17.260067	113909760	79835136	27961728	24992
331	16.711593	113909760	79835136	38263880	24992
332	18.108677	113909760	79835136	32941872	24992
333	18.975921	113909760	79835136	28792376	24992
334	18.524116	113909760	79835136	40153120	24992
335	19.629975	113909760	79835136	35629432	24992
336	20.821203	113909760	79835136	32158600	24992
337	22.119981	113909760	79835136	29527832	24992
338	21.951596	113909760	79835136	27651208	24992
339	21.527902	113909760	79835136	40764416	24992
340	23.036793	113909760	79835136	37974576	24992
341	23.373962	113909760	79835136	35985560	24992
342	24.090109	113909760	79835136	34593192	24992
343	24.877532	113909760	79835136	33820216	24992
344	25.37978	113909760	79835136	33520672	24992
345	26.266236	113909760	79835136	33626560	24992
346	26.93377	113909760	79835136	34091400	24992
347	27.752197	113909760	79835136	34883384	24992
348	27.500947	113909760	79835136	35949472	24992
349	28.237038	113909760	79835136	37201840	24992
350	28.319048	113909760	79835136	38639040	24992
351	29.33485	113909760	79835136	40268384	24992
352	29.818233	113909760	79835136	42027056	24992
353	32.367123	113909760	79835136	29941208	24992
354	32.658752	113909760	79835136	33946152	24992
355	32.320414	113909760	79835136	37761376	24992
356	32.175536	113909760	79835136	41364544	24992
357	34.604349	113909760	79835136	30987024	24992
358	35.223369	113909760	79835136	38962048	24992
359	35.155963	113909760	79835136	44131824	24992
360	37.702345	113909760	79835136	34983272	24992
361	37.26572	113909760	79835136	44012536	24992
362	38.27878	113909760	79835136	36699672	24992
363	38.664949	113909760	79835136	46436464	24992
364	40.661961	113909760	79835136	39884992	24992
365	39.571255	113909760	79835136	50393312	24992
366	41.206338	113909760	79835136	44406424	24992
367	41.965618	113909760	79835136	55700056	24992
368	42.370277	113909760	79835136	50111584	24992
369	43.128755	115802112	81932288	62202648	24992
370	43.474053	116613120	83505152	56917576	24992
371	45.271533	117424128	84029440	52990216	24992
372	52.460258	119857152	86650880	66134744	24992
373	59.650573	116203520	82980864	20374304	24992
374	44.76843	116203520	82980864	34212392	24992
375	44.364349	116203520	82980864	30602416	24992
376	48.020857	116744192	82980864	32984896	24992
377	48.756425	116744192	82980864	35550544	24992
378	49.178396	117014528	82980864	38518888	24992
379	50.155848	117555200	83505152	41909288	24992
380	50.667027	117555200	83505152	45694088	24992
381	52.371614	117555200	83505152	49853608	24992
382	64.43263	120258560	86650880	54369712	24992
383	63.511646	117698560	84029440	30079464	24992
384	54.322253	117698560	84029440	35406272	24992
385	53.868579	117698560	84029440	41189024	24992
386	55.174832	117698560	84029440	47212080	24992
387	55.444074	118509568	84553728	53759680	24992
388	59.613867	118509568	84553728	48464584	24992
389	56.789124	118509568	84553728	55773184	24992
390	59.229924	122023936	88223744	63464264	24992
391	82.048396	121626624	89796608	26761208	24992
392	59.560792	123514880	89796608	34508248	24992
393	62.731877	123514880	89796608	31140760	24992
394	59.992403	123514880	89796608	40442600	24992
395	61.009455	123514880	89796608	50122584	24992
396	64.685585	124325888	90320896	48062984	24992
397	62.008214	124325888	90320896	58604120	24992
398	70.619633	124325888	90320896	57392496	24992
399	84.165354	124518400	90845184	23380656	24992
400	63.565763	124518400	90845184	35186976	24992
401	67.013923	124518400	90845184	35120584	24992
402	1.414544	124518400	90845184	47946248	24992
403	2.061512	124518400	90845184	49187776	24992
404	2.773778	124518400	90845184	50842832	24992
405	5.703814	124518400	90845184	40132888	24992
406	4.020704	124518400	90845184	42630544	24992
407	4.684822	124518400	90845184	45532576	24992
408	5.330465	124518400	90845184	48851800	24992
409	5.901406	124518400	90845184	52589408	24992
410	8.025477	124518400	90845184	41839952	24992
411	7.244195	124518400	90845184	46418184	24992
412	8.129099	124518400	90845184	51424848	24992
413	9.12939	124518400	90845184	40885344	24992
414	9.239489	124518400	90845184	46728920	24992
415	9.891609	124518400	90845184	53001928	24992
416	10.980359	124518400	90845184	43493600	24992
417	11.338301	124518400	90845184	50614448	24992
418	12.517744	124518400	90845184	42318648	24992
419	12.654458	124518400	90845184	50317328	24992
420	13.953166	124518400	90845184	42988408	24992
421	13.980585	124518400	90845184	51885536	24992
422	15.460553	124518400	90845184	45211448	24992
423	16.736597	124518400	90845184	39954864	24992
424	16.291271	124518400	90845184	50185336	24992
425	17.870374	124518400	90845184	45087048	24992
426	19.770333	124518400	90845184	41201232	24992
427	18.239855	124518400	90845184	52778576	24992
428	19.717869	124518400	90845184	48679704	24992
429	20.737947	124518400	90845184	45663272	24992
430	22.820238	124518400	90845184	43510680	24992
431	22.425727	124518400	90845184	42153240	24992
432	23.403841	124518400	90845184	41446384	24992
433	24.388705	124518400	90845184	41321632	24992
434	25.748568	124518400	90845184	41652736	24992
435	25.913605	124518400	90845184	42409032	24992
436	26.459201	124518400	90845184	43541640	24992
437	28.186423	124518400	90845184	44935064	24992
438	27.371135	124518400	90845184	46590960	24992
439	28.4934	124518400	90845184	48457120	24992
440	28.638395	124518400	90845184	50561056	24992
441	29.282615	124518400	90845184	52801512	24992
442	30.203858	124518400	90845184	55146280	24992
443	32.554148	124518400	90845184	43629344	24992
444	32.037858	124518400	90845184	48320952	24992
445	32.044863	124518400	90845184	52788368	24992
446	34.166901	124518400	90845184	43302672	24992
447	35.88672	124518400	90845184	52018976	24992
448	34.288776	124518400	90845184	57904040	24992
449	37.059281	124518400	90845184	49263816	24992
450	36.226437	124518400	90845184	56356144	24992
451	37.581307	124518400	90845184	49117064	24992
452	39.651457	125059072	90845184	60200416	24992
453	41.129799	125059072	90845184	54213352	24992
454	41.155063	125059072	90845184	49935800	24992
455	42.315755	125059072	90845184	62288592	24992
456	41.4864	125059072	90845184	57787056	24992
457	52.614125	126681088	92942336	58820504	24992
458	62.352184	120516608	88748032	27679712	24992
459	48.489787	122404864	88748032	28530840	24992
460	47.401044	122404864	88748032	30834080	24992
461	49.43818	122404864	88748032	33657752	24992
462	49.012422	122404864	88748032	36930336	24992
463	50.331799	122675200	88748032	40625248	24992
464	51.327823	122675200	88748032	44863352	24992
465	51.251698	122675200	88748032	49645200	24992
466	52.971716	122675200	88748032	54798888	24992
467	68.271031	124026880	90320896	60574760	24992
468	60.892487	122576896	88748032	34297072	24992
469	53.942987	122576896	88748032	41018832	24992
470	58.20814	122576896	88748032	35936040	24992
471	55.482675	122576896	88748032	43586592	24992
472	56.670665	122576896	88748032	51781976	24992
473	61.040169	122847232	88748032	48119920	24992
474	58.550392	122847232	88748032	57295448	24992
475	61.401865	123387904	89796608	66924648	24992
476	83.934796	124493824	92418048	31743600	24992
477	62.7586	126382080	92418048	29210464	24992
478	61.717108	126382080	92418048	40320912	24992
479	65.008107	126382080	92418048	39698712	24992
480	63.644683	126382080	92418048	51751576	24992
481	66.916615	126922752	92942336	52068888	24992
482	64.304244	126922752	92942336	65180624	24992
483	89.95245	122195968	90320896	20395536	24992
484	67.293525	124084224	90320896	33660824	24992
485	70.320184	124084224	90320896	35981744	24992
486	72.07831	124084224	90320896	38811928	24992
487	72.049902	124084224	90320896	42342280	24992
488	73.601109	124354560	90320896	46358080	24992
489	78.296947	124624896	90845184	63192904	24992
490	93.990412	118722560	84553728	25973496	24992
491	73.6258	118722560	84553728	31293920	24992
492	75.932065	118722560	84553728	37178200	24992
493	76.367618	118722560	84553728	43564232	24992
494	76.883672	118722560	84553728	50556480	24992
495	83.13927	122236928	88748032	57927136	24992
496	97.574809	121286656	87699456	34253408	24992
497	80.266356	121286656	87699456	42808792	24992
498	82.480381	121286656	87699456	39465448	24992
499	81.681832	121286656	87699456	48932608	24992
500	82.520608	121827328	87699456	58923032	24992
501	88.822187	123990016	90320896	69416416	24992
502	1.751623	121638912	87699456	34941664	24992
503	2.412176	121638912	87699456	36511944	24992
504	3.202055	121638912	87699456	38604896	24992
505	6.646438	121638912	87699456	28169808	24992
506	4.910713	121638912	87699456	31311584	24992
507	5.842058	121638912	87699456	34978880	24992
508	6.645313	121638912	87699456	39172480	24992
509	8.632375	121638912	87699456	28987544	24992
510	8.143369	121638912	87699456	34237896	24992
511	9.1734	121638912	87699456	40108504	24992
512	10.43417	121909248	87699456	30336320	24992
513	10.78494	121909248	87699456	37177440	24992
514	12.505146	121909248	87699456	28850288	24992
515	12.75782	121909248	87699456	36756232	24992
516	14.25451	121909248	87699456	29566248	24992
517	14.048689	121909248	87699456	38540472	24992
518	15.998488	121909248	87699456	32129312	24992
519	15.988482	121909248	87699456	42189824	24992
520	17.348153	121909248	87699456	36308352	24992
521	17.996519	121909248	87699456	31905928	24992
522	19.532568	121909248	87699456	28654760	24992
523	19.110453	121909248	87699456	40902928	24992
524	21.050193	121909248	87699456	37391264	24992
525	22.035601	121909248	87699456	34965856	24992
526	22.747353	121909248	87699456	33412312	24992
527	23.999867	121909248	87699456	32632048	24992
528	24.504884	121909248	87699456	32545584	24992
529	25.548219	121909248	87699456	33004080	24992
530	26.482409	121909248	87699456	33937744	24992
531	27.25943	121909248	87699456	35268680	24992
532	27.622582	121909248	87699456	37028920	24992
533	28.890401	121909248	87699456	38994664	24992
534	28.994906	121909248	87699456	41342248	24992
535	31.680853	121909248	87699456	29933480	24992
536	33.220846	121909248	87699456	37235832	24992
537	32.828099	121909248	87699456	41996880	24992
538	34.276847	121909248	87699456	32820392	24992
539	36.658076	121909248	87699456	41716688	24992
540	35.529938	121909248	87699456	47836536	24992
541	37.523924	121909248	87699456	39543304	24992
542	35.940437	121909248	87699456	47122904	24992
543	38.469879	121909248	87699456	40286616	24992
544	43.12754	121909248	87699456	39692264	24992
545	41.056242	121909248	87699456	51700432	24992
546	41.384403	121909248	87699456	47135488	24992
547	45.68825	121909248	87699456	48152824	24992
548	44.767306	121909248	87699456	61879696	24992
549	44.166264	121909248	87699456	58374416	24992
550	45.286708	121909248	87699456	56187904	24992
551	50.495631	121909248	87699456	59438960	24992
552	70.925679	125693952	91893760	63171928	24992
553	51.411017	122990592	89272320	34421920	24992
554	48.137668	122990592	89272320	33734432	24992
555	53.346735	122990592	89272320	39373088	24992
556	57.053585	122990592	89272320	33123552	24992
557	54.00482	122990592	89272320	39658568	24992
558	54.935177	122990592	89272320	46678056	24992
559	56.010921	122990592	89272320	54456800	24992
560	56.265148	122990592	89272320	62739144	24992
561	65.774053	123801600	89796608	59331592	24992
562	78.077081	125288448	91369472	23278552	24992
563	59.408209	125288448	91369472	33236472	24992
564	60.785747	125288448	91369472	43747120	24992
565	64.502071	125288448	91369472	42592208	24992
566	62.974254	125288448	91369472	54298696	24992
567	65.639886	125288448	91369472	54400536	24992
568	66.688523	125288448	91369472	55059696	24992
569	90.601496	121417728	89272320	24832144	24992
570	67.018486	123305984	89272320	38358000	24992
571	69.881526	123305984	89272320	40727584	24992
572	71.505457	123305984	89272320	43681760	24992
573	71.836108	123305984	89272320	47215848	24992
574	70.472334	123305984	89272320	63510680	24992
575	74.165168	128442368	94515200	68202704	24992
576	94.285637	118546432	86650880	23972648	24992
577	75.16278	120434688	86650880	28852128	24992
578	75.785069	120434688	86650880	35196712	24992
579	77.161282	120434688	86650880	42346112	24992
580	77.359416	120434688	86650880	49977112	24992
581	79.327988	121245696	87175168	58124480	24992
582	101.962062	119001088	87175168	37586688	24992
583	85.318066	120889344	87175168	34583880	24992
584	81.776391	120889344	87175168	44543320	24992
585	82.189048	120889344	87175168	55169016	24992
586	85.801016	121700352	87699456	54171224	24992
587	89.950441	126296064	92418048	65934848	24992
588	106.505941	122699776	88748032	32662560	24992
589	88.428551	122699776	88748032	45640472	24992
590	90.088201	122699776	88748032	46904016	24992
591	91.553359	122699776	88748032	48926616	24992
592	91.34076	122699776	88748032	63712096	24992
593	117.367539	121950208	88223744	34877256	24992
594	94.218688	121950208	88223744	38714208	24992
595	94.595502	121950208	88223744	43007032	24992
596	93.0932	121950208	88223744	60205504	24992
597	97.518623	124923904	91369472	65826760	24992
598	118.092265	125255680	91369472	21910648	24992
599	100.297999	125255680	91369472	28864192	24992
600	97.402233	125255680	91369472	48480128	24992
601	100.39978	125255680	91369472	56583144	24992
602	8.323188	127148032	93466624	53420864	24992
603	4.575767	127148032	93466624	55274880	24992
604	6.658701	127148032	93466624	57750424	24992
605	8.480565	127148032	93466624	60834312	24992
606	10.82965	127148032	93466624	64548576	24992
607	10.179064	117252096	85602304	26701200	24992
608	7.724632	117252096	85602304	31638368	24992
609	9.796731	118059008	85602304	21631848	24992
610	10.092463	119140352	85602304	27810576	24992
611	10.585594	119140352	85602304	34634544	24992
612	12.378688	119140352	85602304	25975120	24992
613	12.666851	119140352	85602304	34022304	24992
614	14.636448	119140352	85602304	26702928	24992
615	15.308857	119140352	85602304	36012688	24992
616	16.408969	119140352	85602304	29688392	24992
617	17.610938	119140352	85602304	24911256	24992
618	17.871479	119140352	85602304	36099344	24992
619	18.962891	119140352	85602304	31672256	24992
620	20.248048	119140352	85602304	28499656	24992
621	22.209216	119140352	85602304	26432232	24992
622	23.244795	119140352	85602304	25384280	24992
623	23.931774	119140352	85602304	25075504	24992
624	25.351574	119140352	85602304	25503752	24992
625	26.316239	119140352	85602304	26453296	24992
626	27.395676	119140352	85602304	27945288	24992
627	28.368843	119140352	85602304	29753960	24992
628	29.378979	119140352	85602304	31948576	24992
629	29.863448	119140352	85602304	34466224	24992
630	30.256704	119140352	85602304	37275080	24992
631	33.476229	119140352	85602304	26314128	24992
632	32.992132	119140352	85602304	31652712	24992
633	33.619444	119140352	85602304	36744800	24992
634	36.487274	119140352	85602304	27952888	24992
635	35.831675	119140352	85602304	35056768	24992
636	40.185931	119140352	85602304	28057344	24992
637	39.675543	119140352	85602304	39371136	24992
638	40.642636	119140352	85602304	33754840	24992
639	44.14387	119140352	85602304	34162344	24992
640	42.96692	119140352	85602304	47183992	24992
641	43.172187	119140352	85602304	43169328	24992
642	44.499652	119140352	85602304	40666544	24992
643	48.49798	119140352	85602304	43534552	24992
644	50.312643	119140352	85602304	47039712	24992
645	50.928434	119140352	85602304	51102928	24992
646	52.232136	119681024	85602304	55807176	24992
647	54.727329	123736064	89796608	61162192	24992
648	77.88007	122957824	90845184	22700472	24992
649	54.77915	124846080	90845184	28317272	24992
650	56.305332	124846080	90845184	35610440	24992
651	56.865703	124846080	90845184	43530544	24992
652	59.730055	124846080	90845184	39928464	24992
653	58.239525	124846080	90845184	49234160	24992
654	59.573188	124846080	90845184	59211632	24992
655	63.774177	126468096	92418048	57543336	24992
656	80.256521	118185984	86126592	21276112	24992
657	63.037463	120074240	86126592	32237992	24992
658	66.658073	120074240	86126592	32622104	24992
659	64.523238	120074240	86126592	45840368	24992
660	68.16156	120074240	86126592	47514256	24992
661	69.636153	120074240	86126592	49912560	24992
662	75.214973	120074240	86126592	53009872	24992
663	90.634496	121704448	87699456	26509744	24992
664	72.433666	121704448	87699456	30953808	24992
665	72.047949	121704448	87699456	48097296	24992
666	75.000415	121704448	87699456	53833384	24992
667	75.257193	121704448	87699456	60315608	24992
668	79.686472	122785792	88748032	55165696	24992
669	103.19807	124465152	92418048	31404280	24992
670	79.720328	126353408	92418048	39264496	24992
671	80.763227	126353408	92418048	48352224	24992
672	83.736765	126353408	92418048	45978296	24992
673	83.422147	126353408	92418048	56355632	24992
674	83.503064	126894080	92942336	67568632	24992
675	107.181394	122490880	90845184	30258528	24992
676	87.94541	124379136	90845184	29410360	24992
677	86.564075	124379136	90845184	42637336	24992
678	90.255215	124379136	90845184	44261504	24992
679	91.044088	124379136	90845184	58801912	24992
680	113.543996	119279616	87175168	30577992	24992
681	93.854787	121167872	87175168	33715136	24992
682	96.248842	121167872	87175168	38067400	24992
683	94.251515	121167872	87175168	55376096	24992
684	98.27016	121167872	87175168	61204256	24992
685	122.069561	123408384	89796608	38075064	24992
686	99.112312	123408384	89796608	45291376	24992
687	100.994362	123408384	89796608	53179856	24992
688	101.594778	123408384	89796608	61560552	24992
689	107.788907	127733760	93990912	70839376	24992
690	129.472025	128040960	93990912	34353480	24992
691	105.655224	128040960	93990912	44898896	24992
692	105.368881	128040960	93990912	56258048	24992
693	108.958344	128040960	93990912	56034840	24992
694	128.075814	131825664	98185216	68738920	24992
695	112.382952	126427136	92418048	33435472	24992
696	109.863656	126427136	92418048	47575376	24992
697	113.201249	126427136	92418048	50235032	24992
698	120.800924	127778816	93990912	65784728	24992
699	139.129573	122540032	88748032	38677776	24992
700	118.430889	122540032	88748032	43413328	24992
701	121.576472	122540032	88748032	61014024	24992
702	2.439075	127135744	93466624	67721456	24992
703	3.617956	127135744	93466624	69851712	24992
704	4.983819	127135744	93466624	72688696	24992
705	11.149326	129028096	95563776	63022792	24992
706	7.473797	129028096	95563776	67287656	24992
707	12.184715	129028096	95563776	72269344	24992
708	17.920283	130109440	96612352	63073920	24992
709	18.22123	127750144	94515200	25946576	24992
710	11.612858	127750144	94515200	33054152	24992
711	13.59012	128016384	94515200	25392488	24992
712	13.731512	128016384	94515200	33929568	24992
713	15.800224	128016384	94515200	27530960	24992
714	16.463515	128016384	94515200	37519848	24992
715	17.648726	128016384	94515200	32048000	24992
716	19.067638	128016384	94515200	28158384	24992
717	20.45835	128016384	94515200	25578904	24992
718	20.438545	128016384	94515200	38449184	24992
719	22.618116	128016384	94515200	35759272	24992
720	24.363054	128016384	94515200	34224360	24992
721	24.8092	128016384	94515200	33604880	24992
722	25.617868	128016384	94515200	33805048	24992
723	27.227037	128016384	94515200	34718664	24992
724	28.264061	128016384	94515200	36221984	24992
725	29.40921	128016384	94515200	38197304	24992
726	33.388396	128016384	94515200	26904272	24992
727	34.33232	128016384	94515200	34311536	24992
728	33.47957	128016384	94515200	39338184	24992
729	36.111033	128016384	94515200	30685688	24992
730	37.151929	128016384	94515200	40306472	24992
731	38.894565	128016384	94515200	33853792	24992
732	39.771187	128016384	94515200	44831072	24992
733	40.705277	128016384	94515200	39508904	24992
734	44.553854	128016384	94515200	39869024	24992
735	42.974509	128016384	94515200	52886408	24992
736	43.978405	128016384	94515200	49387616	24992
737	49.197608	128016384	94515200	51902464	24992
738	50.463579	128016384	94515200	54925112	24992
739	52.899895	128286720	94515200	58853896	24992
740	53.344854	128557056	94515200	63308024	24992
741	76.709761	124751872	92942336	22053216	24992
742	55.976269	126910464	92942336	26924456	24992
743	54.336888	126910464	92942336	33659648	24992
744	55.804513	126910464	92942336	41294488	24992
745	56.913977	126910464	92942336	49487376	24992
746	60.642951	126910464	92942336	46290920	24992
747	61.28682	126910464	92942336	56040744	24992
748	61.004095	126910464	92942336	66512576	24992
749	83.107799	121520128	89272320	17995560	24992
750	64.385555	123154432	89272320	29159488	24992
751	67.909312	123424768	89272320	29656184	24992
752	65.449752	123424768	89272320	43212552	24992
753	69.839705	123424768	89272320	45230352	24992
754	70.664047	123424768	89272320	48067208	24992
755	74.543766	124506112	90845184	51692072	24992
756	91.115923	118996992	85078016	25172800	24992
757	71.979802	118996992	85078016	42473792	24992
758	75.1038	118996992	85078016	48375088	24992
759	76.278931	118996992	85078016	54888840	24992
760	81.586214	119537664	85602304	50172000	24992
761	80.872564	123592704	89796608	58301680	24992
762	104.681715	125333504	93466624	35381416	24992
763	81.433303	127221760	93466624	44356440	24992
764	85.121083	127221760	93466624	42639136	24992
765	84.53825	127221760	93466624	53769112	24992
766	89.461276	127221760	93466624	53605688	24992
767	87.696185	128032768	93990912	66213168	24992
768	112.753308	127381504	93466624	33218304	24992
769	91.694679	127381504	93466624	35402568	24992
770	90.475006	127381504	93466624	50434912	24992
771	93.727379	127381504	93466624	54018528	24992
772	95.026329	127381504	93466624	58490424	24992
773	117.974593	123981824	91893760	27353248	24992
774	98.384038	125870080	91893760	32174392	24992
775	100.02514	125870080	91893760	39025816	24992
776	100.333572	125870080	91893760	46649752	24992
777	102.605975	126410752	92418048	55077488	24992
778	131.309916	124887040	90845184	33844584	24992
779	104.306999	124887040	90845184	43687920	24992
780	104.223119	124887040	90845184	54255640	24992
781	106.910281	124887040	90845184	65652864	24992
782	115.58191	132186112	98185216	65614448	24992
783	130.096594	130547712	96612352	30409416	24992
784	110.089224	130547712	96612352	44083864	24992
785	111.23443	130547712	96612352	58585576	24992
786	114.807198	130547712	96612352	61774888	24992
787	134.614243	125235200	91369472	27451240	24992
788	117.615921	125235200	91369472	32221912	24992
789	115.913814	125235200	91369472	49738448	24992
790	121.013784	125235200	91369472	56170584	24992
791	147.826507	120131584	86126592	34912984	24992
792	122.200951	120131584	86126592	42767616	24992
793	121.963571	120131584	86126592	63475856	24992
794	126.488123	129052672	95039488	72923344	24992
795	148.664323	124919808	91369472	30282704	24992
796	128.633205	124919808	91369472	41422408	24992
797	131.53916	124919808	91369472	53249160	24992
798	131.379969	125460480	91369472	65847208	24992
799	160.104222	123457536	89796608	37259408	24992
800	133.556662	123457536	89796608	51493552	24992
801	135.031093	123457536	89796608	66754616	24992
802	2.741131	135352320	101330944	71088240	24992
803	4.494525	135352320	101330944	73496320	24992
804	8.222934	135352320	101330944	76725496	24992
805	11.474923	135352320	101330944	80736392	24992
806	18.79077	137515008	103428096	71641992	24992
807	13.39594	129130496	95039488	29542528	24992
808	11.859702	129130496	95039488	36006928	24992
809	12.540664	129130496	95039488	27431376	24992
810	13.116562	129130496	95039488	35497144	24992
811	14.541255	129130496	95039488	28661992	24992
812	15.421034	129130496	95039488	38339504	24992
813	17.048287	129130496	95039488	32617896	24992
814	18.854571	129130496	95039488	28701416	24992
815	20.794243	129130496	95039488	26187160	24992
816	21.270533	129130496	95039488	39112488	24992
817	22.499166	129130496	95039488	36574464	24992
818	24.176792	129130496	95039488	35338768	24992
819	25.384841	129130496	95039488	35014400	24992
820	27.09235	129130496	95039488	35614744	24992
821	28.616436	129130496	95039488	36953552	24992
822	29.125335	129130496	95039488	38868856	24992
823	31.891931	129130496	95039488	27561464	24992
824	33.950328	129130496	95039488	35115960	24992
825	33.256752	129130496	95039488	40350840	24992
826	36.609405	129130496	95039488	32062808	24992
827	39.039169	129130496	95039488	42016456	24992
828	39.306787	129130496	95039488	35870664	24992
829	40.676675	129130496	95039488	47463328	24992
830	41.522631	129130496	95039488	42495464	24992
831	46.234793	129130496	95039488	43622248	24992
832	47.921713	129130496	95039488	45402824	24992
833	46.03127	129130496	95039488	60085912	24992
834	47.078728	129130496	95039488	57837136	24992
835	48.441398	129130496	95039488	57008952	24992
836	52.389675	129130496	95039488	62282520	24992
837	53.708739	129130496	95039488	68157024	24992
838	57.341258	129671168	95563776	74894728	24992
839	78.123535	122699776	90845184	34152664	24992
840	59.891799	124588032	90845184	29139384	24992
841	60.380332	124588032	90845184	38343592	24992
842	60.579717	124588032	90845184	48249168	24992
843	64.257299	124588032	90845184	47012280	24992
844	61.992137	124588032	90845184	58772944	24992
845	66.676807	124588032	90845184	59149136	24992
846	83.551393	127561728	93990912	60429760	24992
847	77.510008	125526016	91369472	28244432	24992
848	72.029137	125526016	91369472	31217328	24992
849	69.332868	125526016	91369472	47271728	24992
850	73.356083	125526016	91369472	51958304	24992
851	74.415326	125526016	91369472	57509296	24992
852	81.662624	126877696	92942336	63864776	24992
853	96.24897	121245696	87175168	27411488	24992
854	79.272864	121245696	87175168	35576936	24992
855	81.140116	121245696	87175168	44571336	24992
856	81.372207	121245696	87175168	54434240	24992
857	86.041895	121245696	87175168	52906224	24992
858	103.109317	126382080	92418048	64550688	24992
859	92.954946	123150336	89272320	30463584	24992
860	87.06896	123150336	89272320	43818728	24992
861	91.042684	123150336	89272320	45774568	24992
862	89.880139	123150336	89272320	60879808	24992
863	102.785045	124772352	90845184	64539160	24992
864	115.177517	122707968	88748032	36973552	24992
865	98.526059	122707968	88748032	42351056	24992
866	98.37482	122707968	88748032	48800872	24992
867	98.980637	122707968	88748032	55938792	24992
868	117.861681	127844352	93990912	64083088	24992
869	110.518373	125714432	91893760	38658048	24992
870	106.040662	125714432	91893760	48605424	24992
871	106.991695	125714432	91893760	47079360	24992
872	107.662103	125714432	91893760	58707648	24992
873	134.765248	123305984	89796608	41114712	24992
874	112.126722	123305984	89796608	42223960	24992
875	111.516969	123305984	89796608	56549688	24992
876	115.092909	125468672	91893760	59437352	24992
877	121.990235	134119424	100282368	75477600	24992
878	134.058604	130588672	96612352	42350304	24992
879	118.418959	130588672	96612352	47860528	24992
880	121.898703	130588672	96612352	54350088	24992
881	125.288399	131940352	98185216	61661992	24992
882	145.391868	125120512	91369472	36659712	24992
883	125.414081	125120512	91369472	45788464	24992
884	126.681402	125120512	91369472	55773392	24992
885	129.098175	131338240	97660928	66701864	24992
886	156.182278	133718016	99758080	44319472	24992
887	132.78501	133718016	99758080	44733544	24992
888	131.345118	133718016	99758080	58358008	24992
889	132.717488	134258688	100282368	72811896	24992
890	165.01119	128454656	94515200	39684856	24992
891	134.948523	128454656	94515200	55886584	24992
892	138.434659	128454656	94515200	60869864	24992
893	151.283839	135213056	101330944	78919840	24992
894	161.845352	134778880	100806656	36456328	24992
895	142.301524	134778880	100806656	56351016	24992
896	145.097363	134778880	100806656	64961168	24992
897	166.705067	128049152	94515200	35739944	24992
898	147.516056	128049152	94515200	46239376	24992
899	149.300569	128049152	94515200	57561056	24992
900	181.049029	122200064	88223744	25648968	24992
901	151.22324	122200064	88223744	38866976	24992
902	2.800784	122200064	88223744	53552112	24992
903	4.237404	122200064	88223744	56288960	24992
904	5.673666	122200064	88223744	59946776	24992
905	9.073928	122200064	88223744	51038696	24992
906	8.907053	122200064	88223744	56509392	24992
907	10.043332	122200064	88223744	62927912	24992
908	12.271342	122200064	88223744	54582992	24992
909	13.274596	122200064	88223744	62801104	24992
910	15.530454	122200064	88223744	56042688	24992
911	15.843565	122200064	88223744	66092016	24992
912	17.617377	122200064	88223744	60696128	24992
913	19.693622	122200064	88223744	57063720	24992
914	21.310926	122200064	88223744	54926880	24992
915	22.874313	122200064	88223744	54016496	24992
916	24.523068	122200064	88223744	54160480	24992
917	26.251299	122200064	88223744	55204112	24992
918	27.518651	122200064	88223744	57036000	24992
919	28.437061	122200064	88223744	59531560	24992
920	30.337592	122200064	88223744	62545424	24992
921	31.067538	122200064	88223744	66001280	24992
922	34.483836	122200064	88223744	56091504	24992
923	34.17118	122200064	88223744	62484520	24992
924	37.507965	122200064	88223744	55358456	24992
925	39.618513	123551744	89796608	66302032	24992
926	41.002027	124362752	90845184	61039664	24992
927	59.02819	128958464	95039488	61597520	24992
928	52.39105	123572224	89796608	27809368	24992
929	47.455913	123572224	89796608	30274432	24992
930	50.703348	123572224	89796608	33510048	24992
931	49.792213	123572224	89796608	37654216	24992
932	51.394839	123572224	89796608	42720952	24992
933	52.585534	123572224	89796608	48715904	24992
934	54.448215	123572224	89796608	55674072	24992
935	55.591029	123572224	89796608	63572136	24992
936	74.895674	125734912	91893760	60273104	24992
937	67.66344	122703872	88748032	23124248	24992
938	61.389322	122703872	88748032	33851200	24992
939	64.444546	122703872	88748032	33390040	24992
940	63.20735	122703872	88748032	45989832	24992
941	68.320646	122703872	88748032	47327944	24992
942	68.76664	122703872	88748032	49523832	24992
943	91.021838	127029248	92942336	65017624	24992
944	72.883306	121135104	87175168	37997160	24992
945	74.59262	121135104	87175168	43157424	24992
946	74.450823	121135104	87175168	49246696	24992
947	76.633478	121135104	87175168	56290336	24992
948	78.123521	121135104	87175168	64329032	24992
949	87.317724	127893504	93990912	61101296	24992
950	101.569738	126013440	91893760	35918712	24992
951	85.64835	126013440	91893760	34730056	24992
952	84.069819	126013440	91893760	46518176	24992
953	87.373785	126013440	91893760	47052648	24992
954	86.899249	126013440	91893760	60790984	24992
955	112.425712	121634816	89796608	28808512	24992
956	93.108377	123523072	89796608	31382760	24992
957	93.810248	123523072	89796608	35835632	24992
958	94.32616	123523072	89796608	53319344	24992
959	98.264346	123523072	89796608	59700192	24992
960	124.089187	122204160	88223744	37286832	24992
961	100.990384	122204160	88223744	45505752	24992
962	101.901292	122204160	88223744	54713320	24992
963	102.821714	122204160	88223744	64896912	24992
964	113.302037	130584576	96612352	63971600	24992
965	125.159537	128274432	94515200	40978000	24992
966	111.498661	128274432	94515200	41870392	24992
967	108.826028	128274432	94515200	55974208	24992
968	113.226552	128274432	94515200	58852776	24992
969	135.980438	124313600	90320896	24899680	24992
970	113.829178	124313600	90320896	41944184	24992
971	117.485867	124313600	90320896	47658248	24992
972	120.946304	124313600	90320896	54307304	24992
973	144.555477	122126336	88223744	28206976	24992
974	123.293376	122126336	88223744	36951104	24992
975	124.332734	122126336	88223744	46573080	24992
976	130.685218	123748352	89796608	57131656	24992
977	148.158688	123330560	89272320	39544920	24992
978	132.138658	123330560	89272320	52180520	24992
979	129.436833	123330560	89272320	65562544	24992
980	153.608646	133873664	100282368	68064032	24992
981	143.83568	130994176	97136640	35139912	24992
982	135.681902	130994176	97136640	51569400	24992
983	137.341199	130994176	97136640	69054456	24992
984	162.702872	124944384	90845184	25500664	24992
985	140.250994	124944384	90845184	44839048	24992
986	144.491213	124944384	90845184	53146480	24992
987	169.08121	119758848	87699456	30355264	24992
988	146.732395	121647104	87699456	40005400	24992
989	149.016591	121647104	87699456	51317272	24992
990	156.615591	129216512	95563776	63447432	24992
991	176.347205	130269184	96612352	44618744	24992
992	153.085884	130269184	96612352	58656464	24992
993	153.992099	130269184	96612352	73870432	24992
994	183.764442	125911040	91893760	36970392	24992
995	162.708585	125911040	91893760	41919544	24992
996	162.377918	125911040	91893760	60013320	24992
997	185.478777	121143296	87175168	32702512	24992
998	163.926362	121143296	87175168	40599704	24992
999	168.899331	122224640	88223744	61744352	24992
1000	197.269042	121737216	87699456	42923616	24992
x	Duration	RSS	HeapTotal	HeapUsed	External
0	NA	124755968	90320896	52122128	24992
1	0.311259	124755968	90320896	52170744	24992
2	0.27947	124755968	90320896	52247048	24992
3	0.31877	124755968	90320896	52350336	24992
4	0.379995	124755968	90320896	52482120	24992
5	0.466303	124755968	90320896	52643952	24992
6	0.5271	124755968	90320896	52836176	24992
7	0.601412	124755968	90320896	53059816	24992
8	0.69464	124755968	90320896	53315904	24992
9	0.765871	124755968	90320896	53606288	24992
10	0.868499	124755968	90320896	53931696	24992
11	0.942873	124755968	90320896	54293056	24992
12	1.044432	124755968	90320896	54691248	24992
13	1.131067	124755968	90320896	55127208	24992
14	1.036118	124755968	90320896	55602096	24992
15	0.771577	124755968	90320896	56116736	24992
16	0.818261	124755968	90320896	56672160	24992
17	0.883107	124755968	90320896	57271304	24992
18	1.137735	124755968	90320896	57913120	24992
19	1.011806	124755968	90320896	58599760	24992
20	1.074937	124755968	90320896	59330960	24992
21	1.156649	124755968	90320896	60108264	24992
22	1.251282	124755968	90320896	60932488	24992
23	4.753642	124755968	90320896	48784760	24992
24	1.362596	124755968	90320896	49707144	24992
25	1.617194	124755968	90320896	50680360	24992
26	1.510175	124755968	90320896	51705576	24992
27	1.579146	124755968	90320896	52783776	24992
28	1.653374	124755968	90320896	53915888	24992
29	1.766678	124755968	90320896	55102888	24992
30	1.832264	124755968	90320896	56345800	24992
31	1.888001	124755968	90320896	57645600	24992
32	2.044938	124755968	90320896	59005776	24992
33	2.085083	124755968	90320896	60429168	24992
34	2.17409	124755968	90320896	61912600	24992
35	2.323001	124755968	90320896	63456976	24992
36	4.346906	124755968	90320896	49639744	24992
37	2.669765	124755968	90320896	51308624	24992
38	2.777541	124755968	90320896	53041136	24992
39	2.893323	124755968	90320896	54838328	24992
40	2.985161	124755968	90320896	56701400	24992
41	3.113413	124755968	90320896	58631032	24992
42	2.991399	124755968	90320896	60628344	24992
43	3.043546	124755968	90320896	62694304	24992
44	3.211495	124755968	90320896	64829704	24992
45	4.319569	124755968	90320896	50777280	24992
46	3.996308	124755968	90320896	53056272	24992
47	3.963309	124755968	90320896	55418192	24992
48	3.568957	124755968	90320896	57844376	24992
49	3.679655	124755968	90320896	60345792	24992
50	4.364806	124755968	90320896	62925760	24992
51	5.292087	124755968	90320896	49535928	24992
52	4.353026	124755968	90320896	52275608	24992
53	4.732634	124755968	90320896	55096544	24992
54	4.330679	124755968	90320896	58008136	24992
55	4.34581	124755968	90320896	60994352	24992
56	4.459841	124755968	90320896	64064464	24992
57	6.183407	124755968	90320896	51382464	24992
58	4.815651	124755968	90320896	54623888	24992
59	4.898195	124755968	90320896	57952120	24992
60	4.946938	124755968	90320896	61368616	24992
61	5.097745	124755968	90320896	64875672	24992
62	6.52642	124755968	90320896	52768728	24992
63	5.368692	124755968	90320896	56454824	24992
64	6.366186	124755968	90320896	60242088	24992
65	5.69238	124755968	90320896	64120816	24992
66	7.172562	124755968	90320896	52394296	24992
67	5.926762	124755968	90320896	56461552	24992
68	6.788921	124755968	90320896	60629216	24992
69	6.23987	124755968	90320896	64890072	24992
70	8.068779	124755968	90320896	53468224	24992
71	7.222834	124755968	90320896	57934312	24992
72	6.624885	124755968	90320896	62490312	24992
73	6.764118	124755968	90320896	67147928	24992
74	8.389951	124755968	90320896	55977064	24992
75	7.622609	124755968	90320896	60840504	24992
76	7.792144	124755968	90320896	65804856	24992
77	9.591114	124755968	90320896	55123904	24992
78	8.177658	124755968	90320896	60298264	24992
79	8.314747	124755968	90320896	65579232	24992
80	9.983773	125026304	90845184	55346168	24992
81	8.24689	125026304	90845184	60844936	24992
82	8.236712	125026304	90845184	66452808	24992
83	9.977236	125026304	90845184	56416376	24992
84	9.47961	125296640	90845184	62257000	24992
85	9.091849	125296640	90845184	68200328	24992
86	11.080623	125296640	90845184	58376472	24992
87	9.33831	125296640	90845184	64549824	24992
88	11.470685	125296640	90845184	55469904	24992
89	9.705626	125296640	90845184	61877136	24992
90	10.108445	125296640	90845184	68404512	24992
91	12.119515	125296640	90845184	59173296	24992
92	10.210511	125296640	90845184	65938776	24992
93	12.422583	125296640	90845184	57377536	24992
94	10.696738	125296640	90845184	64386184	24992
95	13.01865	125296640	90845184	56320096	24992
96	10.972916	125296640	90845184	63576232	24992
97	11.282875	125296640	90845184	70958040	24992
98	13.089946	125566976	91369472	62474600	24992
99	11.371324	125566976	91369472	70110984	24992
100	13.680725	125837312	91893760	61994872	24992
101	11.913108	126107648	91893760	69888672	24992
102	0.464228	126377984	92418048	61937440	24992
103	0.631923	126377984	92418048	62341056	24992
104	1.042023	126377984	92418048	62880824	24992
105	1.010325	126377984	92418048	63557608	24992
106	1.201133	126377984	92418048	64372984	24992
107	1.458771	126377984	92418048	65327464	24992
108	1.588066	126377984	92418048	66422696	24992
109	1.79397	126377984	92418048	67658160	24992
110	2.046695	126377984	92418048	69036528	24992
111	2.22273	126377984	92418048	70558320	24992
112	2.404607	126377984	92418048	72225752	24992
113	4.249228	126648320	92942336	57921496	24992
114	2.839227	126648320	92942336	59877512	24992
115	3.229919	126648320	92942336	61980536	24992
116	3.266242	126648320	92942336	64231280	24992
117	3.460943	126648320	92942336	66630840	24992
118	3.746184	126648320	92942336	69182960	24992
119	4.077358	126648320	92942336	71884840	24992
120	5.790139	126918656	92942336	58635680	24992
121	4.579737	126918656	92942336	61642416	24992
122	4.575689	126918656	92942336	64802840	24992
123	4.781321	126918656	92942336	68117952	24992
124	5.315567	126918656	92942336	71588440	24992
125	7.008573	127188992	93466624	59181328	24992
126	5.479866	127188992	93466624	62966152	24992
127	5.704494	127188992	93466624	66910872	24992
128	6.144726	127188992	93466624	71013600	24992
129	8.119854	127188992	93466624	59354952	24992
130	6.422567	127459328	93466624	63780584	24992
131	6.648967	127459328	93466624	68367864	24992
132	6.892537	127459328	93466624	73118664	24992
133	8.903163	127459328	93466624	61831616	24992
134	7.907655	127459328	93466624	66927680	24992
135	7.751239	127459328	93466624	72183216	24992
136	10.149896	127729664	93466624	61546480	24992
137	8.717244	127729664	93466624	67136496	24992
138	8.427136	127729664	93466624	72903088	24992
139	10.677426	128000000	93990912	62688992	24992
140	9.277141	128000000	93990912	68790096	24992
141	11.363395	128270336	93990912	59599328	24992
142	9.416641	128270336	93990912	66052832	24992
143	9.88632	128270336	93990912	72676920	24992
144	11.951086	128270336	94515200	63396624	24992
145	10.436944	128270336	94515200	70375848	24992
146	12.86519	128540672	94515200	61891760	24992
147	10.969502	128540672	94515200	69229608	24992
148	13.168967	128811008	94515200	61287320	24992
149	11.461189	128811008	94515200	68988096	24992
150	14.102155	128811008	95039488	61472048	24992
151	11.842712	129081344	95039488	69544216	24992
152	14.450012	129081344	95039488	62351808	24992
153	12.613123	129081344	95039488	70791520	24992
154	15.236451	129351680	95563776	63791704	24992
155	13.229849	129351680	95563776	72604880	24992
156	15.507696	129622016	95563776	65702976	24992
157	14.309171	129622016	95563776	74899784	24992
158	16.305145	129622016	95563776	68061680	24992
159	16.816823	129892352	96088064	62523576	24992
160	14.795088	129892352	96088064	72300168	24992
161	17.428847	130162688	96088064	66484488	24992
162	18.092708	130162688	96612352	61874120	24992
163	15.224702	130433024	96612352	72228592	24992
164	18.456522	130433024	96612352	67051960	24992
165	19.425774	130703360	96612352	63012288	24992
166	16.486805	130703360	96612352	73967240	24992
167	19.027906	130703360	96612352	69138096	24992
168	19.547279	130973696	97136640	65382208	24992
169	17.214428	130973696	97136640	76935856	24992
170	19.693348	131244032	97136640	72376392	24992
171	20.678302	131244032	97136640	68729208	24992
172	21.940355	131514368	97660928	65938696	24992
173	21.799487	131784704	97660928	63798080	24992
174	18.74812	131784704	97660928	76372872	24992
175	21.147396	131784704	97660928	72949168	24992
176	22.159064	132055040	98185216	70352328	24992
177	22.526503	132325376	98709504	68371440	24992
178	23.967276	132325376	98709504	66987544	24992
179	23.835156	132595712	98709504	66061272	24992
180	24.480692	132595712	98709504	65531704	24992
181	24.928536	132866048	98709504	65368168	24992
182	25.159825	132866048	99233792	65456872	24992
183	25.647585	133136384	99233792	65769312	24992
184	26.125786	133406720	99233792	66275672	24992
185	26.917105	133406720	99233792	66948032	24992
186	26.187325	133677056	99233792	67758712	24992
187	26.674987	133677056	100282368	68637888	24992
188	27.462253	133947392	100282368	69607736	24992
189	27.59117	134217728	100282368	70660272	24992
190	27.450694	134217728	100282368	71755704	24992
191	27.824638	134488064	100806656	72933928	24992
192	28.450521	134758400	100806656	74156912	24992
193	28.159581	134758400	100806656	75395640	24992
194	28.477939	135028736	100806656	76688696	24992
195	28.86701	135028736	100806656	78025776	24992
196	29.252534	135299072	101330944	79377400	24992
197	29.235938	135569408	101855232	80759448	24992
198	33.655956	135839744	101855232	68618456	24992
199	31.751758	135839744	101855232	72394640	24992
200	31.589746	136110080	101855232	75772400	24992
201	31.513438	136380416	102379520	78820880	24992
202	0.758081	136380416	102379520	81582360	24992
203	1.152425	136380416	102379520	82284064	24992
204	3.719157	136650752	102379520	66862808	24992
205	1.770655	136650752	102379520	68036336	24992
206	2.312047	136650752	102379520	69447784	24992
207	2.473447	136650752	102379520	71105944	24992
208	2.892252	136650752	102379520	73011656	24992
209	3.405813	136650752	102379520	75166168	24992
210	3.562256	136650752	102379520	77571040	24992
211	3.915749	136650752	102379520	80226504	24992
212	7.005552	136650752	102379520	67113928	24992
213	4.795687	136650752	102379520	70279112	24992
214	5.114367	136650752	102379520	73691896	24992
215	5.567441	136650752	102379520	77364424	24992
216	6.067119	136650752	102379520	81288472	24992
217	8.870389	136650752	102903808	69356888	24992
218	7.013546	136650752	102903808	73803216	24992
219	7.281591	136650752	102903808	78499904	24992
220	10.095105	136921088	102903808	67814592	24992
221	7.903041	136921088	102903808	73038888	24992
222	8.3498	136921088	102903808	78528048	24992
223	11.476654	136921088	102903808	68616344	24992
224	9.209827	136921088	102903808	74619872	24992
225	9.466463	136921088	102903808	80887776	24992
226	12.498541	137191424	102903808	71395152	24992
227	10.445741	137191424	102903808	78194120	24992
228	14.270078	137191424	103428096	69687056	24992
229	11.304068	137191424	103428096	77030856	24992
230	15.012573	137461760	103428096	69294904	24992
231	11.980701	137461760	103428096	77186248	24992
232	15.247125	137461760	103428096	69990224	24992
233	13.240727	137461760	103428096	78441624	24992
234	16.262843	137461760	103428096	71590072	24992
235	13.672384	137732096	103428096	80596368	24992
236	16.981816	137732096	103952384	73953448	24992
237	14.73143	137732096	103952384	83508176	24992
238	17.69921	138002432	103952384	76985376	24992
239	18.610299	138002432	103952384	71823024	24992
240	16.254997	138002432	103952384	82215192	24992
241	19.721419	138002432	103952384	76772544	24992
242	20.431243	138272768	103952384	72543816	24992
243	17.161144	138272768	103952384	83784888	24992
244	20.280625	138272768	103952384	78961584	24992
245	21.523993	138543104	105000960	75251784	24992
246	22.523087	138543104	105000960	72460680	24992
247	23.144159	138543104	105000960	70439440	24992
248	19.34385	138813440	105000960	83118408	24992
249	22.706307	138813440	105000960	79896744	24992
250	23.782299	138813440	105000960	77531656	24992
251	24.512548	139083776	105000960	75845648	24992
252	24.958265	139083776	105525248	74761920	24992
253	25.72186	139354112	105525248	74202432	24992
254	26.351944	139354112	105525248	74027384	24992
255	26.924212	139354112	105525248	74202168	24992
256	27.150317	139624448	105525248	74679744	24992
257	27.600337	139624448	105525248	75391248	24992
258	28.044398	139624448	105525248	76288480	24992
259	29.562935	139894784	106049536	77367160	24992
260	29.270487	139894784	106049536	78538136	24992
261	28.966874	140165120	106049536	79846200	24992
262	29.642294	140165120	106573824	81244992	24992
263	29.297709	140435456	106573824	82724160	24992
264	30.428463	140435456	106573824	84294560	24992
265	32.767621	140435456	106573824	85879632	24992
266	46.683016	133365760	99233792	20263272	24992
267	32.06406	133365760	99233792	23603192	24992
268	30.017251	133365760	99233792	26660264	24992
269	33.743791	133365760	99233792	16162392	24992
270	34.880021	133365760	99233792	23958064	24992
271	32.189086	133365760	99233792	28498280	24992
272	36.016923	133365760	99233792	19354792	24992
273	36.252871	133365760	99233792	28059976	24992
274	33.599647	133365760	99233792	33390608	24992
275	36.792436	133365760	99233792	24725792	24992
276	37.363548	133365760	99233792	34385808	24992
277	38.430478	133365760	99233792	27395992	24992
278	39.055993	133365760	99233792	37648720	24992
279	39.320661	133365760	99233792	31235608	24992
280	39.576575	133365760	99233792	42113352	24992
281	40.005353	133365760	99233792	36146008	24992
282	40.41957	133365760	99233792	47691880	24992
283	40.338388	133365760	99233792	41910848	24992
284	46.190479	133365760	99233792	42320080	24992
285	49.94626	133906432	99758080	54628768	24992
286	65.295352	113213440	81408000	24041192	24992
287	42.17936	115646464	81408000	35094272	24992
288	42.803487	115646464	81408000	30933712	24992
289	44.02364	115646464	81408000	27855240	24992
290	48.636617	115646464	81408000	30181920	24992
291	45.970048	115646464	81408000	44447744	24992
292	44.533872	115916800	81408000	41068080	24992
293	45.520749	115916800	81408000	38950400	24992
294	51.916814	115916800	81408000	42664600	24992
295	51.927852	115916800	81408000	46532368	24992
296	51.764468	115916800	81408000	50717208	24992
297	53.272427	119160832	85078016	55241536	24992
298	59.499284	124026880	89796608	60084544	24992
299	68.926224	119242752	87175168	33292048	24992
300	54.642678	121401344	87175168	37700720	24992
301	48.930388	121401344	87175168	37017152	24992
302	1.11076	121401344	87175168	37035496	24992
303	1.614118	121401344	87175168	38063080	24992
304	2.472142	121401344	87175168	23089456	24992
305	2.708837	121401344	87175168	24806368	24992
306	3.159633	121401344	87175168	26869720	24992
307	3.751245	121401344	87175168	29283464	24992
308	4.312149	121401344	87175168	32041856	24992
309	4.816356	121401344	87175168	35149352	24992
310	5.373779	121401344	87175168	38619064	24992
311	6.267878	121401344	87175168	25979648	24992
312	6.432418	121401344	87175168	30142184	24992
313	6.923818	121401344	87175168	34657080	24992
314	8.211592	121401344	87175168	23771136	24992
315	8.265097	121401344	87175168	28997560	24992
316	8.563477	121401344	87175168	34576040	24992
317	10.065439	121401344	87175168	24779360	24992
318	9.754359	121401344	87175168	31081600	24992
319	10.255516	121401344	87175168	37735480	24992
320	11.251518	121401344	87175168	28472872	24992
321	11.640248	121401344	87175168	35848424	24992
322	12.924984	121401344	87175168	27657480	24992
323	12.687373	121401344	87175168	35764776	24992
324	13.906402	121401344	87175168	28307200	24992
325	13.649433	121401344	87175168	37149656	24992
326	15.18723	121401344	87175168	30178072	24992
327	16.483054	121401344	87175168	24814600	24992
328	15.426146	121401344	87175168	34741912	24992
329	17.009896	121401344	87175168	29283744	24992
330	18.367076	121401344	87175168	25184864	24992
331	17.302244	121401344	87175168	36232080	24992
332	19.090832	121401344	87175168	31648568	24992
333	20.300452	121401344	87175168	28262392	24992
334	20.516921	121401344	87175168	25836544	24992
335	19.393736	121401344	87175168	38379768	24992
336	20.805499	121401344	87175168	34928776	24992
337	23.027271	121401344	87175168	32470448	24992
338	22.942042	121401344	87175168	30811760	24992
339	23.893455	121401344	87175168	29837320	24992
340	24.084917	121401344	87175168	29467392	24992
341	24.721971	121401344	87175168	29510872	24992
342	26.212691	121401344	87175168	29949848	24992
343	25.674315	121401344	87175168	30700344	24992
344	26.955397	121401344	87175168	31720656	24992
345	27.325439	121401344	87175168	32915368	24992
346	27.520095	121401344	87175168	34283704	24992
347	28.03231	121401344	87175168	35794872	24992
348	29.444622	121401344	87175168	37445016	24992
349	28.955298	121401344	87175168	39198160	24992
350	32.01234	121401344	87175168	27513232	24992
351	31.456567	121401344	87175168	31848312	24992
352	31.806003	121401344	87175168	35774272	24992
353	32.578434	121401344	87175168	39423184	24992
354	34.382812	121401344	87175168	29303848	24992
355	33.093006	121401344	87175168	34927880	24992
356	33.812502	121401344	87175168	39896112	24992
357	37.018147	121401344	87175168	30899368	24992
358	35.506125	121401344	87175168	37475992	24992
359	37.976832	121401344	87175168	30133240	24992
360	39.301633	121401344	87175168	40996504	24992
361	39.709237	121401344	87175168	34868024	24992
362	40.24257	121401344	87175168	46541112	24992
363	41.224936	121401344	87175168	40880872	24992
364	42.618233	121401344	87175168	36977744	24992
365	43.488647	121401344	87175168	49713160	24992
366	43.011034	121401344	87175168	45317328	24992
367	48.688882	121401344	87175168	47315296	24992
368	49.536836	121401344	87175168	49523216	24992
369	45.627021	121671680	87175168	63770040	24992
370	49.510996	121671680	87175168	60531088	24992
371	70.72781	119545856	87175168	33280408	24992
372	51.34065	121434112	87175168	36317552	24992
373	46.583691	121434112	87175168	34185736	24992
374	52.541049	121434112	87175168	39030248	24992
375	55.497274	121434112	87175168	44050824	24992
376	54.60208	121434112	87175168	49514904	24992
377	55.189952	121434112	87175168	55393840	24992
378	55.612392	121434112	87175168	61671536	24992
379	74.657343	124948480	90845184	56775520	24992
380	61.699749	121229312	87175168	30639248	24992
381	57.704193	121229312	87175168	38336976	24992
382	63.931701	121229312	87175168	34741320	24992
383	59.351566	121229312	87175168	43083776	24992
384	59.901752	121229312	87175168	51956504	24992
385	64.717592	121229312	87175168	49643280	24992
386	79.606368	122851328	88748032	59301800	24992
387	68.589405	120819712	86650880	39322808	24992
388	65.792947	120819712	86650880	38328648	24992
389	62.252332	120819712	86650880	49253072	24992
390	68.636874	120819712	86650880	49072488	24992
391	64.123597	120819712	86650880	60870416	24992
392	69.918477	124874752	90845184	61593136	24992
393	77.802209	129740800	95563776	74215824	24992
394	82.222525	124563456	90320896	27456352	24992
395	66.760434	124563456	90320896	40951632	24992
396	74.081344	124563456	90320896	43609504	24992
397	72.200145	124563456	90320896	46685712	24992
398	70.301773	124563456	90320896	61665320	24992
399	81.415724	126185472	92418048	65580344	24992
400	93.945394	122490880	88223744	36824904	24992
401	75.358917	122490880	88223744	41574368	24992
402	1.414622	122490880	88223744	46940232	24992
403	2.085517	122490880	88223744	48273800	24992
404	2.962052	122490880	88223744	50053376	24992
405	7.40537	122490880	88223744	39971720	24992
406	4.172524	122490880	88223744	42646824	24992
407	5.066255	122490880	88223744	45771000	24992
408	5.908357	122490880	88223744	49354184	24992
409	6.582836	122490880	88223744	53379192	24992
410	8.936884	122490880	88223744	42924072	24992
411	7.641076	122490880	88223744	47854872	24992
412	8.528791	122490880	88223744	53252560	24992
413	9.959835	122490880	88223744	43032528	24992
414	9.834267	122490880	88223744	49328568	24992
415	12.452842	122490880	88223744	40718192	24992
416	11.388302	122490880	88223744	47938144	24992
417	13.565108	122490880	88223744	40492592	24992
418	12.968907	122490880	88223744	48658536	24992
419	14.53966	122490880	88223744	42073056	24992
420	14.070849	122490880	88223744	51193688	24992
421	15.78536	122490880	88223744	45094976	24992
422	15.699979	122490880	88223744	55172936	24992
423	16.706156	122490880	88223744	49358408	24992
424	18.375101	122490880	88223744	45047280	24992
425	19.581998	122490880	88223744	41959536	24992
426	18.554564	122490880	88223744	53985520	24992
427	19.881353	122490880	88223744	50282824	24992
428	21.339834	122490880	88223744	47745792	24992
429	22.222945	122490880	88223744	46153896	24992
430	23.275299	122490880	88223744	45312544	24992
431	23.813667	122490880	88223744	45102952	24992
432	24.539457	122490880	88223744	45440736	24992
433	25.460638	122490880	88223744	46235384	24992
434	26.511595	122490880	88223744	47389976	24992
435	26.594306	122490880	88223744	48846832	24992
436	27.364156	122490880	88223744	50530280	24992
437	27.555759	122490880	88223744	52409208	24992
438	28.494934	122490880	88223744	54450736	24992
439	31.885699	122490880	88223744	43243880	24992
440	34.554403	122490880	88223744	50747400	24992
441	31.72487	122490880	88223744	55190016	24992
442	31.664332	122490880	88223744	59273800	24992
443	34.818942	122490880	88223744	49553712	24992
444	34.108137	122490880	88223744	55702256	24992
445	36.805335	122490880	88223744	48123280	24992
446	37.824744	122490880	88223744	58589288	24992
447	38.546538	122490880	88223744	52403856	24992
448	39.704089	122490880	88223744	63903232	24992
449	40.918482	122490880	88223744	58330984	24992
450	61.785402	126275584	91893760	59135976	24992
451	54.29297	123150336	89272320	26949440	24992
452	47.45608	123691008	89272320	28587752	24992
453	43.948133	123691008	89272320	42340176	24992
454	43.41056	123691008	89272320	38951152	24992
455	48.745304	123691008	89272320	42287976	24992
456	49.181115	123691008	89272320	45894176	24992
457	52.316787	123691008	89272320	49977304	24992
458	51.285367	123691008	89272320	54578952	24992
459	54.059188	123691008	89272320	59722880	24992
460	79.350271	128016384	93990912	65521560	24992
461	56.217999	126226432	91893760	26566184	24992
462	54.669037	126226432	91893760	33364224	24992
463	54.67638	126226432	91893760	40613592	24992
464	56.763903	126226432	91893760	48424120	24992
465	56.497803	126226432	91893760	56773912	24992
466	63.304879	126226432	91893760	53949264	24992
467	60.200254	126226432	91893760	63419336	24992
468	89.068327	127623168	95563776	28743784	24992
469	60.329744	129511424	95563776	37939952	24992
470	66.626645	129511424	95563776	37130344	24992
471	61.45646	129511424	95563776	48572952	24992
472	66.272602	129511424	95563776	48806944	24992
473	63.566966	129511424	95563776	61338768	24992
474	69.568926	129781760	96088064	62618528	24992
475	94.759487	126738432	94515200	31218120	24992
476	71.045243	128626688	94515200	32518760	24992
477	67.744882	128626688	94515200	47033976	24992
478	73.249796	128626688	94515200	50466248	24992
479	74.113782	128626688	94515200	54452888	24992
480	73.203799	128626688	94515200	58911832	24992
481	90.876271	131870720	97660928	63936656	24992
482	80.414753	129814528	95563776	32469104	24992
483	75.414763	129814528	95563776	38531496	24992
484	76.909716	129814528	95563776	45191048	24992
485	77.268217	129814528	95563776	52389952	24992
486	79.691399	129814528	95563776	60197864	24992
487	108.800589	121151488	88748032	37782712	24992
488	84.967147	123039744	88748032	34385320	24992
489	80.879169	123039744	88748032	43739488	24992
490	82.285496	123039744	88748032	53674152	24992
491	82.662924	123580416	89272320	64126040	24992
492	96.017041	130609152	96612352	75126576	24992
493	101.54342	126275584	92418048	37796696	24992
494	90.664493	126275584	92418048	38243256	24992
495	87.561704	126275584	92418048	50979456	24992
496	90.524103	126275584	92418048	52550144	24992
497	93.983751	127897600	94515200	66422440	24992
498	111.250116	125829120	91369472	35381704	24992
499	93.043486	125829120	91369472	38579216	24992
500	92.761139	125829120	91369472	53928768	24992
501	95.375156	125829120	91369472	58258656	24992
502	11.580211	131235840	97136640	63487896	24992
503	4.617929	131235840	97136640	65163192	24992
504	6.785781	131235840	97136640	67398712	24992
505	9.90652	126656512	94515200	23617688	24992
506	5.289851	126656512	94515200	26977528	24992
507	6.112731	126656512	94515200	30916664	24992
508	6.69529	126656512	94515200	35402600	24992
509	8.87418	128544768	94515200	24453584	24992
510	8.683644	128544768	94515200	30091880	24992
511	9.361969	128544768	94515200	36288432	24992
512	10.706457	128544768	94515200	26859064	24992
513	11.234886	128544768	94515200	34198512	24992
514	12.890777	128544768	94515200	26225864	24992
515	12.654333	128544768	94515200	34687176	24992
516	14.51783	128544768	94515200	27818104	24992
517	14.707578	128544768	94515200	37433264	24992
518	15.850169	128544768	94515200	31213288	24992
519	17.735702	128544768	94515200	26676960	24992
520	19.062325	128544768	94515200	23501360	24992
521	17.84237	128544768	94515200	35422560	24992
522	19.958244	128544768	94515200	31852008	24992
523	21.699505	128544768	94515200	29531312	24992
524	22.21636	128544768	94515200	28157232	24992
525	23.784438	128544768	94515200	27611792	24992
526	24.132842	128544768	94515200	27749632	24992
527	25.322651	128544768	94515200	28453480	24992
528	26.039829	128544768	94515200	29621464	24992
529	26.55624	128544768	94515200	31155688	24992
530	27.173425	128544768	94515200	33003824	24992
531	28.642905	128544768	94515200	35130488	24992
532	28.615435	128544768	94515200	37475352	24992
533	31.673658	128544768	94515200	26521720	24992
534	31.23232	128544768	94515200	31623568	24992
535	32.090858	128544768	94515200	36393192	24992
536	34.773607	128544768	94515200	27618304	24992
537	38.331855	128544768	94515200	37544208	24992
538	37.431157	128544768	94515200	30999720	24992
539	39.291486	128544768	94515200	42071344	24992
540	39.473496	128544768	94515200	36371736	24992
541	42.545962	128544768	94515200	48674896	24992
542	40.709738	128544768	94515200	43520640	24992
543	43.51684	128544768	94515200	40189504	24992
544	47.535072	128544768	94515200	42495384	24992
545	44.360766	128544768	94515200	56925528	24992
546	45.047709	128544768	94515200	53964720	24992
547	45.448368	128544768	94515200	52495360	24992
548	52.549321	128544768	94515200	57272152	24992
549	52.296132	128544768	94515200	62458544	24992
550	59.393658	128815104	94515200	68247024	24992
551	72.123929	129712128	95563776	26280976	24992
552	55.538087	129712128	95563776	33442064	24992
553	55.672345	129712128	95563776	41044016	24992
554	57.467778	129712128	95563776	49174168	24992
555	63.683487	129712128	95563776	46418040	24992
556	59.643336	129712128	95563776	55765840	24992
557	62.009304	129712128	95563776	65815344	24992
558	89.256364	122642432	90320896	32864752	24992
559	66.113724	124530688	90320896	31793456	24992
560	62.844966	124530688	90320896	43645712	24992
561	67.252997	124530688	90320896	44522944	24992
562	64.900764	124530688	90320896	57620464	24992
563	69.62306	124530688	90320896	59749896	24992
564	93.264203	128315392	94515200	62553808	24992
565	73.992917	125046784	90845184	31815112	24992
566	72.219496	125046784	90845184	35770400	24992
567	76.114807	125046784	90845184	40405448	24992
568	76.489992	125046784	90845184	45726136	24992
569	73.988138	125046784	90845184	63203752	24992
570	105.062889	120418304	88223744	24999472	24992
571	78.190402	122306560	88223744	31230576	24992
572	80.538383	122306560	88223744	39037928	24992
573	80.813281	122306560	88223744	47447600	24992
574	80.813256	122306560	88223744	56497552	24992
575	106.666835	120291328	88223744	22834152	24992
576	83.779793	122179584	88223744	32534816	24992
577	83.019171	122179584	88223744	43531656	24992
578	85.634968	122179584	88223744	55164408	24992
579	91.75102	122179584	88223744	55742456	24992
580	117.922585	120774656	88748032	39780224	24992
581	94.048155	122662912	88748032	41439520	24992
582	88.38116	122662912	88748032	55622080	24992
583	93.894948	123473920	89272320	58975832	24992
584	96.670238	130502656	96612352	62996680	24992
585	126.418143	132714496	98709504	32760544	24992
586	92.596633	132714496	98709504	49681064	24992
587	98.263292	132714496	98709504	55491024	24992
588	97.796997	132714496	98709504	61861864	24992
589	99.587592	133525504	99233792	68923696	24992
590	131.551656	128425984	94515200	39723224	24992
591	104.369627	128425984	94515200	48281144	24992
592	103.426753	128425984	94515200	57338064	24992
593	104.106783	128425984	94515200	66976544	24992
594	113.644516	135454720	101330944	77232896	24992
595	126.612019	132657152	98185216	37636960	24992
596	108.134406	132657152	98185216	49213280	24992
597	109.340368	132657152	98185216	61442152	24992
598	117.399787	133468160	99233792	62764136	24992
599	134.73806	125751296	91369472	42628384	24992
600	114.28691	125751296	91369472	45238664	24992
601	113.752593	125751296	91369472	60157480	24992
602	7.167404	132239360	98185216	64632192	24992
603	3.265461	132239360	98185216	66620448	24992
604	4.605503	132239360	98185216	69275704	24992
605	5.268117	132239360	98185216	72613984	24992
606	6.735436	132239360	98185216	76613936	24992
607	12.751153	134672384	100282368	67304336	24992
608	9.518461	134672384	100282368	72653360	24992
609	15.844133	134672384	100282368	78642816	24992
610	14.488736	123662336	89272320	17723576	24992
611	11.65012	123662336	89272320	25094352	24992
612	13.535497	123662336	89272320	18274024	24992
613	13.216772	123662336	89272320	26954560	24992
614	16.095353	123662336	89272320	21118960	24992
615	16.612404	123662336	89272320	16301112	24992
616	16.191546	123662336	89272320	27007848	24992
617	18.426807	123662336	89272320	22482616	24992
618	19.97264	123662336	89272320	19445664	24992
619	20.791167	123662336	89272320	17691576	24992
620	22.397847	123662336	89272320	16901648	24992
621	23.475197	123662336	89272320	16933832	24992
622	25.647592	123662336	89272320	17619296	24992
623	25.634386	123662336	89272320	18933088	24992
624	27.043778	123662336	89272320	20653600	24992
625	27.087547	123662336	89272320	22788640	24992
626	28.53912	123662336	89272320	25205168	24992
627	30.40227	123662336	89272320	27853560	24992
628	33.069733	123662336	89272320	17658432	24992
629	35.120556	123662336	89272320	25936784	24992
630	33.229459	123662336	89272320	31253008	24992
631	36.52963	123662336	89272320	23157768	24992
632	38.527799	123662336	89272320	33527648	24992
633	38.394098	123662336	89272320	27467104	24992
634	40.371365	123662336	89272320	39247480	24992
635	39.933142	123662336	89272320	34151104	24992
636	47.575018	123662336	89272320	35601376	24992
637	44.221605	123662336	89272320	49274600	24992
638	44.251812	123662336	89272320	45707648	24992
639	45.370845	123662336	89272320	43664144	24992
640	53.555503	123662336	89272320	47847992	24992
641	70.631054	124203008	89796608	52623280	24992
642	61.022624	116166656	81932288	32210072	24992
643	55.508786	116166656	81932288	38301536	24992
644	56.362918	116166656	81932288	45113488	24992
645	57.244948	116166656	81932288	52647576	24992
646	62.017916	116166656	81932288	49341936	24992
647	59.043803	118599680	84553728	58228968	24992
648	61.737753	123465728	89796608	67894672	24992
649	88.245281	122208256	90845184	33709552	24992
650	66.806653	124907520	90845184	32286352	24992
651	62.741858	124907520	90845184	44117840	24992
652	67.822168	124907520	90845184	45083712	24992
653	64.849324	124907520	90845184	58279752	24992
654	71.04825	124907520	90845184	60638392	24992
655	92.477277	128692224	94515200	63695744	24992
656	74.023818	126812160	92418048	32467264	24992
657	73.049703	126812160	92418048	36883576	24992
658	74.665182	126812160	92418048	42052904	24992
659	76.109141	126812160	92418048	47939176	24992
660	77.485936	126812160	92418048	54631184	24992
661	106.315761	121786368	89796608	31709192	24992
662	79.809172	123674624	89796608	39286320	24992
663	79.39541	123674624	89796608	48036072	24992
664	81.213062	123674624	89796608	57659712	24992
665	81.482204	124215296	89796608	67844176	24992
666	94.666795	132325376	98185216	67193424	24992
667	108.881276	128749568	94515200	30376376	24992
668	86.670479	128749568	94515200	42811560	24992
669	87.203481	128749568	94515200	55922736	24992
670	91.801233	128749568	94515200	58183600	24992
671	91.868157	128749568	94515200	72834984	24992
672	127.566326	125108224	90845184	30298784	24992
673	91.202394	125108224	90845184	46425168	24992
674	97.399892	125108224	90845184	51717152	24992
675	97.575085	125108224	90845184	57633584	24992
676	107.795606	131055616	97136640	75916328	24992
677	117.976637	129798144	95563776	35118600	24992
678	101.32702	129798144	95563776	43307800	24992
679	102.303816	129798144	95563776	52184176	24992
680	104.586337	129798144	95563776	61894440	24992
681	134.447209	126791680	92942336	39856944	24992
682	107.351097	126791680	92942336	51165024	24992
683	107.028048	126791680	92942336	62916720	24992
684	114.239698	129495040	95563776	64019224	24992
685	138.47256	129368064	97136640	26454304	24992
686	110.892834	131256320	97136640	39234248	24992
687	111.745501	131256320	97136640	53936912	24992
688	118.788927	131256320	97136640	58018392	24992
689	145.210116	125382656	93466624	27482600	24992
690	116.786578	127811584	93466624	43671976	24992
691	121.636407	127811584	93466624	49950040	24992
692	121.676463	127811584	93466624	56963984	24992
693	145.934884	129867776	95563776	27721496	24992
694	125.437791	129867776	95563776	36502112	24992
695	121.558426	129867776	95563776	57369568	24992
696	133.933864	129867776	96088064	67397264	24992
697	156.599534	123572224	89272320	46987160	24992
698	129.096242	123572224	89272320	58529808	24992
699	132.686693	125734912	91893760	70838456	24992
700	158.484457	128081920	93990912	33455048	24992
701	134.07678	128081920	93990912	47481440	24992
702	2.364789	128081920	93990912	51079512	24992
703	3.479812	128081920	93990912	53360264	24992
704	4.568682	128081920	93990912	56402736	24992
705	5.778885	128081920	93990912	60211792	24992
706	9.704877	128081920	93990912	51315432	24992
707	8.333928	128081920	93990912	56659768	24992
708	9.215392	128081920	93990912	62761528	24992
709	11.06325	128081920	93990912	53710432	24992
710	11.799264	128081920	93990912	61355496	24992
711	14.167941	128081920	93990912	54141432	24992
712	14.135181	128081920	93990912	63330192	24992
713	16.151353	128081920	93990912	57233880	24992
714	17.961963	128081920	93990912	53102400	24992
715	17.255703	128081920	93990912	64606096	24992
716	19.333011	128081920	93990912	60685512	24992
717	21.17083	128081920	93990912	58193216	24992
718	23.18631	128081920	93990912	56923856	24992
719	23.69403	128081920	93990912	56710376	24992
720	25.372911	128081920	93990912	57270008	24992
721	26.228344	128081920	93990912	58563728	24992
722	27.301665	128081920	93990912	60378512	24992
723	28.293205	128081920	93990912	62659448	24992
724	30.162521	128081920	93990912	65285120	24992
725	32.812608	128081920	93990912	54878328	24992
726	32.756951	128081920	93990912	60538992	24992
727	34.01528	128081920	93990912	65971000	24992
728	36.480468	128081920	93990912	57680280	24992
729	36.278488	128081920	93990912	65263352	24992
730	39.325698	128081920	93990912	58869272	24992
731	42.627983	128081920	93990912	55401424	24992
732	51.726538	128892928	94515200	68757344	24992
733	57.374765	119476224	85078016	32997792	24992
734	50.55012	119476224	85078016	35886208	24992
735	45.227856	119476224	85078016	33637152	24992
736	52.813611	119476224	85078016	38758128	24992
737	53.579175	119476224	85078016	44400032	24992
738	55.439118	119476224	85078016	50946856	24992
739	60.819002	119476224	85078016	46731272	24992
740	62.377365	120016896	85602304	54740416	24992
741	79.56895	120225792	88223744	33749912	24992
742	64.868389	122114048	88223744	31288512	24992
743	60.572703	122114048	88223744	41785752	24992
744	67.6554	122114048	88223744	41550336	24992
745	62.545279	122114048	88223744	53491536	24992
746	70.187227	122654720	88223744	54900728	24992
747	75.232398	125628416	91369472	68503488	24992
748	92.620743	126119936	91893760	25915000	24992
749	67.253709	126119936	91893760	41087376	24992
750	73.285516	126119936	91893760	45702816	24992
751	74.965438	126119936	91893760	51024152	24992
752	76.499307	126119936	91893760	57253096	24992
753	99.252013	128282624	93990912	64137416	24992
754	82.986649	127209472	92942336	37614432	24992
755	81.405228	127209472	92942336	46256032	24992
756	87.710806	127209472	92942336	44072944	24992
757	83.808465	127209472	92942336	54384088	24992
758	90.735122	129101824	95039488	65438320	24992
759	109.083161	124989440	90845184	32810952	24992
760	87.702753	124989440	90845184	45422936	24992
761	92.289224	124989440	90845184	47616808	24992
762	90.51812	124989440	90845184	62024784	24992
763	114.997655	129585152	95563776	65759752	24992
764	99.4229	126582784	92418048	34773472	24992
765	97.65781	126582784	92418048	40159304	24992
766	95.06104	126582784	92418048	57844096	24992
767	102.021154	126582784	92418048	64817616	24992
768	130.032538	125022208	90845184	41284128	24992
769	103.414218	125022208	90845184	49992376	24992
770	103.295564	125022208	90845184	59423288	24992
771	105.30359	125833216	91893760	69549928	24992
772	133.716783	127062016	95039488	31344008	24992
773	107.790711	129220608	95039488	41881976	24992
774	115.009823	129220608	95039488	43045040	24992
775	108.883727	129220608	95039488	56497408	24992
776	135.588398	126132224	91893760	24260544	24992
777	112.802807	126132224	91893760	39624560	24992
778	113.374646	126132224	91893760	55612544	24992
779	121.098517	126132224	91893760	60932512	24992
780	152.562583	126246912	91893760	37758888	24992
781	118.491934	126246912	91893760	56208192	24992
782	124.793619	126246912	91893760	64040504	24992
783	128.208863	135979008	101855232	72688456	24992
784	155.975535	135536640	101330944	45040136	24992
785	128.487936	135536640	101330944	55408768	24992
786	129.813149	135536640	101330944	66574992	24992
787	131.766883	138510336	104476672	78639568	24992
788	165.439467	132096000	97660928	40821552	24992
789	132.104792	132096000	97660928	54618248	24992
790	133.356953	132096000	97660928	69273104	24992
791	151.026996	140476416	106573824	84660328	24992
792	153.446943	133730304	99758080	48364032	24992
793	140.689168	133730304	99758080	54082568	24992
794	140.492043	133730304	99758080	72220464	24992
795	176.265488	129744896	95563776	26124672	24992
796	142.561768	129744896	95563776	45790600	24992
797	150.039967	129744896	95563776	55020208	24992
798	182.914631	126201856	91893760	50019880	24992
799	147.190122	126201856	91893760	60657432	24992
800	152.536259	135393280	101330944	72321928	24992
801	180.327123	131198976	97136640	27284024	24992
802	6.334851	131469312	97136640	41643120	24992
803	4.018161	131469312	97136640	44232576	24992
804	5.414781	131469312	97136640	47671816	24992
805	6.858501	131469312	97136640	51974144	24992
806	10.356403	131469312	97136640	43410064	24992
807	9.571949	131469312	97136640	49438408	24992
808	10.559374	131469312	97136640	56338152	24992
809	12.275655	131469312	97136640	47829744	24992
810	13.16804	131469312	97136640	56457240	24992
811	15.145717	131469312	97136640	49642200	24992
812	17.251451	131469312	97136640	44930056	24992
813	17.12626	131469312	97136640	56144624	24992
814	18.899698	131469312	97136640	52088576	24992
815	21.00432	131469312	97136640	49596776	24992
816	22.604484	131469312	97136640	48403200	24992
817	24.005413	131469312	97136640	48363328	24992
818	25.89902	131469312	97136640	49195264	24992
819	26.736584	131469312	97136640	50763496	24992
820	28.645288	131469312	97136640	52869440	24992
821	29.361136	131469312	97136640	55544576	24992
822	33.624153	131469312	97136640	45321568	24992
823	36.091915	131469312	97136640	54166360	24992
824	34.170713	131469312	97136640	59953000	24992
825	37.301032	131469312	97136640	52059208	24992
826	36.809153	131469312	97136640	59891376	24992
827	40.096629	131469312	97136640	53825264	24992
828	46.681336	131469312	97136640	55459848	24992
829	48.272496	131469312	97136640	57739272	24992
830	44.775319	131469312	97136640	72393712	24992
831	45.228499	131469312	97136640	70041696	24992
832	60.92711	133632000	99758080	75160968	24992
833	67.469899	125677568	91369472	28388120	24992
834	55.977688	125677568	91369472	35387184	24992
835	56.013979	125677568	91369472	42990352	24992
836	62.652993	125677568	91369472	40040608	24992
837	59.380205	125677568	91369472	49286248	24992
838	59.617079	125677568	91369472	59580768	24992
839	72.43172	126218240	91893760	59371992	24992
840	87.659893	126758912	92418048	26756008	24992
841	64.284943	126758912	92418048	39760888	24992
842	70.053139	126758912	92418048	42215408	24992
843	71.07154	126758912	92418048	45565296	24992
844	66.521813	126758912	92418048	61220968	24992
845	76.542934	126758912	92418048	66511232	24992
846	104.459216	128331776	94515200	27482392	24992
847	77.341921	128331776	94515200	34585448	24992
848	77.381378	128331776	94515200	42449360	24992
849	79.402736	128331776	94515200	51252424	24992
850	81.976786	128872448	94515200	60982680	24992
851	94.770309	131035136	97136640	71762320	24992
852	103.536079	126636032	92418048	35619384	24992
853	84.186307	126636032	92418048	47983904	24992
854	91.618126	126636032	92418048	49936888	24992
855	87.359728	126636032	92418048	64229848	24992
856	101.338254	129069056	95039488	68170696	24992
857	117.84127	128409600	94515200	37782400	24992
858	96.058677	128409600	94515200	43499840	24992
859	98.937137	128409600	94515200	50065976	24992
860	95.744183	128409600	94515200	69089952	24992
861	125.66674	126365696	94515200	29474512	24992
862	102.728821	128794624	94515200	37655744	24992
863	104.414704	128794624	94515200	48013640	24992
864	105.884846	128794624	94515200	59218944	24992
865	136.183103	124932096	92942336	26293136	24992
866	108.544695	126820352	92942336	38735864	24992
867	109.521016	126820352	92942336	52797696	24992
868	116.887263	126820352	92942336	56337864	24992
869	141.146085	126517248	92418048	25459296	24992
870	115.274638	126517248	92418048	42655008	24992
871	118.84812	126517248	92418048	48947544	24992
872	119.001295	126517248	92418048	67843024	24992
873	154.858419	124092416	89796608	45359240	24992
874	124.082532	124092416	89796608	54534104	24992
875	125.768905	125444096	91369472	64684096	24992
876	136.705126	137609216	103428096	75792232	24992
877	157.922249	132653056	98709504	37387016	24992
878	129.962542	132653056	98709504	50356184	24992
879	131.308823	132653056	98709504	64305296	24992
880	158.486	129048576	95039488	27086056	24992
881	134.554377	129048576	95039488	43318920	24992
882	135.648828	129048576	95039488	60230184	24992
883	161.304926	131751936	97660928	66755912	24992
884	152.034211	126943232	92942336	40082928	24992
885	141.234056	126943232	92942336	60138704	24992
886	147.446913	133431296	99233792	69373760	24992
887	183.24117	136314880	102379520	45220504	24992
888	149.789293	136314880	102379520	56190208	24992
889	149.300329	136855552	102903808	68406656	24992
890	176.680551	132136960	98185216	35757272	24992
891	152.162596	132136960	98185216	50076912	24992
892	155.05914	132136960	98185216	65147720	24992
893	185.086722	127336448	92942336	32603168	24992
894	156.917102	127336448	92942336	49518608	24992
895	159.18835	127336448	92942336	67492072	24992
896	203.711139	126304256	91893760	46052448	24992
897	162.071176	126304256	91893760	65910136	24992
898	169.896841	141713408	107622400	75189400	24992
899	203.084571	142319616	108146688	46806192	24992
900	165.69235	142319616	108146688	69485088	24992
901	171.124008	143130624	109195264	81756720	24992
902	2.931069	126672896	92418048	35124144	24992
903	4.402099	126672896	92418048	38072880	24992
904	5.705353	126672896	92418048	42002616	24992
905	10.079571	126672896	92418048	33660872	24992
906	8.907533	126672896	92418048	39586840	24992
907	11.939221	126672896	92418048	31740864	24992
908	11.907708	126672896	92418048	39643240	24992
909	14.272276	126672896	92418048	33150576	24992
910	14.765876	126672896	92418048	43034464	24992
911	17.219762	126672896	92418048	37834808	24992
912	18.823125	126672896	92418048	34598568	24992
913	21.129465	126672896	92418048	32891368	24992
914	22.682127	126672896	92418048	32507264	24992
915	24.031852	126672896	92418048	33137472	24992
916	25.83008	126672896	92418048	34750296	24992
917	27.337415	126672896	92418048	37015176	24992
918	28.413696	126672896	92418048	39951600	24992
919	29.945765	126672896	92418048	43363352	24992
920	33.294902	126943232	92418048	33877912	24992
921	36.364013	126943232	92418048	43418632	24992
922	36.977113	126943232	92418048	37071088	24992
923	38.635077	126943232	92418048	48623344	24992
924	40.886123	126943232	92418048	43917712	24992
925	46.02398	126943232	92418048	45793080	24992
926	44.915419	126943232	92418048	60158408	24992
927	44.229245	126943232	92418048	57377184	24992
928	46.814572	126943232	92418048	56427320	24992
929	72.6179	130187264	96088064	62329024	24992
930	56.941872	120762368	86650880	37239640	24992
931	60.64743	120762368	86650880	33457496	24992
932	56.872694	120762368	86650880	42178568	24992
933	58.792488	120762368	86650880	51896432	24992
934	65.483488	120762368	86650880	51152520	24992
935	62.319558	121032704	86650880	62934936	24992
936	76.006043	127791104	93466624	64303400	24992
937	86.991067	124895232	90845184	31179808	24992
938	69.813409	124895232	90845184	34606072	24992
939	72.233224	124895232	90845184	38914608	24992
940	69.272722	124895232	90845184	55786896	24992
941	74.270544	124895232	90845184	62171952	24992
942	86.259927	127057920	92942336	69360480	24992
943	100.460489	123625472	89796608	31696600	24992
944	79.483924	123625472	89796608	41150608	24992
945	79.266876	123625472	89796608	51700616	24992
946	85.927347	123625472	89796608	51398144	24992
947	90.690467	125517824	91369472	64036576	24992
948	110.847364	125132800	90845184	33055664	24992
949	86.347363	125132800	90845184	47519384	24992
950	91.591997	125132800	90845184	51755592	24992
951	93.583112	125132800	90845184	56706352	24992
952	105.537399	129728512	95563776	74322520	24992
953	112.923204	128622592	94515200	34232824	24992
954	99.724515	128622592	94515200	42358512	24992
955	100.096493	128622592	94515200	51466680	24992
956	103.787359	128622592	94515200	61870048	24992
957	137.645813	126767104	92418048	40811168	24992
958	107.892772	126767104	92418048	53223544	24992
959	109.536471	126767104	92418048	55053432	24992
960	111.18881	129740800	95563776	69408952	24992
961	141.085437	129605632	98185216	33367280	24992
962	116.514451	132034560	98185216	36746984	24992
963	114.141517	132034560	98185216	54319800	24992
964	118.086858	132304896	98185216	61312616	24992
965	143.064022	127242240	92942336	33032720	24992
966	122.632304	127242240	92942336	42342376	24992
967	122.631746	127242240	92942336	52406256	24992
968	142.031488	131837952	97660928	63547128	24992
969	135.136327	125673472	91369472	43386280	24992
970	127.881954	125673472	91369472	56573096	24992
971	129.529218	127295488	93466624	71159808	24992
972	157.27415	125140992	91369472	35294168	24992
973	138.140466	125140992	91369472	40149896	24992
974	133.725916	125140992	91369472	57961832	24992
975	163.059879	124174336	89796608	31186536	24992
976	141.117864	124174336	89796608	39212448	24992
977	139.187842	124174336	89796608	60002776	24992
978	166.777979	121913344	87699456	36745480	24992
979	144.348154	121913344	87699456	47987904	24992
980	149.012175	121913344	87699456	60425384	24992
981	186.924022	122978304	88748032	46796344	24992
982	150.150137	122978304	88748032	61156000	24992
983	154.181462	136765440	102903808	76578224	24992
984	180.54223	127795200	93466624	34282336	24992
985	155.618022	127795200	93466624	51687992	24992
986	160.229414	128606208	94515200	58622752	24992
987	183.075164	125284352	90845184	29176520	24992
988	159.105858	125284352	90845184	49979360	24992
989	194.656154	120057856	85602304	30164528	24992
990	163.540772	120057856	85602304	53279232	24992
991	169.467785	127356928	93466624	65695048	24992
992	193.803248	119779328	85602304	40034568	24992
993	172.557152	119779328	85602304	54691656	24992
994	203.642114	121274368	89796608	39711640	24992
995	175.766035	123703296	89796608	56143232	24992
996	178.559693	129110016	95039488	73951672	24992
997	203.760076	120614912	86650880	40515992	24992
998	184.649339	120614912	86650880	48932256	24992
999	212.508917	123461632	89272320	38135808	24992
1000	185.360789	123461632	89272320	48793752	24992
