x	Duration	RSS	HeapTotal	HeapUsed	External
0	NA	133758976	100282368	49462776	24992
1	0.466852	133758976	100282368	49508240	24992
2	0.477452	133758976	100282368	49579568	24992
3	0.499021	133758976	100282368	49675952	24992
4	0.593481	133758976	100282368	49798584	24992
5	0.697301	133758976	100282368	49948912	24992
6	0.81536	133758976	100282368	50127680	24992
7	1.139819	133758976	100282368	50335776	24992
8	0.389916	133758976	100282368	50574152	24992
9	0.431445	133758976	100282368	50844736	24992
10	0.475553	133758976	100282368	51147544	24992
11	0.532345	133758976	100282368	51483304	24992
12	0.592686	133758976	100282368	51853640	24992
13	0.754356	133758976	100282368	52259536	24992
14	3.392732	133758976	100282368	40069376	24992
15	0.812841	133758976	100282368	40549024	24992
16	0.930229	133758976	100282368	41067056	24992
17	0.968315	133758976	100282368	41627520	24992
18	0.923438	133758976	100282368	42226968	24992
19	1.184604	133758976	100282368	42868264	24992
20	1.038509	133758976	100282368	43551184	24992
21	1.122349	133758976	100282368	44276960	24992
22	1.164762	133758976	100282368	45046608	24992
23	1.247702	133758976	100282368	45861024	24992
24	1.305212	133758976	100282368	46721128	24992
25	1.426213	133758976	100282368	47628904	24992
26	1.447548	133758976	100282368	48585776	24992
27	1.526729	133758976	100282368	49591800	24992
28	1.801377	133758976	100282368	50648272	24992
29	1.683718	133758976	100282368	51756112	24992
30	1.785578	133758976	100282368	52916440	24992
31	1.853728	133758976	100282368	54129976	24992
32	4.13857	133758976	100282368	40755384	24992
33	2.377984	133758976	100282368	42085200	24992
34	2.135912	133758976	100282368	43471344	24992
35	2.226993	133758976	100282368	44914552	24992
36	2.299806	133758976	100282368	46415648	24992
37	2.436692	133758976	100282368	47975824	24992
38	2.748469	133758976	100282368	49595696	24992
39	2.617477	133758976	100282368	51276416	24992
40	2.845323	133758976	100282368	53018672	24992
41	2.82679	133758976	100282368	54823544	24992
42	3.59469	133758976	100282368	56692056	24992
43	4.97562	133758976	100282368	42409144	24992
44	3.208753	133758976	100282368	44415992	24992
45	3.234843	133758976	100282368	46481840	24992
46	3.451098	133758976	100282368	48614288	24992
47	3.386874	133758976	100282368	50815448	24992
48	3.533011	133758976	100282368	53085040	24992
49	3.616771	133758976	100282368	55424696	24992
50	5.128481	133758976	100282368	41940704	24992
51	4.157735	133758976	100282368	44425920	24992
52	4.277296	133758976	100282368	46986472	24992
53	4.316368	133758976	100282368	49622632	24992
54	4.466198	133758976	100282368	52335280	24992
55	4.43906	133758976	100282368	55125752	24992
56	6.289082	133758976	100282368	42426912	24992
57	5.192912	133758976	100282368	45375584	24992
58	4.704493	133758976	100282368	48413488	24992
59	4.967841	133758976	100282368	51524232	24992
60	4.942337	133758976	100282368	54717056	24992
61	5.112945	133758976	100282368	57993152	24992
62	7.015126	133758976	100282368	45545008	24992
63	6.386426	133758976	100282368	48999584	24992
64	5.558674	133758976	100282368	52531288	24992
65	5.806779	133758976	100282368	56158312	24992
66	7.525181	133758976	100282368	44277144	24992
67	6.260233	133758976	100282368	48080208	24992
68	6.028669	133758976	100282368	51973384	24992
69	6.944146	133758976	100282368	55956888	24992
70	8.59958	133758976	100282368	44494192	24992
71	6.519341	133758976	100282368	48661616	24992
72	6.642215	133758976	100282368	52922816	24992
73	6.77891	133758976	100282368	57278152	24992
74	8.753401	133758976	100282368	46013192	24992
75	7.24424	133758976	100282368	50560072	24992
76	7.320987	133758976	100282368	55204000	24992
77	7.530261	133758976	100282368	59946176	24992
78	9.403187	133758976	100282368	48859200	24992
79	7.724796	133758976	100282368	53801216	24992
80	7.843023	133758976	100282368	58843872	24992
81	10.012515	133758976	100282368	48158008	24992
82	9.202331	133758976	100282368	53413040	24992
83	8.953416	133758976	100282368	58764832	24992
84	10.487626	133758976	100282368	48482544	24992
85	8.927355	133758976	100282368	54044440	24992
86	9.314489	133758976	100282368	59715752	24992
87	10.739452	133758976	100282368	49672528	24992
88	9.572472	133758976	100282368	55557040	24992
89	9.321987	133758976	100282368	61554936	24992
90	11.417331	133758976	100282368	51758824	24992
91	9.708531	133758976	100282368	57974952	24992
92	12.105037	133758976	100282368	48795360	24992
93	10.537936	133758976	100282368	55236472	24992
94	10.511028	133758976	100282368	61791448	24992
95	12.349169	133758976	100282368	52605824	24992
96	11.740341	133758976	100282368	59399672	24992
97	13.004581	133758976	100282368	50735248	24992
98	11.238425	133758976	100282368	57753960	24992
99	13.812246	133758976	100282368	49545032	24992
100	11.400185	133758976	100282368	56801528	24992
101	11.729634	133758976	100282368	64178352	24992
102	0.479669	133758976	100282368	55489648	24992
103	0.620936	133758976	100282368	55855912	24992
104	0.810282	133758976	100282368	56349416	24992
105	0.999131	133758976	100282368	56971008	24992
106	1.215169	133758976	100282368	57722272	24992
107	1.4092	133758976	100282368	58603464	24992
108	1.609024	133758976	100282368	59615640	24992
109	1.814602	133758976	100282368	60759600	24992
110	2.009535	133758976	100282368	62037552	24992
111	2.219742	133758976	100282368	63449600	24992
112	4.617136	133758976	100282368	49100840	24992
113	2.655772	133758976	100282368	50782480	24992
114	2.885472	133758976	100282368	52600744	24992
115	3.086566	133758976	100282368	54558280	24992
116	3.289494	133758976	100282368	56652112	24992
117	3.493112	133758976	100282368	58886264	24992
118	3.709619	133758976	100282368	61261560	24992
119	4.123655	133758976	100282368	63778328	24992
120	6.253891	133758976	100282368	50442640	24992
121	4.815937	133758976	100282368	53244432	24992
122	4.602733	133758976	100282368	56190192	24992
123	4.83089	133758976	100282368	59280592	24992
124	5.229217	133758976	100282368	62517000	24992
125	7.18936	133758976	100282368	50036056	24992
126	5.70332	133758976	100282368	53568384	24992
127	6.046324	133758976	100282368	57247560	24992
128	6.157622	133758976	100282368	61078592	24992
129	6.327515	133758976	100282368	65057600	24992
130	8.586468	133758976	100282368	53009048	24992
131	7.059093	133758976	100282368	57295056	24992
132	7.052656	133758976	100282368	61730864	24992
133	9.520899	133758976	100282368	50627304	24992
134	7.646794	133758976	100282368	55379064	24992
135	7.679915	133758976	100282368	60291816	24992
136	8.107131	133758976	100282368	65362520	24992
137	10.38959	133758976	100282368	54403016	24992
138	8.599398	133758976	100282368	59784600	24992
139	8.743442	133758976	100282368	65327344	24992
140	10.984933	133758976	100282368	54879960	24992
141	9.254658	133758976	100282368	60743736	24992
142	11.86448	133758976	100282368	51269312	24992
143	9.947128	133758976	100282368	57464336	24992
144	10.135034	133758976	100282368	63823760	24992
145	12.475133	133758976	100282368	54408312	24992
146	11.049328	133758976	100282368	61096688	24992
147	13.20901	133758976	100282368	52452168	24992
148	11.080209	133758976	100282368	59472904	24992
149	11.45016	133758976	100282368	66665008	24992
150	13.935719	133758976	100282368	57797080	24992
151	12.208847	133758976	100282368	65333272	24992
152	14.572793	133758976	100282368	56995776	24992
153	12.586034	133758976	100282368	64873536	24992
154	15.116291	133758976	100282368	56969008	24992
155	13.12616	133758976	100282368	65199288	24992
156	15.341158	133758976	100282368	57595088	24992
157	13.762729	133758976	100282368	66178784	24992
158	16.039846	133758976	100282368	58825304	24992
159	14.316533	133758976	100282368	67756848	24992
160	16.494482	133758976	100282368	60604128	24992
161	17.677886	133758976	100282368	54599248	24992
162	15.165243	133758976	100282368	64079232	24992
163	17.764575	133758976	100282368	58030712	24992
164	15.832013	133758976	100282368	67870304	24992
165	18.425913	133758976	100282368	61690104	24992
166	18.954728	133758976	100282368	56519032	24992
167	16.572906	133758976	100282368	66925288	24992
168	19.584405	133758976	100282368	61446664	24992
169	20.153234	133758976	100282368	56957440	24992
170	17.760161	133758976	100282368	67927744	24992
171	20.315582	133758976	100282368	62890704	24992
172	20.627672	133758976	100282368	58806672	24992
173	22.515027	133758976	100282368	55495128	24992
174	19.676041	133758976	100282368	67223976	24992
175	21.75172	133758976	100282368	63129560	24992
176	22.201598	133758976	100282368	59853832	24992
177	22.934063	133758976	100282368	57201064	24992
178	20.336016	133758976	100282368	69707304	24992
179	22.740101	133758976	100282368	66168056	24992
180	23.642796	133758976	100282368	63335264	24992
181	24.01103	133758976	100282368	61078496	24992
182	24.925525	133758976	100282368	59354728	24992
183	25.384846	133758976	100282368	58128904	24992
184	25.876639	133758976	100282368	57289016	24992
185	22.714228	133758976	100282368	71199768	24992
186	25.50882	133758976	100282368	69031304	24992
187	25.73215	133758976	100282368	67339472	24992
188	26.471587	133758976	100282368	66123536	24992
189	26.692725	133758976	100282368	65228208	24992
190	28.198249	133758976	100282368	64688672	24992
191	27.814823	133758976	100282368	64485472	24992
192	28.285881	133758976	100282368	64538904	24992
193	28.340541	133758976	100282368	64829128	24992
194	29.114638	133758976	100282368	65305392	24992
195	28.70338	133758976	100282368	65956480	24992
196	29.608329	133758976	100282368	66734200	24992
197	29.707703	133758976	100282368	67627416	24992
198	30.263632	133758976	100282368	68635264	24992
199	29.988409	133758976	100282368	69745408	24992
200	30.717754	133758976	100282368	70947344	24992
201	30.730739	133758976	100282368	72197672	24992
202	0.768634	133758976	100282368	73465096	24992
203	1.077999	133758976	100282368	74123104	24992
204	4.154766	133758976	100282368	58710080	24992
205	1.779077	133758976	100282368	59808960	24992
206	2.3169	133758976	100282368	61130104	24992
207	2.64547	133758976	100282368	62673928	24992
208	2.841951	133758976	100282368	64441560	24992
209	3.241276	133758976	100282368	66445632	24992
210	3.730681	133758976	100282368	68680744	24992
211	4.086854	133758976	100282368	71150576	24992
212	4.283806	133758976	100282368	73855944	24992
213	7.519686	133758976	100282368	60538744	24992
214	5.054895	133758976	100282368	63718248	24992
215	5.44975	133758976	100282368	67135968	24992
216	6.045138	133758976	100282368	70793024	24992
217	6.175081	133758976	100282368	74690200	24992
218	9.554391	133758976	100282368	62523824	24992
219	7.286897	133758976	100282368	66906144	24992
220	7.384486	133758976	100282368	71532088	24992
221	11.148602	133758976	100282368	60545120	24992
222	8.220376	133758976	100282368	65666304	24992
223	8.575026	133758976	100282368	71026696	24992
224	12.491733	133758976	100282368	60868456	24992
225	9.763151	133758976	100282368	66727848	24992
226	9.615456	133758976	100282368	72832296	24992
227	12.998416	133758976	100282368	63165384	24992
228	10.530317	133758976	100282368	69778648	24992
229	14.234929	133758976	100282368	61049472	24992
230	11.368869	133758976	100282368	68163792	24992
231	15.13301	133758976	100282368	60201016	24992
232	12.643126	133758976	100282368	67821344	24992
233	16.022411	133758976	100282368	60419592	24992
234	12.948502	133758976	100282368	68556064	24992
235	17.140465	133758976	100282368	61610016	24992
236	13.929502	133758976	100282368	70267160	24992
237	17.489769	133758976	100282368	63596568	24992
238	14.509186	133758976	100282368	72762648	24992
239	18.415633	133758976	100282368	66260064	24992
240	15.93154	133758976	100282368	75954448	24992
241	18.886387	133758976	100282368	69567008	24992
242	19.85118	133758976	100282368	64312712	24992
243	16.686937	133758976	100282368	74793136	24992
244	20.160918	133758976	100282368	69390464	24992
245	21.40358	133758976	100282368	65014952	24992
246	17.858972	133758976	100282368	76305008	24992
247	21.099514	133758976	100282368	71494064	24992
248	22.053893	133758976	100282368	67646960	24992
249	23.198484	133758976	100282368	64634552	24992
250	24.066798	133758976	100282368	62348360	24992
251	20.191589	133758976	100282368	74977744	24992
252	24.366517	133758976	100282368	71772768	24992
253	24.561881	133758976	100282368	69323360	24992
254	25.268546	133758976	100282368	67476432	24992
255	25.850079	133758976	100282368	66173832	24992
256	25.999568	133758976	100282368	65402864	24992
257	26.828215	133758976	100282368	65003792	24992
258	27.761201	133758976	100282368	64965272	24992
259	28.688624	133758976	100282368	65232072	24992
260	28.41913	133758976	100282368	65755312	24992
261	28.8584	133758976	100282368	66497280	24992
262	29.503838	133758976	100282368	67428152	24992
263	29.298986	133758976	100282368	68495248	24992
264	30.053555	133758976	100282368	69706448	24992
265	30.349416	133758976	100282368	71084088	24992
266	30.534741	133758976	100282368	72551232	24992
267	31.248602	133758976	100282368	74091888	24992
268	30.926641	133758976	100282368	75724024	24992
269	32.060397	133758976	100282368	77407624	24992
270	32.336897	133758976	100282368	79159704	24992
271	37.257121	133758976	100282368	66906408	24992
272	34.283453	134029312	100282368	70825744	24992
273	34.024438	134029312	100282368	74498864	24992
274	34.370209	134029312	100282368	77920728	24992
275	39.203486	134299648	100806656	67271896	24992
276	37.898394	136192000	102379520	74819984	24992
277	36.640111	136462336	102903808	79692360	24992
278	41.478971	137003008	103428096	70254024	24992
279	50.30664	139436032	106049536	78678024	24992
280	46.594258	129921024	96612352	21004576	24992
281	36.687209	129921024	96612352	29829800	24992
282	35.196463	129921024	96612352	35868976	24992
283	37.336648	129921024	96612352	27137800	24992
284	36.628358	129921024	96612352	34025904	24992
285	38.402352	129921024	96612352	26366888	24992
286	38.842732	130191360	96612352	36888224	24992
287	39.898418	130191360	96612352	30285712	24992
288	39.951862	130191360	96612352	41441960	24992
289	40.406379	130191360	96612352	35229464	24992
290	41.22956	130191360	96612352	30529592	24992
291	41.295419	130191360	96612352	42523352	24992
292	41.69468	130191360	96612352	37469288	24992
293	48.370218	130191360	96612352	37639592	24992
294	44.251729	130191360	96612352	50425848	24992
295	43.273354	130191360	96612352	46059176	24992
296	46.974347	130191360	96612352	47235512	24992
297	48.339897	130732032	96612352	48492736	24992
298	47.041108	130732032	96612352	62516560	24992
299	57.997956	130732032	96612352	59059896	24992
300	50.947529	119046144	85078016	28285832	24992
301	46.378405	119046144	85078016	25770840	24992
302	1.071235	119046144	85078016	28932704	24992
303	1.517436	119046144	85078016	29894920	24992
304	2.028762	119046144	85078016	31177952	24992
305	2.519704	119046144	85078016	32782888	24992
306	3.230266	119046144	85078016	34711024	24992
307	5.961032	119046144	85078016	23761368	24992
308	4.082519	119046144	85078016	26346632	24992
309	4.557851	119046144	85078016	29262576	24992
310	5.094034	119046144	85078016	32491888	24992
311	5.775891	119046144	85078016	36057648	24992
312	7.371782	119046144	85078016	24784032	24992
313	6.823123	119046144	85078016	29009688	24992
314	7.146107	119046144	85078016	33554352	24992
315	7.671147	119046144	85078016	38430744	24992
316	8.987104	119046144	85078016	27346352	24992
317	8.721671	119046144	85078016	32894592	24992
318	9.466513	119046144	85078016	38777552	24992
319	10.24585	119046144	85078016	28654992	24992
320	10.703123	119046144	85078016	35203864	24992
321	12.077033	119046144	85078016	26281560	24992
322	11.685697	119046144	85078016	33502976	24992
323	13.210555	119046144	85078016	25513584	24992
324	12.603975	119046144	85078016	33420472	24992
325	14.600018	119046144	85078016	26119840	24992
326	13.759131	119046144	85078016	34709312	24992
327	15.483744	119046144	85078016	27925584	24992
328	14.887658	119046144	85078016	37217664	24992
329	16.334366	119046144	85078016	30759016	24992
330	18.07477	119046144	85078016	25621744	24992
331	17.807135	119046144	85078016	35929960	24992
332	17.708461	119046144	85078016	30735912	24992
333	19.021677	119046144	85078016	26656064	24992
334	18.553488	119046144	85078016	38023680	24992
335	20.040153	119046144	85078016	33592072	24992
336	20.57164	119046144	85078016	30159016	24992
337	21.265464	119046144	85078016	27578248	24992
338	22.290479	119046144	85078016	25758552	24992
339	21.663758	119046144	85078016	38868224	24992
340	22.25596	119046144	85078016	36104600	24992
341	23.440754	119046144	85078016	34145984	24992
342	23.786112	119046144	85078016	32762816	24992
343	24.802646	119046144	85078016	31992864	24992
344	25.133224	119046144	85078016	31674904	24992
345	26.149855	119046144	85078016	31778400	24992
346	27.393733	119046144	85078016	32242200	24992
347	27.002301	119046144	85078016	33025128	24992
348	27.532176	119046144	85078016	34081792	24992
349	28.043225	119046144	85078016	35324664	24992
350	28.354392	119046144	85078016	36783312	24992
351	28.877578	119046144	85078016	38415520	24992
352	29.91054	119046144	85078016	40142296	24992
353	31.904694	119046144	85078016	28083008	24992
354	32.336563	119046144	85078016	32097816	24992
355	32.084494	119046144	85078016	35937832	24992
356	32.500816	119046144	85078016	39574472	24992
357	35.514576	119046144	85078016	29279752	24992
358	36.191823	119046144	85078016	37185960	24992
359	34.205796	119046144	85078016	42339072	24992
360	36.525478	119046144	85078016	33224984	24992
361	38.259084	119046144	85078016	42271920	24992
362	39.197404	119046144	85078016	35008144	24992
363	39.661084	119046144	85078016	44756360	24992
364	40.35991	119046144	85078016	38222664	24992
365	40.321586	119046144	85078016	48713832	24992
366	42.124344	119046144	85078016	42765128	24992
367	41.518339	119046144	85078016	54049808	24992
368	42.266503	119046144	85078016	48485912	24992
369	44.309856	119046144	85078016	60545024	24992
370	56.784989	119046144	85078016	55282536	24992
371	49.926418	116449280	82456576	24791432	24992
372	46.300247	116449280	82456576	25512248	24992
373	47.880564	116449280	82456576	26619832	24992
374	45.928429	116449280	82456576	40354240	24992
375	45.064346	116449280	82456576	36709632	24992
376	45.652823	116449280	82456576	34386664	24992
377	49.440961	116449280	82456576	37111280	24992
378	50.451396	116449280	82456576	40101984	24992
379	50.523598	116449280	82456576	43475696	24992
380	53.235584	116989952	82980864	47216920	24992
381	62.89002	119152640	85078016	51340592	24992
382	64.651467	118947840	85078016	28450776	24992
383	53.474055	118947840	85078016	33399464	24992
384	54.45034	118947840	85078016	38680384	24992
385	53.69101	118947840	85078016	44403432	24992
386	55.695515	118947840	85078016	50510072	24992
387	55.289037	118947840	85078016	57061304	24992
388	58.772809	119488512	85602304	51704552	24992
389	57.871246	122191872	88748032	58992840	24992
390	82.611523	122978304	91369472	22534912	24992
391	58.551323	124866560	91369472	29875560	24992
392	61.3883	125407232	91369472	38312552	24992
393	60.026012	125407232	91369472	47227864	24992
394	64.72207	125407232	91369472	44435576	24992
395	60.401849	125407232	91369472	54145496	24992
396	64.20883	125407232	91369472	52137824	24992
397	64.023569	125947904	91893760	62667056	24992
398	87.233174	119746560	87699456	29115984	24992
399	64.298003	121634816	87699456	39654064	24992
400	67.314981	121634816	87699456	39134616	24992
401	67.811228	121634816	87699456	39058496	24992
402	1.426028	121634816	87699456	51809856	24992
403	2.077308	121634816	87699456	53051680	24992
404	2.780963	121634816	87699456	54706832	24992
405	5.821899	121634816	87699456	44006464	24992
406	4.044688	121634816	87699456	46492008	24992
407	4.700268	121634816	87699456	49407688	24992
408	5.33813	121634816	87699456	52727160	24992
409	5.93207	121634816	87699456	56464720	24992
410	7.858135	121634816	87699456	45764872	24992
411	7.296212	121634816	87699456	50354456	24992
412	8.334309	121634816	87699456	55358496	24992
413	9.476972	121634816	87699456	45000608	24992
414	9.318987	121634816	87699456	50859328	24992
415	9.961091	121634816	87699456	57134048	24992
416	11.512445	121634816	87699456	47760616	24992
417	11.553279	121634816	87699456	54881552	24992
418	13.444194	121634816	87699456	46711744	24992
419	13.232089	121634816	87699456	54705848	24992
420	14.588885	121634816	87699456	47415768	24992
421	14.197462	121634816	87699456	56306672	24992
422	15.802848	121634816	87699456	49687472	24992
423	15.615998	121634816	87699456	59469456	24992
424	16.628951	121634816	87699456	53265328	24992
425	17.967465	121634816	87699456	48463048	24992
426	18.112395	121634816	87699456	59592744	24992
427	19.203196	121634816	87699456	54717648	24992
428	19.747691	121634816	87699456	51054096	24992
429	21.334232	121634816	87699456	48384080	24992
430	22.131304	121634816	87699456	46577952	24992
431	22.122902	121634816	87699456	59979840	24992
432	22.776867	121634816	87699456	57360712	24992
433	23.68639	121634816	87699456	55598088	24992
434	24.397637	121634816	87699456	54570024	24992
435	25.396109	121634816	87699456	54144544	24992
436	27.0528	121634816	87699456	54265784	24992
437	26.254954	121634816	87699456	54843960	24992
438	27.148954	121634816	87699456	55761088	24992
439	28.276166	121634816	87699456	57007264	24992
440	28.412506	121634816	87699456	58563632	24992
441	29.593105	121634816	87699456	60316832	24992
442	31.602799	121634816	87699456	48274128	24992
443	32.123256	121634816	87699456	52523664	24992
444	31.567034	121634816	87699456	56641752	24992
445	32.617386	121634816	87699456	60593536	24992
446	34.462694	121634816	87699456	50401448	24992
447	35.320286	121634816	87699456	56252312	24992
448	37.118849	121634816	87699456	48148200	24992
449	37.368371	121634816	87699456	57766472	24992
450	38.466967	121634816	87699456	51159472	24992
451	39.082564	122175488	88223744	61708712	24992
452	39.315596	122175488	88223744	55776232	24992
453	43.162403	123527168	89796608	67274048	24992
454	54.757173	124338176	90845184	61897384	24992
455	45.041625	120176640	86650880	25794016	24992
456	42.584568	120176640	86650880	21814552	24992
457	47.718556	120176640	86650880	22901080	24992
458	44.503086	120176640	86650880	36600824	24992
459	45.404118	120176640	86650880	33236296	24992
460	47.870003	120176640	86650880	35808128	24992
461	48.694494	120176640	86650880	38625656	24992
462	49.515125	120176640	86650880	41943096	24992
463	50.225199	120176640	86650880	45767208	24992
464	51.821972	120176640	86650880	50006056	24992
465	66.553315	120446976	87175168	54806520	24992
466	60.025405	119132160	85602304	31561344	24992
467	52.673841	119132160	85602304	37330200	24992
468	55.001298	119132160	85602304	43570808	24992
469	58.039124	119132160	85602304	37933096	24992
470	55.664569	119132160	85602304	45133984	24992
471	55.555693	119402496	85602304	52763000	24992
472	56.367854	119402496	85602304	60919688	24992
473	65.962458	123187200	89796608	57260704	24992
474	76.381255	121438208	89796608	34573456	24992
475	61.931287	123326464	89796608	31089432	24992
476	60.578213	123326464	89796608	41247104	24992
477	64.002317	123326464	89796608	39605080	24992
478	63.153017	123326464	89796608	50744968	24992
479	64.814362	123326464	89796608	50048584	24992
480	63.093561	123867136	89796608	62175736	24992
481	85.892294	125489152	91893760	62530848	24992
482	70.084031	122204160	88223744	29569456	24992
483	67.614886	122204160	88223744	30905816	24992
484	66.268264	122204160	88223744	45021656	24992
485	69.752084	122204160	88223744	47329560	24992
486	70.90784	122204160	88223744	50125064	24992
487	75.459769	123555840	89796608	53486408	24992
488	89.927784	119730176	86126592	27322480	24992
489	74.116161	119730176	86126592	31739816	24992
490	75.165531	119730176	86126592	36636488	24992
491	76.551954	119730176	86126592	41995184	24992
492	75.852146	120000512	86126592	47997320	24992
493	76.374384	121622528	88223744	54417768	24992
494	101.015274	121946112	90320896	30213080	24992
495	78.166102	123834368	90320896	37107664	24992
496	79.164783	123834368	90320896	45054888	24992
497	79.901957	123834368	90320896	53482640	24992
498	79.641293	123834368	90320896	62429136	24992
499	85.032533	124915712	90845184	59631056	24992
500	104.400768	121978880	90320896	21250344	24992
501	83.071879	123867136	90320896	30748304	24992
502	1.722988	123867136	90320896	42075024	24992
503	2.587724	123867136	90320896	43645272	24992
504	5.698917	123867136	90320896	33059496	24992
505	4.147558	123867136	90320896	35676112	24992
506	4.883258	123867136	90320896	38817856	24992
507	5.943133	123867136	90320896	42485248	24992
508	6.471979	123867136	90320896	46679120	24992
509	8.65046	123867136	90320896	36495304	24992
510	8.160787	123867136	90320896	41745808	24992
511	8.931867	123867136	90320896	47525456	24992
512	10.600414	123867136	90320896	37616656	24992
513	10.772718	123867136	90320896	44457696	24992
514	12.197507	123867136	90320896	36056424	24992
515	12.358319	123867136	90320896	43962368	24992
516	13.983282	123867136	90320896	36698264	24992
517	14.072314	123867136	90320896	45673888	24992
518	15.220992	123867136	90320896	39218760	24992
519	16.89561	123867136	90320896	34255936	24992
520	16.493073	123867136	90320896	44934448	24992
521	18.411326	123867136	90320896	40207928	24992
522	19.343322	123867136	90320896	36732608	24992
523	19.266017	123867136	90320896	48940416	24992
524	20.518648	123867136	90320896	45217360	24992
525	21.766055	123867136	90320896	42587064	24992
526	22.862398	123867136	90320896	40913440	24992
527	23.706891	123867136	90320896	40053576	24992
528	24.371139	123867136	90320896	39820432	24992
529	25.486068	123867136	90320896	40203960	24992
530	26.179775	123867136	90320896	41085576	24992
531	26.983002	123867136	90320896	42378128	24992
532	27.849807	123867136	90320896	44036248	24992
533	29.068512	123867136	90320896	46005640	24992
534	29.41117	123867136	90320896	48230272	24992
535	31.603744	123867136	90320896	36761552	24992
536	33.926058	123867136	90320896	44031648	24992
537	33.106939	123867136	90320896	48775040	24992
538	34.52224	123867136	90320896	39567400	24992
539	36.297358	123867136	90320896	48514232	24992
540	34.645077	123867136	90320896	54690112	24992
541	36.908783	123867136	90320896	46354096	24992
542	37.201889	123867136	90320896	53811104	24992
543	38.773644	123867136	90320896	46904880	24992
544	43.590952	123867136	90320896	46284744	24992
545	40.883392	123867136	90320896	58274656	24992
546	42.073894	123867136	90320896	53671680	24992
547	49.701084	124948480	90845184	54604488	24992
548	63.303455	118489088	86650880	24890704	24992
549	48.462732	120377344	86650880	26221496	24992
550	47.976427	120377344	86650880	28717472	24992
551	48.690573	120377344	86650880	31881408	24992
552	50.691685	120377344	86650880	35540008	24992
553	50.859514	120377344	86650880	39772216	24992
554	51.890324	120377344	86650880	44540768	24992
555	52.696182	120377344	86650880	49897152	24992
556	58.488725	121729024	88223744	55883552	24992
557	69.945057	120463360	88223744	31344888	24992
558	55.336831	121810944	88223744	37905832	24992
559	58.624434	121810944	88223744	33331376	24992
560	56.902492	121810944	88223744	41519504	24992
561	58.408972	121810944	88223744	50375392	24992
562	60.747793	121810944	88223744	47439800	24992
563	60.465544	121810944	88223744	57432976	24992
564	73.146332	122351616	88748032	55675496	24992
565	70.784225	120541184	86650880	33944144	24992
566	64.85404	120541184	86650880	33471336	24992
567	65.879853	120541184	86650880	33423040	24992
568	64.104697	120541184	86650880	46308528	24992
569	67.745369	120541184	86650880	47449496	24992
570	69.402912	120541184	86650880	49258880	24992
571	88.249066	124055552	90320896	63841880	24992
572	73.968563	122806272	89272320	35838856	24992
573	71.923653	122806272	89272320	39347672	24992
574	71.917006	122806272	89272320	43488544	24992
575	73.184515	122806272	89272320	48114096	24992
576	74.176779	123346944	89272320	53334760	24992
577	75.942173	125239296	91369472	59188536	24992
578	99.826018	126259200	94515200	32971448	24992
579	77.995224	128147456	94515200	39213296	24992
580	78.160654	128147456	94515200	47033952	24992
581	79.294545	128147456	94515200	55397016	24992
582	82.423285	128147456	94515200	52188416	24992
583	81.662961	128147456	94515200	61742384	24992
584	104.447288	124813312	92942336	23198128	24992
585	83.499401	126701568	92942336	32730192	24992
586	83.575115	126701568	92942336	43953752	24992
587	86.976956	126701568	92942336	43458200	24992
588	84.792096	126701568	92942336	55751592	24992
589	93.222698	127512576	93466624	56467776	24992
590	106.152908	124338176	90845184	38892000	24992
591	91.064897	124338176	90845184	40880288	24992
592	91.984127	124338176	90845184	43359720	24992
593	89.9593	124338176	90845184	58814168	24992
594	94.350215	124878848	90845184	62547576	24992
595	120.158562	125956096	92418048	34362904	24992
596	96.678686	125956096	92418048	39444072	24992
597	97.775631	125956096	92418048	45069400	24992
598	103.807113	125956096	92418048	51179344	24992
599	98.119686	126767104	92942336	70200088	24992
600	122.516282	124190720	90320896	27174136	24992
601	101.203014	124190720	90320896	35383344	24992
602	2.027334	124190720	90320896	44463832	24992
603	3.016469	124190720	90320896	46313432	24992
604	4.136025	124190720	90320896	48778696	24992
605	7.194584	124190720	90320896	38748144	24992
606	5.960299	124190720	90320896	42447320	24992
607	6.900677	124190720	90320896	46764952	24992
608	8.261461	124190720	90320896	51718824	24992
609	9.616362	124190720	90320896	41955536	24992
610	9.630422	124190720	90320896	48142792	24992
611	11.548645	124190720	90320896	39296336	24992
612	12.39093	124190720	90320896	46737816	24992
613	13.53524	124190720	90320896	39347248	24992
614	13.901599	124190720	90320896	48033072	24992
615	15.184996	124190720	90320896	41687816	24992
616	15.663193	124190720	90320896	51621176	24992
617	17.14865	124190720	90320896	45999336	24992
618	18.566076	124190720	90320896	41817392	24992
619	19.802163	124190720	90320896	38946736	24992
620	19.761232	124190720	90320896	51397808	24992
621	21.804836	124190720	90320896	48308128	24992
622	22.753548	124190720	90320896	46299200	24992
623	24.022803	124190720	90320896	45307560	24992
624	25.42448	124190720	90320896	45044976	24992
625	26.134563	124190720	90320896	45493240	24992
626	27.174838	124190720	90320896	46526568	24992
627	27.92918	124190720	90320896	48029144	24992
628	28.599006	124190720	90320896	49967656	24992
629	29.351	124190720	90320896	52252696	24992
630	32.433965	124190720	90320896	41095648	24992
631	33.507075	124190720	90320896	48605952	24992
632	33.173505	124190720	90320896	53478440	24992
633	35.540328	124190720	90320896	44664232	24992
634	37.427411	124190720	90320896	54037696	24992
635	37.789867	124190720	90320896	47288536	24992
636	40.425305	124190720	90320896	57928320	24992
637	49.630432	124190720	90845184	52231680	24992
638	52.88541	116473856	82980864	20276752	24992
639	42.607524	116473856	82980864	32771472	24992
640	43.325869	116473856	82980864	28376808	24992
641	46.128404	116473856	82980864	29986376	24992
642	47.827047	116473856	82980864	32122432	24992
643	48.331866	116473856	82980864	34808608	24992
644	49.203347	116473856	82980864	38127880	24992
645	49.17584	116473856	82980864	54435104	24992
646	47.963155	116473856	82980864	53160592	24992
647	49.689896	116473856	82980864	52881120	24992
648	51.95527	116473856	82980864	53414952	24992
649	57.485896	117014528	82980864	47963064	24992
650	68.577153	119177216	85602304	55316336	24992
651	67.048203	120184832	86650880	33899400	24992
652	57.499268	120184832	86650880	42526864	24992
653	61.323352	120184832	86650880	39555208	24992
654	59.320287	120184832	86650880	49418848	24992
655	63.598601	120184832	86650880	47847288	24992
656	62.569901	120184832	86650880	59098584	24992
657	66.360104	123158528	89796608	58808824	24992
658	89.69045	123928576	91893760	27298400	24992
659	65.252228	125816832	91893760	39746256	24992
660	68.826498	125816832	91893760	41412944	24992
661	69.378822	125816832	91893760	43815488	24992
662	71.512968	125816832	91893760	46945312	24992
663	69.139847	125816832	91893760	62730624	24992
664	73.202699	126357504	92418048	67094056	24992
665	95.011093	122691584	90845184	24143416	24992
666	74.770844	124579840	90845184	28809432	24992
667	76.440029	124579840	90845184	35198584	24992
668	77.04542	124579840	90845184	42206024	24992
669	78.447146	124579840	90845184	49979328	24992
670	80.594714	124579840	90845184	58398344	24992
671	107.212909	122130432	88223744	25831040	24992
672	81.2199	122130432	88223744	35595456	24992
673	83.353711	122130432	88223744	46156840	24992
674	83.854081	122130432	88223744	57447720	24992
675	89.642471	122130432	88223744	57143920	24992
676	93.128106	126996480	93466624	69866840	24992
677	106.626612	125911040	92418048	35896608	24992
678	90.60889	125911040	92418048	37445112	24992
679	88.771501	125911040	92418048	52057816	24992
680	92.411902	125911040	92418048	55109576	24992
681	99.870646	126722048	93466624	58784192	24992
682	114.334146	122765312	88748032	31332256	24992
683	97.457123	122765312	88748032	36388208	24992
684	94.387161	122765312	88748032	54363456	24992
685	98.194256	122765312	88748032	60892680	24992
686	101.81294	126279680	92418048	68074624	24992
687	126.115935	129380352	95563776	29681264	24992
688	102.356943	129380352	95563776	38171248	24992
689	103.907745	129380352	95563776	47463792	24992
690	103.46646	129380352	95563776	57397152	24992
691	109.086019	130191360	96088064	67983568	24992
692	126.647747	126156800	92418048	31896296	24992
693	107.93067	126156800	92418048	43916560	24992
694	109.573342	126156800	92418048	56615312	24992
695	112.927778	126156800	92418048	57778080	24992
696	134.423307	129523712	96088064	22765504	24992
697	111.142142	129523712	96088064	37766272	24992
698	115.073895	129523712	96088064	41191792	24992
699	114.391213	129523712	96088064	57317288	24992
700	140.948821	119222272	87175168	29594144	24992
701	120.97902	121110528	87175168	34481680	24992
702	2.363888	121110528	87175168	53338440	24992
703	5.771574	121110528	87175168	43015952	24992
704	4.514163	121110528	87175168	45868576	24992
705	5.634562	121110528	87175168	49414672	24992
706	6.721735	121110528	87175168	53671344	24992
707	9.429395	121110528	87175168	44296736	24992
708	9.039812	121110528	87175168	49976136	24992
709	10.723695	121110528	87175168	56368456	24992
710	11.983069	121110528	87175168	47242728	24992
711	12.524097	121110528	87175168	55064216	24992
712	14.130322	121110528	87175168	47604200	24992
713	14.721194	121110528	87175168	56872440	24992
714	16.711418	121110528	87175168	50523192	24992
715	18.397591	121110528	87175168	45836000	24992
716	18.228972	121110528	87175168	57261152	24992
717	20.128394	121110528	87175168	53075096	24992
718	21.695378	121110528	87175168	50230992	24992
719	22.791621	121110528	87175168	48562440	24992
720	24.161016	121110528	87175168	47796824	24992
721	25.513122	121110528	87175168	47916120	24992
722	26.139048	121110528	87175168	48724400	24992
723	27.705874	121110528	87175168	50133592	24992
724	28.259918	121110528	87175168	52092776	24992
725	30.467468	121110528	87175168	54447640	24992
726	32.467724	121110528	87175168	57227744	24992
727	33.42316	121110528	87175168	46462456	24992
728	32.997272	121110528	87175168	51891768	24992
729	35.096562	121110528	87175168	57272728	24992
730	36.491919	121110528	87175168	48722784	24992
731	36.596916	121110528	87175168	56025976	24992
732	38.815602	121110528	87175168	49323016	24992
733	43.850494	121110528	87175168	48890888	24992
734	42.530434	121110528	87175168	61272472	24992
735	43.718713	121110528	87175168	57222192	24992
736	52.218459	123813888	90320896	58994320	24992
737	62.60498	121503744	89796608	28060160	24992
738	49.059371	123392000	89796608	30263864	24992
739	50.334483	123392000	89796608	34168552	24992
740	52.864919	123392000	89796608	38615352	24992
741	53.073349	123392000	89796608	43987600	24992
742	53.949223	123392000	89796608	49971168	24992
743	55.007239	123392000	89796608	56783872	24992
744	58.979041	123662336	89796608	52136272	24992
745	72.839451	124203008	90320896	60332392	24992
746	64.258541	122150912	88223744	37830528	24992
747	63.038549	122150912	88223744	35406976	24992
748	61.502735	122150912	88223744	45884744	24992
749	65.045978	122150912	88223744	44889760	24992
750	62.839465	122150912	88223744	56908080	24992
751	67.138	122150912	88223744	57442448	24992
752	69.485303	125124608	91369472	58836496	24992
753	91.907959	126423040	94515200	27816904	24992
754	70.611159	128311296	94515200	29862312	24992
755	70.057937	128311296	94515200	45645304	24992
756	73.529738	128311296	94515200	49932272	24992
757	74.512114	128311296	94515200	55003464	24992
758	74.933232	128311296	94515200	60936024	24992
759	79.477093	128851968	95039488	67483296	24992
760	102.437958	128425984	94515200	27675672	24992
761	79.316326	128425984	94515200	36009336	24992
762	80.631843	128425984	94515200	44874120	24992
763	82.139063	128425984	94515200	54531320	24992
764	86.612234	128425984	94515200	52811648	24992
765	84.149389	128425984	94515200	63940792	24992
766	111.382856	128339968	94515200	29778488	24992
767	88.120796	128339968	94515200	42612472	24992
768	91.026476	128339968	94515200	43945488	24992
769	88.619715	128339968	94515200	58246344	24992
770	92.470923	128339968	94515200	61075968	24992
771	109.944464	131584000	98185216	64759872	24992
772	101.411921	127492096	93466624	32689072	24992
773	96.627751	127492096	93466624	37800016	24992
774	94.88476	127492096	93466624	55909152	24992
775	98.442536	127492096	93466624	62638880	24992
776	123.609726	121692160	89796608	24513808	24992
777	103.296074	123580416	89796608	32053992	24992
778	103.016692	123580416	89796608	41118920	24992
779	104.115147	123580416	89796608	50906208	24992
780	108.07575	123580416	89796608	61495128	24992
781	134.29588	123125760	89272320	30003336	24992
782	111.864665	123125760	89272320	42182344	24992
783	109.466803	123125760	89272320	55156008	24992
784	109.659803	123666432	89796608	68957752	24992
785	138.379616	126881792	95039488	22439208	24992
786	115.572343	128770048	95039488	36822152	24992
787	117.221786	128770048	95039488	40817832	24992
788	115.407422	128770048	95039488	57800336	24992
789	136.007284	130392064	96612352	63450896	24992
790	133.474988	125399040	91369472	36590992	24992
791	122.345769	125399040	91369472	43719616	24992
792	119.465767	125399040	91369472	63662752	24992
793	132.307531	128643072	95039488	72344696	24992
794	144.541265	129441792	95563776	35754920	24992
795	127.571029	129441792	95563776	45898784	24992
796	127.570894	129441792	95563776	56932032	24992
797	150.282272	132685824	98709504	68708576	24992
798	136.526742	126955520	92942336	33926704	24992
799	131.242179	126955520	92942336	47250752	24992
800	133.075683	126955520	92942336	61501736	24992
801	158.960486	128008192	94515200	27848448	24992
802	2.674797	128548864	94515200	44380544	24992
803	3.970505	128548864	94515200	46788672	24992
804	7.433775	128548864	94515200	37112968	24992
805	6.43985	128548864	94515200	41151432	24992
806	8.06897	128548864	94515200	45965392	24992
807	10.447053	128548864	94515200	37143072	24992
808	10.210133	128548864	94515200	43581392	24992
809	11.895068	128548864	94515200	50835760	24992
810	13.389278	128548864	94515200	42447296	24992
811	15.069454	128548864	94515200	36171376	24992
812	15.310083	128548864	94515200	45834248	24992
813	17.629581	128548864	94515200	40684392	24992
814	19.086035	128548864	94515200	37114144	24992
815	19.243992	128548864	94515200	49205944	24992
816	21.16753	128548864	94515200	45940576	24992
817	22.556246	128548864	94515200	44067592	24992
818	24.055066	128548864	94515200	43277248	24992
819	25.876308	128548864	94515200	43410544	24992
820	26.622194	128548864	94515200	44333384	24992
821	28.770205	128548864	94515200	46005432	24992
822	29.755308	128548864	94515200	48186304	24992
823	30.25915	128548864	94515200	50869960	24992
824	33.339231	128548864	94515200	40040232	24992
825	33.968608	128548864	94515200	45567192	24992
826	34.741356	128548864	94515200	51067280	24992
827	38.19306	128548864	94515200	42670448	24992
828	37.398206	128548864	94515200	50312216	24992
829	39.696825	128548864	94515200	43851320	24992
830	42.028051	128548864	94515200	40090312	24992
831	42.739533	128548864	94515200	53238168	24992
832	44.332902	128548864	94515200	49473448	24992
833	48.73991	128548864	94515200	52118632	24992
834	50.856224	128548864	94515200	55483640	24992
835	53.48977	128548864	94515200	59686808	24992
836	71.690574	131792896	98185216	64690560	24992
837	56.224788	120729600	87175168	36639432	24992
838	55.371769	120729600	87175168	25388624	24992
839	56.122184	120729600	87175168	32894680	24992
840	57.49959	120729600	87175168	41210728	24992
841	59.975161	120729600	87175168	50394592	24992
842	63.704905	120729600	87175168	48498264	24992
843	61.766415	120999936	87175168	59342776	24992
844	67.49957	122081280	88223744	59065984	24992
845	90.763464	123371520	91369472	27070008	24992
846	67.450189	125259776	91369472	39927432	24992
847	70.701728	125259776	91369472	42125704	24992
848	70.658235	125259776	91369472	45058168	24992
849	72.665143	125259776	91369472	48897736	24992
850	75.231896	125259776	91369472	53568144	24992
851	80.076521	126341120	92418048	59131128	24992
852	94.165576	126283776	92418048	31284928	24992
853	78.170448	126283776	92418048	38593144	24992
854	79.290751	126283776	92418048	46768008	24992
855	80.061252	126283776	92418048	55798896	24992
856	88.768483	126283776	92418048	53394200	24992
857	88.159774	127094784	93466624	64163808	24992
858	105.869488	124764160	90845184	29737560	24992
859	85.930314	124764160	90845184	42154600	24992
860	89.792004	124764160	90845184	43183768	24992
861	88.379352	124764160	90845184	57452184	24992
862	93.255101	124764160	91369472	60218248	24992
863	119.97186	124805120	90845184	31927800	24992
864	95.034894	124805120	90845184	36549696	24992
865	94.466474	124805120	90845184	54232104	24992
866	97.709319	124805120	90845184	60752424	24992
867	100.01964	126427136	92418048	67876824	24992
868	125.748493	125825024	92418048	25213400	24992
869	101.870421	125825024	92418048	34376912	24992
870	103.034083	125825024	92418048	44303368	24992
871	105.209398	125825024	92418048	54976704	24992
872	130.400076	118145024	86126592	23386576	24992
873	108.298234	120033280	86126592	35564088	24992
874	108.638999	120033280	86126592	48880336	24992
875	114.271426	120033280	86126592	50928960	24992
876	116.804784	128143360	95563776	65997504	24992
877	134.999508	123727872	89796608	37302784	24992
878	117.878028	123727872	89796608	42088408	24992
879	117.378972	123727872	89796608	59883216	24992
880	122.461836	127512576	93990912	66290496	24992
881	145.590163	126234624	92418048	40418280	24992
882	122.931636	126234624	92418048	48684592	24992
883	124.042166	126234624	92418048	57749000	24992
884	126.792535	130289664	96612352	67819472	24992
885	152.702319	124424192	90845184	25861488	24992
886	128.089942	124424192	90845184	37587976	24992
887	129.532283	124424192	90845184	50241200	24992
888	136.883496	125235200	91369472	63831736	24992
889	155.742202	123138048	89272320	36479376	24992
890	134.910912	123138048	89272320	51876936	24992
891	135.192471	123138048	89272320	68113912	24992
892	163.514952	126693376	95039488	36694936	24992
893	140.983338	128581632	95039488	41638336	24992
894	142.797615	128581632	95039488	48338936	24992
895	150.075015	129122304	95563776	68197904	24992
896	166.828919	122646528	88748032	45799336	24992
897	148.936889	122646528	88748032	55311856	24992
898	149.246666	127512576	93990912	65717352	24992
899	173.840858	128471040	95039488	26058840	24992
900	152.870155	128471040	95039488	38188520	24992
901	153.336293	129011712	95039488	51275016	24992
902	2.842034	123330560	89272320	33159304	24992
903	4.237732	123330560	89272320	35901744	24992
904	8.268631	123330560	89272320	26606816	24992
905	7.164983	123330560	89272320	31189056	24992
906	8.711395	123330560	89272320	36661448	24992
907	11.249207	123330560	89272320	28176696	24992
908	11.527867	123330560	89272320	35498384	24992
909	13.738117	123330560	89272320	28200056	24992
910	14.394193	123330560	89272320	37352144	24992
911	16.462856	123330560	89272320	31635056	24992
912	18.289912	123330560	89272320	27732104	24992
913	18.707647	123330560	89272320	39629176	24992
914	21.192614	123330560	89272320	36280864	24992
915	22.754276	123330560	89272320	34392560	24992
916	23.92503	123330560	89272320	33722560	24992
917	25.488654	123330560	89272320	34127504	24992
918	26.771967	123330560	89272320	35322528	24992
919	28.61374	123330560	89272320	37279224	24992
920	29.652237	123330560	89272320	39906672	24992
921	32.763722	123330560	89272320	29296576	24992
922	34.435955	123330560	89272320	37513440	24992
923	34.239551	123330560	89272320	43410152	24992
924	36.652012	123330560	89272320	35410192	24992
925	37.236097	123330560	89272320	43338928	24992
926	39.896668	123330560	89272320	37186560	24992
927	44.532342	123330560	89272320	37839768	24992
928	46.734486	123330560	89272320	39238376	24992
929	44.954056	123330560	89272320	53793176	24992
930	45.596816	123330560	89272320	51564120	24992
931	50.26111	123330560	89272320	55868240	24992
932	51.811392	123330560	89272320	60932088	24992
933	58.113549	123600896	89796608	66933320	24992
934	71.047504	119664640	85602304	27415040	24992
935	55.93227	119664640	85602304	35434984	24992
936	60.599341	119664640	85602304	31997888	24992
937	58.951246	119664640	85602304	41702008	24992
938	60.365517	119664640	85602304	52475328	24992
939	65.524343	119664640	85602304	51994136	24992
940	70.128865	120205312	86126592	52405184	24992
941	84.227581	118386688	86650880	35166200	24992
942	68.776403	120274944	86650880	37111752	24992
943	70.465981	120274944	86650880	40323976	24992
944	71.605301	120274944	86650880	44554272	24992
945	73.964955	120274944	86650880	49721288	24992
946	76.369074	121085952	87175168	55770440	24992
947	93.256722	127033344	93466624	62868832	24992
948	83.83195	124215296	90320896	36106784	24992
949	84.117855	124215296	90320896	32751800	24992
950	81.979262	124215296	90320896	42621520	24992
951	82.331435	124215296	90320896	53476976	24992
952	91.571848	125026304	91369472	53103880	24992
953	106.083113	120184832	86126592	35266256	24992
954	90.44044	120184832	86126592	36904896	24992
955	88.352919	120184832	86126592	51499320	24992
956	92.527093	120184832	86126592	55015912	24992
957	96.226955	124510208	90845184	59420560	24992
958	123.5562	127205376	93466624	32981280	24992
959	97.60805	127205376	93466624	39335192	24992
960	98.810685	127205376	93466624	46628040	24992
961	101.518772	127205376	93466624	54866672	24992
962	102.400391	128557056	95039488	64068664	24992
963	129.818419	126509056	92942336	39918472	24992
964	106.710233	126509056	92942336	38955760	24992
965	106.8675	126509056	92942336	51045544	24992
966	107.490274	126509056	92942336	64085144	24992
967	117.447517	133267456	99758080	65920144	24992
968	133.259824	131231744	97660928	32435512	24992
969	112.939601	131231744	97660928	48391728	24992
970	118.350905	131231744	97660928	53177528	24992
971	116.955031	131231744	97660928	71094624	24992
972	140.297687	124653568	90845184	26998024	24992
973	121.580416	124653568	90845184	34739072	24992
974	123.083446	124653568	90845184	43280016	24992
975	132.800257	124923904	91369472	52840864	24992
976	142.992038	121040896	87175168	34597104	24992
977	130.621321	121040896	87175168	46128144	24992
978	131.062143	121581568	87699456	58715688	24992
979	158.4886	126124032	94515200	24518816	24992
980	134.165852	128552960	94515200	38315456	24992
981	133.033576	128552960	94515200	53703480	24992
982	138.147995	129093632	95563776	58122080	24992
983	159.553287	119537664	85602304	25785056	24992
984	138.497693	119537664	85602304	44323520	24992
985	141.519233	119537664	85602304	51444792	24992
986	169.189962	121073664	89272320	28383272	24992
987	145.839423	122961920	89272320	37172272	24992
988	147.442308	122961920	89272320	59669016	24992
989	151.282956	127287296	93466624	70704112	24992
990	181.725237	129589248	95563776	38523816	24992
991	153.174377	129589248	95563776	51657424	24992
992	155.052278	130129920	96612352	65814032	24992
993	180.549328	128069632	94515200	27287424	24992
994	156.952591	128069632	94515200	43510640	24992
995	158.636868	128069632	94515200	60736704	24992
996	186.403767	122044416	90320896	32822040	24992
997	161.624719	123932672	90320896	51372248	24992
998	165.505606	123932672	90320896	59408840	24992
999	193.481864	130080768	98185216	33800808	24992
1000	170.428992	131969024	98185216	42843096	24992
x	Duration	RSS	HeapTotal	HeapUsed	External
0	NA	125997056	91893760	37689784	24992
1	0.450489	125997056	91893760	37738400	24992
2	0.457104	125997056	91893760	37814704	24992
3	0.505608	125997056	91893760	37917992	24992
4	0.581037	125997056	91893760	38049776	24992
5	0.691136	125997056	91893760	38211560	24992
6	0.804176	125997056	91893760	38403784	24992
7	0.987194	125997056	91893760	38627504	24992
8	0.422753	125997056	91893760	38883544	24992
9	0.457035	125997056	91893760	39173928	24992
10	0.507252	125997056	91893760	39499256	24992
11	0.561156	125997056	91893760	39860504	24992
12	0.62376	125997056	91893760	40258664	24992
13	0.671754	125997056	91893760	40694624	24992
14	0.764343	125997056	91893760	41169416	24992
15	0.793549	125997056	91893760	41684016	24992
16	0.850447	125997056	91893760	42239432	24992
17	4.337506	125997056	91893760	30547936	24992
18	1.199996	125997056	91893760	31190768	24992
19	1.053555	125997056	91893760	31877352	24992
20	1.096365	125997056	91893760	32608592	24992
21	1.243792	125997056	91893760	33386544	24992
22	1.281664	125997056	91893760	34210848	24992
23	1.294834	125997056	91893760	35083016	24992
24	1.364324	125997056	91893760	36005320	24992
25	1.458872	125997056	91893760	36978512	24992
26	1.512782	125997056	91893760	38003824	24992
27	1.657656	125997056	91893760	39082008	24992
28	1.679576	125997056	91893760	40214128	24992
29	1.76015	125997056	91893760	41401264	24992
30	1.869637	125997056	91893760	42644136	24992
31	1.941914	125997056	91893760	43943848	24992
32	2.076134	125997056	91893760	45304080	24992
33	4.498687	125997056	91893760	31972296	24992
34	2.265453	126267392	91893760	33455744	24992
35	2.300772	126267392	91893760	35000024	24992
36	2.4189	126267392	91893760	36606088	24992
37	2.497673	126267392	91893760	38274912	24992
38	2.597961	126267392	91893760	40007400	24992
39	2.696025	126267392	91893760	41805008	24992
40	3.40142	126267392	91893760	43668584	24992
41	3.172028	126267392	91893760	45607136	24992
42	4.458777	126267392	91893760	31524584	24992
43	3.377716	126267392	91893760	33590512	24992
44	3.441443	126267392	91893760	35725984	24992
45	3.566163	126267392	91893760	37933808	24992
46	3.679428	126267392	91893760	40212784	24992
47	3.617495	126267392	91893760	42565520	24992
48	3.809819	126267392	91893760	44991832	24992
49	3.932253	126267392	91893760	47493272	24992
50	5.425962	126267392	91893760	33793264	24992
51	4.057481	126267392	91893760	36452856	24992
52	4.22854	126267392	91893760	39193616	24992
53	4.462321	126267392	91893760	42014560	24992
54	4.391422	126267392	91893760	44917568	24992
55	4.499485	126267392	91893760	47903632	24992
56	6.757424	126267392	91893760	34671064	24992
57	5.302858	126267392	91893760	37834512	24992
58	5.107354	126267392	91893760	41084720	24992
59	4.960913	126267392	91893760	44413712	24992
60	5.299273	126267392	91893760	47829904	24992
61	6.943591	126267392	91893760	35043392	24992
62	5.359734	126267392	91893760	38638384	24992
63	5.559705	126267392	91893760	42324768	24992
64	5.856206	126267392	91893760	46103768	24992
65	7.20814	126267392	91893760	34140184	24992
66	6.399786	126267392	91893760	38112680	24992
67	7.195717	126267392	91893760	42189424	24992
68	6.697605	126267392	91893760	46352360	24992
69	8.46758	126267392	91893760	35015192	24992
70	6.581737	126267392	91893760	39374320	24992
71	6.841481	126267392	91893760	43830600	24992
72	6.848556	126267392	91893760	48386496	24992
73	8.932485	126267392	91893760	37248288	24992
74	7.361135	126267392	91893760	42006544	24992
75	7.243485	126267392	91893760	46867392	24992
76	9.226804	126267392	91893760	36259760	24992
77	8.140755	126267392	91893760	41328744	24992
78	7.843076	126267392	91893760	46504392	24992
79	9.695088	126267392	91893760	36292984	24992
80	8.03146	126267392	91893760	41684176	24992
81	8.523888	126267392	91893760	47182952	24992
82	10.614913	126267392	91893760	37255584	24992
83	8.839738	126267392	91893760	42973880	24992
84	9.156375	126267392	91893760	48805912	24992
85	10.877456	126267392	91893760	39022944	24992
86	9.139366	126267392	91893760	45080728	24992
87	9.468484	126267392	91893760	51254680	24992
88	12.128123	126267392	91893760	41640512	24992
89	9.601658	126267392	91893760	48048440	24992
90	12.130328	126267392	91893760	39044480	24992
91	10.789262	126267392	91893760	45689384	24992
92	10.927037	126267392	91893760	52456768	24992
93	12.073483	126267392	91893760	43394760	24992
94	10.522751	126267392	91893760	50404704	24992
95	12.511543	126267392	91893760	41763760	24992
96	10.966059	126267392	91893760	49022872	24992
97	13.228965	126267392	91893760	40933104	24992
98	11.347051	126267392	91893760	48441072	24992
99	14.251777	126267392	91893760	40662264	24992
100	12.725693	126267392	91893760	48426056	24992
101	14.496394	126267392	91893760	40972576	24992
102	0.447725	126267392	91893760	48813288	24992
103	0.63296	126267392	91893760	49216880	24992
104	0.828782	126267392	91893760	49756640	24992
105	1.029145	126267392	91893760	50433552	24992
106	1.232932	126267392	91893760	51249000	24992
107	1.433789	126267392	91893760	52203416	24992
108	1.640603	126267392	91893760	53297840	24992
109	3.667746	126267392	91893760	38647152	24992
110	2.060054	126267392	91893760	40025912	24992
111	2.273421	126267392	91893760	41550096	24992
112	2.466857	126267392	91893760	43215320	24992
113	2.687755	126267392	91893760	45027656	24992
114	3.308339	126267392	91893760	46985832	24992
115	3.224962	126267392	91893760	49089960	24992
116	3.352221	126267392	91893760	51340680	24992
117	3.551741	126267392	91893760	53740216	24992
118	5.760803	126267392	91893760	40271152	24992
119	4.056728	126267392	91893760	42973264	24992
120	4.672391	126267392	91893760	45827192	24992
121	4.438743	126267392	91893760	48838088	24992
122	4.667602	126267392	91893760	51999848	24992
123	6.993243	126267392	91893760	39585600	24992
124	5.138737	126267392	91893760	43056184	24992
125	5.588029	126267392	91893760	46683440	24992
126	5.611887	126267392	91893760	50468144	24992
127	6.071404	126267392	91893760	54411344	24992
128	7.651774	126267392	91893760	42392528	24992
129	6.321886	126267392	91893760	46655984	24992
130	6.789727	126267392	91893760	51084384	24992
131	8.680017	126267392	91893760	40126784	24992
132	7.340892	126267392	91893760	44881048	24992
133	7.315433	126267392	91893760	49799048	24992
134	7.569488	126267392	91893760	54886448	24992
135	9.678312	126267392	91893760	43974472	24992
136	8.400065	126267392	91893760	49396008	24992
137	8.606239	126267392	91893760	54986072	24992
138	10.493092	126267392	91893760	44616720	24992
139	8.934152	126267392	91893760	50547416	24992
140	11.377633	126267392	91893760	41245512	24992
141	9.581269	126267392	91893760	47518600	24992
142	9.649344	126267392	91893760	53971928	24992
143	12.032531	126267392	91893760	44639600	24992
144	10.418047	126267392	91893760	51442088	24992
145	12.482796	126267392	91893760	42949104	24992
146	10.928413	126267392	91893760	50107008	24992
147	13.333743	126267392	91893760	42210472	24992
148	11.278575	126267392	91893760	49730336	24992
149	14.417363	126267392	91893760	42284968	24992
150	12.323125	126267392	91893760	50168992	24992
151	14.645618	126267392	91893760	43048808	24992
152	12.94228	126267392	91893760	51304096	24992
153	15.053151	126267392	91893760	44407192	24992
154	13.207242	126267392	91893760	53037008	24992
155	15.872832	126267392	91893760	46229624	24992
156	13.515536	126267392	91893760	55232864	24992
157	15.972556	126267392	91893760	48456600	24992
158	17.058143	126267392	91893760	43007568	24992
159	15.246578	126267392	91893760	52581528	24992
160	17.116121	126267392	91893760	46851808	24992
161	15.166455	126267392	91893760	56811952	24992
162	17.373187	126267392	91893760	50847376	24992
163	18.272738	126267392	91893760	46073328	24992
164	16.255568	126267392	91893760	56622568	24992
165	18.614412	126267392	91893760	51261240	24992
166	19.764685	126267392	91893760	47078080	24992
167	17.315009	126267392	91893760	58228328	24992
168	19.50313	126267392	91893760	53309608	24992
169	20.184298	126267392	91893760	49421960	24992
170	21.814459	126267392	91893760	46416960	24992
171	19.21156	126267392	91893760	58379648	24992
172	20.419946	126267392	91893760	54310376	24992
173	21.613828	126267392	91893760	51153016	24992
174	22.654719	126267392	91893760	48713808	24992
175	23.147055	126267392	91893760	46936344	24992
176	20.65086	126267392	91893760	59928496	24992
177	22.717892	126267392	91893760	56829344	24992
178	23.058242	126267392	91893760	54420424	24992
179	23.583023	126267392	91893760	52635992	24992
180	24.506198	126267392	91893760	51339808	24992
181	24.799373	126267392	91893760	50501592	24992
182	26.015326	126267392	91893760	50057368	24992
183	25.63778	126267392	91893760	49930072	24992
184	26.701186	126267392	91893760	50083448	24992
185	27.475063	126267392	91893760	50460520	24992
186	27.013411	126267392	91893760	51001712	24992
187	27.620622	126267392	91893760	51696000	24992
188	27.396437	126267392	91893760	52517080	24992
189	27.619399	126267392	91893760	53422744	24992
190	28.114132	126267392	91893760	54439384	24992
191	28.677061	126267392	91893760	55532144	24992
192	29.089105	126267392	91893760	56681304	24992
193	28.793706	126267392	91893760	57869400	24992
194	29.041106	126267392	91893760	59122320	24992
195	29.175102	126267392	91893760	60418456	24992
196	29.498336	126267392	91893760	61740992	24992
197	29.485446	126267392	91893760	63090064	24992
198	34.06549	126267392	91893760	50912440	24992
199	31.884467	126267392	91893760	54664144	24992
200	32.387592	126267392	91893760	58034336	24992
201	31.847527	126267392	91893760	61067256	24992
202	0.791475	126267392	91893760	63809624	24992
203	3.342849	126267392	91893760	48267896	24992
204	1.475969	126267392	91893760	49205024	24992
205	1.796851	126267392	91893760	50378584	24992
206	2.200519	126267392	91893760	51790048	24992
207	2.588231	126267392	91893760	53452400	24992
208	2.971289	126267392	91893760	55358088	24992
209	3.319982	126267392	91893760	57512472	24992
210	3.985434	126267392	91893760	59917344	24992
211	4.430069	126267392	91893760	62575680	24992
212	7.228928	126267392	91893760	49439736	24992
213	5.226257	126267392	91893760	52610112	24992
214	5.468424	126267392	91893760	56028632	24992
215	5.939456	126267392	91893760	59695864	24992
216	6.273506	126267392	91893760	63618416	24992
217	9.423841	126267392	91893760	51651104	24992
218	7.19629	126267392	91893760	56090088	24992
219	7.454107	126267392	91893760	60787304	24992
220	10.728471	126267392	91893760	50078120	24992
221	8.350561	126267392	91893760	55295336	24992
222	8.906891	126267392	91893760	60773560	24992
223	12.113457	126267392	91893760	50851200	24992
224	9.61097	126267392	91893760	56855056	24992
225	10.533296	126267392	91893760	63136776	24992
226	13.711351	126267392	91893760	53621864	24992
227	11.359905	126267392	91893760	60423984	24992
228	14.224071	126267392	91893760	51918576	24992
229	11.639458	126267392	91893760	59259392	24992
230	15.458396	126267392	91893760	51514608	24992
231	12.525683	126267392	91893760	59401240	24992
232	15.928914	126267392	91893760	52212608	24992
233	13.478539	126267392	91893760	60646040	24992
234	17.059205	126267392	91893760	53787848	24992
235	14.392751	126267392	91893760	62791728	24992
236	17.82411	126267392	91893760	56132840	24992
237	15.346894	126267392	91893760	65681848	24992
238	17.779454	126267392	91893760	59180736	24992
239	19.579313	126267392	91893760	54014376	24992
240	16.736347	126267392	91893760	64409592	24992
241	19.815405	126267392	91893760	58951800	24992
242	21.292054	126267392	91893760	54723688	24992
243	18.059524	126267392	91893760	65971656	24992
244	20.776205	126267392	91893760	61138952	24992
245	22.109161	126267392	91893760	57430552	24992
246	22.951645	126267392	91893760	54646104	24992
247	23.655032	126267392	91893760	52631136	24992
248	20.567237	126267392	91893760	65310968	24992
249	23.381273	126267392	91893760	62096448	24992
250	24.27416	126267392	91893760	59738920	24992
251	25.625775	126267392	91893760	58045680	24992
252	26.671115	126267392	91893760	56942976	24992
253	27.736843	126267392	91893760	56377200	24992
254	27.651769	126267392	91893760	56198120	24992
255	27.871219	126267392	91893760	56371640	24992
256	28.392302	126267392	91893760	56849304	24992
257	28.698085	126267392	91893760	57552216	24992
258	29.316617	126267392	91893760	58449448	24992
259	30.556603	126267392	91893760	59537264	24992
260	29.815125	126267392	91893760	60718656	24992
261	30.389425	126267392	91893760	62028136	24992
262	30.742403	126267392	91893760	63436112	24992
263	31.317689	126267392	91893760	64895560	24992
264	31.401118	126267392	91893760	66463824	24992
265	31.842891	126267392	91893760	68048896	24992
266	36.884884	126267392	91893760	56142032	24992
267	34.313647	126267392	91893760	60194904	24992
268	34.345414	126267392	91893760	63885000	24992
269	35.321166	126267392	91893760	67234736	24992
270	39.821356	126267392	91893760	56920680	24992
271	39.211603	126808064	92942336	65096816	24992
272	36.538599	127348736	92942336	69970336	24992
273	41.661804	127348736	92942336	60811024	24992
274	41.987721	129511424	95563776	69905072	24992
275	50.64179	130052096	96088064	75539928	24992
276	45.331978	122220544	88223744	18580168	24992
277	40.144507	122220544	88223744	28589392	24992
278	40.139738	122220544	88223744	21686928	24992
279	40.084792	122220544	88223744	32292008	24992
280	40.567649	122220544	88223744	25924056	24992
281	43.161871	122220544	88223744	37159328	24992
282	41.050355	122220544	88223744	31114888	24992
283	46.653355	122220544	88223744	31227056	24992
284	42.967812	122220544	88223744	43206184	24992
285	43.558937	122220544	88223744	38354968	24992
286	48.729757	123031552	88748032	39388960	24992
287	46.004559	123031552	88748032	52355240	24992
288	52.817775	123031552	88748032	48109024	24992
289	68.331255	114454528	80359424	21352608	24992
290	47.511994	114454528	80359424	35590216	24992
291	47.09915	114454528	80359424	31836968	24992
292	47.466472	114454528	80359424	29559560	24992
293	51.993826	114454528	80359424	32879456	24992
294	52.09687	114454528	80359424	36356968	24992
295	53.09794	114454528	80359424	40127056	24992
296	54.258046	114454528	80359424	44262584	24992
297	54.096588	115265536	81408000	48734416	24992
298	62.256039	120131584	86126592	53578016	24992
299	75.067127	118554624	86126592	29030920	24992
300	55.6671	120172544	86126592	33724976	24992
301	56.107078	120172544	86126592	39513168	24992
302	1.162698	120172544	86126592	45810968	24992
303	1.632128	120172544	86126592	46838552	24992
304	2.17914	120172544	86126592	48212800	24992
305	7.187414	120172544	86126592	37728696	24992
306	3.350285	120172544	86126592	39792792	24992
307	3.847423	120172544	86126592	42203216	24992
308	4.588609	120172544	86126592	44963776	24992
309	4.995018	120172544	86126592	48071248	24992
310	8.165477	120172544	86126592	37328592	24992
311	6.123835	120172544	86126592	41145592	24992
312	6.722354	120172544	86126592	45306896	24992
313	7.407844	120172544	86126592	49823384	24992
314	8.382416	120172544	86126592	38737488	24992
315	8.571195	120172544	86126592	43960848	24992
316	8.957197	120172544	86126592	49539448	24992
317	10.352396	120172544	86126592	39548752	24992
318	10.038396	120172544	86126592	45854312	24992
319	10.606449	120172544	86126592	52514400	24992
320	11.59403	120172544	86126592	43089960	24992
321	12.187256	120172544	86126592	50468608	24992
322	13.317048	120172544	86126592	42124824	24992
323	12.931936	120172544	86126592	50223280	24992
324	14.580943	120172544	86126592	42630088	24992
325	14.294436	120172544	86126592	51470088	24992
326	15.6165	120172544	86126592	44411416	24992
327	16.991293	120172544	86126592	38967016	24992
328	16.202063	120172544	86126592	48907864	24992
329	18.041895	120172544	86126592	43431656	24992
330	18.783913	120172544	86126592	39303480	24992
331	18.037425	120172544	86126592	50358488	24992
332	19.391434	120172544	86126592	45724696	24992
333	20.152814	120172544	86126592	42309528	24992
334	21.738541	120172544	86126592	39888248	24992
335	20.827295	120172544	86126592	52440072	24992
336	21.388248	120172544	86126592	48984104	24992
337	22.771345	120172544	86126592	46528728	24992
338	23.813036	120172544	86126592	44879224	24992
339	24.35019	120172544	86126592	43882584	24992
340	25.698934	120172544	86126592	43454224	24992
341	26.253187	120172544	86126592	43509800	24992
342	26.172184	120172544	86126592	43952360	24992
343	26.771465	120172544	86126592	44691024	24992
344	27.461572	120172544	86126592	45656272	24992
345	28.165979	120172544	86126592	46850080	24992
346	28.966943	120172544	86126592	48195976	24992
347	29.697373	120172544	86126592	49694896	24992
348	29.142227	120172544	86126592	51330992	24992
349	30.450107	120172544	86126592	53084136	24992
350	32.687567	120172544	86126592	41399208	24992
351	33.029168	120172544	86126592	45734288	24992
352	32.434641	120172544	86126592	49660248	24992
353	33.686922	120172544	86126592	53299592	24992
354	35.766777	120172544	86126592	43180256	24992
355	35.191638	120172544	86126592	48804288	24992
356	34.873417	120172544	86126592	53772520	24992
357	37.675848	120172544	86126592	44767784	24992
358	37.994647	120172544	86126592	51369840	24992
359	39.843533	120172544	86126592	43963784	24992
360	41.636256	120172544	86126592	54827048	24992
361	41.13039	120713216	86650880	48686536	24992
362	42.282815	120983552	86650880	60367936	24992
363	42.084564	120983552	86650880	54695344	24992
364	43.333303	120983552	86650880	50792000	24992
365	43.934291	120983552	86650880	63527416	24992
366	48.455233	120983552	86650880	59120224	24992
367	69.445747	120020992	87699456	30121928	24992
368	51.008402	121909248	87699456	31347512	24992
369	52.115207	121909248	87699456	33871568	24992
370	52.965501	121909248	87699456	36863464	24992
371	53.104852	121909248	87699456	40197456	24992
372	54.088079	121909248	87699456	44045336	24992
373	54.016461	121909248	87699456	48192560	24992
374	59.801619	121909248	87699456	52856568	24992
375	72.94115	120315904	88223744	28202912	24992
376	56.83627	122204160	88223744	32797160	24992
377	57.093053	122204160	88223744	38669536	24992
378	58.010494	122204160	88223744	44946568	24992
379	58.538216	122204160	88223744	51648816	24992
380	64.321228	122204160	88223744	47264168	24992
381	60.431718	122474496	88223744	54773704	24992
382	65.760629	124366848	90320896	62717480	24992
383	81.62915	123772928	89796608	26704768	24992
384	61.830098	123772928	89796608	35690432	24992
385	63.205726	123772928	89796608	44912048	24992
386	68.423271	123772928	89796608	43066776	24992
387	64.08285	123772928	89796608	53120224	24992
388	69.928795	124583936	90320896	52097840	24992
389	70.448153	124854272	90845184	62989016	24992
390	87.130215	123285504	89272320	30667552	24992
391	71.644268	123285504	89272320	31144384	24992
392	68.122441	123285504	89272320	43435072	24992
393	72.690493	123285504	89272320	44720600	24992
394	68.289854	123285504	89272320	58004000	24992
395	74.418161	124096512	89796608	60111448	24992
396	100.840236	122630144	90320896	32644968	24992
397	74.876788	124518400	90320896	34558248	24992
398	71.890331	124518400	90320896	49384184	24992
399	76.796325	124518400	90320896	53111736	24992
400	76.825489	124518400	90320896	57275704	24992
401	78.048439	124788736	90845184	61903496	24992
402	1.534619	123613184	91369472	20491136	24992
403	2.349438	123613184	91369472	21825800	24992
404	3.193503	123613184	91369472	23609808	24992
405	4.089682	123613184	91369472	25836440	24992
406	4.575458	123613184	91369472	28526600	24992
407	5.281927	123613184	91369472	31651056	24992
408	5.907891	123613184	91369472	35239864	24992
409	7.342072	125501440	91369472	23140200	24992
410	7.125492	125501440	91369472	27619296	24992
411	7.939162	125501440	91369472	32550040	24992
412	9.368504	125501440	91369472	22038408	24992
413	9.243831	125501440	91369472	27878352	24992
414	10.10594	125501440	91369472	34173784	24992
415	11.488366	125501440	91369472	24721544	24992
416	11.844295	125501440	91369472	31942176	24992
417	13.087937	125501440	91369472	23864856	24992
418	12.750198	125501440	91369472	32027952	24992
419	14.748759	125501440	91369472	24843944	24992
420	14.822784	125501440	91369472	33968200	24992
421	16.008697	125501440	91369472	27415472	24992
422	17.322445	125501440	91369472	22518664	24992
423	17.022687	125501440	91369472	33101240	24992
424	19.288117	125501440	91369472	28156136	24992
425	20.170644	125501440	91369472	24561768	24992
426	21.035846	125501440	91369472	22079416	24992
427	20.321553	125501440	91369472	34575744	24992
428	21.148544	125501440	91369472	31348384	24992
429	22.710451	125501440	91369472	29135752	24992
430	23.364653	125501440	91369472	27816480	24992
431	24.6168	125501440	91369472	27226512	24992
432	29.623019	125501440	91369472	27241328	24992
433	27.118702	125501440	91369472	27745680	24992
434	26.639595	125501440	91369472	28653184	24992
435	27.47693	125501440	91369472	29924040	24992
436	28.665929	125501440	91369472	31479744	24992
437	29.337929	125501440	91369472	33196280	24992
438	29.353775	125501440	91369472	35121024	24992
439	32.372088	125501440	91369472	23806232	24992
440	34.575357	125501440	91369472	31343912	24992
441	33.769497	125501440	91369472	35754456	24992
442	35.972199	125501440	91369472	26701288	24992
443	37.063008	125501440	91369472	35684448	24992
444	34.969853	125501440	91369472	41344512	24992
445	37.470662	125501440	91369472	33100736	24992
446	39.44639	125501440	91369472	43637864	24992
447	39.743101	125501440	91369472	37193688	24992
448	41.28965	125501440	91369472	48739904	24992
449	40.861607	125501440	91369472	43016896	24992
450	43.693233	125501440	91369472	39198208	24992
451	44.148307	125501440	91369472	52099512	24992
452	44.238808	125501440	91369472	47794392	24992
453	49.484533	125501440	91369472	50156312	24992
454	50.185436	125501440	91369472	52703336	24992
455	56.616396	126042112	91893760	55785208	24992
456	69.216207	124284928	91893760	27367856	24992
457	52.45146	126173184	91893760	30556632	24992
458	54.271563	126173184	91893760	35183800	24992
459	53.559423	126173184	91893760	40263024	24992
460	54.898853	126173184	91893760	45863960	24992
461	56.041245	126173184	91893760	52022944	24992
462	57.231119	126173184	91893760	58700936	24992
463	59.084603	126173184	91893760	65824784	24992
464	85.550364	124235776	91893760	29605544	24992
465	59.890532	126124032	91893760	37068768	24992
466	64.420335	126124032	91893760	34126048	24992
467	61.516911	126124032	91893760	43408824	24992
468	62.166964	126124032	91893760	53213712	24992
469	67.33831	126124032	91893760	51888608	24992
470	64.440011	126124032	91893760	62887848	24992
471	91.585328	124669952	92418048	30893416	24992
472	68.583173	126558208	92418048	30405776	24992
473	66.286714	126558208	92418048	42950976	24992
474	70.957023	126558208	92418048	44222648	24992
475	68.599981	126558208	92418048	57765792	24992
476	73.66892	126558208	92418048	60227048	24992
477	80.182127	128450560	94515200	63039768	24992
478	91.713135	128806912	95039488	31396936	24992
479	75.975515	128806912	95039488	35690512	24992
480	76.125511	128806912	95039488	40213272	24992
481	76.282491	128806912	95039488	45229592	24992
482	72.659399	128806912	95039488	62441192	24992
483	81.609718	129347584	95039488	68527456	24992
484	106.994197	125718528	91893760	30316608	24992
485	80.042381	125718528	91893760	37779216	24992
486	80.338349	125718528	91893760	45469056	24992
487	84.145451	125718528	91893760	53928336	24992
488	80.930731	125718528	91893760	62698264	24992
489	93.150537	128692224	94515200	72138344	24992
490	101.51149	128352256	93990912	34707376	24992
491	85.71173	128352256	93990912	45096696	24992
492	89.961536	128352256	93990912	44496376	24992
493	86.95775	128352256	93990912	55989328	24992
494	88.661912	128352256	93990912	68120992	24992
495	119.457868	125403136	91369472	35917200	24992
496	93.452238	125403136	91369472	37603992	24992
497	89.864593	125403136	91369472	51307464	24992
498	96.3189	125403136	91369472	53945656	24992
499	94.152254	127836160	93990912	68839600	24992
500	121.550207	129347584	95563776	38034424	24992
501	100.017632	129347584	95563776	42448488	24992
502	1.741344	129347584	95563776	47862592	24992
503	2.652504	129347584	95563776	49537896	24992
504	3.668271	129347584	95563776	51773472	24992
505	4.61552	129347584	95563776	54569968	24992
506	5.602934	129347584	95563776	57939272	24992
507	8.489862	129347584	95563776	48282752	24992
508	6.795088	129347584	95563776	52768496	24992
509	8.001801	129347584	95563776	57823016	24992
510	9.747031	129347584	95563776	47855352	24992
511	9.629523	129347584	95563776	54039760	24992
512	10.641728	129347584	95563776	60791816	24992
513	12.368481	129347584	95563776	52023184	24992
514	12.422479	129347584	95563776	59919528	24992
515	14.092815	129347584	95563776	52430976	24992
516	14.228396	129347584	95563776	61468192	24992
517	15.635115	129347584	95563776	54884248	24992
518	17.419204	129347584	95563776	50023400	24992
519	16.956296	129347584	95563776	60790632	24992
520	18.687698	129347584	95563776	56036168	24992
521	20.165475	129347584	95563776	52681336	24992
522	20.867219	129347584	95563776	50523792	24992
523	23.232117	129347584	95563776	49339496	24992
524	22.214735	129347584	95563776	62996440	24992
525	22.83078	129347584	95563776	60803600	24992
526	24.051346	129347584	95563776	59611504	24992
527	25.356961	129347584	95563776	59178072	24992
528	26.375894	129347584	95563776	59409336	24992
529	27.462676	129347584	95563776	60209144	24992
530	28.06817	129347584	95563776	61431848	24992
531	28.883544	129347584	95563776	63066920	24992
532	32.331198	129347584	95563776	51499712	24992
533	32.529809	129347584	95563776	56062560	24992
534	33.569278	129347584	95563776	60442400	24992
535	36.583616	129347584	95563776	51505816	24992
536	38.914573	129347584	95563776	60839168	24992
537	35.717549	129347584	95563776	66876568	24992
538	37.772772	129347584	95563776	58778440	24992
539	37.70864	129347584	95563776	66285000	24992
540	40.22306	129347584	95563776	59610360	24992
541	43.764667	129347584	95563776	55663728	24992
542	43.967677	129347584	95563776	68435912	24992
543	43.829648	129617920	95563776	64283848	24992
544	57.173252	131239936	97136640	66656280	24992
545	65.980829	126525440	94515200	34015176	24992
546	50.432039	128413696	94515200	35790840	24992
547	46.020483	128413696	94515200	33576976	24992
548	53.761086	128413696	94515200	38389200	24992
549	55.721335	128413696	94515200	43562120	24992
550	56.596145	128413696	94515200	49269992	24992
551	58.410492	128413696	94515200	55639480	24992
552	62.638736	128413696	94515200	51099152	24992
553	64.357795	128413696	94515200	58637792	24992
554	75.440037	123625472	91369472	35647080	24992
555	64.700435	125513728	91369472	31883728	24992
556	61.431046	125513728	91369472	41315048	24992
557	61.387443	125513728	91369472	51342656	24992
558	67.235484	125513728	91369472	50407472	24992
559	63.762246	125513728	91369472	61593168	24992
560	75.392352	127406080	93466624	61883480	24992
561	86.152206	127262720	93466624	29151520	24992
562	71.790444	127262720	93466624	30814440	24992
563	68.903256	127262720	93466624	44538192	24992
564	73.393503	127262720	93466624	47360912	24992
565	74.670584	127262720	93466624	50688576	24992
566	73.061051	127262720	93466624	66294848	24992
567	106.222499	124059648	89796608	26500936	24992
568	75.897617	124059648	89796608	43569632	24992
569	78.870662	124059648	89796608	49421128	24992
570	80.676717	124059648	89796608	56009056	24992
571	81.142006	124059648	89796608	63158032	24992
572	84.167182	127033344	92942336	70973112	24992
573	110.765897	128532480	94515200	33035464	24992
574	83.65918	128532480	94515200	42236600	24992
575	85.783853	128532480	94515200	51862104	24992
576	90.570417	128532480	94515200	50660656	24992
577	87.156804	128532480	94515200	61598824	24992
578	111.936849	124870656	92942336	25982456	24992
579	87.066002	126758912	92942336	36776184	24992
580	95.243268	126758912	92942336	38090776	24992
581	89.098016	126758912	92942336	51621656	24992
582	96.603578	126758912	92942336	54174080	24992
583	123.724054	122847232	91369472	39959144	24992
584	97.384486	125276160	91369472	43285872	24992
585	98.01418	125276160	91369472	47717232	24992
586	95.09402	125276160	91369472	64429120	24992
587	100.605583	130953216	97136640	70266160	24992
588	128.018681	127045632	92942336	23039696	24992
589	100.322284	127045632	92942336	41998888	24992
590	103.560302	127045632	92942336	49661048	24992
591	106.483808	127045632	92942336	57982720	24992
592	134.464951	122908672	90845184	23425904	24992
593	110.316828	125067264	90845184	32399312	24992
594	109.147031	125067264	90845184	42732584	24992
595	109.799998	125067264	90845184	53713968	24992
596	125.421384	129933312	95563776	65318232	24992
597	119.392135	125661184	91369472	42723728	24992
598	117.816168	125661184	91369472	44008632	24992
599	112.519934	125661184	91369472	57624856	24992
600	123.590821	129175552	95039488	71924768	24992
601	142.202767	128196608	93990912	40685992	24992
602	2.165041	128196608	93990912	45177080	24992
603	3.133517	128196608	93990912	47165368	24992
604	4.036812	128196608	93990912	49820400	24992
605	5.24452	128196608	93990912	53154264	24992
606	6.583375	128196608	93990912	57154216	24992
607	9.602823	128196608	93990912	47839520	24992
608	8.389038	128196608	93990912	53159536	24992
609	9.523363	128196608	93990912	59154568	24992
610	10.486448	128196608	93990912	49544168	24992
611	12.010416	128196608	93990912	56890488	24992
612	13.531207	128196608	93990912	48985000	24992
613	13.583103	128196608	93990912	57676168	24992
614	15.53574	128196608	93990912	51032576	24992
615	17.179763	128196608	93990912	46225288	24992
616	16.843032	128196608	93990912	56936488	24992
617	19.026654	128196608	93990912	52427672	24992
618	20.03649	128196608	93990912	49388008	24992
619	21.598149	128196608	93990912	47591096	24992
620	23.108059	128196608	93990912	46809304	24992
621	24.618739	128196608	93990912	46830880	24992
622	25.669297	128196608	93990912	47533872	24992
623	26.24442	128196608	93990912	48806432	24992
624	27.440263	128196608	93990912	50526944	24992
625	28.313576	128196608	93990912	52661984	24992
626	29.155528	128196608	93990912	55078512	24992
627	30.501832	128196608	93990912	57717912	24992
628	33.338236	128196608	93990912	47448496	24992
629	35.772757	128196608	93990912	55705384	24992
630	34.135166	128196608	93990912	60932104	24992
631	37.267263	128196608	93990912	52742544	24992
632	39.167726	128196608	93990912	63114784	24992
633	39.199308	128196608	93990912	56954632	24992
634	41.442424	128196608	93990912	68686080	24992
635	41.50594	128196608	93990912	63473680	24992
636	54.891714	130629632	96612352	64994448	24992
637	64.612261	126418944	94515200	31277744	24992
638	50.931632	128307200	94515200	32401088	24992
639	52.289442	128307200	94515200	35624912	24992
640	52.618773	128307200	94515200	39677664	24992
641	54.16811	128307200	94515200	44410560	24992
642	55.943966	128307200	94515200	49840432	24992
643	57.766744	128307200	94515200	55980008	24992
644	59.552573	128307200	94515200	62813368	24992
645	86.920372	122998784	91369472	27183064	24992
646	59.124678	125427712	91369472	34700856	24992
647	59.652841	125427712	91369472	43593280	24992
648	66.84724	125427712	91369472	41673480	24992
649	61.946116	125427712	91369472	52002360	24992
650	66.842893	125427712	91369472	51534600	24992
651	66.068622	125427712	91369472	63189360	24992
652	95.473664	127963136	96088064	31259520	24992
653	72.105428	129851392	96088064	32051368	24992
654	67.526087	129851392	96088064	45951592	24992
655	73.154756	129851392	96088064	49066800	24992
656	74.306448	129851392	96088064	52837600	24992
657	77.068921	130392064	96088064	57335984	24992
658	83.1608	130392064	96088064	74016744	24992
659	92.477318	127578112	93466624	31929200	24992
660	77.940349	127848448	93466624	38523072	24992
661	80.394839	127848448	93466624	45837920	24992
662	80.436696	127848448	93466624	54013696	24992
663	83.572553	127848448	93466624	62899064	24992
664	113.807774	125595648	91369472	28892808	24992
665	85.268979	125595648	91369472	39292096	24992
666	86.376899	125595648	91369472	50153704	24992
667	87.637929	125595648	91369472	61841648	24992
668	92.594347	126676992	92418048	62646760	24992
669	118.63575	125710336	93466624	27885648	24992
670	90.255582	127598592	93466624	40270392	24992
671	96.286525	127598592	93466624	43394600	24992
672	99.822951	127598592	93466624	47120184	24992
673	95.400615	127598592	93466624	63172512	24992
674	125.496775	124968960	90845184	37833048	24992
675	99.841778	124968960	90845184	43856272	24992
676	101.527121	125239296	90845184	50574200	24992
677	101.98939	125239296	91369472	58040872	24992
678	113.946895	132268032	98185216	77755552	24992
679	119.781954	128823296	94515200	37827864	24992
680	106.85416	128823296	94515200	47468680	24992
681	107.008638	128823296	94515200	57770992	24992
682	109.295288	128823296	94515200	68907912	24992
683	143.087247	125001728	90845184	36196248	24992
684	112.28695	125272064	90845184	48853992	24992
685	112.323359	125272064	90845184	62169752	24992
686	117.763316	130678784	96612352	64752304	24992
687	143.23571	127492096	93466624	27083736	24992
688	116.284739	127492096	93466624	42927344	24992
689	121.706004	127492096	93466624	47740296	24992
690	120.467306	127492096	93466624	64886056	24992
691	154.808322	125169664	90845184	41627096	24992
692	124.751574	125169664	90845184	48629064	24992
693	120.921698	125169664	90845184	67985800	24992
694	130.872831	134361088	100282368	76529216	24992
695	164.474078	134520832	100282368	37284344	24992
696	130.123492	134520832	100282368	47445384	24992
697	126.295787	134520832	100282368	69748096	24992
698	146.479307	136683520	102903808	81252088	24992
699	150.646892	129425408	95039488	43666984	24992
700	139.280813	129425408	95039488	56779240	24992
701	135.911348	129425408	95039488	70616136	24992
702	2.546653	129748992	95563776	34550576	24992
703	3.618366	129748992	95563776	36842824	24992
704	8.433893	129748992	95563776	27935896	24992
705	6.069609	129748992	95563776	31760736	24992
706	7.183087	129748992	95563776	36349352	24992
707	10.563835	129748992	95563776	27470568	24992
708	9.349794	129748992	95563776	33586280	24992
709	10.802126	129748992	95563776	40473488	24992
710	12.916517	129748992	95563776	31831872	24992
711	13.314083	129748992	95563776	40238352	24992
712	14.951479	129748992	95563776	33219440	24992
713	17.190904	129748992	95563776	28203568	24992
714	16.947265	129748992	95563776	38933440	24992
715	18.557772	129748992	95563776	34395952	24992
716	21.101122	129748992	95563776	31487600	24992
717	22.022086	129748992	95563776	29841472	24992
718	23.46074	129748992	95563776	29348384	24992
719	25.308101	129748992	95563776	29682448	24992
720	26.533112	129748992	95563776	30793656	24992
721	26.991823	129748992	95563776	32405416	24992
722	28.672872	129748992	95563776	34614712	24992
723	30.18448	129748992	95563776	37097520	24992
724	31.143334	129748992	95563776	39945560	24992
725	33.904325	129748992	95563776	29818112	24992
726	36.944863	129748992	95563776	38666248	24992
727	34.939036	129748992	95563776	44346728	24992
728	38.130942	129748992	95563776	36202808	24992
729	37.813848	129748992	95563776	43875856	24992
730	40.119852	129748992	95563776	37487600	24992
731	47.578147	129748992	95563776	38725664	24992
732	43.63817	129748992	95563776	52000288	24992
733	44.788446	129748992	95563776	48250176	24992
734	46.675322	129748992	95563776	46382232	24992
735	53.331443	129748992	95563776	50695624	24992
736	52.95469	129748992	95563776	55558880	24992
737	56.362001	129748992	95563776	61237432	24992
738	89.158067	124739584	92418048	24374792	24992
739	59.339424	126627840	92418048	30591160	24992
740	58.480994	126627840	92418048	38730680	24992
741	59.781656	126627840	92418048	47559928	24992
742	67.162876	126627840	92418048	45782320	24992
743	62.499495	126627840	92418048	56201352	24992
744	64.384787	126627840	92418048	67600480	24992
745	94.747784	123990016	92418048	21708032	24992
746	68.441749	126418944	92418048	33392512	24992
747	72.634811	126418944	92418048	35634432	24992
748	74.031248	126418944	92418048	38654256	24992
749	69.58068	126418944	92418048	53977472	24992
750	78.305472	126418944	92418048	58596064	24992
751	107.02084	121155584	89796608	34363248	24992
752	79.002395	123584512	89796608	40197712	24992
753	77.909275	123584512	89796608	47157048	24992
754	80.098575	123584512	89796608	55010752	24992
755	81.234599	123584512	89796608	63560512	24992
756	85.634794	128720896	94515200	72938816	24992
757	113.1706	128450560	94515200	35867792	24992
758	88.794475	128450560	94515200	47092552	24992
759	92.669572	128450560	94515200	47473568	24992
760	89.843775	128450560	94515200	60103016	24992
761	94.828194	128720896	94515200	62156640	24992
762	124.104806	127873024	93466624	31362248	24992
763	94.236526	127873024	93466624	46591144	24992
764	98.058606	127873024	93466624	50959104	24992
765	101.594769	127873024	93466624	56268672	24992
766	97.116555	130846720	96612352	73861776	24992
767	124.364992	128151552	93990912	26555432	24992
768	104.766862	128151552	93990912	34569880	24992
769	103.482595	128151552	93990912	43216832	24992
770	106.233081	128151552	93990912	52629160	24992
771	130.037924	121667584	89796608	30621176	24992
772	110.585049	124096512	89796608	40901088	24992
773	112.28372	124096512	89796608	52692192	24992
774	116.573783	124096512	89796608	53873896	24992
775	138.343374	124342272	92418048	35757752	24992
776	118.345032	126230528	92418048	37520616	24992
777	115.371634	126230528	92418048	52750152	24992
778	123.038033	126230528	92418048	57366136	24992
779	152.391654	126205952	91893760	45091840	24992
780	123.89066	126205952	91893760	51320152	24992
781	127.978004	126205952	91893760	58504792	24992
782	124.731765	134045696	100282368	78030184	24992
783	151.043465	125640704	91369472	31745616	24992
784	130.279414	125640704	91369472	41233408	24992
785	133.349073	125640704	91369472	51643888	24992
786	176.089292	122486784	88748032	37240632	24992
787	134.096746	122486784	88748032	49237888	24992
788	136.548838	128163840	93990912	62132456	24992
789	138.359191	140599296	107098112	75931816	24992
790	155.110871	121454592	87699456	32147544	24992
791	139.53333	121995264	87699456	47570880	24992
792	145.873615	121995264	87699456	52445232	24992
793	184.912694	123445248	89272320	42556960	24992
794	143.524383	123445248	89272320	60394872	24992
795	150.357476	132096000	98185216	67774928	24992
796	149.064439	144531456	110768128	87576872	24992
797	187.017839	133263360	99233792	41845344	24992
798	148.755003	133263360	99233792	63415296	24992
799	154.664229	134074368	99758080	74051952	24992
800	180.904867	126656512	92418048	29480136	24992
801	159.872094	126656512	92418048	41835656	24992
802	7.72677	126656512	92418048	55922704	24992
803	3.916595	126656512	92418048	58496000	24992
804	5.25937	126656512	92418048	61928760	24992
805	6.606974	126656512	92418048	66222976	24992
806	10.950201	126656512	92942336	57773208	24992
807	10.566703	126656512	92942336	63794872	24992
808	11.858816	126656512	92942336	70690200	24992
809	14.16051	126656512	92942336	62155152	24992
810	19.962094	126656512	92942336	70798960	24992
811	23.925828	119062528	85078016	18015744	24992
812	17.669121	119062528	85078016	28380632	24992
813	18.589509	119062528	85078016	23302840	24992
814	20.392224	119062528	85078016	20020360	24992
815	22.385775	119062528	85078016	18222608	24992
816	24.105247	119062528	85078016	17611008	24992
817	25.376158	119062528	85078016	18052360	24992
818	27.097179	119062528	85078016	19243144	24992
819	28.84001	119062528	85078016	21156432	24992
820	29.542719	119062528	85078016	23605408	24992
821	30.166353	119062528	85078016	26545448	24992
822	34.306606	119062528	85078016	16657848	24992
823	37.137834	119062528	85078016	25521592	24992
824	36.119188	119062528	85078016	31349296	24992
825	38.283184	119062528	85078016	23806008	24992
826	40.468603	119062528	85078016	35170264	24992
827	41.272675	119062528	85078016	29686496	24992
828	44.399713	119062528	85078016	26468952	24992
829	45.827282	119062528	85078016	40487584	24992
830	47.699901	119062528	85078016	37275224	24992
831	48.780414	119062528	85078016	35776680	24992
832	54.859772	119062528	85078016	40989712	24992
833	55.410928	119062528	85078016	46801184	24992
834	57.272443	119062528	85078016	53585200	24992
835	87.612829	115384320	83505152	24307048	24992
836	60.546655	117547008	83505152	32556112	24992
837	61.905141	117547008	83505152	41961728	24992
838	66.576322	117547008	83505152	40841344	24992
839	63.29432	117547008	83505152	51887424	24992
840	70.32533	121331712	87699456	52458648	24992
841	69.095911	125116416	90845184	65575040	24992
842	98.433188	122703872	90845184	35504320	24992
843	74.240517	125132800	90845184	37826296	24992
844	75.226856	125132800	90845184	41936800	24992
845	75.675536	125132800	90845184	47105488	24992
846	78.277135	125132800	90845184	53151424	24992
847	79.709178	128106496	93990912	60124272	24992
848	111.089138	128012288	96612352	34969328	24992
849	81.957732	130441216	96612352	42784088	24992
850	83.582856	130441216	96612352	52490608	24992
851	89.980228	130441216	96612352	51654464	24992
852	87.165657	130441216	96612352	63250832	24992
853	100.667522	132874240	98709504	75703264	24992
854	106.375638	127758336	93466624	39956936	24992
855	94.569893	127758336	93466624	42772096	24992
856	96.780832	127758336	93466624	46547592	24992
857	92.307969	127758336	93466624	62800608	24992
858	125.333676	125067264	93466624	22151336	24992
859	96.779377	127766528	93466624	39147400	24992
860	102.11438	127766528	93466624	46653776	24992
861	103.108346	127766528	93466624	55078536	24992
862	108.134314	128577536	94515200	64487344	24992
863	134.119158	125132800	90845184	40889880	24992
864	107.564118	125132800	90845184	52162184	24992
865	114.945106	125132800	90845184	52752416	24992
866	112.614665	129458176	95563776	65990504	24992
867	147.333461	134586368	100282368	34835104	24992
868	113.211916	134586368	100282368	49915280	24992
869	116.336729	134586368	100282368	65895920	24992
870	118.614836	134586368	100282368	71300016	24992
871	142.593733	130998272	97136640	34268088	24992
872	125.350295	130998272	97136640	41963272	24992
873	126.218474	130998272	97136640	50329016	24992
874	140.591283	131809280	98185216	59587008	24992
875	143.112047	125640704	91369472	38458440	24992
876	129.605566	125640704	91369472	49571000	24992
877	132.296641	127533056	93466624	61663400	24992
878	155.806718	128462848	94515200	36149224	24992
879	138.422541	128462848	94515200	38818760	24992
880	137.052129	128462848	94515200	53758704	24992
881	164.61909	123301888	91369472	37227616	24992
882	143.51423	125190144	91369472	41928368	24992
883	140.720192	125190144	91369472	59832544	24992
884	175.723663	128638976	96612352	33796096	24992
885	146.526399	130527232	96612352	41157496	24992
886	144.614737	130527232	96612352	61934656	24992
887	179.677676	133230592	99233792	71939128	24992
888	154.693828	131526656	97136640	48239936	24992
889	154.526257	131526656	97136640	60612744	24992
890	161.868441	139096064	105525248	73698912	24992
891	190.972126	132378624	98185216	51238864	24992
892	159.052905	132378624	98185216	66072704	24992
893	169.273676	138596352	104476672	70427056	24992
894	199.597473	133373952	99233792	50825240	24992
895	164.147717	133373952	99233792	68670728	24992
896	171.339425	139862016	106049536	75851624	24992
897	202.91794	138858496	104476672	46413168	24992
898	165.973717	138858496	104476672	67271096	24992
899	172.751927	142372864	108146688	77453248	24992
900	193.409176	131514368	97136640	29112312	24992
901	173.911641	131514368	97136640	52867016	24992
902	3.107386	122138624	88223744	36701696	24992
903	4.372554	122138624	88223744	39650432	24992
904	9.278122	122138624	88223744	31140384	24992
905	7.80731	122138624	88223744	36065736	24992
906	8.673282	122138624	88223744	41992880	24992
907	11.876444	122138624	88223744	33958400	24992
908	12.107095	122138624	88223744	41870400	24992
909	14.235617	122138624	88223744	34968328	24992
910	15.399018	122138624	88223744	44866744	24992
911	17.216885	122138624	88223744	39337264	24992
912	19.733981	122138624	88223744	35805304	24992
913	21.830166	122138624	88223744	33924360	24992
914	23.249511	122138624	88223744	33405816	24992
915	25.285836	122138624	88223744	33915784	24992
916	26.702458	122138624	88223744	35407200	24992
917	27.898034	122138624	88223744	37519664	24992
918	30.071192	122138624	88223744	40287816	24992
919	30.98815	122138624	88223744	43500288	24992
920	34.547456	122138624	88223744	33942008	24992
921	36.891521	122138624	88223744	43494192	24992
922	39.01584	122138624	88223744	37253008	24992
923	40.249247	122138624	88223744	48777168	24992
924	41.166212	122138624	88223744	44034592	24992
925	46.502904	122138624	88223744	45922288	24992
926	44.167841	122138624	88223744	60216752	24992
927	45.319495	122138624	88223744	57397120	24992
928	47.211638	122138624	88223744	56424072	24992
929	55.124863	122679296	88223744	62324640	24992
930	57.41862	125382656	91369472	69042160	24992
931	79.029857	132681728	99233792	65307136	24992
932	64.767819	122142720	88748032	23685112	24992
933	60.142023	122142720	88748032	33406256	24992
934	61.528972	122142720	88748032	44234152	24992
935	67.267089	122413056	88748032	44466480	24992
936	65.505932	122413056	88748032	57364856	24992
937	72.59932	122953728	88748032	59680312	24992
938	100.129088	121966592	90320896	32596784	24992
939	75.653403	124395520	90320896	36295328	24992
940	74.829511	124395520	90320896	41591968	24992
941	75.086297	124395520	90320896	47867536	24992
942	79.195711	124395520	90320896	55422104	24992
943	83.537755	128180224	93990912	63906920	24992
944	108.070949	128831488	97136640	39698096	24992
945	87.772283	131260416	97136640	37584144	24992
946	82.806095	131260416	97136640	49119640	24992
947	85.388109	131260416	97136640	61650832	24992
948	92.834439	131260416	97136640	63802832	24992
949	117.6159	125071360	92942336	29879408	24992
950	96.155949	126959616	92942336	32396272	24992
951	92.696229	126959616	92942336	49043320	24992
952	98.503865	126959616	92942336	55084296	24992
953	104.243158	127229952	92942336	62308744	24992
954	128.199637	126099456	91893760	38514680	24992
955	101.250693	126099456	91893760	47833360	24992
956	109.651497	126099456	91893760	57895752	24992
957	109.265464	126640128	92418048	69420440	24992
958	136.449432	126246912	92418048	31684936	24992
959	113.352075	126246912	92418048	33873080	24992
960	111.026778	126246912	92418048	48268552	24992
961	115.246341	126246912	92418048	63840096	24992
962	151.808725	125566976	91369472	39556696	24992
963	119.861246	125566976	91369472	45697560	24992
964	115.174472	125566976	91369472	64296856	24992
965	128.233994	134758400	100806656	72399360	24992
966	155.796088	135712768	101855232	45441520	24992
967	125.771091	135712768	101855232	55622608	24992
968	129.069631	135712768	101855232	66710048	24992
969	131.354985	137605120	103428096	79062912	24992
970	166.090457	131928064	98185216	41971136	24992
971	133.299192	131928064	98185216	56281368	24992
972	135.839861	131928064	98185216	71915736	24992
973	166.241716	142471168	108670976	76848720	24992
974	144.829527	137117696	102903808	41518000	24992
975	140.306291	137117696	102903808	59999976	24992
976	146.289741	137117696	102903808	67947000	24992
977	184.089873	127627264	93466624	43195880	24992
978	148.396836	127627264	93466624	53481304	24992
979	149.75375	133304320	99233792	76300760	24992
980	184.303554	132411392	98709504	31914408	24992
981	154.384156	132411392	98709504	45674392	24992
982	154.923168	132411392	98709504	60071888	24992
983	182.608676	127815680	93466624	38535080	24992
984	161.351605	127815680	93466624	43726432	24992
985	160.114517	127815680	93466624	61370592	24992
986	202.250949	127778816	93466624	53421376	24992
987	167.454728	128319488	93990912	61561640	24992
988	171.388529	139673600	106049536	82571576	24992
989	190.683602	125231104	91369472	34246544	24992
990	173.379921	125501440	91369472	45528632	24992
991	197.775663	119726080	85602304	40153952	24992
992	173.427919	119726080	85602304	53764848	24992
993	204.63558	128106496	93990912	68513248	24992
994	188.375471	124911616	90845184	54322304	24992
995	180.929683	128425984	94515200	71082720	24992
996	217.030021	125992960	92418048	35945400	24992
997	182.641793	126263296	92418048	54994384	24992
998	197.847972	130048000	96088064	74847656	24992
999	220.21321	126607360	92418048	54174688	24992
1000	189.749322	130932736	97136640	76250312	24992
