x	Duration	RSS	HeapTotal	HeapUsed	External
0	NA	122470400	87175168	14652872	33184
1	0.299289	122470400	87175168	14705144	33184
2	0.238849	122470400	87175168	14773088	33184
3	0.264745	122470400	87175168	14865768	33184
4	0.318295	122470400	87175168	14984856	33184
5	0.406682	122470400	87175168	15132112	33184
6	0.463976	122470400	87175168	15308264	33184
7	0.513085	122470400	87175168	15514464	33184
8	0.62706	122470400	87175168	15752000	33184
9	0.658737	122470400	87175168	16023344	33184
10	0.746465	122470400	87175168	16328776	33184
11	1.011504	122470400	87175168	16669504	33184
12	0.904816	122470400	87175168	17046848	33184
13	0.703603	122470400	87175168	17461952	33184
14	1.061657	122470400	87175168	17919864	33184
15	1.018752	122470400	87175168	18415600	33184
16	0.827952	122470400	87175168	18950352	33184
17	0.879182	122470400	87175168	19529488	33184
18	0.987983	122470400	87175168	20152384	33184
19	1.086892	122470400	87175168	20826616	33184
20	1.072163	122470400	87175168	21541952	33184
21	1.139771	122470400	87175168	22305712	33184
22	1.385821	122470400	87175168	23119152	33184
23	1.29573	122470400	87175168	23983560	33184
24	1.362388	122470400	87175168	24900056	33184
25	1.440219	122470400	87175168	25869840	33184
26	1.500228	122470400	87175168	26894272	33184
27	1.580143	122470400	87175168	27974440	33184
28	1.6819	122470400	87175168	29111728	33184
29	1.745767	122470400	87175168	30307152	33184
30	2.864807	122470400	87175168	15337120	33184
31	2.148323	122470400	87175168	16652728	33184
32	2.375619	122470400	87175168	18033728	33184
33	3.10925	122470400	87175168	19481408	33184
34	2.264214	122470400	87175168	20993768	33184
35	2.532141	122470400	87175168	22571760	33184
36	2.709107	122470400	87175168	24217952	33184
37	2.581211	122470400	87175168	25947248	33184
38	2.931339	122470400	87175168	27730808	33184
39	2.814073	122470400	87175168	29580584	33184
40	2.861885	122470400	87175168	31502128	33184
41	4.175495	122470400	87175168	17298528	33184
42	3.344091	122470400	87175168	19367184	33184
43	3.006865	122470400	87175168	21511280	33184
44	3.117767	122470400	87175168	23732984	33184
45	3.221571	122470400	87175168	26034960	33184
46	3.83537	122470400	87175168	28418128	33184
47	3.673603	122470400	87175168	30882368	33184
48	4.975219	122470400	87175168	17221544	33184
49	3.823458	122470400	87175168	19853448	33184
50	3.872851	122470400	87175168	22571616	33184
51	3.965843	122470400	87175168	25376984	33184
52	4.222844	122470400	87175168	28270560	33184
53	4.154252	122470400	87175168	31253536	33184
54	5.827975	122470400	87175168	18075896	33184
55	5.469565	122470400	87175168	21244432	33184
56	4.58136	122470400	87175168	24511104	33184
57	4.618325	122470400	87175168	27864088	33184
58	4.992433	122470400	87175168	31313672	33184
59	6.09409	122470400	87175168	18733280	33184
60	5.891741	122470400	87175168	22376616	33184
61	5.470457	122470400	87175168	26128336	33184
62	5.294658	122470400	87175168	29971424	33184
63	6.900706	122470400	87175168	18124808	33184
64	5.77064	122470400	87175168	22174224	33184
65	5.885633	122470400	87175168	26334848	33184
66	5.883897	122470400	87175168	30600232	33184
67	7.713262	122470400	87175168	19165656	33184
68	6.335579	122470400	87175168	23644992	33184
69	6.670276	122470400	87175168	28233344	33184
70	6.632933	122470400	87175168	32931920	33184
71	8.361938	122470400	87175168	21751224	33184
72	7.227036	122470400	87175168	26673912	33184
73	6.963341	122470400	87175168	31710680	33184
74	9.621493	122470400	87175168	20997640	33184
75	7.523719	122470400	87175168	26266176	33184
76	7.398048	122470400	87175168	31652120	33184
77	10.069501	122470400	87175168	21342640	33184
78	7.771514	122470400	87175168	26967392	33184
79	9.296874	122470400	87175168	32724224	33184
80	10.144024	122470400	87175168	22722664	33184
81	8.456069	122470400	87175168	28716056	33184
82	8.680311	122470400	87175168	34834384	33184
83	10.723059	122470400	87175168	25072480	33184
84	9.190499	122470400	87175168	31446112	33184
85	11.441543	122470400	87175168	22289048	33184
86	9.111939	122470400	87175168	28923456	33184
87	9.341122	122470400	87175168	35689192	33184
88	11.414707	122470400	87175168	26549696	33184
89	10.056987	122470400	87175168	33583880	33184
90	12.076438	122470400	87175168	24911200	33184
91	10.490148	122470400	87175168	32220336	33184
92	12.503067	122470400	87175168	24064672	33184
93	10.566771	122470400	87175168	31655864	33184
94	12.818545	122470400	87175168	23821048	33184
95	11.268045	122470400	87175168	31699496	33184
96	13.21278	122470400	87175168	24192552	33184
97	11.559075	122470400	87175168	32363608	33184
98	14.177659	122470400	87175168	25113136	33184
99	11.879697	122470400	87175168	33581232	33184
100	14.14039	122470400	87175168	26518136	33184
101	12.370896	122470400	87175168	35288072	33184
102	0.519344	122470400	87175168	28179520	33184
103	0.740271	122470400	87175168	28638256	33184
104	0.974546	122470400	87175168	29252128	33184
105	1.21518	122470400	87175168	30022392	33184
106	1.43645	122470400	87175168	30950856	33184
107	1.68083	122470400	87175168	32039672	33184
108	1.930755	122470400	87175168	33286840	33184
109	2.169315	122470400	87175168	34695792	33184
110	2.299496	122470400	87175168	36267776	33184
111	2.476044	122470400	87175168	38003504	33184
112	4.288853	122470400	87175168	23777552	33184
113	3.114015	122470400	87175168	25846424	33184
114	3.187113	122470400	87175168	28080648	33184
115	3.445657	122470400	87175168	30483512	33184
116	3.847651	122470400	87175168	33056256	33184
117	4.09095	122470400	87175168	35800128	33184
118	4.129403	122470400	87175168	38718016	33184
119	6.173261	122470400	87175168	25539992	33184
120	4.669178	122470400	87175168	28809256	33184
121	4.884471	122470400	87175168	32251968	33184
122	5.166982	122470400	87175168	35871792	33184
123	7.166134	122470400	87175168	23778120	33184
124	5.880904	122470400	87175168	27756232	33184
125	5.887098	122470400	87175168	31915320	33184
126	6.337463	122470400	87175168	36260464	33184
127	8.739387	122470400	87175168	24847816	33184
128	7.192092	122470400	87175168	29556816	33184
129	7.474398	122470400	87175168	34451616	33184
130	9.626028	122470400	87175168	23869488	33184
131	7.584173	122470400	87175168	29139728	33184
132	7.948643	122470400	87175168	34599408	33184
133	10.00569	122470400	87175168	24568864	33184
134	8.709274	122470400	87175168	30418240	33184
135	8.650428	122470400	87175168	36461528	33184
136	10.920773	122470400	87175168	26793520	33184
137	9.331928	122470400	87175168	33226600	33184
138	9.455891	122470400	87175168	39856856	33184
139	11.521221	122470400	87175168	30399040	33184
140	10.189751	122470400	87175168	37426432	33184
141	12.18775	122470400	87175168	28643704	33184
142	10.779691	122470400	87175168	36077176	33184
143	13.037161	122470400	87175168	27929600	33184
144	11.3994	122470400	87175168	35773352	33184
145	13.464418	122470400	87175168	28064376	33184
146	12.181031	122470400	87175168	36322872	33184
147	14.295304	122470400	87175168	28990960	33184
148	12.379524	122470400	87175168	37670136	33184
149	15.748358	122470400	87175168	30580408	33184
150	14.002993	122470400	87175168	39690584	33184
151	15.404469	122470400	87175168	32794400	33184
152	16.497021	122470400	87175168	27032896	33184
153	14.11028	122470400	87175168	36787944	33184
154	16.971845	122470400	87175168	30932192	33184
155	14.732592	122470400	87175168	41128392	33184
156	17.148447	122470400	87175168	35233384	33184
157	18.039227	122470400	87175168	30288736	33184
158	15.508981	122470400	87175168	41146624	33184
159	18.249795	122470400	87175168	35961680	33184
160	18.533124	122470400	87175168	31638440	33184
161	20.00232	122470400	87175168	28116528	33184
162	17.045179	122470400	87175168	39881520	33184
163	19.380838	122470400	87175168	35751920	33184
164	21.233877	122470400	87175168	32435856	33184
165	20.830359	122470400	87175168	29756384	33184
166	23.372141	122470400	87175168	42454808	33184
167	20.921255	122470400	87175168	39040416	33184
168	21.530303	122470400	87175168	36266488	33184
169	22.181803	122470400	87175168	34136960	33184
170	22.908927	122470400	87175168	32491920	33184
171	23.130166	122470400	87175168	31318712	33184
172	24.207229	122470400	87175168	30575856	33184
173	24.804189	122470400	87175168	30191360	33184
174	25.434128	122470400	87175168	30121848	33184
175	26.231177	122470400	87175168	30322256	33184
176	25.981791	122470400	87175168	30765560	33184
177	26.033776	122470400	87175168	31406248	33184
178	26.838335	122470400	87175168	32230080	33184
179	27.118682	122470400	87175168	33207712	33184
180	27.141069	122470400	87175168	34307656	33184
181	27.442443	122470400	87175168	35541160	33184
182	27.938906	122470400	87175168	36886400	33184
183	27.401967	122470400	87175168	38303608	33184
184	27.967101	122470400	87175168	39813920	33184
185	27.728537	122470400	87175168	41402160	33184
186	27.971467	122470400	87175168	43047744	33184
187	28.595133	122470400	87175168	44764384	33184
188	33.128722	122470400	87175168	32344856	33184
189	31.027394	122470400	87175168	36061680	33184
190	30.191129	122470400	87175168	39588016	33184
191	30.27289	122470400	87175168	42912856	33184
192	35.674361	122470400	87175168	32104144	33184
193	35.051605	122470400	87175168	39120696	33184
194	32.171226	122470400	87175168	43724344	33184
195	32.208273	122470400	87175168	47987872	33184
196	36.873312	122470400	87175168	37787288	33184
197	33.192168	122470400	87175168	43396640	33184
198	33.529995	122470400	87175168	48589632	33184
199	37.734145	122470400	87175168	39196688	33184
200	34.412741	122470400	87175168	45511184	33184
201	38.999219	122470400	87175168	37468032	33184
202	0.875065	122470400	87175168	46935192	33184
203	1.252475	122470400	87175168	47780000	33184
204	1.66444	122470400	87175168	48908672	33184
205	2.095958	122470400	87175168	50322400	33184
206	2.52311	122470400	87175168	52022992	33184
207	5.703244	122470400	87175168	37906824	33184
208	3.357228	122470400	87175168	40184144	33184
209	3.760426	122470400	87175168	42750984	33184
210	4.134662	122470400	87175168	45610400	33184
211	4.553972	122470400	87175168	48765968	33184
212	4.968981	122470400	87175168	52211040	33184
213	8.319534	122470400	87175168	39629424	33184
214	6.140931	122470400	87175168	43665784	33184
215	6.248005	122470400	87175168	48000216	33184
216	6.925406	122470400	87175168	52632240	33184
217	9.821531	122470400	87175168	41214496	33184
218	7.632851	122470400	87175168	46451504	33184
219	8.281232	122470400	87175168	51988568	33184
220	11.290993	122470400	87175168	41569352	33184
221	9.063154	122470400	87175168	47720312	33184
222	12.486475	122470400	87175168	38490600	33184
223	10.554677	122470400	87175168	45250344	33184
224	10.551325	122470400	87175168	52317992	33184
225	13.689719	122470400	87175168	43391128	33184
226	11.20881	122470400	87175168	51080216	33184
227	14.348539	122470400	87175168	42966344	33184
228	12.263324	122470400	87175168	51279120	33184
229	15.111381	122470400	87175168	43764400	33184
230	13.322847	122470400	87175168	52717224	33184
231	16.433141	122470400	87175168	45666376	33184
232	17.288558	122470400	87175168	39902944	33184
233	14.414652	122470400	87175168	49821648	33184
234	18.417941	122470400	87175168	44149952	33184
235	19.077294	122470400	87175168	39577600	33184
236	16.326341	122470400	87175168	50471256	33184
237	19.690898	122470400	87175168	45706704	33184
238	20.176977	122470400	87175168	41939832	33184
239	17.439702	122470400	87175168	53821856	33184
240	20.142412	122470400	87175168	49646336	33184
241	21.2461	122470400	87175168	46363584	33184
242	22.471402	122470400	87175168	43865848	33184
243	23.407353	122470400	87175168	42016408	33184
244	23.887345	122470400	87175168	40793352	33184
245	24.763107	122470400	87175168	40082056	33184
246	21.184449	122470400	87175168	54312120	33184
247	24.672522	122470400	87175168	52504888	33184
248	24.795057	122470400	87175168	51257584	33184
249	25.565077	122470400	87175168	50509064	33184
250	26.216027	122470400	87175168	50208784	33184
251	26.161267	122470400	87175168	50316000	33184
252	27.066619	122470400	87175168	50763856	33184
253	27.889017	122470400	87175168	51503104	33184
254	28.109219	122470400	87175168	52489432	33184
255	28.726761	122470400	87175168	53703648	33184
256	28.458466	122470400	87175168	55118080	33184
257	34.933284	122470400	87175168	42514368	33184
258	31.336098	122470400	87175168	46183312	33184
259	32.173126	122470400	87175168	49759024	33184
260	32.314562	122470400	87175168	53198608	33184
261	37.295203	122470400	87175168	42568320	33184
262	35.802728	122470400	87175168	49896456	33184
263	34.974861	122470400	87175168	54831280	33184
264	44.492168	122470400	87175168	45538992	33184
265	49.018642	116703232	81408000	28024480	33184
266	35.044428	116703232	81408000	19581184	33184
267	36.775237	116703232	81408000	28689712	33184
268	32.857975	116703232	81408000	35126448	33184
269	35.505739	116703232	81408000	26752544	33184
270	34.187487	116703232	81408000	34141560	33184
271	37.646577	116703232	81408000	26733392	33184
272	38.456705	116703232	81408000	37724640	33184
273	38.541946	116703232	81408000	31498928	33184
274	39.289336	116703232	81408000	26637320	33184
275	39.968327	116703232	81408000	38647704	33184
276	39.935984	116703232	81408000	33674864	33184
277	45.555325	116703232	81408000	33799368	33184
278	41.150719	117243904	81932288	46835488	33184
279	41.556776	117243904	81932288	42644864	33184
280	42.579904	117243904	81932288	39715368	33184
281	47.215315	117243904	81932288	41311312	33184
282	47.673769	117243904	81932288	43177608	33184
283	46.182144	117243904	81932288	58107024	33184
284	57.391152	117243904	81932288	55539496	33184
285	52.829203	117243904	81932288	27961304	33184
286	50.200411	117243904	81932288	31408456	33184
287	51.084107	117243904	81932288	35200032	33184
288	52.298222	117243904	81932288	39378000	33184
289	53.109945	117243904	81932288	43943600	33184
290	54.455973	117243904	81932288	48922776	33184
291	53.42449	117243904	81932288	54327656	33184
292	58.447092	117243904	81932288	47521120	33184
293	67.157605	120217600	85078016	53723920	33184
294	65.99269	120487936	85078016	32227672	33184
295	55.360223	120487936	85078016	39189336	33184
296	61.373694	120487936	85078016	33945696	33184
297	56.059564	120487936	85078016	41666264	33184
298	57.327138	120487936	85078016	49789608	33184
299	58.214531	120487936	85078016	58305656	33184
300	62.132957	120487936	85602304	54665272	33184
301	59.39329	124272640	89796608	63980280	33184
302	2.493498	130220032	95563776	61329440	33184
303	3.362225	130220032	95563776	62551008	33184
304	4.880621	130220032	95563776	64181984	33184
305	9.382157	125849600	90845184	19929768	33184
306	4.176528	124276736	90845184	22395664	33184
307	4.466802	124276736	90845184	25262944	33184
308	4.781555	124276736	90845184	28544616	33184
309	5.407561	124276736	90845184	32243920	33184
310	7.031781	125353984	90845184	20456536	33184
311	6.86566	125624320	90845184	24989368	33184
312	7.185959	125624320	90845184	29944640	33184
313	7.960375	125624320	90845184	35317168	33184
314	8.922361	125624320	90845184	24696312	33184
315	9.004451	125624320	90845184	30920032	33184
316	10.424394	125624320	90845184	21756392	33184
317	10.510567	125624320	90845184	28823080	33184
318	12.264488	125624320	90845184	20797128	33184
319	11.505584	125624320	90845184	28720512	33184
320	13.344922	125624320	90845184	21580296	33184
321	12.922195	125624320	90845184	30363144	33184
322	14.872766	125624320	90845184	23870192	33184
323	14.34079	125624320	90845184	33520304	33184
324	15.536854	125624320	90845184	27447568	33184
325	16.740726	125624320	90845184	22661040	33184
326	16.109259	125624320	90845184	33615824	33184
327	17.496578	125624320	90845184	28846120	33184
328	18.824723	125624320	90845184	25159312	33184
329	19.957319	125624320	90845184	22426312	33184
330	18.55345	125624320	90845184	35138704	33184
331	20.265094	125624320	90845184	31937384	33184
332	20.873139	125624320	90845184	29621424	33184
333	22.200891	125624320	90845184	28069672	33184
334	22.445765	125624320	90845184	27191536	33184
335	23.277147	125624320	90845184	26891224	33184
336	24.256394	125624320	90845184	27063696	33184
337	24.869656	125624320	90845184	27665728	33184
338	25.905789	125624320	90845184	28663736	33184
339	25.688638	125624320	90845184	29968664	33184
340	26.258341	125624320	90845184	31523368	33184
341	27.467702	125624320	90845184	33342872	33184
342	27.47347	125624320	90845184	35365888	33184
343	30.778635	125624320	90845184	23468832	33184
344	32.559721	125624320	90845184	30092840	33184
345	30.537514	125624320	90845184	34436208	33184
346	30.884957	125624320	90845184	38506992	33184
347	33.6664	125624320	90845184	28302104	33184
348	33.337612	125624320	90845184	34154032	33184
349	35.511322	125624320	90845184	26058112	33184
350	37.181184	126164992	90845184	35419760	33184
351	34.611996	126164992	90845184	42156336	33184
352	36.703774	126164992	90845184	34235248	33184
353	35.072903	126164992	90845184	42094960	33184
354	38.497971	126164992	90845184	35165128	33184
355	39.899026	126164992	90845184	30474784	33184
356	40.147955	126164992	90845184	42604648	33184
357	41.714197	126164992	90845184	37909576	33184
358	46.804363	126164992	90845184	38509312	33184
359	42.524327	126164992	90845184	51982416	33184
360	43.197141	126164992	90845184	48293736	33184
361	43.714832	126164992	90845184	45738400	33184
362	49.05491	126435328	90845184	48249184	33184
363	50.268324	126435328	90845184	51101264	33184
364	51.404843	126435328	90845184	54427432	33184
365	55.933577	126435328	90845184	58283096	33184
366	71.663497	125870080	91893760	31570568	33184
367	52.863027	127217664	91893760	35751832	33184
368	53.586226	127217664	91893760	41025216	33184
369	54.990852	127217664	91893760	46841960	33184
370	59.72563	127217664	91893760	40520752	33184
371	55.68666	127217664	91893760	47307936	33184
372	56.714584	127488000	91893760	54637608	33184
373	56.924112	127488000	91893760	62429136	33184
374	67.123551	128028672	92942336	58185272	33184
375	80.285139	127057920	93466624	36110448	33184
376	63.0009	128405504	93466624	32151112	33184
377	60.880238	128405504	93466624	41993920	33184
378	64.687155	128405504	93466624	39733528	33184
379	61.916744	128405504	93466624	50575328	33184
380	66.62213	129486848	93990912	49340672	33184
381	63.002402	129486848	93990912	61232208	33184
382	69.583665	129486848	93990912	61058336	33184
383	95.935006	126562304	92942336	30458080	33184
384	69.080676	128450560	92942336	30524696	33184
385	65.293955	128450560	92942336	44435216	33184
386	71.42816	128450560	92942336	46303288	33184
387	72.425786	128450560	92942336	48705384	33184
388	73.237038	128991232	93466624	51624392	33184
389	68.02014	128991232	93466624	67595984	33184
390	77.722581	130342912	95039488	71607184	33184
391	103.526062	133558272	98185216	30330224	33184
392	76.641302	133558272	98185216	35483136	33184
393	76.43168	133558272	98185216	41060280	33184
394	77.005722	133558272	98185216	47109264	33184
395	77.285553	133558272	98185216	53750224	33184
396	79.670354	133828608	98185216	60885664	33184
397	81.114267	133828608	98185216	68560232	33184
398	109.9033	129437696	93990912	30967736	33184
399	80.74309	129437696	93990912	39801376	33184
400	82.650583	129437696	93990912	49102424	33184
401	87.805004	129437696	93990912	46341552	33184
402	1.609216	129437696	93990912	56987888	33184
403	2.415426	129437696	93990912	58615808	33184
404	3.189215	129437696	93990912	60788392	33184
405	4.017559	129437696	93990912	63507184	33184
406	7.997363	129437696	93990912	53103536	33184
407	5.703283	129437696	93990912	56918712	33184
408	6.251288	129437696	93990912	61283752	33184
409	7.053313	129437696	93990912	66199776	33184
410	9.249328	129437696	93990912	55996856	33184
411	8.848553	129437696	93990912	62021456	33184
412	10.46558	129437696	93990912	52930352	33184
413	10.285593	129437696	93990912	60063296	33184
414	11.079538	129437696	93990912	67760080	33184
415	12.544757	129437696	93990912	59581256	33184
416	14.058858	129437696	93990912	53066912	33184
417	13.441097	129437696	93990912	62435856	33184
418	15.368809	129437696	93990912	56662864	33184
419	15.400839	129437696	93990912	67163432	33184
420	16.693438	129437696	93990912	61881824	33184
421	17.837293	129437696	93990912	57877376	33184
422	19.310206	129437696	93990912	54961896	33184
423	19.032723	129437696	93990912	67734952	33184
424	20.164137	129437696	93990912	64664072	33184
425	20.50678	129437696	93990912	62541784	33184
426	22.387276	129437696	93990912	61273464	33184
427	23.465898	129437696	93990912	60761504	33184
428	24.073681	129437696	93990912	60897768	33184
429	24.837013	129437696	93990912	61604648	33184
430	25.279505	129437696	93990912	62780016	33184
431	26.231335	129437696	93990912	64372352	33184
432	26.864303	129437696	93990912	66331912	33184
433	30.576494	129437696	93990912	54594464	33184
434	32.119157	129437696	93990912	61289712	33184
435	30.260265	129437696	93990912	65788936	33184
436	30.677573	129437696	93990912	70234200	33184
437	33.565983	129437696	93990912	60509128	33184
438	32.602271	129437696	93990912	66853592	33184
439	35.748721	129437696	93990912	59152936	33184
440	38.918314	129437696	93990912	69306728	33184
441	50.907334	130248704	95039488	63100544	33184
442	47.761565	126578688	91369472	23973232	33184
443	45.015517	126578688	91369472	23241264	33184
444	40.433011	126578688	91369472	35660832	33184
445	41.965337	126578688	91369472	31458544	33184
446	47.031268	126578688	91369472	32527944	33184
447	47.98485	126578688	91369472	34077640	33184
448	44.952377	126578688	91369472	48850432	33184
449	43.786264	126578688	91369472	46367072	33184
450	45.16052	126578688	91369472	44986432	33184
451	51.276687	127119360	91369472	49098344	33184
452	51.783611	127389696	91893760	53641752	33184
453	55.766191	127389696	91893760	58793696	33184
454	81.154334	121384960	87175168	24072792	33184
455	57.485011	122736640	87175168	30162952	33184
456	55.682228	122736640	87175168	37041504	33184
457	55.872482	122736640	87175168	44609048	33184
458	60.701813	122736640	87175168	40134680	33184
459	57.746919	122736640	87175168	48909432	33184
460	59.656572	122736640	87175168	58226624	33184
461	64.676869	126521344	91369472	55630024	33184
462	60.942076	130306048	95563776	66213536	33184
463	85.333229	122789888	88748032	29066792	33184
464	66.728669	124137472	88748032	27454272	33184
465	63.427802	124137472	88748032	39866776	33184
466	70.01554	124137472	88748032	40336456	33184
467	68.967614	124137472	88748032	41455472	33184
468	66.606486	124137472	88748032	55733856	33184
469	72.089312	124407808	88748032	58085344	33184
470	89.662792	124948480	89272320	61093928	33184
471	80.605752	125796352	90320896	33177520	33184
472	74.576323	125796352	90320896	37435024	33184
473	74.592854	125796352	90320896	42252912	33184
474	75.492641	125796352	90320896	47741976	33184
475	75.964559	125796352	90320896	53832136	33184
476	80.248442	126337024	90845184	60559832	33184
477	106.844081	125882368	91893760	38269688	33184
478	83.249417	127229952	91893760	33247664	33184
479	81.187452	127229952	91893760	41908488	33184
480	80.225597	127229952	91893760	51172960	33184
481	82.553196	127229952	91893760	61053064	33184
482	87.26068	127500288	91893760	59057408	33184
483	95.201999	133177344	97660928	70272456	33184
484	107.87067	131362816	96088064	34761216	33184
485	89.5571	131362816	96088064	34622376	33184
486	86.138744	131362816	96088064	47739608	33184
487	92.976697	131362816	96088064	48946272	33184
488	88.985668	131362816	96088064	63350384	33184
489	114.580645	131633152	96088064	65817312	33184
490	104.114857	127406080	91893760	34841448	33184
491	95.749841	127406080	91893760	38649968	33184
492	92.07322	127406080	91893760	55633288	33184
493	97.918748	127406080	91893760	60742984	33184
494	100.190863	127406080	91893760	66504784	33184
495	130.185647	130142208	95039488	41794096	33184
496	99.799939	130142208	95039488	48898752	33184
497	101.204515	130142208	95039488	56619464	33184
498	107.489243	130142208	95039488	65006768	33184
499	107.442228	130682880	95039488	61479000	33184
500	130.545847	131514368	97660928	35196200	33184
501	109.596887	132861952	97660928	31899712	33184
502	2.040787	132861952	97660928	43358256	33184
503	2.981422	132861952	97660928	45356552	33184
504	3.89643	132861952	97660928	48028144	33184
505	4.866722	132861952	97660928	51360376	33184
506	9.045573	132861952	97660928	41480904	33184
507	7.043413	132861952	97660928	46158744	33184
508	7.989565	132861952	97660928	51505272	33184
509	9.927831	132861952	97660928	41947824	33184
510	9.737721	132861952	97660928	48650144	33184
511	12.195639	132861952	97660928	40431048	33184
512	11.875707	132861952	97660928	48480600	33184
513	13.933763	132861952	97660928	41635728	33184
514	14.032695	132861952	97660928	51045376	33184
515	15.983976	132861952	97660928	45246816	33184
516	17.383842	132861952	97660928	40909816	33184
517	17.817757	132861952	97660928	52374664	33184
518	18.65971	132861952	97660928	48434096	33184
519	20.13804	132861952	97660928	45721680	33184
520	21.434804	132861952	97660928	44097424	33184
521	22.985663	132861952	97660928	43335784	33184
522	24.481442	132861952	97660928	43405288	33184
523	25.111952	132861952	97660928	44171616	33184
524	26.035557	132861952	97660928	45550280	33184
525	26.557008	132861952	97660928	47405112	33184
526	27.312548	132861952	97660928	49706248	33184
527	28.541557	132861952	97660928	52406376	33184
528	28.701659	132861952	97660928	55443696	33184
529	33.029317	132861952	97660928	44559632	33184
530	32.241106	132861952	97660928	50105032	33184
531	32.649787	132861952	97660928	55557104	33184
532	35.427009	132861952	97660928	46789448	33184
533	34.401133	132861952	97660928	54114680	33184
534	38.198983	132861952	97660928	47151048	33184
535	44.480668	132861952	97660928	46142328	33184
536	40.760673	132861952	97660928	58262512	33184
537	41.087936	132861952	97660928	54023048	33184
538	48.349719	132861952	97660928	55108056	33184
539	52.780559	133132288	98185216	56816936	33184
540	69.394756	125579264	91369472	27153576	33184
541	51.077906	126926848	91369472	29538152	33184
542	51.826035	126926848	91369472	33278984	33184
543	51.853626	126926848	91369472	37791352	33184
544	53.998114	126926848	91369472	42985936	33184
545	54.246459	126926848	91369472	48911584	33184
546	55.736778	126926848	91369472	55534088	33184
547	59.927099	126926848	91369472	50295224	33184
548	57.262783	126926848	91369472	58347472	33184
549	87.237097	127520768	93466624	24061040	33184
550	62.300368	129138688	93466624	33054136	33184
551	59.815443	129138688	93466624	43287512	33184
552	66.039257	129138688	93466624	41678576	33184
553	61.922883	129138688	93466624	53368312	33184
554	67.537788	129138688	93466624	53243240	33184
555	68.434781	129138688	93466624	53776936	33184
556	65.891968	129138688	93466624	67722456	33184
557	96.913146	130392064	96612352	22830384	33184
558	68.562146	131739648	96612352	37229656	33184
559	74.127783	131739648	96612352	40743312	33184
560	74.407206	131739648	96612352	44960584	33184
561	75.843769	131739648	96612352	49977104	33184
562	75.753159	131739648	96612352	55720152	33184
563	78.749279	131739648	96612352	62211136	33184
564	109.573122	125304832	89796608	27194024	33184
565	80.474338	125304832	89796608	35258040	33184
566	83.065488	125304832	89796608	43968568	33184
567	84.173622	125304832	89796608	53488144	33184
568	81.646309	125304832	89796608	63690032	33184
569	90.104889	127467520	91893760	62187184	33184
570	114.306974	129138688	95563776	27517256	33184
571	88.426334	131026944	95563776	38967032	33184
572	91.593884	131026944	95563776	39653448	33184
573	89.203089	131026944	95563776	53715808	33184
574	95.014399	131026944	95563776	55910080	33184
575	96.299812	131026944	95563776	58942128	33184
576	127.499636	129011712	93466624	32395784	33184
577	97.542065	129011712	93466624	36944088	33184
578	94.515655	129011712	93466624	54731288	33184
579	98.734494	129011712	93466624	60765848	33184
580	100.911482	129282048	93990912	67549024	33184
581	111.271434	135229440	100282368	75088128	33184
582	123.455906	135696384	100282368	34902672	33184
583	107.500654	135696384	100282368	44002104	33184
584	104.691878	135696384	100282368	53892272	33184
585	106.901993	135696384	100282368	64544032	33184
586	118.031455	136777728	101330944	63351672	33184
587	133.832985	129503232	93990912	43199728	33184
588	115.744629	129503232	93990912	43596376	33184
589	112.209397	129503232	93990912	57349072	33184
590	116.359574	129503232	93990912	59293640	33184
591	124.853888	134098944	98709504	74580344	33184
592	135.496744	133767168	98185216	43841720	33184
593	118.953249	133767168	98185216	48140880	33184
594	121.804652	133767168	98185216	53215440	33184
595	118.198642	133767168	98185216	71633408	33184
596	149.960929	130830336	95563776	29303672	33184
597	125.034491	130830336	95563776	36834528	33184
598	127.127655	130830336	95563776	45057968	33184
599	126.69812	130830336	95563776	54199360	33184
600	153.583403	126124032	92418048	32376352	33184
601	129.545908	127471616	92418048	42280936	33184
602	2.370442	127471616	92418048	54282584	33184
603	3.488546	127471616	92418048	56667056	33184
604	8.601413	127471616	92418048	46689160	33184
605	5.976118	127471616	92418048	50680008	33184
606	7.001176	127471616	92418048	55462904	33184
607	10.166261	127471616	92418048	46334144	33184
608	9.724719	127471616	92418048	52729352	33184
609	10.85404	127471616	92418048	59915072	33184
610	11.977801	127471616	92418048	51517160	33184
611	12.796178	127471616	92418048	60325288	33184
612	14.640851	127471616	92418048	53459544	33184
613	16.382187	127471616	92418048	48322456	33184
614	16.428832	127471616	92418048	59551888	33184
615	17.735822	127471616	92418048	55234440	33184
616	19.869265	127471616	92418048	52317112	33184
617	21.408046	127471616	92418048	50648696	33184
618	22.939882	127471616	92418048	50033976	33184
619	24.71903	127471616	92418048	50273424	33184
620	25.306078	127471616	92418048	51283344	33184
621	26.183252	127471616	92418048	53005816	33184
622	27.276474	127471616	92418048	55331768	33184
623	28.215385	127471616	92418048	58155176	33184
624	32.153798	127471616	92418048	47487536	33184
625	33.982074	127471616	92418048	55296832	33184
626	31.87897	127471616	92418048	60977368	33184
627	35.329716	127471616	92418048	52698240	33184
628	37.480696	127471616	92418048	62996600	33184
629	38.716032	127471616	92418048	56927288	33184
630	44.946634	128012288	92418048	56229408	33184
631	43.921893	128552960	92942336	68834640	33184
632	60.34141	128552960	93466624	65104816	33184
633	50.44016	128065536	92942336	31488216	33184
634	44.565455	128065536	92942336	29270448	33184
635	50.341843	128065536	92942336	32776344	33184
636	51.572476	128065536	92942336	36931776	33184
637	52.467932	128065536	92942336	41960552	33184
638	54.430794	128065536	92942336	47785424	33184
639	54.91823	128065536	92942336	54471800	33184
640	60.386972	128065536	92942336	49412632	33184
641	61.389283	128065536	92942336	57801048	33184
642	88.844753	123469824	89272320	26617640	33184
643	61.357305	124817408	89272320	36226824	33184
644	65.982412	124817408	89272320	34526928	33184
645	62.809546	124817408	89272320	46248448	33184
646	68.685971	124817408	89272320	46340776	33184
647	64.578087	124817408	89272320	59785064	33184
648	71.65692	124817408	89272320	61519352	33184
649	73.444224	128331776	92942336	64107496	33184
650	98.748462	130678784	97136640	35560840	33184
651	74.548406	132567040	97136640	39076216	33184
652	76.337417	132567040	97136640	44204600	33184
653	76.20222	132567040	97136640	50207552	33184
654	78.109404	132567040	97136640	57023808	33184
655	83.894849	132567040	97136640	64778376	33184
656	81.023346	133107712	97660928	73311896	33184
657	108.468024	128372736	94515200	34427568	33184
658	88.005398	129720320	94515200	30983520	33184
659	85.996855	129720320	94515200	42118592	33184
660	90.56011	129720320	94515200	41576288	33184
661	87.608725	129720320	94515200	54577424	33184
662	98.224142	129990656	94515200	55883016	33184
663	119.415488	127389696	91893760	28861696	33184
664	89.785592	127389696	91893760	44376592	33184
665	97.114891	127389696	91893760	48145328	33184
666	98.70779	127389696	91893760	52874840	33184
667	99.91511	127930368	92418048	58415360	33184
668	124.365496	130887680	97136640	30677720	33184
669	101.718611	132235264	97136640	36985112	33184
670	106.486608	132235264	97136640	45224128	33184
671	104.361819	132235264	97136640	54268448	33184
672	105.378375	132235264	97136640	64242632	33184
673	135.780602	128167936	94515200	30265496	33184
674	108.653723	130056192	94515200	41156240	33184
675	114.994407	130056192	94515200	41246632	33184
676	110.246028	130056192	94515200	54737360	33184
677	111.800231	130056192	94515200	69091200	33184
678	157.603907	131801088	96612352	24999480	33184
679	124.903513	131801088	96612352	41102768	33184
680	120.83512	131801088	96612352	45587568	33184
681	122.008309	131801088	96612352	50968432	33184
682	150.099262	126402560	91369472	25819784	33184
683	120.520556	126402560	91369472	45554664	33184
684	124.952604	126402560	91369472	53560952	33184
685	127.648174	126943232	91369472	62453272	33184
686	161.916739	125845504	90845184	27462568	33184
687	129.550391	125845504	90845184	38322816	33184
688	132.331116	125845504	90845184	49950648	33184
689	134.491028	126386176	90845184	62734424	33184
690	164.768643	129273856	93990912	30293840	33184
691	136.298004	129273856	93990912	44695952	33184
692	141.16802	129273856	93990912	47406536	33184
693	138.412396	129273856	93990912	63526368	33184
694	168.337295	127156224	91893760	33773888	33184
695	145.128275	127156224	91893760	39155848	33184
696	142.974007	127156224	91893760	58034416	33184
697	170.612639	127967232	92418048	65275952	33184
698	159.026453	127393792	91893760	43921192	33184
699	151.34807	127393792	91893760	52980528	33184
700	152.323972	129015808	93990912	62995944	33184
701	181.672098	133656576	98185216	37408856	33184
702	2.756415	133656576	98185216	50147832	33184
703	8.12625	133656576	98185216	40043016	33184
704	5.883699	133656576	98185216	43725776	33184
705	7.001784	133656576	98185216	48319272	33184
706	10.753516	133926912	98185216	39545920	33184
707	9.712539	133926912	98185216	45991912	33184
708	11.07596	133926912	98185216	53364232	33184
709	12.950325	133926912	98185216	45320560	33184
710	15.190708	133926912	98185216	39311296	33184
711	15.702855	133926912	98185216	49459888	33184
712	17.57769	133926912	98185216	44766920	33184
713	19.56036	133926912	98185216	41644328	33184
714	21.600235	133926912	98185216	39883176	33184
715	20.813959	133926912	98185216	53813664	33184
716	22.925937	133926912	98185216	52299448	33184
717	23.876811	133926912	98185216	51949816	33184
718	25.89387	133926912	98185216	52567896	33184
719	26.861341	133926912	98185216	54047496	33184
720	30.959177	133926912	98185216	42179368	33184
721	30.75771	133926912	98185216	47062008	33184
722	31.671445	133926912	98185216	52217576	33184
723	35.171341	133926912	98185216	43682888	33184
724	37.594753	133926912	98185216	53800568	33184
725	38.599509	133926912	98185216	47825056	33184
726	40.402878	133926912	98185216	59831184	33184
727	41.217332	133926912	98185216	55126016	33184
728	42.78687	133926912	98185216	52129168	33184
729	48.854244	133926912	98185216	54478464	33184
730	50.532211	133926912	98185216	57568296	33184
731	52.154024	133926912	98185216	61669720	33184
732	73.916129	133926912	98709504	66715512	33184
733	59.047532	126332928	90845184	24820856	33184
734	56.558425	126332928	90845184	31811536	33184
735	57.113747	126332928	90845184	39784288	33184
736	59.371262	126332928	90845184	48722728	33184
737	65.224588	126332928	90845184	46045448	33184
738	61.503079	126332928	90845184	56961256	33184
739	67.540662	126332928	90845184	56267136	33184
740	67.111679	126873600	91369472	69097624	33184
741	100.534659	131035136	95563776	26377168	33184
742	66.839618	131035136	95563776	41286192	33184
743	74.536263	131035136	95563776	44496160	33184
744	73.937952	131035136	95563776	48731176	33184
745	75.9392	131035136	95563776	53865992	33184
746	76.766477	131035136	95563776	60111696	33184
747	79.222606	131035136	95563776	67203752	33184
748	109.219282	129220608	93990912	30322720	33184
749	81.415866	129220608	93990912	39499624	33184
750	83.851714	129220608	93990912	49610760	33184
751	89.25235	129220608	93990912	48163592	33184
752	85.856615	129220608	93990912	60227352	33184
753	92.588461	130031616	94515200	60840336	33184
754	117.229837	131604480	97660928	27108560	33184
755	90.153247	132952064	97660928	41204600	33184
756	96.007987	132952064	97660928	44630368	33184
757	98.111986	132952064	97660928	49177320	33184
758	98.734337	132952064	97660928	54734696	33184
759	105.563777	133222400	97660928	61211288	33184
760	129.038451	128995328	93466624	37697472	33184
761	102.880584	128995328	93466624	46229488	33184
762	104.336836	128995328	93466624	55748216	33184
763	106.351878	128995328	93466624	66261424	33184
764	115.615891	131428352	96088064	65234856	33184
765	143.672558	136355840	101330944	33005736	33184
766	110.482179	136355840	101330944	46572272	33184
767	116.122021	136355840	101330944	48557976	33184
768	112.936938	136355840	101330944	64157744	33184
769	119.417084	137437184	101855232	68130928	33184
770	152.222575	134873088	99233792	38815656	33184
771	121.968021	134873088	99233792	44826232	33184
772	124.750522	134873088	99233792	51939544	33184
773	120.229684	134873088	99233792	72643472	33184
774	145.847396	138387456	102903808	81707696	33184
775	145.068583	137682944	102379520	42997160	33184
776	130.183804	137682944	102379520	54187968	33184
777	133.398389	137682944	102379520	66342832	33184
778	142.2363	137953280	102379520	66971992	33184
779	165.90196	132108288	96612352	35957464	33184
780	134.771042	132108288	96612352	51185352	33184
781	138.268321	132108288	96612352	67480280	33184
782	144.188005	135892992	100806656	72182848	33184
783	175.211319	140627968	105525248	44149432	33184
784	146.795353	140627968	105525248	50996720	33184
785	149.239248	140627968	105525248	58916984	33184
786	144.069674	141168640	105525248	80361984	33184
787	178.793934	135229440	99758080	34550280	33184
788	151.652373	135229440	99758080	45530792	33184
789	153.855786	135229440	99758080	57530024	33184
790	183.649759	126128128	90845184	27455936	33184
791	156.0126	126128128	90845184	41505240	33184
792	157.947591	126128128	90845184	56684008	33184
793	193.967038	127025152	92942336	29919232	33184
794	166.433948	139186176	105000960	46557320	33184
795	171.457464	152973312	119681024	52271776	33184
796	167.814122	164597760	132263936	71509696	33184
797	188.522871	102199296	66727936	39703832	33184
798	176.182455	108957696	74067968	48648704	33184
799	181.774908	122744832	87699456	58743144	33184
800	205.690947	115412992	79835136	44413432	33184
801	179.09224	123793408	88748032	56326864	33184
802	3.238528	137580544	102379520	70358744	33184
803	5.020888	137580544	102379520	73537056	33184
804	6.409209	137580544	102379520	77766088	33184
805	12.722959	139472896	103952384	69085080	33184
806	11.053059	139472896	103952384	75462760	33184
807	12.444509	139472896	103952384	82876632	33184
808	16.999359	139472896	103952384	75065176	33184
809	28.78308	118501376	74067968	18430056	33184
810	17.547229	109588480	74067968	29056568	33184
811	18.133157	109588480	74067968	24626496	33184
812	20.588327	109588480	74067968	21863728	33184
813	21.823264	109588480	74067968	20562928	33184
814	23.591536	109588480	74067968	20523096	33184
815	25.632868	109588480	74067968	21562640	33184
816	26.94481	109588480	74067968	23526168	33184
817	27.367469	109588480	74067968	26254264	33184
818	29.174814	109588480	74067968	29698288	33184
819	33.555427	109588480	74067968	19755744	33184
820	36.59822	109588480	74067968	28751392	33184
821	37.397504	109588480	74067968	22043464	33184
822	38.627284	109588480	74067968	33162704	33184
823	40.910473	109588480	74067968	28195296	33184
824	46.295125	109588480	74067968	28849224	33184
825	43.510615	109588480	74067968	43050280	33184
826	44.600729	109588480	74067968	40613496	33184
827	47.248671	109588480	74067968	39763128	33184
828	52.508216	109588480	74067968	44751016	33184
829	54.291243	110129152	74592256	50684504	33184
830	61.233594	113643520	78262272	45074152	33184
831	63.512698	117428224	81932288	53190944	33184
832	81.576599	115388416	81408000	35902504	33184
833	65.072697	116736000	81408000	33312152	33184
834	63.603409	116736000	81408000	44706304	33184
835	68.326244	116736000	81408000	44611816	33184
836	70.235842	117006336	81408000	45659752	33184
837	66.630494	117547008	81932288	60326144	33184
838	74.570065	122683392	87699456	63582896	33184
839	101.440091	117792768	84553728	23032904	33184
840	77.501734	119140352	84553728	27694040	33184
841	77.11028	119140352	84553728	34179840	33184
842	79.25688	119140352	84553728	41835072	33184
843	79.698119	119140352	84553728	50531256	33184
844	82.350698	120762368	85602304	60396472	33184
845	98.840548	127250432	91893760	58815712	33184
846	101.86624	120532992	85078016	38008696	33184
847	91.23718	120532992	85078016	38575888	33184
848	88.56861	120532992	85078016	52883936	33184
849	93.874437	120803328	85602304	55693416	33184
850	98.16594	125669376	90320896	59701976	33184
851	124.877157	119508992	86126592	31765240	33184
852	101.2319	121397248	86126592	37026072	33184
853	101.679665	121397248	86126592	44296824	33184
854	102.026862	121397248	86126592	52809080	33184
855	104.66423	122208256	86650880	62421032	33184
856	137.719711	122068992	88223744	28891096	33184
857	108.467541	123416576	88223744	40010936	33184
858	113.438529	123416576	88223744	40478144	33184
859	111.412772	123416576	88223744	54523296	33184
860	120.861329	126930944	91369472	57163776	33184
861	150.0406	128634880	93466624	44825984	33184
862	120.194199	128634880	93466624	49839256	33184
863	122.749933	128634880	93466624	55871040	33184
864	125.657369	129716224	94515200	63038360	33184
865	134.435215	139448320	103952384	71408200	33184
866	151.025825	130809856	95563776	44663200	33184
867	127.953113	130809856	95563776	55358056	33184
868	137.032467	130809856	95563776	54527344	33184
869	133.676181	133242880	97660928	67497304	33184
870	165.775119	127361024	91893760	30117864	33184
871	136.84354	127361024	91893760	45373928	33184
872	142.84491	127361024	91893760	49128720	33184
873	139.625841	127361024	91893760	66692928	33184
874	179.759304	128917504	93466624	44385224	33184
875	147.908244	128917504	93466624	51614120	33184
876	148.091951	128917504	93466624	60098160	33184
877	156.672994	140001280	104476672	69722848	33184
878	184.401573	136564736	101330944	45334936	33184
879	154.456664	136564736	101330944	57220728	33184
880	156.334419	136564736	101330944	70271512	33184
881	175.366141	141160448	106049536	84583448	33184
882	175.834037	133140480	97660928	49938064	33184
883	165.749749	133140480	97660928	53948656	33184
884	167.772339	133140480	97660928	71625296	33184
885	192.551522	135397376	99758080	39412496	33184
886	169.155691	135397376	99758080	46816920	33184
887	172.051787	135397376	99758080	55495168	33184
888	197.918682	126922752	91369472	32601240	33184
889	174.317081	126922752	91369472	43607128	33184
890	175.222936	126922752	91369472	55783672	33184
891	204.320752	130482176	95039488	36418432	33184
892	180.849778	130482176	95039488	50945832	33184
893	181.81802	130482176	95039488	66667280	33184
894	213.155376	128618496	92942336	37423448	33184
895	184.978094	128618496	92942336	55458168	33184
896	191.42635	128618496	92942336	62160656	33184
897	230.60445	128974848	93466624	44211168	33184
898	190.119015	128974848	93466624	65849224	33184
899	199.780944	142221312	107098112	76017984	33184
900	224.756436	132317184	97136640	30752360	33184
901	195.027245	132587520	97136640	55900392	33184
902	10.310491	127029248	89272320	30995440	33184
903	6.207319	123359232	89272320	34589392	33184
904	7.338939	123359232	89272320	39350368	33184
905	11.57796	124166144	89272320	30905080	33184
906	10.665767	124977152	89272320	38058216	33184
907	12.302597	124977152	89272320	46404560	33184
908	14.521295	124977152	89272320	39476144	33184
909	16.774255	124977152	89272320	34685312	33184
910	19.261423	124977152	89272320	31784864	33184
911	19.651945	124977152	89272320	44944376	33184
912	22.110461	124977152	89272320	43079448	33184
913	23.231403	124977152	89272320	42609000	33184
914	25.117558	124977152	89272320	43466064	33184
915	27.531316	124977152	89272320	45380904	33184
916	31.933644	124977152	89272320	34101128	33184
917	31.63289	124977152	89272320	39763408	33184
918	32.848682	124977152	89272320	45787200	33184
919	36.943219	124977152	89272320	38129008	33184
920	36.375145	124977152	89272320	46903912	33184
921	40.497687	124977152	89272320	41390808	33184
922	42.881468	124977152	89272320	38480112	33184
923	49.202169	124977152	89272320	41043640	33184
924	50.536776	124977152	89272320	44707648	33184
925	53.402799	124977152	89272320	49635704	33184
926	54.599904	124977152	89272320	55749344	33184
927	55.447637	124977152	89272320	63149368	33184
928	63.372012	128221184	92942336	59232544	33184
929	59.930398	132005888	97136640	68932792	33184
930	62.251193	136060928	100806656	79964200	33184
931	78.426607	141737984	106573824	79657128	33184
932	88.288094	130609152	95563776	26163760	33184
933	66.970543	130609152	95563776	40807952	33184
934	73.077716	130609152	95563776	44143424	33184
935	74.538233	130609152	95563776	48692360	33184
936	77.416839	130879488	95563776	54473904	33184
937	79.436792	130879488	95563776	61496664	33184
938	89.315818	131690496	96088064	69813848	33184
939	104.024253	127401984	91893760	34726440	33184
940	83.708919	127401984	91893760	45357976	33184
941	90.381843	127401984	91893760	44737248	33184
942	88.606543	127401984	91893760	57894856	33184
943	93.98861	127401984	91893760	59767448	33184
944	115.394801	130646016	95563776	62907360	33184
945	104.916428	131510272	96088064	34926288	33184
946	99.497815	131510272	96088064	40530200	33184
947	101.158335	131510272	96088064	47415680	33184
948	102.633964	131510272	96088064	55391648	33184
949	109.919141	131510272	96088064	64750440	33184
950	135.167876	127569920	92418048	31221640	33184
951	108.725653	127569920	92418048	43033848	33184
952	110.432286	127569920	92418048	56112280	33184
953	116.794927	127569920	92418048	57814672	33184
954	123.425714	133517312	98185216	73384312	33184
955	137.03019	133623808	98185216	43608272	33184
956	123.689425	133623808	98185216	49196336	33184
957	122.62684	133623808	98185216	55930624	33184
958	123.951259	133623808	98185216	63881008	33184
959	150.137687	129744896	94515200	36062248	33184
960	129.37456	129744896	94515200	46685904	33184
961	133.807868	129744896	94515200	45889792	33184
962	132.426503	129744896	94515200	58908872	33184
963	164.358757	127938560	92418048	27642224	33184
964	136.627873	127938560	92418048	43191168	33184
965	142.639387	127938560	92418048	47437280	33184
966	146.313209	127938560	92418048	65539320	33184
967	175.569174	129069056	93466624	45146968	33184
968	147.583586	129069056	93466624	53212104	33184
969	148.701349	129609728	93990912	62512888	33184
970	182.319002	140152832	105000960	73144448	33184
971	154.537786	138379264	102903808	49175928	33184
972	158.910602	138379264	102903808	49853576	33184
973	158.942941	138379264	102903808	64247664	33184
974	186.047779	129150976	93990912	29650896	33184
975	160.327611	129150976	93990912	46711288	33184
976	170.847379	129150976	93990912	52373456	33184
977	192.553204	128339968	94515200	40744888	33184
978	173.98945	129687552	94515200	48393256	33184
979	172.833737	129687552	94515200	57949504	33184
980	197.253016	136175616	100806656	68793048	33184
981	189.433511	136679424	101330944	48383952	33184
982	177.860112	136679424	101330944	61798304	33184
983	181.121684	137490432	101855232	76477488	33184
984	220.366103	139018240	103428096	47096040	33184
985	185.356388	139018240	103428096	64414952	33184
986	187.604517	140099584	104476672	82946392	33184
987	219.86924	136196096	101330944	35118208	33184
988	190.375857	136466432	101330944	56300240	33184
989	203.572385	137007104	101855232	66180232	33184
990	228.083223	125882368	90320896	51484184	33184
991	204.268695	128856064	93466624	63904120	33184
992	208.907704	144265216	108670976	77757656	33184
993	232.227015	140001280	105000960	56244432	33184
994	205.947788	140001280	105000960	72636128	33184
995	217.776963	146759680	111292416	77727080	33184
996	244.054218	137142272	101855232	47099576	33184
997	211.422132	137142272	101855232	67391520	33184
998	234.996178	147415040	112340992	89207600	33184
999	242.268955	140488704	105000960	48751848	33184
1000	221.515085	140488704	105000960	73193504	33184
