x	Duration	RSS	HeapTotal	HeapUsed	External
0	NA	136409088	99758080	34372472	33184
1	0.355402	136409088	99758080	34415312	33184
2	0.278089	136409088	99758080	34482648	33184
3	0.323961	136409088	99758080	34574816	33184
4	0.386672	136409088	99758080	34693248	33184
5	0.478574	136409088	99758080	34839728	33184
6	0.540719	136409088	99758080	35014896	33184
7	0.623364	136409088	99758080	35220008	33184
8	0.741387	136409088	99758080	35456296	33184
9	0.804183	136409088	99758080	35726264	33184
10	0.894194	136409088	99758080	36030264	33184
11	0.986049	136409088	99758080	36369328	33184
12	1.248756	136409088	99758080	36744880	33184
13	1.204663	136409088	99758080	37157976	33184
14	1.312526	136409088	99758080	37609984	33184
15	1.468192	136409088	99758080	38102000	33184
16	0.79925	136409088	99758080	38635392	33184
17	0.85636	136409088	99758080	39213064	33184
18	0.929816	136409088	99758080	39834536	33184
19	0.991988	136409088	99758080	40502064	33184
20	1.062186	136409088	99758080	41215776	33184
21	1.114581	136409088	99758080	41977832	33184
22	1.228124	136409088	99758080	42789440	33184
23	1.272283	136409088	99758080	43651872	33184
24	1.55714	136409088	99758080	44566360	33184
25	1.650064	136409088	99758080	45535816	33184
26	5.131534	136409088	99758080	32548024	33184
27	1.52327	136409088	99758080	33626072	33184
28	1.799251	136409088	99758080	34761000	33184
29	1.782078	136409088	99758080	35954968	33184
30	1.938309	136409088	99758080	37207512	33184
31	1.834215	136409088	99758080	38520632	33184
32	1.929122	136409088	99758080	39898232	33184
33	2.009177	136409088	99758080	41343248	33184
34	2.105764	136409088	99758080	42852896	33184
35	2.189426	136409088	99758080	44428136	33184
36	2.346617	136409088	99758080	46070144	33184
37	2.387381	136409088	99758080	47780184	33184
38	4.374906	136409088	99758080	33755776	33184
39	2.803915	136409088	99758080	35605488	33184
40	2.909756	136409088	99758080	37527016	33184
41	2.834669	136409088	99758080	39521472	33184
42	2.87485	136409088	99758080	41590152	33184
43	2.985406	136409088	99758080	43734312	33184
44	3.40138	136409088	99758080	45956000	33184
45	3.237232	136409088	99758080	48257976	33184
46	4.717651	136409088	99758080	34380608	33184
47	3.719318	136409088	99758080	36844736	33184
48	3.706293	136409088	99758080	39393624	33184
49	3.629961	136409088	99758080	42025648	33184
50	4.879289	136409088	99758080	44752256	33184
51	3.898652	136409088	99758080	47557568	33184
52	5.467232	136409088	99758080	34247256	33184
53	4.110154	136409088	99758080	37230248	33184
54	4.924368	136409088	99758080	40312152	33184
55	4.54542	136409088	99758080	43480656	33184
56	4.503595	136409088	99758080	46739168	33184
57	5.89355	136409088	99758080	33993456	33184
58	4.693217	136409088	99758080	37441912	33184
59	5.420803	136409088	99758080	40988192	33184
60	5.088033	136409088	99758080	44631448	33184
61	6.219257	136409088	99758080	48374064	33184
62	6.852695	136409088	99758080	35958440	33184
63	5.3353	136409088	99758080	39902968	33184
64	5.682462	136409088	99758080	43950936	33184
65	5.804517	136409088	99758080	48111976	33184
66	7.292373	136409088	99758080	36301768	33184
67	6.56219	136409088	99758080	40673216	33184
68	6.085698	136409088	99758080	45152384	33184
69	6.319393	136409088	99758080	49740648	33184
70	7.844918	136409088	99758080	38412056	33184
71	6.711774	136409088	99758080	43222056	33184
72	8.023632	136409088	99758080	48155136	33184
73	8.614565	136409088	99758080	37307152	33184
74	7.476415	136409088	99758080	42458824	33184
75	7.160418	136409088	99758080	47727040	33184
76	8.960728	136409088	99758080	37355536	33184
77	8.006641	136409088	99758080	42860288	33184
78	7.650338	136409088	99758080	48485744	33184
79	9.789674	136409088	99758080	38431744	33184
80	8.395384	136409088	99758080	44300664	33184
81	8.298442	136409088	99758080	50294072	33184
82	10.372398	136409088	99758080	40462096	33184
83	8.513585	136409088	99758080	46706432	33184
84	10.647697	136409088	99758080	37559424	33184
85	8.967205	136409088	99758080	44061752	33184
86	9.467691	136409088	99758080	50695040	33184
87	10.926008	136409088	99758080	41483168	33184
88	10.502695	136409088	99758080	48390560	33184
89	11.740563	136409088	99758080	39796808	33184
90	9.833073	136409088	99758080	46966648	33184
91	11.904696	136409088	99758080	38789880	33184
92	10.405802	136409088	99758080	46239288	33184
93	12.840324	136409088	99758080	38486352	33184
94	10.835034	136409088	99758080	46220384	33184
95	13.272615	136409088	99758080	38805960	33184
96	11.253165	136409088	99758080	46831488	33184
97	13.849412	136409088	99758080	39671568	33184
98	11.646822	136409088	99758080	47990488	33184
99	14.052482	136409088	99758080	41026408	33184
100	12.268837	136409088	99758080	49646720	33184
101	14.602607	136409088	99758080	42816392	33184
102	0.483116	136409088	99758080	51562080	33184
103	0.69015	136409088	99758080	52020768	33184
104	0.895131	136409088	99758080	52634568	33184
105	1.118154	136409088	99758080	53404720	33184
106	1.34452	136409088	99758080	54333056	33184
107	3.380779	136409088	99758080	39354456	33184
108	1.779108	136409088	99758080	40602680	33184
109	2.000394	136409088	99758080	42011136	33184
110	2.221246	136409088	99758080	43583248	33184
111	2.464295	136409088	99758080	45318824	33184
112	2.964059	136409088	99758080	47220168	33184
113	2.936784	136409088	99758080	49286848	33184
114	3.388192	136409088	99758080	51521544	33184
115	3.39011	136409088	99758080	53924480	33184
116	5.397442	136409088	99758080	40403936	33184
117	3.907011	136409088	99758080	43147840	33184
118	4.123292	136409088	99758080	46066208	33184
119	4.570888	136409088	99758080	49158616	33184
120	4.823234	136409088	99758080	52425360	33184
121	6.591984	136409088	99758080	39964264	33184
122	5.120135	136409088	99758080	43584112	33184
123	5.571187	136409088	99758080	47382400	33184
124	5.643915	136409088	99758080	51360528	33184
125	6.111204	136409088	99758080	55520584	33184
126	7.615772	136409088	99758080	43594688	33184
127	6.37073	136409088	99758080	48119256	33184
128	6.680569	136409088	99758080	52828368	33184
129	8.849823	136409088	99758080	41796160	33184
130	7.402845	136409088	99758080	46878760	33184
131	7.439606	136409088	99758080	52148992	33184
132	9.875877	136409088	99758080	41796552	33184
133	8.233801	136409088	99758080	47449552	33184
134	8.453982	136409088	99758080	53301784	33184
135	10.473938	136409088	99758080	43376144	33184
136	8.836595	136409088	99758080	49614312	33184
137	9.410545	136409088	99758080	56047344	33184
138	11.100347	136409088	99758080	46408008	33184
139	9.870119	136409088	99758080	53237304	33184
140	11.779065	136409088	99758080	44334728	33184
141	10.448498	136409088	99758080	51562744	33184
142	12.755781	136409088	99758080	43313984	33184
143	10.814977	136409088	99758080	50951632	33184
144	13.335314	136409088	99758080	43203160	33184
145	11.681184	136409088	99758080	51253168	33184
146	14.122286	136409088	99758080	43904672	33184
147	12.907914	136409088	99758080	52374808	33184
148	14.448548	136409088	99758080	45321720	33184
149	12.583834	136409088	99758080	54214536	33184
150	15.162456	136409088	99758080	47341704	33184
151	13.292849	136409088	99758080	56661888	33184
152	15.340438	136409088	99758080	49932744	33184
153	16.543528	136409088	99758080	44293912	33184
154	14.338603	136409088	99758080	54265984	33184
155	16.638497	136409088	99758080	48496584	33184
156	18.001629	136409088	99758080	43761928	33184
157	15.531653	136409088	99758080	54396304	33184
158	17.735201	136409088	99758080	49311560	33184
159	19.243802	136409088	99758080	45177296	33184
160	16.515151	136409088	99758080	56485744	33184
161	18.383523	136409088	99758080	51855976	33184
162	19.167614	136409088	99758080	48090624	33184
163	20.454263	136409088	99758080	45032656	33184
164	18.095033	136409088	99758080	57257984	33184
165	19.45475	136409088	99758080	53504288	33184
166	20.597025	136409088	99758080	50521064	33184
167	21.600175	136409088	99758080	48135256	33184
168	22.035149	136409088	99758080	46322336	33184
169	23.16051	136409088	99758080	45022448	33184
170	20.246605	136409088	99758080	58664944	33184
171	22.081602	136409088	99758080	56265952	33184
172	23.067692	136409088	99758080	54417136	33184
173	23.576186	136409088	99758080	53044008	33184
174	24.460614	136409088	99758080	52088832	33184
175	23.913659	136409088	99758080	51520040	33184
176	24.661685	136409088	99758080	51312376	33184
177	24.965814	136409088	99758080	51398472	33184
178	25.688057	136409088	99758080	51740496	33184
179	25.957178	136409088	99758080	52300872	33184
180	26.019835	136409088	99758080	53055752	33184
181	28.238526	136409088	99758080	53969696	33184
182	26.601085	136409088	99758080	55031336	33184
183	27.422867	136409088	99758080	56228024	33184
184	27.1684	136409088	99758080	57553936	33184
185	27.612238	136409088	99758080	58960776	33184
186	28.095784	136409088	99758080	60464552	33184
187	32.528682	136409088	99758080	47891912	33184
188	30.541805	136409088	99758080	51416056	33184
189	29.630921	136409088	99758080	54806080	33184
190	30.041213	136409088	99758080	58017600	33184
191	29.712778	136409088	99758080	61071040	33184
192	34.892597	136409088	99758080	49859696	33184
193	32.077767	136409088	99758080	54549072	33184
194	31.64562	136409088	99758080	58978200	33184
195	36.885944	136409088	99758080	49201272	33184
196	36.103711	136409088	99758080	57006032	33184
197	33.667185	136409088	99758080	62325568	33184
198	37.976301	136409088	99758080	53276000	33184
199	36.658068	136409088	99758080	61916856	33184
200	34.028924	136409088	99758080	67937048	33184
201	38.550248	136409088	99758080	59117920	33184
202	0.862945	136409088	99758080	65936064	33184
203	1.251042	136409088	99758080	66780816	33184
204	1.636596	136409088	99758080	67909416	33184
205	4.643248	136409088	99758080	53120696	33184
206	2.934667	136409088	99758080	54821488	33184
207	2.906356	136409088	99758080	56809584	33184
208	3.504193	136409088	99758080	59086520	33184
209	3.86354	136409088	99758080	61653248	33184
210	4.112413	136409088	99758080	64512136	33184
211	4.496854	136409088	99758080	67663544	33184
212	7.590569	136409088	99758080	54915176	33184
213	5.343299	136409088	99758080	58655120	33184
214	5.831643	136409088	99758080	62691104	33184
215	6.207091	136409088	99758080	67024536	33184
216	9.570064	136409088	99758080	55576192	33184
217	7.352533	136409088	99758080	60507752	33184
218	7.535722	136409088	99758080	65744400	33184
219	10.642794	136409088	99758080	55394648	33184
220	8.612532	136409088	99758080	61235472	33184
221	8.994665	136409088	99758080	67383000	33184
222	11.899614	136409088	99758080	57711224	33184
223	9.921066	136409088	99758080	64469880	33184
224	13.393831	136409088	99758080	55833416	33184
225	10.589849	136409088	99758080	63211848	33184
226	14.206729	136409088	99758080	55342520	33184
227	11.682407	136409088	99758080	63342856	33184
228	14.948292	136409088	99758080	56097720	33184
229	12.689629	136409088	99758080	64731168	33184
230	16.15329	136409088	99758080	57967680	33184
231	13.570654	136409088	99758080	67239752	33184
232	16.600422	136409088	99758080	60784896	33184
233	17.866676	136409088	99758080	55517496	33184
234	14.86055	136409088	99758080	65759872	33184
235	18.082847	136409088	99758080	60507504	33184
236	20.172566	136409088	99758080	56302512	33184
237	16.584514	136409088	99758080	67527408	33184
238	19.380476	136409088	99758080	63018496	33184
239	20.652096	136409088	99758080	59471864	33184
240	21.623995	136409088	99758080	56711992	33184
241	18.587539	136409088	99758080	69254888	33184
242	21.556817	136409088	99758080	65875704	33184
243	22.346952	136409088	99758080	63325336	33184
244	22.920828	136409088	99758080	61415712	33184
245	23.935245	136409088	99758080	60111576	33184
246	24.914617	136409088	99758080	59339792	33184
247	25.473512	136409088	99758080	59045016	33184
248	25.933272	136409088	99758080	59141760	33184
249	26.465565	136409088	99758080	59580304	33184
250	27.237884	136409088	99758080	60300152	33184
251	27.069524	136409088	99758080	61260032	33184
252	27.950731	136409088	99758080	62451032	33184
253	27.617133	136409088	99758080	63857880	33184
254	28.452709	136409088	99758080	65432984	33184
255	28.774951	136409088	99758080	67132496	33184
256	29.478408	136409088	99758080	68968760	33184
257	28.802562	136409088	99758080	70908432	33184
258	34.492686	136409088	99758080	58809464	33184
259	32.758886	136409088	99758080	62866552	33184
260	31.542516	136409088	99758080	66800768	33184
261	31.041854	136409088	99758080	70537112	33184
262	36.950725	136409088	99758080	60081800	33184
263	35.824369	136409088	99758080	67791656	33184
264	33.359585	136409088	99758080	73024400	33184
265	38.506941	136409088	99758080	63730832	33184
266	37.909428	136679424	100282368	72530856	33184
267	40.787276	137760768	100806656	65015136	33184
268	40.748689	138842112	101855232	74500536	33184
269	58.42252	138842112	102379520	67792200	33184
270	42.388214	126803968	90320896	24772424	33184
271	35.043288	126803968	90320896	32500736	33184
272	38.071945	126803968	90320896	25381912	33184
273	39.539604	126803968	90320896	20363024	33184
274	39.387964	126803968	90320896	32011304	33184
275	40.448583	126803968	90320896	26984736	33184
276	45.982082	126803968	90320896	26797032	33184
277	41.692849	126803968	90320896	39468904	33184
278	42.166978	126803968	90320896	35301384	33184
279	47.537692	126803968	90320896	36227024	33184
280	47.292893	126803968	90320896	37386976	33184
281	43.61125	127344640	90320896	51588784	33184
282	44.309822	127344640	90320896	48547768	33184
283	49.612532	127344640	90320896	51017024	33184
284	49.762476	127344640	90320896	53723344	33184
285	56.171387	127344640	90320896	56784240	33184
286	71.487424	122658816	87175168	31299392	33184
287	51.82321	124006400	87175168	34598856	33184
288	52.858304	124006400	87175168	38760408	33184
289	52.241916	124006400	87175168	43341240	33184
290	53.45076	124006400	87175168	48305120	33184
291	54.20017	124006400	87175168	53632472	33184
292	58.393342	124276736	87175168	46794856	33184
293	54.697787	124276736	87175168	52933208	33184
294	55.551092	124276736	87699456	59439552	33184
295	83.928941	127705088	92418048	23746832	33184
296	60.119696	131756032	95563776	30477736	33184
297	57.381218	135540736	99758080	38189016	33184
298	59.717266	139325440	103952384	46323968	33184
299	64.267253	145002496	110243840	42286264	33184
300	61.23658	148787200	114438144	51195792	33184
301	59.96012	152571904	118632448	60540568	33184
302	1.245962	158519296	124923904	57863320	33184
303	2.191841	158519296	124923904	59085424	33184
304	2.672137	158519296	124923904	60720184	33184
305	2.984655	158519296	124923904	62761888	33184
306	3.802018	158519296	124923904	65215888	33184
307	8.055732	160411648	124923904	54394032	33184
308	5.030311	160411648	124923904	57677472	33184
309	5.380556	160411648	124923904	61374544	33184
310	6.183003	160411648	124923904	65491400	33184
311	8.120909	160952320	124923904	54645776	33184
312	7.208831	160952320	124923904	59599112	33184
313	7.797347	160952320	124923904	64971688	33184
314	9.5238	160952320	124923904	55024136	33184
315	9.517591	160952320	124923904	61243776	33184
316	9.975359	160952320	124923904	67885144	33184
317	10.847889	160952320	124923904	58795752	33184
318	11.364457	160952320	124923904	66293504	33184
319	12.484101	160952320	124923904	58294832	33184
320	12.348621	160952320	124923904	66651080	33184
321	13.391469	160952320	124923904	59440864	33184
322	13.592117	160952320	124923904	68657456	33184
323	14.906653	160952320	124923904	62046704	33184
324	16.085487	160952320	124923904	56817632	33184
325	15.503415	160952320	124923904	67333864	33184
326	16.758247	160952320	124923904	62224736	33184
327	18.478593	160952320	124923904	58264896	33184
328	18.428621	160952320	124923904	70101992	33184
329	19.065249	160952320	124923904	65970336	33184
330	19.624373	161222656	124923904	62862096	33184
331	20.976527	161222656	124923904	60638952	33184
332	21.965129	161222656	124923904	59154120	33184
333	22.88577	161222656	124923904	58353456	33184
334	23.864499	161222656	124923904	58111424	33184
335	24.926254	161222656	124923904	58364536	33184
336	28.193905	161222656	124923904	59024784	33184
337	36.27382	161222656	124923904	60073272	33184
338	34.842757	104357888	67776512	29123072	33184
339	25.49224	104357888	67776512	29759104	33184
340	26.118455	104357888	67776512	30755920	33184
341	26.76282	104357888	67776512	32087416	33184
342	29.902322	104357888	67776512	19496488	33184
343	29.67045	104357888	67776512	23305088	33184
344	29.179352	104357888	67776512	27051736	33184
345	29.686651	104357888	67776512	30743224	33184
346	32.703199	104357888	67776512	20342664	33184
347	35.254591	104357888	67776512	28357608	33184
348	32.269476	104357888	67776512	33870456	33184
349	34.573479	104357888	67776512	24750224	33184
350	37.063959	104357888	67776512	34161528	33184
351	36.84285	104357888	67776512	26979512	33184
352	37.436863	104357888	67776512	37301712	33184
353	38.238634	104357888	67776512	30944416	33184
354	38.837129	104628224	67776512	42178112	33184
355	38.936427	104898560	68300800	36393048	33184
356	45.206429	105439232	68300800	36037632	33184
357	41.432747	106790912	69873664	48528016	33184
358	40.911659	107331584	70397952	44035280	33184
359	47.939566	111386624	74592256	45032864	33184
360	48.596935	115171328	78262272	46447512	33184
361	58.849599	119226368	82456576	48231912	33184
362	72.993038	113983488	77213696	24736960	33184
363	54.02244	113983488	77213696	27550216	33184
364	51.463006	113983488	77213696	43453728	33184
365	47.957681	113983488	77213696	41856016	33184
366	46.853492	113983488	77213696	41118936	33184
367	52.515613	113983488	77213696	46113896	33184
368	53.180282	113983488	77213696	51367472	33184
369	58.430079	115064832	78262272	44606752	33184
370	55.132307	119119872	82456576	50890728	33184
371	56.684494	122904576	86126592	57662896	33184
372	58.420103	126689280	89796608	64956488	33184
373	89.206807	118775808	83505152	30311360	33184
374	58.176657	120123392	83505152	37786448	33184
375	62.758407	120123392	83505152	34002376	33184
376	60.13305	120123392	83505152	43288840	33184
377	59.607587	120123392	83505152	53126928	33184
378	66.398618	120393728	83505152	50896928	33184
379	61.224227	120934400	84029440	61741424	33184
380	68.505454	126341120	89272320	60523344	33184
381	73.206419	130125824	93990912	72382160	33184
382	89.361344	123658240	87175168	25787304	33184
383	64.720482	123658240	87175168	38640912	33184
384	71.159885	124198912	87175168	39471304	33184
385	71.163927	124198912	87175168	40806528	33184
386	66.396558	124198912	87175168	55296584	33184
387	71.652356	124198912	87175168	57657208	33184
388	78.679269	126361600	89272320	60611320	33184
389	94.887807	126312448	89272320	33590640	33184
390	73.733893	126312448	89272320	37658632	33184
391	78.332225	126312448	89272320	42153920	33184
392	75.140075	126312448	89272320	47159560	33184
393	76.876784	126312448	89272320	52744136	33184
394	76.548503	126853120	89796608	58827880	33184
395	84.300514	129826816	93466624	65422792	33184
396	102.134674	128495616	91369472	28457704	33184
397	78.881314	128495616	91369472	36118000	33184
398	80.197012	128495616	91369472	44345936	33184
399	80.090742	128495616	91369472	53087792	33184
400	82.488476	128495616	91369472	62358504	33184
401	87.750723	128765952	91893760	59566672	33184
402	1.643602	126783488	91369472	40384480	33184
403	6.54664	128131072	91369472	28441504	33184
404	3.193693	128131072	91369472	30621640	33184
405	4.097223	128131072	91369472	33340384	33184
406	4.937174	128131072	91369472	36606920	33184
407	5.498896	128131072	91369472	40424096	33184
408	8.474017	128131072	91369472	30274912	33184
409	7.126707	128131072	91369472	35190672	33184
410	7.909724	128131072	91369472	40659784	33184
411	9.508494	128131072	91369472	30615984	33184
412	9.789601	128131072	91369472	37199576	33184
413	11.433485	128131072	91369472	28739304	33184
414	11.441127	128131072	91369472	36429632	33184
415	13.143657	128131072	91369472	29185520	33184
416	13.051687	128131072	91369472	37993504	33184
417	14.590546	128131072	91369472	31660280	33184
418	14.384787	128131072	91369472	41597640	33184
419	15.694523	128131072	91369472	35904552	33184
420	17.330242	128131072	91369472	31575368	33184
421	17.183667	128131072	91369472	43204800	33184
422	18.597246	128131072	91369472	38991184	33184
423	19.543813	128131072	91369472	35920424	33184
424	20.473801	128131072	91369472	33862208	33184
425	21.854824	128131072	91369472	32655648	33184
426	23.287516	128131072	91369472	32191392	33184
427	23.583578	128131072	91369472	32375568	33184
428	24.821462	128131072	91369472	33096088	33184
429	25.262392	128131072	91369472	34264848	33184
430	29.55909	128131072	91369472	35868760	33184
431	27.652197	128131072	91369472	37842432	33184
432	27.611409	128131072	91369472	40124960	33184
433	28.08303	128131072	91369472	42671488	33184
434	31.664136	128131072	91369472	31383128	33184
435	34.119746	128131072	91369472	38656616	33184
436	31.78407	128131072	91369472	43652120	33184
437	34.022598	128131072	91369472	34516088	33184
438	35.465088	128131072	91369472	43509656	33184
439	36.429404	128131072	91369472	36417040	33184
440	37.643125	128131072	91369472	46526792	33184
441	38.021777	128131072	91369472	40469744	33184
442	38.909649	128131072	91369472	51778088	33184
443	39.963894	128131072	91369472	46436160	33184
444	44.582175	128131072	91369472	46293400	33184
445	41.657243	128131072	91369472	59258128	33184
446	42.490588	128131072	91369472	55417784	33184
447	47.543131	128131072	91369472	57050952	33184
448	48.522172	128401408	91369472	59158504	33184
449	50.129077	130834432	93990912	61841152	33184
450	56.76357	134619136	98185216	65118328	33184
451	69.374223	130580480	95563776	34152752	33184
452	51.148885	131928064	95563776	37529720	33184
453	54.117902	131928064	95563776	42630984	33184
454	57.419266	131928064	95563776	35848672	33184
455	56.109688	131928064	95563776	42247784	33184
456	55.769311	131928064	95563776	49251656	33184
457	57.036639	131928064	95563776	56876064	33184
458	61.980874	131928064	95563776	52559760	33184
459	60.005185	132468736	95563776	61377912	33184
460	88.244344	128528384	92942336	27001312	33184
461	63.232073	129875968	92942336	36293384	33184
462	64.920141	129875968	92942336	34280960	33184
463	61.34857	129875968	92942336	45469016	33184
464	68.383591	129875968	92942336	44730640	33184
465	63.485893	129875968	92942336	57113160	33184
466	68.807165	129875968	92942336	57593632	33184
467	69.619563	129875968	92942336	58725536	33184
468	98.137484	132849664	97660928	29159528	33184
469	71.517916	134471680	97660928	30772392	33184
470	68.116856	134471680	97660928	46303528	33184
471	73.440078	134471680	97660928	49938024	33184
472	74.85411	134471680	97660928	54124696	33184
473	75.762672	134471680	97660928	58981528	33184
474	75.495216	134471680	97660928	64446192	33184
475	82.845861	135012352	98185216	70579904	33184
476	101.537613	134131712	97136640	29560128	33184
477	78.190719	134131712	97136640	36894888	33184
478	80.291725	134131712	97136640	44887448	33184
479	81.536044	134131712	97136640	53538888	33184
480	81.026817	134131712	97136640	62806088	33184
481	86.859335	134131712	97136640	60149976	33184
482	112.538325	127791104	92418048	39623488	33184
483	88.436339	129138688	92418048	37655792	33184
484	84.207222	129138688	92418048	49492240	33184
485	90.351522	129138688	92418048	49376624	33184
486	87.115309	129138688	92418048	62519416	33184
487	93.472644	131571712	95039488	63735176	33184
488	117.121654	130711552	95563776	29668232	33184
489	94.47556	132059136	95563776	31045088	33184
490	91.199807	132059136	95563776	46730240	33184
491	96.245037	132059136	95563776	50528112	33184
492	96.555561	132059136	95563776	54981592	33184
493	102.507189	132059136	95563776	60071880	33184
494	123.953672	128315392	91369472	34849296	33184
495	99.47602	128315392	91369472	41228088	33184
496	101.182745	128315392	91369472	48280816	33184
497	102.895903	128315392	91369472	56016760	33184
498	105.590892	130478080	93990912	64355576	33184
499	131.883888	133672960	97136640	24484688	33184
500	105.073161	133672960	97136640	34334040	33184
501	108.953969	133672960	97136640	44703472	33184
502	2.102527	133672960	97136640	56159624	33184
503	3.098407	133672960	97136640	58155568	33184
504	7.860488	133672960	97136640	47781824	33184
505	4.953939	133672960	97136640	51114056	33184
506	5.876445	133672960	97136640	55116936	33184
507	7.009161	133672960	97136640	59791064	33184
508	9.327997	133943296	97136640	50167936	33184
509	8.76843	133943296	97136640	56188088	33184
510	9.949707	133943296	97136640	62884088	33184
511	10.984286	133943296	97136640	53791016	33184
512	11.952692	133943296	97136640	61845600	33184
513	13.006395	133943296	97136640	54253192	33184
514	14.901513	133943296	97136640	48408704	33184
515	14.943842	133943296	97136640	58500560	33184
516	16.542548	133943296	97136640	53396536	33184
517	18.242183	133943296	97136640	49707248	33184
518	17.964361	133943296	97136640	61853304	33184
519	19.426553	133943296	97136640	58362360	33184
520	21.199934	133943296	97136640	56036888	33184
521	22.775336	133943296	97136640	54718768	33184
522	22.992565	133943296	97136640	54295240	33184
523	24.495054	133943296	97136640	54615800	33184
524	25.277364	133943296	97136640	55576200	33184
525	26.02744	133943296	97136640	57137792	33184
526	27.052733	133943296	97136640	59132512	33184
527	28.0704	133943296	97136640	61562528	33184
528	31.53345	133943296	97136640	50340832	33184
529	33.770489	133943296	97136640	57717232	33184
530	31.777186	133943296	97136640	62902992	33184
531	35.150545	133943296	97136640	54072408	33184
532	38.51726	133943296	97136640	63516768	33184
533	45.61678	133943296	97136640	56851440	33184
534	52.654125	125386752	88223744	20351200	33184
535	40.455556	125386752	88223744	31865496	33184
536	40.824548	125386752	88223744	27109216	33184
537	45.729943	125386752	88223744	27497440	33184
538	42.651745	125386752	88223744	41045352	33184
539	42.958918	125386752	88223744	37778776	33184
540	49.708667	125386752	88223744	40335776	33184
541	50.928143	125386752	88223744	43474384	33184
542	52.374899	125386752	88223744	47306928	33184
543	51.978307	125386752	88223744	51858296	33184
544	55.138847	125386752	88223744	57140064	33184
545	78.88871	125657088	88748032	63149168	33184
546	64.769868	126242816	89272320	29046904	33184
547	56.024368	126242816	89272320	36467184	33184
548	57.260221	126242816	89272320	44604568	33184
549	62.328232	126242816	89272320	40891360	33184
550	62.272467	126242816	89272320	50520112	33184
551	60.259268	126242816	89272320	60866944	33184
552	66.626694	126242816	89272320	59322776	33184
553	72.31181	129486848	92942336	71127752	33184
554	84.946717	130338816	93466624	37185616	33184
555	68.579982	130338816	93466624	37884224	33184
556	70.551835	130338816	93466624	39293080	33184
557	71.149341	130338816	93466624	41324976	33184
558	68.991966	130338816	93466624	56706200	33184
559	73.610724	130338816	93466624	60260512	33184
560	81.616409	130338816	93466624	64488336	33184
561	100.719416	126730240	89796608	26619176	33184
562	77.520466	126730240	89796608	32356632	33184
563	78.755415	126730240	89796608	38838448	33184
564	78.908635	126730240	89796608	46117856	33184
565	81.564559	126730240	89796608	54116720	33184
566	81.155867	127270912	90320896	62858040	33184
567	111.594295	130621440	95039488	26855504	33184
568	85.304212	131969024	95039488	36142000	33184
569	89.493652	131969024	95039488	34624584	33184
570	86.375866	131969024	95039488	46339992	33184
571	87.019358	131969024	95039488	58851512	33184
572	93.09645	131969024	95039488	59590560	33184
573	121.337414	128327680	91369472	31807024	33184
574	91.600459	128327680	91369472	46616600	33184
575	96.331055	128327680	91369472	49579208	33184
576	96.384089	128327680	91369472	53344296	33184
577	98.358527	128868352	91893760	57820336	33184
578	99.298243	134275072	97660928	75675688	33184
579	132.904995	135643136	98709504	35045464	33184
580	101.325277	135643136	98709504	41828648	33184
581	102.165647	135643136	98709504	49398856	33184
582	102.488539	135643136	98709504	57696840	33184
583	104.989485	135643136	98709504	66792480	33184
584	132.678169	131100672	94515200	28136296	33184
585	107.775189	131100672	94515200	38912448	33184
586	107.650668	131100672	94515200	50321960	33184
587	112.31415	131100672	94515200	49975152	33184
588	111.403871	131100672	94515200	62943120	33184
589	144.548426	130981888	94515200	34603000	33184
590	111.183792	130981888	94515200	49099608	33184
591	118.111142	130981888	94515200	51830784	33184
592	113.989521	130981888	94515200	67897664	33184
593	127.230188	137740288	100806656	72176664	33184
594	143.952273	138969088	101855232	42068728	33184
595	122.850077	138969088	101855232	47925088	33184
596	123.683615	138969088	101855232	54561520	33184
597	125.065466	138969088	101855232	62004456	33184
598	150.418021	130347008	93466624	33494688	33184
599	128.159243	130347008	93466624	42661040	33184
600	128.773419	130347008	93466624	52476528	33184
601	128.929329	130347008	93466624	63066752	33184
602	2.387226	130420736	93466624	29580368	33184
603	3.622079	130420736	93466624	31964800	33184
604	4.924266	130420736	93466624	35146224	33184
605	9.108866	130420736	93466624	25622640	33184
606	7.541267	130420736	93466624	30404400	33184
607	8.410713	130420736	93466624	35984992	33184
608	10.487808	130420736	93466624	26989552	33184
609	10.697128	130420736	93466624	34175320	33184
610	13.017031	130420736	93466624	26616064	33184
611	13.256459	130420736	93466624	35413528	33184
612	15.54169	130420736	93466624	29349976	33184
613	15.823401	130420736	93466624	39767552	33184
614	17.414496	130420736	93466624	34694792	33184
615	18.936195	130420736	93466624	31117080	33184
616	20.588529	130420736	93466624	28858312	33184
617	22.171359	130420736	93466624	27742880	33184
618	23.888162	130420736	93466624	27579768	33184
619	25.067431	130420736	93466624	28272448	33184
620	26.025688	130420736	93466624	29728688	33184
621	26.821742	130420736	93466624	31788976	33184
622	28.443622	130420736	93466624	34334880	33184
623	28.889459	130420736	93466624	37369872	33184
624	29.016262	130420736	93466624	40842776	33184
625	33.890624	130420736	93466624	30578536	33184
626	32.5777	130420736	93466624	36643520	33184
627	36.809882	130420736	93466624	29066088	33184
628	37.783117	130420736	93466624	39380744	33184
629	38.878489	130420736	93466624	33644712	33184
630	40.942336	130420736	93466624	45619856	33184
631	41.459095	130420736	93466624	40984784	33184
632	47.178592	130420736	93466624	42012272	33184
633	48.860742	130420736	93466624	43817768	33184
634	49.062457	130420736	93466624	46303712	33184
635	51.292516	130420736	93466624	49703440	33184
636	52.437175	130420736	93466624	53961064	33184
637	54.068061	130420736	93466624	58978952	33184
638	79.109705	132313088	95563776	64956560	33184
639	60.833257	131788800	95039488	26063616	33184
640	58.268926	131788800	95039488	33632632	33184
641	58.906093	131788800	95039488	41902072	33184
642	63.60746	131788800	95039488	38568160	33184
643	60.27836	131788800	95039488	48646496	33184
644	61.085987	131788800	95039488	59469184	33184
645	67.616706	131788800	95039488	58654504	33184
646	73.001528	132870144	96088064	58683576	33184
647	92.282412	130072576	93466624	27275392	33184
648	66.355332	130072576	93466624	41685128	33184
649	72.998388	130072576	93466624	44258472	33184
650	74.725453	130072576	93466624	47716808	33184
651	76.841523	130072576	93466624	51947424	33184
652	76.782808	130072576	93466624	57096032	33184
653	78.885057	130342912	93466624	63139968	33184
654	106.722759	130203648	95039488	39473048	33184
655	85.770533	131551232	95039488	33806136	33184
656	81.840817	131551232	95039488	42437400	33184
657	81.468249	131551232	95039488	51856576	33184
658	83.757718	131551232	95039488	62147392	33184
659	89.634403	132091904	95039488	60787960	33184
660	94.575595	134795264	98185216	72787744	33184
661	108.255614	135307264	98185216	37990624	33184
662	93.263248	135307264	98185216	39192400	33184
663	91.63844	135307264	98185216	53795712	33184
664	97.207198	135307264	98185216	56742240	33184
665	96.916515	135307264	98185216	60604544	33184
666	123.409314	127909888	92418048	31865752	33184
667	99.762295	129257472	92418048	36519920	33184
668	101.423448	129257472	92418048	42966824	33184
669	101.527302	129257472	92418048	50231744	33184
670	105.347735	129257472	92418048	58461728	33184
671	128.845018	127938560	92418048	35449608	33184
672	110.130967	129286144	92418048	32155168	33184
673	107.542634	129286144	92418048	42916288	33184
674	111.746089	129286144	92418048	54648608	33184
675	112.436454	129286144	92418048	67410064	33184
676	145.887534	130424832	93990912	39354768	33184
677	116.480543	130424832	93990912	41187968	33184
678	115.909851	130424832	93990912	56474608	33184
679	118.953147	130424832	93990912	60080608	33184
680	129.033694	136642560	99758080	77110056	33184
681	140.305106	134209536	97136640	34775960	33184
682	122.249414	134209536	97136640	53564552	33184
683	124.972765	134209536	97136640	60716184	33184
684	127.335029	134209536	97136640	68752240	33184
685	153.332821	131559424	95039488	28286944	33184
686	132.288812	131559424	95039488	38104376	33184
687	130.924187	131559424	95039488	48813664	33184
688	133.478821	131559424	95039488	60455304	33184
689	165.164101	126640128	89796608	46292232	33184
690	137.461261	126910464	89796608	47202488	33184
691	134.554891	126910464	89796608	61502904	33184
692	138.79025	135290880	98709504	76751696	33184
693	172.410438	130748416	93990912	27742048	33184
694	140.115708	131018752	93990912	44736456	33184
695	147.258328	131018752	93990912	50113400	33184
696	144.694664	131018752	93990912	68954632	33184
697	177.05648	127823872	90845184	47293288	33184
698	150.086292	127823872	90845184	55462520	33184
699	152.299103	129716224	92942336	64681880	33184
700	163.441466	141611008	105000960	74848176	33184
701	179.034412	140886016	103952384	50159672	33184
702	7.405315	140886016	103952384	50151184	33184
703	4.383168	140886016	103952384	52904456	33184
704	5.738929	140886016	103952384	56576864	33184
705	7.289053	140886016	103952384	61177352	33184
706	10.49768	140886016	103952384	52329944	33184
707	9.953983	140886016	103952384	58780232	33184
708	11.807726	140886016	103952384	50616000	33184
709	12.622301	140886016	103952384	58906328	33184
710	14.847697	140886016	103952384	52595600	33184
711	16.271193	140886016	103952384	62756408	33184
712	17.013223	140886016	103952384	57748744	33184
713	19.095003	140886016	103952384	54379744	33184
714	21.084418	140886016	103952384	52464608	33184
715	22.936955	140886016	103952384	51740336	33184
716	24.878869	140886016	103952384	52033304	33184
717	25.784173	140886016	103952384	53227840	33184
718	27.048336	140886016	103952384	55255664	33184
719	28.396478	140886016	103952384	57969240	33184
720	29.074047	140886016	103952384	61294176	33184
721	29.848692	140886016	103952384	65043064	33184
722	33.73187	140886016	103952384	55132448	33184
723	33.173955	140886016	103952384	61675704	33184
724	37.225772	140886016	103952384	54575632	33184
725	38.366703	140886016	103952384	65598008	33184
726	40.031176	140886016	103952384	60402080	33184
727	46.251801	140886016	103952384	60773536	33184
728	43.125777	140886016	103952384	74561792	33184
729	44.184812	140886016	103952384	71695144	33184
730	45.450872	140886016	103952384	70325656	33184
731	51.720056	140886016	103952384	74471920	33184
732	63.896452	141426688	104476672	79557048	33184
733	72.27114	131620864	95039488	31627504	33184
734	56.06329	131620864	95039488	38862552	33184
735	63.211695	131620864	95039488	34222880	33184
736	59.169221	131620864	95039488	43193488	33184
737	60.177143	131620864	95039488	53130880	33184
738	65.885353	131620864	95039488	51430904	33184
739	67.835808	131620864	95039488	50696832	33184
740	65.156231	132161536	95039488	63574928	33184
741	93.835259	128028672	92418048	34465592	33184
742	72.401376	129376256	92418048	36116112	33184
743	73.901679	129376256	92418048	39264520	33184
744	74.817535	129376256	92418048	43478672	33184
745	76.47232	129376256	92418048	48682176	33184
746	77.372082	129376256	92418048	54808016	33184
747	79.389962	129646592	92942336	62067328	33184
748	107.483173	133701632	98185216	38915512	33184
749	85.434369	135053312	98185216	34786112	33184
750	83.010898	135053312	98185216	44823744	33184
751	84.885969	135053312	98185216	55981808	33184
752	90.399875	135053312	98185216	55464080	33184
753	88.470409	135053312	98185216	68562376	33184
754	121.295517	134000640	98709504	22320264	33184
755	93.319172	135618560	98709504	36414368	33184
756	96.541145	135618560	98709504	39911528	33184
757	98.125559	135618560	98709504	44381176	33184
758	94.63942	135618560	98709504	62480864	33184
759	102.732025	135618560	98709504	69041704	33184
760	133.71537	130027520	92942336	33043200	33184
761	103.643278	130027520	92942336	41535376	33184
762	104.922908	130027520	92942336	51086984	33184
763	105.838499	130027520	92942336	61750928	33184
764	109.577826	131649536	95039488	73390704	33184
765	140.6834	132378624	96088064	23825488	33184
766	112.818056	132648960	96088064	37373624	33184
767	112.851943	132648960	96088064	51948984	33184
768	119.352921	132648960	96088064	54994920	33184
769	145.346585	124674048	89272320	28587368	33184
770	120.948301	126021632	89272320	33186168	33184
771	118.573142	126021632	89272320	51823960	33184
772	125.66637	126021632	89272320	58911408	33184
773	132.136433	131158016	94515200	66990504	33184
774	152.92402	132460544	95563776	45934912	33184
775	128.931269	132460544	95563776	56034584	33184
776	134.416979	132460544	95563776	54623928	33184
777	132.942328	134082560	97136640	66818560	33184
778	169.129842	135266304	98185216	35300160	33184
779	136.32272	135266304	98185216	49516864	33184
780	135.787243	135266304	98185216	64815304	33184
781	141.491589	137158656	100282368	68526944	33184
782	167.191128	132628480	96088064	32600808	33184
783	144.638395	132628480	96088064	38561256	33184
784	142.722061	132628480	96088064	58020280	33184
785	147.375681	133439488	96612352	65847400	33184
786	175.378624	129875968	92942336	26697248	33184
787	146.094182	129875968	92942336	49181152	33184
788	151.2669	129875968	92942336	60184240	33184
789	185.849881	129417216	92942336	29604232	33184
790	158.202549	129417216	92942336	42768840	33184
791	158.003334	129417216	92942336	57052488	33184
792	169.185958	132120576	95563776	72404600	33184
793	188.08488	132993024	96088064	45829832	33184
794	162.720408	132993024	96088064	63071888	33184
795	168.791438	134344704	97660928	68775152	33184
796	193.538951	133054464	96612352	36620960	33184
797	171.375494	133054464	96612352	44453848	33184
798	173.270503	133054464	96612352	53219728	33184
799	203.079905	129515520	92418048	31582776	33184
800	176.266606	129515520	92418048	42458376	33184
801	176.313425	129515520	92418048	54358448	33184
802	3.160112	131186688	94515200	35783016	33184
803	4.653416	131186688	94515200	38961144	33184
804	9.828642	131186688	94515200	29806880	33184
805	7.992696	131186688	94515200	35095920	33184
806	9.329704	131186688	94515200	41447976	33184
807	12.707321	131186688	94515200	33512464	33184
808	13.257899	131186688	94515200	41991832	33184
809	14.788066	131186688	94515200	35447664	33184
810	17.625494	131186688	94515200	30823096	33184
811	18.171936	131186688	94515200	42500664	33184
812	19.18922	131186688	94515200	39075032	33184
813	21.511701	131186688	94515200	37209424	33184
814	23.339493	131186688	94515200	36661152	33184
815	25.02903	131186688	94515200	37238352	33184
816	26.517612	131186688	94515200	38833592	33184
817	27.935552	131186688	94515200	41295320	33184
818	28.80241	131186688	94515200	44504208	33184
819	32.878017	131186688	94515200	34128928	33184
820	32.736793	131186688	94515200	40464208	33184
821	36.599862	131186688	94515200	33286720	33184
822	40.022408	131186688	94515200	44388672	33184
823	40.57577	131186688	94515200	39303304	33184
824	46.407181	131186688	94515200	40004168	33184
825	43.388457	131186688	94515200	54147752	33184
826	44.039397	131186688	94515200	51607096	33184
827	46.543135	131186688	94515200	50561192	33184
828	52.252632	131186688	94515200	55529448	33184
829	54.325024	131186688	94515200	61437440	33184
830	59.948693	131186688	94515200	55938128	33184
831	57.536438	131457024	94515200	64049648	33184
832	68.690325	133079040	96612352	73283960	33184
833	78.464565	133595136	97136640	35400808	33184
834	66.688007	133595136	97136640	34321904	33184
835	68.567978	133595136	97136640	34281024	33184
836	65.218995	133595136	97136640	47851664	33184
837	71.331995	133595136	97136640	49986544	33184
838	72.702232	133595136	97136640	53176696	33184
839	74.956203	133595136	97136640	57507744	33184
840	106.065803	128028672	92418048	32544824	33184
841	78.358533	129376256	92418048	38574976	33184
842	80.695727	129376256	92418048	46189800	33184
843	82.476642	129376256	92418048	54905120	33184
844	86.992783	129376256	92418048	52184224	33184
845	84.809634	129376256	92418048	63183272	33184
846	89.299617	133431296	96612352	75227208	33184
847	123.770455	137146368	100282368	29593304	33184
848	88.964536	137146368	100282368	43874368	33184
849	95.07335	137146368	100282368	46719224	33184
850	97.868048	137146368	100282368	50681672	33184
851	95.048001	137146368	100282368	68328024	33184
852	109.529765	137146368	100282368	74551000	33184
853	123.344755	131203072	94515200	34633176	33184
854	103.049097	131203072	94515200	43028224	33184
855	105.364398	131203072	94515200	52625760	33184
856	109.394991	131203072	94515200	63416608	33184
857	127.837569	133365760	96612352	62683688	33184
858	123.121201	134758400	97660928	42343096	33184
859	116.286336	134758400	97660928	43924800	33184
860	113.547726	134758400	97660928	59167984	33184
861	120.836101	134758400	97660928	62915680	33184
862	147.801159	132935680	97660928	34137856	33184
863	121.943725	134283264	97660928	39191816	33184
864	126.334814	134283264	97660928	46422480	33184
865	127.80589	134283264	97660928	54830328	33184
866	146.525261	134553600	97660928	64351616	33184
867	141.414991	131477504	94515200	43194112	33184
868	133.433252	131477504	94515200	55015344	33184
869	137.432216	131477504	94515200	55356096	33184
870	141.002048	134991872	98185216	69465120	33184
871	167.345439	136753152	99758080	39713824	33184
872	138.646189	136753152	99758080	56084288	33184
873	144.99921	136753152	99758080	61056048	33184
874	144.695695	137293824	100282368	79827136	33184
875	181.937257	136704000	100282368	40636536	33184
876	149.051731	136704000	100282368	49006376	33184
877	146.567326	136704000	100282368	71159176	33184
878	167.764949	140218368	103428096	81960344	33184
879	173.646131	140431360	103428096	45229352	33184
880	157.404143	140431360	103428096	58349432	33184
881	159.960914	140431360	103428096	72570792	33184
882	187.401628	137904128	101330944	37359520	33184
883	164.77666	137904128	101330944	41461976	33184
884	163.138261	137904128	101330944	59217688	33184
885	186.603708	138444800	101855232	65476272	33184
886	183.386784	134602752	97660928	41485128	33184
887	167.144973	134602752	97660928	62762384	33184
888	175.263204	136224768	99758080	72609744	33184
889	208.900651	137310208	100282368	31329544	33184
890	178.332272	137310208	100282368	43431856	33184
891	178.791799	137310208	100282368	56743896	33184
892	219.605294	126689280	89796608	45871104	33184
893	183.048239	127229952	90320896	61603208	33184
894	188.106262	139665408	102903808	78437760	33184
895	222.31468	135028736	98709504	40156912	33184
896	191.170883	135028736	98709504	47053168	33184
897	189.708453	135299072	98709504	67504144	33184
898	220.425118	131985408	95039488	41353512	33184
899	197.96725	131985408	95039488	51643088	33184
900	199.555899	131985408	95039488	63040552	33184
901	233.893767	134221824	97660928	39910424	33184
902	3.511612	134221824	97660928	54680368	33184
903	5.270656	134221824	97660928	58249584	33184
904	10.502701	134221824	97660928	49590440	33184
905	8.94726	134221824	97660928	55554224	33184
906	12.267978	134221824	97660928	47961792	33184
907	12.222119	134221824	97660928	56312376	33184
908	15.294283	134221824	97660928	50119576	33184
909	15.960561	134221824	97660928	60871640	33184
910	18.006237	134221824	97660928	56449432	33184
911	20.164641	134221824	97660928	53802136	33184
912	22.305465	134221824	97660928	52758264	33184
913	24.488779	134221824	97660928	53064224	33184
914	26.097501	134221824	97660928	54492344	33184
915	27.287	134221824	97660928	56877544	33184
916	28.77646	134221824	97660928	60162080	33184
917	33.318347	134221824	97660928	50134352	33184
918	33.399232	134221824	97660928	56824208	33184
919	38.182209	134221824	97660928	50158800	33184
920	40.23471	134221824	97660928	61725480	33184
921	40.881044	134221824	97660928	57130680	33184
922	47.920238	134221824	97660928	58517208	33184
923	48.537076	134221824	97660928	60968792	33184
924	52.101615	135303168	98185216	64650200	33184
925	76.966235	137736192	100806656	69574592	33184
926	60.291719	131301376	94515200	27306080	33184
927	56.964881	131301376	94515200	34624096	33184
928	57.727334	131301376	94515200	43169832	33184
929	63.92266	131301376	94515200	40379232	33184
930	61.226942	131301376	94515200	51371896	33184
931	66.817854	131301376	94515200	51029416	33184
932	64.666004	131301376	94515200	64467424	33184
933	71.892804	131571712	94515200	66606432	33184
934	100.899141	131776512	97136640	37196704	33184
935	74.522535	133664768	97136640	40795344	33184
936	78.161518	133664768	97136640	46598776	33184
937	79.401912	133664768	97136640	53590960	33184
938	83.847325	133664768	97136640	49265424	33184
939	81.402873	133664768	97136640	58736648	33184
940	86.27893	134746112	97660928	69443560	33184
941	117.435303	134561792	97660928	35132608	33184
942	92.823352	134561792	97660928	35816440	33184
943	88.746474	134561792	97660928	50205216	33184
944	96.775384	134561792	97660928	53245408	33184
945	97.928938	134561792	97660928	57608576	33184
946	97.098172	134561792	97660928	75848232	33184
947	133.491199	134078464	97136640	36217240	33184
948	101.543188	134078464	97136640	44225712	33184
949	103.820514	134078464	97136640	53528816	33184
950	106.149458	134078464	97136640	64201904	33184
951	117.626546	134078464	97136640	63354072	33184
952	140.200744	135835648	99233792	43833616	33184
953	116.517837	135835648	99233792	45667336	33184
954	115.543793	135835648	99233792	61218688	33184
955	119.939927	135835648	99233792	65443712	33184
956	124.105001	137728000	100806656	70993032	33184
957	154.031357	140976128	104476672	42675264	33184
958	125.669094	140976128	104476672	50614040	33184
959	129.541527	140976128	104476672	59873304	33184
960	128.744445	140976128	104476672	70476216	33184
961	163.497757	136556544	101330944	32872624	33184
962	133.411496	137904128	101330944	44769640	33184
963	139.077051	137904128	101330944	46501120	33184
964	135.97073	137904128	101330944	62032848	33184
965	170.327393	134840320	99758080	33623312	33184
966	145.883571	136728576	99758080	38272432	33184
967	141.18769	136728576	99758080	57631944	33184
968	148.760372	136728576	99758080	65800776	33184
969	178.723568	136175616	99233792	26933872	33184
970	148.904155	136175616	99233792	50096376	33184
971	158.390465	136175616	99233792	49445432	33184
972	176.63465	139149312	102379520	62593656	33184
973	171.35261	131543040	94515200	47984400	33184
974	163.008201	131543040	94515200	51110632	33184
975	163.143877	133976064	97136640	68165912	33184
976	195.792088	134569984	97660928	35714952	33184
977	169.397209	134569984	97660928	42666872	33184
978	167.913674	134569984	97660928	63514856	33184
979	200.974819	127803392	90845184	40269480	33184
980	174.528013	127803392	90845184	51219688	33184
981	178.047191	127803392	90845184	63334456	33184
982	211.637036	133910528	97136640	31222848	33184
983	180.912663	133910528	97136640	45906496	33184
984	183.348503	133910528	97136640	61866120	33184
985	214.950768	133627904	96612352	32291248	33184
986	188.258363	133627904	96612352	50853416	33184
987	196.517446	133627904	96612352	58211352	33184
988	222.29258	133627904	97136640	31943456	33184
989	192.825714	133627904	97136640	54382312	33184
990	200.747556	133627904	97136640	65547152	33184
991	238.229142	129310720	92418048	51926856	33184
992	203.750446	130932736	93990912	65647936	33184
993	208.568299	146341888	109719552	80725976	33184
994	229.837997	133464064	97136640	38317736	33184
995	208.846595	134004736	97136640	56098728	33184
996	241.572294	120397824	83505152	33754448	33184
997	210.929729	120397824	83505152	54024848	33184
998	228.134991	132833280	96088064	75666088	33184
999	244.609301	130895872	93990912	57631768	33184
1000	222.22554	134680576	98185216	69336208	33184
