x	Duration	RSS	HeapTotal	HeapUsed	External
0	NA	120139776	85078016	14675304	33184
1	0.27624	120139776	85078016	14727536	33184
2	0.221399	120139776	85078016	14795480	33184
3	0.24326	120139776	85078016	14888160	33184
4	0.295153	120139776	85078016	15007248	33184
5	0.354572	120139776	85078016	15154504	33184
6	0.420955	120139776	85078016	15330632	33184
7	0.477349	120139776	85078016	15536832	33184
8	0.561441	120139776	85078016	15774336	33184
9	0.740316	120139776	85078016	16045680	33184
10	0.552973	120139776	85078016	16351112	33184
11	0.865946	120139776	85078016	16691856	33184
12	0.917153	120139776	85078016	17069160	33184
13	1.225505	120139776	85078016	17484288	33184
14	0.958063	120139776	85078016	17945120	33184
15	0.876657	120139776	85078016	18440848	33184
16	0.918239	120139776	85078016	18981760	33184
17	0.981655	120139776	85078016	19561992	33184
18	1.025035	120139776	85078016	20186160	33184
19	1.088714	120139776	85078016	20856488	33184
20	1.154058	120139776	85078016	21573304	33184
21	1.454825	120139776	85078016	22338512	33184
22	1.451272	120139776	85078016	23153440	33184
23	1.46812	120139776	85078016	24021384	33184
24	1.81	120139776	85078016	24941792	33184
25	1.593019	120139776	85078016	25911800	33184
26	1.812012	120139776	85078016	26936152	33184
27	3.194991	120139776	85078016	28016408	33184
28	1.841664	120139776	85078016	29153624	33184
29	2.111567	120139776	85078016	30358592	33184
30	2.904097	120139776	85078016	15393280	33184
31	2.06783	120406016	85078016	16708864	33184
32	2.500607	120406016	85078016	18109112	33184
33	2.619871	120406016	85078016	19561704	33184
34	2.236008	120406016	85078016	21074016	33184
35	2.511461	120406016	85078016	22652096	33184
36	2.62244	120406016	85078016	24299184	33184
37	2.723263	120406016	85078016	26010928	33184
38	2.559906	120406016	85078016	27790168	33184
39	2.646925	120406016	85078016	29640024	33184
40	2.783334	120406016	85078016	31561648	33184
41	4.358089	120406016	85078016	17356520	33184
42	2.945213	120406016	85078016	19425120	33184
43	3.035626	120406016	85078016	21569264	33184
44	3.583838	120406016	85078016	23791400	33184
45	3.656601	120406016	85078016	26101600	33184
46	3.435021	120406016	85078016	28484504	33184
47	3.48159	120406016	85078016	30948616	33184
48	5.304019	120406016	85078016	17284488	33184
49	4.04741	120406016	85078016	19916528	33184
50	4.331936	120406016	85078016	22634752	33184
51	3.97851	120406016	85078016	25440240	33184
52	4.07745	120406016	85078016	28333760	33184
53	4.198782	120406016	85078016	31316760	33184
54	5.425094	120406016	85078016	18137616	33184
55	4.454774	120406016	85078016	21303184	33184
56	4.796559	120406016	85078016	24562624	33184
57	5.45056	120406016	85078016	27915704	33184
58	5.334168	120406016	85078016	31373320	33184
59	6.286757	120406016	85078016	18689968	33184
60	5.576342	120406016	85078016	22333504	33184
61	5.459268	120406016	85078016	26076168	33184
62	5.631996	120406016	85078016	29919176	33184
63	6.828148	120406016	85078016	17979888	33184
64	5.934166	120406016	85078016	22027816	33184
65	5.892498	120406016	85078016	26187240	33184
66	6.7753	120406016	85078016	30461432	33184
67	7.911402	120406016	85078016	19036392	33184
68	6.854125	120406016	85078016	23515752	33184
69	7.110427	120406016	85078016	28104016	33184
70	6.867182	120406016	85078016	32802792	33184
71	9.158612	120406016	85078016	21686576	33184
72	7.153633	120406016	85078016	26609248	33184
73	7.07145	120406016	85078016	31646968	33184
74	9.579053	120406016	85078016	21012072	33184
75	7.934676	120406016	85078016	26280920	33184
76	7.659986	120406016	85078016	31666824	33184
77	9.782508	120406016	85078016	21390344	33184
78	8.140832	120406016	85078016	27015216	33184
79	8.082253	120406016	85078016	32761128	33184
80	10.354419	120406016	85078016	22755624	33184
81	8.818573	120406016	85078016	28749040	33184
82	8.688686	120406016	85078016	34868768	33184
83	10.935763	120406016	85078016	25102392	33184
84	9.387593	120406016	85078016	31476360	33184
85	11.142165	120406016	85078016	22318584	33184
86	9.438154	120406016	85078016	28953240	33184
87	9.758698	120406016	85078016	35718984	33184
88	11.373149	120406016	85078016	26578264	33184
89	10.043163	120406016	85078016	33612296	33184
90	12.003235	120406016	85078016	24938712	33184
91	10.562066	120406016	85078016	32247848	33184
92	12.644308	120406016	85078016	24090824	33184
93	11.018292	120406016	85078016	31682360	33184
94	13.14532	120406016	85078016	23846728	33184
95	11.352124	120406016	85078016	31725056	33184
96	13.57157	120406016	85078016	24217704	33184
97	11.870651	120406016	85078016	32388688	33184
98	13.993819	120406016	85078016	25138144	33184
99	12.487548	120406016	85078016	33606672	33184
100	14.43794	120406016	85078016	26543152	33184
101	12.637044	120406016	85078016	35313336	33184
102	0.493142	120406016	85078016	28204240	33184
103	0.702077	120406016	85078016	28662952	33184
104	0.909001	120406016	85078016	29276824	33184
105	1.183769	120406016	85078016	30047088	33184
106	1.355211	120406016	85078016	30975552	33184
107	1.579562	120406016	85078016	32064584	33184
108	1.813734	120406016	85078016	33311752	33184
109	2.02824	120406016	85078016	34720704	33184
110	2.63969	120406016	85078016	36292688	33184
111	2.499952	120406016	85078016	38028416	33184
112	4.257021	120406016	85078016	23800464	33184
113	3.198325	120406016	85078016	25868808	33184
114	3.244475	120406016	85078016	28103008	33184
115	3.732359	120406016	85078016	30505992	33184
116	3.719699	120406016	85078016	33078736	33184
117	4.001519	120406016	85078016	35822608	33184
118	4.182649	120406016	85078016	38740632	33184
119	6.125005	120406016	85078016	25560432	33184
120	4.678554	120406016	85078016	28827376	33184
121	4.944274	120406016	85078016	32269936	33184
122	5.449882	120406016	85078016	35889888	33184
123	7.174607	120406016	85078016	23797384	33184
124	5.724212	120406016	85078016	27775376	33184
125	6.168582	120406016	85078016	31934344	33184
126	6.233674	120406016	85078016	36277472	33184
127	8.356336	120406016	85078016	24863200	33184
128	6.745958	120406016	85078016	29572616	33184
129	7.020709	120406016	85078016	34467680	33184
130	9.363405	120406016	85078016	23884592	33184
131	7.607876	120406016	85078016	29155208	33184
132	8.09676	120406016	85078016	34614888	33184
133	10.011753	120406016	85078016	24585696	33184
134	8.799695	120406016	85078016	30435344	33184
135	8.670541	120406016	85078016	36479080	33184
136	10.985438	120406016	85078016	26810160	33184
137	9.475999	120406016	85078016	33243472	33184
138	9.515435	120406016	85078016	39873416	33184
139	12.6609	120406016	85078016	30415080	33184
140	11.307667	120406016	85078016	37442640	33184
141	12.749141	120406016	85078016	28659896	33184
142	11.204759	120406016	85078016	36093296	33184
143	12.944208	120406016	85078016	27944680	33184
144	11.545703	120406016	85078016	35787832	33184
145	14.282948	120406016	85078016	28078672	33184
146	12.268933	120406016	85078016	36338248	33184
147	14.36752	120406016	85078016	29007016	33184
148	12.543204	120406016	85078016	37686584	33184
149	15.067112	120406016	85078016	30595704	33184
150	13.235571	120406016	85078016	39701064	33184
151	15.242598	120406016	85078016	32802232	33184
152	16.407744	120406016	85078016	27042384	33184
153	14.315218	120406016	85078016	36797712	33184
154	16.696663	120406016	85078016	30942400	33184
155	14.744429	120406016	85078016	41134304	33184
156	17.190845	120406016	85078016	35240432	33184
157	18.015322	120406016	85078016	30298792	33184
158	16.315272	120406016	85078016	41156680	33184
159	18.188104	120406016	85078016	35970968	33184
160	19.373267	120406016	85078016	31646808	33184
161	19.887538	120406016	85078016	28122424	33184
162	17.295225	120406016	85078016	39885536	33184
163	19.665255	120406016	85078016	35753872	33184
164	20.486341	120406016	85078016	32428776	33184
165	21.324714	120406016	85078016	29746240	33184
166	19.364965	120406016	85078016	42444080	33184
167	21.603869	120406016	85078016	39038352	33184
168	21.492024	120406016	85078016	36272816	33184
169	22.66274	120406016	85078016	34143920	33184
170	23.100771	120406016	85078016	32500592	33184
171	23.523833	120406016	85078016	31330800	33184
172	24.701124	120406016	85078016	30589096	33184
173	24.776064	120406016	85078016	30203472	33184
174	24.957336	120406016	85078016	30134480	33184
175	26.278069	120406016	85078016	30337280	33184
176	25.801033	120406016	85078016	30780584	33184
177	26.2988	120406016	85078016	31421272	33184
178	27.143071	120406016	85078016	32245104	33184
179	26.836014	120406016	85078016	33222736	33184
180	27.244133	120406016	85078016	34322680	33184
181	27.1481	120406016	85078016	35556184	33184
182	27.71348	120406016	85078016	36901424	33184
183	27.308006	120406016	85078016	38318632	33184
184	27.944952	120406016	85078016	39828944	33184
185	28.103166	120406016	85078016	41417184	33184
186	28.269022	120406016	85078016	43062768	33184
187	28.980877	120406016	85078016	44779408	33184
188	33.104519	120406016	85078016	32359880	33184
189	31.322394	120406016	85078016	36076704	33184
190	31.653791	120406016	85078016	39603040	33184
191	30.536967	120406016	85078016	42927880	33184
192	36.162124	120406016	85078016	32119168	33184
193	34.288061	120406016	85078016	39135720	33184
194	32.31559	120406016	85078016	43739368	33184
195	32.17928	120406016	85078016	48002896	33184
196	36.546638	120406016	85078016	37802312	33184
197	34.002516	120406016	85078016	43411664	33184
198	33.387781	120406016	85078016	48604656	33184
199	38.534002	120406016	85078016	39215072	33184
200	34.787507	120406016	85078016	45529568	33184
201	39.957447	120406016	85078016	37486416	33184
202	0.926402	120406016	85078016	46953576	33184
203	1.326716	120406016	85078016	47798384	33184
204	1.749531	120406016	85078016	48927056	33184
205	2.202882	120406016	85078016	50340784	33184
206	2.615887	120406016	85078016	52041376	33184
207	5.765648	120406016	85078016	37925208	33184
208	3.596336	120406016	85078016	40202528	33184
209	3.947691	120406016	85078016	42769368	33184
210	4.363258	120406016	85078016	45628784	33184
211	4.831621	120406016	85078016	48784352	33184
212	4.98999	120406016	85078016	52229424	33184
213	7.899189	120406016	85078016	39647808	33184
214	5.893361	120406016	85078016	43684168	33184
215	6.491628	120406016	85078016	48018600	33184
216	6.693572	120406016	85078016	52650624	33184
217	9.736223	120406016	85078016	41232880	33184
218	7.816225	120406016	85078016	46469888	33184
219	8.245067	120406016	85078016	52006952	33184
220	11.432516	120406016	85078016	41587736	33184
221	9.409293	120406016	85078016	47738696	33184
222	12.731681	120406016	85078016	38508984	33184
223	10.259598	120406016	85078016	45268728	33184
224	10.602767	120406016	85078016	52336376	33184
225	13.296929	120406016	85078016	43409512	33184
226	11.193412	120406016	85078016	51098600	33184
227	14.820909	120406016	85078016	42984728	33184
228	12.317574	120406016	85078016	51297504	33184
229	15.495165	120406016	85078016	43782784	33184
230	13.238139	120406016	85078016	52735608	33184
231	15.861994	120406016	85078016	45684760	33184
232	17.55141	120406016	85078016	39921328	33184
233	14.446464	120406016	85078016	49840032	33184
234	18.271544	120406016	85078016	44168336	33184
235	19.010691	120406016	85078016	39595984	33184
236	16.090229	120406016	85078016	50489640	33184
237	19.472238	120406016	85078016	45725088	33184
238	20.429475	120406016	85078016	41958216	33184
239	17.239557	120406016	85078016	53840240	33184
240	20.739447	120406016	85078016	49664720	33184
241	21.950809	120406016	85078016	46381968	33184
242	22.306155	120406016	85078016	43884232	33184
243	23.359511	120406016	85078016	42034792	33184
244	24.53251	120406016	85078016	40811736	33184
245	24.8817	120406016	85078016	40100440	33184
246	21.251534	120406016	85078016	54327144	33184
247	24.486276	120406016	85078016	52519912	33184
248	25.334179	120406016	85078016	51272608	33184
249	25.59144	120406016	85078016	50524088	33184
250	26.412495	120406016	85078016	50223808	33184
251	26.283269	120406016	85078016	50331024	33184
252	27.199831	120406016	85078016	50778880	33184
253	27.740103	120406016	85078016	51518128	33184
254	27.961448	120406016	85078016	52504456	33184
255	28.162665	120406016	85078016	53718672	33184
256	28.936672	120406016	85078016	55133104	33184
257	34.530317	120406016	85078016	42529392	33184
258	31.857253	120406016	85078016	46198336	33184
259	32.189029	120406016	85078016	49780688	33184
260	31.644531	120406016	85078016	53223008	33184
261	37.1672	120406016	85078016	42589880	33184
262	36.807286	120406016	85078016	49918016	33184
263	35.78032	120406016	85078016	54852840	33184
264	44.394872	120406016	85078016	45560552	33184
265	50.166547	116391936	80883712	28084008	33184
266	34.962236	116391936	80883712	19612128	33184
267	36.458765	116391936	80883712	28718728	33184
268	33.160895	116391936	80883712	35149048	33184
269	36.080214	116391936	80883712	26775144	33184
270	35.778817	116391936	80883712	34164160	33184
271	36.787953	116391936	80883712	26755992	33184
272	38.46079	116391936	80883712	37747240	33184
273	38.439522	116391936	80883712	31521528	33184
274	39.666902	116391936	80883712	26659920	33184
275	41.31421	116391936	80883712	38667896	33184
276	40.248229	116391936	80883712	33695056	33184
277	46.215755	116391936	80883712	33819560	33184
278	41.469139	116391936	80883712	46855680	33184
279	41.158145	116391936	80883712	42665056	33184
280	42.6674	116391936	80883712	39735560	33184
281	46.833583	116391936	80883712	41331504	33184
282	48.959128	116391936	80883712	43197800	33184
283	46.247103	116391936	80883712	58127216	33184
284	56.176908	116391936	80883712	55559688	33184
285	53.694644	116391936	80883712	27879000	33184
286	52.326592	116391936	80883712	31349112	33184
287	51.592764	116391936	80883712	35130056	33184
288	52.05955	116391936	80883712	39318344	33184
289	52.578574	116391936	80883712	43859696	33184
290	53.536486	116391936	80883712	48819168	33184
291	53.079092	116391936	80883712	54229856	33184
292	58.476452	116391936	81408000	47455504	33184
293	67.930821	120176640	85078016	53630928	33184
294	67.425626	120446976	85078016	32118872	33184
295	56.274633	120446976	85078016	39066800	33184
296	61.314379	120446976	85078016	33832568	33184
297	56.727017	120717312	85078016	41534584	33184
298	56.975807	120717312	85078016	49656296	33184
299	59.236152	120717312	85078016	58199320	33184
300	62.813457	120717312	85602304	54536976	33184
301	60.104418	124502016	89796608	63877504	33184
302	1.989557	130179072	95563776	61226664	33184
303	4.401454	130179072	95563776	62448208	33184
304	5.336933	130179072	95563776	64079264	33184
305	7.660223	123637760	90320896	21222064	33184
306	3.966954	123637760	90320896	23676944	33184
307	4.971931	123637760	90320896	26544096	33184
308	5.474693	123637760	90320896	29825680	33184
309	6.060376	123637760	90320896	33522704	33184
310	7.038331	124985344	90320896	21544976	33184
311	6.589586	124985344	90320896	26078000	33184
312	7.410207	124985344	90320896	31030744	33184
313	8.533579	124985344	90320896	20589968	33184
314	8.649106	124985344	90320896	26384096	33184
315	9.015384	124985344	90320896	32605744	33184
316	10.862733	124985344	90320896	23200664	33184
317	10.464718	124985344	90320896	30267472	33184
318	11.725481	124985344	90320896	22054256	33184
319	11.499529	124985344	90320896	29977440	33184
320	13.554947	124985344	90320896	22673824	33184
321	12.986279	124985344	90320896	31460552	33184
322	14.420783	124985344	90320896	24806216	33184
323	14.012486	124985344	90320896	34454320	33184
324	15.237627	124985344	90320896	28249920	33184
325	16.814158	124985344	90320896	23355344	33184
326	16.153422	124985344	90320896	34308024	33184
327	17.464592	124985344	90320896	29438848	33184
328	18.462151	124985344	90320896	25673472	33184
329	19.679213	124985344	90320896	22867624	33184
330	18.742245	124985344	90320896	35583336	33184
331	20.252716	124985344	90320896	32324456	33184
332	21.622121	124985344	90320896	29929432	33184
333	21.788625	124985344	90320896	28325328	33184
334	22.140379	124985344	90320896	27412680	33184
335	23.455428	124985344	90320896	27064144	33184
336	24.625274	124985344	90320896	27213608	33184
337	25.252485	124985344	90320896	27816232	33184
338	25.428106	124985344	90320896	28780544	33184
339	26.336233	124985344	90320896	30042600	33184
340	27.19492	124985344	90320896	31604520	33184
341	26.857158	124985344	90320896	33406760	33184
342	27.529768	124985344	90320896	35422816	33184
343	30.720241	124985344	90320896	23517848	33184
344	32.993478	124985344	90320896	30138072	33184
345	30.005513	124985344	90320896	34467392	33184
346	30.379467	124985344	90320896	38525528	33184
347	34.053994	124985344	90320896	28323592	33184
348	34.044061	124985344	90320896	34173528	33184
349	36.043111	124985344	90320896	26127456	33184
350	37.651174	124985344	90320896	35489296	33184
351	33.911206	124985344	90320896	42216944	33184
352	36.908801	124985344	90320896	34307624	33184
353	35.894265	124985344	90320896	42157784	33184
354	38.058375	124985344	90320896	35226928	33184
355	40.481384	125526016	90320896	30533312	33184
356	40.636482	125526016	90320896	42663176	33184
357	40.546943	125526016	90320896	37968104	33184
358	46.404091	125526016	90320896	38567840	33184
359	42.376796	125526016	90320896	52040944	33184
360	42.99278	125526016	90320896	48352264	33184
361	43.533594	125526016	90320896	45796928	33184
362	49.471439	125796352	90320896	48307712	33184
363	49.936282	125796352	90320896	51159792	33184
364	51.616726	125796352	90320896	54485960	33184
365	55.934347	125796352	90320896	58341624	33184
366	72.687328	125857792	91893760	31865768	33184
367	53.067837	127205376	91893760	36072320	33184
368	53.5019	127205376	91893760	41324352	33184
369	54.484424	127205376	91893760	47098320	33184
370	59.386173	127205376	91893760	40821176	33184
371	55.729275	127205376	91893760	47599384	33184
372	57.213471	127475712	91893760	54881736	33184
373	57.185892	127475712	91893760	62670664	33184
374	67.865352	128016384	92418048	58420432	33184
375	77.793315	127287296	93466624	36713152	33184
376	63.036378	128909312	93466624	32721072	33184
377	60.092133	128909312	93466624	42540640	33184
378	65.335809	128909312	93466624	40295512	33184
379	62.063963	128909312	93466624	51110960	33184
380	66.409639	128909312	93466624	49898224	33184
381	62.065212	128909312	93466624	61758208	33184
382	68.417697	128909312	93466624	61594368	33184
383	95.900893	126840832	92942336	31219704	33184
384	69.8139	128188416	92942336	31255848	33184
385	65.441398	128188416	92942336	45235312	33184
386	71.38446	128188416	92942336	47089184	33184
387	71.636141	128188416	92942336	49474560	33184
388	72.91867	128458752	92942336	52373160	33184
389	69.105371	128458752	92942336	68372856	33184
390	76.375479	129810432	94515200	72356288	33184
391	105.620147	132722688	97660928	30355040	33184
392	76.202139	132722688	97660928	35497736	33184
393	76.17947	132722688	97660928	41068472	33184
394	77.170834	132722688	97660928	47117456	33184
395	78.12168	132722688	97660928	53758416	33184
396	79.024766	133263360	97660928	60894128	33184
397	81.686236	133263360	97660928	68578080	33184
398	109.967967	129896448	94515200	30676432	33184
399	81.54883	129896448	94515200	39556120	33184
400	81.952141	129896448	94515200	48827288	33184
401	87.389861	129896448	94515200	46023120	33184
402	1.636247	129896448	94515200	56730936	33184
403	2.376305	129896448	94515200	58358728	33184
404	3.150513	129896448	94515200	60531312	33184
405	3.973307	129896448	94515200	63250192	33184
406	7.914744	129896448	94515200	52844768	33184
407	5.762733	129896448	94515200	56662424	33184
408	6.27405	129896448	94515200	61027336	33184
409	7.143791	129896448	94515200	65950360	33184
410	9.027162	129896448	94515200	55727000	33184
411	8.669029	129896448	94515200	61749712	33184
412	10.350432	129896448	94515200	52694544	33184
413	10.35449	129896448	94515200	59836904	33184
414	11.044105	129896448	94515200	67527256	33184
415	12.678728	129896448	94515200	59362768	33184
416	14.032537	129896448	94515200	52878720	33184
417	13.470728	129896448	94515200	62258104	33184
418	15.626629	129896448	94515200	56485320	33184
419	15.390782	129896448	94515200	66989432	33184
420	16.244125	129896448	94515200	61709720	33184
421	17.883352	129896448	94515200	57705160	33184
422	19.926565	129896448	94515200	54824320	33184
423	19.016236	129896448	94515200	67589904	33184
424	19.678054	129896448	94515200	64511144	33184
425	21.169719	129896448	94515200	62420368	33184
426	22.395713	129896448	95039488	61191416	33184
427	23.5945	129896448	95039488	60689440	33184
428	24.714736	129896448	95039488	60824728	33184
429	24.877539	129896448	95039488	61537480	33184
430	25.76247	130166784	95039488	62730720	33184
431	26.668572	130166784	95039488	64343936	33184
432	27.251487	130166784	95039488	66317016	33184
433	30.564432	130437120	95039488	54601656	33184
434	31.909177	130437120	95039488	61267568	33184
435	30.154703	130437120	95039488	65771664	33184
436	30.59896	130437120	95039488	70215440	33184
437	33.587463	130437120	95039488	60495344	33184
438	33.246968	130437120	95039488	66834856	33184
439	35.918255	130437120	95039488	59147360	33184
440	38.435516	130437120	95039488	69298848	33184
441	50.302257	130977792	95563776	63103328	33184
442	48.244494	127307776	91893760	23516528	33184
443	44.990996	127307776	91893760	22767784	33184
444	40.853785	127307776	91893760	35202176	33184
445	41.088024	127307776	91893760	31123248	33184
446	46.939725	127307776	91893760	32222488	33184
447	47.155461	127307776	91893760	33826168	33184
448	44.00336	127307776	91893760	48617512	33184
449	44.459731	127307776	91893760	46291360	33184
450	45.540415	127307776	91893760	45014976	33184
451	51.280344	127307776	91893760	49114912	33184
452	52.11351	127307776	91893760	53729264	33184
453	55.654759	127307776	91893760	58913800	33184
454	83.552364	121556992	87699456	24635080	33184
455	55.219781	123179008	87699456	30626568	33184
456	55.452792	123179008	87699456	37504656	33184
457	56.270519	123179008	87699456	45085176	33184
458	62.192488	123179008	87699456	40600512	33184
459	57.312707	123179008	87699456	49356040	33184
460	58.550595	123179008	87699456	58685456	33184
461	64.643539	123179008	87699456	56101072	33184
462	64.460196	126693376	91369472	66672176	33184
463	91.932247	127594496	93990912	34196480	33184
464	66.151424	128942080	93990912	32539904	33184
465	64.01679	128942080	93990912	44979296	33184
466	69.278629	128942080	93990912	45450792	33184
467	70.384652	128942080	93990912	46552152	33184
468	66.697279	128942080	93990912	60871088	33184
469	71.183836	130023424	94515200	63185072	33184
470	77.485826	130023424	94515200	66173872	33184
471	93.904557	129613824	93990912	36574224	33184
472	73.705684	129613824	93990912	40918296	33184
473	75.478517	129613824	93990912	45741024	33184
474	76.294361	129613824	93990912	51251848	33184
475	76.684936	129613824	93990912	57304776	33184
476	78.762669	129613824	93990912	64071728	33184
477	88.2754	130965504	95563776	71460000	33184
478	101.411188	128061440	92418048	33857664	33184
479	81.48321	128061440	92418048	42507648	33184
480	86.079683	128061440	92418048	39194440	33184
481	82.152946	128061440	92418048	49112016	33184
482	84.44437	128061440	92418048	59695112	33184
483	93.036751	128061440	92942336	58299424	33184
484	110.969989	127791104	92418048	38235048	33184
485	91.980519	127791104	92418048	38240216	33184
486	87.781098	127791104	92418048	51365216	33184
487	91.889758	127791104	92418048	52555296	33184
488	88.702375	127791104	92418048	66986944	33184
489	95.715706	130494464	95039488	69424280	33184
490	122.78456	133099520	97660928	39458000	33184
491	98.384455	133099520	97660928	43348568	33184
492	98.244912	133099520	97660928	47760480	33184
493	98.421907	133099520	97660928	52875320	33184
494	97.796663	133099520	97660928	58616240	33184
495	107.627925	133369856	98185216	77595080	33184
496	120.721584	131092480	96088064	36603304	33184
497	101.177216	131092480	96088064	44280664	33184
498	102.724923	131092480	96088064	52672928	33184
499	103.516076	131092480	96088064	61708552	33184
500	106.234633	131092480	96088064	71391168	33184
501	136.520213	132132864	96612352	37038376	33184
502	1.994048	132132864	96612352	48506368	33184
503	2.940146	132132864	96612352	50504416	33184
504	7.724326	132132864	96612352	40143656	33184
505	5.190802	132132864	96612352	43475880	33184
506	6.289179	132132864	96612352	47478672	33184
507	6.798359	132132864	96612352	52152672	33184
508	9.501576	132132864	96612352	42538096	33184
509	9.009749	132132864	96612352	48558208	33184
510	10.862675	132132864	96612352	39666568	33184
511	10.824422	132132864	96612352	47038752	33184
512	11.900969	132132864	96612352	55091256	33184
513	13.160594	132132864	96612352	47348304	33184
514	14.914099	132132864	96612352	41347224	33184
515	15.09715	132132864	96612352	51438592	33184
516	16.773419	132132864	96612352	46253640	33184
517	18.309735	132132864	96612352	42472248	33184
518	17.98042	132132864	96612352	54620560	33184
519	19.053478	132132864	96612352	51048576	33184
520	20.689799	132132864	96612352	48646480	33184
521	22.921754	132132864	96612352	47243064	33184
522	24.304472	132132864	96612352	46762992	33184
523	24.317852	132132864	96612352	47054816	33184
524	25.464992	132132864	96612352	48057144	33184
525	26.449646	132132864	96612352	49562616	33184
526	27.373804	132132864	96612352	51586280	33184
527	28.064011	132132864	96612352	54043072	33184
528	31.457345	132132864	96612352	42843176	33184
529	33.501919	132132864	96612352	50267920	33184
530	31.40573	132132864	96612352	55522320	33184
531	35.169866	132132864	96612352	46702696	33184
532	37.32469	132132864	96612352	56194368	33184
533	37.46306	132132864	96612352	49616224	33184
534	38.853945	132132864	96612352	60453232	33184
535	39.391172	132132864	96612352	54942336	33184
536	45.684585	132132864	96612352	54665936	33184
537	42.722611	132132864	96612352	67515576	33184
538	42.738023	132132864	96612352	63856816	33184
539	48.501458	132132864	96612352	65672960	33184
540	55.039902	134836224	99233792	68125040	33184
541	66.158071	133234688	99233792	35348392	33184
542	50.350401	134582272	99233792	37892200	33184
543	47.641402	134582272	99233792	37104576	33184
544	48.138121	134582272	99233792	37197504	33184
545	55.17457	134582272	99233792	43247248	33184
546	59.783761	134582272	99233792	37347240	33184
547	55.756199	134582272	99233792	44693792	33184
548	57.02613	134582272	99233792	52760416	33184
549	63.509016	134582272	99233792	48960672	33184
550	59.560285	134582272	99233792	58505008	33184
551	67.908304	134852608	99233792	68738232	33184
552	82.502429	125833216	90320896	34824144	33184
553	66.898317	125833216	90320896	34042064	33184
554	63.937252	125833216	90320896	46444176	33184
555	69.833457	125833216	90320896	47029264	33184
556	70.531069	125833216	90320896	48351688	33184
557	72.163733	125833216	90320896	50437776	33184
558	70.303266	125833216	90320896	65758272	33184
559	105.014089	128057344	92418048	26235776	33184
560	71.063377	128057344	92418048	43105160	33184
561	76.765648	128057344	92418048	48137240	33184
562	76.727695	128057344	92418048	53919888	33184
563	77.039805	128057344	92418048	60415296	33184
564	82.665772	128057344	92418048	55140272	33184
565	86.84409	129949696	95039488	63110080	33184
566	104.699057	130981888	95563776	27724312	33184
567	84.867504	130981888	95563776	37176216	33184
568	83.43334	130981888	95563776	47427632	33184
569	83.706444	130981888	95563776	58375544	33184
570	89.927701	130981888	95563776	57654024	33184
571	88.869628	130981888	95563776	70178168	33184
572	117.789113	128569344	93466624	38846632	33184
573	93.689617	128569344	93466624	40379552	33184
574	94.211611	128569344	93466624	42609632	33184
575	91.571954	128569344	93466624	58136200	33184
576	97.583311	129110016	93466624	62043432	33184
577	103.436214	133165056	98185216	66651240	33184
578	120.139562	133038080	97660928	38060904	33184
579	100.072869	133038080	97660928	44070656	33184
580	101.32522	133038080	97660928	50917904	33184
581	105.712458	133038080	97660928	58429552	33184
582	106.277063	133038080	97660928	66741040	33184
583	128.911423	130256896	95039488	26755080	33184
584	106.586812	130256896	95039488	36778808	33184
585	107.177719	130256896	95039488	47413984	33184
586	107.012806	130256896	95039488	58803784	33184
587	119.314412	131067904	95563776	58424064	33184
588	133.779842	124719104	89272320	42991624	33184
589	114.989902	124719104	89272320	44135704	33184
590	112.191562	124719104	89272320	58633352	33184
591	118.000892	126611456	91369472	61373968	33184
592	127.391226	134180864	99233792	77431760	33184
593	138.395673	132497408	97136640	34281688	33184
594	118.145197	132497408	97136640	51894544	33184
595	124.605779	132497408	97136640	57757200	33184
596	124.331492	132497408	97136640	64422296	33184
597	148.327979	128987136	93990912	35542672	33184
598	126.141761	128987136	93990912	43886192	33184
599	131.797972	128987136	93990912	52899856	33184
600	130.269526	128987136	93990912	62714792	33184
601	158.635975	126861312	91369472	28110616	33184
602	2.503052	126861312	91369472	40197560	33184
603	3.696996	126861312	91369472	42582016	33184
604	4.845185	126861312	91369472	45763592	33184
605	9.459611	126861312	91369472	36211376	33184
606	7.376163	126861312	91369472	40996856	33184
607	8.342308	126861312	91369472	46577360	33184
608	10.571731	126861312	91369472	37593608	33184
609	10.707572	126861312	91369472	44779320	33184
610	12.839775	126861312	91369472	37112704	33184
611	12.818006	126861312	91369472	45912520	33184
612	14.929375	126861312	91369472	39736408	33184
613	15.231161	126861312	91369472	50148312	33184
614	17.07226	126861312	91369472	44981424	33184
615	18.632042	126861312	91369472	41357816	33184
616	20.452993	126861312	91369472	39023064	33184
617	22.202948	126861312	91369472	37837808	33184
618	23.732242	126861312	91369472	37644016	33184
619	24.504403	126861312	91369472	38271360	33184
620	26.106375	126861312	91369472	39630720	33184
621	27.312951	126861312	91369472	41650128	33184
622	27.736318	126861312	91369472	44192632	33184
623	28.049666	126861312	91369472	47212280	33184
624	29.489957	126861312	91369472	50642992	33184
625	32.855265	126861312	91369472	40250568	33184
626	32.884398	126861312	91369472	46275560	33184
627	36.164221	126861312	91369472	38606168	33184
628	37.507981	126861312	91369472	48896832	33184
629	38.659618	126861312	91369472	43094040	33184
630	40.092466	126861312	91369472	55034536	33184
631	40.518512	126861312	91369472	50326232	33184
632	46.897793	126861312	91369472	51291448	33184
633	47.673888	126861312	91369472	52988104	33184
634	49.331743	126861312	91369472	55490000	33184
635	55.261905	128483328	92942336	58764552	33184
636	72.386513	127934464	93990912	30477080	33184
637	53.257843	129282048	93990912	34607080	33184
638	55.434523	129282048	93990912	40479792	33184
639	56.097543	129282048	93990912	47125328	33184
640	61.31863	129282048	93990912	42120600	33184
641	58.703716	129282048	93990912	50418000	33184
642	59.036249	129282048	93990912	59624672	33184
643	65.613437	129282048	93990912	57156184	33184
644	63.385743	129552384	93990912	67979584	33184
645	92.427406	127918080	93990912	35745960	33184
646	69.172028	129265664	93990912	35011768	33184
647	70.914413	129265664	93990912	35912680	33184
648	67.419256	129265664	93990912	50180016	33184
649	71.248958	129265664	93990912	52760640	33184
650	73.019442	129265664	93990912	56217632	33184
651	73.780542	129265664	93990912	60528608	33184
652	97.343486	132239360	97136640	65643456	33184
653	81.933546	131792896	96612352	37437560	33184
654	79.112425	131792896	96612352	44241632	33184
655	83.936568	131792896	96612352	39424344	33184
656	80.734349	131792896	96612352	48008032	33184
657	81.290441	131792896	96612352	57412480	33184
658	89.717605	132333568	97136640	67691320	33184
659	107.168213	124764160	89796608	34807080	33184
660	86.408871	124764160	89796608	46835728	33184
661	93.018603	124764160	89796608	47143264	33184
662	94.810882	124764160	89796608	48512128	33184
663	90.134707	125304832	89796608	63205208	33184
664	122.358857	131522560	96088064	66299016	33184
665	100.168428	127979520	92418048	37215448	33184
666	98.144625	127979520	92418048	41968552	33184
667	100.646776	127979520	92418048	47700904	33184
668	101.234206	127979520	92418048	54184832	33184
669	108.07608	128790528	93466624	61647856	33184
670	128.659631	127209472	91893760	38257680	33184
671	104.318374	127209472	91893760	47252336	33184
672	105.421315	127209472	91893760	57259368	33184
673	111.227061	127209472	91893760	55489936	33184
674	110.141456	131805184	96612352	67171192	33184
675	144.911036	133758976	98185216	34346176	33184
676	111.838519	133758976	98185216	47805672	33184
677	118.241512	133758976	98185216	49560440	33184
678	115.44877	133758976	98185216	64823680	33184
679	120.824473	135651328	100282368	68457712	33184
680	151.266588	132681728	97660928	38194816	33184
681	123.985499	132681728	97660928	43525464	33184
682	118.731236	132681728	97660928	62311120	33184
683	124.583953	132681728	97660928	69448664	33184
684	137.635904	138358784	103428096	77481168	33184
685	150.828529	135634944	100282368	37144200	33184
686	128.263353	135634944	100282368	46983312	33184
687	131.740181	135634944	100282368	57778552	33184
688	134.286659	135634944	100282368	69390280	33184
689	166.838742	131694592	96612352	37105760	33184
690	134.550607	131694592	96612352	50531952	33184
691	135.759239	131694592	96612352	64836016	33184
692	143.108407	135208960	99758080	67528128	33184
693	168.293627	133672960	98709504	31117120	33184
694	139.897678	133672960	98709504	48205808	33184
695	144.794644	133672960	98709504	53779056	33184
696	152.075267	133672960	98709504	60222416	33184
697	176.18435	127922176	92942336	39607528	33184
698	144.975858	127922176	92942336	60278392	33184
699	149.3478	128462848	92942336	69312992	33184
700	164.165988	139005952	103952384	79256016	33184
701	176.465237	136286208	101330944	41492760	33184
702	2.761761	136826880	101330944	54047896	33184
703	4.073926	136826880	101330944	56803856	33184
704	5.449921	136826880	101330944	60476328	33184
705	9.874563	136826880	101330944	51353256	33184
706	8.193367	136826880	101330944	56869472	33184
707	9.457679	136826880	101330944	63311656	33184
708	11.643288	136826880	101330944	54868352	33184
709	12.423789	136826880	101330944	63158616	33184
710	14.00315	136826880	101330944	56243168	33184
711	16.465401	136826880	101330944	51245080	33184
712	16.481414	136826880	101330944	62321528	33184
713	18.406532	136826880	101330944	58303784	33184
714	20.513132	136826880	101330944	55818120	33184
715	22.468393	136826880	101330944	54586536	33184
716	23.630415	136826880	101330944	54515640	33184
717	25.158135	136826880	101330944	55424488	33184
718	27.034943	136826880	101330944	57143712	33184
719	27.696826	136826880	101330944	59601992	33184
720	30.124522	136826880	101330944	62625200	33184
721	32.831495	136826880	101330944	52372144	33184
722	35.16476	136826880	101330944	60548032	33184
723	33.317002	136826880	101330944	66801288	33184
724	36.953679	136826880	101330944	59055880	33184
725	38.568926	136826880	101330944	70199976	33184
726	40.502577	136826880	101330944	64721600	33184
727	42.158465	136826880	101330944	61123896	33184
728	46.989223	136826880	101330944	62392624	33184
729	43.937384	136826880	101330944	77129272	33184
730	45.061101	136826880	101330944	75065960	33184
731	46.148788	136826880	101330944	74521136	33184
732	65.381302	138448896	103428096	79767904	33184
733	70.542538	131104768	96088064	32583992	33184
734	56.433612	131104768	96088064	39823264	33184
735	61.302834	131104768	96088064	35170696	33184
736	58.836749	131104768	96088064	44131872	33184
737	64.927883	131104768	96088064	41525264	33184
738	61.205512	131104768	96088064	52364064	33184
739	66.603271	131104768	96088064	51636960	33184
740	65.210457	131104768	96088064	64528144	33184
741	100.068167	126013440	91893760	35932952	33184
742	71.515543	127361024	91893760	37480992	33184
743	73.344012	127361024	91893760	40703584	33184
744	73.791999	127361024	91893760	44857552	33184
745	75.185109	127361024	91893760	50080576	33184
746	76.292567	127361024	91893760	56229840	33184
747	79.621577	127901696	92418048	63383016	33184
748	107.728754	131956736	98185216	40264832	33184
749	86.140541	133308416	98185216	35980920	33184
750	82.794733	133308416	98185216	46184272	33184
751	83.875688	133308416	98185216	57267096	33184
752	89.731567	133308416	98185216	56780976	33184
753	86.703331	133308416	98185216	69967360	33184
754	120.247027	130613248	96612352	23507280	33184
755	90.498568	131960832	96612352	37528504	33184
756	95.315588	131960832	96612352	41071440	33184
757	97.040288	131960832	96612352	45667856	33184
758	98.506084	131960832	96612352	51104440	33184
759	96.259861	131960832	96612352	70174528	33184
760	124.889112	128598016	93466624	28527520	33184
761	105.434983	128598016	93466624	37049368	33184
762	107.067151	128598016	93466624	46560680	33184
763	107.317376	128598016	93466624	57104344	33184
764	138.678984	121135104	87175168	27377552	33184
765	111.281543	122482688	87175168	39559336	33184
766	114.93195	122482688	87175168	40603400	33184
767	111.629804	122482688	87175168	55183760	33184
768	124.071328	126808064	91893760	58174856	33184
769	145.077667	129560576	93990912	32756704	33184
770	116.556193	129560576	93990912	50386704	33184
771	122.168775	129560576	93990912	56519544	33184
772	123.225368	129830912	94515200	63525488	33184
773	152.12442	127102976	93466624	35982136	33184
774	126.385695	128450560	93466624	44128688	33184
775	129.230903	128450560	93466624	54221168	33184
776	130.516085	128991232	93466624	65455800	33184
777	162.150438	125878272	91893760	32507512	33184
778	133.817931	127225856	91893760	44993776	33184
779	137.540094	127225856	91893760	46666736	33184
780	136.067954	127225856	91893760	61932832	33184
781	168.699092	131493888	96088064	32144320	33184
782	142.696003	131493888	96088064	36998384	33184
783	142.47296	131493888	96088064	55430432	33184
784	147.116851	132034560	96612352	62333224	33184
785	183.164129	128446464	92942336	42128912	33184
786	149.159455	128446464	92942336	51078888	33184
787	149.61247	128987136	93466624	60972712	33184
788	155.036948	140611584	105000960	71978632	33184
789	188.461288	139829248	104476672	47996512	33184
790	156.13029	139829248	104476672	61054656	33184
791	160.50235	139829248	104476672	62489944	33184
792	164.945172	143073280	107622400	77645920	33184
793	190.076621	132984832	97660928	43541736	33184
794	161.378625	132984832	97660928	60796936	33184
795	167.912941	133795840	98185216	66436808	33184
796	195.80158	135983104	100806656	33774896	33184
797	170.77927	135983104	100806656	41652872	33184
798	168.26964	135983104	100806656	63004640	33184
799	206.130837	127590400	93990912	28526584	33184
800	173.715203	129478656	93990912	51341480	33184
801	175.355189	129478656	93990912	63267992	33184
802	3.128763	139481088	105000960	77180272	33184
803	4.687361	139481088	105000960	80350424	33184
804	12.719027	141643776	107098112	71273376	33184
805	11.255766	141643776	107098112	76565304	33184
806	23.88408	140050432	99233792	15935960	33184
807	13.842448	134283264	99233792	23376128	33184
808	12.945398	134283264	99233792	31865864	33184
809	14.452765	134819840	99233792	25068392	33184
810	16.690462	134819840	99233792	20191808	33184
811	17.303337	134819840	99233792	31869080	33184
812	19.413483	134819840	99233792	28232864	33184
813	21.080988	134819840	99233792	26129456	33184
814	23.566718	134819840	99233792	25390152	33184
815	24.297414	134819840	99233792	25810912	33184
816	25.813121	134819840	99233792	27300184	33184
817	27.697822	134819840	99233792	29614816	33184
818	32.042382	134819840	99233792	18827608	33184
819	34.314064	134819840	99233792	26728528	33184
820	32.60132	134819840	99233792	32751704	33184
821	36.218027	134819840	99233792	25091096	33184
822	39.067969	134819840	99233792	36194184	33184
823	39.570861	134819840	99233792	30875728	33184
824	46.604602	134819840	99233792	31540192	33184
825	48.012842	134819840	99233792	33114944	33184
826	50.558999	134819840	99233792	35809528	33184
827	51.553107	134819840	99233792	39659944	33184
828	52.912086	134819840	99233792	44571464	33184
829	54.957479	134819840	99233792	50562552	33184
830	71.944492	134819840	99233792	57640712	33184
831	63.295133	123285504	87699456	36782736	33184
832	63.605178	123285504	87699456	33507960	33184
833	59.988546	123285504	87699456	43775488	33184
834	66.105328	123285504	87699456	42553056	33184
835	63.736369	123285504	87699456	55023680	33184
836	69.698476	123285504	87699456	56079776	33184
837	71.575025	124637184	89272320	58178616	33184
838	89.780962	130584576	95563776	61404688	33184
839	83.706475	130011136	95039488	32649616	33184
840	76.942747	130011136	95039488	38115200	33184
841	77.847562	130281472	95039488	44591456	33184
842	79.685479	130281472	95039488	52248464	33184
843	80.802441	130281472	95039488	60973080	33184
844	86.783565	130281472	95039488	58222408	33184
845	114.421621	125341696	91369472	39263232	33184
846	90.184138	126689280	91369472	38172496	33184
847	87.090255	126689280	91369472	51398016	33184
848	92.980891	126689280	91369472	53114976	33184
849	94.492216	126959616	91369472	55945288	33184
850	94.191998	130473984	95039488	72544392	33184
851	123.524874	131035136	96088064	27192312	33184
852	101.1223	131035136	96088064	33603792	33184
853	101.238402	131035136	96088064	40941192	33184
854	107.589262	131035136	96088064	49321560	33184
855	108.481229	131035136	96088064	58956440	33184
856	144.259518	124243968	88748032	43419448	33184
857	111.764995	124243968	88748032	42692344	33184
858	110.998824	124243968	88748032	55611056	33184
859	115.997651	126136320	90845184	57169168	33184
860	117.583967	133705728	98709504	72475672	33184
861	148.711425	134389760	99233792	42293504	33184
862	121.147394	134389760	99233792	47257776	33184
863	122.295343	134389760	99233792	53390384	33184
864	124.41415	134389760	99233792	60620592	33184
865	135.563464	137633792	102379520	81563504	33184
866	146.743569	132554752	97136640	41711696	33184
867	129.606511	132554752	97136640	52380232	33184
868	131.48531	132554752	97136640	64187368	33184
869	141.811666	133636096	98185216	64531064	33184
870	162.717779	131489792	96088064	46916456	33184
871	140.739539	131489792	96088064	49543448	33184
872	137.601069	131489792	96088064	65984344	33184
873	145.03585	136085504	100806656	70932688	33184
874	178.928734	138477568	102903808	43346112	33184
875	147.544143	138477568	102903808	50580456	33184
876	148.145448	138477568	102903808	59033528	33184
877	147.327671	138477568	102903808	81261960	33184
878	177.452002	133836800	98709504	35731128	33184
879	153.47081	133836800	98709504	47715944	33184
880	156.678303	133836800	98709504	60736728	33184
881	187.213971	124395520	88748032	31438272	33184
882	159.364902	124395520	88748032	46915936	33184
883	161.899523	124395520	88748032	63428048	33184
884	197.380199	126631936	92942336	37724120	33184
885	166.205505	127979520	92942336	43455408	33184
886	167.216449	127979520	92942336	63523448	33184
887	178.942513	134197248	99233792	72233680	33184
888	198.13412	133177344	97660928	49852528	33184
889	176.732841	133177344	97660928	60912272	33184
890	177.456503	136151040	100806656	73051528	33184
891	206.763334	130965504	95563776	32478344	33184
892	179.975258	130965504	95563776	46983296	33184
893	180.919218	130965504	95563776	62662984	33184
894	211.038796	127479808	92418048	32701328	33184
895	183.4912	127479808	92418048	50746928	33184
896	203.939596	128561152	92942336	57438840	33184
897	211.667248	127877120	92418048	50989600	33184
898	194.182594	127877120	92418048	59999400	33184
899	200.611812	141123584	106049536	82787664	33184
900	238.522083	139657216	104476672	46619288	33184
901	196.537476	139657216	104476672	71779624	33184
902	3.518957	142901248	107622400	86545744	33184
903	10.626148	144793600	109719552	77179720	33184
904	7.784262	144793600	109719552	81941448	33184
905	9.538379	144793600	109719552	87899664	33184
906	16.576603	146415616	111292416	80225896	33184
907	24.616638	137949184	90845184	17386320	33184
908	14.529921	126414848	90845184	26949792	33184
909	16.980644	126414848	90845184	21915960	33184
910	19.18746	126414848	90845184	18778424	33184
911	21.196699	126414848	90845184	17208544	33184
912	21.122887	126414848	90845184	31561984	33184
913	23.223844	126414848	90845184	30698552	33184
914	25.2946	126414848	90845184	31109216	33184
915	29.625367	126414848	90845184	18581376	33184
916	30.435507	126414848	90845184	23094232	33184
917	31.683223	126414848	90845184	28239176	33184
918	35.333895	126414848	90845184	20071328	33184
919	38.11657	126414848	90845184	30473624	33184
920	39.258943	126414848	90845184	25042496	33184
921	45.169813	126414848	90845184	25166744	33184
922	42.723405	126414848	90845184	38995112	33184
923	43.633416	126414848	90845184	36593464	33184
924	50.850756	126414848	90845184	40463952	33184
925	52.750803	126414848	90845184	45322208	33184
926	54.594672	126414848	90845184	51457944	33184
927	61.094555	126414848	90845184	46121544	33184
928	63.784906	126955520	91369472	54656296	33184
929	87.71195	122810368	87175168	24494424	33184
930	61.108962	122810368	87175168	35477760	33184
931	67.516167	122810368	87175168	35109224	33184
932	64.853711	122810368	87175168	48579120	33184
933	70.600588	122810368	87175168	50687328	33184
934	72.3552	122810368	87175168	54014856	33184
935	76.458567	124432384	89272320	58571312	33184
936	106.061955	127447040	93466624	34820088	33184
937	78.584705	128794624	93466624	41241680	33184
938	81.514558	128794624	93466624	49539392	33184
939	86.568856	128794624	93466624	46517960	33184
940	82.972129	128794624	93466624	57283032	33184
941	85.788498	128794624	93466624	69128432	33184
942	97.63109	133390336	98185216	69707200	33184
943	111.568916	130613248	95563776	36809352	33184
944	95.85892	130613248	95563776	39947312	33184
945	97.970359	130613248	95563776	44211264	33184
946	94.500606	130613248	95563776	62342752	33184
947	100.528025	130613248	95563776	69236064	33184
948	134.215534	127631360	93990912	30936312	33184
949	103.84081	128978944	93990912	39262688	33184
950	107.523488	128978944	93990912	49734440	33184
951	113.118845	128978944	93990912	49070736	33184
952	110.047948	129519616	93990912	62063600	33184
953	139.188583	129093632	93466624	29923680	33184
954	118.966836	129093632	93466624	32942576	33184
955	115.735312	129093632	93466624	49814680	33184
956	122.726786	129093632	93466624	55337360	33184
957	150.942643	125378560	91369472	31952448	33184
958	126.365619	126726144	91369472	39384192	33184
959	127.379826	126726144	91369472	48720872	33184
960	128.565927	126726144	91369472	59294248	33184
961	161.683001	131006464	97660928	26681200	33184
962	137.123493	132894720	97660928	39051960	33184
963	133.753252	132894720	97660928	53339440	33184
964	140.91196	132894720	97660928	56350976	33184
965	167.47007	129683456	95563776	27426840	33184
966	141.386064	131031040	95563776	44735120	33184
967	146.70153	131031040	95563776	51542824	33184
968	149.131401	131031040	95563776	59641848	33184
969	176.958464	133304320	97660928	33375464	33184
970	152.17458	133304320	97660928	44203648	33184
971	154.262358	133304320	97660928	56056600	33184
972	156.088899	133304320	97660928	69221248	33184
973	195.417932	130510848	95039488	41277392	33184
974	158.473213	130510848	95039488	57132720	33184
975	162.050242	131051520	96088064	74105096	33184
976	201.147294	136556544	102903808	29680440	33184
977	168.711458	138444800	102903808	48082144	33184
978	172.555641	138444800	102903808	56347816	33184
979	172.398631	138444800	102903808	65951728	33184
980	213.032315	130703360	95039488	44839848	33184
981	176.138827	130703360	95039488	56956264	33184
982	179.529095	137461760	101855232	70379640	33184
983	215.908016	140509184	105525248	30034864	33184
984	182.575782	140509184	105525248	46272456	33184
985	184.723656	140509184	105525248	63505984	33184
986	224.480548	130215936	96088064	35717368	33184
987	188.791153	131563520	96088064	54679080	33184
988	196.20353	131563520	96088064	63334760	33184
989	228.908092	140754944	107098112	38799088	33184
990	204.369714	142106624	107098112	49069792	33184
991	200.819306	142106624	107098112	61600728	33184
992	232.406349	132083712	96612352	38990568	33184
993	205.510715	132083712	96612352	54261192	33184
994	205.152933	132083712	96612352	70627560	33184
995	241.657359	135434240	100282368	39006768	33184
996	208.981798	135434240	100282368	57998704	33184
997	219.642978	136245248	100806656	65828984	33184
998	250.116033	128753664	93466624	47287128	33184
999	217.579939	132538368	97136640	70277336	33184
1000	259.091029	150110208	114962432	81968240	33184
