x	Duration	RSS	HeapTotal	HeapUsed	External
0	NA	119410688	82456576	14672736	33184
1	0.320009	119410688	82456576	14724968	33184
2	0.261621	119410688	82456576	14792912	33184
3	0.329666	119410688	82456576	14885592	33184
4	0.361806	119410688	82456576	15004680	33184
5	0.425696	119410688	82456576	15151936	33184
6	0.503176	119410688	82456576	15328064	33184
7	0.574774	119410688	82456576	15534264	33184
8	0.675912	119410688	82456576	15771768	33184
9	0.781085	119410688	82456576	16043112	33184
10	1.052957	119410688	82456576	16348544	33184
11	1.319888	119410688	82456576	16689288	33184
12	1.245661	119410688	82456576	17066576	33184
13	1.325639	119410688	82456576	17485536	33184
14	0.770077	119410688	82456576	17939608	33184
15	0.827469	119410688	82456576	18433920	33184
16	0.914765	119410688	82456576	18974832	33184
17	1.002304	119410688	82456576	19555064	33184
18	1.046319	119410688	82456576	20179232	33184
19	1.096006	119410688	82456576	20849560	33184
20	1.181412	119410688	82456576	21566376	33184
21	1.517976	119410688	82456576	22331584	33184
22	1.464035	119410688	82456576	23148072	33184
23	1.627455	119410688	82456576	24016016	33184
24	1.660979	119410688	82456576	24934104	33184
25	1.550529	119410688	82456576	25907368	33184
26	1.558605	119410688	82456576	26931808	33184
27	2.396587	119410688	82456576	28012024	33184
28	1.74311	119410688	82456576	29149272	33184
29	2.152356	119410688	82456576	30344776	33184
30	2.85748	119410688	82456576	15376712	33184
31	2.269491	119410688	82456576	16711536	33184
32	2.154181	119410688	82456576	18092584	33184
33	2.497702	119410688	82456576	19542472	33184
34	2.276487	119410688	82456576	21056488	33184
35	2.283489	119410688	82456576	22634520	33184
36	2.395197	119410688	82456576	24279440	33184
37	2.490686	119410688	82456576	25992552	33184
38	3.153181	119410688	82456576	27775008	33184
39	3.592228	119410688	82456576	29637776	33184
40	2.857253	119410688	82456576	31570616	33184
41	4.26678	119410688	82456576	17382472	33184
42	3.90554	119410688	82456576	19454504	33184
43	3.357219	119410688	82456576	21611768	33184
44	3.434415	119410688	82456576	23835032	33184
45	3.45714	119410688	82456576	26138552	33184
46	3.369794	119410688	82456576	28522392	33184
47	3.546554	119410688	82456576	30988064	33184
48	5.612769	119410688	82456576	17511968	33184
49	3.74607	119410688	82456576	20148592	33184
50	3.831966	119410688	82456576	22868360	33184
51	4.141315	119410688	82456576	25676096	33184
52	4.265482	119410688	82456576	28571328	33184
53	4.260347	119410688	82456576	31556528	33184
54	6.254553	119410688	82456576	18695864	33184
55	4.446212	119410688	82456576	21863160	33184
56	5.340082	119410688	82456576	25125064	33184
57	4.931062	119410688	82456576	28490144	33184
58	4.767876	119410688	82456576	31940736	33184
59	6.708899	119410688	82456576	19538520	33184
60	5.468189	119410688	82456576	23183848	33184
61	5.747556	119410688	82456576	26928320	33184
62	5.354956	119410688	82456576	30774320	33184
63	7.100242	119410688	82456576	18927984	33184
64	5.523964	119410688	82456576	22976368	33184
65	5.635439	119410688	82456576	27136008	33184
66	5.79349	119410688	82456576	31401480	33184
67	7.875894	119410688	82456576	19922248	33184
68	6.59863	119410688	82456576	24401528	33184
69	6.238683	119410688	82456576	28989856	33184
70	6.596181	119410688	82456576	33689184	33184
71	9.061567	119410688	82456576	22493872	33184
72	6.735119	119410688	82456576	27418024	33184
73	7.10242	119410688	82456576	32455432	33184
74	8.878363	119410688	82456576	21725176	33184
75	7.533104	119410688	82456576	26994920	33184
76	7.561467	119410688	82456576	32380992	33184
77	9.412698	119410688	82456576	22083280	33184
78	7.899106	119410688	82456576	27708432	33184
79	7.898705	119410688	82456576	33455096	33184
80	10.367929	119410688	82456576	23419280	33184
81	8.655765	119410688	82456576	29414072	33184
82	8.897458	119410688	82456576	35532344	33184
83	10.845129	119410688	82456576	25737056	33184
84	9.130854	119410688	82456576	32111520	33184
85	11.252553	119410688	82456576	22933088	33184
86	9.574781	119410688	82456576	29566656	33184
87	9.314773	119410688	82456576	36333488	33184
88	11.582083	119410688	82456576	27222224	33184
89	10.832477	119410688	82456576	34265944	33184
90	12.147713	119410688	82456576	25568616	33184
91	10.105808	119410688	82456576	32877952	33184
92	12.877209	119410688	82456576	24702896	33184
93	10.675224	119410688	82456576	32294032	33184
94	12.732981	119410688	82456576	24434648	33184
95	11.339527	119410688	82456576	32313064	33184
96	13.642374	119410688	82456576	24789912	33184
97	11.562175	119410688	82456576	32960880	33184
98	14.341003	119410688	82456576	25694152	33184
99	12.017227	119410688	82456576	34162000	33184
100	14.269624	119410688	82456576	27085520	33184
101	12.344687	119410688	82456576	35857816	33184
102	0.493113	119410688	82456576	28737424	33184
103	0.692026	119410688	82456576	29196128	33184
104	0.911318	119410688	82456576	29809968	33184
105	1.121457	119410688	82456576	30580296	33184
106	1.345543	119410688	82456576	31508608	33184
107	1.560104	119410688	82456576	32595784	33184
108	1.993183	119410688	82456576	33842976	33184
109	2.014089	119410688	82456576	35252184	33184
110	2.244785	119410688	82456576	36824088	33184
111	2.462422	119410688	82456576	38560200	33184
112	4.529811	119410688	82456576	24314536	33184
113	3.157683	119410688	82456576	26381392	33184
114	3.393523	119410688	82456576	28616208	33184
115	3.431206	119410688	82456576	31019224	33184
116	3.645479	119410688	82456576	33592112	33184
117	3.956212	119410688	82456576	36335928	33184
118	4.130236	119410688	82456576	39253864	33184
119	6.381069	119410688	82456576	26066848	33184
120	4.626121	119410688	82456576	29333840	33184
121	5.092722	119410688	82456576	32776584	33184
122	5.129847	119410688	82456576	36396496	33184
123	7.342188	119410688	82456576	24288816	33184
124	5.648422	119410688	82456576	28266856	33184
125	6.114309	119410688	82456576	32425928	33184
126	6.134761	119410688	82456576	36767192	33184
127	8.586315	119410688	82456576	25358040	33184
128	6.679792	119410688	82456576	30067072	33184
129	6.955535	119410688	82456576	34961864	33184
130	9.62884	119410688	82456576	24366448	33184
131	7.690733	119410688	82456576	29640024	33184
132	7.742584	119410688	82456576	35099752	33184
133	10.168133	119410688	82456576	25064416	33184
134	8.766409	119410688	82456576	30914072	33184
135	8.829816	119410688	82456576	36956936	33184
136	11.249802	119410688	82456576	27283336	33184
137	9.839567	119410688	82456576	33716264	33184
138	11.479679	119410688	82456576	24058888	33184
139	10.003081	119410688	82456576	30887352	33184
140	9.99171	119410688	82456576	37915216	33184
141	12.558555	119410688	82456576	29128744	33184
142	10.791485	119410688	82456576	36564552	33184
143	13.105996	119410688	82456576	28416792	33184
144	11.410417	119410688	82456576	36259688	33184
145	14.030012	119410688	82456576	28545560	33184
146	11.790904	119410688	82456576	36804192	33184
147	14.88916	119410688	82456576	29466568	33184
148	12.773617	119410688	82456576	38146456	33184
149	15.164	119410688	82456576	31057584	33184
150	13.375761	119410688	82456576	40163144	33184
151	15.240217	119410688	82456576	33265640	33184
152	16.942771	119410688	82456576	27504976	33184
153	13.950723	119410688	82456576	37261048	33184
154	16.889228	119410688	82456576	31404872	33184
155	14.867626	119410688	82456576	41600544	33184
156	17.742651	119410688	82456576	35702680	33184
157	17.869273	119410688	82456576	30754352	33184
158	15.708007	119410688	82456576	41614400	33184
159	17.973529	119410688	82456576	36432176	33184
160	19.029225	119410688	82456576	32109504	33184
161	20.401536	119410688	82456576	28583400	33184
162	17.161069	119410688	82456576	40352096	33184
163	20.244814	119410688	82456576	36222800	33184
164	20.107468	119410688	82456576	32899832	33184
165	21.228321	119410688	82456576	30218264	33184
166	19.57131	119410688	82456576	42919224	33184
167	21.139559	119410688	82456576	39502880	33184
168	21.732931	119410688	82456576	36727056	33184
169	22.511758	119410688	82456576	34597056	33184
170	23.062333	119410688	82456576	32952000	33184
171	23.755236	119410688	82456576	31779248	33184
172	24.528542	119410688	82456576	31042440	33184
173	25.489861	119410688	82456576	30658432	33184
174	25.542741	119410688	82456576	30586608	33184
175	25.910484	119410688	82456576	30782480	33184
176	26.032323	119410688	82456576	31227424	33184
177	26.394002	119410688	82456576	31866344	33184
178	26.397464	119410688	82456576	32692664	33184
179	26.864729	119410688	82456576	33669176	33184
180	27.754771	119410688	82456576	34767416	33184
181	27.408316	119410688	82456576	35997736	33184
182	27.720737	119410688	82456576	37342296	33184
183	27.466416	119410688	82456576	38759504	33184
184	27.89576	119410688	82456576	40269816	33184
185	28.229919	119410688	82456576	41858056	33184
186	28.646921	119410688	82456576	43503640	33184
187	28.649854	119410688	82456576	45220280	33184
188	33.501249	119410688	82456576	32800752	33184
189	31.118526	119410688	82456576	36517576	33184
190	30.683798	119410688	82456576	40043912	33184
191	30.582033	119410688	82456576	43368752	33184
192	36.881059	119410688	82456576	32560040	33184
193	34.923301	119410688	82456576	39576592	33184
194	32.868324	119410688	82456576	44180240	33184
195	32.685341	119410688	82456576	48443768	33184
196	36.779915	119410688	82456576	38243184	33184
197	34.088528	119410688	82456576	43852536	33184
198	33.56947	119410688	82456576	49045528	33184
199	38.370038	119410688	82456576	39652584	33184
200	34.922725	119410688	82456576	45967080	33184
201	39.839161	119410688	82456576	37923928	33184
202	0.885878	119410688	82456576	47391088	33184
203	1.255209	119410688	82456576	48235896	33184
204	1.653406	119410688	82456576	49364568	33184
205	2.067249	119410688	82456576	50778296	33184
206	2.500139	119410688	82456576	52478888	33184
207	5.905807	119410688	82456576	38362720	33184
208	3.354909	119410688	82456576	40640040	33184
209	3.799712	119410688	82456576	43206880	33184
210	4.351963	119410688	82456576	46066296	33184
211	4.549474	119410688	82456576	49221864	33184
212	4.955294	119410688	82456576	52666936	33184
213	8.224764	119410688	82456576	40085320	33184
214	5.905656	119410688	82456576	44121680	33184
215	6.254527	119410688	82456576	48456112	33184
216	7.067976	119410688	82456576	53088136	33184
217	10.210342	119410688	82456576	41670392	33184
218	7.765687	119410688	82456576	46907400	33184
219	8.194023	119410688	82456576	52444464	33184
220	11.295456	119410688	82456576	42025248	33184
221	8.904255	119410688	82456576	48176208	33184
222	12.696078	119410688	82456576	38946496	33184
223	10.443928	119410688	82456576	45706240	33184
224	10.301838	119410688	82456576	52773888	33184
225	13.645237	119410688	82456576	43847024	33184
226	11.286957	119410688	82456576	51536112	33184
227	14.400983	119410688	82456576	43422240	33184
228	12.226028	119410688	82456576	51735016	33184
229	15.662848	119410688	82456576	44220296	33184
230	13.027866	119410688	82456576	53173120	33184
231	16.455561	119410688	82456576	46122272	33184
232	17.360635	119410688	82456576	40358840	33184
233	14.589817	119410688	82456576	50277544	33184
234	18.009104	119410688	82456576	44605848	33184
235	19.150787	119410688	82456576	40033496	33184
236	16.365779	119410688	82456576	50927152	33184
237	19.77702	119410688	82456576	46162600	33184
238	20.772473	119410688	82456576	42395728	33184
239	18.145188	119410688	82456576	54280824	33184
240	20.504955	119410688	82456576	50105304	33184
241	21.573066	119410688	82456576	46822552	33184
242	23.073591	119410688	82456576	44324816	33184
243	23.229982	119410688	82456576	42475376	33184
244	24.239257	119410688	82456576	41252320	33184
245	25.057579	119410688	82456576	40541024	33184
246	20.747411	119410688	82456576	54767728	33184
247	24.30471	119410688	82456576	52960496	33184
248	24.796606	119410688	82456576	51713192	33184
249	25.385231	119410688	82456576	50964672	33184
250	26.119587	119410688	82456576	50664392	33184
251	27.079989	119410688	82456576	50771608	33184
252	27.933748	119410688	82456576	51219464	33184
253	27.850113	119410688	82456576	51958712	33184
254	28.193089	119410688	82456576	52945040	33184
255	28.593728	119410688	82456576	54159256	33184
256	28.922591	119410688	82456576	55573688	33184
257	34.894147	119410688	82456576	42969976	33184
258	31.662314	119410688	82456576	46638920	33184
259	32.529586	119410688	82456576	50215696	33184
260	31.271114	119410688	82456576	53655280	33184
261	37.42492	119410688	82456576	43024992	33184
262	36.921335	119410688	82456576	50353128	33184
263	37.728532	119410688	82456576	55288560	33184
264	53.21759	117317632	80359424	21999704	33184
265	34.337729	117317632	80359424	29872168	33184
266	35.265656	117317632	80359424	21804304	33184
267	37.106249	117317632	80359424	30928320	33184
268	36.172561	117317632	80359424	23691472	33184
269	36.902145	117317632	80359424	33507976	33184
270	37.537769	117317632	80359424	26975136	33184
271	37.272255	117317632	80359424	37515136	33184
272	38.040296	117317632	80359424	31504432	33184
273	38.875623	117317632	80359424	42817128	33184
274	39.089176	117317632	80359424	37123600	33184
275	44.880152	117317632	80359424	36506152	33184
276	39.982248	117317632	80359424	48774248	33184
277	41.01781	117317632	80359424	44173032	33184
278	46.755347	117317632	80359424	44663296	33184
279	44.823125	117317632	80359424	58083568	33184
280	53.606012	117317632	80359424	54180152	33184
281	51.298657	117317632	80359424	25598008	33184
282	48.607425	117317632	80359424	27525520	33184
283	48.987744	117317632	80359424	29766592	33184
284	49.020227	117317632	80359424	32407576	33184
285	49.288029	117317632	80359424	35407992	33184
286	49.581267	117317632	80359424	38824080	33184
287	51.980265	117317632	80359424	42604552	33184
288	52.411546	117317632	80359424	46795984	33184
289	57.496034	120020992	82980864	51402632	33184
290	73.93626	121913344	86650880	29106520	33184
291	56.157211	123535360	86650880	34102960	33184
292	53.32863	123535360	86650880	40011440	33184
293	55.876385	123535360	86650880	46315624	33184
294	59.602228	124076032	87175168	40448712	33184
295	55.676141	124076032	87175168	47533352	33184
296	56.537156	124076032	87175168	55044024	33184
297	56.839417	124076032	87175168	62941240	33184
298	68.829933	127590400	90845184	58669712	33184
299	79.790129	125059072	89272320	36723728	33184
300	62.023165	125865984	89272320	32269128	33184
301	59.630601	125865984	89272320	41573728	33184
302	1.24277	125865984	89272320	38917824	33184
303	1.812413	125865984	89272320	40139448	33184
304	2.595966	125865984	89272320	41770376	33184
305	3.040742	125865984	89272320	43812016	33184
306	3.785521	125865984	89272320	46266104	33184
307	4.389741	125865984	89272320	49133208	33184
308	7.520086	126136320	89272320	38321992	33184
309	5.613991	126136320	89272320	42019056	33184
310	6.218272	126136320	89272320	46135656	33184
311	6.829648	126136320	89272320	50668680	33184
312	8.041442	126136320	89272320	39666264	33184
313	8.336647	126136320	89272320	45040368	33184
314	8.606648	126136320	89272320	50834728	33184
315	9.793992	126136320	89272320	40938176	33184
316	9.606241	126136320	89272320	47580776	33184
317	11.47015	126136320	89272320	38992776	33184
318	11.660613	126136320	89272320	46490312	33184
319	12.984566	126136320	89272320	38886656	33184
320	12.348745	126136320	89272320	47239216	33184
321	13.901993	126136320	89272320	40406120	33184
322	13.599927	126136320	89272320	49620432	33184
323	14.994735	126136320	89272320	43350720	33184
324	15.232667	126136320	89272320	53432344	33184
325	15.853001	126136320	89272320	47489328	33184
326	17.019523	126136320	89272320	42791104	33184
327	18.45605	126136320	89272320	39180376	33184
328	17.365303	126136320	89272320	51017248	33184
329	18.509139	126136320	89272320	47145456	33184
330	19.506776	126136320	89272320	44261568	33184
331	21.248569	126136320	89272320	42230576	33184
332	22.610341	126136320	89272320	40944736	33184
333	23.081304	126136320	89272320	40277672	33184
334	24.045	126136320	89272320	40153504	33184
335	24.345433	126136320	89272320	40496768	33184
336	25.10224	126136320	89272320	41236696	33184
337	25.211863	126136320	89272320	42333728	33184
338	25.612117	126136320	89272320	43747768	33184
339	26.324933	126136320	89272320	45396968	33184
340	27.13375	126136320	89272320	47295352	33184
341	27.358199	126136320	89272320	49361152	33184
342	27.882088	126136320	89272320	51610504	33184
343	28.382547	126136320	89272320	54002280	33184
344	31.522767	126136320	89272320	42342352	33184
345	31.380291	126136320	89272320	46977352	33184
346	31.293486	126136320	89272320	51402248	33184
347	33.706352	126136320	89272320	41801808	33184
348	35.325191	126136320	89272320	50261816	33184
349	32.872603	126136320	89272320	56135216	33184
350	36.512137	126136320	89272320	47438800	33184
351	34.180127	126136320	89272320	54535200	33184
352	36.985945	126136320	89272320	47181488	33184
353	38.309734	126136320	89272320	57974696	33184
354	39.089323	126136320	89272320	51833032	33184
355	44.09958	126136320	89272320	50991888	33184
356	40.440685	126136320	89272320	63034080	33184
357	40.930351	126136320	89272320	58320312	33184
358	52.862753	128028672	91369472	58885952	33184
359	67.068579	125509632	90320896	28399680	33184
360	48.289816	126857216	90320896	28924544	33184
361	49.35842	126857216	90320896	30766008	33184
362	48.858015	126857216	90320896	33047952	33184
363	45.733635	126857216	90320896	48480432	33184
364	44.804448	126857216	90320896	46420248	33184
365	46.187349	126857216	90320896	45235656	33184
366	52.120204	127397888	90320896	49719256	33184
367	53.093171	127397888	90320896	54495560	33184
368	54.19831	127397888	90320896	59756840	33184
369	58.616341	127397888	90320896	53010056	33184
370	60.606803	127668224	90845184	59284816	33184
371	74.6657	127266816	91893760	35113360	33184
372	60.861787	128614400	91893760	29131224	33184
373	56.50878	128614400	91893760	36898688	33184
374	58.809393	128614400	91893760	45195824	33184
375	64.024397	128614400	91893760	41474088	33184
376	59.119836	128884736	91893760	50732912	33184
377	60.428023	128884736	91893760	60606456	33184
378	65.642108	128884736	91893760	58327296	33184
379	71.391008	129155072	92418048	69180480	33184
380	82.71584	129966080	93466624	35571152	33184
381	66.880042	129966080	93466624	34952024	33184
382	68.334283	129966080	93466624	34766152	33184
383	63.753033	129966080	93466624	47684416	33184
384	71.040682	130777088	93990912	48559136	33184
385	69.703734	130777088	93990912	49910944	33184
386	67.780782	130777088	93990912	64331880	33184
387	98.550369	126455808	91369472	26939704	33184
388	72.706972	127803392	91369472	28571920	33184
389	73.186809	127803392	91369472	32153608	33184
390	69.181093	127803392	91369472	48869024	33184
391	74.622072	128344064	91369472	53554688	33184
392	75.592315	128344064	91369472	58709792	33184
393	77.832192	128344064	91369472	64427872	33184
394	106.56646	126169088	89272320	28018696	33184
395	80.159287	126169088	89272320	34693064	33184
396	79.119247	126169088	89272320	41839760	33184
397	78.703368	126169088	89272320	49476304	33184
398	80.152569	126169088	89272320	57719216	33184
399	81.73982	126169088	89272320	66463200	33184
400	104.88293	133738496	97136640	63170312	33184
401	91.555607	131985408	95563776	39179056	33184
402	1.626626	131985408	95563776	37229488	33184
403	2.381013	131985408	95563776	38859672	33184
404	3.127669	131985408	95563776	41032288	33184
405	3.958986	131985408	95563776	43751112	33184
406	4.959947	131985408	95563776	47017856	33184
407	8.276943	131985408	95563776	36713168	33184
408	6.287128	131985408	95563776	41078080	33184
409	7.236866	131985408	95563776	46001104	33184
410	8.874235	131985408	95563776	35849976	33184
411	9.211553	131985408	95563776	41879704	33184
412	9.387161	131985408	95563776	48458624	33184
413	10.87407	131985408	95563776	39318760	33184
414	11.254814	131985408	95563776	47010096	33184
415	12.669831	131985408	95563776	39191392	33184
416	12.811087	131985408	95563776	48005160	33184
417	14.317185	131985408	95563776	41166112	33184
418	15.922492	131985408	95563776	35820160	33184
419	15.027616	131985408	95563776	46326992	33184
420	16.869182	131985408	95563776	41392320	33184
421	18.155146	131985408	95563776	37702520	33184
422	18.114621	131985408	95563776	49905720	33184
423	18.870795	131985408	95563776	46201216	33184
424	20.098018	131985408	95563776	43564408	33184
425	21.179146	131985408	95563776	41849280	33184
426	22.288062	131985408	95563776	40964296	33184
427	23.526076	131985408	95563776	40775272	33184
428	24.489028	131985408	95563776	41177672	33184
429	25.000481	131985408	95563776	42132168	33184
430	26.5499	131985408	95563776	43515952	33184
431	26.120596	131985408	95563776	45273112	33184
432	27.240754	131985408	95563776	47366800	33184
433	27.688221	131985408	95563776	49771288	33184
434	31.02349	131985408	95563776	38286760	33184
435	30.707946	131985408	95563776	43108456	33184
436	30.530262	131985408	95563776	47857544	33184
437	33.982949	131985408	95563776	38596232	33184
438	36.080627	131985408	95563776	47585632	33184
439	36.996791	131985408	95563776	40481168	33184
440	37.384581	131985408	95563776	50591192	33184
441	37.783241	131985408	95563776	44505248	33184
442	39.2464	131985408	95563776	55791496	33184
443	39.247197	131985408	95563776	50489688	33184
444	46.5228	132526080	95563776	50331864	33184
445	41.18628	132526080	95563776	63283800	33184
446	41.925501	132526080	95563776	59403736	33184
447	48.260186	132526080	95563776	61073080	33184
448	67.476926	135770112	99233792	63160344	33184
449	52.611463	123736064	87175168	32499248	33184
450	50.086024	123736064	87175168	35892976	33184
451	51.568712	123736064	87175168	39809896	33184
452	52.406776	123736064	87175168	44338680	33184
453	52.700135	123736064	87175168	49457608	33184
454	53.855541	123736064	87175168	55218312	33184
455	59.35525	124817408	87699456	48958912	33184
456	56.163456	124817408	87699456	55901200	33184
457	57.810516	126709760	89796608	63484400	33184
458	86.197274	128610304	93466624	28281616	33184
459	60.149364	129957888	93466624	36300304	33184
460	64.08618	129957888	93466624	33072488	33184
461	60.144517	129957888	93466624	43028960	33184
462	61.023124	129957888	93466624	53608280	33184
463	66.007937	130498560	93466624	52252192	33184
464	62.114767	130498560	93466624	64064160	33184
465	67.25125	130498560	93466624	63881744	33184
466	88.098782	132390912	95563776	64359040	33184
467	75.251383	131035136	93990912	31076312	33184
468	70.210105	131035136	93990912	32792672	33184
469	68.563289	131035136	93990912	47698728	33184
470	72.976635	131035136	93990912	50665128	33184
471	73.289367	131035136	93990912	54237472	33184
472	73.94472	131035136	93990912	58525096	33184
473	97.572362	133738496	97136640	63329232	33184
474	77.798778	125677568	88748032	37072016	33184
475	77.394889	125677568	88748032	43128224	33184
476	78.228989	125677568	88748032	49872352	33184
477	83.961175	125677568	88748032	44733008	33184
478	80.575734	125677568	88748032	52715056	33184
479	85.262988	126218240	89272320	61338392	33184
480	109.774149	126849024	89796608	27260312	33184
481	82.405858	126849024	89796608	37162568	33184
482	82.318255	126849024	89796608	47756776	33184
483	87.651582	126849024	89796608	46338280	33184
484	84.730713	126849024	89796608	58171648	33184
485	88.881824	129011712	92418048	70685888	33184
486	117.80663	131223552	94515200	39059976	33184
487	91.723135	131223552	94515200	40342056	33184
488	93.033969	131223552	94515200	42183224	33184
489	89.931184	131223552	94515200	57271360	33184
490	95.612816	131493888	94515200	60358672	33184
491	101.065446	134197248	97660928	64152168	33184
492	120.68725	132894720	96088064	34845464	33184
493	98.801281	132894720	96088064	39896888	33184
494	98.866848	132894720	96088064	45624560	33184
495	101.494305	132894720	96088064	52017560	33184
496	102.508868	133435392	96612352	59088928	33184
497	126.055973	131928064	96612352	32329896	33184
498	101.776247	133275648	96612352	39624848	33184
499	103.776553	133275648	96612352	48634040	33184
500	105.385911	133275648	96612352	58287016	33184
501	112.589305	133275648	96612352	56139120	33184
502	2.000073	128008192	92418048	34790400	33184
503	2.92538	128008192	92418048	36786456	33184
504	7.776104	129355776	92418048	25585840	33184
505	4.900738	129355776	92418048	28920608	33184
506	6.22234	129355776	92418048	32926024	33184
507	6.754517	129355776	92418048	37601968	33184
508	9.615071	129355776	92418048	28089144	33184
509	8.732692	129355776	92418048	34109336	33184
510	10.925513	129355776	92418048	25044624	33184
511	10.695924	129355776	92418048	32416944	33184
512	13.060962	129355776	92418048	24938360	33184
513	12.909501	129355776	92418048	33666456	33184
514	14.758174	129355776	92418048	27383800	33184
515	14.665693	129355776	92418048	37479496	33184
516	16.251661	129355776	92418048	32024592	33184
517	17.652099	129355776	92418048	28032704	33184
518	19.959481	129355776	92418048	25290200	33184
519	18.611238	129355776	92418048	38135336	33184
520	20.658788	129355776	92418048	35336376	33184
521	22.12086	129355776	92418048	33625592	33184
522	22.962141	129355776	92418048	32828032	33184
523	23.908751	129355776	92418048	32826352	33184
524	25.449744	129355776	92418048	33523912	33184
525	25.89671	129355776	92418048	34824032	33184
526	26.976372	129355776	92418048	36641616	33184
527	28.013373	129355776	92418048	38909208	33184
528	32.004962	129355776	92418048	27459696	33184
529	31.291629	129355776	92418048	32414680	33184
530	31.379702	129355776	92418048	37352880	33184
531	35.655335	129355776	92418048	28432032	33184
532	36.396128	129355776	92418048	37919760	33184
533	37.573658	129355776	92418048	31220648	33184
534	38.192078	129355776	92418048	42057400	33184
535	39.130406	129355776	92418048	36495584	33184
536	45.198071	129355776	92418048	36164816	33184
537	40.852562	129355776	92418048	48984944	33184
538	42.585388	129355776	92418048	45272352	33184
539	49.784471	129355776	92418048	47071432	33184
540	49.306952	129355776	92418048	49463384	33184
541	49.955091	129355776	92418048	52523184	33184
542	51.483339	129355776	92418048	56332992	33184
543	57.049753	129896448	92942336	60825056	33184
544	72.187805	130199552	95039488	33929504	33184
545	54.524985	131547136	95039488	39019544	33184
546	59.266546	131547136	95039488	33060344	33184
547	56.08216	131547136	95039488	40401912	33184
548	56.796171	131547136	95039488	48467856	33184
549	61.914146	131547136	95039488	44687512	33184
550	60.274155	131547136	95039488	54223200	33184
551	60.766469	131547136	95039488	64460672	33184
552	85.533114	132628480	96612352	62863192	33184
553	71.967936	128352256	91893760	29092096	33184
554	63.004864	128352256	91893760	41490344	33184
555	68.806302	128352256	91893760	42080360	33184
556	70.09863	128352256	91893760	43472568	33184
557	70.95032	128352256	91893760	45499136	33184
558	67.97519	128352256	91893760	60885704	33184
559	79.994326	128622592	92418048	64411888	33184
560	92.730183	127406080	90845184	37660600	33184
561	75.855645	127406080	90845184	42725496	33184
562	78.663797	127406080	90845184	48498216	33184
563	78.532656	127406080	90845184	54982608	33184
564	82.618061	127406080	90845184	49655872	33184
565	82.140717	127946752	90845184	57688768	33184
566	105.930161	132001792	95039488	66442472	33184
567	87.744693	130322432	93466624	29727856	33184
568	84.590115	130322432	93466624	39984472	33184
569	85.025051	130322432	93466624	51011056	33184
570	89.990596	130322432	93466624	50153408	33184
571	86.927371	130322432	93466624	62678360	33184
572	115.297236	133566464	97136640	63360440	33184
573	101.369703	127840256	91369472	32383136	33184
574	89.719033	127840256	91369472	47180776	33184
575	96.165347	127840256	91369472	50173920	33184
576	96.235171	127840256	91369472	53866728	33184
577	99.270111	128651264	91893760	58383336	33184
578	129.903382	130301952	93466624	33223032	33184
579	100.242374	130301952	93466624	39288728	33184
580	101.733695	130301952	93466624	46087120	33184
581	102.133323	130301952	93466624	53664456	33184
582	104.252606	131112960	94515200	61974696	33184
583	135.340543	131817472	96088064	23216912	33184
584	108.634076	138047488	101855232	31959688	33184
585	108.653753	145616896	110243840	42596880	33184
586	109.953272	153456640	118632448	54027360	33184
587	111.359842	161296384	127021056	66214800	33184
588	133.775171	171028480	135409664	66610264	33184
589	123.475475	106520576	69873664	33159696	33184
590	112.430622	110034944	73543680	47704000	33184
591	121.057734	119767040	83505152	50392472	33184
592	118.497796	127606784	91369472	66507200	33184
593	143.984596	105656320	69349376	35838696	33184
594	120.92658	106196992	69349376	41037520	33184
595	124.378296	112144384	75640832	46880408	33184
596	126.530206	121876480	85602304	53525856	33184
597	149.941556	108322816	71970816	29188592	33184
598	125.59488	108593152	71970816	37529400	33184
599	129.964582	113729536	77213696	46507784	33184
600	131.859669	123461632	86650880	56260736	33184
601	155.252905	110931968	74592256	34706032	33184
602	2.39101	111202304	74592256	46796904	33184
603	8.066426	111202304	74592256	36393480	33184
604	4.746258	111202304	74592256	39574936	33184
605	6.080878	111202304	74592256	43554752	33184
606	6.982759	111202304	74592256	48334512	33184
607	10.092591	111202304	74592256	39155504	33184
608	9.529267	111202304	74592256	45538552	33184
609	11.492721	111202304	74592256	36978280	33184
610	11.97069	111202304	74592256	44974320	33184
611	14.075462	111202304	74592256	38108008	33184
612	14.187292	111202304	74592256	47711792	33184
613	16.228891	111202304	74592256	42066296	33184
614	17.636813	111202304	74592256	38037496	33184
615	17.869843	111202304	74592256	50077608	33184
616	19.444121	111202304	74592256	46546280	33184
617	20.813553	111202304	74592256	44362928	33184
618	22.178383	111202304	74592256	43257720	33184
619	23.875423	111202304	74592256	43121592	33184
620	25.148562	111202304	74592256	43802184	33184
621	25.689623	111202304	74592256	45202864	33184
622	26.789254	111202304	74592256	47257448	33184
623	27.976293	111202304	74592256	49850008	33184
624	31.905228	111202304	74592256	38831200	33184
625	34.197305	111742976	74592256	46652160	33184
626	31.768209	111742976	74592256	52397856	33184
627	35.216511	111742976	74592256	43871024	33184
628	38.215184	112553984	75640832	54186208	33184
629	38.794489	113364992	76689408	48017752	33184
630	46.779693	117420032	80883712	47346536	33184
631	41.653459	119582720	82980864	59948480	33184
632	41.714264	120123392	83505152	56081864	33184
633	48.986283	124178432	87175168	57872448	33184
634	54.820815	127963136	91369472	60380096	33184
635	70.643179	115433472	79835136	31806336	33184
636	51.957355	116781056	79835136	35254936	33184
637	53.013361	116781056	79835136	40226896	33184
638	54.100942	116781056	79835136	46115728	33184
639	60.300059	116781056	79835136	40201808	33184
640	56.688288	116781056	79835136	47748864	33184
641	57.95263	117321728	80359424	56055656	33184
642	65.065121	122998784	86126592	52785624	33184
643	66.77803	126783488	90320896	62828912	33184
644	86.176982	119914496	83505152	29666152	33184
645	62.417548	119914496	83505152	41514960	33184
646	67.774587	119914496	83505152	41564952	33184
647	69.753235	119914496	83505152	42484792	33184
648	66.254151	119914496	83505152	56760016	33184
649	72.404275	120455168	83505152	59334368	33184
650	76.025063	125591552	88748032	62767616	33184
651	101.621161	122761216	87699456	37095680	33184
652	76.08488	124108800	87699456	41715656	33184
653	78.034267	124108800	87699456	47694672	33184
654	79.279455	124108800	87699456	54484240	33184
655	84.144888	124649472	87699456	49651120	33184
656	81.285836	126271488	89796608	58234264	33184
657	89.773579	132218880	96088064	67642520	33184
658	109.335292	126271488	89796608	32352544	33184
659	85.402595	126271488	89796608	43509704	33184
660	93.376933	126812160	89796608	42928704	33184
661	86.42238	126812160	89796608	55949792	33184
662	94.711119	126812160	90320896	57277840	33184
663	99.90849	131137536	94515200	71977968	33184
664	131.925136	128221184	91369472	29447856	33184
665	95.417175	128221184	91369472	45758608	33184
666	97.617142	128221184	91369472	50440848	33184
667	99.351513	128221184	91369472	56001032	33184
668	101.310508	129032192	92418048	62393768	33184
669	131.2052	129216512	92418048	39078432	33184
670	104.132855	129216512	92418048	47398112	33184
671	103.900127	129216512	92418048	56424984	33184
672	111.046618	129216512	92418048	53804224	33184
673	108.420018	132730880	96088064	64647680	33184
674	137.318098	130727936	93990912	25999552	33184
675	110.066425	130998272	93990912	38775160	33184
676	111.275403	130998272	93990912	52214712	33184
677	116.670783	130998272	93990912	53987952	33184
678	117.293337	130998272	93990912	69259848	33184
679	148.43156	128823296	91893760	43378272	33184
680	122.944672	128823296	91893760	47818408	33184
681	122.077606	128823296	91893760	53175088	33184
682	119.809648	129093632	92418048	71980616	33184
683	157.812521	133693440	98709504	31553400	33184
684	126.298414	135041024	98709504	38462376	33184
685	128.225813	135041024	98709504	47367376	33184
686	129.37486	135041024	98709504	57245072	33184
687	136.18592	136122368	99233792	67981696	33184
688	163.859873	131420160	94515200	35559456	33184
689	132.595984	131420160	94515200	48048640	33184
690	134.696746	131420160	94515200	61553992	33184
691	136.765479	134664192	98185216	75985088	33184
692	170.939384	138932224	102379520	45652520	33184
693	142.442166	138932224	102379520	49272912	33184
694	137.898994	138932224	102379520	66299224	33184
695	145.077738	139472896	102379520	71703304	33184
696	178.235285	136208384	99758080	43744624	33184
697	147.193984	136208384	99758080	51029480	33184
698	150.882468	136208384	99758080	59216944	33184
699	147.78247	139722752	102903808	80821672	33184
700	178.80784	137236480	100282368	34398176	33184
701	152.558095	137236480	100282368	45292600	33184
702	2.795605	137236480	100282368	57853952	33184
703	4.075926	137236480	100282368	60610408	33184
704	9.429275	137236480	100282368	51057840	33184
705	7.283559	137236480	100282368	55665184	33184
706	8.283988	137236480	100282368	61181464	33184
707	11.175797	137236480	100282368	52629192	33184
708	10.809203	137236480	100282368	59993472	33184
709	13.177711	137236480	100282368	52629856	33184
710	13.746967	137236480	100282368	61848160	33184
711	15.692575	137236480	100282368	56083984	33184
712	17.958508	137236480	100282368	52015496	33184
713	17.668603	137236480	100282368	64027832	33184
714	19.696362	137236480	100282368	60732800	33184
715	21.78221	137236480	100282368	58866088	33184
716	22.845181	137236480	100282368	58195088	33184
717	24.609768	137236480	100282368	58613240	33184
718	26.035756	137236480	100282368	59847216	33184
719	26.943325	137236480	100282368	61915336	33184
720	28.586293	137236480	100282368	64640176	33184
721	32.616716	137236480	100282368	53872224	33184
722	36.235757	137236480	100282368	62108696	33184
723	38.004015	137236480	100282368	68302552	33184
724	50.245092	123121664	86126592	28761840	33184
725	38.560515	123121664	86126592	22234648	33184
726	44.703505	123121664	86126592	21637904	33184
727	41.739132	123121664	86126592	34492280	33184
728	42.417947	123121664	86126592	31038904	33184
729	48.285435	123121664	86126592	33366088	33184
730	49.55828	123121664	86126592	36460032	33184
731	50.561239	123121664	86126592	40524472	33184
732	52.084949	123121664	86126592	45595992	33184
733	55.571521	123121664	86126592	51622648	33184
734	78.417856	123662336	86650880	58591400	33184
735	59.722586	120041472	82980864	27529656	33184
736	59.013842	120041472	82980864	36491280	33184
737	60.873435	120041472	82980864	46459576	33184
738	65.188272	120041472	82980864	44720584	33184
739	67.365836	120041472	82980864	44002672	33184
740	63.253635	120041472	82980864	56891376	33184
741	71.040105	124907520	88223744	58100672	33184
742	86.69972	130584576	94515200	60311288	33184
743	80.822551	126947328	90845184	30660472	33184
744	76.57802	126947328	90845184	34796880	33184
745	76.073497	127488000	90845184	40192344	33184
746	78.325354	127488000	90845184	46332352	33184
747	79.445561	127488000	90845184	53700168	33184
748	82.136334	127758336	90845184	61839216	33184
749	114.973534	126267392	89796608	28335360	33184
750	83.066269	126267392	89796608	38570912	33184
751	84.047207	126267392	89796608	49625632	33184
752	90.831663	126267392	89796608	49155064	33184
753	88.247702	126267392	89796608	62298112	33184
754	94.00673	130863104	93990912	63763864	33184
755	118.939157	128483328	93466624	30748952	33184
756	95.632699	129830912	93466624	33210504	33184
757	101.531334	129830912	93466624	37639056	33184
758	95.359703	129830912	93466624	55751776	33184
759	100.913936	129830912	93466624	62266472	33184
760	110.115411	130371584	93466624	69846264	33184
761	125.35789	129339392	92418048	34293832	33184
762	104.09119	129339392	92418048	43806944	33184
763	107.629147	129339392	92418048	54336760	33184
764	107.331057	129339392	92418048	65885904	33184
765	134.475904	133664768	96612352	65883744	33184
766	124.44271	132562944	96088064	33760328	33184
767	114.890954	133103616	96088064	48340664	33184
768	118.016214	133103616	96088064	51429232	33184
769	115.536059	133103616	96088064	68094488	33184
770	149.924348	132419584	95563776	24931680	33184
771	123.069555	132419584	95563776	43660208	33184
772	124.742784	132419584	95563776	50738224	33184
773	127.101609	132419584	95563776	58834400	33184
774	155.867165	133500928	96612352	67990424	33184
775	133.174345	129978368	92942336	46357920	33184
776	133.709957	129978368	92942336	44900024	33184
777	131.143586	129978368	92942336	57092328	33184
778	139.030865	134574080	97660928	70267360	33184
779	162.631166	135659520	98709504	39240968	33184
780	135.526347	135659520	98709504	54535808	33184
781	140.473708	135659520	98709504	58439816	33184
782	141.690736	136740864	100282368	75888592	33184
783	174.689323	134586368	97660928	47982712	33184
784	145.44739	134586368	97660928	54828184	33184
785	150.468418	134586368	97660928	62700152	33184
786	151.925153	140263424	103428096	71594584	33184
787	185.941027	142381056	105525248	46247464	33184
788	152.156211	142381056	105525248	57197928	33184
789	152.297612	142381056	105525248	69187584	33184
790	156.708201	142921728	106049536	82238768	33184
791	193.556232	137322496	100282368	46917776	33184
792	158.914254	137322496	100282368	62017176	33184
793	163.679488	137322496	100282368	65675800	33184
794	196.509538	141058048	105525248	32876968	33184
795	163.737726	142405632	105525248	50036024	33184
796	171.476779	142405632	105525248	56701800	33184
797	167.684404	142405632	105525248	77155536	33184
798	201.083043	132997120	96088064	33907928	33184
799	173.81348	132997120	96088064	43737648	33184
800	181.90178	133808128	97136640	54783496	33184
801	208.855333	128970752	91893760	41445264	33184
802	7.414372	128970752	91893760	55448832	33184
803	4.74426	128970752	91893760	58619144	33184
804	6.386257	128970752	91893760	62848040	33184
805	7.852843	128970752	91893760	68149216	33184
806	11.370539	129241088	92418048	59866104	33184
807	11.083546	129241088	92418048	67309592	33184
808	13.104666	129241088	92418048	59829120	33184
809	14.029688	129241088	92418048	69395248	33184
810	15.978495	129241088	92418048	63780800	33184
811	18.421879	129241088	92418048	59912680	33184
812	20.463641	129241088	92418048	57715504	33184
813	22.198986	129241088	92418048	56879440	33184
814	24.322755	129241088	92418048	57244600	33184
815	25.642305	129241088	92418048	58619600	33184
816	26.694987	129241088	92418048	60855600	33184
817	28.32162	129241088	92418048	63908936	33184
818	28.979221	129241088	92418048	67586712	33184
819	34.719339	129511424	92418048	58045176	33184
820	36.147003	130863104	93990912	66995880	33184
821	37.418993	131674112	95039488	60465120	33184
822	39.213263	133836800	97136640	71574720	33184
823	40.29005	134647808	97660928	66800824	33184
824	47.794574	138702848	101855232	67448200	33184
825	44.214419	140595200	103952384	81670832	33184
826	44.265544	140865536	103952384	79374512	33184
827	65.650951	144920576	108146688	83317736	33184
828	63.663274	129241088	92418048	32692176	33184
829	54.73383	129241088	92418048	38599088	33184
830	60.638695	129241088	92418048	33046680	33184
831	58.300162	129241088	92418048	41169056	33184
832	59.189108	129241088	92418048	50346304	33184
833	64.185203	129241088	92418048	48028088	33184
834	62.338673	129241088	92418048	59406936	33184
835	84.711608	129511424	92418048	59385488	33184
836	80.129944	127782912	90845184	29552224	33184
837	71.823451	127782912	90845184	31663736	33184
838	68.970717	127782912	90845184	47421352	33184
839	75.448105	127782912	90845184	51784696	33184
840	76.245244	127782912	90845184	57193504	33184
841	78.620549	127782912	90845184	63667120	33184
842	109.327592	126607360	91369472	26982528	33184
843	82.417066	127954944	91369472	35043896	33184
844	83.08801	127954944	91369472	44883024	33184
845	89.072328	127954944	91369472	43311616	33184
846	86.280443	127954944	91369472	55349832	33184
847	93.101323	128225280	91369472	56017144	33184
848	127.797838	128909312	92418048	28809512	33184
849	91.17558	128909312	92418048	44201848	33184
850	99.768298	128909312	92418048	48227160	33184
851	100.085136	128909312	92418048	53229568	33184
852	100.807831	129449984	92418048	59493344	33184
853	108.975405	136478720	99758080	66797680	33184
854	126.933432	134729728	98185216	40661360	33184
855	104.996776	134729728	98185216	50186808	33184
856	110.956308	134729728	98185216	48330144	33184
857	109.871404	134729728	98185216	60278536	33184
858	112.72058	135270400	98709504	73220288	33184
859	144.129301	130363392	93466624	41528240	33184
860	117.86992	130363392	93466624	44173520	33184
861	115.434096	130363392	93466624	60536984	33184
862	120.879631	130363392	93466624	65434344	33184
863	131.159307	138203136	101855232	71522512	33184
864	147.316337	138395648	101855232	43792744	33184
865	125.75257	138395648	101855232	52121352	33184
866	128.736127	138395648	101855232	61619392	33184
867	132.200336	138395648	101855232	72273352	33184
868	159.604128	132718592	96088064	33846000	33184
869	134.652083	132718592	96088064	46959240	33184
870	139.433377	132718592	96088064	48591512	33184
871	136.034565	132718592	96088064	64024672	33184
872	168.624414	130400256	93466624	34171624	33184
873	143.330677	130400256	93466624	39123480	33184
874	141.994721	130400256	93466624	57825240	33184
875	171.310994	133373952	96612352	65071496	33184
876	153.720238	127987712	91369472	44380304	33184
877	151.651688	127987712	91369472	54013728	33184
878	153.232895	130150400	93466624	64737080	33184
879	185.039012	132157440	95563776	28191040	33184
880	156.31491	132157440	95563776	41279120	33184
881	158.031386	132157440	95563776	55470376	33184
882	192.090434	129056768	93466624	28237648	33184
883	167.31254	140947456	105000960	44180824	33184
884	165.229493	152842240	117583872	61862424	33184
885	173.475682	166359040	132263936	68185976	33184
886	191.859605	106196992	69349376	31580752	33184
887	167.111788	109441024	73019392	52732888	33184
888	178.360148	123228160	86650880	62556088	33184
889	212.592488	117796864	80883712	48605272	33184
890	179.074089	124555264	88223744	60766800	33184
891	184.166604	138072064	101855232	74094872	33184
892	214.653523	113680384	77213696	33971624	33184
893	182.137633	114221056	77213696	49624984	33184
894	187.924009	125845504	89272320	66502088	33184
895	216.416039	115634176	79310848	37836952	33184
896	192.747842	116715520	79835136	44458400	33184
897	193.594213	127799296	90845184	64876928	33184
898	222.423735	116826112	79835136	39363632	33184
899	197.397785	117096448	80359424	49601368	33184
900	206.814319	130342912	93466624	60974216	33184
901	233.172397	125648896	88748032	47211200	33184
902	8.242964	131055616	94515200	61937792	33184
903	5.372343	131055616	94515200	65506936	33184
904	7.06395	131055616	94515200	70267904	33184
905	11.818825	132947968	96088064	62201016	33184
906	10.883152	132947968	96088064	69354432	33184
907	13.055664	132947968	96088064	62116728	33184
908	14.151655	132947968	96088064	71664448	33184
909	16.636024	132947968	96088064	66526536	33184
910	18.89032	132947968	96088064	63308608	33184
911	21.921261	132947968	96088064	61703736	33184
912	22.301677	132947968	96088064	76058512	33184
913	23.518133	132947968	96088064	75128576	33184
914	25.112907	132947968	96088064	75543136	33184
915	29.766849	133218304	96612352	63025512	33184
916	30.536378	133218304	96612352	67506400	33184
917	32.070662	133218304	96612352	72652904	33184
918	35.725112	133758976	97136640	64452976	33184
919	39.326168	135921664	99233792	74886328	33184
920	40.061102	136732672	99758080	69467320	33184
921	47.058544	140787712	103952384	69594840	33184
922	43.717785	142680064	106049536	83404808	33184
923	44.816356	142950400	106573824	80989664	33184
924	65.056176	147005440	110768128	84845008	33184
925	62.811489	119795712	83505152	32966888	33184
926	55.389211	119795712	83505152	39090952	33184
927	61.748519	120066048	83505152	33770080	33184
928	58.593608	120066048	83505152	42295496	33184
929	59.921068	120066048	83505152	52082712	33184
930	66.207834	121147392	84029440	50513728	33184
931	67.756916	121417728	84553728	50170464	33184
932	92.04806	125472768	88748032	63608560	33184
933	71.172637	124948480	88223744	35443568	33184
934	73.483373	124948480	88223744	38780904	33184
935	74.965637	124948480	88223744	43346968	33184
936	76.458257	124948480	88223744	49157336	33184
937	77.81925	124948480	88223744	56151808	33184
938	81.430716	126840832	90320896	64321184	33184
939	94.571361	132788224	96088064	73803112	33184
940	104.83839	127229952	90320896	38202104	33184
941	89.54454	127229952	90320896	37440088	33184
942	87.134848	127229952	90320896	50637848	33184
943	93.496949	127229952	90320896	52483576	33184
944	95.326383	127229952	90320896	55614104	33184
945	124.390733	125833216	90320896	28093880	33184
946	100.696611	127180800	90320896	32817848	33184
947	102.414412	127180800	90320896	39596560	33184
948	102.677638	127180800	90320896	47632512	33184
949	104.631588	127180800	90320896	57024016	33184
950	137.501827	128770048	93466624	24261352	33184
951	111.545984	130117632	93466624	35250432	33184
952	109.732284	130117632	93466624	48382272	33184
953	117.864995	130117632	93466624	50221616	33184
954	115.946279	130117632	93466624	65882704	33184
955	142.981889	127795200	90845184	33634584	33184
956	122.475867	127795200	90845184	39245312	33184
957	123.390521	127795200	90845184	45943704	33184
958	127.056683	127795200	90845184	53982784	33184
959	153.33415	127217664	90320896	31275824	33184
960	130.190474	127217664	90320896	41947528	33184
961	130.754371	127217664	90320896	53729248	33184
962	132.258841	127217664	90320896	66743112	33184
963	161.878873	129294336	92418048	35693376	33184
964	140.83709	129294336	92418048	38717040	33184
965	140.928079	129294336	92418048	55562416	33184
966	162.21553	130375680	93466624	61225592	33184
967	161.058428	126750720	89796608	39193232	33184
968	144.24113	126750720	89796608	59891112	33184
969	150.313181	128643072	91893760	69208848	33184
970	184.541481	134078464	97660928	31229064	33184
971	156.665383	134348800	97660928	43346016	33184
972	155.725946	134348800	97660928	56536856	33184
973	159.781581	134889472	98185216	70957720	33184
974	196.610965	130592768	93466624	44148904	33184
975	162.799644	130592768	93466624	61177768	33184
976	167.905177	134377472	97660928	66840536	33184
977	201.1646	138539008	103428096	35787272	33184
978	172.050748	139886592	103428096	42897544	33184
979	169.050219	139886592	103428096	65059456	33184
980	179.291643	140427264	103952384	75935448	33184
981	213.314868	133058560	96088064	43224080	33184
982	179.998406	133058560	96088064	56664920	33184
983	184.228774	139816960	102903808	71470688	33184
984	211.832811	137826304	100806656	32608024	33184
985	188.488099	137826304	100806656	49920656	33184
986	188.103712	137826304	100806656	68463136	33184
987	219.673134	129372160	92418048	41516616	33184
988	194.853327	129372160	92418048	50161704	33184
989	200.998241	130453504	93990912	60157048	33184
990	232.486245	129265664	92418048	45031432	33184
991	195.983375	129265664	92418048	70061080	33184
992	208.941664	144674816	108146688	83854840	33184
993	243.15379	145051648	108146688	50322616	33184
994	206.131987	145051648	108146688	66708536	33184
995	209.858151	147214336	110768128	84405608	33184
996	251.471514	136687616	99758080	53495688	33184
997	212.456781	136687616	99758080	73789400	33184
998	222.229764	149663744	113389568	82871552	33184
999	257.581108	148783104	111816704	54518872	33184
1000	223.093616	148783104	111816704	66249000	33184
