x	Duration	RSS	HeapTotal	HeapUsed	External
0	NA	114987008	78262272	14657864	33184
1	0.318135	114987008	78262272	14710136	33184
2	0.278604	114987008	78262272	14778080	33184
3	0.300583	114987008	78262272	14870760	33184
4	0.336543	114987008	78262272	14989848	33184
5	0.400415	114987008	78262272	15137104	33184
6	0.472555	114987008	78262272	15313256	33184
7	0.537904	114987008	78262272	15519456	33184
8	0.637388	114987008	78262272	15756992	33184
9	0.700527	114987008	78262272	16028336	33184
10	0.792591	114987008	78262272	16333768	33184
11	1.242534	114987008	78262272	16674512	33184
12	0.971447	114987008	78262272	17051824	33184
13	1.306615	114987008	78262272	17466944	33184
14	0.916374	114987008	78262272	17924856	33184
15	1.034755	114987008	78262272	18420560	33184
16	0.889959	114987008	78262272	18956296	33184
17	1.176677	114987008	78262272	19536536	33184
18	1.065517	114987008	78262272	20165848	33184
19	1.055831	114987008	78262272	20836184	33184
20	1.136374	114987008	78262272	21552920	33184
21	1.320997	114987008	78262272	22319128	33184
22	1.417466	114987008	78262272	23136152	33184
23	1.556974	114987008	78262272	24002000	33184
24	1.425451	114987008	78262272	24920088	33184
25	1.661876	114987008	78262272	25891536	33184
26	2.069864	114987008	78262272	26918592	33184
27	1.590153	114987008	78262272	27998736	33184
28	1.894733	114987008	78262272	29136032	33184
29	1.798577	114987008	78262272	30339480	33184
30	3.967795	114987008	78262272	15409504	33184
31	2.171376	114987008	78262272	16725160	33184
32	2.167404	114987008	78262272	18106208	33184
33	2.310385	114987008	78262272	19575416	33184
34	2.348926	114987008	78262272	21087808	33184
35	2.243142	114987008	78262272	22665936	33184
36	2.350411	114987008	78262272	24310872	33184
37	2.446158	114987008	78262272	26023936	33184
38	2.541427	114987008	78262272	27806384	33184
39	2.830384	114987008	78262272	29659496	33184
40	2.746152	114987008	78262272	31584184	33184
41	4.57891	114987008	78262272	17677224	33184
42	3.224131	114987008	78262272	19749208	33184
43	3.089768	114987008	78262272	21896616	33184
44	3.164131	114987008	78262272	24121968	33184
45	3.286216	114987008	78262272	26427624	33184
46	3.401147	114987008	78262272	28813512	33184
47	3.512573	114987008	78262272	31281760	33184
48	5.309097	114987008	78262272	18060392	33184
49	3.970726	114987008	78262272	20696616	33184
50	4.083656	114987008	78262272	23418856	33184
51	4.064205	114987008	78262272	26226864	33184
52	4.286016	114987008	78262272	29121040	33184
53	4.399269	114987008	78262272	32104088	33184
54	6.387354	114987008	78262272	19314544	33184
55	4.747994	114987008	78262272	22482968	33184
56	5.163549	114987008	78262272	25741728	33184
57	5.639925	115257344	78262272	29112968	33184
58	4.798258	115257344	78262272	32561488	33184
59	7.053765	115257344	78262272	20179512	33184
60	6.058917	115257344	78262272	23831032	33184
61	5.439076	115257344	78262272	27573608	33184
62	5.474862	115257344	78262272	31416496	33184
63	7.664138	115257344	78262272	19548072	33184
64	6.511581	115257344	78262272	23597376	33184
65	5.876011	115257344	78262272	27759056	33184
66	6.170356	115257344	78262272	32023952	33184
67	8.042144	115257344	78262272	20528392	33184
68	6.554331	115257344	78262272	25007600	33184
69	6.45161	115257344	78262272	29596248	33184
70	7.020543	115257344	78262272	34295840	33184
71	8.430612	115257344	78262272	23057328	33184
72	6.876676	115257344	78262272	27980008	33184
73	7.408003	115257344	78262272	33016888	33184
74	9.778063	115257344	78262272	22234536	33184
75	7.609169	115257344	78262272	27502664	33184
76	7.84264	115257344	78262272	32888440	33184
77	9.710544	115257344	78262272	22528064	33184
78	8.281543	115257344	78262272	28152808	33184
79	8.230845	115257344	78262272	33898872	33184
80	11.141804	115257344	78262272	23784016	33184
81	8.800404	115257344	78262272	29777528	33184
82	8.694998	115257344	78262272	35895096	33184
83	11.131195	115257344	78262272	26063576	33184
84	8.852759	115257344	78262272	32437504	33184
85	11.621329	115257344	78262272	23248784	33184
86	9.914277	115257344	78262272	29882608	33184
87	11.922958	115257344	78262272	21328136	33184
88	10.252507	115257344	78262272	28227872	33184
89	10.022706	115257344	78262272	35262792	33184
90	12.323242	115257344	78262272	26473696	33184
91	10.486234	115257344	78262272	33783536	33184
92	12.63394	115257344	78262272	25499224	33184
93	10.680952	115257344	78262272	33090424	33184
94	13.334272	115257344	78262272	25161784	33184
95	11.452335	115257344	78262272	33040208	33184
96	13.759455	115257344	78262272	25453608	33184
97	11.882025	115257344	78262272	33624680	33184
98	13.892584	115257344	78262272	26306360	33184
99	12.152068	115257344	78262272	34775288	33184
100	14.439833	115257344	78262272	27655584	33184
101	12.561362	115257344	78262272	36426432	33184
102	0.495886	115257344	78262272	29265816	33184
103	0.694396	115257344	78262272	29724520	33184
104	0.917063	115257344	78262272	30338360	33184
105	1.134603	115257344	78262272	31108648	33184
106	1.348042	115257344	78262272	32036960	33184
107	1.577361	115257344	78262272	33124048	33184
108	1.806136	115257344	78262272	34371224	33184
109	2.032693	115257344	78262272	35780384	33184
110	2.474743	115257344	78262272	37352384	33184
111	2.496976	115257344	78262272	39088112	33184
112	4.561348	115257344	78262272	24804880	33184
113	2.954201	115257344	78262272	26871688	33184
114	3.205777	115257344	78262272	29107216	33184
115	3.574256	115257344	78262272	31510144	33184
116	3.671928	115257344	78262272	34082952	33184
117	4.135501	115257344	78262272	36826752	33184
118	6.211587	115257344	78262272	23787800	33184
119	5.003651	115257344	78262272	26879472	33184
120	4.765129	115257344	78262272	30146080	33184
121	4.912717	115257344	78262272	33588784	33184
122	5.214253	115257344	78262272	37208696	33184
123	7.829787	115257344	78262272	25033616	33184
124	5.685254	115257344	78262272	29011720	33184
125	6.137538	115257344	78262272	33171448	33184
126	6.362423	115257344	78262272	37513352	33184
127	9.046078	115257344	78262272	26039080	33184
128	7.062722	115257344	78262272	30749840	33184
129	7.298172	115257344	78262272	35645096	33184
130	9.620264	115257344	78262272	24995432	33184
131	8.291118	115257344	78262272	30266088	33184
132	7.86792	115257344	78262272	35725840	33184
133	10.976985	115257344	78262272	25640448	33184
134	8.688797	115257344	78262272	31491352	33184
135	8.876959	115257344	78262272	37535536	33184
136	11.437192	115257344	78262272	27810376	33184
137	9.261157	115257344	78262272	34243384	33184
138	12.049635	115257344	78262272	25366408	33184
139	10.022254	115257344	78262272	32194352	33184
140	10.253096	115257344	78262272	39224088	33184
141	12.445545	115257344	78262272	30303744	33184
142	10.928455	115257344	78262272	37737112	33184
143	13.305296	115257344	78262272	29442088	33184
144	11.317024	115257344	78262272	37286752	33184
145	13.950291	115257344	78262272	29473144	33184
146	12.192184	115257344	78262272	37731584	33184
147	15.068098	115257344	78262272	30276648	33184
148	12.598625	115257344	78262272	38956088	33184
149	15.090754	115257344	78262272	31791520	33184
150	13.677328	115257344	78262272	40896480	33184
151	15.609702	115257344	78262272	33939280	33184
152	16.756977	115257344	78262272	28089240	33184
153	14.434808	115257344	78262272	37846432	33184
154	17.060102	115257344	78262272	31957608	33184
155	18.285268	115257344	78262272	27095088	33184
156	15.173854	115257344	78262272	37508520	33184
157	18.319421	115257344	78262272	32355728	33184
158	18.962924	115257344	78262272	28142888	33184
159	16.262177	115257344	78262272	39225272	33184
160	18.737007	115257344	78262272	34536648	33184
161	19.577744	115257344	78262272	30755408	33184
162	17.823591	115257344	78262272	42518712	33184
163	19.72604	115257344	78262272	38170248	33184
164	21.406671	115257344	78262272	34620360	33184
165	21.318799	115257344	78262272	31795008	33184
166	22.837912	115257344	78262272	29549384	33184
167	19.20578	115257344	78262272	42480520	33184
168	21.918269	115257344	78262272	39364024	33184
169	22.153464	115257344	78262272	36894632	33184
170	23.134437	115257344	78262272	34969840	33184
171	24.778702	115257344	78262272	33565304	33184
172	23.881626	115257344	78262272	32608256	33184
173	25.383073	115257344	78262272	32030760	33184
174	25.866632	115257344	78262272	31805120	33184
175	25.542908	115257344	78262272	31882568	33184
176	26.123434	115257344	78262272	32210416	33184
177	26.724298	115257344	78262272	32755728	33184
178	27.116548	115257344	78262272	33500120	33184
179	27.36753	115257344	78262272	34385864	33184
180	27.548684	115257344	78262272	35419792	33184
181	27.36608	115257344	78262272	36591240	33184
182	27.745052	115257344	78262272	37883928	33184
183	28.184884	115257344	78262272	39266560	33184
184	28.49595	115257344	78262272	40747816	33184
185	28.431011	115257344	78262272	42320960	33184
186	28.86179	115257344	78262272	43935536	33184
187	28.922787	115257344	78262272	45621304	33184
188	34.592824	115257344	78262272	33158464	33184
189	31.576991	115257344	78262272	36863840	33184
190	30.817288	115257344	78262272	40375360	33184
191	31.04271	115257344	78262272	43697728	33184
192	36.719723	115257344	78262272	32871648	33184
193	34.70851	115257344	78262272	39878392	33184
194	33.278635	115257344	78262272	44481264	33184
195	32.13031	115257344	78262272	48734096	33184
196	37.233701	115257344	78262272	38521104	33184
197	34.232752	115257344	78262272	44119360	33184
198	34.189834	115257344	78262272	49310976	33184
199	38.943073	115257344	78262272	39916200	33184
200	35.296868	115257344	78262272	46239240	33184
201	40.628764	115257344	78262272	38192520	33184
202	0.903109	115257344	78262272	47652592	33184
203	1.262817	115257344	78262272	48497352	33184
204	1.667022	115257344	78262272	49625960	33184
205	2.084159	115257344	78262272	51039680	33184
206	2.691238	115257344	78262272	52740304	33184
207	6.020862	115257344	78262272	38617080	33184
208	3.566968	115257344	78262272	40894296	33184
209	3.967426	115257344	78262272	43461264	33184
210	4.16251	115257344	78262272	46321168	33184
211	4.587226	115257344	78262272	49473104	33184
212	5.272369	115257344	78262272	52918120	33184
213	8.162177	115257344	78262272	40336408	33184
214	5.876318	115257344	78262272	44373320	33184
215	6.525364	115257344	78262272	48707344	33184
216	6.732271	115257344	78262272	53339296	33184
217	10.111903	115257344	78262272	41920336	33184
218	7.882784	115257344	78262272	47155552	33184
219	8.530487	115257344	78262272	52692440	33184
220	11.558632	115257344	78262272	42272080	33184
221	9.21464	115257344	78262272	48421288	33184
222	12.634046	115257344	78262272	39191040	33184
223	10.118679	115257344	78262272	45951624	33184
224	10.534821	115257344	78262272	53018856	33184
225	13.526188	115257344	78262272	44092824	33184
226	11.416072	115257344	78262272	51784016	33184
227	14.747611	115257344	78262272	43667888	33184
228	12.097531	115257344	78262272	51984960	33184
229	16.05911	115257344	78262272	44469312	33184
230	13.235771	115257344	78262272	53418560	33184
231	16.507194	115257344	78262272	46369656	33184
232	18.053296	115257344	78262272	40602448	33184
233	14.640328	115257344	78262272	50521152	33184
234	18.287701	115257344	78262272	44849456	33184
235	19.556724	115257344	78262272	40277104	33184
236	16.244056	115257344	78262272	51170760	33184
237	19.468284	115257344	78262272	46406208	33184
238	20.979454	115257344	78262272	42639336	33184
239	17.79485	115257344	78262272	54521360	33184
240	21.292612	115257344	78262272	50345840	33184
241	22.296131	115257344	78262272	47063088	33184
242	22.914344	115257344	78262272	44565352	33184
243	23.448394	115257344	78262272	42715912	33184
244	24.490486	115257344	78262272	41492856	33184
245	25.652782	115257344	78262272	40781560	33184
246	21.514101	115257344	78262272	55011624	33184
247	24.244584	115257344	78262272	53204392	33184
248	25.37512	115257344	78262272	51957088	33184
249	25.923812	115257344	78262272	51208568	33184
250	26.055262	115257344	78262272	50908288	33184
251	27.628164	115257344	78262272	51015504	33184
252	27.664818	115257344	78262272	51463360	33184
253	27.884642	115257344	78262272	52202608	33184
254	28.664562	115257344	78262272	53188936	33184
255	28.752912	115257344	78262272	54403152	33184
256	29.167953	115257344	78262272	55817584	33184
257	35.451767	115257344	78262272	43213872	33184
258	32.619795	115257344	78262272	46882816	33184
259	33.191214	115257344	78262272	50458880	33184
260	31.739762	115257344	78262272	53898464	33184
261	37.564814	115257344	78262272	43268176	33184
262	37.311662	116068352	79310848	50596312	33184
263	38.050307	116068352	79310848	55531744	33184
264	54.347667	115560448	78786560	22423480	33184
265	35.480283	115560448	78786560	30231256	33184
266	35.503653	115560448	78786560	22129840	33184
267	36.090107	115560448	78786560	31255776	33184
268	37.215542	115560448	78786560	23964520	33184
269	37.788932	115560448	78786560	33797240	33184
270	37.672315	115560448	78786560	27375312	33184
271	38.049352	115560448	78786560	37980976	33184
272	38.572	115560448	78786560	32118552	33184
273	39.889154	115560448	78786560	43496416	33184
274	39.441067	115560448	78786560	37987744	33184
275	45.331582	115560448	78786560	37502672	33184
276	40.724537	115560448	78786560	49791528	33184
277	41.03823	115560448	78786560	45206272	33184
278	47.893024	115560448	78786560	45767096	33184
279	56.396974	117452800	80883712	46556856	33184
280	58.555912	117452800	80883712	36107664	33184
281	42.605791	117452800	80883712	32162048	33184
282	44.074454	117452800	80883712	29532632	33184
283	49.48886	117452800	80883712	31922864	33184
284	49.754259	117452800	80883712	34550424	33184
285	50.372507	117723136	80883712	37560096	33184
286	51.93332	117723136	80883712	40972176	33184
287	51.374788	117723136	80883712	44761984	33184
288	51.355907	117723136	80883712	48940192	33184
289	52.916617	120696832	84029440	53494832	33184
290	53.431253	124481536	88223744	58481016	33184
291	60.32466	128266240	91893760	63827488	33184
292	76.173585	125198336	88748032	25367752	33184
293	54.507368	125198336	88748032	31580576	33184
294	55.082518	125198336	88748032	38118144	33184
295	55.423584	125198336	88748032	45039640	33184
296	61.563068	125739008	88748032	39791728	33184
297	57.746588	125739008	88748032	47509856	33184
298	56.990226	125739008	88748032	55620608	33184
299	57.628065	125739008	88748032	64161896	33184
300	80.085899	127631360	90845184	60514864	33184
301	67.399209	124231680	87175168	23521072	33184
302	1.316164	124231680	87175168	33430592	33184
303	1.921533	124231680	87175168	34654672	33184
304	2.545649	124231680	87175168	36285648	33184
305	3.066685	124231680	87175168	38327248	33184
306	7.480303	124231680	87175168	27438088	33184
307	4.418408	124231680	87175168	30309048	33184
308	4.978849	124231680	87175168	33590536	33184
309	5.375858	124231680	87175168	37287984	33184
310	7.629555	124231680	87175168	26541016	33184
311	7.238549	124231680	87175168	31073984	33184
312	7.199015	124231680	87175168	36026184	33184
313	7.984764	124231680	87175168	41399560	33184
314	9.132459	124231680	87175168	30923976	33184
315	9.097435	124231680	87175168	37141360	33184
316	10.621782	124231680	87175168	28096528	33184
317	10.478497	124231680	87175168	35167008	33184
318	12.259676	124231680	87175168	27252120	33184
319	11.55511	124231680	87175168	35175192	33184
320	13.504049	124231680	87175168	28127032	33184
321	12.987238	124231680	87175168	36914208	33184
322	14.527701	124231680	87175168	30483488	33184
323	14.430004	124231680	87175168	40130728	33184
324	15.474172	124231680	87175168	34131008	33184
325	16.933053	124231680	87175168	29396664	33184
326	16.320305	124231680	87175168	40357736	33184
327	17.542013	124231680	87175168	35646208	33184
328	18.879611	124231680	87175168	32048272	33184
329	20.654319	124231680	87175168	29351968	33184
330	18.774172	124231680	87175168	42062632	33184
331	20.213514	124231680	87175168	38916224	33184
332	21.126516	124231680	87175168	36660536	33184
333	22.340577	124231680	87175168	35145032	33184
334	22.91896	124231680	87175168	34293464	33184
335	23.693763	124231680	87175168	34035432	33184
336	24.529237	124231680	87175168	34239112	33184
337	24.899295	124231680	87175168	34877552	33184
338	25.567784	124231680	87175168	35890568	33184
339	27.096879	124231680	87175168	37217168	33184
340	26.996278	124231680	87175168	38811280	33184
341	27.761619	124231680	87175168	40649824	33184
342	27.754389	124231680	87175168	42708656	33184
343	31.260469	124231680	87175168	30853600	33184
344	33.022193	124231680	87175168	37495520	33184
345	30.798077	124231680	87175168	41860056	33184
346	30.897339	124231680	87175168	45944688	33184
347	34.850407	124231680	87175168	35804728	33184
348	33.78034	124231680	87175168	41648584	33184
349	36.661233	124231680	87175168	33524824	33184
350	38.052548	124231680	87175168	42910328	33184
351	38.744916	124231680	87175168	36194424	33184
352	39.158973	124772352	87699456	46474000	33184
353	39.433945	125313024	88223744	40540984	33184
354	40.489728	125313024	88223744	51746544	33184
355	41.463064	125313024	88223744	46334712	33184
356	46.236834	125313024	88223744	45926792	33184
357	42.770838	125313024	88223744	58442768	33184
358	43.982123	125313024	88223744	54291888	33184
359	66.110784	127746048	91369472	55329752	33184
360	56.798845	120676352	84029440	28009440	33184
361	49.405626	120676352	84029440	29931728	33184
362	50.278274	120676352	84029440	32224688	33184
363	50.142081	120946688	84029440	35025008	33184
364	50.598426	120946688	84029440	38313600	33184
365	51.657607	120946688	84029440	42096552	33184
366	51.876774	120946688	84029440	46378616	33184
367	53.280339	120946688	84029440	51164000	33184
368	55.157586	124731392	88223744	56467880	33184
369	77.089008	128786432	91893760	62240272	33184
370	59.639529	125116416	88223744	37001688	33184
371	60.288428	125116416	88223744	31332312	33184
372	56.757765	125116416	88223744	38616376	33184
373	58.300453	125116416	88223744	46397112	33184
374	62.686708	125116416	88223744	42119864	33184
375	59.535412	125116416	88223744	50924944	33184
376	59.451388	125116416	88223744	60225216	33184
377	67.153694	127279104	90320896	57496312	33184
378	91.042914	127049728	91893760	25261504	33184
379	64.217468	131371008	95039488	35350216	33184
380	68.977137	137048064	101330944	34133912	33184
381	65.663095	140832768	105525248	45987480	33184
382	69.538972	146780160	111816704	45786112	33184
383	65.568019	150564864	116011008	58663496	33184
384	71.311213	156241920	122302464	59517360	33184
385	70.769214	157863936	122302464	60867264	33184
386	79.066493	158134272	122302464	75344808	33184
387	90.760646	108834816	71970816	29739360	33184
388	72.305857	108834816	71970816	32626200	33184
389	69.667769	108834816	71970816	48619464	33184
390	73.916012	110727168	74067968	52597400	33184
391	76.330661	116674560	80359424	57104040	33184
392	76.989881	122351616	86126592	62153632	33184
393	83.970108	128299008	91369472	67655344	33184
394	102.060913	115994624	79310848	28845312	33184
395	78.721388	115994624	79310848	35437424	33184
396	78.090377	115994624	79310848	42581504	33184
397	79.702542	115994624	79310848	50243872	33184
398	82.718147	119779328	82980864	58433768	33184
399	82.80864	125456384	88748032	67171464	33184
400	112.075921	117383168	81932288	31141376	33184
401	87.764631	118730752	81932288	27387416	33184
402	1.632633	118730752	81932288	38044992	33184
403	2.379918	118730752	81932288	39672912	33184
404	3.207557	118730752	81932288	41845528	33184
405	4.307876	118730752	81932288	44564192	33184
406	7.703731	118730752	81932288	34170856	33184
407	5.799518	118730752	81932288	37986064	33184
408	6.345259	118730752	81932288	42359368	33184
409	7.304806	118730752	81932288	47275256	33184
410	8.87137	119001088	81932288	37066920	33184
411	8.82269	119001088	81932288	43089576	33184
412	9.830204	119001088	81932288	49672440	33184
413	10.859227	119001088	81932288	40399920	33184
414	11.28406	119001088	81932288	48091256	33184
415	12.78999	119001088	81932288	40133416	33184
416	12.909981	119001088	81932288	48941712	33184
417	14.033293	119001088	81932288	41966592	33184
418	15.872489	119001088	81932288	36514384	33184
419	15.385069	119001088	81932288	47013440	33184
420	16.544487	119001088	81932288	42010312	33184
421	18.363643	119001088	81932288	38245304	33184
422	19.50444	119001088	81932288	35577408	33184
423	18.686613	119001088	81932288	48341424	33184
424	20.147537	119001088	81932288	45419624	33184
425	21.758472	119001088	81932288	43490224	33184
426	22.530233	119001088	81932288	42366280	33184
427	23.529229	119001088	81932288	41983200	33184
428	24.25507	119001088	81932288	42231168	33184
429	25.120923	119001088	81932288	43036048	33184
430	26.312146	119001088	81932288	44284944	33184
431	26.108955	119001088	81932288	45943640	33184
432	28.446191	119001088	81932288	47983360	33184
433	27.584298	119001088	81932288	50328760	33184
434	31.803498	119001088	81932288	38765760	33184
435	30.476539	119001088	81932288	43586176	33184
436	31.315313	119001088	81932288	48328576	33184
437	34.123613	119001088	81932288	39044144	33184
438	36.917564	119001088	81932288	48057520	33184
439	37.218555	119001088	81932288	40942968	33184
440	37.443938	119001088	81932288	51105712	33184
441	39.390762	119001088	81932288	45055792	33184
442	38.948417	119001088	81932288	56413864	33184
443	40.118293	119001088	81932288	51103344	33184
444	46.843176	120623104	84029440	51004552	33184
445	43.927846	122515456	86126592	63937896	33184
446	57.827118	123056128	86650880	60096120	33184
447	50.181358	117288960	80883712	27955648	33184
448	50.102531	117288960	80883712	30160992	33184
449	49.594636	117288960	80883712	32852880	33184
450	49.690562	117288960	80883712	36144424	33184
451	50.517827	117829632	80883712	40028168	33184
452	52.108062	117829632	80883712	44511664	33184
453	52.59338	117829632	80883712	49647096	33184
454	53.667187	118370304	81408000	55343760	33184
455	61.86947	119992320	82980864	61642768	33184
456	79.563138	123162624	86126592	27789632	33184
457	56.527808	123162624	86126592	35327136	33184
458	57.631048	123162624	86126592	43459512	33184
459	63.024115	123162624	86126592	39619648	33184
460	59.331476	123162624	86126592	48992248	33184
461	64.220291	123162624	86126592	46382120	33184
462	60.924991	123162624	86126592	56949744	33184
463	71.573357	126136320	89272320	55563472	33184
464	84.277538	125562880	90320896	37337912	33184
465	68.165377	126910464	90320896	36624528	33184
466	68.324947	126910464	90320896	37129624	33184
467	65.616224	126910464	90320896	50798392	33184
468	70.780759	126910464	90320896	52513312	33184
469	71.615212	126910464	90320896	54838648	33184
470	73.305344	127721472	90845184	57826736	33184
471	90.323882	132046848	95563776	61403808	33184
472	84.818242	127787008	91369472	32298912	33184
473	75.770564	127787008	91369472	37160072	33184
474	77.29742	127787008	91369472	42601328	33184
475	77.771564	127787008	91369472	48705488	33184
476	77.733795	127787008	91369472	55425592	33184
477	78.664609	128327680	91369472	62763344	33184
478	110.712215	124817408	89272320	27317352	33184
479	80.179634	126164992	89272320	34913360	33184
480	83.252547	126164992	89272320	44180232	33184
481	87.321087	126164992	89272320	41507096	33184
482	83.639569	126164992	89272320	52063648	33184
483	85.950401	126164992	89272320	63210000	33184
484	114.828235	127168512	91893760	31358568	33184
485	90.95378	128516096	91893760	30508488	33184
486	87.464073	128516096	91893760	43650072	33184
487	92.29872	128516096	91893760	44835808	33184
488	89.109927	128516096	91893760	59240768	33184
489	100.12836	128786432	91893760	61763744	33184
490	118.395775	127213568	90320896	35045832	33184
491	95.890215	127213568	90320896	38829992	33184
492	96.373881	127213568	90320896	43233904	33184
493	93.177675	127213568	90320896	60879696	33184
494	99.633644	127754240	90845184	66637928	33184
495	128.679161	129257472	92418048	25471896	33184
496	101.851014	129257472	92418048	32673968	33184
497	102.471069	129257472	92418048	40362712	33184
498	103.933076	129257472	92418048	48723352	33184
499	104.867214	129257472	92418048	57756960	33184
500	134.924463	126164992	89272320	40118528	33184
501	107.366742	126164992	89272320	50530904	33184
502	1.992217	126164992	89272320	49432440	33184
503	3.029051	126164992	89272320	51428480	33184
504	4.02491	126164992	89272320	54094632	33184
505	5.13756	126164992	89272320	57431112	33184
506	8.603742	126164992	89272320	47567640	33184
507	6.930164	126164992	89272320	52241664	33184
508	8.139365	126164992	89272320	57593360	33184
509	9.949968	126164992	89272320	48042424	33184
510	9.831085	126164992	89272320	54748456	33184
511	11.444428	126164992	89272320	62134272	33184
512	12.292467	126164992	89272320	53821488	33184
513	13.150175	126164992	89272320	62550152	33184
514	14.240986	126164992	89272320	55570504	33184
515	16.143303	126164992	89272320	50216936	33184
516	16.25108	126164992	89272320	60988704	33184
517	18.060518	126164992	89272320	56232360	33184
518	19.166816	126164992	89272320	52802464	33184
519	20.919782	126164992	89272320	50566784	33184
520	21.735092	126164992	89272320	49322816	33184
521	23.402243	126164992	89272320	48949088	33184
522	24.333867	126164992	89272320	49300088	33184
523	25.799176	126164992	89272320	50295984	33184
524	26.486396	126164992	89272320	51860440	33184
525	26.941704	126164992	89272320	53871568	33184
526	27.542112	126164992	89272320	56315016	33184
527	28.023114	126164992	89272320	59119592	33184
528	28.720807	126164992	89272320	62228520	33184
529	32.66837	126164992	89272320	51508792	33184
530	32.255794	126164992	89272320	57111320	33184
531	32.670607	126164992	89272320	62628160	33184
532	35.60876	126164992	89272320	53984656	33184
533	34.902541	126164992	89272320	61351232	33184
534	37.694397	126164992	89272320	54436856	33184
535	40.293983	126164992	89272320	66029416	33184
536	39.872005	126164992	89272320	60662768	33184
537	41.853888	126164992	89272320	56834984	33184
538	47.752532	128327680	91369472	57866904	33184
539	44.202788	130220032	93466624	72074456	33184
540	43.871982	130490368	93990912	69358080	33184
541	52.148205	134815744	98185216	72547264	33184
542	61.270497	138600448	102379520	76315128	33184
543	69.261965	133734400	97660928	28708736	33184
544	54.490601	133734400	97660928	34082560	33184
545	54.364545	133734400	97660928	39992072	33184
546	55.123366	133734400	97660928	46608240	33184
547	60.528961	134275072	97660928	41392576	33184
548	57.076476	134275072	97660928	49479944	33184
549	58.341234	134275072	97660928	58244080	33184
550	65.072389	134275072	97660928	55252760	33184
551	94.943244	124833792	89796608	25009992	33184
552	64.075679	126722048	89796608	35311832	33184
553	67.440695	126722048	89796608	34475960	33184
554	63.314745	126722048	89796608	46875944	33184
555	70.283895	126722048	89796608	47520760	33184
556	66.024019	126722048	89796608	61365336	33184
557	71.978148	126722048	89796608	63457408	33184
558	75.055474	129966080	93466624	66181928	33184
559	100.90709	132497408	97136640	37754040	33184
560	76.109006	133844992	97136640	41182656	33184
561	76.039646	133844992	97136640	46337408	33184
562	78.400229	133844992	97136640	52178504	33184
563	79.022118	133844992	97136640	58764136	33184
564	81.853597	133844992	97136640	66131232	33184
565	89.917799	134115328	97136640	61680216	33184
566	104.443301	132395008	95563776	37486008	33184
567	87.184475	132395008	95563776	34570280	33184
568	85.928815	132395008	95563776	44821192	33184
569	84.34875	132395008	95563776	55839152	33184
570	91.393017	132395008	95563776	55041232	33184
571	88.608602	132395008	95563776	67572216	33184
572	120.85964	132972544	96088064	36194256	33184
573	94.429531	132972544	96088064	37781800	33184
574	90.667254	132972544	96088064	52730536	33184
575	95.371673	132972544	96088064	55820760	33184
576	97.151794	132972544	96088064	59743312	33184
577	103.656264	135135232	98709504	64342968	33184
578	120.376509	134557696	98185216	35445800	33184
579	100.755046	134557696	98185216	41472136	33184
580	101.756355	134557696	98185216	48213120	33184
581	102.954329	134557696	98185216	55758152	33184
582	102.518204	134557696	98185216	64074704	33184
583	132.377837	132902912	96088064	23966384	33184
584	107.861861	132902912	96088064	34014904	33184
585	106.612688	132902912	96088064	44642176	33184
586	108.13989	132902912	96088064	56079144	33184
587	116.648875	132902912	96088064	55711864	33184
588	143.915853	128806912	91893760	40466288	33184
589	116.184737	128806912	91893760	41711608	33184
590	114.676901	128806912	91893760	56197344	33184
591	117.709747	129077248	92418048	58961152	33184
592	116.901328	136376320	99758080	74994776	33184
593	150.378695	133148672	96612352	26424760	33184
594	117.860417	133148672	96612352	44027576	33184
595	124.124187	133148672	96612352	49900608	33184
596	125.463772	133148672	96612352	56675056	33184
597	153.204327	126685184	89796608	33394656	33184
598	126.652405	126685184	89796608	41675568	33184
599	127.343145	126685184	89796608	50681120	33184
600	131.072905	126685184	89796608	60540752	33184
601	158.921295	129351680	92418048	26256112	33184
602	2.410658	129351680	92418048	38229232	33184
603	3.558988	129351680	92418048	40614504	33184
604	4.745667	129351680	92418048	43804456	33184
605	6.074348	129351680	92418048	47784240	33184
606	10.008338	129351680	92418048	38442376	33184
607	8.398842	129351680	92418048	44022992	33184
608	9.452258	129351680	92418048	50405640	33184
609	11.221135	129351680	92418048	41440456	33184
610	11.89935	129351680	92418048	49432384	33184
611	13.410157	129351680	92418048	41943400	33184
612	15.498869	129351680	92418048	36326872	33184
613	15.668373	129351680	92418048	46738832	33184
614	17.22038	129351680	92418048	42045136	33184
615	18.965411	129351680	92418048	38833560	33184
616	21.464707	129351680	92418048	36868104	33184
617	20.819777	129351680	92418048	50524696	33184
618	21.972454	129351680	92418048	48614360	33184
619	23.280798	129351680	92418048	47726720	33184
620	25.249172	129351680	92418048	47768496	33184
621	25.620432	129351680	92418048	48619288	33184
622	26.617558	129351680	92418048	50180704	33184
623	30.537484	129351680	92418048	38246368	33184
624	30.977988	129351680	92418048	42907984	33184
625	30.775479	129351680	92418048	47753936	33184
626	34.981741	129351680	92418048	38931088	33184
627	37.006766	129351680	92418048	48371848	33184
628	38.806566	129351680	92418048	41921568	33184
629	39.150525	129351680	92418048	52955800	33184
630	40.702959	129351680	92418048	47724376	33184
631	45.257771	129351680	92418048	47843456	33184
632	42.75126	129351680	92418048	61256328	33184
633	42.863807	129351680	92418048	58043936	33184
634	51.590092	129351680	92418048	60729088	33184
635	73.182153	131514368	95039488	64013816	33184
636	49.358434	124698624	88223744	35682608	33184
637	47.582659	124698624	88223744	35425760	33184
638	49.359751	124698624	88223744	36030376	33184
639	54.309185	124698624	88223744	25050000	33184
640	58.171459	124698624	88223744	32565240	33184
641	57.516154	124698624	88223744	40861200	33184
642	60.07964	124698624	88223744	50073656	33184
643	65.513138	124698624	88223744	47617808	33184
644	61.466574	124698624	88223744	58446800	33184
645	68.357687	125779968	88748032	57617864	33184
646	74.291451	129024000	92418048	57670376	33184
647	92.516082	130371584	93466624	27453688	33184
648	67.449089	130371584	93466624	41843272	33184
649	72.252702	130371584	93466624	44427016	33184
650	73.764257	130371584	93466624	47836472	33184
651	74.529134	130371584	93466624	52127904	33184
652	77.503367	130371584	93466624	57313392	33184
653	77.827148	130371584	93466624	63295256	33184
654	107.911978	127430656	91893760	39927808	33184
655	85.191562	128778240	91893760	34249328	33184
656	81.593334	128778240	91893760	42818688	33184
657	82.193585	128778240	91893760	52272976	33184
658	85.709901	128778240	91893760	62551888	33184
659	90.568542	129318912	92418048	61164792	33184
660	98.620832	134455296	97660928	73221424	33184
661	107.706323	134160384	97136640	39023824	33184
662	94.639033	134160384	97136640	40219408	33184
663	94.33283	134160384	97136640	42240184	33184
664	92.229952	134160384	97136640	57789272	33184
665	97.014433	134160384	97136640	61533408	33184
666	128.012938	126353408	91369472	33488584	33184
667	100.464159	128241664	91369472	38026296	33184
668	101.311867	128241664	91369472	44516248	33184
669	102.473049	128241664	91369472	51769056	33184
670	105.941022	128241664	91369472	60037792	33184
671	133.600187	128806912	91893760	24195496	33184
672	106.533122	128806912	91893760	34173448	33184
673	109.314879	128806912	91893760	45003296	33184
674	110.105527	128806912	91893760	56722232	33184
675	119.47492	129617920	92942336	56700552	33184
676	138.147625	128311296	91893760	41690672	33184
677	118.512872	128311296	91893760	43508304	33184
678	118.269286	128311296	91893760	58742992	33184
679	121.070343	128851968	91893760	62357968	33184
680	133.684372	136421376	99758080	79378024	33184
681	140.257261	132448256	95563776	37201576	33184
682	125.575034	132448256	95563776	43514808	33184
683	121.723579	132448256	95563776	63227472	33184
684	127.055216	132448256	95563776	71421592	33184
685	154.107997	129908736	92942336	30898528	33184
686	130.338393	129908736	92942336	40677952	33184
687	130.838856	129908736	92942336	51496768	33184
688	135.861418	129908736	92942336	63077952	33184
689	167.711951	125636608	88748032	36172024	33184
690	134.470405	125636608	88748032	49627792	33184
691	134.917017	125906944	89272320	63918936	33184
692	144.451837	136720384	100282368	66639504	33184
693	169.971171	130056192	93990912	30560280	33184
694	139.890662	130596864	93990912	47582080	33184
695	144.854781	130596864	93990912	52985088	33184
696	150.885079	131407872	94515200	59258904	33184
697	177.324373	129327104	92418048	38506288	33184
698	144.625544	129327104	92418048	59206680	33184
699	150.953671	129867776	92942336	68279200	33184
700	165.590893	140681216	103952384	78170072	33184
701	179.922488	137678848	100806656	40767344	33184
702	2.767404	137678848	100806656	53357784	33184
703	4.08726	137678848	100806656	56110504	33184
704	5.539798	137678848	100806656	59782816	33184
705	10.077839	137678848	100806656	50649168	33184
706	8.295856	137678848	100806656	56173632	33184
707	9.752911	137678848	100806656	62619688	33184
708	11.699086	137949184	100806656	54185888	33184
709	12.68245	137949184	100806656	62475968	33184
710	14.305403	137949184	100806656	55669008	33184
711	16.817232	137949184	100806656	50716584	33184
712	16.761109	137949184	100806656	61792760	33184
713	18.642165	137949184	100806656	57870224	33184
714	20.980523	137949184	100806656	55452776	33184
715	22.888208	137949184	100806656	54291688	33184
716	23.848387	137949184	100806656	54282952	33184
717	25.884263	137949184	100806656	55234712	33184
718	26.28355	137949184	100806656	56978368	33184
719	27.7589	137949184	100806656	59440440	33184
720	29.060409	137949184	100806656	62471688	33184
721	32.853826	137949184	100806656	52233776	33184
722	34.927526	137949184	100806656	60414440	33184
723	32.780622	137949184	100806656	66649848	33184
724	37.138872	137949184	100806656	58921872	33184
725	38.894548	137949184	100806656	70036304	33184
726	40.743587	137949184	100806656	64550072	33184
727	42.010736	137949184	100806656	61039712	33184
728	48.997669	137949184	100806656	62377144	33184
729	44.65071	137949184	100806656	77094384	33184
730	45.552529	137949184	100806656	75126120	33184
731	47.643062	137949184	100806656	74612320	33184
732	67.86911	140111872	103428096	79908928	33184
733	68.7677	130637824	93990912	33026304	33184
734	60.577714	130637824	93990912	27607656	33184
735	57.670332	130637824	93990912	35610688	33184
736	59.834166	130637824	93990912	44543952	33184
737	65.236985	130637824	93990912	41864056	33184
738	61.277186	130637824	93990912	52773952	33184
739	67.824644	130637824	93990912	52071712	33184
740	66.4943	130637824	93990912	64912616	33184
741	97.363181	127479808	92418048	37059536	33184
742	72.1741	129368064	92418048	38573040	33184
743	74.154493	129368064	92418048	41773872	33184
744	75.357324	129368064	92418048	45960064	33184
745	75.936248	129368064	92418048	51193272	33184
746	76.848969	129368064	92418048	57301368	33184
747	80.097695	129908736	92942336	64537992	33184
748	112.117305	135045120	98185216	27770840	33184
749	84.127707	135045120	98185216	36884712	33184
750	84.629383	135045120	98185216	47042816	33184
751	85.604136	135045120	98185216	58176496	33184
752	91.058018	135045120	98185216	57676872	33184
753	87.168739	135045120	98185216	70876064	33184
754	120.342983	129339392	93990912	24418520	33184
755	91.470606	130957312	93990912	38449160	33184
756	96.659883	130957312	93990912	42010360	33184
757	98.168527	130957312	93990912	46558096	33184
758	99.778808	130957312	93990912	52029808	33184
759	103.859192	132849664	96088064	58487960	33184
760	129.072225	130916352	93990912	34124936	33184
761	103.966242	130916352	93990912	42615832	33184
762	105.888591	130916352	93990912	52130600	33184
763	106.935388	130916352	93990912	62651856	33184
764	108.076614	131457024	94515200	74210888	33184
765	141.871355	133042176	96612352	24508712	33184
766	111.117731	133042176	96612352	38029056	33184
767	113.434931	133042176	96612352	52584056	33184
768	119.992845	133042176	96612352	55617056	33184
769	146.28537	125243392	89796608	29894008	33184
770	121.772303	126590976	89796608	34425792	33184
771	119.901978	126590976	89796608	53125368	33184
772	126.625182	126590976	89796608	60273344	33184
773	133.851498	130916352	93990912	68543504	33184
774	156.512273	131723264	95039488	34202032	33184
775	129.509175	131723264	95039488	44343656	33184
776	129.860507	131723264	95039488	55474416	33184
777	133.116274	133885952	97136640	67693816	33184
778	169.156582	132415488	96088064	36533488	33184
779	137.69727	132415488	96088064	50734664	33184
780	138.417543	132415488	96088064	66052776	33184
781	143.584423	136740864	100282368	69748016	33184
782	171.009736	132382720	96088064	34297624	33184
783	146.433889	132923392	96088064	40247424	33184
784	142.394638	132923392	96088064	59671544	33184
785	150.710059	132923392	96088064	67489032	33184
786	177.942707	129675264	92942336	28407208	33184
787	150.612297	129675264	92942336	38341152	33184
788	153.131814	129675264	92942336	49358064	33184
789	185.515575	128978944	91893760	31106080	33184
790	155.184897	128978944	91893760	44187336	33184
791	156.859644	128978944	91893760	58249432	33184
792	172.89974	131682304	95039488	73399040	33184
793	187.792685	132079616	95563776	47032704	33184
794	165.64707	132079616	95563776	51707200	33184
795	164.146921	133971968	97136640	69952720	33184
796	197.371398	131784704	95039488	37839576	33184
797	172.420544	131784704	95039488	45632872	33184
798	172.869446	131784704	95039488	54722496	33184
799	201.764471	128819200	91893760	32268808	33184
800	177.112814	128819200	91893760	43125144	33184
801	177.386049	128819200	91893760	55179184	33184
802	3.159192	134766592	98185216	36085232	33184
803	4.672705	134766592	98185216	39255360	33184
804	9.616189	134766592	98185216	30163272	33184
805	8.391727	134766592	98185216	35452352	33184
806	9.684779	134766592	98185216	41825152	33184
807	12.00068	134766592	98185216	33901912	33184
808	12.725988	134766592	98185216	42379576	33184
809	14.681096	134766592	98185216	35791176	33184
810	16.917666	134766592	98185216	31172944	33184
811	17.38413	134766592	98185216	42857280	33184
812	19.421251	134766592	98185216	39364864	33184
813	21.468521	134766592	98185216	37457440	33184
814	23.095783	134766592	98185216	36830736	33184
815	25.10662	134766592	98185216	37414320	33184
816	26.227113	134766592	98185216	38944728	33184
817	27.927821	134766592	98185216	41386384	33184
818	29.943816	134766592	98185216	44570104	33184
819	33.590553	134766592	98185216	34160928	33184
820	33.265173	134766592	98185216	40488608	33184
821	37.583858	134766592	98185216	33311120	33184
822	39.865627	134766592	98185216	44404192	33184
823	40.588612	134766592	98185216	39317408	33184
824	47.380879	134766592	98185216	40018272	33184
825	44.434934	134766592	98185216	54161856	33184
826	44.654259	134766592	98185216	51621200	33184
827	46.982789	134766592	98185216	50575296	33184
828	52.881388	134766592	98185216	55543552	33184
829	55.227643	134766592	98185216	61454488	33184
830	60.596269	134766592	98185216	55955176	33184
831	59.054284	135307264	98185216	64066696	33184
832	88.990164	129601536	94515200	28663320	33184
833	62.193873	131489792	94515200	38083392	33184
834	66.713758	131489792	94515200	36870632	33184
835	63.979207	131489792	94515200	49353976	33184
836	69.714017	131489792	94515200	50385992	33184
837	71.756944	131489792	94515200	52523224	33184
838	74.237547	131489792	94515200	55697264	33184
839	80.546833	132030464	95039488	59994384	33184
840	95.531185	135004160	98185216	32954264	33184
841	78.610418	135274496	98185216	39618024	33184
842	80.10375	135274496	98185216	47203920	33184
843	81.561919	135274496	98185216	55907208	33184
844	86.584568	135274496	98185216	53209528	33184
845	83.9179	135274496	98185216	64140448	33184
846	115.722319	128217088	92942336	30628528	33184
847	91.80835	129564672	92942336	30258776	33184
848	90.824701	129564672	92942336	44525408	33184
849	96.249068	129564672	92942336	47320584	33184
850	97.325636	129564672	92942336	51375408	33184
851	102.533842	129835008	92942336	69028712	33184
852	126.236329	129646592	92942336	32135312	33184
853	103.382636	129646592	92942336	39431728	33184
854	104.055208	129646592	92942336	47995360	33184
855	105.124158	129646592	92942336	57576568	33184
856	112.554795	131538944	94515200	68228160	33184
857	133.188221	133365760	96612352	35638488	33184
858	111.127005	133365760	96612352	48648400	33184
859	115.789041	133365760	96612352	50243520	33184
860	114.599959	133365760	96612352	65592000	33184
861	144.937774	136609792	99758080	69458536	33184
862	122.568627	133480448	96612352	39783304	33184
863	123.145026	133480448	96612352	45912208	33184
864	127.395722	133480448	96612352	53234752	33184
865	128.174233	133480448	96612352	61663600	33184
866	162.011792	132595712	96088064	40101496	33184
867	130.689819	132595712	96088064	50733000	33184
868	131.277883	132595712	96088064	62530784	33184
869	132.584358	133677056	96612352	75458776	33184
870	168.226454	136822784	101330944	39202688	33184
871	140.865774	138170368	101330944	40635248	33184
872	137.238841	138170368	101330944	57017080	33184
873	144.582443	138170368	101330944	61963192	33184
874	172.637927	130392064	93466624	34122880	33184
875	149.324729	130392064	93466624	41661232	33184
876	152.021382	130392064	93466624	50031312	33184
877	156.439281	131203072	94515200	59597264	33184
878	184.339563	134225920	97136640	41722104	33184
879	154.404347	134225920	97136640	53616328	33184
880	158.861889	134225920	97136640	66744376	33184
881	191.7181	137498624	102379520	32219288	33184
882	157.834124	138846208	102379520	46523928	33184
883	165.230921	138846208	102379520	63121480	33184
884	168.564362	139386880	102379520	68288136	33184
885	193.962994	131436544	94515200	36334664	33184
886	171.734043	131436544	94515200	43760696	33184
887	168.798373	131436544	94515200	65024696	33184
888	202.93589	132124672	95039488	29455760	33184
889	174.212652	132124672	95039488	53106896	33184
890	176.840894	132124672	95039488	65270352	33184
891	210.143397	127270912	90845184	32740008	33184
892	183.089142	127270912	90845184	47283208	33184
893	184.16709	127811584	90845184	62972976	33184
894	217.062755	128262144	91369472	33809648	33184
895	186.63287	128262144	91369472	51865592	33184
896	205.128738	131506176	94515200	58485096	33184
897	212.11614	126169088	89272320	52022696	33184
898	195.5083	128872448	91893760	61074928	33184
899	197.991431	142389248	105525248	83863432	33184
900	234.453196	140963840	103952384	47407944	33184
901	201.815482	140963840	103952384	59934592	33184
902	8.622007	146100224	109719552	74659936	33184
903	5.882816	146100224	109719552	78229072	33184
904	7.741274	146100224	109719552	83010048	33184
905	10.01866	146100224	109719552	88973832	33184
906	18.486342	147992576	111292416	81320440	33184
907	23.83772	127950848	90845184	19020496	33184
908	15.132573	127950848	90845184	28600088	33184
909	16.671773	127950848	90845184	23278248	33184
910	18.50296	127950848	90845184	19883872	33184
911	21.220547	127950848	90845184	18140952	33184
912	23.253201	127950848	90845184	17886168	33184
913	25.887525	127950848	90845184	18865216	33184
914	26.683395	127950848	90845184	20881632	33184
915	28.174423	127950848	90845184	23817280	33184
916	29.1596	127950848	90845184	27592336	33184
917	34.227993	127950848	90845184	18291248	33184
918	36.103799	127950848	90845184	27396560	33184
919	38.558356	127950848	90845184	21240560	33184
920	39.986344	127950848	90845184	32772288	33184
921	41.429943	127950848	90845184	28482696	33184
922	47.225056	127950848	90845184	29878944	33184
923	49.573619	127950848	90845184	32376248	33184
924	51.535382	127950848	90845184	36063240	33184
925	52.377718	127950848	90845184	41002376	33184
926	54.31543	127950848	90845184	47074912	33184
927	56.800941	127950848	90845184	54404992	33184
928	83.189943	128491520	91369472	62925488	33184
929	68.367841	124600320	87699456	33467208	33184
930	61.749566	124600320	87699456	44477432	33184
931	69.68664	124600320	87699456	44167560	33184
932	70.18197	124600320	87699456	45083040	33184
933	69.301761	124600320	87699456	59839768	33184
934	73.052334	124600320	87699456	63222656	33184
935	78.606079	130007040	93466624	67887928	33184
936	108.412365	132730880	96088064	28383008	33184
937	78.112019	132730880	96088064	35450424	33184
938	81.456086	132730880	96088064	43718368	33184
939	83.772443	132730880	96088064	53175376	33184
940	88.917285	132730880	96088064	51285248	33184
941	85.744104	132730880	96088064	63226192	33184
942	100.224377	134082560	97660928	76443304	33184
943	109.826138	130301952	93466624	30836328	33184
944	91.075767	130301952	93466624	46510024	33184
945	97.389791	130301952	93466624	50795000	33184
946	99.410535	130301952	93466624	56458280	33184
947	104.015424	130301952	93466624	63297312	33184
948	133.948187	131121152	94515200	40960632	33184
949	104.028027	131121152	94515200	50252624	33184
950	111.088541	131121152	94515200	48335976	33184
951	109.28549	131121152	94515200	60051424	33184
952	112.183778	132743168	96088064	73156520	33184
953	143.601042	133148672	97136640	24250072	33184
954	114.620092	133689344	97136640	39812448	33184
955	120.168865	133689344	97136640	44023120	33184
956	118.381673	133689344	97136640	62088424	33184
957	153.764505	126410752	89796608	24861288	33184
958	122.450445	126410752	89796608	45532616	33184
959	129.070286	126410752	89796608	54801032	33184
960	129.62659	126410752	89796608	65243224	33184
961	165.601623	127913984	92418048	32874488	33184
962	133.569302	129261568	92418048	45209248	33184
963	138.87634	129261568	92418048	46965592	33184
964	136.190829	129261568	92418048	62522848	33184
965	171.609554	129007616	91893760	33090480	33184
966	146.196725	129007616	91893760	38697792	33184
967	142.958983	129007616	91893760	58089952	33184
968	149.438498	129277952	92418048	66115336	33184
969	182.907845	128786432	91893760	47204720	33184
970	152.603914	128786432	91893760	57782128	33184
971	155.062534	130138112	93466624	69757672	33184
972	162.706261	141762560	105525248	82988080	33184
973	194.125926	140341248	103952384	48346992	33184
974	166.637823	140341248	103952384	51502336	33184
975	162.223286	140611584	103952384	68553296	33184
976	199.452298	135335936	99758080	36948720	33184
977	170.205182	136683520	99758080	42709624	33184
978	172.983737	136683520	99758080	63636480	33184
979	176.706806	136683520	99758080	73185936	33184
980	210.863076	138919936	101855232	52854320	33184
981	177.44358	138919936	101855232	64984776	33184
982	178.200571	139460608	102379520	78447384	33184
983	214.466727	141058048	104476672	38273688	33184
984	183.931259	141058048	104476672	54469520	33184
985	188.073991	141058048	104476672	59172584	33184
986	221.473585	131969024	95039488	30838544	33184
987	189.612723	131969024	95039488	50784976	33184
988	195.660549	131969024	95039488	59404104	33184
989	230.084572	141172736	104476672	34008520	33184
990	201.659372	141172736	104476672	45303552	33184
991	197.363337	141172736	104476672	70378480	33184
992	235.752132	134590464	97660928	35330160	33184
993	207.437248	134590464	97660928	50362368	33184
994	205.866568	134590464	97660928	66747456	33184
995	238.976697	136728576	99758080	34585760	33184
996	211.964661	136728576	99758080	53539552	33184
997	253.246702	126406656	89796608	32560544	33184
998	214.178767	126406656	89796608	54117984	33184
999	224.556554	134787072	98185216	64598304	33184
1000	251.040043	131325952	94515200	37327232	33184
