x	Duration	RSS	HeapTotal	HeapUsed	External
0	NA	125849600	88748032	14686472	33184
1	0.345843	125849600	88748032	14738760	33184
2	0.285832	125849600	88748032	14806720	33184
3	0.318837	125849600	88748032	14899416	33184
4	0.38145	125849600	88748032	15018520	33184
5	0.455517	125849600	88748032	15165792	33184
6	0.541337	125849600	88748032	15341936	33184
7	0.61671	125849600	88748032	15548152	33184
8	0.727985	125849600	88748032	15785736	33184
9	0.790711	125849600	88748032	16057096	33184
10	1.316881	125849600	88748032	16362552	33184
11	1.031191	125849600	88748032	16703296	33184
12	1.126513	125849600	88748032	17084480	33184
13	0.708581	125849600	88748032	17499632	33184
14	0.767524	125849600	88748032	17953696	33184
15	0.981856	125849600	88748032	18447976	33184
16	0.965602	125849600	88748032	18983680	33184
17	1.339769	125849600	88748032	19569200	33184
18	1.161161	125849600	88748032	20194904	33184
19	1.140159	125849600	88748032	20865264	33184
20	1.156463	125849600	88748032	21582032	33184
21	1.23252	125849600	88748032	22347408	33184
22	1.691255	125849600	88748032	23162408	33184
23	1.559802	125849600	88748032	24030400	33184
24	1.950021	125849600	88748032	24953088	33184
25	1.493918	125849600	88748032	25922888	33184
26	1.766467	125849600	88748032	26947320	33184
27	2.366716	125849600	88748032	28027592	33184
28	2.834992	125849600	88748032	29164816	33184
29	1.897952	125849600	88748032	30360232	33184
30	3.333541	125849600	88748032	15416432	33184
31	2.171757	125849600	88748032	16732120	33184
32	2.764041	125849600	88748032	18132352	33184
33	2.39684	125849600	88748032	19580152	33184
34	2.668435	125849600	88748032	21102056	33184
35	2.445971	125849600	88748032	22680112	33184
36	2.766751	125849600	88748032	24325408	33184
37	2.614027	125849600	88748032	26035608	33184
38	2.514475	125849600	88748032	27814952	33184
39	2.617443	125849600	88748032	29664808	33184
40	2.729068	125849600	88748032	31586360	33184
41	4.802281	125849600	88748032	17689760	33184
42	2.925613	125849600	88748032	19758424	33184
43	3.029367	125849600	88748032	21902600	33184
44	3.146092	125849600	88748032	24124280	33184
45	3.260108	125849600	88748032	26426320	33184
46	3.416845	125849600	88748032	28808456	33184
47	3.479493	125849600	88748032	31272632	33184
48	5.558196	125849600	88748032	18153744	33184
49	3.722456	125849600	88748032	20785872	33184
50	3.837856	125849600	88748032	23503864	33184
51	4.178642	125849600	88748032	26309984	33184
52	4.102301	125849600	88748032	29203536	33184
53	4.191643	125849600	88748032	32186504	33184
54	6.376536	125849600	88748032	19509864	33184
55	4.992565	125849600	88748032	22678456	33184
56	4.928007	125849600	88748032	25937808	33184
57	4.745991	125849600	88748032	29291680	33184
58	5.554226	125849600	88748032	32740224	33184
59	6.81578	125849600	88748032	20466048	33184
60	5.538541	125849600	88748032	24109888	33184
61	5.232084	125849600	88748032	27852416	33184
62	5.598463	125849600	88748032	31696104	33184
63	7.483858	125849600	88748032	19908032	33184
64	6.360245	125849600	88748032	23957528	33184
65	5.934857	125849600	88748032	28117968	33184
66	6.152805	125849600	88748032	32382936	33184
67	8.454415	125849600	88748032	20972528	33184
68	6.403003	125849600	88748032	25451880	33184
69	6.798031	125849600	88748032	30041352	33184
70	6.526814	125849600	88748032	34740096	33184
71	8.778721	125849600	88748032	23594184	33184
72	6.852298	125849600	88748032	28517048	33184
73	7.169462	125849600	88748032	33553688	33184
74	9.428931	125849600	88748032	22830368	33184
75	7.562484	125849600	88748032	28098664	33184
76	7.876733	125849600	88748032	33484960	33184
77	10.013723	125849600	88748032	23181320	33184
78	8.10062	125849600	88748032	28806272	33184
79	8.032382	125849600	88748032	34552408	33184
80	10.475182	125849600	88748032	24478728	33184
81	9.497562	125849600	88748032	30481472	33184
82	11.168182	125849600	88748032	21160096	33184
83	9.263437	125849600	88748032	27404232	33184
84	8.921301	125849600	88748032	33778584	33184
85	11.316216	125849600	88748032	24459632	33184
86	9.560481	125849600	88748032	31093368	33184
87	11.936962	125849600	88748032	22447872	33184
88	10.196578	125849600	88748032	29347432	33184
89	10.301644	125849600	88748032	36383720	33184
90	12.242953	125849600	88748032	27542392	33184
91	10.539167	125849600	88748032	34851520	33184
92	12.918284	125849600	88748032	26499776	33184
93	10.755413	125849600	88748032	34090976	33184
94	13.413401	125849600	88748032	26114880	33184
95	11.503368	125849600	88748032	33993344	33184
96	13.818646	125849600	88748032	26345808	33184
97	11.777576	125849600	88748032	34517152	33184
98	14.456696	125849600	88748032	27145888	33184
99	12.324045	125849600	88748032	35616296	33184
100	15.408608	125849600	88748032	28428320	33184
101	12.466132	125849600	88748032	37197888	33184
102	0.496691	125849600	88748032	30005240	33184
103	0.704238	125849600	88748032	30464024	33184
104	0.932915	125849600	88748032	31077912	33184
105	1.144512	125849600	88748032	31848352	33184
106	1.364449	125849600	88748032	32777800	33184
107	1.590162	125849600	88748032	33865008	33184
108	2.05914	125849600	88748032	35112232	33184
109	2.061428	125849600	88748032	36520696	33184
110	2.291252	125849600	88748032	38092664	33184
111	2.57416	125849600	88748032	39828432	33184
112	4.609865	125849600	88748032	25521520	33184
113	2.980863	125849600	88748032	27588440	33184
114	3.228981	125849600	88748032	29822760	33184
115	3.463608	125849600	88748032	32225624	33184
116	4.593808	125849600	88748032	34800096	33184
117	4.061882	125849600	88748032	37553280	33184
118	6.516765	125849600	88748032	24484848	33184
119	4.511151	125849600	88748032	27576560	33184
120	4.759803	125849600	88748032	30843168	33184
121	5.433329	125849600	88748032	34286048	33184
122	5.238673	125849600	88748032	37906272	33184
123	7.76643	125849600	88748032	25713576	33184
124	5.826229	125849600	88748032	29691768	33184
125	6.055841	125849600	88748032	33851992	33184
126	6.69677	125849600	88748032	38193240	33184
127	8.561652	125849600	88748032	26697200	33184
128	7.016092	125849600	88748032	31406192	33184
129	7.048331	125849600	88748032	36301400	33184
130	9.60314	125849600	88748032	25630296	33184
131	7.841263	125849600	88748032	30900480	33184
132	8.227282	125849600	88748032	36360184	33184
133	10.426748	125849600	88748032	26260216	33184
134	8.751895	125849600	88748032	32111224	33184
135	9.0163	125849600	88748032	38154392	33184
136	11.144802	125849600	88748032	28422368	33184
137	9.681906	125849600	88748032	34856360	33184
138	12.268887	125849600	88748032	25963744	33184
139	10.319009	125849600	88748032	32792048	33184
140	10.163515	125849600	88748032	39819456	33184
141	12.906217	125849600	88748032	30886856	33184
142	10.76785	125849600	88748032	38322136	33184
143	13.501626	125849600	88748032	30016144	33184
144	11.592462	125849600	88748032	37859888	33184
145	14.150454	125849600	88748032	30038192	33184
146	11.983868	125849600	88748032	38299368	33184
147	14.727962	125849600	88748032	30837512	33184
148	12.817823	125849600	88748032	39517208	33184
149	15.597095	125849600	88748032	32347744	33184
150	13.436559	125849600	88748032	41453896	33184
151	15.78112	125849600	88748032	34494040	33184
152	16.817792	125849600	88748032	28641160	33184
153	14.398319	125849600	88748032	38395408	33184
154	16.985195	125849600	88748032	32510864	33184
155	18.100774	125849600	88748032	27636592	33184
156	15.35377	125849600	88748032	38049216	33184
157	18.358677	125849600	88748032	32890968	33184
158	19.340881	125849600	88748032	28677584	33184
159	16.458788	125849600	88748032	39760696	33184
160	19.084419	125849600	88748032	35070432	33184
161	20.285281	125849600	88748032	31290256	33184
162	17.551307	125849600	88748032	43057568	33184
163	20.107512	125849600	88748032	38703440	33184
164	20.444149	125849600	88748032	35153136	33184
165	21.387117	125849600	88748032	32326808	33184
166	23.018079	125849600	88748032	30075072	33184
167	19.292164	125849600	88748032	43005664	33184
168	21.61981	125849600	88748032	39888064	33184
169	22.603305	125849600	88748032	37414192	33184
170	23.190499	125849600	88748032	35490824	33184
171	24.415903	125849600	88748032	34086968	33184
172	24.768829	125849600	88748032	33133176	33184
173	25.349504	125849600	88748032	32555032	33184
174	25.973535	125849600	88748032	32329520	33184
175	26.249243	125849600	88748032	32406784	33184
176	26.229795	125849600	88748032	32732744	33184
177	26.598261	125849600	88748032	33278672	33184
178	27.189104	125849600	88748032	34018368	33184
179	27.754524	125849600	88748032	34903120	33184
180	27.474422	125849600	88748032	35935904	33184
181	28.062291	125849600	88748032	37107352	33184
182	27.634568	125849600	88748032	38400040	33184
183	28.94731	125849600	88748032	39782672	33184
184	28.794007	125849600	88748032	41263928	33184
185	28.68218	125849600	88748032	42837072	33184
186	29.214028	125849600	88748032	44451648	33184
187	29.039924	125849600	88748032	46137416	33184
188	34.724246	125849600	88748032	33674576	33184
189	31.188829	125849600	88748032	37379952	33184
190	31.24911	125849600	88748032	40891472	33184
191	31.320397	125849600	88748032	44213840	33184
192	36.398902	125849600	88748032	33387760	33184
193	35.473394	125849600	88748032	40394504	33184
194	32.796748	125849600	88748032	44997376	33184
195	33.349173	125849600	88748032	49250208	33184
196	37.998624	125849600	88748032	39037216	33184
197	34.646615	125849600	88748032	44635472	33184
198	34.322724	125849600	88748032	49827088	33184
199	39.2481	125849600	88748032	40432312	33184
200	37.115835	125849600	88748032	46755352	33184
201	40.860965	125849600	88748032	38708632	33184
202	0.887532	125849600	88748032	48168704	33184
203	1.274895	125849600	88748032	49013496	33184
204	1.708043	125849600	88748032	50142192	33184
205	2.09595	125849600	88748032	51555944	33184
206	2.569714	125849600	88748032	53256536	33184
207	5.971209	125849600	88748032	39133192	33184
208	3.389922	125849600	88748032	41410408	33184
209	3.958174	125849600	88748032	43977376	33184
210	4.191153	125849600	88748032	46837280	33184
211	4.889415	125849600	88748032	49989216	33184
212	5.103392	125849600	88748032	53434232	33184
213	8.48505	125849600	88748032	40852520	33184
214	5.936683	125849600	88748032	44889432	33184
215	6.328281	125849600	88748032	49223456	33184
216	6.999901	125849600	88748032	53855408	33184
217	10.026788	125849600	88748032	42436448	33184
218	7.696427	125849600	88748032	47671664	33184
219	8.130878	125849600	88748032	53208552	33184
220	11.802692	125849600	88748032	42788192	33184
221	9.823643	125849600	88748032	48937400	33184
222	13.01788	125849600	88748032	39707152	33184
223	10.197214	125849600	88748032	46467736	33184
224	10.429776	125849600	88748032	53534968	33184
225	14.11795	125849600	88748032	44608936	33184
226	11.27726	125849600	88748032	52300128	33184
227	14.911371	125849600	88748032	44184000	33184
228	15.658246	125849600	88748032	52501072	33184
229	24.848965	125849600	88748032	44985424	33184
230	22.994156	125849600	88748032	53934672	33184
231	26.790981	125849600	88748032	46885768	33184
232	28.331536	125849600	88748032	41118560	33184
233	24.803261	125849600	88748032	51037264	33184
234	29.459384	125849600	88748032	45365568	33184
235	32.097776	125849600	88748032	40793216	33184
236	27.644682	125849600	88748032	51686872	33184
237	31.747985	125849600	88748032	46922320	33184
238	33.418054	125849600	88748032	43155448	33184
239	29.993255	125849600	88748032	55037472	33184
240	33.511527	125849600	88748032	50861952	33184
241	34.015518	125849600	88748032	47579200	33184
242	22.930791	125849600	88748032	45081464	33184
243	24.010476	125849600	88748032	43234816	33184
244	24.763574	125849600	88748032	42011760	33184
245	25.595125	125849600	88748032	41300464	33184
246	21.094758	125849600	88748032	55527168	33184
247	24.550834	125849600	88748032	53719936	33184
248	25.725209	125849600	88748032	52472632	33184
249	25.90808	125849600	88748032	51724112	33184
250	26.785174	125849600	88748032	51423832	33184
251	27.673058	125849600	88748032	51531048	33184
252	27.89227	125849600	88748032	51978904	33184
253	28.313856	125849600	88748032	52718152	33184
254	28.902781	125849600	88748032	53704480	33184
255	29.181561	125849600	88748032	54918696	33184
256	30.147549	125849600	88748032	56333128	33184
257	35.281417	125849600	88748032	43729416	33184
258	32.315308	125849600	88748032	47398360	33184
259	32.838573	125849600	88748032	50979504	33184
260	32.347878	125849600	88748032	54421824	33184
261	38.130424	125849600	88748032	43788696	33184
262	37.83466	125849600	88748032	51116832	33184
263	37.825617	125849600	88748032	56052264	33184
264	55.114706	118521856	81408000	22619344	33184
265	34.609292	118521856	81408000	30410472	33184
266	36.199403	118521856	81408000	22269984	33184
267	37.786447	118521856	81408000	31410568	33184
268	37.199838	118521856	81408000	24132576	33184
269	38.077813	118521856	81408000	33972928	33184
270	38.298221	118521856	81408000	27366536	33184
271	38.571523	118521856	81408000	37932656	33184
272	38.586296	118521856	81408000	31850576	33184
273	40.180037	118521856	81408000	43163264	33184
274	39.56661	118521856	81408000	37454664	33184
275	45.493057	118521856	81408000	36831576	33184
276	40.787909	118521856	81408000	49111040	33184
277	40.903032	118521856	81408000	44456848	33184
278	46.114012	118521856	81408000	44956472	33184
279	45.987998	118521856	81408000	58373328	33184
280	55.746382	118521856	81408000	54448920	33184
281	51.563948	117473280	80359424	26738648	33184
282	49.439964	117473280	80359424	28674504	33184
283	49.62932	117473280	80359424	30915576	33184
284	50.941185	117473280	80359424	33563592	33184
285	51.701572	117473280	80359424	36586600	33184
286	50.408382	117473280	80359424	39980024	33184
287	51.264198	117473280	80359424	43764408	33184
288	51.616625	117473280	80359424	47953600	33184
289	59.62259	119635968	82980864	52541848	33184
290	74.773671	121798656	86650880	30339712	33184
291	54.836926	123420672	86650880	35319504	33184
292	54.385496	123420672	86650880	41047352	33184
293	56.415064	123420672	86650880	47174224	33184
294	59.643501	123691008	86650880	41133880	33184
295	56.575225	123691008	86650880	48037512	33184
296	56.581677	123691008	86650880	55361608	33184
297	57.045696	123691008	86650880	63082792	33184
298	69.136643	126935040	90320896	58628416	33184
299	82.978055	124608512	87699456	24061296	33184
300	59.120291	124608512	87699456	33068832	33184
301	59.818415	124608512	87699456	42426664	33184
302	1.262981	124608512	87699456	39763480	33184
303	1.842698	124608512	87699456	40985112	33184
304	2.43478	124608512	87699456	42616160	33184
305	3.076295	124608512	87699456	44657888	33184
306	3.669786	124608512	87699456	47112008	33184
307	4.273886	124608512	87699456	49982072	33184
308	7.736711	125149184	88223744	39141128	33184
309	5.532716	125149184	88223744	42838344	33184
310	6.292262	125149184	88223744	46953208	33184
311	6.65845	125149184	88223744	51486176	33184
312	8.50852	125419520	88223744	40472072	33184
313	7.96118	125419520	88223744	45847416	33184
314	8.754134	125419520	88223744	51641760	33184
315	9.962224	125419520	88223744	41638520	33184
316	10.054061	125419520	88223744	48280192	33184
317	11.245188	125419520	88223744	39584088	33184
318	11.270046	125419520	88223744	47086168	33184
319	13.036154	125419520	88223744	39405576	33184
320	12.564247	125419520	88223744	47759624	33184
321	14.589754	125419520	88223744	40849896	33184
322	13.694181	125419520	88223744	50064656	33184
323	15.100965	125419520	88223744	43708640	33184
324	17.185094	125419520	88223744	38658000	33184
325	16.239977	125419520	88223744	49179792	33184
326	16.940986	125419520	88223744	44267376	33184
327	18.607933	125419520	88223744	40468968	33184
328	17.930117	125419520	88223744	52298352	33184
329	18.74556	125419520	88223744	48254848	33184
330	19.719053	125419520	88223744	45219328	33184
331	20.787594	125419520	88223744	43071392	33184
332	22.179829	125419520	88223744	41645152	33184
333	23.096291	125419520	88223744	40875664	33184
334	23.794285	125419520	88223744	40662320	33184
335	24.801041	125419520	88223744	40949240	33184
336	25.012311	125419520	88223744	41630128	33184
337	25.328604	125419520	88223744	42671864	33184
338	25.834218	125419520	88223744	44032704	33184
339	27.310715	125419520	88223744	45654800	33184
340	26.917741	125419520	88223744	47507768	33184
341	28.537978	125419520	88223744	49561152	33184
342	27.790826	125419520	88223744	51806896	33184
343	28.944395	125419520	88223744	54223744	33184
344	31.783414	125419520	88223744	42585344	33184
345	31.619925	125419520	88223744	47241688	33184
346	31.69314	125419520	88223744	51717928	33184
347	34.708927	125419520	88223744	42121016	33184
348	35.39745	125419520	88223744	50578168	33184
349	33.341241	125419520	88223744	56527144	33184
350	35.666555	125419520	88223744	47834936	33184
351	34.809944	125419520	88223744	54921792	33184
352	38.381587	125419520	88223744	47612688	33184
353	38.720092	125419520	88223744	58434888	33184
354	39.982993	125419520	88223744	52362440	33184
355	44.741303	125419520	88223744	51494528	33184
356	40.708843	125419520	88223744	63525096	33184
357	42.223625	125419520	88223744	58897992	33184
358	53.64279	128393216	91893760	59474200	33184
359	67.111003	124923904	89796608	29302784	33184
360	48.162299	126271488	89796608	29724496	33184
361	49.396365	126271488	89796608	31569032	33184
362	49.464188	126271488	89796608	33860360	33184
363	50.804971	126812160	89796608	36635640	33184
364	51.094408	126812160	89796608	39918736	33184
365	51.517042	126812160	89796608	43696632	33184
366	52.577585	126812160	89796608	47980208	33184
367	53.482292	126812160	89796608	52777408	33184
368	59.605558	126812160	89796608	58072504	33184
369	76.280874	125931520	90320896	33523776	33184
370	55.915424	127279104	90320896	39088008	33184
371	61.239276	127279104	90320896	33288360	33184
372	56.891334	127279104	90320896	40570776	33184
373	58.813012	127279104	90320896	48314368	33184
374	59.377564	127279104	90320896	56616528	33184
375	64.906788	127279104	90320896	52840096	33184
376	61.625516	127279104	90320896	62169928	33184
377	81.879478	129982464	92942336	59397904	33184
378	75.555236	127762432	90845184	25003552	33184
379	62.187748	127762432	90845184	35820728	33184
380	68.430877	127762432	90845184	34607768	33184
381	64.940636	127762432	90845184	46465624	33184
382	69.133116	127762432	90845184	46264000	33184
383	67.168328	127762432	90845184	59178008	33184
384	72.000313	127762432	90845184	60019336	33184
385	98.589137	124633088	89272320	32106912	33184
386	73.869575	125980672	89272320	33476888	33184
387	72.475156	125980672	89272320	36044440	33184
388	69.673291	125980672	89272320	51676704	33184
389	77.124872	126251008	89272320	55265184	33184
390	75.199064	126251008	89272320	59399488	33184
391	77.576697	128143360	91369472	64061400	33184
392	103.655577	127995904	92942336	22927656	33184
393	78.645976	129613824	92942336	27419472	33184
394	78.393413	129613824	92942336	33485224	33184
395	78.281332	129613824	92942336	40071544	33184
396	81.080615	129884160	92942336	47246568	33184
397	81.068499	129884160	92942336	54919656	33184
398	82.607937	129884160	92942336	63161496	33184
399	115.557698	128376832	91369472	29231320	33184
400	83.049903	128376832	91369472	38558408	33184
401	86.114191	128376832	91369472	48410048	33184
402	5.945215	128376832	91369472	46512352	33184
403	2.462647	128376832	91369472	48140248	33184
404	3.188882	128376832	91369472	50313064	33184
405	4.215439	128376832	91369472	53045248	33184
406	4.816626	128376832	91369472	56311904	33184
407	5.815348	128376832	91369472	60127208	33184
408	8.606592	128376832	91369472	49853624	33184
409	7.386565	128376832	91369472	54769576	33184
410	7.99848	128376832	91369472	60238544	33184
411	9.505558	128376832	91369472	50053960	33184
412	9.587623	128376832	91369472	56630920	33184
413	11.463472	128376832	91369472	48029032	33184
414	11.431763	128376832	91369472	55719016	33184
415	13.115599	128376832	91369472	48335736	33184
416	13.074275	128376832	91369472	57148352	33184
417	14.6854	128376832	91369472	50715392	33184
418	14.46281	128376832	91369472	60648272	33184
419	16.106027	128376832	91369472	54870264	33184
420	17.499351	128376832	91369472	50446280	33184
421	17.484284	128376832	91369472	62080904	33184
422	18.111858	128376832	91369472	57806336	33184
423	20.082107	128376832	91369472	54670288	33184
424	21.305276	128376832	91369472	52513368	33184
425	21.798004	128376832	91369472	51243576	33184
426	23.181736	128376832	91369472	50727232	33184
427	24.102908	128376832	91369472	50861896	33184
428	25.055596	128376832	91369472	51553928	33184
429	25.789711	128376832	91369472	52729240	33184
430	27.127222	128376832	91369472	54327872	33184
431	26.937334	128376832	91369472	56296952	33184
432	28.086591	128376832	91369472	58550280	33184
433	28.119794	128376832	91369472	61072624	33184
434	31.802056	128376832	91369472	49755456	33184
435	33.651998	128376832	91369472	57018848	33184
436	31.467115	128376832	91369472	62018072	33184
437	34.623464	128376832	91369472	52878536	33184
438	36.42569	128376832	91369472	61886016	33184
439	37.05251	128376832	91369472	54789136	33184
440	38.525253	128376832	91369472	64930552	33184
441	38.31528	128376832	91369472	58858504	33184
442	39.879561	130539520	93990912	70185392	33184
443	41.494454	131350528	94515200	64849672	33184
444	65.77338	135405568	98709504	64719096	33184
445	49.455453	129642496	92942336	29944320	33184
446	48.087695	129642496	92942336	30995936	33184
447	48.814935	129642496	92942336	32533024	33184
448	49.872874	129642496	92942336	34649400	33184
449	45.421348	129642496	92942336	49989744	33184
450	44.811877	129642496	92942336	47973368	33184
451	46.553157	129642496	92942336	46964176	33184
452	52.448668	129642496	92942336	51668328	33184
453	53.515384	129912832	92942336	56805216	33184
454	60.468077	129912832	92942336	49982392	33184
455	57.218307	129912832	92942336	56324416	33184
456	78.026283	131534848	94515200	63242272	33184
457	65.83244	126816256	89796608	26182128	33184
458	58.298936	126816256	89796608	34307408	33184
459	58.49705	126816256	89796608	43131096	33184
460	64.579308	126816256	89796608	39913512	33184
461	60.519744	126816256	89796608	49912648	33184
462	67.341568	126816256	89796608	47964416	33184
463	62.73915	126816256	89796608	59177032	33184
464	73.631228	129519616	92942336	58449400	33184
465	88.148828	133033984	96088064	26609752	33184
466	65.85425	133033984	96088064	39732304	33184
467	71.870582	133033984	96088064	40884904	33184
468	71.785586	133033984	96088064	42595600	33184
469	69.535578	133033984	96088064	57496800	33184
470	74.045133	133033984	96088064	60463200	33184
471	75.794558	133033984	96088064	64035544	33184
472	101.644014	126234624	90845184	22614144	33184
473	77.265018	127582208	90845184	26548352	33184
474	77.117209	127582208	90845184	32009344	33184
475	80.620976	127582208	90845184	38100872	33184
476	81.256586	127582208	90845184	44882448	33184
477	79.718373	127582208	90845184	52247432	33184
478	86.688668	127852544	91369472	60228200	33184
479	103.853234	127762432	90845184	38770864	33184
480	86.953456	127762432	90845184	35521392	33184
481	84.810849	127762432	90845184	45444544	33184
482	84.126733	127762432	90845184	56005960	33184
483	89.005194	127762432	90845184	54601568	33184
484	90.350505	128843776	92418048	66460576	33184
485	119.517644	130670592	93990912	35254120	33184
486	93.22451	130670592	93990912	35907448	33184
487	90.355452	130670592	93990912	49643792	33184
488	94.886838	130670592	93990912	51523376	33184
489	91.003337	130670592	93990912	66559776	33184
490	99.791168	132562944	96088064	69709768	33184
491	125.466529	133816320	97136640	40009800	33184
492	99.352872	133816320	97136640	44529192	33184
493	100.626125	133816320	97136640	49628360	33184
494	100.109968	133816320	97136640	55374856	33184
495	103.334246	133816320	97136640	61763352	33184
496	124.591749	137060352	100282368	68810016	33184
497	107.748121	133586944	96612352	40975560	33184
498	104.276015	133586944	96612352	49282712	33184
499	110.069605	133586944	96612352	45733512	33184
500	105.571224	133586944	96612352	55421216	33184
501	132.913483	135208960	98709504	65817464	33184
502	2.076609	130019328	93466624	32815944	33184
503	2.995563	130019328	93466624	34811864	33184
504	4.190324	130019328	93466624	37477024	33184
505	5.202755	130019328	93466624	40819920	33184
506	6.164512	130019328	93466624	44828664	33184
507	9.235397	130019328	93466624	35066272	33184
508	7.939175	130019328	93466624	40412768	33184
509	8.892611	130019328	93466624	46435856	33184
510	10.733239	130019328	93466624	36819736	33184
511	11.091108	130019328	93466624	44200448	33184
512	12.960835	130019328	93466624	36188032	33184
513	13.398408	130019328	93466624	44922864	33184
514	14.998582	130019328	93466624	38184344	33184
515	16.503222	130019328	93466624	33034464	33184
516	16.393127	130019328	93466624	43809408	33184
517	18.144009	130019328	93466624	39287760	33184
518	19.634018	130019328	93466624	36068368	33184
519	20.80197	130019328	93466624	33972928	33184
520	22.658418	130019328	93466624	32857440	33184
521	21.427544	130019328	93466624	47060904	33184
522	22.796703	130019328	93466624	45551424	33184
523	23.778984	130019328	93466624	44921896	33184
524	24.735107	130019328	93466624	45058896	33184
525	25.986968	130019328	93466624	45895328	33184
526	26.667548	130019328	93466624	47275544	33184
527	30.659412	130019328	93466624	34972256	33184
528	30.597731	130019328	93466624	39264968	33184
529	30.97432	130019328	93466624	43708392	33184
530	34.418654	130019328	93466624	34463624	33184
531	35.699862	130019328	93466624	43205088	33184
532	33.761557	130019328	93466624	49599168	33184
533	37.635914	130019328	93466624	41650848	33184
534	35.646826	130019328	93466624	49629928	33184
535	39.34855	130019328	93466624	43118088	33184
536	41.526064	130019328	93466624	38911600	33184
537	43.911072	130019328	93466624	51867288	33184
538	43.197289	130019328	93466624	47912904	33184
539	49.671171	130019328	93466624	49723776	33184
540	50.054158	130019328	93466624	52079392	33184
541	50.67265	130019328	93466624	55130408	33184
542	52.02675	130289664	93466624	58882160	33184
543	55.527323	131100672	93990912	63373296	33184
544	84.759111	131067904	95563776	24281848	33184
545	58.26617	132415488	95563776	29160016	33184
546	55.358529	132415488	95563776	35802384	33184
547	56.577704	132415488	95563776	43124480	33184
548	59.028134	132415488	95563776	51202336	33184
549	63.679876	132415488	95563776	47453472	33184
550	60.249514	132415488	95563776	56910504	33184
551	66.052261	132415488	95563776	54587536	33184
552	64.540401	132685824	95563776	65586936	33184
553	95.252982	131809280	97136640	33939336	33184
554	69.562899	133697536	97136640	32828448	33184
555	66.093855	133697536	97136640	45984576	33184
556	70.734856	133697536	97136640	47306048	33184
557	72.489037	133697536	97136640	49422576	33184
558	72.462133	133697536	97136640	52190024	33184
559	70.533288	133697536	97136640	68238320	33184
560	85.004257	134778880	97660928	72600904	33184
561	96.506441	133615616	96612352	31196240	33184
562	77.286333	133615616	96612352	36947312	33184
563	78.938505	133615616	96612352	43472432	33184
564	79.350568	133615616	96612352	50743432	33184
565	80.412183	133615616	96612352	58710960	33184
566	82.700488	133615616	96612352	67458552	33184
567	114.043456	125898752	90320896	31292472	33184
568	90.725253	127246336	90320896	28072752	33184
569	85.751147	127246336	90320896	39093968	33184
570	130.391314	127246336	90320896	50846568	33184
571	156.90408	127246336	90320896	50754776	33184
572	141.264289	127246336	90320896	64071128	33184
573	120.921703	128864256	91893760	37874432	33184
574	94.81673	128864256	91893760	40113856	33184
575	96.255643	128864256	91893760	43154608	33184
576	93.818945	128864256	91893760	59430544	33184
577	99.013296	128864256	91893760	64007416	33184
578	107.070852	135081984	98185216	69279744	33184
579	120.086209	135774208	98709504	41453288	33184
580	101.877705	135774208	98709504	48235688	33184
581	103.288782	135774208	98709504	55809960	33184
582	104.846654	135774208	98709504	64136992	33184
583	105.148653	135774208	98709504	73197440	33184
584	133.418685	130449408	93466624	33912640	33184
585	115.236943	130449408	93466624	32128448	33184
586	108.814844	130449408	93466624	43517000	33184
587	109.069155	130449408	93466624	55678504	33184
588	126.490291	130990080	93990912	56063912	33184
589	130.117849	126263296	89272320	40168232	33184
590	117.348656	126263296	89272320	42103360	33184
591	114.364952	126263296	89272320	57376744	33184
592	120.773462	128966656	92418048	60897888	33184
593	146.844299	130531328	93990912	30180232	33184
594	123.577341	130531328	93990912	35407552	33184
595	121.114439	130531328	93990912	53813528	33184
596	125.941746	130531328	93990912	60421688	33184
597	160.926026	127012864	91369472	26233328	33184
598	123.613157	128360448	91369472	46218072	33184
599	130.210045	128360448	91369472	55198872	33184
600	128.74513	128360448	91369472	65004600	33184
601	143.904199	134037504	97660928	63081120	33184
602	2.426649	137822208	101330944	43468400	33184
603	3.560575	137822208	101330944	45852856	33184
604	8.489498	137822208	101330944	35926696	33184
605	6.17915	137822208	101330944	39914944	33184
606	7.301118	137822208	101330944	44697504	33184
607	10.063545	138092544	101330944	35632488	33184
608	9.875536	138092544	101330944	42015024	33184
609	10.822192	138092544	101330944	49200840	33184
610	12.616783	138092544	101330944	40935992	33184
611	13.276343	138092544	101330944	49735616	33184
612	14.79463	138092544	101330944	43046160	33184
613	16.68466	138092544	101330944	38038176	33184
614	16.816817	138092544	101330944	49260368	33184
615	18.319162	138092544	101330944	45029208	33184
616	20.393476	138092544	101330944	42212424	33184
617	22.02708	138092544	101330944	40563360	33184
618	23.151121	138092544	101330944	39967240	33184
619	24.714356	138092544	101330944	40255776	33184
620	25.975905	138092544	101330944	41361200	33184
621	27.001874	138092544	101330944	43111176	33184
622	28.163431	138092544	101330944	45437080	33184
623	28.133385	138092544	101330944	48251216	33184
624	32.422904	138092544	101330944	37642728	33184
625	35.580704	138092544	101330944	45422888	33184
626	33.103558	138092544	101330944	51148976	33184
627	35.882751	138092544	101330944	42920040	33184
628	38.410805	138092544	101330944	53235848	33184
629	39.071208	138092544	101330944	47174080	33184
630	41.27078	138092544	101330944	59089968	33184
631	41.997817	138092544	101330944	54161640	33184
632	43.503353	138092544	101330944	50848288	33184
633	48.257764	138092544	101330944	52590360	33184
634	50.034403	138092544	101330944	55126816	33184
635	50.745888	138092544	101330944	58451928	33184
636	51.436504	138092544	101330944	62565568	33184
637	54.508793	138362880	101330944	67657736	33184
638	82.602609	132034560	96612352	24550136	33184
639	57.570896	134733824	98185216	30052376	33184
640	58.618582	138518528	102379520	37496512	33184
641	60.458562	142573568	106573824	45919960	33184
642	66.610954	148250624	112865280	42516896	33184
643	62.284119	152305664	117059584	52557504	33184
644	68.590505	158253056	123351040	50946696	33184
645	65.803408	159604736	123351040	62685464	33184
646	71.106524	159604736	123351040	62727048	33184
647	98.669112	113905664	78262272	31410880	33184
648	71.137273	115253248	78262272	32210296	33184
649	68.698102	115253248	78262272	47303152	33184
650	74.005061	115253248	78262272	50726976	33184
651	76.203565	116604928	79835136	55007624	33184
652	78.424563	122552320	86126592	60212336	33184
653	79.587314	128229376	91893760	66215832	33184
654	89.746221	134176768	97660928	73030488	33184
655	99.713097	120864768	84553728	33349088	33184
656	82.511932	120864768	84553728	41886312	33184
657	83.557702	121135104	84553728	51288352	33184
658	88.509129	121135104	84553728	49030928	33184
659	87.49739	122216448	85602304	60158808	33184
660	99.885966	130056192	93466624	59597608	33184
661	118.171105	125923328	89272320	29258024	33184
662	90.422121	126193664	89272320	43083824	33184
663	96.58237	126193664	89272320	45107520	33184
664	92.093861	126193664	89272320	60761224	33184
665	99.120157	126464000	89796608	64658560	33184
666	107.149072	134303744	97660928	69463264	33184
667	120.951649	128995328	92418048	41342688	33184
668	102.86076	128995328	92418048	47711736	33184
669	103.873187	128995328	92418048	55060856	33184
670	106.698657	128995328	92418048	63201240	33184
671	106.448426	130076672	93466624	72314736	33184
672	134.135845	126459904	90320896	33362752	33184
673	113.06757	127000576	90320896	31834984	33184
674	110.206237	127000576	90320896	43473184	33184
675	111.767217	127000576	90320896	56065312	33184
676	129.434615	127811584	90845184	57042584	33184
677	131.23479	126390272	89272320	42133552	33184
678	119.673901	126390272	89272320	44744456	33184
679	117.182063	126390272	89272320	60905864	33184
680	124.070264	128823296	91893760	65363000	33184
681	146.458467	129863680	93466624	35542504	33184
682	127.359622	130134016	93466624	41900856	33184
683	126.713116	130134016	93466624	49061240	33184
684	127.247112	130134016	93466624	57142944	33184
685	151.767155	125857792	89272320	33716912	33184
686	130.322874	125857792	89272320	43531104	33184
687	132.026033	125857792	89272320	54244496	33184
688	133.430047	125857792	89272320	65955160	33184
689	164.060235	128331776	91369472	34245120	33184
690	136.634845	128331776	91369472	47578184	33184
691	142.196436	128331776	91369472	49455736	33184
692	144.316025	128872448	91893760	64864144	33184
693	173.155434	126324736	89272320	41144608	33184
694	140.679028	126324736	89272320	58135128	33184
695	146.750363	127676416	90845184	63532120	33184
696	176.58829	139300864	102379520	69849936	33184
697	154.731243	134574080	97660928	42960424	33184
698	151.3315	134574080	97660928	51084664	33184
699	150.812755	134574080	97660928	60132632	33184
700	183.069718	131481600	96612352	35500192	33184
701	155.575373	133369856	96612352	45243296	33184
702	2.966291	133369856	96612352	57804248	33184
703	4.371404	133369856	96612352	60556840	33184
704	9.625086	133369856	96612352	51004304	33184
705	7.17182	133369856	96612352	55597624	33184
706	8.413352	133369856	96612352	61113608	33184
707	11.114588	133369856	96612352	52590016	33184
708	11.234691	133369856	96612352	59961912	33184
709	13.442417	133369856	96612352	52612824	33184
710	13.973394	133369856	96612352	61831072	33184
711	16.114045	133369856	96612352	56093176	33184
712	17.845587	133369856	96612352	52024552	33184
713	18.338691	133369856	96612352	64042048	33184
714	20.666012	133369856	96612352	60756248	33184
715	21.788223	133369856	96612352	58889536	33184
716	23.706687	133369856	96612352	58218536	33184
717	24.701865	133369856	96612352	58636688	33184
718	26.221162	133369856	96612352	59870664	33184
719	27.553834	133369856	96612352	61938784	33184
720	28.713341	133369856	96612352	64664600	33184
721	33.451294	133369856	96612352	53898064	33184
722	34.851246	133369856	96612352	62134536	33184
723	33.45051	133369856	96612352	68328392	33184
724	36.413239	133369856	96612352	60179424	33184
725	36.27152	133369856	96612352	68320016	33184
726	39.445629	133369856	96612352	62108688	33184
727	42.075258	133369856	96612352	58393624	33184
728	48.481565	134180864	97136640	59755656	33184
729	45.415191	134180864	97136640	74510664	33184
730	45.516817	134180864	97136640	72403168	33184
731	48.937842	134180864	97136640	71755248	33184
732	80.16472	131059712	95563776	29632800	33184
733	55.621433	132407296	95563776	34581888	33184
734	56.181712	132407296	95563776	41549296	33184
735	63.365574	132407296	95563776	36992120	33184
736	60.587247	132407296	95563776	45918840	33184
737	61.390874	132407296	95563776	55780016	33184
738	67.563075	132407296	95563776	54154848	33184
739	64.588695	132407296	95563776	65997400	33184
740	74.725111	132677632	95563776	66263296	33184
741	89.929585	129937408	92942336	34665952	33184
742	73.245533	129937408	92942336	37003552	33184
743	74.746209	129937408	92942336	40191552	33184
744	74.786744	129937408	92942336	44421272	33184
745	76.702893	129937408	92942336	49575920	33184
746	77.369782	129937408	92942336	55707048	33184
747	85.39129	129937408	92942336	62912968	33184
748	102.541834	132591616	96088064	39270792	33184
749	87.658444	132591616	96088064	35846416	33184
750	84.555302	132591616	96088064	46068304	33184
751	85.027466	132591616	96088064	57110432	33184
752	90.562779	132591616	96088064	56702360	33184
753	91.246841	133132288	96088064	69759192	33184
754	121.512935	132292608	95563776	40370512	33184
755	96.088827	132292608	95563776	42996000	33184
756	98.623794	132292608	95563776	46447776	33184
757	98.908273	132292608	95563776	50960040	33184
758	96.258249	132292608	95563776	69102648	33184
759	113.924924	134725632	97660928	75687568	33184
760	122.948227	136785920	99758080	36229808	33184
761	104.043759	136785920	99758080	44770904	33184
762	105.241583	136785920	99758080	54327784	33184
763	108.323889	136785920	99758080	64840632	33184
764	118.151641	137596928	100806656	63757176	33184
765	136.785403	132202496	95563776	43818752	33184
766	116.332578	132202496	95563776	44793264	33184
767	113.997484	132202496	95563776	59399944	33184
768	119.26963	132202496	95563776	62402800	33184
769	138.67676	137338880	100806656	66378696	33184
770	130.118393	135364608	98185216	36724056	33184
771	124.804909	135364608	98185216	42803736	33184
772	120.99925	135364608	98185216	62471552	33184
773	127.149443	135364608	98185216	70536272	33184
774	151.429781	131543040	94515200	30414440	33184
775	132.135422	131543040	94515200	40521632	33184
776	131.619388	131543040	94515200	51731624	33184
777	133.426508	131543040	94515200	63865640	33184
778	169.16392	125677568	88748032	38405328	33184
779	137.287112	125677568	88748032	52666064	33184
780	137.906339	125677568	88748032	68053744	33184
781	146.610597	136761344	99758080	71946816	33184
782	172.011906	130437120	93466624	36779360	33184
783	146.585013	130437120	93466624	42501512	33184
784	147.783124	130437120	93466624	49324664	33184
785	153.404434	130977792	93990912	69751072	33184
786	179.458037	128933888	91893760	37298952	33184
787	148.365892	128933888	91893760	59798520	33184
788	152.978356	129474560	92942336	70749064	33184
789	191.45268	136101888	101330944	34915464	33184
790	158.867415	137449472	101330944	46885328	33184
791	158.670345	137449472	101330944	60972120	33184
792	166.252579	137990144	101330944	63566312	33184
793	199.778038	130465792	93466624	50003024	33184
794	168.569994	130465792	93466624	54671136	33184
795	165.72707	133709824	97136640	72910208	33184
796	208.796417	139132928	104476672	29198608	33184
797	171.170028	141561856	104476672	48279968	33184
798	173.144961	141561856	104476672	57170928	33184
799	174.432023	141561856	104476672	66959496	33184
800	212.529664	131559424	94515200	46431424	33184
801	177.09606	131559424	94515200	58486864	33184
802	3.335936	138588160	101855232	72377656	33184
803	4.956902	138588160	101855232	75547592	33184
804	6.586667	138588160	101855232	79776624	33184
805	11.451977	140480512	103428096	71140640	33184
806	9.387457	140480512	103428096	77491544	33184
807	12.632795	141021184	103952384	69635096	33184
808	12.601595	141021184	103952384	78122480	33184
809	15.200542	141021184	103952384	71997976	33184
810	15.961982	141021184	103952384	82607720	33184
811	17.636091	141021184	103952384	77965432	33184
812	19.949342	141021184	103952384	75035624	33184
813	22.47277	141021184	103952384	73626312	33184
814	23.633137	141021184	103952384	73422680	33184
815	25.608519	141021184	103952384	74332656	33184
816	27.288536	141021184	104476672	76255152	33184
817	28.102596	141021184	104476672	79008072	33184
818	29.434898	141021184	104476672	82435216	33184
819	33.610551	141291520	104476672	72452768	33184
820	37.242348	143454208	107098112	81405104	33184
821	38.201721	144535552	108146688	74796232	33184
822	41.877487	146698240	110243840	85848880	33184
823	58.445698	134574080	98185216	22999384	33184
824	47.383394	134840320	98185216	23549864	33184
825	43.577766	134840320	98185216	37684264	33184
826	44.811788	134840320	98185216	35096240	33184
827	46.393822	134840320	98185216	34092336	33184
828	52.911748	134840320	98185216	39068624	33184
829	54.156501	134840320	98185216	45025440	33184
830	60.152074	134840320	98185216	39527184	33184
831	57.721317	134840320	98185216	47636360	33184
832	60.177011	134840320	98185216	56860544	33184
833	77.951079	135380992	98709504	54576344	33184
834	76.132032	125276160	88223744	37055680	33184
835	69.386849	125276160	88223744	37025544	33184
836	70.60512	125276160	88223744	38037464	33184
837	74.137798	125276160	88223744	40169696	33184
838	69.245694	125276160	88223744	55937896	33184
839	75.197199	125276160	88223744	60291272	33184
840	86.028591	126627840	89796608	65707048	33184
841	104.799943	129060864	92418048	29743440	33184
842	80.269688	129060864	92418048	37356712	33184
843	81.393648	129060864	92418048	46137672	33184
844	83.628524	129060864	92418048	55940224	33184
845	89.577345	129060864	92418048	54328104	33184
846	88.673608	129331200	92418048	66414136	33184
847	121.361365	131481600	94515200	36160016	33184
848	94.324463	131481600	94515200	38031368	33184
849	92.104659	131481600	94515200	53406000	33184
850	97.540866	131481600	94515200	57395824	33184
851	99.775448	131481600	94515200	62485144	33184
852	108.098248	135266304	98185216	68720976	33184
853	125.622899	134672384	97660928	42632376	33184
854	108.764525	134672384	97660928	38559496	33184
855	108.064881	134672384	97660928	48059760	33184
856	109.277335	134672384	97660928	58786600	33184
857	111.190448	134672384	97660928	70709768	33184
858	142.826875	131616768	94515200	38701744	33184
859	117.353489	131616768	94515200	40250440	33184
860	114.445926	131616768	94515200	55545240	33184
861	120.99896	131616768	94515200	59415560	33184
862	120.792446	136482816	99758080	76920600	33184
863	161.278451	139272192	102379520	35561696	33184
864	125.302637	139272192	102379520	42749360	33184
865	123.661156	139272192	102379520	63710048	33184
866	129.202965	139272192	102379520	73233472	33184
867	164.577513	132440064	97136640	35817576	33184
868	132.031753	133787648	97136640	46405896	33184
869	137.734017	133787648	97136640	46765200	33184
870	137.610806	133787648	97136640	60892424	33184
871	171.389386	132423680	97136640	31292008	33184
872	139.075489	133771264	97136640	46826928	33184
873	144.384521	133771264	97136640	51747680	33184
874	150.395066	133771264	97136640	57877456	33184
875	173.503195	135852032	99233792	30500416	33184
876	150.593592	135852032	99233792	39125704	33184
877	152.06744	135852032	99233792	48662896	33184
878	148.751761	136392704	99233792	72025752	33184
879	178.472286	132567040	95563776	35575880	33184
880	161.843452	132567040	95563776	48589112	33184
881	163.441606	132567040	95563776	50307400	33184
882	187.082354	127377408	90320896	35073528	33184
883	161.752988	127377408	90320896	51597464	33184
884	168.307634	127377408	90320896	56753872	33184
885	198.130339	129126400	92418048	32162288	33184
886	169.922136	129126400	92418048	52313432	33184
887	172.616542	129126400	92418048	60988336	33184
888	204.45671	136695808	99758080	70798664	33184
889	182.909449	132452352	95563776	50021640	33184
890	178.875005	132452352	95563776	62222040	33184
891	183.933821	138129408	101330944	75583088	33184
892	224.013518	136388608	99233792	45102480	33184
893	184.916179	136388608	99233792	60799528	33184
894	185.971764	139902976	102903808	77700976	33184
895	219.072685	136441856	99758080	39801472	33184
896	192.906526	136441856	99758080	46441400	33184
897	191.540052	136441856	99758080	66864368	33184
898	222.8671	131022848	93990912	41100952	33184
899	199.216817	131022848	93990912	51319360	33184
900	205.359412	131563520	94515200	62682256	33184
901	234.09075	131039232	94515200	48731992	33184
902	3.554979	132120576	95039488	63513704	33184
903	5.381177	132120576	95039488	67083256	33184
904	7.500971	132120576	95039488	71854912	33184
905	12.475136	132931584	96088064	63697392	33184
906	10.770794	132931584	96088064	70846640	33184
907	13.557917	133201920	96088064	63662760	33184
908	14.267525	133201920	96088064	73214560	33184
909	16.517289	133201920	96088064	67909336	33184
910	18.999026	133201920	96088064	64498792	33184
911	21.31321	133201920	96612352	62743816	33184
912	23.762596	133201920	96612352	62502296	33184
913	25.863475	133201920	96612352	63446824	33184
914	27.020653	133201920	96612352	65457512	33184
915	28.361128	133201920	96612352	68413128	33184
916	30.000602	133201920	96612352	72179728	33184
917	34.838042	133742592	97136640	62888800	33184
918	37.298345	135905280	99233792	71987040	33184
919	38.484539	136986624	100282368	65811872	33184
920	41.074312	138878976	102379520	77369840	33184
921	41.712483	139689984	103428096	73063016	33184
922	48.693671	143745024	107098112	74424368	33184
923	54.88652	147529728	111292416	76927984	33184
924	70.472624	135991296	99758080	24089248	33184
925	53.980172	136531968	99758080	28951968	33184
926	55.596322	136531968	99758080	35066464	33184
927	57.115218	136531968	99758080	42396304	33184
928	58.605438	136531968	99758080	50963440	33184
929	65.205603	136531968	99758080	48196520	33184
930	62.330565	136531968	99758080	59167712	33184
931	75.026313	136531968	99758080	58889480	33184
932	93.199642	125366272	88223744	29990248	33184
933	73.838616	125366272	88223744	32176912	33184
934	70.245639	125366272	88223744	48087120	33184
935	75.706735	125366272	88223744	52662568	33184
936	77.743911	125366272	88223744	58468328	33184
937	79.852045	125366272	88223744	65511816	33184
938	91.083713	130232320	93466624	61183336	33184
939	104.977172	129540096	92942336	38820080	33184
940	89.192333	129540096	92942336	37015504	33184
941	86.367577	129540096	92942336	48984696	33184
942	92.196908	129540096	92942336	49582224	33184
943	90.660711	129540096	92942336	64048024	33184
944	104.792941	131432448	94515200	67214312	33184
945	122.482261	129040384	91893760	39848712	33184
946	100.478781	129040384	91893760	45374464	33184
947	102.179299	129040384	91893760	52235520	33184
948	103.597595	129040384	91893760	60525008	33184
949	107.912812	129851392	92942336	69850704	33184
950	134.705097	130056192	93466624	31586936	33184
951	109.076193	130056192	93466624	43467256	33184
952	116.257676	130056192	93466624	43993168	33184
953	113.650439	130056192	93466624	58218696	33184
954	136.067988	130326528	93990912	61311224	33184
955	132.532639	125956096	89272320	35288080	33184
956	118.893268	125956096	89272320	53412248	33184
957	125.116729	125956096	89272320	60110552	33184
958	129.397894	130822144	93990912	68091056	33184
959	163.664619	136396800	99233792	34209432	33184
960	130.791193	136396800	99233792	44814048	33184
961	134.722812	136396800	99233792	56614048	33184
962	134.004608	136396800	99233792	69640816	33184
963	164.620345	133758976	97136640	32556648	33184
964	141.396696	133758976	97136640	48256952	33184
965	145.836731	133758976	97136640	52570888	33184
966	147.072535	133758976	97136640	58101232	33184
967	183.891502	128892928	91893760	36937440	33184
968	145.513467	128892928	91893760	57606976	33184
969	151.691932	129163264	92418048	66908408	33184
970	161.253366	140787712	104476672	77562272	33184
971	178.124988	132063232	95563776	34572424	33184
972	156.274017	132333568	95563776	47729840	33184
973	159.92748	132333568	95563776	62200816	33184
974	192.661339	124866560	87699456	35053104	33184
975	163.322932	124866560	87699456	52030824	33184
976	169.698808	124866560	87699456	57746528	33184
977	195.749907	125333504	88223744	33770104	33184
978	172.712336	125333504	88223744	42073328	33184
979	169.523035	125333504	88223744	64250200	33184
980	205.624534	125870080	88748032	30626872	33184
981	179.586875	125870080	88748032	42911784	33184
982	189.379636	126951424	89796608	56483696	33184
983	213.781334	126869504	89796608	46896432	33184
984	184.24069	126869504	89796608	62890288	33184
985	190.108614	139845632	102903808	80099504	33184
986	222.754807	130646016	93990912	30038112	33184
987	191.224954	130646016	93990912	49925784	33184
988	200.341573	131997696	95039488	58589008	33184
989	225.82377	127266816	90320896	55060616	33184
990	200.28843	129159168	92418048	66183368	33184
991	207.136508	144838656	108146688	78663512	33184
992	239.687822	142548992	105525248	57012360	33184
993	205.611531	142548992	105525248	72120064	33184
994	211.089668	145793024	109195264	88535712	33184
995	236.307233	129974272	92942336	34025872	33184
996	212.540869	129974272	92942336	53018448	33184
997	243.84792	128372736	91369472	43384040	33184
998	220.609202	128372736	91369472	52502528	33184
999	219.920689	133509120	96612352	75412784	33184
1000	251.495817	132497408	96088064	36057016	33184
