x	Duration	RSS	HeapTotal	HeapUsed	External
0	NA	110342144	75116544	14679640	33184
1	0.335667	110342144	75116544	14731912	33184
2	0.272871	110342144	75116544	14799856	33184
3	0.308241	110342144	75116544	14892536	33184
4	0.398805	110342144	75116544	15011624	33184
5	0.445403	110342144	75116544	15158880	33184
6	0.518798	110342144	75116544	15335032	33184
7	0.615316	110342144	75116544	15541232	33184
8	0.678928	110342144	75116544	15778768	33184
9	0.770642	110342144	75116544	16050112	33184
10	0.87845	110342144	75116544	16355544	33184
11	1.570394	110342144	75116544	16696288	33184
12	1.125719	110342144	75116544	17075824	33184
13	1.275238	110342144	75116544	17494760	33184
14	0.770104	110342144	75116544	17948856	33184
15	0.965557	110342144	75116544	18443144	33184
16	0.896993	110342144	75116544	18978880	33184
17	1.077453	110342144	75116544	19559120	33184
18	1.046861	110342144	75116544	20188432	33184
19	1.084683	110342144	75116544	20858768	33184
20	1.157061	110342144	75116544	21575504	33184
21	1.429203	110342144	75116544	22340712	33184
22	1.322021	110342144	75116544	23155640	33184
23	2.275359	110342144	75116544	24021504	33184
24	1.676027	110342144	75116544	24939592	33184
25	1.890234	110342144	75116544	25911088	33184
26	1.605233	110342144	75116544	26938080	33184
27	1.710072	110342144	75116544	28018224	33184
28	1.824802	110342144	75116544	29155520	33184
29	1.849701	110342144	75116544	30370128	33184
30	3.156885	110342144	75116544	15401312	33184
31	2.165508	110342144	75116544	16717000	33184
32	2.333737	110342144	75116544	18100352	33184
33	2.306482	110342144	75116544	19548064	33184
34	2.389821	110342144	75116544	21060552	33184
35	2.467971	110342144	75116544	22638608	33184
36	2.597787	110342144	75116544	24284560	33184
37	2.479114	110342144	75116544	25994784	33184
38	2.555108	110342144	75116544	27774232	33184
39	2.830235	110342144	75116544	29624120	33184
40	2.766602	110342144	75116544	31545672	33184
41	4.317335	110342144	75116544	17340992	33184
42	3.392797	110342144	75116544	19409776	33184
43	3.085382	110342144	75116544	21553712	33184
44	3.367105	110342144	75116544	23775568	33184
45	3.288463	110342144	75116544	26077640	33184
46	3.820428	110342144	75116544	28459840	33184
47	3.569435	110342144	75116544	30926944	33184
48	5.248948	110342144	75116544	17264912	33184
49	4.072001	110342144	75116544	19897024	33184
50	3.960913	110342144	75116544	22615080	33184
51	4.044556	110342144	75116544	25420472	33184
52	4.266964	110342144	75116544	28314080	33184
53	4.257792	110342144	75116544	31297112	33184
54	5.933164	110342144	75116544	18117632	33184
55	4.552251	110342144	75116544	21283136	33184
56	4.574151	110342144	75116544	24541744	33184
57	5.60003	110342144	75116544	27894728	33184
58	5.476543	110342144	75116544	31354400	33184
59	6.812626	110342144	75116544	18693152	33184
60	5.252195	110342144	75116544	22336488	33184
61	5.507154	110342144	75116544	26079056	33184
62	5.357143	110342144	75116544	29922104	33184
63	7.76591	110342144	75116544	18029256	33184
64	5.847428	110342144	75116544	22078568	33184
65	6.783078	110342144	75116544	26247128	33184
66	5.900785	110342144	75116544	30513040	33184
67	7.390608	110342144	75116544	19099880	33184
68	6.641688	110342144	75116544	23579304	33184
69	6.387672	110342144	75116544	28167624	33184
70	6.559324	110342144	75116544	32866440	33184
71	8.588249	110342144	75116544	21754504	33184
72	6.922257	110342144	75116544	26677688	33184
73	7.340192	110342144	75116544	31714576	33184
74	8.653463	110342144	75116544	21072312	33184
75	7.544712	110342144	75116544	26340624	33184
76	7.530168	110342144	75116544	31726480	33184
77	9.464267	110342144	75116544	21449576	33184
78	8.082065	110342144	75116544	27074400	33184
79	8.258866	110342144	75116544	32820472	33184
80	9.838373	110342144	75116544	22813512	33184
81	9.120128	110342144	75116544	28816320	33184
82	8.699582	110342144	75116544	34934224	33184
83	10.551549	110342144	75116544	25167064	33184
84	9.171113	110342144	75116544	31542152	33184
85	11.073026	110342144	75116544	22384600	33184
86	9.885684	110342144	75116544	29018376	33184
87	9.442625	110342144	75116544	35783968	33184
88	11.967435	110342144	75116544	26644624	33184
89	10.6232	110342144	75116544	33679128	33184
90	12.195724	110342144	75116544	25003160	33184
91	10.556349	110342144	75116544	32312120	33184
92	12.5402	110342144	75116544	24152472	33184
93	11.163338	110342144	75116544	31743928	33184
94	13.419544	110342144	75116544	23907440	33184
95	11.089743	110342144	75116544	31785736	33184
96	13.715465	110342144	75116544	24275040	33184
97	11.7714	110342144	75116544	32447144	33184
98	14.734023	110342144	75116544	25194120	33184
99	12.553372	110342144	75116544	33661848	33184
100	14.82224	110342144	75116544	26597600	33184
101	12.787308	110342144	75116544	35367176	33184
102	0.501287	110342144	75116544	28259488	33184
103	0.702941	110342144	75116544	28718192	33184
104	0.940065	110342144	75116544	29332064	33184
105	1.16522	110342144	75116544	30102328	33184
106	1.564371	110342144	75116544	31030672	33184
107	1.584881	110342144	75116544	32117792	33184
108	1.866868	110342144	75116544	33364952	33184
109	2.034221	110342144	75116544	34773440	33184
110	2.328927	110342144	75116544	36345424	33184
111	2.546088	110342144	75116544	38081080	33184
112	4.586819	110342144	75116544	23847536	33184
113	2.973779	110342144	75116544	25914456	33184
114	3.258636	110342144	75116544	28148776	33184
115	3.505279	110342144	75116544	30551640	33184
116	3.697289	110342144	75116544	33126112	33184
117	3.95156	110342144	75116544	35871312	33184
118	4.37822	110342144	75116544	38789264	33184
119	5.912625	110342144	75116544	25611584	33184
120	4.689454	110342144	75116544	28878864	33184
121	5.091299	110342144	75116544	32321576	33184
122	5.450403	110342144	75116544	35943352	33184
123	7.485362	110342144	75116544	23845296	33184
124	6.114903	110342144	75116544	27823408	33184
125	5.985885	110342144	75116544	31983800	33184
126	6.4336	110342144	75116544	36326904	33184
127	8.19502	110342144	75116544	24916408	33184
128	6.762864	110342144	75116544	29625552	33184
129	7.187549	110342144	75116544	34520552	33184
130	9.208707	110342144	75116544	23935992	33184
131	7.768221	110342144	75116544	29206184	33184
132	7.837659	110342144	75116544	34666672	33184
133	10.262268	110342144	75116544	24633944	33184
134	8.465684	110342144	75116544	30483216	33184
135	8.903373	110342144	75116544	36527544	33184
136	10.998759	110342144	75116544	26857904	33184
137	9.989082	110342144	75116544	33298944	33184
138	9.657649	110342144	75116544	39928792	33184
139	11.589412	110342144	75116544	30470568	33184
140	10.158324	110342144	75116544	37498032	33184
141	12.677959	110342144	75116544	28714888	33184
142	11.036726	110342144	75116544	36148408	33184
143	13.05231	110342144	75116544	28000344	33184
144	11.393488	110342144	75116544	35844464	33184
145	14.184043	110342144	75116544	28135136	33184
146	12.094799	110342144	75116544	36393632	33184
147	14.08871	110342144	75116544	29061008	33184
148	12.574624	110342144	75116544	37740328	33184
149	14.823954	110342144	75116544	30650000	33184
150	13.342779	110342144	75116544	39756504	33184
151	15.274151	110342144	75116544	32857616	33184
152	16.408997	110342144	75116544	27096592	33184
153	14.460228	110342144	75116544	36850776	33184
154	16.777787	110342144	75116544	30995464	33184
155	14.899747	110342144	75116544	41187368	33184
156	17.057744	110342144	75116544	35293496	33184
157	18.413446	110342144	75116544	30351856	33184
158	16.005936	110342144	75116544	41209744	33184
159	17.893714	110342144	75116544	36024032	33184
160	18.877825	110342144	75116544	31699872	33184
161	19.833118	110342144	75116544	28175488	33184
162	16.978086	110342144	75116544	39938600	33184
163	19.754899	110342144	75116544	35806936	33184
164	20.396904	110342144	75116544	32481840	33184
165	21.283659	110342144	75116544	29799304	33184
166	19.249878	110342144	75116544	42497144	33184
167	21.377133	110342144	75116544	39082640	33184
168	21.608049	110342144	75116544	36317104	33184
169	22.009137	110342144	75116544	34188208	33184
170	23.146213	110342144	75116544	32544880	33184
171	23.695254	110342144	75116544	31375088	33184
172	24.196884	110342144	75116544	30633384	33184
173	25.794554	110342144	75116544	30250576	33184
174	25.179436	110342144	75116544	30181584	33184
175	25.610287	110342144	75116544	30380864	33184
176	25.810836	110342144	75116544	30824168	33184
177	26.428682	110342144	75116544	31464856	33184
178	26.483049	110342144	75116544	32288688	33184
179	27.028822	110342144	75116544	33266320	33184
180	27.008191	110342144	75116544	34366264	33184
181	27.296723	110342144	75116544	35599768	33184
182	27.341264	110342144	75116544	36945008	33184
183	27.701973	110342144	75116544	38362216	33184
184	27.886639	110342144	75116544	39872528	33184
185	28.097201	110342144	75116544	41460768	33184
186	28.695004	110342144	75116544	43106352	33184
187	28.58021	110342144	75116544	44822992	33184
188	33.604534	110342144	75116544	32403464	33184
189	30.776276	110342144	75116544	36120288	33184
190	30.834982	110342144	75116544	39646624	33184
191	30.4614	110342144	75116544	42971464	33184
192	35.968628	110342144	75116544	32162752	33184
193	34.844013	110342144	75116544	39179304	33184
194	32.382309	110342144	75116544	43782952	33184
195	32.010927	110342144	75116544	48046480	33184
196	36.94563	110342144	75116544	37845896	33184
197	34.066543	110342144	75116544	43455248	33184
198	33.398404	110342144	75116544	48648240	33184
199	38.66391	110342144	75116544	39255296	33184
200	34.914802	110342144	75116544	45569792	33184
201	39.975952	110342144	75116544	37526640	33184
202	0.880964	110342144	75116544	46993800	33184
203	1.287239	110342144	75116544	47838608	33184
204	1.679798	110342144	75116544	48967280	33184
205	2.140311	110342144	75116544	50381008	33184
206	2.518864	110342144	75116544	52081600	33184
207	5.509144	110342144	75116544	37965432	33184
208	3.351607	110342144	75116544	40242752	33184
209	3.778577	110342144	75116544	42809592	33184
210	4.422641	110342144	75116544	45669008	33184
211	4.651339	110342144	75116544	48824576	33184
212	5.04281	110342144	75116544	52269648	33184
213	8.026275	110342144	75116544	39688032	33184
214	6.068518	110342144	75116544	43724392	33184
215	6.334386	110342144	75116544	48058824	33184
216	6.946263	110342144	75116544	52690848	33184
217	10.01305	110342144	75116544	41273104	33184
218	8.055361	110342144	75116544	46510112	33184
219	8.354672	110342144	75116544	52047176	33184
220	11.402283	110342144	75116544	41627960	33184
221	9.196258	110342144	75116544	47778920	33184
222	12.445125	110342144	75116544	38549208	33184
223	9.86757	110342144	75116544	45308952	33184
224	10.321943	110342144	75116544	52376600	33184
225	13.384022	110342144	75116544	43449736	33184
226	11.476792	110342144	75116544	51138824	33184
227	14.598959	110342144	75116544	43024952	33184
228	12.358718	110342144	75116544	51337728	33184
229	15.477808	110612480	75116544	43823008	33184
230	13.271587	110612480	75116544	52775832	33184
231	16.704946	110612480	75116544	45724984	33184
232	17.531861	110612480	75116544	39961552	33184
233	15.093971	110612480	75116544	49880256	33184
234	17.723259	110612480	75116544	44208560	33184
235	19.151858	110612480	75116544	39636208	33184
236	16.408035	110612480	75116544	50529864	33184
237	19.33422	110612480	75116544	45765312	33184
238	20.467779	110612480	75116544	41998440	33184
239	18.102654	110612480	75116544	53880464	33184
240	20.469995	110612480	75116544	49704944	33184
241	21.538519	110612480	75116544	46422192	33184
242	22.541589	110612480	75116544	43924456	33184
243	23.198839	110612480	75116544	42075016	33184
244	24.60702	110612480	75116544	40855320	33184
245	25.130211	110882816	75640832	40144024	33184
246	21.456187	110882816	75640832	54370728	33184
247	23.94258	110882816	75640832	52563496	33184
248	25.034444	110882816	75640832	51316192	33184
249	25.757174	110882816	75640832	50567672	33184
250	25.764499	111153152	75640832	50267392	33184
251	26.531191	111153152	75640832	50374608	33184
252	27.516864	111153152	75640832	50822464	33184
253	27.576054	111153152	76165120	51561712	33184
254	28.403396	111423488	76165120	52548040	33184
255	28.348689	111423488	76165120	53762256	33184
256	29.262774	111423488	76165120	55176688	33184
257	34.826063	111693824	76165120	42572976	33184
258	32.961416	111693824	76165120	46241920	33184
259	32.791983	111693824	76165120	49823976	33184
260	32.160944	111693824	76689408	53266232	33184
261	37.720904	112234496	76689408	42633104	33184
262	36.138296	113586176	78262272	49961240	33184
263	35.563206	113856512	78262272	54896064	33184
264	44.672359	114397184	78786560	45603776	33184
265	49.958242	114032640	78262272	28088064	33184
266	35.595435	114032640	78262272	19616184	33184
267	36.916489	114032640	78262272	28722784	33184
268	33.043878	114032640	78262272	35153104	33184
269	36.415987	114032640	78262272	26779200	33184
270	34.616545	114032640	78262272	34168216	33184
271	37.176794	114032640	78262272	26760048	33184
272	38.734031	114032640	78262272	37751296	33184
273	38.719791	114032640	78262272	31525584	33184
274	39.894985	114032640	78262272	26663976	33184
275	39.684048	114032640	78262272	38671952	33184
276	40.626051	114032640	78262272	33699112	33184
277	45.801467	114032640	78262272	33823616	33184
278	41.637966	114032640	78262272	46862144	33184
279	41.308636	114032640	78262272	42671520	33184
280	42.896976	114032640	78262272	39742024	33184
281	47.155373	114032640	78262272	41337968	33184
282	48.090547	114032640	78262272	43204928	33184
283	47.646257	114573312	79310848	58134344	33184
284	58.785376	114843648	79310848	55566816	33184
285	53.537503	114319360	78786560	28912256	33184
286	51.297618	114319360	78786560	32365312	33184
287	52.069974	114319360	78786560	36168184	33184
288	51.773617	114589696	78786560	40343304	33184
289	52.895762	114589696	78786560	44907776	33184
290	54.503172	114589696	78786560	49874496	33184
291	53.521783	114589696	78786560	55304048	33184
292	60.258145	116482048	80883712	48504640	33184
293	69.265671	120537088	85078016	54675968	33184
294	64.146637	120537088	85078016	33092184	33184
295	56.926089	120537088	85078016	40071640	33184
296	61.608987	120537088	85078016	34810216	33184
297	58.306368	120807424	85078016	42530088	33184
298	59.224802	120807424	85078016	50661968	33184
299	62.550129	120807424	85078016	46594272	33184
300	58.4733	120807424	85078016	55526688	33184
301	60.611927	124321792	88748032	64849848	33184
302	2.252917	130269184	95039488	62220096	33184
303	4.066782	130269184	95039488	63442360	33184
304	8.661197	127242240	88223744	19728408	33184
305	3.368947	121999360	88223744	21780608	33184
306	3.705079	121999360	88223744	24238656	33184
307	4.822942	121999360	88223744	27105840	33184
308	5.494621	121999360	88223744	30387336	33184
309	5.785491	121999360	88223744	34087488	33184
310	7.069339	123346944	88223744	22160696	33184
311	6.822244	123346944	88223744	26693528	33184
312	7.414343	123346944	88223744	31645856	33184
313	8.623549	123346944	88223744	21127168	33184
314	8.766858	123346944	88223744	26926552	33184
315	9.295449	123346944	88223744	33144672	33184
316	10.499162	123346944	88223744	23679968	33184
317	10.543532	123346944	88223744	30746888	33184
318	12.078183	123346944	88223744	22482224	33184
319	11.581626	123346944	88223744	30406208	33184
320	13.357367	123346944	88223744	23045344	33184
321	13.089591	123346944	88223744	31828080	33184
322	14.326301	123346944	88223744	25120048	33184
323	14.249028	123346944	88223744	34767152	33184
324	15.728015	123346944	88223744	28540280	33184
325	16.410065	123346944	88223744	23578240	33184
326	16.289172	123346944	88223744	34531072	33184
327	17.726503	123346944	88223744	29635544	33184
328	18.882103	123346944	88223744	25869040	33184
329	20.066791	123346944	88223744	23057640	33184
330	19.328035	123346944	88223744	35769224	33184
331	19.936459	123346944	88223744	32473224	33184
332	21.132144	123346944	88223744	30080208	33184
333	22.391011	123346944	88223744	28471456	33184
334	23.255714	123346944	88223744	27558984	33184
335	23.70543	123346944	88223744	27203232	33184
336	24.632014	123346944	88223744	27358208	33184
337	24.917662	123346944	88223744	27931856	33184
338	25.489677	123346944	88223744	28877024	33184
339	26.005632	123346944	88223744	30139400	33184
340	27.034947	123346944	88223744	31696216	33184
341	27.213694	123346944	88223744	33490032	33184
342	27.925886	123346944	88223744	35492592	33184
343	31.142846	123346944	88223744	23567760	33184
344	32.439507	123346944	88223744	30211312	33184
345	30.97042	123346944	88223744	34529456	33184
346	30.131905	123346944	88223744	38573968	33184
347	33.704128	123346944	88223744	28363080	33184
348	33.403208	123346944	88223744	34197360	33184
349	36.622766	123346944	88223744	26075888	33184
350	37.832115	123346944	88223744	35434520	33184
351	35.190517	123346944	88223744	42178504	33184
352	37.374197	123346944	88223744	34252280	33184
353	35.634499	123346944	88223744	42112008	33184
354	38.435381	123346944	88223744	35181152	33184
355	40.771649	123346944	88223744	30487536	33184
356	41.162023	123346944	88223744	42617400	33184
357	41.671967	123346944	88223744	37922328	33184
358	47.42412	123887616	88223744	38522064	33184
359	43.078995	123887616	88223744	51995168	33184
360	44.214551	123887616	88223744	48306488	33184
361	44.632269	123887616	88223744	45751152	33184
362	49.87443	123887616	88223744	48261936	33184
363	50.366945	123887616	88223744	51114016	33184
364	50.803209	123887616	88223744	54440184	33184
365	56.991711	124428288	88748032	58295848	33184
366	72.800634	125042688	90845184	32596168	33184
367	54.050107	126390272	90845184	36710904	33184
368	53.944458	126390272	90845184	41984608	33184
369	58.601988	126390272	90845184	35193536	33184
370	54.704072	126390272	90845184	41481952	33184
371	57.253626	126390272	90845184	48274424	33184
372	57.153022	126390272	90845184	55535032	33184
373	57.765291	126390272	90845184	63354968	33184
374	69.017944	126390272	90845184	59066896	33184
375	81.209194	127733760	91893760	24736064	33184
376	59.97955	127733760	91893760	34163904	33184
377	61.186496	127733760	91893760	44013600	33184
378	67.022853	127733760	91893760	41768464	33184
379	63.676673	127733760	91893760	52604288	33184
380	67.50966	127733760	91893760	51382016	33184
381	63.279851	127733760	91893760	63277584	33184
382	69.117122	127733760	91893760	63069984	33184
383	95.801784	126177280	91893760	32876424	33184
384	69.8992	127524864	91893760	32904624	33184
385	66.873921	127524864	91893760	46864112	33184
386	75.263019	127524864	91893760	48736312	33184
387	72.792655	127524864	91893760	51148544	33184
388	72.29407	127524864	91893760	54042528	33184
389	73.475517	127524864	91893760	57507600	33184
390	81.58027	129957888	94515200	74034240	33184
391	94.808435	129298432	93990912	32053312	33184
392	75.918224	129298432	93990912	37088464	33184
393	76.901004	129298432	93990912	42621560	33184
394	78.040626	129298432	93990912	48692552	33184
395	78.77373	129298432	93990912	55331248	33184
396	80.817979	129568768	93990912	62479664	33184
397	108.023156	125132800	90845184	25624832	33184
398	82.629525	126480384	90845184	32919976	33184
399	82.632764	126480384	90845184	41677208	33184
400	82.157599	126480384	90845184	50970880	33184
401	87.442314	126480384	90845184	48184272	33184
402	1.644894	126480384	90845184	58859224	33184
403	2.39882	126480384	90845184	60487120	33184
404	3.177069	126480384	90845184	62659720	33184
405	7.481653	126480384	90845184	52066800	33184
406	6.226622	126480384	90845184	55333608	33184
407	6.205794	126480384	90845184	59156728	33184
408	7.164423	126480384	90845184	63521536	33184
409	10.45798	126480384	90845184	53349944	33184
410	8.776453	126480384	90845184	58819984	33184
411	9.808774	126480384	90845184	64842720	33184
412	17.690828	126480384	90845184	55383688	33184
413	18.224846	122294272	86650880	19200816	33184
414	12.199856	122294272	86650880	26895080	33184
415	12.82226	122294272	86650880	19290712	33184
416	13.321193	122294272	86650880	28102456	33184
417	14.608385	122294272	86650880	21473632	33184
418	14.621437	122294272	86650880	31407592	33184
419	15.828286	122294272	86650880	25440944	33184
420	17.028532	122294272	86650880	20861264	33184
421	18.730565	122294272	86650880	17451152	33184
422	17.920498	122294272	86650880	29647600	33184
423	19.090402	122294272	86650880	26205608	33184
424	20.450351	122294272	86650880	23786632	33184
425	21.949535	122294272	86650880	22301184	33184
426	22.447844	122294272	86650880	21566736	33184
427	23.567493	122294272	86650880	21515808	33184
428	24.392291	122294272	86650880	22036040	33184
429	25.69925	122294272	86650880	23069072	33184
430	25.686478	122294272	86650880	24526280	33184
431	26.03956	122294272	86650880	26367512	33184
432	27.50127	122294272	86650880	28531848	33184
433	27.661937	122294272	86650880	30995160	33184
434	31.342255	122294272	86650880	19570568	33184
435	31.178696	122294272	86650880	24474576	33184
436	30.876065	122294272	86650880	29288296	33184
437	34.354036	122294272	86650880	20080416	33184
438	36.895638	122294272	86650880	29072192	33184
439	37.000326	122294272	86650880	21960248	33184
440	37.86814	122294272	86650880	32096792	33184
441	38.617206	122294272	86650880	26011240	33184
442	40.5089	122294272	86650880	37355344	33184
443	39.891149	122294272	86650880	32092824	33184
444	45.127995	122294272	86650880	31998904	33184
445	43.127975	122294272	86650880	44934344	33184
446	42.483212	122294272	86650880	41126816	33184
447	48.888622	122294272	86650880	42852272	33184
448	50.642749	122294272	86650880	45019320	33184
449	51.078558	123375616	87699456	47802784	33184
450	63.604346	123916288	88223744	51164256	33184
451	65.123008	118681600	82980864	28512552	33184
452	52.044158	118681600	82980864	33046320	33184
453	54.80604	118681600	82980864	38132888	33184
454	54.343041	118681600	82980864	43836840	33184
455	54.704212	118681600	82980864	50160088	33184
456	59.458173	118681600	82980864	44469424	33184
457	56.448043	118681600	83505152	51984712	33184
458	59.982273	122736640	87699456	60153392	33184
459	66.569585	126521344	91369472	68878184	33184
460	81.425267	125313024	90320896	32857464	33184
461	65.347266	125313024	90320896	30305944	33184
462	62.486708	125583360	90320896	40906200	33184
463	66.663254	125583360	90320896	39540224	33184
464	64.024125	125583360	90320896	51316576	33184
465	69.285531	125583360	90320896	51185360	33184
466	65.447659	126394368	90845184	64217096	33184
467	96.277998	123199488	89272320	21334600	33184
468	67.392445	125087744	89272320	34908336	33184
469	72.511476	125087744	89272320	37248776	33184
470	74.159735	125087744	89272320	40207584	33184
471	73.75433	125087744	89272320	43821264	33184
472	76.654337	125087744	89272320	48036408	33184
473	75.693895	126439424	90845184	52896968	33184
474	97.586839	121823232	87699456	26217168	33184
475	79.652798	123170816	87699456	31706448	33184
476	78.516997	123170816	87699456	38426616	33184
477	80.626222	123170816	87699456	45769896	33184
478	81.606678	123170816	87699456	53782920	33184
479	81.53613	123981824	88223744	62426192	33184
480	104.233229	126144512	90845184	59141040	33184
481	94.179424	127119360	91369472	38564400	33184
482	90.733605	127119360	91369472	36485968	33184
483	85.590287	127119360	91369472	47704168	33184
484	91.058415	127119360	91369472	46959992	33184
485	87.666374	127119360	91369472	59437248	33184
486	108.607792	130093056	94515200	59983192	33184
487	106.135812	127401984	91893760	29328328	33184
488	90.443218	127401984	91893760	43758808	33184
489	94.6344	127401984	91893760	46197344	33184
490	96.049801	127401984	91893760	49342696	33184
491	93.108219	127672320	91893760	65694072	33184
492	126.280801	128778240	92942336	22842824	33184
493	94.595281	128778240	92942336	40667840	33184
494	101.845797	128778240	92942336	46370184	33184
495	100.562933	128778240	92942336	52756800	33184
496	102.509138	128778240	92942336	59808568	33184
497	132.708773	124346368	88748032	23135928	33184
498	108.243291	124346368	88748032	31557224	33184
499	105.176673	124346368	88748032	40617432	33184
500	106.70111	124346368	88748032	50341384	33184
501	109.697724	124346368	88748032	60648520	33184
502	6.400021	126758912	91369472	31708584	33184
503	3.021788	126758912	91369472	33704560	33184
504	4.509618	126758912	91369472	36369568	33184
505	4.976936	126758912	91369472	39702352	33184
506	6.106733	126758912	91369472	43705824	33184
507	9.705988	126758912	91369472	33959504	33184
508	8.064097	126758912	91369472	39306192	33184
509	9.0803	126758912	91369472	45329840	33184
510	10.439615	126758912	91369472	35835256	33184
511	11.086702	126758912	91369472	43207568	33184
512	12.890426	126758912	91369472	35369240	33184
513	13.232948	126758912	91369472	44105688	33184
514	14.580783	126758912	91369472	37482144	33184
515	16.540213	126758912	91369472	32457360	33184
516	16.030945	126758912	91369472	43228856	33184
517	18.052741	126758912	91369472	38805856	33184
518	19.701345	126758912	91369472	35676808	33184
519	20.571564	126758912	91369472	33665920	33184
520	20.152668	126758912	91369472	47185680	33184
521	21.378439	126758912	91369472	44979192	33184
522	22.88265	126758912	91369472	43772136	33184
523	23.853005	126758912	91369472	43425608	33184
524	24.776078	126758912	91369472	43807984	33184
525	25.988956	126758912	91369472	44865368	33184
526	26.886887	126758912	91369472	46437504	33184
527	31.495855	126758912	91369472	34469392	33184
528	32.506409	126758912	91369472	41149312	33184
529	31.127793	126758912	91369472	45774984	33184
530	34.468944	126758912	91369472	36700384	33184
531	36.203306	126758912	91369472	45424320	33184
532	33.658382	126758912	91369472	51885816	33184
533	37.467081	126758912	91369472	44064160	33184
534	39.517662	126758912	91369472	54978128	33184
535	40.45638	126758912	91369472	49056432	33184
536	42.666845	126758912	91369472	44882976	33184
537	42.774464	126758912	91369472	57802800	33184
538	42.890153	126758912	91369472	53839240	33184
539	49.252921	126758912	91369472	55673072	33184
540	50.288718	126758912	91369472	58050960	33184
541	51.601274	127569920	91893760	61142368	33184
542	53.683794	131084288	95563776	64948992	33184
543	55.24835	134868992	99758080	69439200	33184
544	83.462585	134365184	100282368	26526008	33184
545	57.427075	135712768	100282368	31217912	33184
546	57.18721	135712768	100282368	37803624	33184
547	57.173867	135983104	100282368	45168312	33184
548	62.47137	135983104	100282368	40658584	33184
549	58.759323	135983104	100282368	49421000	33184
550	60.787564	135983104	100282368	58943928	33184
551	65.961458	135983104	100282368	56632304	33184
552	64.908149	135983104	100282368	67596152	33184
553	95.56754	127782912	93466624	35575336	33184
554	69.45845	129130496	93466624	34524800	33184
555	70.775811	129130496	93466624	35127800	33184
556	66.537968	129130496	93466624	49024136	33184
557	71.595799	129130496	93466624	51091392	33184
558	71.989593	129130496	93466624	53845736	33184
559	74.694056	129130496	93466624	57420008	33184
560	90.820003	131563520	96088064	61663272	33184
561	86.159084	132366336	96612352	32946056	33184
562	76.636683	132366336	96612352	38714584	33184
563	78.472752	132366336	96612352	45250632	33184
564	80.626196	132366336	96612352	52488216	33184
565	80.734742	132366336	96612352	60447776	33184
566	86.027621	132366336	96612352	56651120	33184
567	115.215499	126324736	92418048	37085392	33184
568	88.188473	127672320	92418048	34106128	33184
569	86.377411	127672320	92418048	45157472	33184
570	86.230409	127672320	92418048	56902728	33184
571	92.515496	128212992	92418048	56821328	33184
572	89.086879	128753664	93466624	70077280	33184
573	122.094192	130355200	96612352	23824712	33184
574	94.622223	131702784	96612352	37444824	33184
575	95.975795	131702784	96612352	40409640	33184
576	97.22358	131702784	96612352	44165424	33184
577	95.640056	131702784	96612352	61213592	33184
578	101.064384	132243456	96612352	66536360	33184
579	134.693221	128110592	92418048	29873432	33184
580	98.913613	128110592	92418048	49280408	33184
581	103.196157	128110592	92418048	56755800	33184
582	104.688665	128110592	92418048	65055392	33184
583	114.11824	130543616	95039488	61608984	33184
584	131.762331	129728512	95563776	35991256	33184
585	111.526455	131076096	95563776	32931024	33184
586	109.784488	131076096	95563776	44366480	33184
587	109.311558	131076096	95563776	56571872	33184
588	115.644558	131076096	95563776	56916944	33184
589	145.980415	129150976	93466624	42102992	33184
590	116.469671	129150976	93466624	44109032	33184
591	113.982401	129150976	93466624	59409408	33184
592	120.6639	129150976	93466624	62907512	33184
593	123.516352	136990720	101330944	67221440	33184
594	153.702257	138682368	103428096	37184832	33184
595	122.741146	138682368	103428096	43041120	33184
596	120.509073	138682368	103428096	62280112	33184
597	125.493627	138682368	103428096	69650568	33184
598	136.235663	140034048	104476672	77846760	33184
599	151.032929	131203072	95563776	37436368	33184
600	132.469277	131203072	95563776	47277240	33184
601	131.890562	131203072	95563776	57862912	33184
602	2.824037	132284416	96612352	70025568	33184
603	3.953619	132284416	96612352	72418344	33184
604	5.21623	132284416	96612352	75599888	33184
605	12.60875	134176768	98709504	66030800	33184
606	8.450968	134176768	98709504	70813696	33184
607	14.613668	134176768	98709504	76394448	33184
608	22.873693	135258112	99758080	67395840	33184
609	16.133659	131072000	95563776	31595472	33184
610	12.166824	131072000	95563776	39603512	33184
611	13.71393	131072000	95563776	32203312	33184
612	15.383359	131072000	95563776	26597400	33184
613	16.433296	131072000	95563776	37009224	33184
614	17.367399	131072000	95563776	32358584	33184
615	19.461619	131072000	95563776	29173944	33184
616	20.975428	131072000	95563776	27242848	33184
617	20.481241	131072000	95563776	40899944	33184
618	22.249244	131072000	95563776	38985872	33184
619	23.224885	131072000	95563776	38135648	33184
620	24.836042	131072000	95563776	38194936	33184
621	25.62908	131072000	95563776	39076152	33184
622	26.781821	131072000	95563776	40654480	33184
623	30.706329	131072000	95563776	28727736	33184
624	31.112611	131072000	95563776	33426872	33184
625	31.087418	131072000	95563776	38318456	33184
626	35.592642	131072000	95563776	29520168	33184
627	36.82595	131072000	95563776	38950000	33184
628	37.990199	131072000	95563776	32478624	33184
629	39.999983	131072000	95563776	43538568	33184
630	40.822078	131072000	95563776	38298192	33184
631	45.737179	131072000	95563776	38435256	33184
632	42.952164	131072000	95563776	51846048	33184
633	43.082019	131072000	95563776	48607432	33184
634	49.919699	131072000	95563776	51313576	33184
635	52.353731	131072000	95563776	54601160	33184
636	52.100912	131072000	95563776	58829760	33184
637	53.591581	131342336	95563776	63767224	33184
638	54.243771	131883008	96088064	69652312	33184
639	58.837735	133505024	97660928	76274000	33184
640	85.412048	134393856	100282368	36221616	33184
641	63.230162	135741440	100282368	30798048	33184
642	59.683948	135741440	100282368	39931144	33184
643	65.196505	135741440	100282368	37426272	33184
644	63.696974	135741440	100282368	48370040	33184
645	67.701263	135741440	100282368	47559872	33184
646	64.785544	135741440	100282368	60074832	33184
647	70.42701	135741440	100282368	60939648	33184
648	99.707979	128638976	94515200	31421248	33184
649	73.231123	129986560	94515200	33379480	33184
650	75.202394	129986560	94515200	36826320	33184
651	70.909636	129986560	94515200	53641016	33184
652	76.317118	129986560	94515200	58807528	33184
653	77.563216	129986560	94515200	64799712	33184
654	82.285022	130256896	94515200	71582808	33184
655	106.810039	135122944	99758080	66758800	33184
656	86.88304	132915200	97660928	39657808	33184
657	86.98307	132915200	97660928	36500616	33184
658	83.583374	132915200	97660928	46778272	33184
659	85.827763	132915200	97660928	57960264	33184
660	91.831935	132915200	97660928	57394720	33184
661	96.024131	132915200	97660928	70304896	33184
662	114.313754	126611456	91369472	39595496	33184
663	94.554729	126611456	91369472	41657848	33184
664	95.988292	126611456	91369472	44648736	33184
665	94.108873	126611456	91369472	60993288	33184
666	98.297965	127152128	91369472	65715312	33184
667	128.543926	129900544	94515200	24652176	33184
668	101.641419	129900544	94515200	31233968	33184
669	103.121024	129900544	94515200	38478720	33184
670	103.238387	129900544	94515200	46762536	33184
671	105.698951	129900544	94515200	55751240	33184
672	141.434427	125472768	89796608	37530232	33184
673	109.271262	125472768	89796608	48438080	33184
674	116.124103	125472768	89796608	47504752	33184
675	111.313653	125472768	89796608	60097672	33184
676	113.586531	132771840	97136640	73619920	33184
677	145.190326	129830912	94515200	24126024	33184
678	117.939756	129830912	94515200	39281216	33184
679	119.387208	129830912	94515200	42861968	33184
680	117.254707	129830912	94515200	59877480	33184
681	148.274212	124129280	89796608	35158952	33184
682	125.330528	125476864	89796608	40835192	33184
683	124.709341	125476864	89796608	47941928	33184
684	128.68133	125476864	89796608	55980376	33184
685	151.49229	131153920	95563776	64912960	33184
686	134.964999	132775936	97136640	43927952	33184
687	132.270806	132775936	97136640	54574424	33184
688	133.314766	132775936	97136640	66148000	33184
689	143.271831	133586944	98185216	66211632	33184
690	159.872709	133001216	97136640	47593432	33184
691	142.35864	133001216	97136640	49390400	33184
692	138.238369	133001216	97136640	64671224	33184
693	144.06408	136245248	100806656	68301680	33184
694	178.264932	136507392	100806656	39254664	33184
695	142.170237	136507392	100806656	57216864	33184
696	149.278499	136507392	100806656	63524088	33184
697	148.981256	138670080	102903808	70801264	33184
698	173.131744	133771264	97136640	38154464	33184
699	151.987364	133771264	97136640	47201272	33184
700	154.961806	133771264	97136640	57183960	33184
701	183.367462	124985344	88223744	38476824	33184
702	7.291186	125255680	88223744	38496496	33184
703	4.1974	125255680	88223744	41249120	33184
704	5.882304	125255680	88223744	44921400	33184
705	6.846927	125255680	88223744	49529304	33184
706	10.291368	125255680	88223744	40743232	33184
707	9.564269	125255680	88223744	47183752	33184
708	11.913819	125255680	88223744	39041544	33184
709	12.534979	125255680	88223744	47334656	33184
710	14.693966	125255680	88223744	41018240	33184
711	15.536632	125255680	88223744	51165136	33184
712	17.111993	125255680	88223744	46228680	33184
713	19.275794	125255680	88223744	42884040	33184
714	21.262201	125255680	88223744	40966008	33184
715	23.41405	125255680	88223744	40250312	33184
716	24.960813	125255680	88223744	40600080	33184
717	25.917489	125255680	88223744	41836688	33184
718	27.478423	125255680	88223744	43860976	33184
719	28.18135	125255680	88223744	46560024	33184
720	29.781963	125255680	88223744	49853856	33184
721	29.805457	125255680	88223744	53630816	33184
722	34.002867	125255680	88223744	43747864	33184
723	33.94807	125255680	88223744	50285776	33184
724	37.492022	125255680	88223744	43167360	33184
725	40.02349	125255680	88223744	54218336	33184
726	40.221914	125255680	88223744	49035824	33184
727	45.912254	125255680	88223744	49433912	33184
728	43.046034	125255680	88223744	63232040	33184
729	43.651725	125255680	88223744	60301880	33184
730	45.152585	125255680	88223744	58923384	33184
731	51.791944	125796352	88748032	63133584	33184
732	60.786931	129581056	92942336	68173176	33184
733	76.199279	125837312	89272320	28085856	33184
734	55.781343	125837312	89272320	35166344	33184
735	58.228815	125837312	89272320	43201056	33184
736	62.994762	125837312	89272320	39552632	33184
737	62.220453	125837312	89272320	49459672	33184
738	66.390065	125837312	89272320	47813544	33184
739	63.415055	125837312	89272320	59656648	33184
740	75.573522	126918656	89796608	59915824	33184
741	92.007712	126439424	89272320	30368840	33184
742	72.460119	126439424	89272320	32717032	33184
743	68.3875	126439424	89272320	48457968	33184
744	75.143914	126439424	89272320	52662176	33184
745	76.663492	126439424	89272320	57853608	33184
746	78.508828	126439424	89272320	63963568	33184
747	81.201496	128331776	91369472	71137592	33184
748	108.947812	131649536	95039488	34870840	33184
749	83.28379	131649536	95039488	44077512	33184
750	88.980768	131649536	95039488	41610096	33184
751	85.613417	131649536	95039488	52724576	33184
752	86.095372	131649536	95039488	64915128	33184
753	93.25008	132190208	95039488	65340336	33184
754	119.008634	128876544	93466624	32366104	33184
755	94.823291	130224128	93466624	33821944	33184
756	95.997289	130224128	93466624	37250896	33184
757	93.855327	130224128	93466624	54353440	33184
758	101.002338	130224128	93466624	59904264	33184
759	108.776035	130494464	93466624	66476112	33184
760	129.52928	130465792	93466624	30919752	33184
761	103.697097	130465792	93466624	39398736	33184
762	106.854605	130465792	93466624	48901904	33184
763	106.658494	130465792	93466624	59419264	33184
764	112.320957	132087808	95039488	70970504	33184
765	142.489262	135876608	99233792	38897032	33184
766	111.660169	135876608	99233792	52493304	33184
767	120.359043	135876608	99233792	54481840	33184
768	117.604544	135876608	99233792	57443480	33184
769	116.896868	136687616	99758080	74057136	33184
770	151.739348	135663616	98709504	44717104	33184
771	124.392937	135663616	98709504	50732248	33184
772	124.585932	135663616	98709504	57864904	33184
773	125.591324	135663616	98709504	65942760	33184
774	158.329051	136069120	101330944	26743088	33184
775	133.646588	137957376	101330944	35777272	33184
776	130.586302	137957376	101330944	47005688	33184
777	133.30266	137957376	101330944	59309344	33184
778	142.501324	139038720	101855232	72609680	33184
779	161.660535	132562944	95563776	41527872	33184
780	135.974065	132562944	95563776	56814056	33184
781	142.947754	132562944	95563776	60523408	33184
782	142.510238	136347648	99758080	77877080	33184
783	180.636512	139440128	102903808	37374744	33184
784	143.725702	139440128	102903808	56775280	33184
785	151.367274	139440128	102903808	64613720	33184
786	156.680743	140791808	104476672	73502088	33184
787	178.615281	135950336	99233792	48216368	33184
788	155.372887	135950336	99233792	59208344	33184
789	156.054487	135950336	99233792	71177480	33184
790	191.385186	139325440	104476672	36754832	33184
791	161.552548	141213696	104476672	49646616	33184
792	164.992192	141213696	104476672	52268632	33184
793	160.723289	141213696	104476672	68437856	33184
794	190.250514	135725056	99233792	35296664	33184
795	168.594128	135725056	99233792	41025952	33184
796	168.278321	135725056	99233792	60304664	33184
797	204.447766	129486848	92942336	37323240	33184
798	174.73716	129486848	92942336	46021360	33184
799	174.972064	130027520	92942336	55990464	33184
800	205.835745	128917504	92418048	34327896	33184
801	180.568269	128917504	92418048	46318576	33184
802	3.174379	129458176	92418048	60428472	33184
803	4.695523	129458176	92418048	63598616	33184
804	6.35589	129458176	92418048	67827648	33184
805	10.794755	129458176	92418048	59219216	33184
806	10.1113	129458176	92418048	65570184	33184
807	12.213367	129458176	92418048	57685408	33184
808	12.472786	129458176	92418048	66162680	33184
809	14.996476	129458176	92418048	59912176	33184
810	15.834284	129458176	92418048	70526984	33184
811	17.672232	129458176	92418048	65863560	33184
812	19.745643	129458176	92418048	62862688	33184
813	21.88215	129458176	92418048	61334216	33184
814	23.884557	129458176	92418048	61144152	33184
815	25.525396	129458176	92418048	62056232	33184
816	26.86585	129458176	92418048	63879560	33184
817	28.045437	129458176	92418048	66511240	33184
818	29.432223	129458176	92418048	69935008	33184
819	33.949672	129458176	92418048	59868800	33184
820	39.701846	130539520	93990912	68855608	33184
821	50.908777	131620864	95039488	62248016	33184
822	46.486359	127430656	90845184	23735808	33184
823	45.261786	127430656	90845184	23255016	33184
824	42.423755	127430656	90845184	36361440	33184
825	43.407173	127430656	90845184	33202576	33184
826	50.981035	127430656	90845184	35998992	33184
827	52.913639	127430656	90845184	39777904	33184
828	52.704851	127430656	90845184	44607408	33184
829	54.717855	127430656	90845184	50532272	33184
830	58.491905	127430656	90845184	57525888	33184
831	89.080724	120770560	85078016	27801840	33184
832	61.004598	122122240	85078016	36866128	33184
833	64.944639	122122240	85078016	34605088	33184
834	63.281633	122122240	85078016	46020920	33184
835	68.925528	122122240	85078016	45909880	33184
836	67.817564	122122240	85078016	59468336	33184
837	72.794465	123203584	86126592	61624008	33184
838	76.529273	128880640	92418048	64880496	33184
839	103.974043	128876544	93466624	37941280	33184
840	77.850682	130494464	93466624	42510936	33184
841	79.09762	130494464	93466624	49049960	33184
842	83.825969	130494464	93466624	44143776	33184
843	81.379553	130494464	93466624	52831232	33184
844	83.827192	130494464	93466624	62672816	33184
845	88.169259	132116480	95563776	73665472	33184
846	116.633602	130260992	93466624	39327552	33184
847	93.925262	130260992	93466624	40066912	33184
848	95.107693	130260992	93466624	41777064	33184
849	92.608611	130260992	93466624	57227648	33184
850	99.425821	130260992	93466624	61237816	33184
851	106.047062	134316032	97660928	66226304	33184
852	124.887664	131481600	95039488	39219384	33184
853	102.004	131481600	95039488	46523384	33184
854	104.514883	131481600	95039488	54941616	33184
855	105.984418	131481600	95039488	64555432	33184
856	113.286428	132562944	95563776	62687280	33184
857	141.173274	132132864	95563776	42906792	33184
858	115.313843	132132864	95563776	43490072	33184
859	113.408912	132132864	95563776	57596552	33184
860	119.141661	132673536	95563776	60202232	33184
861	117.4743	135647232	98709504	76575168	33184
862	149.960416	131895296	95563776	29093560	33184
863	127.284302	132165632	95563776	35185488	33184
864	122.340911	132165632	95563776	55021712	33184
865	126.765356	132165632	95563776	63428680	33184
866	156.92474	126734336	89796608	28778296	33184
867	130.183425	126734336	89796608	39436528	33184
868	132.777413	126734336	89796608	51245384	33184
869	135.955053	126734336	89796608	64179960	33184
870	175.606588	127279104	90320896	39426928	33184
871	138.530371	127279104	90320896	54663544	33184
872	143.842053	127819776	90845184	58512952	33184
873	143.048395	136740864	99758080	76093800	33184
874	173.567114	128917504	92418048	29051496	33184
875	145.712676	128917504	92418048	48877448	33184
876	150.617425	128917504	92418048	57316056	33184
877	179.943194	131891200	95563776	66996256	33184
878	156.382687	129249280	92418048	48603256	33184
879	154.646228	129249280	92418048	60430584	33184
880	162.917793	132763648	96088064	60996152	33184
881	182.646038	129482752	92942336	38370472	33184
882	165.320411	129482752	92942336	41151760	33184
883	163.097821	129482752	92942336	57777008	33184
884	197.321101	127696896	90845184	31878208	33184
885	167.284436	127696896	90845184	50901712	33184
886	171.515745	127696896	90845184	58396872	33184
887	195.723053	136617984	99758080	67019152	33184
888	187.542883	135458816	98709504	45030296	33184
889	177.151371	135458816	98709504	56035144	33184
890	179.874637	138702848	101855232	68188992	33184
891	217.460436	137818112	100806656	49780592	33184
892	182.764558	137818112	100806656	64332544	33184
893	185.003305	138899456	101855232	80058032	33184
894	219.154609	137785344	101330944	41077624	33184
895	193.678859	137785344	101330944	46763576	33184
896	188.992845	137785344	101330944	65966312	33184
897	225.703073	133525504	96612352	39526624	33184
898	198.804345	133525504	96612352	48607200	33184
899	198.696768	133525504	96612352	58802248	33184
900	227.221813	136724480	99758080	34759456	33184
901	203.101587	136724480	99758080	47302680	33184
902	7.574543	136724480	99758080	62054192	33184
903	5.329092	136724480	99758080	65623304	33184
904	7.092408	136724480	99758080	70384272	33184
905	11.524057	136724480	99758080	62317384	33184
906	11.668303	136724480	99758080	69470800	33184
907	15.018215	136724480	99758080	62233464	33184
908	17.755924	136724480	99758080	71781816	33184
909	31.273252	127041536	90320896	18527816	33184
910	17.949178	127041536	90320896	30474304	33184
911	21.415368	127307776	90320896	28276120	33184
912	22.24543	127307776	90320896	26953232	33184
913	23.895331	127307776	90320896	26839896	33184
914	25.752926	127307776	90320896	27985888	33184
915	27.549235	127307776	90320896	30175992	33184
916	32.127396	127307776	90320896	19379864	33184
917	34.379595	127307776	90320896	27285728	33184
918	33.654825	127307776	90320896	33540352	33184
919	37.206244	127307776	90320896	26194264	33184
920	41.015905	127307776	90320896	37790416	33184
921	40.796769	127307776	90320896	32943800	33184
922	42.871864	127307776	90320896	30066080	33184
923	49.38936	127307776	90320896	32641600	33184
924	51.677748	127307776	90320896	36324864	33184
925	53.204476	127307776	90320896	41261320	33184
926	55.013171	127307776	90320896	47457312	33184
927	56.265794	127307776	90320896	54770384	33184
928	69.89499	128929792	91893760	50795560	33184
929	76.456914	126881792	89796608	32476128	33184
930	66.036925	126881792	89796608	30988264	33184
931	63.556619	126881792	89796608	43222120	33184
932	70.519038	126881792	89796608	44130152	33184
933	72.601739	126881792	89796608	46251816	33184
934	69.558686	126881792	89796608	62145352	33184
935	77.768936	126881792	89796608	66699432	33184
936	107.578613	128622592	91893760	29307656	33184
937	79.556525	128622592	91893760	36477912	33184
938	80.892284	128622592	91893760	44699720	33184
939	82.687702	128622592	91893760	54099280	33184
940	89.71496	128622592	91893760	52233408	33184
941	86.602743	128622592	91893760	64162736	33184
942	117.847336	130838528	95563776	31181544	33184
943	94.579072	132186112	95563776	32043456	33184
944	92.155365	132186112	95563776	47748864	33184
945	99.410442	132186112	95563776	52187528	33184
946	101.333533	132186112	95563776	57927200	33184
947	124.76511	132186112	95563776	64762952	33184
948	105.993267	127324160	90320896	41562472	33184
949	110.340108	127324160	90320896	38316600	33184
950	107.874552	127324160	90320896	48840408	33184
951	109.382459	127324160	90320896	60729264	33184
952	143.54917	130895872	95563776	29032240	33184
953	114.07114	132243456	95563776	42623264	33184
954	118.75652	132243456	95563776	45470096	33184
955	124.554477	132243456	95563776	49749104	33184
956	121.945646	132513792	95563776	67798584	33184
957	155.984237	130482176	93466624	44658464	33184
958	126.06424	130482176	93466624	52618496	33184
959	129.182023	130482176	93466624	61974384	33184
960	132.502537	131833856	95039488	72558448	33184
961	166.311027	133767168	98709504	35492960	33184
962	133.181388	135114752	98709504	47254632	33184
963	139.639241	135114752	98709504	49008632	33184
964	137.676667	135385088	98709504	64545936	33184
965	171.680655	130834432	95563776	35623944	33184
966	147.833186	132182016	95563776	40387192	33184
967	143.313753	132182016	95563776	59752264	33184
968	149.35335	132182016	95563776	67900704	33184
969	179.056988	135200768	98185216	29340472	33184
970	153.213314	135200768	98185216	39944432	33184
971	155.407266	135200768	98185216	51796424	33184
972	178.926422	137363456	100282368	65036880	33184
973	171.2619	129429504	92418048	49520544	33184
974	164.01854	129429504	92418048	52687624	33184
975	163.974186	133754880	97136640	69678904	33184
976	193.138442	133890048	97660928	37106904	33184
977	170.963486	133890048	97660928	44028320	33184
978	168.93407	133890048	97660928	64906480	33184
979	209.26241	129536000	92418048	29542872	33184
980	174.82691	129536000	92418048	52954376	33184
981	179.464321	129536000	92418048	65151648	33184
982	215.095039	131682304	95039488	33101720	33184
983	181.584185	131682304	95039488	47796632	33184
984	183.357381	131682304	95039488	63832256	33184
985	218.833498	132022272	95039488	34956688	33184
986	188.660338	132022272	95039488	53530104	33184
987	195.944062	132562944	95563776	60789120	33184
988	224.275695	134475776	97660928	34873256	33184
989	201.50684	134475776	97660928	44818512	33184
990	197.392859	134475776	97660928	68507856	33184
991	238.011813	129925120	92942336	54649672	33184
992	203.798349	130465792	93466624	68361152	33184
993	210.193198	145874944	109195264	83468848	33184
994	230.972864	128737280	91893760	41268352	33184
995	214.812685	128737280	91893760	46343664	33184
996	256.073962	125689856	88748032	36629344	33184
997	220.134184	125689856	88748032	56939080	33184
998	249.69777	134340608	97660928	66098160	33184
999	236.02349	131891200	95039488	49495424	33184
1000	221.71936	134324224	97660928	73720968	33184
