x	Duration	RSS	HeapTotal	HeapUsed	External
0	NA	124899328	89272320	14658720	33184
1	0.32493	124899328	89272320	14710952	33184
2	0.258677	124899328	89272320	14778896	33184
3	0.290002	124899328	89272320	14871576	33184
4	0.343165	124899328	89272320	14990664	33184
5	0.415352	124899328	89272320	15137920	33184
6	0.486088	124899328	89272320	15314048	33184
7	0.582629	124899328	89272320	15520248	33184
8	0.660964	124899328	89272320	15757752	33184
9	0.716329	124899328	89272320	16029096	33184
10	1.19562	124899328	89272320	16334544	33184
11	1.304527	124899328	89272320	16675272	33184
12	0.872301	124899328	89272320	17052560	33184
13	0.770694	124899328	89272320	17471520	33184
14	0.943704	124899328	89272320	17928000	33184
15	0.981474	124899328	89272320	18422312	33184
16	0.889708	124899328	89272320	18958016	33184
17	0.934784	124899328	89272320	19538248	33184
18	2.622075	124899328	89272320	20172712	33184
19	1.058621	124899328	89272320	20843040	33184
20	1.324498	124899328	89272320	21559856	33184
21	1.61958	124899328	89272320	22328024	33184
22	1.277053	124899328	89272320	23142936	33184
23	1.981289	124899328	89272320	24009648	33184
24	1.363549	124899328	89272320	24926168	33184
25	1.449659	124899328	89272320	25895976	33184
26	1.591138	124899328	89272320	26928360	33184
27	1.654989	124899328	89272320	28008752	33184
28	1.896314	124899328	89272320	29145952	33184
29	1.819928	124899328	89272320	30341480	33184
30	3.094501	124899328	89272320	15530872	33184
31	2.097948	124899328	89272320	16846528	33184
32	3.064434	124899328	89272320	18229696	33184
33	2.566417	124899328	89272320	19679664	33184
34	2.20491	124899328	89272320	21192072	33184
35	2.368957	124899328	89272320	22789312	33184
36	2.517623	124899328	89272320	24434336	33184
37	2.404879	124899328	89272320	26148992	33184
38	2.670428	124899328	89272320	27931448	33184
39	2.830536	124899328	89272320	29785784	33184
40	2.739098	124899328	89272320	31710512	33184
41	4.705492	124899328	89272320	18032696	33184
42	3.148383	124899328	89272320	20107152	33184
43	3.146445	124899328	89272320	22255656	33184
44	3.126038	124899328	89272320	24480928	33184
45	3.408485	124899328	89272320	26786480	33184
46	3.305891	124899328	89272320	29172384	33184
47	3.442371	124899328	89272320	31640392	33184
48	5.592392	124899328	89272320	18544760	33184
49	3.670214	124899328	89272320	21180760	33184
50	4.039667	124899328	89272320	23902960	33184
51	4.116375	124899328	89272320	26711392	33184
52	3.997753	124899328	89272320	29605072	33184
53	4.10628	124899328	89272320	32589856	33184
54	6.296972	124899328	89272320	19808528	33184
55	4.561547	124899328	89272320	22974272	33184
56	5.239739	124899328	89272320	26232984	33184
57	4.784597	124899328	89272320	29594160	33184
58	4.909187	124899328	89272320	33042664	33184
59	6.606886	124899328	89272320	20650608	33184
60	5.015562	124899328	89272320	24293960	33184
61	5.185428	124899328	89272320	28036688	33184
62	5.422401	124899328	89272320	31879792	33184
63	7.731707	124899328	89272320	19996488	33184
64	6.560767	124899328	89272320	24044464	33184
65	5.790747	124899328	89272320	28212048	33184
66	6.121309	124899328	89272320	32476944	33184
67	7.894605	124899328	89272320	20967144	33184
68	6.344871	124899328	89272320	25446512	33184
69	6.380186	124899328	89272320	30034840	33184
70	8.484903	124899328	89272320	19156976	33184
71	7.867896	124899328	89272320	23975216	33184
72	6.788489	124899328	89272320	28898040	33184
73	7.133438	124899328	89272320	33935816	33184
74	9.508006	124899328	89272320	23109400	33184
75	7.334377	124899328	89272320	28377696	33184
76	7.658805	124899328	89272320	33763696	33184
77	10.311884	124899328	89272320	23404168	33184
78	7.987258	124899328	89272320	29029000	33184
79	8.122816	124899328	89272320	34775112	33184
80	10.446627	124899328	89272320	24672512	33184
81	8.598619	124899328	89272320	30666192	33184
82	10.855947	124899328	89272320	21302936	33184
83	8.681771	124899328	89272320	27547456	33184
84	8.812726	124899328	89272320	33921560	33184
85	11.305189	124899328	89272320	24579728	33184
86	9.225405	124899328	89272320	31213024	33184
87	11.813796	124899328	89272320	22540120	33184
88	9.972589	124899328	89272320	29440520	33184
89	9.996229	124899328	89272320	36474360	33184
90	12.58521	124899328	89272320	27617296	33184
91	10.685393	124899328	89272320	34926416	33184
92	13.079837	124899328	89272320	26546472	33184
93	10.594089	124899328	89272320	34137816	33184
94	13.647707	124899328	89272320	26150968	33184
95	11.248301	124899328	89272320	34029312	33184
96	13.716741	124899328	89272320	26360288	33184
97	11.819374	124899328	89272320	34531424	33184
98	14.617042	124899328	89272320	27144344	33184
99	12.027619	124899328	89272320	35612904	33184
100	14.688459	124899328	89272320	28406984	33184
101	12.80263	124899328	89272320	37177344	33184
102	0.524339	124899328	89272320	29971672	33184
103	0.72807	124899328	89272320	30430392	33184
104	0.913514	124899328	89272320	31044216	33184
105	1.123319	124899328	89272320	31814472	33184
106	1.3966	124899328	89272320	32742744	33184
107	1.566879	124899328	89272320	33830464	33184
108	1.855564	124899328	89272320	35077640	33184
109	2.018875	124899328	89272320	36486200	33184
110	2.445609	124899328	89272320	38058184	33184
111	4.537533	124899328	89272320	23786456	33184
112	2.738314	124899328	89272320	25687168	33184
113	2.938476	124899328	89272320	27754096	33184
114	3.380429	124899328	89272320	29988360	33184
115	3.422616	124899328	89272320	32391224	33184
116	3.650774	124899328	89272320	34964480	33184
117	4.121093	124899328	89272320	37708312	33184
118	6.271932	124899328	89272320	24608680	33184
119	4.721366	124899328	89272320	27700312	33184
120	4.641075	124899328	89272320	30967296	33184
121	4.878747	124899328	89272320	34410320	33184
122	5.338835	124899328	89272320	38030304	33184
123	7.937102	124899328	89272320	25814072	33184
124	5.759389	124899328	89272320	29792160	33184
125	6.111524	124899328	89272320	33951224	33184
126	6.180387	124899328	89272320	38293480	33184
127	8.544587	124899328	89272320	26779144	33184
128	6.804234	124899328	89272320	31488168	33184
129	7.167785	124899328	89272320	36383040	33184
130	9.694064	124899328	89272320	25694000	33184
131	7.518645	124899328	89272320	30964136	33184
132	7.781481	124899328	89272320	36423848	33184
133	10.560012	124899328	89272320	26299424	33184
134	8.392745	124899328	89272320	32148904	33184
135	8.597102	124899328	89272320	38191800	33184
136	11.679276	124899328	89272320	28442656	33184
137	9.580934	124899328	89272320	34876416	33184
138	12.879468	124899328	89272320	25964304	33184
139	10.119652	124899328	89272320	32793288	33184
140	10.027627	124899328	89272320	39824376	33184
141	12.605564	124899328	89272320	30875880	33184
142	10.812194	124899328	89272320	38309424	33184
143	13.29634	124899328	89272320	29992824	33184
144	11.456908	124899328	89272320	37835544	33184
145	13.98518	124899328	89272320	30002024	33184
146	12.043076	124899328	89272320	38261592	33184
147	14.589294	124899328	89272320	30785568	33184
148	12.643177	124899328	89272320	39466176	33184
149	15.592157	124899328	89272320	32286968	33184
150	13.856271	124899328	89272320	41392168	33184
151	15.650204	124899328	89272320	34428840	33184
152	16.705063	124899328	89272320	28571080	33184
153	14.185002	124899328	89272320	38325128	33184
154	17.025941	124899328	89272320	32426960	33184
155	18.244249	124899328	89272320	27546640	33184
156	16.55476	124899328	89272320	37970216	33184
157	18.257719	124899328	89272320	32808384	33184
158	19.268953	124899328	89272320	28595440	33184
159	16.457622	124899328	89272320	39677920	33184
160	18.813013	124899328	89272320	34989760	33184
161	19.728779	124899328	89272320	31206960	33184
162	16.889809	124899328	89272320	42971752	33184
163	20.776603	124899328	89272320	38622192	33184
164	21.04532	124899328	89272320	35072312	33184
165	21.31584	124899328	89272320	32251024	33184
166	22.553246	124899328	89272320	29996408	33184
167	19.362282	124899328	89272320	42927880	33184
168	21.657319	124899328	89272320	39808968	33184
169	22.003155	124899328	89272320	37334616	33184
170	23.178755	124899328	89272320	35412248	33184
171	23.569507	124899328	89272320	34006256	33184
172	24.269973	124899328	89272320	33040624	33184
173	25.018356	124899328	89272320	32462232	33184
174	25.473432	124899328	89272320	32237408	33184
175	25.725703	124899328	89272320	32307920	33184
176	26.364243	124899328	89272320	32634936	33184
177	26.695002	124899328	89272320	33182600	33184
178	27.424993	124899328	89272320	33921824	33184
179	27.026612	124899328	89272320	34811648	33184
180	27.463927	124899328	89272320	35845840	33184
181	27.87625	124899328	89272320	37016056	33184
182	28.011859	124899328	89272320	38308040	33184
183	28.609296	124899328	89272320	39692496	33184
184	28.202502	124899328	89272320	41173072	33184
185	28.886572	124899328	89272320	42740552	33184
186	28.338961	124899328	89272320	44353376	33184
187	29.164317	124899328	89272320	46036520	33184
188	34.615059	124899328	89272320	33572384	33184
189	31.177658	124899328	89272320	37278312	33184
190	31.031599	124899328	89272320	40789336	33184
191	30.713638	124899328	89272320	44111368	33184
192	37.128983	124899328	89272320	33283616	33184
193	37.157625	124899328	89272320	40290360	33184
194	32.624212	124899328	89272320	44893232	33184
195	32.275538	124899328	89272320	49146064	33184
196	38.199169	124899328	89272320	38933072	33184
197	33.961026	124899328	89272320	44531328	33184
198	34.006522	124899328	89272320	49722944	33184
199	38.822942	124899328	89272320	40328168	33184
200	35.773741	124899328	89272320	46654488	33184
201	40.050848	124899328	89272320	38607768	33184
202	0.872688	124899328	89272320	48067840	33184
203	1.260839	124899328	89272320	48912600	33184
204	1.678453	124899328	89272320	50041208	33184
205	2.076283	124899328	89272320	51454928	33184
206	2.543129	124899328	89272320	53155552	33184
207	6.072142	124899328	89272320	39032328	33184
208	3.346222	124899328	89272320	41309544	33184
209	3.729567	124899328	89272320	43876512	33184
210	4.12988	124899328	89272320	46736416	33184
211	4.566232	124899328	89272320	49888352	33184
212	5.010763	124899328	89272320	53333368	33184
213	8.538272	124899328	89272320	40751656	33184
214	6.188766	124899328	89272320	44788568	33184
215	6.623019	124899328	89272320	49122592	33184
216	6.742678	124899328	89272320	53754544	33184
217	10.404768	124899328	89272320	42335584	33184
218	8.029223	124899328	89272320	47570800	33184
219	8.429692	124899328	89272320	53107688	33184
220	11.519862	124899328	89272320	42687328	33184
221	8.920386	124899328	89272320	48836536	33184
222	12.93423	124899328	89272320	39606288	33184
223	10.167998	124899328	89272320	46366872	33184
224	10.20375	124899328	89272320	53434104	33184
225	13.741821	124899328	89272320	44508072	33184
226	11.30171	124899328	89272320	52199264	33184
227	14.792677	124899328	89272320	44083136	33184
228	12.155817	124899328	89272320	52400208	33184
229	15.755474	124899328	89272320	44884560	33184
230	13.360856	124899328	89272320	53833808	33184
231	16.706009	124899328	89272320	46784904	33184
232	18.641754	124899328	89272320	41017696	33184
233	14.976079	124899328	89272320	50936400	33184
234	18.337311	124899328	89272320	45264704	33184
235	19.529946	124899328	89272320	40692352	33184
236	16.343395	124899328	89272320	51586008	33184
237	20.318969	124899328	89272320	46821456	33184
238	20.84112	124899328	89272320	43054584	33184
239	17.695959	124899328	89272320	54936608	33184
240	20.668463	124899328	89272320	50761088	33184
241	22.04594	124899328	89272320	47478336	33184
242	23.117836	124899328	89272320	44980600	33184
243	23.950079	124899328	89272320	43131160	33184
244	24.58996	124899328	89272320	41908104	33184
245	25.102369	124899328	89272320	41196808	33184
246	21.224626	124899328	89272320	55423512	33184
247	24.583337	124899328	89272320	53616280	33184
248	25.313123	124899328	89272320	52368976	33184
249	26.458634	124899328	89272320	51620456	33184
250	26.296736	124899328	89272320	51320176	33184
251	27.07874	124899328	89272320	51427392	33184
252	29.054677	124899328	89272320	51875248	33184
253	27.928587	124899328	89272320	52614496	33184
254	28.028796	124899328	89272320	53600824	33184
255	28.913852	124899328	89272320	54815040	33184
256	29.251411	124899328	89272320	56229472	33184
257	35.083783	124899328	89272320	43625760	33184
258	31.863036	124899328	89272320	47294704	33184
259	32.483664	124899328	89272320	50876704	33184
260	31.722115	124899328	89272320	54319024	33184
261	37.970649	124899328	89272320	43685896	33184
262	37.159378	124899328	89272320	51014032	33184
263	38.133743	124899328	89272320	55949464	33184
264	53.694807	117678080	81932288	22547552	33184
265	34.894863	117678080	81932288	30359016	33184
266	34.897782	117678080	81932288	22220912	33184
267	36.472156	117678080	81932288	31353088	33184
268	36.548208	117678080	81932288	24068568	33184
269	37.091534	117678080	81932288	33898184	33184
270	37.145594	117678080	81932288	27299600	33184
271	37.884239	117678080	81932288	37858424	33184
272	38.074029	117678080	81932288	31808160	33184
273	39.292805	117678080	81932288	43118336	33184
274	39.175193	117678080	81932288	37409440	33184
275	44.728913	117678080	81932288	36790240	33184
276	39.758535	117678080	81932288	49065544	33184
277	40.398658	117678080	81932288	44425608	33184
278	45.695268	117678080	81932288	44925920	33184
279	43.996666	117678080	81932288	58341864	33184
280	53.740824	117678080	81932288	54418600	33184
281	51.170893	117678080	81932288	25798144	33184
282	48.279684	117678080	81932288	27697664	33184
283	49.217986	117678080	81932288	29974712	33184
284	49.714105	117678080	81932288	32770040	33184
285	50.093807	117678080	81932288	35931712	33184
286	52.140893	117678080	81932288	39490056	33184
287	51.375205	117678080	81932288	43450592	33184
288	51.581472	117678080	81932288	47802320	33184
289	58.501971	119029760	83505152	52511320	33184
290	72.702199	120922112	86650880	30007936	33184
291	54.717884	122003456	86650880	34977432	33184
292	55.078993	122003456	86650880	40687032	33184
293	55.404676	122003456	86650880	46833360	33184
294	60.657987	122273792	86650880	40785688	33184
295	54.712952	122273792	86650880	47681720	33184
296	55.65028	122273792	86650880	55024136	33184
297	56.706576	122273792	86650880	62732256	33184
298	68.704636	125517824	90320896	58287544	33184
299	79.123386	125116416	91369472	36990896	33184
300	63.137073	126464000	91369472	32521456	33184
301	58.77697	126464000	91369472	41848496	33184
302	1.260515	126464000	91369472	39202472	33184
303	1.800695	126464000	91369472	40424072	33184
304	2.391067	126464000	91369472	42055104	33184
305	2.993622	126464000	91369472	44096816	33184
306	3.592106	126464000	91369472	46550856	33184
307	4.392831	126464000	91369472	49418344	33184
308	7.435809	126464000	91369472	38594480	33184
309	5.59335	126464000	91369472	42291504	33184
310	5.951564	126464000	91369472	46408400	33184
311	6.606288	126464000	91369472	50941464	33184
312	8.143577	126734336	91369472	39920768	33184
313	7.845732	126734336	91369472	45293392	33184
314	8.843398	126734336	91369472	51087704	33184
315	9.783589	126734336	91369472	41147600	33184
316	9.670689	126734336	91369472	47790016	33184
317	11.148837	126734336	91369472	39146968	33184
318	11.085217	126734336	91369472	46644312	33184
319	12.663134	126734336	91369472	39020464	33184
320	12.091357	126734336	91369472	47373512	33184
321	13.823352	126734336	91369472	40506864	33184
322	13.642795	126734336	91369472	49721352	33184
323	14.870704	126734336	91369472	43418416	33184
324	14.995781	126734336	91369472	53499328	33184
325	16.056837	126734336	91369472	47552760	33184
326	17.77089	126734336	91369472	42851096	33184
327	18.890252	126734336	91369472	39224440	33184
328	17.901089	126734336	91369472	51053840	33184
329	18.786528	126734336	91369472	47170792	33184
330	20.275462	126734336	91369472	44292240	33184
331	20.834435	126734336	91369472	42255528	33184
332	22.094578	126734336	91369472	40964456	33184
333	23.517783	126734336	91369472	40303712	33184
334	23.362116	126734336	91369472	40167608	33184
335	24.673424	126734336	91369472	40513112	33184
336	25.361693	126734336	91369472	41250816	33184
337	25.517423	126734336	91369472	42342056	33184
338	25.754518	126734336	91369472	43754608	33184
339	26.763297	126734336	91369472	45393832	33184
340	27.41196	126734336	91369472	47297984	33184
341	27.145952	126734336	91369472	49386872	33184
342	27.372793	126734336	91369472	51681032	33184
343	28.048575	126734336	91369472	54104184	33184
344	31.604357	126734336	91369472	42484488	33184
345	31.518087	126734336	91369472	47142344	33184
346	30.386466	127004672	91369472	51612064	33184
347	33.815795	127004672	91369472	42034800	33184
348	35.771806	127815680	92418048	50509208	33184
349	32.992926	128086016	92418048	56440712	33184
350	36.65083	128086016	92942336	47774280	33184
351	34.023342	128086016	92942336	54887312	33184
352	37.659508	128356352	92942336	47602240	33184
353	38.615017	128626688	92942336	58407000	33184
354	39.207585	128626688	92942336	52349408	33184
355	44.530671	128626688	92942336	51496416	33184
356	41.544399	128626688	92942336	63526136	33184
357	41.376777	128626688	92942336	58903840	33184
358	51.302126	128626688	92942336	59466296	33184
359	67.819318	125210624	91369472	28797880	33184
360	47.469995	126558208	91369472	29273912	33184
361	48.008872	126558208	91369472	31114472	33184
362	48.932473	126558208	91369472	33387400	33184
363	49.862284	126558208	91369472	36184456	33184
364	45.912952	126558208	91369472	52091144	33184
365	46.124593	126558208	91369472	50483520	33184
366	46.554223	126558208	91369472	49739296	33184
367	52.847723	127098880	91369472	54740816	33184
368	53.21189	127098880	91369472	60017176	33184
369	58.181669	127098880	91369472	53260528	33184
370	60.272137	127639552	92418048	59543936	33184
371	74.177296	126644224	92942336	35718784	33184
372	60.420669	127991808	92942336	29651168	33184
373	56.485843	127991808	92942336	37411056	33184
374	57.545899	127991808	92942336	45736952	33184
375	62.778622	127991808	92942336	41957696	33184
376	59.620189	128532480	92942336	51249384	33184
377	60.167419	128532480	92942336	61058976	33184
378	65.287164	128532480	92942336	58855512	33184
379	86.510892	123039744	89796608	21533352	33184
380	62.808033	124928000	89796608	32390528	33184
381	67.115648	125468672	89796608	31660904	33184
382	62.834288	125468672	89796608	44041472	33184
383	69.502175	125468672	89796608	44386664	33184
384	70.299913	125468672	89796608	45210640	33184
385	65.569869	125468672	89796608	59126040	33184
386	91.825388	126550016	91369472	61057120	33184
387	75.042659	122413056	87175168	32913320	33184
388	72.239853	122413056	87175168	35868720	33184
389	72.778436	122413056	87175168	39330880	33184
390	74.18382	122683392	87175168	43377120	33184
391	74.518884	122683392	87175168	47919248	33184
392	75.204631	122683392	87175168	52943400	33184
393	107.325384	124203008	90320896	29569408	33184
394	81.334376	130957312	96088064	35206136	33184
395	78.866186	136634368	102379520	41836784	33184
396	80.699598	137445376	102379520	49007648	33184
397	82.257971	137445376	102379520	56689176	33184
398	80.595291	137445376	102379520	64881040	33184
399	80.674721	137986048	102379520	73629392	33184
400	106.723279	122462208	88223744	34271520	33184
401	85.557238	123809792	88223744	30218672	33184
402	1.685599	123809792	88223744	40938400	33184
403	2.391619	123809792	88223744	42566224	33184
404	3.202018	123809792	88223744	44738976	33184
405	7.896206	123809792	88223744	34168784	33184
406	4.852635	123809792	88223744	37435392	33184
407	5.723255	123809792	88223744	41250696	33184
408	6.449556	123809792	88223744	45615480	33184
409	8.833102	123809792	88223744	35446032	33184
410	7.914018	123809792	88223744	40915000	33184
411	9.108038	123809792	88223744	46942104	33184
412	10.285786	123809792	88223744	37452664	33184
413	10.41237	123809792	88223744	44589904	33184
414	11.885476	123809792	88223744	36532360	33184
415	12.026461	123809792	88223744	44781016	33184
416	14.005173	123809792	88223744	37825088	33184
417	13.432255	123809792	88223744	47194392	33184
418	15.028598	123809792	88223744	41034240	33184
419	16.564337	123809792	88223744	36290624	33184
420	16.064025	123809792	88223744	47360624	33184
421	18.094012	123809792	88223744	42851864	33184
422	18.794198	123809792	88223744	39536800	33184
423	20.574487	123809792	88223744	37261216	33184
424	22.02489	123809792	88223744	35874632	33184
425	19.965796	123809792	88223744	49779472	33184
426	21.766395	123809792	88223744	47904808	33184
427	22.597168	123809792	88223744	46774848	33184
428	23.680168	123809792	88223744	46369256	33184
429	24.214909	123809792	88223744	46600464	33184
430	25.832159	123809792	88223744	47389880	33184
431	25.752565	123809792	88223744	48648128	33184
432	26.632943	123809792	88223744	50312744	33184
433	30.084111	123809792	88223744	38118704	33184
434	29.669967	123809792	88223744	42436600	33184
435	30.187378	123809792	88223744	46745440	33184
436	33.388113	123809792	88223744	37226064	33184
437	34.609464	123809792	88223744	45584776	33184
438	32.299173	123809792	88223744	51613848	33184
439	35.251087	123809792	88223744	43296912	33184
440	38.153522	123809792	88223744	53472752	33184
441	37.75546	123809792	88223744	46974408	33184
442	39.466933	123809792	88223744	58319352	33184
443	39.107445	123809792	88223744	52655112	33184
444	41.47777	123809792	88223744	48549040	33184
445	41.109065	123809792	88223744	61597928	33184
446	42.038189	123809792	88223744	57510912	33184
447	44.134226	123809792	88223744	54815464	33184
448	49.199943	123809792	88223744	57032200	33184
449	65.663334	126783488	91369472	59756616	33184
450	58.225603	126783488	91369472	30891040	33184
451	50.972488	126783488	91369472	34902320	33184
452	53.015544	126783488	91369472	39401664	33184
453	52.45684	126783488	91369472	44521848	33184
454	53.754695	126783488	91369472	50205392	33184
455	58.881446	126783488	91369472	43915712	33184
456	55.541352	127053824	91369472	50826368	33184
457	55.717148	127053824	91369472	58334680	33184
458	58.62277	127053824	91369472	66485904	33184
459	87.044268	126099456	91893760	31383048	33184
460	59.59357	127447040	91893760	39988192	33184
461	64.390949	127447040	91893760	37420840	33184
462	60.283433	127447040	91893760	47965928	33184
463	65.489748	127447040	91893760	46571832	33184
464	62.711377	127447040	91893760	58387632	33184
465	67.488061	127447040	91893760	58276104	33184
466	68.533564	127447040	91893760	58744368	33184
467	96.478221	129380352	95563776	28511312	33184
468	68.745851	133701632	98709504	42117184	33184
469	72.893043	139378688	105000960	44428904	33184
470	73.947497	145326080	111292416	47433368	33184
471	75.138942	151003136	117583872	51022264	33184
472	75.365816	156950528	123875328	55230936	33184
473	76.505546	162627584	130166784	60066224	33184
474	79.254725	168574976	136458240	65554408	33184
475	98.39293	109330432	74067968	35359136	33184
476	77.318054	109600768	74067968	42169024	33184
477	78.661957	109600768	74067968	49556768	33184
478	85.527205	113655808	78262272	44973400	33184
479	81.106506	119603200	84029440	53585232	33184
480	84.703198	125280256	89796608	62893440	33184
481	112.229715	108249088	74592256	27019112	33184
482	84.56391	109596672	74592256	36599016	33184
483	88.09296	110137344	74592256	35190008	33184
484	84.631023	110137344	74592256	47030272	33184
485	86.984703	115003392	79310848	59514120	33184
486	94.600607	122572800	87699456	60069688	33184
487	119.585071	118116352	82980864	32040480	33184
488	89.076597	118116352	82980864	46482632	33184
489	94.704588	118116352	82980864	48973216	33184
490	94.486364	118657024	82980864	52099216	33184
491	93.763155	124334080	88748032	68488208	33184
492	100.253365	131903488	96612352	72889272	33184
493	129.311833	122748928	87699456	31220376	33184
494	98.990086	122748928	87699456	36961408	33184
495	95.548746	122748928	87699456	55934384	33184
496	100.216361	123289600	87699456	62980640	33184
497	103.169833	127614976	92418048	70739920	33184
498	134.551843	121352192	87699456	31735424	33184
499	103.640884	122970112	87699456	39627576	33184
500	105.401163	122970112	87699456	49352784	33184
501	109.364383	122970112	87699456	47086632	33184
502	2.095803	123781120	88223744	58589368	33184
503	3.080832	123781120	88223744	60585256	33184
504	4.083682	123781120	88223744	63254336	33184
505	5.092819	123781120	88223744	66588752	33184
506	10.056859	125673472	90320896	56711096	33184
507	7.700058	125673472	90320896	61385216	33184
508	8.707225	125673472	90320896	66742760	33184
509	11.752437	126214144	90845184	57231312	33184
510	11.780804	126214144	90845184	63935304	33184
511	18.639757	126214144	90845184	55896536	33184
512	21.912872	118349824	82980864	19459096	33184
513	13.579844	118349824	82980864	28196592	33184
514	14.367478	118349824	82980864	21638304	33184
515	14.693741	118349824	82980864	31739056	33184
516	16.087072	118349824	82980864	26045544	33184
517	17.560983	118349824	82980864	21802920	33184
518	19.18888	118349824	82980864	18865096	33184
519	18.778751	118349824	82980864	31694560	33184
520	20.048943	118349824	82980864	28768864	33184
521	21.740937	118349824	82980864	26914672	33184
522	22.745139	118349824	82980864	26026840	33184
523	23.996929	118349824	82980864	25929832	33184
524	25.391658	118349824	82980864	26557344	33184
525	25.843813	118349824	82980864	27782048	33184
526	26.770244	118349824	82980864	29577504	33184
527	27.116537	118349824	82980864	31798560	33184
528	30.808867	118349824	82980864	20214312	33184
529	30.680823	118349824	82980864	25119944	33184
530	32.152318	118349824	82980864	30075936	33184
531	35.28689	118349824	82980864	21064456	33184
532	36.229937	118349824	82980864	30529744	33184
533	37.882848	118349824	82980864	23757960	33184
534	38.919561	118349824	82980864	34635888	33184
535	39.719663	118349824	82980864	29015200	33184
536	45.104979	118349824	82980864	28663096	33184
537	41.80879	118349824	82980864	41507720	33184
538	41.745113	118349824	82980864	37670744	33184
539	48.054202	118349824	82980864	39467888	33184
540	48.316542	118349824	82980864	41832688	33184
541	49.81637	118616064	82980864	44888264	33184
542	52.688991	119156736	83505152	48643296	33184
543	65.003532	119697408	84553728	53127808	33184
544	65.756766	119697408	84553728	30740856	33184
545	53.905637	119697408	84553728	36696152	33184
546	54.906278	119697408	84553728	43317320	33184
547	60.384993	119697408	84553728	38127376	33184
548	57.316352	119697408	84553728	46212872	33184
549	57.379068	119697408	84553728	54967328	33184
550	64.599269	121049088	85602304	51940360	33184
551	62.315496	125104128	89796608	62129456	33184
552	91.146873	126480384	92418048	29669832	33184
553	63.841847	127827968	92418048	40802184	33184
554	67.787318	127827968	92418048	40627384	33184
555	69.415977	127827968	92418048	41264312	33184
556	66.001085	127827968	92418048	55123696	33184
557	71.707103	127827968	92418048	57194688	33184
558	73.032703	128098304	92418048	60048912	33184
559	79.123124	130260992	95039488	63550320	33184
560	94.618913	130056192	94515200	34298136	33184
561	75.839715	130056192	94515200	39427440	33184
562	76.541963	130056192	94515200	45182216	33184
563	77.192554	130056192	94515200	51673008	33184
564	79.573444	130056192	94515200	58949816	33184
565	80.005732	130056192	94515200	67091488	33184
566	102.080492	133029888	97660928	63405176	33184
567	91.921512	126545920	91369472	38731432	33184
568	88.625988	126545920	91369472	36388616	33184
569	84.152296	126545920	91369472	47442688	33184
570	85.742293	126545920	91369472	59220424	33184
571	90.502038	126545920	91369472	59135640	33184
572	97.867622	128167936	92942336	72379600	33184
573	114.942977	129646592	94515200	28570592	33184
574	89.14593	129646592	94515200	43316736	33184
575	95.78131	129646592	94515200	46338200	33184
576	95.976798	129646592	94515200	50044648	33184
577	93.745884	129646592	94515200	67144024	33184
578	124.305106	128815104	93466624	25691752	33184
579	101.452188	128815104	93466624	31853192	33184
580	104.598284	128815104	93466624	38660896	33184
581	102.39939	128815104	93466624	46265056	33184
582	102.997517	128815104	93466624	54596896	33184
583	136.798247	126468096	90845184	35528272	33184
584	104.911592	126468096	90845184	45359576	33184
585	107.506534	126468096	90845184	56007848	33184
586	111.732475	126468096	90845184	54864888	33184
587	109.453065	132415488	97136640	67079608	33184
588	139.599267	129855488	94515200	28821472	33184
589	111.347695	130125824	94515200	42785104	33184
590	116.731688	130125824	94515200	44706856	33184
591	113.558772	130125824	94515200	59992336	33184
592	125.292179	130125824	94515200	63497216	33184
593	145.529896	127512576	91893760	38254024	33184
594	121.902974	127512576	91893760	43356656	33184
595	118.785931	127512576	91893760	61781848	33184
596	125.182297	128593920	93466624	68428832	33184
597	155.440863	133677056	98185216	26920768	33184
598	127.522357	133677056	98185216	35247032	33184
599	127.383552	133677056	98185216	44335264	33184
600	130.110073	133677056	98185216	54134984	33184
601	157.229163	126685184	92418048	32911992	33184
602	2.429611	128032768	92418048	44258040	33184
603	3.586501	128032768	92418048	46650784	33184
604	8.603904	128032768	92418048	36728328	33184
605	6.226703	128032768	92418048	40708056	33184
606	7.144247	128032768	92418048	45499032	33184
607	10.076784	128032768	92418048	36421168	33184
608	9.663516	129556480	92418048	42803624	33184
609	10.589179	129556480	92418048	49989376	33184
610	13.070622	129556480	92418048	41627560	33184
611	13.815442	129556480	92418048	50427488	33184
612	15.028652	129556480	92418048	43632664	33184
613	16.902374	129556480	92418048	38558792	33184
614	16.435572	129556480	92418048	49791112	33184
615	18.375574	129556480	92418048	45526288	33184
616	19.65512	129556480	92418048	42612112	33184
617	21.555892	129556480	92418048	40948336	33184
618	23.298615	129556480	92418048	40307936	33184
619	23.9774	129556480	92418048	40601560	33184
620	25.344186	129556480	92418048	41634720	33184
621	26.624226	129556480	92418048	43351048	33184
622	27.401041	129556480	92418048	45673792	33184
623	28.123066	129556480	92418048	48477616	33184
624	32.418071	129556480	92418048	37816160	33184
625	34.572866	129556480	92418048	45617976	33184
626	32.006423	129556480	92418048	51292160	33184
627	36.147338	129556480	92418048	43016424	33184
628	38.481008	129556480	92418048	53313032	33184
629	39.30939	129556480	92418048	47272688	33184
630	40.955741	129556480	92418048	59178112	33184
631	41.402304	129556480	92418048	54264440	33184
632	42.979332	129556480	92418048	50958944	33184
633	48.349471	129556480	92418048	52672152	33184
634	49.746783	129556480	92418048	55219280	33184
635	51.488774	129556480	92418048	58518664	33184
636	71.279778	133066752	96088064	62668480	33184
637	57.81308	133066752	96088064	34113144	33184
638	54.020358	133066752	96088064	40103864	33184
639	59.859155	133066752	96088064	34284880	33184
640	56.363984	133066752	96088064	41731664	33184
641	59.768094	133066752	96088064	50162136	33184
642	64.182393	133066752	96088064	46794352	33184
643	61.054783	133066752	96088064	56815112	33184
644	60.619879	133066752	96088064	67784408	33184
645	92.248694	129802240	93990912	20944848	33184
646	67.751534	131149824	93990912	32750576	33184
647	69.203181	131149824	93990912	33660984	33184
648	70.993972	131149824	93990912	35473184	33184
649	68.34659	131149824	93990912	50717920	33184
650	74.069856	131149824	93990912	54239048	33184
651	74.634744	131149824	93990912	58563712	33184
652	98.139148	131960832	95039488	63786920	33184
653	78.05242	129662976	92418048	38084912	33184
654	78.164927	129662976	92418048	44950840	33184
655	88.172122	129662976	92418048	40208912	33184
656	80.276953	129662976	92418048	48868520	33184
657	82.736543	129662976	92418048	58376712	33184
658	91.059347	130473984	93466624	68741408	33184
659	106.313056	128966656	91893760	36168656	33184
660	90.440027	128966656	91893760	35621160	33184
661	87.661291	128966656	91893760	48471272	33184
662	93.268458	128966656	91893760	49644304	33184
663	88.579962	128966656	91893760	64297984	33184
664	119.322982	132751360	95563776	67197232	33184
665	98.376669	130576384	93466624	37386808	33184
666	97.840715	130576384	93466624	42122088	33184
667	100.222153	130576384	93466624	47678704	33184
668	101.258205	130576384	93466624	54173480	33184
669	107.339946	131117056	94515200	61410848	33184
670	128.19221	129503232	92418048	38395248	33184
671	105.521596	129503232	92418048	47389680	33184
672	106.443551	129503232	92418048	57339104	33184
673	111.765014	129503232	92418048	55640544	33184
674	109.857085	133287936	96612352	67272176	33184
675	143.980087	137003008	99758080	34681656	33184
676	110.203299	137003008	99758080	48165792	33184
677	116.113124	137003008	99758080	50013480	33184
678	113.113458	137003008	99758080	65233904	33184
679	119.507269	137543680	100806656	68790376	33184
680	149.269309	135069696	98185216	38652984	33184
681	121.647733	135069696	98185216	43973120	33184
682	119.034624	135069696	98185216	62783904	33184
683	123.994124	135069696	98185216	69948152	33184
684	136.628843	140206080	103428096	77970544	33184
685	149.46199	138084352	100806656	37639376	33184
686	130.061103	138084352	100806656	47488064	33184
687	129.97876	138084352	100806656	58336568	33184
688	132.83533	138084352	100806656	70201416	33184
689	171.130724	132829184	95563776	37761272	33184
690	137.562429	132829184	95563776	51185616	33184
691	134.740052	132829184	95563776	65456528	33184
692	143.915225	136884224	99758080	68155848	33184
693	168.034256	134795264	98185216	31601296	33184
694	139.600497	134795264	98185216	48610048	33184
695	144.718051	134795264	98185216	54003560	33184
696	152.067605	135335936	98185216	60311232	33184
697	174.219618	129576960	92418048	39039864	33184
698	144.994983	129576960	92418048	59656352	33184
699	151.612441	130117632	92942336	68685216	33184
700	165.798983	140931072	103952384	78691184	33184
701	178.756448	141545472	104476672	41088176	33184
702	2.958538	141545472	104476672	53619520	33184
703	4.288183	141545472	104476672	56380856	33184
704	5.67852	141545472	104476672	60053384	33184
705	10.251063	141545472	104476672	50938440	33184
706	8.148132	141545472	104476672	56456816	33184
707	9.803296	141545472	104476672	62915560	33184
708	11.861968	141545472	104476672	54513176	33184
709	12.462649	141545472	104476672	62818792	33184
710	14.281712	141545472	104476672	55944976	33184
711	16.383918	141545472	104476672	50951264	33184
712	16.655198	141545472	104476672	62027616	33184
713	18.329701	141545472	104476672	58033448	33184
714	20.215185	141545472	104476672	55602272	33184
715	22.428239	141545472	104476672	54403264	33184
716	23.648333	141545472	104476672	54383600	33184
717	25.329849	141545472	104476672	55331184	33184
718	26.24765	141545472	104476672	57074728	33184
719	27.489914	141545472	104476672	59542816	33184
720	28.946109	141545472	104476672	62598032	33184
721	32.392787	141545472	104476672	52344976	33184
722	34.578063	141545472	104476672	60520864	33184
723	32.571677	141545472	104476672	66774120	33184
724	36.644096	141545472	104476672	59028712	33184
725	38.627186	141545472	104476672	70172808	33184
726	39.254721	141545472	104476672	64694432	33184
727	42.687849	141545472	104476672	61097392	33184
728	47.260521	141545472	104476672	62366120	33184
729	44.962011	141545472	104476672	77102768	33184
730	45.58129	141545472	104476672	75039456	33184
731	46.888156	141545472	104476672	74494632	33184
732	65.217875	142086144	105000960	79741400	33184
733	67.641631	132796416	96088064	32721160	33184
734	57.055396	132796416	96088064	39901024	33184
735	62.040982	132796416	96088064	35293784	33184
736	58.932458	132796416	96088064	44265584	33184
737	64.258199	132796416	96088064	41632680	33184
738	60.99249	132796416	96088064	52479464	33184
739	67.877153	132796416	96088064	51825280	33184
740	65.77875	133337088	96088064	64733440	33184
741	95.909142	127692800	91893760	35332824	33184
742	70.960124	129040384	91893760	37058152	33184
743	72.79897	129040384	91893760	40191608	33184
744	75.013172	129040384	91893760	44471568	33184
745	76.635169	129040384	91893760	49636720	33184
746	77.54757	129040384	91893760	55809752	33184
747	80.746475	129581056	92942336	62959960	33184
748	108.661214	133636096	98185216	39882232	33184
749	85.505614	135258112	98185216	35657376	33184
750	83.460981	135258112	98185216	45794512	33184
751	84.146358	135258112	98185216	56924048	33184
752	90.860843	135258112	98185216	56476208	33184
753	87.648249	135258112	98185216	69527680	33184
754	118.726282	132976640	97660928	22994656	33184
755	90.8981	134324224	97660928	37153176	33184
756	95.928706	134324224	97660928	40616424	33184
757	98.516327	134324224	97660928	45115576	33184
758	97.756221	134324224	97660928	50644688	33184
759	98.597309	134324224	97660928	69816872	33184
760	131.606462	131698688	95039488	34517688	33184
761	102.279747	131698688	95039488	43045712	33184
762	105.031599	131698688	95039488	52583464	33184
763	105.148296	131698688	95039488	63159248	33184
764	112.31381	133861376	97136640	62065496	33184
765	140.277274	137617408	100806656	42120400	33184
766	115.026027	137617408	100806656	43247672	33184
767	112.247489	137617408	100806656	57860408	33184
768	117.264544	137617408	100806656	60775944	33184
769	115.048449	138428416	101330944	77387160	33184
770	146.72345	133804032	96612352	29861248	33184
771	122.604592	133804032	96612352	35900736	33184
772	122.762047	133804032	96612352	42958728	33184
773	120.508006	133804032	96612352	63648080	33184
774	154.615427	126529536	89272320	29106904	33184
775	128.708734	126529536	89272320	39314848	33184
776	129.924918	126529536	89272320	50592808	33184
777	132.076091	126529536	89272320	62949560	33184
778	169.311882	128139264	90845184	36248328	33184
779	135.254987	128139264	90845184	50541768	33184
780	137.250326	128139264	90845184	65827184	33184
781	145.382002	137060352	100282368	69499120	33184
782	166.473648	129900544	92942336	33689176	33184
783	146.040815	130170880	92942336	39452304	33184
784	141.522448	130170880	92942336	58864104	33184
785	152.241072	130170880	92942336	66752000	33184
786	176.999507	129642496	92418048	47031520	33184
787	149.909763	129642496	92418048	56930696	33184
788	151.434326	130183168	93466624	67910448	33184
789	187.907339	135102464	100282368	31719672	33184
790	156.381222	136450048	100282368	43676144	33184
791	156.823469	136450048	100282368	57838680	33184
792	157.986112	137531392	100806656	72967896	33184
793	189.183574	131825664	94515200	38064296	33184
794	166.585081	131825664	94515200	42722776	33184
795	163.546404	131825664	94515200	60943936	33184
796	198.360114	130273280	93466624	36071856	33184
797	172.64273	130273280	93466624	43899016	33184
798	168.685844	130273280	93466624	65403360	33184
799	209.610888	133705728	98185216	30970544	33184
800	176.03345	135053312	98185216	41192648	33184
801	174.339462	135053312	98185216	66043712	33184
802	3.47897	137756672	100806656	79986272	33184
803	12.120778	139649024	102379520	70276000	33184
804	8.487969	139649024	102379520	74507352	33184
805	13.697589	139649024	102379520	79825344	33184
806	25.838053	141271040	104476672	71657320	33184
807	18.173363	137601024	100806656	35015952	33184
808	13.291212	137601024	100806656	43503240	33184
809	14.500785	137601024	100806656	36811208	33184
810	16.679667	137601024	100806656	32036984	33184
811	17.252234	137601024	100806656	43714184	33184
812	19.07816	137601024	100806656	40151672	33184
813	21.431032	137601024	100806656	38157824	33184
814	23.139162	137601024	100806656	37498872	33184
815	25.438053	137601024	100806656	38029488	33184
816	26.374211	137601024	100806656	39553000	33184
817	27.504203	137601024	100806656	41931824	33184
818	29.438342	137601024	100806656	45029176	33184
819	32.677538	137601024	100806656	34604824	33184
820	33.735384	137601024	100806656	40860992	33184
821	37.462839	137601024	100806656	33617400	33184
822	38.892711	137601024	100806656	44752992	33184
823	40.277967	137601024	100806656	39667504	33184
824	46.70579	137601024	100806656	40327376	33184
825	47.509575	137601024	100806656	41925784	33184
826	46.062755	137601024	100806656	57169432	33184
827	46.251267	137601024	100806656	55685928	33184
828	48.454042	137601024	100806656	55693296	33184
829	54.422082	137601024	100806656	61728752	33184
830	60.499102	137601024	100806656	56200632	33184
831	57.539168	138141696	100806656	64328568	33184
832	58.510287	138682368	101330944	73535528	33184
833	64.640652	139223040	102379520	71207616	33184
834	75.767023	143007744	106573824	82579728	33184
835	83.10326	139776000	103428096	27935072	33184
836	65.281037	139776000	103428096	41484424	33184
837	72.459928	140046336	103428096	43640856	33184
838	72.312006	140046336	103428096	46818032	33184
839	76.039571	140046336	103428096	51162160	33184
840	76.999539	140046336	103428096	56616912	33184
841	83.394217	140046336	103428096	63086904	33184
842	101.796108	129564672	92418048	38934664	33184
843	85.198075	129564672	92418048	35171456	33184
844	82.382896	129564672	92418048	45020192	33184
845	82.899936	129564672	92418048	56018880	33184
846	89.706937	129564672	92418048	55489352	33184
847	89.157961	130105344	92942336	68642072	33184
848	120.921447	134311936	97660928	38364760	33184
849	95.025213	134311936	97660928	41312416	33184
850	96.85026	134311936	97660928	45337832	33184
851	98.873984	134311936	97660928	50370464	33184
852	98.788924	134311936	97660928	69164832	33184
853	112.620021	135122944	98185216	76525928	33184
854	123.249671	135335936	98185216	37115472	33184
855	104.905845	135335936	98185216	46700304	33184
856	106.06834	135335936	98185216	57417432	33184
857	113.284443	135335936	98185216	56658688	33184
858	115.375553	135876608	98709504	69704640	33184
859	139.120509	134373376	97660928	38190960	33184
860	118.074357	134373376	97660928	40799128	33184
861	114.69803	134373376	97660928	57202672	33184
862	121.253686	134373376	97660928	62218424	33184
863	147.812375	134758400	99758080	33556864	33184
864	123.633031	136646656	99758080	39748480	33184
865	127.626071	136646656	99758080	48118792	33184
866	127.616328	136646656	99758080	57608032	33184
867	156.944029	137457664	100282368	68272296	33184
868	138.832939	132173824	95039488	35710208	33184
869	131.949248	132173824	95039488	48671040	33184
870	133.19014	132173824	95039488	62811728	33184
871	157.286521	136769536	99758080	65430376	33184
872	151.448272	136499200	99233792	36068000	33184
873	139.290973	136499200	99233792	53608744	33184
874	145.28199	136499200	99233792	59736288	33184
875	156.687027	138121216	101330944	79649904	33184
876	172.463035	136404992	99233792	40794640	33184
877	149.478504	136404992	99233792	50370160	33184
878	151.641418	136404992	99233792	61084808	33184
879	183.782514	136228864	100806656	37531008	33184
880	154.237778	137576448	100806656	49476208	33184
881	160.58573	137576448	100806656	51186176	33184
882	160.182819	138387456	101330944	66575960	33184
883	203.776469	134787072	97660928	40348752	33184
884	162.107858	134787072	97660928	58045680	33184
885	167.621389	135598080	98709504	64349440	33184
886	200.799917	142675968	107098112	33295064	33184
887	172.510596	144023552	107098112	40748928	33184
888	168.001674	144023552	107098112	63153576	33184
889	177.181724	144023552	107098112	74188736	33184
890	214.511868	134279168	97136640	41450256	33184
891	179.4666	134279168	97136640	54800840	33184
892	181.138146	139956224	103428096	69314904	33184
893	215.058432	142422016	105525248	30273272	33184
894	183.444792	142692352	105525248	47069256	33184
895	185.8558	142692352	105525248	65133848	33184
896	221.994964	132689920	95563776	36911936	33184
897	192.425145	132689920	95563776	44909760	33184
898	190.645004	132689920	95563776	66493800	33184
899	227.130508	139616256	102903808	41278256	33184
900	201.886623	139616256	102903808	52804184	33184
901	199.278079	139616256	102903808	65374920	33184
902	7.965935	134262784	97136640	31175240	33184
903	5.504319	134262784	97136640	34745112	33184
904	7.257858	134262784	97136640	39507616	33184
905	11.335372	134262784	97136640	31416600	33184
906	10.606644	134262784	97136640	38569656	33184
907	13.390021	134262784	97136640	31506760	33184
908	14.090037	134262784	97136640	41049984	33184
909	16.635213	134262784	97136640	36052528	33184
910	19.291662	134262784	97136640	32919480	33184
911	19.171149	134262784	97136640	46077096	33184
912	21.882165	134262784	97136640	44055712	33184
913	23.560145	134262784	97136640	43469656	33184
914	25.195741	134262784	97136640	44172824	33184
915	27.474712	134262784	97136640	45969320	33184
916	31.919517	134262784	97136640	34666152	33184
917	31.611139	134262784	97136640	40196808	33184
918	32.743542	134262784	97136640	46215176	33184
919	36.950346	134262784	97136640	38451584	33184
920	39.91637	134262784	97136640	33823360	33184
921	40.988155	134262784	97136640	46522992	33184
922	42.675036	134262784	97136640	43195016	33184
923	50.282887	134262784	97136640	45839448	33184
924	50.995624	134262784	97136640	49536672	33184
925	52.829289	134262784	97136640	54410360	33184
926	54.923962	134262784	97136640	60542240	33184
927	57.044276	134262784	97136640	67837944	33184
928	62.550283	134262784	97136640	63743144	33184
929	88.474504	134475776	98709504	27297032	33184
930	61.22426	135823360	98709504	37382104	33184
931	67.690825	135823360	98709504	37024760	33184
932	65.212145	135823360	98709504	50417112	33184
933	71.90571	135823360	98709504	52536664	33184
934	73.149606	135823360	98709504	55878968	33184
935	74.595288	135823360	98709504	60405152	33184
936	77.494258	135823360	98709504	66165448	33184
937	104.54281	134488064	98709504	40018504	33184
938	85.265819	135835648	98709504	34890664	33184
939	80.899453	135835648	98709504	44352576	33184
940	85.545302	135835648	98709504	55066384	33184
941	89.535303	135835648	98709504	54518344	33184
942	88.003568	135835648	98709504	67801664	33184
943	117.703536	136916992	99758080	69789744	33184
944	95.418925	137576448	100282368	36694744	33184
945	97.70376	137576448	100282368	41046024	33184
946	99.283285	137576448	100282368	46756400	33184
947	101.721008	137576448	100282368	53537456	33184
948	108.154758	137576448	100282368	61553248	33184
949	130.746219	131121152	93990912	39602960	33184
950	106.122233	131121152	93990912	50256080	33184
951	111.577984	131121152	93990912	49390256	33184
952	110.774846	131121152	93990912	62518800	33184
953	122.04125	135446528	98709504	64166640	33184
954	141.725579	138326016	101330944	33865752	33184
955	115.207986	138326016	101330944	50753288	33184
956	121.055364	138326016	101330944	56168656	33184
957	123.105183	138326016	101330944	62902504	33184
958	149.077881	140218368	103428096	70928120	33184
959	130.593291	137064448	99758080	43887528	33184
960	129.735824	137064448	99758080	54456672	33184
961	134.262622	137064448	99758080	53656440	33184
962	137.454207	138145792	101330944	66713568	33184
963	162.697908	134234112	97660928	36153168	33184
964	136.129103	134234112	97660928	51753728	33184
965	139.240491	134234112	97660928	68583680	33184
966	147.73633	137478144	100806656	74312152	33184
967	180.131108	140161024	102903808	47046240	33184
968	147.692542	140161024	102903808	55195944	33184
969	149.549293	140161024	102903808	64510880	33184
970	151.718414	141512704	104476672	75067776	33184
971	191.60325	141524992	105000960	39102920	33184
972	157.177736	142065664	105000960	52248440	33184
973	159.999803	142065664	105000960	66702096	33184
974	171.189231	144228352	107098112	82459592	33184
975	182.89286	140537856	103428096	48847848	33184
976	167.316704	140537856	103428096	54564728	33184
977	163.844767	140537856	103428096	74173560	33184
978	200.297447	141242368	103952384	30078968	33184
979	168.668904	141242368	103952384	52161096	33184
980	175.050632	141242368	103952384	63009640	33184
981	210.749535	130375680	93466624	29742664	33184
982	177.827986	130375680	93466624	43362624	33184
983	180.238795	130375680	93466624	58068544	33184
984	217.523074	135733248	100282368	41305040	33184
985	188.894158	137080832	100282368	45210720	33184
986	184.542245	137080832	100282368	63795360	33184
987	221.987214	134934528	99233792	37341736	33184
988	193.007922	136282112	99233792	45039760	33184
989	191.05299	136282112	99233792	67532064	33184
990	234.327919	140132352	103428096	30655416	33184
991	195.434878	140132352	103428096	55863704	33184
992	201.734825	140132352	103428096	69672008	33184
993	237.129823	135438336	98709504	34938616	33184
994	206.634372	135438336	98709504	51386656	33184
995	206.399119	135438336	98709504	69081848	33184
996	238.244615	134885376	97660928	37815784	33184
997	215.301994	134885376	97660928	58063328	33184
998	250.25681	126431232	89796608	38054224	33184
999	220.043945	126431232	89796608	48447784	33184
1000	221.39326	134541312	97660928	72670592	33184
