x	Duration	RSS	HeapTotal	HeapUsed	External
0	NA	119226368	84029440	14689840	33184
1	0.263107	119226368	84029440	14742128	33184
2	0.195381	119226368	84029440	14810088	33184
3	0.212302	119226368	84029440	14902784	33184
4	0.254821	119226368	84029440	15021888	33184
5	0.312917	119226368	84029440	15169160	33184
6	0.355666	119226368	84029440	15345304	33184
7	0.410605	119226368	84029440	15551520	33184
8	0.489181	119496704	84029440	15789104	33184
9	0.719293	119496704	84029440	16060464	33184
10	0.803827	119496704	84029440	16365920	33184
11	0.577609	119496704	84029440	16706664	33184
12	0.629847	119496704	84029440	17084032	33184
13	0.706233	119496704	84029440	17503000	33184
14	0.763759	119496704	84029440	17957064	33184
15	0.783307	119496704	84029440	18451344	33184
16	0.987091	119496704	84029440	18987048	33184
17	0.909956	119496704	84029440	19567288	33184
18	1.18558	119496704	84029440	20191424	33184
19	1.121302	119496704	84029440	20866952	33184
20	1.104061	119496704	84029440	21583744	33184
21	1.906011	119496704	84029440	22348936	33184
22	1.429786	119496704	84029440	23163848	33184
23	1.69601	119496704	84029440	24032528	33184
24	1.79639	119496704	84029440	24958720	33184
25	2.101533	119496704	84029440	25931328	33184
26	1.492749	119496704	84029440	26954488	33184
27	1.557376	119496704	84029440	28033408	33184
28	1.879873	119496704	84029440	29169256	33184
29	1.728435	119496704	84029440	30363616	33184
30	2.849458	119496704	84029440	15548328	33184
31	2.097925	119496704	84029440	16862848	33184
32	2.235065	119496704	84029440	18242352	33184
33	2.334736	119496704	84029440	19688496	33184
34	2.93712	119496704	84029440	21199216	33184
35	2.554134	119496704	84029440	22775592	33184
36	2.92222	119496704	84029440	24421952	33184
37	2.479177	119496704	84029440	26131952	33184
38	3.142949	119496704	84029440	27931520	33184
39	2.580632	119496704	84029440	29781400	33184
40	3.281721	119496704	84029440	31705152	33184
41	4.674959	119496704	84029440	17953832	33184
42	2.931993	119496704	84029440	20022600	33184
43	3.033506	119496704	84029440	22166744	33184
44	3.291841	119496704	84029440	24388744	33184
45	3.397418	119496704	84029440	26690680	33184
46	3.360998	119496704	84029440	29072840	33184
47	3.469687	119496704	84029440	31537176	33184
48	5.823093	119496704	84029440	18428008	33184
49	3.751536	119496704	84029440	21060088	33184
50	3.834896	119496704	84029440	23778136	33184
51	4.109583	119496704	84029440	26583648	33184
52	4.028631	119496704	84029440	29477424	33184
53	4.302322	119496704	84029440	32460520	33184
54	6.294709	119496704	84029440	19768984	33184
55	4.579894	119496704	84029440	22935960	33184
56	7.079114	119496704	84029440	26203136	33184
57	5.029448	119496704	84029440	29557896	33184
58	4.747607	119496704	84029440	33006512	33184
59	6.964004	119496704	84029440	20665416	33184
60	5.215018	119496704	84029440	24308768	33184
61	5.159851	119496704	84029440	28051200	33184
62	5.475876	119496704	84029440	31894232	33184
63	7.287615	119496704	84029440	20014448	33184
64	5.597095	119496704	84029440	24062488	33184
65	8.105687	119496704	84029440	28230832	33184
66	6.099606	119496704	84029440	32495712	33184
67	8.17063	119496704	84029440	20986408	33184
68	6.121526	119496704	84029440	25465944	33184
69	6.293028	119496704	84029440	30054344	33184
70	7.168583	119496704	84029440	34762496	33184
71	8.461654	119496704	84029440	23524904	33184
72	6.974383	119496704	84029440	28447736	33184
73	6.937253	119496704	84029440	33485144	33184
74	9.617191	119496704	84029440	22692760	33184
75	7.72109	119496704	84029440	27961144	33184
76	7.373437	119496704	84029440	33347048	33184
77	10.043664	119496704	84029440	22997384	33184
78	8.445688	119496704	84029440	28622136	33184
79	7.904637	119496704	84029440	34368296	33184
80	10.322769	119496704	84029440	24301552	33184
81	9.177439	119496704	84029440	30296560	33184
82	11.394779	119496704	84029440	20982824	33184
83	8.886904	119496704	84029440	27227800	33184
84	9.204258	119496704	84029440	33601528	33184
85	11.619663	119496704	84029440	24311968	33184
86	9.15319	119496704	84029440	30945552	33184
87	11.690403	119496704	84029440	22303608	33184
88	9.96186	119496704	84029440	29203728	33184
89	9.916211	119496704	84029440	36238192	33184
90	11.966037	119496704	84029440	27399160	33184
91	11.359476	119496704	84029440	34716368	33184
92	12.617788	119496704	84029440	26365280	33184
93	10.727278	119496704	84029440	33956440	33184
94	13.066662	119496704	84029440	25981960	33184
95	11.186365	119496704	84029440	33861328	33184
96	13.733793	119496704	84029440	26216168	33184
97	11.745209	119496704	84029440	34387200	33184
98	14.561842	119496704	84029440	27018360	33184
99	12.170387	119496704	84029440	35486616	33184
100	14.729545	119496704	84029440	28299416	33184
101	12.640275	119496704	84029440	37069192	33184
102	0.502543	119496704	84029440	29875944	33184
103	0.703062	119496704	84029440	30334664	33184
104	0.925493	119496704	84029440	30948504	33184
105	1.128189	119496704	84029440	31718728	33184
106	1.360962	119496704	84029440	32647072	33184
107	1.574656	119496704	84029440	33734288	33184
108	1.999147	119496704	84029440	34982936	33184
109	2.056572	119496704	84029440	36391432	33184
110	2.275999	119496704	84029440	37963392	33184
111	2.477945	119496704	84029440	39699056	33184
112	4.871964	119496704	84029440	25390872	33184
113	2.969374	119496704	84029440	27457736	33184
114	3.193123	119496704	84029440	29692392	33184
115	3.423344	119496704	84029440	32095376	33184
116	3.673197	119496704	84029440	34668152	33184
117	3.91167	119496704	84029440	37412096	33184
118	6.557936	119496704	84029440	24345320	33184
119	4.435793	119496704	84029440	27437000	33184
120	4.687227	119496704	84029440	30704072	33184
121	5.106389	119496704	84029440	34147384	33184
122	5.149488	119496704	84029440	37767392	33184
123	8.022728	119496704	84029440	25572368	33184
124	5.85987	119496704	84029440	29550440	33184
125	6.148188	119496704	84029440	33709544	33184
126	6.174681	119496704	84029440	38050696	33184
127	9.090638	119496704	84029440	26557928	33184
128	7.24158	119496704	84029440	31267024	33184
129	7.026495	119496704	84029440	36161944	33184
130	9.781049	119496704	84029440	25491776	33184
131	7.741522	119496704	84029440	30762888	33184
132	7.847143	119496704	84029440	36222888	33184
133	10.442001	119496704	84029440	26125352	33184
134	8.591349	119496704	84029440	31975112	33184
135	8.845863	119496704	84029440	38018408	33184
136	11.147075	119496704	84029440	28287280	33184
137	9.202761	119496704	84029440	34720808	33184
138	12.685906	119496704	84029440	25832544	33184
139	10.033652	119496704	84029440	32660576	33184
140	10.242513	119496704	84029440	39688200	33184
141	12.8196	119496704	84029440	30756160	33184
142	10.979937	119496704	84029440	38189752	33184
143	13.736243	119496704	84029440	29883896	33184
144	11.555146	119496704	84029440	37726984	33184
145	14.530035	119496704	84029440	29905576	33184
146	12.902101	119496704	84029440	38164928	33184
147	14.827615	119496704	84029440	30705144	33184
148	12.660761	119496704	84029440	39384776	33184
149	15.281418	119496704	84029440	32215128	33184
150	13.24456	119496704	84029440	41322000	33184
151	15.683912	119496704	84029440	34362112	33184
152	16.684476	119496704	84029440	28508320	33184
153	14.022299	119496704	84029440	38264704	33184
154	17.223101	119496704	84029440	32382360	33184
155	17.838056	119496704	84029440	27506224	33184
156	15.631742	119496704	84029440	37920544	33184
157	17.916725	119496704	84029440	32762824	33184
158	19.391287	119496704	84029440	28549272	33184
159	15.973147	119496704	84029440	39633488	33184
160	19.250791	119496704	84029440	34943288	33184
161	19.731044	119496704	84029440	31159992	33184
162	17.574191	119496704	84029440	42923496	33184
163	20.642415	119496704	84029440	38570928	33184
164	20.932612	119496704	84029440	35022704	33184
165	21.516442	119496704	84029440	32196584	33184
166	22.062373	119496704	84029440	29948368	33184
167	18.77465	119496704	84029440	42879248	33184
168	22.687385	119496704	84029440	39765104	33184
169	22.802834	119496704	84029440	37291232	33184
170	23.232338	119496704	84029440	35367864	33184
171	24.018494	119496704	84029440	33960624	33184
172	24.241033	119496704	84029440	33006832	33184
173	25.105564	119496704	84029440	32428688	33184
174	25.731909	119496704	84029440	32203176	33184
175	26.950546	119496704	84029440	32280440	33184
176	27.72869	119496704	84029440	32606400	33184
177	26.948394	119496704	84029440	33152328	33184
178	27.035093	119496704	84029440	33892024	33184
179	27.829122	119496704	84029440	34776776	33184
180	27.545381	119496704	84029440	35809560	33184
181	27.406709	119496704	84029440	36981008	33184
182	27.96249	119496704	84029440	38273696	33184
183	28.619378	119496704	84029440	39656328	33184
184	28.298635	119496704	84029440	41137584	33184
185	28.153769	119496704	84029440	42710728	33184
186	28.551195	119496704	84029440	44325304	33184
187	29.172101	119496704	84029440	46011072	33184
188	34.294656	119496704	84029440	33548232	33184
189	32.293744	119496704	84029440	37253608	33184
190	32.188256	119496704	84029440	40765128	33184
191	31.024847	119496704	84029440	44087496	33184
192	36.549656	119496704	84029440	33261416	33184
193	35.795757	119496704	84029440	40268160	33184
194	33.034274	119496704	84029440	44871032	33184
195	32.664828	119496704	84029440	49123864	33184
196	37.796508	119496704	84029440	38910872	33184
197	34.538115	119496704	84029440	44509128	33184
198	34.398448	119496704	84029440	49700744	33184
199	38.62969	119496704	84029440	40305968	33184
200	35.246355	119496704	84029440	46629008	33184
201	41.345789	119496704	84029440	38582288	33184
202	0.879252	119496704	84029440	48042360	33184
203	1.269501	119496704	84029440	48887152	33184
204	1.681154	119496704	84029440	50015848	33184
205	2.076766	119496704	84029440	51429600	33184
206	2.729379	119496704	84029440	53130192	33184
207	6.365177	119496704	84029440	39006848	33184
208	3.334389	119496704	84029440	41284064	33184
209	3.944534	119496704	84029440	43851032	33184
210	4.182949	119496704	84029440	46710936	33184
211	4.826765	119496704	84029440	49862872	33184
212	4.998781	119496704	84029440	53307888	33184
213	8.292438	119496704	84029440	40726176	33184
214	5.87903	119496704	84029440	44763088	33184
215	6.495774	119496704	84029440	49097112	33184
216	6.724404	119496704	84029440	53729064	33184
217	10.209535	119496704	84029440	42310104	33184
218	7.606093	119496704	84029440	47545320	33184
219	8.273109	119496704	84029440	53082208	33184
220	12.065347	119496704	84029440	42661848	33184
221	8.956047	119496704	84029440	48811056	33184
222	12.807751	119496704	84029440	39580808	33184
223	10.043368	119496704	84029440	46341392	33184
224	10.467478	119496704	84029440	53408624	33184
225	13.55707	119496704	84029440	44482592	33184
226	11.419932	119496704	84029440	52173784	33184
227	15.284785	119496704	84029440	44057656	33184
228	12.564422	119496704	84029440	52374728	33184
229	16.160585	119496704	84029440	44859080	33184
230	12.996958	119496704	84029440	53808328	33184
231	16.678454	119496704	84029440	46759424	33184
232	17.983744	119496704	84029440	40992216	33184
233	14.390145	119496704	84029440	50910920	33184
234	18.803277	119496704	84029440	45239224	33184
235	19.311081	119496704	84029440	40666872	33184
236	16.130072	119496704	84029440	51560528	33184
237	20.177382	119496704	84029440	46795976	33184
238	21.145942	119496704	84029440	43029104	33184
239	18.433712	119496704	84029440	54913920	33184
240	21.061342	119496704	84029440	50738400	33184
241	21.960915	119496704	84029440	47455648	33184
242	22.816507	119496704	84029440	44957912	33184
243	23.750347	119496704	84029440	43108472	33184
244	24.639642	119496704	84029440	41885416	33184
245	25.267845	119496704	84029440	41174120	33184
246	21.385568	119496704	84029440	55400824	33184
247	25.085226	119496704	84029440	53593592	33184
248	25.394668	119496704	84029440	52346288	33184
249	25.755182	119496704	84029440	51597768	33184
250	26.502159	119496704	84029440	51297488	33184
251	26.879755	119496704	84029440	51404704	33184
252	27.615377	119496704	84029440	51852560	33184
253	28.389188	119496704	84029440	52591808	33184
254	28.534897	119496704	84029440	53578136	33184
255	28.790348	119496704	84029440	54792352	33184
256	29.612369	119496704	84029440	56206784	33184
257	36.136123	119496704	84029440	43603072	33184
258	32.031726	119496704	84029440	47272016	33184
259	35.372187	119496704	84029440	50848640	33184
260	32.901268	119496704	84029440	54288224	33184
261	37.891886	119496704	84029440	43657936	33184
262	37.648335	119496704	84029440	50986072	33184
263	38.276848	119496704	84029440	55921504	33184
264	55.219881	117428224	81932288	22620608	33184
265	35.25323	117428224	81932288	30415448	33184
266	35.376395	117428224	81932288	22274960	33184
267	36.39873	117428224	81932288	31415544	33184
268	36.905204	117428224	81932288	24137552	33184
269	37.489093	117428224	81932288	33976488	33184
270	37.426321	117428224	81932288	27367688	33184
271	37.813734	117428224	81932288	37933808	33184
272	38.052921	117428224	81932288	31851728	33184
273	39.414103	117428224	81932288	43164416	33184
274	38.816612	117428224	81932288	37455816	33184
275	44.067742	117428224	81932288	36832728	33184
276	40.486048	117428224	81932288	49112192	33184
277	40.258409	117428224	81932288	44458000	33184
278	45.747144	117428224	81932288	44957624	33184
279	44.487001	117428224	81932288	58374480	33184
280	54.823651	117428224	81932288	54450072	33184
281	53.777954	114282496	78786560	26364312	33184
282	48.73952	114282496	78786560	28274920	33184
283	49.542928	114282496	78786560	30552616	33184
284	49.330253	114282496	78786560	33183456	33184
285	49.568943	114282496	78786560	36173344	33184
286	50.016075	114282496	78786560	39576888	33184
287	50.667981	114282496	78786560	43355824	33184
288	51.913102	114552832	79310848	47545120	33184
289	59.106216	118067200	83505152	52122256	33184
290	72.258825	119263232	85602304	29968352	33184
291	53.380416	120881152	85602304	34931960	33184
292	53.720551	120881152	85602304	40664224	33184
293	55.615455	120881152	85602304	46803432	33184
294	60.225291	121421824	86126592	40754128	33184
295	55.258216	121421824	86126592	47663048	33184
296	55.290894	121421824	86126592	55001344	33184
297	56.30209	121421824	86126592	62711960	33184
298	69.565747	125206528	90320896	58265648	33184
299	77.929628	121655296	88223744	37055536	33184
300	62.569644	123002880	88223744	32626056	33184
301	58.658876	123002880	88223744	41946368	33184
302	1.253317	123002880	88223744	39289176	33184
303	1.826131	123002880	88223744	40510744	33184
304	2.434633	123002880	88223744	42143392	33184
305	3.013115	123002880	88223744	44185016	33184
306	3.631549	123002880	88223744	46639120	33184
307	4.245523	123002880	88223744	49506616	33184
308	7.454072	123543552	88223744	38697424	33184
309	5.421709	123543552	88223744	42394576	33184
310	5.984968	123543552	88223744	46509440	33184
311	6.66348	123543552	88223744	51042448	33184
312	8.365638	123543552	88223744	40038824	33184
313	7.889573	123543552	88223744	45412152	33184
314	8.424397	123543552	88223744	51208104	33184
315	9.817007	123543552	88223744	41268344	33184
316	9.856461	123543552	88223744	47909808	33184
317	11.1675	123543552	88223744	39266440	33184
318	10.935982	123543552	88223744	46762800	33184
319	12.645528	123543552	88223744	39136680	33184
320	12.253652	123543552	88223744	47489192	33184
321	13.869734	123543552	88223744	40625736	33184
322	13.845667	123543552	88223744	49839928	33184
323	15.112756	123543552	88223744	43491840	33184
324	14.908203	123543552	88223744	53577824	33184
325	16.136969	123543552	88223744	47624904	33184
326	17.59694	123543552	88223744	42932824	33184
327	18.459615	123543552	88223744	39300016	33184
328	17.888171	123543552	88223744	51134808	33184
329	18.579726	123543552	88223744	47249488	33184
330	19.845773	123543552	88223744	44371960	33184
331	21.447674	123543552	88223744	42332040	33184
332	22.194599	123543552	88223744	41051808	33184
333	22.924193	123543552	88223744	40386840	33184
334	24.124455	123543552	88223744	40238704	33184
335	24.33181	123543552	88223744	40588840	33184
336	25.585139	123543552	88223744	41324664	33184
337	25.641252	123543552	88223744	42402304	33184
338	26.142587	123543552	88223744	43816696	33184
339	26.940245	123543552	88223744	45460296	33184
340	27.690807	123543552	88223744	47342440	33184
341	27.65566	123543552	88223744	49422856	33184
342	27.293857	123543552	88223744	51722560	33184
343	28.173005	123543552	88223744	54140768	33184
344	31.533899	123543552	88223744	42514576	33184
345	30.946598	123543552	88223744	47165152	33184
346	31.185994	123543552	88223744	51632128	33184
347	34.920613	123543552	88748032	42062264	33184
348	35.859689	124084224	88748032	50533312	33184
349	32.729654	124084224	88748032	56464904	33184
350	36.60945	124084224	88748032	47798648	33184
351	34.828173	124084224	88748032	54911680	33184
352	37.851615	124084224	88748032	47626784	33184
353	38.262961	124084224	88748032	58431792	33184
354	39.393676	124084224	88748032	52374128	33184
355	44.776476	124084224	88748032	51521224	33184
356	41.545947	124084224	88748032	63550944	33184
357	41.604087	124084224	88748032	58928824	33184
358	52.936088	127057920	91893760	59491368	33184
359	64.979566	122810368	89272320	29563120	33184
360	47.804765	124157952	89272320	29956728	33184
361	48.328226	124157952	89272320	31759336	33184
362	48.379451	124157952	89272320	34062320	33184
363	49.71076	124157952	89272320	36862376	33184
364	50.459662	124157952	89272320	40173720	33184
365	51.34159	124698624	89272320	43956552	33184
366	51.571372	124698624	89272320	48224336	33184
367	52.337431	124698624	89272320	53013648	33184
368	59.841263	124968960	89796608	58312040	33184
369	74.494063	124243968	90320896	33890816	33184
370	54.995681	125591552	90320896	39469424	33184
371	60.949721	125591552	90320896	33654824	33184
372	56.786796	125591552	90320896	40951936	33184
373	57.422664	125591552	90320896	48709960	33184
374	63.278315	125591552	90320896	44431840	33184
375	58.117485	125591552	90320896	53241168	33184
376	60.391759	125591552	90320896	62547896	33184
377	80.33419	127483904	92418048	59773440	33184
378	75.173447	127356928	92418048	25098600	33184
379	62.508179	127356928	92418048	35902024	33184
380	67.18222	127356928	92418048	34710152	33184
381	63.311816	127356928	92418048	46584832	33184
382	69.054179	127356928	92418048	46366000	33184
383	65.175854	127897600	92418048	59240008	33184
384	72.23545	127897600	92418048	60111336	33184
385	98.785514	121180160	87699456	32961960	33184
386	72.591813	122527744	87699456	34228624	33184
387	71.507145	122527744	87699456	36763376	33184
388	68.15642	122527744	87699456	52419832	33184
389	73.520365	123068416	87699456	56054216	33184
390	74.904874	123068416	87699456	60140568	33184
391	76.413109	126582784	91369472	64829256	33184
392	103.431472	124649472	91369472	23938336	33184
393	79.928012	126267392	91369472	28383808	33184
394	77.423281	126267392	91369472	34469400	33184
395	79.663221	126267392	91369472	41057848	33184
396	78.683647	126267392	91369472	48218064	33184
397	81.926215	127889408	92418048	55926608	33184
398	81.266679	127889408	92418048	64122056	33184
399	110.997517	126193664	90845184	29279960	33184
400	82.442667	126193664	90845184	38596264	33184
401	83.43515	126193664	90845184	48440808	33184
402	6.146683	126193664	90845184	46546152	33184
403	2.560797	126193664	90845184	48174048	33184
404	3.325789	126193664	90845184	50348136	33184
405	4.083731	126193664	90845184	53067496	33184
406	4.764719	126193664	90845184	56334176	33184
407	5.591796	126193664	90845184	60149480	33184
408	8.258376	126193664	90845184	49874280	33184
409	7.174715	126193664	90845184	54790256	33184
410	8.262889	126193664	90845184	60259424	33184
411	9.262818	126193664	90845184	50065856	33184
412	9.567428	126193664	90845184	56643592	33184
413	11.182719	126193664	90845184	48038600	33184
414	11.273564	126193664	90845184	55728680	33184
415	12.93151	126193664	90845184	48342664	33184
416	12.833243	126193664	90845184	57153376	33184
417	14.466108	126193664	90845184	50720416	33184
418	14.547866	126193664	90845184	60653296	33184
419	15.718278	126193664	90845184	54875288	33184
420	17.488635	126193664	90845184	50451304	33184
421	16.738659	126193664	90845184	62085928	33184
422	18.453567	126193664	90845184	57811360	33184
423	19.272529	126193664	90845184	54675312	33184
424	20.392033	126193664	90845184	52518392	33184
425	21.373304	126193664	90845184	51248600	33184
426	22.923121	126193664	90845184	50732256	33184
427	23.466107	126193664	90845184	50866920	33184
428	24.51059	126193664	90845184	51558952	33184
429	26.120056	126193664	90845184	52735824	33184
430	25.868231	126193664	90845184	54332896	33184
431	27.762875	126193664	90845184	56301976	33184
432	27.343799	126193664	90845184	58555304	33184
433	27.99486	126193664	90845184	61077648	33184
434	31.759932	126193664	90845184	49760480	33184
435	34.176751	126193664	90845184	57023872	33184
436	31.245199	126193664	90845184	62023096	33184
437	33.867709	126193664	90845184	52883560	33184
438	36.420886	126734336	91369472	61891040	33184
439	37.228652	126734336	91369472	54802472	33184
440	37.397709	126734336	91369472	64935576	33184
441	38.031773	126734336	91369472	58863528	33184
442	39.56269	128897024	93990912	70190416	33184
443	43.728515	129708032	95039488	64855624	33184
444	65.24888	126173184	92942336	31462176	33184
445	46.960937	127520768	92942336	30732160	33184
446	47.402969	127520768	92942336	31707712	33184
447	48.483574	128061440	92942336	33305176	33184
448	48.446706	128061440	92942336	35474576	33184
449	45.211113	128061440	92942336	50862296	33184
450	45.039027	128061440	92942336	49061624	33184
451	47.297154	128061440	92942336	48260880	33184
452	53.528877	128061440	92942336	53007512	33184
453	53.362101	128061440	92942336	58207512	33184
454	55.161219	128872448	93466624	64016352	33184
455	64.404872	128872448	93466624	57812448	33184
456	76.661883	124276736	90320896	34042536	33184
457	62.003513	125624320	90320896	28305024	33184
458	56.972391	125624320	90320896	36443600	33184
459	58.798806	125624320	90320896	45154528	33184
460	63.276906	125624320	90320896	41952840	33184
461	59.268488	125624320	90320896	51914472	33184
462	60.574732	125624320	90320896	62497432	33184
463	66.284396	125624320	90320896	61117960	33184
464	81.602224	129409024	94515200	60363544	33184
465	78.900691	130002944	95039488	26436760	33184
466	64.772568	130002944	95039488	39471144	33184
467	69.816998	130002944	95039488	40562744	33184
468	72.59453	130002944	95039488	42293096	33184
469	66.993757	130002944	95039488	57217832	33184
470	72.366931	130002944	95039488	60188992	33184
471	80.849325	130273280	95039488	63817400	33184
472	91.53586	124280832	89272320	37888280	33184
473	76.543534	124280832	89272320	42834344	33184
474	75.692944	124280832	89272320	48299616	33184
475	77.379102	124280832	89272320	54418040	33184
476	80.058613	124280832	89272320	61194864	33184
477	83.421426	124551168	89272320	55963272	33184
478	99.220331	129957888	95039488	63958272	33184
479	85.200922	128331776	93466624	39205800	33184
480	85.461544	128331776	93466624	35891304	33184
481	82.439311	128331776	93466624	45829016	33184
482	85.050665	128331776	93466624	56389496	33184
483	89.880515	128872448	93466624	54989472	33184
484	92.853955	129413120	94515200	66825584	33184
485	112.723843	125628416	90845184	35579648	33184
486	90.793646	125628416	90845184	36102888	33184
487	88.892092	125628416	90845184	49881584	33184
488	95.168292	126169088	90845184	51684936	33184
489	90.117748	126169088	90845184	66743776	33184
490	124.484281	126316544	92418048	24342760	33184
491	94.815768	127664128	92418048	39907480	33184
492	98.289233	127664128	92418048	44328904	33184
493	99.231235	127664128	92418048	49387168	33184
494	98.653214	127664128	92418048	55156520	33184
495	105.585368	127934464	92942336	61556928	33184
496	124.873345	128798720	93466624	37876984	33184
497	101.742153	128798720	93466624	45548544	33184
498	102.71482	128798720	93466624	53936632	33184
499	105.04906	128798720	93466624	62965880	33184
500	105.554032	129339392	93990912	72629424	33184
501	132.991041	129343488	94515200	33777600	33184
502	2.300818	129343488	94515200	32870728	33184
503	3.001952	129343488	94515200	34866704	33184
504	3.949361	129343488	94515200	37538384	33184
505	5.088063	129343488	94515200	40877256	33184
506	5.822459	129343488	94515200	44883152	33184
507	9.245093	129343488	94515200	35118376	33184
508	7.822471	129343488	94515200	40464888	33184
509	8.771085	129343488	94515200	46486184	33184
510	10.335199	129343488	94515200	36870064	33184
511	10.999649	129343488	94515200	44250776	33184
512	12.2785	129343488	94515200	36238496	33184
513	12.985593	129343488	94515200	44973192	33184
514	14.441428	129343488	94515200	38234672	33184
515	16.512611	129343488	94515200	33084792	33184
516	15.947595	129343488	94515200	43859736	33184
517	17.691138	129343488	94515200	39338160	33184
518	19.171516	129343488	94515200	36118696	33184
519	21.22308	129343488	94515200	34023256	33184
520	22.612729	129343488	94515200	32907864	33184
521	21.345193	129343488	94515200	47111480	33184
522	22.000318	129343488	94515200	45601752	33184
523	23.567105	129343488	94515200	44972224	33184
524	25.272677	129343488	94515200	45109224	33184
525	26.162737	129343488	94515200	45945656	33184
526	26.965466	129343488	94515200	47325872	33184
527	30.52893	129343488	94515200	35021920	33184
528	31.487805	129343488	94515200	39323624	33184
529	30.348325	129343488	94515200	43886208	33184
530	34.680821	129343488	94515200	34730720	33184
531	36.056948	129343488	94515200	43468928	33184
532	33.215667	129343488	94515200	49915504	33184
533	36.766363	129343488	94515200	42052416	33184
534	36.316928	129343488	94515200	50050360	33184
535	38.90771	129343488	94515200	43618016	33184
536	41.659243	129343488	94515200	39514808	33184
537	43.218582	129343488	94515200	52491888	33184
538	42.578964	129343488	94515200	48611560	33184
539	48.684743	129343488	94515200	50472936	33184
540	51.170495	129343488	94515200	52920864	33184
541	53.551563	129343488	94515200	56065592	33184
542	67.272162	129343488	94515200	59946792	33184
543	57.800695	123523072	88223744	32665896	33184
544	54.074957	123523072	88223744	37942664	33184
545	54.136396	123523072	88223744	43854448	33184
546	59.147242	123523072	88223744	37905416	33184
547	55.746955	123523072	88223744	45254576	33184
548	57.193649	123523072	88223744	53327096	33184
549	59.217999	123523072	88223744	62084576	33184
550	63.950237	124063744	88748032	59059008	33184
551	68.591745	128118784	93466624	69317504	33184
552	83.694542	129486848	95039488	34532856	33184
553	67.168906	130027520	95039488	33732184	33184
554	63.284947	130027520	95039488	46136592	33184
555	68.850987	130027520	95039488	46745144	33184
556	69.98353	130027520	95039488	48095672	33184
557	71.817725	130027520	95039488	50148312	33184
558	71.456735	130027520	95039488	65509272	33184
559	105.788696	125100032	89796608	26303984	33184
560	70.428965	125100032	89796608	43150176	33184
561	76.063195	125100032	89796608	48180920	33184
562	77.05889	125100032	89796608	53941208	33184
563	78.363452	125100032	89796608	60439024	33184
564	82.950705	125100032	89796608	55164000	33184
565	87.342675	129966080	95039488	63133808	33184
566	103.075921	131403776	96612352	39483104	33184
567	86.939624	131403776	96612352	36559752	33184
568	85.483965	131403776	96612352	46791128	33184
569	85.19998	131403776	96612352	57761832	33184
570	91.340986	131403776	96612352	57016440	33184
571	88.926629	131944448	97136640	69536768	33184
572	119.659201	126685184	91369472	38040248	33184
573	93.205193	126685184	91369472	39623960	33184
574	90.798361	126685184	91369472	54393792	33184
575	95.243028	126685184	91369472	57352928	33184
576	97.348048	126685184	91369472	61058176	33184
577	104.752409	133173248	98185216	65737600	33184
578	122.916305	134565888	99758080	36851416	33184
579	100.501017	134565888	99758080	42893608	33184
580	101.764283	134565888	99758080	49739280	33184
581	102.052112	134565888	99758080	57296784	33184
582	104.161663	134565888	99758080	65608184	33184
583	130.938053	128671744	93466624	25525952	33184
584	108.030487	128671744	93466624	35558696	33184
585	107.183685	128671744	93466624	46185840	33184
586	106.897709	128671744	93466624	57583432	33184
587	118.315628	128671744	93466624	57230000	33184
588	135.292487	126189568	90845184	41508768	33184
589	117.449807	126189568	90845184	42655720	33184
590	112.964547	126189568	90845184	57146848	33184
591	117.134963	126730240	91369472	59916256	33184
592	127.222535	134299648	99233792	75941496	33184
593	142.372718	133439488	98185216	32737200	33184
594	119.000561	133439488	98185216	50418272	33184
595	122.59245	133439488	98185216	56242336	33184
596	124.807813	133439488	98185216	62898816	33184
597	147.991878	129638400	94515200	33624872	33184
598	126.376744	129638400	94515200	41996992	33184
599	129.947302	129638400	94515200	50985288	33184
600	128.158986	129638400	94515200	60820256	33184
601	159.338982	126668800	91369472	26423976	33184
602	2.615235	126668800	91369472	38464848	33184
603	3.74744	126668800	91369472	40859560	33184
604	4.752597	126668800	91369472	44041032	33184
605	5.98961	126668800	91369472	48020848	33184
606	9.674395	126668800	91369472	38679728	33184
607	8.182675	126668800	91369472	44260408	33184
608	10.936448	126668800	91369472	35369592	33184
609	10.729492	126668800	91369472	42555464	33184
610	11.659706	126668800	91369472	50546760	33184
611	13.813667	126668800	91369472	42953280	33184
612	15.760571	126668800	91369472	37184504	33184
613	15.48837	126668800	91369472	47600568	33184
614	17.275569	126668800	91369472	42791144	33184
615	19.073258	126668800	91369472	39481696	33184
616	20.643658	126668800	91369472	37450184	33184
617	22.622955	126668800	91369472	36475688	33184
618	21.536083	126668800	91369472	50955448	33184
619	23.230895	126668800	91369472	49767056	33184
620	23.986406	126668800	91369472	49592216	33184
621	25.797281	126668800	91369472	50230496	33184
622	30.122112	126668800	91369472	37463664	33184
623	29.785777	126668800	91369472	41406880	33184
624	30.427336	126668800	91369472	45635592	33184
625	31.045491	126668800	91369472	50090856	33184
626	34.394929	126668800	91369472	40690088	33184
627	34.437107	126668800	91369472	47510864	33184
628	37.457256	126668800	91369472	40463568	33184
629	39.416548	126668800	91369472	51550936	33184
630	39.716235	126668800	91369472	46171840	33184
631	45.500692	126668800	91369472	46350784	33184
632	42.203978	126668800	91369472	59784328	33184
633	43.231815	126668800	91369472	56410664	33184
634	44.247741	126668800	91369472	54569400	33184
635	51.070086	126668800	91369472	57969656	33184
636	51.92081	126668800	91369472	62211920	33184
637	59.257301	128561152	93466624	67161240	33184
638	76.802091	131043328	96088064	26871000	33184
639	55.329833	131043328	96088064	33681408	33184
640	57.735962	131043328	96088064	41196968	33184
641	63.170537	131043328	96088064	37020776	33184
642	61.799144	131043328	96088064	46281576	33184
643	60.505794	131043328	96088064	56268096	33184
644	66.66268	131043328	96088064	54586160	33184
645	64.607369	131043328	96088064	66343992	33184
646	94.583026	124264448	90845184	36351904	33184
647	70.087877	126152704	90845184	36567120	33184
648	71.116402	126152704	90845184	38316408	33184
649	71.618243	126152704	90845184	40885656	33184
650	68.792317	126152704	90845184	56863872	33184
651	74.430591	126152704	90845184	61145728	33184
652	76.111952	126152704	90845184	66260720	33184
653	106.840108	127340544	93990912	26776568	33184
654	78.572658	129228800	93990912	32528448	33184
655	79.061538	129228800	93990912	40246240	33184
656	81.096463	129228800	93990912	48845392	33184
657	85.94808	129228800	93990912	45760216	33184
658	83.521286	129228800	93990912	56010176	33184
659	111.694069	124780544	90845184	23704016	33184
660	87.639937	126128128	90845184	35060000	33184
661	92.094837	126128128	90845184	35492712	33184
662	90.490157	126128128	90845184	49323464	33184
663	95.509786	126128128	90845184	51560720	33184
664	94.628679	126128128	90845184	67141720	33184
665	125.489065	129372160	93990912	41467848	33184
666	99.452762	129372160	93990912	46152312	33184
667	102.81803	129372160	93990912	51743312	33184
668	100.800419	129372160	93990912	58148688	33184
669	104.069616	129372160	93990912	65516120	33184
670	134.079222	132071424	98185216	27075560	33184
671	106.611064	133419008	98185216	35049248	33184
672	105.64418	133419008	98185216	44924944	33184
673	108.073149	133419008	98185216	55775976	33184
674	111.569621	133419008	98185216	67540648	33184
675	142.652978	126382080	92418048	35227960	33184
676	115.141128	127729664	92418048	35181352	33184
677	113.410438	127729664	92418048	49566904	33184
678	122.010612	127729664	92418048	52265200	33184
679	118.461591	128811008	93466624	68401128	33184
680	150.059671	131514368	96088064	42969448	33184
681	122.860632	131514368	96088064	48353616	33184
682	123.979188	131514368	96088064	54612128	33184
683	126.054783	131514368	96088064	61742216	33184
684	153.157992	132988928	99233792	34165992	33184
685	128.399665	134336512	99233792	41930168	33184
686	130.428719	134336512	99233792	51804024	33184
687	130.408192	134336512	99233792	62554792	33184
688	163.441994	126386176	92418048	30004192	33184
689	138.693165	127733760	92418048	41780680	33184
690	135.146159	127733760	92418048	55180264	33184
691	140.719741	127733760	92418048	57186848	33184
692	169.522712	133595136	98709504	26346832	33184
693	139.063284	133595136	98709504	42605736	33184
694	143.931049	133595136	98709504	47132176	33184
695	142.76261	133595136	98709504	65088056	33184
696	170.578648	126709760	91893760	36615512	33184
697	146.955321	126709760	91893760	43794008	33184
698	150.360526	126709760	91893760	51934504	33184
699	182.965171	123330560	90320896	32841024	33184
700	152.501861	125218816	90320896	42258704	33184
701	153.566174	125218816	90320896	53167720	33184
702	2.808953	129544192	94515200	65718992	33184
703	4.087493	129544192	94515200	68472200	33184
704	5.632815	129544192	94515200	72144696	33184
705	10.976746	131706880	96612352	63024920	33184
706	9.443676	131706880	96612352	68540928	33184
707	11.084144	131706880	96612352	74980568	33184
708	13.757443	132247552	97136640	66567424	33184
709	19.536361	132247552	97136640	74857968	33184
710	22.209177	126480384	91369472	20838928	33184
711	15.297512	126480384	91369472	30998688	33184
712	18.257704	126480384	91369472	26620656	33184
713	19.556209	126480384	91369472	23559800	33184
714	21.153998	126480384	91369472	21305208	33184
715	22.406428	126480384	91369472	20340776	33184
716	24.49198	126480384	91369472	20449680	33184
717	26.397449	126480384	91369472	21506992	33184
718	27.427077	126480384	91369472	23402528	33184
719	27.821975	126480384	91369472	25976440	33184
720	29.054129	126480384	91369472	29140376	33184
721	29.625581	126480384	91369472	32777528	33184
722	33.940358	126480384	91369472	22683384	33184
723	34.190654	126480384	91369472	29167032	33184
724	36.885439	126480384	91369472	21946400	33184
725	38.819338	126480384	91369472	33045248	33184
726	40.537028	126480384	91369472	27750776	33184
727	46.379001	126480384	91369472	28124208	33184
728	43.573281	126480384	91369472	41922200	33184
729	44.440126	126480384	91369472	38940896	33184
730	45.476031	126480384	91369472	37435448	33184
731	51.108425	126480384	91369472	41649808	33184
732	53.053192	126480384	91369472	46779448	33184
733	54.39481	126480384	91369472	52740552	33184
734	61.002519	126750720	91369472	47148408	33184
735	72.489649	127291392	91893760	55143072	33184
736	68.619362	121114624	85602304	36406304	33184
737	66.292556	121114624	85602304	33779472	33184
738	61.403261	121114624	85602304	44695328	33184
739	66.653687	121114624	85602304	44016024	33184
740	64.764284	121114624	85602304	56836696	33184
741	69.990469	121114624	85602304	58096176	33184
742	73.079448	125169664	89796608	60322992	33184
743	92.842666	131117056	96088064	63451464	33184
744	80.104794	127287296	92418048	34133520	33184
745	77.92013	127287296	92418048	39255496	33184
746	77.766168	127287296	92418048	45574800	33184
747	79.832525	127287296	92418048	52764672	33184
748	80.391288	127287296	92418048	60994960	33184
749	91.867482	127287296	92418048	57504264	33184
750	106.582909	124801024	89796608	37430656	33184
751	88.674409	124801024	89796608	35966680	33184
752	86.203793	124801024	89796608	48131992	33184
753	92.615401	124801024	89796608	48666976	33184
754	90.090887	125071360	89796608	62706544	33184
755	101.47229	130207744	95039488	65287136	33184
756	118.07641	131039232	96088064	36390608	33184
757	96.885119	131039232	96088064	40836752	33184
758	98.792122	131039232	96088064	46403680	33184
759	102.4108	131039232	96088064	52950984	33184
760	101.454339	131579904	96088064	60485232	33184
761	126.897015	127479808	93990912	33972912	33184
762	104.036815	128827392	93990912	42569408	33184
763	110.937133	128827392	93990912	40479904	33184
764	108.396665	128827392	93990912	52029352	33184
765	108.91993	128827392	93990912	64594304	33184
766	139.291758	128421888	93466624	31922440	33184
767	116.715469	128421888	93466624	33978992	33184
768	114.053341	128421888	93466624	49562376	33184
769	118.670337	128421888	93466624	53654536	33184
770	149.550347	125214720	91369472	29062912	33184
771	123.060297	126562304	91369472	34530504	33184
772	119.829005	126562304	91369472	54206448	33184
773	124.696134	126562304	91369472	62288128	33184
774	136.171014	129806336	94515200	71446432	33184
775	158.173089	131600384	96612352	37717232	33184
776	130.71828	131600384	96612352	48874728	33184
777	131.579727	131600384	96612352	61052400	33184
778	135.198399	132411392	97136640	74302216	33184
779	173.05075	132988928	97660928	44102800	33184
780	141.049562	132988928	97660928	46796376	33184
781	137.541917	132988928	97660928	63238480	33184
782	144.96973	136503296	101330944	68133176	33184
783	179.673374	136122368	101330944	40265728	33184
784	142.754392	136122368	101330944	59694328	33184
785	147.38342	136122368	101330944	67503200	33184
786	148.773675	138555392	103428096	76372808	33184
787	177.798101	133152768	98185216	30529624	33184
788	153.79318	133152768	98185216	41448976	33184
789	155.209499	133152768	98185216	53466672	33184
790	187.764862	124526592	90845184	36826400	33184
791	159.367754	125874176	90845184	50351880	33184
792	165.34288	125874176	90845184	52955488	33184
793	164.445538	131551232	96612352	69033960	33184
794	202.179829	133218304	98185216	43953936	33184
795	166.813723	133218304	98185216	62279480	33184
796	168.757688	133488640	98185216	68964112	33184
797	202.505935	133029888	99233792	38142344	33184
798	171.016022	134377472	99233792	45799952	33184
799	173.810307	134377472	99233792	55702224	33184
800	180.216712	136269824	101330944	66591040	33184
801	207.82903	133066752	97660928	46754496	33184
802	3.13986	133066752	97660928	60805088	33184
803	4.653912	133066752	97660928	63975264	33184
804	6.219316	133066752	97660928	68205232	33184
805	10.794504	133066752	97660928	59560432	33184
806	9.30631	133066752	97660928	65911472	33184
807	12.262013	133066752	97660928	58055416	33184
808	12.531186	133066752	97660928	66532952	33184
809	14.615548	133066752	97660928	60177688	33184
810	15.459132	133066752	97660928	70790352	33184
811	17.536689	133066752	97660928	65992120	33184
812	19.29832	133066752	97660928	62916664	33184
813	21.557594	133066752	97660928	61368104	33184
814	23.213437	133066752	97660928	61091640	33184
815	25.144826	133066752	97660928	61947600	33184
816	26.575519	133066752	97660928	63745920	33184
817	27.759825	133066752	97660928	66311224	33184
818	28.849973	133066752	97660928	69692536	33184
819	33.172117	133066752	97660928	59555128	33184
820	36.692147	133066752	97660928	68503976	33184
821	37.946598	133066752	97660928	61834616	33184
822	38.280505	133066752	97660928	72868536	33184
823	40.134114	133066752	97660928	67997592	33184
824	47.919608	136581120	101330944	68669560	33184
825	44.286636	138473472	103428096	82847512	33184
826	44.193872	139014144	103952384	80297472	33184
827	46.063786	139284480	104476672	79348128	33184
828	68.166713	143609856	108670976	84417800	33184
829	61.945003	130867200	96088064	35065864	33184
830	60.53082	130867200	96088064	29539136	33184
831	58.113566	130867200	96088064	37713792	33184
832	59.726853	130867200	96088064	46932416	33184
833	65.306512	130867200	96088064	44742296	33184
834	62.998554	130867200	96088064	56259064	33184
835	69.934365	130867200	96088064	56131000	33184
836	97.42665	122441728	88748032	28543344	33184
837	67.38435	123789312	88748032	42920000	33184
838	73.457744	123789312	88748032	46138440	33184
839	74.973793	123789312	88748032	50448672	33184
840	77.39042	123789312	88748032	55873016	33184
841	78.349924	124059648	88748032	62358472	33184
842	80.265158	127033344	91893760	70028440	33184
843	110.423058	125669376	91893760	32107560	33184
844	90.428185	127016960	91893760	28317536	33184
845	85.466937	127016960	91893760	39234000	33184
846	85.936798	127016960	91893760	51335232	33184
847	92.33369	127016960	91893760	51944152	33184
848	90.693984	127287296	91893760	66190080	33184
849	122.053132	126664704	91369472	39787392	33184
850	96.776553	126664704	91369472	43812016	33184
851	98.693791	126664704	91369472	48883392	33184
852	101.152982	126664704	91369472	55048224	33184
853	104.761237	127746048	92418048	62418272	33184
854	134.408579	130424832	96612352	24201032	33184
855	110.400332	131772416	96612352	32710736	33184
856	109.59264	132042752	96612352	43511024	33184
857	109.229464	132042752	96612352	55355720	33184
858	114.602195	132042752	96612352	55709528	33184
859	138.744446	124219392	90320896	37174408	33184
860	118.813582	125566976	90320896	39018920	33184
861	119.31874	125566976	90320896	42889240	33184
862	118.398465	125566976	90320896	60394280	33184
863	130.833912	127729664	92418048	66380304	33184
864	148.320704	129957888	94515200	44129512	33184
865	128.166338	129957888	94515200	52542520	33184
866	127.945756	129957888	94515200	62077088	33184
867	129.734987	130498560	95039488	72763832	33184
868	160.599103	128724992	93466624	34368744	33184
869	133.146307	128724992	93466624	47355712	33184
870	142.265871	128724992	93466624	48866320	33184
871	147.056824	128724992	93466624	64113072	33184
872	166.565969	125104128	89796608	41307400	33184
873	140.004803	125104128	89796608	58912600	33184
874	149.845688	125915136	90845184	65085152	33184
875	178.181008	137539584	102903808	72273544	33184
876	152.958994	134799360	99758080	45904240	33184
877	152.742213	134799360	99758080	55400616	33184
878	151.566683	134799360	99758080	66127240	33184
879	182.06332	130338816	95039488	28800224	33184
880	157.062669	130338816	95039488	42027360	33184
881	157.484458	130338816	95039488	56262288	33184
882	161.769298	130879488	95563776	71696232	33184
883	200.637827	134066176	98709504	45717072	33184
884	164.58659	134066176	98709504	63506200	33184
885	167.915183	134066176	98709504	69846544	33184
886	204.703316	136404992	102903808	39730792	33184
887	171.141433	137752576	102903808	47124496	33184
888	173.346504	137752576	102903808	56934856	33184
889	182.361765	138293248	102903808	67942064	33184
890	206.771154	132235264	97136640	47943696	33184
891	178.695393	132235264	97136640	61279504	33184
892	184.086324	137101312	102379520	75729368	33184
893	212.911022	136331264	101855232	36654840	33184
894	185.791744	136331264	101855232	53616120	33184
895	189.998507	136331264	101855232	59031696	33184
896	227.251752	127741952	92418048	53192912	33184
897	194.936609	127741952	92418048	60989768	33184
898	194.761912	140177408	105000960	82615104	33184
899	226.88669	129921024	94515200	36151936	33184
900	199.64746	129921024	94515200	47526976	33184
901	214.527029	132083712	97136640	60044504	33184
902	3.546473	124538880	89272320	47600704	33184
903	5.29514	124538880	89272320	51169928	33184
904	7.080426	124538880	89272320	55939808	33184
905	11.364933	124538880	89272320	47820632	33184
906	10.662164	124538880	89272320	54972328	33184
907	13.089513	124809216	89272320	47756536	33184
908	14.314424	124809216	89272320	57304168	33184
909	16.453113	124809216	89272320	52164944	33184
910	19.312237	124809216	89272320	48867184	33184
911	20.986221	124809216	89272320	47257616	33184
912	23.683316	124809216	89272320	47041520	33184
913	25.181245	124809216	89272320	48073992	33184
914	27.315835	124809216	89272320	50214336	33184
915	27.963878	124809216	89272320	53272944	33184
916	29.194262	124809216	89272320	57053904	33184
917	33.79945	124809216	89272320	47811976	33184
918	35.753198	124809216	89272320	56974048	33184
919	37.681807	124809216	89272320	50856704	33184
920	39.086677	124809216	89272320	62390424	33184
921	40.641498	124809216	89272320	58168376	33184
922	48.154253	126971904	91893760	59578568	33184
923	49.721691	131026944	96088064	62035432	33184
924	52.216589	134811648	99758080	65730000	33184
925	53.397483	138596352	103952384	70607520	33184
926	55.970613	142651392	107622400	76689760	33184
927	86.227846	130879488	97136640	29964040	33184
928	60.406088	132227072	97136640	37266368	33184
929	63.819961	132227072	97136640	34415752	33184
930	61.098157	132227072	97136640	45437752	33184
931	68.103264	132497408	97136640	45057112	33184
932	65.347645	132497408	97136640	58495944	33184
933	71.20999	132497408	97136640	60550872	33184
934	72.694944	132497408	97136640	63868208	33184
935	101.365048	129540096	95563776	21781184	33184
936	74.241962	130887680	95563776	39107488	33184
937	82.135078	130887680	95563776	33527872	33184
938	79.812473	130887680	95563776	41802496	33184
939	83.210157	130887680	95563776	51243392	33184
940	84.57574	130887680	95563776	61942208	33184
941	92.827437	130887680	95563776	61331272	33184
942	114.836548	128794624	93466624	29233824	33184
943	90.884856	128794624	93466624	43702440	33184
944	95.424135	128794624	93466624	46701912	33184
945	97.262481	128794624	93466624	50988760	33184
946	95.828596	128794624	93466624	69171592	33184
947	129.914395	132141056	98709504	29965064	33184
948	101.543798	133488640	98709504	36980400	33184
949	104.574223	133488640	98709504	46306856	33184
950	108.320064	133488640	98709504	56910336	33184
951	113.68484	133488640	98709504	56059480	33184
952	137.577891	125870080	91893760	36951960	33184
953	115.733667	127217664	91893760	37764560	33184
954	120.686153	127217664	91893760	40842976	33184
955	115.913196	127217664	91893760	57553880	33184
956	126.852545	127758336	92418048	63093784	33184
957	149.422594	131272704	96088064	39815416	33184
958	128.129591	131272704	96088064	47815040	33184
959	128.820344	131272704	96088064	57061928	33184
960	132.003895	131543040	96088064	67571064	33184
961	158.931708	132411392	97136640	29113712	33184
962	134.204521	132411392	97136640	42099088	33184
963	135.55544	132411392	97136640	56373280	33184
964	140.762073	132411392	97136640	59422584	33184
965	178.958625	126271488	90845184	36499168	33184
966	140.99349	126271488	90845184	54629392	33184
967	147.202867	126812160	91369472	61508032	33184
968	152.028858	138436608	103428096	69621040	33184
969	174.530595	130674688	95563776	36556848	33184
970	151.173546	130945024	95563776	47136208	33184
971	155.217117	130945024	95563776	59053472	33184
972	190.009381	125857792	91893760	29440504	33184
973	160.50424	127205376	91893760	43422712	33184
974	161.601739	127205376	91893760	59117608	33184
975	167.801912	132612096	97660928	63543312	33184
976	199.578325	136462336	101330944	51599696	33184
977	168.884073	136462336	101330944	58555536	33184
978	172.577575	137273344	102379520	66860960	33184
979	191.33407	146194432	111292416	88994664	33184
980	201.701083	140259328	105000960	46792600	33184
981	178.904843	140259328	105000960	59000912	33184
982	180.0203	140259328	105000960	72491752	33184
983	212.138548	130420736	95039488	33097064	33184
984	184.773405	130420736	95039488	49076184	33184
985	186.058448	130420736	95039488	66319408	33184
986	228.346293	127754240	92942336	46565488	33184
987	190.242734	128294912	92942336	66424800	33184
988	199.377443	141271040	106573824	75058320	33184
989	215.873617	127451136	92418048	41713760	33184
990	197.841681	127451136	92418048	52845464	33184
991	233.542318	126177280	90845184	37338576	33184
992	203.355638	126177280	90845184	51100408	33184
993	206.277967	129691648	94515200	66180640	33184
994	239.917771	131514368	96088064	33562344	33184
995	212.400671	131514368	96088064	51229192	33184
996	242.031223	134217728	99233792	70213088	33184
997	225.837788	125186048	90320896	49888456	33184
998	219.002945	131674112	96612352	71534688	33184
999	255.910789	135135232	100282368	42602472	33184
1000	224.700046	135135232	100282368	54423264	33184
