x	Duration	RSS	HeapTotal	HeapUsed	External
0	NA	117403648	81932288	14655744	33184
1	0.234072	117403648	81932288	14708016	33184
2	0.175664	117403648	81932288	14775960	33184
3	0.191844	117403648	81932288	14868640	33184
4	0.250659	117403648	81932288	14987728	33184
5	0.274297	117403648	81932288	15134984	33184
6	0.322409	117403648	81932288	15311136	33184
7	0.371429	117403648	81932288	15517336	33184
8	0.44409	117403648	81932288	15754872	33184
9	0.473999	117403648	81932288	16026216	33184
10	0.538131	117403648	81932288	16331648	33184
11	0.581688	117403648	81932288	16672376	33184
12	0.980508	117403648	81932288	17049704	33184
13	0.723408	117403648	81932288	17464824	33184
14	0.808835	117403648	81932288	17922736	33184
15	0.836521	117403648	81932288	18417024	33184
16	1.298363	117403648	81932288	18952760	33184
17	1.14999	117403648	81932288	19536768	33184
18	1.283194	117403648	81932288	20166096	33184
19	1.355695	117403648	81932288	20838688	33184
20	1.162749	117403648	81932288	21554032	33184
21	1.215134	117403648	81932288	22317792	33184
22	1.614829	117403648	81932288	23133400	33184
23	1.457706	117403648	81932288	23997704	33184
24	1.440225	117403648	81932288	24916408	33184
25	1.861774	117403648	81932288	25886216	33184
26	1.682103	117403648	81932288	26911600	33184
27	1.647737	117403648	81932288	27992144	33184
28	1.715134	117403648	81932288	29129432	33184
29	1.865551	117403648	81932288	30325048	33184
30	2.854266	117403648	81932288	15355200	33184
31	2.272024	117403648	81932288	16671280	33184
32	3.524184	117403648	81932288	18051568	33184
33	2.3605	117403648	81932288	19507320	33184
34	2.548568	117403648	81932288	21021368	33184
35	2.6763	117403648	81932288	22618528	33184
36	2.425142	117403648	81932288	24263696	33184
37	3.022181	117403648	81932288	25979184	33184
38	2.5699	117403648	81932288	27761552	33184
39	2.659854	117403648	81932288	29614544	33184
40	2.993342	117403648	81932288	31539280	33184
41	4.549307	117403648	81932288	17631024	33184
42	3.070116	117403648	81932288	19703160	33184
43	3.120625	117403648	81932288	21850632	33184
44	3.872018	117403648	81932288	24075984	33184
45	3.571939	117403648	81932288	26390904	33184
46	3.425132	117403648	81932288	28774592	33184
47	3.5332	117403648	81932288	31240312	33184
48	5.451271	117403648	81932288	18219936	33184
49	4.315762	117403648	81932288	20854952	33184
50	4.09757	117403648	81932288	23577216	33184
51	3.949345	117403648	81932288	26382688	33184
52	4.267699	117403648	81932288	29276160	33184
53	4.191313	117403648	81932288	32259328	33184
54	7.118686	117403648	81932288	19603152	33184
55	4.461321	117403648	81932288	22768624	33184
56	4.549328	117403648	81932288	26027232	33184
57	4.905589	117403648	81932288	29380176	33184
58	4.826323	117403648	81932288	32828656	33184
59	6.780001	117403648	81932288	20450256	33184
60	5.127474	117403648	81932288	24094096	33184
61	5.21551	117403648	81932288	27836528	33184
62	5.348601	117403648	81932288	31679272	33184
63	7.622689	117403648	81932288	19797456	33184
64	5.801936	117403648	81932288	23845160	33184
65	6.284117	117403648	81932288	28004768	33184
66	5.995475	117403648	81932288	32269880	33184
67	7.977931	117403648	81932288	20761912	33184
68	6.299046	117403648	81932288	25241232	33184
69	6.417269	117403648	81932288	29829672	33184
70	6.790069	117403648	81932288	34528272	33184
71	8.391487	117403648	81932288	23292416	33184
72	7.118475	117403648	81932288	28215480	33184
73	7.785686	117403648	81932288	33261856	33184
74	9.488947	117403648	81932288	22464776	33184
75	7.904948	117403648	81932288	27733448	33184
76	8.179731	117403648	81932288	33120016	33184
77	10.86773	117403648	81932288	22755672	33184
78	8.017195	117403648	81932288	28380368	33184
79	8.266459	117403648	81932288	34126360	33184
80	10.277388	117403648	81932288	24021488	33184
81	8.747503	117403648	81932288	30015616	33184
82	10.910146	117403648	81932288	20706816	33184
83	9.18664	117403648	81932288	26952968	33184
84	9.15811	117403648	81932288	33326952	33184
85	11.353437	117403648	81932288	24045712	33184
86	9.366398	117403648	81932288	30679304	33184
87	11.939739	117403648	81932288	22047608	33184
88	10.358382	117403648	81932288	28946776	33184
89	10.325857	117403648	81932288	35980696	33184
90	12.103022	117403648	81932288	27142792	33184
91	10.458622	117403648	81932288	34452208	33184
92	13.439433	117403648	81932288	26107280	33184
93	11.184585	117403648	81932288	33698656	33184
94	13.845479	117403648	81932288	25723608	33184
95	11.699378	117403648	81932288	33601856	33184
96	14.208044	117403648	81932288	25963048	33184
97	12.039361	117403648	81932288	34133968	33184
98	14.490171	117403648	81932288	26767648	33184
99	12.984396	117403648	81932288	35235648	33184
100	15.066698	117403648	81932288	28053272	33184
101	12.929374	117403648	81932288	36823488	33184
102	0.495339	117403648	81932288	29631896	33184
103	0.717942	117403648	81932288	30090608	33184
104	0.956559	117403648	81932288	30704512	33184
105	1.139584	117403648	81932288	31474776	33184
106	1.356877	117403648	81932288	32403184	33184
107	1.585736	117403648	81932288	33490376	33184
108	1.800308	117403648	81932288	34737544	33184
109	2.26905	117403648	81932288	36146104	33184
110	2.26519	117403648	81932288	37718000	33184
111	2.506862	117403648	81932288	39453736	33184
112	4.767335	117403648	81932288	25148496	33184
113	3.226633	117403648	81932288	27215328	33184
114	3.474793	117403648	81932288	29449656	33184
115	3.745616	117403648	81932288	31852536	33184
116	4.104387	117403648	81932288	34426248	33184
117	3.957112	117403648	81932288	37170240	33184
118	6.45812	117403648	81932288	24106280	33184
119	4.463026	117403648	81932288	27197840	33184
120	4.684713	117403648	81932288	30464568	33184
121	4.943696	117403648	81932288	33909016	33184
122	5.184641	117403648	81932288	37529000	33184
123	7.72801	117403648	81932288	25333680	33184
124	5.795696	117403648	81932288	29311872	33184
125	6.191309	117403648	81932288	33472000	33184
126	6.230526	117403648	81932288	37813120	33184
127	8.91299	117403648	81932288	26322136	33184
128	7.188228	117403648	81932288	31031952	33184
129	7.264709	117403648	81932288	35927712	33184
130	9.793314	117403648	81932288	25257056	33184
131	8.139027	117403648	81932288	30527600	33184
132	7.903739	117403648	81932288	35987304	33184
133	10.499716	117403648	81932288	25886544	33184
134	8.802625	117403648	81932288	31735744	33184
135	8.892609	117403648	81932288	37778480	33184
136	11.341587	117403648	81932288	28046168	33184
137	9.540259	117403648	81932288	34479152	33184
138	12.221216	117403648	81932288	25587520	33184
139	10.603564	117403648	81932288	32415768	33184
140	10.468556	117403648	81932288	39443296	33184
141	13.208898	117403648	81932288	30510456	33184
142	11.096954	117403648	81932288	37943944	33184
143	13.964293	117403648	81932288	29641376	33184
144	11.29103	117403648	81932288	37485952	33184
145	14.305239	117403648	81932288	29664216	33184
146	12.13848	117403648	81932288	37922840	33184
147	14.311958	117403648	81932288	30461136	33184
148	12.747181	117403648	81932288	39140504	33184
149	15.069656	117403648	81932288	31972264	33184
150	13.218745	117403648	81932288	41079784	33184
151	16.061659	117403648	81932288	34123960	33184
152	16.906227	117403648	81932288	28275056	33184
153	14.283474	117403648	81932288	38028608	33184
154	17.287877	117403648	81932288	32141848	33184
155	18.267735	117403648	81932288	27271520	33184
156	15.316541	117403648	81932288	37684096	33184
157	18.719045	117403648	81932288	32538152	33184
158	19.564184	117403648	81932288	28324168	33184
159	16.255364	117403648	81932288	39406352	33184
160	19.15632	117403648	81932288	34715984	33184
161	20.43563	117403648	81932288	30933680	33184
162	17.888326	117403648	81932288	42697832	33184
163	20.400792	117403648	81932288	38351040	33184
164	20.265001	117403648	81932288	34804104	33184
165	21.740508	117403648	81932288	31976696	33184
166	22.323499	117403648	81932288	29728480	33184
167	19.567584	117403648	81932288	42659360	33184
168	21.731296	117403648	81932288	39541832	33184
169	22.64193	117403648	81932288	37071744	33184
170	23.49667	117403648	81932288	35148376	33184
171	23.610299	117403648	81932288	33741136	33184
172	26.546637	117403648	81932288	32787344	33184
173	25.492947	117403648	81932288	32209200	33184
174	25.267218	117403648	81932288	31983688	33184
175	26.2907	117403648	81932288	32061928	33184
176	26.359177	117403648	81932288	32387888	33184
177	26.828698	117403648	81932288	32933816	33184
178	27.396559	117403648	81932288	33673512	33184
179	27.281147	117403648	81932288	34558264	33184
180	28.189439	117403648	81932288	35591048	33184
181	27.554597	117403648	81932288	36762496	33184
182	27.664952	117403648	81932288	38055184	33184
183	28.180203	117403648	81932288	39437816	33184
184	28.323261	117403648	81932288	40919072	33184
185	28.249255	117403648	81932288	42492216	33184
186	28.630098	117403648	81932288	44106792	33184
187	28.680582	117403648	81932288	45792560	33184
188	34.391639	117403648	81932288	33329720	33184
189	32.195731	117403648	81932288	37035096	33184
190	31.197661	117403648	81932288	40546616	33184
191	30.639752	117403648	81932288	43868984	33184
192	36.279975	117403648	81932288	33042904	33184
193	35.161806	117403648	81932288	40049648	33184
194	32.706456	117403648	81932288	44652520	33184
195	32.161654	117403648	81932288	48905352	33184
196	38.092522	117403648	81932288	38692360	33184
197	34.085687	117403648	81932288	44290616	33184
198	33.665274	117403648	81932288	49482232	33184
199	38.785837	117403648	81932288	40087456	33184
200	35.733435	117403648	81932288	46410496	33184
201	40.169353	117403648	81932288	38363776	33184
202	0.87269	117403648	81932288	47823848	33184
203	1.266712	117403648	81932288	48668608	33184
204	1.678458	117403648	81932288	49797216	33184
205	2.088543	117403648	81932288	51210936	33184
206	2.544858	117403648	81932288	52911560	33184
207	6.129848	117403648	81932288	38788336	33184
208	3.336341	117403648	81932288	41065552	33184
209	3.779072	117403648	81932288	43632520	33184
210	4.179257	117403648	81932288	46492424	33184
211	4.656967	117403648	81932288	49644360	33184
212	5.23449	117403648	81932288	53089376	33184
213	8.154206	117403648	81932288	40507664	33184
214	6.175563	117403648	81932288	44544576	33184
215	6.398347	117403648	81932288	48878600	33184
216	7.566603	117403648	81932288	53510552	33184
217	10.293044	117403648	81932288	42091592	33184
218	7.898083	117403648	81932288	47326808	33184
219	8.547136	117403648	81932288	52863696	33184
220	12.052328	117403648	81932288	42443336	33184
221	9.575744	117403648	81932288	48592544	33184
222	12.535338	117403648	81932288	39362296	33184
223	10.360954	117403648	81932288	46122880	33184
224	10.486074	117403648	81932288	53190112	33184
225	13.847189	117403648	81932288	44264080	33184
226	11.542685	117403648	81932288	51955272	33184
227	14.53747	117403648	81932288	43839144	33184
228	12.342346	117403648	81932288	52156216	33184
229	15.666908	117403648	81932288	44640568	33184
230	13.282406	117403648	81932288	53589816	33184
231	16.407617	117403648	81932288	46540912	33184
232	18.144246	117403648	81932288	40773704	33184
233	14.689213	117403648	81932288	50692408	33184
234	18.009342	117403648	81932288	45020712	33184
235	19.633013	117403648	81932288	40448360	33184
236	15.875038	117403648	81932288	51342016	33184
237	19.748845	117403648	81932288	46577464	33184
238	20.697637	117403648	81932288	42810592	33184
239	17.774037	117403648	81932288	54692616	33184
240	21.139438	117403648	81932288	50517096	33184
241	22.041484	117403648	81932288	47234344	33184
242	22.524222	117403648	81932288	44736608	33184
243	23.542317	117403648	81932288	42887168	33184
244	24.555255	117403648	81932288	41664112	33184
245	25.720332	117403648	81932288	40952816	33184
246	21.852958	117403648	81932288	55179520	33184
247	24.396286	117403648	81932288	53372288	33184
248	25.212068	117403648	81932288	52124984	33184
249	25.766539	117403648	81932288	51376464	33184
250	26.582897	117403648	81932288	51076184	33184
251	27.689207	117403648	81932288	51183400	33184
252	27.740465	117403648	81932288	51631256	33184
253	27.827799	117403648	81932288	52370504	33184
254	29.180478	117403648	81932288	53356832	33184
255	28.907622	117403648	81932288	54571048	33184
256	29.028229	117403648	81932288	55985480	33184
257	35.284334	117403648	81932288	43381768	33184
258	32.037825	117403648	81932288	47050712	33184
259	32.686985	117403648	81932288	50632624	33184
260	31.825321	117403648	81932288	54078488	33184
261	37.666933	117403648	81932288	43445360	33184
262	37.409954	117403648	81932288	50773496	33184
263	37.600847	117403648	81932288	55708928	33184
264	53.455906	115990528	80359424	22270272	33184
265	35.446171	115990528	80359424	30101792	33184
266	36.02223	115990528	80359424	21992104	33184
267	36.255884	115990528	80359424	31112920	33184
268	36.941133	115990528	80359424	23869176	33184
269	36.636556	115990528	80359424	33694328	33184
270	37.389249	115990528	80359424	27129392	33184
271	38.133792	115990528	80359424	37680744	33184
272	38.899276	115990528	80359424	31620544	33184
273	39.929053	115990528	80359424	42921056	33184
274	39.105171	115990528	80359424	37255568	33184
275	46.358706	115990528	80359424	36639800	33184
276	40.797937	115990528	80359424	48928016	33184
277	40.344599	115990528	80359424	44297192	33184
278	46.388202	115990528	80359424	44808752	33184
279	44.514902	115990528	80359424	58201888	33184
280	53.918713	115990528	80359424	54288296	33184
281	51.402705	115990528	80359424	25831696	33184
282	48.807633	115990528	80359424	27744888	33184
283	51.023836	115990528	80359424	30008344	33184
284	49.95521	115990528	80359424	32638944	33184
285	49.916703	115990528	80359424	35650408	33184
286	51.57499	115990528	80359424	39056000	33184
287	51.058798	115990528	80359424	42848488	33184
288	52.914651	115990528	80359424	47027880	33184
289	59.058967	118693888	82980864	51584000	33184
290	73.587595	120586240	86650880	29325984	33184
291	54.413711	122208256	86650880	34309512	33184
292	54.611805	122208256	86650880	40046928	33184
293	55.113942	122208256	86650880	46172560	33184
294	60.669411	122208256	86650880	40129264	33184
295	56.255749	122208256	86650880	47018672	33184
296	56.853039	122208256	86650880	54349424	33184
297	57.515394	122208256	86650880	62078136	33184
298	68.281678	125722624	90320896	57629608	33184
299	79.550672	122605568	88748032	35598176	33184
300	62.929469	123953152	88748032	31215856	33184
301	59.44006	123953152	88748032	40533552	33184
302	1.33808	124493824	89272320	37866840	33184
303	1.926933	124493824	89272320	39088408	33184
304	2.559469	124493824	89272320	40719336	33184
305	3.174952	124493824	89272320	42761080	33184
306	3.661183	124493824	89272320	45215048	33184
307	4.287768	124493824	89272320	48082352	33184
308	5.078941	124493824	89272320	51364552	33184
309	7.787878	125034496	89272320	40515312	33184
310	6.01983	125034496	89272320	44630248	33184
311	6.613793	125034496	89272320	49163200	33184
312	8.363101	125034496	89272320	38250208	33184
313	7.940151	125034496	89272320	43622848	33184
314	8.701776	125034496	89272320	49417112	33184
315	9.990268	125034496	89272320	39709864	33184
316	10.015534	125034496	89272320	46353680	33184
317	10.731574	125034496	89272320	53421960	33184
318	11.998305	125034496	89272320	44456472	33184
319	12.285938	125034496	89272320	52385760	33184
320	12.617743	125034496	89272320	44424736	33184
321	13.017478	125034496	89272320	53208072	33184
322	13.962222	125034496	89272320	45983408	33184
323	15.397319	125034496	89272320	40213656	33184
324	15.514155	125034496	89272320	50295432	33184
325	15.996177	125034496	89272320	44759864	33184
326	17.735484	125034496	89272320	40467416	33184
327	16.944261	125034496	89272320	51857752	33184
328	17.922564	125034496	89272320	47427208	33184
329	19.195079	125034496	89272320	44051184	33184
330	20.608081	125034496	89272320	41585752	33184
331	21.241298	125034496	89272320	39925344	33184
332	20.837891	125034496	89272320	53526936	33184
333	22.18733	125034496	89272320	51125808	33184
334	22.3323	125034496	89272320	49473480	33184
335	23.120099	125034496	89272320	48516048	33184
336	23.462858	125034496	89272320	48155472	33184
337	24.174788	125034496	89272320	48293184	33184
338	25.303471	125034496	89272320	48850240	33184
339	26.109784	125034496	89272320	49796984	33184
340	26.545962	125034496	89272320	51084952	33184
341	27.814524	125034496	89272320	52633352	33184
342	30.561022	125034496	89272320	40506992	33184
343	32.097862	125034496	89272320	46683472	33184
344	29.83646	125034496	89272320	50629600	33184
345	29.975995	125034496	89272320	54468808	33184
346	34.363686	125034496	89272320	44298552	33184
347	34.795097	125034496	89272320	52306968	33184
348	32.548574	125034496	89272320	57839632	33184
349	35.662045	125034496	89272320	48895176	33184
350	38.34669	125034496	89272320	58337112	33184
351	37.650109	125034496	89272320	51275840	33184
352	38.73486	125034496	89272320	61595296	33184
353	38.688979	125034496	89272320	55352472	33184
354	39.993812	125034496	89272320	66626872	33184
355	40.342604	125034496	89272320	60957488	33184
356	51.322947	128548864	92942336	60556176	33184
357	63.796687	124526592	90320896	28356528	33184
358	46.07188	125874176	90320896	27749624	33184
359	46.900394	125874176	90320896	28576824	33184
360	44.018507	125874176	90320896	42528616	33184
361	44.307258	125874176	90320896	39352024	33184
362	48.948779	125874176	90320896	41846320	33184
363	50.426923	125874176	90320896	44680328	33184
364	50.041308	125874176	90320896	47962704	33184
365	50.788671	125874176	90320896	51734048	33184
366	52.443746	125874176	90320896	56026208	33184
367	55.17214	125874176	90320896	60811120	33184
368	83.353972	126533632	92418048	23718400	33184
369	58.054314	130854912	95563776	28753368	33184
370	56.619677	134639616	99758080	35019592	33184
371	56.895673	138424320	103952384	41846136	33184
372	57.630535	142479360	108146688	49107104	33184
373	63.557711	148156416	114438144	44324184	33184
374	60.15965	151941120	118632448	52613616	33184
375	60.205374	155996160	122826752	61454344	33184
376	65.690271	161673216	129118208	58169200	33184
377	89.006598	103632896	69349376	21337288	33184
378	63.119036	104980480	69349376	30716264	33184
379	66.213998	104980480	69349376	28972648	33184
380	62.207832	105521152	69873664	40327264	33184
381	68.090423	108224512	73019392	39634008	33184
382	64.639611	112009216	76689408	52031112	33184
383	71.384696	117956608	82456576	52375408	33184
384	68.037994	121741312	86126592	65786824	33184
385	97.449171	108384256	74592256	37939800	33184
386	71.489204	109731840	74592256	39243712	33184
387	72.029479	110272512	74592256	41649032	33184
388	73.33852	110272512	74592256	44572936	33184
389	74.735935	115679232	80359424	48035256	33184
390	75.729483	121626624	86126592	51995984	33184
391	71.852882	125411328	90320896	69027568	33184
392	103.109637	111001600	77213696	28326880	33184
393	78.249875	112349184	77213696	32771832	33184
394	76.773441	112349184	77213696	38872768	33184
395	79.002347	112349184	77213696	45507624	33184
396	80.234769	112889856	77213696	52613760	33184
397	81.655638	117755904	82980864	60294144	33184
398	97.704099	125595648	90320896	55901520	33184
399	98.570706	117211136	81932288	33783176	33184
400	82.023278	117481472	81932288	43100640	33184
401	88.890579	117481472	81932288	40326264	33184
402	1.625691	117751808	81932288	50971792	33184
403	2.388228	117751808	81932288	52599688	33184
404	3.159332	117751808	81932288	54772808	33184
405	3.984916	117751808	81932288	57491520	33184
406	7.784116	117751808	81932288	47087816	33184
407	5.611049	117751808	81932288	50902992	33184
408	6.305458	117751808	81932288	55271216	33184
409	7.091888	117751808	81932288	60187240	33184
410	8.989223	117751808	81932288	49982000	33184
411	8.709151	117751808	81932288	56009840	33184
412	10.296151	117751808	81932288	46927176	33184
413	10.625957	117751808	81932288	54064296	33184
414	11.138937	117751808	81932288	61761296	33184
415	12.706275	117751808	81932288	53599624	33184
416	14.166842	117751808	81932288	47087632	33184
417	14.228446	117751808	81932288	56456504	33184
418	15.731859	117751808	81932288	50683712	33184
419	15.61081	117751808	81932288	61185584	33184
420	16.692686	117751808	82456576	55904640	33184
421	18.183317	117751808	82456576	51900296	33184
422	18.934128	117751808	82456576	48983848	33184
423	18.838246	117751808	82456576	61756440	33184
424	19.848055	117751808	82456576	58679760	33184
425	20.766623	117751808	82456576	56569144	33184
426	22.391239	117751808	82456576	55307824	33184
427	23.919153	117751808	82456576	54796864	33184
428	24.988121	117751808	82456576	54941120	33184
429	25.123557	117751808	82456576	55665744	33184
430	25.438112	117751808	82980864	56885224	33184
431	26.518577	118022144	82980864	58508400	33184
432	27.424151	118022144	82980864	60499224	33184
433	30.604478	118292480	82980864	48808200	33184
434	32.936971	120455168	85078016	55488832	33184
435	30.469864	120455168	85602304	60029552	33184
436	30.771806	120455168	85602304	64501416	33184
437	34.7739	120725504	85602304	54834544	33184
438	32.644625	120725504	85602304	61188656	33184
439	36.690012	121266176	86126592	53499568	33184
440	38.044055	123428864	88223744	63664160	33184
441	39.262022	124239872	89272320	57485816	33184
442	42.765324	126402560	91369472	68844600	33184
443	57.109143	127213568	91893760	63420432	33184
444	45.94432	116203520	80883712	26964408	33184
445	42.416317	116203520	80883712	23206656	33184
446	46.218316	116203520	80883712	24228560	33184
447	44.605272	116203520	80883712	38414512	33184
448	44.125188	116203520	80883712	35504800	33184
449	45.3162	116203520	80883712	33747912	33184
450	50.222099	116203520	80883712	37187368	33184
451	51.154393	116203520	80883712	41123328	33184
452	52.042659	116203520	80883712	45651152	33184
453	53.783897	116473856	80883712	50798592	33184
454	55.086231	116744192	80883712	56510432	33184
455	62.429102	118906880	83505152	62855576	33184
456	80.85956	121716736	86126592	28881480	33184
457	56.422231	121716736	86126592	36477696	33184
458	62.518002	121716736	86126592	31974704	33184
459	59.104216	121716736	86126592	40739448	33184
460	59.221328	121716736	86126592	50085488	33184
461	65.165456	121716736	86126592	47496920	33184
462	60.342486	121716736	86126592	58028360	33184
463	71.814992	124690432	89272320	56644240	33184
464	90.494385	124993536	89796608	25114520	33184
465	65.998537	124993536	89796608	37637216	33184
466	69.256297	124993536	89796608	38127656	33184
467	65.322264	124993536	89796608	51798160	33184
468	71.670669	124993536	89796608	53528376	33184
469	72.998226	124993536	89796608	55844952	33184
470	73.440769	126074880	90320896	58825408	33184
471	91.540212	130670592	95039488	62404576	33184
472	82.543383	125898752	90320896	33108792	33184
473	75.547476	125898752	90320896	37902920	33184
474	77.191425	125898752	90320896	43422984	33184
475	77.076493	125898752	90320896	49502000	33184
476	77.966828	125898752	90320896	56245224	33184
477	78.335489	125898752	90320896	63657200	33184
478	107.705825	124542976	90320896	26424744	33184
479	81.494002	125890560	90320896	34241032	33184
480	82.450168	125890560	90320896	43484184	33184
481	87.621464	125890560	90320896	40820864	33184
482	84.872135	125890560	90320896	51383864	33184
483	84.325596	125890560	90320896	62600328	33184
484	115.951074	124588032	90320896	29999480	33184
485	90.781919	125935616	90320896	29243216	33184
486	87.627775	125935616	90320896	42347312	33184
487	92.818577	125935616	90320896	43537648	33184
488	88.512471	125935616	90320896	57943664	33184
489	99.968429	126476288	90845184	60395920	33184
490	120.881211	127614976	91893760	33944064	33184
491	96.656543	127614976	91893760	37715160	33184
492	94.337645	127614976	91893760	54707072	33184
493	97.957745	127614976	91893760	59786456	33184
494	99.506133	127614976	91893760	65543600	33184
495	128.970951	128831488	93466624	24401024	33184
496	104.100731	128831488	93466624	31584632	33184
497	103.778134	128831488	93466624	39284928	33184
498	104.781157	128831488	93466624	47645344	33184
499	104.773641	128831488	93466624	56685328	33184
500	136.243948	127537152	91893760	37820096	33184
501	106.525036	127537152	91893760	48140544	33184
502	6.869731	127537152	91893760	47055920	33184
503	3.095794	127537152	91893760	49060152	33184
504	3.947448	127537152	91893760	51725280	33184
505	5.20283	127537152	91893760	55057512	33184
506	5.898581	127537152	91893760	59060296	33184
507	9.094578	127537152	91893760	49328912	33184
508	8.046935	127537152	91893760	54675304	33184
509	8.772213	127537152	91893760	60696424	33184
510	10.477576	127537152	91893760	51250520	33184
511	11.059574	127537152	91893760	58622896	33184
512	12.880748	127537152	91893760	50804256	33184
513	13.82962	127537152	91893760	59538576	33184
514	14.821704	127537152	91893760	52919616	33184
515	14.777365	127537152	91893760	63011504	33184
516	16.649654	127537152	91893760	57307328	33184
517	18.131763	127537152	91893760	53070664	33184
518	19.570158	127537152	91893760	50083944	33184
519	18.691528	127537152	91893760	62911344	33184
520	20.52217	127537152	91893760	59966320	33184
521	21.923088	127537152	91893760	58112360	33184
522	22.841424	127537152	91893760	57232840	33184
523	24.080842	127537152	91893760	57129256	33184
524	26.530712	127537152	91893760	57720648	33184
525	26.175991	127537152	91893760	58947536	33184
526	26.659074	127537152	91893760	60740880	33184
527	28.181148	127537152	91893760	62989312	33184
528	31.20822	127537152	91893760	51423176	33184
529	31.139719	127537152	91893760	56350416	33184
530	31.011049	127537152	91893760	61310880	33184
531	35.360202	127537152	91893760	52308280	33184
532	37.201603	127537152	91893760	61774728	33184
533	38.226332	127537152	91893760	55058352	33184
534	39.097276	127537152	91893760	65969592	33184
535	39.17154	127537152	91893760	60349608	33184
536	46.112577	129429504	93990912	60051472	33184
537	42.039628	131592192	96088064	72872144	33184
538	42.394466	131862528	96612352	69063544	33184
539	55.916372	136187904	100806656	70906336	33184
540	70.501173	133840896	98709504	22712488	33184
541	46.763983	133840896	98709504	38521600	33184
542	45.969112	133840896	98709504	36801272	33184
543	47.313914	133840896	98709504	36184216	33184
544	54.162991	133840896	98709504	41530216	33184
545	58.449881	133840896	98709504	34905264	33184
546	54.681768	133840896	98709504	41502976	33184
547	57.679191	133840896	98709504	48835848	33184
548	58.273405	134111232	98709504	56916872	33184
549	63.159208	134111232	98709504	53111056	33184
550	64.430538	134111232	98709504	62647176	33184
551	86.334503	126017536	90320896	28304816	33184
552	61.541278	126017536	90320896	39285984	33184
553	66.936645	126017536	90320896	38406480	33184
554	63.713574	126017536	90320896	50866320	33184
555	69.44697	126017536	90320896	51404624	33184
556	70.673696	126017536	90320896	52795960	33184
557	71.697886	126017536	90320896	54858720	33184
558	100.740475	127692800	93990912	28358568	33184
559	75.676311	129581056	93990912	31311200	33184
560	70.592332	129581056	93990912	48123616	33184
561	76.086255	129581056	93990912	53147184	33184
562	77.858852	129581056	93990912	58895496	33184
563	77.719774	129581056	93990912	65386688	33184
564	83.442624	129851392	94515200	60048696	33184
565	102.458853	135798784	100806656	68069968	33184
566	85.503427	131514368	96612352	27805432	33184
567	83.578349	131514368	96612352	37330344	33184
568	86.077639	131784704	96612352	47601872	33184
569	85.077979	131784704	96612352	58614504	33184
570	90.930185	131784704	96612352	57833744	33184
571	95.750231	132595712	97660928	70318392	33184
572	110.980736	126660608	90845184	38798072	33184
573	94.918625	126660608	90845184	40246232	33184
574	95.378193	126660608	90845184	42419544	33184
575	91.243092	126660608	90845184	58130776	33184
576	97.212717	126660608	91369472	61976160	33184
577	123.314384	127053824	92942336	34071688	33184
578	99.807807	128401408	92942336	38307000	33184
579	100.8081	128401408	92942336	44289112	33184
580	101.342868	128401408	92942336	51114888	33184
581	102.408415	128401408	92942336	58763352	33184
582	132.350289	127053824	91369472	22993384	33184
583	104.358433	127053824	91369472	32207952	33184
584	106.715102	127053824	91369472	42039048	33184
585	107.386908	127053824	91369472	52676864	33184
586	109.715586	127053824	91369472	64086880	33184
587	143.381513	129216512	93466624	35371672	33184
588	111.504844	129216512	93466624	48321616	33184
589	114.939695	129216512	93466624	49476264	33184
590	112.970524	129216512	93466624	64004880	33184
591	128.703295	135434240	99758080	66727616	33184
592	145.969652	136355840	100806656	37009416	33184
593	120.677305	136355840	100806656	41295536	33184
594	118.008843	136355840	100806656	58987976	33184
595	123.357361	136355840	100806656	64837728	33184
596	148.616087	139329536	103952384	71470208	33184
597	129.59122	132276224	96612352	42680824	33184
598	129.951359	132276224	96612352	50850184	33184
599	128.20098	132276224	96612352	59866824	33184
600	130.423049	132276224	96612352	69778664	33184
601	166.701441	132255744	96612352	36257448	33184
602	2.390082	132255744	96612352	48317504	33184
603	3.589829	132255744	96612352	50702000	33184
604	4.876995	132255744	96612352	53883544	33184
605	6.088741	132255744	96612352	57863392	33184
606	9.741673	132255744	96612352	48508608	33184
607	8.204033	132255744	96612352	54101912	33184
608	10.948007	132255744	96612352	45189152	33184
609	10.749469	132255744	96612352	52383464	33184
610	11.967585	132255744	96612352	60374504	33184
611	13.202465	132255744	96612352	52691624	33184
612	15.61827	132255744	96612352	46877680	33184
613	15.242104	132255744	96612352	57289400	33184
614	17.16906	132255744	96612352	52449312	33184
615	19.109321	132255744	96612352	49099432	33184
616	21.445762	132255744	96612352	47052840	33184
617	22.099249	132255744	96612352	46047856	33184
618	24.02859	132255744	96612352	46021192	33184
619	25.461519	132255744	96612352	46809928	33184
620	26.026265	132255744	96612352	48325632	33184
621	27.658507	132255744	96612352	50464808	33184
622	27.881949	132255744	96612352	53097664	33184
623	28.575098	132255744	96612352	56209672	33184
624	29.742441	132255744	96612352	59722696	33184
625	33.57746	132255744	96612352	49432472	33184
626	33.650558	132255744	96612352	55498576	33184
627	36.733632	132255744	96612352	47985616	33184
628	37.397904	132255744	96612352	58190912	33184
629	39.457149	132255744	96612352	52441040	33184
630	40.864897	132255744	96612352	64322288	33184
631	41.671107	132255744	96612352	59645264	33184
632	47.190201	132255744	96612352	60633936	33184
633	48.242482	132255744	96612352	62256400	33184
634	49.86937	134418432	99233792	64809144	33184
635	49.42696	136581120	101330944	80724296	33184
636	68.416046	129945600	96612352	27053208	33184
637	53.638771	131833856	96612352	30886008	33184
638	55.360599	131833856	96612352	36794576	33184
639	56.686776	132374528	96612352	43447744	33184
640	60.925183	132374528	96612352	38426392	33184
641	58.09699	132374528	96612352	46761904	33184
642	58.715028	132374528	96612352	55949384	33184
643	66.32566	132374528	96612352	53518128	33184
644	89.090391	132915200	97136640	64396880	33184
645	68.683843	123883520	88223744	35739560	33184
646	69.606686	123883520	88223744	35754688	33184
647	65.73289	123883520	88223744	49182112	33184
648	71.132109	123883520	88223744	50900344	33184
649	72.490587	123883520	88223744	53513080	33184
650	74.307157	125235200	89796608	56922664	33184
651	82.525195	131182592	95563776	61190536	33184
652	96.024978	129900544	94515200	33356432	33184
653	77.98104	129900544	94515200	39459504	33184
654	77.716489	129900544	94515200	46283120	33184
655	81.09047	129900544	94515200	54024368	33184
656	81.482009	129900544	94515200	62544848	33184
657	89.509441	130170880	94515200	59428288	33184
658	111.352493	125566976	91369472	23787264	33184
659	87.685824	126914560	91369472	33996472	33184
660	87.023622	126914560	91369472	46055360	33184
661	93.811513	126914560	91369472	46340544	33184
662	91.187899	126914560	91369472	60097312	33184
663	97.378068	127184896	91893760	62304352	33184
664	126.269921	128741376	93466624	36378984	33184
665	97.538977	128741376	93466624	40300512	33184
666	99.376427	128741376	93466624	44917120	33184
667	95.922369	128741376	93466624	63049384	33184
668	100.951154	129282048	93466624	69448992	33184
669	114.931801	134418432	99233792	76777784	33184
670	124.762015	132771840	97660928	36956632	33184
671	104.750436	132771840	97660928	45995880	33184
672	107.257146	132771840	97660928	55944736	33184
673	108.171872	132771840	97660928	66806680	33184
674	118.701392	133312512	97660928	65930488	33184
675	139.490744	131477504	96088064	33269240	33184
676	111.792531	131477504	96088064	46769896	33184
677	116.34497	131477504	96088064	48637440	33184
678	113.536886	131477504	96088064	63916464	33184
679	140.703487	136073216	100806656	67467464	33184
680	130.094766	135544832	99758080	37141224	33184
681	124.212611	135544832	99758080	42474848	33184
682	120.830967	135544832	99758080	61311720	33184
683	126.809165	135544832	99758080	68477880	33184
684	153.459795	130437120	95039488	27415896	33184
685	127.957471	130437120	95039488	36340936	33184
686	130.552462	130437120	95039488	46119728	33184
687	130.254417	130437120	95039488	56906328	33184
688	165.929666	126500864	90845184	42478200	33184
689	134.324346	126500864	90845184	55075760	33184
690	137.577869	126500864	90845184	56104360	33184
691	138.248734	134610944	99233792	70624256	33184
692	168.720303	132751360	97136640	33173976	33184
693	144.901385	132751360	97136640	36947960	33184
694	141.347272	132751360	97136640	54017760	33184
695	145.907856	132751360	97136640	59441256	33184
696	182.970523	129146880	93466624	38098000	33184
697	144.095903	129146880	93466624	57849880	33184
698	156.777078	129146880	93466624	65979304	33184
699	152.559541	139419648	103952384	75103056	33184
700	178.340734	133775360	98185216	28680416	33184
701	157.016214	133775360	98185216	39562304	33184
702	2.835865	133775360	98185216	52132800	33184
703	4.285674	133775360	98185216	54885568	33184
704	5.849604	133775360	98185216	58557928	33184
705	6.852148	133775360	98185216	63151424	33184
706	10.528443	133775360	98185216	54349512	33184
707	9.756917	133775360	98185216	60789184	33184
708	11.702715	133775360	98185216	52499584	33184
709	12.464779	133775360	98185216	60789848	33184
710	14.522177	133775360	98185216	54246312	33184
711	15.185809	133775360	98185216	64399248	33184
712	16.895939	133775360	98185216	59215856	33184
713	18.834595	133775360	98185216	55654712	33184
714	20.903784	133775360	98185216	53520272	33184
715	22.847129	133775360	98185216	52676288	33184
716	24.173694	133775360	98185216	52904368	33184
717	25.819908	133775360	98185216	54022592	33184
718	27.225582	133775360	98185216	55921192	33184
719	28.15657	133775360	98185216	58502168	33184
720	29.301784	133775360	98185216	61680968	33184
721	30.233367	133775360	98185216	65446144	33184
722	33.969462	133775360	98185216	55469432	33184
723	33.451968	133775360	98185216	62001152	33184
724	37.790127	133775360	98185216	54839464	33184
725	40.925065	133775360	98185216	65895816	33184
726	53.229739	133775360	98185216	60670672	33184
727	46.843043	121765888	86126592	25821376	33184
728	48.078861	121765888	86126592	27194376	33184
729	48.334265	121765888	86126592	29313800	33184
730	50.247231	121765888	86126592	32429016	33184
731	51.140547	121765888	86126592	36521784	33184
732	53.252026	121765888	86126592	41589376	33184
733	54.624503	121765888	86126592	47579912	33184
734	61.640458	121765888	86126592	54575240	33184
735	81.40771	120242176	84553728	24462136	33184
736	58.177873	120242176	84553728	33440152	33184
737	60.703071	120242176	84553728	43383584	33184
738	66.101057	120242176	84553728	41667096	33184
739	63.221678	120242176	84553728	53539512	33184
740	68.533088	120242176	84553728	53807168	33184
741	71.129937	122134528	86650880	55042728	33184
742	79.999315	126189568	90845184	69851328	33184
743	93.008106	125882368	90845184	29500912	33184
744	74.241782	126152704	90845184	33689456	33184
745	75.27219	126152704	90845184	38837296	33184
746	78.001775	126152704	90845184	45139144	33184
747	78.357063	126152704	90845184	52279800	33184
748	80.600441	126693376	90845184	60558680	33184
749	101.606901	123789312	89796608	33865608	33184
750	87.920024	125136896	89796608	31054256	33184
751	87.774766	125136896	89796608	42333000	33184
752	92.06999	125136896	89796608	41863128	33184
753	88.296581	125136896	89796608	55138992	33184
754	106.864856	125677568	90320896	56804584	33184
755	107.583839	125706240	90320896	29650016	33184
756	91.940508	125706240	90320896	45733504	33184
757	101.065452	125706240	90320896	50204848	33184
758	99.219637	125706240	90320896	55780336	33184
759	101.861636	127328256	91893760	62301288	33184
760	130.668964	131198976	96088064	39930152	33184
761	104.659693	131198976	96088064	48553720	33184
762	105.315948	131198976	96088064	58029968	33184
763	110.739325	131198976	96088064	55989768	33184
764	110.174281	131739648	96088064	67527824	33184
765	140.009454	131284992	97136640	30656272	33184
766	112.919499	132632576	97136640	43065896	33184
767	116.152663	132632576	97136640	45027168	33184
768	114.54565	132632576	97136640	60607936	33184
769	120.911873	132632576	97136640	64691024	33184
770	150.186918	129662976	93990912	40392736	33184
771	122.777982	129662976	93990912	46398344	33184
772	124.790695	129662976	93990912	53522568	33184
773	125.806729	130473984	95039488	61614072	33184
774	151.980064	140206080	104476672	70796784	33184
775	135.320046	136986624	101330944	43916368	33184
776	130.652931	136986624	101330944	55121568	33184
777	137.536809	136986624	101330944	54687976	33184
778	139.475579	137527296	101855232	67928240	33184
779	164.507043	129114112	93466624	37688360	33184
780	137.404419	129114112	93466624	52892392	33184
781	145.145871	129114112	93466624	56663896	33184
782	142.17126	135602176	100282368	73955200	33184
783	178.608335	139968512	104476672	46934112	33184
784	147.438895	139968512	104476672	53712976	33184
785	147.720657	139968512	104476672	61619864	33184
786	149.93927	140238848	104476672	70516536	33184
787	186.132347	134803456	99233792	45515360	33184
788	152.740206	134803456	99233792	56459808	33184
789	155.482943	134803456	99233792	68463352	33184
790	159.293353	140750848	105525248	81496784	33184
791	189.014935	143912960	108146688	46679032	33184
792	160.793366	143912960	108146688	61813216	33184
793	164.510274	143912960	108146688	65351040	33184
794	193.916768	132640768	99233792	32619456	33184
795	161.561064	134529024	99233792	49645584	33184
796	172.05814	134529024	99233792	56415808	33184
797	166.222495	135340032	99758080	76752240	33184
798	196.911213	135540736	99758080	33802192	33184
799	174.845047	135540736	99758080	43612304	33184
800	179.319144	136351744	100806656	54657776	33184
801	208.506787	125128704	89272320	41726464	33184
802	7.747281	125939712	90320896	55671992	33184
803	4.725897	125939712	90320896	58842048	33184
804	6.484345	125939712	90320896	63070832	33184
805	7.956242	125939712	90320896	68360000	33184
806	11.348044	126750720	91369472	60054232	33184
807	10.903777	126750720	91369472	67467896	33184
808	13.2011	126750720	91369472	59947176	33184
809	13.967151	126750720	91369472	69489944	33184
810	16.243147	126750720	91369472	63852472	33184
811	18.330779	126750720	91369472	59985144	33184
812	20.371815	126750720	91369472	57787744	33184
813	22.748569	126750720	91369472	56950080	33184
814	24.673664	126750720	91369472	57287480	33184
815	26.109708	126750720	91369472	58621976	33184
816	27.130573	126750720	91369472	60855840	33184
817	28.301065	126750720	91369472	63891976	33184
818	29.798727	126750720	91369472	67569752	33184
819	33.981141	127291392	91893760	58020096	33184
820	37.378212	129454080	93990912	66996264	33184
821	37.7923	130535424	95039488	60477664	33184
822	40.537335	132698112	97136640	71573088	33184
823	40.875078	133238784	97660928	66823256	33184
824	47.49114	137293824	101855232	67460904	33184
825	44.208604	139456512	103952384	81671168	33184
826	44.813529	139726848	103952384	79354696	33184
827	66.700474	143781888	108146688	83276856	33184
828	62.763753	127725568	91893760	33015480	33184
829	55.207252	127725568	91893760	38934632	33184
830	61.848817	127725568	91893760	33317512	33184
831	58.711171	127725568	91893760	41413000	33184
832	59.813223	127725568	91893760	50606080	33184
833	65.979166	127725568	91893760	48361800	33184
834	62.408545	127725568	91893760	59814448	33184
835	84.933353	127725568	92418048	59670480	33184
836	80.570611	124522496	88748032	29777992	33184
837	72.076579	124522496	88748032	31880128	33184
838	69.274347	124522496	88748032	47667656	33184
839	74.995926	124522496	88748032	51968520	33184
840	76.886826	124522496	88748032	57397048	33184
841	79.190185	124522496	88748032	63930320	33184
842	109.50073	125620224	91369472	27610704	33184
843	82.013575	126967808	91369472	35600208	33184
844	83.023751	126967808	91369472	45436568	33184
845	88.56514	126967808	91369472	43795616	33184
846	87.458084	126967808	91369472	55896112	33184
847	93.491978	126967808	91369472	56478544	33184
848	125.750024	128536576	92942336	29451504	33184
849	91.022567	128536576	92942336	44851744	33184
850	97.422825	128536576	92942336	48818080	33184
851	99.114385	128536576	92942336	53964688	33184
852	100.838093	128536576	92942336	60207960	33184
853	109.720162	135294976	99758080	67417912	33184
854	134.918272	133922816	98185216	41340760	33184
855	109.110693	133922816	98185216	50899704	33184
856	111.9743	133922816	98185216	49121736	33184
857	111.012542	133922816	98185216	60907256	33184
858	116.428312	134463488	98709504	73830192	33184
859	147.148884	128987136	93466624	42328376	33184
860	117.569086	128987136	93466624	44899848	33184
861	115.195553	128987136	93466624	61241744	33184
862	125.329421	128987136	93466624	66165048	33184
863	131.695683	137097216	101855232	72271048	33184
864	149.125487	137576448	102379520	44504888	33184
865	125.900716	137576448	102379520	52845592	33184
866	127.552585	137576448	102379520	62351144	33184
867	131.385059	137576448	102379520	73049160	33184
868	159.649443	131457024	96088064	34315912	33184
869	135.214583	131457024	96088064	47533520	33184
870	138.738078	131457024	96088064	49167544	33184
871	136.478978	131457024	96088064	64495176	33184
872	164.749871	128577536	92942336	34773288	33184
873	145.196731	128577536	92942336	39731328	33184
874	143.965245	128577536	92942336	58465008	33184
875	172.426992	131821568	96612352	65726928	33184
876	157.969452	127721472	91893760	44864176	33184
877	150.4246	127721472	91893760	54382944	33184
878	154.687364	128802816	93466624	65178096	33184
879	185.224299	131403776	96088064	28537968	33184
880	155.420598	131403776	96088064	41526144	33184
881	156.357848	131403776	96088064	55738160	33184
882	193.181201	125599744	91369472	28204424	33184
883	163.551868	126947328	91369472	44208696	33184
884	164.662035	126947328	91369472	61871408	33184
885	172.450589	136949760	101855232	68173528	33184
886	191.764317	126566400	90845184	37006784	33184
887	173.431106	126566400	90845184	45671432	33184
888	182.622671	127377408	91893760	55532144	33184
889	208.694393	125485056	90320896	41377512	33184
890	172.133459	125485056	90320896	66171616	33184
891	181.703554	136028160	100806656	79533648	33184
892	212.543264	129429504	93990912	39448280	33184
893	186.703222	129699840	93990912	42543128	33184
894	185.060563	129699840	93990912	59403424	33184
895	215.871618	129843200	93990912	31044416	33184
896	188.741516	129843200	93990912	50248032	33184
897	193.190413	129843200	93990912	58037208	33184
898	227.169713	128086016	92418048	53827440	33184
899	198.568221	128086016	92418048	64072312	33184
900	204.52756	143224832	108146688	75464752	33184
901	225.508367	132669440	97136640	30695656	33184
902	7.979512	132669440	97136640	45442048	33184
903	5.533515	132669440	97136640	49031368	33184
904	7.035596	132669440	97136640	53792480	33184
905	9.106576	132669440	97136640	59746712	33184
906	12.244317	132939776	97136640	52036320	33184
907	12.430453	132939776	97136640	60387552	33184
908	14.559744	132939776	97136640	53575552	33184
909	17.138212	132939776	97136640	48906328	33184
910	17.631437	132939776	97136640	60847688	33184
911	19.70455	132939776	97136640	57624552	33184
912	21.799907	132939776	97136640	56006512	33184
913	23.531066	132939776	97136640	55811320	33184
914	25.442387	132939776	97136640	56835312	33184
915	26.890166	132939776	97136640	58920184	33184
916	31.207737	132939776	97136640	48000240	33184
917	34.060354	132939776	97136640	55982728	33184
918	32.685886	132939776	97136640	62243184	33184
919	36.625687	132939776	97136640	54822784	33184
920	39.194439	132939776	97136640	66387616	33184
921	40.546355	132939776	97136640	61519744	33184
922	42.818343	132939776	97136640	58608376	33184
923	54.0744	133210112	97660928	61172288	33184
924	69.12752	124432384	90320896	33089216	33184
925	53.081603	125779968	90320896	37162536	33184
926	59.18505	125779968	90320896	30720088	33184
927	55.786549	125779968	90320896	38047472	33184
928	58.84026	125779968	90320896	46660312	33184
929	60.029252	125779968	90320896	56455376	33184
930	65.835802	125779968	90320896	54865008	33184
931	69.392452	126050304	90320896	54526928	33184
932	96.87729	127401984	93466624	25852416	33184
933	67.933559	129294336	93466624	39961144	33184
934	74.342744	129294336	93466624	43307776	33184
935	74.937954	129294336	93466624	47857496	33184
936	76.04009	129294336	93466624	53629120	33184
937	77.4387	129294336	93466624	60621696	33184
938	81.829936	130646016	95039488	68886376	33184
939	100.830643	136863744	101330944	65824600	33184
940	95.039818	132124672	96612352	39589808	33184
941	90.031207	132124672	96612352	38953328	33184
942	87.245762	132124672	96612352	52224808	33184
943	95.963525	132124672	96612352	54153312	33184
944	96.702556	132124672	96612352	57165064	33184
945	122.70823	127750144	93466624	28801368	33184
946	99.884262	129097728	93466624	33563320	33184
947	103.628689	129097728	93466624	40424440	33184
948	104.140987	129097728	93466624	48430272	33184
949	105.592091	129097728	93466624	57766992	33184
950	136.954706	129908736	96088064	24545672	33184
951	110.651655	131530752	96088064	35673128	33184
952	110.031783	131530752	96088064	48766856	33184
953	117.740336	131530752	96088064	50620768	33184
954	114.967023	131530752	96088064	66229856	33184
955	141.731216	132481024	97136640	35889176	33184
956	121.982042	132481024	97136640	41532808	33184
957	125.632865	132481024	97136640	48225408	33184
958	125.708917	132481024	97136640	56212560	33184
959	154.881367	126488576	90845184	33825920	33184
960	128.943607	126488576	90845184	44370096	33184
961	131.541712	126488576	90845184	56159184	33184
962	137.193581	127840256	92418048	56607240	33184
963	153.761926	126152704	90320896	37600112	33184
964	140.062924	126152704	90320896	40590520	33184
965	137.920975	126152704	90320896	57416272	33184
966	164.538622	127234048	91893760	62955264	33184
967	162.791857	125489152	89796608	41029368	33184
968	149.234233	125489152	89796608	49065008	33184
969	145.5999	127111168	91893760	71003840	33184
970	183.976386	131547136	96612352	32993808	33184
971	156.025563	132087808	96612352	44997392	33184
972	155.742492	132087808	96612352	58200624	33184
973	161.929511	132898816	97136640	72665400	33184
974	196.804717	128638976	93466624	46142216	33184
975	161.885346	128638976	93466624	63161232	33184
976	173.711069	132964352	97660928	68885864	33184
977	202.061798	135442432	101330944	37968832	33184
978	170.537027	136790016	101330944	45075384	33184
979	174.973293	136790016	101330944	54607736	33184
980	172.19751	137601024	101855232	78036944	33184
981	217.42653	134496256	98709504	45812808	33184
982	180.002108	134496256	98709504	59274072	33184
983	182.867794	138280960	102903808	74024960	33184
984	212.509777	135368704	99758080	35064856	33184
985	184.206819	135368704	99758080	52364344	33184
986	190.527145	135368704	99758080	58398928	33184
987	230.675261	129257472	93466624	53358480	33184
988	196.951698	129257472	93466624	61999576	33184
989	197.961993	140881920	105525248	84455304	33184
990	225.343778	131055616	95563776	38454008	33184
991	199.475288	131055616	95563776	51026416	33184
992	229.518729	131325952	95563776	64778160	33184
993	218.024306	127557632	91893760	52805600	33184
994	209.047794	129720320	94515200	69302776	33184
995	248.383047	139792384	106049536	37930288	33184
996	212.696329	141139968	106049536	55894856	33184
997	215.57044	141139968	106049536	63676928	33184
998	249.77697	135774208	100282368	34688632	33184
999	216.152279	135774208	100282368	57655168	33184
1000	223.956346	135774208	100282368	69380640	33184
