x	Duration	RSS	HeapTotal	HeapUsed	External
0	NA	128917504	92418048	58276224	33184
1	0.34948	128917504	92418048	58318344	33184
2	0.370591	128917504	92418048	58385632	33184
3	0.44696	128917504	92418048	58477816	33184
4	0.533931	128917504	92418048	58596264	33184
5	0.685059	128917504	92418048	58742736	33184
6	0.755235	128917504	92418048	58917920	33184
7	0.861061	128917504	92418048	59123048	33184
8	1.005476	128917504	92418048	59359424	33184
9	1.315125	128917504	92418048	59629408	33184
10	0.453897	128917504	92418048	59933344	33184
11	0.49947	128917504	92418048	60272424	33184
12	0.556891	128917504	92418048	60647936	33184
13	4.963403	128917504	92418048	48188728	33184
14	0.682098	128917504	92418048	48640736	33184
15	0.765911	128917504	92418048	49132744	33184
16	0.776851	128917504	92418048	49666320	33184
17	0.822508	128917504	92418048	50244000	33184
18	0.891422	128917504	92418048	50865416	33184
19	1.019562	128917504	92418048	51533272	33184
20	1.029508	128917504	92418048	52246968	33184
21	1.078139	128917504	92418048	53009056	33184
22	1.148736	128917504	92418048	53820728	33184
23	1.280238	128917504	92418048	54683288	33184
24	1.289507	128917504	92418048	55597744	33184
25	1.81777	128917504	92418048	56565600	33184
26	1.557292	128917504	92418048	57590856	33184
27	1.508052	128917504	92418048	58668824	33184
28	1.806403	128917504	92418048	59803720	33184
29	1.671014	128917504	92418048	60996840	33184
30	1.744785	128917504	92418048	62249344	33184
31	4.7012	128917504	92418048	48911776	33184
32	2.002138	128917504	92418048	50289440	33184
33	2.093576	128917504	92418048	51734752	33184
34	2.957016	128917504	92418048	53245040	33184
35	2.271481	128917504	92418048	54820232	33184
36	2.455801	128917504	92418048	56470544	33184
37	2.581033	128917504	92418048	58180576	33184
38	2.525888	128917504	92418048	59959920	33184
39	2.787352	128917504	92418048	61811576	33184
40	2.739857	128917504	92418048	63733016	33184
41	4.332431	128917504	92418048	49555136	33184
42	3.038109	128917504	92418048	51624464	33184
43	2.983652	128917504	92418048	53768576	33184
44	3.105136	128917504	92418048	55990696	33184
45	3.603163	128917504	92418048	58294080	33184
46	3.308552	128917504	92418048	60676232	33184
47	3.429531	128917504	92418048	63140576	33184
48	4.972475	128917504	92418048	49574224	33184
49	3.707103	128917504	92418048	52206440	33184
50	3.988712	128917504	92418048	54924432	33184
51	3.932169	128917504	92418048	57729920	33184
52	4.173622	128917504	92418048	60625624	33184
53	4.101539	128917504	92418048	63608640	33184
54	5.757021	128917504	92418048	50516088	33184
55	4.756908	128917504	92418048	53681624	33184
56	5.581978	128917504	92418048	56948720	33184
57	4.801748	128917504	92418048	60301568	33184
58	4.921404	128917504	92418048	63750424	33184
59	6.320181	128917504	92418048	51125120	33184
60	6.205468	128917504	92418048	54768496	33184
61	5.215975	128917504	92418048	58518872	33184
62	5.245217	128917504	92418048	62361840	33184
63	6.933432	128917504	92418048	50467912	33184
64	6.184793	128917504	92418048	54515600	33184
65	5.706189	128917504	92418048	58675304	33184
66	5.81179	128917504	92418048	62940136	33184
67	7.415231	128917504	92418048	51642024	33184
68	6.381338	128917504	92418048	56121560	33184
69	6.286812	128917504	92418048	60710056	33184
70	6.627808	128917504	92418048	65408688	33184
71	7.887397	128917504	92418048	54352344	33184
72	7.278109	128917504	92418048	59275136	33184
73	7.170705	128917504	92418048	64311816	33184
74	8.989674	128917504	92418048	53725160	33184
75	7.451659	128917504	92418048	58993464	33184
76	7.608953	128917504	92418048	64379320	33184
77	9.173613	128917504	92418048	54126792	33184
78	7.949607	128917504	92418048	59751560	33184
79	8.094211	128917504	92418048	65498000	33184
80	9.913424	128917504	92418048	55534160	33184
81	8.571959	128917504	92418048	61527712	33184
82	9.228316	128917504	92418048	67648632	33184
83	10.522373	128917504	92418048	57905240	33184
84	8.86378	128917504	92418048	64279200	33184
85	10.926692	128917504	92418048	55156464	33184
86	9.62859	128917504	92418048	61789992	33184
87	9.396202	128917504	92418048	68555792	33184
88	11.254123	128917504	92418048	59435432	33184
89	9.914589	128917504	92418048	66469608	33184
90	11.588684	129187840	92418048	57821608	33184
91	10.328397	129187840	92418048	65130768	33184
92	12.408907	129187840	92418048	56967392	33184
93	10.707594	129187840	92418048	64558432	33184
94	12.750925	129187840	92418048	56746288	33184
95	10.913711	129187840	92418048	64624928	33184
96	13.350068	129187840	92418048	57141888	33184
97	11.840358	129187840	92418048	65313608	33184
98	13.874815	129187840	92418048	58081336	33184
99	12.502141	129187840	92418048	66549344	33184
100	14.518944	129187840	92418048	59503280	33184
101	13.229039	129187840	92418048	68273088	33184
102	0.485188	129187840	92418048	61175896	33184
103	0.691002	129187840	92418048	61634576	33184
104	0.911545	129187840	92418048	62248400	33184
105	1.164135	129187840	92418048	63018624	33184
106	1.338802	129187840	92418048	63946944	33184
107	1.570457	129187840	92418048	65034112	33184
108	1.786082	129187840	92418048	66281248	33184
109	2.047264	129187840	92418048	67689776	33184
110	2.269925	129187840	92418048	69261840	33184
111	2.484626	129187840	92418048	70998336	33184
112	4.40148	129458176	92942336	56780648	33184
113	3.163418	129458176	92942336	58847408	33184
114	3.171459	129458176	92942336	61081704	33184
115	3.510702	129458176	92942336	63484800	33184
116	3.643628	129458176	92942336	66058512	33184
117	4.101296	129458176	92942336	68803480	33184
118	4.137149	129458176	92942336	71721424	33184
119	5.940572	129728512	92942336	58556920	33184
120	4.835699	129728512	92942336	61824864	33184
121	4.886082	129728512	92942336	65267528	33184
122	5.348089	129728512	92942336	68887472	33184
123	7.189385	129728512	92942336	56801904	33184
124	5.863763	129728512	92942336	60779920	33184
125	5.890783	129728512	92942336	64939320	33184
126	7.022394	129728512	92942336	69280352	33184
127	8.740227	129728512	92942336	57881640	33184
128	7.09132	129728512	92942336	62590696	33184
129	7.260133	129728512	92942336	67485648	33184
130	9.301053	129728512	92942336	56906560	33184
131	7.505405	129728512	92942336	62176816	33184
132	7.946618	129728512	92942336	67637472	33184
133	10.25583	129728512	92942336	57621952	33184
134	8.371245	129728512	92942336	63471912	33184
135	8.557187	129728512	92942336	69514736	33184
136	12.12509	129728512	92942336	59856208	33184
137	9.369779	129728512	92942336	66289576	33184
138	9.418034	129728512	92942336	72919520	33184
139	11.906328	129728512	92942336	63461720	33184
140	10.264142	129728512	92942336	70489208	33184
141	12.199907	129998848	93466624	61712352	33184
142	10.848586	129998848	93466624	69145784	33184
143	13.714779	129998848	93990912	61011376	33184
144	12.449772	130269184	93990912	68863696	33184
145	13.717633	130269184	93990912	61159376	33184
146	12.029194	130269184	93990912	69418144	33184
147	14.292044	130539520	93990912	62088632	33184
148	12.86563	130539520	93990912	70767912	33184
149	15.079474	130539520	93990912	63679472	33184
150	13.019955	130539520	93990912	72784400	33184
151	15.370624	130809856	94515200	65886480	33184
152	16.642503	130809856	94515200	60127912	33184
153	14.344442	131080192	94515200	69882424	33184
154	16.564165	131080192	94515200	64027616	33184
155	15.126079	131080192	94515200	74220048	33184
156	17.055903	131350528	94515200	68327840	33184
157	17.637814	131350528	95039488	63392064	33184
158	15.992577	131350528	95039488	74250752	33184
159	18.132034	131620864	95039488	69060904	33184
160	18.685579	131620864	95039488	64736840	33184
161	19.722926	131891200	95039488	61214608	33184
162	17.461885	131891200	95039488	72979384	33184
163	20.363323	131891200	95563776	68849728	33184
164	21.048955	132161536	95563776	65524840	33184
165	21.778254	132161536	96088064	62843136	33184
166	18.829306	132161536	96088064	75541448	33184
167	20.491558	132431872	96088064	72126912	33184
168	21.624473	132431872	96088064	69361616	33184
169	22.566576	132702208	96088064	67234240	33184
170	23.483809	132702208	96088064	65593776	33184
171	23.084467	132972544	96612352	64422256	33184
172	24.298534	132972544	96612352	63680520	33184
173	24.938664	133242880	97136640	63294864	33184
174	25.791932	133242880	97136640	63225840	33184
175	25.885682	133513216	97136640	63425088	33184
176	26.00997	133513216	97136640	63868360	33184
177	26.389331	133783552	97136640	64509016	33184
178	27.483074	133783552	97136640	65332816	33184
179	26.85609	134053888	97660928	66310416	33184
180	27.3264	134053888	97660928	67410328	33184
181	27.376915	134324224	97660928	68643800	33184
182	27.511573	134324224	98185216	69989008	33184
183	27.82499	134594560	98185216	71406184	33184
184	27.873515	134594560	98185216	72916464	33184
185	28.010289	134864896	98185216	74504672	33184
186	27.940793	134864896	98185216	76150224	33184
187	28.783309	135135232	98709504	77866832	33184
188	33.466604	135405568	99233792	65447272	33184
189	31.188129	135405568	99233792	69164064	33184
190	30.65616	135675904	99233792	72690368	33184
191	30.568781	135675904	99233792	76015176	33184
192	36.877045	136216576	99758080	65206432	33184
193	36.9214	138379264	101855232	72222952	33184
194	39.282016	138649600	101855232	76829312	33184
195	45.386605	131575808	95563776	29078224	33184
196	38.138754	131842048	95563776	22700864	33184
197	33.932332	131842048	95563776	30569408	33184
198	31.716611	131842048	95563776	36013464	33184
199	34.414089	131842048	95563776	26449368	33184
200	32.638943	131842048	95563776	32716416	33184
201	35.630307	131842048	95563776	24514672	33184
202	0.872467	131842048	95563776	33958992	33184
203	1.258355	131842048	95563776	34804800	33184
204	1.666297	131842048	95563776	35933456	33184
205	2.051019	131842048	95563776	37347192	33184
206	2.713865	131842048	95563776	39047784	33184
207	3.537593	131842048	95563776	24854664	33184
208	3.368907	131842048	95563776	27131648	33184
209	3.936759	131842048	95563776	29698408	33184
210	4.166136	131842048	95563776	32557912	33184
211	4.574123	131842048	95563776	35709392	33184
212	4.97798	131842048	95563776	39154464	33184
213	5.766164	131842048	95563776	26510752	33184
214	6.040156	131842048	95563776	30546816	33184
215	6.360976	131842048	95563776	34880328	33184
216	6.956665	131842048	95563776	39512480	33184
217	7.755854	131842048	95563776	28014512	33184
218	7.571221	131842048	95563776	33249312	33184
219	8.219809	131842048	95563776	38786304	33184
220	9.757678	131842048	95563776	28292984	33184
221	8.863665	131842048	95563776	34442136	33184
222	10.57194	131842048	95563776	25145408	33184
223	10.41234	131842048	95563776	31905088	33184
224	10.531456	131842048	95563776	38971976	33184
225	11.623159	131842048	95563776	29998256	33184
226	11.650326	131842048	95563776	37691672	33184
227	12.446683	131842048	95563776	29507968	33184
228	12.179326	131842048	95563776	37824720	33184
229	13.557706	131842048	95563776	30251288	33184
230	13.304659	131842048	95563776	39200448	33184
231	14.195183	131842048	95563776	32089912	33184
232	15.441575	131842048	95563776	26278800	33184
233	15.014607	131842048	95563776	36193544	33184
234	16.033873	131842048	95563776	30478200	33184
235	17.145138	131842048	95563776	25869056	33184
236	15.702356	131842048	95563776	36764992	33184
237	17.447227	131842048	95563776	31939208	33184
238	17.797084	131842048	95563776	28128888	33184
239	17.698927	131842048	95563776	40008616	33184
240	18.113026	131842048	95563776	35767048	33184
241	18.984914	131842048	95563776	32428216	33184
242	19.912795	131842048	95563776	29894384	33184
243	21.120373	131842048	95563776	28020840	33184
244	22.249222	131842048	95563776	26758864	33184
245	23.096751	131842048	95563776	26004264	33184
246	21.068079	131842048	95563776	40227864	33184
247	21.925448	131842048	95563776	38343856	33184
248	22.470495	131842048	95563776	37039136	33184
249	23.391494	131842048	95563776	36246200	33184
250	23.520199	131842048	95563776	35922176	33184
251	25.786172	131842048	95563776	36003056	33184
252	25.377173	131842048	95563776	36432536	33184
253	25.344531	131842048	95563776	37189544	33184
254	25.871887	131842048	95563776	38178896	33184
255	26.447442	131842048	95563776	39395368	33184
256	27.09024	131842048	95563776	40824592	33184
257	30.20325	131842048	95563776	28229040	33184
258	29.642877	131842048	95563776	31913240	33184
259	30.048027	131842048	95563776	35485984	33184
260	28.924736	131842048	95563776	38912016	33184
261	32.638019	131842048	95563776	28272400	33184
262	33.465578	131842048	95563776	35621088	33184
263	30.962422	131842048	95563776	40561856	33184
264	34.725962	131842048	95563776	31282688	33184
265	34.796584	131842048	95563776	39691040	33184
266	32.536906	131842048	95563776	45525392	33184
267	35.598506	131842048	95563776	36798824	33184
268	37.347826	131842048	95563776	46335496	33184
269	37.161118	131842048	95563776	39225376	33184
270	39.110182	131842048	95563776	49466240	33184
271	38.138214	131842048	95563776	42996360	33184
272	39.660208	131842048	95563776	53971600	33184
273	39.37585	131842048	95563776	47971072	33184
274	50.046163	132382720	96088064	47057360	33184
275	59.900431	132382720	96088064	58990904	33184
276	48.192074	121405440	84553728	32892648	33184
277	41.260076	121405440	84553728	28606216	33184
278	46.625403	121405440	84553728	29144592	33184
279	43.578906	121405440	84553728	42575440	33184
280	43.051935	121405440	84553728	38846360	33184
281	48.759899	121405440	84553728	40545600	33184
282	49.246105	121405440	84553728	42483336	33184
283	48.8318	121405440	84553728	44762400	33184
284	50.655862	121405440	84553728	47469008	33184
285	50.852763	121405440	84553728	50540696	33184
286	52.079648	124379136	87699456	54003272	33184
287	67.481077	128163840	91369472	57854016	33184
288	61.158736	126590976	89796608	31114848	33184
289	52.179272	126590976	89796608	35786696	33184
290	53.277514	126590976	89796608	40747536	33184
291	54.199676	126590976	89796608	46092208	33184
292	55.237949	126590976	89796608	51841368	33184
293	59.676851	126590976	89796608	45382224	33184
294	54.971913	126590976	89796608	51893088	33184
295	55.338103	126590976	89796608	58834112	33184
296	57.931067	127131648	90320896	66166920	33184
297	87.315595	127008768	91893760	29687576	33184
298	57.827894	128356352	91893760	37119976	33184
299	63.757764	128356352	91893760	33054512	33184
300	58.184881	128356352	91893760	41962520	33184
301	59.77996	128356352	91893760	51295680	33184
302	1.3261	128356352	91893760	48649328	33184
303	1.860112	128356352	91893760	49870864	33184
304	2.406966	128356352	91893760	51501800	33184
305	3.223444	128356352	91893760	53543504	33184
306	3.798103	128356352	91893760	55997504	33184
307	4.240422	128356352	91893760	58864800	33184
308	7.937742	128356352	91893760	48029376	33184
309	5.423775	128356352	91893760	51727568	33184
310	6.234094	128356352	91893760	55842640	33184
311	6.587512	128356352	91893760	60375672	33184
312	8.292283	128356352	91893760	49349808	33184
313	7.832252	128356352	91893760	54722448	33184
314	8.638665	128356352	91893760	60518096	33184
315	9.573462	128356352	91893760	50473232	33184
316	9.955514	128356352	91893760	57117536	33184
317	11.299682	128356352	91893760	48371792	33184
318	10.957901	128356352	91893760	55867608	33184
319	12.876883	128356352	91893760	48147360	33184
320	12.494586	128356352	91893760	56499936	33184
321	14.010235	128356352	91893760	49577480	33184
322	14.102837	128356352	91893760	58792032	33184
323	15.017829	128356352	91893760	52388144	33184
324	16.621066	128356352	91893760	47333456	33184
325	15.503106	128356352	91893760	57854776	33184
326	17.102402	128356352	91893760	52902248	33184
327	18.24739	128356352	91893760	49094032	33184
328	18.138884	128356352	91893760	60930504	33184
329	18.558947	128356352	91893760	56891328	33184
330	20.136425	128356352	91893760	53851432	33184
331	21.084953	128356352	91893760	51673600	33184
332	21.927483	128356352	91893760	50248104	33184
333	23.073835	128356352	91893760	49464272	33184
334	24.192168	128356352	91893760	49246520	33184
335	24.366199	128356352	91893760	49507640	33184
336	25.830464	128356352	91893760	50195480	33184
337	26.016189	128356352	91893760	51248136	33184
338	26.961019	128356352	91893760	52653352	33184
339	26.657719	128356352	91893760	54314104	33184
340	27.342815	128356352	91893760	56204824	33184
341	26.924772	128356352	91893760	58263880	33184
342	27.664342	128356352	91893760	60515256	33184
343	27.906687	128356352	91893760	62925592	33184
344	32.139789	128356352	91893760	51283688	33184
345	31.308017	128356352	91893760	55933032	33184
346	31.005075	128356352	91893760	60374744	33184
347	34.700365	128356352	91893760	50766632	33184
348	35.611575	128356352	91893760	59230464	33184
349	32.913941	128356352	91893760	65195328	33184
350	35.741849	128356352	91893760	56473576	33184
351	34.892147	128356352	91893760	63538080	33184
352	37.958902	128626688	91893760	56227280	33184
353	39.471858	128626688	91893760	67043168	33184
354	39.727046	128626688	91893760	60969208	33184
355	51.643272	130248704	93466624	60106056	33184
356	65.46003	129368064	93990912	28354152	33184
357	46.119282	130715648	93990912	27114576	33184
358	42.532401	130715648	93990912	40070304	33184
359	42.172894	130715648	93990912	35895864	33184
360	43.335043	130715648	93990912	32992048	33184
361	49.751488	130715648	93990912	34985792	33184
362	49.148593	130715648	93990912	37275544	33184
363	50.418831	130715648	93990912	40074480	33184
364	50.214414	130715648	93990912	43369576	33184
365	52.257164	130715648	93990912	47148528	33184
366	52.263891	130715648	93990912	51428424	33184
367	53.09587	130715648	93990912	56219856	33184
368	71.896626	131256320	94515200	61511208	33184
369	58.09756	128110592	91369472	35148376	33184
370	59.809843	128110592	91369472	29025344	33184
371	55.800434	128110592	91369472	35794048	33184
372	57.020338	128110592	91369472	43091680	33184
373	57.036349	128110592	91369472	50863408	33184
374	62.390518	128110592	91369472	46588032	33184
375	59.288759	128110592	91369472	55387336	33184
376	61.399543	128110592	91369472	64689304	33184
377	82.687025	131354624	94515200	61940416	33184
378	72.941818	130740224	93990912	26069952	33184
379	62.404766	130740224	93990912	36921520	33184
380	66.856179	130740224	93990912	35681312	33184
381	63.05049	130740224	93990912	47517088	33184
382	68.374529	130740224	93990912	47332176	33184
383	64.761541	130740224	93990912	60245104	33184
384	72.81456	130740224	93990912	61074136	33184
385	97.796424	124743680	89796608	32827952	33184
386	71.653934	126091264	89796608	34207336	33184
387	71.448333	126091264	89796608	36580088	33184
388	68.335057	126091264	89796608	52082912	33184
389	73.846265	126091264	89796608	55506808	33184
390	76.921911	126631936	89796608	59522752	33184
391	76.100485	127442944	90845184	63995072	33184
392	104.878777	128753664	93466624	23371376	33184
393	78.343765	130371584	93466624	27831112	33184
394	77.994447	130371584	93466624	33881184	33184
395	78.61722	130371584	93466624	40474672	33184
396	79.646827	130371584	93466624	47623360	33184
397	78.583229	130371584	93466624	55305928	33184
398	83.140156	130371584	93466624	63546840	33184
399	113.785349	129249280	92418048	29716344	33184
400	81.93745	129249280	92418048	39076496	33184
401	82.542069	129249280	92418048	48898616	33184
402	1.63708	129249280	92418048	46971320	33184
403	2.397219	129249280	92418048	48599184	33184
404	3.155999	129249280	92418048	50771752	33184
405	3.973102	129249280	92418048	53490504	33184
406	4.814942	129249280	92418048	56757056	33184
407	7.952476	129249280	92418048	46479200	33184
408	6.557376	129249280	92418048	50843944	33184
409	7.121066	129249280	92418048	55761160	33184
410	7.875405	129249280	92418048	61230232	33184
411	9.132233	129249280	92418048	50936768	33184
412	9.721861	129249280	92418048	57524328	33184
413	11.148184	129249280	92418048	48815152	33184
414	11.087404	129249280	92418048	56509336	33184
415	12.879885	129249280	92418048	49028136	33184
416	12.942984	129249280	92418048	57836120	33184
417	14.1629	129249280	92418048	51291328	33184
418	14.578481	129249280	92418048	61228488	33184
419	15.968422	129249280	92418048	55380288	33184
420	17.572833	129249280	92418048	50882184	33184
421	18.83851	129249280	92418048	47570576	33184
422	18.098943	129249280	92418048	59769720	33184
423	19.286469	129249280	92418048	56368944	33184
424	20.419101	129249280	92418048	54002296	33184
425	22.278149	129249280	92418048	52528968	33184
426	22.921496	129249280	92418048	51900720	33184
427	23.550684	129249280	92418048	51862792	33184
428	25.143606	129249280	92418048	52420136	33184
429	25.242966	129249280	92418048	53485824	33184
430	25.95933	129249280	92418048	55015736	33184
431	27.505814	129249280	92418048	56943288	33184
432	27.710331	129249280	92418048	59151672	33184
433	28.291113	129249280	92418048	61647288	33184
434	30.970984	129249280	92418048	50281568	33184
435	33.807097	129249280	92418048	57566824	33184
436	30.990054	129249280	92418048	62578808	33184
437	34.422069	129249280	92418048	53379376	33184
438	36.013533	129249280	92418048	62375400	33184
439	37.26395	129249280	92418048	55310872	33184
440	38.055354	129249280	92418048	65435384	33184
441	39.154972	129249280	92418048	59405232	33184
442	41.5936	130600960	93990912	70700336	33184
443	56.671622	131411968	95039488	65433480	33184
444	44.952619	128790528	92418048	27134192	33184
445	41.480071	128790528	92418048	23374736	33184
446	47.728973	128790528	92418048	24398880	33184
447	42.964206	128790528	92418048	38562808	33184
448	43.545261	128790528	92418048	35632176	33184
449	44.444521	128790528	92418048	33875496	33184
450	50.339541	128790528	92418048	37316552	33184
451	51.144471	128790528	92418048	41245512	33184
452	53.101043	128790528	92418048	45781808	33184
453	52.844362	128790528	92418048	50920608	33184
454	54.114035	128790528	92418048	56646544	33184
455	62.231859	128790528	92418048	62980992	33184
456	79.734402	125677568	88748032	28974648	33184
457	56.093713	125677568	88748032	36590440	33184
458	61.069852	125677568	88748032	32115928	33184
459	59.072935	125677568	88748032	40890680	33184
460	59.81938	125677568	88748032	50207872	33184
461	64.109749	125677568	88748032	47611272	33184
462	61.335879	125677568	88748032	58194784	33184
463	70.902835	126218240	89272320	56830536	33184
464	89.605909	128798720	92418048	25382408	33184
465	64.64678	128798720	92418048	37854608	33184
466	69.479456	128798720	92418048	38338120	33184
467	65.458673	128798720	92418048	52009424	33184
468	72.078556	128798720	92418048	53743632	33184
469	71.366628	128798720	92418048	56089400	33184
470	72.933203	129069056	92418048	59063712	33184
471	90.567884	131772416	95039488	62631624	33184
472	83.098043	130215936	93466624	32944200	33184
473	75.887031	130215936	93466624	37809464	33184
474	77.554102	130215936	93466624	43259944	33184
475	78.544746	130215936	93466624	49358952	33184
476	81.701768	130215936	93466624	56137248	33184
477	78.964312	130215936	93466624	63503248	33184
478	110.015951	127668224	92418048	26991168	33184
479	80.661906	129015808	92418048	34749968	33184
480	83.162711	129015808	92418048	43992768	33184
481	88.793567	129015808	92418048	41321232	33184
482	84.599933	129015808	92418048	51883304	33184
483	85.052615	129015808	92418048	63093400	33184
484	115.762834	125775872	90320896	31539288	33184
485	91.698153	127123456	90320896	30848744	33184
486	87.908833	127123456	90320896	44096552	33184
487	95.40302	127123456	90320896	45483944	33184
488	90.307824	127123456	90320896	60058896	33184
489	101.034925	127123456	90320896	62748888	33184
490	117.92477	129556480	92942336	35873880	33184
491	96.056616	129556480	92942336	39632656	33184
492	98.277327	129556480	92942336	44095992	33184
493	93.355582	129556480	92942336	61757472	33184
494	99.492844	129826816	92942336	67523120	33184
495	127.963623	131751936	95039488	26208848	33184
496	102.479865	131751936	95039488	33376216	33184
497	102.520998	131751936	95039488	41110128	33184
498	103.015069	131751936	95039488	49503448	33184
499	105.910124	131751936	95039488	58530752	33184
500	133.53924	127123456	90320896	39987408	33184
501	106.168158	127123456	90320896	50331312	33184
502	2.024569	127123456	90320896	49225280	33184
503	2.941135	127123456	90320896	51221320	33184
504	4.11462	127123456	90320896	53884752	33184
505	4.905729	127123456	90320896	57216976	33184
506	8.577036	127123456	90320896	47370328	33184
507	7.588842	127123456	90320896	52044520	33184
508	7.87966	127123456	90320896	57390856	33184
509	10.307515	127123456	90320896	47867424	33184
510	9.960412	127123456	90320896	54563552	33184
511	10.937818	127123456	90320896	61936080	33184
512	12.117492	127123456	90320896	53669520	33184
513	13.059545	127123456	90320896	62399848	33184
514	14.507668	127123456	90320896	55401336	33184
515	16.008719	127123456	90320896	50075640	33184
516	15.902543	127123456	90320896	60848720	33184
517	17.434904	127123456	90320896	56095216	33184
518	19.188827	127123456	90320896	52713168	33184
519	20.549681	127123456	90320896	50486512	33184
520	21.724174	127123456	90320896	49245512	33184
521	23.250236	127123456	90320896	48864944	33184
522	24.943668	127123456	90320896	49238000	33184
523	25.175864	127123456	90320896	50255464	33184
524	26.117575	127123456	90320896	51815560	33184
525	27.191945	127123456	90320896	53850024	33184
526	27.601341	127123456	90320896	56281448	33184
527	27.933227	127123456	90320896	59089424	33184
528	28.437855	127123456	90320896	62202432	33184
529	32.45154	127123456	90320896	51482128	33184
530	34.775909	127123456	90320896	59569376	33184
531	32.148098	127123456	90320896	65366208	33184
532	35.810711	127123456	90320896	56659384	33184
533	34.963368	127123456	90320896	64003304	33184
534	37.683895	127123456	90320896	57056296	33184
535	44.285278	127393792	90845184	56028296	33184
536	41.336106	129015808	92418048	68109416	33184
537	41.384184	129826816	93466624	63843576	33184
538	48.736699	133881856	97136640	64897400	33184
539	54.125627	137666560	101330944	66524232	33184
540	67.897673	131444736	96088064	32629752	33184
541	51.843614	132792320	96088064	34359624	33184
542	52.101762	132792320	96088064	38216736	33184
543	52.536594	132792320	96088064	42769184	33184
544	54.229444	133062656	96088064	48043232	33184
545	54.841344	133062656	96088064	54021816	33184
546	60.192717	133062656	96088064	48147568	33184
547	60.995388	133062656	96088064	55592448	33184
548	58.039009	133062656	96088064	63800240	33184
549	79.68252	133062656	96088064	60143920	33184
550	68.903298	130809856	93990912	36356520	33184
551	65.584611	130809856	93990912	34182704	33184
552	61.62928	130809856	93990912	45106928	33184
553	67.695079	130809856	93990912	44242464	33184
554	68.925111	130809856	93990912	44119440	33184
555	65.575762	130809856	93990912	57217384	33184
556	72.383907	130809856	93990912	58577032	33184
557	98.625101	127152128	91893760	31058976	33184
558	74.241207	128499712	91893760	33410704	33184
559	73.887937	128499712	91893760	36937240	33184
560	71.34738	128499712	91893760	53748320	33184
561	76.334732	128499712	91893760	58737728	33184
562	77.599586	128499712	91893760	64497192	33184
563	78.958211	129040384	92418048	70995624	33184
564	108.991687	129216512	93990912	31515800	33184
565	79.047683	130564096	93990912	38342624	33184
566	86.26957	130564096	93990912	34541368	33184
567	82.706779	130564096	93990912	44069472	33184
568	84.872704	130564096	93990912	54300320	33184
569	89.738092	130564096	93990912	52802168	33184
570	114.992626	126308352	90845184	36254272	33184
571	92.126105	127655936	90845184	35881936	33184
572	87.924017	127655936	90845184	49170432	33184
573	93.569239	127655936	90845184	50695592	33184
574	89.951063	127655936	90845184	65405880	33184
575	98.056357	132521984	96088064	68389680	33184
576	119.770862	130752512	96088064	35444776	33184
577	97.564771	132370432	96088064	38710888	33184
578	99.770172	132370432	96088064	43930296	33184
579	100.465402	132370432	96088064	49998024	33184
580	101.630984	132370432	96088064	56798088	33184
581	125.832099	125267968	89796608	32803184	33184
582	103.981848	126615552	89796608	40532192	33184
583	105.034585	126615552	89796608	49593752	33184
584	109.533826	126615552	89796608	46856608	33184
585	106.979336	126615552	89796608	57526600	33184
586	139.859191	130400256	93990912	40252944	33184
587	113.418441	130400256	93990912	39915000	33184
588	109.972446	130400256	93990912	52906056	33184
589	110.708392	130400256	93990912	66677856	33184
590	117.357164	135536640	99233792	68598624	33184
591	140.780978	131452928	95039488	31605472	33184
592	120.439008	131723264	95039488	35291720	33184
593	117.670338	131723264	95039488	52147344	33184
594	122.420979	131723264	95039488	57227664	33184
595	144.949029	131723264	95039488	63081880	33184
596	135.583617	129183744	92418048	39382584	33184
597	125.000611	129183744	92418048	46835368	33184
598	126.828803	129183744	92418048	55082968	33184
599	130.296702	132427776	95563776	64061192	33184
600	161.329278	137142272	100806656	42882032	33184
601	129.927028	137142272	100806656	53484176	33184
602	2.372234	137142272	100806656	65472912	33184
603	7.741243	137142272	100806656	55047112	33184
604	4.77191	137142272	100806656	58230608	33184
605	6.094344	137142272	100806656	62210456	33184
606	7.237655	137142272	100806656	66992696	33184
607	9.890016	137142272	100806656	57854928	33184
608	9.822582	137142272	100806656	64242760	33184
609	12.680434	137412608	100806656	55726904	33184
610	11.914401	137412608	100806656	63717944	33184
611	14.310493	137412608	100806656	56980360	33184
612	14.255391	137412608	100806656	66584080	33184
613	16.08084	137412608	100806656	61068520	33184
614	18.310909	137412608	100806656	57122776	33184
615	17.697658	137412608	100806656	69165504	33184
616	19.531789	137412608	100806656	65701744	33184
617	20.833927	137412608	100806656	63544336	33184
618	22.835516	137412608	100806656	62494136	33184
619	24.277404	137412608	100806656	62398496	33184
620	25.482889	137412608	100806656	63120272	33184
621	26.614038	137412608	100806656	64550160	33184
622	27.110932	137412608	100806656	66630376	33184
623	28.611147	137412608	100806656	69277048	33184
624	32.180394	137412608	100806656	58281008	33184
625	34.967193	137412608	100806656	66169144	33184
626	33.117298	137412608	100806656	71936928	33184
627	36.110453	137412608	100806656	63388896	33184
628	39.313525	137682944	100806656	73736440	33184
629	39.127923	137682944	100806656	67626368	33184
630	44.703883	137682944	100806656	66944168	33184
631	44.42004	139304960	102903808	79576368	33184
632	64.217846	129556480	95039488	22481328	33184
633	48.823129	131444736	95039488	22898016	33184
634	44.777691	131444736	95039488	37974232	33184
635	45.391448	131444736	95039488	35974280	33184
636	46.87093	131444736	95039488	35205928	33184
637	52.816551	131444736	95039488	40409944	33184
638	54.653876	131444736	95039488	46216464	33184
639	59.843975	131444736	95039488	40383248	33184
640	57.267051	131444736	95039488	47828352	33184
641	58.928975	131444736	95039488	56243144	33184
642	68.936591	131985408	95563776	52905408	33184
643	82.447422	124776448	89272320	34029360	33184
644	66.614354	126124032	89272320	31987200	33184
645	62.82742	126124032	89272320	43784576	33184
646	70.482079	126124032	89272320	43774000	33184
647	70.5585	126124032	89272320	44671808	33184
648	66.928272	126124032	89272320	58913080	33184
649	72.791498	126664704	89796608	61505856	33184
650	101.139833	129830912	95039488	20771224	33184
651	72.222698	131719168	95039488	36721584	33184
652	78.096712	131719168	95039488	41854376	33184
653	77.833131	131719168	95039488	47804208	33184
654	79.114086	131719168	95039488	54667152	33184
655	85.280001	131719168	95039488	49875920	33184
656	85.945227	131719168	95039488	58467640	33184
657	103.643125	126742528	89796608	37808664	33184
658	90.230751	126742528	89796608	35658912	33184
659	85.136114	126742528	89796608	46801280	33184
660	86.873242	126742528	89796608	58821696	33184
661	91.308989	126742528	89796608	59190680	33184
662	92.517993	129716224	92942336	72950008	33184
663	125.91071	133054464	96612352	30543144	33184
664	91.576527	133054464	96612352	46032384	33184
665	96.907067	133054464	96612352	49818344	33184
666	97.580916	133054464	96612352	54554512	33184
667	99.307372	133054464	96612352	60055456	33184
668	122.910197	136298496	99758080	66621072	33184
669	108.422605	131919872	95039488	39131416	33184
670	105.561329	131919872	95039488	47415072	33184
671	105.242234	131919872	95039488	56581840	33184
672	111.05049	131919872	95039488	54080096	33184
673	129.343916	134623232	98185216	65088936	33184
674	122.524111	129331200	92942336	31521864	33184
675	112.305379	129331200	92942336	44150832	33184
676	115.502276	129331200	92942336	57661400	33184
677	118.298967	129331200	92942336	59437424	33184
678	143.725359	132280320	95563776	27512344	33184
679	115.757224	132280320	95563776	43771968	33184
680	120.664428	132280320	95563776	48265392	33184
681	124.795821	132280320	95563776	53651352	33184
682	139.851333	132280320	95563776	59870800	33184
683	139.063458	129748992	92942336	36714968	33184
684	127.088121	129748992	92942336	44755424	33184
685	132.062127	129748992	92942336	53759184	33184
686	130.700401	132993024	96612352	63594096	33184
687	163.861165	138399744	101855232	43012096	33184
688	131.981505	138399744	101855232	54646256	33184
689	137.6109	138399744	101855232	54598464	33184
690	134.145411	138399744	101855232	68033824	33184
691	165.322061	135639040	99233792	30271856	33184
692	139.980342	135639040	99233792	45704256	33184
693	142.265163	135639040	99233792	49311352	33184
694	138.781529	135639040	99233792	66343352	33184
695	170.481292	129761280	92942336	37540168	33184
696	148.96305	129761280	92942336	43855072	33184
697	151.628066	129761280	92942336	51156040	33184
698	179.228321	126951424	91893760	30523704	33184
699	151.156349	128299008	91893760	39130320	33184
700	152.145536	128299008	91893760	49152288	33184
701	149.388298	129380352	92942336	72558568	33184
702	2.780378	130994176	93990912	35917368	33184
703	4.083943	130994176	93990912	38669992	33184
704	9.114412	130994176	93990912	29112208	33184
705	7.08964	130994176	93990912	33705560	33184
706	8.135567	130994176	93990912	39221968	33184
707	11.165166	130994176	93990912	30663248	33184
708	10.871672	130994176	93990912	38043584	33184
709	13.23619	130994176	93990912	30560536	33184
710	14.083305	130994176	93990912	39784824	33184
711	16.003495	130994176	93990912	33906200	33184
712	17.915054	130994176	93990912	29746120	33184
713	18.101549	130994176	93990912	41757384	33184
714	19.791795	130994176	93990912	38438392	33184
715	21.604596	130994176	93990912	36474208	33184
716	23.564504	130994176	93990912	35734792	33184
717	24.789343	130994176	93990912	36044136	33184
718	26.167034	130994176	93990912	37289192	33184
719	27.010723	130994176	93990912	39316504	33184
720	28.675241	130994176	93990912	42010568	33184
721	32.388713	130994176	93990912	31183936	33184
722	32.738898	130994176	93990912	36985408	33184
723	32.691639	130994176	93990912	42895792	33184
724	36.687444	130994176	93990912	34826776	33184
725	35.847973	130994176	93990912	42987384	33184
726	38.972226	130994176	93990912	36796584	33184
727	42.28645	130994176	93990912	33126440	33184
728	47.233798	130994176	93990912	34483808	33184
729	44.559943	130994176	93990912	49211496	33184
730	44.75844	130994176	93990912	47135880	33184
731	46.988883	130994176	93990912	46499072	33184
732	53.010669	130994176	93990912	51712944	33184
733	55.688337	130994176	93990912	57691360	33184
734	61.095189	130994176	93990912	52121752	33184
735	57.860545	130994176	93990912	60121872	33184
736	65.04445	130994176	93990912	69036152	33184
737	81.735178	129060864	92418048	32930624	33184
738	65.347285	129060864	92418048	31361408	33184
739	63.501011	129060864	92418048	43241544	33184
740	68.479287	129060864	92418048	43540376	33184
741	69.585582	129060864	92418048	44755912	33184
742	67.800947	129060864	92418048	59564568	33184
743	74.264581	129060864	92418048	62786648	33184
744	101.691671	127332352	91893760	37154328	33184
745	77.615877	128679936	91893760	41823400	33184
746	77.525458	128679936	91893760	48006320	33184
747	80.026735	128679936	91893760	55120272	33184
748	84.998798	128679936	91893760	50696880	33184
749	83.235164	128679936	91893760	59820768	33184
750	91.175047	131923968	95563776	69998760	33184
751	108.650432	133914624	97136640	35063792	33184
752	90.680619	133914624	97136640	34531416	33184
753	87.455792	133914624	97136640	47747112	33184
754	93.083893	133914624	97136640	49208352	33184
755	90.160376	133914624	97136640	64286672	33184
756	126.29315	127242240	91893760	22796072	33184
757	95.898844	128589824	91893760	39007728	33184
758	99.537126	128589824	91893760	44525256	33184
759	100.300479	128589824	91893760	51063936	33184
760	101.526247	128589824	91893760	58637424	33184
761	109.300539	129671168	92942336	67146536	33184
762	131.658114	131506176	94515200	33145776	33184
763	106.231205	131506176	94515200	43666864	33184
764	108.361434	131506176	94515200	55206272	33184
765	110.159555	131506176	94515200	67773720	33184
766	121.711358	134209536	97660928	68754360	33184
767	140.779534	133439488	97136640	37683080	33184
768	118.054344	133439488	97136640	40757440	33184
769	114.829936	133439488	97136640	57361656	33184
770	120.722482	133439488	97136640	62386664	33184
771	149.292734	131858432	96612352	33709848	33184
772	124.159044	133206016	96612352	39722680	33184
773	127.385317	133206016	96612352	47897328	33184
774	127.672224	133206016	96612352	56951984	33184
775	153.902834	133476352	96612352	67115280	33184
776	136.583425	131866624	95039488	46499560	33184
777	135.977674	131866624	95039488	46063064	33184
778	133.877013	131866624	95039488	59286880	33184
779	144.720337	134569984	98185216	73492216	33184
780	161.363824	135913472	99233792	43468472	33184
781	141.923361	135913472	99233792	47205640	33184
782	140.579631	135913472	99233792	64533336	33184
783	151.169439	138076160	101855232	70309264	33184
784	173.509913	137269248	100282368	43984336	33184
785	150.955029	137269248	100282368	51915664	33184
786	149.156215	137269248	100282368	60815256	33184
787	175.413317	141324288	105000960	70778696	33184
788	161.135608	138752000	101855232	45950528	33184
789	153.531362	138752000	101855232	57975336	33184
790	156.008749	138752000	101855232	71015648	33184
791	191.449611	136400896	99758080	35377184	33184
792	159.285048	136400896	99758080	50662968	33184
793	165.376112	136400896	99758080	54236760	33184
794	171.066355	137211904	100282368	71413600	33184
795	193.273111	133951488	97136640	46281440	33184
796	168.884773	133951488	97136640	53003664	33184
797	167.966993	135032832	98185216	73350984	33184
798	202.339776	138874880	102379520	30106904	33184
799	170.584756	138874880	102379520	52511632	33184
800	175.438399	138874880	102379520	63450880	33184
801	209.985996	129413120	92418048	30565968	33184
802	3.319013	129413120	92418048	44559232	33184
803	4.921791	129413120	92418048	47729336	33184
804	6.372061	129413120	92418048	51958328	33184
805	10.466928	129413120	92418048	43281656	33184
806	9.585945	129413120	92418048	49632600	33184
807	11.247009	129413120	92418048	57046264	33184
808	13.618414	129413120	92418048	49240632	33184
809	15.600376	129413120	92418048	43529376	33184
810	15.819367	129413120	92418048	54139120	33184
811	17.94966	129413120	92418048	49860576	33184
812	19.860511	129413120	92418048	47225616	33184
813	21.854847	129413120	92418048	46007088	33184
814	24.151707	129413120	92418048	46101816	33184
815	26.044111	129413120	92418048	47244272	33184
816	27.016484	129413120	92418048	49280984	33184
817	27.845676	129413120	92418048	52106112	33184
818	29.632929	129413120	92418048	55633168	33184
819	33.546222	129413120	92418048	45823352	33184
820	36.161943	129413120	92418048	54738696	33184
821	37.681069	129413120	92418048	48145736	33184
822	39.065962	129413120	92418048	59183472	33184
823	40.762155	129413120	92418048	54266336	33184
824	46.564923	129413120	92418048	54927312	33184
825	46.815453	129413120	92418048	69114856	33184
826	67.201513	125321216	90320896	20639952	33184
827	52.680095	127209472	90320896	23762816	33184
828	53.305393	127209472	90320896	28611112	33184
829	54.099766	127209472	90320896	34525232	33184
830	56.980936	127209472	90320896	41531592	33184
831	58.218867	127209472	90320896	49633736	33184
832	65.980302	127209472	90320896	46227960	33184
833	61.296064	127209472	90320896	56497928	33184
834	79.53422	129642496	92942336	55356184	33184
835	82.425198	124010496	87175168	25163784	33184
836	65.701409	124010496	87175168	38699360	33184
837	73.275652	124010496	87175168	40853184	33184
838	73.535942	124010496	87175168	44055456	33184
839	75.51596	124010496	87175168	48392520	33184
840	76.692174	124010496	87175168	53792888	33184
841	95.944283	128606208	91893760	60359464	33184
842	89.667051	127078400	90320896	36699048	33184
843	81.710151	127078400	90320896	45416504	33184
844	87.07652	127078400	90320896	42705360	33184
845	85.091254	127078400	90320896	53673688	33184
846	91.094745	127078400	90320896	53192392	33184
847	94.18826	129511424	92942336	66302208	33184
848	114.52939	128663552	91893760	37135208	33184
849	95.350973	128663552	91893760	40007440	33184
850	97.188396	128663552	91893760	43944872	33184
851	94.906731	128663552	91893760	61581224	33184
852	100.261516	128663552	91893760	67815256	33184
853	133.208515	128983040	92418048	27873792	33184
854	103.880419	128983040	92418048	36430328	33184
855	105.020317	128983040	92418048	46066456	33184
856	106.173702	128983040	92418048	56796824	33184
857	117.403903	129253376	92942336	56019664	33184
858	135.745865	128184320	91369472	40350568	33184
859	118.794417	128184320	91369472	41985408	33184
860	113.392483	128184320	91369472	57252368	33184
861	119.754537	128454656	91893760	60982392	33184
862	133.055765	136294400	99758080	78454800	33184
863	143.033675	136245248	99758080	36978000	33184
864	127.307473	136515584	99758080	44267648	33184
865	126.660536	136515584	99758080	52642624	33184
866	130.3972	136515584	99758080	62152928	33184
867	165.213493	129986560	93466624	42455016	33184
868	133.879829	129986560	93466624	54262920	33184
869	136.72192	129986560	93466624	54758640	33184
870	138.135489	135393280	98709504	69011184	33184
871	171.050315	135278592	100282368	33732744	33184
872	141.922359	136896512	100282368	36192632	33184
873	139.97612	136896512	100282368	53751232	33184
874	146.475477	136896512	100282368	59933248	33184
875	170.018968	132005888	95563776	32311792	33184
876	149.556283	132005888	95563776	40969440	33184
877	152.050708	132005888	95563776	50500192	33184
878	157.790559	133357568	97136640	61204016	33184
879	181.855362	132304896	95563776	43906144	33184
880	156.206244	132304896	95563776	56918120	33184
881	160.055892	132304896	95563776	71253664	33184
882	199.206374	135536640	100282368	39046680	33184
883	164.796122	136884224	100282368	41674312	33184
884	163.737544	136884224	100282368	59456464	33184
885	169.659896	137154560	100282368	65817480	33184
886	209.837834	134459392	97660928	42819928	33184
887	167.004999	134459392	97660928	64050664	33184
888	175.134301	136351744	99758080	73930328	33184
889	212.757954	140079104	105000960	32458752	33184
890	176.348575	141426688	105000960	43397264	33184
891	180.765891	141426688	105000960	56727360	33184
892	186.626238	142508032	105525248	71271240	33184
893	211.201987	132886528	96088064	54462880	33184
894	188.49166	132886528	96088064	58716368	33184
895	188.350271	140726272	103952384	76991456	33184
896	213.095521	133931008	97136640	41411912	33184
897	195.341523	133931008	97136640	49198032	33184
898	230.266021	124805120	88223744	30650744	33184
899	193.572097	124805120	88223744	53414624	33184
900	198.491488	129400832	92942336	64809696	33184
901	231.422907	131391488	95039488	42004224	33184
902	3.582001	131932160	95039488	56766208	33184
903	9.139126	131932160	95039488	47397152	33184
904	7.79301	131932160	95039488	52159616	33184
905	8.888528	131932160	95039488	58121080	33184
906	12.416477	131932160	95039488	50463816	33184
907	12.193266	131932160	95039488	58808872	33184
908	14.591994	131932160	95039488	52255296	33184
909	16.890763	131932160	95039488	47741600	33184
910	17.834184	131932160	95039488	59689712	33184
911	19.696907	131932160	95039488	56645584	33184
912	22.255313	131932160	95039488	55165080	33184
913	24.622327	131932160	95039488	55141240	33184
914	26.701318	131932160	95039488	56306944	33184
915	27.684014	131932160	95039488	58535048	33184
916	31.864707	131932160	95039488	47760008	33184
917	34.444225	131932160	95039488	55699552	33184
918	33.106459	131932160	95039488	61951080	33184
919	37.094826	131932160	95039488	54581848	33184
920	40.110721	131932160	95039488	66198312	33184
921	40.70077	131932160	95039488	61362688	33184
922	42.622132	131932160	95039488	58484968	33184
923	49.263889	131932160	95039488	61060488	33184
924	52.336227	132472832	96088064	64743752	33184
925	81.658759	131833856	92418048	22962728	33184
926	56.490557	129257472	92418048	28113400	33184
927	57.194453	129257472	92418048	35401424	33184
928	57.74797	129257472	92418048	44001968	33184
929	64.606125	129257472	92418048	41294152	33184
930	61.025089	129257472	92418048	52253240	33184
931	68.071037	129257472	92418048	51950168	33184
932	64.6089	129257472	92418048	65342312	33184
933	78.619308	130609152	93990912	67481984	33184
934	91.363189	129429504	92942336	38045704	33184
935	74.646609	129429504	92942336	42681152	33184
936	77.016364	129429504	92942336	48527304	33184
937	78.750106	129429504	92942336	55506104	33184
938	84.06589	129429504	92942336	51127848	33184
939	82.446711	129429504	92942336	60589760	33184
940	113.987862	128049152	92942336	25799352	33184
941	86.714454	129396736	92942336	36861912	33184
942	94.229188	129396736	92942336	37495656	33184
943	89.446117	129396736	92942336	51959056	33184
944	96.540284	129396736	92942336	55050880	33184
945	101.818561	129937408	92942336	59325464	33184
946	125.039339	130236416	93466624	34989488	33184
947	101.956025	130236416	93466624	41734176	33184
948	102.781188	130236416	93466624	49830824	33184
949	104.843858	130236416	93466624	59153288	33184
950	107.447719	130777088	93990912	69632976	33184
951	137.516012	132423680	96088064	32131904	33184
952	115.83682	132423680	96088064	32866312	33184
953	114.062926	132423680	96088064	47126840	33184
954	119.086777	132423680	96088064	50206776	33184
955	146.297469	125792256	90320896	24745096	33184
956	118.409602	127139840	90320896	42323200	33184
957	124.285814	127139840	90320896	49051640	33184
958	125.607449	127139840	90320896	57100720	33184
959	134.644083	132005888	95039488	66400488	33184
960	155.411949	134303744	97660928	46155384	33184
961	135.235704	134303744	97660928	45367592	33184
962	133.331735	134303744	97660928	58413000	33184
963	134.412248	135114752	98185216	72713992	33184
964	162.887135	132861952	96088064	36523584	33184
965	143.709214	132861952	96088064	40753696	33184
966	140.540789	132861952	96088064	58851560	33184
967	151.190766	132861952	96088064	65662040	33184
968	182.293027	129179648	92418048	45678392	33184
969	151.889442	129179648	92418048	54990440	33184
970	151.72713	130260992	93466624	65662040	33184
971	191.484179	135811072	100806656	30709272	33184
972	160.317454	137158656	100806656	42678696	33184
973	158.453103	137158656	100806656	57073168	33184
974	160.234055	137699328	100806656	72798592	33184
975	190.702044	131887104	95563776	39167664	33184
976	170.004599	131887104	95563776	44876672	33184
977	166.945162	131887104	95563776	64453584	33184
978	205.272706	130465792	93466624	27936936	33184
979	171.902209	130465792	93466624	50057352	33184
980	175.925491	130465792	93466624	60896952	33184
981	204.635808	130437120	93990912	40079800	33184
982	181.76411	130437120	93990912	53675432	33184
983	185.68791	130977792	93990912	55828296	33184
984	213.564287	133099520	96612352	38230376	33184
985	190.697833	133099520	96612352	43057800	33184
986	184.97931	133099520	96612352	61656192	33184
987	219.753592	131813376	95039488	34236992	33184
988	190.295805	131813376	95039488	55333976	33184
989	196.291822	131813376	95039488	65263976	33184
990	228.149237	134545408	97660928	42189760	33184
991	199.887461	134545408	97660928	54697336	33184
992	210.504647	135897088	99233792	68409664	33184
993	236.800425	128135168	91369472	56481056	33184
994	206.108521	130568192	93990912	72881432	33184
995	245.188232	148140032	111292416	77956416	33184
996	220.335262	139677696	102903808	47055280	33184
997	215.833688	139677696	102903808	67387160	33184
998	256.32475	133693440	98709504	39141208	33184
999	222.430925	135041024	98709504	48419448	33184
1000	225.485495	135581696	98709504	72617912	33184
