x	Duration	RSS	HeapTotal	HeapUsed	External
0	NA	121901056	86126592	14691896	33184
1	0.236884	121901056	86126592	14744112	33184
2	0.177268	121901056	86126592	14811960	33184
3	0.191824	121901056	86126592	14904496	33184
4	0.229733	121901056	86126592	15023392	33184
5	0.485036	121901056	86126592	15170408	33184
6	0.540532	121901056	86126592	15346256	33184
7	0.895429	121901056	86126592	15552120	33184
8	1.039794	121901056	86126592	15789240	33184
9	1.34426	121901056	86126592	16060152	33184
10	1.921745	121901056	86126592	16365208	33184
11	1.685271	121901056	86126592	16705408	33184
12	0.755001	121901056	86126592	17085960	33184
13	0.676341	121901056	86126592	17500448	33184
14	0.731384	121901056	86126592	17953832	33184
15	0.926643	121901056	86126592	18447432	33184
16	1.083222	121901056	86126592	18982352	33184
17	1.086484	121901056	86126592	19562632	33184
18	1.060838	121901056	86126592	20185936	33184
19	1.093989	121901056	86126592	20860544	33184
20	1.369423	121901056	86126592	21576952	33184
21	1.298283	121901056	86126592	22343192	33184
22	1.456151	121901056	86126592	23155608	33184
23	1.436148	121901056	86126592	24021664	33184
24	1.356564	121901056	86126592	24937016	33184
25	1.442903	121901056	86126592	25905664	33184
26	1.502364	121901056	86126592	26928760	33184
27	1.591268	121901056	86126592	28007712	33184
28	1.676169	121901056	86126592	29143560	33184
29	2.09822	121901056	86126592	30337616	33184
30	3.20964	121901056	86126592	15370880	33184
31	2.085998	121901056	86126592	16684976	33184
32	2.997512	121901056	86126592	18063632	33184
33	2.387556	121901056	86126592	19512064	33184
34	2.612204	121901056	86126592	21022760	33184
35	2.546197	121901056	86126592	22619992	33184
36	2.574402	121901056	86126592	24266136	33184
37	2.480674	121901056	86126592	25977480	33184
38	3.356661	121901056	86126592	27757992	33184
39	2.833839	121901056	86126592	29609056	33184
40	2.79254	121901056	86126592	31539472	33184
41	4.360707	121901056	86126592	17377224	33184
42	3.099671	121901056	86126592	19445856	33184
43	3.021619	121901056	86126592	21589904	33184
44	3.12945	121901056	86126592	23811776	33184
45	3.24832	121901056	86126592	26113776	33184
46	3.612218	121901056	86126592	28495936	33184
47	3.486279	121901056	86126592	30960120	33184
48	5.17426	121901056	86126592	17614480	33184
49	3.743971	121901056	86126592	20246416	33184
50	4.124381	121901056	86126592	22967520	33184
51	3.962391	121901056	86126592	25773000	33184
52	4.653417	121901056	86126592	28666632	33184
53	4.444316	121901056	86126592	31651424	33184
54	6.059576	121901056	86126592	18959528	33184
55	4.758401	121901056	86126592	22128256	33184
56	4.741915	121901056	86126592	25386912	33184
57	4.661224	121901056	86126592	28739800	33184
58	4.796623	121901056	86126592	32188240	33184
59	7.412183	121901056	86126592	19872352	33184
60	5.105948	121901056	86126592	23515624	33184
61	5.602776	121901056	86126592	27258184	33184
62	5.374596	121901056	86126592	31101136	33184
63	7.558997	121901056	86126592	19242448	33184
64	6.022135	121901056	86126592	23292936	33184
65	6.882716	121901056	86126592	27462616	33184
66	5.929699	121901056	86126592	31727600	33184
67	7.913577	121901056	86126592	20243320	33184
68	6.687417	121901056	86126592	24722680	33184
69	6.628275	121901056	86126592	29311032	33184
70	6.519054	121901056	86126592	34009552	33184
71	8.785381	121901056	86126592	22801592	33184
72	7.00996	121901056	86126592	27724936	33184
73	6.992102	121901056	86126592	32761944	33184
74	9.120628	121901056	86126592	21992480	33184
75	7.261242	121901056	86126592	27262032	33184
76	7.462415	121901056	86126592	32647832	33184
77	9.432734	121901056	86126592	22275800	33184
78	7.809189	121901056	86126592	27900544	33184
79	8.988105	121901056	86126592	33655904	33184
80	11.265427	121901056	86126592	23553784	33184
81	8.713494	121901056	86126592	29548200	33184
82	8.493597	121901056	86126592	35665880	33184
83	11.068872	121901056	86126592	25825432	33184
84	8.913781	121901056	86126592	32199296	33184
85	11.310729	121901056	86126592	23022480	33184
86	9.60696	121901056	86126592	29655928	33184
87	9.47009	121901056	86126592	36421648	33184
88	12.099689	121901056	86126592	27310544	33184
89	9.799225	121901056	86126592	34344616	33184
90	12.725772	121901056	86126592	25651400	33184
91	10.177651	121901056	86126592	32960792	33184
92	12.669732	121901056	86126592	24789504	33184
93	10.913239	121901056	86126592	32381224	33184
94	14.198364	121901056	86126592	24534472	33184
95	10.961437	121901056	86126592	32412896	33184
96	13.767443	121901056	86126592	24889272	33184
97	11.945807	121901056	86126592	33060208	33184
98	14.22313	121901056	86126592	25792808	33184
99	11.870473	121901056	86126592	34260504	33184
100	14.542035	121901056	86126592	27183464	33184
101	12.486107	121901056	86126592	35954584	33184
102	0.525651	121901056	86126592	28836856	33184
103	0.744412	121901056	86126592	29295560	33184
104	1.165642	121901056	86126592	29909384	33184
105	1.132358	121901056	86126592	30679568	33184
106	1.345816	121901056	86126592	31607880	33184
107	1.578478	121901056	86126592	32695064	33184
108	1.841252	121901056	86126592	33942248	33184
109	2.024161	121901056	86126592	35350760	33184
110	2.25036	121901056	86126592	36922736	33184
111	2.709468	121901056	86126592	38658384	33184
112	4.726611	121901056	86126592	24412808	33184
113	3.174806	121901056	86126592	26479664	33184
114	3.238899	121901056	86126592	28713936	33184
115	3.430402	121901056	86126592	31116816	33184
116	3.713364	121901056	86126592	33689760	33184
117	4.13722	121901056	86126592	36433632	33184
118	4.15252	121901056	86126592	39351688	33184
119	6.458636	121901056	86126592	26167648	33184
120	4.884073	121901056	86126592	29434464	33184
121	4.905556	121901056	86126592	32879048	33184
122	5.153213	121901056	86126592	36498992	33184
123	7.495487	121901056	86126592	24392968	33184
124	5.900029	121901056	86126592	28370944	33184
125	5.914673	121901056	86126592	32530248	33184
126	6.483148	121901056	86126592	36873664	33184
127	8.938936	121901056	86126592	25464328	33184
128	7.059869	121901056	86126592	30173488	33184
129	7.265174	121901056	86126592	35068312	33184
130	9.770982	121901056	86126592	24468920	33184
131	7.518017	121901056	86126592	29739056	33184
132	8.268618	121901056	86126592	35198840	33184
133	10.651114	121901056	86126592	25166536	33184
134	8.425232	121901056	86126592	31015912	33184
135	8.684736	121901056	86126592	37058784	33184
136	11.507193	121901056	86126592	27388160	33184
137	9.460277	121901056	86126592	33821104	33184
138	9.470268	121901056	86126592	40450976	33184
139	12.187749	121901056	86126592	30993544	33184
140	10.231912	121901056	86126592	38021200	33184
141	12.846853	121901056	86126592	29237296	33184
142	10.664757	121901056	86126592	36671608	33184
143	13.43797	121901056	86126592	28523800	33184
144	11.422781	121901056	86126592	36366456	33184
145	13.859226	121901056	86126592	28655312	33184
146	12.046406	121901056	86126592	36913920	33184
147	14.801217	121901056	86126592	29577464	33184
148	12.525887	121901056	86126592	38256984	33184
149	15.648686	121901056	86126592	31165640	33184
150	13.075248	121901056	86126592	40271672	33184
151	15.997471	121901056	86126592	33372816	33184
152	16.654291	121901056	86126592	27610744	33184
153	14.221946	121901056	86126592	37366008	33184
154	16.789771	121901056	86126592	31509712	33184
155	14.904468	121901056	86126592	41706280	33184
156	17.38474	121901056	86126592	35810920	33184
157	17.835422	121901056	86126592	30865920	33184
158	16.032175	121901056	86126592	41723808	33184
159	17.967333	121901056	86126592	36538688	33184
160	19.661051	121901056	86126592	32215000	33184
161	20.085054	121901056	86126592	28692800	33184
162	17.104156	121901056	86126592	40458000	33184
163	19.804348	121901056	86126592	36328224	33184
164	20.414072	121901056	86126592	33003216	33184
165	21.34361	121901056	86126592	30323472	33184
166	18.912973	121901056	86126592	43021280	33184
167	20.965925	121901056	86126592	39606192	33184
168	22.464058	121901056	86126592	36836552	33184
169	22.641413	121901056	86126592	34706856	33184
170	23.50663	121901056	86126592	33062104	33184
171	23.623238	121901056	86126592	31889328	33184
172	24.521725	121901056	86126592	31146472	33184
173	25.083752	121901056	86126592	30761976	33184
174	25.543468	121901056	86126592	30692464	33184
175	26.253725	121901056	86126592	30889832	33184
176	26.79684	121901056	86126592	31333136	33184
177	26.981446	121901056	86126592	31973824	33184
178	26.988168	121901056	86126592	32797656	33184
179	27.558519	121901056	86126592	33775288	33184
180	27.67017	121901056	86126592	34875232	33184
181	28.045328	121901056	86126592	36108736	33184
182	27.711706	121901056	86126592	37453976	33184
183	28.042203	121901056	86126592	38871184	33184
184	28.31929	121901056	86126592	40381496	33184
185	28.55527	121901056	86126592	41969736	33184
186	28.642857	121901056	86126592	43615320	33184
187	28.797902	121901056	86126592	45331960	33184
188	34.256904	121901056	86126592	32912432	33184
189	31.13511	121901056	86126592	36629256	33184
190	30.652263	121901056	86126592	40155592	33184
191	30.763789	121901056	86126592	43480432	33184
192	36.075668	121901056	86126592	32671720	33184
193	34.94443	121901056	86126592	39688272	33184
194	32.775814	121901056	86126592	44291920	33184
195	32.284401	121901056	86126592	48555448	33184
196	37.347802	121901056	86126592	38354864	33184
197	34.456815	121901056	86126592	43964216	33184
198	34.539407	121901056	86126592	49157208	33184
199	39.20393	121901056	86126592	39764264	33184
200	35.061721	121901056	86126592	46078760	33184
201	40.351005	121901056	86126592	38035608	33184
202	0.888912	121901056	86126592	47502768	33184
203	1.260622	121901056	86126592	48347576	33184
204	1.668373	121901056	86126592	49476248	33184
205	2.094124	121901056	86126592	50889976	33184
206	2.498528	121901056	86126592	52590568	33184
207	5.86057	121901056	86126592	38474400	33184
208	3.56233	121901056	86126592	40751720	33184
209	3.98774	121901056	86126592	43318560	33184
210	4.344109	121901056	86126592	46177976	33184
211	4.78507	121901056	86126592	49333544	33184
212	4.996115	121901056	86126592	52778616	33184
213	8.368432	121901056	86126592	40197000	33184
214	5.833835	121901056	86126592	44233360	33184
215	6.252233	121901056	86126592	48567792	33184
216	6.671208	121901056	86126592	53199816	33184
217	10.084425	121901056	86126592	41782072	33184
218	7.781507	121901056	86126592	47019080	33184
219	8.278748	121901056	86126592	52556144	33184
220	11.783585	121901056	86126592	42136928	33184
221	8.886651	121901056	86126592	48287888	33184
222	12.76318	121901056	86126592	39058176	33184
223	9.783017	121901056	86126592	45817920	33184
224	10.429182	121901056	86126592	52885568	33184
225	13.741042	121901056	86126592	43958704	33184
226	11.802971	121901056	86126592	51647792	33184
227	15.206378	121901056	86126592	43533920	33184
228	12.03945	121901056	86126592	51846696	33184
229	15.816185	121901056	86126592	44331976	33184
230	13.240684	121901056	86126592	53284800	33184
231	16.879892	121901056	86126592	46233952	33184
232	17.895306	121901056	86126592	40470520	33184
233	14.330944	121901056	86126592	50389224	33184
234	18.341747	121901056	86126592	44717528	33184
235	19.724379	121901056	86126592	40145176	33184
236	16.118492	121901056	86126592	51038832	33184
237	20.088501	121901056	86126592	46274280	33184
238	21.131574	121901056	86126592	42507408	33184
239	18.241343	121901056	86126592	54389432	33184
240	20.811761	121901056	86126592	50213912	33184
241	21.801913	121901056	86126592	46931160	33184
242	23.164389	121901056	86126592	44433424	33184
243	23.611899	121901056	86126592	42583984	33184
244	24.645863	121901056	86126592	41360928	33184
245	25.519959	121901056	86126592	40649632	33184
246	20.950992	121901056	86126592	54876336	33184
247	24.648472	121901056	86126592	53069104	33184
248	25.332289	121901056	86126592	51821800	33184
249	25.660968	121901056	86126592	51073280	33184
250	26.487502	121901056	86126592	50773000	33184
251	26.596291	121901056	86126592	50880216	33184
252	27.24545	121901056	86126592	51328072	33184
253	27.9627	121901056	86126592	52067320	33184
254	28.064214	121901056	86126592	53053648	33184
255	28.447931	121901056	86126592	54267864	33184
256	29.290592	121901056	86126592	55682296	33184
257	35.250298	121901056	86126592	43078584	33184
258	32.445364	121901056	86126592	46750808	33184
259	32.905275	121901056	86126592	50326416	33184
260	31.502867	121901056	86126592	53766000	33184
261	37.959334	121901056	86126592	43135712	33184
262	37.324463	121901056	86126592	50463848	33184
263	37.456883	121901056	86126592	55399280	33184
264	54.101148	117706752	81932288	21991544	33184
265	36.143073	117706752	81932288	29873656	33184
266	35.287923	117706752	81932288	21801800	33184
267	37.209867	117706752	81932288	30922192	33184
268	36.021416	117706752	81932288	23693648	33184
269	37.073052	117706752	81932288	33512344	33184
270	37.884263	117706752	81932288	26981288	33184
271	37.362138	117706752	81932288	37522432	33184
272	39.404872	117706752	81932288	31517504	33184
273	39.462913	117706752	81932288	42831960	33184
274	39.100654	117706752	81932288	37146448	33184
275	45.29509	117706752	81932288	36528696	33184
276	41.484104	117706752	81932288	48798664	33184
277	41.123882	117706752	81932288	44195040	33184
278	45.642721	117706752	81932288	44685304	33184
279	45.586023	117706752	81932288	58105576	33184
280	54.553052	117706752	81932288	54202160	33184
281	50.635479	117706752	81932288	25957352	33184
282	48.616903	117706752	81932288	27899504	33184
283	49.601737	117706752	81932288	30128880	33184
284	49.75417	117706752	81932288	32760720	33184
285	49.589277	117706752	81932288	35780864	33184
286	49.969589	117706752	81932288	39175512	33184
287	51.802808	117706752	81932288	42954360	33184
288	52.399338	117706752	81932288	47128568	33184
289	59.123229	118517760	82980864	51696904	33184
290	74.397334	120680448	86650880	29546128	33184
291	54.028898	122032128	86650880	34512984	33184
292	53.631966	122032128	86650880	40250080	33184
293	55.326417	122032128	86650880	46382872	33184
294	59.567116	122843136	87175168	40331936	33184
295	56.071552	122843136	87175168	47264248	33184
296	55.80303	122843136	87175168	54562008	33184
297	57.156073	122843136	87175168	62294904	33184
298	68.322227	125546496	90320896	57854728	33184
299	81.229933	123609088	89796608	36751640	33184
300	62.932269	124956672	89796608	32276240	33184
301	59.414277	124956672	89796608	41584784	33184
302	1.24979	124956672	89796608	38937880	33184
303	1.823039	124956672	89796608	40159504	33184
304	2.381363	124956672	89796608	41790560	33184
305	3.021034	124956672	89796608	43832168	33184
306	3.620367	124956672	89796608	46286368	33184
307	4.234841	124956672	89796608	49153528	33184
308	7.737157	125767680	90320896	38333760	33184
309	5.410676	125767680	90320896	42030960	33184
310	5.967652	125767680	90320896	46145856	33184
311	6.556967	125767680	90320896	50678680	33184
312	8.322826	126038016	90320896	39674040	33184
313	7.89756	126038016	90320896	45046632	33184
314	8.391983	126038016	90320896	50841000	33184
315	9.579294	126038016	90320896	40953960	33184
316	9.706342	126038016	90320896	47595296	33184
317	11.376721	126038016	90320896	39008144	33184
318	10.906628	126038016	90320896	46504736	33184
319	12.686292	126038016	90320896	38905376	33184
320	12.757374	126038016	90320896	47260008	33184
321	14.399975	126038016	90320896	40428024	33184
322	13.742766	126038016	90320896	49642336	33184
323	14.885026	126038016	90320896	43372624	33184
324	15.265089	126038016	90320896	53453584	33184
325	16.572661	126038016	90320896	47511432	33184
326	17.090179	126038016	90320896	42813008	33184
327	18.320905	126038016	90320896	39202280	33184
328	17.657951	126038016	90320896	51039152	33184
329	18.883572	126038016	90320896	47167360	33184
330	20.093488	126038016	90320896	44283472	33184
331	20.616985	126038016	90320896	42252480	33184
332	22.411838	126038016	90320896	40965224	33184
333	23.344867	126038016	90320896	40299576	33184
334	24.019721	126038016	90320896	40175408	33184
335	24.570394	126038016	90320896	40518672	33184
336	24.946252	126038016	90320896	41258600	33184
337	25.486304	126038016	90320896	42355632	33184
338	26.205841	126038016	90320896	43769672	33184
339	26.637059	126038016	90320896	45420432	33184
340	27.950964	126038016	90320896	47326176	33184
341	27.497577	126038016	90320896	49410728	33184
342	27.560449	126038016	90320896	51704976	33184
343	27.929693	126038016	90320896	54128808	33184
344	31.608684	126038016	90320896	42513720	33184
345	30.928066	126038016	90320896	47163344	33184
346	30.518271	126038016	90320896	51633152	33184
347	35.175232	126038016	90320896	42064792	33184
348	35.717918	126038016	90320896	50539200	33184
349	32.625648	126038016	90320896	56470792	33184
350	36.987695	126038016	90320896	47796384	33184
351	35.754386	126038016	90320896	54917576	33184
352	37.957473	126038016	90320896	47622608	33184
353	39.766514	126038016	90320896	58427616	33184
354	39.304553	126038016	90320896	52369952	33184
355	44.907261	126038016	90320896	51517048	33184
356	40.474685	126038016	90320896	63546768	33184
357	41.897553	126038016	90320896	58924648	33184
358	52.77013	127119360	91893760	59487192	33184
359	67.275119	124674048	90845184	29153056	33184
360	48.360792	126021632	90845184	29596184	33184
361	48.343724	126021632	90845184	31400840	33184
362	49.641953	126021632	90845184	33691856	33184
363	50.019671	126021632	90845184	36494768	33184
364	46.685564	126562304	90845184	52403680	33184
365	46.396136	126562304	90845184	50762096	33184
366	46.429683	126562304	90845184	49964664	33184
367	52.379965	126562304	90845184	54895432	33184
368	54.49897	126562304	90845184	60215960	33184
369	59.366994	126562304	90845184	53412888	33184
370	59.959942	126562304	90845184	59697944	33184
371	76.711467	125743104	91893760	35614584	33184
372	60.52946	127090688	91893760	29590592	33184
373	56.376559	127090688	91893760	37352936	33184
374	57.422509	127090688	91893760	45686728	33184
375	63.787629	127090688	91893760	41921824	33184
376	59.425381	127361024	91893760	51188328	33184
377	60.122614	127361024	91893760	61015224	33184
378	65.176497	127361024	91893760	58757568	33184
379	68.98078	127631360	92418048	69590400	33184
380	84.054174	129134592	93990912	35160248	33184
381	67.047069	129134592	93990912	34574968	33184
382	67.30288	129134592	93990912	34334560	33184
383	65.109276	129134592	93990912	47239240	33184
384	69.812153	129675264	93990912	48077952	33184
385	65.49934	129675264	93990912	62014464	33184
386	74.599624	129675264	93990912	63894656	33184
387	98.173727	123629568	90320896	36966096	33184
388	72.089785	125517824	90320896	39243456	33184
389	73.253664	125517824	90320896	42667632	33184
390	73.511625	125517824	90320896	46662752	33184
391	74.77532	126328832	90845184	51119856	33184
392	78.007314	126328832	90845184	56129336	33184
393	78.202273	127950848	92418048	61698048	33184
394	105.001494	130371584	96612352	36266608	33184
395	79.624855	131719168	96612352	42125008	33184
396	78.410331	131719168	96612352	49268240	33184
397	85.353299	131719168	96612352	44337056	33184
398	81.05625	132259840	96612352	52520384	33184
399	83.165636	132259840	96612352	61281272	33184
400	83.673752	132259840	96612352	70560176	33184
401	112.14885	131723264	96612352	33925072	33184
402	1.674649	131723264	96612352	44751888	33184
403	2.363191	131723264	96612352	46379816	33184
404	7.115612	131723264	96612352	35557600	33184
405	4.185379	131723264	96612352	38276328	33184
406	4.763722	131723264	96612352	41542976	33184
407	5.774837	131723264	96612352	45363216	33184
408	8.124322	131723264	96612352	35162072	33184
409	7.322526	131723264	96612352	40078040	33184
410	7.925653	131723264	96612352	45547096	33184
411	9.584317	131723264	96612352	35698192	33184
412	9.624051	131723264	96612352	42277808	33184
413	10.404906	131723264	96612352	49410976	33184
414	11.436926	131723264	96612352	40686024	33184
415	12.110562	131723264	96612352	48934816	33184
416	13.845666	131723264	96612352	41401920	33184
417	15.23671	131723264	96612352	35453000	33184
418	14.732993	131723264	96612352	45385752	33184
419	16.204327	131723264	96612352	40036728	33184
420	17.529062	131723264	96612352	35987960	33184
421	17.344151	131723264	96612352	47622024	33184
422	18.469494	131723264	96612352	43653784	33184
423	19.253172	131723264	96612352	40787024	33184
424	20.967587	131723264	96612352	38887640	33184
425	22.038633	131723264	96612352	37858656	33184
426	23.471183	131723264	96612352	37542912	33184
427	24.214791	131723264	96612352	37811320	33184
428	25.3267	131723264	96612352	38645320	33184
429	25.172046	131723264	96612352	39924456	33184
430	26.554242	131723264	96612352	41602200	33184
431	26.524598	131723264	96612352	43635784	33184
432	27.358512	131723264	96612352	45951152	33184
433	28.670194	131723264	96612352	48568464	33184
434	31.366277	131723264	96612352	37405808	33184
435	33.393237	131723264	96612352	44660400	33184
436	31.26296	131723264	96612352	49696664	33184
437	34.164274	131723264	96612352	40666976	33184
438	36.118684	131723264	96612352	49628640	33184
439	37.026565	131723264	96612352	42628248	33184
440	37.469964	131723264	96612352	52741016	33184
441	38.371668	131723264	96612352	46769288	33184
442	39.501368	131723264	96612352	58054320	33184
443	40.080308	131723264	96612352	52788176	33184
444	45.524297	131723264	96612352	52664904	33184
445	41.097983	131723264	96612352	65656488	33184
446	41.951916	132263936	96612352	61885568	33184
447	48.254811	132804608	97136640	63551112	33184
448	53.90887	134156288	98709504	65690648	33184
449	68.338477	130658304	96612352	33938832	33184
450	50.157772	132005888	96612352	36119192	33184
451	51.09843	132005888	96612352	39980944	33184
452	52.060581	132005888	96612352	44490568	33184
453	53.149133	132005888	96612352	49580792	33184
454	59.852535	132005888	96612352	42683256	33184
455	54.548962	132005888	96612352	48976608	33184
456	55.105171	132005888	96612352	55925632	33184
457	56.554001	132276224	96612352	63421896	33184
458	74.059751	132276224	96612352	59015888	33184
459	68.958637	126963712	91369472	34009784	33184
460	63.563562	126963712	91369472	30894848	33184
461	59.900229	126963712	91369472	40851648	33184
462	65.837395	126963712	91369472	38836928	33184
463	61.546626	126963712	91369472	50063496	33184
464	66.22557	126963712	91369472	49325536	33184
465	63.100122	126963712	91369472	61720448	33184
466	88.759371	129396736	93990912	62231664	33184
467	74.085037	127041536	91369472	31370672	33184
468	71.038147	127041536	91369472	33086576	33184
469	68.180151	127041536	91369472	47993080	33184
470	71.663218	127041536	91369472	50978376	33184
471	72.696491	127041536	91369472	54585416	33184
472	74.666136	127041536	91369472	58758504	33184
473	96.449345	128393216	92942336	63662064	33184
474	76.149278	125808640	90320896	37199592	33184
475	76.542394	125808640	90320896	43302056	33184
476	79.154839	125808640	90320896	50031928	33184
477	83.102658	125808640	90320896	44815920	33184
478	80.850969	125808640	90320896	52859440	33184
479	86.068967	126078976	90845184	61475424	33184
480	107.099372	126578688	91369472	28368568	33184
481	81.806617	126578688	91369472	38280864	33184
482	83.271814	126578688	91369472	48836072	33184
483	88.622856	126578688	91369472	47427064	33184
484	83.900313	126578688	91369472	59267328	33184
485	88.385238	127389696	91893760	71756056	33184
486	118.003365	130785280	95563776	40267504	33184
487	91.640621	130785280	95563776	41523384	33184
488	92.971672	130785280	95563776	43386616	33184
489	90.0902	130785280	95563776	58443160	33184
490	96.995467	130785280	95563776	61538272	33184
491	101.617246	132677632	97136640	65315760	33184
492	119.168587	132730880	97136640	36402240	33184
493	97.88674	132730880	97136640	41469112	33184
494	99.440419	132730880	97136640	47174592	33184
495	101.586677	132730880	97136640	53573776	33184
496	101.214917	132730880	97136640	60612752	33184
497	126.780057	130060288	96088064	33862120	33184
498	102.719201	131407872	96088064	41154024	33184
499	104.604676	131407872	96088064	50183688	33184
500	109.995124	131407872	96088064	47275160	33184
501	106.914905	131407872	96088064	57648552	33184
502	6.075618	129064960	93466624	23476072	33184
503	3.142138	129064960	93466624	25472008	33184
504	3.936402	129064960	93466624	28137632	33184
505	4.892531	129064960	93466624	31471680	33184
506	6.322041	129064960	93466624	35475352	33184
507	9.639402	129064960	93466624	25844640	33184
508	7.868002	129064960	93466624	31191360	33184
509	8.991475	129064960	93466624	37211472	33184
510	10.425112	129064960	93466624	27765016	33184
511	11.046431	129064960	93466624	35138352	33184
512	13.299278	129064960	93466624	27316976	33184
513	12.858477	129064960	93466624	36045136	33184
514	14.278413	129064960	93466624	29432816	33184
515	16.572934	129064960	93466624	24417800	33184
516	16.175278	129064960	93466624	35190208	33184
517	18.350724	129064960	93466624	30770216	33184
518	18.962906	129064960	93466624	27635616	33184
519	20.949715	129064960	93466624	25610584	33184
520	20.133099	129064960	93466624	39128080	33184
521	21.475746	129064960	93466624	36925488	33184
522	23.024034	129064960	93466624	35704432	33184
523	24.151346	129064960	93466624	35327696	33184
524	24.910774	129064960	93466624	35708376	33184
525	25.926948	129064960	93466624	36724848	33184
526	26.803156	129064960	93466624	38286200	33184
527	30.408324	129064960	93466624	26298032	33184
528	32.328122	129064960	93466624	32993168	33184
529	30.246486	129064960	93466624	37574080	33184
530	30.739277	129064960	93466624	42189288	33184
531	34.284041	129064960	93466624	32665336	33184
532	33.2209	129064960	93466624	39345336	33184
533	36.77494	129064960	93466624	31893096	33184
534	38.36761	129064960	93466624	42774952	33184
535	39.299738	129064960	93466624	36997104	33184
536	44.665033	129064960	93466624	36679584	33184
537	43.078467	129064960	93466624	49462288	33184
538	42.05474	129064960	93466624	45559176	33184
539	47.738016	129064960	93466624	47353456	33184
540	49.059375	129064960	93466624	49704208	33184
541	49.834685	129064960	93466624	52772856	33184
542	50.26345	129064960	93466624	56567048	33184
543	57.489896	129064960	93466624	61058024	33184
544	73.565315	127676416	93466624	35088776	33184
545	58.153478	129024000	93466624	27608664	33184
546	54.615753	129024000	93466624	34253408	33184
547	56.10378	129024000	93466624	41584272	33184
548	56.738283	129024000	93466624	49639504	33184
549	62.083974	129024000	93466624	45838568	33184
550	58.651833	129024000	93466624	55360928	33184
551	59.918614	129024000	93466624	65581152	33184
552	89.388261	129024000	93466624	63992864	33184
553	68.993644	127991808	92418048	30742080	33184
554	67.375433	127991808	92418048	30510480	33184
555	65.643023	127991808	92418048	43690720	33184
556	69.681855	127991808	92418048	44974104	33184
557	71.074059	127991808	92418048	47066600	33184
558	69.226614	127991808	92418048	62392088	33184
559	80.559423	129073152	93466624	65953392	33184
560	100.487787	127492096	91893760	26985592	33184
561	76.212585	127492096	91893760	31998544	33184
562	77.210966	127492096	91893760	37804232	33184
563	77.790656	127492096	91893760	44388400	33184
564	79.63619	127492096	91893760	51758784	33184
565	83.031038	127492096	91893760	59889592	33184
566	110.207717	125145088	91893760	39055864	33184
567	86.460645	127033344	91893760	35354032	33184
568	83.754207	127033344	91893760	45597136	33184
569	83.124767	127033344	91893760	56576184	33184
570	92.325908	127574016	92418048	55835112	33184
571	88.486382	128385024	92942336	68342432	33184
572	116.0564	135954432	100806656	68987376	33184
573	94.687492	130744320	95563776	34022656	33184
574	94.197745	130744320	95563776	36267216	33184
575	90.352096	130744320	95563776	51825560	33184
576	97.77341	130744320	95563776	55554280	33184
577	97.562217	130744320	95563776	60064096	33184
578	130.637083	126672896	91369472	35746776	33184
579	99.153375	126672896	91369472	41803872	33184
580	100.050328	126672896	91369472	48621608	33184
581	101.177586	126672896	91369472	56222104	33184
582	104.728303	129376256	93990912	64561048	33184
583	134.599854	129490944	95563776	25631392	33184
584	107.270544	130838528	95563776	34403040	33184
585	106.608802	130838528	95563776	45029904	33184
586	106.805904	130838528	95563776	56448688	33184
587	113.059648	131108864	95563776	56080456	33184
588	135.651314	125612032	91369472	36453760	33184
589	118.072603	126959616	91369472	36725928	33184
590	113.355362	126959616	91369472	51198944	33184
591	118.545292	126959616	91369472	53948064	33184
592	116.085808	127500288	91893760	70169192	33184
593	149.442867	131825664	96088064	44703592	33184
594	123.260995	131825664	96088064	49769936	33184
595	122.511904	131825664	96088064	55602240	33184
596	123.227726	132096000	96612352	62247688	33184
597	153.484949	131690496	97660928	34704552	33184
598	126.886006	133038080	97660928	41748936	33184
599	127.283519	133038080	97660928	50747176	33184
600	128.194862	133038080	97660928	60580624	33184
601	161.079314	127217664	93466624	26812472	33184
602	2.768688	129105920	93466624	38150432	33184
603	3.55003	129105920	93466624	40543648	33184
604	4.695428	129105920	93466624	43725112	33184
605	6.012555	129105920	93466624	47704944	33184
606	9.508513	129105920	93466624	38353224	33184
607	8.133623	129105920	93466624	43939792	33184
608	9.276948	129105920	93466624	50322296	33184
609	11.070262	129105920	93466624	41369832	33184
610	11.759479	129105920	93466624	49374632	33184
611	13.246867	129105920	93466624	41887520	33184
612	15.482595	129105920	93466624	36275256	33184
613	15.132477	129105920	93466624	46702304	33184
614	17.045554	129105920	93466624	42052000	33184
615	18.797006	129105920	93466624	38823136	33184
616	20.78764	129105920	93466624	36890488	33184
617	20.045186	129105920	93466624	50560376	33184
618	22.314092	129105920	93466624	48650248	33184
619	22.989637	129105920	93466624	47762608	33184
620	24.588701	129105920	93466624	47804384	33184
621	25.967421	129105920	93466624	48655176	33184
622	26.613158	129105920	93466624	50216592	33184
623	30.649851	129105920	93466624	38282256	33184
624	30.456744	129105920	93466624	42943872	33184
625	30.625617	129105920	93466624	47789824	33184
626	34.279368	129105920	93466624	38966976	33184
627	36.544347	129105920	93466624	48407736	33184
628	38.050902	129105920	93466624	41957456	33184
629	38.436897	129105920	93466624	52991688	33184
630	39.841124	129105920	93466624	47760264	33184
631	45.269429	129105920	93466624	47879344	33184
632	42.977261	129105920	93466624	61292216	33184
633	43.560305	129105920	93466624	58079824	33184
634	50.079198	129105920	93466624	60764976	33184
635	52.229037	129646592	93990912	64048864	33184
636	53.790107	131268608	96088064	68290824	33184
637	81.535315	132669440	99233792	26765048	33184
638	54.692786	134557696	99233792	31531280	33184
639	55.505483	134557696	99233792	38272928	33184
640	57.190154	134557696	99233792	45726344	33184
641	62.371977	134557696	99233792	41558104	33184
642	59.10416	134557696	99233792	50782200	33184
643	60.006636	134557696	99233792	60763144	33184
644	65.037842	134557696	99233792	59129128	33184
645	64.465871	134557696	99233792	70905560	33184
646	97.172057	130625536	95039488	25478568	33184
647	66.999247	130625536	95039488	39013896	33184
648	70.810088	130625536	95039488	40857384	33184
649	71.82801	130625536	95039488	43570704	33184
650	74.073129	130625536	95039488	47047128	33184
651	70.81409	130625536	95039488	63992936	33184
652	75.67527	130625536	95039488	69161024	33184
653	105.058092	128565248	94515200	29036344	33184
654	78.359339	129912832	94515200	34854720	33184
655	80.872797	129912832	94515200	42538704	33184
656	84.24036	129912832	94515200	51170512	33184
657	87.897308	129912832	94515200	48042072	33184
658	83.34094	129912832	94515200	58311736	33184
659	114.11004	124567552	90845184	25944552	33184
660	85.96325	126455808	90845184	37249096	33184
661	91.34185	126455808	90845184	37656368	33184
662	88.670741	126455808	90845184	51394224	33184
663	93.872084	126455808	90845184	53452752	33184
664	100.057844	126996480	91369472	56363264	33184
665	122.787158	129159168	93466624	30668848	33184
666	94.854656	129159168	93466624	47897600	33184
667	99.619809	129159168	93466624	53499144	33184
668	100.474832	129159168	93466624	59888968	33184
669	102.174655	129159168	93466624	67219048	33184
670	132.280593	131092480	97136640	28186000	33184
671	105.760026	132440064	97136640	36140368	33184
672	106.137746	132440064	97136640	46100792	33184
673	106.965497	132440064	97136640	56947936	33184
674	112.182957	132440064	97136640	55995248	33184
675	135.43451	127705088	93466624	36953288	33184
676	114.893629	129052672	93466624	36995240	33184
677	112.549525	129052672	93466624	51304456	33184
678	118.419973	129052672	93466624	53972208	33184
679	116.538985	129593344	93990912	70109264	33184
680	150.022865	131485696	96088064	44696272	33184
681	121.333644	131485696	96088064	50045976	33184
682	126.334023	131485696	96088064	56365280	33184
683	124.396716	131485696	96088064	63617504	33184
684	152.432016	133693440	99758080	36575064	33184
685	125.950934	135041024	99758080	44329136	33184
686	129.506352	135041024	99758080	54198096	33184
687	130.599481	135041024	99758080	64851944	33184
688	162.659919	129818624	95563776	31872392	33184
689	132.962575	131166208	95563776	43607408	33184
690	133.306926	131166208	95563776	57110376	33184
691	139.199467	131166208	95563776	58835856	33184
692	166.461022	133763072	98185216	27730360	33184
693	137.348694	133763072	98185216	43948944	33184
694	145.605063	133763072	98185216	48463120	33184
695	142.093498	133763072	98185216	66445008	33184
696	169.76512	130301952	95039488	38046360	33184
697	147.136158	130301952	95039488	45236744	33184
698	148.740627	130301952	95039488	53376504	33184
699	178.547711	124182528	90845184	33188256	33184
700	154.040683	126070784	90845184	42707392	33184
701	152.713807	126070784	90845184	53606016	33184
702	2.793734	129855488	94515200	66156016	33184
703	4.426511	129855488	94515200	68919104	33184
704	5.441535	129855488	94515200	72591424	33184
705	10.933717	132018176	96612352	63464624	33184
706	9.064588	132018176	96612352	68980728	33184
707	10.514233	132018176	96612352	75420568	33184
708	14.327973	132558848	97136640	66993392	33184
709	20.265454	132558848	97136640	75295400	33184
710	21.158133	127848448	92418048	21181880	33184
711	15.346979	127848448	92418048	31329472	33184
712	18.603998	127848448	92418048	27045352	33184
713	19.464847	127848448	92418048	24046488	33184
714	20.61046	127848448	92418048	21747616	33184
715	22.766659	127848448	92418048	20681680	33184
716	24.06526	127848448	92418048	20741872	33184
717	25.433013	127848448	92418048	21752152	33184
718	26.643064	127848448	92418048	23545320	33184
719	27.675491	127848448	92418048	26065648	33184
720	28.663121	127848448	92418048	29219968	33184
721	29.828276	127848448	92418048	32855640	33184
722	33.795245	127848448	92418048	22744704	33184
723	33.249394	127848448	92418048	29208568	33184
724	37.695934	127848448	92418048	21942592	33184
725	39.415444	127848448	92418048	33101024	33184
726	40.174951	127848448	92418048	27885152	33184
727	45.710699	127848448	92418048	28322224	33184
728	42.747868	127848448	92418048	42119288	33184
729	43.850275	127848448	92418048	39153920	33184
730	45.004826	127848448	92418048	37711208	33184
731	52.512224	127848448	92418048	42064624	33184
732	52.90004	127848448	92418048	47168136	33184
733	54.840857	127848448	92418048	53203280	33184
734	60.682512	127848448	92418048	47739520	33184
735	74.284273	128389120	92942336	55792160	33184
736	66.196077	121839616	86126592	36980440	33184
737	64.753564	121839616	86126592	34412144	33184
738	61.328606	121839616	86126592	45262776	33184
739	67.053599	121839616	86126592	44583440	33184
740	64.510022	121839616	86126592	57399952	33184
741	69.687425	121839616	86126592	58620336	33184
742	72.010804	125353984	89796608	60894912	33184
743	93.194876	131301376	96088064	64103544	33184
744	78.238543	127492096	92418048	34787896	33184
745	77.58361	127492096	92418048	40003416	33184
746	76.962173	127492096	92418048	46146928	33184
747	79.040683	127492096	92418048	53337128	33184
748	80.569541	127492096	92418048	61461496	33184
749	85.832735	128032768	92418048	58084440	33184
750	112.951964	126078976	91893760	38532560	33184
751	88.558249	127426560	91893760	36480152	33184
752	85.370223	127426560	91893760	48588400	33184
753	90.818412	127426560	91893760	49084824	33184
754	88.231726	127426560	91893760	63258480	33184
755	95.563812	130400256	95039488	65686416	33184
756	120.292598	129015808	95563776	33271760	33184
757	96.716701	130633728	95563776	36618224	33184
758	99.376999	130633728	95563776	42120400	33184
759	100.090349	130633728	95563776	48654752	33184
760	101.998197	130633728	95563776	56217240	33184
761	123.74741	131174400	95563776	64746952	33184
762	111.473846	129073152	93466624	41821376	33184
763	109.334779	129073152	93466624	39744720	33184
764	107.417295	129073152	93466624	51304072	33184
765	110.65797	129073152	93466624	63883168	33184
766	141.494893	130093056	96088064	32467192	33184
767	117.192513	131440640	96088064	33608936	33184
768	114.384554	131440640	96088064	49226912	33184
769	120.460267	131440640	96088064	53216368	33184
770	118.535805	132251648	96612352	70815840	33184
771	155.705049	130633728	95039488	33878928	33184
772	122.092093	130633728	95039488	53555352	33184
773	125.17071	130633728	95039488	61692080	33184
774	126.755049	130633728	95039488	70913184	33184
775	160.85192	135520256	101330944	32292952	33184
776	130.19797	136867840	101330944	42286896	33184
777	130.303936	136867840	101330944	54438832	33184
778	135.893878	136867840	101330944	55079904	33184
779	163.756618	137408512	101855232	69308448	33184
780	143.242815	130613248	95039488	39581736	33184
781	137.202708	130613248	95039488	55907800	33184
782	141.496338	130613248	95039488	60674192	33184
783	174.521173	133705728	99758080	33048392	33184
784	145.642771	135053312	99758080	38985976	33184
785	143.444773	135053312	99758080	59363040	33184
786	148.986788	135053312	99758080	68291544	33184
787	181.226894	131137536	95563776	30512480	33184
788	152.033182	131137536	95563776	41373872	33184
789	155.123895	131137536	95563776	53401920	33184
790	179.034237	134381568	99233792	66409352	33184
791	163.750135	130666496	95563776	50351032	33184
792	161.859772	130666496	95563776	52875592	33184
793	160.026593	132018176	96612352	69002808	33184
794	191.079117	134377472	98709504	35590600	33184
795	166.059498	134377472	98709504	41307440	33184
796	164.294671	134377472	98709504	60661560	33184
797	197.031042	126455808	90845184	36432144	33184
798	172.614982	126455808	90845184	45262024	33184
799	172.785849	126455808	90845184	55402072	33184
800	208.208219	133230592	99758080	34836456	33184
801	175.743869	135118848	99758080	45972752	33184
802	3.123708	135118848	99758080	59997432	33184
803	4.627451	135118848	99758080	63167576	33184
804	6.152605	135118848	99758080	67402816	33184
805	10.438511	135118848	99758080	58781288	33184
806	9.304396	135118848	99758080	65132272	33184
807	12.151007	135118848	99758080	57295128	33184
808	12.320606	135118848	99758080	65772600	33184
809	14.588505	135118848	99758080	59537680	33184
810	15.407673	135118848	99758080	70147600	33184
811	17.40281	135118848	99758080	65467552	33184
812	20.287391	135118848	99758080	62510000	33184
813	21.415007	135118848	99758080	61026784	33184
814	23.154444	135118848	99758080	60824296	33184
815	24.786613	135118848	99758080	61683240	33184
816	26.547056	135118848	99758080	63495240	33184
817	27.856418	135118848	99758080	66174176	33184
818	28.66439	135118848	99758080	69565784	33184
819	33.660936	135118848	99758080	59528152	33184
820	36.213245	135118848	99758080	68465912	33184
821	37.461119	135389184	100282368	61785344	33184
822	39.212064	135929856	100282368	72822536	33184
823	40.355726	135929856	100282368	67878464	33184
824	51.597275	137011200	101855232	68472336	33184
825	68.333563	128770048	94515200	33202824	33184
826	48.957337	130117632	94515200	34565552	33184
827	51.220823	130117632	94515200	38245576	33184
828	54.106804	130117632	94515200	43068240	33184
829	55.119545	130117632	94515200	48975864	33184
830	59.401792	130117632	94515200	43470960	33184
831	57.763287	130117632	94515200	51572952	33184
832	58.365424	130117632	94515200	60796872	33184
833	65.845739	130117632	94515200	58496136	33184
834	95.683976	126676992	92418048	27226440	33184
835	64.567224	128024576	92418048	39063472	33184
836	69.293564	128024576	92418048	40079168	33184
837	73.547317	128024576	92418048	42238584	33184
838	68.323804	128024576	92418048	57979560	33184
839	74.171362	128024576	92418048	62310536	33184
840	76.174455	128024576	92418048	67721928	33184
841	89.858592	130727936	95563776	74213160	33184
842	99.573146	132648960	97136640	35209304	33184
843	81.000468	132648960	97136640	43859256	33184
844	86.894042	132648960	97136640	41174864	33184
845	84.92983	132648960	97136640	52099336	33184
846	86.105912	132648960	97136640	64119368	33184
847	97.805918	132648960	97136640	64757424	33184
848	113.401333	129019904	93466624	34620136	33184
849	96.346271	129019904	93466624	37510664	33184
850	91.648997	129019904	93466624	54033312	33184
851	97.417694	129019904	93466624	59100384	33184
852	100.609863	129019904	93466624	65306728	33184
853	132.588039	132263936	97136640	24773416	33184
854	103.628233	132263936	97136640	33348528	33184
855	108.061366	132263936	97136640	43024192	33184
856	107.148835	132263936	97136640	53662312	33184
857	110.824658	132263936	97136640	65475544	33184
858	148.005082	126431232	90845184	37165088	33184
859	112.796513	126431232	90845184	51289424	33184
860	118.060617	126431232	90845184	54019544	33184
861	119.650791	127782912	92418048	57931344	33184
862	128.88828	135622656	100282368	75578736	33184
863	145.569836	135131136	99758080	34064456	33184
864	122.028681	135401472	99758080	53889944	33184
865	125.529125	135401472	99758080	62253144	33184
866	128.641076	135401472	99758080	71769672	33184
867	157.451235	128651264	93466624	32884944	33184
868	130.348657	128651264	93466624	44658560	33184
869	136.929155	128651264	93466624	45013120	33184
870	139.656769	129191936	93990912	59109104	33184
871	162.399899	124456960	88748032	47059264	33184
872	144.449336	124456960	88748032	50878000	33184
873	140.475434	124727296	89272320	68416184	33184
874	148.918575	136351744	101330944	74502440	33184
875	182.498919	137916416	102379520	47453544	33184
876	148.641795	137916416	102379520	55835368	33184
877	149.645195	137916416	102379520	65418184	33184
878	153.718309	139808768	104476672	76265952	33184
879	193.344015	134156288	98709504	39870040	33184
880	156.187937	134156288	98709504	52867344	33184
881	158.235732	134156288	98709504	67096416	33184
882	174.602753	142807040	107098112	82516336	33184
883	181.415058	139079680	103428096	48939280	33184
884	164.668817	139079680	103428096	54026272	33184
885	164.515511	139079680	103428096	72996608	33184
886	200.980231	133423104	98185216	28556632	33184
887	168.349179	133423104	98185216	49715864	33184
888	175.089132	133423104	98185216	59593008	33184
889	203.639913	130310144	96088064	38574864	33184
890	177.018983	131657728	96088064	49956760	33184
891	178.846107	131657728	96088064	63276848	33184
892	191.521536	137064448	101855232	77807688	33184
893	210.468881	140271616	105000960	47782768	33184
894	182.698533	140271616	105000960	64687984	33184
895	184.256737	140271616	105000960	82735920	33184
896	212.993969	132231168	96612352	34772224	33184
897	190.406908	132231168	96612352	55225632	33184
898	224.523434	124395520	88748032	36725824	33184
899	196.508764	124395520	88748032	46874560	33184
900	193.756893	127098880	91893760	70870584	33184
901	233.23987	129220608	93990912	35327760	33184
902	3.556157	129220608	93990912	50125152	33184
903	5.264159	129220608	93990912	53697064	33184
904	7.186435	129220608	93990912	58467856	33184
905	12.235311	129220608	93990912	50362520	33184
906	10.661173	129220608	93990912	57513472	33184
907	13.220419	129490944	93990912	50257024	33184
908	14.31223	129490944	93990912	59800944	33184
909	16.311316	129490944	93990912	54345744	33184
910	18.548405	129490944	93990912	50768960	33184
911	20.969062	129490944	93990912	48878704	33184
912	23.377134	129490944	93990912	48474536	33184
913	25.795364	129490944	93990912	49312024	33184
914	26.700504	129490944	93990912	51297472	33184
915	27.982072	129490944	93990912	54186808	33184
916	29.150873	129490944	93990912	57869752	33184
917	34.199266	129490944	93990912	48460464	33184
918	35.638438	129490944	93990912	57666944	33184
919	38.191125	129490944	93990912	51479704	33184
920	39.428291	129490944	93990912	63017704	33184
921	40.859916	129490944	93990912	58632656	33184
922	47.332154	129490944	93990912	59990040	33184
923	54.705447	131112960	95563776	62454728	33184
924	70.767075	126976000	92942336	32710696	33184
925	52.723466	128323584	92942336	36597768	33184
926	54.511755	128323584	92942336	42718616	33184
927	61.478802	128323584	92942336	37362400	33184
928	57.90251	128323584	92942336	45917136	33184
929	60.422645	128323584	92942336	55715384	33184
930	65.437332	128323584	92942336	54134752	33184
931	67.38782	128593920	92942336	53789480	33184
932	71.45709	128593920	92942336	67229840	33184
933	91.005979	128090112	92418048	37003328	33184
934	72.542579	128090112	92418048	40409256	33184
935	74.849761	128090112	92418048	44951616	33184
936	76.185588	128090112	92418048	50716504	33184
937	77.993432	128090112	92418048	57764344	33184
938	81.672626	128090112	92418048	65996464	33184
939	106.005248	129982464	94515200	62977720	33184
940	94.367244	128487424	92942336	28004528	33184
941	85.489889	128487424	92942336	39958856	33184
942	87.201888	128487424	92942336	53179080	33184
943	94.017684	128487424	92942336	55115536	33184
944	95.803363	128487424	92942336	58155832	33184
945	122.311374	127094784	92942336	30426240	33184
946	99.195854	128442368	92942336	35115816	33184
947	101.276361	128442368	92942336	41882752	33184
948	102.759012	128442368	92942336	49996280	33184
949	104.466169	128442368	92942336	59282808	33184
950	136.124783	128102400	93990912	25701288	33184
951	109.189856	129449984	93990912	36852776	33184
952	110.967561	129449984	93990912	49861136	33184
953	116.936596	129449984	93990912	51602688	33184
954	113.808976	129449984	93990912	67123216	33184
955	149.320809	130080768	94515200	24501776	33184
956	119.604558	130080768	94515200	42629848	33184
957	126.32103	130080768	94515200	49323056	33184
958	124.779448	130080768	94515200	57303168	33184
959	153.891897	124891136	89796608	34690096	33184
960	130.708672	124891136	89796608	45243480	33184
961	134.724573	124891136	89796608	44469816	33184
962	136.19685	125972480	90320896	57557920	33184
963	169.560989	128053248	92418048	45251064	33184
964	141.708419	128053248	92418048	48253512	33184
965	137.911655	128053248	92418048	65143240	33184
966	145.459696	136433664	100806656	70703848	33184
967	171.172132	130715648	95563776	36485576	33184
968	148.157563	130715648	95563776	44609272	33184
969	150.32186	130715648	95563776	53947640	33184
970	174.518625	131796992	96088064	64554184	33184
971	165.087755	128020480	92418048	46991568	33184
972	153.855517	128020480	92418048	60165464	33184
973	165.514246	131534848	96088064	62041512	33184
974	190.741465	130617344	95039488	28220912	33184
975	162.497602	130617344	95039488	45210808	33184
976	161.118444	130617344	95039488	63527824	33184
977	197.056011	127508480	91893760	38724680	33184
978	170.615609	127508480	91893760	47120840	33184
979	173.639143	127508480	91893760	56696808	33184
980	204.200116	132968448	97660928	34939808	33184
981	177.315209	132968448	97660928	47173584	33184
982	178.640683	132968448	97660928	60620056	33184
983	216.100655	131858432	96612352	28970880	33184
984	183.175538	131858432	96612352	45101120	33184
985	183.019567	131858432	96612352	62399840	33184
986	222.228246	137932800	103952384	35184160	33184
987	187.830998	139280384	103952384	54148368	33184
988	193.350799	139280384	103952384	62795432	33184
989	229.03231	134762496	100806656	38541952	33184
990	197.133237	136110080	100806656	48708088	33184
991	200.047364	136110080	100806656	61196616	33184
992	237.915856	140460032	106573824	39652584	33184
993	206.349265	141807616	106573824	53657280	33184
994	206.611763	141807616	106573824	70041640	33184
995	244.158224	138149888	102903808	37578744	33184
996	211.448986	138149888	102903808	56735584	33184
997	216.748706	138149888	102903808	64511000	33184
998	242.806449	137064448	101855232	35387208	33184
999	216.474806	137064448	101855232	58227920	33184
1000	252.87397	139767808	105000960	69850360	33184
