x	Duration	RSS	HeapTotal	HeapUsed	External
0	NA	122302464	87175168	14660928	33184
1	0.266086	122302464	87175168	14713112	33184
2	0.204623	122302464	87175168	14780976	33184
3	0.226203	122302464	87175168	14873544	33184
4	0.272991	122302464	87175168	14992488	33184
5	0.326624	122302464	87175168	15139568	33184
6	0.400667	122302464	87175168	15315504	33184
7	0.440503	122302464	87175168	15521464	33184
8	0.518599	122572800	87175168	15758704	33184
9	0.777196	122572800	87175168	16029744	33184
10	0.538366	122572800	87175168	16334832	33184
11	1.321116	122572800	87175168	16675224	33184
12	0.64779	122572800	87175168	17052192	33184
13	1.61241	122572800	87175168	17478824	33184
14	0.847307	122572800	87175168	17932496	33184
15	0.996036	122572800	87175168	18426288	33184
16	0.895039	122572800	87175168	18961456	33184
17	1.290523	122572800	87175168	19541160	33184
18	1.02985	122572800	87175168	20164704	33184
19	1.112843	122572800	87175168	20839616	33184
20	1.876051	122572800	87175168	21577168	33184
21	1.132136	122572800	87175168	22340240	33184
22	1.184099	122572800	87175168	23155992	33184
23	1.727354	122572800	87175168	24024040	33184
24	1.479402	122572800	87175168	24941168	33184
25	1.401697	122572800	87175168	25910232	33184
26	1.476812	122572800	87175168	26933800	33184
27	1.536871	122572800	87175168	28013056	33184
28	1.949272	122572800	87175168	29149352	33184
29	1.726125	122572800	87175168	30343712	33184
30	2.909076	122572800	87175168	15373720	33184
31	2.020312	122572800	87175168	16686832	33184
32	2.164006	122572800	87175168	18066640	33184
33	2.38524	122572800	87175168	19511712	33184
34	2.127069	122572800	87175168	21021368	33184
35	2.263598	122572800	87175168	22596584	33184
36	2.47499	122572800	87175168	24238608	33184
37	3.06477	122572800	87175168	25951936	33184
38	2.925797	122572800	87175168	27733600	33184
39	2.881681	122572800	87175168	29592112	33184
40	2.614625	122572800	87175168	31513544	33184
41	4.473688	122572800	87175168	17370400	33184
42	2.818361	122572800	87175168	19439072	33184
43	2.932267	122572800	87175168	21583120	33184
44	3.242157	122572800	87175168	23804896	33184
45	3.349895	122572800	87175168	26106840	33184
46	3.382203	122572800	87175168	28489760	33184
47	3.344523	122572800	87175168	30953896	33184
48	5.246802	122572800	87175168	17624784	33184
49	4.514172	122572800	87175168	20256808	33184
50	4.057143	122572800	87175168	22982936	33184
51	4.096794	122572800	87175168	25791032	33184
52	3.914493	122572800	87175168	28684944	33184
53	4.044576	122572800	87175168	31668040	33184
54	6.377014	122572800	87175168	19004008	33184
55	4.335624	122572800	87175168	22169592	33184
56	4.458495	122572800	87175168	25428800	33184
57	4.581644	122572800	87175168	28782000	33184
58	4.6478	122572800	87175168	32230600	33184
59	6.904167	122572800	87175168	19964128	33184
60	4.974088	122572800	87175168	23607416	33184
61	5.471836	122572800	87175168	27351336	33184
62	5.195892	122572800	87175168	31194200	33184
63	7.463072	122572800	87175168	19420184	33184
64	5.947214	122572800	87175168	23467904	33184
65	5.764705	122572800	87175168	27627600	33184
66	5.768411	122572800	87175168	31892552	33184
67	7.765959	122572800	87175168	20487392	33184
68	6.309834	122572800	87175168	24966744	33184
69	6.21711	122572800	87175168	29555120	33184
70	6.434855	122572800	87175168	34253704	33184
71	8.155721	122572800	87175168	23109864	33184
72	6.90343	122572800	87175168	28032896	33184
73	6.851704	122572800	87175168	33072512	33184
74	8.919951	122572800	87175168	22370640	33184
75	7.216694	122572800	87175168	27638872	33184
76	7.385162	122572800	87175168	33024680	33184
77	9.690035	122572800	87175168	22739728	33184
78	7.96419	122572800	87175168	28364552	33184
79	8.281979	122572800	87175168	34110656	33184
80	10.049798	122572800	87175168	24052240	33184
81	9.120442	122572800	87175168	30047480	33184
82	10.844761	122572800	87175168	20740304	33184
83	8.737523	122572800	87175168	26984728	33184
84	9.10069	122572800	87175168	33358568	33184
85	11.499498	122572800	87175168	24077992	33184
86	9.190915	122572800	87175168	30711808	33184
87	11.651765	122572800	87175168	22080424	33184
88	9.874907	122572800	87175168	28980768	33184
89	10.124665	122572800	87175168	36015064	33184
90	13.144703	122572800	87175168	27188656	33184
91	10.4228	122572800	87175168	34497800	33184
92	12.244497	122572800	87175168	26152760	33184
93	10.755879	122572800	87175168	33744448	33184
94	12.905764	122572800	87175168	25769240	33184
95	11.796674	122572800	87175168	33647920	33184
96	13.499781	122572800	87175168	26013792	33184
97	11.881059	122572800	87175168	34185144	33184
98	13.753485	122572800	87175168	26819112	33184
99	11.964911	122572800	87175168	35286960	33184
100	14.561084	122572800	87175168	28105056	33184
101	13.115074	122572800	87175168	36884376	33184
102	0.503731	122572800	87175168	29693752	33184
103	0.696085	122572800	87175168	30152448	33184
104	0.915892	122572800	87175168	30766248	33184
105	1.128942	122572800	87175168	31536512	33184
106	1.3571	122572800	87175168	32464936	33184
107	1.571051	122572800	87175168	33552112	33184
108	1.808644	122572800	87175168	34799288	33184
109	2.029711	122572800	87175168	36207840	33184
110	2.25806	122572800	87175168	37779848	33184
111	2.477432	122572800	87175168	39515568	33184
112	4.477429	122572800	87175168	25209816	33184
113	3.174939	122572800	87175168	27276648	33184
114	3.243986	122572800	87175168	29510936	33184
115	3.427659	122572800	87175168	31913856	33184
116	3.873177	122572800	87175168	34487288	33184
117	3.909897	122572800	87175168	37232432	33184
118	6.110417	122572800	87175168	24168616	33184
119	4.632828	122572800	87175168	27260304	33184
120	4.64962	122572800	87175168	30527032	33184
121	4.903475	122572800	87175168	33969808	33184
122	5.148275	122572800	87175168	37590632	33184
123	7.627695	122572800	87175168	25396360	33184
124	5.679021	122572800	87175168	29374648	33184
125	6.14012	122572800	87175168	33535360	33184
126	6.175758	122572800	87175168	37876480	33184
127	8.602583	122572800	87175168	26385496	33184
128	6.986856	122572800	87175168	31095312	33184
129	6.957875	122572800	87175168	35991072	33184
130	9.624403	122572800	87175168	25320416	33184
131	7.574021	122572800	87175168	30590960	33184
132	7.77793	122572800	87175168	36050664	33184
133	10.426709	122572800	87175168	25949904	33184
134	8.588526	122572800	87175168	31799104	33184
135	8.883675	122572800	87175168	37841840	33184
136	10.983161	122572800	87175168	28109528	33184
137	9.437856	122572800	87175168	34542512	33184
138	11.882444	122572800	87175168	25650880	33184
139	10.033517	122572800	87175168	32479128	33184
140	10.495911	122572800	87175168	39506656	33184
141	12.724352	122572800	87175168	30573816	33184
142	11.198415	122572800	87175168	38007304	33184
143	13.443312	122572800	87175168	29704736	33184
144	11.507823	122572800	87175168	37549312	33184
145	13.942659	122572800	87175168	29727576	33184
146	12.919402	122572800	87175168	37994976	33184
147	14.679	122572800	87175168	30533272	33184
148	12.450281	122572800	87175168	39212640	33184
149	15.369742	122572800	87175168	32044400	33184
150	13.531179	122572800	87175168	41151920	33184
151	15.329114	122572800	87175168	34196096	33184
152	16.746722	122572800	87175168	28347192	33184
153	14.058718	122572800	87175168	38100744	33184
154	16.770983	122572800	87175168	32213984	33184
155	17.867324	122572800	87175168	27343656	33184
156	15.754051	122572800	87175168	37756232	33184
157	18.040203	122572800	87175168	32601008	33184
158	19.061956	122572800	87175168	28387024	33184
159	16.377142	122572800	87175168	39469208	33184
160	18.839646	122572800	87175168	34778840	33184
161	19.432708	122572800	87175168	30996536	33184
162	17.361519	122572800	87175168	42760688	33184
163	19.859992	122572800	87175168	38413896	33184
164	21.532859	122572800	87175168	34870288	33184
165	20.904498	122572800	87175168	32042920	33184
166	22.504763	122572800	87175168	29795680	33184
167	19.806113	122572800	87175168	42726560	33184
168	21.826333	122572800	87175168	39609032	33184
169	21.848685	122572800	87175168	37135472	33184
170	22.720123	122572800	87175168	35212104	33184
171	23.796198	122572800	87175168	33804864	33184
172	24.824168	122572800	87175168	32851072	33184
173	24.278537	122572800	87175168	32272928	33184
174	25.151842	122572800	87175168	32047416	33184
175	26.13725	122572800	87175168	32124680	33184
176	26.126121	122572800	87175168	32450640	33184
177	26.338215	122572800	87175168	32996568	33184
178	27.189142	122572800	87175168	33736264	33184
179	26.997344	122572800	87175168	34621016	33184
180	27.560687	122572800	87175168	35653800	33184
181	27.76647	122572800	87175168	36825248	33184
182	27.312231	122572800	87175168	38117936	33184
183	28.153506	122572800	87175168	39500568	33184
184	28.091848	122572800	87175168	40981824	33184
185	28.519561	122572800	87175168	42554968	33184
186	28.353701	122572800	87175168	44169544	33184
187	28.948052	122572800	87175168	45855312	33184
188	34.776229	122572800	87175168	33392472	33184
189	31.022152	122572800	87175168	37097848	33184
190	31.336984	122572800	87175168	40609368	33184
191	30.955132	122572800	87175168	43931736	33184
192	36.610751	122572800	87175168	33108936	33184
193	35.532342	122572800	87175168	40115680	33184
194	32.337365	122572800	87175168	44718552	33184
195	32.532563	122572800	87175168	48971384	33184
196	37.590731	122572800	87175168	38758392	33184
197	34.132985	122572800	87175168	44356648	33184
198	33.31206	122572800	87175168	49548264	33184
199	38.853151	122572800	87175168	40153488	33184
200	34.708322	122572800	87175168	46476528	33184
201	40.087939	122572800	87175168	38429808	33184
202	0.87583	122572800	87175168	47889880	33184
203	1.267985	122572800	87175168	48734640	33184
204	1.670443	122572800	87175168	49863248	33184
205	2.350429	122572800	87175168	51276968	33184
206	2.518335	122572800	87175168	52977592	33184
207	6.079807	122572800	87175168	38854368	33184
208	3.688281	122572800	87175168	41131584	33184
209	4.106831	122572800	87175168	43698552	33184
210	4.38153	122572800	87175168	46558456	33184
211	4.602113	122572800	87175168	49710392	33184
212	5.012231	122572800	87175168	53155408	33184
213	8.5831	122572800	87175168	40573696	33184
214	6.203865	122572800	87175168	44610608	33184
215	6.357116	122572800	87175168	48944632	33184
216	7.147097	122572800	87175168	53576584	33184
217	10.149018	122572800	87175168	42157624	33184
218	7.609771	122572800	87175168	47392840	33184
219	8.094229	122572800	87175168	52929728	33184
220	11.459689	122572800	87175168	42509368	33184
221	9.16373	122572800	87175168	48658576	33184
222	12.938185	122572800	87175168	39428328	33184
223	10.33947	122572800	87175168	46188912	33184
224	10.305825	122572800	87175168	53256144	33184
225	14.245247	122572800	87175168	44330112	33184
226	11.620408	122572800	87175168	52021304	33184
227	14.722344	122572800	87175168	43905176	33184
228	12.095201	122572800	87175168	52222248	33184
229	15.598927	122572800	87175168	44706600	33184
230	13.243162	122572800	87175168	53655848	33184
231	17.004704	122572800	87175168	46606944	33184
232	18.287066	122572800	87175168	40839736	33184
233	14.427786	122572800	87175168	50758440	33184
234	18.383908	122572800	87175168	45086744	33184
235	19.46778	122572800	87175168	40514392	33184
236	16.074359	122572800	87175168	51408048	33184
237	19.665092	122572800	87175168	46643496	33184
238	20.700162	122572800	87175168	42876624	33184
239	17.949753	122572800	87175168	54758648	33184
240	21.988071	122572800	87175168	50583128	33184
241	22.518572	122572800	87175168	47300376	33184
242	23.148751	122572800	87175168	44802640	33184
243	23.761605	122572800	87175168	42953200	33184
244	25.164412	122572800	87175168	41730144	33184
245	25.942084	122572800	87175168	41018848	33184
246	21.489262	122572800	87175168	55245552	33184
247	24.869808	122572800	87175168	53438320	33184
248	25.024288	122572800	87175168	52191016	33184
249	26.101573	122572800	87175168	51442496	33184
250	26.463053	122572800	87175168	51142216	33184
251	26.830898	122572800	87175168	51249432	33184
252	27.617878	122572800	87175168	51697288	33184
253	27.931811	122572800	87175168	52436536	33184
254	29.316773	122572800	87175168	53422864	33184
255	28.638871	122572800	87175168	54637080	33184
256	29.110979	122572800	87175168	56051512	33184
257	35.430489	122572800	87175168	43447800	33184
258	32.22731	122572800	87175168	47116744	33184
259	33.108953	122572800	87175168	50692376	33184
260	31.802485	122572800	87175168	54131960	33184
261	37.560174	122572800	87175168	43501672	33184
262	37.571162	122572800	87175168	50829808	33184
263	37.848228	122572800	87175168	55765240	33184
264	52.909958	117383168	81932288	22355880	33184
265	34.655497	117383168	81932288	30176016	33184
266	35.52276	117383168	81932288	22078000	33184
267	36.655257	117383168	81932288	31205872	33184
268	37.203943	117383168	81932288	23930032	33184
269	37.13898	117383168	81932288	33757976	33184
270	37.374358	117383168	81932288	27201008	33184
271	38.420521	117383168	81932288	37740440	33184
272	38.974413	117383168	81932288	31686400	33184
273	39.51042	117383168	81932288	42989264	33184
274	39.506163	117383168	81932288	37293752	33184
275	46.492388	117383168	81932288	36698640	33184
276	41.322131	117383168	81932288	49048288	33184
277	41.721682	117383168	81932288	44621472	33184
278	47.131087	117383168	81932288	45262016	33184
279	55.359808	117383168	81932288	46157320	33184
280	58.122705	115810304	80359424	35610464	33184
281	42.856405	115810304	80359424	31762376	33184
282	44.586761	115810304	80359424	29284704	33184
283	48.947999	115810304	80359424	31652408	33184
284	49.334214	115810304	80359424	34274224	33184
285	50.696346	115810304	80359424	37285608	33184
286	51.195352	115810304	80359424	40699712	33184
287	52.43192	115810304	80359424	44484616	33184
288	52.099142	115810304	80359424	48667560	33184
289	53.048546	119324672	84029440	53228488	33184
290	54.025587	123109376	88223744	58196624	33184
291	60.128837	126894080	91893760	63533984	33184
292	76.896005	124682240	89796608	24987872	33184
293	54.244061	124682240	89796608	31226864	33184
294	56.174559	124682240	89796608	37755224	33184
295	55.164622	124682240	89796608	44686760	33184
296	56.316498	124682240	89796608	52003080	33184
297	61.854823	125763584	90320896	47140728	33184
298	57.28717	125763584	90320896	55272176	33184
299	57.994084	125763584	90320896	63800848	33184
300	69.574336	126033920	90845184	60183568	33184
301	83.334534	125452288	90320896	24688944	33184
302	1.266976	125452288	90320896	34688208	33184
303	1.815164	125452288	90320896	35909872	33184
304	2.420746	125452288	90320896	37540928	33184
305	3.093904	125452288	90320896	39582536	33184
306	6.951887	125452288	90320896	28703984	33184
307	4.298239	125452288	90320896	31571264	33184
308	5.408146	125452288	90320896	34854408	33184
309	5.612129	125452288	90320896	38553336	33184
310	6.219624	125452288	90320896	42668240	33184
311	7.823451	125452288	90320896	31779344	33184
312	7.448509	125452288	90320896	36731456	33184
313	7.821737	125452288	90320896	42104008	33184
314	9.462584	125452288	90320896	31867720	33184
315	9.104758	125452288	90320896	38084888	33184
316	10.109763	125452288	90320896	44726216	33184
317	10.957906	125452288	90320896	35413792	33184
318	10.915601	125452288	90320896	42913536	33184
319	12.131541	125452288	90320896	34714896	33184
320	12.368296	125452288	90320896	43067296	33184
321	13.352127	125452288	90320896	35699952	33184
322	13.720109	125452288	90320896	44915536	33184
323	14.709424	125452288	90320896	38179920	33184
324	15.950689	125452288	90320896	32787336	33184
325	16.04327	125452288	90320896	43308008	33184
326	16.993554	125452288	90320896	38088768	33184
327	18.572216	125452288	90320896	34028464	33184
328	19.154391	125452288	90320896	30967632	33184
329	18.764415	125452288	90320896	43236880	33184
330	20.301859	125452288	90320896	39816016	33184
331	20.637714	125452288	90320896	37306624	33184
332	22.175962	125452288	90320896	35598800	33184
333	23.634431	125452288	90320896	34567520	33184
334	23.914109	125452288	90320896	34124848	33184
335	24.770432	125452288	90320896	34254024	33184
336	24.978029	125452288	90320896	34785552	33184
337	26.241231	125452288	90320896	35684544	33184
338	26.568849	125452288	90320896	36922968	33184
339	27.40397	125452288	90320896	38445024	33184
340	27.141545	125452288	90320896	40224376	33184
341	27.441786	125452288	90320896	42214488	33184
342	28.473512	125452288	90320896	44400864	33184
343	31.896946	125452288	90320896	32703512	33184
344	33.665619	125452288	90320896	39346192	33184
345	31.182677	125452288	90320896	43707056	33184
346	31.045989	125452288	90320896	47871320	33184
347	35.60401	125452288	90320896	37841008	33184
348	33.01452	125452288	90320896	43722040	33184
349	37.243957	125452288	90320896	35694024	33184
350	36.906224	125452288	90320896	45057344	33184
351	35.7935	125452288	90320896	51848480	33184
352	38.058937	125452288	90320896	43956064	33184
353	37.609726	125452288	90320896	51828504	33184
354	39.824297	125452288	90320896	44913400	33184
355	41.822609	125452288	90320896	40209912	33184
356	40.956934	125452288	90320896	52362056	33184
357	42.307913	125452288	90320896	47675776	33184
358	47.491877	125722624	90320896	48265976	33184
359	43.981718	125722624	90320896	61751128	33184
360	44.451562	125722624	90320896	58068752	33184
361	45.341431	125722624	90320896	55512376	33184
362	50.496516	125722624	90320896	57993248	33184
363	57.815943	126263296	90845184	60856616	33184
364	72.319141	125779968	91893760	33921632	33184
365	51.081166	127127552	91893760	36764688	33184
366	52.20225	127127552	91893760	41062632	33184
367	53.203111	127127552	91893760	45856424	33184
368	57.864006	127127552	91893760	38574344	33184
369	54.888658	127127552	91893760	44361032	33184
370	55.740635	127127552	91893760	50642368	33184
371	55.78078	127127552	91893760	57429192	33184
372	58.56553	127127552	91893760	64739504	33184
373	85.344186	125808640	91893760	29453504	33184
374	58.496987	127156224	91893760	37125384	33184
375	64.516081	127156224	91893760	33372848	33184
376	59.077136	127156224	91893760	42698992	33184
377	59.617669	127156224	91893760	52530472	33184
378	65.289216	127156224	91893760	50274624	33184
379	60.745059	127156224	91893760	61098608	33184
380	67.365761	127156224	91893760	59915544	33184
381	72.478966	128507904	93466624	71768512	33184
382	88.076188	129265664	93990912	25223632	33184
383	63.65983	129265664	93990912	38132904	33184
384	71.087185	129265664	93990912	39005200	33184
385	70.728539	129265664	93990912	40357008	33184
386	66.808111	129265664	93990912	54768880	33184
387	73.196383	129806336	94515200	57175768	33184
388	78.628921	130076672	95039488	60066672	33184
389	96.155619	123584512	88748032	33101728	33184
390	74.815799	123584512	88748032	37210560	33184
391	74.971386	123584512	88748032	41845880	33184
392	76.575667	123584512	88748032	47011424	33184
393	78.444525	124665856	89272320	52728736	33184
394	77.713824	124665856	89272320	58979472	33184
395	85.173994	128720896	93990912	65743480	33184
396	103.553654	128651264	93466624	28345376	33184
397	81.889687	128651264	93466624	36005496	33184
398	81.296862	128651264	93466624	44181344	33184
399	80.913193	128651264	93466624	52965568	33184
400	95.969102	128651264	93466624	62267296	33184
401	94.105994	128651264	93466624	59432952	33184
402	1.647859	125124608	91369472	40735960	33184
403	6.659796	126472192	91369472	28713144	33184
404	3.26321	126472192	91369472	30885960	33184
405	4.008248	126472192	91369472	33604760	33184
406	4.952465	126472192	91369472	36871368	33184
407	5.946525	126472192	91369472	40686504	33184
408	8.347614	126472192	91369472	30577880	33184
409	7.404937	126472192	91369472	35493672	33184
410	8.185315	126472192	91369472	40962808	33184
411	9.331453	126472192	91369472	30879776	33184
412	9.793501	126472192	91369472	37457016	33184
413	11.569055	126472192	91369472	28956280	33184
414	11.674708	126472192	91369472	36652648	33184
415	13.397195	126472192	91369472	29382432	33184
416	12.970832	126472192	91369472	38197168	33184
417	14.779258	126472192	91369472	31860096	33184
418	14.676824	126472192	91369472	41792896	33184
419	15.637557	126472192	91369472	36084328	33184
420	18.119491	126472192	91369472	31725864	33184
421	17.051307	126472192	91369472	43362232	33184
422	18.332682	126472192	91369472	39146360	33184
423	19.359253	126472192	91369472	36072848	33184
424	21.1903	126472192	91369472	34001264	33184
425	22.835565	126472192	91369472	32762240	33184
426	23.351808	126472192	91369472	32310104	33184
427	24.15998	126472192	91369472	32466464	33184
428	24.75544	126472192	91369472	33168616	33184
429	25.623587	126472192	91369472	34336704	33184
430	26.406829	126472192	91369472	35952200	33184
431	26.720822	126472192	91369472	37921816	33184
432	27.504025	126472192	91369472	40189968	33184
433	28.085656	126472192	91369472	42718296	33184
434	31.866394	126472192	91369472	31425824	33184
435	33.962818	126472192	91369472	38697824	33184
436	30.973589	126472192	91369472	43703320	33184
437	34.343037	126472192	91369472	34562264	33184
438	35.862064	126472192	91369472	43560088	33184
439	38.063714	126472192	91369472	36462984	33184
440	37.692655	126472192	91369472	46582992	33184
441	38.432152	126472192	91369472	40512488	33184
442	39.082095	126472192	91369472	51815752	33184
443	39.612423	126472192	91369472	46474664	33184
444	44.702134	126472192	91369472	46342104	33184
445	41.341587	126472192	91369472	59302072	33184
446	41.533919	126472192	91369472	55459504	33184
447	48.492912	126742528	91369472	57096440	33184
448	48.663234	126742528	91369472	59196424	33184
449	50.01785	129175552	93990912	61888096	33184
450	56.985384	132960256	98185216	65179800	33184
451	69.728278	129433600	96088064	34300728	33184
452	52.533525	130781184	96088064	37652936	33184
453	52.992252	131051520	96088064	42841672	33184
454	57.511277	131051520	96088064	36028952	33184
455	54.538365	131051520	96088064	42453336	33184
456	56.022894	131051520	96088064	49505328	33184
457	56.810504	131321856	96088064	57103576	33184
458	62.04593	131321856	96088064	52761952	33184
459	59.866758	131321856	96088064	61615984	33184
460	89.118635	125923328	92418048	27060192	33184
461	60.485014	127270912	92418048	36366960	33184
462	65.558822	127270912	92418048	34350416	33184
463	62.459036	127270912	92418048	45565632	33184
464	67.646934	127270912	92418048	44831056	33184
465	63.780307	127270912	92418048	57198312	33184
466	70.081447	127811584	92418048	57712584	33184
467	70.184339	127811584	92418048	58828672	33184
468	97.731599	129781760	96088064	29742672	33184
469	71.933921	131129344	96088064	31254544	33184
470	68.637083	131129344	96088064	46789544	33184
471	73.64404	131129344	96088064	50417848	33184
472	73.687194	131129344	96088064	54604120	33184
473	77.095959	131129344	96088064	59452536	33184
474	78.306386	131940352	96612352	64938280	33184
475	84.515028	132481024	97660928	71033120	33184
476	99.991386	131731456	96612352	30019960	33184
477	79.554713	131731456	96612352	37356248	33184
478	79.380884	131731456	96612352	45371736	33184
479	81.22093	131731456	96612352	54022296	33184
480	83.802108	131731456	96612352	63312568	33184
481	87.855305	131731456	96612352	60669040	33184
482	111.892101	127283200	93466624	40667992	33184
483	90.972181	128630784	93466624	38722304	33184
484	85.503848	128630784	93466624	50657624	33184
485	91.41417	128630784	93466624	50689504	33184
486	88.201334	128630784	93466624	64003240	33184
487	94.714895	129712128	95039488	65330336	33184
488	125.655874	128049152	95039488	32285720	33184
489	101.827834	129396736	95039488	33512184	33184
490	96.411765	129396736	95039488	36636472	33184
491	94.40525	129396736	95039488	53035360	33184
492	99.691381	129667072	95039488	57612224	33184
493	105.779763	130207744	95039488	62867208	33184
494	122.530623	126095360	90845184	38709416	33184
495	102.428076	126095360	90845184	45094440	33184
496	101.416033	126095360	90845184	52148504	33184
497	102.262805	126095360	90845184	59844552	33184
498	105.659916	128258048	93466624	68192320	33184
499	132.62056	130347008	95563776	28309328	33184
500	105.858537	130887680	95563776	38115280	33184
501	107.857314	130887680	95563776	48478304	33184
502	6.396351	130887680	95563776	47357960	33184
503	3.027118	130887680	95563776	49353976	33184
504	3.964439	130887680	95563776	52017560	33184
505	4.929547	130887680	95563776	55349776	33184
506	6.115536	130887680	95563776	59352544	33184
507	9.249913	130887680	95563776	49602856	33184
508	7.848188	130887680	95563776	54950776	33184
509	8.810263	130887680	95563776	60970832	33184
510	10.435491	130887680	95563776	51461696	33184
511	10.995971	130887680	95563776	58834008	33184
512	12.5239	130887680	95563776	51012992	33184
513	12.985751	130887680	95563776	59746064	33184
514	14.839874	130887680	95563776	53118288	33184
515	16.557917	130887680	95563776	48089192	33184
516	15.837863	130887680	95563776	58870704	33184
517	18.039468	130887680	95563776	54454056	33184
518	19.385803	130887680	95563776	51300376	33184
519	20.963202	130887680	95563776	49267032	33184
520	20.327675	130887680	95563776	62794056	33184
521	21.730315	130887680	95563776	60586424	33184
522	22.754015	130887680	95563776	59337520	33184
523	23.855765	130887680	95563776	58960864	33184
524	25.114099	130887680	95563776	59333072	33184
525	25.900118	130887680	95563776	60349544	33184
526	27.606788	130887680	95563776	61932832	33184
527	30.530743	130887680	95563776	49942936	33184
528	32.420174	130887680	95563776	56629264	33184
529	30.656687	130887680	95563776	61225848	33184
530	31.316651	130887680	95563776	65826624	33184
531	34.581978	130887680	95563776	56298344	33184
532	33.988954	130887680	95563776	62978344	33184
533	38.325005	130887680	95563776	55542712	33184
534	40.637355	130887680	95563776	66422608	33184
535	52.053827	130887680	95563776	60639104	33184
536	48.079645	123576320	88223744	25218192	33184
537	46.630824	123576320	88223744	25545696	33184
538	47.258541	123576320	88223744	26468112	33184
539	44.372212	123576320	88223744	40661632	33184
540	44.038705	123576320	88223744	37994000	33184
541	50.673549	123576320	88223744	41178496	33184
542	51.752747	123576320	88223744	44943808	33184
543	52.14351	123576320	88223744	49408480	33184
544	54.140988	123576320	88223744	54617544	33184
545	56.421687	123576320	88223744	60511208	33184
546	83.877016	122003456	88223744	26069320	33184
547	59.127525	123625472	88223744	33175912	33184
548	57.953966	123625472	88223744	41236856	33184
549	104.705669	123625472	88223744	37497688	33184
550	63.995157	123625472	88223744	47079632	33184
551	61.069454	123625472	88223744	57330864	33184
552	67.103509	123625472	88223744	55759760	33184
553	62.996196	123625472	88748032	67539216	33184
554	96.068169	125104128	91369472	22191440	33184
555	68.282622	126451712	91369472	34504376	33184
556	71.401524	126451712	91369472	35962640	33184
557	72.160802	126451712	91369472	38140808	33184
558	69.814487	126451712	91369472	53572120	33184
559	75.233169	126451712	91369472	57185008	33184
560	75.578521	126451712	91369472	61596104	33184
561	104.059269	123727872	89796608	22958944	33184
562	79.519484	125075456	89796608	27995040	33184
563	80.598789	125075456	89796608	34532072	33184
564	80.591123	125075456	89796608	41780432	33184
565	81.199945	125075456	89796608	49801496	33184
566	83.341848	125075456	89796608	58595960	33184
567	91.550421	125616128	90320896	68063480	33184
568	109.417963	128081920	92942336	34950656	33184
569	85.759622	128081920	92942336	45967224	33184
570	90.30567	128081920	92942336	45122408	33184
571	86.700982	128081920	92942336	57616240	33184
572	93.301041	128081920	92942336	58339072	33184
573	99.969923	128892928	93466624	72355856	33184
574	116.899111	130166784	95039488	29244624	33184
575	91.649671	130166784	95039488	44741656	33184
576	97.759285	130166784	95039488	48518392	33184
577	99.574919	130166784	95039488	52968664	33184
578	99.340223	130166784	95039488	58300440	33184
579	132.293774	129163264	93990912	34312144	33184
580	102.800927	129163264	93990912	41227760	33184
581	105.345101	129163264	93990912	48793752	33184
582	103.337616	129163264	93990912	57091344	33184
583	106.028253	129974272	94515200	66149096	33184
584	115.927864	137273344	102379520	75995008	33184
585	130.482564	133533696	98709504	37148352	33184
586	107.724099	133533696	98709504	48560656	33184
587	113.712413	133533696	98709504	48175496	33184
588	111.587974	133533696	98709504	61154208	33184
589	121.857973	134074368	99233792	75021200	33184
590	135.892841	129187840	93990912	43014400	33184
591	163.827073	129187840	93990912	45703584	33184
592	116.230255	129187840	93990912	61787712	33184
593	119.977792	129187840	93990912	66030592	33184
594	148.675887	130015232	96088064	36786432	33184
595	122.631214	131362816	96088064	41613752	33184
596	125.916469	131362816	96088064	48215896	33184
597	125.90419	131362816	96088064	55637432	33184
598	145.464746	131903488	96612352	63862000	33184
599	139.620815	128245760	92942336	41249640	33184
600	130.359426	128245760	92942336	51107920	33184
601	131.340968	128245760	92942336	61716416	33184
602	2.652507	131219456	96088064	73688216	33184
603	10.828995	133111808	98185216	63244360	33184
604	5.40185	133111808	98185216	66425896	33184
605	7.220678	133111808	98185216	70418568	33184
606	12.256722	133111808	98185216	75198496	33184
607	20.73861	134733824	99758080	66070480	33184
608	17.537192	134733824	99758080	29123928	33184
609	11.016953	134733824	99758080	36310640	33184
610	12.75378	134733824	99758080	28527352	33184
611	12.931491	134733824	99758080	37324392	33184
612	14.93341	134733824	99758080	30985560	33184
613	17.218431	134733824	99758080	26332400	33184
614	16.669341	134733824	99758080	37558800	33184
615	18.905812	134733824	99758080	33615864	33184
616	20.752034	134733824	99758080	31044224	33184
617	22.137217	134733824	99758080	29621520	33184
618	23.369761	134733824	99758080	29222120	33184
619	25.095916	134733824	99758080	29732112	33184
620	26.022613	134733824	99758080	30971832	33184
621	27.110461	134733824	99758080	32841176	33184
622	27.543449	134733824	99758080	35275440	33184
623	28.521533	134733824	99758080	38185584	33184
624	29.748265	134733824	99758080	41511240	33184
625	33.221857	134733824	99758080	31019600	33184
626	33.032715	134733824	99758080	37000744	33184
627	36.187985	134733824	99758080	29334104	33184
628	39.819053	134733824	99758080	39554952	33184
629	40.498399	134733824	99758080	33703880	33184
630	40.150931	134733824	99758080	45624336	33184
631	41.878792	134733824	99758080	40852680	33184
632	47.858345	134733824	99758080	41854200	33184
633	49.55685	134733824	99758080	43570600	33184
634	49.92034	134733824	99758080	46003928	33184
635	51.081378	134733824	99758080	49340208	33184
636	51.989267	134733824	99758080	53552224	33184
637	52.773747	135004160	99758080	58495864	33184
638	55.61972	135004160	99758080	64411384	33184
639	61.149454	135544832	100282368	71012536	33184
640	78.351156	131846144	96612352	28686720	33184
641	60.176724	131846144	96612352	37219528	33184
642	64.52789	131846144	96612352	33906352	33184
643	60.964566	131846144	96612352	43891168	33184
644	66.906807	131846144	96612352	42244744	33184
645	62.765889	131846144	96612352	54005608	33184
646	68.877774	131846144	96612352	54032136	33184
647	69.103369	131846144	96612352	67452688	33184
648	98.648071	127889408	93990912	37981064	33184
649	73.158901	129236992	93990912	39946416	33184
650	73.620432	129236992	93990912	43348888	33184
651	75.241171	129236992	93990912	47640640	33184
652	76.239864	129236992	93990912	52739808	33184
653	77.090864	129236992	93990912	58758240	33184
654	80.874132	129236992	93990912	65578216	33184
655	111.245895	133562368	98709504	28325168	33184
656	83.006454	133562368	98709504	36977656	33184
657	81.885461	133562368	98709504	46410008	33184
658	84.058078	133562368	98709504	56724072	33184
659	89.104169	133562368	98709504	55295752	33184
660	90.55272	133562368	98709504	67333200	33184
661	113.129375	135995392	100806656	67686640	33184
662	97.7697	132018176	96612352	33084824	33184
663	91.057033	132018176	96612352	47744968	33184
664	95.663131	132018176	96612352	50651120	33184
665	98.068985	132018176	96612352	54505040	33184
666	99.034747	132018176	96612352	59149736	33184
667	132.116794	127852544	92418048	34319064	33184
668	103.150104	127852544	92418048	40872688	33184
669	102.193956	127852544	92418048	48144336	33184
670	104.798594	127852544	92418048	56326456	33184
671	105.440607	129474560	94515200	65434080	33184
672	135.157443	131063808	97660928	27098504	33184
673	110.016812	132411392	97660928	36838584	33184
674	110.746181	132411392	97660928	48526272	33184
675	114.692944	132411392	97660928	48702352	33184
676	111.632245	132952064	97660928	62339936	33184
677	143.240278	128229376	92942336	30919472	33184
678	120.097944	128229376	92942336	33784200	33184
679	114.872689	128229376	92942336	49948496	33184
680	121.283115	128229376	92942336	54398232	33184
681	146.813747	125075456	91369472	29468376	33184
682	126.1331	126423040	91369472	35148472	33184
683	121.29458	126423040	91369472	54810472	33184
684	126.048486	126423040	91369472	62833744	33184
685	137.450284	129667072	94515200	71805104	33184
686	153.180692	133451776	98185216	37977904	33184
687	129.43701	133451776	98185216	48666944	33184
688	130.989122	133451776	98185216	60354128	33184
689	137.134913	133451776	98185216	72956456	33184
690	169.476731	131497984	96088064	41858528	33184
691	135.557883	131497984	96088064	56137008	33184
692	141.226439	131497984	96088064	58863480	33184
693	143.608855	134742016	99758080	74979880	33184
694	174.030714	132857856	97660928	26760360	33184
695	140.78666	132857856	97660928	44742000	33184
696	146.975679	132857856	97660928	51050792	33184
697	175.151902	125304832	91369472	28938896	33184
698	147.172756	126652416	91369472	49327936	33184
699	153.240153	126652416	91369472	58360032	33184
700	154.450474	128274432	92942336	68505928	33184
701	180.63031	130363392	95563776	30857984	33184
702	2.779492	130363392	95563776	43457888	33184
703	4.094987	130363392	95563776	46210608	33184
704	5.72136	130363392	95563776	49882920	33184
705	10.289485	130363392	95563776	40776880	33184
706	8.397973	130363392	95563776	46293008	33184
707	9.785819	130363392	95563776	52732472	33184
708	11.774944	130363392	95563776	44321152	33184
709	12.488421	130363392	95563776	52614088	33184
710	14.595698	130363392	95563776	45585632	33184
711	16.717599	130363392	95563776	40471264	33184
712	16.664019	130363392	95563776	51547616	33184
713	18.490506	130363392	95563776	47475296	33184
714	20.608769	130363392	95563776	44935000	33184
715	23.423849	130363392	95563776	43711728	33184
716	24.027308	130363392	95563776	43558312	33184
717	25.511633	130363392	95563776	44360264	33184
718	26.7601	130363392	95563776	46021568	33184
719	27.350042	130363392	95563776	48436760	33184
720	28.889727	130363392	95563776	51475144	33184
721	32.841419	130363392	95563776	41163976	33184
722	34.834798	130363392	95563776	49358592	33184
723	33.252452	130363392	95563776	55606528	33184
724	37.127557	130363392	95563776	47814272	33184
725	39.282801	130363392	95563776	58936248	33184
726	40.403218	130363392	95563776	53504112	33184
727	41.700565	130363392	95563776	49864944	33184
728	47.372057	130363392	95563776	51158056	33184
729	46.312016	130363392	95563776	65902824	33184
730	63.342847	130363392	95563776	63817384	33184
731	53.338487	124104704	88748032	34961760	33184
732	48.380011	124104704	88748032	34540000	33184
733	49.498799	124104704	88748032	35302880	33184
734	54.816307	124104704	88748032	24419688	33184
735	57.42378	124104704	88748032	32412600	33184
736	59.278548	124104704	88748032	41338776	33184
737	64.374039	124104704	88748032	38642600	33184
738	61.859876	124104704	88748032	49578528	33184
739	66.694158	124104704	88748032	48854304	33184
740	65.55223	124104704	88748032	61712104	33184
741	96.703226	121888768	88223744	34217832	33184
742	73.432891	123236352	88223744	36128576	33184
743	73.177346	123236352	88223744	39279024	33184
744	74.223228	123236352	88223744	43493176	33184
745	76.104977	123236352	88223744	48704664	33184
746	77.873373	123506688	88223744	54822624	33184
747	80.330772	128102400	92942336	62081936	33184
748	109.277878	130420736	96612352	38245712	33184
749	86.553167	131768320	96612352	34147464	33184
750	83.859517	131768320	96612352	44329136	33184
751	84.675626	131768320	96612352	55376656	33184
752	90.305154	131768320	96612352	54977248	33184
753	87.188358	131768320	96612352	67985336	33184
754	121.408992	130752512	97136640	22539544	33184
755	92.030605	132100096	97136640	36493912	33184
756	97.005395	132100096	97136640	40042928	33184
757	98.465543	132100096	97136640	44486408	33184
758	94.687069	132100096	97136640	62574512	33184
759	103.667985	132100096	97136640	69146464	33184
760	134.535833	126894080	91893760	33802408	33184
761	104.290311	126894080	91893760	42320864	33184
762	106.855586	126894080	91893760	51855920	33184
763	105.824322	126894080	91893760	62480376	33184
764	108.825561	129867776	95039488	74140224	33184
765	140.149998	127950848	93466624	24250760	33184
766	111.751921	128221184	93466624	37950888	33184
767	113.463414	128221184	93466624	52637480	33184
768	121.83976	128221184	93466624	55759144	33184
769	150.347295	123727872	89796608	31002328	33184
770	122.062492	125075456	89796608	35408696	33184
771	118.586709	125075456	89796608	54076360	33184
772	124.446447	125075456	89796608	61090528	33184
773	134.829596	129130496	93990912	69220784	33184
774	155.609598	130785280	95563776	34998376	33184
775	130.22136	130785280	95563776	45183712	33184
776	130.054425	130785280	95563776	56278600	33184
777	134.224962	132136960	97136640	68511488	33184
778	170.971277	130994176	95563776	37717168	33184
779	138.750085	130994176	95563776	51990896	33184
780	135.397854	130994176	95563776	67214056	33184
781	144.985818	134778880	99758080	70973136	33184
782	167.371474	130428928	95039488	35369640	33184
783	146.699667	130428928	95039488	41136064	33184
784	147.935103	130428928	95039488	47986072	33184
785	152.967644	130969600	95563776	68402896	33184
786	176.079303	127143936	91893760	48665504	33184
787	150.181954	127143936	91893760	58556344	33184
788	152.609799	127954944	92942336	69500808	33184
789	189.898916	133505024	100282368	33731616	33184
790	156.448588	134852608	100282368	45623200	33184
791	156.727794	134852608	100282368	59779640	33184
792	168.994542	136204288	100806656	62240288	33184
793	187.289037	130703360	95563776	27590384	33184
794	163.492426	130703360	95563776	44792704	33184
795	164.318786	130703360	95563776	63116912	33184
796	199.388468	126832640	91369472	38752816	33184
797	171.037289	126832640	91369472	46549792	33184
798	172.738507	126832640	91369472	55458864	33184
799	203.715799	128684032	93466624	33372592	33184
800	177.670053	128684032	93466624	44495320	33184
801	179.426763	128684032	93466624	56387248	33184
802	3.181709	132714496	99233792	38164600	33184
803	4.700319	132714496	99233792	41334776	33184
804	9.902232	134602752	99233792	31319912	33184
805	8.713027	134602752	99233792	36609080	33184
806	9.572269	134602752	99233792	42960152	33184
807	12.2944	134602752	99233792	35155840	33184
808	12.662801	134602752	99233792	43633224	33184
809	14.627677	134602752	99233792	36847536	33184
810	16.835229	134602752	99233792	32076992	33184
811	17.328782	134602752	99233792	43774344	33184
812	19.644777	134602752	99233792	40165240	33184
813	21.694742	134602752	99233792	38174872	33184
814	22.88818	134602752	99233792	37494184	33184
815	24.720239	134602752	99233792	37929352	33184
816	26.565025	134602752	99233792	39418728	33184
817	27.410133	134602752	99233792	41774480	33184
818	29.18488	134602752	99233792	44875248	33184
819	32.742306	134602752	99233792	34452112	33184
820	32.967353	134602752	99233792	40695912	33184
821	37.031742	134602752	99233792	33423992	33184
822	38.633501	134602752	99233792	44561784	33184
823	40.09853	134602752	99233792	39472600	33184
824	46.340173	134602752	99233792	40117136	33184
825	48.117575	134602752	99233792	41739256	33184
826	45.133434	134602752	99233792	56974664	33184
827	47.539342	134602752	99233792	55506808	33184
828	47.775649	134602752	99233792	55510720	33184
829	55.737549	134602752	99233792	61589376	33184
830	61.159631	134602752	99233792	56044112	33184
831	57.653703	134602752	99233792	64153176	33184
832	59.721841	134602752	99233792	73362720	33184
833	71.023775	137035776	101855232	71060568	33184
834	86.902893	133767168	98709504	31499336	33184
835	69.197631	133767168	98709504	31616720	33184
836	65.57566	133767168	98709504	45189448	33184
837	71.729727	133767168	98709504	47358456	33184
838	73.032516	133767168	98709504	50532056	33184
839	75.019947	133767168	98709504	54867120	33184
840	77.86083	133767168	98709504	60334136	33184
841	106.220639	126902272	92942336	36144056	33184
842	80.066271	128249856	92942336	43151176	33184
843	86.151074	128249856	92942336	39305744	33184
844	82.54341	128249856	92942336	49116936	33184
845	84.60857	128249856	92942336	60059576	33184
846	93.949394	128249856	92942336	59632424	33184
847	97.499255	133386240	98185216	72868688	33184
848	110.201501	134557696	99233792	39194600	33184
849	96.266061	134557696	99233792	42030488	33184
850	97.419446	134557696	99233792	45970080	33184
851	99.377225	134557696	99233792	51109872	33184
852	97.124498	134557696	99233792	69859936	33184
853	129.492799	127356928	92418048	29558192	33184
854	103.594407	127356928	92418048	38150432	33184
855	107.932828	127356928	92418048	47736880	33184
856	111.611	127356928	92418048	58446288	33184
857	117.74565	127356928	92418048	57672784	33184
858	136.244971	125603840	90320896	41809040	33184
859	116.756372	125603840	90320896	43279920	33184
860	115.20714	125603840	90320896	58569624	33184
861	119.751691	126685184	91369472	62401104	33184
862	142.277706	136417280	101330944	67392544	33184
863	132.734131	134991872	99758080	38138432	33184
864	126.466887	134991872	99758080	45415112	33184
865	129.171471	134991872	99758080	53783120	33184
866	129.601509	134991872	99758080	63323400	33184
867	165.49454	128278528	93466624	42993552	33184
868	133.494826	128819200	93466624	54793000	33184
869	137.658952	128819200	93466624	55129472	33184
870	137.366992	133414912	98185216	69262256	33184
871	173.439072	133951488	100282368	34378296	33184
872	144.611341	135299072	100282368	36916984	33184
873	140.97523	135299072	100282368	54447728	33184
874	145.659529	135299072	100282368	60525504	33184
875	174.236775	129802240	94515200	33059256	33184
876	150.352592	129802240	94515200	41606392	33184
877	152.191151	129802240	94515200	51262216	33184
878	156.865825	129802240	94515200	61942136	33184
879	182.419859	132067328	97136640	44598448	33184
880	157.637221	132067328	97136640	57672296	33184
881	158.831492	132067328	97136640	71861200	33184
882	194.735008	137306112	103428096	38285344	33184
883	167.10539	138653696	103428096	41174232	33184
884	165.392468	138653696	103428096	58837616	33184
885	168.793416	138653696	103428096	65190416	33184
886	203.707608	131915776	96612352	41468416	33184
887	167.816774	131915776	96612352	62760456	33184
888	174.932679	134619136	99233792	72567880	33184
889	212.104741	140992512	108146688	31224328	33184
890	178.274582	142880768	108146688	42125768	33184
891	178.959282	142880768	108146688	55467408	33184
892	183.148683	143421440	108146688	69977856	33184
893	265.869216	134025216	98709504	52524656	33184
894	188.070496	134025216	98709504	56829368	33184
895	187.641418	139702272	104476672	74878912	33184
896	222.28903	140316672	105525248	37565960	33184
897	195.885805	140316672	105525248	45419952	33184
898	191.694094	140316672	105525248	67075760	33184
899	223.652767	129744896	94515200	42085960	33184
900	197.907041	129744896	94515200	53493680	33184
901	210.00236	130555904	95563776	66047120	33184
902	3.545138	130326528	95039488	55349616	33184
903	9.202596	130326528	95039488	46021376	33184
904	7.36006	130326528	95039488	50787000	33184
905	8.977125	130326528	95039488	56750880	33184
906	12.23856	130326528	95039488	49038952	33184
907	12.271677	130326528	95039488	57392600	33184
908	14.829011	130326528	95039488	51035632	33184
909	17.608603	130326528	95039488	46693080	33184
910	17.850826	130326528	95039488	58642264	33184
911	20.246241	130326528	95039488	55737088	33184
912	22.307774	130326528	95039488	54343920	33184
913	24.162157	130326528	95039488	54349352	33184
914	25.82037	130326528	95039488	55558888	33184
915	27.54837	130326528	95039488	57812176	33184
916	28.84441	130326528	95039488	60980704	33184
917	33.256279	130326528	95039488	50801040	33184
918	33.45212	130326528	95039488	57373216	33184
919	37.547635	130326528	95039488	50510208	33184
920	39.358112	130326528	95039488	62047888	33184
921	40.70424	130326528	95039488	57500768	33184
922	47.846721	130326528	95039488	58953520	33184
923	49.079984	130326528	95039488	61417744	33184
924	51.390053	131948544	96612352	65060968	33184
925	53.636403	135733248	100806656	69936312	33184
926	55.985608	139517952	104476672	76019592	33184
927	59.465302	143572992	108670976	83363224	33184
928	84.173704	133844992	98709504	24384480	33184
929	60.190535	133844992	98709504	34127232	33184
930	62.168087	133844992	98709504	45104576	33184
931	67.661094	133844992	98709504	44721960	33184
932	69.523554	134115328	98709504	45567512	33184
933	67.411843	134115328	98709504	60246352	33184
934	73.172182	134115328	98709504	63549200	33184
935	102.210381	124776448	90845184	22992832	33184
936	78.187155	126124032	90845184	28088504	33184
937	79.94086	126124032	90845184	35098176	33184
938	80.490221	126124032	90845184	43353216	33184
939	82.396612	126124032	90845184	52893200	33184
940	84.397416	126124032	90845184	63620600	33184
941	112.746306	126394368	91369472	62878640	33184
942	96.289657	128016384	92942336	32717376	33184
943	89.317074	128016384	92942336	47111472	33184
944	96.160416	128016384	92942336	50223256	33184
945	100.331992	128016384	92942336	54675496	33184
946	100.38249	128286720	92942336	60223856	33184
947	133.457031	131530752	96612352	36468360	33184
948	102.828811	131530752	96612352	44543096	33184
949	104.376343	131530752	96612352	53971064	33184
950	106.535379	131530752	96612352	64437344	33184
951	114.189313	131801088	96612352	63694472	33184
952	137.249392	131260416	96088064	26642232	33184
953	114.890902	131260416	96088064	41016896	33184
954	119.648841	131260416	96088064	44050944	33184
955	117.23555	131260416	96088064	60858928	33184
956	130.062615	131260416	96088064	66363088	33184
957	147.460475	129175552	93990912	43296496	33184
958	127.252918	129175552	93990912	51349848	33184
959	128.160134	129175552	93990912	60657880	33184
960	130.246332	130256896	95039488	71127224	33184
961	158.794827	133820416	99233792	32716520	33184
962	134.671501	134090752	99233792	45833456	33184
963	140.1938	134090752	99233792	47680448	33184
964	143.889388	134090752	99233792	63389808	33184
965	170.163977	123445248	88223744	39520936	33184
966	140.851485	123445248	88223744	57689848	33184
967	146.277292	126148608	90845184	64462416	33184
968	183.421474	134283264	99233792	26199112	33184
969	147.75028	134074368	99233792	47154200	33184
970	152.612077	134074368	99233792	57747616	33184
971	156.280687	134615040	99233792	69689296	33184
972	188.882194	131153920	96088064	33632920	33184
973	157.771012	131153920	96088064	48227120	33184
974	164.574	131424256	96088064	51359248	33184
975	167.848854	131964928	97136640	68430648	33184
976	195.729472	128704512	93466624	43983024	33184
977	167.458728	128704512	93466624	63462880	33184
978	174.20771	133840896	98709504	71760872	33184
979	204.896279	133926912	98709504	28813320	33184
980	172.133128	133926912	98709504	52198224	33184
981	176.991475	133926912	98709504	64276368	33184
982	213.271682	128241664	93466624	31840160	33184
983	183.356949	128241664	93466624	46677360	33184
984	183.053706	128782336	93466624	62672760	33184
985	221.103274	133464064	98185216	33635456	33184
986	187.615577	133464064	98185216	52349144	33184
987	193.42117	133464064	98185216	59589720	33184
988	226.697842	134176768	98709504	33135304	33184
989	193.322669	134176768	98709504	55709800	33184
990	206.126046	134176768	98709504	66918064	33184
991	233.730208	132837376	97660928	31374864	33184
992	200.392844	132837376	97660928	57741376	33184
993	206.883596	132837376	97660928	72799488	33184
994	237.943934	134066176	98709504	39876920	33184
995	210.817796	134066176	98709504	57562448	33184
996	219.391662	134606848	99233792	64034384	33184
997	244.387052	128720896	93466624	56846992	33184
998	221.953594	132505600	97136640	65975192	33184
999	237.556477	147914752	112865280	88877368	33184
1000	244.559897	143065088	107622400	48943056	33184
