x	Duration	RSS	HeapTotal	HeapUsed	External
0	NA	119824384	84553728	14659432	33184
1	0.231988	119824384	84553728	14711720	33184
2	0.175367	119824384	84553728	14779680	33184
3	0.188691	119824384	84553728	14872376	33184
4	0.224786	119824384	84553728	14991480	33184
5	0.268896	119824384	84553728	15138752	33184
6	0.312824	119824384	84553728	15314896	33184
7	0.356697	119824384	84553728	15521112	33184
8	0.418255	119824384	84553728	15758696	33184
9	0.458676	119824384	84553728	16030056	33184
10	0.521486	119824384	84553728	16335496	33184
11	0.563661	119824384	84553728	16676240	33184
12	1.34415	119824384	84553728	17053656	33184
13	0.758822	119824384	84553728	17470336	33184
14	0.960677	119824384	84553728	17928168	33184
15	1.017586	119824384	84553728	18422448	33184
16	1.37306	119824384	84553728	18963432	33184
17	0.904958	119824384	84553728	19543672	33184
18	1.047208	119824384	84553728	20167816	33184
19	1.046068	119824384	84553728	20838176	33184
20	1.14611	119824384	84553728	21563864	33184
21	1.282662	119824384	84553728	22329240	33184
22	1.247307	119824384	84553728	23144240	33184
23	1.546599	119824384	84553728	24010152	33184
24	1.70569	119824384	84553728	24928912	33184
25	1.439849	119824384	84553728	25901104	33184
26	1.685804	119824384	84553728	26925496	33184
27	1.564052	119824384	84553728	28005768	33184
28	1.6366	119824384	84553728	29142992	33184
29	1.736192	119824384	84553728	30338408	33184
30	3.556784	119824384	84553728	15576872	33184
31	2.127467	119824384	84553728	16892616	33184
32	2.641042	119824384	84553728	18275800	33184
33	2.18454	119824384	84553728	19723520	33184
34	2.823963	119824384	84553728	21235976	33184
35	2.594274	119824384	84553728	22841904	33184
36	2.536839	119824384	84553728	24487024	33184
37	3.365967	119824384	84553728	26201864	33184
38	2.93824	119824384	84553728	27996616	33184
39	2.772914	119824384	84553728	29851120	33184
40	5.010718	119824384	84553728	16256496	33184
41	3.502807	119824384	84553728	18254344	33184
42	3.059134	119824384	84553728	20335112	33184
43	3.186794	119824384	84553728	22482520	33184
44	3.064809	119824384	84553728	24707816	33184
45	3.1807	119824384	84553728	27013424	33184
46	3.284586	119824384	84553728	29399464	33184
47	3.611108	119824384	84553728	31868264	33184
48	5.761663	119824384	84553728	18675128	33184
49	3.677167	119824384	84553728	21311112	33184
50	4.111062	119824384	84553728	24036560	33184
51	3.827791	119824384	84553728	26842016	33184
52	3.949849	119824384	84553728	29735736	33184
53	4.260867	119824384	84553728	32719584	33184
54	6.156685	119824384	84553728	19900808	33184
55	4.515891	119824384	84553728	23066320	33184
56	4.468786	119824384	84553728	26324952	33184
57	4.562609	119824384	84553728	29677904	33184
58	5.126103	119824384	84553728	33127400	33184
59	6.597653	119824384	84553728	20734824	33184
60	4.998333	119824384	84553728	24378240	33184
61	5.09976	119824384	84553728	28120928	33184
62	5.438154	119824384	84553728	31964096	33184
63	7.257875	119824384	84553728	20074376	33184
64	5.765122	119824384	84553728	24122208	33184
65	5.658378	119824384	84553728	28281760	33184
66	5.825783	119824384	84553728	32546688	33184
67	7.646717	119824384	84553728	21026672	33184
68	6.360869	119824384	84553728	25506080	33184
69	6.471588	119824384	84553728	30094304	33184
70	8.429291	119824384	84553728	19206456	33184
71	7.736839	119824384	84553728	24025816	33184
72	6.752441	119824384	84553728	28948632	33184
73	7.138705	119824384	84553728	33985856	33184
74	9.430593	119824384	84553728	23152488	33184
75	7.294205	119824384	84553728	28420744	33184
76	8.06824	119824384	84553728	33806616	33184
77	9.700702	119824384	84553728	23434568	33184
78	7.951219	119824384	84553728	29059440	33184
79	7.906955	119824384	84553728	34805504	33184
80	10.041123	119824384	84553728	24702944	33184
81	8.652887	119824384	84553728	30696936	33184
82	10.75246	119824384	84553728	21323632	33184
83	8.805389	119824384	84553728	27567784	33184
84	9.315494	119824384	84553728	33941664	33184
85	11.522937	119824384	84553728	24597360	33184
86	10.283295	119824384	84553728	31240040	33184
87	12.077574	119824384	84553728	22553600	33184
88	9.890436	119824384	84553728	29452768	33184
89	10.059732	119824384	84553728	36486656	33184
90	12.101648	119824384	84553728	27624320	33184
91	10.320592	119824384	84553728	34933336	33184
92	12.900791	119824384	84553728	26549872	33184
93	11.106086	119824384	84553728	34141016	33184
94	13.417839	119824384	84553728	26150392	33184
95	10.938745	119824384	84553728	34028856	33184
96	13.905206	119824384	84553728	26358592	33184
97	11.841557	119824384	84553728	34529864	33184
98	14.662757	119824384	84553728	27134912	33184
99	12.218197	119824384	84553728	35602960	33184
100	14.466204	119824384	84553728	28394056	33184
101	12.261494	119824384	84553728	37163896	33184
102	0.495032	119824384	84553728	29953296	33184
103	0.703085	119824384	84553728	30412104	33184
104	0.911665	119824384	84553728	31026200	33184
105	1.122269	119824384	84553728	31796440	33184
106	1.34124	119824384	84553728	32724848	33184
107	1.634766	119824384	84553728	33811992	33184
108	1.787856	119824384	84553728	35059216	33184
109	2.038061	119824384	84553728	36467704	33184
110	2.239746	119824384	84553728	38039592	33184
111	4.540666	119824384	84553728	23762952	33184
112	2.925446	119824384	84553728	25665200	33184
113	3.298486	119824384	84553728	27732128	33184
114	3.198957	119824384	84553728	29966736	33184
115	3.411467	119824384	84553728	32369560	33184
116	3.651225	119824384	84553728	34942408	33184
117	4.119193	119824384	84553728	37686344	33184
118	6.24566	119824384	84553728	24576024	33184
119	4.402864	119824384	84553728	27667488	33184
120	4.627083	119824384	84553728	30934192	33184
121	5.098909	119824384	84553728	34376976	33184
122	5.236176	119824384	84553728	37996952	33184
123	7.787795	119824384	84553728	25773120	33184
124	5.636275	119824384	84553728	29751208	33184
125	6.208501	119824384	84553728	33910136	33184
126	6.163172	119824384	84553728	38252392	33184
127	8.695322	119824384	84553728	26733872	33184
128	6.691515	119824384	84553728	31443656	33184
129	7.156363	119824384	84553728	36338448	33184
130	9.72435	119824384	84553728	25647272	33184
131	8.22728	119824384	84553728	30917440	33184
132	7.937321	119824384	84553728	36377152	33184
133	10.658693	119824384	84553728	26249368	33184
134	8.64276	119824384	84553728	32099744	33184
135	8.706849	119824384	84553728	38142544	33184
136	11.619149	119824384	84553728	28390984	33184
137	9.175772	119824384	84553728	34825864	33184
138	12.167521	119824384	84553728	25914832	33184
139	9.982319	119824384	84553728	32743112	33184
140	10.203797	119824384	84553728	39775776	33184
141	12.595257	119824384	84553728	30826624	33184
142	10.650334	119824384	84553728	38260320	33184
143	13.349468	119824384	84553728	29943504	33184
144	11.701701	119824384	84553728	37786224	33184
145	14.232292	119824384	84553728	29928520	33184
146	11.784828	119824384	84553728	38187088	33184
147	14.558447	119824384	84553728	30721736	33184
148	12.981685	119824384	84553728	39403600	33184
149	15.346935	119824384	84553728	32221616	33184
150	12.974849	119824384	84553728	41328288	33184
151	15.613997	119824384	84553728	34366280	33184
152	17.103351	119824384	84553728	28507032	33184
153	14.383623	119824384	84553728	38260496	33184
154	16.803223	119824384	84553728	32364288	33184
155	18.072357	119824384	84553728	27486736	33184
156	15.744512	119824384	84553728	37900264	33184
157	18.179475	119824384	84553728	32739488	33184
158	19.185162	119824384	84553728	28530464	33184
159	16.517803	119824384	84553728	39612624	33184
160	19.20959	119824384	84553728	34922880	33184
161	19.797387	119824384	84553728	31139984	33184
162	17.303257	119824384	84553728	42903440	33184
163	20.012506	119824384	84553728	38544056	33184
164	20.444638	119824384	84553728	34993848	33184
165	20.84714	119824384	84553728	32172592	33184
166	22.033908	119824384	84553728	29916752	33184
167	19.064817	119824384	84553728	42847384	33184
168	21.857263	119824384	84553728	39728832	33184
169	22.165865	119824384	84553728	37254432	33184
170	22.976547	119824384	84553728	35333064	33184
171	23.715775	119824384	84553728	33924688	33184
172	24.521574	119824384	84553728	32963832	33184
173	24.818568	119824384	84553728	32385712	33184
174	25.68341	119824384	84553728	32162208	33184
175	25.685201	119824384	84553728	32233904	33184
176	26.552643	119824384	84553728	32560920	33184
177	27.24815	119824384	84553728	33108584	33184
178	27.312253	119824384	84553728	33847808	33184
179	28.212611	119824384	84553728	34741144	33184
180	27.249704	119824384	84553728	35775336	33184
181	27.774008	119824384	84553728	36945552	33184
182	27.361648	119824384	84553728	38237536	33184
183	27.970686	119824384	84553728	39621992	33184
184	28.340366	119824384	84553728	41102568	33184
185	28.237091	119824384	84553728	42670048	33184
186	28.250347	119824384	84553728	44282872	33184
187	28.521536	119824384	84553728	45966016	33184
188	34.243001	119824384	84553728	33501880	33184
189	31.394034	119824384	84553728	37207808	33184
190	30.783067	119824384	84553728	40718832	33184
191	30.786967	119824384	84553728	44040864	33184
192	36.709065	119824384	84553728	33213112	33184
193	34.930577	119824384	84553728	40219856	33184
194	32.68366	119824384	84553728	44822728	33184
195	32.160731	119824384	84553728	49075560	33184
196	38.043644	119824384	84553728	38862568	33184
197	33.849231	119824384	84553728	44460824	33184
198	33.33268	119824384	84553728	49652440	33184
199	38.9071	119824384	84553728	40257664	33184
200	34.644565	119824384	84553728	46580704	33184
201	40.046783	119824384	84553728	38533984	33184
202	0.871937	119824384	84553728	47994056	33184
203	1.318607	119824384	84553728	48838848	33184
204	1.659679	119824384	84553728	49967544	33184
205	2.053521	119824384	84553728	51381296	33184
206	2.518631	119824384	84553728	53081888	33184
207	5.995838	119824384	84553728	38958544	33184
208	3.306599	119824384	84553728	41235760	33184
209	3.739689	119824384	84553728	43802728	33184
210	4.164181	119824384	84553728	46662632	33184
211	4.602775	119824384	84553728	49814568	33184
212	4.966819	119824384	84553728	53259584	33184
213	8.257675	119824384	84553728	40677872	33184
214	5.825885	119824384	84553728	44714784	33184
215	6.31259	119824384	84553728	49048808	33184
216	6.921277	119824384	84553728	53680760	33184
217	10.390418	119824384	84553728	42261800	33184
218	7.813316	119824384	84553728	47497016	33184
219	7.973767	119824384	84553728	53033904	33184
220	11.506629	119824384	84553728	42613544	33184
221	8.892579	119824384	84553728	48762752	33184
222	13.463913	119824384	84553728	39535296	33184
223	10.322653	119824384	84553728	46295880	33184
224	10.417982	119824384	84553728	53363112	33184
225	13.947618	119824384	84553728	44437080	33184
226	11.247734	119824384	84553728	52128272	33184
227	15.036726	119824384	84553728	44012144	33184
228	12.320071	119824384	84553728	52329216	33184
229	15.647905	119824384	84553728	44813568	33184
230	13.11645	119824384	84553728	53762816	33184
231	17.110918	119824384	84553728	46713912	33184
232	17.770467	119824384	84553728	40946704	33184
233	14.463063	119824384	84553728	50865408	33184
234	18.452363	119824384	84553728	45193712	33184
235	19.421219	119824384	84553728	40621360	33184
236	16.13646	119824384	84553728	51515016	33184
237	19.348649	119824384	84553728	46750464	33184
238	21.338753	119824384	84553728	42983592	33184
239	17.415069	119824384	84553728	54865616	33184
240	20.829091	119824384	84553728	50690096	33184
241	22.086276	119824384	84553728	47407344	33184
242	22.854539	119824384	84553728	44909608	33184
243	24.054582	119824384	84553728	43060168	33184
244	24.971477	119824384	84553728	41837112	33184
245	25.168212	119824384	84553728	41125816	33184
246	21.271011	119824384	84553728	55352520	33184
247	24.488919	119824384	84553728	53545288	33184
248	25.112313	119824384	84553728	52297984	33184
249	26.432853	119824384	84553728	51549464	33184
250	26.117955	119824384	84553728	51249184	33184
251	27.282545	119824384	84553728	51356400	33184
252	27.302423	119824384	84553728	51804256	33184
253	28.160483	119824384	84553728	52543504	33184
254	28.55569	119824384	84553728	53529832	33184
255	28.653573	119824384	84553728	54744048	33184
256	29.315285	119824384	84553728	56158480	33184
257	35.145579	119824384	84553728	43554768	33184
258	32.665266	119824384	84553728	47223712	33184
259	32.165345	119824384	84553728	50800704	33184
260	31.526503	119824384	84553728	54276824	33184
261	37.464261	119824384	84553728	43646536	33184
262	37.64626	119824384	84553728	50974672	33184
263	38.28474	119824384	84553728	55910104	33184
264	54.38713	117260288	81932288	22552968	33184
265	34.316064	117260288	81932288	30361784	33184
266	35.438398	117260288	81932288	22221544	33184
267	36.310057	117260288	81932288	31353720	33184
268	36.839715	117260288	81932288	24069200	33184
269	37.285497	117260288	81932288	33898816	33184
270	37.206643	117260288	81932288	27300232	33184
271	37.877021	117260288	81932288	37859056	33184
272	37.774481	117260288	81932288	31808792	33184
273	38.675129	117260288	81932288	43117552	33184
274	38.738872	117260288	81932288	37408656	33184
275	43.931828	117260288	81932288	36789456	33184
276	39.845048	117260288	81932288	49064760	33184
277	40.408292	117260288	81932288	44424824	33184
278	45.9188	117260288	81932288	44925136	33184
279	44.185052	117260288	81932288	58341080	33184
280	53.64424	117260288	81932288	54417816	33184
281	50.613548	117260288	81932288	25575248	33184
282	48.208094	117260288	81932288	27500720	33184
283	48.465658	117260288	81932288	29732280	33184
284	48.712017	117260288	81932288	32374296	33184
285	49.636461	117260288	81932288	35370952	33184
286	50.644444	117260288	81932288	38804744	33184
287	50.17242	117260288	81932288	42756904	33184
288	51.666308	117260288	81932288	47056664	33184
289	57.937821	118341632	82980864	51683592	33184
290	74.640063	120504320	86650880	29366672	33184
291	53.18074	121856000	86650880	34344976	33184
292	53.380593	121856000	86650880	40065768	33184
293	54.268667	121856000	86650880	46196584	33184
294	58.732356	121856000	86650880	40142576	33184
295	56.033081	121856000	86650880	47042784	33184
296	55.773681	121856000	86650880	54375072	33184
297	57.611401	121856000	86650880	62094272	33184
298	68.8269	125370368	90320896	57644296	33184
299	77.88055	123305984	89796608	36304360	33184
300	62.281262	124653568	89796608	31854816	33184
301	58.352117	124653568	89796608	41192320	33184
302	1.23612	125194240	89796608	38548336	33184
303	1.814286	125194240	89796608	39771584	33184
304	2.382123	125194240	89796608	41402568	33184
305	3.018378	125194240	89796608	43444248	33184
306	3.799174	125194240	89796608	45898344	33184
307	4.202276	125194240	89796608	48765640	33184
308	7.483515	125734912	90320896	37937136	33184
309	5.610536	125734912	90320896	41634216	33184
310	6.022712	125734912	90320896	45749024	33184
311	6.559863	125734912	90320896	50282104	33184
312	8.094296	125734912	90320896	39262352	33184
313	7.985262	125734912	90320896	44635232	33184
314	8.369801	125734912	90320896	50432064	33184
315	9.578462	125734912	90320896	40583240	33184
316	9.904338	125734912	90320896	47230976	33184
317	11.400871	125734912	90320896	38672448	33184
318	11.038997	125734912	90320896	46174584	33184
319	12.722227	125734912	90320896	38610104	33184
320	12.284705	125734912	90320896	46962768	33184
321	13.826361	125734912	90320896	40150256	33184
322	13.579394	125734912	90320896	49372864	33184
323	14.950765	125734912	90320896	43114184	33184
324	14.980953	125734912	90320896	53197136	33184
325	16.156878	125734912	90320896	47296288	33184
326	17.424825	125734912	90320896	42615064	33184
327	18.799792	125734912	90320896	39032864	33184
328	17.554776	125734912	90320896	50863008	33184
329	18.691079	125734912	90320896	47030824	33184
330	19.938546	125734912	90320896	44152888	33184
331	21.204304	125734912	90320896	42122976	33184
332	22.164676	125734912	90320896	40833592	33184
333	23.873899	125734912	90320896	40170288	33184
334	24.065409	125734912	90320896	40070752	33184
335	24.648022	125734912	90320896	40416568	33184
336	25.632367	125734912	90320896	41158632	33184
337	25.179954	125734912	90320896	42261976	33184
338	25.827975	125734912	90320896	43673144	33184
339	26.49934	125734912	90320896	45348608	33184
340	27.464735	125734912	90320896	47266168	33184
341	26.999762	125734912	90320896	49396016	33184
342	28.275506	125734912	90320896	51687696	33184
343	27.840072	125734912	90320896	54116536	33184
344	32.361455	125734912	90320896	42509176	33184
345	31.23292	125734912	90320896	47155640	33184
346	31.940539	125734912	90320896	51637752	33184
347	33.904548	125734912	90320896	42069992	33184
348	35.309249	125734912	90320896	50542600	33184
349	32.59069	125734912	90320896	56481384	33184
350	37.504212	125734912	90320896	47819328	33184
351	34.025465	125734912	90320896	54932360	33184
352	37.398105	125734912	90320896	47647288	33184
353	39.030907	125734912	90320896	58452048	33184
354	39.201216	125734912	90320896	52394456	33184
355	44.7762	125734912	90320896	51541464	33184
356	41.24852	125734912	90320896	63571184	33184
357	41.275701	125734912	90320896	58948888	33184
358	52.10905	127086592	91893760	59511344	33184
359	66.76467	124506112	90845184	28799816	33184
360	47.431595	125853696	90845184	29277672	33184
361	47.589954	125853696	90845184	31115208	33184
362	48.764689	125853696	90845184	33389360	33184
363	49.533097	125853696	90845184	36185048	33184
364	45.705842	126394368	90845184	52091720	33184
365	47.928692	126394368	90845184	50483096	33184
366	48.779076	126394368	90845184	49739856	33184
367	53.352202	126394368	90845184	54741392	33184
368	53.088328	126394368	90845184	60017752	33184
369	58.776493	126394368	90845184	53261104	33184
370	60.515342	126394368	90845184	59544512	33184
371	76.218503	125599744	91893760	36072784	33184
372	60.982254	126947328	91893760	29972768	33184
373	56.620286	126947328	91893760	37733168	33184
374	58.774506	126947328	91893760	46083256	33184
375	62.905697	127217664	91893760	42300616	33184
376	58.803027	127758336	92418048	51594256	33184
377	59.543286	127758336	92418048	61388960	33184
378	64.327266	127758336	92418048	59154656	33184
379	68.538378	127758336	92418048	69991136	33184
380	83.620766	128319488	92942336	35376312	33184
381	67.58194	128319488	92942336	34819392	33184
382	69.03927	128319488	92942336	34626816	33184
383	64.137129	128319488	92942336	47509592	33184
384	70.216142	128860160	93466624	48329544	33184
385	69.315072	128860160	93466624	49687736	33184
386	69.843109	128860160	93466624	64121968	33184
387	96.426491	123568128	89796608	37274752	33184
388	72.272414	124915712	89796608	39513496	33184
389	73.33671	124915712	89796608	42992696	33184
390	75.412095	124915712	89796608	46934696	33184
391	75.17964	125186048	89796608	51448208	33184
392	74.616456	125186048	89796608	56407536	33184
393	77.238661	127619072	92418048	61994536	33184
394	104.821349	131674112	97660928	36511568	33184
395	79.829435	133025792	97660928	42388296	33184
396	77.788992	133025792	97660928	49524608	33184
397	87.368782	133025792	97660928	44575680	33184
398	80.820938	133025792	97660928	52779320	33184
399	81.39456	133566464	98185216	61530336	33184
400	83.517701	133566464	98185216	70830592	33184
401	114.485909	129851392	94515200	33673408	33184
402	1.62373	129851392	94515200	44479792	33184
403	2.39035	129851392	94515200	46107656	33184
404	7.227789	129851392	94515200	35298496	33184
405	4.139451	129851392	94515200	38017344	33184
406	4.796351	129851392	94515200	41283912	33184
407	5.511643	129851392	94515200	45099072	33184
408	8.577383	129851392	94515200	34906336	33184
409	7.176635	129851392	94515200	39822128	33184
410	7.864416	129851392	94515200	45294528	33184
411	9.575239	130121728	94515200	35473288	33184
412	9.617844	130121728	94515200	42050480	33184
413	10.217177	130121728	94515200	49183424	33184
414	11.549718	130121728	94515200	40501064	33184
415	11.981584	130121728	94515200	48749384	33184
416	13.040517	130121728	94515200	41232920	33184
417	15.273349	130121728	94515200	35302864	33184
418	14.739671	130121728	94515200	45236720	33184
419	16.11956	130121728	94515200	39890240	33184
420	17.475708	130121728	94515200	35853680	33184
421	16.796517	130121728	94515200	47481000	33184
422	18.395123	130121728	94515200	43540488	33184
423	19.848321	130121728	94515200	40682880	33184
424	21.057436	130121728	94515200	38796480	33184
425	22.640803	130121728	94515200	37774328	33184
426	23.330976	130121728	94515200	37455104	33184
427	23.858153	130121728	94515200	37736832	33184
428	24.856573	130121728	94515200	38576272	33184
429	25.714704	130121728	94515200	39861624	33184
430	26.388384	130121728	94515200	41537552	33184
431	26.769101	130121728	94515200	43584712	33184
432	27.062382	130121728	94515200	45908408	33184
433	27.969143	130121728	94515200	48520560	33184
434	32.031523	130121728	94515200	37340960	33184
435	33.49047	130121728	94515200	44608032	33184
436	30.496372	130121728	94515200	49673272	33184
437	34.226402	130121728	94515200	40678552	33184
438	35.459593	130121728	94515200	49649312	33184
439	36.880063	130121728	94515200	42667744	33184
440	36.891809	130121728	94515200	52791824	33184
441	37.908827	130121728	94515200	46843336	33184
442	38.317043	130121728	94515200	58162824	33184
443	39.773554	130121728	94515200	52921000	33184
444	45.393528	130121728	94515200	52815448	33184
445	41.099133	130121728	94515200	65777552	33184
446	42.715093	130121728	94515200	61997896	33184
447	48.325176	130121728	94515200	63652216	33184
448	54.85447	132014080	96612352	65782136	33184
449	67.335382	130580480	96612352	34460080	33184
450	49.336612	131928064	96612352	36621392	33184
451	50.821324	131928064	96612352	40490904	33184
452	52.683232	131928064	96612352	45001432	33184
453	52.872565	131928064	96612352	50070480	33184
454	58.964685	131928064	96612352	43183800	33184
455	54.666698	131928064	96612352	49471248	33184
456	55.801169	132198400	96612352	56422496	33184
457	56.295975	132198400	96612352	63907376	33184
458	74.83436	132198400	97136640	59492560	33184
459	69.470407	127471616	92418048	34621544	33184
460	63.3127	127471616	92418048	31466040	33184
461	59.283842	127471616	92418048	41492960	33184
462	64.857226	127471616	92418048	39473952	33184
463	61.177444	127471616	92418048	50633136	33184
464	66.549524	127471616	92418048	49862888	33184
465	62.907083	128012288	92418048	62328552	33184
466	89.00787	130174976	95039488	62793688	33184
467	73.690397	124854272	89796608	31555360	33184
468	71.889285	124854272	89796608	33292360	33184
469	71.480741	124854272	89796608	35607504	33184
470	69.99081	124854272	89796608	51182256	33184
471	73.996124	125124608	89796608	54744280	33184
472	75.240661	125124608	89796608	59010176	33184
473	99.420667	127827968	92418048	63824016	33184
474	77.922779	125329408	89796608	37649992	33184
475	77.774014	125329408	89796608	43746048	33184
476	84.5902	125329408	89796608	37880992	33184
477	79.086199	125329408	89796608	45289880	33184
478	79.148574	125329408	89796608	53283016	33184
479	85.999973	125870080	90320896	61916648	33184
480	108.548638	125284352	89796608	27999856	33184
481	81.373873	125284352	89796608	37919368	33184
482	83.354683	125284352	89796608	48491104	33184
483	88.918318	125284352	89796608	47288184	33184
484	86.015777	125284352	89796608	59286832	33184
485	88.505371	127447040	92418048	71911064	33184
486	118.119194	130387968	95039488	40421440	33184
487	93.360859	130387968	95039488	41696800	33184
488	93.99123	130387968	95039488	43549080	33184
489	90.964581	130387968	95039488	58579456	33184
490	95.144859	130387968	95039488	61738264	33184
491	102.793302	132280320	97136640	65544488	33184
492	117.014935	130154496	95039488	36964872	33184
493	97.177119	130154496	95039488	42034896	33184
494	98.300944	130154496	95039488	47756392	33184
495	98.867979	130154496	95039488	54174704	33184
496	101.240475	130154496	95039488	61204992	33184
497	127.551808	129560576	95563776	34456072	33184
498	103.303707	130908160	95563776	41771600	33184
499	107.985537	130908160	95563776	38179608	33184
500	104.812875	130908160	95563776	47834952	33184
501	104.914577	130908160	95563776	58233360	33184
502	6.196129	126791680	91369472	23412192	33184
503	2.981726	126791680	91369472	25408152	33184
504	3.879942	126791680	91369472	28071584	33184
505	4.939952	126791680	91369472	31408896	33184
506	5.907898	126791680	91369472	35422152	33184
507	9.007059	126791680	91369472	25779736	33184
508	7.831015	126791680	91369472	31126344	33184
509	8.739906	126791680	91369472	37146720	33184
510	10.206427	126791680	91369472	27700400	33184
511	10.783077	126791680	91369472	35072824	33184
512	12.544196	126791680	91369472	27260960	33184
513	13.070826	126791680	91369472	35990744	33184
514	14.512781	126791680	91369472	29384152	33184
515	14.9305	126791680	91369472	22994352	33184
516	15.880251	126791680	91369472	33766624	33184
517	17.711458	126791680	91369472	29524104	33184
518	19.191245	126791680	91369472	26534376	33184
519	19.298914	126791680	91369472	39364680	33184
520	20.959299	126791680	91369472	36411064	33184
521	21.543712	126791680	91369472	34567776	33184
522	22.802582	126791680	91369472	33677584	33184
523	24.907538	126791680	91369472	33581696	33184
524	24.70482	126791680	91369472	34159664	33184
525	27.082776	126791680	91369472	35373136	33184
526	27.273668	126791680	91369472	37143608	33184
527	28.098655	126791680	91369472	39394888	33184
528	32.358035	126791680	91369472	27868312	33184
529	31.018828	126791680	91369472	32803648	33184
530	31.086023	126791680	91369472	37767664	33184
531	35.44321	126791680	91369472	28801416	33184
532	36.502062	126791680	91369472	38287944	33184
533	37.573378	126791680	91369472	31631776	33184
534	38.443228	126791680	91369472	42510568	33184
535	39.230199	126791680	91369472	36929888	33184
536	45.395722	126791680	91369472	36658704	33184
537	41.528823	126791680	91369472	49505864	33184
538	42.097958	126791680	91369472	45776872	33184
539	49.555285	126791680	91369472	47659928	33184
540	50.205377	126791680	91369472	50068744	33184
541	50.372542	126791680	91369472	53173360	33184
542	52.604532	126791680	91369472	57001368	33184
543	71.375795	127873024	92418048	61555616	33184
544	58.050754	127873024	92418048	34809464	33184
545	54.719517	127873024	92418048	40813968	33184
546	59.46613	127873024	92418048	34891712	33184
547	56.129638	127873024	92418048	42240664	33184
548	57.0597	127873024	92418048	50324752	33184
549	64.260468	127873024	92418048	46605544	33184
550	59.805394	127873024	92418048	56099528	33184
551	60.177078	128413696	92942336	66306000	33184
552	87.453714	130035712	94515200	64694504	33184
553	67.948228	129921024	94515200	30226480	33184
554	67.704086	129921024	94515200	30106864	33184
555	64.068664	129921024	94515200	43235440	33184
556	71.614704	129921024	94515200	44589392	33184
557	71.2426	129921024	94515200	46631112	33184
558	68.479615	129921024	94515200	62008568	33184
559	80.17292	129921024	94515200	65516424	33184
560	97.138266	126361600	90845184	26533792	33184
561	70.983763	126361600	90845184	44037760	33184
562	76.307554	126361600	90845184	49802824	33184
563	83.362458	126361600	90845184	43810408	33184
564	78.97517	126361600	90845184	51035480	33184
565	79.850724	126361600	90845184	59018912	33184
566	109.935536	128016384	93990912	22967152	33184
567	85.647985	134230016	99233792	31514880	33184
568	85.091142	139907072	105525248	41755248	33184
569	85.63545	145854464	111816704	52810184	33184
570	90.505545	149098496	113913856	51970632	33184
571	86.656259	149098496	113913856	64470384	33184
572	113.095708	109719552	75640832	33328880	33184
573	92.227641	111067136	75640832	34030928	33184
574	94.566627	111067136	75640832	36274880	33184
575	89.942012	111067136	75640832	51833224	33184
576	99.386475	118366208	82980864	55574344	33184
577	114.775489	126205952	91369472	60265568	33184
578	108.12364	118452224	83505152	34888400	33184
579	99.93444	118452224	83505152	41112176	33184
580	101.923607	118452224	83505152	48088080	33184
581	102.821821	121696256	86650880	55801528	33184
582	111.118688	129536000	94515200	64281024	33184
583	128.556831	123043840	87699456	42018352	33184
584	109.230849	123043840	87699456	39266984	33184
585	105.733314	123043840	87699456	49907176	33184
586	106.828274	123584512	88223744	61330560	33184
587	112.75893	131153920	96088064	73518816	33184
588	145.519277	126361600	90845184	41217040	33184
589	116.046751	126361600	90845184	42365360	33184
590	111.381466	126361600	90845184	56873600	33184
591	118.414225	126902272	91369472	59622648	33184
592	126.799621	134471680	99233792	75670288	33184
593	137.214762	127791104	92418048	45093472	33184
594	120.728044	127791104	92418048	50167544	33184
595	121.28935	127791104	92418048	56019256	33184
596	125.4764	129142784	93990912	62642960	33184
597	148.604666	126611456	91893760	33548136	33184
598	125.006588	126881792	91893760	41883112	33184
599	127.599867	126881792	91893760	50908464	33184
600	126.840484	127422464	91893760	60709616	33184
601	160.675824	126357504	91369472	26174432	33184
602	2.364064	126357504	91369472	38271736	33184
603	3.607935	126357504	91369472	40656232	33184
604	4.930418	126357504	91369472	43846480	33184
605	5.997433	126357504	91369472	47830744	33184
606	9.72224	126357504	91369472	38490880	33184
607	8.374976	126357504	91369472	44077016	33184
608	9.468612	126357504	91369472	50459552	33184
609	10.955838	126357504	91369472	41501664	33184
610	11.792864	126357504	91369472	49492792	33184
611	13.623973	126357504	91369472	41994360	33184
612	15.903155	126357504	91369472	36353832	33184
613	15.491309	126357504	91369472	46765672	33184
614	17.102501	126357504	91369472	42057936	33184
615	19.113942	126357504	91369472	38844632	33184
616	21.00847	126357504	91369472	36874512	33184
617	20.33851	126357504	91369472	50539624	33184
618	22.262704	126357504	91369472	48621592	33184
619	23.235055	126357504	91369472	47729200	33184
620	24.561285	126357504	91369472	47774920	33184
621	25.593947	126357504	91369472	48625712	33184
622	27.375602	126357504	91369472	50196048	33184
623	30.976959	126357504	91369472	38300408	33184
624	31.190445	126357504	91369472	42982416	33184
625	31.222814	126357504	91369472	47883808	33184
626	34.9887	126357504	91369472	39111680	33184
627	36.821464	126357504	91369472	48593624	33184
628	38.416816	126357504	91369472	42206968	33184
629	39.351773	126357504	91369472	53255344	33184
630	40.659045	126357504	91369472	48119120	33184
631	46.222395	126357504	91369472	48213064	33184
632	43.18602	126357504	91369472	61657504	33184
633	42.858428	126357504	91369472	58451608	33184
634	49.302383	126898176	91369472	61128848	33184
635	52.163931	127438848	91893760	64524912	33184
636	81.270729	128237568	94515200	24244664	33184
637	55.385163	132288512	97660928	28344584	33184
638	55.639692	136343552	101855232	34245320	33184
639	57.257573	140128256	106049536	40820152	33184
640	57.944098	143912960	110243840	48386096	33184
641	65.345063	149860352	116535296	44194864	33184
642	60.066465	153645056	120729600	53388712	33184
643	61.193908	157700096	124923904	63493648	33184
644	67.393362	163377152	131215360	61779360	33184
645	95.965682	103915520	69873664	25686432	33184
646	63.392598	105263104	69873664	37414360	33184
647	69.244576	105263104	69873664	38252864	33184
648	71.784955	105803776	70397952	39964376	33184
649	73.09114	109858816	74592256	42582560	33184
650	69.52531	113913856	78786560	58527208	33184
651	75.817915	119590912	84553728	62838752	33184
652	104.248889	107872256	74067968	24446288	33184
653	79.033621	109219840	74067968	29741016	33184
654	77.622721	109219840	74067968	36616264	33184
655	79.657235	109490176	74067968	44320536	33184
656	81.375145	112734208	77737984	52855872	33184
657	83.511902	118681600	84029440	62342864	33184
658	106.96097	126521344	91369472	60067344	33184
659	98.433512	114872320	79835136	27930880	33184
660	85.62343	115412992	79835136	39983968	33184
661	86.489183	115412992	79835136	52852696	33184
662	92.825236	117035008	81932288	54042528	33184
663	95.880804	124604416	89272320	56175104	33184
664	121.303065	115458048	81408000	26607824	33184
665	99.36942	116805632	81408000	29554272	33184
666	94.812728	116805632	81408000	46823088	33184
667	100.061014	116805632	81408000	52379488	33184
668	102.260797	120049664	84553728	58851344	33184
669	109.584182	127889408	92418048	66194608	33184
670	132.112019	122384384	87175168	31394312	33184
671	104.113241	122384384	87175168	40491024	33184
672	105.773519	122384384	87175168	50508104	33184
673	107.393686	123195392	88223744	61313832	33184
674	112.874571	130764800	96088064	73103104	33184
675	142.86584	126566400	91369472	40445864	33184
676	116.735331	126566400	91369472	41430440	33184
677	111.540542	126566400	91369472	55738064	33184
678	118.447738	127377408	91893760	58419776	33184
679	128.534668	134676480	99233792	74532424	33184
680	139.091324	128475136	92942336	44999296	33184
681	124.296531	128475136	92942336	50327584	33184
682	125.783685	128475136	92942336	56590424	33184
683	124.443802	129556480	93990912	63755408	33184
684	149.009495	125280256	90320896	34863032	33184
685	126.642143	125280256	90320896	43903872	33184
686	130.174009	125280256	90320896	53670744	33184
687	129.526113	125820928	90320896	64427400	33184
688	161.382118	127606784	92418048	30673264	33184
689	131.703974	127606784	92418048	43367256	33184
690	133.272326	127606784	92418048	56722432	33184
691	138.299429	127606784	92418048	58551952	33184
692	166.441527	124239872	89272320	27647480	33184
693	138.665524	124239872	89272320	43777888	33184
694	143.551407	124239872	89272320	48325376	33184
695	146.994121	125861888	90320896	66319984	33184
696	173.323432	127545344	92418048	44412392	33184
697	146.242323	127545344	92418048	51677312	33184
698	150.022254	128356352	92942336	59833056	33184
699	180.875127	130424832	96612352	34393744	33184
700	151.009761	131772416	96612352	43305584	33184
701	153.235538	131772416	96612352	54169560	33184
702	2.747136	132042752	96612352	66767168	33184
703	4.128055	132042752	96612352	69519752	33184
704	5.599802	132042752	96612352	73204520	33184
705	10.64845	132042752	96612352	64080288	33184
706	9.177807	132042752	96612352	69597480	33184
707	11.118702	132042752	96612352	76043160	33184
708	13.907259	132313088	97136640	67658032	33184
709	20.730685	132313088	97136640	75952112	33184
710	19.839866	123924480	88748032	21795952	33184
711	16.757258	123924480	88748032	16796704	33184
712	16.524784	123924480	88748032	27872952	33184
713	18.486497	123924480	88748032	23915424	33184
714	20.42066	123924480	88748032	21484176	33184
715	22.09051	123924480	88748032	20323616	33184
716	23.940449	123924480	88748032	20316576	33184
717	25.146081	123924480	88748032	21275384	33184
718	26.552802	123924480	88748032	23019720	33184
719	27.737562	123924480	88748032	25488280	33184
720	28.244404	123924480	88748032	28516896	33184
721	32.805348	123924480	88748032	18266312	33184
722	34.832269	123924480	88748032	26429680	33184
723	33.079197	123924480	88748032	32669984	33184
724	36.731926	123924480	88748032	24936712	33184
725	38.666528	123924480	88748032	36073952	33184
726	40.113559	123924480	88748032	30578448	33184
727	42.060589	123924480	88748032	27025904	33184
728	46.71081	123924480	88748032	28297736	33184
729	44.520402	123924480	88748032	43031144	33184
730	44.504396	123924480	88748032	40999472	33184
731	46.59535	123924480	88748032	40428976	33184
732	53.112949	123924480	88748032	45680728	33184
733	53.956999	123924480	88748032	51694192	33184
734	60.534046	123924480	88748032	46072176	33184
735	64.101125	124735488	89272320	54080688	33184
736	80.801866	121065472	87175168	36423016	33184
737	63.914979	122687488	87175168	33465712	33184
738	62.041373	122687488	87175168	44320240	33184
739	67.559647	122687488	87175168	43646792	33184
740	70.059619	122687488	87175168	43907520	33184
741	66.099842	122687488	87175168	57715472	33184
742	71.091666	122687488	87175168	60026064	33184
743	93.38458	128094208	92942336	63185384	33184
744	80.078541	127365120	91893760	34620592	33184
745	75.271652	127365120	91893760	39817592	33184
746	77.258921	127365120	91893760	45939248	33184
747	78.737454	127365120	91893760	53139552	33184
748	80.747884	127365120	91893760	61227784	33184
749	90.772186	127365120	91893760	57767888	33184
750	105.578542	124674048	89272320	37298248	33184
751	87.720676	124674048	89272320	35849872	33184
752	86.724181	124674048	89272320	48083600	33184
753	91.254946	124674048	89272320	48556904	33184
754	87.994204	124674048	89272320	62626232	33184
755	101.113111	130351104	95039488	65220872	33184
756	117.603214	131698688	96612352	36121968	33184
757	96.104674	131698688	96612352	40638824	33184
758	99.140748	131698688	96612352	46216024	33184
759	99.415421	131698688	96612352	52861256	33184
760	101.040904	131698688	96612352	60479048	33184
761	127.980302	126181376	92418048	34066352	33184
762	103.967176	127528960	92418048	42624152	33184
763	111.18332	127528960	92418048	40547912	33184
764	106.883615	127528960	92418048	52102792	33184
765	107.993465	127799296	92418048	64650640	33184
766	135.795422	128692224	93466624	31751648	33184
767	116.617666	128692224	93466624	33869624	33184
768	112.981274	128692224	93466624	49459616	33184
769	117.954529	128692224	93466624	53455048	33184
770	146.634031	126509056	92418048	27997960	33184
771	123.831736	127856640	92418048	33579840	33184
772	120.404133	127856640	92418048	53225368	33184
773	124.491227	127856640	92418048	61345752	33184
774	134.167922	129748992	94515200	70428872	33184
775	156.413007	132620288	97660928	36311488	33184
776	129.366627	132620288	97660928	47503000	33184
777	130.042819	132620288	97660928	59715016	33184
778	134.847813	134242304	98709504	72886496	33184
779	170.259835	134643712	99233792	42397088	33184
780	135.279568	134643712	99233792	57686816	33184
781	141.264946	134643712	99233792	61376248	33184
782	138.317979	134643712	99233792	78717176	33184
783	171.962077	133070848	98185216	31451144	33184
784	147.332878	133070848	98185216	38349760	33184
785	144.076243	133070848	98185216	58860600	33184
786	177.317901	124928000	90845184	38307472	33184
787	149.432768	126275584	90845184	47841840	33184
788	153.186783	126275584	90845184	58788072	33184
789	158.640305	128978944	93466624	70854680	33184
790	191.044005	134656000	99233792	42232832	33184
791	157.479555	134656000	99233792	56358432	33184
792	159.327876	134656000	99233792	71507968	33184
793	190.839626	143847424	108670976	75051216	33184
794	175.272721	136884224	101330944	41567912	33184
795	163.978629	136884224	101330944	59806520	33184
796	166.374277	136884224	101330944	66567544	33184
797	193.661744	132407296	97660928	34937408	33184
798	172.068218	132407296	97660928	43829520	33184
799	171.889936	132407296	97660928	53642384	33184
800	200.622089	127799296	92418048	31648088	33184
801	175.736526	127799296	92418048	43629104	33184
802	3.123608	127799296	92418048	57621568	33184
803	4.742553	127799296	92418048	60791640	33184
804	6.184088	127799296	92418048	65020632	33184
805	10.538759	127799296	92418048	56343960	33184
806	10.26926	127799296	92418048	62694904	33184
807	12.204777	127799296	92418048	70108568	33184
808	14.634826	128069632	92418048	62294160	33184
809	22.008674	128069632	92418048	56583272	33184
810	25.863962	123891712	88223744	21894496	33184
811	20.406449	123891712	88223744	18472408	33184
812	19.556204	123891712	88223744	31232264	33184
813	20.945595	123891712	88223744	28689048	33184
814	22.55056	123891712	88223744	27623072	33184
815	24.691761	123891712	88223744	27765288	33184
816	25.899115	123891712	88223744	28904128	33184
817	27.200977	123891712	88223744	30985016	33184
818	32.096423	123891712	88223744	19779136	33184
819	31.790561	123891712	88223744	25291464	33184
820	32.571294	123891712	88223744	31112008	33184
821	35.943643	123891712	88223744	23133656	33184
822	39.373687	123891712	88223744	34232864	33184
823	39.537135	123891712	88223744	28915792	33184
824	42.464637	123891712	88223744	25513040	33184
825	47.81637	123891712	88223744	27193248	33184
826	49.078245	123891712	88223744	29886472	33184
827	50.856666	123891712	88223744	33635736	33184
828	52.105197	123891712	88223744	38463744	33184
829	54.157044	123891712	88223744	44375960	33184
830	55.566127	123891712	88223744	51417448	33184
831	63.086874	124432384	88748032	59515896	33184
832	83.814699	124211200	88748032	27868536	33184
833	60.190176	124211200	88748032	38174944	33184
834	66.364497	124211200	88748032	37024616	33184
835	64.146641	124211200	88748032	49570904	33184
836	69.39532	124211200	88748032	50503688	33184
837	71.140421	124211200	88748032	52627384	33184
838	72.370587	124211200	88748032	55848616	33184
839	102.136041	126779392	93466624	30794760	33184
840	78.581003	128667648	93466624	35671000	33184
841	80.81116	128667648	93466624	42317688	33184
842	79.745891	128667648	93466624	49961816	33184
843	80.569892	128667648	93466624	58711008	33184
844	82.793525	128937984	93990912	68637312	33184
845	90.207636	132182016	97136640	67091528	33184
846	118.158428	134987776	99758080	32148760	33184
847	87.92647	134987776	99758080	45431320	33184
848	92.881333	134987776	99758080	47186880	33184
849	94.50003	134987776	99758080	49961688	33184
850	91.809038	134987776	99758080	66522304	33184
851	99.425895	135258112	99758080	71651744	33184
852	136.655653	130400256	95039488	31015608	33184
853	100.904164	130400256	95039488	38357528	33184
854	102.987483	130400256	95039488	46833376	33184
855	104.706382	130400256	95039488	56343776	33184
856	107.06753	130400256	95039488	67075464	33184
857	133.128094	132288512	97136640	29031600	33184
858	109.321364	132288512	97136640	42180336	33184
859	115.449425	132288512	97136640	43729888	33184
860	114.270033	132288512	97136640	58947992	33184
861	124.612879	132558848	97136640	62716584	33184
862	148.393579	127881216	92418048	38102456	33184
863	122.474636	127881216	92418048	44124680	33184
864	125.028011	127881216	92418048	51380184	33184
865	121.700476	128692224	93466624	72313304	33184
866	155.275165	133988352	98709504	32278568	33184
867	130.043227	133988352	98709504	43095264	33184
868	130.261766	133988352	98709504	54907704	33184
869	137.142656	133988352	98709504	55194056	33184
870	156.701555	127864832	92418048	36111288	33184
871	138.475973	127864832	92418048	38851800	33184
872	138.245895	127864832	92418048	55239336	33184
873	144.152997	128405504	92942336	60222632	33184
874	183.28212	131649536	96088064	38848168	33184
875	143.015561	131649536	96088064	58754056	33184
876	148.968473	131649536	96088064	67236656	33184
877	152.328529	138678272	103428096	76733424	33184
878	180.550001	133083136	97660928	31369720	33184
879	153.920876	133083136	97660928	43236184	33184
880	154.587194	133083136	97660928	56346392	33184
881	191.051967	128401408	92942336	27378136	33184
882	157.89691	128401408	92942336	42843280	33184
883	159.777839	128401408	92942336	59340312	33184
884	171.896155	133267456	97660928	64570968	33184
885	196.133452	135294976	99758080	40133824	33184
886	169.978665	135294976	99758080	60307408	33184
887	172.284657	135835648	100282368	69130120	33184
888	199.791447	137560064	102379520	38855936	33184
889	175.314744	137560064	102379520	50040472	33184
890	178.052848	137560064	102379520	62207072	33184
891	212.476673	130990080	95563776	29514352	33184
892	178.893817	130990080	95563776	44129056	33184
893	182.960983	130990080	95563776	59831832	33184
894	218.029056	136474624	101330944	29899680	33184
895	186.140836	136474624	101330944	48018688	33184
896	187.605016	136474624	101330944	67308952	33184
897	224.920114	132902912	99233792	40836080	33184
898	192.64653	134250496	99233792	48979816	33184
899	195.301336	134250496	99233792	59152392	33184
900	230.396413	139583488	103952384	34868248	33184
901	199.627267	139583488	103952384	47499576	33184
902	3.527963	139583488	103952384	62333552	33184
903	5.435867	139583488	103952384	65908520	33184
904	6.994398	139583488	103952384	70670912	33184
905	11.113537	139583488	103952384	62577912	33184
906	10.566048	139583488	103952384	69745840	33184
907	13.809797	139583488	103952384	62527568	33184
908	14.545235	139583488	103952384	72075352	33184
909	17.21564	139583488	103952384	66944272	33184
910	19.326824	139583488	103952384	63697152	33184
911	20.962066	139583488	103952384	62110120	33184
912	23.262543	139583488	103952384	61921432	33184
913	24.849651	139583488	103952384	62981296	33184
914	26.310771	139583488	103952384	65146784	33184
915	28.095262	139583488	103952384	68237680	33184
916	29.669065	139583488	103952384	72044056	33184
917	33.994808	139583488	103952384	62861352	33184
918	36.896058	139583488	103952384	72011712	33184
919	50.270022	139583488	103952384	65923784	33184
920	48.0346	130670592	95039488	24021824	33184
921	45.102555	130670592	95039488	24202528	33184
922	43.230772	130670592	95039488	38073120	33184
923	44.215052	130670592	95039488	35464448	33184
924	46.261231	130670592	95039488	34710728	33184
925	53.149326	130670592	95039488	39699768	33184
926	53.852535	130670592	95039488	45798832	33184
927	59.824815	130670592	95039488	40582816	33184
928	57.593203	130670592	95039488	49139280	33184
929	61.069354	130670592	95039488	58941912	33184
930	92.643941	122281984	88748032	30100432	33184
931	69.084902	124174336	88748032	29503248	33184
932	64.44207	124174336	88748032	42917416	33184
933	71.028861	124174336	88748032	45018688	33184
934	73.490942	124174336	88748032	48365888	33184
935	74.752704	124174336	88748032	52924000	33184
936	76.708994	126066688	90845184	58694344	33184
937	101.26264	132014080	96612352	65698544	33184
938	85.560717	128184320	92942336	27270584	33184
939	82.091835	128184320	92942336	36735096	33184
940	84.822043	128184320	92942336	47442008	33184
941	90.608479	128184320	92942336	46851072	33184
942	87.218732	128184320	92942336	60092736	33184
943	109.454506	129536000	93990912	61946304	33184
944	104.849854	128872448	93466624	32433592	33184
945	96.99161	128872448	93466624	36751008	33184
946	95.451873	128872448	93466624	54984680	33184
947	101.126792	128872448	93466624	61729568	33184
948	103.943049	128872448	93466624	69763592	33184
949	140.089106	130027520	94515200	35587704	33184
950	106.103065	130027520	94515200	46164848	33184
951	107.432329	130027520	94515200	57926616	33184
952	113.754873	130027520	94515200	58478224	33184
953	112.586312	132730880	97660928	72711056	33184
954	146.266295	133357568	98185216	42620184	33184
955	118.89221	133357568	98185216	46818024	33184
956	124.41248	133357568	98185216	52377248	33184
957	118.46861	133357568	98185216	71640912	33184
958	137.497255	137412608	102379520	79660872	33184
959	148.27115	133529600	98185216	40013568	33184
960	129.965936	133529600	98185216	50514496	33184
961	129.686449	133529600	98185216	62287832	33184
962	135.756339	133529600	98185216	75407248	33184
963	168.051177	131792896	96612352	44408104	33184
964	141.226587	131792896	96612352	47470232	33184
965	137.579053	131792896	96612352	64331904	33184
966	146.536458	136929280	101330944	70044872	33184
967	179.493087	139087872	103952384	42705360	33184
968	147.822741	139087872	103952384	50884896	33184
969	149.467216	139087872	103952384	60206864	33184
970	153.565552	140169216	105000960	70809216	33184
971	186.961281	136159232	100806656	47022032	33184
972	155.152166	136159232	100806656	60256744	33184
973	161.998374	136699904	101330944	62091600	33184
974	161.890981	143187968	107622400	77835696	33184
975	197.018443	145100800	109719552	44754936	33184
976	163.719857	145100800	109719552	62979528	33184
977	168.270825	145100800	109719552	70004880	33184
978	198.126463	149155840	113913856	78291920	33184
979	177.255736	137261056	101855232	47942600	33184
980	174.767272	137261056	101855232	58783056	33184
981	178.832986	137801728	102379520	70935008	33184
982	206.249174	135094272	99758080	30713960	33184
983	181.46626	135094272	99758080	45397336	33184
984	182.74108	135094272	99758080	61405352	33184
985	223.769512	128319488	92942336	53085136	33184
986	190.475338	128319488	92942336	59131720	33184
987	192.128356	139943936	104476672	79041584	33184
988	228.283533	132206592	97136640	30094168	33184
989	191.69712	132206592	97136640	52509400	33184
990	199.116819	132747264	97136640	63684672	33184
991	221.182562	128565248	92942336	40074560	33184
992	205.284995	128565248	92942336	53907056	33184
993	235.490358	124190720	90320896	41602008	33184
994	204.275217	125538304	90320896	57652608	33184
995	215.089633	131215360	96088064	62731968	33184
996	244.130059	131678208	96612352	31816320	33184
997	211.189131	131678208	96612352	52130784	33184
998	215.26887	132218880	96612352	73766384	33184
999	255.876562	133431296	98185216	56208848	33184
1000	225.236067	133971968	98709504	67861616	33184
