x	Duration	RSS	HeapTotal	HeapUsed	External
0	NA	111812608	76689408	14707840	33184
1	0.262314	111812608	76689408	14760112	33184
2	0.198245	111812608	76689408	14828056	33184
3	0.218957	111812608	76689408	14920736	33184
4	0.261677	111812608	76689408	15039824	33184
5	0.312546	111812608	76689408	15187080	33184
6	0.365843	111812608	76689408	15363232	33184
7	0.418417	111812608	76689408	15569432	33184
8	0.473382	111812608	76689408	15806968	33184
9	0.717582	111812608	76689408	16078312	33184
10	0.511963	111812608	76689408	16383744	33184
11	0.823401	111812608	76689408	16724488	33184
12	0.641162	111812608	76689408	17101800	33184
13	0.682043	111812608	76689408	17516920	33184
14	0.8803	111812608	76689408	17971016	33184
15	0.982229	111812608	76689408	18469136	33184
16	0.854205	111812608	76689408	19004872	33184
17	0.9043	111812608	76689408	19585112	33184
18	1.332291	111812608	76689408	20209216	33184
19	1.088687	111812608	76689408	20884760	33184
20	1.270562	111812608	76689408	21601496	33184
21	1.783761	111812608	76689408	22369640	33184
22	1.234686	111812608	76689408	23184800	33184
23	1.388314	111812608	76689408	24049280	33184
24	1.581399	111812608	76689408	24968072	33184
25	1.394894	111812608	76689408	25937896	33184
26	2.170524	111812608	76689408	26962344	33184
27	1.59397	111812608	76689408	28042496	33184
28	2.11196	111812608	76689408	29179808	33184
29	1.734707	111812608	76689408	30375528	33184
30	2.925064	111812608	76689408	15428824	33184
31	2.146433	111812608	76689408	16745976	33184
32	2.236551	111812608	76689408	18128448	33184
33	2.081325	111812608	76689408	19574552	33184
34	2.191005	111812608	76689408	21085368	33184
35	2.260761	111812608	76689408	22661800	33184
36	2.325391	111812608	76689408	24304976	33184
37	2.436598	111812608	76689408	26016320	33184
38	3.363542	111812608	76689408	27796960	33184
39	3.019904	111812608	76689408	29660056	33184
40	2.678282	111812608	76689408	31582800	33184
41	4.334123	111812608	76689408	17417464	33184
42	3.184056	111812608	76689408	19487624	33184
43	3.015367	111812608	76689408	21633104	33184
44	3.108038	111812608	76689408	23856432	33184
45	3.225033	111812608	76689408	26159896	33184
46	3.682628	111812608	76689408	28543520	33184
47	3.458507	111812608	76689408	31012152	33184
48	5.369956	111812608	76689408	17601296	33184
49	4.001431	111812608	76689408	20235280	33184
50	4.079121	111812608	76689408	22955048	33184
51	4.272008	111812608	76689408	25763008	33184
52	4.047061	111812608	76689408	28656632	33184
53	4.397217	111812608	76689408	31639648	33184
54	5.988773	111812608	76689408	18857848	33184
55	4.57559	111812608	76689408	22024072	33184
56	4.903528	111812608	76689408	25283176	33184
57	5.007155	111812608	76689408	28636320	33184
58	5.183271	111812608	76689408	32084776	33184
59	7.009977	111812608	76689408	19720280	33184
60	6.1382	111812608	76689408	23363552	33184
61	6.100079	111812608	76689408	27123824	33184
62	5.343049	111812608	76689408	30966848	33184
63	7.235957	111812608	76689408	19116256	33184
64	6.049582	111812608	76689408	23166232	33184
65	6.00479	111812608	76689408	27326600	33184
66	6.801224	111812608	76689408	31600824	33184
67	7.578643	111812608	76689408	20121816	33184
68	6.380421	111812608	76689408	24601112	33184
69	6.289213	111812608	76689408	29189464	33184
70	7.053866	111812608	76689408	33896184	33184
71	8.261751	111812608	76689408	22690096	33184
72	6.751292	111812608	76689408	27613920	33184
73	7.287333	111812608	76689408	32650808	33184
74	8.98264	111812608	76689408	21928952	33184
75	7.467956	111812608	76689408	27197280	33184
76	7.571779	111812608	76689408	32584152	33184
77	10.198518	111812608	76689408	22295304	33184
78	8.026144	111812608	76689408	27920640	33184
79	8.29698	111812608	76689408	33666696	33184
80	10.193257	111812608	76689408	23626344	33184
81	8.592683	111812608	76689408	29619768	33184
82	8.610403	111812608	76689408	35737960	33184
83	10.058292	111812608	76689408	25942360	33184
84	8.946604	111812608	76689408	32316792	33184
85	11.124086	111812608	76689408	23131256	33184
86	10.106573	111812608	76689408	29772752	33184
87	9.764841	111812608	76689408	36538664	33184
88	11.38584	111812608	76689408	27426672	33184
89	9.654453	111812608	76689408	34460712	33184
90	11.816476	111812608	76689408	25760552	33184
91	10.313993	111812608	76689408	33069576	33184
92	12.542692	111812608	76689408	24890168	33184
93	10.484894	111812608	76689408	32481304	33184
94	13.50745	111812608	76689408	24621552	33184
95	11.365846	111812608	76689408	32499968	33184
96	13.470194	111812608	76689408	24976424	33184
97	11.486642	111812608	76689408	33148192	33184
98	14.181876	111812608	76689408	25877904	33184
99	12.008372	111812608	76689408	34345656	33184
100	14.238761	111812608	76689408	27268368	33184
101	12.360978	111812608	76689408	36038192	33184
102	0.488169	111812608	76689408	28915856	33184
103	0.691607	111812608	76689408	29374544	33184
104	0.908813	111812608	76689408	29989232	33184
105	1.1256	111812608	76689408	30759432	33184
106	1.334255	111812608	76689408	31689464	33184
107	1.553328	111812608	76689408	32776688	33184
108	2.013764	111812608	76689408	34023824	33184
109	2.00824	111812608	76689408	35432272	33184
110	2.291358	111812608	76689408	37004184	33184
111	2.468202	111812608	76689408	38739864	33184
112	4.668299	111812608	76689408	24494312	33184
113	2.938172	111812608	76689408	26561168	33184
114	3.158576	111812608	76689408	28795352	33184
115	3.447251	111812608	76689408	31198176	33184
116	3.639326	111812608	76689408	33770864	33184
117	3.881356	111812608	76689408	36516248	33184
118	4.113177	111812608	76689408	39434216	33184
119	6.456463	111812608	76689408	26249256	33184
120	4.683416	111812608	76689408	29515848	33184
121	5.29031	111812608	76689408	32958552	33184
122	5.401241	111812608	76689408	36578464	33184
123	7.329009	111812608	76689408	24468528	33184
124	5.612215	111812608	76689408	28446544	33184
125	6.11981	111812608	76689408	32607520	33184
126	6.149358	111812608	76689408	36948584	33184
127	8.552149	111812608	76689408	25534488	33184
128	6.790374	111812608	76689408	30243664	33184
129	6.931062	111812608	76689408	35138624	33184
130	9.593262	111812608	76689408	24542576	33184
131	7.815074	111812608	76689408	29813912	33184
132	7.95554	111812608	76689408	35273640	33184
133	10.485964	111812608	76689408	25238304	33184
134	8.638893	111812608	76689408	31087960	33184
135	8.562658	111812608	76689408	37130824	33184
136	11.156713	111812608	76689408	27457224	33184
137	9.593085	111812608	76689408	33890152	33184
138	11.364602	111812608	76689408	24232776	33184
139	9.772313	111812608	76689408	31061240	33184
140	10.529135	111812608	76689408	38089104	33184
141	12.625415	111812608	76689408	29302632	33184
142	10.852274	111812608	76689408	36738440	33184
143	13.354635	111812608	76689408	28590680	33184
144	11.603161	111812608	76689408	36433576	33184
145	14.267912	111812608	76689408	28719448	33184
146	12.563579	111812608	76689408	36978080	33184
147	14.652836	111812608	76689408	29640456	33184
148	12.616038	111812608	76689408	38320344	33184
149	15.242067	111812608	76689408	31231472	33184
150	13.474137	111812608	76689408	40337032	33184
151	15.760764	111812608	76689408	33439528	33184
152	16.571611	111812608	76689408	27678864	33184
153	13.874124	111812608	76689408	37434936	33184
154	17.225817	111812608	76689408	31578760	33184
155	14.794205	111812608	76689408	41774432	33184
156	17.428893	111812608	76689408	35876568	33184
157	17.827643	111812608	76689408	30928240	33184
158	15.719356	111812608	76689408	41788288	33184
159	18.061933	111812608	76689408	36606064	33184
160	18.724391	111812608	76689408	32283392	33184
161	19.731158	111812608	76689408	28757288	33184
162	17.023172	111812608	76689408	40525984	33184
163	19.797048	111812608	76689408	36396688	33184
164	20.748903	111812608	76689408	33073720	33184
165	21.646551	111812608	76689408	30392152	33184
166	18.871439	111812608	76689408	43089616	33184
167	20.924672	111812608	76689408	39673272	33184
168	21.925734	111812608	76689408	36900504	33184
169	22.423952	111812608	76689408	34770504	33184
170	23.417933	111812608	76689408	33125448	33184
171	23.915503	111812608	76689408	31952696	33184
172	24.283467	111812608	76689408	31215888	33184
173	25.076109	111812608	76689408	30831880	33184
174	25.748165	111812608	76689408	30760056	33184
175	26.324076	111812608	76689408	30955928	33184
176	25.827549	111812608	76689408	31400872	33184
177	26.208671	111812608	76689408	32039792	33184
178	26.397398	111812608	76689408	32866112	33184
179	27.174692	111812608	76689408	33842624	33184
180	26.964813	111812608	76689408	34940864	33184
181	27.11041	111812608	76689408	36171184	33184
182	27.827771	111812608	76689408	37515744	33184
183	28.241223	111812608	76689408	38932952	33184
184	27.525577	111812608	76689408	40443264	33184
185	28.265552	111812608	76689408	42031504	33184
186	28.398801	111812608	76689408	43677088	33184
187	28.437864	111812608	76689408	45393728	33184
188	33.627624	111812608	76689408	32974200	33184
189	31.163747	111812608	76689408	36691024	33184
190	30.4836	111812608	76689408	40217360	33184
191	30.563868	111812608	76689408	43542200	33184
192	35.704556	111812608	76689408	32733488	33184
193	34.957664	111812608	76689408	39750040	33184
194	32.544203	111812608	76689408	44353688	33184
195	32.243675	111812608	76689408	48617216	33184
196	36.9641	111812608	76689408	38416632	33184
197	33.75165	111812608	76689408	44025984	33184
198	33.743863	111812608	76689408	49218976	33184
199	38.784188	111812608	76689408	39826032	33184
200	35.739196	111812608	76689408	46140528	33184
201	39.937164	111812608	76689408	38097376	33184
202	0.872063	111812608	76689408	47564536	33184
203	1.254654	111812608	76689408	48409344	33184
204	1.704642	111812608	76689408	49538016	33184
205	2.057556	111812608	76689408	50951744	33184
206	2.536569	111812608	76689408	52652336	33184
207	5.667101	111812608	76689408	38536168	33184
208	3.312059	111812608	76689408	40813488	33184
209	3.770738	111812608	76689408	43380328	33184
210	4.349394	111812608	76689408	46239744	33184
211	4.890169	111812608	76689408	49395312	33184
212	5.445886	111812608	76689408	52840384	33184
213	8.086419	111812608	76689408	40258768	33184
214	5.84697	111812608	76689408	44295128	33184
215	6.374089	111812608	76689408	48629560	33184
216	6.961333	111812608	76689408	53261584	33184
217	9.794376	111812608	76689408	41843840	33184
218	7.535512	111812608	76689408	47080848	33184
219	7.970363	111812608	76689408	52617912	33184
220	11.071121	111812608	76689408	42198696	33184
221	9.099268	111812608	76689408	48349656	33184
222	12.673282	111812608	76689408	39119944	33184
223	9.775984	111812608	76689408	45879688	33184
224	10.180575	111812608	76689408	52947336	33184
225	13.378916	111812608	76689408	44020472	33184
226	11.095208	111812608	76689408	51709560	33184
227	14.35533	111812608	76689408	43595688	33184
228	12.027373	111812608	76689408	51908464	33184
229	15.188265	111812608	76689408	44393744	33184
230	12.919781	111812608	76689408	53346568	33184
231	16.204932	111812608	76689408	46295720	33184
232	17.556799	111812608	76689408	40532288	33184
233	14.55839	111812608	76689408	50450992	33184
234	17.997828	111812608	76689408	44779296	33184
235	19.203713	111812608	76689408	40206944	33184
236	16.611993	111812608	76689408	51100600	33184
237	19.769261	111812608	76689408	46336048	33184
238	20.787851	111812608	76689408	42569176	33184
239	18.357952	111812608	76689408	54454632	33184
240	21.275812	111812608	76689408	50279112	33184
241	22.119061	111812608	76689408	46996360	33184
242	22.545705	111812608	76689408	44498624	33184
243	24.057005	111812608	76689408	42649184	33184
244	24.506476	111812608	76689408	41426128	33184
245	25.198285	111812608	76689408	40714832	33184
246	20.963747	111812608	76689408	54941536	33184
247	24.915698	111812608	76689408	53134304	33184
248	24.830288	111812608	76689408	51887000	33184
249	25.857017	111812608	76689408	51138480	33184
250	26.21548	111812608	77213696	50838200	33184
251	26.514646	111812608	77213696	50945416	33184
252	27.481045	112082944	77213696	51393272	33184
253	27.410925	112082944	77213696	52132520	33184
254	28.656733	112082944	77213696	53118848	33184
255	28.535994	112082944	77213696	54333064	33184
256	28.925049	112082944	77213696	55747496	33184
257	35.333826	112353280	77737984	43143784	33184
258	31.810235	112353280	77737984	46812728	33184
259	32.484637	112623616	77737984	50389160	33184
260	31.487567	112623616	77737984	53864936	33184
261	37.685633	112893952	77737984	43234648	33184
262	37.568961	113704960	78786560	50562784	33184
263	37.793583	113975296	78786560	55498216	33184
264	54.114311	113975296	79310848	22327696	33184
265	34.083294	113975296	79310848	30155808	33184
266	34.843966	113975296	79310848	22043944	33184
267	36.088503	113975296	79310848	31168248	33184
268	36.254911	113975296	79310848	23922832	33184
269	36.591391	113975296	79310848	33746480	33184
270	37.334972	113975296	79310848	27186008	33184
271	38.549266	114515968	79310848	37734864	33184
272	38.150658	114515968	79310848	31677000	33184
273	39.93728	114515968	79310848	42980688	33184
274	38.919302	114515968	79310848	37306616	33184
275	44.997926	114515968	79310848	36691632	33184
276	40.093723	114515968	79310848	48977440	33184
277	40.886898	114515968	79310848	44346616	33184
278	46.195117	114515968	79310848	44860584	33184
279	44.054649	114515968	79310848	58253720	33184
280	52.852318	114515968	79310848	54340128	33184
281	51.336337	114786304	79835136	23256968	33184
282	48.819018	114786304	79835136	25309792	33184
283	49.084586	114786304	79835136	27536904	33184
284	49.124155	114786304	79835136	30163824	33184
285	49.444842	114786304	79835136	33197664	33184
286	49.995974	114786304	79835136	36584408	33184
287	50.790995	114786304	79835136	40365936	33184
288	51.95638	114786304	79835136	44540840	33184
289	58.056353	117219328	82456576	49124872	33184
290	72.948281	119111680	85602304	27554976	33184
291	53.209243	120733696	85602304	32556040	33184
292	53.376914	120733696	85602304	38292208	33184
293	54.779851	120733696	85602304	44434424	33184
294	55.045695	121274368	86126592	50964528	33184
295	60.218178	121274368	86126592	45296688	33184
296	55.731095	121274368	86126592	52604616	33184
297	56.13384	121274368	86126592	60320240	33184
298	60.813164	123437056	88748032	68459152	33184
299	86.32669	122789888	89272320	34204640	33184
300	63.253562	124137472	89272320	29783528	33184
301	58.588158	124137472	89272320	39098112	33184
302	1.252612	124137472	89272320	49026152	33184
303	6.044351	124137472	89272320	37554392	33184
304	2.4922	124137472	89272320	39185448	33184
305	3.030958	124137472	89272320	41227056	33184
306	3.621643	124137472	89272320	43681152	33184
307	4.205775	124137472	89272320	46548432	33184
308	4.798531	124137472	89272320	49830064	33184
309	7.506534	124678144	89796608	38991584	33184
310	6.050942	124678144	89796608	43106520	33184
311	6.795249	124678144	89796608	47639584	33184
312	7.456828	124678144	89796608	52591768	33184
313	8.150103	124678144	89796608	41606920	33184
314	8.451034	124678144	89796608	47401640	33184
315	10.10406	124678144	89796608	37970872	33184
316	9.87047	124678144	89796608	44612400	33184
317	10.288324	124678144	89796608	51684160	33184
318	11.758802	124678144	89796608	42950440	33184
319	11.670503	124678144	89796608	50874016	33184
320	12.657374	124678144	89796608	43114224	33184
321	12.97399	124678144	89796608	51898240	33184
322	14.002562	124678144	89796608	44848952	33184
323	15.224275	124678144	89796608	39219328	33184
324	15.03486	124678144	89796608	49303504	33184
325	16.168804	124678144	89796608	43948056	33184
326	17.769259	124678144	89796608	39769424	33184
327	16.903727	124678144	89796608	51159808	33184
328	18.384706	124678144	89796608	46832928	33184
329	18.968289	124678144	89796608	43563504	33184
330	20.594358	124678144	89796608	41195304	33184
331	21.91614	124678144	89796608	39596288	33184
332	20.77141	124678144	89796608	53195336	33184
333	21.505753	124678144	89796608	50827128	33184
334	22.07516	124678144	89796608	49231424	33184
335	22.966033	124678144	89796608	48311624	33184
336	23.82515	124678144	89796608	47966120	33184
337	24.278541	124678144	89796608	48114704	33184
338	26.030365	124678144	89796608	48705744	33184
339	26.348312	124678144	89796608	49682976	33184
340	26.273489	124678144	89796608	50965320	33184
341	27.550024	124678144	89796608	52535288	33184
342	30.240017	124678144	89796608	40324112	33184
343	32.275109	124678144	89796608	46516872	33184
344	29.598001	124678144	89796608	50487216	33184
345	29.882153	124678144	89796608	54343040	33184
346	32.970716	124678144	89796608	44209440	33184
347	35.162114	124678144	89796608	52228360	33184
348	32.02585	124678144	89796608	57743656	33184
349	35.461987	124678144	89796608	48823584	33184
350	37.598539	124678144	89796608	58269528	33184
351	37.762868	124678144	89796608	51204888	33184
352	38.873321	124678144	89796608	61550688	33184
353	39.3618	124678144	89796608	55334656	33184
354	40.039062	124678144	89796608	66583368	33184
355	40.284659	124678144	89796608	60911464	33184
356	51.235452	127922176	92942336	60509856	33184
357	65.557036	123875328	90320896	28153584	33184
358	46.211684	125222912	90320896	27584832	33184
359	47.176689	125222912	90320896	28384384	33184
360	44.337568	125222912	90320896	42341232	33184
361	44.261939	125222912	90320896	39213048	33184
362	48.831004	125222912	90320896	41711152	33184
363	49.882858	125222912	90320896	44491760	33184
364	50.323992	125222912	90320896	47797808	33184
365	52.483912	125222912	90320896	51610904	33184
366	51.532908	125222912	90320896	55918672	33184
367	53.678838	125222912	90320896	60710176	33184
368	83.098963	125452288	91893760	23077960	33184
369	57.035199	127340544	92418048	28248808	33184
370	57.098502	131125248	96612352	34512144	33184
371	56.607456	134909952	100806656	41291832	33184
372	57.424813	138694656	105000960	48580976	33184
373	57.682032	142749696	109195264	56388648	33184
374	63.196413	148426752	115486720	52090800	33184
375	59.455378	152211456	119681024	60900296	33184
376	64.696879	158158848	125972480	57632136	33184
377	84.881793	104214528	70922240	20661216	33184
378	62.770385	105562112	70922240	30057288	33184
379	63.15621	105562112	70922240	40885504	33184
380	66.407897	105562112	70922240	39668352	33184
381	68.229547	110968832	76689408	38947544	33184
382	63.917556	114753536	80883712	51268944	33184
383	69.911646	117186560	82456576	51620992	33184
384	67.347505	121241600	86126592	65056648	33184
385	96.615627	109965312	76689408	36897120	33184
386	73.172504	111312896	76689408	38248504	33184
387	73.287037	111312896	76689408	40646112	33184
388	72.953187	111583232	76689408	43551088	33184
389	74.659448	115367936	80359424	46978568	33184
390	70.647695	119152640	85078016	63502128	33184
391	76.707194	125100032	90845184	67987944	33184
392	104.209176	113254400	80359424	26585512	33184
393	76.913599	114601984	80359424	31128048	33184
394	76.544127	114872320	80359424	37247808	33184
395	79.285482	114872320	80359424	43853512	33184
396	78.681705	115412992	80359424	50983192	33184
397	81.288984	117575680	82980864	58694400	33184
398	88.165008	123252736	88748032	66863968	33184
399	105.509264	119812096	85078016	32258712	33184
400	80.806202	120082432	85078016	41563008	33184
401	83.181309	120082432	85078016	51379880	33184
402	1.62296	120082432	85078016	49452848	33184
403	2.36532	120082432	85078016	51080720	33184
404	3.21833	120082432	85078016	53253352	33184
405	4.14304	120082432	85078016	55972200	33184
406	4.766227	120082432	85078016	59238776	33184
407	8.242814	120082432	85078016	48923160	33184
408	6.281233	120082432	85078016	53288168	33184
409	7.262805	120082432	85078016	58209848	33184
410	8.901456	120082432	85078016	48058824	33184
411	9.247709	120082432	85078016	54081320	33184
412	9.463242	120082432	85078016	60667920	33184
413	11.249554	120082432	85078016	51524680	33184
414	11.155188	120082432	85078016	59220712	33184
415	13.070095	120082432	85078016	51384168	33184
416	12.846097	120082432	85078016	60193872	33184
417	14.521516	120082432	85078016	53354872	33184
418	16.019514	120082432	85078016	48006816	33184
419	15.515343	120082432	85078016	58503200	33184
420	17.536869	120082432	85078016	53573184	33184
421	18.241803	120082432	85078016	49886528	33184
422	18.140514	120082432	85078016	62086992	33184
423	19.342406	120082432	85078016	58386320	33184
424	20.100966	120082432	85078016	55734832	33184
425	21.280796	120082432	85078016	54013888	33184
426	22.817912	120082432	85078016	53121664	33184
427	24.320944	120082432	85078016	52941560	33184
428	24.894313	120082432	85078016	53356248	33184
429	24.981943	120082432	85078016	54338856	33184
430	25.383228	120082432	85078016	55757920	33184
431	26.185479	120082432	85078016	57546152	33184
432	27.237318	120082432	85078016	59688456	33184
433	27.731558	120082432	85078016	62111760	33184
434	31.065065	120082432	85078016	50656296	33184
435	30.927003	120082432	85078016	55489360	33184
436	30.421688	120082432	85078016	60254408	33184
437	35.104137	120082432	85078016	51054352	33184
438	36.014059	120623104	85602304	60048032	33184
439	36.85919	121163776	86126592	52956680	33184
440	37.758284	123326464	89272320	63090000	33184
441	39.298866	124407808	89796608	57032792	33184
442	41.548865	126300160	91893760	68338728	33184
443	53.757897	127111168	92942336	63053928	33184
444	47.593595	117153792	82980864	26161032	33184
445	45.713251	117153792	82980864	26614192	33184
446	46.362917	117153792	82980864	27483400	33184
447	43.166492	117153792	82980864	41642320	33184
448	43.094962	117153792	82980864	38653168	33184
449	44.383311	117153792	82980864	36863656	33184
450	50.011767	117153792	82980864	40317808	33184
451	51.12745	117424128	82980864	44194992	33184
452	51.930712	118235136	82980864	48682520	33184
453	53.226939	118505472	83505152	53796224	33184
454	55.421926	118505472	83505152	59504856	33184
455	83.400522	121479168	88223744	25117088	33184
456	57.721565	123371520	88223744	31704400	33184
457	56.349896	123371520	88223744	39237152	33184
458	57.720726	123371520	88223744	47367032	33184
459	62.352432	123371520	88223744	43530456	33184
460	59.554076	123371520	88223744	52865432	33184
461	63.700269	123371520	88223744	50242416	33184
462	61.56713	123371520	88223744	60855040	33184
463	71.860205	128507904	93466624	59478232	33184
464	87.754264	127733760	92942336	26009816	33184
465	63.214813	127733760	92942336	38497864	33184
466	69.093477	127733760	92942336	39003600	33184
467	69.344648	127733760	92942336	40103440	33184
468	66.395775	127733760	92942336	54373616	33184
469	72.13923	127733760	92942336	56770048	33184
470	72.332022	128544768	93466624	59708664	33184
471	90.057153	129896448	95039488	63298536	33184
472	81.052639	125980672	90845184	33695080	33184
473	76.900266	125980672	90845184	38484072	33184
474	75.665254	125980672	90845184	44011792	33184
475	77.450375	125980672	90845184	50086968	33184
476	79.219793	125980672	90845184	56826080	33184
477	78.710044	125980672	90845184	64242880	33184
478	106.438694	124796928	91369472	27010016	33184
479	81.526009	126144512	91369472	34809384	33184
480	82.465843	126144512	91369472	44059208	33184
481	88.027193	126144512	91369472	41401648	33184
482	83.422201	126144512	91369472	51962448	33184
483	83.78137	126144512	91369472	63147928	33184
484	113.057462	122933248	89272320	30817752	33184
485	91.593498	124280832	89272320	30042192	33184
486	86.584394	124280832	89272320	43186392	33184
487	92.900907	124280832	89272320	44364184	33184
488	88.324711	124280832	89272320	58755840	33184
489	99.088546	124280832	89272320	61278016	33184
490	117.359748	127524864	92418048	34891784	33184
491	96.20102	127524864	92418048	38671992	33184
492	92.485801	127524864	92418048	55661552	33184
493	96.993984	127524864	92418048	60792640	33184
494	99.145534	127524864	92418048	66554440	33184
495	125.41992	128585728	93990912	25001432	33184
496	101.380293	128585728	93990912	32178416	33184
497	101.739766	128585728	93990912	39884184	33184
498	103.186728	128585728	93990912	48254656	33184
499	104.349222	128585728	93990912	57307336	33184
500	138.043336	124809216	89796608	39470384	33184
501	106.771216	124809216	89796608	49848856	33184
502	2.122814	124809216	89796608	48743088	33184
503	3.163761	124809216	89796608	50743160	33184
504	4.104559	124809216	89796608	53415504	33184
505	5.0893	124809216	89796608	56747728	33184
506	6.043554	124809216	89796608	60750520	33184
507	9.218567	124809216	89796608	51038712	33184
508	7.79558	124809216	89796608	56385304	33184
509	8.940591	124809216	89796608	62406000	33184
510	10.534292	124809216	89796608	52825560	33184
511	11.157724	124809216	89796608	60197768	33184
512	12.765798	124809216	89796608	52151960	33184
513	13.479677	124809216	89796608	60883312	33184
514	14.295235	124809216	89796608	54103216	33184
515	16.035946	124809216	89796608	48953624	33184
516	16.041362	124809216	89796608	59725072	33184
517	17.368221	124809216	89796608	55161264	33184
518	19.319426	124809216	89796608	51906632	33184
519	20.387812	124809216	89796608	49759648	33184
520	22.757434	124809216	89796608	48619176	33184
521	21.328528	124809216	89796608	62828528	33184
522	22.359504	124809216	89796608	61274528	33184
523	24.047768	124809216	89796608	60640640	33184
524	24.482855	124809216	89796608	60769736	33184
525	26.28124	124809216	89796608	61600184	33184
526	26.474707	124809216	89796608	62975360	33184
527	30.236953	124809216	89796608	50671568	33184
528	30.60483	124809216	89796608	54961808	33184
529	31.037573	124809216	89796608	59403312	33184
530	33.840648	124809216	89796608	50158544	33184
531	35.663707	124809216	89796608	58900008	33184
532	33.274244	124809216	89796608	65294088	33184
533	36.703123	124809216	89796608	57345768	33184
534	35.982968	124809216	89796608	65324848	33184
535	38.468578	124809216	89796608	58811592	33184
536	40.866441	124809216	89796608	54605104	33184
537	42.058672	124809216	89796608	67557848	33184
538	42.895387	125079552	90320896	63603464	33184
539	49.738154	128864256	93990912	65414336	33184
540	50.078288	132919296	98185216	67765560	33184
541	56.775245	136704000	101855232	70817248	33184
542	72.742299	131817472	97136640	23211296	33184
543	52.34082	131817472	97136640	27818872	33184
544	53.561925	131817472	97136640	33002568	33184
545	55.189487	131817472	97136640	38911032	33184
546	54.892852	131817472	97136640	45543064	33184
547	56.5232	131817472	97136640	52890032	33184
548	61.530596	131817472	97136640	48358040	33184
549	58.338926	131817472	97136640	57149984	33184
550	60.980879	131817472	97136640	66655256	33184
551	87.951865	127164416	93466624	32893168	33184
552	66.093312	128512000	93466624	30611848	33184
553	62.506564	128512000	93466624	42326464	33184
554	67.396621	128512000	93466624	42142968	33184
555	64.833838	128512000	93466624	55294056	33184
556	69.687749	128512000	93466624	56618680	33184
557	71.062803	128512000	93466624	58725248	33184
558	81.203416	129052672	93990912	61492696	33184
559	93.967433	132837376	97660928	33275408	33184
560	75.947386	132837376	97660928	37675200	33184
561	76.048281	132837376	97660928	42829096	33184
562	77.175789	132837376	97660928	48708080	33184
563	77.47576	132837376	97660928	55292616	33184
564	79.251912	132837376	97660928	62656368	33184
565	89.218806	133378048	98185216	70791776	33184
566	101.86957	128475136	93466624	34023032	33184
567	84.210629	128475136	93466624	43530816	33184
568	88.690828	128475136	93466624	41186624	33184
569	85.6496	128475136	93466624	52231960	33184
570	85.310457	128475136	93466624	63996864	33184
571	96.974083	129556480	95039488	63932832	33184
572	114.75844	130494464	95563776	32801864	33184
573	89.339581	130494464	95563776	46794544	33184
574	94.092967	130494464	95563776	49008008	33184
575	95.056483	130494464	95563776	51944912	33184
576	93.729528	130494464	95563776	68250432	33184
577	126.210121	127987712	94515200	26940584	33184
578	99.985786	129335296	94515200	31229664	33184
579	101.257763	129335296	94515200	37298432	33184
580	96.416266	129335296	94515200	56668968	33184
581	101.439454	129335296	94515200	64191048	33184
582	113.570659	129605632	94515200	72487248	33184
583	126.408051	130416640	95563776	36529640	33184
584	106.032295	130416640	95563776	46405304	33184
585	106.744752	130416640	95563776	57038920	33184
586	112.495899	130416640	95563776	55886216	33184
587	134.281624	133120000	98185216	68075320	33184
588	113.435851	131497984	96612352	35182728	33184
589	112.890397	131497984	96612352	48922176	33184
590	116.448542	131497984	96612352	50874872	33184
591	113.581248	131497984	96612352	66192712	33184
592	141.173093	128700416	93990912	34786392	33184
593	120.848576	128700416	93990912	39215944	33184
594	122.537387	128700416	93990912	44296128	33184
595	118.116039	128700416	93990912	62728816	33184
596	154.021087	125345792	90320896	25014840	33184
597	120.771988	125345792	90320896	45081776	33184
598	125.446552	125345792	90320896	53292256	33184
599	127.191823	125345792	90320896	62337912	33184
600	159.961285	129941504	96612352	28296184	33184
601	133.312619	131563520	96612352	38199504	33184
602	2.365528	131563520	96612352	50168912	33184
603	3.529677	131563520	96612352	52553376	33184
604	4.878204	131563520	96612352	55734920	33184
605	9.196788	131563520	96612352	46116280	33184
606	7.021766	131563520	96612352	50896392	33184
607	8.402464	131563520	96612352	56482776	33184
608	10.690794	131563520	96612352	47539656	33184
609	10.695625	131563520	96612352	54725592	33184
610	12.600861	131563520	96612352	47054984	33184
611	13.394514	131563520	96612352	55851864	33184
612	14.863582	131563520	96612352	49602960	33184
613	15.217871	131563520	96612352	60014800	33184
614	17.456099	131563520	96612352	54837528	33184
615	18.786784	131563520	96612352	51161616	33184
616	21.120866	131563520	96612352	48795168	33184
617	22.108428	131563520	96612352	47581472	33184
618	24.093766	131563520	96612352	47387904	33184
619	24.946	131563520	96612352	48014376	33184
620	26.379399	131563520	96612352	49352224	33184
621	27.407106	131563520	96612352	51358864	33184
622	27.633312	131563520	96612352	53894688	33184
623	28.669469	131563520	96612352	56930880	33184
624	29.73933	131563520	96612352	60351040	33184
625	33.311995	131563520	96612352	49938008	33184
626	32.90403	131563520	96612352	55970448	33184
627	35.927973	131563520	96612352	48289248	33184
628	37.24982	131563520	96612352	58598328	33184
629	38.846238	131563520	96612352	52770520	33184
630	39.861297	131563520	96612352	64728936	33184
631	40.269519	131563520	96612352	59993304	33184
632	46.761676	131563520	96612352	60956512	33184
633	49.194849	131833856	96612352	62674312	33184
634	67.26861	133996544	99233792	65135920	33184
635	55.455244	129822720	95039488	32847128	33184
636	52.291127	129822720	95039488	37123392	33184
637	53.143891	129822720	95039488	42106376	33184
638	54.215595	129822720	95039488	47984688	33184
639	59.58319	129822720	95039488	42076760	33184
640	56.005471	129822720	95039488	49622752	33184
641	57.73763	129822720	95039488	57928632	33184
642	63.397389	129822720	95039488	54661336	33184
643	65.92204	130093056	95039488	64686264	33184
644	84.975379	127254528	92418048	30275024	33184
645	68.575651	127254528	92418048	29582032	33184
646	64.053982	127254528	92418048	42301848	33184
647	70.532877	127254528	92418048	43279456	33184
648	71.444988	127254528	92418048	45058464	33184
649	69.691564	127254528	92418048	60324408	33184
650	75.310715	127254528	92418048	63779608	33184
651	103.469919	126345216	92942336	38169616	33184
652	76.080014	127692800	92942336	42662944	33184
653	77.928575	127692800	92942336	48637464	33184
654	78.787244	127692800	92942336	55527240	33184
655	84.524244	127692800	92942336	50686120	33184
656	81.579425	127963136	92942336	59219600	33184
657	88.120503	130396160	95563776	68677072	33184
658	105.169112	132677632	98185216	32945688	33184
659	84.40676	132677632	98185216	44105896	33184
660	90.087885	132677632	98185216	43612320	33184
661	87.697956	132677632	98185216	56502736	33184
662	93.926582	132677632	98185216	57711080	33184
663	99.810134	133758976	99233792	72301640	33184
664	119.377347	127418368	92418048	29720032	33184
665	93.939108	127418368	92418048	46083984	33184
666	98.132581	127418368	92418048	50816072	33184
667	102.740822	127418368	92418048	56345032	33184
668	101.380786	127418368	92418048	62827304	33184
669	133.484243	129384448	94515200	39313752	33184
670	102.876616	129384448	94515200	47590144	33184
671	105.042891	129384448	94515200	56671656	33184
672	110.710128	129384448	94515200	53999160	33184
673	107.296606	131276800	96612352	64883576	33184
674	134.235178	131731456	97136640	25966248	33184
675	111.117447	131731456	97136640	38733096	33184
676	115.786092	131731456	97136640	52169280	33184
677	116.296278	131731456	97136640	53990688	33184
678	116.403076	131731456	97136640	69281216	33184
679	149.372199	126918656	91893760	43385320	33184
680	123.486733	126918656	91893760	47845144	33184
681	122.56105	126918656	91893760	53396200	33184
682	119.817043	127459328	92942336	72370408	33184
683	158.693016	132268032	98709504	32078888	33184
684	126.459861	133615616	98709504	39005448	33184
685	127.402187	133615616	98709504	47935896	33184
686	127.62501	133615616	98709504	57729512	33184
687	136.172325	133615616	98709504	68516264	33184
688	159.440349	130682880	95563776	36201256	33184
689	131.410632	130682880	95563776	48683696	33184
690	133.552249	130682880	95563776	62146704	33184
691	137.861415	132845568	98185216	76537864	33184
692	170.095639	132808704	98185216	27136400	33184
693	137.838148	132808704	98185216	43271264	33184
694	147.690614	132808704	98185216	47808544	33184
695	167.919417	135241728	100806656	65754736	33184
696	150.161593	125415424	90320896	43161424	33184
697	147.121446	125415424	90320896	50434384	33184
698	145.82606	126226432	91369472	71083104	33184
699	183.105458	128487424	93466624	31870112	33184
700	151.057974	128487424	93466624	42025952	33184
701	154.752229	128487424	93466624	52965632	33184
702	3.041736	129568768	94515200	65527832	33184
703	4.646189	129568768	94515200	68282680	33184
704	9.509531	129568768	94515200	71963904	33184
705	18.765211	131461120	96612352	62829984	33184
706	19.191841	131461120	96612352	68349640	33184
707	14.791537	124862464	90320896	33289592	33184
708	12.530117	124862464	90320896	40654640	33184
709	13.124117	125399040	90320896	32791008	33184
710	13.680683	125399040	90320896	42009416	33184
711	15.570328	125399040	90320896	35805792	33184
712	17.496775	125399040	90320896	31382648	33184
713	20.142143	125399040	90320896	28524416	33184
714	19.206304	125399040	90320896	41480376	33184
715	21.298169	125399040	90320896	39132808	33184
716	22.782087	125399040	90320896	38094776	33184
717	23.806563	125399040	90320896	38139256	33184
718	25.90616	125399040	90320896	39134840	33184
719	27.109977	125399040	90320896	40963536	33184
720	31.001959	125399040	90320896	29505648	33184
721	32.930334	125399040	90320896	36753008	33184
722	32.629556	125399040	90320896	42196544	33184
723	36.747683	125399040	90320896	33977448	33184
724	37.826549	125399040	90320896	44123592	33184
725	39.4874	125399040	90320896	38318160	33184
726	40.080483	125399040	90320896	50313736	33184
727	41.543299	125399040	90320896	45748136	33184
728	42.849197	125399040	90320896	43102232	33184
729	48.802702	125399040	90320896	45385488	33184
730	51.261331	125399040	90320896	48593328	33184
731	52.114605	125399040	90320896	52723872	33184
732	53.620393	125399040	90320896	57805472	33184
733	55.76112	127291392	92418048	63951808	33184
734	57.195744	131346432	96612352	71042368	33184
735	60.363157	135131136	100282368	79028008	33184
736	94.818448	133791744	99233792	24417328	33184
737	64.607945	133791744	99233792	34489952	33184
738	62.278375	133791744	99233792	45397568	33184
739	67.195726	134062080	99233792	44735176	33184
740	68.837453	134062080	99233792	44959456	33184
741	65.449157	134062080	99233792	58799768	33184
742	71.962633	134062080	99233792	61073640	33184
743	78.238278	134332416	99758080	64224776	33184
744	95.835349	128516096	93466624	35887960	33184
745	75.949113	128516096	93466624	41138000	33184
746	77.68043	128516096	93466624	47345528	33184
747	78.752836	128516096	93466624	54490224	33184
748	83.572364	128516096	93466624	50098048	33184
749	80.343082	128516096	93466624	59145536	33184
750	111.618801	129290240	96088064	23625104	33184
751	84.359402	130637824	96088064	33845936	33184
752	85.040381	130637824	96088064	46041464	33184
753	91.233343	130637824	96088064	46444712	33184
754	88.986659	130637824	96088064	60591768	33184
755	93.921704	130637824	96088064	63069048	33184
756	120.741309	127229952	93990912	34499512	33184
757	98.217748	128577536	93990912	38117120	33184
758	98.903896	128577536	93990912	43661192	33184
759	99.148661	128577536	93990912	50212600	33184
760	101.245883	128577536	93990912	57745936	33184
761	129.48226	126164992	92942336	34811064	33184
762	108.835656	127787008	92942336	31080584	33184
763	106.292628	127787008	92942336	41617296	33184
764	108.016073	127787008	92942336	53190872	33184
765	110.137511	127787008	92942336	65757768	33184
766	161.256296	128376832	93466624	43095944	33184
767	122.7813	128647168	93466624	45058608	33184
768	113.465149	128647168	93466624	60673160	33184
769	120.735782	128647168	93466624	64729608	33184
770	128.120173	135946240	101330944	69723856	33184
771	147.802643	134451200	99233792	41022568	33184
772	124.290143	134451200	99233792	48086576	33184
773	126.279502	134451200	99233792	56319848	33184
774	127.914838	134451200	99233792	65593144	33184
775	160.35827	129122304	94515200	25639576	33184
776	130.017155	129122304	94515200	37024104	33184
777	131.119479	129122304	94515200	49157072	33184
778	132.431757	129122304	94515200	62402344	33184
779	164.001784	128688128	93990912	30463000	33184
780	136.559511	128688128	93990912	45779320	33184
781	141.934051	128688128	93990912	49493456	33184
782	137.811351	128688128	93990912	66832584	33184
783	167.863175	126369792	91369472	38204944	33184
784	147.178012	126369792	91369472	45005968	33184
785	146.417999	126369792	91369472	52888344	33184
786	179.396674	122798080	89272320	32594568	33184
787	154.204651	124145664	89272320	42107392	33184
788	151.745554	124145664	89272320	53099160	33184
789	158.559748	129282048	94515200	65062648	33184
790	183.752978	127901696	92942336	29003176	33184
791	156.602776	127901696	92942336	43096120	33184
792	158.398516	127901696	92942336	58259200	33184
793	194.986543	125513728	90845184	31810032	33184
794	161.022647	125513728	90845184	49130144	33184
795	167.261186	125513728	90845184	54910008	33184
796	176.17249	132272128	97660928	74207736	33184
797	196.01641	132169728	97136640	50570432	33184
798	173.258449	132169728	97136640	59353736	33184
799	174.963933	135143424	100282368	69514744	33184
800	201.496147	129130496	94515200	39935632	33184
801	176.336897	129130496	94515200	51928008	33184
802	3.134016	129130496	94515200	65859848	33184
803	9.132205	129671168	94515200	56138016	33184
804	6.963828	129671168	94515200	60367656	33184
805	8.719721	129671168	94515200	65656896	33184
806	13.715513	129671168	94515200	57414648	33184
807	11.940176	129671168	94515200	64852944	33184
808	21.472492	129671168	94515200	57662656	33184
809	21.787532	124956672	89796608	22327952	33184
810	17.05487	124956672	89796608	17789776	33184
811	17.472068	124956672	89796608	29488200	33184
812	19.081181	124956672	89796608	26130712	33184
813	21.659721	124956672	89796608	24278872	33184
814	23.49058	124956672	89796608	23782784	33184
815	25.172597	124956672	89796608	24382008	33184
816	26.486185	124956672	89796608	26028344	33184
817	27.860891	124956672	89796608	28454768	33184
818	29.276915	124956672	89796608	31702008	33184
819	33.730759	124956672	89796608	21366016	33184
820	33.553531	124956672	89796608	27683312	33184
821	37.323159	124956672	89796608	20544504	33184
822	38.624037	124956672	89796608	31657744	33184
823	40.435585	124956672	89796608	26583080	33184
824	46.465507	124956672	89796608	27242048	33184
825	43.688544	124956672	89796608	41415144	33184
826	44.123358	124956672	89796608	38875512	33184
827	46.140843	124956672	89796608	37837664	33184
828	53.140071	124956672	89796608	42800136	33184
829	54.494432	124956672	89796608	48724544	33184
830	59.930974	124956672	89796608	43216536	33184
831	57.41609	124956672	89796608	51321424	33184
832	65.795894	124956672	89796608	60545792	33184
833	83.423204	123432960	88223744	30132840	33184
834	62.131714	123432960	88223744	41556264	33184
835	68.352247	123432960	88223744	41558792	33184
836	69.968256	123432960	88223744	42517672	33184
837	71.995297	123432960	88223744	44643952	33184
838	69.403362	123432960	88223744	60431112	33184
839	77.030054	123432960	88748032	64750608	33184
840	108.076395	128602112	93466624	27740112	33184
841	78.010826	128602112	93466624	34333616	33184
842	79.465435	128602112	93466624	41947904	33184
843	79.940413	128602112	93466624	50714792	33184
844	82.19885	128602112	93466624	60511888	33184
845	88.465376	128602112	93466624	58922216	33184
846	114.237529	127516672	94515200	25135112	33184
847	89.422493	129675264	94515200	37296016	33184
848	93.48353	129675264	94515200	39055672	33184
849	89.845843	129675264	94515200	54460880	33184
850	96.825114	129675264	94515200	58405288	33184
851	99.650281	129675264	94515200	63497680	33184
852	129.003968	125349888	90320896	39410848	33184
853	103.576351	125349888	90320896	46773136	33184
854	102.382382	125349888	90320896	55207512	33184
855	105.122002	125349888	90320896	64775192	33184
856	112.884086	130756608	96088064	63000808	33184
857	136.093991	128528384	93990912	24478848	33184
858	111.053809	128528384	93990912	37570800	33184
859	113.507951	128528384	93990912	51775776	33184
860	117.488316	129069056	93990912	54602408	33184
861	123.772056	129609728	94515200	58461128	33184
862	147.535111	125870080	90845184	33524664	33184
863	119.247749	125870080	90845184	52156264	33184
864	125.288766	125870080	90845184	59354144	33184
865	126.401656	128843776	93990912	67730856	33184
866	155.849175	133079040	98185216	28070160	33184
867	129.934335	133079040	98185216	38893080	33184
868	130.505839	133079040	98185216	50742560	33184
869	134.389311	133079040	98185216	63696000	33184
870	163.096301	126943232	91893760	31654440	33184
871	136.615322	126943232	91893760	47078288	33184
872	142.215791	126943232	91893760	50921016	33184
873	143.015125	126943232	91893760	68470168	33184
874	171.82232	128991232	93990912	27922248	33184
875	142.681673	128991232	93990912	47771560	33184
876	149.594498	128991232	93990912	56161312	33184
877	180.394575	121978880	88748032	36312176	33184
878	154.265093	123867136	88748032	46665968	33184
879	153.813148	123867136	88748032	58534464	33184
880	159.37257	132517888	98185216	71758560	33184
881	181.873611	120631296	85602304	35727208	33184
882	164.463047	120631296	85602304	51088536	33184
883	172.830464	121442304	86650880	55080160	33184
884	198.627175	123826176	88748032	47018064	33184
885	168.362121	123826176	88748032	53289016	33184
886	168.47719	132747264	98185216	73422424	33184
887	208.11655	130834432	97660928	30990128	33184
888	169.286057	132452352	97660928	52112792	33184
889	175.785557	132452352	97660928	63266048	33184
890	179.876985	135696384	100806656	75574776	33184
891	217.587618	132182016	97660928	44628184	33184
892	179.439134	132182016	97660928	59137320	33184
893	184.977317	137588736	102903808	74881424	33184
894	217.326278	132038656	97136640	36319968	33184
895	186.120364	132038656	97136640	54336536	33184
896	191.578963	132038656	97136640	61044864	33184
897	220.397347	129060864	94515200	33931704	33184
898	194.741221	129060864	94515200	55572560	33184
899	198.07044	129331200	94515200	65773216	33184
900	239.39545	130097152	95039488	50661664	33184
901	199.597458	130097152	95039488	63277760	33184
902	3.827582	144154624	109195264	78058456	33184
903	5.266568	144154624	109195264	81627528	33184
904	7.010618	144154624	109195264	86392872	33184
905	12.724652	146046976	111292416	78252448	33184
906	11.486644	146046976	111292416	85401728	33184
907	15.23186	146317312	111292416	78193240	33184
908	26.288665	146317312	111292416	87740808	33184
909	18.783111	133767168	98709504	26843888	33184
910	19.79148	133767168	98709504	23045792	33184
911	21.371648	133767168	98709504	20967504	33184
912	22.654817	133767168	98709504	20401144	33184
913	24.753213	133767168	98709504	21050432	33184
914	26.66475	133767168	98709504	22890416	33184
915	27.587621	133767168	98709504	25615512	33184
916	29.7694	133767168	98709504	29203416	33184
917	33.493075	133767168	98709504	19603424	33184
918	35.89047	133767168	98709504	28727664	33184
919	38.452588	133767168	98709504	22452032	33184
920	39.96325	133767168	98709504	34019544	33184
921	41.049082	133767168	98709504	29593712	33184
922	47.817216	133767168	98709504	31003848	33184
923	49.255804	133767168	98709504	33461640	33184
924	51.86239	133767168	98709504	37105352	33184
925	53.027728	133767168	98709504	41963120	33184
926	53.797844	133767168	98709504	48088608	33184
927	57.554512	133767168	98709504	55409032	33184
928	84.678272	133767168	98709504	63940760	33184
929	65.614465	122335232	87175168	33662360	33184
930	61.272119	122335232	87175168	44698824	33184
931	68.646299	122335232	87175168	44426192	33184
932	69.176202	122335232	87175168	45371576	33184
933	66.915101	122335232	87175168	60081128	33184
934	73.228091	122335232	87175168	63458160	33184
935	77.799243	127741952	92942336	68024432	33184
936	108.572711	130113536	95563776	28470448	33184
937	78.253339	130113536	95563776	35546904	33184
938	80.369473	130113536	95563776	43788208	33184
939	81.937077	130113536	95563776	53277256	33184
940	88.792147	130113536	95563776	51365504	33184
941	85.996802	130654208	95563776	63331080	33184
942	99.636871	132005888	97136640	76611904	33184
943	112.658506	128434176	93466624	30939048	33184
944	91.221043	128434176	93466624	46584800	33184
945	96.947983	128434176	93466624	50930520	33184
946	98.847248	128434176	93466624	56619272	33184
947	100.736078	128434176	93466624	63365752	33184
948	134.298237	127684608	92942336	41583472	33184
949	108.947805	127684608	92942336	38432216	33184
950	106.249315	127684608	92942336	48992440	33184
951	107.880577	127684608	92942336	60853992	33184
952	110.45719	130658304	95563776	73833560	33184
953	145.563548	132112384	97136640	24434824	33184
954	114.432868	132112384	97136640	40111960	33184
955	120.60825	132112384	97136640	44417864	33184
956	117.322752	132112384	97136640	62375896	33184
957	130.590687	132112384	97136640	69176504	33184
958	151.638462	127475712	92418048	33861368	33184
959	122.34754	127475712	92418048	55716640	33184
960	134.190266	127475712	92418048	53647088	33184
961	131.477376	131801088	97136640	65408712	33184
962	165.075119	136712192	101855232	46974960	33184
963	138.41265	136712192	101855232	48670000	33184
964	136.954371	136712192	101855232	64255328	33184
965	142.611076	137523200	102379520	68505800	33184
966	170.167029	134987776	100282368	33207968	33184
967	149.994831	134987776	100282368	40185152	33184
968	147.362319	134987776	100282368	48186168	33184
969	147.075301	134987776	100282368	70185048	33184
970	179.270895	131104768	96088064	32255400	33184
971	153.883191	131104768	96088064	44169376	33184
972	157.933148	131104768	96088064	57368160	33184
973	189.101422	125341696	90320896	28215424	33184
974	158.543592	125341696	90320896	43911504	33184
975	160.8066	125341696	90320896	60973624	33184
976	198.465935	126849024	93466624	36115656	33184
977	169.696875	128196608	93466624	42491080	33184
978	169.388012	128196608	93466624	63291016	33184
979	184.245166	134414336	99233792	72831680	33184
980	200.383612	132792320	97660928	51673064	33184
981	176.251465	132792320	97660928	63819432	33184
982	179.864607	135766016	100806656	77280880	33184
983	212.346237	130732032	95563776	37873704	33184
984	184.818601	130732032	95563776	53930416	33184
985	189.51817	130732032	95563776	58612384	33184
986	223.833861	126230528	91369472	51463784	33184
987	194.276995	127041536	92418048	58762896	33184
988	194.66181	140558336	105525248	80021200	33184
989	229.525331	131788800	97136640	31704096	33184
990	195.66896	131788800	97136640	55496152	33184
991	200.505426	131788800	97136640	67928880	33184
992	230.597286	127057920	91893760	33205136	33184
993	206.869441	127057920	91893760	48259960	33184
994	239.264932	123895808	89272320	36296824	33184
995	207.743359	123895808	89272320	54024184	33184
996	211.311899	129843200	95039488	73096168	33184
997	240.235098	127070208	92418048	42973752	33184
998	216.769694	127340544	92418048	51944624	33184
999	252.139163	126349312	91369472	33388352	33184
1000	217.880892	126349312	91369472	57656888	33184
