x	Duration	RSS	HeapTotal	HeapUsed	External
0	NA	93736960	62533632	14398584	33184
1	0.261233	93736960	62533632	14450888	33184
2	0.19806	93736960	62533632	14518864	33184
3	0.214053	93736960	62533632	14611576	33184
4	0.256991	93736960	62533632	14730696	33184
5	0.349891	93736960	62533632	14877984	33184
6	0.365093	93736960	62533632	15054128	33184
7	0.71948	93736960	62533632	15260376	33184
8	0.490594	93736960	62533632	15497944	33184
9	0.539242	93736960	62533632	15769320	33184
10	0.601193	93736960	62533632	16074792	33184
11	0.697552	93736960	62533632	16419368	33184
12	0.159317	93736960	62533632	16788648	33184
13	0.239131	93736960	62533632	16898960	33184
14	0.305343	93736960	62533632	17048296	33184
15	0.553187	93736960	62533632	17237800	33184
16	0.457771	93736960	62533632	17469256	33184
17	0.754354	93736960	62533632	17745920	33184
18	0.626435	93736960	62533632	18063928	33184
19	0.722409	93736960	62533632	18430232	33184
20	0.733524	93736960	62533632	18840816	33184
21	0.833528	93736960	62533632	19299832	33184
22	0.195778	93736960	62533632	19818512	33184
23	0.297007	93736960	62533632	19968208	33184
24	0.595705	93736960	62533632	20170008	33184
25	0.475881	93736960	62533632	20425176	33184
26	0.493726	93736960	62533632	20735424	33184
27	0.571108	93736960	62533632	21101472	33184
28	0.653036	93736960	62533632	21524616	33184
29	0.736996	93736960	62533632	22005992	33184
30	1.040896	93736960	62533632	22547760	33184
31	0.917254	93736960	62533632	23150296	33184
32	0.205395	93736960	62533632	23838256	33184
33	0.31088	93736960	62533632	24024744	33184
34	0.406193	93736960	62533632	24275592	33184
35	0.830152	93736960	62533632	24592088	33184
36	0.63234	93736960	62533632	24975944	33184
37	0.703187	93736960	62533632	25427840	33184
38	0.803087	93736960	62533632	25949056	33184
39	1.702864	93736960	62533632	26540784	33184
40	1.032539	93736960	62533632	27205216	33184
41	1.131336	93736960	62533632	27942584	33184
42	0.4378	93736960	62533632	28790296	33184
43	0.408422	93736960	62533632	29013552	33184
44	0.486789	93736960	62533632	29314656	33184
45	0.602842	93736960	62533632	29695992	33184
46	0.718901	93736960	62533632	30158032	33184
47	0.837218	93736960	62533632	30702144	33184
48	2.041296	93736960	62533632	15054376	33184
49	1.216672	93736960	62533632	15785456	33184
50	1.414355	93736960	62533632	16584056	33184
51	1.330335	93736960	62533632	17469768	33184
52	0.460345	93736960	62533632	18494568	33184
53	0.420714	93736960	62533632	18759896	33184
54	0.554132	93736960	62533632	19115880	33184
55	0.684552	93736960	62533632	19563744	33184
56	0.815244	93736960	62533632	20105248	33184
57	1.035605	93736960	62533632	20741096	33184
58	1.425828	93736960	62533632	21472488	33184
59	1.230808	93736960	62533632	22300720	33184
60	1.409631	93736960	62533632	23227992	33184
61	1.82485	93736960	62533632	24254464	33184
62	0.314384	93736960	62533632	25446928	33184
63	0.656628	93736960	62533632	25749064	33184
64	0.820365	93736960	62533632	26154104	33184
65	0.796753	93736960	62533632	26663320	33184
66	0.997362	93736960	62533632	27281072	33184
67	1.075857	93736960	62533632	28002792	33184
68	1.343809	93736960	62533632	28832472	33184
69	1.425382	93736960	62533632	29772464	33184
70	1.71175	93736960	62533632	30821832	33184
71	2.595442	93736960	62533632	15778776	33184
72	0.355777	93736960	62533632	17130336	33184
73	0.533092	93736960	62533632	17469128	33184
74	0.695305	93736960	62533632	17923096	33184
75	0.86101	93736960	62533632	18493400	33184
76	1.038551	93736960	62533632	19181800	33184
77	1.202545	93736960	62533632	19989016	33184
78	1.376528	93736960	62533632	20916424	33184
79	1.756145	93736960	62533632	21964968	33184
80	1.727756	93736960	62533632	23137168	33184
81	1.959208	93736960	62533632	24434096	33184
82	0.394067	93736960	62533632	25948168	33184
83	0.588099	93736960	62533632	26323656	33184
84	0.833946	93736960	62533632	26828808	33184
85	0.957371	93736960	62533632	27462584	33184
86	1.264899	93736960	62533632	28227848	33184
87	1.583179	93736960	62533632	29127520	33184
88	1.522574	93736960	62533632	30159312	33184
89	1.722955	93736960	62533632	31324880	33184
90	2.472505	93736960	62533632	16307712	33184
91	2.168098	93736960	62533632	17749400	33184
92	0.426894	93736960	62533632	19441088	33184
93	0.81506	93736960	62533632	19863144	33184
94	0.867107	93736960	62533632	20428104	33184
95	1.046708	93736960	62533632	21137376	33184
96	1.259294	93736960	62533632	21992344	33184
97	1.471555	93736960	62533632	22993904	33184
98	1.669618	93736960	62533632	24143224	33184
99	1.9525	93736960	62533632	25441624	33184
100	2.106307	93736960	62533632	26891216	33184
101	2.519106	93736960	62533632	28492392	33184
102	0.47347	93736960	62533632	30368352	33184
103	0.696537	93736960	62533632	30827200	33184
104	0.913017	93736960	62533632	31441200	33184
105	1.720931	93736960	62533632	15876648	33184
106	1.48588	93736960	62533632	16805232	33184
107	1.719887	93736960	62533632	17892584	33184
108	1.960424	93736960	62533632	19139984	33184
109	2.05674	93736960	62533632	20548784	33184
110	2.291378	93736960	62533632	22121128	33184
111	2.570381	93736960	62533632	23857200	33184
112	0.891661	93736960	62533632	25892816	33184
113	0.997047	93736960	62533632	26388472	33184
114	1.002395	93736960	62533632	27051488	33184
115	1.29204	93736960	62533632	27886200	33184
116	1.493867	93736960	62533632	28888440	33184
117	1.876758	93736960	62533632	30063408	33184
118	1.986633	93736960	62533632	31409544	33184
119	2.83663	93736960	62533632	16588136	33184
120	2.663104	93736960	62533632	18283176	33184
121	2.725807	93736960	62533632	20154352	33184
122	0.546119	93736960	62533632	22349616	33184
123	0.807277	93736960	62533632	22883208	33184
124	1.061741	93736960	62533632	23595328	33184
125	1.318173	93736960	62533632	24488472	33184
126	1.803275	93736960	62533632	25564240	33184
127	1.847232	93736960	62533632	26823472	33184
128	2.119709	93736960	62533632	28267352	33184
129	2.374637	93736960	62533632	29897008	33184
130	2.867446	93736960	62533632	31714712	33184
131	3.657179	93736960	62533632	17339808	33184
132	0.575414	93736960	62533632	19699096	33184
133	0.864706	93736960	62533632	20268328	33184
134	1.141408	93736960	62533632	21029544	33184
135	1.414687	93736960	62533632	21984176	33184
136	1.695655	93736960	62533632	23133592	33184
137	2.036974	93736960	62533632	24478704	33184
138	2.261015	93736960	62533632	26020672	33184
139	2.559033	93736960	62533632	27760744	33184
140	2.842891	93736960	62533632	29701264	33184
141	3.154507	93736960	62533632	31844520	33184
142	0.626258	93736960	62533632	17982344	33184
143	0.921775	93736960	62533632	18593936	33184
144	1.213069	93736960	62533632	19411592	33184
145	1.517519	93736960	62533632	20436624	33184
146	1.807609	93736960	62533632	21670648	33184
147	2.313037	93736960	62533632	23115464	33184
148	2.414582	93736960	62533632	24770232	33184
149	2.78027	93736960	62533632	26637336	33184
150	3.028853	93736960	62533632	28718816	33184
151	3.542797	93736960	62533632	31014952	33184
152	0.696162	93736960	62533632	17448144	33184
153	1.03801	93736960	62533632	18096528	33184
154	1.377332	93736960	62533632	18963248	33184
155	1.73303	93736960	62533632	20049600	33184
156	2.050707	93736960	62533632	21357208	33184
157	2.485229	93736960	62533632	22887000	33184
158	2.581729	93736960	62533632	24639976	33184
159	2.944558	93736960	62533632	26617448	33184
160	3.223049	93736960	62533632	28821680	33184
161	3.594968	93736960	62533632	31252864	33184
162	0.690693	93736960	62533632	17822696	33184
163	1.041187	93736960	62533632	18507872	33184
164	1.363286	93736960	62533632	19423688	33184
165	1.987236	93736960	62533632	20571456	33184
166	2.323916	93736960	62533632	21956088	33184
167	2.56985	93736960	62533632	23571712	33184
168	2.705964	93736960	62533632	25422768	33184
169	3.25327	93736960	62533632	27510936	33184
170	3.619429	93736960	62533632	29837752	33184
171	4.428229	93736960	62533632	16314296	33184
172	0.728351	93736960	62533632	19343264	33184
173	1.311153	93736960	62533632	20065320	33184
174	1.44935	93736960	62533632	21030264	33184
175	1.800774	93736960	62533632	22239304	33184
176	2.155134	93736960	62533632	23694152	33184
177	2.514646	93736960	62533632	25395720	33184
178	2.891525	93736960	62533632	27345296	33184
179	3.487692	93736960	62533632	29543640	33184
180	3.645678	93736960	62533632	31997352	33184
181	4.582594	93736960	62533632	18334952	33184
182	0.768236	93736960	62533632	21540416	33184
183	1.148011	93736960	62533632	22311824	33184
184	1.516066	93736960	62533632	23344664	33184
185	1.89384	93736960	62533632	24635816	33184
186	2.26199	93736960	62533632	26189344	33184
187	2.843699	93736960	62533632	28006056	33184
188	3.037571	93736960	62533632	30086808	33184
189	3.96551	93736960	62533632	16321416	33184
190	3.99521	93736960	62533632	18935264	33184
191	4.174071	93736960	62533632	21817016	33184
192	0.801782	93736960	62533632	25220840	33184
193	1.440341	93736960	62533632	26028976	33184
194	1.59598	93736960	62533632	27108648	33184
195	1.989315	93736960	62533632	28461352	33184
196	2.38507	93736960	62533632	30088528	33184
197	2.782518	93736960	62533632	31990920	33184
198	3.883024	93736960	62533632	17822064	33184
199	3.586599	93736960	62533632	20278752	33184
200	3.955488	93736960	62533632	23015384	33184
201	4.406419	93736960	62533632	26032344	33184
202	0.83912	93736960	62533632	29593720	33184
203	1.285206	93736960	62533632	30438592	33184
204	1.85584	93736960	62533632	31567416	33184
205	2.813055	93736960	62533632	16707328	33184
206	2.541341	93736960	62533632	18408008	33184
207	2.909684	93736960	62533632	20396360	33184
208	3.314581	93736960	62533632	22673512	33184
209	3.950778	93736960	62533632	25240584	33184
210	4.148975	93736960	62533632	28099792	33184
211	4.608832	93736960	62533632	31251672	33184
212	0.898489	93736960	62533632	18730000	33184
213	1.314159	93736960	62533632	19611752	33184
214	1.744766	93736960	62533632	20789680	33184
215	2.161027	93736960	62533632	22265008	33184
216	2.82963	93736960	62533632	24039760	33184
217	3.033814	93736960	62533632	26114320	33184
218	3.939285	93736960	62533632	28489568	33184
219	4.197049	93736960	62533632	31170248	33184
220	4.850231	93736960	62533632	17940512	33184
221	4.786614	93736960	62533632	21227168	33184
222	1.002758	93736960	62533632	25108064	33184
223	1.372881	93736960	62533632	26026600	33184
224	1.817467	93736960	62533632	27253528	33184
225	2.265832	93736960	62533632	28790120	33184
226	3.083161	93736960	62533632	30638000	33184
227	3.680978	93736960	62533632	16675896	33184
228	3.816175	93736960	62533632	19149232	33184
229	4.482354	93736960	62533632	21942936	33184
230	4.527448	93736960	62533632	25053448	33184
231	4.979415	93736960	62533632	28483816	33184
232	0.962682	93736960	62533632	32541768	33184
233	1.79135	93736960	62533632	17134088	33184
234	1.910237	93736960	62533632	18421608	33184
235	2.35239	93736960	62533632	20033952	33184
236	2.836998	93736960	62533632	21972760	33184
237	3.308543	93736960	62533632	24239080	33184
238	3.780119	93736960	62533632	26833664	33184
239	4.471736	93736960	62533632	29757888	33184
240	5.732552	94007296	62533632	17007088	33184
241	5.552731	94007296	62533632	20595704	33184
242	0.994727	94007296	62533632	24837552	33184
243	1.538128	94007296	62533632	25838360	33184
244	1.962557	94007296	62533632	27174912	33184
245	2.698402	94007296	62533632	28848656	33184
246	2.989106	94007296	62533632	30861176	33184
247	4.04152	94007296	62533632	17089848	33184
248	4.005158	94007296	62533632	19785200	33184
249	4.478895	94007296	62533632	22819944	33184
250	4.942072	94007296	62533632	26202216	33184
251	5.88366	94007296	62533632	29925520	33184
252	1.04042	94007296	62533632	18326544	33184
253	1.766127	94007296	62533632	19364176	33184
254	2.036165	94007296	62533632	20749920	33184
255	2.546389	94007296	62533632	22484968	33184
256	3.057327	94007296	62533632	24571192	33184
257	3.793338	94007296	62533632	27009064	33184
258	4.072566	94007296	62533632	29799960	33184
259	4.849755	94007296	62533632	32945848	33184
260	5.618001	94007296	62533632	20055376	33184
261	5.623806	94007296	62533632	23914360	33184
262	1.077151	94007296	62533632	28474520	33184
263	1.602868	94007296	62533632	29548944	33184
264	2.165549	94007296	62533632	30983720	33184
265	2.638562	94007296	62533632	32780296	33184
266	3.774005	94007296	62533632	18586992	33184
267	3.714118	94007296	62533632	21110808	33184
268	4.227525	94007296	62533632	23999888	33184
269	4.977957	94007296	62533632	27260696	33184
270	5.304624	94007296	62533632	30886656	33184
271	6.370276	94007296	62533632	18777728	33184
272	1.108574	94007296	62533632	23510248	33184
273	1.90853	94007296	62533632	24621576	33184
274	2.223705	94007296	62533632	26105384	33184
275	2.739327	94007296	62533632	27963264	33184
276	3.289893	94007296	62533632	30196656	33184
277	4.071168	94007296	62533632	32806352	33184
278	4.76243	94007296	62533632	19468792	33184
279	4.931799	94007296	62533632	22837944	33184
280	5.743896	94007296	62533632	26586440	33184
281	6.070125	94007296	62533632	30718336	33184
282	1.148215	94007296	62533632	19561552	33184
283	1.718089	94007296	62533632	20709648	33184
284	2.266081	94007296	62533632	22242608	33184
285	3.056732	94007296	62533632	24161728	33184
286	3.401685	94007296	62533632	26468848	33184
287	3.962659	94007296	62533632	29164480	33184
288	5.079231	94007296	62533632	32254448	33184
289	5.59394	94007296	62533632	19476584	33184
290	6.175739	94007296	62533632	23351224	33184
291	6.245155	94007296	62533632	27619392	33184
292	1.190514	94007296	62533632	32666544	33184
293	2.178796	94007296	62533632	17581672	33184
294	2.362326	94007296	62533632	19163648	33184
295	2.922664	94007296	62533632	21144112	33184
296	3.513064	94007296	62533632	23524672	33184
297	4.902719	94007296	62533632	26305936	33184
298	5.104982	94007296	62533632	29498344	33184
299	5.643481	94007296	62533632	33089000	33184
300	7.090916	94007296	62533632	20799616	33184
301	6.54452	94007296	62533632	25206792	33184
302	1.227254	94007296	62533632	30420880	33184
303	1.824506	94007296	62533632	31642456	33184
304	2.421876	94007296	62533632	33273528	33184
305	3.696566	94007296	62533632	19064760	33184
306	3.618197	94007296	62533632	21518912	33184
307	4.217506	94007296	62533632	24386136	33184
308	5.058643	94007296	62533632	27667784	33184
309	5.470948	94007296	62533632	31364832	33184
310	6.922271	94007296	62533632	19451120	33184
311	6.656828	94007296	62533632	23985272	33184
312	1.260387	94007296	62533632	29352072	33184
313	1.878289	94007296	62533632	30610464	33184
314	2.499606	94007296	62533632	32294568	33184
315	3.718439	94007296	62533632	18274128	33184
316	3.941057	94007296	62533632	20802712	33184
317	4.498795	94007296	62533632	23755832	33184
318	5.198265	94007296	62533632	27135632	33184
319	5.60586	94007296	62533632	30943328	33184
320	7.461939	94007296	62533632	19253368	33184
321	6.86016	94007296	62533632	23922800	33184
322	1.301719	94007296	62533632	29450104	33184
323	1.94971	94007296	62533632	30748312	33184
324	2.798976	94007296	62533632	32477496	33184
325	3.807285	94007296	62533632	18518520	33184
326	3.876952	94007296	62533632	21123728	33184
327	4.71032	94007296	62533632	24162784	33184
328	5.121044	94007296	62533632	27643896	33184
329	5.834586	94007296	62533632	31561920	33184
330	7.274872	94007296	62533632	19918816	33184
331	7.759094	94007296	62533632	24722424	33184
332	1.332116	94007296	62533632	30409040	33184
333	2.226053	94007296	62533632	31741048	33184
334	2.658191	94007296	62533632	33519408	33184
335	3.844588	94007296	62533632	19506928	33184
336	4.056639	94007296	62533632	22181952	33184
337	4.61986	94007296	62533632	25307368	33184
338	5.279168	94007296	62533632	28883384	33184
339	6.170621	94007296	62533632	32911832	33184
340	7.429141	94007296	62533632	21263600	33184
341	7.311316	94007296	62533632	26202152	33184
342	1.385211	94007296	62533632	32048232	33184
343	2.059501	94007296	62533632	33417040	33184
344	3.350387	94007296	62533632	19057040	33184
345	3.648424	94007296	62533632	21344248	33184
346	4.08219	94007296	62533632	24092840	33184
347	4.777304	94007296	62533632	27309552	33184
348	5.911029	94007296	62533632	30983816	33184
349	7.482978	94007296	62533632	19270160	33184
350	7.164956	94007296	62533632	23875792	33184
351	7.900349	94007296	62533632	28949248	33184
352	2.232606	94007296	62533632	18717312	33184
353	2.169843	94007296	62533632	20122976	33184
354	2.807714	94007296	62533632	21999416	33184
355	3.71932	94007296	62533632	24349440	33184
356	4.408672	94007296	62533632	27171744	33184
357	4.982474	94007296	62533632	30468352	33184
358	5.59512	94007296	62533632	34248976	33184
359	6.850287	94007296	62533632	22239376	33184
360	7.25583	94007296	62533632	27001472	33184
361	7.70746	94007296	62533632	32256240	33184
362	1.463323	94007296	62533632	22451440	33184
363	2.199669	94007296	62533632	23932112	33184
364	2.909343	94007296	62533632	25908384	33184
365	3.656912	94007296	62533632	28381840	33184
366	4.353391	94007296	62533632	31353992	33184
367	5.500954	94007296	62533632	34825840	33184
368	6.52448	94007296	62533632	22471928	33184
369	6.764838	94007296	62533632	26946000	33184
370	7.235045	94007296	62533632	31927248	33184
371	8.721266	94007296	62533632	21424984	33184
372	1.495219	94007296	62533632	27932592	33184
373	2.236685	94007296	62533632	29456336	33184
374	3.182848	94007296	62533632	31483800	33184
375	3.710888	94007296	62533632	34018776	33184
376	5.080395	94007296	62533632	20882888	33184
377	5.877394	94007296	62533632	24443408	33184
378	5.898992	94007296	62533632	28515592	33184
379	6.856801	94007296	62533632	33107568	33184
380	8.455538	94007296	62533632	22197088	33184
381	8.467934	94007296	62533632	27816848	33184
382	1.530088	94007296	62533632	34479888	33184
383	2.999611	94007296	62533632	19855584	33184
384	3.268934	94007296	62533632	21930112	33184
385	3.789098	94007296	62533632	24526192	33184
386	4.600712	94007296	62533632	27651944	33184
387	5.513712	94007296	62533632	31299376	33184
388	6.062133	94007296	62533632	35469096	33184
389	7.485299	94007296	62533632	23806568	33184
390	7.809839	94007296	62533632	29030320	33184
391	8.337371	94007296	62533632	34782880	33184
392	1.586001	94007296	62533632	25315352	33184
393	2.338944	94007296	62533632	26906360	33184
394	3.11578	94007296	62533632	29029856	33184
395	3.871961	94007296	62533632	31687200	33184
396	4.652661	94007296	62533632	34880184	33184
397	6.56049	94007296	62533632	22386264	33184
398	6.418713	94007296	62533632	26652920	33184
399	7.00305	94007296	62533632	31458232	33184
400	8.775213	94007296	62533632	20957080	33184
401	9.107847	94007296	62533632	26844688	33184
402	1.604485	94007296	62533632	33827096	33184
403	2.621209	94007296	62533632	35454920	33184
404	3.842002	94007296	62533632	21319496	33184
405	3.975912	94007296	62533632	24044952	33184
406	4.764079	94007296	62533632	27311448	33184
407	5.730439	94007296	62533632	31127624	33184
408	6.573589	94007296	62533632	35493328	33184
409	7.98244	94007296	62533632	24113024	33184
410	8.223757	94007296	62533632	29582144	33184
411	8.779912	94007296	62533632	35612648	33184
412	1.654316	94007296	62533632	26388160	33184
413	2.495187	94007296	62533632	28052856	33184
414	3.262412	94007296	62533632	30274632	33184
415	4.29244	94007296	62533632	33055504	33184
416	5.814692	94007296	62533632	20440848	33184
417	5.94031	94007296	62533632	24349728	33184
418	6.50936	94007296	62533632	28812672	33184
419	7.54214	94007296	62533632	33840272	33184
420	9.358427	94007296	62533632	23350624	33184
421	9.026237	94007296	62533632	29508112	33184
422	2.399735	94007296	62533632	20549704	33184
423	2.530871	94007296	62533632	22251256	33184
424	3.332436	94007296	62533632	24522568	33184
425	4.158895	94007296	62533632	27364032	33184
426	5.297719	94007296	62533632	30779840	33184
427	5.860288	94007296	62533632	34766728	33184
428	7.751607	94007296	62533632	23175784	33184
429	7.737611	94007296	62533632	28320400	33184
430	8.974075	94007296	62533632	34043704	33184
431	10.70363	94007296	62533632	24230112	33184
432	1.724187	94007296	62533632	31692808	33184
433	2.574542	94007296	62533632	33431040	33184
434	3.423576	94007296	62533632	35750856	33184
435	5.24876	94007296	62533632	22425144	33184
436	5.112923	94007296	62533632	25913832	33184
437	6.219403	94007296	62533632	29988216	33184
438	7.024236	94007296	62533632	34648456	33184
439	8.563909	94007296	62533632	23798904	33184
440	8.547368	94007296	62533632	29642688	33184
441	9.640357	94007296	62533632	36072912	33184
442	1.762868	94007296	62533632	27343648	33184
443	2.618791	94007296	62533632	29118840	33184
444	3.485409	94007296	62533632	31487904	33184
445	4.35806	94007296	62533632	34452128	33184
446	6.149439	94007296	62533632	21949640	33184
447	6.32475	94007296	62533632	26111304	33184
448	6.971518	94007296	62533632	30874072	33184
449	8.110724	94007296	62533632	36235240	33184
450	9.787327	94007296	62533632	25854440	33184
451	10.178817	94007296	62533632	32425008	33184
452	1.801482	94007296	62533632	24379152	33184
453	2.681987	94007296	62533632	26191536	33184
454	3.569489	94007296	62533632	28609640	33184
455	4.451942	94007296	62533632	31639360	33184
456	5.331879	94007296	62533632	35274008	33184
457	7.386893	94007296	62533632	23376944	33184
458	7.170772	94007296	62533632	28233784	33184
459	8.23206	94007296	62533632	33701728	33184
460	10.057262	94007296	62533632	23807704	33184
461	10.106136	94007296	62533632	30505392	33184
462	1.921591	94007296	62533632	22894776	33184
463	2.746103	94007296	62533632	24743496	33184
464	3.644954	94007296	62533632	27210680	33184
465	4.55927	94007296	62533632	30297520	33184
466	5.518467	94007296	62533632	34005728	33184
467	7.668859	94007296	62533632	22398944	33184
468	7.485293	94007296	62533632	27352816	33184
469	8.188691	94007296	62533632	32931144	33184
470	10.48397	94007296	62533632	23299648	33184
471	10.316603	94007296	62533632	30139000	33184
472	2.688751	94007296	62533632	21946896	33184
473	2.81106	94007296	62533632	23832384	33184
474	3.724056	94007296	62533632	26348592	33184
475	4.64005	94007296	62533632	29500400	33184
476	5.613555	94007296	62533632	33282176	33184
477	7.896153	94007296	62533632	21905224	33184
478	7.667024	94007296	62533632	26965432	33184
479	8.358105	94007296	62533632	32658456	33184
480	10.517778	94007296	62533632	23205952	33184
481	10.479655	94007296	62533632	30173272	33184
482	2.774455	94007296	62533632	22136912	33184
483	2.896613	94007296	62533632	24059280	33184
484	3.819173	94007296	62533632	26624632	33184
485	4.729966	94007296	62533632	29834184	33184
486	5.904003	94007296	62533632	33689880	33184
487	8.251699	94007296	62533632	22370888	33184
488	7.617715	94007296	62533632	27522696	33184
489	8.634746	94007296	62533632	33325168	33184
490	10.962606	94007296	62533632	23942080	33184
491	10.705747	94007296	62533632	31051368	33184
492	1.97397	94007296	62533632	23950248	33184
493	2.90895	94007296	62533632	25909480	33184
494	3.869609	94007296	62533632	28523888	33184
495	5.055955	94007296	62533632	31794840	33184
496	5.778994	94007296	62533632	35727880	33184
497	8.182296	94007296	62533632	24256120	33184
498	7.843317	94007296	62533632	29508336	33184
499	8.814528	94007296	62533632	35418072	33184
500	10.943068	94007296	62533632	25886208	33184
501	10.933963	94007296	62533632	33123536	33184
502	1.993745	94007296	62533632	25935656	33184
503	3.189012	94007296	62533632	27931696	33184
504	3.95562	94007296	62533632	30598064	33184
505	4.928967	94007296	62533632	33932112	33184
506	5.934588	94007296	62533632	37935216	33184
507	7.828168	94007296	62533632	26263672	33184
508	7.890939	94007296	62533632	31612696	33184
509	9.142275	94007296	62533632	37632792	33184
510	11.224026	94007296	62533632	27967880	33184
511	10.886276	94007296	62533632	35341120	33184
512	2.037384	94007296	62533632	28048576	33184
513	3.026457	94007296	62533632	30081408	33184
514	4.256114	94007296	62533632	32794040	33184
515	5.030092	94007296	62533632	36187656	33184
516	7.222725	94007296	62533632	24178096	33184
517	7.309166	94007296	62533632	28940928	33184
518	8.563839	94007296	62533632	34393496	33184
519	10.482062	94007296	62533632	24634560	33184
520	10.10733	94007296	62533632	31454160	33184
521	13.022411	94007296	62533632	23494424	33184
522	2.079992	94007296	62533632	32393904	33184
523	3.091572	94007296	62533632	34463472	33184
524	4.113693	94007296	62533632	37226680	33184
525	6.251463	94007296	62533632	24490408	33184
526	6.531771	94007296	62533632	28642896	33184
527	7.188071	94007296	62533632	33499512	33184
528	9.865042	94007296	62533632	23401360	33184
529	9.244762	94007296	62533632	29645112	33184
530	10.496088	94007296	62533632	36586568	33184
531	12.724195	94007296	62533632	28063520	33184
532	2.159258	94007296	62533632	37129728	33184
533	4.273851	94007296	62533632	23133968	33184
534	4.436052	94007296	62533632	25944656	33184
535	5.295112	94007296	62533632	29461200	33184
536	6.495982	94007296	62533632	33684920	33184
537	7.520838	94007296	62533632	38616704	33184
538	9.434114	94007296	62533632	27913088	33184
539	9.631697	94007296	62533632	34264672	33184
540	12.134436	94007296	62533632	25526552	33184
541	11.748681	94007296	62533632	33305744	33184
542	2.163461	94007296	62533632	26837144	33184
543	3.213399	94007296	62533632	28984144	33184
544	4.257279	94007296	62533632	31844056	33184
545	5.349093	94007296	62533632	35421736	33184
546	7.914138	94007296	62533632	23853040	33184
547	7.912977	94007296	62533632	28873952	33184
548	8.512393	94007296	62533632	34616392	33184
549	10.951325	94007296	62533632	25280960	33184
550	10.970084	94007296	62533632	32467864	33184
551	13.533881	94007296	62533632	24869000	33184
552	2.416013	94007296	62533632	34268952	33184
553	3.269768	94007296	62533632	36449736	33184
554	5.553707	94007296	62533632	23365488	33184
555	5.665702	94007296	62533632	27004768	33184
556	6.48559	94007296	62533632	31389344	33184
557	7.95776	94007296	62533632	36506840	33184
558	10.527437	94007296	62533632	26380672	33184
559	10.21427	94007296	62533632	32980400	33184
560	12.626427	94007296	62533632	24736776	33184
561	12.327043	94007296	62533632	32834168	33184
562	2.237127	94007296	62533632	26886528	33184
563	3.56112	94007296	62533632	29123800	33184
564	4.411713	94007296	62533632	32109336	33184
565	5.50904	94007296	62533632	35849800	33184
566	7.963257	94007296	62533632	24461824	33184
567	7.96422	94007296	62533632	29700608	33184
568	8.868399	94007296	62533632	35690512	33184
569	11.486771	94007296	62533632	26524000	33184
570	11.071833	94007296	62533632	34025904	33184
571	14.199415	94007296	62533632	26608800	33184
572	2.265237	94007296	62533632	36431984	33184
573	3.401935	94007296	62533632	38706048	33184
574	5.917306	94007296	62533632	25555544	33184
575	5.613375	94007296	62533632	29351240	33184
576	6.952623	94007296	62533632	33917312	33184
577	7.920619	94007296	62533632	39249592	33184
578	10.337085	94007296	62533632	29069664	33184
579	10.158305	94007296	62533632	35924152	33184
580	12.817292	94007296	62533632	27642904	33184
581	12.631837	94007296	62533632	36034520	33184
582	2.52626	94007296	62533632	30080648	33184
583	3.469048	94007296	62533632	32393616	33184
584	4.573333	94007296	62533632	35483552	33184
585	5.934325	94007296	62533632	39342120	33184
586	8.207975	94007296	62533632	27698472	33184
587	8.318805	94007296	62533632	33107320	33184
588	9.575401	94007296	62533632	39293680	33184
589	12.015694	94007296	62533632	29911456	33184
590	11.458894	94007296	62533632	37658464	33184
591	14.117017	94007296	62533632	30063856	33184
592	3.566708	94007296	62533632	24048528	33184
593	3.638349	94007296	62533632	26396184	33184
594	4.799334	94007296	62533632	29536704	33184
595	6.173811	94007296	62533632	33455312	33184
596	6.966619	94007296	62533632	38161704	33184
597	9.794322	94007296	62533632	27602664	33184
598	9.518546	94007296	62533632	33887248	33184
599	12.774504	94007296	62533632	25394880	33184
600	11.935528	94007296	62533632	33263216	33184
601	14.809673	94007296	62533632	26427328	33184
602	2.396172	94007296	62533632	36721560	33184
603	3.590058	94007296	62533632	39106024	33184
604	5.969472	94007296	62533632	26120040	33184
605	5.912722	94007296	62533632	30102440	33184
606	7.109119	94007296	62533632	34882392	33184
607	10.160713	94007296	62533632	24862280	33184
608	9.687122	94007296	62533632	31261216	33184
609	10.698866	94007296	62533632	38446832	33184
610	13.518931	94007296	62533632	30295184	33184
611	13.466612	94007296	62533632	39100552	33184
612	2.666228	94007296	62533632	33304448	33184
613	3.848005	94007296	62533632	35732432	33184
614	4.803075	94007296	62533632	38964544	33184
615	7.540706	94007296	62533632	26890848	33184
616	7.276006	94007296	62533632	31753424	33184
617	8.705809	94007296	62533632	37432744	33184
618	11.411251	94007296	62533632	27911696	33184
619	11.198124	94007296	62533632	35215792	33184
620	13.781466	94007296	62533632	27625176	33184
621	13.729061	94007296	62533632	36562120	33184
622	2.471419	94007296	62533632	31341512	33184
623	3.676336	94007296	62533632	33799640	33184
624	5.111802	94007296	62533632	37080240	33184
625	7.619991	94007296	62533632	25357376	33184
626	7.55528	94007296	62533632	30285800	33184
627	8.785713	94007296	62533632	36038240	33184
628	11.603896	94007296	62533632	26848048	33184
629	11.246361	94007296	62533632	34257704	33184
630	14.124038	94007296	62533632	27001640	33184
631	13.762931	94007296	62533632	36068488	33184
632	2.525795	94007296	62533632	31060512	33184
633	3.732071	94007296	62533632	33555480	33184
634	4.950573	94007296	62533632	36884336	33184
635	6.426605	94007296	62533632	41053248	33184
636	8.911272	94007296	62533632	29716504	33184
637	8.688582	94007296	62533632	35554920	33184
638	12.509368	94007296	62533632	26555384	33184
639	11.659568	94007296	62533632	34072888	33184
640	14.554906	94007296	62533632	26942984	33184
641	13.924775	94007296	62533632	36145024	33184
642	2.555479	94007296	62533632	31368904	33184
643	3.796403	94007296	62533632	33900928	33184
644	5.060834	94007296	62533632	37278800	33184
645	8.121354	94007296	62533632	25714408	33184
646	7.66253	94007296	62533632	30788944	33184
647	9.115352	94007296	62533632	36713064	33184
648	11.716301	94007296	62533632	27694368	33184
649	11.703007	94007296	62533632	35322800	33184
650	14.924916	94007296	62533632	28236088	33184
651	14.02487	94007296	62533632	37572912	33184
652	2.596208	94007296	62533632	32740808	33184
653	3.889514	94007296	62533632	35309400	33184
654	5.121549	94007296	62533632	38747176	33184
655	8.487617	94007296	62533632	27112688	33184
656	7.708048	94007296	62533632	32261568	33184
657	9.216745	94007296	62533632	38280016	33184
658	12.152408	94007296	62533632	29185632	33184
659	11.618658	94007296	62533632	36926040	33184
660	14.701819	94007296	62533632	29743752	33184
661	14.378594	94007296	62533632	39223520	33184
662	2.637639	94007296	62533632	34376808	33184
663	3.909278	94007296	62533632	36982272	33184
664	5.424198	94007296	62533632	40460896	33184
665	8.132864	94007296	62533632	28663576	33184
666	7.83397	94007296	62533632	33889288	33184
667	9.340722	94007296	62533632	39985160	33184
668	12.13707	94007296	62533632	30832064	33184
669	11.727111	94007296	62533632	38680376	33184
670	14.746742	94007296	62533632	31396872	33184
671	14.638108	94007296	62533632	41018784	33184
672	2.89138	94007296	62533632	36125808	33184
673	3.9692	94007296	62533632	38767984	33184
674	7.091108	94007296	62533632	26393344	33184
675	6.608473	94007296	62533632	30802720	33184
676	7.914895	94007296	62533632	36103144	33184
677	11.428553	94007296	62533632	26667848	33184
678	11.044002	94007296	62533632	33737832	33184
679	11.934596	94007296	62533632	41696672	33184
680	14.84194	94007296	62533632	34189104	33184
681	16.892333	94007296	62533632	28630800	33184
682	2.704006	94007296	62533632	40201672	33184
683	5.779694	94007296	62533632	26862128	33184
684	5.360608	94007296	62533632	30436424	33184
685	6.920302	94007296	62533632	34911888	33184
686	8.059821	94007296	62533632	40282136	33184
687	11.195385	94007296	62533632	30543088	33184
688	10.956586	94007296	62533632	37712672	33184
689	13.852643	94007296	62533632	30023728	33184
690	13.65666	94007296	62533632	39002632	33184
691	16.619614	94007296	62533632	32899008	33184
692	2.986081	94007296	62533632	29496784	33184
693	4.079309	94007296	62533632	32212744	33184
694	5.428861	94007296	62533632	35843328	33184
695	6.849994	94007296	62533632	40376376	33184
696	10.198689	94007296	62533632	29801976	33184
697	9.731169	94007296	62533632	36160216	33184
698	12.969054	94007296	62533632	27908432	33184
699	12.546499	94007296	62533632	36088224	33184
700	15.902899	94007296	62533632	29678888	33184
701	15.010279	94007296	62533632	39697568	33184
702	2.847866	94007296	62533632	35595232	33184
703	4.140046	94007296	62533632	38351600	33184
704	5.519419	94007296	62533632	42024104	33184
705	8.557625	94007296	62533632	30398864	33184
706	8.276127	94007296	62533632	35916000	33184
707	10.139798	94007296	62533632	42362056	33184
708	12.741201	94007296	62533632	33377056	33184
709	12.50184	94007296	62533632	41667592	33184
710	15.791582	94007296	62533632	34647376	33184
711	17.686683	94007296	62533632	29526240	33184
712	3.048999	94007296	62533632	41589064	33184
713	5.807512	94007296	62533632	28243488	33184
714	5.876259	94007296	62533632	31983552	33184
715	6.977046	94007296	62533632	36671232	33184
716	8.580494	94007296	62533632	42311968	33184
717	11.601976	94007296	62533632	32686504	33184
718	11.510064	94007296	63057920	40232112	33184
719	14.567337	94007296	63582208	32742968	33184
720	14.104905	94007296	63582208	42211848	33184
721	17.3715	94007296	63582208	36345272	33184
722	2.907442	94007296	63582208	33250816	33184
723	4.269	94007296	63582208	36126368	33184
724	5.938014	94007296	63582208	39962696	33184
725	8.962186	94277632	63582208	28882584	33184
726	8.549027	94277632	63582208	34647008	33184
727	9.902591	94277632	63582208	41379600	33184
728	12.962935	94277632	63582208	32947312	33184
729	13.0793	94277632	63582208	41613000	33184
730	15.789763	94277632	63582208	35054328	33184
731	17.930043	94277632	63582208	30355584	33184
732	2.907744	94277632	63582208	42959904	33184
733	5.85478	94277632	63582208	29620360	33184
734	5.992859	94277632	63582208	33518672	33184
735	7.238962	94277632	63582208	38393472	33184
736	11.185814	94547968	63582208	28629152	33184
737	10.30438	94547968	63582208	35452744	33184
738	11.558915	94547968	63582208	43243280	33184
739	14.906474	94547968	63582208	35661816	33184
740	17.005497	94547968	63582208	30098920	33184
741	16.222281	94547968	63582208	40832528	33184
742	2.94096	94547968	63582208	37547888	33184
743	4.617826	94547968	63582208	40497184	33184
744	8.17215	94547968	64106496	28572696	33184
745	7.563629	94818304	64106496	33498832	33184
746	9.512767	94818304	64106496	39408216	33184
747	12.559462	94818304	64106496	30472016	33184
748	11.938632	94818304	64106496	38360944	33184
749	15.362787	94818304	64106496	31550152	33184
750	14.828465	94818304	64106496	41453344	33184
751	18.075512	94818304	64106496	36233080	33184
752	3.030429	94818304	64106496	33780432	33184
753	4.493144	94818304	64106496	36771600	33184
754	6.113654	94818304	64106496	40755104	33184
755	9.524971	94818304	64106496	29880064	33184
756	8.883749	95088640	64106496	35864152	33184
757	10.39434	95088640	64106496	42848496	33184
758	13.629195	95088640	64106496	34608888	33184
759	13.759741	95088640	64106496	43599968	33184
760	16.523006	95088640	64106496	37256312	33184
761	18.682486	95088640	64106496	32761472	33184
762	4.854445	95088640	64106496	29614624	33184
763	4.507889	95088640	64106496	32637512	33184
764	6.198659	95088640	64106496	36674104	33184
765	7.903065	95088640	64106496	41728856	33184
766	11.472563	95358976	64630784	31812880	33184
767	10.696274	95358976	64630784	38889784	33184
768	13.976517	95358976	64630784	31300024	33184
769	13.920202	95358976	64630784	40417576	33184
770	17.158786	95358976	64630784	34673872	33184
771	19.374899	95358976	64630784	30712672	33184
772	3.069849	95358976	64630784	43952280	33184
773	6.181032	95358976	64630784	30775944	33184
774	6.277616	95358976	64630784	34863944	33184
775	7.564447	95358976	64630784	39972472	33184
776	11.365516	95629312	64630784	30423080	33184
777	10.608929	95629312	64630784	37605976	33184
778	14.915927	95629312	64630784	30349248	33184
779	14.171721	95629312	64630784	39588344	33184
780	17.406781	95629312	64630784	34123072	33184
781	19.672212	95629312	64630784	30409504	33184
782	3.098191	95629312	64630784	43829904	33184
783	6.55295	95629312	64630784	30764880	33184
784	6.228886	95629312	64630784	34895792	33184
785	8.754075	95629312	64630784	40072344	33184
786	11.746018	95899648	65155072	30639184	33184
787	10.999175	95899648	65155072	37917648	33184
788	14.837055	95899648	65155072	30744792	33184
789	14.385373	95899648	65155072	40066624	33184
790	17.771626	95899648	65155072	34667704	33184
791	20.166768	95899648	65155072	31098752	33184
792	3.158723	95899648	65155072	44654888	33184
793	6.47773	95899648	65155072	31551928	33184
794	6.328213	95899648	65155072	35731872	33184
795	8.084885	95899648	65155072	40959680	33184
796	11.661229	96169984	65155072	31529256	33184
797	10.889907	96169984	65155072	38857008	33184
798	15.197172	96169984	65155072	31702744	33184
799	14.308561	96169984	65155072	41134840	33184
800	17.766692	96169984	65155072	35757104	33184
801	20.115756	96169984	65155072	32198936	33184
802	4.978694	96169984	65155072	29815440	33184
803	4.749951	96169984	65155072	32985512	33184
804	6.561598	96169984	65155072	37214440	33184
805	7.933719	96169984	65155072	42515864	33184
806	11.469739	96440320	65155072	32955192	33184
807	11.08023	96440320	65155072	40368992	33184
808	15.135757	96440320	65679360	33142832	33184
809	14.295537	96440320	65679360	42701888	33184
810	17.68006	96440320	65679360	37255432	33184
811	19.944249	96440320	65679360	33650808	33184
812	4.995361	96440320	65679360	31308104	33184
813	4.802696	96440320	65679360	34532144	33184
814	6.455656	96440320	65679360	38810296	33184
815	8.400062	96440320	65679360	44160864	33184
816	11.719758	96710656	65679360	34517560	33184
817	11.598594	96710656	65679360	42032336	33184
818	15.015552	96710656	65679360	34686296	33184
819	14.579398	96710656	65679360	44345896	33184
820	17.682347	96710656	65679360	38876688	33184
821	20.381521	96710656	65679360	35175464	33184
822	3.267963	96710656	65679360	34305184	33184
823	5.029034	96710656	65679360	37548928	33184
824	6.47081	96710656	65679360	41876072	33184
825	10.510706	96980992	65679360	31549072	33184
826	9.914404	96980992	65679360	38047512	33184
827	11.603634	96980992	65679360	45632976	33184
828	14.867785	96980992	65679360	37958464	33184
829	17.015228	96980992	65679360	32387160	33184
830	16.636398	96980992	65679360	43242608	33184
831	19.708678	96980992	65679360	39127768	33184
832	3.287231	96980992	66203648	37817872	33184
833	5.151351	96980992	66203648	41098432	33184
834	6.565651	96980992	66203648	45476448	33184
835	10.704714	97251328	66203648	34758584	33184
836	10.353939	97251328	66203648	41332160	33184
837	13.898005	97251328	66203648	33247936	33184
838	13.517952	97251328	66203648	42036360	33184
839	17.038953	97251328	66203648	36079544	33184
840	19.468303	97251328	66727936	32025336	33184
841	18.232151	97251328	66727936	44115808	33184
842	3.541201	97251328	66727936	42395552	33184
843	5.186715	97251328	66727936	45717376	33184
844	8.543581	97521664	66727936	33969776	33184
845	8.273629	97521664	66727936	39504416	33184
846	10.129164	97521664	66727936	46151984	33184
847	13.580205	97521664	66727936	37552872	33184
848	13.250067	97521664	66727936	46425144	33184
849	16.860895	97521664	66727936	40065128	33184
850	19.248945	97521664	66727936	35691152	33184
851	21.730611	97521664	66727936	33026480	33184
852	5.360041	97521664	66727936	31530104	33184
853	5.04078	97521664	66727936	34915320	33184
854	6.889433	97521664	66727936	39442224	33184
855	8.342023	97521664	66727936	45093608	33184
856	12.255477	97792000	66727936	35812184	33184
857	11.932039	97792000	66727936	43727584	33184
858	15.458109	97792000	66727936	36797968	33184
859	15.799725	97792000	66727936	46995496	33184
860	19.245316	97792000	66727936	41896120	33184
861	21.296375	97792000	67252224	38610056	33184
862	3.414046	97792000	67252224	38114488	33184
863	5.300406	97792000	67252224	41536320	33184
864	7.210737	97792000	67252224	46102440	33184
865	10.595402	98062336	67252224	35666840	33184
866	10.487842	98062336	67252224	42528752	33184
867	14.083356	98062336	67252224	34782592	33184
868	13.841243	98062336	67252224	43931944	33184
869	17.482169	98062336	67252224	38252312	33184
870	20.104781	98062336	67252224	34495360	33184
871	18.887317	98062336	67252224	47097856	33184
872	3.463994	98062336	67252224	45736376	33184
873	7.230546	98332672	67252224	33134152	33184
874	7.290477	98332672	67252224	37752480	33184
875	9.02637	98332672	67252224	43527400	33184
876	12.711917	98332672	67252224	34622856	33184
877	11.983149	98332672	67252224	42712736	33184
878	16.35124	98332672	67252224	36224576	33184
879	15.96349	98332672	67252224	46655640	33184
880	19.315479	98332672	67252224	41922240	33184
881	21.781499	98603008	67252224	38988224	33184
882	3.487262	98603008	67252224	38858904	33184
883	5.416894	98603008	67252224	42368136	33184
884	7.04509	98603008	67252224	47040504	33184
885	10.993195	98603008	67776512	36661728	33184
886	10.583519	98603008	67776512	43678968	33184
887	14.870131	98603008	67776512	35975096	33184
888	14.08692	98603008	67776512	45322264	33184
889	18.072326	98603008	67776512	39799712	33184
890	20.471778	98873344	67776512	36166200	33184
891	22.794522	98873344	67776512	34253048	33184
892	5.500104	98873344	67776512	33357496	33184
893	5.259141	98873344	67776512	36893504	33184
894	7.415552	98873344	67776512	41605592	33184
895	9.578998	98873344	67776512	47502784	33184
896	12.807081	98873344	67776512	38383856	33184
897	12.343115	98873344	67776512	46648112	33184
898	16.18578	98873344	67776512	39905984	33184
899	18.689181	99143680	67776512	35242704	33184
900	17.946939	99143680	67776512	47078120	33184
901	21.572733	99143680	67776512	43801328	33184
902	3.788563	99143680	67776512	43416208	33184
903	5.569059	99143680	67776512	46989232	33184
904	9.394771	99143680	68300800	35679880	33184
905	9.153607	99143680	68300800	41636680	33184
906	13.09477	99143680	68300800	33248728	33184
907	12.721831	99143680	68300800	41598328	33184
908	16.915126	99414016	68300800	35616656	33184
909	16.229138	99414016	68300800	46377208	33184
910	19.939899	99414016	68300800	42157176	33184
911	22.420272	99414016	68300800	39732232	33184
912	3.617818	99414016	68300800	40110000	33184
913	5.377346	99414016	68300800	43718696	33184
914	7.409125	99414016	68300800	48528968	33184
915	11.27894	99684352	68825088	38275352	33184
916	10.970239	99684352	68825088	45511296	33184
917	14.686187	99684352	68825088	37923088	33184
918	15.113895	99684352	68825088	47566544	33184
919	18.452875	99684352	68825088	42317392	33184
920	21.104602	99684352	68825088	38980216	33184
921	23.31572	99684352	68825088	37205664	33184
922	3.642159	99954688	68825088	38174000	33184
923	5.418701	99954688	68825088	41817000	33184
924	7.498646	99954688	68825088	46709328	33184
925	11.479755	99954688	69349376	36797104	33184
926	11.190142	99954688	69349376	44093544	33184
927	15.325772	99954688	69349376	36905896	33184
928	14.778033	99954688	69349376	46644072	33184
929	19.070211	99954688	69349376	41559584	33184
930	21.503753	100225024	69349376	38382632	33184
931	23.39367	100225024	69349376	36857320	33184
932	3.699153	100225024	69349376	38083264	33184
933	5.526769	100225024	69349376	41762832	33184
934	7.344167	100225024	69349376	46682832	33184
935	11.746688	100225024	69349376	36948728	33184
936	11.244725	100225024	69349376	44329016	33184
937	15.252378	100225024	69349376	37249696	33184
938	15.080735	100225024	69349376	47099296	33184
939	18.695743	100495360	69349376	42047704	33184
940	21.626709	100495360	69349376	38999472	33184
941	23.552854	100495360	69349376	37522824	33184
942	3.714355	100495360	69349376	38834776	33184
943	5.562522	100495360	69349376	42567320	33184
944	7.638816	100495360	69349376	47537960	33184
945	12.239822	100495360	69873664	37723592	33184
946	11.304356	100495360	69873664	45186984	33184
947	15.562357	100765696	69873664	38049752	33184
948	15.072689	100765696	69873664	48000480	33184
949	18.998015	100765696	69873664	43001872	33184
950	21.339199	100765696	69873664	39905344	33184
951	24.309839	100765696	69873664	38505528	33184
952	3.759064	100765696	69873664	39951200	33184
953	5.650746	100765696	69873664	43716216	33184
954	7.527052	100765696	69873664	48723064	33184
955	11.820963	101036032	69873664	38868104	33184
956	11.440831	101036032	69873664	46394616	33184
957	15.685729	101036032	69873664	39245808	33184
958	15.217893	101036032	69873664	49304864	33184
959	19.309385	101036032	69873664	44270264	33184
960	21.46152	101036032	69873664	41157792	33184
961	23.818157	101036032	69873664	39796416	33184
962	3.807575	101036032	69873664	41203544	33184
963	5.682338	101036032	69873664	44993584	33184
964	7.699124	101036032	69873664	50059640	33184
965	12.06625	101306368	70397952	40217416	33184
966	11.573973	101306368	70397952	47815096	33184
967	15.889929	101306368	70397952	40635536	33184
968	18.3823	101306368	70397952	35662264	33184
969	17.307291	101306368	70397952	47067112	33184
970	21.42908	101306368	70397952	43759152	33184
971	23.982445	101306368	70397952	42205288	33184
972	3.83983	101306368	70397952	43473608	33184
973	5.763682	101306368	70397952	47300600	33184
974	10.418242	101576704	70397952	36558952	33184
975	9.755391	101576704	70397952	42942760	33184
976	11.759449	101576704	70397952	50611344	33184
977	15.645487	101576704	70397952	43180808	33184
978	18.333385	101576704	70397952	38015056	33184
979	17.407128	101576704	70397952	49529880	33184
980	21.78495	101576704	70397952	46040376	33184
981	24.459015	101576704	70922240	44305624	33184
982	3.892538	101576704	70922240	45536904	33184
983	5.766702	101576704	70922240	49401904	33184
984	10.266751	101847040	70922240	38540176	33184
985	9.903337	101847040	70922240	44988680	33184
986	14.339188	101847040	70922240	37086880	33184
987	13.677439	101847040	70922240	46118936	33184
988	18.964886	101847040	70922240	40672504	33184
989	21.712405	101847040	70922240	37319952	33184
990	19.915294	101847040	70922240	50241840	33184
991	24.142676	101847040	70922240	48137440	33184
992	3.933558	102117376	70922240	49079648	33184
993	8.506366	102117376	70922240	36961176	33184
994	8.056881	102117376	70922240	42169576	33184
995	9.831991	102117376	70922240	48678200	33184
996	14.719492	102117376	70922240	40438096	33184
997	14.197324	102117376	70922240	49556056	33184
998	18.267197	102117376	70922240	43822488	33184
999	20.777414	102387712	71446528	40146616	33184
1000	23.956988	102387712	71446528	38270256	33184
