x	Duration	RSS	HeapTotal	HeapUsed	External
0	NA	97394688	63057920	14415256	33184
1	0.483272	97394688	63057920	14467544	33184
2	0.435504	97394688	63057920	14535504	33184
3	0.487402	97394688	63057920	14628200	33184
4	0.592773	97394688	63057920	14747304	33184
5	0.909889	97394688	63057920	14894576	33184
6	0.581639	97394688	63057920	15070704	33184
7	0.663498	97394688	63057920	15276920	33184
8	0.758345	97394688	63057920	15514504	33184
9	0.853762	97394688	63057920	15785864	33184
10	1.141096	97394688	63057920	16091304	33184
11	1.525757	97394688	63057920	16432064	33184
12	0.280875	97394688	63057920	16801376	33184
13	0.406289	97394688	63057920	16911672	33184
14	0.854383	97394688	63057920	17064824	33184
15	0.638157	97394688	63057920	17254312	33184
16	0.800084	97394688	63057920	17496384	33184
17	0.824978	97394688	63057920	17770088	33184
18	0.63121	97394688	63057920	18087568	33184
19	0.578368	97394688	63057920	18450880	33184
20	0.645834	97394688	63057920	18861472	33184
21	0.719981	97394688	63057920	19320520	33184
22	0.172574	97394688	63057920	19839160	33184
23	0.456324	97394688	63057920	19988840	33184
24	0.368139	97394688	63057920	20190624	33184
25	0.767992	97394688	63057920	20445840	33184
26	0.563581	97394688	63057920	20756072	33184
27	0.584649	97394688	63057920	21122104	33184
28	0.739274	97394688	63057920	21547944	33184
29	0.968728	97394688	63057920	22029328	33184
30	0.83672	97394688	63057920	22571088	33184
31	0.942188	97394688	63057920	23173960	33184
32	0.229282	97394688	63057920	23861944	33184
33	0.316129	97394688	63057920	24048416	33184
34	0.614114	97394688	63057920	24299248	33184
35	0.511262	97394688	63057920	24615760	33184
36	0.678902	97394688	63057920	24999584	33184
37	0.786544	97394688	63057920	25451544	33184
38	0.899934	97394688	63057920	25972728	33184
39	1.024	97394688	63057920	26564496	33184
40	1.873856	97394688	63057920	27228936	33184
41	1.258144	97394688	63057920	27966664	33184
42	0.249729	97394688	63057920	28814208	33184
43	0.375901	97394688	63057920	29037448	33184
44	0.490928	97394688	63057920	29338448	33184
45	0.657063	97394688	63057920	29719768	33184
46	0.726329	97394688	63057920	30181736	33184
47	1.067641	97394688	63057920	30725816	33184
48	1.682097	97394688	63057920	15078448	33184
49	1.2013	97394688	63057920	15790376	33184
50	1.4677	97394688	63057920	16608176	33184
51	1.329998	97394688	63057920	17493784	33184
52	0.27769	97394688	63057920	18518624	33184
53	0.420865	97394688	63057920	18783936	33184
54	0.552974	97394688	63057920	19139920	33184
55	0.682459	97394688	63057920	19587784	33184
56	0.817569	97394688	63057920	20129288	33184
57	1.136695	97394688	63057920	20765120	33184
58	1.115562	97394688	63057920	21496520	33184
59	1.229371	97394688	63057920	22324688	33184
60	1.373989	97394688	63057920	23251912	33184
61	1.544052	97394688	63057920	24278384	33184
62	0.311695	97394688	63057920	25470832	33184
63	0.483564	97394688	63057920	25772984	33184
64	0.85862	97394688	63057920	26178000	33184
65	0.786693	97394688	63057920	26687144	33184
66	0.948142	97394688	63057920	27304896	33184
67	1.084497	97394688	63057920	28026592	33184
68	1.552507	97394688	63057920	28856136	33184
69	1.41507	97394688	63057920	29795504	33184
70	1.555368	97394688	63057920	30844960	33184
71	2.488104	97394688	63057920	15803960	33184
72	0.382778	97394688	63057920	17155520	33184
73	0.576086	97394688	63057920	17494296	33184
74	0.756588	97394688	63057920	17948232	33184
75	0.943618	97394688	63057920	18518528	33184
76	1.143526	97394688	63057920	19207080	33184
77	1.316168	97394688	63057920	20014296	33184
78	1.503214	97394688	63057920	20941704	33184
79	1.707509	97394688	63057920	21990248	33184
80	1.870808	97394688	63057920	23162448	33184
81	2.022048	97394688	63057920	24459336	33184
82	0.591159	97394688	63057920	25973360	33184
83	0.607815	97394688	63057920	26348832	33184
84	0.771876	97394688	63057920	26853960	33184
85	0.962581	97394688	63057920	27487736	33184
86	1.157578	97394688	63057920	28252992	33184
87	1.329245	97394688	63057920	29150496	33184
88	1.524182	97394688	63057920	30181448	33184
89	1.727618	97394688	63057920	31347056	33184
90	2.605001	97394688	63057920	16332416	33184
91	2.449888	97394688	63057920	17774168	33184
92	0.428828	97394688	63057920	19465736	33184
93	0.641357	97394688	63057920	19887744	33184
94	1.024433	97394688	63057920	20452656	33184
95	1.076299	97394688	63057920	21161856	33184
96	1.311635	97394688	63057920	22016800	33184
97	1.472462	97394688	63057920	23018360	33184
98	1.833072	97394688	63057920	24167680	33184
99	2.04425	97394688	63057920	25466152	33184
100	2.291193	97394688	63057920	26915672	33184
101	2.515285	97394688	63057920	28516976	33184
102	0.50062	97394688	63057920	30392824	33184
103	0.756074	97394688	63057920	30851632	33184
104	0.996443	97394688	63057920	31465632	33184
105	1.861008	97394688	63057920	15901176	33184
106	1.375858	97394688	63057920	16829696	33184
107	1.633076	97394688	63057920	17917136	33184
108	1.823692	97394688	63057920	19164576	33184
109	2.057019	97394688	63057920	20573312	33184
110	2.284054	97394688	63057920	22145544	33184
111	2.717043	97394688	63057920	23881536	33184
112	0.498484	97394688	63057920	25917600	33184
113	0.752441	97394688	63057920	26413200	33184
114	0.99038	97394688	63057920	27076248	33184
115	1.253016	97394688	63057920	27908192	33184
116	1.521081	97394688	63057920	28910312	33184
117	1.907736	97394688	63057920	30085184	33184
118	1.993543	97394688	63057920	31430864	33184
119	2.943846	97394688	63057920	16609448	33184
120	2.651612	97394688	63057920	18304488	33184
121	3.276419	97394688	63057920	20177112	33184
122	0.540728	97394688	63057920	22372360	33184
123	0.810428	97394688	63057920	22906760	33184
124	1.07506	97394688	63057920	23618880	33184
125	1.325633	97394688	63057920	24512024	33184
126	1.583214	97394688	63057920	25587792	33184
127	1.860062	97394688	63057920	26847024	33184
128	2.294429	97394688	63057920	28292872	33184
129	2.601868	97394688	63057920	29922632	33184
130	2.860404	97394688	63057920	31740304	33184
131	3.580201	97394688	63057920	17364944	33184
132	0.809995	97394688	63057920	19724224	33184
133	0.867345	97394688	63057920	20293504	33184
134	1.139909	97394688	63057920	21054736	33184
135	1.461633	97394688	63057920	22009520	33184
136	1.755367	97394688	63057920	23158880	33184
137	2.00104	97394688	63057920	24504048	33184
138	2.280885	97394688	63057920	26046080	33184
139	2.804754	97394688	63057920	27786152	33184
140	2.856267	97394688	63057920	29726704	33184
141	3.30819	97394688	63057920	31870176	33184
142	0.83695	97394688	63057920	18007920	33184
143	0.944948	97394688	63057920	18619496	33184
144	1.215037	97394688	63057920	19437128	33184
145	1.539681	97394688	63057920	20462128	33184
146	1.829535	97394688	63057920	21696088	33184
147	2.144748	97394688	63057920	23139928	33184
148	2.572705	97394688	63057920	24795736	33184
149	2.950435	97394688	63057920	26662776	33184
150	3.033061	97394688	63057920	28744224	33184
151	3.459503	97394688	63057920	31040360	33184
152	0.657753	97394688	63057920	17473584	33184
153	0.978495	97394688	63057920	18121904	33184
154	1.288101	97394688	63057920	18988592	33184
155	1.609343	97394688	63057920	20074920	33184
156	1.916253	97394688	63057920	21382648	33184
157	2.444557	97394688	63057920	22912312	33184
158	2.765394	97394688	63057920	24665248	33184
159	2.893085	97394688	63057920	26642672	33184
160	3.204822	97394688	63057920	28846872	33184
161	3.993156	97394688	63057920	31278056	33184
162	0.889586	97394688	63057920	17857392	33184
163	1.050988	97394688	63057920	18542536	33184
164	1.617059	97394688	63057920	19458384	33184
165	1.791676	97394688	63057920	20609376	33184
166	2.032469	97394688	63057920	21990648	33184
167	2.585724	97394688	63057920	23606312	33184
168	2.716123	97394688	63057920	25457424	33184
169	3.048508	97394688	63057920	27545320	33184
170	3.3905	97394688	63057920	29872136	33184
171	4.574271	97394688	63057920	16348464	33184
172	0.73774	97394688	63057920	19377648	33184
173	1.090519	97394688	63057920	20099704	33184
174	1.439698	97394688	63057920	21064648	33184
175	1.800212	97394688	63057920	22273688	33184
176	2.149812	97394688	63057920	23728536	33184
177	2.508393	97394688	63057920	25430104	33184
178	2.910404	97394688	63057920	27379680	33184
179	3.307041	97394688	63057920	29578024	33184
180	3.80451	97394688	63057920	32031736	33184
181	4.60282	97394688	63057920	18369336	33184
182	0.768174	97394688	63057920	21574720	33184
183	1.145221	97394688	63057920	22346208	33184
184	1.588694	97394688	63057920	23379048	33184
185	1.897528	97394688	63057920	24670200	33184
186	2.270326	97394688	63057920	26223728	33184
187	2.634903	97394688	63057920	28040440	33184
188	3.035458	97394688	63057920	30121120	33184
189	3.969664	97394688	63057920	16355664	33184
190	4.014572	97394688	63057920	18969648	33184
191	4.488506	97394688	63057920	21851400	33184
192	0.802115	97394688	63057920	25255224	33184
193	1.216788	97394688	63057920	26063360	33184
194	1.589828	97394688	63057920	27143032	33184
195	2.204319	97394688	63057920	28495736	33184
196	2.380158	97394688	63057920	30122912	33184
197	2.992426	97394688	63057920	32025304	33184
198	3.723915	97394688	63057920	17856448	33184
199	3.790855	97394688	63057920	20313136	33184
200	4.108678	97394688	63057920	23049768	33184
201	4.366123	97394688	63057920	26066728	33184
202	0.849282	97394688	63057920	29630688	33184
203	1.381057	97394688	63057920	30475576	33184
204	1.702784	97394688	63057920	31606016	33184
205	2.591687	97394688	63057920	16744296	33184
206	2.816124	97394688	63057920	18444976	33184
207	2.900879	97394688	63057920	20433328	33184
208	3.318458	97394688	63057920	22710360	33184
209	3.721808	97394688	63057920	25277432	33184
210	4.42464	97394688	63057920	28136640	33184
211	4.679913	97394688	63057920	31288520	33184
212	0.928843	97394688	63057920	18766848	33184
213	1.392693	97394688	63057920	19648608	33184
214	1.837593	97394688	63057920	20826528	33184
215	2.2938	97394688	63057920	22301760	33184
216	2.744178	97394688	63057920	24076728	33184
217	3.294216	97394688	63057920	26151288	33184
218	3.532489	97394688	63057920	28526520	33184
219	3.904558	97394688	63057920	31204024	33184
220	5.153719	97394688	63057920	17969360	33184
221	5.012509	97394688	63057920	21256088	33184
222	0.919901	97394688	63057920	25137024	33184
223	1.369861	97394688	63057920	26055544	33184
224	1.822432	97394688	63057920	27282504	33184
225	2.253137	97394688	63057920	28820240	33184
226	2.708124	97394688	63057920	30668184	33184
227	3.905772	97394688	63057920	16701896	33184
228	3.830696	97394688	63057920	19176720	33184
229	4.297933	97394688	63057920	21970528	33184
230	4.849119	97394688	63057920	25081008	33184
231	4.983458	97394688	63057920	28511384	33184
232	0.963576	97394688	63057920	32569304	33184
233	1.80603	97394688	63057920	17161896	33184
234	1.894692	97394688	63057920	18449512	33184
235	2.354885	97394688	63057920	20061816	33184
236	2.819231	97394688	63057920	22000728	33184
237	3.508617	97394688	63057920	24266984	33184
238	3.841473	97394688	63057920	26861568	33184
239	4.240815	97394688	63057920	29785912	33184
240	6.035471	97394688	63057920	17035888	33184
241	5.505001	97394688	63057920	20624504	33184
242	1.00204	97394688	63057920	24866352	33184
243	1.483019	97394688	63057920	25867160	33184
244	1.970685	97394688	63057920	27203712	33184
245	2.447057	97394688	63057920	28877456	33184
246	3.163494	97394688	63057920	30889976	33184
247	3.970386	97394688	63057920	17118648	33184
248	3.915977	97394688	63057920	19814000	33184
249	4.619059	97394688	63057920	22848744	33184
250	4.902739	97394688	63057920	26231016	33184
251	5.395265	97394688	63057920	29954320	33184
252	1.081119	97394688	63057920	18355344	33184
253	1.639278	97394688	63057920	19392976	33184
254	2.279009	97394688	63057920	20778720	33184
255	2.544261	97394688	63057920	22513768	33184
256	3.043551	97394688	63057920	24599992	33184
257	3.554955	97394688	63057920	27037864	33184
258	4.275417	97394688	63057920	29828760	33184
259	4.597655	97394688	63057920	32974648	33184
260	5.71049	97394688	63057920	20084176	33184
261	5.905059	97394688	63057920	23943160	33184
262	1.296613	97394688	63057920	28503320	33184
263	1.611782	97394688	63057920	29577744	33184
264	2.118528	97394688	63057920	31012520	33184
265	2.650074	97394688	63057920	32809096	33184
266	3.837195	97394688	63057920	18615792	33184
267	3.749923	97394688	63057920	21139608	33184
268	4.41459	97394688	63057920	24028688	33184
269	5.035653	97394688	63057920	27289496	33184
270	5.317309	97394688	63057920	30915456	33184
271	6.646735	97394688	63057920	18806528	33184
272	1.111764	97394688	63057920	23539048	33184
273	1.657402	97394688	63057920	24650376	33184
274	2.216434	97394688	63057920	26134184	33184
275	2.745545	97394688	63057920	27992064	33184
276	3.278072	97394688	63057920	30225456	33184
277	3.838291	97394688	63057920	32835152	33184
278	5.168558	97394688	63057920	19497592	33184
279	5.022459	97394688	63057920	22866744	33184
280	5.682044	97394688	63057920	26615240	33184
281	6.012678	97394688	63057920	30747136	33184
282	1.152299	97394688	63057920	19590352	33184
283	1.710673	97394688	63057920	20738448	33184
284	2.317943	97394688	63057920	22271408	33184
285	2.894245	97394688	63057920	24190528	33184
286	3.589999	97394688	63057920	26497648	33184
287	4.173269	97394688	63057920	29193280	33184
288	5.203979	97394688	63057920	32283248	33184
289	6.00216	97394688	63057920	19505384	33184
290	6.221526	97394688	63057920	23377440	33184
291	6.506023	97394688	63057920	27645608	33184
292	1.407136	97394688	63057920	32692760	33184
293	2.212191	97394688	63057920	17607888	33184
294	2.468682	97394688	63057920	19189864	33184
295	3.259634	97394688	63057920	21170328	33184
296	3.505088	97394688	63057920	23550888	33184
297	4.07923	97394688	63057920	26332152	33184
298	5.608717	97394688	63057920	29515640	33184
299	5.335103	97394688	63057920	33115216	33184
300	6.592441	97394688	63057920	20767040	33184
301	6.444422	97394688	63057920	25165008	33184
302	1.231543	97394688	63057920	30372080	33184
303	1.822476	97394688	63057920	31593616	33184
304	2.423767	97394688	63057920	33224616	33184
305	3.660276	97394688	63057920	18983664	33184
306	3.622614	97394688	63057920	21437736	33184
307	4.264812	97394688	63057920	24305560	33184
308	5.012797	97394688	63057920	27587144	33184
309	5.406735	97394688	63057920	31286704	33184
310	6.820111	97394688	63057920	19378888	33184
311	6.964903	97394688	63057920	23911824	33184
312	1.271037	97394688	63057920	29278568	33184
313	1.881176	97394688	63057920	30537064	33184
314	2.497668	97394688	63057920	32217064	33184
315	3.989867	97394688	63057920	18203760	33184
316	3.943679	97394688	63057920	20731448	33184
317	4.389983	97394688	63057920	23684616	33184
318	5.190633	97394688	63057920	27069712	33184
319	5.588429	97394688	63057920	30879736	33184
320	7.262579	97394688	63057920	19189688	33184
321	7.181378	97394688	63057920	23862416	33184
322	1.305662	97394688	63057920	29391048	33184
323	1.943741	97394688	63057920	30686256	33184
324	2.585632	97394688	63057920	32415376	33184
325	3.862121	97394688	63057920	18463384	33184
326	3.975567	97394688	63057920	21064728	33184
327	4.775888	97394688	63057920	24104592	33184
328	5.112319	97394688	63057920	27582608	33184
329	5.961092	97394688	63057920	31500360	33184
330	7.232701	97394688	63057920	19868984	33184
331	7.385011	97394688	63057920	24671928	33184
332	1.338817	97394688	63057920	30363640	33184
333	2.207736	97394688	63057920	31695640	33184
334	2.649868	97394688	63057920	33473888	33184
335	3.963786	97394688	63057920	19464432	33184
336	4.202598	97394688	63057920	22139488	33184
337	4.610601	97394688	63057920	25268992	33184
338	5.277147	97394688	63057920	28845008	33184
339	5.935613	97394688	63057920	32873560	33184
340	7.696053	97394688	63057920	21227720	33184
341	7.480745	97394688	63057920	26165808	33184
342	1.377887	97394688	63057920	32011944	33184
343	2.047043	97394688	63057920	33380800	33184
344	3.36285	97394688	63057920	19021024	33184
345	3.615112	97394688	63057920	21308928	33184
346	4.092491	97394688	63057920	24057520	33184
347	5.042008	97394688	63057920	27268240	33184
348	5.641634	97394688	63057920	30942496	33184
349	7.195753	97394688	63057920	19230960	33184
350	6.873148	97394688	63057920	23836656	33184
351	7.484339	97394688	63057920	28910320	33184
352	2.231376	97394688	63057920	18678376	33184
353	2.210943	97394688	63057920	20084008	33184
354	2.921524	97394688	63057920	21960496	33184
355	3.612556	97394688	63057920	24310984	33184
356	4.40573	97394688	63057920	27133136	33184
357	4.863263	97394688	63057920	30429728	33184
358	5.590228	97394688	63057920	34210336	33184
359	7.085301	97394688	63057920	22202360	33184
360	7.392116	97394688	63057920	26964544	33184
361	7.686158	97394688	63057920	32215456	33184
362	1.461882	97394688	63057920	22411360	33184
363	2.411293	97394688	63057920	23892032	33184
364	2.874643	97394688	63057920	25868304	33184
365	3.603897	97394688	63057920	28341776	33184
366	4.298848	97394688	63057920	31314544	33184
367	5.237276	97394688	63057920	34787336	33184
368	6.31433	97394688	63057920	22435808	33184
369	6.681511	97394688	63057920	26910032	33184
370	7.180371	97394688	63057920	31888584	33184
371	8.843502	97394688	63057920	21387160	33184
372	1.490141	97394688	63057920	27895960	33184
373	2.239466	97394688	63057920	29414000	33184
374	3.181318	97394688	63057920	31447720	33184
375	3.724608	97394688	63057920	33983672	33184
376	5.224917	97394688	63057920	20848328	33184
377	5.386457	97394688	63057920	24405664	33184
378	6.197941	97394688	63057920	28477808	33184
379	6.869725	97394688	63057920	33072664	33184
380	8.484831	97394688	63057920	22097920	33184
381	8.363647	97394688	63057920	27715488	33184
382	1.526897	97394688	63057920	34378304	33184
383	2.991064	97394688	63057920	19700576	33184
384	3.384097	97394688	63057920	21774984	33184
385	4.009797	97394688	63057920	24371184	33184
386	4.580842	97394688	63057920	27490584	33184
387	5.644408	97394688	63057920	31133872	33184
388	6.331064	97394688	63057920	35313176	33184
389	7.810436	97394688	63057920	23725656	33184
390	7.829129	97394688	63057920	28949344	33184
391	8.320852	97394688	63057920	34701696	33184
392	1.595453	97394688	63057920	25301312	33184
393	2.544157	97394688	63057920	26892400	33184
394	3.119856	97394688	63057920	29015896	33184
395	3.870057	97394688	63057920	31673376	33184
396	4.912685	97394688	63057920	34866344	33184
397	6.174939	97394688	63057920	22359912	33184
398	6.199764	97394688	63057920	26626536	33184
399	7.054774	97394688	63057920	31431992	33184
400	9.042795	97394688	63057920	20928608	33184
401	9.013181	97394688	63057920	26817064	33184
402	1.617716	97394688	63057920	33799416	33184
403	2.391314	97394688	63057920	35427248	33184
404	3.949797	97394688	63057920	21291440	33184
405	4.258515	97394688	63057920	24020464	33184
406	4.980429	97394688	63057920	27287128	33184
407	5.604557	97394688	63057920	31102432	33184
408	6.567941	97394688	63057920	35469680	33184
409	8.112548	97394688	63057920	24088224	33184
410	7.938702	97394688	63057920	29557336	33184
411	8.955058	97394688	63057920	35586544	33184
412	1.663272	97394688	63057920	26365816	33184
413	2.45119	97394688	63057920	28030512	33184
414	3.25301	97394688	63057920	30252288	33184
415	4.071473	97394688	63057920	33039936	33184
416	5.912385	97394688	63057920	20425304	33184
417	6.052156	97394688	63057920	24326264	33184
418	6.494467	97394688	63057920	28789312	33184
419	7.548629	97394688	63057920	33815576	33184
420	9.236675	97394688	63057920	23319224	33184
421	9.530922	97394688	63057920	29476712	33184
422	2.671437	97394688	63057920	20518304	33184
423	2.773393	97394688	63057920	22219856	33184
424	3.329657	97394688	63057920	24491168	33184
425	4.156814	97394688	63057920	27332632	33184
426	4.983288	97394688	63057920	30748440	33184
427	5.838429	97394688	63057920	34735328	33184
428	7.950195	97394688	63057920	23144384	33184
429	7.958287	97394688	63057920	28289000	33184
430	8.329849	97394688	63057920	34012304	33184
431	10.270169	97394688	63057920	24198712	33184
432	1.72294	97394688	63057920	31661408	33184
433	2.586595	97394688	63057920	33399640	33184
434	3.623118	97394688	63057920	35719456	33184
435	5.158459	97394688	63057920	22393744	33184
436	5.318747	97394688	63057920	25882432	33184
437	6.107156	97394688	63057920	29956816	33184
438	7.026851	97394688	63057920	34617056	33184
439	8.738454	97394688	63057920	23767504	33184
440	8.840128	97394688	63057920	29611288	33184
441	9.443564	97394688	63057920	36041512	33184
442	1.756857	97394688	63057920	27312248	33184
443	2.626374	97394688	63057920	29087440	33184
444	3.663284	97394688	63057920	31456504	33184
445	4.52968	97394688	63057920	34420728	33184
446	6.276647	97394688	63057920	21918240	33184
447	6.233259	97394688	63057920	26079904	33184
448	7.213962	97394688	63057920	30842672	33184
449	8.064831	97394688	63057920	36203840	33184
450	9.804836	97394688	63057920	25823040	33184
451	9.610974	97394688	63057920	32393608	33184
452	1.905307	97394688	63057920	24347752	33184
453	2.710449	97394688	63057920	26160136	33184
454	3.567843	97394688	63057920	28578240	33184
455	4.71917	97394688	63057920	31607960	33184
456	5.429146	97394688	63057920	35242608	33184
457	7.398519	97394688	63057920	23345544	33184
458	7.123493	97394688	63057920	28202384	33184
459	8.069635	97394688	63057920	33670328	33184
460	10.54088	97394688	63057920	23776304	33184
461	10.248006	97394688	63057920	30473992	33184
462	1.911651	97394688	63057920	22863376	33184
463	2.846717	97394688	63057920	24712096	33184
464	3.928861	97394688	63057920	27179280	33184
465	4.549415	97394688	63057920	30266120	33184
466	5.659456	97394688	63057920	33974328	33184
467	7.529088	97394688	63057920	22367544	33184
468	7.606328	97394688	63057920	27321416	33184
469	8.757772	97394688	63057920	32899744	33184
470	10.338698	97394688	63057920	23268248	33184
471	10.222003	97394688	63057920	30107600	33184
472	2.772094	97394688	63057920	21915496	33184
473	3.085407	97394688	63057920	23800984	33184
474	3.712383	97394688	63057920	26317192	33184
475	4.626087	97394688	63057920	29469000	33184
476	5.760113	97394688	63057920	33250776	33184
477	7.912677	97394688	63057920	21873824	33184
478	7.500028	97394688	63057920	26934032	33184
479	8.58164	97394688	63057920	32627056	33184
480	10.708644	97394688	63057920	23174552	33184
481	10.233685	97394688	63057920	30141872	33184
482	3.047485	97394688	63057920	22105512	33184
483	2.975463	97394688	63057920	24027880	33184
484	3.790545	97394688	63057920	26593232	33184
485	4.938122	97394688	63057920	29802784	33184
486	5.790341	97394688	63057920	33658480	33184
487	8.15639	97394688	63057920	22339560	33184
488	7.956053	97394688	63057920	27491296	33184
489	8.571846	97394688	63057920	33293768	33184
490	10.889948	97394688	63057920	23910680	33184
491	10.668182	97394688	63057920	31019968	33184
492	2.036339	97394688	63057920	23918848	33184
493	3.214852	97394688	63057920	25878080	33184
494	3.886007	97394688	63057920	28492488	33184
495	4.882684	97394688	63057920	31763440	33184
496	5.997422	97394688	63057920	35696480	33184
497	7.933503	97394688	63057920	24224720	33184
498	8.042631	97394688	63057920	29476936	33184
499	8.920896	97394688	63057920	35386672	33184
500	11.004859	97394688	63057920	25854808	33184
501	10.646297	97394688	63057920	33092136	33184
502	1.995832	97394688	63057920	25904256	33184
503	2.957725	97394688	63057920	27900296	33184
504	3.937012	97394688	63057920	30566664	33184
505	5.129294	97394688	63057920	33900712	33184
506	5.916253	97394688	63057920	37903816	33184
507	8.008177	97394688	63057920	26232272	33184
508	8.384805	97394688	63057920	31581296	33184
509	9.027167	97394688	63057920	37601392	33184
510	11.088869	97394688	63057920	27936480	33184
511	11.069744	97394688	63057920	35309720	33184
512	2.283103	97394688	63057920	28017176	33184
513	3.038353	97394688	63057920	30050008	33184
514	4.016571	97394688	63057920	32762640	33184
515	5.006395	97394688	63057920	36156256	33184
516	7.152413	97394688	63057920	24146696	33184
517	7.255626	97394688	63057920	28909528	33184
518	8.238179	97394688	63057920	34362096	33184
519	10.956026	97394688	63057920	24603160	33184
520	10.807433	97394688	63057920	31422760	33184
521	13.015325	97394688	63057920	23463024	33184
522	2.294651	97394688	63057920	32362504	33184
523	3.127303	97394688	63057920	34432072	33184
524	4.094318	97394688	63057920	37195280	33184
525	6.38623	97394688	63057920	24459008	33184
526	6.175773	97394688	63057920	28611496	33184
527	7.149742	97394688	63057920	33468112	33184
528	9.862328	97394688	63057920	23369960	33184
529	9.766149	97394688	63057920	29613712	33184
530	10.223097	97394688	63057920	36555168	33184
531	12.677973	97394688	63057920	28032120	33184
532	2.166074	97394688	63057920	37098328	33184
533	4.280115	97394688	63057920	23102568	33184
534	4.328856	97394688	63057920	25913256	33184
535	5.49695	97394688	63057920	29429800	33184
536	6.253232	97394688	63057920	33653520	33184
537	7.491598	97394688	63057920	38585304	33184
538	9.741648	97394688	63057920	27881688	33184
539	10.256752	97394688	63057920	34237824	33184
540	12.09094	97394688	63057920	25532256	33184
541	11.603294	97394688	63057920	33311136	33184
542	2.241915	97394688	63057920	26852800	33184
543	3.242082	97394688	63057920	28995936	33184
544	4.445362	97394688	63057920	31855760	33184
545	5.298825	97394688	63057920	35433440	33184
546	8.011378	97394688	63057920	23847208	33184
547	7.710947	97394688	63057920	28864960	33184
548	8.793677	97394688	63057920	34604152	33184
549	11.445266	97394688	63057920	25266600	33184
550	11.070338	97394688	63057920	32453504	33184
551	13.585434	97394688	63057920	24854640	33184
552	2.183049	97394688	63057920	34254592	33184
553	3.467594	97394688	63057920	36435376	33184
554	5.609122	97394688	63057920	23351128	33184
555	5.510166	97394688	63057920	26990408	33184
556	6.468363	97394688	63057920	31374984	33184
557	7.785686	97394688	63057920	36492480	33184
558	10.24176	97394688	63057920	26366312	33184
559	9.724739	97394688	63057920	32966040	33184
560	12.756568	97394688	63057920	24722416	33184
561	12.228602	97394688	63057920	32819808	33184
562	2.273914	97394688	63057920	26872168	33184
563	3.308651	97394688	63057920	29109440	33184
564	4.597132	97394688	63057920	32094976	33184
565	5.503261	97394688	63057920	35835440	33184
566	8.508459	97394688	63057920	24447464	33184
567	7.979464	97394688	63057920	29686248	33184
568	9.255432	97394688	63057920	35676152	33184
569	11.707882	97394688	63057920	26509640	33184
570	11.477512	97394688	63057920	34011544	33184
571	14.071741	97394688	63057920	26594440	33184
572	2.290326	97394688	63057920	36417624	33184
573	3.366709	97394688	63057920	38691688	33184
574	5.919376	97394688	63057920	25541184	33184
575	5.903773	97394688	63057920	29336880	33184
576	6.938746	97394688	63057920	33902952	33184
577	8.185469	97394688	63057920	39235232	33184
578	10.544839	97394688	63057920	29055304	33184
579	10.46524	97394688	63057920	35909792	33184
580	12.800681	97394688	63057920	27628544	33184
581	12.74627	97394688	63057920	36020160	33184
582	2.301309	97394688	63057920	30066288	33184
583	3.648082	97394688	63057920	32379256	33184
584	4.566604	97394688	63057920	35469192	33184
585	5.876592	97394688	63057920	39327760	33184
586	8.182669	97394688	63057920	27684112	33184
587	7.984128	97394688	63057920	33092960	33184
588	9.403335	97394688	63057920	39279320	33184
589	11.829909	97394688	63057920	29897096	33184
590	11.470809	97394688	63057920	37644104	33184
591	14.088483	97394688	63057920	30049496	33184
592	3.597457	97394688	63057920	24034168	33184
593	3.621798	97394688	63057920	26381824	33184
594	4.994524	97394688	63057920	29522344	33184
595	5.831757	97394688	63057920	33440952	33184
596	7.022216	97394688	63057920	38147344	33184
597	9.744611	97394688	63057920	27588304	33184
598	9.752435	97394688	63057920	33872888	33184
599	12.173911	97394688	63057920	25378960	33184
600	11.866353	97394688	63057920	33247296	33184
601	15.143074	97394688	63057920	26411408	33184
602	2.390623	97394688	63057920	36705640	33184
603	3.768937	97394688	63057920	39090104	33184
604	6.088143	97394688	63057920	26104120	33184
605	6.570602	97394688	63057920	30086520	33184
606	7.184426	97394688	63057920	34866472	33184
607	10.134305	97394688	63057920	24846360	33184
608	9.930051	97394688	63057920	31245296	33184
609	10.876218	97394688	63057920	38430912	33184
610	13.457008	97394688	63057920	30279264	33184
611	13.213987	97394688	63057920	39084632	33184
612	2.424878	97394688	63057920	33288528	33184
613	3.657999	97394688	63057920	35716512	33184
614	4.798732	97394688	63057920	38948624	33184
615	7.516868	97394688	63057920	26874928	33184
616	7.179441	97394688	63057920	31737504	33184
617	8.574755	97394688	63057920	37416824	33184
618	11.436593	97394688	63057920	27895776	33184
619	11.029388	97394688	63057920	35199872	33184
620	13.976814	97394688	63057920	27609256	33184
621	13.421505	97394688	63057920	36546200	33184
622	2.468718	97394688	63057920	31325592	33184
623	3.656747	97394688	63057920	33783720	33184
624	4.936564	97394688	63057920	37064320	33184
625	7.6362	97394688	63057920	25341456	33184
626	7.704917	97394688	63057920	30269880	33184
627	8.930481	97394688	63057920	36022320	33184
628	11.893367	97394688	63057920	26832128	33184
629	11.125938	97394688	63057920	34241784	33184
630	14.759621	97394688	63057920	26985720	33184
631	13.861399	97394688	63057920	36052568	33184
632	2.584316	97394688	63057920	31044592	33184
633	3.977852	97394688	63057920	33539560	33184
634	4.976048	97394688	63057920	36868416	33184
635	6.388457	97394688	63057920	41037328	33184
636	8.843009	97394688	63057920	29700584	33184
637	8.8966	97394688	63057920	35539000	33184
638	11.952018	97394688	63057920	26530736	33184
639	11.539188	97394688	63057920	34048240	33184
640	14.31268	97394688	63057920	26918336	33184
641	14.170755	97394688	63057920	36120376	33184
642	2.537632	97394688	63057920	31344256	33184
643	3.778275	97394688	63057920	33876280	33184
644	5.250625	97394688	63057920	37254152	33184
645	8.122678	97394688	63057920	25689760	33184
646	7.82779	97394688	63057920	30764296	33184
647	8.958725	97394688	63057920	36688416	33184
648	12.073636	97394688	63057920	27669720	33184
649	11.755871	97394688	63057920	35298152	33184
650	14.529899	97394688	63057920	28211440	33184
651	14.260253	97394688	63057920	37548264	33184
652	2.578043	97394688	63057920	32716160	33184
653	4.066375	97394688	63057920	35284752	33184
654	5.319432	97394688	63057920	38722528	33184
655	8.016815	97394688	63057920	27088040	33184
656	7.915514	97394688	63057920	32236920	33184
657	9.373273	97394688	63057920	38255368	33184
658	12.060034	97394688	63057920	29160984	33184
659	11.729606	97394688	63057920	36901392	33184
660	14.926817	97394688	63057920	29719104	33184
661	14.53877	97394688	63057920	39198872	33184
662	2.858652	97394688	63057920	34352160	33184
663	3.947122	97394688	63057920	36957624	33184
664	5.906184	97394688	63057920	40436248	33184
665	8.008337	97394688	63057920	28638928	33184
666	8.23823	97394688	63057920	33864640	33184
667	9.713321	97394688	63057920	39960512	33184
668	12.205797	97394688	63057920	30807416	33184
669	11.931341	97394688	63057920	38655728	33184
670	18.263315	97394688	63057920	31372224	33184
671	14.982047	97394688	63057920	40994136	33184
672	2.790057	97394688	63057920	36101224	33184
673	4.170111	97394688	63057920	38743432	33184
674	7.065714	97394688	63057920	26369488	33184
675	6.889013	97394688	63057920	30778752	33184
676	8.150958	97394688	63057920	36078496	33184
677	11.333252	97394688	63057920	26643200	33184
678	10.898209	97394688	63057920	33713184	33184
679	12.06646	97394688	63057920	41672024	33184
680	14.646654	97394688	63057920	34164456	33184
681	16.971432	97394688	63057920	28606152	33184
682	2.699352	97394688	63057920	40177024	33184
683	5.619382	97394688	63057920	26837480	33184
684	5.677555	97394688	63057920	30411776	33184
685	6.742732	97394688	63057920	34887240	33184
686	8.45114	97394688	63057920	40257488	33184
687	11.13938	97394688	63057920	30518440	33184
688	11.102623	97394688	63057920	37688024	33184
689	14.317346	97394688	63057920	29999080	33184
690	13.727819	97394688	63057920	38977984	33184
691	16.852284	97394688	63057920	32874360	33184
692	2.760405	97394688	63057920	29472136	33184
693	4.079993	97394688	63057920	32188096	33184
694	5.622269	97394688	63057920	35818680	33184
695	6.85658	97394688	63057920	40351728	33184
696	10.22547	97394688	63057920	29777328	33184
697	9.503304	97394688	63057920	36135568	33184
698	13.06488	97394688	63057920	27883784	33184
699	12.69479	97394688	63057920	36063576	33184
700	15.818053	97394688	63057920	29654240	33184
701	15.055684	97394688	63057920	39672920	33184
702	2.774322	97394688	63057920	35570584	33184
703	4.125545	97394688	63057920	38326952	33184
704	5.536488	97394688	63057920	41999456	33184
705	8.537665	97394688	63057920	30374216	33184
706	8.551653	97394688	63057920	35891352	33184
707	9.897303	97394688	63057920	42337408	33184
708	12.625264	97394688	63057920	33352408	33184
709	12.681926	97394688	63057920	41642944	33184
710	15.759992	97394688	63057920	34622728	33184
711	17.89366	97394688	63057920	29501592	33184
712	2.819935	97394688	63057920	41564416	33184
713	5.981236	97394688	63057920	28218840	33184
714	5.623289	97394688	63057920	31958904	33184
715	7.22217	97394688	63057920	36646584	33184
716	8.769466	97394688	63057920	42287320	33184
717	11.856094	97394688	63057920	32661856	33184
718	11.852669	97394688	63057920	40207464	33184
719	15.440157	97394688	63057920	32728032	33184
720	14.320096	97394688	63057920	42196912	33184
721	17.363613	97394688	63057920	36330336	33184
722	2.955778	97394688	63057920	33234936	33184
723	4.294045	97394688	63057920	36110488	33184
724	5.690306	97394688	63057920	39946816	33184
725	9.122101	97394688	63057920	28864288	33184
726	8.912285	97394688	63057920	34630656	33184
727	9.962576	97394688	63057920	41363248	33184
728	13.256082	97394688	63057920	32927616	33184
729	12.99522	97394688	63057920	41594760	33184
730	15.697249	97394688	63057920	35033872	33184
731	18.665894	97394688	63057920	30334328	33184
732	2.909903	97394688	63057920	42939304	33184
733	5.966707	97394688	63057920	29599288	33184
734	6.026846	97394688	63057920	33497600	33184
735	7.255753	97394688	63057920	38372400	33184
736	10.809564	97394688	63057920	28605304	33184
737	10.301154	97394688	63057920	35430256	33184
738	11.486008	97394688	63057920	43220792	33184
739	14.957062	97394688	63582208	35637912	33184
740	16.979949	97665024	64106496	30073256	33184
741	16.27894	97665024	64106496	40807208	33184
742	2.936767	97665024	64106496	37522096	33184
743	4.380371	97665024	64106496	40471392	33184
744	7.759797	97665024	64106496	28544600	33184
745	7.492543	97665024	64106496	33472096	33184
746	8.90295	97665024	64106496	39381480	33184
747	12.140732	97665024	64106496	30442504	33184
748	11.912807	97665024	64106496	38332792	33184
749	15.732968	97665024	64106496	31522192	33184
750	14.60314	97935360	64106496	41425384	33184
751	18.513947	97935360	64106496	36204176	33184
752	2.970994	97935360	64106496	33750584	33184
753	4.524925	97935360	64106496	36741752	33184
754	6.140904	97935360	64106496	40725256	33184
755	9.289755	97935360	64106496	29847800	33184
756	8.897017	97935360	64106496	35833832	33184
757	10.536604	97935360	64106496	42818176	33184
758	13.92652	97935360	64106496	34575224	33184
759	13.565644	97935360	64106496	43567760	33184
760	16.539317	98205696	64106496	37222688	33184
761	19.256554	98205696	64106496	32726384	33184
762	4.661343	98205696	64106496	29578656	33184
763	4.639986	98205696	64106496	32601496	33184
764	6.144821	98205696	64106496	36634864	33184
765	7.70738	98205696	64106496	41693816	33184
766	11.366349	98205696	64630784	31774848	33184
767	10.665007	98205696	64630784	38845520	33184
768	14.140224	98205696	64630784	31244432	33184
769	13.725929	98205696	64630784	40379704	33184
770	17.201029	98476032	64630784	34635056	33184
771	19.526522	98476032	64630784	30672912	33184
772	3.109202	98476032	64630784	43912520	33184
773	6.311026	98476032	64630784	30728760	33184
774	6.272241	98476032	64630784	34823712	33184
775	7.581712	98476032	64630784	39932240	33184
776	11.362534	98476032	64630784	30381432	33184
777	10.62391	98476032	64630784	37564328	33184
778	14.547089	98476032	64630784	30305136	33184
779	13.971523	98476032	64630784	39545280	33184
780	17.416038	98476032	64630784	34078168	33184
781	19.91853	98746368	64630784	30364120	33184
782	3.090757	98746368	64630784	43784952	33184
783	6.5702	98746368	64630784	30718000	33184
784	6.279351	98746368	64630784	34848952	33184
785	8.564296	98746368	64630784	40025464	33184
786	11.819856	98746368	65155072	30691840	33184
787	10.941184	98746368	65155072	37933696	33184
788	14.734973	99016704	65155072	30857696	33184
789	14.286682	99016704	65155072	40179520	33184
790	17.703291	99016704	65155072	34768520	33184
791	20.14317	99016704	65155072	31181880	33184
792	3.136295	99016704	65155072	44736472	33184
793	6.572883	99016704	65155072	31638024	33184
794	6.484817	99016704	65155072	35817824	33184
795	8.1605	99016704	65155072	41045544	33184
796	11.63913	99287040	65155072	31603144	33184
797	11.457455	99287040	65155072	38931040	33184
798	15.762705	99287040	65155072	31774632	33184
799	14.009399	99287040	65155072	41206792	33184
800	18.282211	99287040	65155072	35822160	33184
801	20.400863	99287040	65155072	32262696	33184
802	5.354308	99287040	65155072	29878096	33184
803	4.906648	99287040	65155072	33048136	33184
804	6.656992	99287040	65155072	37277072	33184
805	7.824248	99287040	65155072	42576792	33184
806	12.079474	99557376	65679360	33013128	33184
807	11.014304	99557376	65679360	40426728	33184
808	15.02562	99557376	65679360	33200128	33184
809	14.526572	99557376	65679360	42759984	33184
810	17.794797	99557376	65679360	37311720	33184
811	20.005138	99557376	65679360	33706560	33184
812	5.05003	99557376	65679360	31362912	33184
813	4.790186	99557376	65679360	34587880	33184
814	6.411704	99557376	65679360	38866032	33184
815	8.145014	99557376	65679360	44216600	33184
816	11.62509	99827712	65679360	34570408	33184
817	11.128272	99827712	65679360	42087128	33184
818	14.894441	99827712	65679360	34739200	33184
819	14.801797	99827712	65679360	44398800	33184
820	18.295706	99827712	65679360	38928648	33184
821	20.497397	99827712	65679360	35226048	33184
822	3.255295	99827712	65679360	34355728	33184
823	4.848482	99827712	65679360	37599472	33184
824	6.733605	99827712	65679360	41926616	33184
825	10.739562	100098048	66203648	31597104	33184
826	9.694739	100098048	66203648	38097584	33184
827	11.504317	100098048	66203648	45683048	33184
828	15.129412	100098048	66203648	38006648	33184
829	17.397956	100098048	66203648	32433464	33184
830	16.382785	100098048	66203648	43288792	33184
831	19.950008	100098048	66203648	39172608	33184
832	3.474967	100098048	66203648	37863224	33184
833	5.304585	100098048	66203648	41143784	33184
834	6.552651	100098048	66203648	45521800	33184
835	10.352424	100368384	66203648	34803464	33184
836	9.788468	100368384	66203648	41375432	33184
837	14.087684	100368384	66203648	33289320	33184
838	13.270413	100368384	66203648	42077744	33184
839	17.182939	100368384	66203648	36118984	33184
840	19.37471	100368384	66203648	32064248	33184
841	18.205612	100368384	66203648	44155304	33184
842	3.326051	100368384	66203648	42433560	33184
843	4.962709	100368384	66203648	45756400	33184
844	9.14757	100638720	66727936	34007856	33184
845	8.820076	100638720	66727936	39542496	33184
846	10.138597	100638720	66727936	46190064	33184
847	13.724284	100638720	66727936	37588176	33184
848	13.430331	100638720	66727936	46461808	33184
849	16.880988	100638720	66727936	40100376	33184
850	19.092801	100638720	66727936	35725456	33184
851	21.49523	100638720	66727936	33059880	33184
852	5.356394	100638720	66727936	31562528	33184
853	5.399802	100638720	66727936	34947704	33184
854	6.953712	100638720	66727936	39475584	33184
855	8.407974	100638720	66727936	45126968	33184
856	12.446616	100909056	66727936	35842760	33184
857	11.958566	100909056	66727936	43758304	33184
858	15.552723	100909056	66727936	36827968	33184
859	15.467089	100909056	66727936	47026024	33184
860	18.756651	100909056	66727936	41925704	33184
861	21.065158	100909056	67252224	38638696	33184
862	3.412678	100909056	67252224	38142656	33184
863	5.292093	100909056	67252224	41564488	33184
864	6.765279	100909056	67252224	46130608	33184
865	10.606353	101179392	67252224	35690096	33184
866	10.204259	101179392	67252224	42556448	33184
867	14.241228	101179392	67252224	34807352	33184
868	13.77362	101179392	67252224	43956744	33184
869	17.856955	101179392	67252224	38277176	33184
870	20.102863	101179392	67252224	34518816	33184
871	19.485423	101179392	67252224	47121776	33184
872	3.449595	101179392	67252224	45738056	33184
873	7.340457	101449728	67252224	33133968	33184
874	6.841312	101449728	67252224	37748832	33184
875	8.767689	101449728	67252224	43520104	33184
876	12.466038	101449728	67252224	34613424	33184
877	12.154838	101449728	67252224	42706456	33184
878	16.415552	101449728	67252224	36226000	33184
879	15.591146	101449728	67252224	46659032	33184
880	19.545588	101449728	67252224	41926944	33184
881	21.6598	101449728	67252224	39006480	33184
882	3.527939	101720064	67252224	38876688	33184
883	5.466731	101720064	67252224	42385920	33184
884	7.105262	101720064	67252224	47058288	33184
885	11.154649	101720064	67776512	36676968	33184
886	10.557685	101720064	67776512	43696280	33184
887	14.607818	101720064	67776512	35990520	33184
888	14.080446	101720064	67776512	45337688	33184
889	17.827064	101720064	67776512	39811136	33184
890	20.435842	101720064	67776512	36179304	33184
891	23.050013	101990400	67776512	34265584	33184
892	5.710049	101990400	67776512	33369224	33184
893	5.267662	101990400	67776512	36902000	33184
894	7.21757	101990400	67776512	41614136	33184
895	8.920431	101990400	67776512	47510744	33184
896	12.473815	101990400	67776512	38395504	33184
897	12.692727	101990400	67776512	46659760	33184
898	16.156119	101990400	67776512	39915744	33184
899	19.000808	101990400	67776512	35251072	33184
900	17.80758	101990400	67776512	47086936	33184
901	21.666321	102260736	67776512	43809672	33184
902	3.557606	102260736	67776512	43423608	33184
903	5.346713	102260736	67776512	46996632	33184
904	9.675915	102260736	68300800	35685296	33184
905	9.575681	102260736	68300800	41643608	33184
906	13.3017	102260736	68300800	33253312	33184
907	12.677522	102260736	68300800	41603840	33184
908	16.83039	102260736	68300800	35620424	33184
909	16.135919	102260736	68300800	46381776	33184
910	20.227346	102531072	68300800	42160800	33184
911	22.251534	102531072	68825088	39734328	33184
912	3.5915	102531072	68825088	40111480	33184
913	5.567878	102531072	68825088	43717992	33184
914	7.129024	102531072	68825088	48528264	33184
915	11.118367	102531072	68825088	38274104	33184
916	10.736312	102531072	68825088	45513032	33184
917	14.825784	102531072	68825088	37921912	33184
918	14.61413	102801408	68825088	47564328	33184
919	18.497385	102801408	68825088	42154488	33184
920	20.835946	102801408	68825088	38653440	33184
921	23.119812	102801408	68825088	36856616	33184
922	3.631012	102801408	68825088	37837648	33184
923	5.459678	102801408	68825088	41480496	33184
924	7.687177	102801408	68825088	46339896	33184
925	11.777717	102801408	68825088	36518136	33184
926	10.858824	102801408	68825088	43823976	33184
927	15.40574	103071744	68825088	36632376	33184
928	14.723846	103071744	68825088	46410288	33184
929	18.764663	103071744	68825088	41341704	33184
930	21.373414	103071744	68825088	38166696	33184
931	23.5824	103071744	69349376	36606896	33184
932	3.680246	103071744	69349376	37846960	33184
933	5.513934	103071744	69349376	41531776	33184
934	7.566659	103071744	69349376	46440152	33184
935	12.245405	103342080	69349376	36710536	33184
936	11.127372	103342080	69349376	44080680	33184
937	15.512343	103342080	69349376	36983176	33184
938	15.152222	103342080	69349376	46825856	33184
939	18.898486	103342080	69349376	41814552	33184
940	21.503239	103342080	69349376	38770160	33184
941	24.113232	103342080	69349376	37285072	33184
942	3.709072	103342080	69349376	38617880	33184
943	5.528566	103342080	69349376	42334288	33184
944	7.661443	103342080	69349376	47291792	33184
945	11.953116	103612416	69349376	37491480	33184
946	11.263692	103612416	69349376	44951792	33184
947	15.526337	103612416	69349376	37835808	33184
948	15.188307	103612416	69349376	47776224	33184
949	18.957093	103612416	69349376	42781416	33184
950	21.525255	103612416	69349376	39684016	33184
951	23.424135	103612416	69349376	38314088	33184
952	3.756403	103612416	69873664	39751256	33184
953	5.575933	103612416	69873664	43504440	33184
954	7.693502	103612416	69873664	48519056	33184
955	11.780208	103882752	69873664	38665912	33184
956	11.191286	103882752	69873664	46199048	33184
957	15.590493	103882752	69873664	39056080	33184
958	15.188771	103882752	69873664	49088720	33184
959	19.266372	103882752	69873664	44037264	33184
960	21.317704	103882752	69873664	40948120	33184
961	24.216622	103882752	69873664	39587592	33184
962	3.786214	103882752	69873664	40993752	33184
963	5.873584	103882752	69873664	44783832	33184
964	7.878474	103882752	69873664	49852368	33184
965	12.08136	104153088	69873664	40007392	33184
966	11.907723	104153088	69873664	47603920	33184
967	16.17567	104153088	69873664	40441400	33184
968	18.726019	104153088	69873664	35466624	33184
969	17.482583	104153088	69873664	46872032	33184
970	22.017842	104153088	69873664	43563600	33184
971	23.829007	104153088	70397952	42008200	33184
972	3.829641	104153088	70397952	43276640	33184
973	6.007361	104153088	70397952	47103632	33184
974	10.482936	104423424	70397952	36360128	33184
975	9.51541	104423424	70397952	42743904	33184
976	11.816114	104423424	70397952	50413904	33184
977	15.810066	104423424	70397952	42973408	33184
978	18.325413	104423424	70397952	37806160	33184
979	17.442914	104423424	70397952	49329408	33184
980	21.787362	104423424	70397952	45839632	33184
981	23.899184	104423424	70397952	44103592	33184
982	3.873572	104693760	70397952	45334744	33184
983	5.761112	104693760	70397952	49199744	33184
984	10.418209	104693760	70397952	38337544	33184
985	9.83252	104693760	70397952	44786048	33184
986	14.410516	104693760	70397952	36881992	33184
987	13.508324	104693760	70397952	45913984	33184
988	18.290862	104693760	70397952	40467512	33184
989	20.806612	104693760	70397952	37113552	33184
990	19.421637	104693760	70397952	50035392	33184
991	24.210223	104964096	70397952	47931032	33184
992	3.92892	104964096	70922240	48872296	33184
993	8.232223	104964096	71446528	36752336	33184
994	7.886157	104964096	71446528	41961752	33184
995	10.123109	104964096	71446528	48470376	33184
996	14.727299	104964096	71446528	40228008	33184
997	14.567264	104964096	71446528	49346032	33184
998	18.625941	105234432	71446528	43611304	33184
999	21.114174	105234432	71446528	39934224	33184
1000	23.209489	105234432	71446528	38057264	33184
