x	Duration	RSS	HeapTotal	HeapUsed	External
0	NA	94101504	62533632	14396344	33184
1	0.256509	94101504	62533632	14448648	33184
2	0.193951	94101504	62533632	14516624	33184
3	0.209993	94101504	62533632	14609336	33184
4	0.250239	94101504	62533632	14728456	33184
5	0.299062	94101504	62533632	14875744	33184
6	0.349556	94101504	62533632	15051888	33184
7	0.397841	94101504	62533632	15258120	33184
8	0.452983	94101504	62533632	15495704	33184
9	0.509349	94101504	62533632	15767080	33184
10	0.884575	94101504	62533632	16072552	33184
11	0.648901	94101504	62533632	16413312	33184
12	0.16066	94101504	62533632	16782592	33184
13	0.238703	94101504	62533632	16892904	33184
14	0.311199	94101504	62533632	17042240	33184
15	0.429396	94101504	62533632	17235560	33184
16	0.439607	94101504	62533632	17467016	33184
17	0.520612	94101504	62533632	17741256	33184
18	0.592525	94101504	62533632	18059264	33184
19	0.661225	94101504	62533632	18423184	33184
20	0.741774	94101504	62533632	18834344	33184
21	0.825085	94101504	62533632	19294112	33184
22	0.527469	94101504	62533632	19813648	33184
23	0.296123	94101504	62533632	19963536	33184
24	0.354455	94101504	62533632	20165592	33184
25	0.562229	94101504	62533632	20421120	33184
26	0.595678	94101504	62533632	20732736	33184
27	0.797905	94101504	62533632	21099248	33184
28	0.797892	94101504	62533632	21522816	33184
29	0.842073	94101504	62533632	22007160	33184
30	0.844809	94101504	62533632	22548968	33184
31	0.93812	94101504	62533632	23151496	33184
32	0.416954	94101504	62533632	23839640	33184
33	0.346525	94101504	62533632	24026128	33184
34	0.417897	94101504	62533632	24276976	33184
35	0.516588	94101504	62533632	24593560	33184
36	0.61685	94101504	62533632	24977400	33184
37	0.721651	94101504	62533632	25429304	33184
38	0.820955	94101504	62533632	25950488	33184
39	1.835264	94101504	62533632	26542208	33184
40	1.101993	94101504	62533632	27206584	33184
41	1.339299	94101504	62533632	27943992	33184
42	0.266941	94101504	62533632	28791568	33184
43	0.400552	94101504	62533632	29014824	33184
44	0.542082	94101504	62533632	29318544	33184
45	0.755083	94101504	62533632	29700568	33184
46	0.923858	94101504	62533632	30162608	33184
47	0.901579	94101504	62533632	30706720	33184
48	1.696586	94101504	62533632	15060160	33184
49	1.565184	94101504	62533632	15791360	33184
50	1.194024	94101504	62533632	16590568	33184
51	1.361025	94101504	62533632	17476200	33184
52	0.28059	94101504	62533632	18501152	33184
53	0.425004	94101504	62533632	18766480	33184
54	0.723591	94101504	62533632	19122544	33184
55	0.711087	94101504	62533632	19570448	33184
56	0.833313	94101504	62533632	20111952	33184
57	0.979167	94101504	62533632	20747792	33184
58	1.091383	94101504	62533632	21479240	33184
59	1.227718	94101504	62533632	22307440	33184
60	1.684827	94101504	62533632	23234672	33184
61	1.51717	94101504	62533632	24261168	33184
62	0.316206	94101504	62533632	25453632	33184
63	0.478929	94101504	62533632	25755800	33184
64	0.626973	94101504	62533632	26160824	33184
65	0.787455	94101504	62533632	26670000	33184
66	0.927397	94101504	62533632	27285096	33184
67	1.087829	94101504	62533632	28006776	33184
68	1.236425	94101504	62533632	28836432	33184
69	1.530513	94101504	62533632	29775816	33184
70	1.757472	94101504	62533632	30825624	33184
71	2.594868	94101504	62533632	15781800	33184
72	0.35896	94101504	62533632	17133936	33184
73	0.53466	94101504	62533632	17472824	33184
74	0.698894	94101504	62533632	17926952	33184
75	0.941667	94101504	62533632	18497480	33184
76	1.038597	94101504	62533632	19186192	33184
77	1.208287	94101504	62533632	19993680	33184
78	1.581764	94101504	62533632	20921248	33184
79	1.563302	94101504	62533632	21970248	33184
80	1.746514	94101504	62533632	23142848	33184
81	2.018274	94101504	62533632	24440112	33184
82	0.393003	94101504	62533632	25954152	33184
83	0.590849	94101504	62533632	26329760	33184
84	0.770555	94101504	62533632	26835088	33184
85	0.96295	94101504	62533632	27469048	33184
86	1.347776	94101504	62533632	28234544	33184
87	1.343986	94101504	62533632	29132352	33184
88	1.530102	94101504	62533632	30163640	33184
89	1.733194	94101504	62533632	31329608	33184
90	2.658925	94101504	62533632	16301120	33184
91	2.321791	94101504	62533632	17743408	33184
92	0.432155	94101504	62533632	19435624	33184
93	0.645996	94101504	62533632	19857768	33184
94	0.850585	94101504	62533632	20422840	33184
95	1.055354	94101504	62533632	21133184	33184
96	1.295384	94101504	62533632	21988440	33184
97	1.480412	94101504	62533632	22990328	33184
98	1.696635	94101504	62533632	24139960	33184
99	2.1094	94101504	62533632	25440896	33184
100	2.142667	94101504	62533632	26890968	33184
101	2.335635	94101504	62533632	28492760	33184
102	0.466021	94101504	62533632	30369136	33184
103	0.70298	94101504	62533632	30828032	33184
104	0.927261	94101504	62533632	31442168	33184
105	1.737984	94101504	62533632	15863352	33184
106	1.497541	94101504	62533632	16792208	33184
107	1.881204	94101504	62533632	17879896	33184
108	1.839264	94101504	62533632	19127640	33184
109	2.075888	94101504	62533632	20536880	33184
110	2.297821	94101504	62533632	22109560	33184
111	2.586299	94101504	62533632	23846064	33184
112	0.503852	94101504	62533632	25882152	33184
113	0.762343	94101504	62533632	26377912	33184
114	0.999856	94101504	62533632	27041080	33184
115	1.25934	94101504	62533632	27873040	33184
116	1.488622	94101504	62533632	28875376	33184
117	1.977019	94101504	62533632	30050608	33184
118	1.978726	94101504	62533632	31396608	33184
119	3.131184	94101504	62533632	16575504	33184
120	2.48281	94101504	62533632	18270960	33184
121	2.742823	94101504	62533632	20142552	33184
122	0.538367	94101504	62533632	22338272	33184
123	0.814345	94101504	62533632	22870848	33184
124	1.067083	94101504	62533632	23583160	33184
125	1.539315	94101504	62533632	24476400	33184
126	1.598773	94101504	62533632	25552488	33184
127	1.867391	94101504	62533632	26812056	33184
128	2.126857	94101504	62533632	28256224	33184
129	2.40702	94101504	62533632	29886392	33184
130	3.056372	94101504	62533632	31704480	33184
131	3.621569	94101504	62533632	17330096	33184
132	0.628326	94101504	62533632	19689904	33184
133	0.933375	94101504	62533632	20259232	33184
134	1.233352	94101504	62533632	21020632	33184
135	1.549735	94101504	62533632	21975224	33184
136	1.833104	94101504	62533632	23124992	33184
137	2.149541	94101504	62533632	24470520	33184
138	2.369922	94101504	62533632	26012920	33184
139	2.581575	94101504	62533632	27753408	33184
140	2.868379	94101504	62533632	29694224	33184
141	3.150648	94101504	62533632	31835640	33184
142	0.619701	94101504	62533632	17976144	33184
143	0.934883	94101504	62533632	18587800	33184
144	1.226622	94101504	62533632	19405616	33184
145	1.524388	94101504	62533632	20430768	33184
146	2.032886	94101504	62533632	21664968	33184
147	2.125683	94101504	62533632	23111784	33184
148	2.437189	94101504	62533632	24766928	33184
149	2.75962	94101504	62533632	26634352	33184
150	3.058618	94101504	62533632	28716264	33184
151	3.389907	94101504	62533632	31013496	33184
152	0.667407	94101504	62533632	17442720	33184
153	0.981759	94101504	62533632	18091176	33184
154	1.300121	94101504	62533632	18958520	33184
155	1.659655	94101504	62533632	20045064	33184
156	1.966916	94101504	62533632	21353672	33184
157	2.267543	94101504	62533632	22883720	33184
158	2.582225	94101504	62533632	24637048	33184
159	2.95818	94101504	62533632	26614992	33184
160	3.492789	94101504	62533632	28819520	33184
161	3.578936	94101504	62533632	31251120	33184
162	0.741818	94101504	62533632	17819880	33184
163	1.109487	94101504	62533632	18505128	33184
164	1.611495	94101504	62533632	19421112	33184
165	1.715387	94101504	62533632	20568920	33184
166	2.369427	94101504	62533632	21950512	33184
167	2.431746	94101504	62533632	23570296	33184
168	2.74581	94101504	62533632	25422536	33184
169	3.10623	94101504	62533632	27510800	33184
170	3.432854	94101504	62533632	29838144	33184
171	4.477957	94101504	62533632	16315168	33184
172	0.735264	94101504	62533632	19343680	33184
173	1.100169	94101504	62533632	20065824	33184
174	1.453444	94101504	62533632	21030888	33184
175	1.803372	94101504	62533632	22240136	33184
176	2.179318	94101504	62533632	23695704	33184
177	2.690049	94101504	62533632	25397472	33184
178	2.908464	94101504	62533632	27347136	33184
179	3.454826	94101504	62533632	29545800	33184
180	3.617156	94101504	62533632	32000544	33184
181	4.617675	94101504	62533632	18334944	33184
182	0.781327	94101504	62533632	21543504	33184
183	1.161425	94101504	62533632	22314904	33184
184	1.525699	94101504	62533632	23345664	33184
185	2.108156	94101504	62533632	24637088	33184
186	2.279565	94101504	62533632	26190856	33184
187	2.660918	94101504	62533632	28007640	33184
188	3.049323	94101504	62533632	30088752	33184
189	4.169963	94101504	62533632	16318456	33184
190	3.867669	94101504	62533632	18933096	33184
191	4.190474	94101504	62533632	21817680	33184
192	0.806346	94101504	62533632	25221776	33184
193	1.207732	94101504	62533632	26029944	33184
194	1.610729	94101504	62533632	27109840	33184
195	1.996251	94101504	62533632	28462536	33184
196	2.405949	94101504	62533632	30089824	33184
197	2.986092	94101504	62533632	31992472	33184
198	3.62989	94101504	62533632	17823728	33184
199	3.615022	94101504	62533632	20280736	33184
200	4.182142	94101504	62533632	23017712	33184
201	4.448718	94101504	62533632	26034872	33184
202	0.843816	94101504	62533632	29596848	33184
203	1.278727	94101504	62533632	30441832	33184
204	2.057349	94101504	62533632	31570776	33184
205	2.567795	94101504	62533632	16710704	33184
206	2.52526	94101504	62533632	18411632	33184
207	2.941372	94101504	62533632	20400384	33184
208	3.531953	94101504	62533632	22677928	33184
209	4.102977	94101504	62533632	25246896	33184
210	4.190602	94101504	62533632	28106616	33184
211	4.802407	94101504	62533632	31258960	33184
212	0.935126	94101504	62533632	18737704	33184
213	1.399104	94101504	62533632	19619560	33184
214	2.031561	94101504	62533632	20797616	33184
215	2.176829	94101504	62533632	22273144	33184
216	2.612328	94101504	62533632	24047848	33184
217	3.051538	94101504	62533632	26122408	33184
218	4.103695	94101504	62533632	28498040	33184
219	4.03527	94101504	62533632	31179072	33184
220	4.94095	94101504	62533632	17938304	33184
221	4.810117	94101504	62533632	21226888	33184
222	1.10923	94101504	62533632	25112376	33184
223	1.381022	94101504	62533632	26030992	33184
224	2.09176	94101504	62533632	27258120	33184
225	2.293491	94101504	62533632	28794904	33184
226	2.773537	94101504	62533632	30643168	33184
227	3.746481	94101504	62533632	16670608	33184
228	4.01802	94101504	62533632	19147440	33184
229	4.096183	94101504	62533632	21941480	33184
230	4.556404	94101504	62533632	25052328	33184
231	5.233462	94101504	62533632	28484896	33184
232	0.955951	94101504	62533632	32547248	33184
233	1.79559	94101504	62533632	17132776	33184
234	2.139576	94101504	62533632	18420544	33184
235	2.362415	94101504	62533632	20033128	33184
236	2.845903	94101504	62533632	21972264	33184
237	3.318912	94101504	62533632	24238688	33184
238	3.797699	94101504	62533632	26833640	33184
239	4.302583	94101504	62533632	29758376	33184
240	5.843622	94101504	62533632	17007192	33184
241	5.261817	94101504	62533632	20596160	33184
242	1.209577	94101504	62533632	24838576	33184
243	1.522665	94101504	62533632	25843568	33184
244	1.975201	94101504	62533632	27180104	33184
245	2.465172	94101504	62533632	28853760	33184
246	2.955154	94101504	62533632	30866184	33184
247	4.025621	94101504	62533632	17094904	33184
248	3.948585	94101504	62533632	19787616	33184
249	4.433321	94101504	62533632	22823720	33184
250	5.805559	94101504	62533632	26206808	33184
251	5.434639	94101504	62533632	29931520	33184
252	1.080603	94101504	62533632	18334896	33184
253	1.543443	94101504	62533632	19372528	33184
254	2.10287	94101504	62533632	20758192	33184
255	2.596426	94101504	62533632	22501960	33184
256	3.296741	94101504	62533632	24588056	33184
257	3.576053	94101504	62533632	27031048	33184
258	4.524737	94101504	62533632	29822024	33184
259	5.09653	94101504	62533632	32967304	33184
260	5.521188	94101504	62533632	20065928	33184
261	6.113416	94101504	62533632	23924464	33184
262	1.071762	94101504	62533632	28484688	33184
263	1.622424	94101504	62533632	29559112	33184
264	2.128909	94101504	62533632	30993976	33184
265	2.659474	94101504	62533632	32790424	33184
266	3.593743	94101504	62533632	18597960	33184
267	3.947569	94101504	62533632	21121720	33184
268	4.242812	94101504	62533632	24010856	33184
269	4.773211	94101504	62533632	27266440	33184
270	5.520674	94101504	62533632	30890792	33184
271	6.468749	94101504	62533632	18782008	33184
272	1.115521	94101504	62533632	23510336	33184
273	1.660628	94101504	62533632	24621624	33184
274	2.215152	94101504	62533632	26105448	33184
275	2.943265	94101504	62533632	27963200	33184
276	3.317075	94101504	62533632	30196640	33184
277	3.842227	94101504	62533632	32806504	33184
278	5.201147	94101504	62533632	19468632	33184
279	4.943714	94101504	62533632	22834600	33184
280	5.719917	94101504	62533632	26584056	33184
281	6.066512	94101504	62533632	30712904	33184
282	1.159506	94101504	62533632	19554144	33184
283	1.720116	94101504	62533632	20702200	33184
284	2.28503	94101504	62533632	22235200	33184
285	2.849224	94101504	62533632	24154256	33184
286	3.624263	94101504	62533632	26461304	33184
287	3.980365	94101504	62533632	29156960	33184
288	5.040584	94101504	62533632	32245792	33184
289	5.753351	94101504	62533632	19466784	33184
290	5.683588	94101504	62533632	23338840	33184
291	6.47045	94101504	62533632	27607008	33184
292	1.187781	94101504	62533632	32654160	33184
293	2.21448	94101504	62533632	17569288	33184
294	2.48833	94101504	62533632	19151264	33184
295	3.080317	94101504	62533632	21131728	33184
296	3.71607	94101504	62533632	23512288	33184
297	4.9967	94101504	62533632	26293552	33184
298	4.826726	94101504	62533632	29486208	33184
299	5.511489	94101504	62533632	33076864	33184
300	6.246477	94101504	62533632	20736240	33184
301	6.526413	94101504	62533632	25134352	33184
302	1.226087	94101504	62533632	30341328	33184
303	2.062464	94101504	62533632	31562928	33184
304	2.432209	94101504	62533632	33193928	33184
305	3.464668	94101504	62533632	18956744	33184
306	3.639129	94101504	62533632	21411704	33184
307	4.618798	94101504	62533632	24278888	33184
308	4.83876	94101504	62533632	27560384	33184
309	5.460776	94101504	62533632	31260536	33184
310	6.790294	94101504	62533632	19348464	33184
311	7.068746	94101504	62533632	23881400	33184
312	1.463139	94101504	62533632	29248144	33184
313	1.969616	94101504	62533632	30506640	33184
314	2.513734	94101504	62533632	32186640	33184
315	3.717161	94101504	62533632	18173488	33184
316	3.938892	94101504	62533632	20701240	33184
317	4.416012	94101504	62533632	23654392	33184
318	5.021716	94101504	62533632	27039288	33184
319	5.862247	94101504	62533632	30849312	33184
320	7.111135	94101504	62533632	19159376	33184
321	7.183911	94101504	62533632	23832104	33184
322	1.305209	94101504	62533632	29360736	33184
323	1.955913	94101504	62533632	30655944	33184
324	2.586583	94101504	62533632	32385064	33184
325	3.822724	94101504	62533632	18433168	33184
326	4.09192	94101504	62533632	21034512	33184
327	4.506989	94101504	62533632	24074280	33184
328	5.373992	94101504	62533632	27552296	33184
329	5.803468	94101504	62533632	31470048	33184
330	7.179843	94101504	62533632	19838784	33184
331	7.338579	94101504	62533632	24641728	33184
332	1.389265	94101504	62533632	30333440	33184
333	2.016474	94101504	62533632	31665440	33184
334	2.656638	94101504	62533632	33443688	33184
335	4.073947	94101504	62533632	19434368	33184
336	4.007307	94101504	62533632	22109288	33184
337	4.651391	94101504	62533632	25238792	33184
338	5.298071	94101504	62533632	28814808	33184
339	5.958902	94101504	62533632	32843360	33184
340	7.494064	94101504	62533632	21197632	33184
341	7.529077	94101504	62533632	26135720	33184
342	1.381089	94101504	62533632	31981856	33184
343	2.070248	94101504	62533632	33350712	33184
344	3.311897	94101504	62533632	18990936	33184
345	3.428827	94101504	62533632	21278840	33184
346	4.334357	94101504	62533632	24027432	33184
347	4.850659	94101504	62533632	27238152	33184
348	5.45596	94101504	62533632	30912408	33184
349	7.182662	94101504	62533632	19200984	33184
350	7.057689	94101504	62533632	23806680	33184
351	7.556866	94101504	62533632	28880344	33184
352	1.966599	94101504	62533632	18648512	33184
353	2.187506	94101504	62533632	20054152	33184
354	3.272141	94101504	62533632	21930624	33184
355	3.536056	94101504	62533632	24281008	33184
356	4.270952	94101504	62533632	27103160	33184
357	5.329247	94101504	62533632	30399752	33184
358	5.600081	94101504	62533632	34180360	33184
359	7.099392	94101504	62533632	22172496	33184
360	7.033325	94101504	62533632	26934680	33184
361	7.737289	94101504	62533632	32185592	33184
362	1.470373	94101504	62533632	22381496	33184
363	2.392075	94101504	62533632	23862168	33184
364	2.903088	94101504	62533632	25838440	33184
365	3.825684	94101504	62533632	28311912	33184
366	4.560391	94101504	62533632	31284680	33184
367	5.046433	94101504	62533632	34757472	33184
368	6.290761	94101504	62533632	22406056	33184
369	6.497619	94101504	62533632	26880280	33184
370	7.538021	94101504	62533632	31858832	33184
371	8.948466	94101504	62533632	21357408	33184
372	1.49873	94101504	62533632	27866208	33184
373	2.25336	94101504	62533632	29384248	33184
374	2.966752	94101504	62533632	31417968	33184
375	3.704911	94101504	62533632	33953920	33184
376	5.545302	94101504	62533632	20818720	33184
377	5.479137	94101504	62533632	24379280	33184
378	6.137064	94101504	62533632	28451040	33184
379	6.660076	94101504	62533632	33045896	33184
380	8.323552	94101504	62533632	22071264	33184
381	8.616449	94101504	62533632	27688832	33184
382	1.538085	94101504	62533632	34351648	33184
383	2.916452	94101504	62533632	19674088	33184
384	3.05708	94101504	62533632	21748616	33184
385	3.804903	94101504	62533632	24344720	33184
386	4.555909	94101504	62533632	27464000	33184
387	5.351355	94101504	62533632	31107288	33184
388	6.361143	94101504	62533632	35283608	33184
389	7.907602	94101504	62533632	23630096	33184
390	7.675559	94101504	62533632	28853640	33184
391	8.393295	94101504	62533632	34606160	33184
392	1.574593	94101504	62533632	25133432	33184
393	2.357219	94101504	62533632	26724392	33184
394	3.118613	94101504	62533632	28847960	33184
395	4.123832	94101504	62533632	31505328	33184
396	4.66566	94101504	62533632	34698184	33184
397	6.319627	94101504	62533632	22191832	33184
398	6.231058	94101504	62533632	26458536	33184
399	7.243146	94101504	62533632	31263944	33184
400	8.794776	94101504	62533632	20798120	33184
401	8.872867	94101504	62533632	26685760	33184
402	1.615847	94101504	62533632	33671912	33184
403	2.417263	94101504	62533632	35299744	33184
404	4.053866	94101504	62533632	21164528	33184
405	3.997439	94101504	62533632	23883232	33184
406	4.77911	94101504	62533632	27149736	33184
407	5.964974	94101504	62533632	30965976	33184
408	6.379952	94101504	62533632	35339648	33184
409	7.891803	94101504	62533632	23959712	33184
410	8.272334	94101504	62533632	29428888	33184
411	8.779763	94101504	62533632	35453736	33184
412	1.665441	94101504	62533632	26228584	33184
413	2.490344	94101504	62533632	27893264	33184
414	3.276906	94101504	62533632	30115016	33184
415	4.085578	94101504	62533632	32898320	33184
416	6.207742	94101504	62533632	20283968	33184
417	5.735552	94101504	62533632	24187728	33184
418	6.792174	94101504	62533632	28650696	33184
419	7.383084	94101504	62533632	33679528	33184
420	9.409449	94101504	62533632	23193224	33184
421	9.242962	94101504	62533632	29350648	33184
422	2.376362	94101504	62533632	20389488	33184
423	2.64281	94101504	62533632	22090976	33184
424	3.50151	94101504	62533632	24362696	33184
425	4.359216	94101504	62533632	27204184	33184
426	5.225758	94101504	62533632	30618128	33184
427	6.172182	94101504	62533632	34605064	33184
428	7.62251	94101504	62533632	23011744	33184
429	8.200058	94101504	62533632	28154680	33184
430	8.636794	94101504	62533632	33878000	33184
431	10.400492	94101504	62533632	24069648	33184
432	1.730389	94101504	62533632	31533920	33184
433	2.594235	94101504	62533632	33272200	33184
434	3.671533	94101504	62533632	35592128	33184
435	4.992511	94101504	62533632	22267152	33184
436	5.135648	94101504	62533632	25763416	33184
437	6.210691	94101504	62533632	29836208	33184
438	6.840963	94101504	62533632	34496312	33184
439	8.940467	94101504	62533632	23660456	33184
440	8.923072	94101504	62533632	29497456	33184
441	10.039079	94101504	62533632	35931104	33184
442	2.031014	94101504	62533632	27209328	33184
443	2.653289	94101504	62533632	28984480	33184
444	3.496239	94101504	62533632	31353584	33184
445	4.377598	94101504	62533632	34319136	33184
446	6.165559	94101504	62533632	21819368	33184
447	6.420074	94101504	62533632	25985016	33184
448	7.043278	94101504	62533632	30751944	33184
449	8.101404	94101504	62533632	36113112	33184
450	9.751077	94101504	62533632	25728616	33184
451	10.275405	94101504	62533632	32299184	33184
452	2.066824	94101504	62533632	24253328	33184
453	2.700714	94101504	62533632	26065712	33184
454	3.568053	94101504	62533632	28483816	33184
455	4.536585	94101504	62533632	31513536	33184
456	5.368894	94101504	62533632	35148184	33184
457	7.416764	94101504	62533632	23251120	33184
458	7.157943	94101504	62533632	28107960	33184
459	8.278018	94101504	62533632	33575904	33184
460	10.181798	94101504	62533632	23681880	33184
461	10.118379	94101504	62533632	30379568	33184
462	1.862287	94101504	62533632	22768952	33184
463	2.810888	94101504	62533632	24617672	33184
464	3.659642	94101504	62533632	27084856	33184
465	4.57513	94101504	62533632	30171696	33184
466	5.473153	94101504	62533632	33879904	33184
467	7.663864	94101504	62533632	22273120	33184
468	7.451462	94101504	62533632	27226992	33184
469	8.66697	94101504	62533632	32805320	33184
470	10.343829	94101504	62533632	23173824	33184
471	10.56124	94101504	62533632	30013176	33184
472	2.688889	94101504	62533632	21821072	33184
473	2.944663	94101504	62533632	23706560	33184
474	3.743493	94101504	62533632	26222768	33184
475	4.730347	94101504	62533632	29374576	33184
476	5.583231	94101504	62533632	33156352	33184
477	7.838251	94101504	62533632	21779400	33184
478	7.703724	94101504	62533632	26839608	33184
479	8.394076	94101504	62533632	32532632	33184
480	10.529022	94101504	62533632	23080128	33184
481	10.625518	94101504	62533632	30047448	33184
482	2.755426	94101504	62533632	22011088	33184
483	2.920216	94101504	62533632	23933456	33184
484	3.819366	94101504	62533632	26498808	33184
485	4.7637	94101504	62533632	29708360	33184
486	6.15045	94101504	62533632	33564056	33184
487	7.833168	94101504	62533632	22245136	33184
488	7.857675	94101504	62533632	27396872	33184
489	8.592513	94101504	62533632	33199344	33184
490	10.871978	94101504	62533632	23816256	33184
491	10.728039	94101504	62533632	30925544	33184
492	2.050414	94101504	62533632	23824424	33184
493	3.426101	94101504	62533632	25788240	33184
494	4.151894	94101504	62533632	28402648	33184
495	5.116617	94101504	62533632	31673600	33184
496	5.923415	94101504	62533632	35606640	33184
497	8.11962	94101504	62533632	24146592	33184
498	8.046163	94101504	62533632	29395592	33184
499	8.750856	94101504	62533632	35313392	33184
500	10.943934	94101504	62533632	25790352	33184
501	11.354325	94101504	62533632	33027464	33184
502	2.017068	94101504	62533632	25837760	33184
503	2.984543	94101504	62533632	27833800	33184
504	3.969291	94101504	62533632	30497232	33184
505	5.163756	94101504	62533632	33833600	33184
506	5.973053	94101504	62533632	37837256	33184
507	8.099652	94101504	62533632	26163304	33184
508	8.23115	94101504	62533632	31511584	33184
509	9.669152	94101504	62533632	37531712	33184
510	11.472436	94101504	62533632	27865192	33184
511	11.255884	94101504	62533632	35239992	33184
512	2.037594	94101504	62533632	27947712	33184
513	3.259191	94101504	62533632	29980472	33184
514	4.048074	94101504	62533632	32693056	33184
515	5.03951	94101504	62533632	36086728	33184
516	7.193305	94101504	62533632	24072168	33184
517	7.569161	94101504	62533632	28839784	33184
518	8.069786	94101504	62533632	34292352	33184
519	10.600496	94101504	62533632	24524888	33184
520	10.505815	94101504	62533632	31344488	33184
521	13.065813	94101504	62533632	23384752	33184
522	2.079503	94101504	62533632	32284232	33184
523	3.18102	94101504	62533632	34353800	33184
524	4.124823	94101504	62533632	37117008	33184
525	6.455353	94101504	62533632	24380736	33184
526	6.192896	94101504	62533632	28533224	33184
527	7.417449	94101504	62533632	33389840	33184
528	9.572437	94101504	62533632	23291688	33184
529	9.627553	94101504	62533632	29535440	33184
530	10.635569	94101504	62533632	36476896	33184
531	12.685731	94101504	62533632	27953848	33184
532	2.116168	94101504	62533632	37020056	33184
533	4.400275	94101504	62533632	23024296	33184
534	4.362464	94101504	62533632	25834984	33184
535	5.631519	94101504	62533632	29351528	33184
536	6.380407	94101504	62533632	33575248	33184
537	7.341124	94101504	62533632	38507032	33184
538	9.741297	94101504	62533632	27803416	33184
539	9.438047	94101504	62533632	34155000	33184
540	12.083206	94101504	62533632	25416880	33184
541	11.830351	94101504	62533632	33196072	33184
542	2.380121	94101504	62533632	26727472	33184
543	3.218518	94101504	62533632	28874472	33184
544	4.270191	94101504	62533632	31734384	33184
545	5.331019	94101504	62533632	35312064	33184
546	7.88942	94101504	62533632	23743368	33184
547	7.723992	94101504	62533632	28764280	33184
548	8.931244	94101504	62533632	34506720	33184
549	11.02585	94101504	62533632	25171288	33184
550	11.014476	94101504	62533632	32358192	33184
551	13.564787	94101504	62533632	24759328	33184
552	2.200069	94101504	62533632	34159280	33184
553	3.273902	94101504	62533632	36340064	33184
554	5.47964	94101504	62533632	23255816	33184
555	5.584531	94101504	62533632	26895096	33184
556	6.737502	94101504	62533632	31279672	33184
557	7.614568	94101504	62533632	36397168	33184
558	10.041075	94101504	62533632	26271000	33184
559	10.192617	94101504	62533632	32870728	33184
560	12.908367	94101504	62533632	24627104	33184
561	12.240606	94101504	62533632	32724496	33184
562	2.463717	94101504	62533632	26776856	33184
563	3.340412	94101504	62533632	29014128	33184
564	4.426544	94101504	62533632	31999664	33184
565	5.748582	94101504	62533632	35740128	33184
566	7.87636	94101504	62533632	24352152	33184
567	7.761521	94101504	62533632	29590936	33184
568	9.079685	94101504	62533632	35580840	33184
569	11.420705	94101504	62533632	26414328	33184
570	11.241917	94101504	62533632	33916232	33184
571	13.825081	94101504	62533632	26499128	33184
572	2.270647	94101504	62533632	36322312	33184
573	3.394659	94101504	62533632	38596376	33184
574	5.664065	94101504	62533632	25445872	33184
575	5.80553	94101504	62533632	29241568	33184
576	6.985984	94101504	62533632	33807640	33184
577	8.108861	94101504	62533632	39139920	33184
578	10.000114	94101504	62533632	28959992	33184
579	10.156022	94101504	62533632	35814480	33184
580	12.807412	94101504	62533632	27533232	33184
581	12.645204	94101504	62533632	35924848	33184
582	2.32274	94101504	62533632	29970976	33184
583	3.452341	94101504	62533632	32283944	33184
584	4.805745	94101504	62533632	35373880	33184
585	5.735501	94101504	62533632	39232448	33184
586	7.906055	94101504	62533632	27588800	33184
587	8.261147	94101504	62533632	32997648	33184
588	9.389767	94101504	62533632	39184008	33184
589	11.526574	94101504	62533632	29801784	33184
590	11.49516	94101504	62533632	37548792	33184
591	14.036206	94101504	62533632	29954184	33184
592	3.513178	94101504	62533632	23938856	33184
593	3.57548	94101504	62533632	26286512	33184
594	4.706413	94101504	62533632	29427032	33184
595	6.128191	94101504	62533632	33345640	33184
596	7.230776	94101504	62533632	38052032	33184
597	9.434829	94101504	62533632	27492992	33184
598	9.441094	94101504	62533632	33777576	33184
599	12.412373	94101504	62533632	25283648	33184
600	12.333271	94101504	62533632	33151984	33184
601	14.574705	94101504	62533632	26316096	33184
602	2.415544	94101504	62533632	36610328	33184
603	3.581985	94101504	62533632	38994792	33184
604	5.872628	94101504	62533632	26008808	33184
605	5.924414	94101504	62533632	29991208	33184
606	7.328983	94101504	62533632	34771160	33184
607	9.807297	94101504	62533632	24751048	33184
608	9.755567	94101504	62533632	31149984	33184
609	10.799978	94101504	62533632	38335600	33184
610	13.24243	94101504	62533632	30183952	33184
611	13.369767	94101504	62533632	38989320	33184
612	2.640867	94101504	62533632	33193216	33184
613	3.631771	94101504	62533632	35621200	33184
614	5.024203	94101504	62533632	38853312	33184
615	7.173406	94101504	62533632	26779616	33184
616	7.232089	94101504	62533632	31642192	33184
617	8.649651	94101504	62533632	37321512	33184
618	10.920755	94101504	62533632	27800464	33184
619	11.084859	94101504	62533632	35104560	33184
620	14.031842	94101504	62533632	27513944	33184
621	13.675384	94101504	62533632	36450888	33184
622	2.483283	94101504	62533632	31230280	33184
623	3.677832	94101504	62533632	33688408	33184
624	5.124091	94101504	62533632	36969008	33184
625	7.852173	94101504	62533632	25246144	33184
626	7.57884	94101504	62533632	30174568	33184
627	8.580484	94101504	62533632	35927008	33184
628	11.42175	94101504	62533632	26736816	33184
629	11.551693	94101504	62533632	34146472	33184
630	14.078872	94101504	62533632	26890408	33184
631	14.043827	94101504	62533632	35957256	33184
632	2.513612	94101504	62533632	30949280	33184
633	3.75186	94101504	62533632	33444248	33184
634	4.977122	94101504	62533632	36773104	33184
635	6.239417	94101504	62533632	40942016	33184
636	8.758532	94101504	62533632	29605272	33184
637	8.703011	94101504	62533632	35443688	33184
638	12.04712	94101504	62533632	26435424	33184
639	11.696109	94101504	62533632	33952928	33184
640	14.646363	94101504	62533632	26823024	33184
641	13.871602	94101504	62533632	36025064	33184
642	2.549897	94101504	62533632	31248944	33184
643	4.101334	94101504	62533632	33780968	33184
644	5.074849	94101504	62533632	37158840	33184
645	7.984821	94101504	62533632	25594448	33184
646	7.710007	94101504	62533632	30668984	33184
647	9.535258	94101504	62533632	36593104	33184
648	12.699987	94101504	62533632	27574408	33184
649	12.539939	94101504	62533632	35202840	33184
650	15.487767	94101504	62533632	28116128	33184
651	14.280265	94101504	62533632	37452952	33184
652	2.587951	94101504	62533632	32620848	33184
653	4.084182	94101504	62533632	35189440	33184
654	5.23495	94101504	62533632	38627216	33184
655	7.94393	94101504	62533632	26992728	33184
656	7.963247	94101504	62533632	32141608	33184
657	9.080916	94101504	62533632	38160056	33184
658	12.133629	94101504	62533632	29065672	33184
659	11.752823	94101504	62533632	36806080	33184
660	14.886123	94101504	62533632	29623792	33184
661	14.403348	94101504	62533632	39103560	33184
662	2.632098	94101504	62533632	34256848	33184
663	3.941303	94101504	62533632	36862312	33184
664	5.434131	94101504	62533632	40340936	33184
665	7.845662	94101504	62533632	28543616	33184
666	8.093031	94101504	62533632	33769328	33184
667	9.340795	94101504	62533632	39865200	33184
668	12.146865	94101504	62533632	30712104	33184
669	12.145786	94101504	62533632	38560416	33184
670	15.094543	94101504	62533632	31276912	33184
671	15.116027	94101504	62533632	40898824	33184
672	2.668274	94101504	62533632	36005848	33184
673	4.009408	94101504	62533632	38648024	33184
674	7.010762	94101504	62533632	26273384	33184
675	6.74121	94101504	62533632	30682760	33184
676	8.367279	94101504	62533632	35983184	33184
677	11.150279	94101504	62533632	26547888	33184
678	10.912049	94101504	62533632	33617872	33184
679	12.223035	94101504	62533632	41576712	33184
680	14.850681	94101504	62533632	34069144	33184
681	16.678653	94101504	62533632	28510840	33184
682	3.095212	94101504	62533632	40081712	33184
683	5.421596	94101504	62533632	26742168	33184
684	5.603814	94101504	62533632	30316464	33184
685	6.959943	94101504	62533632	34791928	33184
686	8.437095	94101504	62533632	40162176	33184
687	11.031034	94101504	62533632	30423128	33184
688	10.902122	94101504	62533632	37592712	33184
689	14.119382	94101504	62533632	29903768	33184
690	13.69492	94101504	62533632	38882672	33184
691	16.635236	94101504	62533632	32779048	33184
692	2.758335	94101504	62533632	29376824	33184
693	4.118776	94101504	62533632	32092784	33184
694	5.920261	94101504	62533632	35723368	33184
695	6.903099	94101504	62533632	40256416	33184
696	9.735893	94101504	62533632	29682016	33184
697	9.575207	94101504	62533632	36040256	33184
698	12.770207	94101504	62533632	27788472	33184
699	12.767331	94101504	62533632	35968264	33184
700	15.458402	94101504	62533632	29558928	33184
701	15.169344	94101504	62533632	39577608	33184
702	2.851415	94101504	62533632	35475272	33184
703	4.205789	94101504	62533632	38231640	33184
704	5.574749	94101504	62533632	41904144	33184
705	8.596091	94101504	62533632	30278904	33184
706	8.769052	94101504	62533632	35796040	33184
707	9.744243	94101504	62533632	42242096	33184
708	12.627764	94101504	62533632	33257096	33184
709	12.744676	94101504	62533632	41547632	33184
710	15.368036	94101504	62533632	34527416	33184
711	17.559307	94101504	62533632	29406280	33184
712	2.906332	94101504	62533632	41469104	33184
713	5.862067	94101504	62533632	28123528	33184
714	5.61384	94101504	62533632	31863592	33184
715	7.228287	94101504	62533632	36551272	33184
716	8.406254	94101504	62533632	42192008	33184
717	11.444954	94101504	62533632	32566544	33184
718	11.520287	94101504	62533632	40112152	33184
719	14.373225	94101504	63057920	32623008	33184
720	14.291031	94101504	63057920	42091888	33184
721	16.922333	94101504	63057920	36225312	33184
722	3.105095	94371840	63057920	33130856	33184
723	4.289507	94371840	63057920	36006408	33184
724	5.909962	94371840	63057920	39842736	33184
725	9.360679	94371840	63057920	28762624	33184
726	8.538783	94371840	63057920	34527048	33184
727	10.217003	94371840	63057920	41259640	33184
728	13.031498	94371840	63057920	32827352	33184
729	13.044524	94371840	63057920	41493040	33184
730	16.131434	94371840	63057920	34934368	33184
731	18.072868	94371840	63057920	30235624	33184
732	2.935953	94371840	63057920	42839944	33184
733	5.676467	94371840	63057920	29500400	33184
734	6.259993	94371840	63057920	33398712	33184
735	7.276882	94371840	63057920	38273512	33184
736	10.479335	94642176	63057920	28509192	33184
737	10.328104	94642176	63057920	35332784	33184
738	12.014355	94642176	63057920	43123320	33184
739	14.596094	94642176	63057920	35541856	33184
740	16.959356	94642176	63057920	29978960	33184
741	16.341075	94642176	63057920	40712568	33184
742	2.956613	94642176	63582208	37427928	33184
743	4.397374	94642176	63582208	40377224	33184
744	7.683076	94912512	63582208	28452736	33184
745	7.616347	94912512	63582208	33378872	33184
746	8.865235	94912512	63582208	39288256	33184
747	12.094281	94912512	63582208	30352056	33184
748	12.282826	94912512	63582208	38240984	33184
749	15.596618	94912512	63582208	31430192	33184
750	14.683243	94912512	63582208	41333384	33184
751	17.790632	94912512	63582208	36113120	33184
752	3.002876	94912512	63582208	33660472	33184
753	4.461071	94912512	63582208	36651640	33184
754	6.173017	94912512	63582208	40635144	33184
755	9.654951	95182848	64106496	29760104	33184
756	9.397058	95182848	64106496	35744192	33184
757	10.608847	95182848	64106496	42728536	33184
758	13.515448	95182848	64106496	34488928	33184
759	13.601966	95182848	64106496	43480008	33184
760	16.375291	95182848	64106496	37136352	33184
761	18.534332	95182848	64106496	32641512	33184
762	4.51345	95182848	64106496	29494664	33184
763	4.529043	95182848	64106496	32517552	33184
764	6.215316	95182848	64106496	36554144	33184
765	7.489978	95182848	64106496	41608896	33184
766	10.85539	95453184	64106496	31692920	33184
767	10.525405	95453184	64106496	38769824	33184
768	14.266933	95453184	64106496	31180064	33184
769	13.761324	95453184	64106496	40297616	33184
770	16.968033	95453184	64106496	34553912	33184
771	19.296392	95453184	64106496	30592712	33184
772	3.079864	95453184	64106496	43832320	33184
773	6.309032	95453184	64106496	30655984	33184
774	6.104367	95453184	64106496	34743984	33184
775	7.598376	95453184	64106496	39852512	33184
776	11.207036	95723520	64630784	30303120	33184
777	10.873472	95723520	64630784	37486016	33184
778	14.445621	95723520	64630784	30229288	33184
779	14.034182	95723520	64630784	39468384	33184
780	17.305825	95723520	64630784	34003112	33184
781	19.578653	95723520	64630784	30289544	33184
782	3.107019	95723520	64630784	43709944	33184
783	6.34937	95723520	64630784	30644920	33184
784	6.471892	95723520	64630784	34775832	33184
785	8.638082	95723520	64630784	39952424	33184
786	11.432214	95993856	64630784	30519264	33184
787	10.972921	95993856	64630784	37797728	33184
788	15.200573	95993856	64630784	30624872	33184
789	14.164641	95993856	64630784	39946704	33184
790	17.520321	95993856	64630784	34547784	33184
791	20.227853	95993856	64630784	30978832	33184
792	3.151788	95993856	64630784	44534968	33184
793	6.2407	95993856	64630784	31432008	33184
794	6.531985	95993856	64630784	35611952	33184
795	7.99812	95993856	64630784	40839760	33184
796	11.287849	96264192	65155072	31409336	33184
797	11.161977	96264192	65155072	38737088	33184
798	14.951052	96264192	65155072	31582824	33184
799	14.111936	96264192	65155072	41014920	33184
800	17.583987	96264192	65155072	35637184	33184
801	20.187836	96264192	65155072	32079016	33184
802	4.796039	96264192	65155072	29695520	33184
803	4.833	96264192	65155072	32865592	33184
804	6.527635	96264192	65155072	37094520	33184
805	8.118148	96264192	65155072	42395944	33184
806	11.546291	96534528	65155072	32835272	33184
807	11.279491	96534528	65155072	40249072	33184
808	14.813889	96534528	65155072	33022912	33184
809	14.272886	96534528	65155072	42581968	33184
810	17.95551	96534528	65155072	37135512	33184
811	19.889278	96534528	65155072	33530888	33184
812	4.749803	96534528	65155072	31188184	33184
813	4.817536	96534528	65155072	34412224	33184
814	6.61396	96534528	65155072	38690376	33184
815	8.202089	96534528	65155072	44040944	33184
816	11.487711	96804864	65155072	34397640	33184
817	11.444349	96804864	65155072	41912416	33184
818	14.938881	96804864	65679360	34566376	33184
819	14.535877	96804864	65679360	44225976	33184
820	18.482468	96804864	66203648	38756768	33184
821	20.000927	96804864	66203648	35055544	33184
822	3.272832	97075200	66203648	34185264	33184
823	4.876848	97075200	66203648	37429008	33184
824	6.941416	97075200	66203648	41756152	33184
825	10.444851	97075200	66203648	31429152	33184
826	9.72068	97075200	66203648	37927592	33184
827	11.558889	97075200	66203648	45513056	33184
828	14.646275	97075200	66203648	37838544	33184
829	17.151617	97075200	66203648	32267240	33184
830	16.443947	97075200	66203648	43122688	33184
831	19.898146	97075200	66203648	39007848	33184
832	3.315957	97345536	66203648	37697952	33184
833	5.192264	97345536	66203648	40978512	33184
834	6.623357	97345536	66203648	45356528	33184
835	10.365134	97345536	66203648	34638664	33184
836	9.852146	97345536	66203648	41210632	33184
837	13.61418	97345536	66203648	33126408	33184
838	13.35682	97345536	66203648	41914832	33184
839	16.796255	97345536	66203648	35958016	33184
840	19.472711	97345536	66203648	31903808	33184
841	18.115542	97345536	66203648	43994280	33184
842	3.352877	97615872	66727936	42274024	33184
843	4.994856	97615872	66727936	45595848	33184
844	8.694445	97615872	66727936	33848248	33184
845	8.392356	97615872	66727936	39382888	33184
846	10.288396	97615872	66727936	46030456	33184
847	13.535465	97615872	66727936	37431344	33184
848	13.324063	97615872	66727936	46303616	33184
849	17.328706	97615872	66727936	39943600	33184
850	19.010903	97886208	66727936	35569624	33184
851	21.753233	97886208	66727936	32904952	33184
852	5.134346	97886208	66727936	31408576	33184
853	5.304359	97886208	66727936	34793792	33184
854	6.70637	97886208	66727936	39320696	33184
855	8.633906	97886208	66727936	44972080	33184
856	12.161578	97886208	66727936	35690656	33184
857	12.068172	97886208	66727936	43606056	33184
858	15.876771	97886208	66727936	36676440	33184
859	16.544996	97886208	66727936	46875872	33184
860	19.529949	98156544	66727936	41776496	33184
861	21.16764	98156544	66727936	38490432	33184
862	3.421801	98156544	66727936	37994864	33184
863	5.308089	98156544	66727936	41416696	33184
864	7.056417	98156544	66727936	45982816	33184
865	10.484628	98156544	67252224	35547216	33184
866	10.455742	98156544	67252224	42409128	33184
867	14.329423	98156544	67252224	34662968	33184
868	13.644689	98426880	67252224	43812320	33184
869	17.751487	98426880	67252224	38132688	33184
870	19.561857	98426880	67252224	34375736	33184
871	19.173181	98426880	67252224	46978232	33184
872	3.46637	98426880	67252224	45616752	33184
873	7.275374	98426880	67252224	33014528	33184
874	6.876977	98426880	67252224	37632856	33184
875	8.803328	98426880	67252224	43407776	33184
876	12.366904	98426880	67252224	34503232	33184
877	12.26348	98426880	67252224	42593112	33184
878	16.251126	98697216	67252224	36104952	33184
879	15.716505	98697216	67252224	46536016	33184
880	19.180279	98697216	67252224	41802616	33184
881	21.798316	98697216	67252224	38868600	33184
882	3.494307	98697216	67252224	38739280	33184
883	5.428146	98697216	67252224	42248512	33184
884	7.157122	98697216	67252224	46920880	33184
885	11.132681	98967552	67776512	36542104	33184
886	10.826465	98967552	67776512	43559344	33184
887	14.555796	98967552	67776512	35855472	33184
888	14.345658	98967552	67776512	45202640	33184
889	17.670295	98967552	67776512	39680088	33184
890	20.342306	98967552	67776512	36046576	33184
891	23.063065	98967552	67776512	34133424	33184
892	5.35833	98967552	67776512	33237872	33184
893	5.456434	98967552	67776512	36773880	33184
894	7.478679	98967552	67776512	41485968	33184
895	8.994238	98967552	67776512	47383160	33184
896	12.313128	99237888	67776512	38264232	33184
897	12.545868	99237888	67776512	46528488	33184
898	16.01871	99237888	67776512	39786360	33184
899	18.499557	99237888	67776512	35123080	33184
900	17.83756	99237888	67776512	46958496	33184
901	21.52222	99237888	67776512	43681704	33184
902	3.584747	99237888	67776512	43296584	33184
903	5.342812	99237888	67776512	46869608	33184
904	9.297996	99508224	68300800	35560256	33184
905	9.186417	99508224	68300800	41517056	33184
906	12.892252	99508224	68300800	33129104	33184
907	12.697145	99508224	68300800	41478704	33184
908	16.786676	99508224	68300800	35497032	33184
909	16.451336	99508224	68300800	46257584	33184
910	19.896036	99508224	68300800	42037552	33184
911	22.772014	99508224	68300800	39612608	33184
912	3.612682	99508224	68300800	39990376	33184
913	5.490899	99508224	68300800	43599072	33184
914	7.385277	99508224	68300800	48409344	33184
915	11.118337	99778560	68300800	38155728	33184
916	11.090157	99778560	68300800	45391672	33184
917	14.463244	99778560	68300800	37803464	33184
918	15.083403	99778560	68300800	47447960	33184
919	19.001114	99778560	68300800	42198808	33184
920	20.771075	100048896	68825088	38861632	33184
921	22.764209	100048896	68825088	37087080	33184
922	3.662547	100048896	68825088	38055416	33184
923	5.444123	100048896	68825088	41698416	33184
924	7.420832	100048896	68825088	46590744	33184
925	11.347168	100319232	68825088	36678520	33184
926	11.103558	100319232	68825088	43974960	33184
927	14.973518	100319232	68825088	36787312	33184
928	15.122276	100319232	68825088	46525488	33184
929	18.484941	100319232	68825088	41441000	33184
930	21.385006	100319232	68825088	38264048	33184
931	23.484943	100319232	68825088	36738736	33184
932	3.725212	100319232	68825088	37964680	33184
933	5.53446	100319232	68825088	41644248	33184
934	7.398916	100319232	68825088	46564248	33184
935	11.928909	100589568	68825088	36830144	33184
936	11.22947	100589568	68825088	44210432	33184
937	15.045782	100589568	69349376	37131112	33184
938	15.143263	100589568	69349376	46980712	33184
939	18.944725	100589568	69873664	41929120	33184
940	21.487913	100589568	69873664	38880888	33184
941	23.33517	100589568	69873664	37404240	33184
942	3.724209	100589568	69873664	38716192	33184
943	5.583055	100589568	69873664	42448736	33184
944	7.676358	100589568	69873664	47419376	33184
945	11.414604	100859904	69873664	37605008	33184
946	11.240295	100859904	69873664	45068400	33184
947	15.257	100859904	69873664	37931168	33184
948	14.891242	100859904	69873664	47881896	33184
949	18.619028	100859904	69873664	42883288	33184
950	21.139314	100859904	69873664	39786760	33184
951	23.674848	100859904	69873664	38386944	33184
952	3.935626	100859904	69873664	39832616	33184
953	5.650034	100859904	69873664	43597632	33184
954	7.583099	100859904	69873664	48604480	33184
955	11.562776	101130240	69873664	38749520	33184
956	11.57862	101130240	69873664	46276032	33184
957	15.529791	101130240	69873664	39127224	33184
958	15.309295	101130240	69873664	49186280	33184
959	19.296356	101130240	70397952	44151680	33184
960	21.284028	101130240	70397952	41039208	33184
961	23.584523	101130240	70397952	39677832	33184
962	3.823288	101130240	70397952	41084960	33184
963	5.693388	101130240	70397952	44875000	33184
964	7.658004	101130240	70397952	49931392	33184
965	11.527077	101400576	70397952	40066512	33184
966	11.384771	101400576	70397952	47659568	33184
967	15.46343	101400576	70397952	40472632	33184
968	18.029524	101400576	70397952	35511664	33184
969	17.128659	101400576	70397952	46916512	33184
970	21.508646	101400576	70397952	43608552	33184
971	23.848823	101400576	70397952	42054688	33184
972	3.987439	101400576	70397952	43323008	33184
973	6.02042	101670912	70397952	47150000	33184
974	10.301351	101670912	70397952	36408352	33184
975	10.181747	101670912	70397952	42792160	33184
976	11.681818	101670912	70397952	50460744	33184
977	15.780952	101670912	70397952	43030208	33184
978	18.094006	101670912	70922240	37864456	33184
979	17.595122	101670912	70922240	49379280	33184
980	22.380882	101941248	70922240	45899328	33184
981	23.835234	101941248	70922240	44164576	33184
982	3.896166	101941248	70922240	45395856	33184
983	6.04826	101941248	70922240	49260856	33184
984	10.310424	101941248	70922240	38399128	33184
985	9.934688	101941248	70922240	44847632	33184
986	14.172672	101941248	70922240	36945832	33184
987	13.954135	101941248	70922240	45977888	33184
988	17.937363	102211584	70922240	40531456	33184
989	21.164408	102211584	70922240	37178904	33184
990	19.610358	102211584	70922240	50100792	33184
991	23.678487	102211584	70922240	47996392	33184
992	3.929836	102211584	70922240	48938600	33184
993	8.021609	102211584	70922240	36820128	33184
994	8.149073	102211584	70922240	42028528	33184
995	10.296839	102211584	70922240	48537152	33184
996	14.026592	102481920	71446528	40297048	33184
997	14.150754	102481920	71446528	49415008	33184
998	17.862448	102481920	71446528	43681440	33184
999	20.369493	102481920	71446528	40005568	33184
1000	22.936446	102481920	71446528	38129208	33184
