x	Duration	RSS	HeapTotal	HeapUsed	External
0	NA	101429248	67252224	14403888	33184
1	0.331719	101429248	67252224	14456176	33184
2	0.28046	101429248	67252224	14524136	33184
3	0.311492	101429248	67252224	14616832	33184
4	0.38424	101429248	67252224	14735936	33184
5	0.44487	101429248	67252224	14883208	33184
6	0.523471	101429248	67252224	15059336	33184
7	0.604229	101429248	67252224	15265552	33184
8	0.702164	101429248	67252224	15503136	33184
9	0.774124	101429248	67252224	15774496	33184
10	0.876046	101429248	67252224	16079936	33184
11	1.384305	101429248	67252224	16420696	33184
12	0.241844	101429248	67252224	16790008	33184
13	0.406744	101429248	67252224	16904120	33184
14	0.678615	101429248	67252224	17053384	33184
15	0.334712	101429248	67252224	17242872	33184
16	0.565109	101429248	67252224	17474328	33184
17	0.486572	101429248	67252224	17748448	33184
18	0.54227	101429248	67252224	18066440	33184
19	0.768784	101429248	67252224	18432648	33184
20	0.687185	101429248	67252224	18843232	33184
21	0.756558	101429248	67252224	19304688	33184
22	0.170227	101429248	67252224	19823320	33184
23	0.25986	101429248	67252224	19973000	33184
24	0.335579	101429248	67252224	20174784	33184
25	0.410609	101429248	67252224	20429944	33184
26	0.497357	101429248	67252224	20740240	33184
27	0.773751	101429248	67252224	21106272	33184
28	0.675297	101429248	67252224	21529344	33184
29	0.743407	101429248	67252224	22010696	33184
30	0.825975	101429248	67252224	22552728	33184
31	0.916987	101429248	67252224	23155240	33184
32	0.20778	101429248	67252224	23843200	33184
33	0.313371	101429248	67252224	24029672	33184
34	0.422331	101429248	67252224	24280504	33184
35	0.503362	101429248	67252224	24597040	33184
36	0.60133	101429248	67252224	24980848	33184
37	0.702436	101429248	67252224	25432760	33184
38	1.520989	101429248	67252224	25953976	33184
39	0.924843	101429248	67252224	26545696	33184
40	1.024114	101429248	67252224	27210040	33184
41	1.187273	101429248	67252224	27947512	33184
42	0.243849	101429248	67252224	28795096	33184
43	0.372844	101429248	67252224	29018336	33184
44	0.539009	101429248	67252224	29319312	33184
45	0.602219	101429248	67252224	29700600	33184
46	0.956201	101429248	67252224	30162640	33184
47	0.842417	101429248	67252224	30706752	33184
48	1.921816	101429248	67252224	15072104	33184
49	1.185368	101429248	67252224	15784192	33184
50	1.308482	101429248	67252224	16582864	33184
51	1.446512	101429248	67252224	17468600	33184
52	0.301238	101429248	67252224	18493408	33184
53	0.460969	101429248	67252224	18758720	33184
54	0.606162	101429248	67252224	19114728	33184
55	0.748471	101429248	67252224	19562664	33184
56	0.916459	101429248	67252224	20104168	33184
57	1.047147	101429248	67252224	20740032	33184
58	1.191981	101429248	67252224	21471848	33184
59	1.354911	101429248	67252224	22300096	33184
60	1.499829	101429248	67252224	23227504	33184
61	1.653769	101429248	67252224	24253944	33184
62	0.353145	101429248	67252224	25446328	33184
63	0.524432	101429248	67252224	25748480	33184
64	0.686087	101429248	67252224	26153504	33184
65	0.828174	101429248	67252224	26665416	33184
66	1.137652	101429248	67252224	27280472	33184
67	1.078708	101429248	67252224	28002176	33184
68	1.445319	101429248	67252224	28833152	33184
69	1.415986	101429248	67252224	29772592	33184
70	1.539432	101429248	67252224	30821928	33184
71	2.517552	101429248	67252224	15780496	33184
72	0.377488	101429248	67252224	17132120	33184
73	0.571986	101429248	67252224	17470896	33184
74	0.922037	101429248	67252224	17924800	33184
75	0.866743	101429248	67252224	18495056	33184
76	1.031316	101429248	67252224	19183464	33184
77	1.206776	101429248	67252224	19990696	33184
78	1.378141	101429248	67252224	20917952	33184
79	1.550867	101429248	67252224	21966512	33184
80	1.731014	101429248	67252224	23138736	33184
81	1.963467	101429248	67252224	24435528	33184
82	0.390587	101429248	67252224	25948840	33184
83	0.585874	101429248	67252224	26324328	33184
84	0.767104	101429248	67252224	26829448	33184
85	0.957954	101429248	67252224	27463224	33184
86	1.149679	101429248	67252224	28228488	33184
87	1.335894	101429248	67252224	29126800	33184
88	1.603106	101429248	67252224	30157736	33184
89	1.72368	101429248	67252224	31323368	33184
90	2.669145	101429248	67252224	16297552	33184
91	2.121885	101429248	67252224	17739304	33184
92	0.428161	101429248	67252224	19430984	33184
93	0.641722	101429248	67252224	19852984	33184
94	0.847646	101429248	67252224	20417888	33184
95	1.051749	101429248	67252224	21126912	33184
96	1.278708	101429248	67252224	21981816	33184
97	1.468783	101429248	67252224	22983336	33184
98	1.881006	101429248	67252224	24132696	33184
99	1.893009	101429248	67252224	25431056	33184
100	2.136964	101429248	67252224	26880576	33184
101	2.318552	101429248	67252224	28481648	33184
102	0.461612	101429248	67252224	30357512	33184
103	0.699234	101429248	67252224	30816336	33184
104	0.920142	101429248	67252224	31430304	33184
105	2.038734	101429248	67252224	15857112	33184
106	1.377743	101429248	67252224	16785600	33184
107	1.610989	101429248	67252224	17872968	33184
108	1.829309	101429248	67252224	19120440	33184
109	2.064821	101429248	67252224	20529312	33184
110	2.291369	101429248	67252224	22101720	33184
111	2.718782	101429248	67252224	23837832	33184
112	0.504263	101429248	67252224	25875224	33184
113	0.757541	101429248	67252224	26370832	33184
114	0.999328	101429248	67252224	27034064	33184
115	1.249789	101429248	67252224	27865752	33184
116	1.527789	101429248	67252224	28868304	33184
117	1.906392	101429248	67252224	30043184	33184
118	1.992695	101429248	67252224	31388832	33184
119	2.877963	101429248	67252224	16567320	33184
120	2.473569	101429248	67252224	18262288	33184
121	2.726359	101429248	67252224	20133728	33184
122	0.538413	101429248	67252224	22328952	33184
123	0.807071	101429248	67252224	22861352	33184
124	1.068023	101429248	67252224	23573456	33184
125	1.341577	101429248	67252224	24466640	33184
126	1.591018	101429248	67252224	25542528	33184
127	1.870388	101429248	67252224	26801976	33184
128	2.3021	101429248	67252224	28247856	33184
129	2.592751	101429248	67252224	29877584	33184
130	2.657995	101429248	67252224	31695248	33184
131	3.473125	101429248	67252224	17322536	33184
132	0.57453	101429248	67252224	19681896	33184
133	0.879992	101429248	67252224	20251128	33184
134	1.176582	101429248	67252224	21012312	33184
135	1.425151	101429248	67252224	21968568	33184
136	1.709902	101429248	67252224	23117912	33184
137	1.982411	101429248	67252224	24463296	33184
138	2.289726	101429248	67252224	26005240	33184
139	2.56821	101429248	67252224	27745400	33184
140	3.047944	101429248	67252224	29685736	33184
141	3.150538	101429248	67252224	31827736	33184
142	0.617397	101429248	67252224	17966856	33184
143	0.956258	101429248	67252224	18578376	33184
144	1.46202	101429248	67252224	19396032	33184
145	1.51261	101429248	67252224	20420944	33184
146	1.828383	101429248	67252224	21654968	33184
147	2.257538	101429248	67252224	23099736	33184
148	2.444503	101429248	67252224	24754456	33184
149	2.735045	101429248	67252224	26621560	33184
150	3.089449	101429248	67252224	28703160	33184
151	3.344066	101429248	67252224	30999296	33184
152	0.693912	101429248	67252224	17434000	33184
153	1.070266	101429248	67252224	18082352	33184
154	1.323011	101429248	67252224	18949040	33184
155	1.608989	101429248	67252224	20035336	33184
156	1.942787	101429248	67252224	21343064	33184
157	2.248192	101429248	67252224	22872760	33184
158	2.571274	101429248	67252224	24625664	33184
159	2.988489	101429248	67252224	26603088	33184
160	3.231571	101429248	67252224	28808552	33184
161	3.764181	101429248	67252224	31239616	33184
162	0.694148	101429248	67252224	17810568	33184
163	1.036361	101429248	67252224	18495744	33184
164	1.369093	101429248	67252224	19411552	33184
165	1.996572	101429248	67252224	20559224	33184
166	2.132957	101429248	67252224	21943896	33184
167	2.386406	101429248	67252224	23559456	33184
168	2.774585	101429248	67252224	25410584	33184
169	3.075171	101429248	67252224	27498480	33184
170	3.395947	101429248	67252224	29825400	33184
171	4.440404	101429248	67252224	16301728	33184
172	0.768513	101429248	67252224	19334776	33184
173	1.153965	101429248	67252224	20056832	33184
174	1.529362	101429248	67252224	21021776	33184
175	1.913679	101429248	67252224	22230816	33184
176	2.309279	101429248	67252224	23685664	33184
177	2.539691	101429248	67252224	25387232	33184
178	2.920925	101429248	67252224	27336808	33184
179	3.2566	101429248	67252224	29535152	33184
180	3.650065	101429248	67252224	31988864	33184
181	4.578908	101429248	67252224	18326464	33184
182	0.809039	101429248	67252224	21531848	33184
183	1.212767	101429248	67252224	22303336	33184
184	1.612825	101429248	67252224	23336176	33184
185	1.890271	101429248	67252224	24627328	33184
186	2.279566	101429248	67252224	26180856	33184
187	2.649868	101429248	67252224	27997568	33184
188	3.03289	101429248	67252224	30078248	33184
189	4.012724	101429248	67252224	16312792	33184
190	4.017139	101429248	67252224	18926776	33184
191	4.872882	101429248	67252224	21808696	33184
192	0.80395	101429248	67252224	25215024	33184
193	1.206033	101429248	67252224	26023056	33184
194	1.598145	101429248	67252224	27102624	33184
195	1.979276	101429248	67252224	28454952	33184
196	2.439367	101429248	67252224	30081936	33184
197	2.773963	101429248	67252224	31984096	33184
198	3.722198	101429248	67252224	17814792	33184
199	3.781396	101429248	67252224	20271232	33184
200	4.083645	101429248	67252224	23007456	33184
201	4.397409	101429248	67252224	26024152	33184
202	0.884907	101429248	67252224	29585064	33184
203	1.271591	101429248	67252224	30429888	33184
204	2.057441	101429248	67252224	31560248	33184
205	2.540391	101429248	67252224	16698208	33184
206	2.500978	101429248	67252224	18399872	33184
207	2.963497	101429248	67252224	20388040	33184
208	3.31884	101429248	67252224	22664824	33184
209	3.776533	101429248	67252224	25231648	33184
210	4.208457	101429248	67252224	28090672	33184
211	4.570735	101429248	67252224	31242240	33184
212	0.885584	101429248	67252224	18720104	33184
213	1.335936	101429248	67252224	19601808	33184
214	1.738147	101429248	67252224	20779632	33184
215	2.17565	101429248	67252224	22254744	33184
216	2.593378	101429248	67252224	24029648	33184
217	3.028089	101429248	67252224	26103992	33184
218	3.515274	101429248	67252224	28478912	33184
219	3.91049	101429248	67252224	31156208	33184
220	4.850689	101429248	67252224	17922376	33184
221	4.829066	101429248	67252224	21208696	33184
222	0.915457	101429248	67252224	25090216	33184
223	1.372644	101429248	67252224	26008648	33184
224	1.874501	101429248	67252224	27235544	33184
225	2.25841	101429248	67252224	28773224	33184
226	2.757132	101429248	67252224	30620976	33184
227	3.858112	101429248	67252224	16647648	33184
228	4.160127	101429248	67252224	19120816	33184
229	4.285507	101429248	67252224	21915904	33184
230	4.761507	101429248	67252224	25027528	33184
231	5.435892	101429248	67252224	28457552	33184
232	0.952487	101429248	67252224	32515080	33184
233	2.063495	101429248	67252224	17110272	33184
234	1.913456	101429248	67252224	18397640	33184
235	2.373414	101429248	67252224	20009912	33184
236	2.834116	101429248	67252224	21948544	33184
237	3.362705	101429248	67252224	24214464	33184
238	4.168146	101429248	67252224	26809016	33184
239	4.456751	101429248	67252224	29732992	33184
240	6.034497	101429248	67252224	16984712	33184
241	5.362544	101429248	67252224	20572696	33184
242	0.99779	101429248	67252224	24817080	33184
243	1.48578	101429248	67252224	25817752	33184
244	2.018817	101429248	67252224	27154272	33184
245	2.488328	101429248	67252224	28827840	33184
246	2.951951	101429248	67252224	30841376	33184
247	4.253752	101429248	67252224	17069768	33184
248	4.152379	101429248	67252224	19762256	33184
249	4.88788	101429248	67252224	22796728	33184
250	4.904696	101429248	67252224	26175480	33184
251	5.456011	101429248	67252224	29898584	33184
252	1.084795	101429248	67252224	18300416	33184
253	1.648513	101429248	67252224	19337952	33184
254	2.070206	101429248	67252224	20723544	33184
255	2.770072	101429248	67252224	22458408	33184
256	3.062566	101429248	67252224	24544384	33184
257	3.555893	101429248	67252224	26982496	33184
258	4.325405	101429248	67252224	29773528	33184
259	4.624772	101429248	67252224	32918688	33184
260	5.564276	101429248	67252224	20035584	33184
261	5.714952	101429248	67252224	23893664	33184
262	1.077514	101429248	67252224	28453320	33184
263	1.831821	101429248	67252224	29527696	33184
264	2.129952	101429248	67252224	30965304	33184
265	2.654233	101429248	67252224	32761632	33184
266	3.564887	101429248	67252224	18572040	33184
267	3.939738	101429248	67252224	21095776	33184
268	4.234452	101429248	67252224	23984760	33184
269	4.990138	101429248	67252224	27246616	33184
270	5.345995	101429248	67252224	30871992	33184
271	6.402128	101429248	67252224	18762912	33184
272	1.1647	101429248	67252224	23494376	33184
273	1.7463	101429248	67252224	24605616	33184
274	2.326193	101429248	67252224	26090568	33184
275	3.065552	101429248	67252224	27948232	33184
276	3.302886	101429248	67252224	30181504	33184
277	3.841055	101429248	67252224	32791072	33184
278	4.939937	101429248	67252224	19453040	33184
279	4.940557	101429248	67252224	22823832	33184
280	5.494371	101429248	67252224	26572424	33184
281	6.137122	101429248	67252224	30704184	33184
282	1.157359	101429248	67252224	19547112	33184
283	1.718313	101429248	67252224	20695200	33184
284	2.268682	101429248	67252224	22228032	33184
285	2.932804	101429248	67252224	24146984	33184
286	3.455979	101429248	67252224	26453840	33184
287	3.967885	101429248	67252224	29149280	33184
288	4.555104	101429248	67252224	32235536	33184
289	5.767535	101429248	67252224	19457904	33184
290	5.763533	101429248	67252224	23328864	33184
291	6.492803	101429248	67252224	27591744	33184
292	1.189274	101429248	67252224	32639048	33184
293	2.248304	101429248	67252224	17554272	33184
294	2.369973	101429248	67252224	19136216	33184
295	2.929086	101429248	67252224	21116584	33184
296	3.551143	101429248	67252224	23497056	33184
297	5.124095	101429248	67252224	26278344	33184
298	4.804139	101429248	67252224	29471504	33184
299	5.499432	101429248	67252224	33058384	33184
300	6.34056	101429248	67252224	20777256	33184
301	6.526839	101429248	67252224	25175160	33184
302	1.232219	101429248	67252224	30383400	33184
303	2.081465	101429248	67252224	31604944	33184
304	2.429135	101429248	67252224	33236160	33184
305	3.492322	101429248	67252224	19026480	33184
306	3.719295	101429248	67252224	21480608	33184
307	4.766399	101429248	67252224	24347744	33184
308	5.094324	101429248	67252224	27629256	33184
309	5.792434	101429248	67252224	31326464	33184
310	6.731377	101429248	67252224	19420032	33184
311	6.691211	101429248	67252224	23954176	33184
312	1.274403	101429248	67252224	29321040	33184
313	1.8925	101429248	67252224	30579416	33184
314	2.570923	101429248	67252224	32259472	33184
315	3.71416	101429248	67252224	18242744	33184
316	3.989204	101429248	67252224	20771664	33184
317	4.370447	101429248	67252224	23724736	33184
318	4.988284	101429248	67252224	27105664	33184
319	5.843466	101429248	67252224	30913048	33184
320	7.014806	101429248	67252224	19223480	33184
321	6.889603	101429248	67252224	23891320	33184
322	1.305942	101429248	67252224	29417832	33184
323	1.956536	101429248	67252224	30713120	33184
324	2.572982	101429248	67252224	32442344	33184
325	3.807433	101429248	67252224	18487040	33184
326	4.297673	101429248	67252224	21088384	33184
327	4.582648	101429248	67252224	24127472	33184
328	5.172621	101429248	67252224	27605480	33184
329	5.790877	101429248	67252224	31526184	33184
330	7.353539	101429248	67252224	19887200	33184
331	7.11998	101429248	67252224	24699104	33184
332	1.340454	101429248	67252224	30387976	33184
333	2.014883	101429248	67252224	31720040	33184
334	2.654378	101429248	67252224	33498496	33184
335	3.838546	101429248	67252224	19486232	33184
336	3.979498	101429248	67252224	22161224	33184
337	4.863164	101429248	67252224	25288128	33184
338	5.439348	101429248	67252224	28864144	33184
339	6.227933	101429248	67252224	32892592	33184
340	7.455091	101429248	67252224	21244360	33184
341	7.78793	101429248	67252224	26182912	33184
342	1.394432	101429248	67252224	32028992	33184
343	2.063522	101429248	67252224	33397800	33184
344	3.348841	101429248	67252224	19037800	33184
345	3.501593	101429248	67252224	21325008	33184
346	4.526829	101429248	67252224	24073600	33184
347	4.817071	101429248	67252224	27290312	33184
348	5.730076	101429248	67252224	30964576	33184
349	6.975704	101429248	67252224	19250920	33184
350	7.136936	101429248	67252224	23856552	33184
351	7.847632	101429248	67252224	28930008	33184
352	1.979073	101429248	67252224	18698072	33184
353	2.127514	101429248	67252224	20103736	33184
354	3.045445	101429248	67252224	21980176	33184
355	3.507914	101429248	67252224	24330200	33184
356	4.19916	101429248	67252224	27152504	33184
357	4.910547	101429248	67252224	30449112	33184
358	5.608742	101429248	67252224	34229736	33184
359	7.116788	101429248	67252224	22220136	33184
360	7.095978	101429248	67252224	26982232	33184
361	7.93259	101429248	67252224	32237000	33184
362	1.474581	101429248	67252224	22432200	33184
363	2.186886	101429248	67252224	23912872	33184
364	2.888571	101429248	67252224	25889144	33184
365	3.825999	101429248	67252224	28362600	33184
366	4.328307	101429248	67252224	31334752	33184
367	5.056651	101429248	67252224	34806600	33184
368	6.892002	101429248	67252224	22452688	33184
369	6.546319	101429248	67252224	26926760	33184
370	7.32295	101429248	67252224	31908008	33184
371	8.947657	101429248	67252224	21405744	33184
372	1.49737	101429248	67252224	27913352	33184
373	2.244907	101429248	67252224	29437096	33184
374	2.976447	101429248	67252224	31464560	33184
375	3.729704	101429248	67252224	33999536	33184
376	5.176444	101429248	67252224	20863648	33184
377	5.384305	101429248	67252224	24421112	33184
378	6.213538	101429248	67252224	28493368	33184
379	6.663386	101429248	67252224	33085344	33184
380	8.362913	101429248	67252224	22110600	33184
381	8.167427	101429248	67252224	27728168	33184
382	1.535043	101429248	67252224	34390984	33184
383	2.911412	101429248	67252224	19713256	33184
384	3.063888	101429248	67252224	21787664	33184
385	4.016898	101429248	67252224	24383864	33184
386	4.55723	101429248	67252224	27503264	33184
387	5.319246	101429248	67252224	31146552	33184
388	6.760654	101429248	67252224	35325856	33184
389	7.900321	101429248	67252224	23681352	33184
390	7.634695	101429248	67252224	28904784	33184
391	8.583256	101429248	67252224	34657256	33184
392	1.592001	101429248	67252224	25193336	33184
393	2.343439	101429248	67252224	26784304	33184
394	3.126553	101429248	67252224	28907888	33184
395	4.123616	101429248	67252224	31565256	33184
396	4.703928	101429248	67252224	34758216	33184
397	6.358148	101429248	67252224	22251832	33184
398	6.217169	101429248	67252224	26518352	33184
399	7.011467	101429248	67252224	31323744	33184
400	8.772653	101429248	67252224	20857872	33184
401	8.848158	101429248	67252224	26745464	33184
402	1.610287	101429248	67252224	33729680	33184
403	2.415064	101429248	67252224	35357480	33184
404	3.899727	101429248	67252224	21222096	33184
405	4.14224	101429248	67252224	23948856	33184
406	4.965422	101429248	67252224	27215376	33184
407	6.021681	101429248	67252224	31031584	33184
408	6.42119	101429248	67252224	35405288	33184
409	8.391085	101429248	67252224	24025376	33184
410	8.001569	101429248	67252224	29494696	33184
411	9.158427	101429248	67252224	35521448	33184
412	1.930647	101429248	67252224	26299592	33184
413	2.468697	101429248	67252224	27964264	33184
414	3.272958	101429248	67252224	30186040	33184
415	4.079603	101429248	67252224	32972720	33184
416	5.790956	101429248	67252224	20357944	33184
417	5.721826	101429248	67252224	24266848	33184
418	6.898182	101429248	67252224	28729984	33184
419	7.563953	101429248	67252224	33756224	33184
420	8.976187	101429248	67252224	23264544	33184
421	9.606377	101429248	67252224	29422032	33184
422	2.373083	101429248	67252224	20451592	33184
423	2.757501	101429248	67252224	22153144	33184
424	3.419495	101429248	67252224	24423952	33184
425	4.191233	101429248	67252224	27265336	33184
426	5.012499	101429248	67252224	30682016	33184
427	6.147292	101429248	67252224	34668944	33184
428	8.022472	101429248	67252224	23079688	33184
429	7.617394	101429248	67252224	28218072	33184
430	8.360806	101429248	67252224	33937272	33184
431	10.637905	101429248	67252224	24124944	33184
432	1.745548	101429248	67252224	31588360	33184
433	2.577714	101429248	67252224	33326520	33184
434	3.43004	101429248	67252224	35646408	33184
435	5.041615	101429248	67252224	22321280	33184
436	5.169987	101429248	67252224	25814824	33184
437	6.215566	101429248	67252224	29887616	33184
438	6.837049	101429248	67252224	34547720	33184
439	8.879533	101429248	67252224	23711752	33184
440	8.638431	101429248	67252224	29548752	33184
441	9.640167	101429248	67252224	35982400	33184
442	2.012162	101429248	67252224	27260624	33184
443	2.653878	101429248	67252224	29035776	33184
444	3.512844	101429248	67252224	31404880	33184
445	4.376143	101429248	67252224	34370432	33184
446	6.418519	101429248	67252224	21870664	33184
447	6.552941	101429248	67252224	26036312	33184
448	6.99683	101429248	67252224	30803240	33184
449	8.180826	101429248	67252224	36164408	33184
450	9.734514	101429248	67252224	25779912	33184
451	10.212728	101429248	67252224	32350480	33184
452	2.052031	101429248	67252224	24304624	33184
453	2.714424	101429248	67252224	26117008	33184
454	3.581094	101429248	67252224	28535112	33184
455	4.55047	101429248	67252224	31564832	33184
456	5.366841	101429248	67252224	35199480	33184
457	7.386754	101429248	67252224	23302416	33184
458	7.143549	101429248	67252224	28159256	33184
459	8.255876	101429248	67252224	33627200	33184
460	10.050385	101429248	67252224	23733176	33184
461	10.402696	101429248	67252224	30430864	33184
462	1.915611	101429248	67252224	22820248	33184
463	2.864922	101429248	67252224	24668968	33184
464	3.792105	101429248	67252224	27136152	33184
465	4.742163	101429248	67252224	30222992	33184
466	5.683698	101429248	67252224	33931200	33184
467	7.842349	101429248	67252224	22324416	33184
468	7.569983	101429248	67252224	27278288	33184
469	8.248332	101429248	67252224	32856616	33184
470	10.301485	101429248	67252224	23225120	33184
471	10.529516	101429248	67252224	30064472	33184
472	2.683823	101429248	67252224	21872368	33184
473	2.843695	101429248	67252224	23757856	33184
474	3.733527	101429248	67252224	26274064	33184
475	4.649011	101429248	67252224	29425872	33184
476	5.58588	101429248	67252224	33207648	33184
477	7.880711	101429248	67252224	21830696	33184
478	7.858264	101429248	67252224	26890904	33184
479	8.641581	101429248	67252224	32583928	33184
480	10.53204	101429248	67252224	23131424	33184
481	10.657743	101429248	67252224	30098744	33184
482	2.722269	101429248	67252224	22062384	33184
483	2.93521	101429248	67252224	23984752	33184
484	3.853861	101429248	67252224	26550104	33184
485	4.75017	101429248	67252224	29759656	33184
486	5.910934	101429248	67252224	33615352	33184
487	7.989023	101429248	67252224	22296432	33184
488	7.661848	101429248	67252224	27448168	33184
489	8.595399	101429248	67252224	33250640	33184
490	11.484223	101429248	67252224	23867552	33184
491	10.903494	101429248	67252224	30976840	33184
492	1.979262	101429248	67252224	23875720	33184
493	2.935621	101429248	67252224	25834952	33184
494	3.903919	101429248	67252224	28449360	33184
495	5.077849	101429248	67252224	31720312	33184
496	6.042911	101429248	67252224	35653352	33184
497	7.791618	101429248	67252224	24181592	33184
498	7.983463	101429248	67252224	29433808	33184
499	8.73306	101429248	67252224	35343544	33184
500	10.689976	101429248	67252224	25811680	33184
501	10.912642	101429248	67252224	33049008	33184
502	2.084449	101429248	67252224	25861128	33184
503	3.084126	101429248	67252224	27857168	33184
504	4.101882	101429248	67252224	30523536	33184
505	5.313489	101429248	67252224	33857584	33184
506	5.929563	101429248	67252224	37860688	33184
507	8.121941	101429248	67252224	26189144	33184
508	7.922689	101429248	67252224	31538168	33184
509	8.97923	101429248	67252224	37558264	33184
510	10.948591	101429248	67252224	27893352	33184
511	11.349585	101429248	67252224	35266592	33184
512	2.041445	101429248	67252224	27974048	33184
513	3.267183	101429248	67252224	30006880	33184
514	4.043771	101429248	67252224	32719512	33184
515	5.038891	101429248	67252224	36113128	33184
516	7.283706	101429248	67252224	24103568	33184
517	7.091433	101429248	67252224	28866400	33184
518	8.158882	101429248	67252224	34318968	33184
519	10.227591	101429248	67252224	24560032	33184
520	10.116173	101429248	67252224	31379632	33184
521	12.683507	101429248	67252224	23419896	33184
522	2.096785	101429248	67252224	32319376	33184
523	3.094963	101429248	67252224	34388944	33184
524	4.125463	101429248	67252224	37152152	33184
525	6.172633	101429248	67252224	24415880	33184
526	6.420036	101429248	67252224	28568368	33184
527	7.244237	101429248	67252224	33424984	33184
528	9.590262	101429248	67252224	23326832	33184
529	9.295646	101429248	67252224	29570584	33184
530	10.354707	101429248	67252224	36512040	33184
531	12.639026	101429248	67252224	27988992	33184
532	2.114383	101429248	67252224	37055200	33184
533	4.196958	101429248	67252224	23059440	33184
534	4.350447	101429248	67252224	25870128	33184
535	5.403254	101429248	67252224	29386672	33184
536	6.600671	101429248	67252224	33610392	33184
537	7.391629	101429248	67252224	38542176	33184
538	9.67913	101429248	67252224	27838560	33184
539	9.512972	101429248	67252224	34190144	33184
540	12.264542	101429248	67252224	25452024	33184
541	11.847865	101429248	67252224	33231216	33184
542	2.168486	101429248	67252224	26762616	33184
543	3.454336	101429248	67252224	28909616	33184
544	4.341083	101429248	67252224	31769528	33184
545	5.599613	101429248	67252224	35347208	33184
546	7.617761	101429248	67252224	23778512	33184
547	7.95768	101429248	67252224	28799424	33184
548	8.778279	101429248	67252224	34541864	33184
549	11.278789	101429248	67252224	25206432	33184
550	10.90048	101429248	67252224	32393336	33184
551	13.875561	101429248	67252224	24794472	33184
552	2.211399	101429248	67252224	34194424	33184
553	3.299975	101429248	67252224	36375208	33184
554	5.92618	101429248	67252224	23290960	33184
555	5.522916	101429248	67252224	26930240	33184
556	6.771064	101429248	67252224	31314816	33184
557	7.598339	101429248	67252224	36432312	33184
558	10.027754	101429248	67252224	26306144	33184
559	10.048207	101429248	67252224	32905872	33184
560	12.891257	101429248	67252224	24662248	33184
561	12.444577	101429248	67252224	32759640	33184
562	2.252803	101429248	67252224	26812000	33184
563	3.578402	101429248	67252224	29049272	33184
564	4.471442	101429248	67252224	32034808	33184
565	5.580381	101429248	67252224	35775272	33184
566	7.899633	101429248	67252224	24387296	33184
567	7.9747	101429248	67252224	29626080	33184
568	9.308791	101429248	67252224	35615984	33184
569	11.595873	101429248	67252224	26449472	33184
570	11.661397	101429248	67252224	33951376	33184
571	13.854734	101429248	67252224	26534272	33184
572	2.280666	101429248	67252224	36357456	33184
573	3.395589	101429248	67252224	38631520	33184
574	5.808661	101429248	67252224	25481016	33184
575	5.629347	101429248	67252224	29276712	33184
576	7.009401	101429248	67252224	33842784	33184
577	7.900845	101429248	67252224	39175064	33184
578	10.035299	101429248	67252224	28995136	33184
579	10.386542	101429248	67252224	35849624	33184
580	12.737094	101429248	67252224	27568376	33184
581	12.720382	101429248	67252224	35959992	33184
582	2.315518	101429248	67252224	30006120	33184
583	3.474315	101429248	67252224	32319088	33184
584	4.585507	101429248	67252224	35409024	33184
585	5.782333	101429248	67252224	39267592	33184
586	8.135398	101429248	67252224	27623944	33184
587	8.034808	101429248	67252224	33032792	33184
588	9.422598	101429248	67252224	39219152	33184
589	11.585793	101429248	67252224	29836928	33184
590	11.898347	101429248	67252224	37583936	33184
591	14.016698	101429248	67252224	29989328	33184
592	3.695437	101429248	67252224	23974000	33184
593	3.638484	101429248	67252224	26321656	33184
594	4.811837	101429248	67252224	29462176	33184
595	6.332886	101429248	67252224	33380784	33184
596	7.030402	101429248	67252224	38087176	33184
597	9.359009	101429248	67252224	27528136	33184
598	9.624694	101429248	67252224	33812720	33184
599	12.749512	101429248	67252224	25320352	33184
600	12.118561	101429248	67252224	33188688	33184
601	14.857374	101429248	67252224	26352800	33184
602	2.461927	101429248	67252224	36647032	33184
603	3.687779	101429248	67252224	39031496	33184
604	5.965722	101429248	67252224	26045512	33184
605	5.969099	101429248	67252224	30027912	33184
606	7.43561	101429248	67252224	34807864	33184
607	9.845678	101429248	67252224	24787752	33184
608	9.946669	101429248	67252224	31186688	33184
609	10.784547	101429248	67252224	38372304	33184
610	13.261703	101429248	67252224	30220656	33184
611	13.37216	101429248	67252224	39026024	33184
612	2.44291	101429248	67252224	33229920	33184
613	3.623406	101429248	67252224	35657904	33184
614	5.038544	101429248	67252224	38890016	33184
615	7.318831	101429248	67252224	26816320	33184
616	7.488269	101429248	67252224	31678896	33184
617	8.716279	101429248	67252224	37358216	33184
618	11.219803	101429248	67252224	27837168	33184
619	10.859549	101429248	67252224	35141264	33184
620	14.030753	101429248	67252224	27550648	33184
621	13.51068	101429248	67252224	36487592	33184
622	2.471661	101429248	67252224	31266984	33184
623	3.699787	101429248	67252224	33725112	33184
624	5.119104	101429248	67252224	37005712	33184
625	7.619027	101429248	67252224	25282848	33184
626	7.898059	101429248	67252224	30211272	33184
627	8.832803	101429248	67252224	35963712	33184
628	11.293157	101429248	67252224	26773520	33184
629	11.30289	101429248	67252224	34183176	33184
630	14.258226	101429248	67252224	26927112	33184
631	13.534872	101429248	67252224	35993960	33184
632	2.512003	101429248	67252224	30985984	33184
633	3.757675	101429248	67252224	33480952	33184
634	4.999512	101429248	67252224	36809808	33184
635	6.205435	101429248	67252224	40978720	33184
636	8.83609	101429248	67252224	29641976	33184
637	8.913583	101429248	67252224	35480392	33184
638	11.568989	101429248	67252224	26472128	33184
639	11.274309	101429248	67252224	33989632	33184
640	15.164336	101429248	67252224	26868456	33184
641	13.757024	101429248	67252224	36070496	33184
642	2.557964	101429248	67252224	31294376	33184
643	4.037642	101429248	67252224	33826400	33184
644	5.494199	101429248	67252224	37204272	33184
645	8.215933	101429248	67252224	25639880	33184
646	7.856331	101429248	67252224	30714416	33184
647	8.898417	101429248	67252224	36638536	33184
648	11.603184	101429248	67252224	27619840	33184
649	11.62673	101429248	67252224	35248272	33184
650	14.735006	101429248	67252224	28161560	33184
651	14.375117	101429248	67252224	37498384	33184
652	2.594206	101429248	67252224	32666280	33184
653	4.07664	101429248	67252224	35234872	33184
654	5.135163	101429248	67252224	38672648	33184
655	8.027218	101429248	67252224	27038160	33184
656	7.980451	101429248	67252224	32187040	33184
657	9.718761	101429248	67252224	38205488	33184
658	12.031116	101429248	67252224	29111104	33184
659	11.680382	101429248	67252224	36851512	33184
660	14.579685	101429248	67252224	29669224	33184
661	14.490388	101429248	67252224	39148992	33184
662	2.631061	101429248	67252224	34302280	33184
663	3.926981	101429248	67252224	36907744	33184
664	5.491615	101429248	67252224	40386368	33184
665	8.062993	101429248	67252224	28589048	33184
666	8.373678	101429248	67252224	33814760	33184
667	9.331585	101429248	67252224	39910632	33184
668	11.888906	101429248	67252224	30757536	33184
669	12.096037	101429248	67252224	38605848	33184
670	14.996721	101429248	67252224	31322344	33184
671	14.674582	101429248	67252224	40944256	33184
672	2.767733	101429248	67252224	36051280	33184
673	4.367802	101429248	67252224	38693456	33184
674	6.872065	101429248	67252224	26318816	33184
675	6.850406	101429248	67252224	30728192	33184
676	7.979059	101429248	67252224	36028616	33184
677	10.967663	101429248	67252224	26593320	33184
678	10.844482	101429248	67252224	33663304	33184
679	12.146779	101429248	67252224	41622144	33184
680	14.893666	101429248	67252224	34114576	33184
681	16.920966	101429248	67252224	28556272	33184
682	2.718104	101429248	67252224	40127144	33184
683	5.65814	101429248	67252224	26787600	33184
684	5.368342	101429248	67252224	30361896	33184
685	6.922585	101429248	67252224	34837360	33184
686	8.052957	101429248	67252224	40207608	33184
687	11.025421	101429248	67252224	30468560	33184
688	10.792567	101429248	67252224	37638144	33184
689	14.109045	101429248	67252224	29949200	33184
690	13.777622	101429248	67252224	38928104	33184
691	16.80126	101429248	67252224	32824480	33184
692	2.878612	101429248	67252224	29422256	33184
693	4.147122	101429248	67252224	32138216	33184
694	5.659232	101429248	67252224	35768800	33184
695	6.84129	101429248	67252224	40301848	33184
696	9.867338	101429248	67252224	29727448	33184
697	9.826083	101429248	67252224	36085688	33184
698	13.024047	101429248	67252224	27833904	33184
699	12.598712	101429248	67252224	36013696	33184
700	15.733222	101429248	67252224	29604360	33184
701	15.482433	101429248	67252224	39623040	33184
702	2.783961	101429248	67252224	35520704	33184
703	4.190237	101429248	67252224	38277072	33184
704	5.535475	101429248	67252224	41949576	33184
705	8.428722	101429248	67252224	30324336	33184
706	8.517364	101429248	67252224	35841472	33184
707	9.665635	101429248	67252224	42287528	33184
708	12.270354	101429248	67252224	33302528	33184
709	12.966716	101429248	67252224	41593064	33184
710	15.20302	101429248	67252224	34572848	33184
711	17.531841	101429248	67252224	29451712	33184
712	2.840113	101429248	67252224	41514536	33184
713	5.588705	101429248	67252224	28168960	33184
714	5.837008	101429248	67252224	31909024	33184
715	6.98365	101429248	67252224	36596704	33184
716	8.609771	101429248	67252224	42237440	33184
717	11.141817	101429248	67252224	32611976	33184
718	11.470137	101429248	67252224	40157584	33184
719	14.334927	101429248	67252224	32668440	33184
720	14.236054	101429248	67252224	42137320	33184
721	17.317499	101429248	67252224	36270744	33184
722	2.931224	101429248	67252224	33176288	33184
723	4.318144	101429248	67252224	36051840	33184
724	6.06274	101429248	67252224	39888168	33184
725	8.774561	101429248	67252224	28808056	33184
726	8.759471	101429248	67252224	34572480	33184
727	9.986719	101429248	67252224	41305072	33184
728	13.070188	101429248	67252224	32872784	33184
729	13.068498	101429248	67252224	41538472	33184
730	15.590386	101429248	67252224	34979800	33184
731	18.182461	101429248	67252224	30281056	33184
732	2.901117	101429248	67252224	42885376	33184
733	6.132119	101429248	67252224	29545832	33184
734	5.759927	101429248	67252224	33444144	33184
735	7.52526	101429248	67252224	38318944	33184
736	10.722074	101429248	67252224	28554624	33184
737	10.327357	101429248	67252224	35378216	33184
738	11.561184	101429248	67252224	43168752	33184
739	14.588244	101429248	67252224	35587288	33184
740	16.792549	101429248	67252224	30024392	33184
741	16.811048	101429248	67252224	40758000	33184
742	3.174576	101429248	67252224	37473360	33184
743	4.461121	101429248	67252224	40422656	33184
744	7.745401	101429248	67252224	28498168	33184
745	7.360329	101429248	67252224	33424304	33184
746	8.978553	101429248	67252224	39333688	33184
747	12.458981	101429248	67252224	30397488	33184
748	11.919922	101429248	67252224	38286416	33184
749	15.147262	101429248	67252224	31475624	33184
750	14.965956	101429248	67252224	41378816	33184
751	17.89231	101429248	67252224	36158552	33184
752	2.990928	101429248	67252224	33705904	33184
753	4.453848	101429248	67252224	36697072	33184
754	6.352917	101429248	67252224	40680576	33184
755	9.278664	101429248	67252224	29805536	33184
756	8.880737	101429248	67252224	35789624	33184
757	10.349546	101429248	67252224	42773968	33184
758	13.433942	101429248	67252224	34534360	33184
759	13.567606	101429248	67252224	43525440	33184
760	16.795862	101429248	67252224	37181784	33184
761	18.547688	101429248	67252224	32686944	33184
762	4.457919	101429248	67252224	29540096	33184
763	4.545094	101429248	67252224	32562984	33184
764	6.486592	101429248	67252224	36599576	33184
765	7.916312	101429248	67252224	41654328	33184
766	10.826734	101429248	67252224	31738352	33184
767	10.513221	101429248	67252224	38815256	33184
768	14.307024	101429248	67252224	31225496	33184
769	14.030335	101429248	67252224	40343048	33184
770	16.702862	101429248	67252224	34599344	33184
771	19.489679	101429248	67252224	30638144	33184
772	3.29336	101429248	67252224	43877752	33184
773	6.010281	101429248	67252224	30701416	33184
774	6.627616	101429248	67252224	34789416	33184
775	7.641796	101429248	67252224	39897944	33184
776	11.401137	101429248	67252224	30348552	33184
777	10.850868	101429248	67252224	37531448	33184
778	14.499155	101429248	67252224	30274720	33184
779	13.948611	101429248	67252224	39513816	33184
780	17.048285	101429248	67252224	34048544	33184
781	20.209365	101429248	67252224	30334976	33184
782	3.336861	101429248	67252224	43755376	33184
783	6.351527	101429248	67252224	30690352	33184
784	6.445081	101429248	67252224	34821264	33184
785	8.563205	101699584	67252224	39997728	33184
786	11.640076	101699584	67252224	30564472	33184
787	10.990806	101699584	67252224	37843032	33184
788	14.630171	101699584	67776512	30670176	33184
789	14.114646	101699584	67776512	39992008	33184
790	17.580191	101699584	67776512	34593088	33184
791	20.031148	101699584	67776512	31024136	33184
792	3.173403	101699584	67776512	44580272	33184
793	6.175044	101699584	67776512	31477312	33184
794	6.338609	101699584	67776512	35657256	33184
795	8.209632	101699584	67776512	40885064	33184
796	11.469981	101699584	67776512	31454640	33184
797	11.19029	101699584	67776512	38782392	33184
798	14.57477	101969920	67776512	31628128	33184
799	14.519703	101969920	67776512	41060224	33184
800	17.38476	101969920	67776512	35682488	33184
801	20.130556	101969920	67776512	32124320	33184
802	4.80447	101969920	67776512	29740824	33184
803	4.764664	101969920	67776512	32910896	33184
804	6.433878	101969920	67776512	37139824	33184
805	8.139777	101969920	67776512	42441248	33184
806	11.569042	101969920	67776512	32880576	33184
807	11.380861	101969920	67776512	40294376	33184
808	14.57305	101969920	67776512	33068216	33184
809	14.671536	101969920	67776512	42627272	33184
810	17.502941	101969920	67776512	37180816	33184
811	20.299154	101969920	67776512	33576192	33184
812	5.064798	101969920	67776512	31233488	33184
813	4.855289	101969920	67776512	34457528	33184
814	6.607296	101969920	67776512	38735680	33184
815	7.979164	101969920	67776512	44086248	33184
816	11.51044	101969920	67776512	34442944	33184
817	11.504904	101969920	67776512	41957720	33184
818	15.207595	101969920	67776512	34611680	33184
819	14.908018	101969920	67776512	44271280	33184
820	17.892975	101969920	67776512	38802072	33184
821	20.285084	101969920	67776512	35100848	33184
822	3.283935	101969920	67776512	34230568	33184
823	5.077774	101969920	67776512	37474312	33184
824	6.45189	101969920	67776512	41801456	33184
825	10.306317	101969920	67776512	31474456	33184
826	9.743329	101969920	67776512	37972896	33184
827	11.539324	101969920	67776512	45558360	33184
828	14.762	101969920	67776512	37883848	33184
829	16.980253	101969920	67776512	32312544	33184
830	16.707971	101969920	67776512	43167992	33184
831	19.72415	101969920	67776512	39053152	33184
832	3.3006	101969920	67776512	37743256	33184
833	5.160648	101969920	67776512	41023816	33184
834	6.56818	101969920	67776512	45401832	33184
835	9.966243	101969920	67776512	34683968	33184
836	9.875158	101969920	67776512	41255936	33184
837	13.689639	101969920	67776512	33171712	33184
838	13.364383	101969920	67776512	41960136	33184
839	16.858412	101969920	67776512	36003320	33184
840	19.659421	101969920	67776512	31949112	33184
841	18.561399	101969920	67776512	44039584	33184
842	3.356669	101969920	67776512	42319328	33184
843	4.999944	101969920	67776512	45641152	33184
844	8.496763	101969920	67776512	33893552	33184
845	8.409654	101969920	67776512	39428192	33184
846	10.258199	101969920	67776512	46075760	33184
847	13.636834	101969920	67776512	37476648	33184
848	13.311343	101969920	67776512	46348920	33184
849	16.958076	101969920	67776512	39988904	33184
850	19.406479	101969920	67776512	35614928	33184
851	21.292262	101969920	67776512	32950256	33184
852	5.168745	101969920	67776512	31453880	33184
853	5.359528	101969920	67776512	34839096	33184
854	7.14171	101969920	67776512	39366000	33184
855	9.103194	101969920	67776512	45017384	33184
856	11.84769	101969920	67776512	35735960	33184
857	12.271657	101969920	67776512	43651360	33184
858	15.943812	101969920	67776512	36721744	33184
859	15.327074	101969920	67776512	46919272	33184
860	18.617451	101969920	67776512	41819896	33184
861	21.03725	101969920	67776512	38533832	33184
862	3.576688	101969920	67776512	38038264	33184
863	5.217528	101969920	67776512	41460096	33184
864	7.069857	101969920	67776512	46026216	33184
865	10.844947	101969920	67776512	35590616	33184
866	10.396807	101969920	67776512	42452528	33184
867	14.285996	101969920	67776512	34706368	33184
868	13.949521	101969920	67776512	43855720	33184
869	17.32929	101969920	67776512	38176088	33184
870	19.816211	101969920	67776512	34419136	33184
871	18.944352	101969920	67776512	47021632	33184
872	3.468263	101969920	67776512	45660152	33184
873	7.171728	101969920	67776512	33057928	33184
874	6.933386	101969920	67776512	37676256	33184
875	8.932109	101969920	67776512	43451176	33184
876	12.272242	101969920	67776512	34546632	33184
877	12.075442	101969920	67776512	42636512	33184
878	16.049052	101969920	67776512	36148352	33184
879	15.553462	101969920	67776512	46579416	33184
880	18.9546	101969920	67776512	41846016	33184
881	21.375786	101969920	67776512	38912000	33184
882	3.492247	101969920	67776512	38782680	33184
883	5.211957	101969920	67776512	42291912	33184
884	7.271754	101969920	67776512	46964280	33184
885	10.532568	101969920	67776512	36585504	33184
886	10.440763	101969920	67776512	43602744	33184
887	14.125095	101969920	67776512	35898872	33184
888	13.972378	101969920	67776512	45246040	33184
889	17.79457	101969920	67776512	39723488	33184
890	20.33965	101969920	67776512	36089976	33184
891	23.045886	101969920	67776512	34176824	33184
892	5.580887	101969920	67776512	33281272	33184
893	5.473033	101969920	67776512	36817280	33184
894	7.148411	101969920	67776512	41529368	33184
895	9.209319	101969920	67776512	47426560	33184
896	12.629947	101969920	67776512	38307632	33184
897	12.567419	101969920	67776512	46571888	33184
898	16.536906	101969920	67776512	39829760	33184
899	18.609143	101969920	67776512	35166480	33184
900	18.695174	101969920	67776512	47001896	33184
901	21.444981	101969920	67776512	43725104	33184
902	3.593894	101969920	67776512	43339984	33184
903	5.345954	101969920	67776512	46913008	33184
904	9.499137	102240256	68300800	35603656	33184
905	9.138087	102240256	68300800	41560456	33184
906	13.11401	102240256	68300800	33172504	33184
907	12.591338	102240256	68300800	41522104	33184
908	16.871858	102240256	68300800	35540432	33184
909	16.710165	102240256	68300800	46300984	33184
910	20.01845	102240256	68300800	42080952	33184
911	22.11294	102240256	68300800	39656008	33184
912	3.620938	102240256	68300800	40033776	33184
913	5.674783	102240256	68300800	43642472	33184
914	7.462996	102240256	68300800	48452744	33184
915	10.85004	102510592	68300800	38199128	33184
916	11.0541	102510592	68300800	45435072	33184
917	15.089578	102510592	68300800	37846864	33184
918	15.362184	102510592	68300800	47490320	33184
919	18.256165	102510592	68300800	42241168	33184
920	20.762028	102780928	68825088	38903992	33184
921	23.164537	102780928	68825088	37129440	33184
922	3.65849	102780928	68825088	38097776	33184
923	5.73644	102780928	68825088	41740776	33184
924	7.560539	102780928	68825088	46633104	33184
925	11.556638	103051264	68825088	36720880	33184
926	10.92252	103051264	68825088	44017320	33184
927	15.120077	103051264	68825088	36829672	33184
928	14.80959	103051264	68825088	46567848	33184
929	18.530307	103051264	68825088	41483360	33184
930	21.001685	103051264	68825088	38306408	33184
931	23.546492	103051264	68825088	36781096	33184
932	3.720261	103051264	68825088	38007040	33184
933	5.520035	103051264	68825088	41686608	33184
934	7.591057	103051264	68825088	46606608	33184
935	11.562129	103321600	69349376	36872504	33184
936	11.032379	103321600	69349376	44252792	33184
937	15.360574	103321600	69349376	37173472	33184
938	14.971957	103321600	69349376	47023072	33184
939	19.06143	103321600	69349376	41971480	33184
940	21.339901	103321600	69349376	38923248	33184
941	23.744311	103321600	69349376	37446600	33184
942	3.73332	103321600	69349376	38758552	33184
943	5.587419	103321600	69349376	42491096	33184
944	7.500529	103321600	69349376	47461736	33184
945	11.588543	103591936	69873664	37647368	33184
946	11.353221	103591936	69873664	45110760	33184
947	15.139811	103591936	69873664	37973528	33184
948	15.116549	103591936	69873664	47924256	33184
949	19.068156	103591936	69873664	42925648	33184
950	21.565989	103591936	69873664	39829120	33184
951	23.519113	103591936	69873664	38429304	33184
952	3.768971	103591936	69873664	39874976	33184
953	5.626713	103591936	69873664	43639992	33184
954	7.723922	103591936	69873664	48646840	33184
955	12.001037	103862272	69873664	38791880	33184
956	11.787124	103862272	69873664	46318392	33184
957	15.616178	103862272	69873664	39169584	33184
958	15.446609	103862272	69873664	49228640	33184
959	19.060251	103862272	69873664	44194040	33184
960	21.454168	103862272	69873664	41081568	33184
961	23.959836	103862272	69873664	39720192	33184
962	4.052172	103862272	69873664	41127320	33184
963	5.750248	103862272	69873664	44917360	33184
964	7.73808	103862272	69873664	49983416	33184
965	11.703668	104132608	70397952	40141192	33184
966	11.655964	104132608	70397952	47738872	33184
967	15.5562	104132608	70397952	40559312	33184
968	18.384503	104132608	70397952	35586040	33184
969	17.403657	104132608	70397952	46990888	33184
970	21.424557	104132608	70397952	43682928	33184
971	23.945097	104402944	70397952	42129064	33184
972	3.861261	104402944	70397952	43397384	33184
973	5.810718	104402944	70397952	47224376	33184
974	10.522035	104402944	70397952	36482728	33184
975	9.996873	104402944	70397952	42866536	33184
976	11.747502	104402944	70397952	50535120	33184
977	15.618499	104402944	70397952	43104584	33184
978	18.277605	104402944	70397952	37938832	33184
979	17.770003	104673280	70397952	49453656	33184
980	21.745638	104673280	70397952	45964152	33184
981	24.088371	104673280	70922240	44229400	33184
982	3.905474	104673280	70922240	45460680	33184
983	6.047917	104673280	70922240	49325680	33184
984	10.385349	104673280	70922240	38463952	33184
985	9.920376	104673280	70922240	44912456	33184
986	14.05897	104943616	70922240	37010656	33184
987	14.243316	104943616	70922240	46042712	33184
988	17.751051	104943616	70922240	40596280	33184
989	20.957744	104943616	70922240	37243728	33184
990	19.482204	104943616	70922240	50165616	33184
991	23.736513	104943616	70922240	48061216	33184
992	3.935742	104943616	70922240	49003424	33184
993	8.613614	105213952	70922240	36884952	33184
994	8.271413	105213952	70922240	42093352	33184
995	10.108549	105213952	70922240	48601976	33184
996	14.051583	105213952	70922240	40361872	33184
997	13.934425	105213952	70922240	49479832	33184
998	18.207609	105213952	70922240	43746264	33184
999	20.54652	105213952	71446528	40070392	33184
1000	22.939515	105213952	71446528	38194032	33184
