x	Duration	RSS	HeapTotal	HeapUsed	External
0	NA	93483008	62533632	14409216	33184
1	0.287722	93483008	62533632	14461520	33184
2	0.266956	93483008	62533632	14529496	33184
3	0.271706	93483008	62533632	14622208	33184
4	0.326928	93483008	62533632	14741328	33184
5	0.388257	93483008	62533632	14888616	33184
6	0.458803	93483008	62533632	15064760	33184
7	0.525763	93483008	62533632	15270992	33184
8	0.60196	93483008	62533632	15508576	33184
9	0.675723	93483008	62533632	15779952	33184
10	0.796582	93483008	62533632	16085424	33184
11	0.896547	93483008	62533632	16426200	33184
12	0.150249	93483008	62533632	16795504	33184
13	0.222049	93483008	62533632	16905816	33184
14	0.285592	93483008	62533632	17055112	33184
15	0.352753	93483008	62533632	17244616	33184
16	0.418595	93483008	62533632	17476072	33184
17	0.855183	93483008	62533632	17754144	33184
18	0.566088	93483008	62533632	18072288	33184
19	0.633602	93483008	62533632	18437488	33184
20	0.707488	93483008	62533632	18851000	33184
21	0.72873	93483008	62533632	19310072	33184
22	0.224537	93483008	62533632	19828752	33184
23	0.272399	93483008	62533632	19978448	33184
24	0.409277	93483008	62533632	20180912	33184
25	0.46684	93483008	62533632	20436088	33184
26	0.553197	93483008	62533632	20746336	33184
27	0.63132	93483008	62533632	21112384	33184
28	0.669276	93483008	62533632	21535464	33184
29	0.976548	93483008	62533632	22016840	33184
30	0.836512	93483008	62533632	22558760	33184
31	0.928231	93483008	62533632	23161344	33184
32	0.20894	93483008	62533632	23849512	33184
33	0.323937	93483008	62533632	24036000	33184
34	0.410293	93483008	62533632	24286848	33184
35	0.507747	93483008	62533632	24603352	33184
36	0.611747	93483008	62533632	24987200	33184
37	0.714528	93483008	62533632	25439152	33184
38	0.815627	93483008	62533632	25960368	33184
39	1.609488	93483008	62533632	26552104	33184
40	1.063554	93483008	62533632	27216464	33184
41	1.147912	93483008	62533632	27953816	33184
42	0.257543	93483008	62533632	28801400	33184
43	0.378713	93483008	62533632	29024656	33184
44	0.492755	93483008	62533632	29325656	33184
45	0.609012	93483008	62533632	29706992	33184
46	0.732727	93483008	62533632	30169032	33184
47	0.901034	93753344	62533632	30713144	33184
48	1.692983	93753344	62533632	15066768	33184
49	1.279488	93753344	62533632	15797816	33184
50	1.287653	93753344	62533632	16596456	33184
51	1.324152	93753344	62533632	17482128	33184
52	0.280708	93753344	62533632	18506960	33184
53	0.64194	93753344	62533632	18772288	33184
54	0.560363	93753344	62533632	19128256	33184
55	0.690217	93753344	62533632	19576224	33184
56	0.830504	93753344	62533632	20117728	33184
57	0.967426	93753344	62533632	20753600	33184
58	1.114028	93753344	62533632	21485064	33184
59	1.296482	93753344	62533632	22313296	33184
60	1.387299	93753344	62533632	23240600	33184
61	1.587932	93753344	62533632	24267040	33184
62	0.31723	93753344	62533632	25459504	33184
63	0.482678	93753344	62533632	25761672	33184
64	1.040034	93753344	62533632	26166680	33184
65	0.794655	93753344	62533632	26675896	33184
66	1.169881	93753344	62533632	27293648	33184
67	1.085766	93753344	62533632	28015368	33184
68	1.259547	93753344	62533632	28844912	33184
69	1.407015	93753344	62533632	29783512	33184
70	1.575772	93753344	62533632	30833320	33184
71	2.538587	93753344	62533632	15790704	33184
72	0.381333	93753344	62533632	17142912	33184
73	0.613146	93753344	62533632	17481800	33184
74	0.805617	93753344	62533632	17935856	33184
75	1.000135	93753344	62533632	18506952	33184
76	1.205534	93753344	62533632	19195656	33184
77	1.399461	93753344	62533632	20003200	33184
78	1.608274	93753344	62533632	20930832	33184
79	1.798363	93753344	62533632	21979832	33184
80	2.174996	93753344	62533632	23152504	33184
81	2.009985	93753344	62533632	24458912	33184
82	0.396831	93753344	62533632	25974344	33184
83	0.645753	93753344	62533632	26349920	33184
84	0.78022	93753344	62533632	26855256	33184
85	0.969208	93753344	62533632	27489216	33184
86	1.390404	93753344	62533632	28254736	33184
87	1.358551	93753344	62533632	29152512	33184
88	1.541558	93753344	62533632	30183880	33184
89	1.93881	93753344	62533632	31349952	33184
90	2.493541	93753344	62533632	16320848	33184
91	2.149224	93753344	62533632	17763136	33184
92	0.434365	93753344	62533632	19455352	33184
93	0.648826	93753344	62533632	19877480	33184
94	0.856223	93753344	62533632	20442600	33184
95	1.258166	93753344	62533632	21152384	33184
96	1.306062	93753344	62533632	22007640	33184
97	1.493334	93753344	62533632	23009488	33184
98	1.739908	93753344	62533632	24159128	33184
99	1.913018	93753344	62533632	25457888	33184
100	2.367693	93753344	62533632	26907896	33184
101	2.347877	93753344	62533632	28509608	33184
102	0.470929	93753344	62533632	30386344	33184
103	0.710043	93753344	62533632	30845312	33184
104	1.021203	93753344	62533632	31459456	33184
105	1.732028	93753344	62533632	15880600	33184
106	1.509019	93753344	62533632	16809440	33184
107	1.706819	93753344	62533632	17897128	33184
108	1.849775	93753344	62533632	19144912	33184
109	2.141635	93753344	62533632	20554048	33184
110	2.32001	93753344	62533632	22126808	33184
111	2.600495	93753344	62533632	23863296	33184
112	0.508064	93753344	62533632	25899432	33184
113	0.762277	93753344	62533632	26395152	33184
114	1.008343	93753344	62533632	27058320	33184
115	1.479908	93753344	62533632	27890336	33184
116	1.505136	93753344	62533632	28892704	33184
117	1.9401	93753344	62533632	30067936	33184
118	2.006673	93753344	62533632	31413944	33184
119	3.163364	93753344	62533632	16593048	33184
120	2.718027	93753344	62533632	18288504	33184
121	2.762608	93753344	62533632	20160000	33184
122	0.545272	93753344	62533632	22355904	33184
123	0.818473	93753344	62533632	22888416	33184
124	1.092614	93753344	62533632	23600728	33184
125	1.339695	93753344	62533632	24494040	33184
126	1.808055	93753344	62533632	25570128	33184
127	1.902462	93753344	62533632	26829600	33184
128	2.352095	93753344	62533632	28275912	33184
129	2.406619	93753344	62533632	29906040	33184
130	2.691273	93753344	62533632	31724104	33184
131	3.816605	93753344	62533632	17350512	33184
132	0.583879	93753344	62533632	19710352	33184
133	0.877511	93753344	62533632	20279720	33184
134	1.155391	93753344	62533632	21041056	33184
135	1.443421	93753344	62533632	21995744	33184
136	1.714685	93753344	62533632	23145448	33184
137	2.363317	93753344	62533632	24490848	33184
138	2.307894	93753344	62533632	26033248	33184
139	2.584804	93753344	62533632	27773736	33184
140	2.884262	93753344	62533632	29714672	33184
141	3.413836	93753344	62533632	31856096	33184
142	0.66004	93753344	62533632	17997152	33184
143	0.992275	93753344	62533632	18608808	33184
144	1.313182	93753344	62533632	19426624	33184
145	1.642274	93753344	62533632	20451776	33184
146	1.955908	93753344	62533632	21685976	33184
147	2.259527	93753344	62533632	23132792	33184
148	2.464572	93753344	62533632	24787936	33184
149	3.639576	93753344	62533632	26655520	33184
150	3.131282	93753344	62533632	28737432	33184
151	3.816266	93753344	62533632	31049376	33184
152	0.703152	93753344	62533632	17478600	33184
153	1.062071	93753344	62533632	18127056	33184
154	1.390641	93753344	62533632	18994400	33184
155	1.728887	93753344	62533632	20080944	33184
156	2.258325	93753344	62533632	21389552	33184
157	2.286038	93753344	62533632	22919600	33184
158	2.598194	93753344	62533632	24672928	33184
159	2.943417	93753344	62533632	26650872	33184
160	3.285464	93753344	62533632	28855400	33184
161	3.613158	93753344	62533632	31287000	33184
162	0.699656	94023680	62533632	17855760	33184
163	1.048734	94023680	62533632	18541008	33184
164	1.611611	94023680	62533632	19456992	33184
165	2.015723	94023680	62533632	20604816	33184
166	2.328545	94023680	62533632	21989752	33184
167	2.402211	94023680	62533632	23606064	33184
168	2.752456	94023680	62533632	25458304	33184
169	3.31174	94023680	62533632	27546568	33184
170	3.448341	94023680	62533632	29873912	33184
171	4.409099	94023680	62533632	16350936	33184
172	0.73706	94023680	62533632	19379448	33184
173	1.107957	94023680	62533632	20101592	33184
174	1.463368	94023680	62533632	21066656	33184
175	1.812678	94023680	62533632	22275904	33184
176	2.178053	94023680	62533632	23731472	33184
177	2.532672	94023680	62533632	25433240	33184
178	2.966986	94023680	62533632	27382904	33184
179	3.27592	94023680	62533632	29581568	33184
180	3.640823	94023680	62533632	32036312	33184
181	4.68848	94023680	62533632	18370712	33184
182	0.778028	94023680	62533632	21579272	33184
183	1.172193	94023680	62533632	22350672	33184
184	1.533305	94023680	62533632	23381432	33184
185	2.099371	94023680	62533632	24672856	33184
186	2.309745	94023680	62533632	26226624	33184
187	2.671579	94023680	62533632	28043408	33184
188	3.176646	94023680	62533632	30124520	33184
189	4.26019	94023680	62533632	16354224	33184
190	4.208562	94023680	62533632	18970424	33184
191	4.39728	94023680	62533632	21855024	33184
192	0.807721	94023680	62533632	25259928	33184
193	1.2428	94023680	62533632	26067960	33184
194	1.674502	94023680	62533632	27147552	33184
195	2.022295	94023680	62533632	28500016	33184
196	2.396152	94023680	62533632	30126872	33184
197	3.027301	94023680	62533632	32029072	33184
198	3.772156	94023680	62533632	17859704	33184
199	3.841497	94023680	62533632	20316176	33184
200	4.010644	94023680	62533632	23052432	33184
201	4.423071	94023680	62533632	26068880	33184
202	0.85236	94023680	62533632	29629976	33184
203	1.657974	94023680	62533632	30474808	33184
204	1.728715	94023680	62533632	31605192	33184
205	2.568457	94023680	62533632	16743152	33184
206	2.517173	94023680	62533632	18443696	33184
207	2.935754	94023680	62533632	20431720	33184
208	3.557536	94023680	62533632	22708496	33184
209	3.772935	94023680	62533632	25275352	33184
210	4.19809	94023680	62533632	28134376	33184
211	4.663752	94023680	62533632	31285888	33184
212	0.942079	94023680	62533632	18763824	33184
213	1.404332	94023680	62533632	19645512	33184
214	2.039786	94023680	62533632	20823232	33184
215	2.193848	94023680	62533632	22298296	33184
216	2.622691	94023680	62533632	24072552	33184
217	3.063898	94023680	62533632	26146648	33184
218	3.944836	94023680	62533632	28521584	33184
219	3.998939	94023680	62533632	31201856	33184
220	4.901527	94023680	62533632	17969776	33184
221	5.050738	94023680	62533632	21260576	33184
222	0.924894	94023680	62533632	25141160	33184
223	1.42803	94023680	62533632	26059664	33184
224	2.048245	94023680	62533632	27286536	33184
225	2.284541	94023680	62533632	28822880	33184
226	2.746825	94023680	62533632	30670576	33184
227	3.74631	94023680	62533632	16705280	33184
228	4.153742	94023680	62533632	19187256	33184
229	4.119679	94023680	62533632	21981824	33184
230	4.571089	94023680	62533632	25093544	33184
231	5.259323	94023680	62533632	28524504	33184
232	0.959722	94023680	62533632	32581992	33184
233	2.259252	94023680	62533632	17171376	33184
234	1.913541	94023680	62533632	18458768	33184
235	2.38598	94023680	62533632	20070888	33184
236	2.840903	94023680	62533632	22009672	33184
237	3.328278	94023680	62533632	24275688	33184
238	3.808962	94023680	62533632	26870080	33184
239	4.295386	94023680	62533632	29794056	33184
240	6.081287	94023680	62533632	17042256	33184
241	5.25691	94023680	62533632	20633224	33184
242	1.032878	94023680	62533632	24873600	33184
243	1.494702	94023680	62533632	25874320	33184
244	1.989423	94023680	62533632	27210776	33184
245	2.468463	94023680	62533632	28884304	33184
246	2.972027	94023680	62533632	30896728	33184
247	4.054343	94023680	62533632	17124944	33184
248	4.188388	94023680	62533632	19819456	33184
249	4.695916	94023680	62533632	22853952	33184
250	5.247135	94023680	62533632	26233168	33184
251	5.871694	94023680	62533632	29960464	33184
252	1.048037	94023680	62533632	18367152	33184
253	1.555827	94023680	62533632	19404688	33184
254	2.130594	94023680	62533632	20790272	33184
255	2.617389	94023680	62533632	22525144	33184
256	3.066616	94023680	62533632	24611120	33184
257	3.596814	94023680	62533632	27048864	33184
258	4.107094	94023680	62533632	29839496	33184
259	4.880801	94023680	62533632	32985280	33184
260	5.488046	94023680	62533632	20096232	33184
261	5.883881	94023680	62533632	23954312	33184
262	1.076395	94023680	62533632	28514192	33184
263	1.669672	94023680	62533632	29588560	33184
264	2.130161	94023680	62533632	31023272	33184
265	2.896946	94023680	62533632	32819616	33184
266	3.569719	94023680	62533632	18625992	33184
267	3.961153	94023680	62533632	21149744	33184
268	4.273219	94023680	62533632	24038720	33184
269	4.79553	94023680	62533632	27298640	33184
270	5.553578	94023680	62533632	30924016	33184
271	6.425641	94023680	62533632	18814936	33184
272	1.116631	94023680	62533632	23546400	33184
273	1.714186	94023680	62533632	24657640	33184
274	2.259234	94023680	62533632	26142592	33184
275	2.99154	94023680	62533632	28000256	33184
276	3.310429	94023680	62533632	30233528	33184
277	3.86188	94023680	62533632	32843096	33184
278	5.025038	94023680	62533632	19505064	33184
279	4.968816	94023680	62533632	22875856	33184
280	5.516779	94023680	62533632	26624448	33184
281	6.130224	94023680	62533632	30756208	33184
282	1.159392	94023680	62533632	19599136	33184
283	1.725926	94023680	62533632	20747224	33184
284	2.293271	94023680	62533632	22280056	33184
285	2.859256	94023680	62533632	24199008	33184
286	3.641046	94023680	62533632	26505864	33184
287	4.045185	94023680	62533632	29201304	33184
288	4.632327	94023680	62533632	32287560	33184
289	5.802789	94023680	62533632	19509928	33184
290	5.978102	94023680	62533632	23380888	33184
291	6.501071	94023680	62533632	27643768	33184
292	1.194448	94023680	62533632	32691072	33184
293	2.396997	94023680	62533632	17606296	33184
294	2.394547	94023680	62533632	19188240	33184
295	2.949669	94023680	62533632	21168608	33184
296	3.590856	94023680	62533632	23549080	33184
297	4.139249	94023680	62533632	26330368	33184
298	5.728104	94023680	62533632	29514608	33184
299	5.38265	94023680	62533632	33110832	33184
300	6.339249	94023680	62533632	20825264	33184
301	6.852258	94023680	62533632	25223680	33184
302	1.428919	94023680	62533632	30430720	33184
303	1.87027	94023680	62533632	31652296	33184
304	2.453552	94023680	62533632	33283368	33184
305	3.499096	94023680	62533632	19070320	33184
306	3.65036	94023680	62533632	21524504	33184
307	4.27946	94023680	62533632	24391656	33184
308	4.914925	94023680	62533632	27673104	33184
309	5.723766	94023680	62533632	31370312	33184
310	6.823188	94023680	62533632	19459512	33184
311	7.132568	94023680	62533632	23993744	33184
312	1.480585	94023680	62533632	29360592	33184
313	1.906874	94023680	62533632	30619048	33184
314	2.527628	94023680	62533632	32299080	33184
315	3.711297	94023680	62533632	18281864	33184
316	4.135405	94023680	62533632	20814496	33184
317	4.440024	94023680	62533632	23767568	33184
318	5.034668	94023680	62533632	27148496	33184
319	5.901709	94023680	62533632	30955880	33184
320	7.232523	94023680	62533632	19264784	33184
321	6.919526	94023680	62533632	23932760	33184
322	1.320154	94023680	62533632	29459272	33184
323	1.956624	94023680	62533632	30754528	33184
324	2.613843	94023680	62533632	32483672	33184
325	3.905351	94023680	62533632	18527160	33184
326	4.098914	94023680	62533632	21128504	33184
327	4.762949	94023680	62533632	24167568	33184
328	5.51725	94023680	62533632	27645448	33184
329	5.828085	94023680	62533632	31567544	33184
330	7.506822	94023680	62533632	19927032	33184
331	7.482172	94023680	62533632	24730016	33184
332	1.40877	94023680	62533632	30417088	33184
333	2.105051	94023680	62533632	31749088	33184
334	2.924041	94023680	62533632	33527336	33184
335	3.876224	94023680	62533632	19516408	33184
336	4.044226	94023680	62533632	22191376	33184
337	4.877383	94023680	62533632	25321560	33184
338	5.337075	94023680	62533632	28897576	33184
339	6.005894	94023680	62533632	32926128	33184
340	7.282071	94023680	62533632	21278800	33184
341	7.726888	94023680	62533632	26217784	33184
342	1.383101	94023680	62533632	32063920	33184
343	2.078709	94023680	62533632	33432776	33184
344	3.353747	94023680	62533632	19072120	33184
345	3.790854	94023680	62533632	21360024	33184
346	4.166253	94023680	62533632	24108616	33184
347	4.807652	94023680	62533632	27319336	33184
348	5.495294	94023680	62533632	30993592	33184
349	7.0262	94023680	62533632	19280768	33184
350	7.158676	94023680	62533632	23886400	33184
351	7.790335	94023680	62533632	28959800	33184
352	2.000787	94023680	62533632	18726792	33184
353	2.205633	94023680	62533632	20132448	33184
354	2.837255	94023680	62533632	22008904	33184
355	3.523543	94023680	62533632	24360784	33184
356	4.437547	94023680	62533632	27182936	33184
357	5.006702	94023680	62533632	30479528	33184
358	5.649884	94023680	62533632	34260136	33184
359	7.341797	94023680	62533632	22250560	33184
360	7.318025	94023680	62533632	27012744	33184
361	7.780871	94023680	62533632	32265016	33184
362	1.520791	94023680	62533632	22459688	33184
363	2.190829	94023680	62533632	23940360	33184
364	3.30221	94023680	62533632	25916632	33184
365	3.637133	94023680	62533632	28390104	33184
366	4.397505	94023680	62533632	31362872	33184
367	5.076606	94023680	62533632	34835664	33184
368	6.318653	94023680	62533632	22483896	33184
369	6.912786	94023680	62533632	26958120	33184
370	7.249916	94023680	62533632	31936672	33184
371	8.814488	94023680	62533632	21433664	33184
372	1.516131	94023680	62533632	27942992	33184
373	2.301311	94023680	62533632	29461032	33184
374	3.325429	94023680	62533632	31494752	33184
375	3.79276	94023680	62533632	34030704	33184
376	5.131507	94023680	62533632	20894176	33184
377	5.587648	94023680	62533632	24451504	33184
378	5.95797	94023680	62533632	28524312	33184
379	6.986734	94023680	62533632	33119168	33184
380	8.611262	94023680	62533632	22143152	33184
381	8.263733	94023680	62533632	27760672	33184
382	1.538741	94023680	62533632	34423560	33184
383	2.920166	94023680	62533632	19744984	33184
384	3.305174	94023680	62533632	21819512	33184
385	4.048042	94023680	62533632	24415712	33184
386	4.604811	94023680	62533632	27535112	33184
387	5.55436	94023680	62533632	31178400	33184
388	6.154647	94023680	62533632	35355400	33184
389	7.468834	94023680	62533632	23700464	33184
390	7.876506	94023680	62533632	28923896	33184
391	8.486529	94023680	62533632	34676360	33184
392	1.598068	94023680	62533632	25202088	33184
393	2.360755	94023680	62533632	26793056	33184
394	3.149137	94023680	62533632	28916568	33184
395	3.916002	94023680	62533632	31573872	33184
396	4.702124	94023680	62533632	34766840	33184
397	6.45882	94023680	62533632	22259232	33184
398	6.555996	94023680	62533632	26526000	33184
399	7.105659	94023680	62533632	31331472	33184
400	8.918304	94023680	62533632	20864224	33184
401	8.931166	94023680	62533632	26751728	33184
402	1.875175	94023680	62533632	33738280	33184
403	2.441006	94023680	62533632	35366088	33184
404	3.808853	94023680	62533632	21229656	33184
405	4.396943	94023680	62533632	23949360	33184
406	5.020947	94023680	62533632	27215856	33184
407	5.612414	94023680	62533632	31031104	33184
408	6.646358	94023680	62533632	35399944	33184
409	7.884636	94023680	62533632	24018128	33184
410	8.028827	94023680	62533632	29487096	33184
411	9.060808	94023680	62533632	35515936	33184
412	1.670208	94023680	62533632	26288880	33184
413	2.477084	94023680	62533632	27953512	33184
414	3.295884	94023680	62533632	30175288	33184
415	4.114861	94023680	62533632	32965056	33184
416	5.791454	94023680	62533632	20349672	33184
417	5.977512	94023680	62533632	24254112	33184
418	6.581188	94023680	62533632	28717080	33184
419	7.710496	94023680	62533632	33745912	33184
420	9.032532	94023680	62533632	23258192	33184
421	9.070941	94023680	62533632	29415648	33184
422	2.370383	94023680	62533632	20454368	33184
423	2.759922	94023680	62533632	22155824	33184
424	3.66454	94023680	62533632	24427672	33184
425	4.265604	94023680	62533632	27269160	33184
426	5.171906	94023680	62533632	30683104	33184
427	5.990349	94023680	62533632	34670040	33184
428	7.830942	94023680	62533632	23076544	33184
429	7.861523	94023680	62533632	28219480	33184
430	8.411492	94023680	62533632	33942800	33184
431	10.284947	94023680	62533632	24133192	33184
432	1.764085	94023680	62533632	31597664	33184
433	2.622943	94023680	62533632	33335944	33184
434	3.662709	94023680	62533632	35655872	33184
435	5.043966	94023680	62533632	22329688	33184
436	6.000945	94023680	62533632	25826632	33184
437	6.326437	94023680	62533632	29899424	33184
438	7.414784	94023680	62533632	34559528	33184
439	9.152287	94023680	62533632	23722488	33184
440	8.742902	94023680	62533632	29559464	33184
441	9.698207	94023680	62533632	35993792	33184
442	1.775837	94023680	62533632	27271312	33184
443	2.658977	94023680	62533632	29046464	33184
444	3.531322	94023680	62533632	31415568	33184
445	4.395805	94023680	62533632	34381120	33184
446	6.332721	94023680	62533632	21880272	33184
447	6.160463	94023680	62533632	26046648	33184
448	7.290975	94023680	62533632	30813576	33184
449	8.176616	94023680	62533632	36174744	33184
450	9.669528	94023680	62533632	25789544	33184
451	9.904965	94023680	62533632	32360112	33184
452	1.828833	94023680	62533632	24313424	33184
453	2.715676	94023680	62533632	26125936	33184
454	3.824428	94023680	62533632	28544040	33184
455	4.490347	94023680	62533632	31573760	33184
456	5.432286	94023680	62533632	35208408	33184
457	7.506526	94023680	62533632	23310272	33184
458	7.276437	94023680	62533632	28168008	33184
459	8.097916	94023680	62533632	33635952	33184
460	10.417247	94023680	62533632	23740456	33184
461	10.46421	94023680	62533632	30438216	33184
462	1.93155	94023680	62533632	22827272	33184
463	2.826921	94023680	62533632	24676000	33184
464	3.870667	94023680	62533632	27143160	33184
465	4.837022	94023680	62533632	30229968	33184
466	5.710244	94023680	62533632	33938176	33184
467	7.410527	94023680	62533632	22331584	33184
468	7.574201	94023680	62533632	27285456	33184
469	8.270637	94023680	62533632	32863784	33184
470	10.606587	94023680	62533632	23230944	33184
471	10.138443	94023680	62533632	30070760	33184
472	2.637884	94023680	62533632	21877992	33184
473	2.828545	94023680	62533632	23763584	33184
474	3.759636	94023680	62533632	26279728	33184
475	4.919506	94023680	62533632	29431632	33184
476	5.859796	94023680	62533632	33213408	33184
477	7.865731	94023680	62533632	21835360	33184
478	7.517052	94023680	62533632	26896488	33184
479	8.492473	94023680	62533632	32589512	33184
480	10.72853	94023680	62533632	23136128	33184
481	10.621256	94023680	62533632	30103448	33184
482	2.692159	94023680	62533632	22066352	33184
483	2.902357	94023680	62533632	23988712	33184
484	3.837253	94023680	62533632	26554032	33184
485	4.811977	94023680	62533632	29763520	33184
486	5.727267	94023680	62533632	33619528	33184
487	8.410528	94023680	62533632	22299496	33184
488	8.08062	94023680	62533632	27452168	33184
489	8.897754	94023680	62533632	33254640	33184
490	10.753863	94023680	62533632	23870672	33184
491	10.943037	94023680	62533632	30979960	33184
492	2.237086	94023680	62533632	23878040	33184
493	2.950991	94023680	62533632	25837112	33184
494	3.954379	94023680	62533632	28451488	33184
495	5.104617	94023680	62533632	31722448	33184
496	5.845757	94023680	62533632	35655944	33184
497	7.833706	94023680	62533632	24184008	33184
498	7.793896	94023680	62533632	29436224	33184
499	8.990453	94023680	62533632	35345960	33184
500	10.949281	94023680	62533632	25812536	33184
501	10.777615	94023680	62533632	33049960	33184
502	2.021246	94023680	62533632	25861984	33184
503	3.012035	94023680	62533632	27857928	33184
504	3.999614	94023680	62533632	30524544	33184
505	5.012032	94023680	62533632	33858592	33184
506	6.171432	94023680	62533632	37861696	33184
507	7.783277	94023680	62533632	26189080	33184
508	8.477432	94023680	62533632	31539000	33184
509	9.076795	94023680	62533632	37559096	33184
510	11.181781	94023680	62533632	27893304	33184
511	11.299606	94023680	62533632	35266544	33184
512	2.0602	94023680	62533632	27973272	33184
513	3.278592	94023680	62533632	30006096	33184
514	4.272252	94023680	62533632	32718688	33184
515	5.070378	94023680	62533632	36112208	33184
516	7.317371	94023680	62533632	24100192	33184
517	7.119169	94023680	62533632	28865648	33184
518	8.331364	94023680	62533632	34318216	33184
519	10.348562	94023680	62533632	24558576	33184
520	10.461078	94023680	62533632	31378176	33184
521	12.935211	94023680	62533632	23417544	33184
522	2.103488	94023680	62533632	32316936	33184
523	3.113175	94023680	62533632	34386616	33184
524	4.349995	94023680	62533632	37150168	33184
525	6.126107	94023680	62533632	24413080	33184
526	6.4379	94023680	62533632	28566032	33184
527	7.235526	94023680	62533632	33422648	33184
528	9.58292	94023680	62533632	23323408	33184
529	9.556811	94023680	62533632	29567720	33184
530	10.585746	94023680	62533632	36509176	33184
531	12.407425	94023680	62533632	27985168	33184
532	2.136506	94023680	62533632	37051808	33184
533	4.133521	94023680	62533632	23055400	33184
534	4.445814	94023680	62533632	25866136	33184
535	5.258855	94023680	62533632	29382752	33184
536	6.323716	94023680	62533632	33606472	33184
537	7.431491	94023680	62533632	38538256	33184
538	9.724714	94023680	62533632	27833568	33184
539	9.696301	94023680	62533632	34185112	33184
540	11.933951	94023680	62533632	25447048	33184
541	12.129349	94023680	62533632	33226240	33184
542	2.190116	94023680	62533632	26757168	33184
543	3.230749	94023680	62533632	28904288	33184
544	4.294511	94023680	62533632	31764200	33184
545	5.3626	94023680	62533632	35341880	33184
546	7.821538	94023680	62533632	23772328	33184
547	7.734813	94023680	62533632	28793920	33184
548	8.682553	94023680	62533632	34536360	33184
549	10.918157	94023680	62533632	25199776	33184
550	11.004816	94023680	62533632	32387128	33184
551	13.72271	94023680	62533632	24787392	33184
552	2.219188	94023680	62533632	34187688	33184
553	3.571987	94023680	62533632	36368472	33184
554	5.80334	94023680	62533632	23283528	33184
555	5.854671	94023680	62533632	26923152	33184
556	6.634744	94023680	62533632	31307728	33184
557	8.038034	94023680	62533632	36425224	33184
558	9.862694	94023680	62533632	26297872	33184
559	10.129865	94023680	62533632	32897504	33184
560	12.577279	94023680	62533632	24652896	33184
561	12.189156	94023680	62533632	32751496	33184
562	2.258117	94023680	62533632	26803408	33184
563	3.355401	94023680	62533632	29040640	33184
564	4.664128	94023680	62533632	32026312	33184
565	5.568376	94023680	62533632	35766776	33184
566	8.222816	94023680	62533632	24377944	33184
567	8.099714	94023680	62533632	29617408	33184
568	8.950366	94023680	62533632	35607312	33184
569	11.418418	94023680	62533632	26439416	33184
570	11.273543	94023680	62533632	33939856	33184
571	13.902984	94023680	62533632	26524120	33184
572	2.287349	94023680	62533632	36347552	33184
573	3.467374	94023680	62533632	38621616	33184
574	5.728985	94023680	62533632	25470760	33184
575	5.880348	94023680	62533632	29266456	33184
576	7.120594	94023680	62533632	33832528	33184
577	7.994992	94023680	62533632	39164808	33184
578	10.240512	94023680	62533632	28984528	33184
579	10.44525	94023680	62533632	35839016	33184
580	13.062435	94023680	62533632	27557064	33184
581	12.885315	94023680	62533632	35948680	33184
582	2.428897	94023680	62533632	29989816	33184
583	3.599644	94023680	62533632	32304584	33184
584	4.767862	94023680	62533632	35388304	33184
585	6.091173	94023680	62533632	39251536	33184
586	7.885016	94023680	62533632	27607216	33184
587	8.272421	94023680	62533632	33015976	33184
588	9.215193	94023680	62533632	39202088	33184
589	11.497707	94023680	62533632	29824384	33184
590	11.770129	94023680	62533632	37571392	33184
591	13.820012	94023680	62533632	29976040	33184
592	3.414079	94023680	62533632	23960576	33184
593	3.754259	94023680	62533632	26308232	33184
594	4.690174	94023680	62533632	29448752	33184
595	5.861388	94023680	62533632	33367360	33184
596	7.020149	94023680	62533632	38073752	33184
597	9.525899	94023680	62533632	27514712	33184
598	9.691554	94023680	62533632	33799296	33184
599	12.1252	94023680	62533632	25304032	33184
600	12.11552	94023680	62533632	33172480	33184
601	14.76133	94023680	62533632	26336584	33184
602	2.415745	94023680	62533632	36630816	33184
603	3.804563	94023680	62533632	39015280	33184
604	5.839139	94023680	62533632	26028528	33184
605	6.394142	94023680	62533632	30008568	33184
606	7.145905	94023680	62533632	34788384	33184
607	9.82117	94023680	62533632	24768008	33184
608	9.909891	94023680	62533632	31154368	33184
609	10.949211	94023680	62533632	38339960	33184
610	13.032685	94023680	62533632	30179840	33184
611	13.406459	94023680	62533632	38979768	33184
612	2.546791	94023680	62533632	33180816	33184
613	3.688314	94023680	62533632	35605712	33184
614	4.906986	94023680	62533632	38836312	33184
615	7.280172	94023680	62533632	26760248	33184
616	7.560135	94023680	62533632	31620064	33184
617	8.584238	94023680	62533632	37296544	33184
618	11.419856	94023680	62533632	27782040	33184
619	11.183732	94023680	62533632	35082016	33184
620	14.06838	94023680	62533632	27500384	33184
621	13.603782	94023680	62533632	36444488	33184
622	2.500592	94023680	62533632	31228936	33184
623	3.722676	94023680	62533632	33688424	33184
624	5.151971	94023680	62533632	36969584	33184
625	7.493961	94023680	62533632	25239640	33184
626	7.425925	94023680	62533632	30167648	33184
627	8.885141	94023680	62533632	35921200	33184
628	11.478594	94023680	62533632	26753256	33184
629	11.140111	94023680	62533632	34162912	33184
630	14.632404	94023680	62533632	26905888	33184
631	13.806885	94023680	62533632	35973168	33184
632	2.723966	94023680	62533632	30964840	33184
633	3.795869	94023680	62533632	33459808	33184
634	5.007441	94023680	62533632	36788664	33184
635	6.461775	94023680	62533632	40957576	33184
636	8.556776	94023680	62533632	29619856	33184
637	8.782772	94023680	62533632	35458080	33184
638	11.886386	94023680	62533632	26449832	33184
639	11.615508	94023680	62533632	33966928	33184
640	14.257854	94023680	62533632	26836552	33184
641	14.368747	94023680	62533632	36039392	33184
642	2.583562	94023680	62533632	31262920	33184
643	3.831034	94023680	62533632	33794944	33184
644	5.119765	94023680	62533632	37172816	33184
645	7.969901	94023680	62533632	25607728	33184
646	7.643613	94023680	62533632	30682328	33184
647	8.969178	94023680	62533632	36606688	33184
648	11.799228	94023680	62533632	27587680	33184
649	11.708904	94023680	62533632	35216112	33184
650	14.411519	94023680	62533632	28128552	33184
651	14.307648	94023680	62533632	37465696	33184
652	2.62721	94023680	62533632	32632872	33184
653	3.892093	94023680	62533632	35201520	33184
654	5.609176	94023680	62533632	38639608	33184
655	7.816723	94023680	62533632	27004944	33184
656	7.849423	94023680	62533632	32153824	33184
657	9.539648	94023680	62533632	38172272	33184
658	11.890732	94023680	62533632	29077360	33184
659	11.701788	94023680	62533632	36817768	33184
660	14.602829	94023680	62533632	29634952	33184
661	14.674757	94023680	62533632	39114720	33184
662	2.663033	94023680	62533632	34267656	33184
663	3.956598	94023680	62533632	36873120	33184
664	5.301626	94023680	62533632	40351744	33184
665	7.738454	94023680	62533632	28553792	33184
666	8.32086	94023680	62533632	33779960	33184
667	9.413498	94023680	62533632	39875832	33184
668	12.023641	94023680	62533632	30722208	33184
669	12.459588	94023680	62533632	38570520	33184
670	14.764603	94023680	62533632	31286488	33184
671	14.717779	94023680	62533632	40908400	33184
672	2.702319	94023680	62533632	36014864	33184
673	4.001732	94023680	62533632	38657032	33184
674	6.941902	94023680	62533632	26282048	33184
675	6.680926	94023680	62533632	30691344	33184
676	7.992164	94023680	62533632	35992232	33184
677	11.161413	94023680	62533632	26556104	33184
678	11.142515	94023680	62533632	33626568	33184
679	12.061708	94023680	62533632	41585408	33184
680	14.826385	94023680	62533632	34076648	33184
681	17.186614	94023680	62533632	28518208	33184
682	2.722819	94023680	62533632	40089352	33184
683	5.593988	94023680	62533632	26749536	33184
684	5.416909	94023680	62533632	30323712	33184
685	6.959061	94023680	62533632	34799392	33184
686	8.086378	94023680	62533632	40169640	33184
687	10.803532	94023680	62533632	30430416	33184
688	11.050133	94023680	62533632	37600000	33184
689	14.274465	94023680	62533632	29910352	33184
690	13.765849	94023680	62533632	38889256	33184
691	16.542938	94023680	62533632	32784824	33184
692	2.998983	94023680	62533632	29382704	33184
693	4.125667	94023680	62533632	32098664	33184
694	5.480764	94023680	62533632	35729248	33184
695	6.855175	94023680	62533632	40262296	33184
696	9.802182	94023680	62533632	29687216	33184
697	9.818057	94023680	62533632	36046136	33184
698	12.76409	94023680	62533632	27793304	33184
699	12.596797	94023680	62533632	35973104	33184
700	16.158118	94023680	62533632	29563752	33184
701	15.405502	94023680	62533632	39582432	33184
702	2.808069	94023680	62533632	35479744	33184
703	4.183573	94023680	62533632	38236112	33184
704	5.606148	94023680	62533632	41908616	33184
705	8.396848	94023680	62533632	30282520	33184
706	8.454718	94023680	62533632	35800336	33184
707	10.360795	94023680	62533632	42246392	33184
708	13.051411	94023680	62533632	33260864	33184
709	13.377903	94023680	62533632	41551400	33184
710	15.942748	94023680	62533632	34530224	33184
711	17.890615	94023680	62533632	29409048	33184
712	2.860329	94023680	62533632	41471992	33184
713	5.591538	94023680	62533632	28126032	33184
714	5.883811	94023680	62533632	31866304	33184
715	7.236056	94023680	62533632	36553984	33184
716	8.726323	94023680	62533632	42194720	33184
717	11.134072	94023680	62533632	32561936	33184
718	11.604334	94023680	62533632	40106752	33184
719	14.323019	94023680	62533632	32615656	33184
720	14.140243	94023680	62533632	42078328	33184
721	17.39343	94023680	62533632	36193648	33184
722	3.118647	94023680	62533632	33073672	33184
723	4.298551	94023680	62533632	35954592	33184
724	5.729526	94023680	62533632	39790920	33184
725	8.949836	94023680	63057920	28706936	33184
726	8.65133	94023680	63057920	34471832	33184
727	10.325181	94023680	63057920	41199664	33184
728	13.062409	94294016	63582208	32790960	33184
729	12.919268	94294016	63582208	41451600	33184
730	15.879495	94294016	63582208	34902136	33184
731	18.372011	94294016	63582208	30201608	33184
732	2.941684	94294016	63582208	42827328	33184
733	5.834063	94294016	63582208	29499944	33184
734	5.806054	94294016	63582208	33398256	33184
735	7.344448	94294016	63582208	38273056	33184
736	10.691309	94564352	63582208	28507976	33184
737	10.393144	94564352	63582208	35332152	33184
738	11.665216	94564352	63582208	43122688	33184
739	14.550131	94564352	63582208	35540696	33184
740	16.814039	94564352	63582208	29977128	33184
741	16.472817	94564352	63582208	40710880	33184
742	3.12861	94564352	63582208	37426064	33184
743	4.415443	94564352	63582208	40375360	33184
744	7.700134	94564352	63582208	28450352	33184
745	7.403396	94564352	63582208	33376832	33184
746	9.023151	94564352	63582208	39286216	33184
747	11.913639	94834688	63582208	30349232	33184
748	12.090471	94834688	63582208	38238592	33184
749	15.320211	94834688	63582208	31427272	33184
750	15.138138	94834688	63582208	41330464	33184
751	18.032966	94834688	63582208	36109848	33184
752	3.016128	94834688	64106496	33656848	33184
753	4.501247	94834688	64106496	36648016	33184
754	6.168935	94834688	64106496	40631520	33184
755	9.126119	94834688	64106496	29755896	33184
756	9.017355	94834688	64106496	35740568	33184
757	10.65827	94834688	64106496	42724912	33184
758	13.441225	95105024	64106496	34484328	33184
759	13.470478	95105024	64106496	43475856	33184
760	16.713383	95105024	64106496	37131672	33184
761	18.351433	95105024	64106496	32636280	33184
762	4.427689	95105024	64106496	29489456	33184
763	4.624988	95105024	64106496	32512344	33184
764	6.271229	95105024	64106496	36548936	33184
765	7.595145	95105024	64106496	41603688	33184
766	10.93164	95105024	64106496	31686920	33184
767	10.787958	95105024	64106496	38764616	33184
768	14.010863	95375360	64106496	31173904	33184
769	13.646964	95375360	64106496	40291704	33184
770	16.952743	95375360	64106496	34547648	33184
771	19.249543	95375360	64106496	30586096	33184
772	3.303214	95375360	64106496	43825704	33184
773	5.995068	95375360	64106496	30649192	33184
774	6.143936	95375360	64106496	34737192	33184
775	7.637129	95375360	64106496	39845720	33184
776	11.256206	95375360	64630784	30296152	33184
777	10.921571	95645696	64630784	37479048	33184
778	14.189358	95645696	64630784	30221424	33184
779	14.266682	95645696	64630784	39460888	33184
780	17.126165	95645696	64630784	33994952	33184
781	20.027202	95645696	64630784	30281128	33184
782	3.13494	95645696	64630784	43701744	33184
783	6.322069	95645696	64630784	30636408	33184
784	6.650437	95645696	64630784	34767320	33184
785	8.814353	95645696	64630784	39945160	33184
786	11.497883	95916032	64630784	30613312	33184
787	11.061301	95916032	64630784	37855360	33184
788	16.323453	95916032	64630784	30793400	33184
789	14.626468	95916032	64630784	40115352	33184
790	17.522915	95916032	64630784	34703760	33184
791	20.215041	95916032	64630784	31190440	33184
792	3.386762	95916032	64630784	44864880	33184
793	6.131395	96186368	65155072	31759688	33184
794	6.343576	96186368	65155072	35939544	33184
795	7.88182	96186368	65155072	41180520	33184
796	11.415504	96186368	65155072	31693336	33184
797	11.196788	96186368	65155072	39021032	33184
798	14.715568	96186368	65155072	31830152	33184
799	14.3807	96186368	65155072	41262240	33184
800	17.36639	96186368	65155072	35865720	33184
801	20.754827	96186368	65155072	32305592	33184
802	4.93831	96186368	65155072	29932080	33184
803	4.787536	96186368	65155072	33102208	33184
804	6.565894	96456704	65155072	37341472	33184
805	8.123414	96456704	65155072	42630632	33184
806	11.257863	96456704	65155072	33038168	33184
807	11.140643	96456704	65155072	40451800	33184
808	15.008575	96456704	65155072	33188304	33184
809	14.497017	96456704	65155072	42752704	33184
810	17.949676	96456704	65155072	37289592	33184
811	19.971729	96456704	65155072	33686512	33184
812	4.687585	96456704	65155072	31340920	33184
813	4.839977	96456704	65155072	34552680	33184
814	6.644295	96456704	65155072	38830864	33184
815	8.237301	96727040	65155072	44181344	33184
816	11.251865	96727040	65679360	34524616	33184
817	11.583595	96727040	65679360	42026728	33184
818	14.943378	96727040	65679360	34685688	33184
819	14.52884	96727040	65679360	44338800	33184
820	18.228649	96727040	66203648	38858000	33184
821	20.126274	96727040	66203648	35154680	33184
822	3.313977	96997376	66203648	34284552	33184
823	5.240872	96997376	66203648	37528296	33184
824	6.58957	96997376	66203648	41855440	33184
825	10.48437	96997376	66203648	31525440	33184
826	10.067929	96997376	66203648	38026408	33184
827	11.698949	96997376	66203648	45611872	33184
828	14.638848	96997376	66203648	37934944	33184
829	17.485946	96997376	66203648	32361016	33184
830	16.838592	96997376	66203648	43218304	33184
831	19.808531	96997376	66203648	39101792	33184
832	3.334466	97267712	66203648	37792424	33184
833	5.159125	97267712	66203648	41072984	33184
834	6.643212	97267712	66203648	45451000	33184
835	10.100536	97267712	66203648	34732664	33184
836	9.883025	97267712	66203648	41304632	33184
837	13.561661	97267712	66203648	33217992	33184
838	13.657346	97267712	66203648	42006416	33184
839	16.84544	97267712	66203648	36046848	33184
840	19.278092	97267712	66203648	31992000	33184
841	18.417841	97267712	66203648	44083272	33184
842	3.360893	97538048	66203648	42361352	33184
843	5.010475	97538048	66203648	45684192	33184
844	8.507217	97538048	66727936	33935472	33184
845	8.641329	97538048	66727936	39470112	33184
846	10.212183	97538048	66727936	46117680	33184
847	13.560171	97538048	66727936	37514760	33184
848	13.368327	97538048	66727936	46389072	33184
849	16.823495	97538048	66727936	40019848	33184
850	19.012186	97538048	66727936	35651840	33184
851	21.498313	97808384	66727936	32985840	33184
852	5.006655	97808384	66727936	31488560	33184
853	5.090834	97808384	66727936	34873736	33184
854	6.724593	97808384	66727936	39401616	33184
855	8.877281	97808384	66727936	45053000	33184
856	11.989215	97808384	66727936	35767896	33184
857	11.870818	97808384	66727936	43683536	33184
858	15.45298	97808384	66727936	36752616	33184
859	15.420084	97808384	66727936	46951352	33184
860	18.539523	97808384	66727936	41850680	33184
861	21.39256	98078720	66727936	38563320	33184
862	3.512326	98078720	66727936	38067104	33184
863	5.346351	98078720	66727936	41488936	33184
864	6.922343	98078720	66727936	46055056	33184
865	10.343319	98078720	67252224	35614544	33184
866	10.514327	98078720	67252224	42480896	33184
867	13.966042	98078720	67252224	34730680	33184
868	14.134823	98078720	67252224	43880664	33184
869	17.378023	98078720	67252224	38200744	33184
870	19.924036	98349056	67252224	34441816	33184
871	19.123728	98349056	67252224	47044992	33184
872	3.501924	98349056	67252224	45660568	33184
873	6.876139	98349056	67252224	33056152	33184
874	7.205159	98349056	67252224	37671696	33184
875	9.043373	98349056	67252224	43442968	33184
876	12.439963	98349056	67252224	34535520	33184
877	12.096878	98349056	67252224	42629144	33184
878	15.936397	98349056	67252224	36148160	33184
879	15.792177	98349056	67252224	46581192	33184
880	19.067849	98619392	67252224	41848752	33184
881	21.56222	98619392	67252224	38927936	33184
882	3.515582	98619392	67252224	38797968	33184
883	5.280666	98619392	67252224	42307200	33184
884	7.242076	98619392	67252224	46979568	33184
885	10.639715	98619392	67776512	36597936	33184
886	10.499848	98619392	67776512	43617560	33184
887	14.408907	98889728	67776512	35911272	33184
888	14.827154	98889728	67776512	45258440	33184
889	19.177898	98889728	67776512	39731536	33184
890	20.69055	98889728	67776512	36099104	33184
891	22.7161	98889728	67776512	34185320	33184
892	5.148699	98889728	67776512	33288920	33184
893	5.314586	98889728	67776512	36821696	33184
894	7.517095	98889728	67776512	41533832	33184
895	9.552609	98889728	67776512	47430440	33184
896	12.90772	98889728	67776512	38315200	33184
897	12.506269	98889728	67776512	46579456	33184
898	16.24387	99160064	67776512	39834736	33184
899	18.895227	99160064	67776512	35169640	33184
900	18.107705	99160064	67776512	47005576	33184
901	21.277518	99160064	67776512	43728136	33184
902	3.595593	99160064	67776512	43341720	33184
903	5.529204	99160064	67776512	46914744	33184
904	8.995131	99430400	68300800	35603096	33184
905	9.131601	99430400	68300800	41557664	33184
906	12.776777	99430400	68300800	33170792	33184
907	12.967869	99430400	68300800	41521600	33184
908	16.652385	99430400	68300800	35537368	33184
909	16.36355	99430400	68300800	46299184	33184
910	19.680592	99430400	68300800	42077856	33184
911	21.930456	99430400	68300800	39651032	33184
912	3.658958	99430400	68300800	40028008	33184
913	5.427805	99430400	68300800	43634520	33184
914	7.625265	99430400	68300800	48444792	33184
915	11.267799	99700736	68825088	38189976	33184
916	10.896249	99700736	68825088	45413024	33184
917	14.774439	99700736	68825088	37830816	33184
918	15.075807	99700736	68825088	47483432	33184
919	18.161379	99700736	68825088	42232984	33184
920	20.542836	99971072	68825088	38894512	33184
921	23.091155	99971072	68825088	37118752	33184
922	3.703608	99971072	68825088	38086440	33184
923	5.525639	99971072	68825088	41729192	33184
924	7.375329	99971072	68825088	46622328	33184
925	11.290711	99971072	69349376	36707792	33184
926	11.166697	99971072	69349376	44004248	33184
927	14.834147	99971072	69349376	36814528	33184
928	14.951034	99971072	69349376	46552728	33184
929	18.720098	100241408	69349376	41467256	33184
930	20.885111	100241408	69349376	38290152	33184
931	23.764001	100241408	69349376	36764192	33184
932	3.799111	100241408	69349376	37989488	33184
933	5.638518	100241408	69349376	41669056	33184
934	7.565636	100241408	69349376	46589056	33184
935	11.362077	100241408	69349376	36851952	33184
936	11.100249	100241408	69349376	44234768	33184
937	15.187052	100511744	69349376	37151792	33184
938	14.963653	100511744	69349376	47002632	33184
939	18.753732	100511744	69349376	41949328	33184
940	20.972568	100511744	69349376	38899760	33184
941	23.225661	100511744	69349376	37422920	33184
942	3.808212	100511744	69349376	38733664	33184
943	5.635772	100511744	69349376	42450200	33184
944	7.891906	100511744	69349376	47420736	33184
945	11.59232	100782080	69873664	37622568	33184
946	11.421171	100782080	69873664	45085960	33184
947	15.244685	100782080	69873664	37945072	33184
948	15.356213	100782080	69873664	47897040	33184
949	18.463646	100782080	69873664	42897136	33184
950	21.235114	100782080	69873664	39799312	33184
951	23.688567	100782080	69873664	38398184	33184
952	3.788883	100782080	69873664	39843872	33184
953	5.65956	100782080	69873664	43608888	33184
954	8.189705	100782080	69873664	48615736	33184
955	11.480686	101052416	69873664	38757896	33184
956	11.667651	101052416	69873664	46286816	33184
957	16.193659	101052416	69873664	39143664	33184
958	15.301698	101052416	69873664	49204072	33184
959	18.763709	101052416	69873664	44168176	33184
960	22.097413	101052416	69873664	41054408	33184
961	24.620054	101052416	69873664	39691448	33184
962	3.842627	101052416	69873664	41098344	33184
963	5.731326	101052416	69873664	44888456	33184
964	7.695066	101052416	69873664	49944288	33184
965	11.60784	101322752	70397952	40076544	33184
966	11.654046	101322752	70397952	47673000	33184
967	15.125837	101322752	70397952	40483648	33184
968	18.328664	101322752	70397952	35520680	33184
969	17.220142	101322752	70397952	46926232	33184
970	21.496287	101322752	70397952	43617624	33184
971	23.514535	101322752	70397952	42061872	33184
972	3.894226	101322752	70397952	43330136	33184
973	5.778087	101322752	70397952	47157128	33184
974	10.15602	101593088	70397952	36413280	33184
975	9.862682	101593088	70397952	42797088	33184
976	11.523365	101593088	70397952	50467400	33184
977	15.46499	101593088	70397952	43026336	33184
978	17.982371	101593088	70397952	37858776	33184
979	17.735074	101593088	70397952	49382024	33184
980	20.932679	101593088	70397952	45892072	33184
981	23.535672	101593088	70397952	44155504	33184
982	3.936599	101593088	70397952	45386656	33184
983	5.864695	101593088	70397952	49251656	33184
984	9.786006	101863424	70922240	38389456	33184
985	10.343427	101863424	70922240	44837960	33184
986	13.807787	101863424	70922240	36933144	33184
987	13.869933	101863424	70922240	45965264	33184
988	17.746811	101863424	70922240	40518720	33184
989	20.616373	101863424	70922240	37164192	33184
990	20.286295	101863424	70922240	50086248	33184
991	23.939636	101863424	70922240	47981712	33184
992	3.949067	101863424	70922240	48922624	33184
993	7.915292	102133760	70922240	36802568	33184
994	7.870547	102133760	70922240	42012080	33184
995	9.863607	102133760	70922240	48520704	33184
996	14.326185	102133760	70922240	40277704	33184
997	13.990471	102133760	70922240	49395840	33184
998	17.948243	102133760	70922240	43660472	33184
999	20.463638	102133760	70922240	39983064	33184
1000	23.373121	102133760	70922240	38105880	33184
