x	Duration	RSS	HeapTotal	HeapUsed	External
0	NA	92409856	61485056	14396472	33184
1	0.279812	92409856	61485056	14448736	33184
2	0.231869	92409856	61485056	14516712	33184
3	0.254643	92409856	61485056	14609424	33184
4	0.306367	92409856	61485056	14728544	33184
5	0.365368	92409856	61485056	14875832	33184
6	0.777996	92409856	61485056	15052032	33184
7	0.689265	92409856	61485056	15258264	33184
8	0.571959	92409856	61485056	15495832	33184
9	0.663681	92409856	61485056	15771024	33184
10	0.890829	92409856	61485056	16076496	33184
11	0.784481	92409856	61485056	16419664	33184
12	0.190923	92409856	61485056	16788944	33184
13	0.281935	92409856	61485056	16899256	33184
14	0.363557	92409856	61485056	17048592	33184
15	0.445406	92409856	61485056	17238096	33184
16	0.532053	92409856	61485056	17469552	33184
17	0.85172	92409856	61485056	17743808	33184
18	0.745977	92409856	61485056	18061816	33184
19	0.809607	92409856	61485056	18427608	33184
20	0.870164	92409856	61485056	18838144	33184
21	0.969709	92409856	61485056	19297192	33184
22	0.198422	92409856	61485056	19815840	33184
23	0.263886	92409856	61485056	19965536	33184
24	0.345538	92409856	61485056	20167336	33184
25	0.420241	92409856	61485056	20422544	33184
26	0.501019	92409856	61485056	20732840	33184
27	0.603617	92409856	61485056	21098888	33184
28	0.668799	92409856	61485056	21521944	33184
29	0.762465	92409856	61485056	22003296	33184
30	0.84261	92409856	61485056	22545328	33184
31	0.931325	92409856	61485056	23147840	33184
32	0.209892	92409856	61485056	23835872	33184
33	0.317438	92409856	61485056	24022360	33184
34	0.422794	92409856	61485056	24273208	33184
35	0.513105	92409856	61485056	24589760	33184
36	0.616304	92409856	61485056	24973632	33184
37	0.715828	92409856	61485056	25425512	33184
38	0.830777	92409856	61485056	25946696	33184
39	0.934825	92409856	61485056	26538424	33184
40	1.809244	92409856	61485056	27202888	33184
41	1.150621	92409856	61485056	27940432	33184
42	0.255083	92409856	61485056	28788016	33184
43	0.382529	92409856	61485056	29011272	33184
44	0.706761	92409856	61485056	29314936	33184
45	0.645214	92409856	61485056	29696328	33184
46	0.728612	92409856	61485056	30158400	33184
47	0.896456	92409856	61485056	30702480	33184
48	1.673328	92409856	61485056	15055632	33184
49	1.189816	92409856	61485056	15767640	33184
50	2.048304	92409856	61485056	16585408	33184
51	1.315665	92409856	61485056	17471072	33184
52	0.302932	92409856	61485056	18495872	33184
53	0.424635	92409856	61485056	18761200	33184
54	0.551973	92409856	61485056	19117184	33184
55	0.682697	92409856	61485056	19565048	33184
56	0.861895	92409856	61485056	20115472	33184
57	1.138236	92409856	61485056	20751368	33184
58	1.110213	92409856	61485056	21482832	33184
59	1.428688	92409856	61485056	22311064	33184
60	1.599949	92409856	61485056	23238312	33184
61	1.509492	92409856	61485056	24264808	33184
62	0.321175	92409856	61485056	25457272	33184
63	0.676798	92409856	61485056	25759440	33184
64	0.62535	92409856	61485056	26164448	33184
65	0.776173	92409856	61485056	26673664	33184
66	0.928246	92409856	61485056	27288720	33184
67	1.292242	92409856	61485056	28010416	33184
68	1.379111	92409856	61485056	28840048	33184
69	1.426437	92409856	61485056	29779576	33184
70	1.782725	92409856	61485056	30829024	33184
71	2.528885	92409856	61485056	15912232	33184
72	0.356634	92409856	61485056	17263816	33184
73	0.534	92409856	61485056	17602648	33184
74	0.796943	92409856	61485056	18056600	33184
75	0.904223	92409856	61485056	18627680	33184
76	1.037063	92409856	61485056	19316080	33184
77	1.203372	92409856	61485056	20123352	33184
78	1.576757	92409856	61485056	21050576	33184
79	1.557296	92409856	61485056	22099136	33184
80	1.741105	92409856	61485056	23271336	33184
81	1.986655	92409856	61485056	24568152	33184
82	0.433987	92409856	61485056	26082240	33184
83	0.589463	92409856	61485056	26457776	33184
84	0.830485	92409856	61485056	26962920	33184
85	1.038645	92409856	61485056	27596736	33184
86	1.437089	92409856	61485056	28362016	33184
87	1.349203	92409856	61485056	29259496	33184
88	1.528714	92409856	61485056	30290504	33184
89	1.729932	92409856	61485056	31456152	33184
90	2.649307	92409856	61485056	16678448	33184
91	2.116227	92409856	61485056	18120176	33184
92	0.429145	92409856	61485056	19811896	33184
93	0.645621	92409856	61485056	20234024	33184
94	0.842233	92409856	61485056	20798968	33184
95	1.049821	92409856	61485056	21508072	33184
96	1.265642	92409856	61485056	22362968	33184
97	1.477999	92409856	61485056	23364504	33184
98	1.685969	92409856	61485056	24514224	33184
99	1.928156	92409856	61485056	25813728	33184
100	2.134559	92409856	61485056	27263320	33184
101	2.323128	92409856	61485056	28864456	33184
102	0.463468	92409856	61485056	30740360	33184
103	0.698223	92409856	61485056	31199160	33184
104	1.70761	92409856	61485056	15754464	33184
105	1.246237	92409856	61485056	16525088	33184
106	1.48286	92409856	61485056	17453608	33184
107	1.963869	92409856	61485056	18540984	33184
108	1.857178	92409856	61485056	19788584	33184
109	2.064463	92409856	61485056	21199600	33184
110	2.351081	92409856	61485056	22771968	33184
111	2.560558	92409856	61485056	24508072	33184
112	0.504239	92409856	61485056	26543584	33184
113	0.762878	92409856	61485056	27039208	33184
114	0.992258	92409856	61485056	27702256	33184
115	1.244953	92409856	61485056	28534064	33184
116	1.477263	92409856	61485056	29536192	33184
117	1.902933	92409856	61485056	30711160	33184
118	2.79876	92409856	61485056	16037592	33184
119	2.855491	92409856	61485056	17558816	33184
120	2.517223	92409856	61485056	19257528	33184
121	2.715272	92409856	61485056	21128688	33184
122	0.536489	92409856	61485056	23323952	33184
123	0.807174	92409856	61485056	23856376	33184
124	1.256497	92409856	61485056	24568688	33184
125	1.356905	92409856	61485056	25461768	33184
126	1.63364	92409856	61485056	26537568	33184
127	2.089972	92409856	61485056	27796736	33184
128	2.292699	92409856	61485056	29244304	33184
129	2.386368	92409856	61485056	30873992	33184
130	3.806134	92409856	61485056	16661816	33184
131	3.25943	92409856	61485056	18667848	33184
132	0.575064	92409856	61485056	21027056	33184
133	0.864032	92409856	61485056	21596416	33184
134	1.14056	92409856	61485056	22357672	33184
135	1.6312	92409856	61485056	23312152	33184
136	1.701443	92409856	61485056	24461656	33184
137	1.998707	92409856	61485056	25806720	33184
138	2.260456	92409856	61485056	27348744	33184
139	2.762693	92409856	61485056	29088840	33184
140	3.202706	92409856	61485056	31029168	33184
141	3.954909	92409856	61485056	17116808	33184
142	0.613404	92409856	61485056	19645048	33184
143	0.919288	92409856	61485056	20256608	33184
144	1.211206	92409856	61485056	21077136	33184
145	2.565836	92409856	61485056	22102240	33184
146	1.818816	92409856	61485056	23336296	33184
147	2.167794	92409856	61485056	24780072	33184
148	2.4952	92409856	61485056	26434880	33184
149	2.751439	92409856	61485056	28301816	33184
150	3.315966	92409856	61485056	30398056	33184
151	4.327523	92409856	61485056	16721048	33184
152	0.658529	92409856	61485056	19425384	33184
153	0.994345	92409856	61485056	20073736	33184
154	1.341247	92409856	61485056	20940440	33184
155	1.606548	92409856	61485056	22026736	33184
156	1.933701	92409856	61485056	23334328	33184
157	2.243061	92409856	61485056	24864008	33184
158	2.576033	92409856	61485056	26617008	33184
159	2.895262	92409856	61485056	28594432	33184
160	3.216411	92409856	61485056	30799024	33184
161	4.48105	92409856	61485056	17211368	33184
162	0.693252	92409856	61485056	20076976	33184
163	1.029586	92409856	61485056	20762184	33184
164	1.371699	92409856	61485056	21677960	33184
165	1.70977	92409856	61485056	22825672	33184
166	2.034591	92409856	61485056	24207048	33184
167	2.378585	92409856	61485056	25822656	33184
168	2.955348	92409856	61485056	27673784	33184
169	3.078157	92409856	61485056	29761600	33184
170	3.398401	92409856	61485056	32088536	33184
171	4.587472	92409856	61485056	18487464	33184
172	0.729586	92409856	61485056	21515576	33184
173	1.090015	92409856	61485056	22237624	33184
174	1.438726	92409856	61485056	23202480	33184
175	1.801037	92409856	61485056	24411464	33184
176	2.150533	92409856	61485056	25866432	33184
177	2.73104	92409856	61485056	27567952	33184
178	2.902162	92409856	61485056	29517152	33184
179	3.456555	92409856	61485056	31715552	33184
180	4.770339	92409856	61485056	18065712	33184
181	3.964915	92409856	61485056	20775096	33184
182	0.764818	92409856	61485056	23979472	33184
183	1.148757	92409856	61485056	24750792	33184
184	1.530286	92409856	61485056	25781368	33184
185	1.895241	92409856	61485056	27072632	33184
186	2.280552	92409856	61485056	28626240	33184
187	2.649241	92409856	61485056	30442872	33184
188	3.014209	92409856	61485056	32523704	33184
189	4.514144	92409856	61485056	18669560	33184
190	3.786965	92409856	61485056	21283528	33184
191	4.17701	92409856	61485056	24165496	33184
192	0.808509	92409856	61485056	27567936	33184
193	1.207854	92409856	61485056	28379808	33184
194	1.595991	92409856	61485056	29459488	33184
195	2.042143	92409856	61485056	30812120	33184
196	2.437609	92409856	61485056	32439264	33184
197	3.657666	92409856	61485056	18150928	33184
198	3.193686	92409856	61485056	20329848	33184
199	3.61702	92409856	61485056	22786528	33184
200	4.044129	92409856	61485056	25523048	33184
201	4.368111	92409856	61485056	28544336	33184
202	0.859845	92409856	61485056	32105696	33184
203	1.262621	92409856	61485056	32950592	33184
204	2.732001	92409856	61485056	17831736	33184
205	2.238112	92409856	61485056	19247240	33184
206	2.640089	92409856	61485056	20947984	33184
207	3.261371	92409856	61485056	22936344	33184
208	3.338908	92409856	61485056	25213392	33184
209	3.732626	92409856	61485056	27780584	33184
210	4.362319	92409856	61485056	30639920	33184
211	5.730745	92409856	61485056	17861016	33184
212	0.948523	92409856	61485056	21582176	33184
213	1.392238	92409856	61485056	22464040	33184
214	1.840723	92409856	61485056	23641872	33184
215	2.304682	92409856	61485056	25117096	33184
216	2.764611	92409856	61485056	26891352	33184
217	3.40584	92409856	61485056	28965608	33184
218	3.961927	92409856	61485056	31342472	33184
219	5.074507	92409856	61485056	18016072	33184
220	4.569826	92409856	61485056	20998144	33184
221	4.783492	92409856	61485056	24284880	33184
222	0.929223	92409856	61485056	28170256	33184
223	1.372307	92409856	61485056	29088776	33184
224	1.818534	92409856	61485056	30316536	33184
225	2.261904	92409856	61485056	31853104	33184
226	2.759931	92409856	61485056	33704936	33184
227	4.247622	92409856	61485056	19558456	33184
228	3.617818	92409856	61485056	22031880	33184
229	4.063118	92409856	61485056	24828504	33184
230	4.738879	92409856	61485056	27939344	33184
231	4.985295	92409856	61485056	31369736	33184
232	0.961635	92409856	61485056	19453800	33184
233	1.429388	92409856	61485056	20417792	33184
234	1.897125	92409856	61485056	21705320	33184
235	2.360034	92409856	61485056	23317720	33184
236	2.813978	92409856	61485056	25256664	33184
237	3.522384	92409856	61485056	27525424	33184
238	3.767478	92409856	61485056	30120808	33184
239	4.307233	92409856	61485056	33045136	33184
240	6.099142	92409856	61485056	20107680	33184
241	5.21932	92409856	61485056	23696048	33184
242	1.002357	92409856	61485056	27936664	33184
243	1.482566	92409856	61485056	28937456	33184
244	1.964469	92409856	61485056	30274472	33184
245	2.519909	92409856	61485056	31948176	33184
246	3.176142	92409856	61485056	33960704	33184
247	4.36194	92680192	61485056	20025448	33184
248	3.916428	92680192	61485056	22719408	33184
249	4.62627	92680192	61485056	25758840	33184
250	5.115468	92680192	61485056	29137888	33184
251	5.424062	92680192	61485056	32865264	33184
252	1.07003	92680192	61485056	21106304	33184
253	1.540043	92680192	61485056	22143904	33184
254	2.260946	92680192	61485056	23530024	33184
255	2.542682	92680192	61485056	25266672	33184
256	3.13902	92680192	61485056	27352744	33184
257	3.612083	92680192	61485056	29790656	33184
258	4.282108	92680192	61485056	32581456	33184
259	5.669119	92680192	61485056	19626648	33184
260	5.325233	92680192	61485056	23128504	33184
261	5.605347	92680192	61485056	26986896	33184
262	1.070609	92680192	61485056	31548720	33184
263	1.605573	92680192	61485056	32628944	33184
264	2.116764	92680192	61485056	34063688	33184
265	3.728075	92680192	61485056	19599376	33184
266	3.49572	92680192	61485056	21759264	33184
267	3.692106	92680192	61485056	24283088	33184
268	4.334405	92680192	61485056	27172160	33184
269	5.026646	92680192	61485056	30427816	33184
270	5.289309	92680192	61485056	34052192	33184
271	6.801972	92680192	61485056	21793872	33184
272	1.108586	92680192	61485056	26522248	33184
273	1.658116	92680192	61485056	27633512	33184
274	2.420416	92680192	61485056	29117432	33184
275	2.739628	92680192	61485056	30975336	33184
276	3.279859	92680192	61485056	33208760	33184
277	5.126414	92680192	61485056	19678152	33184
278	4.386758	92680192	61485056	22665432	33184
279	4.918698	92680192	61485056	26031608	33184
280	5.768323	92680192	61485056	29778872	33184
281	6.017513	92680192	61485056	33909832	33184
282	1.145756	92680192	61485056	22579440	33184
283	1.719359	92680192	61485056	23727568	33184
284	2.26193	92680192	61485056	25260584	33184
285	3.052359	92680192	61485056	27179616	33184
286	3.397425	92680192	61485056	29486640	33184
287	3.946216	92680192	61485056	32182280	33184
288	6.411492	92680192	61485056	19309088	33184
289	5.349028	92680192	61485056	22787896	33184
290	5.991081	92680192	61485056	26657152	33184
291	6.331525	92680192	61485056	30921352	33184
292	1.246042	92680192	61485056	20138032	33184
293	1.861983	92680192	61485056	21322880	33184
294	2.452775	92680192	61485056	22904792	33184
295	3.079708	92680192	61485056	24885144	33184
296	3.647121	92680192	61485056	27265472	33184
297	4.094094	92680192	61485056	30046832	33184
298	4.964227	92680192	61485056	33230256	33184
299	6.528151	92680192	61485056	20720000	33184
300	6.095213	92680192	61485056	24712264	33184
301	6.472188	92680192	61485056	29110200	33184
302	1.229378	92680192	61485056	34317224	33184
303	2.970911	92680192	61485056	19342352	33184
304	2.760317	92680192	61485056	20973480	33184
305	3.0192	92680192	61485056	23015192	33184
306	3.843677	92680192	61485056	25469296	33184
307	4.222846	92680192	61485056	28336672	33184
308	5.038972	92680192	61485056	31622576	33184
309	5.42833	92680192	61485056	35319816	33184
310	7.084364	92680192	61485056	23090384	33184
311	6.908201	92680192	61485056	27625976	33184
312	1.299279	92680192	61485056	32992856	33184
313	1.880571	92680192	61485056	34251208	33184
314	3.847106	92680192	61485056	19755024	33184
315	3.125531	92680192	61485056	21858080	33184
316	3.746867	92680192	61485056	24387560	33184
317	4.359739	92680192	61485056	27340576	33184
318	4.973426	92680192	61485056	30720168	33184
319	5.832472	92680192	61485056	34527704	33184
320	7.367539	92680192	61485056	22571480	33184
321	7.081142	92680192	61485056	27239416	33184
322	1.299684	92680192	61485056	32767496	33184
323	1.967756	92680192	61485056	34062712	33184
324	3.74638	92680192	61485056	19657536	33184
325	3.226612	92680192	61485056	21821952	33184
326	4.072622	92680192	61485056	24423616	33184
327	4.50862	92680192	61485056	27462544	33184
328	5.150539	92680192	61485056	30943816	33184
329	5.994893	92680192	61485056	34864888	33184
330	7.777155	92680192	61485056	22983424	33184
331	7.134326	92680192	61485056	27792032	33184
332	1.348391	92680192	61485056	33480904	33184
333	2.001817	92680192	61485056	34812968	33184
334	3.849109	92680192	61485056	20403216	33184
335	3.618946	92680192	61485056	22628976	33184
336	4.016734	92680192	61485056	25306376	33184
337	4.623985	92680192	61485056	28431336	33184
338	5.367675	92680192	61485056	32007784	33184
339	7.468137	92680192	61485056	20218728	33184
340	6.917765	92680192	61485056	24701824	33184
341	7.812527	92680192	61485056	29643416	33184
342	1.384931	92680192	61485056	35489440	33184
343	3.688296	92680192	61485056	20612728	33184
344	2.781783	92680192	61485056	22440136	33184
345	3.446077	92680192	61485056	24727248	33184
346	4.289273	92680192	61485056	27475840	33184
347	4.80006	92680192	61485056	30688176	33184
348	5.469335	92680192	61485056	34366040	33184
349	7.590107	92680192	61485056	22382200	33184
350	7.099256	92680192	61485056	26989768	33184
351	7.493728	92680192	61485056	32063072	33184
352	1.419317	92680192	61485056	22274696	33184
353	2.109515	92680192	61485056	23680312	33184
354	2.817462	92680192	61485056	25556680	33184
355	3.537191	92680192	61485056	27905032	33184
356	4.218789	92680192	61485056	30727136	33184
357	5.11078	92680192	61485056	34023744	33184
358	6.996747	92680192	61485056	21750880	33184
359	6.581688	92680192	61485056	26018576	33184
360	7.005017	92680192	61485056	30780656	33184
361	7.963367	92680192	61485056	36032056	33184
362	1.462286	92680192	61485056	25922736	33184
363	2.183345	92680192	61485056	27403408	33184
364	3.094014	92680192	61485056	29379736	33184
365	3.640414	92680192	61485056	31853000	33184
366	4.381306	92680192	61485056	34825080	33184
367	6.557582	92680192	61485056	22186784	33184
368	5.793141	92680192	61485056	26167592	33184
369	6.701987	92680192	61485056	30644064	33184
370	7.200384	92680192	61485056	35622240	33184
371	9.189962	92680192	61485056	24834704	33184
372	1.493952	92680192	61485056	31345256	33184
373	2.658892	92680192	61485056	32862680	33184
374	2.962006	92680192	61485056	34888128	33184
375	5.162454	92680192	61485056	21306840	33184
376	4.446748	92680192	61485056	24353816	33184
377	5.818108	92680192	61485056	27914448	33184
378	5.946727	92680192	61485056	31994048	33184
379	6.8687	92680192	61485056	36582216	33184
380	9.170593	92680192	61485056	25419400	33184
381	8.194508	92680192	61485056	31037376	33184
382	2.775258	92680192	61485056	21456696	33184
383	2.298835	92680192	61485056	23011200	33184
384	3.252254	92680192	61485056	25093592	33184
385	3.793432	92680192	61485056	27697224	33184
386	4.535542	92680192	61485056	30816440	33184
387	5.755797	92680192	61485056	34459680	33184
388	7.78354	92680192	61485056	22594080	33184
389	6.831387	92680192	61485056	27295784	33184
390	7.802752	92680192	61485056	32519248	33184
391	10.039396	92680192	61485056	22459144	33184
392	1.569261	92680192	61485056	29281888	33184
393	2.610503	92680192	61485056	30872968	33184
394	3.114163	92680192	61485056	32996480	33184
395	3.877958	92680192	61485056	35653872	33184
396	6.170933	92680192	61485056	22687904	33184
397	5.4624	92680192	61485056	26417016	33184
398	6.244447	92680192	61485056	30683640	33184
399	7.031299	92680192	61485056	35489056	33184
400	9.37637	92950528	61485056	24712592	33184
401	8.784885	92950528	61485056	30603512	33184
402	2.913533	92950528	61485056	21346544	33184
403	2.406447	92950528	61485056	22983760	33184
404	3.210385	92950528	61485056	25156416	33184
405	4.203453	92950528	61485056	27875248	33184
406	4.768993	92950528	61485056	31141992	33184
407	5.784529	92950528	61485056	34957008	33184
408	7.815043	92950528	61485056	23293296	33184
409	7.16923	92950528	61485056	28209224	33184
410	8.172865	92950528	61485056	33678320	33184
411	10.452519	92950528	61485056	23805328	33184
412	1.658194	92950528	61485056	30947736	33184
413	2.515334	92950528	61485056	32612376	33184
414	3.264342	92950528	61485056	34834152	33184
415	5.528199	92950528	61485056	21624880	33184
416	5.11219	92950528	61485056	24965176	33184
417	5.697633	92950528	61485056	28866072	33184
418	6.732865	92950528	61485056	33329184	33184
419	9.461557	92950528	61485056	22572648	33184
420	8.150353	92950528	61485056	28168152	33184
421	9.175977	92950528	61485056	34328072	33184
422	1.761874	92950528	61485056	25676712	33184
423	2.638405	92950528	61485056	27378264	33184
424	3.660225	92950528	61485056	29650488	33184
425	4.230298	92950528	61485056	32491968	33184
426	5.006155	92950528	61485056	35910144	33184
427	7.512663	92950528	61485056	23817288	33184
428	6.687253	92950528	61485056	28380024	33184
429	7.538459	92950528	61485056	33522296	33184
430	10.19696	92950528	61485056	23401904	33184
431	9.688746	92950528	61485056	29694208	33184
432	1.78323	92950528	61485056	37156736	33184
433	3.966324	92950528	61485056	22664760	33184
434	3.632201	92950528	61485056	24984664	33184
435	4.337794	92950528	61485056	27887408	33184
436	5.149691	92950528	61485056	31380840	33184
437	6.167755	92950528	61485056	35453496	33184
438	8.330679	92950528	61485056	24113656	33184
439	7.718846	92950528	61485056	29360824	33184
440	8.770992	92950528	61485056	35199392	33184
441	11.327223	92950528	61485056	25600608	33184
442	1.814003	92950528	61485056	33226336	33184
443	2.623674	92950528	61485056	35001496	33184
444	3.538913	92950528	61485056	37371288	33184
445	5.921281	92950528	61485056	24112656	33184
446	5.218927	92950528	61485056	27681248	33184
447	6.316344	92950528	61485056	31840000	33184
448	6.959744	92950528	61485056	36601080	33184
449	9.758963	92950528	61485056	25817112	33184
450	8.731507	92950528	61485056	31777008	33184
451	9.816789	92950528	61485056	38344888	33184
452	1.810068	92950528	61485056	29701048	33184
453	2.683884	92950528	61485056	31512888	33184
454	3.567536	92950528	61485056	33937240	33184
455	4.451279	92950528	61485056	36970560	33184
456	6.80498	92950528	61485056	24462400	33184
457	6.500288	92950528	61485056	28708456	33184
458	7.174263	92950528	61485056	33564832	33184
459	9.836322	92950528	61485056	23351072	33184
460	9.230557	92950528	61485056	29436776	33184
461	10.062432	92950528	61485056	36143136	33184
462	1.836913	92950528	61485056	27981864	33184
463	2.743192	92950528	61485056	29830552	33184
464	3.858238	92950528	61485056	32297832	33184
465	4.60709	92950528	61485056	35393080	33184
466	7.533109	92950528	61485056	23204904	33184
467	6.388564	92950528	61485056	27539288	33184
468	7.261566	92950528	61485056	32493128	33184
469	8.183661	92950528	61485056	38071576	33184
470	10.778938	92950528	61485056	27946416	33184
471	10.27494	92950528	61485056	34778704	33184
472	1.882394	92950528	61485056	26999544	33184
473	3.026567	92950528	61485056	28885088	33184
474	3.719658	92950528	61485056	31401328	33184
475	4.636571	92950528	61485056	34551408	33184
476	5.803233	92950528	61485056	38333392	33184
477	7.930596	92950528	61485056	26459384	33184
478	7.450801	92950528	61485056	31511552	33184
479	8.602969	92950528	61485056	37200592	33184
480	10.973481	92950528	61485056	27331264	33184
481	10.501723	92950528	61485056	34306496	33184
482	1.923317	92950528	61485056	26780704	33184
483	2.873512	92950528	61485056	28703088	33184
484	3.810377	92950528	61485056	31268408	33184
485	4.966628	92950528	61485056	34477960	33184
486	5.726139	92950528	61485056	38333656	33184
487	8.20399	92950528	61485056	26593672	33184
488	7.87874	92950528	61485056	31754832	33184
489	8.624358	92950528	61485056	37557464	33184
490	11.177606	92950528	61485056	27811720	33184
491	10.976249	92950528	61485056	34914096	33184
492	2.180976	92950528	61485056	27485224	33184
493	2.942819	92950528	61485056	29444400	33184
494	3.874457	92950528	61485056	32058776	33184
495	5.029857	92950528	61485056	35330008	33184
496	5.859027	92950528	61485056	39259248	33184
497	8.1721	92950528	61485056	27496920	33184
498	7.950297	92950528	61485056	32745240	33184
499	8.913097	92950528	61485056	38658272	33184
500	11.376983	92950528	61485056	28924336	33184
501	10.672249	92950528	61485056	36164264	33184
502	2.001288	92950528	61485056	28750480	33184
503	2.976204	92950528	61485056	30746384	33184
504	4.178912	92950528	61485056	33410008	33184
505	4.932271	92950528	61485056	36745368	33184
506	7.660826	92950528	61485056	24801144	33184
507	6.984742	92950528	61485056	29475208	33184
508	8.089202	92950528	61485056	34827856	33184
509	11.078728	92950528	61485056	25095832	33184
510	10.315076	92950528	61485056	31795112	33184
511	11.129625	92950528	61485056	39174128	33184
512	2.042395	92950528	61485056	31543408	33184
513	3.033817	92950528	61485056	33576232	33184
514	4.234926	92950528	61485056	36292792	33184
515	5.306518	92950528	61485056	39694000	33184
516	7.844501	92950528	61485056	27427784	33184
517	7.0296	92950528	61485056	32194400	33184
518	8.274547	92950528	61485056	37639120	33184
519	11.00562	92950528	61485056	27707344	33184
520	10.594825	92950528	61485056	34526944	33184
521	13.441739	92950528	61485056	26330160	33184
522	2.074957	92950528	61485056	35233384	33184
523	3.097717	92950528	61485056	37302960	33184
524	6.002653	92950528	61485056	24073312	33184
525	5.127216	92950528	61485056	27528384	33184
526	6.354328	92950528	61485056	31678520	33184
527	7.177836	92950528	61485056	36524728	33184
528	10.201041	92950528	61485056	26210408	33184
529	9.451868	92950528	61485056	32451696	33184
530	10.481473	92950528	61485056	39400888	33184
531	12.778532	92950528	61485056	30729464	33184
532	2.121922	92950528	61485056	39790032	33184
533	4.861148	92950528	61485056	25608872	33184
534	4.225747	92950528	61485056	28419680	33184
535	5.336968	92950528	61485056	31936176	33184
536	6.329101	92950528	61485056	36159976	33184
537	9.360273	92950528	61485056	25287880	33184
538	8.578011	92950528	61485056	30931552	33184
539	9.400707	92950528	61485056	37296440	33184
540	12.185109	92950528	61485056	28364600	33184
541	11.986389	92950528	61485056	36155808	33184
542	2.159459	92950528	61485056	29538784	33184
543	3.204782	92950528	61485056	31682016	33184
544	4.25603	92950528	61485056	34541832	33184
545	5.526798	92950528	61485056	38119528	33184
546	8.159339	92950528	61485056	26418040	33184
547	7.664509	92950528	61485056	31435624	33184
548	8.515479	92950528	61485056	37175152	33184
549	11.494999	92950528	61485056	27646320	33184
550	10.884374	92950528	61485056	34833552	33184
551	13.765463	92950528	61485056	27104520	33184
552	2.206155	92950528	61485056	36516720	33184
553	3.321857	92950528	61485056	38698896	33184
554	6.250427	92950528	61485056	25515656	33184
555	5.479554	92950528	61485056	29154800	33184
556	6.732261	92950528	61485056	33539320	33184
557	7.779309	92950528	61485056	38656448	33184
558	10.645668	92950528	61485056	28452424	33184
559	10.21022	92950528	61485056	35061048	33184
560	12.975658	92950528	61485056	26751136	33184
561	12.285399	92950528	61485056	34839656	33184
562	2.240523	92950528	61485056	28848560	33184
563	3.56668	92950528	61485056	31085880	33184
564	4.660226	92950528	61485056	34071832	33184
565	5.808301	92950528	61485056	37806272	33184
566	8.99397	92950528	61485056	26396472	33184
567	8.122656	92950528	61485056	31635136	33184
568	9.303896	92950528	61485056	37629832	33184
569	12.374458	92950528	61485056	28397680	33184
570	11.283083	92950528	61485056	35899192	33184
571	14.443378	92950528	61485056	28413792	33184
572	2.500513	92950528	61485056	38231328	33184
573	3.394269	92950528	61485056	40505464	33184
574	6.19631	92950528	61485056	27275872	33184
575	5.850349	92950528	61485056	31071752	33184
576	6.792862	92950528	61485056	35636664	33184
577	7.883848	92950528	61485056	40959496	33184
578	10.839325	92950528	61485056	30765592	33184
579	10.420671	92950528	61485056	37623312	33184
580	13.280342	92950528	61485056	29299584	33184
581	12.597733	92950528	61485056	37704912	33184
582	2.523691	92950528	61485056	31703728	33184
583	3.452585	92950528	61485056	34014592	33184
584	4.586723	92950528	61485056	37098000	33184
585	5.917178	92950528	61485056	40955088	33184
586	8.565144	92950528	61485056	29315624	33184
587	8.043568	92950528	61485056	34728632	33184
588	9.354342	92950528	61485056	40919352	33184
589	12.057817	92950528	61485056	31521280	33184
590	11.490431	92950528	61485056	39267736	33184
591	14.538139	92950528	61485056	31658264	33184
592	4.050473	92950528	61485056	25625584	33184
593	3.513507	92950528	61485056	27978544	33184
594	4.652836	92950528	61485056	31111008	33184
595	6.0195	92950528	61485056	35029648	33184
596	7.183471	92950528	61485056	39737840	33184
597	10.211242	92950528	61485056	29166320	33184
598	9.331666	92950528	61485056	35450816	33184
599	13.368268	92950528	61485056	26972544	33184
600	11.895166	92950528	61485056	34871256	33184
601	15.092705	92950528	61485056	28012800	33184
602	2.407247	92950528	61485056	38301720	33184
603	3.552426	92950528	61485056	40686168	33184
604	6.449639	92950528	61485056	27712528	33184
605	5.928106	92950528	61485056	31692288	33184
606	7.430489	92950528	61485056	36472072	33184
607	10.717415	92950528	61485056	26442320	33184
608	9.678135	92950528	61485056	32825232	33184
609	10.841263	92950528	61485056	40018600	33184
610	13.646414	92950528	61485056	31855016	33184
611	13.476535	92950528	61485056	40652240	33184
612	2.418	92950528	61485056	34842856	33184
613	3.608899	92950528	61485056	37271984	33184
614	5.02171	92950528	61485056	40502584	33184
615	7.97633	93220864	62009344	28425320	33184
616	7.801145	93220864	62009344	33285192	33184
617	8.892905	93220864	62009344	38964512	33184
618	11.85453	93220864	62009344	29443656	33184
619	11.044456	93220864	62009344	36747752	33184
620	14.673975	93220864	62009344	29157400	33184
621	13.483815	93220864	62009344	38094272	33184
622	2.482526	93220864	62009344	32873792	33184
623	3.685675	93220864	62009344	35331920	33184
624	4.871103	93220864	62009344	38612520	33184
625	8.38958	93220864	62009344	26889872	33184
626	7.5388	93220864	62009344	31818144	33184
627	8.590596	93220864	62009344	37570584	33184
628	11.901898	93220864	62009344	28380584	33184
629	11.287867	93220864	62009344	35790240	33184
630	14.826228	93491200	62009344	28534488	33184
631	13.697462	93491200	62009344	37602216	33184
632	2.72741	93491200	62009344	32619672	33184
633	4.124582	93491200	62009344	35123384	33184
634	4.962769	93491200	62009344	38452240	33184
635	6.393453	93491200	62009344	42616120	33184
636	9.426339	93491200	62009344	31283176	33184
637	8.683218	93491200	62009344	37132544	33184
638	12.329358	93491200	62533632	28114824	33184
639	11.507299	93491200	62533632	35638768	33184
640	15.053551	93491200	63057920	28519664	33184
641	13.921388	93491200	63057920	37721496	33184
642	2.558737	93761536	63057920	32915928	33184
643	3.829684	93761536	63057920	35449216	33184
644	5.485774	93761536	63057920	38827176	33184
645	8.578433	93761536	63057920	27259640	33184
646	7.951747	93761536	63057920	32334088	33184
647	8.998144	93761536	63057920	38258232	33184
648	12.428839	93761536	63057920	29236696	33184
649	11.431878	93761536	63057920	36864296	33184
650	15.147773	93761536	63057920	29770216	33184
651	14.29499	93761536	63057920	39109752	33184
652	2.584652	93761536	63057920	34290664	33184
653	3.882771	94031872	63057920	36867224	33184
654	5.436015	94031872	63057920	40295880	33184
655	8.544331	94031872	63057920	28658336	33184
656	8.183007	94031872	63057920	33808208	33184
657	9.014204	94031872	63057920	39818816	33184
658	12.527316	94031872	63057920	30720008	33184
659	11.813892	94031872	63057920	38460416	33184
660	15.136227	94031872	63057920	31278320	33184
661	14.341831	94031872	63057920	40758088	33184
662	2.762193	94031872	63057920	35911504	33184
663	3.990263	94031872	63057920	38516968	33184
664	5.402044	94031872	63057920	41995592	33184
665	8.522938	94302208	63582208	30198544	33184
666	8.08721	94302208	63582208	35424048	33184
667	9.294633	94302208	63582208	41519920	33184
668	12.88271	94302208	63582208	32367016	33184
669	11.95027	94302208	63582208	40215328	33184
670	15.227163	94302208	63582208	32932016	33184
671	14.587776	94302208	63582208	42553928	33184
672	2.662926	94302208	63582208	37661144	33184
673	3.975824	94302208	63582208	40303352	33184
674	7.637333	94572544	63582208	27929616	33184
675	6.958098	94572544	63582208	32338736	33184
676	7.985833	94572544	63582208	37638480	33184
677	11.740856	94572544	63582208	28203488	33184
678	10.809318	94572544	63582208	35273296	33184
679	12.115474	94572544	63582208	43232136	33184
680	15.540229	94572544	63582208	35724968	33184
681	17.476821	94572544	63582208	30166648	33184
682	2.707165	94572544	63582208	41737520	33184
683	6.016968	94572544	63582208	28398072	33184
684	5.581425	94572544	63582208	31972336	33184
685	6.684909	94572544	63582208	36447800	33184
686	8.012892	94572544	63582208	41818048	33184
687	11.640841	94842880	63582208	32079064	33184
688	10.947902	94842880	63582208	39248648	33184
689	14.347439	94842880	64106496	31559960	33184
690	14.054121	94842880	64106496	40538864	33184
691	17.09455	94842880	64106496	34435640	33184
692	2.772603	94842880	64106496	31033272	33184
693	4.094489	94842880	64106496	33749232	33184
694	5.473913	94842880	64106496	37379816	33184
695	7.071623	94842880	64106496	41912864	33184
696	10.639674	95113216	64106496	31338680	33184
697	9.72793	95113216	64106496	37696704	33184
698	13.375723	95113216	64106496	29445280	33184
699	12.507546	95113216	64106496	37625184	33184
700	16.587012	95113216	64106496	31215760	33184
701	15.049934	95113216	64106496	41234440	33184
702	2.78327	95113216	64106496	37132232	33184
703	4.15809	95113216	64106496	39888600	33184
704	5.725815	95113216	64106496	43561104	33184
705	9.074391	95383552	64106496	31936048	33184
706	8.599257	95383552	64106496	37453064	33184
707	10.178889	95383552	64106496	43899120	33184
708	13.661826	95383552	64106496	34914312	33184
709	12.823158	95383552	64106496	43204848	33184
710	16.093836	95383552	64106496	36184952	33184
711	18.153279	95383552	64106496	31063816	33184
712	2.81824	95383552	64106496	43126640	33184
713	6.426465	95383552	64106496	29781128	33184
714	5.61303	95383552	64106496	33521192	33184
715	7.023573	95383552	64106496	38208872	33184
716	8.472099	95383552	64106496	43849608	33184
717	11.939886	95653888	64630784	34224208	33184
718	11.449505	95653888	64630784	41769816	33184
719	14.933021	95653888	64630784	34280928	33184
720	14.256667	95653888	64630784	43749808	33184
721	17.488575	95653888	64630784	37883360	33184
722	3.085626	95653888	64630784	34789032	33184
723	4.2539	95653888	64630784	37664584	33184
724	6.101837	95653888	64630784	41500912	33184
725	9.698006	95924224	64630784	30421016	33184
726	8.684015	95924224	64630784	36185224	33184
727	10.187354	95924224	64630784	42917816	33184
728	13.363511	95924224	64630784	34485928	33184
729	13.015379	95924224	64630784	43151408	33184
730	16.385426	95924224	64630784	36593064	33184
731	18.889925	95924224	64630784	31894312	33184
732	2.905544	95924224	64630784	44498632	33184
733	6.520373	95924224	64630784	31159152	33184
734	5.793282	95924224	64630784	35057464	33184
735	7.388513	95924224	64630784	39932264	33184
736	11.085284	96194560	65155072	30168224	33184
737	10.078532	96194560	65155072	36991600	33184
738	11.778248	96194560	65155072	44782136	33184
739	15.051364	96194560	65155072	37200864	33184
740	17.498635	96194560	65155072	31638296	33184
741	16.337548	96194560	65155072	42371768	33184
742	2.945349	96194560	65155072	39087192	33184
743	4.368257	96194560	65155072	42036488	33184
744	8.358945	96464896	65155072	30112184	33184
745	7.398806	96464896	65155072	35038200	33184
746	8.944464	96464896	65155072	40947584	33184
747	12.67609	96464896	65155072	32011760	33184
748	12.161224	96464896	65155072	39900440	33184
749	16.068293	96464896	65155072	33089840	33184
750	14.88605	96464896	65155072	42993032	33184
751	18.768461	96464896	65155072	37772896	33184
752	2.975648	96464896	65155072	35320376	33184
753	4.440317	96464896	65155072	38311544	33184
754	6.096607	96464896	65155072	42295048	33184
755	10.12066	96735232	65155072	31421256	33184
756	8.844385	96735232	65155072	37405096	33184
757	10.368433	96735232	65155072	44389440	33184
758	14.138253	96735232	65679360	36149576	33184
759	13.601042	96735232	65679360	45141104	33184
760	16.985391	96735232	65679360	38796920	33184
761	19.354511	96735232	66203648	34301528	33184
762	5.074029	96735232	66203648	31154704	33184
763	4.736047	96735232	66203648	34177592	33184
764	6.081451	96735232	66203648	38214184	33184
765	7.727144	96735232	66203648	43268936	33184
766	11.261824	97005568	66203648	33352168	33184
767	10.505986	97005568	66203648	40429864	33184
768	14.489869	97005568	66203648	32839152	33184
769	14.031667	97005568	66203648	41956952	33184
770	17.488525	97005568	66203648	36212896	33184
771	19.932267	97005568	66203648	32251344	33184
772	3.281793	97005568	66203648	45490952	33184
773	6.845599	97005568	66203648	32314440	33184
774	6.577341	97005568	66203648	36402440	33184
775	7.779871	97005568	66203648	41510968	33184
776	11.774872	97275904	66203648	31961400	33184
777	10.64091	97275904	66203648	39144296	33184
778	14.973576	97275904	66203648	31886672	33184
779	13.891493	97275904	66203648	41126136	33184
780	17.889719	97275904	66203648	35660200	33184
781	20.344412	97275904	66203648	31946376	33184
782	3.097564	97275904	66203648	45366992	33184
783	6.797818	97275904	66203648	32301656	33184
784	6.135453	97275904	66203648	36432568	33184
785	8.7578	97275904	66203648	41610280	33184
786	12.075116	97546240	66727936	32176472	33184
787	11.090527	97546240	66727936	39455616	33184
788	15.324934	97546240	66727936	32282232	33184
789	13.843491	97546240	66727936	41604064	33184
790	18.868222	97546240	66727936	36204584	33184
791	20.594539	97546240	66727936	32635416	33184
792	3.146827	97546240	66727936	46191624	33184
793	6.951245	97546240	66727936	33088288	33184
794	6.203945	97546240	66727936	37268088	33184
795	8.007934	97546240	66727936	42495896	33184
796	11.914569	97816576	66727936	33065640	33184
797	11.106364	97816576	66727936	40393392	33184
798	15.320247	97816576	66727936	33238216	33184
799	14.009316	97816576	66727936	42670208	33184
800	18.374477	97816576	66727936	37291816	33184
801	20.447929	97816576	66727936	33733432	33184
802	5.384474	97816576	66727936	31349960	33184
803	4.750949	97816576	66727936	34520040	33184
804	6.584485	97816576	66727936	38748984	33184
805	8.135414	97816576	66727936	44050840	33184
806	12.09163	98086912	67252224	34489304	33184
807	11.270022	98086912	67252224	41902968	33184
808	15.315134	98086912	67252224	34676792	33184
809	14.604829	98086912	67252224	44236160	33184
810	18.078054	98086912	67252224	38789080	33184
811	20.773799	98086912	67252224	35184168	33184
812	5.347009	98086912	67252224	32841496	33184
813	4.789812	98086912	67252224	36065536	33184
814	6.626551	98086912	67252224	40343688	33184
815	8.150238	98086912	67252224	45694256	33184
816	11.886547	98357248	67252224	36050152	33184
817	11.414161	98357248	67252224	43565728	33184
818	15.617125	98357248	67252224	36218984	33184
819	14.507093	98357248	67252224	45878584	33184
820	18.576975	98357248	67252224	40409024	33184
821	20.27919	98357248	67252224	36707232	33184
822	3.280059	98357248	67252224	35836992	33184
823	4.908434	98357248	67252224	39080736	33184
824	6.515743	98357248	67252224	43407880	33184
825	10.933681	98627584	67776512	33080296	33184
826	9.673448	98627584	67776512	39579320	33184
827	11.769898	98627584	67776512	47164784	33184
828	15.521789	98627584	67776512	39491352	33184
829	17.819559	98627584	67776512	33919400	33184
830	16.558874	98627584	67776512	44774968	33184
831	20.697376	98627584	67776512	40659640	33184
832	3.321367	98627584	67776512	39349704	33184
833	4.918191	98627584	67776512	42630264	33184
834	6.751231	98627584	67776512	47008280	33184
835	10.673363	98897920	67776512	36290416	33184
836	10.276726	98897920	67776512	42862384	33184
837	14.139062	98897920	67776512	34777632	33184
838	13.085558	98897920	67776512	43566056	33184
839	17.801617	98897920	67776512	37608544	33184
840	19.568395	98897920	67776512	33553992	33184
841	18.464014	98897920	67776512	45644800	33184
842	3.3413	98897920	67776512	43923352	33184
843	4.957576	98897920	67776512	47246192	33184
844	9.27731	99168256	67776512	35498416	33184
845	8.502015	99168256	67776512	41033056	33184
846	9.950172	99168256	67776512	47680624	33184
847	13.970696	99168256	68300800	39080696	33184
848	13.518498	99168256	68300800	47953432	33184
849	17.251134	99168256	68300800	41592888	33184
850	19.540641	99168256	68300800	37218560	33184
851	21.899608	99438592	68300800	34553496	33184
852	5.912857	99438592	68300800	33057160	33184
853	5.033282	99438592	68300800	36442376	33184
854	6.743405	99438592	68300800	40969280	33184
855	8.549851	99438592	68300800	46620664	33184
856	12.606327	99438592	68300800	37338424	33184
857	11.695894	99438592	68300800	45253984	33184
858	16.069476	99438592	68300800	38324224	33184
859	15.427063	99438592	68300800	48521848	33184
860	19.443045	99438592	68300800	43422120	33184
861	21.287419	99708928	68300800	40135704	33184
862	3.420156	99708928	68300800	39639960	33184
863	5.087234	99708928	68300800	43061792	33184
864	6.835522	99708928	68300800	47627912	33184
865	11.184885	99708928	68300800	37192312	33184
866	10.444443	99708928	68300800	44054224	33184
867	14.650976	99708928	68300800	36307008	33184
868	13.886238	99708928	68300800	45456888	33184
869	17.892704	99708928	68300800	39776904	33184
870	20.50147	99979264	68825088	36019480	33184
871	19.130926	99979264	68825088	48622096	33184
872	3.452167	99979264	69349376	47260440	33184
873	7.7529	99979264	69349376	34657888	33184
874	6.847187	99979264	69349376	39271824	33184
875	8.793839	99979264	69349376	45051288	33184
876	12.958234	99979264	69349376	36146152	33184
877	12.209289	99979264	69349376	44236448	33184
878	16.53979	99979264	69349376	37747760	33184
879	15.885259	100249600	69349376	48178824	33184
880	19.677083	100249600	69349376	43445072	33184
881	21.839912	100249600	69349376	40510704	33184
882	3.491808	100249600	69349376	40381208	33184
883	5.231171	100249600	69349376	43890440	33184
884	7.237958	100249600	69349376	48562808	33184
885	11.358078	100249600	69349376	38183320	33184
886	10.389992	100249600	69349376	45201272	33184
887	15.094541	100249600	69349376	37496872	33184
888	14.529993	100519936	69349376	46844040	33184
889	18.402602	100519936	69349376	41321136	33184
890	20.670867	100519936	69349376	37687152	33184
891	23.331113	100519936	69349376	35773872	33184
892	5.861026	100519936	69349376	34878216	33184
893	5.264705	100519936	69349376	38414224	33184
894	7.243815	100519936	69349376	43126312	33184
895	9.153525	100519936	69349376	49023504	33184
896	13.609523	100790272	69873664	39904576	33184
897	12.457959	100790272	69873664	48168832	33184
898	16.50317	100790272	69873664	41426000	33184
899	19.029739	100790272	69873664	36762232	33184
900	17.847085	100790272	69873664	48597784	33184
901	22.074989	100790272	69873664	45320816	33184
902	3.775266	100790272	69873664	44935344	33184
903	5.529414	100790272	69873664	48508368	33184
904	9.736852	101060608	69873664	37198648	33184
905	8.886085	101060608	69873664	43155816	33184
906	13.634592	101060608	69873664	34767240	33184
907	12.933581	101060608	69873664	43117112	33184
908	17.290668	101060608	69873664	37134752	33184
909	16.309402	101060608	69873664	47895640	33184
910	20.494853	101060608	69873664	43675256	33184
911	22.530299	101060608	69873664	41249824	33184
912	3.614201	101060608	69873664	41627552	33184
913	5.641329	101060608	69873664	45236248	33184
914	7.387509	101060608	69873664	50046520	33184
915	11.744661	101330944	70397952	39792240	33184
916	10.941099	101330944	70397952	47028848	33184
917	15.001695	101330944	70397952	39439648	33184
918	14.999759	101330944	70397952	49083568	33184
919	18.730901	101330944	70397952	43834064	33184
920	21.796791	101601280	70397952	40496536	33184
921	23.421417	101601280	70397952	38721808	33184
922	3.63099	101601280	70397952	39689968	33184
923	5.417361	101601280	70397952	43332968	33184
924	7.750612	101601280	70397952	48225296	33184
925	12.140093	101601280	70922240	38313072	33184
926	11.154323	101601280	70922240	45609512	33184
927	15.513036	101601280	70922240	38420872	33184
928	15.157502	101871616	70922240	48159048	33184
929	18.832013	101871616	70922240	43074208	33184
930	21.538732	101871616	70922240	39897368	33184
931	24.097429	101871616	70922240	38371880	33184
932	3.706058	101871616	70922240	39597648	33184
933	5.502982	101871616	70922240	43277216	33184
934	7.552776	101871616	70922240	48197216	33184
935	12.550389	101871616	70922240	38462384	33184
936	11.712918	101871616	70922240	45843400	33184
937	16.287596	102141952	70922240	38763240	33184
938	15.30948	102141952	70922240	48613152	33184
939	18.931565	102141952	70922240	43561208	33184
940	21.471036	102141952	70922240	40512624	33184
941	23.800735	102141952	70922240	39035800	33184
942	3.725349	102141952	70922240	40347576	33184
943	5.582785	102141952	70922240	44080120	33184
944	7.808898	102141952	70922240	49050760	33184
945	11.940029	102412288	71446528	39236392	33184
946	11.292049	102412288	71446528	46699784	33184
947	15.78397	102412288	71446528	39561680	33184
948	15.068729	102412288	71446528	49512752	33184
949	19.296945	102412288	71446528	44513792	33184
950	21.732545	102412288	71446528	41416912	33184
951	24.294165	102412288	71446528	40016712	33184
952	3.739375	102412288	71446528	41462416	33184
953	5.819171	102412288	71446528	45227432	33184
954	7.631559	102412288	71446528	50234280	33184
955	11.879064	102682624	71446528	40378736	33184
956	11.553172	102682624	71446528	47905832	33184
957	16.022261	102682624	71446528	40756152	33184
958	15.006187	102682624	71446528	50815552	33184
959	19.819968	102682624	71446528	45780600	33184
960	21.541136	102682624	71446528	42667776	33184
961	24.177526	102682624	71446528	41305808	33184
962	3.796214	102682624	71446528	42713176	33184
963	5.688498	102682624	71446528	46503216	33184
964	7.76652	102682624	71446528	51559608	33184
965	12.042922	102952960	71970816	41694264	33184
966	11.533894	102952960	71970816	49287784	33184
967	16.173227	102952960	71970816	42100320	33184
968	18.741687	102952960	71970816	37138808	33184
969	17.379209	102952960	71970816	48543848	33184
970	21.667534	102952960	71970816	45235712	33184
971	24.640929	102952960	71970816	43681424	33184
972	4.054899	102952960	71970816	44949640	33184
973	5.752937	102952960	71970816	48776632	33184
974	10.906769	103223296	71970816	38034640	33184
975	9.727157	103223296	71970816	44418384	33184
976	11.708866	103223296	71970816	52087376	33184
977	15.707806	103223296	71970816	44656488	33184
978	18.886918	103223296	71970816	39490208	33184
979	17.194569	103223296	71970816	51005032	33184
980	21.888548	103223296	71970816	47515352	33184
981	24.508737	103223296	71970816	45780112	33184
982	3.880515	103223296	71970816	47011352	33184
983	5.753895	103223296	71970816	50876352	33184
984	10.669537	103493632	72495104	40014624	33184
985	10.107109	103493632	72495104	46463128	33184
986	14.907636	103493632	72495104	38560664	33184
987	14.060472	103493632	72495104	47592720	33184
988	18.682449	103493632	72495104	42146248	33184
989	21.498363	103493632	72495104	38793216	33184
990	19.532449	103493632	72495104	51715232	33184
991	24.402782	103493632	73019392	49610656	33184
992	3.902656	103763968	73019392	50552512	33184
993	8.536525	103763968	73019392	38433920	33184
994	8.061908	103763968	73019392	43642440	33184
995	10.131667	103763968	73019392	50151064	33184
996	14.699729	103763968	73019392	41910328	33184
997	13.599362	103763968	73019392	51028288	33184
998	18.495678	103763968	73019392	45294240	33184
999	20.921576	104034304	73019392	41617960	33184
1000	23.450802	104034304	73019392	39741408	33184
