x	Duration	RSS	HeapTotal	HeapUsed	External
0	NA	94281728	62533632	14397792	33184
1	0.294149	94281728	62533632	14450096	33184
2	0.24926	94281728	62533632	14518072	33184
3	0.27932	94281728	62533632	14610784	33184
4	0.333051	94281728	62533632	14729904	33184
5	0.426333	94281728	62533632	14877192	33184
6	0.476429	94281728	62533632	15053336	33184
7	0.539128	94281728	62533632	15259568	33184
8	0.61212	94281728	62533632	15497152	33184
9	0.691771	94281728	62533632	15768528	33184
10	1.14644	94281728	62533632	16074016	33184
11	0.809034	94281728	62533632	16414776	33184
12	0.144929	94281728	62533632	16784080	33184
13	0.216344	94281728	62533632	16894392	33184
14	0.277625	94281728	62533632	17043688	33184
15	0.487769	94281728	62533632	17237008	33184
16	0.420016	94281728	62533632	17469288	33184
17	0.464592	94281728	62533632	17743528	33184
18	0.871287	94281728	62533632	18062216	33184
19	0.602729	94281728	62533632	18426120	33184
20	0.689293	94281728	62533632	18839600	33184
21	0.712201	94281728	62533632	19298584	33184
22	0.168895	94281728	62533632	19817264	33184
23	0.290212	94281728	62533632	19966960	33184
24	0.35086	94281728	62533632	20168760	33184
25	0.407593	94281728	62533632	20423984	33184
26	0.49259	94281728	62533632	20734256	33184
27	0.567559	94281728	62533632	21100304	33184
28	0.652796	94281728	62533632	21523432	33184
29	0.737228	94281728	62533632	22004808	33184
30	1.049331	94281728	62533632	22546728	33184
31	0.921539	94281728	62533632	23149312	33184
32	0.204891	94281728	62533632	23837480	33184
33	0.313089	94281728	62533632	24023968	33184
34	0.406546	94281728	62533632	24274816	33184
35	0.512907	94281728	62533632	24591320	33184
36	0.614992	94281728	62533632	24975168	33184
37	0.704917	94281728	62533632	25427120	33184
38	0.806124	94281728	62533632	25948336	33184
39	0.908482	94281728	62533632	26540056	33184
40	1.029498	94281728	62533632	27204432	33184
41	1.841724	94281728	62533632	27941800	33184
42	0.275221	94281728	62533632	28789472	33184
43	0.553124	94281728	62533632	29012728	33184
44	0.515865	94281728	62533632	29313736	33184
45	0.65671	94281728	62533632	29697752	33184
46	0.743129	94281728	62533632	30159792	33184
47	0.83438	94281728	62533632	30703904	33184
48	1.81694	94281728	62533632	15056384	33184
49	1.178238	94281728	62533632	15768336	33184
50	1.296886	94281728	62533632	16566952	33184
51	1.590474	94281728	62533632	17471744	33184
52	0.275266	94281728	62533632	18496600	33184
53	0.415295	94281728	62533632	18761928	33184
54	0.779199	94281728	62533632	19118024	33184
55	0.699392	94281728	62533632	19565992	33184
56	0.810355	94281728	62533632	20107496	33184
57	0.969085	94281728	62533632	20743392	33184
58	1.11317	94281728	62533632	21474824	33184
59	1.222331	94281728	62533632	22303024	33184
60	1.358475	94281728	62533632	23230336	33184
61	1.510483	94281728	62533632	24256808	33184
62	0.315092	94281728	62533632	25449272	33184
63	0.475875	94281728	62533632	25751408	33184
64	0.618493	94281728	62533632	26156408	33184
65	0.997107	94281728	62533632	26665624	33184
66	0.925223	94281728	62533632	27280680	33184
67	1.070173	94281728	62533632	28002440	33184
68	1.236417	94281728	62533632	28832016	33184
69	1.403412	94281728	62533632	29770904	33184
70	1.54315	94281728	62533632	30821040	33184
71	2.598547	94281728	62533632	15777816	33184
72	0.380067	94281728	62533632	17129928	33184
73	0.63534	94281728	62533632	17468816	33184
74	0.73723	94281728	62533632	17922944	33184
75	0.867057	94281728	62533632	18494216	33184
76	1.035268	94281728	62533632	19182920	33184
77	1.434332	94281728	62533632	19990464	33184
78	1.380744	94281728	62533632	20918096	33184
79	1.551908	94281728	62533632	21967096	33184
80	1.998201	94281728	62533632	23139768	33184
81	2.024964	94281728	62533632	24437944	33184
82	0.392846	94281728	62533632	25952552	33184
83	0.587918	94281728	62533632	26328128	33184
84	0.811597	94281728	62533632	26833464	33184
85	0.9813	94281728	62533632	27467424	33184
86	1.149813	94281728	62533632	28232944	33184
87	1.337363	94281728	62533632	29130720	33184
88	1.535634	94281728	62533632	30162088	33184
89	1.72075	94281728	62533632	31328160	33184
90	2.708589	94281728	62533632	16300880	33184
91	2.126686	94281728	62533632	17743168	33184
92	0.427984	94281728	62533632	19435384	33184
93	0.642656	94281728	62533632	19857528	33184
94	0.849777	94281728	62533632	20422600	33184
95	1.046116	94281728	62533632	21132944	33184
96	1.25793	94281728	62533632	21988200	33184
97	1.668953	94281728	62533632	22990088	33184
98	1.706386	94281728	62533632	24139720	33184
99	1.88783	94281728	62533632	25438552	33184
100	2.158219	94281728	62533632	26888624	33184
101	2.32461	94281728	62533632	28490416	33184
102	0.463343	94281728	62533632	30366792	33184
103	0.710845	94281728	62533632	30825688	33184
104	0.92141	94281728	62533632	31439824	33184
105	1.636942	94281728	62533632	15862328	33184
106	1.389248	94281728	62533632	16791184	33184
107	1.598652	94281728	62533632	17878872	33184
108	1.818402	94281728	62533632	19126616	33184
109	2.049948	94281728	62533632	20535856	33184
110	2.491681	94281728	62533632	22108536	33184
111	2.550997	94281728	62533632	23845040	33184
112	0.501946	94281728	62533632	25881128	33184
113	0.751158	94281728	62533632	26376888	33184
114	0.991018	94281728	62533632	27040056	33184
115	1.258761	94281728	62533632	27872016	33184
116	1.486464	94281728	62533632	28874352	33184
117	2.129461	94281728	62533632	30049584	33184
118	1.968578	94281728	62533632	31395584	33184
119	2.846269	94281728	62533632	16574480	33184
120	2.526507	94281728	62533632	18269936	33184
121	2.718522	94281728	62533632	20141528	33184
122	0.538438	94281728	62533632	22337248	33184
123	0.856715	94281728	62533632	22869824	33184
124	1.075102	94281728	62533632	23582136	33184
125	1.321498	94281728	62533632	24475376	33184
126	1.584255	94281728	62533632	25551464	33184
127	1.854341	94281728	62533632	26811032	33184
128	2.323673	94281728	62533632	28257304	33184
129	2.609414	94281728	62533632	29887472	33184
130	2.666059	94281728	62533632	31705560	33184
131	3.600956	94281728	62533632	17331176	33184
132	0.793445	94281728	62533632	19690984	33184
133	0.868836	94281728	62533632	20260312	33184
134	1.141478	94281728	62533632	21021712	33184
135	1.425257	94281728	62533632	21976304	33184
136	1.691909	94281728	62533632	23126072	33184
137	1.980334	94281728	62533632	24471600	33184
138	2.273277	94281728	62533632	26014000	33184
139	2.560898	94281728	62533632	27754488	33184
140	2.839088	94281728	62533632	29695304	33184
141	3.12794	94281728	62533632	31836720	33184
142	0.612507	94281728	62533632	17977224	33184
143	1.127246	94281728	62533632	18588880	33184
144	1.45584	94281728	62533632	19406696	33184
145	2.349352	94281728	62533632	20432008	33184
146	1.815765	94281728	62533632	21666208	33184
147	2.120548	94281728	62533632	23113024	33184
148	2.411908	94281728	62533632	24768168	33184
149	3.194878	94281728	62533632	26650304	33184
150	3.114759	94281728	62533632	28732216	33184
151	3.340378	94281728	62533632	31029448	33184
152	0.69679	94281728	62533632	17458672	33184
153	1.042532	94281728	62533632	18107128	33184
154	1.379194	94281728	62533632	18974472	33184
155	1.724409	94281728	62533632	20061016	33184
156	2.05843	94281728	62533632	21369624	33184
157	2.413804	94281728	62533632	22899672	33184
158	2.9171	94281728	62533632	24653000	33184
159	2.905994	94281728	62533632	26630944	33184
160	3.209021	94281728	62533632	28835472	33184
161	3.552164	94281728	62533632	31267072	33184
162	0.70165	94281728	62533632	17835832	33184
163	1.035192	94281728	62533632	18521080	33184
164	1.363124	94281728	62533632	19437064	33184
165	2.031559	94281728	62533632	20584888	33184
166	2.087211	94281728	62533632	21969824	33184
167	2.590994	94281728	62533632	23586136	33184
168	2.721238	94281728	62533632	25438376	33184
169	3.055338	94281728	62533632	27526640	33184
170	3.395966	94281728	62533632	29853984	33184
171	4.379386	94281728	62533632	16331008	33184
172	0.730846	94281728	62533632	19359520	33184
173	1.096796	94281728	62533632	20081664	33184
174	1.437044	94281728	62533632	21046728	33184
175	2.000857	94281728	62533632	22255976	33184
176	2.147692	94281728	62533632	23711544	33184
177	2.51308	94281728	62533632	25413312	33184
178	2.857071	94281728	62533632	27362976	33184
179	3.222514	94281728	62533632	29561640	33184
180	3.804191	94281728	62533632	32016384	33184
181	4.611721	94281728	62533632	18350784	33184
182	1.1267	94281728	62533632	21559344	33184
183	1.257815	94281728	62533632	22332304	33184
184	1.652996	94281728	62533632	23363064	33184
185	1.888986	94281728	62533632	24654488	33184
186	2.265374	94281728	62533632	26208256	33184
187	2.623134	94281728	62533632	28025040	33184
188	3.244075	94281728	62533632	30106152	33184
189	4.158599	94281728	62533632	16335856	33184
190	3.875261	94281728	62533632	18950496	33184
191	4.363883	94281728	62533632	21835080	33184
192	0.804578	94281728	62533632	25239176	33184
193	1.198453	94281728	62533632	26047344	33184
194	1.588595	94281728	62533632	27127240	33184
195	1.996714	94281728	62533632	28479936	33184
196	2.396798	94281728	62533632	30107224	33184
197	2.830878	94281728	62533632	32009872	33184
198	3.59847	94281728	62533632	17841128	33184
199	3.786854	94281728	62533632	20298136	33184
200	3.963099	94281728	62533632	23035112	33184
201	4.355908	94281728	62533632	26052272	33184
202	0.835709	94281728	62533632	29614248	33184
203	1.430598	94281728	62533632	30459248	33184
204	1.706667	94281728	62533632	31589928	33184
205	2.543826	94281728	62533632	16728320	33184
206	2.680535	94281728	62533632	18433192	33184
207	2.911174	94281728	62533632	20422920	33184
208	3.304568	94281728	62533632	22700424	33184
209	3.726882	94281728	62533632	25267960	33184
210	4.403889	94281728	62533632	28127680	33184
211	4.585222	94281728	62533632	31280016	33184
212	0.881301	94281728	62533632	18758784	33184
213	1.311975	94281728	62533632	19640624	33184
214	1.743334	94281728	62533632	20818728	33184
215	2.150841	94281728	62533632	22294208	33184
216	2.595085	94281728	62533632	24068912	33184
217	3.077914	94281728	62533632	26143472	33184
218	3.68839	94281728	62533632	28518984	33184
219	3.998108	94281728	62533632	31199944	33184
220	5.62358	94281728	62533632	18005248	33184
221	4.771907	94281728	62533632	21292440	33184
222	0.917045	94281728	62533632	25174592	33184
223	1.361299	94281728	62533632	26093200	33184
224	1.824106	94281728	62533632	27320336	33184
225	2.25193	94281728	62533632	28857120	33184
226	2.839681	94281728	62533632	30705384	33184
227	3.949858	94281728	62533632	16761952	33184
228	3.627591	94281728	62533632	19236480	33184
229	4.063084	94281728	62533632	22031368	33184
230	4.726268	94281728	62533632	25143344	33184
231	5.161481	94281728	62533632	28574104	33184
232	0.953961	94281728	62533632	32632440	33184
233	1.834607	94281728	62533632	17216272	33184
234	1.893341	94281728	62533632	18503952	33184
235	2.405264	94281728	62533632	20117408	33184
236	2.809761	94281728	62533632	22056496	33184
237	3.789142	94281728	62533632	24323016	33184
238	3.749533	94281728	62533632	26918056	33184
239	4.222036	94281728	62533632	29844680	33184
240	5.767759	94281728	62533632	17093440	33184
241	5.197547	94281728	62533632	20682336	33184
242	0.991987	94281728	62533632	24927016	33184
243	1.481431	94281728	62533632	25927928	33184
244	1.961709	94281728	62533632	27265632	33184
245	2.443387	94281728	62533632	28940992	33184
246	3.149632	94281728	62533632	30953776	33184
247	3.95081	94281728	62533632	17175056	33184
248	3.923542	94281728	62533632	19868208	33184
249	4.410999	94281728	62533632	22903320	33184
250	4.882652	94281728	62533632	26282608	33184
251	5.900571	94281728	62533632	30010696	33184
252	1.085334	94281728	62533632	18454256	33184
253	1.537834	94281728	62533632	19491984	33184
254	2.258792	94281728	62533632	20877848	33184
255	2.528046	94281728	62533632	22614048	33184
256	3.042296	94281728	62533632	24700432	33184
257	3.555582	94281728	62533632	27138648	33184
258	4.270863	94281728	62533632	29929944	33184
259	4.803513	94281728	62533632	33078224	33184
260	5.551392	94281728	62533632	20218584	33184
261	5.588351	94281728	62533632	24078288	33184
262	1.077721	94281728	62533632	28638952	33184
263	1.591791	94281728	62533632	29713528	33184
264	2.121121	94281728	62533632	31148472	33184
265	2.636008	94281728	62533632	32947552	33184
266	3.709277	94281728	62533632	18740936	33184
267	3.910923	94281728	62533632	21265040	33184
268	4.26947	94281728	62533632	24154464	33184
269	4.740399	94281728	62533632	27410592	33184
270	5.278373	94281728	62533632	31035504	33184
271	6.583462	94281728	62533632	18927768	33184
272	1.11474	94281728	62533632	23656344	33184
273	1.654049	94281728	62533632	24767680	33184
274	2.185879	94281728	62533632	26252288	33184
275	2.942161	94281728	62533632	28110272	33184
276	3.323905	94281728	62533632	30343912	33184
277	3.814741	94281728	62533632	32954000	33184
278	4.827782	94281728	62533632	19596528	33184
279	4.975796	94281728	62533632	22962952	33184
280	5.682563	94281728	62533632	26713528	33184
281	6.232606	94281728	62533632	30842240	33184
282	1.155925	94281728	62533632	19663528	33184
283	1.716769	94281728	62533632	20811720	33184
284	2.267263	94281728	62533632	22344824	33184
285	2.815047	94281728	62533632	24264072	33184
286	3.437417	94281728	62533632	26572496	33184
287	3.958204	94281728	62533632	29268392	33184
288	5.074886	94281728	62533632	32356432	33184
289	5.803642	94281728	62533632	19581968	33184
290	5.680757	94281728	62533632	23451352	33184
291	6.265458	94281728	62533632	27714848	33184
292	1.188832	94281728	62533632	32763256	33184
293	2.18951	94281728	62533632	17678488	33184
294	2.476201	94281728	62533632	19260584	33184
295	3.063946	94281728	62533632	21240912	33184
296	3.677317	94281728	62533632	23621488	33184
297	5.019748	94281728	62533632	26403016	33184
298	4.777342	94281728	62533632	29595632	33184
299	5.677917	94281728	62533632	33182520	33184
300	6.487372	94281728	62533632	20894496	33184
301	6.64034	94281728	62533632	25295480	33184
302	1.273495	94281728	62533632	30503136	33184
303	1.81385	94281728	62533632	31724712	33184
304	2.462066	94281728	62533632	33355784	33184
305	3.519193	94281728	62533632	19146080	33184
306	3.842663	94281728	62533632	21600272	33184
307	4.252517	94281728	62533632	24467376	33184
308	4.847238	94281728	62533632	27749024	33184
309	5.670097	94281728	62533632	31446080	33184
310	6.72803	94281728	62533632	19530840	33184
311	6.730411	94281728	62533632	24066584	33184
312	1.254923	94281728	62533632	29433384	33184
313	2.315514	94281728	62533632	30691776	33184
314	2.485406	94281728	62533632	32375880	33184
315	3.709604	94281728	62533632	18353976	33184
316	3.940991	94281728	62533632	20883144	33184
317	4.386489	94281728	62533632	23836264	33184
318	5.05781	94281728	62533632	27216064	33184
319	5.625875	94281728	62533632	31023760	33184
320	7.273596	94281728	62533632	19332408	33184
321	7.071433	94281728	62533632	24002640	33184
322	1.496178	94281728	62533632	29529944	33184
323	1.934373	94281728	62533632	30828152	33184
324	2.569442	94281728	62533632	32557336	33184
325	3.935417	94281728	62533632	18596920	33184
326	4.041375	94281728	62533632	21198264	33184
327	4.703135	94281728	62533632	24237328	33184
328	5.463767	94281728	62533632	27715256	33184
329	5.752547	94281728	62533632	31633224	33184
330	7.346302	94281728	62533632	19992544	33184
331	7.106313	94281728	62533632	24798632	33184
332	1.336898	94281728	62533632	30485584	33184
333	1.984822	94281728	62533632	31817648	33184
334	2.865784	94281728	62533632	33596104	33184
335	3.807985	94281728	62533632	19582440	33184
336	3.949478	94281728	62533632	22257520	33184
337	4.816356	94281728	62533632	25382696	33184
338	5.541619	94281728	62533632	28958712	33184
339	5.975874	94281728	62533632	32989320	33184
340	7.19486	94281728	62533632	21339568	33184
341	7.464082	94281728	62533632	26279048	33184
342	1.374908	94281728	62533632	32125128	33184
343	2.054443	94281728	62533632	33493936	33184
344	3.277277	94281728	62533632	19133056	33184
345	3.395338	94281728	62533632	21420264	33184
346	4.117155	94281728	62533632	24168856	33184
347	4.749042	94281728	62533632	27385568	33184
348	5.633575	94281728	62533632	31059832	33184
349	6.905681	94281728	62533632	19344848	33184
350	7.040914	94281728	62533632	23950520	33184
351	7.465531	94281728	62533632	29024680	33184
352	1.963392	94281728	62533632	18791576	33184
353	2.113957	94281728	62533632	20197232	33184
354	3.017552	94281728	62533632	22073552	33184
355	3.484545	94281728	62533632	24422032	33184
356	4.216604	94281728	62533632	27244216	33184
357	5.079169	94281728	62533632	30540784	33184
358	5.644496	94281728	62533632	34321376	33184
359	7.094217	94281728	62533632	22310920	33184
360	7.018205	94281728	62533632	27072984	33184
361	8.280859	94281728	62533632	32323984	33184
362	1.457027	94281728	62533632	22517768	33184
363	2.156333	94281728	62533632	23998344	33184
364	2.863847	94281728	62533632	25974832	33184
365	3.793155	94281728	62533632	28448264	33184
366	4.286285	94281728	62533632	31422592	33184
367	5.016997	94281728	62533632	34895440	33184
368	6.255493	94281728	62533632	22540736	33184
369	6.670514	94281728	62533632	27014960	33184
370	7.173651	94281728	62533632	31993512	33184
371	8.866864	94281728	62533632	21490504	33184
372	1.494138	94281728	62533632	27999832	33184
373	2.230668	94281728	62533632	29517872	33184
374	2.996649	94281728	62533632	31551592	33184
375	3.66433	94281728	62533632	34087544	33184
376	5.254475	94281728	62533632	20951016	33184
377	5.1631	94281728	62533632	24508344	33184
378	6.088355	94281728	62533632	28581152	33184
379	6.609279	94281728	62533632	33176008	33184
380	8.086423	94281728	62533632	22199992	33184
381	8.311421	94281728	62533632	27817512	33184
382	1.526246	94281728	62533632	34480400	33184
383	2.88881	94281728	62533632	19801824	33184
384	3.127791	94281728	62533632	21876352	33184
385	3.808915	94281728	62533632	24472552	33184
386	4.591574	94281728	62533632	27591952	33184
387	5.323528	94281728	62533632	31235240	33184
388	6.265981	94281728	62533632	35412240	33184
389	7.449751	94281728	62533632	23757304	33184
390	7.807861	94281728	62533632	28980736	33184
391	8.353031	94281728	62533632	34733200	33184
392	1.564106	94281728	62533632	25258928	33184
393	2.341294	94281728	62533632	26849896	33184
394	3.148506	94281728	62533632	28973408	33184
395	4.254356	94281728	62533632	31630712	33184
396	4.867927	94281728	62533632	34823680	33184
397	6.350077	94281728	62533632	22316072	33184
398	6.260047	94281728	62533632	26582840	33184
399	7.241406	94281728	62533632	31388312	33184
400	8.795031	94281728	62533632	20921064	33184
401	8.942757	94281728	62533632	26808568	33184
402	1.612073	94281728	62533632	33795120	33184
403	2.398342	94281728	62533632	35422928	33184
404	3.994746	94281728	62533632	21286496	33184
405	3.962985	94281728	62533632	24005200	33184
406	4.851073	94281728	62533632	27271696	33184
407	5.909307	94281728	62533632	31088040	33184
408	6.330025	94281728	62533632	35456784	33184
409	7.974876	94281728	62533632	24075432	33184
410	7.967079	94281728	62533632	29544400	33184
411	8.726951	94281728	62533632	35572776	33184
412	1.639938	94281728	62533632	26346200	33184
413	2.726629	94281728	62533632	28010832	33184
414	3.251157	94281728	62533632	30232608	33184
415	4.05478	94281728	62533632	33022376	33184
416	5.724944	94281728	62533632	20406992	33184
417	5.735783	94281728	62533632	24311432	33184
418	6.691891	94281728	62533632	28774400	33184
419	7.293685	94281728	62533632	33803232	33184
420	9.383351	94281728	62533632	23315512	33184
421	9.419992	94281728	62533632	29472968	33184
422	2.346338	94281728	62533632	20511688	33184
423	2.508978	94281728	62533632	22213144	33184
424	3.325595	94281728	62533632	24484992	33184
425	4.36225	94281728	62533632	27326480	33184
426	4.971791	94281728	62533632	30740424	33184
427	5.80353	94281728	62533632	34727360	33184
428	7.399577	94281728	62533632	23133864	33184
429	7.761962	94281728	62533632	28276800	33184
430	8.532393	94281728	62533632	34000120	33184
431	10.157602	94281728	62533632	24190512	33184
432	1.716258	94281728	62533632	31654984	33184
433	2.572591	94281728	62533632	33393264	33184
434	3.455304	94281728	62533632	35713192	33184
435	4.956196	94281728	62533632	22387008	33184
436	5.309894	94281728	62533632	25883952	33184
437	5.976803	94281728	62533632	29956744	33184
438	6.995363	94281728	62533632	34616848	33184
439	8.481717	94281728	62533632	23779808	33184
440	8.743416	94281728	62533632	29616784	33184
441	9.554049	94281728	62533632	36051112	33184
442	1.765751	94281728	62533632	27328632	33184
443	2.614789	94281728	62533632	29103784	33184
444	3.486026	94281728	62533632	31472888	33184
445	4.334298	94281728	62533632	34438440	33184
446	6.371437	94281728	62533632	21937592	33184
447	6.076481	94281728	62533632	26103968	33184
448	7.155307	94281728	62533632	30870896	33184
449	7.801487	94281728	62533632	36232064	33184
450	9.715337	94281728	62533632	25846864	33184
451	9.91405	94281728	62533632	32417432	33184
452	1.795731	94281728	62533632	24370744	33184
453	2.681278	94281728	62533632	26183256	33184
454	3.562221	94281728	62533632	28601360	33184
455	4.430644	94281728	62533632	31631080	33184
456	5.312448	94281728	62533632	35265728	33184
457	7.375651	94281728	62533632	23367592	33184
458	7.748429	94281728	62533632	28225328	33184
459	7.992246	94281728	62533632	33693272	33184
460	9.863347	94281728	62533632	23797776	33184
461	10.005208	94281728	62533632	30495536	33184
462	1.857441	94281728	62533632	22884592	33184
463	2.726527	94281728	62533632	24733320	33184
464	3.676262	94281728	62533632	27200480	33184
465	4.535121	94281728	62533632	30287288	33184
466	5.69675	94281728	62533632	33995496	33184
467	7.339474	94281728	62533632	22388904	33184
468	7.466469	94281728	62533632	27342776	33184
469	8.781393	94281728	62533632	32921104	33184
470	10.303434	94281728	62533632	23288264	33184
471	10.29083	94281728	62533632	30128080	33184
472	2.621801	94281728	62533632	21935312	33184
473	3.043351	94281728	62533632	23820904	33184
474	3.758106	94281728	62533632	26337048	33184
475	4.894863	94281728	62533632	29488952	33184
476	5.751495	94281728	62533632	33270728	33184
477	7.557386	94281728	62533632	21892680	33184
478	7.619865	94281728	62533632	26953808	33184
479	8.565898	94281728	62533632	32646832	33184
480	10.613584	94281728	62533632	23193448	33184
481	10.269939	94281728	62533632	30160768	33184
482	2.941568	94281728	62533632	22123672	33184
483	2.952392	94281728	62533632	24046032	33184
484	3.913902	94281728	62533632	26611352	33184
485	4.935837	94281728	62533632	29820840	33184
486	5.709302	94281728	62533632	33676848	33184
487	7.798746	94281728	62533632	22356816	33184
488	7.880403	94281728	62533632	27509488	33184
489	8.788296	94281728	62533632	33311960	33184
490	10.907472	94281728	62533632	23927992	33184
491	10.832386	94281728	62533632	31037280	33184
492	1.968572	94281728	62533632	23935360	33184
493	2.898617	94281728	62533632	25894432	33184
494	4.081583	94281728	62533632	28508808	33184
495	4.891291	94281728	62533632	31779768	33184
496	5.783202	94281728	62533632	35713264	33184
497	7.906118	94281728	62533632	24241328	33184
498	8.141262	94281728	62533632	29493544	33184
499	8.914601	94281728	62533632	35403280	33184
500	10.803211	94281728	62533632	25869856	33184
501	10.673354	94281728	62533632	33107280	33184
502	2.033637	94281728	62533632	25919304	33184
503	2.971727	94281728	62533632	27915248	33184
504	3.933063	94281728	62533632	30581864	33184
505	5.113539	94281728	62533632	33915912	33184
506	5.894405	94281728	62533632	37919016	33184
507	7.901151	94281728	62533632	26246400	33184
508	8.063181	94281728	62533632	31596320	33184
509	8.835561	94281728	62533632	37616416	33184
510	10.804134	94281728	62533632	27950624	33184
511	10.839099	94281728	62533632	35323864	33184
512	2.023883	94281728	62533632	28030592	33184
513	3.249883	94281728	62533632	30063416	33184
514	4.011189	94281728	62533632	32776008	33184
515	5.016306	94281728	62533632	36169528	33184
516	6.980156	94281728	62533632	24157512	33184
517	7.349712	94281728	62533632	28922968	33184
518	8.015042	94281728	62533632	34375536	33184
519	10.334952	94281728	62533632	24615896	33184
520	10.07121	94281728	62533632	31435496	33184
521	12.704534	94281728	62533632	23474864	33184
522	2.077621	94281728	62533632	32374256	33184
523	3.209056	94281728	62533632	34443936	33184
524	4.094582	94281728	62533632	37207488	33184
525	6.008206	94281728	62533632	24470400	33184
526	6.341456	94281728	62533632	28623352	33184
527	7.312263	94281728	62533632	33479968	33184
528	9.47957	94281728	62533632	23380728	33184
529	9.268817	94281728	62533632	29625040	33184
530	10.432913	94281728	62533632	36566496	33184
531	12.626686	94281728	62533632	28042488	33184
532	2.154678	94281728	62533632	37109128	33184
533	4.330433	94281728	62533632	23112720	33184
534	4.171206	94281728	62533632	25923456	33184
535	5.19021	94281728	62533632	29440072	33184
536	6.354175	94281728	62533632	33663792	33184
537	7.263266	94281728	62533632	38595576	33184
538	9.468874	94281728	62533632	27890888	33184
539	9.364708	94281728	62533632	34242432	33184
540	11.762388	94281728	62533632	25504368	33184
541	11.755666	94281728	62533632	33283560	33184
542	2.162683	94281728	62533632	26814488	33184
543	3.25636	94281728	62533632	28961608	33184
544	4.239298	94281728	62533632	31821520	33184
545	5.335006	94281728	62533632	35399200	33184
546	7.800495	94281728	62533632	23829648	33184
547	7.657277	94281728	62533632	28851240	33184
548	8.519967	94281728	62533632	34593680	33184
549	10.842105	94281728	62533632	25257024	33184
550	10.844206	94281728	62533632	32444448	33184
551	13.644367	94281728	62533632	24844712	33184
552	2.406805	94281728	62533632	34245008	33184
553	3.253925	94281728	62533632	36425792	33184
554	5.456765	94281728	62533632	23340848	33184
555	5.704853	94281728	62533632	26980472	33184
556	6.47325	94281728	62533632	31365048	33184
557	7.59596	94281728	62533632	36482544	33184
558	10.294385	94281728	62533632	26355192	33184
559	9.926532	94281728	62533632	32954824	33184
560	12.2709	94281728	62533632	24710216	33184
561	12.164122	94281728	62533632	32808816	33184
562	2.223612	94281728	62533632	26860728	33184
563	3.311907	94281728	62533632	29097960	33184
564	4.441804	94281728	62533632	32083632	33184
565	5.494776	94281728	62533632	35824096	33184
566	8.175844	94281728	62533632	24435264	33184
567	7.911115	94281728	62533632	29674728	33184
568	8.785767	94281728	62533632	35664632	33184
569	11.164086	94281728	62533632	26496736	33184
570	11.294723	94281728	62533632	33997176	33184
571	13.705817	94281728	62533632	26581440	33184
572	2.4885	94281728	62533632	36404872	33184
573	3.42233	94281728	62533632	38678936	33184
574	5.469339	94281728	62533632	25528080	33184
575	5.806398	94281728	62533632	29323776	33184
576	6.9108	94281728	62533632	33889848	33184
577	7.876977	94281728	62533632	39222128	33184
578	10.166404	94281728	62533632	29041848	33184
579	10.296709	94281728	62533632	35896336	33184
580	12.735491	94281728	62533632	27614384	33184
581	12.619851	94281728	62533632	36006000	33184
582	2.307291	94281728	62533632	30047136	33184
583	3.43828	94281728	62533632	32361904	33184
584	4.557459	94281728	62533632	35445624	33184
585	5.722523	94281728	62533632	39308856	33184
586	8.013721	94281728	62533632	27664536	33184
587	8.196264	94281728	62533632	33073296	33184
588	9.393913	94281728	62533632	39259408	33184
589	11.547917	94281728	62533632	29881704	33184
590	11.55083	94281728	62533632	37628712	33184
591	13.993843	94281728	62533632	30033360	33184
592	3.392101	94281728	62533632	24017896	33184
593	3.49819	94281728	62533632	26365552	33184
594	4.681035	94281728	62533632	29506072	33184
595	5.870678	94281728	62533632	33424680	33184
596	7.152737	94281728	62533632	38131072	33184
597	9.452735	94281728	62533632	27572032	33184
598	9.270626	94281728	62533632	33856616	33184
599	11.992531	94281728	62533632	25361352	33184
600	11.840721	94281728	62533632	33229800	33184
601	14.713828	94281728	62533632	26393904	33184
602	2.386862	94281728	62533632	36688136	33184
603	3.644707	94281728	62533632	39072600	33184
604	6.028158	94281728	62533632	26085848	33184
605	5.983397	94281728	62533632	30065888	33184
606	7.387728	94281728	62533632	34845704	33184
607	9.937586	94281728	62533632	24825328	33184
608	9.650843	94281728	62533632	31211688	33184
609	10.598462	94281728	62533632	38397280	33184
610	13.112729	94281728	62533632	30237160	33184
611	13.2405	94281728	62533632	39037088	33184
612	2.413333	94281728	62533632	33238136	33184
613	3.622259	94281728	62533632	35663032	33184
614	5.004312	94281728	62533632	38893632	33184
615	7.11811	94281728	62533632	26817568	33184
616	7.399422	94281728	62533632	31677384	33184
617	8.457492	94281728	62533632	37353864	33184
618	11.043704	94281728	62533632	27839360	33184
619	11.231136	94281728	62533632	35139336	33184
620	13.485946	94281728	62533632	27557704	33184
621	13.447301	94281728	62533632	36501808	33184
622	2.471341	94281728	62533632	31286256	33184
623	3.70836	94281728	62533632	33745744	33184
624	4.859687	94281728	62533632	37026904	33184
625	7.626075	94281728	62533632	25296960	33184
626	7.300988	94281728	62533632	30224968	33184
627	8.785759	94281728	62533632	35978520	33184
628	11.187632	94281728	62533632	26810576	33184
629	11.208639	94281728	62533632	34220232	33184
630	14.195731	94281728	62533632	26963208	33184
631	13.965785	94281728	62533632	36030488	33184
632	2.507656	94281728	62533632	31022160	33184
633	3.794115	94281728	62533632	33517128	33184
634	5.214644	94281728	62533632	36845984	33184
635	6.163142	94281728	62533632	41014896	33184
636	8.464687	94281728	62533632	29677176	33184
637	9.046469	94281728	62533632	35515400	33184
638	11.418251	94281728	62533632	26507152	33184
639	11.310858	94281728	62533632	34024248	33184
640	14.430688	94281728	62533632	26893872	33184
641	14.074213	94281728	62533632	36096712	33184
642	2.52991	94281728	62533632	31320240	33184
643	4.003409	94281728	62533632	33852264	33184
644	5.055358	94281728	62533632	37230136	33184
645	7.89159	94281728	62533632	25665048	33184
646	7.628022	94281728	62533632	30739648	33184
647	8.841221	94281728	62533632	36664008	33184
648	11.899031	94281728	62533632	27645000	33184
649	11.562598	94281728	62533632	35273432	33184
650	14.248758	94281728	62533632	28185872	33184
651	14.077432	94281728	62533632	37523016	33184
652	2.583446	94281728	62533632	32690192	33184
653	3.84011	94281728	62533632	35258840	33184
654	5.09865	94281728	62533632	38696928	33184
655	7.945889	94281728	62533632	27062264	33184
656	7.713577	94281728	62533632	32211144	33184
657	9.140318	94281728	62533632	38229592	33184
658	11.760882	94281728	62533632	29134680	33184
659	11.508444	94281728	62533632	36875088	33184
660	14.632887	94281728	62533632	29692272	33184
661	14.376342	94281728	62533632	39172040	33184
662	2.631991	94281728	62533632	34324976	33184
663	3.887457	94281728	62533632	36930440	33184
664	5.391073	94281728	62533632	40409064	33184
665	7.728313	94281728	62533632	28611112	33184
666	7.790397	94281728	62533632	33837280	33184
667	9.291664	94281728	62533632	39933152	33184
668	12.255133	94281728	62533632	30779528	33184
669	11.691963	94281728	62533632	38627840	33184
670	14.615489	94281728	62533632	31343808	33184
671	14.555401	94281728	62533632	40965720	33184
672	2.747016	94281728	62533632	36072392	33184
673	3.96157	94281728	62533632	38714568	33184
674	6.927455	94281728	62533632	26339368	33184
675	6.585912	94281728	62533632	30748664	33184
676	8.111323	94281728	62533632	36049552	33184
677	11.755067	94281728	62533632	26649424	33184
678	10.799982	94281728	62533632	33719232	33184
679	12.065085	94281728	62533632	41678008	33184
680	14.579966	94281728	62533632	34194176	33184
681	16.606357	94281728	62533632	28609944	33184
682	2.712847	94281728	62533632	40176976	33184
683	5.308876	94281728	62533632	26825568	33184
684	5.556473	94281728	62533632	30399744	33184
685	6.654286	94281728	62533632	34875424	33184
686	8.129959	94281728	62533632	40245672	33184
687	10.932966	94281728	62533632	30506448	33184
688	11.08562	94281728	62533632	37676032	33184
689	13.995106	94281728	62533632	29986384	33184
690	13.901842	94281728	62533632	38965288	33184
691	16.540793	94281728	62533632	32860856	33184
692	2.762995	94281728	62533632	29458736	33184
693	4.286565	94281728	62533632	32174696	33184
694	5.525204	94281728	62533632	35805280	33184
695	6.818614	94281728	62533632	40338328	33184
696	9.46973	94281728	62533632	29763248	33184
697	9.764701	94281728	62533632	36122168	33184
698	12.954363	94281728	62533632	27869336	33184
699	12.699997	94281728	62533632	36049136	33184
700	15.764806	94281728	62533632	29639784	33184
701	15.322803	94281728	62533632	39658464	33184
702	2.991045	94281728	62533632	35555776	33184
703	4.138671	94281728	62533632	38312144	33184
704	5.533662	94281728	62533632	41984648	33184
705	8.099915	94281728	62533632	30358552	33184
706	8.482243	94281728	62533632	35876368	33184
707	9.864091	94281728	62533632	42322424	33184
708	12.550281	94281728	62533632	33336896	33184
709	12.961087	94281728	62533632	41627432	33184
710	15.211918	94281728	62533632	34606256	33184
711	17.589544	94281728	62533632	29485080	33184
712	2.818285	94281728	62533632	41548024	33184
713	5.503089	94281728	62533632	28202064	33184
714	5.812189	94281728	62533632	31942336	33184
715	7.037773	94281728	62533632	36630016	33184
716	8.612287	94281728	62533632	42270752	33184
717	11.272843	94281728	63057920	32637968	33184
718	11.370124	94281728	63057920	40182784	33184
719	14.353502	94281728	63057920	32691688	33184
720	14.178893	94281728	63057920	42154360	33184
721	16.602313	94281728	63057920	36269680	33184
722	2.873352	94281728	63057920	33149704	33184
723	4.371473	94281728	63057920	36030624	33184
724	5.691174	94281728	63057920	39866952	33184
725	8.668871	94552064	63057920	28782968	33184
726	8.707449	94552064	63057920	34547864	33184
727	10.089257	94552064	63057920	41275696	33184
728	12.778942	94552064	63057920	32866992	33184
729	13.028125	94552064	63057920	41527632	33184
730	16.140106	94552064	63057920	34978168	33184
731	17.917026	94552064	63057920	30277640	33184
732	3.123288	94552064	63057920	42903360	33184
733	5.677616	94552064	63057920	29575976	33184
734	5.901855	94552064	63057920	33474288	33184
735	7.194689	94552064	63057920	38349088	33184
736	10.656933	94822400	63582208	28584008	33184
737	10.254481	94822400	63582208	35408184	33184
738	11.506732	94822400	63582208	43198720	33184
739	14.435449	94822400	63582208	35616728	33184
740	16.856791	94822400	63582208	30053160	33184
741	16.087388	94822400	63582208	40786912	33184
742	2.98563	94822400	63582208	37502096	33184
743	4.637292	94822400	63582208	40451392	33184
744	7.660175	94822400	63582208	28526384	33184
745	7.320803	94822400	63582208	33452864	33184
746	8.926712	95092736	63582208	39362248	33184
747	11.814484	95092736	63582208	30425264	33184
748	11.860083	95092736	63582208	38314624	33184
749	15.014682	95092736	63582208	31503304	33184
750	14.9573	95092736	63582208	41406496	33184
751	17.637669	95092736	63582208	36185880	33184
752	2.971748	95092736	63582208	33732880	33184
753	4.64822	95092736	63582208	36724048	33184
754	5.928127	95092736	63582208	40707552	33184
755	9.24646	95363072	64106496	29831928	33184
756	8.840122	95363072	64106496	35816600	33184
757	10.527236	95363072	64106496	42800944	33184
758	13.360182	95363072	64106496	34560360	33184
759	13.497951	95363072	64106496	43551888	33184
760	16.277296	95363072	64106496	37207704	33184
761	18.509587	95363072	64106496	32712312	33184
762	4.340357	95363072	64106496	29565488	33184
763	4.736037	95363072	64106496	32588376	33184
764	6.161999	95363072	64106496	36624968	33184
765	7.48942	95363072	64106496	41679720	33184
766	10.799231	95633408	64106496	31762952	33184
767	10.429522	95633408	64106496	38840648	33184
768	13.942285	95633408	64106496	31249936	33184
769	13.730328	95633408	64106496	40367736	33184
770	17.090373	95633408	64106496	34623680	33184
771	19.380714	95633408	64106496	30662128	33184
772	3.269162	95633408	64106496	43901736	33184
773	6.175763	95633408	64106496	30725224	33184
774	6.298178	95633408	64106496	34813224	33184
775	7.542492	95633408	64106496	39921752	33184
776	10.952338	95903744	64630784	30372184	33184
777	10.843868	95903744	64630784	37555080	33184
778	14.321013	95903744	64630784	30297456	33184
779	13.726151	95903744	64630784	39536920	33184
780	18.608588	95903744	64630784	34084200	33184
781	19.460713	95903744	65155072	30370064	33184
782	3.095895	95903744	65155072	43790992	33184
783	6.458993	95903744	65155072	30723728	33184
784	6.184805	95903744	65155072	34854576	33184
785	8.761152	95903744	65155072	40032488	33184
786	11.057779	96174080	65155072	30596232	33184
787	10.782134	96174080	65155072	37877728	33184
788	14.246864	96174080	65155072	30702928	33184
789	13.869358	96174080	65155072	40024760	33184
790	17.072954	96174080	65155072	34623288	33184
791	19.409517	96174080	65155072	31053704	33184
792	3.412444	96174080	65155072	44610432	33184
793	6.301369	96174080	65155072	31505232	33184
794	6.406943	96174080	65155072	35685176	33184
795	8.185916	96174080	65155072	40913048	33184
796	11.299251	96444416	65155072	31480520	33184
797	10.917216	96444416	65155072	38808264	33184
798	14.6032	96444416	65155072	31650920	33184
799	14.193325	96444416	65155072	41083288	33184
800	17.511146	96444416	65155072	35704920	33184
801	19.70627	96444416	65155072	32144968	33184
802	4.72676	96444416	65155072	29760056	33184
803	4.859021	96444416	65155072	32930136	33184
804	6.466709	96444416	65155072	37159040	33184
805	7.879579	96444416	65155072	42463984	33184
806	11.485703	96714752	65679360	32899704	33184
807	11.302695	96714752	65679360	40313504	33184
808	14.636679	96714752	65679360	33086168	33184
809	14.284569	96714752	65679360	42646472	33184
810	17.854397	96714752	65679360	37197264	33184
811	19.799817	96714752	65679360	33592072	33184
812	4.650802	96714752	65679360	31248520	33184
813	4.779435	96714752	65679360	34473488	33184
814	6.609632	96714752	65679360	38751640	33184
815	8.239461	96714752	65679360	44102208	33184
816	11.735078	96985088	65679360	34455336	33184
817	11.33719	96985088	65679360	41972736	33184
818	14.431755	96985088	65679360	34624104	33184
819	14.641546	96985088	65679360	44283704	33184
820	18.41503	96985088	65679360	38813200	33184
821	19.977526	96985088	65679360	35109880	33184
822	3.255454	96985088	65679360	34239752	33184
823	5.058933	96985088	65679360	37483496	33184
824	6.665642	96985088	65679360	41810640	33184
825	10.387553	97255424	66203648	31480640	33184
826	9.84737	97255424	66203648	37981608	33184
827	11.466322	97255424	66203648	45567072	33184
828	14.587496	97255424	66203648	37892312	33184
829	17.077125	97255424	66203648	32318384	33184
830	16.3447	97255424	66203648	43173712	33184
831	20.335612	97255424	66203648	39057200	33184
832	3.34341	97255424	66203648	37747832	33184
833	5.159057	97255424	66203648	41028392	33184
834	6.550574	97255424	66203648	45406408	33184
835	9.995276	97525760	66203648	34688072	33184
836	9.772306	97525760	66203648	41260040	33184
837	13.693118	97525760	66203648	33173400	33184
838	13.089276	97525760	66203648	41961824	33184
839	16.644918	97525760	66203648	36002256	33184
840	19.399005	97525760	66203648	31947408	33184
841	18.239403	97525760	66203648	44038680	33184
842	3.327082	97525760	66203648	42316760	33184
843	4.995871	97525760	66203648	45639600	33184
844	8.573515	97796096	66727936	33890880	33184
845	8.667361	97796096	66727936	39425520	33184
846	10.598143	97796096	66727936	46073088	33184
847	13.373409	97796096	66727936	37470168	33184
848	13.424975	97796096	66727936	46344480	33184
849	16.864166	97796096	66727936	39975256	33184
850	18.769859	97796096	66727936	35607248	33184
851	21.253403	97796096	66727936	32941248	33184
852	4.973081	97796096	66727936	31443968	33184
853	5.028093	97796096	66727936	34829144	33184
854	6.888289	97796096	66727936	39357024	33184
855	8.57568	97796096	66727936	45008408	33184
856	11.711322	98066432	66727936	35723304	33184
857	11.958064	98066432	66727936	43638944	33184
858	15.630464	98066432	66727936	36708024	33184
859	15.176225	98066432	66727936	46906760	33184
860	18.581391	98066432	66727936	41806088	33184
861	20.444078	98066432	66727936	38518728	33184
862	3.423969	98066432	66727936	38022512	33184
863	5.057266	98066432	66727936	41444344	33184
864	7.012906	98066432	66727936	46010464	33184
865	10.518206	98336768	66727936	35569952	33184
866	10.592037	98336768	66727936	42436304	33184
867	14.11609	98336768	67252224	34686088	33184
868	13.774858	98336768	67252224	43836072	33184
869	16.868242	98336768	67252224	38156152	33184
870	19.687811	98336768	67252224	34397224	33184
871	18.585989	98336768	67252224	47000400	33184
872	3.44695	98336768	67252224	45615976	33184
873	7.028983	98607104	67252224	33011560	33184
874	6.914077	98607104	67252224	37627104	33184
875	8.779206	98607104	67252224	43398376	33184
876	12.652634	98607104	67252224	34490928	33184
877	12.357465	98607104	67252224	42584552	33184
878	16.062869	98607104	67252224	36103568	33184
879	15.751345	98607104	67252224	46536600	33184
880	18.915552	98607104	67252224	41804160	33184
881	21.569817	98607104	67252224	38883344	33184
882	3.48586	98607104	67252224	38753376	33184
883	5.473344	98607104	67252224	42262608	33184
884	7.157007	98607104	67252224	46934976	33184
885	10.53057	98877440	67252224	36553344	33184
886	10.393633	98877440	67252224	43572968	33184
887	14.490433	98877440	67252224	35866680	33184
888	13.837037	98877440	67252224	45213848	33184
889	17.534058	98877440	67252224	39686944	33184
890	19.841598	98877440	67776512	36054512	33184
891	22.360707	98877440	67776512	34140728	33184
892	5.156617	98877440	68300800	33244328	33184
893	5.242923	98877440	68300800	36777104	33184
894	7.235942	98877440	68300800	41489240	33184
895	8.963487	99147776	68300800	47385848	33184
896	12.320056	99147776	68300800	38270608	33184
897	12.229306	99147776	68300800	46534864	33184
898	15.765208	99147776	68300800	39790144	33184
899	18.540255	99147776	68300800	35125048	33184
900	17.781281	99147776	68300800	46960984	33184
901	21.181888	99147776	68300800	43683544	33184
902	3.565134	99418112	68300800	43297128	33184
903	5.342125	99418112	68300800	46870152	33184
904	8.816965	99418112	68300800	35558504	33184
905	9.036096	99418112	68300800	41513072	33184
906	12.881077	99418112	68300800	33126200	33184
907	12.4962	99418112	68300800	41477008	33184
908	16.709612	99418112	68300800	35492776	33184
909	15.928221	99418112	68300800	46254592	33184
910	19.921688	99418112	68300800	42033264	33184
911	21.509778	99688448	68300800	39606440	33184
912	3.600245	99688448	68300800	39983416	33184
913	5.351852	99688448	68300800	43589928	33184
914	7.598338	99688448	68300800	48400200	33184
915	11.013788	99688448	68825088	38145384	33184
916	10.851081	99688448	68825088	45368432	33184
917	14.747112	99688448	68825088	37786224	33184
918	15.515958	99688448	68825088	47438840	33184
919	18.368559	99688448	68825088	42188392	33184
920	20.219816	99958784	68825088	38849920	33184
921	22.824357	99958784	68825088	37074160	33184
922	3.634839	99958784	68825088	38041848	33184
923	5.644772	99958784	68825088	41684600	33184
924	7.447052	99958784	68825088	46577736	33184
925	11.149789	100229120	69349376	36663200	33184
926	11.264039	100229120	69349376	43959656	33184
927	14.871635	100229120	69349376	36769936	33184
928	14.684071	100229120	69349376	46508136	33184
929	18.171067	100229120	69349376	41422664	33184
930	20.590835	100229120	69349376	38245560	33184
931	22.956409	100229120	69349376	36719600	33184
932	3.682146	100229120	69349376	37944896	33184
933	5.919578	100229120	69349376	41624464	33184
934	7.542631	100229120	69349376	46544464	33184
935	11.314875	100499456	69349376	36807360	33184
936	10.939895	100499456	69349376	44190176	33184
937	15.240612	100499456	69349376	37107200	33184
938	14.609878	100499456	69349376	46958040	33184
939	18.428031	100499456	69349376	41904736	33184
940	20.965666	100499456	69349376	38855168	33184
941	23.516124	100499456	69349376	37378328	33184
942	3.923775	100499456	69349376	38689072	33184
943	5.776762	100499456	69349376	42405608	33184
944	7.710282	100499456	69349376	47376144	33184
945	11.544657	100769792	69873664	37577976	33184
946	11.348223	100769792	69873664	45041368	33184
947	15.476311	100769792	69873664	37900480	33184
948	15.373308	100769792	69873664	47852448	33184
949	18.462803	100769792	69873664	42852544	33184
950	22.035189	100769792	69873664	39763848	33184
951	23.355281	101040128	69873664	38362720	33184
952	3.737618	101040128	69873664	39808408	33184
953	5.583018	101040128	69873664	43573424	33184
954	7.927599	101040128	69873664	48580272	33184
955	11.379438	101040128	69873664	38722432	33184
956	11.39103	101040128	69873664	46251352	33184
957	14.920379	101040128	69873664	39098776	33184
958	15.350445	101040128	69873664	49159184	33184
959	18.5952	101040128	69873664	44123288	33184
960	21.192771	101310464	69873664	41009520	33184
961	23.04177	101310464	69873664	39646560	33184
962	3.790601	101310464	69873664	41053456	33184
963	5.770421	101310464	69873664	44843568	33184
964	7.907682	101310464	69873664	49909064	33184
965	11.399146	101310464	70397952	40063632	33184
966	11.734944	101310464	70397952	47665056	33184
967	15.043486	101580800	70397952	40483080	33184
968	18.194049	101580800	70397952	35507808	33184
969	17.212642	101580800	70397952	46913360	33184
970	20.887059	101580800	70397952	43604752	33184
971	23.249306	101580800	70397952	42049000	33184
972	3.880168	101580800	70397952	43317264	33184
973	5.793794	101580800	70397952	47144256	33184
974	9.873178	101851136	70397952	36400408	33184
975	9.959717	101851136	70397952	42784216	33184
976	11.610482	101851136	70397952	50454528	33184
977	15.014104	101851136	70397952	43013464	33184
978	18.024326	101851136	70397952	37845904	33184
979	17.744338	101851136	70397952	49369152	33184
980	20.746845	101851136	70397952	45879200	33184
981	23.728346	101851136	70397952	44142632	33184
982	3.869519	101851136	70397952	45373784	33184
983	5.802152	101851136	70397952	49238784	33184
984	10.037834	102121472	70922240	38376584	33184
985	10.064845	102121472	70922240	44825088	33184
986	14.194639	102121472	70922240	36920272	33184
987	13.466611	102121472	70922240	45952392	33184
988	17.81141	102121472	70922240	40505848	33184
989	20.442678	102121472	70922240	37151320	33184
990	19.349223	102121472	70922240	50073376	33184
991	23.237956	102121472	70922240	47968840	33184
992	3.903079	102121472	70922240	48909752	33184
993	7.972127	102391808	70922240	36789696	33184
994	8.024464	102391808	70922240	41999208	33184
995	10.326187	102391808	70922240	48507832	33184
996	13.590081	102391808	70922240	40264832	33184
997	14.020913	102391808	70922240	49382968	33184
998	17.698167	102391808	70922240	43648728	33184
999	20.245562	102391808	70922240	39971320	33184
1000	22.986316	102391808	70922240	38094136	33184
