x	Duration	RSS	HeapTotal	HeapUsed	External
0	NA	95338496	64106496	14400440	33184
1	0.343048	95338496	64106496	14452744	33184
2	0.295707	95338496	64106496	14520720	33184
3	0.333827	95338496	64106496	14613432	33184
4	0.406171	95338496	64106496	14732552	33184
5	0.483635	95338496	64106496	14879840	33184
6	0.569794	95338496	64106496	15055984	33184
7	0.688676	95338496	64106496	15262216	33184
8	0.747492	95338496	64106496	15499800	33184
9	0.840934	95338496	64106496	15771176	33184
10	0.939353	95338496	64106496	16076648	33184
11	1.447558	95338496	64106496	16417424	33184
12	0.152068	95338496	64106496	16786728	33184
13	0.229424	95338496	64106496	16897040	33184
14	0.446464	95338496	64106496	17050152	33184
15	0.404781	95338496	64106496	17240600	33184
16	0.447185	95338496	64106496	17472056	33184
17	0.527555	95338496	64106496	17746296	33184
18	0.804698	95338496	64106496	18064304	33184
19	0.6808	95338496	64106496	18428224	33184
20	0.76281	95338496	64106496	18839384	33184
21	0.846252	95338496	64106496	19299152	33184
22	0.225471	95338496	64106496	19818688	33184
23	0.319906	95338496	64106496	19968576	33184
24	0.394787	95338496	64106496	20170632	33184
25	0.487901	95338496	64106496	20426160	33184
26	0.602547	95338496	64106496	20736832	33184
27	0.849119	95338496	64106496	21103344	33184
28	0.846146	95338496	64106496	21526912	33184
29	1.131658	95338496	64106496	22011208	33184
30	0.961624	95338496	64106496	22552992	33184
31	1.236829	95338496	64106496	23155520	33184
32	0.234909	95338496	64106496	23843536	33184
33	0.357462	95338496	64106496	24030024	33184
34	0.469614	95338496	64106496	24280872	33184
35	0.580342	95338496	64106496	24597344	33184
36	0.699006	95338496	64106496	24981152	33184
37	0.81666	95338496	64106496	25433056	33184
38	0.966116	95338496	64106496	25954272	33184
39	1.060598	95338496	64106496	26545944	33184
40	1.186767	95338496	64106496	27210336	33184
41	2.228002	95338496	64106496	27947688	33184
42	0.305099	95338496	64106496	28795320	33184
43	0.480932	95338496	64106496	29018576	33184
44	0.901981	95338496	64106496	29319600	33184
45	0.701284	95338496	64106496	29700960	33184
46	0.838702	95338496	64106496	30163032	33184
47	0.979026	95338496	64106496	30707112	33184
48	1.896223	95604736	64106496	15060528	33184
49	1.384301	95604736	64106496	15791720	33184
50	1.698425	95604736	64106496	16591240	33184
51	1.554642	95604736	64106496	17476872	33184
52	0.319962	95604736	64106496	18501824	33184
53	0.522589	95604736	64106496	18767152	33184
54	0.640328	95604736	64106496	19123216	33184
55	0.797416	95604736	64106496	19571120	33184
56	0.958317	95604736	64106496	20112624	33184
57	1.146628	95604736	64106496	20748464	33184
58	1.292964	95604736	64106496	21479912	33184
59	1.439385	95604736	64106496	22308112	33184
60	1.827125	95604736	64106496	23235344	33184
61	1.779771	95604736	64106496	24261840	33184
62	0.366937	95604736	64106496	25454304	33184
63	0.552786	95604736	64106496	25756472	33184
64	0.908157	95604736	64106496	26161496	33184
65	0.916685	95604736	64106496	26670672	33184
66	1.160281	95604736	64106496	27288464	33184
67	1.277283	95604736	64106496	28010144	33184
68	1.450183	95604736	64106496	28839800	33184
69	1.843538	95604736	64106496	29778360	33184
70	1.827	95604736	64106496	30828168	33184
71	2.681408	95604736	64106496	15784344	33184
72	0.413366	95604736	64106496	17136480	33184
73	0.617967	95604736	64106496	17475368	33184
74	0.815059	95604736	64106496	17929496	33184
75	1.013518	95604736	64106496	18500024	33184
76	1.231883	95604736	64106496	19188736	33184
77	1.423079	95604736	64106496	19996224	33184
78	1.629337	95604736	64106496	20923792	33184
79	1.844892	95604736	64106496	21972792	33184
80	2.044317	95604736	64106496	23145392	33184
81	2.365091	95604736	64106496	24442656	33184
82	0.461742	95604736	64106496	25957520	33184
83	0.690844	95604736	64106496	26333128	33184
84	0.909941	95604736	64106496	26838456	33184
85	1.141567	95604736	64106496	27472416	33184
86	1.444299	95604736	64106496	28237912	33184
87	1.581644	95604736	64106496	29135720	33184
88	1.829011	95604736	64106496	30167008	33184
89	2.041648	95604736	64106496	31332976	33184
90	3.008718	95604736	64106496	16303808	33184
91	2.521782	95604736	64106496	17746096	33184
92	0.503044	95604736	64106496	19438336	33184
93	0.763044	95604736	64106496	19860472	33184
94	1.00283	95604736	64106496	20425528	33184
95	1.242755	95604736	64106496	21134776	33184
96	1.697068	95604736	64106496	21989920	33184
97	1.751991	95604736	64106496	22991752	33184
98	2.004049	95604736	64106496	24141392	33184
99	2.245881	95604736	64106496	25440160	33184
100	2.509986	95604736	64106496	26890240	33184
101	3.342045	95604736	64106496	28493448	33184
102	0.551556	95604736	64106496	30369936	33184
103	0.837416	95604736	64106496	30828936	33184
104	1.091553	95604736	64106496	31443048	33184
105	1.924134	95604736	64106496	15864040	33184
106	1.742758	95604736	64106496	16792816	33184
107	2.018435	95604736	64106496	17880504	33184
108	2.405038	95604736	64106496	19128288	33184
109	2.452615	95604736	64106496	20537424	33184
110	2.719688	95604736	64106496	22110184	33184
111	3.237261	95604736	64106496	23846672	33184
112	0.590128	95604736	64106496	25882808	33184
113	0.889566	95604736	64106496	26378528	33184
114	1.186694	95604736	64106496	27041696	33184
115	1.472741	95604736	64106496	27873712	33184
116	1.765197	95604736	64106496	28876080	33184
117	2.2306	95604736	64106496	30051312	33184
118	2.55322	95604736	64106496	31397320	33184
119	3.373968	95604736	64106496	16576424	33184
120	3.10461	95604736	64106496	18271880	33184
121	3.424328	95604736	64106496	20143376	33184
122	0.635664	95604736	64106496	22339280	33184
123	0.962546	95604736	64106496	22871792	33184
124	1.258817	95604736	64106496	23584104	33184
125	1.56677	95604736	64106496	24477416	33184
126	1.884995	95604736	64106496	25553504	33184
127	2.276942	95604736	64106496	26812976	33184
128	3.033898	95604736	64106496	28259288	33184
129	2.885874	95604736	64106496	29889416	33184
130	3.217424	95604736	64106496	31707480	33184
131	4.384299	95604736	64106496	17333752	33184
132	0.678854	95604736	64106496	19693472	33184
133	1.019207	95604736	64106496	20262816	33184
134	1.344584	95604736	64106496	21024184	33184
135	1.731369	95604736	64106496	21978808	33184
136	2.012314	95604736	64106496	23128480	33184
137	2.563433	95604736	64106496	24474008	33184
138	2.703923	95604736	64106496	26016408	33184
139	3.038418	95604736	64106496	27756864	33184
140	3.775322	95604736	64106496	29697800	33184
141	4.156869	95604736	64106496	31847952	33184
142	0.725939	95604736	64106496	17989256	33184
143	1.088025	95604736	64106496	18600912	33184
144	1.491457	95604736	64106496	19418728	33184
145	1.806789	95604736	64106496	20443880	33184
146	2.150123	95604736	64106496	21678080	33184
147	2.516217	95604736	64106496	23124896	33184
148	2.879806	95604736	64106496	24780040	33184
149	3.454033	95604736	64106496	26647464	33184
150	3.608595	95604736	64106496	28729376	33184
151	3.972884	95604736	64106496	31026608	33184
152	0.771791	95604736	64106496	17455832	33184
153	1.154501	95604736	64106496	18104288	33184
154	1.535372	95604736	64106496	18971632	33184
155	1.909832	95604736	64106496	20058176	33184
156	2.294211	95604736	64106496	21366784	33184
157	2.665797	95604736	64106496	22896832	33184
158	3.290209	95604736	64106496	24650160	33184
159	3.451583	95604736	64106496	26628104	33184
160	3.827778	95604736	64106496	28832632	33184
161	4.419031	95604736	64106496	31264232	33184
162	0.825479	95604736	64106496	17832992	33184
163	1.222659	95604736	64106496	18518240	33184
164	1.615038	95604736	64106496	19434224	33184
165	2.548375	95604736	64106496	20582104	33184
166	2.480255	95604736	64106496	21966984	33184
167	2.832257	95604736	64106496	23583296	33184
168	3.243316	95604736	64106496	25435536	33184
169	3.664437	95604736	64106496	27523800	33184
170	4.100062	95604736	64106496	29851144	33184
171	5.070694	95604736	64106496	16328168	33184
172	0.863448	95604736	64106496	19356680	33184
173	1.292798	95604736	64106496	20078824	33184
174	1.716936	95604736	64106496	21043888	33184
175	2.126873	95604736	64106496	22253136	33184
176	2.775315	95604736	64106496	23708704	33184
177	2.983093	95604736	64106496	25410472	33184
178	3.402294	95604736	64106496	27360136	33184
179	3.853376	95604736	64106496	29558800	33184
180	4.276693	95604736	64106496	32013544	33184
181	5.1248	95604736	64106496	18347944	33184
182	0.903675	95604736	64106496	21556504	33184
183	1.367216	95604736	64106496	22327904	33184
184	1.79632	95604736	64106496	23358664	33184
185	2.249025	95604736	64106496	24650088	33184
186	2.68951	95604736	64106496	26203856	33184
187	3.353012	95604736	64106496	28020640	33184
188	3.59965	95604736	64106496	30101752	33184
189	4.590198	95604736	64106496	16331456	33184
190	4.517358	95604736	64106496	18946096	33184
191	4.962642	95604736	64106496	21830680	33184
192	0.945263	95604736	64106496	25234776	33184
193	1.427962	95604736	64106496	26042944	33184
194	1.933331	95604736	64106496	27122840	33184
195	2.39004	95604736	64106496	28475536	33184
196	2.825062	95604736	64106496	30102824	33184
197	3.489488	95604736	64106496	32005472	33184
198	4.289566	95604736	64106496	17836728	33184
199	4.253502	95604736	64106496	20293736	33184
200	4.737882	95604736	64106496	23030712	33184
201	5.192944	95604736	64106496	26047872	33184
202	0.99827	95604736	64106496	29609848	33184
203	1.652266	95604736	64106496	30454848	33184
204	2.121863	95604736	64106496	31585528	33184
205	2.914663	95604736	64106496	16723920	33184
206	3.166643	95604736	64106496	18428792	33184
207	3.449532	95604736	64106496	20418520	33184
208	3.955733	95604736	64106496	22696024	33184
209	4.644657	95604736	64106496	25263560	33184
210	4.953361	95604736	64106496	28123280	33184
211	5.50458	95604736	64106496	31275616	33184
212	1.055992	95604736	64106496	18754384	33184
213	1.596881	95604736	64106496	19636224	33184
214	2.304061	95604736	64106496	20814328	33184
215	2.600374	95604736	64106496	22289808	33184
216	3.153072	95604736	64106496	24064512	33184
217	3.671448	95604736	64106496	26139072	33184
218	4.700694	95604736	64106496	28514584	33184
219	4.79763	95604736	64106496	31195544	33184
220	5.838747	95604736	64106496	17958584	33184
221	5.938093	95604736	64106496	21245752	33184
222	1.084517	95604736	64106496	25127584	33184
223	1.65647	95604736	64106496	26046176	33184
224	2.174391	95604736	64106496	27273304	33184
225	2.696325	95604736	64106496	28810112	33184
226	3.669159	95604736	64106496	30658352	33184
227	4.356472	95604736	64106496	16690184	33184
228	4.515969	95604736	64106496	19163984	33184
229	4.99471	95604736	64106496	21957976	33184
230	5.416303	95604736	64106496	25068824	33184
231	6.176483	95604736	64106496	28501392	33184
232	1.134944	95604736	64106496	32563744	33184
233	2.114023	95604736	64106496	17149272	33184
234	2.470347	95604736	64106496	18437040	33184
235	2.818438	95604736	64106496	20049624	33184
236	3.373438	95604736	64106496	21988760	33184
237	3.943874	95604736	64106496	24255184	33184
238	4.540676	95604736	64106496	26850136	33184
239	5.065671	95604736	64106496	29774872	33184
240	6.686541	95604736	64106496	17023688	33184
241	6.201107	95604736	64106496	20612656	33184
242	1.172524	95604736	64106496	24853752	33184
243	1.815518	95604736	64106496	25858864	33184
244	2.337405	95604736	64106496	27195584	33184
245	3.145651	95604736	64106496	28869472	33184
246	3.55065	95604736	64106496	30882208	33184
247	4.68054	95604736	64106496	17111136	33184
248	4.899125	95604736	64106496	19804272	33184
249	5.270272	95604736	64106496	22840808	33184
250	5.856828	95604736	64106496	26220088	33184
251	6.480249	95604736	64106496	29945016	33184
252	1.228288	95604736	64106496	18350224	33184
253	1.840498	95604736	64106496	19387976	33184
254	2.426493	95604736	64106496	20773872	33184
255	3.250601	95604736	64106496	22509232	33184
256	3.64579	95604736	64106496	24595552	33184
257	4.303372	95604736	64106496	27037768	33184
258	5.218252	95604736	64106496	29833520	33184
259	5.520673	95604736	64106496	32979128	33184
260	6.677528	95604736	64106496	20079176	33184
261	6.706701	95604736	64106496	23938008	33184
262	1.269534	95604736	64106496	28498704	33184
263	1.908031	95604736	64106496	29576128	33184
264	2.524542	95604736	64106496	31011032	33184
265	3.219963	95604736	64106496	32809008	33184
266	4.165228	95604736	64106496	18613088	33184
267	4.413403	95604736	64106496	21137328	33184
268	5.418789	95604736	64106496	24026856	33184
269	5.668423	95604736	64106496	27282920	33184
270	6.572457	95604736	64106496	30907640	33184
271	7.530256	95604736	64106496	18799512	33184
272	1.320309	95604736	64106496	23528208	33184
273	1.964091	95604736	64106496	24639568	33184
274	2.83013	95604736	64106496	26123576	33184
275	3.304364	95604736	64106496	27981528	33184
276	3.910291	95604736	64106496	30215200	33184
277	4.763723	95604736	64106496	32825224	33184
278	5.743411	95604736	64106496	19478744	33184
279	6.186191	95604736	64106496	22845424	33184
280	6.609543	95604736	64106496	26592968	33184
281	7.420842	95604736	64106496	30722408	33184
282	1.365468	95604736	64106496	19559576	33184
283	2.035823	95604736	64106496	20707704	33184
284	2.697145	95604736	64106496	22240744	33184
285	3.373233	95604736	64106496	24159992	33184
286	4.089726	95604736	64106496	26473608	33184
287	4.744067	95604736	64106496	29169552	33184
288	5.927926	95604736	64106496	32258552	33184
289	6.700063	95604736	64106496	19487552	33184
290	7.179866	95604736	64106496	23357000	33184
291	7.447894	95604736	64106496	27620720	33184
292	1.406257	95604736	64106496	32668792	33184
293	2.53268	95604736	64106496	17584144	33184
294	3.09972	95604736	64106496	19166120	33184
295	3.491826	95604736	64106496	21146424	33184
296	4.177749	95604736	64106496	23526896	33184
297	5.701465	95604736	64106496	26308248	33184
298	5.633519	95604736	64106496	29500640	33184
299	6.269831	95604736	64106496	33087632	33184
300	7.382721	95604736	64106496	20750104	33184
301	8.223606	95604736	64106496	25148064	33184
302	1.446167	95604736	64106496	30358536	33184
303	2.166873	95604736	64106496	31580112	33184
304	2.870871	95604736	64106496	33215032	33184
305	4.100346	95604736	64106496	18966128	33184
306	4.485742	95604736	64106496	21420672	33184
307	5.210441	95604736	64106496	24287808	33184
308	6.028255	95604736	64106496	27569216	33184
309	6.683947	95604736	64106496	31266352	33184
310	8.158453	95604736	64106496	19352048	33184
311	8.10751	95604736	64106496	23885016	33184
312	1.517531	95604736	64106496	29253216	33184
313	2.246893	95604736	64106496	30511712	33184
314	3.026272	95604736	64106496	32191800	33184
315	4.288025	95604736	64106496	18174912	33184
316	4.705504	95604736	64106496	20702600	33184
317	5.196944	95604736	64106496	23655768	33184
318	5.960638	95604736	64106496	27040864	33184
319	6.745829	95604736	64106496	30850888	33184
320	8.431533	95604736	64106496	19160840	33184
321	8.615461	95604736	64106496	23833568	33184
322	1.545507	95604736	64106496	29362200	33184
323	2.317222	95604736	64106496	30657408	33184
324	3.078278	95604736	64106496	32386528	33184
325	4.495938	95604736	64106496	18434536	33184
326	4.620267	95604736	64106496	21035880	33184
327	5.347432	95604736	64106496	24075744	33184
328	6.345627	95604736	64106496	27553760	33184
329	6.881671	95604736	64106496	31471512	33184
330	8.559254	95604736	64106496	19840136	33184
331	8.503638	95604736	64106496	24643080	33184
332	1.584159	95604736	64106496	30334792	33184
333	2.384668	95604736	64106496	31666792	33184
334	3.189924	95604736	64106496	33445040	33184
335	4.820084	95604736	64106496	19435584	33184
336	4.778681	95604736	64106496	22110640	33184
337	5.562479	95604736	64106496	25240144	33184
338	6.539603	95604736	64106496	28816160	33184
339	7.122075	95604736	64106496	32844712	33184
340	8.533821	95604736	64106496	21198872	33184
341	8.91394	95604736	64106496	26136960	33184
342	1.633572	95604736	64106496	31983096	33184
343	2.452093	95604736	64106496	33351952	33184
344	3.812419	95604736	64106496	18992176	33184
345	4.06237	95604736	64106496	21280080	33184
346	4.867394	95604736	64106496	24028672	33184
347	5.894035	95604736	64106496	27239392	33184
348	6.496976	95604736	64106496	30913648	33184
349	8.321337	95604736	64106496	19202112	33184
350	8.390394	95604736	64106496	23807808	33184
351	8.927126	95604736	64106496	28881472	33184
352	2.223408	95604736	64106496	18649528	33184
353	2.775971	95604736	64106496	20055160	33184
354	3.340831	95604736	64106496	21931648	33184
355	4.161253	95604736	64106496	24282136	33184
356	4.991449	95604736	64106496	27104288	33184
357	5.869647	95604736	64106496	30400880	33184
358	6.888926	95604736	64106496	34181488	33184
359	8.277938	95604736	64106496	22173512	33184
360	8.616847	95604736	64106496	26935696	33184
361	9.484807	95604736	64106496	32186608	33184
362	1.732487	95604736	64106496	22382512	33184
363	2.587378	95604736	64106496	23863184	33184
364	3.428122	95604736	64106496	25839456	33184
365	4.495541	95604736	64106496	28312928	33184
366	5.179783	95604736	64106496	31285696	33184
367	5.979716	95604736	64106496	34758488	33184
368	7.482385	95604736	64106496	22406960	33184
369	7.950653	95604736	64106496	26881184	33184
370	8.803849	95604736	64106496	31859736	33184
371	10.2591	95604736	64106496	21358312	33184
372	1.806947	95604736	64106496	27867112	33184
373	2.704845	95604736	64106496	29385152	33184
374	3.511901	95604736	64106496	31418872	33184
375	4.605678	95604736	64106496	33954824	33184
376	5.970548	95604736	64106496	20819480	33184
377	6.311228	95604736	64106496	24376816	33184
378	7.300035	95604736	64106496	28448960	33184
379	8.337391	95604736	64106496	33043816	33184
380	10.1881	95604736	64106496	22069072	33184
381	10.248018	95604736	64106496	27686640	33184
382	2.281375	95604736	64106496	34349600	33184
383	3.370292	95604736	64106496	19674712	33184
384	3.628149	95604736	64106496	21749120	33184
385	4.784886	95604736	64106496	24345320	33184
386	5.394885	95604736	64106496	27464720	33184
387	6.307626	95604736	64106496	31108008	33184
388	7.198057	95604736	64106496	35284328	33184
389	9.023579	95604736	64106496	23630776	33184
390	9.318432	95604736	64106496	28854320	33184
391	9.978431	95604736	64106496	34606840	33184
392	1.894933	95604736	64106496	25134008	33184
393	2.844952	95604736	64106496	26724976	33184
394	3.712189	95604736	64106496	28848568	33184
395	4.852127	95604736	64106496	31505944	33184
396	5.605013	95604736	64106496	34698864	33184
397	7.158607	95604736	64106496	22192400	33184
398	7.638506	95604736	64106496	26459104	33184
399	8.591714	95604736	64106496	31264512	33184
400	10.529272	95604736	64106496	20798688	33184
401	10.652383	95604736	64106496	26686328	33184
402	1.916221	95604736	64106496	33672480	33184
403	2.852209	95604736	64106496	35300312	33184
404	4.715612	95604736	64106496	21165000	33184
405	4.770999	95604736	64106496	23883664	33184
406	5.685142	95604736	64106496	27150192	33184
407	7.115258	95604736	64106496	30966448	33184
408	8.034136	95604736	64106496	35340216	33184
409	9.17282	95604736	64106496	23960168	33184
410	9.719246	95604736	64106496	29429344	33184
411	10.498501	95604736	64106496	35454192	33184
412	2.215215	95604736	64106496	26228696	33184
413	3.156323	95604736	64106496	27893352	33184
414	3.893881	95604736	64106496	30115128	33184
415	4.860925	95604736	64106496	32898776	33184
416	6.75409	95604736	64106496	20284312	33184
417	7.000171	95604736	64106496	24188072	33184
418	8.17862	95604736	64106496	28651040	33184
419	8.962723	95604736	64106496	33679872	33184
420	10.840295	95604736	64106496	23193568	33184
421	10.715102	95604736	64106496	29350992	33184
422	2.713958	95604736	64106496	20389736	33184
423	2.995524	95604736	64106496	22091192	33184
424	3.974759	95604736	64106496	24363040	33184
425	5.192525	95604736	64106496	27204528	33184
426	5.960136	95604736	64106496	30618472	33184
427	6.959842	95604736	64106496	34605408	33184
428	8.929459	95604736	64106496	23011976	33184
429	8.953906	95604736	64106496	28154912	33184
430	10.416793	95604736	64106496	33878232	33184
431	12.134854	95604736	64106496	24069880	33184
432	2.044365	95604736	64106496	31534816	33184
433	3.291799	95604736	64106496	33273096	33184
434	4.106977	95604736	64106496	35593024	33184
435	6.013568	95604736	64106496	22267832	33184
436	6.086686	95604736	64106496	25764312	33184
437	7.312392	95604736	64106496	29837104	33184
438	8.165423	95604736	64106496	34497208	33184
439	9.986174	95604736	64106496	23661240	33184
440	10.390411	95604736	64106496	29498240	33184
441	11.394575	95604736	64106496	35931888	33184
442	2.150748	95604736	64106496	27210112	33184
443	3.427411	95604736	64106496	28985264	33184
444	4.157654	95604736	64106496	31354368	33184
445	5.456402	95604736	64106496	34319920	33184
446	7.298834	95604736	64106496	21820152	33184
447	7.285983	95604736	64106496	25985800	33184
448	8.327162	95604736	64106496	30752728	33184
449	9.582769	95604736	64106496	36113896	33184
450	11.425957	95604736	64106496	25729400	33184
451	11.498561	95604736	64106496	32299968	33184
452	2.147605	95604736	64106496	24254112	33184
453	3.462612	95604736	64106496	26066496	33184
454	4.254156	95604736	64106496	28484600	33184
455	5.29894	95604736	64106496	31514320	33184
456	6.371032	95604736	64106496	35148968	33184
457	8.625699	95604736	64106496	23251904	33184
458	8.472416	95604736	64106496	28108744	33184
459	9.80012	95604736	64106496	33576688	33184
460	11.906638	95604736	64106496	23682664	33184
461	11.875987	95604736	64106496	30380352	33184
462	2.25545	95604736	64106496	22769736	33184
463	3.499629	95604736	64106496	24618456	33184
464	4.340121	95604736	64106496	27085640	33184
465	5.432934	95604736	64106496	30172480	33184
466	6.55285	95604736	64106496	33880688	33184
467	8.868701	95604736	64106496	22273904	33184
468	9.150644	95604736	64106496	27227776	33184
469	10.05552	95604736	64106496	32806104	33184
470	12.472573	95604736	64106496	23174608	33184
471	11.959608	95604736	64106496	30013960	33184
472	2.979131	95604736	64106496	21821856	33184
473	3.555371	95604736	64106496	23707344	33184
474	4.480174	95604736	64106496	26223552	33184
475	5.721709	95604736	64106496	29375360	33184
476	6.831864	95604736	64106496	33157136	33184
477	8.832701	95604736	64106496	21780184	33184
478	8.847573	95604736	64106496	26840392	33184
479	10.179481	95604736	64106496	32533416	33184
480	12.445225	95604736	64106496	23080912	33184
481	12.199329	95604736	64106496	30048232	33184
482	3.121146	95604736	64106496	22011872	33184
483	3.676833	95604736	64106496	23934240	33184
484	4.519014	95604736	64106496	26499592	33184
485	5.638505	95604736	64106496	29709144	33184
486	6.757901	95604736	64106496	33564840	33184
487	9.273689	95604736	64106496	22245920	33184
488	9.641781	95604736	64106496	27397656	33184
489	10.205184	95604736	64106496	33200128	33184
490	12.8888	95604736	64106496	23817040	33184
491	12.564451	95604736	64106496	30926328	33184
492	2.336223	95604736	64106496	23825208	33184
493	3.475719	95604736	64106496	25784440	33184
494	4.652733	95604736	64106496	28398848	33184
495	5.756076	95604736	64106496	31669800	33184
496	6.913358	95604736	64106496	35602840	33184
497	9.059431	95604736	64106496	24131080	33184
498	9.238554	95604736	64106496	29383296	33184
499	10.381688	95604736	64106496	35293032	33184
500	12.651451	95604736	64106496	25761168	33184
501	13.203781	95604736	64106496	32998496	33184
502	2.441405	95604736	64106496	25810616	33184
503	3.631578	95604736	64106496	27806656	33184
504	4.829956	95604736	64106496	30473024	33184
505	6.065614	95604736	64106496	33807072	33184
506	7.041269	95604736	64106496	37810176	33184
507	9.450093	95604736	64106496	26138632	33184
508	9.723489	95604736	64106496	31487656	33184
509	10.619728	95604736	64106496	37507752	33184
510	12.765126	95604736	64106496	27842840	33184
511	13.171545	95604736	64106496	35216080	33184
512	2.665618	95604736	64106496	27923536	33184
513	3.633014	95604736	64106496	29956368	33184
514	5.012427	95604736	64106496	32669000	33184
515	6.191723	95604736	64106496	36062616	33184
516	8.220026	95604736	64106496	24053056	33184
517	8.401478	95604736	64106496	28815888	33184
518	9.785581	95604736	64106496	34268456	33184
519	12.114969	95604736	64106496	24509520	33184
520	12.008256	95604736	64106496	31329120	33184
521	14.990262	95604736	64106496	23369384	33184
522	2.679039	95604736	64106496	32268864	33184
523	3.877703	95604736	64106496	34338432	33184
524	4.88109	95604736	64106496	37101640	33184
525	7.168994	95604736	64106496	24365368	33184
526	7.738668	95604736	64106496	28517856	33184
527	8.651724	95604736	64106496	33374472	33184
528	11.491072	95604736	64106496	23276320	33184
529	11.073897	95604736	64106496	29520072	33184
530	12.478661	95604736	64106496	36461528	33184
531	14.715756	95604736	64106496	27938480	33184
532	2.517502	95604736	64106496	37004688	33184
533	4.75633	95604736	64106496	23008928	33184
534	5.271787	95604736	64106496	25819616	33184
535	6.281243	95604736	64106496	29336160	33184
536	7.736968	95604736	64106496	33559880	33184
537	8.925291	95604736	64106496	38491664	33184
538	11.087218	95604736	64106496	27788048	33184
539	11.634104	95604736	64106496	34139632	33184
540	14.178814	95604736	64106496	25401512	33184
541	13.971918	95604736	64106496	33180704	33184
542	2.636573	95604736	64106496	26712104	33184
543	4.03557	95604736	64106496	28859104	33184
544	5.079694	95604736	64106496	31719016	33184
545	6.389586	95604736	64106496	35296696	33184
546	9.191192	95604736	64106496	23728000	33184
547	8.899375	95604736	64106496	28748912	33184
548	10.365215	95604736	64106496	34491352	33184
549	12.721593	95604736	64106496	25155920	33184
550	12.921975	95604736	64106496	32342824	33184
551	15.953123	95604736	64106496	24743960	33184
552	2.61169	95604736	64106496	34143912	33184
553	3.897475	95604736	64106496	36324696	33184
554	6.505324	95604736	64106496	23240448	33184
555	6.632492	95604736	64106496	26879728	33184
556	7.940032	95604736	64106496	31264304	33184
557	9.388405	95604736	64106496	36381800	33184
558	11.738357	95604736	64106496	26255632	33184
559	11.709045	95604736	64106496	32855360	33184
560	14.618977	95604736	64106496	24611736	33184
561	14.549293	95604736	64106496	32709128	33184
562	2.882766	95604736	64106496	26761488	33184
563	3.948909	95604736	64106496	28998760	33184
564	5.46194	95604736	64106496	31984296	33184
565	6.679591	95604736	64106496	35724760	33184
566	9.164919	95604736	64106496	24336784	33184
567	9.423846	95604736	64106496	29575568	33184
568	10.741102	95604736	64106496	35565472	33184
569	13.09742	95604736	64106496	26398960	33184
570	13.503772	95604736	64106496	33900864	33184
571	16.350366	95604736	64106496	26483760	33184
572	2.702714	95604736	64106496	36306944	33184
573	4.031105	95604736	64106496	38581008	33184
574	6.598056	95604736	64106496	25430504	33184
575	6.925091	95604736	64106496	29226200	33184
576	8.22749	95604736	64106496	33792272	33184
577	9.419995	95604736	64106496	39124552	33184
578	12.101518	95604736	64106496	28944624	33184
579	12.31967	95604736	64106496	35799112	33184
580	14.778106	95604736	64106496	27517864	33184
581	15.027108	95604736	64106496	35909480	33184
582	2.754488	95604736	64106496	29955608	33184
583	4.099518	95604736	64106496	32268576	33184
584	5.66939	95604736	64106496	35358512	33184
585	6.812719	95604736	64106496	39217080	33184
586	9.383025	95604736	64106496	27573432	33184
587	9.839879	95604736	64106496	32982280	33184
588	11.080308	95604736	64106496	39168640	33184
589	13.472689	95604736	64106496	29786416	33184
590	13.729253	95604736	64106496	37533424	33184
591	16.758852	95604736	64106496	29938816	33184
592	3.879777	95604736	64106496	23923488	33184
593	4.391632	95604736	64106496	26271144	33184
594	5.524039	95604736	64106496	29411664	33184
595	7.14162	95604736	64106496	33330272	33184
596	8.309215	95604736	64106496	38036664	33184
597	10.907786	95604736	64106496	27477624	33184
598	11.554506	95604736	64106496	33762208	33184
599	14.319197	95604736	64106496	25268280	33184
600	14.196738	95604736	64106496	33136616	33184
601	17.200635	95604736	64106496	26300728	33184
602	3.065934	95604736	64106496	36594960	33184
603	4.248602	95604736	64106496	38979424	33184
604	7.001141	95604736	64106496	25993440	33184
605	7.072086	95604736	64106496	29975840	33184
606	8.509088	95604736	64106496	34755792	33184
607	11.66876	95604736	64106496	24735680	33184
608	11.551412	95604736	64106496	31134616	33184
609	12.969236	95604736	64106496	38320232	33184
610	15.497719	95604736	64106496	30168584	33184
611	15.786722	95604736	64106496	38973952	33184
612	2.881359	95604736	64106496	33177848	33184
613	4.316339	95604736	64106496	35605832	33184
614	5.946251	95604736	64106496	38837944	33184
615	8.430982	95604736	64106496	26764248	33184
616	9.065902	95604736	64106496	31626824	33184
617	10.221679	95604736	64106496	37306144	33184
618	12.930298	95604736	64106496	27785096	33184
619	13.188474	95604736	64106496	35089192	33184
620	16.323793	95604736	64106496	27498576	33184
621	16.053084	95604736	64106496	36435520	33184
622	2.972975	95604736	64106496	31214912	33184
623	4.362597	95604736	64106496	33673040	33184
624	5.891154	95604736	64106496	36953640	33184
625	8.864965	95604736	64106496	25230776	33184
626	8.778844	95604736	64106496	30159200	33184
627	10.430578	95604736	64106496	35911640	33184
628	13.167853	95604736	64106496	26721448	33184
629	13.396662	95604736	64106496	34131104	33184
630	16.74884	95604736	64106496	26875040	33184
631	16.473774	95604736	64106496	35941888	33184
632	2.999912	95604736	64106496	30933912	33184
633	4.444604	95604736	64106496	33428880	33184
634	6.12937	95604736	64106496	36757736	33184
635	7.438299	95604736	64106496	40926648	33184
636	9.979554	95604736	64106496	29589904	33184
637	10.411487	95604736	64106496	35428320	33184
638	13.642349	95604736	64106496	26420056	33184
639	13.720544	95604736	64106496	33937560	33184
640	17.066259	95604736	64106496	26807656	33184
641	16.663479	95604736	64106496	36009696	33184
642	3.020867	95604736	64106496	31233576	33184
643	4.708091	95604736	64106496	33765600	33184
644	6.116009	95604736	64106496	37143472	33184
645	8.973643	95604736	64106496	25579080	33184
646	9.234665	95604736	64106496	30653616	33184
647	10.556498	95604736	64106496	36577736	33184
648	13.761361	95604736	64106496	27559040	33184
649	13.998138	95604736	64106496	35187472	33184
650	17.550079	95604736	64106496	28100760	33184
651	17.170242	95604736	64106496	37437584	33184
652	3.075773	95604736	64106496	32605480	33184
653	4.829823	95604736	64106496	35174072	33184
654	6.319882	95604736	64106496	38611848	33184
655	9.375953	95604736	64106496	26977360	33184
656	9.361218	95604736	64106496	32126240	33184
657	11.031773	95604736	64106496	38144688	33184
658	13.786553	95604736	64106496	29050304	33184
659	14.124221	95604736	64106496	36790712	33184
660	17.389447	95604736	64106496	29608424	33184
661	17.158617	95604736	64106496	39088192	33184
662	3.129298	95604736	64106496	34241480	33184
663	4.743337	95604736	64106496	36846944	33184
664	6.30124	95604736	64106496	40325568	33184
665	9.385158	95604736	64106496	28528248	33184
666	9.333483	95604736	64106496	33753960	33184
667	11.046948	95604736	64106496	39849832	33184
668	13.939579	95604736	64106496	30696736	33184
669	14.186318	95604736	64106496	38545048	33184
670	17.253567	95604736	64106496	31261544	33184
671	17.489688	95604736	64106496	40883456	33184
672	3.218498	95604736	64106496	35990480	33184
673	4.726532	95604736	64106496	38632656	33184
674	7.794966	95604736	64106496	26258016	33184
675	8.126857	95604736	64106496	30667392	33184
676	9.669283	95604736	64106496	35967816	33184
677	12.923224	95604736	64106496	26532520	33184
678	12.740412	95604736	64106496	33602504	33184
679	14.364452	95604736	64106496	41561344	33184
680	17.599645	95604736	64106496	34053776	33184
681	19.689888	95604736	64106496	28495472	33184
682	3.210191	95604736	64106496	40066344	33184
683	6.177539	95604736	64106496	26726800	33184
684	6.834123	95604736	64106496	30301096	33184
685	8.214499	95604736	64106496	34776560	33184
686	9.983663	95604736	64106496	40146808	33184
687	12.800457	95604736	64106496	30407760	33184
688	12.756246	95604736	64106496	37577344	33184
689	16.254965	95604736	64106496	29888400	33184
690	16.44388	95604736	64106496	38867304	33184
691	19.316362	95604736	64106496	32763680	33184
692	3.280336	95604736	64106496	29361456	33184
693	4.881189	95604736	64106496	32077416	33184
694	6.9557	95604736	64106496	35708000	33184
695	8.443867	95604736	64106496	40241048	33184
696	12.81857	95604736	64106496	29680192	33184
697	11.679362	95604736	64106496	36038432	33184
698	15.117474	95604736	64106496	27785712	33184
699	15.297097	95604736	64106496	35965544	33184
700	18.386678	95604736	64106496	29537888	33184
701	18.248699	95604736	64106496	39551600	33184
702	3.320731	95604736	64106496	35444264	33184
703	4.937336	95604736	64106496	38199672	33184
704	7.012096	95604736	64106496	41872176	33184
705	10.010113	95604736	64106496	30256208	33184
706	9.900602	95604736	64106496	35787152	33184
707	11.728893	95604736	64106496	42237440	33184
708	14.847297	95604736	64106496	33250552	33184
709	15.255512	95604736	64106496	41541088	33184
710	18.092413	95604736	64106496	34518560	33184
711	20.664314	95604736	64106496	29396792	33184
712	3.361227	95604736	64106496	41459536	33184
713	6.445334	95604736	64106496	28112040	33184
714	6.744399	95604736	64106496	31851448	33184
715	8.530598	95604736	64106496	36539056	33184
716	10.181107	95604736	64106496	42182632	33184
717	12.977008	95604736	64106496	32547672	33184
718	13.831179	95604736	64106496	40093424	33184
719	16.679228	95604736	64106496	32601144	33184
720	16.914441	95604736	64106496	42063816	33184
721	19.810667	95604736	64106496	36178544	33184
722	3.487863	95604736	64106496	33057456	33184
723	5.207384	95604736	64106496	35938896	33184
724	7.051906	95604736	64106496	39775224	33184
725	10.577062	95604736	64106496	28689424	33184
726	10.391982	95604736	64106496	34451584	33184
727	12.266486	95604736	64106496	41180680	33184
728	15.334018	95604736	64106496	32773432	33184
729	15.739615	95604736	64106496	41434072	33184
730	18.394601	95604736	64106496	34883720	33184
731	21.609689	95604736	64106496	30182256	33184
732	3.450552	95604736	64106496	42808320	33184
733	6.757757	95604736	64106496	29480640	33184
734	6.84183	95604736	64106496	33378952	33184
735	8.807007	95604736	64106496	38253752	33184
736	12.266768	95604736	64106496	28486656	33184
737	12.344933	95604736	64106496	35311608	33184
738	13.702875	95604736	64106496	43102144	33184
739	17.101927	95604736	64106496	35519264	33184
740	19.27292	95604736	64106496	29954608	33184
741	19.289713	95604736	64106496	40688560	33184
742	3.495246	95604736	64106496	37403448	33184
743	5.488869	95604736	64106496	40352744	33184
744	8.763461	95604736	64106496	28425952	33184
745	8.899704	95604736	64106496	33353448	33184
746	10.421012	95604736	64106496	39262832	33184
747	14.053283	95604736	64106496	30323856	33184
748	14.093024	95604736	64106496	38214144	33184
749	17.684305	95604736	64106496	31401936	33184
750	17.589325	95604736	64106496	41305128	33184
751	20.807558	95604736	64106496	36083920	33184
752	3.625112	95604736	64106496	33630328	33184
753	5.274867	95604736	64106496	36621496	33184
754	7.129539	95604736	64106496	40605000	33184
755	10.756904	95604736	64106496	29727544	33184
756	10.860134	95604736	64106496	35713576	33184
757	12.563586	95604736	64106496	42697920	33184
758	15.680087	95604736	64106496	34454968	33184
759	16.137408	95604736	64106496	43447504	33184
760	19.363869	95604736	64106496	37102432	33184
761	22.026108	95604736	64106496	32606128	33184
762	5.024938	95604736	64106496	29458400	33184
763	5.682179	95604736	64106496	32481240	33184
764	7.135017	95604736	64106496	36514608	33184
765	9.15169	95604736	64106496	41573560	33184
766	12.480576	95604736	64106496	31654592	33184
767	13.217164	95604736	64106496	38725264	33184
768	16.359707	95604736	64106496	31124176	33184
769	16.35232	95604736	64106496	40259448	33184
770	19.879285	95604736	64106496	34514800	33184
771	22.63364	95604736	64106496	30552656	33184
772	3.690568	95604736	64106496	43792264	33184
773	7.097081	95604736	64106496	30608504	33184
774	7.435054	95604736	64106496	34703456	33184
775	9.057749	95604736	64106496	39811984	33184
776	12.968964	95604736	64106496	30261176	33184
777	13.194554	95604736	64106496	37444072	33184
778	16.921846	95604736	64630784	30184880	33184
779	16.300616	95604736	64630784	39425024	33184
780	20.368746	95604736	64630784	33957912	33184
781	22.882265	95875072	64630784	30243864	33184
782	3.674	95875072	64630784	43664696	33184
783	7.208888	95875072	64630784	30597880	33184
784	7.314049	95875072	64630784	34728696	33184
785	10.034778	95875072	64630784	39905296	33184
786	13.298947	95875072	64630784	30571488	33184
787	13.343864	95875072	64630784	37813456	33184
788	17.092148	96145408	64630784	30737376	33184
789	16.716349	96145408	64630784	40059200	33184
790	20.417673	96145408	64630784	34648200	33184
791	23.462168	96145408	64630784	31061560	33184
792	3.7348	96145408	64630784	44616152	33184
793	7.058807	96145408	64630784	31517704	33184
794	7.912271	96145408	64630784	35697504	33184
795	9.782992	96145408	64630784	40925224	33184
796	13.235555	96145408	65155072	31482824	33184
797	12.984733	96145408	65155072	38810720	33184
798	17.314043	96415744	65679360	31654312	33184
799	17.014113	96415744	65679360	41086472	33184
800	20.736098	96415744	65679360	35701840	33184
801	22.878291	96415744	65679360	32142376	33184
802	5.694691	96415744	65679360	29757776	33184
803	5.628517	96415744	65679360	32927816	33184
804	7.67981	96415744	65679360	37156752	33184
805	9.336416	96415744	65679360	42456472	33184
806	13.206159	96415744	65679360	32892808	33184
807	13.389961	96415744	65679360	40306408	33184
808	16.873471	96686080	65679360	33079808	33184
809	17.381033	96686080	65679360	42639664	33184
810	21.119639	96686080	65679360	37191400	33184
811	23.096082	96686080	65679360	33586240	33184
812	5.311082	96686080	65679360	31242592	33184
813	5.918972	96686080	65679360	34467560	33184
814	8.018276	96686080	65679360	38745712	33184
815	9.898734	96686080	65679360	44096280	33184
816	13.224183	96686080	65679360	34450088	33184
817	13.277113	96686080	65679360	41966808	33184
818	17.083775	96956416	65679360	34618880	33184
819	17.692589	96956416	65679360	44278480	33184
820	20.93908	96956416	65679360	38808328	33184
821	23.344011	96956416	66203648	35105728	33184
822	3.883001	96956416	66203648	34235408	33184
823	5.992544	96956416	66203648	37479152	33184
824	8.14372	96956416	66203648	41806296	33184
825	11.835413	96956416	66203648	31476784	33184
826	11.808932	96956416	66203648	37977264	33184
827	13.713375	96956416	66203648	45562728	33184
828	17.306616	97226752	66203648	37886328	33184
829	19.529617	97226752	66203648	32313144	33184
830	19.703659	97226752	66203648	43168472	33184
831	23.673804	97226752	66203648	39052288	33184
832	3.912965	97226752	66203648	37742904	33184
833	6.149054	97226752	66203648	41023464	33184
834	7.882236	97226752	66203648	45401480	33184
835	11.969391	97226752	66203648	34683144	33184
836	11.886173	97226752	66203648	41255112	33184
837	15.724563	97497088	66203648	33169000	33184
838	15.932258	97497088	66203648	41957424	33184
839	19.829084	97497088	66203648	35998664	33184
840	22.550539	97497088	66203648	31943928	33184
841	21.754549	97497088	66203648	44034984	33184
842	3.966889	97497088	66203648	42313240	33184
843	5.957777	97497088	66203648	45636080	33184
844	10.229183	97497088	66727936	33887536	33184
845	10.043633	97767424	66727936	39422176	33184
846	12.056793	97767424	66727936	46069744	33184
847	15.2562	97767424	66727936	37467856	33184
848	16.213938	97767424	66727936	46341488	33184
849	19.258896	97767424	66727936	39980056	33184
850	22.603483	97767424	66727936	35605136	33184
851	25.115888	97767424	66727936	32939560	33184
852	5.696704	97767424	66727936	31442208	33184
853	6.275567	97767424	66727936	34827384	33184
854	8.700588	97767424	66727936	39355264	33184
855	11.162071	97767424	66727936	45006648	33184
856	14.728625	98037760	66727936	35722440	33184
857	14.941336	98037760	66727936	43637984	33184
858	18.611351	98037760	66727936	36707648	33184
859	18.190603	98037760	66727936	46905704	33184
860	21.680445	98037760	66727936	41805384	33184
861	25.026496	98037760	66727936	38518376	33184
862	4.056194	98037760	66727936	38022336	33184
863	6.077158	98037760	66727936	41444168	33184
864	8.352056	98037760	66727936	46010288	33184
865	12.273394	98308096	67252224	35569776	33184
866	12.342264	98308096	67252224	42436128	33184
867	17.098975	98308096	67252224	34696080	33184
868	16.455866	98308096	67252224	43845472	33184
869	20.250903	98308096	67252224	38165904	33184
870	22.968514	98308096	67252224	34407544	33184
871	22.868104	98308096	67252224	47010504	33184
872	4.164741	98308096	67252224	45626784	33184
873	8.017041	98308096	67252224	33022696	33184
874	8.414157	98308096	67252224	37637560	33184
875	10.40187	98308096	67252224	43408832	33184
876	14.495508	98578432	67252224	34502152	33184
877	14.628905	98578432	67252224	42595184	33184
878	18.753201	98578432	67252224	36114728	33184
879	19.131815	98578432	67252224	46547760	33184
880	22.72293	98578432	67252224	41815672	33184
881	24.937167	98578432	67252224	38895208	33184
882	4.251839	98578432	67252224	38765416	33184
883	6.207393	98578432	67252224	42274648	33184
884	8.395144	98578432	67252224	46947016	33184
885	12.508938	98848768	67776512	36565696	33184
886	12.702536	98848768	67776512	43585008	33184
887	16.660152	98848768	67776512	35879248	33184
888	16.76804	98848768	67776512	45226416	33184
889	20.662986	98848768	67776512	39699864	33184
890	23.433837	98848768	67776512	36068032	33184
891	26.269182	98848768	67776512	34154312	33184
892	5.897393	98848768	67776512	33257952	33184
893	6.307526	98848768	67776512	36790728	33184
894	8.555776	98848768	67776512	41502864	33184
895	10.502245	98848768	67776512	47399472	33184
896	14.289794	99119104	67776512	38284232	33184
897	14.897995	99119104	67776512	46548488	33184
898	18.59842	99119104	67776512	39804472	33184
899	21.558892	99119104	67776512	35139800	33184
900	20.918706	99119104	67776512	46975664	33184
901	25.331612	99119104	67776512	43698400	33184
902	4.248507	99119104	67776512	43312336	33184
903	6.373206	99119104	67776512	46885360	33184
904	10.633414	99389440	68300800	35574024	33184
905	11.155012	99389440	68300800	41532336	33184
906	15.07663	99389440	68300800	33142040	33184
907	14.807121	99389440	68300800	41492568	33184
908	19.838307	99389440	68300800	35509152	33184
909	19.138436	99389440	68300800	46270504	33184
910	23.344943	99389440	68300800	42049528	33184
911	25.851438	99389440	68825088	39623056	33184
912	4.285931	99389440	68825088	40000208	33184
913	6.496878	99389440	68825088	43606720	33184
914	8.781927	99389440	68825088	48417968	33184
915	13.035116	99659776	68825088	38163808	33184
916	13.15663	99659776	68825088	45402736	33184
917	17.232268	99659776	68825088	37811616	33184
918	17.385464	99659776	68825088	47457136	33184
919	21.586743	99659776	68825088	42063960	33184
920	24.247587	99659776	68825088	38584400	33184
921	26.873723	99930112	68825088	36803456	33184
922	4.328485	99930112	68825088	37788128	33184
923	6.696106	99930112	68825088	41430968	33184
924	8.697435	99930112	68825088	46298880	33184
925	12.801949	99930112	68825088	36450032	33184
926	13.333195	99930112	68825088	43756976	33184
927	17.189894	99930112	68825088	36598424	33184
928	17.452151	99930112	68825088	46349296	33184
929	21.65454	99930112	68825088	41283032	33184
930	24.874251	100200448	69349376	38098376	33184
931	27.478428	100200448	69349376	36528224	33184
932	4.387752	100200448	69349376	37760968	33184
933	6.772594	100200448	69349376	41445784	33184
934	9.12653	100200448	69349376	46354160	33184
935	13.767805	100200448	69349376	36624544	33184
936	13.323928	100200448	69349376	43994688	33184
937	17.42134	100200448	69349376	36897184	33184
938	18.23676	100200448	69349376	46739864	33184
939	21.71009	100470784	69349376	41728560	33184
940	24.674738	100470784	69349376	38684168	33184
941	27.726174	100470784	69349376	37199080	33184
942	4.43144	100470784	69349376	38531888	33184
943	6.609934	100470784	69349376	42248296	33184
944	8.93164	100470784	69349376	47205800	33184
945	13.192336	100470784	69349376	37405488	33184
946	13.490518	100470784	69349376	44865800	33184
947	18.158122	100741120	69349376	37749816	33184
948	17.677191	100741120	69349376	47690232	33184
949	22.326635	100741120	69349376	42695424	33184
950	24.850544	100741120	69349376	39598024	33184
951	27.737738	100741120	69873664	38228096	33184
952	4.459624	100741120	69873664	39665264	33184
953	6.919352	100741120	69873664	43418448	33184
954	9.132938	100741120	69873664	48433064	33184
955	13.897226	101011456	69873664	38579920	33184
956	13.56017	101011456	69873664	46113056	33184
957	17.834188	101011456	69873664	38970088	33184
958	18.089036	101011456	69873664	49002728	33184
959	22.018213	101011456	69873664	43951272	33184
960	24.500262	101011456	69873664	40862128	33184
961	27.734303	101011456	69873664	39501600	33184
962	4.519326	101011456	69873664	40907760	33184
963	6.982921	101011456	69873664	44697840	33184
964	9.319144	101011456	69873664	49774608	33184
965	13.539922	101281792	69873664	39929632	33184
966	14.051059	101281792	69873664	47526160	33184
967	18.598302	101281792	69873664	40363640	33184
968	21.422679	101281792	69873664	35388864	33184
969	20.897075	101281792	69873664	46794272	33184
970	24.886549	101281792	70397952	43485840	33184
971	27.471461	101281792	70397952	41930440	33184
972	4.550165	101281792	70397952	43198880	33184
973	6.840529	101281792	70397952	47025872	33184
974	11.833624	101552128	70397952	36282368	33184
975	11.799045	101552128	70397952	42666144	33184
976	13.617422	101552128	70397952	50336144	33184
977	17.83209	101552128	70397952	42895648	33184
978	21.061872	101552128	70397952	37728400	33184
979	21.148361	101552128	70397952	49251648	33184
980	24.654606	101552128	70397952	45761872	33184
981	27.705493	101552128	70397952	44025832	33184
982	4.649548	101552128	70397952	45256984	33184
983	6.959533	101552128	70397952	49121984	33184
984	11.49517	101822464	70397952	38259784	33184
985	11.727721	101822464	70397952	44708288	33184
986	16.249161	101822464	70397952	36804232	33184
987	16.320007	101822464	70397952	45836224	33184
988	20.772087	101822464	70397952	40389752	33184
989	24.36758	101822464	70397952	37035792	33184
990	23.456817	101822464	70397952	49957632	33184
991	27.509905	101822464	70922240	47853272	33184
992	4.928557	101822464	70922240	48802936	33184
993	9.364218	102092800	70922240	36682976	33184
994	9.723272	102092800	70922240	41892392	33184
995	11.550309	102092800	70922240	48401016	33184
996	16.068336	102092800	70922240	40158648	33184
997	16.411727	102092800	70922240	49276672	33184
998	20.62212	102092800	70922240	43541944	33184
999	24.315223	102092800	70922240	39864864	33184
1000	26.619187	102092800	70922240	37987904	33184
