x	Duration	RSS	HeapTotal	HeapUsed	External
0	NA	102973440	65155072	14397784	33184
1	0.271191	102973440	65155072	14450088	33184
2	0.223015	102973440	65155072	14518064	33184
3	0.243859	102973440	65155072	14610776	33184
4	0.292965	102973440	65155072	14729896	33184
5	0.350428	102973440	65155072	14877184	33184
6	0.405839	102973440	65155072	15053328	33184
7	0.468607	102973440	65155072	15259560	33184
8	0.534568	102973440	65155072	15497144	33184
9	0.631918	102973440	65155072	15768520	33184
10	1.000631	102973440	65155072	16074008	33184
11	0.764698	102973440	65155072	16414768	33184
12	0.218696	102973440	65155072	16787888	33184
13	0.277436	102973440	65155072	16898200	33184
14	0.360236	102973440	65155072	17047496	33184
15	0.446528	102973440	65155072	17237000	33184
16	0.519048	102973440	65155072	17468456	33184
17	0.599633	102973440	65155072	17742696	33184
18	0.684289	102973440	65155072	18060704	33184
19	0.777091	102973440	65155072	18424624	33184
20	1.053817	102973440	65155072	18835784	33184
21	0.979272	102973440	65155072	19295552	33184
22	0.229178	102973440	65155072	19815088	33184
23	0.347284	102973440	65155072	19964976	33184
24	0.458885	102973440	65155072	20167032	33184
25	0.748104	102973440	65155072	20422560	33184
26	0.710391	102973440	65155072	20733232	33184
27	0.620885	102973440	65155072	21099728	33184
28	0.753991	102973440	65155072	21523296	33184
29	0.753986	102973440	65155072	22007080	33184
30	1.234273	102973440	65155072	22550456	33184
31	1.137114	102973440	65155072	23152976	33184
32	0.2101	102973440	65155072	23840984	33184
33	0.318178	102973440	65155072	24027472	33184
34	0.420804	102973440	65155072	24278320	33184
35	0.711029	102973440	65155072	24594856	33184
36	0.612595	102973440	65155072	24978680	33184
37	0.708329	102973440	65155072	25430608	33184
38	1.488528	102973440	65155072	25951792	33184
39	1.271228	102973440	65155072	26543472	33184
40	1.103106	102973440	65155072	27207888	33184
41	1.134903	102973440	65155072	27945240	33184
42	0.24933	102973440	65155072	28792840	33184
43	0.376319	102973440	65155072	29016096	33184
44	0.490588	102973440	65155072	29317112	33184
45	0.607534	102973440	65155072	29698392	33184
46	0.725801	102973440	65155072	30160432	33184
47	0.926424	102973440	65155072	30723696	33184
48	1.636589	102973440	65155072	15070784	33184
49	1.174001	102973440	65155072	15782784	33184
50	1.514744	102973440	65155072	16581424	33184
51	1.312864	102973440	65155072	17467064	33184
52	0.278808	102973440	65155072	18491896	33184
53	0.431472	102973440	65155072	18757224	33184
54	0.590626	102973440	65155072	19113224	33184
55	0.684061	102973440	65155072	19561192	33184
56	0.816472	102973440	65155072	20102696	33184
57	0.956844	102973440	65155072	20738592	33184
58	1.30363	102973440	65155072	21470056	33184
59	1.222878	102973440	65155072	22298288	33184
60	1.365746	102973440	65155072	23225536	33184
61	1.721759	102973440	65155072	24252128	33184
62	0.475532	102973440	65155072	25444592	33184
63	0.494773	102973440	65155072	25746760	33184
64	0.686674	102973440	65155072	26151808	33184
65	0.799847	102973440	65155072	26663720	33184
66	0.935855	102973440	65155072	27278816	33184
67	1.079589	102973440	65155072	28000552	33184
68	1.478898	102973440	65155072	28830120	33184
69	1.392405	102973440	65155072	29769488	33184
70	1.548409	102973440	65155072	30819248	33184
71	2.546179	102973440	65155072	15777672	33184
72	0.357502	102973440	65155072	17129856	33184
73	0.540735	102973440	65155072	17468744	33184
74	1.073465	102973440	65155072	17922808	33184
75	0.873437	102973440	65155072	18493784	33184
76	1.299298	102973440	65155072	19185280	33184
77	1.20961	102973440	65155072	19992792	33184
78	1.38636	102973440	65155072	20920360	33184
79	1.576131	102973440	65155072	21969288	33184
80	1.733726	102973440	65155072	23141880	33184
81	1.990985	102973440	65155072	24447952	33184
82	0.394688	102973440	65155072	25962592	33184
83	0.645591	102973440	65155072	26338216	33184
84	0.772109	102973440	65155072	26843544	33184
85	0.960595	102973440	65155072	27477504	33184
86	1.273726	102973440	65155072	28243080	33184
87	1.548832	102973440	65155072	29142976	33184
88	1.527374	102973440	65155072	30174344	33184
89	1.726675	102973440	65155072	31340344	33184
90	2.567856	102973440	65155072	16313920	33184
91	2.291233	102973440	65155072	17756088	33184
92	0.646108	102973440	65155072	19448320	33184
93	0.668824	102973440	65155072	19870440	33184
94	0.849105	102973440	65155072	20435520	33184
95	1.049938	102973440	65155072	21145552	33184
96	1.377277	102973440	65155072	22000808	33184
97	1.591371	102973440	65155072	23002656	33184
98	1.815213	102973440	65155072	24152296	33184
99	1.913453	102973440	65155072	25451056	33184
100	2.283026	102973440	65155072	26901064	33184
101	2.338654	102973440	65155072	28502776	33184
102	0.462928	102973440	65155072	30379512	33184
103	0.717521	102973440	65155072	30838480	33184
104	0.948943	102973440	65155072	31452624	33184
105	1.647901	102973440	65155072	15875632	33184
106	1.385244	102973440	65155072	16804472	33184
107	1.618494	102973440	65155072	17892160	33184
108	1.847172	102973440	65155072	19139944	33184
109	2.059415	102973440	65155072	20549080	33184
110	2.28484	102973440	65155072	22121840	33184
111	2.52755	102973440	65155072	23858328	33184
112	0.514296	102973440	65155072	25894464	33184
113	0.801106	102973440	65155072	26390184	33184
114	0.996035	102973440	65155072	27053352	33184
115	1.239637	102973440	65155072	27885368	33184
116	1.490195	102973440	65155072	28887736	33184
117	1.919453	102973440	65155072	30062968	33184
118	1.980779	102973440	65155072	31408976	33184
119	3.070098	102973440	65155072	16588080	33184
120	2.653705	102973440	65155072	18283536	33184
121	2.727425	102973440	65155072	20155032	33184
122	0.535022	102973440	65155072	22350936	33184
123	0.807674	102973440	65155072	22883448	33184
124	1.07082	102973440	65155072	23595760	33184
125	1.521481	102973440	65155072	24489072	33184
126	1.616713	102973440	65155072	25565160	33184
127	1.852855	102973440	65155072	26824632	33184
128	2.119408	102973440	65155072	28268840	33184
129	2.380306	102973440	65155072	29898968	33184
130	2.647595	102973440	65155072	31717032	33184
131	3.647157	102973440	65155072	17343304	33184
132	0.576522	102973440	65155072	19703024	33184
133	0.867317	102973440	65155072	20272368	33184
134	1.145119	102973440	65155072	21033736	33184
135	1.422157	102973440	65155072	21988360	33184
136	1.767969	102973440	65155072	23138032	33184
137	2.041237	102973440	65155072	24483560	33184
138	2.269139	102973440	65155072	26025960	33184
139	2.585715	102973440	65155072	27766416	33184
140	2.844418	102973440	65155072	29707352	33184
141	3.36359	102973440	65155072	31848776	33184
142	0.655724	102973440	65155072	17990080	33184
143	0.985032	102973440	65155072	18601736	33184
144	1.305112	102973440	65155072	19419552	33184
145	1.621896	102973440	65155072	20444704	33184
146	1.94016	102973440	65155072	21678904	33184
147	2.34616	102973440	65155072	23125720	33184
148	2.424862	102973440	65155072	24780864	33184
149	2.725795	102973440	65155072	26648288	33184
150	3.036501	102973440	65155072	28730200	33184
151	3.37405	102973440	65155072	31027432	33184
152	0.659147	102973440	65155072	17456656	33184
153	0.979217	102973440	65155072	18105112	33184
154	1.309712	102973440	65155072	18972456	33184
155	1.607928	102973440	65155072	20059000	33184
156	2.14612	102973440	65155072	21367608	33184
157	2.244555	102973440	65155072	22897656	33184
158	2.570942	102973440	65155072	24650984	33184
159	2.938302	102973440	65155072	26628928	33184
160	3.206623	102973440	65155072	28833456	33184
161	4.11323	102973440	65155072	31266616	33184
162	0.731897	102973440	65155072	17835376	33184
163	1.094942	102973440	65155072	18520624	33184
164	1.697029	102973440	65155072	19436624	33184
165	1.990716	102973440	65155072	20587912	33184
166	2.042631	102973440	65155072	21969488	33184
167	2.380039	102973440	65155072	23585680	33184
168	2.718808	102973440	65155072	25437920	33184
169	3.273774	102973440	65155072	27526184	33184
170	3.626819	102973440	65155072	29853528	33184
171	4.418485	102973440	65155072	16330552	33184
172	0.732569	102973440	65155072	19359064	33184
173	1.097583	102973440	65155072	20081208	33184
174	1.470356	102973440	65155072	21046272	33184
175	1.837758	102973440	65155072	22255520	33184
176	2.152677	102973440	65155072	23711088	33184
177	2.500006	102973440	65155072	25412856	33184
178	3.05569	102973440	65155072	27362520	33184
179	3.447598	102973440	65155072	29561184	33184
180	3.828036	102973440	65155072	32015928	33184
181	4.784005	102973440	65155072	18350328	33184
182	0.767007	102973440	65155072	21558888	33184
183	1.152011	102973440	65155072	22330288	33184
184	1.51068	102973440	65155072	23361048	33184
185	1.880191	102973440	65155072	24652472	33184
186	2.501986	102973440	65155072	26206240	33184
187	2.706071	102973440	65155072	28023024	33184
188	3.022005	102973440	65155072	30104136	33184
189	3.968313	102973440	65155072	16333840	33184
190	3.794395	102973440	65155072	18948480	33184
191	4.189862	102973440	65155072	21833064	33184
192	0.827187	102973440	65155072	25237160	33184
193	1.206019	102973440	65155072	26045328	33184
194	1.639701	102973440	65155072	27125224	33184
195	2.052696	102973440	65155072	28477920	33184
196	2.395311	102973440	65155072	30105208	33184
197	2.763568	102973440	65155072	32007856	33184
198	3.805721	102973440	65155072	17839112	33184
199	3.576663	102973440	65155072	20296120	33184
200	3.957831	102973440	65155072	23033096	33184
201	4.576177	102973440	65155072	26050256	33184
202	0.858659	102973440	65155072	29612232	33184
203	1.270074	102973440	65155072	30457216	33184
204	1.916464	102973440	65155072	31586160	33184
205	2.676991	102973440	65155072	16735592	33184
206	2.501794	102973440	65155072	18439904	33184
207	2.978049	102973440	65155072	20429632	33184
208	3.503197	102973440	65155072	22707136	33184
209	3.738732	102973440	65155072	25274672	33184
210	4.162091	102973440	65155072	28134392	33184
211	5.001503	102973440	65155072	31286728	33184
212	0.885491	102973440	65155072	18765496	33184
213	1.3219	102973440	65155072	19647336	33184
214	1.732639	102973440	65155072	20825440	33184
215	2.513896	102973440	65155072	22300920	33184
216	2.61269	102973440	65155072	24075624	33184
217	3.119054	102973440	65155072	26150184	33184
218	3.707649	102973440	65155072	28525696	33184
219	4.293228	102973440	65155072	31206656	33184
220	5.171987	102973440	65155072	17964688	33184
221	5.278148	102973440	65155072	21252696	33184
222	0.916132	102973440	65155072	25138696	33184
223	1.427991	102973440	65155072	26057288	33184
224	1.815375	102973440	65155072	27284416	33184
225	2.742814	102973440	65155072	28821224	33184
226	2.774074	102973440	65155072	30669464	33184
227	3.671746	102973440	65155072	16696240	33184
228	3.846647	102973440	65155072	19170040	33184
229	4.321132	102973440	65155072	21964032	33184
230	4.573609	102973440	65155072	25074880	33184
231	4.986372	102973440	65155072	28507448	33184
232	0.966746	102973440	65155072	32569800	33184
233	1.796441	102973440	65155072	17155328	33184
234	2.103251	102973440	65155072	18443096	33184
235	2.370826	102973440	65155072	20055680	33184
236	2.824141	102973440	65155072	21994816	33184
237	3.288701	102973440	65155072	24261240	33184
238	3.979494	102973440	65155072	26856192	33184
239	4.230759	102973440	65155072	29780928	33184
240	5.507895	102973440	65155072	17029744	33184
241	5.210018	102973440	65155072	20618712	33184
242	1.000105	102973440	65155072	24861128	33184
243	1.755339	102973440	65155072	25866120	33184
244	2.213168	102973440	65155072	27202656	33184
245	2.460064	102973440	65155072	28876312	33184
246	2.929352	102973440	65155072	30888736	33184
247	4.13718	102973440	65155072	17117344	33184
248	3.964513	102973440	65155072	19810168	33184
249	4.398811	102973440	65155072	22846272	33184
250	5.664064	102973440	65155072	26229360	33184
251	5.39505	102973440	65155072	29954072	33184
252	1.036347	102973440	65155072	18400080	33184
253	1.544764	102973440	65155072	19437712	33184
254	2.041143	102973440	65155072	20823504	33184
255	2.535255	102973440	65155072	22558536	33184
256	3.267985	102973440	65155072	24645144	33184
257	3.570472	102973440	65155072	27083208	33184
258	4.088397	102973440	65155072	29874040	33184
259	4.595936	102973440	65155072	33019312	33184
260	5.610726	102973440	65155072	20160088	33184
261	5.82841	102973440	65155072	24018448	33184
262	1.061767	102973440	65155072	28580104	33184
263	1.604915	102973440	65155072	29654544	33184
264	2.114891	102973440	65155072	31089312	33184
265	2.868217	102973440	65155072	32885744	33184
266	3.526364	102973440	65155072	18685952	33184
267	3.900381	102973440	65155072	21209848	33184
268	4.398565	102973440	65155072	24099072	33184
269	4.821186	102973440	65155072	27354664	33184
270	5.544894	102973440	65155072	30979016	33184
271	6.519566	102973440	65155072	18870512	33184
272	1.114418	102973440	65155072	23598632	33184
273	1.669405	102973440	65155072	24709824	33184
274	2.418756	102973440	65155072	26193632	33184
275	2.736562	102973440	65155072	28051392	33184
276	3.286363	102973440	65155072	30284776	33184
277	3.834634	102973440	65155072	32894440	33184
278	4.763603	102973440	65155072	19540128	33184
279	5.143827	102973440	65155072	22906112	33184
280	5.464147	102973440	65155072	26653184	33184
281	6.215643	102973440	65155072	30781688	33184
282	1.14986	102973440	65155072	19616968	33184
283	1.726177	102973440	65155072	20765120	33184
284	2.264112	102973440	65155072	22298128	33184
285	2.828734	102973440	65155072	24217232	33184
286	3.393148	102973440	65155072	26530096	33184
287	4.177942	102973440	65155072	29225736	33184
288	5.012085	102973440	65155072	32315008	33184
289	5.722879	102973440	65155072	19544208	33184
290	5.674865	102973440	65155072	23413656	33184
291	6.570338	102973440	65155072	27677376	33184
292	1.19286	102973440	65155072	32725448	33184
293	2.187465	102973440	65155072	17640800	33184
294	2.582027	102973440	65155072	19222776	33184
295	2.932932	102973440	65155072	21203080	33184
296	3.494732	102973440	65155072	23583552	33184
297	4.716802	102973440	65155072	26364904	33184
298	4.743789	102973440	65155072	29557496	33184
299	5.257908	102973440	65155072	33144488	33184
300	6.431508	102973440	65155072	20807504	33184
301	6.617573	102973440	65155072	25205352	33184
302	1.218246	102973440	65155072	30415392	33184
303	1.822292	102973440	65155072	31636968	33184
304	2.708371	102973440	65155072	33271888	33184
305	3.500439	102973440	65155072	19023592	33184
306	3.612922	102973440	65155072	21478136	33184
307	4.214463	102973440	65155072	24345272	33184
308	5.059172	102973440	65155072	27626680	33184
309	5.419113	102973440	65155072	31323816	33184
310	6.677742	102973440	65155072	19409512	33184
311	6.712194	102973440	65155072	23942480	33184
312	1.268213	102973440	65155072	29310680	33184
313	1.881443	102973440	65155072	30569176	33184
314	2.717636	102973440	65155072	32249264	33184
315	3.689092	102973440	65155072	18232376	33184
316	3.75929	102973440	65155072	20760064	33184
317	4.440081	102973440	65155072	23713232	33184
318	5.246558	102973440	65155072	27098328	33184
319	5.910869	102973440	65155072	30908352	33184
320	7.378575	102973440	65155072	19218304	33184
321	7.597016	102973440	65155072	23891032	33184
322	1.379247	102973440	65155072	29419664	33184
323	1.964924	102973440	65155072	30714872	33184
324	2.575924	102973440	65155072	32443992	33184
325	3.846871	102973440	65155072	18492000	33184
326	4.235249	102973440	65155072	21093344	33184
327	4.767502	102973440	65155072	24133208	33184
328	5.108757	102973440	65155072	27611224	33184
329	5.979456	102973440	65155072	31528976	33184
330	7.157945	102973440	65155072	19897600	33184
331	7.141916	102973440	65155072	24700544	33184
332	1.342743	102973440	65155072	30392256	33184
333	1.995733	102973440	65155072	31724256	33184
334	2.654297	102973440	65155072	33502504	33184
335	4.076049	102973440	65155072	19493048	33184
336	3.984922	102973440	65155072	22168104	33184
337	4.615107	102973440	65155072	25297608	33184
338	5.282146	102973440	65155072	28873624	33184
339	5.966937	102973440	65155072	32902176	33184
340	7.457416	102973440	65155072	21256336	33184
341	7.274424	102973440	65155072	26194424	33184
342	1.390147	102973440	65155072	32040560	33184
343	2.048583	102973440	65155072	33409416	33184
344	3.336016	102973440	65155072	19049640	33184
345	3.410792	102973440	65155072	21337544	33184
346	4.077327	102973440	65155072	24086136	33184
347	4.980664	102973440	65155072	27296856	33184
348	5.437641	102973440	65155072	30971112	33184
349	7.219774	102973440	65155072	19259576	33184
350	7.261652	102973440	65155072	23865272	33184
351	7.580204	102973440	65155072	28938936	33184
352	1.996437	102973440	65155072	18706992	33184
353	2.117834	102973440	65155072	20112624	33184
354	2.803693	102973440	65155072	21989112	33184
355	3.726755	102973440	65155072	24339600	33184
356	4.184661	102973440	65155072	27161752	33184
357	4.878508	102973440	65155072	30458344	33184
358	5.593705	102973440	65155072	34238952	33184
359	7.06333	102973440	65155072	22230976	33184
360	7.254504	102973440	65155072	26993160	33184
361	7.92004	102973440	65155072	32244072	33184
362	1.528917	102973440	65155072	22439976	33184
363	2.263127	102973440	65155072	23920648	33184
364	3.009435	102973440	65155072	25896920	33184
365	3.74985	102973440	65155072	28370392	33184
366	4.620143	102973440	65155072	31343160	33184
367	5.044657	102973440	65155072	34815952	33184
368	6.618018	102973440	65155072	22464424	33184
369	6.513946	102973440	65155072	26938648	33184
370	7.181289	102973440	65155072	31917200	33184
371	8.940942	102973440	65155072	21415776	33184
372	1.502155	102973440	65155072	27924576	33184
373	2.478888	102973440	65155072	29442616	33184
374	3.06763	102973440	65155072	31476336	33184
375	3.789209	102973440	65155072	34012288	33184
376	5.157467	102973440	65155072	20876944	33184
377	5.224848	102973440	65155072	24434280	33184
378	6.195199	102973440	65155072	28506424	33184
379	6.777954	102973440	65155072	33101280	33184
380	8.373996	102973440	65155072	22126536	33184
381	8.13635	102973440	65155072	27744104	33184
382	1.527271	102973440	65155072	34406920	33184
383	3.18666	102973440	65155072	19729192	33184
384	3.11038	102973440	65155072	21803600	33184
385	3.789721	102973440	65155072	24399800	33184
386	4.759638	102973440	65155072	27519200	33184
387	5.297217	102973440	65155072	31162488	33184
388	6.075771	102973440	65155072	35338808	33184
389	7.436141	102973440	65155072	23685184	33184
390	7.813238	102973440	65155072	28908728	33184
391	8.543182	102973440	65155072	34661248	33184
392	1.587823	102973440	65155072	25188416	33184
393	2.334418	102973440	65155072	26779384	33184
394	3.101634	102973440	65155072	28902976	33184
395	3.931364	102973440	65155072	31560352	33184
396	4.895011	102973440	65155072	34753272	33184
397	6.128735	102973440	65155072	22246808	33184
398	6.416711	102973440	65155072	26513512	33184
399	6.980008	102973440	65155072	31318920	33184
400	8.818368	102973440	65155072	20853096	33184
401	8.856639	102973440	65155072	26740736	33184
402	1.60576	102973440	65155072	33726888	33184
403	2.401896	102973440	65155072	35354720	33184
404	3.98691	102973440	65155072	21219408	33184
405	4.027017	102973440	65155072	23938072	33184
406	4.850696	102973440	65155072	27204600	33184
407	6.075548	102973440	65155072	31020856	33184
408	6.391472	102973440	65155072	35394624	33184
409	8.108233	102973440	65155072	24014576	33184
410	8.010049	102973440	65155072	29483752	33184
411	8.755443	102973440	65155072	35508600	33184
412	1.657655	102973440	65155072	26283104	33184
413	2.456924	102973440	65155072	27947760	33184
414	3.48689	102973440	65155072	30169536	33184
415	4.121214	102973440	65155072	32953184	33184
416	6.029726	102973440	65155072	20338720	33184
417	5.76111	102973440	65155072	24242480	33184
418	6.577981	102973440	65155072	28705448	33184
419	7.620622	102973440	65155072	33734280	33184
420	9.041708	102973440	65155072	23247976	33184
421	8.967303	102973440	65155072	29405400	33184
422	2.421058	102973440	65155072	20444144	33184
423	2.530715	102973440	65155072	22145600	33184
424	3.627618	102973440	65155072	24417448	33184
425	4.524721	102973440	65155072	27258936	33184
426	5.023615	102973440	65155072	30672880	33184
427	5.883904	102973440	65155072	34659816	33184
428	7.682959	102973440	65155072	23066384	33184
429	7.677996	102973440	65155072	28209320	33184
430	8.699481	102973440	65155072	33932640	33184
431	10.363256	102973440	65155072	24124288	33184
432	1.733039	102973440	65155072	31589224	33184
433	2.631551	102973440	65155072	33327504	33184
434	3.406028	102973440	65155072	35647432	33184
435	5.029989	102973440	65155072	22322240	33184
436	5.319281	102973440	65155072	25818720	33184
437	5.958736	102973440	65155072	29891512	33184
438	7.025549	102973440	65155072	34551616	33184
439	8.573891	102973440	65155072	23715648	33184
440	8.665311	102973440	65155072	29552648	33184
441	9.821607	102973440	65155072	35986296	33184
442	1.770925	102973440	65155072	27264520	33184
443	2.632026	102973440	65155072	29039672	33184
444	3.492672	102973440	65155072	31408776	33184
445	4.371605	102973440	65155072	34374328	33184
446	6.551042	102973440	65155072	21874560	33184
447	6.092882	102973440	65155072	26040208	33184
448	7.196601	102973440	65155072	30807136	33184
449	7.849904	102973440	65155072	36168304	33184
450	9.955055	102973440	65155072	25783808	33184
451	9.814238	102973440	65155072	32354376	33184
452	1.861239	102973440	65155072	24308520	33184
453	2.779834	102973440	65155072	26120904	33184
454	3.695513	102973440	65155072	28539008	33184
455	4.606844	102973440	65155072	31568728	33184
456	5.536807	102973440	65155072	35203376	33184
457	7.471788	102973440	65155072	23306312	33184
458	7.516562	102973440	65155072	28163152	33184
459	8.001544	102973440	65155072	33631096	33184
460	10.083029	102973440	65155072	23737072	33184
461	10.014881	102973440	65155072	30434760	33184
462	1.920623	102973440	65155072	22824144	33184
463	2.839113	102973440	65155072	24672864	33184
464	3.78181	102973440	65155072	27140048	33184
465	4.71803	102973440	65155072	30226888	33184
466	5.80457	102973440	65155072	33935096	33184
467	7.799095	102973440	65155072	22328312	33184
468	7.796716	102973440	65155072	27282184	33184
469	8.268034	102973440	65155072	32860512	33184
470	10.623876	102973440	65155072	23229016	33184
471	10.099665	102973440	65155072	30068368	33184
472	2.742278	102973440	65155072	21876264	33184
473	2.803774	102973440	65155072	23761752	33184
474	3.710561	102973440	65155072	26277960	33184
475	4.645385	102973440	65155072	29429768	33184
476	5.958278	102973440	65155072	33211544	33184
477	7.96077	102973440	65155072	21834592	33184
478	7.525795	102973440	65155072	26894800	33184
479	8.445914	102973440	65155072	32587824	33184
480	10.793187	102973440	65155072	23135320	33184
481	10.469726	102973440	65155072	30102640	33184
482	2.79828	102973440	65155072	22066280	33184
483	2.857879	102973440	65155072	23988648	33184
484	3.79758	102973440	65155072	26554000	33184
485	4.970202	102973440	65155072	29763552	33184
486	5.745761	102973440	65155072	33619248	33184
487	8.057164	102973440	65155072	22300256	33184
488	7.589404	102973440	65155072	27452064	33184
489	8.509522	102973440	65155072	33254536	33184
490	10.902578	102973440	65155072	23871448	33184
491	10.66072	102973440	65155072	30980736	33184
492	2.036807	102973440	65155072	23879616	33184
493	3.220606	102973440	65155072	25838848	33184
494	3.874948	102973440	65155072	28453256	33184
495	4.81161	102973440	65155072	31724208	33184
496	6.003803	102973440	65155072	35657248	33184
497	7.839892	102973440	65155072	24185488	33184
498	7.726718	102973440	65155072	29437704	33184
499	9.190965	102973440	65155072	35347440	33184
500	10.928591	102973440	65155072	25815576	33184
501	10.682185	102973440	65155072	33052904	33184
502	2.004255	102973440	65155072	25865024	33184
503	2.979748	102973440	65155072	27861064	33184
504	4.157404	102973440	65155072	30527432	33184
505	4.918666	102973440	65155072	33861480	33184
506	5.893911	102973440	65155072	37864584	33184
507	7.831931	102973440	65155072	26193040	33184
508	8.099502	102973440	65155072	31542064	33184
509	9.138964	102973440	65155072	37562160	33184
510	10.866424	102973440	65155072	27897248	33184
511	10.965609	102973440	65155072	35270488	33184
512	2.250044	102973440	65155072	27977944	33184
513	3.033672	102973440	65155072	30010776	33184
514	4.260926	102973440	65155072	32723408	33184
515	5.015636	102973440	65155072	36117024	33184
516	7.116948	102973440	65155072	24107464	33184
517	7.246358	102973440	65155072	28870296	33184
518	8.250675	102973440	65155072	34322864	33184
519	10.336874	102973440	65155072	24563928	33184
520	10.172154	102973440	65155072	31383528	33184
521	12.860036	102973440	65155072	23423792	33184
522	2.101183	102973440	65155072	32323272	33184
523	3.083705	102973440	65155072	34392840	33184
524	4.12998	102973440	65155072	37156048	33184
525	6.383473	102973440	65155072	24419776	33184
526	6.184579	102973440	65155072	28572264	33184
527	7.368187	102973440	65155072	33428880	33184
528	9.647999	102973440	65155072	23330728	33184
529	9.510132	102973440	65155072	29574480	33184
530	10.692725	102973440	65155072	36515936	33184
531	12.643534	102973440	65155072	27992888	33184
532	2.318672	102973440	65155072	37059096	33184
533	4.280948	102973440	65155072	23063336	33184
534	4.191249	102973440	65155072	25874024	33184
535	5.487933	102973440	65155072	29390568	33184
536	6.272627	102973440	65155072	33614288	33184
537	7.312327	102973440	65155072	38546072	33184
538	9.640429	102973440	65155072	27842456	33184
539	9.881156	102973440	65155072	34194040	33184
540	12.274122	102973440	65155072	25455920	33184
541	11.64127	102973440	65155072	33235112	33184
542	2.161298	102973440	65155072	26766512	33184
543	3.652903	102973440	65155072	28913512	33184
544	4.315366	102973440	65155072	31773424	33184
545	5.527325	102973440	65155072	35351104	33184
546	8.118997	102973440	65155072	23782408	33184
547	7.527847	102973440	65155072	28803320	33184
548	8.746997	102973440	65155072	34545760	33184
549	11.044497	102973440	65155072	25210328	33184
550	10.869413	102973440	65155072	32397232	33184
551	13.571253	102973440	65155072	24798368	33184
552	2.205582	102973440	65155072	34198320	33184
553	3.254126	102973440	65155072	36379104	33184
554	5.580389	102973440	65155072	23294856	33184
555	5.488467	102973440	65155072	26934136	33184
556	6.691482	102973440	65155072	31318712	33184
557	7.779999	102973440	65155072	36436208	33184
558	10.209067	102973440	65155072	26310040	33184
559	9.753116	102973440	65155072	32909768	33184
560	12.629842	102973440	65155072	24666144	33184
561	12.151692	102973440	65155072	32763536	33184
562	2.434176	102973440	65155072	26815896	33184
563	3.323555	102973440	65155072	29053168	33184
564	4.411057	102973440	65155072	32038704	33184
565	5.832059	102973440	65155072	35779168	33184
566	8.016053	102973440	65155072	24391192	33184
567	7.705039	102973440	65155072	29629976	33184
568	9.053849	102973440	65155072	35619880	33184
569	11.698427	102973440	65155072	26453368	33184
570	11.164221	102973440	65155072	33955272	33184
571	14.230815	102973440	65155072	26538168	33184
572	2.278181	102973440	65155072	36361352	33184
573	3.612119	102973440	65155072	38635416	33184
574	5.667393	102973440	65155072	25484912	33184
575	5.63991	102973440	65155072	29280608	33184
576	6.731163	102973440	65155072	33846680	33184
577	8.073863	102973440	65155072	39178960	33184
578	10.377945	102973440	65155072	28999032	33184
579	10.105617	102973440	65155072	35853520	33184
580	12.915693	102973440	65155072	27572272	33184
581	12.656437	102973440	65155072	35963888	33184
582	2.321352	102973440	65155072	30010016	33184
583	3.441679	102973440	65155072	32322984	33184
584	4.787711	102973440	65155072	35412920	33184
585	5.955865	102973440	65155072	39271488	33184
586	8.25527	102973440	65155072	27627840	33184
587	8.447091	102973440	65155072	33036688	33184
588	9.121902	102973440	65155072	39223048	33184
589	11.89451	102973440	65155072	29840824	33184
590	11.880587	102973440	65155072	37587832	33184
591	14.566259	102973440	65155072	29993224	33184
592	3.636876	102973440	65155072	23977896	33184
593	3.558284	102973440	65155072	26325552	33184
594	4.866822	102973440	65155072	29466072	33184
595	5.914583	102973440	65155072	33384680	33184
596	7.069498	102973440	65155072	38091072	33184
597	9.775942	102973440	65155072	27532032	33184
598	9.420233	102973440	65155072	33816616	33184
599	12.617697	102973440	65155072	25322688	33184
600	11.863647	102973440	65155072	33191024	33184
601	14.851797	102973440	65155072	26355136	33184
602	2.393286	102973440	65155072	36649368	33184
603	3.569233	102973440	65155072	39033832	33184
604	6.295617	102973440	65155072	26047848	33184
605	6.107276	102973440	65155072	30030248	33184
606	7.167226	102973440	65155072	34810200	33184
607	10.288459	102973440	65155072	24790088	33184
608	9.820728	102973440	65155072	31189024	33184
609	10.631485	102973440	65155072	38374640	33184
610	13.630865	102973440	65155072	30222992	33184
611	13.584442	102973440	65155072	39028360	33184
612	2.427174	102973440	65155072	33232256	33184
613	3.821778	102973440	65155072	35660240	33184
614	4.802403	102973440	65155072	38892352	33184
615	7.535159	102973440	65155072	26818656	33184
616	7.228376	102973440	65155072	31681232	33184
617	8.403841	102973440	65155072	37360552	33184
618	11.279449	102973440	65155072	27839504	33184
619	11.08489	102973440	65155072	35143600	33184
620	14.039992	102973440	65155072	27552984	33184
621	13.667122	102973440	65155072	36489928	33184
622	2.514357	102973440	65155072	31269320	33184
623	3.681812	102973440	65155072	33727448	33184
624	4.91876	102973440	65155072	37008048	33184
625	7.838025	102973440	65155072	25285184	33184
626	7.609248	102973440	65155072	30213608	33184
627	8.520086	102973440	65155072	35966048	33184
628	11.65631	102973440	65155072	26775856	33184
629	11.300003	102973440	65155072	34185512	33184
630	14.275871	102973440	65155072	26929448	33184
631	13.750332	102973440	65155072	35996296	33184
632	2.497286	102973440	65155072	30988320	33184
633	3.734907	102973440	65155072	33483288	33184
634	4.966074	102973440	65155072	36812144	33184
635	6.213705	102973440	65155072	40981056	33184
636	9.154814	102973440	65155072	29644312	33184
637	8.930422	102973440	65155072	35482728	33184
638	11.675069	102973440	65155072	26474464	33184
639	11.408407	102973440	65155072	33991968	33184
640	14.526833	102973440	65155072	26862064	33184
641	13.765688	102973440	65155072	36064104	33184
642	2.549042	102973440	65155072	31287984	33184
643	3.83439	102973440	65155072	33820008	33184
644	5.317798	102973440	65155072	37197880	33184
645	7.929226	102973440	65155072	25633488	33184
646	7.572727	102973440	65155072	30708024	33184
647	9.134317	102973440	65155072	36632144	33184
648	12.230893	102973440	65155072	27613448	33184
649	11.427572	102973440	65155072	35241880	33184
650	14.776203	102973440	65155072	28155168	33184
651	14.152255	102973440	65155072	37491992	33184
652	2.816917	102973440	65155072	32659888	33184
653	3.854871	102973440	65155072	35228480	33184
654	5.105663	102973440	65155072	38666256	33184
655	8.300764	102973440	65155072	27031768	33184
656	7.777456	102973440	65155072	32180648	33184
657	8.947044	102973440	65155072	38199096	33184
658	12.036719	102973440	65155072	29104712	33184
659	11.784678	102973440	65155072	36845120	33184
660	15.013498	102973440	65155072	29662832	33184
661	14.336521	102973440	65155072	39142600	33184
662	2.628909	102973440	65155072	34295888	33184
663	4.140425	102973440	65155072	36901352	33184
664	5.190589	102973440	65155072	40379976	33184
665	8.228267	102973440	65155072	28582656	33184
666	7.792251	102973440	65155072	33808368	33184
667	9.076012	102973440	65155072	39904240	33184
668	12.07893	102973440	65155072	30751144	33184
669	12.009113	102973440	65155072	38599456	33184
670	14.796042	102973440	65155072	31315952	33184
671	14.754306	102973440	65155072	40937864	33184
672	2.677531	102973440	65155072	36044952	33184
673	4.200896	102973440	65155072	38687160	33184
674	6.913774	102973440	65155072	26313216	33184
675	6.828292	102973440	65155072	30722480	33184
676	7.904293	102973440	65155072	36022224	33184
677	11.667785	102973440	65155072	26622952	33184
678	11.143977	102973440	65155072	33692912	33184
679	12.061656	102973440	65155072	41651904	33184
680	14.963664	102973440	65155072	34167704	33184
681	16.685543	102973440	65155072	28584200	33184
682	2.849134	102973440	65155072	40151368	33184
683	5.633733	102973440	65155072	26799896	33184
684	5.637439	102973440	65155072	30374192	33184
685	7.101138	102973440	65155072	34849656	33184
686	8.23722	102973440	65155072	40219904	33184
687	11.243287	102973440	65155072	30480856	33184
688	10.746587	102973440	65155072	37650440	33184
689	14.373065	102973440	65155072	29961496	33184
690	14.265979	102973440	65155072	38940400	33184
691	17.333135	102973440	65155072	32836776	33184
692	2.768583	102973440	65155072	29434552	33184
693	4.086931	102973440	65155072	32150512	33184
694	5.672091	102973440	65155072	35781096	33184
695	6.844448	102973440	65155072	40314144	33184
696	9.909157	102973440	65155072	29739744	33184
697	9.479538	102973440	65155072	36097984	33184
698	12.84472	102973440	65155072	27846200	33184
699	12.25676	102973440	65155072	36025992	33184
700	15.602424	102973440	65155072	29616656	33184
701	15.271339	102973440	65155072	39635336	33184
702	2.782334	102973440	65155072	35533000	33184
703	4.142111	102973440	65155072	38289368	33184
704	5.985527	102973440	65155072	41961872	33184
705	8.362465	102973440	65155072	30336632	33184
706	8.493307	102973440	65155072	35853768	33184
707	9.641371	102973440	65155072	42299824	33184
708	12.665922	102973440	65155072	33314824	33184
709	12.648952	102973440	65155072	41605360	33184
710	15.296224	102973440	65155072	34585144	33184
711	17.974033	102973440	65155072	29464008	33184
712	2.867332	102973440	65155072	41526832	33184
713	5.772025	102973440	65155072	28181256	33184
714	5.678814	102973440	65155072	31921320	33184
715	7.618676	102973440	65155072	36609000	33184
716	8.802022	102973440	65155072	42249736	33184
717	11.547849	102973440	65155072	32624272	33184
718	11.208036	102973440	65155072	40169880	33184
719	14.543005	102973440	65155072	32680736	33184
720	14.227651	102973440	65155072	42149616	33184
721	16.920383	102973440	65155072	36283040	33184
722	2.85158	102973440	65155072	33188584	33184
723	4.254599	102973440	65155072	36064136	33184
724	5.708854	102973440	65155072	39900464	33184
725	9.070306	102973440	65155072	28820352	33184
726	8.719085	102973440	65155072	34584776	33184
727	10.142146	102973440	65155072	41317368	33184
728	13.07081	102973440	65155072	32885080	33184
729	13.008315	102973440	65155072	41550768	33184
730	16.110742	102973440	65155072	34992096	33184
731	18.335004	102973440	65155072	30293352	33184
732	3.144669	102973440	65155072	42897672	33184
733	5.872589	102973440	65155072	29558128	33184
734	6.045223	102973440	65155072	33456440	33184
735	7.45501	102973440	65155072	38331240	33184
736	11.003903	102973440	65155072	28566920	33184
737	10.060521	102973440	65155072	35390512	33184
738	11.854562	102973440	65155072	43181048	33184
739	14.943024	102973440	65155072	35599584	33184
740	16.864446	102973440	65155072	30036688	33184
741	16.129154	102973440	65155072	40770296	33184
742	2.954302	102973440	65155072	37485656	33184
743	4.374906	102973440	65155072	40434952	33184
744	8.00024	102973440	65155072	28510464	33184
745	7.327466	102973440	65155072	33436600	33184
746	8.88731	102973440	65155072	39345984	33184
747	12.470751	102973440	65155072	30409784	33184
748	11.977482	102973440	65155072	38298712	33184
749	15.201842	102973440	65155072	31487920	33184
750	14.67175	102973440	65155072	41391112	33184
751	17.992665	102973440	65155072	36170848	33184
752	2.968572	102973440	65155072	33718200	33184
753	4.462921	102973440	65155072	36709368	33184
754	5.976089	102973440	65155072	40692872	33184
755	9.39714	102973440	65155072	29817832	33184
756	9.284687	102973440	65155072	35801920	33184
757	10.586121	102973440	65155072	42786264	33184
758	13.834645	102973440	65155072	34546656	33184
759	14.765029	103243776	65155072	43550824	33184
760	16.772487	103243776	65155072	37207168	33184
761	18.651418	103243776	65155072	32711336	33184
762	4.749606	103243776	65155072	29563608	33184
763	4.517869	103243776	65155072	32586448	33184
764	6.216287	103243776	65155072	36619816	33184
765	7.644408	103243776	65155072	41678768	33184
766	10.800807	103243776	65155072	31759800	33184
767	10.708149	103243776	65155072	38830472	33184
768	14.565868	103243776	65155072	31229384	33184
769	13.688111	103243776	65155072	40364656	33184
770	16.855022	103243776	65155072	34620008	33184
771	19.656294	103243776	65155072	30657864	33184
772	3.067733	103243776	65155072	43897472	33184
773	6.452735	103243776	65155072	30713712	33184
774	6.084599	103243776	65155072	34808664	33184
775	7.837957	103243776	65155072	39917192	33184
776	11.325677	103243776	65155072	30366384	33184
777	10.910878	103243776	65155072	37549280	33184
778	14.424221	103243776	65155072	30290088	33184
779	13.708663	103243776	65155072	39530232	33184
780	17.182097	103243776	65155072	34063120	33184
781	19.546658	103243776	65155072	30349072	33184
782	3.095558	103243776	65155072	43769904	33184
783	6.375745	103243776	65155072	30702952	33184
784	6.580904	103243776	65155072	34833904	33184
785	9.063515	103243776	65155072	40010416	33184
786	12.054671	103243776	65155072	30541840	33184
787	11.034978	103243776	65155072	37855760	33184
788	14.61208	103243776	65155072	30663280	33184
789	14.072895	103243776	65155072	39985112	33184
790	17.618117	103243776	65155072	34584312	33184
791	20.216351	103243776	65155072	31014864	33184
792	3.132928	103243776	65155072	44571488	33184
793	6.465197	103243776	65155072	31466536	33184
794	6.651659	103243776	65155072	35646408	33184
795	7.84593	103243776	65155072	40874280	33184
796	12.277949	103243776	65155072	31441928	33184
797	11.330153	103243776	65155072	38769672	33184
798	15.099833	103243776	65155072	31615296	33184
799	14.233634	103243776	65155072	41047248	33184
800	17.824764	103243776	65155072	35669760	33184
801	20.536067	103243776	65155072	32110368	33184
802	5.00769	103243776	65155072	29725560	33184
803	4.761169	103243776	65155072	32895568	33184
804	6.317178	103243776	65155072	37124616	33184
805	7.959173	103243776	65155072	42428760	33184
806	11.702018	103243776	65155072	32865096	33184
807	11.224604	103243776	65155072	40278696	33184
808	14.892034	103243776	65155072	33052096	33184
809	14.447555	103243776	65155072	42611952	33184
810	17.930941	103243776	65155072	37163688	33184
811	20.316208	103243776	65155072	33558528	33184
812	4.9838	103243776	65155072	31214880	33184
813	5.070063	103243776	65155072	34439848	33184
814	6.624507	103243776	65155072	38718000	33184
815	8.220761	103243776	65155072	44068568	33184
816	11.663219	103243776	65679360	34422376	33184
817	11.432296	103243776	65679360	41939096	33184
818	14.814123	103243776	66203648	34591168	33184
819	14.747377	103243776	66203648	44250768	33184
820	18.254238	103243776	66203648	38780616	33184
821	20.301015	103243776	66203648	35078016	33184
822	3.260192	103243776	66203648	34207696	33184
823	4.863898	103243776	66203648	37451440	33184
824	6.659606	103243776	66203648	41778584	33184
825	10.266057	103514112	66203648	31449072	33184
826	9.889517	103514112	66203648	37949552	33184
827	11.51651	103514112	66203648	45535016	33184
828	14.780538	103514112	66203648	37858616	33184
829	17.304572	103514112	66203648	32285432	33184
830	16.40458	103514112	66203648	43140760	33184
831	20.015278	103514112	66203648	39024576	33184
832	3.303366	103514112	66203648	37715192	33184
833	4.922554	103514112	66203648	40995752	33184
834	6.814414	103514112	66203648	45373768	33184
835	10.551306	103784448	66203648	34655432	33184
836	9.805289	103784448	66203648	41227400	33184
837	13.802814	103784448	66203648	33141288	33184
838	13.461472	103784448	66203648	41929712	33184
839	17.031296	103784448	66203648	35970952	33184
840	19.463021	103784448	66727936	31916216	33184
841	18.475894	103784448	66727936	44007272	33184
842	3.32947	103784448	66727936	42285528	33184
843	5.08683	103784448	66727936	45608368	33184
844	8.754226	104054784	66727936	33859824	33184
845	8.703289	104054784	66727936	39394464	33184
846	10.181164	104054784	66727936	46042032	33184
847	13.74436	104054784	66727936	37440144	33184
848	13.457408	104054784	66727936	46313776	33184
849	16.6552	104054784	66727936	39952344	33184
850	19.680391	104054784	66727936	35577424	33184
851	21.504174	104054784	66727936	32911848	33184
852	5.356305	104054784	66727936	31414496	33184
853	5.082901	104054784	66727936	34799672	33184
854	6.926817	104054784	66727936	39327552	33184
855	8.551318	104054784	66727936	44978936	33184
856	12.080591	104325120	66727936	35694728	33184
857	11.999147	104325120	66727936	43610272	33184
858	15.648269	104325120	66727936	36679936	33184
859	15.351635	104325120	66727936	46877992	33184
860	19.075126	104325120	66727936	41777672	33184
861	20.800265	104325120	66727936	38490664	33184
862	3.429556	104325120	66727936	37994624	33184
863	5.071749	104325120	66727936	41416456	33184
864	6.859431	104325120	66727936	45982576	33184
865	10.980173	104595456	67252224	35542064	33184
866	10.163437	104595456	67252224	42408416	33184
867	14.516924	104595456	67252224	34659320	33184
868	14.044601	104595456	67252224	43808712	33184
869	17.496068	104595456	67252224	38129144	33184
870	20.075377	104595456	67252224	34370784	33184
871	19.102985	104595456	67252224	46973744	33184
872	3.474289	104595456	67252224	45590024	33184
873	7.410049	104865792	67252224	32985936	33184
874	7.133735	104865792	67252224	37600800	33184
875	8.788071	104865792	67252224	43372072	33184
876	12.695374	104865792	67252224	34465392	33184
877	12.266855	104865792	67252224	42558424	33184
878	16.440894	104865792	67252224	36077968	33184
879	15.653165	104865792	67252224	46511000	33184
880	19.631671	104865792	67252224	41778912	33184
881	21.659237	104865792	67252224	38858448	33184
882	3.498908	104865792	67252224	38728656	33184
883	5.254424	104865792	67252224	42237888	33184
884	6.974482	104865792	67252224	46910256	33184
885	11.208559	105136128	67776512	36528936	33184
886	10.656058	105136128	67776512	43548248	33184
887	14.415833	105136128	67776512	35842488	33184
888	14.135983	105136128	67776512	45189656	33184
889	17.946039	105136128	67776512	39663104	33184
890	20.248651	105136128	67776512	36031272	33184
891	23.093107	105136128	67776512	34117552	33184
892	5.539102	105136128	67776512	33221192	33184
893	5.272147	105136128	67776512	36753968	33184
894	7.250513	105136128	67776512	41466104	33184
895	9.059907	105136128	67776512	47362712	33184
896	12.763751	105406464	67776512	38247472	33184
897	12.582987	105406464	67776512	46511728	33184
898	16.471364	105406464	67776512	39767712	33184
899	18.658792	105406464	67776512	35103040	33184
900	17.898451	105406464	67776512	46938904	33184
901	22.460526	105406464	67776512	43661640	33184
902	3.558327	105406464	67776512	43275576	33184
903	5.320816	105406464	67776512	46848600	33184
904	9.215406	105676800	68300800	35537264	33184
905	9.14295	105676800	68300800	41495576	33184
906	13.347937	105676800	68300800	33105280	33184
907	12.967529	105676800	68300800	41455808	33184
908	18.419026	105676800	68300800	35472392	33184
909	16.930787	105676800	68300800	46233744	33184
910	20.796071	105676800	68300800	42012768	33184
911	22.367965	105676800	68300800	39586296	33184
912	3.617074	105947136	68300800	39963448	33184
913	5.407376	105947136	68300800	43569960	33184
914	7.633817	105947136	68300800	48380232	33184
915	11.322527	105947136	68300800	38126072	33184
916	10.870818	105947136	68300800	45365000	33184
917	14.94306	105947136	68300800	37773880	33184
918	15.084771	105947136	68300800	47419552	33184
919	18.40811	105947136	68300800	42169456	33184
920	21.40553	106217472	68825088	38831952	33184
921	23.221681	106217472	68825088	37056568	33184
922	3.653438	106217472	68825088	38024304	33184
923	5.484	106217472	68825088	41667056	33184
924	7.245435	106217472	68825088	46560192	33184
925	11.546347	106487808	68825088	36645656	33184
926	11.38868	106487808	68825088	43942112	33184
927	15.141244	106487808	68825088	36753352	33184
928	15.034346	106487808	68825088	46491680	33184
929	18.583369	106487808	68825088	41406216	33184
930	21.121621	106487808	68825088	38229248	33184
931	23.548471	106487808	68825088	36703464	33184
932	3.696927	106487808	68825088	37928936	33184
933	5.533079	106487808	68825088	41608504	33184
934	7.554109	106487808	68825088	46528504	33184
935	11.605197	106758144	68825088	36791944	33184
936	11.048139	106758144	68825088	44174216	33184
937	15.670373	106758144	68825088	37092112	33184
938	14.66815	106758144	68825088	46942608	33184
939	18.947561	106758144	69349376	41889656	33184
940	21.658674	106758144	69349376	38840440	33184
941	24.045633	106758144	69349376	37363776	33184
942	3.721662	106758144	69349376	38674696	33184
943	5.542574	106758144	69349376	42391232	33184
944	7.461267	106758144	69349376	47361768	33184
945	11.851403	107028480	69873664	37563600	33184
946	11.266171	107028480	69873664	45026992	33184
947	15.679448	107028480	69873664	37886848	33184
948	15.004384	107028480	69873664	47838600	33184
949	19.6929	107028480	69873664	42839048	33184
950	21.914311	107028480	69873664	39741576	33184
951	23.783169	107028480	69873664	38340768	33184
952	3.757732	107298816	69873664	39786488	33184
953	5.676078	107298816	69873664	43551504	33184
954	7.504299	107298816	69873664	48558352	33184
955	11.754083	107298816	69873664	38700976	33184
956	11.399434	107298816	69873664	46229432	33184
957	15.823167	107298816	69873664	39077728	33184
958	15.245303	107298816	69873664	49137792	33184
959	19.056249	107298816	69873664	44102248	33184
960	21.367549	107298816	69873664	40988832	33184
961	23.87901	107569152	69873664	39626256	33184
962	3.793422	107569152	69873664	41033120	33184
963	5.89229	107569152	69873664	44823232	33184
964	7.85532	107569152	69873664	49879064	33184
965	12.12345	107569152	70397952	40011752	33184
966	11.544773	107569152	70397952	47607776	33184
967	15.807902	107569152	70397952	40418952	33184
968	18.208225	107569152	70397952	35456480	33184
969	17.560987	107569152	70397952	46861888	33184
970	21.650614	107839488	70397952	43553456	33184
971	23.51557	107839488	70397952	41998056	33184
972	3.842328	107839488	70397952	43266496	33184
973	5.994034	107839488	70397952	47093488	33184
974	10.326883	107839488	70397952	36349984	33184
975	9.750061	107839488	70397952	42733760	33184
976	11.713932	107839488	70397952	50403760	33184
977	15.626724	107839488	70397952	42963264	33184
978	18.534731	108109824	70397952	37796016	33184
979	17.624017	108109824	70397952	49319264	33184
980	21.696346	108109824	70397952	45829488	33184
981	24.106522	108109824	70397952	44093448	33184
982	3.883275	108109824	70397952	45324600	33184
983	5.76895	108109824	70397952	49189600	33184
984	10.617174	108380160	70922240	38327400	33184
985	9.896251	108380160	70922240	44775904	33184
986	14.350577	108380160	70922240	36871848	33184
987	13.504713	108380160	70922240	45903840	33184
988	18.605715	108380160	70922240	40457368	33184
989	20.823421	108380160	70922240	37103408	33184
990	19.455349	108380160	70922240	50025248	33184
991	24.158157	108380160	70922240	47920888	33184
992	3.976164	108380160	70922240	48862152	33184
993	8.390721	108650496	70922240	36742192	33184
994	8.290203	108650496	70922240	41951608	33184
995	9.918662	108650496	70922240	48460232	33184
996	14.167757	108650496	70922240	40217864	33184
997	13.867775	108650496	70922240	49335888	33184
998	18.07006	108650496	70922240	43601160	33184
999	20.506171	108650496	70922240	39924080	33184
1000	23.113799	108650496	70922240	38047120	33184
