x	Duration	RSS	HeapTotal	HeapUsed	External
0	NA	98275328	63582208	14396488	33184
1	0.233627	98275328	63582208	14448792	33184
2	0.179971	98275328	63582208	14516768	33184
3	0.194243	98275328	63582208	14609480	33184
4	0.256562	98275328	63582208	14728600	33184
5	0.280468	98275328	63582208	14875888	33184
6	0.3281	98275328	63582208	15052032	33184
7	0.375362	98275328	63582208	15258264	33184
8	0.42663	98275328	63582208	15495848	33184
9	0.478274	98275328	63582208	15767224	33184
10	0.53243	98275328	63582208	16072696	33184
11	0.589584	98275328	63582208	16413456	33184
12	0.151057	98275328	63582208	16782776	33184
13	0.225111	98275328	63582208	16893088	33184
14	0.284229	98275328	63582208	17042384	33184
15	0.352925	98275328	63582208	17231888	33184
16	0.466885	98275328	63582208	17467160	33184
17	0.483868	98275328	63582208	17741400	33184
18	0.722162	98275328	63582208	18059424	33184
19	0.621104	98275328	63582208	18423328	33184
20	0.81631	98275328	63582208	18836856	33184
21	0.732258	98275328	63582208	19295912	33184
22	0.171612	98275328	63582208	19814592	33184
23	0.261592	98275328	63582208	19964288	33184
24	0.340323	98275328	63582208	20166088	33184
25	0.421383	98275328	63582208	20421264	33184
26	0.700302	98275328	63582208	20731512	33184
27	0.6142	98275328	63582208	21097560	33184
28	0.670158	98275328	63582208	21520640	33184
29	0.756536	98275328	63582208	22002016	33184
30	0.838349	98275328	63582208	22543936	33184
31	0.943793	98275328	63582208	23146520	33184
32	0.209663	98275328	63582208	23834688	33184
33	0.320096	98275328	63582208	24021176	33184
34	0.412977	98275328	63582208	24272024	33184
35	0.514029	98275328	63582208	24588528	33184
36	1.528701	98275328	63582208	24972376	33184
37	0.736291	98275328	63582208	25424328	33184
38	0.829944	98275328	63582208	25945544	33184
39	0.930503	98275328	63582208	26537264	33184
40	1.407006	98275328	63582208	27201640	33184
41	1.264225	98275328	63582208	27958216	33184
42	0.271604	98275328	63582208	28805800	33184
43	0.391726	98275328	63582208	29029056	33184
44	0.518948	98275328	63582208	29330056	33184
45	0.649943	98275328	63582208	29714088	33184
46	0.759925	98275328	63582208	30176128	33184
47	0.875795	98275328	63582208	30720240	33184
48	1.84192	98275328	63582208	15066440	33184
49	1.082275	98275328	63582208	15778432	33184
50	1.19502	98275328	63582208	16577104	33184
51	1.559497	98275328	63582208	17462808	33184
52	0.279886	98275328	63582208	18487640	33184
53	0.425121	98275328	63582208	18752968	33184
54	0.559475	98275328	63582208	19108952	33184
55	0.885552	98275328	63582208	19556904	33184
56	0.847235	98275328	63582208	20098408	33184
57	0.95882	98275328	63582208	20734264	33184
58	1.097963	98275328	63582208	21465728	33184
59	1.47171	98275328	63582208	22294096	33184
60	1.386923	98275328	63582208	23221376	33184
61	1.536234	98275328	63582208	24247872	33184
62	0.320185	98275328	63582208	25440336	33184
63	0.481229	98275328	63582208	25742472	33184
64	0.633675	98275328	63582208	26147480	33184
65	0.788057	98275328	63582208	26656712	33184
66	1.028947	98275328	63582208	27271792	33184
67	1.196799	98275328	63582208	27993480	33184
68	1.375002	98275328	63582208	28823120	33184
69	1.548517	98275328	63582208	29761704	33184
70	1.733612	98275328	63582208	30811472	33184
71	2.801229	98275328	63582208	15769792	33184
72	0.367607	98275328	63582208	17122016	33184
73	0.539577	98275328	63582208	17460904	33184
74	0.828998	98275328	63582208	17915632	33184
75	0.882989	98275328	63582208	18486128	33184
76	1.051742	98275328	63582208	19174840	33184
77	1.231397	98275328	63582208	19982376	33184
78	1.398506	98275328	63582208	20909936	33184
79	1.576448	98275328	63582208	21958896	33184
80	1.766751	98275328	63582208	23131592	33184
81	1.988354	98275328	63582208	24428904	33184
82	0.396889	98275328	63582208	25943496	33184
83	0.604747	98275328	63582208	26319096	33184
84	0.788931	98275328	63582208	26824432	33184
85	0.971071	98275328	63582208	27458384	33184
86	1.162363	98275328	63582208	28223880	33184
87	1.352788	98275328	63582208	29121656	33184
88	1.762899	98275328	63582208	30153112	33184
89	1.741038	98275328	63582208	31319128	33184
90	2.534933	98275328	63582208	16290712	33184
91	2.209041	98275328	63582208	17733000	33184
92	0.434737	98275328	63582208	19425184	33184
93	0.653869	98275328	63582208	19847352	33184
94	0.924779	98275328	63582208	20412408	33184
95	1.068117	98275328	63582208	21121664	33184
96	1.278029	98275328	63582208	21976920	33184
97	1.734037	98275328	63582208	22978728	33184
98	1.703124	98275328	63582208	24128408	33184
99	1.960769	98275328	63582208	25427168	33184
100	2.131934	98275328	63582208	26877248	33184
101	2.5622	98275328	63582208	28478888	33184
102	0.478003	98275328	63582208	30355272	33184
103	0.706103	98275328	63582208	30814224	33184
104	0.927569	98275328	63582208	31428392	33184
105	1.65312	98275328	63582208	15853248	33184
106	1.402599	98275328	63582208	16781968	33184
107	1.621312	98275328	63582208	17869672	33184
108	2.207131	98275328	63582208	19117488	33184
109	2.082388	98275328	63582208	20526728	33184
110	2.369763	98275328	63582208	22099480	33184
111	2.550674	98275328	63582208	23835992	33184
112	0.506875	98275328	63582208	25872480	33184
113	0.760428	98275328	63582208	26368216	33184
114	1.229874	98275328	63582208	27031384	33184
115	1.262405	98275328	63582208	27863280	33184
116	1.503696	98275328	63582208	28865616	33184
117	1.993692	98275328	63582208	30040848	33184
118	2.007637	98275328	63582208	31387472	33184
119	3.035521	98275328	63582208	16566424	33184
120	2.742302	98275328	63582208	18263984	33184
121	2.7538	98275328	63582208	20135616	33184
122	0.554441	98275328	63582208	22331408	33184
123	0.817089	98275328	63582208	22864376	33184
124	1.078903	98275328	63582208	23576688	33184
125	1.391835	98275328	63582208	24469984	33184
126	1.844269	98275328	63582208	25546040	33184
127	1.870243	98275328	63582208	26805448	33184
128	2.139867	98275328	63582208	28249568	33184
129	2.399098	98275328	63582208	29879632	33184
130	2.682779	98275328	63582208	31697752	33184
131	3.528636	98275328	63582208	17324232	33184
132	0.583449	98275328	63582208	19683952	33184
133	0.876168	98275328	63582208	20253296	33184
134	1.158654	98275328	63582208	21014648	33184
135	1.42956	98275328	63582208	21969360	33184
136	1.733978	98275328	63582208	23118944	33184
137	2.226158	98275328	63582208	24464472	33184
138	2.291319	98275328	63582208	26006872	33184
139	2.582282	98275328	63582208	27747328	33184
140	2.865643	98275328	63582208	29688264	33184
141	3.371249	98275328	63582208	31830544	33184
142	0.663437	98275328	63582208	17970208	33184
143	0.994603	98275328	63582208	18581848	33184
144	1.316546	98275328	63582208	19399688	33184
145	1.647107	98275328	63582208	20424816	33184
146	2.110228	98275328	63582208	21659104	33184
147	2.15544	98275328	63582208	23103176	33184
148	2.452919	98275328	63582208	24758280	33184
149	2.751604	98275328	63582208	26625800	33184
150	3.054316	98275328	63582208	28707832	33184
151	3.611355	98275328	63582208	31005768	33184
152	0.706263	98275328	63582208	17436736	33184
153	1.057896	98275328	63582208	18085176	33184
154	1.403914	98275328	63582208	18952072	33184
155	1.743545	98275328	63582208	20038552	33184
156	2.251072	98275328	63582208	21346448	33184
157	2.279047	98275328	63582208	22876408	33184
158	2.591317	98275328	63582208	24629672	33184
159	3.006679	98275328	63582208	26607576	33184
160	3.266738	98275328	63582208	28812232	33184
161	3.573338	98275328	63582208	31243896	33184
162	0.745637	98275328	63582208	17811544	33184
163	1.115636	98275328	63582208	18496840	33184
164	1.951702	98275328	63582208	19413840	33184
165	1.737131	98275328	63582208	20561712	33184
166	2.099551	98275328	63582208	21946640	33184
167	2.401974	98275328	63582208	23562528	33184
168	2.737255	98275328	63582208	25415736	33184
169	3.404967	98275328	63582208	27505072	33184
170	3.43588	98275328	63582208	29833040	33184
171	4.422012	98275328	63582208	16309920	33184
172	0.737044	98275328	63582208	19338536	33184
173	1.100644	98275328	63582208	20060680	33184
174	1.46029	98275328	63582208	21025720	33184
175	1.810516	98275328	63582208	22234928	33184
176	2.17256	98275328	63582208	23690096	33184
177	2.530918	98275328	63582208	25391840	33184
178	2.90884	98275328	63582208	27341456	33184
179	3.257676	98275328	63582208	29540168	33184
180	3.623319	98275328	63582208	31995432	33184
181	4.6368	98275328	63582208	18329896	33184
182	0.770167	98275328	63582208	21536576	33184
183	1.213736	98275328	63582208	22307992	33184
184	1.533183	98275328	63582208	23338752	33184
185	1.898293	98275328	63582208	24630136	33184
186	2.508248	98275328	63582208	26183880	33184
187	2.667712	98275328	63582208	28000664	33184
188	3.049067	98275328	63582208	30081840	33184
189	4.100089	98275328	63582208	16313128	33184
190	4.270944	98275328	63582208	18927488	33184
191	4.20828	98275328	63582208	21812928	33184
192	0.810692	98275328	63582208	25218248	33184
193	1.218139	98275328	63582208	26026536	33184
194	1.61329	98275328	63582208	27106464	33184
195	2.017512	98275328	63582208	28459312	33184
196	2.649345	98275328	63582208	30087600	33184
197	3.029362	98275328	63582208	31990272	33184
198	3.795296	98275328	63582208	17821528	33184
199	3.858918	98275328	63582208	20278632	33184
200	4.272263	98275328	63582208	23015648	33184
201	4.701497	98275328	63582208	26033912	33184
202	0.899736	98275328	63582208	29595768	33184
203	1.715545	98275328	63582208	30440752	33184
204	1.725609	98275328	63582208	31571296	33184
205	2.550299	98275328	63582208	16709592	33184
206	2.504291	98275328	63582208	18412072	33184
207	3.70609	98275328	63582208	20400920	33184
208	3.588762	98275328	63582208	22678456	33184
209	3.861247	98275328	63582208	25260704	33184
210	4.226506	98275328	63582208	28120328	33184
211	4.840109	98275328	63582208	31272768	33184
212	0.893526	98275328	63582208	18751528	33184
213	1.493468	98275328	63582208	19633368	33184
214	1.784743	98275328	63582208	20811432	33184
215	2.187551	98275328	63582208	22286952	33184
216	2.615163	98275328	63582208	24061560	33184
217	3.058032	98275328	63582208	26136000	33184
218	3.720657	98275328	63582208	28511480	33184
219	4.059512	98275328	63582208	31192576	33184
220	5.044731	98275328	63582208	17957088	33184
221	5.170829	98275328	63582208	21244168	33184
222	0.922343	98275328	63582208	25130168	33184
223	1.377954	98275328	63582208	26048760	33184
224	2.055543	98275328	63582208	27275888	33184
225	2.277268	98275328	63582208	28812696	33184
226	2.731261	98275328	63582208	30660936	33184
227	3.927243	98275328	63582208	16692792	33184
228	3.863945	98275328	63582208	19166592	33184
229	4.095344	98275328	63582208	21960584	33184
230	5.640318	98275328	63582208	25071432	33184
231	5.111516	98275328	63582208	28504000	33184
232	0.959495	98275328	63582208	32566352	33184
233	2.397802	98275328	63582208	17151880	33184
234	1.925234	98275328	63582208	18439648	33184
235	2.367148	98275328	63582208	20052232	33184
236	2.886389	98275328	63582208	21991368	33184
237	3.336109	98275328	63582208	24257792	33184
238	3.789886	98275328	63582208	26852744	33184
239	4.265062	98275328	63582208	29777480	33184
240	6.173616	98275328	63582208	17027856	33184
241	5.627744	98275328	63582208	20616824	33184
242	1.00746	98275328	63582208	24859240	33184
243	1.510267	98275328	63582208	25864232	33184
244	1.973515	98275328	63582208	27200768	33184
245	2.566661	98275328	63582208	28874424	33184
246	3.23466	98275328	63582208	30886848	33184
247	3.978234	98275328	63582208	17115456	33184
248	3.974623	98275328	63582208	19808280	33184
249	4.652711	98275328	63582208	22844384	33184
250	5.362583	98275328	63582208	26227472	33184
251	5.686808	98275328	63582208	29952184	33184
252	1.117069	98275328	63582208	18359136	33184
253	1.659586	98275328	63582208	19396768	33184
254	2.234816	98275328	63582208	20782488	33184
255	2.732407	98275328	63582208	22517560	33184
256	3.290565	98275328	63582208	24603632	33184
257	3.832787	98275328	63582208	27042912	33184
258	4.651296	98275328	63582208	29833888	33184
259	4.623794	98275328	63582208	32979168	33184
260	5.701337	98275328	63582208	20083608	33184
261	5.637108	98275328	63582208	23942144	33184
262	1.072634	98275328	63582208	28502368	33184
263	1.607866	98275328	63582208	29576792	33184
264	2.138128	98275328	63582208	31011656	33184
265	2.677432	98275328	63582208	32808104	33184
266	3.7662	98275328	63582208	18615640	33184
267	3.721873	98275328	63582208	21139400	33184
268	4.265239	98275328	63582208	24028536	33184
269	4.993823	98275328	63582208	27284120	33184
270	5.311268	98275328	63582208	30908472	33184
271	6.473307	98275328	63582208	18799688	33184
272	1.128426	98275328	63582208	23528016	33184
273	1.665278	98275328	63582208	24639304	33184
274	2.431499	98275328	63582208	26123128	33184
275	2.749624	98275328	63582208	27980880	33184
276	3.304755	98275328	63582208	30214320	33184
277	3.857624	98275328	63582208	32824184	33184
278	5.071721	98275328	63582208	19486312	33184
279	4.970962	98275328	63582208	22852280	33184
280	6.204181	98275328	63582208	26610464	33184
281	6.351904	98275328	63582208	30739312	33184
282	1.156975	98275328	63582208	19580552	33184
283	1.729869	98275328	63582208	20728608	33184
284	2.501104	98275328	63582208	22261608	33184
285	3.06721	98275328	63582208	24180664	33184
286	3.415003	98275328	63582208	26487712	33184
287	4.202577	98275328	63582208	29183368	33184
288	5.048824	98275328	63582208	32272200	33184
289	5.564925	98275328	63582208	19493192	33184
290	5.910411	98275328	63582208	23365248	33184
291	6.294928	98275328	63582208	27633416	33184
292	1.197272	98275328	63582208	32680568	33184
293	2.259516	98275328	63582208	17595696	33184
294	2.484697	98275328	63582208	19177672	33184
295	2.960752	98275328	63582208	21158136	33184
296	3.512315	98275328	63582208	23538696	33184
297	4.102558	98275328	63582208	26319960	33184
298	5.514826	98275328	63582208	29503448	33184
299	5.41192	98275328	63582208	33103272	33184
300	6.732546	98275328	63582208	20755096	33184
301	6.506144	98275328	63582208	25153064	33184
302	1.234466	98275328	63582208	30360136	33184
303	1.835037	98275328	63582208	31581672	33184
304	2.439844	98275328	63582208	33212672	33184
305	3.63957	98275328	63582208	18969696	33184
306	3.668471	98275328	63582208	21425376	33184
307	4.238211	98275328	63582208	24293200	33184
308	5.062321	98275328	63582208	27574784	33184
309	5.537521	98275328	63582208	31274344	33184
310	7.020063	98275328	63582208	19362792	33184
311	6.797764	98275328	63582208	23895656	33184
312	1.265608	98275328	63582208	29262472	33184
313	1.891248	98275328	63582208	30520864	33184
314	2.557541	98275328	63582208	32200904	33184
315	3.902173	98275328	63582208	18186192	33184
316	3.763659	98275328	63582208	20713848	33184
317	4.459362	98275328	63582208	23666904	33184
318	5.211041	98275328	63582208	27053720	33184
319	5.634726	98275328	63582208	30863744	33184
320	7.27312	98275328	63582208	19170096	33184
321	6.917433	98275328	63582208	23844872	33184
322	1.308434	98275328	63582208	29373504	33184
323	1.950274	98275328	63582208	30668712	33184
324	2.597884	98275328	63582208	32397832	33184
325	3.849341	98275328	63582208	18442184	33184
326	4.133689	98275328	63582208	21043496	33184
327	4.870507	98275328	63582208	24083144	33184
328	5.166511	98275328	63582208	27561112	33184
329	6.013854	98275328	63582208	31478960	33184
330	7.267764	98275328	63582208	19844896	33184
331	7.540687	98275328	63582208	24647816	33184
332	1.605101	98275328	63582208	30334088	33184
333	2.054014	98275328	63582208	31666112	33184
334	2.66901	98275328	63582208	33444456	33184
335	3.862173	98275328	63582208	19433240	33184
336	4.207212	98275328	63582208	22108280	33184
337	4.865426	98275328	63582208	25233152	33184
338	5.507148	98275328	63582208	28809136	33184
339	5.972728	98275328	63582208	32837864	33184
340	7.652293	98275328	63582208	21193016	33184
341	7.322076	98275328	63582208	26130864	33184
342	1.39388	98275328	63582208	31976944	33184
343	2.074319	98275328	63582208	33345752	33184
344	3.305969	98275328	63582208	18986512	33184
345	3.426885	98275328	63582208	21275024	33184
346	4.093164	98275328	63582208	24023584	33184
347	5.018878	98275328	63582208	27234360	33184
348	5.464906	98275328	63582208	30908576	33184
349	7.145848	98275328	63582208	19195440	33184
350	7.111227	98275328	63582208	23801144	33184
351	8.082826	98275328	63582208	28874696	33184
352	1.954619	98275328	63582208	18640968	33184
353	2.138879	98275328	63582208	20046544	33184
354	2.817998	98275328	63582208	21923040	33184
355	3.507206	98275328	63582208	24271512	33184
356	4.263372	98275328	63582208	27093744	33184
357	5.003314	98275328	63582208	30390320	33184
358	5.964685	98275328	63582208	34171080	33184
359	7.168586	98275328	63582208	22161456	33184
360	7.248946	98275328	63582208	26923648	33184
361	7.972513	98275328	63582208	32180480	33184
362	1.467167	98275328	63582208	22375680	33184
363	2.248658	98275328	63582208	23856352	33184
364	2.90865	98275328	63582208	25832776	33184
365	3.63735	98275328	63582208	28306136	33184
366	4.55035	98275328	63582208	31280808	33184
367	5.059233	98275328	63582208	34753600	33184
368	6.534427	98275328	63582208	22401352	33184
369	6.56101	98275328	63582208	26875576	33184
370	7.325815	98275328	63582208	31854128	33184
371	9.295617	98275328	63582208	21349000	33184
372	1.506411	98275328	63582208	27859008	33184
373	2.45762	98275328	63582208	29377048	33184
374	2.979746	98275328	63582208	31410768	33184
375	3.705691	98275328	63582208	33946720	33184
376	5.21682	98275328	63582208	20808608	33184
377	5.300272	98275328	63582208	24366008	33184
378	5.95642	98275328	63582208	28439608	33184
379	6.940049	98275328	63582208	33034464	33184
380	8.580384	98275328	63582208	22056376	33184
381	8.209058	98275328	63582208	27674072	33184
382	1.536998	98275328	63582208	34336984	33184
383	3.11019	98275328	63582208	19657216	33184
384	3.131796	98275328	63582208	21731744	33184
385	3.796119	98275328	63582208	24327848	33184
386	4.781998	98275328	63582208	27447128	33184
387	5.425958	98275328	63582208	31091656	33184
388	6.188643	98275328	63582208	35268776	33184
389	7.439448	98275328	63582208	23611904	33184
390	7.947159	98275328	63582208	28835336	33184
391	8.602269	98275328	63582208	34587776	33184
392	1.587838	98275328	63582208	25111720	33184
393	2.357031	98275328	63582208	26702688	33184
394	3.122998	98275328	63582208	28826288	33184
395	3.891154	98275328	63582208	31483672	33184
396	4.904126	98275328	63582208	34676624	33184
397	6.043564	98275328	63582208	22167472	33184
398	6.50411	98275328	63582208	26434128	33184
399	7.026193	98275328	63582208	31239512	33184
400	8.713606	98275328	63582208	20770360	33184
401	9.064654	98275328	63582208	26657888	33184
402	1.636029	98275328	63582208	33648056	33184
403	2.419261	98275328	63582208	35275864	33184
404	3.779333	98275328	63582208	21138032	33184
405	4.002213	98275328	63582208	23856672	33184
406	4.780992	98275328	63582208	27123320	33184
407	5.595252	98275328	63582208	30938576	33184
408	6.608335	98275328	63582208	35308000	33184
409	8.027597	98275328	63582208	23925248	33184
410	8.025413	98275328	63582208	29394432	33184
411	8.788355	98275328	63582208	35423272	33184
412	1.677716	98275328	63582208	26195976	33184
413	2.470025	98275328	63582208	27860608	33184
414	3.263627	98275328	63582208	30082384	33184
415	4.302335	98275328	63582208	32872152	33184
416	5.730347	98275328	63582208	20256768	33184
417	5.749777	98275328	63582208	24161208	33184
418	6.577491	98275328	63582208	28624176	33184
419	7.601092	98275328	63582208	33653008	33184
420	9.339535	98275328	63582208	23165288	33184
421	9.407517	98275328	63582208	29322744	33184
422	2.558392	98275328	63582208	20361464	33184
423	2.543584	98275328	63582208	22062920	33184
424	3.366139	98275328	63582208	24334768	33184
425	4.184525	98275328	63582208	27176256	33184
426	5.041039	98275328	63582208	30590200	33184
427	5.849469	98275328	63582208	34577136	33184
428	7.665985	98275328	63582208	22983640	33184
429	7.778656	98275328	63582208	28126576	33184
430	8.365106	98275328	63582208	33849896	33184
431	10.246263	98275328	63582208	24040288	33184
432	1.734085	98275328	63582208	31504760	33184
433	2.629483	98275328	63582208	33243040	33184
434	3.669015	98275328	63582208	35562968	33184
435	4.953671	98275328	63582208	22236784	33184
436	5.158182	98275328	63582208	25733728	33184
437	6.021691	98275328	63582208	29806520	33184
438	7.129187	98275328	63582208	34466624	33184
439	8.834239	98275328	63582208	23629584	33184
440	8.836468	98275328	63582208	29466560	33184
441	9.480977	98275328	63582208	35900888	33184
442	1.787712	98275328	63582208	27178408	33184
443	2.653024	98275328	63582208	28953560	33184
444	3.512017	98275328	63582208	31322664	33184
445	4.592191	98275328	63582208	34288216	33184
446	6.082953	98275328	63582208	21787368	33184
447	6.193428	98275328	63582208	25953744	33184
448	7.055201	98275328	63582208	30720672	33184
449	8.087588	98275328	63582208	36081840	33184
450	9.635971	98275328	63582208	25696640	33184
451	9.835828	98275328	63582208	32267208	33184
452	1.82182	98275328	63582208	24220520	33184
453	2.707658	98275328	63582208	26033032	33184
454	3.590999	98275328	63582208	28451136	33184
455	4.707653	98275328	63582208	31480856	33184
456	5.363933	98275328	63582208	35115504	33184
457	7.277201	98275328	63582208	23217368	33184
458	7.147814	98275328	63582208	28075104	33184
459	8.287544	98275328	63582208	33543048	33184
460	10.175235	98275328	63582208	23647552	33184
461	9.944526	98275328	63582208	30345312	33184
462	1.877085	98275328	63582208	22734368	33184
463	2.777812	98275328	63582208	24583096	33184
464	3.656062	98275328	63582208	27050256	33184
465	4.824083	98275328	63582208	30137064	33184
466	5.689305	98275328	63582208	33845272	33184
467	7.817233	98275328	63582208	22238680	33184
468	7.785445	98275328	63582208	27192552	33184
469	8.30534	98275328	63582208	32770880	33184
470	10.512916	98275328	63582208	23138040	33184
471	10.344834	98275328	63582208	29977856	33184
472	2.601439	98275328	63582208	21785088	33184
473	2.817689	98275328	63582208	23670680	33184
474	3.99339	98275328	63582208	26186824	33184
475	4.690899	98275328	63582208	29338728	33184
476	5.799549	98275328	63582208	33120504	33184
477	7.568815	98275328	63582208	21742456	33184
478	7.575645	98275328	63582208	26803584	33184
479	8.625029	98275328	63582208	32496608	33184
480	10.70485	98275328	63582208	23043224	33184
481	10.316881	98275328	63582208	30010544	33184
482	2.88558	98275328	63582208	21973448	33184
483	2.890039	98275328	63582208	23895808	33184
484	3.814786	98275328	63582208	26461128	33184
485	4.997726	98275328	63582208	29670616	33184
486	5.69558	98275328	63582208	33526624	33184
487	7.724274	98275328	63582208	22206592	33184
488	7.672969	98275328	63582208	27359264	33184
489	8.795439	98275328	63582208	33161736	33184
490	11.166358	98275328	63582208	23777768	33184
491	10.952331	98275328	63582208	30887056	33184
492	1.985902	98275328	63582208	23785136	33184
493	2.945697	98275328	63582208	25744208	33184
494	4.145415	98275328	63582208	28358584	33184
495	4.850732	98275328	63582208	31629544	33184
496	6.040778	98275328	63582208	35563040	33184
497	7.899619	98275328	63582208	24091104	33184
498	8.193666	98275328	63582208	29343320	33184
499	9.038413	98275328	63582208	35253056	33184
500	11.009691	98275328	63582208	25719632	33184
501	11.065305	98275328	63582208	32957056	33184
502	2.001401	98275328	63582208	25769080	33184
503	2.986471	98275328	63582208	27765024	33184
504	3.964808	98275328	63582208	30431640	33184
505	5.425028	98275328	63582208	33765688	33184
506	6.020492	98275328	63582208	37768792	33184
507	8.144248	98275328	63582208	26096176	33184
508	8.146527	98275328	63582208	31446096	33184
509	8.909319	98275328	63582208	37466192	33184
510	10.964612	98275328	63582208	27800400	33184
511	11.225503	98275328	63582208	35173640	33184
512	2.057057	98275328	63582208	27880368	33184
513	3.278793	98275328	63582208	29913192	33184
514	4.054837	98275328	63582208	32625784	33184
515	5.10347	98275328	63582208	36019304	33184
516	6.983065	98275328	63582208	24007288	33184
517	7.311764	98275328	63582208	28772744	33184
518	8.108945	98275328	63582208	34225312	33184
519	10.39464	98275328	63582208	24465672	33184
520	10.39631	98275328	63582208	31285272	33184
521	12.787219	98275328	63582208	23324640	33184
522	2.091341	98275328	63582208	32224032	33184
523	3.121319	98275328	63582208	34293712	33184
524	4.138262	98275328	63582208	37057264	33184
525	6.087023	98275328	63582208	24320176	33184
526	6.420478	98275328	63582208	28473128	33184
527	7.421888	98275328	63582208	33329744	33184
528	9.566608	98275328	63582208	23230504	33184
529	9.32325	98275328	63582208	29474816	33184
530	10.528583	98275328	63582208	36416272	33184
531	12.518566	98275328	63582208	27892264	33184
532	2.129121	98275328	63582208	36958904	33184
533	4.345507	98275328	63582208	22962496	33184
534	4.416438	98275328	63582208	25773232	33184
535	5.912121	98275328	63582208	29289848	33184
536	6.27658	98275328	63582208	33513568	33184
537	7.40307	98275328	63582208	38445352	33184
538	9.531263	98275328	63582208	27740664	33184
539	9.488981	98275328	63582208	34092208	33184
540	11.920153	98275328	63582208	25354144	33184
541	11.581503	98275328	63582208	33133336	33184
542	2.399751	98275328	63582208	26664264	33184
543	3.290934	98275328	63582208	28811384	33184
544	4.274059	98275328	63582208	31671296	33184
545	5.394719	98275328	63582208	35248976	33184
546	7.551069	98275328	63582208	23679424	33184
547	7.724008	98275328	63582208	28701016	33184
548	8.75124	98275328	63582208	34443456	33184
549	10.890202	98275328	63582208	25106800	33184
550	11.241717	98275328	63582208	32294224	33184
551	13.71309	98275328	63582208	24694488	33184
552	2.255019	98275328	63582208	34094784	33184
553	3.332803	98275328	63582208	36275568	33184
554	5.627295	98275328	63582208	23190624	33184
555	5.447193	98275328	63582208	26830248	33184
556	6.751717	98275328	63582208	31214824	33184
557	7.607781	98275328	63582208	36332320	33184
558	9.879641	98275328	63582208	26204968	33184
559	10.137874	98275328	63582208	32804600	33184
560	12.617511	98275328	63582208	24559992	33184
561	12.026544	98275328	63582208	32658592	33184
562	2.482188	98275328	63582208	26710504	33184
563	3.551715	98275328	63582208	28947736	33184
564	4.48129	98275328	63582208	31933408	33184
565	5.545619	98275328	63582208	35673872	33184
566	7.901764	98275328	63582208	24285040	33184
567	8.151835	98275328	63582208	29524504	33184
568	9.125948	98275328	63582208	35514408	33184
569	11.177375	98275328	63582208	26346632	33184
570	11.347665	98275328	63582208	33846952	33184
571	13.771468	98275328	63582208	26431216	33184
572	2.288905	98275328	63582208	36254648	33184
573	3.425002	98275328	63582208	38528712	33184
574	5.714387	98275328	63582208	25377856	33184
575	5.647005	98275328	63582208	29173552	33184
576	6.979515	98275328	63582208	33739624	33184
577	7.885733	98275328	63582208	39071904	33184
578	10.196487	98275328	63582208	28891624	33184
579	10.43042	98275328	63582208	35746112	33184
580	12.928566	98275328	63582208	27464160	33184
581	12.880543	98275328	63582208	35855776	33184
582	2.333257	98275328	63582208	29896912	33184
583	3.479014	98275328	63582208	32211680	33184
584	4.584659	98275328	63582208	35295400	33184
585	5.784382	98275328	63582208	39158632	33184
586	8.046936	98275328	63582208	27514312	33184
587	8.0641	98275328	63582208	32923072	33184
588	9.388725	98275328	63582208	39109184	33184
589	11.345564	98275328	63582208	29731480	33184
590	11.739066	98275328	63582208	37478488	33184
591	14.120305	98275328	63582208	29883136	33184
592	3.586206	98275328	63582208	23867672	33184
593	3.530179	98275328	63582208	26215328	33184
594	4.709547	98275328	63582208	29355848	33184
595	6.053218	98275328	63582208	33274456	33184
596	7.024422	98275328	63582208	37980848	33184
597	9.329596	98275328	63582208	27421808	33184
598	9.565511	98275328	63582208	33706392	33184
599	12.206871	98275328	63582208	25211128	33184
600	11.732418	98275328	63582208	33079576	33184
601	14.636841	98275328	63582208	26243680	33184
602	2.607908	98275328	63582208	36537912	33184
603	3.610401	98275328	63582208	38922376	33184
604	5.928897	98275328	63582208	25935624	33184
605	6.301284	98275328	63582208	29915664	33184
606	7.134751	98275328	63582208	34695480	33184
607	9.978048	98275328	63582208	24675104	33184
608	9.549352	98275328	63582208	31061464	33184
609	10.964234	98275328	63582208	38247056	33184
610	13.171602	98275328	63582208	30086936	33184
611	13.341533	98275328	63582208	38886864	33184
612	2.690744	98275328	63582208	33087912	33184
613	3.630263	98275328	63582208	35512808	33184
614	4.826542	98275328	63582208	38743408	33184
615	7.437517	98275328	63582208	26667344	33184
616	7.312088	98275328	63582208	31527160	33184
617	8.719895	98275328	63582208	37203640	33184
618	11.099451	98275328	63582208	27689504	33184
619	11.287982	98275328	63582208	34989112	33184
620	13.733337	98275328	63582208	27407480	33184
621	13.816535	98275328	63582208	36351584	33184
622	2.486151	98275328	63582208	31136032	33184
623	3.690992	98275328	63582208	33595520	33184
624	5.161967	98275328	63582208	36876680	33184
625	7.503785	98275328	63582208	25146736	33184
626	7.655613	98275328	63582208	30074744	33184
627	8.63052	98275328	63582208	35828296	33184
628	11.394209	98275328	63582208	26660352	33184
629	11.529273	98275328	63582208	34070008	33184
630	13.960303	98275328	63582208	26812984	33184
631	13.773836	98275328	63582208	35880264	33184
632	2.532758	98275328	63582208	30871936	33184
633	3.745294	98275328	63582208	33366904	33184
634	4.970993	98275328	63582208	36695760	33184
635	6.486823	98275328	63582208	40864672	33184
636	8.712376	98275328	63582208	29526952	33184
637	8.810734	98275328	63582208	35365176	33184
638	11.71033	98275328	63582208	26356928	33184
639	11.582459	98275328	63582208	33874024	33184
640	14.34286	98275328	63582208	26743648	33184
641	14.304691	98275328	63582208	35946488	33184
642	2.569121	98275328	63582208	31170016	33184
643	3.810754	98275328	63582208	33702040	33184
644	5.08965	98275328	63582208	37079912	33184
645	8.01471	98275328	63582208	25514824	33184
646	7.59849	98275328	63582208	30589424	33184
647	9.089897	98275328	63582208	36513784	33184
648	11.512558	98275328	63582208	27494776	33184
649	11.697873	98275328	63582208	35123208	33184
650	14.608546	98275328	63582208	28035648	33184
651	14.312297	98275328	63582208	37372792	33184
652	2.604361	98275328	63582208	32539968	33184
653	3.984965	98275328	63582208	35108616	33184
654	5.345388	98275328	63582208	38546704	33184
655	7.886948	98275328	63582208	26912040	33184
656	8.143096	98275328	63582208	32060920	33184
657	9.519685	98275328	63582208	38079368	33184
658	11.920205	98275328	63582208	28984456	33184
659	11.709984	98275328	63582208	36724864	33184
660	15.019171	98275328	63582208	29542048	33184
661	14.450335	98275328	63582208	39021816	33184
662	2.640484	98275328	63582208	34174752	33184
663	3.921919	98275328	63582208	36780216	33184
664	5.808901	98275328	63582208	40258840	33184
665	7.700765	98275328	63582208	28460888	33184
666	8.039019	98275328	63582208	33687056	33184
667	9.388437	98275328	63582208	39782928	33184
668	11.884918	98275328	63582208	30629304	33184
669	12.008824	98275328	63582208	38477616	33184
670	14.739342	98275328	63582208	31193584	33184
671	14.409349	98275328	63582208	40815496	33184
672	2.678566	98275328	63582208	35921960	33184
673	3.998551	98275328	63582208	38564128	33184
674	6.675164	98275328	63582208	26189144	33184
675	6.973493	98275328	63582208	30598440	33184
676	8.478663	98275328	63582208	35899328	33184
677	11.142647	98275328	63582208	26463200	33184
678	11.181014	98275328	63582208	33533664	33184
679	12.30558	98275328	63582208	41492504	33184
680	14.774186	98275328	63582208	33983744	33184
681	17.024749	98275328	63582208	28425304	33184
682	2.854487	98275328	63582208	39996448	33184
683	5.817189	98275328	63582208	26656632	33184
684	5.868568	98275328	63582208	30230808	33184
685	7.181088	98275328	63582208	34706488	33184
686	8.154453	98275328	63582208	40076736	33184
687	10.948294	98275328	63582208	30337512	33184
688	10.97148	98275328	63582208	37507096	33184
689	14.178776	98275328	63582208	29817448	33184
690	13.823782	98275328	63582208	38796352	33184
691	16.351781	98275328	63582208	32691920	33184
692	2.840969	98275328	63582208	29289800	33184
693	4.1541	98275328	63582208	32005760	33184
694	5.457773	98275328	63582208	35636344	33184
695	7.028169	98275328	63582208	40169392	33184
696	9.726655	98275328	63582208	29594312	33184
697	9.603362	98275328	63582208	35953232	33184
698	12.897693	98275328	63582208	27700400	33184
699	12.795865	98275328	63582208	35880200	33184
700	15.662634	98275328	63582208	29470848	33184
701	15.199234	98275328	63582208	39489528	33184
702	2.95246	98275328	63582208	35386840	33184
703	4.169174	98275328	63582208	38143208	33184
704	5.639995	98275328	63582208	41815712	33184
705	8.853501	98275328	63582208	30189616	33184
706	9.243749	98275328	63582208	35707432	33184
707	10.343583	98275328	63582208	42153488	33184
708	12.547602	98275328	63582208	33167960	33184
709	12.787947	98275328	63582208	41458496	33184
710	15.700193	98275328	63582208	34437320	33184
711	17.28252	98275328	63582208	29316144	33184
712	2.84742	98275328	63582208	41379088	33184
713	5.86676	98275328	63582208	28033128	33184
714	5.86443	98275328	63582208	31773400	33184
715	7.025072	98275328	63582208	36461080	33184
716	8.641806	98275328	63582208	42101816	33184
717	11.098697	98275328	63582208	32469032	33184
718	11.447865	98275328	63582208	40013848	33184
719	14.231933	98275328	63582208	32522752	33184
720	14.786068	98275328	63582208	41985424	33184
721	17.082004	98275328	63582208	36100744	33184
722	2.887658	98275328	63582208	32980768	33184
723	4.286112	98275328	63582208	35861688	33184
724	5.917265	98275328	63582208	39698016	33184
725	8.755966	98275328	63582208	28614032	33184
726	8.978503	98275328	63582208	34378928	33184
727	9.963214	98275328	63582208	41106760	33184
728	12.924459	98275328	63582208	32698056	33184
729	13.12384	98275328	63582208	41358696	33184
730	15.906843	98275328	63582208	34809232	33184
731	18.161177	98275328	63582208	30108704	33184
732	2.945072	98275328	63582208	42734424	33184
733	5.577625	98275328	63582208	29407040	33184
734	6.223829	98275328	63582208	33305352	33184
735	7.482263	98275328	63582208	38180152	33184
736	10.791556	98275328	63582208	28415072	33184
737	10.373832	98275328	63582208	35239248	33184
738	11.544757	98275328	63582208	43029784	33184
739	14.404447	98275328	63582208	35447792	33184
740	16.727968	98275328	63582208	29884224	33184
741	16.704046	98275328	63582208	40617976	33184
742	3.112364	98275328	63582208	37333160	33184
743	4.434387	98275328	63582208	40282456	33184
744	7.561001	98275328	63582208	28357448	33184
745	7.414913	98275328	63582208	33283928	33184
746	8.775319	98275328	63582208	39193312	33184
747	12.225788	98275328	63582208	30256328	33184
748	12.546772	98275328	63582208	38145688	33184
749	15.340904	98275328	63582208	31334368	33184
750	14.657662	98275328	63582208	41237560	33184
751	18.278117	98275328	63582208	36016944	33184
752	3.09128	98275328	63582208	33563944	33184
753	4.526729	98275328	63582208	36555112	33184
754	6.154029	98275328	63582208	40538616	33184
755	9.360531	98275328	63582208	29662992	33184
756	8.909777	98275328	63582208	35647664	33184
757	10.481951	98275328	63582208	42632008	33184
758	13.454238	98275328	63582208	34391424	33184
759	13.599269	98275328	63582208	43382952	33184
760	16.273446	98275328	63582208	37038768	33184
761	18.732778	98275328	63582208	32543376	33184
762	4.534705	98275328	63582208	29396552	33184
763	4.571534	98275328	63582208	32419440	33184
764	6.220823	98275328	63582208	36456032	33184
765	7.917394	98275328	63582208	41510784	33184
766	10.590233	98275328	64106496	31594016	33184
767	10.819533	98275328	64106496	38671712	33184
768	14.060616	98275328	64106496	31081000	33184
769	13.593909	98275328	64106496	40198800	33184
770	16.894959	98275328	64106496	34454744	33184
771	19.440044	98545664	64106496	30493192	33184
772	3.297154	98545664	64106496	43732800	33184
773	6.113936	98545664	64106496	30556288	33184
774	6.427328	98545664	64106496	34644288	33184
775	7.99857	98545664	64106496	39752816	33184
776	11.297665	98545664	64106496	30203248	33184
777	10.90453	98545664	64106496	37386144	33184
778	14.149626	98545664	64106496	30128520	33184
779	14.167963	98545664	64106496	39367984	33184
780	17.121398	98545664	64630784	33902048	33184
781	19.762737	98545664	64630784	30188224	33184
782	3.115369	98545664	64630784	43608840	33184
783	6.292838	98816000	64630784	30543504	33184
784	6.229829	98816000	64630784	34674416	33184
785	8.568981	98816000	64630784	39852128	33184
786	12.064012	98816000	64630784	30418320	33184
787	11.314623	98816000	64630784	37697464	33184
788	14.586392	98816000	64630784	30524080	33184
789	14.414335	98816000	64630784	39845912	33184
790	17.599655	98816000	64630784	34446432	33184
791	19.926533	99086336	64630784	30877264	33184
792	3.181804	99086336	64630784	44433472	33184
793	6.337365	99086336	64630784	31330136	33184
794	6.304484	99086336	64630784	35509936	33184
795	7.995548	99086336	64630784	40737744	33184
796	11.239628	99086336	64630784	31307488	33184
797	11.256165	99086336	64630784	38635240	33184
798	14.711203	99086336	64630784	31480064	33184
799	14.092404	99086336	64630784	40912056	33184
800	17.936386	99086336	64630784	35533664	33184
801	19.855144	99356672	65155072	31975280	33184
802	4.670189	99356672	65155072	29591808	33184
803	4.988506	99356672	65155072	32761888	33184
804	6.425642	99356672	65155072	36990832	33184
805	8.151783	99356672	65155072	42292688	33184
806	11.552879	99356672	65155072	32731152	33184
807	11.286707	99356672	65155072	40144816	33184
808	14.453817	99356672	65155072	32918640	33184
809	14.70493	99356672	65155072	42478008	33184
810	17.977556	99627008	65155072	37030928	33184
811	20.092504	99627008	65155072	33426016	33184
812	4.678817	99627008	65155072	31083344	33184
813	4.814767	99627008	65155072	34307384	33184
814	6.434141	99627008	65155072	38585536	33184
815	8.334312	99627008	65155072	43936104	33184
816	11.585631	99627008	65679360	34292000	33184
817	11.436193	99627008	65679360	41807576	33184
818	15.030467	99627008	65679360	34460832	33184
819	14.688302	99627008	65679360	44120432	33184
820	17.595969	99897344	65679360	38650872	33184
821	20.161862	99897344	65679360	34949080	33184
822	3.26807	99897344	65679360	34078840	33184
823	5.191041	99897344	65679360	37322584	33184
824	6.704891	99897344	65679360	41649728	33184
825	10.016957	99897344	65679360	31322144	33184
826	9.752402	99897344	65679360	37821168	33184
827	11.538306	99897344	65679360	45406632	33184
828	14.873648	99897344	65679360	37731592	33184
829	16.973876	100167680	65679360	32159640	33184
830	16.459772	100167680	65679360	43015208	33184
831	20.048988	100167680	65679360	38899880	33184
832	3.310062	100167680	65679360	37589944	33184
833	5.214112	100167680	65679360	40870504	33184
834	6.545936	100167680	65679360	45248520	33184
835	9.966499	100167680	66203648	34530656	33184
836	9.862593	100167680	66203648	41102624	33184
837	13.70569	100167680	66203648	33017872	33184
838	13.373984	100438016	66203648	41806296	33184
839	16.603012	100438016	66203648	35848784	33184
840	19.472285	100438016	66203648	31794232	33184
841	18.329908	100438016	66203648	43885040	33184
842	3.352034	100438016	66203648	42163592	33184
843	4.998337	100438016	66203648	45486432	33184
844	8.656598	100438016	66203648	33738656	33184
845	8.516691	100438016	66203648	39273296	33184
846	10.468161	100438016	66203648	45920864	33184
847	13.14054	100438016	66203648	37320936	33184
848	13.853565	100708352	66203648	46193672	33184
849	16.44918	100708352	66203648	39833128	33184
850	19.107101	100708352	66203648	35458800	33184
851	21.08149	100708352	66203648	32793736	33184
852	4.990052	100708352	66203648	31297400	33184
853	5.058816	100708352	66203648	34682616	33184
854	7.203806	100708352	66203648	39209520	33184
855	8.64167	100708352	66203648	44860904	33184
856	12.012993	100978688	66727936	35578664	33184
857	11.998574	100978688	66727936	43494224	33184
858	15.143514	100978688	66727936	36564464	33184
859	15.618473	100978688	66727936	46762088	33184
860	18.410636	100978688	66727936	41662360	33184
861	20.826027	100978688	66727936	38375944	33184
862	3.667316	100978688	66727936	37880200	33184
863	5.331726	100978688	66727936	41302032	33184
864	6.815986	100978688	66727936	45868152	33184
865	10.346171	101249024	66727936	35432552	33184
866	10.29001	101249024	66727936	42294464	33184
867	14.067682	101249024	66727936	34547248	33184
868	14.077173	101249024	66727936	43697128	33184
869	17.305113	101249024	66727936	38017144	33184
870	19.656238	101249024	66727936	34259720	33184
871	19.109966	101249024	66727936	46862336	33184
872	3.473214	101249024	66727936	45500680	33184
873	6.878706	101249024	66727936	32898128	33184
874	6.85648	101249024	66727936	37512064	33184
875	8.802059	101249024	66727936	43291528	33184
876	12.676075	101519360	67252224	34386392	33184
877	12.12679	101519360	67252224	42476688	33184
878	16.184795	101519360	67252224	35988000	33184
879	15.781819	101519360	67252224	46419064	33184
880	19.139442	101519360	67776512	41685312	33184
881	21.527828	101519360	67776512	38750944	33184
882	3.50894	101519360	67776512	38621448	33184
883	5.237113	101519360	67776512	42130680	33184
884	7.012354	101519360	67776512	46803048	33184
885	10.589456	101789696	67776512	36423560	33184
886	10.703675	101789696	67776512	43441512	33184
887	14.4189	101789696	67776512	35737112	33184
888	13.926031	101789696	67776512	45084280	33184
889	17.892076	101789696	67776512	39561376	33184
890	20.25553	101789696	67776512	35927392	33184
891	22.444097	101789696	67776512	34014112	33184
892	5.164406	101789696	67776512	33118456	33184
893	5.27277	101789696	67776512	36654464	33184
894	7.501621	101789696	67776512	41366552	33184
895	9.011893	101789696	67776512	47263744	33184
896	12.47059	102060032	67776512	38144816	33184
897	12.846762	102060032	67776512	46409072	33184
898	16.205228	102060032	67776512	39666240	33184
899	19.123467	102060032	67776512	35004080	33184
900	17.848281	102060032	67776512	46839632	33184
901	21.153032	102060032	68300800	43562664	33184
902	3.65533	102060032	68300800	43177192	33184
903	5.33456	102060032	68300800	46750216	33184
904	9.137253	102330368	68300800	35440496	33184
905	9.403169	102330368	68300800	41397664	33184
906	13.017913	102330368	68300800	33009088	33184
907	12.712915	102330368	68300800	41358960	33184
908	16.368169	102330368	68300800	35376600	33184
909	16.537974	102330368	68300800	46137488	33184
910	19.487247	102330368	68300800	41917104	33184
911	22.18976	102330368	68300800	39491672	33184
912	3.620092	102330368	68300800	39869400	33184
913	5.409887	102330368	68300800	43478096	33184
914	7.839361	102330368	68300800	48288368	33184
915	10.896219	102600704	68300800	38034088	33184
916	10.866572	102600704	68300800	45270696	33184
917	14.918201	102600704	68300800	37681496	33184
918	14.476078	102600704	68300800	47323352	33184
919	18.01924	102600704	68300800	41914104	33184
920	20.348263	102600704	68300800	38414232	33184
921	22.958133	102600704	68825088	36617464	33184
922	3.666738	102600704	68825088	37599000	33184
923	6.267452	102600704	68825088	41244200	33184
924	7.485578	102871040	68825088	46103616	33184
925	11.432684	102871040	68825088	36444952	33184
926	10.934907	102871040	68825088	43748432	33184
927	15.392577	103141376	68825088	36716032	33184
928	14.874842	103141376	68825088	46453992	33184
929	18.448878	103141376	68825088	41337872	33184
930	20.904212	103141376	68825088	38157168	33184
931	23.739739	103141376	68825088	36615144	33184
932	3.734255	103141376	68825088	37840912	33184
933	5.740687	103141376	68825088	41520480	33184
934	7.590236	103141376	68825088	46440480	33184
935	11.800966	103411712	69349376	36705648	33184
936	11.276381	103411712	69349376	44086664	33184
937	15.08374	103411712	69349376	37006504	33184
938	14.916614	103411712	69349376	46856416	33184
939	18.65565	103411712	69349376	41804472	33184
940	20.959198	103411712	69349376	38755888	33184
941	23.636833	103411712	69349376	37279064	33184
942	3.74377	103411712	69349376	38590840	33184
943	5.797689	103411712	69349376	42323384	33184
944	7.658617	103411712	69349376	47294024	33184
945	11.459327	103682048	69349376	37479656	33184
946	11.430807	103682048	69349376	44943048	33184
947	15.183314	103682048	69349376	37804944	33184
948	15.159678	103682048	69349376	47756016	33184
949	18.634031	103682048	69349376	42757056	33184
950	21.375819	103682048	69349376	39660176	33184
951	23.296794	103682048	69349376	38259976	33184
952	3.767229	103682048	69349376	39705680	33184
953	6.077172	103682048	69349376	43470696	33184
954	7.708211	103682048	69349376	48477544	33184
955	11.49458	103952384	69873664	38622000	33184
956	11.258222	103952384	69873664	46149096	33184
957	15.25618	103952384	69873664	38999416	33184
958	15.257838	103952384	69873664	49058816	33184
959	19.23154	103952384	69873664	44023864	33184
960	21.987669	103952384	69873664	40911040	33184
961	24.643127	103952384	69873664	39552264	33184
962	3.821019	104222720	69873664	40959496	33184
963	5.701736	104222720	69873664	44749536	33184
964	8.085845	104222720	69873664	49815592	33184
965	11.866887	104222720	69873664	39972592	33184
966	11.593163	104222720	69873664	47571048	33184
967	15.197261	104222720	69873664	40390960	33184
968	18.336487	104493056	69873664	35417144	33184
969	17.215693	104493056	69873664	46822184	33184
970	21.837613	104493056	69873664	43514048	33184
971	23.503879	104493056	69873664	41959760	33184
972	3.939481	104493056	69873664	43227976	33184
973	6.005952	104493056	69873664	47054968	33184
974	9.906518	104493056	70397952	36312976	33184
975	9.593389	104493056	70397952	42696720	33184
976	11.703372	104493056	70397952	50365712	33184
977	15.390611	104763392	70397952	42934824	33184
978	18.178451	104763392	70397952	37768544	33184
979	17.497151	104763392	70397952	49283368	33184
980	21.105139	104763392	70397952	45793688	33184
981	23.709778	104763392	70922240	44058448	33184
982	3.906519	104763392	70922240	45289688	33184
983	5.786866	104763392	70922240	49154688	33184
984	10.069937	105033728	70922240	38292960	33184
985	10.121149	105033728	70922240	44741464	33184
986	14.157979	105033728	70922240	36839000	33184
987	13.830329	105033728	70922240	45871056	33184
988	17.852182	105033728	70922240	40424584	33184
989	20.651414	105033728	70922240	37071552	33184
990	20.37756	105033728	70922240	49993568	33184
991	23.639448	105033728	70922240	47888992	33184
992	3.927009	105033728	70922240	48830848	33184
993	8.054617	105304064	70922240	36712256	33184
994	7.91751	105304064	70922240	41920776	33184
995	10.456169	105304064	70922240	48429400	33184
996	14.694108	105304064	70922240	40188664	33184
997	14.055333	105304064	70922240	49306624	33184
998	17.74742	105304064	70922240	43572576	33184
999	20.554491	105304064	71446528	39896296	33184
1000	23.151446	105304064	71446528	38019744	33184
