x	Duration	RSS	HeapTotal	HeapUsed	External
0	NA	96325632	62009344	14392528	33184
1	0.467697	96325632	62009344	14444832	33184
2	0.413021	96325632	62009344	14512808	33184
3	0.467743	96325632	62009344	14605520	33184
4	0.555839	96325632	62009344	14724640	33184
5	0.950087	96325632	62009344	14871944	33184
6	1.949755	96325632	62009344	15049104	33184
7	0.918374	96325632	62009344	15255336	33184
8	1.035858	96325632	62009344	15492888	33184
9	1.213251	96325632	62009344	15772664	33184
10	1.293464	96325632	62009344	16078136	33184
11	1.07559	96325632	62009344	16418912	33184
12	0.159754	96325632	62009344	16788216	33184
13	0.234926	96325632	62009344	16898528	33184
14	0.300905	96325632	62009344	17047824	33184
15	0.401981	96325632	62009344	17241144	33184
16	0.429989	96325632	62009344	17472600	33184
17	0.480019	96325632	62009344	17746840	33184
18	0.592588	96325632	62009344	18064848	33184
19	0.611822	96325632	62009344	18428768	33184
20	0.682337	96325632	62009344	18839928	33184
21	0.75899	96325632	62009344	19299696	33184
22	0.182543	96325632	62009344	19819232	33184
23	0.275223	96325632	62009344	19969120	33184
24	0.574591	96325632	62009344	20171176	33184
25	0.445378	96325632	62009344	20426704	33184
26	0.52708	96325632	62009344	20737376	33184
27	0.790762	96325632	62009344	21103888	33184
28	0.709967	96325632	62009344	21527456	33184
29	1.003928	96325632	62009344	22019920	33184
30	0.877872	96325632	62009344	22561704	33184
31	0.946202	96325632	62009344	23164232	33184
32	0.398859	96325632	62009344	23852912	33184
33	0.364156	96325632	62009344	24039400	33184
34	0.424849	96325632	62009344	24290248	33184
35	0.518218	96325632	62009344	24606720	33184
36	0.615486	96325632	62009344	24990528	33184
37	0.769787	96325632	62009344	25442432	33184
38	1.142383	96325632	62009344	25963648	33184
39	0.943075	96325632	62009344	26555320	33184
40	1.095213	96325632	62009344	27219712	33184
41	1.215836	96591872	62009344	27957048	33184
42	0.299698	96591872	62009344	28823912	33184
43	0.376383	96591872	62009344	29047168	33184
44	0.481701	96591872	62009344	29348192	33184
45	0.597786	96591872	62009344	29729552	33184
46	0.710965	96591872	62009344	30191624	33184
47	0.902659	96591872	62009344	30735704	33184
48	1.688858	96591872	62009344	15081936	33184
49	1.17478	96591872	62009344	15793896	33184
50	1.278367	96591872	62009344	16592792	33184
51	1.329182	96591872	62009344	17478520	33184
52	0.474861	96591872	62009344	18503352	33184
53	0.450563	96591872	62009344	18768680	33184
54	0.557077	96591872	62009344	19124680	33184
55	0.681896	96591872	62009344	19572616	33184
56	0.817032	96591872	62009344	20114120	33184
57	0.975835	96591872	62009344	20749984	33184
58	1.210555	96591872	62009344	21481480	33184
59	1.348755	96591872	62009344	22309688	33184
60	1.513721	96591872	62009344	23236992	33184
61	1.654388	96591872	62009344	24263432	33184
62	0.345424	96591872	62009344	25455928	33184
63	0.712763	96591872	62009344	25758064	33184
64	0.693824	96591872	62009344	26163072	33184
65	0.869698	96591872	62009344	26674936	33184
66	0.932979	96591872	62009344	27290032	33184
67	1.089672	96591872	62009344	28011792	33184
68	1.344018	96591872	62009344	28841408	33184
69	1.434563	96591872	62009344	29782360	33184
70	1.559985	96591872	62009344	30831728	33184
71	2.539029	96591872	62009344	15790240	33184
72	0.359349	96591872	62009344	17141808	33184
73	0.534349	96591872	62009344	17480600	33184
74	0.697991	96591872	62009344	17934568	33184
75	0.875194	96591872	62009344	18505496	33184
76	1.034403	96591872	62009344	19193952	33184
77	1.208674	96591872	62009344	20001208	33184
78	1.553205	96591872	62009344	20930608	33184
79	1.550816	96591872	62009344	21979088	33184
80	1.722055	96591872	62009344	23151304	33184
81	2.157114	96591872	62009344	24448152	33184
82	0.409798	96591872	62009344	25962256	33184
83	0.593022	96591872	62009344	26337768	33184
84	0.833366	96591872	62009344	26842920	33184
85	1.036446	96591872	62009344	27476696	33184
86	1.242326	96591872	62009344	28241960	33184
87	1.439213	96591872	62009344	29139464	33184
88	1.644356	96591872	62009344	30170352	33184
89	1.85387	96591872	62009344	31335952	33184
90	2.586603	96591872	62009344	16305944	33184
91	2.161938	96591872	62009344	17747816	33184
92	0.433242	96591872	62009344	19439592	33184
93	0.647929	96591872	62009344	19861624	33184
94	0.8454	96591872	62009344	20426528	33184
95	1.118197	96591872	62009344	21135584	33184
96	1.481313	96591872	62009344	21990544	33184
97	1.47163	96591872	62009344	22992056	33184
98	1.678824	96591872	62009344	24141376	33184
99	1.929736	96591872	62009344	25439920	33184
100	2.123883	96591872	62009344	26889512	33184
101	2.329685	96591872	62009344	28490624	33184
102	0.467144	96591872	62009344	30366600	33184
103	0.70007	96591872	62009344	30825408	33184
104	0.92242	96591872	62009344	31439376	33184
105	1.734893	96591872	62009344	15863952	33184
106	1.478897	96591872	62009344	16794120	33184
107	1.73192	96591872	62009344	17881536	33184
108	1.940285	96591872	62009344	19129000	33184
109	2.113186	96591872	62009344	20537872	33184
110	2.349111	96591872	62009344	22110104	33184
111	2.728607	96591872	62009344	23846248	33184
112	0.520112	96591872	62009344	25882952	33184
113	0.755102	96591872	62009344	26378560	33184
114	0.994815	96591872	62009344	27041688	33184
115	1.237008	96591872	62009344	27873608	33184
116	1.702979	96591872	62009344	28875728	33184
117	1.910474	96591872	62009344	30050704	33184
118	2.034564	96591872	62009344	31397824	33184
119	2.9442	96591872	62009344	16576416	33184
120	2.476771	96591872	62009344	18271392	33184
121	3.154529	96591872	62009344	20142568	33184
122	0.542427	96591872	62009344	22337816	33184
123	0.810853	96591872	62009344	22870256	33184
124	1.063083	96591872	62009344	23582368	33184
125	1.397924	96591872	62009344	24475480	33184
126	1.590794	96591872	62009344	25551312	33184
127	2.191495	96591872	62009344	26811128	33184
128	2.111424	96591872	62009344	28254976	33184
129	2.433201	96591872	62009344	29884632	33184
130	2.644707	96591872	62009344	31702336	33184
131	3.61955	96591872	62009344	17329064	33184
132	0.578598	96591872	62009344	19688424	33184
133	0.925322	96591872	62009344	20257656	33184
134	1.142391	96591872	62009344	21018872	33184
135	1.419142	96591872	62009344	21974552	33184
136	1.764017	96591872	62009344	23123912	33184
137	1.985349	96591872	62009344	24469080	33184
138	2.648978	96591872	62009344	26011112	33184
139	2.756835	96591872	62009344	27751184	33184
140	2.832175	96591872	62009344	29691608	33184
141	3.140269	96591872	62009344	31832560	33184
142	0.621397	96591872	62009344	17971296	33184
143	0.931131	96591872	62009344	18582920	33184
144	1.222497	96591872	62009344	19400552	33184
145	1.512185	96591872	62009344	20425488	33184
146	1.816545	96591872	62009344	21659512	33184
147	2.106266	96591872	62009344	23103264	33184
148	2.630496	96591872	62009344	24758104	33184
149	2.742357	96591872	62009344	26625336	33184
150	3.016862	96591872	62009344	28706808	33184
151	3.333685	96591872	62009344	31002944	33184
152	0.654028	96591872	62009344	17437552	33184
153	0.98535	96591872	62009344	18085904	33184
154	1.287908	96591872	62009344	18952656	33184
155	1.665343	96591872	62009344	20038920	33184
156	1.937747	96591872	62009344	21346528	33184
157	2.233908	96591872	62009344	22876312	33184
158	2.571995	96591872	62009344	24629248	33184
159	2.896938	96591872	62009344	26606792	33184
160	3.219254	96591872	62009344	28810992	33184
161	3.76612	96591872	62009344	31242056	33184
162	0.694297	96591872	62009344	17813008	33184
163	1.032585	96591872	62009344	18498184	33184
164	1.358089	96591872	62009344	19413992	33184
165	1.703457	96591872	62009344	20561664	33184
166	2.329111	96591872	62009344	21942976	33184
167	2.447296	96591872	62009344	23561896	33184
168	2.708744	96591872	62009344	25413024	33184
169	3.051889	96591872	62009344	27500920	33184
170	3.585476	96591872	62009344	29827840	33184
171	4.432106	96591872	62009344	16304168	33184
172	0.730735	96591872	62009344	19337216	33184
173	1.086068	96591872	62009344	20059272	33184
174	1.497164	96591872	62009344	21024216	33184
175	1.790641	96591872	62009344	22233256	33184
176	2.153932	96591872	62009344	23688104	33184
177	2.510122	96591872	62009344	25389672	33184
178	2.872607	96591872	62009344	27339248	33184
179	3.438731	96591872	62009344	29537592	33184
180	3.581468	96591872	62009344	31991304	33184
181	4.401087	96591872	62009344	18328904	33184
182	0.766996	96591872	62009344	21534368	33184
183	1.145818	96591872	62009344	22305776	33184
184	1.523501	96591872	62009344	23338616	33184
185	1.884241	96591872	62009344	24629768	33184
186	2.264267	96591872	62009344	26183296	33184
187	2.642877	96591872	62009344	28000008	33184
188	3.045017	96591872	62009344	30080760	33184
189	3.980962	96591872	62009344	16315368	33184
190	3.909593	96591872	62009344	18929216	33184
191	4.379789	96591872	62009344	21810968	33184
192	0.809087	96591872	62009344	25214792	33184
193	1.204184	96591872	62009344	26022928	33184
194	1.58798	96591872	62009344	27102600	33184
195	2.368616	96591872	62009344	28455304	33184
196	2.431292	96591872	62009344	30082480	33184
197	2.760339	96591872	62009344	31984872	33184
198	3.789076	96591872	62009344	17816016	33184
199	4.368836	96591872	62009344	20274264	33184
200	4.090156	96591872	62009344	23010896	33184
201	4.407278	96591872	62009344	26027856	33184
202	0.845461	96591872	62009344	29589232	33184
203	1.261667	96591872	62009344	30434104	33184
204	1.842747	96591872	62009344	31562928	33184
205	2.621492	96591872	62009344	16702968	33184
206	2.749704	96591872	62009344	18403648	33184
207	2.907343	96591872	62009344	20392000	33184
208	3.303905	96591872	62009344	22669152	33184
209	3.747995	96591872	62009344	25236224	33184
210	4.137372	96591872	62009344	28095432	33184
211	4.555691	96591872	62009344	31247312	33184
212	0.88442	96591872	62009344	18725736	33184
213	1.320749	96591872	62009344	19607464	33184
214	1.730468	96591872	62009344	20785320	33184
215	2.169969	96591872	62009344	22260648	33184
216	2.607842	96591872	62009344	24035400	33184
217	3.235872	96591872	62009344	26109960	33184
218	3.694788	96591872	62009344	28485208	33184
219	3.997315	96591872	62009344	31165888	33184
220	4.950493	96591872	62009344	17968792	33184
221	4.776345	96591872	62009344	21255568	33184
222	0.918495	96591872	62009344	25136800	33184
223	1.385685	96591872	62009344	26055312	33184
224	1.811058	96591872	62009344	27282272	33184
225	2.303532	96591872	62009344	28818864	33184
226	2.714375	96591872	62009344	30666808	33184
227	3.934464	96591872	62009344	16729592	33184
228	3.665207	96591872	62009344	19203848	33184
229	4.123604	96591872	62009344	21997576	33184
230	4.576776	96591872	62009344	25108088	33184
231	4.998816	96591872	62009344	28541400	33184
232	0.952052	96591872	62009344	32599656	33184
233	1.796986	96591872	62009344	17185128	33184
234	1.890823	96591872	62009344	18472776	33184
235	2.357423	96591872	62009344	20085048	33184
236	2.819451	96591872	62009344	22023944	33184
237	3.914526	96591872	62009344	24290296	33184
238	4.033167	96591872	62009344	26893632	33184
239	4.27806	96591872	62009344	29817856	33184
240	5.508343	96591872	62009344	17066080	33184
241	5.199826	96591872	62009344	20656048	33184
242	0.991879	96591872	62009344	24896688	33184
243	1.480789	96591872	62009344	25897480	33184
244	1.96898	96591872	62009344	27234080	33184
245	2.439841	96591872	62009344	28907800	33184
246	3.151709	96591872	62009344	30920216	33184
247	4.215365	96591872	62009344	17151472	33184
248	3.923164	96591872	62009344	19844248	33184
249	4.402623	96591872	62009344	22879576	33184
250	5.360605	96591872	62009344	26262656	33184
251	5.615312	96591872	62009344	29987032	33184
252	1.035313	96591872	62009344	18394688	33184
253	1.536411	96591872	62009344	19432320	33184
254	2.260492	96591872	62009344	20817984	33184
255	2.610852	96591872	62009344	22553024	33184
256	3.039658	96591872	62009344	24639120	33184
257	3.550176	96591872	62009344	27082112	33184
258	4.106216	96591872	62009344	29873088	33184
259	4.57126	96591872	62009344	33018368	33184
260	5.718217	96591872	62009344	20122824	33184
261	5.585278	96591872	62009344	23981360	33184
262	1.074975	96591872	62009344	28541584	33184
263	1.599045	96591872	62009344	29616008	33184
264	2.120889	96591872	62009344	31050872	33184
265	2.643508	96591872	62009344	32847320	33184
266	3.522935	96591872	62009344	18654856	33184
267	3.686443	96591872	62009344	21178616	33184
268	4.216637	96591872	62009344	24067752	33184
269	5.030867	96591872	62009344	27323336	33184
270	5.265135	96591872	62009344	30947688	33184
271	6.645932	96591872	62009344	18838904	33184
272	1.113232	96591872	62009344	23567232	33184
273	1.649983	96591872	62009344	24678520	33184
274	2.206701	96591872	62009344	26162344	33184
275	2.731117	96591872	62009344	28020096	33184
276	3.286245	96591872	62009344	30253536	33184
277	4.062488	96591872	62009344	32863400	33184
278	4.949718	96591872	62009344	19525528	33184
279	4.947331	96591872	62009344	22891496	33184
280	5.675136	96591872	62009344	26640952	33184
281	6.01049	96591872	62009344	30769800	33184
282	1.151804	96591872	62009344	19611040	33184
283	1.710628	96591872	62009344	20759096	33184
284	2.265825	96591872	62009344	22292096	33184
285	2.834588	96591872	62009344	24211152	33184
286	3.607108	96591872	62009344	26518200	33184
287	3.972256	96591872	62009344	29213856	33184
288	4.818532	96591872	62009344	32302688	33184
289	5.752952	96591872	62009344	19523680	33184
290	5.649605	96591872	62009344	23395736	33184
291	6.267247	96591872	62009344	27663904	33184
292	1.41419	96591872	62009344	32711056	33184
293	2.231973	96591872	62009344	17626184	33184
294	2.354033	96591872	62009344	19208160	33184
295	2.917427	96591872	62009344	21188624	33184
296	3.504967	96591872	62009344	23569184	33184
297	4.301552	96591872	62009344	26350448	33184
298	5.435378	96591872	62009344	29533936	33184
299	5.519389	96591872	62009344	33133760	33184
300	6.480181	96591872	62009344	20785584	33184
301	6.692994	96591872	62009344	25183552	33184
302	1.430773	96591872	62009344	30390624	33184
303	2.040091	96591872	62009344	31612160	33184
304	2.46393	96591872	62009344	33243160	33184
305	3.423837	96591872	62009344	19001504	33184
306	3.831757	96591872	62009344	21456040	33184
307	4.27035	96591872	62009344	24323864	33184
308	4.81184	96591872	62009344	27605448	33184
309	5.617424	96591872	62009344	31305008	33184
310	6.76652	96591872	62009344	19395160	33184
311	6.759075	96591872	62009344	23928072	33184
312	1.264207	96591872	62009344	29294880	33184
313	1.877386	96591872	62009344	30553376	33184
314	2.499304	96591872	62009344	32233392	33184
315	3.793817	96591872	62009344	18219120	33184
316	4.033883	96591872	62009344	20746928	33184
317	4.353767	96591872	62009344	23700120	33184
318	4.973327	96591872	62009344	27085968	33184
319	5.812926	96591872	62009344	30895992	33184
320	7.021423	96591872	62009344	19203816	33184
321	6.843751	96591872	62009344	23877824	33184
322	1.309955	96591872	62009344	29406456	33184
323	1.936283	96591872	62009344	30701664	33184
324	2.576455	96591872	62009344	32430784	33184
325	4.005093	96591872	62009344	18476696	33184
326	3.863509	96591872	62009344	21078104	33184
327	4.50932	96591872	62009344	24118800	33184
328	5.154087	96591872	62009344	27596816	33184
329	5.989695	96591872	62009344	31514568	33184
330	7.286255	96591872	62009344	19881264	33184
331	7.056959	96591872	62009344	24684144	33184
332	1.334948	96591872	62009344	30377000	33184
333	1.998374	96591872	62009344	31709000	33184
334	2.749789	96591872	62009344	33487248	33184
335	3.814886	96591872	62009344	19475728	33184
336	3.948185	96591872	62009344	22150752	33184
337	4.827166	96591872	62009344	25281152	33184
338	5.499659	96591872	62009344	28857168	33184
339	6.143456	96591872	62009344	32885720	33184
340	7.245562	96591872	62009344	21237888	33184
341	7.470878	96591872	62009344	26177120	33184
342	1.429941	96591872	62009344	32023256	33184
343	2.04936	96591872	62009344	33392112	33184
344	3.287038	96591872	62009344	19031136	33184
345	3.405474	96591872	62009344	21319040	33184
346	4.29096	96591872	62009344	24067632	33184
347	4.736507	96591872	62009344	27278352	33184
348	5.614168	96591872	62009344	30952608	33184
349	6.952282	96591872	62009344	19239280	33184
350	7.055625	96591872	62009344	23845024	33184
351	7.482357	96591872	62009344	28918624	33184
352	1.946746	96591872	62009344	18685168	33184
353	2.150401	96591872	62009344	20090856	33184
354	3.039223	96591872	62009344	21967344	33184
355	3.492155	96591872	62009344	24319288	33184
356	4.190546	96591872	62009344	27141440	33184
357	4.917018	96591872	62009344	30438032	33184
358	5.56134	96591872	62009344	34218640	33184
359	7.022653	96591872	62009344	22208472	33184
360	6.970173	96591872	62009344	26970568	33184
361	7.930288	96591872	62009344	32223392	33184
362	1.454917	96591872	62009344	22417616	33184
363	2.177619	96591872	62009344	23898288	33184
364	2.874868	96591872	62009344	25874560	33184
365	3.805598	96591872	62009344	28348032	33184
366	4.351022	96591872	62009344	31320800	33184
367	5.022813	96591872	62009344	34793592	33184
368	6.499653	96591872	62009344	22441696	33184
369	6.473053	96591872	62009344	26915920	33184
370	7.17763	96591872	62009344	31894472	33184
371	8.915355	96591872	62009344	21390832	33184
372	1.722969	96591872	62009344	27900408	33184
373	2.222165	96591872	62009344	29418448	33184
374	3.198571	96591872	62009344	31452168	33184
375	3.678248	96591872	62009344	33988120	33184
376	5.210257	96591872	62009344	20851192	33184
377	5.188204	96591872	62009344	24408592	33184
378	6.104216	96591872	62009344	28481536	33184
379	6.635562	96591872	62009344	33076392	33184
380	8.310201	96591872	62009344	22099784	33184
381	8.20529	96591872	62009344	27717432	33184
382	1.753136	96591872	62009344	34380280	33184
383	2.885648	96591872	62009344	19701448	33184
384	3.067318	96591872	62009344	21776008	33184
385	3.817012	96591872	62009344	24372176	33184
386	4.780552	96591872	62009344	27491512	33184
387	5.407807	96591872	62009344	31134992	33184
388	6.501827	96591872	62009344	35315096	33184
389	7.482747	96591872	62009344	23725752	33184
390	7.82605	96591872	62009344	28949304	33184
391	8.557208	96591872	62009344	34701768	33184
392	1.584362	96591872	62009344	25301424	33184
393	2.360966	96591872	62009344	26892512	33184
394	3.1206	96591872	62009344	29016008	33184
395	4.172535	96591872	62009344	31673488	33184
396	4.876617	96591872	62009344	34866456	33184
397	6.207445	96591872	62009344	22359136	33184
398	6.465937	96591872	62009344	26625760	33184
399	7.012704	96591872	62009344	31431176	33184
400	8.712485	96591872	62009344	20926224	33184
401	8.879794	96591872	62009344	26813712	33184
402	1.674705	96591872	62009344	33796096	33184
403	2.39159	96591872	62009344	35423928	33184
404	3.79072	96591872	62009344	21287216	33184
405	4.026665	96591872	62009344	24012576	33184
406	4.797325	96591872	62009344	27279072	33184
407	5.824222	96591872	62009344	31094248	33184
408	6.323896	96591872	62009344	35459952	33184
409	8.062266	96591872	62009344	24078384	33184
410	7.986236	96591872	62009344	29547696	33184
411	8.720571	96591872	62009344	35578664	33184
412	1.650768	96591872	62009344	26353456	33184
413	2.441829	96591872	62009344	28018152	33184
414	3.476003	96591872	62009344	30239928	33184
415	4.285124	96591872	62009344	33020800	33184
416	5.769137	96591872	62009344	20406256	33184
417	5.740185	96591872	62009344	24315136	33184
418	6.778022	96591872	62009344	28778080	33184
419	7.372126	96591872	62009344	33805680	33184
420	9.323417	96591872	62009344	23316032	33184
421	9.145526	96591872	62009344	29473520	33184
422	2.346589	96591872	62009344	20515208	33184
423	2.545259	96591872	62009344	22216784	33184
424	3.358188	96591872	62009344	24487976	33184
425	4.41271	96591872	62009344	27329440	33184
426	4.979205	96591872	62009344	30745248	33184
427	5.815706	96591872	62009344	34732136	33184
428	7.408013	96591872	62009344	23141304	33184
429	7.76231	96591872	62009344	28285920	33184
430	8.554936	96591872	62009344	34009224	33184
431	10.144564	96591872	62009344	24195632	33184
432	1.745601	96591872	62009344	31657664	33184
433	2.815024	96591872	62009344	33395896	33184
434	3.420512	96591872	62009344	35715712	33184
435	5.063911	96591872	62009344	22390000	33184
436	5.422816	96591872	62009344	25878688	33184
437	5.94532	96591872	62009344	29953072	33184
438	6.853295	96591872	62009344	34613312	33184
439	8.78217	96591872	62009344	23763872	33184
440	8.530345	96591872	62009344	29607656	33184
441	9.590935	96591872	62009344	36037880	33184
442	1.758225	96591872	62009344	27308616	33184
443	2.635371	96591872	62009344	29083808	33184
444	3.709902	96591872	62009344	31452872	33184
445	4.347067	96591872	62009344	34417096	33184
446	6.114836	96591872	62009344	21914608	33184
447	6.123029	96591872	62009344	26076272	33184
448	6.971303	96591872	62009344	30839040	33184
449	7.886486	96591872	62009344	36200208	33184
450	9.589743	96591872	62009344	25819408	33184
451	10.058014	96591872	62009344	32389976	33184
452	1.872753	96591872	62009344	24344120	33184
453	2.789316	96591872	62009344	26156504	33184
454	3.913533	96591872	62009344	28574608	33184
455	4.453716	96591872	62009344	31604328	33184
456	5.315051	96591872	62009344	35238976	33184
457	7.378679	96591872	62009344	23341912	33184
458	7.379533	96591872	62009344	28198752	33184
459	7.996065	96591872	62009344	33666696	33184
460	10.311759	96591872	62009344	23772672	33184
461	10.341606	96591872	62009344	30470360	33184
462	1.85667	96591872	62009344	22859744	33184
463	2.740831	96591872	62009344	24708464	33184
464	3.851774	96591872	62009344	27175648	33184
465	4.534902	96591872	62009344	30262488	33184
466	5.632673	96591872	62009344	33970696	33184
467	7.474078	96591872	62009344	22363912	33184
468	7.352657	96591872	62009344	27317784	33184
469	8.460587	96591872	62009344	32896112	33184
470	10.581912	96591872	62009344	23264616	33184
471	10.348236	96591872	62009344	30103968	33184
472	2.674218	96591872	62009344	21911864	33184
473	3.112879	96591872	62009344	23797352	33184
474	3.910813	96591872	62009344	26313560	33184
475	4.696263	96591872	62009344	29465368	33184
476	5.808542	96591872	62009344	33247144	33184
477	7.640955	96591872	62009344	21870192	33184
478	7.506401	96591872	62009344	26930400	33184
479	8.616479	96591872	62009344	32623424	33184
480	10.607607	96591872	62009344	23170920	33184
481	10.238195	96591872	62009344	30138240	33184
482	2.881817	96591872	62009344	22101880	33184
483	2.889477	96591872	62009344	24024248	33184
484	3.814285	96591872	62009344	26589600	33184
485	5.186851	96591872	62009344	29799152	33184
486	5.661493	96591872	62009344	33654848	33184
487	7.773033	96591872	62009344	22335856	33184
488	7.594125	96591872	62009344	27487664	33184
489	8.801078	96591872	62009344	33290136	33184
490	10.936831	96591872	62009344	23907048	33184
491	10.585198	96591872	62009344	31016336	33184
492	1.976328	96591872	62009344	23915216	33184
493	2.930312	96591872	62009344	25874448	33184
494	4.105493	96591872	62009344	28488856	33184
495	4.810325	96591872	62009344	31759808	33184
496	5.830908	96591872	62009344	35692848	33184
497	7.733834	96591872	62009344	24221088	33184
498	7.972548	96591872	62009344	29473304	33184
499	8.917842	96591872	62009344	35383040	33184
500	10.683015	96591872	62009344	25851176	33184
501	11.108021	96591872	62009344	33088504	33184
502	1.998496	96591872	62009344	25900624	33184
503	2.974385	96591872	62009344	27896664	33184
504	3.949808	96591872	62009344	30563032	33184
505	4.959327	96591872	62009344	33897080	33184
506	5.895453	96591872	62009344	37900184	33184
507	7.916416	96591872	62009344	26228640	33184
508	8.072978	96591872	62009344	31577664	33184
509	8.850089	96591872	62009344	37597760	33184
510	10.721662	96591872	62009344	27932848	33184
511	11.049188	96591872	62009344	35306088	33184
512	2.098579	96591872	62009344	28013544	33184
513	3.179824	96591872	62009344	30046376	33184
514	4.039732	96591872	62009344	32759008	33184
515	5.019261	96591872	62009344	36152624	33184
516	7.367096	96591872	62009344	24143064	33184
517	7.592436	96591872	62009344	28905896	33184
518	8.164698	96591872	62009344	34358464	33184
519	10.152337	96591872	62009344	24599528	33184
520	10.348324	96591872	62009344	31419128	33184
521	13.017657	96591872	62009344	23459392	33184
522	2.075807	96591872	62009344	32358872	33184
523	3.294742	96591872	62009344	34428440	33184
524	4.093305	96591872	62009344	37191648	33184
525	6.087773	96591872	62009344	24455376	33184
526	6.174857	96591872	62009344	28607864	33184
527	7.42274	96591872	62009344	33464480	33184
528	9.489807	96591872	62009344	23366328	33184
529	9.453554	96591872	62009344	29610080	33184
530	10.273987	96591872	62009344	36551536	33184
531	12.681243	96591872	62009344	28028488	33184
532	2.11675	96591872	62009344	37094696	33184
533	4.164035	96591872	62009344	23098936	33184
534	4.203918	96591872	62009344	25909624	33184
535	5.24316	96591872	62009344	29426168	33184
536	6.50255	96591872	62009344	33649888	33184
537	7.49237	96591872	62009344	38581672	33184
538	9.478402	96591872	62009344	27878056	33184
539	9.42712	96591872	62009344	34229640	33184
540	11.974332	96591872	62009344	25491520	33184
541	11.759645	96591872	62009344	33270712	33184
542	2.159249	96591872	62009344	26802112	33184
543	3.440548	96591872	62009344	28949112	33184
544	4.251043	96591872	62009344	31809024	33184
545	5.287163	96591872	62009344	35386704	33184
546	8.026142	96591872	62009344	23818008	33184
547	7.482243	96591872	62009344	28838920	33184
548	8.937091	96591872	62009344	34581360	33184
549	10.912139	96591872	62009344	25245928	33184
550	10.908948	96591872	62009344	32432832	33184
551	13.22456	96591872	62009344	24833968	33184
552	2.391696	96591872	62009344	34233920	33184
553	3.262119	96591872	62009344	36414704	33184
554	5.431798	96591872	62009344	23330456	33184
555	5.461918	96591872	62009344	26969736	33184
556	6.5265	96591872	62009344	31354312	33184
557	7.796825	96591872	62009344	36471808	33184
558	10.073156	96591872	62009344	26345640	33184
559	9.733655	96591872	62009344	32945368	33184
560	12.656364	96591872	62009344	24701744	33184
561	12.2619	96591872	62009344	32799136	33184
562	2.246007	96591872	62009344	26851496	33184
563	3.405119	96591872	62009344	29088768	33184
564	4.634765	96591872	62009344	32074304	33184
565	5.496925	96591872	62009344	35814768	33184
566	8.083588	96591872	62009344	24426792	33184
567	7.985528	96591872	62009344	29665576	33184
568	8.799519	96591872	62009344	35655480	33184
569	11.375084	96591872	62009344	26488968	33184
570	11.33508	96591872	62009344	33990872	33184
571	13.640537	96591872	62009344	26573768	33184
572	2.473179	96591872	62009344	36396952	33184
573	3.601933	96591872	62009344	38671016	33184
574	5.524508	96591872	62009344	25520512	33184
575	5.687629	96591872	62009344	29316208	33184
576	7.013496	96591872	62009344	33882280	33184
577	7.841887	96591872	62009344	39214560	33184
578	10.163498	96591872	62009344	29034632	33184
579	10.13665	96591872	62009344	35889120	33184
580	12.655608	96591872	62009344	27607872	33184
581	12.732047	96591872	62009344	35999488	33184
582	2.318178	96591872	62009344	30045616	33184
583	3.71685	96591872	62009344	32358584	33184
584	4.613895	96591872	62009344	35448520	33184
585	5.958598	96591872	62009344	39307088	33184
586	8.011718	96591872	62009344	27663440	33184
587	8.114272	96591872	62009344	33072288	33184
588	9.738644	96591872	62009344	39258648	33184
589	11.67209	96591872	62009344	29876424	33184
590	11.489458	96591872	62009344	37623432	33184
591	14.104319	96591872	62009344	30028824	33184
592	3.494364	96591872	62009344	24013496	33184
593	3.813237	96591872	62009344	26361152	33184
594	4.638312	96591872	62009344	29501672	33184
595	5.784204	96591872	62009344	33420280	33184
596	7.014148	96591872	62009344	38126672	33184
597	9.497579	96591872	62009344	27567632	33184
598	9.486833	96591872	62009344	33852216	33184
599	11.982466	96591872	62009344	25358288	33184
600	12.038756	96591872	62009344	33226624	33184
601	14.83108	96591872	62009344	26390736	33184
602	2.385356	96591872	62009344	36684968	33184
603	3.8403	96591872	62009344	39069432	33184
604	5.816589	96591872	62009344	26083448	33184
605	6.122274	96591872	62009344	30065848	33184
606	7.060764	96591872	62009344	34845800	33184
607	9.865912	96591872	62009344	24825688	33184
608	9.717441	96591872	62009344	31224624	33184
609	10.849497	96591872	62009344	38410240	33184
610	12.96888	96591872	62009344	30258592	33184
611	13.234306	96591872	62009344	39063960	33184
612	2.807491	96591872	62009344	33267856	33184
613	4.015399	96591872	62009344	35695840	33184
614	4.816884	96591872	62009344	38927952	33184
615	7.504967	96591872	62009344	26854256	33184
616	7.191165	96591872	62009344	31716832	33184
617	8.417413	96591872	62009344	37396152	33184
618	11.088931	96591872	62009344	27875104	33184
619	11.169994	96591872	62009344	35179200	33184
620	13.858343	96591872	62009344	27588584	33184
621	14.11576	96591872	62009344	36525528	33184
622	2.527426	96591872	62009344	31304920	33184
623	3.787337	96591872	62009344	33763048	33184
624	5.598977	96591872	62009344	37043648	33184
625	7.661408	96591872	62009344	25320784	33184
626	8.146089	96591872	62009344	30249208	33184
627	8.946199	96591872	62009344	36001648	33184
628	11.415626	96591872	62009344	26811456	33184
629	11.210709	96591872	62009344	34221112	33184
630	14.241801	96591872	62009344	26965048	33184
631	13.83454	96591872	62009344	36031896	33184
632	2.778112	96591872	62009344	31023920	33184
633	3.723152	96591872	62009344	33518888	33184
634	4.954417	96591872	62009344	36847744	33184
635	6.383009	96591872	62009344	41016656	33184
636	8.54078	96591872	62009344	29679912	33184
637	8.719407	96591872	62009344	35518328	33184
638	11.931002	96591872	62009344	26510064	33184
639	11.481902	96591872	62009344	34027568	33184
640	14.15801	96591872	62009344	26897664	33184
641	14.127634	96591872	62009344	36099704	33184
642	2.538415	96591872	62009344	31323584	33184
643	3.793108	96591872	62009344	33855608	33184
644	5.256582	96591872	62009344	37233480	33184
645	7.921712	96591872	62009344	25669088	33184
646	7.676749	96591872	62009344	30743624	33184
647	9.170826	96591872	62009344	36667744	33184
648	11.987952	96591872	62009344	27649048	33184
649	11.720743	96591872	62009344	35277480	33184
650	14.594686	96591872	62009344	28190768	33184
651	14.081536	96591872	62009344	37527592	33184
652	2.581833	96591872	62009344	32695488	33184
653	3.859475	96591872	62009344	35264080	33184
654	5.318639	96591872	62009344	38701856	33184
655	7.891821	96591872	62009344	27067368	33184
656	7.900416	96591872	62009344	32216248	33184
657	8.975937	96591872	62009344	38234696	33184
658	11.802213	96591872	62009344	29140312	33184
659	11.866057	96591872	62009344	36880720	33184
660	14.841477	96591872	62009344	29698432	33184
661	14.752768	96591872	62009344	39178200	33184
662	2.623998	96591872	62009344	34331488	33184
663	3.90034	96591872	62009344	36936952	33184
664	5.186444	96591872	62009344	40415576	33184
665	7.786212	96591872	62009344	28618256	33184
666	8.058648	96591872	62009344	33843968	33184
667	9.6101	96591872	62009344	39939840	33184
668	11.911247	96591872	62009344	30786744	33184
669	12.296377	96591872	62009344	38635056	33184
670	14.589761	96591872	62009344	31351552	33184
671	14.349515	96591872	62009344	40973464	33184
672	2.680154	96591872	62009344	36080552	33184
673	3.962293	96591872	62009344	38722760	33184
674	6.936876	96591872	62009344	26348816	33184
675	6.751021	96591872	62009344	30758080	33184
676	8.135531	96591872	62009344	36057824	33184
677	10.873028	96591872	62009344	26622528	33184
678	11.084527	96591872	62009344	33692512	33184
679	12.10849	96591872	62009344	41651352	33184
680	14.640474	96591872	62009344	34143784	33184
681	16.799842	96591872	62009344	28585480	33184
682	2.711994	96591872	62009344	40156352	33184
683	5.389898	96591872	62009344	26816808	33184
684	5.900212	96591872	62009344	30391104	33184
685	6.700313	96591872	62009344	34866568	33184
686	8.266854	96591872	62009344	40236816	33184
687	11.164304	96591872	62009344	30497768	33184
688	11.140203	96591872	62009344	37667352	33184
689	14.334882	96591872	62009344	29978408	33184
690	13.752649	96591872	62009344	38957312	33184
691	16.692923	96591872	62009344	32853688	33184
692	2.836916	96591872	62009344	29451464	33184
693	4.318429	96591872	62009344	32167424	33184
694	5.414953	96591872	62009344	35798008	33184
695	6.954145	96591872	62009344	40331056	33184
696	9.913913	96591872	62009344	29756656	33184
697	9.718632	96591872	62009344	36114896	33184
698	13.047208	96591872	62009344	27863112	33184
699	12.294616	96591872	62009344	36042904	33184
700	15.724914	96591872	62533632	29633568	33184
701	15.466132	96591872	62533632	39652248	33184
702	2.780983	96591872	63057920	35549912	33184
703	4.364998	96591872	63057920	38306280	33184
704	5.737092	96591872	63057920	41978784	33184
705	8.373243	96862208	63057920	30353544	33184
706	8.560347	96862208	63057920	35870680	33184
707	9.993655	96862208	63057920	42316736	33184
708	12.508616	96862208	63057920	33331736	33184
709	12.606745	96862208	63057920	41622272	33184
710	15.477491	96862208	63057920	34602056	33184
711	17.731674	96862208	63057920	29480920	33184
712	2.81457	96862208	63057920	41543744	33184
713	5.82489	96862208	63057920	28198168	33184
714	5.619921	96862208	63057920	31938232	33184
715	7.19016	96862208	63057920	36625912	33184
716	8.856767	96862208	63057920	42266648	33184
717	11.373004	97132544	63057920	32641184	33184
718	11.536857	97132544	63057920	40186792	33184
719	14.63671	97132544	63057920	32697648	33184
720	14.001124	97132544	63057920	42166528	33184
721	16.95768	97132544	63057920	36299952	33184
722	3.018491	97132544	63057920	33205496	33184
723	4.485088	97132544	63057920	36081048	33184
724	6.055495	97132544	63057920	39917576	33184
725	9.217388	97402880	63582208	28837264	33184
726	8.910984	97402880	63582208	34601688	33184
727	9.886256	97402880	63582208	41334280	33184
728	13.356449	97402880	63582208	32901992	33184
729	13.00224	97402880	63582208	41567680	33184
730	15.796015	97402880	63582208	35009008	33184
731	17.746388	97402880	63582208	30310264	33184
732	2.889006	97402880	63582208	42914584	33184
733	5.648635	97402880	63582208	29575040	33184
734	5.759574	97402880	63582208	33473352	33184
735	7.461358	97402880	63582208	38348152	33184
736	10.652712	97673216	63582208	28583832	33184
737	10.063044	97673216	63582208	35407424	33184
738	11.471037	97673216	63582208	43197960	33184
739	14.864463	97673216	63582208	35616496	33184
740	16.494098	97673216	63582208	30053600	33184
741	16.122062	97673216	63582208	40787208	33184
742	2.943546	97673216	63582208	37502568	33184
743	4.359777	97673216	63582208	40451864	33184
744	7.730524	97673216	64106496	28527376	33184
745	7.64085	97673216	64106496	33453512	33184
746	8.715372	97943552	64106496	39362896	33184
747	12.16565	97943552	64106496	30426696	33184
748	11.675364	97943552	64106496	38315624	33184
749	15.204829	97943552	64106496	31504832	33184
750	14.85379	97943552	64106496	41408024	33184
751	17.841513	97943552	64106496	36187760	33184
752	2.978691	97943552	64106496	33735112	33184
753	4.425544	97943552	64106496	36726280	33184
754	6.19346	97943552	64106496	40709784	33184
755	9.143498	97943552	64106496	29834744	33184
756	9.111447	97943552	64106496	35818832	33184
757	10.542665	97943552	64106496	42803176	33184
758	13.580837	98213888	64106496	34563568	33184
759	13.519732	98213888	64106496	43554648	33184
760	16.43868	98213888	64106496	37210992	33184
761	18.618868	98213888	64106496	32716152	33184
762	4.654042	98213888	64106496	29569304	33184
763	4.512961	98213888	64106496	32592192	33184
764	6.009391	98213888	64106496	36628784	33184
765	7.496194	98213888	64106496	41683536	33184
766	11.063046	98484224	64106496	31767560	33184
767	10.982601	98484224	64106496	38844464	33184
768	13.962624	98484224	64106496	31254704	33184
769	14.012136	98484224	64106496	40372256	33184
770	16.798176	98484224	64106496	34628552	33184
771	19.20823	98484224	64630784	30667352	33184
772	3.118824	98484224	64630784	43906960	33184
773	6.404322	98484224	64630784	30730624	33184
774	6.030508	98484224	64630784	34818624	33184
775	7.821205	98484224	64630784	39927152	33184
776	10.980695	98754560	64630784	30377760	33184
777	10.869937	98754560	64630784	37560656	33184
778	14.200576	98754560	64630784	30303928	33184
779	13.923002	98754560	64630784	39543024	33184
780	16.967268	98754560	64630784	34077752	33184
781	19.298729	98754560	64630784	30364184	33184
782	3.18675	98754560	64630784	43784584	33184
783	6.185809	98754560	64630784	30719560	33184
784	6.124058	98754560	64630784	34850472	33184
785	8.598472	98754560	64630784	40026936	33184
786	11.346129	99024896	64630784	30695704	33184
787	10.808394	99024896	64630784	37937624	33184
788	14.548914	99024896	65155072	30863424	33184
789	14.14	99024896	65155072	40185144	33184
790	17.102567	99024896	65155072	34775288	33184
791	19.451911	99024896	65155072	31262104	33184
792	3.960961	99024896	65155072	44935864	33184
793	6.525854	99295232	65155072	31846192	33184
794	6.278716	99295232	65155072	36026144	33184
795	7.848219	99295232	65155072	41265296	33184
796	11.531605	99295232	65155072	31780232	33184
797	11.134604	99295232	65155072	39107848	33184
798	14.670352	99295232	65155072	31917504	33184
799	14.571563	99295232	65155072	41349720	33184
800	17.623027	99295232	65155072	35953832	33184
801	20.052704	99295232	65155072	32394472	33184
802	4.967595	99565568	65155072	30036640	33184
803	5.003291	99565568	65155072	33206768	33184
804	6.892345	99565568	65155072	37443008	33184
805	8.269789	99565568	65155072	42732240	33184
806	11.352796	99565568	65155072	33137384	33184
807	11.004988	99565568	65155072	40556888	33184
808	15.33763	99565568	65155072	33290288	33184
809	14.384718	99565568	65155072	42851168	33184
810	17.498854	99565568	65679360	37386432	33184
811	20.394581	99835904	65679360	33785480	33184
812	5.043812	99835904	65679360	31442616	33184
813	4.774422	99835904	65679360	34651120	33184
814	6.747792	99835904	65679360	38929272	33184
815	8.024986	99835904	65679360	44279760	33184
816	11.548854	99835904	65679360	34630200	33184
817	11.614139	99835904	65679360	42131584	33184
818	14.880544	99835904	65679360	34788128	33184
819	14.347332	99835904	65679360	44447440	33184
820	17.818871	99835904	66203648	38976224	33184
821	20.095856	100106240	66203648	35273328	33184
822	3.363818	100106240	66203648	34389816	33184
823	4.848889	100106240	66203648	37633488	33184
824	6.638617	100106240	66203648	41960664	33184
825	10.163889	100106240	66203648	31629696	33184
826	10.064887	100106240	66203648	38140920	33184
827	11.748471	100106240	66203648	45726400	33184
828	14.571394	100106240	66203648	38047496	33184
829	16.890334	100106240	66203648	32492888	33184
830	16.56172	100106240	66203648	43353376	33184
831	19.872711	100376576	66203648	39238248	33184
832	3.283496	100376576	66203648	37940960	33184
833	5.159376	100376576	66203648	41221352	33184
834	6.556729	100376576	66203648	45601264	33184
835	10.168424	100376576	66203648	34869824	33184
836	9.811537	100376576	66203648	41441776	33184
837	13.37	100376576	66203648	33334048	33184
838	13.124412	100376576	66203648	42109816	33184
839	16.483681	100376576	66203648	36145512	33184
840	19.498308	100646912	66203648	32087664	33184
841	18.475557	100646912	66203648	44175072	33184
842	3.322809	100646912	66203648	42453328	33184
843	4.973079	100646912	66203648	45776168	33184
844	8.84498	100646912	66727936	34027624	33184
845	8.553067	100646912	66727936	39562264	33184
846	9.870133	100646912	66727936	46209832	33184
847	13.542764	100646912	66727936	37607944	33184
848	13.469839	100646912	66727936	46481576	33184
849	16.615565	100646912	66727936	40120144	33184
850	19.070025	100917248	66727936	35745224	33184
851	21.305254	100917248	66727936	33079648	33184
852	5.134588	100917248	66727936	31582296	33184
853	5.138723	100917248	66727936	34967472	33184
854	6.94409	100917248	66727936	39495352	33184
855	8.573857	100917248	66727936	45146736	33184
856	11.82584	100917248	66727936	35862528	33184
857	11.732968	100917248	66727936	43778072	33184
858	15.867653	100917248	66727936	36847736	33184
859	15.099796	100917248	66727936	47045792	33184
860	18.627994	101187584	66727936	41945472	33184
861	21.09113	101187584	66727936	38658464	33184
862	3.416084	101187584	66727936	38162424	33184
863	5.083069	101187584	66727936	41584256	33184
864	7.013586	101187584	66727936	46150376	33184
865	10.352293	101187584	67252224	35709864	33184
866	10.339542	101187584	67252224	42576216	33184
867	14.146889	101187584	67252224	34827120	33184
868	13.583972	101457920	67252224	43976512	33184
869	17.448772	101457920	67252224	38296944	33184
870	19.555997	101457920	67252224	34538584	33184
871	19.411711	101457920	67252224	47141544	33184
872	3.445555	101457920	67252224	45757824	33184
873	6.97856	101457920	67252224	33153736	33184
874	7.135336	101457920	67252224	37768600	33184
875	8.802296	101457920	67252224	43539872	33184
876	12.460948	101457920	67252224	34633192	33184
877	12.346185	101457920	67252224	42726224	33184
878	16.059784	101728256	67252224	36245768	33184
879	15.582293	101728256	67252224	46678800	33184
880	19.119234	101728256	67252224	41946712	33184
881	21.252607	101728256	67252224	39026248	33184
882	3.519317	101728256	67252224	38896456	33184
883	5.215093	101728256	67252224	42405688	33184
884	7.173642	101728256	67252224	47078056	33184
885	10.956176	101998592	67776512	36696736	33184
886	10.589613	101998592	67776512	43716048	33184
887	13.972653	101998592	67776512	36010288	33184
888	14.490748	101998592	67776512	45357456	33184
889	18.053774	101998592	68300800	39832512	33184
890	20.182859	101998592	68300800	36200680	33184
891	22.071667	101998592	68300800	34286960	33184
892	5.287516	101998592	68300800	33390600	33184
893	5.500277	101998592	68300800	36923376	33184
894	7.180997	101998592	68300800	41635512	33184
895	9.347783	101998592	68300800	47532120	33184
896	12.738174	102268928	68300800	38416880	33184
897	12.43596	102268928	68300800	46681136	33184
898	16.162635	102268928	68300800	39937120	33184
899	18.561537	102268928	68300800	35272448	33184
900	17.694598	102268928	68300800	47108312	33184
901	21.05613	102268928	68300800	43831048	33184
902	3.594783	102268928	68300800	43444984	33184
903	5.355561	102268928	68300800	47018008	33184
904	9.487134	102539264	68300800	35706672	33184
905	9.037881	102539264	68300800	41664984	33184
906	12.821156	102539264	68300800	33274688	33184
907	12.589121	102539264	68300800	41625216	33184
908	16.705227	102539264	68300800	35641800	33184
909	16.103838	102539264	68300800	46403152	33184
910	20.542143	102539264	68300800	42182176	33184
911	22.093469	102539264	68825088	39755704	33184
912	3.747754	102539264	68825088	40132856	33184
913	5.608872	102539264	68825088	43739368	33184
914	7.530064	102539264	68825088	48549640	33184
915	11.085494	102809600	68825088	38295480	33184
916	10.911936	102809600	68825088	45534408	33184
917	14.694427	102809600	68825088	37943288	33184
918	15.330628	102809600	68825088	47591104	33184
919	17.948977	102809600	68825088	42197928	33184
920	20.71807	102809600	68825088	38719192	33184
921	22.883324	102809600	68825088	36938112	33184
922	3.645162	102809600	68825088	37922784	33184
923	5.427152	102809600	68825088	41565624	33184
924	7.463182	102809600	68825088	46433536	33184
925	11.493755	103079936	68825088	36584688	33184
926	11.255826	103079936	68825088	43891632	33184
927	14.927642	103079936	68825088	36733080	33184
928	14.658093	103079936	68825088	46483952	33184
929	18.921369	103079936	68825088	41417688	33184
930	20.965572	103079936	69349376	38233032	33184
931	23.468505	103079936	69349376	36662880	33184
932	3.76585	103079936	69349376	37895624	33184
933	5.511936	103079936	69349376	41580440	33184
934	7.547529	103079936	69349376	46488816	33184
935	11.639433	103350272	69349376	36759200	33184
936	11.123767	103350272	69349376	44129344	33184
937	15.306229	103350272	69349376	37031840	33184
938	14.99373	103350272	69349376	46874520	33184
939	18.570365	103350272	69349376	41863216	33184
940	21.284328	103350272	69349376	38818824	33184
941	23.320472	103350272	69349376	37333736	33184
942	3.852672	103350272	69349376	38666544	33184
943	5.740519	103350272	69349376	42382952	33184
944	7.453072	103350272	69349376	47340456	33184
945	11.85338	103620608	69349376	37540144	33184
946	11.259686	103620608	69349376	45000456	33184
947	15.042402	103620608	69349376	37884472	33184
948	15.149356	103620608	69349376	47824888	33184
949	18.788073	103620608	69349376	42830080	33184
950	21.342093	103620608	69349376	39732680	33184
951	23.382758	103890944	69873664	38362752	33184
952	3.898928	103890944	69873664	39799920	33184
953	5.600176	103890944	69873664	43553104	33184
954	7.685398	103890944	69873664	48567720	33184
955	11.970329	103890944	69873664	38714576	33184
956	11.364851	103890944	69873664	46247712	33184
957	15.308301	103890944	69873664	39104744	33184
958	15.109291	103890944	69873664	49137384	33184
959	18.736895	103890944	69873664	44085928	33184
960	21.363499	104161280	69873664	40996784	33184
961	23.704923	104161280	69873664	39636256	33184
962	3.802499	104161280	69873664	41042416	33184
963	5.658249	104161280	69873664	44832496	33184
964	7.593524	104161280	69873664	49899600	33184
965	11.860746	104161280	69873664	40032280	33184
966	11.997568	104161280	69873664	47635544	33184
967	15.318675	104161280	69873664	40463400	33184
968	18.108673	104431616	69873664	35500928	33184
969	17.428153	104431616	69873664	46906336	33184
970	21.508904	104431616	69873664	43597904	33184
971	23.273182	104431616	69873664	42042504	33184
972	3.862893	104431616	70397952	43310944	33184
973	5.943207	104431616	70397952	47137936	33184
974	9.798695	104701952	70397952	36394432	33184
975	9.796192	104701952	70397952	42778208	33184
976	11.869454	104701952	70397952	50448208	33184
977	15.776951	104701952	70397952	43007712	33184
978	18.012702	104701952	70397952	37840464	33184
979	17.171002	104701952	70397952	49363712	33184
980	21.347893	104701952	70397952	45873936	33184
981	23.769697	104701952	70397952	44137896	33184
982	4.088759	104701952	70397952	45369048	33184
983	5.732123	104701952	70397952	49234048	33184
984	10.039892	104972288	70922240	38371848	33184
985	10.012098	104972288	70922240	44820352	33184
986	14.104494	104972288	70922240	36916296	33184
987	13.460585	104972288	70922240	45948288	33184
988	18.289738	104972288	70922240	40501816	33184
989	20.283268	104972288	70922240	37147856	33184
990	19.945445	104972288	70922240	50069696	33184
991	23.973302	104972288	70922240	47965336	33184
992	3.899141	104972288	70922240	48906600	33184
993	8.080814	105242624	70922240	36786640	33184
994	7.846501	105242624	70922240	41996056	33184
995	10.092999	105242624	70922240	48504680	33184
996	14.001342	105242624	70922240	40262312	33184
997	13.842995	105242624	70922240	49380336	33184
998	17.698788	105242624	70922240	43645608	33184
999	20.68709	105242624	70922240	39968528	33184
1000	23.10797	105242624	70922240	38091568	33184
