x	Duration	RSS	HeapTotal	HeapUsed	External
0	NA	95145984	63057920	14396256	33184
1	0.486115	95145984	63057920	14448560	33184
2	0.428968	95145984	63057920	14516536	33184
3	0.488798	95145984	63057920	14609248	33184
4	0.595247	95145984	63057920	14728368	33184
5	0.932786	95145984	63057920	14875656	33184
6	0.714794	95145984	63057920	15051800	33184
7	0.791688	95145984	63057920	15258032	33184
8	1.437251	95145984	63057920	15495616	33184
9	0.855227	95145984	63057920	15766992	33184
10	0.537992	95145984	63057920	16072464	33184
11	0.611478	95145984	63057920	16417040	33184
12	0.143587	95145984	63057920	16786320	33184
13	0.213489	95145984	63057920	16896632	33184
14	0.272438	95145984	63057920	17045968	33184
15	0.337573	95145984	63057920	17235472	33184
16	0.399498	95145984	63057920	17466928	33184
17	0.847051	95145984	63057920	17741184	33184
18	0.554824	95145984	63057920	18059192	33184
19	0.609502	95145984	63057920	18423096	33184
20	0.683447	95145984	63057920	18836416	33184
21	0.723171	95145984	63057920	19295464	33184
22	0.188536	95145984	63057920	19814144	33184
23	0.285274	95145984	63057920	19963840	33184
24	0.374287	95145984	63057920	20165640	33184
25	0.463082	95145984	63057920	20420888	33184
26	0.564999	95145984	63057920	20731128	33184
27	0.646897	95145984	63057920	21097176	33184
28	0.73783	95145984	63057920	21520256	33184
29	0.977354	95145984	63057920	22001688	33184
30	0.852136	95145984	63057920	22543704	33184
31	0.919856	95145984	63057920	23146288	33184
32	0.208804	95145984	63057920	23834456	33184
33	0.322608	95145984	63057920	24020944	33184
34	0.410501	95145984	63057920	24271792	33184
35	0.503849	95145984	63057920	24588296	33184
36	0.604829	95145984	63057920	24972144	33184
37	0.705841	95145984	63057920	25424096	33184
38	0.805678	95145984	63057920	25945312	33184
39	0.947967	95145984	63057920	26537032	33184
40	1.833705	95145984	63057920	27202088	33184
41	1.232438	95145984	63057920	27939424	33184
42	0.254073	95145984	63057920	28787008	33184
43	0.376841	95145984	63057920	29010264	33184
44	0.49046	95145984	63057920	29311264	33184
45	0.650794	95145984	63057920	29695296	33184
46	0.720863	95145984	63057920	30157336	33184
47	0.885824	95145984	63057920	30701448	33184
48	1.664945	95145984	63057920	15054560	33184
49	1.187412	95145984	63057920	15766536	33184
50	1.482454	95145984	63057920	16584376	33184
51	1.310961	95145984	63057920	17470040	33184
52	0.450615	95145984	63057920	18494992	33184
53	0.421306	95145984	63057920	18760320	33184
54	0.551327	95145984	63057920	19116328	33184
55	0.683409	95145984	63057920	19564232	33184
56	0.821198	95145984	63057920	20105736	33184
57	0.960401	95145984	63057920	20741632	33184
58	1.089066	95145984	63057920	21473128	33184
59	1.228765	95145984	63057920	22301328	33184
60	1.382776	95145984	63057920	23228608	33184
61	1.526022	95145984	63057920	24255104	33184
62	0.315067	95145984	63057920	25447568	33184
63	0.477941	95145984	63057920	25749704	33184
64	0.834536	95145984	63057920	26154712	33184
65	0.780001	95145984	63057920	26663888	33184
66	0.926239	95145984	63057920	27278984	33184
67	1.084218	95145984	63057920	28000712	33184
68	1.248938	95145984	63057920	28830312	33184
69	1.397471	95145984	63057920	29769192	33184
70	1.553088	95145984	63057920	30819000	33184
71	2.578004	95145984	63057920	15775680	33184
72	0.360387	95145984	63057920	17127888	33184
73	0.535372	95145984	63057920	17466776	33184
74	0.702352	95145984	63057920	17920832	33184
75	0.873834	95145984	63057920	18491928	33184
76	1.050478	95145984	63057920	19180632	33184
77	1.215068	95145984	63057920	19988176	33184
78	1.392561	95145984	63057920	20915808	33184
79	1.576177	95145984	63057920	21964808	33184
80	1.742321	95145984	63057920	23137480	33184
81	2.194509	95145984	63057920	24435656	33184
82	0.398708	95145984	63057920	25951088	33184
83	0.606691	95145984	63057920	26326664	33184
84	0.996198	95145984	63057920	26832000	33184
85	0.970496	95145984	63057920	27465960	33184
86	1.155079	95145984	63057920	28231480	33184
87	1.360385	95145984	63057920	29129256	33184
88	1.599757	95145984	63057920	30160624	33184
89	2.032923	95145984	63057920	31326696	33184
90	2.700329	95145984	63057920	16310080	33184
91	2.262326	95145984	63057920	17752584	33184
92	0.457715	95145984	63057920	19444976	33184
93	0.671231	95145984	63057920	19867120	33184
94	0.850216	95145984	63057920	20432264	33184
95	1.053688	95145984	63057920	21141536	33184
96	1.453264	95145984	63057920	21996840	33184
97	1.508167	95145984	63057920	22998672	33184
98	1.728857	95145984	63057920	24148312	33184
99	1.958943	95145984	63057920	25447080	33184
100	2.178598	95145984	63057920	26897112	33184
101	2.385847	95145984	63057920	28498840	33184
102	0.470659	95145984	63057920	30375488	33184
103	0.702585	95145984	63057920	30834392	33184
104	0.924732	95145984	63057920	31448560	33184
105	1.721474	95145984	63057920	15879528	33184
106	1.391346	95145984	63057920	16808280	33184
107	1.610938	95145984	63057920	17895968	33184
108	1.891423	95145984	63057920	19145848	33184
109	2.072472	95145984	63057920	20554992	33184
110	2.519677	95145984	63057920	22128800	33184
111	2.594922	95145984	63057920	23865440	33184
112	0.543098	95145984	63057920	25903680	33184
113	0.759963	95145984	63057920	26399416	33184
114	1.001862	95145984	63057920	27062624	33184
115	1.259621	95145984	63057920	27895416	33184
116	1.83497	95145984	63057920	28897904	33184
117	1.925509	95145984	63057920	30073136	33184
118	2.047923	95145984	63057920	31419568	33184
119	2.885241	95145984	63057920	16599056	33184
120	2.494724	95145984	63057920	18294512	33184
121	3.091939	95145984	63057920	20166032	33184
122	0.543084	95145984	63057920	22361872	33184
123	0.809882	95145984	63057920	22894416	33184
124	1.075881	95145984	63057920	23606784	33184
125	1.33964	95145984	63057920	24500048	33184
126	1.595634	95145984	63057920	25576104	33184
127	1.881762	95145984	63057920	26836488	33184
128	2.318801	95145984	63057920	28282752	33184
129	2.407984	95145984	63057920	29912824	33184
130	2.740066	95145984	63057920	31730904	33184
131	3.469179	95145984	63057920	17356208	33184
132	0.581821	95145984	63057920	19718728	33184
133	0.883376	95145984	63057920	20288072	33184
134	1.147944	95145984	63057920	21049440	33184
135	1.429124	95145984	63057920	22004104	33184
136	1.716579	95145984	63057920	23153712	33184
137	1.995846	95145984	63057920	24499112	33184
138	2.491321	95145984	63057920	26041512	33184
139	2.568092	95145984	63057920	27782000	33184
140	2.939572	95145984	63057920	29722880	33184
141	3.157783	95145984	63057920	31864320	33184
142	0.624055	95145984	63057920	18001688	33184
143	0.928882	95145984	63057920	18613416	33184
144	1.436987	95145984	63057920	19431200	33184
145	1.523883	95145984	63057920	20456448	33184
146	1.842817	95145984	63057920	21690768	33184
147	2.330488	95145984	63057920	23134856	33184
148	2.786466	95145984	63057920	24790936	33184
149	2.758301	95145984	63057920	26658456	33184
150	3.045105	95145984	63057920	28740368	33184
151	3.36534	95145984	63057920	31037056	33184
152	0.700828	95145984	63057920	17463672	33184
153	1.058487	95145984	63057920	18112104	33184
154	1.393304	95145984	63057920	18978912	33184
155	1.826312	95145984	63057920	20065456	33184
156	1.968284	95145984	63057920	21373480	33184
157	2.496193	95145984	63057920	22903528	33184
158	2.577814	95145984	63057920	24656880	33184
159	3.014939	95145984	63057920	26637080	33184
160	3.284994	95145984	63057920	28841640	33184
161	3.784247	95145984	63057920	31273264	33184
162	0.697709	95145984	63057920	17838736	33184
163	1.042776	95145984	63057920	18523984	33184
164	1.47189	95145984	63057920	19439904	33184
165	1.754051	95145984	63057920	20587816	33184
166	2.551297	95145984	63057920	21969368	33184
167	2.563199	95145984	63057920	23588608	33184
168	2.918584	95145984	63057920	25440320	33184
169	3.293328	95145984	63057920	27528512	33184
170	3.757347	95145984	63057920	29855776	33184
171	4.445598	95145984	63057920	16329336	33184
172	0.771343	95145984	63057920	19357912	33184
173	1.178695	95145984	63057920	20080272	33184
174	1.541232	95145984	63057920	21045336	33184
175	1.925191	95145984	63057920	22254544	33184
176	2.295483	95145984	63057920	23710152	33184
177	2.832682	95145984	63057920	25411920	33184
178	3.115172	95145984	63057920	27361528	33184
179	3.322102	95145984	63057920	29560128	33184
180	3.618103	95145984	63057920	32014272	33184
181	4.896334	95145984	63057920	18348712	33184
182	0.769747	95145984	63057920	21554552	33184
183	1.154258	95145984	63057920	22325952	33184
184	1.533076	95145984	63057920	23356712	33184
185	1.892565	95145984	63057920	24648136	33184
186	2.288071	95145984	63057920	26201904	33184
187	2.645752	95145984	63057920	28018688	33184
188	3.045054	95145984	63057920	30099800	33184
189	3.987473	95145984	63057920	16329504	33184
190	4.338882	95145984	63057920	18944144	33184
191	4.196857	95145984	63057920	21828728	33184
192	0.990342	95145984	63057920	25232824	33184
193	1.255506	95145984	63057920	26040992	33184
194	1.600581	95145984	63057920	27120888	33184
195	2.003205	95145984	63057920	28473584	33184
196	2.397385	95145984	63057920	30100872	33184
197	2.788998	95145984	63057920	32003520	33184
198	3.829137	95145984	63057920	17834776	33184
199	3.59739	95145984	63057920	20291784	33184
200	3.984899	95145984	63057920	23028760	33184
201	4.599544	95145984	63057920	26045920	33184
202	0.857884	95145984	63057920	29607896	33184
203	1.311604	95145984	63057920	30452880	33184
204	1.854101	95145984	63057920	31581824	33184
205	3.299731	95145984	63057920	16723752	33184
206	2.5101	95145984	63057920	18428528	33184
207	2.9149	95145984	63057920	20418256	33184
208	3.327233	95145984	63057920	22695760	33184
209	4.019046	95145984	63057920	25263296	33184
210	4.166713	95145984	63057920	28123016	33184
211	4.86378	95145984	63057920	31275352	33184
212	0.886492	95145984	63057920	18754120	33184
213	1.413768	95145984	63057920	19635960	33184
214	1.863285	95145984	63057920	20814064	33184
215	2.490965	95145984	63057920	22289544	33184
216	2.615056	95145984	63057920	24064248	33184
217	3.051545	95145984	63057920	26138808	33184
218	3.715018	95145984	63057920	28514320	33184
219	4.277281	95145984	63057920	31195280	33184
220	5.301785	95145984	63057920	17953312	33184
221	5.051582	95145984	63057920	21241320	33184
222	0.931614	95145984	63057920	25127320	33184
223	1.381972	95145984	63057920	26045912	33184
224	1.826371	95145984	63057920	27273040	33184
225	2.486785	95145984	63057920	28809848	33184
226	2.718274	95145984	63057920	30658088	33184
227	3.970045	95145984	63057920	16684864	33184
228	3.761251	95145984	63057920	19158664	33184
229	4.107577	95145984	63057920	21952656	33184
230	4.563379	95145984	63057920	25063504	33184
231	5.213674	95145984	63057920	28496072	33184
232	0.961406	95145984	63057920	32558424	33184
233	1.926586	95145984	63057920	17143952	33184
234	2.019791	95145984	63057920	18431720	33184
235	2.611782	95145984	63057920	20044304	33184
236	2.946121	95145984	63057920	21983440	33184
237	3.389198	95145984	63057920	24249864	33184
238	4.012985	95145984	63057920	26844816	33184
239	4.310954	95145984	63057920	29769552	33184
240	5.579523	95145984	63057920	17018368	33184
241	5.530886	95145984	63057920	20607336	33184
242	0.999188	95145984	63057920	24848432	33184
243	1.706398	95145984	63057920	25853544	33184
244	1.973658	95145984	63057920	27190264	33184
245	2.473643	95145984	63057920	28864152	33184
246	2.958687	95145984	63057920	30876888	33184
247	4.496177	95145984	63057920	17106608	33184
248	4.129535	95145984	63057920	19808456	33184
249	4.443991	95145984	63057920	22844216	33184
250	5.145234	95145984	63057920	26223496	33184
251	5.433276	95145984	63057920	29948424	33184
252	1.091969	95145984	63057920	18353632	33184
253	1.63967	95145984	63057920	19391384	33184
254	2.158412	95145984	63057920	20777280	33184
255	2.701068	95145984	63057920	22512640	33184
256	3.255389	95145984	63057920	24598960	33184
257	3.780681	95145984	63057920	27041176	33184
258	4.310524	95145984	63057920	29836928	33184
259	5.096075	95145984	63057920	32982536	33184
260	5.767899	95145984	63057920	20082736	33184
261	5.964374	95145984	63057920	23941552	33184
262	1.073982	95145984	63057920	28502112	33184
263	1.603245	95145984	63057920	29579536	33184
264	2.344367	95145984	63057920	31014440	33184
265	2.662945	95145984	63057920	32812416	33184
266	3.532366	95145984	63057920	18616496	33184
267	3.72091	95145984	63057920	21140736	33184
268	4.24537	95145984	63057920	24030264	33184
269	4.791538	95145984	63057920	27286328	33184
270	5.591821	95145984	63057920	30911048	33184
271	6.534277	95145984	63057920	18802920	33184
272	1.130149	95145984	63057920	23531616	33184
273	1.667341	95145984	63057920	24642976	33184
274	2.217956	95145984	63057920	26126984	33184
275	2.750577	95145984	63057920	27984936	33184
276	3.309186	95145984	63057920	30218608	33184
277	3.857437	95145984	63057920	32828632	33184
278	4.766538	95145984	63057920	19482152	33184
279	5.171018	95145984	63057920	22848832	33184
280	5.495655	95145984	63057920	26596376	33184
281	6.275265	95145984	63057920	30725816	33184
282	1.234609	95145984	63057920	19562984	33184
283	1.847675	95145984	63057920	20711112	33184
284	2.294205	95145984	63057920	22244152	33184
285	2.849418	95145984	63057920	24163400	33184
286	3.409662	95145984	63057920	26477016	33184
287	4.425052	95145984	63057920	29172960	33184
288	5.079935	95145984	63057920	32261824	33184
289	5.778129	95145984	63057920	19490960	33184
290	6.101788	95145984	63057920	23360408	33184
291	6.476456	95145984	63057920	27624128	33184
292	1.18914	95145984	63057920	32672200	33184
293	2.396974	95145984	63057920	17587552	33184
294	2.370056	95145984	63057920	19169528	33184
295	2.9381	95145984	63057920	21149832	33184
296	3.52049	95145984	63057920	23530304	33184
297	4.922675	95145984	63057920	26311656	33184
298	4.821011	95145984	63057920	29504048	33184
299	5.53117	95145984	63057920	33091040	33184
300	6.563878	95145984	63057920	20805200	33184
301	6.870361	95145984	63057920	25206184	33184
302	1.226293	95145984	63057920	30413840	33184
303	1.846048	95145984	63057920	31635416	33184
304	2.426107	95145984	63057920	33266488	33184
305	3.679427	95145984	63057920	19057784	33184
306	3.692744	95145984	63057920	21511904	33184
307	4.597	95145984	63057920	24379144	33184
308	4.892019	95145984	63057920	27660728	33184
309	5.657191	95145984	63057920	31357784	33184
310	6.809705	95145984	63057920	19444040	33184
311	7.05703	95145984	63057920	23978192	33184
312	1.328351	95145984	63057920	29344992	33184
313	1.896441	95145984	63057920	30603384	33184
314	2.576606	95145984	63057920	32287488	33184
315	3.927177	95145984	63057920	18267144	33184
316	3.970981	95145984	63057920	20795632	33184
317	4.383696	95145984	63057920	23748752	33184
318	5.001187	95145984	63057920	27128552	33184
319	5.903472	95145984	63057920	30936248	33184
320	7.059034	95145984	63057920	19246400	33184
321	7.153097	95145984	63057920	23915832	33184
322	1.300759	95145984	63057920	29443136	33184
323	2.015874	95145984	63057920	30741344	33184
324	2.591657	95145984	63057920	32470528	33184
325	3.880465	95145984	63057920	18511672	33184
326	4.080294	95145984	63057920	21116760	33184
327	4.571458	95145984	63057920	24155816	33184
328	5.16738	95145984	63057920	27636928	33184
329	5.809406	95145984	63057920	31554952	33184
330	7.377876	95145984	63057920	19911960	33184
331	7.237954	95145984	63057920	24715568	33184
332	1.344078	95145984	63057920	30402184	33184
333	2.017133	95145984	63057920	31734192	33184
334	2.838761	95145984	63057920	33512552	33184
335	3.959603	95145984	63057920	19500208	33184
336	4.140005	95145984	63057920	22175216	33184
337	4.713291	95145984	63057920	25300512	33184
338	5.57513	95145984	63057920	28876528	33184
339	6.244263	95145984	63057920	32904976	33184
340	7.499741	95145984	63057920	21256856	33184
341	7.699844	95145984	63057920	26195408	33184
342	1.598848	95145984	63057920	32041488	33184
343	2.130512	95145984	63057920	33410296	33184
344	3.351281	95145984	63057920	19050296	33184
345	3.589962	95145984	63057920	21337504	33184
346	4.378318	95145984	63057920	24086096	33184
347	4.791359	95145984	63057920	27302808	33184
348	5.475897	95145984	63057920	30977072	33184
349	6.983917	95145984	63057920	19263528	33184
350	7.116721	95145984	63057920	23869160	33184
351	7.536971	95145984	63057920	28942616	33184
352	1.990999	95145984	63057920	18710792	33184
353	2.21747	95145984	63057920	20116464	33184
354	3.072167	95145984	63057920	21992928	33184
355	3.528727	95145984	63057920	24342808	33184
356	4.33974	95145984	63057920	27165112	33184
357	4.965401	95145984	63057920	30461720	33184
358	5.725141	95145984	63057920	34242344	33184
359	7.214294	95145984	63057920	22232856	33184
360	7.247569	95145984	63057920	26994952	33184
361	8.022319	95145984	63057920	32249720	33184
362	1.528751	95145984	63057920	22444920	33184
363	2.287242	95145984	63057920	23925592	33184
364	3.016008	95145984	63057920	25901864	33184
365	3.841472	95145984	63057920	28375320	33184
366	4.346731	95145984	63057920	31347472	33184
367	5.064648	95145984	63057920	34819320	33184
368	6.302478	95145984	63057920	22465520	33184
369	6.723838	95145984	63057920	26939592	33184
370	7.227425	95145984	63057920	31920840	33184
371	9.06539	95145984	63057920	21418576	33184
372	1.574597	95145984	63057920	27926184	33184
373	2.334877	95145984	63057920	29449928	33184
374	3.102723	95145984	63057920	31477392	33184
375	4.018192	95145984	63057920	34012368	33184
376	5.53465	95145984	63057920	20876616	33184
377	6.227145	95145984	63057920	24434016	33184
378	6.385773	95145984	63057920	28506200	33184
379	7.62814	95145984	63057920	33098176	33184
380	8.978649	95145984	63057920	22123544	33184
381	8.348859	95145984	63057920	27741112	33184
382	1.59357	95145984	63057920	34403928	33184
383	2.978687	95145984	63057920	19726296	33184
384	3.454316	95145984	63057920	21800824	33184
385	3.803547	95145984	63057920	24396928	33184
386	4.594785	95145984	63057920	27516208	33184
387	5.670014	95145984	63057920	31159496	33184
388	6.419146	95145984	63057920	35338912	33184
389	7.64115	95145984	63057920	23694520	33184
390	7.825282	95145984	63057920	28917952	33184
391	8.382734	95145984	63057920	34670424	33184
392	1.646764	95145984	63057920	25206656	33184
393	2.821975	95145984	63057920	26797624	33184
394	3.242232	95145984	63057920	28921256	33184
395	3.941809	95145984	63057920	31578568	33184
396	5.032261	95145984	63057920	34771480	33184
397	6.092123	95145984	63057920	22265112	33184
398	6.450348	95145984	63057920	26531632	33184
399	7.055636	95145984	63057920	31337024	33184
400	9.27219	95145984	63057920	20871152	33184
401	8.612648	95145984	63057920	26758744	33184
402	1.621952	95145984	63057920	33742960	33184
403	2.415202	95145984	63057920	35370760	33184
404	3.806453	95145984	63057920	21235472	33184
405	4.217459	95145984	63057920	23962136	33184
406	4.79804	95145984	63057920	27228656	33184
407	5.743244	95145984	63057920	31044864	33184
408	6.448805	95145984	63057920	35418568	33184
409	8.252844	95145984	63057920	24038768	33184
410	8.083159	95145984	63057920	29508088	33184
411	9.020796	95145984	63057920	35534840	33184
412	1.719846	95145984	63057920	26312984	33184
413	2.563025	95145984	63057920	27977656	33184
414	3.507797	95145984	63057920	30199432	33184
415	4.097985	95145984	63057920	32986112	33184
416	5.854568	95145984	63057920	20371448	33184
417	5.991455	95145984	63057920	24280352	33184
418	6.565208	95145984	63057920	28743488	33184
419	7.375231	95145984	63057920	33769728	33184
420	9.418934	95145984	63057920	23278048	33184
421	9.243	95145984	63057920	29435536	33184
422	2.437065	95145984	63057920	20465192	33184
423	2.631574	95145984	63057920	22166768	33184
424	3.486911	95145984	63057920	24445664	33184
425	4.578754	95145984	63057920	27287152	33184
426	5.058362	95145984	63057920	30710288	33184
427	5.855479	95145984	63057920	34697192	33184
428	7.85745	95145984	63057920	23105992	33184
429	7.8071	95145984	63057920	28243408	33184
430	8.376748	95145984	63057920	33958168	33184
431	10.397675	95145984	63057920	24141400	33184
432	1.761792	95145984	63057920	31603136	33184
433	2.62115	95145984	63057920	33341448	33184
434	3.431524	95145984	63057920	35661400	33184
435	5.143596	95145984	63057920	22336368	33184
436	5.486752	95145984	63057920	25827776	33184
437	5.981426	95145984	63057920	29900568	33184
438	7.05362	95145984	63057920	34560672	33184
439	8.98302	95145984	63057920	23724816	33184
440	8.729725	95145984	63057920	29561816	33184
441	9.660412	95145984	63057920	35995464	33184
442	1.774652	95145984	63057920	27273688	33184
443	2.646609	95145984	63057920	29048840	33184
444	3.519008	95145984	63057920	31417944	33184
445	4.444614	95145984	63057920	34383496	33184
446	6.365349	95145984	63057920	21883728	33184
447	6.135018	95145984	63057920	26049376	33184
448	7.220789	95145984	63057920	30816304	33184
449	7.884264	95145984	63057920	36177472	33184
450	9.495526	95145984	63057920	25792976	33184
451	9.879143	95145984	63057920	32363544	33184
452	1.928833	95145984	63057920	24317688	33184
453	2.728571	95145984	63057920	26130072	33184
454	3.63218	95145984	63057920	28548176	33184
455	4.473037	95145984	63057920	31577896	33184
456	5.610678	95145984	63057920	35212544	33184
457	7.472778	95145984	63057920	23315480	33184
458	7.44626	95145984	63057920	28172320	33184
459	8.178632	95145984	63057920	33640264	33184
460	10.163806	95145984	63057920	23746240	33184
461	10.017568	95145984	63057920	30443928	33184
462	1.913966	95145984	63057920	22833312	33184
463	2.752845	95145984	63057920	24682032	33184
464	3.985844	95145984	63057920	27149216	33184
465	4.778409	95145984	63057920	30236056	33184
466	5.876016	95145984	63057920	33944264	33184
467	7.584668	95145984	63057920	22337480	33184
468	7.715966	95145984	63057920	27291352	33184
469	8.509651	95145984	63057920	32869680	33184
470	10.546092	95145984	63057920	23238184	33184
471	10.09745	95145984	63057920	30077536	33184
472	2.860337	95145984	63057920	21885432	33184
473	2.832323	95145984	63057920	23770920	33184
474	3.739002	95145984	63057920	26287128	33184
475	4.659699	95145984	63057920	29438936	33184
476	5.839482	95145984	63057920	33220712	33184
477	7.687845	95145984	63057920	21843760	33184
478	7.80158	95145984	63057920	26903968	33184
479	8.993266	95145984	63057920	32596992	33184
480	10.823762	95145984	63057920	23144488	33184
481	10.530101	95145984	63057920	30111808	33184
482	2.775965	95145984	63057920	22075448	33184
483	2.947409	95145984	63057920	23997816	33184
484	4.014644	95145984	63057920	26563168	33184
485	4.7862	95145984	63057920	29772720	33184
486	5.704066	95145984	63057920	33628416	33184
487	8.008845	95145984	63057920	22309568	33184
488	7.915814	95145984	63057920	27461232	33184
489	9.028491	95145984	63057920	33263704	33184
490	10.754891	95145984	63057920	23880616	33184
491	10.796195	95145984	63057920	30989904	33184
492	2.250895	95145984	63057920	23888784	33184
493	2.950136	95145984	63057920	25848016	33184
494	3.893141	95145984	63057920	28462424	33184
495	5.045041	95145984	63057920	31733376	33184
496	5.8379	95145984	63057920	35666416	33184
497	7.926924	95145984	63057920	24194656	33184
498	8.066209	95145984	63057920	29446872	33184
499	8.953818	95145984	63057920	35356608	33184
500	10.894536	95145984	63057920	25824744	33184
501	10.723309	95145984	63057920	33062072	33184
502	2.084618	95145984	63057920	25874192	33184
503	3.097878	95145984	63057920	27870232	33184
504	4.396229	95145984	63057920	30536600	33184
505	4.97369	95145984	63057920	33870648	33184
506	6.222678	95145984	63057920	37873752	33184
507	7.832014	95145984	63057920	26202208	33184
508	8.138594	95145984	63057920	31551232	33184
509	8.914454	95145984	63057920	37571328	33184
510	11.177447	95145984	63057920	27906416	33184
511	11.149253	95145984	63057920	35279656	33184
512	2.122738	95145984	63057920	27987112	33184
513	3.161048	95145984	63057920	30019944	33184
514	4.40588	95145984	63057920	32732576	33184
515	5.143087	95145984	63057920	36126192	33184
516	7.354545	95145984	63057920	24116632	33184
517	7.081762	95145984	63057920	28879464	33184
518	8.16145	95145984	63057920	34332032	33184
519	10.440083	95145984	63057920	24573096	33184
520	10.585807	95145984	63057920	31392696	33184
521	12.72801	95145984	63057920	23432960	33184
522	2.26969	95145984	63057920	32332440	33184
523	3.120022	95145984	63057920	34402008	33184
524	4.161822	95145984	63057920	37165216	33184
525	6.382275	95145984	63057920	24428944	33184
526	6.541116	95145984	63057920	28581432	33184
527	7.195086	95145984	63057920	33438048	33184
528	9.587315	95145984	63057920	23339896	33184
529	9.786029	95145984	63057920	29583648	33184
530	10.715614	95145984	63057920	36525104	33184
531	12.73104	95145984	63057920	28002056	33184
532	2.128823	95145984	63057920	37068264	33184
533	4.187949	95145984	63057920	23072504	33184
534	4.703891	95145984	63057920	25883192	33184
535	5.24116	95145984	63057920	29399736	33184
536	6.580195	95145984	63057920	33623456	33184
537	7.337109	95145984	63057920	38555240	33184
538	9.595733	95145984	63057920	27851624	33184
539	9.895103	95145984	63057920	34203208	33184
540	12.077554	95145984	63057920	25465088	33184
541	11.942557	95145984	63057920	33244280	33184
542	2.251544	95145984	63057920	26775680	33184
543	3.546383	95145984	63057920	28922680	33184
544	4.306906	95145984	63057920	31782592	33184
545	5.343182	95145984	63057920	35360272	33184
546	7.722199	95145984	63057920	23791576	33184
547	7.921983	95145984	63057920	28812488	33184
548	8.551111	95145984	63057920	34554928	33184
549	11.449142	95145984	63057920	25219496	33184
550	11.09095	95145984	63057920	32406400	33184
551	13.696073	95145984	63057920	24807536	33184
552	2.214629	95145984	63057920	34207488	33184
553	3.278749	95145984	63057920	36388272	33184
554	5.466165	95145984	63057920	23304024	33184
555	5.750874	95145984	63057920	26943304	33184
556	6.52713	95145984	63057920	31327880	33184
557	7.824626	95145984	63057920	36445376	33184
558	9.887624	95145984	63057920	26319208	33184
559	10.018931	95145984	63057920	32918936	33184
560	12.682543	95145984	63057920	24675312	33184
561	12.483543	95145984	63057920	32772704	33184
562	2.363836	95145984	63057920	26825064	33184
563	3.53651	95145984	63057920	29062336	33184
564	4.444105	95145984	63057920	32047872	33184
565	5.52372	95145984	63057920	35788336	33184
566	7.941886	95145984	63057920	24400360	33184
567	8.217652	95145984	63057920	29639144	33184
568	8.940642	95145984	63057920	35629048	33184
569	11.429129	95145984	63057920	26462536	33184
570	11.151	95145984	63057920	33964440	33184
571	14.193133	95145984	63057920	26547336	33184
572	2.278344	95145984	63057920	36370520	33184
573	3.403592	95145984	63057920	38644584	33184
574	5.882819	95145984	63057920	25494080	33184
575	5.640883	95145984	63057920	29289776	33184
576	7.195185	95145984	63057920	33855848	33184
577	7.883555	95145984	63057920	39188128	33184
578	10.342476	95145984	63057920	29008200	33184
579	10.535257	95145984	63057920	35862688	33184
580	12.946787	95145984	63057920	27581440	33184
581	12.971893	95145984	63057920	35973056	33184
582	2.559384	95145984	63057920	30019184	33184
583	3.457686	95145984	63057920	32332152	33184
584	4.587996	95145984	63057920	35422088	33184
585	5.849468	95145984	63057920	39280656	33184
586	8.130583	95145984	63057920	27637008	33184
587	8.147066	95145984	63057920	33045856	33184
588	9.464435	95145984	63057920	39232216	33184
589	11.641363	95145984	63057920	29849992	33184
590	12.077945	95145984	63057920	37597000	33184
591	14.07128	95145984	63057920	30002392	33184
592	3.647449	95145984	63057920	23987064	33184
593	3.646621	95145984	63057920	26334720	33184
594	5.006397	95145984	63057920	29475240	33184
595	5.880024	95145984	63057920	33393848	33184
596	7.325385	95145984	63057920	38100240	33184
597	9.911368	95145984	63057920	27541200	33184
598	9.843296	95145984	63057920	33825784	33184
599	12.419153	95145984	63057920	25331856	33184
600	12.225413	95145984	63057920	33200192	33184
601	14.772397	95145984	63057920	26364304	33184
602	2.402756	95145984	63057920	36658536	33184
603	3.598563	95145984	63057920	39043000	33184
604	6.16447	95145984	63057920	26057016	33184
605	5.963643	95145984	63057920	30039416	33184
606	7.39243	95145984	63057920	34819368	33184
607	9.84467	95145984	63057920	24799256	33184
608	9.908772	95145984	63057920	31198192	33184
609	11.014602	95145984	63057920	38383808	33184
610	13.304338	95145984	63057920	30232160	33184
611	13.096832	95145984	63057920	39037528	33184
612	2.446253	95145984	63057920	33241424	33184
613	3.631599	95145984	63057920	35669408	33184
614	4.882272	95145984	63057920	38901520	33184
615	7.581263	95145984	63057920	26827824	33184
616	7.603092	95145984	63057920	31690400	33184
617	8.690185	95145984	63057920	37369720	33184
618	11.095891	95145984	63057920	27848672	33184
619	11.528036	95145984	63057920	35152768	33184
620	13.865116	95145984	63057920	27562152	33184
621	13.388146	95145984	63057920	36499096	33184
622	2.506933	95145984	63057920	31278488	33184
623	3.705079	95145984	63057920	33736616	33184
624	5.132484	95145984	63057920	37017216	33184
625	7.616841	95145984	63057920	25294352	33184
626	7.942983	95145984	63057920	30222776	33184
627	8.808669	95145984	63057920	35975216	33184
628	11.817772	95145984	63057920	26785024	33184
629	11.542106	95145984	63057920	34194680	33184
630	14.382631	95145984	63057920	26938616	33184
631	13.773527	95145984	63057920	36005464	33184
632	2.577554	95145984	63057920	30997488	33184
633	3.748691	95145984	63057920	33492456	33184
634	5.214913	95145984	63057920	36821312	33184
635	6.268937	95145984	63057920	40990224	33184
636	9.286529	95145984	63057920	29653480	33184
637	9.222281	95145984	63057920	35491896	33184
638	11.775563	95145984	63057920	26483632	33184
639	11.924033	95145984	63057920	34001136	33184
640	14.516407	95145984	63057920	26871232	33184
641	14.087548	95145984	63057920	36073272	33184
642	2.786185	95145984	63057920	31297152	33184
643	3.81425	95145984	63057920	33829176	33184
644	5.062311	95145984	63057920	37207048	33184
645	8.080261	95145984	63057920	25642656	33184
646	7.73438	95145984	63057920	30717192	33184
647	8.865734	95145984	63057920	36641312	33184
648	11.928658	95145984	63057920	27622616	33184
649	11.721712	95145984	63057920	35251048	33184
650	14.605096	95145984	63057920	28164336	33184
651	14.409662	95145984	63057920	37501160	33184
652	2.587647	95145984	63057920	32669056	33184
653	3.870575	95145984	63057920	35237648	33184
654	5.177123	95145984	63057920	38675424	33184
655	8.231323	95145984	63057920	27040936	33184
656	7.968664	95145984	63057920	32189816	33184
657	8.990128	95145984	63057920	38208264	33184
658	12.12958	95145984	63057920	29113880	33184
659	11.90776	95145984	63057920	36854288	33184
660	14.646748	95145984	63057920	29672000	33184
661	14.427591	95145984	63057920	39151768	33184
662	2.636328	95145984	63057920	34305056	33184
663	4.00435	95145984	63057920	36910520	33184
664	5.446381	95145984	63057920	40389144	33184
665	8.073402	95145984	63057920	28591824	33184
666	8.279828	95145984	63057920	33817536	33184
667	9.124002	95145984	63057920	39913408	33184
668	11.942201	95145984	63057920	30760312	33184
669	12.052051	95145984	63057920	38608624	33184
670	14.962413	95145984	63057920	31325120	33184
671	15.100405	95145984	63057920	40947032	33184
672	2.900896	95145984	63057920	36054056	33184
673	3.996543	95145984	63057920	38696232	33184
674	7.236594	95145984	63057920	26321592	33184
675	7.166835	95145984	63057920	30730968	33184
676	8.037437	95145984	63057920	36031392	33184
677	11.149886	95145984	63057920	26596096	33184
678	11.06414	95145984	63057920	33666080	33184
679	12.205958	95145984	63057920	41624920	33184
680	15.015443	95145984	63057920	34117352	33184
681	16.956531	95145984	63057920	28559048	33184
682	2.944312	95145984	63057920	40129920	33184
683	5.44544	95145984	63057920	26790376	33184
684	5.582401	95145984	63057920	30364672	33184
685	6.985679	95145984	63057920	34840136	33184
686	8.537874	95145984	63057920	40210384	33184
687	11.338848	95145984	63057920	30471336	33184
688	10.803205	95145984	63057920	37640920	33184
689	14.082732	95145984	63057920	29951976	33184
690	14.000696	95145984	63057920	38930880	33184
691	16.873748	95145984	63057920	32827256	33184
692	2.775061	95145984	63057920	29425032	33184
693	4.115344	95145984	63057920	32140992	33184
694	5.671606	95145984	63057920	35771576	33184
695	7.079651	95145984	63057920	40304624	33184
696	10.049488	95145984	63057920	29730224	33184
697	9.841617	95145984	63057920	36088464	33184
698	12.973794	95145984	63057920	27836680	33184
699	12.579395	95145984	63057920	36016472	33184
700	15.776912	95145984	63057920	29607136	33184
701	15.305785	95145984	63057920	39625816	33184
702	3.00529	95145984	63057920	35523480	33184
703	4.159661	95145984	63057920	38279848	33184
704	5.74584	95145984	63057920	41952352	33184
705	8.214446	95145984	63057920	30327112	33184
706	8.310961	95145984	63057920	35844248	33184
707	9.896345	95145984	63057920	42290304	33184
708	12.734639	95145984	63057920	33305304	33184
709	12.56969	95145984	63057920	41595840	33184
710	15.508695	95145984	63057920	34575624	33184
711	17.635472	95145984	63057920	29454488	33184
712	2.844954	95145984	63057920	41517312	33184
713	5.641496	95145984	63057920	28171736	33184
714	5.924469	95145984	63057920	31911800	33184
715	7.177232	95145984	63057920	36599480	33184
716	8.833586	95145984	63057920	42240216	33184
717	11.419497	95145984	63057920	32614752	33184
718	11.377584	95145984	63057920	40160360	33184
719	14.821474	95145984	63057920	32671216	33184
720	14.480703	95145984	63057920	42140096	33184
721	17.019038	95145984	63057920	36273520	33184
722	2.871661	95145984	63057920	33179064	33184
723	4.297531	95145984	63057920	36054616	33184
724	5.683124	95145984	63057920	39890944	33184
725	8.93766	95145984	63057920	28810832	33184
726	8.910792	95145984	63057920	34575256	33184
727	10.226162	95145984	63057920	41307848	33184
728	13.166564	95145984	63057920	32875560	33184
729	13.316795	95145984	63057920	41541248	33184
730	16.150783	95145984	63057920	34982576	33184
731	18.12998	95145984	63057920	30283832	33184
732	2.926275	95145984	63057920	42888152	33184
733	6.013619	95145984	63057920	29548608	33184
734	5.799596	95145984	63057920	33446920	33184
735	7.217152	95145984	63057920	38321720	33184
736	10.71738	95145984	63582208	28557400	33184
737	10.17525	95145984	63582208	35380992	33184
738	11.747089	95145984	63582208	43171528	33184
739	15.146531	95145984	63582208	35590064	33184
740	16.841826	95145984	63582208	30027168	33184
741	16.601853	95145984	63582208	40760776	33184
742	3.002791	95145984	63582208	37476136	33184
743	4.439083	95145984	63582208	40425432	33184
744	7.516988	95416320	63582208	28500944	33184
745	7.539364	95416320	63582208	33427080	33184
746	8.984574	95416320	63582208	39336464	33184
747	12.083732	95416320	63582208	30400264	33184
748	12.354538	95416320	63582208	38289192	33184
749	15.574421	95416320	63582208	31478400	33184
750	14.761184	95416320	63582208	41381592	33184
751	18.415557	95416320	63582208	36161328	33184
752	3.126848	95416320	63582208	33708680	33184
753	4.652707	95416320	63582208	36699848	33184
754	6.080416	95416320	63582208	40683352	33184
755	9.450839	95416320	63582208	29808312	33184
756	8.961333	95416320	63582208	35792400	33184
757	10.395444	95416320	63582208	42776744	33184
758	13.625501	95686656	64106496	34537136	33184
759	13.686679	95686656	64106496	43528216	33184
760	17.168045	95686656	64106496	37184560	33184
761	18.866743	95686656	64106496	32689720	33184
762	4.527187	95686656	64106496	29542872	33184
763	4.710656	95686656	64106496	32565760	33184
764	6.283084	95686656	64106496	36602352	33184
765	7.71658	95686656	64106496	41657104	33184
766	10.97936	95686656	64106496	31741128	33184
767	10.589703	95686656	64106496	38818032	33184
768	14.221734	95956992	64106496	31228272	33184
769	14.093833	95956992	64106496	40345824	33184
770	17.023923	95956992	64630784	34602120	33184
771	19.412248	95956992	64630784	30640920	33184
772	3.082328	95956992	64630784	43880528	33184
773	6.142625	95956992	64630784	30704192	33184
774	6.469148	95956992	64630784	34792192	33184
775	7.826424	95956992	64630784	39900720	33184
776	11.315201	95956992	64630784	30351328	33184
777	10.67271	96227328	64630784	37534224	33184
778	14.486783	96227328	64630784	30277496	33184
779	14.205378	96227328	64630784	39516592	33184
780	17.381926	96227328	64630784	34051320	33184
781	19.650188	96227328	64630784	30337752	33184
782	3.120396	96227328	64630784	43758152	33184
783	6.26754	96227328	64630784	30693128	33184
784	6.530023	96227328	64630784	34824040	33184
785	9.008502	96227328	64630784	40000504	33184
786	11.478115	96497664	64630784	30567344	33184
787	11.084743	96497664	64630784	37845808	33184
788	14.428541	96497664	64630784	30672952	33184
789	14.345931	96497664	64630784	39994784	33184
790	17.894805	96497664	64630784	34595864	33184
791	19.88038	96497664	65155072	31026912	33184
792	3.333417	96497664	65155072	44583048	33184
793	6.437919	96497664	65155072	31480088	33184
794	6.458282	96497664	65155072	35660032	33184
795	7.957765	96497664	65155072	40887840	33184
796	11.823869	96768000	65155072	31457416	33184
797	11.190135	96768000	65155072	38785168	33184
798	14.997857	96768000	65155072	31630904	33184
799	14.350484	96768000	65155072	41063000	33184
800	17.826746	96768000	65155072	35685264	33184
801	20.17444	96768000	65155072	32127096	33184
802	4.825218	96768000	65155072	29756328	33184
803	4.938989	96768000	65155072	32926400	33184
804	6.60558	96768000	65155072	37155416	33184
805	8.108823	96768000	65155072	42457272	33184
806	11.478231	97038336	65155072	32894080	33184
807	11.497039	97038336	65155072	40307680	33184
808	15.094523	97038336	65155072	33081080	33184
809	14.504512	97038336	65155072	42640936	33184
810	17.849805	97038336	65155072	37192672	33184
811	20.424288	97038336	65155072	33587512	33184
812	4.973841	97038336	65155072	31243864	33184
813	4.807656	97038336	65155072	34468832	33184
814	6.694383	97038336	65155072	38746984	33184
815	8.18308	97038336	65155072	44097552	33184
816	11.543936	97308672	65679360	34451360	33184
817	11.463232	97308672	65679360	41968080	33184
818	14.963271	97308672	65679360	34620152	33184
819	14.453329	97308672	65679360	44279752	33184
820	18.001503	97308672	65679360	38809600	33184
821	20.154848	97308672	65679360	35107000	33184
822	3.406367	97308672	65679360	34236680	33184
823	5.079245	97308672	65679360	37480424	33184
824	6.764803	97308672	65679360	41807568	33184
825	10.165268	97579008	65679360	31478056	33184
826	10.075527	97579008	65679360	37978536	33184
827	11.677633	97579008	65679360	45564000	33184
828	14.865383	97579008	65679360	37887600	33184
829	17.251491	97579008	66203648	32314416	33184
830	16.462219	97579008	66203648	43169744	33184
831	19.939789	97579008	66203648	39053560	33184
832	3.446363	97579008	66203648	37744176	33184
833	5.006462	97579008	66203648	41024736	33184
834	6.887881	97579008	66203648	45402752	33184
835	10.199194	97849344	66203648	34684416	33184
836	10.061948	97849344	66203648	41256384	33184
837	13.561948	97849344	66203648	33170272	33184
838	13.623347	97849344	66203648	41958696	33184
839	16.969615	97849344	66203648	35999936	33184
840	19.543346	97849344	66203648	31945200	33184
841	18.404416	97849344	66203648	44036256	33184
842	3.565405	97849344	66203648	42314512	33184
843	5.005669	97849344	66203648	45637352	33184
844	8.776838	98119680	66203648	33888808	33184
845	8.408919	98119680	66203648	39423448	33184
846	10.220562	98119680	66203648	46071016	33184
847	13.495591	98119680	66203648	37469128	33184
848	13.396249	98119680	66203648	46342760	33184
849	16.994114	98119680	66203648	39981328	33184
850	19.10478	98119680	66203648	35606408	33184
851	21.625493	98119680	66727936	32940832	33184
852	5.136269	98119680	66727936	31443480	33184
853	5.468395	98119680	66727936	34828656	33184
854	6.711388	98119680	66727936	39356536	33184
855	8.60256	98119680	66727936	45007920	33184
856	12.184322	98390016	66727936	35723712	33184
857	11.999939	98390016	66727936	43639256	33184
858	15.507721	98390016	66727936	36708920	33184
859	15.169401	98390016	66727936	46906976	33184
860	18.877344	98390016	66727936	41806656	33184
861	20.908366	98390016	66727936	38519648	33184
862	3.550697	98390016	66727936	38023608	33184
863	5.286944	98390016	66727936	41445440	33184
864	6.902252	98390016	66727936	46011560	33184
865	10.667693	98660352	66727936	35571048	33184
866	10.411191	98660352	66727936	42437400	33184
867	14.136675	98660352	66727936	34688304	33184
868	13.937926	98660352	66727936	43837696	33184
869	17.719727	98660352	67252224	38158128	33184
870	20.196224	98660352	67252224	34399768	33184
871	19.32547	98660352	67252224	47002728	33184
872	3.482916	98660352	67252224	45619008	33184
873	7.078819	98930688	67252224	33014920	33184
874	6.973471	98930688	67252224	37629784	33184
875	8.858468	98930688	67252224	43401056	33184
876	12.876109	98930688	67252224	34494376	33184
877	12.507863	98930688	67252224	42587408	33184
878	16.039504	98930688	67252224	36106952	33184
879	16.222037	98930688	67252224	46539984	33184
880	19.311951	98930688	67252224	41807896	33184
881	21.515123	98930688	67252224	38887432	33184
882	3.524578	98930688	67252224	38757640	33184
883	5.227893	98930688	67252224	42266872	33184
884	7.212315	98930688	67252224	46939240	33184
885	10.992527	99201024	67252224	36557920	33184
886	10.461773	99201024	67252224	43577232	33184
887	14.640954	99201024	67776512	35871472	33184
888	14.180069	99201024	67776512	45218640	33184
889	17.919076	99201024	67776512	39692088	33184
890	20.1193	99201024	67776512	36060256	33184
891	22.484217	99201024	67776512	34146536	33184
892	5.342948	99201024	67776512	33250176	33184
893	5.298481	99201024	67776512	36782952	33184
894	7.462303	99201024	67776512	41495088	33184
895	9.402098	99471360	67776512	47391696	33184
896	12.631497	99471360	67776512	38276456	33184
897	12.599502	99471360	67776512	46540712	33184
898	16.205718	99471360	67776512	39796696	33184
899	18.668783	99471360	67776512	35132024	33184
900	17.834558	99471360	67776512	46967888	33184
901	21.666139	99471360	68300800	43690624	33184
902	3.811456	99741696	68300800	43304560	33184
903	5.34988	99741696	68300800	46877584	33184
904	8.960895	99741696	68300800	35566248	33184
905	9.169396	99741696	68300800	41524560	33184
906	13.112925	99741696	68300800	33134264	33184
907	12.507482	99741696	68300800	41484792	33184
908	17.038336	99741696	68300800	35501376	33184
909	16.165648	99741696	68300800	46262728	33184
910	20.077185	99741696	68300800	42041752	33184
911	22.488829	100012032	68300800	39615280	33184
912	3.816574	100012032	68300800	39992432	33184
913	5.434589	100012032	68300800	43598944	33184
914	7.39759	100012032	68300800	48409216	33184
915	11.106198	100012032	68300800	38155056	33184
916	11.248426	100012032	68300800	45393984	33184
917	15.134939	100012032	68300800	37802864	33184
918	15.238687	100012032	68300800	47448384	33184
919	18.755869	100012032	68300800	42198288	33184
920	20.991629	100282368	68825088	38860168	33184
921	23.012097	100282368	68825088	37085448	33184
922	3.649377	100282368	68825088	38053136	33184
923	5.463958	100282368	68825088	41695888	33184
924	7.611936	100282368	68825088	46589024	33184
925	11.337579	100552704	68825088	36674488	33184
926	11.162684	100552704	68825088	43970944	33184
927	15.226298	100552704	68825088	36782184	33184
928	14.85645	100552704	68825088	46520512	33184
929	19.035499	100552704	68825088	41435048	33184
930	21.014218	100552704	68825088	38258080	33184
931	23.146311	100552704	68825088	36732296	33184
932	3.717741	100552704	68825088	37957768	33184
933	5.562776	100552704	68825088	41637336	33184
934	7.757488	100552704	68825088	46557336	33184
935	11.913136	100823040	69349376	36820776	33184
936	11.556579	100823040	69349376	44203048	33184
937	15.00928	100823040	69349376	37120944	33184
938	15.085187	100823040	69349376	46971440	33184
939	18.776885	100823040	69349376	41918488	33184
940	21.027941	100823040	69349376	38869272	33184
941	24.180161	100823040	69349376	37392608	33184
942	3.977485	100823040	69349376	38703528	33184
943	5.589326	101093376	69349376	42420064	33184
944	7.743791	101093376	69349376	47390600	33184
945	11.508057	101093376	69349376	37592432	33184
946	11.379117	101093376	69349376	45055824	33184
947	15.383368	101093376	69349376	37915680	33184
948	15.192536	101093376	69349376	47867432	33184
949	18.840876	101093376	69349376	42867880	33184
950	21.52636	101093376	69349376	39770408	33184
951	24.219213	101363712	69349376	38369600	33184
952	3.787256	101363712	69349376	39815320	33184
953	5.880546	101363712	69349376	43580336	33184
954	7.55612	101363712	69349376	48587184	33184
955	11.586357	101363712	69873664	38729808	33184
956	11.567874	101363712	69873664	46258264	33184
957	15.459837	101363712	69873664	39106560	33184
958	15.239197	101363712	69873664	49166624	33184
959	19.126791	101363712	69873664	44131080	33184
960	21.777455	101634048	69873664	41017664	33184
961	23.638209	101634048	69873664	39655088	33184
962	3.819548	101634048	69873664	41061952	33184
963	5.93207	101634048	69873664	44852064	33184
964	7.900218	101634048	69873664	49917560	33184
965	11.572476	101634048	69873664	40072688	33184
966	11.60182	101634048	69873664	47673552	33184
967	15.754558	101904384	69873664	40492104	33184
968	18.217551	101904384	69873664	35517328	33184
969	17.33968	101904384	69873664	46922736	33184
970	21.312904	101904384	69873664	43614304	33184
971	24.506972	101904384	70397952	42067952	33184
972	3.853956	101904384	70397952	43336392	33184
973	5.987182	101904384	70397952	47163384	33184
974	10.283523	102174720	70397952	36419880	33184
975	9.885451	102174720	70397952	42803656	33184
976	11.901816	102174720	70397952	50473656	33184
977	15.542967	102174720	70922240	43033160	33184
978	18.136088	102174720	70922240	37865912	33184
979	17.526667	102174720	70922240	49389160	33184
980	22.104586	102174720	70922240	45899384	33184
981	24.35268	102174720	70922240	44163344	33184
982	3.898103	102174720	70922240	45394496	33184
983	5.803309	102174720	70922240	49259496	33184
984	9.945259	102445056	70922240	38397296	33184
985	10.079573	102445056	70922240	44845800	33184
986	14.214752	102445056	70922240	36941744	33184
987	13.858676	102445056	70922240	45973736	33184
988	18.275577	102445056	70922240	40527264	33184
989	20.65941	102445056	70922240	37173304	33184
990	20.12523	102445056	70922240	50095144	33184
991	23.985866	102445056	70922240	47990784	33184
992	3.937718	102445056	70922240	48932048	33184
993	8.184735	102715392	71446528	36812088	33184
994	8.08908	102715392	71446528	42021504	33184
995	9.857591	102715392	71446528	48530128	33184
996	14.185804	102715392	71446528	40287760	33184
997	13.983344	102715392	71446528	49405784	33184
998	18.280817	102715392	71446528	43671056	33184
999	20.913855	102715392	71446528	39993976	33184
1000	23.007981	102715392	71446528	38117016	33184
