x	Duration	RSS	HeapTotal	HeapUsed	External
0	NA	120164352	86691840	13066856	24992
1	1.169918	120164352	86691840	13720128	24992
2	1.02596	120164352	86691840	14373312	24992
3	1.008783	120164352	86691840	15026544	24992
4	1.007771	120164352	86691840	15679944	24992
5	1.053435	120164352	86691840	16333544	24992
6	0.728158	120164352	86691840	16987400	24992
7	0.72703	120164352	86691840	17641360	24992
8	1.608068	120164352	86691840	18300096	24992
9	0.811799	120164352	86691840	18956136	24992
10	0.744488	120164352	86691840	19612088	24992
11	0.742093	120164352	86691840	20268472	24992
12	0.740815	120164352	86691840	20925096	24992
13	0.741474	120164352	86691840	21581976	24992
14	0.806409	120164352	86691840	22239096	24992
15	0.791965	120164352	86691840	22917656	24992
16	0.744708	120164352	86691840	23575448	24992
17	0.759238	120164352	86691840	24234008	24992
18	0.743069	120164352	86691840	24892792	24992
19	0.946746	120164352	86691840	25552240	24992
20	0.752269	120164352	86691840	26211480	24992
21	0.752538	120164352	86691840	26871000	24992
22	0.749698	120164352	86691840	27530208	24992
23	0.747265	120164352	86691840	28190440	24992
24	0.755378	120164352	86691840	28851088	24992
25	1.320825	120164352	86691840	13229096	24992
26	0.787319	120164352	86691840	13890672	24992
27	0.791372	120164352	86691840	14552408	24992
28	0.801892	120164352	86691840	15214416	24992
29	0.796134	120164352	86691840	15876704	24992
30	0.796652	120164352	86691840	16539312	24992
31	0.799881	120164352	86691840	17202152	24992
32	0.797025	120164352	86691840	17864816	24992
33	0.971439	120164352	86691840	18527536	24992
34	0.779214	120164352	86691840	19190520	24992
35	1.453308	120164352	86691840	19853800	24992
36	0.953843	120164352	86691840	20517344	24992
37	0.823017	120164352	86691840	21181320	24992
38	0.784825	120164352	86691840	21845320	24992
39	0.779575	120164352	86691840	22509536	24992
40	0.780859	120164352	86691840	23173864	24992
41	1.254733	120164352	86691840	23838528	24992
42	0.837514	120164352	86691840	24503368	24992
43	0.835768	120164352	86691840	25168536	24992
44	0.831454	120164352	86691840	25834072	24992
45	1.206801	120164352	86691840	26500560	24992
46	0.887766	120164352	86691840	27183336	24992
47	0.782749	120164352	86691840	27848904	24992
48	0.78038	120164352	86691840	28514816	24992
49	0.780971	120164352	86691840	29181040	24992
50	1.797349	120164352	86691840	13787760	24992
51	0.837105	120164352	86691840	14455440	24992
52	0.83147	120164352	86691840	15123448	24992
53	0.840112	120164352	86691840	15791576	24992
54	0.831833	120164352	86691840	16459920	24992
55	0.827437	120164352	86691840	17128600	24992
56	0.828215	120164352	86691840	17797416	24992
57	0.832468	120164352	86691840	18466608	24992
58	1.032251	120164352	86691840	19135944	24992
59	0.799511	120164352	86691840	19805432	24992
60	0.801808	120164352	86691840	20475056	24992
61	0.801566	120164352	86691840	21144832	24992
62	0.812819	120164352	86691840	21814760	24992
63	2.312114	120164352	86691840	22485368	24992
64	0.824312	120164352	86691840	23155224	24992
65	1.186197	120164352	86691840	23824992	24992
66	0.81997	120164352	86691840	24494904	24992
67	0.813257	120164352	86691840	25164968	24992
68	0.821308	120164352	86691840	25835168	24992
69	1.294419	120164352	86691840	26505488	24992
70	0.889101	120164352	86691840	27177168	24992
71	0.816382	120164352	86691840	27847912	24992
72	0.81277	120164352	86691840	28518808	24992
73	0.839222	120164352	86691840	29189944	24992
74	1.723601	120164352	86691840	13969760	24992
75	0.772512	120164352	86691840	14639936	24992
76	0.77371	120164352	86691840	15310248	24992
77	0.781935	120164352	86691840	15980696	24992
78	0.771638	120164352	86691840	16651264	24992
79	0.769828	120164352	86691840	17321968	24992
80	0.771448	120164352	86691840	17993032	24992
81	0.81995	120164352	86691840	18665232	24992
82	0.796796	120164352	86691840	19336288	24992
83	0.77753	120164352	86691840	20007472	24992
84	0.783616	120164352	86691840	20679928	24992
85	0.784025	120164352	86691840	21351352	24992
86	0.865472	120164352	86691840	22022792	24992
87	0.858338	120164352	86691840	22695352	24992
88	0.7788	120164352	86691840	23367272	24992
89	0.779116	120164352	86691840	24039376	24992
90	0.789988	120164352	86691840	24711608	24992
91	1.558605	120164352	86691840	25384240	24992
92	0.806615	120164352	86691840	26057312	24992
93	0.785916	120164352	86691840	26729936	24992
94	0.788192	120164352	86691840	27402696	24992
95	0.85926	120164352	86691840	28090248	24992
96	0.800844	120164352	86691840	28762920	24992
97	0.783177	120164352	86691840	29435472	24992
98	0.782789	120164352	86691840	30108152	24992
99	1.903363	120164352	86691840	14912992	24992
100	0.785154	120164352	86691840	15585928	24992
101	0.784023	120164352	86691840	16258968	24992
102	0.773766	120164352	86691840	16932064	24992
103	0.776987	120164352	86691840	17605304	24992
104	0.97171	120164352	86691840	18278680	24992
105	0.77407	120164352	86691840	18952224	24992
106	0.777361	120164352	86691840	19625896	24992
107	0.777894	120164352	86691840	20299704	24992
108	0.935972	120164352	86691840	20973648	24992
109	0.809613	120164352	86691840	21647728	24992
110	0.781523	120164352	86691840	22321928	24992
111	0.77816	120164352	86691840	22996264	24992
112	0.783195	120164352	86691840	23670768	24992
113	0.829997	120164352	86691840	24345408	24992
114	0.780924	120164352	86691840	25020168	24992
115	0.787802	120164352	86691840	25695064	24992
116	0.784157	120164352	86691840	26370096	24992
117	1.683182	120164352	86691840	27045768	24992
118	0.790818	120164352	86691840	27720944	24992
119	0.782489	120164352	86691840	28396264	24992
120	0.880767	120164352	86691840	29071776	24992
121	0.857555	120164352	86691840	29748408	24992
122	0.992722	120164352	86691840	30424176	24992
123	1.746206	120164352	86691840	15203600	24992
124	0.801981	120164352	86691840	15879624	24992
125	1.016331	120164352	86691840	16571704	24992
126	0.786674	120164352	86691840	17248000	24992
127	0.77841	120164352	86691840	17924432	24992
128	0.7794	120164352	86691840	18600664	24992
129	0.778763	120164352	86691840	19276456	24992
130	0.964045	120164352	86691840	19952384	24992
131	0.858671	120164352	86691840	20628608	24992
132	0.807683	120164352	86691840	21305680	24992
133	0.848252	120164352	86691840	21982128	24992
134	1.013796	120164352	86691840	22659368	24992
135	0.776571	120164352	86691840	23336096	24992
136	0.775363	120164352	86691840	24012960	24992
137	0.778304	120164352	86691840	24690008	24992
138	0.779028	120164352	86691840	25367184	24992
139	0.788939	120164352	86691840	26044496	24992
140	0.777484	120164352	86691840	26721928	24992
141	0.777819	120164352	86691840	27399496	24992
142	0.780492	120164352	86691840	28079024	24992
143	0.780805	120164352	86691840	28756864	24992
144	0.797201	120164352	86691840	29434856	24992
145	0.784753	120164352	86691840	30113048	24992
146	0.784339	120164352	86691840	30791312	24992
147	1.856712	120164352	86691840	15621272	24992
148	0.824536	120164352	86691840	16299776	24992
149	0.946037	120164352	86691840	16978528	24992
150	0.805169	120164352	86691840	17659032	24992
151	0.848748	120164352	86691840	18339008	24992
152	0.86236	120164352	86691840	19019760	24992
153	0.782614	120164352	86691840	19699448	24992
154	0.782672	120164352	86691840	20379264	24992
155	0.782614	120164352	86691840	21059216	24992
156	0.782143	120164352	86691840	21739288	24992
157	0.832886	120164352	86691840	22419496	24992
158	0.783217	120164352	86691840	23099840	24992
159	0.78439	120164352	86691840	23780320	24992
160	0.785981	120164352	86691840	24460616	24992
161	0.818062	120164352	86691840	25140744	24992
162	0.819469	120164352	86691840	25821008	24992
163	0.788071	120164352	86691840	26501544	24992
164	0.788265	120164352	86691840	27182072	24992
165	0.794153	120164352	86691840	27862696	24992
166	0.965522	120164352	86691840	28543728	24992
167	0.798033	120164352	86691840	29224904	24992
168	0.788106	120164352	86691840	29906216	24992
169	0.783117	120164352	86691840	30587696	24992
170	0.784604	120164352	86691840	31269304	24992
171	1.893647	120164352	86691840	16160160	24992
172	0.808723	120164352	86691840	16842040	24992
173	0.807728	120164352	86691840	17524056	24992
174	0.963797	120164352	86691840	18206192	24992
175	1.147478	120164352	86691840	18888480	24992
176	0.817703	120164352	86691840	19570920	24992
177	0.834214	120164352	86691840	20257368	24992
178	0.818481	120164352	86691840	20939792	24992
179	1.625313	120164352	86691840	21623008	24992
180	0.858542	120164352	86691840	22305704	24992
181	0.826773	120164352	86691840	22989640	24992
182	0.980206	120164352	86691840	23672552	24992
183	0.827822	120164352	86691840	24369208	24992
184	0.781131	120164352	86691840	25052360	24992
185	0.780433	120164352	86691840	25735680	24992
186	0.847174	120164352	86691840	26419128	24992
187	0.96871	120164352	86691840	27102712	24992
188	0.782917	120164352	86691840	27786432	24992
189	0.77837	120164352	86691840	28470288	24992
190	0.777734	120164352	86691840	29154264	24992
191	0.787196	120164352	86691840	29838376	24992
192	0.783038	120164352	86691840	30522344	24992
193	0.780408	120164352	86691840	31206112	24992
194	0.780545	120164352	86691840	31890008	24992
195	1.717601	120164352	86691840	16835456	24992
196	0.805007	120164352	86691840	17519624	24992
197	0.803426	120164352	86691840	18203896	24992
198	0.80101	120164352	86691840	18888296	24992
199	0.799003	120164352	86691840	19572848	24992
200	1.695784	120164352	86691840	20257992	24992
201	0.799805	120164352	86691840	20942848	24992
202	0.786588	120164352	86691840	21627832	24992
203	0.784398	120164352	86691840	22312952	24992
204	0.838466	120164352	86691840	22998208	24992
205	0.785967	120164352	86691840	23683600	24992
206	0.785046	120164352	86691840	24369112	24992
207	0.801506	120164352	86691840	25054760	24992
208	0.854264	120164352	86691840	25740576	24992
209	0.812142	120164352	86691840	26426528	24992
210	0.791622	120164352	86691840	27112600	24992
211	0.79028	120164352	86691840	27798928	24992
212	0.845911	120164352	86691840	28502368	24992
213	0.984677	120164352	86691840	29188816	24992
214	0.786045	120164352	86691840	29875392	24992
215	0.787356	120164352	86691840	30562120	24992
216	0.986236	120164352	86691840	31249296	24992
217	0.8216	120164352	86691840	31939936	24992
218	0.811838	120164352	86691840	32627080	24992
219	1.832265	120164352	86691840	17629920	24992
220	0.82465	120164352	86691840	18318136	24992
221	0.800736	120164352	86691840	19005688	24992
222	0.784867	120164352	86691840	19693360	24992
223	0.786975	120164352	86691840	20381168	24992
224	0.785811	120164352	86691840	21068848	24992
225	0.788176	120164352	86691840	21756312	24992
226	0.993458	120164352	86691840	22443904	24992
227	0.789482	120164352	86691840	23131632	24992
228	0.794209	120164352	86691840	23819632	24992
229	0.789851	120164352	86691840	24510472	24992
230	0.790829	120164352	86691840	25198568	24992
231	0.78556	120164352	86691840	25886816	24992
232	0.783541	120164352	86691840	26575200	24992
233	0.788169	120164352	86691840	27263752	24992
234	0.786338	120164352	86691840	27952432	24992
235	0.793404	120164352	86691840	28641248	24992
236	0.787234	120164352	86691840	29330200	24992
237	0.788104	120164352	86691840	30019288	24992
238	0.789757	120164352	86691840	30708528	24992
239	0.789185	120164352	86691840	31397872	24992
240	0.971855	120164352	86691840	32087384	24992
241	0.81215	120164352	86691840	32777032	24992
242	0.794657	120164352	86691840	33466800	24992
243	1.820107	120164352	86691840	18530472	24992
244	0.830554	120164352	86691840	19220512	24992
245	0.811734	120164352	86691840	19910656	24992
246	0.805505	120164352	86691840	20600928	24992
247	0.807132	120164352	86691840	21291352	24992
248	0.810966	120164352	86691840	21981976	24992
249	0.810158	120164352	86691840	22672704	24992
250	0.80774	120164352	86691840	23363560	24992
251	0.806127	120164352	86691840	24054552	24992
252	0.81006	120164352	86691840	24745680	24992
253	1.010423	120164352	86691840	25436944	24992
254	0.798694	120164352	86691840	26128328	24992
255	0.795865	120164352	86691840	26819848	24992
256	0.80444	120164352	86691840	27511744	24992
257	0.797913	120164352	86691840	28203408	24992
258	0.805429	120164352	86691840	28895192	24992
259	0.797851	120164352	86691840	29587112	24992
260	0.802239	120164352	86691840	30279168	24992
261	0.801883	120164352	86691840	30971240	24992
262	0.799876	120164352	86691840	31663576	24992
263	0.797844	120164352	86691840	32356216	24992
264	0.797952	120164352	86691840	33049168	24992
265	0.794422	120164352	86691840	33742944	24992
266	0.79571	120164352	86691840	34437192	24992
267	2.067411	120164352	86691840	19569480	24992
268	0.819092	120164352	86691840	20264704	24992
269	0.820068	120164352	86691840	20960416	24992
270	0.819631	120164352	86691840	21656600	24992
271	0.822741	120164352	86691840	22353272	24992
272	0.825618	120164352	86691840	23050432	24992
273	0.821487	120164352	86691840	23748080	24992
274	0.823817	120164352	86691840	24446304	24992
275	0.829756	120164352	86691840	25144920	24992
276	0.827376	120164352	86691840	25844016	24992
277	0.824887	120164352	86691840	26543368	24992
278	0.822583	120164352	86691840	27242728	24992
279	0.822501	120164352	86691840	27942216	24992
280	1.012648	120164352	86691840	28641840	24992
281	0.806545	120164352	86691840	29341600	24992
282	0.808572	120164352	86691840	30041480	24992
283	0.805431	120164352	86691840	30741496	24992
284	0.815308	120164352	86691840	31441648	24992
285	0.813431	120164352	86691840	32141936	24992
286	0.806338	120164352	86691840	32842344	24992
287	0.808257	120164352	86691840	33542888	24992
288	0.81181	120164352	86691840	34243312	24992
289	0.821185	120164352	86691840	34943488	24992
290	1.946873	120164352	86691840	20178184	24992
291	0.833748	120164352	86691840	20878616	24992
292	0.846941	120164352	86691840	21579184	24992
293	0.851218	120164352	86691840	22279888	24992
294	0.808236	120164352	86691840	22980712	24992
295	0.807548	120164352	86691840	23681672	24992
296	0.82728	120164352	86691840	24382768	24992
297	0.846482	120164352	86691840	25084000	24992
298	0.810766	120164352	86691840	25785352	24992
299	0.810138	120164352	86691840	26486840	24992
300	0.81559	120164352	86691840	27188464	24992
301	0.814431	120164352	86691840	27890224	24992
302	0.818866	120164352	86691840	28592104	24992
303	0.811331	120164352	86691840	29294120	24992
304	0.828459	120164352	86691840	29996272	24992
305	0.817245	120164352	86691840	30698560	24992
306	0.826507	120164352	86691840	31400968	24992
307	0.817051	120164352	86691840	32103512	24992
308	0.819292	120164352	86691840	32806232	24992
309	0.819573	120164352	86691840	33509040	24992
310	0.809203	120164352	86691840	34211976	24992
311	0.833974	120164352	86691840	34915056	24992
312	0.870444	120164352	86691840	35618256	24992
313	0.832785	120164352	86691840	36321600	24992
314	2.075423	120164352	86691840	21653112	24992
315	0.822779	120164352	86691840	22356712	24992
316	0.817115	120164352	86691840	23060448	24992
317	1.017576	120164352	86691840	23764320	24992
318	0.875876	120164352	86691840	24468312	24992
319	1.008632	120164352	86691840	25172440	24992
320	0.821678	120164352	86691840	25876472	24992
321	0.835509	120164352	86691840	26580224	24992
322	0.82238	120164352	86691840	27284104	24992
323	0.837697	120164352	86691840	27988120	24992
324	0.827504	120164352	86691840	28692272	24992
325	0.827105	120164352	86691840	29396560	24992
326	0.815028	120164352	86691840	30100968	24992
327	0.822015	120164352	86691840	30805512	24992
328	0.823529	120164352	86691840	31510192	24992
329	0.820231	120164352	86691840	32215008	24992
330	0.818925	120164352	86691840	32919944	24992
331	0.820225	120164352	86691840	33625016	24992
332	0.835138	120164352	86691840	34330240	24992
333	0.856555	120164352	86691840	35035584	24992
334	0.823305	120164352	86691840	35741048	24992
335	0.823704	120164352	86691840	36446648	24992
336	0.826102	120164352	86691840	37152384	24992
337	2.046019	120164352	86691840	22542400	24992
338	0.831497	120164352	86691840	23248392	24992
339	0.829785	120164352	86691840	23954520	24992
340	0.850965	120164352	86691840	24660784	24992
341	0.835667	120164352	86691840	25367184	24992
342	0.821793	120164352	86691840	26073704	24992
343	0.821038	120164352	86691840	26780360	24992
344	0.82136	120164352	86691840	27487152	24992
345	1.028861	120164352	86691840	28194080	24992
346	0.825415	120164352	86691840	28901128	24992
347	0.825712	120164352	86691840	29608312	24992
348	0.828434	120164352	86691840	30315632	24992
349	0.979988	120164352	86691840	31023088	24992
350	0.864075	120164352	86691840	31731496	24992
351	0.892709	120164352	86691840	32439208	24992
352	0.83024	120164352	86691840	33146840	24992
353	0.830557	120164352	86691840	33854176	24992
354	0.885638	120164352	86691840	34561640	24992
355	0.834566	120164352	86691840	35269240	24992
356	0.837733	120164352	86691840	35977000	24992
357	0.837455	120164352	86691840	36684864	24992
358	1.007288	120164352	86691840	37392856	24992
359	0.828601	120164352	86691840	38101256	24992
360	2.082752	120164352	86691840	23530776	24992
361	0.869406	120164352	86691840	24239176	24992
362	0.866007	120164352	86691840	24947696	24992
363	0.82926	120164352	86691840	25656352	24992
364	0.829857	120164352	86691840	26365144	24992
365	0.857966	120164352	86691840	27074072	24992
366	0.86129	120164352	86691840	27783120	24992
367	0.829572	120164352	86691840	28492304	24992
368	0.834148	120164352	86691840	29201624	24992
369	0.83489	120164352	86691840	29911080	24992
370	1.024083	120164352	86691840	30620656	24992
371	0.851453	120164352	86691840	31330368	24992
372	0.840653	120164352	86691840	32040216	24992
373	0.838993	120164352	86691840	32750200	24992
374	0.827299	120164352	86691840	33460304	24992
375	0.836138	120164352	86691840	34170544	24992
376	0.829969	120164352	86691840	34880920	24992
377	0.829042	120164352	86691840	35591432	24992
378	0.833637	120164352	86691840	36302064	24992
379	0.840942	120164352	86691840	37012832	24992
380	0.834161	120164352	86691840	37723736	24992
381	0.836627	120164352	86691840	38434776	24992
382	0.835677	120164352	86691840	39145936	24992
383	2.325747	120164352	86691840	24624456	24992
384	0.844872	120164352	86691840	25335696	24992
385	0.840955	120164352	86691840	26046624	24992
386	0.843163	120164352	86691840	26757672	24992
387	0.853567	120164352	86691840	27468856	24992
388	0.846727	120164352	86691840	28180176	24992
389	0.846932	120164352	86691840	28891632	24992
390	0.837999	120164352	86691840	29603208	24992
391	1.047187	120164352	86691840	30315528	24992
392	0.847902	120164352	86691840	31027376	24992
393	0.867048	120164352	86691840	31741384	24992
394	0.837576	120164352	86691840	32453488	24992
395	0.839405	120164352	86691840	33165728	24992
396	0.85269	120164352	86691840	33878104	24992
397	0.842395	120164352	86691840	34590616	24992
398	1.557235	120164352	86691840	35304936	24992
399	1.045829	120164352	86691840	36017704	24992
400	0.871099	120164352	86691840	36730608	24992
401	0.853127	120164352	86691840	37443648	24992
402	0.846845	120164352	86691840	38156808	24992
403	0.93994	120164352	86691840	38870104	24992
404	0.936204	120164352	86691840	39596920	24992
405	0.852937	120164352	86691840	40310488	24992
406	2.390885	120164352	86691840	25838280	24992
407	0.869827	120164352	86691840	26552104	24992
408	0.841347	120164352	86691840	27266064	24992
409	0.850285	120164352	86691840	27980160	24992
410	0.839839	120164352	86691840	28694376	24992
411	1.056272	120164352	86691840	29408728	24992
412	0.84911	120164352	86691840	30123216	24992
413	0.845165	120164352	86691840	30837840	24992
414	0.845559	120164352	86691840	31552584	24992
415	0.902165	120164352	86691840	32267464	24992
416	0.849396	120164352	86691840	32982304	24992
417	0.850653	120164352	86691840	33696816	24992
418	0.850673	120164352	86691840	34411448	24992
419	0.893755	120164352	86691840	35126216	24992
420	0.878507	120164352	86691840	35841120	24992
421	0.85291	120164352	86691840	36556160	24992
422	0.842067	120164352	86691840	37271320	24992
423	0.861574	120164352	86691840	37986616	24992
424	0.880201	120164352	86691840	38702048	24992
425	0.845018	120164352	86691840	39417616	24992
426	0.845464	120164352	86691840	40133304	24992
427	0.848381	120164352	86691840	40849128	24992
428	0.854068	120164352	86691840	41565088	24992
429	2.232513	120164352	86691840	27146584	24992
430	0.85826	120164352	86691840	27862800	24992
431	1.050863	120164352	86691840	28579152	24992
432	0.88141	120164352	86691840	29295640	24992
433	0.852615	120164352	86691840	30012264	24992
434	0.853657	120164352	86691840	30729008	24992
435	0.85832	120164352	86691840	31445888	24992
436	0.873879	120164352	86691840	32162904	24992
437	0.862103	120164352	86691840	32880056	24992
438	0.846564	120164352	86691840	33597328	24992
439	0.845851	120164352	86691840	34314736	24992
440	0.854276	120164352	86691840	35032280	24992
441	0.848528	120164352	86691840	35749960	24992
442	0.848548	120164352	86691840	36467760	24992
443	0.849188	120164352	86691840	37185696	24992
444	0.851826	120164352	86691840	37903768	24992
445	1.20351	120164352	86691840	38621976	24992
446	0.85484	120164352	86691840	39340304	24992
447	0.858137	120164352	86691840	40058768	24992
448	1.066738	120164352	86691840	40777216	24992
449	0.858689	120164352	86691840	41495304	24992
450	0.863495	120164352	86691840	42213520	24992
451	0.860716	120164352	86691840	42931872	24992
452	2.33238	120164352	86691840	28566320	24992
453	0.889123	120164352	86691840	29284984	24992
454	0.867894	120164352	86691840	30003736	24992
455	0.870088	120164352	86691840	30722616	24992
456	0.92414	120164352	86691840	31441808	24992
457	0.859926	120164352	86691840	32160960	24992
458	0.856386	120164352	86691840	32880232	24992
459	0.858969	120164352	86691840	33599920	24992
460	0.870522	120164352	86691840	34319456	24992
461	0.858793	120164352	86691840	35039136	24992
462	0.863441	120164352	86691840	35759072	24992
463	1.006175	120164352	86691840	36480176	24992
464	0.910367	120164352	86691840	37200248	24992
465	0.870336	120164352	86691840	37920624	24992
466	0.869148	120164352	86691840	38640960	24992
467	0.86502	120164352	86691840	39361424	24992
468	0.870731	120164352	86691840	40082288	24992
469	1.088877	120164352	86691840	40803016	24992
470	0.858857	120164352	86691840	41523872	24992
471	0.854986	120164352	86691840	42245136	24992
472	0.856706	120164352	86691840	42966264	24992
473	0.887893	120164352	86691840	43687528	24992
474	0.860207	120164352	86691840	44408952	24992
475	2.351342	120164352	86691840	30096864	24992
476	0.881484	120164352	86691840	30818520	24992
477	0.871534	120164352	86691840	31540312	24992
478	0.866375	120164352	86691840	32262224	24992
479	0.8697	120164352	86691840	32984272	24992
480	1.244668	120164352	86691840	33706320	24992
481	0.882908	120164352	86691840	34427992	24992
482	0.895802	120164352	86691840	35152104	24992
483	0.872753	120164352	86691840	35874040	24992
484	0.878897	120164352	86691840	36596112	24992
485	0.874351	120164352	86691840	37318320	24992
486	0.86019	120164352	86691840	38040648	24992
487	0.860505	120164352	86691840	38763112	24992
488	0.864411	120164352	86691840	39485712	24992
489	0.880754	120164352	86691840	40208448	24992
490	0.868136	120164352	86691840	40931432	24992
491	1.145647	120164352	86691840	41655216	24992
492	0.925793	120164352	86691840	42378344	24992
493	1.129391	120164352	86691840	43101616	24992
494	0.873896	120164352	86691840	43825008	24992
495	0.921992	120164352	86691840	44552704	24992
496	0.924908	120164352	86691840	45276336	24992
497	0.886178	120164352	86691840	46000088	24992
498	2.435517	120164352	86691840	31740728	24992
499	0.902532	120164352	86691840	32464744	24992
500	0.899631	120164352	86691840	33188896	24992
501	0.894854	120164352	86691840	33913184	24992
502	0.878837	120164352	86691840	34637592	24992
503	0.882335	120164352	86691840	35362136	24992
504	0.934137	120164352	86691840	36086816	24992
505	0.927866	120164352	86691840	36811632	24992
506	0.888365	120164352	86691840	37536592	24992
507	0.869634	120164352	86691840	38261672	24992
508	0.924996	120164352	86691840	38986880	24992
509	0.874505	120164352	86691840	39712344	24992
510	0.887708	120164352	86691840	40437816	24992
511	0.875024	120164352	86691840	41163416	24992
512	0.908769	120164352	86691840	41889704	24992
513	0.895462	120164352	86691840	42615440	24992
514	0.877817	120164352	86691840	43341304	24992
515	0.884998	120164352	86691840	44067344	24992
516	0.880647	120164352	86691840	44793472	24992
517	1.121908	120164352	86691840	45519360	24992
518	0.870847	120164352	86691840	46245496	24992
519	0.876165	120164352	86691840	46971896	24992
520	0.873689	120164352	86691840	47698560	24992
521	2.682677	120164352	86691840	33496744	24992
522	0.883751	120164352	86691840	34224440	24992
523	0.936222	120164352	86691840	34952400	24992
524	0.883329	120164352	86691840	35680616	24992
525	0.88177	120164352	86691840	36409096	24992
526	0.88361	120164352	86691840	37137824	24992
527	0.883625	120164352	86691840	37866816	24992
528	1.08752	120164352	86691840	38596072	24992
529	0.88672	120164352	86691840	39325592	24992
530	0.885407	120164352	86691840	40055360	24992
531	0.890513	120164352	86691840	40785392	24992
532	0.901597	120164352	86691840	41515688	24992
533	0.893788	120164352	86691840	42246248	24992
534	0.881099	120164352	86691840	42977056	24992
535	0.881147	120164352	86691840	43708128	24992
536	0.890535	120164352	86691840	44439464	24992
537	0.900706	120164352	86691840	45171064	24992
538	0.888783	120164352	86691840	45902912	24992
539	0.888219	120164352	86691840	46635024	24992
540	0.926421	120164352	86691840	47367400	24992
541	0.911108	120164352	86691840	48100040	24992
542	0.893371	120164352	86691840	48832928	24992
543	2.538174	120164352	86691840	34725400	24992
544	0.916986	120164352	86691840	35458720	24992
545	0.914241	120164352	86691840	36191760	24992
546	0.915954	120164352	86691840	36925048	24992
547	0.956057	120164352	86691840	37658600	24992
548	0.945727	120164352	86691840	38392416	24992
549	0.908149	120164352	86691840	39126496	24992
550	0.892086	120164352	86691840	39860824	24992
551	1.109928	120164352	86691840	40595424	24992
552	0.891875	120164352	86691840	41330272	24992
553	0.905315	120164352	86691840	42065392	24992
554	0.905781	120164352	86691840	42800760	24992
555	0.913713	120164352	86691840	43536392	24992
556	0.913057	120164352	86691840	44279088	24992
557	0.912614	120164352	86691840	45015248	24992
558	1.524737	120164352	86691840	45751824	24992
559	0.984344	120164352	86691840	46488496	24992
560	0.910377	120164352	86691840	47225432	24992
561	0.911739	120164352	86691840	47962632	24992
562	0.911565	120164352	86691840	48700176	24992
563	1.28198	120164352	86691840	49437888	24992
564	0.971321	120164352	86691840	50175864	24992
565	2.899279	120164352	86691840	36259992	24992
566	0.899631	120164352	86691840	36997576	24992
567	0.896195	120164352	86691840	37735400	24992
568	0.896703	120164352	86691840	38473472	24992
569	1.175256	120164352	86691840	39211792	24992
570	0.898584	120164352	86691840	39950344	24992
571	0.897086	120164352	86691840	40689144	24992
572	0.902212	120164352	86691840	41428192	24992
573	0.936612	120164352	86691840	42167488	24992
574	0.903292	120164352	86691840	42907016	24992
575	0.905767	120164352	86691840	43646792	24992
576	0.907905	120164352	86691840	44386800	24992
577	0.91895	120164352	86691840	45126432	24992
578	0.909717	120164352	86691840	45866296	24992
579	0.918559	120164352	86691840	46606432	24992
580	0.91166	120164352	86691840	47346784	24992
581	0.925765	120164352	86691840	48087392	24992
582	0.896942	120164352	86691840	48828232	24992
583	0.897999	120164352	86691840	49569320	24992
584	0.903568	120164352	86691840	50310656	24992
585	0.903895	120164352	86691840	51052240	24992
586	1.129606	120164352	86691840	51794056	24992
587	2.908425	120164352	86691840	38062248	24992
588	0.929392	120164352	86691840	38804552	24992
589	0.912266	120164352	86691840	39547112	24992
590	0.911587	120164352	86691840	40289904	24992
591	0.913555	120164352	86691840	41032944	24992
592	0.922791	120164352	86691840	41776232	24992
593	0.914841	120164352	86691840	42519768	24992
594	0.916957	120164352	86691840	43263536	24992
595	0.920013	120164352	86691840	44007608	24992
596	1.130697	120164352	86691840	44751864	24992
597	0.9269	120164352	86691840	45496376	24992
598	0.905306	120164352	86691840	46241120	24992
599	0.960193	120164352	86691840	46986112	24992
600	0.919689	120164352	86691840	47731352	24992
601	0.913975	120164352	86691840	48476840	24992
602	0.910664	120164352	86691840	49222560	24992
603	0.912608	120164352	86691840	49968528	24992
604	0.93418	120164352	86691840	50714744	24992
605	0.929088	120164352	86691840	51461208	24992
606	0.920855	120164352	86691840	52207928	24992
607	0.920479	120164352	86691840	52954880	24992
608	0.939472	120164352	86691840	53702016	24992
609	2.957526	120164352	86691840	40016776	24992
610	0.938455	120164352	86691840	40763808	24992
611	0.932258	120164352	86691840	41511144	24992
612	0.931162	120164352	86691840	42258664	24992
613	0.93596	120164352	86691840	43006440	24992
614	0.920242	120164352	86691840	43754480	24992
615	0.91666	120164352	86691840	44502736	24992
616	0.91865	120164352	86691840	45251240	24992
617	0.919905	120164352	86691840	45999992	24992
618	1.359441	120164352	86691840	46748976	24992
619	1.082551	120164352	86691840	47498208	24992
620	1.013011	120164352	86691840	48247688	24992
621	1.130177	120164352	86691840	48997416	24992
622	1.017716	120164352	86691840	49747416	24992
623	0.9998	120164352	86691840	50497632	24992
624	1.102432	120164352	86691840	51248088	24992
625	1.093583	120164352	86691840	51998792	24992
626	1.027524	120164352	86691840	52749728	24992
627	1.022555	120164352	86691840	53500912	24992
628	1.032025	120164352	86691840	54252344	24992
629	1.088507	120164352	86691840	55004024	24992
630	1.045134	120164352	86691840	55755856	24992
631	4.137941	120434688	87216128	42187352	24992
632	1.08668	120434688	87216128	42939584	24992
633	1.045653	120434688	87216128	43692048	24992
634	1.056215	120434688	87216128	44444744	24992
635	1.073409	120434688	87216128	45197672	24992
636	1.021753	120434688	87216128	45950816	24992
637	1.282183	120434688	87216128	46704216	24992
638	1.076643	120705024	87216128	47457816	24992
639	1.122989	120705024	87216128	48211656	24992
640	1.104	120705024	87216128	48965680	24992
641	1.023919	120705024	87216128	49719328	24992
642	1.082581	120705024	87216128	50473208	24992
643	1.113581	120705024	87216128	51227320	24992
644	1.134112	120975360	87740416	51981648	24992
645	1.167442	120975360	87740416	52736216	24992
646	1.07919	120975360	87740416	53490896	24992
647	1.048833	120975360	87740416	54245824	24992
648	1.21026	120975360	87740416	55001000	24992
649	1.08139	120975360	87740416	55756424	24992
650	1.100242	121245696	87740416	56512088	24992
651	1.128067	121245696	87740416	57268000	24992
652	1.153031	121245696	87740416	58024152	24992
653	4.882064	122327040	88788992	44657848	24992
654	1.130211	122327040	89313280	45414584	24992
655	1.112601	122597376	89313280	46171472	24992
656	1.098813	122597376	89313280	46928600	24992
657	1.020726	122597376	89313280	47685976	24992
658	1.150832	122597376	89313280	48443584	24992
659	1.138786	122597376	89313280	49201440	24992
660	1.123426	122597376	89313280	49959544	24992
661	1.167481	122597376	89313280	50717896	24992
662	1.151125	122867712	89313280	51476400	24992
663	1.156352	122867712	89313280	52235112	24992
664	1.12797	122867712	89313280	52994064	24992
665	1.638776	122867712	89313280	53753264	24992
666	1.614531	122867712	89837568	54512712	24992
667	1.86921	122867712	89837568	55272440	24992
668	1.623978	123138048	89837568	56035184	24992
669	1.700422	123138048	89837568	56795360	24992
670	1.745074	123138048	89837568	57555784	24992
671	1.750739	123138048	89837568	58316456	24992
672	2.143853	123138048	89837568	59077344	24992
673	1.763954	123138048	89837568	59837856	24992
674	6.257095	124489728	91410432	46572504	24992
675	1.847439	124489728	91410432	47333512	24992
676	2.060352	124489728	91410432	48094760	24992
677	1.937136	124760064	91410432	48856256	24992
678	1.889567	124760064	91410432	49617888	24992
679	1.884353	124760064	91410432	50379760	24992
680	1.911997	124760064	91410432	51141880	24992
681	1.92237	124760064	91410432	51904248	24992
682	2.129789	124760064	91410432	52666848	24992
683	1.952816	125030400	91410432	53429696	24992
684	2.181091	125030400	91410432	54192792	24992
685	2.047355	125030400	91934720	54956136	24992
686	1.926585	125030400	91934720	55719712	24992
687	1.970556	125030400	91934720	56483536	24992
688	2.081288	125030400	91934720	57247608	24992
689	2.095611	125300736	91934720	58011936	24992
690	2.089068	125300736	91934720	58776496	24992
691	2.109773	125300736	91934720	59541296	24992
692	2.261244	125300736	91934720	60306344	24992
693	2.397845	125300736	91934720	61071640	24992
694	2.152941	125300736	91934720	61837264	24992
695	6.868794	126652416	93507584	48665176	24992
696	6.471336	117526528	84070400	46376808	24992
697	1.273737	116477952	84070400	47143120	24992
698	1.250812	116477952	84070400	47909672	24992
699	1.39078	116477952	84070400	48676472	24992
700	1.33088	116477952	84070400	49443536	24992
701	2.152381	116477952	84070400	50211928	24992
702	1.542207	116477952	84070400	50982016	24992
703	1.405167	116477952	84070400	51750376	24992
704	1.311708	116748288	84070400	52518408	24992
705	1.317956	116748288	84070400	53286040	24992
706	1.441578	116748288	84070400	54054928	24992
707	2.082894	116748288	84070400	54823056	24992
708	1.292317	116748288	84070400	55591416	24992
709	1.599088	116748288	84070400	56360024	24992
710	1.015248	116748288	84070400	57128896	24992
711	1.034725	116748288	84070400	57913904	24992
712	1.019041	116748288	84070400	58683240	24992
713	1.008779	116748288	84070400	59452824	24992
714	1.014905	116748288	84070400	60222640	24992
715	1.020049	116748288	84070400	60992720	24992
716	1.165124	116748288	84070400	61763048	24992
717	1.047311	116748288	84070400	62534880	24992
718	1.003395	116748288	84070400	63305672	24992
719	2.719353	117559296	84070400	49226296	24992
720	1.023865	117559296	84070400	49997576	24992
721	1.022961	117559296	84070400	50769112	24992
722	1.166155	117559296	84070400	51540944	24992
723	1.043424	117559296	84070400	52314096	24992
724	1.021419	117559296	84070400	53086344	24992
725	1.047927	117559296	84070400	53858840	24992
726	1.018164	117559296	84070400	54631568	24992
727	0.9765	117559296	84070400	55404568	24992
728	1.013388	117559296	84070400	56177784	24992
729	1.091983	117559296	84070400	56951256	24992
730	1.093831	117559296	84070400	57725624	24992
731	1.004514	117559296	84070400	58499576	24992
732	1.009927	117559296	84594688	59273792	24992
733	1.048931	117829632	84594688	60048240	24992
734	0.992162	117829632	84594688	60822920	24992
735	1.039201	117829632	84594688	61597848	24992
736	1.005201	117829632	84594688	62373048	24992
737	1.195755	117829632	84594688	63149136	24992
738	1.027371	117829632	84594688	63924160	24992
739	1.010325	118099968	84594688	64699424	24992
740	4.510439	119451648	86167552	51975976	24992
741	1.025306	119721984	86167552	52751736	24992
742	0.984594	119721984	86167552	53527760	24992
743	1.175007	119721984	86167552	54304000	24992
744	1.014215	119721984	86691840	55080488	24992
745	1.041611	119721984	86691840	55857224	24992
746	0.991164	119992320	86691840	56634192	24992
747	1.005809	119992320	86691840	57411408	24992
748	1.158394	119992320	86691840	58188872	24992
749	1.000318	119992320	86691840	58966584	24992
750	1.000827	119992320	86691840	59744528	24992
751	1.001094	119992320	86691840	60522720	24992
752	1.017551	120262656	86691840	61301160	24992
753	1.010458	120262656	86691840	62079848	24992
754	1.671471	120262656	86691840	62858808	24992
755	1.055168	120262656	87216128	63637984	24992
756	1.021565	120262656	87216128	64417400	24992
757	1.023571	120532992	87216128	65197064	24992
758	1.037581	120532992	87216128	65989104	24992
759	1.482759	120532992	87216128	66769248	24992
760	4.378354	122155008	88788992	54006224	24992
761	1.006909	122155008	88788992	54786848	24992
762	0.996921	122155008	88788992	55567704	24992
763	1.009866	122155008	88788992	56348808	24992
764	1.001919	122155008	88788992	57130200	24992
765	1.008051	122425344	88788992	57911792	24992
766	1.005696	122425344	88788992	58693624	24992
767	1.221668	122425344	89313280	59475704	24992
768	1.015528	122425344	89313280	60258080	24992
769	1.014661	122425344	89313280	61040016	24992
770	1.024888	122695680	89313280	61822184	24992
771	1.020109	122695680	89313280	62604608	24992
772	1.019447	122695680	89313280	63387264	24992
773	1.030123	122695680	89313280	64170176	24992
774	1.001111	122695680	89313280	64953320	24992
775	1.002374	122695680	89313280	65736712	24992
776	0.998371	122966016	89313280	66520352	24992
777	1.028676	122966016	89837568	67304240	24992
778	1.222555	122966016	89837568	68088384	24992
779	1.009837	122966016	89837568	68872760	24992
780	1.011653	122966016	89837568	69657376	24992
781	4.336436	124588032	91410432	57043584	24992
782	1.074518	124588032	91410432	57828680	24992
783	1.018082	124588032	91410432	58614024	24992
784	1.028664	124858368	91410432	59399616	24992
785	1.025124	124858368	91410432	60185456	24992
786	1.099199	124858368	91410432	60971528	24992
787	1.026882	124858368	91410432	61757856	24992
788	1.024862	124858368	91410432	62544416	24992
789	1.03192	125128704	91410432	63331232	24992
790	1.075375	125128704	91934720	64118280	24992
791	1.002042	125128704	91934720	64905576	24992
792	1.004613	125128704	91934720	65693120	24992
793	1.034725	125128704	91934720	66480912	24992
794	1.03066	125399040	91934720	67268968	24992
795	1.012444	125399040	91934720	68057240	24992
796	1.017331	125399040	91934720	68845760	24992
797	1.22595	125399040	91934720	69634528	24992
798	1.026712	125399040	91934720	70423528	24992
799	1.044959	125669376	92459008	71212776	24992
800	1.028722	125669376	92459008	72002336	24992
801	4.612134	127291392	94556160	59523040	24992
802	1.057692	127291392	94556160	60312376	24992
803	1.03868	127291392	94556160	61102224	24992
804	1.038985	127291392	94556160	61892048	24992
805	1.255293	127561728	94556160	62682224	24992
806	1.011515	127561728	94556160	63472536	24992
807	1.010677	127561728	94556160	64263096	24992
808	1.026434	127561728	94556160	65053904	24992
809	1.021646	127561728	94556160	65844960	24992
810	1.020701	127832064	94556160	66636264	24992
811	1.025953	127832064	94556160	67427800	24992
812	1.035903	127832064	94556160	68219624	24992
813	1.026259	127832064	94556160	69011648	24992
814	1.03022	127832064	94556160	69803912	24992
815	1.033508	128102400	94556160	70596424	24992
816	1.102716	128102400	94556160	71389184	24992
817	1.03768	128102400	94556160	72182192	24992
818	1.042553	128102400	94556160	72975432	24992
819	1.068359	128102400	95080448	73768944	24992
820	1.22082	128372736	95080448	74562672	24992
821	4.647942	129994752	97177600	62142600	24992
822	1.023761	129994752	97177600	62936816	24992
823	1.187591	129994752	97177600	63731328	24992
824	1.061424	129994752	97177600	64526040	24992
825	1.026193	130265088	97177600	65321200	24992
826	1.029172	130265088	97177600	66116400	24992
827	1.040498	130265088	97177600	66911840	24992
828	1.033989	130265088	97177600	67707528	24992
829	1.038796	130265088	97177600	68503464	24992
830	1.040425	130535424	97177600	69299632	24992
831	1.051637	130535424	97177600	70096048	24992
832	1.043864	130535424	97177600	70892808	24992
833	1.047735	130535424	97177600	71689080	24992
834	1.211716	130535424	97177600	72485584	24992
835	1.078813	130805760	97177600	73282336	24992
836	1.054052	130805760	97177600	74079336	24992
837	1.082546	130805760	97701888	74876584	24992
838	1.034635	130805760	97701888	75674064	24992
839	1.032232	130805760	97701888	76471792	24992
840	1.035313	131076096	97701888	77269768	24992
841	4.905945	132698112	99799040	64981768	24992
842	1.065749	132698112	99799040	65780224	24992
843	1.041956	132698112	99799040	66578928	24992
844	1.042235	132968448	99799040	67377880	24992
845	1.05393	132968448	99799040	68177080	24992
846	1.044406	132968448	99799040	68976512	24992
847	1.049532	132968448	99799040	69776224	24992
848	1.053579	132968448	99799040	70576152	24992
849	1.062109	133238784	99799040	71376352	24992
850	1.058304	133238784	99799040	72187088	24992
851	1.058869	133238784	99799040	72987744	24992
852	1.060427	133238784	99799040	73788648	24992
853	1.26822	133238784	99799040	74589800	24992
854	1.033339	133509120	99799040	75391184	24992
855	1.065416	133509120	100323328	76192816	24992
856	1.046714	133509120	100323328	76994696	24992
857	1.044389	133509120	100323328	77796824	24992
858	1.048245	133509120	100323328	78599216	24992
859	1.045203	133779456	100323328	79401824	24992
860	5.002705	135401472	102420480	67244536	24992
861	1.14932	135401472	102420480	68047656	24992
862	1.065311	135671808	102420480	68851000	24992
863	1.064502	135671808	102420480	69654584	24992
864	1.062959	135671808	102420480	70458520	24992
865	1.064509	135671808	102420480	71261952	24992
866	1.061731	135671808	102420480	72065624	24992
867	1.080573	135942144	102420480	72869544	24992
868	1.072483	135942144	102420480	73673728	24992
869	1.076212	135942144	102420480	74478144	24992
870	1.066736	135942144	102944768	75282792	24992
871	1.062017	136212480	102944768	76087688	24992
872	1.049561	136212480	102944768	76892832	24992
873	1.050266	136212480	102944768	77698224	24992
874	1.064699	136212480	102944768	78503848	24992
875	1.056175	136212480	102944768	79309720	24992
876	1.06747	136482816	102944768	80115840	24992
877	1.762235	136482816	102944768	80922224	24992
878	1.108912	136482816	102944768	81728824	24992
879	1.100137	136482816	103469056	82535712	24992
880	5.376985	138375168	105566208	70448392	24992
881	1.091166	138375168	105566208	71255728	24992
882	1.079284	138645504	105566208	72063328	24992
883	1.113329	138645504	105566208	72871160	24992
884	1.126237	138645504	105566208	73679232	24992
885	1.086224	138645504	105566208	74487552	24992
886	1.048997	138915840	105566208	75296104	24992
887	1.051108	138915840	105566208	76104904	24992
888	1.284014	138915840	105566208	76913952	24992
889	1.060388	138915840	105566208	77723248	24992
890	1.06121	138915840	105566208	78532776	24992
891	1.072361	139186176	105566208	79342560	24992
892	1.062487	139186176	105566208	80152576	24992
893	1.097068	139186176	106090496	80962904	24992
894	1.073535	139186176	106090496	81773416	24992
895	1.084628	139186176	106090496	82584216	24992
896	1.075941	139456512	106090496	83395344	24992
897	1.081136	139456512	106090496	84205952	24992
898	1.277317	139456512	106090496	85016792	24992
899	1.110774	139456512	106090496	85827880	24992
900	5.188284	141348864	108187648	73844856	24992
901	1.104017	141348864	108187648	74656432	24992
902	1.079823	141619200	108187648	75468256	24992
903	1.065434	141619200	108187648	76280328	24992
904	1.061038	141619200	108187648	77092640	24992
905	1.292222	141619200	108187648	77905200	24992
906	1.071863	141619200	108187648	78717992	24992
907	1.069693	141889536	108187648	79531032	24992
908	1.103777	141889536	108711936	80344320	24992
909	1.118373	141889536	108711936	81157856	24992
910	1.082717	141889536	108711936	81971624	24992
911	1.084056	142159872	108711936	82785640	24992
912	1.096198	142159872	108711936	83599904	24992
913	1.094689	142159872	108711936	84414456	24992
914	1.095151	142159872	108711936	85229208	24992
915	1.102914	142159872	108711936	86044256	24992
916	1.491867	142430208	109236224	86859488	24992
917	1.111093	142430208	109236224	87675000	24992
918	1.066428	142430208	109236224	88490728	24992
919	5.287656	144322560	111333376	76627560	24992
920	1.086759	144592896	111333376	77443808	24992
921	1.076023	144592896	111333376	78260272	24992
922	1.091387	144592896	111333376	79077000	24992
923	1.083116	144592896	111333376	79893944	24992
924	1.082682	144863232	111333376	80711176	24992
925	1.087798	144863232	111333376	81528608	24992
926	1.098662	144863232	111333376	82346280	24992
927	1.093529	144863232	111333376	83164200	24992
928	1.12278	144863232	111857664	83982512	24992
929	1.108719	145133568	111857664	84800288	24992
930	1.101593	145133568	111857664	85618296	24992
931	1.106366	145133568	111857664	86436552	24992
932	1.113199	145133568	111857664	87255056	24992
933	1.342189	145403904	111857664	88073808	24992
934	1.074652	145403904	111857664	88892792	24992
935	1.080515	145403904	111857664	89712056	24992
936	1.300986	145403904	112381952	90531536	24992
937	1.105448	145403904	112381952	91351312	24992
938	5.940532	147566592	114479104	79515056	24992
939	1.380525	147566592	114479104	80335264	24992
940	1.097252	147566592	114479104	81155720	24992
941	1.100879	147566592	114479104	81976424	24992
942	1.153761	147836928	114479104	82797360	24992
943	1.102952	147836928	114479104	83618544	24992
944	1.109367	147836928	114479104	84439976	24992
945	1.13783	147836928	114479104	85261656	24992
946	1.134456	147836928	114479104	86083568	24992
947	1.114254	148107264	114479104	86905728	24992
948	1.144628	148107264	115003392	87728136	24992
949	1.501886	148107264	115003392	88550792	24992
950	1.141059	148377600	115003392	89397464	24992
951	1.090923	148377600	115003392	90220600	24992
952	1.099166	148377600	115003392	91043984	24992
953	1.094699	148377600	115003392	91867616	24992
954	1.095422	148377600	115003392	92691544	24992
955	1.108687	148647936	115003392	93515656	24992
956	1.103127	148647936	115003392	94340024	24992
957	5.692978	150540288	117100544	82648152	24992
958	1.128409	150810624	117100544	83473016	24992
959	1.134655	150810624	117624832	84298112	24992
960	1.113975	150810624	117624832	85123648	24992
961	1.117547	150810624	117624832	85948584	24992
962	1.12639	150810624	117624832	86773760	24992
963	1.120364	151080960	117624832	87599184	24992
964	1.12262	151080960	117624832	88424856	24992
965	1.325822	151080960	117624832	89250776	24992
966	1.092802	151080960	117624832	90076928	24992
967	1.113403	151351296	118149120	90903328	24992
968	1.10515	151351296	118149120	91729976	24992
969	1.107043	151351296	118149120	92556872	24992
970	1.101472	151351296	118149120	93384000	24992
971	1.105018	151621632	118149120	94211376	24992
972	1.117363	151621632	118149120	95039000	24992
973	1.165623	151621632	118149120	95866872	24992
974	1.116248	151621632	118149120	96694976	24992
975	1.154138	151891968	118673408	97523336	24992
976	5.635883	153784320	120770560	85950856	24992
977	1.137109	153784320	120770560	86779704	24992
978	1.137322	154054656	120770560	87608784	24992
979	1.131785	154054656	120770560	88438112	24992
980	1.134284	154054656	120770560	89267688	24992
981	1.136934	154054656	120770560	90097512	24992
982	1.301833	154324992	120770560	90927568	24992
983	1.100663	154324992	120770560	91757872	24992
984	1.105874	154324992	120770560	92588424	24992
985	1.135908	154324992	121294848	93419280	24992
986	1.119252	154595328	121294848	94250320	24992
987	1.121018	154595328	121294848	95081656	24992
988	1.117289	154595328	121294848	95913176	24992
989	1.131551	154595328	121294848	96744960	24992
990	1.123899	154865664	121294848	97576976	24992
991	1.129917	154865664	121294848	98409256	24992
992	1.327	154865664	121294848	99241936	24992
993	1.158014	154865664	121819136	100074064	24992
994	1.140845	155136000	121819136	100906416	24992
995	5.744479	157028352	123916288	89453872	24992
996	1.162462	157298688	123916288	90286712	24992
997	1.149371	157298688	123916288	91119800	24992
998	1.305725	157298688	123916288	91953120	24992
999	1.112544	157298688	123916288	92786688	24992
1000	1.117818	157569024	123916288	93620504	24992
