x	Duration	RSS	HeapTotal	HeapUsed	External
0	NA	153022464	120770560	13248816	24992
1	1.150591	153022464	120770560	13902088	24992
2	1.053194	153022464	120770560	14555272	24992
3	1.058561	153022464	120770560	15208504	24992
4	1.037931	153022464	120770560	15861904	24992
5	1.070096	153022464	120770560	16515504	24992
6	1.036944	153022464	120770560	17169256	24992
7	1.046088	153022464	120770560	17823208	24992
8	1.22133	153022464	120770560	18481928	24992
9	1.073921	153022464	120770560	19137968	24992
10	1.253358	153022464	120770560	19793920	24992
11	1.061395	153022464	120770560	20450304	24992
12	1.059462	153022464	120770560	21106928	24992
13	1.059308	153022464	120770560	21763808	24992
14	1.149648	153022464	120770560	22420928	24992
15	0.762938	153022464	120770560	23078304	24992
16	0.768611	153022464	120770560	23736400	24992
17	0.770093	153022464	120770560	24395224	24992
18	0.801405	153022464	120770560	25054320	24992
19	0.79763	153022464	120770560	25714072	24992
20	0.773112	153022464	120770560	26373616	24992
21	0.774096	153022464	120770560	27033440	24992
22	0.775088	153022464	120770560	27692904	24992
23	0.955593	153022464	120770560	28353408	24992
24	1.255262	153022464	120770560	29014360	24992
25	1.36132	153022464	120770560	13396608	24992
26	0.785317	153022464	120770560	14058176	24992
27	1.100222	153022464	120770560	14719912	24992
28	0.807692	153022464	120770560	15381920	24992
29	0.78895	153022464	120770560	16044208	24992
30	1.416922	153022464	120770560	16706776	24992
31	0.85033	153022464	120770560	17369608	24992
32	0.84177	153022464	120770560	18032272	24992
33	0.837501	153022464	120770560	18694992	24992
34	0.824133	153022464	120770560	19369016	24992
35	0.849581	153022464	120770560	20032168	24992
36	0.795425	153022464	120770560	20695600	24992
37	0.801703	153022464	120770560	21359392	24992
38	0.796053	153022464	120770560	22023272	24992
39	0.848206	153022464	120770560	22700736	24992
40	1.016896	153022464	120770560	23364888	24992
41	0.788045	153022464	120770560	24029232	24992
42	0.78827	153022464	120770560	24693896	24992
43	0.791119	153022464	120770560	25358888	24992
44	0.80544	153022464	120770560	26024208	24992
45	0.793612	153022464	120770560	26690528	24992
46	0.794671	153022464	120770560	27356488	24992
47	0.794012	153022464	120770560	28022776	24992
48	0.794599	153022464	120770560	28689424	24992
49	1.575716	153022464	120770560	29356416	24992
50	1.614943	153022464	120770560	13960888	24992
51	0.833616	153022464	120770560	14628504	24992
52	1.027281	153022464	120770560	15296448	24992
53	0.804605	153022464	120770560	15964512	24992
54	0.796656	153022464	120770560	16632792	24992
55	0.796125	153022464	120770560	17301408	24992
56	0.830445	153022464	120770560	17970160	24992
57	0.816274	153022464	120770560	18639288	24992
58	0.801904	153022464	120770560	19308560	24992
59	0.802042	153022464	120770560	19977984	24992
60	0.799879	153022464	120770560	20647544	24992
61	0.856449	153022464	120770560	21317256	24992
62	0.818966	153022464	120770560	21987120	24992
63	0.8073	153022464	120770560	22657136	24992
64	0.822971	153022464	120770560	23326928	24992
65	0.812641	153022464	120770560	23996632	24992
66	1.022394	153022464	120770560	24666496	24992
67	0.817254	153022464	120770560	25336496	24992
68	0.821337	153022464	120770560	26006632	24992
69	0.81872	153022464	120770560	26676888	24992
70	0.857836	153022464	120770560	27347408	24992
71	0.830296	153022464	120770560	28018088	24992
72	0.810762	153022464	120770560	28688920	24992
73	0.813507	153022464	120770560	29359936	24992
74	1.67768	153022464	120770560	14107360	24992
75	0.855798	153022464	120770560	14778672	24992
76	0.85413	153022464	120770560	15450136	24992
77	0.970578	153022464	120770560	16121752	24992
78	1.089778	153022464	120770560	16794600	24992
79	0.823733	153022464	120770560	17466504	24992
80	0.824459	153022464	120770560	18138784	24992
81	1.599816	153022464	120770560	18812160	24992
82	0.860356	153022464	120770560	19484456	24992
83	1.061566	153022464	120770560	20156904	24992
84	0.827966	153022464	120770560	20830640	24992
85	0.830165	153022464	120770560	21503360	24992
86	1.593632	153022464	120770560	22176128	24992
87	0.892264	153022464	120770560	22850032	24992
88	0.870485	153022464	120770560	23523296	24992
89	1.353518	153022464	120770560	24218792	24992
90	0.867365	153022464	120770560	24891712	24992
91	0.867945	153022464	120770560	25564080	24992
92	0.850125	153022464	120770560	26237152	24992
93	0.893867	153022464	120770560	26924184	24992
94	0.795342	153022464	120770560	27596944	24992
95	0.797147	153022464	120770560	28269840	24992
96	0.793731	153022464	120770560	28942512	24992
97	0.859073	153022464	120770560	29615064	24992
98	1.735317	153022464	120770560	14486976	24992
99	0.816945	153022464	120770560	15159792	24992
100	0.815741	153022464	120770560	15832728	24992
101	0.814697	153022464	120770560	16505768	24992
102	0.970027	153022464	120770560	17178864	24992
103	0.790509	153022464	120770560	17852104	24992
104	0.795097	153022464	120770560	18525480	24992
105	0.789352	153022464	120770560	19199040	24992
106	0.806562	153022464	120770560	19872712	24992
107	0.792316	153022464	120770560	20546520	24992
108	0.795067	153022464	120770560	21220464	24992
109	0.793134	153022464	120770560	21894544	24992
110	0.795356	153022464	120770560	22568744	24992
111	0.806699	153022464	120770560	23243080	24992
112	0.805941	153022464	120770560	23917584	24992
113	0.79872	153022464	120770560	24592224	24992
114	0.798943	153022464	120770560	25266984	24992
115	0.800674	153022464	120770560	25941880	24992
116	0.819412	153022464	120770560	26616912	24992
117	1.379956	153022464	120770560	27292496	24992
118	0.807727	153022464	120770560	27967672	24992
119	0.802173	153022464	120770560	28642992	24992
120	1.531224	153022464	120770560	29331192	24992
121	0.820774	153022464	120770560	30006784	24992
122	2.059718	153022464	120770560	14867416	24992
123	0.825587	153022464	120770560	15543264	24992
124	0.79419	153022464	120770560	16219240	24992
125	1.461814	153288704	120770560	16895368	24992
126	1.095218	153288704	120770560	17571616	24992
127	0.844375	153288704	120770560	18248000	24992
128	0.899425	153559040	120770560	18942000	24992
129	0.863163	153559040	120770560	19617744	24992
130	0.842146	153559040	120770560	20293624	24992
131	0.813599	153559040	120770560	20969800	24992
132	0.836588	153559040	120770560	21662112	24992
133	0.876609	153559040	120770560	22338512	24992
134	0.819996	153559040	120770560	23015704	24992
135	0.809161	153559040	120770560	23692384	24992
136	0.791524	153559040	120770560	24369200	24992
137	0.793235	153559040	120770560	25046200	24992
138	0.798092	153559040	120770560	25723328	24992
139	0.795061	153559040	120770560	26400592	24992
140	0.991965	153559040	120770560	27077976	24992
141	0.796683	153559040	120770560	27755496	24992
142	0.799814	153559040	120770560	28434976	24992
143	0.802059	153559040	120770560	29112768	24992
144	0.813964	153559040	120770560	29790712	24992
145	0.940331	153559040	120770560	30468856	24992
146	0.837536	153559040	120770560	31148856	24992
147	1.761211	153559040	120770560	15986872	24992
148	0.971047	153559040	120770560	16665344	24992
149	0.845319	153559040	120770560	17345328	24992
150	0.797467	153559040	120770560	18024512	24992
151	0.800539	153559040	120770560	18703832	24992
152	0.992285	153559040	120770560	19383288	24992
153	0.79312	153559040	120770560	20062928	24992
154	0.794762	153559040	120770560	20742696	24992
155	0.794415	153559040	120770560	21422600	24992
156	0.794441	153559040	120770560	22102624	24992
157	0.817265	153559040	120770560	22782784	24992
158	0.799504	153559040	120770560	23463080	24992
159	0.797977	153559040	120770560	24143512	24992
160	0.801233	153559040	120770560	24823760	24992
161	0.805611	153559040	120770560	25503840	24992
162	0.867153	153559040	120770560	26184056	24992
163	0.827878	153559040	120770560	26864408	24992
164	0.802681	153559040	120770560	27544880	24992
165	0.805287	153559040	120770560	28225488	24992
166	0.8125	153559040	120770560	28906472	24992
167	0.795579	153559040	120770560	29587600	24992
168	0.798904	153559040	120770560	30268864	24992
169	0.796283	153559040	120770560	30950296	24992
170	0.79579	153559040	120770560	31631856	24992
171	1.837159	153559040	120770560	16514904	24992
172	0.817265	153559040	120770560	17196736	24992
173	0.823999	153559040	120770560	17878704	24992
174	1.161761	153559040	120770560	18560808	24992
175	0.825703	153559040	120770560	19243032	24992
176	0.823219	153559040	120770560	19925464	24992
177	0.841829	153559040	120770560	20611416	24992
178	0.82076	153559040	120770560	21293792	24992
179	1.009076	153559040	120770560	21976304	24992
180	0.807721	153559040	120770560	22658952	24992
181	0.977658	153559040	120770560	23342016	24992
182	0.801422	153559040	120770560	24024896	24992
183	0.858084	153559040	120770560	24707928	24992
184	0.826762	153559040	120770560	25395000	24992
185	0.799356	153559040	120770560	26078320	24992
186	0.800635	153559040	120770560	26761824	24992
187	0.806183	153559040	120770560	27445416	24992
188	0.924983	153559040	120770560	28129136	24992
189	0.834863	153559040	120770560	28813936	24992
190	0.804192	153559040	120770560	29497912	24992
191	0.802377	153559040	120770560	30182024	24992
192	0.998019	153559040	120770560	30865992	24992
193	0.807931	153559040	120770560	31549760	24992
194	0.806789	153559040	120770560	32233656	24992
195	2.061336	153559040	120770560	17172608	24992
196	0.840609	153559040	120770560	17856776	24992
197	0.811499	153559040	120770560	18541048	24992
198	0.801782	153559040	120770560	19225448	24992
199	0.803101	153559040	120770560	19910000	24992
200	1.702719	153559040	120770560	20595160	24992
201	0.817524	153559040	120770560	21280024	24992
202	0.80806	153559040	120770560	21965008	24992
203	0.837708	153559040	120770560	22650128	24992
204	0.977267	153559040	120770560	23335384	24992
205	0.853672	153559040	120770560	24037232	24992
206	0.807042	153559040	120770560	24722744	24992
207	0.805812	153559040	120770560	25408392	24992
208	0.825887	153559040	120770560	26094208	24992
209	0.808549	153559040	120770560	26780160	24992
210	0.8085	153559040	120770560	27466232	24992
211	0.811832	153559040	120770560	28152440	24992
212	0.818632	153559040	120770560	28838784	24992
213	0.823041	153559040	120770560	29525232	24992
214	0.804338	153559040	120770560	30211808	24992
215	0.803581	153559040	120770560	30898536	24992
216	0.835887	153559040	120770560	31585400	24992
217	0.975901	153559040	120770560	32272432	24992
218	0.824928	153559040	120770560	32959592	24992
219	1.808861	153559040	120770560	17962656	24992
220	0.831702	153559040	120770560	18650088	24992
221	1.032328	153559040	120770560	19337688	24992
222	0.883482	153559040	120770560	20027488	24992
223	0.80833	153559040	120770560	20715296	24992
224	0.807383	153559040	120770560	21402976	24992
225	0.817349	153559040	120770560	22090440	24992
226	0.810663	153559040	120770560	22778032	24992
227	0.809195	153559040	120770560	23465760	24992
228	0.806776	153559040	120770560	24153624	24992
229	0.809377	153559040	120770560	24844472	24992
230	0.824109	153559040	120770560	25532568	24992
231	0.804651	153559040	120770560	26220816	24992
232	0.802613	153559040	120770560	26909200	24992
233	0.80454	153559040	120770560	27597752	24992
234	0.818605	153559040	120770560	28286432	24992
235	0.808221	153559040	120770560	28975248	24992
236	0.811059	153559040	120770560	29664200	24992
237	0.806495	153559040	120770560	30353288	24992
238	0.809608	153559040	120770560	31042496	24992
239	0.81853	153559040	120770560	31731840	24992
240	0.817963	153559040	120770560	32421392	24992
241	0.812759	153559040	120770560	33111032	24992
242	0.811139	153559040	120770560	33800800	24992
243	2.066746	153559040	120770560	18869528	24992
244	0.817576	153559040	120770560	19559568	24992
245	0.814888	153559040	120770560	20249712	24992
246	0.806389	153559040	120770560	20939984	24992
247	0.821668	153559040	120770560	21630408	24992
248	0.807267	153559040	120770560	22320968	24992
249	0.811474	153559040	120770560	23011696	24992
250	0.807286	153559040	120770560	23702560	24992
251	0.809181	153559040	120770560	24393560	24992
252	0.820073	153559040	120770560	25084688	24992
253	0.811053	153559040	120770560	25775952	24992
254	0.810828	153559040	120770560	26467336	24992
255	0.81258	153559040	120770560	27158856	24992
256	0.813801	153559040	120770560	27850752	24992
257	1.017014	153559040	120770560	28542416	24992
258	0.813932	153559040	120770560	29234200	24992
259	0.816706	153559040	120770560	29926120	24992
260	0.81793	153559040	120770560	30618176	24992
261	0.860292	153559040	120770560	31310208	24992
262	0.83861	153559040	120770560	32002536	24992
263	0.811452	153559040	120770560	32695216	24992
264	0.815273	153559040	120770560	33388160	24992
265	0.819214	153559040	120770560	34081936	24992
266	0.881635	153559040	120770560	34776184	24992
267	1.970905	153559040	120770560	19938680	24992
268	0.843677	153559040	120770560	20633904	24992
269	1.041373	153559040	120770560	21329616	24992
270	0.824523	153559040	120770560	22025800	24992
271	0.824222	153559040	120770560	22722472	24992
272	0.821754	153559040	120770560	23419632	24992
273	0.863957	153559040	120770560	24117280	24992
274	0.837079	153559040	120770560	24815400	24992
275	0.826355	153559040	120770560	25514008	24992
276	0.825029	153559040	120770560	26213104	24992
277	0.828802	153559040	120770560	26912336	24992
278	0.875151	153559040	120770560	27611688	24992
279	0.816642	153559040	120770560	28311176	24992
280	0.818795	153559040	120770560	29010800	24992
281	0.821957	153559040	120770560	29710560	24992
282	0.987641	153559040	120770560	30410536	24992
283	0.857796	153559040	120770560	31110552	24992
284	0.823796	153559040	120770560	31810704	24992
285	0.830747	153559040	120770560	32511024	24992
286	0.826433	153559040	120770560	33211432	24992
287	0.835622	153559040	120770560	33911976	24992
288	0.828765	153559040	120770560	34612400	24992
289	0.827928	153559040	120770560	35312576	24992
290	1.969079	153559040	120770560	20553272	24992
291	0.834596	153559040	120770560	21253720	24992
292	0.83692	153559040	120770560	21954288	24992
293	0.835558	153559040	120770560	22654992	24992
294	0.819492	153559040	120770560	23355816	24992
295	0.887559	153559040	120770560	24056776	24992
296	0.8228	153559040	120770560	24757872	24992
297	0.823189	153559040	120770560	25459104	24992
298	0.827299	153559040	120770560	26160456	24992
299	0.836806	153559040	120770560	26861944	24992
300	0.827174	153559040	120770560	27563568	24992
301	0.83085	153559040	120770560	28265328	24992
302	0.830173	153559040	120770560	28967208	24992
303	0.828433	153559040	120770560	29669224	24992
304	0.84052	153559040	120770560	30371376	24992
305	0.830835	153559040	120770560	31073664	24992
306	0.831791	153559040	120770560	31776072	24992
307	0.83263	153559040	120770560	32478616	24992
308	0.840588	153559040	120770560	33181296	24992
309	1.043651	153559040	120770560	33884112	24992
310	0.82776	153559040	120770560	34587048	24992
311	0.832054	153559040	120770560	35290120	24992
312	0.877972	153559040	120770560	35993328	24992
313	2.107034	153559040	120770560	21306368	24992
314	0.836877	153559040	120770560	22009832	24992
315	0.836502	153559040	120770560	22713432	24992
316	0.854073	153559040	120770560	23417168	24992
317	0.840994	153559040	120770560	24121040	24992
318	0.837719	153559040	120770560	24825032	24992
319	0.835972	153559040	120770560	25529160	24992
320	0.837034	153559040	120770560	26233192	24992
321	1.036837	153559040	120770560	26936944	24992
322	0.838569	153559040	120770560	27640824	24992
323	0.838218	153559040	120770560	28344840	24992
324	0.838847	153559040	120770560	29048992	24992
325	0.852491	153559040	120770560	29753280	24992
326	0.83114	153559040	120770560	30457688	24992
327	0.832381	153559040	120770560	31162232	24992
328	0.835171	153559040	120770560	31866912	24992
329	0.833361	153559040	120770560	32571728	24992
330	0.842883	153559040	120770560	33276664	24992
331	0.836593	153559040	120770560	33981736	24992
332	0.83678	153559040	120770560	34686944	24992
333	0.836657	153559040	120770560	35392288	24992
334	1.040295	153559040	120770560	36097752	24992
335	0.838474	153559040	120770560	36803352	24992
336	0.847433	153559040	120770560	37509088	24992
337	2.110578	153559040	120770560	22905128	24992
338	0.85002	153559040	120770560	23611120	24992
339	0.846845	153559040	120770560	24317248	24992
340	0.847475	153559040	120770560	25023512	24992
341	0.850643	153559040	120770560	25729912	24992
342	0.845059	153559040	120770560	26436432	24992
343	0.83598	153559040	120770560	27143088	24992
344	0.839468	153559040	120770560	27849880	24992
345	0.840537	153559040	120770560	28556808	24992
346	0.858725	153559040	120770560	29263856	24992
347	0.841357	153559040	120770560	29971040	24992
348	0.847926	153559040	120770560	30678360	24992
349	0.844718	153559040	120770560	31385816	24992
350	1.054662	153559040	120770560	32093392	24992
351	0.844501	153559040	120770560	32801104	24992
352	0.846164	153559040	120770560	33508736	24992
353	0.847173	153559040	120770560	34216072	24992
354	0.844637	153559040	120770560	34923536	24992
355	0.858443	153559040	120770560	35631136	24992
356	0.861341	153559040	120770560	36338872	24992
357	0.858338	153559040	120770560	37046744	24992
358	0.845422	153559040	120770560	37754736	24992
359	1.006564	153559040	120770560	38462864	24992
360	2.186656	153559040	120770560	23922600	24992
361	0.851594	153559040	120770560	24631000	24992
362	0.856605	153559040	120770560	25339520	24992
363	0.84659	153559040	120770560	26048176	24992
364	0.850933	153559040	120770560	26756968	24992
365	0.848927	153559040	120770560	27465896	24992
366	0.849134	153559040	120770560	28174952	24992
367	0.858058	153559040	120770560	28884144	24992
368	0.851233	153559040	120770560	29593464	24992
369	0.852436	153559040	120770560	30302928	24992
370	0.853686	153559040	120770560	31012512	24992
371	1.033841	153559040	120770560	31722224	24992
372	0.875788	153559040	120770560	32432088	24992
373	0.857882	153559040	120770560	33142072	24992
374	0.845844	153559040	120770560	33852176	24992
375	0.845624	153559040	120770560	34562696	24992
376	0.89045	153559040	120770560	35273064	24992
377	0.847542	153559040	120770560	35983576	24992
378	0.849108	153559040	120770560	36694256	24992
379	0.851673	153559040	120770560	37405024	24992
380	0.873925	153559040	120770560	38115928	24992
381	0.854068	153559040	120770560	38826984	24992
382	0.851633	153559040	120770560	39538144	24992
383	2.294166	153559040	120770560	25022536	24992
384	0.862815	153559040	120770560	25733776	24992
385	0.857938	153559040	120770560	26444704	24992
386	0.858147	153559040	120770560	27155752	24992
387	0.86536	153559040	120770560	27866936	24992
388	0.859857	153559040	120770560	28578256	24992
389	0.859946	153559040	120770560	29289712	24992
390	0.851807	153559040	120770560	30001288	24992
391	1.047603	153559040	120770560	30713608	24992
392	0.940511	153559040	120770560	31427480	24992
393	0.857421	153559040	120770560	32139464	24992
394	0.855113	153559040	120770560	32851568	24992
395	0.85563	153559040	120770560	33563808	24992
396	1.061374	153559040	120770560	34276184	24992
397	0.859076	153559040	120770560	34988696	24992
398	1.572732	153559040	120770560	35702464	24992
399	1.044789	153559040	120770560	36415232	24992
400	0.890504	153559040	120770560	37128136	24992
401	0.862924	153559040	120770560	37841176	24992
402	0.865896	153559040	120770560	38554336	24992
403	0.865546	153559040	120770560	39267632	24992
404	0.921954	153559040	120770560	39981064	24992
405	0.921762	153559040	120770560	40708088	24992
406	2.539734	153559040	120770560	26241752	24992
407	0.879228	153559040	120770560	26955576	24992
408	0.863369	153559040	120770560	27669536	24992
409	0.856187	153559040	120770560	28383632	24992
410	0.855248	153559040	120770560	29097848	24992
411	0.856729	153559040	120770560	29812200	24992
412	0.857043	153559040	120770560	30526688	24992
413	0.85712	153559040	120770560	31241312	24992
414	0.887476	153559040	120770560	31956056	24992
415	0.901478	153559040	120770560	32670936	24992
416	0.863415	153559040	120770560	33385776	24992
417	0.861497	153559040	120770560	34100288	24992
418	0.862505	153559040	120770560	34814920	24992
419	1.040721	153559040	120770560	35529688	24992
420	0.896896	153559040	120770560	36244592	24992
421	0.873184	153559040	120770560	36959632	24992
422	0.855354	153559040	120770560	37674792	24992
423	0.859206	153559040	120770560	38390088	24992
424	0.86622	153559040	120770560	39105520	24992
425	0.858361	153559040	120770560	39821088	24992
426	0.860909	153559040	120770560	40536776	24992
427	0.864501	153559040	120770560	41252600	24992
428	0.870492	153559040	120770560	41968560	24992
429	2.356386	153559040	120770560	27555928	24992
430	0.872719	153559040	120770560	28272144	24992
431	1.073199	153559040	120770560	28988496	24992
432	0.871624	153559040	120770560	29704984	24992
433	0.870815	153559040	120770560	30421608	24992
434	0.869935	153559040	120770560	31138352	24992
435	0.878515	153559040	120770560	31855232	24992
436	0.872162	153559040	120770560	32572248	24992
437	0.877796	153559040	120770560	33289400	24992
438	0.860312	153559040	120770560	34006672	24992
439	0.877248	153559040	120770560	34724080	24992
440	0.861103	153559040	120770560	35441624	24992
441	0.864332	153559040	120770560	36159384	24992
442	0.867156	153559040	120770560	36877184	24992
443	0.862835	153559040	120770560	37595120	24992
444	0.9281	153559040	120770560	38313224	24992
445	0.87285	153559040	120770560	39031432	24992
446	0.870092	153559040	120770560	39749760	24992
447	0.873701	153559040	120770560	40468272	24992
448	0.886958	153559040	120770560	41186720	24992
449	0.872663	153559040	120770560	41904808	24992
450	0.874305	153559040	120770560	42623032	24992
451	0.875042	153559040	120770560	43341392	24992
452	2.397234	153559040	120770560	28981712	24992
453	0.88506	153559040	120770560	29700336	24992
454	0.86775	153559040	120770560	30419080	24992
455	1.04724	153559040	120770560	31137960	24992
456	0.890311	153559040	120770560	31856976	24992
457	0.872366	153559040	120770560	32576128	24992
458	0.868174	153559040	120770560	33295400	24992
459	0.876507	153559040	120770560	34014808	24992
460	0.881203	153559040	120770560	34734352	24992
461	0.87192	153559040	120770560	35454032	24992
462	0.876765	153559040	120770560	36173832	24992
463	1.014314	153559040	120770560	36894928	24992
464	0.956215	153559040	120770560	37615000	24992
465	0.885592	153559040	120770560	38335208	24992
466	0.878652	153559040	120770560	39055536	24992
467	0.881393	153559040	120770560	39776000	24992
468	1.092277	153559040	120770560	40496600	24992
469	0.882613	153559040	120770560	41217336	24992
470	0.870223	153559040	120770560	41938192	24992
471	0.869303	153559040	120770560	42659184	24992
472	0.894348	153559040	120770560	43380312	24992
473	0.882268	153559040	120770560	44101576	24992
474	0.875801	153559040	120770560	44822960	24992
475	2.660072	153559040	120770560	30516736	24992
476	0.889337	153559040	120770560	31238392	24992
477	0.883245	153559040	120770560	31960208	24992
478	0.878268	153559040	120770560	32682128	24992
479	0.94478	153559040	120770560	33404176	24992
480	0.880499	153559040	120770560	34126224	24992
481	0.882095	153559040	120770560	34847896	24992
482	0.881319	153559040	120770560	35569696	24992
483	0.89338	153559040	120770560	36291632	24992
484	0.886776	153559040	120770560	37013704	24992
485	0.887442	153559040	120770560	37735912	24992
486	0.872303	153559040	120770560	38458240	24992
487	0.875955	153559040	120770560	39180704	24992
488	0.897877	153559040	120770560	39903304	24992
489	0.876088	153559040	120770560	40626040	24992
490	0.880041	153559040	120770560	41348896	24992
491	0.882275	153559040	120770560	42071888	24992
492	1.089948	153559040	120770560	42795016	24992
493	0.884774	153559040	120770560	43518280	24992
494	0.882744	153559040	120770560	44241664	24992
495	0.886208	153559040	120770560	44965184	24992
496	0.904971	153559040	120770560	45688840	24992
497	0.885384	153559040	120770560	46412632	24992
498	2.507146	153559040	120770560	32159512	24992
499	0.918609	153559040	120770560	32883560	24992
500	0.912699	153559040	120770560	33607744	24992
501	0.91206	153559040	120770560	34332064	24992
502	0.895767	153559040	120770560	35056504	24992
503	1.097833	153559040	120770560	35781080	24992
504	0.88619	153559040	120770560	36505792	24992
505	0.891071	153559040	120770560	37230640	24992
506	0.885282	153559040	120770560	37955608	24992
507	0.907386	153559040	120770560	38680712	24992
508	0.891458	153559040	120770560	39405952	24992
509	0.889461	153559040	120770560	40131328	24992
510	0.887861	153559040	120770560	40856824	24992
511	0.902726	153559040	120770560	41582456	24992
512	0.891182	153559040	120770560	42308592	24992
513	0.893221	153559040	120770560	43034336	24992
514	0.89681	153559040	120770560	43760200	24992
515	1.113245	153559040	120770560	44486200	24992
516	0.930394	153559040	120770560	45212336	24992
517	0.899758	153559040	120770560	45938256	24992
518	0.886284	153559040	120770560	46664424	24992
519	0.890752	153559040	120770560	47390856	24992
520	2.530704	153559040	120770560	33161496	24992
521	0.910161	153559040	120770560	33888936	24992
522	0.933011	153559040	120770560	34616624	24992
523	0.912851	153559040	120770560	35344576	24992
524	0.916529	153559040	120770560	36072792	24992
525	0.911885	153559040	120770560	36801272	24992
526	1.100022	153559040	120770560	37530000	24992
527	0.902493	153559040	120770560	38258992	24992
528	0.906492	153559040	120770560	38988248	24992
529	0.902886	153559040	120770560	39717768	24992
530	0.914829	153559040	120770560	40447536	24992
531	0.909125	153559040	120770560	41177568	24992
532	0.910444	153559040	120770560	41908136	24992
533	0.917451	153559040	120770560	42638696	24992
534	0.905668	153559040	120770560	43369504	24992
535	0.900379	153559040	120770560	44100608	24992
536	0.899174	153559040	120770560	44831944	24992
537	0.902641	153559040	120770560	45563544	24992
538	0.900009	153559040	120770560	46295392	24992
539	0.965732	153559040	120770560	47027504	24992
540	0.913691	153559040	120770560	47759880	24992
541	1.626735	153559040	120770560	48492832	24992
542	0.97948	153559040	120770560	49225720	24992
543	2.704509	153559040	120770560	35125512	24992
544	0.964002	153559040	120770560	35858832	24992
545	0.995803	153559040	120770560	36602416	24992
546	0.920412	153559040	120770560	37335704	24992
547	0.924814	153559040	120770560	38069256	24992
548	1.107991	153559040	120770560	38803072	24992
549	0.952585	153559040	120770560	39537152	24992
550	0.907109	153559040	120770560	40271480	24992
551	0.910685	153559040	120770560	41006072	24992
552	0.91688	153559040	120770560	41740928	24992
553	0.925371	153559040	120770560	42476048	24992
554	1.543529	153559040	120770560	43212176	24992
555	0.938243	153559040	120770560	43947808	24992
556	1.148692	153559040	120770560	44693352	24992
557	0.93324	153559040	120770560	45429512	24992
558	0.932629	153874432	120770560	46166168	24992
559	0.936751	153874432	120770560	46902848	24992
560	1.313082	153874432	120770560	47650608	24992
561	0.924282	153874432	120770560	48387008	24992
562	0.923103	153874432	120770560	49123640	24992
563	0.924656	153874432	120770560	49860520	24992
564	0.931158	153874432	120770560	50597648	24992
565	2.858304	153874432	120770560	36694744	24992
566	0.940603	153874432	120770560	37432352	24992
567	0.929473	153874432	120770560	38170208	24992
568	0.93334	153874432	120770560	38908312	24992
569	0.928931	153874432	120770560	39646664	24992
570	1.129039	153874432	120770560	40385248	24992
571	0.920878	153874432	120770560	41124080	24992
572	0.916437	153874432	120770560	41863184	24992
573	0.917113	153874432	120770560	42602504	24992
574	0.931509	153874432	120770560	43342064	24992
575	0.921628	153874432	120770560	44081872	24992
576	0.923995	153874432	120770560	44821856	24992
577	0.925936	153874432	120770560	45561512	24992
578	0.93696	153874432	120770560	46301408	24992
579	0.929452	153874432	120770560	47041552	24992
580	0.929136	153874432	120770560	47781944	24992
581	0.93089	153874432	120770560	48522584	24992
582	0.974475	153874432	120770560	49263456	24992
583	0.914899	153874432	120770560	50004584	24992
584	0.947865	153874432	120770560	50745944	24992
585	0.928472	153874432	120770560	51487560	24992
586	0.935457	153874432	120770560	52229472	24992
587	3.040074	153874432	120770560	38446864	24992
588	0.964191	153874432	120770560	39189208	24992
589	0.950422	153874432	120770560	39931800	24992
590	0.953891	153874432	120770560	40674624	24992
591	0.948523	153874432	120770560	41417696	24992
592	1.144376	153874432	120770560	42161016	24992
593	1.124712	153874432	120770560	42904584	24992
594	0.934855	153874432	120770560	43648432	24992
595	0.937816	153874432	120770560	44392480	24992
596	0.960082	153874432	120770560	45136776	24992
597	0.941618	153874432	120770560	45881320	24992
598	0.921166	153874432	120770560	46626096	24992
599	0.974606	153874432	120770560	47371120	24992
600	0.937939	153874432	120770560	48116392	24992
601	0.925503	153874432	120770560	48861912	24992
602	0.927585	153874432	120770560	49607664	24992
603	0.930609	153874432	120770560	50353664	24992
604	1.145005	153874432	120770560	51099912	24992
605	0.937356	153874432	120770560	51846448	24992
606	0.940456	153874432	120770560	52593184	24992
607	0.938345	153874432	120770560	53340160	24992
608	0.985945	153874432	120770560	54087328	24992
609	3.108639	153874432	120770560	40412664	24992
610	0.980004	153874432	120770560	41159744	24992
611	0.962865	153874432	120770560	41907056	24992
612	0.964917	153874432	120770560	42654616	24992
613	0.967395	153874432	120770560	43402424	24992
614	0.993166	153874432	120770560	44150464	24992
615	1.095317	153874432	120770560	44898752	24992
616	1.02557	153874432	120770560	45647288	24992
617	1.040684	153874432	120770560	46396072	24992
618	0.996901	153874432	120770560	47145128	24992
619	1.085409	153874432	120770560	47894400	24992
620	1.105966	153874432	120770560	48643912	24992
621	1.035801	153874432	120770560	49393672	24992
622	1.031411	153874432	120770560	50143664	24992
623	1.097059	153874432	120770560	50893904	24992
624	1.316776	153874432	120770560	51644392	24992
625	1.053476	153874432	120770560	52395128	24992
626	1.086769	153874432	120770560	53146168	24992
627	1.100258	153874432	120770560	53897392	24992
628	1.041962	153874432	120770560	54648856	24992
629	1.146452	153874432	120770560	55400568	24992
630	1.041328	153874432	120770560	56152376	24992
631	4.949216	154685440	121819136	42637496	24992
632	1.155868	154955776	121819136	43389760	24992
633	1.160978	154955776	122343424	44142264	24992
634	1.010602	154955776	122343424	44894984	24992
635	1.082912	154955776	122343424	45647944	24992
636	1.07297	154955776	122343424	46401120	24992
637	1.083503	154955776	122343424	47154528	24992
638	1.070891	155226112	122343424	47908168	24992
639	1.148028	155226112	122343424	48662040	24992
640	1.073621	155226112	122343424	49416096	24992
641	1.021508	155226112	122343424	50169784	24992
642	1.111277	155226112	122343424	50923688	24992
643	1.081943	155226112	122343424	51677832	24992
644	1.098493	155226112	122343424	52432192	24992
645	1.187402	155496448	122867712	53186784	24992
646	1.097252	155496448	122867712	53941800	24992
647	1.112732	155496448	122867712	54696768	24992
648	1.06559	155496448	122867712	55451976	24992
649	1.027234	155496448	122867712	56207432	24992
650	1.10371	155496448	122867712	56963120	24992
651	1.100141	155766784	122867712	57719056	24992
652	5.297698	156848128	123916288	44306984	24992
653	1.156228	156848128	123916288	45063456	24992
654	1.139288	156848128	123916288	45820128	24992
655	1.114096	156848128	124440576	46577040	24992
656	1.106524	157118464	124440576	47334200	24992
657	1.117987	157118464	124440576	48091608	24992
658	1.036726	157118464	124440576	48849248	24992
659	1.349525	157118464	124440576	49607136	24992
660	1.169569	157118464	124440576	50365272	24992
661	1.186346	157118464	124440576	51123664	24992
662	1.171009	157388800	124440576	51882168	24992
663	1.232705	157388800	124440576	52640920	24992
664	1.260038	157388800	124440576	53399904	24992
665	1.679789	157388800	124440576	54159136	24992
666	1.63481	157388800	124440576	54918640	24992
667	1.656857	157388800	124964864	55678512	24992
668	2.119963	157659136	124964864	56442240	24992
669	1.768074	157659136	124964864	57202448	24992
670	1.680308	157659136	124964864	57962904	24992
671	1.679441	157659136	124964864	58723672	24992
672	1.789544	157659136	124964864	59484592	24992
673	1.789603	157659136	124964864	60245136	24992
674	6.439289	159010816	126013440	46990112	24992
675	1.890318	159010816	126013440	47751152	24992
676	2.007183	159010816	126537728	48512424	24992
677	1.927231	159010816	126537728	49273944	24992
678	1.952829	159281152	126537728	50035608	24992
679	1.965238	159281152	126537728	50797512	24992
680	1.968292	159281152	126537728	51559696	24992
681	2.14635	159281152	126537728	52322096	24992
682	2.020702	159281152	126537728	53084728	24992
683	2.01695	159281152	126537728	53847608	24992
684	2.182383	159551488	126537728	54610736	24992
685	2.08202	159551488	126537728	55374120	24992
686	2.096944	159551488	126537728	56137736	24992
687	2.150551	159551488	126537728	56901592	24992
688	2.185729	159551488	127062016	57665696	24992
689	2.303084	159551488	127062016	58430048	24992
690	2.172917	159821824	127062016	59194640	24992
691	2.182719	159821824	127062016	59959480	24992
692	2.327984	159821824	127062016	60724560	24992
693	2.222023	159821824	127062016	61489888	24992
694	2.27477	159821824	127062016	62255448	24992
695	10.881278	146522112	83546112	46568528	24992
696	1.760632	127647744	83546112	47334576	24992
697	1.181136	115589120	83546112	48100872	24992
698	1.137216	115589120	83546112	48867416	24992
699	1.130843	115589120	83546112	49634208	24992
700	1.087102	115589120	83546112	50401232	24992
701	1.088085	115589120	83546112	51168536	24992
702	1.07137	115589120	83546112	51936056	24992
703	1.030141	115589120	83546112	52703824	24992
704	1.033157	115589120	83546112	53471832	24992
705	1.038334	115589120	83546112	54239448	24992
706	1.242104	115589120	83546112	55007352	24992
707	1.049116	115589120	83546112	55775456	24992
708	1.039571	115589120	83546112	56543792	24992
709	1.053231	115589120	83546112	57312376	24992
710	1.019713	115589120	83546112	58081208	24992
711	1.040382	115589120	83546112	58850304	24992
712	1.02586	115589120	83546112	59619616	24992
713	1.188717	115589120	83546112	60389176	24992
714	1.056344	115589120	83546112	61158984	24992
715	1.06521	115589120	83546112	61929040	24992
716	1.067591	115589120	83546112	62699328	24992
717	1.200273	115589120	83546112	63469864	24992
718	2.619064	116670464	83546112	49324608	24992
719	1.05661	116670464	83546112	50095632	24992
720	1.047639	116670464	83546112	50866896	24992
721	1.037022	116670464	83546112	51638408	24992
722	1.039372	116670464	83546112	52410168	24992
723	1.029221	116670464	83546112	53182224	24992
724	1.06477	116670464	84070400	53954464	24992
725	1.020978	116670464	84070400	54726952	24992
726	1.01297	116670464	84070400	55499688	24992
727	0.99406	116670464	84070400	56272672	24992
728	0.998484	116670464	84070400	57045896	24992
729	1.043794	116940800	84070400	57819368	24992
730	1.017063	116940800	84070400	58593080	24992
731	1.12855	116940800	84070400	59367056	24992
732	1.04154	116940800	84070400	60142536	24992
733	1.009536	116940800	84070400	60917016	24992
734	1.021175	116940800	84070400	61691696	24992
735	1.032741	117211136	84594688	62466632	24992
736	1.015194	117211136	84594688	63241824	24992
737	1.198807	117211136	84594688	64016608	24992
738	4.332739	118833152	86167552	51216288	24992
739	1.027925	118833152	86167552	51991560	24992
740	1.027926	118833152	86167552	52767064	24992
741	1.022954	118833152	86167552	53542816	24992
742	1.058135	119103488	86167552	54318816	24992
743	1.004184	119103488	86167552	55095120	24992
744	1.000261	119103488	86167552	55871608	24992
745	1.038413	119103488	86167552	56648336	24992
746	1.054767	119103488	86691840	57425312	24992
747	1.016557	119103488	86691840	58202536	24992
748	1.008875	119373824	86691840	58980032	24992
749	1.220099	119373824	86691840	59757744	24992
750	1.017411	119373824	86691840	60535696	24992
751	1.016504	119373824	86691840	61313896	24992
752	1.025727	119373824	86691840	62092328	24992
753	1.880399	119644160	86691840	62871112	24992
754	1.040569	119644160	86691840	63650032	24992
755	1.034903	119644160	86691840	64429208	24992
756	1.245324	119644160	86691840	65208616	24992
757	1.116692	119644160	87216128	66000416	24992
758	1.014503	119914496	87216128	66780304	24992
759	4.19013	121266176	88788992	54020704	24992
760	1.046043	121266176	88788992	54801072	24992
761	1.012297	121266176	88788992	55581688	24992
762	1.017162	121266176	88788992	56362552	24992
763	1.215786	121536512	88788992	57143664	24992
764	1.198683	121536512	88788992	57925008	24992
765	1.022248	121536512	88788992	58706600	24992
766	1.023763	121536512	88788992	59488440	24992
767	1.041344	121536512	88788992	60270624	24992
768	1.034223	121806848	88788992	61052992	24992
769	1.035356	121806848	88788992	61834920	24992
770	1.032044	121806848	88788992	62617096	24992
771	1.065998	121806848	89313280	63399520	24992
772	1.040467	121806848	89313280	64182176	24992
773	1.040827	121806848	89313280	64965080	24992
774	1.010966	122077184	89313280	65748272	24992
775	1.030307	122077184	89313280	66531664	24992
776	1.019412	122077184	89313280	67315296	24992
777	1.022114	122077184	89313280	68099176	24992
778	1.028418	122077184	89313280	68883304	24992
779	4.376649	123699200	90886144	56275640	24992
780	1.048414	123699200	90886144	57060256	24992
781	1.034888	123969536	90886144	57845112	24992
782	1.063158	123969536	91410432	58630216	24992
783	1.242694	123969536	91410432	59415568	24992
784	1.036625	123969536	91410432	60201152	24992
785	1.04141	123969536	91410432	60986984	24992
786	1.101233	124239872	91410432	61773064	24992
787	1.049075	124239872	91410432	62559392	24992
788	1.045914	124239872	91410432	63345992	24992
789	1.051147	124239872	91410432	64132808	24992
790	1.026712	124239872	91410432	64919864	24992
791	1.022144	124510208	91410432	65707168	24992
792	1.049795	124510208	91934720	66494704	24992
793	1.027831	124510208	91934720	67282488	24992
794	1.243399	124510208	91934720	68070520	24992
795	1.03921	124510208	91934720	68858832	24992
796	1.040901	124780544	91934720	69647344	24992
797	1.05666	124780544	91934720	70436104	24992
798	1.041804	124780544	91934720	71225112	24992
799	1.046652	124780544	91934720	72014368	24992
800	4.539897	126402560	93507584	59529568	24992
801	1.121306	126402560	93507584	60318664	24992
802	1.07269	126402560	94031872	61108008	24992
803	1.059096	126672896	94031872	61897600	24992
804	1.054609	126672896	94031872	62687424	24992
805	1.068907	126672896	94031872	63477496	24992
806	1.027096	126672896	94031872	64267848	24992
807	1.03096	126672896	94031872	65058416	24992
808	1.033317	126943232	94031872	65849216	24992
809	1.08822	126943232	94031872	66640264	24992
810	1.040038	126943232	94031872	67431560	24992
811	1.041214	126943232	94031872	68223104	24992
812	1.263919	126943232	94556160	69014880	24992
813	1.052741	127213568	94556160	69806944	24992
814	1.050145	127213568	94556160	70599208	24992
815	1.058521	127213568	94556160	71391728	24992
816	1.141447	127213568	94556160	72184480	24992
817	1.053749	127213568	94556160	72977480	24992
818	1.059833	127483904	94556160	73770728	24992
819	1.076816	127483904	94556160	74564224	24992
820	4.920162	129105920	96653312	62196568	24992
821	1.073963	129105920	96653312	62990544	24992
822	1.042452	129376256	96653312	63784768	24992
823	1.056517	129376256	96653312	64579240	24992
824	1.042297	129376256	96653312	65373944	24992
825	1.047881	129376256	96653312	66168896	24992
826	1.047167	129376256	96653312	66964096	24992
827	1.068053	129646592	96653312	67759544	24992
828	1.052386	129646592	96653312	68555224	24992
829	1.057496	129646592	96653312	69351152	24992
830	1.25654	129646592	97177600	70147328	24992
831	1.086357	129646592	97177600	70943752	24992
832	1.068728	129916928	97177600	71740496	24992
833	1.068133	129916928	97177600	72536768	24992
834	1.107693	129916928	97177600	73333280	24992
835	1.07141	129916928	97177600	74130144	24992
836	1.07612	129916928	97177600	74927144	24992
837	1.086004	130187264	97177600	75724384	24992
838	1.042886	130187264	97177600	76521872	24992
839	1.074291	130187264	97701888	77319608	24992
840	4.796987	131809280	99799040	65025784	24992
841	1.080537	132079616	99799040	65824040	24992
842	1.061135	132079616	99799040	66622496	24992
843	1.06681	132079616	99799040	67421248	24992
844	1.062103	132079616	99799040	68220200	24992
845	1.07451	132079616	99799040	69019392	24992
846	1.071065	132349952	99799040	69818832	24992
847	1.069218	132349952	99799040	70618520	24992
848	1.236501	132349952	99799040	71418440	24992
849	1.116032	132349952	99799040	72218608	24992
850	1.082261	132349952	99799040	73029432	24992
851	1.084673	132620288	99799040	73830088	24992
852	1.090523	132620288	99799040	74630992	24992
853	1.091199	132620288	99799040	75432144	24992
854	1.061363	132620288	99799040	76233536	24992
855	1.063399	132620288	99799040	77035176	24992
856	1.06184	132890624	99799040	77837048	24992
857	1.088887	132890624	100323328	78639168	24992
858	1.066304	132890624	100323328	79441536	24992
859	5.259257	134782976	102420480	67192192	24992
860	1.100367	134782976	102420480	67995080	24992
861	1.07636	134782976	102420480	68798184	24992
862	1.079419	134782976	102420480	69601528	24992
863	1.076955	135053312	102420480	70405120	24992
864	1.078917	135053312	102420480	71209048	24992
865	1.081598	135053312	102420480	72012488	24992
866	1.294287	135053312	102420480	72816168	24992
867	1.092701	135053312	102420480	73620136	24992
868	1.101	135323648	102420480	74424304	24992
869	1.103551	135323648	102420480	75228744	24992
870	1.077317	135323648	102420480	76033400	24992
871	1.065754	135323648	102420480	76838352	24992
872	1.099393	135323648	102944768	77643488	24992
873	1.081716	135593984	102944768	78448872	24992
874	1.07609	135593984	102944768	79254504	24992
875	1.078247	135593984	102944768	80060384	24992
876	1.077829	135593984	102944768	80866496	24992
877	1.267689	135593984	102944768	81672856	24992
878	1.083847	135864320	102944768	82479608	24992
879	5.037172	137486336	105041920	70368728	24992
880	1.109624	137486336	105041920	71175816	24992
881	1.093208	137756672	105041920	71983152	24992
882	1.096965	137756672	105041920	72790736	24992
883	1.333931	137756672	105041920	73598608	24992
884	1.130167	137756672	105041920	74406680	24992
885	1.105337	138027008	105041920	75215008	24992
886	1.074306	138027008	105041920	76023568	24992
887	1.081743	138027008	105041920	76832376	24992
888	1.102944	138027008	105566208	77641416	24992
889	1.080598	138027008	105566208	78450704	24992
890	1.089322	138297344	105566208	79260240	24992
891	1.142165	138297344	105566208	80070024	24992
892	1.087448	138297344	105566208	80880040	24992
893	1.088256	138297344	105566208	81690304	24992
894	1.113698	138297344	105566208	82500840	24992
895	1.097339	138567680	105566208	83311592	24992
896	1.097268	138567680	105566208	84122864	24992
897	1.129737	138567680	106090496	84933472	24992
898	5.180265	140460032	108187648	73029456	24992
899	1.233306	140460032	108187648	73840544	24992
900	1.120931	140730368	108187648	74651872	24992
901	1.311227	140730368	108187648	75463512	24992
902	1.077423	140730368	108187648	76275336	24992
903	1.083009	140730368	108187648	77087488	24992
904	1.092056	141000704	108187648	77899792	24992
905	1.088852	141000704	108187648	78712592	24992
906	1.087233	141000704	108187648	79525384	24992
907	1.099897	141000704	108187648	80338432	24992
908	1.092114	141000704	108187648	81151712	24992
909	1.103129	141271040	108187648	81965240	24992
910	1.122094	141271040	108711936	82779016	24992
911	1.304958	141271040	108711936	83593040	24992
912	1.107594	141271040	108711936	84407296	24992
913	1.115867	141541376	108711936	85221800	24992
914	1.1461	141541376	108711936	86036616	24992
915	1.13502	141541376	108711936	86851616	24992
916	1.122879	141541376	108711936	87666888	24992
917	1.119734	141541376	108711936	88482376	24992
918	5.384674	143704064	110809088	76613504	24992
919	1.102295	143704064	110809088	77429480	24992
920	1.096027	143704064	110809088	78245688	24992
921	1.107826	143704064	110809088	79062144	24992
922	1.112069	143974400	111333376	79878848	24992
923	1.10349	143974400	111333376	80695824	24992
924	1.107172	143974400	111333376	81513016	24992
925	1.110004	143974400	111333376	82330448	24992
926	1.116695	144244736	111333376	83148128	24992
927	1.117776	144244736	111333376	83966080	24992
928	1.316483	144244736	111333376	84784392	24992
929	1.120386	144244736	111333376	85602160	24992
930	1.145569	144244736	111857664	86420176	24992
931	1.134998	144515072	111857664	87238440	24992
932	1.126655	144515072	111857664	88056936	24992
933	1.129363	144515072	111857664	88875680	24992
934	1.094507	144515072	111857664	89694672	24992
935	1.103501	144785408	111857664	90513912	24992
936	1.099858	144785408	111857664	91333384	24992
937	5.59099	146677760	113954816	79492944	24992
938	1.134798	146677760	113954816	80312944	24992
939	1.751708	146677760	113954816	81133176	24992
940	1.133791	146948096	113954816	81953624	24992
941	1.332565	146948096	113954816	82774320	24992
942	1.148673	146948096	114479104	83595264	24992
943	1.123716	146948096	114479104	84416456	24992
944	1.447699	147218432	114479104	85237880	24992
945	1.127395	147218432	114479104	86059552	24992
946	1.187419	147218432	114479104	86905080	24992
947	1.145898	147218432	114479104	87727248	24992
948	1.136978	147488768	114479104	88549648	24992
949	1.135568	147488768	114479104	89372296	24992
950	1.139169	147488768	115003392	90195192	24992
951	1.270363	147488768	115003392	91018336	24992
952	1.127449	147759104	115003392	91841712	24992
953	1.108747	147759104	115003392	92665552	24992
954	1.302165	147759104	115003392	93489416	24992
955	1.1161	147759104	115003392	94313560	24992
956	5.579868	149921792	117100544	82616160	24992
957	1.140492	149921792	117100544	83440768	24992
958	1.126566	149921792	117100544	84265608	24992
959	1.128868	149921792	117100544	85090736	24992
960	1.174077	150192128	117100544	85916232	24992
961	1.185326	150192128	117624832	86741504	24992
962	1.133904	150192128	117624832	87566680	24992
963	1.197676	150192128	117624832	88392136	24992
964	1.144013	150462464	117624832	89217808	24992
965	1.145258	150462464	117624832	90043720	24992
966	1.10643	150462464	117624832	90869880	24992
967	1.162996	150462464	117624832	91696288	24992
968	1.11451	150462464	117624832	92522928	24992
969	1.141232	150732800	118149120	93349816	24992
970	1.314016	150732800	118149120	94176952	24992
971	1.125292	150732800	118149120	95004336	24992
972	1.126533	150732800	118149120	95831952	24992
973	1.141045	151003136	118149120	96659816	24992
974	1.130917	151003136	118149120	97487928	24992
975	5.731816	153165824	120246272	85909880	24992
976	1.354067	153165824	120246272	86738472	24992
977	1.143014	153165824	120246272	87567312	24992
978	1.146056	153165824	120246272	88396400	24992
979	1.177535	153165824	120770560	89225736	24992
980	1.14715	153436160	120770560	90055304	24992
981	1.153835	153436160	120770560	90885120	24992
982	1.16567	153436160	120770560	91715184	24992
983	1.130483	153436160	120770560	92545496	24992
984	1.12107	153706496	120770560	93376040	24992
985	1.122121	153706496	120770560	94206832	24992
986	1.14794	153706496	120770560	95037872	24992
987	1.154945	153706496	121294848	95869160	24992
988	1.135866	153976832	121294848	96700680	24992
989	1.148711	153976832	121294848	97532448	24992
990	1.140782	153976832	121294848	98364480	24992
991	1.145517	153976832	121294848	99196744	24992
992	1.144137	154247168	121294848	100029448	24992
993	1.160513	154247168	121294848	100861552	24992
994	6.016952	156409856	123392000	89403480	24992
995	1.180695	156409856	123392000	90236080	24992
996	1.177023	156409856	123916288	91068912	24992
997	1.164219	156409856	123916288	91901992	24992
998	1.121193	156680192	123916288	92735320	24992
999	1.177112	156680192	123916288	93568896	24992
1000	1.129862	156680192	123916288	94402704	24992
