x	Duration	RSS	HeapTotal	HeapUsed	External
0	NA	130314240	97701888	13045080	24992
1	1.801402	130314240	97701888	13699552	24992
2	1.704687	130314240	97701888	14353816	24992
3	1.679433	130314240	97701888	15008008	24992
4	1.65713	130314240	97701888	15662256	24992
5	1.63463	130314240	97701888	16316632	24992
6	1.604252	130314240	97701888	16970424	24992
7	1.318676	130314240	97701888	17624376	24992
8	0.850566	130314240	97701888	18283096	24992
9	0.746253	130314240	97701888	18939136	24992
10	0.740985	130314240	97701888	19595088	24992
11	0.764355	130314240	97701888	20251472	24992
12	0.766452	130314240	97701888	20908096	24992
13	0.739792	130314240	97701888	21564976	24992
14	0.742291	130314240	97701888	22222096	24992
15	0.741258	130314240	97701888	22879472	24992
16	0.746828	130314240	97701888	23537568	24992
17	0.975568	130314240	97701888	24196416	24992
18	0.752475	130314240	97701888	24855504	24992
19	0.754742	130314240	97701888	25515256	24992
20	0.762581	130314240	97701888	26174800	24992
21	0.944636	130314240	97701888	26834624	24992
22	0.777792	130314240	97701888	27494088	24992
23	0.768295	130314240	97701888	28154592	24992
24	0.753909	130314240	97701888	28815528	24992
25	1.379419	130314240	97701888	13194832	24992
26	0.793207	130314240	97701888	13856408	24992
27	0.79444	130314240	97701888	14518144	24992
28	0.794397	130314240	97701888	15180152	24992
29	0.794025	130314240	97701888	15842440	24992
30	0.803551	130314240	97701888	16504992	24992
31	0.797055	130314240	97701888	17167824	24992
32	0.803418	130314240	97701888	17830488	24992
33	0.808575	130314240	97701888	18493208	24992
34	0.803196	130314240	97701888	19156192	24992
35	1.013293	130314240	97701888	19819456	24992
36	0.786849	130314240	97701888	20483000	24992
37	0.788543	130314240	97701888	21146928	24992
38	0.782358	130314240	97701888	21810928	24992
39	1.243141	130314240	97701888	22475160	24992
40	0.790961	130314240	97701888	23139488	24992
41	0.785861	130314240	97701888	23804008	24992
42	0.784453	130314240	97701888	24468848	24992
43	1.580642	130314240	97701888	25134032	24992
44	0.839197	130314240	97701888	25799528	24992
45	0.834826	130314240	97701888	26466024	24992
46	0.834295	130314240	97701888	27132160	24992
47	0.834437	130314240	97701888	27798624	24992
48	1.292685	130314240	97701888	28476488	24992
49	0.796188	130314240	97701888	29143528	24992
50	1.658869	130314240	97701888	13749384	24992
51	0.984356	130314240	97701888	14417064	24992
52	0.798733	130314240	97701888	15085072	24992
53	0.798971	130314240	97701888	15753200	24992
54	0.790556	130314240	97701888	16421544	24992
55	0.841571	130314240	97701888	17090224	24992
56	0.819998	130314240	97701888	17759096	24992
57	0.79362	130314240	97701888	18428280	24992
58	0.794415	130314240	97701888	19097616	24992
59	0.795532	130314240	97701888	19767104	24992
60	1.022768	130314240	97701888	20436728	24992
61	0.802296	130314240	97701888	21106504	24992
62	0.805958	130314240	97701888	21776432	24992
63	0.804544	130314240	97701888	22446512	24992
64	1.658286	130314240	97701888	23116384	24992
65	0.819222	130314240	97701888	23786152	24992
66	0.818704	130314240	97701888	24456064	24992
67	0.821216	130314240	97701888	25126128	24992
68	1.036439	130314240	97701888	25796328	24992
69	0.84007	130314240	97701888	26466648	24992
70	0.809349	130314240	97701888	27137232	24992
71	0.810861	130314240	97701888	27807976	24992
72	0.809194	130314240	97701888	28478872	24992
73	1.256826	130314240	97701888	29149952	24992
74	1.734067	130314240	97701888	13917880	24992
75	0.835004	130314240	97701888	14589192	24992
76	0.834812	130314240	97701888	15260656	24992
77	0.829342	130314240	97701888	15932272	24992
78	1.605874	130314240	97701888	16604040	24992
79	0.870218	130314240	97701888	17275944	24992
80	1.500631	130314240	97701888	17948240	24992
81	0.898947	130314240	97701888	18621600	24992
82	0.859652	130314240	97701888	19293896	24992
83	1.162012	130314240	97701888	19966344	24992
84	1.526445	130314240	97701888	20640592	24992
85	0.867659	130314240	97701888	21313312	24992
86	1.04496	130314240	97701888	21986064	24992
87	0.909125	130314240	97701888	22674520	24992
88	0.842618	130314240	97701888	23368784	24992
89	0.77577	130314240	97701888	24040888	24992
90	0.772743	130314240	97701888	24713120	24992
91	0.834473	130314240	97701888	25385488	24992
92	0.818465	130314240	97701888	26075696	24992
93	0.834676	130314240	97701888	26748224	24992
94	0.797693	130314240	97701888	27421520	24992
95	0.794928	130314240	97701888	28094320	24992
96	0.809222	130314240	97701888	28766896	24992
97	0.773624	130314240	97701888	29439352	24992
98	1.735961	130629632	97701888	14299712	24992
99	0.814536	130629632	97701888	14972432	24992
100	0.792327	130629632	97701888	15645272	24992
101	0.795926	130629632	97701888	16318216	24992
102	0.787971	130629632	97701888	16991216	24992
103	0.785405	130629632	97701888	17664360	24992
104	0.805575	130629632	97701888	18337640	24992
105	0.790529	130629632	97701888	19011088	24992
106	0.963581	130629632	97701888	19684664	24992
107	1.504431	130629632	97701888	20358520	24992
108	0.995833	130629632	97701888	21032368	24992
109	0.78319	130629632	97701888	21706352	24992
110	0.78186	130629632	97701888	22380456	24992
111	0.782856	130629632	97701888	23054696	24992
112	0.943397	130629632	97701888	23729104	24992
113	0.797262	130629632	97701888	24403648	24992
114	0.781931	130629632	97701888	25078312	24992
115	0.836507	130629632	97701888	25769312	24992
116	0.781529	130629632	97701888	26444248	24992
117	0.845667	130629632	97701888	27119288	24992
118	0.767534	130629632	97701888	27794368	24992
119	0.770411	130629632	97701888	28469592	24992
120	0.869591	130629632	97701888	29144968	24992
121	0.801202	130629632	97701888	29821512	24992
122	0.977605	130629632	97701888	30497184	24992
123	1.77691	130629632	97701888	15334192	24992
124	0.796825	130629632	97701888	16010120	24992
125	0.801619	130629632	97701888	16686184	24992
126	0.793854	130629632	97701888	17362384	24992
127	0.798653	130629632	97701888	18038720	24992
128	0.796577	130629632	97701888	18714856	24992
129	0.790428	130629632	97701888	19390552	24992
130	0.808761	130629632	97701888	20066384	24992
131	0.796317	130629632	97701888	20742512	24992
132	0.795225	130629632	97701888	21418760	24992
133	0.799791	130629632	97701888	22095112	24992
134	0.788327	130629632	97701888	22771648	24992
135	1.059402	130629632	97701888	23448288	24992
136	0.80373	130629632	97701888	24125704	24992
137	0.776535	130629632	97701888	24802656	24992
138	0.775673	130629632	97701888	25479736	24992
139	0.788517	130629632	97701888	26156952	24992
140	0.77884	130629632	97701888	26834288	24992
141	0.776619	130629632	97701888	27511760	24992
142	0.776336	130629632	97701888	28191192	24992
143	0.780465	130629632	97701888	28868936	24992
144	0.944749	130629632	97701888	29546904	24992
145	0.826664	130629632	97701888	30226416	24992
146	0.803241	130629632	97701888	30904584	24992
147	1.716577	130629632	97701888	15727648	24992
148	0.819926	130629632	97701888	16406072	24992
149	0.936652	130629632	97701888	17084616	24992
150	0.823111	130629632	97701888	17765040	24992
151	0.794789	130629632	97701888	18444328	24992
152	0.820371	130629632	97701888	19123768	24992
153	0.831639	130629632	97701888	19803376	24992
154	0.819862	130629632	97701888	20483112	24992
155	0.816581	130629632	97701888	21162984	24992
156	0.818048	130629632	97701888	21842976	24992
157	0.827799	130629632	97701888	22523104	24992
158	0.819681	130629632	97701888	23203368	24992
159	0.820774	130629632	97701888	23883768	24992
160	0.824874	130629632	97701888	24563984	24992
161	0.824005	130629632	97701888	25244032	24992
162	0.979298	130629632	97701888	25924224	24992
163	0.78485	130629632	97701888	26604536	24992
164	0.782516	130629632	97701888	27284976	24992
165	0.787973	130629632	97701888	27965520	24992
166	0.850312	130629632	97701888	28646472	24992
167	0.778856	130629632	97701888	29327568	24992
168	0.780522	130629632	97701888	30008800	24992
169	0.779234	130629632	97701888	30690200	24992
170	0.777668	130629632	97701888	31371728	24992
171	1.736003	130629632	97701888	16245480	24992
172	0.787325	130629632	97701888	16927280	24992
173	1.12078	130629632	97701888	17609232	24992
174	1.091674	130629632	97701888	18291288	24992
175	0.809271	130629632	97701888	18973480	24992
176	0.827854	130629632	97701888	19659360	24992
177	0.783817	130629632	97701888	20341584	24992
178	1.310502	130629632	97701888	21024520	24992
179	0.799458	130629632	97701888	21707000	24992
180	0.789387	130629632	97701888	22389616	24992
181	0.791084	130629632	97701888	23072336	24992
182	0.778832	130629632	97701888	23755184	24992
183	0.79283	130629632	97701888	24438184	24992
184	0.78311	130629632	97701888	25121320	24992
185	0.780725	130629632	97701888	25804624	24992
186	0.842561	130629632	97701888	26501256	24992
187	0.797898	130629632	97701888	27184856	24992
188	0.85399	130629632	97701888	27868592	24992
189	0.782002	130629632	97701888	28552464	24992
190	0.781623	130629632	97701888	29236456	24992
191	0.779726	130629632	97701888	29920584	24992
192	0.784607	130629632	97701888	30604568	24992
193	0.835916	130629632	97701888	31288352	24992
194	0.783977	130629632	97701888	31972264	24992
195	1.762217	130629632	97701888	16905696	24992
196	0.802582	130629632	97701888	17589880	24992
197	0.794753	130629632	97701888	18274168	24992
198	0.778947	130629632	97701888	18958584	24992
199	0.781446	130629632	97701888	19643152	24992
200	1.858949	130629632	97701888	20328456	24992
201	0.803325	130629632	97701888	21013328	24992
202	0.790105	130629632	97701888	21698328	24992
203	0.784075	130629632	97701888	22383464	24992
204	0.787346	130629632	97701888	23068736	24992
205	0.859973	130629632	97701888	23754144	24992
206	0.784224	130629632	97701888	24439672	24992
207	0.78853	130629632	97701888	25125344	24992
208	0.975455	130629632	97701888	25811480	24992
209	1.011562	130629632	97701888	26497448	24992
210	0.838648	130629632	97701888	27183536	24992
211	0.851589	130899968	97701888	27873224	24992
212	0.795293	130899968	97701888	28559568	24992
213	0.792745	130899968	97701888	29246016	24992
214	1.010334	130899968	97701888	29932592	24992
215	0.838854	130899968	97701888	30644456	24992
216	0.788651	130899968	97701888	31331320	24992
217	0.785149	130899968	97701888	32018368	24992
218	0.986425	130899968	97701888	32705528	24992
219	1.79852	130899968	97701888	17703696	24992
220	1.002824	130899968	97701888	18391160	24992
221	1.062841	130899968	97701888	19080512	24992
222	0.812165	130899968	97701888	19768184	24992
223	0.786901	130899968	97701888	20455992	24992
224	0.784013	130899968	97701888	21143672	24992
225	0.785353	130899968	97701888	21831136	24992
226	1.006915	130899968	97701888	22518728	24992
227	0.786706	130899968	97701888	23206456	24992
228	0.787623	130899968	97701888	23894320	24992
229	0.78713	130899968	97701888	24585168	24992
230	0.787498	130899968	97701888	25273264	24992
231	0.784071	130899968	97701888	25961512	24992
232	0.785519	130899968	97701888	26649896	24992
233	0.784557	130899968	97701888	27338448	24992
234	0.782801	130899968	97701888	28027136	24992
235	0.792284	130899968	97701888	28715960	24992
236	0.787708	130899968	97701888	29404912	24992
237	0.78358	130899968	97701888	30094000	24992
238	0.788565	130899968	97701888	30783208	24992
239	0.789224	130899968	97701888	31472552	24992
240	1.001036	130899968	97701888	32162064	24992
241	0.807449	130899968	97701888	32851712	24992
242	0.789703	130899968	97701888	33541480	24992
243	2.045439	130899968	97701888	18604704	24992
244	0.797042	130899968	97701888	19294744	24992
245	0.794901	130899968	97701888	19984888	24992
246	0.787159	130899968	97701888	20675160	24992
247	0.786118	130899968	97701888	21365584	24992
248	0.80421	130899968	97701888	22056144	24992
249	0.789099	130899968	97701888	22746872	24992
250	0.787429	130899968	97701888	23437728	24992
251	0.788517	130899968	97701888	24128720	24992
252	0.786295	130899968	97701888	24819848	24992
253	1.017637	130899968	97701888	25511112	24992
254	0.791196	130899968	97701888	26202496	24992
255	0.791293	130899968	97701888	26894016	24992
256	0.794244	130899968	97701888	27585912	24992
257	0.798934	130899968	97701888	28277576	24992
258	0.799963	130899968	97701888	28969360	24992
259	0.796175	130899968	97701888	29661280	24992
260	0.793993	130899968	97701888	30353336	24992
261	0.797859	130899968	97701888	31045368	24992
262	0.79779	130899968	97701888	31737696	24992
263	0.789373	130899968	97701888	32430336	24992
264	0.794116	130899968	97701888	33123288	24992
265	0.793537	130899968	97701888	33817064	24992
266	0.838694	130899968	97701888	34511312	24992
267	1.877304	130899968	97701888	19643600	24992
268	0.801864	130899968	97701888	20338824	24992
269	0.804708	130899968	97701888	21034536	24992
270	0.801362	130899968	97701888	21730720	24992
271	0.814167	130899968	97701888	22427392	24992
272	0.821332	130899968	97701888	23124552	24992
273	0.801584	130899968	97701888	23822200	24992
274	0.801871	130899968	97701888	24520320	24992
275	0.803489	130899968	97701888	25218928	24992
276	0.808097	130899968	97701888	25918024	24992
277	0.806905	130899968	97701888	26617256	24992
278	0.795917	130899968	97701888	27316608	24992
279	0.795645	130899968	97701888	28016096	24992
280	1.00272	130899968	97701888	28715720	24992
281	0.820422	130899968	97701888	29415480	24992
282	0.800363	130899968	97701888	30115360	24992
283	0.800916	130899968	97701888	30815376	24992
284	0.801708	130899968	97701888	31515528	24992
285	0.819045	130899968	97701888	32215816	24992
286	0.805065	130899968	97701888	32916224	24992
287	0.807053	130899968	97701888	33616768	24992
288	0.808828	130899968	97701888	34317192	24992
289	0.810985	130899968	97701888	35017456	24992
290	1.935456	130899968	97701888	20252160	24992
291	0.811966	130899968	97701888	20952592	24992
292	0.813235	130899968	97701888	21653160	24992
293	1.041154	130899968	97701888	22353864	24992
294	0.799457	130899968	97701888	23054688	24992
295	0.802731	130899968	97701888	23755648	24992
296	0.804059	130899968	97701888	24456744	24992
297	0.805087	130899968	97701888	25157976	24992
298	0.806008	130899968	97701888	25859360	24992
299	0.808852	130899968	97701888	26560848	24992
300	0.813749	130899968	97701888	27262472	24992
301	0.807375	130899968	97701888	27964360	24992
302	0.821219	130899968	97701888	28666240	24992
303	0.808827	130899968	97701888	29368256	24992
304	0.808008	130899968	97701888	30070408	24992
305	0.811626	130899968	97701888	30772696	24992
306	0.857844	130899968	97701888	31475104	24992
307	0.836212	130899968	97701888	32177648	24992
308	0.816373	130899968	97701888	32880328	24992
309	0.816213	130899968	97701888	33583144	24992
310	0.807065	130899968	97701888	34286080	24992
311	0.809322	130899968	97701888	34989152	24992
312	0.816241	130899968	97701888	35692360	24992
313	0.816163	130899968	97701888	36395704	24992
314	1.991219	130899968	97701888	21727216	24992
315	0.828794	130899968	97701888	22430816	24992
316	0.81674	130899968	97701888	23134600	24992
317	0.81715	130899968	97701888	23838472	24992
318	0.817172	130899968	97701888	24542464	24992
319	0.815141	130899968	97701888	25246616	24992
320	1.044697	130899968	97701888	25950640	24992
321	0.817441	130899968	97701888	26654392	24992
322	0.816238	130899968	97701888	27358272	24992
323	0.818693	130899968	97701888	28062288	24992
324	0.831591	130899968	97701888	28766440	24992
325	0.820805	130899968	97701888	29470728	24992
326	0.810716	130899968	97701888	30175136	24992
327	0.812533	130899968	97701888	30879680	24992
328	0.812727	130899968	97701888	31584360	24992
329	0.825934	130899968	97701888	32289176	24992
330	0.81415	130899968	97701888	32994112	24992
331	0.817236	130899968	97701888	33699184	24992
332	0.817111	130899968	97701888	34404392	24992
333	0.819593	130899968	97701888	35109736	24992
334	1.060746	130899968	97701888	35815200	24992
335	0.821461	130899968	97701888	36520800	24992
336	0.818686	130899968	97701888	37226536	24992
337	2.072584	130899968	97701888	22616592	24992
338	0.843099	130899968	97701888	23322592	24992
339	0.847549	130899968	97701888	24028720	24992
340	0.853682	130899968	97701888	24735008	24992
341	0.858825	130899968	97701888	25441400	24992
342	0.835395	130899968	97701888	26147920	24992
343	0.839904	130899968	97701888	26854616	24992
344	0.834973	130899968	97701888	27561400	24992
345	0.837574	130899968	97701888	28268328	24992
346	0.853395	130899968	97701888	28975584	24992
347	0.8447	130899968	97701888	29682768	24992
348	0.945293	130899968	97701888	30390088	24992
349	0.872635	130899968	97701888	31098376	24992
350	0.854098	130899968	97701888	31805952	24992
351	0.841553	130899968	97701888	32513664	24992
352	0.842097	130899968	97701888	33221296	24992
353	0.844736	130899968	97701888	33928632	24992
354	0.843816	130899968	97701888	34636096	24992
355	0.857496	130899968	97701888	35343696	24992
356	0.849351	130899968	97701888	36051432	24992
357	0.848716	130899968	97701888	36759304	24992
358	0.846721	130899968	97701888	37467296	24992
359	1.075553	130899968	97701888	38175424	24992
360	2.093295	130899968	97701888	23604944	24992
361	0.830558	130899968	97701888	24313344	24992
362	0.839108	130899968	97701888	25021864	24992
363	0.826904	130899968	97701888	25730520	24992
364	0.828487	130899968	97701888	26439312	24992
365	0.826502	130899968	97701888	27148240	24992
366	0.825482	130899968	97701888	27857288	24992
367	0.836243	130899968	97701888	28566472	24992
368	0.82991	130899968	97701888	29275792	24992
369	0.829613	130899968	97701888	29985248	24992
370	0.829946	130899968	97701888	30694824	24992
371	1.033414	130899968	97701888	31404536	24992
372	0.856061	130899968	97701888	32114384	24992
373	0.834754	130899968	97701888	32824368	24992
374	0.840416	130899968	97701888	33534472	24992
375	0.855361	130899968	97701888	34244712	24992
376	0.836511	130899968	97701888	34955088	24992
377	0.826704	130899968	97701888	35665600	24992
378	0.827966	130899968	97701888	36376232	24992
379	0.82879	130899968	97701888	37087000	24992
380	1.047217	130899968	97701888	37797904	24992
381	0.854934	130899968	97701888	38508944	24992
382	0.833089	130899968	97701888	39220168	24992
383	2.146533	130899968	97701888	24698688	24992
384	0.847727	130899968	97701888	25409944	24992
385	0.842873	130899968	97701888	26120872	24992
386	0.840039	130899968	97701888	26831920	24992
387	0.840034	130899968	97701888	27543288	24992
388	0.853466	130899968	97701888	28254600	24992
389	0.842508	130899968	97701888	28966056	24992
390	0.832762	130899968	97701888	29677680	24992
391	1.032424	130899968	97701888	30390800	24992
392	0.902426	130899968	97701888	31102648	24992
393	0.870615	130899968	97701888	31816848	24992
394	0.834269	130899968	97701888	32528960	24992
395	0.835422	130899968	97701888	33241200	24992
396	0.846875	130899968	97701888	33953600	24992
397	1.058038	130899968	97701888	34666104	24992
398	1.554605	130899968	97701888	35380136	24992
399	0.85829	130899968	97701888	36092904	24992
400	0.906449	130899968	97701888	36805808	24992
401	0.852772	130899968	97701888	37518848	24992
402	0.843175	130899968	97701888	38232008	24992
403	0.84742	130899968	97701888	38945304	24992
404	0.874755	130899968	97701888	39658736	24992
405	0.871048	130899968	97701888	40372304	24992
406	2.270957	130899968	97701888	25913496	24992
407	1.047962	130899968	97701888	26627320	24992
408	0.856576	130899968	97701888	27341280	24992
409	0.846878	130899968	97701888	28055376	24992
410	0.835592	130899968	97701888	28769592	24992
411	0.838389	130899968	97701888	29483944	24992
412	0.854281	130899968	97701888	30198432	24992
413	0.837152	130899968	97701888	30913056	24992
414	0.842393	130899968	97701888	31627800	24992
415	0.844403	130899968	97701888	32342680	24992
416	0.851833	130899968	97701888	33057520	24992
417	0.842581	130899968	97701888	33772032	24992
418	0.844068	130899968	97701888	34486664	24992
419	0.8459	130899968	97701888	35201432	24992
420	0.84806	130899968	97701888	35916336	24992
421	1.078578	130899968	97701888	36631376	24992
422	0.83628	130899968	97701888	37346536	24992
423	0.83777	130899968	97701888	38061832	24992
424	0.840223	130899968	97701888	38777264	24992
425	0.846253	130899968	97701888	39492832	24992
426	0.840842	130899968	97701888	40208520	24992
427	0.845972	130899968	97701888	40924344	24992
428	0.842825	130899968	97701888	41640304	24992
429	2.263324	130899968	97701888	27221800	24992
430	0.871769	130899968	97701888	27938264	24992
431	0.875	130899968	97701888	28654624	24992
432	0.881319	130899968	97701888	29371112	24992
433	0.873497	130899968	97701888	30087872	24992
434	0.867392	130899968	97701888	30804624	24992
435	0.86921	130899968	97701888	31521504	24992
436	0.87492	130899968	97701888	32238528	24992
437	0.88218	130899968	97701888	32955672	24992
438	0.860457	130899968	97701888	33672944	24992
439	0.860837	130899968	97701888	34390592	24992
440	0.862289	130899968	97701888	35108136	24992
441	0.871704	130899968	97701888	35825816	24992
442	0.860893	130899968	97701888	36543816	24992
443	0.865334	130899968	97701888	37261760	24992
444	0.865145	130899968	97701888	37979832	24992
445	0.869734	130899968	97701888	38698072	24992
446	1.095822	130899968	97701888	39416400	24992
447	0.856104	130899968	97701888	40134864	24992
448	0.855532	130899968	97701888	40853312	24992
449	0.854667	130899968	97701888	41571400	24992
450	0.868384	130899968	97701888	42289616	24992
451	0.856195	130899968	97701888	43007968	24992
452	2.33901	130899968	97701888	28642416	24992
453	0.891329	130899968	97701888	29361040	24992
454	0.865452	130899968	97701888	30079784	24992
455	0.865839	130899968	97701888	30798664	24992
456	0.868052	130899968	97701888	31517680	24992
457	1.073765	130899968	97701888	32236832	24992
458	0.855238	130899968	97701888	32956104	24992
459	0.853333	130899968	97701888	33675512	24992
460	0.854122	130899968	97701888	34395056	24992
461	0.860676	130899968	97701888	35114736	24992
462	0.857471	130899968	97701888	35834536	24992
463	0.993941	130899968	97701888	36555568	24992
464	0.899854	130899968	97701888	37275640	24992
465	0.860769	130899968	97701888	37995848	24992
466	0.873939	130899968	97701888	38716176	24992
467	0.862114	130899968	97701888	39436640	24992
468	0.86145	130899968	97701888	40157240	24992
469	0.864811	130899968	97701888	40877976	24992
470	0.8734	130899968	97701888	41598832	24992
471	0.851755	130899968	97701888	42319824	24992
472	0.857517	130899968	97701888	43040952	24992
473	0.858453	130899968	97701888	43762216	24992
474	0.85574	130899968	97701888	44483600	24992
475	2.354827	130899968	97701888	30171504	24992
476	0.897382	130899968	97701888	30893160	24992
477	0.910898	130899968	97701888	31614952	24992
478	0.870601	130899968	97701888	32336864	24992
479	0.862802	130899968	97701888	33058912	24992
480	0.864259	130899968	97701888	33780960	24992
481	0.864405	130899968	97701888	34502632	24992
482	1.097987	130899968	97701888	35224432	24992
483	0.867219	130899968	97701888	35946368	24992
484	0.867252	130899968	97701888	36668440	24992
485	0.869543	130899968	97701888	37390648	24992
486	0.863229	130899968	97701888	38112976	24992
487	0.856186	130899968	97701888	38835440	24992
488	0.866333	130899968	97701888	39558040	24992
489	0.861562	130899968	97701888	40280776	24992
490	1.169622	130899968	97701888	41004008	24992
491	0.880575	130899968	97701888	41727000	24992
492	0.868473	130899968	97701888	42450128	24992
493	0.869625	130899968	97701888	43173392	24992
494	0.93156	130899968	97701888	43900448	24992
495	0.904392	130899968	97701888	44623936	24992
496	0.870973	130899968	97701888	45347560	24992
497	0.867891	130899968	97701888	46071320	24992
498	2.425015	130899968	97701888	31811816	24992
499	0.891248	130899968	97701888	32535832	24992
500	0.890868	130899968	97701888	33259984	24992
501	0.901748	130899968	97701888	33984272	24992
502	0.881908	130899968	97701888	34708680	24992
503	0.879648	130899968	97701888	35433224	24992
504	0.879799	130899968	97701888	36157904	24992
505	0.879977	130899968	97701888	36882720	24992
506	1.098055	130899968	97701888	37607656	24992
507	1.095502	130899968	97701888	38332728	24992
508	0.871561	130899968	97701888	39057936	24992
509	0.883291	130899968	97701888	39783280	24992
510	0.871453	130899968	97701888	40508744	24992
511	0.868681	130899968	97701888	41234344	24992
512	0.87226	130899968	97701888	41960448	24992
513	0.922358	130899968	97701888	42686160	24992
514	0.885282	130899968	97701888	43411992	24992
515	0.875127	130899968	97701888	44137960	24992
516	0.874879	130899968	97701888	44864064	24992
517	0.87862	130899968	97701888	45589952	24992
518	0.887366	130899968	97701888	46316088	24992
519	0.868504	130899968	97701888	47042488	24992
520	2.458692	130899968	97701888	32838896	24992
521	0.900424	130899968	97701888	33566296	24992
522	0.878218	130899968	97701888	34293952	24992
523	0.87764	130899968	97701888	35021872	24992
524	0.873656	130899968	97701888	35750056	24992
525	0.893165	130899968	97701888	36478504	24992
526	0.880479	130899968	97701888	37207200	24992
527	0.879848	130899968	97701888	37936184	24992
528	0.882123	130899968	97701888	38665400	24992
529	0.880302	130899968	97701888	39394888	24992
530	1.117399	130899968	97701888	40124648	24992
531	0.886469	130899968	97701888	40854656	24992
532	0.898998	130899968	97701888	41584920	24992
533	0.890563	130899968	97701888	42315448	24992
534	0.889346	130899968	97701888	43046224	24992
535	0.880478	130899968	97701888	43777264	24992
536	0.878281	130899968	97701888	44508568	24992
537	0.879485	130899968	97701888	45240136	24992
538	0.891718	130899968	97701888	45971952	24992
539	0.882097	130899968	97701888	46704032	24992
540	0.887555	130899968	97701888	47436376	24992
541	0.88873	130899968	97701888	48168984	24992
542	0.899582	130899968	97701888	48901840	24992
543	2.605097	130899968	97701888	34790800	24992
544	0.914218	130899968	97701888	35524088	24992
545	0.931193	130899968	97701888	36257136	24992
546	0.916592	130899968	97701888	36990400	24992
547	0.917884	130899968	97701888	37723920	24992
548	0.923489	130899968	97701888	38457704	24992
549	0.934614	130899968	97701888	39191752	24992
550	0.905036	130899968	97701888	39926048	24992
551	0.904035	130899968	97701888	40660608	24992
552	0.908182	130899968	97701888	41395432	24992
553	0.9431	130899968	97701888	42130520	24992
554	0.91214	130899968	97701888	42865856	24992
555	0.905939	130899968	97701888	43601456	24992
556	0.905716	130899968	97701888	44344128	24992
557	0.918973	130899968	97701888	45080248	24992
558	0.909325	130899968	97701888	45816624	24992
559	1.540442	131170304	97701888	46553280	24992
560	0.928821	131170304	97701888	47290184	24992
561	1.16049	131170304	97701888	48027352	24992
562	0.926911	131170304	97701888	48764768	24992
563	0.922735	131170304	97701888	49502448	24992
564	0.916128	131170304	97701888	50240392	24992
565	3.152394	131170304	97701888	36319968	24992
566	0.896905	131170304	97701888	37057544	24992
567	0.900409	131170304	97701888	37795368	24992
568	0.89519	131170304	97701888	38533440	24992
569	0.901272	131170304	97701888	39271760	24992
570	0.891707	131170304	97701888	40010328	24992
571	0.904733	131170304	97701888	40749128	24992
572	0.894248	131170304	97701888	41488176	24992
573	0.900734	131170304	97701888	42227472	24992
574	0.898247	131170304	97701888	42967000	24992
575	1.161717	131170304	97701888	43706776	24992
576	0.904135	131170304	97701888	44446728	24992
577	0.907835	131170304	97701888	45186352	24992
578	0.904107	131170304	97701888	45926216	24992
579	0.917268	131170304	97701888	46666328	24992
580	0.912789	131170304	97701888	47406688	24992
581	0.915762	131170304	97701888	48147352	24992
582	0.896636	131170304	97701888	48888200	24992
583	0.909131	131170304	97701888	49629288	24992
584	0.896591	131170304	97701888	50370872	24992
585	0.899488	131170304	97701888	51112448	24992
586	0.902456	131170304	97701888	51854264	24992
587	3.121153	131170304	97701888	38052704	24992
588	0.926714	131170304	97701888	38795016	24992
589	0.925069	131170304	97701888	39537576	24992
590	0.935473	131170304	97701888	40280368	24992
591	0.931848	131170304	97701888	41023408	24992
592	0.930017	131170304	97701888	41766696	24992
593	0.929799	131170304	97701888	42510232	24992
594	0.942174	131170304	97701888	43254000	24992
595	0.939089	131170304	97701888	43998056	24992
596	0.938093	131170304	97701888	44742312	24992
597	0.94105	131170304	97701888	45486824	24992
598	0.953245	131170304	97701888	46231568	24992
599	0.923457	131170304	97701888	46976560	24992
600	0.909109	131170304	97701888	47721800	24992
601	0.909976	131170304	97701888	48467288	24992
602	0.922661	131170304	97701888	49213008	24992
603	0.91267	131170304	97701888	49959000	24992
604	0.912821	131170304	97701888	50705208	24992
605	0.924687	131170304	97701888	51451672	24992
606	0.926163	131170304	97701888	52198368	24992
607	0.921328	131170304	97701888	52945312	24992
608	0.923256	131170304	97701888	53692448	24992
609	3.209646	131170304	97701888	40007192	24992
610	0.927501	131170304	97701888	40754224	24992
611	0.928131	131170304	97701888	41501504	24992
612	0.939845	131170304	97701888	42249032	24992
613	0.932023	131170304	97701888	42996808	24992
614	1.089872	131170304	97701888	43744816	24992
615	0.980553	131170304	97701888	44493072	24992
616	1.012699	131170304	97701888	45241584	24992
617	1.05798	131170304	97701888	45990328	24992
618	1.092085	131170304	97701888	46739312	24992
619	1.006487	131170304	97701888	47488560	24992
620	1.214828	131170304	97701888	48238040	24992
621	1.09864	131170304	97701888	48987768	24992
622	1.069574	131170304	97701888	49737728	24992
623	0.989094	131170304	97701888	50487936	24992
624	1.07951	131170304	97701888	51238440	24992
625	1.24121	131170304	97701888	51989144	24992
626	1.138039	131170304	98226176	52740080	24992
627	1.081865	131170304	98226176	53491296	24992
628	1.088869	131170304	98226176	54242728	24992
629	1.071782	131440640	98226176	54994408	24992
630	1.060454	131440640	98226176	55746184	24992
631	4.47584	132521984	99274752	42220712	24992
632	0.988284	132521984	99274752	42972944	24992
633	1.029155	132521984	99274752	43725408	24992
634	1.067447	132521984	99274752	44478144	24992
635	1.061792	132521984	99274752	45231064	24992
636	1.121932	132792320	99274752	45984208	24992
637	1.049442	132792320	99274752	46737584	24992
638	1.248674	132792320	99799040	47491192	24992
639	1.053482	132792320	99799040	48245032	24992
640	1.06781	132792320	99799040	48999056	24992
641	1.107121	132792320	99799040	49752704	24992
642	1.099918	133062656	99799040	50506616	24992
643	1.079055	133062656	99799040	51260728	24992
644	1.040613	133062656	99799040	52015056	24992
645	1.020744	133062656	99799040	52769616	24992
646	0.993169	133062656	99799040	53524304	24992
647	1.082625	133062656	99799040	54279256	24992
648	1.069898	133062656	99799040	55034424	24992
649	1.342881	133332992	99799040	55789848	24992
650	1.080784	133332992	100323328	56545504	24992
651	1.078827	133332992	100323328	57301408	24992
652	1.071243	133332992	100323328	58057560	24992
653	4.809457	134414336	101371904	44691256	24992
654	1.024337	134684672	101371904	45447888	24992
655	1.223668	134684672	101371904	46204768	24992
656	1.213142	134684672	101371904	46961896	24992
657	1.225979	134684672	101371904	47719272	24992
658	1.22852	134684672	101371904	48476880	24992
659	1.206226	134684672	101371904	49234760	24992
660	1.18362	134955008	101896192	49992856	24992
661	1.233115	134955008	101896192	50751208	24992
662	1.233981	134955008	101896192	51509672	24992
663	1.380049	134955008	101896192	52268392	24992
664	1.577105	134955008	101896192	53027360	24992
665	1.786756	134955008	101896192	53786560	24992
666	1.405529	135225344	101896192	54546008	24992
667	1.915751	135225344	101896192	55307104	24992
668	1.836693	135225344	101896192	56069848	24992
669	1.772695	135225344	101896192	56830024	24992
670	1.728359	135225344	101896192	57590448	24992
671	1.928695	135225344	101896192	58351120	24992
672	1.852856	135495680	102420480	59112024	24992
673	1.828648	135495680	102420480	59872536	24992
674	6.129772	136577024	103469056	46607184	24992
675	2.085003	136847360	103469056	47368192	24992
676	1.911611	136847360	103469056	48129432	24992
677	1.966397	136847360	103469056	48890920	24992
678	1.887339	136847360	103469056	49652552	24992
679	1.838642	136847360	103469056	50414424	24992
680	1.952351	136847360	103993344	51176544	24992
681	1.961806	137117696	103993344	51938920	24992
682	1.959295	137117696	103993344	52701528	24992
683	2.038043	137117696	103993344	53464376	24992
684	2.023979	137117696	103993344	54227472	24992
685	2.037864	137117696	103993344	54990816	24992
686	2.077505	137117696	103993344	55754432	24992
687	2.313628	137388032	103993344	56518264	24992
688	2.086198	137388032	103993344	57282336	24992
689	2.139995	137388032	103993344	58046656	24992
690	2.126512	137388032	103993344	58811208	24992
691	2.218807	137388032	103993344	59576032	24992
692	2.222877	137388032	104517632	60341072	24992
693	2.419156	137658368	104517632	61106368	24992
694	2.191106	137658368	104517632	61871896	24992
695	10.282969	129187840	84070400	46450288	24992
696	1.915073	116080640	84070400	47216304	24992
697	1.206429	116080640	84070400	47982568	24992
698	1.175946	116080640	84070400	48749080	24992
699	1.204726	116080640	84070400	49515840	24992
700	1.159884	116080640	84070400	50282832	24992
701	1.084625	116080640	84070400	51050072	24992
702	1.429073	116350976	84070400	51817560	24992
703	1.165713	116350976	84070400	52585296	24992
704	1.148937	116350976	84070400	53353280	24992
705	1.156922	116350976	84070400	54120856	24992
706	1.156758	116350976	84070400	54888680	24992
707	1.155793	116350976	84070400	55656752	24992
708	1.156589	116621312	84070400	56425056	24992
709	1.204629	116621312	84070400	57193624	24992
710	1.149959	116621312	84070400	57962424	24992
711	1.141685	116621312	84070400	58731472	24992
712	1.50129	116621312	84070400	59500752	24992
713	0.992526	116621312	84070400	60270280	24992
714	0.989164	116621312	84070400	61040056	24992
715	0.996077	116621312	84070400	61810080	24992
716	1.0204	116621312	84070400	62580336	24992
717	0.999767	116621312	84070400	63350840	24992
718	2.606335	117432320	84070400	49200024	24992
719	1.016865	117432320	84070400	49971024	24992
720	1.001212	117432320	84070400	50742256	24992
721	0.985259	117432320	84070400	51513776	24992
722	1.238676	117432320	84070400	52285496	24992
723	0.987996	117432320	84070400	53057472	24992
724	0.988123	117432320	84070400	53829680	24992
725	1.001304	117432320	84070400	54602136	24992
726	0.969034	117432320	84070400	55374872	24992
727	0.974354	117432320	84070400	56147824	24992
728	0.973373	117432320	84070400	56921008	24992
729	0.983031	117432320	84070400	57694440	24992
730	0.974411	117432320	84070400	58468120	24992
731	0.992662	117432320	84070400	59242080	24992
732	0.975188	117432320	84070400	60016240	24992
733	1.076142	117432320	84594688	60790648	24992
734	0.995112	117702656	84594688	61565304	24992
735	0.993956	117702656	84594688	62340208	24992
736	0.995061	117702656	84594688	63115400	24992
737	1.010468	117702656	84594688	63890152	24992
738	0.998989	117702656	84594688	64665144	24992
739	4.296532	119324672	86167552	51923728	24992
740	1.013421	119324672	86167552	52699200	24992
741	1.011217	119324672	86167552	53474960	24992
742	1.229374	119595008	86167552	54250920	24992
743	0.990949	119595008	86167552	55027136	24992
744	0.985826	119595008	86167552	55803584	24992
745	1.019668	119595008	86691840	56580280	24992
746	0.989731	119595008	86691840	57357224	24992
747	0.991622	119595008	86691840	58134416	24992
748	0.991528	119865344	86691840	58911840	24992
749	1.005142	119865344	86691840	59689512	24992
750	1.006552	119865344	86691840	60467432	24992
751	1.004047	119865344	86691840	61245600	24992
752	1.007973	119865344	86691840	62024000	24992
753	1.899362	120135680	86691840	62802944	24992
754	1.021282	120135680	86691840	63581832	24992
755	1.020615	120135680	86691840	64360976	24992
756	1.251345	120135680	87216128	65140352	24992
757	1.017026	120135680	87216128	65919976	24992
758	0.992311	120406016	87216128	66699848	24992
759	4.266466	121757696	88788992	53917368	24992
760	1.022702	121757696	88788992	54697704	24992
761	1.000296	121757696	88788992	55478288	24992
762	0.996559	122028032	88788992	56259120	24992
763	1.000567	122028032	88788992	57040288	24992
764	1.014961	122028032	88788992	57821608	24992
765	0.999587	122028032	88788992	58603168	24992
766	1.005327	122028032	88788992	59384976	24992
767	1.009226	122298368	88788992	60167032	24992
768	1.045058	122298368	89313280	60949368	24992
769	1.012678	122298368	89313280	61731264	24992
770	1.012874	122298368	89313280	62513440	24992
771	1.021831	122298368	89313280	63295832	24992
772	1.270183	122568704	89313280	64078456	24992
773	1.020958	122568704	89313280	64861328	24992
774	0.995504	122568704	89313280	65644448	24992
775	1.007226	122568704	89313280	66427864	24992
776	1.000564	122568704	89313280	67211464	24992
777	0.998633	122839040	89313280	67995312	24992
778	1.027905	122839040	89837568	68779408	24992
779	1.0193	122839040	89837568	69563752	24992
780	4.492419	124190720	91410432	56934544	24992
781	1.022174	124461056	91410432	57719368	24992
782	1.018707	124461056	91410432	58504440	24992
783	1.035456	124461056	91410432	59289760	24992
784	1.020171	124461056	91410432	60075344	24992
785	1.022934	124461056	91410432	60861144	24992
786	1.022164	124731392	91410432	61647200	24992
787	1.037021	124731392	91410432	62433488	24992
788	1.032146	124731392	91410432	63220016	24992
789	1.027558	124731392	91410432	64006792	24992
790	1.001619	124731392	91410432	64793816	24992
791	1.097859	125001728	91934720	65581120	24992
792	1.009186	125001728	91934720	66368624	24992
793	1.011257	125001728	91934720	67156440	24992
794	1.010071	125001728	91934720	67944440	24992
795	1.282114	125001728	91934720	68732688	24992
796	1.015956	125272064	91934720	69521168	24992
797	1.019154	125272064	91934720	70309896	24992
798	1.036653	125272064	91934720	71098880	24992
799	1.026132	125272064	91934720	71888096	24992
800	4.719969	126894080	94031872	59393416	24992
801	1.043733	126894080	94031872	60182480	24992
802	1.051178	127164416	94031872	60971864	24992
803	1.037748	127164416	94031872	61761416	24992
804	1.036279	127164416	94031872	62551208	24992
805	1.035533	127164416	94031872	63341248	24992
806	1.023754	127164416	94031872	64131536	24992
807	1.013108	127434752	94031872	64922072	24992
808	1.014318	127434752	94031872	65712840	24992
809	1.017148	127434752	94031872	66503888	24992
810	1.280834	127434752	94556160	67295152	24992
811	1.033618	127434752	94556160	68086664	24992
812	1.028809	127705088	94556160	68878408	24992
813	1.040317	127705088	94556160	69670400	24992
814	1.031677	127705088	94556160	70462640	24992
815	1.03935	127705088	94556160	71255128	24992
816	1.034941	127705088	94556160	72047952	24992
817	1.050336	127975424	94556160	72840928	24992
818	1.037994	127975424	94556160	73634144	24992
819	1.041429	127975424	94556160	74427608	24992
820	4.673502	129597440	96653312	61992032	24992
821	1.071726	129597440	96653312	62785984	24992
822	1.029263	129867776	96653312	63580216	24992
823	1.020936	129867776	96653312	64374648	24992
824	1.023917	129867776	96653312	65169320	24992
825	1.041335	129867776	96653312	65964240	24992
826	1.028681	129867776	96653312	66759408	24992
827	1.031426	130138112	96653312	67554824	24992
828	1.035388	130138112	96653312	68350472	24992
829	1.295232	130138112	97177600	69146400	24992
830	1.041192	130138112	97177600	69942544	24992
831	1.04294	130138112	97177600	70738936	24992
832	1.060997	130408448	97177600	71535648	24992
833	1.044097	130408448	97177600	72331888	24992
834	1.047194	130408448	97177600	73128368	24992
835	1.051543	130408448	97177600	73925096	24992
836	1.07616	130408448	97177600	74722064	24992
837	1.054739	130678784	97177600	75519280	24992
838	1.043585	130678784	97701888	76316840	24992
839	1.233027	130678784	97701888	77114536	24992
840	4.739995	132300800	99799040	64811080	24992
841	1.046957	132571136	99799040	65609264	24992
842	1.039174	132571136	99799040	66407696	24992
843	1.055795	132571136	99799040	67206376	24992
844	1.044496	132571136	99799040	68005296	24992
845	1.04225	132571136	99799040	68804464	24992
846	1.044646	132841472	99799040	69603928	24992
847	1.071991	132841472	99799040	70403576	24992
848	1.056488	132841472	99799040	71203464	24992
849	1.049617	132841472	99799040	72003600	24992
850	1.054625	132841472	99799040	72814304	24992
851	1.290532	133111808	99799040	73614936	24992
852	1.063214	133111808	99799040	74415800	24992
853	1.067194	133111808	99799040	75216936	24992
854	1.046409	133111808	99799040	76018288	24992
855	1.03828	133111808	99799040	76819920	24992
856	1.066596	133382144	100323328	77621768	24992
857	1.045187	133382144	100323328	78423856	24992
858	1.279125	133382144	100323328	79226192	24992
859	1.050699	133382144	100323328	80028776	24992
860	4.883241	135274496	102420480	67858496	24992
861	1.095154	135274496	102420480	68661560	24992
862	1.062395	135274496	102420480	69464872	24992
863	1.055978	135274496	102420480	70268432	24992
864	1.059596	135544832	102420480	71072328	24992
865	1.300128	135544832	102420480	71875824	24992
866	1.065833	135544832	102420480	72679464	24992
867	1.072436	135544832	102420480	73483424	24992
868	1.106681	135815168	102420480	74287552	24992
869	1.076295	135815168	102420480	75091928	24992
870	1.042238	135815168	102420480	75896552	24992
871	1.043733	135815168	102420480	76701424	24992
872	1.121655	135815168	102944768	77506528	24992
873	1.051444	136085504	102944768	78311880	24992
874	1.051585	136085504	102944768	79117520	24992
875	1.053756	136085504	102944768	79923360	24992
876	1.271542	136085504	102944768	80729440	24992
877	1.057872	136085504	102944768	81535768	24992
878	1.06497	136355840	102944768	82342344	24992
879	4.994955	138248192	105041920	70222056	24992
880	1.081262	138248192	105041920	71029112	24992
881	1.074102	138248192	105041920	71836416	24992
882	1.074495	138248192	105041920	72643968	24992
883	1.092954	138248192	105041920	73451768	24992
884	1.082793	138518528	105041920	74259800	24992
885	1.079168	138518528	105041920	75068080	24992
886	1.075494	138518528	105566208	75876624	24992
887	1.056952	138518528	105566208	76685400	24992
888	1.054228	138518528	105566208	77494416	24992
889	1.061343	138788864	105566208	78303680	24992
890	1.070406	138788864	105566208	79113184	24992
891	1.302847	138788864	105566208	79922936	24992
892	1.063816	138788864	105566208	80732920	24992
893	1.260239	139059200	105566208	81543152	24992
894	1.071216	139059200	105566208	82353632	24992
895	1.093	139059200	106090496	83164360	24992
896	1.077547	139059200	106090496	83975448	24992
897	1.093336	139059200	106090496	84786072	24992
898	1.083516	139329536	106090496	85596880	24992
899	5.100756	140951552	108187648	73595840	24992
900	1.318616	141221888	108187648	74407136	24992
901	1.093598	141221888	108187648	75218680	24992
902	1.055187	141221888	108187648	76030472	24992
903	1.063536	141221888	108187648	76842512	24992
904	1.111499	141221888	108187648	77654808	24992
905	1.064169	141492224	108187648	78467336	24992
906	1.068781	141492224	108187648	79280120	24992
907	1.075873	141492224	108187648	80093136	24992
908	1.075055	141492224	108187648	80906472	24992
909	1.098343	141762560	108711936	81719976	24992
910	1.080592	141762560	108711936	82533720	24992
911	1.0976	141762560	108711936	83347712	24992
912	1.086552	141762560	108711936	84161936	24992
913	1.087964	141762560	108711936	84976408	24992
914	1.098297	142032896	108711936	85791128	24992
915	1.094916	142032896	108711936	86606096	24992
916	1.103128	142032896	108711936	87421296	24992
917	1.100389	142032896	108711936	88236752	24992
918	5.507154	144195584	110809088	76358456	24992
919	1.083083	144195584	110809088	77174400	24992
920	1.075087	144195584	110809088	77990576	24992
921	1.101283	144195584	111333376	78807000	24992
922	1.080301	144465920	111333376	79623672	24992
923	1.094719	144465920	111333376	80440592	24992
924	1.113385	144465920	111333376	81257744	24992
925	1.08274	144465920	111333376	82075144	24992
926	1.08728	144465920	111333376	82892816	24992
927	1.091427	144736256	111333376	83710704	24992
928	1.320966	144736256	111333376	84529000	24992
929	1.10062	144736256	111333376	85346744	24992
930	1.11765	144736256	111857664	86164752	24992
931	1.112808	145006592	111857664	86982976	24992
932	1.10519	145006592	111857664	87801440	24992
933	1.108241	145006592	111857664	88620152	24992
934	1.072019	145006592	111857664	89439112	24992
935	1.720659	145276928	111857664	90258408	24992
936	1.097062	145276928	111857664	91077848	24992
937	5.818913	147169280	113954816	79227584	24992
938	1.116782	147169280	113954816	80047512	24992
939	1.091358	147169280	113954816	80867784	24992
940	1.101477	147439616	113954816	81688208	24992
941	1.155217	147439616	113954816	82508872	24992
942	1.127476	147439616	114479104	83329784	24992
943	1.10337	147439616	114479104	84151000	24992
944	1.636959	147709952	114479104	84996096	24992
945	1.144405	147709952	114479104	85817736	24992
946	1.108685	147709952	114479104	86639624	24992
947	1.116938	147709952	114479104	87461760	24992
948	1.116074	147709952	114479104	88284128	24992
949	1.118486	147980288	114479104	89106744	24992
950	1.099303	147980288	115003392	89929608	24992
951	1.088548	147980288	115003392	90752720	24992
952	1.087281	147980288	115003392	91576064	24992
953	1.088261	148250624	115003392	92399656	24992
954	1.105652	148250624	115003392	93223496	24992
955	1.096621	148250624	115003392	94047584	24992
956	5.501127	150142976	117100544	82350728	24992
957	1.144252	150413312	117100544	83175304	24992
958	1.11502	150413312	117100544	84000208	24992
959	1.108974	150413312	117100544	84825264	24992
960	1.112652	150413312	117100544	85650736	24992
961	1.354868	150683648	117624832	86475640	24992
962	1.117442	150683648	117624832	87300832	24992
963	1.117199	150683648	117624832	88126224	24992
964	1.131201	150683648	117624832	88951872	24992
965	1.122477	150953984	117624832	89777752	24992
966	1.089866	150953984	117624832	90603904	24992
967	1.277351	150953984	117624832	91430272	24992
968	1.097346	150953984	117624832	92256880	24992
969	1.122716	151224320	118149120	93083736	24992
970	1.121333	151224320	118149120	93910840	24992
971	1.335107	151224320	118149120	94738192	24992
972	1.105102	151224320	118149120	95565776	24992
973	1.110806	151494656	118149120	96393608	24992
974	1.120291	151494656	118149120	97221688	24992
975	5.627379	153387008	120246272	85634456	24992
976	1.133027	153657344	120246272	86463016	24992
977	1.141509	153657344	120246272	87291824	24992
978	1.125203	153657344	120246272	88120880	24992
979	1.377295	153657344	120770560	88950184	24992
980	1.166995	153927680	120770560	89779720	24992
981	1.152652	153927680	120770560	90609504	24992
982	1.096831	153927680	120770560	91439536	24992
983	1.100478	153927680	120770560	92269816	24992
984	1.110065	154198016	120770560	93100328	24992
985	1.10443	154198016	120770560	93931088	24992
986	1.109864	154198016	120770560	94762096	24992
987	1.489387	154198016	121294848	95593352	24992
988	1.11583	154468352	121294848	96424840	24992
989	1.117513	154468352	121294848	97256576	24992
990	1.173395	154468352	121294848	98088560	24992
991	1.125198	154468352	121294848	98920792	24992
992	1.127419	154468352	121294848	99753440	24992
993	1.129462	154738688	121294848	100585552	24992
994	6.16941	156901376	123392000	89109256	24992
995	1.170375	156901376	123916288	89941824	24992
996	1.190603	156901376	123916288	90774624	24992
997	1.143347	156901376	123916288	91607672	24992
998	1.108412	156901376	123916288	92440968	24992
999	1.106629	157171712	123916288	93274512	24992
1000	1.142741	157171712	123916288	94108288	24992
