x	Duration	RSS	HeapTotal	HeapUsed	External
0	NA	118239232	85643264	13017248	24992
1	2.578364	118239232	85643264	13670528	24992
2	1.852437	118239232	85643264	14323712	24992
3	1.68739	118239232	85643264	14976944	24992
4	0.736127	118239232	85643264	15630344	24992
5	0.740604	118239232	85643264	16283944	24992
6	0.737971	118239232	85643264	16937728	24992
7	0.737466	118239232	85643264	17591680	24992
8	1.721087	118239232	85643264	18250416	24992
9	0.795105	118239232	85643264	18906456	24992
10	0.772323	118239232	85643264	19562408	24992
11	0.775592	118239232	85643264	20218792	24992
12	0.825571	118239232	85643264	20875416	24992
13	0.757668	118239232	85643264	21532296	24992
14	0.755157	118239232	85643264	22189416	24992
15	0.768241	118239232	85643264	22846792	24992
16	0.763298	118239232	85643264	23504888	24992
17	1.093992	118239232	85643264	24163728	24992
18	0.76367	118239232	85643264	24822824	24992
19	0.765595	118505472	85643264	25482576	24992
20	0.816174	118505472	85643264	26163288	24992
21	0.928302	118505472	85643264	26822808	24992
22	0.782055	118505472	85643264	27482016	24992
23	0.763119	118505472	85643264	28142248	24992
24	0.760937	118505472	85643264	28802896	24992
25	1.343881	118505472	85643264	13181560	24992
26	1.242539	118505472	85643264	13843280	24992
27	0.788392	118505472	85643264	14505016	24992
28	0.78041	118505472	85643264	15167024	24992
29	0.778861	118505472	85643264	15829312	24992
30	1.001192	118505472	85643264	16491864	24992
31	0.78362	118505472	85643264	17154696	24992
32	0.841912	118505472	85643264	17828400	24992
33	0.816253	118505472	85643264	18491008	24992
34	0.822116	118505472	85643264	19153880	24992
35	0.818205	118505472	85643264	19817032	24992
36	0.823071	118505472	85643264	20480464	24992
37	0.824049	118505472	85643264	21144384	24992
38	0.816133	118505472	85643264	21808264	24992
39	0.830213	118505472	85643264	22472368	24992
40	0.820493	118505472	85643264	23136584	24992
41	0.821831	118505472	85643264	23800992	24992
42	0.824545	118505472	85643264	24465720	24992
43	0.850835	118505472	85643264	25130776	24992
44	0.818016	118505472	85643264	25796184	24992
45	0.796707	118505472	85643264	26462560	24992
46	0.795581	118505472	85643264	27128584	24992
47	0.797458	118505472	85643264	27794936	24992
48	0.841546	118505472	85643264	28461648	24992
49	0.82366	118505472	85643264	29128688	24992
50	1.565327	118505472	85643264	13733512	24992
51	0.844483	118505472	85643264	14401192	24992
52	0.850743	118505472	85643264	15069200	24992
53	0.846221	118505472	85643264	15737328	24992
54	0.835942	118505472	85643264	16405672	24992
55	0.837654	118505472	85643264	17074352	24992
56	1.229879	118505472	85643264	17743248	24992
57	0.866706	118505472	85643264	18414152	24992
58	0.815997	118505472	85643264	19083488	24992
59	1.46779	118505472	85643264	19752992	24992
60	0.890335	118505472	85643264	20422616	24992
61	0.817706	118505472	85643264	21092392	24992
62	1.545202	118505472	85643264	21762336	24992
63	1.955469	118505472	85643264	22432432	24992
64	0.876584	118505472	85643264	23102288	24992
65	0.877927	118505472	85643264	23772056	24992
66	0.883009	118771712	85643264	24458696	24992
67	1.127264	118771712	85643264	25127656	24992
68	0.81297	118771712	85643264	25796736	24992
69	0.849858	118771712	85643264	26465920	24992
70	0.989696	118771712	85643264	27135352	24992
71	1.045406	118771712	85643264	27806024	24992
72	0.832836	118771712	85643264	28497832	24992
73	1.518472	118771712	85643264	29186936	24992
74	1.801704	118771712	85643264	13898256	24992
75	0.794396	118771712	85643264	14568344	24992
76	0.799684	118771712	85643264	15238560	24992
77	0.799765	118771712	85643264	15908912	24992
78	1.086027	118771712	85643264	16579384	24992
79	0.821767	118771712	85643264	17264400	24992
80	0.77911	118771712	85643264	17935368	24992
81	0.811885	118771712	85643264	18607400	24992
82	0.939295	118771712	85643264	19278352	24992
83	0.814131	118771712	85643264	19949440	24992
84	0.784903	118771712	85643264	20621800	24992
85	0.786517	118771712	85643264	21293128	24992
86	0.8323	118771712	85643264	21964472	24992
87	0.84613	118771712	85643264	22636936	24992
88	0.779048	118771712	85643264	23308760	24992
89	0.779997	118771712	85643264	23980768	24992
90	0.776924	118771712	85643264	24652904	24992
91	0.778294	118771712	85643264	25325176	24992
92	0.974038	118771712	85643264	25997568	24992
93	0.78429	118771712	85643264	26670096	24992
94	0.787479	118771712	85643264	27342760	24992
95	0.792045	118771712	85643264	28015560	24992
96	0.789153	118771712	85643264	28688136	24992
97	0.976694	118771712	85643264	29360592	24992
98	0.792184	118771712	85643264	30033176	24992
99	1.63319	118771712	85643264	14792168	24992
100	0.820084	118771712	85643264	15465008	24992
101	0.809947	118771712	85643264	16137952	24992
102	0.800444	118771712	85643264	16810952	24992
103	0.801552	118771712	85643264	17484096	24992
104	0.798582	118771712	85643264	18157376	24992
105	0.816012	118771712	85643264	18830824	24992
106	0.801526	118771712	85643264	19504400	24992
107	0.806612	118771712	85643264	20178120	24992
108	0.806459	118771712	85643264	20851960	24992
109	0.810088	118771712	85643264	21525944	24992
110	0.817665	118771712	85643264	22200048	24992
111	0.811412	118771712	85643264	22874288	24992
112	0.808597	118771712	85643264	23548696	24992
113	0.81429	118771712	85643264	24223240	24992
114	0.81919	118771712	85643264	24897904	24992
115	0.81004	118771712	85643264	25572704	24992
116	0.811674	118771712	85643264	26247640	24992
117	1.565113	118771712	85643264	26922696	24992
118	0.993763	118771712	85643264	27597776	24992
119	0.888089	118771712	85643264	28273016	24992
120	0.811145	118771712	85643264	28949376	24992
121	0.787615	118771712	85643264	29624920	24992
122	0.82736	118771712	85643264	30316512	24992
123	1.915972	118771712	85643264	15076528	24992
124	0.794606	118771712	85643264	15752456	24992
125	0.803253	118771712	85643264	16431952	24992
126	0.796451	118771712	85643264	17107880	24992
127	0.78145	118771712	85643264	17783944	24992
128	0.955385	118771712	85643264	18459808	24992
129	0.803348	118771712	85643264	19135232	24992
130	0.782212	118771712	85643264	19810792	24992
131	0.983189	118771712	85643264	20486648	24992
132	0.785704	118771712	85643264	21162624	24992
133	0.783364	118771712	85643264	21838704	24992
134	0.771524	118771712	85643264	22514928	24992
135	0.772309	118771712	85643264	23191288	24992
136	0.783016	118771712	85643264	23867784	24992
137	0.791232	118771712	85643264	24544464	24992
138	0.78573	118771712	85643264	25221272	24992
139	0.78141	118771712	85643264	25898216	24992
140	0.83678	118771712	85643264	26575280	24992
141	0.782966	118771712	85643264	27252480	24992
142	0.780089	118771712	85643264	27931640	24992
143	0.785573	118771712	85643264	28609112	24992
144	0.787572	118771712	85643264	29286736	24992
145	0.801812	118771712	85643264	29964496	24992
146	0.787219	118771712	85643264	30642392	24992
147	1.645694	118771712	85643264	15453200	24992
148	0.813193	118771712	85643264	16131352	24992
149	0.986287	118771712	85643264	16809624	24992
150	0.824217	118771712	85643264	17489776	24992
151	0.797703	118771712	85643264	18168792	24992
152	0.796348	118771712	85643264	18847944	24992
153	0.798109	118771712	85643264	19527280	24992
154	0.808684	118771712	85643264	20206744	24992
155	0.806757	118771712	85643264	20886344	24992
156	0.803997	118771712	85643264	21566064	24992
157	0.800224	118771712	85643264	22245920	24992
158	0.971801	118771712	85643264	22925912	24992
159	0.819174	118771712	85643264	23606040	24992
160	0.791327	118771712	85643264	24285984	24992
161	0.791934	118771712	85643264	24965760	24992
162	0.790423	118771712	85643264	25645672	24992
163	0.802723	118771712	85643264	26325720	24992
164	0.793383	118771712	85643264	27005888	24992
165	0.796114	118771712	85643264	27686160	24992
166	0.785806	118771712	85643264	28366840	24992
167	0.790774	118771712	85643264	29047664	24992
168	0.804646	118771712	85643264	29728624	24992
169	1.376707	118771712	85643264	30410064	24992
170	0.804317	118771712	85643264	31091320	24992
171	1.872853	118771712	85643264	15964336	24992
172	0.849167	118771712	85643264	16658792	24992
173	0.78863	118771712	85643264	17340488	24992
174	0.788469	118771712	85643264	18022304	24992
175	0.794907	118771712	85643264	18704256	24992
176	0.787517	118771712	85643264	19386376	24992
177	0.788832	118771712	85643264	20068632	24992
178	0.811727	118771712	85643264	20751008	24992
179	0.813987	118771712	85643264	21433520	24992
180	0.803866	118771712	85643264	22116168	24992
181	0.801746	118771712	85643264	22798920	24992
182	0.784569	118771712	85643264	23481800	24992
183	0.786541	118771712	85643264	24164832	24992
184	0.78567	118771712	85643264	24848000	24992
185	1.096902	118771712	85643264	25531336	24992
186	0.790435	118771712	85643264	26214800	24992
187	0.790319	118771712	85643264	26898400	24992
188	0.790577	118771712	85643264	27582136	24992
189	0.790299	118771712	85643264	28266008	24992
190	0.808012	118771712	85643264	28950000	24992
191	0.792494	118771712	85643264	29634128	24992
192	0.795925	118771712	85643264	30318112	24992
193	0.792849	118771712	85643264	31001896	24992
194	0.805436	118771712	85643264	31685808	24992
195	1.741598	118771712	85643264	16620904	24992
196	0.821663	118771712	85643264	17305088	24992
197	0.816106	118771712	85643264	17989376	24992
198	1.00193	118771712	85643264	18673792	24992
199	0.797413	118771712	85643264	19358360	24992
200	1.514	118771712	85643264	20043352	24992
201	0.810518	118771712	85643264	20728224	24992
202	0.855147	118771712	85643264	21413224	24992
203	0.795047	118771712	85643264	22098360	24992
204	0.796382	118771712	85643264	22783632	24992
205	0.793502	118771712	85643264	23469040	24992
206	0.797779	118771712	85643264	24154568	24992
207	0.848743	118771712	85643264	24840232	24992
208	0.804558	118771712	85643264	25526064	24992
209	0.803191	118771712	85643264	26212032	24992
210	1.004389	118771712	85643264	26898432	24992
211	1.090375	118771712	85643264	27604848	24992
212	0.814565	118771712	85643264	28291192	24992
213	0.807932	118771712	85643264	28977640	24992
214	0.795847	118771712	85643264	29664216	24992
215	0.799351	118771712	85643264	30350944	24992
216	0.966356	118771712	85643264	31037808	24992
217	0.799608	118771712	85643264	31724840	24992
218	0.795179	118771712	85643264	32412000	24992
219	1.834337	118771712	85643264	17411704	24992
220	0.817468	118771712	85643264	18099136	24992
221	0.910489	118771712	85643264	18786720	24992
222	0.936892	118771712	85643264	19475224	24992
223	1.007179	118771712	85643264	20164184	24992
224	0.820618	118771712	85643264	20851864	24992
225	0.799661	118771712	85643264	21539328	24992
226	0.796811	118771712	85643264	22226920	24992
227	0.800676	118771712	85643264	22914648	24992
228	0.81226	118771712	85643264	23602512	24992
229	0.801814	118771712	85643264	24293392	24992
230	0.794085	118771712	85643264	24981488	24992
231	0.793046	118771712	85643264	25669736	24992
232	0.795837	118771712	85643264	26358120	24992
233	0.805032	118771712	85643264	27046672	24992
234	0.79643	118771712	85643264	27735352	24992
235	0.797976	118771712	85643264	28424168	24992
236	0.797123	118771712	85643264	29113120	24992
237	0.961158	118771712	85643264	29802208	24992
238	0.833261	118771712	85643264	30491416	24992
239	0.805263	118771712	85643264	31180768	24992
240	0.805817	118771712	85643264	31870272	24992
241	0.809177	118771712	85643264	32559920	24992
242	0.822731	118771712	85643264	33249688	24992
243	1.839556	118771712	85643264	18312784	24992
244	0.822796	118771712	85643264	19002824	24992
245	0.829138	118771712	85643264	19692968	24992
246	0.816465	118771712	85643264	20383240	24992
247	0.819614	118771712	85643264	21073664	24992
248	0.814405	118771712	85643264	21764224	24992
249	0.816023	118771712	85643264	22455088	24992
250	0.839913	118771712	85643264	23145952	24992
251	0.803285	118771712	85643264	23836944	24992
252	0.806319	118771712	85643264	24528072	24992
253	0.8034	118771712	85643264	25219336	24992
254	0.805245	118771712	85643264	25910720	24992
255	0.817323	118771712	85643264	26602240	24992
256	0.805144	118771712	85643264	27294136	24992
257	0.814386	118771712	85643264	27985800	24992
258	0.808225	118771712	85643264	28677584	24992
259	0.854554	118771712	85643264	29369504	24992
260	0.82286	118771712	85643264	30061560	24992
261	0.811452	118771712	85643264	30753592	24992
262	0.80207	118771712	85643264	31445920	24992
263	0.805044	118771712	85643264	32138560	24992
264	0.976159	118771712	85643264	32831512	24992
265	0.834947	118771712	85643264	33525288	24992
266	0.806783	118771712	85643264	34219536	24992
267	2.063538	118771712	85643264	19351824	24992
268	0.814391	118771712	85643264	20047048	24992
269	0.816181	118771712	85643264	20742760	24992
270	0.813897	118771712	85643264	21438944	24992
271	0.811555	118771712	85643264	22135616	24992
272	0.865951	118771712	85643264	22832776	24992
273	0.809998	118771712	85643264	23530424	24992
274	0.814129	118771712	85643264	24228544	24992
275	0.814348	118771712	85643264	24927160	24992
276	0.817106	118771712	85643264	25626248	24992
277	1.018655	118771712	85643264	26325480	24992
278	0.811523	118771712	85643264	27024896	24992
279	0.809322	118771712	85643264	27724384	24992
280	0.807019	118771712	85643264	28424008	24992
281	0.816307	118771712	85643264	29123768	24992
282	0.814761	118771712	85643264	29823648	24992
283	0.81769	118771712	85643264	30523664	24992
284	0.814551	118771712	85643264	31223816	24992
285	0.816183	118771712	85643264	31924104	24992
286	0.825223	118771712	85643264	32624512	24992
287	0.817017	118771712	85643264	33325056	24992
288	0.820015	118771712	85643264	34025480	24992
289	0.866152	118771712	85643264	34725656	24992
290	0.821081	118771712	85643264	35425952	24992
291	2.012026	118771712	85643264	20683904	24992
292	0.829596	118771712	85643264	21384472	24992
293	0.82649	118771712	85643264	22085176	24992
294	0.828185	118771712	85643264	22786000	24992
295	0.815637	118771712	85643264	23486960	24992
296	0.819228	118771712	85643264	24188056	24992
297	0.815795	118771712	85643264	24889288	24992
298	0.814636	118771712	85643264	25590640	24992
299	0.827959	118771712	85643264	26292128	24992
300	0.818324	118771712	85643264	26993752	24992
301	0.825144	118771712	85643264	27695512	24992
302	0.820301	118771712	85643264	28397392	24992
303	0.995215	118771712	85643264	29099408	24992
304	0.858167	118771712	85643264	29801560	24992
305	0.824264	118771712	85643264	30503848	24992
306	0.826904	118771712	85643264	31206256	24992
307	0.826313	118771712	85643264	31908800	24992
308	0.840422	118771712	85643264	32611480	24992
309	0.830088	118771712	85643264	33314296	24992
310	0.818497	118771712	85643264	34017232	24992
311	0.820318	118771712	85643264	34720304	24992
312	0.830738	118771712	85643264	35423512	24992
313	0.824861	118771712	85643264	36126856	24992
314	1.992406	118771712	85643264	21458360	24992
315	0.828857	118771712	85643264	22161960	24992
316	1.03131	118771712	85643264	22865696	24992
317	0.827973	118771712	85643264	23569568	24992
318	0.827305	118771712	85643264	24273560	24992
319	0.824713	118771712	85643264	24977688	24992
320	0.87716	118771712	85643264	25681720	24992
321	0.83222	118771712	85643264	26385472	24992
322	0.828811	118771712	85643264	27089352	24992
323	0.831187	118771712	85643264	27793368	24992
324	0.829994	118771712	85643264	28497520	24992
325	0.839696	118771712	85643264	29201808	24992
326	0.822694	118771712	85643264	29906216	24992
327	0.82456	118771712	85643264	30610760	24992
328	0.829027	118771712	85643264	31315440	24992
329	0.86546	118771712	85643264	32020256	24992
330	0.852526	118771712	85643264	32725224	24992
331	0.830307	118771712	85643264	33430296	24992
332	0.827691	118771712	85643264	34135504	24992
333	0.834117	118771712	85643264	34840880	24992
334	0.844044	118771712	85643264	35546344	24992
335	0.834095	118771712	85643264	36251944	24992
336	0.832156	118771712	85643264	36957768	24992
337	2.037578	118771712	85643264	22324664	24992
338	0.840273	118771712	85643264	23030656	24992
339	0.838797	118771712	85643264	23736784	24992
340	0.836979	118771712	85643264	24443048	24992
341	0.836531	118771712	85643264	25149448	24992
342	1.030366	118771712	85643264	25855968	24992
343	0.830251	118771712	85643264	26562624	24992
344	0.831564	118771712	85643264	27269416	24992
345	0.836271	118771712	85643264	27976344	24992
346	0.839412	118771712	85643264	28683392	24992
347	0.832296	118771712	85643264	29390576	24992
348	0.837292	118771712	85643264	30097896	24992
349	0.832985	118771712	85643264	30805352	24992
350	0.834594	118771712	85643264	31512928	24992
351	0.851861	118771712	85643264	32220640	24992
352	0.83606	118771712	85643264	32928272	24992
353	0.836629	118771712	85643264	33635608	24992
354	0.838307	118771712	85643264	34343072	24992
355	1.02902	118771712	85643264	35050672	24992
356	0.878626	118771712	85643264	35758408	24992
357	0.853383	118771712	85643264	36466336	24992
358	0.842333	118771712	85643264	37174336	24992
359	0.838112	118771712	85643264	37882464	24992
360	2.112038	118771712	85643264	23316328	24992
361	0.843299	118771712	85643264	24024720	24992
362	0.84003	118771712	85643264	24733240	24992
363	0.851741	118771712	85643264	25441896	24992
364	0.837358	118771712	85643264	26150688	24992
365	0.842302	118771712	85643264	26859616	24992
366	0.837402	118771712	85643264	27568664	24992
367	0.873852	118771712	85643264	28277848	24992
368	0.867176	118771712	85643264	28987168	24992
369	0.842139	118771712	85643264	29696624	24992
370	0.844546	118771712	85643264	30406200	24992
371	0.848204	118771712	85643264	31115912	24992
372	0.859724	118771712	85643264	31825760	24992
373	0.854803	118771712	85643264	32535744	24992
374	0.838262	118771712	85643264	33245848	24992
375	0.839532	118771712	85643264	33956088	24992
376	0.835784	118771712	85643264	34666464	24992
377	0.838879	118771712	85643264	35376976	24992
378	0.84039	118771712	85643264	36087608	24992
379	0.842659	118771712	85643264	36798376	24992
380	0.840062	118771712	85643264	37509280	24992
381	1.051555	118771712	85643264	38220320	24992
382	0.845065	118771712	85643264	38931480	24992
383	0.844688	118771712	85643264	39642776	24992
384	2.210458	118771712	85643264	25148808	24992
385	0.859722	118771712	85643264	25859736	24992
386	0.853691	118771712	85643264	26570784	24992
387	0.853066	118771712	85643264	27281968	24992
388	0.859355	118771712	85643264	27993288	24992
389	0.850888	118771712	85643264	28704744	24992
390	0.839808	118771712	85643264	29416320	24992
391	0.840091	118771712	85643264	30128032	24992
392	0.840267	118771712	85643264	30839880	24992
393	1.054075	118771712	85643264	31551864	24992
394	0.869433	118771712	85643264	32263968	24992
395	0.846009	118771712	85643264	32976208	24992
396	0.895312	118771712	85643264	33688584	24992
397	0.865408	118771712	85643264	34401096	24992
398	1.594366	118771712	85643264	35115224	24992
399	0.872444	118771712	85643264	35827992	24992
400	0.858573	118771712	85643264	36540896	24992
401	0.913827	118771712	85643264	37253936	24992
402	0.910588	118771712	85643264	37980760	24992
403	0.862247	118771712	85643264	38694056	24992
404	0.859249	118771712	85643264	39407488	24992
405	0.881446	118771712	85643264	40121056	24992
406	0.852685	118771712	85643264	40834744	24992
407	2.277307	118771712	85643264	26388280	24992
408	0.861762	118771712	85643264	27102240	24992
409	0.853015	118771712	85643264	27816336	24992
410	0.852061	118771712	85643264	28530552	24992
411	0.848765	118771712	85643264	29244904	24992
412	0.861718	118771712	85643264	29959392	24992
413	0.853535	118771712	85643264	30674016	24992
414	0.853426	118771712	85643264	31388760	24992
415	0.856015	118771712	85643264	32103640	24992
416	0.866491	118771712	85643264	32818480	24992
417	1.067989	118771712	85643264	33532992	24992
418	0.859585	118771712	85643264	34247624	24992
419	0.85851	118771712	85643264	34962392	24992
420	0.859315	118771712	85643264	35677296	24992
421	0.869587	118771712	85643264	36392336	24992
422	0.848666	118771712	85643264	37107496	24992
423	0.848776	118771712	85643264	37822792	24992
424	0.851589	118771712	85643264	38538224	24992
425	0.854392	118771712	85643264	39253792	24992
426	0.861333	118771712	85643264	39969480	24992
427	0.85506	118771712	85643264	40685304	24992
428	0.875955	118771712	85643264	41401264	24992
429	0.860752	118771712	85643264	42117360	24992
430	2.437211	118771712	85643264	27700432	24992
431	0.869288	118771712	85643264	28416784	24992
432	0.86368	118771712	85643264	29133272	24992
433	0.916984	118771712	85643264	29849896	24992
434	0.86309	118771712	85643264	30566640	24992
435	0.865388	118771712	85643264	31283520	24992
436	0.867663	118771712	85643264	32000536	24992
437	0.884612	118771712	85643264	32717688	24992
438	0.857058	118771712	85643264	33434960	24992
439	0.857599	118771712	85643264	34152368	24992
440	0.854636	118771712	85643264	34869912	24992
441	0.854178	118771712	85643264	35587592	24992
442	0.917225	118771712	85643264	36305392	24992
443	0.85985	118771712	85643264	37023328	24992
444	0.859673	118771712	85643264	37741400	24992
445	0.87295	118771712	85643264	38459608	24992
446	0.871974	118771712	85643264	39177936	24992
447	0.869196	118771712	85643264	39896400	24992
448	0.869699	118771712	85643264	40614848	24992
449	0.867461	118771712	85643264	41332936	24992
450	0.867379	118771712	85643264	42051152	24992
451	0.870103	118771712	85643264	42769504	24992
452	0.869402	118771712	85643264	43487992	24992
453	2.464666	118771712	85643264	29124784	24992
454	0.888958	118771712	85643264	29843544	24992
455	0.860519	118771712	85643264	30562424	24992
456	0.861662	118771712	85643264	31281440	24992
457	0.865044	118771712	85643264	32000592	24992
458	0.871066	118771712	85643264	32719864	24992
459	0.863071	118771712	85643264	33439272	24992
460	0.870213	118771712	85643264	34158816	24992
461	0.868346	118771712	85643264	34878496	24992
462	0.8873	118771712	85643264	35598296	24992
463	1.004539	118771712	85643264	36319328	24992
464	0.911176	118771712	85643264	37039400	24992
465	0.878427	118771712	85643264	37759608	24992
466	1.052338	118771712	85643264	38479936	24992
467	0.889157	118771712	85643264	39200400	24992
468	0.876442	118771712	85643264	39921000	24992
469	0.877652	118771712	85643264	40641736	24992
470	0.961759	118771712	85643264	41362592	24992
471	0.862187	118771712	85643264	42083584	24992
472	0.866592	118771712	85643264	42804712	24992
473	0.878037	118771712	85643264	43525976	24992
474	0.870134	118771712	85643264	44247360	24992
475	2.33621	118771712	85643264	29905472	24992
476	1.039226	118771712	85643264	30627128	24992
477	1.093415	118771712	85643264	31348920	24992
478	0.913298	118771712	85643264	32073144	24992
479	0.875329	118771712	85643264	32795192	24992
480	0.877182	118771712	85643264	33517240	24992
481	0.89499	118771712	85643264	34238912	24992
482	0.909909	118771712	85643264	34960712	24992
483	0.87879	118771712	85643264	35682648	24992
484	0.926819	118771712	85643264	36404720	24992
485	0.878644	118771712	85643264	37126928	24992
486	0.919264	118771712	85643264	37849256	24992
487	0.869573	118771712	85643264	38571720	24992
488	0.87281	118771712	85643264	39294344	24992
489	0.870207	118771712	85643264	40017072	24992
490	1.068059	118771712	85643264	40739928	24992
491	0.877997	118771712	85643264	41463184	24992
492	0.871607	118771712	85643264	42186304	24992
493	0.882563	118771712	85643264	42909568	24992
494	0.894761	118771712	85643264	43632976	24992
495	0.876835	118771712	85643264	44356504	24992
496	0.883392	118771712	85643264	45080160	24992
497	0.913882	118771712	85643264	45804088	24992
498	2.430186	118771712	85643264	31514216	24992
499	0.902419	118771712	85643264	32238264	24992
500	0.902427	118771712	85643264	32962448	24992
501	1.098499	118771712	85643264	33686768	24992
502	0.878718	118771712	85643264	34411208	24992
503	0.87571	118771712	85643264	35135784	24992
504	0.882154	118771712	85643264	35860504	24992
505	0.882191	118771712	85643264	36585344	24992
506	0.875328	118771712	85643264	37310312	24992
507	0.878934	118771712	85643264	38035440	24992
508	0.875459	118771712	85643264	38760672	24992
509	0.885987	118771712	85643264	39486048	24992
510	0.889622	118771712	85643264	40211552	24992
511	0.881878	118771712	85643264	40937192	24992
512	0.891427	118771712	85643264	41663328	24992
513	0.891595	118771712	85643264	42389096	24992
514	0.954191	118771712	85643264	43114968	24992
515	0.889432	118771712	85643264	43840968	24992
516	0.893236	118771712	85643264	44567104	24992
517	0.892227	118771712	85643264	45293024	24992
518	0.883952	118771712	85643264	46019192	24992
519	0.879354	118771712	85643264	46745624	24992
520	0.882697	118771712	85643264	47472320	24992
521	2.50363	118771712	85643264	33272792	24992
522	0.909454	118771712	85643264	34000480	24992
523	0.907505	118771712	85643264	34728432	24992
524	0.911492	118771712	85643264	35456648	24992
525	1.115832	118771712	85643264	36185128	24992
526	1.09283	118771712	85643264	36913856	24992
527	0.896899	118771712	85643264	37642848	24992
528	0.893066	118771712	85643264	38372104	24992
529	0.944733	118771712	85643264	39101624	24992
530	0.931452	118771712	85643264	39831392	24992
531	0.903214	118771712	85643264	40561424	24992
532	0.900604	118771712	85643264	41291720	24992
533	0.928555	118771712	85643264	42022280	24992
534	0.887609	118771712	85643264	42753088	24992
535	0.903032	118771712	85643264	43484160	24992
536	0.908794	119099392	85643264	44215496	24992
537	1.060587	119099392	85643264	44947104	24992
538	0.941531	119099392	85643264	45678960	24992
539	0.914455	119099392	85643264	46411072	24992
540	1.630021	119099392	85643264	47144040	24992
541	1.134434	119099392	85643264	47876672	24992
542	0.922407	119099392	85643264	48609560	24992
543	2.641164	119099392	85643264	34503600	24992
544	0.909473	119099392	85643264	35236920	24992
545	0.955993	119099392	85643264	35980088	24992
546	0.907599	119099392	85643264	36713376	24992
547	1.105891	119099392	85643264	37446928	24992
548	0.923413	119099392	85643264	38180744	24992
549	0.913813	119099392	85643264	38914832	24992
550	0.915025	119099392	85643264	39649168	24992
551	0.911119	119099392	85643264	40383760	24992
552	0.900759	119099392	85643264	41118632	24992
553	0.902868	119099392	85643264	41853752	24992
554	0.903388	119099392	85643264	42589120	24992
555	0.917427	119099392	85643264	43324752	24992
556	0.909262	119099392	85643264	44067448	24992
557	0.906327	119099392	85643264	44803608	24992
558	0.9116	119099392	85643264	45540016	24992
559	0.911012	119099392	85643264	46276688	24992
560	1.111528	119099392	85643264	47013648	24992
561	0.918994	119099392	85643264	47750840	24992
562	0.921862	119099392	85643264	48488288	24992
563	0.925756	119099392	85643264	49226024	24992
564	0.933715	119099392	85643264	49963992	24992
565	0.929573	119099392	85643264	50702232	24992
566	2.783831	119099392	85643264	36845120	24992
567	0.932774	119099392	85643264	37583872	24992
568	0.940264	119099392	85643264	38322936	24992
569	1.607562	119099392	85643264	39062560	24992
570	0.926981	119099392	85643264	39802088	24992
571	0.919612	119099392	85643264	40541928	24992
572	0.927001	119099392	85643264	41281984	24992
573	0.959967	119099392	85643264	42022304	24992
574	0.94344	119099392	85643264	42762872	24992
575	0.927698	119099392	85643264	43503704	24992
576	0.926484	119099392	85643264	44244728	24992
577	0.959503	119099392	85643264	44985440	24992
578	1.000835	119099392	85643264	45737448	24992
579	0.929779	119099392	85643264	46477632	24992
580	0.925898	119099392	85643264	47218016	24992
581	0.926344	119099392	85643264	47958656	24992
582	1.095857	119099392	85643264	48699528	24992
583	0.916009	119099392	85643264	49440648	24992
584	0.910832	119099392	85643264	50182016	24992
585	0.912917	119099392	85643264	50923632	24992
586	0.929539	119099392	85643264	51665480	24992
587	0.916992	119099392	85643264	52407576	24992
588	2.950783	119099392	85643264	38731472	24992
589	0.939651	119099392	85643264	39474064	24992
590	0.938751	119099392	85643264	40216888	24992
591	0.982024	119099392	85643264	40959960	24992
592	1.13513	119099392	85643264	41703280	24992
593	0.933679	119099392	85643264	42446848	24992
594	0.927446	119099392	85643264	43190648	24992
595	0.92774	119099392	85643264	43934760	24992
596	0.942041	119099392	85643264	44679056	24992
597	0.936896	119099392	85643264	45423600	24992
598	0.91681	119099392	85643264	46168392	24992
599	0.919945	119099392	85643264	46913416	24992
600	0.931315	119099392	85643264	47658688	24992
601	0.920203	119099392	85643264	48404208	24992
602	0.921593	119099392	85643264	49149960	24992
603	0.921746	119099392	85643264	49895960	24992
604	0.941988	119099392	85643264	50642208	24992
605	0.927485	119099392	85643264	51388704	24992
606	0.932402	119099392	85643264	52135464	24992
607	0.930311	119099392	85643264	52882440	24992
608	0.948114	119099392	85643264	53629608	24992
609	2.958146	119099392	85643264	39954344	24992
610	0.952176	119099392	85643264	40701408	24992
611	0.939946	119099392	85643264	41448720	24992
612	0.940138	119099392	85643264	42196280	24992
613	0.947792	119099392	85643264	42944088	24992
614	1.107947	119099392	85643264	43692160	24992
615	1.1026	119099392	85643264	44440448	24992
616	1.032789	119099392	85643264	45188984	24992
617	1.006861	119099392	85643264	45937768	24992
618	1.052385	119099392	85643264	46686784	24992
619	1.113548	119099392	85643264	47436048	24992
620	1.003959	119099392	85643264	48185560	24992
621	0.99285	119099392	85643264	48935320	24992
622	1.129783	119099392	85643264	49685352	24992
623	1.051726	119099392	85643264	50435600	24992
624	1.007501	119099392	85643264	51186088	24992
625	1.2672	119099392	85643264	51936824	24992
626	1.135163	119099392	85643264	52687792	24992
627	1.012222	119099392	85643264	53439008	24992
628	1.097062	119099392	85643264	54190472	24992
629	1.070572	119099392	85643264	54942184	24992
630	1.096946	119099392	85643264	55694000	24992
631	4.436578	120180736	86691840	42127936	24992
632	1.08403	120180736	86691840	42880200	24992
633	1.0866	120180736	87216128	43632696	24992
634	1.059721	120451072	87216128	44385424	24992
635	1.030357	120451072	87216128	45138384	24992
636	1.059856	120451072	87216128	45891560	24992
637	1.091313	120451072	87216128	46644976	24992
638	1.322883	120451072	87216128	47398608	24992
639	1.104286	120451072	87216128	48152480	24992
640	1.03081	120451072	87216128	48906536	24992
641	1.018805	120721408	87216128	49660216	24992
642	1.060647	120721408	87216128	50414128	24992
643	1.249193	120721408	87216128	51168272	24992
644	1.186784	120721408	87216128	51922632	24992
645	1.124898	120721408	87740416	52677240	24992
646	1.071849	120721408	87740416	53431960	24992
647	1.074151	120991744	87740416	54186920	24992
648	1.006996	120991744	87740416	54942128	24992
649	1.033017	120991744	87740416	55697584	24992
650	1.085712	120991744	87740416	56453336	24992
651	1.179826	120991744	87740416	57209272	24992
652	1.093173	120991744	87740416	57965456	24992
653	5.035773	122343424	88788992	44604096	24992
654	1.183238	122343424	88788992	45360768	24992
655	1.14699	122343424	89313280	46117688	24992
656	1.121864	122343424	89313280	46874848	24992
657	1.050669	122343424	89313280	47632256	24992
658	1.149422	122613760	89313280	48389896	24992
659	1.148778	122613760	89313280	49147784	24992
660	1.23595	122613760	89313280	49905920	24992
661	1.231569	122613760	89313280	50664304	24992
662	1.181103	122613760	89313280	51422856	24992
663	1.180276	122613760	89313280	52181600	24992
664	1.601084	122884096	89313280	52940584	24992
665	1.648312	122884096	89313280	53699816	24992
666	1.681174	122884096	89313280	54459296	24992
667	1.6629	122884096	89837568	55220824	24992
668	2.006003	122884096	89837568	55984040	24992
669	1.644636	122884096	89837568	56744248	24992
670	1.824739	123154432	89837568	57504704	24992
671	1.764433	123154432	89837568	58265408	24992
672	1.781355	123154432	89837568	59026424	24992
673	1.880332	123154432	89837568	59786968	24992
674	6.315773	124506112	90886144	46526848	24992
675	1.903607	124506112	91410432	47287888	24992
676	1.907977	124506112	91410432	48049168	24992
677	1.901758	124506112	91410432	48810696	24992
678	1.883421	124506112	91410432	49572360	24992
679	1.953847	124776448	91410432	50334264	24992
680	1.93636	124776448	91410432	51096416	24992
681	1.947188	124776448	91410432	51858824	24992
682	1.951422	124776448	91410432	52621464	24992
683	1.983167	124776448	91410432	53384344	24992
684	2.001809	124776448	91410432	54147472	24992
685	2.253899	125046784	91410432	54910848	24992
686	2.072991	125046784	91410432	55674456	24992
687	2.131931	125046784	91934720	56438312	24992
688	2.019316	125046784	91934720	57202416	24992
689	2.027561	125046784	91934720	57966768	24992
690	2.381961	125046784	91934720	58731352	24992
691	2.173079	125317120	91934720	59496184	24992
692	2.223695	125317120	91934720	60261264	24992
693	2.222372	125317120	91934720	61026592	24992
694	2.253985	125317120	91934720	61792192	24992
695	8.557608	116645888	84070400	46307496	24992
696	1.137757	116645888	84070400	47073544	24992
697	1.102619	116645888	84070400	47839840	24992
698	1.061859	116645888	84070400	48606384	24992
699	1.065157	116645888	84070400	49373176	24992
700	1.488173	116645888	84070400	50140200	24992
701	1.135127	116645888	84070400	50907472	24992
702	1.030069	116645888	84070400	51674992	24992
703	1.053826	116645888	84070400	52442760	24992
704	0.993289	116645888	84070400	53210768	24992
705	0.993581	116645888	84070400	53978384	24992
706	1.008811	116645888	84070400	54746240	24992
707	1.029607	116645888	84070400	55514400	24992
708	1.027438	116645888	84070400	56282744	24992
709	1.187488	116645888	84070400	57051328	24992
710	1.185646	116645888	84070400	57820160	24992
711	1.03492	116645888	84070400	58589240	24992
712	0.976604	116645888	84070400	59358552	24992
713	0.972659	116645888	84070400	60128112	24992
714	1.032776	116645888	84070400	60897920	24992
715	0.979399	116645888	84070400	61667976	24992
716	0.979315	116645888	84070400	62438264	24992
717	0.98127	116645888	84070400	63208800	24992
718	2.593043	117727232	84070400	49060608	24992
719	1.014198	117727232	84070400	49831680	24992
720	1.178251	117727232	84070400	50602952	24992
721	1.020329	117727232	84070400	51374464	24992
722	0.999523	117727232	84070400	52146224	24992
723	0.995361	117727232	84070400	52918232	24992
724	1.013642	117727232	84070400	53690496	24992
725	1.001149	117727232	84070400	54462992	24992
726	0.988661	117727232	84070400	55235728	24992
727	1.022765	117727232	84070400	56008712	24992
728	1.003288	117727232	84070400	56781928	24992
729	0.980501	117727232	84070400	57555424	24992
730	0.979899	117727232	84070400	58329136	24992
731	1.012164	117727232	84070400	59103096	24992
732	1.036591	117727232	84070400	59877288	24992
733	0.99764	117727232	84070400	60651728	24992
734	1.032067	117727232	84594688	61426520	24992
735	1.015184	117997568	84594688	62201448	24992
736	1.169898	117997568	84594688	62977944	24992
737	1.146798	117997568	84594688	63752744	24992
738	1.04706	117997568	84594688	64529760	24992
739	4.365903	119619584	86167552	51794792	24992
740	1.231436	119619584	86167552	52570296	24992
741	1.024023	119619584	86167552	53346048	24992
742	0.99823	119619584	86167552	54122048	24992
743	1.010224	119889920	86167552	54898296	24992
744	0.997402	119889920	86167552	55674776	24992
745	1.000061	119889920	86167552	56451504	24992
746	1.02679	119889920	86691840	57228480	24992
747	1.017407	119889920	86691840	58005704	24992
748	1.008809	120160256	86691840	58783160	24992
749	1.006179	120160256	86691840	59560864	24992
750	1.011925	120160256	86691840	60338816	24992
751	1.220388	120160256	86691840	61117016	24992
752	1.021715	120160256	86691840	61895448	24992
753	1.020715	120160256	86691840	62674128	24992
754	1.02175	120430592	86691840	63453056	24992
755	1.04407	120430592	86691840	64232232	24992
756	1.719102	120430592	87216128	65011680	24992
757	1.048134	120430592	87216128	65791344	24992
758	1.074118	120430592	87216128	66571248	24992
759	4.401268	122052608	88788992	53794848	24992
760	1.480368	122052608	88788992	54575232	24992
761	1.05029	122052608	88788992	55355944	24992
762	1.042452	122322944	88788992	56136808	24992
763	1.021864	122322944	88788992	56917920	24992
764	1.014627	122322944	88788992	57699264	24992
765	1.220678	122322944	88788992	58480856	24992
766	1.030654	122322944	88788992	59262696	24992
767	1.071183	122593280	88788992	60060168	24992
768	1.05537	122593280	89313280	60842592	24992
769	1.101474	122593280	89313280	61624528	24992
770	1.032263	122593280	89313280	62406704	24992
771	1.031624	122593280	89313280	63189128	24992
772	1.210608	122593280	89313280	63971784	24992
773	1.067282	122863616	89313280	64754792	24992
774	1.009	122863616	89313280	65537936	24992
775	1.012401	122863616	89313280	66321336	24992
776	1.195719	122863616	89313280	67104968	24992
777	1.0144	122863616	89313280	67888848	24992
778	1.017994	123133952	89313280	68672976	24992
779	1.042297	123133952	89837568	69457352	24992
780	4.313537	124485632	91410432	56833392	24992
781	1.032159	124755968	91410432	57618248	24992
782	1.029277	124755968	91410432	58403352	24992
783	1.158814	124755968	91410432	59188704	24992
784	1.084802	124755968	91410432	59974320	24992
785	1.040603	124755968	91410432	60760152	24992
786	1.037991	125026304	91410432	61546232	24992
787	1.038826	125026304	91410432	62332560	24992
788	1.24318	125026304	91410432	63119120	24992
789	1.049553	125026304	91410432	63905984	24992
790	1.016227	125026304	91410432	64693032	24992
791	1.050222	125296640	91934720	65480336	24992
792	1.020154	125296640	91934720	66267920	24992
793	1.019594	125296640	91934720	67055704	24992
794	1.025438	125296640	91934720	67843736	24992
795	1.048065	125296640	91934720	68632016	24992
796	1.036599	125296640	91934720	69420552	24992
797	1.029761	125566976	91934720	70209320	24992
798	1.038734	125566976	91934720	70998328	24992
799	1.062128	125566976	91934720	71787584	24992
800	4.515986	127188992	94031872	59298136	24992
801	1.05345	127188992	94031872	60087240	24992
802	1.055702	127459328	94031872	60876584	24992
803	1.058967	127459328	94031872	61666176	24992
804	1.049634	127459328	94031872	62456000	24992
805	1.051072	127459328	94031872	63246072	24992
806	1.082676	127459328	94031872	64036392	24992
807	1.029741	127729664	94031872	64826968	24992
808	1.028566	127729664	94031872	65617776	24992
809	1.032299	127729664	94031872	66408824	24992
810	1.269435	127729664	94556160	67200120	24992
811	1.04155	127729664	94556160	67991664	24992
812	1.042772	128000000	94556160	68783440	24992
813	1.039784	128000000	94556160	69575464	24992
814	1.054318	128000000	94556160	70367752	24992
815	1.048567	128000000	94556160	71160272	24992
816	1.049339	128000000	94556160	71953024	24992
817	1.224982	128270336	94556160	72746024	24992
818	1.07635	128270336	94556160	73539272	24992
819	1.315113	128270336	94556160	74332768	24992
820	4.682447	129892352	96653312	61904312	24992
821	1.084963	129892352	96653312	62698296	24992
822	1.033603	129892352	96653312	63492520	24992
823	1.036269	130162688	96653312	64286992	24992
824	1.036086	130162688	96653312	65081696	24992
825	1.230842	130162688	96653312	65876648	24992
826	1.042112	130162688	96653312	66671848	24992
827	1.048265	130162688	96653312	67467320	24992
828	1.060896	130433024	96653312	68263008	24992
829	1.068872	130433024	97177600	69058936	24992
830	1.061489	130433024	97177600	69855112	24992
831	1.060042	130433024	97177600	70651536	24992
832	1.070866	130433024	97177600	71448280	24992
833	1.05791	130703360	97177600	72244552	24992
834	1.064079	130703360	97177600	73041088	24992
835	1.079274	130703360	97177600	73837840	24992
836	1.068554	130703360	97177600	74634880	24992
837	1.068374	130703360	97177600	75432120	24992
838	1.03984	130973696	97177600	76229608	24992
839	1.078821	130973696	97701888	77027344	24992
840	4.752676	132595712	99799040	64728984	24992
841	1.062965	132595712	99799040	65527200	24992
842	1.063658	132866048	99799040	66325664	24992
843	1.252916	132866048	99799040	67124376	24992
844	1.054651	132866048	99799040	67923344	24992
845	1.109969	132866048	99799040	68722544	24992
846	1.089747	132866048	99799040	69521984	24992
847	1.080231	133136384	99799040	70321672	24992
848	1.066527	133136384	99799040	71121592	24992
849	1.067955	133136384	99799040	71921760	24992
850	1.07542	133136384	99799040	72732496	24992
851	1.073559	133406720	99799040	73533264	24992
852	1.076821	133406720	99799040	74334168	24992
853	1.091283	133406720	99799040	75135392	24992
854	1.100378	133406720	99799040	75936784	24992
855	1.049986	133406720	99799040	76738424	24992
856	1.080797	133677056	100323328	77540296	24992
857	1.070237	133677056	100323328	78342416	24992
858	1.060673	133677056	100323328	79144784	24992
859	1.060815	133677056	100323328	79947400	24992
860	4.908336	135569408	102420480	67781600	24992
861	1.095246	135569408	102420480	68584696	24992
862	1.067581	135569408	102420480	69388040	24992
863	1.069793	135569408	102420480	70191648	24992
864	1.082742	135839744	102420480	70995576	24992
865	1.07826	135839744	102420480	71799016	24992
866	1.079111	135839744	102420480	72602696	24992
867	1.077915	135839744	102420480	73406624	24992
868	1.095387	135839744	102420480	74210784	24992
869	1.088887	136110080	102420480	75015192	24992
870	1.05661	136110080	102420480	75819848	24992
871	1.069671	136110080	102420480	76624752	24992
872	1.12313	136110080	102944768	77429888	24992
873	1.068034	136380416	102944768	78235272	24992
874	1.067697	136380416	102944768	79040960	24992
875	1.077718	136380416	102944768	79846832	24992
876	1.069179	136380416	102944768	80652944	24992
877	1.073388	136380416	102944768	81459304	24992
878	1.082143	136650752	102944768	82265912	24992
879	5.209131	138272768	105041920	70150056	24992
880	1.091805	138543104	105041920	70957144	24992
881	1.089225	138543104	105041920	71764480	24992
882	1.14916	138543104	105041920	72572064	24992
883	1.100746	138543104	105041920	73379896	24992
884	1.097111	138543104	105041920	74187968	24992
885	1.113381	138813440	105041920	74996288	24992
886	1.08773	138813440	105566208	75805200	24992
887	1.069724	138813440	105566208	76614008	24992
888	1.068463	138813440	105566208	77423048	24992
889	1.269839	139083776	105566208	78232336	24992
890	1.081654	139083776	105566208	79041872	24992
891	1.078384	139083776	105566208	79851656	24992
892	1.087668	139083776	105566208	80661672	24992
893	1.085124	139083776	105566208	81471936	24992
894	1.087888	139354112	105566208	82282448	24992
895	1.110479	139354112	106090496	83093304	24992
896	1.106783	139354112	106090496	83904424	24992
897	1.095231	139354112	106090496	84715048	24992
898	1.096361	139624448	106090496	85525888	24992
899	5.310372	141246464	108187648	73529216	24992
900	1.120288	141516800	108187648	74340544	24992
901	1.105671	141516800	108187648	75152120	24992
902	1.07175	141516800	108187648	75963984	24992
903	1.257364	141516800	108187648	76776048	24992
904	1.103373	141516800	108187648	77588352	24992
905	1.081539	141787136	108187648	78400904	24992
906	1.13114	141787136	108187648	79213760	24992
907	1.121101	141787136	108187648	80026800	24992
908	1.086306	141787136	108187648	80840080	24992
909	1.115538	142057472	108711936	81653608	24992
910	1.149739	142057472	108711936	82467384	24992
911	1.097136	142057472	108711936	83281408	24992
912	1.104354	142057472	108711936	84095664	24992
913	1.158569	142057472	108711936	84910168	24992
914	1.112619	142327808	108711936	85724920	24992
915	1.111287	142327808	108711936	86539944	24992
916	1.145808	142327808	108711936	87355184	24992
917	1.151314	142327808	108711936	88170704	24992
918	5.340368	144490496	110809088	76296840	24992
919	1.097171	144490496	110809088	77112816	24992
920	1.139681	144490496	110809088	77929024	24992
921	1.105994	144490496	111333376	78745480	24992
922	1.100807	144490496	111333376	79562232	24992
923	1.29991	144760832	111333376	80379184	24992
924	1.097643	144760832	111333376	81196376	24992
925	1.099546	144760832	111333376	82013816	24992
926	1.132968	144760832	111333376	82831576	24992
927	1.127986	145031168	111333376	83649504	24992
928	1.110642	145031168	111333376	84468008	24992
929	1.110985	145031168	111333376	85285784	24992
930	1.196107	145031168	111857664	86103800	24992
931	1.11984	145301504	111857664	86922064	24992
932	1.122304	145301504	111857664	87740560	24992
933	1.181833	145301504	111857664	88559304	24992
934	1.091441	145301504	111857664	89378296	24992
935	1.093622	145301504	111857664	90197536	24992
936	1.145073	145571840	111857664	91017008	24992
937	5.517176	147464192	113954816	79170288	24992
938	1.113631	147464192	113954816	79990256	24992
939	1.94268	147464192	113954816	80810632	24992
940	1.142626	147464192	113954816	81631088	24992
941	1.117423	147734528	113954816	82451872	24992
942	1.298134	147734528	114479104	83272808	24992
943	1.148251	147734528	114479104	84094000	24992
944	1.116724	147734528	114479104	84915424	24992
945	1.124045	148004864	114479104	85737096	24992
946	1.185091	148004864	114479104	86559016	24992
947	1.188009	148004864	114479104	87404840	24992
948	1.136075	148004864	114479104	88227240	24992
949	1.32371	148275200	114479104	89049888	24992
950	1.118579	148275200	115003392	89872784	24992
951	1.103877	148275200	115003392	90695928	24992
952	1.109047	148275200	115003392	91519344	24992
953	1.107443	148545536	115003392	92342976	24992
954	1.11117	148545536	115003392	93166872	24992
955	1.130757	148545536	115003392	93990984	24992
956	5.61823	150437888	117100544	82334408	24992
957	1.190668	150708224	117100544	83159008	24992
958	1.126339	150708224	117100544	83983872	24992
959	1.129583	150708224	117100544	84808968	24992
960	1.130575	150708224	117100544	85634488	24992
961	1.14982	150978560	117624832	86459424	24992
962	1.180491	150978560	117624832	87284808	24992
963	1.131796	150978560	117624832	88110232	24992
964	1.135187	150978560	117624832	88936000	24992
965	1.143808	151248896	117624832	89761920	24992
966	1.291255	151248896	117624832	90588360	24992
967	1.107193	151248896	117624832	91414760	24992
968	1.112445	151248896	117624832	92241416	24992
969	1.145111	151519232	118149120	93068304	24992
970	1.128172	151519232	118149120	93895440	24992
971	1.11836	151519232	118149120	94722824	24992
972	1.319416	151519232	118149120	95550440	24992
973	1.123007	151519232	118149120	96378304	24992
974	1.129746	151789568	118149120	97206416	24992
975	5.85216	153681920	120246272	85623480	24992
976	1.148906	153952256	120246272	86452072	24992
977	1.141053	153952256	120246272	87280912	24992
978	1.170306	153952256	120770560	88110000	24992
979	1.144334	153952256	120770560	88939336	24992
980	1.148403	154222592	120770560	89768904	24992
981	1.148239	154222592	120770560	90598720	24992
982	1.208949	154222592	120770560	91428784	24992
983	1.11712	154222592	120770560	92259096	24992
984	1.114448	154492928	120770560	93089640	24992
985	1.127746	154492928	120770560	93920432	24992
986	1.147806	154492928	121294848	94751472	24992
987	1.136487	154492928	121294848	95582760	24992
988	1.139074	154763264	121294848	96414280	24992
989	1.138648	154763264	121294848	97246048	24992
990	1.14632	154763264	121294848	98078064	24992
991	1.145991	154763264	121294848	98910352	24992
992	1.362578	155033600	121294848	99743040	24992
993	1.336663	155033600	121294848	100575192	24992
994	5.747262	156925952	123392000	89067216	24992
995	1.182049	157196288	123392000	89899816	24992
996	1.173626	157196288	123916288	90732648	24992
997	1.200025	157196288	123916288	91565728	24992
998	1.309876	157196288	123916288	92399056	24992
999	1.122967	157466624	123916288	93232632	24992
1000	1.127029	157466624	123916288	94066440	24992
