x	Duration	RSS	HeapTotal	HeapUsed	External
0	NA	158109696	126013440	93852640	24992
1	1.07074	158109696	126013440	94505144	24992
2	1.065225	158109696	126013440	95158152	24992
3	1.091868	158109696	126013440	95811192	24992
4	1.055715	158109696	126013440	96464384	24992
5	1.208292	158109696	126013440	97117760	24992
6	1.0318	158109696	126013440	97771272	24992
7	1.041909	158109696	126013440	98424968	24992
8	1.06646	158109696	126013440	99082744	24992
9	1.17095	158109696	126013440	99738256	24992
10	0.717158	158109696	126013440	100393744	24992
11	0.738454	158109696	126013440	101049648	24992
12	0.732364	158109696	126013440	101705776	24992
13	0.721703	158437376	126013440	102362144	24992
14	0.922827	158437376	126013440	103018736	24992
15	0.721326	158437376	126013440	103675568	24992
16	0.731596	158437376	126013440	104333040	24992
17	4.692942	159789056	127586304	90696160	24992
18	0.743351	159789056	127586304	91354616	24992
19	0.933794	159789056	127586304	92013712	24992
20	0.729399	160059392	127586304	92672584	24992
21	0.743804	160059392	127586304	93331768	24992
22	0.726742	160059392	127586304	93990560	24992
23	0.736619	160059392	127586304	94650360	24992
24	0.746129	160059392	127586304	95310560	24992
25	0.728122	160059392	127586304	95971160	24992
26	0.740319	160059392	127586304	96631864	24992
27	0.738245	160059392	127586304	97292704	24992
28	0.745441	160059392	127586304	97953784	24992
29	0.737724	160059392	127586304	98615112	24992
30	0.765634	160059392	128110592	99276672	24992
31	0.746511	160059392	128110592	99938480	24992
32	0.741275	160059392	128110592	100600152	24992
33	0.744676	160059392	128110592	101261848	24992
34	0.928587	160059392	128110592	101923776	24992
35	0.745571	160059392	128110592	102586160	24992
36	0.736883	160059392	128110592	103248584	24992
37	0.743049	160059392	128110592	103911288	24992
38	0.729417	160059392	128110592	104574064	24992
39	0.745072	160059392	128110592	105237048	24992
40	0.739713	160059392	128110592	105900128	24992
41	2.370545	160600064	129159168	90851296	24992
42	0.754778	160600064	129159168	91514928	24992
43	0.803648	160600064	129159168	92178864	24992
44	0.735086	160600064	129159168	92843112	24992
45	0.747496	160600064	129159168	93508344	24992
46	0.733263	160600064	129159168	94173200	24992
47	0.937207	160600064	129159168	94838368	24992
48	0.750939	160600064	129159168	95503880	24992
49	0.752027	160600064	129159168	96169704	24992
50	0.736483	160600064	129159168	96835824	24992
51	0.749017	160600064	129159168	97502256	24992
52	0.746151	160870400	129159168	98169008	24992
53	0.736892	160870400	129159168	98835848	24992
54	0.751053	160870400	129159168	99502896	24992
55	0.737654	160870400	129159168	100170264	24992
56	0.746856	160870400	129159168	100837752	24992
57	0.755281	160870400	129159168	101505600	24992
58	0.758796	160870400	129159168	102173576	24992
59	0.744539	160870400	129159168	102841688	24992
60	0.753801	160870400	129159168	103509920	24992
61	0.755017	160870400	129159168	104178288	24992
62	0.945639	160870400	129159168	104846792	24992
63	0.742592	160870400	129159168	105515432	24992
64	0.74398	160870400	129159168	106183832	24992
65	0.740016	160870400	129159168	106852128	24992
66	1.603447	160870400	129159168	91378800	24992
67	0.773854	160870400	129159168	92047360	24992
68	0.762474	160870400	129159168	92716064	24992
69	0.746745	160870400	129159168	93384856	24992
70	0.740576	160870400	129159168	94053888	24992
71	0.753895	160870400	129159168	94723064	24992
72	0.756615	160870400	129159168	95392376	24992
73	0.738484	160870400	129159168	96061856	24992
74	0.761261	160870400	129159168	96731464	24992
75	0.739686	160870400	129159168	97401224	24992
76	0.770861	161140736	129159168	98071104	24992
77	0.757213	161140736	129159168	98741120	24992
78	0.74564	161140736	129159168	99411256	24992
79	0.758822	161140736	129159168	100081528	24992
80	0.759351	161140736	129159168	100752160	24992
81	0.864817	161140736	129159168	101423888	24992
82	1.464115	161140736	129159168	102095720	24992
83	0.757271	161140736	129159168	102766472	24992
84	0.801104	161140736	129159168	103438488	24992
85	0.790211	161140736	129159168	104109472	24992
86	0.821071	161140736	129159168	104780488	24992
87	0.839845	161140736	129159168	105452608	24992
88	0.774475	161140736	129159168	106124104	24992
89	1.07949	161140736	129159168	106795784	24992
90	1.799258	161411072	129159168	91473328	24992
91	0.771731	161411072	129159168	92145264	24992
92	0.748593	161411072	129159168	92817328	24992
93	0.759082	161411072	129159168	93489528	24992
94	0.751072	161411072	129159168	94161848	24992
95	0.767118	161411072	129159168	94834304	24992
96	0.955265	161411072	129159168	95506552	24992
97	0.757527	161411072	129159168	96178664	24992
98	0.764986	161411072	129159168	96850904	24992
99	0.763506	161411072	129159168	97523280	24992
100	0.762976	161411072	129159168	98195792	24992
101	0.752896	161411072	129159168	98868680	24992
102	0.906407	161411072	129159168	99541336	24992
103	0.772196	161411072	129159168	100214136	24992
104	0.764248	161411072	129159168	100887072	24992
105	0.76972	161411072	129159168	101560192	24992
106	0.763163	161411072	129159168	102233440	24992
107	0.77907	161411072	129159168	102906824	24992
108	0.750092	161411072	129159168	103580328	24992
109	0.770729	161411072	129159168	104253968	24992
110	0.761688	161411072	129159168	104927744	24992
111	0.768156	161411072	129159168	105601656	24992
112	0.80117	161411072	129683456	106275720	24992
113	0.773308	161681408	129683456	106949920	24992
114	0.773738	161681408	129683456	107624256	24992
115	1.932006	161951744	130207744	92374760	24992
116	0.819519	161951744	130207744	93049352	24992
117	0.758711	161951744	130207744	93724048	24992
118	0.753296	161951744	130207744	94398800	24992
119	0.751181	161951744	130207744	95073696	24992
120	0.768188	161951744	130207744	95748728	24992
121	0.771424	161951744	130207744	96423928	24992
122	0.771472	161951744	130207744	97099256	24992
123	0.772233	161951744	130207744	97774736	24992
124	0.76229	161951744	130207744	98450336	24992
125	0.781768	161951744	130207744	99126072	24992
126	0.780987	161951744	130207744	99801928	24992
127	0.7713	161951744	130207744	100477920	24992
128	0.774325	161951744	130207744	101153728	24992
129	0.754309	161951744	130207744	101829096	24992
130	0.776966	161951744	130207744	102504600	24992
131	0.808707	161951744	130207744	103180384	24992
132	0.776046	161951744	130207744	103856304	24992
133	0.774744	161951744	130207744	104532328	24992
134	0.772976	161951744	130207744	105208480	24992
135	0.800867	161951744	130207744	105884784	24992
136	0.777658	161951744	130207744	106561224	24992
137	0.759507	161951744	130207744	107237832	24992
138	0.759938	161951744	130207744	107914568	24992
139	2.17342	162492416	130732032	92723392	24992
140	0.783091	162492416	130732032	93400400	24992
141	0.762387	162492416	130732032	94077544	24992
142	0.761044	162492416	130732032	94756648	24992
143	0.927395	162492416	130732032	95434048	24992
144	0.799406	162492416	130732032	96111616	24992
145	0.777794	162492416	130732032	96789320	24992
146	0.774296	162492416	130732032	97467144	24992
147	0.779017	162492416	130732032	98145104	24992
148	0.789912	162492416	130732032	98823200	24992
149	0.766573	162492416	130732032	99501400	24992
150	0.773751	162492416	130732032	100180208	24992
151	0.761778	162492416	130732032	100859168	24992
152	0.759478	162492416	130732032	101538264	24992
153	0.782402	162492416	130732032	102217528	24992
154	0.793454	162492416	130732032	102896920	24992
155	0.771141	162492416	130732032	103576448	24992
156	0.779826	162492416	130732032	104256112	24992
157	0.763543	162492416	130732032	104935912	24992
158	0.831677	162492416	130732032	105615832	24992
159	0.791281	162762752	130732032	106295888	24992
160	0.808944	162762752	130732032	106975776	24992
161	0.786959	162762752	130732032	107655496	24992
162	0.765539	162762752	130732032	108335336	24992
163	2.037817	163033088	131256320	93198296	24992
164	0.775681	163033088	131256320	93878408	24992
165	0.789663	163033088	131256320	94558624	24992
166	0.78476	163033088	131256320	95239232	24992
167	0.782212	163033088	131256320	95919984	24992
168	0.785547	163033088	131256320	96600872	24992
169	0.766831	163033088	131256320	97281944	24992
170	0.764088	163033088	131256320	97963144	24992
171	0.98278	163033088	131256320	98644480	24992
172	0.769861	163033088	131256320	99325936	24992
173	0.785481	163033088	131256320	100007584	24992
174	0.782402	163033088	131256320	100689304	24992
175	0.795206	163033088	131256320	101371168	24992
176	0.779663	163303424	131256320	102053184	24992
177	0.788879	163303424	131256320	102735336	24992
178	0.786856	163303424	131256320	103417624	24992
179	0.793483	163303424	131256320	104100048	24992
180	0.797611	163303424	131256320	104782592	24992
181	0.779549	163303424	131256320	105465240	24992
182	0.785455	163303424	131256320	106148032	24992
183	0.768557	163303424	131256320	106830960	24992
184	0.793527	163303424	131256320	107514024	24992
185	0.96284	163303424	131256320	108197272	24992
186	0.806731	163303424	131256320	108880648	24992
187	2.110798	163573760	131780608	93804672	24992
188	0.803934	163573760	131780608	94488304	24992
189	0.777106	163844096	131780608	95172072	24992
190	0.790639	163844096	131780608	95855976	24992
191	0.794963	163844096	131780608	96540016	24992
192	0.79233	163844096	131780608	97223896	24992
193	0.79599	163844096	131780608	97907592	24992
194	0.777574	163844096	131780608	98591520	24992
195	0.797776	163844096	131780608	99275472	24992
196	0.780789	163844096	131780608	99959552	24992
197	0.780087	163844096	131780608	100643736	24992
198	0.803775	163844096	131780608	101328064	24992
199	0.792968	163844096	131780608	102012528	24992
200	1.505158	163844096	131780608	102697544	24992
201	0.81349	163844096	131780608	103382328	24992
202	0.870186	163844096	131780608	104067240	24992
203	0.810459	163844096	131780608	104752288	24992
204	0.796135	163844096	131780608	105437480	24992
205	0.794699	163844096	131780608	106122792	24992
206	0.788182	163844096	131780608	106808232	24992
207	0.838396	163844096	131780608	107493808	24992
208	0.782181	164114432	131780608	108179536	24992
209	0.800461	164114432	131780608	108865400	24992
210	0.808691	164114432	131780608	109551400	24992
211	2.501508	164384768	132304896	94549424	24992
212	0.806459	164384768	132304896	95235680	24992
213	0.788231	164384768	132304896	95922040	24992
214	0.789776	164384768	132304896	96608544	24992
215	0.799863	164384768	132304896	97295184	24992
216	0.800715	164384768	132304896	97981960	24992
217	0.795453	164655104	132304896	98668920	24992
218	0.799623	164655104	132304896	99356024	24992
219	0.809104	164655104	132304896	100043248	24992
220	0.827154	164655104	132304896	100730592	24992
221	0.784153	164655104	132304896	101418072	24992
222	0.79722	164655104	132304896	102105688	24992
223	0.782949	164655104	132304896	102793440	24992
224	0.990173	164655104	132304896	103481048	24992
225	0.809746	164655104	132304896	104168456	24992
226	0.811225	164655104	132304896	104855992	24992
227	0.840232	164655104	132829184	105543664	24992
228	0.808582	164655104	132829184	106231480	24992
229	0.801244	164655104	132829184	106922264	24992
230	0.798095	164655104	132829184	107610304	24992
231	0.783423	164655104	132829184	108298480	24992
232	0.802429	164655104	132829184	108986792	24992
233	0.80407	164925440	132829184	109675288	24992
234	0.800425	164925440	132829184	110363912	24992
235	2.281238	165195776	133353472	95410336	24992
236	1.118769	165195776	133353472	96099216	24992
237	0.79374	165195776	133353472	96788232	24992
238	0.792447	165195776	133353472	97477384	24992
239	0.804526	165195776	133353472	98166672	24992
240	0.805078	165466112	133353472	98856112	24992
241	0.804839	165466112	133353472	99545688	24992
242	0.80941	165466112	133353472	100235400	24992
243	0.797098	165466112	133353472	100925248	24992
244	0.862147	165466112	133353472	101615216	24992
245	0.810327	165466112	133353472	102305288	24992
246	0.800689	165466112	133353472	102995504	24992
247	0.791726	165466112	133353472	103685856	24992
248	0.799414	165466112	133353472	104376344	24992
249	0.800557	165466112	133353472	105067016	24992
250	0.820196	165466112	133353472	105757816	24992
251	0.791628	165466112	133353472	106448752	24992
252	0.809701	165466112	133353472	107139808	24992
253	0.794575	165466112	133353472	107831000	24992
254	0.816167	165466112	133353472	108522328	24992
255	0.812191	165736448	133353472	109213792	24992
256	0.817571	165736448	133353472	109905616	24992
257	0.802684	165736448	133353472	110597208	24992
258	0.820093	165736448	133353472	111288936	24992
259	2.368073	166006784	133877760	96398504	24992
260	0.805961	166277120	133877760	97090488	24992
261	0.810381	166277120	133877760	97782448	24992
262	1.022892	166277120	133877760	98474720	24992
263	0.809956	166277120	133877760	99167304	24992
264	0.806729	166277120	133877760	99860184	24992
265	0.808071	166277120	133877760	100553888	24992
266	0.830347	166277120	134402048	101248080	24992
267	0.819881	166277120	134402048	101942760	24992
268	0.873529	166277120	134402048	102637968	24992
269	0.816627	166277120	134402048	103333616	24992
270	0.815518	166277120	134402048	104029744	24992
271	0.821994	166277120	134402048	104726360	24992
272	0.819898	166277120	134402048	105423480	24992
273	0.804677	166277120	134402048	106121056	24992
274	0.826097	166547456	134402048	106819120	24992
275	0.823111	166547456	134402048	107517672	24992
276	1.014392	166547456	134402048	108216696	24992
277	0.81239	166547456	134402048	108915856	24992
278	0.814406	166547456	134402048	109615152	24992
279	0.796519	166547456	134402048	110314584	24992
280	0.827374	166547456	134402048	111014136	24992
281	0.818072	166547456	134402048	111713824	24992
282	0.804259	166547456	134402048	112413648	24992
283	2.475758	167088128	134926336	97673928	24992
284	0.833184	167088128	134926336	98374016	24992
285	0.814134	167088128	134926336	99074232	24992
286	0.822094	167088128	134926336	99774584	24992
287	0.828435	167088128	134926336	100475072	24992
288	1.025354	167088128	134926336	101175424	24992
289	0.812529	167088128	134926336	101875528	24992
290	0.814138	167088128	134926336	102575768	24992
291	0.825956	167358464	134926336	103276144	24992
292	0.832928	167358464	134926336	103976640	24992
293	0.813388	167358464	134926336	104677272	24992
294	0.818444	167358464	134926336	105378040	24992
295	0.847732	167358464	135450624	106078944	24992
296	0.805107	167358464	135450624	106779968	24992
297	0.872532	167358464	135450624	107481128	24992
298	0.834071	167358464	135450624	108182424	24992
299	0.812585	167358464	135450624	108883864	24992
300	0.81065	167358464	135450624	109585424	24992
301	0.849289	167358464	135450624	110287112	24992
302	0.849812	167358464	135450624	110988976	24992
303	0.830337	167628800	135450624	111690928	24992
304	0.822572	167628800	135450624	112393008	24992
305	0.829505	167628800	135450624	113095224	24992
306	2.661602	168169472	136499200	98489544	24992
307	0.85826	168169472	136499200	99192032	24992
308	0.953851	168169472	136499200	99894640	24992
309	0.842348	168169472	136499200	100597384	24992
310	0.826246	168169472	136499200	101300264	24992
311	0.824691	168169472	136499200	102003280	24992
312	0.812104	168169472	136499200	102706416	24992
313	1.017521	168169472	136499200	103409688	24992
314	0.831971	168439808	136499200	104113096	24992
315	0.814964	168439808	136499200	104816640	24992
316	0.830698	168439808	136499200	105520304	24992
317	0.880518	168439808	136499200	106224240	24992
318	0.83495	168439808	136499200	106928168	24992
319	0.836613	168439808	136499200	107632240	24992
320	0.819792	168439808	136499200	108336224	24992
321	0.829332	168439808	136499200	109039912	24992
322	0.875709	168439808	136499200	109743736	24992
323	0.82462	168439808	136499200	110447728	24992
324	0.844397	168439808	136499200	111151808	24992
325	0.826527	168439808	136499200	111856024	24992
326	0.995766	168710144	136499200	112560376	24992
327	0.853727	168710144	136499200	113264864	24992
328	0.836551	168710144	136499200	113969472	24992
329	0.819983	168710144	136499200	114674216	24992
330	2.72298	169250816	137547776	100169304	24992
331	0.825762	169250816	137547776	100874320	24992
332	0.82191	169250816	137547776	101579456	24992
333	0.836892	169250816	137547776	102284728	24992
334	0.838432	169250816	137547776	102990136	24992
335	0.829587	169521152	137547776	103695680	24992
336	0.82912	169521152	137547776	104401344	24992
337	0.826922	169521152	137547776	105107144	24992
338	0.893781	169521152	137547776	105813080	24992
339	0.831861	169521152	137547776	106519152	24992
340	0.851708	169521152	137547776	107225344	24992
341	0.847962	169521152	137547776	107931672	24992
342	0.846809	169521152	137547776	108638136	24992
343	0.836696	169521152	137547776	109344736	24992
344	0.835773	169521152	137547776	110051456	24992
345	0.831526	169521152	137547776	110758312	24992
346	0.82325	169791488	137547776	111465304	24992
347	0.832762	169791488	137547776	112172432	24992
348	0.826443	169791488	137547776	112879680	24992
349	0.844122	169791488	137547776	113587064	24992
350	0.832085	169791488	137547776	114294592	24992
351	1.021132	169791488	137547776	115002240	24992
352	0.857228	169791488	137547776	115709800	24992
353	2.784272	170602496	138596352	101259256	24992
354	0.842307	170602496	138596352	101966664	24992
355	0.83659	170602496	138596352	102674232	24992
356	0.853351	170602496	138596352	103381904	24992
357	0.848465	170602496	138596352	104089704	24992
358	0.841878	170602496	138596352	104797640	24992
359	0.832691	170602496	138596352	105505712	24992
360	0.837972	170602496	138596352	106218352	24992
361	0.843155	170602496	138596352	106926680	24992
362	0.837056	170602496	138596352	107635144	24992
363	1.017931	170872832	138596352	108343744	24992
364	0.832714	170872832	138596352	109052464	24992
365	0.844759	170872832	138596352	109761320	24992
366	0.834204	170872832	138596352	110470312	24992
367	0.849107	170872832	138596352	111179440	24992
368	1.054329	170872832	138596352	111888688	24992
369	0.848989	170872832	138596352	112598072	24992
370	0.857059	170872832	138596352	113307592	24992
371	0.880598	170872832	138596352	114017248	24992
372	0.974868	170872832	139120640	114727024	24992
373	0.893471	171143168	139120640	115436936	24992
374	0.835705	171143168	139120640	116146984	24992
375	1.019867	171143168	139120640	116857168	24992
376	2.829562	171683840	140169216	102437872	24992
377	0.868263	171683840	140169216	103148312	24992
378	0.835415	171683840	140169216	103858888	24992
379	0.853152	171954176	140169216	104569600	24992
380	0.83359	171954176	140169216	105280432	24992
381	0.854626	171954176	140169216	105991400	24992
382	0.856868	171954176	140169216	106702504	24992
383	0.845808	171954176	140169216	107413744	24992
384	0.953085	171954176	140169216	108124912	24992
385	0.894577	171954176	140169216	108836760	24992
386	1.050513	171954176	140169216	109547752	24992
387	0.854882	171954176	140169216	110258880	24992
388	0.866031	171954176	140169216	110970128	24992
389	0.865796	172224512	140169216	111681512	24992
390	0.858682	172224512	140169216	112393032	24992
391	1.048062	172224512	140169216	113105400	24992
392	0.924468	172224512	140169216	113819296	24992
393	0.840203	172224512	140169216	114531208	24992
394	0.847507	172224512	140169216	115243256	24992
395	0.850835	172224512	140169216	115955440	24992
396	0.842727	172224512	140169216	116667744	24992
397	0.857736	172224512	140169216	117380184	24992
398	1.582365	172224512	140169216	118093832	24992
399	2.93815	173035520	141217792	103728880	24992
400	0.889955	173035520	141217792	104441712	24992
401	0.873571	173035520	141217792	105154680	24992
402	0.865787	173035520	141217792	105867784	24992
403	0.852394	173305856	141217792	106581024	24992
404	0.865641	173305856	141217792	107294384	24992
405	0.979161	173305856	141217792	108022872	24992
406	0.859725	173305856	141217792	108736504	24992
407	0.857349	173305856	141217792	109450272	24992
408	0.854732	173305856	141217792	110164160	24992
409	1.066073	173305856	141217792	110878184	24992
410	0.865496	173305856	141217792	111592344	24992
411	0.859443	173305856	141217792	112306640	24992
412	0.865095	173576192	141217792	113021056	24992
413	1.014024	173576192	141217792	113735608	24992
414	0.893311	173576192	141217792	114450296	24992
415	0.879984	173576192	141217792	115165120	24992
416	0.867647	173576192	141217792	115879888	24992
417	0.85202	173576192	141217792	116594328	24992
418	0.940256	173576192	141742080	117308904	24992
419	0.855829	173576192	141742080	118023616	24992
420	0.874377	173576192	141742080	118738448	24992
421	0.874486	173846528	141742080	119453416	24992
422	3.171293	174387200	142790656	105147464	24992
423	0.85127	174387200	142790656	105862704	24992
424	0.853479	174657536	142790656	106578160	24992
425	0.847616	174657536	142790656	107293656	24992
426	0.845457	174657536	142790656	108009288	24992
427	0.861968	174657536	142790656	108725080	24992
428	0.855184	174657536	142790656	109440976	24992
429	0.856813	174657536	142790656	110157000	24992
430	0.873895	174657536	142790656	110873424	24992
431	0.864763	174657536	142790656	111589712	24992
432	0.868555	174657536	142790656	112306128	24992
433	1.068091	174657536	142790656	113022848	24992
434	0.876504	174927872	142790656	113739528	24992
435	0.879393	174927872	142790656	114456352	24992
436	0.87583	174927872	142790656	115173320	24992
437	0.875955	174927872	142790656	115890408	24992
438	0.854638	174927872	142790656	116607624	24992
439	0.854139	174927872	142790656	117324976	24992
440	0.862805	174927872	142790656	118042448	24992
441	0.869296	174927872	142790656	118760056	24992
442	0.870977	174927872	142790656	119477984	24992
443	0.867916	175198208	142790656	120195856	24992
444	0.869864	175198208	142790656	120913856	24992
445	3.290852	176009216	143839232	106673296	24992
446	0.871781	176009216	143839232	107391568	24992
447	0.870505	176009216	143839232	108109976	24992
448	0.876808	176009216	143839232	108828352	24992
449	0.859474	176009216	143839232	109546384	24992
450	0.862227	176009216	143839232	110264544	24992
451	0.871453	176009216	143839232	110982840	24992
452	0.876021	176009216	143839232	111701256	24992
453	0.870362	176279552	143839232	112419808	24992
454	0.84701	176279552	143839232	113138496	24992
455	0.866091	176279552	143839232	113857320	24992
456	1.059107	176279552	144363520	114576264	24992
457	0.854488	176279552	144363520	115295344	24992
458	0.867242	176279552	144363520	116014560	24992
459	0.873802	176279552	144363520	116733912	24992
460	0.915659	176279552	144363520	117453384	24992
461	0.880968	176279552	144363520	118172992	24992
462	0.886473	176549888	144363520	118892736	24992
463	1.016967	176549888	144363520	119613776	24992
464	1.337218	176549888	144363520	120333776	24992
465	0.870804	176549888	144363520	121053912	24992
466	0.871281	176549888	144363520	121774184	24992
467	0.872225	176549888	144363520	122494592	24992
468	3.451166	177360896	145412096	108310064	24992
469	0.926627	177360896	145412096	109030728	24992
470	0.98375	177360896	145412096	109751528	24992
471	0.903249	177631232	145412096	110472464	24992
472	0.966727	177631232	145412096	111193520	24992
473	0.902293	177631232	145412096	111914712	24992
474	0.999219	177631232	145412096	112636040	24992
475	0.904015	177631232	145412096	113357504	24992
476	1.048089	177631232	145412096	114079088	24992
477	0.999095	177631232	145412096	114800808	24992
478	1.042042	177631232	145412096	115522664	24992
479	0.923815	177901568	145412096	116244656	24992
480	1.04975	177901568	145936384	116966632	24992
481	0.921014	177901568	145936384	117688248	24992
482	0.994174	177901568	145936384	118409992	24992
483	0.936076	177901568	145936384	119131872	24992
484	1.037489	177901568	145936384	119853872	24992
485	0.918112	177901568	145936384	120576008	24992
486	1.100982	177901568	145936384	121298280	24992
487	1.090793	178171904	145936384	122020688	24992
488	1.028906	178171904	145936384	122743216	24992
489	1.188237	178171904	145936384	123465880	24992
490	4.216121	178982912	146984960	109299008	24992
491	1.516966	178982912	146984960	110021936	24992
492	1.842799	178982912	146984960	110744992	24992
493	1.673284	178982912	146984960	111468184	24992
494	1.726083	178982912	146984960	112191512	24992
495	1.857142	178982912	146984960	112914976	24992
496	1.99177	179253248	146984960	113638560	24992
497	1.836679	179253248	146984960	114362280	24992
498	1.978561	179253248	146984960	115086136	24992
499	1.918156	179253248	146984960	115810128	24992
500	1.93491	179253248	146984960	116534240	24992
501	2.356697	179253248	146984960	117258488	24992
502	2.011144	179253248	146984960	117982872	24992
503	2.257675	179523584	147509248	118707392	24992
504	2.107055	179523584	147509248	119432032	24992
505	2.35532	179523584	147509248	120156808	24992
506	2.490184	179523584	147509248	120881720	24992
507	2.419448	179523584	147509248	121606768	24992
508	1.973422	179523584	147509248	122331936	24992
509	5.045635	164200448	101896192	30639912	24992
510	1.577652	148996096	101896192	31365368	24992
511	1.171073	133791744	101896192	32090952	24992
512	1.133461	133791744	101896192	32818096	24992
513	1.116238	133791744	101896192	33543768	24992
514	1.069597	133791744	101896192	34269560	24992
515	1.113353	133791744	101896192	34995488	24992
516	1.212107	133791744	101896192	35721536	24992
517	1.13434	133791744	101896192	36447968	24992
518	1.804325	133791744	101896192	37174080	24992
519	1.457019	133791744	101896192	37900424	24992
520	0.964972	133791744	101896192	38627000	24992
521	0.95747	133791744	101896192	39354272	24992
522	1.044723	133791744	101896192	40097728	24992
523	0.941992	133791744	101896192	40826496	24992
524	0.929229	133791744	101896192	41554496	24992
525	1.157813	133791744	101896192	42283016	24992
526	0.974398	133791744	101896192	43011512	24992
527	1.082814	133791744	101896192	43743944	24992
528	0.957284	133791744	101896192	44473536	24992
529	0.921962	133791744	101896192	45202728	24992
530	1.039171	133791744	101896192	45932184	24992
531	1.273488	133791744	101896192	46663144	24992
532	2.670896	134057984	101896192	32381152	24992
533	0.95055	134057984	101896192	33111320	24992
534	0.950553	134057984	101896192	33841752	24992
535	0.922855	134057984	101896192	34572416	24992
536	0.891472	134057984	101896192	35303312	24992
537	0.906325	134057984	101896192	36034544	24992
538	0.909083	134057984	101896192	36765928	24992
539	0.908347	134057984	101896192	37497568	24992
540	0.904248	134057984	101896192	38229448	24992
541	1.10411	134057984	101896192	38961576	24992
542	0.928356	134057984	101896192	39693944	24992
543	0.909411	134057984	101896192	40426560	24992
544	0.925466	134057984	101896192	41159312	24992
545	0.936637	134057984	101896192	41891768	24992
546	0.945104	134057984	101896192	42624472	24992
547	0.943754	134057984	101896192	43357424	24992
548	0.928696	134057984	101896192	44090608	24992
549	0.96231	134057984	101896192	44824040	24992
550	0.920541	134057984	101896192	45557720	24992
551	0.904436	134057984	101896192	46291648	24992
552	0.907264	134057984	101896192	47025808	24992
553	0.944114	134057984	101896192	47760216	24992
554	0.917453	134057984	101896192	48494872	24992
555	3.18653	134057984	101896192	34528960	24992
556	0.952981	134057984	101896192	35272032	24992
557	0.972577	134057984	101896192	36007400	24992
558	0.918699	134057984	101896192	36743016	24992
559	0.913138	134057984	101896192	37478880	24992
560	0.913607	134057984	101896192	38214976	24992
561	0.901176	134057984	101896192	38951320	24992
562	0.917686	134057984	101896192	39687912	24992
563	1.129877	134057984	101896192	40424752	24992
564	0.928163	134057984	101896192	41161824	24992
565	0.929227	134057984	101896192	41899144	24992
566	0.900868	134057984	101896192	42636712	24992
567	0.937396	134057984	101896192	43374528	24992
568	0.894795	134057984	101896192	44112576	24992
569	0.902899	134057984	101896192	44850912	24992
570	0.909334	134057984	101896192	45589448	24992
571	0.920909	134057984	101896192	46328240	24992
572	0.902454	134057984	101896192	47067296	24992
573	0.920257	134057984	101896192	47806568	24992
574	0.929557	134057984	101896192	48546088	24992
575	0.913683	134057984	101896192	49285856	24992
576	1.127929	134057984	101896192	50025784	24992
577	3.286099	134057984	101896192	36130936	24992
578	0.937137	134057984	101896192	36870832	24992
579	0.93774	134057984	101896192	37610928	24992
580	0.949585	134057984	101896192	38351264	24992
581	0.95327	134057984	101896192	39091856	24992
582	0.910677	134057984	101896192	39832680	24992
583	0.916832	134057984	101896192	40573760	24992
584	0.909568	134057984	101896192	41315072	24992
585	0.93981	134057984	101896192	42056632	24992
586	0.907133	134057984	101896192	42798440	24992
587	0.903319	134057984	101896192	43540496	24992
588	0.920571	134057984	101896192	44282784	24992
589	0.918363	134057984	101896192	45025320	24992
590	0.927913	134057984	101896192	45768104	24992
591	0.936092	134057984	101896192	46511136	24992
592	0.9311	134057984	101896192	47254400	24992
593	0.936134	134057984	101896192	47997912	24992
594	0.968747	134057984	101896192	48741672	24992
595	0.939823	134057984	101896192	49485680	24992
596	0.937227	134057984	101896192	50229920	24992
597	0.936601	134057984	101896192	50974408	24992
598	0.925257	134057984	101896192	51719160	24992
599	3.037256	134057984	101896192	37884152	24992
600	0.951448	134057984	101896192	38629368	24992
601	0.93219	134057984	101896192	39374832	24992
602	0.924334	134057984	101896192	40120544	24992
603	0.932848	134057984	101896192	40866504	24992
604	0.938849	134057984	101896192	41612696	24992
605	0.946765	134057984	101896192	42359136	24992
606	0.942314	134057984	101896192	43105824	24992
607	0.955817	134057984	101896192	43852760	24992
608	1.154478	134057984	101896192	44599872	24992
609	0.945895	134057984	101896192	45346656	24992
610	0.947327	134057984	101896192	46093680	24992
611	0.951999	134057984	101896192	46840952	24992
612	0.949707	134057984	101896192	47588464	24992
613	0.954429	134057984	101896192	48336224	24992
614	0.904507	134057984	101896192	49084224	24992
615	0.919507	134057984	101896192	49832472	24992
616	0.927919	134057984	101896192	50580952	24992
617	0.928439	134057984	101896192	51329680	24992
618	0.932688	134057984	101896192	52078656	24992
619	0.937813	134057984	101896192	52827880	24992
620	1.130725	134057984	101896192	53577336	24992
621	3.08133	134057984	101896192	39857088	24992
622	0.946947	134057984	101896192	40607040	24992
623	0.944958	134057984	101896192	41357264	24992
624	0.943936	134057984	101896192	42107704	24992
625	0.946179	134057984	101896192	42858384	24992
626	0.952537	134057984	101896192	43609312	24992
627	0.943892	134057984	101896192	44360488	24992
628	0.984135	134057984	101896192	45111896	24992
629	0.945321	134057984	101896192	45863552	24992
630	1.120871	134057984	101896192	46615320	24992
631	0.92233	134057984	101896192	47367312	24992
632	0.938306	134057984	101896192	48119536	24992
633	0.934288	134057984	101896192	48871992	24992
634	0.963587	134057984	101896192	49624720	24992
635	0.923902	134057984	101896192	50377632	24992
636	0.94711	134057984	101896192	51130768	24992
637	0.947406	134057984	101896192	51884136	24992
638	0.938695	134057984	101896192	52637720	24992
639	0.954314	134057984	101896192	53391536	24992
640	0.948312	134057984	101896192	54145552	24992
641	0.950866	134057984	101896192	54899192	24992
642	0.963333	134057984	101896192	55653048	24992
643	3.255869	134057984	101896192	42016912	24992
644	0.956088	134057984	101896192	42771232	24992
645	0.959398	134057984	101896192	43525784	24992
646	0.929401	134057984	101896192	44280448	24992
647	0.950875	134057984	101896192	45035368	24992
648	0.935314	134057984	101896192	45790520	24992
649	0.947479	134057984	101896192	46545920	24992
650	0.943393	134057984	101896192	47301576	24992
651	0.961992	134057984	101896192	48057464	24992
652	1.3188	134057984	101896192	48813664	24992
653	0.990663	134057984	101896192	49571536	24992
654	0.944081	134057984	101896192	50328160	24992
655	0.998024	134057984	101896192	51085032	24992
656	0.951821	134057984	101896192	51842136	24992
657	0.949771	134057984	101896192	52599488	24992
658	0.947331	134057984	101896192	53357088	24992
659	0.958242	134057984	101896192	54114936	24992
660	0.96196	134057984	101896192	54873016	24992
661	0.953045	134057984	101896192	55631368	24992
662	0.964536	134057984	101896192	56389816	24992
663	1.168048	134057984	101896192	57148512	24992
664	0.938851	134057984	101896192	57907456	24992
665	3.326599	134057984	101896192	44311720	24992
666	0.989137	134057984	101896192	45071184	24992
667	1.150289	134057984	101896192	45831456	24992
668	1.048734	134057984	101896192	46593304	24992
669	0.953907	134057984	101896192	47353472	24992
670	0.969551	134057984	101896192	48113872	24992
671	0.969604	134057984	101896192	48874520	24992
672	1.129213	134057984	101896192	49635400	24992
673	0.972472	134057984	101896192	50395904	24992
674	0.973269	134057984	101896192	51156672	24992
675	0.962415	134057984	101896192	51917656	24992
676	0.989415	134057984	101896192	52678888	24992
677	0.965338	134057984	101896192	53440368	24992
678	0.950472	134057984	101896192	54201976	24992
679	0.936858	134057984	101896192	54963840	24992
680	0.965684	134057984	101896192	55725936	24992
681	0.959647	134057984	101896192	56488280	24992
682	0.963099	134057984	101896192	57250872	24992
683	0.947161	134057984	101896192	58013712	24992
684	0.988609	134057984	101896192	58776784	24992
685	0.957427	134057984	101896192	59540112	24992
686	0.971806	134057984	101896192	60303672	24992
687	3.397392	134057984	101896192	46761160	24992
688	0.969849	134057984	101896192	47525216	24992
689	1.151571	134057984	101896192	48289512	24992
690	1.003231	134057984	101896192	49054056	24992
691	0.988774	134057984	101896192	49818848	24992
692	0.97012	134057984	101896192	50583872	24992
693	1.153165	134057984	101896192	51349144	24992
694	0.983524	134057984	101896192	52114664	24992
695	0.944836	134057984	101896192	52880592	24992
696	0.954586	134057984	101896192	53646592	24992
697	0.960883	134057984	101896192	54412840	24992
698	0.965415	134057984	101896192	55179336	24992
699	0.975783	134057984	101896192	55946080	24992
700	0.95532	134057984	101896192	56713056	24992
701	0.986434	134057984	101896192	57480280	24992
702	0.978763	134057984	101896192	58247752	24992
703	0.981389	134057984	101896192	59015496	24992
704	0.976199	134057984	101896192	59783464	24992
705	1.176302	134057984	101896192	60551032	24992
706	0.99354	134057984	101896192	61318840	24992
707	0.984714	134057984	101896192	62086896	24992
708	0.980462	134057984	101896192	62855184	24992
709	3.728042	134598656	102420480	49410248	24992
710	0.991617	134598656	102420480	50179088	24992
711	0.956893	134598656	102420480	50948112	24992
712	0.975527	134598656	102420480	51717376	24992
713	0.981678	134598656	102420480	52486888	24992
714	0.981954	134598656	102420480	53256648	24992
715	0.961401	134598656	102420480	54026656	24992
716	1.022863	134598656	102420480	54796896	24992
717	0.991928	134598656	102420480	55567384	24992
718	0.982839	134598656	102420480	56338120	24992
719	0.975117	134598656	102420480	57109104	24992
720	0.976279	134598656	102420480	57880320	24992
721	0.993266	134598656	102420480	58651784	24992
722	1.002516	134598656	102420480	59423496	24992
723	0.983485	134598656	102420480	60195456	24992
724	0.985026	134598656	102420480	60967648	24992
725	0.991831	134598656	102420480	61740088	24992
726	0.990341	134598656	102420480	62512808	24992
727	0.975999	134598656	102420480	63285744	24992
728	0.974502	134598656	102420480	64058912	24992
729	0.969467	134598656	102420480	64832328	24992
730	3.624898	134598656	102420480	51430192	24992
731	1.043838	134598656	102420480	52204104	24992
732	0.971269	134598656	102420480	52978248	24992
733	0.986068	134598656	102420480	53752712	24992
734	1.013368	134598656	102420480	54527344	24992
735	1.213079	134598656	102420480	55302232	24992
736	0.984301	134598656	102420480	56077376	24992
737	0.999672	134598656	102420480	56852112	24992
738	1.042915	134598656	102420480	57627088	24992
739	1.020988	134598656	102420480	58402312	24992
740	1.000132	134598656	102420480	59177768	24992
741	0.992848	134598656	102420480	59953472	24992
742	1.146373	134598656	102420480	60729424	24992
743	0.985613	134598656	102420480	61505624	24992
744	0.979132	134598656	102420480	62282056	24992
745	0.991126	134598656	102420480	63058736	24992
746	1.163958	134598656	102420480	63835696	24992
747	0.993523	134598656	102420480	64612872	24992
748	0.994069	134598656	102420480	65390280	24992
749	1.025951	134598656	102420480	66167936	24992
750	0.999275	134598656	102420480	66945840	24992
751	1.005027	134598656	102420480	67723992	24992
752	3.80159	134598656	102420480	54417336	24992
753	1.003281	134598656	102420480	55195968	24992
754	1.023745	134598656	102420480	55974848	24992
755	1.042034	134598656	102420480	56754016	24992
756	1.016758	134598656	102420480	57533384	24992
757	1.007852	134598656	102420480	58312992	24992
758	0.978485	134598656	102420480	59092848	24992
759	0.986875	134598656	102420480	59872952	24992
760	0.994631	134598656	102420480	60653288	24992
761	0.992163	134598656	102420480	61433872	24992
762	1.005232	134598656	102420480	62214704	24992
763	1.010922	134598656	102420480	62995792	24992
764	0.984708	134598656	102420480	63777112	24992
765	1.004974	134598656	102420480	64558672	24992
766	1.1784	134598656	102420480	65340480	24992
767	1.026694	134598656	102420480	66122536	24992
768	0.997685	134598656	102420480	66904912	24992
769	0.999114	134598656	102420480	67686816	24992
770	1.034864	134598656	102420480	68468960	24992
771	1.003968	134598656	102420480	69251352	24992
772	1.005539	134598656	102420480	70033976	24992
773	4.118503	135139328	102944768	56818928	24992
774	0.98791	135139328	102944768	57602048	24992
775	1.173144	135139328	102944768	58385416	24992
776	1.012133	135139328	102944768	59169016	24992
777	1.003217	135139328	102944768	59952904	24992
778	0.997365	135139328	102944768	60736992	24992
779	1.006548	135139328	102944768	61521336	24992
780	1.010112	135139328	102944768	62305912	24992
781	1.00167	135139328	102944768	63090736	24992
782	1.012951	135139328	102944768	63875808	24992
783	1.022711	135139328	102944768	64661128	24992
784	1.013901	135139328	102944768	65446680	24992
785	1.027906	135139328	102944768	66232480	24992
786	1.362137	135139328	102944768	67018528	24992
787	1.017901	135139328	102944768	67804824	24992
788	1.031223	135139328	102944768	68591352	24992
789	1.031647	135139328	102944768	69378128	24992
790	0.998531	135139328	102944768	70165168	24992
791	0.988743	135139328	102944768	70952440	24992
792	1.003553	135139328	102944768	71739944	24992
793	1.045607	135139328	102944768	72527696	24992
794	4.341177	135680000	103469056	59347552	24992
795	1.043277	135680000	103469056	60135800	24992
796	1.023657	135680000	103469056	60924304	24992
797	1.07544	135680000	103469056	61713040	24992
798	1.067114	135680000	103469056	62502016	24992
799	1.057163	135680000	103469056	63291240	24992
800	1.088768	135680000	103469056	64080760	24992
801	1.086622	135680000	103469056	64869824	24992
802	1.087986	135680000	103469056	65659136	24992
803	1.08279	135680000	103469056	66448696	24992
804	1.236064	135680000	103469056	67238488	24992
805	1.070815	135680000	103469056	68028528	24992
806	1.014769	135680000	103469056	68818816	24992
807	0.999774	135680000	103469056	69609352	24992
808	1.018439	135680000	103469056	70400120	24992
809	1.021892	135680000	103469056	71191264	24992
810	1.003409	135680000	103469056	71982528	24992
811	1.009549	135680000	103469056	72774040	24992
812	1.030235	135680000	103469056	73565784	24992
813	1.039977	135680000	103469056	74357776	24992
814	1.041697	135680000	103469056	75150160	24992
815	4.361936	135680000	103469056	62059112	24992
816	1.05158	135680000	103469056	62851832	24992
817	1.026111	135680000	103469056	63644800	24992
818	1.042416	135680000	103469056	64438016	24992
819	1.292223	135680000	103469056	65231480	24992
820	1.099553	135680000	103469056	66025176	24992
821	1.129796	135680000	103469056	66821680	24992
822	1.022261	135680000	103469056	67615872	24992
823	1.198288	135680000	103469056	68410312	24992
824	1.031573	135680000	103469056	69204984	24992
825	1.012856	135680000	103469056	69999912	24992
826	1.016956	135680000	103469056	70795072	24992
827	1.036394	135680000	103469056	71590488	24992
828	1.035587	135680000	103469056	72386136	24992
829	1.034515	135680000	103469056	73182032	24992
830	1.078823	135680000	103469056	73978192	24992
831	1.024528	135680000	103469056	74774584	24992
832	1.05719	135680000	103469056	75571296	24992
833	1.048033	135680000	103469056	76367536	24992
834	1.061792	135680000	103469056	77164016	24992
835	1.04939	135680000	103469056	77960744	24992
836	4.54643	136220672	103993344	64959656	24992
837	1.066211	136220672	103993344	65756864	24992
838	1.074706	136220672	103993344	66554352	24992
839	1.043643	136220672	103993344	67352056	24992
840	1.028586	136220672	103993344	68149992	24992
841	1.045601	136220672	103993344	68948176	24992
842	1.230314	136220672	103993344	69746608	24992
843	1.028975	136220672	103993344	70545368	24992
844	1.032718	136220672	103993344	71344280	24992
845	1.026543	136220672	103993344	72143440	24992
846	1.034613	136220672	103993344	72942848	24992
847	1.054924	136220672	103993344	73742504	24992
848	1.0459	136220672	103993344	74542432	24992
849	1.061175	136220672	103993344	75342576	24992
850	1.064934	136220672	103993344	76153280	24992
851	1.061019	136220672	103993344	76953912	24992
852	1.049066	136220672	103993344	77754776	24992
853	1.270389	136220672	103993344	78555928	24992
854	1.023178	136220672	103993344	79357280	24992
855	1.033491	136220672	103993344	80158888	24992
856	1.032395	136220672	103993344	80960728	24992
857	4.494446	136491008	103993344	68049160	24992
858	1.036144	136491008	103993344	68851496	24992
859	1.06228	136491008	103993344	69654080	24992
860	1.077554	136491008	103993344	70456896	24992
861	1.251533	136491008	103993344	71259960	24992
862	1.094455	136761344	104517632	72063272	24992
863	1.086258	136761344	104517632	72866832	24992
864	1.086162	136761344	104517632	73670728	24992
865	1.089855	136761344	104517632	74474136	24992
866	1.087503	137031680	104517632	75277784	24992
867	1.078485	137031680	104517632	76081680	24992
868	1.120684	137031680	104517632	76885848	24992
869	1.120722	137302016	105041920	77690232	24992
870	1.086665	137302016	105041920	78494856	24992
871	1.376598	137302016	105041920	79299728	24992
872	1.057636	137302016	105041920	80104832	24992
873	1.077081	137572352	105041920	80910208	24992
874	1.088266	137572352	105041920	81715800	24992
875	1.107911	137572352	105566208	82521648	24992
876	1.082306	137842688	105566208	83327728	24992
877	1.069226	137842688	105566208	84134056	24992
878	5.521653	139464704	107139072	71321424	24992
879	1.235494	139464704	107139072	72128248	24992
880	1.226031	139464704	107139072	72935304	24992
881	1.43112	139464704	107139072	73742608	24992
882	1.288224	139735040	107139072	74550160	24992
883	1.3195	139735040	107663360	75358000	24992
884	1.364673	139735040	107663360	76166040	24992
885	1.211092	140005376	107663360	76974320	24992
886	1.222121	140005376	107663360	77782848	24992
887	1.404457	140005376	107663360	78591624	24992
888	1.23187	140275712	107663360	79400648	24992
889	1.247951	140275712	107663360	80209904	24992
890	1.240239	140275712	108187648	81019408	24992
891	1.487012	140546048	108187648	81829160	24992
892	1.275776	140546048	108187648	82639144	24992
893	1.255701	140546048	108187648	83449408	24992
894	1.388636	140546048	108187648	84259888	24992
895	1.303505	140816384	108187648	85070616	24992
896	1.293196	140816384	108711936	85881704	24992
897	1.233343	140816384	108711936	86692272	24992
898	6.778109	142438400	110284800	73888056	24992
899	1.372877	142438400	110284800	74699112	24992
900	1.584287	142708736	110284800	75510408	24992
901	2.145851	142708736	110284800	76321952	24992
902	1.766966	142708736	110284800	77133744	24992
903	1.903522	142979072	110284800	77945832	24992
904	2.025527	142979072	110809088	78758104	24992
905	2.011284	142979072	110809088	79570624	24992
906	2.235234	143249408	110809088	80383392	24992
907	2.03804	143249408	110809088	81196408	24992
908	2.072731	143249408	110809088	82009664	24992
909	2.097811	143249408	110809088	82823168	24992
910	2.141733	143519744	111333376	83636912	24992
911	2.230631	143519744	111333376	84450904	24992
912	2.357805	143519744	111333376	85265128	24992
913	2.288542	143790080	111333376	86079600	24992
914	2.276137	143790080	111333376	86894320	24992
915	2.326961	143790080	111333376	87709320	24992
916	2.381558	144060416	111857664	88524520	24992
917	2.631547	144060416	111857664	89339968	24992
918	2.408224	144060416	111857664	90155664	24992
919	9.251159	145682432	113430528	77463208	24992
920	2.663659	145682432	113430528	78279384	24992
921	2.587688	145952768	113430528	79095808	24992
922	2.586683	145952768	113430528	79912504	24992
923	2.660245	145952768	113430528	80729416	24992
924	2.741634	146223104	113954816	81546568	24992
925	2.700596	146223104	113954816	82363968	24992
926	3.000427	146223104	113954816	83181616	24992
927	2.999769	146493440	113954816	83999536	24992
928	2.856361	146493440	113954816	84817816	24992
929	2.894668	146493440	113954816	85635552	24992
930	2.964813	146763776	114479104	86453536	24992
931	2.994596	146763776	114479104	87271768	24992
932	3.039537	146763776	114479104	88090232	24992
933	3.289047	147034112	114479104	88908944	24992
934	3.69025	147034112	114479104	89727968	24992
935	3.525479	147034112	115003392	90547176	24992
936	3.359463	147304448	115003392	91366616	24992
937	3.332157	147304448	115003392	92186304	24992
938	3.555372	147304448	115003392	93006240	24992
939	5.664726	147574784	116576256	78924272	24992
940	1.876783	147574784	116576256	79744736	24992
941	1.597996	147574784	116576256	80566544	24992
942	1.458548	147574784	116576256	81387504	24992
943	2.184423	147574784	116576256	82208712	24992
944	1.803911	147574784	116576256	83030736	24992
945	1.783677	147574784	116576256	83852520	24992
946	2.129677	147574784	116576256	84675488	24992
947	1.385696	147574784	116576256	85497672	24992
948	1.324298	147574784	116576256	86336008	24992
949	1.366466	147574784	116576256	87158688	24992
950	1.445474	147574784	116576256	87982904	24992
951	1.153408	147574784	117100544	88806064	24992
952	1.133571	147845120	117100544	89629456	24992
953	1.151289	147845120	117100544	90453096	24992
954	1.212873	147845120	117100544	91277648	24992
955	1.130339	148115456	117100544	92101784	24992
956	1.156565	148115456	117100544	92926152	24992
957	1.179852	148115456	117624832	93750800	24992
958	1.147231	148385792	117624832	94575664	24992
959	1.316099	148385792	117624832	95400776	24992
960	6.493742	151359488	119197696	82854000	24992
961	1.182548	151629824	119197696	83678984	24992
962	1.183694	151629824	119197696	84504176	24992
963	1.189335	151629824	119721984	85329624	24992
964	1.307286	151900160	119721984	86155320	24992
965	1.216006	151900160	119721984	86982384	24992
966	1.110283	151900160	119721984	87808544	24992
967	1.106347	152170496	119721984	88634952	24992
968	1.152417	152170496	119721984	89461616	24992
969	1.145143	152170496	120246272	90288512	24992
970	1.167443	152440832	120246272	91115648	24992
971	1.14145	152440832	120246272	91943032	24992
972	1.130963	152440832	120246272	92770648	24992
973	1.131368	152711168	120246272	93598568	24992
974	1.149858	152711168	120246272	94426672	24992
975	1.348933	152711168	120770560	95255048	24992
976	1.147115	152981504	120770560	96083640	24992
977	1.134824	152981504	120770560	96912480	24992
978	1.178823	152981504	120770560	97741568	24992
979	1.15865	153251840	120770560	98570904	24992
980	6.275103	154873856	122867712	86141472	24992
981	1.187424	155144192	122867712	86971288	24992
982	1.138862	155144192	122867712	87801352	24992
983	1.136922	155144192	122867712	88631664	24992
984	1.135355	155414528	122867712	89462272	24992
985	1.15615	155414528	123392000	90293064	24992
986	1.13087	155414528	123392000	91124104	24992
987	1.143785	155684864	123392000	91955392	24992
988	1.139274	155684864	123392000	92786912	24992
989	1.15163	155684864	123392000	93618680	24992
990	1.462876	155955200	123392000	94450696	24992
991	1.180578	155955200	123916288	95282960	24992
992	1.150819	155955200	123916288	96115640	24992
993	1.152067	156225536	123916288	96947752	24992
994	1.172998	156225536	123916288	97780104	24992
995	1.157564	156495872	123916288	98612704	24992
996	1.197724	156495872	124440576	99445536	24992
997	1.177121	156495872	124440576	100278616	24992
998	1.142043	156766208	124440576	101112136	24992
999	1.131998	156766208	124440576	101945712	24992
1000	6.030529	158388224	126537728	89522208	24992
