x	Duration	RSS	HeapTotal	HeapUsed	External
0	NA	109604864	76730368	13061616	24992
1	2.192353	109604864	76730368	13714680	24992
2	2.150748	109604864	76730368	14367704	24992
3	2.079104	109604864	76730368	15020760	24992
4	2.085374	109604864	76730368	15673968	24992
5	2.085572	109604864	76730368	16327360	24992
6	2.074853	109604864	76730368	16980896	24992
7	2.073635	109604864	76730368	17634616	24992
8	1.400209	109604864	76730368	18292504	24992
9	0.743828	109604864	76730368	18948128	24992
10	0.739787	109604864	76730368	19603632	24992
11	0.737744	109604864	76730368	20259552	24992
12	0.75743	109604864	76730368	20915696	24992
13	0.741631	109604864	76730368	21572080	24992
14	0.737245	109604864	76730368	22228688	24992
15	0.73772	109604864	76730368	22885536	24992
16	0.739984	109604864	76730368	23543024	24992
17	0.740137	109604864	76730368	24201224	24992
18	0.730424	109604864	76730368	24859696	24992
19	0.730972	109604864	76730368	25518808	24992
20	0.733155	109604864	76730368	26177696	24992
21	0.732832	109604864	76730368	26836896	24992
22	0.7332	109604864	76730368	27495704	24992
23	0.940638	109604864	76730368	28155520	24992
24	0.733647	109604864	76730368	28815736	24992
25	1.237999	109604864	76730368	13169560	24992
26	0.764941	109604864	76730368	13830280	24992
27	0.761902	109604864	76730368	14491136	24992
28	0.736045	109604864	76730368	15152232	24992
29	0.910401	109604864	76730368	15813576	24992
30	0.763165	109604864	76730368	16475152	24992
31	0.736209	109604864	76730368	17136976	24992
32	0.748606	109604864	76730368	17798664	24992
33	0.738557	109604864	76730368	18460376	24992
34	0.738722	109604864	76730368	19122320	24992
35	0.738667	109604864	76730368	19784512	24992
36	0.7571	109604864	76730368	20446952	24992
37	0.762546	109604864	76730368	21109672	24992
38	0.739075	109604864	76730368	21772464	24992
39	0.738529	109604864	76730368	22435464	24992
40	0.742587	109604864	76730368	23098560	24992
41	0.783954	109604864	76730368	23761896	24992
42	0.784304	109604864	76730368	24425536	24992
43	0.748125	109604864	76730368	25089488	24992
44	0.746889	109604864	76730368	25753752	24992
45	0.748924	109604864	76730368	26419000	24992
46	0.748638	109604864	76730368	27083872	24992
47	0.758507	109604864	76730368	27749056	24992
48	0.756066	109604864	76730368	28414584	24992
49	0.750476	109604864	76730368	29080424	24992
50	1.412827	109604864	76730368	13593560	24992
51	0.951881	109604864	76730368	14260016	24992
52	0.791031	109604864	76730368	14926776	24992
53	0.756221	109604864	76730368	15593640	24992
54	0.746425	109604864	76730368	16260704	24992
55	0.748926	109604864	76730368	16928088	24992
56	0.769817	109604864	76730368	17595592	24992
57	0.754086	109604864	76730368	18263456	24992
58	0.751121	109604864	76730368	18931448	24992
59	0.753375	109604864	76730368	19599576	24992
60	0.749767	109604864	76730368	20267824	24992
61	0.762088	109604864	76730368	20936208	24992
62	0.751546	109604864	76730368	21604728	24992
63	0.754366	109604864	76730368	22273384	24992
64	0.756689	109604864	76730368	22941800	24992
65	0.757987	109604864	76730368	23610112	24992
66	0.936605	109604864	76730368	24278552	24992
67	0.789894	109604864	76730368	24947128	24992
68	0.760224	109604864	76730368	25615824	24992
69	0.762883	109604864	76730368	26284624	24992
70	0.756188	109604864	76730368	26953672	24992
71	0.764034	109604864	76730368	27622864	24992
72	0.755494	109604864	76730368	28292192	24992
73	0.757021	109604864	76730368	28961688	24992
74	0.758178	109604864	76730368	29631312	24992
75	1.458057	109604864	76730368	14219848	24992
76	0.790885	109604864	76730368	14889744	24992
77	0.894833	109604864	76730368	15559776	24992
78	0.803834	109604864	76730368	16231024	24992
79	0.778622	109604864	76730368	16901312	24992
80	0.968538	109604864	76730368	17571960	24992
81	0.813467	109604864	76730368	18243704	24992
82	0.771168	109604864	76730368	18914344	24992
83	0.771861	109604864	76730368	19585120	24992
84	0.765056	109604864	76730368	20257152	24992
85	0.79396	109604864	76730368	20928152	24992
86	0.818952	109604864	76730368	21599184	24992
87	0.778669	109604864	76730368	22271320	24992
88	0.782864	109604864	76730368	22942832	24992
89	0.871523	109604864	76730368	23614512	24992
90	0.786583	109604864	76730368	24286320	24992
91	0.763532	109604864	76730368	24958264	24992
92	0.767281	109604864	76730368	25630344	24992
93	0.847947	109604864	76730368	26302560	24992
94	1.025136	109604864	76730368	26975480	24992
95	0.78359	109604864	76730368	27647952	24992
96	0.769039	109604864	76730368	28320216	24992
97	0.765392	109604864	76730368	28992344	24992
98	0.768558	109604864	76730368	29664600	24992
99	1.576341	109604864	76730368	14351928	24992
100	0.774841	109604864	76730368	15024448	24992
101	0.76895	109604864	76730368	15697080	24992
102	0.758101	109604864	76730368	16369752	24992
103	0.815771	109604864	76730368	17042568	24992
104	0.760014	109604864	76730368	17715520	24992
105	0.760108	109604864	76730368	18388656	24992
106	0.805933	109604864	76730368	19061920	24992
107	0.761189	109604864	76730368	19735320	24992
108	0.990006	109604864	76730368	20408840	24992
109	0.76832	109604864	76730368	21082496	24992
110	0.76636	109604864	76730368	21756288	24992
111	0.766926	109604864	76730368	22430216	24992
112	0.766373	109604864	76730368	23104296	24992
113	0.786019	109604864	76730368	23778664	24992
114	0.77004	109604864	76730368	24453008	24992
115	0.768934	109604864	76730368	25127496	24992
116	0.775686	109604864	76730368	25802104	24992
117	0.772321	109604864	76730368	26476816	24992
118	0.776643	109604864	76730368	27151584	24992
119	0.761735	109604864	76730368	27826496	24992
120	0.768264	109604864	76730368	28501544	24992
121	0.763885	109604864	76730368	29176760	24992
122	0.891484	109604864	76730368	29852120	24992
123	0.840187	109604864	76730368	30528600	24992
124	1.57193	109604864	76730368	15280336	24992
125	0.828217	109604864	76730368	15956088	24992
126	1.501373	109604864	76730368	16631976	24992
127	0.786699	109604864	76730368	17307984	24992
128	0.77754	109604864	76730368	17983848	24992
129	0.773355	109604864	76730368	18659224	24992
130	0.828311	109604864	76730368	19334728	24992
131	0.772995	109604864	76730368	20010528	24992
132	0.772308	109604864	76730368	20686464	24992
133	0.77082	109604864	76730368	21362504	24992
134	0.761327	109604864	76730368	22038672	24992
135	1.128657	109604864	76730368	22714992	24992
136	0.861193	109604864	76730368	23407368	24992
137	0.764368	109604864	76730368	24083992	24992
138	0.762983	109604864	76730368	24760744	24992
139	0.791144	109604864	76730368	25437632	24992
140	0.793139	109604864	76730368	26114656	24992
141	0.764624	109604864	76730368	26791816	24992
142	0.767022	109604864	76730368	27470936	24992
143	0.768975	109604864	76730368	28148352	24992
144	0.804921	109604864	76730368	28825936	24992
145	0.793546	109604864	76730368	29503688	24992
146	0.771138	109604864	76730368	30181528	24992
147	0.771681	109604864	76730368	30859504	24992
148	1.764978	109604864	76730368	15673352	24992
149	0.962792	109604864	76730368	16351584	24992
150	0.776179	109604864	76730368	17030408	24992
151	0.801873	109604864	76730368	17710656	24992
152	0.768095	109604864	76730368	18389768	24992
153	0.783198	109604864	76730368	19069056	24992
154	0.821255	109604864	76730368	19748472	24992
155	0.767556	109604864	76730368	20428016	24992
156	0.772175	109604864	76730368	21107696	24992
157	0.767857	109604864	76730368	21787512	24992
158	0.778344	109604864	76730368	22467448	24992
159	0.768902	109604864	76730368	23147520	24992
160	0.772845	109604864	76730368	23827424	24992
161	0.772651	109604864	76730368	24507160	24992
162	0.773333	109604864	76730368	25187016	24992
163	0.978942	109604864	76730368	25867008	24992
164	0.776631	109604864	76730368	26547136	24992
165	0.780041	109604864	76730368	27227368	24992
166	0.81603	109604864	76730368	27907992	24992
167	0.79882	109604864	76730368	28588760	24992
168	0.769082	109604864	76730368	29269664	24992
169	0.774653	109604864	76730368	29950752	24992
170	0.769895	109604864	76730368	30631968	24992
171	0.778059	109604864	76730368	31313320	24992
172	1.613066	109604864	76730368	16178032	24992
173	0.798189	109604864	76730368	16859640	24992
174	0.78967	109604864	76730368	17541384	24992
175	1.001456	109604864	76730368	18223264	24992
176	0.843799	109604864	76730368	18905296	24992
177	0.783263	109604864	76730368	19587464	24992
178	0.775329	109604864	76730368	20269768	24992
179	0.78033	109604864	76730368	20952208	24992
180	0.778643	109604864	76730368	21634768	24992
181	0.791745	109604864	76730368	22317552	24992
182	0.773255	109604864	76730368	23000352	24992
183	0.773338	109604864	76730368	23683296	24992
184	0.774868	109604864	76730368	24366376	24992
185	0.776008	109604864	76730368	25049640	24992
186	0.781277	109604864	76730368	25733032	24992
187	0.784364	109604864	76730368	26416560	24992
188	0.777892	109604864	76730368	27100208	24992
189	0.776699	109604864	76730368	27783992	24992
190	0.778005	109604864	76730368	28467912	24992
191	0.989649	109604864	76730368	29151968	24992
192	0.78426	109604864	76730368	29835864	24992
193	0.785336	109604864	76730368	30519576	24992
194	0.786675	109604864	76730368	31203416	24992
195	0.793931	109604864	76730368	31887392	24992
196	1.66732	109604864	76730368	16811568	24992
197	0.808077	109604864	76730368	17495768	24992
198	0.795338	109604864	76730368	18180112	24992
199	0.804087	109604864	76730368	18864592	24992
200	0.795563	109604864	76730368	19549208	24992
201	0.798867	109604864	76730368	20234008	24992
202	0.796274	109604864	76730368	20918936	24992
203	0.802935	109604864	76730368	21604000	24992
204	1.007342	109604864	76730368	22289184	24992
205	0.787259	109604864	76730368	22974600	24992
206	0.790694	109604864	76730368	23660056	24992
207	0.790183	109604864	76730368	24345648	24992
208	0.793987	109604864	76730368	25031392	24992
209	0.788263	109604864	76730368	25717272	24992
210	0.789836	109604864	76730368	26403288	24992
211	0.794898	109604864	76730368	27089440	24992
212	0.791212	109604864	76730368	27775712	24992
213	0.801615	109604864	76730368	28462088	24992
214	0.789293	109604864	76730368	29148608	24992
215	0.780642	109604864	76730368	29835376	24992
216	0.783515	109604864	76730368	30522168	24992
217	0.788901	109604864	76730368	31209144	24992
218	0.806196	109604864	76730368	31896248	24992
219	0.786614	109604864	76730368	32583488	24992
220	1.738832	109604864	76730368	17569336	24992
221	1.017043	109604864	76730368	18256864	24992
222	0.87026	109604864	76730368	18945144	24992
223	0.806429	109604864	76730368	19634048	24992
224	0.786286	109604864	76730368	20321656	24992
225	0.785091	109604864	76730368	21009064	24992
226	0.974869	109604864	76730368	21696600	24992
227	0.809163	109604864	76730368	22384272	24992
228	0.789536	109604864	76730368	23072064	24992
229	0.787154	109604864	76730368	23762840	24992
230	0.783651	109604864	76730368	24450880	24992
231	0.844193	109604864	76730368	25139056	24992
232	0.785611	109604864	76730368	25827392	24992
233	0.783589	109604864	76730368	26515880	24992
234	0.788522	109604864	76730368	27204504	24992
235	0.78559	109604864	76730368	27893264	24992
236	0.992533	109604864	76730368	28582144	24992
237	0.788355	109604864	76730368	29271160	24992
238	0.787749	109604864	76730368	29960312	24992
239	0.793131	109604864	76730368	30649600	24992
240	0.95564	109604864	76730368	31339040	24992
241	0.82542	109604864	76730368	32028616	24992
242	0.791385	109604864	76730368	32718328	24992
243	0.799339	109604864	76730368	33408176	24992
244	1.985901	109604864	76730368	18458176	24992
245	0.800235	109604864	76730368	19148248	24992
246	0.785637	109604864	76730368	19838464	24992
247	0.787324	109604864	76730368	20528816	24992
248	0.796731	109604864	76730368	21219304	24992
249	0.789588	109604864	76730368	21909976	24992
250	0.786828	109604864	76730368	22600776	24992
251	0.790192	109604864	76730368	23291712	24992
252	0.788502	109604864	76730368	23982808	24992
253	0.802945	109604864	76730368	24674008	24992
254	0.80146	109604864	76730368	25365336	24992
255	0.793593	109604864	76730368	26056800	24992
256	0.793968	109604864	76730368	26748624	24992
257	0.796026	109604864	76730368	27440216	24992
258	1.001921	109604864	76730368	28131944	24992
259	0.797673	109604864	76730368	28823808	24992
260	0.798146	109604864	76730368	29515792	24992
261	0.798059	109604864	76730368	30207752	24992
262	0.788612	109604864	76730368	30900024	24992
263	0.814842	109604864	76730368	31592608	24992
264	0.79343	109604864	76730368	32285488	24992
265	0.797234	109604864	76730368	32979200	24992
266	0.795393	109604864	76730368	33673384	24992
267	0.793704	109604864	76730368	34368064	24992
268	1.847738	109604864	76730368	19489504	24992
269	0.817678	109604864	76730368	20185144	24992
270	0.818857	109604864	76730368	20881272	24992
271	0.835365	109604864	76730368	21577888	24992
272	0.818192	109604864	76730368	22274976	24992
273	0.819657	109604864	76730368	22972552	24992
274	0.823735	109604864	76730368	23670616	24992
275	0.825021	109604864	76730368	24369168	24992
276	0.833529	109604864	76730368	25068192	24992
277	0.825487	109604864	76730368	25767352	24992
278	0.812593	109604864	76730368	26466648	24992
279	0.815069	109604864	76730368	27166080	24992
280	0.819528	109604864	76730368	27865632	24992
281	0.816114	109604864	76730368	28565352	24992
282	0.816716	109604864	76730368	29265176	24992
283	0.829109	109604864	76730368	29965136	24992
284	0.819535	109604864	76730368	30665216	24992
285	1.036015	109604864	76730368	31365432	24992
286	0.812955	109604864	76730368	32065784	24992
287	0.810108	109604864	76730368	32766272	24992
288	0.809176	109604864	76730368	33466624	24992
289	0.811584	109604864	76730368	34166728	24992
290	0.820138	109604864	76730368	34866968	24992
291	1.913576	109604864	76730368	20091152	24992
292	0.832747	109604864	76730368	20791648	24992
293	0.838958	109604864	76730368	21492280	24992
294	0.818878	109604864	76730368	22193048	24992
295	0.816206	109604864	76730368	22893952	24992
296	0.818955	109604864	76730368	23594976	24992
297	0.821491	109604864	76730368	24296136	24992
298	1.023962	109604864	76730368	24997432	24992
299	0.816056	109604864	76730368	25698864	24992
300	0.808091	109604864	76730368	26400416	24992
301	0.809933	109604864	76730368	27102104	24992
302	0.81939	109604864	76730368	27803928	24992
303	0.810164	109604864	76730368	28505888	24992
304	0.856884	109604864	76730368	29207968	24992
305	0.815793	109604864	76730368	29910184	24992
306	0.816277	109604864	76730368	30612536	24992
307	0.841325	109604864	76730368	31315024	24992
308	0.816062	109604864	76730368	32017632	24992
309	0.81751	109604864	76730368	32720376	24992
310	0.806608	109604864	76730368	33423256	24992
311	0.807188	109604864	76730368	34126272	24992
312	1.008599	109604864	76730368	34829520	24992
313	0.812447	109604864	76730368	35532792	24992
314	0.813499	109604864	76730368	36236200	24992
315	2.282901	109604864	76730368	21556248	24992
316	0.823174	109604864	76730368	22259912	24992
317	0.814881	109604864	76730368	22963712	24992
318	0.817665	109604864	76730368	23667648	24992
319	0.831617	109604864	76730368	24371720	24992
320	0.815262	109604864	76730368	25075680	24992
321	0.822495	109604864	76730368	25779376	24992
322	0.846472	109604864	76730368	26483200	24992
323	0.844952	109604864	76730368	27187160	24992
324	0.835166	109604864	76730368	27891240	24992
325	0.825793	109604864	76730368	28595456	24992
326	0.810948	109604864	76730368	29299808	24992
327	0.811076	109604864	76730368	30004296	24992
328	0.822713	109604864	76730368	30708904	24992
329	0.816794	109604864	76730368	31413648	24992
330	0.819048	109604864	76730368	32118560	24992
331	0.816002	109604864	76730368	32823576	24992
332	0.864854	109604864	76730368	33528712	24992
333	0.828977	109604864	76730368	34233984	24992
334	0.819766	109604864	76730368	34939392	24992
335	0.822799	109604864	76730368	35644936	24992
336	0.822441	109604864	76730368	36350856	24992
337	0.820492	109604864	76730368	37056656	24992
338	2.235137	109604864	76730368	22434320	24992
339	0.829468	109604864	76730368	23140392	24992
340	0.830946	109604864	76730368	23846584	24992
341	0.836953	109604864	76730368	24552912	24992
342	0.816213	109604864	76730368	25259376	24992
343	0.816101	109604864	76730368	25965976	24992
344	0.818569	109604864	76730368	26672696	24992
345	0.826837	109604864	76730368	27379552	24992
346	0.819932	109604864	76730368	28086544	24992
347	0.822045	109604864	76730368	28793672	24992
348	0.821182	109604864	76730368	29500920	24992
349	0.822913	109604864	76730368	30208304	24992
350	1.06261	109604864	76730368	30915824	24992
351	0.825594	109604864	76730368	31623480	24992
352	0.826548	109604864	76730368	32331040	24992
353	0.827371	109604864	76730368	33038320	24992
354	0.840149	109604864	76730368	33745752	24992
355	0.829077	109604864	76730368	34453288	24992
356	0.832989	109604864	76730368	35160952	24992
357	0.834425	109604864	76730368	35868792	24992
358	0.823373	109604864	76730368	36576720	24992
359	0.835789	109604864	76730368	37284792	24992
360	0.82675	109604864	76730368	37997440	24992
361	2.035504	109604864	76730368	23410432	24992
362	0.848607	109604864	76730368	24118896	24992
363	0.828421	109604864	76730368	24827496	24992
364	0.829756	109604864	76730368	25536216	24992
365	0.826602	109604864	76730368	26245072	24992
366	0.831148	109604864	76730368	26954064	24992
367	0.837251	109604864	76730368	27663192	24992
368	0.828612	109604864	76730368	28372440	24992
369	0.831714	109604864	76730368	29081824	24992
370	0.832568	109604864	76730368	29791344	24992
371	0.833158	109604864	76730368	30501000	24992
372	0.843208	109604864	76730368	31210776	24992
373	0.839886	109604864	76730368	31920688	24992
374	0.822492	109604864	76730368	32630736	24992
375	0.825785	109604864	76730368	33340920	24992
376	1.033412	109604864	76730368	34051224	24992
377	0.845777	109604864	76730368	34761664	24992
378	0.830779	109604864	76730368	35472240	24992
379	0.829703	109604864	76730368	36182952	24992
380	0.828251	109604864	76730368	36893784	24992
381	0.881654	109604864	76730368	37604752	24992
382	0.839423	109604864	76730368	38315856	24992
383	0.832431	109604864	76730368	39027096	24992
384	2.127232	109604864	76730368	24493336	24992
385	0.842534	109604864	76730368	25204192	24992
386	0.842026	109604864	76730368	25915184	24992
387	0.888123	109604864	76730368	26626312	24992
388	1.129552	109604864	76730368	27337560	24992
389	0.845777	109604864	76730368	28048960	24992
390	0.830846	109604864	76730368	28760480	24992
391	1.044038	109604864	76730368	29472936	24992
392	0.896559	109604864	76730368	30184736	24992
393	0.901436	109604864	76730368	30898776	24992
394	0.834645	109604864	76730368	31610824	24992
395	0.835286	109604864	76730368	32323032	24992
396	0.836791	109604864	76730368	33035344	24992
397	1.064931	109604864	76730368	33747784	24992
398	1.547443	109604864	76730368	34461464	24992
399	0.863057	109604864	76730368	35174168	24992
400	1.085967	109604864	76730368	35887000	24992
401	0.850838	109604864	76730368	36599992	24992
402	0.853573	109604864	76730368	37313088	24992
403	0.843096	109604864	76730368	38026328	24992
404	1.02626	109604864	76730368	38739760	24992
405	0.887988	109604864	76730368	39453264	24992
406	0.837952	109604864	76730368	40166896	24992
407	2.472394	109604864	76730368	25716184	24992
408	0.847792	109604864	76730368	26430072	24992
409	0.841256	109604864	76730368	27144104	24992
410	0.839845	109604864	76730368	27858256	24992
411	1.0158	109604864	76730368	28572552	24992
412	0.882896	109604864	76730368	29286976	24992
413	0.842225	109604864	76730368	30001536	24992
414	0.842435	109604864	76730368	30716224	24992
415	0.846444	109604864	76730368	31431152	24992
416	0.855813	109604864	76730368	32145928	24992
417	0.848735	109604864	76730368	32860368	24992
418	0.850526	109604864	76730368	33575176	24992
419	0.849191	109604864	76730368	34289880	24992
420	0.857303	109604864	76730368	35004712	24992
421	0.850316	109604864	76730368	35719688	24992
422	0.837611	109604864	76730368	36434784	24992
423	0.835234	109604864	76730368	37150024	24992
424	0.840705	109604864	76730368	37865432	24992
425	1.070787	109604864	76730368	38580928	24992
426	0.843828	109604864	76730368	39296560	24992
427	0.84748	109604864	76730368	40012360	24992
428	0.84689	109604864	76730368	40728248	24992
429	0.856355	109604864	76730368	41444272	24992
430	2.22388	109604864	76730368	27025792	24992
431	0.858935	109604864	76730368	27742080	24992
432	0.865098	109604864	76730368	28458592	24992
433	0.854377	109604864	76730368	29175144	24992
434	0.852272	109604864	76730368	29891832	24992
435	0.85223	109604864	76730368	30608656	24992
436	0.888814	109604864	76730368	31325600	24992
437	1.075617	109604864	76730368	32042680	24992
438	0.843259	109604864	76730368	32759896	24992
439	0.844138	109604864	76730368	33477248	24992
440	0.847071	109604864	76730368	34194720	24992
441	0.855209	109604864	76730368	34912328	24992
442	0.845297	109604864	76730368	35630072	24992
443	0.844765	109604864	76730368	36347952	24992
444	0.849163	109604864	76730368	37065952	24992
445	0.862201	109604864	76730368	37784088	24992
446	0.860798	109604864	76730368	38502360	24992
447	0.886486	109604864	76730368	39220768	24992
448	0.856471	109604864	76730368	39939144	24992
449	0.859553	109604864	76730368	40657176	24992
450	0.942028	109604864	76730368	41375336	24992
451	0.889711	109604864	76730368	42093632	24992
452	0.861691	109604864	76730368	42812048	24992
453	2.247211	109604864	76730368	28415056	24992
454	0.849508	109604864	76730368	29133744	24992
455	0.850251	109604864	76730368	29852568	24992
456	0.846642	109604864	76730368	30571512	24992
457	0.858649	109604864	76730368	31290592	24992
458	0.853215	109604864	76730368	32009808	24992
459	0.852813	109604864	76730368	32729160	24992
460	0.853461	109604864	76730368	33448632	24992
461	0.853381	109604864	76730368	34168240	24992
462	1.072622	109604864	76730368	34887984	24992
463	1.004603	109604864	76730368	35609024	24992
464	0.891065	109604864	76730368	36329024	24992
465	0.866075	109604864	76730368	37049160	24992
466	0.862838	109604864	76730368	37769432	24992
467	0.862619	109604864	76730368	38489840	24992
468	0.861812	109604864	76730368	39210368	24992
469	1.00076	109604864	76730368	39931032	24992
470	0.921047	109604864	76730368	40651832	24992
471	0.860578	109604864	76730368	41372768	24992
472	0.892316	109604864	76730368	42096136	24992
473	0.861586	109604864	76730368	42817328	24992
474	1.081066	109604864	76730368	43538656	24992
475	0.862664	109604864	76730368	44260120	24992
476	2.286957	109604864	76730368	29923920	24992
477	0.87564	109604864	76730368	30645640	24992
478	0.862347	109604864	76730368	31367496	24992
479	0.868225	109604864	76730368	32089488	24992
480	0.860407	109604864	76730368	32811464	24992
481	0.870012	109604864	76730368	33533080	24992
482	0.862889	109604864	76730368	34254824	24992
483	0.864202	109604864	76730368	34976704	24992
484	0.868541	109604864	76730368	35698704	24992
485	0.864966	109604864	76730368	36420840	24992
486	0.871221	109604864	76730368	37143112	24992
487	0.859817	109604864	76730368	37865520	24992
488	0.858184	109604864	76730368	38588048	24992
489	0.859045	109604864	76730368	39310712	24992
490	0.877408	109604864	76730368	40033512	24992
491	0.861878	109604864	76730368	40756448	24992
492	0.863521	109604864	76730368	41479504	24992
493	0.864758	109604864	76730368	42202696	24992
494	0.863966	109604864	76730368	42926024	24992
495	0.879964	109604864	76730368	43649488	24992
496	0.86769	109604864	76730368	44373072	24992
497	0.870056	109604864	76730368	45096792	24992
498	0.86805	109604864	76730368	45820648	24992
499	2.615613	109604864	76730368	31549752	24992
500	0.894831	109604864	76730368	32273872	24992
501	0.890576	109604864	76730368	32998120	24992
502	0.899105	109604864	76730368	33722504	24992
503	0.866578	109604864	76730368	34447024	24992
504	0.867895	109604864	76730368	35171664	24992
505	0.863088	109604864	76730368	35896440	24992
506	0.874787	109604864	76730368	36621352	24992
507	0.866651	109604864	76730368	37346400	24992
508	0.869016	109604864	76730368	38071568	24992
509	0.86619	109604864	76730368	38796872	24992
510	1.066971	109604864	76730368	39522312	24992
511	0.896885	109604864	76730368	40247888	24992
512	0.872859	109604864	76730368	40973920	24992
513	0.871225	109604864	76730368	41699560	24992
514	0.876089	109604864	76730368	42425336	24992
515	0.88613	109604864	76730368	43151248	24992
516	0.877302	109604864	76730368	43877280	24992
517	0.880514	109604864	76730368	44603112	24992
518	1.100278	109932544	76730368	45329360	24992
519	0.947714	109932544	76730368	46055688	24992
520	0.921432	109932544	76730368	46783960	24992
521	0.883481	109932544	76730368	47511216	24992
522	2.454607	109932544	76730368	33299968	24992
523	0.889658	109932544	76730368	34027720	24992
524	0.879692	109932544	76730368	34755704	24992
525	0.879511	109932544	76730368	35483936	24992
526	0.886698	109932544	76730368	36212416	24992
527	0.877533	109932544	76730368	36941144	24992
528	0.880645	109932544	76730368	37670104	24992
529	0.880744	109932544	76730368	38399312	24992
530	0.903445	109932544	76730368	39128768	24992
531	0.917503	109932544	76730368	39858472	24992
532	0.904458	109932544	76730368	40588408	24992
533	0.891038	109932544	76730368	41318592	24992
534	1.096549	109932544	76730368	42049024	24992
535	0.89121	109932544	76730368	42779872	24992
536	0.884385	109932544	76730368	43510792	24992
537	0.908847	109932544	76730368	44241952	24992
538	0.915329	109932544	76730368	44973400	24992
539	0.885433	109932544	76730368	45705048	24992
540	0.881265	109932544	76730368	46436936	24992
541	0.882635	109932544	76730368	47169072	24992
542	0.886029	109932544	76730368	47901456	24992
543	0.905406	109932544	76730368	48634088	24992
544	2.488374	109932544	76730368	34494064	24992
545	1.124073	109932544	76730368	35226536	24992
546	0.912592	109932544	76730368	35959256	24992
547	0.89923	109932544	76730368	36692224	24992
548	0.894601	109932544	76730368	37425424	24992
549	0.908026	109932544	76730368	38158872	24992
550	0.878523	109932544	76730368	38892568	24992
551	0.883897	109932544	76730368	39626512	24992
552	0.880531	109932544	76730368	40360688	24992
553	0.886315	109932544	76730368	41095112	24992
554	0.90213	109932544	76730368	41829784	24992
555	0.886567	109932544	76730368	42564704	24992
556	0.890086	109932544	76730368	43306664	24992
557	0.891045	109932544	76730368	44042072	24992
558	0.909044	109932544	76730368	44777720	24992
559	0.894206	109932544	76730368	45513616	24992
560	0.897183	109932544	76730368	46249744	24992
561	0.89824	109932544	76730368	46986120	24992
562	0.908279	109932544	76730368	47722744	24992
563	0.940069	109932544	76730368	48459616	24992
564	0.943812	109932544	76730368	49196720	24992
565	0.90663	109932544	76730368	49934072	24992
566	0.912072	109932544	76730368	50671672	24992
567	2.711443	109932544	76730368	36698848	24992
568	0.913562	109932544	76730368	37436928	24992
569	1.144337	109932544	76730368	38175256	24992
570	0.899915	109932544	76730368	38913832	24992
571	1.113372	109932544	76730368	39652656	24992
572	0.89893	109932544	76730368	40391712	24992
573	1.100618	109932544	76730368	41131040	24992
574	0.900636	109932544	76730368	41870584	24992
575	0.903348	109932544	76730368	42610384	24992
576	0.905567	109932544	76730368	43350344	24992
577	0.913578	109932544	76730368	44089992	24992
578	0.908676	109932544	76730368	44829880	24992
579	0.910034	109932544	76730368	45570016	24992
580	0.913032	109932544	76730368	46310384	24992
581	1.135996	109932544	76730368	47051000	24992
582	0.900954	109932544	76730368	47791864	24992
583	0.896131	109932544	76730368	48532976	24992
584	0.898996	109932544	76730368	49274336	24992
585	0.907836	109932544	76730368	50015928	24992
586	0.905148	109932544	76730368	50757768	24992
587	0.905214	109932544	76730368	51499856	24992
588	0.950197	109932544	76730368	52242176	24992
589	2.975482	110473216	77254656	38456504	24992
590	0.925363	110473216	77254656	39199320	24992
591	0.972742	110473216	77254656	39942384	24992
592	0.929348	110473216	77254656	40685680	24992
593	0.918595	110473216	77254656	41429224	24992
594	0.918455	110473216	77254656	42173016	24992
595	0.930558	110473216	77254656	42917064	24992
596	0.921181	110473216	77254656	43661344	24992
597	0.920837	110473216	77254656	44405864	24992
598	0.904212	110473216	77254656	45150632	24992
599	0.90937	110473216	77254656	45895648	24992
600	0.94023	110473216	77254656	46640896	24992
601	0.908716	110473216	77254656	47386392	24992
602	0.909639	110473216	77254656	48132136	24992
603	0.916119	110473216	77254656	48878184	24992
604	1.158586	110473216	77254656	49624416	24992
605	0.919016	110473216	77254656	50370888	24992
606	0.918792	110473216	77254656	51117608	24992
607	0.919423	110473216	77254656	51864576	24992
608	0.929633	110473216	77254656	52611720	24992
609	0.921959	110473216	77254656	53358536	24992
610	0.927591	110473216	77254656	54105592	24992
611	3.204774	111554560	78303232	40434672	24992
612	0.934154	111554560	78303232	41182208	24992
613	0.934615	111554560	78303232	41929992	24992
614	1.138079	111554560	78303232	42678024	24992
615	0.925728	111554560	78303232	43426304	24992
616	0.933685	111554560	78303232	44174824	24992
617	1.120209	111554560	78303232	44923592	24992
618	1.010939	111554560	78303232	45672600	24992
619	1.005725	111554560	78303232	46421856	24992
620	1.03869	111554560	78303232	47171344	24992
621	1.123626	111554560	78303232	47921080	24992
622	0.988027	111554560	78303232	48671064	24992
623	1.129164	111554560	78303232	49421296	24992
624	1.021467	111554560	78303232	50171768	24992
625	1.013525	111554560	78303232	50922488	24992
626	1.108837	111554560	78303232	51673448	24992
627	1.052572	111554560	78303232	52424656	24992
628	1.020748	111554560	78303232	53176096	24992
629	1.092978	111554560	78303232	53927784	24992
630	0.973653	111554560	78303232	54679584	24992
631	1.076018	111554560	78303232	55431608	24992
632	3.533175	111554560	78303232	41906480	24992
633	1.413244	111554560	78303232	42658960	24992
634	1.11477	111554560	78827520	43411720	24992
635	1.05542	111554560	78827520	44164664	24992
636	1.065352	111554560	78827520	44917832	24992
637	1.004609	111824896	78827520	45671232	24992
638	1.116479	111824896	78827520	46424848	24992
639	1.000321	111824896	78827520	47178696	24992
640	1.101604	111824896	78827520	47932744	24992
641	1.115849	111824896	78827520	48686416	24992
642	1.148497	111824896	78827520	49440312	24992
643	1.080757	112095232	78827520	50194440	24992
644	1.243437	112095232	78827520	50948792	24992
645	1.094664	112095232	78827520	51703376	24992
646	1.087308	112095232	79351808	52458072	24992
647	1.061192	112095232	79351808	53213080	24992
648	1.125616	112095232	79351808	53968272	24992
649	1.04215	112365568	79351808	54723704	24992
650	1.067282	112365568	79351808	55479384	24992
651	1.341871	112365568	79351808	56235312	24992
652	1.003201	112365568	79351808	56991472	24992
653	1.080616	112365568	79351808	57747880	24992
654	5.103414	113446912	80400384	44339512	24992
655	1.144232	113717248	80400384	45096408	24992
656	1.136421	113717248	80924672	45853544	24992
657	1.125416	113717248	80924672	46610928	24992
658	1.085898	113717248	80924672	47368560	24992
659	1.083234	113717248	80924672	48126464	24992
660	1.104299	113717248	80924672	48884584	24992
661	1.226564	113987584	80924672	49642944	24992
662	1.093721	113987584	80924672	50401432	24992
663	1.101207	113987584	80924672	51160160	24992
664	1.161949	113987584	80924672	51919136	24992
665	1.178047	113987584	80924672	52678360	24992
666	1.17477	113987584	80924672	53437816	24992
667	1.80632	114257920	80924672	54197704	24992
668	1.726868	114257920	81448960	54959672	24992
669	1.635039	114257920	81448960	55719872	24992
670	1.537045	114257920	81448960	56480304	24992
671	1.821508	114257920	81448960	57240984	24992
672	1.826461	114257920	81448960	58001928	24992
673	1.771995	114528256	81448960	58762464	24992
674	2.24633	114528256	81448960	59523232	24992
675	5.960677	115609600	82497536	46226384	24992
676	1.843151	115609600	82497536	46987664	24992
677	1.852429	115879936	83021824	47749176	24992
678	1.807245	115879936	83021824	48510816	24992
679	1.813686	115879936	83021824	49272712	24992
680	2.053267	115879936	83021824	50034840	24992
681	1.856393	115879936	83021824	50797248	24992
682	1.960313	115879936	83021824	51559872	24992
683	1.886892	116150272	83021824	52322744	24992
684	1.917224	116150272	83021824	53085848	24992
685	1.91587	116150272	83021824	53849200	24992
686	1.947314	116150272	83021824	54612840	24992
687	1.955008	116150272	83021824	55376680	24992
688	2.005447	116420608	83546112	56140760	24992
689	1.972301	116420608	83546112	56905088	24992
690	2.013079	116420608	83546112	57669664	24992
691	2.015201	116420608	83546112	58434624	24992
692	2.324394	116420608	83546112	59199688	24992
693	2.058609	116420608	83546112	59964992	24992
694	2.059673	116690944	83546112	60730544	24992
695	2.089239	116690944	83546112	61496344	24992
696	6.261206	117772288	85118976	48392600	24992
697	3.316812	118042624	85118976	49158880	24992
698	9.078475	115949568	84070400	46802056	24992
699	1.476167	115949568	84070400	47568840	24992
700	1.66666	115949568	84070400	48335848	24992
701	1.501004	115949568	84070400	49103104	24992
702	1.426889	115949568	84070400	49870608	24992
703	1.335522	115949568	84070400	50638360	24992
704	1.341484	116219904	84070400	51406376	24992
705	1.557562	116219904	84070400	52173968	24992
706	0.986982	116219904	84070400	52941808	24992
707	0.985671	116219904	84070400	53709896	24992
708	1.008695	116219904	84070400	54478216	24992
709	1.002847	116219904	84070400	55246800	24992
710	0.979242	116219904	84070400	56015616	24992
711	0.992369	116219904	84070400	56784680	24992
712	0.990294	116219904	84070400	57553976	24992
713	0.992299	116219904	84070400	58323520	24992
714	0.985839	116219904	84070400	59093312	24992
715	1.002458	116219904	84070400	59863352	24992
716	1.175844	116219904	84070400	60633624	24992
717	1.028026	116219904	84070400	61404144	24992
718	1.014963	116219904	84070400	62174912	24992
719	1.052867	116219904	84070400	62945952	24992
720	1.015755	116219904	84070400	63717208	24992
721	2.664885	117301248	84070400	49645320	24992
722	1.022885	117301248	84070400	50417064	24992
723	1.011434	117301248	84070400	51189056	24992
724	1.009216	117301248	84070400	51961280	24992
725	1.012831	117301248	84070400	52733752	24992
726	1.201614	117301248	84070400	53506512	24992
727	1.002723	117301248	84594688	54279472	24992
728	0.978951	117301248	84594688	55052672	24992
729	0.978167	117301248	84594688	55826120	24992
730	1.003752	117571584	84594688	56599816	24992
731	0.984322	117571584	84594688	57373760	24992
732	0.987706	117571584	84594688	58147936	24992
733	0.991151	117571584	84594688	58922360	24992
734	1.001648	117571584	84594688	59697032	24992
735	0.992675	117571584	84594688	60471952	24992
736	1.001196	117841920	84594688	61247168	24992
737	0.998644	117841920	84594688	62021928	24992
738	1.043035	117841920	85118976	62796936	24992
739	1.005973	117841920	85118976	63572192	24992
740	1.00892	117841920	85118976	64347680	24992
741	4.230939	119463936	86691840	51562424	24992
742	1.000967	119463936	86691840	52338400	24992
743	0.986627	119734272	86691840	53114632	24992
744	0.987357	119734272	86691840	53891096	24992
745	0.9898	119734272	86691840	54667808	24992
746	1.373538	119734272	86691840	55444808	24992
747	0.99368	119734272	86691840	56222008	24992
748	0.99983	119734272	86691840	56999448	24992
749	1.004192	120004608	86691840	57777136	24992
750	1.026563	120004608	87216128	58555072	24992
751	1.017325	120004608	87216128	59333264	24992
752	1.017035	120004608	87216128	60111688	24992
753	1.017914	120004608	87216128	60890352	24992
754	1.012278	120274944	87216128	61669264	24992
755	1.012341	120274944	87216128	62448424	24992
756	1.018109	120274944	87216128	63227856	24992
757	1.242013	120274944	87216128	64007504	24992
758	0.995522	120274944	87216128	64787424	24992
759	1.477049	120274944	87216128	65567824	24992
760	1.106953	120545280	87740416	66348192	24992
761	1.012342	120545280	87740416	67128808	24992
762	4.213805	121896960	89313280	54383352	24992
763	1.017058	121896960	89313280	55164464	24992
764	1.00837	122167296	89313280	55945808	24992
765	1.432357	122167296	89313280	56743072	24992
766	1.017423	122167296	89313280	57524904	24992
767	1.01782	122167296	89313280	58306992	24992
768	1.032802	122167296	89313280	59089360	24992
769	1.019454	122437632	89313280	59871288	24992
770	1.027107	122437632	89313280	60653504	24992
771	1.024384	122437632	89313280	61435920	24992
772	1.043402	122437632	89313280	62218576	24992
773	1.026841	122437632	89313280	63001480	24992
774	1.026658	122707968	89837568	63784632	24992
775	1.004318	122707968	89837568	64568032	24992
776	1.203973	122707968	89837568	65351664	24992
777	1.010758	122707968	89837568	66135560	24992
778	1.013401	122707968	89837568	66919688	24992
779	1.019429	122707968	89837568	67704064	24992
780	1.022608	122978304	89837568	68488672	24992
781	1.018873	122978304	89837568	69273528	24992
782	4.31235	124600320	91410432	56663960	24992
783	1.027867	124600320	91410432	57449304	24992
784	1.095902	124600320	91410432	58234912	24992
785	1.048613	124600320	91934720	59020752	24992
786	1.028223	124600320	91934720	59806832	24992
787	1.035978	124870656	91934720	60593160	24992
788	1.032983	124870656	91934720	61379720	24992
789	1.035205	124870656	91934720	62166528	24992
790	1.002374	124870656	91934720	62953584	24992
791	1.01303	124870656	91934720	63740888	24992
792	1.011582	125140992	91934720	64528424	24992
793	1.014091	125140992	91934720	65316208	24992
794	1.017953	125140992	91934720	66104240	24992
795	1.245299	125140992	92459008	66892520	24992
796	1.022241	125140992	92459008	67681032	24992
797	1.025433	125411328	92459008	68469792	24992
798	1.027914	125411328	92459008	69258856	24992
799	1.038249	125411328	92459008	70048104	24992
800	1.028807	125411328	92459008	70837656	24992
801	1.030929	125411328	92459008	71626752	24992
802	1.091866	125681664	92459008	72416096	24992
803	4.660005	127033344	94031872	59949296	24992
804	1.050756	127303680	94031872	60739128	24992
805	1.066579	127303680	94556160	61529208	24992
806	1.032408	127303680	94556160	62319528	24992
807	1.016868	127303680	94556160	63110096	24992
808	1.019245	127303680	94556160	63900896	24992
809	1.075365	127574016	94556160	64691944	24992
810	1.046664	127574016	94556160	65483240	24992
811	1.028183	127574016	94556160	66274816	24992
812	1.029235	127574016	94556160	67066592	24992
813	1.031629	127574016	94556160	67858616	24992
814	1.052123	127844352	94556160	68650888	24992
815	1.060197	127844352	95080448	69443408	24992
816	1.043151	127844352	95080448	70236160	24992
817	1.04947	127844352	95080448	71029160	24992
818	1.064175	127844352	95080448	71822464	24992
819	1.047106	128114688	95080448	72615952	24992
820	1.05198	128114688	95080448	73409680	24992
821	1.057672	128114688	95080448	74203656	24992
822	1.023158	128114688	95080448	74997880	24992
823	4.87583	130007040	97177600	62666160	24992
824	1.036561	130007040	97177600	63460928	24992
825	1.050723	130007040	97177600	64255880	24992
826	1.030655	130007040	97177600	65051080	24992
827	1.037994	130007040	97177600	65846528	24992
828	1.036113	130277376	97177600	66642208	24992
829	1.098341	130277376	97177600	67438136	24992
830	1.046221	130277376	97177600	68234312	24992
831	1.047001	130277376	97177600	69030744	24992
832	1.257297	130277376	97701888	69827496	24992
833	1.055111	130547712	97701888	70623864	24992
834	1.054205	130547712	97701888	71420376	24992
835	1.056054	130547712	97701888	72217136	24992
836	1.10595	130547712	97701888	73014128	24992
837	1.06294	130547712	97701888	73811368	24992
838	1.028353	130818048	97701888	74608856	24992
839	1.064668	130818048	97701888	75406592	24992
840	1.057859	130818048	97701888	76204576	24992
841	1.039724	130818048	97701888	77002792	24992
842	1.063396	131088384	98226176	77801256	24992
843	4.760136	132710400	100323328	65524752	24992
844	1.255672	132710400	100323328	66323696	24992
845	1.053381	132710400	100323328	67122888	24992
846	1.051203	132980736	100323328	67922328	24992
847	1.15244	132980736	100323328	68722016	24992
848	1.111031	132980736	100323328	69521976	24992
849	1.135544	132980736	100323328	70322152	24992
850	1.136527	132980736	100323328	71132912	24992
851	1.121041	133251072	100323328	71933568	24992
852	1.120806	133251072	100323328	72734464	24992
853	1.11857	133251072	100323328	73535608	24992
854	1.099092	133251072	100323328	74337000	24992
855	1.09574	133251072	100323328	75138640	24992
856	1.101267	133521408	100323328	75940512	24992
857	1.107303	133521408	100323328	76742640	24992
858	1.097189	133521408	100323328	77545000	24992
859	1.134667	133521408	100847616	78347776	24992
860	1.107013	133521408	100847616	79150624	24992
861	1.242918	133791744	100847616	79953720	24992
862	4.844771	135413760	102944768	67720816	24992
863	1.071682	135413760	102944768	68524408	24992
864	1.076527	135684096	102944768	69328336	24992
865	1.07063	135684096	102944768	70131848	24992
866	1.071497	135684096	102944768	70935520	24992
867	1.078154	135684096	102944768	71739488	24992
868	1.280921	135954432	102944768	72543656	24992
869	1.078253	135954432	102944768	73348064	24992
870	1.049107	135954432	102944768	74152720	24992
871	1.058713	135954432	102944768	74957624	24992
872	1.050197	135954432	102944768	75762760	24992
873	1.059408	136224768	102944768	76568144	24992
874	1.084649	136224768	103469056	77373776	24992
875	1.069429	136224768	103469056	78179656	24992
876	1.059712	136224768	103469056	78985792	24992
877	1.072033	136224768	103469056	79792160	24992
878	1.113561	136495104	103469056	80598808	24992
879	1.085241	136495104	103469056	81405656	24992
880	1.073664	136495104	103469056	82212744	24992
881	1.077775	136495104	103469056	83020080	24992
882	5.059011	138387456	105566208	70926224	24992
883	1.095895	138387456	105566208	71734064	24992
884	1.085868	138387456	105566208	72542136	24992
885	1.089426	138657792	105566208	73350448	24992
886	1.37818	138657792	105566208	74159008	24992
887	1.060636	138657792	105566208	74967816	24992
888	1.059254	138657792	105566208	75776856	24992
889	1.248579	138657792	105566208	76586144	24992
890	1.093722	138928128	106090496	77395680	24992
891	1.072534	138928128	106090496	78205464	24992
892	1.07823	138928128	106090496	79015760	24992
893	1.080961	138928128	106090496	79826032	24992
894	1.078037	138928128	106090496	80636576	24992
895	1.078211	139198464	106090496	81447336	24992
896	1.306692	139198464	106090496	82258456	24992
897	1.088519	139198464	106090496	83069056	24992
898	1.093104	139198464	106090496	83879904	24992
899	1.135682	139468800	106614784	84691000	24992
900	1.102435	139468800	106614784	85502328	24992
901	5.197624	141361152	108711936	73521136	24992
902	1.075641	141361152	108711936	74332960	24992
903	1.294804	141361152	108711936	75145032	24992
904	1.070038	141631488	108711936	75957336	24992
905	1.069027	141631488	108711936	76769888	24992
906	1.12117	141631488	108711936	77582688	24992
907	1.100889	141631488	108711936	78395736	24992
908	1.097743	141631488	108711936	79209024	24992
909	1.080706	141901824	108711936	80022560	24992
910	1.088402	141901824	108711936	80836368	24992
911	1.089984	141901824	108711936	81650392	24992
912	1.118431	141901824	109236224	82464680	24992
913	1.138036	142172160	109236224	83279184	24992
914	1.113042	142172160	109236224	84093936	24992
915	1.101507	142172160	109236224	84908936	24992
916	1.105306	142172160	109236224	85724168	24992
917	1.332976	142172160	109236224	86539648	24992
918	1.072581	142442496	109236224	87355376	24992
919	1.076974	142442496	109236224	88171352	24992
920	1.1121	142442496	109760512	88987560	24992
921	5.476206	144334848	111857664	77159816	24992
922	1.096522	144334848	111857664	77976520	24992
923	1.098417	144605184	111857664	78793504	24992
924	1.086419	144605184	111857664	79610688	24992
925	1.090288	144605184	111857664	80428184	24992
926	1.095398	144605184	111857664	81245864	24992
927	1.169539	144605184	111857664	82063800	24992
928	1.101082	144875520	111857664	82882112	24992
929	1.105288	144875520	111857664	83699880	24992
930	1.325108	144875520	111857664	84517896	24992
931	1.114993	144875520	111857664	85336160	24992
932	1.113718	145145856	111857664	86154656	24992
933	1.147107	145145856	112381952	86973400	24992
934	1.08458	145145856	112381952	87792392	24992
935	1.086198	145145856	112381952	88611632	24992
936	1.084495	145145856	112381952	89431104	24992
937	1.099225	145416192	112381952	90250824	24992
938	1.959303	145416192	112381952	91071152	24992
939	1.117604	145416192	112381952	91891360	24992
940	5.85832	147578880	114479104	80162632	24992
941	1.120486	147578880	114479104	80983336	24992
942	1.188683	147578880	114479104	81804280	24992
943	1.132213	147845120	114479104	82625472	24992
944	1.130728	148115456	115003392	83446896	24992
945	1.113491	148115456	115003392	84268568	24992
946	1.542889	148115456	115003392	85114664	24992
947	1.120319	148115456	115003392	85936832	24992
948	1.117925	148385792	115003392	86759232	24992
949	1.131424	148385792	115003392	87581880	24992
950	1.088448	148385792	115003392	88404776	24992
951	1.087284	148385792	115003392	89227920	24992
952	1.171444	148656128	115527680	90051296	24992
953	1.100503	148656128	115527680	90874952	24992
954	1.097539	148656128	115527680	91698824	24992
955	1.105509	148656128	115527680	92522968	24992
956	1.326048	148926464	115527680	93347328	24992
957	1.11308	148926464	115527680	94171936	24992
958	1.114607	148926464	115527680	94996776	24992
959	5.573108	150818816	117624832	83315976	24992
960	1.195154	151089152	117624832	84141480	24992
961	1.1211	151089152	117624832	84966456	24992
962	1.339836	151089152	117624832	85791640	24992
963	1.130681	151089152	118149120	86617144	24992
964	1.129273	151359488	118149120	87442816	24992
965	1.141416	151359488	118149120	88268728	24992
966	1.090661	151359488	118149120	89094888	24992
967	1.095315	151359488	118149120	89921296	24992
968	1.100184	151629824	118149120	90747936	24992
969	1.116366	151629824	118149120	91574824	24992
970	1.108885	151629824	118149120	92401960	24992
971	1.134238	151629824	118673408	93229344	24992
972	1.128705	151629824	118673408	94056960	24992
973	1.120509	151900160	118673408	94884824	24992
974	1.117467	151900160	118673408	95712936	24992
975	1.123948	151900160	118673408	96541296	24992
976	1.141566	151900160	118673408	97369888	24992
977	1.132332	152170496	118673408	98198728	24992
978	5.659452	154062848	120770560	86637232	24992
979	1.385661	154333184	120770560	87466568	24992
980	1.153942	154333184	121294848	88296136	24992
981	1.140204	154333184	121294848	89125952	24992
982	1.162509	154333184	121294848	89956016	24992
983	1.109084	154603520	121294848	90786328	24992
984	1.105834	154603520	121294848	91616872	24992
985	1.119153	154603520	121294848	92447664	24992
986	1.116077	154603520	121294848	93278704	24992
987	1.118266	154603520	121294848	94109992	24992
988	1.141548	154873856	121819136	94941512	24992
989	1.360588	154873856	121819136	95773280	24992
990	1.129944	154873856	121819136	96605296	24992
991	1.135398	154873856	121819136	97437560	24992
992	1.142166	155144192	121819136	98270272	24992
993	1.135738	155144192	121819136	99102384	24992
994	1.145685	155144192	121819136	99934744	24992
995	1.15219	155144192	121819136	100767336	24992
996	5.765262	157306880	123916288	89238208	24992
997	1.212435	157577216	124440576	90071288	24992
998	1.122638	157577216	124440576	90904616	24992
999	1.117585	157577216	124440576	91738192	24992
1000	1.119124	157577216	124440576	92572000	24992
