x	Duration	RSS	HeapTotal	HeapUsed	External
0	NA	159580160	126537728	90646848	24992
1	2.321509	159580160	126537728	91299360	24992
2	2.181021	159580160	126537728	91952368	24992
3	0.718738	159580160	126537728	92605408	24992
4	0.752118	159580160	126537728	93258600	24992
5	0.715141	159580160	126537728	93911976	24992
6	0.71863	159580160	126537728	94565488	24992
7	0.749184	159580160	126537728	95219184	24992
8	0.735016	159580160	126537728	95876960	24992
9	0.727819	159580160	126537728	96532472	24992
10	0.725105	159580160	126537728	97187960	24992
11	0.726065	159580160	126537728	97843864	24992
12	0.776447	159580160	126537728	98499992	24992
13	0.72489	159580160	126537728	99156360	24992
14	0.72406	159580160	126537728	99812952	24992
15	0.726958	159580160	126537728	100469784	24992
16	0.72392	159580160	126537728	101127256	24992
17	0.789098	159580160	126537728	101785440	24992
18	0.730319	159580160	126537728	102443896	24992
19	0.733185	159580160	126537728	103102992	24992
20	0.732481	159580160	126537728	103761864	24992
21	0.732083	159580160	126537728	104421048	24992
22	4.045336	161202176	128634880	90452392	24992
23	0.972125	161202176	128634880	91112200	24992
24	0.735187	161202176	128634880	91772400	24992
25	0.735341	161202176	128634880	92433000	24992
26	0.732914	161202176	128634880	93093704	24992
27	0.734977	161202176	128634880	93754544	24992
28	0.954121	161202176	128634880	94415624	24992
29	0.734862	161202176	128634880	95076952	24992
30	0.735276	161202176	128634880	95738512	24992
31	0.734104	161202176	128634880	96400320	24992
32	0.731538	161202176	128634880	97061992	24992
33	0.741178	161202176	128634880	97723688	24992
34	0.736021	161202176	128634880	98385616	24992
35	0.738227	161202176	128634880	99047792	24992
36	0.73649	161202176	128634880	99710216	24992
37	0.736386	161202176	128634880	100372920	24992
38	0.745705	161202176	128634880	101035696	24992
39	0.742189	161202176	128634880	101698680	24992
40	0.737708	161202176	128634880	102361760	24992
41	0.739792	161202176	128634880	103025080	24992
42	0.740518	161202176	128634880	103688704	24992
43	1.094638	161202176	128634880	104352640	24992
44	0.750375	161202176	128634880	105016888	24992
45	0.742874	161202176	128634880	105682120	24992
46	0.738719	161202176	128634880	106346976	24992
47	1.587792	161472512	128634880	90927176	24992
48	0.750065	161472512	128634880	91592688	24992
49	0.745074	161472512	128634880	92258512	24992
50	0.745123	161472512	128634880	92924632	24992
51	0.745359	161472512	128634880	93591064	24992
52	0.75256	161472512	128634880	94257808	24992
53	0.744381	161472512	128634880	94924656	24992
54	0.741631	161472512	128634880	95591704	24992
55	0.742175	161472512	128634880	96259072	24992
56	0.742346	161472512	128634880	96926560	24992
57	0.967243	161472512	128634880	97594408	24992
58	0.742943	161472512	128634880	98262384	24992
59	0.75008	161742848	128634880	98930496	24992
60	0.743339	161742848	128634880	99598728	24992
61	0.744956	161742848	128634880	100267096	24992
62	0.751815	161742848	128634880	100935600	24992
63	0.754149	161742848	128634880	101604240	24992
64	0.753824	161742848	128634880	102272640	24992
65	0.752797	161742848	128634880	102940936	24992
66	0.749182	161742848	128634880	103609360	24992
67	0.755161	161742848	128634880	104277920	24992
68	0.751094	161742848	128634880	104946600	24992
69	0.750797	161742848	128634880	105615384	24992
70	0.746068	161742848	128634880	106284416	24992
71	1.671921	161742848	128634880	90830944	24992
72	0.753238	161742848	128634880	91500248	24992
73	0.751265	161742848	128634880	92169728	24992
74	0.752911	161742848	128634880	92839336	24992
75	0.748822	161742848	128634880	93509080	24992
76	0.762467	161742848	128634880	94178960	24992
77	0.750039	161742848	128634880	94848976	24992
78	0.751733	161742848	128634880	95519112	24992
79	0.751773	162013184	128634880	96189384	24992
80	0.751812	162013184	128634880	96860016	24992
81	0.799687	162013184	128634880	97531744	24992
82	0.765352	162013184	128634880	98202368	24992
83	0.755076	162013184	128634880	98873128	24992
84	0.75408	162013184	128634880	99545144	24992
85	0.954213	162013184	128634880	100216128	24992
86	0.84336	162013184	128634880	100887144	24992
87	0.815256	162013184	128634880	101559264	24992
88	0.760615	162013184	128634880	102230760	24992
89	0.755759	162013184	128634880	102902424	24992
90	0.761887	162013184	128634880	103574216	24992
91	0.752852	162013184	128634880	104246144	24992
92	0.764385	162013184	128634880	104918208	24992
93	0.755337	162013184	128634880	105590408	24992
94	0.755573	162013184	128634880	106262728	24992
95	0.768533	162013184	128634880	106935184	24992
96	1.590845	162283520	129159168	91617240	24992
97	0.764232	162283520	129159168	92289352	24992
98	0.760732	162283520	129159168	92961592	24992
99	0.988259	162283520	129159168	93633968	24992
100	0.764707	162283520	129159168	94306480	24992
101	0.759935	162283520	129159168	94979096	24992
102	0.753484	162283520	129159168	95651752	24992
103	0.754698	162283520	129159168	96324552	24992
104	0.764105	162283520	129159168	96997488	24992
105	0.986092	162283520	129159168	97670608	24992
106	0.760426	162283520	129159168	98343856	24992
107	0.758885	162283520	129159168	99017240	24992
108	0.767745	162283520	129159168	99690744	24992
109	0.760607	162283520	129159168	100364384	24992
110	0.800306	162283520	129159168	101038160	24992
111	0.777341	162283520	129159168	101712072	24992
112	0.81286	162283520	129159168	102386136	24992
113	0.808115	162283520	129159168	103060336	24992
114	0.765086	162283520	129159168	103734672	24992
115	0.761995	162283520	129159168	104409144	24992
116	0.76219	162283520	129159168	105083760	24992
117	0.767644	162553856	129159168	105758464	24992
118	0.769753	162553856	129159168	106433216	24992
119	0.761764	162553856	129159168	107108112	24992
120	1.684876	162824192	129683456	91858520	24992
121	0.76843	162824192	129683456	92533840	24992
122	0.779416	162824192	129683456	93209176	24992
123	0.766524	162824192	129683456	93884640	24992
124	0.76347	162824192	129683456	94560240	24992
125	0.765279	162824192	129683456	95235976	24992
126	0.763884	162824192	129683456	95911832	24992
127	0.992785	162824192	129683456	96587824	24992
128	0.766648	162824192	129683456	97263632	24992
129	0.769488	162824192	129683456	97939000	24992
130	0.766603	162824192	129683456	98614488	24992
131	0.859339	162824192	129683456	99290272	24992
132	0.823997	162824192	129683456	99966920	24992
133	0.772636	162824192	129683456	100642944	24992
134	0.765841	162824192	129683456	101319096	24992
135	0.768647	162824192	129683456	101995400	24992
136	0.798449	162824192	129683456	102671840	24992
137	0.79316	162824192	129683456	103348448	24992
138	0.767793	162824192	129683456	104025184	24992
139	0.768018	162824192	129683456	104702056	24992
140	0.773359	162824192	129683456	105379064	24992
141	0.814923	163094528	129683456	106056208	24992
142	0.789063	163094528	129683456	106735312	24992
143	0.771278	163094528	129683456	107412712	24992
144	0.774562	163094528	129683456	108090280	24992
145	2.002692	163364864	130207744	92904976	24992
146	0.776387	163364864	130207744	93582800	24992
147	0.774877	163364864	130207744	94260760	24992
148	0.781149	163364864	130207744	94938856	24992
149	0.784108	163364864	130207744	95617056	24992
150	0.802164	163364864	130207744	96295864	24992
151	0.769599	163364864	130207744	96974824	24992
152	0.773124	163364864	130207744	97653920	24992
153	0.770305	163364864	130207744	98333184	24992
154	0.981973	163364864	130207744	99012576	24992
155	0.77533	163364864	130207744	99692104	24992
156	0.773861	163364864	130207744	100371768	24992
157	0.772877	163364864	130207744	101051568	24992
158	0.774806	163364864	130207744	101731488	24992
159	0.781576	163364864	130207744	102411544	24992
160	0.779354	163364864	130207744	103091432	24992
161	0.793452	163364864	130207744	103771152	24992
162	0.77378	163635200	130207744	104450992	24992
163	0.776952	163635200	130207744	105130968	24992
164	0.791286	163635200	130207744	105811080	24992
165	0.780302	163635200	130207744	106491296	24992
166	0.777763	163635200	130207744	107171904	24992
167	0.773065	163635200	130207744	107852656	24992
168	0.77574	163635200	130207744	108533544	24992
169	2.077093	163905536	130732032	93412976	24992
170	0.791361	163905536	130732032	94094176	24992
171	0.780196	163905536	130732032	94775512	24992
172	0.791755	163905536	130732032	95456968	24992
173	0.784213	163905536	130732032	96138560	24992
174	0.776891	163905536	130732032	96820288	24992
175	0.779879	163905536	130732032	97502152	24992
176	0.781032	163905536	130732032	98184168	24992
177	0.790871	164175872	130732032	98866320	24992
178	0.778214	164175872	130732032	99548608	24992
179	0.78561	164175872	130732032	100231032	24992
180	0.784483	164175872	130732032	100913576	24992
181	0.785009	164175872	130732032	101596248	24992
182	0.793603	164175872	130732032	102279032	24992
183	0.77954	164175872	130732032	102961960	24992
184	0.777796	164175872	130732032	103645024	24992
185	0.793418	164175872	130732032	104328272	24992
186	0.816021	164175872	131256320	105011648	24992
187	0.788522	164175872	131256320	105695160	24992
188	0.78242	164175872	131256320	106378792	24992
189	0.782718	164175872	131256320	107062560	24992
190	0.784915	164175872	131256320	107746464	24992
191	0.790517	164175872	131256320	108430528	24992
192	0.787102	164175872	131256320	109114416	24992
193	1.88532	164716544	131780608	94038568	24992
194	0.795264	164716544	131780608	94722392	24992
195	1.034165	164716544	131780608	95406352	24992
196	0.79181	164716544	131780608	96090432	24992
197	0.793442	164716544	131780608	96774616	24992
198	0.783557	164716544	131780608	97458944	24992
199	0.792316	164716544	131780608	98143408	24992
200	1.50993	164716544	131780608	98829168	24992
201	0.803363	164716544	131780608	99513952	24992
202	0.790921	164716544	131780608	100198864	24992
203	0.824961	164716544	131780608	100883912	24992
204	0.805771	164716544	131780608	101569080	24992
205	0.790536	164716544	131780608	102254384	24992
206	0.786313	164716544	131780608	102939824	24992
207	0.78679	164716544	131780608	103625400	24992
208	1.157323	164986880	131780608	104311128	24992
209	0.871444	164986880	131780608	105013944	24992
210	0.814826	164986880	131780608	105699944	24992
211	0.797007	164986880	131780608	106386080	24992
212	0.804258	164986880	131780608	107072336	24992
213	0.79619	164986880	131780608	107758696	24992
214	0.794509	164986880	131780608	108445200	24992
215	0.787913	164986880	131780608	109131840	24992
216	0.78942	164986880	131780608	109818616	24992
217	1.971325	165527552	132304896	94803728	24992
218	0.797326	165527552	132304896	95490816	24992
219	0.798102	165527552	132304896	96178040	24992
220	0.961094	165527552	132304896	96865384	24992
221	0.820123	165527552	132304896	97552864	24992
222	0.823551	165527552	132304896	98240480	24992
223	0.792545	165527552	132304896	98928232	24992
224	0.824722	165527552	132304896	99615840	24992
225	0.826888	165527552	132304896	100303248	24992
226	0.796198	165527552	132304896	100990784	24992
227	0.802429	165527552	132304896	101678456	24992
228	0.798802	165527552	132304896	102366248	24992
229	0.798279	165527552	132304896	103057072	24992
230	0.810708	165527552	132304896	103745112	24992
231	0.791543	165527552	132304896	104433288	24992
232	0.793411	165527552	132304896	105121600	24992
233	0.802784	165797888	132304896	105810096	24992
234	0.9735	165797888	132304896	106498720	24992
235	0.830879	165797888	132304896	107187480	24992
236	0.79791	165797888	132304896	107876360	24992
237	0.797786	165797888	132304896	108565376	24992
238	0.83026	165797888	132829184	109254528	24992
239	0.818013	165797888	132829184	109943904	24992
240	0.804275	165797888	132829184	110633352	24992
241	2.018061	166338560	133353472	95682616	24992
242	0.820993	166338560	133353472	96372328	24992
243	0.807777	166338560	133353472	97062176	24992
244	0.804789	166338560	133353472	97752144	24992
245	0.997259	166338560	133353472	98442216	24992
246	0.800619	166338560	133353472	99132432	24992
247	0.989401	166338560	133353472	99822784	24992
248	0.800886	166338560	133353472	100513272	24992
249	0.799808	166338560	133353472	101203944	24992
250	0.802074	166338560	133353472	101894744	24992
251	0.806984	166338560	133353472	102585680	24992
252	0.7994	166338560	133353472	103276736	24992
253	0.802665	166338560	133353472	103967928	24992
254	0.804278	166338560	133353472	104659256	24992
255	0.803622	166608896	133353472	105350720	24992
256	0.824129	166608896	133353472	106042544	24992
257	0.820698	166608896	133353472	106734136	24992
258	0.805696	166608896	133353472	107425864	24992
259	0.809403	166608896	133353472	108117736	24992
260	0.809409	166608896	133353472	108809728	24992
261	0.998868	166608896	133353472	109501688	24992
262	0.806692	166608896	133353472	110193960	24992
263	0.80432	166608896	133353472	110886544	24992
264	0.802709	166608896	133353472	111579424	24992
265	2.088075	167149568	133877760	96696328	24992
266	0.813279	167149568	133877760	97390520	24992
267	0.811998	167149568	133877760	98085200	24992
268	0.821477	167149568	133877760	98780352	24992
269	0.813817	167149568	133877760	99476024	24992
270	0.810033	167149568	133877760	100172152	24992
271	0.817971	167149568	133877760	100868768	24992
272	0.812797	167149568	133877760	101565856	24992
273	1.016318	167149568	133877760	102263432	24992
274	0.814344	167419904	133877760	102961496	24992
275	0.814435	167419904	133877760	103660048	24992
276	0.837574	167419904	134402048	104359072	24992
277	0.823102	167419904	134402048	105058232	24992
278	0.81166	167419904	134402048	105757528	24992
279	0.838716	167419904	134402048	106456960	24992
280	0.827249	167419904	134402048	107156512	24992
281	0.819435	167419904	134402048	107856200	24992
282	0.824145	167419904	134402048	108556024	24992
283	0.822812	167419904	134402048	109255984	24992
284	0.817152	167419904	134402048	109956064	24992
285	0.816031	167419904	134402048	110656280	24992
286	0.820678	167419904	134402048	111356632	24992
287	1.014332	167419904	134402048	112057120	24992
288	2.191091	167960576	134926336	97325240	24992
289	0.836336	167960576	134926336	98025352	24992
290	0.895793	167960576	134926336	98725592	24992
291	0.824403	168230912	134926336	99425968	24992
292	0.825741	168230912	134926336	100126464	24992
293	0.825566	168230912	134926336	100827096	24992
294	0.869478	168230912	134926336	101527864	24992
295	0.811381	168230912	134926336	102228768	24992
296	0.814244	168230912	134926336	102929792	24992
297	0.81582	168230912	134926336	103630952	24992
298	0.820315	168230912	134926336	104332248	24992
299	1.032934	168230912	134926336	105033680	24992
300	0.82191	168230912	134926336	105735264	24992
301	0.82347	168230912	134926336	106436952	24992
302	0.823706	168230912	134926336	107138776	24992
303	0.903388	168501248	135450624	107840784	24992
304	0.849681	168501248	135450624	108542864	24992
305	0.903558	168501248	135450624	109245080	24992
306	0.824341	168501248	135450624	109947432	24992
307	0.854086	168501248	135450624	110649920	24992
308	0.855612	168501248	135450624	111352528	24992
309	0.830287	168501248	135450624	112055272	24992
310	0.820736	168501248	135450624	112758152	24992
311	0.825085	168501248	135450624	113461168	24992
312	2.523363	169041920	136499200	98881632	24992
313	0.83281	169041920	136499200	99584904	24992
314	0.826629	169312256	136499200	100288312	24992
315	0.87789	169312256	136499200	100991856	24992
316	0.825421	169312256	136499200	101695520	24992
317	0.823857	169312256	136499200	102399320	24992
318	0.824699	169312256	136499200	103103256	24992
319	0.880342	169312256	136499200	103807328	24992
320	0.827199	169312256	136499200	104511288	24992
321	0.829747	169312256	136499200	105215000	24992
322	0.82954	169312256	136499200	105918824	24992
323	0.830698	169312256	136499200	106622784	24992
324	1.125302	169312256	136499200	107326944	24992
325	0.836731	169312256	136499200	108031160	24992
326	0.830694	169582592	136499200	108735512	24992
327	0.829824	169582592	136499200	109440016	24992
328	0.845433	169582592	136499200	110144624	24992
329	0.830314	169582592	136499200	110849368	24992
330	0.878073	169582592	136499200	111554248	24992
331	0.831283	169582592	136499200	112259264	24992
332	0.878905	169582592	136499200	112964400	24992
333	0.838799	169582592	136499200	113669672	24992
334	0.831107	169582592	136499200	114375080	24992
335	2.482949	170393600	137547776	99865632	24992
336	0.839792	170393600	137547776	100571296	24992
337	0.838614	170393600	137547776	101277096	24992
338	0.835609	170393600	137547776	101983032	24992
339	0.838307	170393600	137547776	102689104	24992
340	0.848229	170393600	137547776	103395296	24992
341	0.843287	170393600	137547776	104101624	24992
342	0.828773	170393600	137547776	104808088	24992
343	0.836641	170393600	137547776	105514688	24992
344	0.866245	170393600	137547776	106221408	24992
345	0.832267	170663936	137547776	106928264	24992
346	0.836669	170663936	137547776	107635256	24992
347	0.834787	170663936	137547776	108342384	24992
348	0.835025	170663936	137547776	109049632	24992
349	1.038457	170663936	137547776	109757016	24992
350	0.838168	170663936	137547776	110464536	24992
351	0.849429	170663936	137547776	111172216	24992
352	0.840668	170663936	137547776	111879784	24992
353	0.847612	170663936	137547776	112587064	24992
354	0.840592	170663936	137547776	113294544	24992
355	0.842445	170663936	137547776	114002080	24992
356	0.848455	170934272	137547776	114709744	24992
357	0.847325	170934272	137547776	115417568	24992
358	2.439519	171474944	138596352	100940648	24992
359	0.840771	171474944	138596352	101648720	24992
360	1.016835	171474944	138596352	102362080	24992
361	0.853246	171474944	138596352	103070408	24992
362	0.837377	171474944	138596352	103778872	24992
363	0.838651	171745280	138596352	104487472	24992
364	0.842463	171745280	138596352	105196192	24992
365	0.841119	171745280	138596352	105905048	24992
366	0.841336	171745280	138596352	106614040	24992
367	0.83871	171745280	138596352	107323168	24992
368	0.84176	171745280	138596352	108032416	24992
369	0.852855	171745280	138596352	108741800	24992
370	0.851937	171745280	138596352	109451320	24992
371	0.855495	171745280	138596352	110160976	24992
372	0.84641	171745280	138596352	110870752	24992
373	0.850302	171745280	138596352	111580664	24992
374	0.908904	172015616	138596352	112290712	24992
375	0.838268	172015616	138596352	113000896	24992
376	0.843162	172015616	138596352	113711200	24992
377	1.042054	172015616	138596352	114421640	24992
378	0.850314	172015616	138596352	115132216	24992
379	0.874072	172015616	139120640	115842928	24992
380	0.844154	172015616	139120640	116553760	24992
381	2.487671	172826624	140169216	102134840	24992
382	0.851757	172826624	140169216	102845944	24992
383	0.852182	172826624	140169216	103557184	24992
384	0.855531	172826624	140169216	104268352	24992
385	1.153049	172826624	140169216	104979208	24992
386	0.885217	172826624	140169216	105691184	24992
387	0.858127	172826624	140169216	106402312	24992
388	0.854336	172826624	140169216	107113560	24992
389	0.874601	173096960	140169216	107824944	24992
390	0.845604	173096960	140169216	108536464	24992
391	1.00586	173096960	140169216	109248984	24992
392	0.859261	173096960	140169216	109960760	24992
393	0.882954	173096960	140169216	110674792	24992
394	0.849657	173096960	140169216	111386840	24992
395	0.846298	173096960	140169216	112099024	24992
396	0.850484	173096960	140169216	112811328	24992
397	0.864478	173096960	140169216	113523768	24992
398	1.77607	173096960	140169216	114237360	24992
399	0.874529	173367296	140169216	114950072	24992
400	0.864054	173367296	140169216	115662904	24992
401	0.913401	173367296	140169216	116375872	24992
402	0.924231	173367296	140169216	117102704	24992
403	0.870155	173367296	140169216	117815944	24992
404	2.610783	174178304	141217792	103450472	24992
405	0.865999	174178304	141217792	104163968	24992
406	0.84772	174178304	141217792	104877600	24992
407	0.853828	174178304	141217792	105591368	24992
408	1.054632	174178304	141217792	106305256	24992
409	0.852086	174178304	141217792	107019280	24992
410	0.857029	174178304	141217792	107733440	24992
411	1.010634	174178304	141217792	108447736	24992
412	1.056363	174448640	141217792	109162152	24992
413	0.858926	174448640	141217792	109876704	24992
414	0.90322	174448640	141217792	110593704	24992
415	0.862692	174448640	141217792	111308528	24992
416	0.873904	174448640	141217792	112023296	24992
417	0.860678	174448640	141217792	112737736	24992
418	0.861055	174448640	141217792	113452312	24992
419	0.86142	174448640	141217792	114167024	24992
420	1.047237	174448640	141217792	114881856	24992
421	0.891088	174448640	141217792	115596824	24992
422	0.858135	174718976	141217792	116311928	24992
423	0.852474	174718976	141217792	117027168	24992
424	0.938858	174718976	141742080	117742528	24992
425	1.081342	174718976	141742080	118458024	24992
426	0.857698	174718976	141742080	119173656	24992
427	2.83042	175529984	142790656	104857600	24992
428	0.869759	175529984	142790656	105573736	24992
429	0.922574	175529984	142790656	106289768	24992
430	0.865785	175529984	142790656	107005928	24992
431	0.920933	175529984	142790656	107722224	24992
432	0.864205	175529984	142790656	108438672	24992
433	0.867799	175529984	142790656	109155224	24992
434	0.867401	175800320	142790656	109871912	24992
435	0.875965	175800320	142790656	110588736	24992
436	0.870067	175800320	142790656	111305680	24992
437	0.869209	175800320	142790656	112022760	24992
438	0.853968	175800320	142790656	112739976	24992
439	0.85872	175800320	142790656	113457328	24992
440	0.864729	175800320	142790656	114174800	24992
441	0.863447	175800320	142790656	114892408	24992
442	0.860388	175800320	142790656	115610152	24992
443	0.87339	176070656	142790656	116328032	24992
444	1.082578	176070656	142790656	117046032	24992
445	0.872507	176070656	142790656	117764168	24992
446	0.870896	176070656	142790656	118482440	24992
447	0.86854	176070656	142790656	119200848	24992
448	0.887944	176070656	142790656	119919224	24992
449	0.873971	176070656	142790656	120637256	24992
450	2.707342	176881664	143839232	106374248	24992
451	0.876653	176881664	143839232	107092544	24992
452	0.877147	176881664	143839232	107810960	24992
453	0.873794	176881664	143839232	108529512	24992
454	0.865742	177152000	143839232	109248200	24992
455	1.077513	177152000	143839232	109967024	24992
456	0.865037	177152000	143839232	110685968	24992
457	0.863366	177152000	143839232	111405048	24992
458	0.865997	177152000	143839232	112124264	24992
459	0.876475	177152000	143839232	112843616	24992
460	0.866365	177152000	143839232	113563088	24992
461	0.870067	177152000	143839232	114282696	24992
462	0.898861	177422336	144363520	115002440	24992
463	1.055282	177422336	144363520	115723480	24992
464	0.957054	177422336	144363520	116443480	24992
465	0.880055	177422336	144363520	117163616	24992
466	0.886298	177422336	144363520	117883888	24992
467	0.891736	177422336	144363520	118604296	24992
468	0.904552	177422336	144363520	119324824	24992
469	0.879603	177422336	144363520	120045488	24992
470	0.870318	177422336	144363520	120766288	24992
471	0.871087	177692672	144363520	121487224	24992
472	0.881859	177692672	144363520	122208280	24992
473	2.740704	178503680	145412096	107998680	24992
474	0.901032	178503680	145412096	108720008	24992
475	0.87566	178503680	145412096	109441472	24992
476	0.872918	178503680	145412096	110163056	24992
477	0.874357	178503680	145412096	110884776	24992
478	1.070188	178503680	145412096	111606632	24992
479	0.90638	178503680	145412096	112328624	24992
480	0.879354	178774016	145412096	113050600	24992
481	0.878885	178774016	145412096	113772216	24992
482	0.888516	178774016	145412096	114493960	24992
483	0.881374	178774016	145412096	115215840	24992
484	0.882088	178774016	145412096	115937840	24992
485	0.885194	178774016	145412096	116659976	24992
486	0.868026	178774016	145412096	117382248	24992
487	0.910551	178774016	145936384	118104656	24992
488	0.8741	179044352	145936384	118827184	24992
489	0.891988	179044352	145936384	119549848	24992
490	0.880061	179044352	145936384	120272648	24992
491	1.135917	179044352	145936384	120995584	24992
492	0.882262	179044352	145936384	121718640	24992
493	0.880494	179044352	145936384	122441832	24992
494	0.882192	179044352	145936384	123165160	24992
495	0.896243	179044352	145936384	123888624	24992
496	2.939272	179855360	146984960	109731984	24992
497	1.13483	180125696	146984960	110455704	24992
498	1.022139	180125696	146984960	111179560	24992
499	0.933893	180125696	146984960	111903552	24992
500	0.983275	180125696	146984960	112627664	24992
501	1.160836	180125696	146984960	113351912	24992
502	1.008471	180125696	146984960	114076296	24992
503	0.921861	180125696	146984960	114800816	24992
504	1.040195	180125696	146984960	115525456	24992
505	0.933977	180396032	146984960	116250232	24992
506	1.050023	180396032	146984960	116975144	24992
507	1.018998	180396032	146984960	117700192	24992
508	0.9749	180396032	146984960	118425360	24992
509	1.020655	180396032	146984960	119150664	24992
510	0.962251	180396032	147509248	119876104	24992
511	1.068801	180396032	147509248	120601680	24992
512	0.994922	180666368	147509248	121327712	24992
513	1.106997	180666368	147509248	122053352	24992
514	0.948551	180666368	147509248	122779128	24992
515	1.114462	180666368	147509248	123505040	24992
516	1.019852	180666368	147509248	124231072	24992
517	1.113663	180666368	147509248	124956904	24992
518	3.592878	181477376	148557824	110854600	24992
519	2.080611	181477376	148557824	111581080	24992
520	2.158233	181747712	148557824	112307648	24992
521	1.876182	181747712	148557824	113034904	24992
522	1.757278	181747712	148557824	113762632	24992
523	1.832369	181747712	148557824	114490384	24992
524	1.957537	181747712	148557824	115218368	24992
525	1.846924	181747712	148557824	115946624	24992
526	2.576455	181747712	148557824	116675432	24992
527	1.96495	182018048	148557824	117404160	24992
528	2.230021	182018048	148557824	118137824	24992
529	2.074176	182018048	148557824	118867000	24992
530	2.148898	182018048	149082112	119596424	24992
531	2.364876	182018048	149082112	120326096	24992
532	2.234537	182018048	149082112	121056000	24992
533	2.485484	182018048	149082112	121786152	24992
534	2.34494	182288384	149082112	122516552	24992
535	2.767985	182288384	149082112	123247200	24992
536	2.296999	182288384	149082112	123978080	24992
537	3.906144	170319872	105566208	32619664	24992
538	1.08994	159834112	105566208	33351088	24992
539	1.101173	149872640	105566208	34082760	24992
540	1.38162	139911168	105566208	34814664	24992
541	1.108182	138338304	105566208	35546816	24992
542	1.201519	138338304	105566208	36279216	24992
543	1.748335	138338304	105566208	37012960	24992
544	1.099907	138338304	105566208	37745744	24992
545	1.095969	138338304	105566208	38478232	24992
546	1.068452	138338304	105566208	39211552	24992
547	0.998651	138338304	105566208	39944536	24992
548	1.702489	138338304	105566208	40677768	24992
549	1.044983	138338304	105566208	41411248	24992
550	1.094198	138338304	105566208	42144976	24992
551	0.984379	138338304	105566208	42879936	24992
552	0.948645	138338304	105566208	43630080	24992
553	0.946635	138338304	105566208	44364520	24992
554	1.044347	138338304	105566208	45099208	24992
555	0.931828	138338304	105566208	45834144	24992
556	1.226949	138338304	105566208	46576112	24992
557	0.960987	138338304	105566208	47311528	24992
558	0.945563	138338304	105566208	48047192	24992
559	0.961667	138338304	105566208	48783104	24992
560	3.312075	138604544	105566208	34590688	24992
561	1.054422	138604544	105566208	35328360	24992
562	1.47368	138604544	105566208	36064992	24992
563	0.959092	138604544	105566208	36801880	24992
564	0.949913	138604544	105566208	37539000	24992
565	1.010483	138604544	105566208	38276368	24992
566	0.924603	138604544	105566208	39013984	24992
567	0.921822	138604544	105566208	39751848	24992
568	0.911411	138604544	105566208	40489944	24992
569	0.971272	138604544	105566208	41228288	24992
570	0.91749	138604544	105566208	41966880	24992
571	0.921193	138604544	105566208	42705720	24992
572	0.918698	138604544	105566208	43444792	24992
573	1.098341	138604544	105566208	44184112	24992
574	0.942382	138604544	105566208	44923680	24992
575	0.935913	138604544	105566208	45663504	24992
576	0.930816	138604544	105566208	46403488	24992
577	0.94281	138604544	105566208	47143152	24992
578	0.947744	138604544	105566208	47883064	24992
579	0.944042	138604544	105566208	48623208	24992
580	1.151024	138604544	105566208	49363624	24992
581	1.053185	138604544	105566208	50106040	24992
582	3.359156	139685888	106614784	36239192	24992
583	1.143596	139685888	106614784	36980304	24992
584	0.943679	139685888	106614784	37721648	24992
585	0.907717	139685888	106614784	38463240	24992
586	0.918426	139685888	106614784	39205080	24992
587	0.907079	139685888	106614784	39947168	24992
588	0.910854	139685888	106614784	40689488	24992
589	0.957382	139685888	106614784	41432056	24992
590	0.944675	139685888	106614784	42174872	24992
591	0.939978	139685888	106614784	42917936	24992
592	0.916816	139685888	106614784	43661232	24992
593	0.970993	139685888	106614784	44404776	24992
594	0.932833	139685888	106614784	45148568	24992
595	0.956233	139685888	106614784	45892608	24992
596	0.925964	139685888	106614784	46636880	24992
597	0.935232	139685888	106614784	47381400	24992
598	0.915651	139685888	106614784	48126168	24992
599	0.909606	139685888	106614784	48871184	24992
600	0.908679	139685888	106614784	49616432	24992
601	0.911061	139685888	106614784	50361968	24992
602	0.918575	139685888	106614784	51107704	24992
603	0.93684	139685888	106614784	51853696	24992
604	3.577623	140496896	107663360	38063304	24992
605	0.941902	140496896	107663360	38809776	24992
606	0.942879	140496896	107663360	39556496	24992
607	0.926894	140496896	107663360	40303464	24992
608	0.978427	140496896	107663360	41050608	24992
609	0.924148	140496896	107663360	41797424	24992
610	0.930221	140496896	107663360	42544480	24992
611	0.935193	140496896	107663360	43291784	24992
612	0.941614	140496896	107663360	44039528	24992
613	0.933426	140496896	107663360	44787312	24992
614	0.923131	140496896	107663360	45535344	24992
615	0.917476	140496896	107663360	46283736	24992
616	0.935382	140496896	107663360	47032248	24992
617	0.928732	140496896	107663360	47781008	24992
618	0.923449	140496896	107663360	48530016	24992
619	0.927691	140496896	107663360	49279272	24992
620	0.934625	140496896	107663360	50028760	24992
621	0.931664	140496896	107663360	50778496	24992
622	0.935224	140496896	107663360	51528480	24992
623	0.94034	140496896	107663360	52278712	24992
624	0.933716	140496896	107663360	53029176	24992
625	0.944322	140496896	107663360	53779888	24992
626	3.755097	141578240	108711936	40105864	24992
627	0.973451	141578240	108711936	40857064	24992
628	0.948787	141578240	108711936	41608504	24992
629	0.944463	141578240	108711936	42360192	24992
630	0.934217	141578240	108711936	43111992	24992
631	0.919988	141578240	108711936	43864032	24992
632	0.930069	141578240	108711936	44616288	24992
633	0.927129	141578240	108711936	45368776	24992
634	0.941504	141578240	108711936	46121512	24992
635	0.938387	141578240	108711936	46874448	24992
636	0.933967	141578240	108711936	47627616	24992
637	0.936991	141578240	108711936	48381016	24992
638	0.963053	141578240	108711936	49134632	24992
639	0.943743	141578240	108711936	49888480	24992
640	0.942853	141578240	108711936	50642528	24992
641	0.950027	141578240	108711936	51396200	24992
642	0.957513	141578240	108711936	52150216	24992
643	0.948346	141578240	108711936	52904336	24992
644	0.957879	141578240	108711936	53658688	24992
645	0.953707	141578240	108711936	54413272	24992
646	0.943514	141578240	108711936	55167968	24992
647	0.937204	141578240	108711936	55922920	24992
648	3.611192	142659584	110284800	42301304	24992
649	0.946393	142659584	110284800	43056736	24992
650	0.948044	142659584	110284800	43812448	24992
651	0.950066	142659584	110284800	44568376	24992
652	0.968093	142659584	110284800	45324536	24992
653	0.987956	142659584	110284800	46080944	24992
654	0.955155	142659584	110284800	46837600	24992
655	0.952697	142659584	110284800	47594504	24992
656	0.948844	142659584	110284800	48351640	24992
657	0.950805	142659584	110284800	49109024	24992
658	0.948256	142659584	110284800	49866672	24992
659	0.986861	142659584	110284800	50624552	24992
660	0.984561	142659584	110284800	51382664	24992
661	0.962397	142659584	110284800	52141048	24992
662	0.93424	142659584	110284800	52899528	24992
663	0.942286	142659584	110284800	53658256	24992
664	0.941696	142659584	110284800	54417232	24992
665	0.967346	142659584	110284800	55176456	24992
666	0.953361	142659584	110284800	55935912	24992
667	1.153184	142659584	110284800	56695768	24992
668	1.007116	142659584	110284800	57457736	24992
669	0.985873	142659584	110284800	58219160	24992
670	3.847179	143740928	111333376	44619824	24992
671	0.965863	143740928	111333376	45380504	24992
672	1.172685	143740928	111333376	46141416	24992
673	0.967951	143740928	111333376	46901952	24992
674	0.963786	143740928	111333376	47662736	24992
675	0.974642	143740928	111333376	48423752	24992
676	1.19152	143740928	111333376	49185016	24992
677	0.972037	143740928	111333376	49946528	24992
678	0.99903	143740928	111333376	50708168	24992
679	1.156636	143740928	111333376	51470064	24992
680	0.98783	143740928	111333376	52232192	24992
681	0.953521	143740928	111333376	52994568	24992
682	0.954134	143740928	111333376	53757224	24992
683	0.981184	143740928	111333376	54520096	24992
684	0.993176	143740928	111333376	55283200	24992
685	0.968124	143740928	111333376	56046552	24992
686	0.959387	143740928	111333376	56810152	24992
687	1.150485	143740928	111333376	57574000	24992
688	0.999572	143740928	111333376	58338080	24992
689	0.965836	143740928	111333376	59102408	24992
690	0.976927	143740928	111333376	59867232	24992
691	1.197543	143740928	111333376	60632048	24992
692	3.772794	144822272	112906240	47116256	24992
693	1.011743	144822272	112906240	47881560	24992
694	1.194093	144822272	112906240	48647112	24992
695	0.974559	145092608	112906240	49412912	24992
696	0.989974	145092608	112906240	50178944	24992
697	0.972177	145092608	112906240	50945224	24992
698	0.97717	145092608	112906240	51711752	24992
699	0.985098	145362944	112906240	52478528	24992
700	1.203448	145362944	112906240	53245568	24992
701	0.992218	145362944	112906240	54012824	24992
702	0.982642	145362944	112906240	54780328	24992
703	0.993118	145362944	112906240	55548080	24992
704	0.987551	145633280	112906240	56316072	24992
705	0.992819	145633280	112906240	57083672	24992
706	0.996955	145633280	112906240	57851512	24992
707	0.999875	145633280	112906240	58619600	24992
708	1.002025	145633280	112906240	59387960	24992
709	1.003069	145903616	112906240	60156536	24992
710	1.043201	145903616	112906240	60925352	24992
711	1.064755	145903616	112906240	61694416	24992
712	0.982024	145903616	112906240	62463712	24992
713	0.98175	146173952	112906240	63233256	24992
714	3.999622	147255296	114479104	49815384	24992
715	0.992009	147255296	114479104	50585424	24992
716	1.045488	147255296	114479104	51355696	24992
717	0.986701	147525632	114479104	52126216	24992
718	1.025008	147525632	114479104	52896984	24992
719	1.012968	147525632	114479104	53668000	24992
720	1.227011	147525632	114479104	54439248	24992
721	0.989309	147525632	114479104	55210744	24992
722	0.993598	147525632	114479104	55982488	24992
723	1.042502	147525632	114479104	56754536	24992
724	0.992169	147525632	114479104	57526768	24992
725	0.993491	147525632	114479104	58299240	24992
726	0.988934	147525632	114479104	59071960	24992
727	1.047846	147525632	114479104	59844928	24992
728	0.972042	147525632	114479104	60618128	24992
729	0.972639	147525632	114479104	61391576	24992
730	0.978994	147525632	114479104	62165272	24992
731	1.287572	147525632	114479104	62939280	24992
732	1.004713	147525632	114479104	63713456	24992
733	0.986088	147525632	114479104	64487880	24992
734	1.012608	147525632	114479104	65262552	24992
735	4.060013	148877312	116051968	51887200	24992
736	1.033162	148877312	116051968	52662384	24992
737	1.013239	148877312	116051968	53437152	24992
738	1.013343	148877312	116051968	54212160	24992
739	1.374776	149147648	116051968	54987416	24992
740	1.01576	149147648	116051968	55762904	24992
741	1.0156	149147648	116051968	56538640	24992
742	0.990292	149147648	116051968	57314624	24992
743	1.035808	149147648	116051968	58090856	24992
744	0.97699	149147648	116051968	58867320	24992
745	0.979881	149147648	116051968	59644032	24992
746	1.015329	149147648	116051968	60420992	24992
747	1.012448	149147648	116051968	61198200	24992
748	0.988649	149147648	116051968	61975640	24992
749	0.988048	149147648	116051968	62753328	24992
750	1.22015	149147648	116051968	63531264	24992
751	0.998543	149147648	116051968	64309448	24992
752	0.99986	149147648	116051968	65087864	24992
753	0.997469	149147648	116051968	65866528	24992
754	1.01602	149147648	116051968	66645440	24992
755	1.003265	149147648	116051968	67424600	24992
756	4.085038	150228992	117624832	54124896	24992
757	1.069247	150228992	117624832	54904544	24992
758	1.029921	150499328	117624832	55684432	24992
759	1.041299	150499328	117624832	56464568	24992
760	1.013363	150499328	117624832	57244952	24992
761	1.04748	150499328	117624832	58025568	24992
762	1.018779	150769664	117624832	58806432	24992
763	1.00802	150769664	117624832	59587544	24992
764	1.012923	150769664	117624832	60368888	24992
765	1.014194	150769664	117624832	61150544	24992
766	1.014844	150769664	117624832	61932384	24992
767	1.010241	150769664	117624832	62714472	24992
768	1.004562	150769664	117624832	63496840	24992
769	1.006713	150769664	117624832	64278768	24992
770	1.021881	150769664	117624832	65060944	24992
771	1.018059	150769664	117624832	65843368	24992
772	1.014241	150769664	117624832	66626024	24992
773	1.046039	150769664	117624832	67408936	24992
774	1.017553	150769664	117624832	68192080	24992
775	0.990374	150769664	117624832	68975480	24992
776	0.994528	150769664	117624832	69759112	24992
777	1.003758	150769664	117624832	70542992	24992
778	4.537861	152121344	119197696	57354736	24992
779	1.028223	152121344	119197696	58139120	24992
780	1.02642	152121344	119197696	58923736	24992
781	1.060331	152391680	119197696	59708592	24992
782	1.048613	152391680	119197696	60493696	24992
783	1.015412	152391680	119197696	61279048	24992
784	1.017882	152391680	119197696	62064632	24992
785	1.025673	152391680	119197696	62850464	24992
786	1.020002	152391680	119197696	63636544	24992
787	1.017322	152391680	119197696	64422872	24992
788	1.031569	152391680	119197696	65209432	24992
789	1.251347	152391680	119197696	65996240	24992
790	0.998846	152391680	119197696	66783296	24992
791	1.007087	152391680	119197696	67570600	24992
792	1.008047	152391680	119197696	68358232	24992
793	1.006132	152391680	119197696	69146016	24992
794	1.018996	152391680	119197696	69934048	24992
795	1.046347	152391680	119197696	70722328	24992
796	1.020531	152391680	119197696	71510840	24992
797	1.014534	152391680	119197696	72299632	24992
798	1.018781	152391680	119197696	73088640	24992
799	4.626335	153743360	120770560	59955176	24992
800	1.035881	153743360	120770560	60744728	24992
801	1.025821	153743360	120770560	61533824	24992
802	1.038695	153743360	120770560	62323168	24992
803	1.041472	153743360	120770560	63112784	24992
804	1.063337	153743360	120770560	63902616	24992
805	1.060938	153743360	120770560	64692688	24992
806	1.021591	153743360	120770560	65483008	24992
807	1.027019	154013696	120770560	66273576	24992
808	1.254603	154013696	120770560	67064416	24992
809	1.011769	154013696	120770560	67855472	24992
810	1.014524	154013696	120770560	68646768	24992
811	1.0523	154013696	120770560	69438312	24992
812	1.040298	154013696	120770560	70230088	24992
813	1.020575	154013696	120770560	71022112	24992
814	1.032973	154013696	120770560	71814384	24992
815	1.034548	154013696	120770560	72606904	24992
816	1.027218	154013696	120770560	73399656	24992
817	1.037097	154013696	120770560	74192656	24992
818	1.033527	154013696	120770560	74985904	24992
819	1.520041	154013696	120770560	75779400	24992
820	4.693639	155095040	122343424	62717064	24992
821	1.065763	155365376	122343424	63511040	24992
822	1.044379	155365376	122343424	64305264	24992
823	1.041251	155365376	122343424	65099736	24992
824	1.03659	155365376	122343424	65894480	24992
825	1.022043	155365376	122343424	66689440	24992
826	1.088194	155365376	122343424	67484640	24992
827	1.027617	155365376	122343424	68280088	24992
828	1.026385	155365376	122343424	69075768	24992
829	1.031301	155365376	122343424	69871720	24992
830	1.041279	155365376	122343424	70667888	24992
831	1.037305	155365376	122343424	71464312	24992
832	1.037722	155365376	122343424	72261056	24992
833	1.043798	155365376	122343424	73057328	24992
834	1.05002	155365376	122343424	73853848	24992
835	1.041256	155365376	122343424	74650600	24992
836	1.045553	155365376	122343424	75447592	24992
837	1.290512	155365376	122343424	76244832	24992
838	1.018789	155365376	122343424	77042320	24992
839	1.025586	155365376	122343424	77840096	24992
840	1.033236	155365376	122343424	78638072	24992
841	4.802169	156717056	123916288	65662944	24992
842	1.039193	156717056	123916288	66461408	24992
843	1.040954	156717056	123916288	67260120	24992
844	1.245727	156987392	123916288	68059064	24992
845	1.089185	156987392	123916288	68858256	24992
846	1.068787	156987392	123916288	69657696	24992
847	1.049917	156987392	123916288	70457384	24992
848	1.053342	156987392	123916288	71257304	24992
849	1.076111	156987392	123916288	72057472	24992
850	1.047821	156987392	123916288	72868208	24992
851	1.049435	156987392	123916288	73668872	24992
852	1.060887	156987392	123916288	74469776	24992
853	1.058572	156987392	123916288	75270928	24992
854	1.029388	156987392	123916288	76072320	24992
855	1.094915	156987392	123916288	76873960	24992
856	1.032711	156987392	123916288	77675832	24992
857	1.041622	156987392	123916288	78478000	24992
858	1.056454	156987392	123916288	79280368	24992
859	1.051535	156987392	123916288	80082984	24992
860	1.047636	156987392	123916288	80885832	24992
861	1.045649	156987392	123916288	81688928	24992
862	4.885192	158339072	125489152	68803112	24992
863	1.305037	158339072	125489152	69606704	24992
864	1.087306	158609408	125489152	70410632	24992
865	1.079934	158609408	125489152	71214080	24992
866	1.072627	158609408	125489152	72017752	24992
867	1.067757	158609408	125489152	72821680	24992
868	1.064813	158609408	125489152	73625840	24992
869	1.07077	158609408	125489152	74430248	24992
870	1.047799	158609408	125489152	75234904	24992
871	1.056479	158609408	125489152	76039808	24992
872	1.04588	158609408	125489152	76844944	24992
873	1.247887	158609408	125489152	77650328	24992
874	1.049223	158609408	125489152	78455960	24992
875	1.052302	158609408	125489152	79261840	24992
876	1.061451	158609408	125489152	80067952	24992
877	1.067208	158609408	125489152	80874352	24992
878	1.05847	158609408	125489152	81680952	24992
879	1.058346	158609408	125489152	82487808	24992
880	1.096465	158609408	125489152	83294896	24992
881	1.078419	158609408	125489152	84102232	24992
882	5.062004	159961088	127062016	71295384	24992
883	1.174068	159961088	127062016	72103208	24992
884	1.089062	159961088	127062016	72911272	24992
885	1.099168	159961088	127062016	73719664	24992
886	1.066599	160231424	127062016	74528224	24992
887	1.097695	160231424	127062016	75337032	24992
888	1.065484	160231424	127062016	76146072	24992
889	1.048673	160231424	127062016	76955360	24992
890	1.062329	160231424	127062016	77764896	24992
891	1.284554	160231424	127062016	78574680	24992
892	1.064875	160231424	127062016	79384816	24992
893	1.063939	160231424	127062016	80195088	24992
894	1.069244	160231424	127062016	81005600	24992
895	1.104785	160231424	127062016	81816360	24992
896	1.073856	160231424	127062016	82627480	24992
897	1.106016	160231424	127062016	83438104	24992
898	1.10814	160231424	127062016	84248944	24992
899	1.090003	160231424	127062016	85060040	24992
900	1.092102	160231424	127062016	85871368	24992
901	1.306892	160231424	127062016	86682944	24992
902	1.057307	160231424	127062016	87494792	24992
903	5.107687	161583104	128634880	74716152	24992
904	1.33027	161583104	128634880	75528456	24992
905	1.210257	161853440	128634880	76341008	24992
906	1.288578	161853440	128634880	77153808	24992
907	1.435727	161853440	128634880	77966880	24992
908	1.236529	161853440	128634880	78780168	24992
909	1.26711	161853440	128634880	79593696	24992
910	1.301982	161853440	128634880	80407472	24992
911	1.267356	161853440	128634880	81221496	24992
912	1.259409	161853440	128634880	82035752	24992
913	1.324558	161853440	128634880	82850256	24992
914	1.256661	161853440	128634880	83665048	24992
915	1.432547	161853440	128634880	84480040	24992
916	1.610182	161853440	128634880	85295272	24992
917	1.344926	161853440	128634880	86110752	24992
918	1.281786	161853440	128634880	86926480	24992
919	1.258201	161853440	128634880	87742488	24992
920	1.351084	161853440	128634880	88558696	24992
921	1.308634	161853440	128634880	89375152	24992
922	1.404804	161853440	128634880	90191856	24992
923	1.297865	161853440	128634880	91008808	24992
924	6.979138	161853440	128634880	78362904	24992
925	2.180466	161853440	128634880	79180336	24992
926	1.816839	161853440	128634880	79998120	24992
927	1.920831	161853440	128634880	80816040	24992
928	2.077366	161853440	128634880	81634344	24992
929	2.152527	161853440	128634880	82452112	24992
930	2.136218	161853440	128634880	83270128	24992
931	2.132546	161853440	128634880	84088392	24992
932	2.158168	161853440	128634880	84906888	24992
933	2.525974	161853440	128634880	85725704	24992
934	2.130685	161853440	128634880	86544688	24992
935	2.346609	161853440	128634880	87363928	24992
936	2.295552	161853440	128634880	88183400	24992
937	2.329595	161853440	128634880	89003120	24992
938	2.321685	161853440	128634880	89823088	24992
939	2.343613	161853440	128634880	90643304	24992
940	2.389209	161853440	128634880	91463848	24992
941	2.588615	161853440	128634880	92284544	24992
942	2.506807	161853440	128634880	93105488	24992
943	2.798144	161853440	128634880	93926680	24992
944	9.170806	162934784	129683456	81342520	24992
945	3.054244	162934784	129683456	82164192	24992
946	2.834584	163205120	129683456	82986112	24992
947	3.056371	163205120	130207744	83808288	24992
948	2.927218	163205120	130207744	84630696	24992
949	2.982447	163475456	130207744	85453344	24992
950	2.989136	163475456	130207744	86276240	24992
951	2.998865	163475456	130207744	87099384	24992
952	3.570626	163745792	130732032	87922776	24992
953	3.392296	163745792	130732032	88746400	24992
954	3.290362	163745792	130732032	89570272	24992
955	3.272993	164016128	130732032	90394392	24992
956	3.529655	164016128	130732032	91218744	24992
957	3.572803	164016128	130732032	92043344	24992
958	3.555371	164286464	131256320	92868192	24992
959	3.495497	164286464	131256320	93693312	24992
960	3.519159	164286464	131256320	94518816	24992
961	3.472543	164556800	131256320	95343760	24992
962	4.020461	164556800	131256320	96168944	24992
963	8.325851	151896064	121819136	82913680	24992
964	1.804084	152166400	121819136	83739360	24992
965	1.954671	152166400	121819136	84566384	24992
966	2.098185	152436736	121819136	85392560	24992
967	1.603268	152436736	121819136	86219568	24992
968	1.726627	152436736	121819136	87046224	24992
969	1.464767	152707072	121819136	87873144	24992
970	2.076748	152707072	121819136	88700328	24992
971	1.264654	152707072	121819136	89528728	24992
972	1.292407	152977408	121819136	90372280	24992
973	1.393014	152977408	121819136	91200160	24992
974	1.181671	152977408	121819136	92028288	24992
975	1.191422	153247744	121819136	92856664	24992
976	1.337513	153247744	121819136	93685296	24992
977	1.215068	153247744	121819136	94515432	24992
978	1.189021	153518080	121819136	95344536	24992
979	1.201373	153518080	121819136	96173888	24992
980	1.195247	153518080	121819136	97003472	24992
981	1.202322	153788416	121819136	97833304	24992
982	1.157027	153788416	121819136	98663384	24992
983	6.300553	155951104	122867712	86109488	24992
984	1.304577	156221440	122867712	86940048	24992
985	1.164755	156221440	122867712	87770856	24992
986	1.172137	156491776	123392000	88601912	24992
987	1.160134	156491776	123392000	89433232	24992
988	1.4922	156491776	123392000	90265432	24992
989	1.282177	156762112	123392000	91097232	24992
990	1.188172	156762112	123392000	91930400	24992
991	1.18243	156762112	123916288	92762664	24992
992	1.148172	157032448	123916288	93595344	24992
993	1.158832	157032448	123916288	94427456	24992
994	1.160472	157032448	123916288	95259832	24992
995	1.162638	157302784	123916288	96092424	24992
996	1.157788	157302784	123916288	96925256	24992
997	1.187187	157302784	124440576	97758336	24992
998	1.491716	157573120	124440576	98591664	24992
999	1.132765	157573120	124440576	99425240	24992
1000	1.13881	157843456	124440576	100259048	24992
