x	Duration	RSS	HeapTotal	HeapUsed	External
0	NA	128126976	95080448	13050176	24992
1	1.888048	128126976	95080448	13703448	24992
2	1.245226	128126976	95080448	14356632	24992
3	0.771664	128126976	95080448	15009864	24992
4	0.769005	128126976	95080448	15663264	24992
5	0.767621	128126976	95080448	16316864	24992
6	0.768876	128126976	95080448	16970720	24992
7	0.925119	128126976	95080448	17624680	24992
8	0.874852	128126976	95080448	18283400	24992
9	0.766425	128126976	95080448	18939440	24992
10	0.770718	128126976	95080448	19595392	24992
11	0.762041	128126976	95080448	20251776	24992
12	0.933959	128126976	95080448	20908400	24992
13	0.749853	128126976	95080448	21565280	24992
14	0.745841	128126976	95080448	22222400	24992
15	0.763403	128126976	95080448	22879776	24992
16	1.051906	128126976	95080448	23537872	24992
17	0.777184	128126976	95080448	24196704	24992
18	0.76579	128126976	95080448	24855792	24992
19	0.767129	128126976	95080448	25515544	24992
20	1.239381	128126976	95080448	26175104	24992
21	0.808598	128126976	95080448	26834928	24992
22	0.764495	128126976	95080448	27494392	24992
23	0.760473	128126976	95080448	28154896	24992
24	0.758784	128126976	95080448	28815832	24992
25	1.510573	128126976	95080448	13193832	24992
26	0.798847	128126976	95080448	13855400	24992
27	0.770521	128126976	95080448	14517136	24992
28	0.768943	128126976	95080448	15179144	24992
29	1.050718	128126976	95080448	15841432	24992
30	0.842515	128126976	95080448	16515096	24992
31	0.782879	128126976	95080448	17177824	24992
32	0.77021	128126976	95080448	17840376	24992
33	0.777959	128126976	95080448	18502984	24992
34	0.782735	128126976	95080448	19165856	24992
35	1.480427	128126976	95080448	19829024	24992
36	0.789731	128126976	95080448	20492456	24992
37	0.798201	128126976	95080448	21156520	24992
38	0.993593	128126976	95080448	21820400	24992
39	0.780712	128126976	95080448	22484504	24992
40	0.964334	128126976	95080448	23148720	24992
41	0.788573	128126976	95080448	23813128	24992
42	0.967276	128126976	95080448	24477856	24992
43	0.827465	128126976	95080448	25157288	24992
44	0.774207	128126976	95080448	25822640	24992
45	0.775137	128126976	95080448	26488992	24992
46	0.774879	128126976	95080448	27154984	24992
47	0.793607	128126976	95080448	27821304	24992
48	0.77869	128126976	95080448	28487984	24992
49	0.779114	128126976	95080448	29154992	24992
50	1.595602	128126976	95080448	13759104	24992
51	0.798782	128126976	95080448	14426752	24992
52	0.795357	128126976	95080448	15094728	24992
53	0.782891	128126976	95080448	15762824	24992
54	1.544165	128126976	95080448	16431152	24992
55	0.995198	128126976	95080448	17099800	24992
56	0.784121	128126976	95080448	17768584	24992
57	0.785064	128126976	95080448	18437744	24992
58	0.786742	128126976	95080448	19107048	24992
59	0.824842	128126976	95080448	19776504	24992
60	0.805346	128126976	95080448	20446096	24992
61	0.785219	128126976	95080448	21115840	24992
62	0.786377	128126976	95080448	21785736	24992
63	0.797193	128126976	95080448	22455784	24992
64	0.852371	128126976	95080448	23125608	24992
65	0.790386	128126976	95080448	23795344	24992
66	0.797942	128126976	95080448	24465224	24992
67	0.809477	128126976	95080448	25135256	24992
68	0.795011	128126976	95080448	25805424	24992
69	1.156265	128126976	95080448	26496768	24992
70	0.773542	128126976	95080448	27166264	24992
71	0.778755	128126976	95080448	27835904	24992
72	0.776654	128126976	95080448	28505680	24992
73	0.781311	128126976	95080448	29175624	24992
74	1.727887	128126976	95080448	13900520	24992
75	0.905509	128126976	95080448	14571824	24992
76	0.78301	128126976	95080448	15242168	24992
77	0.856757	128126976	95080448	15912648	24992
78	0.787206	128126976	95080448	16583248	24992
79	0.777446	128126976	95080448	17253984	24992
80	0.778166	128126976	95080448	17925080	24992
81	0.838124	128126976	95080448	18597240	24992
82	0.816065	128126976	95080448	19268320	24992
83	0.795174	128126976	95080448	19939536	24992
84	0.781514	128126976	95080448	20612024	24992
85	0.783443	128126976	95080448	21283480	24992
86	0.857739	128126976	95080448	21954952	24992
87	0.802054	128126976	95080448	22627544	24992
88	0.776012	128126976	95080448	23299576	24992
89	0.777476	128126976	95080448	23971712	24992
90	0.774596	128126976	95080448	24643976	24992
91	0.899173	128126976	95080448	25316376	24992
92	0.806031	128126976	95080448	25989480	24992
93	0.783658	128126976	95080448	26662136	24992
94	0.786386	128126976	95080448	27334928	24992
95	0.781606	128126976	95080448	28007856	24992
96	0.855161	128126976	95080448	28680560	24992
97	0.804676	128126976	95080448	29353144	24992
98	0.782007	128126976	95080448	30025856	24992
99	1.64985	128126976	95080448	14808192	24992
100	0.818946	128126976	95080448	15481160	24992
101	0.812806	128126976	95080448	16154232	24992
102	0.804299	128126976	95080448	16827360	24992
103	0.792644	128126976	95080448	17500632	24992
104	0.807843	128126976	95080448	18174040	24992
105	0.793824	128126976	95080448	18847616	24992
106	1.563407	128126976	95080448	19521336	24992
107	1.615725	128126976	95080448	20195176	24992
108	1.464122	128126976	95080448	20869152	24992
109	1.50602	128126976	95080448	21559696	24992
110	0.804411	128126976	95080448	22233952	24992
111	0.792296	128126976	95080448	22908328	24992
112	0.910519	128126976	95080448	23583008	24992
113	0.810188	128126976	95080448	24259104	24992
114	0.785044	128126976	95080448	24933896	24992
115	0.802171	128126976	95080448	25608824	24992
116	0.783325	128126976	95080448	26283888	24992
117	0.782708	128126976	95080448	26959056	24992
118	0.776952	128126976	95080448	27634264	24992
119	0.775965	128126976	95080448	28309616	24992
120	1.065247	128126976	95080448	28985120	24992
121	0.806496	128126976	95080448	29661792	24992
122	0.778646	128126976	95080448	30337592	24992
123	1.76862	128126976	95080448	15115856	24992
124	0.78433	128126976	95080448	15791912	24992
125	0.782383	128126976	95080448	16468144	24992
126	0.788066	128126976	95080448	17144464	24992
127	0.786074	128126976	95080448	17820928	24992
128	0.788262	128126976	95080448	18497192	24992
129	0.777945	128126976	95080448	19173016	24992
130	0.78018	128126976	95080448	19848976	24992
131	0.781187	128126976	95080448	20525232	24992
132	0.779024	128126976	95080448	21201608	24992
133	0.813127	128126976	95080448	21878088	24992
134	0.774762	128126976	95080448	22554712	24992
135	0.78193	128126976	95080448	23231472	24992
136	0.780121	128126976	95080448	23908368	24992
137	0.78883	128126976	95080448	24585448	24992
138	0.791426	128126976	95080448	25262656	24992
139	0.788013	128126976	95080448	25940000	24992
140	0.782031	128126976	95080448	26617464	24992
141	0.782837	128126976	95080448	27295064	24992
142	0.784676	128126976	95080448	27974624	24992
143	0.803964	128126976	95080448	28652496	24992
144	0.795301	128126976	95080448	29330520	24992
145	0.954129	128126976	95080448	30008752	24992
146	0.831218	128126976	95080448	30688544	24992
147	1.844585	128126976	95080448	15517368	24992
148	0.811137	128126976	95080448	16195904	24992
149	0.81641	128126976	95080448	16874544	24992
150	0.805707	128126976	95080448	17553808	24992
151	0.815626	128126976	95080448	18233208	24992
152	0.800205	128126976	95080448	18912744	24992
153	0.801818	128126976	95080448	19592656	24992
154	0.814861	128126976	95080448	20272504	24992
155	0.808393	128126976	95080448	20952488	24992
156	0.808248	128126976	95080448	21632592	24992
157	0.805564	128126976	95080448	22312832	24992
158	0.802936	128126976	95080448	22993208	24992
159	0.807273	128126976	95080448	23673720	24992
160	0.973378	128126976	95080448	24354048	24992
161	1.416719	128126976	95080448	25035040	24992
162	1.468684	128126976	95080448	25715336	24992
163	1.626033	128126976	95080448	26395768	24992
164	1.361009	128126976	95080448	27089000	24992
165	0.839694	128126976	95080448	27769608	24992
166	0.822832	128126976	95080448	28450624	24992
167	0.781574	128126976	95080448	29131784	24992
168	0.796121	128126976	95080448	29813080	24992
169	0.781352	128126976	95080448	30494544	24992
170	0.783082	128126976	95080448	31176136	24992
171	1.708087	128126976	95080448	16064816	24992
172	0.808179	128126976	95080448	16746680	24992
173	0.811092	128126976	95080448	17428680	24992
174	1.322869	128126976	95080448	18110832	24992
175	0.808605	128126976	95080448	18793088	24992
176	0.830266	128126976	95080448	19478944	24992
177	0.80197	128126976	95080448	20161232	24992
178	0.808051	128126976	95080448	20843640	24992
179	0.81446	128126976	95080448	21526184	24992
180	0.808223	128126976	95080448	22208864	24992
181	0.819717	128126976	95080448	22891648	24992
182	0.801078	128126976	95080448	23574560	24992
183	0.805261	128126976	95080448	24257624	24992
184	0.994175	128126976	95080448	24940840	24992
185	0.787139	128126976	95080448	25624208	24992
186	0.787681	128126976	95080448	26307704	24992
187	0.783095	128126976	95080448	26991336	24992
188	0.795843	128126976	95080448	27675104	24992
189	0.785897	128126976	95080448	28359008	24992
190	0.78539	128126976	95080448	29043032	24992
191	0.786108	128126976	95080448	29727192	24992
192	0.792837	128126976	95080448	30411208	24992
193	0.803113	128126976	95080448	31095024	24992
194	0.883998	128126976	95080448	31779072	24992
195	1.756473	128126976	95080448	16721488	24992
196	0.808938	128126976	95080448	17405704	24992
197	0.993842	128126976	95080448	18090024	24992
198	0.790639	128126976	95080448	18774504	24992
199	0.791296	128126976	95080448	19459104	24992
200	1.515978	128126976	95080448	20144520	24992
201	0.828727	128126976	95080448	20829424	24992
202	0.799327	128126976	95080448	21514456	24992
203	0.792269	128126976	95080448	22199624	24992
204	0.793731	128126976	95080448	22884928	24992
205	0.865672	128126976	95080448	23587016	24992
206	0.798223	128126976	95080448	24272544	24992
207	0.792608	128126976	95080448	24958208	24992
208	0.789229	128126976	95080448	25644064	24992
209	0.796803	128126976	95080448	26330024	24992
210	0.829433	128126976	95080448	27016112	24992
211	0.813288	128126976	95080448	27702336	24992
212	0.7969	128126976	95080448	28388696	24992
213	0.806603	128126976	95080448	29075160	24992
214	0.797803	128126976	95080448	29761752	24992
215	1.058058	128126976	95080448	30448808	24992
216	1.272783	128126976	95080448	31139720	24992
217	0.810999	128126976	95080448	31826752	24992
218	0.797293	128126976	95080448	32513912	24992
219	1.790258	128126976	95080448	17514032	24992
220	0.876916	128126976	95080448	18201480	24992
221	0.833268	128126976	95080448	18890024	24992
222	1.000402	128126976	95080448	19577712	24992
223	0.905363	128126976	95080448	20265552	24992
224	0.819759	128126976	95080448	20954384	24992
225	0.7938	128126976	95080448	21641856	24992
226	0.80457	128126976	95080448	22329456	24992
227	0.80168	128126976	95080448	23017184	24992
228	0.792413	128126976	95080448	23705048	24992
229	0.80534	128126976	95080448	24395896	24992
230	0.793375	128126976	95080448	25083992	24992
231	0.844504	128126976	95080448	25772240	24992
232	0.827876	128126976	95080448	26460624	24992
233	0.788259	128126976	95080448	27149176	24992
234	0.792703	128126976	95080448	27837856	24992
235	0.805349	128126976	95080448	28526672	24992
236	0.980003	128126976	95080448	29215624	24992
237	0.79479	128126976	95080448	29904712	24992
238	0.790769	128126976	95080448	30593920	24992
239	0.795893	128126976	95080448	31283264	24992
240	0.801015	128126976	95080448	31972776	24992
241	0.824574	128126976	95080448	32662424	24992
242	0.804195	128126976	95080448	33352192	24992
243	1.862499	128126976	95080448	18415576	24992
244	0.836807	128126976	95080448	19105616	24992
245	0.816908	128126976	95080448	19795872	24992
246	0.808489	128126976	95080448	20486144	24992
247	0.812503	128126976	95080448	21176568	24992
248	0.813657	128126976	95080448	21867128	24992
249	0.826199	128126976	95080448	22557856	24992
250	0.810585	128126976	95080448	23248712	24992
251	0.813434	128126976	95080448	23939704	24992
252	0.812133	128126976	95080448	24630832	24992
253	0.8371	128126976	95080448	25322096	24992
254	0.82363	128126976	95080448	26013480	24992
255	0.821539	128126976	95080448	26705000	24992
256	0.816084	128126976	95080448	27396896	24992
257	0.820537	128126976	95080448	28088560	24992
258	0.8318	128126976	95080448	28780512	24992
259	0.823072	128126976	95080448	29472440	24992
260	0.822278	128126976	95080448	30164496	24992
261	0.821299	128126976	95080448	30856528	24992
262	0.817837	128126976	95080448	31548856	24992
263	1.001441	128126976	95080448	32241496	24992
264	0.806964	128126976	95080448	32934448	24992
265	0.803077	128126976	95080448	33628224	24992
266	0.79976	128126976	95080448	34322472	24992
267	1.868747	128126976	95080448	19454760	24992
268	0.807697	128126976	95080448	20149984	24992
269	0.818539	128126976	95080448	20845696	24992
270	0.812453	128126976	95080448	21541880	24992
271	0.824351	128126976	95080448	22238624	24992
272	0.807355	128126976	95080448	22935776	24992
273	0.806665	128126976	95080448	23633424	24992
274	0.805429	128126976	95080448	24331544	24992
275	0.809864	128126976	95080448	25030152	24992
276	0.992576	128126976	95080448	25729248	24992
277	0.826031	128126976	95080448	26428480	24992
278	0.811944	128126976	95080448	27127832	24992
279	0.810102	128126976	95080448	27827320	24992
280	0.813009	128126976	95080448	28526944	24992
281	0.805546	128126976	95080448	29226704	24992
282	0.802101	128126976	95080448	29926584	24992
283	0.814062	128126976	95080448	30626600	24992
284	0.806624	128126976	95080448	31326752	24992
285	0.835611	128126976	95080448	32027040	24992
286	0.81512	128126976	95080448	32727448	24992
287	0.820904	128126976	95080448	33427992	24992
288	0.813939	128126976	95080448	34128416	24992
289	0.825751	128126976	95080448	34828592	24992
290	1.914563	128126976	95080448	20063288	24992
291	0.822213	128126976	95080448	20763720	24992
292	0.818661	128126976	95080448	21464288	24992
293	0.834569	128126976	95080448	22164992	24992
294	0.807948	128126976	95080448	22865816	24992
295	0.811637	128126976	95080448	23566776	24992
296	0.808449	128126976	95080448	24267872	24992
297	0.821579	128126976	95080448	24969104	24992
298	0.819171	128126976	95080448	25670456	24992
299	0.816652	128126976	95080448	26371944	24992
300	0.82845	128126976	95080448	27073568	24992
301	0.813416	128126976	95080448	27775328	24992
302	0.998002	128126976	95080448	28477232	24992
303	0.841466	128126976	95080448	29179256	24992
304	0.816321	128126976	95080448	29881408	24992
305	0.814644	128126976	95080448	30583736	24992
306	0.820763	128126976	95080448	31286152	24992
307	0.828791	128126976	95080448	31988696	24992
308	0.81835	128126976	95080448	32691392	24992
309	0.822608	128126976	95080448	33394208	24992
310	0.809977	128126976	95080448	34097144	24992
311	0.822668	128126976	95080448	34800216	24992
312	1.014341	128126976	95080448	35503424	24992
313	0.820705	128126976	95080448	36206768	24992
314	1.994252	128126976	95080448	21538280	24992
315	0.997888	128126976	95080448	22241880	24992
316	0.820075	128126976	95080448	22945616	24992
317	0.869062	128126976	95080448	23649488	24992
318	0.852322	128126976	95080448	24353480	24992
319	0.830971	128126976	95080448	25057608	24992
320	0.82814	128126976	95080448	25761680	24992
321	0.821158	128126976	95080448	26465440	24992
322	0.823522	128126976	95080448	27169320	24992
323	0.822562	128126976	95080448	27873376	24992
324	0.836485	128126976	95080448	28577520	24992
325	0.824634	128126976	95080448	29281808	24992
326	0.819011	128126976	95080448	29986264	24992
327	0.820793	128126976	95080448	30690808	24992
328	0.836275	128126976	95080448	31395488	24992
329	0.819223	128126976	95080448	32100304	24992
330	0.820801	128126976	95080448	32805240	24992
331	0.82158	128126976	95080448	33510312	24992
332	0.821599	128126976	95080448	34215520	24992
333	0.839037	128126976	95080448	34920864	24992
334	0.823255	128126976	95080448	35626328	24992
335	0.824822	128126976	95080448	36331928	24992
336	0.825584	128126976	95080448	37037664	24992
337	2.096178	128126976	95080448	22427680	24992
338	0.847672	128126976	95080448	23133672	24992
339	0.846128	128126976	95080448	23839800	24992
340	0.849977	128126976	95080448	24546064	24992
341	1.062518	128126976	95080448	25252464	24992
342	0.829005	128126976	95080448	25958984	24992
343	0.832843	128126976	95080448	26665640	24992
344	0.836263	128126976	95080448	27372472	24992
345	0.844162	128126976	95080448	28079392	24992
346	0.827894	128126976	95080448	28786440	24992
347	0.826942	128126976	95080448	29493640	24992
348	0.854916	128126976	95080448	30200960	24992
349	0.966808	128126976	95080448	30908416	24992
350	0.888187	128126976	95080448	31616984	24992
351	0.838445	128126976	95080448	32324696	24992
352	0.833153	128126976	95080448	33032328	24992
353	0.832955	128126976	95080448	33739680	24992
354	1.03588	128126976	95080448	34447144	24992
355	0.840518	128126976	95080448	35154744	24992
356	0.835663	128126976	95080448	35862480	24992
357	0.840602	128126976	95080448	36570352	24992
358	0.8449	128126976	95080448	37278344	24992
359	0.835211	128126976	95080448	37986472	24992
360	2.092812	128126976	95080448	23415992	24992
361	0.840376	128126976	95080448	24124392	24992
362	0.841178	128126976	95080448	24832912	24992
363	0.83145	128126976	95080448	25541568	24992
364	0.845449	128126976	95080448	26250360	24992
365	0.839641	128126976	95080448	26959288	24992
366	0.851148	128126976	95080448	27668336	24992
367	0.838852	128126976	95080448	28377520	24992
368	0.834181	128126976	95080448	29086840	24992
369	0.838938	128126976	95080448	29796296	24992
370	0.839801	128126976	95080448	30505872	24992
371	0.847205	128126976	95080448	31215584	24992
372	0.838683	128126976	95080448	31925432	24992
373	0.838591	128126976	95080448	32635416	24992
374	0.828822	128126976	95080448	33345520	24992
375	0.842709	128126976	95080448	34055760	24992
376	0.843763	128126976	95080448	34766136	24992
377	0.831335	128126976	95080448	35476648	24992
378	0.834398	128126976	95080448	36187280	24992
379	0.832581	128126976	95080448	36898048	24992
380	1.039584	128126976	95080448	37608952	24992
381	0.841793	128126976	95080448	38319992	24992
382	0.837038	128126976	95080448	39031152	24992
383	2.284685	128126976	95080448	24509672	24992
384	0.876863	128126976	95080448	25220912	24992
385	0.858607	128126976	95080448	25931840	24992
386	0.863593	128126976	95080448	26642888	24992
387	0.874337	128126976	95080448	27354072	24992
388	0.865414	128126976	95080448	28065408	24992
389	0.872991	128126976	95080448	28776864	24992
390	0.854381	128126976	95080448	29488440	24992
391	1.023924	128126976	95080448	30200216	24992
392	0.882447	128126976	95080448	30912064	24992
393	0.849258	128126976	95080448	31624048	24992
394	0.837598	128126976	95080448	32336152	24992
395	0.839415	128126976	95080448	33048392	24992
396	0.861291	128126976	95080448	33760768	24992
397	0.846845	128126976	95080448	34473288	24992
398	1.595383	128126976	95080448	35187592	24992
399	1.57278	128126976	95080448	35900360	24992
400	1.549036	128126976	95080448	36613352	24992
401	1.296409	128126976	95080448	37339296	24992
402	0.873241	128126976	95080448	38052456	24992
403	0.85369	128126976	95080448	38765760	24992
404	0.855814	128126976	95080448	39479184	24992
405	0.850679	128126976	95080448	40192752	24992
406	2.256601	128126976	95080448	25738928	24992
407	0.85953	128126976	95080448	26452752	24992
408	0.861456	128126976	95080448	27166728	24992
409	0.868533	128126976	95080448	27880824	24992
410	0.855191	128126976	95080448	28595040	24992
411	0.85969	128126976	95080448	29309392	24992
412	0.863454	128126976	95080448	30023880	24992
413	0.862637	128126976	95080448	30738504	24992
414	1.048009	128126976	95080448	31453272	24992
415	0.858645	128126976	95080448	32168160	24992
416	0.860421	128126976	95080448	32883000	24992
417	0.855691	128126976	95080448	33597568	24992
418	0.869521	128126976	95080448	34312208	24992
419	0.850254	128126976	95080448	35026976	24992
420	0.849989	128126976	95080448	35741896	24992
421	0.865527	128126976	95080448	36456936	24992
422	0.853679	128126976	95080448	37172096	24992
423	0.851715	128126976	95080448	37887480	24992
424	0.845848	128126976	95080448	38602904	24992
425	0.844323	128126976	95080448	39318472	24992
426	0.85531	128126976	95080448	40034176	24992
427	1.054986	128126976	95080448	40750000	24992
428	0.864047	128126976	95080448	41465960	24992
429	2.284763	128126976	95080448	27048984	24992
430	0.880348	128126976	95080448	27765200	24992
431	0.877637	128126976	95080448	28481552	24992
432	0.868867	128126976	95080448	29198040	24992
433	0.886793	128126976	95080448	29914664	24992
434	0.880693	128126976	95080448	30631408	24992
435	0.873129	128126976	95080448	31348288	24992
436	0.876423	128126976	95080448	32065304	24992
437	0.875355	128126976	95080448	32782456	24992
438	0.89526	128126976	95080448	33499728	24992
439	0.870577	128126976	95080448	34217136	24992
440	0.891907	128126976	95080448	34934680	24992
441	0.855963	128126976	95080448	35652360	24992
442	0.855159	128126976	95080448	36370160	24992
443	0.919537	128126976	95080448	37088096	24992
444	0.861647	128126976	95080448	37806168	24992
445	0.852264	128126976	95080448	38524376	24992
446	0.853398	128126976	95080448	39242704	24992
447	0.870888	128126976	95080448	39961168	24992
448	0.860921	128126976	95080448	40679616	24992
449	0.857256	128126976	95080448	41397704	24992
450	0.861037	128126976	95080448	42115920	24992
451	0.876421	128126976	95080448	42834272	24992
452	2.380093	128126976	95080448	28450360	24992
453	0.885138	128126976	95080448	29168984	24992
454	0.918608	128126976	95080448	29887728	24992
455	0.856133	128126976	95080448	30606608	24992
456	0.851473	128126976	95080448	31325624	24992
457	0.85339	128126976	95080448	32044776	24992
458	0.856439	128126976	95080448	32764048	24992
459	0.918462	128126976	95080448	33483456	24992
460	0.856019	128126976	95080448	34203000	24992
461	0.86729	128126976	95080448	34922680	24992
462	0.859016	128126976	95080448	35642480	24992
463	1.315312	128126976	95080448	36363576	24992
464	0.906133	128126976	95080448	37083648	24992
465	0.888419	128126976	95080448	37803856	24992
466	0.875268	128126976	95080448	38524184	24992
467	0.881162	128126976	95080448	39244648	24992
468	0.868619	128126976	95080448	39965248	24992
469	0.870403	128126976	95080448	40685984	24992
470	0.860736	128126976	95080448	41406840	24992
471	0.873249	128126976	95080448	42127872	24992
472	0.860516	128126976	95080448	42848992	24992
473	0.872107	128126976	95080448	43570256	24992
474	0.859132	128126976	95080448	44291680	24992
475	2.545964	128126976	95080448	29978424	24992
476	0.885435	128126976	95080448	30700080	24992
477	0.895681	128126976	95080448	31421872	24992
478	0.896784	128126976	95080448	32143784	24992
479	0.892736	128126976	95080448	32865832	24992
480	0.882879	128126976	95080448	33587880	24992
481	0.881892	128126976	95080448	34309552	24992
482	0.899381	128126976	95080448	35031352	24992
483	0.889871	128126976	95080448	35753288	24992
484	0.89139	128126976	95080448	36475360	24992
485	0.89072	128126976	95080448	37197568	24992
486	0.876243	128126976	95080448	37919896	24992
487	1.0791	128126976	95080448	38642360	24992
488	0.874557	128126976	95080448	39364960	24992
489	0.865418	128126976	95080448	40087696	24992
490	0.880002	128126976	95080448	40810552	24992
491	1.185302	128126976	95080448	41533808	24992
492	0.89741	128126976	95080448	42256936	24992
493	0.917827	128126976	95080448	42983960	24992
494	0.874089	128126976	95080448	43707312	24992
495	0.933551	128126976	95080448	44430800	24992
496	0.889535	128126976	95080448	45154424	24992
497	0.872214	128126976	95080448	45878184	24992
498	2.470507	128126976	95080448	31618104	24992
499	0.901147	128126976	95080448	32342120	24992
500	0.910474	128126976	95080448	33066272	24992
501	0.886141	128126976	95080448	33790560	24992
502	0.878291	128126976	95080448	34514968	24992
503	0.870863	128126976	95080448	35239512	24992
504	0.875095	128126976	95080448	35964192	24992
505	0.88324	128126976	95080448	36689008	24992
506	0.890573	128126976	95080448	37413944	24992
507	0.881508	128126976	95080448	38139016	24992
508	0.869436	128126976	95080448	38864224	24992
509	0.871845	128126976	95080448	39589568	24992
510	0.874903	128126976	95080448	40315032	24992
511	1.083409	128126976	95080448	41040632	24992
512	0.883536	128126976	95080448	41766768	24992
513	0.87712	128126976	95080448	42492512	24992
514	0.880268	128126976	95080448	43218376	24992
515	0.887595	128126976	95080448	43944496	24992
516	0.890867	128126976	95080448	44670624	24992
517	0.887615	128126976	95080448	45396512	24992
518	0.876677	128126976	95080448	46122648	24992
519	0.901264	128126976	95080448	46849048	24992
520	0.889856	128126976	95080448	47575712	24992
521	2.457281	128126976	95080448	33373192	24992
522	1.091814	128126976	95080448	34100880	24992
523	0.884397	128126976	95080448	34828832	24992
524	0.885194	128126976	95080448	35557048	24992
525	0.887042	128126976	95080448	36285528	24992
526	0.900995	128126976	95080448	37014256	24992
527	0.88509	128126976	95080448	37743248	24992
528	0.896243	128126976	95080448	38472504	24992
529	0.886845	128126976	95080448	39202024	24992
530	1.100535	128126976	95080448	39931792	24992
531	0.897143	128126976	95080448	40661824	24992
532	0.897148	128126976	95080448	41392120	24992
533	0.910654	128126976	95080448	42122680	24992
534	0.893703	128126976	95080448	42853488	24992
535	0.889499	128126976	95080448	43584560	24992
536	0.897222	128126976	95080448	44315896	24992
537	0.893147	128126976	95080448	45047496	24992
538	0.890531	128126976	95080448	45779344	24992
539	0.894721	128126976	95080448	46511456	24992
540	0.888851	128126976	95080448	47243832	24992
541	0.899299	128126976	95080448	47976472	24992
542	0.894736	128126976	95080448	48709576	24992
543	2.617866	128126976	95080448	34601608	24992
544	0.924626	128126976	95080448	35334928	24992
545	1.090625	128126976	95080448	36067968	24992
546	0.930715	128126976	95080448	36801256	24992
547	0.906725	128126976	95080448	37534808	24992
548	0.904357	128126976	95080448	38268624	24992
549	0.924413	128126976	95080448	39002704	24992
550	0.900878	128126976	95080448	39737032	24992
551	0.89191	128126976	95080448	40471624	24992
552	0.894661	128126976	95080448	41206480	24992
553	0.893768	128126976	95080448	41941600	24992
554	0.916457	128126976	95080448	42677000	24992
555	0.909298	128126976	95080448	43412632	24992
556	0.902079	128126976	95080448	44155328	24992
557	1.712595	128126976	95080448	44892104	24992
558	0.938472	128126976	95080448	45628512	24992
559	0.918975	128126976	95080448	46365184	24992
560	0.920794	128126976	95080448	47102120	24992
561	0.972399	128126976	95080448	47850832	24992
562	0.932276	128126976	95080448	48587432	24992
563	1.091831	128126976	95080448	49324280	24992
564	0.948253	128454656	95080448	50061376	24992
565	2.777204	128454656	95080448	36181216	24992
566	0.930601	128454656	95080448	36918792	24992
567	0.932762	128454656	95080448	37656616	24992
568	0.91374	128454656	95080448	38394688	24992
569	0.906528	128454656	95080448	39133008	24992
570	0.907989	128454656	95080448	39871560	24992
571	0.916794	128724992	95080448	40610360	24992
572	0.917426	128724992	95080448	41349408	24992
573	0.903721	128724992	95080448	42088704	24992
574	0.90135	128724992	95080448	42828232	24992
575	0.90483	128724992	95080448	43568008	24992
576	0.927358	128724992	95080448	44308016	24992
577	0.919696	128724992	95080448	45047648	24992
578	0.910189	128724992	95080448	45787512	24992
579	0.974583	128724992	95080448	46527632	24992
580	1.131528	128724992	95080448	47267984	24992
581	0.931798	128724992	95080448	48008592	24992
582	0.900131	128724992	95080448	48749432	24992
583	0.907341	128724992	95080448	49490520	24992
584	0.910546	128724992	95080448	50231856	24992
585	0.910518	128724992	95080448	50973440	24992
586	0.917683	128724992	95080448	51715256	24992
587	2.891388	128724992	95080448	37970944	24992
588	0.947946	128724992	95080448	38713248	24992
589	0.937353	128724992	95080448	39455808	24992
590	1.134389	128724992	95080448	40198720	24992
591	0.939359	128724992	95080448	40941768	24992
592	0.931495	128724992	95080448	41685056	24992
593	0.921336	128724992	95080448	42428592	24992
594	0.94351	128724992	95080448	43172360	24992
595	0.925665	128724992	95080448	43916376	24992
596	0.920977	128724992	95080448	44660640	24992
597	0.929555	128724992	95080448	45405152	24992
598	0.917916	128724992	95080448	46149928	24992
599	0.91141	128724992	95080448	46894920	24992
600	0.92145	128724992	95080448	47640160	24992
601	0.910602	128724992	95080448	48385648	24992
602	0.930559	128724992	95080448	49131368	24992
603	0.917951	128724992	95080448	49877336	24992
604	0.922352	128724992	95080448	50623552	24992
605	0.920753	128724992	95080448	51370016	24992
606	0.92543	128724992	95080448	52116728	24992
607	0.936743	128724992	95080448	52863672	24992
608	0.928201	128724992	95080448	53610808	24992
609	2.960359	128724992	95080448	39890880	24992
610	0.933251	128724992	95080448	40637912	24992
611	0.935863	128724992	95080448	41385192	24992
612	0.94182	128724992	95080448	42132720	24992
613	1.153954	128724992	95080448	42880496	24992
614	1.100524	128724992	95080448	43628544	24992
615	1.035107	128724992	95080448	44376808	24992
616	1.019433	128724992	95080448	45125312	24992
617	1.05979	128724992	95080448	45874064	24992
618	1.041991	128724992	95080448	46623048	24992
619	0.994499	128724992	95080448	47372280	24992
620	0.981749	128724992	95080448	48121760	24992
621	1.047344	128724992	95080448	48871488	24992
622	1.132799	128724992	95080448	49621584	24992
623	1.058487	128724992	95604736	50371800	24992
624	1.296565	128724992	95604736	51122256	24992
625	1.013106	128724992	95604736	51872960	24992
626	1.012489	128724992	95604736	52623896	24992
627	1.066578	128724992	95604736	53375080	24992
628	1.100902	128724992	95604736	54126512	24992
629	1.109324	128995328	95604736	54878192	24992
630	1.007036	128995328	95604736	55630008	24992
631	4.52951	130076672	96653312	42059216	24992
632	1.067471	130076672	96653312	42811584	24992
633	1.059009	130076672	96653312	43564056	24992
634	1.036971	130076672	96653312	44316752	24992
635	1.076889	130076672	96653312	45069680	24992
636	1.108705	130076672	96653312	45822824	24992
637	1.079216	130347008	97177600	46576200	24992
638	1.014879	130347008	97177600	47329808	24992
639	1.0464	130347008	97177600	48083648	24992
640	1.077727	130347008	97177600	48837672	24992
641	1.069062	130347008	97177600	49591320	24992
642	1.320439	130347008	97177600	50345200	24992
643	1.099523	130617344	97177600	51099312	24992
644	1.109849	130617344	97177600	51853640	24992
645	1.127415	130617344	97177600	52608224	24992
646	0.995805	130617344	97177600	53362904	24992
647	1.081067	130617344	97177600	54117832	24992
648	1.078305	130617344	97177600	54873008	24992
649	1.230187	130887680	97701888	55628432	24992
650	1.143877	130887680	97701888	56384088	24992
651	1.099808	130887680	97701888	57139992	24992
652	1.253711	130887680	97701888	57896144	24992
653	4.504567	131969024	98750464	44527504	24992
654	1.023927	132239360	98750464	45284136	24992
655	1.153981	132239360	98750464	46041016	24992
656	1.157875	132239360	98750464	46798144	24992
657	1.217284	132239360	98750464	47555520	24992
658	1.392638	132239360	98750464	48313128	24992
659	1.278907	132239360	99274752	49070984	24992
660	1.17208	132509696	99274752	49829088	24992
661	1.158892	132509696	99274752	50587440	24992
662	1.162963	132509696	99274752	51346280	24992
663	1.538724	132509696	99274752	52104992	24992
664	1.513645	132509696	99274752	52863944	24992
665	1.59845	132509696	99274752	53623144	24992
666	1.311229	132509696	99274752	54382592	24992
667	2.407287	132780032	99274752	55143392	24992
668	1.821018	132780032	99274752	55904408	24992
669	1.78449	132780032	99274752	56664584	24992
670	1.751052	132780032	99274752	57425008	24992
671	1.794266	132780032	99799040	58185680	24992
672	1.812965	133050368	99799040	58946568	24992
673	1.798404	133050368	99799040	59707080	24992
674	6.549433	134131712	100847616	46441104	24992
675	1.91702	134131712	100847616	47202112	24992
676	1.951997	134402048	100847616	47963352	24992
677	2.135447	134402048	100847616	48724840	24992
678	1.949944	134402048	100847616	49486472	24992
679	1.847201	134402048	101371904	50248344	24992
680	1.947441	134402048	101371904	51010464	24992
681	2.013729	134402048	101371904	51772832	24992
682	1.996818	134672384	101371904	52535432	24992
683	2.221594	134672384	101371904	53298280	24992
684	2.054433	134672384	101371904	54061376	24992
685	2.08641	134672384	101371904	54824720	24992
686	2.088952	134672384	101371904	55588296	24992
687	2.122888	134672384	101371904	56352120	24992
688	2.139084	134942720	101371904	57116192	24992
689	2.173944	134942720	101371904	57880536	24992
690	2.201545	134942720	101896192	58645096	24992
691	2.387489	134942720	101896192	59409896	24992
692	2.262335	134942720	101896192	60174944	24992
693	2.319009	135213056	101896192	60940240	24992
694	2.394838	135213056	101896192	61705808	24992
695	4.432807	117800960	83021824	46789176	24992
696	1.112669	115179520	83021824	47555200	24992
697	1.116069	115179520	83021824	48321472	24992
698	1.128267	115179520	83021824	49087976	24992
699	1.097971	115179520	83021824	49854808	24992
700	1.019923	115179520	83021824	50621808	24992
701	1.186128	115449856	83021824	51389056	24992
702	0.985509	115449856	83021824	52156536	24992
703	0.986766	115449856	83021824	52924264	24992
704	0.985367	115449856	83021824	53692248	24992
705	1.008545	115449856	83021824	54459824	24992
706	0.991501	115449856	83021824	55227640	24992
707	0.996664	115720192	83021824	55995704	24992
708	0.999644	115720192	83021824	56764016	24992
709	1.040962	115720192	83021824	57532576	24992
710	1.035062	115720192	83021824	58301368	24992
711	0.988716	115720192	83021824	59070408	24992
712	1.027155	115720192	83021824	59839696	24992
713	1.027259	115720192	83021824	60609232	24992
714	0.990851	115720192	83021824	61379000	24992
715	1.001629	115720192	83021824	62149016	24992
716	4.291929	116801536	83546112	49126256	24992
717	1.013781	116801536	83546112	49896768	24992
718	0.993077	117071872	83546112	50667512	24992
719	0.987581	117071872	83546112	51438504	24992
720	1.011049	117071872	83546112	52209744	24992
721	1.216784	117071872	83546112	52981232	24992
722	1.004904	117071872	83546112	53752952	24992
723	1.023132	117071872	84070400	54524920	24992
724	1.016468	117342208	84070400	55297136	24992
725	1.009492	117342208	84070400	56069600	24992
726	0.985655	117342208	84070400	56842296	24992
727	0.977978	117342208	84070400	57615240	24992
728	1.165294	117342208	84070400	58388432	24992
729	0.988094	117612544	84070400	59161872	24992
730	0.98842	117612544	84070400	59935544	24992
731	0.988839	117612544	84070400	60709512	24992
732	1.201199	117612544	84070400	61483680	24992
733	0.996467	117612544	84070400	62258096	24992
734	1.016106	117612544	84594688	63032744	24992
735	1.019494	117882880	84594688	63807640	24992
736	4.284886	119234560	86167552	50892696	24992
737	1.039997	119234560	86167552	51667440	24992
738	1.00988	119234560	86167552	52442424	24992
739	1.015527	119234560	86167552	53217680	24992
740	1.040757	119504896	86167552	53993152	24992
741	1.017547	119504896	86167552	54768880	24992
742	0.989989	119504896	86167552	55544840	24992
743	0.995224	119504896	86167552	56321048	24992
744	1.207365	119504896	86167552	57097504	24992
745	0.995775	119775232	86167552	57874208	24992
746	1.008283	119775232	86167552	58651168	24992
747	0.999616	119775232	86167552	59428360	24992
748	1.023777	119775232	86167552	60205792	24992
749	1.027663	119775232	86691840	60983472	24992
750	1.004672	119775232	86691840	61761384	24992
751	1.209509	120045568	86691840	62539568	24992
752	1.041636	120045568	86691840	63317968	24992
753	1.016362	120045568	86691840	64096624	24992
754	1.020553	120045568	86691840	64875512	24992
755	1.035762	120045568	86691840	65654648	24992
756	1.034927	120315904	86691840	66434088	24992
757	4.190607	121667584	88264704	53654680	24992
758	1.012405	121667584	88264704	54434552	24992
759	1.871995	121667584	88264704	55214680	24992
760	1.016657	121667584	88264704	55995040	24992
761	1.012148	121937920	88264704	56775648	24992
762	1.093007	121937920	88788992	57568648	24992
763	1.023697	121937920	88788992	58349808	24992
764	1.005863	121937920	88788992	59131120	24992
765	1.012001	121937920	88788992	59912688	24992
766	1.025598	122208256	88788992	60694488	24992
767	1.063641	122208256	88788992	61476536	24992
768	1.033591	122208256	88788992	62258880	24992
769	1.03036	122208256	88788992	63040784	24992
770	1.052328	122208256	88788992	63822944	24992
771	1.033877	122478592	88788992	64605336	24992
772	1.064675	122478592	89313280	65387968	24992
773	1.036504	122478592	89313280	66170848	24992
774	1.017117	122478592	89313280	66953960	24992
775	1.002148	122478592	89313280	67737368	24992
776	1.013244	122748928	89313280	68520976	24992
777	1.021422	122748928	89313280	69304832	24992
778	4.524015	124100608	90886144	56707272	24992
779	1.026939	124370944	90886144	57491712	24992
780	1.029368	124370944	90886144	58276288	24992
781	1.025875	124370944	90886144	59061120	24992
782	1.079959	124370944	90886144	59846184	24992
783	1.031475	124370944	90886144	60631496	24992
784	1.054251	124641280	91410432	61417168	24992
785	1.046769	124641280	91410432	62202976	24992
786	1.036935	124641280	91410432	62989080	24992
787	1.029829	124641280	91410432	63775368	24992
788	1.043789	124641280	91410432	64561904	24992
789	1.256393	124911616	91410432	65348688	24992
790	1.015759	124911616	91410432	66135704	24992
791	1.013291	124911616	91410432	66922968	24992
792	1.020742	124911616	91410432	67710480	24992
793	1.089787	124911616	91410432	68498240	24992
794	1.739563	125181952	91934720	69286248	24992
795	1.046183	125181952	91934720	70074488	24992
796	1.234373	125181952	91934720	70862976	24992
797	1.046311	125181952	91934720	71651712	24992
798	4.986013	126803968	94031872	59166352	24992
799	1.052857	126803968	94031872	59955568	24992
800	1.054623	127074304	94031872	60745120	24992
801	1.036941	127074304	94031872	61534184	24992
802	1.041084	127074304	94031872	62323544	24992
803	1.062205	127074304	94031872	63113104	24992
804	1.054275	127074304	94031872	63902904	24992
805	1.052256	127344640	94031872	64692952	24992
806	1.018059	127344640	94031872	65483232	24992
807	1.226801	127344640	94031872	66273760	24992
808	1.022584	127344640	94031872	67064536	24992
809	1.026184	127344640	94031872	67855624	24992
810	1.047821	127614976	94031872	68646880	24992
811	1.033628	127614976	94031872	69438384	24992
812	1.029886	127614976	94031872	70230136	24992
813	1.066366	127614976	94556160	71022136	24992
814	1.060071	127614976	94556160	71814368	24992
815	1.042908	127885312	94556160	72606848	24992
816	1.043953	127885312	94556160	73399632	24992
817	1.049908	127885312	94556160	74192600	24992
818	4.568055	129507328	96653312	61748176	24992
819	1.332634	129507328	96653312	62541632	24992
820	1.091348	129507328	96653312	63337936	24992
821	1.105226	129777664	96653312	64131880	24992
822	1.052832	129777664	96653312	64926272	24992
823	1.033447	129777664	96653312	65720704	24992
824	1.029849	129777664	96653312	66515384	24992
825	1.246273	129777664	96653312	67310312	24992
826	1.04454	130048000	96653312	68105472	24992
827	1.041063	130048000	96653312	68900880	24992
828	1.066526	130048000	96653312	69696536	24992
829	1.058316	130048000	96653312	70492440	24992
830	1.047689	130048000	96653312	71288576	24992
831	1.046474	130318336	96653312	72084960	24992
832	1.085535	130318336	97177600	72881680	24992
833	1.056252	130318336	97177600	73677912	24992
834	1.072411	130318336	97177600	74474384	24992
835	1.074385	130588672	97177600	75271104	24992
836	1.274071	130588672	97177600	76068096	24992
837	1.072741	130588672	97177600	76865304	24992
838	4.707811	132210688	99274752	64553648	24992
839	1.055889	132210688	99274752	65351344	24992
840	1.044705	132481024	99274752	66149288	24992
841	1.255729	132481024	99274752	66947480	24992
842	1.04805	132481024	99274752	67745904	24992
843	1.127584	132481024	99274752	68544576	24992
844	1.129326	132481024	99274752	69343504	24992
845	1.057508	132751360	99274752	70142664	24992
846	1.12645	132751360	99274752	70942072	24992
847	1.059079	132751360	99274752	71741728	24992
848	1.065051	132751360	99274752	72541624	24992
849	1.075898	132751360	99274752	73341768	24992
850	1.110893	133021696	99799040	74152480	24992
851	1.070006	133021696	99799040	74953104	24992
852	1.073254	133021696	99799040	75753976	24992
853	1.074029	133021696	99799040	76555200	24992
854	1.253455	133292032	99799040	77356560	24992
855	1.048651	133292032	99799040	78158232	24992
856	1.048762	133292032	99799040	78960072	24992
857	1.0635	133292032	99799040	79762168	24992
858	4.870945	135184384	101896192	67583048	24992
859	1.07324	135184384	101896192	68385624	24992
860	1.077657	135184384	101896192	69188448	24992
861	1.279831	135184384	101896192	69991520	24992
862	1.064402	135454720	101896192	70794824	24992
863	1.067215	135454720	101896192	71598416	24992
864	1.079399	135454720	101896192	72402312	24992
865	1.081158	135454720	101896192	73205800	24992
866	1.099233	135454720	102420480	74009448	24992
867	1.079819	135725056	102420480	74813336	24992
868	1.279061	135725056	102420480	75617472	24992
869	1.088036	135725056	102420480	76421856	24992
870	1.04801	135725056	102420480	77226472	24992
871	1.081609	135725056	102420480	78031336	24992
872	1.067437	135995392	102420480	78836448	24992
873	1.058053	135995392	102420480	79641808	24992
874	1.114906	135995392	102420480	80447496	24992
875	1.103735	135995392	102944768	81253336	24992
876	1.087848	136265728	102944768	82059448	24992
877	4.95768	137887744	105041920	69930392	24992
878	1.258036	138158080	105041920	70736960	24992
879	1.117079	138158080	105041920	71543776	24992
880	1.077863	138158080	105041920	72350840	24992
881	1.080912	138158080	105041920	73158152	24992
882	1.279714	138158080	105041920	73965696	24992
883	1.08911	138428416	105041920	74773488	24992
884	1.10446	138428416	105041920	75581600	24992
885	1.11137	138428416	105041920	76389880	24992
886	1.055564	138428416	105041920	77198464	24992
887	1.059467	138698752	105041920	78007232	24992
888	1.059617	138698752	105041920	78816272	24992
889	1.292701	138698752	105566208	79625528	24992
890	1.067599	138698752	105566208	80435024	24992
891	1.06785	138698752	105566208	81244768	24992
892	1.087059	138969088	105566208	82054760	24992
893	1.077645	138969088	105566208	82865000	24992
894	1.0803	138969088	105566208	83675472	24992
895	1.080944	138969088	105566208	84486208	24992
896	1.145777	138969088	105566208	85297304	24992
897	5.115122	140861440	107663360	73287448	24992
898	1.107655	140861440	107663360	74098256	24992
899	1.116552	141131776	107663360	74909312	24992
900	1.096471	141131776	107663360	75720616	24992
901	1.09871	141131776	107663360	76532168	24992
902	1.071121	141131776	107663360	77343952	24992
903	1.095175	141131776	107663360	78155984	24992
904	1.090007	141402112	108187648	78968272	24992
905	1.072889	141402112	108187648	79780792	24992
906	1.262274	141402112	108187648	80593568	24992
907	1.104188	141402112	108187648	81406576	24992
908	1.078184	141672448	108187648	82219888	24992
909	1.084525	141672448	108187648	83033384	24992
910	1.102472	141672448	108187648	83847120	24992
911	1.094852	141672448	108187648	84661104	24992
912	1.105315	141672448	108187648	85475336	24992
913	1.311283	141942784	108711936	86289816	24992
914	1.147151	141942784	108711936	87104528	24992
915	1.111984	141942784	108711936	87919488	24992
916	5.551513	143835136	110809088	76032440	24992
917	1.168171	144105472	110809088	76847896	24992
918	1.083774	144105472	110809088	77663584	24992
919	1.083182	144105472	110809088	78479520	24992
920	1.108155	144105472	110809088	79295704	24992
921	1.095383	144375808	110809088	80112136	24992
922	1.082227	144375808	110809088	80928800	24992
923	1.108433	144375808	110809088	81745712	24992
924	1.112934	144375808	111333376	82562912	24992
925	1.098701	144375808	111333376	83380312	24992
926	1.105487	144646144	111333376	84197992	24992
927	1.112411	144646144	111333376	85015888	24992
928	1.106554	144646144	111333376	85834192	24992
929	1.113672	144646144	111333376	86651928	24992
930	1.771268	144916480	111333376	87470016	24992
931	1.148582	144916480	111333376	88288248	24992
932	1.12189	144916480	111333376	89106720	24992
933	1.354532	144916480	111857664	89925440	24992
934	1.092404	145186816	111857664	90744392	24992
935	5.637792	147079168	113954816	78885536	24992
936	1.140811	147079168	113954816	79704976	24992
937	1.091498	147079168	113954816	80524704	24992
938	1.094354	147079168	113954816	81344632	24992
939	1.476281	147349504	113954816	82164840	24992
940	1.168793	147349504	113954816	83009040	24992
941	1.104971	147349504	113954816	83829752	24992
942	1.120238	147349504	113954816	84650664	24992
943	1.10754	147619840	113954816	85471816	24992
944	1.110397	147619840	113954816	86293216	24992
945	1.145273	147619840	114479104	87114864	24992
946	1.133572	147619840	114479104	87936744	24992
947	1.119099	147619840	114479104	88758872	24992
948	1.122978	147890176	114479104	89581248	24992
949	1.339319	147890176	114479104	90403872	24992
950	1.091347	147890176	114479104	91226728	24992
951	1.096606	147890176	114479104	92049832	24992
952	1.091121	148160512	114479104	92873184	24992
953	1.127355	148160512	115003392	93696784	24992
954	5.490925	150052864	117100544	81991704	24992
955	1.144756	150052864	117100544	82815792	24992
956	1.328123	150323200	117100544	83640128	24992
957	1.112894	150323200	117100544	84464696	24992
958	1.115378	150323200	117100544	85289512	24992
959	1.14278	150323200	117100544	86114576	24992
960	1.120179	150593536	117100544	86940056	24992
961	1.121894	150593536	117100544	87764968	24992
962	1.149591	150593536	117100544	88590120	24992
963	1.139729	150593536	117100544	89415520	24992
964	1.163775	150863872	117624832	90241184	24992
965	1.14498	150863872	117624832	91067064	24992
966	1.119716	150863872	117624832	91893184	24992
967	1.10917	150863872	117624832	92719552	24992
968	1.116649	151134208	117624832	93546168	24992
969	1.117409	151134208	117624832	94373032	24992
970	1.113337	151134208	117624832	95200128	24992
971	1.113604	151134208	117624832	96027472	24992
972	1.151078	151134208	118149120	96855064	24992
973	5.836055	153296896	120246272	85259280	24992
974	1.145397	153296896	120246272	86087360	24992
975	1.143427	153567232	120246272	86915680	24992
976	1.151289	153567232	120246272	87744248	24992
977	1.133224	153567232	120246272	88573064	24992
978	1.138994	153567232	120246272	89402112	24992
979	1.159222	153837568	120246272	90231408	24992
980	1.144419	153837568	120246272	91060952	24992
981	1.137359	153837568	120246272	91890744	24992
982	1.331917	153837568	120770560	92720768	24992
983	1.114745	153837568	120770560	93551040	24992
984	1.108831	154107904	120770560	94381560	24992
985	1.124676	154107904	120770560	95212328	24992
986	1.131385	154107904	120770560	96043328	24992
987	1.128752	154107904	120770560	96874576	24992
988	1.124666	154378240	120770560	97706072	24992
989	1.144702	154378240	120770560	98537880	24992
990	1.218978	154378240	121294848	99369856	24992
991	1.140674	154378240	121294848	100202120	24992
992	5.77241	156540928	123392000	88717976	24992
993	1.157441	156540928	123392000	89550048	24992
994	1.153881	156811264	123392000	90382360	24992
995	1.16764	156811264	123392000	91214920	24992
996	1.150102	156811264	123392000	92047728	24992
997	1.160226	156811264	123392000	92880784	24992
998	1.313239	157081600	123392000	93714072	24992
999	1.143414	157081600	123916288	94547608	24992
1000	1.12017	157081600	123916288	95381392	24992
