x	Duration	RSS	HeapTotal	HeapUsed	External
0	NA	107823104	75157504	13034856	24992
1	1.01128	107823104	75157504	13687952	24992
2	0.929048	107823104	75157504	14340976	24992
3	0.924014	107823104	75157504	14994032	24992
4	0.888356	107823104	75157504	15647240	24992
5	0.886423	107823104	75157504	16300632	24992
6	0.870056	107823104	75157504	16954168	24992
7	0.896754	107823104	75157504	17607888	24992
8	0.986656	107823104	75157504	18265776	24992
9	0.922616	107823104	75157504	18921400	24992
10	0.879684	107823104	75157504	19576904	24992
11	0.877361	107823104	75157504	20232824	24992
12	0.89783	107823104	75157504	20888968	24992
13	0.888432	107823104	75157504	21545352	24992
14	0.912894	107823104	75157504	22201960	24992
15	0.877963	107823104	75157504	22858808	24992
16	1.20051	107823104	75157504	23516296	24992
17	0.727487	107823104	75157504	24174496	24992
18	0.728425	107823104	75157504	24832968	24992
19	0.731692	107823104	75157504	25492080	24992
20	0.73437	107823104	75157504	26150968	24992
21	0.950129	107823104	75157504	26810168	24992
22	0.730674	107823104	75157504	27468976	24992
23	0.728753	107823104	75157504	28128792	24992
24	0.730485	107823104	75157504	28789008	24992
25	1.410111	107823104	75157504	13142872	24992
26	0.759453	107823104	75157504	13803600	24992
27	0.737887	107823104	75157504	14464456	24992
28	0.736774	107823104	75157504	15125552	24992
29	0.734677	107823104	75157504	15786896	24992
30	0.93844	107823104	75157504	16448472	24992
31	0.756411	107823104	75157504	17110296	24992
32	0.740784	107823104	75157504	17771984	24992
33	0.740435	107823104	75157504	18433696	24992
34	0.738113	107823104	75157504	19095640	24992
35	0.75075	107823104	75157504	19757832	24992
36	0.744289	107823104	75157504	20420272	24992
37	0.747991	107823104	75157504	21082992	24992
38	0.741862	107823104	75157504	21745784	24992
39	0.744273	107823104	75157504	22408784	24992
40	0.777019	107823104	75157504	23071880	24992
41	0.763521	107823104	75157504	23735216	24992
42	0.742107	107823104	75157504	24398856	24992
43	0.742622	107823104	75157504	25062808	24992
44	0.746036	107823104	75157504	25727072	24992
45	0.983992	107823104	75157504	26392320	24992
46	0.771576	107823104	75157504	27057192	24992
47	0.753339	107823104	75157504	27722376	24992
48	0.749048	107823104	75157504	28387904	24992
49	0.750402	107823104	75157504	29053744	24992
50	1.406087	107823104	75157504	13553280	24992
51	0.777803	107823104	75157504	14219800	24992
52	0.773147	107823104	75157504	14886560	24992
53	0.775161	107823104	75157504	15553424	24992
54	0.773661	107823104	75157504	16220488	24992
55	0.767385	107823104	75157504	16887872	24992
56	0.766637	107823104	75157504	17555376	24992
57	0.768843	107823104	75157504	18223240	24992
58	0.769494	107823104	75157504	18891392	24992
59	0.784	107823104	75157504	19559520	24992
60	0.774027	107823104	75157504	20227768	24992
61	0.772904	107823104	75157504	20896152	24992
62	0.77301	107823104	75157504	21564672	24992
63	0.773098	107823104	75157504	22233328	24992
64	0.789192	107823104	75157504	22901744	24992
65	0.781988	107823104	75157504	23570104	24992
66	0.786602	107823104	75157504	24238544	24992
67	0.784009	107823104	75157504	24907120	24992
68	0.788892	107823104	75157504	25575816	24992
69	0.791788	107823104	75157504	26244616	24992
70	0.772679	107823104	75157504	26913664	24992
71	0.776637	107823104	75157504	27582856	24992
72	0.77741	107823104	75157504	28252224	24992
73	0.899685	107823104	75157504	28921728	24992
74	1.041116	107823104	75157504	29592448	24992
75	1.51287	107823104	75157504	14169016	24992
76	0.778224	107823104	75157504	14838912	24992
77	0.777326	107823104	75157504	15508944	24992
78	0.78096	107823104	75157504	16179096	24992
79	0.777355	107823104	75157504	16849384	24992
80	0.78036	107823104	75157504	17520032	24992
81	0.811029	107823104	75157504	18191776	24992
82	0.798113	107823104	75157504	18862416	24992
83	0.780233	107823104	75157504	19533192	24992
84	0.778186	107823104	75157504	20205224	24992
85	0.783457	107823104	75157504	20876224	24992
86	0.831709	107823104	75157504	21547256	24992
87	1.012734	107823104	75157504	22219392	24992
88	0.763224	107823104	75157504	22890904	24992
89	0.760559	107823104	75157504	23562584	24992
90	0.761432	107823104	75157504	24234392	24992
91	0.76076	107823104	75157504	24906336	24992
92	0.778934	107823104	75157504	25578416	24992
93	0.818377	107823104	75157504	26250632	24992
94	0.787237	107823104	75157504	26923552	24992
95	0.768055	107823104	75157504	27596024	24992
96	0.776128	107823104	75157504	28268288	24992
97	0.776527	107823104	75157504	28940416	24992
98	0.767861	107823104	75157504	29612672	24992
99	1.529707	107823104	75157504	14306784	24992
100	0.774456	107823104	75157504	14979304	24992
101	0.998335	107823104	75157504	15651936	24992
102	0.762912	107823104	75157504	16324608	24992
103	0.760908	107823104	75157504	16997424	24992
104	0.952631	107823104	75157504	17670376	24992
105	0.796704	107823104	75157504	18343512	24992
106	0.761641	107823104	75157504	19016776	24992
107	0.765346	107823104	75157504	19690176	24992
108	0.767809	107823104	75157504	20363696	24992
109	0.769022	107823104	75157504	21037352	24992
110	0.776958	107823104	75157504	21711144	24992
111	0.770265	107823104	75157504	22385072	24992
112	0.769095	107823104	75157504	23059152	24992
113	0.766807	107823104	75157504	23733368	24992
114	1.50837	107823104	75157504	24407736	24992
115	0.787076	107823104	75157504	25082224	24992
116	0.800881	107823104	75157504	25756832	24992
117	0.825021	107823104	75157504	26431568	24992
118	0.818948	107823104	75157504	27106328	24992
119	0.778278	107823104	75157504	27781240	24992
120	0.791245	107823104	75157504	28456288	24992
121	0.878748	107823104	75157504	29131520	24992
122	0.794798	107823104	75157504	29807864	24992
123	0.768505	107823104	75157504	30483344	24992
124	1.655091	107823104	75157504	15260360	24992
125	0.787981	107823104	75157504	15936112	24992
126	0.782197	107823104	75157504	16611984	24992
127	0.783247	107823104	75157504	17287992	24992
128	1.016901	107823104	75157504	17963816	24992
129	0.771668	107823104	75157504	18639200	24992
130	0.769853	107823104	75157504	19314704	24992
131	0.769359	107823104	75157504	19990504	24992
132	0.79292	107823104	75157504	20666440	24992
133	0.815815	107823104	75157504	21342480	24992
134	0.756127	107823104	75157504	22018648	24992
135	0.75781	107823104	75157504	22694968	24992
136	0.761716	107823104	75157504	23371424	24992
137	0.792241	107823104	75157504	24048048	24992
138	0.92944	107823104	75157504	24724800	24992
139	0.780191	107823104	75157504	25401736	24992
140	0.776853	107823104	75157504	26078760	24992
141	0.795898	107823104	75157504	26758232	24992
142	0.999893	107823104	75157504	27437352	24992
143	0.770714	107823104	75157504	28114768	24992
144	0.769816	107823104	75157504	28792352	24992
145	0.775304	107823104	75157504	29470072	24992
146	0.772221	107823104	75157504	30147912	24992
147	0.784596	107823104	75157504	30825888	24992
148	1.82391	107823104	75157504	15649272	24992
149	0.822756	107823104	75157504	16328760	24992
150	0.792917	107823104	75157504	17007584	24992
151	0.780508	107823104	75157504	17686560	24992
152	0.781652	107823104	75157504	18365672	24992
153	0.781261	107823104	75157504	19044952	24992
154	0.783097	107823104	75157504	19724360	24992
155	0.986399	107823104	75157504	20403904	24992
156	0.796625	107823104	75157504	21083584	24992
157	0.772248	107823104	75157504	21763400	24992
158	0.769874	107823104	75157504	22443336	24992
159	0.772286	107823104	75157504	23123408	24992
160	0.782094	107823104	75157504	23803312	24992
161	0.772476	107823104	75157504	24483048	24992
162	0.77132	107823104	75157504	25162904	24992
163	0.774584	107823104	75157504	25842896	24992
164	0.781918	107823104	75157504	26523024	24992
165	0.795822	107823104	75157504	27203256	24992
166	0.768007	107823104	75157504	27883880	24992
167	0.770896	107823104	75157504	28564648	24992
168	0.862667	107823104	75157504	29245552	24992
169	0.816901	107823104	75157504	29927288	24992
170	1.008644	107823104	75157504	30608504	24992
171	0.780787	107823104	75157504	31289856	24992
172	1.699777	107823104	75157504	16164424	24992
173	0.80266	107823104	75157504	16846032	24992
174	0.795234	107823104	75157504	17527776	24992
175	0.794847	107823104	75157504	18209656	24992
176	0.792713	107823104	75157504	18891688	24992
177	0.793714	107823104	75157504	19573856	24992
178	0.921958	107823104	75157504	20256176	24992
179	0.804099	107823104	75157504	20938616	24992
180	0.813781	107823104	75157504	21622312	24992
181	0.797445	107823104	75157504	22304960	24992
182	0.789831	107823104	75157504	22987752	24992
183	0.804989	107823104	75157504	23670680	24992
184	0.792626	107823104	75157504	24353744	24992
185	0.789914	107823104	75157504	25036992	24992
186	0.792495	107823104	75157504	25720368	24992
187	0.794399	107823104	75157504	26403880	24992
188	0.799269	107823104	75157504	27087512	24992
189	0.792307	107823104	75157504	27771280	24992
190	0.801176	107823104	75157504	28455184	24992
191	0.909651	107823104	75157504	29139224	24992
192	0.789594	107823104	75157504	29823152	24992
193	0.785865	107823104	75157504	30506848	24992
194	0.780016	107823104	75157504	31190672	24992
195	0.782902	107823104	75157504	31874632	24992
196	1.952996	107823104	75157504	16806176	24992
197	0.788039	107823104	75157504	17490368	24992
198	0.78067	107823104	75157504	18174696	24992
199	0.782732	107823104	75157504	18859160	24992
200	1.538469	107823104	75157504	19544160	24992
201	0.796522	107823104	75157504	20228944	24992
202	0.784907	107823104	75157504	20913856	24992
203	0.782372	107823104	75157504	21598904	24992
204	0.782119	107823104	75157504	22284072	24992
205	0.996563	107823104	75157504	22969376	24992
206	0.785034	107823104	75157504	23654816	24992
207	0.782626	107823104	75157504	24340392	24992
208	0.813859	107823104	75157504	25026120	24992
209	1.156976	107823104	75157504	25711984	24992
210	0.833293	107823104	75157504	26414648	24992
211	0.788445	107823104	75157504	27100784	24992
212	0.794826	107823104	75157504	27787040	24992
213	0.795516	107823104	75157504	28473400	24992
214	0.799015	107823104	75157504	29159904	24992
215	0.779674	107823104	75157504	29846544	24992
216	0.781891	107823104	75157504	30533328	24992
217	0.786063	107823104	75157504	31220280	24992
218	0.792922	107823104	75157504	31907368	24992
219	0.785069	107823104	75157504	32594592	24992
220	1.777513	107823104	75157504	17587496	24992
221	0.892658	107823104	75157504	18274992	24992
222	1.054809	107823104	75157504	18963256	24992
223	0.789494	107823104	75157504	19651008	24992
224	0.787107	107823104	75157504	20338616	24992
225	0.787223	107823104	75157504	21026024	24992
226	0.794328	107823104	75157504	21713560	24992
227	0.790118	107823104	75157504	22401232	24992
228	0.789242	107823104	75157504	23089024	24992
229	0.789481	107823104	75157504	23779800	24992
230	0.785582	107823104	75157504	24467840	24992
231	0.788844	107823104	75157504	25156016	24992
232	0.791479	107823104	75157504	25844328	24992
233	0.830479	107823104	75157504	26532824	24992
234	0.785698	107823104	75157504	27221448	24992
235	0.784496	107823104	75157504	27910208	24992
236	0.843944	107823104	75157504	28599088	24992
237	0.803642	107823104	75157504	29288104	24992
238	0.788499	107823104	75157504	29977256	24992
239	0.792478	107823104	75157504	30666544	24992
240	0.790888	107823104	75157504	31355984	24992
241	0.803506	107823104	75157504	32045560	24992
242	0.792024	107823104	75157504	32735272	24992
243	0.79811	107823104	75157504	33425120	24992
244	1.825489	107823104	75157504	18482160	24992
245	1.042133	107823104	75157504	19172232	24992
246	0.788288	107823104	75157504	19862448	24992
247	0.786922	107823104	75157504	20552800	24992
248	0.790307	107823104	75157504	21243288	24992
249	0.989929	107823104	75157504	21933960	24992
250	0.788347	107823104	75157504	22624760	24992
251	0.788638	107823104	75157504	23315696	24992
252	0.791202	107823104	75157504	24006752	24992
253	0.789324	107823104	75157504	24697944	24992
254	0.800829	107823104	75157504	25389272	24992
255	0.791898	107823104	75157504	26080736	24992
256	0.792697	107823104	75157504	26772560	24992
257	0.791715	107823104	75157504	27464152	24992
258	0.80222	107823104	75157504	28155880	24992
259	0.813264	107823104	75157504	28847744	24992
260	0.804069	107823104	75157504	29539728	24992
261	0.801009	107823104	75157504	30231688	24992
262	0.789778	107823104	75157504	30923960	24992
263	0.980263	107823104	75157504	31616544	24992
264	0.823566	107823104	75157504	32309424	24992
265	0.800105	107823104	75157504	33003128	24992
266	0.792755	107823104	75157504	33697320	24992
267	0.798223	107823104	75157504	34392000	24992
268	1.873591	107823104	75157504	19546512	24992
269	0.805798	107823104	75157504	20242152	24992
270	0.803065	107823104	75157504	20938280	24992
271	0.803572	107823104	75157504	21634896	24992
272	0.80871	107823104	75157504	22331984	24992
273	0.806199	107823104	75157504	23029560	24992
274	0.810066	107823104	75157504	23727624	24992
275	0.806893	107823104	75157504	24426176	24992
276	0.843881	107823104	75157504	25125256	24992
277	0.823766	107823104	75157504	25824424	24992
278	0.797648	107823104	75157504	26523720	24992
279	0.803417	107823104	75157504	27223424	24992
280	0.800391	107823104	75157504	27922976	24992
281	0.810668	107823104	75157504	28622664	24992
282	0.80046	107823104	75157504	29322488	24992
283	0.80271	107823104	75157504	30022448	24992
284	0.810797	107823104	75157504	30722528	24992
285	0.803888	107823104	75157504	31422744	24992
286	0.815535	107823104	75157504	32123096	24992
287	0.806438	107823104	75157504	32823584	24992
288	0.808142	107823104	75157504	33523936	24992
289	0.809951	107823104	75157504	34224040	24992
290	0.80794	107823104	75157504	34924280	24992
291	1.03999	107823104	75157504	35624656	24992
292	1.984629	107823104	75157504	20933440	24992
293	0.815675	107823104	75157504	21634072	24992
294	0.8139	107823104	75157504	22334936	24992
295	0.805117	107823104	75157504	23035840	24992
296	0.805033	107823104	75157504	23736864	24992
297	0.806776	107823104	75157504	24438024	24992
298	0.828148	107823104	75157504	25139320	24992
299	0.84246	107823104	75157504	25840752	24992
300	0.807474	107823104	75157504	26542304	24992
301	0.809023	107823104	75157504	27243992	24992
302	0.809003	107823104	75157504	27945816	24992
303	1.033561	107823104	75157504	28647776	24992
304	0.813171	107823104	75157504	29349856	24992
305	0.812395	107823104	75157504	30052072	24992
306	0.812281	107823104	75157504	30754424	24992
307	0.811658	107823104	75157504	31456912	24992
308	0.831426	107823104	75157504	32159520	24992
309	0.816037	107823104	75157504	32862264	24992
310	0.806385	107823104	75157504	33565144	24992
311	0.807106	107823104	75157504	34268160	24992
312	0.813902	107823104	75157504	34971296	24992
313	0.812168	107823104	75157504	35674568	24992
314	0.811749	107823104	75157504	36377976	24992
315	2.070312	107823104	75157504	21814632	24992
316	0.878866	107823104	75157504	22518296	24992
317	0.816268	107823104	75157504	23222096	24992
318	0.814287	107823104	75157504	23926032	24992
319	0.816015	107823104	75157504	24630104	24992
320	0.868574	107823104	75157504	25334064	24992
321	0.818555	107823104	75157504	26037760	24992
322	0.816489	107823104	75157504	26741584	24992
323	0.819749	107823104	75157504	27445544	24992
324	0.819788	107823104	75157504	28149624	24992
325	0.832084	107823104	75157504	28853840	24992
326	0.811691	107823104	75157504	29558192	24992
327	0.813234	107823104	75157504	30262680	24992
328	0.813665	107823104	75157504	30967288	24992
329	0.816777	107823104	75157504	31672032	24992
330	1.047845	107823104	75157504	32376912	24992
331	0.839922	107823104	75157504	33081928	24992
332	0.819406	107823104	75157504	33787064	24992
333	0.818738	107823104	75157504	34492336	24992
334	0.828291	107823104	75157504	35197744	24992
335	0.820647	107823104	75157504	35903288	24992
336	0.824661	107823104	75157504	36608952	24992
337	0.819478	107823104	75157504	37314768	24992
338	2.126319	107823104	75157504	22791280	24992
339	0.830083	107823104	75157504	23497360	24992
340	0.831664	107823104	75157504	24203560	24992
341	0.827459	107823104	75157504	24909888	24992
342	1.04443	107823104	75157504	25616352	24992
343	0.867043	107823104	75157504	26322952	24992
344	0.820879	107823104	75157504	27029672	24992
345	0.817289	107823104	75157504	27736528	24992
346	0.828695	107823104	75157504	28443520	24992
347	0.828389	107823104	75157504	29150648	24992
348	0.823419	107823104	75157504	29857896	24992
349	0.823061	107823104	75157504	30565280	24992
350	0.82404	107823104	75157504	31272800	24992
351	0.835401	107823104	75157504	31980456	24992
352	0.825934	107823104	75157504	32688016	24992
353	0.827598	107823104	75157504	33395296	24992
354	0.836689	107823104	75157504	34102704	24992
355	0.828285	107823104	75157504	34810248	24992
356	1.063538	107823104	75157504	35517912	24992
357	0.835016	107823104	75157504	36225712	24992
358	0.824217	107823104	75157504	36933648	24992
359	0.826561	107823104	75157504	37641720	24992
360	0.835057	107823104	75157504	38354360	24992
361	2.220607	107823104	75157504	23889024	24992
362	0.848084	107823104	75157504	24597488	24992
363	0.86865	107823104	75157504	25306088	24992
364	0.845735	107823104	75157504	26014808	24992
365	0.845644	107823104	75157504	26723664	24992
366	0.845975	107823104	75157504	27432656	24992
367	0.878639	107823104	75157504	28141784	24992
368	0.861467	107823104	75157504	28851032	24992
369	0.83532	107823104	75157504	29560416	24992
370	0.837219	107823104	75157504	30269936	24992
371	0.836202	107823104	75157504	30979592	24992
372	0.857935	107823104	75157504	31689368	24992
373	0.839588	107823104	75157504	32399280	24992
374	0.826349	107823104	75157504	33109328	24992
375	0.831984	107823104	75157504	33819512	24992
376	0.826958	107823104	75157504	34529816	24992
377	0.843999	107823104	75157504	35240256	24992
378	0.830608	107823104	75157504	35950856	24992
379	0.83045	107823104	75157504	36661560	24992
380	0.830866	107823104	75157504	37372392	24992
381	1.042599	107823104	75157504	38083384	24992
382	1.057522	107823104	75157504	38794480	24992
383	0.836649	107823104	75157504	39505720	24992
384	2.311771	107823104	75157504	25113800	24992
385	0.891567	107823104	75157504	25824656	24992
386	0.888816	107823104	75157504	26535648	24992
387	0.891189	107823104	75157504	27246776	24992
388	0.894445	107823104	75157504	27958024	24992
389	0.886602	107823104	75157504	28669408	24992
390	0.875693	107823104	75157504	29380928	24992
391	1.077937	107823104	75157504	30093544	24992
392	1.062614	107823104	75157504	30805320	24992
393	0.934151	107823104	75157504	31519256	24992
394	0.837736	107823104	75157504	32231304	24992
395	0.838822	107823104	75157504	32943512	24992
396	1.027123	107823104	75157504	33655824	24992
397	0.8637	107823104	75157504	34368264	24992
398	1.535946	107823104	75157504	35082192	24992
399	0.867437	107823104	75157504	35794896	24992
400	0.910659	107823104	75157504	36507728	24992
401	0.854478	107823104	75157504	37220704	24992
402	0.850835	107823104	75157504	37933800	24992
403	0.885568	107823104	75157504	38660512	24992
404	1.065874	107823104	75157504	39373880	24992
405	0.870568	107823104	75157504	40087384	24992
406	0.836201	107823104	75157504	40801016	24992
407	2.552865	107823104	75157504	26462368	24992
408	0.867764	107823104	75157504	27176264	24992
409	0.854454	107823104	75157504	27890288	24992
410	0.857732	107823104	75157504	28604448	24992
411	1.087913	107823104	75157504	29318744	24992
412	0.84321	107823104	75157504	30033160	24992
413	0.840862	107823104	75157504	30747712	24992
414	0.850575	107823104	75157504	31462400	24992
415	1.176329	107823104	75157504	32177224	24992
416	0.876935	107823104	75157504	32891992	24992
417	0.84668	107823104	75157504	33606432	24992
418	0.8451	107823104	75157504	34321008	24992
419	0.851117	107823104	75157504	35035720	24992
420	0.852749	107823104	75157504	35750552	24992
421	0.850324	107823104	75157504	36465520	24992
422	0.83945	107823104	75157504	37180624	24992
423	0.879805	107823104	75157504	37895864	24992
424	0.84663	107823104	75157504	38611224	24992
425	0.843625	107823104	75157504	39326720	24992
426	0.859698	107823104	75157504	40042352	24992
427	0.850352	107823104	75157504	40758120	24992
428	0.856373	107823104	75157504	41474008	24992
429	1.077638	108150784	75157504	42190032	24992
430	2.336212	108150784	75157504	27861128	24992
431	0.961567	108150784	75157504	28577416	24992
432	0.876794	108150784	75157504	29293832	24992
433	0.860352	108150784	75157504	30010384	24992
434	0.865778	108150784	75157504	30727072	24992
435	0.868643	108150784	75157504	31443896	24992
436	0.895596	108150784	75157504	32160840	24992
437	0.859213	108150784	75157504	32877920	24992
438	0.844765	108150784	75157504	33595136	24992
439	0.84312	108150784	75157504	34312488	24992
440	1.08177	108150784	75157504	35029960	24992
441	0.844968	108150784	75157504	35747568	24992
442	0.847003	108150784	75157504	36465312	24992
443	0.847581	108150784	75157504	37183192	24992
444	0.861666	108150784	75157504	37901192	24992
445	0.853691	108150784	75157504	38619328	24992
446	0.906377	108150784	75157504	39337600	24992
447	0.855699	108150784	75157504	40056008	24992
448	0.855003	108150784	75157504	40774384	24992
449	0.868522	108150784	75157504	41492416	24992
450	0.856636	108150784	75157504	42210576	24992
451	0.859908	108150784	75157504	42928872	24992
452	0.856586	108150784	75157504	43647288	24992
453	2.607729	108150784	75157504	29367528	24992
454	0.849315	108150784	75157504	30086256	24992
455	0.847422	108150784	75157504	30805072	24992
456	0.863333	108150784	75157504	31524016	24992
457	0.850115	108150784	75157504	32243112	24992
458	0.849436	108150784	75157504	32962328	24992
459	0.852772	108150784	75157504	33681680	24992
460	0.866996	108150784	75157504	34401152	24992
461	0.858762	108150784	75157504	35120760	24992
462	0.85756	108150784	75157504	35840504	24992
463	0.996566	108150784	75157504	36561544	24992
464	0.905387	108150784	75157504	37281544	24992
465	0.874154	108150784	75157504	38001680	24992
466	0.862139	108150784	75157504	38721952	24992
467	0.862131	108150784	75157504	39442360	24992
468	0.867108	108150784	75157504	40162888	24992
469	0.886904	108150784	75157504	40883552	24992
470	0.857779	108150784	75157504	41604352	24992
471	0.854197	108150784	75157504	42325288	24992
472	0.855241	108150784	75157504	43046344	24992
473	0.869912	108150784	75157504	43767536	24992
474	0.862363	108150784	75157504	44488864	24992
475	0.861946	108150784	75157504	45210328	24992
476	2.668264	108150784	75157504	31007760	24992
477	0.867242	108150784	75157504	31729480	24992
478	0.86144	108150784	75157504	32451336	24992
479	0.869328	108150784	75157504	33173336	24992
480	0.883257	108150784	75157504	33895320	24992
481	0.864205	108150784	75157504	34616936	24992
482	0.870223	108150784	75157504	35338704	24992
483	0.86627	108150784	75157504	36060576	24992
484	0.867076	108150784	75157504	36782576	24992
485	0.885946	108150784	75157504	37504712	24992
486	0.856514	108150784	75157504	38226984	24992
487	0.859405	108150784	75157504	38949392	24992
488	0.860552	108150784	75157504	39671920	24992
489	1.070685	108150784	75157504	40394584	24992
490	0.863868	108150784	75157504	41117384	24992
491	0.86568	108150784	75157504	41840320	24992
492	0.874821	108150784	75157504	42563376	24992
493	0.875959	108150784	75157504	43286568	24992
494	0.918042	108150784	75157504	44009896	24992
495	0.869204	108150784	75157504	44733360	24992
496	0.870847	108150784	75157504	45456944	24992
497	0.870539	108150784	75157504	46180664	24992
498	0.893056	108150784	75157504	46904520	24992
499	2.509195	108150784	75157504	32754976	24992
500	0.899068	108150784	75157504	33479088	24992
501	0.876941	108150784	75157504	34203336	24992
502	0.86185	108150784	75157504	34927720	24992
503	0.862725	108150784	75157504	35652240	24992
504	0.864868	108150784	75157504	36376880	24992
505	1.091445	108150784	75157504	37101656	24992
506	0.86943	108150784	75157504	37826568	24992
507	1.100481	108150784	75157504	38551616	24992
508	0.868918	108150784	75157504	39276784	24992
509	0.884377	108150784	75157504	40002088	24992
510	0.871007	108150784	75157504	40727528	24992
511	0.87127	108150784	75157504	41453104	24992
512	0.873934	108150784	75157504	42179136	24992
513	1.098628	108150784	75157504	42904776	24992
514	0.87711	108150784	75157504	43630552	24992
515	0.889817	108150784	75157504	44356464	24992
516	0.881316	108150784	75157504	45082496	24992
517	0.9264	108150784	75157504	45808328	24992
518	0.869195	108150784	75157504	46534408	24992
519	0.872302	108150784	75157504	47260736	24992
520	0.872692	108150784	75157504	47987296	24992
521	0.874966	108150784	75157504	48714552	24992
522	2.575862	108150784	75157504	34622440	24992
523	0.879948	108150784	75157504	35350192	24992
524	1.117702	108150784	75157504	36078176	24992
525	0.8772	108150784	75157504	36806408	24992
526	0.87892	108150784	75157504	37534888	24992
527	0.880727	108150784	75157504	38263616	24992
528	0.893147	108150784	75157504	38992680	24992
529	0.885537	108150784	75157504	39721896	24992
530	0.885174	108150784	75157504	40451352	24992
531	0.887558	108150784	75157504	41181064	24992
532	0.887324	108150784	75157504	41911008	24992
533	0.904595	108150784	75157504	42641192	24992
534	0.877751	108150784	75157504	43371640	24992
535	0.87793	108150784	75157504	44102320	24992
536	0.885536	108150784	75157504	44833232	24992
537	0.908936	108150784	75157504	45564392	24992
538	0.879593	108150784	75157504	46295800	24992
539	0.894329	108150784	75157504	47027456	24992
540	0.884767	108150784	75157504	47759344	24992
541	0.900636	108150784	75157504	48491480	24992
542	0.892536	108150784	75157504	49223864	24992
543	0.894374	108150784	75157504	49956496	24992
544	2.630815	108150784	75157504	35909664	24992
545	0.89607	108150784	75157504	36642136	24992
546	0.926471	108150784	75157504	37374856	24992
547	0.896703	108150784	75157504	38107824	24992
548	1.1383	108150784	75157504	38841024	24992
549	0.903942	108150784	75157504	39574472	24992
550	0.882825	108150784	75157504	40308168	24992
551	0.884449	108150784	75157504	41042112	24992
552	0.904187	108150784	75157504	41776456	24992
553	0.886907	108150784	75157504	42510888	24992
554	0.893148	108150784	75157504	43245560	24992
555	0.900718	108150784	75157504	43980504	24992
556	0.905088	108150784	75157504	44722464	24992
557	0.895384	108150784	75157504	45457864	24992
558	0.89406	108150784	75157504	46193512	24992
559	0.896422	108150784	75157504	46929408	24992
560	0.899011	108150784	75157504	47665536	24992
561	1.140465	108150784	75157504	48401912	24992
562	0.903231	108150784	75157504	49138536	24992
563	0.903509	108150784	75157504	49875408	24992
564	0.912953	108150784	75157504	50612512	24992
565	0.926435	108150784	75157504	51349864	24992
566	0.894423	108150784	75157504	52087464	24992
567	2.916323	108691456	75681792	38152800	24992
568	0.913332	108691456	75681792	38890880	24992
569	0.912602	108691456	75681792	39629208	24992
570	0.910621	108691456	75681792	40367784	24992
571	0.933915	108691456	75681792	41106608	24992
572	0.90172	108691456	75681792	41845664	24992
573	0.901081	108691456	75681792	42584968	24992
574	0.90114	108691456	75681792	43324520	24992
575	0.917971	108691456	75681792	44064320	24992
576	0.910418	108691456	75681792	44804280	24992
577	0.90833	108691456	75681792	45543928	24992
578	0.918475	108691456	75681792	46283824	24992
579	0.915217	108691456	75681792	47023952	24992
580	0.914411	108691456	75681792	47764320	24992
581	0.915243	108691456	75681792	48504936	24992
582	0.898581	108691456	75681792	49245800	24992
583	0.902408	108691456	75681792	49986912	24992
584	1.146901	108691456	75681792	50728256	24992
585	0.904919	108691456	75681792	51469848	24992
586	0.906378	108691456	75681792	52211688	24992
587	0.907117	108691456	75681792	52953776	24992
588	0.925083	108691456	75681792	53696096	24992
589	3.225776	109772800	76730368	39861112	24992
590	0.925208	109772800	76730368	40603928	24992
591	0.920295	109772800	76730368	41346992	24992
592	0.932866	109772800	76730368	42090288	24992
593	0.930975	109772800	76730368	42833832	24992
594	1.178292	109772800	76730368	43577624	24992
595	0.924247	109772800	76730368	44321664	24992
596	0.932493	109772800	76730368	45065936	24992
597	0.926971	109772800	76730368	45810456	24992
598	0.920986	109772800	76730368	46555264	24992
599	0.907288	109772800	76730368	47300272	24992
600	0.910321	109772800	76730368	48045520	24992
601	0.910539	109772800	76730368	48791048	24992
602	0.927142	109772800	76730368	49536792	24992
603	0.920966	109772800	76730368	50282784	24992
604	0.916855	109772800	76730368	51029008	24992
605	0.924401	109772800	76730368	51775480	24992
606	0.946339	109772800	76730368	52522200	24992
607	1.173463	109772800	76730368	53269168	24992
608	1.050199	109772800	76730368	54016312	24992
609	1.041557	109772800	76730368	54763128	24992
610	1.047338	109772800	76730368	55510184	24992
611	4.421983	110854144	77778944	41751264	24992
612	1.10677	110854144	77778944	42498808	24992
613	0.992649	110854144	77778944	43246600	24992
614	1.351639	110854144	77778944	43994632	24992
615	1.085321	110854144	77778944	44742912	24992
616	0.989655	110854144	77778944	45491424	24992
617	1.120212	110854144	77778944	46240184	24992
618	1.089607	110854144	78303232	46989192	24992
619	1.11493	110854144	78303232	47738448	24992
620	0.998955	111124480	78303232	48487936	24992
621	1.078244	111124480	78303232	49237672	24992
622	1.093292	111124480	78303232	49987656	24992
623	1.008537	111124480	78303232	50737920	24992
624	1.695965	111124480	78303232	51488384	24992
625	1.200363	111394816	78303232	52239096	24992
626	1.011128	111394816	78303232	52990056	24992
627	1.116144	111394816	78303232	53741264	24992
628	1.231864	111394816	78827520	54492704	24992
629	1.096779	111394816	78827520	55244392	24992
630	0.989734	111394816	78827520	55996192	24992
631	1.065444	111665152	78827520	56748216	24992
632	1.112478	111665152	78827520	57500472	24992
633	4.8354	112746496	79876096	43838768	24992
634	1.080902	112746496	79876096	44591472	24992
635	1.113443	112746496	79876096	45344408	24992
636	1.075846	112746496	79876096	46097576	24992
637	1.004609	112746496	79876096	46850976	24992
638	1.169476	113016832	79876096	47604592	24992
639	1.167161	113016832	80400384	48358440	24992
640	1.08044	113016832	80400384	49112488	24992
641	1.01302	113016832	80400384	49866160	24992
642	1.426936	113016832	80400384	50620064	24992
643	1.126516	113287168	80400384	51374184	24992
644	1.016539	113287168	80400384	52128536	24992
645	1.073248	113287168	80400384	52883120	24992
646	1.116784	113287168	80400384	53637816	24992
647	1.137377	113287168	80400384	54392768	24992
648	0.998217	113557504	80400384	55147952	24992
649	1.158406	113557504	80400384	55903384	24992
650	1.241997	113557504	80924672	56659064	24992
651	1.162997	113557504	80924672	57414992	24992
652	1.310293	113557504	80924672	58171152	24992
653	1.178675	113827840	80924672	58927568	24992
654	1.148657	113827840	80924672	59684216	24992
655	5.226752	114909184	81973248	46075376	24992
656	1.259545	114909184	81973248	46832512	24992
657	1.744437	114909184	81973248	47589896	24992
658	1.78585	114909184	81973248	48347576	24992
659	1.80314	115179520	81973248	49105456	24992
660	1.863285	115179520	82497536	49863568	24992
661	1.702113	115179520	82497536	50621928	24992
662	1.776361	115179520	82497536	51380416	24992
663	1.818338	115179520	82497536	52139144	24992
664	2.048652	115449856	82497536	52898120	24992
665	1.738938	115449856	82497536	53657344	24992
666	1.90039	115449856	82497536	54416832	24992
667	2.182274	115449856	82497536	55176688	24992
668	2.162433	115449856	82497536	55940296	24992
669	1.990049	115720192	83021824	56700496	24992
670	2.069702	115720192	83021824	57460928	24992
671	1.989111	115720192	83021824	58221608	24992
672	2.057656	115720192	83021824	58982520	24992
673	2.005922	115720192	83021824	59743056	24992
674	1.917273	115990528	83021824	60503824	24992
675	2.03378	115990528	83021824	61264840	24992
676	2.171564	115990528	83021824	62026104	24992
677	6.416024	117071872	84070400	48458400	24992
678	2.137628	117071872	84070400	49220040	24992
679	2.247119	117342208	84594688	49981936	24992
680	2.138149	117342208	84594688	50744064	24992
681	2.150632	117342208	84594688	51506440	24992
682	2.219465	117342208	84594688	52269064	24992
683	2.344274	117342208	84594688	53031936	24992
684	2.276157	117612544	84594688	53795040	24992
685	4.087143	116039680	84070400	45644984	24992
686	1.398628	116039680	84070400	46408592	24992
687	1.052512	116039680	84070400	47172432	24992
688	1.056171	116039680	84070400	47936512	24992
689	1.07467	116039680	84070400	48700840	24992
690	1.066178	116039680	84070400	49465416	24992
691	1.053175	116039680	84070400	50230240	24992
692	1.810782	116039680	84070400	50995296	24992
693	1.173381	116039680	84070400	51760600	24992
694	1.104537	116039680	84070400	52526440	24992
695	1.320449	116039680	84070400	53292240	24992
696	1.086435	116039680	84070400	54058272	24992
697	1.084966	116039680	84070400	54824552	24992
698	1.072317	116039680	84070400	55591080	24992
699	1.090549	116039680	84070400	56357856	24992
700	1.099508	116039680	84070400	57124864	24992
701	1.113351	116039680	84070400	57892120	24992
702	1.299069	116039680	84070400	58659664	24992
703	1.001683	116039680	84070400	59427408	24992
704	1.018828	116039680	84070400	60195400	24992
705	1.004549	116039680	84070400	60963000	24992
706	1.036146	116039680	84070400	61730840	24992
707	1.028393	116039680	84070400	62498928	24992
708	3.515075	117391360	84594688	48418784	24992
709	1.036056	117391360	84594688	49187352	24992
710	0.984545	117391360	84594688	49956168	24992
711	1.213889	117391360	84594688	50725232	24992
712	0.991012	117661696	84594688	51494528	24992
713	0.981342	117661696	84594688	52264072	24992
714	1.009167	117661696	85118976	53034000	24992
715	1.006841	117661696	85118976	53804032	24992
716	0.995563	117932032	85118976	54574304	24992
717	1.000143	117932032	85118976	55344824	24992
718	1.005179	117932032	85118976	56115592	24992
719	0.996352	117932032	85118976	56886608	24992
720	0.997578	118202368	85118976	57657856	24992
721	1.004277	118202368	85118976	58429352	24992
722	1.049998	118202368	85643264	59201376	24992
723	1.006712	118202368	85643264	59973360	24992
724	1.008417	118202368	85643264	60745584	24992
725	1.014492	118472704	85643264	61518056	24992
726	1.001676	118472704	85643264	62290776	24992
727	0.990116	118472704	85643264	63063744	24992
728	0.990209	118472704	85643264	63836944	24992
729	4.338263	119824384	87216128	50486112	24992
730	1.001418	119824384	87216128	51259808	24992
731	1.260167	119824384	87216128	52033752	24992
732	1.0061	120094720	87216128	52807928	24992
733	1.01165	120094720	87216128	53582352	24992
734	1.057614	120094720	87216128	54357024	24992
735	1.001809	120094720	87216128	55131944	24992
736	1.011594	120365056	87216128	55907120	24992
737	1.040576	120365056	87740416	56681896	24992
738	1.075466	120365056	87740416	57456896	24992
739	1.014272	120365056	87740416	58232152	24992
740	1.021878	120635392	87740416	59007640	24992
741	1.023359	120635392	87740416	59783376	24992
742	1.053257	120635392	87740416	60559384	24992
743	0.99423	120635392	87740416	61335608	24992
744	1.005119	120905728	87740416	62112072	24992
745	1.016891	120905728	88264704	62888784	24992
746	1.23166	120905728	88264704	63665744	24992
747	1.008979	120905728	88264704	64442952	24992
748	1.010527	121176064	88264704	65220392	24992
749	1.216853	121176064	88264704	65998080	24992
750	4.3953	122257408	89837568	52652088	24992
751	1.051269	122257408	89837568	53430264	24992
752	1.018852	122527744	89837568	54208680	24992
753	1.0317	122527744	89837568	54987344	24992
754	1.032993	122527744	89837568	55766264	24992
755	1.024141	122527744	89837568	56545416	24992
756	1.030416	122798080	89837568	57324808	24992
757	1.52817	122798080	89837568	58104464	24992
758	1.022887	122798080	89837568	58884352	24992
759	1.037348	122798080	90361856	59664768	24992
760	1.050899	123068416	90361856	60445144	24992
761	1.078043	123068416	90361856	61241144	24992
762	1.0141	123068416	90361856	62022008	24992
763	1.015069	123068416	90361856	62803120	24992
764	1.031593	123338752	90361856	63584464	24992
765	1.019811	123338752	90361856	64366056	24992
766	1.025914	123338752	90361856	65147896	24992
767	1.047276	123338752	90886144	65930008	24992
768	1.052256	123609088	90886144	66712384	24992
769	1.028053	123609088	90886144	67494312	24992
770	1.077586	123609088	90886144	68276488	24992
771	1.244007	123609088	90886144	69058912	24992
772	4.305393	124960768	92459008	55845472	24992
773	1.049624	124960768	92459008	56628376	24992
774	1.018624	125231104	92459008	57411528	24992
775	1.022546	125231104	92459008	58194928	24992
776	1.056172	125231104	92459008	58978560	24992
777	1.015011	125231104	92459008	59762440	24992
778	1.022209	125501440	92459008	60546568	24992
779	1.218406	125501440	92459008	61330944	24992
780	1.072097	125501440	92983296	62115552	24992
781	1.02699	125501440	92983296	62900432	24992
782	1.039992	125771776	92983296	63685528	24992
783	1.043484	125771776	92983296	64470880	24992
784	1.033804	125771776	92983296	65256464	24992
785	1.040626	125771776	92983296	66042296	24992
786	1.043151	126042112	92983296	66828432	24992
787	1.049012	126042112	92983296	67614752	24992
788	1.06865	126042112	93507584	68401312	24992
789	1.050493	126042112	93507584	69188120	24992
790	1.029446	126312448	93507584	69975176	24992
791	1.023682	126312448	93507584	70762488	24992
792	1.033927	126312448	93507584	71550032	24992
793	4.398646	127664128	95080448	58412064	24992
794	1.045664	127934464	95080448	59200096	24992
795	1.043566	127934464	95080448	59988376	24992
796	1.280869	127934464	95080448	60776888	24992
797	1.038176	127934464	95080448	61565648	24992
798	1.251977	128204800	95080448	62354656	24992
799	1.120693	128204800	95604736	63143912	24992
800	1.066877	128204800	95604736	63933488	24992
801	1.044877	128204800	95604736	64722592	24992
802	1.079809	128475136	95604736	65511936	24992
803	1.072633	128475136	95604736	66301528	24992
804	1.050821	128475136	95604736	67091352	24992
805	1.09198	128475136	95604736	67881480	24992
806	1.049693	128745472	95604736	68671792	24992
807	1.046725	128745472	96129024	69462360	24992
808	1.050796	128745472	96129024	70253160	24992
809	1.287679	128745472	96129024	71044208	24992
810	1.047789	129015808	96129024	71835520	24992
811	1.071874	129015808	96129024	72627064	24992
812	1.079263	129015808	96129024	73418840	24992
813	1.043597	129286144	96129024	74210864	24992
814	4.556396	130637824	97701888	61120704	24992
815	1.059091	130637824	97701888	61913224	24992
816	1.260167	130637824	97701888	62706000	24992
817	1.099774	130637824	97701888	63499008	24992
818	1.076087	130908160	98226176	64292256	24992
819	1.33866	130908160	98226176	65085752	24992
820	1.139392	130908160	98226176	65879480	24992
821	1.165734	130908160	98226176	66676112	24992
822	1.038415	131178496	98226176	67470336	24992
823	1.100164	131178496	98226176	68264808	24992
824	1.040113	131178496	98226176	69059512	24992
825	1.065929	131448832	98750464	69854464	24992
826	1.096092	131448832	98750464	70649664	24992
827	1.083657	131448832	98750464	71445112	24992
828	1.055075	131448832	98750464	72240792	24992
829	1.054269	131719168	98750464	73036720	24992
830	1.062169	131719168	98750464	73832896	24992
831	1.064752	131719168	98750464	74629360	24992
832	1.084266	131989504	99274752	75426112	24992
833	1.062504	131989504	99274752	76222384	24992
834	1.078954	131989504	99274752	77018896	24992
835	4.701417	133341184	100847616	64019048	24992
836	1.082648	133611520	100847616	64816040	24992
837	1.263557	133611520	100847616	65613280	24992
838	1.078488	133611520	100847616	66410768	24992
839	1.04863	133611520	100847616	67208512	24992
840	1.061545	133881856	100847616	68006488	24992
841	1.059649	133881856	100847616	68804704	24992
842	1.074386	133881856	101371904	69603168	24992
843	1.065225	134152192	101371904	70401880	24992
844	1.056746	134152192	101371904	71200840	24992
845	1.280271	134152192	101371904	72000032	24992
846	1.093669	134152192	101371904	72799472	24992
847	1.094899	134422528	101371904	73599160	24992
848	1.077057	134422528	101371904	74399080	24992
849	1.096378	134422528	101896192	75199320	24992
850	1.073353	134692864	101896192	76010064	24992
851	1.081342	134692864	101896192	76810728	24992
852	1.115162	134692864	101896192	77611624	24992
853	1.084432	134692864	101896192	78412768	24992
854	1.064287	134963200	101896192	79214192	24992
855	1.284211	134963200	101896192	80015832	24992
856	4.857397	136314880	103469056	67105432	24992
857	1.074805	136585216	103469056	67907584	24992
858	1.088377	136585216	103993344	68709952	24992
859	1.114065	136585216	103993344	69512568	24992
860	1.068997	136585216	103993344	70315416	24992
861	1.076447	136855552	103993344	71118512	24992
862	1.087888	136855552	103993344	71921880	24992
863	1.074101	136855552	103993344	72725464	24992
864	1.085697	137125888	103993344	73529392	24992
865	1.099898	137125888	104517632	74332832	24992
866	1.103131	137125888	104517632	75136512	24992
867	1.129225	137396224	104517632	75940440	24992
868	1.087461	137396224	104517632	76744600	24992
869	1.145017	137396224	104517632	77549008	24992
870	1.060613	137396224	104517632	78353664	24992
871	1.085929	137666560	105041920	79158568	24992
872	1.069955	137666560	105041920	79963704	24992
873	1.301723	137666560	105041920	80769088	24992
874	1.084532	137936896	105041920	81574744	24992
875	1.076351	137936896	105041920	82380616	24992
876	1.083169	137936896	105041920	83186728	24992
877	5.294178	139558912	106614784	70375528	24992
878	1.120902	139558912	106614784	71182128	24992
879	1.323912	139558912	106614784	71990808	24992
880	1.133629	139829248	107139072	72797896	24992
881	1.092234	139829248	107139072	73605232	24992
882	1.100363	139829248	107139072	74412816	24992
883	1.1088	140099584	107139072	75220648	24992
884	1.104167	140099584	107139072	76028712	24992
885	1.101765	140099584	107139072	76837024	24992
886	1.098834	140369920	107663360	77645584	24992
887	1.082471	140369920	107663360	78454392	24992
888	1.075824	140369920	107663360	79263432	24992
889	1.083107	140369920	107663360	80072792	24992
890	1.09099	140640256	107663360	80882320	24992
891	1.081466	140640256	107663360	81692104	24992
892	1.344307	140640256	108187648	82502120	24992
893	1.093313	140910592	108187648	83312384	24992
894	1.101231	140910592	108187648	84122920	24992
895	1.094218	140910592	108187648	84933672	24992
896	1.094744	141180928	108187648	85744792	24992
897	5.4099	142532608	109760512	72942112	24992
898	1.124203	142802944	109760512	73752960	24992
899	1.118776	142802944	109760512	74564112	24992
900	1.136121	142802944	110284800	75375448	24992
901	1.120892	143073280	110284800	76187024	24992
902	1.075536	143073280	110284800	76998848	24992
903	1.136477	143073280	110284800	77810920	24992
904	1.086109	143073280	110284800	78623240	24992
905	1.085805	143343616	110284800	79435792	24992
906	1.110776	143343616	110809088	80248592	24992
907	1.32235	143343616	110809088	81061640	24992
908	1.096032	143613952	110809088	81874920	24992
909	1.102034	143613952	110809088	82688472	24992
910	1.11155	143613952	110809088	83502240	24992
911	1.107914	143884288	110809088	84316264	24992
912	1.121844	143884288	111333376	85130520	24992
913	1.128673	143884288	111333376	85945024	24992
914	1.178609	144154624	111333376	86759776	24992
915	1.117241	144154624	111333376	87574776	24992
916	1.121098	144154624	111333376	88390008	24992
917	1.13463	144424960	111333376	89205488	24992
918	5.272363	145776640	112906240	76514520	24992
919	1.154946	145776640	112906240	77330496	24992
920	1.322965	146046976	113430528	78146704	24992
921	1.096876	146046976	113430528	78963160	24992
922	1.106425	146046976	113430528	79779864	24992
923	1.101266	146317312	113430528	80596848	24992
924	1.319774	146317312	113430528	81414032	24992
925	1.107302	146317312	113430528	82231464	24992
926	1.121578	146587648	113954816	83049144	24992
927	1.127624	146587648	113954816	83867072	24992
928	1.120423	146587648	113954816	84685560	24992
929	1.12525	146857984	113954816	85503336	24992
930	1.127184	146857984	113954816	86321352	24992
931	1.129643	146857984	113954816	87139616	24992
932	1.14629	147128320	114479104	87958112	24992
933	1.13022	147128320	114479104	88776856	24992
934	1.332105	147128320	114479104	89595848	24992
935	1.096756	147398656	114479104	90415312	24992
936	1.101326	147398656	114479104	91234784	24992
937	1.108318	147398656	114479104	92054504	24992
938	5.518397	149020672	116576256	79445672	24992
939	1.772188	149291008	116576256	80266456	24992
940	1.335078	149291008	116576256	81086904	24992
941	1.119274	149291008	116576256	81907600	24992
942	1.137822	149561344	116576256	82728608	24992
943	1.180334	149561344	116576256	83549800	24992
944	1.173902	149561344	117100544	84371224	24992
945	1.150825	149831680	117100544	85192896	24992
946	1.220875	149831680	117100544	86014816	24992
947	1.168323	149831680	117100544	86837024	24992
948	1.13495	150102016	117100544	87659432	24992
949	1.637617	150102016	117100544	88482080	24992
950	1.177595	150102016	117624832	89329504	24992
951	1.11584	150372352	117624832	90152648	24992
952	1.116911	150372352	117624832	90976024	24992
953	1.11516	150372352	117624832	91799648	24992
954	1.10945	150642688	117624832	92623536	24992
955	1.129348	150642688	117624832	93447656	24992
956	1.148727	150913024	118149120	94272008	24992
957	1.129382	150913024	118149120	95096608	24992
958	1.130051	150913024	118149120	95921456	24992
959	5.864357	152535040	119721984	83400528	24992
960	1.141046	152535040	119721984	84226024	24992
961	1.148049	152805376	119721984	85050968	24992
962	1.169165	152805376	120246272	85876152	24992
963	1.151615	152805376	120246272	86701584	24992
964	1.142048	153075712	120246272	87527248	24992
965	1.37634	153075712	120246272	88353160	24992
966	1.112958	153075712	120246272	89179320	24992
967	1.115335	153346048	120246272	90005728	24992
968	1.137798	153346048	120770560	90832368	24992
969	1.125053	153616384	120770560	91659256	24992
970	1.123833	153616384	120770560	92486432	24992
971	1.133793	153616384	120770560	93313808	24992
972	1.140069	153886720	120770560	94141464	24992
973	1.155502	153886720	121294848	94969336	24992
974	1.135156	153886720	121294848	95797448	24992
975	1.156564	154157056	121294848	96625808	24992
976	1.140287	154157056	121294848	97454400	24992
977	1.15575	154157056	121294848	98283264	24992
978	1.154541	154427392	121294848	99112344	24992
979	6.13331	156049408	123392000	86674400	24992
980	1.160355	156049408	123392000	87503968	24992
981	1.389708	156319744	123392000	88333800	24992
982	1.118491	156319744	123392000	89163864	24992
983	1.120836	156319744	123392000	89994176	24992
984	1.157305	156590080	123916288	90824720	24992
985	1.134922	156590080	123916288	91655512	24992
986	1.132077	156590080	123916288	92486552	24992
987	1.141647	156860416	123916288	93317840	24992
988	1.148586	156860416	123916288	94149368	24992
989	1.165882	157130752	124440576	94981144	24992
990	1.196463	157130752	124440576	95813160	24992
991	1.385466	157130752	124440576	96645424	24992
992	1.150521	157401088	124440576	97478104	24992
993	1.157559	157401088	124440576	98310216	24992
994	1.161944	157401088	124440576	99142568	24992
995	1.184938	157671424	124964864	99975176	24992
996	1.159549	157671424	124964864	100808016	24992
997	1.222134	157671424	124964864	101641096	24992
998	1.125987	157941760	124964864	102474424	24992
999	5.944956	159563776	127062016	90043256	24992
1000	1.21132	159563776	127062016	90877072	24992
