x	Duration	RSS	HeapTotal	HeapUsed	External
0	NA	105832448	73584640	13068584	24992
1	0.999543	105832448	73584640	13721648	24992
2	0.92899	105832448	73584640	14374672	24992
3	0.921443	105832448	73584640	15027728	24992
4	0.932614	105832448	73584640	15680936	24992
5	0.912873	105832448	73584640	16334328	24992
6	0.896906	105832448	73584640	16987864	24992
7	0.909208	105832448	73584640	17641584	24992
8	1.035854	105832448	73584640	18299472	24992
9	0.94404	105832448	73584640	18955096	24992
10	0.907536	105832448	73584640	19610600	24992
11	0.9052	105832448	73584640	20266520	24992
12	0.943378	105832448	73584640	20922664	24992
13	0.917274	105832448	73584640	21579048	24992
14	0.908726	105832448	73584640	22235656	24992
15	0.908823	105832448	73584640	22892504	24992
16	1.10059	105832448	73584640	23549992	24992
17	0.789843	105832448	73584640	24208192	24992
18	0.729484	105832448	73584640	24866664	24992
19	0.728558	105832448	73584640	25525776	24992
20	0.732161	105832448	73584640	26184664	24992
21	0.754371	105832448	73584640	26843864	24992
22	0.756353	105832448	73584640	27502672	24992
23	0.729131	105832448	73584640	28162488	24992
24	0.729226	105832448	73584640	28822704	24992
25	1.19985	105832448	73584640	13176568	24992
26	0.811074	105832448	73584640	13837296	24992
27	0.748542	105832448	73584640	14498152	24992
28	0.73631	105832448	73584640	15159248	24992
29	0.736057	105832448	73584640	15820592	24992
30	0.736085	105832448	73584640	16482168	24992
31	0.963354	105832448	73584640	17143992	24992
32	0.740285	105832448	73584640	17805680	24992
33	0.754144	105832448	73584640	18467392	24992
34	0.740235	105832448	73584640	19129336	24992
35	0.73934	105832448	73584640	19791528	24992
36	0.75019	105832448	73584640	20453968	24992
37	0.742194	105832448	73584640	21116688	24992
38	0.73868	105832448	73584640	21779480	24992
39	0.74074	105832448	73584640	22442480	24992
40	0.74059	105832448	73584640	23105576	24992
41	0.753741	105832448	73584640	23768912	24992
42	0.744118	105832448	73584640	24432552	24992
43	0.743581	105832448	73584640	25096504	24992
44	0.746596	105832448	73584640	25760768	24992
45	0.747491	105832448	73584640	26426016	24992
46	0.948386	105832448	73584640	27090888	24992
47	0.770905	105832448	73584640	27756072	24992
48	0.751599	105832448	73584640	28421600	24992
49	0.749022	105832448	73584640	29087440	24992
50	1.36442	105832448	73584640	13586976	24992
51	0.775393	105832448	73584640	14253496	24992
52	0.780892	105832448	73584640	14920256	24992
53	0.775534	105832448	73584640	15587120	24992
54	0.7645	105832448	73584640	16254184	24992
55	0.774117	105832448	73584640	16921568	24992
56	0.767435	105832448	73584640	17589072	24992
57	0.765883	105832448	73584640	18256936	24992
58	0.768023	105832448	73584640	18925088	24992
59	0.770842	105832448	73584640	19593216	24992
60	0.809154	105832448	73584640	20261464	24992
61	0.776674	105832448	73584640	20929848	24992
62	0.757972	105832448	73584640	21598368	24992
63	0.755837	105832448	73584640	22267024	24992
64	0.759271	105832448	73584640	22935440	24992
65	0.769379	105832448	73584640	23603800	24992
66	0.76349	105832448	73584640	24272240	24992
67	0.765114	105832448	73584640	24940816	24992
68	0.76942	105832448	73584640	25609512	24992
69	0.763319	105832448	73584640	26278312	24992
70	0.764897	105832448	73584640	26947360	24992
71	0.757806	105832448	73584640	27616552	24992
72	0.75747	105832448	73584640	28285920	24992
73	0.758026	105832448	73584640	28955424	24992
74	0.758318	105832448	73584640	29625048	24992
75	1.718684	105832448	73584640	14200992	24992
76	0.769504	105832448	73584640	14870888	24992
77	0.875295	105832448	73584640	15540920	24992
78	0.801041	105832448	73584640	16212168	24992
79	0.778313	105832448	73584640	16882456	24992
80	0.758699	105832448	73584640	17553104	24992
81	1.455666	105832448	73584640	18224864	24992
82	0.779473	105832448	73584640	18895504	24992
83	0.983367	105832448	73584640	19566280	24992
84	0.766195	105832448	73584640	20238312	24992
85	0.764226	105832448	73584640	20909312	24992
86	0.828661	105832448	73584640	21580344	24992
87	0.837507	105832448	73584640	22252480	24992
88	0.797412	105832448	73584640	22923992	24992
89	0.80828	105832448	73584640	23611592	24992
90	0.758763	105832448	73584640	24283400	24992
91	0.758807	105832448	73584640	24955344	24992
92	0.778351	105832448	73584640	25627424	24992
93	0.830876	105832448	73584640	26299640	24992
94	0.797065	105832448	73584640	26972560	24992
95	0.763832	105832448	73584640	27645032	24992
96	0.764228	105832448	73584640	28317296	24992
97	0.776974	105832448	73584640	28989424	24992
98	0.765573	105832448	73584640	29661680	24992
99	1.565427	105832448	73584640	14355944	24992
100	0.785001	105832448	73584640	15028472	24992
101	1.009275	105832448	73584640	15701104	24992
102	0.76036	105832448	73584640	16373776	24992
103	0.75841	105832448	73584640	17046592	24992
104	0.7556	105832448	73584640	17719544	24992
105	0.759486	105832448	73584640	18392680	24992
106	0.768474	105832448	73584640	19065944	24992
107	0.764863	105832448	73584640	19739344	24992
108	0.763088	105832448	73584640	20412864	24992
109	0.76359	105832448	73584640	21086520	24992
110	0.763811	105832448	73584640	21760312	24992
111	0.772572	105832448	73584640	22434240	24992
112	0.76534	105832448	73584640	23108320	24992
113	0.766936	105832448	73584640	23782536	24992
114	0.769018	105832448	73584640	24456888	24992
115	0.767862	105832448	73584640	25131376	24992
116	1.003002	105832448	73584640	25805984	24992
117	0.774257	105832448	73584640	26480696	24992
118	0.762452	105832448	73584640	27155480	24992
119	0.763438	105832448	73584640	27830392	24992
120	0.78053	105832448	73584640	28505440	24992
121	0.767824	105832448	73584640	29180656	24992
122	1.1132	105832448	73584640	29856016	24992
123	0.791497	105832448	73584640	30532496	24992
124	1.638849	105832448	73584640	15293376	24992
125	0.786615	105832448	73584640	15969128	24992
126	0.781852	105832448	73584640	16645000	24992
127	0.787299	105832448	73584640	17321008	24992
128	0.787708	105832448	73584640	17996832	24992
129	0.792685	105832448	73584640	18672216	24992
130	0.766093	105832448	73584640	19347720	24992
131	0.766721	105832448	73584640	20023520	24992
132	0.769696	105832448	73584640	20699456	24992
133	0.768813	105832448	73584640	21375496	24992
134	0.771432	105832448	73584640	22051664	24992
135	0.759006	105832448	73584640	22727984	24992
136	0.762898	105832448	73584640	23404440	24992
137	0.76368	105832448	73584640	24081064	24992
138	0.762674	105832448	73584640	24757816	24992
139	0.773077	105832448	73584640	25434792	24992
140	0.77322	105832448	73584640	26111808	24992
141	0.773611	105832448	73584640	26788968	24992
142	0.770526	105832448	73584640	27468088	24992
143	0.769079	105832448	73584640	28145504	24992
144	1.002401	105832448	73584640	28823088	24992
145	0.774407	105832448	73584640	29500808	24992
146	0.771393	105832448	73584640	30178648	24992
147	0.77135	105832448	73584640	30856624	24992
148	1.877323	105832448	73584640	15680008	24992
149	0.809199	105832448	73584640	16358224	24992
150	0.803769	105832448	73584640	17038320	24992
151	0.769934	105832448	73584640	17717296	24992
152	0.792108	105832448	73584640	18396408	24992
153	0.767641	105832448	73584640	19075688	24992
154	0.768322	105832448	73584640	19755096	24992
155	0.767875	105832448	73584640	20434640	24992
156	0.768566	105832448	73584640	21114320	24992
157	0.995737	105832448	73584640	21794136	24992
158	0.770568	105832448	73584640	22474072	24992
159	0.773099	105832448	73584640	23154144	24992
160	0.772554	105832448	73584640	23834048	24992
161	0.775573	105832448	73584640	24513784	24992
162	0.78157	105832448	73584640	25193640	24992
163	0.774467	105832448	73584640	25873632	24992
164	0.775571	105832448	73584640	26553808	24992
165	0.782826	105832448	73584640	27234040	24992
166	0.769387	105832448	73584640	27914664	24992
167	0.777347	105832448	73584640	28595432	24992
168	0.768236	105832448	73584640	29276336	24992
169	0.776316	105832448	73584640	29957424	24992
170	0.771304	105832448	73584640	30638640	24992
171	0.772481	105832448	73584640	31319992	24992
172	1.708116	105832448	73584640	16194432	24992
173	0.796605	105832448	73584640	16876040	24992
174	0.836331	105832448	73584640	17557784	24992
175	0.791629	105832448	73584640	18239664	24992
176	0.780475	105832448	73584640	18921696	24992
177	0.779127	105832448	73584640	19603864	24992
178	0.779162	105832448	73584640	20286168	24992
179	0.777826	105832448	73584640	20968608	24992
180	0.79596	105832448	73584640	21651168	24992
181	0.786866	105832448	73584640	22333832	24992
182	0.771111	105832448	73584640	23016640	24992
183	0.774946	105832448	73584640	23699584	24992
184	0.773974	105832448	73584640	24382664	24992
185	1.012798	105832448	73584640	25065928	24992
186	0.778339	105832448	73584640	25749320	24992
187	0.783239	105832448	73584640	26432848	24992
188	0.781112	105832448	73584640	27116496	24992
189	0.782255	105832448	73584640	27800280	24992
190	0.78978	105832448	73584640	28484200	24992
191	0.780941	105832448	73584640	29168256	24992
192	0.783759	105832448	73584640	29852152	24992
193	0.785463	105832448	73584640	30535864	24992
194	0.788771	105832448	73584640	31219704	24992
195	0.797972	105832448	73584640	31903680	24992
196	1.701626	105832448	73584640	16835400	24992
197	0.795107	105832448	73584640	17519608	24992
198	0.976815	105832448	73584640	18203952	24992
199	0.81187	105832448	73584640	18888432	24992
200	1.49288	105832448	73584640	19573448	24992
201	0.805545	105832448	73584640	20258248	24992
202	1.013618	105832448	73584640	20943176	24992
203	0.784937	105832448	73584640	21628240	24992
204	0.786792	105832448	73584640	22313424	24992
205	0.786912	105832448	73584640	22998744	24992
206	0.835688	105832448	73584640	23700392	24992
207	0.796471	105832448	73584640	24385984	24992
208	0.789968	105832448	73584640	25071728	24992
209	0.788085	105832448	73584640	25757608	24992
210	0.787936	105832448	73584640	26443624	24992
211	0.807649	105832448	73584640	27129776	24992
212	0.853358	105832448	73584640	27816048	24992
213	0.822386	105832448	73584640	28502424	24992
214	0.779679	105832448	73584640	29188944	24992
215	0.78093	105832448	73584640	29875600	24992
216	0.797658	105832448	73584640	30562416	24992
217	0.787123	105832448	73584640	31249384	24992
218	0.783943	105832448	73584640	31936488	24992
219	0.787032	105832448	73584640	32623728	24992
220	1.908867	105832448	73584640	17616648	24992
221	0.888034	105832448	73584640	18304160	24992
222	0.849173	105832448	73584640	18993576	24992
223	0.792789	105832448	73584640	19681328	24992
224	0.99884	105832448	73584640	20368936	24992
225	0.788686	105832448	73584640	21056344	24992
226	0.79154	105832448	73584640	21743880	24992
227	0.787115	105832448	73584640	22431552	24992
228	0.78636	105832448	73584640	23119344	24992
229	0.8003	105832448	73584640	23810120	24992
230	0.784211	105832448	73584640	24498160	24992
231	0.780815	105832448	73584640	25186336	24992
232	0.7847	105832448	73584640	25874648	24992
233	0.782002	105832448	73584640	26563144	24992
234	0.792786	105832448	73584640	27251768	24992
235	0.783974	105832448	73584640	27940528	24992
236	0.79548	105832448	73584640	28629408	24992
237	0.789265	105832448	73584640	29318424	24992
238	1.199447	105832448	73584640	30007992	24992
239	0.832316	105832448	73584640	30697280	24992
240	0.840227	105832448	73584640	31389016	24992
241	0.799254	105832448	73584640	32078592	24992
242	0.921011	105832448	73584640	32768304	24992
243	0.826758	105832448	73584640	33458168	24992
244	1.853089	105832448	73584640	18515336	24992
245	0.80092	105832448	73584640	19205408	24992
246	0.804233	105832448	73584640	19895624	24992
247	0.788291	105832448	73584640	20585976	24992
248	0.788897	105832448	73584640	21276464	24992
249	0.790187	105832448	73584640	21967136	24992
250	0.793473	105832448	73584640	22657936	24992
251	0.806673	105832448	73584640	23348872	24992
252	0.788887	105832448	73584640	24039928	24992
253	0.793477	105832448	73584640	24731120	24992
254	0.792988	105832448	73584640	25422448	24992
255	0.800867	105832448	73584640	26113912	24992
256	0.804531	105832448	73584640	26805736	24992
257	0.795986	105832448	73584640	27497328	24992
258	0.796266	105832448	73584640	28189056	24992
259	0.799224	105832448	73584640	28880920	24992
260	0.8053	105832448	73584640	29572904	24992
261	0.855324	105832448	73584640	30264864	24992
262	0.794429	105832448	73584640	30957136	24992
263	1.004028	105832448	73584640	31649720	24992
264	0.811987	105832448	73584640	32342600	24992
265	1.027607	105832448	73584640	33036304	24992
266	0.796571	105832448	73584640	33730496	24992
267	0.796452	105832448	73584640	34425176	24992
268	1.950759	105832448	73584640	19579816	24992
269	0.823721	105832448	73584640	20275456	24992
270	0.80391	105832448	73584640	20971584	24992
271	0.804085	105832448	73584640	21668200	24992
272	0.804164	105832448	73584640	22365288	24992
273	0.862185	105832448	73584640	23062864	24992
274	0.803335	105832448	73584640	23760928	24992
275	0.803194	105832448	73584640	24459480	24992
276	0.808555	105832448	73584640	25158544	24992
277	0.806567	105832448	73584640	25857712	24992
278	1.02172	105832448	73584640	26557008	24992
279	0.798831	105832448	73584640	27256520	24992
280	0.799552	105832448	73584640	27956072	24992
281	0.79954	105832448	73584640	28655760	24992
282	0.81217	105832448	73584640	29355584	24992
283	0.803242	105832448	73584640	30055544	24992
284	0.813351	105832448	73584640	30755624	24992
285	0.807768	105832448	73584640	31455840	24992
286	0.808345	105832448	73584640	32156192	24992
287	0.817104	105832448	73584640	32856680	24992
288	0.807448	105832448	73584640	33557032	24992
289	0.811774	105832448	73584640	34257136	24992
290	0.810102	105832448	73584640	34957376	24992
291	0.811257	105832448	73584640	35657752	24992
292	2.208674	105832448	73584640	20966536	24992
293	0.819429	105832448	73584640	21667168	24992
294	0.803836	105832448	73584640	22368032	24992
295	0.817072	105832448	73584640	23068936	24992
296	0.804013	105832448	73584640	23769960	24992
297	0.806666	105832448	73584640	24471120	24992
298	0.805405	105832448	73584640	25172416	24992
299	0.809824	105832448	73584640	25873848	24992
300	0.817709	105832448	73584640	26575400	24992
301	0.810574	105832448	73584640	27277088	24992
302	0.812393	105832448	73584640	27978912	24992
303	0.81203	105832448	73584640	28680872	24992
304	1.029753	105832448	73584640	29382968	24992
305	0.828876	105832448	73584640	30085184	24992
306	0.859554	105832448	73584640	30789640	24992
307	0.822279	105832448	73584640	31492128	24992
308	0.827185	105832448	73584640	32194736	24992
309	0.970489	105832448	73584640	32897480	24992
310	0.830136	105832448	73584640	33600360	24992
311	0.812671	105832448	73584640	34303376	24992
312	0.812724	105832448	73584640	35006512	24992
313	0.853219	105832448	73584640	35709784	24992
314	0.816165	105832448	73584640	36413192	24992
315	2.094271	105832448	73584640	21850120	24992
316	0.870062	105832448	73584640	22553784	24992
317	0.835904	105832448	73584640	23257584	24992
318	0.818436	105832448	73584640	23961520	24992
319	0.817905	105832448	73584640	24665592	24992
320	0.819472	105832448	73584640	25369552	24992
321	0.876291	105832448	73584640	26073248	24992
322	0.820313	105832448	73584640	26777072	24992
323	0.820297	105832448	73584640	27481032	24992
324	0.823734	105832448	73584640	28185112	24992
325	0.820869	105832448	73584640	28889328	24992
326	0.866461	105832448	73584640	29593680	24992
327	0.818155	105832448	73584640	30298168	24992
328	0.813243	105832448	73584640	31002776	24992
329	0.818478	105832448	73584640	31707520	24992
330	1.047159	105832448	73584640	32412400	24992
331	0.854529	105832448	73584640	33117416	24992
332	0.818471	105832448	73584640	33822552	24992
333	0.820322	105832448	73584640	34527824	24992
334	0.819458	105832448	73584640	35233232	24992
335	0.87777	105832448	73584640	35938776	24992
336	0.826005	105832448	73584640	36644440	24992
337	0.823861	105832448	73584640	37350392	24992
338	2.163922	105832448	73584640	22827024	24992
339	0.830233	105832448	73584640	23533136	24992
340	0.833688	105832448	73584640	24239336	24992
341	0.828735	105832448	73584640	24945664	24992
342	1.022304	105832448	73584640	25652128	24992
343	0.838638	105832448	73584640	26358728	24992
344	0.820507	105832448	73584640	27065448	24992
345	0.819142	105832448	73584640	27772304	24992
346	0.821389	105832448	73584640	28479296	24992
347	0.837811	105832448	73584640	29186424	24992
348	0.821489	105832448	73584640	29893672	24992
349	0.823221	105832448	73584640	30601056	24992
350	0.8262	105832448	73584640	31308576	24992
351	0.832557	105832448	73584640	32016232	24992
352	0.828771	105832448	73584640	32723792	24992
353	0.828443	105832448	73584640	33431072	24992
354	0.835879	105832448	73584640	34138480	24992
355	0.830309	105832448	73584640	34846024	24992
356	0.855779	105832448	73584640	35553688	24992
357	0.991673	105832448	73584640	36261576	24992
358	0.858998	105832448	73584640	36971016	24992
359	0.832079	105832448	73584640	37679088	24992
360	0.842022	105832448	73584640	38391728	24992
361	2.163702	105832448	73584640	23926392	24992
362	0.850616	105832448	73584640	24634856	24992
363	0.873659	105832448	73584640	25343456	24992
364	0.859252	105832448	73584640	26052176	24992
365	0.829205	105832448	73584640	26761032	24992
366	0.828884	105832448	73584640	27470024	24992
367	0.831501	105832448	73584640	28179152	24992
368	1.061004	105832448	73584640	28888400	24992
369	0.835438	105832448	73584640	29597784	24992
370	0.835839	105832448	73584640	30307304	24992
371	0.838855	105832448	73584640	31016960	24992
372	0.844588	105832448	73584640	31726736	24992
373	0.8409	105832448	73584640	32436648	24992
374	0.831802	105832448	73584640	33146696	24992
375	0.828308	105832448	73584640	33856880	24992
376	0.825866	105832448	73584640	34567184	24992
377	0.845714	105832448	73584640	35277624	24992
378	0.830966	105832448	73584640	35988296	24992
379	0.830382	105832448	73584640	36699008	24992
380	0.832514	105832448	73584640	37409840	24992
381	0.833747	105832448	73584640	38120816	24992
382	1.068058	105832448	73584640	38831912	24992
383	0.834933	105832448	73584640	39543152	24992
384	2.248292	105832448	73584640	25150800	24992
385	0.848288	105832448	73584640	25861656	24992
386	0.842462	105832448	73584640	26572648	24992
387	0.841748	105832448	73584640	27283776	24992
388	0.842194	105832448	73584640	27995024	24992
389	0.852494	105832448	73584640	28706408	24992
390	0.833071	105832448	73584640	29417928	24992
391	1.030662	105832448	73584640	30130648	24992
392	0.842917	105832448	73584640	30842424	24992
393	0.894651	105832448	73584640	31556360	24992
394	0.835883	105832448	73584640	32268408	24992
395	0.835517	105832448	73584640	32980648	24992
396	0.83689	105832448	73584640	33692960	24992
397	1.084449	105832448	73584640	34405400	24992
398	1.538098	105832448	73584640	35118896	24992
399	0.860622	105832448	73584640	35831600	24992
400	0.84883	105832448	73584640	36544432	24992
401	1.085599	105832448	73584640	37257408	24992
402	0.909697	105832448	73584640	37984048	24992
403	0.851011	105832448	73584640	38697288	24992
404	0.849754	105832448	73584640	39410656	24992
405	0.870335	105832448	73584640	40124160	24992
406	0.83449	105832448	73584640	40837792	24992
407	2.311573	105832448	73584640	26499224	24992
408	0.856917	105832448	73584640	27213120	24992
409	0.839285	105832448	73584640	27927144	24992
410	0.83735	105832448	73584640	28641304	24992
411	0.836796	105832448	73584640	29355600	24992
412	0.836758	105832448	73584640	30070016	24992
413	0.887872	105832448	73584640	30784568	24992
414	0.869415	105832448	73584640	31499256	24992
415	0.844645	105832448	73584640	32214080	24992
416	0.848029	105832448	73584640	32928848	24992
417	1.045678	105832448	73584640	33643288	24992
418	0.871038	105832448	73584640	34357864	24992
419	0.854605	105832448	73584640	35072576	24992
420	0.850711	105832448	73584640	35787408	24992
421	0.849308	105832448	73584640	36502376	24992
422	0.842992	105832448	73584640	37217480	24992
423	0.839719	105832448	73584640	37932720	24992
424	0.84977	105832448	73584640	38648080	24992
425	0.841675	105832448	73584640	39363576	24992
426	0.85319	105832448	73584640	40079208	24992
427	0.844495	105832448	73584640	40794976	24992
428	0.849053	105832448	73584640	41510864	24992
429	0.847108	105832448	73584640	42226888	24992
430	2.549464	105832448	73584640	27898568	24992
431	0.873543	105832448	73584640	28614864	24992
432	0.867833	105832448	73584640	29331280	24992
433	0.877758	105832448	73584640	30047832	24992
434	0.869558	105832448	73584640	30764520	24992
435	0.869015	105832448	73584640	31481344	24992
436	0.871589	105832448	73584640	32198288	24992
437	0.870708	105832448	73584640	32915368	24992
438	0.869239	105832448	73584640	33632584	24992
439	0.861974	105832448	73584640	34349936	24992
440	0.860085	105832448	73584640	35067408	24992
441	0.861382	105832448	73584640	35785016	24992
442	0.88338	105832448	73584640	36502760	24992
443	0.864743	105832448	73584640	37220640	24992
444	0.864666	105832448	73584640	37938640	24992
445	0.870726	105832448	73584640	38656776	24992
446	0.89735	105832448	73584640	39375048	24992
447	0.88731	105832448	73584640	40093456	24992
448	0.859252	105832448	73584640	40811832	24992
449	0.857251	105832448	73584640	41529864	24992
450	0.859803	105832448	73584640	42248024	24992
451	0.871401	105832448	73584640	42966320	24992
452	0.860732	105832448	73584640	43684736	24992
453	2.438622	105832448	73584640	29405120	24992
454	1.07732	105832448	73584640	30123888	24992
455	0.852423	105832448	73584640	30842712	24992
456	0.851062	105832448	73584640	31561656	24992
457	0.848601	105832448	73584640	32280768	24992
458	0.86926	105832448	73584640	32999984	24992
459	0.851881	105832448	73584640	33719336	24992
460	0.85243	105832448	73584640	34438808	24992
461	0.856014	105832448	73584640	35158416	24992
462	0.866418	105832448	73584640	35878160	24992
463	1.034255	105832448	73584640	36599200	24992
464	0.906264	105832448	73584640	37319200	24992
465	0.866339	105832448	73584640	38039336	24992
466	0.86235	105832448	73584640	38759608	24992
467	1.102813	105832448	73584640	39480016	24992
468	0.868388	105832448	73584640	40200544	24992
469	0.875693	105832448	73584640	40921208	24992
470	0.850531	105832448	73584640	41642008	24992
471	0.868425	105832448	73584640	42362944	24992
472	0.850386	105832448	73584640	43084000	24992
473	0.856842	105832448	73584640	43805192	24992
474	0.869509	105832448	73584640	44526520	24992
475	0.869098	105832448	73584640	45247984	24992
476	2.430195	105832448	73584640	31045352	24992
477	0.863931	105832448	73584640	31767072	24992
478	0.891269	105832448	73584640	32488928	24992
479	0.866856	105832448	73584640	33210960	24992
480	0.863349	105832448	73584640	33932944	24992
481	0.86656	105832448	73584640	34654560	24992
482	0.878549	105832448	73584640	35376312	24992
483	0.868503	105832448	73584640	36098184	24992
484	0.868059	105832448	73584640	36820184	24992
485	0.869977	105832448	73584640	37542440	24992
486	0.853418	105832448	73584640	38264704	24992
487	0.863348	105832448	73584640	38987112	24992
488	0.853283	105832448	73584640	39709640	24992
489	0.862766	105832448	73584640	40432304	24992
490	0.859657	105832448	73584640	41155104	24992
491	1.069919	105832448	73584640	41878040	24992
492	0.894823	105832448	73584640	42601096	24992
493	0.866721	105832448	73584640	43324288	24992
494	0.867177	105832448	73584640	44047616	24992
495	0.87631	105832448	73584640	44771080	24992
496	0.868074	105832448	73584640	45494664	24992
497	0.872622	105832448	73584640	46218384	24992
498	0.871001	105832448	73584640	46942240	24992
499	2.537967	105832448	73584640	32792840	24992
500	0.891773	105832448	73584640	33516952	24992
501	0.892142	105832448	73584640	34241200	24992
502	1.073481	105832448	73584640	34965584	24992
503	0.89352	105832448	73584640	35690104	24992
504	0.865866	105832448	73584640	36414744	24992
505	0.864152	105832448	73584640	37139520	24992
506	0.867261	105832448	73584640	37864432	24992
507	0.878833	105832448	73584640	38589480	24992
508	0.869909	105832448	73584640	39314648	24992
509	0.869649	105832448	73584640	40039952	24992
510	0.869435	105832448	73584640	40765392	24992
511	0.877278	105832448	73584640	41490968	24992
512	0.876044	105832448	73584640	42217000	24992
513	0.872916	105832448	73584640	42942640	24992
514	0.876466	105832448	73584640	43668416	24992
515	0.91899	105832448	73584640	44394328	24992
516	0.964588	105832448	73584640	45120360	24992
517	0.901032	106147840	73584640	45846192	24992
518	0.877869	106147840	73584640	46572272	24992
519	0.87861	106147840	73584640	47298600	24992
520	0.895858	106147840	73584640	48025160	24992
521	0.883183	106147840	73584640	48752416	24992
522	2.86898	106418176	74108928	34660176	24992
523	0.911003	106418176	74108928	35387928	24992
524	0.893683	106688512	74108928	36115912	24992
525	0.886464	106688512	74108928	36844144	24992
526	1.10584	106688512	74108928	37572624	24992
527	0.900313	106688512	74108928	38301352	24992
528	0.890877	106688512	74108928	39030336	24992
529	0.893358	106688512	74108928	39759552	24992
530	0.912658	106688512	74108928	40489008	24992
531	0.893368	106688512	74108928	41218736	24992
532	0.88866	106688512	74108928	41948680	24992
533	0.890134	106688512	74108928	42678864	24992
534	0.874172	106688512	74108928	43409296	24992
535	0.88242	106688512	74108928	44139976	24992
536	0.889931	106688512	74108928	44870888	24992
537	0.878276	106688512	74108928	45602048	24992
538	0.885596	106688512	74108928	46333456	24992
539	1.114067	106688512	74108928	47065112	24992
540	0.886913	106688512	74108928	47797000	24992
541	0.884897	106688512	74108928	48529136	24992
542	0.891077	106688512	74108928	49261520	24992
543	0.902736	106688512	74108928	49994152	24992
544	2.85881	107769856	75157504	35947320	24992
545	0.907453	107769856	75157504	36679792	24992
546	0.895877	107769856	75157504	37412512	24992
547	0.900115	107769856	75157504	38145480	24992
548	0.901024	107769856	75157504	38878680	24992
549	0.921948	107769856	75157504	39612128	24992
550	0.897487	107769856	75157504	40345824	24992
551	0.900083	107769856	75157504	41079768	24992
552	0.896022	107769856	75157504	41813968	24992
553	0.896387	107769856	75157504	42548400	24992
554	0.907971	107769856	75157504	43283072	24992
555	0.900901	107769856	75157504	44018128	24992
556	0.892027	107769856	75157504	44760088	24992
557	0.897099	107769856	75157504	45495488	24992
558	0.904099	107769856	75157504	46231136	24992
559	0.900503	107769856	75157504	46967032	24992
560	0.897436	107769856	75157504	47703160	24992
561	0.901181	107769856	75157504	48439536	24992
562	1.102011	107769856	75157504	49176160	24992
563	0.928947	107769856	75157504	49913032	24992
564	0.911892	107769856	75157504	50650136	24992
565	0.911382	107769856	75157504	51387488	24992
566	0.914479	107769856	75157504	52125088	24992
567	2.970801	108580864	76206080	38190424	24992
568	0.90948	108580864	76206080	38928504	24992
569	0.91102	108851200	76206080	39666832	24992
570	0.911448	108851200	76206080	40405408	24992
571	0.911049	108851200	76206080	41144232	24992
572	0.915771	108851200	76206080	41883288	24992
573	1.143774	108851200	76206080	42622592	24992
574	0.906096	108851200	76206080	43362144	24992
575	0.908329	108851200	76206080	44101944	24992
576	0.920569	108851200	76206080	44841904	24992
577	0.93527	108851200	76206080	45581552	24992
578	0.912997	108851200	76206080	46321480	24992
579	0.914934	108851200	76206080	47061608	24992
580	0.914339	108851200	76206080	47801976	24992
581	0.929205	108851200	76206080	48542592	24992
582	0.89854	108851200	76206080	49283456	24992
583	0.89835	108851200	76206080	50024568	24992
584	0.909494	108851200	76206080	50765912	24992
585	0.91834	108851200	76206080	51507504	24992
586	0.90698	108851200	76206080	52249344	24992
587	0.90666	108851200	76206080	52991432	24992
588	0.91113	108851200	76206080	53733752	24992
589	3.180061	109932544	77254656	39898752	24992
590	0.917023	109932544	77254656	40641568	24992
591	0.934452	109932544	77254656	41384632	24992
592	0.923774	109932544	77254656	42127928	24992
593	0.931589	109932544	77254656	42871472	24992
594	0.933381	109932544	77254656	43615264	24992
595	1.146768	109932544	77254656	44359304	24992
596	0.932973	109932544	77254656	45103576	24992
597	0.923165	109932544	77254656	45848096	24992
598	0.922497	109932544	77254656	46592904	24992
599	0.916355	109932544	77254656	47337912	24992
600	0.908665	109932544	77254656	48083160	24992
601	0.909977	109932544	77254656	48828696	24992
602	0.912485	109932544	77254656	49574432	24992
603	0.930097	109932544	77254656	50320424	24992
604	0.917315	109932544	77254656	51066648	24992
605	0.920895	109932544	77254656	51813120	24992
606	0.92549	109932544	77254656	52559840	24992
607	1.346549	109932544	77254656	53306808	24992
608	1.084489	109932544	77254656	54053952	24992
609	0.997889	109932544	77254656	54800768	24992
610	1.064649	109932544	77254656	55547824	24992
611	4.500913	111013888	78303232	41788856	24992
612	1.028904	111013888	78303232	42536560	24992
613	1.11561	111013888	78303232	43284352	24992
614	1.027527	111013888	78303232	44032384	24992
615	1.024253	111013888	78303232	44780664	24992
616	1.049443	111013888	78303232	45529176	24992
617	1.02588	111013888	78303232	46277936	24992
618	1.075615	111013888	78827520	47026944	24992
619	1.00363	111013888	78827520	47776200	24992
620	1.089089	111013888	78827520	48525688	24992
621	1.10013	111284224	78827520	49275424	24992
622	1.006817	111284224	78827520	50025408	24992
623	1.095647	111284224	78827520	50775688	24992
624	1.101601	111284224	78827520	51526152	24992
625	1.00182	111284224	78827520	52276864	24992
626	1.306756	111284224	78827520	53027824	24992
627	1.061641	111554560	78827520	53779032	24992
628	1.110099	111554560	78827520	54530472	24992
629	1.044768	111554560	79351808	55282160	24992
630	1.031395	111554560	79351808	56033960	24992
631	1.092013	111554560	79351808	56785984	24992
632	0.988611	111824896	79351808	57538240	24992
633	4.95836	112635904	80400384	43876536	24992
634	1.601645	112906240	80400384	44629240	24992
635	1.102441	112906240	80400384	45382176	24992
636	1.028277	112906240	80400384	46135344	24992
637	1.138829	112906240	80400384	46888744	24992
638	1.150415	112906240	80400384	47642360	24992
639	1.172397	113176576	80400384	48396208	24992
640	1.044818	113176576	80924672	49150256	24992
641	1.047829	113176576	80924672	49903928	24992
642	1.132807	113176576	80924672	50657848	24992
643	1.038861	113176576	80924672	51411968	24992
644	1.01748	113446912	80924672	52166320	24992
645	1.158461	113446912	80924672	52920904	24992
646	1.161438	113446912	80924672	53675600	24992
647	1.009138	113446912	80924672	54430552	24992
648	1.110114	113446912	80924672	55185736	24992
649	1.115561	113446912	80924672	55941168	24992
650	1.204366	113717248	81448960	56696848	24992
651	1.032582	113717248	81448960	57452776	24992
652	1.230198	113717248	81448960	58208936	24992
653	1.420894	113717248	81448960	58965352	24992
654	1.28516	113717248	81448960	59722000	24992
655	5.104005	115068928	82497536	46113160	24992
656	1.400458	115068928	82497536	46870296	24992
657	1.64437	115068928	82497536	47627680	24992
658	1.730201	115068928	82497536	48385320	24992
659	1.966242	115068928	82497536	49143192	24992
660	1.690426	115339264	83021824	49901304	24992
661	1.797431	115339264	83021824	50659664	24992
662	1.768808	115339264	83021824	51418152	24992
663	1.801125	115339264	83021824	52176880	24992
664	1.725738	115339264	83021824	52935856	24992
665	1.846247	115609600	83021824	53695080	24992
666	1.883988	115609600	83021824	54454536	24992
667	2.079722	115609600	83021824	55214392	24992
668	1.868364	115609600	83021824	55976272	24992
669	1.967257	115609600	83021824	56737688	24992
670	1.946669	115879936	83546112	57498120	24992
671	2.189889	115879936	83546112	58258800	24992
672	2.010156	115879936	83546112	59019712	24992
673	1.867883	115879936	83546112	59780248	24992
674	2.000383	115879936	83546112	60541016	24992
675	2.05361	116150272	83546112	61302032	24992
676	2.126636	116150272	83546112	62063296	24992
677	6.515376	117231616	84594688	48496408	24992
678	1.968114	117231616	84594688	49258048	24992
679	2.146816	117231616	85118976	50020000	24992
680	2.184412	117501952	85118976	50782136	24992
681	2.148427	117501952	85118976	51544512	24992
682	2.087554	117501952	85118976	52307136	24992
683	2.225893	117501952	85118976	53070008	24992
684	2.242747	117501952	85118976	53833112	24992
685	5.47295	115675136	84070400	45390720	24992
686	1.081833	115675136	84070400	46154320	24992
687	1.081614	115675136	84070400	46918168	24992
688	1.048636	115675136	84070400	47682248	24992
689	1.055446	115675136	84070400	48446576	24992
690	1.086469	115675136	84070400	49211152	24992
691	1.067854	115675136	84070400	49975976	24992
692	1.05561	115675136	84070400	50741032	24992
693	1.062245	115675136	84070400	51506336	24992
694	1.657752	115675136	84070400	52271888	24992
695	1.134478	115675136	84070400	53037688	24992
696	1.126904	115675136	84070400	53803720	24992
697	1.120792	115675136	84070400	54570000	24992
698	1.109019	115675136	84070400	55336632	24992
699	1.127273	115675136	84070400	56103400	24992
700	1.131858	115675136	84070400	56870408	24992
701	1.134248	115675136	84070400	57637664	24992
702	1.142152	115675136	84070400	58405168	24992
703	1.142674	115675136	84070400	59172920	24992
704	1.368641	115675136	84070400	59940912	24992
705	0.982804	115675136	84070400	60708512	24992
706	0.986032	115675136	84070400	61476360	24992
707	1.027548	115675136	84070400	62244440	24992
708	3.678267	117026816	84594688	48164296	24992
709	1.025502	117026816	84594688	48932864	24992
710	0.978631	117026816	84594688	49701680	24992
711	0.978363	117026816	84594688	50470744	24992
712	1.195034	117026816	84594688	51240040	24992
713	1.013064	117297152	84594688	52009584	24992
714	0.981464	117297152	84594688	52779376	24992
715	1.005559	117297152	85118976	53549416	24992
716	1.004815	117297152	85118976	54319688	24992
717	0.986654	117567488	85118976	55090208	24992
718	0.990738	117567488	85118976	55861000	24992
719	0.994269	117567488	85118976	56632008	24992
720	1.014488	117567488	85118976	57403256	24992
721	1.008331	117567488	85118976	58174752	24992
722	1.003585	117837824	85118976	58946496	24992
723	1.022841	117837824	85643264	59718488	24992
724	1.021721	117837824	85643264	60490712	24992
725	1.019056	117837824	85643264	61263184	24992
726	0.98443	118108160	85643264	62035928	24992
727	0.983188	118108160	85643264	62808888	24992
728	0.996361	118108160	85643264	63582088	24992
729	4.242523	119459840	87216128	50231240	24992
730	0.998926	119459840	87216128	51004936	24992
731	0.998562	119459840	87216128	51778880	24992
732	1.207352	119459840	87216128	52553056	24992
733	1.00928	119730176	87216128	53327568	24992
734	1.001692	119730176	87216128	54102232	24992
735	1.001377	119730176	87216128	54877152	24992
736	1.018095	119730176	87216128	55652328	24992
737	1.040389	120000512	87740416	56427096	24992
738	1.015376	120000512	87740416	57202104	24992
739	1.012937	120000512	87740416	57977360	24992
740	1.031519	120000512	87740416	58752848	24992
741	1.023935	120000512	87740416	59528624	24992
742	0.990784	120270848	87740416	60304600	24992
743	1.003342	120270848	87740416	61080832	24992
744	1.08465	120270848	87740416	61857296	24992
745	1.028401	120270848	87740416	62634008	24992
746	1.02263	120541184	88264704	63411048	24992
747	1.053584	120541184	88264704	64188256	24992
748	1.009737	120541184	88264704	64965696	24992
749	1.006591	120541184	88264704	65743384	24992
750	1.008635	120811520	88264704	66521320	24992
751	4.062135	121892864	89837568	53215600	24992
752	1.226924	121892864	89837568	53994016	24992
753	1.015862	122163200	89837568	54772680	24992
754	1.028417	122163200	89837568	55551592	24992
755	1.03763	122163200	89837568	56330752	24992
756	1.024123	122163200	89837568	57110144	24992
757	1.023109	122433536	89837568	57889784	24992
758	1.004084	122433536	89837568	58669760	24992
759	1.012205	122433536	89837568	59449888	24992
760	1.023517	122433536	90361856	60230256	24992
761	1.009413	122703872	90361856	61010872	24992
762	1.013053	122703872	90361856	61791736	24992
763	1.215429	122703872	90361856	62572880	24992
764	1.009894	122703872	90361856	63354224	24992
765	1.02276	122974208	90361856	64135816	24992
766	1.022828	122974208	90361856	64917656	24992
767	1.023635	122974208	90361856	65699744	24992
768	1.044717	122974208	90886144	66482120	24992
769	1.037245	123244544	90886144	67264056	24992
770	1.032562	123244544	90886144	68046232	24992
771	1.033632	123244544	90886144	68828656	24992
772	4.261186	124596224	92459008	55614616	24992
773	1.043232	124596224	92459008	56397528	24992
774	1.078099	124596224	92459008	57180680	24992
775	1.027463	124866560	92459008	57964080	24992
776	1.013199	124866560	92459008	58747712	24992
777	1.01662	124866560	92459008	59531592	24992
778	1.191029	124866560	92459008	60315720	24992
779	1.049884	125136896	92459008	61100096	24992
780	1.017331	125136896	92459008	61884704	24992
781	1.043152	125136896	92983296	62669560	24992
782	1.227711	125136896	92983296	63454664	24992
783	1.02903	125407232	92983296	64240016	24992
784	1.044056	125407232	92983296	65025600	24992
785	1.067814	125407232	92983296	65811472	24992
786	1.073773	125407232	92983296	66597544	24992
787	1.042541	125677568	92983296	67383872	24992
788	1.064236	125677568	93507584	68170432	24992
789	1.093489	125677568	93507584	68957240	24992
790	1.016477	125947904	93507584	69744296	24992
791	1.021607	125947904	93507584	70531600	24992
792	1.025635	125947904	93507584	71319136	24992
793	4.507751	127299584	95080448	58139960	24992
794	1.036678	127299584	95080448	58927992	24992
795	1.036795	127299584	95080448	59716272	24992
796	1.040365	127569920	95080448	60504800	24992
797	1.063516	127569920	95080448	61293560	24992
798	1.035128	127569920	95080448	62082568	24992
799	1.04564	127569920	95080448	62871824	24992
800	1.062251	127840256	95604736	63661376	24992
801	1.06534	127840256	95604736	64450472	24992
802	1.051096	127840256	95604736	65239816	24992
803	1.052136	127840256	95604736	66029408	24992
804	1.062778	128110592	95604736	66819232	24992
805	1.056312	128110592	95604736	67609304	24992
806	1.018672	128110592	95604736	68399624	24992
807	1.022986	128380928	95604736	69190192	24992
808	1.052123	128380928	96129024	69980992	24992
809	1.030308	128380928	96129024	70772080	24992
810	1.033821	128380928	96129024	71563368	24992
811	1.258531	128651264	96129024	72354912	24992
812	1.087289	128651264	96129024	73146688	24992
813	1.042827	128651264	96129024	73938712	24992
814	4.528126	130002944	97701888	60868192	24992
815	1.116425	130002944	97701888	61660704	24992
816	1.075322	130273280	97701888	62453456	24992
817	1.062331	130273280	97701888	63246456	24992
818	1.059919	130273280	97701888	64039704	24992
819	1.522944	130543616	98226176	64833200	24992
820	1.13996	130543616	98226176	65629488	24992
821	1.069835	130543616	98226176	66423464	24992
822	1.041592	130543616	98226176	67217688	24992
823	1.088988	130813952	98226176	68012160	24992
824	1.058983	130813952	98226176	68806864	24992
825	1.038893	130813952	98226176	69601816	24992
826	1.096731	130813952	98750464	70397016	24992
827	1.04292	131084288	98750464	71192464	24992
828	1.048238	131084288	98750464	71988144	24992
829	1.071245	131084288	98750464	72784072	24992
830	1.054886	131354624	98750464	73580248	24992
831	1.055009	131354624	98750464	74376672	24992
832	1.063742	131354624	98750464	75173416	24992
833	1.093018	131354624	99274752	75969688	24992
834	1.069749	131624960	99274752	76766200	24992
835	4.684887	132976640	100847616	63766320	24992
836	1.083461	132976640	100847616	64563312	24992
837	1.282783	133246976	100847616	65360552	24992
838	1.038864	133246976	100847616	66158104	24992
839	1.046515	133246976	100847616	66955840	24992
840	1.243286	133246976	100847616	67753808	24992
841	1.077695	133517312	100847616	68552024	24992
842	1.05685	133517312	100847616	69350488	24992
843	1.0791	133517312	101371904	70149264	24992
844	1.063296	133517312	101371904	70948208	24992
845	1.056675	133787648	101371904	71747400	24992
846	1.068366	133787648	101371904	72546840	24992
847	1.288943	133787648	101371904	73346528	24992
848	1.097916	134057984	101371904	74146488	24992
849	1.098539	134057984	101896192	74946664	24992
850	1.071294	134057984	101896192	75757400	24992
851	1.088792	134057984	101896192	76558064	24992
852	1.077803	134328320	101896192	77358960	24992
853	1.082848	134328320	101896192	78160144	24992
854	1.063069	134328320	101896192	78961528	24992
855	1.053045	134598656	101896192	79763168	24992
856	5.001715	135950336	103469056	66833896	24992
857	1.070643	135950336	103469056	67636024	24992
858	1.080945	135950336	103469056	68438392	24992
859	1.080543	136220672	103993344	69241008	24992
860	1.061877	136220672	103993344	70043856	24992
861	1.073626	136220672	103993344	70846952	24992
862	1.077671	136491008	103993344	71650296	24992
863	1.068668	136491008	103993344	72453888	24992
864	1.082713	136491008	103993344	73257816	24992
865	1.08913	136761344	103993344	74061256	24992
866	1.104087	136761344	104517632	74864936	24992
867	1.082412	136761344	104517632	75668864	24992
868	1.086147	136761344	104517632	76473040	24992
869	1.109292	137031680	104517632	77277448	24992
870	1.064073	137031680	104517632	78082104	24992
871	1.054881	137031680	104517632	78887008	24992
872	1.129578	137302016	105041920	79692144	24992
873	1.06374	137302016	105041920	80497584	24992
874	1.074057	137302016	105041920	81303208	24992
875	1.069119	137572352	105041920	82109088	24992
876	1.271643	137572352	105041920	82915200	24992
877	5.026569	138924032	106614784	70103520	24992
878	1.096471	139194368	106614784	70910128	24992
879	1.122397	139194368	106614784	71716984	24992
880	1.121836	139194368	106614784	72524072	24992
881	1.11202	139464704	107139072	73331408	24992
882	1.097017	139464704	107139072	74138992	24992
883	1.298046	139464704	107139072	74946912	24992
884	1.107936	139464704	107139072	75754984	24992
885	1.099516	139735040	107139072	76563296	24992
886	1.065778	139735040	107139072	77371856	24992
887	1.090565	139735040	107663360	78180664	24992
888	1.069772	140005376	107663360	78989736	24992
889	1.077347	140005376	107663360	79799024	24992
890	1.087424	140005376	107663360	80608560	24992
891	1.075457	140275712	107663360	81418344	24992
892	1.084601	140275712	107663360	82228360	24992
893	1.116706	140275712	108187648	83038696	24992
894	1.09251	140546048	108187648	83849200	24992
895	1.093691	140546048	108187648	84659960	24992
896	1.095095	140546048	108187648	85471080	24992
897	1.116599	140816384	108187648	86281680	24992
898	5.25783	142168064	109760512	73573392	24992
899	1.122627	142168064	109760512	74384488	24992
900	1.307279	142438400	109760512	75195848	24992
901	1.122809	142438400	110284800	76007424	24992
902	1.07845	142438400	110284800	76819248	24992
903	1.071125	142708736	110284800	77631320	24992
904	1.26735	142708736	110284800	78443624	24992
905	1.088647	142708736	110284800	79256208	24992
906	1.085574	142979072	110284800	80069008	24992
907	1.128192	142979072	110809088	80882056	24992
908	1.092984	142979072	110809088	81695336	24992
909	1.092114	143249408	110809088	82508864	24992
910	1.269103	143249408	110809088	83322640	24992
911	1.118425	143249408	110809088	84136664	24992
912	1.111984	143519744	110809088	84950936	24992
913	1.122721	143519744	111333376	85765440	24992
914	1.135937	143519744	111333376	86580192	24992
915	1.115221	143790080	111333376	87395192	24992
916	1.112719	143790080	111333376	88210424	24992
917	1.169346	143790080	111333376	89025944	24992
918	5.261851	145412096	112906240	76310032	24992
919	1.100935	145412096	112906240	77126008	24992
920	1.120139	145682432	113430528	77942216	24992
921	1.090152	145682432	113430528	78758672	24992
922	1.105043	145682432	113430528	79575376	24992
923	1.100096	145952768	113430528	80392328	24992
924	1.107484	145952768	113430528	81209512	24992
925	1.116121	145952768	113430528	82026944	24992
926	1.130671	146223104	113954816	82844624	24992
927	1.371882	146223104	113954816	83662632	24992
928	1.132761	146223104	113954816	84480936	24992
929	1.121107	146493440	113954816	85298744	24992
930	1.1163	146493440	113954816	86116752	24992
931	1.137959	146493440	113954816	86935016	24992
932	1.142378	146763776	114479104	87753512	24992
933	1.129681	146763776	114479104	88572256	24992
934	1.135421	146763776	114479104	89391264	24992
935	1.096166	147034112	114479104	90210504	24992
936	1.102006	147034112	114479104	91029976	24992
937	1.112884	147034112	114479104	91849696	24992
938	1.791798	147304448	115003392	92670176	24992
939	5.844072	148656128	116576256	80066264	24992
940	1.209992	148926464	116576256	80886712	24992
941	1.123759	148926464	116576256	81707408	24992
942	1.116671	148926464	116576256	82528352	24992
943	1.48177	149196800	116576256	83349624	24992
944	1.198344	149196800	116576256	84194904	24992
945	1.153177	149196800	117100544	85016576	24992
946	1.142407	149467136	117100544	85838496	24992
947	1.137481	149467136	117100544	86660664	24992
948	1.130389	149467136	117100544	87483064	24992
949	1.145324	149737472	117100544	88305712	24992
950	1.10747	149737472	117100544	89128744	24992
951	1.118647	149737472	117624832	89951880	24992
952	1.110235	150007808	117624832	90775256	24992
953	1.309847	150007808	117624832	91598880	24992
954	1.115524	150007808	117624832	92422752	24992
955	1.111993	150278144	117624832	93246880	24992
956	1.194746	150278144	118149120	94071240	24992
957	1.120395	150278144	118149120	94895840	24992
958	1.129617	150548480	118149120	95720688	24992
959	5.692245	152170496	120246272	83199936	24992
960	1.149326	152170496	120246272	84025432	24992
961	1.14066	152440832	120246272	84850376	24992
962	1.143294	152440832	120246272	85675560	24992
963	1.146976	152440832	120246272	86500992	24992
964	1.136906	152711168	120246272	87326656	24992
965	1.145023	152711168	120246272	88152568	24992
966	1.163444	152711168	120246272	88978728	24992
967	1.115956	152981504	120246272	89805136	24992
968	1.132552	152981504	120770560	90631776	24992
969	1.174189	152981504	120770560	91458744	24992
970	1.155555	153251840	120770560	92285880	24992
971	1.155547	153251840	120770560	93113368	24992
972	1.289591	153251840	120770560	93940992	24992
973	1.182448	153522176	121294848	94768856	24992
974	1.134849	153522176	121294848	95596968	24992
975	1.147227	153522176	121294848	96425328	24992
976	1.313768	153792512	121294848	97253944	24992
977	1.148341	153792512	121294848	98082792	24992
978	1.141224	154062848	121294848	98911944	24992
979	5.96823	155684864	123392000	86399392	24992
980	1.167868	155684864	123392000	87229000	24992
981	1.170375	155684864	123392000	88058824	24992
982	1.119798	155955200	123392000	88888888	24992
983	1.121668	155955200	123392000	89719200	24992
984	1.117121	155955200	123392000	90549744	24992
985	1.166453	156225536	123916288	91380536	24992
986	1.129311	156225536	123916288	92211576	24992
987	1.137941	156225536	123916288	93042896	24992
988	1.1393	156495872	123916288	93874416	24992
989	1.142551	156495872	123916288	94706184	24992
990	1.156004	156495872	124440576	95538200	24992
991	1.152539	156766208	124440576	96370464	24992
992	1.158963	156766208	124440576	97203144	24992
993	1.363888	157036544	124440576	98035256	24992
994	1.149923	157036544	124440576	98867712	24992
995	1.17639	157036544	124440576	99700304	24992
996	1.173077	157306880	124964864	100533136	24992
997	1.16653	157306880	124964864	101366216	24992
998	1.136459	157306880	124964864	102199544	24992
999	5.862021	159199232	127062016	89768368	24992
1000	1.165773	159199232	127062016	90602176	24992
