x	MedianTime	lowerCI	upperCI	SampleSize
0	NaN	NaN	NaN	60
1	0.3185715	0.293896	0.367605	60
2	0.2853055	0.239364	0.367486	60
3	0.31883649999999997	0.247087	0.421108	60
4	0.372224	0.298442	0.505558	60
5	0.46023000000000003	0.386247	0.591647	60
6	0.4918395	0.383917	0.5607	60
7	0.516617	0.438202	0.669748	60
8	0.585799	0.479045	0.69086	60
9	0.564159	0.48352	0.774241	59
10	0.552908	0.517147	0.822176	59
11	0.614156	0.561178	0.823754	57
12	0.649924	0.617077	0.712841	60
13	0.6975015	0.666567	0.754267	60
14	0.755653	0.703888	0.841834	59
15	0.817959	0.769786	0.907093	59
16	0.84272	0.799321	0.896374	59
17	0.898746	0.850302	0.940625	56
18	0.977672	0.937808	1.015343	59
19	1.035296	0.979832	1.077284	59
20	1.102711	1.054933	1.121211	59
21	1.2324644999999999	1.103434	1.289887	58
22	1.343599	1.255471	1.394993	59
23	1.370347	1.290332	1.419838	58
25	1.462012	1.418874	1.532627	57
26	1.471781	1.452935	1.52534	58
27	1.5579934999999998	1.534342	1.640695	60
28	1.656212	1.625853	1.735033	59
29	1.722918	1.672496	1.856298	55
30	1.83416	1.755494	1.918048	32
31	1.9249985	1.88051	1.959722	58
32	1.960209	1.929891	2.000166	57
33	2.053354	2.031646	2.132798	54
34	2.172393	2.145965	2.293853	59
35	2.260295	2.224517	2.400103	57
37	2.456847	2.38284	2.511372	55
38	2.5909674999999996	2.497596	2.656159	58
39	2.6568940000000003	2.605009	2.703763	58
40	2.784414	2.714161	2.853452	48
41	2.983297	2.805049	3.078431	37
42	3.048084	2.987415	3.118556	53
43	3.193478	3.146466	3.257081	57
44	3.1446475	3.115555	3.222289	56
46	3.400024	3.339003	3.472759	58
47	3.4709305	3.422126	3.544947	54
48	3.6615055	3.586504	3.810892	30
49	3.7945140000000004	3.740809	3.879201	52
50	3.807948	3.756098	3.922643	55
52	4.150008	4.046802	4.214164	55
53	4.287006	4.205657	4.377491	51
54	4.439806	4.382583	4.562618	32
55	4.641612	4.479417	4.900296	51
56	4.63476	4.57614	4.687124	55
58	4.825149	4.772628	5.044787	51
59	5.0230195	4.927961	5.124788	30
60	5.2012475	5.093668	5.398055	52
62	5.470058	5.312497	5.591117	56
63	5.573632	5.481484	5.790175	25
64	5.983971	5.867557	6.128317	49
66	6.058203	5.927639	6.125104	55
67	6.1535635	6.092892	6.200267	24
68	6.342195	6.242404	6.409785	51
70	6.619773500000001	6.558656	6.688107	44
71	6.761761	6.605138	6.987012	30
73	7.145162	7.084438	7.206037	53
74	7.277585	7.162199	7.467378	22
76	7.5540865	7.507218	7.651225	50
77	7.814118	7.761758	8.052974	21
79	8.1305545	8.078762	8.192601	50
80	8.250385999999999	8.090223	8.52032	20
82	8.7221285	8.650808	8.854298	40
83	8.822973000000001	8.71971	9.086739	30
85	9.213867	9.042606	9.345847	20
87	9.629128	9.518762	9.74529	39
88	9.819654	9.667753	9.996675	27
90	10.078027	10.050322	10.332491	17
92	10.713914500000001	10.320211	11.19458	18
94	10.917444	10.85066	11.129144	17
96	11.279633	11.204224	11.476706	17
98	11.704242	11.675286	11.945811	17
100	12.202312	12.100541	12.466767	16
102	12.474085	12.420449	12.818829	15
105	13.395794	13.280483	13.542005	11
107	13.7815485	13.676725	14.088204	16
110	14.4842115	14.287582	14.818273	14
113	15.2500775	14.806134	16.073677	10
116	15.847652	15.798544	16.2271	14
120	17.201116	16.751696	17.851019	10
124	17.988645	17.800602	18.536937	9
130	19.6152045	19.269985	20.269808	6
138	26.442556500000002	26.196651	26.6918	56
139	26.8264555	26.456353	27.122086	60
140	26.9408945	26.675892	27.195479	60
141	27.0419555	26.889049	27.368801	60
142	27.2996175	27.080616	27.506383	60
143	27.448428999999997	27.311991	27.603732	60
144	27.420435	27.237037	27.65462	60
145	27.659763	27.469488	27.939387	59
146	27.799834	27.649217	27.996147	59
147	27.895754	27.747865	27.968931	58
148	28.144028	28.006101	28.306929	59
149	28.233646	28.127591	28.451096	60
150	28.583774	28.41606	28.783975	59
152	31.195548	30.916339	31.357209	57
153	30.910262	30.751922	31.141944	55
154	30.604491	30.398738	30.916939	59
156	29.075103499999997	28.482807	32.591743	10
157	32.776835	32.544459	33.00538	56
158	32.3770425	32.166904	32.596246	54
160	30.6607525	30.020186	31.744482	12
161	34.019307	33.725842	34.261079	51
163	32.084887	30.730071	34.272618	13
164	37.812709	37.700705	38.354852	51
166	32.947044	32.196528	34.731842	17
167	36.762465500000005	36.616172	37.014342	44
169	40.201709	39.562301	40.512869	49
171	34.849457	34.234318	37.279444	14
173	37.6272045	37.416747	37.933119	30
175	38.2368665	37.894059	38.610704	30
177	36.242137	35.887082	36.65348	30
180	40.539826500000004	40.36946	41.159489	30
183	41.7808975	41.408803	42.005598	30
186	43.0587875	42.709412	43.479311	48
187	43.1594245	42.558429	49.265053	12
190	49.007855	48.607455	49.929726	49
191	48.063191	44.82374	51.477347	39
192	49.3527325	48.805073	49.956375	26
196	50.69074	50.310361	51.342247	49
197	51.1227705	50.8862	51.661576	44
198	52.0233985	51.480494	52.675279	46
199	51.822851	51.520223	52.618716	46
201	53.232488000000004	52.690094	53.787344	42
202	53.371669	52.837124	53.834255	54
203	53.4185095	49.124061	55.039988	56
204	49.555436	49.146135	50.67715	46
205	50.4762665	49.848201	53.858779	58
206	53.478263	50.347416	54.518768	45
208	55.806326	55.459502	56.533341	41
209	56.4866455	56.106947	57.174232	40
210	56.929642	56.739698	57.269081	50
211	57.879035	57.528509	58.878066	48
213	58.715543	58.269439	59.530111	35
215	59.088694	58.862277	59.372912	37
217	59.794049	59.275334	60.691744	33
218	60.281969	59.95044	60.598634	39
220	60.90903	60.651306	61.898282	34
222	62.869231	62.31587	63.370313	30
225	63.519576	63.04147	63.867879	31
228	67.426039	66.150331	69.15036	40
229	69.474688	68.773446	70.213143	48
230	70.40344300000001	69.646738	71.094897	50
232	71.0526685	68.477229	71.760616	56
233	71.706552	71.214314	72.29444	52
234	72.2190185	71.762741	72.638375	54
235	72.311433	71.870354	72.913829	55
236	73.02281550000001	72.413971	73.26132	48
237	73.191411	72.222191	73.908437	51
239	74.6033085	74.051544	75.356709	46
240	75.130319	74.484166	75.8455	58
241	75.6046575	75.280921	76.129732	50
242	76.014761	75.525143	76.528361	55
243	76.606068	76.18326	77.676139	55
244	77.171116	76.591604	77.971723	49
246	78.4554835	77.892975	79.10888	44
247	79.193469	78.795789	80.248039	55
249	79.72369	79.387578	80.243585	51
250	80.35587000000001	79.968415	81.093981	46
251	81.058608	80.546004	81.410658	37
253	82.091127	81.419392	82.805692	43
254	82.3367615	81.482053	83.509091	44
255	83.117284	82.815693	83.584018	36
257	84.3604665	83.55956	84.766921	42
258	84.80567	83.797394	85.625387	29
261	85.589742	85.215615	86.134183	32
262	86.15737	85.710092	87.726581	36
264	88.59880899999999	87.837798	89.579628	26
266	91.736629	90.974652	92.779836	52
267	90.103476	88.806427	91.610056	49
268	93.144222	92.307235	94.094434	54
269	92.390151	91.132839	93.508674	51
270	94.240186	93.121134	95.576734	49
272	95.16435200000001	93.917789	95.920903	52
273	96.163829	95.615477	97.06994	51
274	96.5882355	96.305888	97.704459	54
275	97.502244	96.388111	98.180289	50
276	98.6643775	97.755011	99.559793	48
278	99.449123	98.703462	99.914162	49
279	99.643363	99.013035	100.542615	52
280	100.6531525	99.857529	101.297883	52
281	101.127028	100.25036	102.345359	47
282	101.914742	101.197601	102.782281	44
284	102.956363	102.459126	103.811808	53
285	103.660559	103.383114	104.270172	52
286	104.871486	103.690277	105.673529	43
287	104.766661	104.356835	105.119529	41
289	105.51769350000001	104.871251	106.660417	46
290	106.358631	105.655718	106.954879	44
291	106.7741785	106.332308	107.733095	38
292	107.958123	107.494366	108.811839	35
293	108.9421425	107.810925	110.142335	40
295	108.88666	108.247434	109.965142	39
297	110.8183805	109.703003	112.115211	32
298	110.855739	110.20317	113.226131	33
300	113.851805	113.050192	115.456618	51
301	114.1858	113.582991	116.406649	43
302	115.21566949999999	113.800089	116.651564	44
304	116.967029	116.041233	118.056934	49
305	117.800182	116.845711	119.12887	53
306	118.6860155	117.705526	119.761679	40
307	119.250081	117.838452	120.913883	44
309	121.196822	120.57272	121.945634	51
310	123.272037	121.880416	123.99991	55
311	123.4819075	122.354736	126.242981	38
312	123.368757	122.747399	124.760389	45
314	124.732164	124.066337	125.707143	51
315	125.9059625	125.139161	126.950664	40
316	125.912392	125.335103	126.992017	43
318	126.91564149999999	126.547788	128.109443	52
319	129.039828	128.472484	129.880205	48
320	129.450413	128.695275	130.313305	39
321	128.816931	128.351418	130.370051	43
323	130.660055	130.274843	131.22142	47
324	131.331297	131.028884	132.364512	32
325	132.01905950000003	131.53673	132.89041	42
327	133.434133	133.115419	134.669452	39
328	134.627747	133.605978	136.797048	29
329	135.137568	134.37656	137.457737	43
331	136.939571	136.109476	138.472452	51
332	138.7037535	137.323915	140.343848	36
333	139.148172	137.750072	141.269625	43
335	140.654995	139.573062	142.156935	53
336	143.73526099999998	142.358586	144.659895	34
337	142.581786	140.870995	143.674674	43
339	143.955256	143.175601	145.38796	53
340	145.063045	144.522438	147.873944	34
341	145.189941	144.02063	146.263813	43
343	148.607351	147.553389	149.741884	50
344	150.279217	148.859682	154.526415	37
345	149.310477	147.746953	150.015475	43
347	150.987862	150.298613	152.615876	49
348	152.6490135	150.947444	156.53884	36
350	152.873255	152.324513	153.759898	49
351	154.407929	153.490564	155.040408	43
352	154.87623	154.226884	156.120999	39
354	156.062517	155.374927	156.766543	48
356	159.31201	157.696768	160.207496	35
358	158.835372	157.894611	161.726987	43
359	161.217101	159.903603	162.698114	44
361	161.213396	160.17734	162.979983	44
362	162.2271955	160.919386	163.97164	44
363	166.061791	162.513829	166.85971	41
365	165.39356850000001	164.084154	166.835539	42
366	165.6034105	164.927836	167.09858	42
368	167.903771	166.283123	169.08813	45
369	169.672414	168.398082	172.165477	39
370	170.76927899999998	168.906373	171.868966	44
372	172.175389	170.220476	173.37235	41
373	172.71709199999998	171.672936	174.130171	38
375	175.5270645	174.470378	176.480479	40
376	175.549148	174.32748	177.272069	37
378	177.38288649999998	176.589256	178.993228	44
379	179.20640500000002	178.112298	181.352046	38
381	179.941718	179.251823	181.033748	47
382	179.986583	179.699967	181.681302	37
384	183.6121565	182.44763	184.814238	48
385	183.53616449999998	182.542007	184.661652	38
387	184.93179	183.442542	186.162548	49
388	187.158588	186.123499	189.741402	39
390	188.978158	188.39582	189.867446	51
391	190.273243	188.807629	191.989869	37
393	189.771949	189.100988	191.207888	48
394	192.210516	190.734483	194.780458	36
396	193.9172345	191.749144	194.681175	46
397	195.9815345	194.722753	197.265641	38
399	198.144932	196.569585	198.952078	47
400	199.6469205	197.259568	200.743213	36
402	200.000459	198.916661	200.935606	47
403	200.9450325	200.590971	202.281732	34
405	201.508596	200.527025	202.728315	47
406	203.910591	202.424883	205.371435	35
408	205.8804075	204.263027	207.118544	42
409	205.211959	204.343172	206.995733	31
411	208.99329649999999	208.125207	210.316455	42
413	210.84583800000001	209.782961	211.91591	48
414	211.601711	210.173457	213.881515	36
416	213.54681	211.740814	217.082485	47
417	213.2741855	212.191271	219.873007	26
419	217.36356849999999	215.906951	219.303556	46
420	218.726071	217.841526	222.636685	21
422	220.55805600000002	219.136251	222.425476	36
424	220.650994	218.032282	222.516887	49
425	223.976293	221.665673	226.183272	29
427	226.32518	224.618399	227.013602	47
428	225.17045050000002	223.210589	226.671297	28
430	229.4777975	227.860263	230.947968	36
432	229.700377	229.213987	230.716405	43
433	231.416042	229.317061	233.187045	28
435	232.65667100000002	231.405921	234.815418	42
437	233.900187	232.962147	235.614129	45
438	235.539702	233.584159	240.345086	29
440	237.337576	236.27387	239.534668	35
441	238.311271	237.481958	241.094529	34
443	240.188694	239.454683	243.059145	29
445	241.842035	241.158811	245.706916	29
446	242.946635	242.02635	244.603293	41
448	247.5485215	244.362258	249.451326	28
450	248.773038	246.152236	254.00937	23
451	248.4044485	246.044378	250.04733	46
453	253.1750865	252.126285	254.406791	42
455	252.628758	251.689362	253.992302	31
456	256.023698	254.824036	257.933772	45
458	256.860826	255.663826	258.687266	41
460	259.04918299999997	257.989313	260.293971	46
462	259.806423	258.828621	261.910812	33
464	262.78873350000003	261.739869	264.862377	28
465	265.225439	263.845084	266.808597	48
467	267.48731	266.549046	269.961976	41
468	269.5164135	266.525137	271.576013	26
469	268.572643	267.737798	271.743844	45
471	269.66844100000003	267.968715	272.041141	32
473	274.1546875	272.355677	277.222998	38
474	275.8121735	273.990503	278.651073	34
476	277.33441	276.42895	279.401039	39
478	279.336454	276.159625	281.434994	37
480	281.113498	279.515786	284.304043	33
482	283.553631	282.715336	287.315071	33
484	287.6725735	285.336521	291.35089	34
486	287.911407	286.383041	290.515669	30
487	289.213582	287.471507	292.131109	40
489	293.105891	291.144014	296.91019	37
490	295.139648	292.930391	298.057651	35
491	294.4888555	292.135664	297.278779	38
493	297.543219	295.398684	299.874806	34
495	299.57356749999997	297.123349	304.237498	34
496	302.697984	298.204961	320.636721	33
497	303.785686	300.930745	310.185655	39
499	305.8623765	304.948577	308.840956	36
24	1.386568	1.330575	1.46559	56
36	2.3624235000000002	2.313083	2.430965	56
45	3.327358	3.224785	3.395575	53
51	4.0173005	3.974253	4.146641	54
57	4.720481	4.661609	4.850011	51
61	5.3488325	5.262089	5.437308	50
65	5.9769465	5.924394	6.046742	50
69	6.408192	6.353577	6.512216	49
72	6.892375	6.856692	6.959045	47
75	7.486414	7.437974	7.57063	49
78	7.9775694999999995	7.93699	8.086693	48
81	8.48536	8.373895	8.553731	47
84	9.007822	8.929533	9.067183	45
86	9.42487	9.299648	9.538538	45
89	9.973375	9.930775	10.028602	47
91	10.3374	10.247784	10.417759	45
93	10.772094500000001	10.702178	10.883087	44
95	11.225306	11.17949	11.305797	43
97	11.698479	11.592183	11.81874	43
99	12.011494	11.945955	12.10536	43
101	12.397227	12.374469	12.531615	42
103	12.954357	12.884252	13.070305	43
106	13.589974999999999	13.533919	13.677541	42
108	14.025488	13.962981	14.16791	40
111	14.789285	14.686478	14.905448	41
114	15.516067	15.465676	15.643069	41
117	16.234713	16.130469	16.339979	39
121	17.373961	17.305865	17.513438	39
126	18.901459	18.731257	19.001947	39
135	25.82401	25.646115	25.961231	39
136	26.310497	26.153262	26.479354	43
137	26.450257	26.264424	26.616624	49
155	30.456935	30.178751	30.706635	59
159	31.810889	31.707591	32.164911	57
162	33.547872	33.408238	33.768445	55
165	34.8494065	34.57705	35.146417	52
170	37.079325499999996	36.669108	39.205599	46
172	37.633838499999996	37.088868	38.223192	30
174	38.371812	38.115955	38.929575	30
176	38.9174915	38.700805	39.563372	30
179	43.661838	43.344408	44.231802	20
182	45.167689	44.285728	45.526763	17
184	53.873523	45.804569	60.807748	25
189	47.719532	47.552114	48.189451	50
194	49.725147	49.571764	50.486287	41
195	50.757397	50.476074	51.196029	42
200	52.271924999999996	51.907777	52.608573	48
214	58.78062	58.358589	60.469078	35
227	65.198298	64.711411	66.341638	33
238	74.163755	73.596688	74.669744	54
245	77.94200599999999	77.273106	78.73746	46
248	79.4528835	78.967469	80.097118	48
256	83.706701	83.046675	84.186404	41
277	98.807315	98.354522	99.693638	45
283	102.230981	101.963494	103.011382	49
288	105.037278	104.485374	105.855564	47
294	108.528163	107.724202	109.641027	39
299	112.627501	111.912022	114.358293	47
303	115.569688	113.979462	117.328874	50
308	120.833876	119.803071	122.183554	49
313	123.65328650000001	123.123382	124.178475	48
317	126.79317	126.205473	127.454841	47
322	129.85351	129.405993	130.448296	51
326	132.721774	132.137262	133.078219	45
330	137.184936	135.264145	138.41555	51
334	140.666672	140.175711	141.993637	50
338	143.2790675	142.052457	144.348361	50
342	146.250632	145.59644	146.92649	50
346	149.593212	149.123514	150.128942	50
349	152.110799	151.107053	153.774889	39
353	154.7819	154.407461	156.03987	44
355	157.661581	156.172851	158.983924	38
357	158.1211685	157.496414	160.127502	48
360	161.3998585	159.888048	162.781387	40
364	166.1062315	164.379107	167.419714	46
367	168.827925	167.302683	169.961359	40
371	170.22418	169.390865	171.768729	43
374	173.172259	172.415095	174.853464	47
377	176.20691649999998	175.688709	177.743431	46
380	178.667452	177.992232	179.527436	39
383	181.0595985	180.226812	182.180871	38
386	183.533376	182.595942	184.73141	33
389	187.60515	185.44954	189.887726	33
392	189.69635	188.085197	192.557335	34
395	193.55974500000002	191.68533	195.347285	38
407	204.83891849999998	203.678774	205.604821	36
410	207.173572	206.014254	208.029654	45
421	218.181601	216.032572	220.260563	50
426	221.959803	220.908136	223.671099	39
429	226.123436	225.235375	228.293828	42
442	240.0759885	239.161653	242.136914	40
444	241.03092600000002	239.792919	243.201185	44
447	246.869127	244.974795	249.403448	38
449	246.733553	245.121001	248.026486	44
452	252.225657	250.124685	253.334707	30
454	255.459097	252.497843	258.32906	35
457	256.11728000000005	254.461956	258.098536	24
459	258.050523	256.063539	259.18156	23
461	261.647789	260.657145	264.972133	33
463	263.7835175	261.942207	265.831393	34
466	267.657905	264.291132	274.196721	28
475	275.762127	274.371579	278.75044	27
477	281.543316	277.528764	287.458871	30
479	280.0858385	279.321864	282.714412	30
481	282.766846	281.011509	285.160632	31
483	285.4441515	284.679282	288.935487	36
485	288.247744	284.661076	293.556814	37
494	296.839154	295.804073	299.239241	32
498	304.908005	301.734837	307.344825	30
500	305.410087	303.3136	311.76159	28
193	49.290726	48.047985	49.947903	37
216	59.642385	58.890349	60.172006	28
219	60.634572	60.283085	61.475047	27
231	70.40002949999999	69.583872	70.985968	44
260	85.038795	84.496993	85.860012	38
265	88.827263	87.870089	90.477709	33
271	95.116192	93.987095	96.038172	43
398	195.039432	192.810569	196.508974	35
401	200.036856	198.160583	200.93732	36
404	201.204901	200.006599	202.342424	34
412	209.944482	208.811596	211.555343	27
415	211.408964	209.945924	213.356453	36
418	214.276005	212.670839	216.233466	44
434	230.85375249999998	229.56611	231.828145	42
439	235.671292	234.484408	237.522073	41
221	62.129807	61.676414	63.308705	22
224	63.850463500000004	63.008665	64.799157	20
226	63.895670499999994	63.18591	65.43542	14
252	81.44568849999999	80.917456	82.550641	40
296	110.698497	109.763809	111.434369	29
423	220.35881	219.157806	221.191975	29
431	228.61835100000002	227.214246	231.432952	34
436	233.022148	231.603759	235.132933	27
488	292.822497	290.345285	296.077023	33
104	13.09717	12.981235	13.461459	11
112	14.976511	14.7659	15.995116	9
119	16.761275	16.450662	17.183869	7
123	17.587287	17.467303	18.379033	7
129	19.394245	19.034978	19.649035	7
168	34.364744	33.583158	36.043476	17
207	55.796544	55.202335	58.344507	35
212	58.456902	57.781339	58.920332	35
259	84.471615	84.328519	85.02481	29
263	87.2459375	86.844846	88.272133	26
470	271.2702385	269.571684	273.302129	30
472	274.11502099999996	273.237869	276.727797	36
125	19.255125	19.255125	19.255125	1
132	20.117873	20.117873	20.117873	1
151	27.085598500000003	26.411936	29.105877	6
178	37.009401999999994	36.246769	38.30775	10
181	42.698465	41.74297	49.993019	10
188	47.553595	46.811427	48.503278	12
223	62.59837	62.180806	63.880669	23
492	296.33307	294.805558	299.107523	31
185	45.887313	41.954656	46.489622	15
109	14.091568	13.87309	15.340886	7
118	16.621150999999998	16.376885	17.132852	4
122	17.6038255	17.260855	18.060707	4
127	19.114802	18.662207	19.443269	4
115	15.689456	15.395481	16.092899	5
131	20.415774	19.67357	20.434379	3
