x	Duration	RSS	HeapTotal	HeapUsed	External
0	NA	165322752	131780608	100838344	33184
1	0.072219	165322752	131780608	100847384	33184
2	0.031197	165322752	131780608	100857408	33184
3	0.026525	165322752	131780608	100867936	33184
4	0.046684	165322752	131780608	100879088	33184
5	0.025229	165322752	131780608	100890896	33184
6	0.025205	165322752	131780608	100903328	33184
7	0.0256	165322752	131780608	100916416	33184
8	0.046509	165322752	131780608	100933200	33184
9	0.039427	165322752	131780608	100949256	33184
10	0.034991	165322752	131780608	100965776	33184
11	0.035007	165322752	131780608	100983192	33184
12	0.034371	165322752	131780608	101001328	33184
13	0.035278	165322752	131780608	101020184	33184
14	0.043167	165322752	131780608	101039760	33184
15	0.038299	165322752	131780608	101060056	33184
16	0.038667	165322752	131780608	101081384	33184
17	0.0409	165322752	131780608	101103912	33184
18	0.041252	165322752	131780608	101127208	33184
19	0.04059	165322752	131780608	101151648	33184
20	0.041367	165322752	131780608	101176352	33184
21	0.045332	165322752	131780608	101201864	33184
22	0.046344	165322752	131780608	101227472	33184
23	0.044619	165322752	131780608	101254584	33184
24	0.045357	165322752	131780608	101282592	33184
25	0.046627	165322752	131780608	101311384	33184
26	0.048266	165322752	131780608	101340776	33184
27	0.047831	165322752	131780608	101370792	33184
28	0.048911	165322752	131780608	101401544	33184
29	0.048647	165322752	131780608	101433040	33184
30	0.050776	165322752	131780608	101465272	33184
31	0.056607	165322752	131780608	101498248	33184
32	0.05162	165322752	131780608	101531568	33184
33	0.052203	165322752	131780608	101565408	33184
34	0.052231	165322752	131780608	101599984	33184
35	0.053569	165322752	131780608	101635304	33184
36	0.053585	165322752	131780608	101671360	33184
37	0.055298	165322752	131780608	101708200	33184
38	0.056553	165322752	131780608	101745616	33184
39	0.058591	165322752	131780608	101783768	33184
40	0.057008	165322752	131780608	101822480	33184
41	0.057247	165322752	131780608	101861920	33184
42	0.057453	165322752	131780608	101902160	33184
43	0.061699	165322752	131780608	101943208	33184
44	0.059991	165322752	131780608	101985056	33184
45	0.060167	165322752	131780608	102028384	33184
46	0.060762	165322752	131780608	102071840	33184
47	0.069376	165322752	131780608	102116104	33184
48	0.061965	165322752	131780608	102161192	33184
49	0.062819	165322752	131780608	102207088	33184
50	0.062214	165322752	131780608	102253784	33184
51	0.06499	165322752	131780608	102301288	33184
52	0.070986	165322752	131780608	102349592	33184
53	0.06608	165322752	131780608	102398504	33184
54	0.067356	165322752	131780608	102448120	33184
55	0.067579	165322752	131780608	102498552	33184
56	0.068325	165322752	131780608	102549600	33184
57	0.069137	165322752	131780608	102601488	33184
58	0.069388	165322752	131780608	102654000	33184
59	0.069889	165322752	131780608	102707144	33184
60	0.075837	165322752	131780608	102760912	33184
61	0.072683	165322752	131780608	102815312	33184
62	0.073072	165322752	131780608	102870336	33184
63	9.415936	165908480	132304896	91509432	33184
64	0.10766	165908480	132304896	91565344	33184
65	0.06425	165908480	132304896	91621640	33184
66	0.060084	165908480	132304896	91678560	33184
67	0.060014	165908480	132304896	91736112	33184
68	0.059902	165908480	132304896	91794288	33184
69	0.059919	165908480	132304896	91853072	33184
70	0.091206	165908480	132304896	91912592	33184
71	0.066538	165908480	132304896	91972808	33184
72	0.060982	165908480	132304896	92033600	33184
73	0.074287	165908480	132304896	92095056	33184
74	0.058268	165908480	132304896	92157136	33184
75	0.058936	165908480	132304896	92219848	33184
76	0.06452	165908480	132304896	92283184	33184
77	0.061978	165908480	132304896	92347152	33184
78	0.059446	165908480	132304896	92411744	33184
79	0.060293	165908480	132304896	92476968	33184
80	0.062531	165908480	132304896	92543080	33184
81	0.075167	165908480	132304896	92609584	33184
82	0.085276	165908480	132304896	92676712	33184
83	0.067666	165908480	132304896	92744472	33184
84	0.067225	165908480	132304896	92813992	33184
85	0.066964	165908480	132304896	92882984	33184
86	0.067184	165908480	132304896	92952496	33184
87	0.090945	165908480	132304896	93026592	33184
88	0.075774	165908480	132304896	93097512	33184
89	0.066258	165908480	132304896	93169080	33184
90	0.066737	165908480	132304896	93241272	33184
91	0.066336	165908480	132304896	93314096	33184
92	0.068368	165908480	132304896	93387544	33184
93	0.072741	165908480	132304896	93461624	33184
94	0.068539	165908480	132304896	93536328	33184
95	0.067915	165908480	132304896	93611664	33184
96	0.070566	165908480	132304896	93687328	33184
97	0.070125	165908480	132304896	93763304	33184
98	0.073947	165908480	132304896	93839904	33184
99	0.071829	165908480	132304896	93917136	33184
100	0.070423	165908480	132304896	93994992	33184
101	0.070468	165908480	132304896	94073456	33184
102	0.074074	165908480	132304896	94152464	33184
103	0.078917	165908480	132304896	94232128	33184
104	0.105424	165908480	132304896	94312408	33184
105	0.076626	165908480	132304896	94393352	33184
106	0.073411	165908480	132304896	94474920	33184
107	0.078456	165908480	132304896	94557120	33184
108	0.077093	165908480	132304896	94639944	33184
109	0.076944	165908480	132304896	94723400	33184
110	0.077006	165908480	132304896	94807528	33184
111	0.080019	165908480	132304896	94892240	33184
112	0.079227	165908480	132304896	94977600	33184
113	0.078491	165908480	132304896	95063592	33184
114	0.096481	165908480	132304896	95150208	33184
115	0.081032	165908480	132304896	95237456	33184
116	0.09146	165908480	132304896	95325328	33184
117	0.096543	165908480	132304896	95413816	33184
118	0.081685	165908480	132304896	95502840	33184
119	0.081976	165908480	132304896	95592504	33184
120	0.085284	165908480	132304896	95682800	33184
121	0.081976	165908480	132304896	95773760	33184
122	0.081738	165908480	132304896	95865344	33184
123	0.084083	165908480	132304896	95957568	33184
124	0.088381	165908480	132304896	96050408	33184
125	0.084771	165908480	132304896	96143880	33184
126	0.084362	165908480	132304896	96237976	33184
127	0.115617	165908480	132304896	96332704	33184
128	0.095227	165908480	132304896	96427728	33184
129	0.089954	165908480	132304896	96522824	33184
130	0.089001	165908480	132304896	96618528	33184
131	0.106347	165908480	132304896	96715024	33184
132	0.088758	165908480	132304896	96812144	33184
133	0.087865	165908480	132304896	96909872	33184
134	0.087356	165908480	132304896	97008232	33184
135	0.094888	165908480	132304896	97107280	33184
136	0.416976	165908480	132304896	97206912	33184
137	0.095494	165908480	132304896	97307208	33184
138	0.111753	165908480	132304896	97408128	33184
139	0.092304	165908480	132304896	97509680	33184
140	0.091683	165908480	132304896	97611856	33184
141	0.093682	165908480	132304896	97714696	33184
142	0.097006	165908480	132304896	97819960	33184
143	0.094086	165908480	132304896	97924024	33184
144	0.09385	165908480	132304896	98028736	33184
145	0.098041	165908480	132304896	98134080	33184
146	0.096491	165908480	132304896	98240104	33184
147	0.093763	165908480	132304896	98346704	33184
148	0.095734	165908480	132304896	98453928	33184
149	0.102597	165908480	132304896	98561760	33184
150	0.096708	165908480	132304896	98670704	33184
151	0.097063	165908480	132304896	98780288	33184
152	0.102128	165908480	132304896	98890528	33184
153	0.100055	165908480	132304896	99001408	33184
154	0.099355	165908480	132304896	99112912	33184
155	0.101124	165908480	132304896	99225048	33184
156	0.100804	165908480	132304896	99337808	33184
157	0.101807	165908480	132304896	99451208	33184
158	0.104638	165908480	132304896	99565224	33184
159	0.101265	165908480	132304896	99679872	33184
160	0.102048	165908480	132304896	99794832	33184
161	0.106062	165908480	132304896	99910120	33184
162	0.102636	165908480	132304896	100026072	33184
163	0.106405	165908480	132304896	100142616	33184
164	0.136791	165908480	132304896	100259784	33184
165	0.104825	165908480	132304896	100377560	33184
166	0.104924	165908480	132304896	100496272	33184
167	0.110107	165908480	132304896	100615584	33184
168	0.107616	165908480	132304896	100735528	33184
169	0.107232	165908480	132304896	100856136	33184
170	0.110136	165908480	132304896	100977368	33184
171	0.108654	165908480	132304896	101099288	33184
172	0.109385	165908480	132304896	101221776	33184
173	0.112143	165908480	132304896	101344896	33184
174	0.110339	165908480	132304896	101468640	33184
175	0.109911	165908480	132304896	101593016	33184
176	0.118647	165908480	132304896	101718048	33184
177	0.110581	165908480	132304896	101843704	33184
178	0.116318	165908480	132304896	101969984	33184
179	0.113279	165908480	132304896	102096896	33184
180	0.112934	165908480	132304896	102224472	33184
181	0.116876	165908480	132304896	102352616	33184
182	0.11332	165908480	132304896	102481392	33184
183	0.114514	165908480	132304896	102610808	33184
184	0.117215	165908480	132304896	102740856	33184
185	0.116014	165908480	132304896	102871600	33184
186	0.116162	165908480	132304896	103002936	33184
187	0.12589	165908480	132304896	103134904	33184
188	0.119489	165908480	132304896	103267496	33184
189	0.125758	165908480	132304896	103400728	33184
190	0.1389	165908480	132304896	103534576	33184
191	0.118993	165908480	132304896	103669056	33184
192	0.122921	165908480	132304896	103803872	33184
193	0.119826	165908480	132304896	103939056	33184
194	0.125009	165908480	132304896	104074800	33184
195	0.119549	165908480	132304896	104211176	33184
196	0.123756	165908480	132304896	104348176	33184
197	0.124856	165908480	132304896	104485784	33184
198	0.123225	165908480	132304896	104624024	33184
199	0.128228	165908480	132304896	104762904	33184
200	0.125012	165908480	132304896	104902416	33184
201	0.126077	165908480	132304896	105042592	33184
202	0.131178	165908480	132304896	105183544	33184
203	0.124258	165908480	132304896	105324976	33184
204	0.127261	165908480	132304896	105467032	33184
205	0.126099	165908480	132304896	105609720	33184
206	0.126769	165908480	132304896	105753280	33184
207	0.138022	165908480	132304896	105897224	33184
208	0.13007	165908480	132304896	106041816	33184
209	0.133109	165908480	132304896	106187040	33184
210	0.129548	165908480	132304896	106332904	33184
211	0.135094	165908480	132304896	106479384	33184
212	0.344701	165908480	132304896	106626488	33184
213	0.142962	165908480	132304896	106774200	33184
214	7.40083	166449152	132829184	95164488	33184
215	0.154829	166449152	132829184	95313472	33184
216	0.162621	166449152	132829184	95463144	33184
217	0.121257	166449152	132829184	95613424	33184
218	0.123503	166449152	132829184	95764328	33184
219	0.121083	166449152	132829184	95915864	33184
220	0.120342	166449152	132829184	96068048	33184
221	0.128067	166449152	132829184	96220840	33184
222	0.217803	166449152	132829184	96374256	33184
223	0.159945	166449152	132829184	96528304	33184
224	0.13003	166449152	132829184	96682760	33184
225	0.141393	166449152	132829184	96837448	33184
226	0.166441	166449152	132829184	96993408	33184
227	0.1425	166449152	132829184	97149352	33184
228	0.12736	166449152	132829184	97305920	33184
229	0.124071	166449152	132829184	97465976	33184
230	0.128846	166449152	132829184	97623784	33184
231	0.128061	166449152	132829184	97782288	33184
232	0.124128	166449152	132829184	97941368	33184
233	0.127329	166449152	132829184	98101112	33184
234	0.125311	166449152	132829184	98261480	33184
235	0.128208	166449152	132829184	98422488	33184
236	0.125074	166449152	132829184	98584112	33184
237	0.167108	166449152	132829184	98746368	33184
238	0.138392	166449152	132829184	98909288	33184
239	0.148708	166449152	132829184	99072800	33184
240	0.129762	166449152	132829184	99236960	33184
241	0.132844	166449152	132829184	99401752	33184
242	0.130349	166449152	132829184	99567224	33184
243	0.129166	166449152	132829184	99733272	33184
244	0.140065	166449152	132829184	99899944	33184
245	0.131467	166449152	132829184	100067248	33184
246	0.136249	166449152	132829184	100235160	33184
247	0.134463	166449152	132829184	100403712	33184
248	0.135416	166449152	132829184	100572896	33184
249	0.134675	166449152	132829184	100742776	33184
250	0.138743	166449152	132829184	100913248	33184
251	0.134416	166449152	132829184	101084352	33184
252	0.16881	166449152	132829184	101256144	33184
253	0.134978	166449152	132829184	101428504	33184
254	0.1396	166449152	132829184	101601488	33184
255	0.157974	166449152	132829184	101775120	33184
256	0.146633	166449152	132829184	101949472	33184
257	0.156011	166449152	132829184	102124088	33184
258	0.140661	166449152	132829184	102299328	33184
259	0.145895	166449152	132829184	102475208	33184
260	0.158358	166449152	132829184	102651704	33184
261	0.138984	166449152	132829184	102828800	33184
262	0.145974	166449152	132829184	103006736	33184
263	0.140503	166449152	132829184	103185440	33184
264	0.145034	166449152	132829184	103364944	33184
265	0.144447	166449152	132829184	103545656	33184
266	0.149887	166449152	132829184	103727328	33184
267	0.144501	166449152	132829184	103909984	33184
268	0.147586	166449152	132829184	104093624	33184
269	0.143793	166449152	132829184	104278240	33184
270	0.14957	166449152	132829184	104463832	33184
271	0.146932	166449152	132829184	104650464	33184
272	0.166449	166449152	132829184	104838016	33184
273	0.150386	166449152	132829184	105026552	33184
274	0.154404	166449152	132829184	105216096	33184
275	0.148873	166449152	132829184	105406592	33184
276	0.154796	166449152	132829184	105598064	33184
277	0.150381	166449152	132829184	105790168	33184
278	0.159446	166449152	132829184	105982896	33184
279	0.153226	166449152	132829184	106176256	33184
280	0.195413	166449152	132829184	106370272	33184
281	0.171331	166449152	132829184	106564888	33184
282	0.170943	166449152	132829184	106760128	33184
283	0.157256	166449152	132829184	106956056	33184
284	0.190672	166449152	132829184	107152552	33184
285	0.160197	166449152	132829184	107349680	33184
286	0.160656	166449152	132829184	107547448	33184
287	0.161538	166449152	132829184	107745832	33184
288	0.160576	166449152	132829184	107944584	33184
289	0.162581	166449152	132829184	108143592	33184
290	0.158767	166449152	132829184	108343216	33184
291	0.164903	166449152	132829184	108543472	33184
292	0.161804	166449152	132829184	108744352	33184
293	0.174181	166449152	132829184	108945864	33184
294	0.165762	166449152	132829184	109148000	33184
295	0.380587	166449152	132829184	109351040	33184
296	0.186383	166449152	132829184	109554432	33184
297	0.164789	166449152	132829184	109758464	33184
298	0.205314	166449152	132829184	109963112	33184
299	0.183015	166449152	132829184	110168392	33184
300	0.173776	166449152	132829184	110374296	33184
301	0.170402	166449152	132829184	110580832	33184
302	0.170062	166449152	132829184	110787992	33184
303	6.358978	167260160	133877760	98510584	33184
304	0.295539	167260160	133877760	98719000	33184
305	0.201356	167260160	133877760	98928048	33184
306	0.177403	167260160	133877760	99137768	33184
307	0.190958	167260160	133877760	99348072	33184
308	0.17356	167530496	133877760	99559000	33184
309	0.226275	167530496	133877760	99770560	33184
310	0.168216	167530496	133877760	99982744	33184
311	0.174263	167530496	133877760	100195560	33184
312	0.169565	167530496	133877760	100409032	33184
313	0.177146	167530496	133877760	100623104	33184
314	0.169174	167530496	133877760	100837800	33184
315	0.179797	167530496	133877760	101053128	33184
316	0.170317	167530496	133877760	101269080	33184
317	0.174972	167530496	133877760	101485664	33184
318	0.17496	167530496	133877760	101702872	33184
319	0.175812	167530496	133877760	101920712	33184
320	0.17779	167530496	133877760	102138992	33184
321	0.171873	167800832	133877760	102357448	33184
322	0.179036	167800832	133877760	102576568	33184
323	0.386612	167800832	133877760	102796280	33184
324	0.201292	167800832	133877760	103016616	33184
325	0.200275	167800832	134402048	103237592	33184
326	0.184681	167800832	134402048	103459184	33184
327	0.177906	167800832	134402048	103681408	33184
328	0.188952	167800832	134402048	103904264	33184
329	0.197029	167800832	134402048	104127744	33184
330	0.180555	167800832	134402048	104351888	33184
331	0.182397	167800832	134402048	104576624	33184
332	0.181118	167800832	134402048	104801984	33184
333	0.184189	168071168	134402048	105028008	33184
334	0.183592	168071168	134402048	105254624	33184
335	0.18988	168071168	134402048	105481896	33184
336	0.18396	168071168	134402048	105709768	33184
337	0.213432	168071168	134402048	105938272	33184
338	0.185789	168071168	134402048	106167408	33184
339	0.214308	168071168	134402048	106397168	33184
340	0.236839	168071168	134402048	106627600	33184
341	0.188316	168071168	134402048	106858616	33184
342	0.191435	168071168	134402048	107090256	33184
343	0.208453	168071168	134402048	107322648	33184
344	0.19867	168071168	134402048	107555544	33184
345	0.192498	168341504	134402048	107789072	33184
346	0.187913	168341504	134402048	108023224	33184
347	0.19856	168341504	134402048	108258008	33184
348	0.208622	168341504	134926336	108493416	33184
349	0.19633	168341504	134926336	108729456	33184
350	0.196169	168341504	134926336	108966176	33184
351	0.188699	168341504	134926336	109203472	33184
352	0.198352	168341504	134926336	109441184	33184
353	0.194802	168341504	134926336	109679096	33184
354	0.201404	168341504	134926336	109917632	33184
355	0.226825	168341504	134926336	110156856	33184
356	0.223872	168611840	134926336	110396648	33184
357	0.202803	168611840	134926336	110637104	33184
358	0.196585	168611840	134926336	110878152	33184
359	0.197431	168611840	134926336	111119832	33184
360	0.201575	168611840	134926336	111366584	33184
361	0.214061	168611840	134926336	111609520	33184
362	0.226277	168611840	134926336	111853128	33184
363	0.220197	168611840	134926336	112097320	33184
364	0.20665	168611840	134926336	112342144	33184
365	0.205873	168611840	134926336	112587592	33184
366	0.201037	168611840	134926336	112833664	33184
367	0.207035	168611840	134926336	113080384	33184
368	0.205516	168882176	134926336	113327712	33184
369	0.200496	168882176	134926336	113575704	33184
370	0.225659	168882176	135450624	113824288	33184
371	0.209467	168882176	135450624	114073552	33184
372	0.350492	168882176	135450624	114323392	33184
373	6.313474	170774528	137547776	101797032	33184
374	0.393307	170774528	137547776	102048168	33184
375	0.210496	170774528	137547776	102299896	33184
376	0.196187	170774528	137547776	102552248	33184
377	0.235444	170774528	137547776	102805288	33184
378	0.215833	170774528	137547776	103058896	33184
379	0.198484	171044864	137547776	103313136	33184
380	0.201002	171044864	137547776	103568000	33184
381	0.198211	171044864	137547776	103823528	33184
382	0.204923	171044864	137547776	104079648	33184
383	0.218472	171044864	137547776	104336448	33184
384	0.197678	171044864	137547776	104593632	33184
385	0.203695	171044864	137547776	104851032	33184
386	0.198745	171044864	137547776	105109024	33184
387	0.201802	171044864	137547776	105367648	33184
388	0.204761	171044864	137547776	105626896	33184
389	0.202166	171315200	137547776	105886776	33184
390	0.208307	171315200	137547776	106147296	33184
391	0.208866	171315200	137547776	106408432	33184
392	0.206306	171315200	137547776	106670224	33184
393	0.40538	171315200	137547776	106932616	33184
394	0.255821	171315200	137547776	107195672	33184
395	0.203659	171315200	137547776	107459320	33184
396	0.207081	171315200	137547776	107723640	33184
397	0.202404	171315200	137547776	107988544	33184
398	0.211902	171315200	137547776	108254072	33184
399	0.242141	171585536	138072064	108520256	33184
400	0.208053	171585536	138072064	108787040	33184
401	0.215559	171585536	138072064	109054456	33184
402	0.228134	171585536	138072064	109322496	33184
403	0.21312	171585536	138072064	109591192	33184
404	0.216796	171585536	138072064	109860488	33184
405	0.221216	171585536	138072064	110130448	33184
406	0.208489	171585536	138072064	110401000	33184
407	0.246477	171585536	138072064	110672232	33184
408	0.268035	171585536	138072064	110944040	33184
409	0.219005	171585536	138072064	111216536	33184
410	0.21954	171855872	138072064	111489600	33184
411	0.23161	171855872	138072064	111763360	33184
412	0.213887	171855872	138072064	112037680	33184
413	0.225268	171855872	138072064	112312640	33184
414	0.236738	171855872	138072064	112588216	33184
415	0.217392	171855872	138072064	112864448	33184
416	0.229553	171855872	138072064	113141104	33184
417	0.228459	171855872	138072064	113417928	33184
418	0.239601	171855872	138596352	113695416	33184
419	0.230307	172126208	138596352	113973496	33184
420	0.254288	172126208	138596352	114252224	33184
421	0.223819	172126208	138596352	114531560	33184
422	0.240149	172126208	138596352	114811576	33184
423	0.225963	172126208	138596352	115092168	33184
424	0.242053	172126208	138596352	115373392	33184
425	0.221362	172126208	138596352	115655240	33184
426	0.230796	172126208	138596352	115937728	33184
427	0.23085	172126208	138596352	116220832	33184
428	0.225344	172126208	138596352	116504584	33184
429	0.231586	172396544	138596352	116788944	33184
430	0.263322	172396544	138596352	117073968	33184
431	0.246247	172396544	138596352	117359584	33184
432	0.227576	172396544	138596352	117645872	33184
433	0.232033	172396544	138596352	117932744	33184
434	6.360597	174288896	140693504	105342512	33184
435	0.380932	174288896	140693504	105630664	33184
436	0.227011	174288896	140693504	105919416	33184
437	0.231502	174288896	140693504	106208800	33184
438	0.259735	174288896	140693504	106498808	33184
439	0.222195	174288896	140693504	106789472	33184
440	0.224935	174288896	140693504	107080736	33184
441	0.255024	174559232	140693504	107372720	33184
442	0.278327	174559232	140693504	107665240	33184
443	0.2256	174559232	140693504	107958416	33184
444	0.231321	174559232	140693504	108252472	33184
445	0.229605	174559232	140693504	108546880	33184
446	0.249989	174559232	141217792	108841912	33184
447	0.236654	174559232	141217792	109137576	33184
448	0.266061	174559232	141217792	109433720	33184
449	0.232971	174559232	141217792	109730000	33184
450	0.229806	174829568	141217792	110026920	33184
451	0.243492	174829568	141217792	110324456	33184
452	0.235018	174829568	141217792	110622640	33184
453	0.228499	174829568	141217792	110921432	33184
454	0.239986	174829568	141217792	111220888	33184
455	0.453747	174829568	141217792	111520936	33184
456	0.254681	174829568	141217792	111821656	33184
457	0.248004	174829568	141217792	112122960	33184
458	0.272171	174829568	141217792	112424952	33184
459	0.268151	175099904	141217792	112727512	33184
460	0.251545	175099904	141217792	113030696	33184
461	0.235956	175099904	141217792	113334512	33184
462	0.241524	175099904	141217792	113638968	33184
463	0.261509	175099904	141742080	113944040	33184
464	0.238699	175099904	141742080	114249816	33184
465	0.246496	175099904	141742080	114556240	33184
466	0.27387	175099904	141742080	114863192	33184
467	0.244009	175370240	141742080	115170840	33184
468	0.281572	175370240	141742080	115479048	33184
469	0.251988	175370240	141742080	115787944	33184
470	0.278956	175370240	141742080	116097408	33184
471	0.274426	175370240	141742080	116407568	33184
472	0.241678	175370240	141742080	116718288	33184
473	0.251021	175370240	141742080	117029640	33184
474	0.25541	175370240	141742080	117341616	33184
475	0.247909	175370240	141742080	117654248	33184
476	0.243292	175640576	141742080	117967480	33184
477	0.246128	175640576	141742080	118281384	33184
478	0.25084	175640576	141742080	118595928	33184
479	0.254682	175640576	141742080	118911048	33184
480	0.266877	175640576	142266368	119226696	33184
481	0.271319	175640576	142266368	119542432	33184
482	0.260859	175640576	142266368	119858856	33184
483	0.257503	175640576	142266368	120175848	33184
484	0.253918	175640576	142266368	120493464	33184
485	0.24869	175910912	142266368	120811712	33184
486	0.259604	175910912	142266368	121130584	33184
487	6.076599	177532928	144363520	108446856	33184
488	0.506212	177803264	144363520	108766984	33184
489	0.257595	177803264	144363520	109087784	33184
490	0.259107	177803264	144363520	109409232	33184
491	0.25368	177803264	144363520	109731248	33184
492	0.243917	177803264	144363520	110053936	33184
493	0.255747	177803264	144363520	110377208	33184
494	0.258486	177803264	144363520	110701160	33184
495	0.254878	177803264	144363520	111025688	33184
496	0.249865	178073600	144363520	111350848	33184
497	0.260853	178073600	144363520	111676680	33184
498	0.285557	178073600	144363520	112003088	33184
499	0.254519	178073600	144363520	112330144	33184
500	0.254001	178073600	144363520	112657808	33184
501	0.276604	178073600	144363520	112986128	33184
502	0.258396	178073600	144363520	113315048	33184
503	0.292036	178073600	144363520	113644608	33184
504	0.257848	178073600	144363520	113974824	33184
505	0.249989	178343936	144363520	114305632	33184
506	0.275569	178343936	144887808	114637120	33184
507	0.260396	178343936	144887808	114969184	33184
508	0.291404	178343936	144887808	115301872	33184
509	0.256858	178343936	144887808	115635192	33184
510	0.255399	178343936	144887808	115969144	33184
511	0.261714	178343936	144887808	116303736	33184
512	0.264259	178343936	144887808	116639160	33184
513	0.495939	178614272	144887808	116974712	33184
514	0.293369	178614272	144887808	117310864	33184
515	0.263994	178614272	144887808	117647656	33184
516	0.261174	178614272	144887808	117985120	33184
517	0.271622	178614272	144887808	118322936	33184
518	0.302107	178614272	144887808	118661512	33184
519	0.267771	178614272	144887808	119000808	33184
520	0.267076	178614272	144887808	119340840	33184
521	0.283405	178884608	145412096	119682008	33184
522	0.276649	178884608	145412096	120023856	33184
523	0.308911	178884608	145412096	120366464	33184
524	0.272642	178884608	145412096	120709792	33184
525	0.328303	178884608	145412096	121053864	33184
526	0.28958	178884608	145412096	121398704	33184
527	0.267248	178884608	145412096	121744256	33184
528	0.285094	179154944	145412096	122090600	33184
529	0.279875	179154944	145412096	122437632	33184
530	0.279985	179154944	145412096	122785448	33184
531	0.306782	179154944	145412096	123134008	33184
532	0.27619	179154944	145412096	123483256	33184
533	0.270899	179154944	145412096	123833272	33184
534	0.284332	179154944	145412096	124184000	33184
535	0.281596	179154944	145412096	124535496	33184
536	6.278904	181047296	148033536	111824984	33184
537	0.527743	181047296	148033536	112177976	33184
538	0.273107	181047296	148033536	112531664	33184
539	0.280635	181047296	148033536	112886160	33184
540	0.30838	181047296	148033536	113241384	33184
541	0.294047	181317632	148033536	113597296	33184
542	0.33307	181317632	148033536	113953992	33184
543	0.296784	181317632	148033536	114311384	33184
544	0.272056	181317632	148033536	114669480	33184
545	0.284085	181317632	148033536	115027720	33184
546	0.313668	181317632	148033536	115386688	33184
547	0.281143	181317632	148033536	115746424	33184
548	0.281863	181317632	148033536	116106920	33184
549	0.279685	181587968	148033536	116468112	33184
550	0.276172	181587968	148033536	116830040	33184
551	0.291243	181587968	148033536	117192712	33184
552	0.324253	181587968	148033536	117556168	33184
553	0.287034	181587968	148033536	117920328	33184
554	0.345508	181587968	148033536	118285216	33184
555	0.30625	181587968	148033536	118650896	33184
556	0.29371	181858304	148033536	119024088	33184
557	0.395223	181858304	148033536	119391312	33184
558	0.325618	181858304	148033536	119759176	33184
559	0.358916	181858304	148033536	120128880	33184
560	0.316403	181858304	148033536	120498192	33184
561	0.295739	181858304	148033536	120868304	33184
562	0.313931	181858304	148557824	121239112	33184
563	0.2932	181858304	148557824	121610648	33184
564	0.295558	182128640	148557824	121982928	33184
565	0.330444	182128640	148557824	122355944	33184
566	0.312696	182128640	148557824	122729720	33184
567	0.306781	182128640	148557824	123104224	33184
568	0.305127	182128640	148557824	123479456	33184
569	0.300628	182128640	148557824	123855448	33184
570	0.298529	182128640	148557824	124232192	33184
571	0.299581	182398976	148557824	124609648	33184
572	0.301949	182398976	148557824	124987904	33184
573	0.303889	182398976	148557824	125366896	33184
574	0.297108	182398976	148557824	125746568	33184
575	0.314123	182398976	149082112	126127032	33184
576	0.510834	182398976	149082112	126508128	33184
577	0.345634	182398976	149082112	126889384	33184
578	0.311463	182669312	149082112	127271408	33184
579	0.313611	182669312	149082112	127654184	33184
580	0.308317	182669312	149082112	128037656	33184
581	6.274857	184291328	151179264	115557704	33184
582	0.512295	184561664	151179264	115942744	33184
583	0.310512	184561664	151179264	116328440	33184
584	0.307982	184561664	151179264	116714928	33184
585	0.308485	184561664	151179264	117102136	33184
586	0.304387	184561664	151179264	117490048	33184
587	0.308841	184561664	151179264	117878752	33184
588	0.308612	184561664	151179264	118268200	33184
589	0.304276	184832000	151179264	118658336	33184
590	0.303535	184832000	151179264	119049248	33184
591	0.318893	184832000	151179264	119440872	33184
592	0.569974	184832000	151179264	119833224	33184
593	0.335866	184832000	151179264	120226336	33184
594	0.313997	184832000	151179264	120620208	33184
595	0.313117	184832000	151179264	121014784	33184
596	0.308753	185102336	151179264	121410096	33184
597	0.315521	185102336	151179264	121806216	33184
598	0.310611	185102336	151179264	122203008	33184
599	0.338258	185102336	151703552	122600568	33184
600	0.316673	185102336	151703552	122998896	33184
601	0.312308	185102336	151703552	123397960	33184
602	0.348483	185102336	151703552	123797712	33184
603	0.34668	185372672	151703552	124198240	33184
604	0.333602	185372672	151703552	124599488	33184
605	0.327586	185372672	151703552	125001464	33184
606	0.329614	185372672	151703552	125404192	33184
607	0.326888	185372672	151703552	125807680	33184
608	0.320781	185372672	151703552	126211816	33184
609	0.325308	185372672	151703552	126616152	33184
610	0.327575	185643008	151703552	127021192	33184
611	0.325907	185643008	151703552	127426992	33184
612	0.337835	185643008	152227840	127833504	33184
613	0.553374	185643008	152227840	128240816	33184
614	0.329683	185643008	152227840	128648864	33184
615	0.326554	185643008	152227840	129057600	33184
616	0.332855	185913344	152227840	129467104	33184
617	0.328165	185913344	152227840	129877328	33184
618	0.327894	185913344	152227840	130288320	33184
619	0.331051	185913344	152227840	130700016	33184
620	0.328638	185913344	152227840	131112464	33184
621	6.564145	187805696	154324992	118894152	33184
622	0.61208	187805696	154324992	119308064	33184
623	0.33576	188076032	154324992	119722784	33184
624	0.330242	188076032	154324992	120138200	33184
625	0.332664	188076032	154324992	120554392	33184
626	0.332465	188076032	154324992	120971264	33184
627	0.360281	188076032	154324992	121388920	33184
628	0.335131	188076032	154324992	121807288	33184
629	0.349906	188346368	154849280	122226384	33184
630	0.330063	188346368	154849280	122646088	33184
631	0.333509	188346368	154849280	123066576	33184
632	0.341602	188346368	154849280	123487744	33184
633	0.340522	188346368	154849280	123909616	33184
634	0.344882	188346368	154849280	124332224	33184
635	0.343794	188346368	154849280	124755592	33184
636	0.410651	188616704	154849280	125179648	33184
637	0.344713	188616704	154849280	125604416	33184
638	0.344442	188616704	154849280	126029968	33184
639	0.34368	188616704	154849280	126456192	33184
640	0.346579	188616704	154849280	126883120	33184
641	0.346701	188616704	154849280	127310144	33184
642	0.365725	188887040	155373568	127737928	33184
643	0.351793	188887040	155373568	128166464	33184
644	0.348251	188887040	155373568	128595704	33184
645	0.344817	188887040	155373568	129025624	33184
646	0.408026	188887040	155373568	129456192	33184
647	0.350208	188887040	155373568	129887536	33184
648	0.351309	188887040	155373568	130319584	33184
649	0.350571	189157376	155373568	130752344	33184
650	0.351608	189157376	155373568	131185896	33184
651	0.349786	189157376	155373568	131620192	33184
652	0.355395	189157376	155373568	132055184	33184
653	0.353138	189157376	155373568	132490904	33184
654	0.368601	189157376	155897856	132927368	33184
655	0.360107	189427712	155897856	133364568	33184
656	0.59463	189427712	155897856	133802512	33184
657	0.360684	189427712	155897856	134241192	33184
658	0.364475	189427712	155897856	134680608	33184
659	6.826655	191320064	157995008	122711920	33184
660	0.588114	191590400	157995008	123152856	33184
661	0.361732	191590400	157995008	123594520	33184
662	0.363664	191590400	157995008	124036816	33184
663	0.357326	191590400	157995008	124479816	33184
664	0.362234	191590400	157995008	124923560	33184
665	0.361203	191590400	157995008	125368104	33184
666	0.378289	191860736	157995008	125813344	33184
667	0.528399	191860736	157995008	126259440	33184
668	0.586123	191860736	157995008	126707288	33184
669	0.388716	191860736	158519296	127154784	33184
670	0.366786	191860736	158519296	127602976	33184
671	0.366071	191860736	158519296	128051944	33184
672	0.367835	192131072	158519296	128501584	33184
673	0.641703	192131072	158519296	128952096	33184
674	0.423887	192131072	158519296	129402600	33184
675	0.40529	192131072	158519296	129853880	33184
676	0.421582	192131072	158519296	130308408	33184
677	0.363131	192131072	158519296	130761128	33184
678	0.367167	192401408	158519296	131214512	33184
679	0.36966	192401408	158519296	131668672	33184
680	0.367744	192401408	158519296	132123528	33184
681	0.384071	192401408	159043584	132579104	33184
682	0.368277	192401408	159043584	133035624	33184
683	0.367724	192401408	159043584	133492704	33184
684	0.367938	192671744	159043584	133950504	33184
685	0.436991	192671744	159043584	134409080	33184
686	0.373766	192671744	159043584	134868352	33184
687	0.373112	192671744	159043584	135328512	33184
688	0.377306	192671744	159043584	135789280	33184
689	0.37796	192671744	159043584	136250808	33184
690	0.382288	192942080	159043584	136713104	33184
691	0.382534	192942080	159043584	137176104	33184
692	0.377495	192942080	159043584	137639816	33184
693	0.414597	192942080	159567872	138104320	33184
694	7.168819	195104768	161665024	126344512	33184
695	0.646794	195104768	161665024	126810456	33184
696	0.416589	195104768	161665024	127277176	33184
697	0.401693	195375104	161665024	127744600	33184
698	0.389903	195375104	161665024	128212800	33184
699	0.403778	195375104	161665024	128681696	33184
700	0.394956	195375104	161665024	129151336	33184
701	0.378007	195375104	161665024	129621712	33184
702	0.376847	195375104	161665024	130092856	33184
703	0.381275	195645440	161665024	130564768	33184
704	0.402793	195645440	162189312	131037368	33184
705	0.593325	195645440	162189312	131510088	33184
706	0.404226	195645440	162189312	131983568	33184
707	0.382391	195645440	162189312	132457792	33184
708	0.389336	195645440	162189312	132932728	33184
709	0.390261	195915776	162189312	133408424	33184
710	0.387287	195915776	162189312	133884816	33184
711	0.392273	195915776	162189312	134361952	33184
712	0.391207	195915776	162189312	134839856	33184
713	0.420422	195915776	162189312	135318504	33184
714	0.426462	195915776	162189312	135797856	33184
715	0.406827	196186112	162713600	136277984	33184
716	0.387033	196186112	162713600	136759088	33184
717	0.389268	196186112	162713600	137240664	33184
718	0.389591	196186112	162713600	137723032	33184
719	0.393531	196186112	162713600	138206112	33184
720	0.406952	196456448	162713600	138689952	33184
721	0.39905	196456448	162713600	139174504	33184
722	0.402525	196456448	162713600	139659824	33184
723	0.466622	196456448	162713600	140145840	33184
724	0.415986	196456448	162713600	140632592	33184
725	0.396094	196456448	162713600	141120104	33184
726	0.41859	196726784	163237888	141608376	33184
727	7.306641	198889472	165859328	129973472	33184
728	0.703846	198889472	165859328	130463200	33184
729	0.405574	198889472	165859328	130953720	33184
730	0.40512	198889472	165859328	131444936	33184
731	0.40868	198889472	165859328	131936920	33184
732	0.426871	199159808	165859328	132429616	33184
733	0.444675	199159808	165859328	132923032	33184
734	0.397539	199159808	165859328	133417184	33184
735	0.397276	199159808	165859328	133912088	33184
736	0.402568	199159808	165859328	134407792	33184
737	0.404692	199159808	165859328	134903568	33184
738	0.406896	199430144	165859328	135400048	33184
739	0.411162	199430144	165859328	135897296	33184
740	0.409274	199430144	165859328	136395536	33184
741	0.438065	199430144	165859328	136894232	33184
742	0.633313	199430144	165859328	137393696	33184
743	0.407227	199700480	165859328	137893920	33184
744	0.40667	199700480	165859328	138394888	33184
745	0.411194	199700480	165859328	138896560	33184
746	0.415767	199700480	165859328	139399008	33184
747	0.618944	199700480	166383616	139902152	33184
748	0.611491	199700480	166383616	140406072	33184
749	0.505365	199970816	166383616	140910688	33184
750	0.55786	199970816	166383616	141416072	33184
751	0.574965	199970816	166383616	141922224	33184
752	0.509153	199970816	166383616	142429088	33184
753	0.595225	199970816	166383616	142936664	33184
754	0.593032	200241152	166383616	143445000	33184
755	0.567352	200241152	166383616	143954120	33184
756	0.566796	200241152	166383616	144463936	33184
757	0.605456	200241152	166907904	144974520	33184
758	0.572328	200241152	166907904	145485792	33184
759	9.905716	202674176	169005056	133993520	33184
760	0.763838	202674176	169005056	134506280	33184
761	0.640465	202674176	169005056	135019824	33184
762	0.611606	202674176	169005056	135534056	33184
763	0.913751	202674176	169005056	136049032	33184
764	1.470469	202944512	169005056	136564872	33184
765	0.960277	202944512	169005056	137081344	33184
766	0.96837	202944512	169529344	137598568	33184
767	1.003178	202944512	169529344	138116528	33184
768	1.080514	202944512	169529344	138635264	33184
769	1.074588	203214848	169529344	139154064	33184
770	0.952732	203214848	169529344	139673632	33184
771	0.779834	203214848	169529344	140193904	33184
772	1.442469	203214848	169529344	140714944	33184
773	1.171985	203214848	169529344	141236688	33184
774	1.138577	203214848	169529344	141759160	33184
775	1.368179	203485184	169529344	142282400	33184
776	1.200893	203485184	170053632	142806392	33184
777	1.274021	203485184	170053632	143331088	33184
778	1.252092	203485184	170053632	143856552	33184
779	1.248887	203485184	170053632	144382792	33184
780	1.270575	203755520	170053632	144909728	33184
781	1.401024	203755520	170053632	145437440	33184
782	1.391701	203755520	170053632	145965856	33184
783	1.366976	203755520	170053632	146495048	33184
784	1.483081	203755520	170053632	147024936	33184
785	1.380724	204025856	170053632	147555600	33184
786	1.437828	204025856	170577920	148086960	33184
787	1.435716	204025856	170577920	148619056	33184
788	1.465617	204025856	170577920	149151912	33184
789	11.849306	206458880	172675072	137792064	33184
790	1.977541	206458880	172675072	138326376	33184
791	1.720109	206458880	172675072	138861464	33184
792	1.989312	206458880	172675072	139397320	33184
793	1.977624	206458880	173199360	139933880	33184
794	1.864416	206729216	173199360	140471208	33184
795	2.048551	206729216	173199360	141009240	33184
796	2.153956	206729216	173199360	141548048	33184
797	2.030465	206729216	173199360	142087680	33184
798	2.382395	206729216	173199360	142627912	33184
799	2.290895	206999552	173199360	143168928	33184
800	2.305847	206999552	173199360	143710744	33184
801	2.128537	206999552	173199360	144252584	33184
802	2.398634	206999552	173199360	144795168	33184
803	2.482551	206999552	173723648	145338528	33184
804	2.748081	207269888	173723648	145882592	33184
805	2.326064	207269888	173723648	146427432	33184
806	2.831202	207269888	173723648	146972976	33184
807	9.107938	186195968	125489152	67957320	33184
808	2.991069	157884416	125489152	68504656	33184
809	0.984716	148971520	125489152	69052440	33184
810	1.112933	148971520	125489152	69600928	33184
811	0.582556	148971520	125489152	70150184	33184
812	0.586524	148971520	125489152	70700152	33184
813	0.620451	148971520	125489152	71250888	33184
814	0.602124	148971520	125489152	71802320	33184
815	0.646063	148971520	125489152	72354528	33184
816	0.657041	148971520	125489152	72907440	33184
817	0.630624	148971520	125489152	73461128	33184
818	0.56256	148971520	125489152	74015584	33184
819	0.877821	148971520	125489152	74570736	33184
820	0.934341	148971520	125489152	75129568	33184
821	0.586204	148971520	125489152	75688704	33184
822	6.402085	150319104	125489152	62512120	33184
823	1.053508	150589440	125489152	63070272	33184
824	0.583695	151130112	125489152	63629152	33184
825	0.559969	151670784	125489152	64188736	33184
826	0.566821	152211456	125489152	64749088	33184
827	0.553838	152752128	125489152	65310144	33184
828	0.536195	153292800	125489152	65871968	33184
829	0.574144	153833472	125489152	66434568	33184
830	0.588233	154103808	125489152	66997872	33184
831	0.554484	154644480	125489152	67561944	33184
832	0.543745	155185152	125489152	68126792	33184
833	0.54131	155725824	125489152	68691704	33184
834	0.561045	156266496	125489152	69257312	33184
835	0.558449	156807168	125489152	69823704	33184
836	0.72678	157347840	125489152	70390784	33184
837	0.569694	157888512	125489152	70958648	33184
838	0.573395	158429184	125489152	71527208	33184
839	0.56782	158699520	125489152	72096544	33184
840	0.516363	158969856	125489152	72666576	33184
841	0.476223	158969856	125489152	73237384	33184
842	0.483196	158969856	125489152	73808896	33184
843	0.475615	158969856	125489152	74381176	33184
844	0.466175	158969856	125489152	74954232	33184
845	0.488669	158969856	125489152	75527992	33184
846	0.490344	158969856	125489152	76102520	33184
847	0.448555	158969856	125489152	76677752	33184
848	0.450461	158969856	125489152	77253752	33184
849	0.471832	158969856	125489152	77830456	33184
850	0.501876	158969856	125489152	78418280	33184
851	0.467203	158969856	125489152	78996456	33184
852	6.354534	158969856	125489152	67016144	33184
853	0.842462	158969856	125489152	67595832	33184
854	0.483583	158969856	125489152	68176264	33184
855	0.454828	158969856	125489152	68757416	33184
856	0.470785	158969856	125489152	69339384	33184
857	0.471415	158969856	125489152	69922072	33184
858	0.456513	158969856	125489152	70505440	33184
859	0.4542	158969856	125489152	71089576	33184
860	0.476985	158969856	125489152	71674456	33184
861	0.489902	158969856	125489152	72260088	33184
862	0.455166	158969856	125489152	72846408	33184
863	0.479714	158969856	125489152	73433504	33184
864	0.482083	158969856	125489152	74021448	33184
865	0.461675	158969856	125489152	74609376	33184
866	0.462047	158969856	125489152	75198016	33184
867	0.480258	158969856	125489152	75787424	33184
868	0.461459	158969856	125489152	76377600	33184
869	0.658728	158969856	125489152	76968480	33184
870	0.487487	158969856	125489152	77560136	33184
871	0.484878	158969856	125489152	78152488	33184
872	0.466952	158969856	125489152	78745616	33184
873	0.495764	158969856	125489152	79339448	33184
874	0.490478	158969856	125489152	79934048	33184
875	0.465428	158969856	125489152	80529352	33184
876	0.49929	158969856	125489152	81125432	33184
877	0.491692	158969856	125489152	81722208	33184
878	7.41192	158969856	125489152	70860024	33184
879	0.820905	158969856	125489152	71458280	33184
880	0.473563	158969856	125489152	72057304	33184
881	0.467933	158969856	125489152	72657096	33184
882	0.492601	158969856	125489152	73257600	33184
883	0.489337	158969856	125489152	73858872	33184
884	0.468198	158969856	125489152	74460848	33184
885	0.503293	158969856	125489152	75063592	33184
886	0.490498	158969856	125489152	75667024	33184
887	0.478534	158969856	125489152	76271256	33184
888	0.512984	158969856	125489152	76876208	33184
889	0.497877	158969856	125489152	77481904	33184
890	0.482198	158969856	125489152	78088304	33184
891	0.496804	158969856	125489152	78695472	33184
892	0.509516	158969856	125489152	79303344	33184
893	0.481074	158969856	125489152	79911984	33184
894	0.49877	158969856	125489152	80521400	33184
895	0.478354	158969856	125489152	81131520	33184
896	0.498327	158969856	125489152	81742480	33184
897	0.504213	158969856	125489152	82353432	33184
898	0.490694	158969856	125489152	82965160	33184
899	0.500725	158969856	125489152	83577592	33184
900	0.527801	158969856	125489152	84190792	33184
901	0.483738	158969856	125489152	84804752	33184
902	0.512924	158969856	125489152	85419400	33184
903	6.83345	158969856	125489152	74350272	33184
904	0.987652	158969856	125489152	74966416	33184
905	0.503143	158969856	125489152	75583376	33184
906	0.518272	158969856	125489152	76200976	33184
907	0.512623	158969856	125489152	76819376	33184
908	0.486717	158969856	125489152	77438472	33184
909	0.669432	158969856	125489152	78058344	33184
910	0.50911	158969856	125489152	78678920	33184
911	0.489605	158969856	125489152	79300264	33184
912	0.513381	158969856	125489152	79922312	33184
913	0.488661	158969856	125489152	80545128	33184
914	0.510106	158969856	125489152	81168648	33184
915	0.503925	158969856	125489152	81792928	33184
916	0.508312	158969856	125489152	82417960	33184
917	0.511479	158969856	125489152	83043736	33184
918	0.511457	158969856	125489152	83670208	33184
919	0.493806	158969856	125489152	84297448	33184
920	0.527906	158969856	125489152	84925464	33184
921	0.496483	158969856	125489152	85554176	33184
922	0.515808	158969856	125489152	86183664	33184
923	0.546881	158969856	125489152	86813856	33184
924	0.515511	158969856	125489152	87444824	33184
925	0.522926	158969856	125489152	88076488	33184
926	0.519867	158969856	125489152	88708952	33184
927	0.520226	158969856	125489152	89342088	33184
928	7.222612	158969856	125489152	78427176	33184
929	0.959697	158969856	125489152	79061152	33184
930	0.525183	158969856	125489152	79695896	33184
931	0.522562	158969856	125489152	80331416	33184
932	0.541993	158969856	125489152	80967640	33184
933	0.526244	158969856	125489152	81604640	33184
934	0.515826	158969856	125489152	82242352	33184
935	0.519882	158969856	125489152	82880832	33184
936	0.522166	158969856	125489152	83520000	33184
937	0.502893	158969856	125489152	84159944	33184
938	0.544328	158969856	125489152	84800592	33184
939	0.563849	158969856	125489152	85442008	33184
940	0.527227	158969856	125489152	86084128	33184
941	0.527958	158969856	125489152	86727024	33184
942	0.528156	158969856	125489152	87370624	33184
943	0.529981	158969856	125489152	88015008	33184
944	0.511904	158969856	125489152	88660080	33184
945	0.531873	158969856	125489152	89305920	33184
946	0.541768	158969856	125489152	89952536	33184
947	0.537786	158969856	125489152	90599848	33184
948	0.530898	158969856	125489152	91247936	33184
949	0.531238	158969856	125489152	91896712	33184
950	0.538387	158969856	125489152	92546248	33184
951	0.513468	158969856	125489152	93196512	33184
952	7.53951	159510528	126013440	82394248	33184
953	0.989846	159510528	126013440	83046008	33184
954	0.56008	159510528	126013440	83698520	33184
955	0.53763	159510528	126013440	84351800	33184
956	0.533502	159510528	126013440	85005776	33184
957	0.547392	159510528	126013440	85660576	33184
958	0.536885	159510528	126013440	86316032	33184
959	0.536485	159510528	126013440	86972264	33184
960	0.542026	159510528	126013440	87629408	33184
961	0.536738	159510528	126013440	88286480	33184
962	0.519124	159510528	126013440	88944248	33184
963	0.545475	159510528	126013440	89602888	33184
964	0.539184	159510528	126013440	90262136	33184
965	0.542483	159510528	126013440	90922152	33184
966	0.546415	159510528	126013440	91582872	33184
967	0.690273	159510528	126013440	92244360	33184
968	0.546669	159510528	126013440	92906552	33184
969	0.542426	159510528	126013440	93569592	33184
970	0.553016	159510528	126013440	94233288	33184
971	0.526364	159510528	126013440	94897728	33184
972	0.549391	159510528	126013440	95562936	33184
973	0.537378	159510528	126013440	96228856	33184
974	0.55649	159510528	126013440	96895544	33184
975	7.234388	159510528	126013440	86066680	33184
976	1.277771	159510528	126013440	86734880	33184
977	0.530177	159510528	126013440	87403744	33184
978	0.556518	159510528	126013440	88073376	33184
979	0.542329	159510528	126013440	88743712	33184
980	0.552043	159510528	126013440	89414824	33184
981	0.587832	159510528	126013440	90086768	33184
982	0.565201	159510528	126013440	90759320	33184
983	0.547394	159510528	126013440	91432672	33184
984	0.550086	159510528	126013440	92106728	33184
985	0.551575	159510528	126013440	92781560	33184
986	0.5513	159510528	126013440	93457096	33184
987	0.554151	159510528	126013440	94133424	33184
988	0.598015	159510528	126013440	94810432	33184
989	0.55735	159510528	126013440	95488216	33184
990	0.554521	159510528	126013440	96166696	33184
991	0.558547	159510528	126013440	96845952	33184
992	0.55768	159510528	126013440	97526144	33184
993	0.560315	159510528	126013440	98206232	33184
994	0.555163	159510528	126013440	98887024	33184
995	0.564382	159510528	126013440	99568592	33184
996	0.564979	159510528	126013440	100250928	33184
997	0.566734	159510528	126013440	100934064	33184
998	7.497052	160051200	126537728	90214064	33184
999	1.026482	160051200	126537728	90898576	33184
1000	0.56718	160051200	126537728	91583864	33184
