x	Duration	RSS	HeapTotal	HeapUsed	External
0	NA	169050112	137547776	92777256	33184
1	0.035582	169050112	137547776	92786296	33184
2	0.020748	169050112	137547776	92796320	33184
3	0.018703	169050112	137547776	92806848	33184
4	0.018374	169050112	137547776	92818000	33184
5	0.01741	169050112	137547776	92829808	33184
6	0.017652	169050112	137547776	92842240	33184
7	0.017679	169050112	137547776	92855328	33184
8	0.031527	169050112	137547776	92872176	33184
9	0.02798	169050112	137547776	92888232	33184
10	0.024805	169050112	137547776	92904752	33184
11	0.024845	169050112	137547776	92922168	33184
12	0.024608	169050112	137547776	92940304	33184
13	0.024385	169050112	137547776	92959160	33184
14	0.024734	169050112	137547776	92978736	33184
15	0.025535	169050112	137547776	92999032	33184
16	0.031439	169050112	137547776	93020360	33184
17	0.028985	169050112	137547776	93042888	33184
18	0.028715	169050112	137547776	93066184	33184
19	0.028513	169050112	137547776	93090624	33184
20	0.030333	169050112	137547776	93115328	33184
21	0.029905	169050112	137547776	93140824	33184
22	0.031858	169050112	137547776	93166432	33184
23	0.031898	169050112	137547776	93193544	33184
24	0.031293	169050112	137547776	93221552	33184
25	0.033304	169050112	137547776	93250344	33184
26	0.033391	169050112	137547776	93279736	33184
27	0.0335	169050112	137547776	93309752	33184
28	0.034249	169050112	137547776	93340504	33184
29	0.034359	169050112	137547776	93372000	33184
30	0.035541	169050112	137547776	93404232	33184
31	0.036996	169050112	137547776	93437264	33184
32	0.041029	169050112	137547776	93470584	33184
33	0.038057	169050112	137547776	93504424	33184
34	0.041037	169050112	137547776	93539000	33184
35	0.039211	169050112	137547776	93574320	33184
36	0.039786	169050112	137547776	93610376	33184
37	0.039979	169050112	137547776	93647216	33184
38	0.040259	169050112	137547776	93684632	33184
39	0.040896	169050112	137547776	93722752	33184
40	0.041291	169050112	137547776	93761464	33184
41	0.041778	169050112	137547776	93800904	33184
42	0.042349	169050112	137547776	93841144	33184
43	0.046317	169050112	137547776	93882192	33184
44	0.045161	169050112	137547776	93924040	33184
45	0.042748	169050112	137547776	93967368	33184
46	0.044807	169050112	137547776	94010864	33184
47	0.045522	169050112	137547776	94055128	33184
48	0.0453	169050112	137547776	94100216	33184
49	0.044661	169050112	137547776	94146112	33184
50	0.045487	169050112	137547776	94192808	33184
51	0.04614	169050112	137547776	94240312	33184
52	0.046491	169050112	137547776	94288616	33184
53	0.051996	169050112	137547776	94337528	33184
54	0.048315	169050112	137547776	94387144	33184
55	0.048596	169050112	137547776	94437576	33184
56	0.048649	169050112	137547776	94488624	33184
57	0.049976	169050112	137547776	94540512	33184
58	0.050647	169050112	137547776	94593064	33184
59	0.050533	169050112	137547776	94646208	33184
60	0.050761	169050112	137547776	94699976	33184
61	0.056184	169050112	137547776	94754376	33184
62	0.05265	169050112	137547776	94809400	33184
63	0.052749	169050112	137547776	94865056	33184
64	0.053037	169050112	137547776	94920968	33184
65	0.053379	169050112	137547776	94977264	33184
66	0.053957	169050112	137547776	95034184	33184
67	0.054812	169050112	137547776	95091736	33184
68	0.059085	169050112	137547776	95149960	33184
69	0.054574	169050112	137547776	95208744	33184
70	0.055308	169050112	137547776	95268264	33184
71	0.057913	169050112	137547776	95328424	33184
72	0.059189	169050112	137547776	95389216	33184
73	0.057659	169050112	137547776	95450672	33184
74	0.062392	169050112	137547776	95512752	33184
75	0.058986	169050112	137547776	95575464	33184
76	0.059463	169050112	137547776	95638800	33184
77	0.060615	169050112	137547776	95702816	33184
78	0.06059	169050112	137547776	95767408	33184
79	0.060626	169050112	137547776	95832632	33184
80	0.070306	169050112	137547776	95898696	33184
81	0.075018	169050112	137547776	95965200	33184
82	0.066309	169050112	137547776	96032328	33184
83	0.064798	169050112	137547776	96100088	33184
84	0.068881	169050112	137547776	96173352	33184
85	0.065253	169050112	137547776	96242264	33184
86	0.070096	169050112	137547776	96312000	33184
87	0.065435	169050112	137547776	96382272	33184
88	0.06514	169050112	137547776	96453176	33184
89	0.067646	169050112	137547776	96524744	33184
90	0.066082	169050112	137547776	96596936	33184
91	0.070404	169050112	137547776	96669760	33184
92	0.070698	169050112	137547776	96743208	33184
93	0.068433	169050112	137547776	96817288	33184
94	0.069124	169050112	137547776	96892024	33184
95	0.068558	169050112	137547776	96967360	33184
96	0.074047	169050112	137547776	97042968	33184
97	0.069016	169050112	137547776	97118944	33184
98	0.070791	169050112	137547776	97195544	33184
99	0.070136	169050112	137547776	97272776	33184
100	0.069833	169050112	137547776	97350632	33184
101	0.076107	169050112	137547776	97429144	33184
102	0.07231	169050112	137547776	97508152	33184
103	0.0727	169050112	137547776	97587800	33184
104	0.073718	169050112	137547776	97668080	33184
105	0.074207	169050112	137547776	97749024	33184
106	0.079395	169050112	137547776	97830592	33184
107	0.074358	169050112	137547776	97912792	33184
108	0.075682	169050112	137547776	97995640	33184
109	0.075413	169050112	137547776	98079096	33184
110	0.081037	169050112	137547776	98163176	33184
111	0.077559	169050112	137547776	98247888	33184
112	0.077149	169050112	137547776	98333248	33184
113	0.078826	169050112	137547776	98419240	33184
114	0.104367	169050112	137547776	98505856	33184
115	0.082854	169050112	137547776	98593120	33184
116	0.095805	169050112	137547776	98680992	33184
117	0.079395	169050112	137547776	98769472	33184
118	0.081654	169050112	137547776	98858496	33184
119	0.094389	169050112	137547776	98948160	33184
120	0.082915	169050112	137547776	99038456	33184
121	0.083501	169050112	137547776	99129424	33184
122	0.08319	169050112	137547776	99221008	33184
123	0.089251	169050112	137547776	99313224	33184
124	0.083419	169050112	137547776	99406064	33184
125	0.085127	169050112	137547776	99499536	33184
126	0.08963	169050112	137547776	99593632	33184
127	0.089363	169050112	137547776	99688360	33184
128	0.086205	169050112	137547776	99783384	33184
129	0.085965	169050112	137547776	99878464	33184
130	0.091296	169050112	137547776	99974168	33184
131	0.088547	169050112	137547776	100070664	33184
132	0.088461	169050112	137547776	100167784	33184
133	0.088937	169050112	137547776	100265552	33184
134	0.092972	169050112	137547776	100363912	33184
135	0.091244	169050112	137547776	100462912	33184
136	0.089864	169050112	137547776	100562544	33184
137	0.094506	169050112	137547776	100662840	33184
138	0.091741	169050112	137547776	100763760	33184
139	0.092222	169050112	137547776	100865328	33184
140	0.094329	169050112	137547776	100967504	33184
141	0.096973	169050112	137547776	101070312	33184
142	0.094392	169050112	137547776	101175576	33184
143	0.093489	169050112	137547776	101279640	33184
144	0.098073	169050112	137547776	101384352	33184
145	0.106538	169050112	137547776	101489696	33184
146	0.100635	169050112	137547776	101595664	33184
147	0.096685	169050112	137547776	101702264	33184
148	0.104305	169050112	137547776	101809488	33184
149	0.098898	169050112	137547776	101917320	33184
150	0.098693	169050112	137547776	102026288	33184
151	0.102487	169050112	137547776	102135872	33184
152	0.097976	169050112	137547776	102246088	33184
153	0.099034	169050112	137547776	102356968	33184
154	0.103906	169050112	137547776	102468472	33184
155	0.102261	169050112	137547776	102580656	33184
156	0.102008	169050112	137547776	102693416	33184
157	0.105369	169050112	137547776	102806808	33184
158	0.101967	169050112	137547776	102920824	33184
159	0.109859	169050112	137547776	103035472	33184
160	0.109155	169050112	137547776	103150432	33184
161	0.106326	169050112	137547776	103265720	33184
162	0.114292	169050112	137547776	103381632	33184
163	0.109322	169050112	137547776	103498176	33184
164	0.108856	169050112	137547776	103615344	33184
165	0.106639	169050112	137547776	103733168	33184
166	0.111195	169050112	137547776	103851840	33184
167	0.109169	169050112	137547776	103971152	33184
168	0.107353	169050112	137547776	104091096	33184
169	0.111533	169050112	137547776	104211704	33184
170	0.108369	169050112	137547776	104332960	33184
171	0.266646	169050112	137547776	104454824	33184
172	0.134147	169050112	137547776	104577312	33184
173	0.1109	169050112	137547776	104700432	33184
174	0.110837	169050112	137547776	104824216	33184
175	0.116173	169050112	137547776	104948592	33184
176	0.111013	169050112	137547776	105073616	33184
177	0.112178	169050112	137547776	105199272	33184
178	0.119041	169050112	137547776	105325552	33184
179	7.64557	169906176	137547776	93892784	33184
180	0.193924	169906176	137547776	94020376	33184
181	0.112625	169906176	137547776	94148520	33184
182	0.124456	169906176	137547776	94277296	33184
183	0.108269	169906176	137547776	94406712	33184
184	0.114965	169906176	137547776	94536760	33184
185	0.113477	169906176	137547776	94667488	33184
186	0.110194	169906176	137547776	94798824	33184
187	0.116186	169906176	137547776	94930792	33184
188	0.110784	169906176	137547776	95063384	33184
189	0.110501	169906176	137547776	95196632	33184
190	0.11972	169906176	137547776	95330480	33184
191	0.112992	169906176	137547776	95464960	33184
192	0.117741	169906176	137547776	95599776	33184
193	0.11434	169906176	137547776	95734896	33184
194	0.115559	169906176	137547776	95870640	33184
195	0.119336	169906176	137547776	96007016	33184
196	0.117033	169906176	137547776	96144016	33184
197	0.289186	169906176	137547776	96281640	33184
198	0.12418	169906176	137547776	96419880	33184
199	0.13203	169906176	137547776	96558760	33184
200	0.121772	169906176	137547776	96698272	33184
201	0.118544	169906176	137547776	96838448	33184
202	0.153632	169906176	137547776	96979248	33184
203	0.118097	169906176	137547776	97120680	33184
204	0.116825	169906176	137547776	97262736	33184
205	0.126711	169906176	137547776	97405480	33184
206	0.119741	169906176	137547776	97548792	33184
207	0.122632	169906176	137547776	97692736	33184
208	0.122798	169906176	137547776	97837328	33184
209	0.142166	169906176	137547776	97982552	33184
210	0.119763	169906176	137547776	98128400	33184
211	0.121575	169906176	137547776	98274880	33184
212	0.129594	169906176	137547776	98421984	33184
213	0.124117	169906176	137547776	98569744	33184
214	0.126984	169906176	137547776	98718088	33184
215	0.125402	169906176	137547776	98867072	33184
216	0.126481	169906176	137547776	99016688	33184
217	0.12675	169906176	137547776	99167000	33184
218	0.126632	169906176	137547776	99317904	33184
219	0.135988	169906176	137547776	99469440	33184
220	0.127133	169906176	137547776	99621600	33184
221	0.154953	169906176	137547776	99774400	33184
222	0.129011	169906176	137547776	99927816	33184
223	0.131006	169906176	137547776	100081864	33184
224	0.140023	169906176	137547776	100236264	33184
225	0.133049	169906176	137547776	100391248	33184
226	0.132242	169906176	137547776	100546560	33184
227	0.132522	169906176	137547776	100702504	33184
228	0.139789	169906176	137547776	100859088	33184
229	0.132754	169906176	137547776	101019144	33184
230	0.140899	169906176	137547776	101176952	33184
231	0.134039	169906176	137547776	101335400	33184
232	0.139275	169906176	137547776	101494504	33184
233	0.137189	169906176	137547776	101654248	33184
234	0.148268	169906176	137547776	101814616	33184
235	0.134131	169906176	137547776	101975744	33184
236	0.139841	169906176	137547776	102137368	33184
237	0.135613	169906176	137547776	102299624	33184
238	0.13977	169906176	137547776	102462504	33184
239	0.136951	169906176	137547776	102626064	33184
240	0.143539	169906176	137547776	102790224	33184
241	0.140608	169906176	137547776	102955016	33184
242	0.141655	169906176	137547776	103120480	33184
243	0.186743	169906176	137547776	103286528	33184
244	0.162752	169906176	137547776	103453200	33184
245	0.143767	169906176	137547776	103620480	33184
246	0.146522	169906176	137547776	103788440	33184
247	0.143586	169906176	137547776	103956992	33184
248	0.146406	169906176	137547776	104126176	33184
249	0.147075	169906176	137547776	104296088	33184
250	0.147255	169906176	137547776	104466560	33184
251	0.145611	169906176	137547776	104637664	33184
252	0.149746	169906176	137547776	104809392	33184
253	0.148011	169906176	137547776	104981896	33184
254	0.14887	169906176	137547776	105154880	33184
255	0.157245	169906176	137547776	105328496	33184
256	0.152799	169906176	137547776	105502864	33184
257	0.152392	169906176	137547776	105677480	33184
258	0.163652	169906176	137547776	105852720	33184
259	0.151454	169906176	137547776	106028632	33184
260	0.154026	169906176	137547776	106205128	33184
261	0.152355	169906176	137547776	106382224	33184
262	0.155767	169906176	137547776	106560184	33184
263	0.151769	169906176	137547776	106738888	33184
264	0.164943	169906176	137547776	106918392	33184
265	0.155095	169906176	137547776	107099088	33184
266	0.158073	169906176	137547776	107280768	33184
267	0.153851	169906176	137547776	107463424	33184
268	0.165979	169906176	137547776	107647056	33184
269	0.157875	169906176	137547776	107831672	33184
270	0.161697	169906176	137547776	108017264	33184
271	0.161627	169906176	137547776	108203840	33184
272	0.162169	169906176	137547776	108391392	33184
273	0.164144	169906176	137547776	108579928	33184
274	0.158957	169906176	137547776	108769440	33184
275	0.166164	169906176	137547776	108959976	33184
276	0.159549	169906176	137547776	109151448	33184
277	0.177631	169906176	137547776	109343552	33184
278	6.764705	170446848	138072064	97318856	33184
279	0.260081	170446848	138072064	97512256	33184
280	0.164643	170446848	138072064	97706240	33184
281	0.15372	170446848	138072064	97900856	33184
282	0.158382	170446848	138072064	98096128	33184
283	0.150837	170446848	138072064	98292000	33184
284	0.156595	170446848	138072064	98488512	33184
285	0.153323	170446848	138072064	98685640	33184
286	0.157391	170446848	138072064	98883392	33184
287	0.15207	170446848	138072064	99081792	33184
288	0.157136	170446848	138072064	99280544	33184
289	0.153474	170446848	138072064	99479544	33184
290	0.191793	170446848	138072064	99679200	33184
291	0.172288	170446848	138072064	99879456	33184
292	0.157836	170446848	138072064	100080336	33184
293	0.155149	170446848	138072064	100281848	33184
294	0.161237	170446848	138072064	100483984	33184
295	0.157176	170446848	138072064	100686752	33184
296	0.160272	170446848	138072064	100890184	33184
297	0.157022	170446848	138072064	101094208	33184
298	0.163434	170446848	138072064	101298856	33184
299	0.160426	170446848	138072064	101504192	33184
300	0.163293	170446848	138072064	101710096	33184
301	0.158845	170446848	138072064	101916696	33184
302	0.166227	170446848	138072064	102123856	33184
303	0.160208	170446848	138072064	102331648	33184
304	0.165108	170446848	138072064	102540096	33184
305	0.159968	170446848	138072064	102749144	33184
306	0.168699	170446848	138072064	102958816	33184
307	0.161202	170446848	138072064	103169176	33184
308	0.167973	170446848	138072064	103380104	33184
309	0.194822	170446848	138072064	103591664	33184
310	0.188537	170446848	138072064	103803856	33184
311	0.171313	170446848	138072064	104016672	33184
312	0.168067	170446848	138072064	104230168	33184
313	0.170698	170446848	138072064	104444240	33184
314	0.167795	170446848	138072064	104658936	33184
315	0.172994	170446848	138072064	104874320	33184
316	0.168054	170446848	138072064	105090272	33184
317	0.173137	170446848	138072064	105306856	33184
318	0.170267	170446848	138072064	105524104	33184
319	0.179024	170446848	138072064	105741944	33184
320	0.173582	170446848	138072064	105960192	33184
321	0.173806	170446848	138072064	106178648	33184
322	0.191126	170446848	138072064	106397728	33184
323	0.185051	170446848	138072064	106617504	33184
324	0.176581	170446848	138072064	106837840	33184
325	0.174456	170446848	138072064	107058864	33184
326	0.179513	170446848	138072064	107280456	33184
327	0.175169	170446848	138072064	107502680	33184
328	0.386515	170446848	138072064	107725568	33184
329	0.194636	170446848	138072064	107949048	33184
330	0.181569	170446848	138072064	108173152	33184
331	0.184973	170446848	138072064	108398144	33184
332	0.17853	170446848	138072064	108623504	33184
333	0.182529	170446848	138072064	108849544	33184
334	0.181425	170446848	138072064	109076160	33184
335	0.185297	170446848	138072064	109303408	33184
336	0.199925	170446848	138072064	109531288	33184
337	0.1967	170446848	138072064	109759792	33184
338	0.184784	170446848	138072064	109988936	33184
339	0.18248	170446848	138072064	110218696	33184
340	0.192138	170446848	138072064	110449080	33184
341	0.187155	170446848	138072064	110680136	33184
342	0.219828	170446848	138072064	110911776	33184
343	0.190357	170446848	138072064	111144104	33184
344	0.209296	170446848	138072064	111377000	33184
345	0.208328	170446848	138072064	111610528	33184
346	0.186908	170446848	138072064	111844912	33184
347	0.188144	170446848	138072064	112079696	33184
348	0.192899	170446848	138072064	112315112	33184
349	0.188338	170446848	138072064	112551152	33184
350	0.195665	170446848	138072064	112787880	33184
351	0.211854	170446848	138072064	113025176	33184
352	0.191235	170446848	138072064	113262880	33184
353	5.952531	170446848	138072064	100760608	33184
354	0.333203	170446848	138072064	100999144	33184
355	0.183725	170446848	138072064	101238312	33184
356	0.189852	170446848	138072064	101478112	33184
357	0.179664	170446848	138072064	101718536	33184
358	0.185643	170446848	138072064	101959624	33184
359	0.177994	170446848	138072064	102201304	33184
360	0.187497	170446848	138072064	102448056	33184
361	0.184973	170446848	138072064	102691096	33184
362	0.18116	170446848	138072064	102934656	33184
363	0.186964	170446848	138072064	103178864	33184
364	0.179319	170446848	138072064	103423680	33184
365	0.188701	170446848	138072064	103669144	33184
366	0.203956	170446848	138072064	103915216	33184
367	0.196875	170446848	138072064	104161920	33184
368	0.191464	170446848	138072064	104409288	33184
369	0.194939	170446848	138072064	104657248	33184
370	0.22174	170446848	138072064	104905864	33184
371	0.20558	170446848	138072064	105155080	33184
372	0.186701	170446848	138072064	105404968	33184
373	0.192157	170446848	138072064	105655440	33184
374	0.187137	170446848	138072064	105906672	33184
375	0.19375	170446848	138072064	106158400	33184
376	0.207847	170446848	138072064	106410752	33184
377	0.190539	170446848	138072064	106663768	33184
378	0.193065	170446848	138072064	106917376	33184
379	0.189952	170446848	138072064	107171640	33184
380	0.198866	170446848	138072064	107426504	33184
381	0.199331	170446848	138072064	107682032	33184
382	0.18931	170446848	138072064	107938152	33184
383	0.197295	170446848	138072064	108194920	33184
384	0.213395	170446848	138072064	108452104	33184
385	0.19407	170446848	138072064	108709472	33184
386	0.247895	170446848	138072064	108967520	33184
387	0.19251	170446848	138072064	109226144	33184
388	0.20808	170446848	138072064	109485392	33184
389	0.199945	170446848	138072064	109745272	33184
390	0.201177	170446848	138072064	110005800	33184
391	0.202401	170446848	138072064	110266936	33184
392	0.220059	170446848	138072064	110528720	33184
393	0.197064	170446848	138072064	110791112	33184
394	0.206142	170446848	138072064	111054128	33184
395	0.228026	170446848	138072064	111317880	33184
396	0.199341	170446848	138072064	111582152	33184
397	0.206604	170446848	138072064	111847064	33184
398	0.222338	170446848	138072064	112112592	33184
399	0.21069	170446848	138072064	112378752	33184
400	0.206571	170446848	138072064	112645536	33184
401	0.416155	170446848	138072064	112912960	33184
402	0.230139	170446848	138072064	113181000	33184
403	0.213434	170446848	138072064	113449696	33184
404	0.224391	170446848	138072064	113718992	33184
405	0.203348	170446848	138072064	113988952	33184
406	0.211193	170446848	138072064	114259504	33184
407	0.23125	170446848	138072064	114530736	33184
408	0.206524	170446848	138072064	114802544	33184
409	0.214496	170446848	138072064	115075040	33184
410	0.231541	170446848	138072064	115348104	33184
411	0.209622	170446848	138072064	115621800	33184
412	0.218653	170446848	138072064	115896232	33184
413	0.25834	170446848	138072064	116171184	33184
414	0.212421	170446848	138072064	116446784	33184
415	0.218782	170446848	138072064	116722992	33184
416	6.128679	171798528	139644928	104168752	33184
417	0.351669	171798528	139644928	104445824	33184
418	0.204131	171798528	139644928	104723272	33184
419	0.219991	171798528	139644928	105001392	33184
420	0.254374	171798528	139644928	105280096	33184
421	0.212132	171798528	139644928	105559488	33184
422	0.218299	171798528	139644928	105839448	33184
423	0.439281	171798528	139644928	106120040	33184
424	0.232475	171798528	139644928	106401256	33184
425	0.222212	172068864	139644928	106683112	33184
426	0.252974	172068864	139644928	106965584	33184
427	0.217296	172068864	139644928	107248712	33184
428	0.224021	172068864	139644928	107532440	33184
429	0.258327	172068864	139644928	107816832	33184
430	0.243562	172068864	139644928	108101816	33184
431	0.256319	172068864	139644928	108387480	33184
432	0.226774	172068864	139644928	108673720	33184
433	0.238086	172068864	139644928	108960648	33184
434	0.219036	172339200	139644928	109248144	33184
435	0.248176	172339200	140169216	109536336	33184
436	0.235386	172339200	140169216	109825088	33184
437	0.219705	172339200	140169216	110114480	33184
438	0.228728	172339200	140169216	110404488	33184
439	0.243656	172339200	140169216	110695152	33184
440	0.222475	172339200	140169216	110986416	33184
441	0.23098	172339200	140169216	111278336	33184
442	0.236652	172339200	140169216	111570856	33184
443	0.243715	172339200	140169216	111864056	33184
444	0.224137	172609536	140169216	112157832	33184
445	0.234245	172609536	140169216	112452288	33184
446	0.248877	172609536	140169216	112747320	33184
447	0.229057	172609536	140169216	113043000	33184
448	0.237641	172609536	140169216	113339136	33184
449	0.267362	172609536	140169216	113635456	33184
450	0.260044	172609536	140169216	113932360	33184
451	0.240809	172609536	140169216	114229896	33184
452	0.236751	172879872	140693504	114528104	33184
453	0.243411	172879872	140693504	114826896	33184
454	0.230845	172879872	140693504	115126352	33184
455	0.243622	172879872	140693504	115426400	33184
456	0.238517	172879872	140693504	115727120	33184
457	0.270938	172879872	140693504	116028424	33184
458	0.23762	172879872	140693504	116330416	33184
459	0.241309	172879872	140693504	116632976	33184
460	0.239783	172879872	140693504	116936160	33184
461	0.255064	172879872	140693504	117239976	33184
462	0.24609	173150208	140693504	117544432	33184
463	0.24303	173150208	140693504	117849504	33184
464	0.438879	173150208	140693504	118155224	33184
465	0.275899	173150208	140693504	118461552	33184
466	0.254073	173150208	140693504	118768544	33184
467	0.269591	173150208	140693504	119076128	33184
468	0.273659	173150208	140693504	119384360	33184
469	0.24952	173150208	140693504	119693264	33184
470	0.261011	173420544	141217792	120002728	33184
471	6.078427	175042560	143314944	107331336	33184
472	0.440353	175042560	143314944	107642064	33184
473	0.245904	175042560	143314944	107953416	33184
474	0.285553	175312896	143314944	108265408	33184
475	0.237947	175312896	143314944	108578016	33184
476	0.231344	175312896	143314944	108891264	33184
477	0.239436	175312896	143314944	109205128	33184
478	0.247685	175312896	143314944	109519656	33184
479	0.240333	175312896	143314944	109834776	33184
480	0.234559	175312896	143314944	110150416	33184
481	0.243659	175312896	143314944	110466160	33184
482	0.279201	175583232	143314944	110782520	33184
483	0.58146	175583232	143314944	111099512	33184
484	0.264354	175583232	143314944	111417128	33184
485	0.248514	175583232	143314944	111735384	33184
486	0.245046	175583232	143314944	112054256	33184
487	0.277372	175583232	143314944	112373776	33184
488	0.237433	175583232	143314944	112693904	33184
489	0.442559	175583232	143314944	113014848	33184
490	0.268966	175583232	143314944	113336256	33184
491	0.244353	175853568	143314944	113658272	33184
492	0.263717	175853568	143314944	113980960	33184
493	0.2386	175853568	143314944	114304232	33184
494	0.250842	175853568	143314944	114628192	33184
495	0.292907	175853568	143314944	114952720	33184
496	0.271079	175853568	143839232	115277872	33184
497	0.245267	175853568	143839232	115603656	33184
498	0.255346	175853568	143839232	115930112	33184
499	0.260924	176123904	143839232	116257168	33184
500	0.251576	176123904	143839232	116584832	33184
501	0.252454	176123904	143839232	116913160	33184
502	0.244102	176123904	143839232	117242080	33184
503	0.25753	176123904	143839232	117571672	33184
504	0.262171	176123904	143839232	117902016	33184
505	0.256494	176123904	143839232	118232824	33184
506	0.256066	176123904	143839232	118564288	33184
507	0.251115	176394240	143839232	118896352	33184
508	0.453633	176394240	143839232	119229040	33184
509	0.28724	176394240	143839232	119562360	33184
510	0.293297	176394240	143839232	119896312	33184
511	0.274504	176394240	144363520	120230912	33184
512	0.255866	176394240	144363520	120566336	33184
513	0.272005	176394240	144363520	120901880	33184
514	0.271563	176394240	144363520	121238032	33184
515	0.262803	176664576	144363520	121574824	33184
516	0.269532	176664576	144363520	121912312	33184
517	0.260662	176664576	144363520	122250128	33184
518	0.257117	176664576	144363520	122588688	33184
519	0.26684	176664576	144363520	122927984	33184
520	0.620938	176664576	144363520	123268080	33184
521	0.292049	176664576	144363520	123609192	33184
522	6.257168	178556928	146460672	110889848	33184
523	0.33128	178556928	146460672	111232536	33184
524	0.273897	178556928	146460672	111575880	33184
525	0.294513	178556928	146460672	111919952	33184
526	0.28554	178556928	146460672	112264760	33184
527	0.259441	178556928	146460672	112610312	33184
528	0.270898	178827264	146460672	112956616	33184
529	0.277705	178827264	146460672	113303672	33184
530	0.267094	178827264	146460672	113651440	33184
531	0.264197	178827264	146460672	113999992	33184
532	0.261756	178827264	146460672	114349248	33184
533	0.270017	178827264	146460672	114699240	33184
534	0.278889	178827264	146460672	115049992	33184
535	0.267164	178827264	146460672	115401464	33184
536	0.274568	179097600	146460672	115753688	33184
537	0.268098	179097600	146460672	116106672	33184
538	0.517862	179097600	146984960	116460360	33184
539	0.297201	179097600	146984960	116814856	33184
540	0.313135	179097600	146984960	117170024	33184
541	0.274607	179097600	146984960	117525976	33184
542	0.313039	179097600	146984960	117882624	33184
543	0.275472	179367936	146984960	118240016	33184
544	0.292606	179367936	146984960	118598104	33184
545	0.307173	179367936	146984960	118956352	33184
546	0.295817	179367936	146984960	119315320	33184
547	0.342778	179367936	146984960	119675056	33184
548	0.277252	179367936	146984960	120035504	33184
549	0.32658	179367936	146984960	120396704	33184
550	0.282873	179367936	146984960	120758672	33184
551	0.289421	179638272	146984960	121121344	33184
552	0.294362	179638272	147509248	121484816	33184
553	0.293061	179638272	147509248	121849024	33184
554	0.324625	179638272	147509248	122213912	33184
555	0.289289	179638272	147509248	122579592	33184
556	0.294815	179638272	147509248	122952784	33184
557	0.288206	179638272	147509248	123319896	33184
558	0.294293	179908608	147509248	123687776	33184
559	0.280199	179908608	147509248	124056368	33184
560	0.296388	179908608	147509248	124425768	33184
561	0.320419	179908608	147509248	124795896	33184
562	0.32573	179908608	147509248	125166704	33184
563	0.328586	179908608	147509248	125538456	33184
564	0.296312	179908608	147509248	125910752	33184
565	0.293145	180178944	147509248	126283784	33184
566	0.311658	180178944	148033536	126657608	33184
567	6.36195	181800960	150130688	114073048	33184
568	0.53695	181800960	150130688	114448344	33184
569	0.300369	181800960	150130688	114824344	33184
570	0.421199	182071296	150130688	115201184	33184
571	0.329231	182071296	150130688	115578672	33184
572	0.362228	182071296	150130688	115957992	33184
573	0.317575	182071296	150130688	116336928	33184
574	0.295723	182071296	150130688	116716656	33184
575	0.295268	182071296	150130688	117097120	33184
576	0.362183	182071296	150130688	117478200	33184
577	0.298138	182341632	150130688	117859496	33184
578	0.28913	182341632	150130688	118241504	33184
579	0.304572	182341632	150130688	118624240	33184
580	0.306369	182341632	150130688	119007736	33184
581	0.303369	182341632	150130688	119391984	33184
582	0.30059	182341632	150130688	119776936	33184
583	0.298305	182341632	150130688	120162640	33184
584	0.333079	182341632	150130688	120549072	33184
585	0.323221	182611968	150130688	120936248	33184
586	0.297622	182611968	150130688	121324216	33184
587	0.506604	182611968	150130688	121712896	33184
588	0.317853	182611968	150130688	122102288	33184
589	0.310213	182611968	150130688	122492464	33184
590	0.338558	182611968	150654976	122883384	33184
591	0.312304	182882304	150654976	123275000	33184
592	0.311337	182882304	150654976	123667376	33184
593	0.312517	182882304	150654976	124060480	33184
594	0.307324	182882304	150654976	124454312	33184
595	0.312642	182882304	150654976	124849112	33184
596	0.309762	182882304	150654976	125244448	33184
597	0.308093	182882304	150654976	125640512	33184
598	0.308834	183152640	150654976	126037304	33184
599	0.311811	183152640	150654976	126434880	33184
600	0.310127	183152640	150654976	126833176	33184
601	0.307513	183152640	150654976	127232192	33184
602	0.314887	183152640	150654976	127631984	33184
603	0.322357	183152640	150654976	128032520	33184
604	0.338435	183152640	151179264	128433752	33184
605	0.325257	183422976	151179264	128835752	33184
606	0.325708	183422976	151179264	129238472	33184
607	0.32479	183422976	151179264	129641928	33184
608	0.328954	183422976	151179264	130046072	33184
609	6.726493	185315328	153276416	117749024	33184
610	0.54937	185315328	153276416	118154056	33184
611	0.321539	185315328	153276416	118559832	33184
612	0.645363	185315328	153276416	118966400	33184
613	0.342541	185315328	153276416	119373672	33184
614	0.31855	185585664	153276416	119781664	33184
615	0.31997	185585664	153276416	120190440	33184
616	0.339803	185585664	153276416	120599960	33184
617	0.318054	185585664	153276416	121010184	33184
618	0.320089	185585664	153276416	121421136	33184
619	0.319909	185585664	153276416	121832848	33184
620	0.315159	185856000	153276416	122245320	33184
621	0.317217	185856000	153276416	122658496	33184
622	0.36609	185856000	153276416	123072448	33184
623	0.357931	185856000	153800704	123487128	33184
624	0.33554	185856000	153800704	123902544	33184
625	0.330302	185856000	153800704	124318680	33184
626	0.331493	185856000	153800704	124735600	33184
627	0.338581	186126336	153800704	125153264	33184
628	0.332424	186126336	153800704	125571616	33184
629	0.336895	186126336	153800704	125990720	33184
630	0.336807	186126336	153800704	126410440	33184
631	0.333411	186126336	153800704	126830912	33184
632	0.533946	186126336	153800704	127252056	33184
633	0.357928	186396672	153800704	127673968	33184
634	0.332203	186396672	153800704	128096584	33184
635	0.336729	186396672	153800704	128519936	33184
636	0.354655	186396672	154324992	128943976	33184
637	0.337471	186396672	154324992	129368776	33184
638	0.337552	186396672	154324992	129794304	33184
639	0.337053	186396672	154324992	130220536	33184
640	0.336037	186667008	154324992	130647440	33184
641	0.337464	186667008	154324992	131074504	33184
642	0.386237	186667008	154324992	131502264	33184
643	0.343102	186667008	154324992	131930736	33184
644	0.341446	186667008	154324992	132359928	33184
645	0.338767	186667008	154324992	132789888	33184
646	0.347409	186937344	154324992	133220464	33184
647	6.83911	188829696	156422144	121179952	33184
648	0.639503	188829696	156422144	121611968	33184
649	0.344362	188829696	156422144	122044752	33184
650	0.341345	188829696	156422144	122478248	33184
651	0.361703	189100032	156946432	122912544	33184
652	0.338727	189100032	156946432	123347520	33184
653	0.340118	189100032	156946432	123783240	33184
654	0.341186	189100032	156946432	124219744	33184
655	0.349167	189100032	156946432	124656992	33184
656	0.339622	189100032	156946432	125094936	33184
657	0.338022	189370368	156946432	125533616	33184
658	0.343871	189370368	156946432	125973040	33184
659	0.341892	189370368	156946432	126413232	33184
660	0.345138	189370368	156946432	126854128	33184
661	0.345013	189370368	156946432	127295768	33184
662	0.402725	189370368	156946432	127738352	33184
663	0.376252	189640704	156946432	128181408	33184
664	0.363123	189640704	157470720	128625184	33184
665	0.380094	189640704	157470720	129069696	33184
666	0.37449	189640704	157470720	129514912	33184
667	0.543353	189640704	157470720	129961024	33184
668	0.441354	189640704	157470720	130409816	33184
669	0.383379	189911040	157470720	130857304	33184
670	0.403273	189911040	157470720	131305936	33184
671	0.359551	189911040	157470720	131755016	33184
672	0.362988	189911040	157470720	132204704	33184
673	0.358302	189911040	157470720	132654504	33184
674	0.72016	189911040	157470720	133105008	33184
675	0.385812	190181376	157995008	133556248	33184
676	0.364906	190181376	157995008	134008232	33184
677	0.364829	190181376	157995008	134460984	33184
678	0.368836	190181376	157995008	134914368	33184
679	0.366891	190181376	157995008	135368520	33184
680	0.367703	190181376	157995008	135823352	33184
681	0.368058	190451712	157995008	136278976	33184
682	0.544558	190451712	157995008	136735312	33184
683	6.813411	192344064	160092160	124888232	33184
684	0.662052	192344064	160092160	125346032	33184
685	0.739775	192614400	160092160	125804608	33184
686	0.367873	192614400	160092160	126263880	33184
687	0.363065	192614400	160092160	126723928	33184
688	0.362801	192614400	160092160	127184736	33184
689	0.390374	192614400	160616448	127646264	33184
690	0.368608	192884736	160616448	128108560	33184
691	0.367498	192884736	160616448	128571536	33184
692	0.37147	192884736	160616448	129035264	33184
693	0.376765	192884736	160616448	129499776	33184
694	0.378588	192884736	160616448	129965024	33184
695	0.376666	192884736	160616448	130430976	33184
696	0.372675	193155072	160616448	130897696	33184
697	0.377708	193155072	160616448	131365112	33184
698	0.36388	193155072	160616448	131833288	33184
699	0.37534	193155072	160616448	132302184	33184
700	0.388114	193155072	161140736	132771856	33184
701	0.373012	193155072	161140736	133242296	33184
702	0.370048	193425408	161140736	133713408	33184
703	0.386116	193425408	161140736	134185272	33184
704	0.377652	193425408	161140736	134657880	33184
705	0.383674	193425408	161140736	135130632	33184
706	0.378592	193425408	161140736	135604088	33184
707	0.385112	193425408	161140736	136078312	33184
708	0.385136	193695744	161140736	136553224	33184
709	0.454586	193695744	161140736	137028896	33184
710	0.406913	193695744	161140736	137505320	33184
711	0.419724	193695744	161665024	137982496	33184
712	0.406473	193695744	161665024	138460376	33184
713	0.381194	193695744	161665024	138939024	33184
714	0.384365	193966080	161665024	139418376	33184
715	0.385839	193966080	161665024	139898480	33184
716	0.387641	193966080	161665024	140379368	33184
717	7.25038	196128768	164286464	128739104	33184
718	0.668088	196128768	164286464	129221416	33184
719	0.39819	196128768	164286464	129704472	33184
720	0.396088	196399104	164286464	130188320	33184
721	0.407171	196399104	164286464	130672864	33184
722	0.406768	196399104	164286464	131158184	33184
723	0.632324	196399104	164286464	131644200	33184
724	0.388606	196399104	164286464	132130976	33184
725	0.384033	196399104	164286464	132618472	33184
726	0.394173	196669440	164286464	133106744	33184
727	0.388875	196669440	164286464	133595784	33184
728	0.397014	196669440	164286464	134085528	33184
729	0.397939	196669440	164286464	134576040	33184
730	0.399189	196669440	164286464	135067232	33184
731	0.430004	196939776	164286464	135559272	33184
732	0.413087	196939776	164286464	136051984	33184
733	0.417825	196939776	164810752	136545448	33184
734	0.394839	196939776	164810752	137039608	33184
735	0.395909	196939776	164810752	137534552	33184
736	0.400738	196939776	164810752	138030264	33184
737	0.404154	197210112	164810752	138526032	33184
738	0.407612	197210112	164810752	139022504	33184
739	0.418705	197210112	164810752	139519744	33184
740	0.450637	197210112	164810752	140017752	33184
741	0.414495	197210112	164810752	140516480	33184
742	0.399712	197210112	164810752	141015976	33184
743	0.419647	197480448	165335040	141516176	33184
744	0.409508	197480448	165335040	142017144	33184
745	0.414655	197480448	165335040	142518816	33184
746	0.408909	197480448	165335040	143021208	33184
747	0.440186	197480448	165335040	143524488	33184
748	0.405693	197750784	165335040	144028368	33184
749	7.429364	199913472	167956480	132526040	33184
750	0.684817	199913472	167956480	133031392	33184
751	0.433444	199913472	167956480	133537496	33184
752	0.42632	200183808	167956480	134044368	33184
753	0.400997	200183808	167956480	134552008	33184
754	0.408835	200183808	167956480	135060344	33184
755	0.410616	200183808	167956480	135569464	33184
756	0.409942	200183808	167956480	136079280	33184
757	0.410783	200183808	167956480	136589864	33184
758	0.442569	200454144	167956480	137101160	33184
759	0.433385	200454144	167956480	137613176	33184
760	0.409999	200454144	167956480	138125960	33184
761	0.409811	200454144	167956480	138639632	33184
762	0.440371	200454144	168480768	139153872	33184
763	0.422303	200724480	168480768	139668888	33184
764	0.438709	200724480	168480768	140184600	33184
765	0.43553	200724480	168480768	140701088	33184
766	0.411331	200724480	168480768	141218344	33184
767	0.453022	200724480	168480768	141736304	33184
768	0.422563	200724480	168480768	142255032	33184
769	0.427571	200994816	168480768	142773896	33184
770	0.443631	200994816	168480768	143293408	33184
771	0.437449	200994816	168480768	143813672	33184
772	0.431851	200994816	169005056	144334688	33184
773	0.418312	200994816	169005056	144856432	33184
774	0.444448	201265152	169005056	145378952	33184
775	0.454309	201265152	169005056	145902168	33184
776	0.431619	201265152	169005056	146426160	33184
777	0.42709	201265152	169005056	146950856	33184
778	0.424015	201265152	169005056	147476320	33184
779	7.475419	203698176	171626496	136047368	33184
780	0.782746	203698176	171626496	136574296	33184
781	0.431018	203698176	171626496	137102016	33184
782	0.429681	203698176	171626496	137630424	33184
783	0.437618	203968512	171626496	138159616	33184
784	0.5053	203968512	171626496	138689504	33184
785	0.441875	203968512	171626496	139220168	33184
786	0.424713	203968512	171626496	139751528	33184
787	0.432773	203968512	171626496	140283664	33184
788	0.436303	204238848	171626496	140816504	33184
789	0.452828	204238848	171626496	141350080	33184
790	0.476118	204238848	172150784	141884424	33184
791	0.426917	204238848	172150784	142419488	33184
792	0.664321	204238848	172150784	142955296	33184
793	0.440847	204509184	172150784	143491896	33184
794	0.466179	204509184	172150784	144029232	33184
795	0.449057	204509184	172150784	144567264	33184
796	0.434034	204509184	172150784	145106072	33184
797	0.440767	204509184	172150784	145645576	33184
798	0.444059	204779520	172150784	146185856	33184
799	0.464142	204779520	172150784	146726840	33184
800	0.480457	204779520	172675072	147268664	33184
801	0.44636	204779520	172675072	147810480	33184
802	0.449153	204779520	172675072	148353072	33184
803	0.444396	205049856	172675072	148896368	33184
804	0.441769	205049856	172675072	149440432	33184
805	0.440801	205049856	172675072	149985264	33184
806	0.449261	205049856	172675072	150530808	33184
807	0.476964	205049856	172675072	151077120	33184
808	0.498348	205049856	172675072	151624112	33184
809	8.034724	207482880	175296512	140295024	33184
810	0.469162	207482880	175296512	140843512	33184
811	0.451522	207482880	175296512	141392776	33184
812	0.452001	207753216	175296512	141942736	33184
813	0.454784	207753216	175296512	142493472	33184
814	0.445087	207753216	175296512	143044904	33184
815	0.447799	207753216	175296512	143597120	33184
816	0.51626	207753216	175820800	144150096	33184
817	0.47399	208023552	175820800	144703784	33184
818	0.466624	208023552	175820800	145258240	33184
819	0.69595	208023552	175820800	145813392	33184
820	0.647456	208023552	175820800	146369664	33184
821	0.487379	208023552	175820800	146926296	33184
822	0.836282	208293888	175820800	147488760	33184
823	0.479832	208293888	175820800	148046872	33184
824	0.459047	208293888	175820800	148605744	33184
825	0.45728	208293888	175820800	149165328	33184
826	0.498009	208293888	176345088	149725680	33184
827	0.483472	208564224	176345088	150286736	33184
828	0.463535	208564224	176345088	150848560	33184
829	0.489663	208564224	176345088	151411096	33184
830	0.498376	208564224	176345088	151974392	33184
831	0.478545	208564224	176345088	152538472	33184
832	0.463676	208834560	176345088	153103312	33184
833	0.481988	208834560	176345088	153668224	33184
834	0.476585	208834560	176345088	154233840	33184
835	0.459901	208834560	176345088	154800224	33184
836	7.727692	211267584	179490816	143598192	33184
837	0.91713	211267584	179490816	144166024	33184
838	0.481939	211537920	179490816	144734584	33184
839	0.464505	211537920	179490816	145303920	33184
840	0.489468	211537920	179490816	145873952	33184
841	0.476652	211537920	179490816	146444760	33184
842	0.462796	211537920	179490816	147016272	33184
843	0.470821	211808256	179490816	147588552	33184
844	0.489767	211808256	179490816	148161608	33184
845	0.501126	211808256	179490816	148735368	33184
846	0.469183	211808256	179490816	149309896	33184
847	0.473902	211808256	179490816	149885128	33184
848	0.479025	212078592	179490816	150461128	33184
849	0.468011	212078592	179490816	151037832	33184
850	0.495	212078592	180015104	151625664	33184
851	0.530834	212078592	180015104	152203856	33184
852	0.507913	212078592	180015104	152782800	33184
853	0.497457	212348928	180015104	153362536	33184
854	0.4768	212348928	180015104	153942936	33184
855	0.502071	212348928	180015104	154524072	33184
856	0.491587	212348928	180015104	155105968	33184
857	0.483538	212348928	180015104	155688656	33184
858	0.498921	212619264	180015104	156272032	33184
859	0.493555	212619264	180015104	156856264	33184
860	0.525122	212619264	180539392	157441112	33184
861	0.503535	212619264	180539392	158026736	33184
862	0.504735	212619264	180539392	158613056	33184
863	7.929898	215052288	183160832	147511272	33184
864	0.889333	215322624	183160832	148099168	33184
865	0.490006	215322624	183160832	148687208	33184
866	0.504011	215322624	183160832	149275896	33184
867	0.570625	215322624	183160832	149865304	33184
868	0.482601	215592960	183160832	150455416	33184
869	0.488988	215592960	183160832	151046296	33184
870	0.514648	215592960	183160832	151637952	33184
871	0.483011	215592960	183160832	152230304	33184
872	0.487668	215592960	183160832	152823432	33184
873	0.548746	215863296	183685120	153417264	33184
874	0.512781	215863296	183685120	154011864	33184
875	0.493133	215863296	183685120	154607168	33184
876	0.497856	215863296	183685120	155203248	33184
877	0.485779	215863296	183685120	155800024	33184
878	0.494424	216133632	183685120	156397576	33184
879	0.51523	216133632	183685120	156995896	33184
880	0.509826	216133632	183685120	157594920	33184
881	0.844192	216133632	183685120	158194720	33184
882	0.71544	216403968	184209408	158795216	33184
883	0.696494	216403968	184209408	159396488	33184
884	0.596688	216403968	184209408	159998464	33184
885	0.660869	216403968	184209408	160601184	33184
886	0.695361	216403968	184209408	161204616	33184
887	0.699677	216674304	184209408	161808840	33184
888	0.681534	216674304	184209408	162413760	33184
889	10.256998	219107328	186830848	151402128	33184
890	1.395257	219107328	186830848	152008584	33184
891	1.211604	219107328	186830848	152615752	33184
892	1.488397	219377664	186830848	153223624	33184
893	1.214089	219377664	186830848	153832272	33184
894	1.087376	219377664	186830848	154441688	33184
895	1.193373	219377664	187355136	155051800	33184
896	1.422214	219648000	187355136	155662768	33184
897	1.215472	219648000	187355136	156273720	33184
898	0.94314	219648000	187355136	156885448	33184
899	1.375275	219648000	187355136	157497872	33184
900	1.338912	219648000	187355136	158111072	33184
901	1.480143	219918336	187355136	158724976	33184
902	1.412366	219918336	187355136	159339616	33184
903	1.538971	219918336	187355136	159955048	33184
904	1.731969	219918336	187879424	160571208	33184
905	1.651492	219918336	187879424	161188128	33184
906	1.573632	220188672	187879424	161805752	33184
907	1.693421	220188672	187879424	162424152	33184
908	1.64233	220188672	187879424	163043248	33184
909	1.809483	220188672	187879424	163663120	33184
910	1.890586	220459008	187879424	164283696	33184
911	2.010643	220459008	187879424	164905040	33184
912	2.040366	220459008	188403712	165527088	33184
913	1.851925	220459008	188403712	166149904	33184
914	2.063319	220459008	188403712	166773424	33184
915	13.759654	223162368	191025152	155822144	33184
916	2.372489	223162368	191025152	156447160	33184
917	2.599386	223162368	191025152	157072928	33184
918	2.46912	223162368	191025152	157699400	33184
919	2.742056	223432704	191025152	158326640	33184
920	2.782463	223432704	191025152	158954656	33184
921	2.897541	223432704	191025152	159583368	33184
922	2.980072	223432704	191025152	160212864	33184
923	3.029942	223432704	191025152	160843048	33184
924	3.215199	223703040	191549440	161474016	33184
925	3.203901	223703040	191549440	162105712	33184
926	3.375157	223703040	191549440	162738144	33184
927	3.453675	223703040	191549440	163371288	33184
928	3.171898	223973376	191549440	164005336	33184
929	3.306533	223973376	191549440	164639312	33184
930	3.782192	223973376	191549440	165274064	33184
931	4.331861	223973376	191549440	165909584	33184
932	9.713821	202002432	143839232	87018128	33184
933	3.403443	168448000	143839232	87655408	33184
934	1.058083	164777984	143839232	88293160	33184
935	0.729189	164777984	143839232	88931632	33184
936	0.68492	164777984	143839232	89570800	33184
937	0.639798	164777984	143839232	90210744	33184
938	0.634036	164777984	143839232	90851392	33184
939	0.643375	164777984	143839232	91492808	33184
940	0.635509	164777984	143839232	92134928	33184
941	0.702776	164777984	143839232	92777816	33184
942	0.727836	164777984	143839232	93421448	33184
943	6.97128	165855232	143839232	80521960	33184
944	1.211122	166666240	143839232	81167088	33184
945	0.736147	167206912	143839232	81812928	33184
946	0.730727	167747584	143839232	82459528	33184
947	0.906089	168288256	143839232	83106888	33184
948	0.734946	168828928	143839232	83754976	33184
949	0.728665	169369600	143839232	84403768	33184
950	0.732926	169910272	143839232	85053328	33184
951	0.73225	170721280	143839232	85703592	33184
952	1.013076	171261952	143839232	86354632	33184
953	0.660182	171802624	143839232	87006368	33184
954	0.645416	172343296	143839232	87658904	33184
955	0.669128	172883968	143839232	88312120	33184
956	0.657742	173424640	143839232	88966104	33184
957	0.658676	174235648	143839232	89620864	33184
958	0.646028	174776320	143839232	90276320	33184
959	0.660579	175316992	143839232	90932552	33184
960	0.665359	175857664	143839232	91589688	33184
961	0.635924	176398336	143839232	92246792	33184
962	0.555025	176398336	143839232	92904568	33184
963	0.582859	176398336	143839232	93563104	33184
964	0.581382	176398336	143839232	94222352	33184
965	0.55517	176398336	143839232	94882368	33184
966	0.540481	176398336	143839232	95543088	33184
967	0.533062	176398336	143839232	96204608	33184
968	0.558862	176398336	143839232	96866800	33184
969	6.196187	176398336	143839232	85010216	33184
970	1.008534	176398336	143839232	85673936	33184
971	0.551232	176398336	143839232	86338376	33184
972	0.577359	176398336	143839232	87003592	33184
973	0.626931	176398336	143839232	87669504	33184
974	0.555912	176398336	143839232	88336192	33184
975	0.544929	176398336	143839232	89003576	33184
976	0.521684	176398336	143839232	89671768	33184
977	0.550524	176398336	143839232	90340632	33184
978	0.548347	176398336	143839232	91010264	33184
979	0.558775	176398336	143839232	91680600	33184
980	0.559987	176398336	143839232	92351712	33184
981	0.55101	176398336	143839232	93023568	33184
982	0.550436	176398336	143839232	93696208	33184
983	0.532035	176398336	143839232	94369560	33184
984	0.529514	176398336	143839232	95043624	33184
985	0.561621	176398336	143839232	95718456	33184
986	0.572149	176398336	143839232	96393984	33184
987	0.542598	176398336	143839232	97070248	33184
988	0.564904	176398336	143839232	97747256	33184
989	0.538124	176398336	143839232	98425032	33184
990	0.579756	176398336	143839232	99103512	33184
991	0.553474	176398336	143839232	99782768	33184
992	8.064061	176398336	143839232	89280216	33184
993	0.76191	176398336	143839232	89960304	33184
994	0.585774	176398336	143839232	90641096	33184
995	0.567419	176398336	143839232	91322664	33184
996	0.560213	176398336	143839232	92005000	33184
997	0.560398	176398336	143839232	92688064	33184
998	0.571918	176398336	143839232	93371880	33184
999	0.56599	176398336	143839232	94056392	33184
1000	0.559655	176398336	143839232	94741680	33184
