x	Duration	RSS	HeapTotal	HeapUsed	External
0	NA	167677952	135450624	91485672	33184
1	0.040719	167677952	135450624	91494632	33184
2	0.027086	167677952	135450624	91504576	33184
3	0.025455	167677952	135450624	91515024	33184
4	0.023748	167677952	135450624	91526096	33184
5	0.022754	167677952	135450624	91537824	33184
6	0.023534	167677952	135450624	91550176	33184
7	0.024398	167677952	135450624	91563184	33184
8	0.039153	167677952	135450624	91579888	33184
9	0.040886	167677952	135450624	91595864	33184
10	0.032624	167677952	135450624	91612304	33184
11	0.031695	167677952	135450624	91629640	33184
12	0.032199	167677952	135450624	91647696	33184
13	0.035785	167677952	135450624	91666472	33184
14	0.032279	167677952	135450624	91685968	33184
15	0.032919	167677952	135450624	91706184	33184
16	0.034836	167677952	135450624	91727432	33184
17	0.036927	167677952	135450624	91749880	33184
18	0.036737	167677952	135450624	91773096	33184
19	0.037091	167677952	135450624	91797456	33184
20	0.037971	167677952	135450624	91822112	33184
21	0.038219	167677952	135450624	91847528	33184
22	0.041799	167677952	135450624	91873056	33184
23	0.041716	167677952	135450624	91900088	33184
24	0.040368	167677952	135450624	91928016	33184
25	0.043105	167677952	135450624	91956728	33184
26	0.0432	167677952	135450624	91986040	33184
27	0.043737	167677952	135450624	92015976	33184
28	0.048828	167677952	135450624	92046648	33184
29	0.045567	167677952	135450624	92078064	33184
30	0.044802	167677952	135450624	92110216	33184
31	0.065355	167677952	135450624	92143112	33184
32	0.047781	167677952	135450624	92176352	33184
33	0.047935	167677952	135450624	92210112	33184
34	0.047549	167677952	135450624	92244608	33184
35	0.0487	167677952	135450624	92279848	33184
36	0.048257	167677952	135450624	92315824	33184
37	0.049088	167677952	135450624	92352584	33184
38	0.052041	167677952	135450624	92389952	33184
39	0.052084	167677952	135450624	92427992	33184
40	0.051571	167677952	135450624	92466624	33184
41	0.059114	167677952	135450624	92505984	33184
42	0.053418	167677952	135450624	92546144	33184
43	0.053473	167677952	135450624	92587112	33184
44	0.209983	167677952	135450624	92628880	33184
45	0.056152	167677952	135450624	92672128	33184
46	0.055055	167677952	135450624	92715504	33184
47	0.054952	167677952	135450624	92759688	33184
48	0.05561	167677952	135450624	92804696	33184
49	0.056608	167677952	135450624	92850512	33184
50	0.062307	167677952	135450624	92897128	33184
51	0.05804	167677952	135450624	92944656	33184
52	0.057492	167677952	135450624	92992880	33184
53	0.058625	167677952	135450624	93041712	33184
54	0.059071	167677952	135450624	93091248	33184
55	0.060715	167677952	135450624	93141600	33184
56	0.061849	167677952	135450624	93192568	33184
57	0.061475	167677952	135450624	93244376	33184
58	0.061271	167677952	135450624	93296808	33184
59	0.064099	167677952	135450624	93349872	33184
60	0.063165	167677952	135450624	93403560	33184
61	0.064004	167677952	135450624	93457880	33184
62	0.064625	167677952	135450624	93512888	33184
63	0.065034	167677952	135450624	93568464	33184
64	0.065424	167677952	135450624	93624296	33184
65	0.065293	167677952	135450624	93680512	33184
66	0.071682	167677952	135450624	93737352	33184
67	0.067358	167677952	135450624	93794824	33184
68	0.067872	167677952	135450624	93852920	33184
69	0.075176	167677952	135450624	93911624	33184
70	0.069609	167677952	135450624	93971064	33184
71	0.070247	167677952	135450624	94031144	33184
72	0.070555	167677952	135450624	94091856	33184
73	0.071656	167677952	135450624	94153232	33184
74	0.071405	167677952	135450624	94215232	33184
75	0.071356	167677952	135450624	94277864	33184
76	0.073006	167677952	135450624	94341120	33184
77	0.073506	167677952	135450624	94405008	33184
78	0.073527	167677952	135450624	94469520	33184
79	0.080472	167677952	135450624	94534664	33184
80	0.075802	167677952	135450624	94600456	33184
81	0.076497	167677952	135450624	94666920	33184
82	0.07654	167677952	135450624	94733968	33184
83	0.076348	167677952	135450624	94801648	33184
84	0.081355	167677952	135450624	94871088	33184
85	0.078202	167677952	135450624	94940000	33184
86	0.079276	167677952	135450624	95009432	33184
87	0.080085	167677952	135450624	95079704	33184
88	0.080792	167677952	135450624	95150608	33184
89	0.081691	167677952	135450624	95222208	33184
90	0.086183	167677952	135450624	95294400	33184
91	0.082375	167677952	135450624	95367224	33184
92	0.082748	167677952	135450624	95440672	33184
93	0.084933	167677952	135450624	95514752	33184
94	0.085855	167677952	135450624	95589456	33184
95	0.090543	167677952	135450624	95664792	33184
96	0.084505	167677952	135450624	95740400	33184
97	0.087657	167677952	135450624	95816408	33184
98	0.085826	167677952	135450624	95893008	33184
99	0.086724	167677952	135450624	95970240	33184
100	0.093267	167677952	135450624	96048096	33184
101	0.09436	167677952	135450624	96126560	33184
102	0.089373	167677952	135450624	96205568	33184
103	0.089294	167677952	135450624	96285216	33184
104	0.09058	167677952	135450624	96365552	33184
105	0.09821	167677952	135450624	96446496	33184
106	0.09052	167677952	135450624	96528064	33184
107	0.091534	167677952	135450624	96610264	33184
108	0.091798	167677952	135450624	96693088	33184
109	0.096341	167677952	135450624	96776544	33184
110	0.092044	167677952	135450624	96860624	33184
111	0.094436	167677952	135450624	96945368	33184
112	0.094907	167677952	135450624	97030728	33184
113	0.100791	167677952	135450624	97116720	33184
114	0.096338	167677952	135450624	97203336	33184
115	0.096924	167677952	135450624	97290584	33184
116	0.096863	167677952	135450624	97378456	33184
117	0.118224	167677952	135450624	97466936	33184
118	0.101161	167677952	135450624	97556016	33184
119	0.100237	167677952	135450624	97645680	33184
120	0.100306	167677952	135450624	97735976	33184
121	0.100682	167677952	135450624	97826936	33184
122	0.103311	167677952	135450624	97918520	33184
123	0.102957	167677952	135450624	98010736	33184
124	0.104086	167677952	135450624	98103608	33184
125	0.107035	167677952	135450624	98197080	33184
126	0.104725	167677952	135450624	98291176	33184
127	0.105301	167677952	135450624	98385904	33184
128	0.106929	167677952	135450624	98480928	33184
129	0.280642	167677952	135450624	98576008	33184
130	0.11057	167677952	135450624	98671736	33184
131	0.091332	167677952	135450624	98768232	33184
132	0.091317	167677952	135450624	98865352	33184
133	0.096537	167677952	135450624	98963080	33184
134	0.099627	167677952	135450624	99061440	33184
135	0.093181	167677952	135450624	99160440	33184
136	0.095054	167677952	135450624	99260112	33184
137	0.096731	167677952	135450624	99360408	33184
138	0.094208	167677952	135450624	99461328	33184
139	0.095396	167677952	135450624	99562880	33184
140	0.101017	167677952	135450624	99665056	33184
141	0.096918	167677952	135450624	99767912	33184
142	0.098582	167677952	135450624	99873176	33184
143	0.10078	167677952	135450624	99977240	33184
144	0.098015	167677952	135450624	100081952	33184
145	0.098619	167677952	135450624	100187296	33184
146	0.099451	167677952	135450624	100293264	33184
147	0.105694	167677952	135450624	100399872	33184
148	0.101161	167677952	135450624	100507096	33184
149	0.099899	167677952	135450624	100614928	33184
150	0.105769	167677952	135450624	100723872	33184
151	0.10378	167677952	135450624	100833456	33184
152	0.103631	167677952	135450624	100943736	33184
153	0.108996	167677952	135450624	101054616	33184
154	0.104654	167677952	135450624	101166120	33184
155	0.104546	167677952	135450624	101278256	33184
156	0.120033	167677952	135450624	101391016	33184
157	0.125392	167677952	135450624	101504408	33184
158	0.106852	167677952	135450624	101618424	33184
159	0.105983	167677952	135450624	101733072	33184
160	0.120095	167677952	135450624	101848032	33184
161	0.108769	167677952	135450624	101963320	33184
162	0.107904	167677952	135450624	102079288	33184
163	0.113799	167677952	135450624	102195832	33184
164	0.117192	167677952	135450624	102313000	33184
165	0.109663	167677952	135450624	102430776	33184
166	0.120471	167677952	135450624	102549448	33184
167	0.112131	167677952	135450624	102668760	33184
168	0.111829	167677952	135450624	102788704	33184
169	0.114023	167677952	135450624	102909312	33184
170	0.113147	167677952	135450624	103030544	33184
171	0.117343	167677952	135450624	103152408	33184
172	0.114229	167677952	135450624	103274904	33184
173	0.115135	167677952	135450624	103398024	33184
174	0.119421	167677952	135450624	103521768	33184
175	0.117386	167677952	135450624	103646144	33184
176	0.116809	167677952	135450624	103771184	33184
177	0.121167	167677952	135450624	103896840	33184
178	0.11768	167677952	135450624	104023120	33184
179	0.116361	167677952	135450624	104150032	33184
180	0.30042	167677952	135450624	104277568	33184
181	0.140624	167677952	135450624	104405736	33184
182	0.124391	167677952	135450624	104534512	33184
183	0.120924	167677952	135450624	104663928	33184
184	0.120827	167677952	135450624	104793976	33184
185	0.125264	167677952	135450624	104924728	33184
186	0.133796	167677952	135450624	105056064	33184
187	0.124264	167677952	135450624	105188032	33184
188	0.128716	167677952	135450624	105320624	33184
189	0.124578	167677952	135450624	105453848	33184
190	7.531822	167677952	135450624	93938496	33184
191	0.171861	167677952	135450624	94072976	33184
192	0.123878	167677952	135450624	94207856	33184
193	0.114914	167677952	135450624	94342976	33184
194	0.114725	167677952	135450624	94478720	33184
195	0.120822	167677952	135450624	94615096	33184
196	0.116761	167677952	135450624	94752104	33184
197	0.120768	167677952	135450624	94889712	33184
198	0.119568	167677952	135450624	95027952	33184
199	0.118259	167677952	135450624	95166832	33184
200	0.122207	167677952	135450624	95306344	33184
201	0.118953	167677952	135450624	95446520	33184
202	0.154494	167677952	135450624	95587320	33184
203	0.116259	167677952	135450624	95728752	33184
204	0.116723	167677952	135450624	95870872	33184
205	0.124424	167677952	135450624	96013560	33184
206	0.122989	167677952	135450624	96156872	33184
207	0.153075	167677952	135450624	96300816	33184
208	0.116575	167677952	135450624	96445424	33184
209	0.115354	167677952	135450624	96590648	33184
210	0.119651	167677952	135450624	96736496	33184
211	0.116179	167677952	135450624	96882976	33184
212	0.122671	167677952	135450624	97030112	33184
213	0.116762	167677952	135450624	97177824	33184
214	0.156336	167677952	135450624	97326168	33184
215	0.11814	167677952	135450624	97475152	33184
216	0.126172	167677952	135450624	97624800	33184
217	0.129289	167677952	135450624	97775080	33184
218	0.121643	167677952	135450624	97925984	33184
219	0.127263	167677952	135450624	98077520	33184
220	0.123085	167677952	135450624	98229704	33184
221	0.127428	167677952	135450624	98382496	33184
222	0.123571	167677952	135450624	98535912	33184
223	0.159465	167677952	135450624	98689960	33184
224	0.125326	167677952	135450624	98844376	33184
225	0.128628	167677952	135450624	98999064	33184
226	0.136736	167677952	135450624	99154376	33184
227	0.129037	167677952	135450624	99310328	33184
228	0.139059	167677952	135450624	99466896	33184
229	0.295163	167677952	135450624	99626952	33184
230	0.145997	167677952	135450624	99784760	33184
231	0.144797	167677952	135450624	99943216	33184
232	0.131865	167677952	135450624	100102296	33184
233	0.12868	167677952	135450624	100262040	33184
234	0.143427	167677952	135450624	100422472	33184
235	0.131433	167677952	135450624	100583472	33184
236	0.135314	167677952	135450624	100745096	33184
237	0.130665	167677952	135450624	100907352	33184
238	0.136635	167677952	135450624	101070296	33184
239	0.133814	167677952	135450624	101233808	33184
240	0.135839	167677952	135450624	101397968	33184
241	0.13227	167677952	135450624	101562792	33184
242	0.138891	167677952	135450624	101728208	33184
243	0.136372	167677952	135450624	101894256	33184
244	0.147806	167677952	135450624	102060928	33184
245	0.134491	167677952	135450624	102228256	33184
246	0.140703	167677952	135450624	102396168	33184
247	0.137593	167677952	135450624	102564720	33184
248	0.140527	167677952	135450624	102733912	33184
249	0.137692	167677952	135450624	102903760	33184
250	0.14211	167677952	135450624	103074232	33184
251	0.147449	167677952	135450624	103245336	33184
252	0.161373	167677952	135450624	103417064	33184
253	0.140759	167677952	135450624	103589424	33184
254	0.142688	167677952	135450624	103762408	33184
255	0.143314	167677952	135450624	103936056	33184
256	0.146878	167677952	135450624	104110408	33184
257	0.142179	167677952	135450624	104285024	33184
258	0.145897	167677952	135450624	104460312	33184
259	0.144916	167677952	135450624	104636184	33184
260	0.148977	167677952	135450624	104812680	33184
261	0.146913	167677952	135450624	104989792	33184
262	0.150667	167677952	135450624	105167688	33184
263	0.146087	167677952	135450624	105346392	33184
264	0.152318	167677952	135450624	105525896	33184
265	0.146591	167677952	135450624	105706592	33184
266	0.154842	167677952	135450624	105888264	33184
267	0.150445	167677952	135450624	106070920	33184
268	0.158307	167677952	135450624	106254560	33184
269	0.148188	167677952	135450624	106439176	33184
270	0.191035	167677952	135450624	106624768	33184
271	0.179928	167677952	135450624	106811400	33184
272	0.167879	167677952	135450624	106998952	33184
273	0.158226	167677952	135450624	107187488	33184
274	0.156996	167677952	135450624	107377032	33184
275	0.159629	167677952	135450624	107567528	33184
276	0.155259	167677952	135450624	107759000	33184
277	0.165588	167677952	135450624	107951104	33184
278	0.157959	167677952	135450624	108143832	33184
279	0.166001	167677952	135450624	108337192	33184
280	0.162763	167677952	135450624	108531208	33184
281	0.158709	167677952	135450624	108725824	33184
282	0.162971	167677952	135450624	108921064	33184
283	0.161157	167677952	135450624	109116992	33184
284	0.164936	167677952	135450624	109313488	33184
285	0.159539	167677952	135450624	109510616	33184
286	6.669243	168275968	135974912	97349352	33184
287	0.264671	168275968	135974912	97547736	33184
288	0.174514	168275968	135974912	97746488	33184
289	0.166019	168275968	135974912	97945504	33184
290	0.169346	168275968	135974912	98145128	33184
291	0.163443	168275968	135974912	98345384	33184
292	0.169944	168275968	135974912	98546264	33184
293	0.165392	168275968	135974912	98747776	33184
294	0.170814	168275968	135974912	98949912	33184
295	0.16399	168275968	135974912	99152704	33184
296	0.170499	168275968	135974912	99356096	33184
297	0.198563	168275968	135974912	99560120	33184
298	0.168673	168275968	135974912	99764816	33184
299	0.164842	168275968	135974912	99970096	33184
300	0.170512	168275968	135974912	100176000	33184
301	0.164412	168275968	135974912	100382560	33184
302	0.171458	168275968	135974912	100589720	33184
303	0.164104	168275968	135974912	100797568	33184
304	0.169991	168275968	135974912	101005984	33184
305	0.164877	168275968	135974912	101215032	33184
306	0.17156	168275968	135974912	101424752	33184
307	0.165137	168275968	135974912	101635056	33184
308	0.172397	168275968	135974912	101845984	33184
309	0.187741	168275968	135974912	102057544	33184
310	0.16871	168275968	135974912	102269728	33184
311	0.174636	168275968	135974912	102482560	33184
312	0.177653	168275968	135974912	102696000	33184
313	0.172897	168275968	135974912	102910072	33184
314	0.171674	168275968	135974912	103124784	33184
315	0.204941	168275968	135974912	103340112	33184
316	0.184634	168275968	135974912	103556064	33184
317	0.193743	168275968	135974912	103772712	33184
318	0.173367	168275968	135974912	103989920	33184
319	0.180189	168275968	135974912	104207784	33184
320	0.174681	168275968	135974912	104426016	33184
321	0.183042	168275968	135974912	104644472	33184
322	0.196265	168275968	135974912	104863552	33184
323	0.175838	168275968	135974912	105083264	33184
324	0.178928	168275968	135974912	105303600	33184
325	0.175301	168275968	135974912	105524584	33184
326	0.18136	168275968	135974912	105746176	33184
327	0.179541	168275968	135974912	105968464	33184
328	0.185339	168275968	135974912	106191312	33184
329	0.179606	168275968	135974912	106414792	33184
330	0.194007	168275968	135974912	106638944	33184
331	0.195031	168275968	135974912	106863680	33184
332	0.21344	168275968	135974912	107089072	33184
333	0.205047	168275968	135974912	107315064	33184
334	0.181881	168275968	135974912	107541680	33184
335	0.210983	168275968	135974912	107768944	33184
336	0.189597	168275968	135974912	107996816	33184
337	0.195608	168275968	135974912	108225384	33184
338	0.209294	168275968	135974912	108454512	33184
339	0.182454	168275968	135974912	108684272	33184
340	0.192783	168275968	135974912	108914720	33184
341	0.184566	168275968	135974912	109145736	33184
342	0.194419	168275968	135974912	109377392	33184
343	0.207692	168275968	135974912	109609664	33184
344	0.187899	168275968	135974912	109842560	33184
345	0.193204	168275968	135974912	110076128	33184
346	0.186723	168275968	135974912	110310280	33184
347	0.196517	168275968	135974912	110545104	33184
348	0.224099	168275968	135974912	110780512	33184
349	0.208283	168275968	135974912	111016552	33184
350	0.213553	168275968	135974912	111253216	33184
351	0.192165	168275968	135974912	111490512	33184
352	0.199597	168275968	135974912	111728240	33184
353	0.197401	168275968	135974912	111966152	33184
354	0.19851	168275968	135974912	112204704	33184
355	0.197473	168275968	135974912	112443872	33184
356	0.193807	168275968	135974912	112683664	33184
357	0.201336	168275968	135974912	112924088	33184
358	0.200671	168275968	135974912	113165136	33184
359	5.973149	168275968	135974912	100650568	33184
360	0.371383	168275968	135974912	100897320	33184
361	0.202022	168275968	135974912	101140256	33184
362	0.192503	168275968	135974912	101383816	33184
363	0.199995	168275968	135974912	101628008	33184
364	0.210566	168275968	135974912	101872824	33184
365	0.189499	168275968	135974912	102118272	33184
366	0.197868	168275968	135974912	102364344	33184
367	0.191295	168275968	135974912	102611072	33184
368	0.199647	168275968	135974912	102858400	33184
369	0.228914	168275968	135974912	103106392	33184
370	0.189681	168275968	135974912	103354976	33184
371	0.196771	168275968	135974912	103604192	33184
372	0.195317	168275968	135974912	103854304	33184
373	0.267351	168275968	136499200	104104776	33184
374	0.226753	168275968	136499200	104355872	33184
375	0.205084	168275968	136499200	104607600	33184
376	0.209076	168275968	136499200	104859952	33184
377	0.20373	168546304	136499200	105112936	33184
378	0.211874	168546304	136499200	105366560	33184
379	0.227584	168546304	136499200	105620800	33184
380	0.203623	168546304	136499200	105875664	33184
381	0.215011	168546304	136499200	106131160	33184
382	0.210165	168546304	136499200	106387280	33184
383	0.207953	168546304	136499200	106644072	33184
384	0.212949	168546304	136499200	106901256	33184
385	0.207828	168546304	136499200	107158664	33184
386	0.21675	168546304	136499200	107416656	33184
387	0.212379	168546304	136499200	107675280	33184
388	0.435853	168816640	136499200	107934528	33184
389	0.253056	168816640	136499200	108194408	33184
390	0.246529	168816640	136499200	108454944	33184
391	0.21238	168816640	136499200	108716080	33184
392	0.218748	168816640	136499200	108977848	33184
393	0.229563	168816640	137023488	109240240	33184
394	0.223149	168816640	137023488	109503296	33184
395	0.227813	168816640	137023488	109766944	33184
396	0.215817	168816640	137023488	110031272	33184
397	0.226236	168816640	137023488	110296176	33184
398	0.254138	169086976	137023488	110561768	33184
399	0.222429	169086976	137023488	110827928	33184
400	0.226839	169086976	137023488	111094712	33184
401	0.229813	169086976	137023488	111362128	33184
402	0.254188	169086976	137023488	111630168	33184
403	0.229725	169086976	137023488	111898880	33184
404	0.259753	169086976	137023488	112168176	33184
405	0.220237	169086976	137023488	112438152	33184
406	0.231198	169086976	137023488	112708704	33184
407	0.226022	169086976	137023488	112979928	33184
408	0.224208	169357312	137023488	113251736	33184
409	0.233371	169357312	137023488	113524232	33184
410	0.262328	169357312	137023488	113797296	33184
411	0.225337	169357312	137023488	114070992	33184
412	0.233329	169357312	137023488	114345312	33184
413	0.253296	169357312	137547776	114620272	33184
414	0.229099	169357312	137547776	114895848	33184
415	0.235568	169357312	137547776	115172072	33184
416	0.262763	169357312	137547776	115448728	33184
417	0.252279	169357312	137547776	115725552	33184
418	0.23738	169627648	137547776	116003000	33184
419	0.235285	169627648	137547776	116281128	33184
420	0.264676	169627648	137547776	116559832	33184
421	6.312201	171520000	139644928	103972872	33184
422	0.467006	171520000	139644928	104252832	33184
423	0.237816	171520000	139644928	104533424	33184
424	0.233905	171520000	139644928	104814648	33184
425	0.228161	171520000	139644928	105096496	33184
426	0.233169	171520000	139644928	105378984	33184
427	0.261206	171520000	139644928	105662088	33184
428	0.226922	171520000	139644928	105945840	33184
429	0.235215	171790336	139644928	106230200	33184
430	0.238916	171790336	139644928	106515224	33184
431	0.238802	171790336	139644928	106800840	33184
432	0.237231	171790336	139644928	107087128	33184
433	0.264999	171790336	139644928	107374000	33184
434	0.233331	171790336	139644928	107661560	33184
435	0.23537	171790336	139644928	107949688	33184
436	0.29876	171790336	139644928	108238440	33184
437	0.250482	171790336	139644928	108527824	33184
438	0.237316	171790336	139644928	108817848	33184
439	0.240369	172060672	139644928	109108488	33184
440	0.292995	172060672	140169216	109399776	33184
441	0.23591	172060672	140169216	109691672	33184
442	0.242011	172060672	140169216	109984232	33184
443	0.240171	172060672	140169216	110277384	33184
444	0.235577	172060672	140169216	110571208	33184
445	0.245669	172060672	140169216	110865616	33184
446	0.274724	172060672	140169216	111160704	33184
447	0.240225	172060672	140169216	111456368	33184
448	0.243776	172331008	140169216	111752520	33184
449	0.272521	172331008	140169216	112048800	33184
450	0.275398	172331008	140169216	112345720	33184
451	0.24286	172331008	140169216	112643256	33184
452	0.248128	172331008	140169216	112941440	33184
453	0.248914	172331008	140169216	113240232	33184
454	0.245305	172331008	140169216	113539688	33184
455	0.245564	172331008	140169216	113839736	33184
456	0.254453	172331008	140169216	114140456	33184
457	0.281506	172601344	140169216	114441760	33184
458	0.263771	172601344	140693504	114743752	33184
459	0.246089	172601344	140693504	115046312	33184
460	0.255308	172601344	140693504	115349560	33184
461	0.282253	172601344	140693504	115653400	33184
462	0.255361	172601344	140693504	115957840	33184
463	0.287848	172601344	140693504	116262936	33184
464	0.254637	172601344	140693504	116568632	33184
465	0.252226	172601344	140693504	116874984	33184
466	0.248605	172871680	140693504	117181936	33184
467	0.262109	172871680	140693504	117489568	33184
468	0.257711	172871680	140693504	117797776	33184
469	0.252266	172871680	140693504	118106664	33184
470	0.2519	172871680	140693504	118416128	33184
471	0.252342	172871680	140693504	118726224	33184
472	0.260563	172871680	140693504	119036944	33184
473	0.287445	172871680	140693504	119348328	33184
474	0.256673	173142016	140693504	119660336	33184
475	0.309396	173142016	141217792	119972944	33184
476	6.186445	174764032	143314944	107306312	33184
477	0.498896	174764032	143314944	107620240	33184
478	0.266507	175034368	143314944	107934728	33184
479	0.289915	175034368	143314944	108249888	33184
480	0.258468	175034368	143314944	108565496	33184
481	0.30058	175034368	143314944	108881280	33184
482	0.259179	175034368	143314944	109197640	33184
483	0.290115	175034368	143314944	109514632	33184
484	0.254579	175034368	143314944	109832248	33184
485	0.257491	175034368	143314944	110150664	33184
486	0.260654	175304704	143314944	110469536	33184
487	0.256231	175304704	143314944	110789040	33184
488	0.432031	175304704	143314944	111109192	33184
489	0.268731	175304704	143314944	111429952	33184
490	0.26064	175304704	143314944	111751376	33184
491	0.260429	175304704	143314944	112073392	33184
492	0.266258	175304704	143314944	112396080	33184
493	0.300929	175304704	143314944	112719384	33184
494	0.254644	175304704	143314944	113043280	33184
495	0.264126	175575040	143314944	113367808	33184
496	0.266345	175575040	143314944	113692960	33184
497	0.266793	175575040	143314944	114018752	33184
498	0.258024	175575040	143314944	114345160	33184
499	0.267596	175575040	143314944	114672216	33184
500	0.297585	175575040	143314944	114999880	33184
501	0.288854	175575040	143839232	115328184	33184
502	0.278074	175575040	143839232	115657128	33184
503	0.261683	175845376	143839232	115986680	33184
504	0.274278	175845376	143839232	116316896	33184
505	0.295305	175845376	143839232	116647704	33184
506	0.342935	175845376	143839232	116979192	33184
507	0.273212	175845376	143839232	117311272	33184
508	0.266148	175845376	143839232	117643960	33184
509	0.277037	175845376	143839232	117977280	33184
510	0.303459	175845376	143839232	118311224	33184
511	0.273227	176115712	143839232	118645816	33184
512	0.271706	176115712	143839232	118981240	33184
513	0.267113	176115712	143839232	119316776	33184
514	0.281446	176115712	143839232	119652992	33184
515	0.278648	176115712	143839232	119989776	33184
516	0.294099	176115712	144363520	120327192	33184
517	0.329319	176115712	144363520	120665008	33184
518	0.2965	176115712	144363520	121003592	33184
519	0.274669	176386048	144363520	121342952	33184
520	0.284042	176386048	144363520	121682984	33184
521	0.282526	176386048	144363520	122024152	33184
522	0.281482	176386048	144363520	122366000	33184
523	0.281979	176386048	144363520	122708608	33184
524	0.277674	176386048	144363520	123051976	33184
525	0.278837	176386048	144363520	123396048	33184
526	6.191568	178278400	146460672	110696616	33184
527	0.518321	178278400	146460672	111042232	33184
528	0.276508	178278400	146460672	111388520	33184
529	0.28012	178278400	146460672	111735600	33184
530	0.284235	178278400	146460672	112083384	33184
531	0.295247	178278400	146460672	112431896	33184
532	0.279834	178548736	146460672	112781184	33184
533	0.280456	178548736	146460672	113131176	33184
534	0.286246	178548736	146460672	113481928	33184
535	0.438033	178548736	146460672	113833544	33184
536	0.336085	178548736	146460672	114186824	33184
537	0.311777	178548736	146460672	114539808	33184
538	0.28831	178548736	146460672	114893480	33184
539	0.287497	178819072	146460672	115247912	33184
540	0.283947	178819072	146460672	115603128	33184
541	0.296623	178819072	146460672	115959024	33184
542	0.321112	178819072	146984960	116315672	33184
543	0.294442	178819072	146984960	116673048	33184
544	0.291819	178819072	146984960	117031064	33184
545	0.292698	178819072	146984960	117389312	33184
546	0.333164	178819072	146984960	117748264	33184
547	0.289985	179089408	146984960	118107992	33184
548	0.294821	179089408	146984960	118468480	33184
549	0.296859	179089408	146984960	118829656	33184
550	0.295439	179089408	146984960	119191616	33184
551	0.293994	179089408	146984960	119554320	33184
552	0.297427	179089408	146984960	119917712	33184
553	0.296725	179089408	146984960	120281880	33184
554	0.292631	179359744	146984960	120646760	33184
555	0.307086	179359744	146984960	121012376	33184
556	0.322336	179359744	147509248	121385544	33184
557	0.468961	179359744	147509248	121752640	33184
558	0.32691	179359744	147509248	122120504	33184
559	0.314608	179359744	147509248	122489080	33184
560	0.302075	179359744	147509248	122858392	33184
561	0.302614	179630080	147509248	123228504	33184
562	0.302221	179630080	147509248	123599352	33184
563	0.305994	179630080	147509248	123970888	33184
564	0.31653	179630080	147509248	124343200	33184
565	0.309086	179630080	147509248	124716224	33184
566	0.310389	179630080	147509248	125089976	33184
567	0.307962	179630080	147509248	125464496	33184
568	0.367743	179630080	147509248	125839768	33184
569	0.309581	179900416	147509248	126215744	33184
570	0.328938	179900416	148033536	126592456	33184
571	6.093406	181522432	150130688	114021264	33184
572	0.60267	181522432	150130688	114399496	33184
573	0.528924	181792768	150130688	114778496	33184
574	0.338445	181792768	150130688	115158168	33184
575	0.31537	181792768	150130688	115538624	33184
576	0.316385	181792768	150130688	115919728	33184
577	0.309633	181792768	150130688	116300984	33184
578	0.310085	181792768	150130688	116683008	33184
579	0.312594	181792768	150130688	117065784	33184
580	0.310472	182063104	150130688	117449256	33184
581	0.305889	182063104	150130688	117833488	33184
582	0.314774	182063104	150130688	118218448	33184
583	0.347338	182063104	150130688	118604144	33184
584	0.34063	182063104	150130688	118990576	33184
585	0.320285	182063104	150130688	119377776	33184
586	0.314691	182063104	150130688	119765688	33184
587	0.312059	182063104	150130688	120154400	33184
588	0.319207	182333440	150130688	120543848	33184
589	0.318149	182333440	150130688	120933984	33184
590	0.32014	182333440	150130688	121324888	33184
591	0.321792	182333440	150130688	121716512	33184
592	0.315665	182333440	150130688	122108864	33184
593	0.330095	182333440	150130688	122501984	33184
594	0.381314	182603776	150654976	122895848	33184
595	0.339073	182603776	150654976	123290424	33184
596	0.327876	182603776	150654976	123685760	33184
597	0.327339	182603776	150654976	124081856	33184
598	0.327477	182603776	150654976	124478648	33184
599	0.330272	182603776	150654976	124876272	33184
600	0.325908	182603776	150654976	125274608	33184
601	0.330326	182874112	150654976	125673672	33184
602	0.326996	182874112	150654976	126073424	33184
603	0.329206	182874112	150654976	126473952	33184
604	0.329023	182874112	150654976	126875200	33184
605	0.495733	182874112	150654976	127277176	33184
606	0.326075	182874112	150654976	127679904	33184
607	0.348829	182874112	151179264	128083392	33184
608	0.338703	183144448	151179264	128487528	33184
609	0.341083	183144448	151179264	128891848	33184
610	0.341715	183144448	151179264	129296904	33184
611	0.338824	183144448	151179264	129702704	33184
612	0.338076	183144448	151179264	130109216	33184
613	6.504218	185036800	153276416	117871848	33184
614	0.54272	185036800	153276416	118279896	33184
615	0.343427	185036800	153276416	118688632	33184
616	0.340476	185307136	153276416	119098144	33184
617	0.337928	185307136	153276416	119508360	33184
618	0.542972	185307136	153276416	119919352	33184
619	0.366238	185307136	153276416	120331048	33184
620	0.339805	185307136	153276416	120743496	33184
621	0.336966	185307136	153276416	121156736	33184
622	0.339016	185307136	153276416	121570664	33184
623	0.338828	185577472	153276416	121985320	33184
624	0.343345	185577472	153276416	122400720	33184
625	0.341676	185577472	153276416	122816904	33184
626	0.341618	185577472	153276416	123233776	33184
627	0.365397	185577472	153800704	123651400	33184
628	0.352319	185577472	153800704	124069808	33184
629	0.343794	185577472	153800704	124488944	33184
630	0.339356	185847808	153800704	124908640	33184
631	0.338294	185847808	153800704	125329088	33184
632	0.349032	185847808	153800704	125750264	33184
633	0.346936	185847808	153800704	126172136	33184
634	0.352954	185847808	153800704	126594728	33184
635	0.352454	185847808	153800704	127018104	33184
636	0.355443	186118144	153800704	127442160	33184
637	0.373495	186118144	153800704	127866984	33184
638	0.421929	186118144	153800704	128292472	33184
639	0.382683	186118144	154324992	128718712	33184
640	0.361375	186118144	154324992	129145640	33184
641	0.360183	186118144	154324992	129572752	33184
642	0.354843	186388480	154324992	130000496	33184
643	0.358999	186388480	154324992	130428976	33184
644	0.363273	186388480	154324992	130858216	33184
645	0.355917	186388480	154324992	131288168	33184
646	0.353127	186388480	154324992	131718704	33184
647	0.700942	186388480	154324992	132150048	33184
648	0.395558	186388480	154324992	132582096	33184
649	0.360569	186658816	154324992	133014920	33184
650	0.363984	186658816	154324992	133448416	33184
651	6.764107	188551168	156422144	121461048	33184
652	0.584249	188551168	156422144	121896024	33184
653	0.432679	188821504	156422144	122331792	33184
654	0.381898	188821504	156946432	122768248	33184
655	0.367234	188821504	156946432	123205600	33184
656	0.359735	188821504	156946432	123643568	33184
657	0.361795	188821504	156946432	124082280	33184
658	0.362497	188821504	156946432	124521696	33184
659	0.569464	189091840	156946432	124961856	33184
660	0.385153	189091840	156946432	125402752	33184
661	0.363364	189091840	156946432	125844424	33184
662	0.36226	189091840	156946432	126286720	33184
663	0.3683	189091840	156946432	126729720	33184
664	0.371169	189091840	156946432	127173480	33184
665	0.361495	189362176	156946432	127618000	33184
666	0.392303	189362176	157470720	128063248	33184
667	0.600437	189362176	157470720	128509720	33184
668	0.442356	189362176	157470720	128957584	33184
669	0.380677	189362176	157470720	129406016	33184
670	0.400464	189362176	157470720	129854208	33184
671	0.38468	189632512	157470720	130303168	33184
672	0.372703	189632512	157470720	130752808	33184
673	0.372408	189632512	157470720	131202592	33184
674	0.370255	189632512	157470720	131653120	33184
675	0.374193	189632512	157470720	132104392	33184
676	0.410441	189632512	157470720	132556376	33184
677	0.371743	189902848	157470720	133009096	33184
678	0.393091	189902848	157995008	133462480	33184
679	0.376692	189902848	157995008	133916632	33184
680	0.380123	189902848	157995008	134371488	33184
681	0.376647	189902848	157995008	134827120	33184
682	0.374184	189902848	157995008	135283432	33184
683	0.381769	190173184	157995008	135740520	33184
684	0.382815	190173184	157995008	136198328	33184
685	0.598652	190173184	157995008	136656904	33184
686	6.710008	192335872	160092160	124797488	33184
687	0.751972	192335872	160092160	125257536	33184
688	0.429467	192335872	160092160	125718288	33184
689	0.378738	192335872	160092160	126179792	33184
690	0.38494	192335872	160092160	126642088	33184
691	0.400423	192335872	160616448	127105088	33184
692	0.382505	192606208	160616448	127568864	33184
693	0.381284	192606208	160616448	128033320	33184
694	0.379232	192606208	160616448	128498544	33184
695	0.384265	192606208	160616448	128964504	33184
696	0.386621	192606208	160616448	129431224	33184
697	0.612817	192606208	160616448	129898648	33184
698	0.393918	192876544	160616448	130366920	33184
699	0.391273	192876544	160616448	130835816	33184
700	0.390678	192876544	160616448	131305456	33184
701	0.390139	192876544	160616448	131775896	33184
702	0.411143	192876544	161140736	132247040	33184
703	0.412	192876544	161140736	132718960	33184
704	0.416219	193146880	161140736	133191560	33184
705	0.439458	193146880	161140736	133664328	33184
706	0.409158	193146880	161140736	134137824	33184
707	0.392631	193146880	161140736	134612056	33184
708	0.392168	193146880	161140736	135086984	33184
709	0.397147	193417216	161140736	135562688	33184
710	0.392984	193417216	161140736	136039080	33184
711	0.401451	193417216	161140736	136516240	33184
712	0.397325	193417216	161140736	136994112	33184
713	0.422459	193417216	161665024	137472768	33184
714	0.465833	193417216	161665024	137952120	33184
715	0.417832	193687552	161665024	138432240	33184
716	0.410861	193687552	161665024	138913072	33184
717	0.39979	193687552	161665024	139394688	33184
718	0.401621	193687552	161665024	139877008	33184
719	0.403361	193687552	161665024	140360080	33184
720	7.370716	195850240	163762176	128699528	33184
721	0.718568	195850240	163762176	129184096	33184
722	0.407034	196120576	163762176	129669416	33184
723	0.40884	196120576	163762176	130155440	33184
724	0.493141	196120576	164286464	130642232	33184
725	0.425384	196120576	164286464	131129728	33184
726	0.437439	196120576	164286464	131617960	33184
727	0.447002	196120576	164286464	132106936	33184
728	0.445082	196390912	164286464	132596680	33184
729	0.434499	196390912	164286464	133087200	33184
730	0.426063	196390912	164286464	133578416	33184
731	0.456862	196390912	164286464	134070408	33184
732	0.47019	196390912	164286464	134563096	33184
733	0.436796	196390912	164286464	135056512	33184
734	0.415565	196661248	164286464	135550704	33184
735	0.430567	196661248	164810752	136045640	33184
736	0.41308	196661248	164810752	136541344	33184
737	0.410419	196661248	164810752	137037120	33184
738	0.410795	196661248	164810752	137533600	33184
739	0.416724	196931584	164810752	138030848	33184
740	0.444013	196931584	164810752	138528800	33184
741	0.443112	196931584	164810752	139027496	33184
742	0.423089	196931584	164810752	139526952	33184
743	0.435746	196931584	164810752	140027192	33184
744	0.413258	196931584	164810752	140528160	33184
745	0.415695	197201920	164810752	141029832	33184
746	0.437943	197201920	165335040	141532272	33184
747	0.424214	197201920	165335040	142035424	33184
748	0.42519	197201920	165335040	142539344	33184
749	0.471061	197201920	165335040	143043960	33184
750	0.449017	197472256	165335040	143549312	33184
751	0.440201	197472256	165335040	144055424	33184
752	7.479489	199634944	167956480	132586824	33184
753	0.701966	199634944	167956480	133094464	33184
754	0.421648	199905280	167956480	133602776	33184
755	0.419786	199905280	167956480	134111848	33184
756	0.423473	199905280	167956480	134621704	33184
757	0.422607	199905280	167956480	135132296	33184
758	0.442632	199905280	167956480	135643584	33184
759	0.427182	199905280	167956480	136155648	33184
760	0.435633	200175616	167956480	136668416	33184
761	0.423793	200175616	167956480	137181952	33184
762	0.426232	200175616	167956480	137696192	33184
763	0.428257	200175616	167956480	138211168	33184
764	0.456855	200175616	168480768	138726920	33184
765	0.43596	200445952	168480768	139243448	33184
766	0.461891	200445952	168480768	139760704	33184
767	0.463719	200445952	168480768	140278664	33184
768	0.430012	200445952	168480768	140797392	33184
769	0.434669	200445952	168480768	141316192	33184
770	0.433671	200716288	168480768	141835760	33184
771	0.446328	200716288	168480768	142356032	33184
772	0.439451	200716288	168480768	142877072	33184
773	0.472931	200716288	168480768	143398816	33184
774	0.459865	200716288	168480768	143921288	33184
775	0.478664	200716288	169005056	144444504	33184
776	0.445305	200986624	169005056	144968480	33184
777	0.443882	200986624	169005056	145493216	33184
778	0.469688	200986624	169005056	146018680	33184
779	0.457705	200986624	169005056	146544920	33184
780	0.442093	200986624	169005056	147071856	33184
781	0.44866	201256960	169005056	147599576	33184
782	7.627875	203419648	171626496	136202744	33184
783	0.838064	203419648	171626496	136731920	33184
784	0.452613	203689984	171626496	137261816	33184
785	0.475136	203689984	171626496	137792480	33184
786	0.459736	203689984	171626496	138323840	33184
787	0.441512	203689984	171626496	138855976	33184
788	0.446228	203689984	171626496	139388816	33184
789	0.45037	203960320	171626496	139922424	33184
790	0.466926	203960320	171626496	140456736	33184
791	0.469138	203960320	171626496	140991824	33184
792	0.488743	203960320	172150784	141527680	33184
793	0.453183	203960320	172150784	142064240	33184
794	0.456322	203960320	172150784	142601568	33184
795	0.476641	204230656	172150784	143139608	33184
796	0.466512	204230656	172150784	143678360	33184
797	0.448089	204230656	172150784	144217856	33184
798	0.648372	204230656	172150784	144758096	33184
799	0.487824	204230656	172150784	145299120	33184
800	0.479871	204500992	172150784	145840920	33184
801	0.471228	204500992	172150784	146382792	33184
802	0.47501	204500992	172675072	146925384	33184
803	0.462282	204500992	172675072	147468680	33184
804	0.466967	204500992	172675072	148012744	33184
805	0.481842	204771328	172675072	148557584	33184
806	0.485701	204771328	172675072	149103120	33184
807	0.460183	204771328	172675072	149649432	33184
808	0.464038	204771328	172675072	150196448	33184
809	0.482235	204771328	172675072	150744232	33184
810	0.482388	205041664	172675072	151292720	33184
811	7.381528	207204352	175296512	139988888	33184
812	0.840221	207204352	175296512	140538872	33184
813	0.471553	207474688	175296512	141089624	33184
814	0.475085	207474688	175296512	141641056	33184
815	0.497186	207474688	175296512	142193256	33184
816	0.463618	207474688	175296512	142746256	33184
817	0.469084	207474688	175296512	143299912	33184
818	0.514893	207745024	175820800	143854304	33184
819	0.748827	207745024	175820800	144409464	33184
820	0.64573	207745024	175820800	144965728	33184
821	0.53398	207745024	175820800	145522360	33184
822	0.520026	207745024	175820800	146079768	33184
823	0.554024	208015360	175820800	146642936	33184
824	0.49065	208015360	175820800	147201816	33184
825	0.475042	208015360	175820800	147761392	33184
826	0.502123	208015360	175820800	148321752	33184
827	0.488419	208015360	175820800	148882872	33184
828	0.720554	208285696	176345088	149444704	33184
829	0.478837	208285696	176345088	150007304	33184
830	0.495369	208285696	176345088	150570600	33184
831	0.49383	208285696	176345088	151134680	33184
832	0.479862	208285696	176345088	151699528	33184
833	0.485377	208556032	176345088	152264432	33184
834	0.497654	208556032	176345088	152830048	33184
835	0.510436	208556032	176345088	153396432	33184
836	0.48989	208556032	176345088	153963520	33184
837	0.501946	208826368	176869376	154531376	33184
838	0.490012	208826368	176869376	155099944	33184
839	7.856525	211259392	179490816	143926920	33184
840	0.823401	211259392	179490816	144496952	33184
841	0.501691	211259392	179490816	145067760	33184
842	0.502224	211259392	179490816	145639272	33184
843	0.511996	211259392	179490816	146211552	33184
844	0.506774	211529728	179490816	146784608	33184
845	0.497536	211529728	179490816	147358360	33184
846	0.48546	211529728	179490816	147932896	33184
847	0.488436	211529728	179490816	148508120	33184
848	0.498359	211529728	179490816	149084128	33184
849	0.50522	211800064	179490816	149660832	33184
850	0.513223	211800064	179490816	150248656	33184
851	0.496376	211800064	179490816	150826832	33184
852	0.513556	211800064	180015104	151405784	33184
853	0.489306	211800064	180015104	151985440	33184
854	0.495177	212070400	180015104	152565864	33184
855	0.515335	212070400	180015104	153147064	33184
856	0.507634	212070400	180015104	153728968	33184
857	0.522705	212070400	180015104	154311640	33184
858	0.512918	212070400	180015104	154895016	33184
859	0.512738	212340736	180015104	155479160	33184
860	0.497551	212340736	180015104	156064008	33184
861	0.533848	212340736	180539392	156649632	33184
862	0.547174	212340736	180539392	157235952	33184
863	0.541191	212611072	180539392	157823048	33184
864	0.543535	212611072	180539392	158410992	33184
865	0.52008	212611072	180539392	158998920	33184
866	8.095485	215044096	183160832	147928888	33184
867	0.786067	215044096	183160832	148518296	33184
868	0.507263	215044096	183160832	149108408	33184
869	0.500507	215314432	183160832	149699288	33184
870	0.73405	215314432	183160832	150290944	33184
871	0.521871	215314432	183160832	150883296	33184
872	0.498766	215314432	183160832	151476424	33184
873	0.512432	215314432	183160832	152070256	33184
874	0.522038	215584768	183685120	152664816	33184
875	0.501956	215584768	183685120	153260136	33184
876	0.515419	215584768	183685120	153856176	33184
877	0.508651	215584768	183685120	154452984	33184
878	0.509618	215855104	183685120	155050592	33184
879	0.513817	215855104	183685120	155648848	33184
880	0.505697	215855104	183685120	156247872	33184
881	0.513523	215855104	183685120	156847672	33184
882	0.515569	215855104	183685120	157448168	33184
883	0.519448	216125440	184209408	158049440	33184
884	0.733725	216125440	184209408	158651416	33184
885	0.518875	216125440	184209408	159254160	33184
886	0.510004	216125440	184209408	159857608	33184
887	0.516132	216125440	184209408	160461832	33184
888	0.520823	216395776	184209408	161066752	33184
889	0.512594	216395776	184209408	161672448	33184
890	0.538059	216395776	184209408	162278840	33184
891	0.549295	216395776	184209408	162886008	33184
892	10.757565	219099136	186830848	151901832	33184
893	0.993041	219099136	186830848	152510472	33184
894	0.690154	219099136	186830848	153119888	33184
895	0.809108	219099136	187355136	153730008	33184
896	0.735194	219099136	187355136	154341000	33184
897	0.7028	219369472	187355136	154951952	33184
898	0.753244	219369472	187355136	155563680	33184
899	0.827028	219369472	187355136	156176104	33184
900	1.231282	219369472	187355136	156789304	33184
901	1.308532	219639808	187355136	157403208	33184
902	1.086366	219639808	187355136	158017888	33184
903	1.19592	219639808	187355136	158633264	33184
904	1.208768	219639808	187879424	159249408	33184
905	1.330641	219639808	187879424	159866264	33184
906	1.013899	219910144	187879424	160483888	33184
907	1.176646	219910144	187879424	161102280	33184
908	1.369656	219910144	187879424	161721376	33184
909	1.433027	219910144	187879424	162341208	33184
910	1.371619	220180480	187879424	162961784	33184
911	1.717533	220180480	187879424	163583128	33184
912	1.563446	220180480	187879424	164205176	33184
913	1.563449	220180480	188403712	164827992	33184
914	1.622062	220180480	188403712	165451512	33184
915	1.574975	220450816	188403712	166075808	33184
916	1.738907	220450816	188403712	166700800	33184
917	12.901944	222883840	191025152	155755816	33184
918	2.265003	222883840	191025152	156382288	33184
919	2.174556	223154176	191025152	157009528	33184
920	2.268864	223154176	191025152	157637584	33184
921	2.143027	223154176	191025152	158266360	33184
922	2.363696	223154176	191025152	158895848	33184
923	2.670094	223154176	191025152	159526040	33184
924	2.322821	223424512	191025152	160157000	33184
925	2.692276	223424512	191549440	160788664	33184
926	2.707273	223424512	191549440	161421104	33184
927	2.708908	223424512	191549440	162054248	33184
928	2.835513	223694848	191549440	162688296	33184
929	2.905353	223694848	191549440	163322280	33184
930	2.990684	223694848	191549440	163957048	33184
931	3.084866	223694848	191549440	164592504	33184
932	3.074694	223965184	191549440	165228720	33184
933	3.253496	223965184	192073728	165865720	33184
934	3.365765	223965184	192073728	166503416	33184
935	3.411433	223965184	192073728	167141888	33184
936	3.545133	223965184	192073728	167781056	33184
937	3.321492	224235520	192073728	168420984	33184
938	4.182983	224235520	192073728	169061672	33184
939	4.090434	224235520	192073728	169703096	33184
940	12.835418	182140928	140693504	90946304	33184
941	2.624136	158547968	140693504	91589512	33184
942	0.958779	158547968	140693504	92233104	33184
943	0.631747	158547968	140693504	92877472	33184
944	0.602844	158547968	140693504	93522544	33184
945	0.576932	158547968	140693504	94168408	33184
946	8.585578	159625216	140693504	81203216	33184
947	0.851639	160165888	140693504	81850528	33184
948	0.767826	160706560	140693504	82498616	33184
949	0.765143	161517568	140693504	83147408	33184
950	0.765297	162058240	140693504	83796968	33184
951	0.934726	162598912	140693504	84447232	33184
952	0.651014	163139584	140693504	85098296	33184
953	0.67052	163680256	140693504	85750040	33184
954	0.65052	164220928	140693504	86402552	33184
955	0.679602	165031936	140693504	87055832	33184
956	0.673285	165572608	140693504	87709816	33184
957	0.647311	166113280	140693504	88364576	33184
958	0.65195	166653952	140693504	89020032	33184
959	0.651013	167194624	140693504	89676368	33184
960	0.656802	167735296	140693504	90333512	33184
961	0.649179	168546304	140693504	90990576	33184
962	0.685785	169086976	140693504	91648352	33184
963	0.671035	169627648	140693504	92306896	33184
964	0.670625	170168320	140693504	92966136	33184
965	0.677367	170708992	140693504	93626128	33184
966	0.663152	171520000	140693504	94286904	33184
967	0.832211	172060672	140693504	94948392	33184
968	0.68709	172601344	140693504	95610584	33184
969	0.689798	173142016	140693504	96273552	33184
970	0.580296	173412352	140693504	96937288	33184
971	0.54653	173412352	140693504	97601776	33184
972	5.537162	173682688	141217792	85255888	33184
973	1.101147	173953024	141217792	85921848	33184
974	0.559503	173953024	141217792	86588536	33184
975	0.542935	173953024	141217792	87255920	33184
976	0.560107	173953024	141217792	87924088	33184
977	0.58325	173953024	141217792	88592944	33184
978	0.544814	173953024	141217792	89262584	33184
979	0.611276	173953024	141217792	89933016	33184
980	0.557162	173953024	141217792	90604128	33184
981	0.568025	173953024	141217792	91276008	33184
982	0.560457	173953024	141217792	91948592	33184
983	0.580457	173953024	141217792	92621952	33184
984	0.571296	173953024	141217792	93296000	33184
985	0.551924	173953024	141217792	93970800	33184
986	0.546431	173953024	141217792	94646328	33184
987	0.567659	173953024	141217792	95322632	33184
988	0.569325	173953024	141217792	95999640	33184
989	0.580546	173953024	141217792	96677424	33184
990	0.58287	173953024	141217792	97355928	33184
991	0.583446	173953024	141217792	98035184	33184
992	0.571572	173953024	141217792	98715352	33184
993	0.562122	173953024	141217792	99395440	33184
994	0.554812	173953024	141217792	100076232	33184
995	8.882359	176656384	144363520	89667392	33184
996	0.751169	176656384	144363520	90349728	33184
997	0.578815	176656384	144363520	91032768	33184
998	0.565389	176656384	144363520	91716576	33184
999	0.557017	176656384	144363520	92401088	33184
1000	0.549889	176656384	144363520	93086400	33184
