x	Duration	RSS	HeapTotal	HeapUsed	External
0	NA	166277120	133877760	91520192	33184
1	0.041602	166277120	133877760	91529152	33184
2	0.026765	166277120	133877760	91539096	33184
3	0.023747	166277120	133877760	91549544	33184
4	0.022749	166277120	133877760	91560616	33184
5	0.027366	166277120	133877760	91572344	33184
6	0.026116	166604800	133877760	91584696	33184
7	0.022832	166604800	133877760	91597704	33184
8	0.037379	166604800	133877760	91614408	33184
9	0.0343	166604800	133877760	91630384	33184
10	0.03105	166604800	133877760	91646824	33184
11	0.031498	166604800	133877760	91664160	33184
12	0.03332	166604800	133877760	91682216	33184
13	0.031597	166604800	133877760	91700992	33184
14	0.031148	166604800	133877760	91720488	33184
15	0.035216	166604800	133877760	91740704	33184
16	0.033696	166604800	133877760	91761952	33184
17	0.038314	166604800	133877760	91784400	33184
18	0.035751	166604800	133877760	91807616	33184
19	0.037684	166604800	133877760	91832032	33184
20	0.040419	166604800	133877760	91856656	33184
21	0.037321	166604800	133877760	91882072	33184
22	0.042327	166604800	133877760	91907600	33184
23	0.039422	166604800	133877760	91934632	33184
24	0.041294	166604800	133877760	91962560	33184
25	0.04303	166604800	133877760	91991272	33184
26	0.059055	166604800	133877760	92020584	33184
27	0.050879	166604800	133877760	92050520	33184
28	0.042279	166604800	133877760	92081192	33184
29	0.044981	166604800	133877760	92112608	33184
30	0.045117	166604800	133877760	92144760	33184
31	0.043958	166604800	133877760	92177656	33184
32	0.047972	166604800	133877760	92210896	33184
33	0.047753	166604800	133877760	92244656	33184
34	0.046279	166604800	133877760	92279152	33184
35	0.049119	166604800	133877760	92314392	33184
36	0.049904	166604800	133877760	92350368	33184
37	0.048865	166604800	133877760	92387160	33184
38	0.048702	166604800	133877760	92424496	33184
39	0.056389	166604800	133877760	92462536	33184
40	0.053403	166604800	133877760	92501168	33184
41	0.054063	166604800	133877760	92540528	33184
42	0.051228	166604800	133877760	92580688	33184
43	0.053575	166604800	133877760	92621656	33184
44	0.054138	166604800	133877760	92663424	33184
45	0.05301	166604800	133877760	92706672	33184
46	0.053651	166604800	133877760	92750048	33184
47	0.053868	166604800	133877760	92794232	33184
48	0.054859	166604800	133877760	92839240	33184
49	0.060079	166604800	133877760	92885056	33184
50	0.055219	166604800	133877760	92931672	33184
51	0.056779	166604800	133877760	92979112	33184
52	0.05734	166604800	133877760	93027336	33184
53	0.057719	166604800	133877760	93076168	33184
54	0.058174	166604800	133877760	93125704	33184
55	0.059018	166604800	133877760	93176056	33184
56	0.059266	166604800	133877760	93227024	33184
57	0.060004	166604800	133877760	93278832	33184
58	0.0617	166604800	133877760	93331264	33184
59	0.06048	166604800	133877760	93384328	33184
60	0.060589	166604800	133877760	93438016	33184
61	0.061939	166604800	133877760	93492336	33184
62	0.062968	166604800	133877760	93547568	33184
63	0.063108	166604800	133877760	93603144	33184
64	0.064258	166604800	133877760	93658976	33184
65	0.069601	166604800	133877760	93715192	33184
66	0.066215	166604800	133877760	93772032	33184
67	0.072407	166604800	133877760	93829504	33184
68	0.078087	166604800	133877760	93887600	33184
69	0.078019	166604800	133877760	93946304	33184
70	0.067508	166604800	133877760	94005744	33184
71	0.067288	166604800	133877760	94065824	33184
72	0.076152	166604800	133877760	94126544	33184
73	0.068174	166604800	133877760	94187920	33184
74	0.067674	166604800	133877760	94249920	33184
75	0.068834	166604800	133877760	94312552	33184
76	0.069738	166604800	133877760	94375808	33184
77	0.070071	166604800	133877760	94439696	33184
78	0.076378	166604800	133877760	94504208	33184
79	0.072159	166604800	133877760	94569352	33184
80	0.073005	166604800	133877760	94635144	33184
81	0.075226	166604800	133877760	94701616	33184
82	0.073533	166604800	133877760	94768664	33184
83	0.074243	166604800	133877760	94836344	33184
84	0.082389	166604800	133877760	94905784	33184
85	0.076332	166604800	133877760	94974696	33184
86	0.083173	166604800	133877760	95044128	33184
87	0.078679	166604800	133877760	95114400	33184
88	0.077839	166604800	133877760	95185304	33184
89	0.083973	166604800	133877760	95256936	33184
90	0.078818	166604800	133877760	95329128	33184
91	0.079296	166604800	133877760	95401952	33184
92	0.233227	166604800	133877760	95475400	33184
93	0.084609	166604800	133877760	95549480	33184
94	0.08631	166604800	133877760	95624184	33184
95	0.082227	166604800	133877760	95699520	33184
96	0.090866	166604800	133877760	95775224	33184
97	0.090549	166604800	133877760	95851200	33184
98	0.085386	166604800	133877760	95927800	33184
99	0.090909	166604800	133877760	96005032	33184
100	0.08661	166604800	133877760	96082888	33184
101	0.085822	166604800	133877760	96161352	33184
102	0.086109	166604800	133877760	96240360	33184
103	0.086493	166604800	133877760	96320008	33184
104	0.093374	166604800	133877760	96400344	33184
105	0.087978	166604800	133877760	96481288	33184
106	0.089238	166604800	133877760	96562856	33184
107	0.089135	166604800	133877760	96645056	33184
108	0.094952	166604800	133877760	96727880	33184
109	0.091017	166604800	133877760	96811336	33184
110	0.090885	166604800	133877760	96895416	33184
111	0.093611	166604800	133877760	96980240	33184
112	0.091689	166604800	133877760	97065600	33184
113	0.10096	166604800	133877760	97151592	33184
114	0.093555	166604800	133877760	97238208	33184
115	0.09204	166604800	133877760	97325456	33184
116	0.09243	166604800	133877760	97413328	33184
117	0.101255	166604800	133877760	97501816	33184
118	0.09757	166604800	133877760	97590840	33184
119	0.097029	166604800	133877760	97680504	33184
120	0.09741	166604800	133877760	97770800	33184
121	0.103524	166604800	133877760	97861760	33184
122	0.098591	166604800	133877760	97953344	33184
123	0.107582	166604800	133877760	98045560	33184
124	0.37447	166604800	133877760	98138424	33184
125	0.104273	166604800	133877760	98231896	33184
126	0.104885	166604800	133877760	98325992	33184
127	0.088864	166604800	133877760	98420720	33184
128	0.090507	166604800	133877760	98515744	33184
129	0.098366	166604800	133877760	98610824	33184
130	0.090257	166604800	133877760	98706552	33184
131	0.090371	166604800	133877760	98803048	33184
132	0.095611	166604800	133877760	98900168	33184
133	0.091864	166604800	133877760	98997896	33184
134	0.092189	166604800	133877760	99096256	33184
135	0.092827	166604800	133877760	99195280	33184
136	0.097547	166604800	133877760	99294912	33184
137	0.10343	166604800	133877760	99395208	33184
138	0.094111	166604800	133877760	99496128	33184
139	0.098324	166604800	133877760	99597680	33184
140	0.095475	166604800	133877760	99699856	33184
141	0.096232	166604800	133877760	99802696	33184
142	0.095809	166604800	133877760	99907960	33184
143	0.100496	166604800	133877760	100012024	33184
144	0.098028	166604800	133877760	100116736	33184
145	0.09853	166604800	133877760	100222080	33184
146	0.102405	166604800	133877760	100328048	33184
147	0.100737	166604800	133877760	100434656	33184
148	0.099565	166604800	133877760	100541880	33184
149	0.099845	166604800	133877760	100649712	33184
150	0.106321	166604800	133877760	100758656	33184
151	0.261664	166604800	133877760	100868240	33184
152	0.128975	166604800	133877760	100978464	33184
153	0.164937	166604800	133877760	101089344	33184
154	0.112896	166604800	133877760	101200848	33184
155	0.10776	166604800	133877760	101312984	33184
156	0.125178	166604800	133877760	101425744	33184
157	0.10981	166604800	133877760	101539136	33184
158	0.108353	166604800	133877760	101653152	33184
159	0.112916	166604800	133877760	101767800	33184
160	0.106284	166604800	133877760	101882760	33184
161	0.10705	166604800	133877760	101998048	33184
162	0.115015	166604800	133877760	102114016	33184
163	0.106957	166604800	133877760	102230560	33184
164	0.109504	166604800	133877760	102347728	33184
165	0.112536	166604800	133877760	102465504	33184
166	0.109977	166604800	133877760	102584176	33184
167	0.110082	166604800	133877760	102703488	33184
168	0.114664	166604800	133877760	102823432	33184
169	0.112653	166604800	133877760	102944040	33184
170	0.112156	166604800	133877760	103065272	33184
171	0.116736	166604800	133877760	103187240	33184
172	0.112903	166604800	133877760	103309728	33184
173	0.11404	166604800	133877760	103432848	33184
174	0.12142	166604800	133877760	103556592	33184
175	0.284795	166604800	133877760	103680968	33184
176	0.122425	166604800	133877760	103806056	33184
177	0.120893	166604800	133877760	103931712	33184
178	0.11682	166604800	133877760	104057992	33184
179	0.120899	166604800	133877760	104184904	33184
180	0.116962	166604800	133877760	104312440	33184
181	0.118358	166604800	133877760	104440600	33184
182	0.121528	166604800	133877760	104569376	33184
183	0.11876	166604800	133877760	104698792	33184
184	0.119623	166604800	133877760	104828840	33184
185	0.126969	166604800	133877760	104959600	33184
186	0.12165	166604800	133877760	105090936	33184
187	0.125307	166604800	133877760	105222904	33184
188	0.122907	166604800	133877760	105355496	33184
189	8.135722	169037824	136499200	93825176	33184
190	0.216733	169037824	136499200	93959024	33184
191	0.114219	169037824	136499200	94093504	33184
192	0.122066	169037824	136499200	94228360	33184
193	0.111261	169037824	136499200	94363480	33184
194	0.11119	169037824	136499200	94499224	33184
195	0.114976	169037824	136499200	94635600	33184
196	0.113951	169037824	136499200	94772656	33184
197	0.117544	169037824	136499200	94910264	33184
198	0.119975	169037824	136499200	95048504	33184
199	0.129024	169037824	136499200	95187384	33184
200	0.118559	169037824	136499200	95326896	33184
201	0.114221	169037824	136499200	95467072	33184
202	0.118267	169037824	136499200	95607872	33184
203	0.1161	169037824	136499200	95749304	33184
204	0.152486	169037824	136499200	95891424	33184
205	0.116637	169037824	136499200	96034112	33184
206	0.12493	169037824	136499200	96177424	33184
207	0.127396	169037824	136499200	96321368	33184
208	0.127048	169308160	136499200	96465976	33184
209	0.124964	169308160	136499200	96611200	33184
210	0.119192	169308160	136499200	96757048	33184
211	0.120709	169308160	136499200	96903528	33184
212	0.125654	169308160	136499200	97050664	33184
213	0.121803	169308160	136499200	97198376	33184
214	0.125494	169308160	136499200	97346720	33184
215	0.122028	169308160	136499200	97495704	33184
216	0.124247	169308160	136499200	97645352	33184
217	0.134027	169308160	136499200	97795632	33184
218	0.125583	169308160	136499200	97946536	33184
219	0.124722	169308160	136499200	98098072	33184
220	0.125945	169308160	136499200	98250328	33184
221	0.137342	169308160	136499200	98403120	33184
222	0.304062	169308160	136499200	98556536	33184
223	0.154777	169308160	136499200	98710584	33184
224	0.127659	169308160	136499200	98864984	33184
225	0.131524	169308160	136499200	99019672	33184
226	0.129541	169308160	136499200	99174984	33184
227	0.132914	169308160	136499200	99330952	33184
228	0.129838	169308160	136499200	99487520	33184
229	0.132237	169308160	136499200	99647576	33184
230	0.129826	169308160	136499200	99805384	33184
231	0.12994	169308160	136499200	99963872	33184
232	0.135538	169308160	136499200	100122952	33184
233	0.133516	169308160	136499200	100282696	33184
234	0.138734	169308160	136499200	100443096	33184
235	0.142377	169308160	136499200	100604096	33184
236	0.136248	169308160	136499200	100765720	33184
237	0.132666	169308160	136499200	100927976	33184
238	0.136871	169308160	136499200	101090920	33184
239	0.134219	169308160	136499200	101254432	33184
240	0.137674	169308160	136499200	101418592	33184
241	0.136043	169308160	136499200	101583424	33184
242	0.137996	169308160	136499200	101748840	33184
243	0.138733	169308160	136499200	101914888	33184
244	0.183311	169308160	136499200	102081560	33184
245	0.152995	169308160	136499200	102248880	33184
246	0.142	169308160	136499200	102416792	33184
247	0.139596	169308160	136499200	102585344	33184
248	0.143625	169308160	136499200	102754536	33184
249	0.139162	169308160	136499200	102924384	33184
250	0.144015	169308160	136499200	103094856	33184
251	0.13995	169308160	136499200	103265984	33184
252	0.144542	169308160	136499200	103437712	33184
253	0.140418	169308160	136499200	103610072	33184
254	0.145871	169308160	136499200	103783056	33184
255	0.149246	169308160	136499200	103956680	33184
256	0.14753	169308160	136499200	104131032	33184
257	0.143734	169308160	136499200	104305648	33184
258	0.149941	169308160	136499200	104480936	33184
259	0.146124	169308160	136499200	104656808	33184
260	0.15084	169308160	136499200	104833304	33184
261	0.147692	169308160	136499200	105010456	33184
262	0.154816	169308160	136499200	105188352	33184
263	0.148516	169308160	136499200	105367056	33184
264	0.154411	169308160	136499200	105546560	33184
265	0.156101	169308160	136499200	105727376	33184
266	0.18884	169308160	136499200	105909048	33184
267	0.153098	169308160	136499200	106091704	33184
268	0.159613	169308160	136499200	106275400	33184
269	0.155434	169308160	136499200	106460016	33184
270	0.154196	169308160	136499200	106645608	33184
271	0.158067	169308160	136499200	106832240	33184
272	0.155375	169308160	136499200	107019792	33184
273	0.158855	169308160	136499200	107208328	33184
274	0.168238	169308160	136499200	107397872	33184
275	0.16211	169308160	136499200	107588368	33184
276	0.156475	169308160	136499200	107779840	33184
277	0.195437	169308160	136499200	107971944	33184
278	0.194923	169308160	136499200	108164672	33184
279	0.159884	169308160	136499200	108358032	33184
280	0.163557	169308160	136499200	108552048	33184
281	0.172335	169308160	136499200	108746664	33184
282	0.165259	169308160	136499200	108941904	33184
283	0.162167	169308160	136499200	109137832	33184
284	0.375989	169308160	136499200	109334328	33184
285	0.185044	169308160	136499200	109531456	33184
286	7.010787	171470848	139120640	97361864	33184
287	0.2086	171470848	139120640	97560248	33184
288	0.18444	171470848	139120640	97759000	33184
289	0.170089	171470848	139120640	97958016	33184
290	0.157499	171470848	139120640	98157640	33184
291	0.151599	171470848	139120640	98357896	33184
292	0.160255	171470848	139120640	98558776	33184
293	0.152689	171470848	139120640	98760288	33184
294	0.158648	171470848	139120640	98962424	33184
295	0.155482	171470848	139120640	99165216	33184
296	0.177936	171470848	139120640	99368608	33184
297	0.173914	171470848	139120640	99572632	33184
298	0.181388	171470848	139120640	99777288	33184
299	0.164446	171470848	139120640	99982568	33184
300	0.17052	171470848	139120640	100188504	33184
301	0.163259	171470848	139120640	100395040	33184
302	0.172227	171470848	139120640	100602200	33184
303	0.16833	171470848	139120640	100810008	33184
304	0.170999	171470848	139120640	101018424	33184
305	0.174263	171470848	139120640	101227472	33184
306	0.172276	171470848	139120640	101437192	33184
307	0.326781	171741184	139120640	101647496	33184
308	0.187889	171741184	139120640	101858424	33184
309	0.172401	171741184	139120640	102070224	33184
310	0.171528	171741184	139120640	102282408	33184
311	0.173714	171741184	139120640	102495248	33184
312	0.171958	171741184	139120640	102708688	33184
313	0.17573	171741184	139120640	102922760	33184
314	0.172713	171741184	139120640	103137504	33184
315	0.192649	171741184	139120640	103352832	33184
316	0.183846	171741184	139120640	103568784	33184
317	0.193347	171741184	139120640	103785480	33184
318	0.169331	171741184	139120640	104002688	33184
319	0.174606	171741184	139120640	104220584	33184
320	0.188041	171741184	139120640	104438816	33184
321	0.168893	171741184	139120640	104657272	33184
322	0.174478	171741184	139120640	104876352	33184
323	0.169513	171741184	139120640	105096064	33184
324	0.204735	171741184	139120640	105316408	33184
325	0.189527	171741184	139120640	105537376	33184
326	0.179317	171741184	139120640	105758968	33184
327	0.173524	171741184	139120640	105981192	33184
328	0.186124	171741184	139120640	106204040	33184
329	0.192275	171741184	139120640	106427520	33184
330	0.190003	171741184	139120640	106651640	33184
331	0.178785	171741184	139120640	106876376	33184
332	0.175181	171741184	139120640	107101800	33184
333	0.194767	171741184	139120640	107327792	33184
334	0.175873	171741184	139120640	107554408	33184
335	0.184875	171741184	139120640	107781672	33184
336	0.196409	171741184	139120640	108009544	33184
337	0.178368	171741184	139120640	108238112	33184
338	0.182724	171741184	139120640	108467240	33184
339	0.178608	171741184	139120640	108697000	33184
340	0.187216	171741184	139120640	108927448	33184
341	0.328239	171741184	139120640	109158464	33184
342	0.207157	171741184	139120640	109390120	33184
343	0.186866	171741184	139120640	109622392	33184
344	0.18315	171741184	139120640	109855288	33184
345	0.193306	171741184	139120640	110088824	33184
346	0.183407	171741184	139120640	110322976	33184
347	0.197169	171741184	139120640	110557760	33184
348	0.188842	171741184	139120640	110793168	33184
349	0.202199	171741184	139120640	111029208	33184
350	0.228216	171741184	139120640	111265872	33184
351	0.212344	171741184	139120640	111503168	33184
352	0.189065	171741184	139120640	111740888	33184
353	0.19307	171741184	139120640	111978800	33184
354	0.187338	171741184	139120640	112217360	33184
355	0.194048	171741184	139120640	112456528	33184
356	0.207525	171741184	139120640	112696320	33184
357	0.352959	171741184	139120640	112936744	33184
358	0.222386	171741184	139120640	113177792	33184
359	6.396259	173633536	141217792	100676024	33184
360	0.336921	173633536	141217792	100922776	33184
361	0.202184	173633536	141217792	101165712	33184
362	0.189226	173633536	141217792	101409336	33184
363	0.219423	173633536	141217792	101653528	33184
364	0.209238	173633536	141217792	101898344	33184
365	0.188074	173633536	141217792	102143824	33184
366	0.195978	173633536	141217792	102389896	33184
367	0.19003	173633536	141217792	102636664	33184
368	0.195014	173633536	141217792	102883992	33184
369	0.222823	173633536	141217792	103131984	33184
370	0.189701	173633536	141217792	103380568	33184
371	0.198773	173633536	141217792	103629832	33184
372	0.190132	173633536	141217792	103879672	33184
373	0.199112	173633536	141217792	104130144	33184
374	0.19895	173633536	141217792	104381248	33184
375	0.19325	173633536	141217792	104632976	33184
376	0.201325	173633536	141217792	104885336	33184
377	0.205183	173633536	141217792	105138320	33184
378	0.20264	173633536	141217792	105391944	33184
379	0.374923	173633536	141217792	105646184	33184
380	0.231389	173903872	141217792	105901048	33184
381	0.213775	173903872	141217792	106156568	33184
382	0.212386	173903872	141217792	106412688	33184
383	0.20404	173903872	141217792	106669456	33184
384	0.210666	173903872	141217792	106926640	33184
385	0.201437	173903872	141217792	107184040	33184
386	0.203449	173903872	141217792	107442032	33184
387	0.205001	173903872	141217792	107700656	33184
388	0.20181	173903872	141217792	107959904	33184
389	0.210004	173903872	141217792	108219800	33184
390	0.221547	173903872	141217792	108480304	33184
391	0.200337	173903872	141217792	108741440	33184
392	0.210418	173903872	141217792	109003216	33184
393	0.206011	173903872	141217792	109265608	33184
394	0.254454	173903872	141217792	109528680	33184
395	0.243614	173903872	141217792	109792328	33184
396	0.224225	173903872	141217792	110056648	33184
397	0.204979	173903872	141217792	110321552	33184
398	0.214821	173903872	141217792	110587144	33184
399	0.208771	173903872	141217792	110853304	33184
400	0.224206	173903872	141217792	111120096	33184
401	0.212251	173903872	141217792	111387512	33184
402	0.20959	173903872	141217792	111655568	33184
403	0.216667	173903872	141217792	111924240	33184
404	0.214382	173903872	141217792	112193536	33184
405	0.211435	173903872	141217792	112463464	33184
406	0.214752	173903872	141217792	112734016	33184
407	0.225812	173903872	141217792	113005304	33184
408	0.21073	173903872	141217792	113277112	33184
409	0.216033	173903872	141217792	113549616	33184
410	0.238432	173903872	141217792	113822680	33184
411	0.222238	173903872	141217792	114096440	33184
412	0.216737	173903872	141217792	114370760	33184
413	0.222444	173903872	141217792	114645720	33184
414	0.235379	173903872	141217792	114921296	33184
415	0.219482	173903872	141217792	115197520	33184
416	0.22476	173903872	141217792	115474176	33184
417	0.221494	173903872	141217792	115751000	33184
418	0.221656	173903872	141217792	116028448	33184
419	0.230546	173903872	141217792	116306576	33184
420	0.254902	173903872	141217792	116585280	33184
421	6.361261	175796224	143314944	104007048	33184
422	0.414027	175796224	143314944	104287064	33184
423	0.229222	175796224	143314944	104567656	33184
424	0.221122	175796224	143314944	104848880	33184
425	0.216474	175796224	143314944	105130728	33184
426	0.235349	175796224	143314944	105413216	33184
427	0.260205	175796224	143314944	105696320	33184
428	0.223083	175796224	143314944	105980072	33184
429	0.232548	175796224	143314944	106264432	33184
430	0.290047	175796224	143314944	106549456	33184
431	0.242315	175796224	143314944	106835072	33184
432	0.236762	175796224	143314944	107121360	33184
433	0.263504	176066560	143314944	107408232	33184
434	0.247157	176066560	143314944	107695792	33184
435	0.223753	176066560	143314944	107983920	33184
436	0.226821	176066560	143314944	108272672	33184
437	0.222568	176066560	143314944	108562056	33184
438	0.220677	176066560	143314944	108852080	33184
439	0.231024	176066560	143314944	109142720	33184
440	0.265506	176066560	143314944	109434008	33184
441	0.221037	176066560	143314944	109725904	33184
442	0.230101	176066560	143314944	110018464	33184
443	0.227516	176066560	143314944	110311616	33184
444	0.403614	176066560	143314944	110605440	33184
445	0.244698	176066560	143314944	110899848	33184
446	0.23471	176066560	143314944	111194936	33184
447	0.229676	176066560	143314944	111490600	33184
448	0.22906	176066560	143314944	111786744	33184
449	0.236176	176066560	143314944	112083024	33184
450	0.264727	176066560	143314944	112379944	33184
451	0.26451	176066560	143314944	112677480	33184
452	0.232188	176066560	143314944	112975672	33184
453	0.236758	176066560	143314944	113274464	33184
454	0.233918	176066560	143314944	113573920	33184
455	0.230113	176066560	143314944	113873968	33184
456	0.242244	176066560	143314944	114174688	33184
457	0.267448	176066560	143314944	114475992	33184
458	0.259114	176066560	143314944	114777920	33184
459	0.234222	176066560	143314944	115080480	33184
460	0.245314	176066560	143314944	115383664	33184
461	0.274784	176066560	143314944	115687488	33184
462	0.246425	176066560	143314944	115991928	33184
463	0.234336	176066560	143314944	116297024	33184
464	0.25428	176066560	143314944	116602720	33184
465	0.244021	176066560	143314944	116909080	33184
466	0.277015	176066560	143314944	117216032	33184
467	0.238068	176066560	143314944	117523656	33184
468	0.246828	176066560	143314944	117831864	33184
469	0.245555	176066560	143314944	118140760	33184
470	0.250677	176066560	143314944	118450224	33184
471	0.287177	176066560	143314944	118760384	33184
472	0.280121	176066560	143314944	119071104	33184
473	0.279627	176066560	143314944	119382480	33184
474	0.245862	176066560	143314944	119694496	33184
475	0.253882	176066560	143314944	120007104	33184
476	6.249504	177688576	145412096	107340616	33184
477	0.472005	177688576	145412096	107654544	33184
478	0.24303	177688576	145412096	107969032	33184
479	0.248701	177688576	145412096	108284192	33184
480	0.244648	177688576	145412096	108599800	33184
481	0.251827	177688576	145412096	108915584	33184
482	0.241772	177688576	145412096	109231944	33184
483	0.249821	177688576	145412096	109548960	33184
484	0.278251	177688576	145412096	109866632	33184
485	0.240212	177688576	145412096	110184880	33184
486	0.242494	177688576	145412096	110503768	33184
487	0.261069	177688576	145412096	110823272	33184
488	0.288202	177688576	145412096	111143424	33184
489	0.253818	177958912	145412096	111464184	33184
490	0.299266	177958912	145412096	111785608	33184
491	0.260105	177958912	145412096	112107624	33184
492	0.256235	177958912	145412096	112430264	33184
493	0.287485	177958912	145412096	112753552	33184
494	0.256275	177958912	145412096	113077448	33184
495	0.260328	177958912	145412096	113402040	33184
496	0.262804	177958912	145412096	113727192	33184
497	0.267051	177958912	145412096	114052984	33184
498	0.279954	177958912	145412096	114379392	33184
499	0.246892	177958912	145412096	114706448	33184
500	0.25659	177958912	145412096	115034176	33184
501	0.256964	177958912	145412096	115362472	33184
502	0.252384	177958912	145412096	115691424	33184
503	0.276645	177958912	145412096	116020976	33184
504	0.280245	177958912	145412096	116351200	33184
505	0.261283	177958912	145412096	116682008	33184
506	0.25923	177958912	145412096	117013464	33184
507	0.268244	177958912	145412096	117345568	33184
508	0.272894	177958912	145412096	117678256	33184
509	0.255899	177958912	145412096	118011584	33184
510	0.26196	177958912	145412096	118345528	33184
511	0.263441	177958912	145412096	118680120	33184
512	0.263453	177958912	145412096	119015544	33184
513	0.291302	177958912	145412096	119351072	33184
514	0.261316	177958912	145412096	119687224	33184
515	0.292706	177958912	145412096	120024008	33184
516	0.26657	177958912	145412096	120361424	33184
517	0.262567	177958912	145412096	120699240	33184
518	0.296295	177958912	145412096	121037824	33184
519	0.260322	177958912	145412096	121377176	33184
520	0.267494	177958912	145412096	121717208	33184
521	0.271907	177958912	145412096	122058384	33184
522	0.271256	177958912	145412096	122400232	33184
523	0.307325	177958912	145412096	122742840	33184
524	0.27086	177958912	145412096	123086200	33184
525	0.267962	177958912	145412096	123430272	33184
526	6.057505	179851264	147509248	110730776	33184
527	0.469272	179851264	147509248	111076392	33184
528	0.301854	179851264	147509248	111422680	33184
529	0.269915	179851264	147509248	111769752	33184
530	0.281102	179851264	147509248	112117544	33184
531	0.282284	179851264	147509248	112466056	33184
532	0.27678	179851264	147509248	112815344	33184
533	0.325584	179851264	147509248	113165336	33184
534	0.278184	179851264	147509248	113516096	33184
535	0.277605	180121600	147509248	113867592	33184
536	0.284526	180121600	147509248	114219800	33184
537	0.287963	180121600	147509248	114572760	33184
538	0.280701	180121600	147509248	114926512	33184
539	0.284765	180121600	147509248	115280944	33184
540	0.28353	180121600	147509248	115636176	33184
541	0.277248	180121600	147509248	115992088	33184
542	0.286983	180121600	147509248	116348784	33184
543	0.316011	180121600	147509248	116706184	33184
544	0.284381	180121600	147509248	117064216	33184
545	0.342032	180121600	147509248	117422512	33184
546	0.297636	180121600	147509248	117781528	33184
547	0.27435	180121600	147509248	118141240	33184
548	0.290798	180121600	147509248	118501704	33184
549	0.284253	180121600	147509248	118862896	33184
550	0.284617	180121600	147509248	119224840	33184
551	0.285483	180121600	147509248	119587568	33184
552	0.29115	180121600	147509248	119950976	33184
553	0.401564	180121600	147509248	120315296	33184
554	0.342403	180121600	147509248	120681264	33184
555	0.313915	180121600	147509248	121046880	33184
556	0.33733	180121600	147509248	121420048	33184
557	0.314507	180121600	147509248	121787176	33184
558	0.293666	180121600	147509248	122155008	33184
559	0.293302	180121600	147509248	122523584	33184
560	0.292034	180121600	147509248	122892896	33184
561	0.29932	180121600	147509248	123262960	33184
562	0.287336	180121600	147509248	123633784	33184
563	0.295781	180121600	147509248	124005320	33184
564	0.305054	180121600	147509248	124377632	33184
565	0.305522	180121600	147509248	124750656	33184
566	0.329244	180121600	147509248	125124408	33184
567	0.299787	180121600	147509248	125498928	33184
568	0.321201	180121600	147509248	125874200	33184
569	0.337477	180121600	148033536	126250176	33184
570	0.313573	180121600	148033536	126626888	33184
571	6.185053	182013952	150130688	114056416	33184
572	0.779827	182013952	150130688	114434640	33184
573	0.333271	182013952	150130688	114813632	33184
574	0.317781	182013952	150130688	115193304	33184
575	0.319052	182013952	150130688	115573768	33184
576	0.313861	182284288	150130688	115954864	33184
577	0.310571	182284288	150130688	116336120	33184
578	0.309719	182284288	150130688	116718152	33184
579	0.31237	182284288	150130688	117100928	33184
580	0.310308	182284288	150130688	117484400	33184
581	0.306575	182284288	150130688	117868632	33184
582	0.309416	182284288	150130688	118253584	33184
583	0.348669	182554624	150130688	118639280	33184
584	0.344078	182554624	150130688	119025712	33184
585	0.316586	182554624	150130688	119412912	33184
586	0.31906	182554624	150130688	119800824	33184
587	0.316235	182554624	150130688	120189536	33184
588	0.317851	182554624	150130688	120578984	33184
589	0.316566	182554624	150130688	120969120	33184
590	0.319986	182824960	150130688	121360032	33184
591	0.319798	182824960	150130688	121751656	33184
592	0.320469	182824960	150130688	122144008	33184
593	0.341353	182824960	150654976	122537136	33184
594	0.357731	182824960	150654976	122930992	33184
595	0.324059	182824960	150654976	123325568	33184
596	0.339982	182824960	150654976	123720912	33184
597	0.333323	183095296	150654976	124117000	33184
598	0.326698	183095296	150654976	124513816	33184
599	0.324493	183095296	150654976	124911352	33184
600	0.326103	183095296	150654976	125309680	33184
601	0.327818	183095296	150654976	125708744	33184
602	0.328347	183095296	150654976	126108496	33184
603	0.332851	183365632	150654976	126509024	33184
604	0.550141	183365632	150654976	126910264	33184
605	0.350362	183365632	150654976	127312240	33184
606	0.356977	183365632	151179264	127714952	33184
607	0.331988	183365632	151179264	128118464	33184
608	0.331955	183365632	151179264	128522648	33184
609	0.33732	183365632	151179264	128926944	33184
610	0.344832	183635968	151179264	129331976	33184
611	0.337195	183635968	151179264	129737776	33184
612	0.341838	183635968	151179264	130144288	33184
613	6.524122	185528320	153276416	117905896	33184
614	0.515138	185528320	153276416	118313912	33184
615	0.347101	185528320	153276416	118722664	33184
616	0.337491	185528320	153276416	119132136	33184
617	0.337656	185528320	153276416	119542376	33184
618	0.413623	185798656	153276416	119953376	33184
619	0.356959	185798656	153276416	120365072	33184
620	0.338222	185798656	153276416	120777528	33184
621	0.335654	185798656	153276416	121190752	33184
622	0.339076	185798656	153276416	121604696	33184
623	0.332284	185798656	153276416	122019352	33184
624	0.340718	185798656	153276416	122434808	33184
625	0.339939	186068992	153276416	122851000	33184
626	0.361662	186068992	153800704	123267872	33184
627	0.339605	186068992	153800704	123685496	33184
628	0.397697	186068992	153800704	124103896	33184
629	0.357288	186068992	153800704	124523032	33184
630	0.342406	186068992	153800704	124942728	33184
631	0.340446	186068992	153800704	125363152	33184
632	0.343034	186339328	153800704	125784352	33184
633	0.347751	186339328	153800704	126206224	33184
634	0.342364	186339328	153800704	126628816	33184
635	0.345061	186339328	153800704	127052200	33184
636	0.342275	186339328	153800704	127476248	33184
637	0.34393	186339328	153800704	127901072	33184
638	0.39801	186609664	154324992	128326560	33184
639	0.358975	186609664	154324992	128752800	33184
640	0.356046	186609664	154324992	129179728	33184
641	0.352727	186609664	154324992	129606792	33184
642	0.361977	186609664	154324992	130034536	33184
643	0.356756	186609664	154324992	130463064	33184
644	0.358127	186880000	154324992	130892304	33184
645	0.357326	186880000	154324992	131322248	33184
646	0.354102	186880000	154324992	131752784	33184
647	0.363555	186880000	154324992	132184072	33184
648	0.54428	186880000	154324992	132616112	33184
649	0.362119	186880000	154324992	133048936	33184
650	0.357295	186880000	154324992	133482432	33184
651	6.813721	189042688	156946432	121495256	33184
652	0.56347	189042688	156946432	121930256	33184
653	0.359788	189042688	156946432	122366024	33184
654	0.359967	189042688	156946432	122802496	33184
655	0.364217	189313024	156946432	123239696	33184
656	0.366061	189313024	156946432	123677656	33184
657	0.354754	189313024	156946432	124116368	33184
658	0.354288	189313024	156946432	124555792	33184
659	0.365353	189313024	156946432	124995952	33184
660	0.552074	189313024	156946432	125436848	33184
661	0.384607	189583360	156946432	125878512	33184
662	0.358415	189583360	156946432	126320808	33184
663	0.3685	189583360	156946432	126763808	33184
664	0.364728	189583360	156946432	127207568	33184
665	0.417633	189583360	157470720	127652088	33184
666	0.386299	189583360	157470720	128097336	33184
667	0.559854	189853696	157470720	128543488	33184
668	0.437976	189853696	157470720	128992288	33184
669	0.404305	189853696	157470720	129439760	33184
670	0.369186	189853696	157470720	129887952	33184
671	0.370999	189853696	157470720	130336920	33184
672	0.383591	189853696	157470720	130786560	33184
673	0.370494	190124032	157470720	131236352	33184
674	0.37024	190124032	157470720	131686864	33184
675	0.369642	190124032	157470720	132138136	33184
676	0.370706	190124032	157470720	132590120	33184
677	0.404447	190124032	157995008	133042840	33184
678	0.446117	190124032	157995008	133496200	33184
679	0.375131	190394368	157995008	133950304	33184
680	0.375121	190394368	157995008	134405160	33184
681	0.374562	190394368	157995008	134860792	33184
682	0.383262	190394368	157995008	135317104	33184
683	0.376914	190394368	157995008	135774184	33184
684	0.38417	190394368	157995008	136232000	33184
685	0.378192	190664704	157995008	136690576	33184
686	6.829644	192557056	160092160	124832800	33184
687	0.709661	192557056	160092160	125292840	33184
688	0.38072	192827392	160092160	125753592	33184
689	0.380151	192827392	160092160	126215096	33184
690	0.44934	192827392	160616448	126677392	33184
691	0.379317	192827392	160616448	127140392	33184
692	0.38074	192827392	160616448	127604168	33184
693	0.383716	192827392	160616448	128068624	33184
694	0.38599	193097728	160616448	128533816	33184
695	0.378994	193097728	160616448	128999808	33184
696	0.38441	193097728	160616448	129466528	33184
697	0.383736	193097728	160616448	129933952	33184
698	0.3879	193097728	160616448	130402144	33184
699	0.566198	193097728	160616448	130871040	33184
700	0.393718	193368064	160616448	131340712	33184
701	0.421685	193368064	161140736	131811128	33184
702	0.404018	193368064	161140736	132282272	33184
703	0.38569	193368064	161140736	132754192	33184
704	0.385696	193368064	161140736	133226808	33184
705	0.387571	193638400	161140736	133699504	33184
706	0.3903	193638400	161140736	134172992	33184
707	0.419647	193638400	161140736	134647216	33184
708	0.415132	193638400	161140736	135122144	33184
709	0.400001	193638400	161140736	135597848	33184
710	0.391609	193638400	161140736	136074304	33184
711	0.398664	193908736	161140736	136551440	33184
712	0.418222	193908736	161665024	137029344	33184
713	0.405391	193908736	161665024	137508000	33184
714	0.417604	193908736	161665024	137987352	33184
715	0.42004	193908736	161665024	138467472	33184
716	0.452666	193908736	161665024	138948304	33184
717	0.415447	194179072	161665024	139429880	33184
718	0.400532	194179072	161665024	139912400	33184
719	0.400959	194179072	161665024	140395456	33184
720	7.185491	196341760	163762176	128734808	33184
721	0.877002	196341760	163762176	129219360	33184
722	0.414142	196341760	163762176	129704648	33184
723	0.42539	196341760	164286464	130190672	33184
724	0.427581	196612096	164286464	130677464	33184
725	0.419679	196612096	164286464	131164960	33184
726	0.452987	196612096	164286464	131653192	33184
727	0.415104	196612096	164286464	132142208	33184
728	0.405655	196612096	164286464	132631984	33184
729	0.402377	196612096	164286464	133122504	33184
730	0.404103	196882432	164286464	133613720	33184
731	0.430046	196882432	164286464	134105712	33184
732	0.426457	196882432	164286464	134598400	33184
733	0.415095	196882432	164286464	135091832	33184
734	0.487044	196882432	164810752	135585984	33184
735	0.431562	197152768	164810752	136080888	33184
736	0.412251	197152768	164810752	136576584	33184
737	0.409962	197152768	164810752	137072352	33184
738	0.413359	197152768	164810752	137568832	33184
739	0.411745	197152768	164810752	138066080	33184
740	0.420251	197152768	164810752	138564032	33184
741	0.423707	197423104	164810752	139062728	33184
742	0.443015	197423104	164810752	139562168	33184
743	0.49552	197423104	164810752	140062352	33184
744	0.416044	197423104	164810752	140563320	33184
745	0.436361	197423104	165335040	141064992	33184
746	0.417955	197693440	165335040	141567440	33184
747	0.425236	197693440	165335040	142070584	33184
748	0.419083	197693440	165335040	142574504	33184
749	0.446789	197693440	165335040	143079192	33184
750	0.436787	197693440	165335040	143584544	33184
751	0.451378	197693440	165335040	144090680	33184
752	7.505982	200126464	167956480	132622200	33184
753	0.700956	200126464	167956480	133129840	33184
754	0.422794	200126464	167956480	133638152	33184
755	0.422831	200126464	167956480	134147240	33184
756	0.420256	200396800	167956480	134657064	33184
757	0.422193	200396800	167956480	135167600	33184
758	0.423736	200396800	167956480	135678888	33184
759	0.417606	200396800	167956480	136190952	33184
760	0.440934	200396800	167956480	136703720	33184
761	0.465451	200667136	167956480	137217256	33184
762	0.454118	200667136	167956480	137731496	33184
763	0.469858	200667136	168480768	138246504	33184
764	0.422376	200667136	168480768	138762216	33184
765	0.435043	200667136	168480768	139278688	33184
766	0.44516	200667136	168480768	139795912	33184
767	0.445687	200937472	168480768	140313896	33184
768	0.427207	200937472	168480768	140832624	33184
769	0.629724	200937472	168480768	141351424	33184
770	0.441137	200937472	168480768	141870992	33184
771	0.431077	200937472	168480768	142391264	33184
772	0.459648	201207808	168480768	142912304	33184
773	0.461071	201207808	168480768	143434048	33184
774	0.454579	201207808	169005056	143956568	33184
775	0.437582	201207808	169005056	144479784	33184
776	0.460785	201207808	169005056	145003776	33184
777	0.484895	201478144	169005056	145528512	33184
778	0.454053	201478144	169005056	146053984	33184
779	0.439024	201478144	169005056	146580224	33184
780	0.441492	201478144	169005056	147107160	33184
781	0.437821	201478144	169005056	147634880	33184
782	7.586023	203911168	171626496	136238048	33184
783	0.760057	203911168	171626496	136767192	33184
784	0.470869	203911168	171626496	137297168	33184
785	0.485014	203911168	171626496	137827784	33184
786	0.457893	204181504	171626496	138359144	33184
787	0.442562	204181504	171626496	138891280	33184
788	0.43815	204181504	171626496	139424120	33184
789	0.448304	204181504	171626496	139957728	33184
790	0.460344	204181504	171626496	140492040	33184
791	0.48413	204451840	172150784	141027128	33184
792	0.443489	204451840	172150784	141562984	33184
793	0.470712	204451840	172150784	142099544	33184
794	0.467311	204451840	172150784	142636872	33184
795	0.467003	204451840	172150784	143174912	33184
796	0.462631	204722176	172150784	143713712	33184
797	0.454364	204722176	172150784	144253224	33184
798	0.443458	204722176	172150784	144793456	33184
799	0.454901	204722176	172150784	145334456	33184
800	0.467923	204722176	172150784	145876272	33184
801	0.700466	204992512	172675072	146418120	33184
802	0.466997	204992512	172675072	146960688	33184
803	0.452944	204992512	172675072	147503984	33184
804	0.480754	204992512	172675072	148048048	33184
805	0.470539	204992512	172675072	148592888	33184
806	0.457838	205262848	172675072	149138424	33184
807	0.458651	205262848	172675072	149684736	33184
808	0.481682	205262848	172675072	150231752	33184
809	0.503711	205262848	172675072	150779536	33184
810	0.474693	205262848	172675072	151328024	33184
811	7.505691	207695872	175820800	140024240	33184
812	0.805507	207695872	175820800	140574208	33184
813	0.478172	207695872	175820800	141124904	33184
814	0.480673	207966208	175820800	141676344	33184
815	0.455683	207966208	175820800	142228528	33184
816	0.459854	207966208	175820800	142781472	33184
817	0.532979	207966208	175820800	143335232	33184
818	0.485233	207966208	175820800	143889728	33184
819	0.740944	208236544	175820800	144444888	33184
820	0.498625	208236544	175820800	145000768	33184
821	0.488744	208236544	175820800	145557400	33184
822	0.487265	208236544	175820800	146114808	33184
823	0.527428	208236544	175820800	146675472	33184
824	0.492355	208506880	175820800	147234352	33184
825	0.465907	208506880	175820800	147793928	33184
826	0.494108	208506880	175820800	148354280	33184
827	0.510094	208506880	176345088	148915336	33184
828	0.467225	208506880	176345088	149477168	33184
829	0.473412	208777216	176345088	150039768	33184
830	0.474599	208777216	176345088	150603064	33184
831	0.657099	208777216	176345088	151167144	33184
832	0.480351	208777216	176345088	151731992	33184
833	0.471697	208777216	176345088	152296896	33184
834	0.487077	209047552	176345088	152862512	33184
835	0.472619	209047552	176345088	153428896	33184
836	0.494907	209047552	176869376	153995984	33184
837	0.482196	209047552	176869376	154563840	33184
838	0.505644	209047552	176869376	155132408	33184
839	7.661097	211480576	179490816	143959592	33184
840	0.824743	211480576	179490816	144529632	33184
841	0.47969	211750912	179490816	145100440	33184
842	0.475728	211750912	179490816	145672016	33184
843	0.472794	211750912	179490816	146244296	33184
844	0.481526	211750912	179490816	146817352	33184
845	0.475143	211750912	179490816	147391112	33184
846	0.505967	212021248	179490816	147965640	33184
847	0.475955	212021248	179490816	148540872	33184
848	0.479638	212021248	179490816	149116872	33184
849	0.476596	212021248	179490816	149693576	33184
850	0.477671	212021248	179490816	150281400	33184
851	0.532481	212291584	180015104	150859584	33184
852	0.52193	212291584	180015104	151438536	33184
853	0.509848	212291584	180015104	152018256	33184
854	0.505341	212291584	180015104	152598688	33184
855	0.510008	212561920	180015104	153179880	33184
856	0.499545	212561920	180015104	153761784	33184
857	0.483242	212561920	180015104	154344456	33184
858	0.514209	212561920	180015104	154927832	33184
859	0.508279	212561920	180015104	155511976	33184
860	0.53939	212832256	180539392	156096832	33184
861	0.542369	212832256	180539392	156682448	33184
862	0.509181	212832256	180539392	157268776	33184
863	0.491979	212832256	180539392	157855872	33184
864	0.506116	212832256	180539392	158443808	33184
865	0.522096	213102592	180539392	159031744	33184
866	7.869461	215535616	183160832	147961528	33184
867	0.757828	215535616	183160832	148550936	33184
868	0.676401	215535616	183160832	149141048	33184
869	0.514287	215535616	183160832	149731928	33184
870	0.487908	215805952	183160832	150323584	33184
871	0.491679	215805952	183160832	150915936	33184
872	0.498897	215805952	183160832	151509064	33184
873	0.516656	215805952	183685120	152102904	33184
874	0.497489	215805952	183685120	152697496	33184
875	0.540586	216076288	183685120	153292808	33184
876	0.515514	216076288	183685120	153888904	33184
877	0.525089	216076288	183685120	154485680	33184
878	0.501802	216076288	183685120	155083232	33184
879	0.529408	216076288	183685120	155681488	33184
880	0.522445	216346624	183685120	156280512	33184
881	0.518517	216346624	183685120	156880312	33184
882	0.574481	216346624	183685120	157480808	33184
883	0.539262	216346624	184209408	158082080	33184
884	0.502089	216616960	184209408	158684056	33184
885	0.527299	216616960	184209408	159286800	33184
886	0.714967	216616960	184209408	159890248	33184
887	0.518392	216616960	184209408	160494472	33184
888	0.543832	216616960	184209408	161099392	33184
889	0.539261	216887296	184209408	161705088	33184
890	0.510538	216887296	184209408	162311480	33184
891	0.720106	216887296	184733696	162918648	33184
892	10.821469	219320320	186830848	151909528	33184
893	0.904549	219320320	186830848	152518168	33184
894	0.711521	219590656	186830848	153127520	33184
895	0.739697	219590656	187355136	153737632	33184
896	0.837456	219590656	187355136	154348624	33184
897	0.809833	219590656	187355136	154959576	33184
898	0.790478	219860992	187355136	155571304	33184
899	1.092018	219860992	187355136	156183736	33184
900	1.422383	219860992	187355136	156796936	33184
901	1.250471	219860992	187355136	157410840	33184
902	1.080808	219860992	187355136	158025512	33184
903	1.360813	220131328	187355136	158640888	33184
904	1.279941	220131328	187879424	159257040	33184
905	1.062757	220131328	187879424	159873960	33184
906	1.165259	220131328	187879424	160491584	33184
907	1.438869	220401664	187879424	161110000	33184
908	1.319793	220401664	187879424	161729104	33184
909	1.488985	220401664	187879424	162348976	33184
910	1.418726	220401664	187879424	162969552	33184
911	1.530229	220401664	187879424	163590896	33184
912	1.655217	220672000	188403712	164212944	33184
913	1.552924	220672000	188403712	164835760	33184
914	1.726201	220672000	188403712	165459280	33184
915	1.602499	220672000	188403712	166083576	33184
916	1.833556	220942336	188403712	166708576	33184
917	12.848381	223375360	191025152	155763656	33184
918	2.305933	223375360	191025152	156390192	33184
919	2.482605	223375360	191025152	157017408	33184
920	2.295308	223375360	191025152	157645408	33184
921	2.178402	223645696	191025152	158274128	33184
922	2.471923	223645696	191025152	158903616	33184
923	2.581267	223645696	191025152	159533808	33184
924	2.381838	223645696	191549440	160164768	33184
925	2.688011	223916032	191549440	160796432	33184
926	2.786662	223916032	191549440	161428872	33184
927	2.792612	223916032	191549440	162062008	33184
928	2.802915	223916032	191549440	162696080	33184
929	2.995219	223916032	191549440	163330136	33184
930	3.063968	224186368	191549440	163964888	33184
931	3.095171	224186368	191549440	164600408	33184
932	3.136051	224186368	191549440	165236632	33184
933	3.298928	224186368	192073728	165873624	33184
934	3.455414	224456704	192073728	166511320	33184
935	3.704077	224456704	192073728	167149792	33184
936	3.577395	224456704	192073728	167788968	33184
937	3.408496	224456704	192073728	168428872	33184
938	4.169076	224456704	192073728	169069584	33184
939	12.686968	173211648	140693504	90314112	33184
940	1.179158	159055872	140693504	90956552	33184
941	0.936589	159055872	140693504	91599448	33184
942	0.826192	159055872	140693504	92243040	33184
943	0.770393	159055872	140693504	92887408	33184
944	0.748574	159055872	140693504	93532544	33184
945	0.697327	159055872	140693504	94178392	33184
946	8.155835	160403456	141217792	81201952	33184
947	0.844058	160944128	141217792	81849264	33184
948	0.688567	161484800	141217792	82497352	33184
949	0.658774	162025472	141217792	83146144	33184
950	0.64479	162566144	141217792	83795672	33184
951	0.644568	163106816	141217792	84446000	33184
952	0.639326	163917824	141217792	85097032	33184
953	0.823002	164458496	141217792	85748768	33184
954	0.647676	164999168	141217792	86401280	33184
955	0.642351	165539840	141217792	87054496	33184
956	0.646937	166080512	141217792	87708480	33184
957	0.679391	166891520	141217792	88363264	33184
958	0.806842	167432192	141217792	89018728	33184
959	0.652547	167972864	141217792	89674960	33184
960	0.673984	168513536	141217792	90332104	33184
961	0.658921	169054208	141217792	90989168	33184
962	0.669995	169594880	141217792	91646944	33184
963	0.694975	170405888	141217792	92305488	33184
964	0.67773	170946560	141217792	92964760	33184
965	0.653921	171487232	141217792	93624776	33184
966	0.651697	172027904	141217792	94285496	33184
967	0.657143	172568576	141217792	94946984	33184
968	0.653707	173379584	141217792	95609176	33184
969	0.589974	173379584	141217792	96272144	33184
970	0.55592	173379584	141217792	96936056	33184
971	0.562519	173379584	141217792	97600488	33184
972	5.762021	174190592	142266368	85357144	33184
973	1.080061	174190592	142266368	86023064	33184
974	0.564772	174190592	142266368	86689744	33184
975	0.558003	174190592	142266368	87357136	33184
976	0.602912	174190592	142266368	88025296	33184
977	0.568915	174190592	142266368	88694160	33184
978	0.561055	174190592	142266368	89363824	33184
979	0.573217	174190592	142266368	90034160	33184
980	0.575185	174190592	142266368	90705272	33184
981	0.540427	174190592	142266368	91377152	33184
982	0.564496	174190592	142266368	92049736	33184
983	0.566008	174190592	142266368	92723336	33184
984	0.601554	174190592	142266368	93397392	33184
985	0.562846	174190592	142266368	94072224	33184
986	0.885869	174190592	142266368	94747752	33184
987	0.554692	174190592	142266368	95424056	33184
988	0.550864	174190592	142266368	96101064	33184
989	0.552933	174190592	142266368	96778872	33184
990	0.571065	174190592	142266368	97457352	33184
991	0.583475	174190592	142266368	98136608	33184
992	0.634756	174190592	142266368	98816776	33184
993	0.574551	174190592	142266368	99496864	33184
994	8.471748	176893952	145412096	89015464	33184
995	1.126141	176893952	145412096	89697104	33184
996	0.584295	176893952	145412096	90379440	33184
997	0.614135	176893952	145412096	91062480	33184
998	0.586308	176893952	145412096	91746288	33184
999	0.569568	176893952	145412096	92430800	33184
1000	0.565073	176893952	145412096	93116184	33184
