x	Duration	RSS	HeapTotal	HeapUsed	External
0	NA	168333312	136499200	92138056	33184
1	0.042184	168333312	136499200	92147080	33184
2	0.028017	168333312	136499200	92157088	33184
3	0.025178	168333312	136499200	92167600	33184
4	0.023364	168333312	136499200	92178736	33184
5	0.023397	168333312	136499200	92190528	33184
6	0.022902	168333312	136499200	92202944	33184
7	0.043315	168333312	136499200	92216016	33184
8	0.043258	168333312	136499200	92232808	33184
9	0.034683	168333312	136499200	92248848	33184
10	0.034272	168333312	136499200	92265352	33184
11	0.032042	168333312	136499200	92282752	33184
12	0.03129	168333312	136499200	92300872	33184
13	0.035059	168333312	136499200	92319712	33184
14	0.037195	168333312	136499200	92339272	33184
15	0.033412	168333312	136499200	92359552	33184
16	0.038024	168333312	136499200	92380864	33184
17	0.036435	168333312	136499200	92403376	33184
18	0.04043	168333312	136499200	92426656	33184
19	0.037122	168333312	136499200	92451080	33184
20	0.037345	168333312	136499200	92475768	33184
21	0.038506	168333312	136499200	92501248	33184
22	0.041049	168333312	136499200	92526840	33184
23	0.04112	168333312	136499200	92553936	33184
24	0.044346	168333312	136499200	92581928	33184
25	0.045606	168333312	136499200	92610704	33184
26	0.046404	168333312	136499200	92640080	33184
27	0.042823	168333312	136499200	92670080	33184
28	0.047568	168333312	136499200	92700816	33184
29	0.044001	168333312	136499200	92732296	33184
30	0.048356	168333312	136499200	92764512	33184
31	0.054464	168333312	136499200	92797536	33184
32	0.047037	168333312	136499200	92830840	33184
33	0.050628	168333312	136499200	92864664	33184
34	0.05028	168333312	136499200	92899224	33184
35	0.048465	168333312	136499200	92934528	33184
36	0.051328	168333312	136499200	92970568	33184
37	0.052444	168333312	136499200	93007392	33184
38	0.054135	168333312	136499200	93044792	33184
39	0.052574	168333312	136499200	93082896	33184
40	0.055963	168333312	136499200	93121592	33184
41	0.059174	168333312	136499200	93161016	33184
42	0.056672	168333312	136499200	93201240	33184
43	0.062177	168333312	136499200	93242272	33184
44	0.055562	168333312	136499200	93284104	33184
45	0.05851	168333312	136499200	93327416	33184
46	0.058797	168333312	136499200	93370896	33184
47	0.060776	168333312	136499200	93415144	33184
48	0.060649	168333312	136499200	93460216	33184
49	0.06325	168333312	136499200	93506096	33184
50	0.058063	168333312	136499200	93552776	33184
51	0.222684	168333312	136499200	93600264	33184
52	0.058388	168333312	136499200	93648552	33184
53	0.051721	168333312	136499200	93697448	33184
54	0.067968	168333312	136499200	93747048	33184
55	0.051011	168333312	136499200	93797464	33184
56	0.051641	168333312	136499200	93848496	33184
57	0.052586	168660992	136499200	93900368	33184
58	0.054848	168660992	136499200	93952912	33184
59	0.052771	168660992	136499200	94006040	33184
60	0.05649	168660992	136499200	94059792	33184
61	0.055147	168660992	136499200	94114176	33184
62	0.054107	168660992	136499200	94169184	33184
63	0.055338	168660992	136499200	94224824	33184
64	0.056123	168660992	136499200	94280720	33184
65	0.055731	168660992	136499200	94337000	33184
66	0.0579	168660992	136499200	94393904	33184
67	0.060958	168660992	136499200	94451440	33184
68	0.059017	168660992	136499200	94509664	33184
69	0.059231	168660992	136499200	94568432	33184
70	0.059384	168660992	136499200	94627936	33184
71	0.063573	168660992	136499200	94688080	33184
72	0.059405	168660992	136499200	94748856	33184
73	0.061859	168660992	136499200	94810296	33184
74	0.065144	168660992	136499200	94872360	33184
75	0.062386	168660992	136499200	94935056	33184
76	0.062417	168660992	136499200	94998376	33184
77	0.063506	168660992	136499200	95062384	33184
78	0.062674	168660992	136499200	95126960	33184
79	0.063193	168660992	136499200	95192168	33184
80	0.069696	168660992	136499200	95258216	33184
81	0.095419	168660992	136499200	95324704	33184
82	0.070809	168660992	136499200	95391816	33184
83	0.090344	168660992	136499200	95463304	33184
84	0.069132	168660992	136499200	95532728	33184
85	0.067659	168660992	136499200	95601624	33184
86	0.076249	168660992	136499200	95671096	33184
87	0.069043	168660992	136499200	95741352	33184
88	0.228874	168660992	136499200	95812240	33184
89	0.072412	168660992	136499200	95883792	33184
90	0.086422	168660992	136499200	95955968	33184
91	0.074701	168660992	136499200	96028776	33184
92	0.075145	168660992	136499200	96102208	33184
93	0.071768	168660992	136499200	96176272	33184
94	0.073031	168660992	136499200	96251000	33184
95	0.070693	168660992	136499200	96326320	33184
96	0.07618	168660992	136499200	96401912	33184
97	0.073063	168660992	136499200	96477872	33184
98	0.072144	168660992	136499200	96554456	33184
99	0.073421	168660992	136499200	96631672	33184
100	0.075892	168660992	136499200	96709512	33184
101	0.078412	168660992	136499200	96787968	33184
102	0.075894	168660992	136499200	96866960	33184
103	0.076046	168931328	136499200	96946592	33184
104	0.07738	168931328	136499200	97026856	33184
105	0.080805	168931328	136499200	97107784	33184
106	0.078355	168931328	136499200	97189336	33184
107	0.078293	168931328	136499200	97271520	33184
108	0.07962	168931328	136499200	97354384	33184
109	0.079786	168931328	136499200	97437824	33184
110	0.084898	168931328	136499200	97521888	33184
111	0.080709	168931328	136499200	97606584	33184
112	0.081957	168931328	136499200	97691928	33184
113	0.081058	168931328	136499200	97777904	33184
114	0.085537	168931328	136499200	97864504	33184
115	0.084582	168931328	136499200	97951776	33184
116	0.083175	168931328	136499200	98039632	33184
117	0.083564	168931328	136499200	98128096	33184
118	0.089385	168931328	136499200	98217104	33184
119	0.096708	168931328	136499200	98306752	33184
120	0.086057	168931328	136499200	98397032	33184
121	0.0913	168931328	136499200	98487984	33184
122	0.089494	168931328	136499200	98579552	33184
123	0.083487	168931328	136499200	98671752	33184
124	0.083455	168931328	136499200	98764576	33184
125	0.085122	168931328	136499200	98858032	33184
126	0.087416	168931328	136499200	98952112	33184
127	0.098015	168931328	136499200	99046832	33184
128	0.08712	168931328	136499200	99141840	33184
129	0.087577	168931328	136499200	99236904	33184
130	0.091589	168931328	136499200	99332592	33184
131	0.08886	168931328	136499200	99429072	33184
132	0.087021	168931328	136499200	99526176	33184
133	0.089004	168931328	136499200	99623920	33184
134	0.094831	168931328	136499200	99722264	33184
135	0.088483	168931328	136499200	99821248	33184
136	0.088915	168931328	136499200	99920864	33184
137	0.093026	168931328	136499200	100021144	33184
138	0.090622	168931328	136499200	100122048	33184
139	0.09031	168931328	136499200	100223608	33184
140	0.091437	168931328	136499200	100325768	33184
141	0.096798	168931328	136499200	100428560	33184
142	0.092689	168931328	136499200	100533808	33184
143	0.09453	168931328	136499200	100637856	33184
144	0.095923	168931328	136499200	100742552	33184
145	0.094347	168931328	136499200	100847920	33184
146	0.094648	168931328	136499200	100953872	33184
147	0.095711	168931328	136499200	101060456	33184
148	0.103686	168931328	136499200	101167664	33184
149	0.097504	168931328	136499200	101275480	33184
150	0.142619	168931328	136499200	101384448	33184
151	0.122697	168931328	136499200	101494016	33184
152	0.099058	168931328	136499200	101604216	33184
153	0.099118	168931328	136499200	101715080	33184
154	0.103259	168931328	136499200	101826568	33184
155	0.102319	168931328	136499200	101938704	33184
156	0.111528	168931328	136499200	102051448	33184
157	0.103603	168931328	136499200	102164824	33184
158	0.100897	168931328	136499200	102278824	33184
159	0.10109	168931328	136499200	102393456	33184
160	0.105164	168931328	136499200	102508456	33184
161	0.101705	168931328	136499200	102623728	33184
162	0.103016	168931328	136499200	102739624	33184
163	0.106657	168931328	136499200	102856152	33184
164	0.105768	168931328	136499200	102973304	33184
165	0.105286	168931328	136499200	103091088	33184
166	0.108653	168931328	136499200	103209744	33184
167	0.116871	168931328	136499200	103329040	33184
168	0.107667	168931328	136499200	103448968	33184
169	0.110797	168931328	136499200	103569560	33184
170	0.110759	168931328	136499200	103690824	33184
171	0.108239	168931328	136499200	103812672	33184
172	0.112286	168931328	136499200	103935144	33184
173	0.110068	168931328	136499200	104058248	33184
174	0.109653	168931328	136499200	104181992	33184
175	0.113975	168931328	136499200	104306352	33184
176	0.112005	168931328	136499200	104431360	33184
177	0.129795	168931328	136499200	104557000	33184
178	0.150195	168931328	136499200	104683264	33184
179	0.114497	168931328	136499200	104810184	33184
180	0.116186	168931328	136499200	104937704	33184
181	0.123152	168931328	136499200	105065832	33184
182	0.115197	168931328	136499200	105194592	33184
183	7.658226	169472000	137023488	93678608	33184
184	0.217821	169472000	137023488	93808640	33184
185	0.105983	169472000	137023488	93939344	33184
186	0.111479	169472000	137023488	94070664	33184
187	0.104612	169472000	137023488	94202616	33184
188	0.103699	169472000	137023488	94335192	33184
189	0.108089	169472000	137023488	94468400	33184
190	0.106736	169472000	137023488	94602328	33184
191	0.10716	169472000	137023488	94736792	33184
192	0.104007	169472000	137023488	94871592	33184
193	0.103696	169472000	137023488	95006696	33184
194	0.109182	169472000	137023488	95142456	33184
195	0.104867	169472000	137023488	95278816	33184
196	0.126125	169472000	137023488	95415800	33184
197	0.105439	169472000	137023488	95553392	33184
198	0.109197	169472000	137023488	95691616	33184
199	0.111227	169472000	137023488	95830480	33184
200	0.109042	169472000	137023488	95969976	33184
201	0.113839	169472000	137023488	96110136	33184
202	0.108852	169472000	137023488	96250984	33184
203	0.109286	169472000	137023488	96392400	33184
204	0.11306	169472000	137023488	96534440	33184
205	0.27422	169472000	137023488	96677112	33184
206	0.12258	169472000	137023488	96820424	33184
207	0.11016	169472000	137023488	96964352	33184
208	0.110151	169472000	137023488	97108928	33184
209	0.118096	169472000	137023488	97254136	33184
210	0.114246	169472000	137023488	97399984	33184
211	0.120161	169472000	137023488	97546448	33184
212	0.111926	169472000	137023488	97693536	33184
213	0.118129	169472000	137023488	97841232	33184
214	0.116273	169472000	137023488	97989584	33184
215	0.113253	169472000	137023488	98138552	33184
216	0.118816	169472000	137023488	98288152	33184
217	0.115227	169472000	137023488	98438416	33184
218	0.121647	169472000	137023488	98589328	33184
219	0.117454	169472000	137023488	98740848	33184
220	0.16542	169472000	137023488	98892992	33184
221	0.119335	169472000	137023488	99045768	33184
222	0.122045	169472000	137023488	99199328	33184
223	0.119098	169472000	137023488	99353360	33184
224	0.118422	169472000	137023488	99507744	33184
225	0.126917	169472000	137023488	99662448	33184
226	0.119803	169472000	137023488	99817744	33184
227	0.126277	169472000	137023488	99973672	33184
228	0.123931	169472000	137023488	100130224	33184
229	0.170264	169472000	137023488	100290264	33184
230	0.123814	169472000	137023488	100448056	33184
231	0.129027	169472000	137023488	100606488	33184
232	0.122267	169472000	137023488	100765552	33184
233	0.161141	169472000	137023488	100925376	33184
234	0.126069	169472000	137023488	101085728	33184
235	0.128062	169472000	137023488	101246712	33184
236	0.128086	169472000	137023488	101408344	33184
237	0.129457	169472000	137023488	101570584	33184
238	0.126926	169472000	137023488	101733448	33184
239	0.12683	169472000	137023488	101896944	33184
240	0.141337	169472000	137023488	102061112	33184
241	0.127736	169472000	137023488	102225888	33184
242	0.134039	169472000	137023488	102391288	33184
243	0.134368	169472000	137023488	102557344	33184
244	0.141802	169472000	137023488	102724000	33184
245	0.133205	169472000	137023488	102891264	33184
246	0.171279	169472000	137023488	103059160	33184
247	0.13468	169472000	137023488	103227696	33184
248	0.140178	169472000	137023488	103396864	33184
249	0.13351	169472000	137023488	103566696	33184
250	0.172541	169472000	137023488	103737152	33184
251	0.16091	169472000	137023488	103908240	33184
252	0.151173	169472000	137023488	104079952	33184
253	0.159024	169472000	137023488	104252296	33184
254	0.898769	169472000	137023488	104425848	33184
255	0.151363	169472000	137023488	104599448	33184
256	0.166365	169472000	137023488	104773784	33184
257	0.16145	169472000	137023488	104948408	33184
258	0.164647	169472000	137023488	105123632	33184
259	0.180407	169472000	137023488	105299488	33184
260	0.152053	169472000	137023488	105476016	33184
261	0.18503	169472000	137023488	105653096	33184
262	0.150605	169472000	137023488	105830976	33184
263	0.18356	169472000	137023488	106009704	33184
264	0.149465	169472000	137023488	106189192	33184
265	0.179839	169472000	137023488	106369872	33184
266	0.158497	169472000	137023488	106551528	33184
267	0.18813	169472000	137023488	106734168	33184
268	0.150984	169472000	137023488	106917784	33184
269	0.187569	169472000	137023488	107102408	33184
270	0.154713	169472000	137023488	107287984	33184
271	0.193511	169472000	137023488	107474544	33184
272	0.155571	169472000	137023488	107662088	33184
273	0.191393	169472000	137023488	107850608	33184
274	0.188692	169472000	137023488	108040104	33184
275	0.157849	169472000	137023488	108230624	33184
276	0.189526	169472000	137023488	108422080	33184
277	0.156729	169472000	137023488	108614168	33184
278	0.197054	169472000	137023488	108823248	33184
279	0.179457	169472000	137023488	109016592	33184
280	0.159226	169472000	137023488	109210560	33184
281	6.556244	170012672	137547776	97089616	33184
282	0.298458	170012672	137547776	97284864	33184
283	0.158174	170012672	137547776	97480720	33184
284	0.14779	170012672	137547776	97677200	33184
285	0.152438	170012672	137547776	97874312	33184
286	0.147749	170012672	137547776	98072048	33184
287	0.147022	170012672	137547776	98270416	33184
288	0.153764	170012672	137547776	98469160	33184
289	0.184051	170012672	137547776	98668144	33184
290	0.163063	170012672	137547776	98867752	33184
291	0.169845	170012672	137547776	99068048	33184
292	0.192211	170012672	137547776	99268912	33184
293	0.168055	170012672	137547776	99470408	33184
294	0.155086	170012672	137547776	99672528	33184
295	0.153498	170012672	137547776	99875280	33184
296	0.157141	170012672	137547776	100078688	33184
297	0.153765	170012672	137547776	100282696	33184
298	0.15703	170012672	137547776	100487328	33184
299	0.154732	170012672	137547776	100692656	33184
300	0.156917	170012672	137547776	100898544	33184
301	0.157989	170012672	137547776	101105064	33184
302	0.158094	170012672	137547776	101312224	33184
303	0.161071	170012672	137547776	101520000	33184
304	0.156717	170012672	137547776	101728400	33184
305	0.161551	170012672	137547776	101937472	33184
306	0.159067	170012672	137547776	102147128	33184
307	0.16465	170012672	137547776	102357416	33184
308	0.158295	170012672	137547776	102568328	33184
309	0.163578	170012672	137547776	102779872	33184
310	0.16108	170012672	137547776	102992056	33184
311	0.166075	170012672	137547776	103204856	33184
312	0.169122	170012672	137547776	103418280	33184
313	0.168375	170012672	137547776	103632368	33184
314	0.162474	170012672	137547776	103847048	33184
315	0.170017	170012672	137547776	104062416	33184
316	0.164675	170012672	137547776	104278352	33184
317	0.200313	170012672	137547776	104494920	33184
318	0.168722	170012672	137547776	104712120	33184
319	0.16643	170012672	137547776	104929944	33184
320	0.170631	170012672	137547776	105148160	33184
321	0.166532	170012672	137547776	105366656	33184
322	0.173233	170012672	137547776	105585720	33184
323	0.169754	170012672	137547776	105805448	33184
324	0.174236	170012672	137547776	106025768	33184
325	0.168579	170012672	137547776	106246720	33184
326	0.172699	170012672	137547776	106468312	33184
327	0.174576	170012672	137547776	106690520	33184
328	0.171555	170012672	137547776	106913392	33184
329	0.175546	170012672	137547776	107136856	33184
330	0.173376	170012672	137547776	107360944	33184
331	0.198722	170012672	137547776	107585664	33184
332	0.189837	170012672	137547776	107811008	33184
333	0.18016	170012672	137547776	108036984	33184
334	0.179854	170012672	137547776	108263608	33184
335	0.176489	170012672	137547776	108490840	33184
336	0.179844	170012672	137547776	108718720	33184
337	0.174246	170012672	137547776	108947208	33184
338	0.181951	170012672	137547776	109176320	33184
339	0.20711	170012672	137547776	109406072	33184
340	0.177285	170012672	137547776	109636440	33184
341	0.182617	170012672	137547776	109867472	33184
342	0.179189	170012672	137547776	110099096	33184
343	0.222264	170012672	137547776	110331352	33184
344	0.205345	170012672	137547776	110564352	33184
345	0.180636	170012672	137547776	110797864	33184
346	0.186026	170012672	137547776	111032000	33184
347	0.190799	170012672	137547776	111266768	33184
348	0.225068	170012672	137547776	111502192	33184
349	0.221787	170012672	137547776	111738216	33184
350	0.18444	170012672	137547776	111974864	33184
351	0.189673	170012672	137547776	112212160	33184
352	0.189062	170012672	137547776	112449848	33184
353	0.194041	170012672	137547776	112687808	33184
354	0.226132	170012672	137547776	112926328	33184
355	0.18924	170012672	137547776	113165480	33184
356	6.54847	170553344	138072064	100675584	33184
357	0.289242	170553344	138072064	100915992	33184
358	0.18212	170553344	138072064	101157024	33184
359	0.185889	170553344	138072064	101398712	33184
360	0.178768	170553344	138072064	101645448	33184
361	0.18633	170553344	138072064	101888416	33184
362	0.200152	170553344	138072064	102131960	33184
363	0.180409	170553344	138072064	102376184	33184
364	0.184691	170553344	138072064	102620984	33184
365	0.181356	170553344	138072064	102866416	33184
366	0.189054	170553344	138072064	103112488	33184
367	0.189192	170553344	138072064	103359176	33184
368	0.185178	170553344	138072064	103606488	33184
369	0.189402	170553344	138072064	103854432	33184
370	0.189312	170553344	138072064	104103024	33184
371	0.223359	170553344	138072064	104352224	33184
372	0.183357	170553344	138072064	104602048	33184
373	0.216115	170553344	138072064	104852544	33184
374	0.188037	170553344	138072064	105103624	33184
375	0.185439	170553344	138072064	105355336	33184
376	0.194125	170553344	138072064	105607672	33184
377	0.223212	170553344	138072064	105860704	33184
378	0.186917	170553344	138072064	106114296	33184
379	0.191089	170553344	138072064	106368584	33184
380	0.186795	170553344	138072064	106623432	33184
381	0.19676	170553344	138072064	106878912	33184
382	0.23006	170553344	138072064	107135048	33184
383	0.189417	170553344	138072064	107391784	33184
384	0.195667	170553344	138072064	107649008	33184
385	0.216617	170553344	138072064	107906360	33184
386	0.205984	170553344	138072064	108164376	33184
387	0.230963	170553344	138072064	108422984	33184
388	0.207909	170553344	138072064	108682272	33184
389	0.205036	170553344	138072064	108942136	33184
390	0.225537	170553344	138072064	109202664	33184
391	0.194938	170553344	138072064	109463784	33184
392	0.223854	170553344	138072064	109725528	33184
393	0.241203	170553344	138072064	109987968	33184
394	0.203985	170553344	138072064	110250968	33184
395	0.22481	170553344	138072064	110514624	33184
396	0.22768	170553344	138072064	110778880	33184
397	0.197849	170553344	138072064	111043800	33184
398	0.209351	170553344	138072064	111309312	33184
399	0.237266	170553344	138072064	111575504	33184
400	0.202214	170553344	138072064	111842272	33184
401	0.206439	170553344	138072064	112109728	33184
402	0.410529	170553344	138072064	112377752	33184
403	0.231553	170553344	138072064	112646408	33184
404	0.210202	170553344	138072064	112915688	33184
405	0.241448	170553344	138072064	113185600	33184
406	0.205551	170553344	138072064	113456144	33184
407	0.213709	170553344	138072064	113727312	33184
408	0.240381	170553344	138072064	113999136	33184
409	0.205428	170553344	138072064	114271560	33184
410	0.214664	170553344	138072064	114544648	33184
411	0.245309	170553344	138072064	114818328	33184
412	0.208601	170553344	138072064	115092680	33184
413	0.215107	170553344	138072064	115367616	33184
414	0.240106	170553344	138072064	115643240	33184
415	0.212244	170553344	138072064	115919432	33184
416	0.217246	170553344	138072064	116196104	33184
417	0.264755	170553344	138072064	116472912	33184
418	6.023611	171905024	139120640	103908856	33184
419	0.392244	171905024	139120640	104186928	33184
420	0.218603	171905024	139120640	104465616	33184
421	0.244633	171905024	139120640	104744976	33184
422	0.203918	171905024	139120640	105024920	33184
423	0.22587	171905024	139120640	105305544	33184
424	0.412762	171905024	139120640	105586744	33184
425	0.239432	171905024	139120640	105868632	33184
426	0.224797	171905024	139120640	106151088	33184
427	0.245347	171905024	139644928	106434176	33184
428	0.215947	171905024	139644928	106717888	33184
429	0.222645	171905024	139644928	107002240	33184
430	0.22394	171905024	139644928	107287208	33184
431	0.237534	172175360	139644928	107572832	33184
432	0.216955	172175360	139644928	107859056	33184
433	0.222947	172175360	139644928	108145944	33184
434	0.241713	172175360	139644928	108433424	33184
435	0.220392	172175360	139644928	108721576	33184
436	0.227581	172175360	139644928	109010312	33184
437	0.258512	172175360	139644928	109299736	33184
438	0.26725	172175360	139644928	109589728	33184
439	0.231472	172175360	139644928	109880352	33184
440	0.262231	172445696	139644928	110171600	33184
441	0.226679	172445696	139644928	110463488	33184
442	0.224765	172445696	139644928	110755992	33184
443	0.231672	172445696	139644928	111049144	33184
444	0.23006	172445696	139644928	111342904	33184
445	0.243633	172445696	140169216	111637328	33184
446	0.235651	172445696	140169216	111932344	33184
447	0.268584	172445696	140169216	112228040	33184
448	0.229629	172445696	140169216	112524160	33184
449	0.233017	172716032	140169216	112820488	33184
450	0.235024	172716032	140169216	113117376	33184
451	0.252728	172716032	140169216	113414896	33184
452	0.257511	172716032	140169216	113713040	33184
453	0.258931	172716032	140169216	114011824	33184
454	0.280961	172716032	140169216	114311224	33184
455	0.235245	172716032	140169216	114611280	33184
456	0.233952	172716032	140169216	114911936	33184
457	0.241125	172716032	140169216	115213240	33184
458	0.238618	172986368	140169216	115515152	33184
459	0.232343	172986368	140169216	115817696	33184
460	0.240753	172986368	140169216	116120896	33184
461	0.239829	172986368	140169216	116424696	33184
462	0.29657	172986368	140693504	116729184	33184
463	0.237665	172986368	140693504	117034240	33184
464	0.243964	172986368	140693504	117339920	33184
465	0.244912	172986368	140693504	117646232	33184
466	0.301037	172986368	140693504	117953184	33184
467	0.239017	173256704	140693504	118260752	33184
468	0.244298	173256704	140693504	118568968	33184
469	0.244455	173256704	140693504	118877792	33184
470	0.247413	173256704	140693504	119187272	33184
471	0.245814	173256704	140693504	119497352	33184
472	0.242489	173256704	140693504	119808072	33184
473	5.956303	175149056	142790656	107125632	33184
474	0.480743	175149056	142790656	107437592	33184
475	0.246206	175149056	142790656	107750256	33184
476	0.276903	175149056	142790656	108063488	33184
477	0.236135	175149056	142790656	108377336	33184
478	0.240696	175149056	142790656	108691824	33184
479	0.244427	175149056	142790656	109006928	33184
480	0.244053	175419392	142790656	109322536	33184
481	0.236779	175419392	142790656	109638256	33184
482	0.239511	175419392	142790656	109954640	33184
483	0.2427	175419392	142790656	110271616	33184
484	0.277372	175419392	142790656	110589256	33184
485	0.243758	175419392	142790656	110907536	33184
486	0.425095	175419392	142790656	111226392	33184
487	0.269529	175419392	142790656	111545880	33184
488	0.245576	175689728	142790656	111865992	33184
489	0.301483	175689728	143314944	112186744	33184
490	0.24217	175689728	143314944	112508112	33184
491	0.252689	175689728	143314944	112830128	33184
492	0.251266	175689728	143314944	113152752	33184
493	0.248242	175689728	143314944	113476040	33184
494	0.24384	175689728	143314944	113799920	33184
495	0.251318	175689728	143314944	114124432	33184
496	0.256758	175960064	143314944	114449616	33184
497	0.252677	175960064	143314944	114775384	33184
498	0.283931	175960064	143314944	115101832	33184
499	0.278585	175960064	143314944	115428856	33184
500	0.269371	175960064	143314944	115756520	33184
501	0.322108	175960064	143314944	116084800	33184
502	0.276319	175960064	143314944	116413704	33184
503	0.252748	175960064	143314944	116743256	33184
504	0.25073	176230400	143314944	117073416	33184
505	0.282531	176230400	143839232	117404240	33184
506	0.26015	176230400	143839232	117735656	33184
507	0.258431	176230400	143839232	118067808	33184
508	0.25814	176230400	143839232	118400528	33184
509	0.256557	176230400	143839232	118733832	33184
510	0.264077	176230400	143839232	119067816	33184
511	0.265403	176230400	143839232	119402376	33184
512	0.295747	176500736	143839232	119737824	33184
513	0.26316	176500736	143839232	120073336	33184
514	0.257964	176500736	143839232	120409472	33184
515	0.269279	176500736	143839232	120746296	33184
516	0.265501	176500736	143839232	121083688	33184
517	0.296854	176500736	143839232	121421512	33184
518	0.2643	176500736	143839232	121760048	33184
519	0.281547	176500736	143839232	122099352	33184
520	0.270185	176771072	143839232	122439376	33184
521	0.289418	176771072	144363520	122780472	33184
522	0.30553	176771072	144363520	123122352	33184
523	0.454763	176771072	144363520	123464928	33184
524	6.165362	178393088	146460672	110758832	33184
525	0.340068	178663424	146460672	111103160	33184
526	0.269276	178663424	146460672	111447960	33184
527	0.301633	178663424	146460672	111793496	33184
528	0.266853	178663424	146460672	112139800	33184
529	0.310911	178663424	146460672	112486856	33184
530	0.271332	178663424	146460672	112834608	33184
531	0.271169	178663424	146460672	113183160	33184
532	0.304592	178663424	146460672	113532392	33184
533	0.2693	178933760	146460672	113882376	33184
534	0.262814	178933760	146460672	114233120	33184
535	0.266422	178933760	146460672	114584576	33184
536	0.280677	178933760	146460672	114936824	33184
537	0.304724	178933760	146460672	115289760	33184
538	0.27182	178933760	146460672	115643480	33184
539	0.31012	178933760	146460672	115997944	33184
540	0.269452	178933760	146460672	116353096	33184
541	0.286087	179204096	146460672	116709024	33184
542	0.284344	179204096	146460672	117065656	33184
543	0.314667	179204096	146460672	117423056	33184
544	0.309889	179204096	146460672	117781096	33184
545	0.277779	179204096	146460672	118139312	33184
546	0.30596	179204096	146984960	118498272	33184
547	0.275986	179204096	146984960	118858000	33184
548	0.296867	179474432	146984960	119218432	33184
549	0.284322	179474432	146984960	119579664	33184
550	0.283943	179474432	146984960	119941640	33184
551	0.316974	179474432	146984960	120304296	33184
552	0.284559	179474432	146984960	120667728	33184
553	0.345131	179474432	146984960	121031864	33184
554	0.309842	179474432	146984960	121396792	33184
555	0.285987	179474432	146984960	121762464	33184
556	0.293507	179744768	146984960	122135616	33184
557	0.291916	179744768	146984960	122502728	33184
558	0.324086	179744768	146984960	122870592	33184
559	0.290335	179744768	146984960	123239168	33184
560	0.291818	179744768	146984960	123608480	33184
561	0.31036	179744768	147509248	123978592	33184
562	0.292797	179744768	147509248	124349384	33184
563	0.324109	180015104	147509248	124720976	33184
564	0.333213	180015104	147509248	125093264	33184
565	0.328788	180015104	147509248	125466280	33184
566	0.29807	180015104	147509248	125840072	33184
567	0.298238	180015104	147509248	126214568	33184
568	0.299676	180015104	147509248	126589808	33184
569	6.278639	181907456	149606400	114027360	33184
570	0.549522	181907456	149606400	114404088	33184
571	0.297783	181907456	149606400	114781560	33184
572	0.296503	181907456	149606400	115159752	33184
573	0.287935	181907456	149606400	115538696	33184
574	0.303902	181907456	149606400	115918416	33184
575	0.30262	182177792	149606400	116298832	33184
576	0.299374	182177792	149606400	116679920	33184
577	0.301263	182177792	149606400	117061240	33184
578	0.300122	182177792	149606400	117443232	33184
579	0.296928	182177792	149606400	117826128	33184
580	0.299908	182177792	149606400	118209664	33184
581	0.357809	182177792	149606400	118593880	33184
582	0.293715	182448128	149606400	118978840	33184
583	0.311046	182448128	149606400	119364544	33184
584	0.303726	182448128	149606400	119750976	33184
585	0.332548	182448128	150130688	120138192	33184
586	0.307328	182448128	150130688	120526160	33184
587	0.305804	182448128	150130688	120914816	33184
588	0.305037	182448128	150130688	121304248	33184
589	0.352381	182718464	150130688	121694384	33184
590	0.302586	182718464	150130688	122085272	33184
591	0.303762	182718464	150130688	122476888	33184
592	0.510178	182718464	150130688	122869272	33184
593	0.319269	182718464	150130688	123262408	33184
594	0.324009	182718464	150130688	123656240	33184
595	0.314746	182718464	150130688	124050832	33184
596	0.317741	182988800	150130688	124446144	33184
597	0.311815	182988800	150130688	124842200	33184
598	0.338933	182988800	150654976	125238992	33184
599	0.316226	182988800	150654976	125636552	33184
600	0.31251	182988800	150654976	126034824	33184
601	0.317958	182988800	150654976	126433872	33184
602	0.339689	182988800	150654976	126833632	33184
603	0.339803	183259136	150654976	127234136	33184
604	0.314438	183259136	150654976	127635368	33184
605	0.316117	183259136	150654976	128037376	33184
606	0.314928	183259136	150654976	128440128	33184
607	0.315571	183259136	150654976	128843584	33184
608	0.315552	183259136	150654976	129247720	33184
609	0.317253	183529472	150654976	129652080	33184
610	0.322105	183529472	150654976	130057112	33184
611	6.540332	185421824	152752128	117758176	33184
612	0.407079	185421824	152752128	118164712	33184
613	0.326247	185421824	152752128	118571968	33184
614	0.334051	185421824	152752128	118979968	33184
615	0.324517	185421824	152752128	119388736	33184
616	0.326501	185421824	152752128	119798224	33184
617	0.328673	185421824	152752128	120208440	33184
618	0.375043	185692160	153276416	120619416	33184
619	0.326602	185692160	153276416	121031152	33184
620	0.326069	185692160	153276416	121443584	33184
621	0.32786	185692160	153276416	121856912	33184
622	0.324583	185692160	153276416	122270832	33184
623	0.322523	185692160	153276416	122685512	33184
624	0.325329	185962496	153276416	123100904	33184
625	0.326887	185962496	153276416	123517072	33184
626	0.339614	185962496	153276416	123933960	33184
627	0.327331	185962496	153276416	124351600	33184
628	0.381232	185962496	153276416	124769952	33184
629	0.343816	185962496	153276416	125189080	33184
630	0.347757	185962496	153800704	125608824	33184
631	0.323209	186232832	153800704	126029280	33184
632	0.330773	186232832	153800704	126450424	33184
633	0.349537	186232832	153800704	126872360	33184
634	0.336442	186232832	153800704	127294976	33184
635	0.344279	186232832	153800704	127718296	33184
636	0.339956	186232832	153800704	128142392	33184
637	0.350138	186503168	153800704	128567216	33184
638	0.53797	186503168	153800704	128992712	33184
639	0.370001	186503168	153800704	129418928	33184
640	0.339897	186503168	153800704	129845872	33184
641	0.350932	186503168	153800704	130272952	33184
642	0.350674	186503168	153800704	130700760	33184
643	0.371122	186773504	154324992	131129232	33184
644	0.344398	186773504	154324992	131558464	33184
645	0.354212	186773504	154324992	131988424	33184
646	0.34548	186773504	154324992	132418968	33184
647	0.350928	186773504	154324992	132850248	33184
648	0.69529	186773504	154324992	133282264	33184
649	6.668134	188936192	156422144	121270648	33184
650	0.94654	188936192	156422144	121704176	33184
651	0.376084	188936192	156422144	122138440	33184
652	0.343176	188936192	156422144	122573416	33184
653	0.349914	188936192	156422144	123009136	33184
654	0.343172	188936192	156422144	123445616	33184
655	0.347584	189206528	156422144	123882832	33184
656	0.347749	189206528	156422144	124320768	33184
657	0.341083	189206528	156422144	124759464	33184
658	0.346841	189206528	156422144	125198928	33184
659	0.374961	189206528	156946432	125639088	33184
660	0.384333	189206528	156946432	126080016	33184
661	0.352029	189476864	156946432	126521656	33184
662	0.349316	189476864	156946432	126963960	33184
663	0.353207	189476864	156946432	127406992	33184
664	0.350911	189476864	156946432	127850728	33184
665	0.357532	189476864	156946432	128295208	33184
666	0.36029	189476864	156946432	128740568	33184
667	0.581444	189747200	156946432	129186688	33184
668	0.568856	189747200	156946432	129634552	33184
669	0.407563	189747200	156946432	130082984	33184
670	0.569434	189747200	156946432	130531496	33184
671	0.435651	189747200	157470720	130980448	33184
672	0.432002	189747200	157470720	131432656	33184
673	0.381579	190017536	157470720	131882424	33184
674	0.371662	190017536	157470720	132332920	33184
675	0.41471	190017536	157470720	132784176	33184
676	0.547442	190017536	157470720	133236200	33184
677	0.387108	190017536	157470720	133688920	33184
678	0.361268	190017536	157470720	134142272	33184
679	0.362373	190287872	157470720	134596368	33184
680	0.358996	190287872	157470720	135051240	33184
681	0.360984	190287872	157470720	135506856	33184
682	0.391064	190287872	157995008	135963224	33184
683	0.410805	190287872	157995008	136420296	33184
684	0.398183	190287872	157995008	136878088	33184
685	6.939445	192450560	160092160	125068480	33184
686	0.493218	192450560	160092160	125527848	33184
687	0.368697	192720896	160092160	125987904	33184
688	0.568486	192720896	160092160	126448696	33184
689	0.389027	192720896	160092160	126910256	33184
690	0.363334	192720896	160092160	127372520	33184
691	0.362285	192720896	160092160	127835496	33184
692	0.368388	192720896	160092160	128299208	33184
693	0.369932	192991232	160092160	128763720	33184
694	0.389532	192991232	160616448	129228936	33184
695	0.372322	192991232	160616448	129694920	33184
696	0.370405	192991232	160616448	130161592	33184
697	0.406508	192991232	160616448	130629088	33184
698	0.395448	192991232	160616448	131097280	33184
699	0.374426	193261568	160616448	131566216	33184
700	0.452247	193261568	160616448	132035848	33184
701	0.387772	193261568	160616448	132506456	33184
702	0.382361	193261568	160616448	132977568	33184
703	0.375962	193261568	160616448	133449440	33184
704	0.373685	193261568	160616448	133922104	33184
705	0.377626	193531904	160616448	134394824	33184
706	0.428848	193531904	161140736	134868312	33184
707	0.402165	193531904	161140736	135342488	33184
708	0.379565	193531904	161140736	135817424	33184
709	0.382303	193531904	161140736	136293120	33184
710	0.380358	193531904	161140736	136769560	33184
711	0.383342	193802240	161140736	137246704	33184
712	0.390874	193802240	161140736	137724624	33184
713	0.392289	193802240	161140736	138203240	33184
714	0.387718	193802240	161140736	138682632	33184
715	0.425116	193802240	161140736	139162768	33184
716	0.411321	193802240	161140736	139643632	33184
717	0.408783	194072576	161665024	140125272	33184
718	6.914333	196235264	164286464	128443792	33184
719	0.709356	196235264	164286464	128926856	33184
720	0.395852	196235264	164286464	129410664	33184
721	0.38792	196235264	164286464	129895256	33184
722	0.390433	196235264	164286464	130380528	33184
723	0.394791	196505600	164286464	130866616	33184
724	0.395756	196505600	164286464	131353408	33184
725	0.390431	196505600	164286464	131840944	33184
726	0.433351	196505600	164286464	132329176	33184
727	0.584732	196505600	164286464	132818184	33184
728	0.393239	196505600	164286464	133307896	33184
729	0.38844	196775936	164286464	133798352	33184
730	0.390457	196775936	164286464	134289608	33184
731	0.395589	196775936	164286464	134781568	33184
732	0.39429	196775936	164286464	135274296	33184
733	0.394298	196775936	164286464	135767728	33184
734	0.403614	197046272	164286464	136261936	33184
735	0.43424	197046272	164286464	136756840	33184
736	0.418612	197046272	164286464	137252496	33184
737	0.394679	197046272	164286464	137748280	33184
738	0.420217	197046272	164810752	138244752	33184
739	0.408436	197046272	164810752	138741968	33184
740	0.401919	197316608	164810752	139239960	33184
741	0.410825	197316608	164810752	139738720	33184
742	0.412657	197316608	164810752	140238184	33184
743	0.405668	197316608	164810752	140738424	33184
744	0.452522	197316608	164810752	141239336	33184
745	0.400076	197586944	164810752	141741064	33184
746	0.403102	197586944	164810752	142243456	33184
747	0.408193	197586944	164810752	142746640	33184
748	0.418046	197586944	164810752	143250528	33184
749	0.439589	197586944	165335040	143755184	33184
750	7.280775	200019968	167956480	132227488	33184
751	0.744816	200019968	167956480	132733624	33184
752	0.41835	200019968	167956480	133240456	33184
753	0.412895	200019968	167956480	133748064	33184
754	0.438241	200019968	167956480	134256376	33184
755	0.442627	200019968	167956480	134765456	33184
756	0.428071	200290304	167956480	135275312	33184
757	0.40954	200290304	167956480	135785944	33184
758	0.409798	200290304	167956480	136297216	33184
759	0.416443	200290304	167956480	136809312	33184
760	0.415618	200290304	167956480	137322072	33184
761	0.413273	200560640	167956480	137835576	33184
762	0.432718	200560640	167956480	138349856	33184
763	0.441097	200560640	167956480	138864840	33184
764	0.419607	200560640	167956480	139380592	33184
765	0.417037	200560640	167956480	139897112	33184
766	0.429496	200560640	167956480	140414336	33184
767	0.425341	200830976	167956480	140932336	33184
768	0.446934	200830976	168480768	141451056	33184
769	0.422075	200830976	168480768	141969928	33184
770	0.41969	200830976	168480768	142489440	33184
771	0.464762	200830976	168480768	143009696	33184
772	0.422631	201101312	168480768	143530704	33184
773	0.434402	201101312	168480768	144052488	33184
774	0.452985	201101312	168480768	144574976	33184
775	0.440835	201101312	168480768	145098232	33184
776	0.423834	201101312	168480768	145622192	33184
777	0.429538	201371648	168480768	146146928	33184
778	0.427297	201371648	168480768	146672360	33184
779	0.480744	201371648	169005056	147198552	33184
780	0.444726	201371648	169005056	147725464	33184
781	7.71531	203804672	171626496	136343920	33184
782	0.532395	203804672	171626496	136872376	33184
783	0.430342	203804672	171626496	137401528	33184
784	0.436162	203804672	171626496	137931456	33184
785	0.429382	203804672	171626496	138462088	33184
786	0.453296	204075008	171626496	138993488	33184
787	0.449827	204075008	171626496	139525592	33184
788	0.454481	204075008	171626496	140058424	33184
789	0.45904	204075008	171626496	140592008	33184
790	0.458001	204075008	171626496	141126328	33184
791	0.480444	204345344	171626496	141661440	33184
792	0.451017	204345344	171626496	142197248	33184
793	0.427772	204345344	171626496	142733848	33184
794	0.475239	204345344	171626496	143271144	33184
795	0.437587	204345344	171626496	143809216	33184
796	0.670095	204615680	172150784	144347992	33184
797	0.462067	204615680	172150784	144887536	33184
798	0.441915	204615680	172150784	145427784	33184
799	0.44286	204615680	172150784	145968808	33184
800	0.451199	204615680	172150784	146510600	33184
801	0.470446	204615680	172150784	147052456	33184
802	0.461178	204886016	172150784	147595016	33184
803	0.443398	204886016	172150784	148138344	33184
804	0.495444	204886016	172150784	148682384	33184
805	0.446553	204886016	172150784	149227184	33184
806	0.483749	204886016	172675072	149772696	33184
807	0.444549	205156352	172675072	150318960	33184
808	0.446434	205156352	172675072	150865984	33184
809	0.448803	205156352	172675072	151413728	33184
810	7.614388	207491072	175296512	140154104	33184
811	0.623306	207491072	175296512	140703336	33184
812	0.449003	207761408	175296512	141253336	33184
813	0.526365	207761408	175296512	141804040	33184
814	0.482791	207761408	175296512	142355512	33184
815	0.472184	207761408	175296512	142907688	33184
816	0.448626	207761408	175296512	143460640	33184
817	0.456529	208031744	175296512	144014360	33184
818	0.475569	208031744	175296512	144568784	33184
819	0.467772	208031744	175296512	145123984	33184
820	0.471998	208031744	175296512	145679880	33184
821	0.510224	208031744	175820800	146236552	33184
822	0.459291	208302080	175820800	146793928	33184
823	0.686267	208302080	175820800	147352072	33184
824	0.476285	208302080	175820800	147910920	33184
825	0.458069	208302080	175820800	148470536	33184
826	0.455837	208302080	175820800	149030856	33184
827	0.813053	208572416	175820800	149591952	33184
828	0.48461	208572416	175820800	150153744	33184
829	0.462239	208572416	175820800	150716312	33184
830	0.467729	208572416	175820800	151279584	33184
831	0.516491	208572416	176345088	151843624	33184
832	0.484048	208842752	176345088	152408512	33184
833	0.467635	208842752	176345088	152973392	33184
834	0.50378	208842752	176345088	153539040	33184
835	0.479144	208842752	176345088	154105400	33184
836	0.464398	208842752	176345088	154672656	33184
837	0.476693	211275776	178966528	143450856	33184
838	0.923853	211275776	178966528	144019448	33184
839	0.470693	211546112	178966528	144588752	33184
840	0.472571	211546112	178966528	145158824	33184
841	0.497495	211546112	178966528	145729600	33184
842	0.522162	211546112	178966528	146301144	33184
843	0.482566	211546112	178966528	146873400	33184
844	0.472177	211816448	178966528	147446424	33184
845	0.498779	211816448	179490816	148020216	33184
846	0.465187	211816448	179490816	148594712	33184
847	0.471093	211816448	179490816	149169984	33184
848	0.46923	212086784	179490816	149745952	33184
849	0.490049	212086784	179490816	150322696	33184
850	0.503771	212086784	179490816	150910488	33184
851	0.477134	212086784	179490816	151488704	33184
852	0.488858	212086784	179490816	152067624	33184
853	0.493895	212357120	179490816	152647320	33184
854	0.546254	212357120	179490816	153227712	33184
855	0.521509	212357120	180015104	153808880	33184
856	0.50477	212357120	180015104	154390752	33184
857	0.713952	212357120	180015104	154973408	33184
858	0.486113	212627456	180015104	155556776	33184
859	0.508634	212627456	180015104	156140896	33184
860	0.499759	212627456	180015104	156725784	33184
861	0.484462	212627456	180015104	157311456	33184
862	0.510959	212627456	180015104	157897824	33184
863	0.533221	212897792	180015104	158484928	33184
864	7.57918	215060480	183160832	147336824	33184
865	0.940087	215330816	183160832	147924760	33184
866	0.489399	215330816	183160832	148513416	33184
867	0.484717	215330816	183160832	149102824	33184
868	0.503957	215330816	183160832	149692960	33184
869	0.501403	215601152	183160832	150283864	33184
870	0.485178	215601152	183160832	150875488	33184
871	0.501194	215601152	183160832	151467880	33184
872	0.515954	215601152	183160832	152060976	33184
873	0.490467	215601152	183160832	152654848	33184
874	0.505304	215871488	183160832	153249416	33184
875	0.526658	215871488	183160832	153844760	33184
876	0.501105	215871488	183160832	154440808	33184
877	0.51059	215871488	183160832	155037624	33184
878	0.529897	215871488	183685120	155635144	33184
879	0.505525	216141824	183685120	156233432	33184
880	0.509716	216141824	183685120	156832424	33184
881	0.513467	216141824	183685120	157432192	33184
882	0.502445	216141824	183685120	158032728	33184
883	0.51063	216412160	183685120	158633968	33184
884	0.514703	216412160	183685120	159235984	33184
885	0.496074	216412160	183685120	159838696	33184
886	0.700447	216412160	183685120	160442184	33184
887	0.713182	216412160	184209408	161046360	33184
888	0.707085	216682496	184209408	161651288	33184
889	0.611956	216682496	184209408	162257024	33184
890	10.407204	219115520	186830848	151253448	33184
891	1.181311	219115520	186830848	151860688	33184
892	0.729682	219115520	186830848	152468600	33184
893	0.783572	219385856	186830848	153077280	33184
894	0.72966	219385856	186830848	153686664	33184
895	0.765145	219385856	186830848	154296816	33184
896	1.035498	219385856	186830848	154907816	33184
897	1.043628	219656192	186830848	155518816	33184
898	1.185287	219656192	186830848	156130504	33184
899	1.140429	219656192	186830848	156742976	33184
900	1.696209	219656192	187355136	157356144	33184
901	1.268691	219656192	187355136	157970088	33184
902	1.125286	219926528	187355136	158584728	33184
903	1.15668	219926528	187355136	159200136	33184
904	1.446783	219926528	187355136	159816296	33184
905	1.347568	219926528	187355136	160433248	33184
906	1.476589	219926528	187355136	161050840	33184
907	1.424362	220196864	187355136	161669208	33184
908	1.569491	220196864	187879424	162288344	33184
909	1.719008	220196864	187879424	162908184	33184
910	1.641673	220196864	187879424	163528792	33184
911	1.713871	220467200	187879424	164150112	33184
912	1.61768	220467200	187879424	164772192	33184
913	1.827136	220467200	187879424	165394984	33184
914	1.697283	220467200	187879424	166018544	33184
915	1.948644	220467200	187879424	166642800	33184
916	13.377632	223170560	190500864	155703648	33184
917	2.209633	223170560	190500864	156329456	33184
918	2.411129	223170560	190500864	156955968	33184
919	2.461577	223170560	190500864	157583248	33184
920	2.333232	223440896	191025152	158211232	33184
921	2.771884	223440896	191025152	158839984	33184
922	2.927266	223440896	191025152	159469448	33184
923	2.51394	223440896	191025152	160099672	33184
924	2.852324	223711232	191025152	160730608	33184
925	2.935361	223711232	191025152	161362544	33184
926	3.077247	223711232	191025152	161995024	33184
927	3.03903	223711232	191025152	162628208	33184
928	3.32756	223711232	191025152	163262224	33184
929	3.504682	223981568	191549440	163896240	33184
930	2.990482	223981568	191549440	164530960	33184
931	3.412493	223981568	191549440	165166448	33184
932	3.750393	223981568	191549440	165802640	33184
933	3.589501	224251904	191549440	166439600	33184
934	3.722463	224251904	191549440	167077288	33184
935	3.589637	224251904	191549440	167715872	33184
936	13.713141	172892160	137023488	88960168	33184
937	1.167121	156639232	137023488	89600400	33184
938	0.894809	156639232	137023488	90241080	33184
939	0.736748	156639232	137023488	90882472	33184
940	0.720757	156639232	137023488	91524624	33184
941	0.658777	156639232	137023488	92167488	33184
942	0.633773	156639232	137023488	92811120	33184
943	0.619061	156639232	137023488	93455480	33184
944	8.655251	157716480	137547776	80536960	33184
945	1.227288	158257152	137547776	81182848	33184
946	0.72241	159068160	137547776	81829440	33184
947	0.716644	159608832	137547776	82476792	33184
948	0.727889	160149504	137547776	83124848	33184
949	0.722717	160690176	137547776	83773680	33184
950	0.713773	161230848	137547776	84423208	33184
951	0.723289	161771520	137547776	85073512	33184
952	0.715232	162582528	137547776	85724520	33184
953	0.960348	163123200	137547776	86376320	33184
954	0.680186	163663872	137547776	87028800	33184
955	0.647555	164204544	137547776	87682048	33184
956	0.671275	164745216	137547776	88336008	33184
957	0.648087	165285888	137547776	88990728	33184
958	0.680486	166096896	137547776	89646160	33184
959	0.667152	166637568	137547776	90302424	33184
960	0.653449	167178240	137547776	90959640	33184
961	0.676686	167718912	137547776	91616680	33184
962	0.649876	168259584	137547776	92274488	33184
963	0.682155	168800256	137547776	92933000	33184
964	0.674886	169611264	137547776	93592280	33184
965	0.686588	170151936	137547776	94252264	33184
966	0.555724	170151936	137547776	94913048	33184
967	0.579302	170151936	137547776	95574512	33184
968	0.549587	170151936	137547776	96236744	33184
969	0.53177	170151936	137547776	96899680	33184
970	0.73484	170151936	137547776	97563384	33184
971	6.062322	170962944	138596352	85518520	33184
972	0.877356	170962944	138596352	86183696	33184
973	0.700672	170962944	138596352	86849632	33184
974	0.555135	170962944	138596352	87516336	33184
975	0.550462	170962944	138596352	88183760	33184
976	0.555268	170962944	138596352	88851888	33184
977	0.544355	170962944	138596352	89520792	33184
978	0.545742	170962944	138596352	90190392	33184
979	0.56039	170962944	138596352	90860800	33184
980	0.727722	170962944	138596352	91531880	33184
981	0.537063	170962944	138596352	92203728	33184
982	0.580516	170962944	138596352	92876280	33184
983	0.549147	170962944	138596352	93549600	33184
984	0.558828	170962944	138596352	94223632	33184
985	0.557322	170962944	138596352	94898456	33184
986	0.573394	170962944	138596352	95574024	33184
987	0.566821	170962944	138596352	96250304	33184
988	0.570809	170962944	138596352	96927344	33184
989	0.557105	170962944	138596352	97605096	33184
990	0.572439	170962944	138596352	98283640	33184
991	0.570853	170962944	138596352	98962864	33184
992	0.572427	170962944	138596352	99643000	33184
993	8.677285	173666304	141742080	89168912	33184
994	0.983708	173666304	141742080	89849744	33184
995	0.565984	173666304	141742080	90531344	33184
996	0.577567	173666304	141742080	91213680	33184
997	0.767937	173666304	141742080	91896760	33184
998	0.61896	173666304	141742080	92580536	33184
999	0.568644	173666304	141742080	93265088	33184
1000	0.570577	173666304	141742080	93950344	33184
