x	Duration	RSS	HeapTotal	HeapUsed	External
0	NA	164663296	132829184	91555280	33184
1	0.048887	164663296	132829184	91564304	33184
2	0.033452	164663296	132829184	91574312	33184
3	0.028546	164663296	132829184	91584824	33184
4	0.034773	164663296	132829184	91595960	33184
5	0.027614	164663296	132829184	91607752	33184
6	0.028043	164663296	132829184	91620168	33184
7	0.027409	164663296	132829184	91633240	33184
8	0.065106	164663296	132829184	91650008	33184
9	0.041196	164663296	132829184	91666048	33184
10	0.036289	164663296	132829184	91682552	33184
11	0.035831	164663296	132829184	91699952	33184
12	0.035805	164663296	132829184	91718072	33184
13	0.03598	164663296	132829184	91736912	33184
14	0.036286	164663296	132829184	91756472	33184
15	0.036927	164663296	132829184	91776752	33184
16	0.039217	164663296	132829184	91798064	33184
17	0.041511	164663296	132829184	91820576	33184
18	0.043651	164663296	132829184	91843912	33184
19	0.0423	164663296	132829184	91868336	33184
20	0.043969	164663296	132829184	91893024	33184
21	0.043782	164663296	132829184	91918504	33184
22	0.047157	164663296	132829184	91944096	33184
23	0.04666	164663296	132829184	91971192	33184
24	0.045989	164663296	132829184	91999184	33184
25	0.048531	164663296	132829184	92027960	33184
26	0.054072	164663296	132829184	92057336	33184
27	0.050115	164663296	132829184	92087336	33184
28	0.049754	164663296	132829184	92118072	33184
29	0.049727	164663296	132829184	92149552	33184
30	0.050759	164663296	132829184	92181768	33184
31	0.050544	164663296	132829184	92214728	33184
32	0.052705	164663296	132829184	92248032	33184
33	0.052647	164663296	132829184	92281856	33184
34	0.053202	164663296	132829184	92316416	33184
35	0.054645	164663296	132829184	92351720	33184
36	0.054682	164663296	132829184	92387760	33184
37	0.056583	164663296	132829184	92424640	33184
38	0.057979	164663296	132829184	92462040	33184
39	0.062301	164663296	132829184	92500144	33184
40	0.059852	164663296	132829184	92538840	33184
41	0.059368	164663296	132829184	92578264	33184
42	0.059342	164663296	132829184	92618488	33184
43	0.059817	164663296	132829184	92659520	33184
44	0.060788	164663296	132829184	92701352	33184
45	0.061653	164663296	132829184	92744664	33184
46	0.060531	164663296	132829184	92788104	33184
47	0.061711	164663296	132829184	92832352	33184
48	0.062795	164663296	132829184	92877424	33184
49	0.245012	164663296	132829184	92923304	33184
50	0.06802	164663296	132829184	92970064	33184
51	0.064521	164663296	132829184	93017552	33184
52	0.065012	164663296	132829184	93065840	33184
53	0.050692	164663296	132829184	93114736	33184
54	0.050575	164663296	132829184	93164336	33184
55	0.050716	164663296	132829184	93214752	33184
56	0.051024	164663296	132829184	93265784	33184
57	0.055983	164663296	132829184	93317656	33184
58	0.053397	164663296	132829184	93370152	33184
59	0.053328	164663296	132829184	93423280	33184
60	0.054596	164663296	132829184	93477032	33184
61	0.062438	164663296	132829184	93531416	33184
62	0.059077	164663296	132829184	93586432	33184
63	0.060336	164663296	132829184	93642072	33184
64	0.059901	164663296	132829184	93697968	33184
65	0.062511	164990976	132829184	93754248	33184
66	0.060482	164990976	132829184	93811152	33184
67	0.060015	164990976	132829184	93868688	33184
68	0.066337	164990976	132829184	93926848	33184
69	0.062011	164990976	132829184	93985616	33184
70	0.061502	164990976	132829184	94045120	33184
71	0.061711	164990976	132829184	94105328	33184
72	0.068641	164990976	132829184	94166104	33184
73	0.062838	164990976	132829184	94227544	33184
74	0.063421	164990976	132829184	94289608	33184
75	0.06618	164990976	132829184	94352304	33184
76	0.064683	164990976	132829184	94415624	33184
77	0.064815	164990976	132829184	94479576	33184
78	0.071231	164990976	132829184	94544152	33184
79	0.065393	164990976	132829184	94609360	33184
80	0.069451	164990976	132829184	94675464	33184
81	0.080638	164990976	132829184	94741952	33184
82	0.073507	164990976	132829184	94809064	33184
83	0.091866	164990976	132829184	94877960	33184
84	0.098672	164990976	132829184	94947384	33184
85	0.076666	164990976	132829184	95016280	33184
86	0.082761	164990976	132829184	95085696	33184
87	0.069349	164990976	132829184	95155952	33184
88	0.068905	164990976	132829184	95226840	33184
89	0.074766	164990976	132829184	95298536	33184
90	0.070018	164990976	132829184	95370712	33184
91	0.069586	164990976	132829184	95443520	33184
92	0.070357	164990976	132829184	95516952	33184
93	0.071656	164990976	132829184	95591016	33184
94	0.075829	164990976	132829184	95665704	33184
95	0.073091	164990976	132829184	95741024	33184
96	0.074519	164990976	132829184	95816616	33184
97	0.073875	164990976	132829184	95892576	33184
98	0.073167	164990976	132829184	95969160	33184
99	0.077811	164990976	132829184	96046376	33184
100	0.075901	164990976	132829184	96124216	33184
101	0.075664	164990976	132829184	96202664	33184
102	0.075095	164990976	132829184	96281656	33184
103	0.075713	164990976	132829184	96361288	33184
104	0.082673	164990976	132829184	96441592	33184
105	0.078711	164990976	132829184	96522520	33184
106	0.078474	164990976	132829184	96604072	33184
107	0.077994	164990976	132829184	96686256	33184
108	0.082738	164990976	132829184	96769064	33184
109	0.080491	164990976	132829184	96852504	33184
110	0.079557	164990976	132829184	96936568	33184
111	0.081133	164990976	132829184	97021272	33184
112	0.081581	164990976	132829184	97106616	33184
113	0.086292	164990976	132829184	97192592	33184
114	0.081237	164990976	132829184	97279192	33184
115	0.082207	164990976	132829184	97366424	33184
116	0.082898	164990976	132829184	97454280	33184
117	0.115824	164990976	132829184	97542808	33184
118	0.088996	164990976	132829184	97631816	33184
119	0.100488	164990976	132829184	97721464	33184
120	0.085418	164990976	132829184	97811744	33184
121	0.089868	164990976	132829184	97902688	33184
122	0.086407	164990976	132829184	97994256	33184
123	0.088242	164990976	132829184	98086520	33184
124	0.087086	164990976	132829184	98179344	33184
125	0.0924	164990976	132829184	98272800	33184
126	0.089237	164990976	132829184	98366880	33184
127	0.087477	164990976	132829184	98461592	33184
128	0.089764	164990976	132829184	98556600	33184
129	0.094011	164990976	132829184	98651880	33184
130	0.08948	164990976	132829184	98747568	33184
131	0.089921	164990976	132829184	98844048	33184
132	0.096323	164990976	132829184	98941152	33184
133	0.091947	164990976	132829184	99038864	33184
134	0.09278	164990976	132829184	99137208	33184
135	0.093723	164990976	132829184	99236208	33184
136	0.09831	164990976	132829184	99335824	33184
137	0.096834	164990976	132829184	99436104	33184
138	0.095334	164990976	132829184	99537008	33184
139	0.099534	164990976	132829184	99638544	33184
140	0.097024	164990976	132829184	99740704	33184
141	0.096514	164990976	132829184	99843512	33184
142	0.098191	164990976	132829184	99948760	33184
143	0.102471	164990976	132829184	100052808	33184
144	0.098095	164990976	132829184	100157504	33184
145	0.098751	164990976	132829184	100262832	33184
146	0.129585	164990976	132829184	100368840	33184
147	0.11029	164990976	132829184	100475424	33184
148	0.119697	164990976	132829184	100582632	33184
149	0.104995	164990976	132829184	100690448	33184
150	0.101719	164990976	132829184	100799376	33184
151	0.101947	164990976	132829184	100908944	33184
152	0.101425	164990976	132829184	101019152	33184
153	0.109105	164990976	132829184	101130016	33184
154	0.104467	164990976	132829184	101241504	33184
155	0.102882	164990976	132829184	101353624	33184
156	0.107216	164990976	132829184	101466368	33184
157	0.1055	164990976	132829184	101579808	33184
158	0.105548	164990976	132829184	101693808	33184
159	0.109791	164990976	132829184	101808440	33184
160	0.106583	164990976	132829184	101923384	33184
161	0.10679	164990976	132829184	102038656	33184
162	0.112958	164990976	132829184	102154608	33184
163	0.108953	164990976	132829184	102271136	33184
164	0.110305	164990976	132829184	102388288	33184
165	0.112351	164990976	132829184	102506048	33184
166	0.111642	164990976	132829184	102624704	33184
167	0.110228	164990976	132829184	102744160	33184
168	0.116646	164990976	132829184	102864088	33184
169	0.112705	164990976	132829184	102984680	33184
170	0.110824	164990976	132829184	103105896	33184
171	0.117156	164990976	132829184	103227752	33184
172	0.120383	164990976	132829184	103350224	33184
173	0.161453	164990976	132829184	103473328	33184
174	0.126601	164990976	132829184	103597056	33184
175	0.131227	164990976	132829184	103721416	33184
176	0.121305	164990976	132829184	103846424	33184
177	0.134421	164990976	132829184	103972064	33184
178	0.120567	164990976	132829184	104098328	33184
179	0.120322	164990976	132829184	104225224	33184
180	0.116727	164990976	132829184	104352744	33184
181	0.11801	164990976	132829184	104480872	33184
182	0.122807	164990976	132829184	104609632	33184
183	0.119711	164990976	132829184	104739032	33184
184	0.118411	164990976	132829184	104869064	33184
185	0.126421	164990976	132829184	104999768	33184
186	0.122452	164990976	132829184	105131088	33184
187	0.12531	164990976	132829184	105263040	33184
188	0.121548	164990976	132829184	105395616	33184
189	7.613704	165531648	133353472	93863280	33184
190	0.236255	165531648	133353472	93997112	33184
191	0.116336	165531648	133353472	94131576	33184
192	0.12729	165531648	133353472	94266376	33184
193	0.113299	165531648	133353472	94401480	33184
194	0.119466	165531648	133353472	94537208	33184
195	0.116025	165531648	133353472	94673568	33184
196	0.115037	165531648	133353472	94810584	33184
197	0.118617	165531648	133353472	94948176	33184
198	0.121989	165531648	133353472	95086400	33184
199	0.14001	165531648	133353472	95225264	33184
200	0.120098	165531648	133353472	95364776	33184
201	0.118638	165531648	133353472	95504936	33184
202	0.122174	165531648	133353472	95645720	33184
203	0.11713	165531648	133353472	95787136	33184
204	0.122673	165531648	133353472	95929176	33184
205	0.134116	165531648	133353472	96071848	33184
206	0.139525	165531648	133353472	96215144	33184
207	0.159628	165531648	133353472	96359072	33184
208	0.119327	165531648	133353472	96503672	33184
209	0.123576	165531648	133353472	96648880	33184
210	0.11875	165531648	133353472	96794712	33184
211	0.141023	165531648	133353472	96941176	33184
212	0.124159	165531648	133353472	97088312	33184
213	0.121762	165531648	133353472	97236008	33184
214	0.12651	165531648	133353472	97384336	33184
215	0.122652	165531648	133353472	97533304	33184
216	0.128183	165531648	133353472	97682952	33184
217	0.125647	165531648	133353472	97833216	33184
218	0.127966	165531648	133353472	97984104	33184
219	0.127782	165531648	133353472	98135624	33184
220	0.126587	165531648	133353472	98287904	33184
221	0.153939	165531648	133353472	98440680	33184
222	0.132245	165531648	133353472	98594080	33184
223	0.135415	165531648	133353472	98748168	33184
224	0.131274	165531648	133353472	98902552	33184
225	0.131652	165531648	133353472	99057224	33184
226	0.129877	165531648	133353472	99212520	33184
227	0.134272	165531648	133353472	99368488	33184
228	0.131072	165531648	133353472	99525040	33184
229	0.135963	165531648	133353472	99685080	33184
230	0.130882	165531648	133353472	99842872	33184
231	0.1324	165531648	133353472	100001392	33184
232	0.138709	165531648	133353472	100160456	33184
233	0.133385	165531648	133353472	100320184	33184
234	0.14234	165531648	133353472	100480560	33184
235	0.135104	165531648	133353472	100641544	33184
236	0.139262	165531648	133353472	100803152	33184
237	0.13492	165531648	133353472	100965392	33184
238	0.142288	165531648	133353472	101128256	33184
239	0.137044	165531648	133353472	101291752	33184
240	0.14366	165531648	133353472	101455896	33184
241	0.138361	165531648	133353472	101620736	33184
242	0.140208	165531648	133353472	101786136	33184
243	0.140229	165531648	133353472	101952168	33184
244	0.180099	165531648	133353472	102118824	33184
245	0.159157	165531648	133353472	102286144	33184
246	0.147539	165531648	133353472	102454040	33184
247	0.142442	165531648	133353472	102622576	33184
248	0.147066	165531648	133353472	102791776	33184
249	0.146555	165531648	133353472	102961608	33184
250	0.147557	165531648	133353472	103132064	33184
251	0.146153	165531648	133353472	103303232	33184
252	0.150264	165531648	133353472	103474944	33184
253	0.145636	165531648	133353472	103647288	33184
254	0.149707	165531648	133353472	103820256	33184
255	0.14819	165531648	133353472	103993920	33184
256	0.150313	165531648	133353472	104168256	33184
257	0.149639	165531648	133353472	104342856	33184
258	0.15646	165531648	133353472	104518080	33184
259	0.150722	165531648	133353472	104693936	33184
260	0.153781	165531648	133353472	104870416	33184
261	0.151828	165531648	133353472	105047512	33184
262	0.155593	165531648	133353472	105225392	33184
263	0.150981	165531648	133353472	105404080	33184
264	0.15636	165531648	133353472	105583568	33184
265	0.176664	165531648	133353472	105764400	33184
266	0.189558	165531648	133353472	105946056	33184
267	0.157598	165531648	133353472	106128696	33184
268	0.156217	165531648	133353472	106312312	33184
269	0.157603	165531648	133353472	106496912	33184
270	0.155414	165531648	133353472	106682488	33184
271	0.160232	165531648	133353472	106869056	33184
272	0.157821	165531648	133353472	107056592	33184
273	0.166497	165531648	133353472	107245112	33184
274	0.163169	165531648	133353472	107434664	33184
275	0.167591	165531648	133353472	107625144	33184
276	0.161413	165531648	133353472	107816600	33184
277	0.197077	165531648	133353472	108008712	33184
278	0.165692	165531648	133353472	108201424	33184
279	0.163626	165531648	133353472	108394768	33184
280	0.168473	165531648	133353472	108588800	33184
281	0.164996	165531648	133353472	108783400	33184
282	0.170603	165531648	133353472	108978624	33184
283	0.167152	165531648	133353472	109174488	33184
284	0.207752	165531648	133353472	109370968	33184
285	0.185196	165531648	133353472	109568080	33184
286	6.708293	166072320	133877760	97392832	33184
287	0.217071	166072320	133877760	97591200	33184
288	0.162777	166072320	133877760	97789936	33184
289	0.155708	166072320	133877760	97988952	33184
290	0.194299	166072320	133877760	98188560	33184
291	0.168878	166072320	133877760	98388800	33184
292	0.157506	166072320	133877760	98589696	33184
293	0.152476	166072320	133877760	98791192	33184
294	0.15844	166072320	133877760	98993312	33184
295	0.153608	166072320	133877760	99196112	33184
296	0.161519	166072320	133877760	99399488	33184
297	0.153685	166072320	133877760	99603496	33184
298	0.159224	166072320	133877760	99808136	33184
299	0.15557	166072320	133877760	100013400	33184
300	0.163836	166072320	133877760	100219312	33184
301	0.154777	166072320	133877760	100425832	33184
302	0.163017	166072320	133877760	100632976	33184
303	0.160798	166072320	133877760	100840800	33184
304	0.162111	166072320	133877760	101049200	33184
305	0.168097	166072320	133877760	101258232	33184
306	0.172003	166072320	133877760	101467896	33184
307	0.173845	166072320	133877760	101678184	33184
308	0.168133	166072320	133877760	101889096	33184
309	0.194897	166072320	133877760	102100888	33184
310	0.173819	166072320	133877760	102313056	33184
311	0.173117	166342656	133877760	102525864	33184
312	0.169305	166342656	133877760	102739288	33184
313	0.1792	166342656	133877760	102953344	33184
314	0.172084	166342656	133877760	103168032	33184
315	0.179357	166342656	133877760	103383344	33184
316	0.170338	166342656	133877760	103599280	33184
317	0.179521	166342656	133877760	103815872	33184
318	0.172956	166342656	133877760	104033064	33184
319	0.184257	166342656	133877760	104250952	33184
320	0.194566	166342656	133877760	104469168	33184
321	0.174449	166342656	133877760	104687608	33184
322	0.180993	166342656	133877760	104906696	33184
323	0.174339	166342656	133877760	105126392	33184
324	0.182237	166612992	133877760	105346712	33184
325	0.17736	166612992	133877760	105567688	33184
326	0.178214	166612992	133877760	105789264	33184
327	0.381057	166612992	133877760	106011520	33184
328	0.202053	166612992	133877760	106234352	33184
329	0.193765	166612992	133877760	106457816	33184
330	0.172752	166612992	133877760	106681912	33184
331	0.178595	166612992	133877760	106906632	33184
332	0.177344	166612992	133877760	107131976	33184
333	0.180475	166612992	133877760	107357952	33184
334	0.175314	166612992	133877760	107584552	33184
335	0.186923	166612992	133877760	107811832	33184
336	0.19993	166612992	133877760	108039688	33184
337	0.191444	166612992	133877760	108268208	33184
338	0.182626	166612992	133877760	108497320	33184
339	0.177468	166612992	133877760	108727064	33184
340	0.188508	166612992	133877760	108957448	33184
341	0.199315	166612992	133877760	109188448	33184
342	0.180881	166612992	133877760	109420136	33184
343	0.186227	166612992	133877760	109652392	33184
344	0.209484	166612992	133877760	109885272	33184
345	0.191608	166612992	133877760	110118840	33184
346	0.182242	166612992	133877760	110352976	33184
347	0.186763	166612992	133877760	110587760	33184
348	0.189134	166612992	133877760	110823152	33184
349	0.186046	166612992	133877760	111059176	33184
350	0.192734	166612992	133877760	111295840	33184
351	0.190765	166612992	133877760	111533120	33184
352	0.187897	166612992	133877760	111770808	33184
353	0.190665	166612992	133877760	112008704	33184
354	0.187261	166612992	133877760	112247288	33184
355	0.192599	166612992	133877760	112486440	33184
356	0.210713	166612992	133877760	112726216	33184
357	0.200561	166612992	133877760	112966648	33184
358	0.195461	166612992	133877760	113207680	33184
359	6.497557	168505344	135974912	100699384	33184
360	0.349093	168505344	135974912	100946160	33184
361	0.202077	168505344	135974912	101189080	33184
362	0.186828	168505344	135974912	101432664	33184
363	0.195453	168505344	135974912	101676840	33184
364	0.233535	168505344	135974912	101921640	33184
365	0.20026	168505344	135974912	102167096	33184
366	0.203374	168505344	135974912	102413152	33184
367	0.245464	168505344	135974912	102659904	33184
368	0.202736	168505344	135974912	102907216	33184
369	0.235346	168505344	135974912	103155168	33184
370	0.198896	168505344	135974912	103403736	33184
371	0.203283	168505344	135974912	103652984	33184
372	0.225123	168505344	136499200	103902808	33184
373	0.204828	168775680	136499200	104153264	33184
374	0.206653	168775680	136499200	104404352	33184
375	0.200779	168775680	136499200	104656064	33184
376	0.207139	168775680	136499200	104908440	33184
377	0.200646	168775680	136499200	105161408	33184
378	0.20377	168775680	136499200	105415056	33184
379	0.205442	168775680	136499200	105669280	33184
380	0.204085	168775680	136499200	105924128	33184
381	0.212967	168775680	136499200	106179608	33184
382	0.258419	168775680	136499200	106435712	33184
383	0.217461	168775680	136499200	106692488	33184
384	0.212972	169046016	136499200	106949656	33184
385	0.208403	169046016	136499200	107207016	33184
386	0.214579	169046016	136499200	107464992	33184
387	0.212445	169046016	136499200	107723640	33184
388	0.208243	169046016	136499200	107982872	33184
389	0.214737	169046016	136499200	108242792	33184
390	0.233244	169046016	136499200	108503280	33184
391	0.206687	169046016	136499200	108764400	33184
392	0.218355	169046016	136499200	109026152	33184
393	0.234519	169046016	137023488	109288528	33184
394	0.216206	169316352	137023488	109551584	33184
395	0.218159	169316352	137023488	109815216	33184
396	0.211137	169316352	137023488	110079496	33184
397	0.25293	169316352	137023488	110344384	33184
398	0.235757	169316352	137023488	110609928	33184
399	0.219989	169316352	137023488	110876072	33184
400	0.219896	169316352	137023488	111142888	33184
401	0.21955	169316352	137023488	111410288	33184
402	0.213583	169316352	137023488	111678368	33184
403	0.223007	169316352	137023488	111947024	33184
404	0.223031	169586688	137023488	112216304	33184
405	0.217231	169586688	137023488	112486232	33184
406	0.225886	169586688	137023488	112756768	33184
407	0.223898	169586688	137023488	113027960	33184
408	0.217836	169586688	137023488	113299752	33184
409	0.225314	169586688	137023488	113572200	33184
410	0.224695	169586688	137023488	113845248	33184
411	0.222785	169586688	137023488	114118968	33184
412	0.273848	169586688	137547776	114393272	33184
413	0.247539	169586688	137547776	114668256	33184
414	0.243355	169857024	137547776	114943816	33184
415	0.225482	169857024	137547776	115220064	33184
416	0.232734	169857024	137547776	115496704	33184
417	0.229996	169857024	137547776	115773552	33184
418	0.225911	169857024	137547776	116050984	33184
419	0.234781	169857024	137547776	116329064	33184
420	0.265287	169857024	137547776	116607752	33184
421	6.547004	171749376	139644928	104023832	33184
422	0.435447	171749376	139644928	104303840	33184
423	0.236824	171749376	139644928	104584416	33184
424	0.233306	171749376	139644928	104865664	33184
425	0.221743	171749376	139644928	105147496	33184
426	0.233311	172019712	139644928	105430008	33184
427	0.26111	172019712	139644928	105713096	33184
428	0.225129	172019712	139644928	105996808	33184
429	0.230398	172019712	139644928	106281152	33184
430	0.229731	172019712	139644928	106566128	33184
431	0.270843	172019712	139644928	106851728	33184
432	0.235805	172019712	139644928	107137968	33184
433	0.268748	172019712	139644928	107424824	33184
434	0.22977	172019712	139644928	107712336	33184
435	0.231944	172290048	139644928	108000448	33184
436	0.234379	172290048	139644928	108289232	33184
437	0.231769	172290048	139644928	108578600	33184
438	0.229623	172290048	139644928	108868648	33184
439	0.238684	172290048	139644928	109159272	33184
440	0.254959	172290048	140169216	109450584	33184
441	0.233826	172290048	140169216	109742464	33184
442	0.239774	172290048	140169216	110034976	33184
443	0.234902	172290048	140169216	110328112	33184
444	0.232314	172560384	140169216	110621888	33184
445	0.262346	172560384	140169216	110916280	33184
446	0.262153	172560384	140169216	111211328	33184
447	0.239677	172560384	140169216	111506976	33184
448	0.235637	172560384	140169216	111803144	33184
449	0.243282	172560384	140169216	112099408	33184
450	0.272617	172560384	140169216	112396352	33184
451	0.238951	172560384	140169216	112693872	33184
452	0.242745	172560384	140169216	112992016	33184
453	0.24857	172830720	140169216	113290792	33184
454	0.241087	172830720	140169216	113590200	33184
455	0.24255	172830720	140169216	113890232	33184
456	0.244931	172830720	140169216	114190912	33184
457	0.269282	172830720	140693504	114492200	33184
458	0.248916	172830720	140693504	114794112	33184
459	0.594793	172830720	140693504	115096656	33184
460	0.273679	172830720	140693504	115399904	33184
461	0.284484	172830720	140693504	115703704	33184
462	0.250857	173101056	140693504	116008128	33184
463	0.248907	173101056	140693504	116313240	33184
464	0.254518	173101056	140693504	116618920	33184
465	0.284796	173101056	140693504	116925232	33184
466	0.280558	173101056	140693504	117232168	33184
467	0.247291	173101056	140693504	117539752	33184
468	0.256392	173101056	140693504	117847944	33184
469	0.264021	173101056	140693504	118156792	33184
470	0.283289	173101056	140693504	118466240	33184
471	0.294247	173371392	140693504	118776352	33184
472	0.257208	173371392	140693504	119087056	33184
473	0.258683	173371392	140693504	119398400	33184
474	0.281585	173371392	141217792	119710376	33184
475	0.253368	173371392	141217792	120022968	33184
476	6.108482	175263744	143314944	107351752	33184
477	0.687556	175263744	143314944	107665656	33184
478	0.26485	175263744	143314944	107980128	33184
479	0.261872	175263744	143314944	108295240	33184
480	0.254684	175263744	143314944	108610832	33184
481	0.25401	175263744	143314944	108926568	33184
482	0.262878	175263744	143314944	109242912	33184
483	0.291174	175534080	143314944	109559928	33184
484	0.253333	175534080	143314944	109877528	33184
485	0.250592	175534080	143314944	110195792	33184
486	0.256249	175534080	143314944	110514672	33184
487	0.265204	175534080	143314944	110834160	33184
488	0.289252	175534080	143314944	111154272	33184
489	0.31223	175534080	143314944	111475016	33184
490	0.283517	175534080	143314944	111796384	33184
491	0.260649	175534080	143314944	112118384	33184
492	0.254473	175804416	143314944	112441032	33184
493	0.291202	175804416	143314944	112764312	33184
494	0.255217	175804416	143314944	113088192	33184
495	0.265601	175804416	143314944	113412736	33184
496	0.260662	175804416	143314944	113737872	33184
497	0.262489	175804416	143314944	114063688	33184
498	0.25619	175804416	143314944	114390080	33184
499	0.261107	175804416	143314944	114717160	33184
500	0.291663	176074752	143839232	115045064	33184
501	0.264864	176074752	143839232	115373344	33184
502	0.287236	176074752	143839232	115702264	33184
503	0.260935	176074752	143839232	116031800	33184
504	0.267694	176074752	143839232	116361976	33184
505	0.272974	176074752	143839232	116692768	33184
506	0.272828	176074752	143839232	117024208	33184
507	0.271085	176074752	143839232	117356320	33184
508	0.261136	176345088	143839232	117688992	33184
509	0.270845	176345088	143839232	118022344	33184
510	0.367097	176345088	143839232	118356272	33184
511	0.322785	176345088	143839232	118691536	33184
512	0.295476	176345088	143839232	119026944	33184
513	0.268292	176345088	143839232	119362464	33184
514	0.328514	176345088	143839232	119698616	33184
515	0.279225	176345088	143839232	120035384	33184
516	0.304499	176615424	144363520	120372832	33184
517	0.273773	176615424	144363520	120710632	33184
518	0.276407	176615424	144363520	121049232	33184
519	0.273964	176615424	144363520	121388560	33184
520	0.27718	176615424	144363520	121728576	33184
521	0.289321	176615424	144363520	122069704	33184
522	0.280648	176615424	144363520	122411536	33184
523	0.277579	176615424	144363520	122754168	33184
524	0.293825	176885760	144363520	123097504	33184
525	0.2758	176885760	144363520	123441560	33184
526	6.009303	178507776	146460672	110738728	33184
527	0.503341	178507776	146460672	111084264	33184
528	0.280861	178778112	146460672	111430536	33184
529	0.279745	178778112	146460672	111777576	33184
530	0.285814	178778112	146460672	112125328	33184
531	0.285794	178778112	146460672	112473824	33184
532	0.472533	178778112	146460672	112823064	33184
533	0.277278	178778112	146460672	113173040	33184
534	0.279329	178778112	146460672	113523792	33184
535	0.284293	178778112	146460672	113875288	33184
536	0.290454	179048448	146460672	114227480	33184
537	0.317048	179048448	146460672	114580464	33184
538	0.282371	179048448	146460672	114934136	33184
539	0.285681	179048448	146460672	115288584	33184
540	0.280351	179048448	146460672	115643792	33184
541	0.29512	179048448	146460672	115999688	33184
542	0.314947	179048448	146984960	116356336	33184
543	0.354612	179048448	146984960	116713712	33184
544	0.289603	179318784	146984960	117071728	33184
545	0.292349	179318784	146984960	117429968	33184
546	0.286185	179318784	146984960	117788920	33184
547	0.286327	179318784	146984960	118148624	33184
548	0.294379	179318784	146984960	118509072	33184
549	0.296783	179318784	146984960	118870248	33184
550	0.293635	179318784	146984960	119232208	33184
551	0.292473	179589120	146984960	119594912	33184
552	0.297743	179589120	146984960	119958304	33184
553	0.292149	179589120	146984960	120322472	33184
554	0.299042	179589120	146984960	120687352	33184
555	0.336164	179589120	146984960	121052968	33184
556	0.324564	179589120	147509248	121426136	33184
557	0.29955	179589120	147509248	121793232	33184
558	0.302676	179859456	147509248	122161216	33184
559	0.301594	179859456	147509248	122529808	33184
560	0.298097	179859456	147509248	122899120	33184
561	0.301226	179859456	147509248	123269232	33184
562	0.298921	179859456	147509248	123640080	33184
563	0.308301	179859456	147509248	124011616	33184
564	0.315663	179859456	147509248	124383928	33184
565	0.314782	179859456	147509248	124756952	33184
566	0.522325	180129792	147509248	125130704	33184
567	0.310091	180129792	147509248	125505224	33184
568	0.308917	180129792	147509248	125880496	33184
569	0.308873	180129792	147509248	126256472	33184
570	0.3274	180129792	148033536	126633192	33184
571	6.069765	182022144	150130688	114060016	33184
572	0.597895	182022144	150130688	114438264	33184
573	0.311379	182022144	150130688	114817256	33184
574	0.318431	182022144	150130688	115196928	33184
575	0.312706	182022144	150130688	115577392	33184
576	0.316102	182022144	150130688	115958488	33184
577	0.31699	182022144	150130688	116339744	33184
578	0.310476	182292480	150130688	116721768	33184
579	0.312511	182292480	150130688	117104544	33184
580	0.315115	182292480	150130688	117488016	33184
581	0.320705	182292480	150130688	117872256	33184
582	0.349996	182292480	150130688	118257208	33184
583	0.326625	182292480	150130688	118642904	33184
584	0.320428	182292480	150130688	119029336	33184
585	0.318674	182562816	150130688	119416536	33184
586	0.318225	182562816	150130688	119804448	33184
587	0.315948	182562816	150130688	120193160	33184
588	0.31765	182562816	150130688	120582608	33184
589	0.315741	182562816	150130688	120972744	33184
590	0.317111	182562816	150130688	121363648	33184
591	0.319401	182562816	150130688	121755272	33184
592	0.352646	182833152	150130688	122147624	33184
593	0.331812	182833152	150130688	122540744	33184
594	0.349149	182833152	150654976	122934616	33184
595	0.32849	182833152	150654976	123329192	33184
596	0.332237	182833152	150654976	123724624	33184
597	0.325393	182833152	150654976	124120688	33184
598	0.325717	182833152	150654976	124517480	33184
599	0.327275	183103488	150654976	124915024	33184
600	0.328437	183103488	150654976	125313296	33184
601	0.333316	183103488	150654976	125712368	33184
602	0.3269	183103488	150654976	126112120	33184
603	0.413633	183103488	150654976	126512648	33184
604	0.329272	183103488	150654976	126913888	33184
605	0.327702	183103488	150654976	127315864	33184
606	0.325371	183373824	150654976	127718592	33184
607	0.346529	183373824	151179264	128122080	33184
608	0.340519	183373824	151179264	128526336	33184
609	0.346949	183373824	151179264	128930632	33184
610	0.334995	183373824	151179264	129335672	33184
611	0.343468	183373824	151179264	129741472	33184
612	0.357327	183644160	151179264	130147984	33184
613	6.745238	185266176	153276416	117909608	33184
614	0.553023	185536512	153276416	118317656	33184
615	0.343618	185536512	153276416	118726392	33184
616	0.377875	185536512	153276416	119135920	33184
617	0.370966	185536512	153276416	119546192	33184
618	0.341663	185536512	153276416	119957184	33184
619	0.338355	185536512	153276416	120368880	33184
620	0.336793	185536512	153276416	120781328	33184
621	0.341204	185806848	153276416	121194568	33184
622	0.338352	185806848	153276416	121608512	33184
623	0.340639	185806848	153276416	122023168	33184
624	0.343652	185806848	153276416	122438616	33184
625	0.338806	185806848	153276416	122854808	33184
626	0.369307	185806848	153276416	123271680	33184
627	0.420871	186077184	153800704	123689328	33184
628	0.361527	186077184	153800704	124107704	33184
629	0.344476	186077184	153800704	124526848	33184
630	0.342828	186077184	153800704	124946544	33184
631	0.344345	186077184	153800704	125366992	33184
632	0.340274	186077184	153800704	125788160	33184
633	0.350869	186077184	153800704	126210040	33184
634	0.35139	186347520	153800704	126632632	33184
635	0.358604	186347520	153800704	127056008	33184
636	0.420368	186347520	153800704	127480064	33184
637	0.357754	186347520	153800704	127904888	33184
638	0.358012	186347520	153800704	128330376	33184
639	0.383304	186347520	154324992	128756608	33184
640	0.362979	186617856	154324992	129183536	33184
641	0.362913	186617856	154324992	129610600	33184
642	0.356502	186617856	154324992	130038344	33184
643	0.367141	186617856	154324992	130466880	33184
644	0.362037	186617856	154324992	130896120	33184
645	0.555696	186617856	154324992	131326064	33184
646	0.39688	186888192	154324992	131756600	33184
647	0.375698	186888192	154324992	132187880	33184
648	0.369964	186888192	154324992	132619928	33184
649	0.373448	186888192	154324992	133052744	33184
650	0.371099	186888192	154324992	133486240	33184
651	6.988948	189050880	156946432	121499360	33184
652	0.59369	189050880	156946432	121934352	33184
653	0.372476	189050880	156946432	122370120	33184
654	0.370495	189050880	156946432	122806576	33184
655	0.37121	189050880	156946432	123243816	33184
656	0.370343	189050880	156946432	123681752	33184
657	0.431723	189321216	156946432	124120464	33184
658	0.385653	189321216	156946432	124559888	33184
659	0.370838	189321216	156946432	125000048	33184
660	0.370597	189321216	156946432	125440944	33184
661	0.37309	189321216	156946432	125882608	33184
662	0.381412	189321216	156946432	126324904	33184
663	0.37229	189591552	156946432	126767904	33184
664	0.387365	189591552	156946432	127211768	33184
665	0.400954	189591552	156946432	127656256	33184
666	0.614275	189591552	157470720	128101504	33184
667	0.620994	189591552	157470720	128547632	33184
668	0.647332	189591552	157470720	128996416	33184
669	0.393983	189861888	157470720	129443912	33184
670	0.40667	189861888	157470720	129892104	33184
671	0.375881	189861888	157470720	130341064	33184
672	0.37536	189861888	157470720	130790704	33184
673	0.372961	189861888	157470720	131240472	33184
674	0.563395	189861888	157470720	131691016	33184
675	0.377292	190132224	157470720	132142288	33184
676	0.376746	190132224	157470720	132594272	33184
677	0.370339	190132224	157470720	133046992	33184
678	0.398142	190132224	157995008	133500384	33184
679	0.376475	190132224	157995008	133954528	33184
680	0.382971	190132224	157995008	134409384	33184
681	0.38067	190402560	157995008	134865016	33184
682	0.400019	190402560	157995008	135321328	33184
683	0.409142	190402560	157995008	135778416	33184
684	0.388045	190402560	157995008	136236224	33184
685	0.389094	190402560	157995008	136694800	33184
686	6.897548	192565248	160092160	124835384	33184
687	0.742632	192565248	160092160	125295432	33184
688	0.385797	192565248	160092160	125756184	33184
689	0.383084	192565248	160092160	126217720	33184
690	0.403252	192835584	160616448	126679984	33184
691	0.384026	192835584	160616448	127142984	33184
692	0.38235	192835584	160616448	127606760	33184
693	0.379464	192835584	160616448	128071216	33184
694	0.447394	192835584	160616448	128536408	33184
695	0.389005	192835584	160616448	129002400	33184
696	0.389144	193105920	160616448	129469120	33184
697	0.392868	193105920	160616448	129936544	33184
698	0.392731	193105920	160616448	130404736	33184
699	0.394651	193105920	160616448	130873632	33184
700	0.398447	193105920	160616448	131343280	33184
701	0.392771	193376256	160616448	131813720	33184
702	0.420023	193376256	161140736	132284864	33184
703	0.632538	193376256	161140736	132756784	33184
704	0.39462	193376256	161140736	133229384	33184
705	0.391539	193376256	161140736	133702104	33184
706	0.392252	193376256	161140736	134175584	33184
707	0.398366	193646592	161140736	134649808	33184
708	0.426217	193646592	161140736	135124736	33184
709	0.402474	193646592	161140736	135600440	33184
710	0.39763	193646592	161140736	136076832	33184
711	0.432068	193646592	161140736	136553976	33184
712	0.423438	193646592	161140736	137031872	33184
713	0.42896	193916928	161665024	137510520	33184
714	0.40856	193916928	161665024	137989872	33184
715	0.46878	193916928	161665024	138469992	33184
716	0.398034	193916928	161665024	138950824	33184
717	0.400204	193916928	161665024	139432432	33184
718	0.401948	193916928	161665024	139914768	33184
719	0.406267	194187264	161665024	140397840	33184
720	6.988935	196349952	163762176	128737424	33184
721	0.712002	196349952	163762176	129221992	33184
722	0.493308	196349952	163762176	129707312	33184
723	0.414907	196349952	163762176	130193336	33184
724	0.438899	196349952	164286464	130680128	33184
725	0.429168	196349952	164286464	131167624	33184
726	0.422837	196620288	164286464	131655856	33184
727	0.404753	196620288	164286464	132144880	33184
728	0.403538	196620288	164286464	132634648	33184
729	0.403129	196620288	164286464	133125168	33184
730	0.431112	196620288	164286464	133616384	33184
731	0.434977	196890624	164286464	134108368	33184
732	0.411422	196890624	164286464	134601064	33184
733	0.421794	196890624	164286464	135094480	33184
734	0.41571	196890624	164286464	135588648	33184
735	0.428347	196890624	164810752	136083600	33184
736	0.413176	196890624	164810752	136579312	33184
737	0.407107	197160960	164810752	137075088	33184
738	0.415629	197160960	164810752	137571568	33184
739	0.657614	197160960	164810752	138068816	33184
740	0.424584	197160960	164810752	138566768	33184
741	0.423838	197160960	164810752	139065464	33184
742	0.424797	197160960	164810752	139564928	33184
743	0.416912	197431296	164810752	140065152	33184
744	0.415692	197431296	164810752	140566128	33184
745	0.416856	197431296	164810752	141067800	33184
746	0.437173	197431296	165335040	141570240	33184
747	0.507765	197431296	165335040	142073392	33184
748	0.431025	197701632	165335040	142577304	33184
749	0.431421	197701632	165335040	143081920	33184
750	0.445112	197701632	165335040	143587320	33184
751	0.437461	197701632	165335040	144093456	33184
752	7.433438	200134656	167956480	132625288	33184
753	0.689219	200134656	167956480	133132928	33184
754	0.425395	200134656	167956480	133641240	33184
755	0.422873	200134656	167956480	134150384	33184
756	0.466001	200134656	167956480	134660240	33184
757	0.455496	200134656	167956480	135170832	33184
758	0.430465	200404992	167956480	135682120	33184
759	0.429223	200404992	167956480	136194184	33184
760	0.435418	200404992	167956480	136706944	33184
761	0.423828	200404992	167956480	137220480	33184
762	0.427251	200404992	167956480	137734720	33184
763	0.433796	200675328	167956480	138249696	33184
764	0.646595	200675328	168480768	138765464	33184
765	0.470549	200675328	168480768	139281960	33184
766	0.435714	200675328	168480768	139799160	33184
767	0.431967	200675328	168480768	140317120	33184
768	0.427341	200945664	168480768	140835856	33184
769	0.430693	200945664	168480768	141354656	33184
770	0.440514	200945664	168480768	141874224	33184
771	0.442076	200945664	168480768	142394496	33184
772	0.631429	200945664	168480768	142915536	33184
773	0.460794	200945664	168480768	143437280	33184
774	0.43264	201216000	168480768	143959800	33184
775	0.457128	201216000	169005056	144483016	33184
776	0.447504	201216000	169005056	145007016	33184
777	0.450282	201216000	169005056	145531744	33184
778	0.460841	201216000	169005056	146057216	33184
779	0.460963	201486336	169005056	146583456	33184
780	0.485345	201486336	169005056	147110392	33184
781	0.447219	201486336	169005056	147638104	33184
782	7.488444	203919360	171626496	136241136	33184
783	0.786702	203919360	171626496	136770296	33184
784	0.454573	203919360	171626496	137300208	33184
785	0.467084	203919360	171626496	137830872	33184
786	0.461912	203919360	171626496	138362232	33184
787	0.442897	204189696	171626496	138894368	33184
788	0.450718	204189696	171626496	139427208	33184
789	0.498625	204189696	171626496	139960816	33184
790	0.455235	204189696	171626496	140495128	33184
791	0.441046	204189696	171626496	141030216	33184
792	0.473734	204189696	172150784	141566072	33184
793	0.452219	204460032	172150784	142102632	33184
794	0.455077	204460032	172150784	142639960	33184
795	0.480296	204460032	172150784	143178000	33184
796	0.497193	204460032	172150784	143716800	33184
797	0.472156	204460032	172150784	144256296	33184
798	0.454464	204730368	172150784	144796552	33184
799	0.465604	204730368	172150784	145337624	33184
800	0.4617	204730368	172150784	145879416	33184
801	0.44919	204730368	172150784	146421256	33184
802	0.471107	204730368	172675072	146963848	33184
803	0.470282	205000704	172675072	147507144	33184
804	0.502404	205000704	172675072	148051208	33184
805	0.498284	205000704	172675072	148596048	33184
806	0.475111	205000704	172675072	149141584	33184
807	0.462579	205000704	172675072	149687896	33184
808	0.467609	205271040	172675072	150234912	33184
809	0.491911	205271040	172675072	150782696	33184
810	0.528326	205271040	172675072	151331184	33184
811	7.508872	207704064	175820800	140027264	33184
812	0.837603	207704064	175820800	140577216	33184
813	0.502516	207704064	175820800	141128144	33184
814	0.476002	207704064	175820800	141679728	33184
815	0.45889	207704064	175820800	142231928	33184
816	0.467844	207974400	175820800	142784840	33184
817	0.472795	207974400	175820800	143338512	33184
818	0.490412	207974400	175820800	143892912	33184
819	0.488677	207974400	175820800	144448064	33184
820	0.725004	207974400	175820800	145004408	33184
821	0.506102	208244736	175820800	145561040	33184
822	0.510176	208244736	175820800	146120936	33184
823	0.520331	208244736	175820800	146679088	33184
824	0.549855	208244736	175820800	147239088	33184
825	0.479713	208244736	175820800	147798672	33184
826	0.513956	208515072	175820800	148359024	33184
827	0.514962	208515072	176345088	148920080	33184
828	0.476146	208515072	176345088	149481904	33184
829	0.492293	208515072	176345088	150044440	33184
830	0.508641	208515072	176345088	150607736	33184
831	0.492203	208785408	176345088	151171816	33184
832	0.482009	208785408	176345088	151736656	33184
833	0.697767	208785408	176345088	152301568	33184
834	0.524558	208785408	176345088	152867184	33184
835	0.49269	208785408	176345088	153433568	33184
836	0.478618	209055744	176345088	154000656	33184
837	0.511864	209055744	176869376	154568512	33184
838	0.492131	209055744	176869376	155137072	33184
839	7.830533	211488768	179490816	143964192	33184
840	0.841005	211488768	179490816	144534232	33184
841	0.52354	211488768	179490816	145105040	33184
842	0.484649	211759104	179490816	145676616	33184
843	0.490197	211759104	179490816	146248896	33184
844	0.49127	211759104	179490816	146821952	33184
845	0.47455	211759104	179490816	147395712	33184
846	0.491831	211759104	179490816	147970240	33184
847	0.491273	212029440	179490816	148545472	33184
848	0.542035	212029440	179490816	149121472	33184
849	0.481536	212029440	179490816	149698176	33184
850	0.491119	212029440	179490816	150286000	33184
851	0.496076	212029440	179490816	150864184	33184
852	0.509105	212299776	180015104	151443136	33184
853	0.488239	212299776	180015104	152022856	33184
854	0.494916	212299776	180015104	152603288	33184
855	0.522166	212299776	180015104	153184480	33184
856	0.507285	212299776	180015104	153766384	33184
857	0.497751	212570112	180015104	154349056	33184
858	0.516068	212570112	180015104	154932432	33184
859	0.512483	212570112	180015104	155516576	33184
860	0.497663	212570112	180015104	156101432	33184
861	0.522469	212570112	180539392	156687048	33184
862	0.715774	212840448	180539392	157273376	33184
863	0.521056	212840448	180539392	157860472	33184
864	0.507747	212840448	180539392	158448408	33184
865	0.532278	212840448	180539392	159036344	33184
866	7.78926	215273472	183160832	147966128	33184
867	0.775613	215543808	183160832	148555536	33184
868	0.505474	215543808	183160832	149145648	33184
869	0.50355	215543808	183160832	149736528	33184
870	0.735535	215543808	183160832	150328184	33184
871	0.504315	215543808	183160832	150920536	33184
872	0.503269	215814144	183160832	151513664	33184
873	0.513703	215814144	183160832	152107496	33184
874	0.524642	215814144	183685120	152702136	33184
875	0.505792	215814144	183685120	153297440	33184
876	0.540764	215814144	183685120	153893672	33184
877	0.524127	216084480	183685120	154490488	33184
878	0.508273	216084480	183685120	155088048	33184
879	0.517855	216084480	183685120	155686368	33184
880	0.506891	216084480	183685120	156285392	33184
881	0.514089	216354816	183685120	156885192	33184
882	0.516489	216354816	183685120	157485688	33184
883	0.550428	216354816	184209408	158086960	33184
884	0.535613	216354816	184209408	158688936	33184
885	0.520493	216354816	184209408	159291680	33184
886	0.506258	216625152	184209408	159895128	33184
887	0.520116	216625152	184209408	160499352	33184
888	0.528598	216625152	184209408	161104272	33184
889	0.512046	216625152	184209408	161709968	33184
890	0.552894	216625152	184209408	162316368	33184
891	1.055549	216895488	184209408	162925120	33184
892	10.379834	219328512	186830848	151945192	33184
893	0.992895	219328512	186830848	152553840	33184
894	0.681149	219328512	186830848	153163192	33184
895	0.800683	219598848	187355136	153773320	33184
896	0.675186	219598848	187355136	154384360	33184
897	0.745496	219598848	187355136	154995312	33184
898	0.771011	219598848	187355136	155607040	33184
899	0.778948	219598848	187355136	156219472	33184
900	0.857264	219869184	187355136	156832672	33184
901	1.429006	219869184	187355136	157446576	33184
902	1.116395	219869184	187355136	158061248	33184
903	1.195158	219869184	187355136	158676624	33184
904	1.212042	220139520	187879424	159292776	33184
905	1.36496	220139520	187879424	159909632	33184
906	1.146901	220139520	187879424	160527256	33184
907	1.188599	220139520	187879424	161145608	33184
908	1.016078	220139520	187879424	161764680	33184
909	1.490825	220409856	187879424	162384576	33184
910	1.51725	220409856	187879424	163005144	33184
911	1.45679	220409856	187879424	163626496	33184
912	1.51381	220409856	187879424	164248536	33184
913	1.754328	220680192	188403712	164871360	33184
914	1.647246	220680192	188403712	165494880	33184
915	1.689806	220680192	188403712	166119176	33184
916	1.602853	220680192	188403712	166744168	33184
917	12.809912	223383552	191025152	155799408	33184
918	2.252816	223383552	191025152	156425880	33184
919	2.017521	223383552	191025152	157053104	33184
920	2.253445	223383552	191025152	157681240	33184
921	2.113664	223383552	191025152	158309952	33184
922	2.1611	223653888	191025152	158939440	33184
923	2.449677	223653888	191025152	159569632	33184
924	2.484482	223653888	191549440	160200592	33184
925	2.586008	223653888	191549440	160832256	33184
926	2.676494	223924224	191549440	161464696	33184
927	2.71246	223924224	191549440	162097832	33184
928	2.810094	223924224	191549440	162731888	33184
929	3.067635	223924224	191549440	163365896	33184
930	2.955621	223924224	191549440	164000640	33184
931	3.034592	224194560	191549440	164636160	33184
932	3.303295	224194560	191549440	165272384	33184
933	3.295363	224194560	192073728	165909384	33184
934	3.421559	224194560	192073728	166547080	33184
935	3.547697	224464896	192073728	167185544	33184
936	3.731772	224464896	192073728	167824720	33184
937	3.598444	224464896	192073728	168464616	33184
938	3.448096	224464896	192073728	169105264	33184
939	3.700353	224735232	192073728	169746680	33184
940	12.895874	198414336	145412096	91051752	33184
941	2.020289	180064256	145412096	91694928	33184
942	2.077181	162762752	145412096	92338520	33184
943	0.893934	162762752	145412096	92982888	33184
944	0.658076	162762752	145412096	93627992	33184
945	10.591986	163299328	145412096	80635672	33184
946	1.374555	163840000	145412096	81282272	33184
947	0.84177	164380672	145412096	81929592	33184
948	0.834312	164921344	145412096	82577680	33184
949	0.826855	165732352	145412096	83226472	33184
950	0.827517	166273024	145412096	83876032	33184
951	1.094662	166813696	145412096	84526336	33184
952	0.647071	167354368	145412096	85177360	33184
953	0.670271	167895040	145412096	85829096	33184
954	0.646867	168435712	145412096	86481608	33184
955	0.670511	169246720	145412096	87134824	33184
956	0.670426	169787392	145412096	87788808	33184
957	0.687279	170328064	145412096	88443560	33184
958	0.645505	170868736	145412096	89099256	33184
959	0.648162	171409408	145412096	89755496	33184
960	0.672686	172220416	145412096	90412640	33184
961	0.643101	172761088	145412096	91069712	33184
962	0.698398	173301760	145412096	91727480	33184
963	0.651351	173842432	145412096	92386024	33184
964	0.672602	174383104	145412096	93045264	33184
965	0.673046	174923776	145412096	93705456	33184
966	0.679065	175734784	145412096	94366176	33184
967	0.82583	176275456	145412096	95027664	33184
968	0.68131	176816128	145412096	95689856	33184
969	0.690135	177356800	145412096	96352824	33184
970	0.651641	178167808	145412096	97016560	33184
971	0.570393	178167808	145412096	97681032	33184
972	5.452348	178167808	145412096	85335160	33184
973	1.064937	178167808	145412096	86001072	33184
974	0.579336	178167808	145412096	86667760	33184
975	0.560846	178167808	145412096	87335152	33184
976	0.546505	178167808	145412096	88003312	33184
977	0.551954	178167808	145412096	88672176	33184
978	0.56041	178167808	145412096	89341832	33184
979	0.564526	178167808	145412096	90012176	33184
980	0.560729	178167808	145412096	90683280	33184
981	0.560573	178167808	145412096	91355096	33184
982	0.542118	178167808	145412096	92027680	33184
983	0.578211	178167808	145412096	92701032	33184
984	0.595099	178167808	145412096	93375120	33184
985	0.571677	178167808	145412096	94049952	33184
986	0.567266	178167808	145412096	94725480	33184
987	0.551742	178167808	145412096	95401792	33184
988	0.549218	178167808	145412096	96078792	33184
989	0.577375	178167808	145412096	96756600	33184
990	0.607926	178167808	145412096	97435080	33184
991	0.595337	178167808	145412096	98114336	33184
992	0.575432	178167808	145412096	98794504	33184
993	0.582177	178167808	145412096	99474592	33184
994	8.449079	180871168	148557824	89008984	33184
995	1.170723	180871168	148557824	89690616	33184
996	0.629234	180871168	148557824	90372952	33184
997	0.587014	180871168	148557824	91055992	33184
998	0.566522	180871168	148557824	91739800	33184
999	0.582004	180871168	148557824	92424312	33184
1000	0.568713	180871168	148557824	93109624	33184
