x	Duration	RSS	HeapTotal	HeapUsed	External
0	NA	167079936	133353472	92195688	33184
1	0.044204	167079936	133353472	92204728	33184
2	0.028676	167079936	133353472	92214752	33184
3	0.025713	167079936	133353472	92225280	33184
4	0.024335	167079936	133353472	92236432	33184
5	0.024103	167079936	133353472	92248240	33184
6	0.023658	167079936	133353472	92260672	33184
7	0.023079	167079936	133353472	92273760	33184
8	0.042067	167079936	133353472	92290584	33184
9	0.036411	167079936	133353472	92306640	33184
10	0.031923	167079936	133353472	92323160	33184
11	0.032036	167079936	133353472	92340576	33184
12	0.031915	167079936	133353472	92358712	33184
13	0.031461	167079936	133353472	92377568	33184
14	0.037715	167079936	133353472	92397144	33184
15	0.034187	167079936	133353472	92417440	33184
16	0.034385	167079936	133353472	92438768	33184
17	0.036859	167079936	133353472	92461296	33184
18	0.036768	167079936	133353472	92484592	33184
19	0.037233	167079936	133353472	92509032	33184
20	0.038028	167079936	133353472	92533736	33184
21	0.038091	167079936	133353472	92559232	33184
22	0.041533	167079936	133353472	92584840	33184
23	0.041116	167079936	133353472	92611952	33184
24	0.040149	167079936	133353472	92639960	33184
25	0.042054	167079936	133353472	92668752	33184
26	0.042716	167079936	133353472	92698144	33184
27	0.042511	167079936	133353472	92728160	33184
28	0.043818	167079936	133353472	92758912	33184
29	0.044659	167079936	133353472	92790408	33184
30	0.045082	167079936	133353472	92822640	33184
31	0.052265	167079936	133353472	92855648	33184
32	0.04794	167079936	133353472	92888968	33184
33	0.048538	167079936	133353472	92922808	33184
34	0.049238	167079936	133353472	92957384	33184
35	0.048993	167079936	133353472	92992704	33184
36	0.049376	167079936	133353472	93028760	33184
37	0.050915	167079936	133353472	93065600	33184
38	0.052485	167079936	133353472	93103016	33184
39	0.052243	167079936	133353472	93141136	33184
40	0.052822	167079936	133353472	93179848	33184
41	0.053752	167079936	133353472	93219288	33184
42	0.053883	167079936	133353472	93259528	33184
43	0.060369	167079936	133353472	93300576	33184
44	0.242239	167079936	133353472	93342424	33184
45	0.048568	167079936	133353472	93385752	33184
46	0.048446	167079936	133353472	93429248	33184
47	0.063037	167079936	133353472	93473512	33184
48	0.047195	167079936	133353472	93518600	33184
49	0.047949	167079936	133353472	93564496	33184
50	0.048289	167079936	133353472	93611192	33184
51	0.048169	167079936	133353472	93658696	33184
52	0.052934	167079936	133353472	93707000	33184
53	0.050669	167079936	133353472	93755912	33184
54	0.050043	167079936	133353472	93805528	33184
55	0.050975	167079936	133353472	93855960	33184
56	0.05053	167079936	133353472	93907008	33184
57	0.050924	167079936	133353472	93958896	33184
58	0.052483	167079936	133353472	94011456	33184
59	0.052679	167079936	133353472	94064600	33184
60	0.058647	167079936	133353472	94118368	33184
61	0.055356	167079936	133353472	94172768	33184
62	0.054683	167079936	133353472	94227792	33184
63	0.054361	167079936	133353472	94283448	33184
64	0.056493	167079936	133353472	94339360	33184
65	0.056054	167079936	133353472	94395656	33184
66	0.057003	167079936	133353472	94452576	33184
67	0.05998	167079936	133353472	94510128	33184
68	0.05929	167079936	133353472	94568344	33184
69	0.05762	167079936	133353472	94627128	33184
70	0.059339	167079936	133353472	94686648	33184
71	0.059689	167079936	133353472	94746808	33184
72	0.061961	167079936	133353472	94807600	33184
73	0.060668	167079936	133353472	94869056	33184
74	0.064182	167079936	133353472	94931136	33184
75	0.061472	167079936	133353472	94993848	33184
76	0.060733	167079936	133353472	95057184	33184
77	0.062711	167079936	133353472	95121200	33184
78	0.064094	167079936	133353472	95185792	33184
79	0.062582	167079936	133353472	95251016	33184
80	0.068753	167079936	133353472	95317080	33184
81	0.081303	167079936	133353472	95383584	33184
82	0.089077	167079936	133353472	95450712	33184
83	0.070564	167079936	133353472	95518472	33184
84	0.083834	167079936	133353472	95587992	33184
85	0.067734	167079936	133353472	95656984	33184
86	0.093955	167079936	133353472	95726576	33184
87	0.074364	167079936	133353472	95798080	33184
88	0.072999	167079936	133353472	95868984	33184
89	0.06976	167079936	133353472	95940552	33184
90	0.070865	167079936	133353472	96012744	33184
91	0.075238	167079936	133353472	96085568	33184
92	0.07076	167079936	133353472	96159016	33184
93	0.072437	167079936	133353472	96233096	33184
94	0.072622	167079936	133353472	96307840	33184
95	0.072419	167079936	133353472	96383176	33184
96	0.077236	167079936	133353472	96458784	33184
97	0.074248	167079936	133353472	96534760	33184
98	0.074383	167079936	133353472	96611360	33184
99	0.075518	167079936	133353472	96688592	33184
100	0.075529	167079936	133353472	96766448	33184
101	0.080381	167079936	133353472	96844952	33184
102	0.07741	167079936	133353472	96923960	33184
103	0.075367	167079936	133353472	97003608	33184
104	0.076991	167079936	133353472	97083888	33184
105	0.080344	167079936	133353472	97164832	33184
106	0.08062	167079936	133353472	97246400	33184
107	0.077749	167079936	133353472	97328600	33184
108	0.078278	167079936	133353472	97411448	33184
109	0.079697	167079936	133353472	97494904	33184
110	0.085217	167079936	133353472	97578984	33184
111	0.082097	167079936	133353472	97663696	33184
112	0.081141	167079936	133353472	97749056	33184
113	0.08098	167079936	133353472	97835048	33184
114	0.086482	167079936	133353472	97921664	33184
115	0.118057	167079936	133353472	98008928	33184
116	0.094235	167407616	133353472	98096800	33184
117	0.0889	167407616	133353472	98185280	33184
118	0.092571	167407616	133353472	98274304	33184
119	0.090962	167407616	133353472	98363968	33184
120	0.097259	167407616	133353472	98454264	33184
121	0.092157	167407616	133353472	98545232	33184
122	0.094441	167407616	133353472	98636816	33184
123	0.097671	167407616	133353472	98729032	33184
124	0.098458	167407616	133353472	98821872	33184
125	0.093054	167407616	133353472	98915344	33184
126	0.097313	167407616	133353472	99009440	33184
127	0.095717	167407616	133353472	99104168	33184
128	0.102295	167407616	133353472	99199192	33184
129	0.094348	167407616	133353472	99294272	33184
130	0.100524	167407616	133353472	99389976	33184
131	0.093999	167407616	133353472	99486472	33184
132	0.108269	167407616	133353472	99583592	33184
133	0.091267	167407616	133353472	99681360	33184
134	0.096872	167407616	133353472	99779720	33184
135	0.093644	167407616	133353472	99878720	33184
136	0.100261	167407616	133353472	99978352	33184
137	0.096393	167407616	133353472	100078648	33184
138	0.09521	167407616	133353472	100179568	33184
139	0.094084	167407616	133353472	100281136	33184
140	0.096316	167407616	133353472	100383312	33184
141	0.100977	167407616	133353472	100486120	33184
142	0.09742	167407616	133353472	100591384	33184
143	0.09717	167407616	133353472	100695448	33184
144	0.322505	167407616	133353472	100800400	33184
145	0.106134	167407616	133353472	100905744	33184
146	0.132893	167407616	133353472	101011712	33184
147	0.100358	167407616	133353472	101118312	33184
148	0.136898	167407616	133353472	101225536	33184
149	0.101767	167407616	133353472	101333368	33184
150	0.104458	167407616	133353472	101442312	33184
151	0.107102	167407616	133353472	101551896	33184
152	0.103112	167407616	133353472	101662112	33184
153	0.108774	167407616	133353472	101772992	33184
154	0.107978	167407616	133353472	101884496	33184
155	0.104292	167407616	133353472	101996672	33184
156	0.105631	167407616	133353472	102109432	33184
157	0.108674	167407616	133353472	102222824	33184
158	0.105761	167407616	133353472	102336840	33184
159	0.10736	167407616	133353472	102451488	33184
160	0.11353	167407616	133353472	102566456	33184
161	0.108545	167407616	133353472	102681744	33184
162	0.110508	167407616	133353472	102797656	33184
163	0.111888	167407616	133353472	102914200	33184
164	0.109077	167407616	133353472	103031368	33184
165	0.107987	167407616	133353472	103149192	33184
166	0.113223	167407616	133353472	103267864	33184
167	0.110201	167407616	133353472	103387176	33184
168	0.111265	167407616	133353472	103507120	33184
169	0.133722	167407616	133353472	103627728	33184
170	0.130663	167407616	133353472	103749024	33184
171	0.115487	167407616	133353472	103870888	33184
172	0.118696	167407616	133353472	103993376	33184
173	0.115731	167407616	133353472	104116496	33184
174	0.133524	167407616	133353472	104240304	33184
175	0.148534	167407616	133353472	104364680	33184
176	0.133735	167407616	133353472	104489704	33184
177	0.129212	167407616	133353472	104615360	33184
178	0.173698	167407616	133353472	104741640	33184
179	0.119948	167407616	133353472	104868600	33184
180	0.123209	167407616	133353472	104996136	33184
181	0.121957	167407616	133353472	105124280	33184
182	0.118673	167407616	133353472	105253056	33184
183	7.688595	165744640	133877760	93735608	33184
184	0.217931	165744640	133877760	93865656	33184
185	0.112467	165744640	133877760	93996432	33184
186	0.120553	165744640	133877760	94127768	33184
187	0.111179	165744640	133877760	94259736	33184
188	0.109974	165744640	133877760	94392328	33184
189	0.116345	165744640	133877760	94525568	33184
190	0.113907	165744640	133877760	94659416	33184
191	0.161302	165744640	133877760	94793896	33184
192	0.108383	165744640	133877760	94928712	33184
193	0.108584	165744640	133877760	95063832	33184
194	0.143407	165744640	133877760	95199616	33184
195	0.113328	165744640	133877760	95335992	33184
196	0.128469	165744640	133877760	95472992	33184
197	0.109694	165744640	133877760	95610600	33184
198	0.111574	165744640	133877760	95748880	33184
199	0.114219	165744640	133877760	95887760	33184
200	0.109288	165744640	133877760	96027272	33184
201	0.145337	165744640	133877760	96167448	33184
202	0.111902	165744640	133877760	96308288	33184
203	0.111424	165744640	133877760	96449720	33184
204	0.116016	165744640	133877760	96591776	33184
205	0.113949	165744640	133877760	96734464	33184
206	0.156762	165744640	133877760	96877840	33184
207	0.113793	165744640	133877760	97021784	33184
208	0.113895	165744640	133877760	97166376	33184
209	0.125077	165744640	133877760	97311600	33184
210	0.117048	165744640	133877760	97457512	33184
211	0.118781	165744640	133877760	97603992	33184
212	0.115198	165744640	133877760	97751096	33184
213	0.119723	165744640	133877760	97898808	33184
214	0.119621	165744640	133877760	98047152	33184
215	0.116612	165744640	133877760	98196136	33184
216	0.132917	165744640	133877760	98345752	33184
217	0.117492	165744640	133877760	98496032	33184
218	0.1226	165744640	133877760	98647112	33184
219	0.127435	165744640	133877760	98798648	33184
220	0.142395	165744640	133877760	98950808	33184
221	0.120921	165744640	133877760	99103616	33184
222	0.124321	165744640	133877760	99257032	33184
223	0.121932	165744640	133877760	99411080	33184
224	0.122182	165744640	133877760	99565480	33184
225	0.134236	165744640	133877760	99720216	33184
226	0.128034	165744640	133877760	99875528	33184
227	0.126975	165744640	133877760	100031472	33184
228	0.124569	165744640	133877760	100188040	33184
229	0.159949	165744640	133877760	100348136	33184
230	0.126	165744640	133877760	100505944	33184
231	0.131225	165744640	133877760	100664392	33184
232	0.135864	165744640	133877760	100823504	33184
233	0.131286	165744640	133877760	100983248	33184
234	0.1282	165744640	133877760	101143616	33184
235	0.161509	165744640	133877760	101304616	33184
236	0.131248	165744640	133877760	101466304	33184
237	0.133775	165744640	133877760	101628560	33184
238	0.13029	165744640	133877760	101791440	33184
239	0.137115	165744640	133877760	101954992	33184
240	0.138567	165744640	133877760	102119152	33184
241	0.134481	165744640	133877760	102283944	33184
242	0.473934	165744640	133877760	102449360	33184
243	0.149815	165744640	133877760	102615456	33184
244	0.144444	165744640	133877760	102782128	33184
245	0.134013	165744640	133877760	102949408	33184
246	0.145159	165744640	133877760	103117376	33184
247	0.132746	165744640	133877760	103285928	33184
248	0.146709	165744640	133877760	103455112	33184
249	0.137348	165744640	133877760	103624960	33184
250	0.148886	165744640	133877760	103795496	33184
251	0.135932	165744640	133877760	103966600	33184
252	0.146221	165744640	133877760	104138328	33184
253	0.138373	165744640	133877760	104310688	33184
254	0.151506	165744640	133877760	104483672	33184
255	0.138464	165744640	133877760	104657288	33184
256	0.151832	165744640	133877760	104831656	33184
257	0.140407	165744640	133877760	105006272	33184
258	0.18092	165744640	133877760	105181512	33184
259	0.159756	165744640	133877760	105357384	33184
260	0.141965	165744640	133877760	105533880	33184
261	0.145382	165744640	133877760	105710976	33184
262	0.153601	165744640	133877760	105888872	33184
263	0.167687	165744640	133877760	106067584	33184
264	0.146093	165744640	133877760	106247088	33184
265	0.166144	165744640	133877760	106427784	33184
266	0.146699	165744640	133877760	106609464	33184
267	0.149575	165744640	133877760	106792120	33184
268	0.145082	165744640	133877760	106975752	33184
269	0.151825	165744640	133877760	107160384	33184
270	0.149038	165744640	133877760	107345976	33184
271	0.156229	165744640	133877760	107532552	33184
272	0.14985	165744640	133877760	107720104	33184
273	0.184547	165744640	133877760	107908640	33184
274	0.170686	165744640	133877760	108098152	33184
275	0.149638	165744640	133877760	108288696	33184
276	0.153631	165744640	133877760	108480168	33184
277	0.151001	165744640	133877760	108672272	33184
278	0.159305	165744640	133877760	108865016	33184
279	0.15665	165744640	133877760	109058376	33184
280	0.160986	165744640	133877760	109252360	33184
281	7.103638	166010880	134402048	97149176	33184
282	0.293259	166010880	134402048	97344424	33184
283	0.163246	166010880	134402048	97540296	33184
284	0.152738	166010880	134402048	97736792	33184
285	0.158695	166010880	134402048	97933928	33184
286	0.195709	166010880	134402048	98131680	33184
287	0.174743	166010880	134402048	98330064	33184
288	0.153512	166010880	134402048	98528816	33184
289	0.160095	166010880	134402048	98727816	33184
290	0.147717	166010880	134402048	98927440	33184
291	0.155399	166010880	134402048	99127696	33184
292	0.150135	166010880	134402048	99328576	33184
293	0.154905	166010880	134402048	99530096	33184
294	0.149723	166010880	134402048	99732232	33184
295	0.201181	166010880	134402048	99935000	33184
296	0.158486	166010880	134402048	100138424	33184
297	0.156041	166010880	134402048	100342448	33184
298	0.151108	166010880	134402048	100547096	33184
299	0.156868	166010880	134402048	100752432	33184
300	0.153118	166010880	134402048	100958336	33184
301	0.158308	166010880	134402048	101164872	33184
302	0.154166	166010880	134402048	101372048	33184
303	0.159176	166010880	134402048	101579840	33184
304	0.159165	166010880	134402048	101788256	33184
305	0.158672	166010880	134402048	101997312	33184
306	0.183748	166010880	134402048	102206984	33184
307	0.182467	166010880	134402048	102417344	33184
308	0.158218	166010880	134402048	102628272	33184
309	0.163964	166010880	134402048	102839832	33184
310	0.160086	166010880	134402048	103052032	33184
311	0.162568	166010880	134402048	103264848	33184
312	0.159693	166010880	134402048	103478288	33184
313	0.167997	166010880	134402048	103692584	33184
314	0.161902	166010880	134402048	103907280	33184
315	0.16876	166010880	134402048	104122632	33184
316	0.181978	166010880	134402048	104338584	33184
317	0.161548	166010880	134402048	104555168	33184
318	0.167965	166010880	134402048	104772392	33184
319	0.162976	166010880	134402048	104990232	33184
320	0.167814	166010880	134402048	105208464	33184
321	0.166316	166010880	134402048	105426920	33184
322	0.172277	166010880	134402048	105646000	33184
323	0.16792	166010880	134402048	105865744	33184
324	0.172628	166010880	134402048	106086080	33184
325	0.494273	166010880	134402048	106307048	33184
326	0.191948	166010880	134402048	106528656	33184
327	0.173659	166010880	134402048	106750880	33184
328	0.168363	166010880	134402048	106973736	33184
329	0.174791	166010880	134402048	107197216	33184
330	0.169105	166010880	134402048	107421320	33184
331	0.178569	166010880	134402048	107646112	33184
332	0.176296	166010880	134402048	107871472	33184
333	0.174196	166010880	134402048	108097504	33184
334	0.178593	166010880	134402048	108324120	33184
335	0.172524	166010880	134402048	108551368	33184
336	0.177958	166010880	134402048	108779272	33184
337	0.172769	166010880	134402048	109007776	33184
338	0.188771	166010880	134402048	109236968	33184
339	0.181844	166010880	134402048	109466728	33184
340	0.176108	166010880	134402048	109697112	33184
341	0.182268	166010880	134402048	109928128	33184
342	0.202588	166010880	134402048	110159768	33184
343	0.200453	166010880	134402048	110392064	33184
344	0.198859	166010880	134402048	110624960	33184
345	0.19155	166010880	134402048	110858488	33184
346	0.184113	166010880	134402048	111092680	33184
347	0.187814	166010880	134402048	111327464	33184
348	0.187133	166010880	134402048	111562928	33184
349	0.200646	166010880	134402048	111798968	33184
350	0.194827	166010880	134402048	112035632	33184
351	0.186668	166010880	134402048	112272944	33184
352	0.191643	166010880	134402048	112510648	33184
353	0.19391	166010880	134402048	112748576	33184
354	0.227335	166010880	134402048	112987112	33184
355	0.184858	167632896	135974912	100477304	33184
356	0.42309	167632896	135974912	100717144	33184
357	0.190265	167632896	135974912	100957568	33184
358	0.181538	167632896	135974912	101198616	33184
359	0.183373	167632896	135974912	101440336	33184
360	0.178578	167632896	135974912	101687088	33184
361	0.186919	167632896	135974912	101930080	33184
362	0.200632	167632896	135974912	102173640	33184
363	0.194909	167632896	135974912	102417832	33184
364	0.183829	167632896	135974912	102662648	33184
365	0.180963	167632896	135974912	102908096	33184
366	0.218714	167632896	135974912	103154432	33184
367	0.381894	167632896	135974912	103401136	33184
368	0.206009	167632896	135974912	103648528	33184
369	0.19209	167632896	135974912	103896488	33184
370	0.199089	167632896	135974912	104145112	33184
371	0.197688	167632896	135974912	104394328	33184
372	0.210372	167903232	135974912	104644168	33184
373	0.207655	167903232	135974912	104894672	33184
374	0.196094	167903232	135974912	105145768	33184
375	0.198282	167903232	135974912	105397528	33184
376	0.201102	167903232	135974912	105649880	33184
377	0.218913	167903232	135974912	105902872	33184
378	0.217313	167903232	136499200	106156480	33184
379	0.202791	167903232	136499200	106410744	33184
380	0.197784	167903232	136499200	106665608	33184
381	0.230878	167903232	136499200	106921104	33184
382	0.225264	167903232	136499200	107177320	33184
383	0.200105	168173568	136499200	107434072	33184
384	0.205757	168173568	136499200	107691264	33184
385	0.22158	168173568	136499200	107948632	33184
386	0.204604	168173568	136499200	108206624	33184
387	0.203215	168173568	136499200	108465248	33184
388	0.201202	168173568	136499200	108724504	33184
389	0.205692	168173568	136499200	108984384	33184
390	0.210102	168173568	136499200	109244904	33184
391	0.202754	168173568	136499200	109506040	33184
392	0.206959	168173568	136499200	109767800	33184
393	0.212806	168443904	136499200	110030224	33184
394	0.204543	168443904	136499200	110293240	33184
395	0.214492	168443904	136499200	110556936	33184
396	0.224374	168443904	136499200	110821208	33184
397	0.218583	168443904	136499200	111086168	33184
398	0.244567	168443904	137023488	111351696	33184
399	0.214049	168443904	137023488	111617856	33184
400	0.213219	168443904	137023488	111884640	33184
401	0.21772	168443904	137023488	112152064	33184
402	0.231542	168443904	137023488	112420104	33184
403	0.210709	168714240	137023488	112688800	33184
404	0.217576	168714240	137023488	112958096	33184
405	0.216338	168714240	137023488	113228024	33184
406	0.212734	168714240	137023488	113498840	33184
407	0.219624	168714240	137023488	113770024	33184
408	0.232656	168714240	137023488	114041840	33184
409	0.214862	168714240	137023488	114314280	33184
410	0.222072	168714240	137023488	114587408	33184
411	0.221499	168714240	137023488	114861104	33184
412	0.232692	168714240	137023488	115135424	33184
413	0.228198	168984576	137023488	115410376	33184
414	0.257243	168984576	137023488	115685968	33184
415	0.216581	168984576	137023488	115962176	33184
416	0.227699	168984576	137023488	116238888	33184
417	0.247044	168984576	137547776	116515712	33184
418	6.4402	170876928	139644928	103952664	33184
419	0.40086	170876928	139644928	104230808	33184
420	0.234863	170876928	139644928	104509512	33184
421	0.253605	170876928	139644928	104788904	33184
422	0.211082	170876928	139644928	105068864	33184
423	0.224659	170876928	139644928	105349456	33184
424	0.22633	171147264	139644928	105630672	33184
425	0.215561	171147264	139644928	105912536	33184
426	0.218342	171147264	139644928	106195008	33184
427	0.236819	171147264	139644928	106478128	33184
428	0.239005	171147264	139644928	106761856	33184
429	0.240574	171147264	139644928	107046248	33184
430	0.220851	171147264	139644928	107331232	33184
431	0.240054	171147264	139644928	107616896	33184
432	0.219295	171147264	139644928	107903136	33184
433	0.229297	171147264	139644928	108190064	33184
434	0.2381	171417600	139644928	108477560	33184
435	0.221165	171417600	139644928	108765688	33184
436	0.226601	171417600	139644928	109054440	33184
437	0.244274	171417600	139644928	109343832	33184
438	0.224207	171417600	139644928	109633840	33184
439	0.228759	171417600	139644928	109924496	33184
440	0.257049	171417600	139644928	110215760	33184
441	0.227172	171417600	139644928	110507688	33184
442	0.225043	171417600	139644928	110800208	33184
443	0.228827	171687936	139644928	111093400	33184
444	0.297283	171687936	140169216	111387176	33184
445	0.227309	171687936	140169216	111681640	33184
446	0.235614	171687936	140169216	111976672	33184
447	0.236337	171687936	140169216	112272400	33184
448	0.228618	171687936	140169216	112568536	33184
449	0.231737	171687936	140169216	112864832	33184
450	0.237833	171687936	140169216	113161736	33184
451	0.264322	171687936	140169216	113459296	33184
452	0.227246	171958272	140169216	113757456	33184
453	0.239957	171958272	140169216	114056280	33184
454	0.268883	171958272	140169216	114355696	33184
455	0.26559	171958272	140169216	114655768	33184
456	0.232333	171958272	140169216	114956440	33184
457	0.239404	171958272	140169216	115257776	33184
458	0.446646	171958272	140169216	115559760	33184
459	0.263428	171958272	140169216	115862320	33184
460	0.237338	171958272	140169216	116165512	33184
461	0.260522	172228608	140693504	116469328	33184
462	0.279104	172228608	140693504	116773776	33184
463	0.239877	172228608	140693504	117078848	33184
464	0.244587	172228608	140693504	117384568	33184
465	0.242749	172228608	140693504	117690896	33184
466	0.281299	172228608	140693504	117997888	33184
467	0.245408	172228608	140693504	118305472	33184
468	0.242225	172228608	140693504	118613728	33184
469	0.248847	172228608	140693504	118922568	33184
470	0.28167	172498944	140693504	119232088	33184
471	0.295547	172498944	140693504	119542184	33184
472	0.239949	172498944	140693504	119852968	33184
473	5.920062	174391296	142790656	107191816	33184
474	0.484067	174391296	142790656	107503840	33184
475	0.254115	174391296	142790656	107816448	33184
476	0.277295	174391296	142790656	108129704	33184
477	0.306176	174391296	142790656	108443568	33184
478	0.269794	174391296	142790656	108758088	33184
479	0.248528	174391296	142790656	109073208	33184
480	0.253451	174391296	142790656	109388856	33184
481	0.24381	174391296	142790656	109704592	33184
482	0.237178	174661632	142790656	110021016	33184
483	0.251607	174661632	142790656	110338040	33184
484	0.279826	174661632	142790656	110655656	33184
485	0.245024	174661632	142790656	110973960	33184
486	0.239304	174661632	142790656	111292832	33184
487	0.253988	174661632	142790656	111612360	33184
488	0.301613	174661632	143314944	111932488	33184
489	0.280495	174661632	143314944	112253280	33184
490	0.268134	174931968	143314944	112574664	33184
491	0.275579	174931968	143314944	112896720	33184
492	0.286298	174931968	143314944	113219400	33184
493	0.282953	174931968	143314944	113542672	33184
494	0.265275	174931968	143314944	113866624	33184
495	0.243637	174931968	143314944	114191152	33184
496	0.256298	174931968	143314944	114516304	33184
497	0.284394	174931968	143314944	114842088	33184
498	0.288783	175202304	143314944	115168512	33184
499	0.245336	175202304	143314944	115495576	33184
500	0.261382	175202304	143314944	115823240	33184
501	0.264267	175202304	143314944	116151600	33184
502	0.258683	175202304	143314944	116480520	33184
503	0.46563	175202304	143314944	116810112	33184
504	0.268335	175202304	143839232	117140288	33184
505	0.265525	175202304	143839232	117471144	33184
506	0.268597	175472640	143839232	117802584	33184
507	0.262225	175472640	143839232	118134648	33184
508	0.288363	175472640	143839232	118467336	33184
509	0.257337	175472640	143839232	118800656	33184
510	0.269182	175472640	143839232	119134608	33184
511	0.268038	175472640	143839232	119469184	33184
512	0.266608	175472640	143839232	119804672	33184
513	0.294832	175472640	143839232	120140248	33184
514	0.25916	175472640	143839232	120476400	33184
515	0.467276	175742976	143839232	120813192	33184
516	0.288732	175742976	143839232	121150600	33184
517	0.303717	175742976	143839232	121488464	33184
518	0.269175	175742976	143839232	121827048	33184
519	0.28231	175742976	144363520	122166344	33184
520	0.265712	175742976	144363520	122506376	33184
521	0.280288	175742976	144363520	122847488	33184
522	0.310839	176013312	144363520	123189336	33184
523	5.895833	177635328	146460672	110468392	33184
524	0.541637	177635328	146460672	110811728	33184
525	0.277179	177635328	146460672	111155800	33184
526	0.281375	177635328	146460672	111500608	33184
527	0.269894	177905664	146460672	111846160	33184
528	0.29788	177905664	146460672	112192504	33184
529	0.269277	177905664	146460672	112539592	33184
530	0.278428	177905664	146460672	112887360	33184
531	0.277115	177905664	146460672	113235912	33184
532	0.271336	177905664	146460672	113585160	33184
533	0.493135	177905664	146460672	113935184	33184
534	0.277277	177905664	146460672	114285920	33184
535	0.267692	178176000	146460672	114637392	33184
536	0.28079	178176000	146460672	114989608	33184
537	0.311592	178176000	146460672	115342560	33184
538	0.27722	178176000	146460672	115696256	33184
539	0.304532	178176000	146460672	116050704	33184
540	0.274637	178176000	146460672	116405872	33184
541	0.273102	178176000	146460672	116761840	33184
542	0.284672	178176000	146460672	117118544	33184
543	0.31347	178446336	146460672	117475936	33184
544	0.309357	178446336	146460672	117834032	33184
545	0.323662	178446336	146984960	118192264	33184
546	0.283951	178446336	146984960	118551248	33184
547	0.274321	178446336	146984960	118910976	33184
548	0.275578	178446336	146984960	119271424	33184
549	0.289793	178446336	146984960	119632624	33184
550	0.295628	178716672	146984960	119994592	33184
551	0.291417	178716672	146984960	120357264	33184
552	0.315703	178716672	146984960	120720736	33184
553	0.287853	178716672	146984960	121084888	33184
554	0.286089	178716672	146984960	121450024	33184
555	0.285899	178716672	146984960	121815656	33184
556	0.323895	178716672	146984960	122188824	33184
557	0.31428	178716672	146984960	122555976	33184
558	0.296753	178987008	146984960	122923840	33184
559	0.309172	178987008	147509248	123292432	33184
560	0.331246	178987008	147509248	123661776	33184
561	0.295026	178987008	147509248	124031888	33184
562	0.290309	178987008	147509248	124402696	33184
563	0.291617	178987008	147509248	124774248	33184
564	0.305644	178987008	147509248	125146536	33184
565	0.304348	179257344	147509248	125519568	33184
566	0.303815	179257344	147509248	125893392	33184
567	0.509872	179257344	147509248	126267920	33184
568	0.331286	179257344	147509248	126643168	33184
569	6.090669	180879360	149606400	114081552	33184
570	0.541397	181149696	149606400	114458280	33184
571	0.303424	181149696	149606400	114835776	33184
572	0.32744	181149696	149606400	115213984	33184
573	0.313232	181149696	149606400	115593168	33184
574	0.298691	181149696	149606400	115972888	33184
575	0.306707	181149696	149606400	116353320	33184
576	0.305717	181149696	149606400	116734448	33184
577	0.306551	181420032	149606400	117115752	33184
578	0.303235	181420032	149606400	117497760	33184
579	0.302045	181420032	149606400	117880552	33184
580	0.304286	181420032	149606400	118264080	33184
581	0.300953	181420032	149606400	118648312	33184
582	0.296796	181420032	149606400	119033296	33184
583	0.300963	181420032	149606400	119419008	33184
584	0.550162	181690368	150130688	119805472	33184
585	0.313203	181690368	150130688	120192664	33184
586	0.3116	181690368	150130688	120580608	33184
587	0.309031	181690368	150130688	120969312	33184
588	0.309213	181690368	150130688	121358720	33184
589	0.312091	181690368	150130688	121748880	33184
590	0.30957	181690368	150130688	122139832	33184
591	0.310181	181960704	150130688	122531464	33184
592	0.312464	181960704	150130688	122923888	33184
593	0.30823	181960704	150130688	123317016	33184
594	0.31743	181960704	150130688	123710864	33184
595	0.321836	181960704	150130688	124105488	33184
596	0.32306	181960704	150130688	124500864	33184
597	0.34336	181960704	150654976	124896936	33184
598	0.324129	182231040	150654976	125293760	33184
599	0.321117	182231040	150654976	125691320	33184
600	0.32264	182231040	150654976	126089608	33184
601	0.356083	182231040	150654976	126488656	33184
602	0.320249	182231040	150654976	126888440	33184
603	0.32324	182231040	150654976	127289016	33184
604	0.322585	182231040	150654976	127690264	33184
605	0.355285	182501376	150654976	128092304	33184
606	0.325071	182501376	150654976	128495056	33184
607	0.318978	182501376	150654976	128898528	33184
608	0.321387	182501376	150654976	129302688	33184
609	0.324125	182501376	150654976	129707056	33184
610	6.63676	184393728	153276416	117404464	33184
611	0.652795	184393728	153276416	117810272	33184
612	0.335546	184393728	153276416	118216808	33184
613	0.333496	184664064	153276416	118624320	33184
614	0.331832	184664064	153276416	119032328	33184
615	0.333058	184664064	153276416	119441088	33184
616	0.330246	184664064	153276416	119850640	33184
617	0.332856	184664064	153276416	120260872	33184
618	0.330209	184664064	153276416	120671888	33184
619	0.363955	184934400	153276416	121083616	33184
620	0.332991	184934400	153276416	121496120	33184
621	0.328062	184934400	153276416	121909312	33184
622	0.328883	184934400	153276416	122323264	33184
623	0.330227	184934400	153276416	122737944	33184
624	0.331171	184934400	153276416	123153352	33184
625	0.334794	184934400	153276416	123569504	33184
626	0.331808	185204736	153276416	123986440	33184
627	0.332846	185204736	153276416	124404136	33184
628	0.33363	185204736	153276416	124822504	33184
629	0.40892	185204736	153800704	125241680	33184
630	0.338561	185204736	153800704	125661408	33184
631	0.337535	185204736	153800704	126081912	33184
632	0.3308	185475072	153800704	126503072	33184
633	0.335837	185475072	153800704	126924992	33184
634	0.337964	185475072	153800704	127347600	33184
635	0.385138	185475072	153800704	127771008	33184
636	0.349816	185475072	153800704	128195064	33184
637	0.345311	185475072	153800704	128619888	33184
638	0.348893	185475072	153800704	129045448	33184
639	0.357898	185745408	153800704	129471680	33184
640	0.354076	185745408	153800704	129898632	33184
641	0.350466	185745408	153800704	130325736	33184
642	0.37197	185745408	154324992	130753528	33184
643	0.351333	185745408	154324992	131182016	33184
644	0.351027	185745408	154324992	131611248	33184
645	0.36354	186015744	154324992	132041248	33184
646	0.357837	186015744	154324992	132471848	33184
647	0.353206	186015744	154324992	132903144	33184
648	0.354955	186015744	154324992	133335192	33184
649	6.966102	187908096	156422144	121324376	33184
650	0.587385	187908096	156422144	121757904	33184
651	0.363786	188178432	156422144	122192160	33184
652	0.389756	188178432	156422144	122627152	33184
653	0.353659	188178432	156422144	123062896	33184
654	0.358184	188178432	156422144	123499392	33184
655	0.358579	188178432	156422144	123936664	33184
656	0.355653	188178432	156422144	124374640	33184
657	0.356045	188448768	156422144	124813336	33184
658	0.377947	188448768	156946432	125252808	33184
659	0.362441	188448768	156946432	125693024	33184
660	0.362424	188448768	156946432	126133952	33184
661	0.354094	188448768	156946432	126575608	33184
662	0.384978	188448768	156946432	127017896	33184
663	0.365569	188719104	156946432	127460976	33184
664	0.359469	188719104	156946432	127904776	33184
665	0.359926	188719104	156946432	128349272	33184
666	0.370672	188719104	156946432	128794528	33184
667	0.504882	188719104	156946432	129240696	33184
668	0.448299	188719104	156946432	129691176	33184
669	0.369624	188989440	156946432	130138632	33184
670	0.389523	188989440	157470720	130586824	33184
671	0.39599	188989440	157470720	131035768	33184
672	0.372302	188989440	157470720	131485448	33184
673	0.623833	188989440	157470720	131935784	33184
674	0.403201	188989440	157470720	132386320	33184
675	0.406806	189259776	157470720	132837576	33184
676	0.413575	189259776	157470720	133292312	33184
677	0.370748	189259776	157470720	133745096	33184
678	0.365024	189259776	157470720	134198512	33184
679	0.413779	189259776	157470720	134652904	33184
680	0.370698	189259776	157470720	135107752	33184
681	0.388451	189530112	157995008	135563352	33184
682	0.375321	189530112	157995008	136019720	33184
683	0.374975	189530112	157995008	136476848	33184
684	0.374458	191692800	160092160	124650472	33184
685	0.785848	191692800	160092160	125109024	33184
686	0.378238	191692800	160092160	125568312	33184
687	0.369781	191692800	160092160	126028376	33184
688	0.370959	191692800	160092160	126489160	33184
689	0.368728	191963136	160092160	126950720	33184
690	0.371155	191963136	160092160	127412976	33184
691	0.417581	191963136	160092160	127875968	33184
692	0.370817	191963136	160092160	128339712	33184
693	0.396892	191963136	160616448	128804216	33184
694	0.377553	191963136	160616448	129269424	33184
695	0.37575	192233472	160616448	129735408	33184
696	0.375177	192233472	160616448	130202096	33184
697	0.383867	192233472	160616448	130669624	33184
698	0.380594	192233472	160616448	131137808	33184
699	0.38438	192233472	160616448	131606736	33184
700	0.391225	192233472	160616448	132076440	33184
701	0.384745	192503808	160616448	132546840	33184
702	0.386627	192503808	160616448	133017968	33184
703	0.418903	192503808	160616448	133489864	33184
704	0.379571	192503808	160616448	133962512	33184
705	0.402933	192503808	161140736	134435224	33184
706	0.382102	192503808	161140736	134908712	33184
707	0.381997	192774144	161140736	135382904	33184
708	0.382341	192774144	161140736	135857848	33184
709	0.617514	192774144	161140736	136333568	33184
710	0.416584	192774144	161140736	136810000	33184
711	0.393023	192774144	161140736	137287208	33184
712	0.393049	193044480	161140736	137765112	33184
713	0.393425	193044480	161140736	138243744	33184
714	0.397245	193044480	161140736	138723112	33184
715	0.406733	193044480	161140736	139203240	33184
716	0.410438	193044480	161665024	139684096	33184
717	0.393396	193044480	161665024	140165720	33184
718	6.978488	195207168	163762176	128487568	33184
719	0.741134	195207168	163762176	128970696	33184
720	0.627615	195477504	163762176	129454504	33184
721	0.400371	195477504	163762176	129939080	33184
722	0.398397	195477504	163762176	130424432	33184
723	0.39594	195477504	163762176	130910464	33184
724	0.39679	195477504	163762176	131397248	33184
725	0.400922	195747840	163762176	131884808	33184
726	0.419533	195747840	163762176	132373112	33184
727	0.436703	195747840	164286464	132862112	33184
728	0.437369	195747840	164286464	133351888	33184
729	0.411785	195747840	164286464	133842360	33184
730	0.396328	195747840	164286464	134333568	33184
731	0.402907	196018176	164286464	134825560	33184
732	0.410684	196018176	164286464	135318256	33184
733	0.411325	196018176	164286464	135811744	33184
734	0.404756	196018176	164286464	136305944	33184
735	0.425631	196018176	164286464	136800912	33184
736	0.421607	196018176	164286464	137296584	33184
737	0.450765	196288512	164286464	137792336	33184
738	0.420302	196288512	164810752	138288848	33184
739	0.41048	196288512	164810752	138786080	33184
740	0.411451	196288512	164810752	139284064	33184
741	0.413892	196288512	164810752	139782816	33184
742	0.416802	196558848	164810752	140282272	33184
743	0.417216	196558848	164810752	140782496	33184
744	0.408574	196558848	164810752	141283432	33184
745	0.602281	196558848	164810752	141785104	33184
746	0.43632	196558848	164810752	142287552	33184
747	0.415939	196558848	164810752	142790760	33184
748	0.419006	196829184	164810752	143294704	33184
749	0.438663	196829184	165335040	143799360	33184
750	7.140519	198991872	167956480	132308472	33184
751	0.752879	198991872	167956480	132814608	33184
752	0.423313	199262208	167956480	133321464	33184
753	0.418884	199262208	167956480	133829064	33184
754	0.424018	199262208	167956480	134337440	33184
755	0.610203	199262208	167956480	134846512	33184
756	0.433337	199262208	167956480	135356360	33184
757	0.41643	199532544	167956480	135866912	33184
758	0.417703	199532544	167956480	136378200	33184
759	0.417707	199532544	167956480	136890304	33184
760	0.423422	199532544	167956480	137403080	33184
761	0.428164	199532544	167956480	137916592	33184
762	0.419662	199532544	167956480	138430856	33184
763	0.450639	199802880	167956480	138945904	33184
764	0.442256	199802880	167956480	139461648	33184
765	0.428215	199802880	167956480	139978160	33184
766	0.429964	199802880	167956480	140495384	33184
767	0.470099	199802880	168480768	141013368	33184
768	0.447671	200073216	168480768	141532136	33184
769	0.422081	200073216	168480768	142050928	33184
770	0.430703	200073216	168480768	142570536	33184
771	0.454506	200073216	168480768	143090816	33184
772	0.457664	200073216	168480768	143611840	33184
773	0.45628	200073216	168480768	144133616	33184
774	0.447587	200343552	168480768	144656168	33184
775	0.429365	200343552	168480768	145179416	33184
776	0.472017	200343552	168480768	145703440	33184
777	0.452148	200343552	169005056	146228160	33184
778	0.443368	200343552	169005056	146753656	33184
779	0.652453	200613888	169005056	147279856	33184
780	7.227576	202776576	171626496	135864344	33184
781	0.880615	202776576	171626496	136392080	33184
782	0.439514	203046912	171626496	136920520	33184
783	0.43402	203046912	171626496	137449672	33184
784	0.437766	203046912	171626496	137979592	33184
785	0.440721	203046912	171626496	138510280	33184
786	0.459404	203046912	171626496	139041680	33184
787	0.490338	203317248	171626496	139573848	33184
788	0.636502	203317248	171626496	140106696	33184
789	0.47154	203317248	171626496	140640328	33184
790	0.44184	203317248	171626496	141174704	33184
791	0.463546	203317248	171626496	141709792	33184
792	0.455976	203317248	171626496	142245600	33184
793	0.43973	203587584	171626496	142782192	33184
794	0.443321	203587584	171626496	143319480	33184
795	0.473188	203587584	172150784	143857544	33184
796	0.54091	203587584	172150784	144396312	33184
797	0.462537	203587584	172150784	144935848	33184
798	0.447106	203857920	172150784	145476160	33184
799	0.450507	203857920	172150784	146017176	33184
800	0.449959	203857920	172150784	146559032	33184
801	0.475933	203857920	172150784	147100880	33184
802	0.465134	203857920	172150784	147643504	33184
803	0.453296	204128256	172150784	148186824	33184
804	0.461622	204128256	172150784	148730920	33184
805	0.474868	204128256	172675072	149275720	33184
806	0.449672	204128256	172675072	149821288	33184
807	0.452998	204128256	172675072	150367560	33184
808	0.460637	204398592	172675072	150914592	33184
809	0.460214	204398592	172675072	151462400	33184
810	7.891134	206561280	175296512	140190568	33184
811	0.584193	206831616	175296512	140739864	33184
812	0.492201	206831616	175296512	141289856	33184
813	0.539828	206831616	175296512	141840616	33184
814	0.476656	206831616	175296512	142392088	33184
815	0.471165	206831616	175296512	142944328	33184
816	0.453918	207101952	175296512	143497272	33184
817	0.459274	207101952	175296512	144050984	33184
818	0.479463	207101952	175296512	144605400	33184
819	0.942366	207101952	175296512	145160584	33184
820	0.691289	207101952	175296512	145716888	33184
821	0.516894	207372288	175820800	146273544	33184
822	0.745298	207372288	175820800	146835976	33184
823	0.515596	207372288	175820800	147394112	33184
824	0.481562	207372288	175820800	147953024	33184
825	0.4991	207372288	175820800	148512632	33184
826	0.490393	207642624	175820800	149073016	33184
827	0.488096	207642624	175820800	149634104	33184
828	0.487657	207642624	175820800	150195960	33184
829	0.475683	207642624	175820800	150758520	33184
830	0.470789	207642624	175820800	151321856	33184
831	0.510698	207912960	176345088	151885888	33184
832	0.485331	207912960	176345088	152450768	33184
833	0.498915	207912960	176345088	153015640	33184
834	0.491372	207912960	176345088	153581280	33184
835	0.489572	208183296	176345088	154147696	33184
836	0.472645	208183296	176345088	154714816	33184
837	7.841091	210616320	178966528	143524504	33184
838	0.921945	210616320	178966528	144093080	33184
839	0.477333	210616320	178966528	144662440	33184
840	0.510818	210616320	178966528	145232504	33184
841	0.510174	210886656	178966528	145803344	33184
842	0.488842	210886656	178966528	146374888	33184
843	0.477839	210886656	178966528	146947200	33184
844	0.501	210886656	179490816	147520216	33184
845	0.488418	210886656	179490816	148094000	33184
846	0.473139	211156992	179490816	148668488	33184
847	0.480408	211156992	179490816	149243752	33184
848	0.703972	211156992	179490816	149819720	33184
849	0.477955	211156992	179490816	150396456	33184
850	0.481752	211156992	179490816	150984232	33184
851	0.479813	211427328	179490816	151562448	33184
852	0.504921	211427328	179490816	152141376	33184
853	0.499594	211427328	179490816	152721088	33184
854	0.504614	211427328	180015104	153301504	33184
855	0.54937	211427328	180015104	153882680	33184
856	0.50319	211697664	180015104	154464568	33184
857	0.484511	211697664	180015104	155047216	33184
858	0.491366	211697664	180015104	155630712	33184
859	0.514255	211697664	180015104	156214848	33184
860	0.506381	211697664	180015104	156799856	33184
861	0.493107	211968000	180015104	157385512	33184
862	0.577635	211968000	180015104	157971864	33184
863	0.531433	211968000	180539392	158558992	33184
864	7.854039	214401024	183160832	147423992	33184
865	0.937491	214401024	183160832	148012008	33184
866	0.498102	214401024	183160832	148600776	33184
867	0.498161	214671360	183160832	149190216	33184
868	0.486366	214671360	183160832	149780352	33184
869	0.504303	214671360	183160832	150371264	33184
870	0.499477	214671360	183160832	150962880	33184
871	0.491422	214671360	183160832	151555264	33184
872	0.496908	214941696	183160832	152148352	33184
873	0.500591	214941696	183160832	152742216	33184
874	0.516583	214941696	183160832	153336848	33184
875	0.511396	214941696	183160832	153932184	33184
876	0.535655	214941696	183160832	154528288	33184
877	0.566571	215212032	183685120	155125096	33184
878	0.523591	215212032	183685120	155722680	33184
879	0.504409	215212032	183685120	156320960	33184
880	0.522623	215212032	183685120	156920016	33184
881	0.518173	215482368	183685120	157519776	33184
882	0.50417	215482368	183685120	158120304	33184
883	0.532119	215482368	183685120	158721536	33184
884	0.521808	215482368	183685120	159323544	33184
885	0.506458	215482368	183685120	159926440	33184
886	0.721014	215752704	184209408	160529944	33184
887	0.726798	215752704	184209408	161134176	33184
888	0.60726	215752704	184209408	161739104	33184
889	0.709091	215752704	184209408	162344832	33184
890	10.473609	218456064	186830848	151344200	33184
891	1.203353	218456064	186830848	151951400	33184
892	0.69981	218456064	186830848	152559304	33184
893	0.760505	218456064	186830848	153167976	33184
894	0.83703	218456064	186830848	153777352	33184
895	1.090788	218726400	186830848	154387504	33184
896	1.297961	218726400	186830848	154998496	33184
897	1.159649	218726400	186830848	155609480	33184
898	1.243625	218726400	186830848	156221168	33184
899	1.546184	218726400	187355136	156833624	33184
900	1.282895	218996736	187355136	157446792	33184
901	1.176894	218996736	187355136	158060720	33184
902	1.117333	218996736	187355136	158675400	33184
903	1.470488	218996736	187355136	159290792	33184
904	1.373156	219267072	187355136	159906976	33184
905	1.510732	219267072	187355136	160523856	33184
906	1.408935	219267072	187355136	161141512	33184
907	1.669202	219267072	187879424	161759864	33184
908	1.502374	219267072	187879424	162379000	33184
909	1.64554	219537408	187879424	162998896	33184
910	1.594136	219537408	187879424	163619504	33184
911	1.762692	219537408	187879424	164240880	33184
912	1.679492	219537408	187879424	164862952	33184
913	1.838176	219807744	187879424	165485808	33184
914	1.906684	219807744	187879424	166109336	33184
915	10.690772	222240768	190500864	155148776	33184
916	4.710808	222240768	190500864	155773832	33184
917	2.350346	222240768	190500864	156399624	33184
918	2.469459	222511104	190500864	157026128	33184
919	2.561725	222511104	191025152	157653400	33184
920	2.574463	222511104	191025152	158281376	33184
921	2.701232	222511104	191025152	158910120	33184
922	2.738021	222781440	191025152	159539576	33184
923	2.787801	222781440	191025152	160169792	33184
924	2.820789	222781440	191025152	160800720	33184
925	3.035694	222781440	191025152	161432464	33184
926	3.13612	222781440	191025152	162064912	33184
927	2.906726	223051776	191025152	162698080	33184
928	3.306861	223051776	191549440	163332168	33184
929	3.431317	223051776	191549440	163966168	33184
930	3.617985	223051776	191549440	164600952	33184
931	3.492959	223322112	191549440	165236432	33184
932	3.297822	223322112	191549440	165872688	33184
933	3.902045	223322112	191549440	166509640	33184
934	4.135944	223322112	191549440	167147328	33184
935	12.584857	178798592	144363520	88389184	33184
936	1.427435	163594240	144363520	89028704	33184
937	1.167364	163594240	144363520	89668680	33184
938	1.014612	163594240	144363520	90309360	33184
939	0.949534	163594240	144363520	90950808	33184
940	0.946652	163594240	144363520	91592960	33184
941	1.065114	163594240	144363520	92235880	33184
942	1.201932	163594240	144363520	92879512	33184
943	1.385842	163594240	144363520	93524000	33184
944	6.947545	164671488	144363520	80625936	33184
945	1.617543	165212160	144363520	81271808	33184
946	0.659124	165752832	144363520	81918384	33184
947	0.647613	166293504	144363520	82565728	33184
948	0.664517	166834176	144363520	83213776	33184
949	0.673332	167645184	144363520	83862600	33184
950	0.646055	168185856	144363520	84512192	33184
951	0.672011	168726528	144363520	85162512	33184
952	0.666788	169267200	144363520	85813576	33184
953	0.670805	169807872	144363520	86465352	33184
954	0.668741	170348544	144363520	87117888	33184
955	0.652354	171159552	144363520	87771136	33184
956	0.676963	171700224	144363520	88425152	33184
957	0.662378	172240896	144363520	89079896	33184
958	0.660157	172781568	144363520	89735384	33184
959	0.650004	173322240	144363520	90391576	33184
960	0.674757	174133248	144363520	91048680	33184
961	0.657564	174673920	144363520	91705712	33184
962	0.651356	175214592	144363520	92363512	33184
963	0.661374	175755264	144363520	93022088	33184
964	0.655764	176295936	144363520	93681392	33184
965	0.55832	176295936	144363520	94341440	33184
966	0.563393	176295936	144363520	95002184	33184
967	0.561439	176295936	144363520	95663712	33184
968	0.555192	176295936	144363520	96325936	33184
969	0.541999	176295936	144363520	96988928	33184
970	0.533762	176295936	144363520	97652616	33184
971	6.69795	176836608	145412096	85608648	33184
972	0.565205	176836608	145412096	86273824	33184
973	0.568767	176836608	145412096	86939800	33184
974	0.554111	176836608	145412096	87606512	33184
975	0.550175	176836608	145412096	88273936	33184
976	0.559549	176836608	145412096	88942128	33184
977	0.554877	176836608	145412096	89611016	33184
978	0.534948	176836608	145412096	90280688	33184
979	0.55882	176836608	145412096	90951080	33184
980	0.561851	176836608	145412096	91622224	33184
981	0.565181	176836608	145412096	92294064	33184
982	0.568542	176836608	145412096	92966680	33184
983	0.554904	176836608	145412096	93639992	33184
984	0.546361	176836608	145412096	94314064	33184
985	0.54057	176836608	145412096	94988904	33184
986	0.559578	176836608	145412096	95664464	33184
987	0.54842	176836608	145412096	96340800	33184
988	0.567711	176836608	145412096	97017840	33184
989	0.774875	176836608	145412096	97695648	33184
990	0.576213	176836608	145412096	98374192	33184
991	0.575874	176836608	145412096	99053472	33184
992	0.584687	176836608	145412096	99733672	33184
993	8.443266	179810304	148557824	89284216	33184
994	1.30705	179810304	148557824	89965080	33184
995	0.605455	179810304	148557824	90646672	33184
996	0.574564	179810304	148557824	91328968	33184
997	0.559222	179810304	148557824	92012040	33184
998	0.552447	179810304	148557824	92695816	33184
999	0.560859	179810304	148557824	93380384	33184
1000	0.755568	179810304	148557824	94065632	33184
