x	Duration	RSS	HeapTotal	HeapUsed	External
0	NA	165724160	133877760	91607392	33184
1	0.048683	165724160	133877760	91616432	33184
2	0.033491	165724160	133877760	91626456	33184
3	0.029544	165724160	133877760	91636984	33184
4	0.028659	165724160	133877760	91648136	33184
5	0.027613	165724160	133877760	91659944	33184
6	0.0279	165724160	133877760	91672376	33184
7	0.032555	166051840	133877760	91685464	33184
8	0.047337	166051840	133877760	91702248	33184
9	0.043125	166051840	133877760	91718304	33184
10	0.042387	166051840	133877760	91734824	33184
11	0.038932	166051840	133877760	91752240	33184
12	0.038361	166051840	133877760	91770376	33184
13	0.042335	166051840	133877760	91789232	33184
14	0.040504	166051840	133877760	91808888	33184
15	0.039541	166051840	133877760	91829184	33184
16	0.044812	166051840	133877760	91850512	33184
17	0.043142	166051840	133877760	91873040	33184
18	0.06938	166051840	133877760	91896336	33184
19	0.044882	166051840	133877760	91920776	33184
20	0.049174	166051840	133877760	91945480	33184
21	0.045596	166051840	133877760	91970976	33184
22	0.059407	166051840	133877760	91996584	33184
23	0.049335	166051840	133877760	92023696	33184
24	0.051734	166051840	133877760	92051704	33184
25	0.051655	166051840	133877760	92080496	33184
26	0.055118	166051840	133877760	92109888	33184
27	0.053231	166051840	133877760	92139904	33184
28	0.056048	166051840	133877760	92170656	33184
29	0.057313	166051840	133877760	92202152	33184
30	0.054754	166051840	133877760	92234384	33184
31	0.05955	166051840	133877760	92267360	33184
32	0.056719	166051840	133877760	92300680	33184
33	0.059847	166051840	133877760	92334520	33184
34	0.060864	166051840	133877760	92369096	33184
35	0.059169	166051840	133877760	92404448	33184
36	0.064547	166051840	133877760	92440504	33184
37	0.06315	166051840	133877760	92477344	33184
38	0.064392	166051840	133877760	92514760	33184
39	0.061733	166051840	133877760	92552880	33184
40	0.066222	166051840	133877760	92591592	33184
41	0.068658	166051840	133877760	92631032	33184
42	0.066445	166051840	133877760	92671272	33184
43	0.065706	166051840	133877760	92712320	33184
44	0.064999	166051840	133877760	92754168	33184
45	0.065435	166051840	133877760	92797496	33184
46	0.06553	166051840	133877760	92840952	33184
47	0.074148	166051840	133877760	92885216	33184
48	0.068036	166051840	133877760	92930304	33184
49	0.070079	166051840	133877760	92976224	33184
50	0.068955	166051840	133877760	93022920	33184
51	0.070423	166051840	133877760	93070424	33184
52	0.070569	166051840	133877760	93118728	33184
53	0.232471	166051840	133877760	93167640	33184
54	0.07783	166051840	133877760	93217256	33184
55	0.072601	166051840	133877760	93267688	33184
56	0.052496	166051840	133877760	93318736	33184
57	0.053023	166051840	133877760	93370624	33184
58	0.052179	166051840	133877760	93423136	33184
59	0.053313	166051840	133877760	93476280	33184
60	0.054335	166051840	133877760	93530104	33184
61	0.053638	166051840	133877760	93584504	33184
62	0.054934	166051840	133877760	93639528	33184
63	0.05939	166051840	133877760	93695184	33184
64	0.05598	166051840	133877760	93751096	33184
65	0.056127	166051840	133877760	93807392	33184
66	0.057332	166051840	133877760	93864312	33184
67	0.055965	166051840	133877760	93921864	33184
68	0.057165	166051840	133877760	93980040	33184
69	0.05731	166051840	133877760	94038824	33184
70	0.063213	166051840	133877760	94098384	33184
71	0.059405	166051840	133877760	94158544	33184
72	0.058539	166051840	133877760	94219336	33184
73	0.059434	166051840	133877760	94280792	33184
74	0.060385	166051840	133877760	94342872	33184
75	0.060641	166051840	133877760	94405584	33184
76	0.065988	166051840	133877760	94468920	33184
77	0.061585	166051840	133877760	94532888	33184
78	0.062276	166051840	133877760	94597480	33184
79	0.063898	166051840	133877760	94662760	33184
80	0.064233	166051840	133877760	94728824	33184
81	0.077883	166051840	133877760	94795328	33184
82	0.09313	166051840	133877760	94862456	33184
83	0.094859	166051840	133877760	94931368	33184
84	0.071113	166051840	133877760	95000808	33184
85	0.068141	166051840	133877760	95069720	33184
86	0.067543	166051840	133877760	95139152	33184
87	0.070133	166051840	133877760	95209488	33184
88	0.098444	166051840	133877760	95280392	33184
89	0.07161	166051840	133877760	95351960	33184
90	0.071339	166051840	133877760	95424152	33184
91	0.069233	166051840	133877760	95496976	33184
92	0.070543	166051840	133877760	95570424	33184
93	0.073961	166051840	133877760	95644504	33184
94	0.070886	166051840	133877760	95719208	33184
95	0.071894	166051840	133877760	95794584	33184
96	0.072265	166051840	133877760	95870192	33184
97	0.073162	166051840	133877760	95946168	33184
98	0.077692	166051840	133877760	96022768	33184
99	0.075976	166051840	133877760	96100000	33184
100	0.074712	166051840	133877760	96177856	33184
101	0.075586	166051840	133877760	96256320	33184
102	0.075706	166051840	133877760	96335328	33184
103	0.079741	166051840	133877760	96414976	33184
104	0.076841	166051840	133877760	96495256	33184
105	0.077464	166051840	133877760	96576200	33184
106	0.07706	166051840	133877760	96657768	33184
107	0.082087	166051840	133877760	96739968	33184
108	0.078694	166051840	133877760	96822792	33184
109	0.08026	166051840	133877760	96906272	33184
110	0.079496	166051840	133877760	96990352	33184
111	0.083819	166051840	133877760	97075064	33184
112	0.081196	166051840	133877760	97160424	33184
113	0.081294	166051840	133877760	97246416	33184
114	0.081906	166051840	133877760	97333032	33184
115	0.082225	166051840	133877760	97420280	33184
116	0.090836	166051840	133877760	97508160	33184
117	0.084845	166051840	133877760	97596640	33184
118	0.085365	166051840	133877760	97685664	33184
119	0.084423	166051840	133877760	97775328	33184
120	0.089527	166051840	133877760	97865624	33184
121	0.111049	166051840	133877760	97956584	33184
122	0.090434	166051840	133877760	98048176	33184
123	0.104839	166051840	133877760	98140392	33184
124	0.093225	166051840	133877760	98233232	33184
125	0.088061	166051840	133877760	98326704	33184
126	0.088448	166051840	133877760	98420800	33184
127	0.088141	166051840	133877760	98515528	33184
128	0.09394	166051840	133877760	98610552	33184
129	0.09022	166051840	133877760	98705632	33184
130	0.091184	166051840	133877760	98801336	33184
131	0.095006	166051840	133877760	98897832	33184
132	0.091927	166051840	133877760	98994952	33184
133	0.091978	166051840	133877760	99092680	33184
134	0.09289	166051840	133877760	99191088	33184
135	0.095807	166051840	133877760	99290088	33184
136	0.093493	166051840	133877760	99389720	33184
137	0.094479	166051840	133877760	99490016	33184
138	0.097158	166051840	133877760	99590936	33184
139	0.095369	166051840	133877760	99692488	33184
140	0.096971	166051840	133877760	99794720	33184
141	0.095374	166051840	133877760	99897528	33184
142	0.100907	166051840	133877760	100002792	33184
143	0.096813	166051840	133877760	100106856	33184
144	0.096795	166051840	133877760	100211568	33184
145	0.102094	166051840	133877760	100316912	33184
146	0.100784	166051840	133877760	100422896	33184
147	0.100121	166051840	133877760	100529496	33184
148	0.098062	166051840	133877760	100636720	33184
149	0.106466	166051840	133877760	100744552	33184
150	0.26312	166051840	133877760	100853496	33184
151	0.112871	166051840	133877760	100963120	33184
152	0.124889	166051840	133877760	101073336	33184
153	0.103699	166051840	133877760	101184216	33184
154	0.103485	166051840	133877760	101295720	33184
155	0.107963	166051840	133877760	101407856	33184
156	0.106637	166051840	133877760	101520640	33184
157	0.1045	166051840	133877760	101634032	33184
158	0.109142	166051840	133877760	101748048	33184
159	0.107372	166051840	133877760	101862696	33184
160	0.105648	166051840	133877760	101977656	33184
161	0.108848	166051840	133877760	102093000	33184
162	0.106822	166051840	133877760	102208912	33184
163	0.106968	166051840	133877760	102325456	33184
164	0.112149	166051840	133877760	102442624	33184
165	0.11029	166051840	133877760	102560400	33184
166	0.11112	166051840	133877760	102679112	33184
167	0.113264	166051840	133877760	102798424	33184
168	0.109659	166051840	133877760	102918368	33184
169	0.11105	166051840	133877760	103038976	33184
170	0.115253	166051840	133877760	103160208	33184
171	0.11373	166051840	133877760	103282112	33184
172	0.112369	166051840	133877760	103404600	33184
173	0.118051	166051840	133877760	103527720	33184
174	0.113005	166051840	133877760	103651464	33184
175	0.177489	166051840	133877760	103775904	33184
176	0.125209	166051840	133877760	103900928	33184
177	0.130194	166051840	133877760	104026584	33184
178	0.119983	166051840	133877760	104152864	33184
179	0.117443	166051840	133877760	104279776	33184
180	0.11705	166051840	133877760	104407352	33184
181	0.123131	166051840	133877760	104535496	33184
182	0.117876	166051840	133877760	104664272	33184
183	0.118237	166051840	133877760	104793688	33184
184	0.12449	166051840	133877760	104923768	33184
185	0.12035	166051840	133877760	105054480	33184
186	0.120204	166051840	133877760	105185816	33184
187	0.126658	166051840	133877760	105317784	33184
188	0.122835	166051840	133877760	105450376	33184
189	7.750884	166592512	134402048	93918656	33184
190	0.145723	166592512	134402048	94052528	33184
191	0.121173	166592512	134402048	94187008	33184
192	0.112949	166592512	134402048	94321824	33184
193	0.111632	166592512	134402048	94456944	33184
194	0.120422	166592512	134402048	94592744	33184
195	0.123871	166592512	134402048	94729120	33184
196	0.117659	166592512	134402048	94866120	33184
197	0.11565	166592512	134402048	95003728	33184
198	0.117244	166592512	134402048	95142008	33184
199	0.119854	166592512	134402048	95280888	33184
200	0.11499	166592512	134402048	95420400	33184
201	0.312852	166592512	134402048	95560576	33184
202	0.1301	166592512	134402048	95701448	33184
203	0.200083	166592512	134402048	95842880	33184
204	0.14737	166592512	134402048	95984936	33184
205	0.140114	166592512	134402048	96128272	33184
206	0.161035	166592512	134402048	96271656	33184
207	0.119818	166592512	134402048	96415600	33184
208	0.1244	166592512	134402048	96560192	33184
209	0.121858	166592512	134402048	96705416	33184
210	0.119783	166592512	134402048	96851280	33184
211	0.127538	166592512	134402048	96997760	33184
212	0.121215	166592512	134402048	97144864	33184
213	0.126946	166592512	134402048	97292576	33184
214	0.122278	166592512	134402048	97440928	33184
215	0.124758	166592512	134402048	97589912	33184
216	0.132633	166592512	134402048	97739528	33184
217	0.122626	166592512	134402048	97889808	33184
218	0.132865	166592512	134402048	98040712	33184
219	0.128855	166592512	134402048	98192248	33184
220	0.127804	166592512	134402048	98344408	33184
221	0.124657	166592512	134402048	98497200	33184
222	0.131274	166592512	134402048	98650632	33184
223	0.137093	166592512	134402048	98804680	33184
224	0.147177	166592512	134402048	98959080	33184
225	0.127184	166592512	134402048	99113768	33184
226	0.129677	166592512	134402048	99269088	33184
227	0.140896	166592512	134402048	99425032	33184
228	0.129225	166592512	134402048	99581600	33184
229	0.135561	166592512	134402048	99741696	33184
230	0.129843	166592512	134402048	99899504	33184
231	0.133489	166592512	134402048	100057952	33184
232	0.130496	166592512	134402048	100217032	33184
233	0.138155	166592512	134402048	100376776	33184
234	0.132065	166592512	134402048	100537144	33184
235	0.137493	166592512	134402048	100698144	33184
236	0.134849	166592512	134402048	100859792	33184
237	0.138067	166592512	134402048	101022048	33184
238	0.136163	166592512	134402048	101184928	33184
239	0.139935	166592512	134402048	101348440	33184
240	0.136627	166592512	134402048	101512616	33184
241	0.138252	166592512	134402048	101677408	33184
242	0.138081	166592512	134402048	101842824	33184
243	0.148694	166592512	134402048	102008872	33184
244	0.152622	166592512	134402048	102175544	33184
245	0.154562	166592512	134402048	102342824	33184
246	0.146156	166592512	134402048	102510736	33184
247	0.139532	166592512	134402048	102679312	33184
248	0.150454	166592512	134402048	102848496	33184
249	0.140524	166592512	134402048	103018344	33184
250	0.145353	166592512	134402048	103188848	33184
251	0.142666	166592512	134402048	103359952	33184
252	0.153044	166592512	134402048	103531680	33184
253	0.146355	166592512	134402048	103704040	33184
254	0.145533	166592512	134402048	103877088	33184
255	0.14793	166592512	134402048	104050704	33184
256	0.147672	166592512	134402048	104225056	33184
257	0.150396	166592512	134402048	104399688	33184
258	0.144937	166592512	134402048	104574928	33184
259	0.151978	166592512	134402048	104750800	33184
260	0.148942	166592512	134402048	104927344	33184
261	0.15376	166592512	134402048	105104440	33184
262	0.149395	166592512	134402048	105282336	33184
263	0.173395	166592512	134402048	105461072	33184
264	0.154081	166592512	134402048	105640576	33184
265	0.170797	166592512	134402048	105821272	33184
266	0.169104	166592512	134402048	106002952	33184
267	0.179237	166592512	134402048	106185608	33184
268	0.152265	166592512	134402048	106369240	33184
269	0.170488	166592512	134402048	106553856	33184
270	0.155699	166592512	134402048	106739528	33184
271	0.162623	166592512	134402048	106926104	33184
272	0.176054	166592512	134402048	107113656	33184
273	0.157695	166592512	134402048	107302200	33184
274	0.158732	166592512	134402048	107491712	33184
275	0.158479	166592512	134402048	107682208	33184
276	0.165112	166592512	134402048	107873784	33184
277	0.158016	166592512	134402048	108065888	33184
278	0.166002	166592512	134402048	108258616	33184
279	0.161215	166592512	134402048	108452120	33184
280	0.166287	166592512	134402048	108646104	33184
281	0.164791	166592512	134402048	108840720	33184
282	0.184506	166592512	134402048	109035960	33184
283	0.203606	166592512	134402048	109231832	33184
284	6.59722	166592512	134402048	97141576	33184
285	0.331691	166592512	134402048	97338768	33184
286	0.157829	166592512	134402048	97536520	33184
287	0.173289	166592512	134402048	97734904	33184
288	0.158277	166592512	134402048	97933656	33184
289	0.184736	166592512	134402048	98132656	33184
290	0.170345	166592512	134402048	98332280	33184
291	0.166238	166592512	134402048	98532600	33184
292	0.15744	166592512	134402048	98733480	33184
293	0.163731	166592512	134402048	98934992	33184
294	0.159234	166592512	134402048	99137144	33184
295	0.164518	166592512	134402048	99339912	33184
296	0.158545	166592512	134402048	99543304	33184
297	0.166478	166592512	134402048	99747368	33184
298	0.159549	166592512	134402048	99952016	33184
299	0.167514	166592512	134402048	100157552	33184
300	0.161118	166592512	134402048	100363456	33184
301	0.168383	166592512	134402048	100569992	33184
302	0.169268	166592512	134402048	100777176	33184
303	0.174277	166592512	134402048	100984968	33184
304	0.164601	166592512	134402048	101193384	33184
305	0.166479	166592512	134402048	101402472	33184
306	0.168932	166592512	134402048	101612144	33184
307	0.187798	166592512	134402048	101822448	33184
308	0.203157	166592512	134402048	102033440	33184
309	0.165084	166592512	134402048	102245000	33184
310	0.172189	166592512	134402048	102457232	33184
311	0.165929	166592512	134402048	102670048	33184
312	0.172339	166592512	134402048	102883488	33184
313	0.167579	166592512	134402048	103097592	33184
314	0.172209	166592512	134402048	103312288	33184
315	0.168856	166592512	134402048	103527616	33184
316	0.176592	166592512	134402048	103743632	33184
317	0.168894	166592512	134402048	103960216	33184
318	0.178438	166592512	134402048	104177440	33184
319	0.189433	166592512	134402048	104395280	33184
320	0.185742	166592512	134402048	104613512	33184
321	0.178634	166592512	134402048	104832024	33184
322	0.173273	166592512	134402048	105051104	33184
323	0.177682	166592512	134402048	105270816	33184
324	0.174934	166592512	134402048	105491304	33184
325	0.213011	166592512	134402048	105712272	33184
326	0.183273	166592512	134402048	105933920	33184
327	0.183535	166592512	134402048	106156144	33184
328	0.19611	166592512	134402048	106378992	33184
329	0.180079	166592512	134402048	106602512	33184
330	0.182134	166592512	134402048	106826616	33184
331	0.189892	166592512	134402048	107051376	33184
332	0.184512	166592512	134402048	107276736	33184
333	0.179384	166592512	134402048	107502728	33184
334	0.18801	166592512	134402048	107729360	33184
335	0.200775	166592512	134402048	107956608	33184
336	0.181024	166592512	134402048	108184536	33184
337	0.189843	166592512	134402048	108413040	33184
338	0.183605	166592512	134402048	108642168	33184
339	0.190787	166592512	134402048	108871984	33184
340	0.185092	166592512	134402048	109102368	33184
341	0.19044	166592512	134402048	109333392	33184
342	0.243098	166592512	134402048	109565032	33184
343	0.205598	166592512	134402048	109797304	33184
344	0.191395	166592512	134402048	110030232	33184
345	0.188007	166592512	134402048	110263760	33184
346	0.202997	166592512	134402048	110497952	33184
347	0.209532	166592512	134402048	110732736	33184
348	0.1927	166592512	134402048	110968144	33184
349	0.19473	166592512	134402048	111204248	33184
350	0.192123	166592512	134402048	111440912	33184
351	0.200483	166592512	134402048	111678208	33184
352	0.223902	166592512	134402048	111915912	33184
353	0.193874	166592512	134402048	112153824	33184
354	0.199121	166592512	134402048	112392368	33184
355	0.208452	166592512	134402048	112631536	33184
356	0.194139	166592512	134402048	112871336	33184
357	0.198731	166592512	134402048	113111760	33184
358	6.448685	167944192	135974912	100593008	33184
359	0.373688	167944192	135974912	100834704	33184
360	0.199152	167944192	135974912	101081456	33184
361	0.188999	167944192	135974912	101324392	33184
362	0.194055	167944192	135974912	101567952	33184
363	0.221629	167944192	135974912	101812144	33184
364	0.212508	167944192	135974912	102056960	33184
365	0.22894	167944192	135974912	102302408	33184
366	0.190403	167944192	135974912	102548496	33184
367	0.203027	167944192	135974912	102795200	33184
368	0.199918	167944192	135974912	103042560	33184
369	0.197025	167944192	135974912	103290520	33184
370	0.201884	167944192	135974912	103539104	33184
371	0.199455	167944192	135974912	103788360	33184
372	0.208323	167944192	135974912	104038200	33184
373	0.219385	168214528	135974912	104288736	33184
374	0.224611	168214528	136499200	104539832	33184
375	0.204697	168214528	136499200	104791560	33184
376	0.202778	168214528	136499200	105043912	33184
377	0.209003	168214528	136499200	105296904	33184
378	0.224191	168214528	136499200	105550512	33184
379	0.203375	168214528	136499200	105804752	33184
380	0.23253	168214528	136499200	106059680	33184
381	0.222531	168214528	136499200	106315176	33184
382	0.213627	168214528	136499200	106571336	33184
383	0.240191	168214528	136499200	106828088	33184
384	0.208473	168484864	136499200	107085296	33184
385	0.21224	168484864	136499200	107342664	33184
386	0.242918	168484864	136499200	107600656	33184
387	0.213228	168484864	136499200	107859280	33184
388	0.211264	168484864	136499200	108118528	33184
389	0.210279	168484864	136499200	108378448	33184
390	0.214061	168484864	136499200	108638952	33184
391	0.216185	168484864	136499200	108900144	33184
392	0.21402	168484864	136499200	109161904	33184
393	0.221061	168484864	136499200	109424328	33184
394	0.27292	168755200	137023488	109687344	33184
395	0.409102	168755200	137023488	109951040	33184
396	0.244113	168755200	137023488	110215312	33184
397	0.238829	168755200	137023488	110480272	33184
398	0.218673	168755200	137023488	110745800	33184
399	0.220596	168755200	137023488	111012232	33184
400	0.238635	168755200	137023488	111279016	33184
401	0.219179	168755200	137023488	111546432	33184
402	0.221699	168755200	137023488	111814512	33184
403	0.238871	168755200	137023488	112083184	33184
404	0.218861	169025536	137023488	112352520	33184
405	0.224839	169025536	137023488	112622448	33184
406	0.244043	169025536	137023488	112893040	33184
407	0.220696	169025536	137023488	113164224	33184
408	0.226368	169025536	137023488	113436080	33184
409	0.236663	169025536	137023488	113708520	33184
410	0.222595	169025536	137023488	113981648	33184
411	0.229982	169025536	137023488	114255344	33184
412	0.259659	169025536	137023488	114529664	33184
413	0.223223	169025536	137023488	114804616	33184
414	0.257173	169295872	137547776	115080208	33184
415	0.273128	169295872	137547776	115356416	33184
416	0.222587	169295872	137547776	115633136	33184
417	0.237289	169295872	137547776	115909960	33184
418	0.266772	169295872	137547776	116187448	33184
419	0.232267	169295872	137547776	116465528	33184
420	6.166254	171188224	139644928	103894056	33184
421	0.446862	171188224	139644928	104173392	33184
422	0.232481	171188224	139644928	104453352	33184
423	0.252695	171188224	139644928	104733944	33184
424	0.215791	171188224	139644928	105015160	33184
425	0.224309	171458560	139644928	105297224	33184
426	0.221123	171458560	139644928	105579696	33184
427	0.219574	171458560	139644928	105862800	33184
428	0.225754	171458560	139644928	106146536	33184
429	0.284749	171458560	139644928	106430896	33184
430	0.235223	171458560	139644928	106716000	33184
431	0.225874	171458560	139644928	107001616	33184
432	0.229418	171458560	139644928	107287880	33184
433	0.226107	171458560	139644928	107574752	33184
434	0.229912	171728896	139644928	107862256	33184
435	0.255256	171728896	139644928	108150384	33184
436	0.221016	171728896	139644928	108439136	33184
437	0.229648	171728896	139644928	108728520	33184
438	0.229232	171728896	139644928	109018528	33184
439	0.22474	171728896	139644928	109309200	33184
440	0.252986	171728896	140169216	109600464	33184
441	0.233582	171728896	140169216	109892384	33184
442	0.249715	171728896	140169216	110184904	33184
443	0.26933	171999232	140169216	110478104	33184
444	0.233927	171999232	140169216	110771880	33184
445	0.267317	171999232	140169216	111066336	33184
446	0.23595	171999232	140169216	111361368	33184
447	0.240094	171999232	140169216	111657032	33184
448	0.271333	171999232	140169216	111953168	33184
449	0.233411	171999232	140169216	112249464	33184
450	0.231887	171999232	140169216	112546368	33184
451	0.238673	171999232	140169216	112843928	33184
452	0.238018	171999232	140169216	113142088	33184
453	0.234167	172269568	140169216	113440912	33184
454	0.243126	172269568	140169216	113740328	33184
455	0.241352	172269568	140169216	114040416	33184
456	0.270522	172269568	140169216	114341088	33184
457	0.42628	172269568	140169216	114642448	33184
458	0.285406	172269568	140693504	114944376	33184
459	0.283266	172269568	140693504	115246936	33184
460	0.240198	172269568	140693504	115550120	33184
461	0.241482	172539904	140693504	115853944	33184
462	0.254243	172539904	140693504	116158384	33184
463	0.249731	172539904	140693504	116463496	33184
464	0.411197	172539904	140693504	116769200	33184
465	0.260386	172539904	140693504	117075528	33184
466	0.254625	172539904	140693504	117382520	33184
467	0.284334	172539904	140693504	117690104	33184
468	0.247768	172539904	140693504	117998360	33184
469	0.27286	172539904	140693504	118307200	33184
470	0.251846	172810240	140693504	118616720	33184
471	0.253729	172810240	140693504	118926816	33184
472	0.282326	172810240	140693504	119237536	33184
473	0.247566	172810240	140693504	119548888	33184
474	0.256373	172810240	140693504	119860880	33184
475	0.304436	172810240	141217792	120173488	33184
476	6.382488	174702592	143314944	107509608	33184
477	0.286407	174702592	143314944	107823512	33184
478	0.283362	174702592	143314944	108138032	33184
479	0.243491	174702592	143314944	108453152	33184
480	0.256896	174702592	143314944	108768800	33184
481	0.278976	174702592	143314944	109084536	33184
482	0.251849	174972928	143314944	109400960	33184
483	0.259527	174972928	143314944	109717952	33184
484	0.25472	174972928	143314944	110035568	33184
485	0.261125	174972928	143314944	110353816	33184
486	0.283405	174972928	143314944	110672712	33184
487	0.305207	174972928	143314944	110992232	33184
488	0.264631	174972928	143314944	111312360	33184
489	0.253749	174972928	143314944	111633152	33184
490	0.25249	174972928	143314944	111954536	33184
491	0.28322	175243264	143314944	112276592	33184
492	0.250276	175243264	143314944	112599232	33184
493	0.258061	175243264	143314944	112922560	33184
494	0.28575	175243264	143314944	113246496	33184
495	0.255789	175243264	143314944	113571024	33184
496	0.248903	175243264	143314944	113896176	33184
497	0.252686	175243264	143314944	114221960	33184
498	0.25804	175243264	143314944	114548384	33184
499	0.289205	175513600	143314944	114875424	33184
500	0.319396	175513600	143314944	115203112	33184
501	0.295856	175513600	143839232	115531408	33184
502	0.263659	175513600	143839232	115860456	33184
503	0.265123	175513600	143839232	116190048	33184
504	0.294323	175513600	143839232	116520224	33184
505	0.270477	175513600	143839232	116851088	33184
506	0.256587	175513600	143839232	117182520	33184
507	0.265607	175783936	143839232	117514648	33184
508	0.261787	175783936	143839232	117847352	33184
509	0.295926	175783936	143839232	118180672	33184
510	0.264559	175783936	143839232	118514624	33184
511	0.256792	175783936	143839232	118849200	33184
512	0.266276	175783936	143839232	119184688	33184
513	0.32239	175783936	143839232	119520216	33184
514	0.274241	175783936	143839232	119856368	33184
515	0.264854	176054272	143839232	120193200	33184
516	0.260637	176054272	143839232	120530608	33184
517	0.296398	176054272	144363520	120868480	33184
518	0.277598	176054272	144363520	121207032	33184
519	0.302626	176054272	144363520	121546328	33184
520	0.27154	176054272	144363520	121886384	33184
521	0.300655	176054272	144363520	122227496	33184
522	0.269503	176054272	144363520	122569352	33184
523	0.276182	176324608	144363520	122911944	33184
524	0.277182	176324608	144363520	123255280	33184
525	6.032669	177946624	146460672	110548552	33184
526	0.537228	177946624	146460672	110893392	33184
527	0.281475	177946624	146460672	111238944	33184
528	0.27469	178216960	146460672	111585288	33184
529	0.309463	178216960	146460672	111932320	33184
530	0.441775	178216960	146460672	112280128	33184
531	0.295624	178216960	146460672	112628688	33184
532	0.273236	178216960	146460672	112977936	33184
533	0.279766	178216960	146460672	113327960	33184
534	0.311562	178216960	146460672	113678688	33184
535	0.27794	178216960	146460672	114030200	33184
536	0.305709	178487296	146460672	114382456	33184
537	0.28836	178487296	146460672	114735408	33184
538	0.283791	178487296	146460672	115089096	33184
539	0.279073	178487296	146460672	115443568	33184
540	0.279071	178487296	146460672	115798736	33184
541	0.315384	178487296	146460672	116154688	33184
542	0.329035	178487296	146984960	116511336	33184
543	0.281968	178757632	146984960	116868768	33184
544	0.278434	178757632	146984960	117226808	33184
545	0.29219	178757632	146984960	117585040	33184
546	0.315313	178757632	146984960	117944040	33184
547	0.288092	178757632	146984960	118303816	33184
548	0.287104	178757632	146984960	118664264	33184
549	0.287593	178757632	146984960	119025480	33184
550	0.284639	178757632	146984960	119387408	33184
551	0.28899	179027968	146984960	119750080	33184
552	0.299079	179027968	146984960	120113520	33184
553	0.347904	179027968	146984960	120477672	33184
554	0.311968	179027968	146984960	120842608	33184
555	0.296659	179027968	146984960	121208296	33184
556	0.312408	179027968	147509248	121581464	33184
557	0.29696	179027968	147509248	121948616	33184
558	0.297248	179298304	147509248	122316464	33184
559	0.302213	179298304	147509248	122685056	33184
560	0.297907	179298304	147509248	123054416	33184
561	0.300362	179298304	147509248	123424488	33184
562	0.30243	179298304	147509248	123795296	33184
563	0.299469	179298304	147509248	124166888	33184
564	0.30125	179298304	147509248	124539176	33184
565	0.478535	179568640	147509248	124912272	33184
566	0.298942	179568640	147509248	125286096	33184
567	0.299721	179568640	147509248	125660608	33184
568	0.314706	179568640	147509248	126035904	33184
569	0.309388	179568640	147509248	126411912	33184
570	0.329426	179568640	148033536	126788640	33184
571	6.183168	181460992	150130688	114242896	33184
572	0.501516	181460992	150130688	114621104	33184
573	0.30674	181460992	150130688	115000080	33184
574	0.308184	181460992	150130688	115379800	33184
575	0.303502	181460992	150130688	115760232	33184
576	0.303218	181460992	150130688	116141328	33184
577	0.303382	181731328	150130688	116522664	33184
578	0.298743	181731328	150130688	116904672	33184
579	0.30691	181731328	150130688	117287488	33184
580	0.312129	181731328	150130688	117670992	33184
581	0.332176	181731328	150130688	118055224	33184
582	0.306344	181731328	150130688	118440240	33184
583	0.309016	181731328	150130688	118825992	33184
584	0.310647	181731328	150130688	119212440	33184
585	0.309217	182001664	150130688	119599656	33184
586	0.311421	182001664	150130688	119987592	33184
587	0.301812	182001664	150130688	120376264	33184
588	0.31577	182001664	150130688	120765736	33184
589	0.455765	182001664	150130688	121156040	33184
590	0.396728	182001664	150130688	121548000	33184
591	0.372462	182001664	150130688	121939856	33184
592	0.317898	182272000	150130688	122332256	33184
593	0.319554	182272000	150130688	122725352	33184
594	0.316606	182272000	150130688	123119184	33184
595	0.346225	182272000	150654976	123513768	33184
596	0.320086	182272000	150654976	123909120	33184
597	0.321574	182272000	150654976	124305176	33184
598	0.315512	182542336	150654976	124702024	33184
599	0.320341	182542336	150654976	125099616	33184
600	0.315703	182542336	150654976	125497888	33184
601	0.320417	182542336	150654976	125896952	33184
602	0.374541	182542336	150654976	126296720	33184
603	0.332672	182542336	150654976	126697216	33184
604	0.32658	182542336	150654976	127098488	33184
605	0.329581	182812672	150654976	127500488	33184
606	0.3313	182812672	150654976	127903208	33184
607	0.326839	182812672	150654976	128306664	33184
608	0.34971	182812672	151179264	128710856	33184
609	0.328308	182812672	151179264	129115184	33184
610	0.330965	182812672	151179264	129520216	33184
611	0.326174	182812672	151179264	129926000	33184
612	6.797023	184705024	153276416	117651968	33184
613	0.597626	184975360	153276416	118059224	33184
614	0.347974	184975360	153276416	118467216	33184
615	0.351742	184975360	153276416	118876008	33184
616	0.359559	184975360	153276416	119285528	33184
617	0.354976	184975360	153276416	119695744	33184
618	0.346369	184975360	153276416	120106720	33184
619	0.35434	185245696	153276416	120518416	33184
620	0.344098	185245696	153276416	120930848	33184
621	0.353956	185245696	153276416	121344040	33184
622	0.332802	185245696	153276416	121757976	33184
623	0.357932	185245696	153276416	122172696	33184
624	0.356863	185245696	153276416	122588088	33184
625	0.519807	185245696	153276416	123004272	33184
626	0.382938	185516032	153800704	123421168	33184
627	0.347787	185516032	153800704	123838784	33184
628	0.342627	185516032	153800704	124257176	33184
629	0.341552	185516032	153800704	124676312	33184
630	0.348642	185516032	153800704	125096008	33184
631	0.342232	185516032	153800704	125516432	33184
632	0.343463	185786368	153800704	125937632	33184
633	0.346561	185786368	153800704	126359504	33184
634	0.341525	185786368	153800704	126782152	33184
635	0.367292	185786368	153800704	127205472	33184
636	0.346435	185786368	153800704	127629512	33184
637	0.345401	185786368	153800704	128054280	33184
638	0.344082	185786368	153800704	128479808	33184
639	0.368699	186056704	154324992	128906024	33184
640	0.349467	186056704	154324992	129332936	33184
641	0.350099	186056704	154324992	129760000	33184
642	0.354705	186056704	154324992	130187760	33184
643	0.350023	186056704	154324992	130616232	33184
644	0.371682	186056704	154324992	131045440	33184
645	0.372653	186327040	154324992	131475384	33184
646	0.354206	186327040	154324992	131905960	33184
647	0.352151	186327040	154324992	132337240	33184
648	0.354041	186327040	154324992	132769320	33184
649	0.35552	186327040	154324992	133202144	33184
650	6.845261	188489728	156422144	121159528	33184
651	0.674649	188489728	156422144	121593768	33184
652	0.358888	188489728	156422144	122028760	33184
653	0.35099	188489728	156422144	122464488	33184
654	0.349364	188489728	156422144	122900960	33184
655	0.374697	188489728	156946432	123338200	33184
656	0.352791	188489728	156946432	123776136	33184
657	0.412002	188760064	156946432	124214832	33184
658	0.368626	188760064	156946432	124654248	33184
659	0.35006	188760064	156946432	125094440	33184
660	0.355741	188760064	156946432	125535336	33184
661	0.352748	188760064	156946432	125977008	33184
662	0.355393	188760064	156946432	126419264	33184
663	0.356743	189030400	156946432	126862264	33184
664	0.356598	189030400	156946432	127306000	33184
665	0.357103	189030400	156946432	127750504	33184
666	0.366025	189030400	156946432	128195728	33184
667	0.630923	189030400	157470720	128641880	33184
668	0.452826	189030400	157470720	129092312	33184
669	0.390976	189300736	157470720	129540736	33184
670	0.369096	189300736	157470720	129988936	33184
671	0.368471	189300736	157470720	130437920	33184
672	0.371897	189300736	157470720	130887592	33184
673	0.366519	189300736	157470720	131337392	33184
674	0.368361	189300736	157470720	131787888	33184
675	0.396917	189571072	157470720	132239144	33184
676	0.395734	189571072	157470720	132691120	33184
677	0.371851	189571072	157470720	133143872	33184
678	0.375224	189571072	157470720	133597224	33184
679	0.391551	189571072	157995008	134051328	33184
680	0.377088	189571072	157995008	134506168	33184
681	0.375371	189841408	157995008	134961792	33184
682	0.382847	189841408	157995008	135418128	33184
683	0.374076	189841408	157995008	135875184	33184
684	0.385681	189841408	157995008	136333048	33184
685	0.429647	189841408	157995008	136791584	33184
686	7.092706	192004096	160092160	124984504	33184
687	0.676156	192004096	160092160	125444528	33184
688	0.386264	192004096	160092160	125905280	33184
689	0.380177	192004096	160092160	126366800	33184
690	0.382937	192274432	160092160	126829032	33184
691	0.399507	192274432	160616448	127292040	33184
692	0.385175	192274432	160616448	127755776	33184
693	0.377226	192274432	160616448	128220248	33184
694	0.559251	192274432	160616448	128685496	33184
695	0.453989	192274432	160616448	129151496	33184
696	0.392449	192544768	160616448	129618168	33184
697	0.377456	192544768	160616448	130085632	33184
698	0.378404	192544768	160616448	130553832	33184
699	0.376466	192544768	160616448	131022728	33184
700	0.381144	192544768	160616448	131492392	33184
701	0.382336	192544768	160616448	131962768	33184
702	0.425775	192815104	160616448	132433896	33184
703	0.427288	192815104	161140736	132905800	33184
704	0.584243	192815104	161140736	133378416	33184
705	0.439866	192815104	161140736	133851168	33184
706	0.407111	192815104	161140736	134324624	33184
707	0.393173	193085440	161140736	134798800	33184
708	0.394283	193085440	161140736	135273744	33184
709	0.432699	193085440	161140736	135749456	33184
710	0.39989	193085440	161140736	136225864	33184
711	0.391814	193085440	161140736	136703040	33184
712	0.413124	193085440	161140736	137180912	33184
713	0.415565	193355776	161140736	137659528	33184
714	0.434363	193355776	161665024	138138880	33184
715	0.408989	193355776	161665024	138619016	33184
716	0.417259	193355776	161665024	139099912	33184
717	0.422309	193355776	161665024	139581512	33184
718	0.415483	193355776	161665024	140063880	33184
719	0.413295	193626112	161665024	140546936	33184
720	7.547938	195788800	164286464	128898264	33184
721	0.490873	195788800	164286464	129382816	33184
722	0.450391	195788800	164286464	129868088	33184
723	0.437005	195788800	164286464	130354120	33184
724	0.436559	196059136	164286464	130840920	33184
725	0.44267	196059136	164286464	131328416	33184
726	0.43897	196059136	164286464	131816688	33184
727	0.447821	196059136	164286464	132305728	33184
728	0.445579	196059136	164286464	132795440	33184
729	0.447892	196059136	164286464	133285912	33184
730	0.449267	196329472	164286464	133777224	33184
731	0.439498	196329472	164286464	134269168	33184
732	0.441231	196329472	164286464	134761856	33184
733	0.449996	196329472	164286464	135255320	33184
734	0.445508	196329472	164286464	135749488	33184
735	0.474982	196329472	164810752	136244424	33184
736	0.448373	196599808	164810752	136740080	33184
737	0.442253	196599808	164810752	137235856	33184
738	0.71266	196599808	164810752	137732360	33184
739	0.435413	196599808	164810752	138229608	33184
740	0.406889	196599808	164810752	138727560	33184
741	0.409525	196870144	164810752	139226288	33184
742	0.415117	196870144	164810752	139725784	33184
743	0.481514	196870144	164810752	140226056	33184
744	0.41097	196870144	164810752	140726968	33184
745	0.441779	196870144	165335040	141228624	33184
746	0.438454	196870144	165335040	141731040	33184
747	0.432338	197140480	165335040	142234184	33184
748	0.414971	197140480	165335040	142738104	33184
749	0.415085	197140480	165335040	143242720	33184
750	0.420887	197140480	165335040	143748120	33184
751	7.293845	199303168	167956480	132206840	33184
752	0.811034	199573504	167956480	132713712	33184
753	0.422762	199573504	167956480	133221352	33184
754	0.415339	199573504	167956480	133729696	33184
755	0.414342	199573504	167956480	134238808	33184
756	0.450485	199573504	167956480	134748608	33184
757	0.429681	199843840	167956480	135259144	33184
758	0.447373	199843840	167956480	135770448	33184
759	0.434798	199843840	167956480	136282472	33184
760	0.417739	199843840	167956480	136795232	33184
761	0.424836	199843840	167956480	137308768	33184
762	0.424193	199843840	167956480	137823008	33184
763	0.428654	200114176	167956480	138338024	33184
764	0.448888	200114176	167956480	138853736	33184
765	0.468183	200114176	168480768	139370224	33184
766	0.425415	200114176	168480768	139887456	33184
767	0.42548	200114176	168480768	140405392	33184
768	0.433186	200384512	168480768	140924208	33184
769	0.425145	200384512	168480768	141443008	33184
770	0.438331	200384512	168480768	141962584	33184
771	0.447414	200384512	168480768	142482848	33184
772	0.60986	200384512	168480768	143003896	33184
773	0.462955	200384512	168480768	143525640	33184
774	0.433264	200654848	168480768	144048160	33184
775	0.466567	200654848	169005056	144571376	33184
776	0.459928	200654848	169005056	145095368	33184
777	0.447385	200654848	169005056	145620064	33184
778	0.428482	200654848	169005056	146145496	33184
779	0.435853	200925184	169005056	146671672	33184
780	0.48989	200925184	169005056	147198616	33184
781	0.457317	200925184	169005056	147726320	33184
782	7.658726	203358208	171626496	136376896	33184
783	0.695939	203358208	171626496	136906080	33184
784	0.439048	203358208	171626496	137435968	33184
785	0.444822	203358208	171626496	137966632	33184
786	0.437749	203358208	171626496	138498000	33184
787	0.452333	203358208	171626496	139030136	33184
788	0.455603	203628544	171626496	139562968	33184
789	0.473097	203628544	171626496	140096600	33184
790	0.436928	203628544	171626496	140631192	33184
791	0.464473	203628544	171626496	141166304	33184
792	0.464636	203628544	171626496	141702160	33184
793	0.482601	203898880	172150784	142238720	33184
794	0.461639	203898880	172150784	142776048	33184
795	0.443988	203898880	172150784	143314088	33184
796	0.448862	203898880	172150784	143852888	33184
797	0.4527	203898880	172150784	144392400	33184
798	0.462079	204169216	172150784	144932680	33184
799	0.462106	204169216	172150784	145473656	33184
800	0.451922	204169216	172150784	146015488	33184
801	0.448643	204169216	172150784	146557304	33184
802	0.456159	204169216	172150784	147099896	33184
803	0.491541	204439552	172675072	147643256	33184
804	0.620153	204439552	172675072	148187320	33184
805	0.477914	204439552	172675072	148732160	33184
806	0.452637	204439552	172675072	149277672	33184
807	0.482512	204439552	172675072	149823960	33184
808	0.482382	204709888	172675072	150370960	33184
809	0.452575	204709888	172675072	150918736	33184
810	0.464492	204709888	172675072	151467216	33184
811	7.607677	207142912	175296512	140235456	33184
812	0.701014	207142912	175296512	140785424	33184
813	0.663327	207142912	175296512	141336160	33184
814	0.465953	207142912	175296512	141887592	33184
815	0.477092	207413248	175296512	142439800	33184
816	0.477005	207413248	175296512	142992712	33184
817	0.455914	207413248	175296512	143546400	33184
818	0.482403	207413248	175820800	144100856	33184
819	0.777533	207413248	175820800	144656008	33184
820	0.508632	207683584	175820800	145211944	33184
821	0.493661	207683584	175820800	145768576	33184
822	0.483861	207683584	175820800	146325976	33184
823	0.544497	207683584	175820800	146886640	33184
824	0.499595	207683584	175820800	147445520	33184
825	0.482461	207953920	175820800	148005104	33184
826	0.477299	207953920	175820800	148565456	33184
827	0.504761	207953920	176345088	149126512	33184
828	0.495904	207953920	176345088	149688336	33184
829	0.482984	207953920	176345088	150250888	33184
830	0.469348	208224256	176345088	150814160	33184
831	0.466401	208224256	176345088	151378296	33184
832	0.505884	208224256	176345088	151943168	33184
833	0.471744	208224256	176345088	152508064	33184
834	0.642688	208224256	176345088	153073656	33184
835	0.502834	208494592	176345088	153639992	33184
836	0.491231	208494592	176345088	154207072	33184
837	0.49805	208494592	176869376	154774896	33184
838	0.479956	208494592	176869376	155343488	33184
839	7.955644	210927616	179490816	144116104	33184
840	0.553376	210927616	179490816	144686144	33184
841	0.477522	211197952	179490816	145256952	33184
842	0.6945	211197952	179490816	145828464	33184
843	0.492775	211197952	179490816	146400744	33184
844	0.478173	211197952	179490816	146973800	33184
845	0.485048	211197952	179490816	147547552	33184
846	0.494425	211468288	179490816	148122080	33184
847	0.496956	211468288	179490816	148697312	33184
848	0.48156	211468288	179490816	149273320	33184
849	0.534205	211468288	179490816	149850024	33184
850	0.508364	211468288	179490816	150437848	33184
851	0.523611	211738624	180015104	151016024	33184
852	0.482848	211738624	180015104	151594976	33184
853	0.509264	211738624	180015104	152174632	33184
854	0.49857	211738624	180015104	152755056	33184
855	0.480902	211738624	180015104	153336256	33184
856	0.533108	212008960	180015104	153918160	33184
857	0.502606	212008960	180015104	154500832	33184
858	0.48354	212008960	180015104	155084208	33184
859	0.494957	212008960	180015104	155668336	33184
860	0.505677	212008960	180015104	156253264	33184
861	0.534557	212279296	180539392	156838864	33184
862	0.492035	212279296	180539392	157425200	33184
863	0.800043	212279296	180539392	158012256	33184
864	0.518064	212279296	180539392	158600184	33184
865	7.595674	214712320	183160832	147439304	33184
866	0.948291	214712320	183160832	148027992	33184
867	0.496067	214982656	183160832	148617368	33184
868	0.488046	214982656	183160832	149207520	33184
869	0.522136	214982656	183160832	149798432	33184
870	0.684154	214982656	183160832	150390136	33184
871	0.512731	214982656	183160832	150982496	33184
872	0.5176	215252992	183160832	151575624	33184
873	0.512447	215252992	183160832	152169448	33184
874	0.502167	215252992	183160832	152764056	33184
875	0.546225	215252992	183685120	153359360	33184
876	0.520479	215252992	183685120	153955432	33184
877	0.512019	215523328	183685120	154552208	33184
878	0.523084	215523328	183685120	155149760	33184
879	0.512993	215523328	183685120	155748016	33184
880	0.502144	215523328	183685120	156347040	33184
881	0.522573	215793664	183685120	156946840	33184
882	0.521497	215793664	183685120	157547336	33184
883	0.501197	215793664	183685120	158148608	33184
884	0.561771	215793664	184209408	158750584	33184
885	0.522828	215793664	184209408	159353328	33184
886	0.513912	216064000	184209408	159956776	33184
887	0.53109	216064000	184209408	160561000	33184
888	0.523918	216064000	184209408	161166016	33184
889	0.519405	216064000	184209408	161771696	33184
890	0.558778	216064000	184209408	162378304	33184
891	8.080398	218767360	186830848	151354408	33184
892	1.075312	218767360	186830848	151962592	33184
893	0.756116	218767360	186830848	152571256	33184
894	0.674453	218767360	186830848	153180672	33184
895	0.698996	218767360	186830848	153790784	33184
896	0.85651	219037696	186830848	154401752	33184
897	0.747541	219037696	187355136	155012704	33184
898	0.715096	219037696	187355136	155624432	33184
899	0.665095	219037696	187355136	156236856	33184
900	0.703599	219308032	187355136	156850056	33184
901	0.724355	219308032	187355136	157463960	33184
902	0.676249	219308032	187355136	158078640	33184
903	0.768735	219308032	187355136	158694016	33184
904	0.669303	219308032	187355136	159310128	33184
905	0.811547	219578368	187879424	159927064	33184
906	0.762315	219578368	187879424	160544736	33184
907	0.75043	219578368	187879424	161163136	33184
908	0.824778	219578368	187879424	161782232	33184
909	0.757953	219848704	187879424	162402104	33184
910	0.713034	219848704	187879424	163022680	33184
911	1.031081	219848704	187879424	163644024	33184
912	1.034568	219848704	187879424	164266072	33184
913	1.167356	219848704	187879424	164888888	33184
914	1.067985	220119040	188403712	165512408	33184
915	1.180209	220119040	188403712	166136704	33184
916	1.324032	220119040	188403712	166761712	33184
917	11.926226	222552064	191025152	155822096	33184
918	1.257411	222822400	191025152	156448616	33184
919	1.827923	222822400	191025152	157075856	33184
920	1.642906	222822400	191025152	157703872	33184
921	1.816825	222822400	191025152	158332592	33184
922	1.825669	222822400	191025152	158962080	33184
923	1.756403	223092736	191025152	159592272	33184
924	1.930306	223092736	191025152	160223232	33184
925	1.991971	223092736	191025152	160854896	33184
926	1.927594	223092736	191549440	161487304	33184
927	2.1567	223363072	191549440	162120504	33184
928	2.258178	223363072	191549440	162754552	33184
929	2.187963	223363072	191549440	163388528	33184
930	2.143496	223363072	191549440	164023280	33184
931	2.144013	223633408	191549440	164658800	33184
932	2.442623	223633408	191549440	165295024	33184
933	2.470653	223633408	191549440	165932016	33184
934	2.621573	223633408	192073728	166569720	33184
935	2.419158	223633408	192073728	167208136	33184
936	2.66173	223903744	192073728	167847312	33184
937	2.973446	223903744	192073728	168487256	33184
938	2.831888	223903744	192073728	169127904	33184
939	2.958221	223903744	192073728	169769320	33184
940	2.999196	224174080	192073728	170411440	33184
941	14.96351	226607104	194695168	159609912	33184
942	3.726021	226607104	194695168	160253528	33184
943	3.788727	226607104	194695168	160897936	33184
944	4.035175	226877440	194695168	161543008	33184
945	3.897	226877440	195219456	162188848	33184
946	4.053509	226877440	195219456	162835464	33184
947	4.382266	226877440	195219456	163482776	33184
948	8.492001	207892480	150654976	84616296	33184
949	1.551974	192163840	150654976	85265408	33184
950	0.686462	180629504	150654976	85914968	33184
951	0.617719	176435200	150654976	86565232	33184
952	0.591333	176435200	150654976	87216240	33184
953	0.61374	176435200	150654976	87868040	33184
954	0.594591	176435200	150654976	88520552	33184
955	0.584768	176435200	150654976	89173832	33184
956	0.644994	176435200	150654976	89827816	33184
957	0.607409	176435200	150654976	90482576	33184
958	0.625351	176435200	150654976	91138032	33184
959	0.778733	176435200	150654976	91794208	33184
960	0.631855	176435200	150654976	92451368	33184
961	0.627727	176435200	150654976	93108440	33184
962	0.637169	176435200	150654976	93766208	33184
963	0.626616	176435200	150654976	94424752	33184
964	0.625848	176435200	150654976	95083992	33184
965	1.206335	176435200	150654976	95744016	33184
966	0.65133	176435200	150654976	96404760	33184
967	0.619291	176435200	150654976	97066248	33184
968	0.642189	176435200	150654976	97728440	33184
969	6.800962	179134464	151179264	84932664	33184
970	1.14973	179945472	151179264	85596336	33184
971	0.832855	180486144	151179264	86260776	33184
972	0.710629	181026816	151179264	86925984	33184
973	0.659459	181567488	151179264	87591896	33184
974	0.667928	182378496	151179264	88258584	33184
975	0.65762	182919168	151179264	88926000	33184
976	0.553622	182919168	151179264	89594160	33184
977	0.609229	182919168	151179264	90263024	33184
978	0.535152	182919168	151179264	90932664	33184
979	0.556718	182919168	151179264	91603000	33184
980	0.560891	182919168	151179264	92274136	33184
981	0.57446	182919168	151179264	92946016	33184
982	0.559989	182919168	151179264	93618600	33184
983	0.579386	182919168	151179264	94291960	33184
984	0.56914	182919168	151179264	94966016	33184
985	0.54534	182919168	151179264	95640848	33184
986	0.539506	182919168	151179264	96316408	33184
987	0.571818	182919168	151179264	96992712	33184
988	0.562188	182919168	151179264	97669720	33184
989	0.565803	182919168	151179264	98347496	33184
990	0.749929	182919168	151179264	99025984	33184
991	0.572786	182919168	151179264	99705480	33184
992	7.695121	185081856	153800704	88730800	33184
993	1.088782	185081856	153800704	89410920	33184
994	0.580999	185081856	153800704	90091712	33184
995	0.568236	185081856	153800704	90773272	33184
996	0.590817	185081856	153800704	91455640	33184
997	0.577701	185081856	153800704	92138680	33184
998	0.575322	185081856	153800704	92822488	33184
999	0.569916	185081856	153800704	93507000	33184
1000	0.582282	185081856	153800704	94192288	33184
