x	Duration	RSS	HeapTotal	HeapUsed	External
0	NA	158277632	124964864	91569776	33184
1	0.049042	158277632	124964864	91578800	33184
2	0.032721	158277632	124964864	91588808	33184
3	0.028008	158277632	124964864	91599320	33184
4	0.027047	158277632	124964864	91610456	33184
5	0.026966	158277632	124964864	91622248	33184
6	0.026812	158277632	124964864	91634664	33184
7	0.031258	158277632	124964864	91647736	33184
8	0.045608	158277632	124964864	91664504	33184
9	0.040744	158277632	124964864	91680544	33184
10	0.03985	158277632	124964864	91697048	33184
11	0.035523	158277632	124964864	91714448	33184
12	0.036677	158277632	124964864	91732568	33184
13	0.039897	158277632	124964864	91751408	33184
14	0.036999	158277632	124964864	91770968	33184
15	0.04139	158277632	124964864	91791248	33184
16	0.040934	158277632	124964864	91812600	33184
17	0.04226	158277632	124964864	91835112	33184
18	0.046217	158277632	124964864	91858392	33184
19	0.042264	158277632	124964864	91882816	33184
20	0.046579	158277632	124964864	91907504	33184
21	0.043505	158277632	124964864	91932984	33184
22	0.056351	158277632	124964864	91958576	33184
23	0.047109	158277632	124964864	91985672	33184
24	0.050046	158277632	124964864	92013664	33184
25	0.069139	158277632	124964864	92042440	33184
26	0.0527	158277632	124964864	92071816	33184
27	0.053689	158277632	124964864	92101816	33184
28	0.049922	158277632	124964864	92132552	33184
29	0.053896	158277632	124964864	92164032	33184
30	0.050724	158277632	124964864	92196248	33184
31	0.058083	158277632	124964864	92229208	33184
32	0.056656	158277632	124964864	92262512	33184
33	0.052986	158277632	124964864	92296336	33184
34	0.061705	158277632	124964864	92330896	33184
35	0.059756	158605312	124964864	92366432	33184
36	0.058046	158605312	124964864	92402472	33184
37	0.072448	158605312	124964864	92439296	33184
38	0.060648	158605312	124964864	92476696	33184
39	0.061638	158605312	124964864	92514800	33184
40	0.062689	158605312	124964864	92553496	33184
41	0.060601	158605312	124964864	92592920	33184
42	0.062893	158605312	124964864	92633144	33184
43	0.068629	158605312	124964864	92674176	33184
44	0.064564	158605312	124964864	92716008	33184
45	0.065092	158605312	124964864	92759320	33184
46	0.067669	158605312	124964864	92802760	33184
47	0.066506	158605312	124964864	92847008	33184
48	0.067555	158605312	124964864	92892080	33184
49	0.065353	158605312	124964864	92937984	33184
50	0.067924	158605312	124964864	92984664	33184
51	0.073679	158605312	124964864	93032152	33184
52	0.071368	158605312	124964864	93080440	33184
53	0.071233	158605312	124964864	93129336	33184
54	0.072888	158605312	124964864	93178936	33184
55	0.073321	158605312	124964864	93229352	33184
56	0.072806	158605312	124964864	93280384	33184
57	0.073064	158605312	124964864	93332256	33184
58	0.084353	158605312	124964864	93384752	33184
59	0.075302	158605312	124964864	93437880	33184
60	0.076718	158605312	124964864	93491632	33184
61	0.390848	158605312	124964864	93546024	33184
62	0.091559	158605312	124964864	93601032	33184
63	0.07362	158605312	124964864	93656672	33184
64	0.061597	158605312	124964864	93712568	33184
65	0.063492	158605312	124964864	93768848	33184
66	0.060338	158605312	124964864	93825752	33184
67	0.059479	158605312	124964864	93883288	33184
68	0.059472	158605312	124964864	93941448	33184
69	0.063694	158605312	124964864	94000216	33184
70	0.062552	158605312	124964864	94059728	33184
71	0.060956	158605312	124964864	94119872	33184
72	0.062314	158605312	124964864	94180648	33184
73	0.062099	158605312	124964864	94242088	33184
74	0.062821	158605312	124964864	94304152	33184
75	0.070585	158605312	124964864	94366848	33184
76	0.063575	158605312	124964864	94430168	33184
77	0.066398	158605312	124964864	94494120	33184
78	0.06438	158605312	124964864	94558696	33184
79	0.065966	158605312	124964864	94623904	33184
80	0.068679	158605312	124964864	94690016	33184
81	0.079499	158605312	124964864	94756504	33184
82	0.071965	158605312	124964864	94823616	33184
83	0.115987	158605312	125489152	94892512	33184
84	0.094209	158605312	125489152	94961936	33184
85	0.086112	158605312	125489152	95030832	33184
86	0.073328	158605312	125489152	95100248	33184
87	0.070935	158605312	125489152	95170504	33184
88	0.070788	158605312	125489152	95241400	33184
89	0.078374	158605312	125489152	95312952	33184
90	0.070592	158605312	125489152	95385128	33184
91	0.074622	158875648	125489152	95457936	33184
92	0.073155	158875648	125489152	95531368	33184
93	0.260066	158875648	125489152	95605432	33184
94	0.081856	158875648	125489152	95680120	33184
95	0.077191	158875648	125489152	95755440	33184
96	0.075308	158875648	125489152	95831136	33184
97	0.080151	158875648	125489152	95907096	33184
98	0.076874	158875648	125489152	95983680	33184
99	0.077573	158875648	125489152	96060896	33184
100	0.077569	158875648	125489152	96138736	33184
101	0.081509	158875648	125489152	96217184	33184
102	0.078568	158875648	125489152	96296176	33184
103	0.078188	158875648	125489152	96375832	33184
104	0.079423	158875648	125489152	96456096	33184
105	0.090847	158875648	125489152	96537024	33184
106	0.080585	158875648	125489152	96618576	33184
107	0.092724	158875648	125489152	96700760	33184
108	0.08535	158875648	125489152	96783568	33184
109	0.080636	158875648	125489152	96867008	33184
110	0.082532	158875648	125489152	96951088	33184
111	0.082117	158875648	125489152	97035784	33184
112	0.087981	158875648	125489152	97121128	33184
113	0.086103	158875648	125489152	97207104	33184
114	0.085359	158875648	125489152	97293704	33184
115	0.0907	158875648	125489152	97380936	33184
116	0.086884	158875648	125489152	97468792	33184
117	0.086899	158875648	125489152	97557272	33184
118	0.090613	158875648	125489152	97646280	33184
119	0.089805	158875648	125489152	97735928	33184
120	0.100414	158875648	125489152	97826208	33184
121	0.092071	158875648	125489152	97917152	33184
122	0.093881	158875648	125489152	98008720	33184
123	0.089864	158875648	125489152	98100944	33184
124	0.136231	158875648	125489152	98193768	33184
125	0.113727	158875648	125489152	98287224	33184
126	0.109348	159145984	125489152	98381304	33184
127	0.092471	159145984	125489152	98476016	33184
128	0.09767	159145984	125489152	98571024	33184
129	0.095838	159145984	125489152	98666088	33184
130	0.09543	159145984	125489152	98761776	33184
131	0.097181	159145984	125489152	98858256	33184
132	0.094516	159145984	125489152	98955360	33184
133	0.094189	159145984	125489152	99053072	33184
134	0.101607	159145984	125489152	99151416	33184
135	0.099671	159145984	125489152	99250424	33184
136	0.096794	159145984	125489152	99350040	33184
137	0.103469	159145984	125489152	99450320	33184
138	0.097697	159145984	125489152	99551224	33184
139	0.09971	159145984	125489152	99652760	33184
140	0.109051	159145984	125489152	99754928	33184
141	0.098055	159145984	125489152	99857720	33184
142	0.103292	159145984	125489152	99962968	33184
143	0.100982	159145984	125489152	100067016	33184
144	0.103217	159145984	125489152	100171712	33184
145	0.107246	159145984	125489152	100277040	33184
146	0.133679	159145984	125489152	100383048	33184
147	0.133254	159145984	126013440	100489632	33184
148	0.126276	159145984	126013440	100596840	33184
149	0.107255	159145984	126013440	100704656	33184
150	0.111256	159145984	126013440	100813584	33184
151	0.134422	159145984	126013440	100923176	33184
152	0.120772	159145984	126013440	101033376	33184
153	0.131579	159416320	126013440	101144240	33184
154	0.106827	159416320	126013440	101255728	33184
155	0.108654	159416320	126013440	101367848	33184
156	0.115388	159416320	126013440	101480608	33184
157	0.112472	159416320	126013440	101593984	33184
158	0.113858	159416320	126013440	101707984	33184
159	0.316247	159416320	126013440	101822616	33184
160	0.118699	159416320	126013440	101937560	33184
161	0.140527	159416320	126013440	102052896	33184
162	0.110658	159416320	126013440	102168792	33184
163	0.1133	159416320	126013440	102285320	33184
164	0.11366	159416320	126013440	102402472	33184
165	0.132246	159416320	126013440	102520232	33184
166	0.114096	159416320	126013440	102638920	33184
167	0.111657	159416320	126013440	102758216	33184
168	0.121675	159416320	126013440	102878144	33184
169	0.118474	159416320	126013440	102998736	33184
170	0.121082	159416320	126013440	103119952	33184
171	0.116491	159416320	126013440	103241824	33184
172	0.119935	159416320	126013440	103364296	33184
173	0.117919	159416320	126013440	103487400	33184
174	0.17334	159416320	126013440	103611128	33184
175	0.144066	159416320	126013440	103735488	33184
176	0.120576	159416320	126013440	103860512	33184
177	0.123833	159686656	126013440	103986152	33184
178	0.120208	159686656	126013440	104112416	33184
179	0.123382	159686656	126013440	104239312	33184
180	0.121432	159686656	126013440	104366864	33184
181	0.134896	159686656	126013440	104494992	33184
182	0.125473	159686656	126013440	104623752	33184
183	0.121013	159686656	126013440	104753152	33184
184	0.12724	159686656	126013440	104883184	33184
185	0.123738	159686656	126013440	105013888	33184
186	0.129288	159686656	126013440	105145208	33184
187	0.127845	159686656	126013440	105277160	33184
188	0.129708	159686656	126013440	105409736	33184
189	7.935845	162119680	128634880	93877376	33184
190	0.200699	162119680	128634880	94011240	33184
191	0.124486	162119680	128634880	94145704	33184
192	0.112836	162119680	128634880	94280504	33184
193	0.116571	162119680	128634880	94415608	33184
194	0.110496	162390016	128634880	94551336	33184
195	0.121635	162390016	128634880	94687760	33184
196	0.113906	162390016	128634880	94824744	33184
197	0.151055	162390016	128634880	94962336	33184
198	0.140895	162390016	128634880	95100560	33184
199	0.153168	162390016	128634880	95239464	33184
200	0.139412	162390016	128634880	95378960	33184
201	0.118478	162390016	128634880	95519120	33184
202	0.138855	162390016	129159168	95659904	33184
203	0.120371	162390016	129159168	95801344	33184
204	0.11932	162390016	129159168	95943384	33184
205	0.122218	162390016	129159168	96086056	33184
206	0.113678	162390016	129159168	96229352	33184
207	0.120562	162390016	129159168	96373296	33184
208	0.11739	162390016	129159168	96517872	33184
209	0.120333	162390016	129159168	96663080	33184
210	0.119545	162390016	129159168	96808912	33184
211	0.122038	162390016	129159168	96955432	33184
212	0.121775	162390016	129159168	97102520	33184
213	0.159768	162660352	129159168	97250216	33184
214	0.122509	162660352	129159168	97398544	33184
215	0.128678	162660352	129159168	97547544	33184
216	0.142546	162660352	129159168	97697144	33184
217	0.135978	162660352	129159168	97847408	33184
218	0.128887	162660352	129159168	97998296	33184
219	0.121984	162660352	129159168	98149880	33184
220	0.129081	162660352	129159168	98302024	33184
221	0.12422	162660352	129159168	98454800	33184
222	0.183616	162660352	129159168	98608208	33184
223	0.141978	162660352	129159168	98762240	33184
224	0.178495	162660352	129159168	98916624	33184
225	0.13056	162660352	129159168	99071296	33184
226	0.129951	162660352	129159168	99226640	33184
227	0.131687	162660352	129159168	99382568	33184
228	0.127665	162660352	129159168	99539120	33184
229	0.132469	162660352	129159168	99699160	33184
230	0.131387	162660352	129159168	99856952	33184
231	0.13889	162930688	129159168	100015384	33184
232	0.141493	162930688	129159168	100174448	33184
233	0.134754	162930688	129159168	100334232	33184
234	0.135603	162930688	129159168	100494584	33184
235	0.131533	162930688	129159168	100655568	33184
236	0.136797	162930688	129159168	100817176	33184
237	0.173774	162930688	129683456	100979472	33184
238	0.154547	162930688	129683456	101142336	33184
239	0.138882	162930688	129683456	101305832	33184
240	0.136652	162930688	129683456	101469992	33184
241	0.142551	162930688	129683456	101634768	33184
242	0.140455	162930688	129683456	101800168	33184
243	0.138416	162930688	129683456	101966200	33184
244	0.172337	162930688	129683456	102132896	33184
245	0.153092	162930688	129683456	102300160	33184
246	0.158517	162930688	129683456	102468056	33184
247	0.163279	162930688	129683456	102636616	33184
248	0.157445	163201024	129683456	102805784	33184
249	0.142527	163201024	129683456	102975616	33184
250	0.143747	163201024	129683456	103146072	33184
251	0.181502	163201024	129683456	103317160	33184
252	0.146687	163201024	129683456	103488872	33184
253	0.147891	163201024	129683456	103661216	33184
254	0.152287	163201024	129683456	103834200	33184
255	0.149709	163201024	129683456	104007800	33184
256	0.145057	163201024	129683456	104182136	33184
257	0.152285	163201024	129683456	104356752	33184
258	0.150153	163201024	129683456	104531976	33184
259	0.145703	163201024	129683456	104707832	33184
260	0.156034	163201024	129683456	104884312	33184
261	0.149839	163201024	129683456	105061392	33184
262	0.146971	163201024	129683456	105239272	33184
263	0.154446	163471360	129683456	105417960	33184
264	0.170911	163471360	129683456	105597456	33184
265	0.203702	163471360	129683456	105778136	33184
266	0.156518	163471360	129683456	105959792	33184
267	0.172059	163471360	130207744	106142472	33184
268	0.161414	163471360	130207744	106326088	33184
269	0.181998	163471360	130207744	106510688	33184
270	0.159627	163471360	130207744	106696264	33184
271	0.161091	163471360	130207744	106882824	33184
272	0.159537	163471360	130207744	107070360	33184
273	0.162431	163471360	130207744	107258912	33184
274	0.161957	163471360	130207744	107448408	33184
275	0.162233	163471360	130207744	107638888	33184
276	0.166901	163471360	130207744	107830368	33184
277	0.158809	163471360	130207744	108022456	33184
278	0.167434	163741696	130207744	108215168	33184
279	0.169172	163741696	130207744	108408560	33184
280	0.160369	163741696	130207744	108602528	33184
281	0.171405	163741696	130207744	108797128	33184
282	0.174042	163741696	130207744	108992352	33184
283	0.191671	163741696	130207744	109188208	33184
284	0.203182	163741696	130207744	109384688	33184
285	7.267291	166174720	132829184	97290400	33184
286	0.309304	166174720	132829184	97488168	33184
287	0.161711	166174720	132829184	97686536	33184
288	0.180842	166174720	132829184	97885312	33184
289	0.153887	166174720	132829184	98084296	33184
290	0.157346	166174720	132829184	98283904	33184
291	0.217315	166174720	132829184	98484160	33184
292	0.163278	166174720	132829184	98685024	33184
293	0.177319	166174720	132829184	98886520	33184
294	0.181728	166174720	132829184	99088680	33184
295	0.161185	166174720	132829184	99291432	33184
296	0.161633	166174720	132829184	99494808	33184
297	0.183046	166174720	132829184	99698816	33184
298	0.161265	166445056	132829184	99903448	33184
299	0.164661	166445056	132829184	100108712	33184
300	0.181116	166445056	132829184	100314624	33184
301	0.159657	166445056	132829184	100521144	33184
302	0.165935	166445056	132829184	100728288	33184
303	0.181465	166445056	132829184	100936144	33184
304	0.18979	166445056	132829184	101144544	33184
305	0.2006	166445056	132829184	101353600	33184
306	0.207021	166445056	132829184	101563256	33184
307	0.163262	166445056	132829184	101773544	33184
308	0.166246	166445056	132829184	101984480	33184
309	0.187859	166445056	132829184	102196024	33184
310	0.205281	166445056	133353472	102408192	33184
311	0.172282	166715392	133353472	102621032	33184
312	0.191438	166715392	133353472	102834456	33184
313	0.190791	166715392	133353472	103048544	33184
314	0.172413	166715392	133353472	103263224	33184
315	0.197081	166715392	133353472	103478536	33184
316	0.170772	166715392	133353472	103694496	33184
317	0.177703	166715392	133353472	103911064	33184
318	0.193154	166715392	133353472	104128256	33184
319	0.171919	166715392	133353472	104346088	33184
320	0.173121	166715392	133353472	104564304	33184
321	0.179622	166715392	133353472	104782800	33184
322	0.38479	166715392	133353472	105001864	33184
323	0.183481	166985728	133353472	105221560	33184
324	0.179749	166985728	133353472	105441912	33184
325	0.182828	166985728	133353472	105662864	33184
326	0.194542	166985728	133353472	105884472	33184
327	0.173753	166985728	133353472	106106680	33184
328	0.184942	166985728	133353472	106329512	33184
329	0.198759	166985728	133353472	106552976	33184
330	0.174434	166985728	133353472	106777064	33184
331	0.182455	166985728	133353472	107001784	33184
332	0.204062	166985728	133353472	107227368	33184
333	0.18481	166985728	133353472	107453344	33184
334	0.203503	166985728	133877760	107679952	33184
335	0.187117	167256064	133877760	107907184	33184
336	0.191801	167256064	133877760	108135040	33184
337	0.20258	167256064	133877760	108363568	33184
338	0.208217	167256064	133877760	108592680	33184
339	0.249678	167256064	133877760	108822488	33184
340	0.206762	167256064	133877760	109052856	33184
341	0.196049	167256064	133877760	109283856	33184
342	0.184231	167256064	133877760	109515488	33184
343	0.193032	167256064	133877760	109747744	33184
344	0.20064	167256064	133877760	109980648	33184
345	0.208768	167256064	133877760	110214160	33184
346	0.18621	167256064	133877760	110448296	33184
347	0.195118	167526400	133877760	110683088	33184
348	0.233313	167526400	133877760	110918480	33184
349	0.198876	167526400	133877760	111154520	33184
350	0.208199	167526400	133877760	111391168	33184
351	0.189688	167526400	133877760	111628488	33184
352	0.199038	167526400	133877760	111866176	33184
353	0.22959	167526400	133877760	112104072	33184
354	0.218318	167526400	133877760	112342600	33184
355	0.198656	167526400	133877760	112581752	33184
356	0.218444	167526400	134402048	112821528	33184
357	0.255358	167526400	134402048	113061936	33184
358	0.262663	167526400	134402048	113302968	33184
359	6.551598	169689088	136499200	100774672	33184
360	0.263075	169689088	136499200	101021408	33184
361	0.251454	169689088	136499200	101264328	33184
362	0.191519	169689088	136499200	101507880	33184
363	0.187937	169689088	136499200	101752056	33184
364	0.195797	169689088	136499200	101996912	33184
365	0.198146	169689088	136499200	102242344	33184
366	0.209246	169689088	136499200	102488464	33184
367	0.188599	169689088	136499200	102735152	33184
368	0.195679	169689088	136499200	102982464	33184
369	0.213614	169689088	136499200	103230432	33184
370	0.196373	169689088	136499200	103479000	33184
371	0.19109	169959424	136499200	103728248	33184
372	0.196397	169959424	136499200	103978072	33184
373	0.198012	169959424	136499200	104228560	33184
374	0.23391	169959424	136499200	104479640	33184
375	0.197271	169959424	136499200	104731352	33184
376	0.230225	169959424	136499200	104983760	33184
377	0.236465	169959424	136499200	105236728	33184
378	0.242003	169959424	136499200	105490360	33184
379	0.259341	169959424	136499200	105744584	33184
380	0.203071	169959424	136499200	105999496	33184
381	0.196512	169959424	136499200	106254976	33184
382	0.206361	170229760	136499200	106511088	33184
383	0.205515	170229760	136499200	106767824	33184
384	0.241446	170229760	136499200	107025184	33184
385	0.20485	170229760	136499200	107282536	33184
386	0.21869	170229760	136499200	107540512	33184
387	0.22376	170229760	137023488	107799152	33184
388	0.207124	170229760	137023488	108058384	33184
389	0.245081	170229760	137023488	108318304	33184
390	0.217826	170229760	137023488	108578792	33184
391	0.237111	170229760	137023488	108839976	33184
392	0.226006	170500096	137023488	109101720	33184
393	0.205996	170500096	137023488	109364096	33184
394	0.212807	170500096	137023488	109627096	33184
395	0.216567	170500096	137023488	109890736	33184
396	0.243953	170500096	137023488	110154992	33184
397	0.212548	170500096	137023488	110419880	33184
398	0.232931	170500096	137023488	110685400	33184
399	0.204991	170500096	137023488	110951544	33184
400	0.216921	170500096	137023488	111218328	33184
401	0.249542	170500096	137023488	111485728	33184
402	0.221696	170770432	137023488	111753808	33184
403	0.247863	170770432	137023488	112022464	33184
404	0.215728	170770432	137023488	112291744	33184
405	0.227814	170770432	137023488	112561656	33184
406	0.436342	170770432	137547776	112832200	33184
407	0.241421	170770432	137547776	113103368	33184
408	0.258629	170770432	137547776	113375176	33184
409	0.226445	170770432	137547776	113647600	33184
410	0.251543	170770432	137547776	113920680	33184
411	0.223042	170770432	137547776	114194360	33184
412	0.238739	171040768	137547776	114468664	33184
413	0.222015	171040768	137547776	114743600	33184
414	0.219417	171040768	137547776	115019160	33184
415	0.224987	171040768	137547776	115295352	33184
416	0.225936	171040768	137547776	115571992	33184
417	0.261826	171040768	137547776	115848848	33184
418	0.231733	171040768	137547776	116126280	33184
419	0.262216	171040768	137547776	116404360	33184
420	0.266242	171040768	137547776	116683048	33184
421	6.069316	172933120	139644928	104113728	33184
422	0.379084	172933120	139644928	104393680	33184
423	0.226847	172933120	139644928	104674256	33184
424	0.253959	173203456	139644928	104955520	33184
425	0.228935	173203456	139644928	105237352	33184
426	0.249485	173203456	139644928	105519864	33184
427	0.237571	173203456	139644928	105802952	33184
428	0.216961	173203456	139644928	106086728	33184
429	0.222027	173203456	139644928	106371072	33184
430	0.223747	173203456	139644928	106656048	33184
431	0.257788	173203456	139644928	106941648	33184
432	0.228803	173203456	139644928	107227896	33184
433	0.254233	173473792	139644928	107514752	33184
434	0.252895	173473792	140169216	107802264	33184
435	0.254402	173473792	140169216	108090376	33184
436	0.224663	173473792	140169216	108379152	33184
437	0.217886	173473792	140169216	108668520	33184
438	0.223872	173473792	140169216	108958568	33184
439	0.233688	173473792	140169216	109249192	33184
440	0.275996	173473792	140169216	109540440	33184
441	0.249803	173473792	140169216	109832320	33184
442	0.271524	173744128	140169216	110124832	33184
443	0.233523	173744128	140169216	110417968	33184
444	0.274455	173744128	140169216	110711752	33184
445	0.226246	173744128	140169216	111006144	33184
446	0.259918	173744128	140169216	111301200	33184
447	0.230273	173744128	140169216	111596976	33184
448	0.245797	173744128	140169216	111893096	33184
449	0.228966	173744128	140169216	112189376	33184
450	0.225627	173744128	140169216	112486264	33184
451	0.237196	173744128	140169216	112783848	33184
452	0.258383	174014464	140693504	113081992	33184
453	0.279586	174014464	140693504	113380768	33184
454	0.441754	174014464	140693504	113680168	33184
455	0.26686	174014464	140693504	113980216	33184
456	0.244637	174014464	140693504	114280872	33184
457	0.278763	174014464	140693504	114582184	33184
458	0.248512	174014464	140693504	114884096	33184
459	0.274556	174014464	140693504	115186680	33184
460	0.238784	174284800	140693504	115489848	33184
461	0.279065	174284800	140693504	115793696	33184
462	0.244779	174284800	140693504	116098120	33184
463	0.277978	174284800	140693504	116403240	33184
464	0.238761	174284800	140693504	116708920	33184
465	0.27909	174284800	140693504	117015464	33184
466	0.241349	174284800	140693504	117322400	33184
467	0.306826	174284800	140693504	117629968	33184
468	0.254278	174284800	140693504	117938176	33184
469	0.304846	174555136	141217792	118247000	33184
470	0.248627	174555136	141217792	118556480	33184
471	0.281447	174555136	141217792	118866560	33184
472	0.243184	174555136	141217792	119177304	33184
473	0.292791	174555136	141217792	119488640	33184
474	0.245109	174555136	141217792	119800656	33184
475	0.283828	174555136	141217792	120113248	33184
476	6.991426	176447488	143314944	107472016	33184
477	0.41373	176447488	143314944	107785912	33184
478	0.243932	176447488	143314944	108100384	33184
479	0.240399	176447488	143314944	108415488	33184
480	0.235268	176717824	143314944	108731080	33184
481	0.242822	176717824	143314944	109046800	33184
482	0.273012	176717824	143314944	109363176	33184
483	0.297669	176717824	143314944	109680152	33184
484	0.260655	176717824	143314944	109997792	33184
485	0.246056	176717824	143314944	110316024	33184
486	0.242818	176717824	143314944	110634936	33184
487	0.260461	176717824	143314944	110954424	33184
488	0.236207	176717824	143314944	111274576	33184
489	0.249324	176988160	143314944	111595360	33184
490	0.244083	176988160	143314944	111916728	33184
491	0.251871	176988160	143314944	112238744	33184
492	0.239947	176988160	143314944	112561368	33184
493	0.24616	176988160	143314944	112884648	33184
494	0.248724	176988160	143314944	113208528	33184
495	0.275604	176988160	143839232	113533072	33184
496	0.248594	176988160	143839232	113858224	33184
497	0.293075	177258496	143839232	114183992	33184
498	0.255508	177258496	143839232	114510384	33184
499	0.250598	177258496	143839232	114837408	33184
500	0.253235	177258496	143839232	115165056	33184
501	0.247042	177258496	143839232	115493336	33184
502	0.246779	177258496	143839232	115822240	33184
503	0.254386	177258496	143839232	116151848	33184
504	0.254626	177258496	143839232	116482008	33184
505	0.283346	177528832	143839232	116812808	33184
506	0.246466	177528832	143839232	117144224	33184
507	0.265668	177528832	143839232	117476304	33184
508	0.259365	177528832	143839232	117808976	33184
509	0.256595	177528832	143839232	118142320	33184
510	0.328169	177528832	143839232	118476256	33184
511	0.296857	177528832	144363520	118810816	33184
512	0.266391	177528832	144363520	119146256	33184
513	0.26381	177799168	144363520	119481768	33184
514	0.26482	177799168	144363520	119817952	33184
515	0.296933	177799168	144363520	120154720	33184
516	0.257967	177799168	144363520	120492160	33184
517	0.259542	177799168	144363520	120829968	33184
518	0.263866	177799168	144363520	121168504	33184
519	0.269321	177799168	144363520	121507824	33184
520	0.298995	177799168	144363520	121847840	33184
521	0.263567	178069504	144363520	122188960	33184
522	0.333288	178069504	144363520	122530824	33184
523	0.284517	178069504	144363520	122873400	33184
524	0.272063	178069504	144363520	123216768	33184
525	0.268488	178069504	144363520	123560824	33184
526	6.24192	179961856	146984960	110850600	33184
527	0.390193	179961856	146984960	111196176	33184
528	0.483657	179961856	146984960	111542472	33184
529	0.288159	179961856	146984960	111889488	33184
530	0.271115	179961856	146984960	112237256	33184
531	0.264622	179961856	146984960	112585752	33184
532	0.279846	179961856	146984960	112934992	33184
533	0.270193	179961856	146984960	113284992	33184
534	0.265204	180232192	146984960	113635704	33184
535	0.301727	180232192	146984960	113987216	33184
536	0.265985	180232192	146984960	114339464	33184
537	0.272653	180232192	146984960	114692400	33184
538	0.27657	180232192	146984960	115046120	33184
539	0.272408	180232192	146984960	115400536	33184
540	0.334121	180232192	146984960	115755712	33184
541	0.286598	180502528	146984960	116111616	33184
542	0.286349	180502528	146984960	116468248	33184
543	0.271043	180502528	146984960	116825632	33184
544	0.280817	180502528	146984960	117183648	33184
545	0.311483	180502528	146984960	117541864	33184
546	0.276158	180502528	146984960	117900880	33184
547	0.285529	180502528	146984960	118260576	33184
548	0.319171	180502528	146984960	118621064	33184
549	0.305484	180772864	146984960	118982296	33184
550	0.277258	180772864	146984960	119344208	33184
551	0.314981	180772864	147509248	119706912	33184
552	0.342064	180772864	147509248	120070312	33184
553	0.305363	180772864	147509248	120434448	33184
554	0.308809	180772864	147509248	120799352	33184
555	0.285897	180772864	147509248	121164968	33184
556	0.284142	181043200	147509248	121538184	33184
557	0.279654	181043200	147509248	121905328	33184
558	0.288624	181043200	147509248	122273160	33184
559	0.289824	181043200	147509248	122641736	33184
560	0.29793	181043200	147509248	123011112	33184
561	0.324132	181043200	147509248	123381168	33184
562	0.292879	181043200	147509248	123752008	33184
563	0.523792	181043200	147509248	124123560	33184
564	0.313797	181313536	147509248	124495832	33184
565	0.313532	181313536	148033536	124868880	33184
566	0.293633	181313536	148033536	125242680	33184
567	0.294209	181313536	148033536	125617176	33184
568	0.296991	181313536	148033536	125992424	33184
569	0.299034	181313536	148033536	126368400	33184
570	0.311577	181313536	148033536	126745112	33184
571	6.093264	183205888	150130688	114171392	33184
572	0.509043	183205888	150130688	114549584	33184
573	0.299959	183205888	150130688	114928568	33184
574	0.294724	183205888	150130688	115308240	33184
575	0.293478	183205888	150130688	115688680	33184
576	0.292704	183476224	150130688	116069800	33184
577	0.305418	183476224	150130688	116451056	33184
578	0.29948	183476224	150130688	116833104	33184
579	0.303377	183476224	150130688	117215856	33184
580	0.35555	183476224	150130688	117599328	33184
581	0.300511	183476224	150130688	117983800	33184
582	0.298007	183476224	150130688	118368800	33184
583	0.297753	183746560	150130688	118754520	33184
584	0.295178	183746560	150130688	119140952	33184
585	0.297254	183746560	150130688	119528128	33184
586	0.299692	183746560	150130688	119916104	33184
587	0.311061	183746560	150130688	120304760	33184
588	0.307902	183746560	150130688	120694200	33184
589	0.344353	183746560	150654976	121084352	33184
590	0.308236	184016896	150654976	121475224	33184
591	0.379159	184016896	150654976	121866872	33184
592	0.311745	184016896	150654976	122259264	33184
593	0.311577	184016896	150654976	122652360	33184
594	0.309399	184016896	150654976	123046208	33184
595	0.31065	184016896	150654976	123440848	33184
596	0.305175	184016896	150654976	123836160	33184
597	0.306611	184287232	150654976	124232216	33184
598	0.316119	184287232	150654976	124629032	33184
599	0.319416	184287232	150654976	125026568	33184
600	0.312637	184287232	150654976	125424864	33184
601	0.315049	184287232	150654976	125823888	33184
602	0.378003	184287232	150654976	126223656	33184
603	0.340506	184557568	151179264	126624152	33184
604	0.325727	184557568	151179264	127025408	33184
605	0.319695	184557568	151179264	127427424	33184
606	0.317607	184557568	151179264	127830136	33184
607	0.319871	184557568	151179264	128233608	33184
608	0.323096	184557568	151179264	128637792	33184
609	0.322553	184557568	151179264	129042088	33184
610	0.320189	184827904	151179264	129447160	33184
611	0.320396	184827904	151179264	129852992	33184
612	6.550879	186720256	153276416	117547792	33184
613	0.602318	186720256	153276416	117955304	33184
614	0.320925	186720256	153276416	118363296	33184
615	0.317388	186720256	153276416	118772048	33184
616	0.346254	186720256	153276416	119181520	33184
617	0.322414	186720256	153276416	119591760	33184
618	0.329095	186720256	153276416	120002760	33184
619	0.327502	186990592	153276416	120414456	33184
620	0.332058	186990592	153276416	120826936	33184
621	0.326415	186990592	153276416	121240136	33184
622	0.353092	186990592	153800704	121654080	33184
623	0.329083	186990592	153800704	122068736	33184
624	0.330204	186990592	153800704	122484168	33184
625	0.327242	187260928	153800704	122900312	33184
626	0.328542	187260928	153800704	123317200	33184
627	0.553356	187260928	153800704	123734816	33184
628	0.340263	187260928	153800704	124153208	33184
629	0.335048	187260928	153800704	124572344	33184
630	0.331235	187260928	153800704	124992096	33184
631	0.331424	187260928	153800704	125412520	33184
632	0.333231	187531264	153800704	125833664	33184
633	0.337171	187531264	153800704	126255544	33184
634	0.333974	187531264	153800704	126678136	33184
635	0.353913	187531264	154324992	127101528	33184
636	0.343791	187531264	154324992	127525632	33184
637	0.378473	187531264	154324992	127950456	33184
638	0.330053	187801600	154324992	128375944	33184
639	0.335858	187801600	154324992	128802200	33184
640	0.343435	187801600	154324992	129229112	33184
641	0.337274	187801600	154324992	129656176	33184
642	0.333968	187801600	154324992	130083920	33184
643	0.337154	187801600	154324992	130512432	33184
644	0.340635	188071936	154324992	130941624	33184
645	0.339168	188071936	154324992	131371560	33184
646	0.348584	188071936	154324992	131802096	33184
647	0.418056	188071936	154849280	132233392	33184
648	0.343633	188071936	154849280	132665432	33184
649	0.350297	188071936	154849280	133098248	33184
650	1.198962	188071936	154849280	133533736	33184
651	7.014704	190234624	156946432	121529480	33184
652	0.444878	190234624	156946432	121964496	33184
653	0.347797	190234624	156946432	122400264	33184
654	0.35108	190234624	156946432	122836736	33184
655	0.363906	190234624	156946432	123273936	33184
656	0.38307	190504960	156946432	123711912	33184
657	0.367915	190504960	156946432	124150616	33184
658	0.366418	190504960	156946432	124590032	33184
659	0.356032	190504960	156946432	125030192	33184
660	0.349033	190504960	156946432	125471160	33184
661	0.341199	190504960	156946432	125912824	33184
662	0.349786	190775296	156946432	126355120	33184
663	0.372932	190775296	157470720	126798120	33184
664	0.347433	190775296	157470720	127241856	33184
665	0.350402	190775296	157470720	127686400	33184
666	0.353373	190775296	157470720	128131648	33184
667	0.794111	190775296	157470720	128578920	33184
668	0.408811	191045632	157470720	129026592	33184
669	0.35704	191045632	157470720	129474048	33184
670	0.365493	191045632	157470720	129922256	33184
671	0.364625	191045632	157470720	130371224	33184
672	0.359897	191045632	157470720	130820888	33184
673	0.371761	191045632	157470720	131270648	33184
674	0.40941	191315968	157470720	131721152	33184
675	0.393814	191315968	157995008	132172448	33184
676	0.403667	191315968	157995008	132624424	33184
677	0.362039	191315968	157995008	133077176	33184
678	0.367616	191315968	157995008	133530528	33184
679	0.376132	191315968	157995008	133984680	33184
680	0.364885	191586304	157995008	134439536	33184
681	0.368031	191586304	157995008	134895168	33184
682	0.377412	191586304	157995008	135351496	33184
683	0.374468	191586304	157995008	135808552	33184
684	0.365323	191586304	157995008	136266376	33184
685	0.407641	191586304	157995008	136724952	33184
686	7.027246	193748992	160616448	124915784	33184
687	0.692546	193748992	160616448	125375848	33184
688	0.396243	194019328	160616448	125836600	33184
689	0.373916	194019328	160616448	126298096	33184
690	0.369663	194019328	160616448	126760488	33184
691	0.371063	194019328	160616448	127223472	33184
692	0.369403	194019328	160616448	127687240	33184
693	0.372865	194019328	160616448	128151712	33184
694	0.372667	194289664	160616448	128616904	33184
695	0.369533	194289664	160616448	129082864	33184
696	0.371499	194289664	160616448	129549536	33184
697	0.442029	194289664	160616448	130016960	33184
698	0.606345	194289664	161140736	130485152	33184
699	0.398887	194289664	161140736	130954048	33184
700	0.372089	194560000	161140736	131423680	33184
701	0.375927	194560000	161140736	131894080	33184
702	0.372461	194560000	161140736	132365208	33184
703	0.37538	194560000	161140736	132837120	33184
704	0.379795	194560000	161140736	133309744	33184
705	0.406826	194560000	161140736	133782496	33184
706	0.405219	194830336	161140736	134255928	33184
707	0.380927	194830336	161140736	134730112	33184
708	0.387272	194830336	161140736	135205080	33184
709	0.387251	194830336	161140736	135680784	33184
710	0.403419	194830336	161665024	136157184	33184
711	0.385222	195100672	161665024	136634360	33184
712	0.416805	195100672	161665024	137112232	33184
713	0.381329	195100672	161665024	137590848	33184
714	0.40487	195100672	161665024	138070216	33184
715	0.414828	195100672	161665024	138550336	33184
716	0.387222	195100672	161665024	139031232	33184
717	0.39098	195371008	161665024	139512832	33184
718	0.385873	195371008	161665024	139995144	33184
719	0.387627	195371008	161665024	140478272	33184
720	7.036128	197533696	164286464	128845584	33184
721	0.635069	197533696	164286464	129330120	33184
722	0.413224	197533696	164286464	129815392	33184
723	0.386447	197533696	164286464	130301448	33184
724	0.394001	197804032	164286464	130788240	33184
725	0.420552	197804032	164286464	131275736	33184
726	0.411565	197804032	164286464	131764008	33184
727	0.390178	197804032	164286464	132253048	33184
728	0.39026	197804032	164286464	132742760	33184
729	0.396928	198074368	164286464	133233288	33184
730	0.3958	198074368	164286464	133724496	33184
731	0.425203	198074368	164810752	134216488	33184
732	0.391248	198074368	164810752	134709176	33184
733	0.390815	198074368	164810752	135202640	33184
734	0.424694	198074368	164810752	135696808	33184
735	0.412948	198344704	164810752	136191704	33184
736	0.400775	198344704	164810752	136687440	33184
737	0.399944	198344704	164810752	137183200	33184
738	0.405665	198344704	164810752	137679680	33184
739	0.402376	198344704	164810752	138176928	33184
740	0.403132	198344704	164810752	138674880	33184
741	0.396295	198615040	164810752	139173600	33184
742	0.649419	198615040	165335040	139673096	33184
743	0.592718	198615040	165335040	140173272	33184
744	0.405858	198615040	165335040	140674216	33184
745	0.407912	198615040	165335040	141175912	33184
746	0.403263	198885376	165335040	141678352	33184
747	0.412055	198885376	165335040	142181504	33184
748	0.400563	198885376	165335040	142685424	33184
749	0.407023	198885376	165335040	143190040	33184
750	0.409566	198885376	165335040	143695432	33184
751	0.489509	198885376	165335040	144201528	33184
752	7.5385	201318400	167956480	132683160	33184
753	0.505603	201318400	167956480	133190800	33184
754	0.427257	201318400	167956480	133699144	33184
755	0.449959	201318400	167956480	134208200	33184
756	0.436212	201588736	167956480	134718008	33184
757	0.409217	201588736	167956480	135228560	33184
758	0.418049	201588736	167956480	135739856	33184
759	0.432775	201588736	167956480	136251912	33184
760	0.483608	201588736	168480768	136764680	33184
761	0.427589	201859072	168480768	137278216	33184
762	0.445592	201859072	168480768	137792456	33184
763	0.415044	201859072	168480768	138307464	33184
764	0.417335	201859072	168480768	138823184	33184
765	0.429891	201859072	168480768	139339640	33184
766	0.411574	202129408	168480768	139856864	33184
767	0.416022	202129408	168480768	140375024	33184
768	0.419931	202129408	168480768	140893800	33184
769	0.443616	202129408	168480768	141412600	33184
770	0.425097	202129408	168480768	141932168	33184
771	0.462478	202129408	169005056	142452440	33184
772	0.439227	202399744	169005056	142973480	33184
773	0.424397	202399744	169005056	143495224	33184
774	0.419709	202399744	169005056	144017744	33184
775	0.429832	202399744	169005056	144540968	33184
776	0.43461	202399744	169005056	145064920	33184
777	0.663207	202670080	169005056	145589656	33184
778	0.425997	202670080	169005056	146115096	33184
779	0.42794	202670080	169005056	146641328	33184
780	0.430443	202670080	169005056	147168272	33184
781	0.453653	202670080	169529344	147695984	33184
782	7.281064	205103104	172150784	136299200	33184
783	0.731276	205103104	172150784	136828392	33184
784	0.460861	205103104	172150784	137358280	33184
785	0.42469	205103104	172150784	137888896	33184
786	0.468082	205373440	172150784	138420256	33184
787	0.447816	205373440	172150784	138952440	33184
788	0.429523	205373440	172150784	139485320	33184
789	0.439399	205373440	172150784	140018928	33184
790	0.427531	205373440	172150784	140553240	33184
791	0.431244	205373440	172150784	141088328	33184
792	0.440377	205643776	172150784	141624184	33184
793	0.446309	205643776	172150784	142160744	33184
794	0.465202	205643776	172150784	142698072	33184
795	0.455006	205643776	172150784	143236104	33184
796	0.434894	205643776	172150784	143774912	33184
797	0.437428	205914112	172150784	144314424	33184
798	0.43984	205914112	172150784	144854704	33184
799	0.473966	205914112	172675072	145395680	33184
800	0.437617	205914112	172675072	145937504	33184
801	0.440496	205914112	172675072	146479520	33184
802	0.463646	206184448	172675072	147022072	33184
803	0.473955	206184448	172675072	147565392	33184
804	0.445708	206184448	172675072	148109448	33184
805	0.436366	206184448	172675072	148654272	33184
806	0.446075	206184448	172675072	149199840	33184
807	0.448689	206454784	172675072	149746152	33184
808	0.463084	206454784	172675072	150293160	33184
809	0.491267	206454784	173199360	150840952	33184
810	0.649042	206454784	173199360	151389440	33184
811	7.454746	208887808	175820800	140136008	33184
812	0.774947	208887808	175820800	140685976	33184
813	0.465233	208887808	175820800	141236712	33184
814	0.489273	209158144	175820800	141788144	33184
815	0.448574	209158144	175820800	142340352	33184
816	0.452368	209158144	175820800	142893264	33184
817	0.448993	209158144	175820800	143446952	33184
818	0.447108	209158144	175820800	144001408	33184
819	0.973167	209428480	175820800	144556544	33184
820	0.661667	209428480	175820800	145112760	33184
821	0.519279	209428480	175820800	145674512	33184
822	0.520937	209428480	175820800	146234464	33184
823	0.476401	209428480	175820800	146792592	33184
824	0.480616	209698816	176345088	147351464	33184
825	0.549888	209698816	176345088	147911080	33184
826	0.473461	209698816	176345088	148471400	33184
827	0.455292	209698816	176345088	149032488	33184
828	0.460293	209698816	176345088	149594288	33184
829	0.479573	209969152	176345088	150156864	33184
830	0.474605	209969152	176345088	150720136	33184
831	0.462675	209969152	176345088	151284216	33184
832	0.485235	209969152	176345088	151849064	33184
833	0.507268	209969152	176345088	152413968	33184
834	0.506003	210239488	176869376	152979584	33184
835	0.465738	210239488	176869376	153545968	33184
836	0.468679	210239488	176869376	154113056	33184
837	0.479874	210239488	176869376	154680912	33184
838	0.463885	210239488	176869376	155249480	33184
839	7.645888	212672512	179490816	144079432	33184
840	0.721845	212942848	179490816	144649464	33184
841	0.55088	212942848	179490816	145220272	33184
842	0.463864	212942848	179490816	145791784	33184
843	0.494844	212942848	179490816	146364064	33184
844	0.483405	212942848	179490816	146937120	33184
845	0.462569	213213184	179490816	147510872	33184
846	0.475739	213213184	179490816	148085408	33184
847	0.509295	213213184	179490816	148660632	33184
848	0.694318	213213184	180015104	149236640	33184
849	0.489571	213213184	180015104	149813344	33184
850	0.483581	213483520	180015104	150401168	33184
851	0.468825	213483520	180015104	150979344	33184
852	0.470558	213483520	180015104	151558296	33184
853	0.476254	213483520	180015104	152137952	33184
854	0.502318	213483520	180015104	152718376	33184
855	0.533777	213753856	180015104	153299576	33184
856	0.498232	213753856	180015104	153881480	33184
857	0.529141	213753856	180539392	154464152	33184
858	0.50812	213753856	180539392	155047528	33184
859	0.480601	213753856	180539392	155631672	33184
860	0.496711	214024192	180539392	156216520	33184
861	0.494917	214024192	180539392	156802144	33184
862	0.482021	214024192	180539392	157388464	33184
863	0.502483	214024192	180539392	157975560	33184
864	0.511485	214024192	180539392	158563496	33184
865	0.502187	214294528	180539392	159151432	33184
866	8.177298	216727552	183160832	148020856	33184
867	0.558047	216727552	183160832	148610264	33184
868	0.485098	216727552	183160832	149200376	33184
869	0.526502	216727552	183160832	149791256	33184
870	0.539407	216997888	183160832	150382912	33184
871	0.511759	216997888	183685120	150975264	33184
872	0.500122	216997888	183685120	151568368	33184
873	0.504154	216997888	183685120	152162192	33184
874	0.482455	216997888	183685120	152756768	33184
875	0.504073	217268224	183685120	153352088	33184
876	0.503483	217268224	183685120	153948160	33184
877	0.520891	217268224	183685120	154544936	33184
878	0.528544	217268224	183685120	155142488	33184
879	0.506448	217268224	183685120	155740744	33184
880	0.51723	217538560	184209408	156339768	33184
881	0.512489	217538560	184209408	156939568	33184
882	0.509381	217538560	184209408	157540064	33184
883	0.498357	217538560	184209408	158141336	33184
884	0.524222	217808896	184209408	158743312	33184
885	0.514192	217808896	184209408	159346056	33184
886	0.496354	217808896	184209408	159949504	33184
887	0.516513	217808896	184209408	160553728	33184
888	0.513551	217808896	184209408	161158648	33184
889	0.524151	218079232	184733696	161764344	33184
890	0.519421	218079232	184733696	162370736	33184
891	0.541005	218079232	184733696	162977896	33184
892	8.724434	220512256	187355136	151935048	33184
893	0.818334	220512256	187355136	152543696	33184
894	0.652028	220782592	187355136	153153096	33184
895	0.653428	220782592	187355136	153763216	33184
896	0.700791	220782592	187355136	154374176	33184
897	0.691157	220782592	187355136	154985128	33184
898	0.667789	220782592	187355136	155596856	33184
899	0.693714	221052928	187355136	156209288	33184
900	0.654883	221052928	187355136	156822488	33184
901	0.625386	221052928	187355136	157436392	33184
902	0.933484	221052928	187879424	158051064	33184
903	0.751962	221323264	187879424	158666440	33184
904	0.675568	221323264	187879424	159282592	33184
905	0.665725	221323264	187879424	159899512	33184
906	0.700783	221323264	187879424	160517136	33184
907	0.724698	221323264	187879424	161135488	33184
908	0.761609	221593600	187879424	161754592	33184
909	0.709863	221593600	187879424	162374456	33184
910	0.718681	221593600	187879424	162995032	33184
911	0.782368	221593600	188403712	163616376	33184
912	0.797068	221863936	188403712	164238424	33184
913	1.069584	221863936	188403712	164861240	33184
914	1.225694	221863936	188403712	165484768	33184
915	1.454084	221863936	188403712	166109056	33184
916	1.284866	221863936	188403712	166734056	33184
917	11.246411	224567296	191025152	155853872	33184
918	1.35462	224567296	191025152	156480408	33184
919	1.61012	224567296	191025152	157107648	33184
920	1.547628	224567296	191025152	157735664	33184
921	1.714321	224837632	191025152	158364376	33184
922	1.808015	224837632	191549440	158993872	33184
923	1.705157	224837632	191549440	159624056	33184
924	2.082427	224837632	191549440	160255024	33184
925	1.911749	224837632	191549440	160886688	33184
926	1.842867	225107968	191549440	161519128	33184
927	2.048049	225107968	191549440	162152360	33184
928	2.114995	225107968	191549440	162786416	33184
929	2.163948	225107968	191549440	163420392	33184
930	2.106753	225378304	191549440	164055144	33184
931	2.338051	225378304	192073728	164690664	33184
932	2.374916	225378304	192073728	165326888	33184
933	2.473082	225378304	192073728	165963880	33184
934	2.639822	225648640	192073728	166601576	33184
935	2.360769	225648640	192073728	167240032	33184
936	2.638873	225648640	192073728	167879248	33184
937	2.711804	225648640	192073728	168519192	33184
938	2.743653	225648640	192073728	169159840	33184
939	3.14431	225918976	192598016	169801256	33184
940	2.953997	225918976	192598016	170443376	33184
941	14.125667	228352000	195219456	159582832	33184
942	3.795089	228622336	195219456	160226424	33184
943	3.890448	228622336	195219456	160870792	33184
944	3.726829	228622336	195219456	161515888	33184
945	3.785666	228622336	195219456	162161728	33184
946	4.138383	228622336	195219456	162808344	33184
947	3.989421	228892672	195219456	163455656	33184
948	4.651607	228892672	195219456	164103744	33184
949	6.627555	204062720	151179264	85283944	33184
950	0.948485	188858368	151179264	85933832	33184
951	1.111443	179945472	151179264	86584096	33184
952	0.564487	178896896	151179264	87235120	33184
953	0.554875	178896896	151179264	87886896	33184
954	0.557286	178896896	151179264	88539408	33184
955	0.546962	178896896	151179264	89192688	33184
956	0.556527	178896896	151179264	89846672	33184
957	0.699332	178896896	151179264	90501432	33184
958	0.554311	178896896	151179264	91156888	33184
959	0.555724	178896896	151179264	91813144	33184
960	0.554768	178896896	151179264	92470224	33184
961	0.563382	178896896	151179264	93127296	33184
962	0.580848	178896896	151179264	93785064	33184
963	0.578121	178896896	151179264	94443608	33184
964	0.567415	178896896	151179264	95102856	33184
965	0.571221	178896896	151179264	95762872	33184
966	0.576952	178896896	151179264	96423616	33184
967	0.58294	178896896	151179264	97085104	33184
968	0.601533	178896896	151179264	97747304	33184
969	6.75385	181325824	151179264	84951744	33184
970	1.116754	181866496	151179264	85615504	33184
971	0.680713	182407168	151179264	86279944	33184
972	0.678537	182947840	151179264	86945160	33184
973	0.664939	183488512	151179264	87611072	33184
974	0.676848	184299520	151179264	88277760	33184
975	0.667882	184840192	151179264	88945144	33184
976	0.597069	184840192	151179264	89613264	33184
977	0.546018	184840192	151179264	90282128	33184
978	0.519047	184840192	151179264	90951760	33184
979	0.568026	184840192	151179264	91622104	33184
980	0.523892	184840192	151179264	92293208	33184
981	0.549429	184840192	151179264	92965024	33184
982	0.545637	184840192	151179264	93637632	33184
983	0.582496	184840192	151179264	94310992	33184
984	0.552071	184840192	151179264	94985048	33184
985	0.550663	184840192	151179264	95659880	33184
986	0.562875	184840192	151179264	96335408	33184
987	0.55607	184840192	151179264	97011816	33184
988	0.551377	184840192	151179264	97688824	33184
989	0.625705	184840192	151179264	98366600	33184
990	0.558523	184840192	151179264	99045080	33184
991	0.557019	184840192	151179264	99724336	33184
992	7.037159	184840192	151703552	88646224	33184
993	1.086988	184840192	151703552	89326320	33184
994	0.545413	184840192	151703552	90007112	33184
995	0.564721	184840192	151703552	90688672	33184
996	0.539595	184840192	151703552	91370944	33184
997	0.630761	184840192	151703552	92054080	33184
998	0.556796	184840192	151703552	92737888	33184
999	0.557523	184840192	151703552	93422400	33184
1000	0.553169	184840192	151703552	94107688	33184
