x	Duration	RSS	HeapTotal	HeapUsed	External
0	NA	160174080	129159168	91468536	33184
1	0.035594	160174080	129159168	91477560	33184
2	0.024064	160174080	129159168	91487568	33184
3	0.021958	160174080	129159168	91498080	33184
4	0.020859	160174080	129159168	91509216	33184
5	0.020558	160174080	129159168	91521008	33184
6	0.020333	160174080	129159168	91533424	33184
7	0.020929	160174080	129159168	91546496	33184
8	0.034482	160174080	129159168	91563264	33184
9	0.031724	160174080	129159168	91579304	33184
10	0.034547	160174080	129159168	91595808	33184
11	0.029216	160174080	129159168	91613208	33184
12	0.030199	160174080	129159168	91631328	33184
13	0.029523	160174080	129159168	91650168	33184
14	0.029259	160174080	129159168	91669728	33184
15	0.029567	160174080	129159168	91690008	33184
16	0.031602	160174080	129159168	91711320	33184
17	0.046667	160174080	129159168	91733832	33184
18	0.034565	160174080	129159168	91757112	33184
19	0.034179	160174080	129159168	91781536	33184
20	0.034522	160174080	129159168	91806224	33184
21	0.035648	160174080	129159168	91831736	33184
22	0.037212	160174080	129159168	91857328	33184
23	0.037558	160174080	129159168	91884424	33184
24	0.03671	160174080	129159168	91912416	33184
25	0.038991	160174080	129159168	91941192	33184
26	0.039426	160174080	129159168	91970568	33184
27	0.03918	160174080	129159168	92000568	33184
28	0.03994	160174080	129159168	92031304	33184
29	0.044439	160174080	129159168	92062784	33184
30	0.040594	160174080	129159168	92095000	33184
31	0.041656	160174080	129159168	92127960	33184
32	0.04235	160174080	129159168	92161264	33184
33	0.042824	160174080	129159168	92195088	33184
34	0.043348	160174080	129159168	92229648	33184
35	0.04486	160174080	129159168	92264952	33184
36	0.045303	160174080	129159168	92300992	33184
37	0.045534	160174080	129159168	92337816	33184
38	0.046841	160174080	129159168	92375216	33184
39	0.046945	160174080	129159168	92413472	33184
40	0.04806	160174080	129159168	92452168	33184
41	0.051519	160174080	129159168	92491592	33184
42	0.048109	160174080	129159168	92531816	33184
43	0.048151	160174080	129159168	92572848	33184
44	0.049237	160174080	129159168	92614680	33184
45	0.05019	160174080	129159168	92657992	33184
46	0.049565	160174080	129159168	92701432	33184
47	0.050979	160174080	129159168	92745680	33184
48	0.051523	160174080	129159168	92790752	33184
49	0.051638	160174080	129159168	92836632	33184
50	0.057166	160174080	129159168	92883312	33184
51	0.054385	160174080	129159168	92930800	33184
52	0.053929	160174080	129159168	92979120	33184
53	0.054231	160174080	129159168	93028016	33184
54	0.055268	160174080	129159168	93077616	33184
55	0.05531	160174080	129159168	93128032	33184
56	0.055763	160174080	129159168	93179064	33184
57	0.058246	160174080	129159168	93230936	33184
58	0.068091	160174080	129159168	93283432	33184
59	0.064325	160174080	129159168	93336560	33184
60	0.061192	160174080	129159168	93390312	33184
61	0.06123	160174080	129159168	93444696	33184
62	0.061659	160174080	129159168	93499704	33184
63	0.069054	160174080	129159168	93555368	33184
64	0.064438	160174080	129159168	93611264	33184
65	0.06395	160174080	129159168	93667544	33184
66	0.068164	160174080	129159168	93724448	33184
67	0.064811	160174080	129159168	93781984	33184
68	0.065933	160174080	129159168	93840144	33184
69	0.065963	160174080	129159168	93898912	33184
70	0.066774	160174080	129159168	93958416	33184
71	0.067584	160174080	129159168	94018560	33184
72	0.071263	160174080	129159168	94079360	33184
73	0.068645	160174080	129159168	94140800	33184
74	0.069141	160174080	129159168	94202864	33184
75	0.06944	160174080	129159168	94265560	33184
76	0.070685	160174080	129159168	94328880	33184
77	0.07049	160174080	129159168	94392832	33184
78	0.071858	160174080	129159168	94457408	33184
79	0.076647	160174080	129159168	94522616	33184
80	0.072377	160174080	129159168	94588664	33184
81	0.090849	160174080	129159168	94655184	33184
82	0.073935	160174080	129159168	94722296	33184
83	0.072373	160174080	129159168	94790040	33184
84	0.078044	160174080	129159168	94859544	33184
85	0.095941	160174080	129159168	94929672	33184
86	0.074862	160174080	129159168	94999088	33184
87	0.073741	160174080	129159168	95069344	33184
88	0.074705	160174080	129159168	95140232	33184
89	0.074877	160174080	129159168	95211800	33184
90	0.083419	160174080	129159168	95283976	33184
91	0.076186	160174080	129159168	95356784	33184
92	0.076692	160174080	129159168	95430216	33184
93	0.075848	160174080	129159168	95504280	33184
94	0.07554	160174080	129159168	95578968	33184
95	0.081834	160174080	129159168	95654288	33184
96	0.086201	160174080	129159168	95729880	33184
97	0.08053	160174080	129159168	95805880	33184
98	0.08019	160174080	129159168	95882464	33184
99	0.079645	160174080	129159168	95959680	33184
100	0.086056	160174080	129159168	96037520	33184
101	0.080478	160174080	129159168	96115968	33184
102	0.081049	160174080	129159168	96194960	33184
103	0.082359	160174080	129159168	96274592	33184
104	0.086274	160174080	129159168	96354880	33184
105	0.083217	160174080	129159168	96435808	33184
106	0.082938	160174080	129159168	96517360	33184
107	0.0842	160174080	129159168	96599544	33184
108	0.084268	160174080	129159168	96682352	33184
109	0.090297	160174080	129159168	96765792	33184
110	0.086116	160174080	129159168	96849856	33184
111	0.087694	160174080	129159168	96934552	33184
112	0.087301	160174080	129159168	97019896	33184
113	0.091585	160174080	129159168	97105872	33184
114	0.087932	160174080	129159168	97192472	33184
115	0.260316	160174080	129159168	97279704	33184
116	0.091763	160174080	129159168	97367560	33184
117	0.093351	160174080	129159168	97456024	33184
118	0.091876	160174080	129159168	97545040	33184
119	0.090806	160174080	129159168	97634688	33184
120	0.089796	160174080	129159168	97724968	33184
121	0.095759	160174080	129159168	97815912	33184
122	0.091774	160174080	129159168	97907480	33184
123	0.09169	160174080	129159168	97999680	33184
124	0.0932	160174080	129159168	98092536	33184
125	0.096389	160174080	129159168	98185992	33184
126	0.115628	160174080	129159168	98280072	33184
127	0.105022	160174080	129159168	98374784	33184
128	0.0882	160174080	129159168	98469792	33184
129	0.093287	160174080	129159168	98564856	33184
130	0.090518	160174080	129159168	98660544	33184
131	0.0895	160174080	129159168	98757024	33184
132	0.08861	160174080	129159168	98854128	33184
133	0.096645	160174080	129159168	98951840	33184
134	0.090545	160174080	129159168	99050184	33184
135	0.092642	160174080	129159168	99149168	33184
136	0.096062	160174080	129159168	99248808	33184
137	0.091963	160174080	129159168	99349088	33184
138	0.091994	160174080	129159168	99449992	33184
139	0.093291	160174080	129159168	99551528	33184
140	0.099837	160174080	129159168	99653688	33184
141	0.09401	160174080	129159168	99756480	33184
142	0.095112	160174080	129159168	99861728	33184
143	0.099015	160174080	129159168	99965776	33184
144	0.095755	160174080	129159168	100070472	33184
145	0.095283	160174080	129159168	100175800	33184
146	0.101635	160174080	129159168	100281752	33184
147	0.097874	160174080	129159168	100388376	33184
148	0.098088	160174080	129159168	100495584	33184
149	0.099059	160174080	129159168	100603400	33184
150	0.102833	160174080	129159168	100712328	33184
151	0.100735	160174080	129159168	100821896	33184
152	0.123351	160174080	129159168	100932152	33184
153	0.11164	160174080	129159168	101043016	33184
154	0.121299	160174080	129159168	101154504	33184
155	0.101833	160174080	129159168	101266624	33184
156	0.105922	160174080	129159168	101379368	33184
157	0.103431	160174080	129159168	101492808	33184
158	0.10417	160174080	129159168	101606808	33184
159	0.106626	160174080	129159168	101721440	33184
160	0.104533	160174080	129159168	101836384	33184
161	0.105052	160174080	129159168	101951656	33184
162	0.109348	160174080	129159168	102067608	33184
163	0.105062	160174080	129159168	102184136	33184
164	0.10664	160174080	129159168	102301288	33184
165	0.110353	160174080	129159168	102419048	33184
166	0.109302	160174080	129159168	102537704	33184
167	0.107935	160174080	129159168	102657000	33184
168	0.112111	160174080	129159168	102776928	33184
169	0.111741	160174080	129159168	102897520	33184
170	0.109565	160174080	129159168	103018736	33184
171	0.114156	160174080	129159168	103140584	33184
172	0.111692	160174080	129159168	103263056	33184
173	0.110431	160174080	129159168	103386160	33184
174	0.117196	160174080	129159168	103509888	33184
175	0.111843	160174080	129159168	103634248	33184
176	0.111452	160174080	129159168	103759256	33184
177	0.122219	160174080	129159168	103884896	33184
178	0.145142	160174080	129159168	104011160	33184
179	0.125596	160174080	129159168	104138056	33184
180	0.131796	160174080	129159168	104265576	33184
181	0.116256	160174080	129159168	104393760	33184
182	0.117688	160174080	129159168	104522520	33184
183	0.116303	160174080	129159168	104651920	33184
184	0.147052	160174080	129159168	104781952	33184
185	0.131143	160174080	129159168	104912696	33184
186	0.119457	160174080	129159168	105044016	33184
187	0.12367	160174080	129159168	105175968	33184
188	0.121091	160174080	129159168	105308544	33184
189	0.120211	160174080	129159168	105441752	33184
190	7.51524	160174080	129159168	93926576	33184
191	0.204893	160174080	129159168	94061040	33184
192	0.128321	160174080	129159168	94195904	33184
193	0.118196	160174080	129159168	94331008	33184
194	0.119625	160174080	129159168	94466736	33184
195	0.122571	160174080	129159168	94603096	33184
196	0.119415	160174080	129159168	94740096	33184
197	0.122055	160174080	129159168	94877688	33184
198	0.120485	160174080	129159168	95015912	33184
199	0.119052	160174080	129159168	95154776	33184
200	0.126027	160174080	129159168	95294288	33184
201	0.119988	160174080	129159168	95434448	33184
202	0.123733	160174080	129159168	95575232	33184
203	0.121469	160174080	129159168	95716648	33184
204	0.121626	160174080	129159168	95858688	33184
205	0.136993	160174080	129159168	96001360	33184
206	0.122861	160174080	129159168	96144656	33184
207	0.126135	160174080	129159168	96288584	33184
208	0.124058	160174080	129159168	96433184	33184
209	0.122508	160174080	129159168	96578392	33184
210	0.128903	160174080	129159168	96724224	33184
211	0.122021	160174080	129159168	96870688	33184
212	0.130391	160174080	129159168	97017824	33184
213	0.126198	160174080	129159168	97165520	33184
214	0.129479	160174080	129159168	97313848	33184
215	0.126483	160174080	129159168	97462816	33184
216	0.128308	160174080	129159168	97612464	33184
217	0.133171	160174080	129159168	97762728	33184
218	0.127294	160174080	129159168	97913616	33184
219	0.134232	160174080	129159168	98065136	33184
220	0.130482	160174080	129159168	98217312	33184
221	0.133228	160174080	129159168	98370088	33184
222	0.130474	160174080	129159168	98523488	33184
223	0.13376	160174080	129159168	98677520	33184
224	0.133532	160174080	129159168	98831952	33184
225	0.133402	160174080	129159168	98986624	33184
226	0.134043	160174080	129159168	99141920	33184
227	0.135362	160174080	129159168	99297856	33184
228	0.318526	160174080	129159168	99454408	33184
229	0.141491	160174080	129159168	99614448	33184
230	0.137443	160174080	129159168	99772240	33184
231	0.134972	160174080	129159168	99930704	33184
232	0.138467	160174080	129159168	100089768	33184
233	0.133775	160174080	129159168	100249496	33184
234	0.13868	160174080	129159168	100409848	33184
235	0.135615	160174080	129159168	100570832	33184
236	0.138981	160174080	129159168	100732440	33184
237	0.170077	160174080	129683456	100894680	33184
238	0.146572	160174080	129683456	101057560	33184
239	0.143262	160174080	129683456	101221056	33184
240	0.146571	160501760	129683456	101385200	33184
241	0.142672	160501760	129683456	101549976	33184
242	0.147752	160501760	129683456	101715400	33184
243	0.144452	160501760	129683456	101881432	33184
244	0.15101	160501760	129683456	102048088	33184
245	0.148919	160501760	129683456	102215376	33184
246	0.147352	160501760	129683456	102383272	33184
247	0.147446	160501760	129683456	102551808	33184
248	0.147637	160501760	129683456	102721008	33184
249	0.288913	160501760	129683456	102890840	33184
250	0.176545	160501760	129683456	103061296	33184
251	0.148591	160501760	129683456	103232384	33184
252	0.155824	160501760	129683456	103404128	33184
253	0.15696	160501760	129683456	103576472	33184
254	0.152947	160501760	129683456	103749440	33184
255	0.151384	160501760	129683456	103923080	33184
256	0.15213	160772096	129683456	104097416	33184
257	0.153234	160772096	129683456	104272016	33184
258	0.155999	160772096	129683456	104447240	33184
259	0.158132	160772096	129683456	104623096	33184
260	0.157356	160772096	129683456	104799576	33184
261	0.155403	160772096	129683456	104976656	33184
262	0.15914	160772096	129683456	105154576	33184
263	0.15723	160772096	129683456	105333264	33184
264	0.15992	160772096	129683456	105512752	33184
265	0.157151	160772096	129683456	105693448	33184
266	0.166323	160772096	129683456	105875104	33184
267	0.15778	160772096	129683456	106057744	33184
268	0.20749	160772096	130207744	106241400	33184
269	0.167509	160772096	130207744	106426000	33184
270	0.167645	160772096	130207744	106611576	33184
271	0.197656	161042432	130207744	106798144	33184
272	0.162497	161042432	130207744	106985680	33184
273	0.167529	161042432	130207744	107174200	33184
274	0.162713	161042432	130207744	107363752	33184
275	0.16899	161042432	130207744	107554232	33184
276	0.164973	161042432	130207744	107745688	33184
277	0.173189	161042432	130207744	107937800	33184
278	0.169716	161042432	130207744	108130512	33184
279	0.17154	161042432	130207744	108323856	33184
280	0.17484	161042432	130207744	108517888	33184
281	0.168456	161042432	130207744	108712488	33184
282	0.171134	161042432	130207744	108907712	33184
283	0.171927	161042432	130207744	109103576	33184
284	0.172687	161042432	130207744	109300056	33184
285	0.176727	161042432	130207744	109497168	33184
286	7.14426	163475456	132829184	97329408	33184
287	0.295249	163475456	132829184	97527808	33184
288	0.176462	163475456	132829184	97726544	33184
289	0.169467	163475456	132829184	97925568	33184
290	0.319858	163475456	132829184	98125176	33184
291	0.173534	163475456	132829184	98325416	33184
292	0.171502	163475456	132829184	98526304	33184
293	0.167777	163475456	132829184	98727800	33184
294	0.169525	163475456	132829184	98929920	33184
295	0.173025	163745792	132829184	99132728	33184
296	0.17033	163745792	132829184	99336104	33184
297	0.170282	163745792	132829184	99540112	33184
298	0.170853	163745792	132829184	99744752	33184
299	0.166116	163745792	132829184	99950016	33184
300	0.171646	163745792	132829184	100155904	33184
301	0.170371	163745792	132829184	100362448	33184
302	0.177409	163745792	132829184	100569592	33184
303	0.171076	163745792	132829184	100777408	33184
304	0.174925	163745792	132829184	100985808	33184
305	0.171867	163745792	132829184	101194840	33184
306	0.180577	163745792	132829184	101404512	33184
307	0.171808	163745792	132829184	101614800	33184
308	0.399966	163745792	132829184	101825712	33184
309	0.185185	164016128	132829184	102037280	33184
310	0.177185	164016128	132829184	102249448	33184
311	0.179204	164016128	132829184	102462248	33184
312	0.176825	164016128	132829184	102675680	33184
313	0.179681	164016128	132829184	102889736	33184
314	0.201353	164016128	133353472	103104432	33184
315	0.18159	164016128	133353472	103319744	33184
316	0.179527	164016128	133353472	103535680	33184
317	0.183277	164016128	133353472	103752272	33184
318	0.178387	164016128	133353472	103969464	33184
319	0.184375	164016128	133353472	104187288	33184
320	0.184194	164016128	133353472	104405504	33184
321	0.190244	164286464	133353472	104623944	33184
322	0.201334	164286464	133353472	104843024	33184
323	0.183539	164286464	133353472	105062720	33184
324	0.184448	164286464	133353472	105283040	33184
325	0.211232	164286464	133353472	105504024	33184
326	0.208069	164286464	133353472	105725600	33184
327	0.186441	164286464	133353472	105947856	33184
328	0.191243	164286464	133353472	106170688	33184
329	0.185161	164286464	133353472	106394152	33184
330	0.196466	164286464	133353472	106618240	33184
331	0.224831	164286464	133353472	106842960	33184
332	0.187643	164286464	133353472	107068312	33184
333	0.193018	164286464	133353472	107294288	33184
334	0.186506	164556800	133353472	107520888	33184
335	0.19391	164556800	133353472	107748160	33184
336	0.185654	164556800	133353472	107976016	33184
337	0.197616	164556800	133353472	108204504	33184
338	0.211433	164556800	133877760	108433648	33184
339	0.191872	164556800	133877760	108663392	33184
340	0.196712	164556800	133877760	108893784	33184
341	0.190994	164556800	133877760	109124784	33184
342	0.21936	164556800	133877760	109356464	33184
343	0.198851	164556800	133877760	109588720	33184
344	0.194001	164556800	133877760	109821600	33184
345	0.20089	164827136	133877760	110055176	33184
346	0.195321	164827136	133877760	110289312	33184
347	0.20498	164827136	133877760	110524096	33184
348	0.218902	164827136	133877760	110759488	33184
349	0.198596	164827136	133877760	110995512	33184
350	0.20336	164827136	133877760	111232192	33184
351	0.198152	164827136	133877760	111469472	33184
352	0.206191	164827136	133877760	111707208	33184
353	0.20438	164827136	133877760	111945104	33184
354	0.198931	164827136	133877760	112183624	33184
355	0.206882	164827136	133877760	112422800	33184
356	0.201063	164827136	133877760	112662576	33184
357	0.361849	165097472	133877760	112902984	33184
358	0.229891	165097472	133877760	113144016	33184
359	6.274409	166989824	135974912	100618936	33184
360	0.40062	166989824	135974912	100865712	33184
361	0.209404	166989824	135974912	101108632	33184
362	0.194865	166989824	135974912	101352184	33184
363	0.231707	166989824	135974912	101596360	33184
364	0.219872	166989824	135974912	101841160	33184
365	0.204954	166989824	135974912	102086648	33184
366	0.200918	166989824	135974912	102332704	33184
367	0.198077	166989824	135974912	102579456	33184
368	0.202122	166989824	135974912	102826768	33184
369	0.22352	167260160	136499200	103074712	33184
370	0.203559	167260160	136499200	103323280	33184
371	0.203609	167260160	136499200	103572480	33184
372	0.196959	167260160	136499200	103822328	33184
373	0.205697	167260160	136499200	104072784	33184
374	0.202901	167260160	136499200	104323896	33184
375	0.234068	167260160	136499200	104575608	33184
376	0.237917	167260160	136499200	104827992	33184
377	0.220583	167260160	136499200	105080960	33184
378	0.407536	167260160	136499200	105334552	33184
379	0.27176	167260160	136499200	105588968	33184
380	0.204924	167530496	136499200	105843816	33184
381	0.210523	167530496	136499200	106099320	33184
382	0.20229	167530496	136499200	106355424	33184
383	0.212797	167530496	136499200	106612176	33184
384	0.241904	167530496	136499200	106869344	33184
385	0.211841	167530496	136499200	107126704	33184
386	0.210446	167530496	136499200	107384680	33184
387	0.240678	167530496	136499200	107643288	33184
388	0.205404	167530496	136499200	107902528	33184
389	0.213784	167530496	136499200	108162392	33184
390	0.22761	167800832	137023488	108422880	33184
391	0.219686	167800832	137023488	108684000	33184
392	0.216388	167800832	137023488	108945744	33184
393	0.251855	167800832	137023488	109208120	33184
394	0.242196	167800832	137023488	109471136	33184
395	0.261636	167800832	137023488	109734768	33184
396	0.215097	167800832	137023488	109999040	33184
397	0.221623	167800832	137023488	110263928	33184
398	0.239254	167800832	137023488	110529480	33184
399	0.215607	167800832	137023488	110795624	33184
400	0.223319	168071168	137023488	111062392	33184
401	0.253206	168071168	137023488	111329832	33184
402	0.214564	168071168	137023488	111597856	33184
403	0.226405	168071168	137023488	111866520	33184
404	0.242306	168071168	137023488	112135800	33184
405	0.219186	168071168	137023488	112405712	33184
406	0.223639	168071168	137023488	112676248	33184
407	0.252649	168071168	137023488	112947432	33184
408	0.23887	168071168	137023488	113219224	33184
409	0.250224	168071168	137547776	113491672	33184
410	0.258196	168341504	137547776	113764720	33184
411	0.224927	168341504	137547776	114038440	33184
412	0.231553	168341504	137547776	114312744	33184
413	0.264546	168341504	137547776	114587728	33184
414	0.222441	168341504	137547776	114863288	33184
415	0.236829	168341504	137547776	115139544	33184
416	0.26745	168341504	137547776	115416184	33184
417	0.224474	168341504	137547776	115693032	33184
418	0.235332	168341504	137547776	115970464	33184
419	0.234815	168341504	137547776	116248544	33184
420	0.228625	168611840	137547776	116527232	33184
421	6.252626	170233856	139644928	103936120	33184
422	0.482464	170504192	139644928	104216104	33184
423	0.232293	170504192	139644928	104496680	33184
424	0.230562	170504192	139644928	104777928	33184
425	0.218198	170504192	139644928	105059760	33184
426	0.225376	170504192	139644928	105342216	33184
427	0.282465	170504192	139644928	105625304	33184
428	0.248219	170504192	139644928	105909016	33184
429	0.227036	170504192	139644928	106193608	33184
430	0.243054	170504192	139644928	106478576	33184
431	0.220684	170504192	139644928	106764184	33184
432	0.228638	170774528	139644928	107050408	33184
433	0.258239	170774528	139644928	107337264	33184
434	0.224813	170774528	139644928	107624744	33184
435	0.230755	170774528	139644928	107912888	33184
436	0.228383	170774528	139644928	108201624	33184
437	0.247547	170774528	140169216	108491000	33184
438	0.236221	170774528	140169216	108781168	33184
439	0.23345	170774528	140169216	109071792	33184
440	0.225244	170774528	140169216	109363064	33184
441	0.229958	171044864	140169216	109654944	33184
442	0.26563	171044864	140169216	109947448	33184
443	0.273971	171044864	140169216	110240584	33184
444	0.252274	171044864	140169216	110534368	33184
445	0.237972	171044864	140169216	110828760	33184
446	0.270132	171044864	140169216	111123800	33184
447	0.230658	171044864	140169216	111419448	33184
448	0.236346	171044864	140169216	111715624	33184
449	0.237278	171044864	140169216	112011888	33184
450	0.269584	171315200	140169216	112308832	33184
451	0.240577	171315200	140169216	112606352	33184
452	0.241904	171315200	140169216	112904496	33184
453	0.239122	171315200	140169216	113203272	33184
454	0.275085	171315200	140169216	113502680	33184
455	0.283995	171315200	140693504	113802712	33184
456	0.245074	171315200	140693504	114103384	33184
457	0.2741	171315200	140693504	114404672	33184
458	0.237156	171315200	140693504	114706616	33184
459	0.249985	171585536	140693504	115009160	33184
460	0.243427	171585536	140693504	115312376	33184
461	0.27493	171585536	140693504	115616176	33184
462	0.249907	171585536	140693504	115920872	33184
463	0.248647	171585536	140693504	116226056	33184
464	0.248863	171585536	140693504	116531736	33184
465	0.27602	171585536	140693504	116838064	33184
466	0.241766	171585536	140693504	117145000	33184
467	0.275305	171585536	140693504	117452584	33184
468	0.272535	171855872	140693504	117760776	33184
469	0.252426	171855872	140693504	118069624	33184
470	0.245611	171855872	140693504	118379072	33184
471	0.264745	171855872	140693504	118689184	33184
472	0.268115	171855872	141217792	118999888	33184
473	0.285928	171855872	141217792	119311272	33184
474	0.24817	171855872	141217792	119623232	33184
475	0.250291	171855872	141217792	119935848	33184
476	6.251997	173748224	143314944	107264704	33184
477	0.507235	173748224	143314944	107578592	33184
478	0.25453	173748224	143314944	107893064	33184
479	0.287543	173748224	143314944	108208176	33184
480	0.247456	174018560	143314944	108523768	33184
481	0.245149	174018560	143314944	108839512	33184
482	0.251161	174018560	143314944	109155856	33184
483	0.288275	174018560	143314944	109472864	33184
484	0.24735	174018560	143314944	109790464	33184
485	0.246539	174018560	143314944	110108744	33184
486	0.281321	174018560	143314944	110427600	33184
487	0.271025	174018560	143314944	110747088	33184
488	0.287385	174288896	143314944	111067208	33184
489	0.246487	174288896	143314944	111387952	33184
490	0.258832	174288896	143314944	111709328	33184
491	0.255718	174288896	143314944	112031328	33184
492	0.285977	174288896	143314944	112353968	33184
493	0.247993	174288896	143314944	112677224	33184
494	0.263645	174288896	143314944	113001136	33184
495	0.29187	174288896	143314944	113325680	33184
496	0.255624	174288896	143314944	113650816	33184
497	0.259676	174559232	143314944	113976632	33184
498	0.277894	174559232	143839232	114303024	33184
499	0.443045	174559232	143839232	114630104	33184
500	0.264104	174559232	143839232	114957752	33184
501	0.259946	174559232	143839232	115286032	33184
502	0.257516	174559232	143839232	115614992	33184
503	0.264382	174559232	143839232	115944528	33184
504	0.264897	174559232	143839232	116274704	33184
505	0.263101	174829568	143839232	116605496	33184
506	0.261429	174829568	143839232	116936936	33184
507	0.259801	174829568	143839232	117268984	33184
508	0.269124	174829568	143839232	117601864	33184
509	0.433122	174829568	143839232	117935208	33184
510	0.312736	174829568	143839232	118269136	33184
511	0.305716	174829568	143839232	118603752	33184
512	0.269091	174829568	143839232	118939160	33184
513	0.26125	175099904	143839232	119274736	33184
514	0.29	175099904	144363520	119610944	33184
515	0.273026	175099904	144363520	119947712	33184
516	0.270226	175099904	144363520	120285120	33184
517	0.26939	175099904	144363520	120622920	33184
518	0.267319	175099904	144363520	120961456	33184
519	0.28247	175099904	144363520	121300736	33184
520	0.278133	175099904	144363520	121640768	33184
521	0.275577	175370240	144363520	121981928	33184
522	0.277553	175370240	144363520	122323760	33184
523	0.359025	175370240	144363520	122666392	33184
524	0.271272	175370240	144363520	123009704	33184
525	0.280262	175370240	144363520	123353784	33184
526	6.240413	177262592	146460672	110648888	33184
527	0.563336	177262592	146460672	110994464	33184
528	0.298148	177262592	146460672	111340736	33184
529	0.283875	177262592	146460672	111687768	33184
530	0.301301	177262592	146460672	112035520	33184
531	0.307615	177262592	146460672	112384032	33184
532	0.292289	177262592	146460672	112733264	33184
533	0.292708	177532928	146460672	113083240	33184
534	0.280256	177532928	146460672	113434016	33184
535	0.295351	177532928	146460672	113785488	33184
536	0.306564	177532928	146460672	114137680	33184
537	0.297153	177532928	146460672	114490664	33184
538	0.304025	177532928	146460672	114844336	33184
539	0.324336	177532928	146460672	115198792	33184
540	0.312658	177532928	146984960	115553984	33184
541	0.310897	177803264	146984960	115909880	33184
542	0.328336	177803264	146984960	116266536	33184
543	0.32567	177803264	146984960	116623912	33184
544	0.312158	177803264	146984960	116982184	33184
545	0.302179	177803264	146984960	117340456	33184
546	0.305975	177803264	146984960	117699408	33184
547	0.317544	177803264	146984960	118059168	33184
548	0.34345	178073600	146984960	118419624	33184
549	0.310224	178073600	146984960	118780800	33184
550	0.327637	178073600	146984960	119142760	33184
551	0.312604	178073600	146984960	119505464	33184
552	0.290791	178073600	146984960	119868856	33184
553	0.295262	178073600	146984960	120233024	33184
554	0.310735	178073600	147509248	120597896	33184
555	0.299156	178073600	147509248	120963536	33184
556	0.295026	178343936	147509248	121336688	33184
557	0.294852	178343936	147509248	121703784	33184
558	0.298752	178343936	147509248	122071616	33184
559	0.299003	178343936	147509248	122440224	33184
560	0.291848	178343936	147509248	122809536	33184
561	0.303284	178343936	147509248	123179648	33184
562	0.337051	178343936	147509248	123550496	33184
563	0.303976	178614272	147509248	123922032	33184
564	0.300733	178614272	147509248	124294344	33184
565	0.302191	178614272	147509248	124667368	33184
566	0.300546	178614272	147509248	125041120	33184
567	0.304405	178614272	147509248	125415640	33184
568	0.316746	178614272	148033536	125790872	33184
569	0.300367	178614272	148033536	126166936	33184
570	0.304911	178884608	148033536	126543672	33184
571	0.31019	178884608	148033536	126921128	33184
572	6.562763	180506624	150130688	114362248	33184
573	0.364773	180506624	150130688	114741184	33184
574	0.312683	180506624	150130688	115120864	33184
575	0.309251	180776960	150130688	115501304	33184
576	0.306569	180776960	150130688	115882384	33184
577	0.307938	180776960	150130688	116263656	33184
578	0.307354	180776960	150130688	116645680	33184
579	0.306876	180776960	150130688	117028416	33184
580	0.298676	180776960	150130688	117411896	33184
581	0.313403	180776960	150130688	117796168	33184
582	0.309706	181047296	150130688	118181120	33184
583	0.312413	181047296	150130688	118566872	33184
584	0.311245	181047296	150130688	118953320	33184
585	0.313606	181047296	150130688	119340496	33184
586	0.314965	181047296	150130688	119728440	33184
587	0.313368	181047296	150130688	120117144	33184
588	0.310203	181047296	150130688	120506592	33184
589	0.363904	181317632	150130688	120896728	33184
590	0.482371	181317632	150130688	121287632	33184
591	0.38003	181317632	150130688	121679256	33184
592	0.34968	181317632	150654976	122071608	33184
593	0.325846	181317632	150654976	122464728	33184
594	0.325127	181317632	150654976	122858600	33184
595	0.319574	181317632	150654976	123253176	33184
596	0.31951	181587968	150654976	123648488	33184
597	0.320536	181587968	150654976	124044608	33184
598	0.316945	181587968	150654976	124441400	33184
599	0.535279	181587968	150654976	124839024	33184
600	0.326605	181587968	150654976	125237352	33184
601	0.323064	181587968	150654976	125636368	33184
602	0.324514	181587968	150654976	126036144	33184
603	0.32422	181858304	150654976	126436704	33184
604	0.317416	181858304	150654976	126837944	33184
605	0.336956	181858304	151179264	127239920	33184
606	0.336351	181858304	151179264	127642648	33184
607	0.331602	181858304	151179264	128046136	33184
608	0.326748	181858304	151179264	128450272	33184
609	0.380078	181858304	151179264	128854576	33184
610	0.336634	182128640	151179264	129259656	33184
611	0.330183	182128640	151179264	129665456	33184
612	0.331271	182128640	151179264	130071968	33184
613	6.425714	184020992	153276416	117809656	33184
614	0.74985	184020992	153276416	118217704	33184
615	0.3376	184020992	153276416	118626440	33184
616	0.331162	184020992	153276416	119035944	33184
617	0.334812	184020992	153276416	119446168	33184
618	0.329844	184291328	153276416	119857120	33184
619	0.329561	184291328	153276416	120268848	33184
620	0.333625	184291328	153276416	120681304	33184
621	0.329877	184291328	153276416	121094544	33184
622	0.330806	184291328	153276416	121508456	33184
623	0.367538	184291328	153276416	121923112	33184
624	0.334083	184291328	153276416	122338528	33184
625	0.354121	184561664	153800704	122754720	33184
626	0.331117	184561664	153800704	123171592	33184
627	0.328974	184561664	153800704	123589248	33184
628	0.334691	184561664	153800704	124007616	33184
629	0.341186	184561664	153800704	124426712	33184
630	0.342922	184561664	153800704	124846440	33184
631	0.347515	184832000	153800704	125266896	33184
632	0.345316	184832000	153800704	125688072	33184
633	0.400801	184832000	153800704	126109944	33184
634	0.361524	184832000	153800704	126532552	33184
635	0.346269	184832000	153800704	126955920	33184
636	0.352014	184832000	153800704	127379968	33184
637	0.361064	185102336	154324992	127804736	33184
638	0.365953	185102336	154324992	128230224	33184
639	0.372597	185102336	154324992	128656448	33184
640	0.352273	185102336	154324992	129083376	33184
641	0.349671	185102336	154324992	129510400	33184
642	0.348584	185102336	154324992	129938176	33184
643	0.39832	185102336	154324992	130366648	33184
644	0.351132	185372672	154324992	130795888	33184
645	0.348982	185372672	154324992	131225808	33184
646	0.350446	185372672	154324992	131656376	33184
647	0.35588	185372672	154324992	132087720	33184
648	0.357677	185372672	154324992	132519768	33184
649	0.373679	185372672	154849280	132952528	33184
650	0.357956	185643008	154849280	133386048	33184
651	6.685617	187535360	156946432	121385696	33184
652	0.633117	187535360	156946432	121820712	33184
653	0.35853	187535360	156946432	122256480	33184
654	0.352319	187805696	156946432	122692936	33184
655	0.354374	187805696	156946432	123130168	33184
656	0.562019	187805696	156946432	123568112	33184
657	0.357432	187805696	156946432	124006824	33184
658	0.354878	187805696	156946432	124446240	33184
659	0.355315	187805696	156946432	124886408	33184
660	0.357429	187805696	156946432	125327304	33184
661	0.3589	188076032	156946432	125768968	33184
662	0.353417	188076032	156946432	126211224	33184
663	0.361016	188076032	156946432	126654224	33184
664	0.383599	188076032	157470720	127098000	33184
665	0.389346	188076032	157470720	127542544	33184
666	0.38717	188076032	157470720	127987792	33184
667	0.474096	188346368	157470720	128433768	33184
668	0.424992	188346368	157470720	128880496	33184
669	0.415266	188346368	157470720	129329048	33184
670	0.367481	188346368	157470720	129777240	33184
671	0.365785	188346368	157470720	130226160	33184
672	0.392491	188346368	157470720	130675808	33184
673	0.366071	188616704	157470720	131125576	33184
674	0.39291	188616704	157470720	131576080	33184
675	0.390155	188616704	157470720	132027360	33184
676	0.393886	188616704	157995008	132479336	33184
677	0.42462	188616704	157995008	132932080	33184
678	0.365357	188616704	157995008	133385440	33184
679	0.367528	188887040	157995008	133839592	33184
680	0.369974	188887040	157995008	134294448	33184
681	0.369402	188887040	157995008	134750024	33184
682	0.368231	188887040	157995008	135206368	33184
683	0.543062	188887040	157995008	135663488	33184
684	0.401356	188887040	157995008	136121288	33184
685	0.375423	189157376	157995008	136579864	33184
686	0.377004	189157376	157995008	137039136	33184
687	6.987296	191320064	160092160	125225064	33184
688	0.517681	191320064	160092160	125685816	33184
689	0.401737	191320064	160616448	126147320	33184
690	0.373716	191320064	160616448	126609552	33184
691	0.377012	191320064	160616448	127072552	33184
692	0.371248	191320064	160616448	127536320	33184
693	0.370714	191590400	160616448	128000776	33184
694	0.376048	191590400	160616448	128466016	33184
695	0.452289	191590400	160616448	128931968	33184
696	0.377918	191590400	160616448	129398688	33184
697	0.384927	191590400	160616448	129866112	33184
698	0.378048	191590400	160616448	130334264	33184
699	0.382778	191860736	160616448	130803184	33184
700	0.400239	191860736	161140736	131272840	33184
701	0.387788	191860736	161140736	131743216	33184
702	0.389388	191860736	161140736	132214360	33184
703	0.393264	191860736	161140736	132686272	33184
704	0.440003	191860736	161140736	133158872	33184
705	0.405925	192131072	161140736	133631672	33184
706	0.383635	192131072	161140736	134105144	33184
707	0.384238	192131072	161140736	134579376	33184
708	0.389224	192131072	161140736	135054304	33184
709	0.384874	192131072	161140736	135530000	33184
710	0.386052	192131072	161140736	136006392	33184
711	0.407614	192401408	161665024	136483528	33184
712	0.393562	192401408	161665024	136961432	33184
713	0.469876	192401408	161665024	137440080	33184
714	0.399935	192401408	161665024	137919432	33184
715	0.39533	192401408	161665024	138399560	33184
716	0.394986	192401408	161665024	138880392	33184
717	0.392485	192671744	161665024	139361968	33184
718	0.393799	192671744	161665024	139844328	33184
719	0.396446	192671744	161665024	140327400	33184
720	7.155103	194834432	164286464	128666424	33184
721	0.728474	194834432	164286464	129151016	33184
722	0.405636	194834432	164286464	129636336	33184
723	0.405667	195104768	164286464	130122360	33184
724	0.617692	195104768	164286464	130609152	33184
725	0.426609	195104768	164286464	131096648	33184
726	0.414317	195104768	164286464	131584936	33184
727	0.416616	195104768	164286464	132073928	33184
728	0.395498	195375104	164286464	132563672	33184
729	0.399546	195375104	164286464	133054184	33184
730	0.399648	195375104	164286464	133545408	33184
731	0.402671	195375104	164286464	134037392	33184
732	0.606048	195375104	164286464	134530064	33184
733	0.42597	195375104	164810752	135023496	33184
734	0.406239	195645440	164810752	135517688	33184
735	0.407529	195645440	164810752	136012624	33184
736	0.440147	195645440	164810752	136508336	33184
737	0.403144	195645440	164810752	137004112	33184
738	0.403525	195645440	164810752	137500592	33184
739	0.407929	195645440	164810752	137998032	33184
740	0.443722	195915776	164810752	138495984	33184
741	0.41642	195915776	164810752	138994704	33184
742	0.412411	195915776	164810752	139494192	33184
743	0.455265	195915776	165335040	139994392	33184
744	0.430399	195915776	165335040	140495360	33184
745	0.408309	196186112	165335040	140997032	33184
746	0.414226	196186112	165335040	141499480	33184
747	0.414531	196186112	165335040	142002624	33184
748	0.41936	196186112	165335040	142506496	33184
749	0.441838	196186112	165335040	143011120	33184
750	0.422002	196186112	165335040	143516528	33184
751	0.453654	196456448	165335040	144022624	33184
752	7.111177	198619136	167956480	132510112	33184
753	0.738226	198619136	167956480	133017688	33184
754	0.432197	198619136	167956480	133526256	33184
755	0.441681	198619136	167956480	134035352	33184
756	0.433558	198889472	167956480	134545168	33184
757	0.466943	198889472	167956480	135055752	33184
758	0.419252	198889472	167956480	135567048	33184
759	0.461773	198889472	167956480	136079112	33184
760	0.43823	198889472	167956480	136591872	33184
761	0.423746	199159808	167956480	137105408	33184
762	0.435064	199159808	167956480	137619640	33184
763	0.459547	199159808	168480768	138134616	33184
764	0.418574	199159808	168480768	138650344	33184
765	0.428649	199159808	168480768	139166832	33184
766	0.426082	199430144	168480768	139684088	33184
767	0.634114	199430144	168480768	140202048	33184
768	0.455821	199430144	168480768	140720784	33184
769	0.443276	199430144	168480768	141239576	33184
770	0.426791	199430144	168480768	141759152	33184
771	0.428797	199430144	168480768	142279416	33184
772	0.426237	199700480	168480768	142800456	33184
773	0.450239	199700480	169005056	143322192	33184
774	0.460211	199700480	169005056	143844712	33184
775	0.459691	199700480	169005056	144367968	33184
776	0.429257	199700480	169005056	144891984	33184
777	0.435577	199970816	169005056	145416744	33184
778	0.438143	199970816	169005056	145942208	33184
779	0.453316	199970816	169005056	146468448	33184
780	0.455589	199970816	169005056	146995392	33184
781	0.431029	199970816	169005056	147523104	33184
782	7.381517	202403840	171626496	136126472	33184
783	0.816967	202403840	171626496	136655672	33184
784	0.518039	202403840	171626496	137185560	33184
785	0.443981	202403840	171626496	137716224	33184
786	0.461692	202674176	171626496	138247584	33184
787	0.459817	202674176	171626496	138779720	33184
788	0.435435	202674176	171626496	139312560	33184
789	0.436604	202674176	171626496	139846168	33184
790	0.465788	202674176	172150784	140380480	33184
791	0.457312	202944512	172150784	140915568	33184
792	0.469904	202944512	172150784	141451424	33184
793	0.436737	202944512	172150784	141987984	33184
794	0.442382	202944512	172150784	142525256	33184
795	0.449645	202944512	172150784	143063376	33184
796	0.456909	203214848	172150784	143602128	33184
797	0.463342	203214848	172150784	144141656	33184
798	0.447011	203214848	172150784	144681912	33184
799	0.444468	203214848	172150784	145222896	33184
800	0.480918	203214848	172675072	145764720	33184
801	0.470969	203485184	172675072	146306536	33184
802	0.468239	203485184	172675072	146849128	33184
803	0.452563	203485184	172675072	147392424	33184
804	0.45531	203485184	172675072	147936488	33184
805	0.454978	203485184	172675072	148481328	33184
806	0.467744	203755520	172675072	149026864	33184
807	0.4959	203755520	172675072	149573176	33184
808	0.474936	203755520	172675072	150120192	33184
809	0.453469	203755520	172675072	150667976	33184
810	0.477426	203755520	173199360	151216464	33184
811	7.59117	206188544	175820800	139912632	33184
812	0.857849	206188544	175820800	140462616	33184
813	0.460283	206188544	175820800	141013352	33184
814	0.458713	206458880	175820800	141564792	33184
815	0.484912	206458880	175820800	142117000	33184
816	0.482143	206458880	175820800	142669912	33184
817	0.454764	206458880	175820800	143223592	33184
818	0.464481	206458880	175820800	143778048	33184
819	0.745659	206729216	175820800	144333208	33184
820	0.660073	206729216	175820800	144889544	33184
821	0.496592	206729216	175820800	145446176	33184
822	0.537439	206729216	175820800	146008640	33184
823	0.488196	206729216	175820800	146566744	33184
824	0.480692	206999552	175820800	147125624	33184
825	0.462549	206999552	175820800	147685200	33184
826	0.491389	206999552	176345088	148245560	33184
827	0.487309	206999552	176345088	148806680	33184
828	0.482842	206999552	176345088	149368512	33184
829	0.466559	207269888	176345088	149931112	33184
830	0.681548	207269888	176345088	150494408	33184
831	0.491725	207269888	176345088	151058488	33184
832	0.490009	207269888	176345088	151623336	33184
833	0.470242	207269888	176345088	152188240	33184
834	0.469106	207540224	176345088	152753856	33184
835	0.497366	207540224	176345088	153320240	33184
836	0.512021	207540224	176869376	153887328	33184
837	0.548689	207540224	176869376	154455184	33184
838	0.473729	207540224	176869376	155023752	33184
839	7.579733	209973248	179490816	143850936	33184
840	1.075237	210243584	179490816	144420976	33184
841	0.499571	210243584	179490816	144991784	33184
842	0.488247	210243584	179490816	145563360	33184
843	0.485791	210243584	179490816	146135640	33184
844	0.47891	210243584	179490816	146708696	33184
845	0.542766	210513920	179490816	147282456	33184
846	0.497546	210513920	179490816	147856984	33184
847	0.477578	210513920	179490816	148432216	33184
848	0.47927	210513920	179490816	149008216	33184
849	0.496357	210513920	179490816	149584920	33184
850	0.522381	210784256	180015104	150172744	33184
851	0.479122	210784256	180015104	150750928	33184
852	0.539795	210784256	180015104	151329880	33184
853	0.496188	210784256	180015104	151909600	33184
854	0.518458	210784256	180015104	152490032	33184
855	0.483952	211054592	180015104	153071224	33184
856	0.51098	211054592	180015104	153653128	33184
857	0.5038	211054592	180015104	154235800	33184
858	0.48694	211054592	180015104	154819176	33184
859	0.672802	211054592	180015104	155403320	33184
860	0.529331	211324928	180539392	155988176	33184
861	0.521428	211324928	180539392	156573792	33184
862	0.528475	211324928	180539392	157160120	33184
863	0.508721	211324928	180539392	157747216	33184
864	0.51522	211324928	180539392	158335152	33184
865	0.520248	211595264	180539392	158923088	33184
866	7.7452	214028288	183160832	147852872	33184
867	1.043738	214028288	183160832	148442280	33184
868	0.512369	214028288	183160832	149032392	33184
869	0.492896	214028288	183160832	149623272	33184
870	0.506673	214298624	183160832	150214928	33184
871	0.508382	214298624	183160832	150807280	33184
872	0.49351	214298624	183160832	151400408	33184
873	0.549807	214298624	183685120	151994240	33184
874	0.507422	214298624	183685120	152588840	33184
875	0.498859	214568960	183685120	153184144	33184
876	0.492702	214568960	183685120	153780224	33184
877	0.517034	214568960	183685120	154377000	33184
878	0.515634	214568960	183685120	154974520	33184
879	0.495582	214568960	183685120	155572784	33184
880	0.529553	214839296	183685120	156171824	33184
881	0.51336	214839296	183685120	156771584	33184
882	0.526953	214839296	184209408	157372080	33184
883	0.567823	214839296	184209408	157973352	33184
884	0.525098	215109632	184209408	158575328	33184
885	0.501547	215109632	184209408	159178072	33184
886	0.524531	215109632	184209408	159781520	33184
887	0.554363	215109632	184209408	160385744	33184
888	0.525906	215109632	184209408	160990664	33184
889	0.678917	215379968	184209408	161596360	33184
890	0.537742	215379968	184209408	162202752	33184
891	0.716924	215379968	184733696	162809928	33184
892	10.847245	217812992	186830848	151825816	33184
893	1.027048	218083328	186830848	152434456	33184
894	0.695665	218083328	187355136	153043872	33184
895	0.725922	218083328	187355136	153653992	33184
896	0.779533	218083328	187355136	154264952	33184
897	0.695867	218083328	187355136	154875912	33184
898	0.769609	218353664	187355136	155487608	33184
899	1.479381	218353664	187355136	156100088	33184
900	1.075018	218353664	187355136	156713288	33184
901	1.223118	218353664	187355136	157327192	33184
902	1.41256	218353664	187355136	157941872	33184
903	1.207991	218624000	187879424	158557248	33184
904	1.227276	218624000	187879424	159173392	33184
905	1.068308	218624000	187879424	159790248	33184
906	1.149952	218624000	187879424	160407872	33184
907	1.435932	218894336	187879424	161026264	33184
908	1.384402	218894336	187879424	161645368	33184
909	1.463389	218894336	187879424	162265224	33184
910	1.409997	218894336	187879424	162885776	33184
911	1.604324	218894336	187879424	163507112	33184
912	1.580953	219164672	188403712	164129160	33184
913	1.595186	219164672	188403712	164751976	33184
914	1.695892	219164672	188403712	165375496	33184
915	1.645558	219164672	188403712	165999792	33184
916	1.796897	219435008	188403712	166624784	33184
917	12.770903	221868032	191025152	155679800	33184
918	2.552495	221868032	191025152	156306272	33184
919	2.267755	221868032	191025152	156933512	33184
920	2.422832	222138368	191025152	157561528	33184
921	2.223856	222138368	191025152	158190232	33184
922	2.443652	222138368	191025152	158819760	33184
923	2.79602	222138368	191549440	159449952	33184
924	2.368491	222138368	191549440	160080912	33184
925	2.648319	222408704	191549440	160712584	33184
926	2.765907	222408704	191549440	161345016	33184
927	2.743248	222408704	191549440	161978160	33184
928	2.648646	222408704	191549440	162612208	33184
929	2.969326	222679040	191549440	163246184	33184
930	3.129168	222679040	191549440	163880896	33184
931	3.173152	222679040	191549440	164516416	33184
932	3.041525	222679040	192073728	165152640	33184
933	3.301524	222949376	192073728	165789632	33184
934	3.405465	222949376	192073728	166427328	33184
935	3.698068	222949376	192073728	167065800	33184
936	3.616376	222949376	192073728	167704968	33184
937	3.390539	222949376	192073728	168344912	33184
938	4.255522	223219712	192073728	168985560	33184
939	12.630833	180658176	149606400	90259712	33184
940	1.384923	166502400	149606400	90902152	33184
941	0.868354	166502400	149606400	91545048	33184
942	0.762512	166502400	149606400	92188640	33184
943	0.651996	166502400	149606400	92833008	33184
944	0.607456	166502400	149606400	93478080	33184
945	0.60868	166502400	149606400	94123920	33184
946	13.572134	168120320	150130688	81204376	33184
947	1.065761	168660992	150130688	81851688	33184
948	0.860872	169201664	150130688	82499776	33184
949	1.183013	169742336	150130688	83148568	33184
950	0.712942	170283008	150130688	83798152	33184
951	0.708403	170823680	150130688	84448416	33184
952	0.715292	171634688	150130688	85099456	33184
953	0.729293	172175360	150130688	85751192	33184
954	0.706486	172716032	150130688	86403704	33184
955	0.714256	173256704	150130688	87056920	33184
956	0.707967	173797376	150130688	87710904	33184
957	0.712274	174338048	150130688	88365600	33184
958	0.719521	175149056	150130688	89021080	33184
959	0.707367	175689728	150130688	89677312	33184
960	0.720468	176230400	150130688	90334456	33184
961	0.713312	176771072	150130688	90991520	33184
962	0.707657	177311744	150130688	91649296	33184
963	0.717551	178122752	150130688	92307840	33184
964	1.026755	178663424	150130688	92967176	33184
965	0.664499	179204096	150130688	93627200	33184
966	0.652456	179744768	150130688	94287912	33184
967	0.677353	180285440	150130688	94949408	33184
968	0.64768	181096448	150130688	95611600	33184
969	0.589863	181096448	150130688	96274568	33184
970	0.547575	181096448	150130688	96938304	33184
971	0.547315	181096448	150130688	97602768	33184
972	5.801498	181637120	151179264	85358968	33184
973	1.2288	181637120	151179264	86024920	33184
974	0.557248	181637120	151179264	86691608	33184
975	0.548259	181637120	151179264	87358992	33184
976	0.551162	181637120	151179264	88027152	33184
977	0.557782	181637120	151179264	88696016	33184
978	0.54992	181637120	151179264	89365688	33184
979	0.561563	181637120	151179264	90036088	33184
980	0.560619	181637120	151179264	90707200	33184
981	0.552172	181637120	151179264	91379080	33184
982	0.552502	181637120	151179264	92051664	33184
983	0.55006	181637120	151179264	92725024	33184
984	0.55454	181637120	151179264	93399104	33184
985	0.565982	181637120	151179264	94073936	33184
986	0.555221	181637120	151179264	94749472	33184
987	0.556897	181637120	151179264	95425776	33184
988	0.565623	181637120	151179264	96102784	33184
989	0.566357	181637120	151179264	96780664	33184
990	0.560573	181637120	151179264	97459144	33184
991	0.559993	181637120	151179264	98138392	33184
992	0.787853	181637120	151179264	98818560	33184
993	0.585024	181637120	151179264	99498656	33184
994	0.541651	181637120	151179264	100179488	33184
995	8.800971	184610816	154324992	89647944	33184
996	0.582508	184610816	154324992	90330280	33184
997	0.593325	184610816	154324992	91013320	33184
998	0.565622	184610816	154324992	91697128	33184
999	0.574255	184610816	154324992	92381640	33184
1000	0.561093	184610816	154324992	93066952	33184
