x	Duration	RSS	HeapTotal	HeapUsed	External
0	NA	159453184	127586304	91611616	33184
1	0.053739	159453184	127586304	91620640	33184
2	0.03669	159453184	127586304	91630648	33184
3	0.033359	159453184	127586304	91641160	33184
4	0.031951	159453184	127586304	91652296	33184
5	0.031015	159453184	127586304	91664088	33184
6	0.03141	159453184	127586304	91676504	33184
7	0.031507	159453184	127586304	91689576	33184
8	0.052125	159453184	127586304	91706344	33184
9	0.0462	159453184	127586304	91722384	33184
10	0.042865	159453184	127586304	91738888	33184
11	0.041731	159453184	127586304	91756288	33184
12	0.041817	159453184	127586304	91774408	33184
13	0.041892	159453184	127586304	91793248	33184
14	0.044402	159453184	127586304	91812864	33184
15	0.043519	159453184	127586304	91833144	33184
16	0.047217	159453184	127586304	91854456	33184
17	0.047628	159453184	127586304	91876968	33184
18	0.049499	159453184	127586304	91900248	33184
19	0.049776	159453184	127586304	91924672	33184
20	0.050035	159453184	127586304	91949360	33184
21	0.050689	159453184	127586304	91974840	33184
22	0.057653	159453184	127586304	92000432	33184
23	0.053993	159453184	127586304	92027528	33184
24	0.05458	159453184	127586304	92055520	33184
25	0.057276	159453184	127586304	92084296	33184
26	0.056804	159453184	127586304	92113672	33184
27	0.057899	159453184	127586304	92143672	33184
28	0.058686	159453184	127586304	92174408	33184
29	0.059072	159453184	127586304	92205888	33184
30	0.059938	159453184	127586304	92238104	33184
31	0.061478	159453184	127586304	92271064	33184
32	0.062146	159453184	127586304	92304368	33184
33	0.062495	159453184	127586304	92338192	33184
34	0.062943	159453184	127586304	92372776	33184
35	0.064046	159453184	127586304	92408080	33184
36	0.071978	159453184	127586304	92444120	33184
37	0.066788	159453184	127586304	92480944	33184
38	0.069145	159453184	127586304	92518344	33184
39	0.069892	159453184	127586304	92556448	33184
40	0.068886	159453184	127586304	92595144	33184
41	0.069545	159453184	127586304	92634568	33184
42	0.069811	159453184	127586304	92674792	33184
43	0.069873	159453184	127586304	92715824	33184
44	0.070984	159453184	127586304	92757656	33184
45	0.071696	159453184	127586304	92800968	33184
46	0.078273	159453184	127586304	92844408	33184
47	0.073943	159453184	127586304	92888656	33184
48	0.075044	159453184	127586304	92933752	33184
49	0.074751	159453184	127586304	92979632	33184
50	0.077656	159453184	127586304	93026312	33184
51	0.077386	159453184	127586304	93073800	33184
52	0.077006	159453184	127586304	93122088	33184
53	0.077158	159453184	127586304	93170984	33184
54	0.08068	159453184	127586304	93220584	33184
55	0.08755	159453184	127586304	93271000	33184
56	0.081333	159453184	127586304	93322032	33184
57	0.082186	159453184	127586304	93373904	33184
58	0.082372	159453184	127586304	93426400	33184
59	0.083239	159453184	127586304	93479528	33184
60	0.083585	159453184	127586304	93533336	33184
61	0.084048	159453184	127586304	93587720	33184
62	0.085037	159453184	127586304	93642728	33184
63	0.095745	159453184	127586304	93698368	33184
64	0.087189	159453184	127586304	93754264	33184
65	0.087404	159453184	127586304	93810544	33184
66	0.089479	159453184	127586304	93867448	33184
67	0.238682	159453184	127586304	93924984	33184
68	0.059828	159453184	127586304	93983144	33184
69	0.072328	159453184	127586304	94041912	33184
70	0.058677	159453184	127586304	94101624	33184
71	0.059363	159453184	127586304	94161768	33184
72	0.059282	159453184	127586304	94222544	33184
73	0.058477	159453184	127586304	94283984	33184
74	0.05936	159453184	127586304	94346048	33184
75	0.060638	159453184	127586304	94408744	33184
76	0.063296	159453184	127586304	94472064	33184
77	0.062301	159453184	127586304	94536016	33184
78	0.060661	159453184	127586304	94600592	33184
79	0.062025	159453184	127586304	94665824	33184
80	0.063126	159453184	127586304	94731872	33184
81	0.073632	159453184	127586304	94798360	33184
82	0.087232	159453184	127586304	94865472	33184
83	0.069153	159453184	127586304	94933216	33184
84	0.06752	159453184	127586304	95002720	33184
85	0.08293	159453184	127586304	95071696	33184
86	0.067657	159453184	127586304	95141192	33184
87	0.111206	159453184	127586304	95212712	33184
88	0.070361	159453184	127586304	95283600	33184
89	0.082486	159453184	127586304	95355152	33184
90	0.0678	159453184	127586304	95427328	33184
91	0.067282	159453184	127586304	95500136	33184
92	0.068149	159453184	127586304	95573568	33184
93	0.07472	159453184	127586304	95647632	33184
94	0.069849	159453184	127586304	95722320	33184
95	0.070894	159453184	127586304	95797640	33184
96	0.069857	159453184	127586304	95873232	33184
97	0.070807	159453184	127586304	95949192	33184
98	0.078376	159453184	127586304	96025776	33184
99	0.277865	159453184	127586304	96102992	33184
100	0.077255	159453184	127586304	96180832	33184
101	0.088592	159453184	127586304	96259280	33184
102	0.078748	159453184	127586304	96338320	33184
103	0.075181	159453184	127586304	96417952	33184
104	0.074405	159453184	127586304	96498216	33184
105	0.076181	159453184	127586304	96579144	33184
106	0.074082	159453184	127586304	96660696	33184
107	0.080209	159453184	127586304	96742880	33184
108	0.076963	159453184	127586304	96825688	33184
109	0.076443	159453184	127586304	96909160	33184
110	0.077718	159453184	127586304	96993224	33184
111	0.082615	159453184	127586304	97077920	33184
112	0.084857	159453184	127586304	97163264	33184
113	0.078171	159453184	127586304	97249240	33184
114	0.079139	159453184	127586304	97335840	33184
115	0.084959	159453184	127586304	97423072	33184
116	0.084065	159453184	127586304	97510984	33184
117	0.266287	159453184	127586304	97599448	33184
118	0.089483	159453184	127586304	97688456	33184
119	0.100405	159453184	127586304	97778104	33184
120	0.091612	159453184	127586304	97868384	33184
121	0.084429	159453184	127586304	97959328	33184
122	0.085057	159453184	127586304	98050960	33184
123	0.084497	159453184	127586304	98143160	33184
124	0.085725	159453184	127586304	98235984	33184
125	0.091463	159453184	127586304	98329440	33184
126	0.087147	159453184	127586304	98423520	33184
127	0.08989	159453184	127586304	98518232	33184
128	0.278747	159453184	127586304	98613240	33184
129	0.094758	159453184	127586304	98708304	33184
130	0.11121	159453184	127586304	98803992	33184
131	0.094559	159453184	127586304	98900472	33184
132	0.090586	159453184	127586304	98997576	33184
133	0.090058	159453184	127586304	99095288	33184
134	0.090373	159453184	127586304	99193648	33184
135	0.094794	159453184	127586304	99292632	33184
136	0.092111	159453184	127586304	99392248	33184
137	0.092777	159453184	127586304	99492528	33184
138	0.095832	159453184	127586304	99593432	33184
139	0.094201	159453184	127586304	99694968	33184
140	0.093328	159453184	127586304	99797168	33184
141	0.095332	159453184	127586304	99899960	33184
142	0.098796	159453184	127586304	100005208	33184
143	0.097501	159453184	127586304	100109256	33184
144	0.096193	159453184	127586304	100213952	33184
145	0.100075	159453184	127586304	100319328	33184
146	0.097436	159453184	127586304	100425280	33184
147	0.096288	159453184	127586304	100531864	33184
148	0.100622	159453184	127586304	100639072	33184
149	0.099984	159453184	127586304	100746888	33184
150	0.099696	159453184	127586304	100855816	33184
151	0.100191	159453184	127586304	100965440	33184
152	0.106515	159453184	127586304	101075640	33184
153	0.102055	159453184	127586304	101186504	33184
154	0.10078	159453184	127586304	101297992	33184
155	0.106425	159453184	127586304	101410112	33184
156	0.299671	159453184	127586304	101522872	33184
157	0.109637	159453184	127586304	101636248	33184
158	0.107985	159453184	127586304	101750248	33184
159	0.104183	159453184	127586304	101864880	33184
160	0.106513	159453184	127586304	101979824	33184
161	0.109082	159453184	127586304	102095152	33184
162	0.106074	159453184	127586304	102211048	33184
163	0.106306	159453184	127586304	102327576	33184
164	0.111304	159453184	127586304	102444728	33184
165	0.107479	159453184	127586304	102562488	33184
166	0.108181	159453184	127586304	102681176	33184
167	0.115008	159453184	127586304	102800472	33184
168	0.108778	159453184	127586304	102920400	33184
169	0.110294	159453184	127586304	103040992	33184
170	0.115256	159453184	127586304	103162208	33184
171	0.113627	159453184	127586304	103284056	33184
172	0.111217	159453184	127586304	103406528	33184
173	0.116968	159453184	127586304	103529632	33184
174	0.112354	159453184	127586304	103653360	33184
175	0.113856	159453184	127586304	103777760	33184
176	0.116916	159453184	127586304	103902768	33184
177	0.114881	159453184	127586304	104028408	33184
178	0.130855	159453184	127586304	104154672	33184
179	0.122977	159453184	127586304	104281568	33184
180	0.131613	159453184	127586304	104409128	33184
181	0.14543	159453184	127586304	104537256	33184
182	0.136432	159453184	127586304	104666016	33184
183	0.122062	159453184	127586304	104795416	33184
184	0.127747	159453184	127586304	104925496	33184
185	0.123863	159453184	127586304	105056192	33184
186	0.126751	159453184	127586304	105187512	33184
187	0.120462	159453184	127586304	105319464	33184
188	0.120563	159453184	127586304	105452040	33184
189	7.862174	160321536	128634880	93907880	33184
190	0.137415	160321536	128634880	94041776	33184
191	0.126097	160321536	128634880	94176240	33184
192	0.125293	160321536	128634880	94311040	33184
193	0.120609	160321536	128634880	94446144	33184
194	0.128961	160321536	128634880	94581936	33184
195	0.122073	160321536	128634880	94718296	33184
196	0.124811	160321536	128634880	94855280	33184
197	0.12034	160321536	128634880	94992872	33184
198	0.12156	160321536	128634880	95131152	33184
199	0.127887	160321536	128634880	95270016	33184
200	0.121877	160321536	128634880	95409512	33184
201	0.125451	160321536	128634880	95549672	33184
202	0.121202	160591872	128634880	95690456	33184
203	0.125283	160591872	128634880	95831904	33184
204	0.13764	160591872	128634880	95973944	33184
205	0.143503	160591872	128634880	96116616	33184
206	0.146575	160591872	128634880	96259912	33184
207	0.130799	160591872	128634880	96403880	33184
208	0.85301	160591872	128634880	96549160	33184
209	0.149764	160591872	128634880	96694368	33184
210	0.147971	160591872	128634880	96840200	33184
211	0.179864	160591872	129159168	96986664	33184
212	0.137135	160591872	129159168	97133752	33184
213	0.165038	160591872	129159168	97281448	33184
214	0.133483	160591872	129159168	97429832	33184
215	0.166198	160591872	129159168	97578800	33184
216	0.133564	160591872	129159168	97728400	33184
217	0.148916	160591872	129159168	97878664	33184
218	0.160225	160591872	129159168	98029560	33184
219	0.1373	160591872	129159168	98181080	33184
220	0.169726	160862208	129159168	98333224	33184
221	0.142302	160862208	129159168	98486000	33184
222	0.352088	160862208	129159168	98639432	33184
223	0.140987	160862208	129159168	98793464	33184
224	0.181984	160862208	129159168	98947848	33184
225	0.139535	160862208	129159168	99102520	33184
226	0.154765	160862208	129159168	99257816	33184
227	0.16032	160862208	129159168	99413744	33184
228	0.140868	160862208	129159168	99570296	33184
229	0.183713	160862208	129159168	99730344	33184
230	0.141144	160862208	129159168	99888136	33184
231	0.176926	160862208	129159168	100046568	33184
232	0.143343	160862208	129159168	100205632	33184
233	0.178025	160862208	129159168	100365376	33184
234	0.144555	160862208	129159168	100525728	33184
235	0.230726	160862208	129159168	100702808	33184
236	0.152649	160862208	129159168	100864504	33184
237	0.144988	161132544	129159168	101026744	33184
238	0.143726	161132544	129159168	101189608	33184
239	0.144067	161132544	129159168	101353104	33184
240	0.143697	161132544	129159168	101517304	33184
241	0.331293	161132544	129159168	101682080	33184
242	0.151619	161132544	129159168	101847480	33184
243	0.147146	161132544	129159168	102013544	33184
244	0.169275	161132544	129683456	102180200	33184
245	0.148695	161132544	129683456	102347464	33184
246	0.145305	161132544	129683456	102515360	33184
247	0.150003	161132544	129683456	102683928	33184
248	0.145415	161132544	129683456	102853096	33184
249	0.149567	161132544	129683456	103022928	33184
250	0.149461	161132544	129683456	103193440	33184
251	0.154924	161132544	129683456	103364528	33184
252	0.149973	161132544	129683456	103536240	33184
253	0.151755	161402880	129683456	103708584	33184
254	0.152139	161402880	129683456	103881584	33184
255	0.154827	161402880	129683456	104055184	33184
256	0.150962	161402880	129683456	104229520	33184
257	0.156539	161402880	129683456	104404136	33184
258	0.153173	161402880	129683456	104579360	33184
259	0.160445	161402880	129683456	104755216	33184
260	0.153375	161402880	129683456	104931704	33184
261	0.193961	161402880	129683456	105108784	33184
262	0.172506	161402880	129683456	105286664	33184
263	0.160074	161402880	129683456	105465416	33184
264	0.156097	161402880	129683456	105644904	33184
265	0.162823	161402880	129683456	105825584	33184
266	0.159956	161402880	129683456	106007240	33184
267	0.166426	161402880	129683456	106189896	33184
268	0.161379	161673216	129683456	106373512	33184
269	0.17185	161673216	129683456	106558112	33184
270	0.180671	161673216	129683456	106743696	33184
271	0.162045	161673216	129683456	106930256	33184
272	0.165293	161673216	129683456	107117792	33184
273	0.168527	161673216	129683456	107306376	33184
274	0.186502	161673216	130207744	107495872	33184
275	0.165459	161673216	130207744	107686352	33184
276	0.169235	161673216	130207744	107877824	33184
277	0.167169	161673216	130207744	108069912	33184
278	0.1739	161673216	130207744	108262624	33184
279	0.1758	161673216	130207744	108456192	33184
280	0.202175	161673216	130207744	108650160	33184
281	0.170779	161673216	130207744	108844760	33184
282	0.169465	161943552	130207744	109040248	33184
283	0.172438	161943552	130207744	109236104	33184
284	0.170102	161943552	130207744	109432584	33184
285	7.315116	164106240	132829184	97335680	33184
286	0.172275	164106240	132829184	97533416	33184
287	0.201172	164106240	132829184	97731784	33184
288	0.155806	164376576	132829184	97930544	33184
289	0.15485	164376576	132829184	98129528	33184
290	0.152184	164376576	132829184	98329136	33184
291	0.159264	164376576	132829184	98529392	33184
292	0.150914	164376576	132829184	98730256	33184
293	0.163023	164376576	132829184	98931752	33184
294	0.156055	164376576	132829184	99133920	33184
295	0.157713	164376576	132829184	99336672	33184
296	0.154734	164376576	132829184	99540048	33184
297	0.159325	164376576	132829184	99744120	33184
298	0.15485	164376576	132829184	99948752	33184
299	0.164003	164376576	132829184	100154016	33184
300	0.158707	164376576	132829184	100359944	33184
301	0.162046	164376576	132829184	100566464	33184
302	0.159619	164646912	132829184	100773632	33184
303	0.181672	164646912	132829184	100981408	33184
304	0.158363	164646912	132829184	101189808	33184
305	0.169002	164646912	132829184	101398904	33184
306	0.180135	164646912	132829184	101608560	33184
307	0.162195	164646912	132829184	101818848	33184
308	0.165562	164646912	132829184	102029784	33184
309	0.164456	164646912	132829184	102241328	33184
310	0.168286	164646912	132829184	102453512	33184
311	0.162686	164646912	132829184	102666312	33184
312	0.167536	164646912	132829184	102879736	33184
313	0.167416	164646912	132829184	103093848	33184
314	0.169904	164646912	132829184	103308528	33184
315	0.19118	164917248	133353472	103523840	33184
316	0.171412	164917248	133353472	103739800	33184
317	0.166647	164917248	133353472	103956368	33184
318	0.171412	164917248	133353472	104173616	33184
319	0.168244	164917248	133353472	104391440	33184
320	0.184896	164917248	133353472	104609656	33184
321	0.205339	164917248	133353472	104828112	33184
322	0.175409	164917248	133353472	105047176	33184
323	0.175678	164917248	133353472	105266872	33184
324	0.173871	164917248	133353472	105487216	33184
325	0.176706	164917248	133353472	105708168	33184
326	0.174691	164917248	133353472	105929784	33184
327	0.180934	165187584	133353472	106151992	33184
328	0.192173	165187584	133353472	106374824	33184
329	0.186595	165187584	133353472	106598352	33184
330	0.176544	165187584	133353472	106822440	33184
331	0.17554	165187584	133353472	107047224	33184
332	0.183015	165187584	133353472	107272568	33184
333	0.174057	165187584	133353472	107498544	33184
334	0.18083	165187584	133353472	107725184	33184
335	0.196421	165187584	133353472	107952416	33184
336	0.19305	165187584	133353472	108180296	33184
337	0.17778	165187584	133353472	108408784	33184
338	0.181634	165187584	133353472	108637896	33184
339	0.218172	165457920	133877760	108867648	33184
340	0.179924	165457920	133877760	109098016	33184
341	0.189799	165457920	133877760	109329072	33184
342	0.217481	165457920	133877760	109560696	33184
343	0.184612	165457920	133877760	109792952	33184
344	0.188535	165457920	133877760	110025888	33184
345	0.18363	165457920	133877760	110259400	33184
346	0.198837	165457920	133877760	110493544	33184
347	0.202638	165457920	133877760	110728312	33184
348	0.184135	165457920	133877760	110963704	33184
349	0.193964	165457920	133877760	111199752	33184
350	0.184297	165457920	133877760	111436400	33184
351	0.197693	165728256	133877760	111673720	33184
352	0.222114	165728256	133877760	111911408	33184
353	0.187843	165728256	133877760	112149304	33184
354	0.198365	165728256	133877760	112387824	33184
355	0.208335	165728256	133877760	112626976	33184
356	0.199198	165728256	133877760	112866760	33184
357	0.20772	165728256	133877760	113107168	33184
358	6.448048	167620608	135974912	100584768	33184
359	0.359057	167620608	135974912	100826480	33184
360	0.194802	167620608	135974912	101073216	33184
361	0.192677	167620608	135974912	101316184	33184
362	0.222626	167620608	135974912	101559728	33184
363	0.220195	167890944	135974912	101803904	33184
364	0.18306	167890944	135974912	102048728	33184
365	0.187619	167890944	135974912	102294160	33184
366	0.187975	167890944	135974912	102540272	33184
367	0.192659	167890944	135974912	102786960	33184
368	0.187287	167890944	135974912	103034272	33184
369	0.196914	167890944	135974912	103282216	33184
370	0.223053	167890944	135974912	103530784	33184
371	0.210957	167890944	136499200	103779992	33184
372	0.196109	167890944	136499200	104029816	33184
373	0.189987	167890944	136499200	104280296	33184
374	0.19162	168161280	136499200	104531376	33184
375	0.294591	168161280	136499200	104783128	33184
376	0.218332	168161280	136499200	105035464	33184
377	0.237525	168161280	136499200	105288432	33184
378	0.214501	168161280	136499200	105542160	33184
379	0.209205	168161280	136499200	105796384	33184
380	0.201422	168161280	136499200	106051240	33184
381	0.191472	168161280	136499200	106306720	33184
382	0.202501	168161280	136499200	106562832	33184
383	0.214544	168161280	136499200	106819568	33184
384	0.196696	168161280	136499200	107076736	33184
385	0.201194	168431616	136499200	107334088	33184
386	0.216955	168431616	136499200	107592144	33184
387	0.21511	168431616	136499200	107850752	33184
388	0.201201	168431616	136499200	108109984	33184
389	0.197196	168431616	136499200	108369896	33184
390	0.210215	168431616	136499200	108630384	33184
391	0.256007	168431616	137023488	108891504	33184
392	0.201617	168431616	137023488	109153248	33184
393	0.211306	168431616	137023488	109415624	33184
394	0.350517	168431616	137023488	109678624	33184
395	0.216768	168701952	137023488	109942280	33184
396	0.212108	168701952	137023488	110206536	33184
397	0.222892	168701952	137023488	110471448	33184
398	0.203655	168701952	137023488	110736960	33184
399	0.212596	168701952	137023488	111003104	33184
400	0.225714	168701952	137023488	111269928	33184
401	0.204597	168701952	137023488	111537328	33184
402	0.211712	168701952	137023488	111805408	33184
403	0.228125	168701952	137023488	112074064	33184
404	0.207691	168701952	137023488	112343344	33184
405	0.212967	168972288	137023488	112613256	33184
406	0.230501	168972288	137023488	112883800	33184
407	0.209291	168972288	137023488	113154968	33184
408	0.23692	168972288	137023488	113426776	33184
409	0.244429	168972288	137023488	113699200	33184
410	0.209829	168972288	137023488	113972280	33184
411	0.24047	168972288	137547776	114245960	33184
412	0.234676	168972288	137547776	114520312	33184
413	0.212283	168972288	137547776	114795248	33184
414	0.222522	168972288	137547776	115070864	33184
415	0.238015	169242624	137547776	115347056	33184
416	0.215036	169242624	137547776	115623720	33184
417	0.221794	169242624	137547776	115900528	33184
418	0.238228	169242624	137547776	116178248	33184
419	0.214401	169242624	137547776	116456312	33184
420	0.222161	169242624	137547776	116735000	33184
421	6.403828	171134976	139644928	104164352	33184
422	0.258069	171134976	139644928	104444296	33184
423	0.211987	171134976	139644928	104724872	33184
424	0.214297	171134976	139644928	105006072	33184
425	0.214383	171134976	139644928	105287904	33184
426	0.21199	171405312	139644928	105570360	33184
427	0.211846	171405312	139644928	105853448	33184
428	0.216965	171405312	139644928	106137160	33184
429	0.396557	171405312	139644928	106421504	33184
430	0.229677	171405312	139644928	106706496	33184
431	0.218556	171405312	139644928	106992096	33184
432	0.232902	171405312	139644928	107278320	33184
433	0.211093	171405312	139644928	107565176	33184
434	0.218653	171405312	139644928	107852664	33184
435	0.23953	171405312	139644928	108140776	33184
436	0.213845	171675648	139644928	108429536	33184
437	0.223811	171675648	139644928	108718904	33184
438	0.275895	171675648	140169216	109008896	33184
439	0.217955	171675648	140169216	109299520	33184
440	0.225845	171675648	140169216	109591040	33184
441	0.241526	171675648	140169216	109882944	33184
442	0.240783	171675648	140169216	110175448	33184
443	0.242002	171675648	140169216	110468592	33184
444	0.227603	171675648	140169216	110762352	33184
445	0.240858	171945984	140169216	111056768	33184
446	0.221823	171945984	140169216	111351784	33184
447	0.233151	171945984	140169216	111647472	33184
448	0.262715	171945984	140169216	111943592	33184
449	0.256804	171945984	140169216	112239912	33184
450	0.221007	171945984	140169216	112536800	33184
451	0.228261	171945984	140169216	112834384	33184
452	0.248847	171945984	140169216	113132528	33184
453	0.225028	171945984	140169216	113431304	33184
454	0.243438	172216320	140169216	113730704	33184
455	0.274875	172216320	140169216	114030752	33184
456	0.317281	172216320	140693504	114331408	33184
457	0.251137	172216320	140693504	114632720	33184
458	0.235835	172216320	140693504	114934632	33184
459	0.268937	172216320	140693504	115237216	33184
460	0.250059	172216320	140693504	115540384	33184
461	0.229115	172216320	140693504	115844232	33184
462	0.242899	172216320	140693504	116148656	33184
463	0.269459	172486656	140693504	116453720	33184
464	0.265218	172486656	140693504	116759424	33184
465	0.233112	172486656	140693504	117065736	33184
466	0.24212	172486656	140693504	117372728	33184
467	0.273692	172486656	140693504	117680296	33184
468	0.267585	172486656	140693504	117988504	33184
469	0.236756	172486656	140693504	118297328	33184
470	0.283557	172486656	140693504	118606808	33184
471	0.2767	172486656	140693504	118916888	33184
472	0.270956	172756992	140693504	119227632	33184
473	0.25688	172756992	141217792	119538968	33184
474	0.248156	172756992	141217792	119850976	33184
475	0.280035	172756992	141217792	120163568	33184
476	6.093504	174649344	143314944	107510992	33184
477	0.366986	174649344	143314944	107824840	33184
478	0.276947	174649344	143314944	108139344	33184
479	0.233388	174649344	143314944	108454448	33184
480	0.24295	174649344	143314944	108770048	33184
481	0.281436	174649344	143314944	109085768	33184
482	0.274234	174649344	143314944	109402144	33184
483	0.232734	174649344	143314944	109719120	33184
484	0.250171	174919680	143314944	110036768	33184
485	0.277693	174919680	143314944	110355000	33184
486	0.274261	174919680	143314944	110673888	33184
487	0.234727	174919680	143314944	110993400	33184
488	0.262159	174919680	143314944	111313512	33184
489	0.284433	174919680	143314944	111634264	33184
490	0.277752	174919680	143314944	111955632	33184
491	0.275141	174919680	143314944	112277640	33184
492	0.240179	175190016	143314944	112600264	33184
493	0.249311	175190016	143314944	112923544	33184
494	0.283411	175190016	143314944	113247424	33184
495	0.275296	175190016	143314944	113571952	33184
496	0.239617	175190016	143314944	113897144	33184
497	0.257991	175190016	143314944	114222912	33184
498	0.250937	175190016	143314944	114549360	33184
499	0.309417	175190016	143839232	114876384	33184
500	0.281436	175460352	143839232	115204096	33184
501	0.252929	175460352	143839232	115532376	33184
502	0.256	175460352	143839232	115861288	33184
503	0.28885	175460352	143839232	116190872	33184
504	0.28632	175460352	143839232	116521032	33184
505	0.27707	175460352	143839232	116851848	33184
506	0.284301	175460352	143839232	117183264	33184
507	0.273851	175460352	143839232	117515344	33184
508	0.292381	175730688	143839232	117848048	33184
509	0.288564	175730688	143839232	118181352	33184
510	0.286893	175730688	143839232	118515296	33184
511	0.25044	175730688	143839232	118849856	33184
512	0.478271	175730688	143839232	119185296	33184
513	0.470417	175730688	143839232	119520808	33184
514	0.304487	175730688	144363520	119856944	33184
515	0.296125	175730688	144363520	120193728	33184
516	0.254119	176001024	144363520	120531120	33184
517	0.291053	176001024	144363520	120868936	33184
518	0.284113	176001024	144363520	121207472	33184
519	0.310708	176001024	144363520	121546792	33184
520	0.295215	176001024	144363520	121886824	33184
521	0.265478	176001024	144363520	122227920	33184
522	0.25951	176001024	144363520	122569800	33184
523	0.276509	176001024	144363520	122912376	33184
524	0.292595	176271360	144363520	123255736	33184
525	5.966051	177893376	146460672	110536312	33184
526	0.521965	177893376	146460672	110881104	33184
527	0.292256	177893376	146460672	111226680	33184
528	0.287735	177893376	146460672	111573000	33184
529	0.283751	178163712	146460672	111920016	33184
530	0.291528	178163712	146460672	112267784	33184
531	0.292637	178163712	146460672	112616312	33184
532	0.292317	178163712	146460672	112965544	33184
533	0.297443	178163712	146460672	113315520	33184
534	0.289223	178163712	146460672	113666232	33184
535	0.314028	178163712	146460672	114017752	33184
536	0.307149	178434048	146460672	114370000	33184
537	0.290537	178434048	146460672	114722936	33184
538	0.280351	178434048	146460672	115076648	33184
539	0.298652	178434048	146460672	115431064	33184
540	0.341175	178434048	146984960	115786320	33184
541	0.322702	178434048	146984960	116142216	33184
542	0.302665	178434048	146984960	116498848	33184
543	0.270942	178434048	146984960	116856240	33184
544	0.274151	178704384	146984960	117214312	33184
545	0.279534	178704384	146984960	117572528	33184
546	0.312265	178704384	146984960	117931480	33184
547	0.275851	178704384	146984960	118291176	33184
548	0.310148	178704384	146984960	118651632	33184
549	0.277649	178704384	146984960	119012832	33184
550	0.272787	178704384	146984960	119374744	33184
551	0.288848	178974720	146984960	119737440	33184
552	0.322593	178974720	146984960	120100848	33184
553	0.342961	178974720	146984960	120464984	33184
554	0.3259	178974720	147509248	120829880	33184
555	0.283474	178974720	147509248	121195728	33184
556	0.301801	178974720	147509248	121568880	33184
557	0.308958	178974720	147509248	121936008	33184
558	0.280178	178974720	147509248	122303840	33184
559	0.300605	179245056	147509248	122672432	33184
560	0.329116	179245056	147509248	123041784	33184
561	0.288515	179245056	147509248	123411840	33184
562	0.288733	179245056	147509248	123782680	33184
563	0.289416	179245056	147509248	124154232	33184
564	0.488616	179245056	147509248	124526504	33184
565	0.317164	179245056	147509248	124899552	33184
566	0.29089	179515392	147509248	125273352	33184
567	0.303678	179515392	147509248	125647848	33184
568	0.320362	179515392	148033536	126023096	33184
569	0.303803	179515392	148033536	126399072	33184
570	0.300187	179515392	148033536	126775784	33184
571	6.034996	181407744	150130688	114210856	33184
572	0.500022	181407744	150130688	114589048	33184
573	0.298932	181407744	150130688	114968040	33184
574	0.299114	181407744	150130688	115347736	33184
575	0.2968	181407744	150130688	115728152	33184
576	0.297847	181407744	150130688	116109280	33184
577	0.291455	181407744	150130688	116490584	33184
578	0.308858	181407744	150130688	116872576	33184
579	0.304673	181678080	150130688	117255336	33184
580	0.303625	181678080	150130688	117638816	33184
581	0.513818	181678080	150130688	118023032	33184
582	0.320873	181678080	150130688	118408000	33184
583	0.296769	181678080	150130688	118793720	33184
584	0.298236	181678080	150130688	119180152	33184
585	0.303854	181678080	150130688	119567328	33184
586	0.294671	181948416	150130688	119955296	33184
587	0.299361	181948416	150130688	120343952	33184
588	0.313681	181948416	150130688	120733392	33184
589	0.313347	181948416	150130688	121123544	33184
590	0.309614	181948416	150130688	121514416	33184
591	0.310061	181948416	150130688	121906064	33184
592	0.341426	181948416	150130688	122298464	33184
593	0.335704	182218752	150654976	122691560	33184
594	0.310957	182218752	150654976	123085392	33184
595	0.314044	182218752	150654976	123479976	33184
596	0.309123	182218752	150654976	123875328	33184
597	0.308685	182218752	150654976	124271384	33184
598	0.306051	182218752	150654976	124668232	33184
599	0.308593	182489088	150654976	125065824	33184
600	0.319862	182489088	150654976	125464096	33184
601	0.323279	182489088	150654976	125863152	33184
602	0.325982	182489088	150654976	126262920	33184
603	0.395031	182489088	150654976	126663416	33184
604	0.325446	182489088	150654976	127064680	33184
605	0.320159	182489088	150654976	127466696	33184
606	0.347647	182759424	151179264	127869408	33184
607	0.323763	182759424	151179264	128272936	33184
608	0.325762	182759424	151179264	128677136	33184
609	0.327343	182759424	151179264	129081456	33184
610	0.321349	182759424	151179264	129486488	33184
611	0.323438	182759424	151179264	129892328	33184
612	6.362745	184651776	153276416	117615552	33184
613	0.580685	184651776	153276416	118022808	33184
614	0.321836	184922112	153276416	118430848	33184
615	0.347527	184922112	153276416	118839592	33184
616	0.332915	184922112	153276416	119249064	33184
617	0.318355	184922112	153276416	119659280	33184
618	0.319691	184922112	153276416	120070232	33184
619	0.320116	184922112	153276416	120481928	33184
620	0.330305	185192448	153276416	120894360	33184
621	0.330625	185192448	153276416	121307544	33184
622	0.335139	185192448	153276416	121721488	33184
623	0.335962	185192448	153276416	122136400	33184
624	0.332027	185192448	153276416	122551792	33184
625	0.36151	185192448	153800704	122967928	33184
626	0.334498	185192448	153800704	123384824	33184
627	0.333596	185462784	153800704	123802440	33184
628	0.582591	185462784	153800704	124220792	33184
629	0.354263	185462784	153800704	124639896	33184
630	0.339727	185462784	153800704	125059592	33184
631	0.328569	185462784	153800704	125480016	33184
632	0.331641	185462784	153800704	125901216	33184
633	0.337651	185462784	153800704	126323088	33184
634	0.3365	185733120	153800704	126745736	33184
635	0.332573	185733120	153800704	127169056	33184
636	0.335832	185733120	153800704	127593112	33184
637	0.356873	185733120	154324992	128017936	33184
638	0.385184	185733120	154324992	128443456	33184
639	0.337662	185733120	154324992	128869672	33184
640	0.337912	186003456	154324992	129296592	33184
641	0.341406	186003456	154324992	129723656	33184
642	0.338146	186003456	154324992	130151416	33184
643	0.338205	186003456	154324992	130579888	33184
644	0.34149	186003456	154324992	131009096	33184
645	0.342659	186003456	154324992	131439040	33184
646	0.345133	186273792	154324992	131869616	33184
647	0.390887	186273792	154324992	132300896	33184
648	0.438765	186273792	154324992	132732976	33184
649	0.347189	186273792	154324992	133165800	33184
650	6.797296	188166144	156946432	121122152	33184
651	0.672929	188436480	156946432	121556392	33184
652	0.342986	188436480	156946432	121991368	33184
653	0.347725	188436480	156946432	122427136	33184
654	0.347074	188436480	156946432	122863608	33184
655	0.342469	188436480	156946432	123300808	33184
656	0.344486	188436480	156946432	123738752	33184
657	0.343867	188436480	156946432	124177480	33184
658	0.346255	188706816	156946432	124616896	33184
659	0.3448	188706816	156946432	125057088	33184
660	0.346517	188706816	156946432	125497984	33184
661	0.391675	188706816	156946432	125939688	33184
662	0.350257	188706816	156946432	126381984	33184
663	0.346567	188706816	156946432	126824984	33184
664	0.344593	188977152	156946432	127268720	33184
665	0.373255	188977152	157470720	127713208	33184
666	0.360646	188977152	157470720	128158440	33184
667	0.466518	188977152	157470720	128604480	33184
668	0.402947	188977152	157470720	129051176	33184
669	0.4005	188977152	157470720	129499592	33184
670	0.397085	189247488	157470720	129947816	33184
671	0.379042	189247488	157470720	130396776	33184
672	0.362223	189247488	157470720	130846448	33184
673	0.360818	189247488	157470720	131296208	33184
674	0.364513	189247488	157470720	131746744	33184
675	0.360073	189247488	157470720	132198000	33184
676	0.357337	189517824	157470720	132649976	33184
677	0.386891	189517824	157995008	133102728	33184
678	0.366829	189517824	157995008	133556080	33184
679	0.398162	189517824	157995008	134010400	33184
680	0.392878	189517824	157995008	134465240	33184
681	0.370107	189517824	157995008	134920864	33184
682	0.373284	189788160	157995008	135377192	33184
683	0.372916	189788160	157995008	135834248	33184
684	0.374836	189788160	157995008	136292080	33184
685	0.379806	189788160	157995008	136750656	33184
686	7.019056	191950848	160092160	124940496	33184
687	0.669575	191950848	160092160	125400544	33184
688	0.379144	191950848	160092160	125861304	33184
689	0.375688	191950848	160092160	126322824	33184
690	0.397477	191950848	160616448	126785056	33184
691	0.434269	192221184	160616448	127248096	33184
692	0.391707	192221184	160616448	127711872	33184
693	0.377686	192221184	160616448	128176344	33184
694	0.379247	192221184	160616448	128641592	33184
695	0.380927	192221184	160616448	129107528	33184
696	0.382866	192221184	160616448	129574232	33184
697	0.416947	192491520	160616448	130041656	33184
698	0.387467	192491520	160616448	130509848	33184
699	0.373146	192491520	160616448	130978752	33184
700	0.411881	192491520	160616448	131448416	33184
701	0.374677	192491520	160616448	131918792	33184
702	0.394964	192761856	161140736	132389904	33184
703	0.376872	192761856	161140736	132861824	33184
704	0.378501	192761856	161140736	133334440	33184
705	0.386025	192761856	161140736	133807192	33184
706	0.382316	192761856	161140736	134280624	33184
707	0.392188	192761856	161140736	134754872	33184
708	0.386551	193032192	161140736	135229848	33184
709	0.594852	193032192	161140736	135705552	33184
710	0.433118	193032192	161140736	136181952	33184
711	0.403743	193032192	161140736	136659128	33184
712	0.382623	193032192	161140736	137137000	33184
713	0.402134	193032192	161665024	137615632	33184
714	0.385526	193302528	161665024	138094984	33184
715	0.390568	193302528	161665024	138575104	33184
716	0.390973	193302528	161665024	139055936	33184
717	0.398955	193302528	161665024	139537536	33184
718	0.470721	193302528	161665024	140019904	33184
719	0.396887	193302528	161665024	140502960	33184
720	7.163875	195735552	164286464	128892232	33184
721	0.595195	195735552	164286464	129376856	33184
722	0.388296	195735552	164286464	129862128	33184
723	0.390503	195735552	164286464	130348168	33184
724	0.393088	195735552	164286464	130834960	33184
725	0.392788	195735552	164286464	131322456	33184
726	0.395844	196005888	164286464	131810720	33184
727	0.402189	196005888	164286464	132299696	33184
728	0.401041	196005888	164286464	132789408	33184
729	0.667633	196005888	164286464	133279864	33184
730	0.446172	196005888	164286464	133771072	33184
731	0.417593	196276224	164286464	134263056	33184
732	0.397175	196276224	164286464	134755752	33184
733	0.397083	196276224	164286464	135249216	33184
734	0.423691	196276224	164810752	135743384	33184
735	0.404126	196276224	164810752	136238320	33184
736	0.410115	196276224	164810752	136733976	33184
737	0.474995	196546560	164810752	137229752	33184
738	0.406851	196546560	164810752	137726256	33184
739	0.435409	196546560	164810752	138223504	33184
740	0.3982	196546560	164810752	138721456	33184
741	0.401803	196546560	164810752	139220176	33184
742	0.406461	196816896	164810752	139719672	33184
743	0.405517	196816896	164810752	140219872	33184
744	0.430377	196816896	165335040	140720784	33184
745	0.607526	196816896	165335040	141222480	33184
746	0.440744	196816896	165335040	141724928	33184
747	0.407473	196816896	165335040	142228080	33184
748	0.410189	197087232	165335040	142731992	33184
749	0.413693	197087232	165335040	143236616	33184
750	0.415267	197087232	165335040	143742008	33184
751	7.103732	199249920	167956480	132200512	33184
752	0.78678	199520256	167956480	132707368	33184
753	0.413587	199520256	167956480	133215008	33184
754	0.409571	199520256	167956480	133723344	33184
755	0.627654	199520256	167956480	134232464	33184
756	0.440226	199520256	167956480	134742256	33184
757	0.420698	199520256	167956480	135252824	33184
758	0.44476	199790592	167956480	135764128	33184
759	0.428516	199790592	167956480	136276192	33184
760	0.418349	199790592	167956480	136788960	33184
761	0.432472	199790592	167956480	137302496	33184
762	0.452486	199790592	167956480	137816736	33184
763	0.662967	200060928	168480768	138331744	33184
764	0.448379	200060928	168480768	138847456	33184
765	0.422612	200060928	168480768	139363944	33184
766	0.413822	200060928	168480768	139881136	33184
767	0.423252	200060928	168480768	140399072	33184
768	0.425833	200331264	168480768	140917792	33184
769	0.425539	200331264	168480768	141436592	33184
770	0.431787	200331264	168480768	141956160	33184
771	0.461212	200331264	168480768	142476432	33184
772	0.42424	200331264	168480768	142997472	33184
773	0.452497	200331264	169005056	143519224	33184
774	0.429776	200601600	169005056	144041736	33184
775	0.438584	200601600	169005056	144564960	33184
776	0.451014	200601600	169005056	145088952	33184
777	0.444635	200601600	169005056	145613648	33184
778	0.427306	200601600	169005056	146139104	33184
779	0.465751	200871936	169005056	146665336	33184
780	0.453415	200871936	169005056	147192264	33184
781	0.440667	200871936	169005056	147719976	33184
782	7.291175	203034624	171626496	136329408	33184
783	0.735524	203304960	171626496	136858592	33184
784	0.453977	203304960	171626496	137388480	33184
785	0.433324	203304960	171626496	137919144	33184
786	0.433374	203304960	171626496	138450496	33184
787	0.440907	203304960	171626496	138982608	33184
788	0.438104	203304960	171626496	139515480	33184
789	0.661098	203575296	171626496	140049088	33184
790	0.432525	203575296	171626496	140583448	33184
791	0.434659	203575296	171626496	141118536	33184
792	0.467979	203575296	172150784	141654392	33184
793	0.443714	203575296	172150784	142190952	33184
794	0.457276	203845632	172150784	142728280	33184
795	0.45327	203845632	172150784	143266312	33184
796	0.467821	203845632	172150784	143805120	33184
797	0.469791	203845632	172150784	144344624	33184
798	0.452658	203845632	172150784	144884904	33184
799	0.43687	204115968	172150784	145425888	33184
800	0.442498	204115968	172150784	145967712	33184
801	0.45324	204115968	172150784	146509528	33184
802	0.476433	204115968	172675072	147052120	33184
803	0.470848	204115968	172675072	147595416	33184
804	0.490853	204386304	172675072	148139448	33184
805	0.466003	204386304	172675072	148684232	33184
806	0.450863	204386304	172675072	149229752	33184
807	0.456966	204386304	172675072	149776024	33184
808	0.453212	204386304	172675072	150323048	33184
809	0.448951	204656640	172675072	150870800	33184
810	0.449496	204656640	172675072	151419288	33184
811	7.727917	207089664	175820800	140187408	33184
812	0.710189	207089664	175820800	140737368	33184
813	0.531365	207089664	175820800	141288104	33184
814	0.457098	207089664	175820800	141839536	33184
815	0.4582	207089664	175820800	142391744	33184
816	0.481624	207360000	175820800	142944656	33184
817	0.467385	207360000	175820800	143498344	33184
818	0.452157	207360000	175820800	144052800	33184
819	0.722959	207360000	175820800	144607952	33184
820	0.678135	207360000	175820800	145164352	33184
821	0.476039	207630336	175820800	145720984	33184
822	0.556446	207630336	175820800	146283456	33184
823	0.491325	207630336	175820800	146841568	33184
824	0.486277	207630336	175820800	147400400	33184
825	0.474871	207630336	175820800	147960048	33184
826	0.486481	207900672	176345088	148520424	33184
827	0.504854	207900672	176345088	149081584	33184
828	0.485002	207900672	176345088	149643472	33184
829	0.476646	207900672	176345088	150206040	33184
830	0.496029	207900672	176345088	150769336	33184
831	0.486448	208171008	176345088	151333448	33184
832	0.481202	208171008	176345088	151898376	33184
833	0.467866	208171008	176345088	152463232	33184
834	0.495451	208171008	176345088	153028824	33184
835	0.491093	208171008	176345088	153595232	33184
836	0.521593	208441344	176869376	154162336	33184
837	0.483982	208441344	176869376	154730304	33184
838	0.470523	208441344	176869376	155298888	33184
839	7.924166	210874368	179490816	144114184	33184
840	0.668177	210874368	179490816	144684216	33184
841	0.478481	210874368	179490816	145255024	33184
842	0.514223	211144704	179490816	145826536	33184
843	0.484603	211144704	179490816	146398816	33184
844	0.471395	211144704	179490816	146971872	33184
845	0.478264	211144704	179490816	147545624	33184
846	0.503214	211144704	179490816	148120160	33184
847	0.486118	211415040	179490816	148695384	33184
848	0.475256	211415040	179490816	149271392	33184
849	0.481195	211415040	179490816	149848096	33184
850	0.754688	211415040	180015104	150435920	33184
851	0.497204	211415040	180015104	151014096	33184
852	0.485466	211685376	180015104	151593048	33184
853	0.54169	211685376	180015104	152172704	33184
854	0.49415	211685376	180015104	152753128	33184
855	0.486259	211685376	180015104	153334328	33184
856	0.65998	211685376	180015104	153916232	33184
857	0.531437	211955712	180015104	154498904	33184
858	0.502226	211955712	180015104	155082280	33184
859	0.487235	211955712	180015104	155666400	33184
860	0.534699	211955712	180539392	156251256	33184
861	0.505206	212226048	180539392	156836848	33184
862	0.486577	212226048	180539392	157423200	33184
863	0.518482	212226048	180539392	158010288	33184
864	0.513324	212226048	180539392	158598432	33184
865	7.732169	214659072	183160832	147437648	33184
866	0.924274	214659072	183160832	148026296	33184
867	0.493194	214929408	183160832	148615704	33184
868	0.487132	214929408	183160832	149205816	33184
869	0.515129	214929408	183160832	149796728	33184
870	0.504408	214929408	183160832	150388360	33184
871	0.559114	214929408	183160832	150980912	33184
872	0.51105	215199744	183160832	151573984	33184
873	0.528112	215199744	183685120	152168048	33184
874	0.496156	215199744	183685120	152762648	33184
875	0.515015	215199744	183685120	153357952	33184
876	0.51231	215199744	183685120	153954024	33184
877	0.493401	215470080	183685120	154550808	33184
878	0.765465	215470080	183685120	155148360	33184
879	0.50694	215470080	183685120	155746680	33184
880	0.50205	215470080	183685120	156345704	33184
881	0.517064	215740416	183685120	156945504	33184
882	0.543435	215740416	184209408	157546000	33184
883	0.49733	215740416	184209408	158147272	33184
884	0.52298	215740416	184209408	158749248	33184
885	0.520462	215740416	184209408	159351992	33184
886	0.50781	216010752	184209408	159955440	33184
887	0.72351	216010752	184209408	160559664	33184
888	0.527983	216010752	184209408	161164584	33184
889	0.510482	216010752	184209408	161770280	33184
890	0.528285	216010752	184209408	162376752	33184
891	0.742091	216281088	184733696	162983888	33184
892	10.777124	218714112	186830848	151926696	33184
893	0.709154	218714112	186830848	152535328	33184
894	0.771686	218714112	186830848	153144696	33184
895	0.724029	218714112	186830848	153754816	33184
896	0.747901	218984448	187355136	154365776	33184
897	0.717818	218984448	187355136	154976728	33184
898	0.981688	218984448	187355136	155588456	33184
899	0.742879	218984448	187355136	156200880	33184
900	1.110664	218984448	187355136	156814088	33184
901	1.160418	219254784	187355136	157427984	33184
902	1.538346	219254784	187355136	158042664	33184
903	1.200337	219254784	187355136	158658040	33184
904	1.299179	219254784	187879424	159274192	33184
905	1.323659	219525120	187879424	159891048	33184
906	1.013089	219525120	187879424	160508720	33184
907	1.26253	219525120	187879424	161127160	33184
908	1.694056	219525120	187879424	161746256	33184
909	1.374462	219525120	187879424	162366128	33184
910	1.549218	219795456	187879424	162986704	33184
911	1.441837	219795456	187879424	163608048	33184
912	1.493244	219795456	187879424	164230096	33184
913	1.893762	219795456	188403712	164852912	33184
914	1.869383	220065792	188403712	165476432	33184
915	1.838647	220065792	188403712	166100728	33184
916	1.867789	220065792	188403712	166725728	33184
917	13.027559	222498816	191025152	155845832	33184
918	2.34157	222498816	191025152	156472368	33184
919	2.199867	222769152	191025152	157099608	33184
920	2.337981	222769152	191025152	157727624	33184
921	2.62526	222769152	191025152	158356344	33184
922	2.309648	222769152	191025152	158985832	33184
923	2.360671	223039488	191025152	159616024	33184
924	2.613143	223039488	191025152	160246984	33184
925	3.083969	223039488	191549440	160878648	33184
926	2.549427	223039488	191549440	161511040	33184
927	2.887926	223039488	191549440	162144184	33184
928	2.941591	223309824	191549440	162778240	33184
929	3.223633	223309824	191549440	163412216	33184
930	2.8666	223309824	191549440	164046960	33184
931	3.187791	223309824	191549440	164682416	33184
932	3.309392	223580160	191549440	165318640	33184
933	3.688105	223580160	192073728	165955632	33184
934	3.202332	223580160	192073728	166593328	33184
935	3.266958	223580160	192073728	167231752	33184
936	3.689329	223850496	192073728	167871000	33184
937	3.838349	223850496	192073728	168510944	33184
938	4.145439	223850496	192073728	169151584	33184
939	16.986957	164122624	146460672	90215328	33184
940	1.173083	164122624	146460672	90857768	33184
941	1.007725	164122624	146460672	91500664	33184
942	0.939286	164122624	146460672	92144256	33184
943	0.925389	164122624	146460672	92788624	33184
944	1.002869	164122624	146460672	93433760	33184
945	1.015262	164122624	146460672	94079600	33184
946	7.736278	165470208	146460672	81213432	33184
947	0.857481	166010880	146460672	81860752	33184
948	0.65315	166551552	146460672	82508840	33184
949	0.636256	167092224	146460672	83157624	33184
950	0.659803	167632896	146460672	83807176	33184
951	0.709054	168173568	146460672	84457480	33184
952	0.691274	168984576	146460672	85108520	33184
953	0.66756	169525248	146460672	85760256	33184
954	0.651368	170065920	146460672	86412768	33184
955	0.686499	170606592	146460672	87066048	33184
956	0.827298	171147264	146460672	87720032	33184
957	0.671421	171687936	146460672	88374736	33184
958	0.674044	172498944	146460672	89030280	33184
959	0.643804	173039616	146460672	89686512	33184
960	0.671816	173580288	146460672	90343656	33184
961	0.654421	174120960	146460672	91000728	33184
962	0.657177	174661632	146460672	91658496	33184
963	0.645285	175472640	146460672	92317040	33184
964	0.661258	176013312	146460672	92976312	33184
965	0.657033	176553984	146460672	93636328	33184
966	0.645664	177094656	146460672	94297048	33184
967	0.680357	177635328	146460672	94958536	33184
968	0.647684	178446336	146460672	95620728	33184
969	0.582615	178446336	146460672	96283696	33184
970	0.550977	178446336	146460672	96947464	33184
971	0.5618	178446336	146460672	97611904	33184
972	5.560911	178446336	146460672	85368288	33184
973	0.977573	178446336	146460672	86034312	33184
974	0.560107	178446336	146460672	86701000	33184
975	0.545911	178446336	146460672	87368384	33184
976	0.539069	178446336	146460672	88036544	33184
977	0.534683	178446336	146460672	88705408	33184
978	0.563103	178446336	146460672	89375168	33184
979	0.552837	178446336	146460672	90045552	33184
980	0.555619	178446336	146460672	90716664	33184
981	0.556668	178446336	146460672	91388544	33184
982	0.56621	178446336	146460672	92061128	33184
983	0.549325	178446336	146460672	92734488	33184
984	0.539576	178446336	146460672	93408640	33184
985	0.56941	178446336	146460672	94083472	33184
986	0.558799	178446336	146460672	94759008	33184
987	0.568217	178446336	146460672	95435312	33184
988	0.563353	178446336	146460672	96112320	33184
989	0.557605	178446336	146460672	96790192	33184
990	0.570988	178446336	146460672	97468672	33184
991	0.579899	178446336	146460672	98147928	33184
992	0.552497	178446336	146460672	98828096	33184
993	0.549241	178446336	146460672	99508184	33184
994	0.552469	178446336	146460672	100188984	33184
995	8.075913	178446336	146460672	89657072	33184
996	0.585005	178446336	146460672	90339408	33184
997	0.609557	178446336	146460672	91022448	33184
998	0.786331	178446336	146460672	91706256	33184
999	0.572756	178446336	146460672	92390776	33184
1000	0.568435	178446336	146460672	93076088	33184
