x	Duration	RSS	HeapTotal	HeapUsed	External
0	NA	165367808	132829184	92539864	33184
1	0.040016	165367808	132829184	92548888	33184
2	0.025547	165367808	132829184	92558896	33184
3	0.022608	165367808	132829184	92569408	33184
4	0.025905	165367808	132829184	92580544	33184
5	0.02338	165367808	132829184	92592336	33184
6	0.021951	165367808	132829184	92604752	33184
7	0.021695	165367808	132829184	92617824	33184
8	0.034181	165367808	132829184	92634592	33184
9	0.031262	165367808	132829184	92650632	33184
10	0.028922	165367808	132829184	92667136	33184
11	0.028484	165367808	132829184	92684536	33184
12	0.028657	165367808	132829184	92702656	33184
13	0.028939	165367808	132829184	92721496	33184
14	0.029145	165367808	132829184	92741056	33184
15	0.03001	165367808	132829184	92761336	33184
16	0.032074	165367808	132829184	92782648	33184
17	0.032253	165367808	132829184	92805160	33184
18	0.033019	165367808	132829184	92828440	33184
19	0.032882	165367808	132829184	92852864	33184
20	0.033028	165367808	132829184	92877552	33184
21	0.033656	165367808	132829184	92903032	33184
22	0.036185	165367808	132829184	92928624	33184
23	0.036316	165367808	132829184	92955720	33184
24	0.036788	165367808	132829184	92983720	33184
25	0.03787	165367808	132829184	93012496	33184
26	0.042623	165367808	132829184	93041872	33184
27	0.038869	165367808	132829184	93071872	33184
28	0.038939	165367808	132829184	93102608	33184
29	0.039667	165367808	132829184	93134088	33184
30	0.040625	165367808	132829184	93166304	33184
31	0.041623	165367808	132829184	93199264	33184
32	0.042921	165367808	132829184	93232568	33184
33	0.042009	165367808	132829184	93266392	33184
34	0.042599	165367808	132829184	93300952	33184
35	0.043371	165367808	132829184	93336256	33184
36	0.04456	165367808	132829184	93372296	33184
37	0.043818	165367808	132829184	93409120	33184
38	0.046705	165367808	132829184	93446520	33184
39	0.049951	165367808	132829184	93484624	33184
40	0.047219	165367808	132829184	93523320	33184
41	0.047279	165367808	132829184	93562768	33184
42	0.047215	165367808	132829184	93602992	33184
43	0.047732	165367808	132829184	93644024	33184
44	0.048284	165367808	132829184	93685856	33184
45	0.047982	165367808	132829184	93729168	33184
46	0.049647	165367808	132829184	93772608	33184
47	0.049757	165367808	132829184	93816856	33184
48	0.050012	165367808	132829184	93861928	33184
49	0.055896	165367808	132829184	93907808	33184
50	0.051818	165367808	132829184	93954488	33184
51	0.051901	165367808	132829184	94001976	33184
52	0.051875	165367808	132829184	94050264	33184
53	0.053013	165367808	132829184	94099160	33184
54	0.055027	165367808	132829184	94148784	33184
55	0.055132	165367808	132829184	94199200	33184
56	0.207488	165367808	132829184	94250232	33184
57	0.061174	165367808	132829184	94302104	33184
58	0.056692	165367808	132829184	94354600	33184
59	0.057302	165367808	132829184	94407728	33184
60	0.068248	165367808	132829184	94461480	33184
61	0.052894	165367808	132829184	94515864	33184
62	0.053689	165367808	132829184	94570872	33184
63	0.05409	165367808	132829184	94626512	33184
64	0.055169	165367808	132829184	94682472	33184
65	0.061581	165367808	132829184	94738752	33184
66	0.065335	165367808	132829184	94795656	33184
67	0.055969	165367808	132829184	94853192	33184
68	0.0575	165367808	132829184	94911352	33184
69	0.057251	165367808	132829184	94970120	33184
70	0.058053	165367808	132829184	95029624	33184
71	0.062823	165367808	132829184	95089768	33184
72	0.058648	165367808	132829184	95150544	33184
73	0.058483	165367808	132829184	95211984	33184
74	0.061685	165367808	132829184	95274048	33184
75	0.059484	165367808	132829184	95336744	33184
76	0.061185	165367808	132829184	95400064	33184
77	0.060789	165367808	132829184	95464016	33184
78	0.062349	165367808	132829184	95528592	33184
79	0.062482	165367808	132829184	95593800	33184
80	0.0638	165367808	132829184	95659848	33184
81	0.079535	165367808	132829184	95726336	33184
82	0.556151	165367808	132829184	95796232	33184
83	0.102462	165367808	132829184	95863896	33184
84	0.075416	165367808	132829184	95933320	33184
85	0.073048	165367808	132829184	96002216	33184
86	0.09365	165367808	132829184	96071632	33184
87	0.096005	165367808	132829184	96141888	33184
88	0.077235	165367808	132829184	96212776	33184
89	0.082657	165367808	132829184	96284328	33184
90	0.071523	165367808	132829184	96356504	33184
91	0.07359	165367808	132829184	96429432	33184
92	0.073878	165367808	132829184	96502864	33184
93	0.072991	165367808	132829184	96576928	33184
94	0.096214	165367808	132829184	96651616	33184
95	0.078555	165367808	132829184	96726936	33184
96	0.078271	165367808	132829184	96802528	33184
97	0.081312	165367808	132829184	96882672	33184
98	0.075809	165367808	132829184	96959272	33184
99	0.084158	165367808	132829184	97036488	33184
100	0.07598	165367808	132829184	97114328	33184
101	0.076036	165367808	132829184	97192776	33184
102	0.076778	165367808	132829184	97271768	33184
103	0.081003	165367808	132829184	97351400	33184
104	0.079244	165367808	132829184	97431664	33184
105	0.07851	165367808	132829184	97512632	33184
106	0.08103	165367808	132829184	97594184	33184
107	0.078411	165367808	132829184	97676368	33184
108	0.083203	165367808	132829184	97759176	33184
109	0.081478	165367808	132829184	97842616	33184
110	0.081475	165367808	132829184	97926680	33184
111	0.080955	165367808	132829184	98011376	33184
112	0.087012	165367808	132829184	98096720	33184
113	0.082605	165367808	132829184	98182696	33184
114	0.084457	165367808	132829184	98269296	33184
115	0.085618	165683200	132829184	98356528	33184
116	0.089916	165683200	132829184	98444384	33184
117	0.085348	165683200	132829184	98532848	33184
118	0.0863	165683200	132829184	98621856	33184
119	0.087299	165683200	132829184	98711536	33184
120	0.247406	165683200	132829184	98801816	33184
121	0.09451	165683200	132829184	98892760	33184
122	0.105016	165683200	132829184	98984328	33184
123	0.088088	165683200	132829184	99076528	33184
124	0.092947	165683200	132829184	99169352	33184
125	0.08974	165683200	132829184	99262816	33184
126	0.092037	165683200	132829184	99356896	33184
127	0.089485	165683200	132829184	99451608	33184
128	0.095512	165683200	132829184	99546616	33184
129	0.092707	165683200	132829184	99641680	33184
130	0.092156	165683200	132829184	99737368	33184
131	0.096112	165683200	132829184	99833896	33184
132	0.098472	165683200	132829184	99931000	33184
133	0.094587	165683200	132829184	100028712	33184
134	0.094136	165683200	132829184	100127056	33184
135	0.095375	165683200	132829184	100226040	33184
136	0.098832	165683200	132829184	100325656	33184
137	0.095662	165683200	132829184	100425968	33184
138	0.097361	165683200	132829184	100526872	33184
139	0.099345	165683200	132829184	100628408	33184
140	0.097843	165683200	132829184	100730568	33184
141	0.098582	165683200	132829184	100833360	33184
142	0.098596	165683200	132829184	100938648	33184
143	0.100721	165683200	132829184	101042696	33184
144	0.099504	165683200	132829184	101147392	33184
145	0.096667	165683200	132829184	101252720	33184
146	0.1027	165683200	132829184	101358672	33184
147	0.097178	165683200	132829184	101465256	33184
148	0.097957	165683200	132829184	101572528	33184
149	0.11486	165683200	132829184	101680344	33184
150	0.117977	165683200	132829184	101789272	33184
151	0.099955	165683200	132829184	101898840	33184
152	0.104399	165683200	132829184	102009040	33184
153	0.101865	165683200	132829184	102119904	33184
154	0.101703	165683200	132829184	102231392	33184
155	0.101787	165683200	132829184	102343512	33184
156	0.115419	165683200	132829184	102456256	33184
157	0.101815	165683200	132829184	102569632	33184
158	0.103797	165683200	132829184	102683696	33184
159	0.110266	165683200	132829184	102798328	33184
160	0.103183	165683200	132829184	102913272	33184
161	0.104689	165683200	132829184	103028544	33184
162	0.115067	165683200	132829184	103144440	33184
163	0.107674	165683200	132829184	103261008	33184
164	0.109212	165683200	132829184	103378160	33184
165	0.113581	165683200	132829184	103495920	33184
166	0.109095	165683200	132829184	103614576	33184
167	0.108156	165683200	132829184	103733872	33184
168	0.115129	165683200	132829184	103853840	33184
169	0.113071	165683200	132829184	103974432	33184
170	0.126186	165683200	132829184	104095648	33184
171	0.113358	165683200	132829184	104217496	33184
172	0.11245	165683200	132829184	104339968	33184
173	0.11518	165683200	132829184	104463080	33184
174	0.157989	165683200	132829184	104586808	33184
175	0.130789	165683200	132829184	104711168	33184
176	0.116161	165683200	132829184	104836176	33184
177	0.114006	165683200	132829184	104961872	33184
178	0.11423	165683200	132829184	105088136	33184
179	0.121828	165683200	132829184	105215032	33184
180	0.116101	165683200	132829184	105342552	33184
181	0.115343	165683200	132829184	105470680	33184
182	7.692568	166223872	133353472	93998224	33184
183	0.195679	166223872	133353472	94127664	33184
184	0.121132	166223872	133353472	94257696	33184
185	0.114454	166223872	133353472	94388392	33184
186	0.11307	166223872	133353472	94519712	33184
187	0.11823	166223872	133353472	94651728	33184
188	0.112944	166223872	133353472	94784304	33184
189	0.113984	166223872	133353472	94917512	33184
190	0.121167	166223872	133353472	95051344	33184
191	0.11476	166223872	133353472	95185848	33184
192	0.118594	166223872	133353472	95320648	33184
193	0.114877	166223872	133353472	95455752	33184
194	0.114521	166223872	133353472	95591480	33184
195	0.119163	166223872	133353472	95727872	33184
196	0.115341	166223872	133353472	95864856	33184
197	0.120102	166223872	133353472	96002448	33184
198	0.116404	166223872	133353472	96140672	33184
199	0.116341	166223872	133353472	96279536	33184
200	0.128964	166223872	133353472	96419064	33184
201	0.994861	166223872	133353472	96561656	33184
202	0.152558	166223872	133353472	96702440	33184
203	0.125617	166223872	133353472	96843856	33184
204	0.137155	166223872	133353472	96985928	33184
205	0.146593	166223872	133353472	97128600	33184
206	0.120644	166223872	133353472	97271896	33184
207	0.159959	166223872	133353472	97415824	33184
208	0.124586	166223872	133353472	97560432	33184
209	0.159028	166223872	133353472	97705640	33184
210	0.123548	166223872	133353472	97851472	33184
211	0.197928	166223872	133353472	98005104	33184
212	0.164278	166223872	133353472	98152200	33184
213	0.12345	166223872	133353472	98299896	33184
214	0.124282	166223872	133353472	98448224	33184
215	0.121829	166223872	133353472	98597208	33184
216	0.126289	166223872	133353472	98746808	33184
217	0.122713	166223872	133353472	98897072	33184
218	0.131413	166223872	133353472	99047960	33184
219	0.12942	166223872	133353472	99199488	33184
220	0.124639	166223872	133353472	99351632	33184
221	0.127128	166223872	133353472	99504408	33184
222	0.12515	166223872	133353472	99657808	33184
223	0.165043	166223872	133353472	99811880	33184
224	0.127575	166223872	133353472	99966264	33184
225	0.130751	166223872	133353472	100120936	33184
226	0.128252	166223872	133353472	100276232	33184
227	0.133508	166223872	133353472	100432200	33184
228	0.128891	166223872	133353472	100588752	33184
229	0.128882	166223872	133353472	100748792	33184
230	0.138936	166223872	133353472	100906648	33184
231	0.130598	166223872	133353472	101065080	33184
232	0.135558	166223872	133353472	101224144	33184
233	0.129946	166223872	133353472	101383872	33184
234	0.137598	166223872	133353472	101544272	33184
235	0.133237	166223872	133353472	101705256	33184
236	0.136467	166223872	133353472	101866864	33184
237	0.133574	166223872	133353472	102029104	33184
238	0.139021	166223872	133353472	102191968	33184
239	0.134659	166223872	133353472	102355464	33184
240	0.138162	166223872	133353472	102519608	33184
241	0.144429	166223872	133353472	102684448	33184
242	0.171379	166223872	133353472	102849848	33184
243	0.163599	166223872	133353472	103015880	33184
244	0.140966	166223872	133353472	103182584	33184
245	0.138074	166223872	133353472	103349848	33184
246	0.141163	166223872	133353472	103517744	33184
247	0.139713	166223872	133353472	103686280	33184
248	0.143679	166223872	133353472	103855488	33184
249	0.148129	166223872	133353472	104025320	33184
250	0.142738	166223872	133353472	104195776	33184
251	0.143976	166223872	133353472	104366896	33184
252	0.144705	166223872	133353472	104538608	33184
253	0.141316	166223872	133353472	104710952	33184
254	0.147017	166223872	133353472	104883920	33184
255	0.14608	166223872	133353472	105057536	33184
256	0.148835	166223872	133353472	105231872	33184
257	0.145016	166223872	133353472	105406472	33184
258	0.151414	166223872	133353472	105581720	33184
259	0.146141	166223872	133353472	105757576	33184
260	0.150794	166223872	133353472	105934056	33184
261	0.148258	166223872	133353472	106111152	33184
262	0.152295	166223872	133353472	106289032	33184
263	0.156696	166223872	133353472	106467720	33184
264	0.172295	166223872	133353472	106647208	33184
265	0.14826	166223872	133353472	106827888	33184
266	0.157009	166223872	133353472	107009544	33184
267	0.151593	166223872	133353472	107192232	33184
268	0.15568	166223872	133353472	107375848	33184
269	0.154741	166223872	133353472	107560448	33184
270	0.151178	166223872	133353472	107746024	33184
271	0.158221	166223872	133353472	107932592	33184
272	0.155303	166223872	133353472	108120128	33184
273	0.159851	166223872	133353472	108308648	33184
274	0.157723	166223872	133353472	108498160	33184
275	0.16261	166223872	133353472	108688640	33184
276	0.157023	166223872	133353472	108880096	33184
277	0.168431	166223872	133353472	109072216	33184
278	0.16294	166223872	133353472	109264928	33184
279	0.173731	166223872	133353472	109458272	33184
280	6.915788	166764544	133877760	97447904	33184
281	0.167901	166764544	133877760	97642504	33184
282	0.163467	166764544	133877760	97837728	33184
283	0.153003	166764544	133877760	98033592	33184
284	0.158295	166764544	133877760	98230072	33184
285	0.15179	166764544	133877760	98427184	33184
286	0.157921	166764544	133877760	98624960	33184
287	0.154114	166764544	133877760	98823328	33184
288	0.32974	166764544	133877760	99022064	33184
289	0.16344	166764544	133877760	99221088	33184
290	0.174154	166764544	133877760	99420696	33184
291	0.150565	166764544	133877760	99620936	33184
292	0.15593	166764544	133877760	99821824	33184
293	0.151601	166764544	133877760	100023320	33184
294	0.156022	166764544	133877760	100225440	33184
295	0.151493	166764544	133877760	100428248	33184
296	0.15811	166764544	133877760	100631624	33184
297	0.151868	166764544	133877760	100835632	33184
298	0.159689	166764544	133877760	101040384	33184
299	0.153106	166764544	133877760	101245648	33184
300	0.161561	166764544	133877760	101451592	33184
301	0.154042	166764544	133877760	101658112	33184
302	0.159462	166764544	133877760	101865256	33184
303	0.156011	166764544	133877760	102073080	33184
304	0.164595	166764544	133877760	102281480	33184
305	0.156703	166764544	133877760	102490512	33184
306	0.160993	166764544	133877760	102700168	33184
307	0.162315	166764544	133877760	102910456	33184
308	0.165699	166764544	133877760	103121368	33184
309	0.163396	166764544	133877760	103333152	33184
310	0.165163	166764544	133877760	103545320	33184
311	0.375817	166764544	133877760	103759056	33184
312	0.174936	166764544	133877760	103972480	33184
313	0.199281	166764544	133877760	104186536	33184
314	0.172431	166764544	133877760	104401272	33184
315	0.213032	166764544	133877760	104618312	33184
316	0.181728	166764544	133877760	104834248	33184
317	0.171939	166764544	133877760	105050856	33184
318	0.172581	166764544	133877760	105268048	33184
319	0.1704	166764544	133877760	105485920	33184
320	0.168637	166764544	133877760	105704136	33184
321	0.166345	166764544	133877760	105922576	33184
322	0.171545	166764544	133877760	106141664	33184
323	0.167814	166764544	133877760	106361360	33184
324	0.175684	166764544	133877760	106581704	33184
325	0.383284	166764544	133877760	106802656	33184
326	0.208493	166764544	133877760	107024232	33184
327	0.192883	166764544	133877760	107246496	33184
328	0.169591	166764544	133877760	107469328	33184
329	0.174599	166764544	133877760	107692792	33184
330	0.172763	166764544	133877760	107917120	33184
331	0.179099	166764544	133877760	108141840	33184
332	0.183797	166764544	133877760	108367232	33184
333	0.180472	166764544	133877760	108593208	33184
334	0.195163	166764544	133877760	108819808	33184
335	0.173163	166764544	133877760	109047088	33184
336	0.178822	166764544	133877760	109274944	33184
337	0.176934	166764544	133877760	109503464	33184
338	0.185517	166764544	133877760	109732576	33184
339	0.187053	166764544	133877760	109962320	33184
340	0.182906	166764544	133877760	110192704	33184
341	0.180366	166764544	133877760	110423704	33184
342	0.215786	166764544	133877760	110655392	33184
343	0.203831	166764544	133877760	110887648	33184
344	0.178931	166764544	133877760	111120528	33184
345	0.185017	166764544	133877760	111354072	33184
346	0.184283	166764544	133877760	111588208	33184
347	0.184462	166764544	133877760	111823016	33184
348	0.188972	166764544	133877760	112058408	33184
349	0.181355	166764544	133877760	112294432	33184
350	0.1886	166764544	133877760	112531120	33184
351	0.187054	166764544	133877760	112768400	33184
352	0.188281	166764544	133877760	113006136	33184
353	0.192799	166764544	133877760	113244032	33184
354	6.312849	168656896	135974912	100714672	33184
355	0.357816	168656896	135974912	100953864	33184
356	0.20081	168656896	135974912	101193640	33184
357	0.188991	168656896	135974912	101434056	33184
358	0.192118	168927232	135974912	101675088	33184
359	0.187681	168927232	135974912	101916752	33184
360	0.222895	168927232	135974912	102163488	33184
361	0.19389	168927232	135974912	102406408	33184
362	0.189594	168927232	135974912	102649992	33184
363	0.196034	168927232	135974912	102894168	33184
364	0.186625	168927232	135974912	103139016	33184
365	0.193925	168927232	135974912	103384448	33184
366	0.245927	168927232	136499200	103630504	33184
367	0.213722	168927232	136499200	103877232	33184
368	0.197415	168927232	136499200	104124544	33184
369	0.191837	169197568	136499200	104372496	33184
370	0.198016	169197568	136499200	104621064	33184
371	0.229873	169197568	136499200	104870280	33184
372	0.193332	169197568	136499200	105120104	33184
373	0.198665	169197568	136499200	105370560	33184
374	0.19191	169197568	136499200	105621672	33184
375	0.200499	169197568	136499200	105873384	33184
376	0.23465	169197568	136499200	106125768	33184
377	0.193951	169197568	136499200	106378736	33184
378	0.203042	169197568	136499200	106632384	33184
379	0.215846	169197568	136499200	106886608	33184
380	0.194487	169467904	136499200	107141456	33184
381	0.203623	169467904	136499200	107396936	33184
382	0.206522	169467904	136499200	107653040	33184
383	0.237579	169467904	136499200	107909816	33184
384	0.20415	169467904	136499200	108166984	33184
385	0.197528	169467904	136499200	108424344	33184
386	0.228311	169467904	137023488	108682320	33184
387	0.203258	169467904	137023488	108940968	33184
388	0.201204	169467904	137023488	109200200	33184
389	0.210301	169467904	137023488	109460120	33184
390	0.200851	169738240	137023488	109720608	33184
391	0.206975	169738240	137023488	109981728	33184
392	0.208343	169738240	137023488	110243480	33184
393	0.205464	169738240	137023488	110505856	33184
394	0.210816	169738240	137023488	110768912	33184
395	0.244784	169738240	137023488	111032544	33184
396	0.208828	169738240	137023488	111296824	33184
397	0.214981	169738240	137023488	111561712	33184
398	0.388973	169738240	137023488	111827256	33184
399	0.229796	169738240	137023488	112093400	33184
400	0.216393	169738240	137023488	112360216	33184
401	0.249883	170008576	137023488	112627616	33184
402	0.21122	170008576	137023488	112895696	33184
403	0.217653	170008576	137023488	113164352	33184
404	0.235815	170008576	137023488	113433632	33184
405	0.211847	170008576	137023488	113703544	33184
406	0.237232	170008576	137547776	113974080	33184
407	0.252465	170008576	137547776	114245272	33184
408	0.212393	170008576	137547776	114517064	33184
409	0.221649	170008576	137547776	114789528	33184
410	0.240553	170008576	137547776	115062576	33184
411	0.214948	170278912	137547776	115336288	33184
412	0.235059	170278912	137547776	115610592	33184
413	0.224879	170278912	137547776	115885576	33184
414	0.21937	170278912	137547776	116161136	33184
415	0.225346	170278912	137547776	116437392	33184
416	0.227268	170278912	137547776	116714032	33184
417	6.078155	172171264	139644928	104158416	33184
418	0.379943	172171264	139644928	104435864	33184
419	0.385085	172171264	139644928	104713928	33184
420	0.247435	172171264	139644928	104992640	33184
421	0.21258	172441600	139644928	105271960	33184
422	0.214673	172441600	139644928	105551936	33184
423	0.213738	172441600	139644928	105832512	33184
424	0.228306	172441600	139644928	106113760	33184
425	0.211993	172441600	139644928	106395592	33184
426	0.217086	172441600	139644928	106678104	33184
427	0.239672	172441600	139644928	106961192	33184
428	0.211696	172441600	139644928	107244904	33184
429	0.219686	172441600	139644928	107529248	33184
430	0.247636	172441600	139644928	107814224	33184
431	0.212627	172711936	139644928	108099824	33184
432	0.2241	172711936	139644928	108386064	33184
433	0.239381	172711936	140169216	108672920	33184
434	0.225909	172711936	140169216	108960432	33184
435	0.238677	172711936	140169216	109248544	33184
436	0.253849	172711936	140169216	109537328	33184
437	0.214833	172711936	140169216	109826696	33184
438	0.225568	172711936	140169216	110116744	33184
439	0.254917	172711936	140169216	110407368	33184
440	0.238907	172982272	140169216	110698680	33184
441	0.217739	172982272	140169216	110990560	33184
442	0.227125	172982272	140169216	111283072	33184
443	0.258222	172982272	140169216	111576208	33184
444	0.222095	172982272	140169216	111869984	33184
445	0.226972	172982272	140169216	112164376	33184
446	0.262885	172982272	140169216	112459424	33184
447	0.224587	172982272	140169216	112755072	33184
448	0.402419	172982272	140169216	113051240	33184
449	0.251215	173252608	140169216	113347504	33184
450	0.227607	173252608	140169216	113644448	33184
451	0.245517	173252608	140693504	113941968	33184
452	0.234894	173252608	140693504	114240112	33184
453	0.253376	173252608	140693504	114538888	33184
454	0.251531	173252608	140693504	114838296	33184
455	0.227691	173252608	140693504	115138328	33184
456	0.234034	173252608	140693504	115438992	33184
457	0.26974	173252608	140693504	115740288	33184
458	0.23157	173522944	140693504	116042200	33184
459	0.230062	173522944	140693504	116344776	33184
460	0.239039	173522944	140693504	116647944	33184
461	0.301135	173522944	140693504	116951800	33184
462	0.262844	173522944	140693504	117256224	33184
463	0.233811	173522944	140693504	117561336	33184
464	0.241931	173522944	140693504	117867016	33184
465	0.238762	173522944	140693504	118173328	33184
466	0.237011	173522944	140693504	118480264	33184
467	0.236414	173793280	140693504	118787848	33184
468	0.269696	173793280	141217792	119096040	33184
469	0.243434	173793280	141217792	119404888	33184
470	0.241861	173793280	141217792	119714336	33184
471	0.239335	173793280	141217792	120024456	33184
472	5.960478	175685632	143314944	107354248	33184
473	0.450379	175685632	143314944	107665600	33184
474	0.250011	175685632	143314944	107977560	33184
475	0.242841	175685632	143314944	108290160	33184
476	0.235671	175685632	143314944	108603376	33184
477	0.233426	175685632	143314944	108917288	33184
478	0.23809	175685632	143314944	109231760	33184
479	0.280692	175955968	143314944	109546880	33184
480	0.234746	175955968	143314944	109862472	33184
481	0.235409	175955968	143314944	110178208	33184
482	0.424138	175955968	143314944	110494552	33184
483	0.262962	175955968	143314944	110811544	33184
484	0.254621	175955968	143314944	111129168	33184
485	0.233901	175955968	143314944	111447400	33184
486	0.246786	175955968	143314944	111766312	33184
487	0.247036	175955968	143314944	112085800	33184
488	0.250439	176226304	143314944	112405976	33184
489	0.234989	176226304	143314944	112726720	33184
490	0.248401	176226304	143314944	113048096	33184
491	0.248249	176226304	143314944	113370096	33184
492	0.285468	176226304	143314944	113692744	33184
493	0.257819	176226304	143314944	114016016	33184
494	0.271812	176226304	143839232	114339896	33184
495	0.300577	176226304	143839232	114664448	33184
496	0.248405	176496640	143839232	114989584	33184
497	0.247681	176496640	143839232	115315400	33184
498	0.241251	176496640	143839232	115641792	33184
499	0.253491	176496640	143839232	115969000	33184
500	0.286267	176496640	143839232	116296712	33184
501	0.2509	176496640	143839232	116624992	33184
502	0.249279	176496640	143839232	116953896	33184
503	0.253566	176496640	143839232	117283432	33184
504	0.256949	176766976	143839232	117613608	33184
505	0.288071	176766976	143839232	117944400	33184
506	0.250902	176766976	143839232	118276064	33184
507	0.253459	176766976	143839232	118608176	33184
508	0.296597	176766976	143839232	118940848	33184
509	0.262095	176766976	143839232	119274192	33184
510	0.315991	176766976	144363520	119608120	33184
511	0.26753	176766976	144363520	119942736	33184
512	0.259876	177037312	144363520	120278176	33184
513	0.26128	177037312	144363520	120613688	33184
514	0.270174	177037312	144363520	120949888	33184
515	0.295296	177037312	144363520	121286656	33184
516	0.265758	177037312	144363520	121624104	33184
517	0.260665	177037312	144363520	121961904	33184
518	0.267169	177037312	144363520	122300480	33184
519	0.257051	177037312	144363520	122639768	33184
520	0.267669	177307648	144363520	122979784	33184
521	0.299866	177307648	144363520	123320912	33184
522	0.28019	177307648	144363520	123662744	33184
523	5.932153	178929664	146460672	110967144	33184
524	0.441606	178929664	146460672	111310456	33184
525	0.304506	179200000	146460672	111654528	33184
526	0.295471	179200000	146460672	111999320	33184
527	0.287023	179200000	146460672	112344888	33184
528	0.265103	179200000	146460672	112691160	33184
529	0.269083	179200000	146460672	113038216	33184
530	0.297741	179200000	146460672	113386024	33184
531	0.266723	179200000	146460672	113734520	33184
532	0.266326	179200000	146460672	114083760	33184
533	0.2609	179470336	146460672	114433760	33184
534	0.27395	179470336	146460672	114784472	33184
535	0.275342	179470336	146460672	115135984	33184
536	0.294226	179470336	146984960	115488176	33184
537	0.269179	179470336	146984960	115841160	33184
538	0.269713	179470336	146984960	116194888	33184
539	0.317407	179470336	146984960	116549304	33184
540	0.272456	179740672	146984960	116904480	33184
541	0.276252	179740672	146984960	117260376	33184
542	0.276099	179740672	146984960	117617024	33184
543	0.282479	179740672	146984960	117974408	33184
544	0.311674	179740672	146984960	118332424	33184
545	0.272591	179740672	146984960	118690664	33184
546	0.272375	179740672	146984960	119049648	33184
547	0.281255	179740672	146984960	119409344	33184
548	0.281967	180011008	146984960	119769840	33184
549	0.312353	180011008	146984960	120131016	33184
550	0.295598	180011008	146984960	120492936	33184
551	0.508	180011008	147509248	120855608	33184
552	0.31542	180011008	147509248	121219000	33184
553	0.297757	180011008	147509248	121583168	33184
554	0.28772	180011008	147509248	121948048	33184
555	0.290244	180281344	147509248	122313664	33184
556	0.292395	180281344	147509248	122686832	33184
557	0.299816	180281344	147509248	123053960	33184
558	0.29977	180281344	147509248	123421792	33184
559	0.288916	180281344	147509248	123790432	33184
560	0.307463	180281344	147509248	124159744	33184
561	0.286779	180281344	147509248	124529808	33184
562	0.494846	180281344	147509248	124900640	33184
563	0.298475	180551680	147509248	125272176	33184
564	0.297851	180551680	147509248	125644504	33184
565	0.317394	180551680	148033536	126017576	33184
566	0.306206	180551680	148033536	126391328	33184
567	0.303822	180551680	148033536	126765848	33184
568	6.579543	182444032	150130688	114188736	33184
569	0.535904	182444032	150130688	114564720	33184
570	0.298006	182444032	150130688	114941472	33184
571	0.288097	182444032	150130688	115318928	33184
572	0.307874	182444032	150130688	115697184	33184
573	0.415913	182444032	150130688	116076176	33184
574	0.362208	182714368	150130688	116456456	33184
575	0.305213	182714368	150130688	116836920	33184
576	0.338124	182714368	150130688	117218016	33184
577	0.315948	182714368	150130688	117599272	33184
578	0.296087	182714368	150130688	117981296	33184
579	0.297433	182714368	150130688	118364080	33184
580	0.299281	182714368	150130688	118747552	33184
581	0.30157	182984704	150130688	119131784	33184
582	0.304298	182984704	150130688	119516736	33184
583	0.303845	182984704	150130688	119902432	33184
584	0.301651	182984704	150130688	120288864	33184
585	0.300232	182984704	150130688	120676064	33184
586	0.303659	182984704	150130688	121063976	33184
587	0.302102	182984704	150130688	121452688	33184
588	0.469585	183255040	150130688	121842136	33184
589	0.325542	183255040	150654976	122232272	33184
590	0.299296	183255040	150654976	122623176	33184
591	0.306355	183255040	150654976	123014800	33184
592	0.318274	183255040	150654976	123407152	33184
593	0.32025	183255040	150654976	123800272	33184
594	0.316498	183255040	150654976	124194144	33184
595	0.311753	183525376	150654976	124588720	33184
596	0.310639	183525376	150654976	124984032	33184
597	0.336807	183525376	150654976	125380152	33184
598	0.336004	183525376	150654976	125776968	33184
599	0.311631	183525376	150654976	126174504	33184
600	0.31442	183525376	150654976	126572824	33184
601	0.309542	183525376	150654976	126971896	33184
602	0.329375	183795712	151179264	127371648	33184
603	0.316871	183795712	151179264	127772176	33184
604	0.313686	183795712	151179264	128173416	33184
605	0.323232	183795712	151179264	128575392	33184
606	0.325807	183795712	151179264	128978328	33184
607	0.326953	183795712	151179264	129381824	33184
608	0.347409	183795712	151179264	129786016	33184
609	0.342431	184066048	151179264	130190312	33184
610	6.534807	185688064	153276416	117884408	33184
611	0.535169	185958400	153276416	118290208	33184
612	0.390165	185958400	153276416	118696720	33184
613	0.343127	185958400	153276416	119104032	33184
614	0.32377	185958400	153276416	119512080	33184
615	0.321661	185958400	153276416	119920816	33184
616	0.318982	185958400	153276416	120330288	33184
617	0.327974	185958400	153276416	120740544	33184
618	0.318346	186228736	153276416	121151536	33184
619	0.320669	186228736	153276416	121563232	33184
620	0.321629	186228736	153276416	121975680	33184
621	0.321176	186228736	153276416	122388920	33184
622	0.344488	186228736	153800704	122802832	33184
623	0.365267	186228736	153800704	123217488	33184
624	0.319279	186499072	153800704	123632896	33184
625	0.332598	186499072	153800704	124049088	33184
626	0.330374	186499072	153800704	124465960	33184
627	0.344865	186499072	153800704	124883672	33184
628	0.335884	186499072	153800704	125302056	33184
629	0.336725	186499072	153800704	125721200	33184
630	0.333835	186499072	153800704	126140896	33184
631	0.33887	186769408	153800704	126561344	33184
632	0.340665	186769408	153800704	126982512	33184
633	0.365586	186769408	153800704	127404392	33184
634	0.357811	186769408	153800704	127826984	33184
635	0.361739	186769408	154324992	128250360	33184
636	0.339322	186769408	154324992	128674416	33184
637	0.341824	187039744	154324992	129099384	33184
638	0.336715	187039744	154324992	129524872	33184
639	0.345947	187039744	154324992	129951104	33184
640	0.344313	187039744	154324992	130378032	33184
641	0.344761	187039744	154324992	130805056	33184
642	0.342085	187039744	154324992	131232840	33184
643	0.373624	187039744	154324992	131661376	33184
644	0.368761	187310080	154324992	132090616	33184
645	0.341117	187310080	154324992	132520536	33184
646	0.350953	187310080	154324992	132951136	33184
647	0.365136	187310080	154849280	133382448	33184
648	6.828525	189472768	156946432	121355080	33184
649	0.6124	189472768	156946432	121787904	33184
650	0.345249	189472768	156946432	122221400	33184
651	0.340262	189472768	156946432	122655688	33184
652	0.34182	189472768	156946432	123090688	33184
653	0.346522	189472768	156946432	123526456	33184
654	0.341441	189743104	156946432	123962912	33184
655	0.342881	189743104	156946432	124400128	33184
656	0.369389	189743104	156946432	124838080	33184
657	0.370238	189743104	156946432	125276800	33184
658	0.344562	189743104	156946432	125716216	33184
659	0.34667	189743104	156946432	126156416	33184
660	0.347845	189743104	156946432	126597344	33184
661	0.345925	190013440	156946432	127039008	33184
662	0.370838	190013440	157470720	127481304	33184
663	0.347746	190013440	157470720	127924304	33184
664	0.347932	190013440	157470720	128368048	33184
665	0.348165	190013440	157470720	128812592	33184
666	0.388292	190013440	157470720	129257832	33184
667	0.581611	190283776	157470720	129703944	33184
668	0.446032	190283776	157470720	130152792	33184
669	0.389112	190283776	157470720	130600248	33184
670	0.358411	190283776	157470720	131048440	33184
671	0.359182	190283776	157470720	131497408	33184
672	0.37258	190283776	157470720	131947048	33184
673	0.356061	190554112	157470720	132396848	33184
674	0.377343	190554112	157995008	132847352	33184
675	0.555106	190554112	157995008	133298632	33184
676	0.394525	190554112	157995008	133750608	33184
677	0.365678	190554112	157995008	134203328	33184
678	0.365512	190554112	157995008	134656712	33184
679	0.371525	190824448	157995008	135110872	33184
680	0.364394	190824448	157995008	135565728	33184
681	0.36821	190824448	157995008	136021304	33184
682	0.403201	190824448	157995008	136477624	33184
683	0.362461	190824448	157995008	136934688	33184
684	6.792998	192987136	160092160	125099960	33184
685	0.628732	192987136	160092160	125558496	33184
686	0.37886	192987136	160092160	126017768	33184
687	0.420686	192987136	160616448	126477824	33184
688	0.386866	193257472	160616448	126938576	33184
689	0.568342	193257472	160616448	127400360	33184
690	0.39114	193257472	160616448	127862656	33184
691	0.372035	193257472	160616448	128325656	33184
692	0.36813	193257472	160616448	128789432	33184
693	0.38818	193257472	160616448	129253888	33184
694	0.39672	193527808	160616448	129719312	33184
695	0.362806	193527808	160616448	130185280	33184
696	0.432993	193527808	160616448	130652008	33184
697	0.370348	193527808	160616448	131119424	33184
698	0.372588	193527808	160616448	131587624	33184
699	0.386525	193527808	161140736	132056520	33184
700	0.376319	193798144	161140736	132526176	33184
701	0.37873	193798144	161140736	132996608	33184
702	0.37528	193798144	161140736	133467752	33184
703	0.378181	193798144	161140736	133939664	33184
704	0.378996	193798144	161140736	134412264	33184
705	0.415411	194068480	161140736	134885120	33184
706	0.402038	194068480	161140736	135358608	33184
707	0.378893	194068480	161140736	135832832	33184
708	0.444403	194068480	161140736	136307760	33184
709	0.376108	194068480	161140736	136783464	33184
710	0.395057	194068480	161665024	137259856	33184
711	0.383586	194338816	161665024	137737032	33184
712	0.38406	194338816	161665024	138214968	33184
713	0.379951	194338816	161665024	138693616	33184
714	0.580609	194338816	161665024	139172968	33184
715	0.417753	194338816	161665024	139653088	33184
716	0.392547	194338816	161665024	140133992	33184
717	0.391123	194609152	161665024	140615568	33184
718	7.042419	196771840	164286464	128987200	33184
719	0.61076	196771840	164286464	129470256	33184
720	0.389826	196771840	164286464	129954080	33184
721	0.389577	196771840	164286464	130438640	33184
722	0.389516	196771840	164286464	130923960	33184
723	0.386342	197042176	164286464	131409984	33184
724	0.393849	197042176	164286464	131896776	33184
725	0.583111	197042176	164286464	132384272	33184
726	0.420676	197042176	164286464	132872504	33184
727	0.395721	197042176	164286464	133361528	33184
728	0.408453	197042176	164286464	133851296	33184
729	0.411095	197312512	164286464	134341816	33184
730	0.392915	197312512	164286464	134833032	33184
731	0.417814	197312512	164810752	135325016	33184
732	0.397086	197312512	164810752	135817712	33184
733	0.397012	197312512	164810752	136311128	33184
734	0.447209	197582848	164810752	136805296	33184
735	0.400212	197582848	164810752	137300248	33184
736	0.408657	197582848	164810752	137795960	33184
737	0.424726	197582848	164810752	138291736	33184
738	0.417933	197582848	164810752	138788216	33184
739	0.408082	197582848	164810752	139285464	33184
740	0.4049	197853184	164810752	139783416	33184
741	0.401865	197853184	164810752	140282112	33184
742	0.45266	197853184	165335040	140781576	33184
743	0.429643	197853184	165335040	141281800	33184
744	0.408687	197853184	165335040	141782776	33184
745	0.423977	198123520	165335040	142284448	33184
746	0.422693	198123520	165335040	142786888	33184
747	0.408053	198123520	165335040	143290040	33184
748	0.412698	198123520	165335040	143793952	33184
749	0.410851	198123520	165335040	144298568	33184
750	7.523642	200556544	167956480	132761120	33184
751	0.48131	200556544	167956480	133267216	33184
752	0.435061	200556544	167956480	133774080	33184
753	0.439592	200556544	167956480	134281656	33184
754	0.414482	200556544	167956480	134789968	33184
755	0.410361	200826880	167956480	135299080	33184
756	0.417531	200826880	167956480	135808896	33184
757	0.431754	200826880	167956480	136319488	33184
758	0.430652	200826880	167956480	136830776	33184
759	0.408073	200826880	167956480	137342840	33184
760	0.41282	200826880	167956480	137855600	33184
761	0.629546	201097216	168480768	138369144	33184
762	0.41544	201097216	168480768	138883376	33184
763	0.44411	201097216	168480768	139398504	33184
764	0.431867	201097216	168480768	139914216	33184
765	0.416671	201097216	168480768	140430704	33184
766	0.421247	201367552	168480768	140947960	33184
767	0.441488	201367552	168480768	141465920	33184
768	0.6264	201367552	168480768	141984656	33184
769	0.452504	201367552	168480768	142503448	33184
770	0.458533	201367552	168480768	143023024	33184
771	0.442476	201637888	169005056	143543288	33184
772	0.432326	201637888	169005056	144064336	33184
773	0.427258	201637888	169005056	144586072	33184
774	0.453892	201637888	169005056	145108552	33184
775	0.450975	201637888	169005056	145631792	33184
776	0.46462	201637888	169005056	146155784	33184
777	0.44652	201908224	169005056	146680544	33184
778	0.429661	201908224	169005056	147206016	33184
779	0.428697	201908224	169005056	147732248	33184
780	7.289337	204070912	171626496	136313912	33184
781	0.724586	204341248	171626496	136841568	33184
782	0.444852	204341248	171626496	137370000	33184
783	0.45085	204341248	171626496	137899176	33184
784	0.445073	204341248	171626496	138429088	33184
785	0.430114	204341248	171626496	138959752	33184
786	0.504488	204611584	171626496	139491120	33184
787	0.437604	204611584	171626496	140023256	33184
788	0.453733	204611584	171626496	140556088	33184
789	0.475409	204611584	172150784	141089704	33184
790	0.432048	204611584	172150784	141624016	33184
791	0.436351	204881920	172150784	142159096	33184
792	0.438784	204881920	172150784	142694952	33184
793	0.457856	204881920	172150784	143231512	33184
794	0.66456	204881920	172150784	143768848	33184
795	0.439432	204881920	172150784	144306880	33184
796	0.439429	204881920	172150784	144845632	33184
797	0.445505	205152256	172150784	145385192	33184
798	0.45996	205152256	172150784	145925424	33184
799	0.474793	205152256	172675072	146466488	33184
800	0.447732	205152256	172675072	147008296	33184
801	0.477199	205152256	172675072	147550136	33184
802	0.476637	205422592	172675072	148092728	33184
803	0.462564	205422592	172675072	148636024	33184
804	0.459701	205422592	172675072	149180088	33184
805	0.446446	205422592	172675072	149724928	33184
806	0.444078	205422592	172675072	150270464	33184
807	0.470443	205692928	172675072	150816776	33184
808	0.467157	205692928	172675072	151363792	33184
809	7.605143	208125952	175820800	140086528	33184
810	0.799389	208125952	175820800	140635000	33184
811	0.493639	208125952	175820800	141184256	33184
812	0.469417	208125952	175820800	141734248	33184
813	0.448334	208125952	175820800	142285000	33184
814	0.455558	208396288	175820800	142836440	33184
815	0.452371	208396288	175820800	143388640	33184
816	0.474152	208396288	175820800	143941576	33184
817	0.467958	208396288	175820800	144495256	33184
818	0.492605	208396288	175820800	145049648	33184
819	0.787771	208666624	175820800	145604800	33184
820	0.66766	208666624	175820800	146161200	33184
821	0.540541	208666624	175820800	146722904	33184
822	0.480263	208666624	175820800	147280304	33184
823	0.487974	208666624	175820800	147838408	33184
824	0.662107	208936960	175820800	148397288	33184
825	0.500084	208936960	176345088	148956872	33184
826	0.461862	208936960	176345088	149517224	33184
827	0.463708	208936960	176345088	150078280	33184
828	0.478787	208936960	176345088	150640104	33184
829	0.476317	209207296	176345088	151202704	33184
830	0.4646	209207296	176345088	151766008	33184
831	0.493462	209207296	176345088	152330080	33184
832	0.512173	209207296	176345088	152894928	33184
833	0.483376	209207296	176345088	153459840	33184
834	0.481457	209477632	176869376	154025456	33184
835	0.473404	209477632	176869376	154591840	33184
836	0.484683	209477632	176869376	155158928	33184
837	7.780095	211910656	179490816	143966432	33184
838	0.810734	211910656	179490816	144534992	33184
839	0.537408	211910656	179490816	145104328	33184
840	0.491437	211910656	179490816	145674360	33184
841	0.483884	212180992	179490816	146245168	33184
842	0.489345	212180992	179490816	146816680	33184
843	0.483826	212180992	179490816	147388960	33184
844	0.485886	212180992	179490816	147962016	33184
845	0.491855	212180992	179490816	148535776	33184
846	0.508597	212451328	179490816	149110304	33184
847	0.492369	212451328	179490816	149685536	33184
848	0.477563	212451328	179490816	150261536	33184
849	0.492236	212451328	180015104	150838240	33184
850	0.506614	212721664	180015104	151426064	33184
851	0.499577	212721664	180015104	152004240	33184
852	0.475793	212721664	180015104	152583192	33184
853	0.510242	212721664	180015104	153162848	33184
854	0.706543	212721664	180015104	153743272	33184
855	0.48165	212992000	180015104	154324472	33184
856	0.480934	212992000	180015104	154906376	33184
857	0.496874	212992000	180015104	155489048	33184
858	0.523291	212992000	180539392	156072424	33184
859	0.48801	212992000	180539392	156656568	33184
860	0.503666	213262336	180539392	157241416	33184
861	0.510185	213262336	180539392	157827040	33184
862	0.487228	213262336	180539392	158413368	33184
863	0.500009	213262336	180539392	159000464	33184
864	8.122692	215695360	183160832	147912056	33184
865	0.809377	215695360	183160832	148499984	33184
866	0.50842	215965696	183160832	149088624	33184
867	0.487967	215965696	183160832	149678032	33184
868	0.519805	215965696	183160832	150268208	33184
869	0.504992	215965696	183160832	150859088	33184
870	0.486406	215965696	183160832	151450744	33184
871	0.501916	216236032	183160832	152043096	33184
872	0.525506	216236032	183685120	152636224	33184
873	0.490182	216236032	183685120	153230056	33184
874	0.486617	216236032	183685120	153824656	33184
875	0.69768	216506368	183685120	154419960	33184
876	0.513251	216506368	183685120	155016080	33184
877	0.494566	216506368	183685120	155612872	33184
878	0.526079	216506368	183685120	156210424	33184
879	0.513863	216506368	183685120	156808720	33184
880	0.503256	216776704	183685120	157407744	33184
881	0.542899	216776704	184209408	158007544	33184
882	0.766813	216776704	184209408	158608040	33184
883	0.500594	216776704	184209408	159209312	33184
884	0.517521	216776704	184209408	159811288	33184
885	0.514121	217047040	184209408	160414032	33184
886	0.499169	217047040	184209408	161017480	33184
887	0.532645	217047040	184209408	161621704	33184
888	0.526988	217047040	184209408	162226624	33184
889	0.499356	217317376	184209408	162832320	33184
890	10.593151	219750400	186830848	151829736	33184
891	1.08214	219750400	186830848	152436904	33184
892	0.664143	219750400	186830848	153044776	33184
893	0.714475	219750400	187355136	153653416	33184
894	0.774222	220020736	187355136	154262832	33184
895	0.6827	220020736	187355136	154872952	33184
896	0.801897	220020736	187355136	155483992	33184
897	0.81563	220020736	187355136	156094992	33184
898	1.103505	220291072	187355136	156706760	33184
899	1.112019	220291072	187355136	157319192	33184
900	1.091512	220291072	187355136	157932392	33184
901	1.483013	220291072	187355136	158546296	33184
902	1.296288	220291072	187879424	159160968	33184
903	1.198171	220561408	187879424	159776344	33184
904	1.138043	220561408	187879424	160392496	33184
905	1.061096	220561408	187879424	161009416	33184
906	1.412234	220561408	187879424	161627040	33184
907	1.332508	220831744	187879424	162245440	33184
908	1.437856	220831744	187879424	162864536	33184
909	1.63293	220831744	187879424	163484360	33184
910	1.558933	220831744	187879424	164104936	33184
911	1.66742	220831744	188403712	164726280	33184
912	1.538859	221102080	188403712	165348328	33184
913	1.694958	221102080	188403712	165971152	33184
914	1.641018	221102080	188403712	166594672	33184
915	12.777979	223535104	191025152	155631880	33184
916	2.815164	223805440	191025152	156256880	33184
917	2.066539	223805440	191025152	156882648	33184
918	2.252404	223805440	191025152	157509184	33184
919	2.15406	223805440	191025152	158136432	33184
920	2.182339	223805440	191025152	158764440	33184
921	2.733058	224075776	191025152	159393192	33184
922	2.555097	224075776	191549440	160022744	33184
923	2.371007	224075776	191549440	160652936	33184
924	2.674632	224075776	191549440	161283904	33184
925	2.77977	224346112	191549440	161915568	33184
926	2.771522	224346112	191549440	162548008	33184
927	2.885131	224346112	191549440	163181144	33184
928	3.008555	224346112	191549440	163815200	33184
929	3.054344	224346112	191549440	164449176	33184
930	2.867484	224616448	191549440	165083992	33184
931	3.320513	224616448	192073728	165719616	33184
932	3.293027	224616448	192073728	166355832	33184
933	3.883687	224616448	192073728	166992832	33184
934	3.531015	224886784	192073728	167630528	33184
935	3.295983	224886784	192073728	168269000	33184
936	3.871645	224886784	192073728	168908168	33184
937	4.164022	224886784	192073728	169548112	33184
938	10.667329	178954240	143314944	90628408	33184
939	1.49734	161652736	143314944	91270112	33184
940	0.709846	161652736	143314944	91912232	33184
941	0.610921	161652736	143314944	92555128	33184
942	0.590814	161652736	143314944	93198720	33184
943	0.551321	161652736	143314944	93843088	33184
944	8.440926	162729984	143314944	80943784	33184
945	1.213721	163270656	143314944	81589624	33184
946	0.718449	163811328	143314944	82236240	33184
947	0.704051	164352000	143314944	82883560	33184
948	0.710903	164892672	143314944	83531648	33184
949	0.730304	165703680	143314944	84180432	33184
950	0.709674	166244352	143314944	84830000	33184
951	0.718283	166785024	143314944	85480360	33184
952	0.707243	167325696	143314944	86131392	33184
953	0.702981	167866368	143314944	86783136	33184
954	0.966217	168407040	143314944	87435648	33184
955	0.619685	169218048	143314944	88088928	33184
956	0.645966	169758720	143314944	88742912	33184
957	0.651725	170299392	143314944	89397672	33184
958	0.646424	170840064	143314944	90053232	33184
959	0.667465	171380736	143314944	90709464	33184
960	0.646262	171921408	143314944	91366608	33184
961	0.650927	172732416	143314944	92023672	33184
962	0.628478	173273088	143314944	92681448	33184
963	0.650838	173813760	143314944	93339992	33184
964	0.647523	174354432	143314944	93999224	33184
965	0.704831	174895104	143314944	94659280	33184
966	0.638301	175706112	143314944	95320000	33184
967	0.655555	176246784	143314944	95981488	33184
968	0.582719	176517120	143314944	96643680	33184
969	0.520277	176517120	143314944	97306648	33184
970	0.548878	176517120	143314944	97970352	33184
971	6.201433	176517120	143839232	85643328	33184
972	0.596011	176517120	143839232	86308536	33184
973	0.55697	176517120	143839232	86974552	33184
974	0.550294	176517120	143839232	87641240	33184
975	0.60342	176517120	143839232	88308624	33184
976	0.544031	176517120	143839232	88976792	33184
977	0.55173	176517120	143839232	89645648	33184
978	0.548503	176517120	143839232	90315288	33184
979	0.547457	176517120	143839232	90985720	33184
980	0.544167	176517120	143839232	91656832	33184
981	0.587967	176517120	143839232	92328712	33184
982	0.555201	176517120	143839232	93001296	33184
983	0.553604	176517120	143839232	93674656	33184
984	0.551954	176517120	143839232	94348728	33184
985	0.534136	176517120	143839232	95023504	33184
986	0.571966	176517120	143839232	95699032	33184
987	0.534054	176517120	143839232	96375336	33184
988	0.565154	176517120	143839232	97052344	33184
989	0.551606	176517120	143839232	97730128	33184
990	0.561403	176517120	143839232	98408632	33184
991	0.558291	176517120	143839232	99087888	33184
992	0.568189	176517120	143839232	99768056	33184
993	8.403935	179220480	146984960	89316520	33184
994	0.971243	179220480	146984960	89997344	33184
995	0.582716	179220480	146984960	90678968	33184
996	0.559993	179220480	146984960	91361304	33184
997	0.555383	179220480	146984960	92044344	33184
998	0.558057	179220480	146984960	92728152	33184
999	0.560435	179220480	146984960	93412672	33184
1000	0.563099	179220480	146984960	94098120	33184
