x	Duration	RSS	HeapTotal	HeapUsed	External
0	NA	93147136	62533632	12497096	24992
1	0.532415	93147136	62533632	12545616	24992
2	0.45209	93147136	62533632	12617312	24992
3	0.270003	93147136	62533632	12722464	24992
4	0.27352	93147136	62533632	12813424	24992
5	0.287129	93147136	62533632	12908192	24992
6	0.291843	93147136	62533632	13007344	24992
7	0.298692	93147136	62533632	13110912	24992
8	0.323937	93147136	62533632	13218256	24992
9	0.321392	93147136	62533632	13329376	24992
10	0.328901	93147136	62533632	13444360	24992
11	0.343615	93147136	62533632	13563016	24992
12	0.350026	93147136	62533632	13687704	24992
13	0.418843	93147136	62533632	13817336	24992
14	0.383994	93147136	62533632	13950752	24992
15	0.162568	93147136	62533632	14087912	24992
16	0.247783	93147136	62533632	14232616	24992
17	0.170212	93147136	62533632	14379240	24992
18	0.186104	93147136	62533632	14528952	24992
19	0.175001	93147136	62533632	14682648	24992
20	0.175439	93147136	62533632	14839744	24992
21	0.182099	93147136	62533632	15000664	24992
22	0.176877	93147136	62533632	15167496	24992
23	0.17751	93147136	62533632	15335640	24992
24	0.377744	93147136	62533632	15507648	24992
25	0.173422	93147136	62533632	15685520	24992
26	0.174251	93147136	62533632	15869344	24992
27	0.175987	93147136	62533632	16056984	24992
28	0.179132	93147136	62533632	16248328	24992
29	0.180712	93147136	62533632	16443448	24992
30	0.184733	93147136	62533632	16642368	24992
31	0.187313	93147136	62533632	16845032	24992
32	0.189918	93147136	62533632	17051472	24992
33	0.191951	93147136	62533632	17261696	24992
34	0.199697	93147136	62533632	17477800	24992
35	0.198754	93147136	62533632	17697920	24992
36	0.201956	93147136	62533632	17921544	24992
37	0.208224	93147136	62533632	18148992	24992
38	0.207769	93147136	62533632	18380160	24992
39	0.210473	93147136	62533632	18615104	24992
40	0.21209	93147136	62533632	18853856	24992
41	0.217204	93147136	62533632	19096352	24992
42	0.22127	93147136	62533632	19342672	24992
43	0.224808	93147136	62533632	19594816	24992
44	0.226418	93147136	62533632	19850752	24992
45	0.230141	93147136	62533632	20111104	24992
46	0.232937	93147136	62533632	20375240	24992
47	0.236106	93147136	62533632	20642464	24992
48	0.236618	93147136	62533632	20913560	24992
49	0.241138	93147136	62533632	21188336	24992
50	0.254559	93147136	62533632	21466888	24992
51	0.247644	93147136	62533632	21753392	24992
52	0.250916	93147136	62533632	22047832	24992
53	0.25435	93147136	62533632	22346192	24992
54	0.27175	93147136	62533632	22648264	24992
55	0.265014	93147136	62533632	22954800	24992
56	0.26247	93147136	62533632	23264416	24992
57	0.277243	93147136	62533632	23577832	24992
58	0.269795	93147136	62533632	23895000	24992
59	0.272091	93147136	62533632	24215928	24992
60	0.274074	93147136	62533632	24540624	24992
61	0.279267	93147136	62533632	24869096	24992
62	0.278381	93147136	62533632	25201336	24992
63	0.281873	93147136	62533632	25537416	24992
64	0.32168	93147136	62533632	25877200	24992
65	0.290318	93147136	62533632	26220808	24992
66	0.29118	93147136	62533632	26568176	24992
67	0.294771	93147136	62533632	26919272	24992
68	0.2981	93147136	62533632	27274168	24992
69	0.301098	93147136	62533632	27634040	24992
70	0.309019	93147136	62533632	27996456	24992
71	0.306997	93147136	62533632	28362632	24992
72	0.309893	93147136	62533632	28732584	24992
73	1.089804	93147136	62533632	12972432	24992
74	0.36828	93147136	62533632	13349976	24992
75	0.32463	93147136	62533632	13731256	24992
76	0.320988	93147136	62533632	14116280	24992
77	0.325902	93147136	62533632	14509616	24992
78	0.330314	93147136	62533632	14906432	24992
79	0.332382	93147136	62533632	15306944	24992
80	0.365514	93147136	62533632	15711416	24992
81	0.374846	93147136	62533632	16120640	24992
82	0.344213	93147136	62533632	16532448	24992
83	0.345615	93147136	62533632	16948016	24992
84	0.358126	93147136	62533632	17368528	24992
85	0.354888	93147136	62533632	17791576	24992
86	0.353459	93147136	62533632	18218432	24992
87	0.353574	93147136	62533632	18649032	24992
88	0.357192	93147136	62533632	19083488	24992
89	0.361064	93147136	62533632	19521704	24992
90	0.367288	93147136	62533632	19963632	24992
91	0.36698	93147136	62533632	20409312	24992
92	0.370348	93147136	62533632	20861880	24992
93	0.378181	93147136	62533632	21315184	24992
94	0.375028	93147136	62533632	21772248	24992
95	0.383586	93147136	62533632	22233104	24992
96	0.413364	93147136	62533632	22703744	24992
97	0.418605	93147136	62533632	23176248	24992
98	0.415878	93147136	62533632	23652576	24992
99	0.42428	93147136	62533632	24132608	24992
100	0.424211	93147136	62533632	24616416	24992
101	0.430142	93147136	62533632	25104016	24992
102	0.427813	93147136	62533632	25595336	24992
103	0.438972	93147136	62533632	26091128	24992
104	0.436117	93147136	62533632	26598328	24992
105	0.441044	93147136	62533632	27118416	24992
106	0.441175	93147136	62533632	27641488	24992
107	0.728515	93147136	62533632	28168304	24992
108	0.428017	93147136	62533632	28699768	24992
109	0.425346	93147136	62533632	29234816	24992
110	0.47655	93147136	62533632	13568584	24992
111	0.463094	93147136	62533632	14110528	24992
112	0.462321	93147136	62533632	14656248	24992
113	0.466164	93147136	62533632	15205696	24992
114	0.478136	93147136	62533632	15758928	24992
115	0.47292	93147136	62533632	16315952	24992
116	0.474107	93147136	62533632	16876784	24992
117	0.479634	93147136	62533632	17441376	24992
118	0.487802	93147136	62533632	18010048	24992
119	0.452986	93147136	62533632	18582184	24992
120	0.454672	93147136	62533632	19158160	24992
121	0.456089	93147136	62533632	19737840	24992
122	0.462245	93147136	62533632	20321280	24992
123	0.464118	93147136	62533632	20908464	24992
124	0.465066	93147136	62533632	21500776	24992
125	0.474529	93147136	62533632	22095496	24992
126	0.507969	93147136	62533632	22693984	24992
127	0.511606	93147136	62533632	23296328	24992
128	0.514696	93147136	62533632	23902360	24992
129	0.527268	93147136	62533632	24512176	24992
130	0.489825	93147136	62533632	25125752	24992
131	0.487007	93147136	62533632	25743144	24992
132	0.491845	93147136	62533632	26364272	24992
133	0.495528	93147136	62533632	26989552	24992
134	0.496568	93147136	62533632	27618232	24992
135	0.497289	93147136	62533632	28256040	24992
136	0.500294	93147136	62533632	28892224	24992
137	1.03609	93147136	62533632	13264624	24992
138	0.541219	93147136	62533632	13908392	24992
139	0.537727	93147136	62533632	14555992	24992
140	0.543879	93147136	62533632	15207384	24992
141	0.544381	93147136	62533632	15862480	24992
142	0.545961	93147136	62533632	16524368	24992
143	0.549933	93147136	62533632	17190552	24992
144	0.523299	93147136	62533632	17860472	24992
145	0.527855	93147136	62533632	18530624	24992
146	0.55289	93147136	62533632	19204520	24992
147	0.533144	93147136	62533632	19882312	24992
148	0.538216	93147136	62533632	20563776	24992
149	0.537205	93147136	62533632	21249056	24992
150	0.567865	93147136	62533632	21938144	24992
151	0.547952	93147136	62533632	22630888	24992
152	0.551203	93147136	62533632	23327416	24992
153	0.588038	93147136	62533632	24027784	24992
154	0.559731	93147136	62533632	24731888	24992
155	0.557118	93147136	62533632	25439736	24992
156	0.605497	93147136	62533632	26151368	24992
157	0.56355	93147136	62533632	26866752	24992
158	0.569223	93147136	62533632	27586216	24992
159	0.583839	93147136	62533632	28309128	24992
160	0.580737	93147136	62533632	29035920	24992
161	1.015527	93147136	62533632	13463832	24992
162	0.598279	93147136	62533632	14198136	24992
163	0.584063	93147136	62533632	14936184	24992
164	0.585636	93147136	62533632	15686240	24992
165	0.600554	93147136	62533632	16440104	24992
166	0.589844	93147136	62533632	17198488	24992
167	0.592724	93147136	62533632	17959880	24992
168	0.611243	93147136	62533632	18725048	24992
169	0.60185	93147136	62533632	19494072	24992
170	0.603905	93147136	62533632	20266888	24992
171	0.617846	93147136	62533632	21043440	24992
172	0.672442	93147136	62533632	21825088	24992
173	0.657258	93147136	62533632	22609184	24992
174	0.686423	93147136	62533632	23396912	24992
175	0.829507	93147136	62533632	24191176	24992
176	0.624219	93147136	62533632	24988664	24992
177	0.629115	93147136	62533632	25789008	24992
178	0.62529	93147136	62533632	26591944	24992
179	0.630062	93147136	62533632	27398568	24992
180	0.630531	93147136	62533632	28208968	24992
181	0.63528	93147136	62533632	29023112	24992
182	1.097374	93147136	62533632	13545944	24992
183	0.687197	93147136	62533632	14367664	24992
184	0.683845	93147136	62533632	15193136	24992
185	0.671497	93147136	62533632	16022432	24992
186	0.650914	93147136	62533632	16855424	24992
187	0.649687	93147136	62533632	17693384	24992
188	0.654677	93147136	62533632	18533920	24992
189	0.656164	93147136	62533632	19378352	24992
190	0.668275	93147136	62533632	20226504	24992
191	0.663651	93147136	62533632	21078496	24992
192	0.664439	93147136	62533632	21934144	24992
193	0.683269	93147136	62533632	22793648	24992
194	0.695369	93147136	62533632	23656840	24992
195	0.721338	93147136	62533632	24523760	24992
196	0.727012	93147136	62533632	25395528	24992
197	0.728008	93147136	62533632	26270096	24992
198	0.704831	93147136	62533632	27148352	24992
199	0.693089	93147136	62533632	28030376	24992
200	0.690545	93147136	62533632	28916192	24992
201	0.717057	93147136	62533632	29814008	24992
202	0.746172	93147136	62533632	14362880	24992
203	0.759313	93147136	62533632	15268352	24992
204	0.948709	93147136	62533632	16184728	24992
205	0.724503	93147136	62533632	17097704	24992
206	0.708123	93147136	62533632	18018384	24992
207	0.716512	93147136	62533632	18938832	24992
208	0.755296	93147136	62533632	19863152	24992
209	0.717177	93147136	62533632	20807680	24992
210	0.729293	93147136	62533632	21772552	24992
211	0.724023	93147136	62533632	22741120	24992
212	0.769651	93147136	62533632	23717760	24992
213	0.730605	93147136	62533632	24695168	24992
214	0.733836	93147136	62533632	25675080	24992
215	0.751888	93147136	62533632	26658800	24992
216	0.73938	93147136	62533632	27646320	24992
217	0.735836	93147136	62533632	28637576	24992
218	0.743891	93147136	62533632	29633976	24992
219	0.784466	93147136	62533632	14325032	24992
220	0.766464	93147136	62533632	15327520	24992
221	0.753612	93147136	62533632	16333824	24992
222	0.754478	93147136	62533632	17345368	24992
223	0.75935	93147136	62533632	18361960	24992
224	0.765693	93147136	62533632	19387760	24992
225	0.769044	93147136	62533632	20409144	24992
226	0.766543	93147136	62533632	21434320	24992
227	0.805875	93147136	62533632	22463896	24992
228	0.828187	93147136	62533632	23496592	24992
229	1.018664	93147136	62533632	24535912	24992
230	0.783679	93147136	62533632	25576128	24992
231	0.833878	93147136	62533632	26627960	24992
232	0.789453	93147136	62533632	27677072	24992
233	0.793197	93147136	62533632	28735288	24992
234	0.790777	93147136	62533632	29790592	24992
235	0.809789	93147136	62533632	14514136	24992
236	0.80451	93147136	62533632	15581496	24992
237	0.801566	93147136	62533632	16648120	24992
238	0.815814	93147136	62533632	17725672	24992
239	0.808125	93147136	62533632	18799856	24992
240	0.811898	93147136	62533632	19877880	24992
241	0.815599	93147136	62533632	20959640	24992
242	0.809299	93147136	62533632	22045144	24992
243	0.871942	93147136	62533632	23134416	24992
244	0.870672	93147136	62533632	24227432	24992
245	0.877742	93147136	62533632	25324304	24992
246	0.875671	93147136	62533632	26424856	24992
247	0.89743	93147136	62533632	27529256	24992
248	0.884583	93147136	62533632	28637448	24992
249	0.864815	93147136	62533632	29749376	24992
250	0.897189	93147136	62533632	14565576	24992
251	0.897195	93147136	62533632	15692912	24992
252	0.897438	93147136	62533632	16816184	24992
253	0.902385	93147136	62533632	17943096	24992
254	0.905956	93147136	62533632	19073824	24992
255	0.908699	93147136	62533632	20208408	24992
256	0.908808	93147136	62533632	21346728	24992
257	0.916093	93147136	62533632	22494992	24992
258	0.9132	93147136	62533632	23640904	24992
259	0.875813	93147136	62533632	24790528	24992
260	0.870695	93147136	62533632	25943968	24992
261	0.89216	93147136	62533632	27101168	24992
262	0.876022	93147136	62533632	28262152	24992
263	0.883176	93147136	62533632	29426840	24992
264	1.261916	93147136	62533632	14259904	24992
265	0.898271	93147136	62533632	15432920	24992
266	0.938096	93147136	62533632	16608992	24992
267	0.933756	93147136	62533632	17789328	24992
268	0.89709	93147136	62533632	18973096	24992
269	0.896313	93147136	62533632	20165912	24992
270	0.905965	93147136	62533632	21357032	24992
271	0.907966	93147136	62533632	22551968	24992
272	0.930713	93147136	62533632	23750584	24992
273	0.913475	93147136	62533632	24953024	24992
274	0.925166	93147136	62533632	26159248	24992
275	0.911686	93147136	62533632	27369192	24992
276	0.955178	93147136	62533632	28582960	24992
277	0.920125	93147136	62533632	29804448	24992
278	1.156636	93147136	62533632	14741992	24992
279	0.935118	93147136	62533632	15967064	24992
280	0.976559	93147136	62533632	17195896	24992
281	0.93699	93147136	62533632	18433176	24992
282	0.935417	93147136	62533632	19669512	24992
283	0.93601	93147136	62533632	20910216	24992
284	0.945667	93147136	62533632	22157184	24992
285	0.941978	93147136	62533632	23404888	24992
286	0.997257	93147136	62533632	24656336	24992
287	0.951343	93147136	62533632	25911504	24992
288	0.95381	93147136	62533632	27170424	24992
289	0.952307	93147136	62533632	28433584	24992
290	0.958657	93147136	62533632	29706360	24992
291	0.987482	93147136	62533632	14685568	24992
292	0.967869	93147136	62533632	15970096	24992
293	0.983377	93147136	62533632	17247896	24992
294	0.968081	93147136	62533632	18529552	24992
295	1.194388	93147136	62533632	19821416	24992
296	0.977632	93147136	62533632	21110552	24992
297	0.978717	93147136	62533632	22405632	24992
298	1.009754	93147136	62533632	23702312	24992
299	0.98061	93147136	62533632	25002800	24992
300	0.985946	93147136	62533632	26314344	24992
301	0.988626	93147136	62533632	27622376	24992
302	1.000414	93147136	62533632	28934136	24992
303	0.994181	93147136	62533632	30249648	24992
304	1.068124	93147136	62533632	15241104	24992
305	1.065019	93147136	62533632	16570168	24992
306	1.012719	93147136	62533632	17896976	24992
307	1.009772	93147136	62533632	19232552	24992
308	1.087776	93147136	62533632	20566864	24992
309	1.083666	93147136	62533632	21907160	24992
310	1.074913	93147136	62533632	23249128	24992
311	1.051475	93147136	62533632	24594864	24992
312	1.07065	93147136	62533632	25944800	24992
313	1.025995	93147136	62533632	27298080	24992
314	1.045201	93147136	62533632	28671344	24992
315	1.029662	93147136	62533632	30032976	24992
316	1.054523	93147136	62533632	15101960	24992
317	1.048321	93147136	62533632	16470232	24992
318	1.052045	93147136	62533632	17843392	24992
319	1.059304	93147136	62533632	19219328	24992
320	1.045603	93147136	62533632	20599016	24992
321	1.068675	93147136	62533632	21982472	24992
322	1.053466	93147136	62533632	23376816	24992
323	1.053891	93147136	62533632	24767704	24992
324	1.054674	93147136	62533632	26173960	24992
325	1.06365	93147136	62533632	27573328	24992
326	1.320125	93147136	62533632	28975768	24992
327	1.068677	93147136	62533632	30381896	24992
328	1.084391	93147136	62533632	15459112	24992
329	1.075308	93147136	62533632	16874080	24992
330	1.076617	93147136	62533632	18295368	24992
331	1.294356	93147136	62533632	19716616	24992
332	1.078	93147136	62533632	21141544	24992
333	1.092227	93147136	62533632	22570184	24992
334	1.098309	93147136	62533632	24002624	24992
335	1.08895	93147136	62533632	25441216	24992
336	1.101515	93147136	62533632	26881200	24992
337	1.102304	93147136	62533632	28325016	24992
338	1.096603	93147136	62533632	29772600	24992
339	1.456842	93147136	62533632	14852208	24992
340	1.108216	93147136	62533632	16323760	24992
341	1.114811	93147136	62533632	17799136	24992
342	1.114625	93147136	62533632	19278224	24992
343	1.121115	93147136	62533632	20761160	24992
344	1.193077	93147136	62533632	22252120	24992
345	1.184268	93147136	62533632	23742520	24992
346	1.190002	93147136	62533632	25236696	24992
347	1.198182	93147136	62533632	26738016	24992
348	1.192716	93147136	62533632	28245048	24992
349	1.193568	93147136	62533632	29750712	24992
350	1.556302	93147136	62533632	14891840	24992
351	1.203019	93147136	62533632	16404888	24992
352	1.204704	93147136	62533632	17923048	24992
353	1.219235	93147136	62533632	19443672	24992
354	1.206029	93147136	62533632	20969064	24992
355	1.214689	93147136	62533632	22504896	24992
356	1.231166	93147136	62533632	24036752	24992
357	1.22151	93147136	62533632	25572336	24992
358	1.228656	93147136	62533632	27111792	24992
359	1.404259	93147136	62533632	28655008	24992
360	1.176984	93147136	62533632	30206456	24992
361	1.235306	93147136	62533632	15474328	24992
362	1.231076	93147136	62533632	17029256	24992
363	1.25028	93147136	62533632	18596848	24992
364	1.241327	93147136	62533632	20160912	24992
365	1.24617	93147136	62533632	21727968	24992
366	1.25055	93147136	62533632	23310104	24992
367	1.245987	93147136	62533632	24883520	24992
368	1.259072	93147136	62533632	26460624	24992
369	1.268597	93147136	62533632	28041552	24992
370	1.261892	93147136	62533632	29626288	24992
371	1.635337	93147136	62533632	14908520	24992
372	1.251995	93147136	62533632	16505344	24992
373	1.28582	93147136	62533632	18101448	24992
374	1.272915	93147136	62533632	19702400	24992
375	1.449071	93147136	62533632	21313752	24992
376	1.296487	93147136	62533632	22921152	24992
377	1.276854	93147136	62533632	24532248	24992
378	1.281483	93147136	62533632	26149368	24992
379	1.296555	93147136	62533632	27767944	24992
380	1.293793	93147136	62533632	29398424	24992
381	1.689422	93147136	62533632	14762704	24992
382	1.302	93147136	62533632	16395016	24992
383	1.317961	93147136	62533632	18028616	24992
384	1.309702	93147136	62533632	19674152	24992
385	1.312127	93147136	62533632	21320776	24992
386	1.328782	93147136	62533632	22965864	24992
387	1.349512	93147136	62533632	24618384	24992
388	1.318275	93147136	62533632	26270952	24992
389	1.322947	93147136	62533632	27927696	24992
390	1.32556	93147136	62533632	29590664	24992
391	1.732843	93147136	62533632	14937224	24992
392	1.333514	93147136	62533632	16611632	24992
393	1.336305	93147136	62533632	18284488	24992
394	1.344321	93147136	62533632	19959720	24992
395	1.354172	93147136	62533632	21652872	24992
396	1.342828	93147136	62533632	23356424	24992
397	1.343633	93147136	62533632	25046928	24992
398	1.366452	93147136	62533632	26737296	24992
399	1.368103	93147136	62533632	28431320	24992
400	1.35375	93147136	62533632	30138984	24992
401	1.36975	93147136	62533632	15582968	24992
402	1.372853	93147136	62533632	17290120	24992
403	1.411765	93147136	62533632	18999296	24992
404	1.291055	93147136	62533632	20712464	24992
405	1.372862	93147136	62533632	22429080	24992
406	1.386302	93147136	62533632	24149504	24992
407	1.390451	93147136	62533632	25873848	24992
408	1.376647	93147136	62533632	27618000	24992
409	1.383186	93147136	62533632	29349872	24992
410	1.713844	93147136	62533632	14832992	24992
411	1.409673	93147136	62533632	16588872	24992
412	1.390062	93147136	62533632	18348384	24992
413	1.325086	93147136	62533632	20111744	24992
414	1.356886	93147136	62533632	21878752	24992
415	1.411711	93147136	62533632	23649608	24992
416	1.406117	93147136	62533632	25424280	24992
417	1.581394	93147136	62533632	27214632	24992
418	1.411504	93147136	62533632	28996792	24992
419	1.421138	93147136	62533632	30821488	24992
420	1.420469	93147136	62533632	16339704	24992
421	1.438293	93147136	62533632	18198984	24992
422	1.424159	93147136	62533632	20071200	24992
423	1.428804	93147136	62533632	21938000	24992
424	1.693896	93147136	62533632	23808544	24992
425	1.457259	93147136	62533632	25708480	24992
426	1.440991	93147136	62533632	27588520	24992
427	1.440723	93147136	62533632	29470520	24992
428	2.05027	93147136	62533632	15062520	24992
429	1.45437	93147136	62533632	16957384	24992
430	1.456377	93147136	62533632	18850656	24992
431	1.486748	93147136	62533632	20747712	24992
432	1.46372	93147136	62533632	22675984	24992
433	1.466383	93147136	62533632	24580568	24992
434	1.462185	93147136	62533632	26488824	24992
435	1.676865	93147136	62533632	28404576	24992
436	1.46057	93147136	62533632	30331216	24992
437	1.476206	93147136	62533632	16010632	24992
438	1.476044	93147136	62533632	17934392	24992
439	1.447634	93147136	62533632	19861584	24992
440	1.488956	93147136	62533632	21792496	24992
441	1.495473	93147136	62533632	23756984	24992
442	1.483439	93147136	62533632	25695488	24992
443	1.491194	93147136	62533632	27637856	24992
444	1.495156	93147136	62533632	29584000	24992
445	1.85267	93147136	62533632	15228392	24992
446	1.68961	93147136	62533632	17181896	24992
447	1.511464	93147136	62533632	19155440	24992
448	1.504546	93147136	62533632	21116456	24992
449	1.509159	93147136	62533632	23081440	24992
450	1.519038	93147136	62533632	25050120	24992
451	1.517746	93147136	62533632	27022504	24992
452	1.557276	93147136	62533632	29005920	24992
453	1.535279	93147136	62533632	30989720	24992
454	1.525828	93147136	62533632	16639232	24992
455	1.737862	93147136	62533632	18642152	24992
456	1.535831	93147136	62533632	20633384	24992
457	1.535701	93147136	62533632	22628464	24992
458	1.549705	93147136	62533632	24627376	24992
459	1.549736	93147136	62533632	26630048	24992
460	1.723033	93147136	62533632	28636376	24992
461	1.574668	93147136	62533632	30646528	24992
462	1.559835	93147136	62533632	16350768	24992
463	1.550653	93147136	62533632	18368400	24992
464	1.554705	93147136	62533632	20389904	24992
465	1.554499	93147136	62533632	22415448	24992
466	1.570599	93147136	62533632	24445536	24992
467	1.756913	93147136	62533632	26503992	24992
468	1.566909	93147136	62533632	28543384	24992
469	1.567325	93147136	62533632	30592152	24992
470	1.575096	93147136	62533632	16373240	24992
471	1.581322	93147136	62533632	18421040	24992
472	1.577879	93147136	62533632	20472680	24992
473	1.592138	93147136	62533632	22528048	24992
474	1.561117	93147136	62533632	24587168	24992
475	1.60313	93147136	62533632	26650240	24992
476	1.597795	93147136	62533632	28717056	24992
477	1.588475	93147136	62533632	30787512	24992
478	1.599027	93147136	62533632	16562464	24992
479	1.603439	93147136	62533632	18640616	24992
480	1.607308	93147136	62533632	20722392	24992
481	1.722289	93147136	62533632	22808024	24992
482	1.617794	93147136	62533632	24897408	24992
483	1.61474	93147136	62533632	26990512	24992
484	1.796746	93147136	62533632	29101592	24992
485	1.62017	93147136	62533632	31213712	24992
486	1.633204	93147136	62533632	16953984	24992
487	1.588104	93147136	62533632	19062272	24992
488	1.555211	93147136	62533632	21174216	24992
489	1.632501	93147136	62533632	23289984	24992
490	1.643382	93147136	62533632	25409528	24992
491	1.793826	93147136	62533632	27532704	24992
492	1.66384	93147136	62533632	29670840	24992
493	2.005662	93147136	62533632	15532032	24992
494	1.843161	93147136	62533632	17666600	24992
495	1.663124	93147136	62533632	19807856	24992
496	1.649409	93147136	62533632	21949904	24992
497	1.651744	93147136	62533632	24095736	24992
498	1.665729	93147136	62533632	26247968	24992
499	1.666764	93147136	62533632	28401384	24992
500	1.662153	93147136	62533632	30558672	24992
501	1.676387	93147136	62533632	16505176	24992
502	1.669733	93147136	62533632	18670008	24992
503	1.674411	93147136	62533632	20838600	24992
504	1.834967	93147136	62533632	23010960	24992
505	1.697952	93147136	62533632	25202240	24992
506	1.694016	93147136	62533632	27382088	24992
507	1.884705	93147136	62533632	29565640	24992
508	2.094815	93147136	62533632	15512952	24992
509	1.702535	93147136	62533632	17704200	24992
510	1.704875	93147136	62533632	19899160	24992
511	1.78733	93147136	62533632	22100296	24992
512	1.622861	93147136	62533632	24302864	24992
513	1.705636	93147136	62533632	26509192	24992
514	1.707482	93147136	62533632	28719264	24992
515	1.711671	93147136	62533632	30940152	24992
516	1.718187	93147136	62533632	16868384	24992
517	1.724069	93147136	62533632	19100696	24992
518	1.724651	93147136	62533632	21325832	24992
519	1.719662	93147136	62533632	23554608	24992
520	1.734973	93147136	62533632	25787296	24992
521	1.728104	93147136	62533632	28023736	24992
522	1.727186	93147136	62533632	30263864	24992
523	2.065324	93147136	62533632	16123808	24992
524	1.939287	93147136	62533632	18371536	24992
525	1.750023	93147136	62533632	20636696	24992
526	1.884108	93147136	62533632	22892008	24992
527	1.759911	93147136	62533632	25151112	24992
528	1.768179	93147136	62533632	27420424	24992
529	1.92653	93147136	62533632	29687032	24992
530	2.122475	93147136	62533632	15688480	24992
531	1.775884	93147136	62533632	17962624	24992
532	1.794755	93147136	62533632	20240696	24992
533	1.804643	93147136	62533632	22522288	24992
534	1.794901	93147136	62533632	24813312	24992
535	1.814219	93147136	62533632	27102512	24992
536	1.784625	93147136	62533632	29395416	24992
537	2.218476	93147136	62533632	15492048	24992
538	2.001876	93147136	62533632	17798696	24992
539	1.787324	93147136	62533632	20102920	24992
540	1.795832	93147136	62533632	22413008	24992
541	1.778216	93147136	62533632	24724792	24992
542	1.796897	93147136	62533632	27045344	24992
543	1.795089	93147136	62533632	29364728	24992
544	2.212512	93147136	62533632	15492792	24992
545	1.823739	93147136	62533632	17844024	24992
546	1.725372	93147136	62533632	20174656	24992
547	1.812787	93147136	62533632	22509704	24992
548	1.817187	93147136	62533632	24865560	24992
549	1.814228	93147136	62533632	27207536	24992
550	1.818064	93147136	62533632	29553912	24992
551	2.230647	93147136	62533632	15705856	24992
552	1.835532	93147136	62533632	18059104	24992
553	1.848568	93147136	62533632	20422048	24992
554	1.845545	93147136	62533632	22782912	24992
555	1.850125	93147136	62533632	25152424	24992
556	2.043348	93147136	62533632	27533016	24992
557	1.844083	93147136	62533632	29905144	24992
558	2.21878	93147136	62533632	16013920	24992
559	2.031574	93147136	62533632	18401400	24992
560	1.781699	93147136	62533632	20806472	24992
561	1.862565	93147136	62533632	23193656	24992
562	1.866665	93147136	62533632	25587944	24992
563	1.863803	93147136	62533632	27982640	24992
564	1.869163	93147136	62533632	30387336	24992
565	2.046136	93147136	62533632	16470264	24992
566	1.784674	93147136	62533632	18876328	24992
567	1.787567	93147136	62533632	21286208	24992
568	2.055524	93147136	62533632	23707592	24992
569	1.7946	93147136	62533632	26125112	24992
570	1.901536	93147136	62533632	28546312	24992
571	1.899787	93147136	62533632	30972760	24992
572	1.880901	93147136	62533632	17164232	24992
573	1.874271	93147136	62533632	19601224	24992
574	1.840581	93147136	62533632	22037456	24992
575	1.906161	93147136	62533632	24482936	24992
576	1.903893	93147136	62533632	26926824	24992
577	1.910368	93147136	62533632	29392504	24992
578	2.314018	93147136	62533632	15658552	24992
579	1.911994	93147136	62533632	18133840	24992
580	1.913718	93147136	62533632	20605984	24992
581	1.920191	93147136	62533632	23075712	24992
582	1.922825	93147136	62533632	25546488	24992
583	1.946314	93147136	62533632	28016672	24992
584	1.944758	93147136	62533632	30492656	24992
585	2.123983	93147136	62533632	16627904	24992
586	1.947606	93147136	62533632	19112880	24992
587	1.945605	93147136	62533632	21602792	24992
588	1.872292	93147136	62533632	24092928	24992
589	1.953695	93147136	62533632	26585680	24992
590	1.938787	93147136	62533632	29082296	24992
591	1.878874	93147136	62533632	31584008	24992
592	1.952862	93147136	62533632	17802480	24992
593	1.949169	93147136	62533632	20311848	24992
594	1.964189	93147136	62533632	22824456	24992
595	1.959861	93147136	62533632	25347904	24992
596	1.978673	93147136	62533632	27872320	24992
597	1.981047	93147136	62533632	30397248	24992
598	2.281251	93147136	62533632	16574208	24992
599	2.151109	93147136	62533632	19104800	24992
600	1.961396	93147136	62533632	21646768	24992
601	1.996151	93147136	62533632	24184960	24992
602	1.930177	93147136	62533632	26731232	24992
603	1.98661	93147136	62533632	29295600	24992
604	2.376488	93147136	62533632	15669624	24992
605	2.001827	93147136	62533632	18227576	24992
606	2.006126	93147136	62533632	20786328	24992
607	2.186366	93147136	62533632	23360128	24992
608	2.009969	93147136	62533632	25924944	24992
609	1.996144	93147136	62533632	28507024	24992
610	2.18422	93147136	62533632	31088992	24992
611	2.014431	93147136	62533632	17458072	24992
612	2.010312	93147136	62533632	20037632	24992
613	2.018531	93147136	62533632	22620952	24992
614	2.018101	93147136	62533632	25208016	24992
615	2.021197	93147136	62533632	27817856	24992
616	2.038161	93147136	62533632	30415680	24992
617	2.353911	93147136	62533632	16689576	24992
618	2.213763	93147136	62533632	19293056	24992
619	1.950486	93147136	62533632	21900608	24992
620	2.052157	93147136	62533632	24513056	24992
621	2.051479	93147136	62533632	27148608	24992
622	2.047023	93147136	62533632	29768488	24992
623	2.430242	93147136	62533632	16198272	24992
624	2.063612	93147136	62533632	18836000	24992
625	2.063174	93147136	62533632	21464728	24992
626	2.224788	93147136	62533632	24097136	24992
627	2.431617	93147136	62533632	26733784	24992
628	2.071221	93147136	62533632	29386568	24992
629	2.467657	93147136	62533632	15905344	24992
630	2.097087	93147136	62533632	18569152	24992
631	2.253006	93147136	62533632	21232712	24992
632	2.027229	93147136	62533632	23904440	24992
633	2.093844	93147136	62533632	26566488	24992
634	2.090065	93147136	62533632	29229032	24992
635	2.079704	93147136	62533632	31895312	24992
636	2.098522	93147136	63057920	18288616	24992
637	2.10351	93147136	63057920	20965280	24992
638	2.105355	93147136	63057920	23642912	24992
639	2.253558	93147136	63057920	26324256	24992
640	2.099858	93147136	63057920	29017536	24992
641	2.09987	93147136	63057920	31714288	24992
642	2.105453	93147136	63057920	18152680	24992
643	2.122137	93147136	63057920	20849312	24992
644	2.299158	93147136	63057920	23549600	24992
645	2.125341	93147136	63057920	26253592	24992
646	2.121628	93147136	63057920	28966712	24992
647	2.117708	93147136	63057920	31678320	24992
648	2.12676	93147136	63057920	18141192	24992
649	2.354475	93147136	63057920	20860472	24992
650	2.075816	93147136	63057920	23583416	24992
651	2.146217	93147136	63057920	26310064	24992
652	2.082401	93147136	63057920	29040416	24992
653	2.137277	93147136	63057920	31792592	24992
654	2.15107	93147136	63057920	18295176	24992
655	2.159359	93147136	63057920	21037152	24992
656	2.163502	93147136	63057920	23782688	24992
657	2.270821	93147136	63057920	26553896	24992
658	2.158191	93147136	63057920	29306912	24992
659	2.162325	93147136	63057920	32063792	24992
660	2.178773	93147136	63057920	18482208	24992
661	2.170024	93147136	63057920	21250536	24992
662	2.285707	93147136	63057920	24031160	24992
663	2.180327	93147136	63057920	26803056	24992
664	2.180973	93147136	63057920	29586784	24992
665	2.778314	93147136	63057920	16237632	24992
666	2.16557	93147136	63057920	19024808	24992
667	2.198304	93147136	63057920	21811760	24992
668	2.34887	93147136	63057920	24605376	24992
669	2.199182	93147136	63057920	27401968	24992
670	2.243382	93147136	63057920	30216424	24992
671	2.585757	93147136	63057920	16776520	24992
672	2.143014	93147136	63057920	19583256	24992
673	2.204246	93147136	63057920	22417856	24992
674	2.20839	93147136	63057920	25233592	24992
675	2.214334	93147136	63057920	28050760	24992
676	2.159408	93147136	63057920	30871840	24992
677	2.223715	93147136	63057920	17551680	24992
678	2.203321	93147136	63057920	20395344	24992
679	2.413758	93147136	63057920	23231192	24992
680	2.224707	93147136	63057920	26076896	24992
681	2.239228	93147136	63057920	28917128	24992
682	2.234595	93147136	63057920	31775200	24992
683	2.253237	93147136	63057920	18387608	24992
684	2.275916	93147136	63057920	21238704	24992
685	2.177399	93147136	63057920	24117968	24992
686	2.249844	93147136	63057920	26980432	24992
687	2.235289	93147136	63057920	29859328	24992
688	2.665086	93147136	63057920	16588968	24992
689	2.397652	93147136	63057920	19504832	24992
690	2.248746	93147136	63057920	22404912	24992
691	2.239786	93147136	63057920	25305936	24992
692	2.302038	93147136	63057920	28203784	24992
693	2.276046	93147136	63057920	31120736	24992
694	2.273531	93147136	63057920	17887952	24992
695	2.301929	93147136	63057920	20796992	24992
696	2.590815	93147136	63057920	23709800	24992
697	2.246299	93147136	63057920	26630528	24992
698	2.283298	93147136	63057920	29551024	24992
699	2.639743	93147136	63057920	16340568	24992
700	2.301438	93147136	63057920	19268560	24992
701	2.310471	93147136	63057920	22200184	24992
702	2.292427	93147136	63057920	25135648	24992
703	2.573831	93147136	63057920	28078888	24992
704	2.314909	93147136	63057920	31021832	24992
705	2.308438	93147136	63057920	17850680	24992
706	2.289996	93147136	63057920	20823792	24992
707	2.308807	93147136	63057920	23778072	24992
708	2.33832	93147136	63057920	26736072	24992
709	2.313982	93147136	63057920	29725568	24992
710	2.91764	93147136	63057920	16569208	24992
711	2.330435	93147136	63057920	19538696	24992
712	2.323893	93147136	63057920	22532280	24992
713	2.270216	93147136	63057920	25517496	24992
714	2.343543	93147136	63057920	28498304	24992
715	2.356468	93147136	63057920	31515952	24992
716	2.341844	93147136	63057920	18325736	24992
717	2.504006	93147136	63057920	21317664	24992
718	2.50439	93147136	63057920	24321496	24992
719	2.349833	93147136	63057920	27321088	24992
720	2.33656	93147136	63057920	30330424	24992
721	2.680645	93417472	63057920	17125328	24992
722	2.376139	93417472	63057920	20136176	24992
723	2.351087	93417472	63057920	23152800	24992
724	2.699028	93417472	63057920	26172104	24992
725	2.358866	93417472	63057920	29202200	24992
726	2.37006	93417472	63057920	32228200	24992
727	2.575666	93417472	63057920	19030240	24992
728	2.346895	93417472	63057920	22077976	24992
729	2.261946	93417472	63057920	25129400	24992
730	2.38471	93417472	63057920	28176512	24992
731	2.530385	93417472	63057920	31221352	24992
732	2.400513	93417472	63057920	18147832	24992
733	2.585235	93417472	63057920	21200152	24992
734	2.349599	93417472	63057920	24256536	24992
735	2.394289	93417472	63057920	27323928	24992
736	2.530568	93417472	63057920	30388120	24992
737	2.803791	93417472	63057920	17245072	24992
738	2.32453	93417472	63057920	20319504	24992
739	2.409538	93417472	63057920	23407864	24992
740	2.580784	93417472	63057920	26487832	24992
741	2.405171	93417472	63057920	29584448	24992
742	2.726941	93417472	63057920	16566448	24992
743	2.41898	93417472	63057920	19663432	24992
744	2.413422	93417472	63057920	22761080	24992
745	2.428098	93417472	63057920	25866904	24992
746	2.441903	93417472	63057920	28968752	24992
747	2.362128	93417472	63057920	32073872	24992
748	2.462898	93417472	63057920	18958688	24992
749	2.602991	93417472	63057920	22071408	24992
750	2.447373	93417472	63057920	25215536	24992
751	2.630048	93417472	63057920	28338120	24992
752	2.466025	93417472	63057920	31490872	24992
753	2.451285	93417472	63057920	18506856	24992
754	2.461044	93417472	63057920	21652008	24992
755	2.459248	93417472	63057920	24829472	24992
756	2.468293	93417472	63057920	27973696	24992
757	2.44443	93417472	63057920	31121896	24992
758	2.387154	93417472	63057920	18164960	24992
759	2.474061	93417472	63057920	21321200	24992
760	2.481345	93417472	63057920	24475528	24992
761	2.479967	93417472	63057920	27636096	24992
762	2.638408	93417472	63057920	30797880	24992
763	2.717894	93417472	63057920	17681160	24992
764	2.484878	93417472	63057920	20850328	24992
765	2.498738	93417472	63057920	24051760	24992
766	2.441034	93417472	63057920	27253568	24992
767	2.496009	93417472	63057920	30434192	24992
768	2.758278	93417472	63057920	17404048	24992
769	2.618975	93417472	63057920	20597128	24992
770	2.499359	93417472	63057920	23801440	24992
771	2.669434	93417472	63057920	27042824	24992
772	2.379413	93417472	63057920	30242224	24992
773	2.890935	93417472	63057920	17230352	24992
774	2.412072	93417472	63057920	20437472	24992
775	3.112262	93417472	63057920	23648808	24992
776	2.652309	93417472	63057920	26874664	24992
777	2.432039	93417472	63057920	30093008	24992
778	2.876181	93417472	63057920	17182888	24992
779	2.541475	93417472	63057920	20426160	24992
780	2.542508	93417472	63057920	23658472	24992
781	2.547297	93417472	63057920	26893160	24992
782	2.553181	93417472	63057920	30131696	24992
783	2.906412	93417472	63057920	17232032	24992
784	2.693816	93417472	63057920	20493672	24992
785	2.551589	93417472	63057920	23742080	24992
786	2.682919	93417472	63057920	26997488	24992
787	2.548564	93417472	63057920	30253488	24992
788	2.915528	93417472	63057920	17324824	24992
789	2.573394	93417472	63057920	20588392	24992
790	2.564454	93417472	63057920	23885184	24992
791	2.573077	93417472	63057920	27165888	24992
792	2.571046	93417472	63057920	30443296	24992
793	2.916637	93417472	63057920	17537728	24992
794	2.58212	93417472	63057920	20834520	24992
795	2.560037	93417472	63057920	24127704	24992
796	2.582927	93417472	63057920	27417792	24992
797	2.593904	93417472	63057920	30741776	24992
798	2.94003	93417472	63057920	17853088	24992
799	2.496559	93417472	63057920	21160216	24992
800	2.60925	93417472	63057920	24465288	24992
801	2.617393	93417472	63057920	27783728	24992
802	2.600346	93417472	63057920	31096376	24992
803	3.083194	93687808	63057920	18099688	24992
804	2.624418	93687808	63057920	21445808	24992
805	2.778779	93687808	63057920	24777480	24992
806	2.607102	93687808	63057920	28105088	24992
807	2.636749	93687808	63057920	31439784	24992
808	2.629045	93687808	63057920	18725304	24992
809	2.977184	93687808	63057920	22101776	24992
810	2.631031	93687808	63057920	25450912	24992
811	2.821449	93687808	63057920	28808808	24992
812	2.64956	93687808	63057920	32159768	24992
813	2.660718	93687808	63057920	19328736	24992
814	2.652578	93687808	63057920	22686504	24992
815	2.641596	93687808	63057920	26048224	24992
816	2.650812	93687808	63057920	29413688	24992
817	2.6536	93687808	63057920	32782768	24992
818	2.663858	93687808	63057920	19915440	24992
819	2.662881	93687808	63057920	23303360	24992
820	2.673246	93687808	63057920	26683792	24992
821	2.66495	93687808	63057920	30080528	24992
822	3.165749	93687808	63057920	17416856	24992
823	2.579986	93687808	63057920	20813528	24992
824	2.595868	93687808	63057920	24211272	24992
825	2.615629	93687808	63057920	27624480	24992
826	2.697202	93687808	63057920	31027584	24992
827	3.130369	93687808	63057920	18231512	24992
828	2.716281	93687808	63057920	21642080	24992
829	2.688462	93687808	63057920	25063976	24992
830	2.701761	93687808	63057920	28482632	24992
831	2.709732	93687808	63057920	31920976	24992
832	2.711082	93687808	63057920	19306504	24992
833	2.704334	93687808	63057920	22778736	24992
834	2.720805	93687808	63057920	26228632	24992
835	2.705579	93687808	63057920	29688976	24992
836	3.260309	93687808	63057920	17102200	24992
837	2.854466	93687808	63057920	20563192	24992
838	2.929614	93687808	63057920	24034304	24992
839	2.724611	93687808	63057920	27550656	24992
840	2.727838	93687808	63057920	31130688	24992
841	3.141601	93687808	63057920	18404408	24992
842	2.697084	93687808	63057920	21949880	24992
843	2.730212	93687808	63057920	25509600	24992
844	2.728449	93687808	63057920	29106104	24992
845	2.739465	93687808	63057920	32663008	24992
846	2.751196	93687808	63057920	20066384	24992
847	2.735754	93687808	63057920	23661952	24992
848	2.724492	93687808	63057920	27274160	24992
849	2.74649	93687808	63057920	30886392	24992
850	3.241629	93687808	63057920	18309464	24992
851	3.07087	93687808	63057920	21888904	24992
852	2.765057	93687808	63057920	25472096	24992
853	2.970104	93687808	63057920	29059136	24992
854	2.719071	93687808	63057920	32650728	24992
855	2.798655	93687808	63057920	20128848	24992
856	2.716069	93687808	63057920	23741176	24992
857	3.000034	93687808	63057920	27353408	24992
858	2.789022	93687808	63057920	30965616	24992
859	3.460482	93687808	63057920	18408496	24992
860	2.785835	93687808	63057920	22045552	24992
861	2.795838	93687808	63057920	25675464	24992
862	2.754029	93687808	63057920	29313296	24992
863	2.971382	93687808	63057920	32938048	24992
864	2.813523	93687808	63057920	20396424	24992
865	2.925463	93687808	63057920	24037904	24992
866	2.811558	93687808	63057920	27674048	24992
867	2.800034	93687808	63057920	31313792	24992
868	3.249276	93687808	63057920	18699320	24992
869	2.924569	93687808	63057920	22355072	24992
870	2.798741	93687808	63057920	26006160	24992
871	3.10321	93687808	63057920	29665840	24992
872	2.821137	93687808	63057920	33334488	24992
873	2.846324	93687808	63057920	20670480	24992
874	2.840808	93687808	63057920	24339960	24992
875	2.854888	93687808	63057920	28023344	24992
876	2.839379	93687808	63057920	31696968	24992
877	2.85261	93687808	63057920	19334872	24992
878	2.836421	93687808	63057920	23020984	24992
879	2.849746	93687808	63057920	26713912	24992
880	2.839686	93687808	63057920	30408768	24992
881	3.416464	93687808	63057920	18007552	24992
882	3.032487	93687808	63057920	21718696	24992
883	2.850358	93687808	63057920	25428384	24992
884	2.862258	93687808	63057920	29144632	24992
885	2.859728	93687808	63057920	32852280	24992
886	3.001237	93687808	63057920	20411632	24992
887	2.867296	93687808	63057920	24126760	24992
888	2.989248	93687808	63057920	27855176	24992
889	2.859769	93687808	63057920	31597936	24992
890	2.900673	93687808	63057920	19055704	24992
891	3.02907	93687808	63057920	22786024	24992
892	2.895879	93687808	63057920	26520072	24992
893	2.88916	93687808	63057920	30260240	24992
894	3.524658	93687808	63057920	17972576	24992
895	2.887546	93687808	63057920	21730808	24992
896	2.898307	93687808	63057920	25493856	24992
897	3.076439	93687808	63057920	29255592	24992
898	2.913907	93687808	63057920	33012432	24992
899	3.058644	93687808	63057920	20614176	24992
900	2.75549	93687808	63057920	24384536	24992
901	2.921939	93687808	63057920	28159720	24992
902	2.921514	93687808	63057920	31931512	24992
903	2.841461	93687808	63057920	19691904	24992
904	2.91613	93687808	63057920	23495656	24992
905	2.923079	93687808	63057920	27278880	24992
906	2.97057	93687808	63057920	31100704	24992
907	3.512403	93687808	63057920	18750072	24992
908	2.92213	93687808	63057920	22553824	24992
909	2.891073	93687808	63057920	26351912	24992
910	2.963095	93687808	63057920	30156920	24992
911	3.579631	93687808	63057920	17957568	24992
912	3.107012	93687808	63057920	21767248	24992
913	2.943172	93687808	63057920	25592656	24992
914	3.061877	93687808	63057920	29413528	24992
915	2.988065	93687808	63057920	33256392	24992
916	3.120336	93687808	63057920	20924624	24992
917	2.893072	93687808	63057920	24764840	24992
918	2.964549	93687808	63057920	28597080	24992
919	2.952029	93687808	63057920	32463480	24992
920	2.894847	93687808	63057920	20288592	24992
921	2.844919	93687808	63057920	24132224	24992
922	2.975175	93687808	63057920	27979400	24992
923	3.151893	93687808	63057920	31857408	24992
924	2.992542	93687808	63057920	19705376	24992
925	2.864583	93687808	63057920	23575072	24992
926	2.952305	93687808	63057920	27447408	24992
927	2.985506	93687808	63057920	31320904	24992
928	3.593332	93687808	63057920	19049040	24992
929	3.008818	93687808	63057920	22922752	24992
930	3.098729	93687808	63057920	26833016	24992
931	3.000445	93687808	63057920	30714208	24992
932	3.585165	93687808	63057920	18476784	24992
933	3.013323	93687808	63057920	22368152	24992
934	3.124565	93687808	63057920	26288328	24992
935	3.025247	93687808	63057920	30184480	24992
936	3.738546	93687808	63057920	18090216	24992
937	3.027917	93687808	63057920	21994064	24992
938	3.022669	93687808	63057920	25932024	24992
939	3.226919	93687808	63057920	29843352	24992
940	3.039291	93687808	63057920	33761872	24992
941	3.169456	93687808	63057920	21381136	24992
942	3.04163	93687808	63057920	25325792	24992
943	3.04068	93687808	63057920	29252080	24992
944	3.045628	93687808	63057920	33203512	24992
945	3.066946	93687808	63057920	20990984	24992
946	3.235123	93687808	63057920	24963008	24992
947	2.974607	93687808	63057920	28904504	24992
948	3.21689	93687808	63057920	32849744	24992
949	3.063362	93687808	63057920	20657800	24992
950	3.161842	93687808	63057920	24610712	24992
951	3.077654	93687808	63057920	28605872	24992
952	3.058813	93687808	63057920	32566168	24992
953	2.990815	93687808	63057920	20524528	24992
954	3.023111	93687808	63057920	24525168	24992
955	3.274985	93687808	63057920	28527368	24992
956	2.956205	93687808	63057920	32502752	24992
957	3.199595	93687808	63057920	20488840	24992
958	2.936208	93687808	63057920	24478472	24992
959	3.083777	93687808	63057920	28465064	24992
960	3.100612	93687808	63057920	32461088	24992
961	3.107494	93687808	63057920	20466776	24992
962	3.162763	93687808	63057920	24483976	24992
963	3.081841	93687808	63057920	28485840	24992
964	3.127334	93687808	63057920	32494416	24992
965	3.124438	93687808	63057920	20540592	24992
966	3.325128	93687808	63057920	24583728	24992
967	2.96641	93687808	63057920	28630280	24992
968	3.118912	93687808	63057920	32650976	24992
969	3.13097	93687808	63057920	20682800	24992
970	3.120183	93687808	63057920	24721032	24992
971	3.24162	93687808	63057920	28783536	24992
972	3.131092	93687808	63057920	32826448	24992
973	3.146752	93687808	63057920	20815776	24992
974	3.152585	93687808	63057920	24859128	24992
975	3.134301	93687808	63057920	28909080	24992
976	3.298416	93687808	63057920	32995928	24992
977	3.155025	93687808	63057920	20934688	24992
978	3.166729	93687808	63057920	25000384	24992
979	3.155339	93687808	63057920	29062552	24992
980	3.103717	93687808	63057920	33128464	24992
981	3.284296	93687808	63057920	21093968	24992
982	3.167368	93687808	63057920	25221760	24992
983	3.235777	93687808	63057920	29349544	24992
984	3.322036	93687808	63057920	33477368	24992
985	3.178669	93687808	63057920	21461440	24992
986	3.346166	93687808	63057920	25549920	24992
987	3.105736	93687808	63057920	29642128	24992
988	3.315333	93687808	63057920	33738208	24992
989	3.363244	93687808	63057920	21735272	24992
990	3.232951	93687808	63057920	25864112	24992
991	3.181469	93687808	63057920	29994864	24992
992	3.196415	93687808	63057920	34123584	24992
993	3.160187	93687808	63057920	21931784	24992
994	3.171145	93687808	63057920	26050952	24992
995	3.129418	93687808	63057920	30179448	24992
996	3.86208	93687808	63057920	18322648	24992
997	3.222559	93687808	63057920	22452600	24992
998	3.155971	93687808	63057920	26586296	24992
999	3.066209	93687808	63057920	30728360	24992
1000	4.025931	93687808	63057920	18886416	24992
x	Duration	RSS	HeapTotal	HeapUsed	External
0	NA	93159424	63057920	12736776	24992
1	0.446068	93159424	63057920	12788688	24992
2	0.374226	93159424	63057920	12865464	24992
3	0.227088	93159424	63057920	12980040	24992
4	0.230054	93159424	63057920	13078936	24992
5	0.235819	93159424	63057920	13182392	24992
6	0.259591	93159424	63057920	13290040	24992
7	0.249987	93159424	63057920	13401384	24992
8	0.253702	93159424	63057920	13516672	24992
9	0.279144	93159424	63057920	13635904	24992
10	0.274574	93159424	63057920	13761320	24992
11	0.28121	93159424	63057920	13891904	24992
12	0.287589	93159424	63057920	14026376	24992
13	0.183926	93159424	63057920	14164776	24992
14	0.152486	93159424	63057920	14307136	24992
15	0.155448	93159424	63057920	14454464	24992
16	0.159344	93159424	63057920	14605776	24992
17	0.160723	93159424	63057920	14761032	24992
18	0.409111	93159424	63057920	14920264	24992
19	0.175199	93159424	63057920	15084848	24992
20	0.176895	93159424	63057920	15253720	24992
21	0.178127	93159424	63057920	15426560	24992
22	0.194582	93159424	63057920	15603304	24992
23	0.184839	93159424	63057920	15783984	24992
24	0.186372	93159424	63057920	15974416	24992
25	0.185645	93159424	63057920	16167336	24992
26	0.19013	93159424	63057920	16364200	24992
27	0.191397	93159424	63057920	16565016	24992
28	0.196373	93159424	63057920	16769752	24992
29	0.277499	93159424	63057920	16978416	24992
30	0.380673	93159424	63057920	17191944	24992
31	0.23269	93159424	63057920	17408488	24992
32	0.210805	93159424	63057920	17631128	24992
33	0.236002	93159424	63057920	17859800	24992
34	0.208846	93159424	63057920	18090880	24992
35	0.207987	93159424	63057920	18324960	24992
36	0.211034	93159424	63057920	18562968	24992
37	0.232702	93159424	63057920	18804904	24992
38	0.423473	93159424	63057920	19052136	24992
39	0.221215	93159424	63057920	19301952	24992
40	0.221461	93159424	63057920	19555792	24992
41	0.224526	93159424	63057920	19813496	24992
42	0.227994	93159424	63057920	20077264	24992
43	0.252216	93159424	63057920	20344968	24992
44	0.255492	93159424	63057920	20617648	24992
45	0.257336	93159424	63057920	20895896	24992
46	0.262844	93159424	63057920	21178848	24992
47	0.264669	93159424	63057920	21465648	24992
48	0.286449	93159424	63057920	21757376	24992
49	0.271686	93159424	63057920	22052064	24992
50	0.273915	93159424	63057920	22355008	24992
51	0.280451	93159424	63057920	22666112	24992
52	0.291982	93159424	63057920	22981064	24992
53	0.284448	93159424	63057920	23299952	24992
54	0.287785	93159424	63057920	23622776	24992
55	0.289424	93159424	63057920	23949608	24992
56	0.295532	93159424	63057920	24280376	24992
57	0.299606	93159424	63057920	24615024	24992
58	0.319129	93159424	63057920	24953624	24992
59	0.290239	93159424	63057920	25296168	24992
60	0.285793	93159424	63057920	25642632	24992
61	0.288889	93159424	63057920	25993056	24992
62	0.292589	93159424	63057920	26347736	24992
63	0.520371	93159424	63057920	26706032	24992
64	0.520248	93159424	63057920	27068376	24992
65	0.306535	93159424	63057920	27436104	24992
66	0.300182	93159424	63057920	27806208	24992
67	0.301394	93159424	63057920	28180256	24992
68	0.3055	93159424	63057920	28558232	24992
69	0.308516	93159424	63057920	28940152	24992
70	0.336639	93159424	63057920	29326000	24992
71	0.34673	93159424	63057920	13429256	24992
72	0.340334	93159424	63057920	13822984	24992
73	0.344872	93159424	63057920	14220664	24992
74	0.368063	93159424	63057920	14622304	24992
75	0.352013	93159424	63057920	15027864	24992
76	0.353339	93159424	63057920	15441512	24992
77	0.358613	93159424	63057920	15859160	24992
78	0.36241	93159424	63057920	16280704	24992
79	0.375241	93159424	63057920	16706176	24992
80	0.348768	93159424	63057920	17135792	24992
81	0.381067	93159424	63057920	17570256	24992
82	0.350356	93159424	63057920	18007464	24992
83	0.353738	93159424	63057920	18448696	24992
84	0.366323	93159424	63057920	18898336	24992
85	0.360673	93159424	63057920	19353072	24992
86	0.362901	93159424	63057920	19811704	24992
87	0.364171	93159424	63057920	20274328	24992
88	0.366495	93159424	63057920	20740896	24992
89	0.574615	93159424	63057920	21211352	24992
90	0.373547	93159424	63057920	21685752	24992
91	0.376468	93159424	63057920	22164728	24992
92	0.378867	93159424	63057920	22647008	24992
93	0.385038	93159424	63057920	23133224	24992
94	0.387268	93159424	63057920	23628040	24992
95	0.387376	93159424	63057920	24126328	24992
96	0.390155	93159424	63057920	24628512	24992
97	0.394004	93159424	63057920	25134744	24992
98	0.397335	93159424	63057920	25644904	24992
99	0.400607	93159424	63057920	26158984	24992
100	0.403265	93159424	63057920	26676976	24992
101	0.402992	93159424	63057920	27198848	24992
102	0.410569	93159424	63057920	27733000	24992
103	0.626826	93159424	63057920	28279472	24992
104	0.415547	93159424	63057920	28829816	24992
105	0.419533	93159424	63057920	29384096	24992
106	0.457321	93159424	63057920	13751640	24992
107	0.454543	93159424	63057920	14313904	24992
108	0.455572	93159424	63057920	14880008	24992
109	0.458249	93159424	63057920	15450064	24992
110	0.461854	93159424	63057920	16024496	24992
111	0.465683	93159424	63057920	16602424	24992
112	0.465965	93159424	63057920	17184304	24992
113	0.468634	93159424	63057920	17770168	24992
114	0.474484	93159424	63057920	18359992	24992
115	0.648137	93159424	63057920	18953696	24992
116	0.487979	93159424	63057920	19551336	24992
117	0.508959	93159424	63057920	20155608	24992
118	0.496877	93159424	63057920	20761200	24992
119	0.487877	93159424	63057920	21371184	24992
120	0.491247	93159424	63057920	21984632	24992
121	0.494586	93159424	63057920	22602496	24992
122	0.500761	93159424	63057920	23223760	24992
123	0.50166	93159424	63057920	23848976	24992
124	0.50402	93159424	63057920	24478112	24992
125	0.87244	93159424	63057920	25111272	24992
126	0.485947	93159424	63057920	25748288	24992
127	0.485736	93159424	63057920	26389232	24992
128	0.486802	93159424	63057920	27034184	24992
129	0.509485	93159424	63057920	27683160	24992
130	0.49094	93159424	63057920	28335952	24992
131	0.49526	93159424	63057920	28992664	24992
132	0.56553	93159424	63057920	29653328	24992
133	0.514851	93159424	63057920	14024592	24992
134	0.508444	93159424	63057920	14693136	24992
135	0.509312	93159424	63057920	15365624	24992
136	0.515391	93159424	63057920	16042392	24992
137	0.548751	93159424	63057920	16722760	24992
138	0.515279	93159424	63057920	17407032	24992
139	0.520175	93159424	63057920	18095328	24992
140	0.523792	93159424	63057920	18787512	24992
141	0.5261	93159424	63057920	19483608	24992
142	0.541142	93159424	63057920	20192792	24992
143	0.530641	93159424	63057920	20909032	24992
144	0.535216	93159424	63057920	21626136	24992
145	0.573018	93159424	63057920	22347184	24992
146	0.550907	93159424	63057920	23072136	24992
147	0.54844	93159424	63057920	23804672	24992
148	0.546951	93159424	63057920	24539096	24992
149	0.551994	93159424	63057920	25275864	24992
150	0.553947	93159424	63057920	26016600	24992
151	0.556108	93159424	63057920	26761280	24992
152	0.603615	93159424	63057920	27509904	24992
153	0.594574	93159424	63057920	28262448	24992
154	0.601991	93159424	63057920	29019016	24992
155	0.648695	93159424	63057920	29779520	24992
156	0.581779	93159424	63057920	14228184	24992
157	0.577213	93159424	63057920	14996528	24992
158	0.579449	93159424	63057920	15768792	24992
159	0.580792	93159424	63057920	16544976	24992
160	0.584278	93159424	63057920	17325096	24992
161	0.599377	93159424	63057920	18109256	24992
162	0.590546	93159424	63057920	18897232	24992
163	0.593892	93159424	63057920	19701784	24992
164	0.841488	93159424	63057920	20505880	24992
165	0.603972	93159424	63057920	21313952	24992
166	0.602128	93159424	63057920	22126040	24992
167	0.615556	93159424	63057920	22942080	24992
168	0.607253	93159424	63057920	23761952	24992
169	0.611188	93159424	63057920	24585832	24992
170	0.620791	93159424	63057920	25413912	24992
171	0.6158	93159424	63057920	26246992	24992
172	0.63947	93159424	63057920	27082656	24992
173	0.647363	93159424	63057920	27922224	24992
174	0.626177	93159424	63057920	28765704	24992
175	0.627719	93159424	63057920	29613224	24992
176	0.649531	93159424	63057920	14173336	24992
177	0.638328	93159424	63057920	15028640	24992
178	0.648109	93159424	63057920	15887936	24992
179	0.642894	93159424	63057920	16753264	24992
180	0.642623	93159424	63057920	17620400	24992
181	0.702302	93159424	63057920	18491496	24992
182	0.68866	93159424	63057920	19366520	24992
183	0.689189	93159424	63057920	20245528	24992
184	0.694272	93159424	63057920	21128440	24992
185	0.698657	93159424	63057920	22015280	24992
186	0.708457	93159424	63057920	22906208	24992
187	0.73399	93159424	63057920	23805272	24992
188	0.708038	93159424	63057920	24703976	24992
189	0.705444	93159424	63057920	25610496	24992
190	0.672832	93159424	63057920	26517072	24992
191	0.677269	93159424	63057920	27431144	24992
192	0.71402	93159424	63057920	28345616	24992
193	0.826302	93159424	63057920	29264904	24992
194	1.168453	93159424	63057920	13896096	24992
195	0.730687	93159424	63057920	14825072	24992
196	0.932838	93159424	63057920	15755312	24992
197	0.695386	93159424	63057920	16689464	24992
198	0.737509	93159424	63057920	17628440	24992
199	0.705932	93159424	63057920	18578760	24992
200	0.703811	93159424	63057920	19533016	24992
201	0.762435	93159424	63057920	20491160	24992
202	0.706217	93159424	63057920	21453312	24992
203	0.710606	93159424	63057920	22419416	24992
204	0.716814	93159424	63057920	23393608	24992
205	0.720702	93159424	63057920	24367464	24992
206	0.779447	93159424	63057920	25345328	24992
207	0.764526	93159424	63057920	26343688	24992
208	0.764679	93159424	63057920	27362544	24992
209	0.750758	93159424	63057920	28385288	24992
210	0.770851	93159424	63057920	29411992	24992
211	1.201582	93159424	63057920	14111872	24992
212	0.787358	93159424	63057920	15146384	24992
213	0.825278	93159424	63057920	16184808	24992
214	0.791113	93159424	63057920	17227248	24992
215	0.803732	93159424	63057920	18273536	24992
216	0.788264	93159424	63057920	19329976	24992
217	0.796252	93159424	63057920	20384264	24992
218	0.764953	93159424	63057920	21443480	24992
219	0.805113	93159424	63057920	22513800	24992
220	0.808254	93159424	63057920	23579864	24992
221	0.810878	93159424	63057920	24649792	24992
222	0.990775	93159424	63057920	25723648	24992
223	0.792401	93159424	63057920	26801520	24992
224	1.011232	93159424	63057920	27883632	24992
225	0.827266	93159424	63057920	28975744	24992
226	0.835369	93159424	63057920	30065536	24992
227	0.832804	93159424	63057920	14828120	24992
228	0.842727	93159424	63057920	15925680	24992
229	0.837426	93159424	63057920	17038664	24992
230	0.840167	93159424	63057920	18159344	24992
231	0.838754	93159424	63057920	19283128	24992
232	0.846811	93159424	63057920	20410784	24992
233	0.852002	93159424	63057920	21542424	24992
234	0.848644	93159424	63057920	22678064	24992
235	0.850022	93159424	63057920	23826800	24992
236	0.856733	93159424	63057920	24971168	24992
237	1.067082	93159424	63057920	26118536	24992
238	0.865906	93159424	63057920	27271832	24992
239	0.876876	93159424	63057920	28427104	24992
240	0.874802	93159424	63057920	29586368	24992
241	1.276003	93159424	63057920	14418472	24992
242	0.878759	93159424	63057920	15585544	24992
243	1.087154	93159424	63057920	16756608	24992
244	0.882711	93159424	63057920	17931544	24992
245	0.882698	93159424	63057920	19112968	24992
246	0.889186	93159424	63057920	20298096	24992
247	0.899643	93159424	63057920	21484896	24992
248	0.901282	93159424	63057920	22675784	24992
249	0.914032	93159424	63057920	23870440	24992
250	0.905035	93159424	63057920	25071408	24992
251	0.91313	93159424	63057920	26274208	24992
252	0.910101	93159424	63057920	27480728	24992
253	0.927148	93159424	63057920	28691760	24992
254	0.921311	93159424	63057920	29906136	24992
255	0.903374	93159424	63057920	14841232	24992
256	0.922127	93159424	63057920	16065584	24992
257	0.926475	93159424	63057920	17291792	24992
258	0.929651	93159424	63057920	18523120	24992
259	0.93367	93159424	63057920	19761928	24992
260	0.935857	93159424	63057920	20999880	24992
261	0.932474	93159424	63057920	22241776	24992
262	0.970629	93159424	63057920	23487784	24992
263	0.946344	93159424	63057920	24737632	24992
264	0.953061	93159424	63057920	25993976	24992
265	0.927341	93159424	63057920	27253080	24992
266	1.168341	93159424	63057920	28517904	24992
267	0.952064	93159424	63057920	29783432	24992
268	1.332888	93159424	63057920	14680128	24992
269	0.963614	93159424	63057920	15957240	24992
270	0.969081	93159424	63057920	17234680	24992
271	0.97355	93159424	63057920	18516000	24992
272	0.969409	93159424	63057920	19803144	24992
273	0.947963	93159424	63057920	21092320	24992
274	0.981622	93159424	63057920	22389440	24992
275	0.981655	93159424	63057920	23686472	24992
276	0.985641	93159424	63057920	24987512	24992
277	1.004861	93159424	63057920	26301784	24992
278	0.990527	93159424	63057920	27610744	24992
279	1.011571	93159424	63057920	28923568	24992
280	0.995656	93159424	63057920	30242232	24992
281	1.009399	93159424	63057920	15245640	24992
282	1.005028	93159424	63057920	16574408	24992
283	0.999923	93159424	63057920	17903040	24992
284	1.018107	93159424	63057920	19235640	24992
285	1.014256	93159424	63057920	20572088	24992
286	1.044717	93159424	63057920	21912472	24992
287	1.012493	93159424	63057920	23256776	24992
288	1.22836	93159424	63057920	24605104	24992
289	1.024548	93159424	63057920	25957456	24992
290	1.027961	93159424	63057920	27313744	24992
291	1.007157	93159424	63057920	28677344	24992
292	1.035834	93159424	63057920	30043952	24992
293	1.060767	93159424	63057920	15139128	24992
294	1.04068	93159424	63057920	16511056	24992
295	1.044321	93159424	63057920	17898080	24992
296	1.048157	93159424	63057920	19278728	24992
297	1.048718	93159424	63057920	20662424	24992
298	1.264046	93159424	63057920	22050696	24992
299	1.056117	93159424	63057920	23442312	24992
300	1.071226	93159424	63057920	24837928	24992
301	1.058886	93159424	63057920	26237368	24992
302	1.035287	93159424	63057920	27648768	24992
303	1.239033	93159424	63057920	29056152	24992
304	1.062072	93159424	63057920	30468896	24992
305	1.056356	93159424	63057920	15558000	24992
306	1.069761	93159424	63057920	16977264	24992
307	1.084028	93159424	63057920	18409744	24992
308	1.13212	93159424	63057920	19838840	24992
309	1.089627	93159424	63057920	21269920	24992
310	1.090832	93159424	63057920	22704832	24992
311	1.093672	93159424	63057920	24143728	24992
312	1.098598	93159424	63057920	25586560	24992
313	1.311028	93159424	63057920	27034080	24992
314	1.101159	93159424	63057920	28487936	24992
315	1.103124	93159424	63057920	29942616	24992
316	1.139012	93159424	63057920	15047736	24992
317	1.118962	93159424	63057920	16513208	24992
318	1.107106	93159424	63057920	17984800	24992
319	1.108382	93159424	63057920	19456192	24992
320	1.111861	93159424	63057920	20930656	24992
321	1.124019	93159424	63057920	22408960	24992
322	1.12259	93159424	63057920	23891160	24992
323	1.122511	93159424	63057920	25382704	24992
324	1.122561	93159424	63057920	26872792	24992
325	1.127494	93159424	63057920	28366792	24992
326	1.14372	93159424	63057920	29872376	24992
327	1.495148	93159424	63057920	15026040	24992
328	1.152099	93159424	63057920	16531960	24992
329	1.157155	93159424	63057920	18044832	24992
330	1.154598	93159424	63057920	19558576	24992
331	1.15958	93159424	63057920	21080536	24992
332	1.357425	93159424	63057920	22602096	24992
333	1.132845	93159424	63057920	24127648	24992
334	1.134272	93159424	63057920	25657152	24992
335	1.126258	93159424	63057920	27190608	24992
336	1.170581	93159424	63057920	28728056	24992
337	1.192477	93159424	63057920	30285840	24992
338	1.199798	93159424	63057920	15603808	24992
339	1.176232	93159424	63057920	17170264	24992
340	1.182121	93159424	63057920	18745024	24992
341	1.178775	93159424	63057920	20318552	24992
342	1.159244	93159424	63057920	21898168	24992
343	1.186955	93159424	63057920	23479600	24992
344	1.225356	93159424	63057920	25064920	24992
345	1.195406	93159424	63057920	26654248	24992
346	1.393198	93159424	63057920	28247536	24992
347	1.20687	93159424	63057920	29844752	24992
348	1.577373	93159424	63057920	15129456	24992
349	1.203417	93159424	63057920	16736080	24992
350	1.244593	93159424	63057920	18345512	24992
351	1.204839	93159424	63057920	19958432	24992
352	1.22043	93159424	63057920	21575304	24992
353	1.240102	93159424	63057920	23196400	24992
354	1.433556	93159424	63057920	24821104	24992
355	1.20105	93159424	63057920	26457440	24992
356	1.232942	93159424	63057920	28091536	24992
357	1.23317	93159424	63057920	29728128	24992
358	1.546519	93159424	63057920	15058536	24992
359	1.577444	93159424	63057920	16704320	24992
360	1.26744	93159424	63057920	18375256	24992
361	1.251357	93159424	63057920	20049856	24992
362	1.192631	93159424	63057920	21729256	24992
363	1.260929	93159424	63057920	23428080	24992
364	1.257489	93159424	63057920	25114632	24992
365	1.260257	93159424	63057920	26804936	24992
366	1.277166	93159424	63057920	28499200	24992
367	1.268196	93159424	63057920	30197432	24992
368	1.249127	93159424	63057920	15659408	24992
369	1.239847	93159424	63057920	17366176	24992
370	1.46716	93159424	63057920	19076160	24992
371	1.27989	93159424	63057920	20791080	24992
372	1.254048	93159424	63057920	22508984	24992
373	1.237883	93159424	63057920	24230904	24992
374	1.289054	93159424	63057920	25961288	24992
375	1.292782	93159424	63057920	27702808	24992
376	1.30857	93159424	63057920	29436560	24992
377	1.735567	93159424	63057920	14939080	24992
378	1.310867	93159424	63057920	16680688	24992
379	1.306858	93159424	63057920	18426184	24992
380	1.507554	93159424	63057920	20175648	24992
381	1.325515	93159424	63057920	21929224	24992
382	1.311049	93159424	63057920	23689816	24992
383	1.264817	93159424	63057920	25451024	24992
384	1.544176	93159424	63057920	27216144	24992
385	1.315795	93159424	63057920	28985200	24992
386	1.319415	93159424	63057920	30758224	24992
387	1.330529	93159424	63057920	16227128	24992
388	1.528842	93159424	63057920	18011440	24992
389	1.348716	93159424	63057920	19796312	24992
390	1.307821	93159424	63057920	21585680	24992
391	1.342244	93159424	63057920	23378416	24992
392	1.545322	93159424	63057920	25183656	24992
393	1.362047	93159424	63057920	26984320	24992
394	1.543984	93159424	63057920	28803168	24992
395	1.359671	93159424	63057920	30611736	24992
396	1.368691	93159424	63057920	16139144	24992
397	1.366251	93159424	63057920	17955536	24992
398	1.30759	93159424	63057920	19775904	24992
399	1.364159	93159424	63057920	21613288	24992
400	1.356004	93159424	63057920	23441504	24992
401	1.364533	93159424	63057920	25273864	24992
402	1.356583	93159424	63057920	27110064	24992
403	1.377698	93159424	63057920	28958712	24992
404	1.460283	93159424	63057920	30802664	24992
405	1.474902	93159424	63057920	16346720	24992
406	1.457486	93159424	63057920	18198440	24992
407	1.46418	93159424	63057920	20063312	24992
408	1.395105	93159424	63057920	21923008	24992
409	1.385988	93159424	63057920	23822400	24992
410	1.451982	93159424	63057920	25707408	24992
411	1.583056	93159424	63057920	27595416	24992
412	1.396731	93159424	63057920	29503368	24992
413	1.823066	93159424	63057920	15176832	24992
414	1.412642	93159424	63057920	17079168	24992
415	1.44518	93159424	63057920	18983000	24992
416	1.423337	93159424	63057920	20890736	24992
417	1.389479	93159424	63057920	22855296	24992
418	1.424337	93159424	63057920	24845992	24992
419	1.624969	93159424	63057920	26831304	24992
420	1.46925	93159424	63057920	28820664	24992
421	1.438542	93159424	63057920	30813736	24992
422	1.444879	93159424	63057920	16510752	24992
423	1.379726	93159424	63057920	18511952	24992
424	1.444947	93159424	63057920	20517072	24992
425	1.632767	93159424	63057920	22526000	24992
426	1.62064	93159424	63057920	24540392	24992
427	1.456816	93159424	63057920	26557896	24992
428	1.452468	93159424	63057920	28583240	24992
429	1.459801	93159424	63057920	30632048	24992
430	1.626568	93159424	63057920	16419528	24992
431	1.475754	93159424	63057920	18452280	24992
432	1.480992	93159424	63057920	20488776	24992
433	1.474639	93159424	63057920	22529416	24992
434	1.469613	93159424	63057920	24581440	24992
435	1.477368	93159424	63057920	26647904	24992
436	1.48778	93159424	63057920	28714512	24992
437	1.689721	93159424	63057920	30780976	24992
438	1.499025	93159424	63057920	16546696	24992
439	1.492037	93159424	63057920	18610824	24992
440	1.465434	93159424	63057920	20678912	24992
441	1.453687	93159424	63057920	22750888	24992
442	1.505077	93159424	63057920	24826824	24992
443	1.522813	93159424	63057920	26906688	24992
444	1.499489	93159424	63057920	28990568	24992
445	1.510492	93159424	63057920	31078400	24992
446	1.519085	93159424	63057920	16897512	24992
447	1.446991	93159424	63057920	19003432	24992
448	1.728877	93159424	63057920	21103168	24992
449	1.534538	93159424	63057920	23206616	24992
450	1.523351	93159424	63057920	25314048	24992
451	1.52975	93159424	63057920	27425464	24992
452	1.530686	93159424	63057920	29540688	24992
453	1.961161	93159424	63057920	15454880	24992
454	1.540569	93159424	63057920	17578072	24992
455	1.557991	93159424	63057920	19705224	24992
456	1.551604	93159424	63057920	21836336	24992
457	1.551232	93159424	63057920	23971304	24992
458	1.543235	93159424	63057920	26110232	24992
459	1.545543	93159424	63057920	28256952	24992
460	1.549838	93159424	63057920	30420320	24992
461	1.570847	93159424	63057920	16394832	24992
462	1.713161	93159424	63057920	18589344	24992
463	1.5754	93159424	63057920	20747992	24992
464	1.581661	93159424	63057920	22910624	24992
465	1.563479	93159424	63057920	25077064	24992
466	1.571928	93159424	63057920	27254728	24992
467	1.541561	93159424	63057920	29445904	24992
468	2.014989	93159424	63057920	15425328	24992
469	1.527156	93159424	63057920	17613248	24992
470	1.784254	93159424	63057920	19799440	24992
471	1.59795	93159424	63057920	21989584	24992
472	1.797173	93159424	63057920	24197720	24992
473	1.599783	93159424	63057920	26399224	24992
474	1.608429	93159424	63057920	28601176	24992
475	1.601974	93159424	63057920	30807016	24992
476	1.617063	93159424	63057920	16787976	24992
477	1.54173	93159424	63057920	19001600	24992
478	1.612132	93159424	63057920	21226144	24992
479	1.603565	93159424	63057920	23447912	24992
480	1.626886	93159424	63057920	25673424	24992
481	1.63391	93159424	63057920	27902920	24992
482	1.826218	93159424	63057920	30136408	24992
483	2.017389	93159424	63057920	16088536	24992
484	1.643957	93159424	63057920	18329928	24992
485	1.631671	93159424	63057920	20575104	24992
486	1.640411	93159424	63057920	22827696	24992
487	1.642356	93159424	63057920	25080864	24992
488	1.641665	93159424	63057920	27337928	24992
489	1.64466	93159424	63057920	29611760	24992
490	2.084445	93159424	63057920	15689520	24992
491	1.655583	93159424	63057920	17958480	24992
492	1.674386	93159424	63057920	20233856	24992
493	1.660337	93159424	63057920	22510664	24992
494	1.660277	93159424	63057920	24791376	24992
495	1.857306	93159424	63057920	27089256	24992
496	1.672293	93159424	63057920	29377816	24992
497	2.117214	93159424	63057920	15497744	24992
498	1.697148	93159424	63057920	17809200	24992
499	1.690886	93159424	63057920	20109664	24992
500	1.688982	93159424	63057920	22432328	24992
501	1.679149	93159424	63057920	24743160	24992
502	1.682885	93159424	63057920	27056576	24992
503	1.647405	93159424	63057920	29372768	24992
504	2.336012	93159424	63057920	15519456	24992
505	1.691189	93159424	63057920	17861856	24992
506	1.690287	93159424	63057920	20189848	24992
507	1.707551	93159424	63057920	22541304	24992
508	1.701979	93159424	63057920	24877136	24992
509	1.710938	93159424	63057920	27217448	24992
510	1.714635	93159424	63057920	29581392	24992
511	2.303257	93159424	63057920	15751544	24992
512	1.650001	93159424	63057920	18107000	24992
513	1.731507	93159424	63057920	20475840	24992
514	1.902261	93159424	63057920	22835344	24992
515	1.731436	93159424	63057920	25200752	24992
516	1.735101	93159424	63057920	27577024	24992
517	1.778923	93159424	63057920	29948448	24992
518	2.097619	93159424	63057920	16066896	24992
519	1.73958	93159424	63057920	18455656	24992
520	1.738199	93159424	63057920	20850032	24992
521	1.663418	93159424	63057920	23237072	24992
522	1.746212	93159424	63057920	25631640	24992
523	1.744224	93159424	63057920	28026568	24992
524	1.732907	93159424	63057920	30428944	24992
525	2.068442	93159424	63057920	16465112	24992
526	1.760016	93159424	63057920	18887744	24992
527	1.763584	93159424	63057920	21298512	24992
528	1.778014	93159424	63057920	23719760	24992
529	1.688427	93159424	63057920	26139576	24992
530	1.691534	93159424	63057920	28562032	24992
531	1.699927	93159424	63057920	31004664	24992
532	1.777492	93159424	63057920	17232376	24992
533	1.775809	93159424	63057920	19673840	24992
534	1.788932	93159424	63057920	22114272	24992
535	1.78542	93159424	63057920	24557032	24992
536	1.970356	93159424	63057920	27003104	24992
537	1.799342	93159424	63057920	29454264	24992
538	2.245323	93159424	63057920	15754000	24992
539	1.79327	93159424	63057920	18212368	24992
540	1.795815	93159424	63057920	20676136	24992
541	1.960172	93159424	63057920	23142168	24992
542	1.805269	93159424	63057920	25626032	24992
543	1.725002	93159424	63057920	28099744	24992
544	1.773436	93159424	63057920	30584184	24992
545	1.791284	93159424	63057920	16706120	24992
546	1.730859	93159424	63057920	19204544	24992
547	1.825481	93159424	63057920	21715048	24992
548	1.842432	93159424	63057920	24209640	24992
549	1.835355	93159424	63057920	26708584	24992
550	1.79005	93159424	63057920	29209872	24992
551	1.857299	93159424	63057920	31715800	24992
552	1.844656	93159424	63057920	17892016	24992
553	1.857617	93159424	63057920	20405224	24992
554	1.857647	93159424	63057920	22943760	24992
555	2.025909	93159424	63057920	25469880	24992
556	2.017766	93159424	63057920	28022048	24992
557	1.867591	93159424	63057920	30591344	24992
558	1.88784	93159424	63057920	16817352	24992
559	2.075221	93159424	63057920	19409328	24992
560	1.89587	93159424	63057920	21993480	24992
561	1.903275	93159424	63057920	24577488	24992
562	1.884593	93159424	63057920	27161608	24992
563	1.884958	93159424	63057920	29762320	24992
564	2.303986	93159424	63057920	16165248	24992
565	1.854925	93159424	63057920	18764312	24992
566	1.886713	93159424	63057920	21363776	24992
567	1.897957	93159424	63057920	23969232	24992
568	1.888364	93159424	63057920	26575464	24992
569	1.898896	93159424	63057920	29193600	24992
570	1.901951	93159424	63057920	31807896	24992
571	1.912688	93159424	63057920	18094816	24992
572	1.911833	93159424	63057920	20734496	24992
573	2.252786	93159424	63057920	23361344	24992
574	1.93578	93159424	63057920	25997184	24992
575	1.917264	93159424	63057920	28636056	24992
576	2.089354	93159424	63057920	31273816	24992
577	1.932259	93159424	63057920	17693512	24992
578	1.927912	93159424	63057920	20339088	24992
579	1.857758	93159424	63057920	22996568	24992
580	1.930308	93159424	63057920	25650064	24992
581	1.930827	93159424	63057920	28307584	24992
582	1.851826	93159424	63057920	30994160	24992
583	1.942521	93159424	63057920	17515248	24992
584	1.946106	93159424	63057920	20187792	24992
585	1.945948	93159424	63057920	22880416	24992
586	1.949405	93159424	63057920	25561136	24992
587	2.145139	93159424	63057920	28242384	24992
588	1.958853	93159424	63057920	30929288	24992
589	1.976887	93159424	63057920	17481488	24992
590	1.973082	93159424	63057920	20174440	24992
591	1.962733	93159424	63057920	22871264	24992
592	1.96779	93159424	63057920	25572144	24992
593	1.968069	93159424	63057920	28276880	24992
594	1.974126	93159424	63057920	30985496	24992
595	2.173952	93159424	63057920	17560648	24992
596	1.996567	93159424	63057920	20280240	24992
597	2.024386	93159424	63057920	23004328	24992
598	2.017568	93159424	63057920	25730368	24992
599	1.992393	93159424	63057920	28458632	24992
600	1.904736	93159424	63057920	31191080	24992
601	1.929066	93159424	63057920	17791648	24992
602	1.995393	93159424	63057920	20531968	24992
603	1.998247	93159424	63057920	23288928	24992
604	2.013277	93159424	63057920	26036880	24992
605	1.972836	93159424	63057920	28789776	24992
606	2.020585	93159424	63057920	31553704	24992
607	1.970755	93159424	63057920	18069120	24992
608	2.024248	93159424	63057920	20838232	24992
609	2.006151	93159424	63057920	23606088	24992
610	2.016562	93159424	63057920	26377784	24992
611	2.023944	93159424	63057920	29160432	24992
612	1.953804	93159424	63057920	31955488	24992
613	2.031997	93159424	63057920	18454608	24992
614	2.039669	93159424	63057920	21242096	24992
615	2.034139	93159424	63057920	24035656	24992
616	2.036707	93159424	63057920	26831176	24992
617	1.992272	93159424	63057920	29646312	24992
618	2.50324	93159424	63057920	16325544	24992
619	2.050474	93159424	63057920	19141896	24992
620	2.053368	93159424	63057920	21953416	24992
621	2.069752	93159424	63057920	24771280	24992
622	2.074672	93159424	63057920	27614512	24992
623	2.279938	93159424	63057920	30442672	24992
624	2.429044	93159424	63057920	17032760	24992
625	2.029159	93159424	63057920	19864000	24992
626	2.073307	93159424	63057920	22698832	24992
627	2.274986	93159424	63057920	25541728	24992
628	2.080605	93159424	63057920	28384384	24992
629	2.078242	93159424	63057920	31231416	24992
630	2.062009	93159424	63057920	17961616	24992
631	2.073692	93159424	63057920	20818312	24992
632	2.093737	93159424	63057920	23680392	24992
633	2.065199	93159424	63057920	26542760	24992
634	2.10115	93159424	63057920	29412648	24992
635	2.743777	93159424	63057920	16175168	24992
636	2.104673	93159424	63057920	19064880	24992
637	2.111399	93159424	63057920	21942968	24992
638	2.115975	93159424	63057920	24825912	24992
639	2.124743	93159424	63057920	27726632	24992
640	2.293008	93159424	63057920	30622328	24992
641	2.465044	93159424	63057920	17230528	24992
642	2.128619	93159424	63057920	20130448	24992
643	2.093195	93159424	63057920	23032096	24992
644	2.092629	93159424	63057920	25945352	24992
645	2.146758	93159424	63057920	28854792	24992
646	2.138092	93159424	63057920	31768256	24992
647	2.149012	93159424	63057920	18457928	24992
648	2.095966	93159424	63057920	21379368	24992
649	2.145297	93159424	63057920	24335512	24992
650	2.319429	93159424	63057920	27274872	24992
651	2.158818	93159424	63057920	30208192	24992
652	2.510771	93159424	63057920	16916632	24992
653	2.114596	93159424	63057920	19865520	24992
654	2.171985	93159424	63057920	22838728	24992
655	2.349236	93159424	63057920	25789336	24992
656	2.155661	93159424	63057920	28742248	24992
657	2.170433	93159424	63057920	31706208	24992
658	2.126646	93159424	63057920	18464088	24992
659	2.197146	93159424	63057920	21451680	24992
660	2.352821	93159424	63057920	24424696	24992
661	2.185059	93159424	63057920	27397256	24992
662	2.207778	93159424	63057920	30373704	24992
663	2.480627	93159424	63057920	17131432	24992
664	2.16846	93159424	63057920	20140584	24992
665	2.160644	93159424	63057920	23128904	24992
666	2.204491	93159424	63057920	26133864	24992
667	2.120372	93159424	63057920	29134640	24992
668	2.107005	93159424	63057920	32134888	24992
669	2.179681	93159424	63057920	18913768	24992
670	2.416618	93159424	63057920	21938712	24992
671	2.21658	93159424	63057920	24950712	24992
672	2.207036	93159424	63057920	27968736	24992
673	2.231668	93159424	63057920	30993992	24992
674	2.245747	93159424	63057920	17944864	24992
675	2.250965	93159424	63057920	20974200	24992
676	2.191019	93159424	63057920	24029376	24992
677	2.432865	93159424	63057920	27065080	24992
678	2.24614	93159424	63057920	30104616	24992
679	2.64291	93159424	63057920	16956496	24992
680	2.240238	93159424	63057920	20008976	24992
681	2.255849	93159424	63057920	23065848	24992
682	2.493737	93159424	63057920	26142352	24992
683	2.165391	93159424	63057920	29211936	24992
684	2.208977	93159424	63057920	32292952	24992
685	2.274207	93159424	63057920	19080272	24992
686	2.267817	93159424	63057920	22179968	24992
687	2.267759	93159424	63057920	25277648	24992
688	2.270457	93159424	63057920	28375328	24992
689	2.477462	93159424	63057920	31481344	24992
690	2.290329	93159424	63057920	18494968	24992
691	2.270378	93159424	63057920	21620088	24992
692	2.18264	93159424	63057920	24734208	24992
693	2.287146	93159424	63057920	27875976	24992
694	2.299218	93159424	63057920	30999312	24992
695	2.216094	93159424	63057920	17778208	24992
696	2.296584	93159424	63057920	20907192	24992
697	2.303603	93159424	63057920	24038160	24992
698	2.316689	93159424	63057920	27172928	24992
699	2.29936	93159424	63057920	30331928	24992
700	2.879442	93159424	63057920	17266432	24992
701	2.24353	93159424	63057920	20429824	24992
702	2.3044	93159424	63057920	23585424	24992
703	2.448027	93159424	63057920	26752472	24992
704	2.319774	93159424	63057920	29911008	24992
705	2.818088	93159424	63057920	16985584	24992
706	2.320028	93159424	63057920	20151944	24992
707	2.333637	93159424	63057920	23333744	24992
708	2.343008	93159424	63057920	26508040	24992
709	2.334577	93159424	63057920	29692760	24992
710	2.974606	93159424	63057920	16804096	24992
711	2.346196	93159424	63057920	19992800	24992
712	2.340123	93159424	63057920	23206976	24992
713	2.529122	93159424	63057920	26427816	24992
714	2.299977	93159424	63057920	29625544	24992
715	2.79317	93159424	63057920	16752736	24992
716	2.281195	93159424	63057920	19958320	24992
717	2.506673	93159424	63057920	23169800	24992
718	2.372775	93159424	63057920	26385120	24992
719	2.358453	93159424	63057920	29612696	24992
720	2.725519	93159424	63057920	16762240	24992
721	2.415822	93159424	63057920	19987664	24992
722	2.270926	93159424	63057920	23218184	24992
723	2.390705	93159424	63057920	26451560	24992
724	2.797614	93159424	63057920	29688744	24992
725	2.87514	93159424	63057920	16860480	24992
726	2.580314	93159424	63057920	20106856	24992
727	2.359344	93159424	63057920	23356392	24992
728	2.380631	93159424	63057920	26612000	24992
729	2.394454	93159424	63057920	29868920	24992
730	2.893389	93159424	63057920	17064336	24992
731	2.348382	93159424	63057920	20339696	24992
732	2.414155	93159424	63057920	23616184	24992
733	2.572422	93159424	63057920	26889080	24992
734	2.40865	93159424	63057920	30172912	24992
735	2.859709	93159424	63057920	17258312	24992
736	2.41859	93159424	63057920	20547600	24992
737	2.413727	93159424	63057920	23837504	24992
738	2.428005	93159424	63057920	27163152	24992
739	2.439216	93159424	63057920	30459512	24992
740	2.758001	93159424	63057920	17560528	24992
741	2.428483	93159424	63057920	20867320	24992
742	2.446142	93159424	63057920	24187920	24992
743	2.427179	93159424	63057920	27500072	24992
744	2.630945	93159424	63057920	30832928	24992
745	2.781623	93159424	63057920	17893264	24992
746	2.644891	93159424	63057920	21217168	24992
747	2.453899	93159424	63057920	24545072	24992
748	2.351557	93159424	63057920	27876792	24992
749	2.464795	93159424	63057920	31212616	24992
750	2.472585	93159424	63057920	18493368	24992
751	2.357858	93159424	63057920	21843696	24992
752	2.417904	93159424	63057920	25219416	24992
753	2.654008	93159424	63057920	28573360	24992
754	2.459407	93159424	63057920	31934896	24992
755	2.621099	93159424	63057920	19116232	24992
756	2.374356	93159424	63057920	22482816	24992
757	2.661312	93159424	63057920	25850688	24992
758	2.474302	93159424	63057920	29221744	24992
759	2.475404	93159424	63057920	32596864	24992
760	2.542479	93159424	63057920	19739048	24992
761	2.503401	93159424	63057920	23129608	24992
762	2.463332	93159424	63057920	26516624	24992
763	2.499282	93159424	63057920	29913088	24992
764	3.003428	93159424	63057920	17260144	24992
765	2.509656	93159424	63057920	20659328	24992
766	2.631969	93159424	63057920	24078896	24992
767	2.515357	93159424	63057920	27485552	24992
768	2.527166	93159424	63057920	30904584	24992
769	2.847473	93159424	63057920	18063920	24992
770	2.913886	93159424	63057920	21489384	24992
771	2.531617	93159424	63057920	24912584	24992
772	2.733033	93159424	63057920	28355168	24992
773	2.488776	93159424	63057920	31799888	24992
774	2.562607	93159424	63057920	19199880	24992
775	3.137742	93159424	63057920	22638248	24992
776	2.806631	93159424	63057920	26089376	24992
777	2.708458	93159424	63057920	29564968	24992
778	3.067348	93159424	63057920	16989016	24992
779	2.456642	93159424	63057920	20442768	24992
780	2.495652	93159424	63057920	23921200	24992
781	2.515188	93159424	63057920	27395184	24992
782	2.568595	93159424	63057920	30893512	24992
783	2.953561	93159424	63057920	18157624	24992
784	2.580296	93159424	63057920	21637264	24992
785	2.472848	93159424	63057920	25114752	24992
786	2.534813	93159424	63057920	28614328	24992
787	2.703389	93159424	63057920	32124232	24992
788	2.592415	93159424	63057920	19464088	24992
789	2.602527	93159424	63057920	22984000	24992
790	2.58308	93159424	63057920	26488000	24992
791	2.747354	93159424	63057920	29989520	24992
792	3.077135	93159424	63057920	17500760	24992
793	2.736369	93159424	63057920	21010936	24992
794	2.586013	93159424	63057920	24527760	24992
795	2.666857	93159424	63057920	28074720	24992
796	2.624098	93159424	63057920	31595504	24992
797	2.796746	93159424	63057920	19110752	24992
798	2.615108	93159424	63057920	22639512	24992
799	2.742682	93159424	63057920	26184800	24992
800	2.637558	93159424	63057920	29724160	24992
801	3.201926	93159424	63057920	17295872	24992
802	2.630772	93159424	63057920	20840328	24992
803	2.795418	93159424	63057920	24401352	24992
804	2.633158	93159424	63057920	27989576	24992
805	2.635925	93159424	63057920	31545792	24992
806	2.657331	93159424	63057920	19096144	24992
807	2.544172	93159424	63057920	22676672	24992
808	2.652599	93159424	63057920	26275192	24992
809	2.644629	93159424	63057920	29847216	24992
810	3.231985	93159424	63057920	17417664	24992
811	2.641378	93159424	63057920	21024712	24992
812	2.663488	93159424	63057920	24636952	24992
813	2.782681	93159424	63057920	28249224	24992
814	2.678641	93159424	63057920	31861464	24992
815	2.669629	93159424	63057920	19455648	24992
816	2.672191	93159424	63057920	23060656	24992
817	2.673762	93159424	63057920	26673824	24992
818	2.638679	93159424	63057920	30287056	24992
819	3.063549	93159424	63057920	17801216	24992
820	2.681746	93159424	63057920	21434632	24992
821	2.666264	93159424	63057920	25064456	24992
822	2.694565	93159424	63057920	28690176	24992
823	2.69718	93159424	63057920	32318984	24992
824	2.696304	93159424	63057920	19827360	24992
825	2.69178	93159424	63057920	23462536	24992
826	2.706392	93159424	63057920	27101640	24992
827	2.74244	93159424	63057920	30782344	24992
828	3.166449	93159424	63057920	18279672	24992
829	2.593529	93159424	63057920	21947040	24992
830	2.712772	93159424	63057920	25641344	24992
831	2.596708	93159424	63057920	29321032	24992
832	2.72943	93159424	63057920	33047728	24992
833	2.672253	93159424	63057920	20544456	24992
834	2.719963	93159424	63057920	24247600	24992
835	2.728439	93159424	63057920	27946448	24992
836	2.620977	93159424	63057920	31641184	24992
837	2.734476	93159424	63057920	19360120	24992
838	2.975323	93159424	63057920	23098304	24992
839	3.049105	93159424	63057920	26909352	24992
840	2.894901	93159424	63057920	30685472	24992
841	3.171713	93159424	63057920	18318960	24992
842	2.736057	93159424	63057920	22104064	24992
843	2.932526	93159424	63057920	25908992	24992
844	2.685499	93159424	63057920	29700968	24992
845	3.530305	93159424	63057920	17526744	24992
846	2.757626	93159424	63057920	21348520	24992
847	2.779092	93159424	63057920	25152328	24992
848	2.769551	93159424	63057920	28965440	24992
849	2.963319	93159424	63057920	32777168	24992
850	2.790711	93159424	63057920	20504888	24992
851	2.756449	93159424	63057920	24388264	24992
852	2.785817	93159424	63057920	28263464	24992
853	2.784123	93159424	63057920	32167336	24992
854	2.95517	93159424	63057920	20097224	24992
855	2.67564	93159424	63057920	23995064	24992
856	2.800425	93159424	63057920	27885936	24992
857	2.690387	93159424	63057920	31791352	24992
858	2.830668	93159424	63057920	19745480	24992
859	2.814402	93159424	63057920	23648296	24992
860	2.799834	93159424	63057920	27596728	24992
861	2.77536	93159424	63057920	31507320	24992
862	2.818392	93159424	63057920	19154136	24992
863	2.821734	93159424	63057920	23087672	24992
864	2.826234	93159424	63057920	27039840	24992
865	2.824654	93159424	63057920	30966168	24992
866	3.545698	93159424	63057920	18767064	24992
867	2.824853	93159424	63057920	22705216	24992
868	2.992053	93159424	63057920	26668568	24992
869	3.047407	93159424	63057920	30611152	24992
870	3.315897	93159424	63057920	18442976	24992
871	2.842704	93159424	63057920	22393008	24992
872	3.00418	93159424	63057920	26346968	24992
873	2.844222	93159424	63057920	30323352	24992
874	3.497322	93159424	63057920	18258016	24992
875	2.857135	93159424	63057920	22226216	24992
876	2.863404	93159424	63057920	26216512	24992
877	2.869473	93159424	63057920	30218664	24992
878	3.516708	93159424	63057920	18245304	24992
879	3.042054	93159424	63057920	22230864	24992
880	2.867749	93159424	63057920	26247296	24992
881	2.806589	93159424	63057920	30253304	24992
882	3.55621	93159424	63057920	18297720	24992
883	3.088042	93159424	63057920	22295568	24992
884	2.882143	93159424	63057920	26311856	24992
885	3.018581	93159424	63057920	30333480	24992
886	3.559545	93159424	63057920	18329520	24992
887	2.88425	93159424	63057920	22342528	24992
888	2.889205	93159424	63057920	26387272	24992
889	2.902522	93159424	63057920	30449040	24992
890	3.521562	93159424	63057920	18399960	24992
891	2.836871	93159424	63057920	22428752	24992
892	2.914896	93159424	63057920	26464088	24992
893	3.102823	93159424	63057920	30513480	24992
894	3.646374	93159424	63057920	18493640	24992
895	2.787522	93159424	63057920	22538288	24992
896	3.120304	93159424	63057920	26586704	24992
897	2.926936	93159424	63057920	30646384	24992
898	3.395074	93159424	63057920	18588680	24992
899	2.934615	93159424	63057920	22649088	24992
900	2.928498	93159424	63057920	26713336	24992
901	2.912495	93159424	63057920	30786328	24992
902	3.450304	93159424	63057920	18732800	24992
903	2.950156	93159424	63057920	22862544	24992
904	2.943329	93159424	63057920	26990400	24992
905	3.11744	93159424	63057920	31119368	24992
906	3.475562	93159424	63057920	19120480	24992
907	3.09691	93159424	63057920	23212296	24992
908	2.951331	93159424	63057920	27308064	24992
909	2.943346	93159424	63057920	31407672	24992
910	3.517145	93159424	63057920	19330224	24992
911	2.849121	93159424	63057920	23445712	24992
912	3.146828	93159424	63057920	27574464	24992
913	2.979556	93159424	63057920	31711592	24992
914	3.001703	93159424	63057920	19625232	24992
915	2.975214	93159424	63057920	23748544	24992
916	3.098327	93159424	63057920	27875688	24992
917	3.138935	93159424	63057920	32006792	24992
918	3.110228	93159424	63057920	20206824	24992
919	3.007953	93159424	63057920	24345896	24992
920	2.984695	93159424	63057920	28488928	24992
921	2.995336	93159424	63057920	32658912	24992
922	3.000446	93159424	63057920	20822392	24992
923	3.113326	93159424	63057920	24998960	24992
924	2.948059	93159424	63057920	29187088	24992
925	3.165778	93159424	63057920	33362976	24992
926	3.011563	93159424	63057920	21417376	24992
927	2.948854	93159424	63057920	25626800	24992
928	3.012769	93159424	63057920	29825376	24992
929	3.653349	93159424	63057920	18078176	24992
930	3.191647	93159424	63057920	22260704	24992
931	2.958842	93159424	63057920	26447104	24992
932	3.036676	93159424	63057920	30637392	24992
933	3.733072	93159424	63057920	18785280	24992
934	3.035545	93159424	63057920	22987688	24992
935	3.021391	93159424	63057920	27193960	24992
936	3.015705	93159424	63057920	31440680	24992
937	3.691916	93159424	63057920	19535304	24992
938	3.047623	93159424	63057920	23750656	24992
939	3.182519	93159424	63057920	27968488	24992
940	3.065884	93159424	63057920	32190272	24992
941	2.959733	93159424	63057920	20521776	24992
942	2.971168	93159424	63057920	24799344	24992
943	3.01282	93159424	63057920	29032936	24992
944	3.186198	93159424	63057920	33270584	24992
945	3.012511	93159424	63057920	21395168	24992
946	3.214467	93159424	63057920	25691320	24992
947	3.066345	93159424	63057920	29990648	24992
948	3.879986	93159424	63057920	18327640	24992
949	3.259698	93159424	63057920	22625416	24992
950	3.056424	93159424	63057920	26927928	24992
951	3.176521	93159424	63057920	31193112	24992
952	3.700517	93159424	63057920	19351352	24992
953	3.119956	93159424	63057920	23624480	24992
954	3.080301	93159424	63057920	27901440	24992
955	2.975513	93159424	63057920	32188992	24992
956	2.980991	93159424	63057920	20558016	24992
957	3.05132	93159424	63057920	24859056	24992
958	3.124631	93159424	63057920	29151680	24992
959	3.11412	93159424	63057920	33452560	24992
960	3.037266	93159424	63057920	21678808	24992
961	3.12725	93159424	63057920	26009664	24992
962	3.123727	93159424	63057920	30318056	24992
963	3.87053	93159424	63057920	18729664	24992
964	3.123836	93159424	63057920	23046000	24992
965	3.338603	93159424	63057920	27384192	24992
966	3.140318	93159424	63057920	31720024	24992
967	3.941866	93159424	63057920	19847296	24992
968	3.099983	93159424	63057920	24179336	24992
969	3.156502	93159424	63057920	28516480	24992
970	3.282129	93159424	63057920	32856544	24992
971	3.186245	93159424	63057920	21284360	24992
972	3.486961	93159424	63057920	25643432	24992
973	3.269525	93159424	63057920	30054320	24992
974	3.996209	93159424	63057920	18518696	24992
975	3.282447	93159424	63057920	22885928	24992
976	3.108756	93159424	63057920	27254272	24992
977	3.257187	93159424	63057920	31644824	24992
978	3.927547	93159424	63057920	19917464	24992
979	3.131257	93159424	63057920	24292720	24992
980	3.431361	93159424	63057920	28677728	24992
981	3.185933	93159424	63057920	33061016	24992
982	3.348852	93159424	63057920	21423592	24992
983	3.350137	93429760	63057920	25829544	24992
984	3.344417	93429760	63057920	30226224	24992
985	4.110036	93429760	63057920	18724232	24992
986	3.173669	93429760	63057920	23151952	24992
987	3.093517	93429760	63057920	27584320	24992
988	3.503623	93429760	63057920	32006976	24992
989	4.054231	93429760	63057920	20153528	24992
990	3.27072	93429760	63057920	24577400	24992
991	3.31202	93429760	63057920	29000144	24992
992	3.181123	93429760	63057920	33433464	24992
993	3.235566	93429760	63057920	21766008	24992
994	3.217908	93429760	63057920	26200416	24992
995	3.228281	93429760	63057920	30638808	24992
996	3.914755	93429760	63057920	19225312	24992
997	3.236335	93429760	63057920	23671616	24992
998	3.424849	93429760	63057920	28121912	24992
999	3.244771	93429760	63057920	32603480	24992
1000	3.252444	93429760	63057920	21170464	24992
