x	Duration	RSS	HeapTotal	HeapUsed	External
0	NA	93872128	63057920	12498464	24992
1	0.404897	93872128	63057920	12546984	24992
2	0.30243	93872128	63057920	12618680	24992
3	0.179732	93872128	63057920	12723832	24992
4	0.179936	93872128	63057920	12814792	24992
5	0.18689	93872128	63057920	12909576	24992
6	0.193496	93872128	63057920	13008728	24992
7	0.196015	93872128	63057920	13112296	24992
8	0.203247	93872128	63057920	13219640	24992
9	0.209044	93872128	63057920	13330760	24992
10	0.218983	93872128	63057920	13445744	24992
11	0.224927	93872128	63057920	13564400	24992
12	0.230931	93872128	63057920	13689088	24992
13	0.67582	93872128	63057920	13818720	24992
14	0.261763	93872128	63057920	13952120	24992
15	0.257805	93872128	63057920	14089280	24992
16	0.263119	93872128	63057920	14230216	24992
17	0.504859	93872128	63057920	14379784	24992
18	0.156061	93872128	63057920	14529400	24992
19	0.155342	93872128	63057920	14683096	24992
20	0.158029	93872128	63057920	14840192	24992
21	0.166428	93872128	63057920	15001136	24992
22	0.165892	93872128	63057920	15165776	24992
23	0.167177	93872128	63057920	15334192	24992
24	0.172143	93872128	63057920	15506392	24992
25	0.174855	93872128	63057920	15684536	24992
26	0.176166	93872128	63057920	15868632	24992
27	0.216471	93872128	63057920	16056576	24992
28	0.186414	93872128	63057920	16248192	24992
29	0.189247	93872128	63057920	16443584	24992
30	0.224262	93872128	63057920	16643696	24992
31	0.19588	93872128	63057920	16846632	24992
32	0.19654	93872128	63057920	17053344	24992
33	0.201314	93872128	63057920	17263832	24992
34	0.203993	93872128	63057920	17480208	24992
35	0.207789	93872128	63057920	17700384	24992
36	0.212576	93872128	63057920	17924280	24992
37	0.214807	93872128	63057920	18152032	24992
38	0.216346	93872128	63057920	18383472	24992
39	0.219834	93872128	63057920	18618744	24992
40	0.222237	93872128	63057920	18857736	24992
41	0.227956	93872128	63057920	19100504	24992
42	0.240302	93872128	63057920	19347064	24992
43	0.237042	93872128	63057920	19599480	24992
44	0.261415	93872128	63057920	19855696	24992
45	0.254109	93872128	63057920	20118576	24992
46	0.240622	93872128	63057920	20382072	24992
47	0.236368	93872128	63057920	20649296	24992
48	0.238073	93872128	63057920	20920360	24992
49	0.241664	93872128	63057920	21195136	24992
50	0.248601	93872128	63057920	21473720	24992
51	0.250347	93872128	63057920	21760192	24992
52	0.251674	93872128	63057920	22054632	24992
53	0.255711	93872128	63057920	22352992	24992
54	0.316078	93872128	63057920	22655064	24992
55	0.280625	93872128	63057920	22961600	24992
56	0.261541	93872128	63057920	23271216	24992
57	0.281061	93872128	63057920	23584632	24992
58	0.268413	93872128	63057920	23901800	24992
59	0.269256	93872128	63057920	24222728	24992
60	0.294764	93872128	63057920	24547488	24992
61	0.274677	93872128	63057920	24875992	24992
62	0.278637	93872128	63057920	25208232	24992
63	0.280209	93872128	63057920	25544304	24992
64	0.486414	93872128	63057920	25884088	24992
65	0.287531	93872128	63057920	26227656	24992
66	0.290279	93872128	63057920	26575024	24992
67	0.292802	93872128	63057920	26926120	24992
68	0.294164	93872128	63057920	27281000	24992
69	0.298279	93872128	63057920	27639848	24992
70	0.310918	93872128	63057920	28002328	24992
71	0.305537	93872128	63057920	28368504	24992
72	0.309181	93872128	63057920	28738456	24992
73	1.057101	93872128	63057920	12979792	24992
74	0.394286	93872128	63057920	13357312	24992
75	0.355963	93872128	63057920	13738616	24992
76	0.355843	93872128	63057920	14123640	24992
77	0.32538	93872128	63057920	14516648	24992
78	0.327661	93872128	63057920	14913424	24992
79	0.330279	93872128	63057920	15313944	24992
80	0.358599	93872128	63057920	15718416	24992
81	0.369101	93872128	63057920	16127656	24992
82	0.343961	93872128	63057920	16539464	24992
83	0.34404	93872128	63057920	16955032	24992
84	0.403804	93872128	63057920	17375544	24992
85	0.351299	93872128	63057920	17798592	24992
86	0.353951	93872128	63057920	18225448	24992
87	0.354931	93872128	63057920	18656048	24992
88	0.356645	93872128	63057920	19090480	24992
89	0.401693	93872128	63057920	19528720	24992
90	0.366551	93872128	63057920	19970648	24992
91	0.367861	93872128	63057920	20416328	24992
92	0.369631	93872128	63057920	20866240	24992
93	0.377126	93872128	63057920	21319480	24992
94	0.953772	93872128	63057920	21776544	24992
95	0.383797	93872128	63057920	22237328	24992
96	0.383113	93872128	63057920	22706304	24992
97	0.386845	93872128	63057920	23178840	24992
98	0.429621	93872128	63057920	23655200	24992
99	0.392557	93872128	63057920	24135232	24992
100	0.395226	93872128	63057920	24619040	24992
101	0.412935	93872128	63057920	25106584	24992
102	0.40008	93872128	63057920	25597904	24992
103	0.424857	93872128	63057920	26093112	24992
104	0.406816	93872128	63057920	26600336	24992
105	0.408049	93872128	63057920	27119624	24992
106	0.412238	93872128	63057920	27642688	24992
107	0.527635	93872128	63057920	28169552	24992
108	0.649771	93872128	63057920	28701016	24992
109	0.424595	93872128	63057920	29235712	24992
110	0.439778	93872128	63057920	13567664	24992
111	0.430499	93872128	63057920	14109632	24992
112	0.432297	93872128	63057920	14655352	24992
113	0.436689	93872128	63057920	15204824	24992
114	0.435713	93872128	63057920	15758048	24992
115	0.442405	93872128	63057920	16317720	24992
116	0.44019	93872128	63057920	16878488	24992
117	0.445017	93872128	63057920	17443080	24992
118	0.482626	93872128	63057920	18011384	24992
119	0.491369	93872128	63057920	18583456	24992
120	0.458427	93872128	63057920	19159400	24992
121	0.45794	93872128	63057920	19739080	24992
122	0.463217	93872128	63057920	20322520	24992
123	0.465006	93872128	63057920	20909696	24992
124	0.464483	93872128	63057920	21501048	24992
125	0.467329	93872128	63057920	22095840	24992
126	0.48563	93872128	63057920	22694320	24992
127	0.473411	93872128	63057920	23296672	24992
128	0.476773	93872128	63057920	23902712	24992
129	0.480565	93872128	63057920	24512520	24992
130	0.675897	93872128	63057920	25126184	24992
131	0.490504	93872128	63057920	25743584	24992
132	0.487189	93872128	63057920	26364736	24992
133	0.493593	93872128	63057920	26989680	24992
134	0.529394	93872128	63057920	27618360	24992
135	0.536099	93872128	63057920	28251656	24992
136	0.539663	93872128	63057920	28887888	24992
137	1.087735	93872128	63057920	13256904	24992
138	0.543893	93872128	63057920	13900632	24992
139	0.538821	93872128	63057920	14548152	24992
140	0.726179	93872128	63057920	15199512	24992
141	0.54615	93872128	63057920	15854544	24992
142	0.545373	93872128	63057920	16518472	24992
143	0.551007	93872128	63057920	17181096	24992
144	0.550942	93872128	63057920	17847456	24992
145	0.555984	93872128	63057920	18517592	24992
146	0.559233	93872128	63057920	19191576	24992
147	0.561564	93872128	63057920	19869368	24992
148	0.567441	93872128	63057920	20550832	24992
149	0.568266	93872128	63057920	21236024	24992
150	0.747082	93872128	63057920	21925136	24992
151	0.547712	93872128	63057920	22617944	24992
152	0.548363	93872128	63057920	23314472	24992
153	0.560184	93872128	63057920	24014840	24992
154	0.555938	93872128	63057920	24718968	24992
155	0.55909	93872128	63057920	25426792	24992
156	0.561117	93872128	63057920	26139160	24992
157	0.567779	93872128	63057920	26854552	24992
158	0.568484	93872128	63057920	27577136	24992
159	0.569078	93872128	63057920	28300048	24992
160	0.568998	93872128	63057920	29026840	24992
161	1.030011	93872128	63057920	13460288	24992
162	0.585145	93872128	63057920	14194616	24992
163	0.582472	93872128	63057920	14932664	24992
164	0.587595	93872128	63057920	15682696	24992
165	0.588227	93872128	63057920	16436552	24992
166	0.590978	93872128	63057920	17197568	24992
167	0.638946	93872128	63057920	17958960	24992
168	0.639295	93872128	63057920	18724128	24992
169	0.610228	93872128	63057920	19493152	24992
170	0.605888	93872128	63057920	20265968	24992
171	0.615182	93872128	63057920	21042520	24992
172	0.611131	93872128	63057920	21822752	24992
173	0.794686	93872128	63057920	22606848	24992
174	0.660267	93872128	63057920	23394576	24992
175	0.617907	93872128	63057920	24188840	24992
176	0.618049	93872128	63057920	24986328	24992
177	0.846928	93872128	63057920	25786672	24992
178	0.624663	93872128	63057920	26589608	24992
179	0.671607	93872128	63057920	27396232	24992
180	0.664552	93872128	63057920	28206632	24992
181	0.634202	93872128	63057920	29020776	24992
182	1.057579	93872128	63057920	13543608	24992
183	0.648352	93872128	63057920	14365328	24992
184	0.643668	93872128	63057920	15190800	24992
185	0.662784	93872128	63057920	16020096	24992
186	0.65094	93872128	63057920	16853088	24992
187	0.654116	93872128	63057920	17691048	24992
188	0.663007	93872128	63057920	18531584	24992
189	0.659397	93872128	63057920	19376016	24992
190	0.665377	93872128	63057920	20224168	24992
191	0.666429	93872128	63057920	21076160	24992
192	0.66558	93872128	63057920	21931808	24992
193	0.812102	93872128	63057920	22792136	24992
194	0.683696	93872128	63057920	23655328	24992
195	0.674969	93872128	63057920	24522248	24992
196	0.690816	93872128	63057920	25394016	24992
197	0.683758	93872128	63057920	26268584	24992
198	0.687703	93872128	63057920	27146840	24992
199	0.692149	93872128	63057920	28028864	24992
200	0.694533	93872128	63057920	28914680	24992
201	0.691227	93872128	63057920	29812496	24992
202	0.747874	93872128	63057920	14361368	24992
203	0.743085	93872128	63057920	15266840	24992
204	0.747931	93872128	63057920	16183216	24992
205	0.721891	93872128	63057920	17096192	24992
206	0.715335	93872128	63057920	18016872	24992
207	0.713944	93872128	63057920	18937320	24992
208	0.714132	93872128	63057920	19861640	24992
209	0.719929	93872128	63057920	20806168	24992
210	0.721921	93872128	63057920	21771040	24992
211	0.732444	93872128	63057920	22739608	24992
212	0.740323	93872128	63057920	23716248	24992
213	0.727105	93872128	63057920	24693656	24992
214	0.73268	93872128	63057920	25673568	24992
215	0.736139	93872128	63057920	26657288	24992
216	0.963435	93872128	63057920	27644808	24992
217	0.74319	93872128	63057920	28636064	24992
218	0.749762	93872128	63057920	29632464	24992
219	0.759175	93872128	63057920	14323520	24992
220	0.756397	93872128	63057920	15326008	24992
221	0.759547	93872128	63057920	16332312	24992
222	0.755892	93872128	63057920	17343856	24992
223	0.981967	93872128	63057920	18360448	24992
224	0.764021	93872128	63057920	19386248	24992
225	0.784915	93872128	63057920	20407632	24992
226	0.802716	93872128	63057920	21432808	24992
227	0.771009	93872128	63057920	22462384	24992
228	0.776052	93872128	63057920	23495080	24992
229	0.778638	93872128	63057920	24534400	24992
230	0.800753	93872128	63057920	25574616	24992
231	0.78695	93872128	63057920	26626448	24992
232	0.819897	93872128	63057920	27675560	24992
233	0.794721	93872128	63057920	28733776	24992
234	0.79607	93872128	63057920	29789080	24992
235	0.810597	93872128	63057920	14512624	24992
236	0.804181	93872128	63057920	15579984	24992
237	0.80619	93872128	63057920	16646608	24992
238	0.805295	93872128	63057920	17724160	24992
239	0.809881	93872128	63057920	18798344	24992
240	0.812523	93872128	63057920	19876368	24992
241	0.829042	93872128	63057920	20958128	24992
242	0.820142	93872128	63057920	22043632	24992
243	1.034664	93872128	63057920	23132904	24992
244	0.825763	93872128	63057920	24225920	24992
245	0.834536	93872128	63057920	25322792	24992
246	0.826229	93872128	63057920	26423344	24992
247	0.886692	93872128	63057920	27527744	24992
248	0.890864	93872128	63057920	28635936	24992
249	0.88817	93872128	63057920	29747864	24992
250	0.89826	93872128	63057920	14564064	24992
251	0.903906	93872128	63057920	15691400	24992
252	0.896843	93872128	63057920	16814672	24992
253	0.900295	93872128	63057920	17941584	24992
254	0.904155	93872128	63057920	19072312	24992
255	0.91165	93872128	63057920	20206896	24992
256	0.869643	93872128	63057920	21345216	24992
257	0.865444	93872128	63057920	22493480	24992
258	0.863748	93872128	63057920	23639392	24992
259	0.867954	93872128	63057920	24789016	24992
260	0.871164	93872128	63057920	25942456	24992
261	0.88059	93872128	63057920	27099656	24992
262	0.882328	93872128	63057920	28260640	24992
263	0.884564	93872128	63057920	29425328	24992
264	1.260876	93872128	63057920	14258392	24992
265	0.897695	93872128	63057920	15431408	24992
266	0.924671	93872128	63057920	16608064	24992
267	0.897788	93872128	63057920	17787816	24992
268	0.898273	93872128	63057920	18971584	24992
269	0.900431	93872128	63057920	20164400	24992
270	0.908601	93872128	63057920	21355520	24992
271	0.906511	93872128	63057920	22550456	24992
272	0.904788	93872128	63057920	23749072	24992
273	1.13906	93872128	63057920	24951512	24992
274	0.916496	93872128	63057920	26157736	24992
275	0.921395	93872128	63057920	27367680	24992
276	0.922048	93872128	63057920	28581448	24992
277	0.93963	93872128	63057920	29802936	24992
278	0.981793	93872128	63057920	14729848	24992
279	1.15245	93872128	63057920	15955232	24992
280	0.94879	93872128	63057920	17184088	24992
281	0.936017	93872128	63057920	18418672	24992
282	0.939625	93872128	63057920	19655128	24992
283	0.939967	93872128	63057920	20896000	24992
284	0.949415	93872128	63057920	22140032	24992
285	0.94901	93872128	63057920	23387736	24992
286	0.947637	93872128	63057920	24639280	24992
287	0.951711	93872128	63057920	25894456	24992
288	0.95021	93872128	63057920	27153520	24992
289	0.955618	93872128	63057920	28416216	24992
290	0.960355	93872128	63057920	29682752	24992
291	0.982429	93872128	63057920	14576608	24992
292	0.978256	93872128	63057920	15850728	24992
293	0.970565	93872128	63057920	17128632	24992
294	0.981513	93872128	63057920	18414296	24992
295	0.972643	93872128	63057920	19699800	24992
296	1.201224	93872128	63057920	20993784	24992
297	0.982101	93872128	63057920	22286704	24992
298	1.000137	93872128	63057920	23590360	24992
299	0.986374	93872128	63057920	24890920	24992
300	0.990473	93872128	63057920	26195184	24992
301	0.992374	93872128	63057920	27504792	24992
302	0.996404	93872128	63057920	28816560	24992
303	1.01151	93872128	63057920	30137696	24992
304	1.068619	93872128	63057920	15124560	24992
305	1.204492	93872128	63057920	16447632	24992
306	1.087758	93872128	63057920	17780104	24992
307	1.049713	93872128	63057920	19110672	24992
308	1.088118	93872128	63057920	20445008	24992
309	1.028088	93872128	63057920	21789192	24992
310	1.025231	93872128	63057920	23131040	24992
311	1.020213	93872128	63057920	24476688	24992
312	1.033568	93872128	63057920	25826160	24992
313	1.041909	93872128	63057920	27179352	24992
314	1.03307	93872128	63057920	28542360	24992
315	1.044252	93872128	63057920	29904568	24992
316	1.053409	93872128	63057920	14998952	24992
317	1.104009	93872128	63057920	16367232	24992
318	1.055877	93872128	63057920	17739984	24992
319	1.046693	93872128	63057920	19122720	24992
320	1.056233	93872128	63057920	20502344	24992
321	1.053954	93872128	63057920	21890936	24992
322	1.061217	93872128	63057920	23278168	24992
323	1.059239	93872128	63057920	24669088	24992
324	1.075676	93872128	63057920	26063752	24992
325	1.08043	93872128	63057920	27462192	24992
326	1.067262	93872128	63057920	28864408	24992
327	1.10127	93872128	63057920	30279760	24992
328	1.339983	93872128	63057920	15372376	24992
329	1.079758	93872128	63057920	16787672	24992
330	1.091238	93872128	63057920	18204944	24992
331	1.079579	93872128	63057920	19625968	24992
332	1.103465	93872128	63057920	21056384	24992
333	1.09709	93872128	63057920	22497312	24992
334	1.093965	93872128	63057920	23929696	24992
335	1.101949	93872128	63057920	25365840	24992
336	1.099703	93872128	63057920	26806632	24992
337	1.107661	93872128	63057920	28250264	24992
338	1.113439	93872128	63057920	29697720	24992
339	1.444582	93872128	63057920	14812080	24992
340	1.115285	93872128	63057920	16290648	24992
341	1.112449	93872128	63057920	17765864	24992
342	1.114505	93872128	63057920	19244848	24992
343	1.135655	93872128	63057920	20727704	24992
344	1.187034	93872128	63057920	22214248	24992
345	1.182677	93872128	63057920	23704664	24992
346	1.384958	93872128	63057920	25198808	24992
347	1.160929	93872128	63057920	26702768	24992
348	1.19747	93872128	63057920	28204392	24992
349	1.208571	93872128	63057920	29709840	24992
350	1.544635	93872128	63057920	14880736	24992
351	1.210302	93872128	63057920	16393664	24992
352	1.221522	93872128	63057920	17915072	24992
353	1.211157	93872128	63057920	19435600	24992
354	1.217219	93872128	63057920	20962136	24992
355	1.410577	93872128	63057920	22490120	24992
356	1.222299	93872128	63057920	24021880	24992
357	1.192108	93872128	63057920	25557368	24992
358	1.253768	93872128	63057920	27096704	24992
359	1.230147	93872128	63057920	28639800	24992
360	1.236494	93872128	63057920	30191152	24992
361	1.239609	93872128	63057920	15464240	24992
362	1.250264	93872128	63057920	17024352	24992
363	1.239538	93872128	63057920	18582608	24992
364	1.249343	93872128	63057920	20148016	24992
365	1.271458	93872128	63057920	21714240	24992
366	1.248798	93872128	63057920	23283840	24992
367	1.25519	93872128	63057920	24860360	24992
368	1.459541	93872128	63057920	26437488	24992
369	1.259491	93872128	63057920	28018328	24992
370	1.283969	93872128	63057920	29603032	24992
371	1.651015	93872128	63057920	14874200	24992
372	1.273518	93872128	63057920	16468736	24992
373	1.262089	93872128	63057920	18065088	24992
374	1.276557	93872128	63057920	19671024	24992
375	1.287554	93872128	63057920	21274480	24992
376	1.280791	93872128	63057920	22881704	24992
377	1.284889	93872128	63057920	24492704	24992
378	1.297413	93872128	63057920	26107520	24992
379	1.296371	93872128	63057920	27726048	24992
380	1.29718	93872128	63057920	29348312	24992
381	1.690603	93872128	63057920	14717056	24992
382	1.320417	93872128	63057920	16346904	24992
383	1.314604	93872128	63057920	17980600	24992
384	1.31465	93872128	63057920	19617976	24992
385	1.299942	93872128	63057920	21259208	24992
386	1.337074	93872128	63057920	22913344	24992
387	1.312046	93872128	63057920	24561984	24992
388	1.325486	93872128	63057920	26227232	24992
389	1.500913	93872128	63057920	27883424	24992
390	1.328956	93872128	63057920	29558656	24992
391	1.697335	93872128	63057920	14905160	24992
392	1.353149	93872128	63057920	16572672	24992
393	1.498668	93872128	63057920	18252352	24992
394	1.273444	93872128	63057920	19927624	24992
395	1.34751	93872128	63057920	21606528	24992
396	1.343399	93872128	63057920	23289152	24992
397	1.360165	93872128	63057920	24979528	24992
398	1.34854	93872128	63057920	26669664	24992
399	1.358875	93872128	63057920	28363680	24992
400	1.329768	93872128	63057920	30075640	24992
401	1.555748	93872128	63057920	15519624	24992
402	1.365205	93872128	63057920	17227040	24992
403	1.296559	93872128	63057920	18936048	24992
404	1.369781	93872128	63057920	20648904	24992
405	1.559254	93872128	63057920	22386600	24992
406	1.37533	93872128	63057920	24106992	24992
407	1.380805	93872128	63057920	25831120	24992
408	1.374351	93872128	63057920	27563136	24992
409	1.406496	93872128	63057920	29294832	24992
410	1.807661	93872128	63057920	14777800	24992
411	1.394015	93872128	63057920	16533592	24992
412	1.391426	93872128	63057920	18292936	24992
413	1.568484	93872128	63057920	20056216	24992
414	1.37337	93872128	63057920	21830984	24992
415	1.336447	93872128	63057920	23603768	24992
416	1.41503	93872128	63057920	25378400	24992
417	1.575661	93872128	63057920	27161656	24992
418	1.424976	93872128	63057920	28943800	24992
419	1.349596	93872128	63057920	30765056	24992
420	2.007152	93872128	63057920	16323328	24992
421	1.43105	93872128	63057920	18182592	24992
422	1.366532	93872128	63057920	20066032	24992
423	1.437328	93872128	63057920	21932792	24992
424	1.378324	93872128	63057920	23803304	24992
425	1.433535	93872128	63057920	25689056	24992
426	1.442653	93872128	63057920	27567112	24992
427	1.461786	93872128	63057920	29451576	24992
428	2.020381	93872128	63582208	15070296	24992
429	1.452739	93872128	63582208	16966608	24992
430	1.455222	93872128	63582208	18859632	24992
431	1.456428	93872128	63582208	20756536	24992
432	1.409511	93872128	63582208	22685272	24992
433	1.471616	93872128	63582208	24589704	24992
434	1.474975	93872128	63582208	26498016	24992
435	1.461177	93872128	63582208	28413832	24992
436	1.469253	93872128	63582208	30340448	24992
437	1.479275	93872128	63582208	16037536	24992
438	1.484372	93872128	63582208	17960736	24992
439	1.681168	93872128	63582208	19887808	24992
440	1.476716	93872128	63582208	21818744	24992
441	1.477439	93872128	63582208	23775632	24992
442	1.481701	93872128	63582208	25714040	24992
443	1.468718	93872128	63582208	27656288	24992
444	1.502385	93872128	63582208	29602184	24992
445	1.844246	93872128	63582208	15270536	24992
446	1.500912	93872128	63582208	17224040	24992
447	1.504107	93872128	63582208	19185560	24992
448	1.51019	93872128	63582208	21146512	24992
449	1.510541	93872128	63582208	23111312	24992
450	1.711694	93872128	63582208	25079992	24992
451	1.52636	93872128	63582208	27052408	24992
452	1.519539	93872128	63582208	29036008	24992
453	1.51589	93872128	63582208	31019808	24992
454	1.454617	93872128	63582208	16685440	24992
455	1.529109	93872128	63582208	18684312	24992
456	1.539267	93872128	63582208	20675424	24992
457	1.552117	93872128	63582208	22670424	24992
458	1.544477	93872128	63582208	24669120	24992
459	1.553449	93872128	63582208	26671696	24992
460	1.548488	93872128	63582208	28677992	24992
461	1.551519	93872128	63582208	30688144	24992
462	1.560399	93872128	63582208	16415512	24992
463	1.554326	93872128	63582208	18433048	24992
464	1.730458	93872128	63582208	20454336	24992
465	1.569784	93872128	63582208	22481368	24992
466	1.559139	93872128	63582208	24518192	24992
467	1.565374	93872128	63582208	26584600	24992
468	1.568906	93872128	63582208	28651392	24992
469	1.569366	93872128	63582208	30717496	24992
470	1.583335	93872128	63582208	16488864	24992
471	1.748808	93872128	63582208	18536760	24992
472	1.586564	93872128	63582208	20588400	24992
473	1.595769	93872128	63582208	22643768	24992
474	1.58458	93872128	63582208	24702768	24992
475	1.591918	93872128	63582208	26765528	24992
476	1.597219	93872128	63582208	28832128	24992
477	1.595162	93872128	63582208	30902552	24992
478	1.6041	93872128	63582208	16700176	24992
479	1.61062	93872128	63582208	18778064	24992
480	1.617147	93872128	63582208	20859664	24992
481	1.811488	93872128	63582208	22945104	24992
482	1.623598	93872128	63582208	25044552	24992
483	1.564323	93872128	63582208	27141824	24992
484	1.621047	93872128	63582208	29257568	24992
485	2.127647	94142464	63582208	15157256	24992
486	1.627383	94142464	63582208	17261504	24992
487	1.625002	94142464	63582208	19369536	24992
488	1.58041	94142464	63582208	21490440	24992
489	1.613219	94142464	63582208	23607120	24992
490	1.652443	94142464	63582208	25756976	24992
491	2.000938	94142464	63582208	27880224	24992
492	1.689873	94142464	63582208	30008968	24992
493	2.044154	94142464	63582208	15868728	24992
494	1.650266	94142464	63582208	18025608	24992
495	1.653087	94142464	63582208	20167680	24992
496	1.656005	94142464	63582208	22309640	24992
497	1.655265	94142464	63582208	24455480	24992
498	1.66727	94142464	63582208	26605040	24992
499	1.661436	94142464	63582208	28760376	24992
500	1.672199	94142464	63582208	30931344	24992
501	1.825412	94142464	63582208	16824792	24992
502	1.676895	94142464	63582208	18989392	24992
503	1.684511	94142464	63582208	21159176	24992
504	1.706603	94142464	63582208	23331528	24992
505	1.700259	94142464	63582208	25507600	24992
506	1.690414	94142464	63582208	27687392	24992
507	1.685934	94142464	63582208	29888712	24992
508	2.105188	94142464	63582208	15827664	24992
509	1.698424	94142464	63582208	18018656	24992
510	1.698445	94142464	63582208	20216368	24992
511	1.7029	94142464	63582208	22415096	24992
512	1.711112	94142464	63582208	24617480	24992
513	1.702799	94142464	63582208	26845760	24992
514	1.715766	94142464	63582208	29060432	24992
515	1.716602	94142464	63582208	31274152	24992
516	1.724009	94142464	63582208	17240224	24992
517	1.664888	94142464	63582208	19461488	24992
518	1.706348	94142464	63582208	21686472	24992
519	1.727906	94142464	63582208	23925520	24992
520	1.933747	94142464	63582208	26158040	24992
521	1.768477	94142464	63582208	28394328	24992
522	1.781386	94142464	63582208	30640368	24992
523	1.960996	94142464	63582208	16700536	24992
524	1.783178	94142464	63582208	18948232	24992
525	1.749071	94142464	63582208	21199552	24992
526	1.76781	94142464	63582208	23470312	24992
527	1.755372	94142464	63582208	25729344	24992
528	1.751108	94142464	63582208	28006752	24992
529	1.759207	94142464	63582208	30273304	24992
530	2.194625	94142464	63582208	16269904	24992
531	1.776048	94142464	63582208	18543896	24992
532	1.764735	94142464	63582208	20836264	24992
533	1.866318	94142464	63582208	23117872	24992
534	1.864652	94142464	63582208	25403144	24992
535	1.875344	94142464	63582208	27710640	24992
536	1.877501	94142464	63582208	30003480	24992
537	2.347889	94142464	63582208	16058392	24992
538	2.044966	94142464	63582208	18358808	24992
539	1.996958	94142464	63582208	20663064	24992
540	1.820638	94142464	63582208	22975624	24992
541	1.831988	94142464	63582208	25287264	24992
542	1.989879	94142464	63582208	27608424	24992
543	2.011655	94142464	63582208	29927728	24992
544	2.467607	94142464	63582208	15990192	24992
545	1.818231	94142464	63582208	18317064	24992
546	1.815535	94142464	63582208	20649632	24992
547	2.004093	94142464	63582208	22989688	24992
548	1.824121	94142464	63582208	25327864	24992
549	1.825888	94142464	63582208	27683384	24992
550	1.844123	94142464	63582208	30029096	24992
551	2.297355	94412800	63582208	16126912	24992
552	1.854819	94412800	63582208	18480032	24992
553	2.015575	94412800	63582208	20836984	24992
554	1.865027	94412800	63582208	23213592	24992
555	1.750644	94412800	63582208	25578064	24992
556	2.016004	94412800	63582208	27954168	24992
557	1.852795	94412800	63582208	30332808	24992
558	2.392316	94412800	63582208	16466304	24992
559	1.872091	94412800	63582208	18845848	24992
560	1.865995	94412800	63582208	21241560	24992
561	1.857019	94412800	63582208	23635840	24992
562	1.9996	94412800	63582208	26026800	24992
563	1.876371	94412800	63582208	28437152	24992
564	1.863882	94412800	63582208	30838456	24992
565	1.787679	94412800	63582208	17083616	24992
566	1.874127	94412800	63582208	19489648	24992
567	1.795727	94412800	63582208	21901248	24992
568	1.884037	94412800	63582208	24322368	24992
569	1.882414	94412800	63582208	26739576	24992
570	1.887865	94412800	63582208	29160768	24992
571	1.892691	94412800	63582208	31601136	24992
572	1.898064	94412800	63582208	17782992	24992
573	1.898789	94412800	63582208	20215448	24992
574	1.905655	94412800	63582208	22651624	24992
575	1.910882	94412800	63582208	25091560	24992
576	1.92252	94412800	63582208	27536752	24992
577	1.918415	94412800	63582208	29986080	24992
578	2.485979	94412800	63582208	16218984	24992
579	2.055531	94412800	63582208	18682064	24992
580	1.924061	94412800	63582208	21140864	24992
581	1.921888	94412800	63582208	23603400	24992
582	1.885118	94412800	63582208	26088464	24992
583	1.928601	94412800	63582208	28566136	24992
584	1.932051	94412800	63582208	31059800	24992
585	2.13091	94412800	63582208	17377696	24992
586	1.93894	94412800	63582208	19874976	24992
587	1.922882	94412800	63582208	22361856	24992
588	2.009323	94412800	63582208	24852336	24992
589	1.956988	94412800	63582208	27345128	24992
590	2.150976	94412800	63582208	29851992	24992
591	2.491312	94412800	63582208	16211896	24992
592	1.966591	94412800	63582208	18722000	24992
593	1.970695	94412800	63582208	21229712	24992
594	1.960752	94412800	63582208	23741408	24992
595	1.963936	94412800	63582208	26256792	24992
596	1.970926	94412800	63582208	28794312	24992
597	1.965051	94412800	63582208	31319952	24992
598	1.975909	94412800	63582208	17668304	24992
599	1.997883	94412800	63582208	20198728	24992
600	1.997374	94412800	63582208	22734096	24992
601	2.002963	94412800	63582208	25272600	24992
602	2.000028	94412800	63582208	27823288	24992
603	2.009897	94412800	63582208	30368864	24992
604	2.69534	94412800	63582208	16682728	24992
605	1.996031	94412800	63582208	19235816	24992
606	1.997894	94412800	63582208	21795000	24992
607	1.949844	94412800	63582208	24366568	24992
608	2.001144	94412800	63582208	26933704	24992
609	2.020164	94412800	63582208	29517592	24992
610	2.015364	94412800	63582208	32101512	24992
611	1.998753	94412800	63582208	18361352	24992
612	2.148431	94412800	63582208	20942392	24992
613	2.022178	94412800	63582208	23527632	24992
614	2.026395	94412800	63582208	26114696	24992
615	2.030089	94412800	63582208	28705496	24992
616	2.031765	94412800	63582208	31300232	24992
617	2.062856	94412800	63582208	17750720	24992
618	2.043014	94412800	63582208	20364784	24992
619	2.04955	94412800	63582208	22970728	24992
620	1.968928	94412800	63582208	25580328	24992
621	2.043343	94412800	63582208	28207912	24992
622	2.047592	94412800	63582208	30825144	24992
623	2.621419	94412800	63582208	17130024	24992
624	2.030379	94412800	63582208	19754832	24992
625	1.977004	94412800	63582208	22395360	24992
626	2.070376	94412800	63582208	25027656	24992
627	2.075781	94412800	63582208	27673552	24992
628	1.974494	94412800	63582208	30318632	24992
629	2.686197	94412800	63582208	16731240	24992
630	2.082983	94412800	63582208	19378592	24992
631	2.089001	94412800	63582208	22047288	24992
632	2.086769	94412800	63582208	24704152	24992
633	2.068938	94412800	63582208	27378928	24992
634	2.090375	94412800	63582208	30066144	24992
635	2.690372	94412800	63582208	16593336	24992
636	2.098744	94412800	63582208	19273440	24992
637	2.108877	94412800	63582208	21947080	24992
638	2.276597	94412800	63582208	24624600	24992
639	2.108384	94412800	63582208	27315920	24992
640	2.109499	94412800	63582208	30011664	24992
641	2.930235	94412800	63582208	16580280	24992
642	2.119434	94412800	63582208	19282296	24992
643	2.319847	94412800	63582208	21978712	24992
644	2.119129	94412800	63582208	24680584	24992
645	2.098179	94412800	63582208	27384616	24992
646	2.129995	94412800	63582208	30092448	24992
647	2.857731	94412800	63582208	16670640	24992
648	2.473633	94412800	63582208	19392784	24992
649	2.137686	94412800	63582208	22118168	24992
650	2.133389	94412800	63582208	24841528	24992
651	2.154091	94412800	63582208	27568200	24992
652	2.142976	94412800	63582208	30298624	24992
653	2.804696	94412800	63582208	16814136	24992
654	2.150053	94412800	63582208	19566888	24992
655	2.173541	94412800	63582208	22308872	24992
656	2.156779	94412800	63582208	25063560	24992
657	2.15899	94412800	63582208	27831456	24992
658	2.267373	94412800	63582208	30584480	24992
659	2.968784	94412800	63582208	17116744	24992
660	2.090304	94412800	63582208	19886976	24992
661	2.174167	94412800	63582208	22651392	24992
662	2.070964	94412800	63582208	25439608	24992
663	2.218607	94412800	63582208	28211872	24992
664	2.196818	94412800	63582208	31003424	24992
665	2.898109	94412800	63582208	17466032	24992
666	2.195394	94412800	63582208	20249208	24992
667	2.324769	94412800	63582208	23043544	24992
668	2.372453	94412800	63582208	25834112	24992
669	2.175911	94412800	63582208	28630232	24992
670	2.202653	94412800	63582208	31429088	24992
671	2.207167	94412800	63582208	18104400	24992
672	2.206802	94412800	63582208	20911656	24992
673	2.370472	94412800	63582208	23725616	24992
674	2.215943	94412800	63582208	26552992	24992
675	2.214967	94412800	63582208	29387976	24992
676	2.227213	94412800	63582208	32213992	24992
677	2.231503	94412800	63582208	18834800	24992
678	2.144654	94412800	63582208	21689568	24992
679	2.224652	94412800	63582208	24529240	24992
680	2.224315	94412800	63582208	27369144	24992
681	2.243364	94412800	63582208	30215208	24992
682	2.993086	94412800	63582208	16948424	24992
683	2.239247	94412800	63582208	19795696	24992
684	2.247894	94412800	63582208	22647744	24992
685	2.313151	94412800	63582208	25523272	24992
686	2.255202	94412800	63582208	28381752	24992
687	2.251025	94412800	63582208	31266672	24992
688	2.271424	94412800	63582208	17834496	24992
689	2.268893	94412800	63582208	20727896	24992
690	2.18071	94412800	63582208	23618048	24992
691	2.152516	94412800	63582208	26511896	24992
692	2.480047	94412800	63582208	29425152	24992
693	2.281127	94412800	63582208	32342152	24992
694	2.278258	94412800	63582208	19029792	24992
695	2.276104	94412800	63582208	21938856	24992
696	2.261795	94412800	63582208	24851736	24992
697	2.390758	94412800	63582208	27768832	24992
698	2.288817	94412800	63582208	30689264	24992
699	3.025486	94412800	63582208	17401400	24992
700	2.305199	94412800	63582208	20350784	24992
701	2.188697	94412800	63582208	23307352	24992
702	2.303952	94412800	63582208	26249400	24992
703	2.435183	94412800	63582208	29192552	24992
704	2.467177	94412800	63582208	32135488	24992
705	2.310334	94412800	63582208	18881528	24992
706	2.312231	94412800	63582208	21832016	24992
707	2.252675	94412800	63582208	24786296	24992
708	2.327556	94412800	63582208	27744352	24992
709	2.333825	94412800	63582208	30725536	24992
710	3.037604	94412800	63582208	17487168	24992
711	2.473698	94412800	63582208	20462480	24992
712	2.33377	94412800	63582208	23435592	24992
713	2.348783	94412800	63582208	26412432	24992
714	2.347308	94412800	63582208	29429960	24992
715	2.26236	94412800	63582208	32414408	24992
716	2.348869	94412800	63582208	19192696	24992
717	2.323408	94412800	63582208	22184688	24992
718	2.475776	94412800	63582208	25180360	24992
719	2.235069	94412800	63582208	28192640	24992
720	2.352561	94412800	63582208	31210384	24992
721	3.013271	94412800	63582208	17937416	24992
722	2.363196	94412800	63582208	20950960	24992
723	2.380137	94412800	63582208	23965512	24992
724	2.27099	94412800	63582208	26983872	24992
725	2.501589	94412800	63582208	30012952	24992
726	3.175641	94412800	63582208	16938632	24992
727	2.560377	94412800	63582208	19975576	24992
728	2.295552	94412800	63582208	23026424	24992
729	2.381424	94412800	63582208	26063664	24992
730	2.389451	94412800	63582208	29104560	24992
731	2.361134	94412800	63582208	32158648	24992
732	2.393772	94412800	63582208	19020752	24992
733	2.433639	94412800	63582208	22079656	24992
734	2.392498	94412800	63582208	25135824	24992
735	2.289841	94412800	63582208	28195720	24992
736	2.406219	94412800	63582208	31259272	24992
737	3.141726	94412800	63582208	18068336	24992
738	2.408787	94412800	63582208	21147528	24992
739	2.371163	94412800	63582208	24228600	24992
740	2.617789	94412800	63582208	27326272	24992
741	2.421731	94412800	63582208	30423816	24992
742	3.280014	94412800	63582208	17428904	24992
743	2.554204	94412800	63582208	20519064	24992
744	2.427647	94412800	63582208	23612872	24992
745	2.611432	94412800	63582208	26710416	24992
746	2.449269	94412800	63582208	29811680	24992
747	2.434752	94412800	63582208	32916704	24992
748	2.437264	94412800	63582208	19772704	24992
749	2.424911	94412800	63582208	22885208	24992
750	2.447128	94412800	63582208	26001648	24992
751	2.385801	94412800	63582208	29121848	24992
752	2.637028	94412800	63582208	32245704	24992
753	2.466756	94412800	63582208	19218336	24992
754	2.456055	94412800	63582208	22362464	24992
755	2.461186	94412800	63582208	25497840	24992
756	2.663901	94412800	63582208	28636992	24992
757	2.355924	94412800	63582208	31804544	24992
758	2.471753	94412800	63582208	18861368	24992
759	2.486887	94412800	63582208	22037232	24992
760	2.480744	94412800	63582208	25191320	24992
761	2.488068	94412800	63582208	28351080	24992
762	2.381282	94412800	63582208	31512768	24992
763	3.41618	94412800	63582208	18351888	24992
764	2.494779	94412800	63582208	21521056	24992
765	2.59788	94412800	63582208	24693928	24992
766	2.371435	94412800	63582208	27874904	24992
767	2.517745	94412800	63582208	31082264	24992
768	3.308373	94412800	63582208	18096072	24992
769	2.625823	94412800	63582208	21284176	24992
770	2.542544	94412800	63582208	24476000	24992
771	2.562275	94412800	63582208	27676464	24992
772	2.526582	94412800	63582208	30891560	24992
773	3.330046	94412800	63582208	17912304	24992
774	2.536488	94412800	63582208	21124312	24992
775	2.524506	94412800	63582208	24345520	24992
776	2.543309	94412800	63582208	27560712	24992
777	2.541722	94412800	63582208	30802344	24992
778	3.359957	94412800	63582208	17838400	24992
779	2.465023	94412800	63582208	21066744	24992
780	2.545456	94412800	63582208	24296336	24992
781	2.554118	94412800	63582208	27529512	24992
782	2.691301	94412800	63582208	30783576	24992
783	3.392083	94412800	63582208	17843336	24992
784	2.704216	94412800	63582208	21097400	24992
785	2.763798	94412800	63582208	24345808	24992
786	2.578274	94412800	63582208	27601216	24992
787	2.578246	94412800	63582208	30857216	24992
788	3.514212	94412800	63582208	17928552	24992
789	2.566155	94412800	63582208	21191904	24992
790	2.765819	94412800	63582208	24488912	24992
791	2.587961	94412800	63582208	27769616	24992
792	2.581741	94412800	63582208	31047024	24992
793	3.434923	94412800	63582208	18141360	24992
794	2.584609	94412800	63582208	21438152	24992
795	2.593983	94412800	63582208	24731432	24992
796	2.588139	94412800	63582208	28021520	24992
797	2.614318	94412800	63582208	31345472	24992
798	3.465183	94412800	63582208	18456720	24992
799	2.603482	94412800	63582208	21763848	24992
800	2.611774	94412800	63582208	25068800	24992
801	2.621958	94412800	63582208	28387456	24992
802	2.560359	94412800	63582208	31699984	24992
803	3.453855	94412800	63582208	18703320	24992
804	2.547058	94412800	63582208	22049288	24992
805	2.579832	94412800	63582208	25381208	24992
806	2.602228	94412800	63582208	28708720	24992
807	2.522392	94412800	63582208	32043512	24992
808	2.64925	94412800	63582208	19329032	24992
809	2.634421	94412800	63582208	22705504	24992
810	2.650862	94412800	63582208	26054640	24992
811	2.545182	94412800	63582208	29412536	24992
812	2.655674	94412800	63582208	32763496	24992
813	2.64903	94412800	63582208	19932312	24992
814	2.654292	94412800	63582208	23290136	24992
815	2.759944	94412800	63582208	26651616	24992
816	2.549923	94412800	63582208	30016984	24992
817	2.802392	94412800	63582208	33385968	24992
818	2.68835	94412800	63582208	20518920	24992
819	2.653504	94412800	63582208	23907088	24992
820	2.545878	94412800	63582208	27287400	24992
821	2.844799	94412800	63582208	30684160	24992
822	3.591472	94412800	63582208	18020584	24992
823	2.786587	94412800	63582208	21417256	24992
824	2.673638	94412800	63582208	24815000	24992
825	2.654989	94412800	63582208	28228208	24992
826	2.688187	94412800	63582208	31631192	24992
827	3.721936	94412800	63582208	18835024	24992
828	2.586612	94412800	63582208	22245440	24992
829	2.847603	94412800	63582208	25667704	24992
830	2.635284	94412800	63582208	29086360	24992
831	2.714664	94412800	63582208	32524584	24992
832	2.698328	94412800	63582208	19910232	24992
833	2.950741	94412800	63582208	23382464	24992
834	2.865478	94412800	63582208	26832360	24992
835	2.857658	94412800	63582208	30292704	24992
836	3.677921	94412800	63582208	17705928	24992
837	2.63851	94412800	63582208	21166920	24992
838	2.947695	94412800	63582208	24635576	24992
839	2.627794	94412800	63582208	28154552	24992
840	2.753365	94412800	63582208	31734584	24992
841	3.8118	94412800	63582208	19008304	24992
842	2.613722	94412800	63582208	22553776	24992
843	2.728928	94412800	63582208	26113496	24992
844	2.743165	94412800	63582208	29710000	24992
845	2.626828	94412800	63582208	33266904	24992
846	2.765627	94412800	63582208	20670280	24992
847	2.755408	94412800	63582208	24265848	24992
848	2.759506	94412800	63582208	27878056	24992
849	2.774358	94412800	63582208	31490288	24992
850	3.79325	94412800	63582208	18913360	24992
851	2.779839	94412800	63582208	22492800	24992
852	2.768616	94412800	63582208	26075992	24992
853	2.778875	94412800	63582208	29663032	24992
854	2.815035	94412800	63582208	33254624	24992
855	2.788562	94412800	63582208	20732744	24992
856	2.994923	94412800	63582208	24345072	24992
857	2.784164	94412800	63582208	27957304	24992
858	2.957453	94412800	63582208	31569512	24992
859	3.745641	94412800	63582208	19012392	24992
860	2.781048	94412800	63582208	22649448	24992
861	2.789964	94412800	63582208	26279360	24992
862	2.933743	94412800	63582208	29917192	24992
863	2.816175	94412800	63582208	33541944	24992
864	2.70225	94412800	63582208	21000320	24992
865	2.800808	94412800	63582208	24641800	24992
866	2.806296	94412800	63582208	28277944	24992
867	2.820301	94412800	63582208	31917688	24992
868	3.836413	94412800	63582208	19303216	24992
869	2.822414	94412800	63582208	22958968	24992
870	2.82906	94412800	63582208	26610056	24992
871	2.826835	94412800	63582208	30269736	24992
872	2.85562	94412800	63582208	33938384	24992
873	2.832031	94412800	63582208	21274376	24992
874	2.845003	94412800	63582208	24943856	24992
875	3.053465	94412800	63582208	28627240	24992
876	2.844627	94412800	63582208	32300864	24992
877	2.86232	94412800	63582208	19938768	24992
878	2.855314	94412800	63582208	23624880	24992
879	2.973604	94412800	63582208	27317808	24992
880	2.818826	94412800	63582208	31012664	24992
881	3.944522	94412800	63582208	18611448	24992
882	2.868017	94412800	63582208	22322592	24992
883	2.824407	94412800	63582208	26032280	24992
884	2.781963	94412800	63582208	29748528	24992
885	2.904255	94412800	63582208	33456176	24992
886	2.814201	94412800	63582208	21015528	24992
887	2.858334	94412800	63582208	24730656	24992
888	2.87809	94412800	63582208	28459072	24992
889	2.881695	94412800	63582208	32201832	24992
890	3.081174	94412800	63582208	19659600	24992
891	2.886528	94412800	63582208	23389920	24992
892	3.036812	94412800	63582208	27123968	24992
893	2.832848	94412800	63582208	30864136	24992
894	3.904616	94412800	63582208	18576472	24992
895	3.083357	94412800	63582208	22334704	24992
896	2.910161	94412800	63582208	26097752	24992
897	2.860735	94412800	63582208	29859488	24992
898	2.937127	94412800	63582208	33616328	24992
899	2.931702	94412800	63582208	21218072	24992
900	2.930686	94412800	63582208	24988432	24992
901	3.10131	94412800	63582208	28763616	24992
902	2.94653	94412800	63582208	32535408	24992
903	3.094421	94412800	63582208	20295800	24992
904	2.941081	94412800	63582208	24099552	24992
905	2.932846	94412800	63582208	27882776	24992
906	2.932899	94412800	63582208	31704600	24992
907	3.918093	94412800	63582208	19353968	24992
908	2.938933	94412800	63582208	23157720	24992
909	2.952357	94412800	63582208	26955808	24992
910	3.144831	94412800	63582208	30760816	24992
911	4.093109	94412800	63582208	18561464	24992
912	3.191778	94412800	63582208	22371144	24992
913	2.950512	94412800	63582208	26196552	24992
914	2.958215	94412800	63582208	30017424	24992
915	2.966023	94412800	63582208	33860288	24992
916	2.972949	94412800	63582208	21528520	24992
917	2.972708	94412800	63582208	25368736	24992
918	2.970729	94412800	63582208	29200976	24992
919	3.165616	94412800	63582208	33067376	24992
920	2.988206	94412800	63582208	20892488	24992
921	2.873447	94412800	63582208	24736120	24992
922	2.994352	94412800	63582208	28583296	24992
923	2.993611	94412800	63582208	32461304	24992
924	2.98817	94412800	63582208	20309272	24992
925	3.14857	94412800	63582208	24178968	24992
926	3.184863	94412800	63582208	28051304	24992
927	2.993991	94412800	63582208	31924800	24992
928	4.005256	94412800	63582208	19652936	24992
929	3.015977	94412800	63582208	23526648	24992
930	3.007322	94412800	63582208	27436912	24992
931	3.022899	94412800	63582208	31318104	24992
932	4.022446	94412800	63582208	19080680	24992
933	3.056934	94412800	63582208	22972048	24992
934	2.878557	94412800	63582208	26892224	24992
935	3.202667	94412800	63582208	30788376	24992
936	4.152051	94412800	63582208	18694112	24992
937	3.045015	94412800	63582208	22597960	24992
938	3.035748	94412800	63582208	26535920	24992
939	3.050027	94412800	63582208	30447248	24992
940	3.03314	94412800	63582208	34365768	24992
941	2.903745	94412800	63582208	21985032	24992
942	3.216966	94412800	63582208	25929688	24992
943	3.074246	94412800	63582208	29855976	24992
944	2.992049	94412800	63582208	33807408	24992
945	3.066559	94412800	63582208	21594880	24992
946	3.001799	94412800	63582208	25566904	24992
947	3.07422	94412800	63582208	29508400	24992
948	3.07403	94412800	63582208	33453640	24992
949	3.046775	94412800	63582208	21261696	24992
950	3.074176	94412800	63582208	25214608	24992
951	3.141342	94412800	63582208	29209768	24992
952	3.052478	94412800	63582208	33170064	24992
953	3.061366	94412800	63582208	21128424	24992
954	3.096771	94412800	63582208	25129064	24992
955	3.00599	94412800	63582208	29131264	24992
956	3.256633	94412800	63582208	33106648	24992
957	3.008631	94412800	63582208	21092736	24992
958	3.088882	94412800	63582208	25082368	24992
959	2.968293	94412800	63582208	29068960	24992
960	2.97397	94412800	63582208	33064984	24992
961	3.317349	94412800	63582208	21070672	24992
962	2.960379	94412800	63582208	25087872	24992
963	3.194547	94412800	63582208	29089736	24992
964	3.132693	94412800	63582208	33098312	24992
965	3.139584	94412800	63582208	21144488	24992
966	3.118347	94412800	63582208	25187624	24992
967	3.142815	94412800	63582208	29234176	24992
968	3.295405	94412800	63582208	33254872	24992
969	3.149156	94412800	63582208	21286696	24992
970	3.159565	94412800	63582208	25324928	24992
971	3.103888	94412800	63582208	29387432	24992
972	3.150585	94412800	63582208	33430344	24992
973	3.296548	94412800	63582208	21419672	24992
974	3.171538	94412800	63582208	25463024	24992
975	3.02688	94412800	63582208	29512976	24992
976	3.164989	94412800	63582208	33599824	24992
977	3.186694	94412800	63582208	21538584	24992
978	3.335511	94412800	63582208	25604280	24992
979	3.139256	94412800	63582208	29666448	24992
980	3.17279	94412800	63582208	33732360	24992
981	3.116784	94412800	63582208	21697864	24992
982	3.036827	94412800	63582208	25825656	24992
983	3.370126	94412800	63582208	29953440	24992
984	3.214755	94412800	63582208	34081264	24992
985	3.388265	94412800	63582208	22065336	24992
986	3.359505	94412800	63582208	26153816	24992
987	3.368038	94412800	63582208	30246024	24992
988	3.446089	94412800	63582208	34342104	24992
989	3.174729	94412800	63582208	22339168	24992
990	3.063601	94412800	63582208	26468008	24992
991	3.294935	94412800	63582208	30598760	24992
992	3.337439	94412800	63582208	34727480	24992
993	3.482614	94412800	63582208	22535680	24992
994	3.216755	94412800	63582208	26654848	24992
995	3.246251	94412800	63582208	30783344	24992
996	4.625412	94412800	63582208	18926544	24992
997	3.227981	94412800	63582208	23056496	24992
998	3.207109	94412800	63582208	27190192	24992
999	3.080039	94412800	63582208	31332256	24992
1000	4.486103	94412800	63582208	19490312	24992
x	Duration	RSS	HeapTotal	HeapUsed	External
0	NA	94179328	64106496	12742664	24992
1	0.341659	94179328	64106496	12794536	24992
2	0.282823	94179328	64106496	12871328	24992
3	0.348056	94179328	64106496	12985904	24992
4	0.17267	94179328	64106496	13084976	24992
5	0.174776	94179328	64106496	13188432	24992
6	0.181438	94179328	64106496	13295832	24992
7	0.186199	94179328	64106496	13407176	24992
8	0.189259	94179328	64106496	13522464	24992
9	0.196439	94179328	64106496	13642040	24992
10	0.200196	94179328	64106496	13767456	24992
11	0.206316	94179328	64106496	13897968	24992
12	0.212639	94179328	64106496	14032440	24992
13	0.408965	94179328	64106496	14170928	24992
14	0.16266	94179328	64106496	14313272	24992
15	0.159533	94179328	64106496	14460600	24992
16	0.159923	94179328	64106496	14611912	24992
17	0.163771	94179328	64106496	14767240	24992
18	0.168243	94179328	64106496	14926440	24992
19	0.170496	94179328	64106496	15091024	24992
20	0.182573	94179328	64106496	15264136	24992
21	0.235305	94179328	64106496	15437936	24992
22	0.224942	94179328	64106496	15615344	24992
23	0.183629	94179328	64106496	15796032	24992
24	0.186388	94179328	64106496	15982832	24992
25	0.187931	94179328	64106496	16175752	24992
26	0.189677	94179328	64106496	16372688	24992
27	0.343792	94179328	64106496	16573512	24992
28	0.221154	94179328	64106496	16778272	24992
29	0.21981	94179328	64106496	16986936	24992
30	0.236757	94179328	64106496	17199544	24992
31	0.217722	94179328	64106496	17419024	24992
32	0.217032	94179328	64106496	17641272	24992
33	0.22323	94179328	64106496	17867528	24992
34	0.224051	94179328	64106496	18097664	24992
35	0.227763	94179328	64106496	18331808	24992
36	0.227702	94179328	64106496	18569816	24992
37	0.408273	94179328	64106496	18811752	24992
38	0.223192	94179328	64106496	19057744	24992
39	0.221111	94179328	64106496	19307560	24992
40	0.244919	94179328	64106496	19561320	24992
41	0.247265	94179328	64106496	19819024	24992
42	0.249656	94179328	64106496	20082888	24992
43	0.254843	94179328	64106496	20350592	24992
44	0.255235	94179328	64106496	20622224	24992
45	0.260166	94179328	64106496	20900472	24992
46	0.263187	94179328	64106496	21183336	24992
47	0.267321	94179328	64106496	21470168	24992
48	0.270526	94179328	64106496	21760912	24992
49	0.274274	94179328	64106496	22055864	24992
50	0.277046	94179328	64106496	22358720	24992
51	0.288034	94179328	64106496	22669824	24992
52	0.281823	94179328	64106496	22984792	24992
53	0.288229	94179328	64106496	23303672	24992
54	0.292172	94179328	64106496	23627024	24992
55	0.294341	94179328	64106496	23953792	24992
56	0.295098	94179328	64106496	24284576	24992
57	0.300859	94179328	64106496	24619264	24992
58	0.30743	94179328	64106496	24957856	24992
59	0.286732	94179328	64106496	25300440	24992
60	0.289317	94179328	64106496	25646968	24992
61	0.289972	94179328	64106496	25997360	24992
62	0.31729	94179328	64106496	26353016	24992
63	0.576153	94179328	64106496	26711328	24992
64	0.308536	94179328	64106496	27073544	24992
65	0.305926	94179328	64106496	27441272	24992
66	0.306937	94179328	64106496	27811464	24992
67	0.3081	94179328	64106496	28185560	24992
68	0.309432	94179328	64106496	28563536	24992
69	0.346998	94179328	64106496	28945472	24992
70	1.099695	94179328	64106496	13227480	24992
71	0.346226	94179328	64106496	13617272	24992
72	0.348201	94179328	64106496	14012184	24992
73	0.380661	94179328	64106496	14409856	24992
74	0.351469	94179328	64106496	14811504	24992
75	0.353754	94179328	64106496	15217136	24992
76	0.341377	94179328	64106496	15630824	24992
77	0.338703	94179328	64106496	16048432	24992
78	0.554303	94179328	64106496	16469952	24992
79	0.343309	94179328	64106496	16895496	24992
80	0.346201	94179328	64106496	17325160	24992
81	0.381132	94179328	64106496	17759624	24992
82	0.353195	94179328	64106496	18196920	24992
83	0.551513	94179328	64106496	18638120	24992
84	0.359429	94179328	64106496	19087744	24992
85	0.363674	94179328	64106496	19542480	24992
86	0.36371	94179328	64106496	20001224	24992
87	0.363942	94179328	64106496	20463912	24992
88	0.402548	94179328	64106496	20930424	24992
89	0.373465	94179328	64106496	21400896	24992
90	0.378748	94179328	64106496	21875400	24992
91	0.379737	94179328	64106496	22353848	24992
92	0.383462	94179328	64106496	22836144	24992
93	0.390437	94179328	64106496	23322360	24992
94	0.389768	94179328	64106496	23816736	24992
95	0.392404	94179328	64106496	24315072	24992
96	0.395696	94179328	64106496	24817264	24992
97	0.403886	94179328	64106496	25323392	24992
98	0.397535	94179328	64106496	25833464	24992
99	0.403234	94179328	64106496	26347504	24992
100	0.405527	94179328	64106496	26865776	24992
101	0.409061	94179328	64106496	27388072	24992
102	0.448453	94179328	64106496	27922400	24992
103	0.420027	94179328	64106496	28468800	24992
104	0.450823	94179328	64106496	29019152	24992
105	1.128059	94179328	64106496	13392664	24992
106	0.458434	94179328	64106496	13953728	24992
107	0.457398	94179328	64106496	14515944	24992
108	0.463308	94179328	64106496	15082096	24992
109	0.503682	94179328	64106496	15652208	24992
110	0.441919	94179328	64106496	16226184	24992
111	0.44354	94179328	64106496	16805088	24992
112	0.443274	94179328	64106496	17386944	24992
113	0.484457	94179328	64106496	17972744	24992
114	0.450137	94179328	64106496	18562496	24992
115	0.452708	94179328	64106496	19156416	24992
116	0.471616	94179328	64106496	19754056	24992
117	0.520268	94179328	64106496	20355648	24992
118	0.496924	94179328	64106496	20963888	24992
119	0.495554	94179328	64106496	21573344	24992
120	0.500034	94179328	64106496	22186712	24992
121	0.500197	94179328	64106496	22804048	24992
122	0.504508	94179328	64106496	23425296	24992
123	0.509994	94179328	64106496	24050624	24992
124	0.682805	94179328	64106496	24679752	24992
125	0.485166	94179328	64106496	25312808	24992
126	0.488034	94179328	64106496	25949864	24992
127	0.486566	94179328	64106496	26590912	24992
128	0.528574	94179328	64106496	27235840	24992
129	0.498441	94179328	64106496	27884680	24992
130	0.51083	94179328	64106496	28537504	24992
131	0.543973	94179328	64106496	29194592	24992
132	1.058964	94179328	64106496	13569272	24992
133	0.543281	94179328	64106496	14233848	24992
134	0.72989	94179328	64106496	14902376	24992
135	0.549677	94179328	64106496	15574904	24992
136	0.548964	94179328	64106496	16251296	24992
137	0.553415	94179328	64106496	16931656	24992
138	0.527045	94179328	64106496	17615992	24992
139	0.528475	94179328	64106496	18310016	24992
140	0.527712	94179328	64106496	19002200	24992
141	0.53936	94179328	64106496	19698312	24992
142	0.532548	94179328	64106496	20405672	24992
143	0.538503	94179328	64106496	21118864	24992
144	0.53774	94179328	64106496	21836000	24992
145	0.540546	94179328	64106496	22557000	24992
146	0.542783	94179328	64106496	23285256	24992
147	0.546442	94179328	64106496	24018680	24992
148	0.552532	94179328	64106496	24751688	24992
149	0.553664	94179328	64106496	25488448	24992
150	0.555126	94179328	64106496	26229136	24992
151	0.567197	94179328	64106496	26973904	24992
152	0.561056	94179328	64106496	27722504	24992
153	0.575951	94179328	64106496	28475024	24992
154	0.580846	94179328	64106496	29231520	24992
155	1.026882	94179328	64106496	13694360	24992
156	0.616876	94179328	64106496	14458800	24992
157	0.629557	94179328	64106496	15227136	24992
158	0.619547	94179328	64106496	15999368	24992
159	0.627622	94179328	64106496	16775592	24992
160	0.62863	94179328	64106496	17556272	24992
161	0.632138	94179328	64106496	18340368	24992
162	0.63257	94179328	64106496	19128432	24992
163	0.635837	94179328	64106496	19929160	24992
164	0.60564	94179328	64106496	20737496	24992
165	0.603585	94179328	64106496	21545544	24992
166	0.60716	94179328	64106496	22357616	24992
167	0.648719	94179328	64106496	23173568	24992
168	0.718503	94179328	64106496	23993512	24992
169	0.621776	94179328	64106496	24817376	24992
170	0.62059	94179328	64106496	25645128	24992
171	0.623399	94179328	64106496	26476904	24992
172	0.629588	94179328	64106496	27312528	24992
173	0.632395	94179328	64106496	28152112	24992
174	0.687034	94179328	64106496	28997064	24992
175	0.633556	94179328	64106496	29844520	24992
176	0.64809	94179328	64106496	14370896	24992
177	0.641801	94179328	64106496	15226328	24992
178	0.64205	94179328	64106496	16085600	24992
179	0.649458	94179328	64106496	16950248	24992
180	0.648815	94179328	64106496	17817432	24992
181	0.649548	94179328	64106496	18688488	24992
182	0.705966	94179328	64106496	19563512	24992
183	0.658019	94179328	64106496	20442504	24992
184	0.660723	94179328	64106496	21325488	24992
185	0.861685	94179328	64106496	22212312	24992
186	0.671926	94179328	64106496	23103184	24992
187	0.673616	94179328	64106496	23997896	24992
188	0.675681	94179328	64106496	24896664	24992
189	0.718438	94179328	64106496	25805616	24992
190	0.729438	94179328	64106496	26712152	24992
191	0.726117	94179328	64106496	27622688	24992
192	0.728779	94179328	64106496	28537232	24992
193	0.868868	94179328	64106496	29456536	24992
194	1.191809	94179328	64106496	14049656	24992
195	0.707182	94179328	64106496	14975944	24992
196	0.701178	94179328	64106496	15906200	24992
197	0.71008	94179328	64106496	16840440	24992
198	0.702648	94179328	64106496	17778568	24992
199	0.750446	94179328	64106496	18730336	24992
200	0.748285	94179328	64106496	19684528	24992
201	0.713852	94179328	64106496	20642704	24992
202	0.910745	94179328	64106496	21604928	24992
203	0.717406	94179328	64106496	22570952	24992
204	0.766078	94179328	64106496	23540928	24992
205	0.775483	94179328	64106496	24514848	24992
206	0.771739	94179328	64106496	25494336	24992
207	0.783972	94179328	64106496	26492608	24992
208	0.776279	94179328	64106496	27512408	24992
209	0.780274	94179328	64106496	28537480	24992
210	0.750069	94179328	64106496	29568648	24992
211	1.202958	94179328	64106496	14244640	24992
212	0.790203	94179328	64106496	15279208	24992
213	0.794998	94179328	64106496	16317704	24992
214	0.7985	94179328	64106496	17360088	24992
215	0.800426	94179328	64106496	18406432	24992
216	0.817819	94179328	64106496	19456736	24992
217	0.807987	94179328	64106496	20510928	24992
218	0.816095	94179328	64106496	21569144	24992
219	0.813143	94179328	64106496	22631344	24992
220	0.812997	94179328	64106496	23697400	24992
221	0.81888	94179328	64106496	24769824	24992
222	0.819226	94179328	64106496	25843672	24992
223	0.823099	94179328	64106496	26921464	24992
224	0.831105	94179328	64106496	28003248	24992
225	0.839676	94179328	64106496	29088960	24992
226	0.833917	94179328	64106496	30178648	24992
227	0.846777	94179328	64106496	14906656	24992
228	0.844585	94179328	64106496	16004152	24992
229	1.042643	94179328	64106496	17117664	24992
230	0.850828	94179328	64106496	18237536	24992
231	0.864359	94179328	64106496	19361264	24992
232	0.853371	94179328	64106496	20489080	24992
233	0.870672	94179328	64106496	21620648	24992
234	0.859066	94179328	64106496	22756280	24992
235	0.880046	94179328	64106496	23895784	24992
236	0.869466	94179328	64106496	25039288	24992
237	0.871081	94179328	64106496	26186616	24992
238	0.880303	94179328	64106496	27338032	24992
239	0.876383	94179328	64106496	28493432	24992
240	0.885908	94179328	64106496	29652600	24992
241	1.246445	94179328	64106496	14454752	24992
242	0.881388	94179328	64106496	15621824	24992
243	0.895003	94179328	64106496	16793816	24992
244	0.894622	94179328	64106496	17969968	24992
245	0.900336	94179328	64106496	19148912	24992
246	0.914748	94179328	64106496	20331768	24992
247	0.906672	94179328	64106496	21518488	24992
248	0.913041	94179328	64106496	22717168	24992
249	0.911251	94179328	64106496	23914504	24992
250	0.919051	94179328	64106496	25113128	24992
251	0.967957	94179328	64106496	26317384	24992
252	0.920557	94179328	64106496	27524616	24992
253	0.938039	94179328	64106496	28734968	24992
254	1.10217	94179328	64106496	29951504	24992
255	0.923798	94179328	64106496	14886600	24992
256	0.937536	94179328	64106496	16108912	24992
257	0.949828	94179328	64106496	17336496	24992
258	0.942622	94179328	64106496	18566616	24992
259	1.142163	94179328	64106496	19800664	24992
260	0.949176	94179328	64106496	21038912	24992
261	0.954603	94179328	64106496	22286120	24992
262	0.956209	94179328	64106496	23531928	24992
263	0.950701	94179328	64106496	24790600	24992
264	0.965598	94179328	64106496	26044344	24992
265	0.926693	94179328	64106496	27302776	24992
266	0.973343	94179328	64106496	28568376	24992
267	0.972277	94179328	64106496	29837056	24992
268	0.997268	94179328	64106496	14782648	24992
269	0.975341	94179328	64106496	16056104	24992
270	0.979642	94179328	64106496	17341968	24992
271	0.97996	94179328	64106496	18623288	24992
272	0.982281	94179328	64106496	19908504	24992
273	0.988422	94179328	64106496	21197656	24992
274	0.988081	94179328	64106496	22490760	24992
275	1.175776	94179328	64106496	23787856	24992
276	1.000394	94179328	64106496	25094824	24992
277	1.006806	94179328	64106496	26399864	24992
278	1.002037	94179328	64106496	27708760	24992
279	1.014262	94179328	64106496	29023096	24992
280	1.156711	94179328	64106496	30339840	24992
281	1.014222	94179328	64106496	15343632	24992
282	1.006823	94179328	64106496	16668424	24992
283	1.016802	94179328	64106496	17997056	24992
284	1.033749	94179328	64106496	19329640	24992
285	1.023384	94179328	64106496	20666088	24992
286	1.026962	94179328	64106496	22006480	24992
287	1.032681	94179328	64106496	23351984	24992
288	1.030556	94179328	64106496	24700216	24992
289	1.050166	94179328	64106496	26052664	24992
290	1.040699	94179328	64106496	27408768	24992
291	1.222929	94179328	64106496	28768944	24992
292	1.049133	94179328	64106496	30144232	24992
293	1.06467	94179328	64106496	15240600	24992
294	1.063294	94179328	64106496	16612472	24992
295	1.054953	94179328	64106496	17988288	24992
296	1.044622	94179328	64106496	19373496	24992
297	1.06596	94179328	64106496	20757256	24992
298	1.100573	94179328	64106496	22147224	24992
299	1.073802	94179328	64106496	23538840	24992
300	1.064875	94179328	64106496	24934360	24992
301	1.2669	94179328	64106496	26333848	24992
302	1.079446	94179328	64106496	27737944	24992
303	1.085335	94179328	64106496	29145416	24992
304	1.084629	94179328	64106496	30556712	24992
305	1.097873	94179328	64106496	15613512	24992
306	1.257723	94179328	64106496	17032752	24992
307	1.04001	94179328	64106496	18455856	24992
308	1.109767	94179328	64106496	19885864	24992
309	1.105143	94179328	64106496	21319000	24992
310	1.098643	94179328	64106496	22754008	24992
311	1.105426	94179328	64106496	24195840	24992
312	1.107504	94179328	64106496	25649800	24992
313	1.113687	94179328	64106496	27108000	24992
314	1.123668	94179328	64106496	28558656	24992
315	1.114118	94179328	64106496	30013344	24992
316	1.126189	94179328	64106496	15207472	24992
317	1.293713	94179328	64106496	16676192	24992
318	1.120882	94179328	64106496	18146680	24992
319	1.099218	94179328	64106496	19620168	24992
320	1.13273	94179328	64106496	21094856	24992
321	1.196775	94179328	64106496	22573144	24992
322	1.204427	94179328	64106496	24055392	24992
323	1.19732	94179328	64106496	25541528	24992
324	1.19888	94179328	64106496	27035064	24992
325	1.218479	94179328	64106496	28529072	24992
326	1.202579	94179328	64106496	30030576	24992
327	1.223454	94179328	64106496	15285528	24992
328	1.216975	94179328	64106496	16791408	24992
329	1.366584	94179328	64106496	18301272	24992
330	1.134263	94179328	64106496	19815120	24992
331	1.159584	94179328	64106496	21332872	24992
332	1.167103	94179328	64106496	22858248	24992
333	1.164856	94179328	64106496	24383840	24992
334	1.387141	94179328	64106496	25913400	24992
335	1.218481	94179328	64106496	27448096	24992
336	1.175978	94179328	64106496	28992744	24992
337	1.224417	94179328	64106496	30551088	24992
338	1.196035	94179328	64106496	15793928	24992
339	1.16616	94179328	64106496	17359552	24992
340	1.19083	94179328	64106496	18941392	24992
341	1.201063	94179328	64106496	20516072	24992
342	1.207779	94179328	64106496	22093472	24992
343	1.227822	94179328	64106496	23674904	24992
344	1.248634	94179328	64106496	25260288	24992
345	1.223441	94179328	64106496	26856992	24992
346	1.231009	94179328	64106496	28451808	24992
347	1.223651	94179328	64106496	30049000	24992
348	1.240723	94179328	64106496	15287416	24992
349	1.226283	94179328	64106496	16892480	24992
350	1.269324	94179328	64106496	18514128	24992
351	1.238237	94179328	64106496	20128416	24992
352	1.205303	94179328	64106496	21745208	24992
353	1.247941	94179328	64106496	23366608	24992
354	1.236827	94179328	64106496	25004504	24992
355	1.241538	94179328	64106496	26633208	24992
356	1.433044	94179328	64106496	28265888	24992
357	1.258124	94179328	64106496	29908440	24992
358	1.590952	94179328	64106496	15224000	24992
359	1.253638	94179328	64106496	16868488	24992
360	1.306891	94179328	64106496	18534576	24992
361	1.267555	94179328	64106496	20209264	24992
362	1.262314	94179328	64106496	21887904	24992
363	1.276781	94179328	64106496	23571976	24992
364	1.269134	94179328	64106496	25258472	24992
365	1.277132	94179328	64106496	26948856	24992
366	1.29106	94179328	64106496	28643072	24992
367	1.284113	94179328	64106496	30341352	24992
368	1.295101	94179328	64106496	15810816	24992
369	1.229431	94179328	64106496	17516832	24992
370	1.302581	94179328	64106496	19229568	24992
371	1.289878	94179328	64106496	20943488	24992
372	1.294227	94179328	64106496	22661400	24992
373	1.349465	94179328	64106496	24395360	24992
374	1.317794	94179328	64106496	26121096	24992
375	1.30781	94179328	64106496	27850832	24992
376	1.317002	94179328	64106496	29585480	24992
377	1.892457	94179328	64106496	15045568	24992
378	1.325739	94179328	64106496	16787064	24992
379	1.314242	94179328	64106496	18532512	24992
380	1.321513	94179328	64106496	20281912	24992
381	1.534678	94179328	64106496	22035344	24992
382	1.340199	94179328	64106496	23792736	24992
383	1.335925	94179328	64106496	25554000	24992
384	1.338713	94179328	64106496	27319112	24992
385	1.52279	94179328	64106496	29088352	24992
386	1.346307	94179328	64106496	30864288	24992
387	1.34513	94179328	64106496	16333192	24992
388	1.351501	94179328	64106496	18114072	24992
389	1.522954	94179328	64106496	19905096	24992
390	1.298765	94179328	64106496	21693896	24992
391	1.36704	94179328	64106496	23486584	24992
392	1.361572	94179328	64106496	25283392	24992
393	1.386331	94179328	64106496	27084016	24992
394	1.36787	94179328	64106496	28894560	24992
395	1.377929	94179328	64106496	30703056	24992
396	1.384053	94179328	64106496	16208696	24992
397	1.536923	94179328	64106496	18024984	24992
398	1.387663	94179328	64106496	19845512	24992
399	1.372379	94179328	64106496	21684056	24992
400	1.393448	94179328	64106496	23512304	24992
401	1.373455	94179328	64106496	25347512	24992
402	1.397955	94179328	64106496	27183800	24992
403	1.391168	94179328	64106496	29023784	24992
404	1.402001	94179328	64106496	30870064	24992
405	1.403264	94179328	64106496	16414088	24992
406	1.435038	94179328	64106496	18265968	24992
407	1.408756	94179328	64106496	20125712	24992
408	1.411688	94179328	64106496	21985400	24992
409	1.360004	94179328	64106496	23868496	24992
410	1.412072	94179328	64106496	25765136	24992
411	1.425371	94179328	64106496	27653176	24992
412	1.584244	94179328	64106496	29552560	24992
413	1.859701	94179328	64106496	15232456	24992
414	1.427274	94179328	64106496	17153144	24992
415	1.44185	94179328	64106496	19056856	24992
416	1.454108	94179328	64106496	20964616	24992
417	1.446916	94179328	64106496	22917504	24992
418	1.439387	94179328	64106496	24916352	24992
419	1.443242	94179328	64106496	26908056	24992
420	1.467235	94179328	64106496	28897216	24992
421	1.493285	94179328	64106496	30890408	24992
422	1.434919	94179328	64106496	16587320	24992
423	1.402473	94179328	64106496	18588408	24992
424	1.431191	94179328	64106496	20593528	24992
425	1.472842	94179328	64106496	22602456	24992
426	1.480142	94179328	64106496	24615272	24992
427	1.659486	94179328	64106496	26632144	24992
428	1.472523	94179328	64106496	28656624	24992
429	1.47576	94179328	64106496	30688400	24992
430	1.494172	94179328	64106496	16450856	24992
431	1.485486	94179328	64106496	18483392	24992
432	1.498004	94179328	64106496	20519888	24992
433	1.50288	94179328	64106496	22560344	24992
434	1.493325	94179328	64106496	24604872	24992
435	1.491125	94179328	64106496	26655960	24992
436	1.500061	94179328	64106496	28710048	24992
437	1.768571	94179328	64106496	30776512	24992
438	1.517502	94179328	64106496	16542232	24992
439	1.526629	94179328	64106496	18606360	24992
440	1.533685	94179328	64106496	20674448	24992
441	1.525605	94179328	64106496	22746424	24992
442	1.516569	94179328	64106496	24822360	24992
443	1.526315	94179328	64106496	26902224	24992
444	1.535223	94179328	64106496	28986104	24992
445	1.574651	94179328	64106496	31073936	24992
446	1.54954	94179328	64106496	16893048	24992
447	1.552733	94179328	64106496	18998968	24992
448	1.537251	94179328	64106496	21098704	24992
449	1.546713	94179328	64106496	23202152	24992
450	1.512026	94179328	64106496	25309584	24992
451	1.48684	94179328	64106496	27421000	24992
452	2.011043	94179328	64106496	29536224	24992
453	1.993095	94179328	64106496	15450416	24992
454	1.578951	94179328	64106496	17573608	24992
455	1.763973	94179328	64106496	19700760	24992
456	1.571811	94179328	64106496	21831872	24992
457	1.572956	94179328	64106496	23966840	24992
458	1.56997	94179328	64106496	26105768	24992
459	1.50101	94179328	64106496	28252488	24992
460	1.591533	94179328	64106496	30415856	24992
461	1.607243	94179328	64106496	16390368	24992
462	1.559973	94179328	64106496	18584880	24992
463	1.600144	94179328	64106496	20743528	24992
464	1.699856	94179328	64106496	22906160	24992
465	1.591921	94179328	64106496	25072600	24992
466	1.541247	94179328	64106496	27250264	24992
467	1.691889	94179328	64106496	29441440	24992
468	2.006962	94179328	64106496	15420864	24992
469	1.60607	94179328	64106496	17608784	24992
470	1.636188	94179328	64106496	19794976	24992
471	1.631109	94179328	64106496	21985120	24992
472	1.909905	94179328	64106496	24193256	24992
473	1.628399	94179328	64106496	26394760	24992
474	1.625761	94179328	64106496	28596712	24992
475	1.625125	94179328	64106496	30802552	24992
476	1.639358	94179328	64106496	16783512	24992
477	1.626837	94179328	64106496	18997136	24992
478	1.635013	94179328	64106496	21221680	24992
479	1.567347	94179328	64106496	23443448	24992
480	1.642433	94179328	64106496	25668960	24992
481	1.680732	94179328	64106496	27898456	24992
482	1.869956	94179328	64106496	30131944	24992
483	2.006047	94179328	64106496	16084072	24992
484	1.670186	94179328	64106496	18325464	24992
485	1.832359	94179328	64106496	20570640	24992
486	1.672328	94179328	64106496	22823232	24992
487	1.66523	94179328	64106496	25076400	24992
488	1.589997	94179328	64106496	27333464	24992
489	1.66367	94179328	64106496	29607296	24992
490	2.116039	94179328	64106496	15685056	24992
491	1.680082	94179328	64106496	17954016	24992
492	1.607446	94179328	64106496	20229392	24992
493	1.713299	94179328	64106496	22506200	24992
494	1.682417	94179328	64106496	24786912	24992
495	1.844032	94179328	64106496	27084792	24992
496	1.699495	94179328	64106496	29373352	24992
497	2.150806	94179328	64106496	15493280	24992
498	1.720501	94179328	64106496	17804736	24992
499	1.724551	94179328	64106496	20105200	24992
500	1.714774	94179328	64106496	22427864	24992
501	1.918745	94179328	64106496	24738696	24992
502	1.71748	94179328	64106496	27052112	24992
503	1.714634	94179328	64106496	29368304	24992
504	2.340838	94179328	64106496	15514992	24992
505	1.681064	94179328	64106496	17857392	24992
506	1.903127	94179328	64106496	20185384	24992
507	1.729252	94179328	64106496	22536840	24992
508	1.722734	94179328	64106496	24872672	24992
509	1.736113	94179328	64106496	27212984	24992
510	1.687228	94179328	64106496	29576928	24992
511	2.099501	94179328	64106496	15747080	24992
512	1.783642	94179328	64106496	18102536	24992
513	1.737023	94179328	64106496	20471376	24992
514	1.736903	94179328	64106496	22830880	24992
515	1.749798	94179328	64106496	25196288	24992
516	1.674764	94179328	64106496	27572560	24992
517	1.766458	94179328	64106496	29943984	24992
518	2.083622	94179328	64106496	16062432	24992
519	1.799845	94179328	64106496	18451192	24992
520	1.740964	94179328	64106496	20845568	24992
521	1.773197	94179328	64106496	23232608	24992
522	1.77502	94179328	64106496	25627176	24992
523	1.927949	94179328	64106496	28022104	24992
524	1.790308	94179328	64106496	30424480	24992
525	2.10484	94179328	64106496	16460648	24992
526	1.794544	94179328	64106496	18883280	24992
527	1.78243	94179328	64106496	21294048	24992
528	1.720478	94179328	64106496	23715296	24992
529	1.942629	94179328	64106496	26135112	24992
530	1.731567	94179328	64106496	28557568	24992
531	1.813174	94179328	64106496	31000200	24992
532	1.991914	94179328	64106496	17227912	24992
533	1.81749	94179328	64106496	19669376	24992
534	1.826604	94179328	64106496	22109808	24992
535	1.823288	94179328	64106496	24552568	24992
536	1.776515	94179328	64106496	26998640	24992
537	1.837196	94179328	64106496	29449800	24992
538	2.680639	94179328	64106496	15749536	24992
539	1.836553	94179328	64106496	18207904	24992
540	1.839977	94179328	64106496	20671672	24992
541	2.011535	94179328	64106496	23137704	24992
542	1.780773	94179328	64106496	25621568	24992
543	1.759139	94179328	64106496	28095280	24992
544	1.843477	94179328	64106496	30579720	24992
545	1.869001	94179328	64106496	16701656	24992
546	1.851892	94179328	64106496	19200080	24992
547	1.851152	94179328	64106496	21710584	24992
548	1.776066	94179328	64106496	24205176	24992
549	1.863133	94179328	64106496	26704120	24992
550	1.851692	94179328	64106496	29205408	24992
551	1.869236	94179328	64106496	31711336	24992
552	1.867468	94179328	64106496	17887552	24992
553	1.87597	94179328	64106496	20400760	24992
554	1.878829	94179328	64106496	22939296	24992
555	1.884317	94179328	64106496	25465416	24992
556	1.803298	94179328	64106496	28017584	24992
557	1.892568	94179328	64106496	30586880	24992
558	1.898756	94179328	64106496	16812888	24992
559	1.886418	94179328	64106496	19404864	24992
560	1.904749	94179328	64106496	21989016	24992
561	2.09003	94179328	64106496	24573024	24992
562	1.915629	94179328	64106496	27157144	24992
563	1.90083	94179328	64106496	29757856	24992
564	2.359045	94179328	64106496	16160784	24992
565	1.922202	94179328	64106496	18759848	24992
566	1.94383	94179328	64106496	21359312	24992
567	2.075683	94179328	64106496	23964768	24992
568	2.124722	94179328	64106496	26571000	24992
569	1.927645	94179328	64106496	29189136	24992
570	1.926478	94179328	64106496	31803432	24992
571	1.920891	94179328	64106496	18090352	24992
572	1.913934	94179328	64106496	20730032	24992
573	1.935135	94179328	64106496	23356880	24992
574	1.94704	94179328	64106496	25992720	24992
575	2.146311	94179328	64106496	28631592	24992
576	1.959186	94179328	64106496	31269352	24992
577	1.962087	94179328	64106496	17689048	24992
578	2.147564	94179328	64106496	20334624	24992
579	1.954376	94179328	64106496	22992104	24992
580	1.963179	94179328	64106496	25645600	24992
581	1.965776	94179328	64106496	28303120	24992
582	1.961591	94179328	64106496	30989696	24992
583	1.978844	94179328	64106496	17510784	24992
584	1.965667	94179328	64106496	20183328	24992
585	1.983536	94179328	64106496	22875952	24992
586	2.171712	94179328	64106496	25556672	24992
587	1.907966	94179328	64106496	28237920	24992
588	1.989768	94179328	64106496	30924824	24992
589	1.999913	94179328	64106496	17477024	24992
590	1.940193	94179328	64106496	20169976	24992
591	2.009588	94179328	64106496	22866800	24992
592	1.919463	94179328	64106496	25567680	24992
593	2.00281	94179328	64106496	28272416	24992
594	2.005497	94179328	64106496	30981032	24992
595	2.036422	94179328	64106496	17556184	24992
596	2.007554	94179328	64106496	20275776	24992
597	1.94083	94179328	64106496	22999864	24992
598	2.027745	94179328	64106496	25725904	24992
599	2.014452	94179328	64106496	28454168	24992
600	1.940347	94179328	64106496	31186616	24992
601	1.940117	94179328	64106496	17787184	24992
602	1.983537	94179328	64106496	20527504	24992
603	2.025539	94179328	64106496	23284464	24992
604	1.991139	94179328	64106496	26032416	24992
605	2.054647	94179328	64106496	28785312	24992
606	2.049519	94179328	64106496	31549240	24992
607	2.043455	94179328	64106496	18064656	24992
608	1.962376	94179328	64106496	20833768	24992
609	2.002632	94179328	64106496	23601624	24992
610	2.050911	94179328	64106496	26373320	24992
611	2.060629	94179328	64106496	29155968	24992
612	2.109437	94179328	64106496	31951024	24992
613	2.082061	94179328	64106496	18450144	24992
614	2.069744	94179328	64106496	21237632	24992
615	2.066862	94179328	64106496	24031192	24992
616	1.98894	94179328	64106496	26826712	24992
617	2.029856	94179328	64106496	29641848	24992
618	2.741656	94179328	64106496	16321080	24992
619	2.089811	94179328	64106496	19137432	24992
620	2.085519	94179328	64106496	21948952	24992
621	2.032473	94179328	64106496	24766816	24992
622	1.98924	94179328	64106496	27610048	24992
623	2.095362	94179328	64106496	30438208	24992
624	2.60862	94179328	64106496	17028296	24992
625	2.110408	94179328	64106496	19859536	24992
626	2.295909	94179328	64106496	22694368	24992
627	2.125113	94179328	64106496	25537264	24992
628	2.107754	94179328	64106496	28379920	24992
629	2.107547	94179328	64106496	31226952	24992
630	2.123844	94179328	64106496	17957152	24992
631	2.041908	94179328	64106496	20813848	24992
632	2.119641	94179328	64106496	23675928	24992
633	2.131347	94179328	64106496	26538296	24992
634	2.031267	94179328	64106496	29408184	24992
635	2.532452	94179328	64106496	16170704	24992
636	2.321658	94179328	64106496	19060416	24992
637	2.149708	94179328	64106496	21938504	24992
638	2.147021	94179328	64106496	24821448	24992
639	2.137091	94179328	64106496	27722168	24992
640	2.148335	94179328	64106496	30617864	24992
641	2.675189	94179328	64106496	17226064	24992
642	2.063472	94179328	64106496	20125984	24992
643	2.0649	94179328	64106496	23027632	24992
644	2.103242	94179328	64106496	25940888	24992
645	2.15385	94179328	64106496	28850328	24992
646	2.168731	94179328	64106496	31763792	24992
647	2.177444	94179328	64106496	18453464	24992
648	2.183782	94179328	64106496	21374904	24992
649	2.296666	94179328	64106496	24331048	24992
650	2.175675	94179328	64106496	27270408	24992
651	2.083185	94179328	64106496	30203728	24992
652	2.564996	94179328	64106496	16912168	24992
653	2.20514	94179328	64106496	19861056	24992
654	2.192761	94179328	64106496	22834264	24992
655	2.149556	94179328	64106496	25784872	24992
656	2.374058	94179328	64106496	28737784	24992
657	2.215778	94179328	64106496	31701744	24992
658	2.20118	94179328	64106496	18459624	24992
659	2.207616	94179328	64106496	21447216	24992
660	2.216742	94179328	64106496	24420232	24992
661	2.224196	94179328	64106496	27392792	24992
662	2.224257	94179328	64106496	30369240	24992
663	2.594687	94179328	64106496	17126968	24992
664	2.176305	94179328	64106496	20136120	24992
665	2.236533	94179328	64106496	23124440	24992
666	2.374325	94179328	64106496	26129400	24992
667	2.23031	94179328	64106496	29130176	24992
668	2.272171	94179328	64106496	32130424	24992
669	2.254073	94179328	64106496	18909304	24992
670	2.247666	94179328	64106496	21934248	24992
671	2.271605	94179328	64106496	24946248	24992
672	2.242615	94179328	64106496	27964272	24992
673	2.460113	94179328	64106496	30989528	24992
674	2.274027	94179328	64106496	17940400	24992
675	2.255729	94179328	64106496	20969736	24992
676	2.319389	94179328	64106496	24024912	24992
677	2.277054	94179328	64106496	27060616	24992
678	2.419643	94179328	64106496	30100152	24992
679	2.673327	94179328	64106496	16952032	24992
680	2.479101	94179328	64106496	20004512	24992
681	2.290829	94179328	64106496	23061384	24992
682	2.287487	94179328	64106496	26137888	24992
683	2.186223	94179328	64106496	29207472	24992
684	2.482228	94179328	64106496	32288488	24992
685	2.589299	94179328	64106496	19075808	24992
686	2.245898	94179328	64106496	22175504	24992
687	2.290044	94179328	64106496	25273184	24992
688	2.309009	94179328	64106496	28370864	24992
689	2.312124	94179328	64106496	31476880	24992
690	2.316143	94179328	64106496	18490504	24992
691	2.319419	94179328	64106496	21615624	24992
692	2.440165	94179328	64106496	24729744	24992
693	2.312862	94179328	64106496	27871512	24992
694	2.59799	94179328	64106496	30994848	24992
695	2.34361	94179328	64106496	17773744	24992
696	2.229678	94179328	64106496	20902728	24992
697	2.321546	94179328	64106496	24033696	24992
698	2.337786	94179328	64106496	27168464	24992
699	2.349956	94179328	64106496	30327464	24992
700	2.901261	94179328	64106496	17261968	24992
701	2.447844	94179328	64106496	20425360	24992
702	2.340495	94179328	64106496	23580960	24992
703	2.352776	94179328	64106496	26747344	24992
704	2.245876	94179328	64106496	29905880	24992
705	2.845329	94179328	64106496	16980456	24992
706	2.312557	94179328	64106496	20146816	24992
707	2.358942	94179328	64106496	23328616	24992
708	2.56704	94179328	64106496	26502912	24992
709	2.374009	94179328	64106496	29687632	24992
710	2.819282	94179328	64106496	16798968	24992
711	2.326273	94179328	64106496	19987672	24992
712	2.377592	94179328	64106496	23201848	24992
713	2.374234	94179328	64106496	26422688	24992
714	2.389339	94179328	64106496	29620416	24992
715	3.046411	94179328	64106496	16747608	24992
716	2.279369	94179328	64106496	19953192	24992
717	2.580535	94179328	64106496	23164672	24992
718	2.303643	94179328	64106496	26379992	24992
719	2.393195	94179328	64106496	29607568	24992
720	2.910116	94179328	64106496	16757112	24992
721	2.41165	94179328	64106496	19982536	24992
722	2.305449	94179328	64106496	23213056	24992
723	2.307721	94179328	64106496	26446432	24992
724	2.741514	94179328	64106496	29683616	24992
725	2.902558	94179328	64106496	16855352	24992
726	2.473436	94179328	64106496	20101728	24992
727	2.425731	94179328	64106496	23351264	24992
728	2.424012	94179328	64106496	26606872	24992
729	2.442321	94179328	64106496	29863792	24992
730	2.946044	94179328	64106496	17059208	24992
731	2.338644	94179328	64106496	20334568	24992
732	2.441261	94179328	64106496	23611056	24992
733	2.371213	94179328	64106496	26883952	24992
734	2.350712	94179328	64106496	30167784	24992
735	3.060799	94179328	64106496	17253184	24992
736	2.479348	94179328	64106496	20542472	24992
737	2.455371	94179328	64106496	23832376	24992
738	2.420774	94179328	64106496	27158024	24992
739	2.465863	94179328	64106496	30454384	24992
740	2.854589	94179328	64106496	17555400	24992
741	2.477703	94179328	64106496	20862192	24992
742	2.446409	94179328	64106496	24182792	24992
743	2.480031	94179328	64106496	27494944	24992
744	2.616325	94179328	64106496	30827800	24992
745	2.816131	94179328	64106496	17888136	24992
746	2.501653	94179328	64106496	21212040	24992
747	2.626316	94179328	64106496	24539944	24992
748	2.677944	94179328	64106496	27871664	24992
749	2.503032	94179328	64106496	31207488	24992
750	2.512504	94179328	64106496	18488240	24992
751	2.498376	94179328	64106496	21838568	24992
752	2.503857	94179328	64106496	25214288	24992
753	2.508879	94179328	64106496	28568232	24992
754	2.514658	94179328	64106496	31929768	24992
755	2.425297	94179328	64106496	19111104	24992
756	2.522111	94179328	64106496	22477688	24992
757	2.652965	94179328	64106496	25845560	24992
758	2.518939	94179328	64106496	29216616	24992
759	2.539544	94179328	64106496	32591736	24992
760	2.550811	94179328	64106496	19733920	24992
761	2.688115	94179328	64106496	23124480	24992
762	2.548278	94179328	64106496	26511496	24992
763	2.490638	94179328	64106496	29907960	24992
764	3.009162	94179328	64106496	17255016	24992
765	2.543491	94179328	64106496	20654200	24992
766	2.574615	94179328	64106496	24073768	24992
767	2.558408	94179328	64106496	27480424	24992
768	2.537175	94179328	64106496	30899456	24992
769	3.096564	94179328	64106496	18058792	24992
770	2.565059	94179328	64106496	21484256	24992
771	2.576059	94179328	64106496	24907456	24992
772	2.567667	94179328	64106496	28350040	24992
773	2.557204	94179328	64106496	31794760	24992
774	2.60729	94179328	64106496	19194752	24992
775	2.599364	94179328	64106496	22633120	24992
776	2.553406	94179328	64106496	26084248	24992
777	2.53386	94179328	64106496	29557432	24992
778	3.122623	94179328	64106496	17013440	24992
779	2.60083	94179328	64106496	20467344	24992
780	2.793903	94179328	64106496	23930448	24992
781	2.5995	94179328	64106496	27395904	24992
782	2.753772	94179328	64106496	30885976	24992
783	2.94637	94179328	64106496	18182040	24992
784	2.613652	94179328	64106496	21661680	24992
785	2.603494	94179328	64106496	25139168	24992
786	2.734772	94179328	64106496	28638744	24992
787	2.577057	94179328	64106496	32148648	24992
788	2.80092	94179328	64106496	19488504	24992
789	2.652967	94179328	64106496	23008416	24992
790	2.62504	94179328	64106496	26512416	24992
791	2.58725	94179328	64106496	30013936	24992
792	3.129665	94179328	64106496	17525176	24992
793	2.650666	94179328	64106496	21035352	24992
794	2.62798	94179328	64106496	24552176	24992
795	2.59342	94179328	64106496	28099136	24992
796	2.667087	94179328	64106496	31619920	24992
797	2.670394	94179328	64106496	19135168	24992
798	2.532346	94179328	64106496	22663928	24992
799	2.544447	94179328	64106496	26209216	24992
800	2.544525	94179328	64106496	29748576	24992
801	3.076771	94179328	64106496	17320288	24992
802	2.676401	94179328	64106496	20864744	24992
803	2.672981	94179328	64106496	24425768	24992
804	2.663698	94179328	64106496	28013992	24992
805	2.651558	94179328	64106496	31570208	24992
806	2.689125	94179328	64106496	19120560	24992
807	2.589137	94179328	64106496	22701088	24992
808	2.606153	94179328	64106496	26299608	24992
809	2.675943	94179328	64106496	29871632	24992
810	3.234152	94179328	64106496	17442080	24992
811	2.580674	94179328	64106496	21049128	24992
812	2.844263	94179328	64106496	24661368	24992
813	2.574707	94179328	64106496	28273640	24992
814	2.687178	94179328	64106496	31885880	24992
815	2.715269	94179328	64106496	19480064	24992
816	2.715045	94179328	64106496	23085072	24992
817	2.709846	94179328	64106496	26698240	24992
818	2.743659	94179328	64106496	30311472	24992
819	3.208921	94179328	64106496	17825632	24992
820	2.732151	94179328	64106496	21459048	24992
821	2.725612	94179328	64106496	25088872	24992
822	2.727449	94179328	64106496	28714592	24992
823	2.611274	94179328	64106496	32343400	24992
824	2.74488	94179328	64106496	19851776	24992
825	2.683905	94179328	64106496	23486952	24992
826	2.744956	94179328	64106496	27126056	24992
827	2.760544	94179328	64106496	30806760	24992
828	3.231795	94179328	64106496	18304088	24992
829	2.755129	94179328	64106496	21971456	24992
830	2.749732	94179328	64106496	25665760	24992
831	2.75499	94179328	64106496	29345448	24992
832	2.759622	94179328	64106496	33072144	24992
833	2.771851	94179328	64106496	20568872	24992
834	2.685703	94179328	64106496	24272016	24992
835	2.655604	94179328	64106496	27970864	24992
836	2.658239	94179328	64106496	31665600	24992
837	2.744114	94179328	64106496	19384536	24992
838	2.942878	94179328	64106496	23120216	24992
839	2.790035	94179328	64106496	26933768	24992
840	2.939159	94179328	64106496	30709888	24992
841	3.275694	94179328	64106496	18343376	24992
842	2.960659	94179328	64106496	22128480	24992
843	2.729949	94179328	64106496	25933408	24992
844	2.793792	94179328	64106496	29725384	24992
845	3.419829	94179328	64106496	17551160	24992
846	2.951307	94179328	64106496	21372936	24992
847	2.813651	94179328	64106496	25176744	24992
848	2.946877	94179328	64106496	28989856	24992
849	2.713712	94179328	64106496	32801584	24992
850	2.839476	94179328	64106496	20529304	24992
851	2.815607	94179328	64106496	24412680	24992
852	2.71302	94179328	64106496	28287880	24992
853	2.911882	94179328	64106496	32191752	24992
854	2.862675	94179328	64106496	20121640	24992
855	2.932663	94179328	64106496	24019480	24992
856	2.733534	94179328	64106496	27910352	24992
857	2.842488	94179328	64106496	31815768	24992
858	2.780826	94179328	64106496	19769896	24992
859	2.837052	94179328	64106496	23672712	24992
860	2.849588	94179328	64106496	27621144	24992
861	3.032089	94179328	64106496	31531736	24992
862	2.795977	94179328	64106496	19178552	24992
863	2.974794	94179328	64106496	23112088	24992
864	2.853163	94179328	64106496	27064256	24992
865	2.87639	94179328	64106496	30990584	24992
866	3.399615	94179328	64106496	18791480	24992
867	3.001759	94179328	64106496	22729632	24992
868	2.89166	94179328	64106496	26692984	24992
869	3.102393	94179328	64106496	30635072	24992
870	3.379094	94179328	64106496	18446672	24992
871	2.82704	94179328	64106496	22396584	24992
872	2.839561	94179328	64106496	26350568	24992
873	2.776581	94179328	64106496	30331128	24992
874	3.357832	94179328	64106496	18258248	24992
875	2.909715	94179328	64106496	22232032	24992
876	2.885464	94179328	64106496	26217520	24992
877	2.962497	94179328	64106496	30191016	24992
878	3.489855	94179328	64106496	18217752	24992
879	2.849219	94179328	64106496	22206280	24992
880	3.01465	94179328	64106496	26231544	24992
881	2.780578	94179328	64106496	30220896	24992
882	3.80502	94179328	64106496	18265192	24992
883	2.932271	94179328	64106496	22274768	24992
884	2.869501	94179328	64106496	26303680	24992
885	3.045239	94179328	64106496	30338592	24992
886	3.62031	94179328	64106496	18342984	24992
887	2.945547	94179328	64106496	22355992	24992
888	2.938177	94179328	64106496	26404720	24992
889	3.176417	94179328	64106496	30466488	24992
890	3.571914	94179328	64106496	18417408	24992
891	3.094633	94179328	64106496	22446200	24992
892	2.929603	94179328	64106496	26481536	24992
893	2.947718	94179328	64106496	30530928	24992
894	3.54179	94179328	64106496	18511088	24992
895	2.934153	94179328	64106496	22555736	24992
896	2.907027	94179328	64106496	26604152	24992
897	2.911039	94179328	64106496	30663832	24992
898	3.740882	94179328	64106496	18606128	24992
899	2.835193	94179328	64106496	22666536	24992
900	2.989634	94179328	64106496	26730784	24992
901	2.979074	94179328	64106496	30803776	24992
902	3.740955	94179328	64106496	18750248	24992
903	2.989274	94179328	64106496	22879992	24992
904	2.927942	94179328	64106496	27007848	24992
905	2.997293	94179328	64106496	31136816	24992
906	3.584665	94179328	64106496	19137928	24992
907	3.175655	94179328	64106496	23229744	24992
908	3.006651	94179328	64106496	27325512	24992
909	3.165786	94179328	64106496	31425120	24992
910	3.547467	94179328	64106496	19347672	24992
911	2.867554	94179328	64106496	23463160	24992
912	3.010444	94179328	64106496	27591912	24992
913	3.020047	94179328	64106496	31729040	24992
914	3.036889	94179328	64106496	19642680	24992
915	3.017031	94179328	64106496	23765992	24992
916	3.040516	94179328	64106496	27893136	24992
917	2.924702	94179328	64106496	32024240	24992
918	3.266132	94179328	64106496	20224272	24992
919	3.03891	94179328	64106496	24363344	24992
920	3.027813	94179328	64106496	28506376	24992
921	3.040821	94179328	64106496	32676360	24992
922	3.058448	94179328	64106496	20839840	24992
923	3.222432	94179328	64106496	25016408	24992
924	3.054637	94179328	64106496	29204536	24992
925	3.218937	94179328	64106496	33380424	24992
926	2.998802	94179328	64106496	21434824	24992
927	3.060228	94179328	64106496	25644248	24992
928	3.025714	94179328	64106496	29842824	24992
929	3.702975	94179328	64106496	18095624	24992
930	3.207174	94179328	64106496	22278152	24992
931	3.068183	94179328	64106496	26464552	24992
932	3.087119	94179328	64106496	30654840	24992
933	3.772059	94179328	64106496	18802728	24992
934	2.947201	94179328	64106496	23005136	24992
935	3.082533	94179328	64106496	27211408	24992
936	3.085842	94179328	64106496	31458128	24992
937	3.734155	94179328	64106496	19552752	24992
938	3.091906	94179328	64106496	23768104	24992
939	3.264991	94179328	64106496	27985936	24992
940	3.121475	94179328	64106496	32207720	24992
941	3.11979	94179328	64106496	20539224	24992
942	3.074819	94179328	64106496	24816792	24992
943	3.118133	94179328	64106496	29050384	24992
944	3.298935	94179328	64106496	33288032	24992
945	3.099749	94179328	64106496	21412616	24992
946	3.288277	94179328	64106496	25708768	24992
947	3.067935	94179328	64106496	30009512	24992
948	3.903243	94179328	64106496	18346504	24992
949	3.26943	94179328	64106496	22644280	24992
950	3.129212	94179328	64106496	26946792	24992
951	3.40084	94179328	64106496	31211976	24992
952	3.974016	94179328	64106496	19370216	24992
953	3.067203	94179328	64106496	23643344	24992
954	3.329262	94179328	64106496	27920304	24992
955	3.160125	94179328	64106496	32207856	24992
956	3.108507	94179328	64106496	20576880	24992
957	3.044115	94179328	64106496	24877920	24992
958	3.119255	94179328	64106496	29170544	24992
959	3.086579	94179328	64106496	33471424	24992
960	3.171223	94179328	64106496	21697672	24992
961	3.072304	94179328	64106496	26028528	24992
962	3.103687	94179328	64106496	30336920	24992
963	4.150247	94179328	64106496	18748528	24992
964	3.186124	94179328	64106496	23064864	24992
965	3.070652	94179328	64106496	27403056	24992
966	3.187476	94179328	64106496	31738888	24992
967	3.791422	94179328	64106496	19866160	24992
968	3.154439	94179328	64106496	24198200	24992
969	3.199734	94179328	64106496	28535344	24992
970	3.14075	94179328	64106496	32875408	24992
971	3.217278	94179328	64106496	21303224	24992
972	3.151031	94179328	64106496	25662296	24992
973	3.364027	94179328	64106496	30058040	24992
974	4.053523	94179328	64106496	18522464	24992
975	3.079089	94179328	64106496	22889648	24992
976	3.234054	94179328	64106496	27257992	24992
977	3.210067	94179328	64106496	31648544	24992
978	4.098272	94179328	64106496	19921480	24992
979	3.228473	94179328	64106496	24296920	24992
980	3.177403	94179328	64106496	28681496	24992
981	3.255713	94179328	64106496	33064784	24992
982	3.186729	94179328	64106496	21426088	24992
983	3.170834	94179328	64106496	25817208	24992
984	3.237373	94179328	64106496	30213888	24992
985	3.978548	94179328	64106496	18712136	24992
986	3.134716	94179328	64106496	23139808	24992
987	3.246823	94179328	64106496	27572176	24992
988	3.247967	94179328	64106496	31994832	24992
989	3.890724	94179328	64106496	20141672	24992
990	3.155986	94179328	64106496	24565328	24992
991	3.271939	94179328	64106496	28988072	24992
992	3.279288	94179328	64106496	33421392	24992
993	3.268607	94179328	64106496	21754128	24992
994	3.26995	94179328	64106496	26188536	24992
995	3.280389	94179328	64106496	30626928	24992
996	4.004155	94179328	64106496	19213720	24992
997	3.289499	94179328	64106496	23660176	24992
998	3.231408	94179328	64106496	28110440	24992
999	3.663249	94179328	64106496	32591792	24992
1000	3.39858	94179328	64106496	21158920	24992
