x	Duration	RSS	HeapTotal	HeapUsed	External
0	NA	95211520	64630784	12506264	24992
1	0.531872	95211520	64630784	12554784	24992
2	0.676249	95211520	64630784	12626480	24992
3	0.274106	95211520	64630784	12731648	24992
4	0.262575	95211520	64630784	12822608	24992
5	0.270951	95211520	64630784	12917448	24992
6	0.323237	95211520	64630784	13020368	24992
7	0.280564	95211520	64630784	13123936	24992
8	0.278122	95211520	64630784	13231280	24992
9	0.291037	95211520	64630784	13342400	24992
10	0.298476	95211520	64630784	13457384	24992
11	0.304864	95211520	64630784	13576040	24992
12	0.31661	95211520	64630784	13700728	24992
13	0.160112	95211520	64630784	13830344	24992
14	0.140627	95211520	64630784	13963728	24992
15	0.14388	95211520	64630784	14100888	24992
16	0.146793	95211520	64630784	14241824	24992
17	0.15064	95211520	64630784	14387624	24992
18	0.155231	95211520	64630784	14537216	24992
19	0.158147	95211520	64630784	14690912	24992
20	0.15955	95211520	64630784	14848008	24992
21	0.163018	95211520	64630784	15008888	24992
22	0.166843	95211520	64630784	15173528	24992
23	0.365622	95211520	64630784	15341944	24992
24	0.191907	95211520	64630784	15514168	24992
25	0.17705	95211520	64630784	15692312	24992
26	0.179711	95211520	64630784	15876408	24992
27	0.195291	95211520	64630784	16064352	24992
28	0.212522	95211520	64630784	16256912	24992
29	0.191396	95211520	64630784	16452304	24992
30	0.35823	95211520	64630784	16651496	24992
31	0.20349	95211520	64630784	16854432	24992
32	0.219751	95211520	64630784	17061144	24992
33	0.202766	95211520	64630784	17273936	24992
34	0.199702	95211520	64630784	17490040	24992
35	0.200636	95211520	64630784	17709960	24992
36	0.202098	95211520	64630784	17933584	24992
37	0.209237	95211520	64630784	18161040	24992
38	0.208208	95211520	64630784	18392208	24992
39	0.213559	95211520	64630784	18627544	24992
40	0.403071	95211520	64630784	18866264	24992
41	0.229622	95211520	64630784	19108760	24992
42	0.222747	95211520	64630784	19355056	24992
43	0.224499	95211520	64630784	19607200	24992
44	0.227808	95211520	64630784	19863136	24992
45	0.230029	95211520	64630784	20123488	24992
46	0.233618	95211520	64630784	20386968	24992
47	0.236935	95211520	64630784	20654192	24992
48	0.242858	95211520	64630784	20925296	24992
49	0.241179	95211520	64630784	21200072	24992
50	0.245278	95211520	64630784	21478656	24992
51	0.248092	95211520	64630784	21765128	24992
52	0.250785	95211520	64630784	22059568	24992
53	0.257216	95211520	64630784	22357896	24992
54	0.275203	95211520	64630784	22660624	24992
55	0.299835	95211520	64630784	22966696	24992
56	0.27171	95211520	64630784	23276312	24992
57	0.274036	95211520	64630784	23590840	24992
58	0.269117	95211520	64630784	23907968	24992
59	0.274923	95211520	64630784	24228816	24992
60	0.275138	95211520	64630784	24553432	24992
61	0.316001	95211520	64630784	24881864	24992
62	0.28499	95211520	64630784	25214024	24992
63	0.284753	95211520	64630784	25549960	24992
64	0.287322	95211520	64630784	25889664	24992
65	0.288818	95211520	64630784	26233248	24992
66	0.291712	95211520	64630784	26580512	24992
67	0.297824	95211520	64630784	26931528	24992
68	0.301445	95211520	64630784	27286336	24992
69	0.300192	95211520	64630784	27644920	24992
70	0.310076	95211520	64630784	28007344	24992
71	0.3074	95211520	64630784	28373440	24992
72	0.342773	95211520	64630784	28743368	24992
73	1.04024	95211520	64630784	12982808	24992
74	0.344974	95211520	64630784	13360264	24992
75	0.34882	95211520	64630784	13741528	24992
76	0.350434	95211520	64630784	14126472	24992
77	0.539698	95211520	64630784	14520008	24992
78	0.335957	95211520	64630784	14916712	24992
79	0.336445	95211520	64630784	15317248	24992
80	0.333923	95211520	64630784	15721448	24992
81	0.340763	95211520	64630784	16129512	24992
82	0.349466	95211520	64630784	16541320	24992
83	0.346381	95211520	64630784	16956888	24992
84	0.349771	95211520	64630784	17377304	24992
85	0.352171	95211520	64630784	17800352	24992
86	0.356575	95211520	64630784	18227208	24992
87	0.359165	95211520	64630784	18657840	24992
88	0.359814	95211520	64630784	19092216	24992
89	0.360726	95211520	64630784	19530360	24992
90	0.368006	95211520	64630784	19972288	24992
91	0.367235	95211520	64630784	20417968	24992
92	0.370527	95211520	64630784	20867456	24992
93	0.383765	95211520	64630784	21320712	24992
94	0.381826	95211520	64630784	21777720	24992
95	0.381146	95211520	64630784	22239008	24992
96	0.386493	95211520	64630784	22711288	24992
97	0.395703	95211520	64630784	23183784	24992
98	0.393118	95211520	64630784	23660144	24992
99	0.395767	95211520	64630784	24140176	24992
100	0.396337	95211520	64630784	24623984	24992
101	0.398054	95211520	64630784	25112872	24992
102	0.402815	95211520	64630784	25604192	24992
103	0.406031	95211520	64630784	26099960	24992
104	0.412337	95211520	64630784	26607160	24992
105	0.413102	95211520	64630784	27126528	24992
106	0.434379	95211520	64630784	27649664	24992
107	0.422823	95211520	64630784	28176488	24992
108	0.45559	95211520	64630784	28707976	24992
109	0.431297	95211520	64630784	29244736	24992
110	0.460114	95211520	64630784	13574368	24992
111	0.463137	95211520	64630784	14116336	24992
112	0.466286	95211520	64630784	14662056	24992
113	0.465894	95211520	64630784	15211512	24992
114	0.46977	95211520	64630784	15764840	24992
115	0.477531	95211520	64630784	16325104	24992
116	0.475698	95211520	64630784	16885872	24992
117	0.476585	95211520	64630784	17450464	24992
118	0.460752	95211520	64630784	18018768	24992
119	0.454321	95211520	64630784	18590840	24992
120	0.456671	95211520	64630784	19166784	24992
121	0.473347	95211520	64630784	19746464	24992
122	0.460461	95211520	64630784	20329904	24992
123	0.464814	95211520	64630784	20917080	24992
124	0.470508	95211520	64630784	21508432	24992
125	0.491256	95211520	64630784	22103224	24992
126	0.478312	95211520	64630784	22701704	24992
127	0.476775	95211520	64630784	23304056	24992
128	0.484692	95211520	64630784	23910096	24992
129	0.702193	95211520	64630784	24519904	24992
130	0.487891	95211520	64630784	25133568	24992
131	0.494685	95211520	64630784	25750968	24992
132	0.494652	95211520	64630784	26372120	24992
133	0.495362	95211520	64630784	26997064	24992
134	0.499154	95211520	64630784	27625744	24992
135	0.500257	95211520	64630784	28259040	24992
136	0.516972	95211520	64630784	28895272	24992
137	0.998047	95211520	64630784	13263664	24992
138	0.550449	95211520	64630784	13907392	24992
139	0.74076	95211520	64630784	14554912	24992
140	0.525058	95211520	64630784	15206272	24992
141	0.519482	95211520	64630784	15861304	24992
142	0.520263	95211520	64630784	16525232	24992
143	0.523723	95211520	64630784	17187856	24992
144	0.534012	95211520	64630784	17854216	24992
145	0.533824	95211520	64630784	18524352	24992
146	0.580238	95211520	64630784	19198336	24992
147	0.538714	95211520	64630784	19876128	24992
148	0.538435	95211520	64630784	20557592	24992
149	0.746827	95211520	64630784	21242784	24992
150	0.552229	95211520	64630784	21931896	24992
151	0.547856	95211520	64630784	22624704	24992
152	0.555616	95211520	64630784	23321232	24992
153	0.554945	95211520	64630784	24021600	24992
154	0.555181	95211520	64630784	24725728	24992
155	0.557497	95211520	64630784	25433552	24992
156	0.561805	95211520	64630784	26145920	24992
157	0.564392	95211520	64630784	26861312	24992
158	0.570537	95211520	64630784	27583896	24992
159	0.605599	95211520	64630784	28306808	24992
160	0.57624	95211520	64630784	29033600	24992
161	1.068497	95211520	64630784	13467048	24992
162	0.59589	95211520	64630784	14201376	24992
163	0.591809	95211520	64630784	14939424	24992
164	0.586797	95211520	64630784	15689456	24992
165	0.596522	95211520	64630784	16443312	24992
166	0.593496	95211520	64630784	17204328	24992
167	0.603333	95211520	64630784	17965720	24992
168	0.60605	95211520	64630784	18730888	24992
169	0.602532	95211520	64630784	19499912	24992
170	0.602475	95211520	64630784	20272728	24992
171	0.605277	95211520	64630784	21049280	24992
172	0.610302	95211520	64630784	21829512	24992
173	1.025242	95211520	64630784	22613608	24992
174	0.647001	95211520	64630784	23404032	24992
175	0.622789	95211520	64630784	24195600	24992
176	0.838152	95211520	64630784	24993088	24992
177	0.63745	95211520	64630784	25793432	24992
178	0.633766	95211520	64630784	26596368	24992
179	0.633523	95211520	64630784	27402992	24992
180	0.633215	95211520	64630784	28213392	24992
181	0.63878	95211520	64630784	29027536	24992
182	1.127941	95211520	64630784	13550368	24992
183	0.690034	95211520	64630784	14372088	24992
184	0.891045	95211520	64630784	15197560	24992
185	0.664152	95211520	64630784	16026856	24992
186	0.653088	95211520	64630784	16859848	24992
187	0.657126	95211520	64630784	17697808	24992
188	0.662118	95211520	64630784	18538344	24992
189	0.667658	95211520	64630784	19382776	24992
190	0.66721	95211520	64630784	20230928	24992
191	0.670257	95211520	64630784	21082920	24992
192	0.880601	95211520	64630784	21938568	24992
193	0.818534	95211520	64630784	22798896	24992
194	0.686504	95211520	64630784	23662088	24992
195	0.684	95211520	64630784	24529008	24992
196	0.72234	95211520	64630784	25400776	24992
197	0.749239	95211520	64630784	26275344	24992
198	0.735764	95211520	64630784	27153600	24992
199	0.740914	95211520	64630784	28035624	24992
200	0.74391	95211520	64630784	28921440	24992
201	0.743126	95211520	64630784	29819256	24992
202	0.753484	95211520	64630784	14368128	24992
203	0.753855	95211520	64630784	15273600	24992
204	0.771023	95211520	64630784	16189976	24992
205	0.761686	95211520	64630784	17102952	24992
206	0.75892	95211520	64630784	18023632	24992
207	0.720574	95211520	64630784	18944080	24992
208	0.724121	95211520	64630784	19868400	24992
209	0.739383	95211520	64630784	20812928	24992
210	0.732944	95211520	64630784	21777800	24992
211	0.724291	95211520	64630784	22746368	24992
212	0.739505	95211520	64630784	23723008	24992
213	0.742899	95211520	64630784	24700416	24992
214	0.950225	95211520	64630784	25680328	24992
215	0.740182	95211520	64630784	26664048	24992
216	0.760344	95211520	64630784	27651568	24992
217	0.742832	95211520	64630784	28642824	24992
218	0.749495	95211520	64630784	29639224	24992
219	0.809207	95211520	64630784	14330280	24992
220	0.805753	95211520	64630784	15332768	24992
221	0.818548	95211520	64630784	16339072	24992
222	0.811652	95211520	64630784	17350616	24992
223	0.868552	95211520	64630784	18367208	24992
224	0.779734	95211520	64630784	19393008	24992
225	0.779082	95211520	64630784	20414392	24992
226	0.77996	95211520	64630784	21439568	24992
227	0.782748	95211520	64630784	22469144	24992
228	0.782132	95211520	64630784	23501840	24992
229	0.778448	95211520	64630784	24541160	24992
230	0.791235	95211520	64630784	25581376	24992
231	0.847786	95211520	64630784	26633208	24992
232	1.03524	95211520	64630784	27682320	24992
233	0.798209	95211520	64630784	28740536	24992
234	1.142652	95211520	64630784	29795840	24992
235	0.820722	95211520	64630784	14519384	24992
236	0.85856	95211520	64630784	15586744	24992
237	0.808776	95211520	64630784	16653368	24992
238	0.844723	95211520	64630784	17730920	24992
239	0.822367	95211520	64630784	18805104	24992
240	0.813823	95211520	64630784	19883128	24992
241	0.873805	95211520	64630784	20964888	24992
242	0.869757	95211520	64630784	22050392	24992
243	0.840225	95211520	64630784	23139664	24992
244	0.830368	95211520	64630784	24232680	24992
245	0.842959	95211520	64630784	25329552	24992
246	0.829705	95211520	64630784	26430104	24992
247	0.865947	95211520	64630784	27534504	24992
248	0.846276	95211520	64630784	28642696	24992
249	0.870391	95211520	64630784	29754624	24992
250	0.863596	95211520	64630784	14570824	24992
251	0.867241	95211520	64630784	15698160	24992
252	0.908459	95211520	64630784	16821432	24992
253	0.901774	95211520	64630784	17948344	24992
254	0.934881	95211520	64630784	19079072	24992
255	0.863999	95211520	64630784	20213656	24992
256	0.874907	95211520	64630784	21351976	24992
257	0.873722	95211520	64630784	22500240	24992
258	0.867856	95211520	64630784	23646152	24992
259	0.883685	95211520	64630784	24795776	24992
260	0.872275	95211520	64630784	25949216	24992
261	0.887524	95211520	64630784	27106416	24992
262	0.88068	95211520	64630784	28267400	24992
263	0.891973	95211520	64630784	29432088	24992
264	1.28851	95211520	64630784	14265152	24992
265	1.12207	95211520	64630784	15438168	24992
266	0.897905	95211520	64630784	16614240	24992
267	0.915768	95211520	64630784	17793992	24992
268	0.902891	95211520	64630784	18977760	24992
269	1.132019	95211520	64630784	20170576	24992
270	0.912223	95211520	64630784	21361696	24992
271	0.950735	95211520	64630784	22556632	24992
272	0.910804	95211520	64630784	23755248	24992
273	0.917768	95211520	64630784	24957688	24992
274	0.916891	95211520	64630784	26163912	24992
275	0.976299	95211520	64630784	27373856	24992
276	0.923126	95211520	64630784	28587624	24992
277	0.952093	95211520	64630784	29809112	24992
278	0.952545	95211520	64630784	14735928	24992
279	0.944925	95211520	64630784	15961408	24992
280	0.985717	95211520	64630784	17190264	24992
281	0.997261	95211520	64630784	18424848	24992
282	1.042182	95211520	64630784	19661304	24992
283	0.956416	95211520	64630784	20902176	24992
284	1.017113	95211520	64630784	22146208	24992
285	0.949448	95211520	64630784	23393912	24992
286	0.981013	95211520	64630784	24645456	24992
287	0.955171	95211520	64630784	25900632	24992
288	0.987862	95211520	64630784	27159696	24992
289	0.963585	95211520	64630784	28422392	24992
290	0.976719	95211520	64630784	29688928	24992
291	1.238758	95211520	64630784	14582712	24992
292	0.977095	95211520	64630784	15856832	24992
293	1.1928	95211520	64630784	17134736	24992
294	0.977482	95211520	64630784	18420400	24992
295	0.97918	95211520	64630784	19705904	24992
296	0.99429	95211520	64630784	20999888	24992
297	0.997329	95211520	64630784	22292808	24992
298	0.989923	95211520	64630784	23596464	24992
299	0.99007	95211520	64630784	24897024	24992
300	1.012392	95211520	64630784	26201288	24992
301	1.006969	95211520	64630784	27510896	24992
302	1.04942	95211520	64630784	28822664	24992
303	1.004557	95211520	64630784	30143800	24992
304	1.078646	95211520	64630784	15130664	24992
305	1.092486	95211520	64630784	16453720	24992
306	1.076598	95211520	64630784	17785040	24992
307	1.084537	95211520	64630784	19115696	24992
308	1.128107	95211520	64630784	20452264	24992
309	1.028295	95211520	64630784	21794128	24992
310	1.037332	95211520	64630784	23136072	24992
311	1.092098	95211520	64630784	24481792	24992
312	1.104262	95211520	64630784	25831280	24992
313	1.101291	95211520	64630784	27184656	24992
314	1.091293	95211520	64630784	28547384	24992
315	1.101025	95211520	64630784	29909504	24992
316	1.052351	95211520	64630784	14990232	24992
317	1.078239	95211520	64630784	16358568	24992
318	1.048351	95211520	64630784	17737624	24992
319	1.055992	95211520	64630784	19119120	24992
320	1.070349	95211520	64630784	20498808	24992
321	1.119916	95211520	64630784	21882456	24992
322	1.120775	95211520	64630784	23271632	24992
323	1.126639	95211520	64630784	24662584	24992
324	1.076308	95211520	64630784	26057312	24992
325	1.083146	95211520	64630784	27455880	24992
326	1.073672	95211520	64630784	28858152	24992
327	1.073576	95211520	64630784	30264256	24992
328	1.13403	95211520	64630784	15344472	24992
329	1.086558	95211520	64630784	16758136	24992
330	1.115558	95211520	64630784	18181312	24992
331	1.087813	95211520	64630784	19602464	24992
332	1.106112	95211520	64630784	21027440	24992
333	1.307918	95211520	64630784	22456120	24992
334	1.100902	95211520	64630784	23888600	24992
335	1.319028	95211520	64630784	25324808	24992
336	1.100774	95211520	64630784	26764888	24992
337	1.110153	95211520	64630784	28208752	24992
338	1.332035	95211520	64630784	29659688	24992
339	1.47252	95211520	64630784	14796704	24992
340	1.135928	95211520	64630784	16268280	24992
341	1.130589	95211520	64630784	17743592	24992
342	1.134394	95211520	64630784	19222672	24992
343	1.135259	95211520	64630784	20705712	24992
344	1.188265	95211520	64630784	22192376	24992
345	1.203321	95211520	64630784	23682832	24992
346	1.19691	95211520	64630784	25180240	24992
347	1.199024	95211520	64630784	26687296	24992
348	1.156441	95211520	64630784	28189136	24992
349	1.204702	95211520	64630784	29694680	24992
350	1.569815	95211520	64630784	14870800	24992
351	1.213749	95211520	64630784	16383848	24992
352	1.185679	95211520	64630784	17907760	24992
353	1.224707	95211520	64630784	19428384	24992
354	1.221886	95211520	64630784	20954824	24992
355	1.226514	95211520	64630784	22482960	24992
356	1.271462	95211520	64630784	24014784	24992
357	1.232781	95211520	64630784	25550400	24992
358	1.248689	95211520	64630784	27089856	24992
359	1.242754	95211520	64630784	28633136	24992
360	1.240479	95211520	64630784	30184520	24992
361	1.477073	95211520	64630784	15457136	24992
362	1.263314	95211520	64630784	17019832	24992
363	1.249594	95211520	64630784	18578088	24992
364	1.248593	95211520	64630784	20143552	24992
365	1.226596	95211520	64630784	21709752	24992
366	1.26249	95211520	64630784	23279336	24992
367	1.257395	95211520	64630784	24855840	24992
368	1.262941	95211520	64630784	26433096	24992
369	1.29372	95211520	64630784	28014056	24992
370	1.271121	95211520	64630784	29598760	24992
371	1.652351	95211520	64630784	14884640	24992
372	1.280959	95211520	64630784	16476800	24992
373	1.471445	95211520	64630784	18072904	24992
374	1.280759	95211520	64630784	19674792	24992
375	1.278303	95211520	64630784	21278648	24992
376	1.29707	95211520	64630784	22886176	24992
377	1.287144	95211520	64630784	24497272	24992
378	1.309115	95211520	64630784	26114624	24992
379	1.304174	95211520	64630784	27733304	24992
380	1.314094	95211520	64630784	29355600	24992
381	1.697047	95211520	64630784	14735312	24992
382	1.305737	95211520	64630784	16368184	24992
383	1.320571	95211520	64630784	18001920	24992
384	1.309038	95211520	64630784	19650640	24992
385	1.30962	95211520	64630784	21298904	24992
386	1.319271	95211520	64630784	22943928	24992
387	1.34354	95211520	64630784	24592632	24992
388	1.324049	95211520	64630784	26245736	24992
389	1.340881	95211520	64630784	27901992	24992
390	1.313784	95211520	64630784	29568592	24992
391	1.706014	95211520	64630784	14915256	24992
392	1.570581	95211520	64630784	16582896	24992
393	1.338396	95211520	64630784	18262296	24992
394	1.342428	95211520	64630784	19937536	24992
395	1.354769	95211520	64630784	21616528	24992
396	1.349082	95211520	64630784	23299248	24992
397	1.344121	95211520	64630784	24989408	24992
398	1.360133	95211520	64630784	26679696	24992
399	1.368384	95211520	64630784	28373808	24992
400	1.362248	95211520	64630784	30085616	24992
401	1.372272	95211520	64630784	15529816	24992
402	1.36713	95211520	64630784	17236920	24992
403	1.375673	95211520	64630784	18946080	24992
404	1.382685	95211520	64630784	20659000	24992
405	1.375517	95211520	64630784	22396480	24992
406	1.379848	95211520	64630784	24116904	24992
407	1.386278	95211520	64630784	25841120	24992
408	1.389652	95211520	64630784	27573112	24992
409	1.389494	95211520	64630784	29304992	24992
410	1.787734	95211520	64630784	14788152	24992
411	1.405849	95211520	64630784	16544032	24992
412	1.403778	95211520	64630784	18303496	24992
413	1.59626	95211520	64630784	20066808	24992
414	1.33739	95211520	64630784	21840864	24992
415	1.40963	95211520	64630784	23613648	24992
416	1.413699	95211520	64630784	25388432	24992
417	1.447339	95211520	64630784	27171552	24992
418	1.419233	95211520	64630784	28953680	24992
419	1.43847	95211520	64630784	30774992	24992
420	1.427443	95211520	64630784	16333208	24992
421	1.605119	95211520	64630784	18192592	24992
422	1.43807	95211520	64630784	20066984	24992
423	1.434376	95211520	64630784	21933840	24992
424	1.421284	95211520	64630784	23804384	24992
425	1.434971	95211520	64630784	25690056	24992
426	1.457335	95211520	64630784	27568160	24992
427	1.454581	95211520	64630784	29452528	24992
428	1.818477	95211520	64630784	15061976	24992
429	1.455633	95211520	64630784	16967624	24992
430	1.458273	95211520	64630784	18860896	24992
431	1.463019	95211520	64630784	20757952	24992
432	1.873716	95211520	64630784	22686224	24992
433	1.454736	95211520	64630784	24590808	24992
434	1.471142	95211520	64630784	26499064	24992
435	1.467929	95211520	64630784	28414816	24992
436	1.42175	95211520	64630784	30341456	24992
437	1.481501	95211520	64630784	16020872	24992
438	1.486851	95211520	64630784	17944632	24992
439	1.481668	95211520	64630784	19871824	24992
440	1.500805	95211520	64630784	21802736	24992
441	1.484837	95211520	64630784	23767224	24992
442	1.493726	95211520	64630784	25705728	24992
443	1.696309	95211520	64630784	27648096	24992
444	1.513319	95211520	64630784	29594240	24992
445	1.856602	95211520	64630784	15238632	24992
446	1.507022	95211520	64630784	17192136	24992
447	1.510059	95211520	64630784	19165680	24992
448	1.507031	95211520	64630784	21126696	24992
449	1.522126	95211520	64630784	23091680	24992
450	1.558257	95211520	64630784	25060360	24992
451	1.521109	95211520	64630784	27032744	24992
452	1.525705	95211520	64630784	29016160	24992
453	1.524902	95211520	64630784	30999960	24992
454	1.553049	95211520	64630784	16649472	24992
455	1.558926	95211520	64630784	18652392	24992
456	1.567526	95211520	64630784	20643624	24992
457	1.740345	95211520	64630784	22638704	24992
458	1.541681	95211520	64630784	24637616	24992
459	1.556952	95211520	64630784	26640288	24992
460	1.55624	95211520	64630784	28646616	24992
461	1.552578	95211520	64630784	30656768	24992
462	1.579328	95211520	64630784	16361008	24992
463	1.5716	95211520	64630784	18378640	24992
464	1.770319	95211520	64630784	20400144	24992
465	1.585214	95211520	64630784	22425688	24992
466	1.567068	95211520	64630784	24455776	24992
467	1.57163	95211520	64630784	26514232	24992
468	1.575677	95211520	64630784	28553624	24992
469	1.783779	95211520	64630784	30602392	24992
470	1.592412	95211520	64630784	16383480	24992
471	1.602269	95211520	64630784	18431280	24992
472	1.604018	95211520	64630784	20482920	24992
473	1.5993	95211520	64630784	22538288	24992
474	1.594137	95211520	64630784	24597408	24992
475	1.598954	95211520	64630784	26660480	24992
476	1.598409	95211520	64630784	28727296	24992
477	1.604396	95211520	64630784	30797752	24992
478	1.712717	95211520	64630784	16572704	24992
479	1.633644	95211520	64630784	18650856	24992
480	1.561374	95211520	64630784	20732632	24992
481	1.795961	95211520	64630784	22818264	24992
482	1.625516	95211520	64630784	24907648	24992
483	1.645088	95211520	64630784	27000752	24992
484	1.642258	95211520	64630784	29111832	24992
485	1.623433	95211520	64630784	31223952	24992
486	1.640626	95211520	64630784	16964224	24992
487	1.639194	95211520	64630784	19072512	24992
488	1.637632	95211520	64630784	21184456	24992
489	1.640587	95211520	64630784	23300224	24992
490	1.60306	95211520	64630784	25419768	24992
491	1.812421	95211520	64630784	27542944	24992
492	1.642205	95211520	64630784	29681080	24992
493	2.005824	95211520	64630784	15542272	24992
494	1.850745	95211520	64630784	17676840	24992
495	1.668016	95211520	64630784	19818096	24992
496	1.66904	95211520	64630784	21960144	24992
497	1.664136	95211520	64630784	24105976	24992
498	1.671571	95211520	64630784	26258208	24992
499	1.670465	95211520	64630784	28411624	24992
500	1.671701	95211520	64630784	30568912	24992
501	1.685805	95211520	64630784	16515416	24992
502	1.680924	95211520	64630784	18680248	24992
503	1.704068	95211520	64630784	20848840	24992
504	1.631697	95211520	64630784	23021200	24992
505	1.692046	95211520	64630784	25212480	24992
506	1.700419	95211520	64630784	27392328	24992
507	1.868707	95211520	64630784	29575880	24992
508	2.090592	95211520	64630784	15523192	24992
509	1.706703	95211520	64630784	17714440	24992
510	1.731126	95211520	64630784	19909400	24992
511	1.715722	95211520	64630784	22110536	24992
512	1.71954	95211520	64630784	24313104	24992
513	1.759502	95211520	64630784	26519432	24992
514	1.713112	95211520	64630784	28729504	24992
515	1.737196	95211520	64630784	30950392	24992
516	1.719526	95211520	64630784	16878624	24992
517	1.729366	95211520	64630784	19110936	24992
518	1.727642	95211520	64630784	21336072	24992
519	1.729883	95211520	64630784	23564848	24992
520	1.732912	95211520	64630784	25797536	24992
521	1.736964	95211520	64630784	28033976	24992
522	1.756448	95211520	64630784	30274104	24992
523	2.074947	95211520	64630784	16134048	24992
524	1.752749	95211520	64630784	18381776	24992
525	1.752764	95211520	64630784	20646936	24992
526	1.753365	95211520	64630784	22902248	24992
527	1.74782	95211520	64630784	25161352	24992
528	1.756168	95211520	64630784	27430664	24992
529	1.772156	95211520	64630784	29697272	24992
530	2.111131	95211520	64630784	15698720	24992
531	1.771975	95211520	64630784	17972864	24992
532	1.714436	95211520	64630784	20250936	24992
533	1.774555	95211520	64630784	22532528	24992
534	1.773463	95211520	64630784	24823552	24992
535	1.940573	95211520	64630784	27112752	24992
536	1.843048	95211520	64630784	29405656	24992
537	2.198549	95211520	64630784	15502288	24992
538	1.797275	95211520	64630784	17808936	24992
539	1.794708	95211520	64630784	20113160	24992
540	1.801178	95211520	64630784	22423248	24992
541	1.7492	95211520	64630784	24735032	24992
542	1.813333	95211520	64630784	27055584	24992
543	1.823094	95211520	64630784	29374968	24992
544	2.187012	95211520	64630784	15503032	24992
545	1.817898	95211520	64630784	17854264	24992
546	1.81507	95211520	64630784	20184896	24992
547	1.816962	95211520	64630784	22519944	24992
548	1.918359	95211520	64630784	24875800	24992
549	1.812285	95211520	64630784	27217776	24992
550	1.834822	95211520	64630784	29564152	24992
551	2.239754	95211520	64630784	15716096	24992
552	1.836429	95211520	64630784	18069344	24992
553	1.842595	95211520	64630784	20432288	24992
554	1.841348	95211520	64630784	22793152	24992
555	1.844493	95211520	64630784	25162664	24992
556	1.757905	95211520	64630784	27543256	24992
557	1.873077	95211520	64630784	29915384	24992
558	2.209716	95211520	64630784	16024160	24992
559	1.79429	95211520	64630784	18411640	24992
560	1.854227	95211520	64630784	20816712	24992
561	1.83127	95211520	64630784	23203896	24992
562	1.873919	95211520	64630784	25598184	24992
563	1.871621	95211520	64630784	27992880	24992
564	1.79894	95211520	64630784	30397576	24992
565	1.83944	95211520	64630784	16480504	24992
566	1.788543	95211520	64630784	18886568	24992
567	2.011401	95211520	64630784	21296448	24992
568	1.897907	95211520	64630784	23717832	24992
569	1.899023	95211520	64630784	26135352	24992
570	2.098837	95211520	64630784	28556552	24992
571	1.902179	95211520	64630784	30983000	24992
572	1.932181	95211520	64630784	17174472	24992
573	1.898282	95211520	64630784	19611464	24992
574	1.930382	95211520	64630784	22047696	24992
575	1.912586	95211520	64630784	24493176	24992
576	2.060959	95211520	64630784	26937064	24992
577	1.916915	95211520	64630784	29402744	24992
578	2.323631	95211520	64630784	15668792	24992
579	1.922883	95211520	64630784	18144080	24992
580	1.924941	95211520	64630784	20616224	24992
581	1.921539	95211520	64630784	23085952	24992
582	1.908966	95211520	64630784	25556728	24992
583	1.934867	95211520	64630784	28026912	24992
584	1.954457	95211520	64630784	30502896	24992
585	1.961772	95211520	64630784	16638144	24992
586	1.959362	95211520	64630784	19123120	24992
587	2.126579	95211520	64630784	21613032	24992
588	1.907139	95211520	64630784	24103168	24992
589	1.9944	95211520	64630784	26595920	24992
590	1.942592	95211520	64630784	29092536	24992
591	1.951782	95211520	64630784	31594248	24992
592	1.893675	95211520	64630784	17812720	24992
593	1.961335	95211520	64630784	20322088	24992
594	1.96675	95211520	64630784	22834696	24992
595	1.972699	95211520	64630784	25358144	24992
596	1.983581	95211520	64630784	27882560	24992
597	1.981589	95211520	64630784	30407488	24992
598	2.459148	95211520	64630784	16584448	24992
599	1.992755	95211520	64630784	19115040	24992
600	2.005589	95211520	64630784	21657008	24992
601	1.937679	95211520	64630784	24195200	24992
602	1.985984	95211520	64630784	26741472	24992
603	1.991901	95211520	64630784	29305840	24992
604	2.438795	95211520	64630784	15679864	24992
605	2.00646	95211520	64630784	18237816	24992
606	2.204639	95211520	64630784	20796568	24992
607	2.017726	95211520	64630784	23370368	24992
608	2.019152	95211520	64630784	25935184	24992
609	1.991243	95211520	64630784	28517264	24992
610	2.025159	95211520	64630784	31099232	24992
611	2.018859	95211520	64630784	17468312	24992
612	2.016614	95211520	64630784	20047872	24992
613	2.019207	95211520	64630784	22631192	24992
614	2.199365	95211520	64630784	25218256	24992
615	2.031373	95211520	64630784	27828096	24992
616	2.040717	95211520	64630784	30425920	24992
617	2.494916	95211520	64630784	16699816	24992
618	2.042847	95211520	64630784	19303296	24992
619	1.988799	95211520	64630784	21910848	24992
620	1.949263	95211520	64630784	24523296	24992
621	2.053296	95211520	64630784	27158848	24992
622	2.08671	95211520	64630784	29778728	24992
623	2.443124	95211520	64630784	16208512	24992
624	2.047618	95211520	64630784	18846240	24992
625	2.198499	95211520	64630784	21474968	24992
626	2.068659	95211520	64630784	24107376	24992
627	2.088623	95211520	64630784	26743472	24992
628	2.067054	95211520	64630784	29392584	24992
629	2.488395	95211520	64630784	15879704	24992
630	2.109987	95211520	64630784	18527232	24992
631	2.272244	95211520	64630784	21184112	24992
632	2.005675	95211520	64630784	23839272	24992
633	2.110652	95211520	64630784	26509168	24992
634	2.083532	95211520	64630784	29196416	24992
635	2.436881	95211520	64630784	31862784	24992
636	2.111833	95211520	64630784	18209776	24992
637	2.101868	95211520	64630784	20884216	24992
638	2.130407	95211520	64630784	23573280	24992
639	2.125388	95211520	64630784	26264904	24992
640	2.105909	95211520	64630784	28961288	24992
641	2.127308	95211520	64630784	31650224	24992
642	2.125822	95211520	64630784	18088600	24992
643	2.054302	95211520	64630784	20790536	24992
644	2.12227	95211520	64630784	23498304	24992
645	2.125169	95211520	64630784	26203248	24992
646	2.058509	95211520	64630784	28917664	24992
647	2.133791	95211520	64630784	31630328	24992
648	2.2978	95211520	64630784	18106808	24992
649	2.068946	95211520	64630784	20832200	24992
650	2.138005	95211520	64630784	23555144	24992
651	2.136074	95211520	64630784	26281792	24992
652	2.163527	95211520	64630784	29012144	24992
653	2.333722	95211520	64630784	31746296	24992
654	2.157517	95211520	64630784	18233584	24992
655	2.156623	95211520	64630784	20986128	24992
656	2.159161	95211520	64630784	23731608	24992
657	2.172505	95211520	64630784	26480896	24992
658	2.173708	95211520	64630784	29247672	24992
659	2.182967	95211520	64630784	32004512	24992
660	2.179479	95211520	64630784	18426424	24992
661	2.180156	95211520	64630784	21190840	24992
662	2.179894	95211520	64630784	23970832	24992
663	2.35144	95211520	64630784	26742608	24992
664	2.190368	95211520	64630784	29547280	24992
665	2.595473	95211520	64630784	16177832	24992
666	2.201332	95211520	64630784	18981016	24992
667	2.204018	95211520	64630784	21768120	24992
668	2.370991	95211520	64630784	24561560	24992
669	2.210148	95211520	64630784	27366000	24992
670	2.207214	95211520	64630784	30164232	24992
671	2.54638	95211520	64630784	16721880	24992
672	2.156648	95211520	64630784	19535264	24992
673	2.190175	95211520	64630784	22344856	24992
674	2.134651	95211520	64630784	25158520	24992
675	2.226059	95211520	64630784	27975640	24992
676	2.151901	95211520	64630784	30810680	24992
677	2.211937	95211520	64630784	17375632	24992
678	2.324721	95211520	64630784	20213616	24992
679	2.232113	95211520	64630784	23053288	24992
680	2.247028	95211520	64630784	25893224	24992
681	2.248836	95211520	64630784	28739256	24992
682	2.178644	95211520	64630784	31590136	24992
683	2.24508	95211520	64630784	18201784	24992
684	2.245961	95211520	64630784	21052808	24992
685	2.430127	95211520	64630784	23913784	24992
686	2.263648	95211520	64630784	26773120	24992
687	2.251813	95211520	64630784	29654408	24992
688	2.692848	95211520	64630784	16404392	24992
689	2.267385	95211520	64630784	19296768	24992
690	2.407561	95211520	64630784	22187696	24992
691	2.264684	95211520	64630784	25081576	24992
692	2.271457	95211520	64630784	27987904	24992
693	2.281578	95211520	64630784	30889456	24992
694	2.294371	95211520	64630784	17656432	24992
695	2.297896	95211520	64630784	20567096	24992
696	2.315448	95211520	64630784	23480648	24992
697	2.458583	95211520	64630784	26412376	24992
698	2.292359	95211520	64630784	29341504	24992
699	2.291061	95211520	64630784	32266040	24992
700	2.316722	95211520	64630784	18844944	24992
701	2.512935	95211520	64630784	21784264	24992
702	2.301705	95211520	64630784	24726312	24992
703	2.43816	95211520	64630784	27669464	24992
704	2.507489	95211520	64630784	30612400	24992
705	2.652746	95211520	64630784	17273976	24992
706	2.317607	95211520	64630784	20224552	24992
707	2.34836	95211520	64630784	23193888	24992
708	2.29409	95211520	64630784	26151944	24992
709	2.332817	95211520	64630784	29113776	24992
710	2.253638	95211520	64630784	32079504	24992
711	2.529504	95211520	64630784	18814512	24992
712	2.329474	95211520	64630784	21787624	24992
713	2.332106	95211520	64630784	24790400	24992
714	2.374091	95211520	64630784	27771208	24992
715	2.315858	95211520	64630784	30777240	24992
716	2.652083	95211520	64630784	17406344	24992
717	2.381564	95211520	64630784	20398432	24992
718	2.535127	95211520	64630784	23394200	24992
719	2.283521	95211520	64630784	26396760	24992
720	2.360934	95211520	64630784	29400160	24992
721	2.77031	95211520	64630784	16286744	24992
722	2.37556	95211520	64630784	19297632	24992
723	2.251954	95211520	64630784	22312216	24992
724	2.392738	95211520	64630784	25350696	24992
725	2.479085	95211520	64630784	28372856	24992
726	2.379135	95211520	64630784	31399688	24992
727	2.398527	95211520	64630784	18305016	24992
728	2.37204	95211520	64630784	21338528	24992
729	2.380075	95211520	64630784	24382008	24992
730	2.400413	95211520	64630784	27444048	24992
731	2.328788	95211520	64630784	30488800	24992
732	2.889251	95211520	64630784	17311184	24992
733	2.406706	95211520	64630784	20363536	24992
734	2.429456	95211520	64630784	23419920	24992
735	2.415012	95211520	64630784	26487416	24992
736	2.412104	95211520	64630784	29554464	24992
737	2.830308	95211520	64630784	16517536	24992
738	2.417226	95211520	64630784	19594688	24992
739	2.425476	95211520	64630784	22692328	24992
740	2.43435	95211520	64630784	25789880	24992
741	2.355637	95211520	64630784	28887512	24992
742	2.42952	95211520	64630784	31985160	24992
743	2.632541	95211520	64630784	18849472	24992
744	2.368047	95211520	64630784	21943720	24992
745	2.440963	95211520	64630784	25042408	24992
746	2.45687	95211520	64630784	28145056	24992
747	2.442796	95211520	64630784	31250176	24992
748	2.479039	95211520	64630784	18271632	24992
749	2.587232	95211520	64630784	21385032	24992
750	2.459305	95211520	64630784	24502400	24992
751	2.460178	95211520	64630784	27638144	24992
752	2.590276	95211520	64630784	30765832	24992
753	2.789666	95211520	64630784	17603960	24992
754	2.460305	95211520	64630784	20745832	24992
755	2.49541	95211520	64630784	23881208	24992
756	2.468791	95211520	64630784	27020336	24992
757	2.468663	95211520	64630784	30170576	24992
758	2.837692	95211520	64630784	17099008	24992
759	2.493053	95211520	64630784	20264960	24992
760	2.48379	95211520	64630784	23419168	24992
761	2.478813	95211520	64630784	26588232	24992
762	2.509682	95211520	64630784	29750016	24992
763	3.027961	95211520	64630784	16808832	24992
764	2.523824	95211520	64630784	19978000	24992
765	2.673201	95211520	64630784	23154296	24992
766	2.500626	95211520	64630784	26332088	24992
767	2.554636	95211520	64630784	29538672	24992
768	2.887841	95211520	64630784	16618656	24992
769	2.417172	95211520	64630784	19814840	24992
770	2.522484	95211520	64630784	23031824	24992
771	2.521539	95211520	64630784	26243144	24992
772	2.551366	95211520	64630784	29462168	24992
773	2.820443	95211520	64630784	16601640	24992
774	2.475164	95211520	64630784	19830376	24992
775	2.549873	95211520	64630784	23059720	24992
776	2.548792	95211520	64630784	26280688	24992
777	2.546915	95211520	64630784	29520440	24992
778	3.098776	95211520	64630784	16679848	24992
779	2.545481	95211520	64630784	19905744	24992
780	2.517563	95211520	64630784	23135336	24992
781	2.543347	95211520	64630784	26368632	24992
782	2.743556	95211520	64630784	29618496	24992
783	3.028978	95481856	65155072	16806736	24992
784	2.758761	95481856	65155072	20061800	24992
785	2.476446	95481856	65155072	23316640	24992
786	2.510071	95481856	65155072	26568792	24992
787	2.560928	95481856	65155072	29824896	24992
788	3.004284	95481856	65155072	17037096	24992
789	2.596882	95481856	65155072	20300656	24992
790	2.525105	95481856	65155072	23595088	24992
791	2.577086	95481856	65155072	26866152	24992
792	2.572405	95481856	65155072	30161336	24992
793	2.97388	95481856	65155072	17287048	24992
794	2.597703	95481856	65155072	20570288	24992
795	2.592894	95481856	65155072	23856408	24992
796	2.628182	95481856	65155072	27146512	24992
797	2.77435	95481856	65155072	30459496	24992
798	2.956425	95481856	65155072	17595536	24992
799	2.766532	95481856	65155072	20896832	24992
800	2.603809	95481856	65155072	24222328	24992
801	2.809224	95481856	65155072	27531104	24992
802	2.633639	95481856	65155072	30859320	24992
803	3.181281	95481856	65155072	17991176	24992
804	2.624255	95481856	65155072	21311184	24992
805	2.64642	95481856	65155072	24635432	24992
806	2.59364	95481856	65155072	27971664	24992
807	2.833363	95481856	65155072	31321200	24992
808	2.646399	95481856	65155072	18603288	24992
809	2.816058	95481856	65155072	21942200	24992
810	2.595871	95481856	65155072	25314152	24992
811	2.642388	95481856	65155072	28660576	24992
812	2.652157	95481856	65155072	32024952	24992
813	2.648018	95481856	65155072	19196152	24992
814	2.670201	95481856	65155072	22563568	24992
815	2.848727	95481856	65155072	25962464	24992
816	2.670205	95481856	65155072	29337016	24992
817	2.537442	95481856	65155072	32706096	24992
818	2.6801	95481856	65155072	19875824	24992
819	2.665422	95481856	65155072	23264984	24992
820	2.704667	95481856	65155072	26645416	24992
821	2.682567	95481856	65155072	30041256	24992
822	3.154733	95481856	65155072	17378048	24992
823	2.678397	95481856	65155072	20791472	24992
824	2.690677	95481856	65155072	24189216	24992
825	2.685996	95481856	65155072	27602424	24992
826	2.701978	95481856	65155072	31005528	24992
827	3.04976	95481856	65155072	18209456	24992
828	2.697865	95481856	65155072	21620024	24992
829	2.696704	95481856	65155072	25041920	24992
830	2.708007	95481856	65155072	28460576	24992
831	2.711966	95481856	65155072	31898920	24992
832	2.721247	95481856	65155072	19284448	24992
833	2.739288	95481856	65155072	22756680	24992
834	2.724747	95481856	65155072	26206576	24992
835	2.708855	95481856	65155072	29666920	24992
836	3.399284	95481856	65155072	17080144	24992
837	2.640234	95481856	65155072	20541136	24992
838	2.964909	95481856	65155072	24009744	24992
839	2.632699	95481856	65155072	27528600	24992
840	2.734987	95481856	65155072	31108632	24992
841	3.148528	95481856	65155072	18382352	24992
842	2.74989	95481856	65155072	21927824	24992
843	2.717045	95481856	65155072	25487544	24992
844	2.755801	95481856	65155072	29084048	24992
845	2.670715	95481856	65155072	32640952	24992
846	2.794118	95752192	65155072	20044328	24992
847	2.763627	95752192	65155072	23639896	24992
848	2.764055	95752192	65155072	27252104	24992
849	2.767983	95752192	65155072	30864336	24992
850	3.16676	95752192	65155072	18287408	24992
851	2.954104	95752192	65155072	21866848	24992
852	2.771719	95752192	65155072	25450040	24992
853	2.80426	95752192	65155072	29037080	24992
854	2.793131	95752192	65155072	32628672	24992
855	2.952832	95752192	65155072	20106792	24992
856	2.768657	95752192	65155072	23719120	24992
857	2.955147	95752192	65155072	27331352	24992
858	2.818955	95752192	65155072	30943560	24992
859	3.244724	95752192	65155072	18386440	24992
860	2.662442	95752192	65155072	22023496	24992
861	2.935854	95752192	65155072	25653408	24992
862	2.801953	95752192	65155072	29291240	24992
863	2.909055	95752192	65155072	32915992	24992
864	2.817827	95752192	65155072	20374368	24992
865	2.747533	95752192	65155072	24015848	24992
866	2.821757	95752192	65155072	27651992	24992
867	2.774365	95752192	65155072	31291736	24992
868	3.149247	95752192	65155072	18677264	24992
869	2.822723	95752192	65155072	22333016	24992
870	2.830656	95752192	65155072	25984104	24992
871	2.832775	95752192	65155072	29643784	24992
872	2.718976	95752192	65155072	33312432	24992
873	2.850454	95752192	65155072	20648424	24992
874	2.869306	95752192	65155072	24317904	24992
875	2.739711	95752192	65155072	28001288	24992
876	2.846182	95752192	65155072	31674912	24992
877	2.888985	95752192	65155072	19312816	24992
878	3.038673	95752192	65155072	22998928	24992
879	2.818543	95752192	65155072	26691856	24992
880	2.860334	95752192	65155072	30386712	24992
881	3.403863	95752192	65155072	17985496	24992
882	3.028318	95752192	65155072	21696640	24992
883	3.026277	95752192	65155072	25406328	24992
884	3.023218	95752192	65155072	29122576	24992
885	2.990682	95752192	65155072	32830224	24992
886	2.893672	95752192	65155072	20389576	24992
887	2.880935	95752192	65155072	24104704	24992
888	2.782767	95752192	65155072	27833120	24992
889	2.915656	95752192	65155072	31575880	24992
890	2.90942	95752192	65155072	19033648	24992
891	2.973778	95752192	65155072	22763968	24992
892	2.809412	95752192	65155072	26498016	24992
893	2.906944	95752192	65155072	30238184	24992
894	3.413377	95752192	65155072	17950520	24992
895	3.027318	95752192	65155072	21708752	24992
896	3.053024	95752192	65155072	25471800	24992
897	2.991556	95752192	65155072	29233536	24992
898	2.914363	95752192	65155072	32990376	24992
899	2.920579	95752192	65155072	20592120	24992
900	2.923251	95752192	65155072	24362480	24992
901	2.924219	95752192	65155072	28137664	24992
902	2.787007	95752192	65155072	31909456	24992
903	2.948041	95752192	65155072	19669848	24992
904	2.964036	95752192	65155072	23473600	24992
905	2.977629	95752192	65155072	27256824	24992
906	3.137215	95752192	65155072	31078648	24992
907	3.519835	95752192	65155072	18728016	24992
908	3.082524	95752192	65155072	22531768	24992
909	2.94772	95752192	65155072	26329856	24992
910	2.95391	95752192	65155072	30134864	24992
911	3.609824	95752192	65155072	17935512	24992
912	2.994862	95752192	65155072	21745192	24992
913	2.985297	95752192	65155072	25570600	24992
914	2.969296	95752192	65155072	29391472	24992
915	3.176728	95752192	65155072	33234336	24992
916	2.909537	95752192	65155072	20902568	24992
917	3.083092	95752192	65155072	24742784	24992
918	2.982591	95752192	65155072	28575024	24992
919	2.895581	95752192	65155072	32441424	24992
920	2.99463	95752192	65155072	20266536	24992
921	3.021714	95752192	65155072	24110168	24992
922	2.895039	95752192	65155072	27957344	24992
923	2.995336	95752192	65155072	31835352	24992
924	3.175527	95752192	65155072	19683320	24992
925	2.987807	95752192	65155072	23553016	24992
926	2.991599	95752192	65155072	27425352	24992
927	3.06778	95752192	65155072	31298848	24992
928	3.481327	95752192	65155072	19026984	24992
929	3.020378	95752192	65155072	22900696	24992
930	3.031531	95752192	65155072	26810960	24992
931	3.004818	95752192	65155072	30692152	24992
932	3.60662	95752192	65155072	18454728	24992
933	3.195036	95752192	65155072	22346096	24992
934	2.954289	95752192	65155072	26266272	24992
935	3.148715	95752192	65155072	30162424	24992
936	3.531288	95752192	65155072	18068160	24992
937	3.031851	95752192	65155072	21972008	24992
938	3.039546	95752192	65155072	25909968	24992
939	2.955615	95752192	65155072	29821296	24992
940	3.042067	95752192	65155072	33739816	24992
941	3.052001	95752192	65155072	21359080	24992
942	3.040593	95752192	65155072	25303736	24992
943	2.908363	95752192	65155072	29230024	24992
944	3.233019	95752192	65155072	33181456	24992
945	3.034231	95752192	65155072	20968928	24992
946	3.017663	95752192	65155072	24940952	24992
947	3.062713	95752192	65155072	28882448	24992
948	3.085776	95752192	65155072	32827688	24992
949	3.296699	95752192	65155072	20635744	24992
950	3.028495	95752192	65155072	24588656	24992
951	3.229163	95752192	65155072	28583816	24992
952	3.070058	95752192	65155072	32544112	24992
953	3.104067	95752192	65155072	20502472	24992
954	3.093445	95752192	65155072	24503112	24992
955	3.135062	95752192	65155072	28505312	24992
956	3.307373	95752192	65155072	32480696	24992
957	3.016683	95752192	65155072	20466784	24992
958	3.219885	95752192	65155072	24456416	24992
959	3.020266	95752192	65155072	28443008	24992
960	3.131672	95752192	65155072	32439032	24992
961	3.110725	95752192	65155072	20444720	24992
962	2.962975	95752192	65155072	24461920	24992
963	3.307889	95752192	65155072	28463784	24992
964	3.128796	95752192	65155072	32472360	24992
965	3.18948	95752192	65155072	20518536	24992
966	3.091928	95752192	65155072	24561672	24992
967	3.160397	95752192	65155072	28608224	24992
968	3.05253	95752192	65155072	32628920	24992
969	3.067104	95752192	65155072	20660744	24992
970	3.29088	95752192	65155072	24698976	24992
971	3.151435	95752192	65155072	28761480	24992
972	3.160432	95752192	65155072	32804392	24992
973	3.06786	95752192	65155072	20808864	24992
974	3.156896	95752192	65155072	24852120	24992
975	3.102564	95752192	65155072	28902168	24992
976	3.038941	95752192	65155072	32989016	24992
977	3.052112	95752192	65155072	20927408	24992
978	3.202458	95752192	65155072	24993472	24992
979	3.204818	95752192	65155072	29055640	24992
980	3.184915	95752192	65155072	33121456	24992
981	3.165353	95752192	65155072	21086864	24992
982	3.288941	95752192	65155072	25214656	24992
983	3.17745	95752192	65155072	29342440	24992
984	3.225959	95752192	65155072	33470264	24992
985	3.209576	95752192	65155072	21453712	24992
986	3.137062	95752192	65155072	25542456	24992
987	3.353168	95752192	65155072	29649200	24992
988	3.318879	95752192	65155072	33745184	24992
989	3.088877	95752192	65155072	21791056	24992
990	3.392237	95752192	65155072	25917952	24992
991	3.201242	95752192	65155072	30044840	24992
992	3.882045	96022528	65679360	18223272	24992
993	3.075909	96022528	65679360	22374640	24992
994	3.25536	96022528	65679360	26503360	24992
995	3.20997	96022528	65679360	30632192	24992
996	3.866832	96022528	65679360	18792704	24992
997	3.246444	96022528	65679360	22940792	24992
998	3.241974	96022528	65679360	27085928	24992
999	3.214189	96022528	65679360	31227216	24992
1000	4.027881	96022528	65679360	19259240	24992
x	Duration	RSS	HeapTotal	HeapUsed	External
0	NA	94294016	65679360	12752056	24992
1	0.252281	94294016	65679360	12803984	24992
2	0.193155	94294016	65679360	12880776	24992
3	0.124887	94294016	65679360	12995400	24992
4	0.123373	94294016	65679360	13094496	24992
5	0.12533	94294016	65679360	13197984	24992
6	0.127282	94294016	65679360	13305416	24992
7	0.127974	94294016	65679360	13416792	24992
8	0.132145	94294016	65679360	13532112	24992
9	0.153451	94294016	65679360	13651416	24992
10	0.191063	94294016	65679360	13780456	24992
11	0.140424	94294016	65679360	13911000	24992
12	0.142035	94294016	65679360	14045504	24992
13	0.146313	94294016	65679360	14183992	24992
14	0.148038	94294016	65679360	14326368	24992
15	0.151587	94294016	65679360	14473728	24992
16	0.154082	94294016	65679360	14625072	24992
17	0.159633	94294016	65679360	14780392	24992
18	0.161851	94294016	65679360	14939624	24992
19	0.167334	94294016	65679360	15104240	24992
20	0.169993	94294016	65679360	15273168	24992
21	0.181509	94294016	65679360	15446000	24992
22	0.17652	94294016	65679360	15622776	24992
23	0.196982	94294016	65679360	15803488	24992
24	0.183235	94294016	65679360	15990320	24992
25	0.188053	94294016	65679360	16183272	24992
26	0.189486	94294016	65679360	16380248	24992
27	0.192136	94294016	65679360	16581088	24992
28	0.225855	94294016	65679360	16785856	24992
29	0.386963	94294016	65679360	16998104	24992
30	0.244824	94294016	65679360	17210744	24992
31	0.25084	94294016	65679360	17429528	24992
32	0.203252	94294016	65679360	17651808	24992
33	0.201628	94294016	65679360	17878112	24992
34	0.203915	94294016	65679360	18108280	24992
35	0.206985	94294016	65679360	18342400	24992
36	0.208223	94294016	65679360	18580440	24992
37	0.211001	94294016	65679360	18822408	24992
38	0.217015	94294016	65679360	19068360	24992
39	0.220834	94294016	65679360	19318208	24992
40	0.245545	94294016	65679360	19572032	24992
41	0.247333	94294016	65679360	19829768	24992
42	0.251828	94294016	65679360	20093592	24992
43	0.252987	94294016	65679360	20361328	24992
44	0.255074	94294016	65679360	20633000	24992
45	0.270855	94294016	65679360	20911304	24992
46	0.258164	94294016	65679360	21194200	24992
47	0.250358	94294016	65679360	21481856	24992
48	0.264006	94294016	65679360	21772632	24992
49	0.251742	94294016	65679360	22067400	24992
50	0.252882	94294016	65679360	22370288	24992
51	0.254508	94294016	65679360	22681368	24992
52	0.426094	94294016	65679360	22996360	24992
53	0.265345	94294016	65679360	23315272	24992
54	0.266006	94294016	65679360	23638288	24992
55	0.29287	94294016	65679360	23965088	24992
56	0.295324	94294016	65679360	24295864	24992
57	0.331915	94294016	65679360	24630640	24992
58	0.313834	94294016	65679360	24969264	24992
59	0.309414	94294016	65679360	25313040	24992
60	0.308207	94294016	65679360	25659544	24992
61	0.312637	94294016	65679360	26009968	24992
62	0.314482	94294016	65679360	26364808	24992
63	0.313367	94294016	65679360	26723216	24992
64	0.346878	94294016	65679360	27087000	24992
65	0.298189	94294016	65679360	27453240	24992
66	0.299922	94294016	65679360	27823416	24992
67	0.303844	94294016	65679360	28197496	24992
68	0.305172	94294016	65679360	28575504	24992
69	0.304739	94294016	65679360	28957448	24992
70	1.08563	94294016	65679360	13242680	24992
71	0.323215	94294016	65679360	13632560	24992
72	0.319546	94294016	65679360	14026464	24992
73	0.321849	94294016	65679360	14424168	24992
74	0.355882	94294016	65679360	14825848	24992
75	0.323853	94294016	65679360	15231512	24992
76	0.357939	94294016	65679360	15645216	24992
77	0.358246	94294016	65679360	16062832	24992
78	0.360807	94294016	65679360	16484384	24992
79	0.388182	94294016	65679360	16909928	24992
80	0.367503	94294016	65679360	17339568	24992
81	0.400866	94294016	65679360	17774064	24992
82	0.373655	94294016	65679360	18211416	24992
83	0.357537	94294016	65679360	18652616	24992
84	0.548687	94294016	65679360	19102272	24992
85	0.360766	94294016	65679360	19557808	24992
86	0.360691	94294016	65679360	20016528	24992
87	0.360251	94294016	65679360	20479216	24992
88	0.363802	94294016	65679360	20945784	24992
89	0.370172	94294016	65679360	21416344	24992
90	0.372351	94294016	65679360	21890792	24992
91	0.375575	94294016	65679360	22369240	24992
92	0.407169	94294016	65679360	22851552	24992
93	0.413732	94294016	65679360	23337872	24992
94	0.415245	94294016	65679360	23832224	24992
95	0.418286	94294016	65679360	24330560	24992
96	0.418482	94294016	65679360	24832784	24992
97	0.421605	94294016	65679360	25338952	24992
98	0.408424	94294016	65679360	25849056	24992
99	0.400686	94294016	65679360	26363152	24992
100	0.400737	94294016	65679360	26881144	24992
101	0.410986	94294016	65679360	27403080	24992
102	0.405406	94294016	65679360	27937280	24992
103	0.411383	94294016	65679360	28483728	24992
104	0.41311	94294016	65679360	29034112	24992
105	1.024105	94294016	65679360	13405736	24992
106	0.464608	94294016	65679360	13964016	24992
107	0.453862	94294016	65679360	14526264	24992
108	0.456074	94294016	65679360	15092472	24992
109	0.459577	94294016	65679360	15662584	24992
110	0.474273	94294016	65679360	16236624	24992
111	0.439716	94294016	65679360	16814600	24992
112	0.439257	94294016	65679360	17396520	24992
113	0.44065	94294016	65679360	17982408	24992
114	0.48695	94294016	65679360	18572176	24992
115	0.482524	94294016	65679360	19165944	24992
116	0.481483	94294016	65679360	19763600	24992
117	0.484105	94294016	65679360	20365192	24992
118	0.497935	94294016	65679360	20970800	24992
119	0.491415	94294016	65679360	21580256	24992
120	0.494822	94294016	65679360	22193664	24992
121	0.497003	94294016	65679360	22811024	24992
122	0.476722	94294016	65679360	23432344	24992
123	0.472279	94294016	65679360	24057688	24992
124	0.503256	94294016	65679360	24686976	24992
125	0.649511	94294016	65679360	25320072	24992
126	0.483484	94294016	65679360	25957144	24992
127	0.4835	94294016	65679360	26598192	24992
128	0.487018	94294016	65679360	27243152	24992
129	0.517558	94294016	65679360	27892080	24992
130	0.49025	94294016	65679360	28544912	24992
131	0.532007	94294016	65679360	29201768	24992
132	1.299119	94294016	65679360	13572616	24992
133	0.543347	94294016	65679360	14238048	24992
134	0.509438	94294016	65679360	14906760	24992
135	0.557828	94294016	65679360	15579288	24992
136	0.511614	94294016	65679360	16255776	24992
137	0.512532	94294016	65679360	16936208	24992
138	0.517423	94294016	65679360	17620624	24992
139	0.520587	94294016	65679360	18314200	24992
140	0.521048	94294016	65679360	19006416	24992
141	0.525544	94294016	65679360	19702632	24992
142	0.699719	94294016	65679360	20410056	24992
143	0.573294	94294016	65679360	21123344	24992
144	0.572004	94294016	65679360	21840512	24992
145	0.586505	94294016	65679360	22561544	24992
146	0.581629	94294016	65679360	23289424	24992
147	0.546965	94294016	65679360	24022864	24992
148	0.547698	94294016	65679360	24755856	24992
149	0.550822	94294016	65679360	25492664	24992
150	0.549821	94294016	65679360	26233384	24992
151	0.557726	94294016	65679360	26978072	24992
152	0.580863	94294016	65679360	27726704	24992
153	0.564874	94294016	65679360	28479296	24992
154	0.566596	94294016	65679360	29235816	24992
155	1.033244	94294016	65679360	13698592	24992
156	0.578607	94294016	65679360	14462968	24992
157	0.613573	94294016	65679360	15231304	24992
158	0.614219	94294016	65679360	16003568	24992
159	0.616251	94294016	65679360	16779760	24992
160	0.620194	94294016	65679360	17560440	24992
161	0.625841	94294016	65679360	18344536	24992
162	0.629392	94294016	65679360	19132600	24992
163	0.591945	94294016	65679360	19933328	24992
164	0.597098	94294016	65679360	20741664	24992
165	0.595319	94294016	65679360	21549760	24992
166	0.60242	94294016	65679360	22361816	24992
167	0.602965	94294016	65679360	23177768	24992
168	0.610888	94294016	65679360	23997776	24992
169	0.607448	94294016	65679360	24821760	24992
170	0.61972	94294016	65679360	25649528	24992
171	0.613861	94294016	65679360	26482664	24992
172	0.626851	94294016	65679360	27318328	24992
173	0.810043	94294016	65679360	28157976	24992
174	0.694277	94294016	65679360	29004240	24992
175	0.67707	94294016	65679360	29851696	24992
176	0.675467	94294016	65679360	14378024	24992
177	0.673604	94294016	65679360	15233456	24992
178	0.649819	94294016	65679360	16092744	24992
179	0.639206	94294016	65679360	16957112	24992
180	0.653041	94294016	65679360	17824296	24992
181	0.643842	94294016	65679360	18695384	24992
182	0.686288	94294016	65679360	19570464	24992
183	0.690872	94294016	65679360	20449496	24992
184	0.692376	94294016	65679360	21332448	24992
185	0.668646	94294016	65679360	22219360	24992
186	0.710142	94294016	65679360	23110296	24992
187	0.707874	94294016	65679360	24005104	24992
188	0.675025	94294016	65679360	24903872	24992
189	0.669758	94294016	65679360	25812480	24992
190	0.671406	94294016	65679360	26719136	24992
191	0.675838	94294016	65679360	27629672	24992
192	0.721205	94294016	65679360	28544192	24992
193	0.885412	94294016	65679360	29462576	24992
194	1.142342	94294016	65679360	14055696	24992
195	0.744891	94294016	65679360	14981984	24992
196	0.690255	94294016	65679360	15912240	24992
197	0.691384	94294016	65679360	16846480	24992
198	0.704318	94294016	65679360	17784608	24992
199	0.695882	94294016	65679360	18736392	24992
200	0.74391	94294016	65679360	19690624	24992
201	0.709768	94294016	65679360	20648776	24992
202	0.707203	94294016	65679360	21610968	24992
203	0.713992	94294016	65679360	22577024	24992
204	0.755512	94294016	65679360	23547088	24992
205	0.762179	94294016	65679360	24520984	24992
206	0.759432	94294016	65679360	25500392	24992
207	0.767594	94294016	65679360	26498720	24992
208	0.944308	94294016	65679360	27518448	24992
209	0.778514	94294016	65679360	28543520	24992
210	0.783796	94294016	65679360	29574688	24992
211	1.177725	94294016	65679360	14250680	24992
212	0.794956	94294016	65679360	15285248	24992
213	0.792024	94294016	65679360	16323744	24992
214	0.792111	94294016	65679360	17366128	24992
215	0.762123	94294016	65679360	18412472	24992
216	0.799203	94294016	65679360	19462776	24992
217	0.811505	94294016	65679360	20516968	24992
218	0.802777	94294016	65679360	21575184	24992
219	0.834812	94294016	65679360	22637384	24992
220	0.758239	94294016	65679360	23703440	24992
221	1.11201	94294016	65679360	24775864	24992
222	0.767841	94294016	65679360	25849832	24992
223	0.765534	94294016	65679360	26927752	24992
224	0.821433	94294016	65679360	28009600	24992
225	0.829767	94294016	65679360	29095368	24992
226	0.82057	94294016	65679360	30185032	24992
227	1.208174	94294016	65679360	14912848	24992
228	0.836839	94294016	65679360	16010504	24992
229	0.846477	94294016	65679360	17134256	24992
230	0.80121	94294016	65679360	18254128	24992
231	0.853488	94294016	65679360	19377856	24992
232	0.859115	94294016	65679360	20505672	24992
233	0.861322	94294016	65679360	21637240	24992
234	0.85751	94294016	65679360	22772872	24992
235	0.869018	94294016	65679360	23912376	24992
236	0.827382	94294016	65679360	25055880	24992
237	1.034336	94294016	65679360	26203208	24992
238	0.848248	94294016	65679360	27354624	24992
239	0.881778	94294016	65679360	28510024	24992
240	0.840052	94294016	65679360	29669192	24992
241	1.260869	94294016	65679360	14480864	24992
242	0.893807	94294016	65679360	15650952	24992
243	0.89719	94294016	65679360	16821968	24992
244	0.872865	94294016	65679360	17999264	24992
245	0.900201	94294016	65679360	19178208	24992
246	0.89823	94294016	65679360	20361032	24992
247	0.906025	94294016	65679360	21548888	24992
248	0.913968	94294016	65679360	22740032	24992
249	0.913525	94294016	65679360	23935256	24992
250	0.91442	94294016	65679360	25133896	24992
251	0.918117	94294016	65679360	26346368	24992
252	0.920671	94294016	65679360	27553888	24992
253	0.973965	94294016	65679360	28764264	24992
254	0.966625	94294016	65679360	29981264	24992
255	1.00469	94294016	65679360	14925904	24992
256	0.972561	94294016	65679360	16149520	24992
257	1.001615	94294016	65679360	17375712	24992
258	0.98912	94294016	65679360	18608656	24992
259	0.963945	94294016	65679360	19842680	24992
260	0.950318	94294016	65679360	21080632	24992
261	0.960565	94294016	65679360	22325152	24992
262	0.957431	94294016	65679360	23571056	24992
263	0.964518	94294016	65679360	24824936	24992
264	0.967307	94294016	65679360	26080912	24992
265	0.969547	94294016	65679360	27339872	24992
266	0.989683	94294016	65679360	28602176	24992
267	0.917217	94294016	65679360	29870088	24992
268	1.34686	94294016	65679360	14867128	24992
269	0.957806	94294016	65679360	16140664	24992
270	0.951716	94294016	65679360	17418072	24992
271	0.973756	94294016	65679360	18704640	24992
272	0.986051	94294016	65679360	19989936	24992
273	0.993577	94294016	65679360	21282312	24992
274	0.991095	94294016	65679360	22575424	24992
275	1.000062	94294016	65679360	23877080	24992
276	0.987464	94294016	65679360	25178136	24992
277	0.978809	94294016	65679360	26483216	24992
278	1.023733	94294016	65679360	27792104	24992
279	1.169611	94294016	65679360	29107808	24992
280	1.027572	94294016	65679360	30424640	24992
281	0.971639	94294016	65679360	15430992	24992
282	0.962869	94294016	65679360	16755672	24992
283	0.960651	94294016	65679360	18084272	24992
284	0.961713	94294016	65679360	19416984	24992
285	1.030917	94294016	65679360	20754480	24992
286	1.038839	94294016	65679360	22103856	24992
287	1.037247	94294016	65679360	23455600	24992
288	1.011279	94294016	65679360	24803944	24992
289	1.038632	94294016	65679360	26156912	24992
290	1.012737	94294016	65679360	27514680	24992
291	1.047058	94294016	65679360	28874824	24992
292	1.079813	94294016	65679360	30239392	24992
293	1.06963	94294016	65679360	15304864	24992
294	1.054345	94294016	65679360	16676736	24992
295	1.028599	94294016	65679360	18058800	24992
296	1.095784	94294016	65679360	19438656	24992
297	1.066658	94294016	65679360	20822416	24992
298	1.093546	94294016	65679360	22211816	24992
299	1.012923	94294016	65679360	23606168	24992
300	1.04656	94294016	65679360	25004312	24992
301	1.063689	94294016	65679360	26403768	24992
302	1.069688	94294016	65679360	27807216	24992
303	1.104115	94294016	65679360	29214656	24992
304	1.084255	94294016	65679360	30625952	24992
305	1.094467	94294016	65679360	15676048	24992
306	1.092051	94294016	65679360	17095992	24992
307	1.115593	94294016	65679360	18529520	24992
308	1.270266	94294016	65679360	19956680	24992
309	1.103505	94294016	65679360	21389816	24992
310	1.054628	94294016	65679360	22828280	24992
311	1.144377	94294016	65679360	24267216	24992
312	1.107891	94294016	65679360	25710632	24992
313	1.106234	94294016	65679360	27157984	24992
314	1.115774	94294016	65679360	28608640	24992
315	1.122872	94294016	65679360	30068736	24992
316	1.140159	94294016	65679360	15262864	24992
317	1.130086	94294016	65679360	16726640	24992
318	1.101142	94294016	65679360	18197640	24992
319	1.29511	94294016	65679360	19668048	24992
320	1.134037	94294016	65679360	21142504	24992
321	1.138458	94294016	65679360	22620792	24992
322	1.150479	94294016	65679360	24103064	24992
323	1.144574	94294016	65679360	25589232	24992
324	1.148964	94294016	65679360	27080608	24992
325	1.147095	94294016	65679360	28574736	24992
326	1.1542	94294016	65679360	30077376	24992
327	1.167291	94294016	65679360	15323808	24992
328	1.161051	94294016	65679360	16829688	24992
329	1.166173	94294016	65679360	18339552	24992
330	1.170333	94294016	65679360	19853400	24992
331	1.16865	94294016	65679360	21371152	24992
332	1.162786	94294016	65679360	22896528	24992
333	1.342745	94294016	65679360	24422120	24992
334	1.179132	94294016	65679360	25951680	24992
335	1.170023	94294016	65679360	27486376	24992
336	1.188179	94294016	65679360	29031024	24992
337	1.184394	94294016	65679360	30589368	24992
338	1.202115	94294016	65679360	15832208	24992
339	1.203202	94294016	65679360	17397832	24992
340	1.194802	94294016	65679360	18979672	24992
341	1.144332	94294016	65679360	20554352	24992
342	1.195724	94294016	65679360	22131752	24992
343	1.210283	94294016	65679360	23713184	24992
344	1.366716	94294016	65679360	25298568	24992
345	1.24215	94294016	65679360	26895272	24992
346	1.152472	94294016	65679360	28490088	24992
347	1.210917	94294016	65679360	30087280	24992
348	1.249383	94294016	65679360	15325696	24992
349	1.228727	94294016	65679360	16930760	24992
350	1.228181	94294016	65679360	18552408	24992
351	1.413792	94294016	65679360	20166696	24992
352	1.239522	94294016	65679360	21783488	24992
353	1.241352	94294016	65679360	23404888	24992
354	1.238405	94294016	65679360	25042784	24992
355	1.241897	94294016	65679360	26671488	24992
356	1.247584	94294016	65679360	28304168	24992
357	1.255224	94294016	65679360	29946720	24992
358	1.62731	94294016	65679360	15262280	24992
359	1.257499	94294016	65679360	16906768	24992
360	1.235402	94294016	65679360	18572856	24992
361	1.279067	94294016	65679360	20247544	24992
362	1.263726	94294016	65679360	21926184	24992
363	1.26903	94294016	65679360	23610256	24992
364	1.462235	94294016	65679360	25296752	24992
365	1.284234	94294016	65679360	26987136	24992
366	1.279306	94294016	65679360	28681352	24992
367	1.283648	94294016	65679360	30379632	24992
368	1.445837	94294016	65679360	15849096	24992
369	1.2266	94294016	65679360	17555112	24992
370	1.288087	94294016	65679360	19267848	24992
371	1.295438	94294016	65679360	20981768	24992
372	1.318918	94294016	65679360	22699680	24992
373	1.305278	94294016	65679360	24433640	24992
374	1.305331	94294016	65679360	26159376	24992
375	1.322582	94294016	65679360	27889112	24992
376	1.250201	94294016	65679360	29623760	24992
377	1.663948	94294016	65679360	15083848	24992
378	1.321941	94294016	65679360	16825344	24992
379	1.329601	94294016	65679360	18570792	24992
380	1.329985	94294016	65679360	20320192	24992
381	1.324741	94294016	65679360	22073624	24992
382	1.333563	94294016	65679360	23831016	24992
383	1.342626	94294016	65679360	25592280	24992
384	1.335245	94294016	65679360	27357392	24992
385	1.339547	94294016	65679360	29126632	24992
386	1.342628	94294016	65679360	30902568	24992
387	1.363826	94294016	65679360	16371472	24992
388	1.346254	94294016	65679360	18152352	24992
389	1.359085	94294016	65679360	19943376	24992
390	1.353327	94294016	65679360	21732176	24992
391	1.371916	94294016	65679360	23524864	24992
392	1.361658	94294016	65679360	25321672	24992
393	1.362485	94294016	65679360	27122296	24992
394	1.368554	94294016	65679360	28932840	24992
395	1.388343	94294016	65679360	30741336	24992
396	1.41107	94294016	65679360	16246976	24992
397	1.368142	94294016	65679360	18063264	24992
398	1.383315	94294016	65679360	19883792	24992
399	1.390527	94294016	65679360	21722336	24992
400	1.547815	94294016	65679360	23550584	24992
401	1.382619	94294016	65679360	25385792	24992
402	1.397566	94294016	65679360	27222080	24992
403	1.404918	94294016	65679360	29062064	24992
404	1.571528	94294016	65679360	30908344	24992
405	1.401273	94294016	65679360	16452368	24992
406	1.400769	94294016	65679360	18304248	24992
407	1.402237	94294016	65679360	20163992	24992
408	1.424167	94294016	65679360	22023680	24992
409	1.416301	94294016	65679360	23906776	24992
410	1.415229	94294016	65679360	25803416	24992
411	1.4191	94294016	65679360	27691456	24992
412	1.555678	94294016	65679360	29590840	24992
413	1.856766	94294016	65679360	15270736	24992
414	1.368978	94294016	65679360	17191424	24992
415	1.431645	94294016	65679360	19095136	24992
416	1.438016	94294016	65679360	21002896	24992
417	1.4437	94294016	65679360	22955784	24992
418	1.450021	94294016	65679360	24954632	24992
419	1.439308	94294016	65679360	26946336	24992
420	1.419268	94294016	65679360	28935496	24992
421	1.456772	94294016	65679360	30928688	24992
422	1.453179	94294016	65679360	16625600	24992
423	1.643769	94294016	65679360	18626688	24992
424	1.475341	94294016	65679360	20631808	24992
425	1.473756	94294016	65679360	22640736	24992
426	1.470795	94294016	65679360	24653552	24992
427	1.472087	94294016	65679360	26670424	24992
428	1.445249	94294016	65679360	28694904	24992
429	1.486581	94294016	65679360	30726680	24992
430	1.509096	94294016	65679360	16489136	24992
431	1.483934	94294016	65679360	18521672	24992
432	1.487314	94294016	65679360	20558168	24992
433	1.494677	94294016	65679360	22598624	24992
434	1.664039	94294016	65679360	24643152	24992
435	1.515193	94294016	65679360	26694240	24992
436	1.502903	94294016	65679360	28748328	24992
437	1.583095	94294016	65679360	30814792	24992
438	1.520715	94294016	65679360	16580512	24992
439	1.596706	94294016	65679360	18644640	24992
440	1.510745	94294016	65679360	20712728	24992
441	1.691905	94294016	65679360	22784704	24992
442	1.525195	94294016	65679360	24860640	24992
443	1.552027	94294016	65679360	26940504	24992
444	1.525785	94294016	65679360	29024384	24992
445	1.532838	94294016	65679360	31112216	24992
446	1.497066	94294016	65679360	16931328	24992
447	1.468627	94294016	65679360	19037248	24992
448	1.690485	94294016	65679360	21136984	24992
449	1.554567	94294016	65679360	23240432	24992
450	1.572251	94294016	65679360	25347864	24992
451	1.50928	94294016	65679360	27459280	24992
452	1.560125	94294016	65679360	29574504	24992
453	1.884107	94294016	65679360	15488696	24992
454	1.560452	94294016	65679360	17611888	24992
455	1.567621	94294016	65679360	19739040	24992
456	1.605878	94294016	65679360	21870152	24992
457	1.58953	94294016	65679360	24005120	24992
458	1.558815	94294016	65679360	26144048	24992
459	1.491675	94294016	65679360	28290768	24992
460	1.503138	94294016	65679360	30454136	24992
461	1.581969	94294016	65679360	16428648	24992
462	1.60607	94294016	65679360	18623160	24992
463	1.593463	94294016	65679360	20781808	24992
464	1.772141	94294016	65679360	22944440	24992
465	1.742948	94294016	65679360	25110880	24992
466	1.607358	94294016	65679360	27288544	24992
467	1.599273	94294016	65679360	29479720	24992
468	2.034559	94294016	65679360	15459144	24992
469	1.612313	94294016	65679360	17647064	24992
470	1.615248	94294016	65679360	19833256	24992
471	1.61305	94294016	65679360	22023400	24992
472	1.561169	94294016	65679360	24231536	24992
473	1.628557	94294016	65679360	26433040	24992
474	1.629517	94294016	65679360	28634992	24992
475	1.785681	94294016	65679360	30840832	24992
476	1.57465	94294016	65679360	16821792	24992
477	1.619791	94294016	65679360	19035416	24992
478	1.631561	94294016	65679360	21259960	24992
479	1.6398	94294016	65679360	23481728	24992
480	1.638105	94294016	65679360	25707240	24992
481	1.643363	94294016	65679360	27936736	24992
482	1.669594	94294016	65679360	30170224	24992
483	2.016337	94294016	65679360	16122352	24992
484	1.668606	94294016	65679360	18363744	24992
485	1.829704	94294016	65679360	20608920	24992
486	1.673151	94294016	65679360	22861512	24992
487	1.672357	94294016	65679360	25114680	24992
488	1.67905	94294016	65679360	27371744	24992
489	1.665368	94294016	65679360	29645576	24992
490	2.104992	94294016	65679360	15723336	24992
491	1.680029	94294016	65679360	17992296	24992
492	1.636508	94294016	65679360	20267672	24992
493	1.680644	94294016	65679360	22544480	24992
494	1.679656	94294016	65679360	24825192	24992
495	1.608616	94294016	65679360	27123072	24992
496	1.59914	94294016	65679360	29411632	24992
497	2.055138	94294016	65679360	15531560	24992
498	1.84878	94294016	65679360	17843016	24992
499	1.707767	94294016	65679360	20143480	24992
500	1.70815	94294016	65679360	22466144	24992
501	1.71726	94294016	65679360	24776976	24992
502	1.6864	94294016	65679360	27090392	24992
503	1.720298	94294016	65679360	29406584	24992
504	2.276633	94294016	65679360	15553272	24992
505	1.732003	94294016	65679360	17895672	24992
506	1.71198	94294016	65679360	20223664	24992
507	1.721918	94294016	65679360	22575120	24992
508	1.724174	94294016	65679360	24910952	24992
509	1.730069	94294016	65679360	27251264	24992
510	1.728711	94294016	65679360	29615208	24992
511	2.183483	94294016	65679360	15785360	24992
512	1.745163	94294016	65679360	18140816	24992
513	1.743215	94294016	65679360	20509656	24992
514	1.667792	94294016	65679360	22869160	24992
515	1.739047	94294016	65679360	25234568	24992
516	1.750915	94294016	65679360	27610840	24992
517	1.67985	94294016	65679360	29982264	24992
518	2.1178	94294016	65679360	16100712	24992
519	1.769278	94294016	65679360	18489472	24992
520	1.726847	94294016	65679360	20883848	24992
521	1.769948	94294016	65679360	23270888	24992
522	1.778068	94294016	65679360	25665456	24992
523	1.784543	94294016	65679360	28060384	24992
524	1.776365	94294016	65679360	30462760	24992
525	2.069203	94294016	65679360	16498928	24992
526	1.712878	94294016	65679360	18921560	24992
527	1.785861	94294016	65679360	21332328	24992
528	1.790643	94294016	65679360	23753576	24992
529	1.786643	94294016	65679360	26173392	24992
530	1.94505	94294016	65679360	28595848	24992
531	1.805473	94294016	65679360	31038480	24992
532	1.810689	94294016	65679360	17266192	24992
533	1.812131	94294016	65679360	19707656	24992
534	1.810321	94294016	65679360	22148088	24992
535	1.80429	94294016	65679360	24590848	24992
536	1.812414	94294016	65679360	27036920	24992
537	1.821696	94294016	65679360	29488080	24992
538	2.152282	94294016	65679360	15787816	24992
539	1.819868	94294016	65679360	18246184	24992
540	1.828982	94294016	65679360	20709952	24992
541	1.754948	94294016	65679360	23175984	24992
542	1.825237	94294016	65679360	25659848	24992
543	1.834277	94294016	65679360	28133560	24992
544	1.756307	94294016	65679360	30618000	24992
545	1.853278	94294016	65679360	16739936	24992
546	1.845351	94294016	65679360	19238360	24992
547	1.851206	94294016	65679360	21748864	24992
548	1.854201	94294016	65679360	24243456	24992
549	1.850732	94294016	65679360	26742400	24992
550	1.876796	94294016	65679360	29243688	24992
551	1.861663	94294016	65679360	31749616	24992
552	1.86501	94294016	65679360	17925832	24992
553	1.884425	94294016	65679360	20439040	24992
554	1.82357	94294016	65679360	22977576	24992
555	1.88131	94294016	65679360	25503696	24992
556	1.800896	94294016	65679360	28055864	24992
557	1.873556	94294016	65679360	30625160	24992
558	2.061701	94294016	65679360	16851168	24992
559	1.901878	94294016	65679360	19443144	24992
560	1.897936	94294016	65679360	22027296	24992
561	1.923056	94294016	65679360	24611304	24992
562	1.908556	94294016	65679360	27195424	24992
563	1.910551	94294016	65679360	29796136	24992
564	2.512954	94294016	65679360	16199064	24992
565	1.912239	94294016	65679360	18798128	24992
566	1.911457	94294016	65679360	21397592	24992
567	1.91199	94294016	65679360	24003048	24992
568	1.930151	94294016	65679360	26609280	24992
569	1.910624	94294016	65679360	29227416	24992
570	1.920101	94294016	65679360	31841712	24992
571	1.922714	94294016	65679360	18128632	24992
572	1.930454	94294016	65679360	20768312	24992
573	1.94088	94294016	65679360	23395160	24992
574	1.960778	94294016	65679360	26031000	24992
575	1.953858	94294016	65679360	28669872	24992
576	1.954571	94294016	65679360	31307632	24992
577	1.962938	94294016	65679360	17727328	24992
578	2.119486	94294016	65679360	20372904	24992
579	1.968304	94294016	65679360	23030384	24992
580	1.860318	94294016	65679360	25683880	24992
581	1.94836	94294016	65679360	28341400	24992
582	1.957196	94294016	65679360	31027976	24992
583	1.983097	94294016	65679360	17549064	24992
584	1.93019	94294016	65679360	20221608	24992
585	1.971494	94294016	65679360	22914232	24992
586	1.99333	94294016	65679360	25594952	24992
587	1.984313	94294016	65679360	28276200	24992
588	1.987541	94294016	65679360	30963104	24992
589	2.011443	94294016	65679360	17515304	24992
590	1.890021	94294016	65679360	20208256	24992
591	1.981869	94294016	65679360	22905080	24992
592	1.907361	94294016	65679360	25605960	24992
593	1.891906	94294016	65679360	28310696	24992
594	1.999112	94294016	65679360	31019312	24992
595	2.022801	94294016	65679360	17594464	24992
596	2.012545	94294016	65679360	20314056	24992
597	2.175668	94294016	65679360	23038144	24992
598	2.040622	94294016	65679360	25764184	24992
599	2.00789	94294016	65679360	28492448	24992
600	1.974002	94294016	65679360	31224896	24992
601	2.02192	94294016	65679360	17825464	24992
602	2.035599	94294016	65679360	20565784	24992
603	2.030825	94294016	65679360	23322744	24992
604	2.03484	94294016	65679360	26070696	24992
605	2.217948	94294016	65679360	28823592	24992
606	2.047823	94294016	65679360	31587520	24992
607	2.045254	94294016	65679360	18102936	24992
608	2.042548	94294016	65679360	20872048	24992
609	1.95263	94294016	65679360	23639904	24992
610	2.200505	94294016	65679360	26411600	24992
611	2.055663	94294016	65679360	29194248	24992
612	2.061942	94294016	65679360	31989304	24992
613	2.202978	94294016	65679360	18488424	24992
614	2.06084	94294016	65679360	21275912	24992
615	2.0571	94294016	65679360	24069472	24992
616	1.968714	94294016	65679360	26864992	24992
617	2.07673	94294016	65679360	29680128	24992
618	2.645968	94294016	65679360	16359360	24992
619	2.039792	94294016	65679360	19175712	24992
620	2.076727	94294016	65679360	21987232	24992
621	2.035833	94294016	65679360	24805096	24992
622	2.087199	94294016	65679360	27648328	24992
623	2.098711	94294016	65679360	30476488	24992
624	2.474279	94294016	65679360	17066576	24992
625	2.10557	94294016	65679360	19897816	24992
626	2.094003	94294016	65679360	22732648	24992
627	2.098794	94294016	65679360	25575544	24992
628	2.098199	94294016	65679360	28418200	24992
629	2.022192	94294016	65679360	31265232	24992
630	2.087064	94294016	65679360	17995432	24992
631	2.12668	94294016	65679360	20852128	24992
632	2.117783	94294016	65679360	23714208	24992
633	2.122793	94294016	65679360	26576576	24992
634	2.116579	94294016	65679360	29446464	24992
635	2.588637	94294016	65679360	16208984	24992
636	2.28804	94294016	65679360	19098696	24992
637	2.152452	94294016	65679360	21976784	24992
638	2.131139	94294016	65679360	24859728	24992
639	2.129083	94294016	65679360	27760448	24992
640	2.162732	94294016	65679360	30656144	24992
641	2.368993	94294016	65679360	17264344	24992
642	2.15433	94294016	65679360	20164264	24992
643	2.103653	94294016	65679360	23065912	24992
644	2.252098	94294016	65679360	25979168	24992
645	2.161743	94294016	65679360	28888608	24992
646	2.352157	94294016	65679360	31802072	24992
647	2.183263	94294016	65679360	18491744	24992
648	2.170989	94294016	65679360	21413184	24992
649	2.171635	94294016	65679360	24369328	24992
650	2.173207	94294016	65679360	27308688	24992
651	2.341169	94294016	65679360	30242008	24992
652	2.555617	94294016	65679360	16950448	24992
653	2.184497	94294016	65679360	19899336	24992
654	2.133776	94294016	65679360	22872544	24992
655	2.199501	94294016	65679360	25823152	24992
656	2.330476	94294016	65679360	28776064	24992
657	2.148758	94294016	65679360	31740024	24992
658	2.201551	94294016	65679360	18497904	24992
659	2.1093	94294016	65679360	21485496	24992
660	2.211412	94294016	65679360	24458512	24992
661	2.285858	94294016	65679360	27431072	24992
662	2.208866	94294016	65679360	30407520	24992
663	2.583808	94294016	65679360	17165248	24992
664	2.134133	94294016	65679360	20174400	24992
665	2.225742	94294016	65679360	23162720	24992
666	2.318586	94294016	65679360	26167680	24992
667	2.228145	94294016	65679360	29168456	24992
668	2.181887	94294016	65679360	32168704	24992
669	2.257596	94294016	65679360	18947584	24992
670	2.240249	94294016	65679360	21972528	24992
671	2.245456	94294016	65679360	24984528	24992
672	2.239175	94294016	65679360	28002552	24992
673	2.426453	94294016	65679360	31027808	24992
674	2.268914	94294016	65679360	17978680	24992
675	2.246716	94294016	65679360	21008016	24992
676	2.154308	94294016	65679360	24063192	24992
677	2.281777	94294016	65679360	27098896	24992
678	2.455698	94294016	65679360	30138432	24992
679	2.59075	94294016	65679360	16990312	24992
680	2.15714	94294016	65679360	20042792	24992
681	2.218138	94294016	65679360	23099664	24992
682	2.304064	94294016	65679360	26176168	24992
683	2.277466	94294016	65679360	29245752	24992
684	2.280611	94294016	65679360	32326768	24992
685	2.300745	94294016	65679360	19114088	24992
686	2.251182	94294016	65679360	22213784	24992
687	2.17791	94294016	65679360	25311464	24992
688	2.287591	94294016	65679360	28409144	24992
689	2.319889	94294016	65679360	31515160	24992
690	2.400846	94294016	65679360	18528784	24992
691	2.307473	94294016	65679360	21653904	24992
692	2.311948	94294016	65679360	24768024	24992
693	2.313254	94294016	65679360	27909792	24992
694	2.318504	94294016	65679360	31033128	24992
695	2.277361	94294016	65679360	17812024	24992
696	2.334824	94294016	65679360	20941008	24992
697	2.42501	94294016	65679360	24071976	24992
698	2.315824	94294016	65679360	27206744	24992
699	2.338115	94294016	65679360	30365744	24992
700	2.711582	94294016	65679360	17300248	24992
701	2.351788	94294016	65679360	20463640	24992
702	2.337411	94294016	65679360	23619240	24992
703	2.482962	94294016	65679360	26786288	24992
704	2.498088	94294016	65679360	29944824	24992
705	2.84094	94294016	65679360	17019400	24992
706	2.363609	94294016	65679360	20185760	24992
707	2.354611	94294016	65679360	23367560	24992
708	2.352025	94294016	65679360	26541856	24992
709	2.58233	94294016	65679360	29726576	24992
710	2.866194	94294016	65679360	16837912	24992
711	2.313309	94294016	65679360	20026616	24992
712	2.384675	94294016	65679360	23240792	24992
713	2.74479	94294016	65679360	26461632	24992
714	2.321834	94294016	65679360	29659360	24992
715	2.976867	94294016	65679360	16786552	24992
716	2.393154	94294016	65679360	19992136	24992
717	2.287321	94294016	65679360	23203616	24992
718	2.393397	94294016	65679360	26418936	24992
719	2.402532	94294016	65679360	29646512	24992
720	2.841799	94294016	65679360	16796056	24992
721	2.401121	94294016	65679360	20021480	24992
722	2.494415	94294016	65679360	23252000	24992
723	2.393399	94294016	65679360	26485376	24992
724	2.528727	94294016	65679360	29722560	24992
725	2.920913	94294016	65679360	16894296	24992
726	2.363948	94294016	65679360	20140672	24992
727	2.428865	94294016	65679360	23390208	24992
728	2.421711	94294016	65679360	26645816	24992
729	2.320191	94294016	65679360	29902736	24992
730	2.937555	94294016	65679360	17098152	24992
731	2.360092	94294016	65679360	20373512	24992
732	2.312513	94294016	65679360	23650000	24992
733	2.592726	94294016	65679360	26922896	24992
734	2.449895	94294016	65679360	30206728	24992
735	2.895859	94294016	65679360	17292128	24992
736	2.423	94294016	65679360	20581416	24992
737	2.44233	94294016	65679360	23871320	24992
738	2.455999	94294016	65679360	27196968	24992
739	2.464715	94294016	65679360	30493328	24992
740	2.789424	94294016	65679360	17594344	24992
741	2.403701	94294016	65679360	20901136	24992
742	2.61234	94294016	65679360	24221736	24992
743	2.464414	94294016	65679360	27533888	24992
744	2.496584	94294016	65679360	30866744	24992
745	2.819804	94294016	65679360	17927080	24992
746	2.485354	94294016	65679360	21250984	24992
747	2.490637	94294016	65679360	24578888	24992
748	2.480636	94294016	65679360	27910608	24992
749	2.388986	94294016	65679360	31246432	24992
750	2.516803	94294016	65679360	18527184	24992
751	2.486737	94294016	65679360	21877512	24992
752	2.422021	94294016	65679360	25253232	24992
753	2.587197	94294016	65679360	28607176	24992
754	2.379002	94294016	65679360	31968712	24992
755	2.522387	94294016	65679360	19150048	24992
756	2.504329	94294016	65679360	22516632	24992
757	2.679484	94294016	65679360	25884504	24992
758	2.518252	94294016	65679360	29255560	24992
759	2.531713	94294016	65679360	32630680	24992
760	2.457823	94294016	65679360	19772864	24992
761	2.398666	94294016	65679360	23163424	24992
762	2.527167	94294016	65679360	26550440	24992
763	2.465678	94294016	65679360	29946904	24992
764	3.13697	94294016	65679360	17293960	24992
765	2.576383	94294016	65679360	20693144	24992
766	2.537313	94294016	65679360	24112712	24992
767	2.515428	94294016	65679360	27519368	24992
768	2.691475	94294016	65679360	30938400	24992
769	3.014884	94294016	65679360	18097736	24992
770	2.657728	94294016	65679360	21523200	24992
771	2.542393	94294016	65679360	24946400	24992
772	2.666665	94294016	65679360	28388984	24992
773	2.554988	94294016	65679360	31833704	24992
774	2.617512	94294016	65679360	19233696	24992
775	3.131664	94294016	65679360	22674472	24992
776	2.783997	94294016	65679360	26125600	24992
777	2.574857	94294016	65679360	29598784	24992
778	3.209801	94294016	65679360	17022832	24992
779	2.530321	94294016	65679360	20476584	24992
780	2.479365	94294016	65679360	23955016	24992
781	2.483272	94294016	65679360	27429000	24992
782	2.590483	94294016	65679360	30927328	24992
783	2.99473	94294016	65679360	18191440	24992
784	2.601149	94294016	65679360	21671080	24992
785	2.542342	94294016	65679360	25148568	24992
786	2.718533	94294016	65679360	28648144	24992
787	2.48818	94294016	65679360	32158048	24992
788	2.619279	94294016	65679360	19497904	24992
789	2.564222	94294016	65679360	23017816	24992
790	2.631844	94294016	65679360	26521816	24992
791	2.580937	94294016	65679360	30023336	24992
792	3.168462	94294016	65679360	17534576	24992
793	2.628798	94294016	65679360	21044752	24992
794	2.634818	94294016	65679360	24561576	24992
795	2.645795	94294016	65679360	28108536	24992
796	2.644936	94294016	65679360	31629320	24992
797	2.778723	94294016	65679360	19144568	24992
798	2.648359	94294016	65679360	22673328	24992
799	2.791657	94294016	65679360	26218616	24992
800	2.659774	94294016	65679360	29757976	24992
801	3.234096	94294016	65679360	17329688	24992
802	2.662695	94294016	65679360	20874144	24992
803	2.817346	94294016	65679360	24435168	24992
804	2.594674	94294016	65679360	28023392	24992
805	2.83204	94294016	65679360	31579608	24992
806	2.68822	94294016	65679360	19129960	24992
807	2.820631	94294016	65679360	22710488	24992
808	2.609991	94294016	65679360	26309008	24992
809	2.684875	94294016	65679360	29881032	24992
810	3.256416	94294016	65679360	17451480	24992
811	2.868095	94294016	65679360	21058528	24992
812	2.684656	94294016	65679360	24670768	24992
813	2.804286	94294016	65679360	28283040	24992
814	2.688869	94294016	65679360	31895280	24992
815	2.725985	94294016	65679360	19489464	24992
816	2.700757	94294016	65679360	23094472	24992
817	2.877326	94294016	65679360	26707640	24992
818	2.710279	94294016	65679360	30320872	24992
819	3.312033	94294016	65679360	17835032	24992
820	2.716076	94294016	65679360	21468448	24992
821	2.648305	94294016	65679360	25098272	24992
822	2.698271	94294016	65679360	28723992	24992
823	2.838612	94294016	65679360	32352800	24992
824	2.734435	94294016	65679360	19861176	24992
825	2.858129	94294016	65679360	23496352	24992
826	2.735192	94294016	65679360	27135456	24992
827	2.618632	94294016	65679360	30816160	24992
828	3.29226	94294016	65679360	18313488	24992
829	2.890857	94294016	65679360	21980856	24992
830	2.753983	94294016	65679360	25675160	24992
831	2.876647	94294016	65679360	29354848	24992
832	2.763004	94294016	65679360	33081544	24992
833	2.760204	94294016	65679360	20578272	24992
834	2.75557	94294016	65679360	24281416	24992
835	2.771243	94294016	65679360	27980264	24992
836	2.769774	94294016	65679360	31675000	24992
837	2.769079	94294016	65679360	19393936	24992
838	2.99537	94294016	65679360	23129616	24992
839	2.789605	94294016	65679360	26943168	24992
840	2.774471	94294016	65679360	30719288	24992
841	3.176019	94294016	65679360	18352776	24992
842	2.714594	94294016	65679360	22137880	24992
843	2.771863	94294016	65679360	25942808	24992
844	2.785914	94294016	65679360	29734784	24992
845	3.409748	94294016	65679360	17560560	24992
846	2.79158	94294016	65679360	21382336	24992
847	2.798633	94294016	65679360	25186144	24992
848	3.093423	94294016	65679360	28999256	24992
849	2.811805	94294016	65679360	32810984	24992
850	2.823005	94294016	65679360	20538704	24992
851	2.810015	94294016	65679360	24422080	24992
852	2.942741	94294016	65679360	28297280	24992
853	2.790731	94294016	65679360	32201152	24992
854	2.937118	94294016	65679360	20131040	24992
855	2.82397	94294016	65679360	24028880	24992
856	3.045789	94294016	65679360	27919752	24992
857	2.840301	94294016	65679360	31825168	24992
858	2.70887	94294016	65679360	19779296	24992
859	3.030435	94294016	65679360	23682112	24992
860	2.985542	94294016	65679360	27630544	24992
861	2.845364	94294016	65679360	31541136	24992
862	2.86796	94294016	65679360	19187952	24992
863	2.847278	94294016	65679360	23121488	24992
864	2.856246	94294016	65679360	27073656	24992
865	2.841839	94294016	65679360	30999984	24992
866	3.400085	94294016	65679360	18800880	24992
867	2.985974	94294016	65679360	22739032	24992
868	2.859222	94294016	65679360	26702384	24992
869	2.99118	94294016	65679360	30644472	24992
870	3.344296	94294016	65679360	18456072	24992
871	2.75634	94294016	65679360	22405984	24992
872	2.881057	94294016	65679360	26359968	24992
873	2.98542	94294016	65679360	30340528	24992
874	3.534982	94294016	65679360	18267648	24992
875	2.910395	94294016	65679360	22241432	24992
876	2.890305	94294016	65679360	26226920	24992
877	2.897675	94294016	65679360	30200416	24992
878	3.583411	94294016	65679360	18227152	24992
879	2.827691	94294016	65679360	22215680	24992
880	3.058623	94294016	65679360	26240944	24992
881	2.764921	94294016	65679360	30230296	24992
882	3.690941	94294016	65679360	18274592	24992
883	2.924499	94294016	65679360	22284168	24992
884	3.064357	94294016	65679360	26313080	24992
885	2.914267	94294016	65679360	30347992	24992
886	3.608254	94294016	65679360	18352384	24992
887	3.127576	94294016	65679360	22365392	24992
888	2.924121	94294016	65679360	26414120	24992
889	2.872476	94294016	65679360	30475888	24992
890	3.555327	94294016	65679360	18426808	24992
891	2.915137	94294016	65679360	22455600	24992
892	2.933173	94294016	65679360	26490936	24992
893	3.139688	94294016	65679360	30540328	24992
894	3.599026	94294016	65679360	18520488	24992
895	2.947236	94294016	65679360	22565136	24992
896	2.894701	94294016	65679360	26613552	24992
897	2.826693	94294016	65679360	30673232	24992
898	3.536783	94294016	65679360	18615528	24992
899	2.969858	94294016	65679360	22675936	24992
900	3.119042	94294016	65679360	26740184	24992
901	2.97047	94294016	65679360	30813176	24992
902	3.600119	94294016	65679360	18759648	24992
903	2.990446	94294016	65679360	22889392	24992
904	3.040045	94294016	65679360	27017248	24992
905	2.987041	94294016	65679360	31146216	24992
906	3.753524	94294016	65679360	19147328	24992
907	2.971484	94294016	65679360	23239144	24992
908	3.001536	94294016	65679360	27334912	24992
909	3.144221	94294016	65679360	31434520	24992
910	3.546594	94294016	65679360	19357072	24992
911	3.086793	94294016	65679360	23472560	24992
912	2.862222	94294016	65679360	27601312	24992
913	3.010131	94294016	65679360	31738440	24992
914	3.024002	94294016	65679360	19652080	24992
915	3.015432	94294016	65679360	23775392	24992
916	3.023895	94294016	65679360	27902536	24992
917	3.021686	94294016	65679360	32033640	24992
918	3.190849	94294016	65679360	20233672	24992
919	3.016981	94294016	65679360	24372744	24992
920	3.145152	94294016	65679360	28515776	24992
921	3.034962	94294016	65679360	32685760	24992
922	3.053766	94294016	65679360	20849240	24992
923	3.033535	94294016	65679360	25025808	24992
924	3.051824	94294016	65679360	29213936	24992
925	3.201764	94294016	65679360	33389824	24992
926	3.045852	94294016	65679360	21444224	24992
927	3.139601	94294016	65679360	25653648	24992
928	3.053766	94294016	65679360	29852224	24992
929	3.804397	94294016	65679360	18105024	24992
930	3.210039	94294016	65679360	22287552	24992
931	3.096252	94294016	65679360	26473952	24992
932	3.141703	94294016	65679360	30664240	24992
933	3.730471	94294016	65679360	18812128	24992
934	3.143089	94294016	65679360	23014536	24992
935	3.006018	94294016	65679360	27220808	24992
936	3.068193	94294016	65679360	31467528	24992
937	3.720962	94294016	65679360	19562152	24992
938	3.097677	94294016	65679360	23777504	24992
939	3.2429	94294016	65679360	27995336	24992
940	3.019401	94294016	65679360	32217120	24992
941	3.128624	94294016	65679360	20548624	24992
942	3.098606	94294016	65679360	24826192	24992
943	3.095752	94294016	65679360	29059784	24992
944	3.096117	94294016	65679360	33297432	24992
945	3.110565	94294016	65679360	21422016	24992
946	3.113047	94294016	65679360	25718168	24992
947	3.115022	94294016	65679360	30017496	24992
948	3.957759	94294016	65679360	18354488	24992
949	3.124552	94294016	65679360	22652264	24992
950	3.120287	94294016	65679360	26954776	24992
951	3.283797	94294016	65679360	31219960	24992
952	3.696013	94294016	65679360	19378200	24992
953	3.218736	94294016	65679360	23651328	24992
954	3.135395	94294016	65679360	27928288	24992
955	3.150577	94294016	65679360	32215840	24992
956	3.156365	94294016	65679360	20584864	24992
957	3.001562	94294016	65679360	24885904	24992
958	3.287983	94294016	65679360	29178528	24992
959	3.157539	94294016	65679360	33479408	24992
960	3.159479	94294016	65679360	21705656	24992
961	3.167968	94294016	65679360	26036512	24992
962	3.077851	94294016	65679360	30344904	24992
963	4.086588	94294016	65679360	18756512	24992
964	3.169478	94294016	65679360	23072848	24992
965	3.231606	94294016	65679360	27411040	24992
966	3.116369	94294016	65679360	31746872	24992
967	3.806422	94294016	65679360	19874144	24992
968	3.169548	94294016	65679360	24206184	24992
969	3.179247	94294016	65679360	28543328	24992
970	3.360839	94294016	65679360	32883392	24992
971	3.219009	94294016	65679360	21311208	24992
972	3.055068	94294016	65679360	25670280	24992
973	3.190229	94294016	65679360	30066024	24992
974	4.037594	94294016	65679360	18530448	24992
975	3.090221	94294016	65679360	22897632	24992
976	3.229548	94294016	65679360	27265976	24992
977	3.141077	94294016	65679360	31656528	24992
978	4.162674	94294016	65679360	19929464	24992
979	3.211507	94294016	65679360	24304904	24992
980	3.407786	94294016	65679360	28689480	24992
981	3.211161	94294016	65679360	33072768	24992
982	3.244987	94294016	65679360	21434072	24992
983	3.21802	94294016	65679360	25825192	24992
984	3.226171	94294016	65679360	30221872	24992
985	4.116503	94294016	65679360	18720120	24992
986	3.258906	94294016	65679360	23147792	24992
987	3.122445	94294016	65679360	27580160	24992
988	3.416309	94294016	65679360	32002816	24992
989	3.835544	94294016	65679360	20149656	24992
990	3.324619	94294016	65679360	24573312	24992
991	3.186205	94294016	65679360	28996056	24992
992	3.334868	94294016	65679360	33429376	24992
993	3.424238	94294016	65679360	21762112	24992
994	3.253628	94294016	65679360	26196520	24992
995	3.482934	94294016	65679360	30634912	24992
996	4.080042	94294016	65679360	19221704	24992
997	3.144161	94294016	65679360	23668160	24992
998	3.40693	94294016	65679360	28118424	24992
999	3.291	94294016	65679360	32599776	24992
1000	3.31886	94294016	65679360	21166904	24992
