x	Duration	RSS	HeapTotal	HeapUsed	External
0	NA	94060544	63582208	12744952	24992
1	0.305295	94060544	63582208	12796824	24992
2	0.224968	94060544	63582208	12873600	24992
3	0.135336	94060544	63582208	12988176	24992
4	0.136668	94060544	63582208	13087072	24992
5	0.140534	94060544	63582208	13190528	24992
6	0.14552	94060544	63582208	13297928	24992
7	0.149392	94060544	63582208	13409272	24992
8	0.152955	94060544	63582208	13524560	24992
9	0.157199	94060544	63582208	13643792	24992
10	0.162208	94060544	63582208	13769208	24992
11	0.164745	94060544	63582208	13899784	24992
12	0.17149	94060544	63582208	14034256	24992
13	0.464854	94060544	63582208	14172672	24992
14	0.191868	94060544	63582208	14315016	24992
15	0.188683	94060544	63582208	14462344	24992
16	0.191197	94060544	63582208	14613656	24992
17	0.194727	94060544	63582208	14768912	24992
18	0.203759	94060544	63582208	14928232	24992
19	0.199047	94060544	63582208	15096408	24992
20	0.201516	94060544	63582208	15265280	24992
21	0.208047	94060544	63582208	15438120	24992
22	0.2124	94060544	63582208	15614864	24992
23	0.211727	94060544	63582208	15795544	24992
24	0.215893	94060544	63582208	15982360	24992
25	0.247245	94060544	63582208	16175280	24992
26	0.234857	94060544	63582208	16372144	24992
27	0.318528	94060544	63582208	16572960	24992
28	0.2627	94060544	63582208	16778640	24992
29	0.244954	94060544	63582208	16987304	24992
30	0.22622	94060544	63582208	17199928	24992
31	0.21147	94060544	63582208	17416472	24992
32	0.231228	94060544	63582208	17639112	24992
33	0.250746	94060544	63582208	17867816	24992
34	0.208936	94060544	63582208	18098496	24992
35	0.208672	94060544	63582208	18332576	24992
36	0.236287	94060544	63582208	18570584	24992
37	0.247731	94060544	63582208	18812520	24992
38	0.222581	94060544	63582208	19059752	24992
39	0.220026	94060544	63582208	19309568	24992
40	0.223827	94060544	63582208	19563408	24992
41	0.227627	94060544	63582208	19821112	24992
42	0.231153	94060544	63582208	20084880	24992
43	0.241415	94060544	63582208	20352584	24992
44	0.248518	94060544	63582208	20625264	24992
45	0.24288	94060544	63582208	20903512	24992
46	0.243985	94060544	63582208	21186464	24992
47	0.245678	94060544	63582208	21473264	24992
48	0.248979	94060544	63582208	21764992	24992
49	0.252602	94060544	63582208	22059680	24992
50	0.255503	94060544	63582208	22362624	24992
51	0.464919	94060544	63582208	22673728	24992
52	0.284565	94060544	63582208	22988680	24992
53	0.28793	94060544	63582208	23307568	24992
54	0.287625	94060544	63582208	23630392	24992
55	0.292187	94060544	63582208	23957224	24992
56	0.296714	94060544	63582208	24287992	24992
57	0.309032	94060544	63582208	24622640	24992
58	0.303537	94060544	63582208	24961240	24992
59	0.308084	94060544	63582208	25303784	24992
60	0.307184	94060544	63582208	25650248	24992
61	0.311851	94060544	63582208	26000672	24992
62	0.354504	94060544	63582208	26355352	24992
63	0.341314	94060544	63582208	26713648	24992
64	0.353657	94060544	63582208	27077528	24992
65	0.304728	94060544	63582208	27443720	24992
66	0.303241	94060544	63582208	27813824	24992
67	0.302658	94060544	63582208	28187872	24992
68	0.349043	94060544	63582208	28565848	24992
69	0.315315	94060544	63582208	28947768	24992
70	0.318659	94060544	63582208	29333616	24992
71	0.34944	94060544	63582208	13436816	24992
72	0.345358	94060544	63582208	13830544	24992
73	0.348075	94060544	63582208	14228256	24992
74	0.350212	94060544	63582208	14629888	24992
75	0.355403	94060544	63582208	15035520	24992
76	0.356818	94060544	63582208	15449168	24992
77	0.360762	94060544	63582208	15866816	24992
78	0.367749	94060544	63582208	16288360	24992
79	0.367384	94060544	63582208	16713832	24992
80	0.368683	94060544	63582208	17143448	24992
81	0.387677	94060544	63582208	17577912	24992
82	0.350941	94060544	63582208	18015120	24992
83	0.376152	94060544	63582208	18456352	24992
84	0.35398	94060544	63582208	18905992	24992
85	0.362017	94060544	63582208	19360728	24992
86	0.362219	94060544	63582208	19819360	24992
87	0.36427	94060544	63582208	20281984	24992
88	0.366885	94060544	63582208	20748552	24992
89	0.373302	94060544	63582208	21219008	24992
90	0.371271	94060544	63582208	21693408	24992
91	0.377194	94060544	63582208	22172384	24992
92	0.4199	94060544	63582208	22654664	24992
93	0.41694	94060544	63582208	23140880	24992
94	0.418425	94060544	63582208	23635696	24992
95	0.421722	94060544	63582208	24133984	24992
96	0.42293	94060544	63582208	24636168	24992
97	0.429237	94060544	63582208	25142400	24992
98	0.430406	94060544	63582208	25652560	24992
99	0.432768	94060544	63582208	26166640	24992
100	0.436973	94060544	63582208	26684632	24992
101	0.478722	94060544	63582208	27206504	24992
102	0.416561	94060544	63582208	27740656	24992
103	0.415053	94060544	63582208	28287128	24992
104	0.418582	94060544	63582208	28837472	24992
105	0.428549	94060544	63582208	29391752	24992
106	0.433854	94060544	63582208	13759176	24992
107	0.431028	94060544	63582208	14321440	24992
108	0.46164	94060544	63582208	14887544	24992
109	0.47535	94060544	63582208	15457600	24992
110	0.467599	94060544	63582208	16032032	24992
111	0.4699	94060544	63582208	16609960	24992
112	0.472042	94060544	63582208	17191840	24992
113	0.475592	94060544	63582208	17777704	24992
114	0.476876	94060544	63582208	18367528	24992
115	0.48371	94060544	63582208	18961232	24992
116	0.486731	94060544	63582208	19558872	24992
117	0.490893	94060544	63582208	20160448	24992
118	0.489706	94060544	63582208	20766040	24992
119	0.495174	94060544	63582208	21376024	24992
120	0.68821	94060544	63582208	21989472	24992
121	0.474701	94060544	63582208	22607336	24992
122	0.473572	94060544	63582208	23228600	24992
123	0.476847	94060544	63582208	23853816	24992
124	0.514813	94060544	63582208	24482952	24992
125	0.515367	94060544	63582208	25116112	24992
126	0.518482	94060544	63582208	25753128	24992
127	0.520572	94060544	63582208	26394072	24992
128	0.525369	94060544	63582208	27039024	24992
129	0.527166	94060544	63582208	27688000	24992
130	0.529036	94060544	63582208	28340792	24992
131	0.538075	94060544	63582208	28997504	24992
132	0.535307	94060544	63582208	29658168	24992
133	0.545657	94060544	63582208	14029432	24992
134	0.548197	94060544	63582208	14697976	24992
135	0.519932	94060544	63582208	15370464	24992
136	0.516743	94060544	63582208	16047232	24992
137	0.518814	94060544	63582208	16727600	24992
138	0.520159	94060544	63582208	17411872	24992
139	0.522163	94060544	63582208	18100168	24992
140	0.524201	94060544	63582208	18792352	24992
141	0.745094	94060544	63582208	19488448	24992
142	0.534393	94060544	63582208	20197632	24992
143	0.534401	94060544	63582208	20913872	24992
144	0.54824	94060544	63582208	21630976	24992
145	0.53925	94060544	63582208	22352024	24992
146	0.542749	94060544	63582208	23076976	24992
147	0.58549	94060544	63582208	23809512	24992
148	0.589314	94060544	63582208	24543936	24992
149	0.594348	94060544	63582208	25280704	24992
150	0.593008	94060544	63582208	26021440	24992
151	0.568404	94060544	63582208	26766120	24992
152	0.60193	94060544	63582208	27514744	24992
153	0.601194	94060544	63582208	28267288	24992
154	0.611241	94060544	63582208	29023856	24992
155	0.609483	94060544	63582208	29784360	24992
156	0.627158	94060544	63582208	14233024	24992
157	0.615821	94060544	63582208	15001368	24992
158	0.620446	94060544	63582208	15773632	24992
159	0.635399	94060544	63582208	16549816	24992
160	0.641047	94060544	63582208	17329936	24992
161	0.591281	94060544	63582208	18114096	24992
162	0.603559	94060544	63582208	18902072	24992
163	0.639333	94060544	63582208	19706624	24992
164	0.827874	94060544	63582208	20510720	24992
165	0.614722	94060544	63582208	21318792	24992
166	0.602636	94060544	63582208	22130880	24992
167	0.607452	94060544	63582208	22946920	24992
168	0.838128	94060544	63582208	23766792	24992
169	0.614826	94060544	63582208	24590672	24992
170	0.617877	94060544	63582208	25418752	24992
171	0.627913	94060544	63582208	26251832	24992
172	0.625384	94060544	63582208	27087496	24992
173	0.623047	94060544	63582208	27927064	24992
174	0.662853	94060544	63582208	28770544	24992
175	0.661687	94060544	63582208	29620760	24992
176	0.890327	94060544	63582208	14180872	24992
177	0.639178	94060544	63582208	15036176	24992
178	0.637398	94060544	63582208	15895472	24992
179	0.651403	94060544	63582208	16760800	24992
180	0.641847	94060544	63582208	17627936	24992
181	0.645822	94060544	63582208	18499032	24992
182	0.648761	94060544	63582208	19374056	24992
183	0.652594	94060544	63582208	20253064	24992
184	0.658495	94060544	63582208	21135976	24992
185	0.661477	94060544	63582208	22022816	24992
186	0.660635	94060544	63582208	22913744	24992
187	0.676457	94060544	63582208	23810848	24992
188	0.669461	94060544	63582208	24709552	24992
189	0.671158	94060544	63582208	25616072	24992
190	0.681797	94060544	63582208	26522648	24992
191	0.676118	94060544	63582208	27436720	24992
192	0.677952	94060544	63582208	28351192	24992
193	0.844354	94060544	63582208	29270480	24992
194	1.186368	94060544	63582208	13901672	24992
195	0.740099	94060544	63582208	14830648	24992
196	0.738422	94060544	63582208	15760888	24992
197	0.748064	94060544	63582208	16695040	24992
198	0.739616	94060544	63582208	17634016	24992
199	0.746492	94060544	63582208	18584336	24992
200	0.734967	94060544	63582208	19538592	24992
201	0.756554	94060544	63582208	20496736	24992
202	0.765048	94060544	63582208	21458888	24992
203	0.761059	94060544	63582208	22424992	24992
204	0.760564	94060544	63582208	23399184	24992
205	0.77115	94060544	63582208	24373040	24992
206	0.770856	94060544	63582208	25350904	24992
207	0.791817	94060544	63582208	26349264	24992
208	0.779943	94060544	63582208	27368120	24992
209	0.79325	94060544	63582208	28390864	24992
210	0.785646	94060544	63582208	29417568	24992
211	1.207432	94060544	63582208	14117448	24992
212	0.794037	94060544	63582208	15151960	24992
213	0.791058	94060544	63582208	16190384	24992
214	0.787733	94060544	63582208	17232824	24992
215	0.802177	94060544	63582208	18279112	24992
216	0.804299	94060544	63582208	19335552	24992
217	0.80418	94060544	63582208	20389840	24992
218	0.800299	94060544	63582208	21449056	24992
219	0.80876	94060544	63582208	22519376	24992
220	0.814806	94060544	63582208	23585440	24992
221	0.813894	94060544	63582208	24655368	24992
222	0.918586	94060544	63582208	25729224	24992
223	0.871033	94060544	63582208	26807096	24992
224	0.830423	94060544	63582208	27889208	24992
225	0.807788	94060544	63582208	28981320	24992
226	0.825029	94060544	63582208	30071112	24992
227	0.837249	94060544	63582208	14833696	24992
228	0.842128	94060544	63582208	15931256	24992
229	0.841664	94060544	63582208	17044240	24992
230	0.841606	94060544	63582208	18164920	24992
231	0.805409	94060544	63582208	19288704	24992
232	0.853891	94060544	63582208	20416360	24992
233	1.039267	94060544	63582208	21548000	24992
234	0.85778	94060544	63582208	22683640	24992
235	0.868952	94060544	63582208	23832376	24992
236	0.870875	94060544	63582208	24976744	24992
237	0.879411	94060544	63582208	26124112	24992
238	0.877957	94060544	63582208	27277408	24992
239	0.862606	94060544	63582208	28432680	24992
240	0.885425	94060544	63582208	29591944	24992
241	1.279897	94060544	63582208	14424048	24992
242	0.887153	94060544	63582208	15591120	24992
243	0.897663	94060544	63582208	16762184	24992
244	0.889156	94060544	63582208	17937120	24992
245	1.084251	94060544	63582208	19118544	24992
246	0.897589	94060544	63582208	20303672	24992
247	0.911324	94060544	63582208	21490472	24992
248	0.906123	94060544	63582208	22681360	24992
249	0.914886	94060544	63582208	23876016	24992
250	0.914951	94060544	63582208	25076984	24992
251	1.103251	94060544	63582208	26279784	24992
252	0.865187	94060544	63582208	27486304	24992
253	0.930706	94060544	63582208	28697336	24992
254	0.9268	94060544	63582208	29911712	24992
255	0.95103	94060544	63582208	14846808	24992
256	0.932004	94060544	63582208	16071160	24992
257	0.944659	94060544	63582208	17297368	24992
258	0.932099	94060544	63582208	18528696	24992
259	0.889931	94060544	63582208	19767504	24992
260	0.944571	94060544	63582208	21005456	24992
261	0.941359	94060544	63582208	22247352	24992
262	0.951683	94060544	63582208	23493360	24992
263	0.904878	94060544	63582208	24743208	24992
264	0.96076	94060544	63582208	25999552	24992
265	0.933137	94060544	63582208	27258656	24992
266	0.973682	94060544	63582208	28522896	24992
267	0.965183	94060544	63582208	29788424	24992
268	1.276182	94060544	63582208	14684968	24992
269	0.968477	94060544	63582208	15962232	24992
270	0.980834	94060544	63582208	17239672	24992
271	0.972592	94060544	63582208	18520992	24992
272	0.979818	94060544	63582208	19808136	24992
273	0.978979	94060544	63582208	21097312	24992
274	0.98699	94060544	63582208	22394432	24992
275	0.989952	94060544	63582208	23691464	24992
276	0.995764	94060544	63582208	24992504	24992
277	1.031498	94060544	63582208	26306776	24992
278	1.000538	94060544	63582208	27615736	24992
279	1.219148	94060544	63582208	28928560	24992
280	1.019605	94060544	63582208	30247224	24992
281	1.017793	94060544	63582208	15252520	24992
282	1.01398	94060544	63582208	16581288	24992
283	1.005082	94060544	63582208	17909920	24992
284	1.036995	94060544	63582208	19242520	24992
285	1.024259	94060544	63582208	20578968	24992
286	1.035202	94060544	63582208	21919352	24992
287	0.995469	94060544	63582208	23263656	24992
288	1.031377	94060544	63582208	24611984	24992
289	1.033058	94060544	63582208	25964336	24992
290	1.032392	94060544	63582208	27320624	24992
291	1.049462	94060544	63582208	28684224	24992
292	1.046109	94060544	63582208	30050832	24992
293	1.057664	94060544	63582208	15146008	24992
294	1.04927	94060544	63582208	16517936	24992
295	1.005581	94060544	63582208	17904960	24992
296	1.064423	94060544	63582208	19285608	24992
297	1.007004	94060544	63582208	20669304	24992
298	1.036936	94060544	63582208	22057576	24992
299	1.005174	94060544	63582208	23449192	24992
300	1.069059	94060544	63582208	24844808	24992
301	1.068976	94060544	63582208	26244248	24992
302	1.071726	94060544	63582208	27655648	24992
303	1.086097	94060544	63582208	29063032	24992
304	1.064327	94060544	63582208	30475776	24992
305	1.11186	94060544	63582208	15564880	24992
306	1.030271	94060544	63582208	16984144	24992
307	1.093583	94060544	63582208	18416624	24992
308	1.111234	94060544	63582208	19843616	24992
309	1.09712	94060544	63582208	21276800	24992
310	1.063578	94060544	63582208	22711712	24992
311	1.079296	94060544	63582208	24150608	24992
312	1.107037	94060544	63582208	25593440	24992
313	1.113396	94060544	63582208	27040960	24992
314	1.141855	94060544	63582208	28494816	24992
315	1.096378	94060544	63582208	29949496	24992
316	1.139344	94060544	63582208	15054616	24992
317	1.258947	94060544	63582208	16521088	24992
318	1.161666	94060544	63582208	17991680	24992
319	1.109421	94060544	63582208	19463072	24992
320	1.074247	94060544	63582208	20937536	24992
321	1.310574	94060544	63582208	22415840	24992
322	1.135473	94060544	63582208	23898040	24992
323	1.133207	94060544	63582208	25389584	24992
324	1.32178	94060544	63582208	26879672	24992
325	1.135943	94060544	63582208	28373672	24992
326	1.151589	94060544	63582208	29879256	24992
327	1.522481	94060544	63582208	15032824	24992
328	1.158215	94060544	63582208	16538744	24992
329	1.130029	94060544	63582208	18051712	24992
330	1.166941	94060544	63582208	19565456	24992
331	1.164803	94060544	63582208	21087416	24992
332	1.169859	94060544	63582208	22608976	24992
333	1.189831	94060544	63582208	24134528	24992
334	1.173173	94060544	63582208	25664032	24992
335	1.189553	94060544	63582208	27197488	24992
336	1.179559	94060544	63582208	28734936	24992
337	1.18533	94060544	63582208	30292720	24992
338	1.188713	94060544	63582208	15610688	24992
339	1.187805	94060544	63582208	17177144	24992
340	1.185725	94060544	63582208	18751904	24992
341	1.192012	94060544	63582208	20325432	24992
342	1.192909	94060544	63582208	21905048	24992
343	1.16513	94060544	63582208	23486480	24992
344	1.206296	94060544	63582208	25071800	24992
345	1.205849	94060544	63582208	26661128	24992
346	1.214702	94060544	63582208	28254416	24992
347	1.185949	94060544	63582208	29851632	24992
348	1.555871	94060544	63582208	15136336	24992
349	1.215423	94060544	63582208	16742960	24992
350	1.220347	94060544	63582208	18352392	24992
351	1.418694	94060544	63582208	19965312	24992
352	1.22256	94060544	63582208	21582184	24992
353	1.237357	94060544	63582208	23203280	24992
354	1.181163	94060544	63582208	24827984	24992
355	1.238228	94060544	63582208	26462456	24992
356	1.20791	94060544	63582208	28096552	24992
357	1.250079	94060544	63582208	29733144	24992
358	1.615897	94060544	63582208	15062872	24992
359	1.249186	94060544	63582208	16709336	24992
360	1.257907	94060544	63582208	18380272	24992
361	1.262289	94060544	63582208	20054872	24992
362	1.259864	94060544	63582208	21734272	24992
363	1.268115	94060544	63582208	23433096	24992
364	1.462845	94060544	63582208	25119648	24992
365	1.269188	94060544	63582208	26809952	24992
366	1.279021	94060544	63582208	28504216	24992
367	1.283356	94060544	63582208	30202448	24992
368	1.300013	94060544	63582208	15663752	24992
369	1.282872	94060544	63582208	17370520	24992
370	1.29034	94060544	63582208	19080504	24992
371	1.297558	94060544	63582208	20795424	24992
372	1.289404	94060544	63582208	22513328	24992
373	1.294273	94060544	63582208	24235248	24992
374	1.307314	94060544	63582208	25965632	24992
375	1.292985	94060544	63582208	27707152	24992
376	1.300971	94060544	63582208	29440904	24992
377	1.755556	94060544	63582208	14943424	24992
378	1.264996	94060544	63582208	16685032	24992
379	1.311455	94060544	63582208	18430528	24992
380	1.315079	94060544	63582208	20179992	24992
381	1.313813	94060544	63582208	21933568	24992
382	1.33163	94060544	63582208	23694160	24992
383	1.323328	94060544	63582208	25455368	24992
384	1.325943	94060544	63582208	27220488	24992
385	1.339567	94060544	63582208	28989544	24992
386	1.343564	94060544	63582208	30762568	24992
387	1.388109	94060544	63582208	16231472	24992
388	1.378842	94060544	63582208	18015784	24992
389	1.304719	94060544	63582208	19800656	24992
390	1.38378	94060544	63582208	21590024	24992
391	1.355421	94060544	63582208	23382760	24992
392	1.352741	94060544	63582208	25188000	24992
393	1.289027	94060544	63582208	26988664	24992
394	1.372722	94060544	63582208	28807512	24992
395	1.368557	94060544	63582208	30616080	24992
396	1.372345	94060544	63582208	16143488	24992
397	1.372682	94060544	63582208	17959880	24992
398	1.381131	94060544	63582208	19780248	24992
399	1.384295	94060544	63582208	21617632	24992
400	1.380915	94060544	63582208	23445848	24992
401	1.384611	94060544	63582208	25278208	24992
402	1.396193	94060544	63582208	27114408	24992
403	1.396374	94060544	63582208	28963056	24992
404	1.397446	94060544	63582208	30807008	24992
405	1.41826	94060544	63582208	16351064	24992
406	1.397229	94060544	63582208	18202784	24992
407	1.406082	94060544	63582208	20067656	24992
408	1.406679	94060544	63582208	21927352	24992
409	1.405433	94060544	63582208	23826744	24992
410	1.411056	94060544	63582208	25711752	24992
411	1.420046	94060544	63582208	27599760	24992
412	1.432899	94060544	63582208	29507712	24992
413	1.846298	94060544	63582208	15181176	24992
414	1.421675	94060544	63582208	17083512	24992
415	1.428093	94060544	63582208	18987344	24992
416	1.439569	94060544	63582208	20895080	24992
417	1.434974	94060544	63582208	22859640	24992
418	1.435183	94060544	63582208	24850336	24992
419	1.436418	94060544	63582208	26835648	24992
420	1.446335	94060544	63582208	28825008	24992
421	1.457402	94060544	63582208	30818080	24992
422	1.467852	94060544	63582208	16515096	24992
423	1.454649	94060544	63582208	18516296	24992
424	1.45277	94060544	63582208	20521416	24992
425	1.464132	94060544	63582208	22530344	24992
426	1.4713	94060544	63582208	24544736	24992
427	1.654681	94060544	63582208	26562240	24992
428	1.466032	94060544	63582208	28587584	24992
429	1.463787	94060544	63582208	30636392	24992
430	1.482297	94060544	63582208	16423872	24992
431	1.480755	94060544	63582208	18456624	24992
432	1.487055	94060544	63582208	20493120	24992
433	1.489992	94060544	63582208	22533760	24992
434	1.486853	94060544	63582208	24585784	24992
435	1.480621	94060544	63582208	26652248	24992
436	1.489588	94060544	63582208	28718856	24992
437	1.495818	94060544	63582208	30785320	24992
438	1.812177	94060544	63582208	16551040	24992
439	1.512073	94060544	63582208	18615168	24992
440	1.461985	94060544	63582208	20683256	24992
441	1.50385	94060544	63582208	22755232	24992
442	1.5092	94060544	63582208	24831168	24992
443	1.51281	94060544	63582208	26911032	24992
444	1.509373	94060544	63582208	28994912	24992
445	1.71696	94060544	63582208	31082744	24992
446	1.53927	94060544	63582208	16901856	24992
447	1.520471	94060544	63582208	19007776	24992
448	1.526831	94060544	63582208	21107512	24992
449	1.539697	94060544	63582208	23210960	24992
450	1.463208	94060544	63582208	25318392	24992
451	1.542185	94060544	63582208	27429808	24992
452	1.767314	94060544	63582208	29545032	24992
453	2.001047	94060544	63582208	15459224	24992
454	1.549655	94060544	63582208	17582416	24992
455	1.556652	94060544	63582208	19709568	24992
456	1.553672	94060544	63582208	21840680	24992
457	1.55729	94060544	63582208	23975648	24992
458	1.572429	94060544	63582208	26114576	24992
459	1.58195	94060544	63582208	28261296	24992
460	1.587661	94060544	63582208	30424664	24992
461	1.587453	94060544	63582208	16399176	24992
462	1.566241	94060544	63582208	18593688	24992
463	1.583188	94060544	63582208	20752336	24992
464	1.582742	94060544	63582208	22914968	24992
465	1.578975	94060544	63582208	25081408	24992
466	1.882335	94060544	63582208	27259072	24992
467	1.594504	94060544	63582208	29450248	24992
468	2.025099	94060544	63582208	15429672	24992
469	1.637401	94060544	63582208	17617592	24992
470	1.620338	94060544	63582208	19803784	24992
471	1.585012	94060544	63582208	21993928	24992
472	1.596299	94060544	63582208	24202064	24992
473	1.571992	94060544	63582208	26403568	24992
474	1.567911	94060544	63582208	28605520	24992
475	1.586508	94060544	63582208	30811360	24992
476	1.623446	94060544	63582208	16792320	24992
477	1.638486	94060544	63582208	19005944	24992
478	1.629834	94060544	63582208	21230488	24992
479	1.767254	94060544	63582208	23452256	24992
480	1.637119	94060544	63582208	25677768	24992
481	1.631818	94060544	63582208	27907264	24992
482	1.637458	94060544	63582208	30140752	24992
483	1.994944	94060544	63582208	16092880	24992
484	1.651811	94060544	63582208	18334272	24992
485	1.643917	94060544	63582208	20579448	24992
486	1.612408	94060544	63582208	22832040	24992
487	1.651733	94060544	63582208	25085208	24992
488	1.659467	94060544	63582208	27342272	24992
489	1.829441	94060544	63582208	29616104	24992
490	2.104402	94060544	63582208	15693864	24992
491	1.677896	94060544	63582208	17962824	24992
492	1.685426	94060544	63582208	20238200	24992
493	1.68394	94060544	63582208	22515008	24992
494	1.670357	94060544	63582208	24795720	24992
495	1.681213	94060544	63582208	27093600	24992
496	1.673296	94060544	63582208	29382160	24992
497	2.118209	94060544	63582208	15502088	24992
498	1.686925	94060544	63582208	17813544	24992
499	1.684217	94060544	63582208	20114008	24992
500	1.849694	94060544	63582208	22436672	24992
501	1.648662	94060544	63582208	24747504	24992
502	1.655567	94060544	63582208	27060920	24992
503	1.703951	94060544	63582208	29377112	24992
504	2.140658	94060544	63582208	15523800	24992
505	1.734888	94060544	63582208	17866200	24992
506	1.853854	94060544	63582208	20194192	24992
507	1.689668	94060544	63582208	22545648	24992
508	2.056449	94060544	63582208	24881480	24992
509	1.71402	94060544	63582208	27221792	24992
510	1.6383	94060544	63582208	29585736	24992
511	2.131437	94060544	63582208	15755888	24992
512	1.735823	94060544	63582208	18111344	24992
513	1.742113	94060544	63582208	20480184	24992
514	1.926224	94060544	63582208	22839688	24992
515	1.756329	94060544	63582208	25205096	24992
516	1.742315	94060544	63582208	27581368	24992
517	1.74053	94060544	63582208	29952792	24992
518	2.06968	94060544	63582208	16071240	24992
519	1.749559	94060544	63582208	18460000	24992
520	1.742075	94060544	63582208	20854376	24992
521	1.74941	94060544	63582208	23241416	24992
522	1.770043	94060544	63582208	25635984	24992
523	1.748588	94060544	63582208	28030912	24992
524	1.762499	94060544	63582208	30433288	24992
525	2.082713	94060544	63582208	16469456	24992
526	1.770795	94060544	63582208	18892088	24992
527	1.764213	94060544	63582208	21302856	24992
528	1.775149	94060544	63582208	23724104	24992
529	1.772525	94060544	63582208	26143920	24992
530	1.779478	94060544	63582208	28566376	24992
531	1.788448	94060544	63582208	31009008	24992
532	1.99278	94060544	63582208	17236720	24992
533	1.794717	94060544	63582208	19678184	24992
534	1.79115	94060544	63582208	22118616	24992
535	1.793276	94060544	63582208	24561376	24992
536	1.795618	94060544	63582208	27007448	24992
537	1.80802	94060544	63582208	29458608	24992
538	2.254091	94060544	63582208	15758344	24992
539	1.817543	94060544	63582208	18216712	24992
540	1.836945	94060544	63582208	20680480	24992
541	1.818857	94060544	63582208	23146512	24992
542	1.749403	94060544	63582208	25630376	24992
543	1.818777	94060544	63582208	28104088	24992
544	1.82926	94060544	63582208	30588528	24992
545	1.83837	94060544	63582208	16710464	24992
546	1.836052	94060544	63582208	19208888	24992
547	1.749748	94060544	63582208	21719392	24992
548	1.843472	94060544	63582208	24213984	24992
549	1.844371	94060544	63582208	26712928	24992
550	1.842264	94060544	63582208	29214216	24992
551	1.84933	94060544	63582208	31720144	24992
552	1.878619	94060544	63582208	17896360	24992
553	2.034003	94060544	63582208	20409568	24992
554	1.905499	94060544	63582208	22948104	24992
555	1.989076	94060544	63582208	25474224	24992
556	1.89869	94060544	63582208	28026392	24992
557	1.900209	94060544	63582208	30595688	24992
558	1.900031	94060544	63582208	16821696	24992
559	1.893903	94060544	63582208	19413672	24992
560	1.888752	94060544	63582208	21997824	24992
561	1.894289	94060544	63582208	24581832	24992
562	1.906771	94060544	63582208	27165952	24992
563	1.900182	94060544	63582208	29766664	24992
564	2.322894	94060544	63582208	16169592	24992
565	1.905047	94060544	63582208	18768656	24992
566	1.901254	94060544	63582208	21368120	24992
567	1.807809	94060544	63582208	23973576	24992
568	1.90579	94060544	63582208	26579808	24992
569	1.906661	94060544	63582208	29197944	24992
570	1.84531	94060544	63582208	31812240	24992
571	1.925296	94060544	63582208	18099160	24992
572	1.921465	94060544	63582208	20738840	24992
573	2.108327	94060544	63582208	23365688	24992
574	1.929794	94060544	63582208	26001528	24992
575	1.93759	94060544	63582208	28640400	24992
576	2.101668	94060544	63582208	31278160	24992
577	1.956464	94060544	63582208	17697856	24992
578	1.942123	94060544	63582208	20343432	24992
579	1.926926	94060544	63582208	23000912	24992
580	1.844394	94060544	63582208	25654408	24992
581	1.937889	94060544	63582208	28311928	24992
582	1.899174	94060544	63582208	30998504	24992
583	1.964581	94060544	63582208	17519592	24992
584	1.952597	94060544	63582208	20192136	24992
585	1.955422	94060544	63582208	22884760	24992
586	1.9712	94060544	63582208	25565480	24992
587	2.153471	94060544	63582208	28246728	24992
588	1.97642	94060544	63582208	30933632	24992
589	1.935992	94060544	63582208	17485832	24992
590	1.876731	94060544	63582208	20178784	24992
591	1.975921	94060544	63582208	22875608	24992
592	1.885166	94060544	63582208	25576488	24992
593	1.977019	94060544	63582208	28281224	24992
594	1.986106	94060544	63582208	30989840	24992
595	2.210503	94060544	63582208	17564992	24992
596	1.998866	94060544	63582208	20284584	24992
597	2.000596	94060544	63582208	23008672	24992
598	2.010273	94060544	63582208	25734712	24992
599	2.007029	94060544	63582208	28462976	24992
600	2.001716	94060544	63582208	31195424	24992
601	2.046343	94060544	63582208	17795992	24992
602	2.060571	94060544	63582208	20536312	24992
603	2.196467	94060544	63582208	23293272	24992
604	2.026988	94060544	63582208	26041224	24992
605	2.030225	94060544	63582208	28794120	24992
606	2.038188	94060544	63582208	31558048	24992
607	2.033685	94060544	63582208	18073464	24992
608	2.028371	94060544	63582208	20842576	24992
609	1.996987	94060544	63582208	23610432	24992
610	2.028705	94060544	63582208	26382128	24992
611	2.217134	94060544	63582208	29164776	24992
612	2.056684	94060544	63582208	31959832	24992
613	2.062109	94060544	63582208	18458952	24992
614	2.060467	94060544	63582208	21246440	24992
615	2.050827	94060544	63582208	24040000	24992
616	2.055187	94060544	63582208	26835520	24992
617	2.050345	94060544	63582208	29650656	24992
618	2.483141	94060544	63582208	16329888	24992
619	2.247073	94060544	63582208	19146240	24992
620	1.975482	94060544	63582208	21957760	24992
621	2.026237	94060544	63582208	24775624	24992
622	2.080956	94060544	63582208	27618856	24992
623	2.082423	94060544	63582208	30447016	24992
624	2.506661	94060544	63582208	17037104	24992
625	2.09158	94060544	63582208	19868344	24992
626	2.098025	94060544	63582208	22703176	24992
627	2.22596	94060544	63582208	25546072	24992
628	1.990856	94060544	63582208	28388728	24992
629	2.041245	94060544	63582208	31235760	24992
630	2.10772	94060544	63582208	17965960	24992
631	2.116459	94060544	63582208	20822656	24992
632	2.291692	94060544	63582208	23684736	24992
633	2.119993	94060544	63582208	26547104	24992
634	2.116955	94060544	63582208	29416992	24992
635	2.570209	94060544	63582208	16179512	24992
636	2.118624	94060544	63582208	19069224	24992
637	2.133099	94060544	63582208	21947312	24992
638	2.127666	94060544	63582208	24830256	24992
639	2.132698	94060544	63582208	27730976	24992
640	2.034938	94060544	63582208	30626672	24992
641	2.444603	94060544	63582208	17234872	24992
642	2.327579	94060544	63582208	20134792	24992
643	2.094789	94060544	63582208	23036440	24992
644	2.14785	94060544	63582208	25949696	24992
645	2.048359	94060544	63582208	28859136	24992
646	2.285854	94060544	63582208	31772600	24992
647	2.165569	94060544	63582208	18462272	24992
648	2.118842	94060544	63582208	21383712	24992
649	2.170088	94060544	63582208	24339856	24992
650	2.3439	94060544	63582208	27279216	24992
651	2.165131	94060544	63582208	30212536	24992
652	2.549257	94060544	63582208	16920976	24992
653	2.186568	94060544	63582208	19869864	24992
654	2.185465	94060544	63582208	22843072	24992
655	2.160926	94060544	63582208	25793680	24992
656	2.177983	94060544	63582208	28746592	24992
657	2.182107	94060544	63582208	31710552	24992
658	2.202099	94060544	63582208	18468432	24992
659	2.192573	94060544	63582208	21456024	24992
660	2.186329	94060544	63582208	24429040	24992
661	2.185616	94060544	63582208	27401600	24992
662	2.404275	94060544	63582208	30378048	24992
663	2.580344	94060544	63582208	17135776	24992
664	2.207122	94060544	63582208	20144928	24992
665	2.166678	94060544	63582208	23133248	24992
666	2.255785	94060544	63582208	26138208	24992
667	2.237018	94060544	63582208	29138984	24992
668	2.38699	94060544	63582208	32139232	24992
669	2.228056	94060544	63582208	18918112	24992
670	2.124956	94060544	63582208	21943056	24992
671	2.193026	94060544	63582208	24955056	24992
672	2.378482	94060544	63582208	27973080	24992
673	2.226791	94060544	63582208	30998336	24992
674	2.269487	94060544	63582208	17949208	24992
675	2.251277	94060544	63582208	20978544	24992
676	2.256059	94060544	63582208	24033720	24992
677	2.203922	94060544	63582208	27069424	24992
678	2.196566	94060544	63582208	30108960	24992
679	2.763838	94060544	63582208	16960840	24992
680	2.212121	94060544	63582208	20013320	24992
681	2.258316	94060544	63582208	23070192	24992
682	2.1603	94060544	63582208	26146696	24992
683	2.275233	94060544	63582208	29216280	24992
684	2.320803	94060544	63582208	32297296	24992
685	2.276652	94060544	63582208	19084616	24992
686	2.691187	94060544	63582208	22184312	24992
687	2.464808	94060544	63582208	25281992	24992
688	2.26368	94060544	63582208	28379672	24992
689	2.278434	94060544	63582208	31485688	24992
690	2.314868	94060544	63582208	18499312	24992
691	2.321149	94060544	63582208	21624432	24992
692	2.23917	94060544	63582208	24738552	24992
693	2.294451	94060544	63582208	27880320	24992
694	2.21129	94060544	63582208	31003656	24992
695	2.321784	94060544	63582208	17782552	24992
696	2.304184	94060544	63582208	20911536	24992
697	2.228591	94060544	63582208	24042504	24992
698	2.208972	94060544	63582208	27177272	24992
699	2.280208	94060544	63582208	30336272	24992
700	2.572958	94060544	63582208	17270776	24992
701	2.212691	94060544	63582208	20434168	24992
702	2.340527	94060544	63582208	23589768	24992
703	2.452844	94060544	63582208	26756816	24992
704	2.224112	94060544	63582208	29915352	24992
705	2.671996	94060544	63582208	16989928	24992
706	2.349091	94060544	63582208	20156288	24992
707	2.335863	94060544	63582208	23338088	24992
708	2.246175	94060544	63582208	26512384	24992
709	2.345049	94060544	63582208	29697104	24992
710	2.784513	94060544	63582208	16808440	24992
711	2.348085	94060544	63582208	19997144	24992
712	2.353122	94060544	63582208	23211320	24992
713	2.36788	94060544	63582208	26432160	24992
714	2.363153	94060544	63582208	29629888	24992
715	2.864218	94060544	63582208	16757080	24992
716	2.376897	94060544	63582208	19962664	24992
717	2.36344	94060544	63582208	23174144	24992
718	2.380563	94060544	63582208	26389464	24992
719	2.329361	94060544	63582208	29617040	24992
720	2.79157	94060544	63582208	16766584	24992
721	2.301506	94060544	63582208	19992008	24992
722	2.402634	94060544	63582208	23222528	24992
723	2.388063	94060544	63582208	26455904	24992
724	2.356661	94060544	63582208	29693088	24992
725	2.881158	94060544	63582208	16864824	24992
726	2.407879	94060544	63582208	20111200	24992
727	2.398908	94060544	63582208	23360736	24992
728	2.374966	94060544	63582208	26616344	24992
729	2.412353	94060544	63582208	29873264	24992
730	2.933321	94060544	63582208	17068680	24992
731	2.434094	94060544	63582208	20344040	24992
732	2.325707	94060544	63582208	23620528	24992
733	2.299488	94060544	63582208	26893424	24992
734	2.435164	94060544	63582208	30177256	24992
735	2.870418	94060544	63582208	17262656	24992
736	2.438086	94060544	63582208	20551944	24992
737	2.453179	94060544	63582208	23841848	24992
738	2.435786	94060544	63582208	27167496	24992
739	2.443729	94060544	63582208	30463856	24992
740	2.826644	94060544	63582208	17564872	24992
741	2.445428	94060544	63582208	20871664	24992
742	2.461084	94060544	63582208	24192264	24992
743	2.464645	94060544	63582208	27504416	24992
744	2.619926	94060544	63582208	30837272	24992
745	2.810322	94060544	63582208	17897608	24992
746	2.476812	94060544	63582208	21221512	24992
747	2.463866	94060544	63582208	24549416	24992
748	2.477724	94060544	63582208	27881136	24992
749	2.470385	94060544	63582208	31216960	24992
750	2.51392	94060544	63582208	18497712	24992
751	2.489477	94060544	63582208	21848040	24992
752	2.484405	94060544	63582208	25223760	24992
753	2.500524	94060544	63582208	28577704	24992
754	2.492839	94060544	63582208	31939240	24992
755	2.5042	94060544	63582208	19120576	24992
756	2.501695	94060544	63582208	22487160	24992
757	2.511371	94060544	63582208	25855032	24992
758	2.5003	94060544	63582208	29226088	24992
759	2.524418	94060544	63582208	32601208	24992
760	2.509546	94060544	63582208	19743392	24992
761	2.612656	94060544	63582208	23133952	24992
762	2.595452	94060544	63582208	26520968	24992
763	2.452888	94060544	63582208	29917432	24992
764	2.968573	94060544	63582208	17264488	24992
765	2.404521	94060544	63582208	20663672	24992
766	2.503792	94060544	63582208	24083240	24992
767	2.67499	94060544	63582208	27489896	24992
768	2.527608	94060544	63582208	30908928	24992
769	2.835013	94060544	63582208	18068264	24992
770	2.554887	94060544	63582208	21493728	24992
771	2.554943	94060544	63582208	24916928	24992
772	2.655549	94060544	63582208	28359512	24992
773	2.543785	94060544	63582208	31804232	24992
774	2.741142	94060544	63582208	19204224	24992
775	2.700986	94060544	63582208	22642592	24992
776	2.717793	94060544	63582208	26093720	24992
777	2.499239	94060544	63582208	29566904	24992
778	3.17758	94060544	63582208	16992408	24992
779	2.546731	94060544	63582208	20446216	24992
780	2.666724	94060544	63582208	23923136	24992
781	2.565264	94060544	63582208	27397120	24992
782	2.589022	94060544	63582208	30895448	24992
783	2.971441	94060544	63582208	18160976	24992
784	2.578875	94060544	63582208	21640616	24992
785	2.53262	94060544	63582208	25118104	24992
786	2.590193	94060544	63582208	28617680	24992
787	2.608447	94060544	63582208	32127584	24992
788	2.599256	94060544	63582208	19467440	24992
789	2.494968	94060544	63582208	22987352	24992
790	2.608744	94060544	63582208	26491352	24992
791	2.608138	94060544	63582208	29992872	24992
792	3.153713	94060544	63582208	17504112	24992
793	2.491432	94060544	63582208	21014288	24992
794	2.642732	94060544	63582208	24531112	24992
795	2.621871	94060544	63582208	28078072	24992
796	2.605088	94060544	63582208	31598856	24992
797	2.612165	94060544	63582208	19114104	24992
798	2.625805	94060544	63582208	22642864	24992
799	2.652801	94060544	63582208	26188152	24992
800	2.638803	94060544	63582208	29727512	24992
801	3.205432	94060544	63582208	17299224	24992
802	2.650661	94060544	63582208	20843680	24992
803	2.752603	94060544	63582208	24404704	24992
804	2.652843	94060544	63582208	27992928	24992
805	2.824833	94060544	63582208	31549144	24992
806	2.663767	94060544	63582208	19099496	24992
807	2.665971	94060544	63582208	22680024	24992
808	2.669022	94060544	63582208	26278544	24992
809	2.84519	94060544	63582208	29850568	24992
810	3.246788	94060544	63582208	17421016	24992
811	2.767632	94060544	63582208	21028064	24992
812	2.692854	94060544	63582208	24640304	24992
813	2.692841	94060544	63582208	28252576	24992
814	2.624066	94060544	63582208	31864816	24992
815	2.868763	94060544	63582208	19459000	24992
816	2.693886	94060544	63582208	23064008	24992
817	2.866645	94060544	63582208	26677176	24992
818	2.72547	94060544	63582208	30290408	24992
819	3.183313	94060544	63582208	17804568	24992
820	2.724673	94060544	63582208	21437984	24992
821	2.807825	94060544	63582208	25067808	24992
822	2.711979	94060544	63582208	28693528	24992
823	2.814474	94060544	63582208	32322336	24992
824	2.732566	94060544	63582208	19830712	24992
825	2.726104	94060544	63582208	23465888	24992
826	2.728327	94060544	63582208	27104992	24992
827	2.837612	94060544	63582208	30785696	24992
828	3.210707	94060544	63582208	18283024	24992
829	2.768236	94060544	63582208	21950392	24992
830	2.745901	94060544	63582208	25644696	24992
831	2.606903	94060544	63582208	29324384	24992
832	2.716363	94060544	63582208	33051080	24992
833	2.731133	94060544	63582208	20547808	24992
834	2.74334	94060544	63582208	24250952	24992
835	2.742305	94060544	63582208	27949800	24992
836	2.748806	94060544	63582208	31644536	24992
837	2.724803	94060544	63582208	19363472	24992
838	2.981662	94060544	63582208	23099152	24992
839	2.709263	94060544	63582208	26912704	24992
840	2.761575	94060544	63582208	30688824	24992
841	3.260148	94060544	63582208	18322312	24992
842	2.768611	94060544	63582208	22107416	24992
843	2.634411	94060544	63582208	25912344	24992
844	2.769255	94060544	63582208	29704320	24992
845	3.410768	94060544	63582208	17530096	24992
846	2.781806	94060544	63582208	21351872	24992
847	2.645053	94060544	63582208	25155680	24992
848	2.714986	94060544	63582208	28968792	24992
849	2.731357	94060544	63582208	32780520	24992
850	2.991962	94060544	63582208	20508240	24992
851	2.733624	94060544	63582208	24391616	24992
852	2.809258	94060544	63582208	28266816	24992
853	2.794242	94060544	63582208	32170688	24992
854	2.983477	94060544	63582208	20100576	24992
855	2.67036	94060544	63582208	23998416	24992
856	3.03997	94060544	63582208	27889288	24992
857	2.827209	94060544	63582208	31794704	24992
858	2.850748	94060544	63582208	19748832	24992
859	2.978032	94060544	63582208	23651648	24992
860	2.987042	94060544	63582208	27600080	24992
861	2.816713	94060544	63582208	31510672	24992
862	2.855853	94060544	63582208	19157488	24992
863	2.834574	94060544	63582208	23091024	24992
864	2.84159	94060544	63582208	27043192	24992
865	2.842211	94060544	63582208	30969520	24992
866	3.488159	94060544	63582208	18770416	24992
867	3.164231	94060544	63582208	22708568	24992
868	2.827907	94060544	63582208	26671920	24992
869	3.101039	94060544	63582208	30614008	24992
870	3.549139	94060544	63582208	18425608	24992
871	2.862901	94060544	63582208	22375520	24992
872	2.866592	94060544	63582208	26329504	24992
873	2.863601	94060544	63582208	30310064	24992
874	3.526494	94060544	63582208	18237184	24992
875	2.871871	94060544	63582208	22210968	24992
876	2.860374	94060544	63582208	26196456	24992
877	2.886758	94060544	63582208	30169952	24992
878	3.684275	94060544	63582208	18196688	24992
879	2.888426	94060544	63582208	22185216	24992
880	3.06194	94060544	63582208	26210480	24992
881	2.880856	94060544	63582208	30199832	24992
882	3.561029	94060544	63582208	18244128	24992
883	2.905774	94060544	63582208	22253704	24992
884	3.045027	94060544	63582208	26282616	24992
885	2.835041	94060544	63582208	30317528	24992
886	3.592285	94060544	63582208	18321920	24992
887	2.918359	94060544	63582208	22334928	24992
888	2.923073	94060544	63582208	26383656	24992
889	2.912768	94060544	63582208	30445424	24992
890	3.553637	94060544	63582208	18396344	24992
891	3.10551	94060544	63582208	22425136	24992
892	2.862944	94060544	63582208	26460472	24992
893	2.946114	94060544	63582208	30509864	24992
894	3.586349	94060544	63582208	18490024	24992
895	2.883469	94060544	63582208	22534672	24992
896	2.921195	94060544	63582208	26583088	24992
897	2.888065	94060544	63582208	30642768	24992
898	3.524377	94060544	63582208	18585064	24992
899	2.960423	94060544	63582208	22645472	24992
900	3.12824	94060544	63582208	26709720	24992
901	2.844159	94060544	63582208	30782712	24992
902	3.618054	94060544	63582208	18729184	24992
903	2.891547	94060544	63582208	22858928	24992
904	2.98032	94060544	63582208	26986784	24992
905	2.915264	94060544	63582208	31115752	24992
906	3.512627	94060544	63582208	19116864	24992
907	2.982045	94060544	63582208	23208680	24992
908	2.833974	94060544	63582208	27304448	24992
909	2.965254	94060544	63582208	31404056	24992
910	3.53884	94060544	63582208	19326608	24992
911	3.162037	94060544	63582208	23442096	24992
912	2.984169	94060544	63582208	27570848	24992
913	3.178568	94060544	63582208	31707976	24992
914	3.013522	94060544	63582208	19621616	24992
915	2.994421	94060544	63582208	23744928	24992
916	2.917638	94060544	63582208	27872072	24992
917	3.004817	94060544	63582208	32003176	24992
918	3.112312	94060544	63582208	20203208	24992
919	2.868807	94060544	63582208	24342280	24992
920	2.878575	94060544	63582208	28485312	24992
921	2.94222	94060544	63582208	32655296	24992
922	3.148799	94060544	63582208	20818776	24992
923	2.956104	94060544	63582208	24995344	24992
924	3.040164	94060544	63582208	29183472	24992
925	3.039892	94060544	63582208	33359360	24992
926	3.052077	94060544	63582208	21413760	24992
927	3.125965	94060544	63582208	25623184	24992
928	3.01117	94060544	63582208	29821760	24992
929	4.046496	94060544	63582208	18074560	24992
930	3.04919	94060544	63582208	22257088	24992
931	3.048754	94060544	63582208	26443488	24992
932	3.215763	94060544	63582208	30633776	24992
933	3.698682	94060544	63582208	18781664	24992
934	3.30354	94060544	63582208	22984072	24992
935	3.056101	94060544	63582208	27190344	24992
936	2.930172	94060544	63582208	31437064	24992
937	3.724631	94060544	63582208	19531688	24992
938	3.120273	94060544	63582208	23747040	24992
939	3.05419	94060544	63582208	27964872	24992
940	3.075192	94060544	63582208	32186656	24992
941	3.110801	94060544	63582208	20518160	24992
942	3.083528	94060544	63582208	24795728	24992
943	3.263169	94060544	63582208	29029320	24992
944	3.093188	94060544	63582208	33266968	24992
945	3.238298	94060544	63582208	21391552	24992
946	3.081363	94060544	63582208	25687704	24992
947	3.094939	94060544	63582208	29987032	24992
948	4.099427	94060544	63582208	18324024	24992
949	3.113305	94060544	63582208	22621800	24992
950	2.951056	94060544	63582208	26924312	24992
951	2.97939	94060544	63582208	31189496	24992
952	3.767105	94060544	63582208	19347736	24992
953	3.340113	94060544	63582208	23620864	24992
954	2.98659	94060544	63582208	27897824	24992
955	3.382784	94060544	63582208	32185376	24992
956	3.150408	94060544	63582208	20554400	24992
957	3.138322	94060544	63582208	24855440	24992
958	3.113023	94060544	63582208	29148064	24992
959	3.115406	94060544	63582208	33448944	24992
960	3.265812	94060544	63582208	21675192	24992
961	3.149267	94060544	63582208	26006048	24992
962	3.066354	94060544	63582208	30314440	24992
963	4.10532	94060544	63582208	18726048	24992
964	3.142955	94060544	63582208	23042384	24992
965	3.252286	94060544	63582208	27380576	24992
966	3.178024	94060544	63582208	31716408	24992
967	3.842967	94060544	63582208	19843680	24992
968	3.159374	94060544	63582208	24175720	24992
969	3.12838	94060544	63582208	28512864	24992
970	3.375398	94060544	63582208	32852928	24992
971	3.198596	94060544	63582208	21280744	24992
972	3.137345	94060544	63582208	25639816	24992
973	3.186379	94060544	63582208	30035560	24992
974	3.947368	94060544	63582208	18499984	24992
975	3.30669	94060544	63582208	22867168	24992
976	3.188684	94060544	63582208	27235512	24992
977	3.370015	94060544	63582208	31626064	24992
978	3.887	94060544	63582208	19899000	24992
979	3.203411	94060544	63582208	24274440	24992
980	3.310385	94060544	63582208	28659016	24992
981	3.197472	94060544	63582208	33042304	24992
982	3.107352	94060544	63582208	21403608	24992
983	3.208091	94060544	63582208	25794728	24992
984	3.226561	94060544	63582208	30191408	24992
985	4.213124	94060544	63582208	18689656	24992
986	3.229087	94060544	63582208	23117328	24992
987	3.376027	94060544	63582208	27549696	24992
988	3.149238	94060544	63582208	31972352	24992
989	3.897445	94060544	63582208	20119192	24992
990	3.410594	94060544	63582208	24542848	24992
991	3.243511	94060544	63582208	28965592	24992
992	3.373205	94060544	63582208	33398912	24992
993	3.248029	94060544	63582208	21731648	24992
994	3.10413	94060544	63582208	26166056	24992
995	3.441559	94060544	63582208	30604448	24992
996	4.159089	94060544	63582208	19191240	24992
997	3.11505	94060544	63582208	23637696	24992
998	3.254779	94060544	63582208	28087960	24992
999	3.251688	94060544	63582208	32569312	24992
1000	3.402626	94060544	63582208	21136440	24992
