x	Duration	RSS	HeapTotal	HeapUsed	External
0	NA	93417472	63057920	12745584	24992
1	0.263389	93417472	63057920	12797496	24992
2	0.214476	93417472	63057920	12874272	24992
3	0.133554	93417472	63057920	12988864	24992
4	0.125335	93417472	63057920	13087784	24992
5	0.126528	93417472	63057920	13191240	24992
6	0.128224	93417472	63057920	13298640	24992
7	0.13113	93417472	63057920	13409984	24992
8	0.134706	93417472	63057920	13525272	24992
9	0.139339	93417472	63057920	13644552	24992
10	0.141686	93417472	63057920	13769968	24992
11	0.179937	93417472	63057920	13904088	24992
12	0.149977	93417472	63057920	14038560	24992
13	0.169104	93417472	63057920	14176968	24992
14	0.154768	93417472	63057920	14319312	24992
15	0.157566	93417472	63057920	14466640	24992
16	0.154569	93417472	63057920	14619776	24992
17	0.154061	93417472	63057920	14774704	24992
18	0.159377	93417472	63057920	14933552	24992
19	0.162368	93417472	63057920	15097784	24992
20	0.165045	93417472	63057920	15266360	24992
21	0.16672	93417472	63057920	15438808	24992
22	0.175937	93417472	63057920	15615200	24992
23	0.206039	93417472	63057920	15795528	24992
24	0.195195	93417472	63057920	15981976	24992
25	0.181849	93417472	63057920	16174544	24992
26	0.1846	93417472	63057920	16371112	24992
27	0.18572	93417472	63057920	16571568	24992
28	0.191433	93417472	63057920	16775984	24992
29	0.19145	93417472	63057920	16984296	24992
30	0.216762	93417472	63057920	17196552	24992
31	0.219205	93417472	63057920	17412752	24992
32	0.219509	93417472	63057920	17635000	24992
33	0.255111	93417472	63057920	17861224	24992
34	0.20999	93417472	63057920	18091360	24992
35	0.213493	93417472	63057920	18325480	24992
36	0.213285	93417472	63057920	18563488	24992
37	0.238097	93417472	63057920	18805424	24992
38	0.242077	93417472	63057920	19051320	24992
39	0.251804	93417472	63057920	19301136	24992
40	0.271598	93417472	63057920	19554896	24992
41	0.235437	93417472	63057920	19812600	24992
42	0.234009	93417472	63057920	20076376	24992
43	0.237945	93417472	63057920	20344080	24992
44	0.23984	93417472	63057920	20615728	24992
45	0.243541	93417472	63057920	20893976	24992
46	0.244086	93417472	63057920	21176904	24992
47	0.251102	93417472	63057920	21463744	24992
48	0.254096	93417472	63057920	21754488	24992
49	0.280823	93417472	63057920	22049176	24992
50	0.278132	93417472	63057920	22352032	24992
51	0.293138	93417472	63057920	22663064	24992
52	0.26629	93417472	63057920	22978016	24992
53	0.26715	93417472	63057920	23297000	24992
54	0.271442	93417472	63057920	23619864	24992
55	0.275658	93417472	63057920	23946632	24992
56	0.276001	93417472	63057920	24277376	24992
57	0.283098	93417472	63057920	24612072	24992
58	0.307728	93417472	63057920	24950664	24992
59	0.310899	93417472	63057920	25293224	24992
60	0.334721	93417472	63057920	25639728	24992
61	0.298658	93417472	63057920	25990120	24992
62	0.299288	93417472	63057920	26344456	24992
63	0.317299	93417472	63057920	26702848	24992
64	0.308543	93417472	63057920	27065064	24992
65	0.303617	93417472	63057920	27432816	24992
66	0.523418	93417472	63057920	27803904	24992
67	0.307601	93417472	63057920	28177992	24992
68	0.310473	93417472	63057920	28555968	24992
69	0.339667	93417472	63057920	28937880	24992
70	1.145463	93417472	63057920	13220040	24992
71	0.349024	93417472	63057920	13609832	24992
72	0.347552	93417472	63057920	14003608	24992
73	0.349355	93417472	63057920	14401280	24992
74	0.353838	93417472	63057920	14802968	24992
75	0.353153	93417472	63057920	15208608	24992
76	0.360528	93417472	63057920	15622296	24992
77	0.362896	93417472	63057920	16039960	24992
78	0.364037	93417472	63057920	16461480	24992
79	0.369064	93417472	63057920	16887024	24992
80	0.37252	93417472	63057920	17316632	24992
81	0.386428	93417472	63057920	17751120	24992
82	0.356591	93417472	63057920	18188424	24992
83	0.383684	93417472	63057920	18629592	24992
84	0.385004	93417472	63057920	19079216	24992
85	0.415129	93417472	63057920	19533920	24992
86	0.366404	93417472	63057920	19992552	24992
87	0.369179	93417472	63057920	20455168	24992
88	0.398141	93417472	63057920	20922104	24992
89	0.403917	93417472	63057920	21392808	24992
90	0.406073	93417472	63057920	21867240	24992
91	0.381897	93417472	63057920	22345688	24992
92	0.384798	93417472	63057920	22827984	24992
93	0.388957	93417472	63057920	23314200	24992
94	0.389081	93417472	63057920	23808576	24992
95	0.394589	93417472	63057920	24306928	24992
96	0.392871	93417472	63057920	24809112	24992
97	0.398212	93417472	63057920	25315240	24992
98	0.402153	93417472	63057920	25826672	24992
99	0.405066	93417472	63057920	26340712	24992
100	0.407166	93417472	63057920	26858680	24992
101	0.416835	93417472	63057920	27380568	24992
102	0.409802	93417472	63057920	27914728	24992
103	0.425974	93417472	63057920	28461288	24992
104	0.418365	93417472	63057920	29011672	24992
105	1.068621	93417472	63057920	13393984	24992
106	0.460503	93417472	63057920	13952424	24992
107	0.473568	93417472	63057920	14514624	24992
108	0.431077	93417472	63057920	15080776	24992
109	0.434925	93417472	63057920	15652224	24992
110	0.435903	93417472	63057920	16226224	24992
111	0.441916	93417472	63057920	16804232	24992
112	0.443195	93417472	63057920	17386576	24992
113	0.443585	93417472	63057920	17972472	24992
114	0.448781	93417472	63057920	18562232	24992
115	0.465123	93417472	63057920	19157800	24992
116	0.454268	93417472	63057920	19755456	24992
117	0.457374	93417472	63057920	20357048	24992
118	0.495843	93417472	63057920	20962592	24992
119	0.49825	93417472	63057920	21572016	24992
120	0.49873	93417472	63057920	22185432	24992
121	0.499522	93417472	63057920	22802744	24992
122	0.505032	93417472	63057920	23424016	24992
123	0.509587	93417472	63057920	24049328	24992
124	0.511908	93417472	63057920	24678480	24992
125	0.515748	93417472	63057920	25311528	24992
126	0.502496	93417472	63057920	25948568	24992
127	0.550705	93417472	63057920	26589616	24992
128	0.495899	93417472	63057920	27234888	24992
129	0.495912	93417472	63057920	27883720	24992
130	0.522489	93417472	63057920	28536520	24992
131	0.500039	93417472	63057920	29193280	24992
132	0.971579	93417472	63057920	13572056	24992
133	0.511218	93417472	63057920	14236632	24992
134	0.512044	93417472	63057920	14905160	24992
135	0.513511	93417472	63057920	15577688	24992
136	0.514985	93417472	63057920	16254080	24992
137	0.557111	93417472	63057920	16934440	24992
138	0.558988	93417472	63057920	17618776	24992
139	0.562987	93417472	63057920	18312800	24992
140	0.554597	93417472	63057920	19004984	24992
141	0.530085	93417472	63057920	19701096	24992
142	0.53177	93417472	63057920	20408456	24992
143	0.585313	93417472	63057920	21121648	24992
144	0.577168	93417472	63057920	21838784	24992
145	0.551692	93417472	63057920	22559784	24992
146	0.554466	93417472	63057920	23288040	24992
147	0.549904	93417472	63057920	24021464	24992
148	0.553894	93417472	63057920	24754472	24992
149	0.558193	93417472	63057920	25491232	24992
150	0.559583	93417472	63057920	26231920	24992
151	0.563011	93417472	63057920	26976688	24992
152	0.569308	93417472	63057920	27725288	24992
153	0.568703	93417472	63057920	28477808	24992
154	0.567697	93417472	63057920	29234304	24992
155	1.002901	93417472	63057920	13697144	24992
156	0.584619	93417472	63057920	14461584	24992
157	0.587367	93417472	63057920	15229920	24992
158	0.585914	93417472	63057920	16002152	24992
159	0.620368	93417472	63057920	16778376	24992
160	0.589406	93417472	63057920	17559056	24992
161	0.591852	93417472	63057920	18343152	24992
162	0.615812	93417472	63057920	19131216	24992
163	0.598635	93417472	63057920	19931944	24992
164	0.603919	93417472	63057920	20740280	24992
165	0.600382	93417472	63057920	21548328	24992
166	0.607545	93417472	63057920	22360400	24992
167	0.607089	93417472	63057920	23176352	24992
168	0.617907	93417472	63057920	23996296	24992
169	0.614587	93417472	63057920	24820160	24992
170	0.617612	93417472	63057920	25647912	24992
171	0.62216	93417472	63057920	26479688	24992
172	0.621782	93417472	63057920	27315312	24992
173	1.007271	93417472	63057920	28154896	24992
174	0.64041	93417472	63057920	28999848	24992
175	0.635055	93417472	63057920	29850000	24992
176	0.646813	93417472	63057920	14376376	24992
177	0.640325	93417472	63057920	15231808	24992
178	0.643605	93417472	63057920	16091080	24992
179	0.645815	93417472	63057920	16955728	24992
180	0.644405	93417472	63057920	17822912	24992
181	0.645819	93417472	63057920	18693968	24992
182	0.652508	93417472	63057920	19568992	24992
183	0.654895	93417472	63057920	20447984	24992
184	0.857752	93417472	63057920	21330968	24992
185	0.663999	93417472	63057920	22217792	24992
186	0.669151	93417472	63057920	23108664	24992
187	0.718927	93417472	63057920	24003376	24992
188	0.676853	93417472	63057920	24902144	24992
189	0.675293	93417472	63057920	25811096	24992
190	0.681635	93417472	63057920	26717632	24992
191	0.682442	93417472	63057920	27628168	24992
192	0.94031	93417472	63057920	28542712	24992
193	0.866586	93417472	63057920	29462016	24992
194	1.155031	93417472	63057920	14055136	24992
195	0.744459	93417472	63057920	14981424	24992
196	0.740017	93417472	63057920	15911680	24992
197	0.747173	93417472	63057920	16845920	24992
198	0.748008	93417472	63057920	17784048	24992
199	0.763359	93417472	63057920	18735816	24992
200	0.75062	93417472	63057920	19690008	24992
201	0.716179	93417472	63057920	20648184	24992
202	0.717054	93417472	63057920	21610408	24992
203	0.715165	93417472	63057920	22576432	24992
204	0.774858	93417472	63057920	23546408	24992
205	0.771787	93417472	63057920	24520328	24992
206	0.763132	93417472	63057920	25499816	24992
207	0.736607	93417472	63057920	26498088	24992
208	0.782508	93417472	63057920	27517888	24992
209	0.781836	93417472	63057920	28542960	24992
210	0.787308	93417472	63057920	29574128	24992
211	1.195781	93417472	63057920	14250120	24992
212	0.795985	93417472	63057920	15284688	24992
213	0.986901	93417472	63057920	16323184	24992
214	0.80556	93417472	63057920	17365568	24992
215	0.805096	93417472	63057920	18411912	24992
216	0.805743	93417472	63057920	19462216	24992
217	0.811028	93417472	63057920	20516408	24992
218	0.815857	93417472	63057920	21574624	24992
219	0.814575	93417472	63057920	22636824	24992
220	0.820838	93417472	63057920	23702880	24992
221	0.825172	93417472	63057920	24775304	24992
222	0.866072	93417472	63057920	25849152	24992
223	0.831207	93417472	63057920	26926944	24992
224	0.843122	93417472	63057920	28008728	24992
225	0.834534	93417472	63057920	29094440	24992
226	0.836321	93417472	63057920	30184128	24992
227	0.846199	93417472	63057920	14912136	24992
228	0.847828	93417472	63057920	16009632	24992
229	0.851067	93417472	63057920	17123144	24992
230	0.853705	93417472	63057920	18243016	24992
231	0.851916	93417472	63057920	19366744	24992
232	0.812641	93417472	63057920	20494560	24992
233	0.815473	93417472	63057920	21626128	24992
234	0.85126	93417472	63057920	22761760	24992
235	0.868417	93417472	63057920	23901264	24992
236	0.870591	93417472	63057920	25044768	24992
237	0.879597	93417472	63057920	26192096	24992
238	0.877625	93417472	63057920	27343512	24992
239	0.891039	93417472	63057920	28498912	24992
240	0.882726	93417472	63057920	29658080	24992
241	1.268615	93417472	63057920	14460232	24992
242	0.894684	93417472	63057920	15627304	24992
243	0.904401	93417472	63057920	16799296	24992
244	0.892866	93417472	63057920	17975448	24992
245	1.088691	93417472	63057920	19154392	24992
246	0.902395	93417472	63057920	20337248	24992
247	0.914497	93417472	63057920	21523968	24992
248	0.907265	93417472	63057920	22722648	24992
249	0.923214	93417472	63057920	23919984	24992
250	0.914594	93417472	63057920	25118608	24992
251	1.116018	93417472	63057920	26322864	24992
252	0.924305	93417472	63057920	27530096	24992
253	0.898605	93417472	63057920	28740448	24992
254	0.927405	93417472	63057920	29956984	24992
255	0.940918	93417472	63057920	14892080	24992
256	0.909556	93417472	63057920	16114392	24992
257	0.941798	93417472	63057920	17341976	24992
258	0.941284	93417472	63057920	18572096	24992
259	0.944197	93417472	63057920	19806144	24992
260	0.949134	93417472	63057920	21044392	24992
261	0.938534	93417472	63057920	22291600	24992
262	0.959336	93417472	63057920	23537408	24992
263	0.929028	93417472	63057920	24796080	24992
264	0.979133	93417472	63057920	26049824	24992
265	0.965103	93417472	63057920	27308256	24992
266	0.976734	93417472	63057920	28573856	24992
267	0.972263	93417472	63057920	29842536	24992
268	0.98884	93417472	63057920	14788128	24992
269	0.964154	93417472	63057920	16062168	24992
270	0.978732	93417472	63057920	17348032	24992
271	0.961166	93417472	63057920	18629352	24992
272	0.932853	93417472	63057920	19914568	24992
273	1.177475	93417472	63057920	21203720	24992
274	0.989929	93417472	63057920	22496824	24992
275	0.997063	93417472	63057920	23793920	24992
276	0.999475	93417472	63057920	25100888	24992
277	0.99969	93417472	63057920	26405928	24992
278	1.004652	93417472	63057920	27714824	24992
279	1.013895	93417472	63057920	29029160	24992
280	1.021409	93417472	63057920	30345904	24992
281	1.019328	93417472	63057920	15349384	24992
282	1.032499	93417472	63057920	16674176	24992
283	1.017542	93417472	63057920	18002776	24992
284	1.022994	93417472	63057920	19335336	24992
285	1.025069	93417472	63057920	20671816	24992
286	1.028668	93417472	63057920	22012232	24992
287	1.040594	93417472	63057920	23358048	24992
288	1.030081	93417472	63057920	24706280	24992
289	1.234057	93417472	63057920	26058728	24992
290	1.041468	93417472	63057920	27414832	24992
291	1.039287	93417472	63057920	28775008	24992
292	1.051935	93417472	63057920	30150296	24992
293	1.059528	93417472	63057920	15246736	24992
294	1.072372	93417472	63057920	16618608	24992
295	1.048874	93417472	63057920	17994424	24992
296	1.055249	93417472	63057920	19379632	24992
297	1.074933	93417472	63057920	20763392	24992
298	1.007951	93417472	63057920	22153360	24992
299	1.048276	93417472	63057920	23544976	24992
300	1.063597	93417472	63057920	24940496	24992
301	1.104183	93417472	63057920	26339984	24992
302	1.07983	93417472	63057920	27744080	24992
303	1.079334	93417472	63057920	29151552	24992
304	1.08429	93417472	63057920	30562848	24992
305	1.096763	93417472	63057920	15619648	24992
306	1.091471	93417472	63057920	17038888	24992
307	1.090647	93417472	63057920	18461992	24992
308	1.105948	93417472	63057920	19892000	24992
309	1.140719	93417472	63057920	21325136	24992
310	1.097731	93417472	63057920	22760144	24992
311	1.10227	93417472	63057920	24201976	24992
312	1.111856	93417472	63057920	25655936	24992
313	1.11353	93417472	63057920	27114136	24992
314	1.336698	93417472	63057920	28564792	24992
315	1.118469	93417472	63057920	30019480	24992
316	1.128479	93417472	63057920	15213608	24992
317	1.271304	93417472	63057920	16683328	24992
318	1.125596	93417472	63057920	18153816	24992
319	1.076356	93417472	63057920	19627304	24992
320	1.296122	93417472	63057920	21101992	24992
321	1.135709	93417472	63057920	22580280	24992
322	1.239535	93417472	63057920	24062528	24992
323	1.36915	93417472	63057920	25548664	24992
324	1.206113	93417472	63057920	27042200	24992
325	1.206784	93417472	63057920	28536208	24992
326	1.210142	93417472	63057920	30037712	24992
327	1.163358	93417472	63057920	15292664	24992
328	1.096506	93417472	63057920	16798544	24992
329	1.182922	93417472	63057920	18308408	24992
330	1.100339	93417472	63057920	19822256	24992
331	1.099301	93417472	63057920	21340008	24992
332	1.366782	93417472	63057920	22865384	24992
333	1.172323	93417472	63057920	24390976	24992
334	1.172622	93417472	63057920	25920536	24992
335	1.185848	93417472	63057920	27455232	24992
336	1.180318	93417472	63057920	28999880	24992
337	1.191698	93417472	63057920	30558224	24992
338	1.140822	93417472	63057920	15801064	24992
339	1.197804	93417472	63057920	17366688	24992
340	1.372731	93417472	63057920	18948528	24992
341	1.20154	93417472	63057920	20523208	24992
342	1.203525	93417472	63057920	22100608	24992
343	1.204428	93417472	63057920	23682040	24992
344	1.208409	93417472	63057920	25267424	24992
345	1.209264	93417472	63057920	26864128	24992
346	1.398582	93417472	63057920	28458944	24992
347	1.236674	93417472	63057920	30056136	24992
348	1.236763	93417472	63057920	15294552	24992
349	1.219289	93417472	63057920	16899616	24992
350	1.262244	93417472	63057920	18521264	24992
351	1.23682	93417472	63057920	20135552	24992
352	1.236441	93417472	63057920	21752344	24992
353	1.240916	93417472	63057920	23373744	24992
354	1.238782	93417472	63057920	25011640	24992
355	1.238159	93417472	63057920	26640344	24992
356	1.261657	93417472	63057920	28273024	24992
357	1.252808	93417472	63057920	29915576	24992
358	1.605946	93417472	63057920	15231136	24992
359	1.213032	93417472	63057920	16875624	24992
360	1.267475	93417472	63057920	18541712	24992
361	1.263659	93417472	63057920	20216400	24992
362	1.263722	93417472	63057920	21895040	24992
363	1.294567	93417472	63057920	23579112	24992
364	1.275254	93417472	63057920	25265608	24992
365	1.278054	93417472	63057920	26955992	24992
366	1.278557	93417472	63057920	28650208	24992
367	1.283162	93417472	63057920	30348488	24992
368	1.291912	93417472	63057920	15817952	24992
369	1.288582	93417472	63057920	17523968	24992
370	1.258493	93417472	63057920	19236704	24992
371	1.294228	93417472	63057920	20950624	24992
372	1.289034	93417472	63057920	22668536	24992
373	1.304729	93417472	63057920	24402496	24992
374	1.314603	93417472	63057920	26128232	24992
375	1.304524	93417472	63057920	27857968	24992
376	1.275682	93417472	63057920	29592616	24992
377	1.715369	93417472	63057920	15052704	24992
378	1.323975	93417472	63057920	16794200	24992
379	1.317575	93417472	63057920	18539648	24992
380	1.321233	93417472	63057920	20289048	24992
381	1.327405	93417472	63057920	22042480	24992
382	1.329611	93417472	63057920	23799872	24992
383	1.333502	93417472	63057920	25561136	24992
384	1.321772	93417472	63057920	27326248	24992
385	1.34606	93417472	63057920	29095488	24992
386	1.337919	93417472	63057920	30871424	24992
387	1.343015	93417472	63057920	16340328	24992
388	1.307905	93417472	63057920	18121208	24992
389	1.354713	93417472	63057920	19912232	24992
390	1.350434	93417472	63057920	21701032	24992
391	1.364132	93417472	63057920	23493720	24992
392	1.349101	93417472	63057920	25290528	24992
393	1.377382	93417472	63057920	27091152	24992
394	1.360362	93417472	63057920	28901696	24992
395	1.373403	93417472	63057920	30710192	24992
396	1.373655	93417472	63057920	16215832	24992
397	1.378489	93417472	63057920	18032120	24992
398	1.386544	93417472	63057920	19852648	24992
399	1.377547	93417472	63057920	21691192	24992
400	1.580252	93417472	63057920	23519440	24992
401	1.385852	93417472	63057920	25354648	24992
402	1.395781	93417472	63057920	27190936	24992
403	1.390141	93417472	63057920	29030920	24992
404	1.456707	93417472	63057920	30877200	24992
405	1.402001	93417472	63057920	16421224	24992
406	1.368869	93417472	63057920	18273104	24992
407	1.618661	93417472	63057920	20132848	24992
408	1.410821	93417472	63057920	21992536	24992
409	1.405185	93417472	63057920	23875632	24992
410	1.407432	93417472	63057920	25772272	24992
411	1.433854	93417472	63057920	27660312	24992
412	1.41738	93417472	63057920	29559696	24992
413	1.84665	93417472	63057920	15239592	24992
414	1.423359	93417472	63057920	17160280	24992
415	1.415908	93417472	63057920	19063992	24992
416	1.445717	93417472	63057920	20971752	24992
417	1.44446	93417472	63057920	22924640	24992
418	1.438057	93417472	63057920	24923488	24992
419	1.390534	93417472	63057920	26915192	24992
420	1.44441	93417472	63057920	28904352	24992
421	1.460966	93417472	63057920	30897544	24992
422	1.49761	93417472	63057920	16594456	24992
423	1.458923	93417472	63057920	18595544	24992
424	1.461335	93417472	63057920	20600664	24992
425	1.466184	93417472	63057920	22609592	24992
426	1.677804	93417472	63057920	24622408	24992
427	1.476116	93417472	63057920	26639280	24992
428	1.46919	93417472	63057920	28663760	24992
429	1.469723	93417472	63057920	30695536	24992
430	1.410958	93417472	63057920	16457992	24992
431	1.468858	93417472	63057920	18490528	24992
432	1.486558	93417472	63057920	20527024	24992
433	1.51883	93417472	63057920	22567480	24992
434	1.491762	93417472	63057920	24612008	24992
435	1.497447	93417472	63057920	26663096	24992
436	1.493488	93417472	63057920	28717184	24992
437	1.663434	93417472	63057920	30783648	24992
438	1.449765	93417472	63057920	16549368	24992
439	1.470468	93417472	63057920	18613496	24992
440	1.513333	93417472	63057920	20681584	24992
441	1.516204	93417472	63057920	22753560	24992
442	1.517088	93417472	63057920	24829496	24992
443	1.517821	93417472	63057920	26909360	24992
444	1.528601	93417472	63057920	28993240	24992
445	1.531225	93417472	63057920	31081072	24992
446	1.536513	93417472	63057920	16900184	24992
447	1.53189	93417472	63057920	19006104	24992
448	1.473592	93417472	63057920	21105840	24992
449	1.511534	93417472	63057920	23209288	24992
450	1.549049	93417472	63057920	25316720	24992
451	1.744521	93417472	63057920	27428136	24992
452	1.559016	93417472	63057920	29543360	24992
453	2.021489	93417472	63057920	15457552	24992
454	1.566114	93417472	63057920	17580744	24992
455	1.512864	93417472	63057920	19707896	24992
456	1.558315	93417472	63057920	21839008	24992
457	1.557718	93417472	63057920	23973976	24992
458	1.718841	93417472	63057920	26112904	24992
459	1.584358	93417472	63057920	28259624	24992
460	1.582593	93417472	63057920	30422992	24992
461	1.59267	93417472	63057920	16397504	24992
462	1.540935	93417472	63057920	18592016	24992
463	1.581532	93417472	63057920	20750664	24992
464	1.588567	93417472	63057920	22913296	24992
465	1.5799	93417472	63057920	25079736	24992
466	1.542602	93417472	63057920	27257400	24992
467	1.601405	93417472	63057920	29448576	24992
468	2.347699	93417472	63057920	15428000	24992
469	1.620421	93417472	63057920	17615920	24992
470	1.625345	93417472	63057920	19802112	24992
471	1.602625	93417472	63057920	21992256	24992
472	1.609795	93417472	63057920	24200392	24992
473	1.614617	93417472	63057920	26401896	24992
474	1.614539	93417472	63057920	28603848	24992
475	1.607532	93417472	63057920	30809688	24992
476	1.589752	93417472	63057920	16790648	24992
477	1.63127	93417472	63057920	19004272	24992
478	1.811896	93417472	63057920	21228816	24992
479	1.638943	93417472	63057920	23450584	24992
480	1.638533	93417472	63057920	25676096	24992
481	1.638228	93417472	63057920	27905592	24992
482	1.637263	93417472	63057920	30139080	24992
483	1.933837	93417472	63057920	16091208	24992
484	1.561897	93417472	63057920	18332600	24992
485	1.637501	93417472	63057920	20577776	24992
486	1.653245	93417472	63057920	22830368	24992
487	1.663616	93417472	63057920	25083536	24992
488	1.83725	93417472	63057920	27340600	24992
489	1.672672	93417472	63057920	29614432	24992
490	2.069348	93417472	63057920	15692192	24992
491	1.866487	93417472	63057920	17961152	24992
492	1.716639	93417472	63057920	20236528	24992
493	1.688273	93417472	63057920	22513336	24992
494	1.642796	93417472	63057920	24794048	24992
495	1.688718	93417472	63057920	27091928	24992
496	1.679742	93417472	63057920	29380488	24992
497	2.096482	93417472	63057920	15500416	24992
498	1.685595	93417472	63057920	17811872	24992
499	1.642748	93417472	63057920	20112336	24992
500	1.698286	93417472	63057920	22435000	24992
501	1.698864	93417472	63057920	24745832	24992
502	1.69886	93417472	63057920	27059248	24992
503	1.658817	93417472	63057920	29375440	24992
504	2.320215	93417472	63057920	15522128	24992
505	1.713219	93417472	63057920	17864528	24992
506	1.71622	93417472	63057920	20192520	24992
507	1.731471	93417472	63057920	22543976	24992
508	1.985043	93417472	63057920	24879808	24992
509	1.734055	93417472	63057920	27220120	24992
510	1.912173	93417472	63057920	29584064	24992
511	2.130051	93417472	63057920	15754216	24992
512	1.736328	93417472	63057920	18109672	24992
513	1.928368	93417472	63057920	20478512	24992
514	1.755609	93417472	63057920	22838016	24992
515	1.777109	93417472	63057920	25203424	24992
516	1.771435	93417472	63057920	27579696	24992
517	1.795992	93417472	63057920	29951120	24992
518	2.131371	93417472	63057920	16069568	24992
519	1.745439	93417472	63057920	18458328	24992
520	1.663969	93417472	63057920	20852704	24992
521	1.71092	93417472	63057920	23239744	24992
522	1.765463	93417472	63057920	25634312	24992
523	1.755677	93417472	63057920	28029240	24992
524	1.768913	93417472	63057920	30431616	24992
525	2.084343	93417472	63057920	16467784	24992
526	1.776631	93417472	63057920	18890416	24992
527	1.776065	93417472	63057920	21301184	24992
528	1.781462	93417472	63057920	23722432	24992
529	1.778389	93417472	63057920	26142248	24992
530	1.817521	93417472	63057920	28564704	24992
531	1.80216	93417472	63057920	31007336	24992
532	1.800783	93417472	63057920	17235048	24992
533	1.80331	93417472	63057920	19676512	24992
534	1.798623	93417472	63057920	22116944	24992
535	1.752741	93417472	63057920	24559704	24992
536	1.802217	93417472	63057920	27005776	24992
537	1.811779	93417472	63057920	29456936	24992
538	2.252945	93417472	63057920	15756672	24992
539	1.818847	93417472	63057920	18215040	24992
540	1.733412	93417472	63057920	20678808	24992
541	1.824729	93417472	63057920	23144840	24992
542	1.818441	93417472	63057920	25628704	24992
543	1.82588	93417472	63057920	28102416	24992
544	1.787352	93417472	63057920	30586856	24992
545	1.841046	93417472	63057920	16708792	24992
546	1.83668	93417472	63057920	19207216	24992
547	1.834612	93417472	63057920	21717720	24992
548	1.849624	93417472	63057920	24212312	24992
549	1.851333	93417472	63057920	26711256	24992
550	1.849898	93417472	63057920	29212544	24992
551	1.854729	93417472	63057920	31718472	24992
552	2.06661	93417472	63057920	17894688	24992
553	1.869298	93417472	63057920	20407896	24992
554	1.868135	93417472	63057920	22946432	24992
555	1.994729	93417472	63057920	25472552	24992
556	1.865889	93417472	63057920	28024720	24992
557	1.883323	93417472	63057920	30594016	24992
558	1.910053	93417472	63057920	16820024	24992
559	1.897404	93417472	63057920	19412000	24992
560	1.891202	93417472	63057920	21996152	24992
561	2.076486	93417472	63057920	24580160	24992
562	1.86087	93417472	63057920	27164280	24992
563	1.887155	93417472	63057920	29764992	24992
564	2.334209	93417472	63057920	16167920	24992
565	1.899821	93417472	63057920	18766984	24992
566	1.90803	93417472	63057920	21366448	24992
567	1.898043	93417472	63057920	23971904	24992
568	1.923639	93417472	63057920	26578136	24992
569	1.903154	93417472	63057920	29196272	24992
570	2.109576	93417472	63057920	31810568	24992
571	1.928032	93417472	63057920	18097488	24992
572	2.103795	93417472	63057920	20737168	24992
573	1.935585	93417472	63057920	23364016	24992
574	1.935844	93417472	63057920	25999856	24992
575	1.941756	93417472	63057920	28638728	24992
576	1.939684	93417472	63057920	31276488	24992
577	1.940129	93417472	63057920	17696184	24992
578	1.956123	93417472	63057920	20341760	24992
579	1.941103	93417472	63057920	22999240	24992
580	1.940385	93417472	63057920	25652736	24992
581	1.940336	93417472	63057920	28310256	24992
582	1.950016	93417472	63057920	30996832	24992
583	1.980227	93417472	63057920	17517920	24992
584	1.964004	93417472	63057920	20190464	24992
585	1.969054	93417472	63057920	22883088	24992
586	2.183546	93417472	63057920	25563808	24992
587	1.97499	93417472	63057920	28245056	24992
588	1.971854	93417472	63057920	30931960	24992
589	1.977814	93417472	63057920	17484160	24992
590	1.974846	93417472	63057920	20177112	24992
591	1.975173	93417472	63057920	22873936	24992
592	1.991357	93417472	63057920	25574816	24992
593	2.019528	93417472	63057920	28279552	24992
594	2.139674	93417472	63057920	30988168	24992
595	2.014422	93417472	63057920	17563320	24992
596	2.000134	93417472	63057920	20282912	24992
597	1.97059	93417472	63057920	23007000	24992
598	2.009225	93417472	63057920	25733040	24992
599	1.996869	93417472	63057920	28461304	24992
600	2.002897	93417472	63057920	31193752	24992
601	2.002684	93417472	63057920	17794320	24992
602	2.194135	93417472	63057920	20534640	24992
603	2.01719	93417472	63057920	23291600	24992
604	2.020355	93417472	63057920	26039552	24992
605	2.074062	93417472	63057920	28792448	24992
606	2.135167	93417472	63057920	31556376	24992
607	2.24937	93417472	63057920	18071792	24992
608	2.08688	93417472	63057920	20840904	24992
609	2.153109	93417472	63057920	23608760	24992
610	2.248102	93417472	63057920	26380456	24992
611	2.144442	93417472	63057920	29163104	24992
612	2.149887	93417472	63057920	31958160	24992
613	2.126871	93417472	63057920	18457280	24992
614	2.063205	93417472	63057920	21244768	24992
615	2.342588	93417472	63057920	24038328	24992
616	2.025903	93417472	63057920	26833848	24992
617	2.056873	93417472	63057920	29648984	24992
618	2.380192	93417472	63057920	16328216	24992
619	2.24873	93417472	63057920	19144568	24992
620	2.381177	93417472	63057920	21956088	24992
621	2.08368	93417472	63057920	24773952	24992
622	2.055917	93417472	63057920	27617184	24992
623	2.078316	93417472	63057920	30445344	24992
624	2.425509	93417472	63057920	17035432	24992
625	2.315767	93417472	63057920	19866672	24992
626	2.094845	93417472	63057920	22701504	24992
627	2.086536	93417472	63057920	25544400	24992
628	2.358532	93417472	63057920	28387056	24992
629	2.096822	93417472	63057920	31234088	24992
630	2.110847	93417472	63057920	17964288	24992
631	2.11094	93417472	63057920	20820984	24992
632	2.120631	93417472	63057920	23683064	24992
633	2.117783	93417472	63057920	26545432	24992
634	2.114594	93417472	63057920	29415320	24992
635	2.569581	93417472	63057920	16177840	24992
636	2.021656	93417472	63057920	19067552	24992
637	2.016021	93417472	63057920	21945640	24992
638	2.305097	93417472	63057920	24828584	24992
639	2.030544	93417472	63057920	27729304	24992
640	2.130214	93417472	63057920	30625000	24992
641	2.452599	93417472	63057920	17233200	24992
642	2.148948	93417472	63057920	20133120	24992
643	2.327804	93417472	63057920	23034768	24992
644	2.110536	93417472	63057920	25948024	24992
645	2.14963	93417472	63057920	28857464	24992
646	2.054481	93417472	63057920	31770928	24992
647	2.16088	93417472	63057920	18460600	24992
648	2.172675	93417472	63057920	21382040	24992
649	2.177058	93417472	63057920	24338184	24992
650	2.172294	93417472	63057920	27277544	24992
651	2.162597	93417472	63057920	30210864	24992
652	2.542921	93417472	63057920	16919304	24992
653	2.349675	93417472	63057920	19868192	24992
654	2.184068	93417472	63057920	22841400	24992
655	2.181475	93417472	63057920	25792008	24992
656	2.127468	93417472	63057920	28744920	24992
657	2.197354	93417472	63057920	31708880	24992
658	2.368842	93417472	63057920	18466760	24992
659	2.197108	93417472	63057920	21454352	24992
660	2.193319	93417472	63057920	24427368	24992
661	2.098869	93417472	63057920	27399928	24992
662	2.212217	93417472	63057920	30376376	24992
663	2.561964	93417472	63057920	17134104	24992
664	2.110111	93417472	63057920	20143256	24992
665	2.211527	93417472	63057920	23131576	24992
666	2.223716	93417472	63057920	26136536	24992
667	2.22978	93417472	63057920	29137312	24992
668	2.397416	93417472	63057920	32137560	24992
669	2.222288	93417472	63057920	18916440	24992
670	2.249579	93417472	63057920	21941384	24992
671	2.241854	93417472	63057920	24953384	24992
672	2.231151	93417472	63057920	27971408	24992
673	2.229641	93417472	63057920	30996664	24992
674	2.261858	93417472	63057920	17947536	24992
675	2.40928	93417472	63057920	20976872	24992
676	2.256362	93417472	63057920	24032048	24992
677	2.413552	93417472	63057920	27067752	24992
678	2.265913	93417472	63057920	30107288	24992
679	2.650358	93417472	63057920	16959168	24992
680	2.183757	93417472	63057920	20011648	24992
681	2.253874	93417472	63057920	23068520	24992
682	2.470099	93417472	63057920	26145024	24992
683	2.28435	93417472	63057920	29214608	24992
684	2.269103	93417472	63057920	32295624	24992
685	2.220985	93417472	63057920	19082944	24992
686	2.278187	93417472	63057920	22182640	24992
687	2.412813	93417472	63057920	25280320	24992
688	2.28399	93417472	63057920	28378000	24992
689	2.298046	93417472	63057920	31484016	24992
690	2.324317	93417472	63057920	18497640	24992
691	2.303689	93417472	63057920	21622760	24992
692	2.292327	93417472	63057920	24736880	24992
693	2.308042	93417472	63057920	27878648	24992
694	2.456043	93417472	63057920	31001984	24992
695	2.323423	93417472	63057920	17780880	24992
696	2.302557	93417472	63057920	20909864	24992
697	2.324266	93417472	63057920	24040832	24992
698	2.321957	93417472	63057920	27175600	24992
699	2.215507	93417472	63057920	30334600	24992
700	2.646882	93417472	63057920	17269104	24992
701	2.338744	93417472	63057920	20432496	24992
702	2.327498	93417472	63057920	23588096	24992
703	2.630544	93417472	63057920	26755144	24992
704	2.307809	93417472	63057920	29913680	24992
705	2.819115	93417472	63057920	16988256	24992
706	2.221208	93417472	63057920	20154616	24992
707	2.461616	93417472	63057920	23336416	24992
708	2.465855	93417472	63057920	26510712	24992
709	2.357443	93417472	63057920	29695432	24992
710	2.994286	93417472	63057920	16806768	24992
711	2.369381	93417472	63057920	19995472	24992
712	2.353504	93417472	63057920	23209648	24992
713	2.366363	93417472	63057920	26430488	24992
714	2.371817	93417472	63057920	29628216	24992
715	2.805386	93417472	63057920	16755408	24992
716	2.306466	93417472	63057920	19960992	24992
717	2.678685	93417472	63057920	23172472	24992
718	2.379176	93417472	63057920	26387792	24992
719	2.578315	93417472	63057920	29615368	24992
720	2.883467	93417472	63057920	16764912	24992
721	2.385008	93417472	63057920	19990336	24992
722	2.388479	93417472	63057920	23220856	24992
723	2.298799	93417472	63057920	26454232	24992
724	2.399417	93417472	63057920	29691416	24992
725	3.050828	93417472	63057920	16863152	24992
726	2.57346	93417472	63057920	20109528	24992
727	2.404754	93417472	63057920	23359064	24992
728	2.580554	93417472	63057920	26614672	24992
729	2.412711	93417472	63057920	29871592	24992
730	2.925791	93417472	63057920	17067008	24992
731	2.425527	93417472	63057920	20342368	24992
732	2.419815	93417472	63057920	23618856	24992
733	2.348094	93417472	63057920	26891752	24992
734	2.304807	93417472	63057920	30175584	24992
735	2.997525	93417472	63057920	17260984	24992
736	2.442086	93417472	63057920	20550272	24992
737	2.585182	93417472	63057920	23840176	24992
738	2.314768	93417472	63057920	27165824	24992
739	2.443858	93417472	63057920	30462184	24992
740	2.829166	93417472	63057920	17563200	24992
741	2.447578	93417472	63057920	20869992	24992
742	2.408403	93417472	63057920	24190592	24992
743	2.462962	93417472	63057920	27502744	24992
744	2.457788	93417472	63057920	30835600	24992
745	2.802827	93417472	63057920	17895936	24992
746	2.458871	93417472	63057920	21219840	24992
747	2.467658	93417472	63057920	24547744	24992
748	2.84112	93417472	63057920	27879464	24992
749	2.473602	93417472	63057920	31215288	24992
750	2.675271	93417472	63057920	18496040	24992
751	2.487882	93417472	63057920	21846368	24992
752	2.475324	93417472	63057920	25222088	24992
753	2.468192	93417472	63057920	28576032	24992
754	2.377481	93417472	63057920	31937568	24992
755	2.459463	93417472	63057920	19118904	24992
756	2.502318	93417472	63057920	22485488	24992
757	2.44978	93417472	63057920	25853360	24992
758	2.512696	93417472	63057920	29224416	24992
759	2.515978	93417472	63057920	32599536	24992
760	2.50992	93417472	63057920	19741720	24992
761	2.681018	93417472	63057920	23132280	24992
762	2.517436	93417472	63057920	26519296	24992
763	2.688083	93417472	63057920	29915760	24992
764	3.007174	93417472	63057920	17262816	24992
765	2.647712	93417472	63057920	20662000	24992
766	2.517085	93417472	63057920	24081568	24992
767	2.404175	93417472	63057920	27488224	24992
768	2.466994	93417472	63057920	30907256	24992
769	2.867704	93417472	63057920	18066592	24992
770	2.538248	93417472	63057920	21492056	24992
771	2.495861	93417472	63057920	24915256	24992
772	2.546266	93417472	63057920	28357840	24992
773	2.558974	93417472	63057920	31802560	24992
774	2.593064	93417472	63057920	19202552	24992
775	2.553086	93417472	63057920	22640920	24992
776	2.571727	93417472	63057920	26092048	24992
777	2.743158	93417472	63057920	29565232	24992
778	3.165095	93417472	63057920	17021240	24992
779	2.512996	93417472	63057920	20475144	24992
780	2.769936	93417472	63057920	23940656	24992
781	2.572436	93417472	63057920	27406112	24992
782	2.596475	93417472	63057920	30896184	24992
783	2.983837	93417472	63057920	18192248	24992
784	2.918367	93417472	63057920	21671888	24992
785	2.507397	93417472	63057920	25149376	24992
786	2.531127	93417472	63057920	28648952	24992
787	2.544375	93417472	63057920	32158856	24992
788	2.60401	93417472	63057920	19498712	24992
789	2.552256	93417472	63057920	23018624	24992
790	2.608663	93417472	63057920	26522624	24992
791	2.556136	93417472	63057920	30024144	24992
792	3.159735	93417472	63057920	17535384	24992
793	2.624093	93417472	63057920	21045560	24992
794	2.616171	93417472	63057920	24562384	24992
795	2.568763	93417472	63057920	28109344	24992
796	2.631052	93417472	63057920	31630128	24992
797	2.601111	93417472	63057920	19145376	24992
798	2.62945	93417472	63057920	22674136	24992
799	2.493932	93417472	63057920	26219424	24992
800	2.643482	93417472	63057920	29758784	24992
801	3.186821	93417472	63057920	17330496	24992
802	2.652404	93417472	63057920	20874952	24992
803	2.636415	93417472	63057920	24435976	24992
804	2.628057	93417472	63057920	28024200	24992
805	2.576142	93417472	63057920	31580416	24992
806	2.676747	93417472	63057920	19130768	24992
807	2.752768	93417472	63057920	22711296	24992
808	2.668721	93417472	63057920	26309816	24992
809	2.90323	93417472	63057920	29881840	24992
810	3.24471	93417472	63057920	17452288	24992
811	2.561567	93417472	63057920	21059336	24992
812	2.669505	93417472	63057920	24671576	24992
813	2.782273	93417472	63057920	28283848	24992
814	2.682195	93417472	63057920	31896088	24992
815	2.713161	93417472	63057920	19490272	24992
816	2.699539	93417472	63057920	23095280	24992
817	2.697417	93417472	63057920	26708448	24992
818	2.710736	93417472	63057920	30321680	24992
819	3.374929	93417472	63057920	17835840	24992
820	2.708596	93417472	63057920	21469256	24992
821	2.701796	93417472	63057920	25099080	24992
822	2.709894	93417472	63057920	28724800	24992
823	2.724993	93417472	63057920	32353608	24992
824	2.728014	93417472	63057920	19861984	24992
825	2.712144	93417472	63057920	23497160	24992
826	2.72388	93417472	63057920	27136264	24992
827	2.680687	93417472	63057920	30816968	24992
828	3.198665	93417472	63057920	18314296	24992
829	2.663841	93417472	63057920	21981664	24992
830	2.737338	93417472	63057920	25675968	24992
831	2.610028	93417472	63057920	29355656	24992
832	2.745337	93417472	63057920	33082352	24992
833	2.733178	93417472	63057920	20579080	24992
834	2.959265	93417472	63057920	24282224	24992
835	2.742551	93417472	63057920	27981072	24992
836	2.754559	93417472	63057920	31675808	24992
837	2.711648	93417472	63057920	19394744	24992
838	2.970993	93417472	63057920	23130424	24992
839	2.768165	93417472	63057920	26943976	24992
840	2.750818	93417472	63057920	30720096	24992
841	3.244396	93417472	63057920	18353584	24992
842	2.741471	93417472	63057920	22138688	24992
843	2.76609	93417472	63057920	25943616	24992
844	2.768513	93417472	63057920	29735592	24992
845	3.400211	93417472	63057920	17561368	24992
846	2.841819	93417472	63057920	21383144	24992
847	2.787062	93417472	63057920	25186952	24992
848	3.05659	93417472	63057920	29000064	24992
849	2.778174	93417472	63057920	32811792	24992
850	2.949299	93417472	63057920	20539512	24992
851	2.727505	93417472	63057920	24422888	24992
852	2.853264	93417472	63057920	28298088	24992
853	2.765841	93417472	63057920	32201960	24992
854	3.163546	93417472	63057920	20131848	24992
855	2.813594	93417472	63057920	24029688	24992
856	2.786144	93417472	63057920	27920560	24992
857	2.819378	93417472	63057920	31825976	24992
858	2.703481	93417472	63057920	19780104	24992
859	2.818673	93417472	63057920	23682920	24992
860	2.822744	93417472	63057920	27631352	24992
861	2.688869	93417472	63057920	31541944	24992
862	2.858081	93417472	63057920	19188760	24992
863	2.832241	93417472	63057920	23122296	24992
864	2.839427	93417472	63057920	27074464	24992
865	2.752093	93417472	63057920	31000792	24992
866	3.374503	93417472	63057920	18801688	24992
867	3.06295	93417472	63057920	22739840	24992
868	2.761239	93417472	63057920	26703192	24992
869	3.009181	93417472	63057920	30645280	24992
870	3.36393	93417472	63057920	18456880	24992
871	2.8092	93417472	63057920	22406792	24992
872	2.729252	93417472	63057920	26360776	24992
873	3.069317	93417472	63057920	30341336	24992
874	3.608465	93417472	63057920	18268456	24992
875	2.85668	93417472	63057920	22242240	24992
876	2.88566	93417472	63057920	26227728	24992
877	2.747323	93417472	63057920	30201224	24992
878	3.548275	93417472	63057920	18227960	24992
879	2.894316	93417472	63057920	22216488	24992
880	2.878305	93417472	63057920	26241752	24992
881	2.903131	93417472	63057920	30231104	24992
882	3.72187	93417472	63057920	18275400	24992
883	2.892858	93417472	63057920	22284976	24992
884	3.088478	93417472	63057920	26313888	24992
885	2.904044	93417472	63057920	30348800	24992
886	3.60542	93417472	63057920	18353192	24992
887	2.91544	93417472	63057920	22366200	24992
888	2.914025	93417472	63057920	26414928	24992
889	2.92247	93417472	63057920	30476696	24992
890	3.364176	93417472	63057920	18427616	24992
891	2.932503	93417472	63057920	22456408	24992
892	2.918949	93417472	63057920	26491744	24992
893	3.061089	93417472	63057920	30541136	24992
894	3.560228	93417472	63057920	18521296	24992
895	3.083508	93417472	63057920	22565944	24992
896	2.932102	93417472	63057920	26614360	24992
897	3.046843	93417472	63057920	30674040	24992
898	3.504283	93417472	63057920	18616336	24992
899	2.95743	93417472	63057920	22676744	24992
900	2.822893	93417472	63057920	26740992	24992
901	2.948264	93417472	63057920	30813984	24992
902	3.510166	93417472	63057920	18760456	24992
903	2.819267	93417472	63057920	22890200	24992
904	3.154306	93417472	63057920	27018056	24992
905	2.962896	93417472	63057920	31147024	24992
906	3.542639	93417472	63057920	19148136	24992
907	2.846859	93417472	63057920	23239952	24992
908	2.862764	93417472	63057920	27335720	24992
909	2.822524	93417472	63057920	31435328	24992
910	3.513656	93417472	63057920	19357880	24992
911	2.974647	93417472	63057920	23473368	24992
912	3.136343	93417472	63057920	27602120	24992
913	3.168406	93417472	63057920	31739248	24992
914	2.867479	93417472	63057920	19652888	24992
915	3.130569	93417472	63057920	23776200	24992
916	3.01684	93417472	63057920	27903344	24992
917	3.062508	93417472	63057920	32034448	24992
918	3.024821	93417472	63057920	20234480	24992
919	2.882278	93417472	63057920	24373552	24992
920	3.008668	93417472	63057920	28516584	24992
921	2.954613	93417472	63057920	32686568	24992
922	3.195765	93417472	63057920	20850048	24992
923	3.014	93417472	63057920	25026616	24992
924	3.19882	93417472	63057920	29214744	24992
925	3.025898	93417472	63057920	33390632	24992
926	2.961454	93417472	63057920	21445032	24992
927	3.024941	93417472	63057920	25654456	24992
928	3.033362	93417472	63057920	29853032	24992
929	3.781353	93417472	63057920	18105832	24992
930	2.910068	93417472	63057920	22288360	24992
931	3.14256	93417472	63057920	26474760	24992
932	3.051496	93417472	63057920	30665048	24992
933	3.538441	93417472	63057920	18812936	24992
934	3.054448	93417472	63057920	23015344	24992
935	3.05642	93417472	63057920	27221616	24992
936	3.249305	93417472	63057920	31468336	24992
937	3.671437	93417472	63057920	19562960	24992
938	3.254666	93417472	63057920	23778312	24992
939	3.067935	93417472	63057920	27996144	24992
940	3.103539	93417472	63057920	32217928	24992
941	3.030273	93417472	63057920	20549432	24992
942	3.049828	93417472	63057920	24827000	24992
943	3.255743	93417472	63057920	29060592	24992
944	3.08884	93417472	63057920	33298240	24992
945	3.104587	93417472	63057920	21422824	24992
946	3.082955	93417472	63057920	25718976	24992
947	3.018176	93417472	63057920	30018304	24992
948	4.056995	93417472	63057920	18355296	24992
949	3.095727	93417472	63057920	22653072	24992
950	3.109748	93417472	63057920	26955584	24992
951	3.039795	93417472	63057920	31220768	24992
952	3.772759	93417472	63057920	19379008	24992
953	3.062489	93417472	63057920	23652136	24992
954	3.110713	93417472	63057920	27929096	24992
955	3.316982	93417472	63057920	32216648	24992
956	3.033902	93417472	63057920	20585672	24992
957	3.20443	93417472	63057920	24886712	24992
958	3.0396	93417472	63057920	29179336	24992
959	3.134694	93417472	63057920	33480216	24992
960	3.131111	93417472	63057920	21706464	24992
961	3.063696	93417472	63057920	26037320	24992
962	3.270964	93417472	63057920	30345712	24992
963	3.896977	93417472	63057920	18757320	24992
964	3.147636	93417472	63057920	23073656	24992
965	3.15842	93417472	63057920	27411848	24992
966	3.009527	93417472	63057920	31747680	24992
967	3.807561	93417472	63057920	19874952	24992
968	3.169859	93417472	63057920	24206992	24992
969	3.217802	93417472	63057920	28544136	24992
970	3.168152	93417472	63057920	32884200	24992
971	3.025435	93417472	63057920	21312016	24992
972	3.381987	93417472	63057920	25671088	24992
973	3.218193	93417472	63057920	30066832	24992
974	4.13068	93417472	63057920	18546400	24992
975	3.180744	93417472	63057920	22913584	24992
976	3.195235	93417472	63057920	27281928	24992
977	3.348039	93417472	63057920	31672480	24992
978	3.875294	93417472	63057920	19945168	24992
979	3.186465	93417472	63057920	24320424	24992
980	3.20637	93417472	63057920	28705432	24992
981	3.343772	93417472	63057920	33088720	24992
982	3.300297	93417472	63057920	21449832	24992
983	3.220134	93417472	63057920	25840952	24992
984	3.261503	93417472	63057920	30237896	24992
985	4.059583	93687808	63057920	18750112	24992
986	3.2544	93687808	63057920	23177832	24992
987	3.359476	93687808	63057920	27610200	24992
988	3.226639	93687808	63057920	32032856	24992
989	3.772096	93687808	63057920	20179408	24992
990	3.263885	93687808	63057920	24603280	24992
991	3.21662	93687808	63057920	29026024	24992
992	3.345981	93687808	63057920	33459344	24992
993	3.233927	93687808	63057920	21791888	24992
994	3.297495	93687808	63057920	26226296	24992
995	3.254774	93687808	63057920	30664688	24992
996	4.10032	93687808	63057920	19251192	24992
997	3.111331	93687808	63057920	23697496	24992
998	3.258244	93687808	63057920	28147792	24992
999	3.129808	93687808	63057920	32629360	24992
1000	3.280961	93687808	63057920	21196344	24992
