x	Duration	RSS	HeapTotal	HeapUsed	External
0	NA	93491200	63057920	12746840	24992
1	0.329461	93491200	63057920	12798752	24992
2	0.260038	93491200	63057920	12875528	24992
3	0.167226	93491200	63057920	12990104	24992
4	0.159122	93491200	63057920	13089096	24992
5	0.160993	93491200	63057920	13192552	24992
6	0.187653	93491200	63057920	13299952	24992
7	0.172246	93491200	63057920	13411296	24992
8	0.176801	93491200	63057920	13526584	24992
9	0.182889	93491200	63057920	13645832	24992
10	0.187284	93491200	63057920	13771248	24992
11	0.192126	93491200	63057920	13901760	24992
12	0.198436	93491200	63057920	14036232	24992
13	0.54576	93491200	63057920	14174664	24992
14	0.221109	93491200	63057920	14317008	24992
15	0.220992	93491200	63057920	14464336	24992
16	0.223326	93491200	63057920	14615648	24992
17	0.226757	93491200	63057920	14774552	24992
18	0.228067	93491200	63057920	14933752	24992
19	0.229996	93491200	63057920	15098336	24992
20	0.175965	93491200	63057920	15268008	24992
21	0.196553	93491200	63057920	15440808	24992
22	0.196115	93491200	63057920	15617552	24992
23	0.200814	93491200	63057920	15798360	24992
24	0.205559	93491200	63057920	15985160	24992
25	0.210071	93491200	63057920	16178080	24992
26	0.210327	93491200	63057920	16374968	24992
27	0.215138	93491200	63057920	16575776	24992
28	0.225646	93491200	63057920	16781336	24992
29	0.221767	93491200	63057920	16990000	24992
30	0.225904	93491200	63057920	17202608	24992
31	0.243533	93491200	63057920	17419184	24992
32	0.234145	93491200	63057920	17642728	24992
33	0.377182	93491200	63057920	17869320	24992
34	0.247314	93491200	63057920	18099808	24992
35	0.249027	93491200	63057920	18334328	24992
36	0.230503	93491200	63057920	18574688	24992
37	0.224259	93491200	63057920	18816624	24992
38	0.225268	93491200	63057920	19062536	24992
39	0.251237	93491200	63057920	19312352	24992
40	0.252102	93491200	63057920	19566152	24992
41	0.254258	93491200	63057920	19823856	24992
42	0.256799	93491200	63057920	20087696	24992
43	0.267482	93491200	63057920	20355400	24992
44	0.237682	93491200	63057920	20627104	24992
45	0.252991	93491200	63057920	20905352	24992
46	0.237717	93491200	63057920	21188224	24992
47	0.241889	93491200	63057920	21475064	24992
48	0.242355	93491200	63057920	21765808	24992
49	0.246792	93491200	63057920	22061048	24992
50	0.282042	93491200	63057920	22363904	24992
51	0.252847	93491200	63057920	22675000	24992
52	0.256623	93491200	63057920	22989984	24992
53	0.258864	93491200	63057920	23308864	24992
54	0.29052	93491200	63057920	23632792	24992
55	0.288985	93491200	63057920	23959560	24992
56	0.294986	93491200	63057920	24290280	24992
57	0.311542	93491200	63057920	24624992	24992
58	0.279107	93491200	63057920	24963584	24992
59	0.279783	93491200	63057920	25306120	24992
60	0.283479	93491200	63057920	25652664	24992
61	0.284524	93491200	63057920	26003056	24992
62	0.314141	93491200	63057920	26357408	24992
63	0.540158	93491200	63057920	26715792	24992
64	0.307448	93491200	63057920	27078008	24992
65	0.302685	93491200	63057920	27445768	24992
66	0.300018	93491200	63057920	27815904	24992
67	0.3023	93491200	63057920	28190024	24992
68	0.30268	93491200	63057920	28568000	24992
69	0.304603	93491200	63057920	28949936	24992
70	1.104667	93491200	63057920	13233664	24992
71	0.343444	93491200	63057920	13624560	24992
72	0.329552	93491200	63057920	14019672	24992
73	0.32678	93491200	63057920	14417344	24992
74	0.324303	93491200	63057920	14818992	24992
75	0.323218	93491200	63057920	15224624	24992
76	0.327882	93491200	63057920	15638312	24992
77	0.350845	93491200	63057920	16055920	24992
78	0.340463	93491200	63057920	16477440	24992
79	0.33231	93491200	63057920	16902984	24992
80	0.338577	93491200	63057920	17332648	24992
81	0.380437	93491200	63057920	17769704	24992
82	0.349905	93491200	63057920	18206912	24992
83	0.351583	93491200	63057920	18648112	24992
84	0.350971	93491200	63057920	19097736	24992
85	0.357996	93491200	63057920	19555248	24992
86	0.357042	93491200	63057920	20013936	24992
87	0.358493	93491200	63057920	20476624	24992
88	0.381605	93491200	63057920	20943192	24992
89	0.3703	93491200	63057920	21413656	24992
90	0.370986	93491200	63057920	21888120	24992
91	0.373112	93491200	63057920	22366560	24992
92	0.377439	93491200	63057920	22849024	24992
93	0.433239	93491200	63057920	23335256	24992
94	0.380464	93491200	63057920	23829664	24992
95	0.384155	93491200	63057920	24328000	24992
96	0.386455	93491200	63057920	24830216	24992
97	0.442893	93491200	63057920	25336344	24992
98	0.394808	93491200	63057920	25846456	24992
99	0.397558	93491200	63057920	26360544	24992
100	0.39749	93491200	63057920	26878488	24992
101	0.411848	93491200	63057920	27400384	24992
102	0.648184	93491200	63057920	27934624	24992
103	0.413025	93491200	63057920	28481048	24992
104	0.413232	93491200	63057920	29031400	24992
105	1.086819	93491200	63057920	13405848	24992
106	0.426869	93491200	63057920	13967824	24992
107	0.425135	93491200	63057920	14530072	24992
108	0.425508	93491200	63057920	15096224	24992
109	0.427667	93491200	63057920	15666248	24992
110	0.450562	93491200	63057920	16240280	24992
111	0.436182	93491200	63057920	16818600	24992
112	0.434869	93491200	63057920	17400464	24992
113	0.441226	93491200	63057920	17986312	24992
114	0.465175	93491200	63057920	18576072	24992
115	0.482126	93491200	63057920	19169800	24992
116	0.484204	93491200	63057920	19767472	24992
117	0.492697	93491200	63057920	20369096	24992
118	0.490092	93491200	63057920	20974608	24992
119	0.49473	93491200	63057920	21584040	24992
120	0.49904	93491200	63057920	22197416	24992
121	0.506931	93491200	63057920	22814744	24992
122	0.502184	93491200	63057920	23436008	24992
123	0.504849	93491200	63057920	24061280	24992
124	0.520206	93491200	63057920	24690432	24992
125	0.485512	93491200	63057920	25323480	24992
126	0.514631	93491200	63057920	25960584	24992
127	0.515758	93491200	63057920	26601632	24992
128	0.521459	93491200	63057920	27246528	24992
129	0.524276	93491200	63057920	27895368	24992
130	0.524324	93491200	63057920	28548224	24992
131	0.54836	93491200	63057920	29205032	24992
132	1.000419	93491200	63057920	13579472	24992
133	0.539542	93491200	63057920	14244128	24992
134	0.902929	93491200	63057920	14912720	24992
135	0.514772	93491200	63057920	15585184	24992
136	0.544474	93491200	63057920	16261600	24992
137	0.54812	93491200	63057920	16942016	24992
138	0.552745	93491200	63057920	17626368	24992
139	0.525824	93491200	63057920	18319032	24992
140	0.523335	93491200	63057920	19011216	24992
141	0.530767	93491200	63057920	19707328	24992
142	0.526376	93491200	63057920	20414688	24992
143	0.532854	93491200	63057920	21127880	24992
144	0.735894	93491200	63057920	21845016	24992
145	0.578995	93491200	63057920	22566016	24992
146	0.57645	93491200	63057920	23294272	24992
147	0.593008	93491200	63057920	24027696	24992
148	0.586583	93491200	63057920	24760704	24992
149	0.58903	93491200	63057920	25497464	24992
150	0.588222	93491200	63057920	26238152	24992
151	0.594847	93491200	63057920	26982920	24992
152	0.594374	93491200	63057920	27731520	24992
153	0.599374	93491200	63057920	28484040	24992
154	0.574066	93491200	63057920	29240536	24992
155	1.054821	93491200	63057920	13703376	24992
156	0.648288	93491200	63057920	14467816	24992
157	0.577058	93491200	63057920	15236152	24992
158	0.580778	93491200	63057920	16008384	24992
159	0.628187	93491200	63057920	16784608	24992
160	0.622749	93491200	63057920	17565288	24992
161	0.628065	93491200	63057920	18349384	24992
162	0.609836	93491200	63057920	19137448	24992
163	0.5952	93491200	63057920	19938176	24992
164	0.599229	93491200	63057920	20746512	24992
165	0.604779	93491200	63057920	21554560	24992
166	0.59977	93491200	63057920	22366632	24992
167	0.602257	93491200	63057920	23182584	24992
168	0.616971	93491200	63057920	24002528	24992
169	0.610736	93491200	63057920	24826392	24992
170	0.609655	93491200	63057920	25654144	24992
171	0.824929	93491200	63057920	26485920	24992
172	0.620625	93491200	63057920	27321544	24992
173	0.622279	93491200	63057920	28161128	24992
174	0.647693	93491200	63057920	29006080	24992
175	0.632799	93491200	63057920	29853536	24992
176	0.670041	93491200	63057920	14382608	24992
177	0.655434	93491200	63057920	15238040	24992
178	0.637864	93491200	63057920	16097312	24992
179	0.86221	93491200	63057920	16961960	24992
180	0.643149	93491200	63057920	17829144	24992
181	0.66575	93491200	63057920	18700200	24992
182	0.651748	93491200	63057920	19575224	24992
183	0.652331	93491200	63057920	20454216	24992
184	0.653057	93491200	63057920	21337200	24992
185	0.65577	93491200	63057920	22224024	24992
186	0.701847	93491200	63057920	23114896	24992
187	0.700724	93491200	63057920	24009608	24992
188	0.670027	93491200	63057920	24908376	24992
189	0.671691	93491200	63057920	25817328	24992
190	0.704404	93491200	63057920	26723864	24992
191	0.678769	93491200	63057920	27634400	24992
192	0.68103	93491200	63057920	28548944	24992
193	0.68545	93491200	63057920	29467424	24992
194	1.116283	93491200	63057920	14061368	24992
195	0.936855	93491200	63057920	14987656	24992
196	0.695546	93491200	63057920	15917912	24992
197	0.692843	93491200	63057920	16852152	24992
198	0.694733	93491200	63057920	17790280	24992
199	0.741752	93491200	63057920	18742048	24992
200	0.743085	93491200	63057920	19696240	24992
201	0.705979	93491200	63057920	20654416	24992
202	0.707198	93491200	63057920	21616640	24992
203	0.715612	93491200	63057920	22582664	24992
204	0.713114	93491200	63057920	23552640	24992
205	0.730324	93491200	63057920	24526560	24992
206	0.716341	93491200	63057920	25506048	24992
207	0.757605	93491200	63057920	26504320	24992
208	0.774807	93491200	63057920	27524120	24992
209	0.766589	93491200	63057920	28549192	24992
210	0.793474	93491200	63057920	29580360	24992
211	1.187647	93491200	63057920	14256352	24992
212	0.797447	93491200	63057920	15290920	24992
213	0.789665	93491200	63057920	16329416	24992
214	0.801721	93491200	63057920	17371800	24992
215	0.798411	93491200	63057920	18418144	24992
216	0.803831	93491200	63057920	19468448	24992
217	0.761953	93491200	63057920	20522640	24992
218	0.777523	93491200	63057920	21580856	24992
219	0.812895	93491200	63057920	22643056	24992
220	0.768859	93491200	63057920	23709112	24992
221	0.794206	93491200	63057920	24781536	24992
222	0.817246	93491200	63057920	25855384	24992
223	1.010157	93491200	63057920	26933176	24992
224	0.827323	93491200	63057920	28014960	24992
225	0.825958	93491200	63057920	29100672	24992
226	0.827478	93491200	63057920	30190360	24992
227	0.842469	93491200	63057920	14918368	24992
228	0.840954	93491200	63057920	16015864	24992
229	0.866473	93491200	63057920	17129376	24992
230	0.83846	93491200	63057920	18249248	24992
231	0.845458	93491200	63057920	19372976	24992
232	0.849855	93491200	63057920	20500792	24992
233	0.855862	93491200	63057920	21632360	24992
234	0.865948	93491200	63057920	22767992	24992
235	0.860805	93491200	63057920	23907496	24992
236	1.066921	93491200	63057920	25051000	24992
237	0.842277	93491200	63057920	26198328	24992
238	0.907226	93491200	63057920	27349744	24992
239	0.87534	93491200	63057920	28505144	24992
240	0.88378	93491200	63057920	29664312	24992
241	1.251249	93491200	63057920	14466464	24992
242	1.086038	93491200	63057920	15633536	24992
243	0.879093	93491200	63057920	16805528	24992
244	0.896521	93491200	63057920	17981680	24992
245	0.89399	93491200	63057920	19160624	24992
246	0.903235	93491200	63057920	20343480	24992
247	0.901109	93491200	63057920	21530200	24992
248	0.915405	93491200	63057920	22728880	24992
249	0.905031	93491200	63057920	23926216	24992
250	0.913982	93491200	63057920	25124840	24992
251	0.9127	93491200	63057920	26329096	24992
252	0.918168	93491200	63057920	27536328	24992
253	0.917094	93491200	63057920	28746680	24992
254	1.130821	93491200	63057920	29963216	24992
255	0.889915	93491200	63057920	14898312	24992
256	0.930042	93491200	63057920	16120624	24992
257	0.933335	93491200	63057920	17348208	24992
258	0.936898	93491200	63057920	18578328	24992
259	0.934357	93491200	63057920	19812376	24992
260	0.917654	93491200	63057920	21050624	24992
261	0.911595	93491200	63057920	22297832	24992
262	0.948534	93491200	63057920	23543640	24992
263	0.947245	93491200	63057920	24802312	24992
264	0.948733	93491200	63057920	26056056	24992
265	0.953358	93491200	63057920	27313728	24992
266	0.954674	93491200	63057920	28579328	24992
267	0.959852	93491200	63057920	29848008	24992
268	0.977774	93491200	63057920	14783424	24992
269	0.951952	93491200	63057920	16056832	24992
270	0.916469	93491200	63057920	17334184	24992
271	1.188613	93491200	63057920	18615536	24992
272	0.967825	93491200	63057920	19900840	24992
273	0.987379	93491200	63057920	21190120	24992
274	0.983412	93491200	63057920	22484912	24992
275	0.990423	93491200	63057920	23782080	24992
276	0.988887	93491200	63057920	25083208	24992
277	0.988945	93491200	63057920	26388192	24992
278	0.995281	93491200	63057920	27698584	24992
279	1.007622	93491200	63057920	29011488	24992
280	1.054553	93491200	63057920	30328320	24992
281	1.2142	93491200	63057920	15320904	24992
282	1.013714	93491200	63057920	16645584	24992
283	1.011488	93491200	63057920	17974208	24992
284	1.016071	93491200	63057920	19306792	24992
285	1.025526	93491200	63057920	20643240	24992
286	1.020497	93491200	63057920	21983624	24992
287	1.395388	93491200	63057920	23327928	24992
288	0.974706	93491200	63057920	24676944	24992
289	0.995059	93491200	63057920	26030184	24992
290	1.035445	93491200	63057920	27386352	24992
291	0.98169	93491200	63057920	28746464	24992
292	1.369545	93491200	63057920	30110504	24992
293	1.008783	93491200	63057920	15205976	24992
294	1.02446	93491200	63057920	16577968	24992
295	1.083759	93491200	63057920	17953760	24992
296	1.05093	93491200	63057920	19333648	24992
297	1.268342	93491200	63057920	20717408	24992
298	1.057645	93491200	63057920	22105112	24992
299	1.036358	93491200	63057920	23502392	24992
300	1.067222	93491200	63057920	24897912	24992
301	1.066413	93491200	63057920	26305240	24992
302	1.262235	93491200	63057920	27709560	24992
303	1.064653	93491200	63057920	29117904	24992
304	1.084093	93491200	63057920	30529224	24992
305	1.083969	93491200	63057920	15604824	24992
306	1.077565	93491200	63057920	17024008	24992
307	1.135787	93491200	63057920	18447288	24992
308	1.124453	93491200	63057920	19876896	24992
309	1.067768	93491200	63057920	21307928	24992
310	1.081019	93491200	63057920	22745240	24992
311	1.041197	93491200	63057920	24191936	24992
312	1.296894	93491200	63057920	25634744	24992
313	1.095803	93491200	63057920	27081472	24992
314	1.107853	93491200	63057920	28532192	24992
315	1.164331	93491200	63057920	29988376	24992
316	1.130962	93491200	63057920	15064088	24992
317	1.594963	93491200	63057920	16527648	24992
318	1.122656	93491200	63057920	17994344	24992
319	1.11377	93491200	63057920	19464720	24992
320	1.129858	93491200	63057920	20939000	24992
321	1.093801	93491200	63057920	22417240	24992
322	1.081583	93491200	63057920	23899440	24992
323	1.125167	93491200	63057920	25390568	24992
324	1.140389	93491200	63057920	26880680	24992
325	1.317811	93491200	63057920	28374856	24992
326	1.147473	93491200	63057920	29875832	24992
327	1.439377	93491200	63057920	15026648	24992
328	1.124691	93491200	63057920	16532568	24992
329	1.116951	93491200	63057920	18044176	24992
330	1.12383	93491200	63057920	19557920	24992
331	1.180221	93491200	63057920	21079880	24992
332	1.341187	93491200	63057920	22601440	24992
333	1.108715	93491200	63057920	24126992	24992
334	1.367448	93491200	63057920	25656496	24992
335	1.10836	93491200	63057920	27189952	24992
336	1.132674	93491200	63057920	28727400	24992
337	1.148609	93491200	63057920	30285184	24992
338	1.188034	93491200	63057920	15603152	24992
339	1.180179	93491200	63057920	17169608	24992
340	1.371496	93491200	63057920	18744368	24992
341	1.18627	93491200	63057920	20317896	24992
342	1.190472	93491200	63057920	21897512	24992
343	1.21736	93491200	63057920	23478944	24992
344	1.209865	93491200	63057920	25064264	24992
345	1.165658	93491200	63057920	26653592	24992
346	1.232825	93491200	63057920	28246880	24992
347	1.211743	93491200	63057920	29844096	24992
348	1.513984	93491200	63057920	15128800	24992
349	1.420522	93491200	63057920	16735424	24992
350	1.215816	93491200	63057920	18344856	24992
351	1.166922	93491200	63057920	19957776	24992
352	1.212358	93491200	63057920	21574648	24992
353	1.231641	93491200	63057920	23195744	24992
354	1.170325	93491200	63057920	24820448	24992
355	1.267956	93491200	63057920	26454920	24992
356	1.204534	93491200	63057920	28089016	24992
357	1.176255	93491200	63057920	29725608	24992
358	1.810366	93491200	63057920	15055336	24992
359	1.248992	93491200	63057920	16701800	24992
360	1.24658	93491200	63057920	18372736	24992
361	1.232196	93491200	63057920	20047336	24992
362	1.583769	93491200	63057920	21726944	24992
363	1.213804	93491200	63057920	23428352	24992
364	1.193231	93491200	63057920	25114904	24992
365	1.267697	93491200	63057920	26805208	24992
366	1.269718	93491200	63057920	28499472	24992
367	1.2631	93491200	63057920	30197704	24992
368	1.283512	93491200	63057920	15673632	24992
369	1.283799	93491200	63057920	17380312	24992
370	1.280738	93491200	63057920	19090384	24992
371	1.282135	93491200	63057920	20805296	24992
372	1.290954	93491200	63057920	22534080	24992
373	1.293724	93491200	63057920	24255912	24992
374	1.296535	93491200	63057920	25981752	24992
375	1.315716	93491200	63057920	27714808	24992
376	1.312302	93491200	63057920	29448568	24992
377	1.734675	93491200	63057920	14965640	24992
378	1.308888	93491200	63057920	16707128	24992
379	1.44734	93491200	63057920	18452600	24992
380	1.291176	93491200	63057920	20202088	24992
381	1.31554	93491200	63057920	21955416	24992
382	1.318376	93491200	63057920	23712712	24992
383	1.527231	93491200	63057920	25473968	24992
384	1.330989	93491200	63057920	27239136	24992
385	1.323481	93491200	63057920	29008320	24992
386	1.334318	93491200	63057920	30781296	24992
387	1.379903	93491200	63057920	16250320	24992
388	1.344772	93491200	63057920	18033792	24992
389	1.341369	93491200	63057920	19818696	24992
390	1.338517	93491200	63057920	21607632	24992
391	1.534361	93491200	63057920	23400432	24992
392	1.363034	93491200	63057920	25197760	24992
393	1.287304	93491200	63057920	26998424	24992
394	1.351434	93491200	63057920	28817272	24992
395	1.545691	93491200	63057920	30625840	24992
396	1.386222	93491200	63057920	16153248	24992
397	1.36663	93491200	63057920	17969640	24992
398	1.369262	93491200	63057920	19790008	24992
399	1.373979	93491200	63057920	21627392	24992
400	1.385458	93491200	63057920	23455608	24992
401	1.377751	93491200	63057920	25287968	24992
402	1.386195	93491200	63057920	27124168	24992
403	1.585384	93491200	63057920	28972816	24992
404	1.395657	93491200	63057920	30816768	24992
405	1.3977	93491200	63057920	16360824	24992
406	1.388187	93491200	63057920	18212544	24992
407	1.395063	93491200	63057920	20077416	24992
408	1.401833	93491200	63057920	21937112	24992
409	1.412815	93491200	63057920	23836504	24992
410	1.426378	93491200	63057920	25721512	24992
411	1.406839	93491200	63057920	27609520	24992
412	1.412124	93491200	63057920	29517472	24992
413	1.835652	93491200	63057920	15190936	24992
414	1.609673	93491200	63057920	17093272	24992
415	1.421507	93491200	63057920	18997104	24992
416	1.4233	93491200	63057920	20904840	24992
417	1.358582	93491200	63057920	22869400	24992
418	1.466326	93491200	63057920	24860096	24992
419	1.396554	93491200	63057920	26845408	24992
420	1.441159	93491200	63057920	28834768	24992
421	1.445367	93491200	63057920	30827840	24992
422	1.400312	93491200	63057920	16524856	24992
423	1.416126	93491200	63057920	18526056	24992
424	1.462908	93491200	63057920	20531176	24992
425	1.459229	93491200	63057920	22540104	24992
426	1.396303	93491200	63057920	24554496	24992
427	1.45627	93491200	63057920	26572000	24992
428	1.46465	93491200	63057920	28597344	24992
429	1.429752	93491200	63057920	30646152	24992
430	1.481223	93491200	63057920	16433632	24992
431	1.474308	93491200	63057920	18466384	24992
432	1.47466	93491200	63057920	20502880	24992
433	1.673575	93491200	63057920	22543520	24992
434	1.493732	93491200	63057920	24595544	24992
435	1.49778	93491200	63057920	26662008	24992
436	1.487778	93491200	63057920	28728616	24992
437	1.484181	93491200	63057920	30795080	24992
438	1.503155	93491200	63057920	16560800	24992
439	1.504707	93491200	63057920	18624928	24992
440	1.694034	93491200	63057920	20693016	24992
441	1.477496	93491200	63057920	22764992	24992
442	1.513791	93491200	63057920	24840928	24992
443	1.530073	93491200	63057920	26920792	24992
444	1.44937	93491200	63057920	29004672	24992
445	1.519928	93491200	63057920	31092504	24992
446	1.531754	93491200	63057920	16911616	24992
447	1.573575	93491200	63057920	19017536	24992
448	1.529528	93491200	63057920	21117272	24992
449	1.534081	93491200	63057920	23220720	24992
450	1.540253	93491200	63057920	25328152	24992
451	1.504297	93491200	63057920	27439568	24992
452	1.552003	93491200	63057920	29554792	24992
453	1.975128	93491200	63057920	15468984	24992
454	1.756848	93491200	63057920	17592176	24992
455	1.488993	93491200	63057920	19719328	24992
456	1.713526	93491200	63057920	21850440	24992
457	1.477108	93491200	63057920	23985408	24992
458	1.512772	93491200	63057920	26124336	24992
459	1.567803	93491200	63057920	28271056	24992
460	1.585188	93491200	63057920	30434424	24992
461	1.766445	93491200	63057920	16408936	24992
462	1.498537	93491200	63057920	18603448	24992
463	1.578826	93491200	63057920	20762096	24992
464	1.579791	93491200	63057920	22924728	24992
465	1.571826	93491200	63057920	25091168	24992
466	1.578853	93491200	63057920	27268832	24992
467	1.593287	93491200	63057920	29460008	24992
468	2.031148	93491200	63057920	15439432	24992
469	1.605967	93491200	63057920	17627352	24992
470	1.610592	93491200	63057920	19813544	24992
471	1.613057	93491200	63057920	22003688	24992
472	1.612827	93491200	63057920	24211824	24992
473	1.601705	93491200	63057920	26413328	24992
474	1.61314	93491200	63057920	28615280	24992
475	1.604987	93491200	63057920	30821120	24992
476	1.629924	93491200	63057920	16802080	24992
477	1.611836	93491200	63057920	19015704	24992
478	1.613085	93491200	63057920	21240248	24992
479	1.588723	93491200	63057920	23462016	24992
480	1.633403	93491200	63057920	25687528	24992
481	1.632147	93491200	63057920	27917024	24992
482	1.646051	93491200	63057920	30150512	24992
483	1.898731	93491200	63057920	16102640	24992
484	1.640586	93491200	63057920	18344032	24992
485	1.569652	93491200	63057920	20589208	24992
486	1.649153	93491200	63057920	22841800	24992
487	1.653043	93491200	63057920	25094968	24992
488	1.80703	93491200	63057920	27352032	24992
489	1.666934	93491200	63057920	29625864	24992
490	2.09714	93491200	63057920	15703624	24992
491	1.852638	93491200	63057920	17972584	24992
492	1.643243	93491200	63057920	20247960	24992
493	1.675626	93491200	63057920	22524768	24992
494	1.722173	93491200	63057920	24805480	24992
495	1.633382	93491200	63057920	27103360	24992
496	1.617428	93491200	63057920	29391920	24992
497	2.117513	93491200	63057920	15511848	24992
498	1.649425	93491200	63057920	17823304	24992
499	1.602121	93491200	63057920	20123768	24992
500	1.632258	93491200	63057920	22446432	24992
501	1.645236	93491200	63057920	24757264	24992
502	1.611618	93491200	63057920	27070680	24992
503	1.713933	93491200	63057920	29386872	24992
504	2.34324	93491200	63057920	15533560	24992
505	1.707737	93491200	63057920	17875960	24992
506	1.706249	93491200	63057920	20203952	24992
507	1.903994	93491200	63057920	22555408	24992
508	1.63219	93491200	63057920	24891240	24992
509	1.743069	93491200	63057920	27231552	24992
510	1.733002	93491200	63057920	29595496	24992
511	2.34174	93491200	63057920	15765648	24992
512	1.765034	93491200	63057920	18121104	24992
513	1.923951	93491200	63057920	20489944	24992
514	1.73357	93491200	63057920	22849448	24992
515	1.737217	93491200	63057920	25214856	24992
516	1.735368	93491200	63057920	27591128	24992
517	1.654656	93491200	63057920	29962552	24992
518	2.103291	93491200	63057920	16081000	24992
519	1.752579	93491200	63057920	18469760	24992
520	1.663524	93491200	63057920	20864136	24992
521	1.665023	93491200	63057920	23251176	24992
522	1.761974	93491200	63057920	25645744	24992
523	1.755412	93491200	63057920	28040672	24992
524	1.686961	93491200	63057920	30443048	24992
525	2.084621	93491200	63057920	16479216	24992
526	1.699423	93491200	63057920	18901848	24992
527	1.72909	93491200	63057920	21312616	24992
528	1.695543	93491200	63057920	23733864	24992
529	1.687565	93491200	63057920	26153680	24992
530	1.780024	93491200	63057920	28576136	24992
531	1.802111	93491200	63057920	31018768	24992
532	1.79601	93491200	63057920	17246480	24992
533	1.710606	93491200	63057920	19687944	24992
534	1.716485	93491200	63057920	22128376	24992
535	1.775126	93491200	63057920	24571136	24992
536	1.794696	93491200	63057920	27017208	24992
537	1.809562	93491200	63057920	29468368	24992
538	2.252583	93491200	63057920	15768104	24992
539	1.815639	93491200	63057920	18226472	24992
540	1.817319	93491200	63057920	20690240	24992
541	1.741042	93491200	63057920	23156272	24992
542	1.806256	93491200	63057920	25640136	24992
543	1.822514	93491200	63057920	28113848	24992
544	1.798186	93491200	63057920	30598288	24992
545	1.846782	93491200	63057920	16720224	24992
546	1.836894	93491200	63057920	19218648	24992
547	1.793543	93491200	63057920	21729152	24992
548	1.83993	93491200	63057920	24223744	24992
549	1.838828	93491200	63057920	26722688	24992
550	1.758258	93491200	63057920	29223976	24992
551	1.837824	93491200	63057920	31729904	24992
552	1.852319	93491200	63057920	17906120	24992
553	1.849604	93491200	63057920	20419328	24992
554	1.848172	93491200	63057920	22957864	24992
555	1.788017	93491200	63057920	25483984	24992
556	1.783885	93491200	63057920	28036152	24992
557	1.870609	93491200	63057920	30605448	24992
558	1.876544	93491200	63057920	16831456	24992
559	1.886903	93491200	63057920	19423432	24992
560	1.884413	93491200	63057920	22007584	24992
561	2.055985	93491200	63057920	24591592	24992
562	1.897176	93491200	63057920	27175712	24992
563	1.895985	93491200	63057920	29776424	24992
564	2.591553	93491200	63057920	16179352	24992
565	1.905474	93491200	63057920	18778416	24992
566	1.906043	93491200	63057920	21377880	24992
567	1.918813	93491200	63057920	23983336	24992
568	1.811935	93491200	63057920	26589568	24992
569	1.910497	93491200	63057920	29207704	24992
570	1.871482	93491200	63057920	31822000	24992
571	1.916647	93491200	63057920	18108920	24992
572	1.866842	93491200	63057920	20748600	24992
573	1.827093	93491200	63057920	23375448	24992
574	1.826949	93491200	63057920	26011288	24992
575	1.830477	93491200	63057920	28650160	24992
576	1.917382	93491200	63057920	31287920	24992
577	1.942607	93491200	63057920	17707616	24992
578	2.141474	93491200	63057920	20353192	24992
579	1.941565	93491200	63057920	23010672	24992
580	1.955215	93491200	63057920	25664168	24992
581	2.114788	93491200	63057920	28321688	24992
582	1.952077	93491200	63057920	31008264	24992
583	1.890153	93491200	63057920	17529352	24992
584	2.15017	93491200	63057920	20201896	24992
585	1.955255	93491200	63057920	22894520	24992
586	1.960963	93491200	63057920	25575240	24992
587	1.912573	93491200	63057920	28256488	24992
588	1.960035	93491200	63057920	30943392	24992
589	2.174344	93491200	63057920	17495592	24992
590	1.987432	93491200	63057920	20188544	24992
591	1.980926	93491200	63057920	22885368	24992
592	1.989414	93491200	63057920	25586248	24992
593	1.984788	93491200	63057920	28290984	24992
594	1.988403	93491200	63057920	30999600	24992
595	1.99609	93491200	63057920	17574752	24992
596	1.99083	93491200	63057920	20294344	24992
597	2.007337	93491200	63057920	23018432	24992
598	1.918757	93491200	63057920	25744472	24992
599	2.009128	93491200	63057920	28472736	24992
600	2.184318	93491200	63057920	31205184	24992
601	2.020739	93491200	63057920	17805752	24992
602	2.011928	93491200	63057920	20546072	24992
603	1.923702	93491200	63057920	23303032	24992
604	2.014448	93491200	63057920	26050984	24992
605	2.104417	93491200	63057920	28803880	24992
606	1.934957	93491200	63057920	31567808	24992
607	2.036832	93491200	63057920	18083224	24992
608	2.188293	93491200	63057920	20852336	24992
609	2.040156	93491200	63057920	23620192	24992
610	2.0485	93491200	63057920	26391888	24992
611	1.941268	93491200	63057920	29174536	24992
612	2.219327	93491200	63057920	31969592	24992
613	2.083359	93491200	63057920	18468712	24992
614	2.010931	93491200	63057920	21256200	24992
615	2.057791	93491200	63057920	24049760	24992
616	2.212659	93491200	63057920	26845280	24992
617	2.055499	93491200	63057920	29660416	24992
618	2.518851	93491200	63057920	16339648	24992
619	2.070489	93491200	63057920	19156000	24992
620	2.069473	93491200	63057920	21967520	24992
621	2.243353	93491200	63057920	24785384	24992
622	2.036823	93491200	63057920	27628616	24992
623	2.034814	93491200	63057920	30456776	24992
624	2.441491	93491200	63057920	17046864	24992
625	2.082848	93491200	63057920	19878104	24992
626	2.269098	93491200	63057920	22712936	24992
627	2.101964	93491200	63057920	25555832	24992
628	2.097431	93491200	63057920	28398488	24992
629	2.128338	93491200	63057920	31245520	24992
630	2.105865	93491200	63057920	17975720	24992
631	2.099067	93491200	63057920	20832416	24992
632	2.070398	93491200	63057920	23694496	24992
633	2.116465	93491200	63057920	26556864	24992
634	2.311473	93491200	63057920	29426752	24992
635	2.576493	93491200	63057920	16189272	24992
636	2.120392	93491200	63057920	19078984	24992
637	2.120699	93491200	63057920	21957072	24992
638	2.130274	93491200	63057920	24840016	24992
639	2.402707	93491200	63057920	27740736	24992
640	2.125942	93491200	63057920	30636432	24992
641	2.43718	93491200	63057920	17244632	24992
642	2.133274	93491200	63057920	20144552	24992
643	2.144347	93491200	63057920	23046200	24992
644	2.318816	93491200	63057920	25959456	24992
645	2.150554	93491200	63057920	28868896	24992
646	2.146835	93491200	63057920	31782360	24992
647	2.064903	93491200	63057920	18472032	24992
648	2.165838	93491200	63057920	21393472	24992
649	2.352056	93491200	63057920	24349616	24992
650	2.095902	93491200	63057920	27288976	24992
651	2.160135	93491200	63057920	30222296	24992
652	2.532044	93491200	63057920	16930736	24992
653	2.073138	93491200	63057920	19879624	24992
654	2.183687	93491200	63057920	22852832	24992
655	2.185021	93491200	63057920	25803440	24992
656	2.177468	93491200	63057920	28756352	24992
657	2.080125	93491200	63057920	31720312	24992
658	2.195236	93491200	63057920	18478192	24992
659	2.363684	93491200	63057920	21465784	24992
660	2.202278	93491200	63057920	24438800	24992
661	2.187728	93491200	63057920	27411360	24992
662	2.194432	93491200	63057920	30387808	24992
663	2.570576	93491200	63057920	17145536	24992
664	2.409289	93491200	63057920	20154688	24992
665	2.368667	93491200	63057920	23143008	24992
666	2.211001	93491200	63057920	26147968	24992
667	2.112875	93491200	63057920	29148744	24992
668	2.225728	93491200	63057920	32148992	24992
669	2.230846	93491200	63057920	18927872	24992
670	2.225668	93491200	63057920	21952816	24992
671	2.415513	93491200	63057920	24964816	24992
672	2.258083	93491200	63057920	27982840	24992
673	2.226459	93491200	63057920	31008096	24992
674	2.196298	93491200	63057920	17958968	24992
675	2.2476	93491200	63057920	20988304	24992
676	2.263108	93491200	63057920	24043480	24992
677	2.255466	93491200	63057920	27079184	24992
678	2.252207	93491200	63057920	30118720	24992
679	2.611395	93491200	63057920	16970600	24992
680	2.264155	93491200	63057920	20023080	24992
681	2.367062	93491200	63057920	23079952	24992
682	2.201728	93491200	63057920	26156456	24992
683	2.272207	93491200	63057920	29226040	24992
684	2.278054	93491200	63057920	32307056	24992
685	2.283803	93491200	63057920	19094376	24992
686	2.268551	93491200	63057920	22194072	24992
687	2.243149	93491200	63057920	25291752	24992
688	2.445629	93491200	63057920	28389432	24992
689	2.273287	93491200	63057920	31495448	24992
690	2.499433	93491200	63057920	18509072	24992
691	2.301595	93491200	63057920	21634192	24992
692	2.29868	93491200	63057920	24748312	24992
693	2.20084	93491200	63057920	27890080	24992
694	2.195948	93491200	63057920	31013416	24992
695	2.4213	93491200	63057920	17792312	24992
696	2.25634	93491200	63057920	20921296	24992
697	2.307815	93491200	63057920	24052264	24992
698	2.267144	93491200	63057920	27187032	24992
699	2.323539	93491200	63057920	30346032	24992
700	2.627974	93491200	63057920	17280536	24992
701	2.320255	93491200	63057920	20443928	24992
702	2.505239	93491200	63057920	23599528	24992
703	2.39979	93491200	63057920	26766576	24992
704	2.331205	93491200	63057920	29925112	24992
705	2.688399	93491200	63057920	16999688	24992
706	2.343039	93491200	63057920	20166048	24992
707	2.339171	93491200	63057920	23347848	24992
708	2.372531	93491200	63057920	26522144	24992
709	2.521959	93491200	63057920	29706864	24992
710	2.743747	93491200	63057920	16818200	24992
711	2.226106	93491200	63057920	20006904	24992
712	2.367055	93491200	63057920	23221080	24992
713	2.361648	93491200	63057920	26441920	24992
714	2.258417	93491200	63057920	29639648	24992
715	2.858909	93491200	63057920	16766840	24992
716	2.500901	93491200	63057920	19972424	24992
717	2.250258	93491200	63057920	23183904	24992
718	2.558751	93491200	63057920	26399224	24992
719	2.275961	93491200	63057920	29626800	24992
720	2.825136	93491200	63057920	16776344	24992
721	2.307341	93491200	63057920	20001768	24992
722	2.386974	93491200	63057920	23232288	24992
723	2.510642	93491200	63057920	26465664	24992
724	2.393953	93491200	63057920	29702848	24992
725	3.024745	93491200	63057920	16874584	24992
726	2.345953	93491200	63057920	20120960	24992
727	2.42181	93491200	63057920	23370496	24992
728	2.413153	93491200	63057920	26626104	24992
729	2.336786	93491200	63057920	29883024	24992
730	2.908198	93491200	63057920	17078440	24992
731	2.425826	93491200	63057920	20353800	24992
732	2.370662	93491200	63057920	23630288	24992
733	2.320825	93491200	63057920	26903184	24992
734	2.587638	93491200	63057920	30187016	24992
735	2.846567	93491200	63057920	17272416	24992
736	2.625357	93491200	63057920	20561704	24992
737	2.437953	93491200	63057920	23851608	24992
738	2.317467	93491200	63057920	27177256	24992
739	2.449124	93491200	63057920	30473616	24992
740	2.691677	93491200	63057920	17574632	24992
741	2.386323	93491200	63057920	20881424	24992
742	2.460554	93491200	63057920	24202024	24992
743	2.566596	93491200	63057920	27514176	24992
744	2.352791	93491200	63057920	30847032	24992
745	2.805924	93491200	63057920	17907368	24992
746	2.423223	93491200	63057920	21231272	24992
747	2.466543	93491200	63057920	24559176	24992
748	2.474719	93491200	63057920	27890896	24992
749	2.466422	93491200	63057920	31226720	24992
750	2.376146	93491200	63057920	18507472	24992
751	2.363314	93491200	63057920	21857800	24992
752	2.481822	93491200	63057920	25233520	24992
753	2.49135	93491200	63057920	28587464	24992
754	2.644256	93491200	63057920	31949000	24992
755	2.498407	93491200	63057920	19130336	24992
756	2.649347	93491200	63057920	22496920	24992
757	2.489783	93491200	63057920	25864792	24992
758	2.40001	93491200	63057920	29235848	24992
759	2.506619	93491200	63057920	32610968	24992
760	2.501523	93491200	63057920	19753152	24992
761	2.41133	93491200	63057920	23143712	24992
762	2.502211	93491200	63057920	26530728	24992
763	2.500016	93491200	63057920	29927192	24992
764	2.939487	93491200	63057920	17274248	24992
765	2.518235	93491200	63057920	20673432	24992
766	2.525042	93491200	63057920	24093000	24992
767	2.650875	93491200	63057920	27499656	24992
768	2.536433	93491200	63057920	30918688	24992
769	3.014806	93491200	63057920	18078024	24992
770	2.538926	93491200	63057920	21503488	24992
771	2.554516	93491200	63057920	24926688	24992
772	2.545644	93491200	63057920	28369272	24992
773	2.735155	93491200	63057920	31813992	24992
774	2.551809	93491200	63057920	19213984	24992
775	2.838211	93491200	63057920	22652352	24992
776	2.444445	93491200	63057920	26103480	24992
777	2.556454	93491200	63057920	29576664	24992
778	3.038937	93491200	63057920	17002168	24992
779	2.565731	93491200	63057920	20455976	24992
780	2.571258	93491200	63057920	23932896	24992
781	2.460193	93491200	63057920	27406880	24992
782	2.586021	93491200	63057920	30905208	24992
783	2.83564	93491200	63057920	18170736	24992
784	2.475839	93491200	63057920	21650376	24992
785	2.549577	93491200	63057920	25127864	24992
786	2.5818	93491200	63057920	28627440	24992
787	2.592599	93491200	63057920	32137344	24992
788	2.616214	93491200	63057920	19477200	24992
789	2.594762	93491200	63057920	22997112	24992
790	2.735718	93491200	63057920	26501112	24992
791	2.615948	93491200	63057920	30002632	24992
792	3.351748	93491200	63057920	17513872	24992
793	2.50773	93491200	63057920	21024048	24992
794	2.630734	93491200	63057920	24540872	24992
795	2.616473	93491200	63057920	28087832	24992
796	2.781631	93491200	63057920	31608616	24992
797	2.630216	93491200	63057920	19123864	24992
798	2.765052	93491200	63057920	22652624	24992
799	2.572079	93491200	63057920	26197912	24992
800	2.647861	93491200	63057920	29737272	24992
801	3.195649	93491200	63057920	17308984	24992
802	2.813908	93491200	63057920	20853440	24992
803	2.520811	93491200	63057920	24414464	24992
804	3.031404	93491200	63057920	28002688	24992
805	2.656432	93491200	63057920	31558904	24992
806	2.675544	93491200	63057920	19109256	24992
807	2.662641	93491200	63057920	22689784	24992
808	2.865034	93491200	63057920	26288304	24992
809	2.609959	93491200	63057920	29860328	24992
810	3.385877	93491200	63057920	17430776	24992
811	2.54378	93491200	63057920	21037824	24992
812	2.60669	93491200	63057920	24650064	24992
813	2.822835	93491200	63057920	28262336	24992
814	2.67083	93491200	63057920	31874576	24992
815	2.699763	93491200	63057920	19468760	24992
816	2.678808	93491200	63057920	23073768	24992
817	2.651172	93491200	63057920	26686936	24992
818	2.555346	93491200	63057920	30300168	24992
819	3.22009	93491200	63057920	17814328	24992
820	2.687242	93491200	63057920	21447744	24992
821	2.588762	93491200	63057920	25077568	24992
822	2.696721	93491200	63057920	28703288	24992
823	2.602329	93491200	63057920	32332096	24992
824	2.704255	93491200	63057920	19840472	24992
825	2.896746	93491200	63057920	23475648	24992
826	2.709968	93491200	63057920	27114752	24992
827	2.594536	93491200	63057920	30795456	24992
828	3.187447	93491200	63057920	18292784	24992
829	2.722241	93491200	63057920	21960152	24992
830	2.718715	93491200	63057920	25654456	24992
831	2.731509	93491200	63057920	29334144	24992
832	2.76049	93491200	63057920	33060840	24992
833	2.741077	93491200	63057920	20557568	24992
834	2.939317	93491200	63057920	24260712	24992
835	2.747915	93491200	63057920	27959560	24992
836	2.753376	93491200	63057920	31654296	24992
837	2.763675	93491200	63057920	19373232	24992
838	3.148621	93491200	63057920	23108912	24992
839	2.764742	93491200	63057920	26922464	24992
840	2.922095	93491200	63057920	30698584	24992
841	3.092222	93491200	63057920	18332072	24992
842	2.712438	93491200	63057920	22117176	24992
843	2.747149	93491200	63057920	25922104	24992
844	2.945776	93491200	63057920	29714080	24992
845	3.395149	93491200	63057920	17539856	24992
846	2.910827	93491200	63057920	21361632	24992
847	2.671373	93491200	63057920	25165440	24992
848	2.66059	93491200	63057920	28978552	24992
849	2.80035	93491200	63057920	32790280	24992
850	2.964911	93491200	63057920	20518000	24992
851	2.796174	93491200	63057920	24401376	24992
852	2.681252	93491200	63057920	28276576	24992
853	2.678003	93491200	63057920	32180448	24992
854	2.7594	93491200	63057920	20110336	24992
855	2.814413	93491200	63057920	24008176	24992
856	2.756972	93491200	63057920	27899048	24992
857	2.820168	93491200	63057920	31804464	24992
858	2.70149	93491200	63057920	19758592	24992
859	2.749608	93491200	63057920	23661408	24992
860	2.698045	93491200	63057920	27609840	24992
861	2.708776	93491200	63057920	31520432	24992
862	2.845296	93491200	63057920	19167248	24992
863	2.82295	93491200	63057920	23100784	24992
864	2.844079	93491200	63057920	27052952	24992
865	2.699648	93491200	63057920	30979280	24992
866	3.229866	93491200	63057920	18780176	24992
867	3.041974	93491200	63057920	22718328	24992
868	2.849467	93491200	63057920	26681680	24992
869	3.025706	93491200	63057920	30623768	24992
870	3.379526	93491200	63057920	18435368	24992
871	2.870467	93491200	63057920	22385280	24992
872	2.867398	93491200	63057920	26339264	24992
873	3.030296	93491200	63057920	30319824	24992
874	3.514035	93491200	63057920	18246944	24992
875	2.798254	93491200	63057920	22220728	24992
876	2.867952	93491200	63057920	26206216	24992
877	2.885238	93491200	63057920	30179712	24992
878	3.649358	93491200	63057920	18206448	24992
879	2.889611	93491200	63057920	22194976	24992
880	3.10663	93491200	63057920	26220240	24992
881	2.755722	93491200	63057920	30209592	24992
882	3.607524	93491200	63057920	18253888	24992
883	2.891823	93491200	63057920	22263464	24992
884	2.878871	93491200	63057920	26292376	24992
885	3.087383	93491200	63057920	30327288	24992
886	3.628543	93491200	63057920	18331680	24992
887	2.771936	93491200	63057920	22344688	24992
888	2.767904	93491200	63057920	26393416	24992
889	2.924366	93491200	63057920	30455184	24992
890	3.531109	93491200	63057920	18406104	24992
891	3.073111	93491200	63057920	22434896	24992
892	3.084714	93491200	63057920	26470232	24992
893	3.06142	93491200	63057920	30519624	24992
894	3.55356	93491200	63057920	18499784	24992
895	3.081122	93491200	63057920	22544432	24992
896	2.876296	93491200	63057920	26592848	24992
897	3.000823	93491200	63057920	30652528	24992
898	3.519088	93491200	63057920	18594824	24992
899	2.806357	93491200	63057920	22655232	24992
900	2.95887	93491200	63057920	26719480	24992
901	2.877615	93491200	63057920	30792472	24992
902	3.511886	93491200	63057920	18738944	24992
903	2.965025	93491200	63057920	22868688	24992
904	3.309583	93491200	63057920	26996544	24992
905	2.954424	93491200	63057920	31125512	24992
906	3.74929	93491200	63057920	19126624	24992
907	2.970296	93491200	63057920	23218440	24992
908	2.967377	93491200	63057920	27314208	24992
909	2.978164	93491200	63057920	31413816	24992
910	3.525918	93491200	63057920	19336368	24992
911	2.97587	93491200	63057920	23451856	24992
912	2.858265	93491200	63057920	27580608	24992
913	2.998751	93491200	63057920	31717736	24992
914	3.009305	93491200	63057920	19631376	24992
915	3.182589	93491200	63057920	23754688	24992
916	3.004606	93491200	63057920	27881832	24992
917	2.930963	93491200	63057920	32012936	24992
918	3.017156	93491200	63057920	20212968	24992
919	2.999202	93491200	63057920	24352040	24992
920	3.195017	93491200	63057920	28495072	24992
921	3.008284	93491200	63057920	32665056	24992
922	3.159378	93491200	63057920	20828536	24992
923	3.022382	93491200	63057920	25005104	24992
924	3.020919	93491200	63057920	29193232	24992
925	3.028822	93491200	63057920	33369120	24992
926	3.030373	93491200	63057920	21423520	24992
927	3.023274	93491200	63057920	25632944	24992
928	2.888888	93491200	63057920	29831520	24992
929	3.743001	93491200	63057920	18084320	24992
930	3.043114	93491200	63057920	22266848	24992
931	3.161805	93491200	63057920	26453248	24992
932	3.040606	93491200	63057920	30643536	24992
933	3.558809	93491200	63057920	18791424	24992
934	2.896399	93491200	63057920	22993832	24992
935	3.060847	93491200	63057920	27200104	24992
936	3.272791	93491200	63057920	31446824	24992
937	3.68942	93491200	63057920	19541448	24992
938	3.177079	93491200	63057920	23756800	24992
939	2.922647	93491200	63057920	27974632	24992
940	2.934058	93491200	63057920	32196416	24992
941	3.240037	93491200	63057920	20527920	24992
942	3.08946	93491200	63057920	24805488	24992
943	3.278863	93491200	63057920	29039080	24992
944	3.07778	93491200	63057920	33276728	24992
945	3.096306	93491200	63057920	21401312	24992
946	3.019371	93491200	63057920	25697464	24992
947	3.103034	93491200	63057920	29996792	24992
948	3.878662	93491200	63057920	18333784	24992
949	3.031275	93491200	63057920	22631560	24992
950	3.104297	93491200	63057920	26934072	24992
951	2.956844	93491200	63057920	31199256	24992
952	3.939503	93491200	63057920	19357496	24992
953	3.130897	93491200	63057920	23630624	24992
954	3.119243	93491200	63057920	27907584	24992
955	3.113442	93491200	63057920	32195136	24992
956	3.12366	93491200	63057920	20564160	24992
957	3.261263	93491200	63057920	24865200	24992
958	3.122147	93491200	63057920	29157824	24992
959	3.263914	93491200	63057920	33458704	24992
960	3.130026	93491200	63057920	21684952	24992
961	3.018168	93491200	63057920	26015808	24992
962	3.211859	93491200	63057920	30324200	24992
963	3.923308	93491200	63057920	18735808	24992
964	3.421158	93491200	63057920	23052144	24992
965	3.319221	93491200	63057920	27390336	24992
966	3.115291	93491200	63057920	31726168	24992
967	3.966025	93491200	63057920	19853440	24992
968	3.155719	93491200	63057920	24185480	24992
969	3.162434	93491200	63057920	28522624	24992
970	3.130584	93491200	63057920	32862688	24992
971	3.18719	93491200	63057920	21290504	24992
972	3.367985	93491200	63057920	25649576	24992
973	3.171774	93491200	63057920	30045320	24992
974	3.872118	93491200	63057920	18509744	24992
975	3.183507	93491200	63057920	22876928	24992
976	3.186651	93491200	63057920	27245272	24992
977	3.302582	93491200	63057920	31635824	24992
978	3.913408	93491200	63057920	19908760	24992
979	3.2091	93491200	63057920	24284200	24992
980	3.206574	93491200	63057920	28668776	24992
981	3.199437	93491200	63057920	33052064	24992
982	3.408194	93491200	63057920	21413368	24992
983	3.135445	93491200	63057920	25804488	24992
984	3.084675	93491200	63057920	30201168	24992
985	4.009043	93491200	63057920	18699416	24992
986	3.222881	93491200	63057920	23127088	24992
987	3.415238	93491200	63057920	27559456	24992
988	3.217734	93491200	63057920	31982112	24992
989	3.941083	93491200	63057920	20128952	24992
990	3.231177	93491200	63057920	24552608	24992
991	3.236936	93491200	63057920	28975352	24992
992	3.467263	93491200	63057920	33408672	24992
993	3.222368	93491200	63057920	21741408	24992
994	3.359791	93491200	63057920	26175816	24992
995	3.104024	93491200	63057920	30614208	24992
996	4.148773	93491200	63057920	19201000	24992
997	3.409524	93491200	63057920	23647456	24992
998	3.102654	93491200	63057920	28097720	24992
999	3.146595	93491200	63057920	32579072	24992
1000	3.266612	93491200	63057920	21146200	24992
