x	Duration	RSS	HeapTotal	HeapUsed	External
0	NA	92614656	62009344	12498680	24992
1	0.293109	92614656	62009344	12547120	24992
2	0.227849	92614656	62009344	12618736	24992
3	0.137562	92614656	62009344	12723808	24992
4	0.138275	92614656	62009344	12814688	24992
5	0.143602	92614656	62009344	12909352	24992
6	0.145983	92614656	62009344	13008424	24992
7	0.156451	92614656	62009344	13111912	24992
8	0.156375	92614656	62009344	13219176	24992
9	0.160108	92614656	62009344	13330216	24992
10	0.165923	92614656	62009344	13445056	24992
11	0.171077	92614656	62009344	13563632	24992
12	0.174781	92614656	62009344	13688240	24992
13	0.176563	92614656	62009344	13817776	24992
14	0.184415	92614656	62009344	13951128	24992
15	0.190359	92614656	62009344	14088208	24992
16	0.192577	92614656	62009344	14229064	24992
17	0.538909	92614656	62009344	14374800	24992
18	0.217446	92614656	62009344	14524664	24992
19	0.215145	92614656	62009344	14678280	24992
20	0.216531	92614656	62009344	14835296	24992
21	0.238213	92614656	62009344	14996192	24992
22	0.261425	92614656	62009344	15164520	24992
23	0.242923	92614656	62009344	15335128	24992
24	0.228807	92614656	62009344	15507024	24992
25	0.225356	92614656	62009344	15684816	24992
26	0.224692	92614656	62009344	15868560	24992
27	0.228628	92614656	62009344	16056120	24992
28	0.232307	92614656	62009344	16247384	24992
29	0.236566	92614656	62009344	16442424	24992
30	0.241294	92614656	62009344	16641448	24992
31	0.244285	92614656	62009344	16844032	24992
32	0.504352	92614656	62009344	17050392	24992
33	0.19661	92614656	62009344	17260536	24992
34	0.19691	92614656	62009344	17476560	24992
35	0.200985	92614656	62009344	17697056	24992
36	0.205525	92614656	62009344	17920600	24992
37	0.207308	92614656	62009344	18147984	24992
38	0.21115	92614656	62009344	18379072	24992
39	0.212751	92614656	62009344	18613936	24992
40	0.390461	92614656	62009344	18852664	24992
41	0.223294	92614656	62009344	19095080	24992
42	0.225753	92614656	62009344	19341384	24992
43	0.225833	92614656	62009344	19593448	24992
44	0.22826	92614656	62009344	19850752	24992
45	0.232368	92614656	62009344	20111024	24992
46	0.236868	92614656	62009344	20374400	24992
47	0.238648	92614656	62009344	20641544	24992
48	0.397721	92614656	62009344	20912488	24992
49	0.246061	92614656	62009344	21187184	24992
50	0.248378	92614656	62009344	21465720	24992
51	0.270691	92614656	62009344	21752144	24992
52	0.256295	92614656	62009344	22046504	24992
53	0.258616	92614656	62009344	22344744	24992
54	0.493864	92614656	62009344	22646736	24992
55	0.302275	92614656	62009344	22953328	24992
56	0.329063	92614656	62009344	23262864	24992
57	0.274695	92614656	62009344	23576952	24992
58	0.27489	92614656	62009344	23894128	24992
59	0.273319	92614656	62009344	24214976	24992
60	0.277116	92614656	62009344	24539592	24992
61	0.281295	92614656	62009344	24868024	24992
62	0.282161	92614656	62009344	25200184	24992
63	0.284885	92614656	62009344	25536176	24992
64	0.28661	92614656	62009344	25875880	24992
65	0.290195	92614656	62009344	26219368	24992
66	0.292865	92614656	62009344	26566624	24992
67	0.304418	92614656	62009344	26917640	24992
68	0.298392	92614656	62009344	27272448	24992
69	0.302874	92614656	62009344	27631008	24992
70	0.307671	92614656	62009344	27993416	24992
71	0.30836	92614656	62009344	28359512	24992
72	0.309479	92614656	62009344	28729408	24992
73	1.218491	92614656	62009344	12965080	24992
74	0.345235	92614656	62009344	13342776	24992
75	0.349523	92614656	62009344	13724048	24992
76	0.332934	92614656	62009344	14108992	24992
77	0.338635	92614656	62009344	14501912	24992
78	0.359414	92614656	62009344	14898576	24992
79	0.33397	92614656	62009344	15299088	24992
80	0.335147	92614656	62009344	15703288	24992
81	0.339879	92614656	62009344	16111352	24992
82	0.340673	92614656	62009344	16523192	24992
83	0.347179	92614656	62009344	16938728	24992
84	0.346994	92614656	62009344	17359144	24992
85	0.35533	92614656	62009344	17782192	24992
86	0.353418	92614656	62009344	18209048	24992
87	0.357269	92614656	62009344	18639680	24992
88	0.387952	92614656	62009344	19074088	24992
89	0.365103	92614656	62009344	19512320	24992
90	0.369458	92614656	62009344	19954248	24992
91	0.371796	92614656	62009344	20399928	24992
92	0.3719	92614656	62009344	20849384	24992
93	0.4002	92614656	62009344	21302648	24992
94	0.378015	92614656	62009344	21759680	24992
95	0.382683	92614656	62009344	22220488	24992
96	0.384648	92614656	62009344	22689224	24992
97	0.417542	92614656	62009344	23161792	24992
98	0.393733	92614656	62009344	23638040	24992
99	0.394577	92614656	62009344	24118152	24992
100	0.397586	92614656	62009344	24601960	24992
101	0.400041	92614656	62009344	25089504	24992
102	0.686879	92614656	62009344	25580928	24992
103	0.408133	92614656	62009344	26076032	24992
104	0.41089	92614656	62009344	26583232	24992
105	0.412791	92614656	62009344	27102560	24992
106	0.426127	92614656	62009344	27625704	24992
107	0.451387	92614656	62009344	28153448	24992
108	0.423112	92614656	62009344	28684064	24992
109	0.425434	92614656	62009344	29218432	24992
110	0.464275	92614656	62009344	13554888	24992
111	0.464333	92614656	62009344	14096816	24992
112	0.465479	92614656	62009344	14642536	24992
113	0.46707	92614656	62009344	15192080	24992
114	0.448349	92614656	62009344	15747776	24992
115	0.442712	92614656	62009344	16306136	24992
116	0.452323	92614656	62009344	16866936	24992
117	0.447354	92614656	62009344	17431528	24992
118	0.450861	92614656	62009344	18002408	24992
119	0.452693	92614656	62009344	18574568	24992
120	0.454909	92614656	62009344	19150448	24992
121	0.458446	92614656	62009344	19730128	24992
122	0.464424	92614656	62009344	20313568	24992
123	0.466806	92614656	62009344	20900720	24992
124	0.470739	92614656	62009344	21491696	24992
125	0.469789	92614656	62009344	22086424	24992
126	0.478905	92614656	62009344	22687504	24992
127	0.479519	92614656	62009344	23289824	24992
128	0.481307	92614656	62009344	23895848	24992
129	0.497261	92614656	62009344	24505728	24992
130	0.489734	92614656	62009344	25119312	24992
131	0.489888	92614656	62009344	25736672	24992
132	0.526395	92614656	62009344	26357792	24992
133	0.497209	92614656	62009344	26984312	24992
134	0.498641	92614656	62009344	27613024	24992
135	0.50118	92614656	62009344	28246056	24992
136	0.505116	92614656	62009344	28882304	24992
137	0.99344	92614656	62009344	13250728	24992
138	0.522025	92614656	62009344	13894472	24992
139	0.517789	92614656	62009344	14542064	24992
140	0.520206	92614656	62009344	15193456	24992
141	0.521804	92614656	62009344	15848584	24992
142	0.523698	92614656	62009344	16509304	24992
143	0.732484	92614656	62009344	17171920	24992
144	0.531639	92614656	62009344	17838328	24992
145	0.535622	92614656	62009344	18508480	24992
146	0.702825	92614656	62009344	19182432	24992
147	0.541889	92614656	62009344	19860224	24992
148	0.543576	92614656	62009344	20541688	24992
149	0.566155	92614656	62009344	21226880	24992
150	0.548584	92614656	62009344	21915992	24992
151	0.549009	92614656	62009344	22608800	24992
152	0.5506	92614656	62009344	23305328	24992
153	0.563345	92614656	62009344	24005696	24992
154	0.561006	92614656	62009344	24709824	24992
155	0.564127	92614656	62009344	25417648	24992
156	0.770891	92614656	62009344	26129272	24992
157	0.572658	92614656	62009344	26844640	24992
158	0.574101	92614656	62009344	27563792	24992
159	0.583185	92614656	62009344	28286728	24992
160	0.577669	92614656	62009344	29013464	24992
161	1.042073	92614656	62009344	13454128	24992
162	0.62577	92614656	62009344	14188408	24992
163	0.597501	92614656	62009344	14926488	24992
164	0.590035	92614656	62009344	15676520	24992
165	0.789752	92614656	62009344	16430328	24992
166	0.600379	92614656	62009344	17190384	24992
167	0.602324	92614656	62009344	17951736	24992
168	0.62784	92614656	62009344	18716856	24992
169	0.605809	92614656	62009344	19485896	24992
170	0.605985	92614656	62009344	20259488	24992
171	0.611776	92614656	62009344	21036096	24992
172	0.609288	92614656	62009344	21816360	24992
173	0.617113	92614656	62009344	22600424	24992
174	0.838896	92614656	62009344	23388232	24992
175	0.657049	92614656	62009344	24182536	24992
176	0.653818	92614656	62009344	24983304	24992
177	0.630145	92614656	62009344	25783648	24992
178	0.631831	92614656	62009344	26586584	24992
179	0.641012	92614656	62009344	27393208	24992
180	0.633105	92614656	62009344	28203608	24992
181	0.640867	92614656	62009344	29017752	24992
182	1.265878	92614656	62009344	13540584	24992
183	0.687609	92614656	62009344	14362304	24992
184	0.688613	92614656	62009344	15187776	24992
185	0.692026	92614656	62009344	16017072	24992
186	0.694059	92614656	62009344	16850064	24992
187	0.708327	92614656	62009344	17688024	24992
188	0.703498	92614656	62009344	18528560	24992
189	0.704977	92614656	62009344	19372992	24992
190	0.705471	92614656	62009344	20221144	24992
191	0.675483	92614656	62009344	21073136	24992
192	0.68416	92614656	62009344	21928784	24992
193	0.808928	92614656	62009344	22789112	24992
194	0.704312	92614656	62009344	23652304	24992
195	0.732807	92614656	62009344	24519224	24992
196	0.689399	92614656	62009344	25390992	24992
197	0.692678	92614656	62009344	26265560	24992
198	0.703061	92614656	62009344	27143816	24992
199	0.693871	92614656	62009344	28025840	24992
200	0.708739	92614656	62009344	28911656	24992
201	0.700232	92614656	62009344	29809472	24992
202	0.762112	92614656	62009344	14358344	24992
203	0.751255	92614656	62009344	15263816	24992
204	0.748134	92614656	62009344	16180192	24992
205	0.741987	92614656	62009344	17093168	24992
206	0.716206	92614656	62009344	18013848	24992
207	0.728899	92614656	62009344	18934296	24992
208	0.720631	92614656	62009344	19858616	24992
209	0.720507	92614656	62009344	20803144	24992
210	0.72669	92614656	62009344	21768016	24992
211	0.731216	92614656	62009344	22736584	24992
212	0.896327	92614656	62009344	23713224	24992
213	0.736168	92614656	62009344	24690632	24992
214	0.738522	92614656	62009344	25670544	24992
215	0.746288	92614656	62009344	26654264	24992
216	0.743939	92614656	62009344	27641784	24992
217	0.804963	92614656	62009344	28633040	24992
218	0.7476	92614656	62009344	29629440	24992
219	0.945393	92614656	62009344	14320496	24992
220	0.767302	92614656	62009344	15322984	24992
221	0.806293	92614656	62009344	16329288	24992
222	0.769656	92614656	62009344	17340832	24992
223	0.763021	92614656	62009344	18357424	24992
224	0.844008	92614656	62009344	19383224	24992
225	0.771889	92614656	62009344	20404608	24992
226	0.946607	92614656	62009344	21429784	24992
227	0.781736	92614656	62009344	22459360	24992
228	0.782801	92614656	62009344	23492056	24992
229	0.782519	92614656	62009344	24531376	24992
230	0.787864	92614656	62009344	25571592	24992
231	0.790769	92614656	62009344	26623424	24992
232	0.789961	92614656	62009344	27672536	24992
233	0.8088	92614656	62009344	28730752	24992
234	0.802341	92614656	62009344	29786056	24992
235	0.863385	92614656	62009344	14509600	24992
236	0.852268	92614656	62009344	15576960	24992
237	0.859744	92614656	62009344	16643584	24992
238	0.857428	92614656	62009344	17721136	24992
239	0.863581	92614656	62009344	18795320	24992
240	0.823782	92614656	62009344	19873344	24992
241	0.827069	92614656	62009344	20955104	24992
242	0.824733	92614656	62009344	22040608	24992
243	0.825237	92614656	62009344	23129880	24992
244	0.833827	92614656	62009344	24222896	24992
245	0.835798	92614656	62009344	25319768	24992
246	1.029899	92614656	62009344	26420320	24992
247	0.838328	92614656	62009344	27524720	24992
248	0.848242	92614656	62009344	28632912	24992
249	0.844567	92614656	62009344	29744840	24992
250	1.053264	92614656	62009344	14561040	24992
251	0.852954	92614656	62009344	15688376	24992
252	0.872741	92614656	62009344	16811648	24992
253	0.854754	92614656	62009344	17938560	24992
254	0.874073	92614656	62009344	19069288	24992
255	0.863179	92614656	62009344	20203872	24992
256	0.870517	92614656	62009344	21342192	24992
257	0.870502	92614656	62009344	22490456	24992
258	0.869665	92614656	62009344	23636368	24992
259	0.878182	92614656	62009344	24785992	24992
260	0.936918	92614656	62009344	25939432	24992
261	0.880966	92614656	62009344	27096632	24992
262	0.882335	92614656	62009344	28257616	24992
263	0.885125	92614656	62009344	29422304	24992
264	1.257603	92614656	62009344	14255368	24992
265	0.907905	92614656	62009344	15428384	24992
266	1.096397	92614656	62009344	16605040	24992
267	0.901607	92614656	62009344	17784792	24992
268	1.082037	92614656	62009344	18968560	24992
269	0.909861	92614656	62009344	20161376	24992
270	1.132153	92614656	62009344	21352496	24992
271	0.9127	92614656	62009344	22547432	24992
272	0.922277	92614656	62009344	23746048	24992
273	0.931131	92614656	62009344	24948488	24992
274	0.925601	92614656	62009344	26154712	24992
275	0.919968	92614656	62009344	27364656	24992
276	1.117519	92614656	62009344	28578424	24992
277	0.938392	92614656	62009344	29799912	24992
278	0.940031	92614656	62009344	14737456	24992
279	0.942651	92614656	62009344	15962528	24992
280	0.948776	92614656	62009344	17191360	24992
281	0.940317	92614656	62009344	18428640	24992
282	0.947156	92614656	62009344	19664976	24992
283	0.946424	92614656	62009344	20905680	24992
284	0.948816	92614656	62009344	22152648	24992
285	0.953088	92614656	62009344	23400352	24992
286	1.007736	92614656	62009344	24651800	24992
287	1.174683	92614656	62009344	25906968	24992
288	0.964471	92614656	62009344	27165888	24992
289	0.977182	92614656	62009344	28429048	24992
290	0.966826	92614656	62009344	29701824	24992
291	0.991044	92614656	62009344	14681032	24992
292	0.97684	92614656	62009344	15965560	24992
293	0.980884	92614656	62009344	17243360	24992
294	0.983646	92614656	62009344	18525016	24992
295	0.97662	92614656	62009344	19816880	24992
296	0.985524	92614656	62009344	21106016	24992
297	0.985644	92614656	62009344	22401096	24992
298	1.008621	92614656	62009344	23697776	24992
299	0.997025	92614656	62009344	24998264	24992
300	1.006561	92614656	62009344	26309808	24992
301	0.997358	92614656	62009344	27617840	24992
302	1.013356	92614656	62009344	28929600	24992
303	1.00497	92614656	62009344	30245112	24992
304	1.022867	92614656	62009344	15236568	24992
305	1.043359	92614656	62009344	16565632	24992
306	1.020673	92614656	62009344	17892440	24992
307	1.024857	92614656	62009344	19228016	24992
308	1.044562	92614656	62009344	20562328	24992
309	1.247099	92614656	62009344	21902624	24992
310	1.028195	92614656	62009344	23244592	24992
311	1.036077	92614656	62009344	24590328	24992
312	1.041111	92614656	62009344	25940264	24992
313	1.037191	92614656	62009344	27293544	24992
314	1.046802	92614656	62009344	28666808	24992
315	1.0467	92614656	62009344	30028440	24992
316	1.079332	92614656	62009344	15097424	24992
317	1.048947	92614656	62009344	16465696	24992
318	1.198638	92614656	62009344	17838744	24992
319	1.260327	92614656	62009344	19214672	24992
320	1.058216	92614656	62009344	20594384	24992
321	1.060777	92614656	62009344	21977848	24992
322	1.071788	92614656	62009344	23372280	24992
323	1.064934	92614656	62009344	24763168	24992
324	1.263904	92614656	62009344	26169424	24992
325	1.076474	92614656	62009344	27568792	24992
326	1.078453	92614656	62009344	28971232	24992
327	1.074059	92614656	62009344	30377360	24992
328	1.083166	92614656	62009344	15454576	24992
329	1.099926	92614656	62009344	16869544	24992
330	1.083556	92614656	62009344	18290832	24992
331	1.090763	92614656	62009344	19712080	24992
332	1.088338	92614656	62009344	21137008	24992
333	1.092067	92614656	62009344	22565648	24992
334	1.305656	92614656	62009344	23998088	24992
335	1.095882	92614656	62009344	25436680	24992
336	1.100405	92614656	62009344	26876664	24992
337	1.098744	92614656	62009344	28320480	24992
338	1.099394	92614656	62009344	29768064	24992
339	1.623076	92614656	62009344	14847672	24992
340	1.114397	92614656	62009344	16319224	24992
341	1.115006	92614656	62009344	17794600	24992
342	1.127929	92614656	62009344	19273688	24992
343	1.188547	92614656	62009344	20756624	24992
344	1.193448	92614656	62009344	22247584	24992
345	1.20038	92614656	62009344	23737984	24992
346	1.194356	92614656	62009344	25232160	24992
347	1.199965	92614656	62009344	26733480	24992
348	1.29997	92614656	62009344	28240512	24992
349	1.20835	92614656	62009344	29746176	24992
350	1.543732	92614656	62009344	14887304	24992
351	1.222297	92614656	62009344	16400352	24992
352	1.213757	92614656	62009344	17918512	24992
353	1.218465	92614656	62009344	19439136	24992
354	1.22722	92614656	62009344	20964528	24992
355	1.219573	92614656	62009344	22500360	24992
356	1.203843	92614656	62009344	24032216	24992
357	1.510027	92614656	62009344	25567800	24992
358	1.231563	92614656	62009344	27107256	24992
359	1.401698	92614656	62009344	28650472	24992
360	1.188059	92614656	62009344	30201920	24992
361	1.244101	92614656	62009344	15469792	24992
362	1.244605	92614656	62009344	17024720	24992
363	1.24548	92614656	62009344	18592312	24992
364	1.258586	92614656	62009344	20156376	24992
365	1.249115	92614656	62009344	21723432	24992
366	1.255102	92614656	62009344	23305568	24992
367	1.264816	92614656	62009344	24878984	24992
368	1.257604	92614656	62009344	26456088	24992
369	1.266108	92614656	62009344	28037016	24992
370	1.445126	92614656	62009344	29621752	24992
371	1.730206	92614656	62009344	14903984	24992
372	1.340922	92614656	62009344	16500808	24992
373	1.273892	92614656	62009344	18096912	24992
374	1.452423	92614656	62009344	19697864	24992
375	1.282767	92614656	62009344	21309216	24992
376	1.285481	92614656	62009344	22916616	24992
377	1.289976	92614656	62009344	24527712	24992
378	1.291676	92614656	62009344	26144832	24992
379	1.297145	92614656	62009344	27763408	24992
380	1.302149	92614656	62009344	29393888	24992
381	1.697929	92614656	62009344	14758168	24992
382	1.304698	92614656	62009344	16390480	24992
383	1.310807	92614656	62009344	18024080	24992
384	1.311538	92614656	62009344	19669616	24992
385	1.323298	92614656	62009344	21316240	24992
386	1.318353	92614656	62009344	22961328	24992
387	1.323924	92614656	62009344	24613848	24992
388	1.569648	92614656	62009344	26266416	24992
389	1.337686	92614656	62009344	27923160	24992
390	1.327303	92614656	62009344	29586128	24992
391	1.710629	92614656	62009344	14932688	24992
392	1.349875	92614656	62009344	16607096	24992
393	1.352043	92614656	62009344	18279952	24992
394	1.34069	92614656	62009344	19955184	24992
395	1.352666	92614656	62009344	21648336	24992
396	1.362875	92614656	62009344	23351888	24992
397	1.378139	92614656	62009344	25042392	24992
398	1.358202	92614656	62009344	26732760	24992
399	1.359051	92614656	62009344	28426784	24992
400	1.364604	92614656	62009344	30134448	24992
401	1.373057	92614656	62009344	15578432	24992
402	1.529594	92614656	62009344	17285584	24992
403	1.367705	92614656	62009344	18994760	24992
404	1.372969	92614656	62009344	20707928	24992
405	1.384019	92614656	62009344	22424544	24992
406	1.374941	92614656	62009344	24144968	24992
407	1.386728	92614656	62009344	25869312	24992
408	1.414788	92614656	62009344	27613464	24992
409	1.414312	92614656	62009344	29345336	24992
410	2.058218	92614656	62009344	14828456	24992
411	1.400189	92614656	62009344	16584336	24992
412	1.389746	92614656	62009344	18343848	24992
413	1.3709	92614656	62009344	20107208	24992
414	1.70113	92614656	62009344	21874216	24992
415	1.40192	92614656	62009344	23645072	24992
416	1.412828	92614656	62009344	25419744	24992
417	1.412135	92614656	62009344	27210096	24992
418	1.57911	92614656	62009344	28992256	24992
419	1.424312	92614656	62009344	30816952	24992
420	1.426776	92614656	62009344	16335168	24992
421	1.42632	92614656	62009344	18194448	24992
422	1.385111	92614656	62009344	20066664	24992
423	1.440501	92614656	62009344	21933464	24992
424	1.434307	92614656	62009344	23804008	24992
425	1.429603	92614656	62009344	25703944	24992
426	1.443324	92614656	62009344	27583984	24992
427	1.452657	92614656	62009344	29465984	24992
428	1.805603	92614656	62009344	15057984	24992
429	1.611592	92614656	62009344	16952848	24992
430	1.45687	92614656	62009344	18846120	24992
431	1.458295	92614656	62009344	20743176	24992
432	1.459564	92614656	62009344	22671448	24992
433	1.478932	92614656	62009344	24576032	24992
434	1.478636	92614656	62009344	26484288	24992
435	1.462415	92614656	62009344	28400040	24992
436	1.471177	92614656	62009344	30326680	24992
437	1.480907	92614656	62009344	16006096	24992
438	1.483862	92614656	62009344	17929856	24992
439	1.484586	92614656	62009344	19857048	24992
440	1.485886	92614656	62009344	21787960	24992
441	1.485928	92614656	62009344	23752448	24992
442	1.48958	92614656	62009344	25690952	24992
443	1.492997	92614656	62009344	27633320	24992
444	1.657788	92614656	62009344	29579464	24992
445	1.848692	92614656	62009344	15223856	24992
446	1.510707	92614656	62009344	17177360	24992
447	1.501552	92614656	62009344	19150904	24992
448	1.507982	92614656	62009344	21111920	24992
449	1.513698	92614656	62009344	23076904	24992
450	1.52943	92614656	62009344	25045584	24992
451	1.686692	92614656	62009344	27017968	24992
452	1.519535	92614656	62009344	29001384	24992
453	1.520007	92614656	62009344	30985184	24992
454	1.489759	92614656	62009344	16634696	24992
455	1.459297	92614656	62009344	18637616	24992
456	1.540781	92614656	62009344	20628848	24992
457	1.544118	92614656	62009344	22623928	24992
458	1.703471	92614656	62009344	24622840	24992
459	1.548672	92614656	62009344	26625512	24992
460	1.54493	92614656	62009344	28631840	24992
461	1.547906	92614656	62009344	30641992	24992
462	1.557802	92614656	62009344	16346232	24992
463	1.570233	92614656	62009344	18363864	24992
464	1.568208	92614656	62009344	20385368	24992
465	1.572797	92614656	62009344	22410912	24992
466	1.556576	92614656	62009344	24441000	24992
467	1.595552	92614656	62009344	26499456	24992
468	1.56865	92614656	62009344	28538848	24992
469	1.572529	92614656	62009344	30587616	24992
470	1.584429	92614656	62009344	16368704	24992
471	1.587446	92614656	62009344	18416504	24992
472	1.764097	92614656	62009344	20468144	24992
473	1.595741	92614656	62009344	22523512	24992
474	1.586997	92614656	62009344	24582632	24992
475	1.593039	92614656	62009344	26645704	24992
476	1.596514	92614656	62009344	28712520	24992
477	1.600453	92614656	62009344	30782976	24992
478	1.73507	92614656	62009344	16557928	24992
479	1.617649	92614656	62009344	18636080	24992
480	1.616095	92614656	62009344	20717856	24992
481	1.620479	92614656	62009344	22803488	24992
482	1.771082	92614656	62009344	24892872	24992
483	1.620153	92614656	62009344	26985976	24992
484	1.613076	92614656	62009344	29097056	24992
485	1.622435	92614656	62009344	31209176	24992
486	1.634521	92614656	62009344	16949448	24992
487	1.628115	92614656	62009344	19057736	24992
488	1.633776	92614656	62009344	21169680	24992
489	1.76992	92614656	62009344	23285448	24992
490	1.587209	92614656	62009344	25404992	24992
491	1.647541	92614656	62009344	27528168	24992
492	1.701788	92614656	62009344	29666304	24992
493	2.00751	92614656	62009344	15527496	24992
494	1.652592	92614656	62009344	17662064	24992
495	1.650598	92614656	62009344	19803320	24992
496	1.661273	92614656	62009344	21945368	24992
497	1.657611	92614656	62009344	24091200	24992
498	1.66293	92614656	62009344	26243432	24992
499	1.632798	92614656	62009344	28396848	24992
500	1.636942	92614656	62009344	30554136	24992
501	1.685666	92614656	62009344	16500640	24992
502	1.844679	92614656	62009344	18665472	24992
503	1.688506	92614656	62009344	20834064	24992
504	1.686785	92614656	62009344	23006424	24992
505	1.698538	92614656	62009344	25197704	24992
506	1.691834	92614656	62009344	27377552	24992
507	1.689214	92614656	62009344	29561104	24992
508	2.07225	92614656	62009344	15508416	24992
509	1.700742	92614656	62009344	17699664	24992
510	1.678646	92614656	62009344	19894624	24992
511	1.702157	92614656	62009344	22095760	24992
512	1.858834	92614656	62009344	24298328	24992
513	1.670441	92614656	62009344	26504656	24992
514	1.710346	92614656	62009344	28714728	24992
515	1.841941	92614656	62009344	30935616	24992
516	1.730219	92614656	62009344	16863848	24992
517	1.733318	92614656	62009344	19096160	24992
518	1.738222	92614656	62009344	21321296	24992
519	1.732217	92614656	62009344	23550072	24992
520	1.760857	92614656	62009344	25782760	24992
521	1.931956	92614656	62009344	28019200	24992
522	1.769017	92614656	62009344	30259328	24992
523	2.140544	92614656	62009344	16119272	24992
524	1.931412	92614656	62009344	18367000	24992
525	1.767439	92614656	62009344	20632160	24992
526	1.66183	92614656	62009344	22887472	24992
527	1.750987	92614656	62009344	25146576	24992
528	1.766263	92614656	62009344	27415888	24992
529	1.674206	92614656	62009344	29682496	24992
530	2.125342	92614656	62009344	15683944	24992
531	1.768763	92614656	62009344	17958088	24992
532	1.983712	92614656	62009344	20236160	24992
533	1.775132	92614656	62009344	22517752	24992
534	1.78211	92614656	62009344	24808776	24992
535	1.783097	92614656	62009344	27097976	24992
536	1.803495	92614656	62009344	29390880	24992
537	2.229372	92614656	62009344	15487512	24992
538	1.815445	92614656	62009344	17794160	24992
539	2.291595	92614656	62009344	20098384	24992
540	1.811043	92614656	62009344	22408472	24992
541	1.98114	92614656	62009344	24720256	24992
542	1.981147	92614656	62009344	27040808	24992
543	1.839819	92614656	62009344	29360192	24992
544	2.352524	92614656	62009344	15488256	24992
545	1.976178	92614656	62009344	17839488	24992
546	1.82701	92614656	62009344	20170120	24992
547	1.877745	92614656	62009344	22505168	24992
548	1.833366	92614656	62009344	24861024	24992
549	1.838612	92614656	62009344	27203000	24992
550	1.833893	92614656	62009344	29549376	24992
551	2.407441	92614656	62009344	15701320	24992
552	1.841408	92614656	62009344	18054568	24992
553	1.821268	92614656	62009344	20417512	24992
554	1.995919	92614656	62009344	22778376	24992
555	1.846997	92614656	62009344	25147888	24992
556	1.858175	92614656	62009344	27528480	24992
557	1.863176	92614656	62009344	29900608	24992
558	2.211522	92614656	62009344	16009384	24992
559	1.876576	92614656	62009344	18396864	24992
560	2.002669	92614656	62009344	20801936	24992
561	1.850205	92614656	62009344	23189120	24992
562	1.797333	92614656	62009344	25583408	24992
563	2.009479	92614656	62009344	27978104	24992
564	1.878686	92614656	62009344	30382800	24992
565	1.896828	92614656	62009344	16465728	24992
566	1.890347	92614656	62009344	18871792	24992
567	1.874495	92614656	62009344	21281672	24992
568	1.881998	92614656	62009344	23703056	24992
569	1.818025	92614656	62009344	26120576	24992
570	1.890696	92614656	62009344	28541776	24992
571	1.898875	92614656	62009344	30968224	24992
572	1.89588	92614656	62009344	17159696	24992
573	1.890947	92614656	62009344	19596688	24992
574	1.904022	92614656	62009344	22032920	24992
575	1.902861	92614656	62009344	24478400	24992
576	1.904953	92614656	62009344	26922288	24992
577	1.926764	92614656	62009344	29387968	24992
578	2.321324	92614656	62009344	15654016	24992
579	1.905696	92614656	62009344	18129304	24992
580	2.075244	92614656	62009344	20601448	24992
581	1.923477	92614656	62009344	23071176	24992
582	1.881288	92614656	62009344	25541952	24992
583	1.947503	92614656	62009344	28012136	24992
584	1.94243	92614656	62009344	30488120	24992
585	1.954831	92614656	62009344	16623368	24992
586	1.894688	92614656	62009344	19108344	24992
587	1.942294	92614656	62009344	21598256	24992
588	1.945754	92614656	62009344	24088392	24992
589	1.94861	92614656	62009344	26581144	24992
590	1.94722	92614656	62009344	29077760	24992
591	1.958024	92614656	62009344	31579472	24992
592	1.970175	92614656	62009344	17797944	24992
593	1.971977	92614656	62009344	20307312	24992
594	2.138936	92614656	62009344	22819920	24992
595	1.977608	92614656	62009344	25343368	24992
596	1.980644	92614656	62009344	27867784	24992
597	2.115013	92614656	62009344	30392712	24992
598	2.287566	92614656	62009344	16569672	24992
599	1.982194	92614656	62009344	19100264	24992
600	1.985686	92614656	62009344	21642232	24992
601	1.981532	92614656	62009344	24180424	24992
602	1.986	92614656	62009344	26726696	24992
603	1.994136	92614656	62009344	29291064	24992
604	2.401718	92614656	62009344	15665088	24992
605	2.146955	92614656	62009344	18223040	24992
606	2.019709	92614656	62009344	20781792	24992
607	2.015557	92614656	62009344	23355592	24992
608	1.944631	92614656	62009344	25920408	24992
609	2.014716	92614656	62009344	28502488	24992
610	2.014593	92614656	62009344	31084456	24992
611	2.028418	92614656	62009344	17453536	24992
612	2.020923	92614656	62009344	20033096	24992
613	2.124977	92614656	62009344	22616416	24992
614	2.033832	92614656	62009344	25203480	24992
615	2.033383	92614656	62009344	27813320	24992
616	2.153675	92614656	62009344	30411144	24992
617	2.344029	92614656	62009344	16685040	24992
618	2.039105	92614656	62009344	19288520	24992
619	2.044697	92614656	62009344	21896072	24992
620	2.046488	92614656	62009344	24508520	24992
621	2.238319	92614656	62009344	27144072	24992
622	2.013427	92614656	62009344	29763952	24992
623	2.442164	92614656	62009344	16193736	24992
624	2.166387	92614656	62009344	18831464	24992
625	2.058682	92614656	62009344	21460192	24992
626	2.063054	92614656	62009344	24092600	24992
627	2.066269	92614656	62009344	26728696	24992
628	2.083013	92614656	62009344	29377808	24992
629	2.614508	92614656	62009344	15864928	24992
630	2.085633	92614656	62009344	18512456	24992
631	2.252104	92614656	62009344	21169336	24992
632	2.075369	92614656	62009344	23824496	24992
633	2.086388	92614656	62009344	26494392	24992
634	2.102046	92614656	62009344	29181640	24992
635	2.101541	92614656	62009344	31848008	24992
636	2.106253	92614656	62009344	18194904	24992
637	2.209525	92614656	62009344	20869440	24992
638	2.213534	92614656	62009344	23558504	24992
639	2.226107	92614656	62009344	26250128	24992
640	2.229429	92614656	62009344	28946512	24992
641	2.23625	92614656	62009344	31635448	24992
642	2.046014	92614656	62009344	18073824	24992
643	2.123817	92614656	62009344	20775760	24992
644	2.119347	92614656	62009344	23483528	24992
645	2.140145	92614656	62009344	26188472	24992
646	2.083102	92614656	62009344	28902888	24992
647	2.284745	92614656	62009344	31615552	24992
648	2.139121	92614656	62009344	18092032	24992
649	2.135979	92614656	62009344	20817424	24992
650	2.146553	92614656	62009344	23540368	24992
651	2.111693	92614656	62009344	26267016	24992
652	2.300291	92614656	62009344	28997368	24992
653	2.160808	92614656	62009344	31731520	24992
654	2.158937	92614656	62009344	18218808	24992
655	2.156976	92614656	62009344	20971352	24992
656	2.155091	92614656	62009344	23716832	24992
657	2.33466	92614656	62009344	26466120	24992
658	2.172554	92614656	62009344	29232896	24992
659	2.165402	92614656	62009344	31989736	24992
660	2.175256	92614656	62009344	18411648	24992
661	2.183012	92614656	62009344	21176064	24992
662	2.360151	92614656	62009344	23956056	24992
663	2.189099	92614656	62009344	26727832	24992
664	2.18181	92614656	62009344	29532504	24992
665	2.598848	92614656	62009344	16163056	24992
666	2.19926	92614656	62009344	18966240	24992
667	2.136503	92614656	62009344	21753344	24992
668	2.23924	92614656	62009344	24546784	24992
669	2.304234	92614656	62009344	27351224	24992
670	2.328036	92614656	62009344	30149456	24992
671	2.691041	92614656	62009344	16707104	24992
672	2.158666	92614656	62009344	19520488	24992
673	2.206253	92614656	62009344	22330080	24992
674	2.214048	92614656	62009344	25143744	24992
675	2.224597	92614656	62009344	27960864	24992
676	2.227224	92614656	62009344	30795904	24992
677	2.179491	92614656	62009344	17360856	24992
678	2.230509	92614656	62009344	20198840	24992
679	2.401196	92614656	62009344	23038512	24992
680	2.242254	92614656	62009344	25878448	24992
681	2.247066	92614656	62009344	28724480	24992
682	2.147733	92614656	62009344	31575360	24992
683	2.421555	92614656	62009344	18187008	24992
684	2.386038	92614656	62009344	21038032	24992
685	2.255269	92614656	62009344	23899008	24992
686	2.247594	92614656	62009344	26758344	24992
687	2.154295	92614656	62009344	29639632	24992
688	2.674983	92614656	62009344	16389616	24992
689	2.272252	92614656	62009344	19281992	24992
690	2.219628	92614656	62009344	22172920	24992
691	2.267096	92614656	62009344	25066800	24992
692	2.283266	92614656	62009344	27973128	24992
693	2.261186	92614656	62009344	30874680	24992
694	2.282369	92614656	62009344	17641656	24992
695	2.287117	92614656	62009344	20552320	24992
696	2.415741	92614656	62009344	23465872	24992
697	2.296596	92614656	62009344	26397600	24992
698	2.290623	92614656	62009344	29326728	24992
699	2.306698	92614656	62009344	32251264	24992
700	2.304977	92614656	62009344	18830168	24992
701	2.247027	92614656	62009344	21769488	24992
702	2.298762	92614656	62009344	24711536	24992
703	2.564872	92614656	62009344	27654688	24992
704	2.26022	92614656	62009344	30597624	24992
705	2.633251	92614656	62009344	17259200	24992
706	2.317365	92614656	62009344	20209776	24992
707	2.270502	92614656	62009344	23179112	24992
708	2.636635	92614656	62009344	26137168	24992
709	2.319803	92614656	62009344	29099000	24992
710	2.326737	92614656	62009344	32064728	24992
711	2.341391	92614656	62009344	18799736	24992
712	2.325378	92614656	62009344	21772848	24992
713	2.337047	92614656	62009344	24775624	24992
714	2.349878	92614656	62009344	27756432	24992
715	2.4497	92614656	62009344	30762464	24992
716	2.634091	92614656	62009344	17391568	24992
717	2.368399	92614656	62009344	20383656	24992
718	2.36005	92614656	62009344	23379424	24992
719	2.35527	92614656	62009344	26381984	24992
720	2.355546	92614656	62009344	29385384	24992
721	2.772546	92614656	62009344	16271968	24992
722	2.295892	92614656	62009344	19282856	24992
723	2.365489	92614656	62009344	22297440	24992
724	2.537067	92614656	62009344	25335920	24992
725	2.380077	92614656	62009344	28358080	24992
726	2.373738	92614656	62009344	31384912	24992
727	2.400157	92614656	62009344	18290240	24992
728	2.388889	92614656	62009344	21323752	24992
729	2.389353	92614656	62009344	24367232	24992
730	2.40801	92614656	62009344	27429272	24992
731	2.502612	92614656	62009344	30474024	24992
732	2.8665	92614656	62009344	17296408	24992
733	2.571627	92614656	62009344	20348760	24992
734	2.408274	92614656	62009344	23405144	24992
735	2.403702	92614656	62009344	26472640	24992
736	2.415546	92614656	62009344	29539688	24992
737	2.838487	92614656	62009344	16502760	24992
738	2.525832	92614656	62009344	19579912	24992
739	2.51852	92614656	62009344	22677552	24992
740	2.551154	92614656	62009344	25775104	24992
741	2.411749	92614656	62009344	28872736	24992
742	2.610804	92614656	62009344	31970384	24992
743	2.437017	92614656	62009344	18834696	24992
744	2.427224	92614656	62009344	21928944	24992
745	2.425869	92614656	62009344	25027632	24992
746	2.427506	92614656	62009344	28130280	24992
747	2.439021	92614656	62009344	31235400	24992
748	2.465938	92614656	62009344	18256856	24992
749	2.45621	92614656	62009344	21370256	24992
750	2.449296	92614656	62009344	24487624	24992
751	2.472057	92614656	62009344	27623368	24992
752	2.459355	92614656	62009344	30751056	24992
753	2.782707	92614656	62009344	17589184	24992
754	2.475892	92614656	62009344	20731056	24992
755	2.626954	92614656	62009344	23866432	24992
756	2.475728	92614656	62009344	27005560	24992
757	2.419788	92614656	62009344	30155800	24992
758	2.836701	92614656	62009344	17084232	24992
759	2.492859	92614656	62009344	20250184	24992
760	2.483576	92614656	62009344	23404392	24992
761	2.475987	92614656	62009344	26573456	24992
762	2.672572	92614656	62009344	29735240	24992
763	2.92232	92614656	62009344	16794056	24992
764	2.657082	92614656	62009344	19963224	24992
765	2.503797	92614656	62009344	23139520	24992
766	2.495284	92614656	62009344	26317312	24992
767	2.5148	92614656	62009344	29523896	24992
768	2.863999	92614656	62009344	16603880	24992
769	2.524371	92614656	62009344	19800064	24992
770	2.521398	92614656	62009344	23017048	24992
771	2.519719	92614656	62009344	26228368	24992
772	2.529047	92614656	62009344	29447392	24992
773	3.039861	92614656	62009344	16586864	24992
774	2.534905	92614656	62009344	19815600	24992
775	2.662581	92614656	62009344	23044944	24992
776	2.68157	92614656	62009344	26268376	24992
777	2.673642	92614656	62009344	29508232	24992
778	2.880124	92614656	62009344	16667640	24992
779	2.694095	92614656	62009344	19893536	24992
780	2.543813	92614656	62009344	23123128	24992
781	2.716276	92614656	62009344	26356424	24992
782	2.560549	92614656	62009344	29606288	24992
783	3.002726	92614656	62533632	16794528	24992
784	2.464345	92614656	62533632	20049592	24992
785	2.48241	92614656	62533632	23304432	24992
786	2.523138	92614656	62533632	26556584	24992
787	2.57769	92614656	62533632	29812688	24992
788	2.992399	92614656	62533632	17024888	24992
789	2.587967	92614656	62533632	20288448	24992
790	2.613897	92614656	62533632	23582880	24992
791	2.619691	92614656	62533632	26853944	24992
792	2.699643	92614656	62533632	30149128	24992
793	2.964045	92614656	62533632	17274840	24992
794	2.726805	92614656	62533632	20558080	24992
795	2.467856	92614656	62533632	23844200	24992
796	2.612716	92614656	62533632	27134304	24992
797	2.601915	92614656	62533632	30447288	24992
798	3.142978	92614656	62533632	17583328	24992
799	2.55666	92614656	62533632	20884624	24992
800	2.509039	92614656	62533632	24210120	24992
801	2.619947	92614656	62533632	27518896	24992
802	2.615687	92614656	62533632	30847112	24992
803	3.010156	92614656	62533632	17978968	24992
804	2.622162	92614656	62533632	21298976	24992
805	2.629126	92614656	62533632	24623224	24992
806	2.633517	92614656	62533632	27959456	24992
807	2.627688	92614656	62533632	31308992	24992
808	2.649341	92614656	62533632	18591080	24992
809	2.644868	92614656	62533632	21929992	24992
810	2.645735	92614656	62533632	25301944	24992
811	2.638032	92614656	62533632	28648368	24992
812	2.587038	92614656	62533632	32012744	24992
813	2.655201	92614656	62533632	19183944	24992
814	2.67096	92614656	62533632	22551360	24992
815	2.741636	92614656	62533632	25950256	24992
816	2.695037	92614656	62533632	29324808	24992
817	2.798047	92614656	62533632	32693888	24992
818	2.819605	92614656	62533632	19863616	24992
819	2.779212	92614656	62533632	23252776	24992
820	2.676828	92614656	62533632	26633208	24992
821	2.870436	92614656	62533632	30029048	24992
822	3.147132	92614656	62533632	17365840	24992
823	2.818371	92614656	62533632	20779264	24992
824	2.576049	92614656	62533632	24177008	24992
825	2.82774	92614656	62533632	27590216	24992
826	2.688909	92614656	62533632	30993320	24992
827	3.361092	92614656	62533632	18197248	24992
828	2.836907	92614656	62533632	21607816	24992
829	2.862464	92614656	62533632	25029712	24992
830	2.706565	92614656	62533632	28448368	24992
831	2.695625	92614656	62533632	31886712	24992
832	2.71437	92884992	62533632	19272240	24992
833	2.848752	92884992	62533632	22744472	24992
834	2.712498	92884992	62533632	26194368	24992
835	2.862774	92884992	62533632	29654712	24992
836	3.094358	92884992	62533632	17067936	24992
837	2.810396	92884992	62533632	20528928	24992
838	2.939168	92884992	62533632	23997536	24992
839	2.856965	92884992	62533632	27516392	24992
840	2.740184	92884992	62533632	31096424	24992
841	3.249227	92884992	62533632	18370144	24992
842	2.884283	92884992	62533632	21915616	24992
843	2.865369	92884992	62533632	25475336	24992
844	2.746756	92884992	62533632	29071840	24992
845	2.87294	92884992	62533632	32628744	24992
846	2.751043	92884992	62533632	20032120	24992
847	2.764504	92884992	62533632	23627688	24992
848	2.751723	92884992	62533632	27239896	24992
849	2.872521	92884992	62533632	30852128	24992
850	3.158107	92884992	62533632	18275200	24992
851	2.870187	92884992	62533632	21854640	24992
852	2.777257	92884992	62533632	25437832	24992
853	2.859156	92884992	62533632	29024872	24992
854	2.785991	92884992	62533632	32616464	24992
855	2.82599	92884992	62533632	20094584	24992
856	2.798906	92884992	62533632	23706912	24992
857	2.849529	92884992	62533632	27319144	24992
858	2.786752	92884992	62533632	30931352	24992
859	3.157457	92884992	62533632	18374232	24992
860	2.807636	92884992	62533632	22011288	24992
861	2.705201	92884992	62533632	25641200	24992
862	2.803754	92884992	62533632	29279032	24992
863	2.8046	92884992	62533632	32903784	24992
864	2.821006	92884992	62533632	20362160	24992
865	2.817405	92884992	62533632	24003640	24992
866	2.816064	92884992	62533632	27639784	24992
867	2.822321	92884992	62533632	31279528	24992
868	3.130685	92884992	62533632	18665056	24992
869	2.707411	92884992	62533632	22320808	24992
870	2.771469	92884992	62533632	25971896	24992
871	2.816156	92884992	62533632	29631576	24992
872	2.703081	92884992	62533632	33300224	24992
873	2.740793	92884992	62533632	20636216	24992
874	2.83031	92884992	62533632	24305696	24992
875	2.845245	92884992	62533632	27989080	24992
876	2.835094	92884992	62533632	31662704	24992
877	2.854797	92884992	62533632	19300608	24992
878	2.733326	92884992	62533632	22986720	24992
879	2.736633	92884992	62533632	26679648	24992
880	3.026724	92884992	62533632	30374504	24992
881	3.411778	92884992	62533632	17973288	24992
882	2.999837	92884992	62533632	21684432	24992
883	2.74398	92884992	62533632	25394120	24992
884	2.989617	92884992	62533632	29110368	24992
885	2.882086	92884992	62533632	32818016	24992
886	2.848156	92884992	62533632	20377368	24992
887	2.890824	92884992	62533632	24092496	24992
888	2.797309	92884992	62533632	27820912	24992
889	2.882752	92884992	62533632	31563672	24992
890	2.766585	92884992	62533632	19021440	24992
891	2.887888	92884992	62533632	22751760	24992
892	2.902863	92884992	62533632	26485808	24992
893	2.893593	92884992	62533632	30225976	24992
894	3.449043	92884992	62533632	17938312	24992
895	2.896642	92884992	62533632	21696544	24992
896	2.915673	92884992	62533632	25459592	24992
897	2.92064	92884992	62533632	29221328	24992
898	2.794525	92884992	62533632	32978168	24992
899	3.062872	92884992	62533632	20579912	24992
900	2.922009	92884992	62533632	24350272	24992
901	3.036148	92884992	62533632	28125456	24992
902	2.929516	92884992	62533632	31897248	24992
903	2.938027	92884992	62533632	19657640	24992
904	2.945141	92884992	62533632	23461392	24992
905	2.943572	92884992	62533632	27244616	24992
906	2.936727	92884992	62533632	31066440	24992
907	3.51734	92884992	62533632	18715808	24992
908	3.111528	92884992	62533632	22519560	24992
909	2.878443	92884992	62533632	26317648	24992
910	3.051432	92884992	62533632	30122656	24992
911	3.593249	92884992	62533632	17923304	24992
912	3.045637	92884992	62533632	21732984	24992
913	2.885497	92884992	62533632	25558392	24992
914	2.999245	92884992	62533632	29379264	24992
915	3.083254	92884992	62533632	33222128	24992
916	2.955922	92884992	62533632	20890360	24992
917	2.883404	92884992	62533632	24730576	24992
918	2.980574	92884992	62533632	28562816	24992
919	2.964032	92884992	62533632	32429216	24992
920	2.901245	92884992	62533632	20254328	24992
921	2.854649	92884992	62533632	24097960	24992
922	2.986235	92884992	62533632	27945136	24992
923	3.106181	92884992	62533632	31823144	24992
924	3.003994	92884992	62533632	19671112	24992
925	2.989228	92884992	62533632	23540808	24992
926	3.000289	92884992	62533632	27413144	24992
927	2.917144	92884992	62533632	31286640	24992
928	3.601271	92884992	62533632	19014776	24992
929	3.016097	92884992	62533632	22888488	24992
930	3.010878	92884992	62533632	26798752	24992
931	3.00551	92884992	62533632	30679944	24992
932	3.733785	92884992	62533632	18442520	24992
933	3.025828	92884992	62533632	22333888	24992
934	3.021371	92884992	62533632	26254064	24992
935	3.029767	92884992	62533632	30150216	24992
936	3.573742	92884992	62533632	18055952	24992
937	3.208823	92884992	62533632	21959800	24992
938	3.037962	92884992	62533632	25897760	24992
939	3.189031	92884992	62533632	29809088	24992
940	3.225234	92884992	62533632	33727608	24992
941	3.059392	92884992	62533632	21346872	24992
942	3.064447	92884992	62533632	25291528	24992
943	3.053503	92884992	62533632	29217816	24992
944	3.063848	92884992	62533632	33169248	24992
945	3.079133	92884992	62533632	20956720	24992
946	3.1996	92884992	62533632	24928744	24992
947	3.024286	92884992	62533632	28870240	24992
948	3.077109	92884992	62533632	32815480	24992
949	3.089792	92884992	62533632	20623536	24992
950	3.09478	92884992	62533632	24576448	24992
951	3.075331	92884992	62533632	28571608	24992
952	3.199214	92884992	62533632	32531904	24992
953	3.42229	92884992	62533632	20490264	24992
954	3.21285	92884992	62533632	24490904	24992
955	2.98701	92884992	62533632	28493104	24992
956	3.057901	92884992	62533632	32468488	24992
957	3.089329	92884992	62533632	20454576	24992
958	3.242705	92884992	62533632	24444208	24992
959	2.974205	92884992	62533632	28430800	24992
960	3.122698	92884992	62533632	32426824	24992
961	3.117401	92884992	62533632	20432512	24992
962	2.987027	92884992	62533632	24449712	24992
963	2.995631	92884992	62533632	28451576	24992
964	2.980018	92884992	62533632	32460152	24992
965	3.291243	92884992	62533632	20506328	24992
966	3.126411	92884992	62533632	24549464	24992
967	3.174604	92884992	62533632	28596016	24992
968	3.134106	92884992	62533632	32616712	24992
969	3.144816	92884992	62533632	20648536	24992
970	3.122014	92884992	62533632	24686768	24992
971	3.144149	92884992	62533632	28749272	24992
972	3.4248	93155328	62533632	32807328	24992
973	3.158525	93155328	62533632	20796504	24992
974	3.068726	93155328	62533632	24839792	24992
975	3.161249	93155328	62533632	28889960	24992
976	3.325334	93155328	62533632	32976808	24992
977	3.179388	93155328	62533632	20915152	24992
978	3.163477	93155328	62533632	24981216	24992
979	3.056579	93155328	62533632	29043384	24992
980	3.165024	93155328	62533632	33109200	24992
981	3.087032	93155328	62533632	21074608	24992
982	3.357253	93155328	62533632	25202400	24992
983	3.201722	93155328	62533632	29330448	24992
984	3.359358	93155328	62533632	33472480	24992
985	3.200835	93155328	62533632	21494688	24992
986	3.203093	93155328	62533632	25585296	24992
987	3.195879	93155328	62533632	29677600	24992
988	3.19194	93155328	62533632	33773680	24992
989	3.198391	93155328	63057920	21817136	24992
990	3.201951	93155328	63057920	25944032	24992
991	3.215195	93155328	63057920	30070920	24992
992	4.105914	93155328	63057920	18210544	24992
993	3.061475	93155328	63057920	22361912	24992
994	3.403285	93155328	63057920	26490632	24992
995	3.389823	93155328	63057920	30619464	24992
996	4.113317	93155328	63057920	18779976	24992
997	3.340725	93155328	63057920	22928064	24992
998	3.259539	93155328	63057920	27073200	24992
999	3.102268	93155328	63057920	31214488	24992
1000	3.83271	93155328	63057920	19246512	24992
x	Duration	RSS	HeapTotal	HeapUsed	External
0	NA	93544448	63057920	12736296	24992
1	0.364751	93544448	63057920	12788208	24992
2	0.302853	93544448	63057920	12864984	24992
3	0.183416	93544448	63057920	12979560	24992
4	0.215399	93544448	63057920	13078512	24992
5	0.205923	93544448	63057920	13181968	24992
6	0.195124	93544448	63057920	13289368	24992
7	0.200333	93544448	63057920	13400712	24992
8	0.205235	93544448	63057920	13516000	24992
9	0.212879	93544448	63057920	13635280	24992
10	0.217068	93544448	63057920	13760696	24992
11	0.223518	93544448	63057920	13891208	24992
12	0.230372	93544448	63057920	14025680	24992
13	0.414895	93544448	63057920	14164120	24992
14	0.162482	93544448	63057920	14306464	24992
15	0.161089	93544448	63057920	14453792	24992
16	0.163188	93544448	63057920	14605104	24992
17	0.164155	93544448	63057920	14760440	24992
18	0.174429	93544448	63057920	14919640	24992
19	0.198283	93544448	63057920	15087816	24992
20	0.172208	93544448	63057920	15256704	24992
21	0.178667	93544448	63057920	15429504	24992
22	0.18541	93544448	63057920	15606248	24992
23	0.199149	93544448	63057920	15788144	24992
24	0.18498	93544448	63057920	15974944	24992
25	0.186091	93544448	63057920	16167864	24992
26	0.189824	93544448	63057920	16364752	24992
27	0.27135	93544448	63057920	16565560	24992
28	0.204565	93544448	63057920	16771120	24992
29	0.205895	93544448	63057920	16980728	24992
30	0.228575	93544448	63057920	17193352	24992
31	0.495228	93544448	63057920	17409912	24992
32	0.216258	93544448	63057920	17632512	24992
33	0.241081	93544448	63057920	17861280	24992
34	0.209298	93544448	63057920	18091416	24992
35	0.211599	93544448	63057920	18325528	24992
36	0.212608	93544448	63057920	18563536	24992
37	0.239172	93544448	63057920	18805472	24992
38	0.240762	93544448	63057920	19051360	24992
39	0.24801	93544448	63057920	19301176	24992
40	0.247434	93544448	63057920	19555040	24992
41	0.257658	93544448	63057920	19812744	24992
42	0.232558	93544448	63057920	20076584	24992
43	0.243329	93544448	63057920	20344288	24992
44	0.238773	93544448	63057920	20615992	24992
45	0.241111	93544448	63057920	20894240	24992
46	0.251843	93544448	63057920	21177104	24992
47	0.247959	93544448	63057920	21463936	24992
48	0.25027	93544448	63057920	21754680	24992
49	0.252519	93544448	63057920	22050832	24992
50	0.255251	93544448	63057920	22353688	24992
51	0.258738	93544448	63057920	22664784	24992
52	0.261335	93544448	63057920	22979768	24992
53	0.264497	93544448	63057920	23298648	24992
54	0.268232	93544448	63057920	23622576	24992
55	0.295587	93544448	63057920	23949344	24992
56	0.296821	93544448	63057920	24280064	24992
57	0.300538	93544448	63057920	24614776	24992
58	0.302368	93544448	63057920	24953368	24992
59	0.305332	93544448	63057920	25295904	24992
60	0.321525	93544448	63057920	25642448	24992
61	0.292797	93544448	63057920	25992840	24992
62	0.296424	93544448	63057920	26347192	24992
63	0.523833	93544448	63057920	26705576	24992
64	0.311085	93544448	63057920	27067792	24992
65	0.318018	93544448	63057920	27435552	24992
66	0.30537	93544448	63057920	27805688	24992
67	0.307198	93544448	63057920	28179808	24992
68	0.308671	93544448	63057920	28557784	24992
69	0.31233	93544448	63057920	28939720	24992
70	1.073838	93544448	63057920	13222336	24992
71	0.346054	93544448	63057920	13614152	24992
72	0.348288	93544448	63057920	14009264	24992
73	0.350189	93544448	63057920	14406936	24992
74	0.349868	93544448	63057920	14808584	24992
75	0.530265	93544448	63057920	15214216	24992
76	0.340959	93544448	63057920	15627904	24992
77	0.338927	93544448	63057920	16045512	24992
78	0.339182	93544448	63057920	16467032	24992
79	0.341631	93544448	63057920	16892576	24992
80	0.343182	93544448	63057920	17322240	24992
81	0.382077	93544448	63057920	17756704	24992
82	0.382914	93544448	63057920	18194000	24992
83	0.379752	93544448	63057920	18635200	24992
84	0.427167	93544448	63057920	19084824	24992
85	0.52785	93544448	63057920	19539560	24992
86	0.365687	93544448	63057920	19998304	24992
87	0.366709	93544448	63057920	20460992	24992
88	0.369244	93544448	63057920	20927504	24992
89	0.373088	93544448	63057920	21397976	24992
90	0.4043	93544448	63057920	21872480	24992
91	0.380404	93544448	63057920	22350928	24992
92	0.382464	93544448	63057920	22833224	24992
93	0.386678	93544448	63057920	23319440	24992
94	0.424304	93544448	63057920	23813816	24992
95	0.39053	93544448	63057920	24312152	24992
96	0.423981	93544448	63057920	24814344	24992
97	0.425019	93544448	63057920	25320472	24992
98	0.427687	93544448	63057920	25830544	24992
99	0.408697	93544448	63057920	26344584	24992
100	0.408309	93544448	63057920	26862856	24992
101	0.415659	93544448	63057920	27385152	24992
102	0.412234	93544448	63057920	27919480	24992
103	0.705218	93544448	63057920	28465880	24992
104	0.447603	93544448	63057920	29016232	24992
105	1.08925	93544448	63057920	13390456	24992
106	0.464703	93544448	63057920	13951520	24992
107	0.455976	93544448	63057920	14513736	24992
108	0.457512	93544448	63057920	15079888	24992
109	0.434962	93544448	63057920	15650000	24992
110	0.446002	93544448	63057920	16223976	24992
111	0.438872	93544448	63057920	16802880	24992
112	0.444018	93544448	63057920	17384736	24992
113	0.448277	93544448	63057920	17970536	24992
114	0.6133	93544448	63057920	18560288	24992
115	0.454942	93544448	63057920	19154208	24992
116	0.454853	93544448	63057920	19751848	24992
117	0.648172	93544448	63057920	20353440	24992
118	0.509085	93544448	63057920	20958984	24992
119	0.499599	93544448	63057920	21568440	24992
120	0.501356	93544448	63057920	22181808	24992
121	0.502443	93544448	63057920	22799144	24992
122	0.505324	93544448	63057920	23420392	24992
123	0.506817	93544448	63057920	24045720	24992
124	0.515245	93544448	63057920	24674848	24992
125	0.511456	93544448	63057920	25307904	24992
126	0.490444	93544448	63057920	25944960	24992
127	0.488105	93544448	63057920	26586008	24992
128	0.492441	93544448	63057920	27230936	24992
129	0.505157	93544448	63057920	27879776	24992
130	0.497376	93544448	63057920	28532600	24992
131	0.499185	93544448	63057920	29189688	24992
132	1.007466	93544448	63057920	13564368	24992
133	0.512947	93544448	63057920	14228944	24992
134	0.515326	93544448	63057920	14897472	24992
135	0.514244	93544448	63057920	15570000	24992
136	0.547843	93544448	63057920	16246392	24992
137	0.524288	93544448	63057920	16926752	24992
138	0.524725	93544448	63057920	17611088	24992
139	0.567983	93544448	63057920	18305112	24992
140	0.561101	93544448	63057920	18997296	24992
141	0.568647	93544448	63057920	19693408	24992
142	0.580351	93544448	63057920	20400768	24992
143	0.566825	93544448	63057920	21113960	24992
144	0.543794	93544448	63057920	21831096	24992
145	0.543237	93544448	63057920	22552096	24992
146	0.553155	93544448	63057920	23280352	24992
147	0.55173	93544448	63057920	24013776	24992
148	0.551962	93544448	63057920	24746784	24992
149	0.5576	93544448	63057920	25483544	24992
150	0.555604	93544448	63057920	26224232	24992
151	0.561346	93544448	63057920	26969000	24992
152	0.571383	93544448	63057920	27717600	24992
153	0.565465	93544448	63057920	28470120	24992
154	0.566247	93544448	63057920	29226616	24992
155	1.194652	93544448	63057920	13689456	24992
156	0.583351	93544448	63057920	14453896	24992
157	0.584027	93544448	63057920	15222232	24992
158	0.592252	93544448	63057920	15994464	24992
159	0.587267	93544448	63057920	16770688	24992
160	0.589629	93544448	63057920	17551368	24992
161	0.596484	93544448	63057920	18335464	24992
162	0.590883	93544448	63057920	19123528	24992
163	0.59639	93544448	63057920	19924256	24992
164	0.654075	93544448	63057920	20732592	24992
165	0.638761	93544448	63057920	21540640	24992
166	0.641389	93544448	63057920	22352712	24992
167	0.653107	93544448	63057920	23168664	24992
168	0.649555	93544448	63057920	23988608	24992
169	0.652878	93544448	63057920	24812472	24992
170	0.659713	93544448	63057920	25640224	24992
171	0.658025	93544448	63057920	26472000	24992
172	0.66076	93544448	63057920	27307624	24992
173	0.641116	93544448	63057920	28147208	24992
174	0.642579	93544448	63057920	28992160	24992
175	0.670375	93544448	63057920	29842312	24992
176	0.650771	93544448	63057920	14368688	24992
177	0.639765	93544448	63057920	15224120	24992
178	0.646787	93544448	63057920	16083392	24992
179	0.645271	93544448	63057920	16948040	24992
180	0.646983	93544448	63057920	17815224	24992
181	0.656451	93544448	63057920	18686280	24992
182	0.654832	93544448	63057920	19561304	24992
183	0.691384	93544448	63057920	20440296	24992
184	0.662165	93544448	63057920	21323280	24992
185	0.661855	93544448	63057920	22210104	24992
186	0.672535	93544448	63057920	23100976	24992
187	0.687408	93544448	63057920	23995688	24992
188	0.671385	93544448	63057920	24894456	24992
189	0.698584	93544448	63057920	25803408	24992
190	0.680493	93544448	63057920	26709944	24992
191	0.68701	93544448	63057920	27620480	24992
192	0.682964	93544448	63057920	28535024	24992
193	0.825907	93544448	63057920	29454328	24992
194	1.153743	93544448	63057920	14047448	24992
195	0.734543	93544448	63057920	14973736	24992
196	0.917069	93544448	63057920	15903992	24992
197	0.706208	93544448	63057920	16838232	24992
198	0.703721	93544448	63057920	17776360	24992
199	0.706354	93544448	63057920	18728128	24992
200	0.707264	93544448	63057920	19682320	24992
201	0.721238	93544448	63057920	20640496	24992
202	0.711981	93544448	63057920	21602720	24992
203	0.719518	93544448	63057920	22568744	24992
204	0.743984	93544448	63057920	23538720	24992
205	0.724463	93544448	63057920	24512640	24992
206	0.731096	93544448	63057920	25492128	24992
207	0.761263	93544448	63057920	26490400	24992
208	0.820109	93544448	63057920	27510200	24992
209	0.770474	93544448	63057920	28535272	24992
210	0.780913	93544448	63057920	29566440	24992
211	1.320512	93544448	63057920	14242432	24992
212	0.791321	93544448	63057920	15277000	24992
213	0.796968	93544448	63057920	16315496	24992
214	0.793727	93544448	63057920	17357880	24992
215	0.805353	93544448	63057920	18404224	24992
216	0.800582	93544448	63057920	19454528	24992
217	0.801352	93544448	63057920	20508720	24992
218	0.803602	93544448	63057920	21566936	24992
219	0.798337	93544448	63057920	22629136	24992
220	0.811148	93544448	63057920	23695192	24992
221	0.815527	93544448	63057920	24767616	24992
222	0.831036	93544448	63057920	25841464	24992
223	0.826299	93544448	63057920	26919256	24992
224	0.839784	93544448	63057920	28001040	24992
225	0.83026	93544448	63057920	29086752	24992
226	0.829671	93544448	63057920	30176440	24992
227	0.843833	93544448	63057920	14904448	24992
228	0.840081	93544448	63057920	16001944	24992
229	0.84036	93544448	63057920	17115456	24992
230	0.867434	93544448	63057920	18235328	24992
231	0.814751	93544448	63057920	19359056	24992
232	0.84448	93544448	63057920	20486872	24992
233	0.832571	93544448	63057920	21618440	24992
234	0.853319	93544448	63057920	22754072	24992
235	0.873285	93544448	63057920	23893576	24992
236	0.862179	93544448	63057920	25037080	24992
237	1.032435	93544448	63057920	26184408	24992
238	0.863283	93544448	63057920	27335824	24992
239	0.882896	93544448	63057920	28491224	24992
240	0.832306	93544448	63057920	29650392	24992
241	1.24381	93544448	63057920	14452544	24992
242	0.84016	93544448	63057920	15619616	24992
243	1.070959	93544448	63057920	16791608	24992
244	0.923074	93544448	63057920	17967760	24992
245	0.858711	93544448	63057920	19146704	24992
246	0.880728	93544448	63057920	20329560	24992
247	0.909552	93544448	63057920	21516280	24992
248	0.906905	93544448	63057920	22714960	24992
249	1.06477	93544448	63057920	23912296	24992
250	0.881039	93544448	63057920	25110920	24992
251	0.922006	93544448	63057920	26315176	24992
252	0.911806	93544448	63057920	27522408	24992
253	0.928588	93544448	63057920	28732760	24992
254	0.923083	93544448	63057920	29949296	24992
255	1.084147	93544448	63057920	14884392	24992
256	0.929953	93544448	63057920	16106704	24992
257	0.940092	93544448	63057920	17334288	24992
258	0.931283	93544448	63057920	18564408	24992
259	0.943896	93544448	63057920	19798456	24992
260	0.939558	93544448	63057920	21036704	24992
261	0.952748	93544448	63057920	22283912	24992
262	1.155816	93544448	63057920	23529816	24992
263	0.951765	93544448	63057920	24790256	24992
264	0.953963	93544448	63057920	26044000	24992
265	0.931611	93544448	63057920	27302432	24992
266	0.958377	93544448	63057920	28568032	24992
267	0.938973	93544448	63057920	29836712	24992
268	0.989857	93544448	63057920	14792792	24992
269	0.968917	93544448	63057920	16066392	24992
270	0.979026	93544448	63057920	17350144	24992
271	0.97394	93544448	63057920	18631472	24992
272	1.305334	93544448	63057920	19925912	24992
273	0.978437	93544448	63057920	21215152	24992
274	0.975892	93544448	63057920	22510200	24992
275	0.956935	93544448	63057920	23807232	24992
276	0.988531	93544448	63057920	25109272	24992
277	0.990738	93544448	63057920	26414264	24992
278	0.9936	93544448	63057920	27723152	24992
279	1.013396	93544448	63057920	29037032	24992
280	1.154897	93544448	63057920	30353776	24992
281	1.011857	93544448	63057920	15369344	24992
282	1.006662	93544448	63057920	16694104	24992
283	0.987722	93544448	63057920	18022704	24992
284	1.009532	93544448	63057920	19356528	24992
285	1.015166	93544448	63057920	20693008	24992
286	1.007991	93544448	63057920	22033400	24992
287	0.971449	93544448	63057920	23377712	24992
288	1.167631	93544448	63057920	24726056	24992
289	1.030229	93544448	63057920	26079920	24992
290	1.034157	93544448	63057920	27436024	24992
291	1.040771	93544448	63057920	28806360	24992
292	1.036053	93544448	63057920	30170928	24992
293	1.22095	93544448	63057920	15252896	24992
294	1.049241	93544448	63057920	16624768	24992
295	1.053636	93544448	63057920	18000592	24992
296	1.050578	93544448	63057920	19383752	24992
297	1.053026	93544448	63057920	20767512	24992
298	1.217004	93544448	63057920	22157480	24992
299	1.058866	93544448	63057920	23549096	24992
300	1.069188	93544448	63057920	24944616	24992
301	1.06076	93544448	63057920	26344104	24992
302	1.06306	93544448	63057920	27748200	24992
303	1.066962	93544448	63057920	29155672	24992
304	1.075884	93544448	63057920	30566968	24992
305	1.093761	93544448	63057920	15623768	24992
306	1.075984	93544448	63057920	17043008	24992
307	1.079459	93544448	63057920	18466112	24992
308	1.266083	93544448	63057920	19896120	24992
309	1.080055	93544448	63057920	21329256	24992
310	1.076605	93544448	63057920	22764264	24992
311	1.093303	93544448	63057920	24206096	24992
312	1.094307	93544448	63057920	25660056	24992
313	1.69564	93544448	63057920	27118256	24992
314	1.105288	93544448	63057920	28568912	24992
315	1.062114	93544448	63057920	30023600	24992
316	1.147113	93544448	63057920	15217728	24992
317	1.118263	93544448	63057920	16686448	24992
318	1.073248	93544448	63057920	18157936	24992
319	1.078518	93544448	63057920	19631424	24992
320	1.122114	93544448	63057920	21106112	24992
321	1.164211	93544448	63057920	22584400	24992
322	1.176863	93544448	63057920	24066648	24992
323	1.130007	93544448	63057920	25552784	24992
324	1.140004	93544448	63057920	27046320	24992
325	1.142947	93544448	63057920	28540328	24992
326	1.140396	93544448	63057920	30041832	24992
327	1.320625	93544448	63057920	15296784	24992
328	1.123028	93544448	63057920	16802664	24992
329	1.153047	93544448	63057920	18312528	24992
330	1.165615	93544448	63057920	19826376	24992
331	1.160115	93544448	63057920	21344128	24992
332	1.148866	93544448	63057920	22869504	24992
333	1.175251	93544448	63057920	24395096	24992
334	1.16532	93544448	63057920	25924656	24992
335	1.17644	93544448	63057920	27459352	24992
336	1.172124	93544448	63057920	29004000	24992
337	1.132153	93544448	63057920	30562344	24992
338	1.1845	93544448	63057920	15805184	24992
339	1.180285	93544448	63057920	17370808	24992
340	1.188022	93544448	63057920	18952648	24992
341	1.205538	93544448	63057920	20527328	24992
342	1.191383	93544448	63057920	22104728	24992
343	1.197749	93544448	63057920	23686160	24992
344	1.20671	93544448	63057920	25271544	24992
345	1.201029	93544448	63057920	26868248	24992
346	1.196936	93544448	63057920	28463064	24992
347	1.213304	93544448	63057920	30060256	24992
348	1.226485	93544448	63057920	15298672	24992
349	1.215048	93544448	63057920	16903736	24992
350	1.364646	93544448	63057920	18525384	24992
351	1.233485	93544448	63057920	20139672	24992
352	1.225266	93544448	63057920	21756464	24992
353	1.224546	93544448	63057920	23377864	24992
354	1.38821	93544448	63057920	25015760	24992
355	1.223408	93544448	63057920	26644464	24992
356	1.235079	93544448	63057920	28277144	24992
357	1.24992	93544448	63057920	29919696	24992
358	1.598394	93544448	63057920	15235256	24992
359	1.243488	93544448	63057920	16879744	24992
360	1.250201	93544448	63057920	18545832	24992
361	1.252687	93544448	63057920	20220520	24992
362	1.248529	93544448	63057920	21899160	24992
363	1.432743	93544448	63057920	23583232	24992
364	1.260072	93544448	63057920	25269728	24992
365	1.271625	93544448	63057920	26960112	24992
366	1.274251	93544448	63057920	28654328	24992
367	1.432849	93544448	63057920	30352608	24992
368	1.287402	93544448	63057920	15822072	24992
369	1.27628	93544448	63057920	17528088	24992
370	1.2859	93544448	63057920	19240824	24992
371	1.61005	93544448	63057920	20954744	24992
372	1.232537	93544448	63057920	22672656	24992
373	1.28904	93544448	63057920	24406616	24992
374	1.297073	93544448	63057920	26132352	24992
375	1.296651	93544448	63057920	27862088	24992
376	1.294442	93544448	63057920	29596736	24992
377	1.701182	93544448	63057920	15056824	24992
378	1.313781	93544448	63057920	16798320	24992
379	1.306195	93544448	63057920	18543768	24992
380	1.30554	93544448	63057920	20293168	24992
381	1.36984	93544448	63057920	22046600	24992
382	1.317722	93544448	63057920	23803992	24992
383	1.317358	93544448	63057920	25565256	24992
384	1.268815	93544448	63057920	27330368	24992
385	1.298779	93544448	63057920	29099608	24992
386	1.327778	93544448	63057920	30875544	24992
387	1.336085	93544448	63057920	16344448	24992
388	1.350051	93544448	63057920	18125328	24992
389	1.355433	93544448	63057920	19916352	24992
390	1.338505	93544448	63057920	21705152	24992
391	1.34835	93544448	63057920	23497840	24992
392	1.31234	93544448	63057920	25294648	24992
393	1.363429	93544448	63057920	27095272	24992
394	1.400443	93544448	63057920	28905816	24992
395	1.359493	93544448	63057920	30714312	24992
396	1.369601	93544448	63057920	16219952	24992
397	1.370305	93544448	63057920	18036240	24992
398	1.370671	93544448	63057920	19856768	24992
399	1.308259	93544448	63057920	21695312	24992
400	1.343285	93544448	63057920	23523560	24992
401	1.385993	93544448	63057920	25358768	24992
402	1.382417	93544448	63057920	27195056	24992
403	1.316534	93544448	63057920	29035040	24992
404	1.378645	93544448	63057920	30881320	24992
405	1.396874	93544448	63057920	16425344	24992
406	1.39965	93544448	63057920	18277224	24992
407	1.391368	93544448	63057920	20136968	24992
408	1.40209	93544448	63057920	21996656	24992
409	1.396871	93544448	63057920	23879752	24992
410	1.407699	93544448	63057920	25776392	24992
411	1.406095	93544448	63057920	27664432	24992
412	1.421874	93544448	63057920	29563816	24992
413	1.832958	93544448	63057920	15243712	24992
414	1.408162	93544448	63057920	17164400	24992
415	1.574201	93544448	63057920	19068112	24992
416	1.432463	93544448	63057920	20975872	24992
417	1.363854	93544448	63057920	22928760	24992
418	1.424271	93544448	63057920	24927608	24992
419	1.578398	93544448	63057920	26919312	24992
420	1.442996	93544448	63057920	28908472	24992
421	1.438649	93544448	63057920	30901664	24992
422	1.443116	93544448	63057920	16598576	24992
423	1.446716	93544448	63057920	18599664	24992
424	1.443162	93544448	63057920	20604784	24992
425	1.458897	93544448	63057920	22613712	24992
426	1.455991	93544448	63057920	24626528	24992
427	1.460662	93544448	63057920	26643400	24992
428	1.463367	93544448	63057920	28667880	24992
429	1.461012	93544448	63057920	30699656	24992
430	1.63068	93544448	63057920	16462112	24992
431	1.441591	93544448	63057920	18494648	24992
432	1.46303	93544448	63057920	20531144	24992
433	1.478252	93544448	63057920	22571600	24992
434	1.470875	93544448	63057920	24616128	24992
435	1.454374	93544448	63057920	26667216	24992
436	1.493132	93544448	63057920	28721304	24992
437	1.485431	93544448	63057920	30787768	24992
438	1.494027	93544448	63057920	16553488	24992
439	1.49538	93544448	63057920	18617616	24992
440	1.498989	93544448	63057920	20685704	24992
441	1.644245	93544448	63057920	22757680	24992
442	1.515217	93544448	63057920	24833616	24992
443	1.511526	93544448	63057920	26913480	24992
444	1.50965	93544448	63057920	28997360	24992
445	1.517171	93544448	63057920	31085192	24992
446	1.516156	93544448	63057920	16904304	24992
447	1.529081	93544448	63057920	19010224	24992
448	1.54818	93544448	63057920	21109960	24992
449	1.53339	93544448	63057920	23213408	24992
450	1.46136	93544448	63057920	25320840	24992
451	1.471856	93544448	63057920	27432256	24992
452	1.527995	93544448	63057920	29547480	24992
453	1.888956	93544448	63057920	15461672	24992
454	1.546676	93544448	63057920	17584864	24992
455	1.841505	93544448	63057920	19712016	24992
456	1.614999	93544448	63057920	21843128	24992
457	1.546805	93544448	63057920	23978096	24992
458	1.545544	93544448	63057920	26117024	24992
459	1.493706	93544448	63057920	28263744	24992
460	1.559551	93544448	63057920	30427112	24992
461	1.512751	93544448	63057920	16401624	24992
462	1.579253	93544448	63057920	18596136	24992
463	1.589468	93544448	63057920	20754784	24992
464	1.581377	93544448	63057920	22917416	24992
465	1.570873	93544448	63057920	25083856	24992
466	1.581338	93544448	63057920	27261520	24992
467	1.580763	93544448	63057920	29452696	24992
468	2.006598	93544448	63057920	15432120	24992
469	1.553551	93544448	63057920	17620040	24992
470	1.568935	93544448	63057920	19806232	24992
471	1.600699	93544448	63057920	21996376	24992
472	1.758092	93544448	63057920	24204512	24992
473	1.601136	93544448	63057920	26406016	24992
474	1.632945	93544448	63057920	28607968	24992
475	1.595435	93544448	63057920	30813808	24992
476	1.591533	93544448	63057920	16794768	24992
477	1.601664	93544448	63057920	19008392	24992
478	1.57638	93544448	63057920	21232936	24992
479	1.633049	93544448	63057920	23454704	24992
480	1.629237	93544448	63057920	25680216	24992
481	1.639383	93544448	63057920	27909712	24992
482	1.641452	93544448	63057920	30143200	24992
483	1.902245	93544448	63057920	16095328	24992
484	1.633052	93544448	63057920	18336720	24992
485	1.636956	93544448	63057920	20581896	24992
486	1.761554	93544448	63057920	22834488	24992
487	1.644869	93544448	63057920	25087656	24992
488	1.640696	93544448	63057920	27344720	24992
489	1.799612	93544448	63057920	29618552	24992
490	2.100528	93544448	63057920	15696312	24992
491	1.657046	93544448	63057920	17965272	24992
492	1.808276	93544448	63057920	20240648	24992
493	1.67805	93544448	63057920	22517456	24992
494	1.672369	93544448	63057920	24798168	24992
495	1.676171	93544448	63057920	27096048	24992
496	1.663972	93544448	63057920	29384608	24992
497	2.113791	93544448	63057920	15504536	24992
498	1.677124	93544448	63057920	17815992	24992
499	1.604642	93544448	63057920	20116456	24992
500	1.68379	93544448	63057920	22439120	24992
501	1.687458	93544448	63057920	24749952	24992
502	1.679199	93544448	63057920	27063368	24992
503	1.695834	93544448	63057920	29379560	24992
504	2.127601	93544448	63057920	15526248	24992
505	1.701774	93544448	63057920	17868648	24992
506	1.849492	93544448	63057920	20196640	24992
507	1.706484	93544448	63057920	22548096	24992
508	1.858991	93544448	63057920	24883928	24992
509	1.743727	93544448	63057920	27224240	24992
510	1.721714	93544448	63057920	29588184	24992
511	2.3977	93544448	63057920	15758336	24992
512	1.699244	93544448	63057920	18113792	24992
513	1.669049	93544448	63057920	20482632	24992
514	1.98293	93544448	63057920	22842136	24992
515	1.754982	93544448	63057920	25207544	24992
516	1.726053	93544448	63057920	27583816	24992
517	1.763643	93544448	63057920	29955240	24992
518	2.096326	93544448	63057920	16073688	24992
519	1.892091	93544448	63057920	18462448	24992
520	1.740629	93544448	63057920	20856824	24992
521	1.752098	93544448	63057920	23243864	24992
522	1.752416	93544448	63057920	25638432	24992
523	1.746376	93544448	63057920	28033360	24992
524	1.755213	93544448	63057920	30435736	24992
525	2.069435	93544448	63057920	16471904	24992
526	1.76514	93544448	63057920	18894536	24992
527	1.760929	93544448	63057920	21305304	24992
528	1.702756	93544448	63057920	23726552	24992
529	1.731386	93544448	63057920	26146368	24992
530	1.737478	93544448	63057920	28568824	24992
531	1.775006	93544448	63057920	31011456	24992
532	1.709928	93544448	63057920	17239168	24992
533	1.78263	93544448	63057920	19680632	24992
534	1.775602	93544448	63057920	22121064	24992
535	1.708118	93544448	63057920	24563824	24992
536	1.791569	93544448	63057920	27009896	24992
537	1.794268	93544448	63057920	29461056	24992
538	2.244432	93544448	63057920	15760792	24992
539	1.725835	93544448	63057920	18219160	24992
540	1.732836	93544448	63057920	20682928	24992
541	1.727883	93544448	63057920	23148960	24992
542	1.800139	93544448	63057920	25632824	24992
543	1.803097	93544448	63057920	28106536	24992
544	1.812892	93544448	63057920	30590976	24992
545	1.833582	93544448	63057920	16712912	24992
546	1.824397	93544448	63057920	19211336	24992
547	1.831292	93544448	63057920	21721840	24992
548	1.828248	93544448	63057920	24216432	24992
549	1.830367	93544448	63057920	26715376	24992
550	1.842285	93544448	63057920	29216664	24992
551	1.767654	93544448	63057920	31722592	24992
552	1.84393	93544448	63057920	17898808	24992
553	1.799993	93544448	63057920	20412016	24992
554	1.838428	93544448	63057920	22950552	24992
555	1.842195	93544448	63057920	25476672	24992
556	1.851062	93544448	63057920	28028840	24992
557	1.852814	93544448	63057920	30598136	24992
558	1.8781	93544448	63057920	16824144	24992
559	2.020327	93544448	63057920	19416120	24992
560	1.878134	93544448	63057920	22000272	24992
561	1.899495	93544448	63057920	24584280	24992
562	2.054734	93544448	63057920	27168400	24992
563	1.889043	93544448	63057920	29769112	24992
564	2.279212	93544448	63057920	16172040	24992
565	1.900592	93544448	63057920	18771104	24992
566	1.897161	93544448	63057920	21370568	24992
567	1.890362	93544448	63057920	23976024	24992
568	2.059492	93544448	63057920	26582256	24992
569	1.902123	93544448	63057920	29200392	24992
570	1.885458	93544448	63057920	31814688	24992
571	1.869438	93544448	63057920	18101608	24992
572	1.902087	93544448	63057920	20741288	24992
573	1.911968	93544448	63057920	23368136	24992
574	1.912548	93544448	63057920	26003976	24992
575	1.917491	93544448	63057920	28642848	24992
576	1.922119	93544448	63057920	31280608	24992
577	1.902517	93544448	63057920	17700304	24992
578	1.940458	93544448	63057920	20345880	24992
579	2.100371	93544448	63057920	23003360	24992
580	2.096063	93544448	63057920	25656856	24992
581	1.941738	93544448	63057920	28314376	24992
582	1.951149	93544448	63057920	31000952	24992
583	1.955016	93544448	63057920	17522040	24992
584	1.943869	93544448	63057920	20194584	24992
585	1.94188	93544448	63057920	22887208	24992
586	1.930346	93544448	63057920	25567928	24992
587	1.876361	93544448	63057920	28249176	24992
588	1.948884	93544448	63057920	30936080	24992
589	1.997465	93544448	63057920	17488280	24992
590	2.130848	93544448	63057920	20181232	24992
591	1.982203	93544448	63057920	22878056	24992
592	1.987017	93544448	63057920	25578936	24992
593	2.106059	93544448	63057920	28283672	24992
594	1.975404	93544448	63057920	30992288	24992
595	1.99049	93544448	63057920	17567440	24992
596	1.977722	93544448	63057920	20287032	24992
597	1.947037	93544448	63057920	23011120	24992
598	1.988147	93544448	63057920	25737160	24992
599	1.999373	93544448	63057920	28465424	24992
600	2.001831	93544448	63057920	31197872	24992
601	2.149665	93544448	63057920	17798440	24992
602	1.967154	93544448	63057920	20538760	24992
603	2.000657	93544448	63057920	23295720	24992
604	2.002477	93544448	63057920	26043672	24992
605	2.005586	93544448	63057920	28796568	24992
606	2.010947	93544448	63057920	31560496	24992
607	2.062685	93544448	63057920	18075912	24992
608	1.947362	93544448	63057920	20845024	24992
609	2.14233	93544448	63057920	23612880	24992
610	2.019123	93544448	63057920	26384576	24992
611	2.035051	93544448	63057920	29167224	24992
612	2.01397	93544448	63057920	31962280	24992
613	2.029841	93544448	63057920	18461400	24992
614	2.034781	93544448	63057920	21248888	24992
615	2.044246	93544448	63057920	24042448	24992
616	2.01863	93544448	63057920	26837968	24992
617	2.207108	93544448	63057920	29653104	24992
618	2.518699	93544448	63057920	16332336	24992
619	2.052285	93544448	63057920	19148688	24992
620	2.048334	93544448	63057920	21960208	24992
621	2.053149	93544448	63057920	24778072	24992
622	2.069196	93544448	63057920	27621304	24992
623	1.985996	93544448	63057920	30449464	24992
624	2.438892	93544448	63057920	17039552	24992
625	2.195397	93544448	63057920	19870792	24992
626	2.076197	93544448	63057920	22705624	24992
627	2.079624	93544448	63057920	25548520	24992
628	2.070867	93544448	63057920	28391176	24992
629	2.089655	93544448	63057920	31238208	24992
630	2.113482	93544448	63057920	17968408	24992
631	2.082027	93544448	63057920	20825104	24992
632	2.052502	93544448	63057920	23687184	24992
633	2.055872	93544448	63057920	26549552	24992
634	2.104404	93544448	63057920	29419440	24992
635	2.703027	93544448	63057920	16181960	24992
636	2.061173	93544448	63057920	19071672	24992
637	2.116756	93544448	63057920	21949760	24992
638	2.078678	93544448	63057920	24832704	24992
639	2.113351	93544448	63057920	27733424	24992
640	2.113492	93544448	63057920	30629120	24992
641	2.443854	93544448	63057920	17237320	24992
642	2.187891	93544448	63057920	20137240	24992
643	2.237105	93544448	63057920	23038888	24992
644	2.241501	93544448	63057920	25952144	24992
645	2.396178	93544448	63057920	28861584	24992
646	2.253702	93544448	63057920	31775048	24992
647	2.261803	93544448	63057920	18464720	24992
648	2.137127	93544448	63057920	21386160	24992
649	2.135745	93544448	63057920	24342304	24992
650	2.201653	93544448	63057920	27281664	24992
651	2.251818	93544448	63057920	30214984	24992
652	2.65128	93544448	63057920	16923424	24992
653	2.072516	93544448	63057920	19872312	24992
654	2.158846	93544448	63057920	22845520	24992
655	2.359021	93544448	63057920	25796128	24992
656	2.199277	93544448	63057920	28749040	24992
657	2.1657	93544448	63057920	31713000	24992
658	2.173351	93544448	63057920	18470880	24992
659	2.173285	93544448	63057920	21458472	24992
660	2.331063	93544448	63057920	24431488	24992
661	2.184984	93544448	63057920	27404048	24992
662	2.138779	93544448	63057920	30380496	24992
663	2.554713	93544448	63057920	17138224	24992
664	2.323912	93544448	63057920	20147376	24992
665	2.366726	93544448	63057920	23135696	24992
666	2.197523	93544448	63057920	26140656	24992
667	2.200503	93544448	63057920	29141432	24992
668	2.210381	93544448	63057920	32141680	24992
669	2.26324	93544448	63057920	18920560	24992
670	2.357734	93544448	63057920	21945504	24992
671	2.214605	93544448	63057920	24957504	24992
672	2.372402	93544448	63057920	27975528	24992
673	2.22185	93544448	63057920	31000784	24992
674	2.454146	93544448	63057920	17951656	24992
675	2.224006	93544448	63057920	20980992	24992
676	2.198068	93544448	63057920	24036168	24992
677	2.392475	93544448	63057920	27071872	24992
678	2.236706	93544448	63057920	30111408	24992
679	2.633242	93544448	63057920	16963288	24992
680	2.154742	93544448	63057920	20015768	24992
681	2.222605	93544448	63057920	23072640	24992
682	2.402237	93544448	63057920	26149144	24992
683	2.254447	93544448	63057920	29218728	24992
684	2.226898	93544448	63057920	32299744	24992
685	2.230221	93544448	63057920	19087064	24992
686	2.258662	93544448	63057920	22186760	24992
687	2.382275	93544448	63057920	25284440	24992
688	2.271791	93544448	63057920	28382120	24992
689	2.437104	93544448	63057920	31488136	24992
690	2.28871	93544448	63057920	18501760	24992
691	2.270756	93544448	63057920	21626880	24992
692	2.293595	93544448	63057920	24741000	24992
693	2.294681	93544448	63057920	27882768	24992
694	2.438795	93544448	63057920	31006104	24992
695	2.302477	93544448	63057920	17785000	24992
696	2.285326	93544448	63057920	20913984	24992
697	2.29862	93544448	63057920	24044952	24992
698	2.29819	93544448	63057920	27179720	24992
699	2.293673	93544448	63057920	30338720	24992
700	2.676008	93544448	63057920	17273224	24992
701	2.418391	93544448	63057920	20436616	24992
702	2.300757	93544448	63057920	23592216	24992
703	2.425382	93544448	63057920	26759264	24992
704	2.326164	93544448	63057920	29917800	24992
705	2.802077	93544448	63057920	16992376	24992
706	2.279636	93544448	63057920	20158736	24992
707	2.32653	93544448	63057920	23340536	24992
708	2.430056	93544448	63057920	26514832	24992
709	2.331512	93544448	63057920	29699552	24992
710	2.944501	93544448	63057920	16810888	24992
711	2.242753	93544448	63057920	19999592	24992
712	2.33456	93544448	63057920	23213768	24992
713	2.308986	93544448	63057920	26434608	24992
714	2.35327	93544448	63057920	29632336	24992
715	2.954988	93544448	63057920	16759528	24992
716	2.352001	93544448	63057920	19965112	24992
717	2.519632	93544448	63057920	23176592	24992
718	2.323909	93544448	63057920	26391912	24992
719	2.362179	93544448	63057920	29619488	24992
720	2.851156	93544448	63057920	16769032	24992
721	2.290638	93544448	63057920	19994456	24992
722	2.361327	93544448	63057920	23224976	24992
723	2.382492	93544448	63057920	26458352	24992
724	2.510968	93544448	63057920	29695536	24992
725	2.871152	93544448	63057920	16867272	24992
726	2.554868	93544448	63057920	20113648	24992
727	2.306642	93544448	63057920	23363184	24992
728	2.392635	93544448	63057920	26618792	24992
729	2.465773	93544448	63057920	29875712	24992
730	2.936693	93544448	63057920	17071128	24992
731	2.305753	93544448	63057920	20346488	24992
732	2.42853	93544448	63057920	23622976	24992
733	2.595956	93544448	63057920	26895872	24992
734	2.362885	93544448	63057920	30179704	24992
735	3.126505	93544448	63057920	17265104	24992
736	2.424992	93544448	63057920	20554392	24992
737	2.422138	93544448	63057920	23844296	24992
738	2.384872	93544448	63057920	27169944	24992
739	2.4244	93544448	63057920	30466304	24992
740	2.81355	93544448	63057920	17567320	24992
741	2.428464	93544448	63057920	20874112	24992
742	2.452758	93544448	63057920	24194712	24992
743	2.446713	93544448	63057920	27506864	24992
744	2.693529	93544448	63057920	30839720	24992
745	2.725809	93544448	63057920	17900056	24992
746	2.628101	93544448	63057920	21223960	24992
747	2.44955	93544448	63057920	24551864	24992
748	2.452039	93544448	63057920	27883584	24992
749	2.461353	93544448	63057920	31219408	24992
750	2.451637	93544448	63057920	18500160	24992
751	2.479613	93544448	63057920	21850488	24992
752	2.515225	93544448	63057920	25226208	24992
753	2.425421	93544448	63057920	28580152	24992
754	2.482624	93544448	63057920	31941688	24992
755	2.645155	93544448	63057920	19123024	24992
756	2.369724	93544448	63057920	22489608	24992
757	2.461833	93544448	63057920	25857480	24992
758	2.586813	93544448	63057920	29228536	24992
759	2.486967	93544448	63057920	32603656	24992
760	2.498747	93544448	63057920	19745840	24992
761	2.48521	93544448	63057920	23136400	24992
762	2.41432	93544448	63057920	26523416	24992
763	2.505473	93544448	63057920	29919880	24992
764	2.899113	93544448	63057920	17266936	24992
765	2.490352	93544448	63057920	20666120	24992
766	2.497814	93544448	63057920	24085688	24992
767	2.509456	93544448	63057920	27492344	24992
768	2.648387	93544448	63057920	30911376	24992
769	2.845839	93544448	63057920	18070712	24992
770	2.729625	93544448	63057920	21496176	24992
771	2.52913	93544448	63057920	24919376	24992
772	2.553864	93544448	63057920	28361960	24992
773	2.528603	93544448	63057920	31806680	24992
774	2.553784	93544448	63057920	19206672	24992
775	3.197601	93544448	63057920	22645040	24992
776	2.58715	93544448	63057920	26096168	24992
777	2.453357	93544448	63057920	29569352	24992
778	3.05585	93544448	63057920	17024000	24992
779	2.458141	93544448	63057920	20477752	24992
780	2.656246	93544448	63057920	23942368	24992
781	2.454312	93544448	63057920	27407824	24992
782	2.467377	93544448	63057920	30897896	24992
783	3.140273	93544448	63582208	18192584	24992
784	2.583831	93544448	63582208	21672224	24992
785	2.704382	93544448	63582208	25149712	24992
786	2.583033	93544448	63582208	28649288	24992
787	2.540479	93544448	63582208	32159192	24992
788	2.558157	93544448	63582208	19499048	24992
789	2.727799	93544448	63582208	23018960	24992
790	2.587681	93544448	63582208	26522960	24992
791	2.753541	93544448	63582208	30024480	24992
792	3.022196	93544448	63582208	17535720	24992
793	2.763308	93544448	63582208	21045896	24992
794	2.594342	93544448	63582208	24562720	24992
795	2.600999	93544448	63582208	28109680	24992
796	2.612728	93544448	63582208	31630464	24992
797	2.618427	93544448	63582208	19145712	24992
798	2.513604	93544448	63582208	22674472	24992
799	2.615597	93544448	63582208	26219760	24992
800	2.527014	93544448	63582208	29759120	24992
801	3.118465	93544448	63582208	17330832	24992
802	2.737486	93544448	63582208	20875288	24992
803	2.618236	93544448	63582208	24436312	24992
804	2.525483	93544448	63582208	28024536	24992
805	2.663654	93544448	63582208	31580752	24992
806	2.538973	93544448	63582208	19131104	24992
807	2.641806	93544448	63582208	22711632	24992
808	2.534013	93544448	63582208	26310152	24992
809	2.547417	93544448	63582208	29882176	24992
810	3.105957	93544448	63582208	17452624	24992
811	2.547621	93544448	63582208	21059672	24992
812	2.844053	93544448	63582208	24671912	24992
813	2.66349	93544448	63582208	28284184	24992
814	2.781139	93544448	63582208	31896424	24992
815	2.591181	93544448	63582208	19490608	24992
816	2.847305	93544448	63582208	23095616	24992
817	2.643052	93544448	63582208	26708784	24992
818	2.777803	93544448	63582208	30322016	24992
819	3.150124	93544448	63582208	17836176	24992
820	2.768486	93544448	63582208	21469592	24992
821	2.66643	93544448	63582208	25099416	24992
822	2.649341	93544448	63582208	28725136	24992
823	2.809935	93544448	63582208	32353944	24992
824	2.818607	93544448	63582208	19862320	24992
825	2.693317	93544448	63582208	23497496	24992
826	2.824747	93544448	63582208	27136600	24992
827	2.581629	93544448	63582208	30817304	24992
828	3.370815	93544448	63582208	18314632	24992
829	2.846647	93544448	63582208	21982000	24992
830	2.936875	93544448	63582208	25676304	24992
831	2.86107	93544448	63582208	29355992	24992
832	2.825373	93544448	63582208	33082688	24992
833	2.72145	93814784	63582208	20579416	24992
834	2.737756	93814784	63582208	24282560	24992
835	2.678023	93814784	63582208	27981408	24992
836	2.949101	93814784	63582208	31676144	24992
837	2.743929	93814784	63582208	19395080	24992
838	2.851812	93814784	63582208	23130760	24992
839	2.638114	93814784	63582208	26944312	24992
840	2.642351	93814784	63582208	30720432	24992
841	3.210479	93814784	63582208	18353920	24992
842	2.69823	93814784	63582208	22139024	24992
843	2.756606	93814784	63582208	25943952	24992
844	2.748909	93814784	63582208	29735928	24992
845	3.374086	93814784	63582208	17561704	24992
846	2.76682	93814784	63582208	21383480	24992
847	2.761155	93814784	63582208	25187288	24992
848	2.778639	93814784	63582208	29000400	24992
849	2.77628	93814784	63582208	32812128	24992
850	2.828462	93814784	63582208	20539848	24992
851	2.702873	93814784	63582208	24423224	24992
852	2.724148	93814784	63582208	28298424	24992
853	2.740087	93814784	63582208	32202296	24992
854	2.798338	93814784	63582208	20132184	24992
855	2.756706	93814784	63582208	24030024	24992
856	2.934391	93814784	63582208	27920896	24992
857	2.701836	93814784	63582208	31826312	24992
858	2.78564	93814784	63582208	19780440	24992
859	2.958307	93814784	63582208	23683256	24992
860	2.794937	93814784	63582208	27631688	24992
861	2.781169	93814784	63582208	31542280	24992
862	2.812399	93814784	63582208	19189096	24992
863	2.964956	93814784	63582208	23122632	24992
864	2.943852	93814784	63582208	27074800	24992
865	2.985575	93814784	63582208	31001128	24992
866	3.353991	93814784	63582208	18802024	24992
867	2.754232	93814784	63582208	22740176	24992
868	2.732961	93814784	63582208	26703528	24992
869	2.714252	93814784	63582208	30645616	24992
870	3.282007	93814784	63582208	18457216	24992
871	2.813013	93814784	63582208	22407128	24992
872	2.851484	93814784	63582208	26361112	24992
873	2.7243	93814784	63582208	30341672	24992
874	3.420364	93814784	63582208	18268792	24992
875	2.73888	93814784	63582208	22242576	24992
876	2.725167	93814784	63582208	26228064	24992
877	2.861088	93814784	63582208	30201560	24992
878	3.465902	93814784	63582208	18228296	24992
879	2.870589	93814784	63582208	22216824	24992
880	3.03297	93814784	63582208	26242088	24992
881	2.875839	93814784	63582208	30231440	24992
882	3.454849	93814784	63582208	18275736	24992
883	2.895063	93814784	63582208	22285312	24992
884	2.772858	93814784	63582208	26314224	24992
885	2.880438	93814784	63582208	30349136	24992
886	3.61759	93814784	63582208	18353528	24992
887	2.891529	93814784	63582208	22366536	24992
888	2.902779	93814784	63582208	26415264	24992
889	2.782045	93814784	63582208	30477032	24992
890	3.541476	93814784	63582208	18427952	24992
891	2.905273	93814784	63582208	22456744	24992
892	2.843988	93814784	63582208	26492080	24992
893	3.059582	93814784	63582208	30541472	24992
894	3.548403	93814784	63582208	18521632	24992
895	3.042336	93814784	63582208	22566280	24992
896	2.918263	93814784	63582208	26614696	24992
897	2.931313	93814784	63582208	30674376	24992
898	3.579007	93814784	63582208	18616672	24992
899	2.928187	93814784	63582208	22677080	24992
900	2.93933	93814784	63582208	26741328	24992
901	2.818908	93814784	63582208	30814320	24992
902	3.537089	93814784	63582208	18760792	24992
903	2.88231	93814784	63582208	22890536	24992
904	2.823839	93814784	63582208	27018392	24992
905	2.925716	93814784	63582208	31147360	24992
906	3.687464	93814784	63582208	19148472	24992
907	2.839662	93814784	63582208	23240288	24992
908	3.132913	93814784	63582208	27336056	24992
909	2.960125	93814784	63582208	31435664	24992
910	3.531576	93814784	63582208	19358216	24992
911	2.96404	93814784	63582208	23473704	24992
912	2.844965	93814784	63582208	27602456	24992
913	2.964	93814784	63582208	31739584	24992
914	2.987631	93814784	63582208	19653224	24992
915	3.156432	93814784	63582208	23776536	24992
916	2.877255	93814784	63582208	27903680	24992
917	3.000598	93814784	63582208	32034784	24992
918	2.898746	93814784	63582208	20234816	24992
919	2.90254	93814784	63582208	24373888	24992
920	2.994557	93814784	63582208	28516920	24992
921	2.97827	93814784	63582208	32686904	24992
922	3.086763	93814784	63582208	20850384	24992
923	2.944092	93814784	63582208	25026952	24992
924	2.982714	93814784	63582208	29215080	24992
925	2.951692	93814784	63582208	33390968	24992
926	3.016326	93814784	63582208	21445368	24992
927	2.885276	93814784	63582208	25654792	24992
928	3.081482	93814784	63582208	29853368	24992
929	3.769294	93814784	63582208	18106168	24992
930	3.016726	93814784	63582208	22288696	24992
931	3.023368	93814784	63582208	26475096	24992
932	2.918598	93814784	63582208	30665384	24992
933	3.83292	93814784	63582208	18813272	24992
934	3.031107	93814784	63582208	23015680	24992
935	3.163041	93814784	63582208	27221952	24992
936	3.054518	93814784	63582208	31468672	24992
937	3.670065	93814784	63582208	19563296	24992
938	2.965257	93814784	63582208	23778648	24992
939	2.990851	93814784	63582208	27996480	24992
940	2.959061	93814784	63582208	32218264	24992
941	3.073337	93814784	63582208	20549768	24992
942	3.183643	93814784	63582208	24827336	24992
943	3.009067	93814784	63582208	29060928	24992
944	3.067888	93814784	63582208	33298576	24992
945	3.090208	93814784	63582208	21423160	24992
946	3.072662	93814784	63582208	25719312	24992
947	3.094578	93814784	63582208	30018640	24992
948	3.819087	93814784	63582208	18355632	24992
949	3.253438	93814784	63582208	22653408	24992
950	3.087409	93814784	63582208	26955920	24992
951	3.030446	93814784	63582208	31221104	24992
952	3.751983	93814784	63582208	19379344	24992
953	3.107599	93814784	63582208	23652472	24992
954	3.079233	93814784	63582208	27929432	24992
955	3.094242	93814784	63582208	32216984	24992
956	3.19125	93814784	63582208	20586008	24992
957	3.054133	93814784	63582208	24887048	24992
958	3.110531	93814784	63582208	29179672	24992
959	3.10332	93814784	63582208	33480552	24992
960	3.068234	93814784	63582208	21706800	24992
961	3.128537	93814784	63582208	26037656	24992
962	3.132561	93814784	63582208	30346048	24992
963	3.948302	93814784	63582208	18757656	24992
964	3.127257	93814784	63582208	23073992	24992
965	3.136246	93814784	63582208	27412184	24992
966	3.296882	93814784	63582208	31748016	24992
967	4.143114	93814784	63582208	19882192	24992
968	3.139207	93814784	63582208	24214352	24992
969	3.146197	93814784	63582208	28551648	24992
970	3.097436	93814784	63582208	32891776	24992
971	3.317903	93814784	63582208	21316656	24992
972	3.085537	93814784	63582208	25675728	24992
973	3.112373	93814784	63582208	30071472	24992
974	3.991932	93814784	63582208	18538560	24992
975	3.035941	93814784	63582208	22905744	24992
976	3.48333	93814784	63582208	27274088	24992
977	3.166355	93814784	63582208	31664640	24992
978	4.017543	93814784	63582208	19937576	24992
979	3.175854	93814784	63582208	24313016	24992
980	3.155967	93814784	63582208	28697592	24992
981	3.17278	93814784	63582208	33080880	24992
982	3.419312	93814784	63582208	21442184	24992
983	3.436001	93814784	63582208	25833304	24992
984	3.221501	93814784	63582208	30229984	24992
985	3.998188	93814784	63582208	18728232	24992
986	3.250794	93814784	63582208	23155904	24992
987	3.118635	93814784	63582208	27588272	24992
988	3.351978	93814784	63582208	32010928	24992
989	3.854205	93814784	63582208	20157768	24992
990	3.081172	93814784	63582208	24581424	24992
991	3.073666	93814784	63582208	29004168	24992
992	3.214585	93814784	63582208	33437488	24992
993	3.217352	93814784	63582208	21770224	24992
994	3.218592	93814784	63582208	26204632	24992
995	3.343357	93814784	63582208	30643024	24992
996	4.25697	93814784	63582208	19229816	24992
997	3.220742	93814784	63582208	23676272	24992
998	3.32919	93814784	63582208	28126536	24992
999	3.166011	93814784	63582208	32607888	24992
1000	3.142708	93814784	63582208	21175016	24992
