x	Duration	RSS	HeapTotal	HeapUsed	External
0	NA	94724096	66727936	12754584	24992
1	0.254281	94724096	66727936	12806496	24992
2	0.191244	94724096	66727936	12883272	24992
3	0.11818	94724096	66727936	12997848	24992
4	0.118759	94724096	66727936	13096816	24992
5	0.121828	94724096	66727936	13200272	24992
6	0.127058	94724096	66727936	13307672	24992
7	0.128882	94724096	66727936	13419016	24992
8	0.131519	94724096	66727936	13534304	24992
9	0.135217	94724096	66727936	13653880	24992
10	0.139801	94724096	66727936	13779296	24992
11	0.142658	94724096	66727936	13909808	24992
12	0.148998	94724096	66727936	14044280	24992
13	0.152149	94724096	66727936	14182752	24992
14	0.154511	94724096	66727936	14325096	24992
15	0.158696	94724096	66727936	14472424	24992
16	0.161649	94724096	66727936	14623736	24992
17	0.166139	94724096	66727936	14779080	24992
18	0.412766	94724096	66727936	14938296	24992
19	0.184271	94724096	66727936	15102880	24992
20	0.184625	94724096	66727936	15272384	24992
21	0.205845	94724096	66727936	15445184	24992
22	0.372911	94724096	66727936	15621928	24992
23	0.189579	94724096	66727936	15802616	24992
24	0.202715	94724096	66727936	15993024	24992
25	0.193217	94724096	66727936	16185944	24992
26	0.196509	94724096	66727936	16384400	24992
27	0.212133	94724096	66727936	16585208	24992
28	0.224891	94724096	66727936	16789984	24992
29	0.235079	94724096	66727936	16999592	24992
30	0.240034	94724096	66727936	17212216	24992
31	0.246513	94724096	66727936	17431352	24992
32	0.20986	94724096	66727936	17653952	24992
33	0.214061	94724096	66727936	17880504	24992
34	0.208671	94724096	66727936	18112960	24992
35	0.208758	94724096	66727936	18347152	24992
36	0.21121	94724096	66727936	18585160	24992
37	0.223354	94724096	66727936	18827096	24992
38	0.235757	94724096	66727936	19072976	24992
39	0.221248	94724096	66727936	19322792	24992
40	0.224664	94724096	66727936	19576664	24992
41	0.22689	94724096	66727936	19834368	24992
42	0.235449	94724096	66727936	20098144	24992
43	0.230888	94724096	66727936	20365848	24992
44	0.238415	94724096	66727936	20637512	24992
45	0.268712	94724096	66727936	20915800	24992
46	0.240551	94724096	66727936	21198664	24992
47	0.270175	94724096	66727936	21485496	24992
48	0.268984	94724096	66727936	21776240	24992
49	0.273423	94724096	66727936	22071096	24992
50	0.275681	94724096	66727936	22373952	24992
51	0.278441	94724096	66727936	22684984	24992
52	0.303668	94724096	66727936	22999992	24992
53	0.266106	94724096	66727936	23318872	24992
54	0.269031	94724096	66727936	23641712	24992
55	0.270829	94724096	66727936	23968480	24992
56	0.272343	94724096	66727936	24299216	24992
57	0.329976	94724096	66727936	24633928	24992
58	0.289592	94724096	66727936	24972520	24992
59	0.282472	94724096	66727936	25315080	24992
60	0.28559	94724096	66727936	25661544	24992
61	0.311954	94724096	66727936	26011936	24992
62	0.316274	94724096	66727936	26367344	24992
63	0.318949	94724096	66727936	26725640	24992
64	0.331816	94724096	66727936	27087856	24992
65	0.324379	94724096	66727936	27454064	24992
66	0.33147	94724096	66727936	27824256	24992
67	0.335081	94724096	66727936	28198352	24992
68	0.335773	94724096	66727936	28576328	24992
69	0.337344	94724096	66727936	28958264	24992
70	1.156697	94724096	66727936	13240696	24992
71	0.351684	94724096	66727936	13630536	24992
72	0.350604	94724096	66727936	14025032	24992
73	0.353647	94724096	66727936	14422704	24992
74	0.354226	94724096	66727936	14824352	24992
75	0.360349	94724096	66727936	15229984	24992
76	0.363639	94724096	66727936	15643672	24992
77	0.366385	94724096	66727936	16061280	24992
78	0.368042	94724096	66727936	16482800	24992
79	0.372938	94724096	66727936	16908344	24992
80	0.373256	94724096	66727936	17338008	24992
81	0.414431	94724096	66727936	17772472	24992
82	0.385864	94724096	66727936	18209768	24992
83	0.376113	94724096	66727936	18650968	24992
84	0.363078	94724096	66727936	19100592	24992
85	0.366696	94724096	66727936	19555328	24992
86	0.369184	94724096	66727936	20014072	24992
87	0.371028	94724096	66727936	20476760	24992
88	0.382855	94724096	66727936	20943272	24992
89	0.378576	94724096	66727936	21413744	24992
90	0.379061	94724096	66727936	21888248	24992
91	0.384441	94724096	66727936	22366696	24992
92	0.414877	94724096	66727936	22848992	24992
93	0.428783	94724096	66727936	23335208	24992
94	0.421922	94724096	66727936	23829584	24992
95	0.423893	94724096	66727936	24327920	24992
96	0.426785	94724096	66727936	24830112	24992
97	0.442192	94724096	66727936	25336240	24992
98	0.410102	94724096	66727936	25846312	24992
99	0.438486	94724096	66727936	26360352	24992
100	0.44905	94724096	66727936	26878624	24992
101	0.441532	94724096	66727936	27400920	24992
102	0.445437	94724096	66727936	27935248	24992
103	0.450964	94724096	66727936	28481648	24992
104	0.451815	94724096	66727936	29032000	24992
105	1.116007	94724096	66727936	13405880	24992
106	0.464071	94724096	66727936	13966944	24992
107	0.46254	94724096	66727936	14529160	24992
108	0.463798	94724096	66727936	15095312	24992
109	0.476829	94724096	66727936	15665424	24992
110	0.442754	94724096	66727936	16239400	24992
111	0.446661	94724096	66727936	16818304	24992
112	0.478235	94724096	66727936	17400160	24992
113	0.481095	94724096	66727936	17985960	24992
114	0.483714	94724096	66727936	18575712	24992
115	0.489356	94724096	66727936	19169632	24992
116	0.492513	94724096	66727936	19767272	24992
117	0.491335	94724096	66727936	20368864	24992
118	0.496194	94724096	66727936	20974408	24992
119	0.502235	94724096	66727936	21583864	24992
120	0.519673	94724096	66727936	22197232	24992
121	0.509677	94724096	66727936	22814568	24992
122	0.51185	94724096	66727936	23435816	24992
123	0.513039	94724096	66727936	24061144	24992
124	0.518664	94724096	66727936	24690272	24992
125	0.519104	94724096	66727936	25323328	24992
126	0.523365	94724096	66727936	25960384	24992
127	0.531913	94724096	66727936	26601432	24992
128	0.529562	94724096	66727936	27246360	24992
129	0.535503	94724096	66727936	27895200	24992
130	0.534922	94724096	66727936	28548024	24992
131	0.534086	94724096	66727936	29205112	24992
132	1.012815	94724096	66727936	13579792	24992
133	0.51806	94724096	66727936	14244368	24992
134	0.518321	94724096	66727936	14912896	24992
135	0.519124	94724096	66727936	15585424	24992
136	0.557267	94724096	66727936	16261816	24992
137	0.564962	94724096	66727936	16942176	24992
138	0.560252	94724096	66727936	17626512	24992
139	0.562644	94724096	66727936	18320536	24992
140	0.581609	94724096	66727936	19012720	24992
141	0.760174	94724096	66727936	19708832	24992
142	0.535916	94724096	66727936	20416192	24992
143	0.586949	94724096	66727936	21129384	24992
144	0.580379	94724096	66727936	21846520	24992
145	0.588008	94724096	66727936	22567520	24992
146	0.555067	94724096	66727936	23295776	24992
147	0.592533	94724096	66727936	24029200	24992
148	0.594868	94724096	66727936	24762208	24992
149	0.601779	94724096	66727936	25498968	24992
150	0.813982	94724096	66727936	26239672	24992
151	0.60858	94724096	66727936	26986288	24992
152	0.603251	94724096	66727936	27734888	24992
153	0.610435	94724096	66727936	28487408	24992
154	0.609149	94724096	66727936	29243904	24992
155	1.075093	94724096	66727936	13706816	24992
156	0.62382	94724096	66727936	14471184	24992
157	0.61867	94724096	66727936	15239520	24992
158	0.814124	94724096	66727936	16011752	24992
159	0.589765	94724096	66727936	16787976	24992
160	0.589811	94724096	66727936	17568656	24992
161	0.640475	94724096	66727936	18352752	24992
162	0.597571	94724096	66727936	19140816	24992
163	0.60055	94724096	66727936	19941544	24992
164	0.657124	94724096	66727936	20749880	24992
165	0.604454	94724096	66727936	21557928	24992
166	0.609547	94724096	66727936	22370000	24992
167	1.089431	94724096	66727936	23185952	24992
168	0.63999	94724096	66727936	24005896	24992
169	0.639092	94724096	66727936	24829760	24992
170	0.664738	94724096	66727936	25657512	24992
171	0.623829	94724096	66727936	26489288	24992
172	0.624787	94724096	66727936	27324912	24992
173	0.842476	94724096	66727936	28164496	24992
174	0.67509	94724096	66727936	29009448	24992
175	0.9963	94724096	66727936	29859600	24992
176	0.690266	94724096	66727936	14386048	24992
177	0.680454	94724096	66727936	15241480	24992
178	0.645522	94724096	66727936	16100752	24992
179	0.650388	94724096	66727936	16965400	24992
180	0.655387	94724096	66727936	17832584	24992
181	0.651732	94724096	66727936	18703640	24992
182	0.653578	94724096	66727936	19578664	24992
183	0.878184	94724096	66727936	20457656	24992
184	0.663998	94724096	66727936	21340640	24992
185	0.664023	94724096	66727936	22227464	24992
186	0.667842	94724096	66727936	23118336	24992
187	0.673557	94724096	66727936	24013048	24992
188	0.68432	94724096	66727936	24911816	24992
189	0.677886	94724096	66727936	25820768	24992
190	0.679861	94724096	66727936	26727304	24992
191	0.900789	94724096	66727936	27637840	24992
192	0.687349	94724096	66727936	28552384	24992
193	0.849405	94724096	66727936	29471688	24992
194	1.102352	94724096	66727936	14064808	24992
195	0.70324	94724096	66727936	14991096	24992
196	0.703866	94724096	66727936	15921352	24992
197	0.701325	94724096	66727936	16855592	24992
198	0.70302	94724096	66727936	17793720	24992
199	0.705699	94724096	66727936	18745488	24992
200	0.713256	94724096	66727936	19699680	24992
201	0.721519	94724096	66727936	20657856	24992
202	0.712581	94724096	66727936	21620080	24992
203	0.717007	94724096	66727936	22586104	24992
204	0.723589	94724096	66727936	23556080	24992
205	0.728616	94724096	66727936	24530000	24992
206	0.953579	94724096	66727936	25509488	24992
207	0.733061	94724096	66727936	26507760	24992
208	0.735046	94724096	66727936	27527560	24992
209	0.782861	94724096	66727936	28552632	24992
210	0.787166	94724096	66727936	29583800	24992
211	1.192545	94724096	66727936	14259792	24992
212	0.79588	94724096	66727936	15294360	24992
213	0.810703	94724096	66727936	16332856	24992
214	0.799092	94724096	66727936	17375240	24992
215	0.814512	94724096	66727936	18421584	24992
216	0.806262	94724096	66727936	19471888	24992
217	0.821233	94724096	66727936	20526080	24992
218	0.775296	94724096	66727936	21584296	24992
219	0.843405	94724096	66727936	22646496	24992
220	0.820468	94724096	66727936	23712552	24992
221	0.823341	94724096	66727936	24784976	24992
222	0.827957	94724096	66727936	25858824	24992
223	1.043022	94724096	66727936	26936616	24992
224	0.835696	94724096	66727936	28018400	24992
225	0.838102	94724096	66727936	29104112	24992
226	1.033068	94724096	66727936	30193800	24992
227	0.850692	94724096	66727936	14921808	24992
228	0.854054	94724096	66727936	16019304	24992
229	0.850968	94724096	66727936	17132816	24992
230	0.828149	94724096	66727936	18252688	24992
231	0.853787	94724096	66727936	19376416	24992
232	1.045751	94724096	66727936	20504232	24992
233	0.818175	94724096	66727936	21635800	24992
234	0.815368	94724096	66727936	22771432	24992
235	0.869191	94724096	66727936	23910936	24992
236	0.872137	94724096	66727936	25054440	24992
237	0.874791	94724096	66727936	26201768	24992
238	0.877862	94724096	66727936	27353184	24992
239	0.883026	94724096	66727936	28508584	24992
240	0.885134	94724096	66727936	29667752	24992
241	1.260866	94724096	66727936	14469904	24992
242	0.890298	94724096	66727936	15636976	24992
243	0.895659	94724096	66727936	16808968	24992
244	0.897383	94724096	66727936	17985120	24992
245	0.898982	94724096	66727936	19164064	24992
246	0.897974	94724096	66727936	20346920	24992
247	0.905803	94724096	66727936	21533640	24992
248	0.90701	94724096	66727936	22732320	24992
249	0.912121	94724096	66727936	23929656	24992
250	0.915956	94724096	66727936	25128280	24992
251	0.89715	94724096	66727936	26332536	24992
252	0.924409	94724096	66727936	27539768	24992
253	0.927857	94724096	66727936	28750120	24992
254	0.933541	94724096	66727936	29966656	24992
255	0.942723	94724096	66727936	14901752	24992
256	0.972425	94724096	66727936	16124064	24992
257	0.938035	94724096	66727936	17351648	24992
258	0.951112	94724096	66727936	18581768	24992
259	0.94719	94724096	66727936	19815816	24992
260	0.96067	94724096	66727936	21054064	24992
261	0.952002	94724096	66727936	22301272	24992
262	1.146233	94724096	66727936	23547080	24992
263	0.905887	94724096	66727936	24805752	24992
264	0.968314	94724096	66727936	26059496	24992
265	0.972206	94724096	66727936	27317928	24992
266	0.967377	94724096	66727936	28583528	24992
267	0.972029	94724096	66727936	29852208	24992
268	0.94708	94724096	66727936	14797800	24992
269	1.007126	94724096	66727936	16071256	24992
270	0.981682	94724096	66727936	17357120	24992
271	0.968818	94724096	66727936	18638440	24992
272	0.933399	94724096	66727936	19923656	24992
273	1.182467	94724096	66727936	21212808	24992
274	0.941948	94724096	66727936	22505912	24992
275	1.004139	94724096	66727936	23803008	24992
276	0.995706	94724096	66727936	25109976	24992
277	1.00021	94724096	66727936	26415016	24992
278	1.039782	94724096	66727936	27723912	24992
279	1.013125	94724096	66727936	29038248	24992
280	1.070694	94724096	66727936	30356952	24992
281	1.018134	94724096	66727936	15358472	24992
282	1.019357	94724096	66727936	16683264	24992
283	1.220015	94724096	66727936	18011864	24992
284	0.969845	94724096	66727936	19344424	24992
285	1.036392	94724096	66727936	20680904	24992
286	1.023009	94724096	66727936	22021320	24992
287	1.043406	94724096	66727936	23367136	24992
288	1.033588	94724096	66727936	24715368	24992
289	1.028663	94724096	66727936	26067816	24992
290	1.044542	94724096	66727936	27423920	24992
291	1.044448	94724096	66727936	28784096	24992
292	1.051197	94724096	66727936	30159384	24992
293	1.03204	94724096	66727936	15255752	24992
294	1.235304	94724096	66727936	16627624	24992
295	1.057583	94724096	66727936	18003440	24992
296	1.041901	94724096	66727936	19388648	24992
297	1.006338	94724096	66727936	20772408	24992
298	1.071108	94724096	66727936	22162376	24992
299	1.260123	94724096	66727936	23553992	24992
300	1.077453	94724096	66727936	24949512	24992
301	1.075609	94724096	66727936	26349000	24992
302	1.075668	94724096	66727936	27753096	24992
303	1.082455	94724096	66727936	29160568	24992
304	1.290775	94724096	66727936	30571864	24992
305	1.042575	94724096	66727936	15628664	24992
306	1.0357	94724096	66727936	17047904	24992
307	1.084288	94724096	66727936	18471008	24992
308	1.136236	94724096	66727936	19903120	24992
309	1.300733	94724096	66727936	21334152	24992
310	1.098111	94724096	66727936	22769160	24992
311	1.102506	94724096	66727936	24210992	24992
312	1.117339	94724096	66727936	25664952	24992
313	1.112253	94724096	66727936	27123152	24992
314	1.119724	94724096	66727936	28573808	24992
315	1.119158	94724096	66727936	30028496	24992
316	1.127108	94724096	66727936	15222624	24992
317	1.128771	94724096	66727936	16691344	24992
318	1.123252	94724096	66727936	18161832	24992
319	1.130515	94724096	66727936	19635320	24992
320	1.156051	94724096	66727936	21110008	24992
321	1.138369	94724096	66727936	22588296	24992
322	1.144519	94724096	66727936	24070544	24992
323	1.480874	94724096	66727936	25556680	24992
324	1.150135	94724096	66727936	27050216	24992
325	1.1464	94724096	66727936	28544224	24992
326	1.160119	94724096	66727936	30045728	24992
327	1.171153	94724096	66727936	15300680	24992
328	1.137397	94724096	66727936	16806560	24992
329	1.173465	94724096	66727936	18316424	24992
330	1.168709	94724096	66727936	19830272	24992
331	1.174973	94724096	66727936	21348024	24992
332	1.174884	94724096	66727936	22873400	24992
333	1.176935	94724096	66727936	24398992	24992
334	1.375809	94724096	66727936	25928552	24992
335	1.189542	94724096	66727936	27463248	24992
336	1.193896	94724096	66727936	29007896	24992
337	1.157357	94724096	66727936	30566240	24992
338	1.207085	94724096	66727936	15809080	24992
339	1.201605	94724096	66727936	17374704	24992
340	1.138672	94724096	66727936	18956544	24992
341	1.40186	94724096	66727936	20531224	24992
342	1.177316	94724096	66727936	22108624	24992
343	1.205973	94724096	66727936	23690056	24992
344	1.221568	94724096	66727936	25275440	24992
345	1.21548	94724096	66727936	26872144	24992
346	1.230887	94724096	66727936	28466960	24992
347	1.263857	94724096	66727936	30064152	24992
348	1.243386	94724096	66727936	15302568	24992
349	1.231529	94724096	66727936	16907632	24992
350	1.215732	94724096	66727936	18529280	24992
351	1.239892	94724096	66727936	20143568	24992
352	1.239184	94724096	66727936	21760360	24992
353	1.250536	94724096	66727936	23381760	24992
354	1.241471	94724096	66727936	25019656	24992
355	1.243066	94724096	66727936	26648360	24992
356	1.258937	94724096	66727936	28281040	24992
357	1.296212	94724096	66727936	29923592	24992
358	1.615817	94724096	66727936	15239152	24992
359	1.205525	94724096	66727936	16883640	24992
360	1.271065	94724096	66727936	18549728	24992
361	1.268114	94724096	66727936	20224416	24992
362	1.270249	94724096	66727936	21903056	24992
363	1.28389	94724096	66727936	23587128	24992
364	1.242712	94724096	66727936	25273624	24992
365	1.281381	94724096	66727936	26964008	24992
366	1.292276	94724096	66727936	28658224	24992
367	1.296147	94724096	66727936	30356504	24992
368	1.295133	94724096	66727936	15825968	24992
369	1.291762	94724096	66727936	17531984	24992
370	1.305498	94724096	66727936	19244720	24992
371	1.292994	94724096	66727936	20958640	24992
372	1.283698	94724096	66727936	22676552	24992
373	1.307111	94724096	66727936	24410512	24992
374	1.316974	94724096	66727936	26136248	24992
375	1.312704	94724096	66727936	27865984	24992
376	1.309573	94724096	66727936	29600632	24992
377	1.724836	94724096	66727936	15060720	24992
378	1.337536	94724096	66727936	16802216	24992
379	1.313287	94724096	66727936	18547664	24992
380	1.325497	94724096	66727936	20297064	24992
381	1.324357	94724096	66727936	22050496	24992
382	1.3405	94724096	66727936	23807888	24992
383	1.329764	94724096	66727936	25569152	24992
384	1.269511	94724096	66727936	27334264	24992
385	1.351272	94724096	66727936	29103504	24992
386	1.352457	94724096	66727936	30879440	24992
387	1.355982	94724096	66727936	16348344	24992
388	1.353298	94724096	66727936	18129224	24992
389	1.364474	94724096	66727936	19920248	24992
390	1.366384	94724096	66727936	21709048	24992
391	1.367579	94724096	66727936	23501736	24992
392	1.332446	94724096	66727936	25298544	24992
393	1.377041	94724096	66727936	27099168	24992
394	1.30732	94724096	66727936	28909712	24992
395	1.383609	94724096	66727936	30718208	24992
396	1.381069	94724096	66727936	16223848	24992
397	1.38102	94724096	66727936	18040136	24992
398	1.394554	94724096	66727936	19860664	24992
399	1.385755	94724096	66727936	21699208	24992
400	1.392214	94724096	66727936	23527456	24992
401	1.393416	94724096	66727936	25362664	24992
402	1.366936	94724096	66727936	27198952	24992
403	1.374198	94724096	66727936	29038936	24992
404	1.394685	94724096	66727936	30885216	24992
405	1.408848	94724096	66727936	16429240	24992
406	1.404088	94724096	66727936	18281120	24992
407	1.590006	94724096	66727936	20140864	24992
408	1.419612	94724096	66727936	22000552	24992
409	1.415812	94724096	66727936	23883648	24992
410	1.423089	94724096	66727936	25780288	24992
411	1.480713	94724096	66727936	27668328	24992
412	1.427479	94724096	66727936	29567712	24992
413	1.857797	94724096	66727936	15247608	24992
414	1.395706	94724096	66727936	17168296	24992
415	1.427104	94724096	66727936	19072008	24992
416	1.451321	94724096	66727936	20979768	24992
417	1.450671	94724096	66727936	22932656	24992
418	1.443385	94724096	66727936	24931504	24992
419	1.628014	94724096	66727936	26923208	24992
420	1.451954	94724096	66727936	28912368	24992
421	1.466179	94724096	66727936	30905560	24992
422	1.483445	94724096	66727936	16602472	24992
423	1.503546	94724096	66727936	18603560	24992
424	1.474099	94724096	66727936	20608680	24992
425	1.475741	94724096	66727936	22617608	24992
426	1.438519	94724096	66727936	24630424	24992
427	1.484125	94724096	66727936	26647296	24992
428	1.485511	94724096	66727936	28671776	24992
429	1.505472	94724096	66727936	30703552	24992
430	1.499178	94724096	66727936	16466008	24992
431	1.486997	94724096	66727936	18498544	24992
432	1.493932	94724096	66727936	20535040	24992
433	1.508696	94724096	66727936	22575496	24992
434	1.507373	94724096	66727936	24620024	24992
435	1.501021	94724096	66727936	26671112	24992
436	1.499533	94724096	66727936	28725200	24992
437	1.499502	94724096	66727936	30791664	24992
438	1.520444	94724096	66727936	16557384	24992
439	1.521109	94724096	66727936	18621512	24992
440	1.700629	94724096	66727936	20689600	24992
441	1.529718	94724096	66727936	22761576	24992
442	1.558549	94724096	66727936	24837512	24992
443	1.446506	94724096	66727936	26917376	24992
444	1.482961	94724096	66727936	29001256	24992
445	1.493637	94724096	66727936	31089088	24992
446	1.542953	94724096	66727936	16908200	24992
447	1.773869	94724096	66727936	19014120	24992
448	1.563836	94724096	66727936	21113856	24992
449	1.548413	94724096	66727936	23217304	24992
450	1.522344	94724096	66727936	25324736	24992
451	1.478348	94724096	66727936	27436152	24992
452	1.570876	94724096	66727936	29551376	24992
453	1.969297	94724096	66727936	15465568	24992
454	1.792712	94724096	66727936	17588760	24992
455	1.570105	94724096	66727936	19715912	24992
456	1.760863	94724096	66727936	21847024	24992
457	1.526186	94724096	66727936	23981992	24992
458	1.500226	94724096	66727936	26120920	24992
459	1.565638	94724096	66727936	28267640	24992
460	1.580189	94724096	66727936	30431008	24992
461	1.77283	94724096	66727936	16405520	24992
462	1.594908	94724096	66727936	18600032	24992
463	1.610414	94724096	66727936	20758680	24992
464	1.618088	94724096	66727936	22921312	24992
465	1.584696	94724096	66727936	25087752	24992
466	1.587004	94724096	66727936	27265416	24992
467	1.519231	94724096	66727936	29456592	24992
468	2.032925	94724096	66727936	15436016	24992
469	1.609876	94724096	66727936	17623936	24992
470	1.603203	94724096	66727936	19810128	24992
471	1.654686	94724096	66727936	22000272	24992
472	1.627532	94724096	66727936	24208408	24992
473	1.658485	94724096	66727936	26409912	24992
474	1.625351	94724096	66727936	28611864	24992
475	1.542752	94724096	66727936	30817704	24992
476	1.610485	94724096	66727936	16798664	24992
477	1.583458	94724096	66727936	19012288	24992
478	1.552652	94724096	66727936	21236832	24992
479	1.555933	94724096	66727936	23458600	24992
480	1.641958	94724096	66727936	25684112	24992
481	1.668705	94724096	66727936	27913608	24992
482	1.612167	94724096	66727936	30147096	24992
483	2.020396	94724096	66727936	16099224	24992
484	1.84651	94724096	66727936	18340616	24992
485	1.653436	94724096	66727936	20585792	24992
486	1.658249	94724096	66727936	22838384	24992
487	1.664826	94724096	66727936	25091552	24992
488	1.656589	94724096	66727936	27348616	24992
489	1.67283	94724096	66727936	29622448	24992
490	2.125058	94724096	66727936	15700208	24992
491	1.687228	94724096	66727936	17969168	24992
492	1.700149	94724096	66727936	20244544	24992
493	1.639971	94724096	66727936	22521352	24992
494	1.671112	94724096	66727936	24802064	24992
495	1.67518	94724096	66727936	27099944	24992
496	1.695494	94724096	66727936	29388504	24992
497	2.396359	94724096	66727936	15508432	24992
498	1.701016	94724096	66727936	17819888	24992
499	1.708856	94724096	66727936	20120352	24992
500	1.893456	94724096	66727936	22443016	24992
501	1.719217	94724096	66727936	24753848	24992
502	1.713136	94724096	66727936	27067264	24992
503	1.900321	94724096	66727936	29383456	24992
504	2.082126	94724096	66727936	15530144	24992
505	1.727402	94724096	66727936	17872544	24992
506	1.715704	94724096	66727936	20200536	24992
507	1.729117	94724096	66727936	22551992	24992
508	1.637708	94724096	66727936	24887824	24992
509	1.737846	94724096	66727936	27228136	24992
510	1.683887	94724096	66727936	29592080	24992
511	2.068322	94724096	66727936	15762232	24992
512	1.653852	94724096	66727936	18117688	24992
513	1.655274	94724096	66727936	20486528	24992
514	1.740446	94724096	66727936	22846032	24992
515	1.748738	94724096	66727936	25211440	24992
516	1.750166	94724096	66727936	27587712	24992
517	1.756361	94724096	66727936	29959136	24992
518	2.131785	94724096	66727936	16077584	24992
519	1.706191	94724096	66727936	18466344	24992
520	1.754044	94724096	66727936	20860720	24992
521	1.780186	94724096	66727936	23247760	24992
522	1.920536	94724096	66727936	25642328	24992
523	1.979077	94724096	66727936	28037256	24992
524	1.784153	94724096	66727936	30439632	24992
525	2.072981	94724096	66727936	16475800	24992
526	1.785059	94724096	66727936	18898432	24992
527	1.796878	94724096	66727936	21309200	24992
528	1.991548	94724096	66727936	23730448	24992
529	1.712983	94724096	66727936	26150264	24992
530	1.808047	94724096	66727936	28572720	24992
531	1.970293	94724096	66727936	31015352	24992
532	1.825074	94724096	66727936	17243064	24992
533	1.810989	94724096	66727936	19684528	24992
534	1.821392	94724096	66727936	22124960	24992
535	1.815529	94724096	66727936	24567720	24992
536	1.821555	94724096	66727936	27013792	24992
537	1.975585	94724096	66727936	29464952	24992
538	2.284546	94724096	66727936	15764688	24992
539	1.834734	94724096	66727936	18223056	24992
540	1.811551	94724096	66727936	20686824	24992
541	1.833053	94724096	66727936	23152856	24992
542	1.841682	94724096	66727936	25636720	24992
543	1.836736	94724096	66727936	28110432	24992
544	1.826407	94724096	66727936	30594872	24992
545	1.853449	94724096	66727936	16716808	24992
546	1.843897	94724096	66727936	19215232	24992
547	1.853703	94724096	66727936	21725736	24992
548	1.85482	94724096	66727936	24220328	24992
549	1.761066	94724096	66727936	26719272	24992
550	1.856207	94724096	66727936	29220560	24992
551	1.86126	94724096	66727936	31726488	24992
552	1.886013	94724096	66727936	17902704	24992
553	1.817094	94724096	66727936	20415912	24992
554	2.078394	94724096	66727936	22954448	24992
555	1.88576	94724096	66727936	25480568	24992
556	1.898082	94724096	66727936	28032736	24992
557	2.076331	94724096	66727936	30602032	24992
558	1.910259	94724096	66727936	16828040	24992
559	1.899701	94724096	66727936	19420016	24992
560	1.90825	94724096	66727936	22004168	24992
561	1.908772	94724096	66727936	24588176	24992
562	1.908809	94724096	66727936	27172296	24992
563	2.053063	94724096	66727936	29773008	24992
564	2.33571	94724096	66727936	16175936	24992
565	1.916382	94724096	66727936	18775000	24992
566	1.871123	94724096	66727936	21374464	24992
567	1.913446	94724096	66727936	23979920	24992
568	1.916646	94724096	66727936	26586152	24992
569	1.920878	94724096	66727936	29204288	24992
570	1.921685	94724096	66727936	31818584	24992
571	1.932293	94724096	66727936	18105504	24992
572	1.938542	94724096	66727936	20745184	24992
573	1.951125	94724096	66727936	23372032	24992
574	2.126156	94724096	66727936	26007872	24992
575	1.947937	94724096	66727936	28646744	24992
576	1.914462	94724096	66727936	31284504	24992
577	1.971525	94724096	66727936	17704200	24992
578	2.051349	94724096	66727936	20349776	24992
579	1.951916	94724096	66727936	23007256	24992
580	1.866617	94724096	66727936	25660752	24992
581	1.919493	94724096	66727936	28318272	24992
582	1.967079	94724096	66727936	31004848	24992
583	2.175105	94724096	66727936	17525936	24992
584	1.930617	94724096	66727936	20198480	24992
585	1.885303	94724096	66727936	22891104	24992
586	1.886037	94724096	66727936	25571824	24992
587	1.988715	94724096	66727936	28253072	24992
588	2.166701	94724096	66727936	30939976	24992
589	1.991845	94724096	66727936	17492176	24992
590	1.995619	94724096	66727936	20185128	24992
591	1.893786	94724096	66727936	22881952	24992
592	1.995856	94724096	66727936	25582832	24992
593	2.003633	94724096	66727936	28287568	24992
594	1.900092	94724096	66727936	30996184	24992
595	2.023857	94724096	66727936	17571336	24992
596	2.021745	94724096	66727936	20290928	24992
597	2.018374	94724096	66727936	23015016	24992
598	2.024736	94724096	66727936	25741056	24992
599	1.939194	94724096	66727936	28469320	24992
600	1.912701	94724096	66727936	31201768	24992
601	2.032703	94724096	66727936	17802336	24992
602	2.038997	94724096	66727936	20542656	24992
603	2.030274	94724096	66727936	23299616	24992
604	2.042762	94724096	66727936	26047568	24992
605	2.030089	94724096	66727936	28800464	24992
606	2.035807	94724096	66727936	31564392	24992
607	2.047278	94724096	66727936	18079808	24992
608	2.046526	94724096	66727936	20848920	24992
609	2.050171	94724096	66727936	23616776	24992
610	2.011259	94724096	66727936	26388472	24992
611	2.262874	94724096	66727936	29171120	24992
612	2.024371	94724096	66727936	31966176	24992
613	2.039705	94724096	66727936	18465296	24992
614	2.067245	94724096	66727936	21252784	24992
615	2.025685	94724096	66727936	24046344	24992
616	2.056484	94724096	66727936	26841864	24992
617	2.08462	94724096	66727936	29657000	24992
618	2.405944	94724096	66727936	16336232	24992
619	2.095664	94724096	66727936	19152584	24992
620	2.071366	94724096	66727936	21964104	24992
621	2.009905	94724096	66727936	24781968	24992
622	1.981892	94724096	66727936	27625200	24992
623	2.043627	94724096	66727936	30453360	24992
624	2.479875	94724096	66727936	17043448	24992
625	2.292379	94724096	66727936	19874688	24992
626	2.075704	94724096	66727936	22709520	24992
627	2.1103	94724096	66727936	25552416	24992
628	2.109421	94724096	66727936	28395072	24992
629	2.114602	94724096	66727936	31242104	24992
630	2.32188	94724096	66727936	17972304	24992
631	2.0747	94724096	66727936	20829000	24992
632	2.128878	94724096	66727936	23691080	24992
633	2.278737	94724096	66727936	26553448	24992
634	2.125802	94724096	66727936	29423336	24992
635	2.615256	94724096	66727936	16185856	24992
636	2.144508	94724096	66727936	19075568	24992
637	2.147109	94724096	66727936	21953656	24992
638	2.506744	94724096	66727936	24836600	24992
639	2.12605	94724096	66727936	27737984	24992
640	2.152899	94724096	66727936	30633680	24992
641	2.465321	94724096	66727936	17241880	24992
642	2.130255	94724096	66727936	20141800	24992
643	2.158884	94724096	66727936	23043448	24992
644	2.162194	94724096	66727936	25956704	24992
645	2.159741	94724096	66727936	28866144	24992
646	2.175155	94724096	66727936	31779608	24992
647	2.157672	94724096	66727936	18469280	24992
648	2.283394	94724096	66727936	21390720	24992
649	2.16922	94724096	66727936	24346864	24992
650	2.177574	94724096	66727936	27286224	24992
651	2.18846	94724096	66727936	30219544	24992
652	2.549962	94724096	66727936	16927984	24992
653	2.372037	94724096	66727936	19876872	24992
654	2.07722	94724096	66727936	22850080	24992
655	2.143804	94724096	66727936	25800688	24992
656	2.331596	94724096	66727936	28753600	24992
657	2.355652	94724096	66727936	31717560	24992
658	2.221156	94724096	66727936	18475440	24992
659	2.206225	94724096	66727936	21463032	24992
660	2.388251	94724096	66727936	24436048	24992
661	2.15738	94724096	66727936	27408608	24992
662	2.220703	94724096	66727936	30385056	24992
663	2.591119	94724096	66727936	17142784	24992
664	2.376242	94724096	66727936	20151936	24992
665	2.389202	94724096	66727936	23140256	24992
666	2.240534	94724096	66727936	26145216	24992
667	2.223282	94724096	66727936	29145992	24992
668	2.226152	94724096	66727936	32146240	24992
669	2.252916	94724096	66727936	18925120	24992
670	2.263307	94724096	66727936	21950064	24992
671	2.243389	94724096	66727936	24962064	24992
672	2.236166	94724096	66727936	27980088	24992
673	2.258709	94724096	66727936	31005344	24992
674	2.268811	94724096	66727936	17956216	24992
675	2.203142	94724096	66727936	20985552	24992
676	2.225859	94724096	66727936	24040728	24992
677	2.435302	94724096	66727936	27076432	24992
678	2.267505	94724096	66727936	30115968	24992
679	2.672052	94724096	66727936	16967848	24992
680	2.280347	94724096	66727936	20020328	24992
681	2.283825	94724096	66727936	23077200	24992
682	2.284595	94724096	66727936	26153704	24992
683	2.279717	94724096	66727936	29223288	24992
684	2.588635	94724096	66727936	32304304	24992
685	2.244872	94724096	66727936	19091624	24992
686	2.17084	94724096	66727936	22191320	24992
687	2.221543	94724096	66727936	25289000	24992
688	2.255345	94724096	66727936	28386680	24992
689	2.57172	94724096	66727936	31492696	24992
690	2.279237	94724096	66727936	18506320	24992
691	2.363299	94724096	66727936	21631440	24992
692	2.322177	94724096	66727936	24745560	24992
693	2.257994	94724096	66727936	27887328	24992
694	2.310493	94724096	66727936	31010664	24992
695	2.29159	94724096	66727936	17789560	24992
696	2.494764	94724096	66727936	20918544	24992
697	2.328194	94724096	66727936	24049512	24992
698	2.519869	94724096	66727936	27184280	24992
699	2.341244	94724096	66727936	30343280	24992
700	2.704556	94724096	66727936	17277784	24992
701	2.24094	94724096	66727936	20441176	24992
702	2.351159	94724096	66727936	23596776	24992
703	2.24198	94724096	66727936	26763160	24992
704	2.346005	94724096	66727936	29921696	24992
705	3.015649	94724096	66727936	16996272	24992
706	2.297734	94724096	66727936	20162632	24992
707	2.344655	94724096	66727936	23344432	24992
708	2.316169	94724096	66727936	26518728	24992
709	2.375747	94724096	66727936	29703448	24992
710	2.866499	94724096	66727936	16814784	24992
711	2.381102	94724096	66727936	20003488	24992
712	2.477333	94724096	66727936	23217664	24992
713	2.497233	94724096	66727936	26438504	24992
714	2.376096	94724096	66727936	29636232	24992
715	2.825707	94724096	66727936	16763424	24992
716	2.382056	94724096	66727936	19969008	24992
717	2.389038	94724096	66727936	23180488	24992
718	2.401685	94724096	66727936	26395808	24992
719	2.51654	94724096	66727936	29623384	24992
720	2.887196	94724096	66727936	16772928	24992
721	2.594106	94724096	66727936	19998352	24992
722	2.403364	94724096	66727936	23228872	24992
723	2.402222	94724096	66727936	26462248	24992
724	2.422934	94724096	66727936	29699432	24992
725	2.919836	94724096	66727936	16871168	24992
726	2.383357	94724096	66727936	20117544	24992
727	2.424263	94724096	66727936	23367080	24992
728	2.337136	94724096	66727936	26622688	24992
729	2.433478	94724096	66727936	29879608	24992
730	2.867843	94724096	66727936	17075024	24992
731	2.406483	94724096	66727936	20350384	24992
732	2.623583	94724096	66727936	23626872	24992
733	2.44802	94724096	66727936	26899768	24992
734	2.438501	94724096	66727936	30183600	24992
735	2.88927	94724096	66727936	17269000	24992
736	2.620091	94724096	66727936	20558288	24992
737	2.451326	94724096	66727936	23848192	24992
738	2.458827	94724096	66727936	27173840	24992
739	2.551514	94724096	66727936	30470200	24992
740	2.847264	94724096	66727936	17571216	24992
741	2.65865	94724096	66727936	20878008	24992
742	2.359639	94724096	66727936	24198608	24992
743	2.490545	94724096	66727936	27510760	24992
744	2.480958	94724096	66727936	30843616	24992
745	2.807369	94724096	66727936	17903952	24992
746	2.363428	94724096	66727936	21227856	24992
747	2.485558	94724096	66727936	24555760	24992
748	2.477998	94724096	66727936	27887480	24992
749	2.482412	94724096	66727936	31223304	24992
750	2.512752	94724096	66727936	18504056	24992
751	2.503624	94724096	66727936	21854384	24992
752	2.673392	94724096	66727936	25230104	24992
753	2.503417	94724096	66727936	28584048	24992
754	2.663674	94724096	66727936	31945584	24992
755	2.506831	94724096	66727936	19126920	24992
756	2.517014	94724096	66727936	22493504	24992
757	2.508294	94724096	66727936	25861376	24992
758	2.506143	94724096	66727936	29232432	24992
759	2.498169	94724096	66727936	32607552	24992
760	2.397552	94724096	66727936	19749736	24992
761	2.480073	94724096	66727936	23140296	24992
762	2.409848	94724096	66727936	26527312	24992
763	2.528813	94724096	66727936	29923776	24992
764	3.048129	94724096	66727936	17270832	24992
765	2.559149	94724096	66727936	20670016	24992
766	2.551306	94724096	66727936	24089584	24992
767	2.657781	94724096	66727936	27496240	24992
768	2.435066	94724096	66727936	30915272	24992
769	2.911252	94724096	66727936	18074608	24992
770	2.562615	94724096	66727936	21500072	24992
771	2.760265	94724096	66727936	24923272	24992
772	2.567996	94724096	66727936	28365856	24992
773	2.505025	94724096	66727936	31810576	24992
774	2.594248	94724096	66727936	19210568	24992
775	2.579974	94724096	66727936	22648880	24992
776	3.249221	94724096	66727936	26090976	24992
777	2.574704	94724096	66727936	29573088	24992
778	3.108776	94724096	66727936	17025792	24992
779	2.626725	94724096	66727936	20479600	24992
780	2.466864	94724096	66727936	23946104	24992
781	2.58432	94724096	66727936	27411560	24992
782	2.489965	94724096	66727936	30901632	24992
783	2.925764	94724096	66727936	18194288	24992
784	2.604096	94724096	66727936	21673928	24992
785	2.601164	94724096	66727936	25151416	24992
786	2.745581	94724096	66727936	28650992	24992
787	2.656376	94724096	66727936	32160896	24992
788	2.539056	94724096	66727936	19500752	24992
789	2.539237	94724096	66727936	23020664	24992
790	2.708909	94724096	66727936	26524664	24992
791	2.521969	94724096	66727936	30026184	24992
792	3.084332	94724096	66727936	17537424	24992
793	2.630283	94724096	66727936	21047600	24992
794	2.907911	94724096	66727936	24564424	24992
795	2.50431	94724096	66727936	28111384	24992
796	2.798668	94724096	66727936	31632168	24992
797	2.659022	94724096	66727936	19147416	24992
798	2.851114	94724096	66727936	22676176	24992
799	2.637953	94724096	66727936	26221464	24992
800	2.810973	94724096	66727936	29760824	24992
801	3.218306	94724096	66727936	17332536	24992
802	2.951847	94724096	66727936	20876992	24992
803	2.654701	94724096	66727936	24438016	24992
804	2.822921	94724096	66727936	28026240	24992
805	2.664195	94724096	66727936	31582456	24992
806	2.676982	94724096	66727936	19132808	24992
807	2.662897	94724096	66727936	22713336	24992
808	2.841183	94724096	66727936	26311856	24992
809	2.68217	94724096	66727936	29883880	24992
810	3.314876	94724096	66727936	17454328	24992
811	2.683207	94724096	66727936	21061376	24992
812	2.697345	94724096	66727936	24673616	24992
813	2.732466	94724096	66727936	28285888	24992
814	2.865461	94724096	66727936	31898128	24992
815	2.706771	94724096	66727936	19492312	24992
816	2.846326	94724096	66727936	23097320	24992
817	2.699266	94724096	66727936	26710488	24992
818	2.702796	94724096	66727936	30323720	24992
819	3.246108	94724096	66727936	17837880	24992
820	2.907834	94724096	66727936	21471296	24992
821	2.723798	94724096	66727936	25101120	24992
822	2.848735	94724096	66727936	28726840	24992
823	2.701005	94724096	66727936	32355648	24992
824	2.693871	94724096	66727936	19864024	24992
825	2.730111	94724096	66727936	23499200	24992
826	2.901733	94724096	66727936	27138304	24992
827	2.73873	94724096	66727936	30819008	24992
828	3.37083	94724096	66727936	18316336	24992
829	2.745381	94724096	66727936	21983704	24992
830	2.741645	94724096	66727936	25678008	24992
831	2.752018	94724096	66727936	29357696	24992
832	2.776374	94724096	66727936	33084392	24992
833	2.769828	94724096	66727936	20581120	24992
834	2.619529	94724096	66727936	24284264	24992
835	2.718151	94724096	66727936	27983112	24992
836	2.766109	94724096	66727936	31677848	24992
837	2.791049	94724096	66727936	19396784	24992
838	2.957354	94724096	66727936	23132464	24992
839	2.782524	94724096	66727936	26946016	24992
840	2.643661	94724096	66727936	30722136	24992
841	3.188287	94724096	66727936	18355624	24992
842	2.78896	94724096	66727936	22140728	24992
843	2.98417	94724096	66727936	25945656	24992
844	2.79012	94724096	66727936	29737632	24992
845	3.419363	94724096	66727936	17563408	24992
846	2.800279	94724096	66727936	21385184	24992
847	2.820699	94724096	66727936	25188992	24992
848	2.7994	94724096	66727936	29002104	24992
849	3.004055	94724096	66727936	32813832	24992
850	2.690973	94724096	66727936	20541552	24992
851	2.963384	94724096	66727936	24424928	24992
852	2.813221	94724096	66727936	28300128	24992
853	2.824834	94724096	66727936	32204000	24992
854	2.849293	94724096	66727936	20133888	24992
855	2.987642	94724096	66727936	24031728	24992
856	2.839289	94724096	66727936	27922600	24992
857	2.743264	94724096	66727936	31828016	24992
858	2.921223	94724096	66727936	19782144	24992
859	2.739839	94724096	66727936	23684960	24992
860	2.706787	94724096	66727936	27633392	24992
861	2.840616	94724096	66727936	31543984	24992
862	2.887802	94724096	66727936	19190800	24992
863	2.950726	94724096	66727936	23124336	24992
864	2.849967	94724096	66727936	27076504	24992
865	2.853432	94724096	66727936	31002832	24992
866	3.585718	94724096	66727936	18803728	24992
867	2.868202	94724096	66727936	22741880	24992
868	3.02888	94724096	66727936	26705232	24992
869	2.860396	94724096	66727936	30647320	24992
870	3.587678	94724096	66727936	18458920	24992
871	2.876022	94724096	66727936	22408832	24992
872	2.778312	94724096	66727936	26362816	24992
873	2.87833	94724096	66727936	30343376	24992
874	3.658746	94724096	66727936	18270496	24992
875	2.896243	94724096	66727936	22244280	24992
876	2.834873	94724096	66727936	26229768	24992
877	2.89687	94724096	66727936	30203264	24992
878	3.52355	94724096	66727936	18230000	24992
879	3.073787	94724096	66727936	22218528	24992
880	2.909295	94724096	66727936	26243792	24992
881	2.920267	94724096	66727936	30233144	24992
882	3.616922	94724096	66727936	18277440	24992
883	3.051116	94724096	66727936	22287016	24992
884	2.924056	94724096	66727936	26315928	24992
885	2.941158	94724096	66727936	30350840	24992
886	3.545517	94724096	66727936	18355232	24992
887	2.872209	94724096	66727936	22368240	24992
888	2.933227	94724096	66727936	26416968	24992
889	2.907867	94724096	66727936	30478736	24992
890	3.674332	94724096	66727936	18429656	24992
891	2.941311	94724096	66727936	22458448	24992
892	2.942466	94724096	66727936	26493784	24992
893	2.886063	94724096	66727936	30543176	24992
894	3.800291	94724096	66727936	18523336	24992
895	2.930357	94724096	66727936	22567984	24992
896	2.826998	94724096	66727936	26616400	24992
897	2.833138	94724096	66727936	30676080	24992
898	3.534063	94724096	66727936	18618376	24992
899	2.965754	94724096	66727936	22678784	24992
900	2.964518	94724096	66727936	26743032	24992
901	3.160799	94724096	66727936	30816024	24992
902	3.552084	94724096	66727936	18762496	24992
903	2.937987	94724096	66727936	22892240	24992
904	2.991271	94724096	66727936	27020096	24992
905	2.925236	94724096	66727936	31149064	24992
906	3.588433	94724096	66727936	19150176	24992
907	2.934297	94724096	66727936	23241992	24992
908	2.990104	94724096	66727936	27337760	24992
909	2.857502	94724096	66727936	31437368	24992
910	3.734012	94724096	66727936	19359920	24992
911	2.999534	94724096	66727936	23475408	24992
912	3.123143	94724096	66727936	27604160	24992
913	3.000198	94724096	66727936	31741288	24992
914	3.0195	94724096	66727936	19654928	24992
915	2.927767	94724096	66727936	23778240	24992
916	3.023104	94724096	66727936	27905384	24992
917	3.019458	94724096	66727936	32036488	24992
918	3.042782	94724096	66727936	20236520	24992
919	3.025299	94724096	66727936	24375592	24992
920	3.190518	94724096	66727936	28518624	24992
921	3.11664	94724096	66727936	32688608	24992
922	3.058666	94724096	66727936	20852088	24992
923	2.895638	94724096	66727936	25028656	24992
924	3.035975	94724096	66727936	29216784	24992
925	3.0486	94724096	66727936	33392672	24992
926	3.214228	94724096	66727936	21447072	24992
927	3.051139	94724096	66727936	25656496	24992
928	3.149264	94724096	66727936	29855072	24992
929	3.663664	94724096	66727936	18107872	24992
930	3.067105	94724096	66727936	22290400	24992
931	3.064184	94724096	66727936	26476800	24992
932	3.068445	94724096	66727936	30667088	24992
933	3.914448	94724096	66727936	18814976	24992
934	3.065656	94724096	66727936	23017384	24992
935	3.08278	94724096	66727936	27223656	24992
936	3.086934	94724096	66727936	31470376	24992
937	3.657111	94724096	66727936	19565000	24992
938	3.293596	94724096	66727936	23780352	24992
939	3.087078	94724096	66727936	27998184	24992
940	3.093912	94724096	66727936	32219968	24992
941	3.043244	94724096	66727936	20551472	24992
942	3.161159	94724096	66727936	24829040	24992
943	3.173621	94724096	66727936	29062632	24992
944	3.104739	94724096	66727936	33300280	24992
945	3.227984	94724096	66727936	21424864	24992
946	3.007238	94724096	66727936	25721016	24992
947	3.087838	94724096	66727936	30020344	24992
948	3.799552	94724096	66727936	18357336	24992
949	3.303848	94724096	66727936	22655112	24992
950	3.024511	94724096	66727936	26957624	24992
951	3.128391	94724096	66727936	31222808	24992
952	3.781689	94724096	66727936	19381048	24992
953	3.142016	94724096	66727936	23654176	24992
954	3.220465	94724096	66727936	27931136	24992
955	3.152818	94724096	66727936	32218688	24992
956	3.315234	94724096	66727936	20587712	24992
957	3.161024	94724096	66727936	24888752	24992
958	3.152968	94724096	66727936	29181376	24992
959	3.346712	94724096	66727936	33482256	24992
960	3.17214	94724096	66727936	21708504	24992
961	3.145512	94724096	66727936	26039360	24992
962	3.157294	94724096	66727936	30347752	24992
963	3.99535	94724096	66727936	18759360	24992
964	3.357794	94724096	66727936	23075696	24992
965	3.174746	94724096	66727936	27413888	24992
966	3.123323	94724096	66727936	31749720	24992
967	3.836906	94724096	66727936	19876992	24992
968	3.181045	94724096	66727936	24209032	24992
969	3.312607	94724096	66727936	28546176	24992
970	3.058622	94724096	66727936	32886240	24992
971	3.065139	94724096	66727936	21314056	24992
972	3.203805	94724096	66727936	25673128	24992
973	3.209165	94724096	66727936	30068872	24992
974	4.047105	94724096	66727936	18533296	24992
975	3.149764	94724096	66727936	22900480	24992
976	3.146417	94724096	66727936	27268824	24992
977	3.213003	94724096	66727936	31659376	24992
978	3.919014	94724096	66727936	19932312	24992
979	3.350081	94724096	66727936	24307752	24992
980	3.382891	94724096	66727936	28692328	24992
981	3.068453	94724096	66727936	33075616	24992
982	3.236857	94724096	66727936	21436920	24992
983	3.238603	94724096	66727936	25828040	24992
984	3.382558	94724096	66727936	30224720	24992
985	4.087455	94724096	66727936	18722968	24992
986	3.248192	94724096	66727936	23150640	24992
987	3.23507	94724096	66727936	27583008	24992
988	3.240459	94724096	66727936	32005664	24992
989	4.08358	94724096	66727936	20152504	24992
990	3.111105	94724096	66727936	24576160	24992
991	3.340881	94724096	66727936	28998904	24992
992	3.260599	94724096	66727936	33432224	24992
993	3.24796	94724096	66727936	21764960	24992
994	3.356847	94724096	66727936	26199368	24992
995	3.268018	94724096	66727936	30637760	24992
996	3.9585	94724096	66727936	19224552	24992
997	3.295835	94724096	66727936	23671008	24992
998	3.269849	94724096	66727936	28121272	24992
999	3.442502	94724096	66727936	32602624	24992
1000	3.295147	94724096	66727936	21169752	24992
