x	Duration	RSS	HeapTotal	HeapUsed	External
0	NA	93327360	63057920	12750176	24992
1	0.361191	93327360	63057920	12801984	24992
2	0.289254	93327360	63057920	12878680	24992
3	0.180539	93327360	63057920	12993176	24992
4	0.180722	93327360	63057920	13092040	24992
5	0.185234	93327360	63057920	13195416	24992
6	0.193557	93327360	63057920	13302736	24992
7	0.197568	93327360	63057920	13414000	24992
8	0.202018	93327360	63057920	13529208	24992
9	0.225465	93327360	63057920	13648504	24992
10	0.215121	93327360	63057920	13773840	24992
11	0.223818	93327360	63057920	13904272	24992
12	0.206525	93327360	63057920	14038664	24992
13	0.170146	93327360	63057920	14177064	24992
14	0.163159	93327360	63057920	14319328	24992
15	0.164859	93327360	63057920	14466576	24992
16	0.186973	93327360	63057920	14617808	24992
17	0.172054	93327360	63057920	14773048	24992
18	0.174849	93327360	63057920	14932168	24992
19	0.219509	93327360	63057920	15100264	24992
20	0.177319	93327360	63057920	15269064	24992
21	0.22004	93327360	63057920	15441784	24992
22	0.187397	93327360	63057920	15618448	24992
23	0.188726	93327360	63057920	15799056	24992
24	0.193081	93327360	63057920	15985776	24992
25	0.366779	93327360	63057920	16178632	24992
26	0.209778	93327360	63057920	16375424	24992
27	0.209269	93327360	63057920	16576152	24992
28	0.225113	93327360	63057920	16782120	24992
29	0.253198	93327360	63057920	16990704	24992
30	0.209541	93327360	63057920	17203232	24992
31	0.208343	93327360	63057920	17419776	24992
32	0.211463	93327360	63057920	17642296	24992
33	0.215395	93327360	63057920	17868784	24992
34	0.216887	93327360	63057920	18099192	24992
35	0.242511	93327360	63057920	18333584	24992
36	0.301361	93327360	63057920	18571864	24992
37	0.596726	93327360	63057920	18817608	24992
38	0.233951	93327360	63057920	19063792	24992
39	0.240445	93327360	63057920	19313896	24992
40	0.267945	93327360	63057920	19567944	24992
41	0.24359	93327360	63057920	19825920	24992
42	0.240888	93327360	63057920	20091936	24992
43	0.238379	93327360	63057920	20359560	24992
44	0.242962	93327360	63057920	20631184	24992
45	0.246965	93327360	63057920	20909352	24992
46	0.431258	93327360	63057920	21192528	24992
47	0.261527	93327360	63057920	21479280	24992
48	0.294626	93327360	63057920	21771720	24992
49	0.260505	93327360	63057920	22066344	24992
50	0.270132	93327360	63057920	22369120	24992
51	0.266774	93327360	63057920	22680072	24992
52	0.267147	93327360	63057920	22994952	24992
53	0.293656	93327360	63057920	23313752	24992
54	0.295845	93327360	63057920	23636512	24992
55	0.299362	93327360	63057920	23963200	24992
56	0.30061	93327360	63057920	24293840	24992
57	0.322794	93327360	63057920	24628448	24992
58	0.290957	93327360	63057920	24966960	24992
59	0.290699	93327360	63057920	25309424	24992
60	0.316017	93327360	63057920	25655840	24992
61	0.312714	93327360	63057920	26006152	24992
62	0.319103	93327360	63057920	26360408	24992
63	0.320027	93327360	63057920	26718680	24992
64	0.304084	93327360	63057920	27080816	24992
65	0.308325	93327360	63057920	27447000	24992
66	0.311946	93327360	63057920	27817464	24992
67	0.314809	93327360	63057920	28191448	24992
68	0.317948	93327360	63057920	28569344	24992
69	0.346188	93327360	63057920	28951176	24992
70	1.129459	93327360	63057920	13234440	24992
71	0.355087	93327360	63057920	13624184	24992
72	0.356194	93327360	63057920	14017832	24992
73	0.358392	93327360	63057920	14415424	24992
74	0.337526	93327360	63057920	14817016	24992
75	0.336953	93327360	63057920	15222528	24992
76	0.345429	93327360	63057920	15636120	24992
77	0.372646	93327360	63057920	16053688	24992
78	0.354708	93327360	63057920	16475128	24992
79	0.352866	93327360	63057920	16900552	24992
80	0.354727	93327360	63057920	17329960	24992
81	0.358855	93327360	63057920	17763272	24992
82	0.360638	93327360	63057920	18200480	24992
83	0.381659	93327360	63057920	18641648	24992
84	0.393245	93327360	63057920	19091272	24992
85	0.400082	93327360	63057920	19545960	24992
86	0.399601	93327360	63057920	20004592	24992
87	0.578438	93327360	63057920	20467224	24992
88	0.386217	93327360	63057920	20933984	24992
89	0.385977	93327360	63057920	21404496	24992
90	0.388247	93327360	63057920	21878928	24992
91	0.392127	93327360	63057920	22357288	24992
92	0.396612	93327360	63057920	22839576	24992
93	0.400402	93327360	63057920	23325792	24992
94	0.401042	93327360	63057920	23820144	24992
95	0.403117	93327360	63057920	24318416	24992
96	0.405887	93327360	63057920	24820600	24992
97	0.411724	93327360	63057920	25326800	24992
98	0.412006	93327360	63057920	25837464	24992
99	0.411328	93327360	63057920	26351504	24992
100	0.413441	93327360	63057920	26869472	24992
101	0.467389	93327360	63057920	27391360	24992
102	0.427006	93327360	63057920	27925520	24992
103	0.43035	93327360	63057920	28472080	24992
104	0.433736	93327360	63057920	29022464	24992
105	1.039707	93327360	63057920	13401744	24992
106	0.467383	93327360	63057920	13962232	24992
107	0.469918	93327360	63057920	14524504	24992
108	0.480985	93327360	63057920	15090656	24992
109	0.476595	93327360	63057920	15662032	24992
110	0.472818	93327360	63057920	16236008	24992
111	0.476672	93327360	63057920	16813960	24992
112	0.503248	93327360	63057920	17395872	24992
113	0.488807	93327360	63057920	17981672	24992
114	0.49135	93327360	63057920	18571416	24992
115	0.494045	93327360	63057920	19165184	24992
116	0.50439	93327360	63057920	19762832	24992
117	0.499284	93327360	63057920	20364456	24992
118	0.505416	93327360	63057920	20969968	24992
119	0.506298	93327360	63057920	21580048	24992
120	0.511109	93327360	63057920	22193440	24992
121	0.515194	93327360	63057920	22810760	24992
122	0.509121	93327360	63057920	23432032	24992
123	0.726888	93327360	63057920	24057320	24992
124	0.502773	93327360	63057920	24688376	24992
125	0.529357	93327360	63057920	25321448	24992
126	0.502409	93327360	63057920	25958448	24992
127	0.505464	93327360	63057920	26599496	24992
128	0.50859	93327360	63057920	27245144	24992
129	0.512352	93327360	63057920	27894064	24992
130	0.520294	93327360	63057920	28546864	24992
131	0.516954	93327360	63057920	29203592	24992
132	0.998145	93327360	63057920	13579816	24992
133	0.744291	93327360	63057920	14244392	24992
134	0.532215	93327360	63057920	14912920	24992
135	0.533904	93327360	63057920	15585448	24992
136	0.532523	93327360	63057920	16261840	24992
137	0.538249	93327360	63057920	16942200	24992
138	0.541601	93327360	63057920	17626536	24992
139	0.572876	93327360	63057920	18320560	24992
140	0.579787	93327360	63057920	19012744	24992
141	0.579376	93327360	63057920	19708856	24992
142	0.582725	93327360	63057920	20416216	24992
143	0.601591	93327360	63057920	21129408	24992
144	0.570957	93327360	63057920	21846544	24992
145	0.555366	93327360	63057920	22567544	24992
146	0.567586	93327360	63057920	23295800	24992
147	0.561511	93327360	63057920	24029224	24992
148	0.56294	93327360	63057920	24762232	24992
149	0.56418	93327360	63057920	25498992	24992
150	0.567408	93327360	63057920	26239680	24992
151	0.573178	93327360	63057920	26984448	24992
152	0.60378	93327360	63057920	27733048	24992
153	0.610903	93327360	63057920	28485568	24992
154	0.61623	93327360	63057920	29242064	24992
155	1.078473	93327360	63057920	13704904	24992
156	0.626663	93327360	63057920	14469344	24992
157	0.808917	93327360	63057920	15237680	24992
158	0.607967	93327360	63057920	16009912	24992
159	0.599268	93327360	63057920	16786136	24992
160	0.63898	93327360	63057920	17566816	24992
161	0.830133	93327360	63057920	18350912	24992
162	0.61217	93327360	63057920	19138976	24992
163	0.647043	93327360	63057920	19939704	24992
164	0.658018	93327360	63057920	20748040	24992
165	0.65621	93327360	63057920	21556088	24992
166	0.660781	93327360	63057920	22368160	24992
167	0.661844	93327360	63057920	23184112	24992
168	0.669181	93327360	63057920	24004056	24992
169	0.673259	93327360	63057920	24827920	24992
170	0.637009	93327360	63057920	25655672	24992
171	0.64684	93327360	63057920	26487448	24992
172	0.645434	93327360	63057920	27323072	24992
173	0.652246	93327360	63057920	28162656	24992
174	0.833808	93327360	63057920	29007608	24992
175	0.687449	93327360	63057920	29855064	24992
176	0.668391	93327360	63057920	14384136	24992
177	0.703413	93327360	63057920	15239568	24992
178	0.665943	93327360	63057920	16098840	24992
179	0.669416	93327360	63057920	16963488	24992
180	0.720193	93327360	63057920	17830672	24992
181	0.713592	93327360	63057920	18701728	24992
182	0.71724	93327360	63057920	19576752	24992
183	0.689764	93327360	63057920	20455744	24992
184	0.684259	93327360	63057920	21338728	24992
185	0.723803	93327360	63057920	22225552	24992
186	0.690085	93327360	63057920	23116424	24992
187	0.692394	93327360	63057920	24011136	24992
188	0.730243	93327360	63057920	24909904	24992
189	0.732351	93327360	63057920	25818856	24992
190	0.735802	93327360	63057920	26725392	24992
191	0.740036	93327360	63057920	27635928	24992
192	0.73769	93327360	63057920	28550472	24992
193	0.86585	93327360	63057920	29468952	24992
194	1.127569	93327360	63057920	14062896	24992
195	0.734652	93327360	63057920	14989184	24992
196	0.724445	93327360	63057920	15919440	24992
197	0.73851	93327360	63057920	16853680	24992
198	0.729448	93327360	63057920	17791808	24992
199	0.731769	93327360	63057920	18743576	24992
200	0.954903	93327360	63057920	19697768	24992
201	0.775429	93327360	63057920	20655944	24992
202	0.774071	93327360	63057920	21618168	24992
203	0.777581	93327360	63057920	22584192	24992
204	0.782272	93327360	63057920	23554168	24992
205	0.788398	93327360	63057920	24528088	24992
206	0.786119	93327360	63057920	25507576	24992
207	1.002058	93327360	63057920	26505848	24992
208	0.79811	93327360	63057920	27525648	24992
209	0.805634	93327360	63057920	28550720	24992
210	0.80271	93327360	63057920	29581888	24992
211	1.208314	93327360	63057920	14257880	24992
212	0.815661	93327360	63057920	15292448	24992
213	0.806043	93327360	63057920	16330944	24992
214	0.81338	93327360	63057920	17373328	24992
215	0.81015	93327360	63057920	18419672	24992
216	0.80763	93327360	63057920	19469976	24992
217	0.821569	93327360	63057920	20524168	24992
218	0.836903	93327360	63057920	21582384	24992
219	0.825467	93327360	63057920	22644584	24992
220	1.014269	93327360	63057920	23710640	24992
221	0.791218	93327360	63057920	24783064	24992
222	0.84516	93327360	63057920	25856912	24992
223	0.848332	93327360	63057920	26934704	24992
224	0.849714	93327360	63057920	28016488	24992
225	0.821507	93327360	63057920	29102200	24992
226	0.853455	93327360	63057920	30191888	24992
227	0.828307	93327360	63057920	14919896	24992
228	0.846402	93327360	63057920	16017392	24992
229	0.84158	93327360	63057920	17130904	24992
230	0.868328	93327360	63057920	18250776	24992
231	0.841926	93327360	63057920	19374504	24992
232	0.857666	93327360	63057920	20502320	24992
233	0.874495	93327360	63057920	21633888	24992
234	0.884115	93327360	63057920	22769520	24992
235	0.876091	93327360	63057920	23909024	24992
236	0.884158	93327360	63057920	25052528	24992
237	0.892428	93327360	63057920	26199856	24992
238	0.895334	93327360	63057920	27351272	24992
239	0.917404	93327360	63057920	28506672	24992
240	0.902487	93327360	63057920	29665840	24992
241	1.277147	93327360	63057920	14467992	24992
242	0.910141	93327360	63057920	15635064	24992
243	0.901685	93327360	63057920	16807056	24992
244	0.903069	93327360	63057920	17983208	24992
245	0.90348	93327360	63057920	19162152	24992
246	0.908622	93327360	63057920	20345008	24992
247	0.940681	93327360	63057920	21531728	24992
248	0.928382	93327360	63057920	22730408	24992
249	0.927826	93327360	63057920	23927744	24992
250	0.909926	93327360	63057920	25126368	24992
251	0.937378	93327360	63057920	26330624	24992
252	0.939594	93327360	63057920	27537856	24992
253	0.937231	93327360	63057920	28748208	24992
254	0.947785	93327360	63057920	29964744	24992
255	0.959597	93327360	63057920	14899840	24992
256	1.136161	93327360	63057920	16122152	24992
257	0.960614	93327360	63057920	17349736	24992
258	0.962338	93327360	63057920	18579856	24992
259	0.950144	93327360	63057920	19813904	24992
260	0.970302	93327360	63057920	21052152	24992
261	0.97157	93327360	63057920	22299360	24992
262	0.965777	93327360	63057920	23545168	24992
263	0.977656	93327360	63057920	24803840	24992
264	0.989674	93327360	63057920	26057584	24992
265	1.033324	93327360	63057920	27316016	24992
266	0.986766	93327360	63057920	28581616	24992
267	1.209985	93327360	63057920	29850296	24992
268	1.013366	93327360	63057920	14795888	24992
269	0.982628	93327360	63057920	16069344	24992
270	1.000273	93327360	63057920	17355208	24992
271	0.960427	93327360	63057920	18636528	24992
272	1.004012	93327360	63057920	19921744	24992
273	1.00271	93327360	63057920	21210896	24992
274	1.012723	93327360	63057920	22504000	24992
275	1.016532	93327360	63057920	23801096	24992
276	1.026221	93327360	63057920	25108064	24992
277	1.017601	93327360	63057920	26413104	24992
278	1.004205	93327360	63057920	27722000	24992
279	1.035681	93327360	63057920	29036336	24992
280	1.045684	93327360	63057920	30353080	24992
281	1.050088	93327360	63057920	15356560	24992
282	1.039417	93327360	63057920	16681352	24992
283	1.044741	93327360	63057920	18009952	24992
284	1.046082	93327360	63057920	19342512	24992
285	1.010492	93327360	63057920	20678992	24992
286	1.023555	93327360	63057920	22019408	24992
287	1.049376	93327360	63057920	23365224	24992
288	1.261984	93327360	63057920	24713456	24992
289	1.061858	93327360	63057920	26065904	24992
290	1.271232	93327360	63057920	27422008	24992
291	1.02294	93327360	63057920	28782184	24992
292	1.070016	93327360	63057920	30157472	24992
293	1.126648	93327360	63057920	15253840	24992
294	1.113785	93327360	63057920	16625712	24992
295	1.074911	93327360	63057920	18001528	24992
296	1.082506	93327360	63057920	19386736	24992
297	1.086244	93327360	63057920	20770496	24992
298	1.299111	93327360	63057920	22160464	24992
299	1.09254	93327360	63057920	23552080	24992
300	1.097061	93327360	63057920	24947600	24992
301	1.11082	93327360	63057920	26347088	24992
302	1.054697	93327360	63057920	27751184	24992
303	1.282627	93327360	63057920	29158656	24992
304	1.128846	93327360	63057920	30569952	24992
305	1.12204	93327360	63057920	15626752	24992
306	1.122322	93327360	63057920	17045992	24992
307	1.117696	93327360	63057920	18469096	24992
308	1.090636	93327360	63057920	19899104	24992
309	1.129297	93327360	63057920	21332240	24992
310	1.121195	93327360	63057920	22767248	24992
311	1.127146	93327360	63057920	24209080	24992
312	1.132521	93327360	63057920	25663040	24992
313	1.139335	93327360	63057920	27121240	24992
314	1.151224	93327360	63057920	28571896	24992
315	1.140325	93327360	63057920	30026584	24992
316	1.155345	93327360	63057920	15220712	24992
317	1.357854	93327360	63057920	16689432	24992
318	1.146108	93327360	63057920	18160920	24992
319	1.153093	93327360	63057920	19634408	24992
320	1.185284	93327360	63057920	21109096	24992
321	1.162425	93327360	63057920	22587384	24992
322	1.148545	93327360	63057920	24069632	24992
323	1.176496	93327360	63057920	25555768	24992
324	1.170285	93327360	63057920	27049304	24992
325	1.161432	93327360	63057920	28543312	24992
326	1.16287	93327360	63057920	30044816	24992
327	1.190327	93327360	63057920	15299768	24992
328	1.176703	93327360	63057920	16805648	24992
329	1.181265	93327360	63057920	18315512	24992
330	1.221241	93327360	63057920	19829360	24992
331	1.202589	93327360	63057920	21347112	24992
332	1.204769	93327360	63057920	22872488	24992
333	1.19718	93327360	63057920	24398080	24992
334	1.187141	93327360	63057920	25927640	24992
335	1.20425	93327360	63057920	27462336	24992
336	1.203079	93327360	63057920	29006984	24992
337	1.216328	93327360	63057920	30565328	24992
338	1.235131	93327360	63057920	15808168	24992
339	1.203642	93327360	63057920	17373792	24992
340	1.218909	93327360	63057920	18955632	24992
341	1.223721	93327360	63057920	20530312	24992
342	1.22935	93327360	63057920	22107712	24992
343	1.23447	93327360	63057920	23689144	24992
344	1.251933	93327360	63057920	25274528	24992
345	1.262751	93327360	63057920	26871232	24992
346	1.230566	93327360	63057920	28466048	24992
347	1.255129	93327360	63057920	30063240	24992
348	1.267114	93327360	63057920	15301656	24992
349	1.24908	93327360	63057920	16906720	24992
350	1.26364	93327360	63057920	18528368	24992
351	1.271247	93327360	63057920	20142656	24992
352	1.262484	93327360	63057920	21759448	24992
353	1.219496	93327360	63057920	23380848	24992
354	1.271498	93327360	63057920	25018744	24992
355	1.267041	93327360	63057920	26647448	24992
356	1.27688	93327360	63057920	28280128	24992
357	1.317175	93327360	63057920	29922680	24992
358	1.651492	93327360	63057920	15238240	24992
359	1.282443	93327360	63057920	16882728	24992
360	1.28177	93327360	63057920	18548816	24992
361	1.50797	93327360	63057920	20223504	24992
362	1.264774	93327360	63057920	21902144	24992
363	1.297794	93327360	63057920	23586216	24992
364	1.308902	93327360	63057920	25272712	24992
365	1.31665	93327360	63057920	26963096	24992
366	1.305196	93327360	63057920	28657312	24992
367	1.310707	93327360	63057920	30355592	24992
368	1.330343	93327360	63057920	15825056	24992
369	1.380177	93327360	63057920	17531072	24992
370	1.318814	93327360	63057920	19243808	24992
371	1.316786	93327360	63057920	20957728	24992
372	1.333522	93327360	63057920	22675640	24992
373	1.332712	93327360	63057920	24409600	24992
374	1.333295	93327360	63057920	26135336	24992
375	1.33691	93327360	63057920	27865072	24992
376	1.351554	93327360	63057920	29599720	24992
377	1.740715	93327360	63057920	15059808	24992
378	1.32079	93327360	63057920	16801304	24992
379	1.328619	93327360	63057920	18546752	24992
380	1.349521	93327360	63057920	20296152	24992
381	1.352506	93327360	63057920	22049584	24992
382	1.350645	93327360	63057920	23806976	24992
383	1.363654	93327360	63057920	25568240	24992
384	1.370211	93327360	63057920	27333352	24992
385	1.371839	93327360	63057920	29102592	24992
386	1.364619	93327360	63057920	30878528	24992
387	1.372172	93327360	63057920	16347432	24992
388	1.381816	93327360	63057920	18128312	24992
389	1.556791	93327360	63057920	19919336	24992
390	1.376625	93327360	63057920	21708136	24992
391	1.386064	93327360	63057920	23500824	24992
392	1.383754	93327360	63057920	25297632	24992
393	1.394427	93327360	63057920	27098256	24992
394	1.392901	93327360	63057920	28908800	24992
395	1.40697	93327360	63057920	30717296	24992
396	1.41004	93327360	63057920	16222936	24992
397	1.619441	93327360	63057920	18039224	24992
398	1.422772	93327360	63057920	19859752	24992
399	1.413791	93327360	63057920	21698296	24992
400	1.414082	93327360	63057920	23526544	24992
401	1.433373	93327360	63057920	25361752	24992
402	1.450326	93327360	63057920	27198040	24992
403	1.428986	93327360	63057920	29038024	24992
404	1.42677	93327360	63057920	30884304	24992
405	1.421592	93327360	63057920	16428328	24992
406	1.436298	93327360	63057920	18280208	24992
407	1.438823	93327360	63057920	20139952	24992
408	1.45557	93327360	63057920	21999640	24992
409	1.440761	93327360	63057920	23882736	24992
410	1.446429	93327360	63057920	25779376	24992
411	1.437496	93327360	63057920	27667416	24992
412	1.65355	93327360	63057920	29566800	24992
413	1.893636	93327360	63057920	15246696	24992
414	1.458839	93327360	63057920	17167384	24992
415	1.46294	93327360	63057920	19071096	24992
416	1.440348	93327360	63057920	20978856	24992
417	1.481351	93327360	63057920	22931744	24992
418	1.475816	93327360	63057920	24930592	24992
419	1.473074	93327360	63057920	26922296	24992
420	1.42308	93327360	63057920	28911456	24992
421	1.484217	93327360	63057920	30904648	24992
422	1.433916	93327360	63057920	16601560	24992
423	1.656516	93327360	63057920	18602648	24992
424	1.502283	93327360	63057920	20607768	24992
425	1.49969	93327360	63057920	22616696	24992
426	1.500781	93327360	63057920	24629512	24992
427	1.498972	93327360	63057920	26646384	24992
428	1.509478	93327360	63057920	28670864	24992
429	1.516155	93327360	63057920	30702640	24992
430	1.562296	93327360	63057920	16465096	24992
431	1.53796	93327360	63057920	18497632	24992
432	1.574897	93327360	63057920	20534128	24992
433	1.601612	93327360	63057920	22574584	24992
434	1.546222	93327360	63057920	24619112	24992
435	1.547085	93327360	63057920	26670200	24992
436	1.620038	93327360	63057920	28724288	24992
437	1.630601	93327360	63057920	30790752	24992
438	1.641043	93327360	63057920	16556472	24992
439	1.549658	93327360	63057920	18620600	24992
440	1.552725	93327360	63057920	20688688	24992
441	1.553273	93327360	63057920	22760664	24992
442	1.55596	93327360	63057920	24836600	24992
443	1.557934	93327360	63057920	26916464	24992
444	1.735849	93327360	63057920	29000344	24992
445	1.572064	93327360	63057920	31088176	24992
446	1.600845	93327360	63057920	16907288	24992
447	1.53864	93327360	63057920	19013208	24992
448	1.540748	93327360	63057920	21112944	24992
449	1.571792	93327360	63057920	23216392	24992
450	1.57527	93327360	63057920	25323824	24992
451	1.759366	93327360	63057920	27435240	24992
452	1.59689	93327360	63057920	29550464	24992
453	2.009648	93327360	63057920	15464656	24992
454	1.782413	93327360	63057920	17587848	24992
455	1.585384	93327360	63057920	19715000	24992
456	1.581129	93327360	63057920	21846112	24992
457	1.603169	93327360	63057920	23981080	24992
458	1.588608	93327360	63057920	26120008	24992
459	1.592833	93327360	63057920	28266728	24992
460	1.611062	93327360	63057920	30430096	24992
461	1.765849	93327360	63057920	16404608	24992
462	1.619632	93327360	63057920	18599120	24992
463	1.624389	93327360	63057920	20757768	24992
464	1.634783	93327360	63057920	22920400	24992
465	1.626139	93327360	63057920	25086840	24992
466	1.626686	93327360	63057920	27264504	24992
467	1.604634	93327360	63057920	29455680	24992
468	2.024715	93327360	63057920	15435104	24992
469	1.642494	93327360	63057920	17623024	24992
470	1.61491	93327360	63057920	19809216	24992
471	1.805798	93327360	63057920	21999360	24992
472	1.653144	93327360	63057920	24207496	24992
473	1.663665	93327360	63057920	26409000	24992
474	1.692566	93327360	63057920	28610952	24992
475	1.667469	93327360	63057920	30816792	24992
476	1.67911	93327360	63057920	16797752	24992
477	1.659278	93327360	63057920	19011376	24992
478	1.642373	93327360	63057920	21235920	24992
479	1.671703	93327360	63057920	23457688	24992
480	1.671037	93327360	63057920	25683200	24992
481	1.618182	93327360	63057920	27912696	24992
482	1.683771	93327360	63057920	30146184	24992
483	2.01062	93327360	63057920	16098312	24992
484	1.643288	93327360	63057920	18339704	24992
485	1.692503	93327360	63057920	20584880	24992
486	1.690877	93327360	63057920	22837472	24992
487	1.910447	93327360	63057920	25090640	24992
488	1.727971	93327360	63057920	27347704	24992
489	1.698571	93327360	63057920	29621536	24992
490	2.329128	93327360	63057920	15699296	24992
491	1.721009	93327360	63057920	17968256	24992
492	1.709671	93327360	63057920	20243632	24992
493	1.726853	93327360	63057920	22520440	24992
494	1.716632	93327360	63057920	24801152	24992
495	1.721468	93327360	63057920	27099032	24992
496	1.720801	93327360	63057920	29387592	24992
497	2.161091	93327360	63057920	15507520	24992
498	1.736035	93327360	63057920	17818976	24992
499	1.716349	93327360	63057920	20119440	24992
500	1.681352	93327360	63057920	22442104	24992
501	1.719047	93327360	63057920	24752936	24992
502	1.743323	93327360	63057920	27066352	24992
503	1.712037	93327360	63057920	29382544	24992
504	2.183292	93327360	63057920	15529232	24992
505	1.753332	93327360	63057920	17871632	24992
506	1.744459	93327360	63057920	20199624	24992
507	1.760674	93327360	63057920	22551080	24992
508	1.755173	93327360	63057920	24886912	24992
509	1.830115	93327360	63057920	27227224	24992
510	1.753102	93327360	63057920	29591168	24992
511	2.221207	93327360	63057920	15761320	24992
512	1.712342	93327360	63057920	18116776	24992
513	1.779254	93327360	63057920	20485616	24992
514	1.795373	93327360	63057920	22845120	24992
515	1.982212	93327360	63057920	25210528	24992
516	1.7941	93327360	63057920	27586800	24992
517	1.826134	93327360	63057920	29958224	24992
518	2.347669	93327360	63057920	16076672	24992
519	1.798992	93327360	63057920	18465432	24992
520	1.802556	93327360	63057920	20859808	24992
521	1.797582	93327360	63057920	23246848	24992
522	1.752136	93327360	63057920	25641416	24992
523	1.812252	93327360	63057920	28036344	24992
524	1.778823	93327360	63057920	30438720	24992
525	2.126706	93327360	63057920	16474888	24992
526	1.818502	93327360	63057920	18897520	24992
527	1.790825	93327360	63057920	21308288	24992
528	1.820376	93327360	63057920	23729536	24992
529	1.827983	93327360	63057920	26149352	24992
530	1.797091	93327360	63057920	28571808	24992
531	1.807969	93327360	63057920	31014440	24992
532	1.845981	93327360	63057920	17242152	24992
533	1.841823	93327360	63057920	19683616	24992
534	1.833045	93327360	63057920	22124048	24992
535	1.839838	93327360	63057920	24566808	24992
536	1.778582	93327360	63057920	27012880	24992
537	1.847018	93327360	63057920	29464040	24992
538	2.306094	93327360	63057920	15763776	24992
539	1.824718	93327360	63057920	18222144	24992
540	1.84361	93327360	63057920	20685912	24992
541	1.866996	93327360	63057920	23151944	24992
542	1.833676	93327360	63057920	25635808	24992
543	1.843565	93327360	63057920	28109520	24992
544	1.879521	93327360	63057920	30593960	24992
545	1.901696	93327360	63057920	16715896	24992
546	1.906807	93327360	63057920	19214320	24992
547	1.901651	93327360	63057920	21724824	24992
548	1.901658	93327360	63057920	24219416	24992
549	1.913817	93327360	63057920	26718360	24992
550	2.08914	93327360	63057920	29219648	24992
551	1.90986	93327360	63057920	31725576	24992
552	1.909668	93327360	63057920	17901792	24992
553	2.112773	93327360	63057920	20415000	24992
554	1.904026	93327360	63057920	22953536	24992
555	1.916854	93327360	63057920	25479656	24992
556	1.915689	93327360	63057920	28031824	24992
557	1.911807	93327360	63057920	30601120	24992
558	1.935536	93327360	63057920	16827128	24992
559	1.97114	93327360	63057920	19421608	24992
560	1.94936	93327360	63057920	22005624	24992
561	2.184115	93327360	63057920	24589736	24992
562	2.01499	93327360	63057920	27173688	24992
563	1.915871	93327360	63057920	29774552	24992
564	2.554279	93327360	63057920	16177528	24992
565	1.956941	93327360	63057920	18776592	24992
566	1.932301	93327360	63057920	21375960	24992
567	1.928609	93327360	63057920	23981392	24992
568	1.948496	93327360	63057920	26587408	24992
569	1.959772	93327360	63057920	29205784	24992
570	1.928549	93327360	63057920	31820056	24992
571	1.962623	93327360	63057920	18107096	24992
572	1.962887	93327360	63057920	20746744	24992
573	1.897292	93327360	63057920	23373624	24992
574	1.959739	93327360	63057920	26009464	24992
575	2.174266	93327360	63057920	28648336	24992
576	2.018534	93327360	63057920	31285880	24992
577	1.994721	93327360	63057920	17705696	24992
578	1.955612	93327360	63057920	20351248	24992
579	1.989539	93327360	63057920	23008728	24992
580	1.987329	93327360	63057920	25662000	24992
581	1.993596	93327360	63057920	28319248	24992
582	1.996809	93327360	63057920	31006440	24992
583	2.175461	93327360	63057920	17527360	24992
584	2.15257	93327360	63057920	20200072	24992
585	1.985326	93327360	63057920	22892696	24992
586	1.986921	93327360	63057920	25573296	24992
587	2.013848	93327360	63057920	28254232	24992
588	2.017392	93327360	63057920	30941432	24992
589	1.994714	93327360	63057920	17493552	24992
590	2.057022	93327360	63057920	20186288	24992
591	2.233883	93327360	63057920	22882960	24992
592	2.041731	93327360	63057920	25583712	24992
593	2.040042	93327360	63057920	28288232	24992
594	2.046025	93327360	63057920	30996720	24992
595	2.054877	93327360	63057920	17571728	24992
596	2.042099	93327360	63057920	20292520	24992
597	1.978827	93327360	63057920	23016488	24992
598	2.065372	93327360	63057920	25740824	24992
599	2.284411	93327360	63057920	28469040	24992
600	2.065605	93327360	63057920	31201200	24992
601	2.071133	93327360	63057920	17803032	24992
602	1.996116	93327360	63057920	20543320	24992
603	2.036876	93327360	63057920	23301208	24992
604	2.227005	93327360	63057920	26049040	24992
605	2.053994	93327360	63057920	28802056	24992
606	2.058873	93327360	63057920	31565872	24992
607	2.275319	93327360	63057920	18081152	24992
608	2.081245	93327360	63057920	20850512	24992
609	2.083227	93327360	63057920	23618248	24992
610	2.297618	93327360	63057920	26389744	24992
611	2.098414	93327360	63057920	29172584	24992
612	2.269397	93327360	63057920	31967736	24992
613	2.102264	93327360	63057920	18466888	24992
614	2.088988	93327360	63057920	21254040	24992
615	2.025139	93327360	63057920	24047720	24992
616	2.004643	93327360	63057920	26843456	24992
617	2.1552	93327360	63057920	29658592	24992
618	2.52462	93327360	63057920	16337824	24992
619	2.134215	93327360	63057920	19154080	24992
620	2.056723	93327360	63057920	21965696	24992
621	2.126613	93327360	63057920	24783560	24992
622	2.125195	93327360	63057920	27602312	24992
623	2.139686	93327360	63057920	30425032	24992
624	2.513949	93327360	63057920	17020464	24992
625	2.154686	93327360	63057920	19863944	24992
626	2.117807	93327360	63057920	22698872	24992
627	2.131339	93327360	63057920	25545536	24992
628	2.15688	93327360	63057920	28387976	24992
629	2.156897	93327360	63057920	31235536	24992
630	2.160053	93327360	63057920	17965520	24992
631	2.157264	93327360	63057920	20819736	24992
632	2.156856	93327360	63057920	23680064	24992
633	2.163026	93327360	63057920	26542216	24992
634	2.1735	93327360	63057920	29416552	24992
635	2.641795	93327360	63057920	16170664	24992
636	2.386094	93327360	63057920	19060256	24992
637	2.35564	93327360	63057920	21938112	24992
638	2.178858	93327360	63057920	24819952	24992
639	2.18791	93327360	63057920	27722224	24992
640	2.181112	93327360	63057920	30626328	24992
641	2.510942	93327360	63057920	17212888	24992
642	2.232121	93327360	63057920	20110456	24992
643	2.181993	93327360	63057920	23011912	24992
644	2.205022	93327360	63057920	25917416	24992
645	2.143607	93327360	63057920	28826952	24992
646	2.181827	93327360	63057920	31740280	24992
647	2.401243	93327360	63057920	18427152	24992
648	2.220379	93327360	63057920	21348592	24992
649	2.217346	93327360	63057920	24273768	24992
650	2.174236	93327360	63057920	27202832	24992
651	2.228324	93327360	63057920	30138432	24992
652	2.757146	93327360	63057920	16846072	24992
653	2.240875	93327360	63057920	19787208	24992
654	2.197179	93327360	63057920	22732008	24992
655	2.309676	93327360	63057920	25680888	24992
656	2.257581	93327360	63057920	28655368	24992
657	2.440975	93327360	63057920	31628512	24992
658	2.175724	93327360	63057920	18383496	24992
659	2.42185	93327360	63057920	21351760	24992
660	2.266624	93327360	63057920	24320112	24992
661	2.280351	93327360	63057920	27292480	24992
662	2.247091	93327360	63057920	30271064	24992
663	2.670132	93327360	63057920	17039424	24992
664	2.588653	93327360	63057920	20023648	24992
665	2.260446	93327360	63057920	23013568	24992
666	2.242913	93327360	63057920	26021144	24992
667	2.278422	93327360	63057920	29017256	24992
668	2.259879	93327360	63057920	32024088	24992
669	2.309004	93327360	63057920	18812856	24992
670	2.35022	93327360	63057920	21820648	24992
671	2.460076	93327360	63057920	24837872	24992
672	2.309768	93327360	63057920	27853728	24992
673	2.285298	93327360	63057920	30875016	24992
674	2.313446	93327360	63057920	17578944	24992
675	2.345116	93327360	63057920	20606456	24992
676	2.247333	93327360	63057920	23654088	24992
677	2.31177	93327360	63057920	26690976	24992
678	2.492901	93327360	63057920	29741736	24992
679	2.804053	93327360	63057920	16695032	24992
680	2.317406	93327360	63057920	19755312	24992
681	2.328408	93327360	63057920	22807240	24992
682	2.328372	93327360	63057920	25862416	24992
683	2.316978	93327360	63057920	28921456	24992
684	2.324764	93327360	63057920	31984576	24992
685	2.511406	93327360	63057920	18833000	24992
686	2.547403	93327360	63057920	21921744	24992
687	2.338671	93327360	63057920	25013176	24992
688	2.341876	93327360	63057920	28111752	24992
689	2.347698	93327360	63057920	31214896	24992
690	2.275418	93327360	63057920	18239016	24992
691	2.357203	93327360	63057920	21348128	24992
692	2.472857	93327360	63057920	24460304	24992
693	2.334218	93327360	63057920	27594296	24992
694	2.386578	93327360	63057920	30717936	24992
695	2.672916	93327360	63057920	17568408	24992
696	2.314294	93327360	63057920	20695056	24992
697	2.360187	93327360	63057920	23825944	24992
698	2.386138	93327360	63057920	26960592	24992
699	2.370499	93327360	63057920	30121504	24992
700	2.766556	93327360	63057920	17057832	24992
701	2.584474	93327360	63057920	20214384	24992
702	2.393833	93327360	63057920	23364760	24992
703	2.458336	93327360	63057920	26539968	24992
704	2.397641	93327360	63057920	29698136	24992
705	2.882615	93327360	63057920	16783664	24992
706	2.394323	93327360	63057920	19966992	24992
707	2.411867	93327360	63057920	23137024	24992
708	2.557793	93327360	63057920	26313024	24992
709	2.358166	93327360	63057920	29496528	24992
710	3.102741	93327360	63057920	16601872	24992
711	2.416083	93327360	63057920	19791440	24992
712	2.414055	93327360	63057920	22983880	24992
713	2.424875	93327360	63057920	26202352	24992
714	2.424047	93327360	63057920	29414544	24992
715	2.881029	93327360	63057920	16566152	24992
716	2.444922	93327360	63057920	19798992	24992
717	2.435108	93327360	63057920	23011960	24992
718	2.442076	93327360	63057920	26240320	24992
719	2.421218	93327360	63057920	29464256	24992
720	2.910806	93327360	63057920	16632984	24992
721	2.654992	93327360	63057920	19861872	24992
722	2.382538	93327360	63057920	23091280	24992
723	2.444952	93327360	63057920	26325976	24992
724	2.437004	93327360	63057920	29578848	24992
725	2.927395	93327360	63057920	16776200	24992
726	2.446614	93327360	63057920	20021992	24992
727	2.480192	93327360	63057920	23270904	24992
728	2.486584	93327360	63057920	26530688	24992
729	2.483323	93327360	63057920	29793824	24992
730	3.088554	93327360	63057920	16991832	24992
731	2.459952	93327360	63057920	20270080	24992
732	2.498395	93327360	63057920	23541328	24992
733	2.451116	93327360	63057920	26813736	24992
734	2.457118	93327360	63057920	30091056	24992
735	2.932338	93327360	63057920	17213304	24992
736	2.490422	93327360	63057920	20498096	24992
737	2.496038	93327360	63057920	23809416	24992
738	2.509096	93327360	63057920	27112192	24992
739	2.502506	93327360	63057920	30408304	24992
740	2.893093	93327360	63057920	17514760	24992
741	2.436399	93327360	63057920	20834800	24992
742	2.51536	93327360	63057920	24144592	24992
743	2.696671	93327360	63057920	27461784	24992
744	2.528866	93327360	63057920	30804624	24992
745	2.916518	93327360	63057920	17889472	24992
746	2.526027	93327360	63057920	21213128	24992
747	2.721188	93327360	63057920	24540688	24992
748	2.410221	93327360	63057920	27873216	24992
749	2.496316	93327360	63057920	31208648	24992
750	2.432607	93327360	63057920	18497272	24992
751	2.540432	93327360	63057920	21855944	24992
752	2.539137	93327360	63057920	25231696	24992
753	2.554478	93327360	63057920	28585520	24992
754	2.553713	93327360	63057920	31947176	24992
755	2.736127	93327360	63057920	19128512	24992
756	2.552533	93327360	63057920	22495096	24992
757	2.529586	93327360	63057920	25862968	24992
758	2.565649	93327360	63057920	29233976	24992
759	2.467978	93327360	63057920	32608928	24992
760	2.801975	93327360	63057920	19751080	24992
761	2.71943	93327360	63057920	23141888	24992
762	2.869801	93327360	63057920	26528688	24992
763	2.71766	93327360	63057920	29925248	24992
764	3.228028	93327360	63057920	17272208	24992
765	2.552594	93327360	63057920	20671512	24992
766	2.567593	93327360	63057920	24091080	24992
767	2.587045	93327360	63057920	27497496	24992
768	2.594498	93327360	63057920	30916864	24992
769	2.978641	93327360	63057920	18076200	24992
770	2.616182	93327360	63057920	21501544	24992
771	2.616632	93327360	63057920	24924864	24992
772	2.522346	93327360	63057920	28351032	24992
773	2.611074	93327360	63057920	31781104	24992
774	2.629078	93327360	63057920	19180200	24992
775	3.251227	93327360	63057920	22622440	24992
776	2.652448	93327360	63057920	26073360	24992
777	2.813183	93327360	63057920	29542584	24992
778	3.100977	93327360	63057920	16953832	24992
779	2.750058	93327360	63057920	20407464	24992
780	2.562426	93327360	63057920	23890752	24992
781	2.592549	93327360	63057920	27352712	24992
782	2.649595	93327360	63057920	30818176	24992
783	3.011024	93327360	63057920	18120904	24992
784	2.65475	93327360	63057920	21604688	24992
785	2.652973	93327360	63057920	25082016	24992
786	2.650607	93327360	63057920	28566080	24992
787	2.670459	93327360	63057920	32051376	24992
788	2.667983	93327360	63057920	19414136	24992
789	2.665817	93327360	63057920	22926784	24992
790	2.698335	93327360	63057920	26433288	24992
791	2.667382	93327360	63057920	29948072	24992
792	3.225668	93327360	63057920	17436528	24992
793	2.690741	93327360	63057920	20974896	24992
794	2.686291	93327360	63057920	24508504	24992
795	2.681044	93327360	63057920	28036424	24992
796	2.64612	93327360	63057920	31559736	24992
797	2.713946	93327360	63057920	19069336	24992
798	2.690405	93327360	63057920	22598864	24992
799	2.657979	93327360	63057920	26132904	24992
800	2.671063	93327360	63057920	29704928	24992
801	3.243957	93327360	63057920	17235568	24992
802	2.700115	93327360	63057920	20789696	24992
803	2.721446	93327360	63057920	24386176	24992
804	2.712955	93327360	63057920	27938480	24992
805	2.723576	93327360	63057920	31494512	24992
806	2.724451	93327360	63057920	19046536	24992
807	2.725009	93327360	63057920	22610496	24992
808	2.722301	93327360	63057920	26186848	24992
809	2.739544	93327360	63057920	29774144	24992
810	3.510104	93327360	63057920	17379952	24992
811	2.739978	93327360	63057920	20965800	24992
812	3.082487	93327360	63057920	24562616	24992
813	2.749347	93327360	63057920	28150160	24992
814	2.955071	93327360	63057920	31741784	24992
815	2.763209	93327360	63057920	19342240	24992
816	2.873556	93327360	63057920	22955504	24992
817	2.756634	93327360	63057920	26568672	24992
818	2.726319	93327360	63057920	30198712	24992
819	3.342148	93327360	63057920	17781400	24992
820	2.936749	93327360	63057920	21396608	24992
821	2.772316	93327360	63057920	25015744	24992
822	2.952744	93327360	63057920	28670976	24992
823	2.764417	93327360	63057920	32300896	24992
824	2.743053	93327360	63057920	19789104	24992
825	2.838128	93327360	63057920	23424712	24992
826	2.687802	93327360	63057920	27063584	24992
827	2.79405	93327360	63057920	30706336	24992
828	3.275016	93327360	63057920	18202056	24992
829	2.828427	93327360	63057920	21890360	24992
830	2.842761	93327360	63057920	25561384	24992
831	2.95611	93327360	63057920	29264496	24992
832	2.78051	93327360	63057920	32945104	24992
833	2.760042	93327360	63057920	20477968	24992
834	2.817892	93327360	63057920	24167512	24992
835	2.805709	93327360	63057920	27870776	24992
836	2.819511	93327360	63057920	31568696	24992
837	3.035778	93327360	63057920	19270728	24992
838	3.01702	93327360	63057920	23008480	24992
839	2.998272	93327360	63057920	26793440	24992
840	2.833204	93327360	63057920	30574536	24992
841	3.503351	93327360	63057920	18209384	24992
842	2.85811	93327360	63057920	21993472	24992
843	3.15658	93327360	63057920	25796912	24992
844	2.879691	93327360	63057920	29592632	24992
845	3.474718	93327360	63057920	17400320	24992
846	2.857183	93327360	63057920	21230568	24992
847	2.788209	93327360	63057920	25035032	24992
848	2.853162	93327360	63057920	28855960	24992
849	2.784079	93327360	63057920	32676184	24992
850	2.863189	93327360	63057920	20397120	24992
851	2.846456	93327360	63057920	24276744	24992
852	2.913384	93327360	63057920	28155696	24992
853	2.879265	93327360	63057920	32058688	24992
854	3.100361	93327360	63057920	19988736	24992
855	2.89256	93327360	63057920	23888424	24992
856	3.023877	93327360	63057920	27779264	24992
857	3.083412	93327360	63057920	31701184	24992
858	2.916996	93327360	63057920	19637576	24992
859	2.906428	93327360	63057920	23558440	24992
860	2.815523	93327360	63057920	27494968	24992
861	2.809564	93327360	63057920	31405624	24992
862	3.237152	93327360	63057920	19030688	24992
863	2.798293	93327360	63057920	22991360	24992
864	2.84855	93327360	63057920	26913824	24992
865	3.071337	93327360	63057920	30853608	24992
866	3.451762	93327360	63057920	18651360	24992
867	3.077326	93327360	63057920	22600416	24992
868	2.865995	93327360	63057920	26553264	24992
869	2.89282	93327360	63057920	30495360	24992
870	3.500141	93327360	63057920	18362200	24992
871	2.931527	93327360	63057920	22312232	24992
872	2.941843	93327360	63057920	26282248	24992
873	2.81928	93327360	63057920	30280872	24992
874	3.607902	93327360	63057920	18234536	24992
875	2.928116	93327360	63057920	22200624	24992
876	3.129115	93327360	63057920	26200488	24992
877	2.852521	93327360	63057920	30173984	24992
878	3.79668	93327360	63057920	18200720	24992
879	2.911525	93327360	63057920	22189248	24992
880	2.952206	93327360	63057920	26214512	24992
881	2.942775	93327360	63057920	30203864	24992
882	3.610318	93327360	63057920	18248160	24992
883	2.960549	93327360	63057920	22257736	24992
884	2.891593	93327360	63057920	26286648	24992
885	2.973991	93327360	63057920	30321560	24992
886	3.680203	93327360	63057920	18325952	24992
887	3.1855	93327360	63057920	22338960	24992
888	2.937348	93327360	63057920	26387688	24992
889	3.175351	93327360	63057920	30449456	24992
890	3.563783	93327360	63057920	18400376	24992
891	3.007724	93327360	63057920	22429168	24992
892	3.001104	93327360	63057920	26464504	24992
893	2.914631	93327360	63057920	30513896	24992
894	3.847242	93327360	63057920	18494056	24992
895	2.86994	93327360	63057920	22538704	24992
896	2.893038	93327360	63057920	26587120	24992
897	3.020914	93327360	63057920	30646800	24992
898	3.700912	93327360	63057920	18589096	24992
899	3.022429	93327360	63057920	22649504	24992
900	2.975538	93327360	63057920	26713752	24992
901	3.037084	93327360	63057920	30786744	24992
902	3.606396	93327360	63057920	18733216	24992
903	3.247515	93327360	63057920	22862960	24992
904	3.035612	93327360	63057920	26990816	24992
905	3.22844	93327360	63057920	31119784	24992
906	3.564643	93327360	63057920	19120896	24992
907	3.045266	93327360	63057920	23212712	24992
908	3.051837	93327360	63057920	27308480	24992
909	3.041059	93327360	63057920	31408088	24992
910	3.610866	93327360	63057920	19330640	24992
911	3.033593	93327360	63057920	23446128	24992
912	3.075172	93327360	63057920	27574880	24992
913	3.057969	93327360	63057920	31712008	24992
914	3.06356	93327360	63057920	19625648	24992
915	3.076186	93327360	63057920	23748960	24992
916	2.975467	93327360	63057920	27876104	24992
917	3.072263	93327360	63057920	32007208	24992
918	3.181179	93327360	63057920	20207240	24992
919	3.255389	93327360	63057920	24346312	24992
920	3.120084	93327360	63057920	28489344	24992
921	3.101495	93327360	63057920	32659328	24992
922	3.107294	93327360	63057920	20822808	24992
923	3.110106	93327360	63057920	24999376	24992
924	3.226073	93327360	63057920	29187504	24992
925	3.099888	93327360	63057920	33363392	24992
926	3.256065	93327360	63057920	21417792	24992
927	3.11397	93327360	63057920	25627216	24992
928	3.066815	93327360	63057920	29825792	24992
929	3.894414	93327360	63057920	18078592	24992
930	3.073982	93327360	63057920	22261120	24992
931	3.300934	93327360	63057920	26447520	24992
932	3.121869	93327360	63057920	30637808	24992
933	3.6703	93327360	63057920	18785696	24992
934	3.108375	93327360	63057920	22988104	24992
935	3.072712	93327360	63057920	27194376	24992
936	3.122748	93327360	63057920	31441096	24992
937	3.778157	93327360	63057920	19535720	24992
938	3.202871	93327360	63057920	23751072	24992
939	3.154602	93327360	63057920	27968904	24992
940	3.161028	93327360	63057920	32190688	24992
941	3.165577	93327360	63057920	20522192	24992
942	3.16296	93327360	63057920	24799760	24992
943	3.280335	93327360	63057920	29033352	24992
944	3.067464	93327360	63057920	33271000	24992
945	3.336332	93327360	63057920	21395584	24992
946	3.18184	93327360	63057920	25691736	24992
947	3.178542	93327360	63057920	29991064	24992
948	4.155612	93327360	63057920	18328056	24992
949	3.181151	93327360	63057920	22625832	24992
950	3.30702	93327360	63057920	26928344	24992
951	3.111308	93327360	63057920	31193528	24992
952	3.899705	93327360	63057920	19351768	24992
953	3.362714	93327360	63057920	23624896	24992
954	3.190153	93327360	63057920	27901856	24992
955	3.397165	93327360	63057920	32189408	24992
956	3.230025	93327360	63057920	20558432	24992
957	3.218759	93327360	63057920	24859472	24992
958	3.417085	93327360	63057920	29152096	24992
959	3.154514	93327360	63057920	33452976	24992
960	3.355939	93327360	63057920	21679224	24992
961	3.399589	93327360	63057920	26010080	24992
962	3.236776	93327360	63057920	30318472	24992
963	4.245868	93327360	63057920	18730080	24992
964	3.123366	93327360	63057920	23046416	24992
965	3.196619	93327360	63057920	27384608	24992
966	3.242455	93327360	63057920	31720440	24992
967	4.072522	93327360	63057920	19847712	24992
968	3.444852	93327360	63057920	24179752	24992
969	3.251329	93327360	63057920	28516896	24992
970	3.226164	93327360	63057920	32856960	24992
971	3.28921	93327360	63057920	21284776	24992
972	3.166963	93327360	63057920	25643848	24992
973	3.444105	93327360	63057920	30039592	24992
974	4.11804	93327360	63057920	18504016	24992
975	3.265989	93327360	63057920	22871200	24992
976	3.229468	93327360	63057920	27239544	24992
977	3.181619	93327360	63057920	31630096	24992
978	4.124072	93327360	63057920	19903032	24992
979	3.295161	93327360	63057920	24278472	24992
980	3.283677	93327360	63057920	28663048	24992
981	3.276841	93327360	63057920	33046336	24992
982	3.248846	93327360	63057920	21407640	24992
983	4.167753	93327360	63057920	25798760	24992
984	3.542514	93327360	63057920	30208568	24992
985	4.13942	93327360	63057920	18706768	24992
986	3.464237	93327360	63057920	23134488	24992
987	3.327178	93327360	63057920	27566856	24992
988	3.329568	93327360	63057920	31989512	24992
989	4.030921	93327360	63057920	20136256	24992
990	3.320488	93327360	63057920	24560008	24992
991	3.479015	93327360	63057920	28982752	24992
992	3.35402	93327360	63057920	33416072	24992
993	3.340535	93327360	63057920	21748808	24992
994	3.348586	93327360	63057920	26183216	24992
995	3.332332	93327360	63057920	30621608	24992
996	4.256642	93327360	63057920	19208400	24992
997	4.575503	93327360	63057920	23654968	24992
998	3.435707	93593600	63057920	28119440	24992
999	3.370371	93593600	63057920	32600792	24992
1000	3.768205	93593600	63057920	21167920	24992
