x	Duration	RSS	HeapTotal	HeapUsed	External
0	NA	92901376	63057920	12748784	24992
1	0.603063	92901376	63057920	12800696	24992
2	0.530895	92901376	63057920	12877472	24992
3	0.327088	92901376	63057920	12992048	24992
4	0.330178	92901376	63057920	13090976	24992
5	0.364559	92901376	63057920	13194432	24992
6	0.351636	92901376	63057920	13301832	24992
7	0.358841	92901376	63057920	13413176	24992
8	0.370716	92901376	63057920	13528464	24992
9	0.382706	92901376	63057920	13647736	24992
10	0.576365	92901376	63057920	13773152	24992
11	0.402625	92901376	63057920	13903664	24992
12	0.416962	92901376	63057920	14038136	24992
13	0.424815	92901376	63057920	14176600	24992
14	0.174042	92901376	63057920	14318960	24992
15	0.166868	92901376	63057920	14466288	24992
16	0.165516	92901376	63057920	14617600	24992
17	0.331613	92901376	63057920	14772904	24992
18	0.186292	92901376	63057920	14932104	24992
19	0.211396	92901376	63057920	15100280	24992
20	0.188693	92901376	63057920	15271584	24992
21	0.170697	92901376	63057920	15444032	24992
22	0.174503	92901376	63057920	15620424	24992
23	0.199766	92901376	63057920	15800920	24992
24	0.179296	92901376	63057920	15987368	24992
25	0.182637	92901376	63057920	16179936	24992
26	0.188054	92901376	63057920	16376536	24992
27	0.189773	92901376	63057920	16576992	24992
28	0.192142	92901376	63057920	16781384	24992
29	0.195982	92901376	63057920	16989696	24992
30	0.19762	92901376	63057920	17201952	24992
31	0.200748	92901376	63057920	17418160	24992
32	0.23019	92901376	63057920	17640408	24992
33	0.209664	92901376	63057920	17866672	24992
34	0.210365	92901376	63057920	18096808	24992
35	0.21347	92901376	63057920	18330936	24992
36	0.216596	92901376	63057920	18568944	24992
37	0.218457	92901376	63057920	18810880	24992
38	0.222407	92901376	63057920	19056784	24992
39	0.225902	92901376	63057920	19306600	24992
40	0.25639	92901376	63057920	19560448	24992
41	0.239238	92901376	63057920	19818152	24992
42	0.233559	92901376	63057920	20081992	24992
43	0.237793	92901376	63057920	20349696	24992
44	0.241769	92901376	63057920	20621400	24992
45	0.24315	92901376	63057920	20899648	24992
46	0.246981	92901376	63057920	21182536	24992
47	0.260733	92901376	63057920	21469336	24992
48	0.257607	92901376	63057920	21760080	24992
49	0.258901	92901376	63057920	22054776	24992
50	0.261664	92901376	63057920	22357632	24992
51	0.264347	92901376	63057920	22668736	24992
52	0.269748	92901376	63057920	22983776	24992
53	0.367863	92901376	63057920	23302656	24992
54	0.28076	92901376	63057920	23626752	24992
55	0.28132	92901376	63057920	23953520	24992
56	0.282104	92901376	63057920	24284264	24992
57	0.285422	92901376	63057920	24618952	24992
58	0.306544	92901376	63057920	24957544	24992
59	0.295916	92901376	63057920	25300120	24992
60	0.321288	92901376	63057920	25646824	24992
61	0.302235	92901376	63057920	25999912	24992
62	0.298728	92901376	63057920	26354296	24992
63	0.311797	92901376	63057920	26712672	24992
64	0.328506	92901376	63057920	27076424	24992
65	0.307601	92901376	63057920	27442640	24992
66	0.307196	92901376	63057920	27812760	24992
67	0.310945	92901376	63057920	28186920	24992
68	0.311922	92901376	63057920	28564896	24992
69	0.3158	92901376	63057920	28946808	24992
70	1.109391	92901376	63057920	13228968	24992
71	0.353805	92901376	63057920	13619160	24992
72	0.353414	92901376	63057920	14012904	24992
73	0.353549	92901376	63057920	14410576	24992
74	0.356427	92901376	63057920	14812232	24992
75	0.374738	92901376	63057920	15217904	24992
76	0.341248	92901376	63057920	15631560	24992
77	0.346107	92901376	63057920	16049200	24992
78	0.346803	92901376	63057920	16470720	24992
79	0.375305	92901376	63057920	16896264	24992
80	0.357792	92901376	63057920	17325928	24992
81	0.385784	92901376	63057920	17760408	24992
82	0.383008	92901376	63057920	18197688	24992
83	0.382728	92901376	63057920	18638888	24992
84	0.384976	92901376	63057920	19088512	24992
85	0.39264	92901376	63057920	19543216	24992
86	0.390132	92901376	63057920	20001872	24992
87	0.395336	92901376	63057920	20464464	24992
88	0.396201	92901376	63057920	20930984	24992
89	0.610143	92901376	63057920	21401512	24992
90	0.384508	92901376	63057920	21875920	24992
91	0.385251	92901376	63057920	22354280	24992
92	0.386299	92901376	63057920	22836568	24992
93	0.612808	92901376	63057920	23322784	24992
94	0.394557	92901376	63057920	23817136	24992
95	0.398523	92901376	63057920	24315408	24992
96	0.396748	92901376	63057920	24817592	24992
97	0.402117	92901376	63057920	25323728	24992
98	0.413175	92901376	63057920	25833824	24992
99	0.407527	92901376	63057920	26349392	24992
100	0.410726	92901376	63057920	26868736	24992
101	0.41575	92901376	63057920	27390720	24992
102	0.417423	92901376	63057920	27924872	24992
103	0.427212	92901376	63057920	28471360	24992
104	0.453661	92901376	63057920	29021744	24992
105	1.119346	92901376	63057920	13397848	24992
106	0.441944	92901376	63057920	13960192	24992
107	0.436821	92901376	63057920	14522408	24992
108	0.436407	92901376	63057920	15088560	24992
109	0.441191	92901376	63057920	15658672	24992
110	0.475608	92901376	63057920	16232648	24992
111	0.474338	92901376	63057920	16811552	24992
112	0.477605	92901376	63057920	17393408	24992
113	0.479285	92901376	63057920	17979208	24992
114	0.484695	92901376	63057920	18568960	24992
115	0.485699	92901376	63057920	19162880	24992
116	0.489013	92901376	63057920	19760520	24992
117	0.488671	92901376	63057920	20362112	24992
118	0.49476	92901376	63057920	20967656	24992
119	0.498616	92901376	63057920	21577112	24992
120	0.501207	92901376	63057920	22190480	24992
121	0.558422	92901376	63057920	22807816	24992
122	0.532324	92901376	63057920	23429064	24992
123	0.519879	92901376	63057920	24054392	24992
124	0.522613	92901376	63057920	24683520	24992
125	0.524713	92901376	63057920	25316576	24992
126	0.52722	92901376	63057920	25953632	24992
127	0.529528	92901376	63057920	26594680	24992
128	0.528766	92901376	63057920	27239608	24992
129	0.511964	92901376	63057920	27888448	24992
130	0.519333	92901376	63057920	28541272	24992
131	0.51117	92901376	63057920	29198360	24992
132	0.995054	92901376	63057920	13573040	24992
133	0.524421	92901376	63057920	14237616	24992
134	0.520948	92901376	63057920	14906144	24992
135	0.550245	92901376	63057920	15578672	24992
136	0.557964	92901376	63057920	16255064	24992
137	0.564018	92901376	63057920	16935424	24992
138	0.566981	92901376	63057920	17619760	24992
139	0.567509	92901376	63057920	18313784	24992
140	0.5721	92901376	63057920	19005968	24992
141	0.585301	92901376	63057920	19702080	24992
142	0.578494	92901376	63057920	20409440	24992
143	0.582455	92901376	63057920	21122632	24992
144	0.770683	92901376	63057920	21839768	24992
145	0.561303	92901376	63057920	22560768	24992
146	0.562942	92901376	63057920	23289024	24992
147	0.570426	92901376	63057920	24022448	24992
148	0.564488	92901376	63057920	24755456	24992
149	0.567529	92901376	63057920	25492216	24992
150	0.569643	92901376	63057920	26232904	24992
151	0.575031	92901376	63057920	26977672	24992
152	0.573232	92901376	63057920	27726272	24992
153	0.585318	92901376	63057920	28478792	24992
154	0.584758	92901376	63057920	29235288	24992
155	1.07803	92901376	63057920	13698128	24992
156	0.630401	92901376	63057920	14462568	24992
157	0.628516	92901376	63057920	15230904	24992
158	0.632802	92901376	63057920	16003136	24992
159	0.6403	92901376	63057920	16779360	24992
160	0.636876	92901376	63057920	17560040	24992
161	0.640209	92901376	63057920	18344136	24992
162	0.967154	92901376	63057920	19132200	24992
163	0.617073	92901376	63057920	19932928	24992
164	0.619532	92901376	63057920	20741264	24992
165	0.633605	92901376	63057920	21549312	24992
166	0.622772	92901376	63057920	22361384	24992
167	0.621566	92901376	63057920	23177336	24992
168	0.657397	92901376	63057920	23997280	24992
169	0.626746	92901376	63057920	24821144	24992
170	0.631268	92901376	63057920	25648896	24992
171	0.661221	92901376	63057920	26480672	24992
172	0.640461	92901376	63057920	27316296	24992
173	0.644031	92901376	63057920	28155880	24992
174	0.648617	92901376	63057920	29000832	24992
175	0.645248	92901376	63057920	29848288	24992
176	0.703458	92901376	63057920	14374664	24992
177	0.689814	92901376	63057920	15230096	24992
178	0.697211	92901376	63057920	16089368	24992
179	0.70085	92901376	63057920	16954016	24992
180	0.702437	92901376	63057920	17821200	24992
181	0.711929	92901376	63057920	18692256	24992
182	0.709001	92901376	63057920	19567280	24992
183	0.716161	92901376	63057920	20446272	24992
184	0.716361	92901376	63057920	21329256	24992
185	0.718509	92901376	63057920	22216080	24992
186	0.724052	92901376	63057920	23106952	24992
187	0.69165	92901376	63057920	24001664	24992
188	0.694261	92901376	63057920	24900432	24992
189	0.692768	92901376	63057920	25809384	24992
190	0.694153	92901376	63057920	26715920	24992
191	0.69597	92901376	63057920	27626456	24992
192	0.731281	92901376	63057920	28541000	24992
193	0.834904	92901376	63057920	29460304	24992
194	1.319482	92901376	63057920	14053424	24992
195	0.717334	92901376	63057920	14979712	24992
196	0.725564	92901376	63057920	15909968	24992
197	0.71716	92901376	63057920	16844208	24992
198	0.722462	92901376	63057920	17782336	24992
199	0.725747	92901376	63057920	18734104	24992
200	0.728332	92901376	63057920	19688296	24992
201	0.744427	92901376	63057920	20646472	24992
202	0.733521	92901376	63057920	21608696	24992
203	0.775281	92901376	63057920	22574720	24992
204	0.77772	92901376	63057920	23544696	24992
205	0.785743	92901376	63057920	24518616	24992
206	0.793454	92901376	63057920	25498104	24992
207	0.779438	92901376	63057920	26496376	24992
208	0.751203	92901376	63057920	27516176	24992
209	0.768603	92901376	63057920	28541248	24992
210	0.796275	92901376	63057920	29572416	24992
211	1.198712	92901376	63057920	14248408	24992
212	0.805806	92901376	63057920	15282976	24992
213	0.805682	92901376	63057920	16321472	24992
214	0.811215	92901376	63057920	17363856	24992
215	0.840131	92901376	63057920	18410200	24992
216	0.798993	92901376	63057920	19460504	24992
217	0.821375	92901376	63057920	20514696	24992
218	0.824796	92901376	63057920	21572912	24992
219	0.833037	92901376	63057920	22635112	24992
220	0.828574	92901376	63057920	23701168	24992
221	0.834168	92901376	63057920	24773592	24992
222	0.834461	92901376	63057920	25847440	24992
223	0.835003	92901376	63057920	26925232	24992
224	0.83105	92901376	63057920	28007016	24992
225	0.843829	92901376	63057920	29092728	24992
226	0.82703	92901376	63057920	30182416	24992
227	0.85958	92901376	63057920	14910424	24992
228	0.86984	92901376	63057920	16007920	24992
229	0.858898	92901376	63057920	17121432	24992
230	0.860149	92901376	63057920	18241304	24992
231	0.865533	92901376	63057920	19365032	24992
232	0.868953	92901376	63057920	20492848	24992
233	0.872655	92901376	63057920	21624416	24992
234	1.063799	92901376	63057920	22760048	24992
235	0.875963	92901376	63057920	23899552	24992
236	0.916001	92901376	63057920	25043056	24992
237	0.884955	92901376	63057920	26190384	24992
238	0.875982	92901376	63057920	27341800	24992
239	0.88259	92901376	63057920	28497200	24992
240	0.908206	92901376	63057920	29656368	24992
241	1.267896	92901376	63057920	14458520	24992
242	0.910597	92901376	63057920	15625592	24992
243	0.904542	92901376	63057920	16797584	24992
244	0.91998	92901376	63057920	17973736	24992
245	0.912954	92901376	63057920	19152680	24992
246	1.124419	92901376	63057920	20335536	24992
247	0.919791	92901376	63057920	21522256	24992
248	0.927765	92901376	63057920	22720936	24992
249	0.921394	92901376	63057920	23918272	24992
250	0.935795	92901376	63057920	25116896	24992
251	0.92844	92901376	63057920	26321152	24992
252	1.095071	92901376	63057920	27528384	24992
253	0.927231	92901376	63057920	28738736	24992
254	0.941398	92901376	63057920	29955272	24992
255	0.914355	92901376	63057920	14890368	24992
256	0.939683	92901376	63057920	16112680	24992
257	0.954534	92901376	63057920	17340264	24992
258	1.142657	92901376	63057920	18570384	24992
259	0.953195	92901376	63057920	19804432	24992
260	0.96421	92901376	63057920	21042680	24992
261	0.971379	92901376	63057920	22289888	24992
262	0.965787	92901376	63057920	23535696	24992
263	1.15506	92901376	63057920	24794368	24992
264	0.981025	92901376	63057920	26048112	24992
265	0.987349	92901376	63057920	27306544	24992
266	0.977341	92901376	63057920	28572144	24992
267	0.98106	92901376	63057920	29840824	24992
268	1.08013	92901376	63057920	14787000	24992
269	0.963832	92901376	63057920	16060456	24992
270	0.998536	92901376	63057920	17346320	24992
271	0.992926	92901376	63057920	18627640	24992
272	1.001099	92901376	63057920	19912856	24992
273	0.994677	92901376	63057920	21202008	24992
274	1.182241	92901376	63057920	22495112	24992
275	0.998303	92901376	63057920	23792208	24992
276	0.991451	92901376	63057920	25099176	24992
277	1.015557	92901376	63057920	26404216	24992
278	1.019166	92901376	63057920	27713112	24992
279	1.04406	92901376	63057920	29027448	24992
280	1.168291	92901376	63057920	30344192	24992
281	1.030384	92901376	63057920	15363440	24992
282	1.032405	92901376	63057920	16688200	24992
283	1.035479	92901376	63057920	18016800	24992
284	1.033518	92901376	63057920	19350624	24992
285	1.008122	92901376	63057920	20687104	24992
286	1.049733	92901376	63057920	22027496	24992
287	1.04303	92901376	63057920	23371808	24992
288	1.047222	92901376	63057920	24720152	24992
289	1.051435	92901376	63057920	26074016	24992
290	1.032524	92901376	63057920	27430120	24992
291	1.063918	92901376	63057920	28800456	24992
292	1.057727	92901376	63057920	30165024	24992
293	1.064758	92901376	63057920	15257824	24992
294	1.05788	92901376	63057920	16629696	24992
295	1.063303	92901376	63057920	18005520	24992
296	1.078859	92901376	63057920	19388680	24992
297	1.067824	92901376	63057920	20772440	24992
298	1.079276	92901376	63057920	22162408	24992
299	1.075095	92901376	63057920	23554024	24992
300	1.078609	92901376	63057920	24949544	24992
301	1.097302	92901376	63057920	26349032	24992
302	1.090791	92901376	63057920	27753128	24992
303	1.105637	92901376	63057920	29160600	24992
304	1.097447	92901376	63057920	30571896	24992
305	1.062352	92901376	63057920	15628696	24992
306	1.111889	92901376	63057920	17047936	24992
307	1.106469	92901376	63057920	18471040	24992
308	1.072221	92901376	63057920	19901048	24992
309	1.156161	92901376	63057920	21334184	24992
310	1.087778	92901376	63057920	22769192	24992
311	1.121622	92901376	63057920	24211024	24992
312	1.321455	92901376	63057920	25664984	24992
313	1.099942	92901376	63057920	27123184	24992
314	1.314892	92901376	63057920	28573840	24992
315	1.087124	92901376	63057920	30028528	24992
316	1.091735	92901376	63057920	15222656	24992
317	1.246254	92901376	63057920	16692376	24992
318	1.143435	92901376	63057920	18162864	24992
319	1.341509	92901376	63057920	19636352	24992
320	1.145162	92901376	63057920	21111040	24992
321	1.147711	92901376	63057920	22589328	24992
322	1.160645	92901376	63057920	24071576	24992
323	1.156572	92901376	63057920	25557712	24992
324	1.122334	92901376	63057920	27051248	24992
325	1.119136	92901376	63057920	28545256	24992
326	1.114299	92901376	63057920	30046760	24992
327	1.176304	92901376	63057920	15301712	24992
328	1.226573	92901376	63057920	16807592	24992
329	1.128117	92901376	63057920	18317456	24992
330	1.175656	92901376	63057920	19831304	24992
331	1.170707	92901376	63057920	21349056	24992
332	1.179833	92901376	63057920	22874432	24992
333	1.364807	92901376	63057920	24400024	24992
334	1.180202	92901376	63057920	25929584	24992
335	1.190284	92901376	63057920	27464280	24992
336	1.20115	92901376	63057920	29008928	24992
337	1.19428	92901376	63057920	30567272	24992
338	1.210197	92901376	63057920	15810112	24992
339	1.201665	92901376	63057920	17375736	24992
340	1.210438	92901376	63057920	18957576	24992
341	1.210549	92901376	63057920	20532256	24992
342	1.217805	92901376	63057920	22109656	24992
343	1.2188	92901376	63057920	23691088	24992
344	1.221692	92901376	63057920	25276472	24992
345	1.223117	92901376	63057920	26873176	24992
346	1.225849	92901376	63057920	28467992	24992
347	1.225092	92901376	63057920	30065184	24992
348	1.224989	92901376	63057920	15303600	24992
349	1.244456	92901376	63057920	16908664	24992
350	1.241295	92901376	63057920	18530312	24992
351	1.24425	92901376	63057920	20144600	24992
352	1.278366	92901376	63057920	21761392	24992
353	1.243862	92901376	63057920	23382792	24992
354	1.243523	92901376	63057920	25020688	24992
355	1.276947	92901376	63057920	26649392	24992
356	1.256502	92901376	63057920	28282072	24992
357	1.266314	92901376	63057920	29924624	24992
358	1.632575	92901376	63057920	15240184	24992
359	1.681594	92901376	63057920	16884672	24992
360	1.268284	92901376	63057920	18550760	24992
361	1.274064	92901376	63057920	20225448	24992
362	1.285533	92901376	63057920	21904088	24992
363	1.280482	92901376	63057920	23588160	24992
364	1.231967	92901376	63057920	25274656	24992
365	1.29383	92901376	63057920	26965040	24992
366	1.307065	92901376	63057920	28659256	24992
367	1.290962	92901376	63057920	30357536	24992
368	1.308504	92901376	63057920	15827000	24992
369	1.360301	92901376	63057920	17533016	24992
370	1.323183	92901376	63057920	19245752	24992
371	1.305026	92901376	63057920	20959672	24992
372	1.304273	92901376	63057920	22677584	24992
373	1.332287	92901376	63057920	24411544	24992
374	1.263964	92901376	63057920	26137280	24992
375	1.32481	92901376	63057920	27867016	24992
376	1.299108	92901376	63057920	29601664	24992
377	1.736653	92901376	63057920	15061752	24992
378	1.334672	92901376	63057920	16803248	24992
379	1.332014	92901376	63057920	18548696	24992
380	1.339255	92901376	63057920	20298096	24992
381	1.34567	92901376	63057920	22051528	24992
382	1.382017	92901376	63057920	23808920	24992
383	1.341098	92901376	63057920	25570184	24992
384	1.559569	92901376	63057920	27335296	24992
385	1.362189	92901376	63057920	29104536	24992
386	1.353473	92901376	63057920	30880472	24992
387	1.335827	92901376	63057920	16349376	24992
388	1.375732	92901376	63057920	18130256	24992
389	1.375184	92901376	63057920	19921280	24992
390	1.332289	92901376	63057920	21710080	24992
391	1.366408	92901376	63057920	23502768	24992
392	1.358787	92901376	63057920	25299576	24992
393	1.385261	92901376	63057920	27100200	24992
394	1.382762	92901376	63057920	28910744	24992
395	1.384387	92901376	63057920	30719240	24992
396	1.388596	92901376	63057920	16224880	24992
397	1.39035	92901376	63057920	18041168	24992
398	1.40472	92901376	63057920	19861696	24992
399	1.391222	92901376	63057920	21700240	24992
400	1.399965	92901376	63057920	23528488	24992
401	1.569889	92901376	63057920	25363696	24992
402	1.410534	92901376	63057920	27199984	24992
403	1.58523	92901376	63057920	29039968	24992
404	1.358383	92901376	63057920	30886248	24992
405	1.419213	92901376	63057920	16430272	24992
406	1.361759	92901376	63057920	18282152	24992
407	1.42066	92901376	63057920	20141896	24992
408	1.433286	92901376	63057920	22001584	24992
409	1.4231	92901376	63057920	23884680	24992
410	1.429661	92901376	63057920	25781320	24992
411	1.609438	92901376	63057920	27669360	24992
412	1.451758	92901376	63057920	29568744	24992
413	1.831558	92901376	63057920	15248640	24992
414	1.442491	92901376	63057920	17169328	24992
415	1.397941	92901376	63057920	19073040	24992
416	1.454693	92901376	63057920	20980800	24992
417	1.448934	92901376	63057920	22933688	24992
418	1.453761	92901376	63057920	24932536	24992
419	1.456633	92901376	63057920	26924240	24992
420	1.432378	92901376	63057920	28913400	24992
421	1.496634	92901376	63057920	30906592	24992
422	1.659741	92901376	63057920	16603504	24992
423	1.480886	92901376	63057920	18604592	24992
424	1.476334	92901376	63057920	20609712	24992
425	1.477567	92901376	63057920	22618640	24992
426	1.453024	92901376	63057920	24631456	24992
427	1.486225	92901376	63057920	26648328	24992
428	1.495609	92901376	63057920	28672808	24992
429	1.489334	92901376	63057920	30704584	24992
430	1.505097	92901376	63057920	16467040	24992
431	1.497351	92901376	63057920	18499576	24992
432	1.501428	92901376	63057920	20536072	24992
433	1.691962	92901376	63057920	22576528	24992
434	1.455586	92901376	63057920	24621056	24992
435	1.521611	92901376	63057920	26672144	24992
436	1.513932	92901376	63057920	28726232	24992
437	1.51419	92901376	63057920	30792696	24992
438	1.528781	92901376	63057920	16558416	24992
439	1.734132	92901376	63057920	18622544	24992
440	1.485402	92901376	63057920	20690632	24992
441	1.530254	92901376	63057920	22762608	24992
442	1.532505	92901376	63057920	24838544	24992
443	1.537103	92901376	63057920	26918408	24992
444	1.492697	92901376	63057920	29002288	24992
445	1.48279	92901376	63057920	31090120	24992
446	1.545021	92901376	63057920	16909232	24992
447	1.75342	92901376	63057920	19015152	24992
448	1.562945	92901376	63057920	21114888	24992
449	1.567026	92901376	63057920	23218336	24992
450	1.557948	92901376	63057920	25325768	24992
451	1.560886	92901376	63057920	27437184	24992
452	1.567046	92901376	63057920	29552408	24992
453	2.001451	92901376	63057920	15466600	24992
454	1.550523	92901376	63057920	17589792	24992
455	1.584716	92901376	63057920	19716944	24992
456	1.594498	92901376	63057920	21848056	24992
457	1.766763	92901376	63057920	23983024	24992
458	1.574545	92901376	63057920	26121952	24992
459	1.578079	92901376	63057920	28268672	24992
460	1.582369	92901376	63057920	30432040	24992
461	1.598827	92901376	63057920	16406552	24992
462	1.59652	92901376	63057920	18601064	24992
463	1.621785	92901376	63057920	20759712	24992
464	1.834158	92901376	63057920	22922344	24992
465	1.63415	92901376	63057920	25088784	24992
466	1.629732	92901376	63057920	27266448	24992
467	1.612168	92901376	63057920	29457624	24992
468	2.001607	92901376	63057920	15437048	24992
469	1.611886	92901376	63057920	17624968	24992
470	1.630191	92901376	63057920	19811160	24992
471	1.621996	92901376	63057920	22001304	24992
472	1.627491	92901376	63057920	24209440	24992
473	1.640068	92901376	63057920	26410944	24992
474	1.829837	92901376	63057920	28612896	24992
475	1.636762	92901376	63057920	30818736	24992
476	1.664587	92901376	63057920	16799696	24992
477	1.843967	92901376	63057920	19013320	24992
478	1.660457	92901376	63057920	21237864	24992
479	1.64293	92901376	63057920	23459632	24992
480	1.650665	92901376	63057920	25685144	24992
481	1.65862	92901376	63057920	27914640	24992
482	1.661637	92901376	63057920	30148128	24992
483	2.033104	92901376	63057920	16100256	24992
484	1.601817	92901376	63057920	18341648	24992
485	1.656084	92901376	63057920	20586824	24992
486	1.666311	92901376	63057920	22839416	24992
487	1.848248	92901376	63057920	25092584	24992
488	1.635147	92901376	63057920	27349648	24992
489	1.683624	92901376	63057920	29623480	24992
490	2.130042	92901376	63057920	15701240	24992
491	1.69998	92901376	63057920	17970200	24992
492	1.698918	92901376	63057920	20245576	24992
493	1.702011	92901376	63057920	22522384	24992
494	1.628955	92901376	63057920	24803096	24992
495	1.693833	92901376	63057920	27100976	24992
496	1.693348	92901376	63057920	29389536	24992
497	2.064796	92901376	63057920	15509464	24992
498	1.675133	92901376	63057920	17820920	24992
499	1.714699	92901376	63057920	20121384	24992
500	1.65535	92901376	63057920	22444048	24992
501	1.680662	92901376	63057920	24754880	24992
502	1.669685	92901376	63057920	27068296	24992
503	2.043754	92901376	63057920	29384488	24992
504	2.188126	92901376	63057920	15531176	24992
505	1.762482	92901376	63057920	17873576	24992
506	1.912912	92901376	63057920	20201568	24992
507	1.745361	92901376	63057920	22553024	24992
508	1.740055	92901376	63057920	24888856	24992
509	1.914444	92901376	63057920	27229168	24992
510	1.745001	92901376	63057920	29593112	24992
511	2.199519	92901376	63057920	15763264	24992
512	1.766078	92901376	63057920	18118720	24992
513	1.763653	92901376	63057920	20487560	24992
514	1.760915	92901376	63057920	22847064	24992
515	2.02647	92901376	63057920	25212472	24992
516	1.779681	92901376	63057920	27588744	24992
517	1.794829	92901376	63057920	29960168	24992
518	2.347638	92901376	63057920	16078616	24992
519	1.790146	92901376	63057920	18467376	24992
520	1.787352	92901376	63057920	20861752	24992
521	1.967772	92901376	63057920	23248792	24992
522	1.787941	92901376	63057920	25643360	24992
523	1.791416	92901376	63057920	28038288	24992
524	1.809669	92901376	63057920	30440664	24992
525	2.114356	92901376	63057920	16476832	24992
526	1.796095	92901376	63057920	18899464	24992
527	2.003563	92901376	63057920	21310232	24992
528	1.837348	92901376	63057920	23731480	24992
529	1.814847	92901376	63057920	26151296	24992
530	2.003508	92901376	63057920	28573752	24992
531	1.80111	92901376	63057920	31016384	24992
532	1.762976	92901376	63057920	17244096	24992
533	1.831523	92901376	63057920	19685560	24992
534	1.818561	92901376	63057920	22125992	24992
535	1.832131	92901376	63057920	24568752	24992
536	2.034988	92901376	63057920	27014824	24992
537	1.784331	92901376	63057920	29465984	24992
538	2.283947	92901376	63057920	15765720	24992
539	2.180888	92901376	63057920	18224088	24992
540	1.851478	92901376	63057920	20687856	24992
541	1.879243	92901376	63057920	23153888	24992
542	1.787707	92901376	63057920	25637752	24992
543	1.858546	92901376	63057920	28111464	24992
544	1.858824	92901376	63057920	30595904	24992
545	1.815147	92901376	63057920	16717840	24992
546	1.852789	92901376	63057920	19216264	24992
547	1.866468	92901376	63057920	21726768	24992
548	1.811821	92901376	63057920	24221360	24992
549	1.827139	92901376	63057920	26720304	24992
550	1.809635	92901376	63057920	29221592	24992
551	1.869974	92901376	63057920	31727520	24992
552	1.878939	92901376	63057920	17903736	24992
553	1.886537	92901376	63057920	20416944	24992
554	1.846046	92901376	63057920	22955480	24992
555	1.88074	92901376	63057920	25481600	24992
556	1.833321	92901376	63057920	28033768	24992
557	1.907132	92901376	63057920	30603064	24992
558	1.917679	92901376	63057920	16829072	24992
559	1.92296	92901376	63057920	19421048	24992
560	1.918723	92901376	63057920	22005200	24992
561	1.90126	92901376	63057920	24589208	24992
562	2.118541	92901376	63057920	27173328	24992
563	1.931106	92901376	63057920	29774040	24992
564	2.355343	92901376	63057920	16176968	24992
565	2.107742	92901376	63057920	18776032	24992
566	1.933522	92901376	63057920	21375496	24992
567	1.888818	92901376	63057920	23980952	24992
568	1.934012	92901376	63057920	26587184	24992
569	2.111778	92901376	63057920	29205320	24992
570	1.933953	92901376	63057920	31819616	24992
571	1.955409	92901376	63057920	18106536	24992
572	1.955037	92901376	63057920	20746216	24992
573	2.145891	92901376	63057920	23373064	24992
574	1.961445	92901376	63057920	26008904	24992
575	1.943131	92901376	63057920	28647776	24992
576	1.970759	92901376	63057920	31285536	24992
577	1.905317	92901376	63057920	17705232	24992
578	1.995677	92901376	63057920	20350808	24992
579	1.962128	92901376	63057920	23008288	24992
580	1.959706	92901376	63057920	25661784	24992
581	1.97368	92901376	63057920	28319304	24992
582	1.903563	92901376	63057920	31005880	24992
583	1.999402	92901376	63057920	17526968	24992
584	2.00699	92901376	63057920	20199512	24992
585	1.921141	92901376	63057920	22892136	24992
586	2.002114	92901376	63057920	25572856	24992
587	2.162887	92901376	63057920	28254104	24992
588	1.996273	92901376	63057920	30941008	24992
589	2.008737	92901376	63057920	17493208	24992
590	1.993296	92901376	63057920	20186160	24992
591	1.999513	92901376	63057920	22882984	24992
592	2.007994	92901376	63057920	25583864	24992
593	2.030295	92901376	63057920	28288600	24992
594	2.027676	92901376	63057920	30997216	24992
595	2.23012	92901376	63057920	17572368	24992
596	1.973717	92901376	63057920	20291960	24992
597	2.154063	92901376	63057920	23016048	24992
598	1.949627	92901376	63057920	25742088	24992
599	1.990346	92901376	63057920	28470352	24992
600	2.04708	92901376	63057920	31202800	24992
601	1.986136	92901376	63057920	17803368	24992
602	2.050115	92901376	63057920	20543688	24992
603	2.209715	92901376	63057920	23300648	24992
604	2.047686	92901376	63057920	26048600	24992
605	2.05192	92901376	63057920	28801496	24992
606	1.992991	92901376	63057920	31565424	24992
607	1.994974	92901376	63057920	18080840	24992
608	2.073864	92901376	63057920	20849952	24992
609	2.070137	92901376	63057920	23617808	24992
610	2.077229	92901376	63057920	26389504	24992
611	2.0205	92901376	63057920	29172152	24992
612	2.068729	92901376	63057920	31967208	24992
613	2.074993	92901376	63057920	18466328	24992
614	2.085956	92901376	63057920	21253816	24992
615	2.083136	92901376	63057920	24047376	24992
616	2.09508	92901376	63057920	26842896	24992
617	2.00999	92901376	63057920	29658032	24992
618	2.438268	92901376	63057920	16337264	24992
619	2.025221	92901376	63057920	19153616	24992
620	2.09033	92901376	63057920	21965136	24992
621	2.30541	92901376	63057920	24783000	24992
622	2.116181	92901376	63057920	27626232	24992
623	2.033308	92901376	63057920	30454392	24992
624	2.473139	92901376	63057920	17044480	24992
625	2.108495	92901376	63057920	19875720	24992
626	2.124114	92901376	63057920	22710552	24992
627	2.113504	92901376	63057920	25553448	24992
628	2.12949	92901376	63057920	28396104	24992
629	2.318957	92901376	63057920	31243136	24992
630	2.141796	92901376	63057920	17973336	24992
631	2.139733	92901376	63057920	20830032	24992
632	2.103756	92901376	63057920	23692112	24992
633	2.147628	92901376	63057920	26554480	24992
634	2.30195	92901376	63057920	29424368	24992
635	2.493893	92901376	63057920	16186888	24992
636	2.155588	92901376	63057920	19076600	24992
637	2.179362	92901376	63057920	21954688	24992
638	2.158182	92901376	63057920	24837632	24992
639	2.320389	92901376	63057920	27738352	24992
640	2.079233	92901376	63057920	30634048	24992
641	2.397738	92901376	63057920	17242248	24992
642	2.178414	92901376	63057920	20142168	24992
643	2.18329	92901376	63057920	23043816	24992
644	2.154614	92901376	63057920	25957072	24992
645	2.112263	92901376	63057920	28866512	24992
646	2.181407	92901376	63057920	31779976	24992
647	2.218915	92901376	63057920	18469648	24992
648	2.12643	92901376	63057920	21391088	24992
649	2.372324	92901376	63057920	24347232	24992
650	2.195269	92901376	63057920	27286592	24992
651	2.122165	92901376	63057920	30219912	24992
652	2.572034	92901376	63057920	16928352	24992
653	2.253691	92901376	63057920	19877240	24992
654	2.122432	92901376	63057920	22850448	24992
655	2.201117	92901376	63057920	25801056	24992
656	2.405989	92901376	63057920	28753968	24992
657	2.256773	92901376	63057920	31717928	24992
658	2.202328	92901376	63057920	18475808	24992
659	2.221035	92901376	63057920	21463400	24992
660	2.233413	92901376	63057920	24436416	24992
661	2.399796	92901376	63057920	27408976	24992
662	2.229714	92901376	63057920	30385424	24992
663	2.606891	92901376	63057920	17143152	24992
664	2.214401	92901376	63057920	20152304	24992
665	2.15549	92901376	63057920	23140624	24992
666	2.434144	92901376	63057920	26145584	24992
667	2.252143	92901376	63057920	29146360	24992
668	2.261489	92901376	63057920	32146608	24992
669	2.263273	92901376	63057920	18925488	24992
670	2.173859	92901376	63057920	21950432	24992
671	2.260173	92901376	63057920	24962432	24992
672	2.267189	92901376	63057920	27980456	24992
673	2.459253	92901376	63057920	31005712	24992
674	2.206588	92901376	63057920	17956584	24992
675	2.22001	92901376	63057920	20985920	24992
676	2.286923	92901376	63057920	24041096	24992
677	2.292978	92901376	63057920	27076800	24992
678	2.467171	92901376	63057920	30116336	24992
679	2.713089	92901376	63057920	16968216	24992
680	2.438774	92901376	63057920	20020696	24992
681	2.206092	92901376	63057920	23077568	24992
682	2.214472	92901376	63057920	26154072	24992
683	2.297503	92901376	63057920	29223656	24992
684	2.311696	92901376	63057920	32304672	24992
685	2.508021	92901376	63057920	19091992	24992
686	2.260419	92901376	63057920	22191688	24992
687	2.265385	92901376	63057920	25289368	24992
688	2.31284	92901376	63057920	28387048	24992
689	2.319783	92901376	63057920	31493064	24992
690	2.328737	92901376	63057920	18506688	24992
691	2.341067	92901376	63057920	21631808	24992
692	2.499633	92901376	63057920	24745928	24992
693	2.327546	92901376	63057920	27887696	24992
694	2.335296	92901376	63057920	31011032	24992
695	2.284644	92901376	63057920	17789928	24992
696	2.297899	92901376	63057920	20918912	24992
697	2.344178	92901376	63057920	24049880	24992
698	2.356723	92901376	63057920	27184648	24992
699	2.515379	92901376	63057920	30343648	24992
700	2.915717	92901376	63057920	17278152	24992
701	2.479653	92901376	63057920	20441544	24992
702	2.362727	92901376	63057920	23597144	24992
703	2.388582	92901376	63057920	26764192	24992
704	2.286208	92901376	63057920	29922728	24992
705	2.848678	92901376	63057920	16997304	24992
706	2.300792	92901376	63057920	20163664	24992
707	2.363014	92901376	63057920	23345464	24992
708	2.558265	92901376	63057920	26519760	24992
709	2.291771	92901376	63057920	29704480	24992
710	2.868405	92901376	63057920	16815816	24992
711	2.392448	92901376	63057920	20004520	24992
712	2.346944	92901376	63057920	23218696	24992
713	2.349692	92901376	63057920	26439536	24992
714	2.409375	92901376	63057920	29637264	24992
715	2.982675	92901376	63057920	16764456	24992
716	2.321366	92901376	63057920	19970040	24992
717	2.422325	92901376	63057920	23181520	24992
718	2.417583	92901376	63057920	26396840	24992
719	2.40812	92901376	63057920	29624416	24992
720	2.914753	92901376	63057920	16773960	24992
721	2.422276	92901376	63057920	19999384	24992
722	2.376746	92901376	63057920	23229904	24992
723	2.43393	92901376	63057920	26463280	24992
724	2.425617	92901376	63057920	29700464	24992
725	2.936022	92901376	63057920	16872200	24992
726	2.599261	92901376	63057920	20118576	24992
727	2.429995	92901376	63057920	23368112	24992
728	2.637039	92901376	63057920	26623720	24992
729	2.493824	92901376	63057920	29880640	24992
730	2.823495	92901376	63057920	17076056	24992
731	2.459158	92901376	63057920	20351416	24992
732	2.441382	92901376	63057920	23627904	24992
733	2.453986	92901376	63057920	26900800	24992
734	2.457981	92901376	63057920	30184632	24992
735	2.838886	92901376	63057920	17270032	24992
736	2.481621	92901376	63057920	20559320	24992
737	2.663816	92901376	63057920	23849224	24992
738	2.467078	92901376	63057920	27174872	24992
739	2.625446	92901376	63057920	30471232	24992
740	2.865992	92901376	63057920	17572248	24992
741	2.510817	92901376	63057920	20879040	24992
742	2.477013	92901376	63057920	24199640	24992
743	2.492668	92901376	63057920	27511792	24992
744	2.404728	92901376	63057920	30844648	24992
745	2.841112	92901376	63057920	17904984	24992
746	2.412398	92901376	63057920	21228888	24992
747	2.509024	92901376	63057920	24556792	24992
748	2.500019	92901376	63057920	27888512	24992
749	2.513807	92901376	63057920	31224336	24992
750	2.701487	92901376	63057920	18505088	24992
751	2.413653	92901376	63057920	21855416	24992
752	2.632204	92901376	63057920	25231136	24992
753	2.519493	92901376	63057920	28585080	24992
754	2.518234	92901376	63057920	31946616	24992
755	2.556755	92901376	63057920	19127952	24992
756	2.526097	92901376	63057920	22494536	24992
757	2.546964	92901376	63057920	25862408	24992
758	2.454221	92901376	63057920	29233464	24992
759	2.548062	92901376	63057920	32608584	24992
760	2.570786	92901376	63057920	19750768	24992
761	2.537571	92901376	63057920	23141328	24992
762	2.561231	92901376	63057920	26528344	24992
763	2.469349	92901376	63057920	29924808	24992
764	3.053431	92901376	63057920	17271864	24992
765	2.554667	92901376	63057920	20671048	24992
766	2.529596	92901376	63057920	24090616	24992
767	2.789625	92901376	63057920	27497272	24992
768	2.55955	92901376	63057920	30916304	24992
769	3.061769	92901376	63057920	18075640	24992
770	2.576807	92901376	63057920	21501104	24992
771	2.585266	92901376	63057920	24924304	24992
772	2.58735	92901376	63057920	28366888	24992
773	2.766624	92901376	63057920	31814016	24992
774	2.611431	92901376	63057920	19214008	24992
775	2.717329	92901376	63057920	22652376	24992
776	2.619088	92901376	63057920	26103504	24992
777	2.554027	92901376	63057920	29576688	24992
778	3.01637	92901376	63057920	17032696	24992
779	2.548781	92901376	63057920	20486600	24992
780	2.569363	92901376	63057920	23949704	24992
781	2.609383	92901376	63057920	27415160	24992
782	2.544211	92901376	63057920	30905232	24992
783	2.967078	92901376	63582208	18201296	24992
784	2.62658	92901376	63582208	21680936	24992
785	2.627586	92901376	63582208	25158424	24992
786	2.630999	92901376	63582208	28658000	24992
787	2.631925	92901376	63582208	32167904	24992
788	2.605553	92901376	63582208	19507760	24992
789	2.571889	92901376	63582208	23027672	24992
790	2.77304	92901376	63582208	26531672	24992
791	2.641185	92901376	63582208	30033192	24992
792	3.078866	92901376	63582208	17544432	24992
793	2.613226	92901376	63582208	21054608	24992
794	2.64975	92901376	63582208	24571432	24992
795	2.664319	92901376	63582208	28118392	24992
796	2.594223	92901376	63582208	31639176	24992
797	2.600365	92901376	63582208	19154424	24992
798	2.571917	92901376	63582208	22683184	24992
799	2.677853	92901376	63582208	26228472	24992
800	2.865388	92901376	63582208	29767832	24992
801	3.184061	92901376	63582208	17339544	24992
802	2.788054	92901376	63582208	20884000	24992
803	2.63413	92901376	63582208	24445024	24992
804	2.849819	92901376	63582208	28033248	24992
805	2.646118	92901376	63582208	31589464	24992
806	2.866144	92901376	63582208	19139816	24992
807	2.693408	92901376	63582208	22720344	24992
808	2.668608	92901376	63582208	26318864	24992
809	2.653505	92901376	63582208	29890888	24992
810	3.433281	92901376	63582208	17461336	24992
811	2.90389	92901376	63582208	21068384	24992
812	2.836079	92901376	63582208	24680624	24992
813	2.623217	92901376	63582208	28292896	24992
814	2.791612	92901376	63582208	31905136	24992
815	2.673626	92901376	63582208	19499320	24992
816	2.974522	92901376	63582208	23104328	24992
817	2.874598	92901376	63582208	26717496	24992
818	2.733565	92901376	63582208	30330728	24992
819	3.319538	93171712	63582208	17844888	24992
820	2.724353	93171712	63582208	21478304	24992
821	2.708917	93171712	63582208	25108128	24992
822	2.693303	93171712	63582208	28733848	24992
823	2.753396	93171712	63582208	32362656	24992
824	2.769592	93171712	63582208	19871032	24992
825	2.653831	93171712	63582208	23506208	24992
826	2.698691	93171712	63582208	27145312	24992
827	2.719548	93171712	63582208	30826016	24992
828	3.160655	93171712	63582208	18323344	24992
829	2.749075	93171712	63582208	21990712	24992
830	2.760581	93171712	63582208	25685016	24992
831	2.765411	93171712	63582208	29364704	24992
832	2.774676	93171712	63582208	33091400	24992
833	2.670807	93171712	63582208	20588128	24992
834	2.788011	93171712	63582208	24291272	24992
835	2.769649	93171712	63582208	27990120	24992
836	2.782559	93171712	63582208	31684856	24992
837	2.810288	93171712	63582208	19403792	24992
838	2.900965	93171712	63582208	23139472	24992
839	2.778618	93171712	63582208	26953024	24992
840	2.73415	93171712	63582208	30729144	24992
841	3.29203	93171712	63582208	18362632	24992
842	2.800512	93171712	63582208	22147736	24992
843	3.013163	93171712	63582208	25952664	24992
844	2.746488	93171712	63582208	29744640	24992
845	3.602661	93171712	63582208	17570416	24992
846	2.814705	93171712	63582208	21392192	24992
847	2.828393	93171712	63582208	25196000	24992
848	2.830488	93171712	63582208	29009112	24992
849	3.026664	93171712	63582208	32820840	24992
850	2.829917	93171712	63582208	20548560	24992
851	2.825103	93171712	63582208	24431936	24992
852	2.833389	93171712	63582208	28307136	24992
853	2.837473	93171712	63582208	32211008	24992
854	2.85861	93171712	63582208	20140896	24992
855	2.980913	93171712	63582208	24038736	24992
856	2.756716	93171712	63582208	27929608	24992
857	2.755666	93171712	63582208	31835024	24992
858	3.05053	93171712	63582208	19789152	24992
859	2.86316	93171712	63582208	23691968	24992
860	3.043816	93171712	63582208	27640400	24992
861	2.756607	93171712	63582208	31550992	24992
862	2.886524	93171712	63582208	19197808	24992
863	2.765818	93171712	63582208	23131344	24992
864	3.018938	93171712	63582208	27083512	24992
865	2.794058	93171712	63582208	31009840	24992
866	3.556075	93171712	63582208	18810736	24992
867	2.872079	93171712	63582208	22748888	24992
868	2.881976	93171712	63582208	26712240	24992
869	2.891003	93171712	63582208	30654328	24992
870	3.400491	93171712	63582208	18465928	24992
871	3.093592	93171712	63582208	22415840	24992
872	2.802974	93171712	63582208	26369824	24992
873	2.803671	93171712	63582208	30350384	24992
874	3.552553	93442048	63582208	18277504	24992
875	3.099953	93442048	63582208	22251288	24992
876	2.951609	93442048	63582208	26236776	24992
877	3.033259	93442048	63582208	30210272	24992
878	3.537632	93442048	63582208	18237008	24992
879	2.932928	93442048	63582208	22225536	24992
880	2.919629	93442048	63582208	26250800	24992
881	2.847424	93442048	63582208	30240152	24992
882	3.540543	93442048	63582208	18284448	24992
883	2.893846	93442048	63582208	22294024	24992
884	2.927793	93442048	63582208	26322936	24992
885	2.918744	93442048	63582208	30357848	24992
886	3.543801	93442048	63582208	18362240	24992
887	2.895536	93442048	63582208	22375248	24992
888	3.182551	93442048	63582208	26423976	24992
889	3.005035	93442048	63582208	30485744	24992
890	4.08547	93442048	63582208	18436664	24992
891	2.890436	93442048	63582208	22465456	24992
892	2.977606	93442048	63582208	26500792	24992
893	2.848891	93442048	63582208	30550184	24992
894	3.547835	93442048	63582208	18530344	24992
895	3.088516	93442048	63582208	22574992	24992
896	2.964652	93442048	63582208	26623408	24992
897	2.992781	93442048	63582208	30683088	24992
898	3.552499	93442048	63582208	18625384	24992
899	2.958842	93442048	63582208	22685792	24992
900	2.932976	93442048	63582208	26750040	24992
901	2.896214	93442048	63582208	30823032	24992
902	3.563339	93442048	63582208	18769504	24992
903	2.900663	93442048	63582208	22899248	24992
904	2.892712	93442048	63582208	27027104	24992
905	2.909137	93442048	63582208	31156072	24992
906	3.735507	93442048	63582208	19157184	24992
907	2.968096	93442048	63582208	23249000	24992
908	3.18209	93442048	63582208	27344768	24992
909	3.201205	93442048	63582208	31444376	24992
910	3.572561	93442048	63582208	19366928	24992
911	2.910236	93442048	63582208	23482416	24992
912	3.025593	93442048	63582208	27611168	24992
913	3.208595	93442048	63582208	31748296	24992
914	3.003457	93442048	63582208	19661936	24992
915	3.040864	93442048	63582208	23785248	24992
916	2.934706	93442048	63582208	27912392	24992
917	3.136629	93442048	63582208	32043496	24992
918	2.951963	93442048	63582208	20243528	24992
919	2.936311	93442048	63582208	24382600	24992
920	3.042818	93442048	63582208	28525632	24992
921	3.051507	93442048	63582208	32695616	24992
922	3.228819	93442048	63582208	20859096	24992
923	3.004575	93442048	63582208	25035664	24992
924	3.194972	93442048	63582208	29223792	24992
925	3.059579	93442048	63582208	33399680	24992
926	3.08443	93442048	63582208	21454080	24992
927	3.073554	93442048	63582208	25663504	24992
928	2.98133	93442048	63582208	29862080	24992
929	3.864677	93442048	63582208	18114880	24992
930	2.983777	93442048	63582208	22297408	24992
931	3.091509	93442048	63582208	26483808	24992
932	3.08684	93442048	63582208	30674096	24992
933	3.632185	93442048	63582208	18821984	24992
934	3.035512	93442048	63582208	23024392	24992
935	3.095285	93442048	63582208	27230664	24992
936	3.114884	93442048	63582208	31477384	24992
937	3.730227	93442048	63582208	19572008	24992
938	3.133906	93442048	63582208	23787360	24992
939	3.111148	93442048	63582208	28005192	24992
940	3.119452	93442048	63582208	32226976	24992
941	3.150551	93442048	63582208	20558480	24992
942	3.008256	93442048	63582208	24836048	24992
943	3.315121	93442048	63582208	29069640	24992
944	3.114511	93442048	63582208	33307288	24992
945	3.018304	93442048	63582208	21431872	24992
946	3.023787	93442048	63582208	25728024	24992
947	3.046826	93442048	63582208	30027352	24992
948	4.013659	93442048	63582208	18364344	24992
949	3.049864	93442048	63582208	22662120	24992
950	3.118832	93442048	63582208	26964632	24992
951	3.183918	93442048	63582208	31229816	24992
952	3.776807	93442048	63582208	19388056	24992
953	3.256664	93442048	63582208	23661184	24992
954	3.149647	93442048	63582208	27938144	24992
955	3.342963	93442048	63582208	32225696	24992
956	3.178727	93442048	63582208	20594720	24992
957	3.163541	93442048	63582208	24895760	24992
958	3.345571	93442048	63582208	29188384	24992
959	3.072357	93442048	63582208	33489264	24992
960	3.301834	93442048	63582208	21715512	24992
961	3.083143	93442048	63582208	26046368	24992
962	3.136131	93442048	63582208	30354760	24992
963	4.347144	93442048	63582208	18766368	24992
964	3.059868	93442048	63582208	23082704	24992
965	3.331325	93442048	63582208	27420896	24992
966	3.199128	93442048	63582208	31756728	24992
967	3.912101	93442048	63582208	19884000	24992
968	3.150041	93442048	63582208	24216040	24992
969	3.151282	93442048	63582208	28553184	24992
970	3.372271	93442048	63582208	32893248	24992
971	3.130131	93442048	63582208	21321064	24992
972	3.190023	93442048	63582208	25680136	24992
973	3.31241	93442048	63582208	30091024	24992
974	3.973711	93442048	63582208	18555400	24992
975	3.130074	93442048	63582208	22922632	24992
976	3.230065	93442048	63582208	27290976	24992
977	3.143108	93442048	63582208	31681528	24992
978	4.059321	93442048	63582208	19954168	24992
979	3.236142	93442048	63582208	24329424	24992
980	3.241146	93442048	63582208	28714432	24992
981	3.18838	93442048	63582208	33097720	24992
982	3.302378	93442048	63582208	21458832	24992
983	3.488373	93442048	63582208	25850216	24992
984	3.323072	93708288	63582208	30261104	24992
985	4.073515	93708288	63582208	18792096	24992
986	3.418032	93708288	63582208	23228776	24992
987	3.134744	93708288	63582208	27652304	24992
988	3.398522	93708288	63582208	32066768	24992
989	3.946604	93708288	64106496	20244096	24992
990	3.234231	93708288	64106496	24668800	24992
991	3.447259	93708288	64106496	29091488	24992
992	3.157936	93708288	64106496	33523448	24992
993	3.44274	93708288	64106496	21854072	24992
994	3.291969	93708288	64106496	26288632	24992
995	3.289508	93708288	64106496	30727000	24992
996	4.34478	93708288	64106496	19298880	24992
997	3.242659	93708288	64106496	23745184	24992
998	3.287282	93708288	64106496	28195480	24992
999	3.298354	93708288	64106496	32677048	24992
1000	3.302742	93708288	64106496	21244032	24992
