x	Duration	RSS	HeapTotal	HeapUsed	External
0	NA	93073408	62533632	12751312	24992
1	0.30786	93073408	62533632	12803224	24992
2	0.238385	93073408	62533632	12880000	24992
3	0.141169	93073408	62533632	12994576	24992
4	0.14332	93073408	62533632	13093472	24992
5	0.145457	93073408	62533632	13196928	24992
6	0.150352	93073408	62533632	13304328	24992
7	0.162172	93073408	62533632	13415672	24992
8	0.159738	93073408	62533632	13530960	24992
9	0.165799	93073408	62533632	13650240	24992
10	0.168432	93073408	62533632	13775656	24992
11	0.174425	93073408	62533632	13906168	24992
12	0.178637	93073408	62533632	14040640	24992
13	0.183077	93073408	62533632	14179064	24992
14	0.187431	93073408	62533632	14321408	24992
15	0.193644	93073408	62533632	14468736	24992
16	0.496114	93073408	62533632	14620064	24992
17	0.217363	93073408	62533632	14775400	24992
18	0.212335	93073408	62533632	14934600	24992
19	0.233856	93073408	62533632	15099184	24992
20	0.230999	93073408	62533632	15271664	24992
21	0.225628	93073408	62533632	15444464	24992
22	0.21784	93073408	62533632	15623112	24992
23	0.218097	93073408	62533632	15803560	24992
24	0.392251	93073408	62533632	15990008	24992
25	0.22488	93073408	62533632	16182576	24992
26	0.228486	93073408	62533632	16379088	24992
27	0.232835	93073408	62533632	16579544	24992
28	0.236899	93073408	62533632	16783960	24992
29	0.237771	93073408	62533632	16992272	24992
30	0.243279	93073408	62533632	17204528	24992
31	0.248049	93073408	62533632	17420728	24992
32	0.244916	93073408	62533632	17642976	24992
33	0.199979	93073408	62533632	17869176	24992
34	0.200144	93073408	62533632	18099312	24992
35	0.205567	93073408	62533632	18333456	24992
36	0.206048	93073408	62533632	18571464	24992
37	0.211928	93073408	62533632	18813400	24992
38	0.21341	93073408	62533632	19060264	24992
39	0.218811	93073408	62533632	19310080	24992
40	0.421002	93073408	62533632	19563864	24992
41	0.23108	93073408	62533632	19821568	24992
42	0.226551	93073408	62533632	20085344	24992
43	0.22862	93073408	62533632	20353048	24992
44	0.232091	93073408	62533632	20624720	24992
45	0.235444	93073408	62533632	20902968	24992
46	0.263229	93073408	62533632	21185920	24992
47	0.449681	93073408	62533632	21472736	24992
48	0.251521	93073408	62533632	21763480	24992
49	0.250775	93073408	62533632	22058176	24992
50	0.276173	93073408	62533632	22361032	24992
51	0.256022	93073408	62533632	22672056	24992
52	0.260906	93073408	62533632	22987008	24992
53	0.262131	93073408	62533632	23305952	24992
54	0.46108	93073408	62533632	23628784	24992
55	0.271456	93073408	62533632	23955552	24992
56	0.28513	93073408	62533632	24286320	24992
57	0.27408	93073408	62533632	24621008	24992
58	0.279748	93073408	62533632	24959600	24992
59	0.277827	93073408	62533632	25302192	24992
60	0.30172	93073408	62533632	25648704	24992
61	0.284513	93073408	62533632	25999096	24992
62	0.286155	93073408	62533632	26353448	24992
63	0.518573	93073408	62533632	26711832	24992
64	0.305296	93073408	62533632	27074048	24992
65	0.338967	93073408	62533632	27441808	24992
66	0.327891	93073408	62533632	27811968	24992
67	0.32678	93073408	62533632	28186040	24992
68	0.326973	93073408	62533632	28564016	24992
69	0.330405	93073408	62533632	28945976	24992
70	1.1301	93073408	62533632	13227920	24992
71	0.31916	93073408	62533632	13617776	24992
72	0.319563	93073408	62533632	14011512	24992
73	0.318833	93073408	62533632	14409184	24992
74	0.320552	93073408	62533632	14810816	24992
75	0.325312	93073408	62533632	15216392	24992
76	0.328924	93073408	62533632	15630048	24992
77	0.33184	93073408	62533632	16047688	24992
78	0.331245	93073408	62533632	16469208	24992
79	0.333534	93073408	62533632	16894752	24992
80	0.340054	93073408	62533632	17324416	24992
81	0.600278	93073408	62533632	17758856	24992
82	0.352285	93073408	62533632	18196176	24992
83	0.350758	93073408	62533632	18637376	24992
84	0.351721	93073408	62533632	19087000	24992
85	0.359101	93073408	62533632	19541712	24992
86	0.394769	93073408	62533632	20000352	24992
87	0.363987	93073408	62533632	20462952	24992
88	0.363396	93073408	62533632	20929680	24992
89	0.371214	93073408	62533632	21400664	24992
90	0.373448	93073408	62533632	21875088	24992
91	0.374946	93073408	62533632	22353448	24992
92	0.376382	93073408	62533632	22835720	24992
93	0.383829	93073408	62533632	23321952	24992
94	0.382608	93073408	62533632	23816304	24992
95	0.40168	93073408	62533632	24314744	24992
96	0.390479	93073408	62533632	24816928	24992
97	0.388271	93073408	62533632	25323072	24992
98	0.394036	93073408	62533632	25833352	24992
99	0.397337	93073408	62533632	26347392	24992
100	0.609418	93073408	62533632	26865336	24992
101	0.410864	93073408	62533632	27387208	24992
102	0.405889	93073408	62533632	27925120	24992
103	0.411582	93073408	62533632	28471544	24992
104	0.450937	93073408	62533632	29021904	24992
105	1.017888	93073408	62533632	13401048	24992
106	0.454978	93073408	62533632	13959680	24992
107	0.456117	93073408	62533632	14521920	24992
108	0.430559	93073408	62533632	15088096	24992
109	0.432133	93073408	62533632	15658904	24992
110	0.433376	93073408	62533632	16232960	24992
111	0.435554	93073408	62533632	16810936	24992
112	0.464454	93073408	62533632	17392816	24992
113	0.441938	93073408	62533632	17978624	24992
114	0.446071	93073408	62533632	18568368	24992
115	0.448739	93073408	62533632	19163392	24992
116	0.448714	93073408	62533632	19761048	24992
117	0.451028	93073408	62533632	20362640	24992
118	0.497505	93073408	62533632	20968184	24992
119	0.494102	93073408	62533632	21577608	24992
120	0.498222	93073408	62533632	22191024	24992
121	0.50195	93073408	62533632	22808336	24992
122	0.504213	93073408	62533632	23429608	24992
123	0.51372	93073408	62533632	24054920	24992
124	0.479766	93073408	62533632	24684072	24992
125	0.480511	93073408	62533632	25317120	24992
126	0.481525	93073408	62533632	25954160	24992
127	0.493834	93073408	62533632	26595208	24992
128	0.487764	93073408	62533632	27240480	24992
129	0.490732	93073408	62533632	27889312	24992
130	0.492369	93073408	62533632	28542112	24992
131	0.495449	93073408	62533632	29198872	24992
132	0.98538	93073408	62533632	13577648	24992
133	0.537683	93073408	62533632	14242224	24992
134	0.526435	93073408	62533632	14910752	24992
135	0.51362	93073408	62533632	15583280	24992
136	0.548535	93073408	62533632	16259672	24992
137	0.559743	93073408	62533632	16940032	24992
138	0.555348	93073408	62533632	17624368	24992
139	0.558085	93073408	62533632	18318392	24992
140	0.592039	93073408	62533632	19010576	24992
141	0.567705	93073408	62533632	19706688	24992
142	0.566238	93073408	62533632	20414048	24992
143	0.570901	93073408	62533632	21127240	24992
144	0.561676	93073408	62533632	21844376	24992
145	0.542985	93073408	62533632	22565376	24992
146	0.543457	93073408	62533632	23293632	24992
147	0.54729	93073408	62533632	24027056	24992
148	0.549164	93073408	62533632	24760064	24992
149	0.551119	93073408	62533632	25496824	24992
150	0.564348	93073408	62533632	26237512	24992
151	0.559569	93073408	62533632	26982280	24992
152	0.560709	93073408	62533632	27730880	24992
153	0.577214	93073408	62533632	28483400	24992
154	0.565808	93073408	62533632	29239896	24992
155	1.04172	93073408	62533632	13702736	24992
156	0.633251	93073408	62533632	14467176	24992
157	0.617284	93073408	62533632	15235512	24992
158	0.628135	93073408	62533632	16007744	24992
159	0.590045	93073408	62533632	16783968	24992
160	0.625781	93073408	62533632	17564648	24992
161	0.631625	93073408	62533632	18348744	24992
162	0.634068	93073408	62533632	19136808	24992
163	0.633881	93073408	62533632	19937536	24992
164	0.636221	93073408	62533632	20745872	24992
165	0.639157	93073408	62533632	21553920	24992
166	0.64056	93073408	62533632	22365992	24992
167	0.645367	93073408	62533632	23181944	24992
168	0.651806	93073408	62533632	24001888	24992
169	0.651592	93073408	62533632	24825752	24992
170	0.846372	93073408	62533632	25653504	24992
171	0.621954	93073408	62533632	26485280	24992
172	0.622922	93073408	62533632	27320904	24992
173	0.677057	93073408	62533632	28160488	24992
174	0.682781	93073408	62533632	29005440	24992
175	0.698656	93073408	62533632	29855592	24992
176	0.679262	93073408	62533632	14381968	24992
177	0.675157	93073408	62533632	15237400	24992
178	0.676632	93073408	62533632	16096672	24992
179	0.643451	93073408	62533632	16961320	24992
180	0.645669	93073408	62533632	17828504	24992
181	0.654919	93073408	62533632	18699560	24992
182	0.650329	93073408	62533632	19574584	24992
183	0.651218	93073408	62533632	20453576	24992
184	0.654898	93073408	62533632	21336560	24992
185	0.655552	93073408	62533632	22223384	24992
186	0.659435	93073408	62533632	23114256	24992
187	0.667551	93073408	62533632	24008968	24992
188	0.666196	93073408	62533632	24907736	24992
189	0.678471	93073408	62533632	25816688	24992
190	0.674291	93073408	62533632	26723224	24992
191	0.720383	93073408	62533632	27633760	24992
192	0.723013	93073408	62533632	28548304	24992
193	0.729876	93073408	62533632	29466784	24992
194	1.335923	93073408	62533632	14060728	24992
195	0.701696	93073408	62533632	14987016	24992
196	0.695507	93073408	62533632	15917272	24992
197	0.743019	93073408	62533632	16851512	24992
198	0.741557	93073408	62533632	17789640	24992
199	0.743648	93073408	62533632	18741408	24992
200	0.74594	93073408	62533632	19695600	24992
201	0.763789	93073408	62533632	20653776	24992
202	0.751	93073408	62533632	21616000	24992
203	0.754016	93073408	62533632	22582024	24992
204	0.761992	93073408	62533632	23552000	24992
205	0.765804	93073408	62533632	24525920	24992
206	0.771094	93073408	62533632	25505408	24992
207	0.766944	93073408	62533632	26503680	24992
208	0.77047	93073408	62533632	27523480	24992
209	0.73634	93073408	62533632	28548552	24992
210	0.7769	93073408	62533632	29579720	24992
211	1.177955	93073408	62533632	14255712	24992
212	0.789049	93073408	62533632	15290280	24992
213	0.789819	93073408	62533632	16328776	24992
214	0.793601	93073408	62533632	17371160	24992
215	0.988412	93073408	62533632	18417504	24992
216	0.964849	93073408	62533632	19467808	24992
217	0.765463	93073408	62533632	20522000	24992
218	0.807342	93073408	62533632	21580216	24992
219	0.803023	93073408	62533632	22642416	24992
220	0.812587	93073408	62533632	23708472	24992
221	0.814814	93073408	62533632	24780896	24992
222	0.822367	93073408	62533632	25854744	24992
223	0.823325	93073408	62533632	26932536	24992
224	0.835106	93073408	62533632	28014320	24992
225	0.828509	93073408	62533632	29100032	24992
226	0.834997	93073408	62533632	30189720	24992
227	0.842847	93073408	62533632	14917728	24992
228	1.038384	93073408	62533632	16015224	24992
229	0.814125	93073408	62533632	17128736	24992
230	0.854634	93073408	62533632	18248608	24992
231	0.848131	93073408	62533632	19372336	24992
232	0.852702	93073408	62533632	20500152	24992
233	0.855837	93073408	62533632	21631720	24992
234	0.855751	93073408	62533632	22767352	24992
235	0.822734	93073408	62533632	23906856	24992
236	0.861863	93073408	62533632	25050360	24992
237	0.868591	93073408	62533632	26197688	24992
238	0.915215	93073408	62533632	27349104	24992
239	0.875594	93073408	62533632	28504504	24992
240	0.881449	93073408	62533632	29663672	24992
241	1.254299	93073408	62533632	14465824	24992
242	0.880726	93073408	62533632	15632896	24992
243	0.891166	93073408	62533632	16804888	24992
244	0.886112	93073408	62533632	17981040	24992
245	0.894997	93073408	62533632	19159984	24992
246	0.897611	93073408	62533632	20342840	24992
247	0.911809	93073408	62533632	21529560	24992
248	0.900989	93073408	62533632	22728240	24992
249	0.901841	93073408	62533632	23925576	24992
250	0.910186	93073408	62533632	25124200	24992
251	0.915208	93073408	62533632	26328456	24992
252	0.914954	93073408	62533632	27535688	24992
253	0.869444	93073408	62533632	28746040	24992
254	0.919881	93073408	62533632	29962576	24992
255	0.930776	93073408	62533632	14897672	24992
256	0.929134	93073408	62533632	16119984	24992
257	0.933179	93073408	62533632	17347568	24992
258	0.948005	93073408	62533632	18577688	24992
259	0.937263	93073408	62533632	19811736	24992
260	0.951083	93073408	62533632	21049984	24992
261	0.945098	93073408	62533632	22297192	24992
262	0.972283	93073408	62533632	23543000	24992
263	0.896576	93073408	62533632	24801672	24992
264	1.170627	93073408	62533632	26055416	24992
265	0.952871	93073408	62533632	27313848	24992
266	0.966675	93073408	62533632	28579448	24992
267	0.963481	93073408	62533632	29848128	24992
268	1.07675	93073408	62533632	14794304	24992
269	0.964564	93073408	62533632	16067760	24992
270	0.920614	93073408	62533632	17353624	24992
271	0.922748	93073408	62533632	18634944	24992
272	0.982858	93073408	62533632	19920160	24992
273	0.99276	93073408	62533632	21209312	24992
274	0.981765	93073408	62533632	22502416	24992
275	1.188835	93073408	62533632	23799512	24992
276	0.986739	93073408	62533632	25106480	24992
277	0.99363	93073408	62533632	26411520	24992
278	1.191521	93073408	62533632	27720416	24992
279	1.001062	93073408	62533632	29034752	24992
280	1.15573	93073408	62533632	30351496	24992
281	1.011536	93073408	62533632	15370744	24992
282	1.030034	93073408	62533632	16695504	24992
283	1.012569	93073408	62533632	18024104	24992
284	1.017803	93073408	62533632	19357928	24992
285	1.015756	93073408	62533632	20694408	24992
286	1.013168	93073408	62533632	22034800	24992
287	1.036355	93073408	62533632	23379112	24992
288	1.028541	93073408	62533632	24727456	24992
289	1.046821	93073408	62533632	26081320	24992
290	1.035889	93073408	62533632	27437424	24992
291	1.055543	93073408	62533632	28807760	24992
292	1.055427	93073408	62533632	30172328	24992
293	1.028643	93073408	62533632	15265128	24992
294	1.057747	93073408	62533632	16637000	24992
295	1.045742	93073408	62533632	18012824	24992
296	1.052468	93073408	62533632	19395984	24992
297	1.059714	93073408	62533632	20779744	24992
298	1.058004	93073408	62533632	22169712	24992
299	1.07653	93073408	62533632	23561328	24992
300	1.063815	93073408	62533632	24956848	24992
301	1.255554	93073408	62533632	26356336	24992
302	1.061152	93073408	62533632	27760432	24992
303	1.073297	93073408	62533632	29167904	24992
304	1.081144	93073408	62533632	30579200	24992
305	1.090611	93073408	62533632	15636000	24992
306	1.239809	93073408	62533632	17055240	24992
307	1.078865	93073408	62533632	18478344	24992
308	1.105146	93073408	62533632	19908352	24992
309	1.106089	93073408	62533632	21341488	24992
310	1.0919	93073408	62533632	22776496	24992
311	1.099197	93073408	62533632	24218328	24992
312	1.097271	93073408	62533632	25672288	24992
313	1.105906	93073408	62533632	27130488	24992
314	1.120562	93073408	62533632	28581144	24992
315	1.108853	93073408	62533632	30035832	24992
316	1.125098	93073408	62533632	15229960	24992
317	1.467744	93073408	62533632	16699680	24992
318	1.117062	93073408	62533632	18170168	24992
319	1.121144	93073408	62533632	19643656	24992
320	1.473413	93073408	62533632	21118344	24992
321	1.133119	93073408	62533632	22596632	24992
322	1.127469	93073408	62533632	24078880	24992
323	1.165073	93073408	62533632	25565016	24992
324	1.076722	93073408	62533632	27058552	24992
325	1.339571	93073408	62533632	28552560	24992
326	1.144377	93073408	62533632	30054064	24992
327	1.15174	93073408	62533632	15309016	24992
328	1.164663	93073408	62533632	16814896	24992
329	1.155239	93073408	62533632	18324760	24992
330	1.100997	93073408	62533632	19838608	24992
331	1.159771	93073408	62533632	21356360	24992
332	1.16235	93073408	62533632	22881736	24992
333	1.162389	93073408	62533632	24407328	24992
334	1.378067	93073408	62533632	25936888	24992
335	1.109621	93073408	62533632	27471584	24992
336	1.172137	93073408	62533632	29016232	24992
337	1.184377	93073408	62533632	30574576	24992
338	1.182561	93073408	62533632	15817416	24992
339	1.158302	93073408	62533632	17383040	24992
340	1.317592	93073408	62533632	18964880	24992
341	1.200055	93073408	62533632	20539560	24992
342	1.138728	93073408	62533632	22116960	24992
343	1.365099	93073408	62533632	23698392	24992
344	1.206905	93073408	62533632	25283776	24992
345	1.145472	93073408	62533632	26880480	24992
346	1.235118	93073408	62533632	28475296	24992
347	1.205384	93073408	62533632	30072488	24992
348	1.196888	93073408	62533632	15310904	24992
349	1.228741	93073408	62533632	16915968	24992
350	1.220741	93073408	62533632	18537616	24992
351	1.231005	93073408	62533632	20151904	24992
352	1.2221	93073408	62533632	21768696	24992
353	1.168905	93073408	62533632	23390096	24992
354	1.161757	93073408	62533632	25027992	24992
355	1.169979	93073408	62533632	26656696	24992
356	1.24053	93073408	62533632	28289376	24992
357	1.238562	93073408	62533632	29931928	24992
358	1.614593	93073408	62533632	15247488	24992
359	1.278785	93073408	62533632	16891976	24992
360	1.185627	93073408	62533632	18558064	24992
361	1.265125	93073408	62533632	20232752	24992
362	1.269326	93073408	62533632	21911392	24992
363	1.256741	93073408	62533632	23595464	24992
364	1.26969	93073408	62533632	25281960	24992
365	1.292991	93073408	62533632	26972344	24992
366	1.270821	93073408	62533632	28666560	24992
367	1.274975	93073408	62533632	30364840	24992
368	1.2865	93073408	62533632	15834304	24992
369	1.49329	93073408	62533632	17540320	24992
370	1.279507	93073408	62533632	19253056	24992
371	1.281174	93073408	62533632	20966976	24992
372	1.291804	93073408	62533632	22684888	24992
373	1.295973	93073408	62533632	24418848	24992
374	1.298544	93073408	62533632	26144584	24992
375	1.49771	93073408	62533632	27874320	24992
376	1.314496	93073408	62533632	29608968	24992
377	1.712012	93073408	62533632	15069056	24992
378	1.310587	93073408	62533632	16810552	24992
379	1.310196	93073408	62533632	18556000	24992
380	1.336443	93073408	62533632	20305400	24992
381	1.320737	93073408	62533632	22058832	24992
382	1.325124	93073408	62533632	23816224	24992
383	1.328298	93073408	62533632	25577488	24992
384	1.334366	93073408	62533632	27342600	24992
385	1.385958	93073408	62533632	29111840	24992
386	1.30351	93073408	62533632	30887776	24992
387	1.344601	93073408	62533632	16356680	24992
388	1.351595	93073408	62533632	18137560	24992
389	1.381909	93073408	62533632	19928584	24992
390	1.346749	93073408	62533632	21717384	24992
391	1.354099	93073408	62533632	23510072	24992
392	1.35904	93073408	62533632	25306880	24992
393	1.357455	93073408	62533632	27107504	24992
394	1.293266	93073408	62533632	28918048	24992
395	1.357314	93073408	62533632	30726544	24992
396	1.386807	93073408	62533632	16232184	24992
397	1.372222	93073408	62533632	18048472	24992
398	1.338159	93073408	62533632	19869000	24992
399	1.372036	93073408	62533632	21707544	24992
400	1.390145	93073408	62533632	23535792	24992
401	1.391147	93073408	62533632	25371000	24992
402	1.384561	93073408	62533632	27207288	24992
403	1.38645	93073408	62533632	29047272	24992
404	1.395485	93073408	62533632	30893552	24992
405	1.59548	93073408	62533632	16437576	24992
406	1.400151	93073408	62533632	18289456	24992
407	1.398143	93073408	62533632	20149200	24992
408	1.406022	93073408	62533632	22008888	24992
409	1.583996	93073408	62533632	23891984	24992
410	1.345883	93073408	62533632	25788624	24992
411	1.403209	93073408	62533632	27676664	24992
412	1.413975	93073408	62533632	29576048	24992
413	1.86463	93073408	62533632	15255944	24992
414	1.427694	93073408	62533632	17176632	24992
415	1.424969	93073408	62533632	19080344	24992
416	1.646343	93073408	62533632	20988104	24992
417	1.403695	93073408	62533632	22940992	24992
418	1.358159	93073408	62533632	24939840	24992
419	1.368674	93073408	62533632	26931544	24992
420	1.444482	93073408	62533632	28920704	24992
421	1.440724	93073408	62533632	30913896	24992
422	1.383693	93073408	62533632	16610808	24992
423	1.455095	93073408	62533632	18611896	24992
424	1.436776	93073408	62533632	20617016	24992
425	1.45172	93073408	62533632	22625944	24992
426	1.459795	93073408	62533632	24638760	24992
427	1.46838	93073408	62533632	26655632	24992
428	1.63861	93073408	62533632	28680112	24992
429	1.398222	93073408	62533632	30711888	24992
430	1.495166	93073408	62533632	16474344	24992
431	1.474715	93073408	62533632	18506880	24992
432	1.480369	93073408	62533632	20543376	24992
433	1.47991	93073408	62533632	22583832	24992
434	1.491521	93073408	62533632	24628360	24992
435	1.503975	93073408	62533632	26679448	24992
436	1.488998	93073408	62533632	28733536	24992
437	1.4926	93073408	62533632	30800000	24992
438	1.507228	93073408	62533632	16565720	24992
439	1.427743	93073408	62533632	18629848	24992
440	1.507694	93073408	62533632	20697936	24992
441	1.547021	93073408	62533632	22769912	24992
442	1.44481	93073408	62533632	24845848	24992
443	1.522979	93073408	62533632	26925712	24992
444	1.517415	93073408	62533632	29009592	24992
445	1.519898	93073408	62533632	31097424	24992
446	1.465341	93073408	62533632	16916536	24992
447	1.492752	93073408	62533632	19022456	24992
448	1.53478	93073408	62533632	21122192	24992
449	1.537	93073408	62533632	23225640	24992
450	1.541637	93073408	62533632	25333072	24992
451	1.541023	93073408	62533632	27444488	24992
452	1.54672	93073408	62533632	29559712	24992
453	2.1687	93073408	62533632	15473904	24992
454	1.548186	93073408	62533632	17597096	24992
455	1.565843	93073408	62533632	19724248	24992
456	1.581617	93073408	62533632	21855360	24992
457	1.558777	93073408	62533632	23990328	24992
458	1.559359	93073408	62533632	26129256	24992
459	1.480344	93073408	62533632	28275976	24992
460	1.565414	93073408	62533632	30439344	24992
461	1.574396	93073408	62533632	16413856	24992
462	1.579281	93073408	62533632	18608368	24992
463	1.767693	93073408	62533632	20767016	24992
464	1.554553	93073408	62533632	22929648	24992
465	1.58286	93073408	62533632	25096088	24992
466	1.584667	93073408	62533632	27273752	24992
467	1.590295	93073408	62533632	29464928	24992
468	2.026334	93073408	62533632	15444352	24992
469	1.599966	93073408	62533632	17632272	24992
470	1.585422	93073408	62533632	19818464	24992
471	1.610356	93073408	62533632	22008608	24992
472	1.613502	93073408	62533632	24216744	24992
473	1.811277	93073408	62533632	26418248	24992
474	1.619002	93073408	62533632	28620200	24992
475	1.610636	93073408	62533632	30826040	24992
476	1.664897	93073408	62533632	16807000	24992
477	1.574897	93073408	62533632	19020624	24992
478	1.625444	93073408	62533632	21245168	24992
479	1.631045	93073408	62533632	23466936	24992
480	1.571984	93073408	62533632	25692448	24992
481	1.550226	93073408	62533632	27921944	24992
482	1.600917	93073408	62533632	30155432	24992
483	2.176847	93073408	62533632	16107560	24992
484	1.656688	93073408	62533632	18348952	24992
485	1.846353	93073408	62533632	20594128	24992
486	1.616344	93073408	62533632	22846720	24992
487	1.654294	93073408	62533632	25099888	24992
488	1.573028	93073408	62533632	27356952	24992
489	1.652625	93073408	62533632	29630784	24992
490	2.057991	93073408	62533632	15708544	24992
491	1.663203	93073408	62533632	17977504	24992
492	1.587236	93073408	62533632	20252880	24992
493	1.623182	93073408	62533632	22529688	24992
494	1.639723	93073408	62533632	24810400	24992
495	1.657068	93073408	62533632	27108280	24992
496	1.705681	93073408	62533632	29396840	24992
497	2.034917	93073408	62533632	15516768	24992
498	1.692536	93073408	62533632	17828224	24992
499	1.68409	93073408	62533632	20128688	24992
500	1.696256	93073408	62533632	22451352	24992
501	1.691776	93073408	62533632	24762184	24992
502	1.699019	93073408	62533632	27075600	24992
503	1.736375	93073408	62533632	29391792	24992
504	2.146198	93073408	62533632	15538480	24992
505	1.714983	93073408	62533632	17880880	24992
506	1.633123	93073408	62533632	20208872	24992
507	1.627194	93073408	62533632	22560328	24992
508	1.712638	93073408	62533632	24896160	24992
509	1.722263	93073408	62533632	27236472	24992
510	1.655779	93073408	62533632	29600416	24992
511	2.065784	93073408	62533632	15770568	24992
512	1.913329	93073408	62533632	18126024	24992
513	1.731023	93073408	62533632	20494864	24992
514	1.883176	93073408	62533632	22854368	24992
515	1.86578	93073408	62533632	25219776	24992
516	1.753446	93073408	62533632	27596048	24992
517	1.756001	93073408	62533632	29967472	24992
518	2.121489	93073408	62533632	16085920	24992
519	1.760778	93073408	62533632	18474680	24992
520	1.756875	93073408	62533632	20869056	24992
521	1.957635	93073408	62533632	23256096	24992
522	1.766531	93073408	62533632	25650664	24992
523	1.76779	93073408	62533632	28045592	24992
524	1.956372	93073408	62533632	30447968	24992
525	2.28599	93073408	62533632	16484136	24992
526	1.786365	93073408	62533632	18906768	24992
527	1.791656	93073408	62533632	21317536	24992
528	1.795374	93073408	62533632	23738784	24992
529	1.774648	93073408	62533632	26158600	24992
530	1.982491	93073408	62533632	28581056	24992
531	1.809171	93073408	62533632	31023688	24992
532	1.81904	93073408	62533632	17251400	24992
533	1.970482	93073408	62533632	19692864	24992
534	1.810928	93073408	62533632	22133296	24992
535	1.797385	93073408	62533632	24576056	24992
536	1.817018	93073408	62533632	27022128	24992
537	1.782002	93073408	62533632	29473288	24992
538	2.248487	93073408	62533632	15773024	24992
539	1.996891	93073408	62533632	18231392	24992
540	1.789182	93073408	62533632	20695160	24992
541	1.834357	93073408	62533632	23161192	24992
542	2.00594	93073408	62533632	25645056	24992
543	1.830283	93073408	62533632	28118768	24992
544	1.835483	93073408	62533632	30603208	24992
545	1.858204	93073408	62533632	16725144	24992
546	1.835602	93073408	62533632	19223568	24992
547	1.846769	93073408	62533632	21734072	24992
548	2.019949	93073408	62533632	24228664	24992
549	1.849295	93073408	62533632	26727608	24992
550	1.852864	93073408	62533632	29228896	24992
551	2.011018	93073408	62533632	31734824	24992
552	1.889879	93073408	62533632	17911040	24992
553	1.858502	93073408	62533632	20424248	24992
554	1.766779	93073408	62533632	22962784	24992
555	1.867747	93073408	62533632	25488904	24992
556	1.876778	93073408	62533632	28041072	24992
557	1.872357	93073408	62533632	30610368	24992
558	1.887335	93073408	62533632	16836376	24992
559	1.878634	93073408	62533632	19428352	24992
560	1.788667	93073408	62533632	22012504	24992
561	1.88529	93073408	62533632	24596512	24992
562	1.890083	93073408	62533632	27180632	24992
563	1.891345	93073408	62533632	29781344	24992
564	2.32617	93073408	62533632	16184272	24992
565	2.09573	93073408	62533632	18783336	24992
566	1.861135	93073408	62533632	21382800	24992
567	1.91827	93073408	62533632	23988256	24992
568	2.082616	93073408	62533632	26594488	24992
569	1.920185	93073408	62533632	29212624	24992
570	1.924573	93073408	62533632	31826920	24992
571	1.91448	93073408	62533632	18113840	24992
572	1.918312	93073408	62533632	20753520	24992
573	1.922621	93073408	62533632	23380368	24992
574	1.880295	93073408	62533632	26016208	24992
575	1.934998	93073408	62533632	28655080	24992
576	1.891741	93073408	62533632	31292840	24992
577	1.934981	93073408	62533632	17712536	24992
578	1.953454	93073408	62533632	20358112	24992
579	1.980634	93073408	62533632	23015592	24992
580	1.955496	93073408	62533632	25669088	24992
581	1.956982	93073408	62533632	28326608	24992
582	2.077461	93073408	62533632	31013184	24992
583	1.968332	93073408	62533632	17534272	24992
584	1.95607	93073408	62533632	20206816	24992
585	1.913736	93073408	62533632	22899440	24992
586	1.967712	93073408	62533632	25580160	24992
587	1.971731	93073408	62533632	28261408	24992
588	1.98214	93073408	62533632	30948312	24992
589	1.931054	93073408	62533632	17500512	24992
590	2.153998	93073408	62533632	20193464	24992
591	1.93673	93073408	62533632	22890288	24992
592	2.001309	93073408	62533632	25591168	24992
593	1.970024	93073408	62533632	28295904	24992
594	1.981766	93073408	62533632	31004520	24992
595	2.012227	93073408	62533632	17579672	24992
596	2.00344	93073408	62533632	20299264	24992
597	2.015218	93073408	62533632	23023352	24992
598	2.20327	93073408	62533632	25749392	24992
599	1.916149	93073408	62533632	28477656	24992
600	1.989236	93073408	62533632	31210104	24992
601	2.048892	93073408	62533632	17810672	24992
602	2.017044	93073408	62533632	20550992	24992
603	1.963198	93073408	62533632	23307952	24992
604	1.922755	93073408	62533632	26055904	24992
605	1.975217	93073408	62533632	28808800	24992
606	2.054732	93073408	62533632	31572728	24992
607	2.042176	93073408	62533632	18088144	24992
608	2.04435	93073408	62533632	20857256	24992
609	2.011712	93073408	62533632	23625112	24992
610	1.979398	93073408	62533632	26396808	24992
611	1.991041	93073408	62533632	29179456	24992
612	1.958756	93073408	62533632	31974512	24992
613	2.003351	93073408	62533632	18473632	24992
614	2.25433	93073408	62533632	21261120	24992
615	2.002556	93073408	62533632	24054680	24992
616	2.175393	93073408	62533632	26850200	24992
617	2.192948	93073408	62533632	29665336	24992
618	2.538624	93073408	62533632	16344568	24992
619	2.069012	93073408	62533632	19160920	24992
620	2.068858	93073408	62533632	21972440	24992
621	2.092985	93073408	62533632	24790304	24992
622	2.128224	93073408	62533632	27633536	24992
623	2.097179	93073408	62533632	30461696	24992
624	2.451123	93073408	62533632	17051784	24992
625	2.089274	93073408	62533632	19883024	24992
626	2.090293	93073408	62533632	22717856	24992
627	2.305289	93073408	62533632	25560752	24992
628	2.069352	93073408	62533632	28403408	24992
629	2.107962	93073408	62533632	31250440	24992
630	2.068709	93073408	62533632	17980640	24992
631	2.105977	93073408	62533632	20837336	24992
632	2.107649	93073408	62533632	23699416	24992
633	2.11875	93073408	62533632	26561784	24992
634	2.126278	93073408	62533632	29431672	24992
635	2.776845	93073408	62533632	16194192	24992
636	2.126002	93073408	62533632	19083904	24992
637	2.122937	93073408	62533632	21961992	24992
638	2.138717	93073408	62533632	24844936	24992
639	2.151605	93073408	62533632	27745656	24992
640	2.333404	93073408	62533632	30641352	24992
641	2.448628	93073408	62533632	17249552	24992
642	2.139891	93073408	62533632	20149472	24992
643	2.126402	93073408	62533632	23051120	24992
644	2.150622	93073408	62533632	25964376	24992
645	2.173229	93073408	62533632	28873816	24992
646	2.150343	93073408	62533632	31787280	24992
647	2.166524	93073408	62533632	18476952	24992
648	2.078904	93073408	62533632	21398392	24992
649	2.122111	93073408	62533632	24354536	24992
650	2.33452	93073408	62533632	27293896	24992
651	2.170473	93073408	62533632	30227216	24992
652	2.54117	93073408	62533632	16935656	24992
653	2.188097	93073408	62533632	19884544	24992
654	2.194225	93073408	62533632	22857752	24992
655	2.343953	93073408	62533632	25808360	24992
656	2.193941	93073408	62533632	28761272	24992
657	2.191977	93073408	62533632	31725232	24992
658	2.156473	93073408	62533632	18483112	24992
659	2.182437	93073408	62533632	21470704	24992
660	2.114046	93073408	62533632	24443720	24992
661	2.203968	93073408	62533632	27416280	24992
662	2.205339	93073408	62533632	30392728	24992
663	2.580908	93073408	62533632	17150456	24992
664	2.233111	93073408	62533632	20159608	24992
665	2.214372	93073408	62533632	23147928	24992
666	2.311475	93073408	62533632	26152888	24992
667	2.331319	93073408	62533632	29153664	24992
668	2.231132	93073408	62533632	32153912	24992
669	2.226492	93073408	62533632	18932792	24992
670	2.247937	93073408	62533632	21957736	24992
671	2.249527	93073408	62533632	24969736	24992
672	2.24777	93073408	62533632	27987760	24992
673	2.243151	93073408	62533632	31013016	24992
674	2.471521	93073408	62533632	17963888	24992
675	2.255877	93073408	62533632	20993224	24992
676	2.255002	93073408	62533632	24048400	24992
677	2.200064	93073408	62533632	27084104	24992
678	2.263205	93073408	62533632	30123640	24992
679	2.660979	93073408	62533632	16975520	24992
680	2.267012	93073408	62533632	20028000	24992
681	2.264287	93073408	62533632	23084872	24992
682	2.242943	93073408	62533632	26161376	24992
683	2.224598	93073408	62533632	29230960	24992
684	2.263117	93073408	62533632	32311976	24992
685	2.281684	93073408	62533632	19099296	24992
686	2.330759	93073408	62533632	22198992	24992
687	2.297844	93073408	62533632	25296672	24992
688	2.193063	93073408	62533632	28394352	24992
689	2.184326	93073408	62533632	31500368	24992
690	2.208621	93073408	62533632	18513992	24992
691	2.433737	93073408	62533632	21639112	24992
692	2.301785	93073408	62533632	24753232	24992
693	2.307597	93073408	62533632	27895000	24992
694	2.316471	93073408	62533632	31018336	24992
695	2.322783	93073408	62533632	17797232	24992
696	2.215417	93073408	62533632	20926216	24992
697	2.321202	93073408	62533632	24057184	24992
698	2.517249	93073408	62533632	27191952	24992
699	2.325156	93073408	62533632	30350952	24992
700	2.71931	93073408	62533632	17285456	24992
701	2.341283	93073408	62533632	20448848	24992
702	2.33644	93073408	62533632	23604448	24992
703	2.34539	93073408	62533632	26771496	24992
704	2.297308	93073408	62533632	29930032	24992
705	2.925439	93073408	62533632	17004608	24992
706	2.345232	93073408	62533632	20170968	24992
707	2.321619	93073408	62533632	23352768	24992
708	2.520548	93073408	62533632	26527064	24992
709	2.357845	93073408	62533632	29711784	24992
710	2.849779	93073408	62533632	16823120	24992
711	2.362466	93073408	62533632	20011824	24992
712	2.242305	93073408	62533632	23226000	24992
713	2.322935	93073408	62533632	26446840	24992
714	2.516286	93073408	62533632	29644568	24992
715	2.720029	93073408	62533632	16771760	24992
716	2.577106	93073408	62533632	19977344	24992
717	2.462674	93073408	62533632	23188824	24992
718	2.379023	93073408	62533632	26404144	24992
719	2.338794	93073408	62533632	29631720	24992
720	2.827879	93073408	62533632	16781264	24992
721	2.282219	93073408	62533632	20006688	24992
722	2.434477	93073408	62533632	23237208	24992
723	2.403032	93073408	62533632	26470584	24992
724	2.404402	93073408	62533632	29707768	24992
725	2.952399	93073408	62533632	16879504	24992
726	2.397396	93073408	62533632	20125880	24992
727	2.409662	93073408	62533632	23375416	24992
728	2.555426	93073408	62533632	26631024	24992
729	2.438242	93073408	62533632	29887944	24992
730	2.78552	93073408	62533632	17083360	24992
731	2.384742	93073408	62533632	20358720	24992
732	2.804066	93073408	62533632	23635208	24992
733	2.312234	93073408	62533632	26908104	24992
734	2.560629	93073408	62533632	30191936	24992
735	3.215454	93073408	62533632	17277336	24992
736	2.640164	93073408	62533632	20566624	24992
737	2.391341	93073408	62533632	23856528	24992
738	2.407945	93073408	62533632	27182176	24992
739	2.412049	93073408	62533632	30478536	24992
740	2.843284	93073408	62533632	17579552	24992
741	2.375701	93073408	62533632	20886344	24992
742	2.412969	93073408	62533632	24206944	24992
743	2.593369	93073408	62533632	27519096	24992
744	2.46569	93073408	62533632	30851952	24992
745	2.805082	93073408	62533632	17912288	24992
746	2.404409	93073408	62533632	21236192	24992
747	2.483724	93073408	62533632	24564096	24992
748	2.48969	93073408	62533632	27895816	24992
749	2.477247	93073408	62533632	31231640	24992
750	2.499277	93073408	62533632	18512392	24992
751	2.473808	93073408	62533632	21862720	24992
752	2.359284	93073408	62533632	25238440	24992
753	2.501496	93073408	62533632	28592384	24992
754	2.609419	93073408	62533632	31953920	24992
755	2.461077	93073408	62533632	19135256	24992
756	2.651945	93073408	62533632	22501840	24992
757	2.507298	93073408	62533632	25869712	24992
758	2.52967	93073408	62533632	29240768	24992
759	2.573158	93073408	62533632	32615888	24992
760	2.660335	93073408	62533632	19758072	24992
761	2.485021	93073408	62533632	23148632	24992
762	2.519535	93073408	62533632	26535648	24992
763	2.403686	93073408	62533632	29932112	24992
764	3.034674	93073408	62533632	17279168	24992
765	2.435438	93073408	62533632	20678352	24992
766	2.426004	93073408	62533632	24097920	24992
767	2.540865	93073408	62533632	27504576	24992
768	2.547855	93073408	62533632	30923608	24992
769	2.989331	93073408	62533632	18082944	24992
770	2.435896	93073408	62533632	21508408	24992
771	2.56687	93073408	62533632	24931608	24992
772	2.55055	93073408	62533632	28374192	24992
773	2.764421	93073408	62533632	31818912	24992
774	2.699099	93073408	62533632	19221312	24992
775	2.840925	93073408	62533632	22668712	24992
776	2.453568	93073408	62533632	26110808	24992
777	2.712018	93073408	62533632	29583992	24992
778	3.048879	93073408	62533632	17040680	24992
779	2.780971	93073408	62533632	20494432	24992
780	2.457884	93073408	62533632	23957008	24992
781	2.583961	93073408	62533632	27422464	24992
782	2.582674	93073408	62533632	30912536	24992
783	3.002963	93073408	63057920	18209256	24992
784	2.600751	93073408	63057920	21688896	24992
785	2.626302	93073408	63057920	25166384	24992
786	2.655913	93073408	63057920	28665960	24992
787	2.688486	93073408	63057920	32175864	24992
788	2.776871	93073408	63057920	19515720	24992
789	2.503396	93073408	63057920	23035632	24992
790	2.65386	93073408	63057920	26539632	24992
791	2.558888	93073408	63057920	30041152	24992
792	3.095654	93073408	63057920	17552392	24992
793	2.566347	93073408	63057920	21062568	24992
794	2.592201	93073408	63057920	24579392	24992
795	2.562136	93073408	63057920	28126352	24992
796	2.611326	93073408	63057920	31647136	24992
797	2.522866	93073408	63057920	19162384	24992
798	2.622952	93073408	63057920	22691144	24992
799	2.640133	93073408	63057920	26236432	24992
800	2.648681	93073408	63057920	29775792	24992
801	3.144107	93073408	63057920	17347504	24992
802	2.543909	93073408	63057920	20891960	24992
803	2.662895	93073408	63057920	24452984	24992
804	2.608815	93073408	63057920	28041208	24992
805	2.669721	93073408	63057920	31597424	24992
806	2.619053	93073408	63057920	19147776	24992
807	2.662368	93073408	63057920	22728304	24992
808	2.614783	93073408	63057920	26326824	24992
809	2.634865	93073408	63057920	29898848	24992
810	3.23419	93073408	63057920	17469296	24992
811	2.673195	93073408	63057920	21076344	24992
812	2.568575	93073408	63057920	24688584	24992
813	2.67783	93073408	63057920	28300856	24992
814	2.631499	93073408	63057920	31913096	24992
815	2.706598	93073408	63057920	19507280	24992
816	2.572988	93073408	63057920	23112288	24992
817	2.700156	93073408	63057920	26725456	24992
818	2.700225	93073408	63057920	30338688	24992
819	3.155947	93073408	63057920	17852848	24992
820	2.702847	93073408	63057920	21486264	24992
821	2.720462	93073408	63057920	25116088	24992
822	2.711023	93073408	63057920	28741808	24992
823	2.722944	93073408	63057920	32370616	24992
824	2.666002	93343744	63057920	19878992	24992
825	2.592553	93343744	63057920	23514168	24992
826	2.679355	93343744	63057920	27153272	24992
827	2.742529	93343744	63057920	30833976	24992
828	3.086633	93343744	63057920	18331304	24992
829	2.667137	93343744	63057920	21998672	24992
830	2.734411	93343744	63057920	25692976	24992
831	2.748943	93343744	63057920	29372664	24992
832	2.752666	93343744	63057920	33099360	24992
833	2.615376	93343744	63057920	20596088	24992
834	2.748635	93343744	63057920	24299232	24992
835	2.620246	93343744	63057920	27998080	24992
836	2.743297	93343744	63057920	31692816	24992
837	2.707787	93343744	63057920	19411752	24992
838	2.860153	93343744	63057920	23147432	24992
839	2.647464	93343744	63057920	26960984	24992
840	2.650803	93343744	63057920	30737104	24992
841	3.201343	93343744	63057920	18370592	24992
842	2.787202	93343744	63057920	22155696	24992
843	2.710453	93343744	63057920	25960624	24992
844	2.717324	93343744	63057920	29752600	24992
845	3.558339	93343744	63057920	17578376	24992
846	2.784567	93343744	63057920	21400152	24992
847	3.005911	93343744	63057920	25203960	24992
848	2.796574	93343744	63057920	29017072	24992
849	2.969954	93343744	63057920	32828800	24992
850	2.744322	93343744	63057920	20556520	24992
851	2.786939	93343744	63057920	24439896	24992
852	2.791805	93343744	63057920	28315096	24992
853	2.957383	93343744	63057920	32218968	24992
854	2.705965	93343744	63057920	20148856	24992
855	2.966856	93343744	63057920	24046696	24992
856	2.828577	93343744	63057920	27937568	24992
857	2.775266	93343744	63057920	31842984	24992
858	2.781396	93343744	63057920	19797112	24992
859	2.68493	93343744	63057920	23699928	24992
860	2.717492	93343744	63057920	27648360	24992
861	2.843732	93343744	63057920	31558952	24992
862	2.724594	93343744	63057920	19205768	24992
863	2.77918	93343744	63057920	23139304	24992
864	2.843127	93343744	63057920	27091472	24992
865	2.726459	93343744	63057920	31017800	24992
866	3.369534	93343744	63057920	18818696	24992
867	2.796136	93343744	63057920	22756848	24992
868	3.067052	93343744	63057920	26720200	24992
869	2.720451	93343744	63057920	30662288	24992
870	3.515484	93343744	63057920	18473888	24992
871	2.807351	93343744	63057920	22423800	24992
872	2.897432	93343744	63057920	26377784	24992
873	2.889482	93343744	63057920	30358344	24992
874	3.614817	93343744	63057920	18285464	24992
875	2.88383	93343744	63057920	22259248	24992
876	2.741898	93343744	63057920	26244736	24992
877	2.868109	93343744	63057920	30218232	24992
878	3.537568	93614080	63057920	18244968	24992
879	2.882243	93614080	63057920	22233496	24992
880	2.852832	93614080	63057920	26258760	24992
881	2.746258	93614080	63057920	30248112	24992
882	3.677928	93614080	63057920	18292408	24992
883	3.214445	93614080	63057920	22301984	24992
884	2.896559	93614080	63057920	26330896	24992
885	3.054349	93614080	63057920	30365808	24992
886	3.716008	93614080	63057920	18370200	24992
887	2.926426	93614080	63057920	22383208	24992
888	2.865716	93614080	63057920	26431936	24992
889	2.94401	93614080	63057920	30493704	24992
890	3.459373	93614080	63057920	18444624	24992
891	2.935255	93614080	63057920	22473416	24992
892	2.948952	93614080	63057920	26508752	24992
893	2.800559	93614080	63057920	30558144	24992
894	3.748023	93614080	63057920	18538304	24992
895	2.797671	93614080	63057920	22582952	24992
896	3.09318	93614080	63057920	26631368	24992
897	2.81215	93614080	63057920	30691048	24992
898	3.517361	93614080	63057920	18633344	24992
899	3.187455	93614080	63057920	22693752	24992
900	2.880424	93614080	63057920	26758000	24992
901	3.158208	93614080	63057920	30830992	24992
902	3.439627	93614080	63057920	18777464	24992
903	2.997095	93614080	63057920	22907208	24992
904	2.973179	93614080	63057920	27035064	24992
905	3.184627	93614080	63057920	31164032	24992
906	3.599979	93614080	63057920	19165144	24992
907	2.97135	93614080	63057920	23256960	24992
908	2.979033	93614080	63057920	27352728	24992
909	2.987776	93614080	63057920	31452336	24992
910	3.5214	93614080	63057920	19374888	24992
911	2.861688	93614080	63057920	23490376	24992
912	3.120682	93614080	63057920	27619128	24992
913	3.002985	93614080	63057920	31756256	24992
914	3.026192	93614080	63057920	19669896	24992
915	3.016713	93614080	63057920	23793208	24992
916	3.003478	93614080	63057920	27920352	24992
917	3.006461	93614080	63057920	32051456	24992
918	2.901038	93614080	63057920	20251488	24992
919	3.03385	93614080	63057920	24390560	24992
920	3.025076	93614080	63057920	28533592	24992
921	3.114438	93614080	63057920	32703576	24992
922	2.948284	93614080	63057920	20867056	24992
923	2.887562	93614080	63057920	25043624	24992
924	3.039807	93614080	63057920	29231752	24992
925	2.947134	93614080	63057920	33407640	24992
926	3.029485	93614080	63057920	21462040	24992
927	2.915318	93614080	63057920	25671464	24992
928	3.157196	93614080	63057920	29870040	24992
929	3.815348	93614080	63057920	18122840	24992
930	2.991534	93614080	63057920	22305368	24992
931	2.930851	93614080	63057920	26491768	24992
932	3.049937	93614080	63057920	30682056	24992
933	3.752765	93614080	63057920	18829944	24992
934	2.920022	93614080	63057920	23032352	24992
935	3.025451	93614080	63057920	27238624	24992
936	3.068814	93614080	63057920	31485344	24992
937	3.841815	93614080	63057920	19579968	24992
938	3.220757	93614080	63057920	23795320	24992
939	3.01864	93614080	63057920	28013152	24992
940	3.087115	93614080	63057920	32234936	24992
941	3.105132	93614080	63057920	20566440	24992
942	3.262986	93614080	63057920	24844008	24992
943	3.013825	93614080	63057920	29077600	24992
944	3.194476	93614080	63057920	33315248	24992
945	3.113677	93614080	63057920	21439832	24992
946	3.099659	93614080	63057920	25735984	24992
947	3.094676	93614080	63057920	30035312	24992
948	3.894737	93614080	63057920	18372304	24992
949	3.261243	93614080	63057920	22670080	24992
950	3.077681	93614080	63057920	26972592	24992
951	3.208782	93614080	63057920	31237776	24992
952	3.758314	93614080	63057920	19396016	24992
953	3.098225	93614080	63057920	23669144	24992
954	3.303621	93614080	63057920	27946104	24992
955	3.117216	93614080	63057920	32233656	24992
956	3.016991	93614080	63057920	20602680	24992
957	3.15041	93614080	63057920	24903720	24992
958	3.141903	93614080	63057920	29196344	24992
959	3.327317	93614080	63057920	33497224	24992
960	3.111154	93614080	63057920	21723472	24992
961	3.257518	93614080	63057920	26054328	24992
962	3.063445	93614080	63057920	30362720	24992
963	3.911795	93614080	63057920	18774328	24992
964	3.196724	93614080	63057920	23090664	24992
965	3.093163	93614080	63057920	27428856	24992
966	3.314123	93614080	63057920	31764688	24992
967	3.920443	93614080	63057920	19891960	24992
968	3.179026	93614080	63057920	24224000	24992
969	3.17826	93614080	63057920	28561144	24992
970	3.188286	93614080	63057920	32901208	24992
971	3.419413	93614080	63057920	21329024	24992
972	3.187063	93614080	63057920	25688096	24992
973	3.190662	93614080	63057920	30083840	24992
974	3.967937	93614080	63057920	18548264	24992
975	3.19234	93614080	63057920	22915448	24992
976	3.408012	93614080	63057920	27283792	24992
977	3.121769	93614080	63057920	31674344	24992
978	3.777938	93614080	63057920	19947280	24992
979	3.152079	93614080	63057920	24322720	24992
980	3.070829	93614080	63057920	28707296	24992
981	3.382568	93614080	63057920	33090584	24992
982	3.219778	93614080	63057920	21451888	24992
983	3.067817	93614080	63057920	25843008	24992
984	3.221589	93614080	63057920	30239688	24992
985	3.871931	93614080	63057920	18737936	24992
986	3.378129	93614080	63057920	23165608	24992
987	3.237144	93614080	63057920	27597976	24992
988	3.088182	93614080	63057920	32020632	24992
989	3.719165	93614080	63057920	20167472	24992
990	3.240495	93614080	63057920	24591128	24992
991	3.327277	93614080	63057920	29013872	24992
992	3.239817	93614080	63057920	33447192	24992
993	3.258038	93614080	63057920	21779928	24992
994	3.249823	93614080	63057920	26214336	24992
995	3.118193	93614080	63057920	30652728	24992
996	4.220958	93614080	63057920	19239520	24992
997	3.269408	93614080	63057920	23685976	24992
998	3.109303	93614080	63057920	28136240	24992
999	3.19344	93614080	63057920	32617592	24992
1000	3.27537	93614080	63057920	21184720	24992
