x	Duration	RSS	HeapTotal	HeapUsed	External
0	NA	93208576	63057920	12748024	24992
1	0.373202	93208576	63057920	12799936	24992
2	0.285397	93208576	63057920	12876712	24992
3	0.170843	93208576	63057920	12991288	24992
4	0.17555	93208576	63057920	13090208	24992
5	0.177693	93208576	63057920	13193664	24992
6	0.184996	93208576	63057920	13301064	24992
7	0.189376	93208576	63057920	13412408	24992
8	0.197541	93208576	63057920	13527696	24992
9	0.201665	93208576	63057920	13646976	24992
10	0.204242	93208576	63057920	13772392	24992
11	0.214061	93208576	63057920	13902904	24992
12	0.149145	93208576	63057920	14037376	24992
13	0.385588	93208576	63057920	14175816	24992
14	0.16472	93208576	63057920	14318160	24992
15	0.16317	93208576	63057920	14465488	24992
16	0.164155	93208576	63057920	14616800	24992
17	0.167995	93208576	63057920	14772136	24992
18	0.171428	93208576	63057920	14931336	24992
19	0.191549	93208576	63057920	15099512	24992
20	0.2346	93208576	63057920	15269344	24992
21	0.175018	93208576	63057920	15442144	24992
22	0.183935	93208576	63057920	15618888	24992
23	0.180128	93208576	63057920	15800784	24992
24	0.182909	93208576	63057920	15987584	24992
25	0.185088	93208576	63057920	16180504	24992
26	0.189229	93208576	63057920	16377392	24992
27	0.193842	93208576	63057920	16578200	24992
28	0.208742	93208576	63057920	16783760	24992
29	0.217046	93208576	63057920	16992424	24992
30	0.238291	93208576	63057920	17205032	24992
31	0.208665	93208576	63057920	17421608	24992
32	0.20836	93208576	63057920	17644208	24992
33	0.36051	93208576	63057920	17870784	24992
34	0.221124	93208576	63057920	18101272	24992
35	0.220564	93208576	63057920	18335712	24992
36	0.244384	93208576	63057920	18576232	24992
37	0.217801	93208576	63057920	18818168	24992
38	0.250291	93208576	63057920	19064168	24992
39	0.222257	93208576	63057920	19313984	24992
40	0.223107	93208576	63057920	19567848	24992
41	0.226549	93208576	63057920	19825552	24992
42	0.228296	93208576	63057920	20089328	24992
43	0.232268	93208576	63057920	20357032	24992
44	0.236354	93208576	63057920	20628680	24992
45	0.248181	93208576	63057920	20906928	24992
46	0.243553	93208576	63057920	21189832	24992
47	0.246364	93208576	63057920	21476632	24992
48	0.24733	93208576	63057920	21767376	24992
49	0.266181	93208576	63057920	22062528	24992
50	0.25489	93208576	63057920	22365384	24992
51	0.257557	93208576	63057920	22676480	24992
52	0.263321	93208576	63057920	22991464	24992
53	0.26426	93208576	63057920	23310344	24992
54	0.269251	93208576	63057920	23634272	24992
55	0.312325	93208576	63057920	23961040	24992
56	0.275033	93208576	63057920	24291760	24992
57	0.282231	93208576	63057920	24626472	24992
58	0.281427	93208576	63057920	24965064	24992
59	0.478444	93208576	63057920	25307600	24992
60	0.288265	93208576	63057920	25654144	24992
61	0.289793	93208576	63057920	26004536	24992
62	0.321092	93208576	63057920	26358888	24992
63	0.331358	93208576	63057920	26717256	24992
64	0.350442	93208576	63057920	27081008	24992
65	0.325416	93208576	63057920	27447248	24992
66	0.328554	93208576	63057920	27817384	24992
67	0.313783	93208576	63057920	28191504	24992
68	0.307886	93208576	63057920	28569480	24992
69	0.311542	93208576	63057920	28951416	24992
70	1.071645	93208576	63057920	13233688	24992
71	0.347316	93208576	63057920	13625848	24992
72	0.346625	93208576	63057920	14020960	24992
73	0.349253	93208576	63057920	14418632	24992
74	0.353028	93208576	63057920	14820280	24992
75	0.35477	93208576	63057920	15225912	24992
76	0.336744	93208576	63057920	15639600	24992
77	0.337246	93208576	63057920	16057208	24992
78	0.338895	93208576	63057920	16478728	24992
79	0.340738	93208576	63057920	16904272	24992
80	0.344949	93208576	63057920	17333936	24992
81	0.38136	93208576	63057920	17768400	24992
82	0.355509	93208576	63057920	18205696	24992
83	0.353825	93208576	63057920	18646896	24992
84	0.357188	93208576	63057920	19096520	24992
85	0.391362	93208576	63057920	19551256	24992
86	0.389028	93208576	63057920	20010000	24992
87	0.389871	93208576	63057920	20472688	24992
88	0.400122	93208576	63057920	20939200	24992
89	0.415062	93208576	63057920	21409672	24992
90	0.40373	93208576	63057920	21884176	24992
91	0.406327	93208576	63057920	22362624	24992
92	0.409669	93208576	63057920	22844920	24992
93	0.416735	93208576	63057920	23331136	24992
94	0.420077	93208576	63057920	23825512	24992
95	0.420757	93208576	63057920	24323848	24992
96	0.421221	93208576	63057920	24826040	24992
97	0.42658	93208576	63057920	25332168	24992
98	0.435354	93208576	63057920	25842240	24992
99	0.433364	93208576	63057920	26356280	24992
100	0.699432	93208576	63057920	26874552	24992
101	0.428582	93208576	63057920	27396848	24992
102	0.643323	93208576	63057920	27931176	24992
103	0.4243	93208576	63057920	28477576	24992
104	0.422331	93208576	63057920	29027928	24992
105	1.03633	93208576	63057920	13401808	24992
106	0.432736	93208576	63057920	13962872	24992
107	0.433412	93208576	63057920	14525088	24992
108	0.433043	93208576	63057920	15091240	24992
109	0.434634	93208576	63057920	15661352	24992
110	0.438969	93208576	63057920	16235328	24992
111	0.437026	93208576	63057920	16814232	24992
112	0.444018	93208576	63057920	17396088	24992
113	0.445061	93208576	63057920	17981888	24992
114	0.490267	93208576	63057920	18571640	24992
115	0.455454	93208576	63057920	19165560	24992
116	0.456265	93208576	63057920	19763200	24992
117	0.460329	93208576	63057920	20364792	24992
118	0.463994	93208576	63057920	20970336	24992
119	0.463277	93208576	63057920	21579792	24992
120	0.500992	93208576	63057920	22193160	24992
121	0.506297	93208576	63057920	22810496	24992
122	0.507072	93208576	63057920	23431744	24992
123	0.510403	93208576	63057920	24057072	24992
124	0.516277	93208576	63057920	24686200	24992
125	0.53103	93208576	63057920	25319256	24992
126	0.522233	93208576	63057920	25956312	24992
127	0.519913	93208576	63057920	26597360	24992
128	0.527262	93208576	63057920	27242288	24992
129	0.533087	93208576	63057920	27891128	24992
130	0.531659	93208576	63057920	28543952	24992
131	0.535999	93208576	63057920	29201040	24992
132	1.042136	93208576	63057920	13575720	24992
133	0.54374	93208576	63057920	14240296	24992
134	0.545026	93208576	63057920	14908824	24992
135	0.758877	93208576	63057920	15581352	24992
136	0.515968	93208576	63057920	16257744	24992
137	0.519988	93208576	63057920	16938104	24992
138	0.531646	93208576	63057920	17622440	24992
139	0.526124	93208576	63057920	18316464	24992
140	0.525574	93208576	63057920	19008648	24992
141	0.529016	93208576	63057920	19704760	24992
142	0.53127	93208576	63057920	20412120	24992
143	0.535909	93208576	63057920	21125312	24992
144	0.545596	93208576	63057920	21842448	24992
145	0.765321	93208576	63057920	22563448	24992
146	0.547323	93208576	63057920	23291704	24992
147	0.548875	93208576	63057920	24025128	24992
148	0.560759	93208576	63057920	24758136	24992
149	0.555915	93208576	63057920	25494896	24992
150	0.555959	93208576	63057920	26235584	24992
151	0.561187	93208576	63057920	26980352	24992
152	0.562424	93208576	63057920	27728952	24992
153	0.564901	93208576	63057920	28481472	24992
154	0.569115	93208576	63057920	29237968	24992
155	1.061707	93208576	63057920	13700808	24992
156	0.585084	93208576	63057920	14465248	24992
157	0.579086	93208576	63057920	15233584	24992
158	0.581656	93208576	63057920	16005816	24992
159	0.585478	93208576	63057920	16782040	24992
160	0.587473	93208576	63057920	17562720	24992
161	0.592539	93208576	63057920	18346816	24992
162	0.590878	93208576	63057920	19134880	24992
163	0.596108	93208576	63057920	19935608	24992
164	0.629205	93208576	63057920	20743944	24992
165	0.599117	93208576	63057920	21551992	24992
166	0.602742	93208576	63057920	22364064	24992
167	0.603645	93208576	63057920	23180016	24992
168	0.613236	93208576	63057920	23999960	24992
169	0.613951	93208576	63057920	24823824	24992
170	0.615559	93208576	63057920	25651576	24992
171	0.665881	93208576	63057920	26483352	24992
172	0.66468	93208576	63057920	27318976	24992
173	0.814043	93208576	63057920	28158560	24992
174	0.699204	93208576	63057920	29006208	24992
175	0.682428	93208576	63057920	29853664	24992
176	0.681971	93208576	63057920	14380040	24992
177	0.68189	93208576	63057920	15235472	24992
178	0.685661	93208576	63057920	16094744	24992
179	0.685537	93208576	63057920	16959392	24992
180	0.891902	93208576	63057920	17826576	24992
181	0.652762	93208576	63057920	18697632	24992
182	0.654129	93208576	63057920	19572656	24992
183	0.658778	93208576	63057920	20451648	24992
184	0.658762	93208576	63057920	21334632	24992
185	0.659653	93208576	63057920	22221456	24992
186	0.665823	93208576	63057920	23112328	24992
187	0.66849	93208576	63057920	24007040	24992
188	0.861795	93208576	63057920	24905808	24992
189	0.721091	93208576	63057920	25814760	24992
190	0.722075	93208576	63057920	26721296	24992
191	0.723785	93208576	63057920	27631832	24992
192	0.72417	93208576	63057920	28546376	24992
193	0.901854	93208576	63057920	29465680	24992
194	1.126346	93208576	63057920	14058800	24992
195	0.740601	93208576	63057920	14985088	24992
196	0.74415	93208576	63057920	15915344	24992
197	0.946437	93208576	63057920	16849584	24992
198	0.749226	93208576	63057920	17787712	24992
199	0.745142	93208576	63057920	18739480	24992
200	0.753154	93208576	63057920	19693672	24992
201	0.751586	93208576	63057920	20651848	24992
202	0.754904	93208576	63057920	21614072	24992
203	0.72547	93208576	63057920	22580096	24992
204	0.72185	93208576	63057920	23550072	24992
205	0.737421	93208576	63057920	24523992	24992
206	0.729495	93208576	63057920	25503480	24992
207	0.763035	93208576	63057920	26501752	24992
208	0.779049	93208576	63057920	27521552	24992
209	0.780961	93208576	63057920	28546624	24992
210	0.978882	93208576	63057920	29577792	24992
211	1.188436	93208576	63057920	14253784	24992
212	0.800971	93208576	63057920	15288352	24992
213	0.792995	93208576	63057920	16326848	24992
214	0.803281	93208576	63057920	17369232	24992
215	0.800922	93208576	63057920	18415576	24992
216	0.804155	93208576	63057920	19465880	24992
217	0.807448	93208576	63057920	20520072	24992
218	0.810516	93208576	63057920	21578288	24992
219	0.815319	93208576	63057920	22640488	24992
220	0.796162	93208576	63057920	23706544	24992
221	0.835917	93208576	63057920	24778968	24992
222	0.823665	93208576	63057920	25852816	24992
223	1.023357	93208576	63057920	26930608	24992
224	0.828962	93208576	63057920	28012392	24992
225	0.838866	93208576	63057920	29098104	24992
226	0.834293	93208576	63057920	30187792	24992
227	0.855661	93208576	63057920	14915800	24992
228	0.844525	93208576	63057920	16013296	24992
229	0.844675	93208576	63057920	17126808	24992
230	0.826316	93208576	63057920	18246680	24992
231	0.848253	93208576	63057920	19370408	24992
232	0.855803	93208576	63057920	20498224	24992
233	0.859689	93208576	63057920	21629792	24992
234	0.85989	93208576	63057920	22765424	24992
235	0.861772	93208576	63057920	23904928	24992
236	0.869698	93208576	63057920	25048432	24992
237	0.87073	93208576	63057920	26195760	24992
238	0.883002	93208576	63057920	27347176	24992
239	0.877672	93208576	63057920	28502576	24992
240	0.886771	93208576	63057920	29661744	24992
241	1.235387	93208576	63057920	14463896	24992
242	1.101394	93208576	63057920	15630968	24992
243	0.895043	93208576	63057920	16802960	24992
244	0.892806	93208576	63057920	17979112	24992
245	0.896857	93208576	63057920	19158056	24992
246	0.905949	93208576	63057920	20340912	24992
247	0.901522	93208576	63057920	21527632	24992
248	1.088435	93208576	63057920	22726312	24992
249	0.90708	93208576	63057920	23923648	24992
250	0.915283	93208576	63057920	25122272	24992
251	0.914357	93208576	63057920	26326528	24992
252	0.922664	93208576	63057920	27533760	24992
253	0.924145	93208576	63057920	28744112	24992
254	1.075493	93208576	63057920	29960648	24992
255	0.909928	93208576	63057920	14895744	24992
256	0.935011	93208576	63057920	16118056	24992
257	0.929216	93208576	63057920	17345640	24992
258	0.940526	93208576	63057920	18575760	24992
259	0.939963	93208576	63057920	19809808	24992
260	0.899778	93208576	63057920	21048056	24992
261	0.94695	93208576	63057920	22295264	24992
262	0.949986	93208576	63057920	23541072	24992
263	1.155869	93208576	63057920	24799744	24992
264	0.934179	93208576	63057920	26053488	24992
265	1.171186	93208576	63057920	27311920	24992
266	0.963081	93208576	63057920	28577520	24992
267	0.97471	93208576	63057920	29846200	24992
268	1.069448	93208576	63057920	14792376	24992
269	0.976727	93208576	63057920	16065832	24992
270	0.980071	93208576	63057920	17351696	24992
271	0.97862	93208576	63057920	18633016	24992
272	0.989467	93208576	63057920	19918232	24992
273	0.983883	93208576	63057920	21207384	24992
274	0.9943	93208576	63057920	22500488	24992
275	0.991343	93208576	63057920	23797584	24992
276	1.225997	93208576	63057920	25104552	24992
277	1.052103	93208576	63057920	26409592	24992
278	1.053021	93208576	63057920	27718488	24992
279	1.063124	93208576	63057920	29032824	24992
280	1.073596	93208576	63057920	30349568	24992
281	1.180704	93208576	63057920	15368816	24992
282	1.015559	93208576	63057920	16693576	24992
283	0.96301	93208576	63057920	18022176	24992
284	1.01974	93208576	63057920	19356000	24992
285	1.020419	93208576	63057920	20692480	24992
286	1.229079	93208576	63057920	22032872	24992
287	1.02346	93208576	63057920	23377184	24992
288	1.050723	93208576	63057920	24725528	24992
289	1.026779	93208576	63057920	26079392	24992
290	0.98564	93208576	63057920	27435496	24992
291	1.02484	93208576	63057920	28805832	24992
292	0.98742	93208576	63057920	30170400	24992
293	1.01323	93208576	63057920	15263200	24992
294	0.990852	93208576	63057920	16635072	24992
295	1.060175	93208576	63057920	18010896	24992
296	1.057186	93208576	63057920	19394056	24992
297	1.057798	93208576	63057920	20777816	24992
298	1.058806	93208576	63057920	22167784	24992
299	1.025925	93208576	63057920	23559400	24992
300	1.080716	93208576	63057920	24954920	24992
301	1.069192	93208576	63057920	26354408	24992
302	1.075413	93208576	63057920	27758504	24992
303	1.09056	93208576	63057920	29165976	24992
304	1.076754	93208576	63057920	30577272	24992
305	1.132618	93208576	63057920	15634072	24992
306	1.087664	93208576	63057920	17053312	24992
307	1.087628	93208576	63057920	18476416	24992
308	1.11667	93208576	63057920	19906424	24992
309	1.099913	93208576	63057920	21339560	24992
310	1.096739	93208576	63057920	22774568	24992
311	1.098445	93208576	63057920	24216400	24992
312	1.107675	93208576	63057920	25670360	24992
313	1.118595	93208576	63057920	27128560	24992
314	1.11158	93208576	63057920	28579216	24992
315	1.111174	93208576	63057920	30033904	24992
316	1.321287	93208576	63057920	15228032	24992
317	1.259737	93208576	63057920	16697752	24992
318	1.124434	93208576	63057920	18168240	24992
319	1.131942	93208576	63057920	19641728	24992
320	1.130306	93208576	63057920	21116416	24992
321	1.328344	93208576	63057920	22594704	24992
322	1.13801	93208576	63057920	24076952	24992
323	1.140906	93208576	63057920	25563088	24992
324	1.148292	93208576	63057920	27056624	24992
325	1.139611	93208576	63057920	28550632	24992
326	1.143948	93208576	63057920	30052136	24992
327	1.169123	93208576	63057920	15307088	24992
328	1.185918	93208576	63057920	16814712	24992
329	1.123359	93208576	63057920	18324576	24992
330	1.398048	93208576	63057920	19838400	24992
331	1.161268	93208576	63057920	21356168	24992
332	1.164632	93208576	63057920	22881432	24992
333	1.175514	93208576	63057920	24407024	24992
334	1.170069	93208576	63057920	25936584	24992
335	1.153221	93208576	63057920	27471280	24992
336	1.177814	93208576	63057920	29015928	24992
337	1.178199	93208576	63057920	30574272	24992
338	1.192855	93208576	63057920	15817112	24992
339	1.205389	93208576	63057920	17382736	24992
340	1.189871	93208576	63057920	18964576	24992
341	1.19255	93208576	63057920	20539256	24992
342	1.20067	93208576	63057920	22116656	24992
343	1.202497	93208576	63057920	23698088	24992
344	1.384866	93208576	63057920	25283472	24992
345	1.196892	93208576	63057920	26880176	24992
346	1.205661	93208576	63057920	28474992	24992
347	1.217651	93208576	63057920	30072184	24992
348	1.414691	93208576	63057920	15310600	24992
349	1.216067	93208576	63057920	16915664	24992
350	1.222356	93208576	63057920	18537312	24992
351	1.206956	93208576	63057920	20151600	24992
352	1.228282	93208576	63057920	21768392	24992
353	1.231421	93208576	63057920	23389792	24992
354	1.239148	93208576	63057920	25027688	24992
355	1.234331	93208576	63057920	26656392	24992
356	1.241986	93208576	63057920	28289072	24992
357	1.45109	93208576	63057920	29931624	24992
358	1.606555	93208576	63057920	15247184	24992
359	1.250979	93208576	63057920	16891672	24992
360	1.25903	93208576	63057920	18557760	24992
361	1.256339	93208576	63057920	20232448	24992
362	1.263891	93208576	63057920	21911088	24992
363	1.263332	93208576	63057920	23595160	24992
364	1.274381	93208576	63057920	25281656	24992
365	1.272643	93208576	63057920	26972040	24992
366	1.27291	93208576	63057920	28666256	24992
367	1.284178	93208576	63057920	30364536	24992
368	1.299257	93208576	63057920	15834000	24992
369	1.280228	93208576	63057920	17540016	24992
370	1.229962	93208576	63057920	19252752	24992
371	1.295425	93208576	63057920	20966672	24992
372	1.293316	93208576	63057920	22684584	24992
373	1.285839	93208576	63057920	24418544	24992
374	1.458594	93208576	63057920	26144280	24992
375	1.264721	93208576	63057920	27874016	24992
376	1.304325	93208576	63057920	29608664	24992
377	1.70345	93208576	63057920	15068752	24992
378	1.327149	93208576	63057920	16810248	24992
379	1.310012	93208576	63057920	18555696	24992
380	1.316638	93208576	63057920	20305096	24992
381	1.320998	93208576	63057920	22058528	24992
382	1.525013	93208576	63057920	23815920	24992
383	1.326795	93208576	63057920	25577184	24992
384	1.328322	93208576	63057920	27342296	24992
385	1.349643	93208576	63057920	29111536	24992
386	1.527393	93208576	63057920	30887472	24992
387	1.340003	93208576	63057920	16356376	24992
388	1.337354	93208576	63057920	18137256	24992
389	1.33757	93208576	63057920	19928280	24992
390	1.533853	93208576	63057920	21717080	24992
391	1.34653	93208576	63057920	23509768	24992
392	1.349866	93208576	63057920	25306576	24992
393	1.357809	93208576	63057920	27107200	24992
394	1.558694	93208576	63057920	28917744	24992
395	1.367992	93208576	63057920	30726240	24992
396	1.374481	93208576	63057920	16231880	24992
397	1.357642	93208576	63057920	18048168	24992
398	1.393742	93208576	63057920	19868696	24992
399	1.372928	93208576	63057920	21707240	24992
400	1.378061	93208576	63057920	23535488	24992
401	1.374564	93208576	63057920	25370696	24992
402	1.569147	93208576	63057920	27206984	24992
403	1.392425	93208576	63057920	29046968	24992
404	1.378422	93208576	63057920	30893248	24992
405	1.395955	93208576	63057920	16437272	24992
406	1.391217	93208576	63057920	18289152	24992
407	1.405963	93208576	63057920	20148896	24992
408	1.411139	93208576	63057920	22008584	24992
409	1.400126	93208576	63057920	23891680	24992
410	1.41061	93208576	63057920	25788320	24992
411	1.422716	93208576	63057920	27676360	24992
412	1.423295	93208576	63057920	29575744	24992
413	1.838159	93208576	63057920	15255640	24992
414	1.387208	93208576	63057920	17176328	24992
415	1.423682	93208576	63057920	19080040	24992
416	1.426364	93208576	63057920	20987800	24992
417	1.633764	93208576	63057920	22940688	24992
418	1.428062	93208576	63057920	24939536	24992
419	1.433971	93208576	63057920	26931240	24992
420	1.380101	93208576	63057920	28920400	24992
421	1.459	93208576	63057920	30913592	24992
422	1.465048	93208576	63057920	16610504	24992
423	1.44431	93208576	63057920	18611592	24992
424	1.458035	93208576	63057920	20616712	24992
425	1.450016	93208576	63057920	22625640	24992
426	1.464623	93208576	63057920	24638456	24992
427	1.471995	93208576	63057920	26655328	24992
428	1.468283	93208576	63057920	28679808	24992
429	1.460262	93208576	63057920	30711584	24992
430	1.480368	93208576	63057920	16474040	24992
431	1.473894	93208576	63057920	18506576	24992
432	1.514722	93208576	63057920	20543072	24992
433	1.490431	93208576	63057920	22583528	24992
434	1.541592	93208576	63057920	24628056	24992
435	1.481643	93208576	63057920	26679144	24992
436	1.46557	93208576	63057920	28733232	24992
437	1.500557	93208576	63057920	30799696	24992
438	1.504739	93208576	63057920	16565416	24992
439	1.837831	93208576	63057920	18629544	24992
440	1.540895	93208576	63057920	20697632	24992
441	1.499944	93208576	63057920	22769608	24992
442	1.503406	93208576	63057920	24845544	24992
443	1.445774	93208576	63057920	26925408	24992
444	1.469636	93208576	63057920	29009288	24992
445	1.525136	93208576	63057920	31097120	24992
446	1.536793	93208576	63057920	16916232	24992
447	1.533092	93208576	63057920	19022152	24992
448	1.567724	93208576	63057920	21121888	24992
449	1.533462	93208576	63057920	23225336	24992
450	1.530206	93208576	63057920	25332768	24992
451	1.539621	93208576	63057920	27444184	24992
452	1.670384	93208576	63057920	29559408	24992
453	2.105555	93208576	63057920	15473600	24992
454	1.559202	93208576	63057920	17596792	24992
455	1.55109	93208576	63057920	19723944	24992
456	1.555572	93208576	63057920	21855056	24992
457	1.558598	93208576	63057920	23990024	24992
458	1.559472	93208576	63057920	26128952	24992
459	1.565289	93208576	63057920	28275672	24992
460	1.752846	93208576	63057920	30439040	24992
461	1.585739	93208576	63057920	16413552	24992
462	1.583247	93208576	63057920	18608064	24992
463	1.572615	93208576	63057920	20766712	24992
464	1.575804	93208576	63057920	22929344	24992
465	1.574787	93208576	63057920	25095784	24992
466	1.579764	93208576	63057920	27273448	24992
467	1.913572	93208576	63057920	29464624	24992
468	2.027775	93208576	63057920	15444048	24992
469	1.607347	93208576	63057920	17631968	24992
470	1.787102	93208576	63057920	19818160	24992
471	1.633807	93208576	63057920	22008304	24992
472	1.559407	93208576	63057920	24216440	24992
473	1.612669	93208576	63057920	26417944	24992
474	1.612629	93208576	63057920	28619896	24992
475	1.608128	93208576	63057920	30825736	24992
476	1.623755	93208576	63057920	16806696	24992
477	1.616031	93208576	63057920	19020320	24992
478	1.63077	93208576	63057920	21244864	24992
479	1.837515	93208576	63057920	23466632	24992
480	1.769725	93208576	63057920	25692144	24992
481	1.595739	93208576	63057920	27921592	24992
482	1.637753	93208576	63057920	30155128	24992
483	1.959691	93208576	63057920	16107256	24992
484	1.638416	93208576	63057920	18348648	24992
485	1.643446	93208576	63057920	20593824	24992
486	1.647668	93208576	63057920	22846416	24992
487	1.648776	93208576	63057920	25099584	24992
488	1.643739	93208576	63057920	27356648	24992
489	1.609701	93208576	63057920	29630480	24992
490	2.21508	93208576	63057920	15708240	24992
491	1.59612	93208576	63057920	17977200	24992
492	1.66804	93208576	63057920	20250952	24992
493	1.878147	93208576	63057920	22527760	24992
494	1.681891	93208576	63057920	24808472	24992
495	1.69896	93208576	63057920	27106352	24992
496	1.67621	93208576	63057920	29394912	24992
497	2.129497	93208576	63057920	15514840	24992
498	1.646808	93208576	63057920	17826296	24992
499	1.688955	93208576	63057920	20126760	24992
500	1.684452	93208576	63057920	22449424	24992
501	1.695679	93208576	63057920	24760256	24992
502	1.707912	93208576	63057920	27073672	24992
503	1.621596	93208576	63057920	29389864	24992
504	2.029656	93208576	63057920	15536552	24992
505	1.716852	93208576	63057920	17878952	24992
506	1.709934	93208576	63057920	20206944	24992
507	1.730872	93208576	63057920	22558400	24992
508	1.724091	93208576	63057920	24894232	24992
509	1.899676	93208576	63057920	27234544	24992
510	1.72834	93208576	63057920	29598488	24992
511	2.29827	93208576	63057920	15768640	24992
512	2.034113	93208576	63057920	18124096	24992
513	1.736242	93208576	63057920	20492936	24992
514	1.745506	93208576	63057920	22852440	24992
515	1.913643	93208576	63057920	25217848	24992
516	1.748909	93208576	63057920	27594120	24992
517	1.750037	93208576	63057920	29965544	24992
518	2.289002	93208576	63057920	16083992	24992
519	1.833029	93208576	63057920	18472752	24992
520	1.729118	93208576	63057920	20867128	24992
521	1.765875	93208576	63057920	23254168	24992
522	1.767551	93208576	63057920	25648736	24992
523	1.764852	93208576	63057920	28043664	24992
524	1.763476	93208576	63057920	30446040	24992
525	2.093946	93208576	63057920	16482208	24992
526	1.762302	93208576	63057920	18904840	24992
527	1.774257	93208576	63057920	21315608	24992
528	1.728608	93208576	63057920	23736856	24992
529	1.797869	93208576	63057920	26156672	24992
530	1.78005	93208576	63057920	28579128	24992
531	1.749581	93208576	63057920	31021760	24992
532	1.792253	93208576	63057920	17249472	24992
533	1.785866	93208576	63057920	19690936	24992
534	1.802708	93208576	63057920	22131368	24992
535	1.799382	93208576	63057920	24574128	24992
536	1.795593	93208576	63057920	27020200	24992
537	1.807655	93208576	63057920	29471360	24992
538	2.262321	93208576	63057920	15771096	24992
539	1.814929	93208576	63057920	18229464	24992
540	1.73794	93208576	63057920	20693232	24992
541	1.819621	93208576	63057920	23159264	24992
542	1.862033	93208576	63057920	25643128	24992
543	1.825688	93208576	63057920	28116840	24992
544	2.0215	93208576	63057920	30601280	24992
545	2.038794	93208576	63057920	16723216	24992
546	1.8476	93208576	63057920	19221640	24992
547	1.841068	93208576	63057920	21732144	24992
548	1.876553	93208576	63057920	24226736	24992
549	1.846004	93208576	63057920	26725680	24992
550	1.806614	93208576	63057920	29226968	24992
551	2.048731	93208576	63057920	31732896	24992
552	1.866196	93208576	63057920	17909112	24992
553	1.868868	93208576	63057920	20422320	24992
554	2.04308	93208576	63057920	22960856	24992
555	1.873387	93208576	63057920	25486976	24992
556	1.87619	93208576	63057920	28039144	24992
557	1.880248	93208576	63057920	30608440	24992
558	1.884846	93208576	63057920	16834448	24992
559	1.827875	93208576	63057920	19426424	24992
560	1.898016	93208576	63057920	22010576	24992
561	1.880061	93208576	63057920	24594584	24992
562	1.881939	93208576	63057920	27178704	24992
563	1.877922	93208576	63057920	29779416	24992
564	2.315365	93208576	63057920	16182344	24992
565	1.895226	93208576	63057920	18781408	24992
566	1.891602	93208576	63057920	21380872	24992
567	1.893019	93208576	63057920	23986328	24992
568	1.900109	93208576	63057920	26592560	24992
569	1.924553	93208576	63057920	29210696	24992
570	1.916006	93208576	63057920	31824992	24992
571	2.099867	93208576	63057920	18111912	24992
572	1.918376	93208576	63057920	20751592	24992
573	1.926431	93208576	63057920	23378440	24992
574	2.137194	93208576	63057920	26014280	24992
575	1.927655	93208576	63057920	28653152	24992
576	1.922729	93208576	63057920	31290912	24992
577	1.847935	93208576	63057920	17710608	24992
578	1.965583	93208576	63057920	20356184	24992
579	1.938651	93208576	63057920	23013664	24992
580	2.171445	93208576	63057920	25671648	24992
581	2.003297	93208576	63057920	28329080	24992
582	2.226307	93208576	63057920	31013120	24992
583	1.914455	93208576	63057920	17536744	24992
584	1.925131	93208576	63057920	20223536	24992
585	2.098614	93208576	63057920	22899376	24992
586	1.862831	93208576	63057920	25580096	24992
587	1.963773	93208576	63057920	28261344	24992
588	1.872479	93208576	63057920	30948248	24992
589	1.979553	93208576	63057920	17503112	24992
590	1.927751	93208576	63057920	20196064	24992
591	1.93503	93208576	63057920	22892888	24992
592	1.980403	93208576	63057920	25593768	24992
593	1.881698	93208576	63057920	28298504	24992
594	1.97559	93208576	63057920	31007120	24992
595	1.959582	93208576	63057920	17582272	24992
596	2.009737	93208576	63057920	20301864	24992
597	1.937481	93208576	63057920	23025952	24992
598	1.904492	93208576	63057920	25751992	24992
599	2.014669	93208576	63057920	28480256	24992
600	1.998596	93208576	63057920	31212704	24992
601	2.013285	93208576	63057920	17813272	24992
602	2.008059	93208576	63057920	20553592	24992
603	2.012823	93208576	63057920	23310552	24992
604	2.000649	93208576	63057920	26058504	24992
605	1.996103	93208576	63057920	28811400	24992
606	2.035594	93208576	63057920	31575328	24992
607	1.962614	93208576	63057920	18090744	24992
608	2.013588	93208576	63057920	20859856	24992
609	1.938191	93208576	63057920	23627712	24992
610	1.987016	93208576	63057920	26399408	24992
611	1.947964	93208576	63057920	29182056	24992
612	2.043677	93208576	63057920	31977112	24992
613	2.041686	93208576	63057920	18476232	24992
614	1.958075	93208576	63057920	21263720	24992
615	2.062124	93208576	63057920	24057280	24992
616	2.043173	93208576	63057920	26852800	24992
617	2.059105	93208576	63057920	29667936	24992
618	2.510324	93208576	63057920	16347168	24992
619	2.011185	93208576	63057920	19163520	24992
620	1.962563	93208576	63057920	21975040	24992
621	2.054398	93208576	63057920	24792904	24992
622	2.046128	93208576	63057920	27636136	24992
623	2.095621	93208576	63057920	30464296	24992
624	2.446414	93208576	63057920	17054384	24992
625	2.081468	93208576	63057920	19885624	24992
626	2.08122	93208576	63057920	22720456	24992
627	1.986883	93208576	63057920	25563352	24992
628	1.988842	93208576	63057920	28406008	24992
629	2.09474	93208576	63057920	31253040	24992
630	2.100262	93208576	63057920	17983240	24992
631	2.036636	93208576	63057920	20839936	24992
632	2.099977	93208576	63057920	23702016	24992
633	2.096371	93208576	63057920	26564384	24992
634	2.005728	93208576	63057920	29434272	24992
635	2.558559	93208576	63057920	16196792	24992
636	2.11252	93208576	63057920	19086504	24992
637	2.065617	93208576	63057920	21964592	24992
638	2.082835	93208576	63057920	24847536	24992
639	2.090479	93208576	63057920	27748256	24992
640	2.128533	93208576	63057920	30643952	24992
641	2.431256	93208576	63057920	17252152	24992
642	2.135147	93208576	63057920	20152072	24992
643	2.11457	93208576	63057920	23053720	24992
644	2.148692	93208576	63057920	25966976	24992
645	2.159982	93208576	63057920	28876416	24992
646	2.046813	93208576	63057920	31789880	24992
647	2.156803	93208576	63057920	18479552	24992
648	2.111768	93208576	63057920	21400992	24992
649	2.137327	93208576	63057920	24357136	24992
650	2.153406	93208576	63057920	27296496	24992
651	2.07233	93208576	63057920	30229816	24992
652	2.527454	93208576	63057920	16938256	24992
653	2.114734	93208576	63057920	19887144	24992
654	2.17138	93208576	63057920	22860352	24992
655	2.133587	93208576	63057920	25810960	24992
656	2.167236	93208576	63057920	28763872	24992
657	2.091584	93208576	63057920	31727832	24992
658	2.181189	93208576	63057920	18485712	24992
659	2.10062	93208576	63057920	21473304	24992
660	2.162203	93208576	63057920	24446320	24992
661	2.145237	93208576	63057920	27418880	24992
662	2.212361	93208576	63057920	30395328	24992
663	2.539585	93208576	63057920	17153056	24992
664	2.221627	93208576	63057920	20162208	24992
665	2.175167	93208576	63057920	23150528	24992
666	2.195564	93208576	63057920	26155488	24992
667	2.119883	93208576	63057920	29156264	24992
668	2.206369	93208576	63057920	32156512	24992
669	2.226075	93208576	63057920	18935392	24992
670	2.190964	93208576	63057920	21960336	24992
671	2.200011	93208576	63057920	24972336	24992
672	2.136894	93208576	63057920	27990360	24992
673	2.228399	93208576	63057920	31015616	24992
674	2.246854	93208576	63057920	17966488	24992
675	2.237868	93208576	63057920	20995824	24992
676	2.214484	93208576	63057920	24051000	24992
677	2.151447	93208576	63057920	27086704	24992
678	2.132887	93208576	63057920	30126240	24992
679	2.830613	93208576	63057920	16978120	24992
680	2.169735	93208576	63057920	20030600	24992
681	2.15439	93208576	63057920	23087472	24992
682	2.148022	93208576	63057920	26163976	24992
683	2.419663	93208576	63057920	29233560	24992
684	2.267584	93208576	63057920	32314576	24992
685	2.169104	93208576	63057920	19101896	24992
686	2.177249	93208576	63057920	22201592	24992
687	2.216091	93208576	63057920	25299272	24992
688	2.240638	93208576	63057920	28396952	24992
689	2.506555	93208576	63057920	31502968	24992
690	2.27984	93208576	63057920	18516592	24992
691	2.47098	93208576	63057920	21641712	24992
692	2.206082	93208576	63057920	24755832	24992
693	2.289029	93208576	63057920	27897600	24992
694	2.28419	93208576	63057920	31020936	24992
695	2.279678	93208576	63057920	17799832	24992
696	2.277885	93208576	63057920	20928816	24992
697	2.354666	93208576	63057920	24059784	24992
698	2.307368	93208576	63057920	27194552	24992
699	2.273081	93208576	63057920	30353552	24992
700	2.693434	93208576	63057920	17288056	24992
701	2.310344	93208576	63057920	20451448	24992
702	2.226469	93208576	63057920	23607048	24992
703	2.403613	93208576	63057920	26774096	24992
704	2.224836	93208576	63057920	29932632	24992
705	2.873736	93208576	63057920	17007208	24992
706	2.322946	93208576	63057920	20173568	24992
707	2.333389	93208576	63057920	23355368	24992
708	2.359743	93208576	63057920	26529664	24992
709	2.243369	93208576	63057920	29714384	24992
710	2.828477	93208576	63057920	16825720	24992
711	2.34031	93208576	63057920	20014424	24992
712	2.491954	93208576	63057920	23228600	24992
713	2.353962	93208576	63057920	26449440	24992
714	2.354825	93208576	63057920	29647168	24992
715	2.83117	93208576	63057920	16774360	24992
716	2.317231	93208576	63057920	19979944	24992
717	2.362032	93208576	63057920	23191424	24992
718	2.351135	93208576	63057920	26406744	24992
719	2.570956	93208576	63057920	29634320	24992
720	2.763996	93208576	63057920	16783864	24992
721	2.375344	93208576	63057920	20009288	24992
722	2.336342	93208576	63057920	23239808	24992
723	2.31516	93208576	63057920	26473184	24992
724	2.401367	93208576	63057920	29710368	24992
725	2.852965	93208576	63057920	16882104	24992
726	2.335953	93208576	63057920	20128480	24992
727	2.399056	93208576	63057920	23378016	24992
728	2.549722	93208576	63057920	26633624	24992
729	2.349882	93208576	63057920	29890544	24992
730	2.774475	93208576	63057920	17085960	24992
731	2.322558	93208576	63057920	20361320	24992
732	2.368699	93208576	63057920	23637808	24992
733	2.303494	93208576	63057920	26910704	24992
734	2.418474	93208576	63057920	30194536	24992
735	3.042132	93208576	63057920	17279936	24992
736	2.320892	93208576	63057920	20569224	24992
737	2.613046	93208576	63057920	23859128	24992
738	2.427077	93208576	63057920	27184776	24992
739	2.428036	93208576	63057920	30481136	24992
740	2.764667	93208576	63057920	17582152	24992
741	2.33772	93208576	63057920	20888944	24992
742	2.371655	93208576	63057920	24209544	24992
743	2.422232	93208576	63057920	27521696	24992
744	2.617622	93208576	63057920	30854552	24992
745	2.787577	93208576	63057920	17914888	24992
746	2.357182	93208576	63057920	21238792	24992
747	2.419121	93208576	63057920	24566696	24992
748	2.346583	93208576	63057920	27898416	24992
749	2.46567	93208576	63057920	31234240	24992
750	2.410591	93208576	63057920	18514992	24992
751	2.462994	93208576	63057920	21865320	24992
752	2.383506	93208576	63057920	25241040	24992
753	2.415214	93208576	63057920	28594984	24992
754	2.421141	93208576	63057920	31956520	24992
755	2.867245	93208576	63057920	19137856	24992
756	2.440695	93208576	63057920	22504440	24992
757	2.466153	93208576	63057920	25872312	24992
758	2.386106	93208576	63057920	29243368	24992
759	2.38402	93208576	63057920	32618488	24992
760	2.49554	93208576	63057920	19760672	24992
761	2.504088	93208576	63057920	23151232	24992
762	2.507699	93208576	63057920	26538248	24992
763	2.415737	93208576	63057920	29934712	24992
764	3.2472	93208576	63057920	17281768	24992
765	2.499598	93208576	63057920	20680952	24992
766	2.670245	93208576	63057920	24100520	24992
767	2.518025	93208576	63057920	27507176	24992
768	2.686193	93208576	63057920	30926208	24992
769	2.825098	93208576	63057920	18085544	24992
770	2.548697	93208576	63057920	21511008	24992
771	2.525909	93208576	63057920	24934208	24992
772	2.538097	93208576	63057920	28376792	24992
773	2.75147	93208576	63057920	31823920	24992
774	2.50674	93208576	63057920	19223912	24992
775	2.713326	93208576	63057920	22662280	24992
776	2.497181	93208576	63057920	26113408	24992
777	2.762724	93208576	63057920	29586592	24992
778	3.008318	93208576	63057920	17042696	24992
779	2.462537	93208576	63057920	20496504	24992
780	2.579811	93208576	63057920	23959608	24992
781	2.565994	93208576	63057920	27425064	24992
782	2.679368	93208576	63057920	30915136	24992
783	2.960162	93208576	63057920	18211200	24992
784	2.694838	93208576	63057920	21690840	24992
785	2.980253	93208576	63057920	25168328	24992
786	2.593592	93208576	63057920	28667904	24992
787	2.723506	93208576	63057920	32177808	24992
788	2.600327	93208576	63057920	19517664	24992
789	2.810377	93208576	63057920	23037576	24992
790	2.591851	93208576	63057920	26541576	24992
791	2.615819	93208576	63057920	30043096	24992
792	3.115181	93208576	63057920	17554336	24992
793	2.768083	93208576	63057920	21064512	24992
794	2.479262	93208576	63057920	24581336	24992
795	2.771398	93208576	63057920	28128296	24992
796	2.509933	93208576	63057920	31649080	24992
797	2.688509	93208576	63057920	19164328	24992
798	2.513903	93208576	63057920	22693088	24992
799	2.587087	93208576	63057920	26238376	24992
800	2.63841	93208576	63057920	29777736	24992
801	3.126809	93208576	63057920	17349448	24992
802	2.636539	93208576	63057920	20893904	24992
803	2.634739	93208576	63057920	24454928	24992
804	2.649388	93208576	63057920	28043152	24992
805	2.631122	93208576	63057920	31599368	24992
806	2.671503	93208576	63057920	19149720	24992
807	2.651121	93208576	63057920	22730248	24992
808	2.592438	93208576	63057920	26328768	24992
809	2.659514	93208576	63057920	29900792	24992
810	3.172034	93208576	63057920	17471240	24992
811	2.663538	93208576	63057920	21078288	24992
812	2.681912	93208576	63057920	24690528	24992
813	2.68984	93208576	63057920	28302800	24992
814	2.618649	93208576	63057920	31915040	24992
815	2.67567	93208576	63057920	19509224	24992
816	2.686266	93208576	63057920	23114232	24992
817	2.681365	93208576	63057920	26727400	24992
818	2.683831	93208576	63057920	30340632	24992
819	3.213587	93208576	63057920	17854792	24992
820	2.696284	93208576	63057920	21488208	24992
821	2.698234	93208576	63057920	25118032	24992
822	2.704292	93208576	63057920	28743752	24992
823	2.638447	93208576	63057920	32372560	24992
824	2.719866	93208576	63057920	19880936	24992
825	2.702335	93208576	63057920	23516112	24992
826	2.703677	93208576	63057920	27155216	24992
827	2.704778	93208576	63057920	30835920	24992
828	3.2101	93208576	63057920	18333248	24992
829	2.716042	93208576	63057920	22000616	24992
830	2.712961	93208576	63057920	25694920	24992
831	2.71215	93208576	63057920	29374608	24992
832	2.736896	93208576	63057920	33101304	24992
833	2.733611	93478912	63057920	20598032	24992
834	2.678666	93478912	63057920	24301176	24992
835	2.744115	93478912	63057920	28000024	24992
836	2.753512	93478912	63057920	31694760	24992
837	2.967197	93478912	63057920	19413696	24992
838	2.834054	93478912	63057920	23149376	24992
839	2.635064	93478912	63057920	26962928	24992
840	2.762451	93478912	63057920	30739048	24992
841	3.431192	93478912	63057920	18372536	24992
842	2.762642	93478912	63057920	22157640	24992
843	2.932561	93478912	63057920	25962568	24992
844	2.633784	93478912	63057920	29754544	24992
845	3.363282	93478912	63057920	17580320	24992
846	2.762986	93478912	63057920	21402096	24992
847	2.985625	93478912	63057920	25205904	24992
848	2.659172	93478912	63057920	29019016	24992
849	2.931508	93478912	63057920	32830744	24992
850	2.792498	93478912	63057920	20558464	24992
851	2.794618	93478912	63057920	24441840	24992
852	2.796908	93478912	63057920	28317040	24992
853	2.979803	93478912	63057920	32220912	24992
854	2.800591	93478912	63057920	20150800	24992
855	2.699531	93478912	63057920	24048640	24992
856	2.939356	93478912	63057920	27939512	24992
857	2.737456	93478912	63057920	31844928	24992
858	2.838102	93478912	63057920	19799056	24992
859	2.752495	93478912	63057920	23701872	24992
860	2.819935	93478912	63057920	27650304	24992
861	2.823202	93478912	63057920	31560896	24992
862	2.86251	93478912	63057920	19207712	24992
863	2.691906	93478912	63057920	23141248	24992
864	2.941792	93478912	63057920	27093416	24992
865	2.805788	93478912	63057920	31019744	24992
866	3.574375	93478912	63057920	18820640	24992
867	2.841697	93478912	63057920	22758792	24992
868	3.013848	93478912	63057920	26722144	24992
869	2.832155	93478912	63057920	30664232	24992
870	3.376236	93478912	63057920	18475832	24992
871	2.859283	93478912	63057920	22425744	24992
872	3.031228	93478912	63057920	26379728	24992
873	2.863758	93478912	63057920	30360288	24992
874	3.371755	93478912	63057920	18287408	24992
875	2.87535	93478912	63057920	22261192	24992
876	2.873614	93478912	63057920	26246680	24992
877	2.810956	93478912	63057920	30220176	24992
878	3.569861	93478912	63057920	18246912	24992
879	2.794259	93478912	63057920	22235440	24992
880	3.037702	93478912	63057920	26260704	24992
881	2.842818	93478912	63057920	30250056	24992
882	3.568211	93478912	63057920	18294352	24992
883	3.038946	93478912	63057920	22303928	24992
884	2.755245	93478912	63057920	26332840	24992
885	3.016342	93478912	63057920	30367752	24992
886	3.58248	93478912	63057920	18372144	24992
887	2.835573	93478912	63057920	22385152	24992
888	2.905351	93478912	63057920	26433880	24992
889	2.788128	93478912	63057920	30495648	24992
890	3.562664	93478912	63057920	18446568	24992
891	2.877513	93478912	63057920	22475360	24992
892	2.778431	93478912	63057920	26510696	24992
893	2.888751	93478912	63057920	30560088	24992
894	3.733749	93478912	63057920	18540248	24992
895	2.921365	93478912	63057920	22584896	24992
896	3.057445	93478912	63057920	26633312	24992
897	2.948566	93478912	63057920	30692992	24992
898	3.515687	93478912	63057920	18635288	24992
899	3.133579	93478912	63057920	22695696	24992
900	2.892523	93478912	63057920	26759944	24992
901	2.943488	93478912	63057920	30832936	24992
902	3.378219	93478912	63057920	18779408	24992
903	2.990741	93478912	63057920	22909152	24992
904	2.965195	93478912	63057920	27037008	24992
905	3.121852	93478912	63057920	31165976	24992
906	3.500118	93478912	63057920	19167088	24992
907	3.057702	93478912	63057920	23258904	24992
908	2.976433	93478912	63057920	27354672	24992
909	2.9663	93478912	63057920	31454280	24992
910	3.564885	93478912	63057920	19376832	24992
911	2.847276	93478912	63057920	23492320	24992
912	2.978608	93478912	63057920	27621072	24992
913	2.846866	93478912	63057920	31758200	24992
914	2.946318	93478912	63057920	19671840	24992
915	2.980992	93478912	63057920	23795152	24992
916	3.193152	93478912	63057920	27922296	24992
917	2.980554	93478912	63057920	32053400	24992
918	3.205855	93478912	63057920	20253432	24992
919	2.860518	93478912	63057920	24392504	24992
920	3.010749	93478912	63057920	28535536	24992
921	2.999187	93478912	63057920	32705520	24992
922	2.887872	93478912	63057920	20869000	24992
923	3.177123	93478912	63057920	25045568	24992
924	3.105752	93478912	63057920	29233696	24992
925	3.370599	93478912	63057920	33409584	24992
926	2.978911	93478912	63057920	21463984	24992
927	2.957389	93478912	63057920	25673408	24992
928	3.031527	93478912	63057920	29871984	24992
929	3.72863	93478912	63057920	18124784	24992
930	3.191889	93478912	63057920	22307312	24992
931	3.049906	93478912	63057920	26493712	24992
932	3.190316	93478912	63057920	30684000	24992
933	3.747415	93478912	63057920	18831888	24992
934	3.042416	93478912	63057920	23034296	24992
935	2.900851	93478912	63057920	27240568	24992
936	2.920315	93478912	63057920	31487288	24992
937	3.848972	93478912	63057920	19581912	24992
938	3.074151	93478912	63057920	23797264	24992
939	3.149325	93478912	63057920	28015096	24992
940	3.002048	93478912	63057920	32236880	24992
941	3.205192	93478912	63057920	20568384	24992
942	3.386792	93478912	63057920	24845952	24992
943	3.236153	93478912	63057920	29079544	24992
944	3.30499	93478912	63057920	33317192	24992
945	3.067383	93478912	63057920	21441776	24992
946	3.034957	93478912	63057920	25737928	24992
947	3.088273	93478912	63057920	30037256	24992
948	3.764328	93478912	63057920	18374248	24992
949	3.281383	93478912	63057920	22672024	24992
950	2.951245	93478912	63057920	26974536	24992
951	3.217081	93478912	63057920	31239720	24992
952	3.831867	93478912	63057920	19397960	24992
953	2.972224	93478912	63057920	23671088	24992
954	2.983615	93478912	63057920	27948048	24992
955	3.11361	93478912	63057920	32235600	24992
956	3.136602	93478912	63057920	20604624	24992
957	3.12146	93478912	63057920	24905664	24992
958	3.022393	93478912	63057920	29198288	24992
959	3.129657	93478912	63057920	33499168	24992
960	3.143129	93478912	63057920	21725416	24992
961	3.165133	93478912	63057920	26056272	24992
962	3.123874	93478912	63057920	30364664	24992
963	4.06565	93478912	63057920	18776272	24992
964	3.157307	93478912	63057920	23092608	24992
965	3.148088	93478912	63057920	27430800	24992
966	3.142152	93478912	63057920	31766632	24992
967	3.786104	93478912	63057920	19893904	24992
968	3.355149	93478912	63057920	24225944	24992
969	3.235342	93478912	63057920	28563088	24992
970	3.175392	93478912	63057920	32903152	24992
971	3.360729	93478912	63057920	21330968	24992
972	3.299981	93478912	63057920	25690040	24992
973	3.222037	93478912	63057920	30100928	24992
974	4.045932	93478912	63057920	18565304	24992
975	3.184269	93478912	63057920	22932536	24992
976	3.193238	93478912	63057920	27300880	24992
977	3.190164	93478912	63057920	31691432	24992
978	4.066301	93478912	63057920	19964072	24992
979	3.195747	93478912	63057920	24339328	24992
980	3.222309	93478912	63057920	28724336	24992
981	3.103629	93478912	63057920	33107624	24992
982	3.225318	93478912	63057920	21468736	24992
983	3.337953	93478912	63057920	25861080	24992
984	3.187683	93478912	63057920	30272312	24992
985	3.9707	93478912	63057920	18803304	24992
986	3.420898	93478912	63057920	23239984	24992
987	3.220027	93478912	63057920	27663512	24992
988	3.242019	93478912	63057920	32077976	24992
989	4.303894	93478912	63582208	20255304	24992
990	3.218169	93478912	63582208	24680008	24992
991	3.341717	93478912	63582208	29102696	24992
992	3.077799	93478912	63582208	33534656	24992
993	3.235041	93478912	63582208	21865280	24992
994	3.079404	93478912	63582208	26299840	24992
995	3.228229	93478912	63582208	30738208	24992
996	4.197739	93478912	63582208	19310088	24992
997	3.254087	93478912	63582208	23756392	24992
998	3.099393	93478912	63582208	28206688	24992
999	3.24199	93478912	63582208	32688256	24992
1000	3.266932	93478912	63582208	21255240	24992
