x	Duration	RSS	HeapTotal	HeapUsed	External
0	NA	93913088	63582208	12742672	24992
1	0.338942	93913088	63582208	12794584	24992
2	0.284536	93913088	63582208	12871360	24992
3	0.17399	93913088	63582208	12985936	24992
4	0.173857	93913088	63582208	13084832	24992
5	0.178016	93913088	63582208	13188288	24992
6	0.186113	93913088	63582208	13295744	24992
7	0.201409	93913088	63582208	13407088	24992
8	0.194282	93913088	63582208	13522376	24992
9	0.198599	93913088	63582208	13641608	24992
10	0.204241	93913088	63582208	13767024	24992
11	0.210833	93913088	63582208	13897600	24992
12	0.215081	93913088	63582208	14032072	24992
13	0.540041	93913088	63582208	14170488	24992
14	0.2394	93913088	63582208	14312848	24992
15	0.239276	93913088	63582208	14460176	24992
16	0.241396	93913088	63582208	14611488	24992
17	0.245833	93913088	63582208	14766744	24992
18	0.252875	93913088	63582208	14929544	24992
19	0.247381	93913088	63582208	15094128	24992
20	0.254874	93913088	63582208	15263000	24992
21	0.285262	93913088	63582208	15435840	24992
22	0.274581	93913088	63582208	15612584	24992
23	0.268291	93913088	63582208	15793264	24992
24	0.274072	93913088	63582208	15980080	24992
25	0.276771	93913088	63582208	16173000	24992
26	0.280676	93913088	63582208	16369864	24992
27	0.393946	93913088	63582208	16570680	24992
28	0.64353	93913088	63582208	16776360	24992
29	0.212796	93913088	63582208	16985024	24992
30	0.350694	93913088	63582208	17197648	24992
31	0.219212	93913088	63582208	17414192	24992
32	0.221485	93913088	63582208	17639072	24992
33	0.213229	93913088	63582208	17865264	24992
34	0.217799	93913088	63582208	18096216	24992
35	0.218449	93913088	63582208	18330296	24992
36	0.245885	93913088	63582208	18568304	24992
37	0.222774	93913088	63582208	18810240	24992
38	0.226971	93913088	63582208	19057472	24992
39	0.250428	93913088	63582208	19307288	24992
40	0.250462	93913088	63582208	19561128	24992
41	0.444478	93913088	63582208	19818832	24992
42	0.449284	93913088	63582208	20082600	24992
43	0.250711	93913088	63582208	20350304	24992
44	0.267422	93913088	63582208	20622984	24992
45	0.269733	93913088	63582208	20901232	24992
46	0.273675	93913088	63582208	21184184	24992
47	0.276441	93913088	63582208	21470984	24992
48	0.279675	93913088	63582208	21762712	24992
49	0.297591	93913088	63582208	22057400	24992
50	0.283288	93913088	63582208	22360344	24992
51	0.270572	93913088	63582208	22671448	24992
52	0.269925	93913088	63582208	22986400	24992
53	0.273503	93913088	63582208	23305288	24992
54	0.274874	93913088	63582208	23628112	24992
55	0.286428	93913088	63582208	23954944	24992
56	0.28233	93913088	63582208	24285712	24992
57	0.28384	93913088	63582208	24620360	24992
58	0.28703	93913088	63582208	24958960	24992
59	0.292283	93913088	63582208	25301504	24992
60	0.293871	93913088	63582208	25647968	24992
61	0.294633	93913088	63582208	25998392	24992
62	0.301749	93913088	63582208	26353072	24992
63	0.319813	93913088	63582208	26711368	24992
64	0.333714	93913088	63582208	27075248	24992
65	0.310742	93913088	63582208	27441440	24992
66	0.312255	93913088	63582208	27811544	24992
67	0.511	93913088	63582208	28185592	24992
68	0.317621	93913088	63582208	28563568	24992
69	0.318489	93913088	63582208	28945488	24992
70	0.324941	93913088	63582208	29331336	24992
71	0.361453	93913088	63582208	13433696	24992
72	0.355117	93913088	63582208	13827424	24992
73	0.359329	93913088	63582208	14225136	24992
74	0.358213	93913088	63582208	14626752	24992
75	0.363627	93913088	63582208	15032424	24992
76	0.36582	93913088	63582208	15446072	24992
77	0.370711	93913088	63582208	15863664	24992
78	0.372977	93913088	63582208	16285240	24992
79	0.377155	93913088	63582208	16710880	24992
80	0.380122	93913088	63582208	17140536	24992
81	0.603368	93913088	63582208	17577608	24992
82	0.366823	93913088	63582208	18014816	24992
83	0.365856	93913088	63582208	18455976	24992
84	0.366836	93913088	63582208	18905712	24992
85	0.374097	93913088	63582208	19361336	24992
86	0.381099	93913088	63582208	19819976	24992
87	0.374776	93913088	63582208	20282600	24992
88	0.378631	93913088	63582208	20749248	24992
89	0.381823	93913088	63582208	21219776	24992
90	0.383122	93913088	63582208	21694176	24992
91	0.387324	93913088	63582208	22173000	24992
92	0.390984	93913088	63582208	22655280	24992
93	0.39447	93913088	63582208	23141496	24992
94	0.395353	93913088	63582208	23636840	24992
95	0.401666	93913088	63582208	24135112	24992
96	0.406686	93913088	63582208	24637344	24992
97	0.408556	93913088	63582208	25143480	24992
98	0.407159	93913088	63582208	25653640	24992
99	0.408717	93913088	63582208	26167720	24992
100	0.414531	93913088	63582208	26685712	24992
101	0.418797	93913088	63582208	27207584	24992
102	0.42033	93913088	63582208	27741736	24992
103	0.423392	93913088	63582208	28288208	24992
104	0.441607	93913088	63582208	28838552	24992
105	0.428503	93913088	63582208	29392832	24992
106	0.474405	93913088	63582208	13758600	24992
107	0.47284	93913088	63582208	14320784	24992
108	0.448853	93913088	63582208	14886968	24992
109	0.445581	93913088	63582208	15457008	24992
110	0.446461	93913088	63582208	16031064	24992
111	0.45089	93913088	63582208	16609040	24992
112	0.450768	93913088	63582208	17190912	24992
113	0.455192	93913088	63582208	17776760	24992
114	0.457729	93913088	63582208	18366584	24992
115	0.458528	93913088	63582208	18960288	24992
116	0.486741	93913088	63582208	19557928	24992
117	0.500555	93913088	63582208	20159720	24992
118	0.477109	93913088	63582208	20767944	24992
119	0.668737	93913088	63582208	21377752	24992
120	0.478735	93913088	63582208	21991224	24992
121	0.48318	93913088	63582208	22608616	24992
122	0.481101	93913088	63582208	23229864	24992
123	0.492586	93913088	63582208	23855064	24992
124	0.488591	93913088	63582208	24484216	24992
125	0.487833	93913088	63582208	25117304	24992
126	0.490495	93913088	63582208	25754320	24992
127	0.496471	93913088	63582208	26395288	24992
128	0.536326	93913088	63582208	27040248	24992
129	0.539748	93913088	63582208	27689192	24992
130	0.736474	93913088	63582208	28342016	24992
131	0.512761	93913088	63582208	28998728	24992
132	0.544948	93913088	63582208	29659384	24992
133	0.564892	93913088	63582208	14028752	24992
134	0.556031	93913088	63582208	14697352	24992
135	0.55464	93913088	63582208	15369840	24992
136	0.563367	93913088	63582208	16046288	24992
137	0.561755	93913088	63582208	16726760	24992
138	0.561825	93913088	63582208	17411056	24992
139	0.568139	93913088	63582208	18099352	24992
140	0.544035	93913088	63582208	18791560	24992
141	0.538754	93913088	63582208	19487672	24992
142	0.543607	93913088	63582208	20196368	24992
143	0.588693	93913088	63582208	20912608	24992
144	0.588235	93913088	63582208	21629712	24992
145	0.588093	93913088	63582208	22350760	24992
146	0.599739	93913088	63582208	23075712	24992
147	0.59308	93913088	63582208	23808248	24992
148	0.598935	93913088	63582208	24542672	24992
149	0.796878	93913088	63582208	25279440	24992
150	0.570563	93913088	63582208	26020176	24992
151	0.573731	93913088	63582208	26764856	24992
152	0.614904	93913088	63582208	27513480	24992
153	0.57285	93913088	63582208	28266024	24992
154	0.581453	93913088	63582208	29022592	24992
155	0.587967	93913088	63582208	29783096	24992
156	0.595249	93913088	63582208	14231760	24992
157	0.590844	93913088	63582208	15000104	24992
158	0.815719	93913088	63582208	15772368	24992
159	0.596922	93913088	63582208	16548552	24992
160	0.599026	93913088	63582208	17328672	24992
161	0.609925	93913088	63582208	18112832	24992
162	0.603239	93913088	63582208	18900808	24992
163	0.608739	93913088	63582208	19705360	24992
164	0.829862	93913088	63582208	20509456	24992
165	0.611907	93913088	63582208	21317528	24992
166	0.614135	93913088	63582208	22129616	24992
167	0.850859	93913088	63582208	22945656	24992
168	0.619301	93913088	63582208	23765528	24992
169	0.626458	93913088	63582208	24589408	24992
170	0.630026	93913088	63582208	25417488	24992
171	0.630239	93913088	63582208	26250568	24992
172	0.676326	93913088	63582208	27086232	24992
173	0.67942	93913088	63582208	27925800	24992
174	0.684978	93913088	63582208	28769280	24992
175	0.87248	93913088	63582208	29616800	24992
176	0.69791	93913088	63582208	14176912	24992
177	0.690776	93913088	63582208	15032216	24992
178	0.690853	93913088	63582208	15891512	24992
179	0.696373	93913088	63582208	16756840	24992
180	0.707428	93913088	63582208	17623976	24992
181	0.702959	93913088	63582208	18495072	24992
182	0.703771	93913088	63582208	19370096	24992
183	0.693853	93913088	63582208	20249104	24992
184	0.673804	93913088	63582208	21132016	24992
185	0.680399	93913088	63582208	22018856	24992
186	0.697122	93913088	63582208	22909784	24992
187	0.679155	93913088	63582208	23806888	24992
188	0.736777	93913088	63582208	24705592	24992
189	0.683617	93913088	63582208	25612112	24992
190	0.691628	93913088	63582208	26518688	24992
191	0.736752	93913088	63582208	27432760	24992
192	0.719039	93913088	63582208	28347232	24992
193	1.064375	93913088	63582208	29266520	24992
194	1.196872	93913088	63582208	13897712	24992
195	0.776387	93913088	63582208	14826688	24992
196	0.712013	93913088	63582208	15756928	24992
197	0.706463	93913088	63582208	16691080	24992
198	0.715347	93913088	63582208	17630056	24992
199	0.760278	93913088	63582208	18580376	24992
200	0.764213	93913088	63582208	19534632	24992
201	0.723253	93913088	63582208	20492776	24992
202	0.724959	93913088	63582208	21454928	24992
203	0.727346	93913088	63582208	22421032	24992
204	0.727651	93913088	63582208	23395224	24992
205	0.974889	93913088	63582208	24369080	24992
206	0.740046	93913088	63582208	25346944	24992
207	0.75049	93913088	63582208	26345304	24992
208	0.793769	93913088	63582208	27364160	24992
209	0.809536	93913088	63582208	28386904	24992
210	0.751267	93913088	63582208	29413608	24992
211	1.211562	93913088	63582208	14113488	24992
212	0.822937	93913088	63582208	15148000	24992
213	0.804991	93913088	63582208	16186424	24992
214	0.821826	93913088	63582208	17228864	24992
215	0.810865	93913088	63582208	18275152	24992
216	0.856563	93913088	63582208	19331592	24992
217	0.817808	93913088	63582208	20385880	24992
218	0.82416	93913088	63582208	21445096	24992
219	0.820266	93913088	63582208	22515416	24992
220	0.820126	93913088	63582208	23581480	24992
221	0.831797	93913088	63582208	24651408	24992
222	0.834769	93913088	63582208	25725264	24992
223	0.837355	93913088	63582208	26803136	24992
224	0.84048	93913088	63582208	27885248	24992
225	1.045479	93913088	63582208	28977360	24992
226	0.849067	93913088	63582208	30067152	24992
227	0.854146	93913088	63582208	14829736	24992
228	0.861483	93913088	63582208	15927296	24992
229	0.852715	93913088	63582208	17040280	24992
230	0.861262	93913088	63582208	18160960	24992
231	1.065992	93913088	63582208	19284744	24992
232	0.868398	93913088	63582208	20412400	24992
233	0.877802	93913088	63582208	21544040	24992
234	0.876093	93913088	63582208	22679680	24992
235	0.887889	93913088	63582208	23828416	24992
236	0.879836	93913088	63582208	24972784	24992
237	0.870697	93913088	63582208	26120152	24992
238	0.885598	93913088	63582208	27273448	24992
239	0.890839	93913088	63582208	28428720	24992
240	1.103373	93913088	63582208	29587984	24992
241	1.290139	93913088	63582208	14420088	24992
242	0.902161	93913088	63582208	15587160	24992
243	1.092621	93913088	63582208	16758224	24992
244	0.903645	93913088	63582208	17933160	24992
245	0.86855	93913088	63582208	19114584	24992
246	0.921604	93913088	63582208	20299712	24992
247	0.871006	93913088	63582208	21486512	24992
248	0.862339	93913088	63582208	22677400	24992
249	0.89124	93913088	63582208	23872056	24992
250	0.925219	93913088	63582208	25073024	24992
251	0.913331	93913088	63582208	26275824	24992
252	0.918296	93913088	63582208	27482344	24992
253	0.94166	93913088	63582208	28693376	24992
254	0.939479	93913088	63582208	29907752	24992
255	0.980009	93913088	63582208	14842848	24992
256	0.948149	93913088	63582208	16067200	24992
257	0.952083	93913088	63582208	17293408	24992
258	0.950044	93913088	63582208	18524736	24992
259	0.954862	93913088	63582208	19763544	24992
260	0.955569	93913088	63582208	21001496	24992
261	0.984077	93913088	63582208	22243392	24992
262	0.964029	93913088	63582208	23489400	24992
263	0.969989	93913088	63582208	24739248	24992
264	0.979543	93913088	63582208	25995592	24992
265	0.970076	93913088	63582208	27254696	24992
266	1.00453	93913088	63582208	28518936	24992
267	0.970306	93913088	63582208	29784464	24992
268	1.392733	93913088	63582208	14719072	24992
269	0.991548	93913088	63582208	15992488	24992
270	1.165043	93913088	63582208	17277408	24992
271	0.988613	93913088	63582208	18559752	24992
272	0.948301	93913088	63582208	19845096	24992
273	1.005177	93913088	63582208	21134832	24992
274	1.004165	93913088	63582208	22427992	24992
275	1.003271	93913088	63582208	23727280	24992
276	1.006802	93913088	63582208	25028416	24992
277	1.200977	93913088	63582208	26333296	24992
278	0.959985	93913088	63582208	27646760	24992
279	1.036658	93913088	63582208	28959584	24992
280	1.036393	93913088	63582208	30279928	24992
281	1.033013	93913088	63582208	15321408	24992
282	1.218992	93913088	63582208	16646000	24992
283	0.970153	93913088	63582208	17985568	24992
284	1.038397	93913088	63582208	19325904	24992
285	1.035377	93913088	63582208	20662384	24992
286	1.040042	93913088	63582208	22003904	24992
287	1.04504	93913088	63582208	23352384	24992
288	1.042581	93913088	63582208	24704072	24992
289	1.055645	93913088	63582208	26057824	24992
290	1.045315	93913088	63582208	27414792	24992
291	1.061325	93913088	63582208	28774880	24992
292	1.084264	93913088	63582208	30138944	24992
293	1.06314	93913088	63582208	15234024	24992
294	1.075535	93913088	63582208	16606016	24992
295	1.067157	93913088	63582208	17981808	24992
296	1.080972	93913088	63582208	19361696	24992
297	1.240166	93913088	63582208	20745456	24992
298	1.070864	93913088	63582208	22133160	24992
299	1.085426	93913088	63582208	23524784	24992
300	1.080488	93913088	63582208	24920304	24992
301	1.085577	93913088	63582208	26323360	24992
302	1.08337	93913088	63582208	27726824	24992
303	1.094336	93913088	63582208	29137752	24992
304	1.103709	93913088	63582208	30549112	24992
305	1.096632	93913088	63582208	15638216	24992
306	1.112488	93913088	63582208	17057456	24992
307	1.104308	93913088	63582208	18480656	24992
308	1.064615	93913088	63582208	19912240	24992
309	1.105248	93913088	63582208	21345376	24992
310	1.115622	93913088	63582208	22782728	24992
311	1.114415	93913088	63582208	24224528	24992
312	1.117933	93913088	63582208	25667336	24992
313	1.068582	93913088	63582208	27114184	24992
314	1.312832	93913088	63582208	28564968	24992
315	1.124838	93913088	63582208	30020984	24992
316	1.091711	93913088	63582208	15101408	24992
317	1.32633	93913088	63582208	16565344	24992
318	1.138839	93913088	63582208	18033056	24992
319	1.083306	93913088	63582208	19503520	24992
320	1.176901	93913088	63582208	20977816	24992
321	1.15032	93913088	63582208	22456072	24992
322	1.10924	93913088	63582208	23938272	24992
323	1.092052	93913088	63582208	25432216	24992
324	1.159691	93913088	63582208	26922328	24992
325	1.164626	93913088	63582208	28416504	24992
326	1.156597	93913088	63582208	29917480	24992
327	1.483323	93913088	63582208	15068296	24992
328	1.189727	93913088	63582208	16574216	24992
329	1.173127	93913088	63582208	18085824	24992
330	1.167855	93913088	63582208	19599568	24992
331	1.19867	93913088	63582208	21121528	24992
332	1.194844	93913088	63582208	22643088	24992
333	1.187713	93913088	63582208	24168640	24992
334	1.377431	93913088	63582208	25698144	24992
335	1.192487	93913088	63582208	27231600	24992
336	1.19564	93913088	63582208	28769048	24992
337	1.217591	93913088	63582208	30326832	24992
338	1.210809	93913088	63582208	15644800	24992
339	1.220905	93913088	63582208	17211256	24992
340	1.380119	93913088	63582208	18786016	24992
341	1.206252	93913088	63582208	20359544	24992
342	1.213839	93913088	63582208	21939160	24992
343	1.218197	93913088	63582208	23520592	24992
344	1.215994	93913088	63582208	25105912	24992
345	1.218207	93913088	63582208	26695240	24992
346	1.199978	93913088	63582208	28288528	24992
347	1.229483	93913088	63582208	29885744	24992
348	1.555021	93913088	63582208	15170448	24992
349	1.191714	93913088	63582208	16777072	24992
350	1.251851	93913088	63582208	18386504	24992
351	1.239089	93913088	63582208	19999424	24992
352	1.2469	93913088	63582208	21616296	24992
353	1.444846	93913088	63582208	23237392	24992
354	1.257494	93913088	63582208	24862096	24992
355	1.252611	93913088	63582208	26496568	24992
356	1.264057	93913088	63582208	28130664	24992
357	1.283112	93913088	63582208	29767256	24992
358	1.618891	93913088	63582208	15096984	24992
359	1.271421	93913088	63582208	16743448	24992
360	1.272959	93913088	63582208	18414384	24992
361	1.274999	93913088	63582208	20088984	24992
362	1.245147	93913088	63582208	21768384	24992
363	1.290789	93913088	63582208	23467208	24992
364	1.280165	93913088	63582208	25153760	24992
365	1.284727	93913088	63582208	26844064	24992
366	1.458558	93913088	63582208	28538328	24992
367	1.292663	93913088	63582208	30236560	24992
368	1.332858	93913088	63582208	15697864	24992
369	1.288441	93913088	63582208	17404632	24992
370	1.320571	93913088	63582208	19114616	24992
371	1.304528	93913088	63582208	20829536	24992
372	1.309172	93913088	63582208	22547440	24992
373	1.31297	93913088	63582208	24269360	24992
374	1.495967	93913088	63582208	25999744	24992
375	1.279874	93913088	63582208	27741264	24992
376	1.252702	93913088	63582208	29475016	24992
377	1.767776	93913088	63582208	14977536	24992
378	1.521246	93913088	63582208	16719144	24992
379	1.316253	93913088	63582208	18464640	24992
380	1.34023	93913088	63582208	20214104	24992
381	1.351922	93913088	63582208	21967680	24992
382	1.306899	93913088	63582208	23728272	24992
383	1.340996	93913088	63582208	25489480	24992
384	1.276621	93913088	63582208	27254600	24992
385	1.343835	93913088	63582208	29023656	24992
386	1.350066	93913088	63582208	30796680	24992
387	1.354604	94183424	63582208	16265584	24992
388	1.355873	94183424	63582208	18049896	24992
389	1.580369	94183424	63582208	19834768	24992
390	1.295051	94183424	63582208	21624136	24992
391	1.364589	94183424	63582208	23416872	24992
392	1.364793	94183424	63582208	25222112	24992
393	1.379749	94183424	63582208	27022776	24992
394	1.369288	94183424	63582208	28841624	24992
395	1.381753	94183424	63582208	30650192	24992
396	1.38344	94183424	63582208	16177600	24992
397	1.390224	94183424	63582208	17993992	24992
398	1.412603	94183424	63582208	19814360	24992
399	1.321567	94183424	63582208	21651744	24992
400	1.398605	94183424	63582208	23479960	24992
401	1.394986	94183424	63582208	25312320	24992
402	1.437344	94183424	63582208	27148520	24992
403	1.399603	94183424	63582208	28997168	24992
404	1.415003	94183424	63582208	30841120	24992
405	1.407642	94183424	63582208	16385176	24992
406	1.605216	94183424	63582208	18236896	24992
407	1.405518	94183424	63582208	20101768	24992
408	1.419608	94183424	63582208	21961464	24992
409	1.422077	94183424	63582208	23860856	24992
410	1.612356	94183424	63582208	25745864	24992
411	1.437202	94183424	63582208	27633872	24992
412	1.425147	94183424	63582208	29541824	24992
413	1.809991	94183424	63582208	15215288	24992
414	1.434442	94183424	63582208	17117624	24992
415	1.609241	94183424	63582208	19021456	24992
416	1.458172	94183424	63582208	20929192	24992
417	1.442715	94183424	63582208	22893752	24992
418	1.457078	94183424	63582208	24884448	24992
419	1.452437	94183424	63582208	26869760	24992
420	1.45921	94183424	63582208	28859120	24992
421	1.64542	94183424	63582208	30852192	24992
422	1.482225	94183424	63582208	16549208	24992
423	1.468267	94183424	63582208	18550408	24992
424	1.473518	94183424	63582208	20555528	24992
425	1.47388	94183424	63582208	22564456	24992
426	1.486595	94183424	63582208	24578848	24992
427	1.494284	94183424	63582208	26596352	24992
428	1.476764	94183424	63582208	28621696	24992
429	1.478674	94183424	63582208	30670504	24992
430	1.49964	94183424	63582208	16457984	24992
431	1.497046	94183424	63582208	18490736	24992
432	1.458248	94183424	63582208	20527232	24992
433	1.499836	94183424	63582208	22567872	24992
434	1.522555	94183424	63582208	24619896	24992
435	1.510796	94183424	63582208	26686360	24992
436	1.50597	94183424	63582208	28752968	24992
437	1.510802	94183424	63582208	30819432	24992
438	1.528822	94183424	63582208	16585152	24992
439	1.690531	94183424	63582208	18649280	24992
440	1.522614	94183424	63582208	20717368	24992
441	1.538473	94183424	63582208	22789344	24992
442	1.536013	94183424	63582208	24865280	24992
443	1.459321	94183424	63582208	26945144	24992
444	1.522357	94183424	63582208	29029024	24992
445	1.542845	94183424	63582208	31116856	24992
446	1.565252	94183424	63582208	16935968	24992
447	1.552418	94183424	63582208	19041888	24992
448	1.548911	94183424	63582208	21141624	24992
449	1.556136	94183424	63582208	23245072	24992
450	1.479268	94183424	63582208	25352504	24992
451	1.557742	94183424	63582208	27463920	24992
452	1.55924	94183424	63582208	29579144	24992
453	2.141026	94183424	63582208	15493336	24992
454	1.574582	94183424	63582208	17616528	24992
455	1.582681	94183424	63582208	19743680	24992
456	1.572842	94183424	63582208	21874792	24992
457	1.574475	94183424	63582208	24009760	24992
458	1.57301	94183424	63582208	26148688	24992
459	1.582911	94183424	63582208	28295408	24992
460	1.750449	94183424	63582208	30458776	24992
461	1.610009	94183424	63582208	16433288	24992
462	1.555252	94183424	63582208	18627800	24992
463	1.787623	94183424	63582208	20786448	24992
464	1.597879	94183424	63582208	22949080	24992
465	1.802521	94183424	63582208	25115520	24992
466	1.607426	94183424	63582208	27293184	24992
467	1.611079	94183424	63582208	29484360	24992
468	2.037563	94183424	63582208	15463784	24992
469	1.618439	94183424	63582208	17651704	24992
470	1.808657	94183424	63582208	19837896	24992
471	1.633404	94183424	63582208	22028040	24992
472	1.627653	94183424	63582208	24236176	24992
473	1.966743	94183424	63582208	26437680	24992
474	1.604808	94183424	63582208	28639632	24992
475	1.540952	94183424	63582208	30845472	24992
476	1.64061	94183424	63582208	16826432	24992
477	1.623045	94183424	63582208	19040056	24992
478	1.594462	94183424	63582208	21264600	24992
479	1.637834	94183424	63582208	23486368	24992
480	1.595906	94183424	63582208	25711880	24992
481	1.651176	94183424	63582208	27941376	24992
482	1.665976	94183424	63582208	30174864	24992
483	2.204476	94183424	63582208	16126992	24992
484	1.669188	94183424	63582208	18368384	24992
485	1.675236	94183424	63582208	20613560	24992
486	1.613925	94183424	63582208	22866152	24992
487	1.661148	94183424	63582208	25119320	24992
488	1.678365	94183424	63582208	27376384	24992
489	1.677129	94183424	63582208	29650216	24992
490	2.075984	94183424	63582208	15727976	24992
491	1.68068	94183424	63582208	17996936	24992
492	1.682177	94183424	63582208	20272312	24992
493	1.608308	94183424	63582208	22549120	24992
494	1.682482	94183424	63582208	24829832	24992
495	1.697153	94183424	63582208	27127712	24992
496	1.850396	94183424	63582208	29416272	24992
497	2.115975	94183424	63582208	15536200	24992
498	1.721388	94183424	63582208	17847656	24992
499	1.739467	94183424	63582208	20148120	24992
500	1.717638	94183424	63582208	22470784	24992
501	1.716744	94183424	63582208	24781616	24992
502	1.913376	94183424	63582208	27095032	24992
503	1.718089	94183424	63582208	29411224	24992
504	2.129192	94183424	63582208	15557912	24992
505	1.915618	94183424	63582208	17900312	24992
506	1.739575	94183424	63582208	20228304	24992
507	1.735964	94183424	63582208	22579760	24992
508	1.72989	94183424	63582208	24915592	24992
509	1.727935	94183424	63582208	27255904	24992
510	1.739991	94183424	63582208	29619848	24992
511	2.186267	94183424	63582208	15790000	24992
512	1.680246	94183424	63582208	18145456	24992
513	1.707447	94183424	63582208	20514296	24992
514	1.754292	94183424	63582208	22873800	24992
515	1.755882	94183424	63582208	25239208	24992
516	1.752698	94183424	63582208	27615480	24992
517	1.762803	94183424	63582208	29986904	24992
518	2.107792	94183424	63582208	16105352	24992
519	1.776178	94183424	63582208	18494112	24992
520	1.770872	94183424	63582208	20888488	24992
521	1.695986	94183424	63582208	23275528	24992
522	1.735275	94183424	63582208	25670096	24992
523	1.771541	94183424	63582208	28065024	24992
524	1.733856	94183424	63582208	30467400	24992
525	2.086559	94183424	63582208	16503568	24992
526	1.703104	94183424	63582208	18926200	24992
527	1.800799	94183424	63582208	21336968	24992
528	1.792518	94183424	63582208	23758216	24992
529	1.808473	94183424	63582208	26178032	24992
530	1.938247	94183424	63582208	28600488	24992
531	1.962374	94183424	63582208	31043120	24992
532	1.818584	94183424	63582208	17270832	24992
533	1.732566	94183424	63582208	19712296	24992
534	1.816599	94183424	63582208	22152728	24992
535	1.816051	94183424	63582208	24595488	24992
536	1.827368	94183424	63582208	27041560	24992
537	1.824563	94183424	63582208	29492720	24992
538	2.240591	94183424	63582208	15792456	24992
539	1.747269	94183424	63582208	18250824	24992
540	1.772383	94183424	63582208	20714592	24992
541	1.828003	94183424	63582208	23180624	24992
542	1.792797	94183424	63582208	25664488	24992
543	1.75169	94183424	63582208	28138200	24992
544	1.757439	94183424	63582208	30622640	24992
545	1.858424	94183424	63582208	16744576	24992
546	1.865257	94183424	63582208	19243000	24992
547	1.866769	94183424	63582208	21753504	24992
548	1.854886	94183424	63582208	24248096	24992
549	1.856386	94183424	63582208	26747040	24992
550	1.862386	94183424	63582208	29248328	24992
551	1.869427	94183424	63582208	31754256	24992
552	1.788785	94183424	63582208	17930472	24992
553	1.776796	94183424	63582208	20443680	24992
554	1.874163	94183424	63582208	22982216	24992
555	1.785368	94183424	63582208	25508336	24992
556	1.840969	94183424	63582208	28060504	24992
557	1.896888	94183424	63582208	30629800	24992
558	1.909221	94183424	63582208	16855808	24992
559	1.915925	94183424	63582208	19447784	24992
560	1.930144	94183424	63582208	22031936	24992
561	1.863016	94183424	63582208	24615944	24992
562	2.090917	94183424	63582208	27200064	24992
563	1.909676	94183424	63582208	29800776	24992
564	2.43458	94183424	63582208	16203704	24992
565	1.945464	94183424	63582208	18802768	24992
566	1.876061	94183424	63582208	21402232	24992
567	1.829491	94183424	63582208	24007688	24992
568	1.828483	94183424	63582208	26613920	24992
569	1.946973	94183424	63582208	29232056	24992
570	1.838478	94183424	63582208	31846352	24992
571	1.942852	94183424	63582208	18133272	24992
572	1.944055	94183424	63582208	20772952	24992
573	2.124837	94183424	63582208	23399800	24992
574	1.961216	94183424	63582208	26035640	24992
575	1.963607	94183424	63582208	28674512	24992
576	1.97691	94183424	63582208	31312272	24992
577	1.963439	94183424	63582208	17731968	24992
578	1.957442	94183424	63582208	20377544	24992
579	1.954224	94183424	63582208	23035024	24992
580	1.957763	94183424	63582208	25688520	24992
581	1.971317	94183424	63582208	28346040	24992
582	1.931376	94183424	63582208	31032616	24992
583	1.894683	94183424	63582208	17553704	24992
584	1.951871	94183424	63582208	20226248	24992
585	1.965861	94183424	63582208	22918872	24992
586	1.909397	94183424	63582208	25599592	24992
587	2.184085	94183424	63582208	28280840	24992
588	2.014583	94183424	63582208	30967744	24992
589	2.005257	94183424	63582208	17519944	24992
590	2.118765	94183424	63582208	20212896	24992
591	2.002986	94183424	63582208	22909720	24992
592	2.024329	94183424	63582208	25610600	24992
593	1.920609	94183424	63582208	28315336	24992
594	1.981902	94183424	63582208	31023952	24992
595	2.192533	94183424	63582208	17599104	24992
596	2.000215	94183424	63582208	20318696	24992
597	2.030616	94183424	63582208	23042784	24992
598	2.038403	94183424	63582208	25768824	24992
599	2.05569	94183424	63582208	28497088	24992
600	1.981383	94183424	63582208	31229536	24992
601	1.995851	94183424	63582208	17830104	24992
602	2.0368	94183424	63582208	20570424	24992
603	2.313024	94183424	63582208	23327384	24992
604	1.991342	94183424	63582208	26075336	24992
605	2.038632	94183424	63582208	28828232	24992
606	2.043075	94183424	63582208	31592160	24992
607	2.047852	94183424	63582208	18107576	24992
608	2.232831	94183424	63582208	20876688	24992
609	2.067313	94183424	63582208	23644544	24992
610	2.073013	94183424	63582208	26416240	24992
611	1.971652	94183424	63582208	29198888	24992
612	1.9688	94183424	63582208	31993944	24992
613	2.013537	94183424	63582208	18493064	24992
614	1.969747	94183424	63582208	21280552	24992
615	2.067928	94183424	63582208	24074112	24992
616	2.249937	94183424	63582208	26869632	24992
617	2.092005	94183424	63582208	29684768	24992
618	2.584675	94183424	63582208	16364000	24992
619	1.984515	94183424	63582208	19180352	24992
620	2.049376	94183424	63582208	21991872	24992
621	2.084293	94183424	63582208	24809736	24992
622	2.051368	94183424	63582208	27652968	24992
623	2.108425	94183424	63582208	30481128	24992
624	2.680086	94183424	63582208	17071216	24992
625	2.005545	94183424	63582208	19902456	24992
626	2.103804	94183424	63582208	22737288	24992
627	2.057525	94183424	63582208	25580184	24992
628	2.121967	94183424	63582208	28422840	24992
629	2.322314	94183424	63582208	31269872	24992
630	2.04314	94183424	63582208	18000072	24992
631	2.128586	94183424	63582208	20856768	24992
632	2.032547	94183424	63582208	23718848	24992
633	2.12782	94183424	63582208	26581216	24992
634	2.158051	94183424	63582208	29451104	24992
635	2.608812	94183424	63582208	16213624	24992
636	2.153317	94183424	63582208	19103336	24992
637	2.045571	94183424	63582208	21981424	24992
638	2.059965	94183424	63582208	24864368	24992
639	2.146667	94183424	63582208	27765088	24992
640	2.110622	94183424	63582208	30660784	24992
641	2.476775	94183424	63582208	17268984	24992
642	2.16958	94183424	63582208	20168904	24992
643	2.156199	94183424	63582208	23070552	24992
644	2.167384	94183424	63582208	25983808	24992
645	2.1404	94183424	63582208	28893248	24992
646	2.179718	94183424	63582208	31806712	24992
647	2.194695	94183424	63582208	18496384	24992
648	2.17891	94183424	63582208	21417824	24992
649	2.207819	94183424	63582208	24373968	24992
650	2.153132	94183424	63582208	27313328	24992
651	2.199904	94183424	63582208	30246648	24992
652	2.488303	94183424	63582208	16955088	24992
653	2.148284	94183424	63582208	19903976	24992
654	2.290606	94183424	63582208	22877184	24992
655	2.210462	94183424	63582208	25827792	24992
656	2.214258	94183424	63582208	28780704	24992
657	2.10683	94183424	63582208	31744664	24992
658	2.209251	94183424	63582208	18502544	24992
659	2.408348	94183424	63582208	21490136	24992
660	2.21913	94183424	63582208	24463152	24992
661	2.214055	94183424	63582208	27435712	24992
662	2.219211	94183424	63582208	30412160	24992
663	2.6065	94183424	63582208	17169888	24992
664	2.429084	94183424	63582208	20179040	24992
665	2.238064	94183424	63582208	23167360	24992
666	2.24472	94183424	63582208	26172320	24992
667	2.137589	94183424	63582208	29173096	24992
668	2.261198	94183424	63582208	32173344	24992
669	2.195797	94183424	63582208	18952224	24992
670	2.384239	94183424	63582208	21977168	24992
671	2.249997	94183424	63582208	24989168	24992
672	2.147854	94183424	63582208	28007192	24992
673	2.223575	94183424	63582208	31032448	24992
674	2.271819	94183424	63582208	17983320	24992
675	2.287546	94183424	63582208	21012656	24992
676	2.230693	94183424	63582208	24067832	24992
677	2.29318	94183424	63582208	27103536	24992
678	2.273725	94183424	63582208	30143072	24992
679	2.684159	94183424	63582208	16994952	24992
680	2.29564	94183424	63582208	20047432	24992
681	2.410978	94183424	63582208	23104304	24992
682	2.294496	94183424	63582208	26180808	24992
683	2.303959	94183424	63582208	29250392	24992
684	2.301799	94183424	63582208	32331408	24992
685	2.294617	94183424	63582208	19118728	24992
686	2.266808	94183424	63582208	22218424	24992
687	2.306552	94183424	63582208	25316104	24992
688	2.452934	94183424	63582208	28413784	24992
689	2.308916	94183424	63582208	31519800	24992
690	2.347874	94183424	63582208	18533424	24992
691	2.327058	94183424	63582208	21658544	24992
692	2.322003	94183424	63582208	24772664	24992
693	2.273364	94183424	63582208	27914432	24992
694	2.315583	94183424	63582208	31037768	24992
695	2.435906	94183424	63582208	17816664	24992
696	2.330083	94183424	63582208	20945648	24992
697	2.362923	94183424	63582208	24076616	24992
698	2.355099	94183424	63582208	27211384	24992
699	2.353639	94183424	63582208	30370384	24992
700	2.655617	94183424	63582208	17304888	24992
701	2.341354	94183424	63582208	20468280	24992
702	2.715556	94183424	63582208	23623880	24992
703	2.380757	94183424	63582208	26790928	24992
704	2.745202	94183424	63582208	29949464	24992
705	2.856751	94183424	63582208	17024040	24992
706	2.355883	94183424	63582208	20190400	24992
707	2.370685	94183424	63582208	23372200	24992
708	2.375302	94183424	63582208	26546496	24992
709	2.266009	94183424	63582208	29731216	24992
710	2.860557	94183424	63582208	16842552	24992
711	2.401662	94183424	63582208	20031256	24992
712	2.331196	94183424	63582208	23245432	24992
713	2.588936	94183424	63582208	26466272	24992
714	2.385379	94183424	63582208	29664000	24992
715	2.792322	94183424	63582208	16791192	24992
716	2.419362	94183424	63582208	19996776	24992
717	2.294948	94183424	63582208	23208256	24992
718	2.391732	94183424	63582208	26423576	24992
719	2.42667	94183424	63582208	29651152	24992
720	3.021564	94183424	63582208	16800696	24992
721	2.352245	94183424	63582208	20026120	24992
722	2.529219	94183424	63582208	23256640	24992
723	2.378434	94183424	63582208	26490016	24992
724	2.410146	94183424	63582208	29727200	24992
725	3.065509	94183424	63582208	16898936	24992
726	2.328537	94183424	63582208	20145312	24992
727	2.417159	94183424	63582208	23394848	24992
728	2.421637	94183424	63582208	26650456	24992
729	2.445749	94183424	63582208	29907376	24992
730	2.943709	94183424	63582208	17102792	24992
731	2.612398	94183424	63582208	20378152	24992
732	2.446039	94183424	63582208	23654640	24992
733	2.440557	94183424	63582208	26927536	24992
734	2.353993	94183424	63582208	30211368	24992
735	2.897295	94183424	63582208	17296768	24992
736	2.469004	94183424	63582208	20586056	24992
737	2.471267	94183424	63582208	23875960	24992
738	2.34557	94183424	63582208	27201608	24992
739	2.471	94183424	63582208	30497968	24992
740	2.988456	94183424	63582208	17598984	24992
741	2.360491	94183424	63582208	20905776	24992
742	2.497142	94183424	63582208	24226376	24992
743	2.467746	94183424	63582208	27538528	24992
744	2.371243	94183424	63582208	30871384	24992
745	2.836443	94183424	63582208	17931720	24992
746	2.482132	94183424	63582208	21255624	24992
747	2.638966	94183424	63582208	24583528	24992
748	2.628953	94183424	63582208	27915248	24992
749	2.510793	94183424	63582208	31251072	24992
750	2.478126	94183424	63582208	18531824	24992
751	2.383662	94183424	63582208	21882152	24992
752	2.439126	94183424	63582208	25257872	24992
753	2.646285	94183424	63582208	28611816	24992
754	2.387935	94183424	63582208	31973352	24992
755	2.674603	94183424	63582208	19154688	24992
756	2.540336	94183424	63582208	22521272	24992
757	2.552408	94183424	63582208	25889144	24992
758	2.529284	94183424	63582208	29260200	24992
759	2.415916	94183424	63582208	32635320	24992
760	2.535903	94183424	63582208	19777504	24992
761	2.534945	94183424	63582208	23168064	24992
762	2.430199	94183424	63582208	26555080	24992
763	2.481448	94183424	63582208	29951544	24992
764	3.135125	94183424	63582208	17298600	24992
765	2.434566	94183424	63582208	20697784	24992
766	2.644939	94183424	63582208	24117352	24992
767	2.463307	94183424	63582208	27524008	24992
768	2.70993	94183424	63582208	30943040	24992
769	2.884038	94183424	63582208	18102376	24992
770	2.572809	94183424	63582208	21527840	24992
771	2.5781	94183424	63582208	24951040	24992
772	2.573728	94183424	63582208	28393624	24992
773	2.579968	94183424	63582208	31838344	24992
774	2.535169	94183424	63582208	19238336	24992
775	3.06826	94183424	63582208	22676704	24992
776	2.590056	94183424	63582208	26130240	24992
777	2.570953	94183424	63582208	29603424	24992
778	3.107543	94183424	63582208	17027472	24992
779	2.522579	94183424	63582208	20481224	24992
780	2.477074	94183424	63582208	23959656	24992
781	2.492485	94183424	63582208	27433640	24992
782	2.592876	94183424	63582208	30931968	24992
783	2.857561	94183424	63582208	18196080	24992
784	2.605764	94183424	63582208	21675720	24992
785	2.54605	94183424	63582208	25153208	24992
786	2.60599	94183424	63582208	28652784	24992
787	2.686469	94183424	63582208	32162688	24992
788	2.62959	94183424	63582208	19502544	24992
789	2.721155	94183424	63582208	23022456	24992
790	2.639071	94183424	63582208	26526456	24992
791	2.594346	94183424	63582208	30027976	24992
792	3.014155	94183424	63582208	17539216	24992
793	2.735971	94183424	63582208	21049392	24992
794	2.652489	94183424	63582208	24566216	24992
795	2.747471	94183424	63582208	28113176	24992
796	2.588493	94183424	63582208	31633960	24992
797	2.678626	94183424	63582208	19149208	24992
798	2.658031	94183424	63582208	22677968	24992
799	2.852306	94183424	63582208	26223256	24992
800	2.604674	94183424	63582208	29762616	24992
801	3.384941	94183424	63582208	17334328	24992
802	2.655143	94183424	63582208	20878784	24992
803	2.975059	94183424	63582208	24439808	24992
804	2.67641	94183424	63582208	28028032	24992
805	2.861276	94183424	63582208	31584248	24992
806	2.688555	94183424	63582208	19134600	24992
807	3.028998	94183424	63582208	22715128	24992
808	2.689822	94183424	63582208	26313648	24992
809	2.869886	94183424	63582208	29885672	24992
810	3.202673	94183424	63582208	17456120	24992
811	2.8706	94183424	63582208	21063168	24992
812	2.740856	94183424	63582208	24675408	24992
813	2.731992	94183424	63582208	28287680	24992
814	2.597676	94183424	63582208	31899920	24992
815	2.900424	94183424	63582208	19494104	24992
816	2.711848	94183424	63582208	23099112	24992
817	2.900857	94183424	63582208	26712280	24992
818	2.729253	94183424	63582208	30325512	24992
819	3.233384	94183424	63582208	17839672	24992
820	2.713482	94183424	63582208	21473088	24992
821	2.893076	94183424	63582208	25102912	24992
822	2.748427	94183424	63582208	28728632	24992
823	2.83178	94183424	63582208	32357440	24992
824	2.60713	94183424	63582208	19865816	24992
825	2.737758	94183424	63582208	23500992	24992
826	2.609058	94183424	63582208	27140096	24992
827	2.918503	94183424	63582208	30820800	24992
828	3.394034	94183424	63582208	18318128	24992
829	2.884242	94183424	63582208	21985496	24992
830	2.699749	94183424	63582208	25679800	24992
831	2.76535	94183424	63582208	29359488	24992
832	2.759408	94183424	63582208	33086184	24992
833	2.867368	94183424	63582208	20582912	24992
834	2.934673	94183424	63582208	24286056	24992
835	3.057463	94183424	63582208	27984904	24992
836	2.922388	94183424	63582208	31679640	24992
837	2.6701	94183424	63582208	19398576	24992
838	2.996795	94183424	63582208	23134256	24992
839	2.787451	94183424	63582208	26947808	24992
840	2.7848	94183424	63582208	30723928	24992
841	3.279986	94183424	63582208	18357416	24992
842	2.787831	94183424	63582208	22142520	24992
843	2.746569	94183424	63582208	25947448	24992
844	2.79146	94183424	63582208	29739424	24992
845	3.433964	94183424	63582208	17565200	24992
846	2.839229	94183424	63582208	21386976	24992
847	2.752046	94183424	63582208	25190784	24992
848	2.947898	94183424	63582208	29003896	24992
849	2.683874	94183424	63582208	32815624	24992
850	3.009336	94183424	63582208	20543344	24992
851	2.815885	94183424	63582208	24426720	24992
852	2.815367	94183424	63582208	28301920	24992
853	2.823569	94183424	63582208	32205792	24992
854	2.954792	94183424	63582208	20135680	24992
855	2.84438	94183424	63582208	24033520	24992
856	2.935404	94183424	63582208	27924392	24992
857	2.857028	94183424	63582208	31829808	24992
858	2.724493	94183424	63582208	19783936	24992
859	2.789871	94183424	63582208	23686752	24992
860	2.794613	94183424	63582208	27635184	24992
861	2.856771	94183424	63582208	31545776	24992
862	2.738158	94183424	63582208	19192592	24992
863	2.725216	94183424	63582208	23126128	24992
864	2.859849	94183424	63582208	27078296	24992
865	2.859181	94183424	63582208	31004624	24992
866	3.386817	94183424	63582208	18805520	24992
867	2.861515	94183424	63582208	22743672	24992
868	2.856262	94183424	63582208	26707024	24992
869	2.800443	94183424	63582208	30649112	24992
870	3.407395	94183424	63582208	18460712	24992
871	3.03032	94183424	63582208	22410624	24992
872	2.893573	94183424	63582208	26364608	24992
873	3.060519	94183424	63582208	30345168	24992
874	3.540476	94183424	63582208	18272288	24992
875	2.926817	94183424	63582208	22246072	24992
876	2.973263	94183424	63582208	26231560	24992
877	3.089514	94183424	63582208	30205056	24992
878	3.654209	94183424	63582208	18231792	24992
879	2.857867	94183424	63582208	22220320	24992
880	3.107076	94183424	63582208	26245584	24992
881	3.064805	94183424	63582208	30234936	24992
882	3.486211	94183424	63582208	18279232	24992
883	2.782444	94183424	63582208	22288808	24992
884	3.025844	94183424	63582208	26317720	24992
885	2.935481	94183424	63582208	30352632	24992
886	3.646703	94183424	63582208	18357024	24992
887	3.044942	94183424	63582208	22370032	24992
888	2.951595	94183424	63582208	26418760	24992
889	2.947002	94183424	63582208	30480528	24992
890	3.396047	94183424	63582208	18431448	24992
891	3.125212	94183424	63582208	22460240	24992
892	2.937727	94183424	63582208	26495576	24992
893	2.978544	94183424	63582208	30544968	24992
894	3.597797	94183424	63582208	18525128	24992
895	3.086659	94183424	63582208	22569776	24992
896	2.96754	94183424	63582208	26618192	24992
897	2.989953	94183424	63582208	30677872	24992
898	3.558089	94183424	63582208	18620168	24992
899	2.979281	94183424	63582208	22680576	24992
900	2.844527	94183424	63582208	26744824	24992
901	2.887108	94183424	63582208	30817816	24992
902	3.559789	94183424	63582208	18764288	24992
903	2.997857	94183424	63582208	22894032	24992
904	3.127645	94183424	63582208	27021888	24992
905	2.98948	94183424	63582208	31150856	24992
906	3.514222	94183424	63582208	19151968	24992
907	3.010425	94183424	63582208	23243784	24992
908	3.012367	94183424	63582208	27339552	24992
909	2.99833	94183424	63582208	31439160	24992
910	3.64409	94183424	63582208	19361712	24992
911	3.257619	94183424	63582208	23477200	24992
912	3.185652	94183424	63582208	27605952	24992
913	3.007458	94183424	63582208	31743080	24992
914	3.030611	94183424	63582208	19656720	24992
915	3.036223	94183424	63582208	23780032	24992
916	2.897755	94183424	63582208	27907176	24992
917	2.972217	94183424	63582208	32038280	24992
918	2.962753	94183424	63582208	20238312	24992
919	3.039935	94183424	63582208	24377384	24992
920	3.2129	94183424	63582208	28520416	24992
921	2.918778	94183424	63582208	32690400	24992
922	2.919498	94183424	63582208	20853880	24992
923	2.983601	94183424	63582208	25030448	24992
924	3.252037	94183424	63582208	29218576	24992
925	3.240843	94183424	63582208	33394464	24992
926	2.927365	94183424	63582208	21448864	24992
927	3.157646	94183424	63582208	25658288	24992
928	3.06896	94183424	63582208	29856864	24992
929	3.791719	94183424	63582208	18109664	24992
930	3.004134	94183424	63582208	22292192	24992
931	2.977777	94183424	63582208	26478592	24992
932	3.265455	94183424	63582208	30668880	24992
933	3.77685	94183424	63582208	18816768	24992
934	3.09572	94183424	63582208	23019176	24992
935	3.090415	94183424	63582208	27225448	24992
936	3.023176	94183424	63582208	31472168	24992
937	3.619304	94183424	63582208	19566792	24992
938	3.100396	94183424	63582208	23782144	24992
939	3.11149	94183424	63582208	27999976	24992
940	3.094827	94183424	63582208	32221760	24992
941	3.240019	94183424	63582208	20553264	24992
942	3.054405	94183424	63582208	24830832	24992
943	2.969704	94183424	63582208	29064424	24992
944	3.11115	94183424	63582208	33302072	24992
945	3.007544	94183424	63582208	21426656	24992
946	3.313866	94183424	63582208	25722808	24992
947	3.042935	94183424	63582208	30022136	24992
948	4.033819	94183424	63582208	18359128	24992
949	3.144472	94183424	63582208	22656904	24992
950	3.133667	94183424	63582208	26959416	24992
951	3.122044	94183424	63582208	31224600	24992
952	3.735874	94183424	63582208	19382840	24992
953	3.347573	94183424	63582208	23655968	24992
954	3.144345	94183424	63582208	27932928	24992
955	3.149385	94183424	63582208	32220480	24992
956	3.016421	94183424	63582208	20589504	24992
957	3.095848	94183424	63582208	24890544	24992
958	3.247873	94183424	63582208	29183168	24992
959	3.093749	94183424	63582208	33484048	24992
960	3.357298	94183424	63582208	21710296	24992
961	3.189204	94183424	63582208	26041152	24992
962	3.056238	94183424	63582208	30349544	24992
963	4.16507	94183424	63582208	18761152	24992
964	3.200519	94183424	63582208	23077488	24992
965	3.249716	94183424	63582208	27415680	24992
966	3.128456	94183424	63582208	31751512	24992
967	3.656256	94183424	63582208	19878784	24992
968	3.078078	94183424	63582208	24210824	24992
969	3.057599	94183424	63582208	28547968	24992
970	3.405243	94183424	63582208	32888032	24992
971	3.072289	94183424	63582208	21315848	24992
972	3.071746	94183424	63582208	25674920	24992
973	3.228447	94183424	63582208	30070664	24992
974	3.939294	94183424	63582208	18535088	24992
975	3.439156	94183424	63582208	22902272	24992
976	3.137036	94183424	63582208	27270616	24992
977	3.21605	94183424	63582208	31661168	24992
978	4.08063	94183424	63582208	19934104	24992
979	3.22798	94183424	63582208	24309544	24992
980	3.433067	94183424	63582208	28694120	24992
981	3.236467	94183424	63582208	33077408	24992
982	3.246698	94183424	63582208	21438712	24992
983	3.289612	94183424	63582208	25829832	24992
984	3.126853	94183424	63582208	30226512	24992
985	4.157617	94183424	63582208	18724760	24992
986	3.256641	94183424	63582208	23152432	24992
987	3.257185	94183424	63582208	27584800	24992
988	3.438017	94183424	63582208	32007456	24992
989	3.892793	94183424	63582208	20154296	24992
990	3.350123	94183424	63582208	24577952	24992
991	3.28025	94183424	63582208	29000696	24992
992	3.269201	94183424	63582208	33434016	24992
993	3.449791	94183424	63582208	21766752	24992
994	3.287252	94183424	63582208	26201160	24992
995	3.450785	94183424	63582208	30639552	24992
996	4.162871	94183424	63582208	19226344	24992
997	3.216661	94183424	63582208	23672800	24992
998	3.436739	94183424	63582208	28123064	24992
999	3.286792	94183424	63582208	32604416	24992
1000	3.241775	94183424	63582208	21171544	24992
