x	Duration	RSS	HeapTotal	HeapUsed	External
0	NA	93995008	63582208	12749288	24992
1	0.249249	93995008	63582208	12801200	24992
2	0.194781	93995008	63582208	12877976	24992
3	0.118174	93995008	63582208	12992552	24992
4	0.119879	93995008	63582208	13091552	24992
5	0.12073	93995008	63582208	13195008	24992
6	0.126528	93995008	63582208	13302408	24992
7	0.128831	93995008	63582208	13413752	24992
8	0.134255	93995008	63582208	13529040	24992
9	0.135761	93995008	63582208	13648288	24992
10	0.13895	93995008	63582208	13773704	24992
11	0.384302	93995008	63582208	13904232	24992
12	0.154928	93995008	63582208	14038704	24992
13	0.154224	93995008	63582208	14177160	24992
14	0.15625	93995008	63582208	14319504	24992
15	0.158109	93995008	63582208	14466832	24992
16	0.162807	93995008	63582208	14618144	24992
17	0.165305	93995008	63582208	14773456	24992
18	0.195076	93995008	63582208	14936248	24992
19	0.214569	93995008	63582208	15100848	24992
20	0.174912	93995008	63582208	15269720	24992
21	0.175535	93995008	63582208	15442520	24992
22	0.182746	93995008	63582208	15619264	24992
23	0.195668	93995008	63582208	15802064	24992
24	0.177078	93995008	63582208	15988512	24992
25	0.18097	93995008	63582208	16181080	24992
26	0.182172	93995008	63582208	16377688	24992
27	0.201612	93995008	63582208	16578144	24992
28	0.187564	93995008	63582208	16782848	24992
29	0.209666	93995008	63582208	16991160	24992
30	0.214888	93995008	63582208	17203416	24992
31	0.214209	93995008	63582208	17419624	24992
32	0.217517	93995008	63582208	17641872	24992
33	0.223019	93995008	63582208	17868136	24992
34	0.225301	93995008	63582208	18098272	24992
35	0.227265	93995008	63582208	18332400	24992
36	0.231144	93995008	63582208	18570408	24992
37	0.237532	93995008	63582208	18812344	24992
38	0.239475	93995008	63582208	19058248	24992
39	0.241621	93995008	63582208	19308064	24992
40	0.244562	93995008	63582208	19561912	24992
41	0.254058	93995008	63582208	19819616	24992
42	0.249214	93995008	63582208	20083456	24992
43	0.273271	93995008	63582208	20351160	24992
44	0.268928	93995008	63582208	20622864	24992
45	0.242275	93995008	63582208	20901112	24992
46	0.243948	93995008	63582208	21184000	24992
47	0.247629	93995008	63582208	21470800	24992
48	0.250274	93995008	63582208	21761544	24992
49	0.252048	93995008	63582208	22056240	24992
50	0.25499	93995008	63582208	22359096	24992
51	0.282642	93995008	63582208	22670200	24992
52	0.262327	93995008	63582208	22985240	24992
53	0.265148	93995008	63582208	23304120	24992
54	0.271003	93995008	63582208	23628216	24992
55	0.27092	93995008	63582208	23954984	24992
56	0.29962	93995008	63582208	24285728	24992
57	0.312664	93995008	63582208	24620416	24992
58	0.284813	93995008	63582208	24959008	24992
59	0.283644	93995008	63582208	25301584	24992
60	0.287107	93995008	63582208	25648288	24992
61	0.289623	93995008	63582208	25998680	24992
62	0.293458	93995008	63582208	26353064	24992
63	0.564328	93995008	63582208	26711456	24992
64	0.307411	93995008	63582208	27073672	24992
65	0.306116	93995008	63582208	27441408	24992
66	0.302805	93995008	63582208	27811528	24992
67	0.307652	93995008	63582208	28185688	24992
68	0.643838	93995008	63582208	28563664	24992
69	0.313779	93995008	63582208	28945576	24992
70	1.056709	93995008	63582208	13227640	24992
71	0.347132	93995008	63582208	13617832	24992
72	0.372814	93995008	63582208	14011576	24992
73	0.326931	93995008	63582208	14409248	24992
74	0.327957	93995008	63582208	14810904	24992
75	0.328282	93995008	63582208	15216576	24992
76	0.335276	93995008	63582208	15630232	24992
77	0.338791	93995008	63582208	16047872	24992
78	0.337308	93995008	63582208	16469392	24992
79	0.343589	93995008	63582208	16894936	24992
80	0.342189	93995008	63582208	17324600	24992
81	0.381917	93995008	63582208	17759080	24992
82	0.35415	93995008	63582208	18196360	24992
83	0.357415	93995008	63582208	18637560	24992
84	0.354783	93995008	63582208	19087184	24992
85	0.362982	93995008	63582208	19541888	24992
86	0.362385	93995008	63582208	20000544	24992
87	0.373426	93995008	63582208	20463136	24992
88	0.368497	93995008	63582208	20929656	24992
89	0.373908	93995008	63582208	21400184	24992
90	0.375109	93995008	63582208	21874592	24992
91	0.378676	93995008	63582208	22352952	24992
92	0.412707	93995008	63582208	22835240	24992
93	0.387904	93995008	63582208	23321456	24992
94	0.38871	93995008	63582208	23815808	24992
95	0.391118	93995008	63582208	24314080	24992
96	0.391634	93995008	63582208	24816264	24992
97	0.428365	93995008	63582208	25322400	24992
98	0.398452	93995008	63582208	25832496	24992
99	0.401484	93995008	63582208	26348064	24992
100	0.404299	93995008	63582208	26867408	24992
101	0.46408	93995008	63582208	27389392	24992
102	0.411002	93995008	63582208	27923544	24992
103	0.418662	93995008	63582208	28470032	24992
104	0.418196	93995008	63582208	29020416	24992
105	1.042948	93995008	63582208	13407872	24992
106	0.477515	93995008	63582208	13967040	24992
107	0.430751	93995008	63582208	14529240	24992
108	0.433835	93995008	63582208	15095392	24992
109	0.487968	93995008	63582208	15665448	24992
110	0.456439	93995008	63582208	16239480	24992
111	0.471885	93995008	63582208	16817800	24992
112	0.474978	93995008	63582208	17399680	24992
113	0.508212	93995008	63582208	17985512	24992
114	0.453344	93995008	63582208	18577944	24992
115	0.452327	93995008	63582208	19171664	24992
116	0.453658	93995008	63582208	19769296	24992
117	0.509783	93995008	63582208	20370888	24992
118	0.460777	93995008	63582208	20977888	24992
119	0.46594	93995008	63582208	21587312	24992
120	0.465401	93995008	63582208	22200688	24992
121	0.499779	93995008	63582208	22818072	24992
122	0.471601	93995008	63582208	23439336	24992
123	0.478434	93995008	63582208	24064624	24992
124	0.48118	93995008	63582208	24693816	24992
125	0.499998	93995008	63582208	25330688	24992
126	0.485543	93995008	63582208	25967696	24992
127	0.486368	93995008	63582208	26608744	24992
128	0.492819	93995008	63582208	27253632	24992
129	0.496203	93995008	63582208	27902448	24992
130	0.495666	93995008	63582208	28555216	24992
131	0.49861	93995008	63582208	29211992	24992
132	1.23473	93995008	63582208	13593288	24992
133	0.544447	93995008	63582208	14257872	24992
134	0.544453	93995008	63582208	14926488	24992
135	0.54932	93995008	63582208	15599016	24992
136	0.517711	93995008	63582208	16275440	24992
137	0.518538	93995008	63582208	16955904	24992
138	0.521693	93995008	63582208	17640232	24992
139	0.526251	93995008	63582208	18328784	24992
140	0.527882	93995008	63582208	19021024	24992
141	0.530599	93995008	63582208	19717112	24992
142	0.567829	93995008	63582208	20424568	24992
143	0.536055	93995008	63582208	21137760	24992
144	0.55605	93995008	63582208	21854896	24992
145	0.55073	93995008	63582208	22575896	24992
146	0.544401	93995008	63582208	23301160	24992
147	0.548136	93995008	63582208	24032472	24992
148	0.554703	93995008	63582208	24765480	24992
149	0.557468	93995008	63582208	25502240	24992
150	0.557057	93995008	63582208	26242928	24992
151	0.563142	93995008	63582208	26987696	24992
152	0.56552	93995008	63582208	27736296	24992
153	0.567865	93995008	63582208	28488816	24992
154	0.569704	93995008	63582208	29245312	24992
155	1.242674	93995008	63582208	13708152	24992
156	0.582557	93995008	63582208	14472592	24992
157	0.579119	93995008	63582208	15240928	24992
158	0.582912	93995008	63582208	16013160	24992
159	0.586958	93995008	63582208	16789384	24992
160	0.586111	93995008	63582208	17570064	24992
161	0.613901	93995008	63582208	18354160	24992
162	0.593468	93995008	63582208	19142224	24992
163	0.598063	93995008	63582208	19942952	24992
164	0.60506	93995008	63582208	20751288	24992
165	0.603704	93995008	63582208	21559336	24992
166	0.60468	93995008	63582208	22371408	24992
167	0.627608	93995008	63582208	23187360	24992
168	0.61335	93995008	63582208	24007304	24992
169	0.617517	93995008	63582208	24831168	24992
170	0.620372	93995008	63582208	25658920	24992
171	0.62118	93995008	63582208	26490696	24992
172	0.632724	93995008	63582208	27326320	24992
173	0.630069	93995008	63582208	28165904	24992
174	0.685725	93995008	63582208	29010856	24992
175	0.722219	93995008	63582208	29861008	24992
176	0.647472	93995008	63582208	14387384	24992
177	0.639867	93995008	63582208	15242816	24992
178	0.646179	93995008	63582208	16102088	24992
179	0.64539	93995008	63582208	16966736	24992
180	0.65487	93995008	63582208	17833920	24992
181	0.649696	93995008	63582208	18704976	24992
182	0.651201	93995008	63582208	19580000	24992
183	0.664271	93995008	63582208	20458992	24992
184	0.65981	93995008	63582208	21341976	24992
185	0.661058	93995008	63582208	22228800	24992
186	0.666732	93995008	63582208	23119672	24992
187	0.864654	93995008	63582208	24014384	24992
188	0.717011	93995008	63582208	24913152	24992
189	0.683348	93995008	63582208	25822104	24992
190	0.680726	93995008	63582208	26728640	24992
191	0.689152	93995008	63582208	27639176	24992
192	0.681655	93995008	63582208	28553720	24992
193	0.865137	93995008	63582208	29473024	24992
194	1.095708	93995008	63582208	14066144	24992
195	0.740673	93995008	63582208	14992432	24992
196	0.742489	93995008	63582208	15922688	24992
197	0.74486	93995008	63582208	16856928	24992
198	0.753257	93995008	63582208	17795056	24992
199	0.746824	93995008	63582208	18746824	24992
200	0.749759	93995008	63582208	19701016	24992
201	0.735087	93995008	63582208	20659192	24992
202	0.712615	93995008	63582208	21621416	24992
203	0.722627	93995008	63582208	22587440	24992
204	0.719011	93995008	63582208	23557416	24992
205	0.727751	93995008	63582208	24531336	24992
206	0.766702	93995008	63582208	25510824	24992
207	0.770903	93995008	63582208	26509096	24992
208	0.799932	93995008	63582208	27528896	24992
209	0.782291	93995008	63582208	28553968	24992
210	0.783224	93995008	63582208	29585136	24992
211	1.180494	93995008	63582208	14261128	24992
212	0.794126	93995008	63582208	15295696	24992
213	0.758533	93995008	63582208	16334192	24992
214	0.791161	93995008	63582208	17376576	24992
215	0.970777	93995008	63582208	18422920	24992
216	0.805168	93995008	63582208	19473224	24992
217	0.811231	93995008	63582208	20527416	24992
218	0.809578	93995008	63582208	21585632	24992
219	0.821542	93995008	63582208	22647832	24992
220	0.815781	93995008	63582208	23713888	24992
221	0.819524	93995008	63582208	24786312	24992
222	0.8069	93995008	63582208	25860160	24992
223	0.831169	93995008	63582208	26937952	24992
224	0.786501	93995008	63582208	28019736	24992
225	0.833452	93995008	63582208	29105448	24992
226	0.842769	93995008	63582208	30195136	24992
227	0.844808	93995008	63582208	14923144	24992
228	1.027613	93995008	63582208	16020640	24992
229	0.840209	93995008	63582208	17134152	24992
230	0.868587	93995008	63582208	18254024	24992
231	0.824002	93995008	63582208	19377752	24992
232	0.900584	93995008	63582208	20505568	24992
233	0.852074	93995008	63582208	21637136	24992
234	1.051649	93995008	63582208	22772768	24992
235	0.853834	93995008	63582208	23912272	24992
236	0.843363	93995008	63582208	25055776	24992
237	0.840061	93995008	63582208	26203104	24992
238	0.87132	93995008	63582208	27354520	24992
239	0.854029	93995008	63582208	28509920	24992
240	0.8523	93995008	63582208	29669088	24992
241	1.217419	93995008	63582208	14471240	24992
242	0.887811	93995008	63582208	15638312	24992
243	0.908409	93995008	63582208	16810304	24992
244	0.841599	93995008	63582208	17986456	24992
245	0.888329	93995008	63582208	19165400	24992
246	0.89754	93995008	63582208	20348256	24992
247	0.86261	93995008	63582208	21534976	24992
248	0.907751	93995008	63582208	22733656	24992
249	0.905001	93995008	63582208	23930992	24992
250	0.910901	93995008	63582208	25129616	24992
251	0.917496	93995008	63582208	26333872	24992
252	0.917193	93995008	63582208	27541104	24992
253	0.921008	93995008	63582208	28751456	24992
254	0.930167	93995008	63582208	29967992	24992
255	0.91287	93995008	63582208	14903088	24992
256	0.935225	93995008	63582208	16125400	24992
257	0.940792	93995008	63582208	17352984	24992
258	1.123157	93995008	63582208	18583104	24992
259	0.906414	93995008	63582208	19817152	24992
260	0.952606	93995008	63582208	21055400	24992
261	0.942397	93995008	63582208	22302608	24992
262	0.956404	93995008	63582208	23548416	24992
263	0.953062	93995008	63582208	24807088	24992
264	1.129058	93995008	63582208	26060832	24992
265	0.970035	93995008	63582208	27319264	24992
266	0.938415	93995008	63582208	28585448	24992
267	0.968402	93995008	63582208	29854128	24992
268	0.98347	93995008	63582208	14799720	24992
269	1.158057	93995008	63582208	16073176	24992
270	0.946061	93995008	63582208	17359040	24992
271	0.989143	93995008	63582208	18640360	24992
272	0.98191	93995008	63582208	19925576	24992
273	0.991025	93995008	63582208	21214728	24992
274	0.986187	93995008	63582208	22507832	24992
275	0.969772	93995008	63582208	23804928	24992
276	0.993734	93995008	63582208	25111896	24992
277	0.994305	93995008	63582208	26416936	24992
278	1.000288	93995008	63582208	27725832	24992
279	1.002075	93995008	63582208	29040168	24992
280	1.347218	93995008	63582208	30356912	24992
281	0.980453	93995008	63582208	15360464	24992
282	1.014726	93995008	63582208	16685256	24992
283	1.015064	93995008	63582208	18013856	24992
284	1.019093	93995008	63582208	19346416	24992
285	1.202227	93995008	63582208	20682896	24992
286	0.968983	93995008	63582208	22023312	24992
287	1.03849	93995008	63582208	23369128	24992
288	1.027681	93995008	63582208	24717360	24992
289	1.034817	93995008	63582208	26069808	24992
290	1.008138	93995008	63582208	27425912	24992
291	1.040738	93995008	63582208	28786088	24992
292	1.02529	93995008	63582208	30161376	24992
293	1.061496	93995008	63582208	15257744	24992
294	1.059642	93995008	63582208	16629616	24992
295	1.052505	93995008	63582208	18005432	24992
296	1.055556	93995008	63582208	19390640	24992
297	1.057024	93995008	63582208	20774400	24992
298	1.028453	93995008	63582208	22164368	24992
299	1.074204	93995008	63582208	23555984	24992
300	1.067053	93995008	63582208	24951504	24992
301	1.044695	93995008	63582208	26350992	24992
302	1.071802	93995008	63582208	27755088	24992
303	1.075854	93995008	63582208	29162560	24992
304	1.08512	93995008	63582208	30573856	24992
305	1.090858	93995008	63582208	15630656	24992
306	1.055882	93995008	63582208	17049896	24992
307	1.044022	93995008	63582208	18473000	24992
308	1.108706	93995008	63582208	19903008	24992
309	1.109475	93995008	63582208	21336144	24992
310	1.096691	93995008	63582208	22771152	24992
311	1.073105	93995008	63582208	24212984	24992
312	1.115363	93995008	63582208	25666944	24992
313	1.108083	93995008	63582208	27125144	24992
314	1.111858	93995008	63582208	28575800	24992
315	1.110368	93995008	63582208	30030488	24992
316	1.122643	93995008	63582208	15224616	24992
317	1.265966	93995008	63582208	16694336	24992
318	1.087354	93995008	63582208	18164824	24992
319	1.121119	93995008	63582208	19638312	24992
320	1.327391	93995008	63582208	21113000	24992
321	1.136994	93995008	63582208	22591288	24992
322	1.135	93995008	63582208	24073536	24992
323	1.124167	93995008	63582208	25559672	24992
324	1.139583	93995008	63582208	27053208	24992
325	1.359807	93995008	63582208	28547216	24992
326	1.146199	93995008	63582208	30048720	24992
327	1.161471	93995008	63582208	15303672	24992
328	1.175304	93995008	63582208	16811296	24992
329	1.340523	93995008	63582208	18321160	24992
330	1.148109	93995008	63582208	19834984	24992
331	1.165798	93995008	63582208	21352752	24992
332	1.1639	93995008	63582208	22878016	24992
333	1.165722	93995008	63582208	24403608	24992
334	1.341215	93995008	63582208	25933168	24992
335	1.162814	93995008	63582208	27467864	24992
336	1.174427	93995008	63582208	29012512	24992
337	1.186776	93995008	63582208	30570856	24992
338	1.184883	93995008	63582208	15813696	24992
339	1.187012	93995008	63582208	17379320	24992
340	1.195649	93995008	63582208	18961160	24992
341	1.190151	93995008	63582208	20535840	24992
342	1.137338	93995008	63582208	22113240	24992
343	1.377174	93995008	63582208	23694672	24992
344	1.170723	93995008	63582208	25280056	24992
345	1.203755	93995008	63582208	26876760	24992
346	1.381937	93995008	63582208	28471576	24992
347	1.208966	93995008	63582208	30068768	24992
348	1.176047	93995008	63582208	15307184	24992
349	1.212604	93995008	63582208	16912248	24992
350	1.246395	93995008	63582208	18533896	24992
351	1.220087	93995008	63582208	20148184	24992
352	1.232215	93995008	63582208	21764976	24992
353	1.272178	93995008	63582208	23386376	24992
354	1.23581	93995008	63582208	25024272	24992
355	1.233422	93995008	63582208	26652976	24992
356	1.456448	93995008	63582208	28285656	24992
357	1.182916	93995008	63582208	29928208	24992
358	1.628031	93995008	63582208	15243768	24992
359	1.228018	93995008	63582208	16888256	24992
360	1.252799	93995008	63582208	18554344	24992
361	1.25975	93995008	63582208	20229032	24992
362	1.252891	93995008	63582208	21907672	24992
363	1.269276	93995008	63582208	23591744	24992
364	1.264965	93995008	63582208	25278240	24992
365	1.215562	93995008	63582208	26968624	24992
366	1.215532	93995008	63582208	28662840	24992
367	1.23448	93995008	63582208	30361120	24992
368	1.221209	93995008	63582208	15830584	24992
369	1.292581	93995008	63582208	17536600	24992
370	1.261738	93995008	63582208	19249336	24992
371	1.285644	93995008	63582208	20963256	24992
372	1.294986	93995008	63582208	22681168	24992
373	1.502977	93995008	63582208	24415128	24992
374	1.299704	93995008	63582208	26140864	24992
375	1.302583	93995008	63582208	27870600	24992
376	1.304852	93995008	63582208	29605248	24992
377	1.894105	93995008	63582208	15065336	24992
378	1.245309	93995008	63582208	16806832	24992
379	1.311758	93995008	63582208	18552280	24992
380	1.323876	93995008	63582208	20301680	24992
381	1.36512	93995008	63582208	22055112	24992
382	1.320956	93995008	63582208	23812504	24992
383	1.321541	93995008	63582208	25573768	24992
384	1.334976	93995008	63582208	27338880	24992
385	1.331712	93995008	63582208	29108120	24992
386	1.331092	93995008	63582208	30884056	24992
387	1.34253	93995008	63582208	16352960	24992
388	1.361808	93995008	63582208	18133840	24992
389	1.359	93995008	63582208	19924864	24992
390	1.309563	93995008	63582208	21713664	24992
391	1.344302	93995008	63582208	23506352	24992
392	1.362441	93995008	63582208	25303160	24992
393	1.358913	93995008	63582208	27103784	24992
394	1.357464	93995008	63582208	28914328	24992
395	1.367536	93995008	63582208	30722824	24992
396	1.382979	93995008	63582208	16228464	24992
397	1.564093	93995008	63582208	18044752	24992
398	1.379535	93995008	63582208	19865280	24992
399	1.373203	93995008	63582208	21703824	24992
400	1.383016	93995008	63582208	23532072	24992
401	1.530629	93995008	63582208	25367280	24992
402	1.387293	93995008	63582208	27203568	24992
403	1.385621	93995008	63582208	29043552	24992
404	1.392382	93995008	63582208	30889832	24992
405	1.40082	93995008	63582208	16433856	24992
406	1.40399	93995008	63582208	18285736	24992
407	1.396552	93995008	63582208	20145480	24992
408	1.406741	93995008	63582208	22005168	24992
409	1.367021	93995008	63582208	23888264	24992
410	1.346911	93995008	63582208	25784904	24992
411	1.415199	93995008	63582208	27672944	24992
412	1.414575	93995008	63582208	29572328	24992
413	1.797997	93995008	63582208	15252224	24992
414	1.420293	93995008	63582208	17172912	24992
415	1.435014	93995008	63582208	19076624	24992
416	1.435756	93995008	63582208	20984384	24992
417	1.43303	93995008	63582208	22937272	24992
418	1.433894	93995008	63582208	24936120	24992
419	1.446238	93995008	63582208	26927824	24992
420	1.582791	93995008	63582208	28916984	24992
421	1.452836	93995008	63582208	30910176	24992
422	1.449729	93995008	63582208	16607088	24992
423	1.463275	93995008	63582208	18608176	24992
424	1.62971	93995008	63582208	20613296	24992
425	1.470076	93995008	63582208	22622224	24992
426	1.471274	93995008	63582208	24635040	24992
427	1.467863	93995008	63582208	26651912	24992
428	1.469277	93995008	63582208	28676392	24992
429	1.4722	93995008	63582208	30708168	24992
430	1.497048	93995008	63582208	16470624	24992
431	1.699966	93995008	63582208	18503160	24992
432	1.457639	93995008	63582208	20539656	24992
433	1.475598	93995008	63582208	22580112	24992
434	1.487445	93995008	63582208	24624640	24992
435	1.631275	93995008	63582208	26675728	24992
436	1.503227	93995008	63582208	28729816	24992
437	1.503853	93995008	63582208	30796280	24992
438	1.507933	93995008	63582208	16562000	24992
439	1.701962	93995008	63582208	18626128	24992
440	1.500828	93995008	63582208	20694216	24992
441	1.503716	93995008	63582208	22766192	24992
442	1.719006	93995008	63582208	24842128	24992
443	1.547135	93995008	63582208	26921992	24992
444	1.53745	93995008	63582208	29005872	24992
445	1.481404	93995008	63582208	31093704	24992
446	1.520277	93995008	63582208	16912816	24992
447	1.529908	93995008	63582208	19018736	24992
448	1.493782	93995008	63582208	21118472	24992
449	1.550895	93995008	63582208	23221920	24992
450	1.577958	93995008	63582208	25329352	24992
451	1.534076	93995008	63582208	27440768	24992
452	1.544205	93995008	63582208	29555992	24992
453	1.971714	93995008	63582208	15470184	24992
454	1.551802	93995008	63582208	17593376	24992
455	1.550801	93995008	63582208	19720528	24992
456	1.758127	93995008	63582208	21851640	24992
457	1.566518	93995008	63582208	23986608	24992
458	1.559757	93995008	63582208	26125536	24992
459	1.482639	93995008	63582208	28272256	24992
460	1.489938	93995008	63582208	30435624	24992
461	1.574519	93995008	63582208	16410136	24992
462	1.568409	93995008	63582208	18604648	24992
463	1.782711	93995008	63582208	20763296	24992
464	1.594739	93995008	63582208	22925928	24992
465	1.587447	93995008	63582208	25092368	24992
466	1.58335	93995008	63582208	27270032	24992
467	1.592927	93995008	63582208	29461208	24992
468	1.918779	93995008	63582208	15440632	24992
469	1.556633	93995008	63582208	17628552	24992
470	1.528767	93995008	63582208	19814744	24992
471	1.611844	93995008	63582208	22004888	24992
472	1.609858	93995008	63582208	24213024	24992
473	1.822764	93995008	63582208	26414528	24992
474	1.532744	93995008	63582208	28616480	24992
475	1.606984	93995008	63582208	30822320	24992
476	1.558513	93995008	63582208	16803280	24992
477	1.536285	93995008	63582208	19016904	24992
478	1.627752	93995008	63582208	21241448	24992
479	1.630307	93995008	63582208	23463216	24992
480	1.644616	93995008	63582208	25688728	24992
481	1.635842	93995008	63582208	27918224	24992
482	1.649532	93995008	63582208	30151712	24992
483	2.183465	93995008	63582208	16103840	24992
484	1.656753	93995008	63582208	18345232	24992
485	1.656311	93995008	63582208	20590408	24992
486	1.636162	93995008	63582208	22843000	24992
487	1.650773	93995008	63582208	25096168	24992
488	1.652246	93995008	63582208	27353232	24992
489	1.671923	93995008	63582208	29627064	24992
490	2.090539	93995008	63582208	15704824	24992
491	1.662927	93995008	63582208	17973784	24992
492	1.663444	93995008	63582208	20247536	24992
493	1.627844	93995008	63582208	22524344	24992
494	1.691295	93995008	63582208	24805056	24992
495	1.970938	93995008	63582208	27102936	24992
496	1.882067	93995008	63582208	29393560	24992
497	2.130947	93995008	63582208	15513544	24992
498	1.692792	93995008	63582208	17824944	24992
499	1.707474	93995008	63582208	20125408	24992
500	1.728961	93995008	63582208	22448072	24992
501	1.703307	93995008	63582208	24758904	24992
502	1.888466	93995008	63582208	27072320	24992
503	1.611106	93995008	63582208	29388512	24992
504	2.144829	93995008	63582208	15535272	24992
505	1.627993	93995008	63582208	17877672	24992
506	1.705206	93995008	63582208	20205664	24992
507	1.713656	93995008	63582208	22557120	24992
508	1.713096	93995008	63582208	24892952	24992
509	1.714758	93995008	63582208	27233264	24992
510	1.715489	93995008	63582208	29597208	24992
511	2.166603	93995008	63582208	15767360	24992
512	1.720855	93995008	63582208	18122816	24992
513	1.723069	93995008	63582208	20491656	24992
514	1.731418	93995008	63582208	22851160	24992
515	1.658486	93995008	63582208	25216568	24992
516	1.699609	93995008	63582208	27592840	24992
517	1.732606	93995008	63582208	29964264	24992
518	2.298404	93995008	63582208	16082712	24992
519	1.706204	93995008	63582208	18471472	24992
520	1.733223	93995008	63582208	20865848	24992
521	1.921532	93995008	63582208	23252888	24992
522	1.789325	93995008	63582208	25647456	24992
523	1.736654	93995008	63582208	28042384	24992
524	1.808467	93995008	63582208	30444760	24992
525	2.066582	93995008	63582208	16480928	24992
526	1.737518	93995008	63582208	18903560	24992
527	1.953883	93995008	63582208	21314328	24992
528	1.803639	93995008	63582208	23735576	24992
529	1.767098	93995008	63582208	26155392	24992
530	1.980214	93995008	63582208	28577848	24992
531	1.806708	93995008	63582208	31020480	24992
532	1.808349	93995008	63582208	17248192	24992
533	1.84113	93995008	63582208	19689656	24992
534	1.808879	93995008	63582208	22130088	24992
535	1.811013	93995008	63582208	24572848	24992
536	1.986551	93995008	63582208	27018920	24992
537	1.819297	93995008	63582208	29470080	24992
538	2.258898	93995008	63582208	15769816	24992
539	1.969277	93995008	63582208	18228184	24992
540	1.743575	93995008	63582208	20691952	24992
541	1.779034	93995008	63582208	23157984	24992
542	1.847314	93995008	63582208	25641848	24992
543	1.852076	93995008	63582208	28115560	24992
544	1.83328	93995008	63582208	30600000	24992
545	2.014841	93995008	63582208	16721936	24992
546	1.839712	93995008	63582208	19220360	24992
547	1.838618	93995008	63582208	21730864	24992
548	1.787164	93995008	63582208	24225456	24992
549	1.763051	93995008	63582208	26724400	24992
550	1.84566	93995008	63582208	29225688	24992
551	1.849419	93995008	63582208	31731616	24992
552	1.855791	93995008	63582208	17907832	24992
553	1.849768	93995008	63582208	20421040	24992
554	1.814668	93995008	63582208	22959576	24992
555	1.891657	93995008	63582208	25485696	24992
556	1.864215	93995008	63582208	28037864	24992
557	1.867397	93995008	63582208	30607160	24992
558	1.869284	93995008	63582208	16833168	24992
559	1.876083	93995008	63582208	19425144	24992
560	1.88112	93995008	63582208	22009296	24992
561	1.881478	93995008	63582208	24593304	24992
562	1.880392	93995008	63582208	27177424	24992
563	1.799467	93995008	63582208	29778136	24992
564	2.330043	93995008	63582208	16181064	24992
565	2.114564	93995008	63582208	18780128	24992
566	1.908053	93995008	63582208	21379592	24992
567	1.913181	93995008	63582208	23985048	24992
568	1.918126	93995008	63582208	26591280	24992
569	1.892104	93995008	63582208	29209416	24992
570	1.919559	93995008	63582208	31823712	24992
571	1.823612	93995008	63582208	18110632	24992
572	1.922545	93995008	63582208	20750312	24992
573	1.922564	93995008	63582208	23377160	24992
574	1.879709	93995008	63582208	26013000	24992
575	1.9212	93995008	63582208	28651872	24992
576	1.931723	93995008	63582208	31289632	24992
577	1.93558	93995008	63582208	17709328	24992
578	1.952918	93995008	63582208	20354904	24992
579	2.154013	93995008	63582208	23012384	24992
580	1.952113	93995008	63582208	25665880	24992
581	1.955448	93995008	63582208	28323400	24992
582	2.108592	93995008	63582208	31009976	24992
583	1.959666	93995008	63582208	17531064	24992
584	1.874644	93995008	63582208	20203608	24992
585	1.862717	93995008	63582208	22896232	24992
586	1.968057	93995008	63582208	25576952	24992
587	1.870109	93995008	63582208	28258200	24992
588	1.91794	93995008	63582208	30945104	24992
589	1.993395	93995008	63582208	17497304	24992
590	2.184444	93995008	63582208	20190256	24992
591	1.98172	93995008	63582208	22887080	24992
592	1.994687	93995008	63582208	25587960	24992
593	1.971118	93995008	63582208	28292696	24992
594	1.987506	93995008	63582208	31001312	24992
595	2.000016	93995008	63582208	17576464	24992
596	1.897386	93995008	63582208	20296056	24992
597	1.902143	93995008	63582208	23020144	24992
598	2.001836	93995008	63582208	25746184	24992
599	2.209074	93995008	63582208	28474448	24992
600	1.917996	93995008	63582208	31206896	24992
601	2.036842	93995008	63582208	17807464	24992
602	2.018444	93995008	63582208	20547784	24992
603	2.012824	93995008	63582208	23304744	24992
604	1.934515	93995008	63582208	26052696	24992
605	2.024696	93995008	63582208	28805592	24992
606	2.050286	93995008	63582208	31569520	24992
607	2.044025	93995008	63582208	18084936	24992
608	2.036987	93995008	63582208	20854048	24992
609	2.044805	93995008	63582208	23621904	24992
610	1.999491	93995008	63582208	26393600	24992
611	2.030974	93995008	63582208	29176248	24992
612	1.950379	93995008	63582208	31971304	24992
613	2.048003	93995008	63582208	18470424	24992
614	2.050623	93995008	63582208	21257912	24992
615	2.0618	93995008	63582208	24051472	24992
616	2.080364	93995008	63582208	26846992	24992
617	2.058462	93995008	63582208	29662128	24992
618	2.536163	93995008	63582208	16341360	24992
619	2.065798	93995008	63582208	19157712	24992
620	2.069205	93995008	63582208	21969232	24992
621	2.026905	93995008	63582208	24787096	24992
622	2.252467	93995008	63582208	27630328	24992
623	2.072343	93995008	63582208	30458488	24992
624	2.428952	93995008	63582208	17048576	24992
625	1.988455	93995008	63582208	19879816	24992
626	1.993589	93995008	63582208	22714648	24992
627	1.990773	93995008	63582208	25557544	24992
628	2.104524	93995008	63582208	28400200	24992
629	2.106255	93995008	63582208	31247232	24992
630	2.127763	93995008	63582208	17977432	24992
631	2.094557	93995008	63582208	20834128	24992
632	2.101574	93995008	63582208	23696208	24992
633	2.107473	93995008	63582208	26558576	24992
634	2.092746	93995008	63582208	29428464	24992
635	2.70913	93995008	63582208	16190984	24992
636	2.088806	93995008	63582208	19080696	24992
637	2.03913	93995008	63582208	21958784	24992
638	2.029818	93995008	63582208	24841728	24992
639	2.120237	93995008	63582208	27742448	24992
640	2.093892	93995008	63582208	30638144	24992
641	2.454053	93995008	63582208	17246344	24992
642	2.149039	93995008	63582208	20146264	24992
643	2.14641	93995008	63582208	23047912	24992
644	2.14148	93995008	63582208	25961168	24992
645	2.145653	93995008	63582208	28870608	24992
646	2.1712	93995008	63582208	31784072	24992
647	2.17294	93995008	63582208	18473744	24992
648	2.163399	93995008	63582208	21395184	24992
649	2.156347	93995008	63582208	24351328	24992
650	2.161185	93995008	63582208	27290688	24992
651	2.172607	93995008	63582208	30224008	24992
652	2.537729	93995008	63582208	16932448	24992
653	2.379099	93995008	63582208	19881336	24992
654	2.169411	93995008	63582208	22854544	24992
655	2.173992	93995008	63582208	25805152	24992
656	2.192842	93995008	63582208	28758064	24992
657	2.199538	93995008	63582208	31722024	24992
658	2.143461	93995008	63582208	18479904	24992
659	2.189395	93995008	63582208	21467496	24992
660	2.37174	93995008	63582208	24440512	24992
661	2.20515	93995008	63582208	27413072	24992
662	2.196444	93995008	63582208	30389520	24992
663	2.566971	93995008	63582208	17147248	24992
664	2.199427	93995008	63582208	20156400	24992
665	2.401167	93995008	63582208	23144720	24992
666	2.211263	93995008	63582208	26149680	24992
667	2.215792	93995008	63582208	29150456	24992
668	2.128833	93995008	63582208	32150704	24992
669	2.130251	93995008	63582208	18929584	24992
670	2.249043	93995008	63582208	21954528	24992
671	2.233909	93995008	63582208	24966528	24992
672	2.223461	93995008	63582208	27984552	24992
673	2.251016	93995008	63582208	31009808	24992
674	2.273792	93995008	63582208	17960680	24992
675	2.227984	93995008	63582208	20990016	24992
676	2.24651	93995008	63582208	24045192	24992
677	2.263418	93995008	63582208	27080896	24992
678	2.259445	93995008	63582208	30120432	24992
679	2.655808	93995008	63582208	16972312	24992
680	2.237642	93995008	63582208	20024792	24992
681	2.160984	93995008	63582208	23081664	24992
682	2.428723	93995008	63582208	26158168	24992
683	2.264725	93995008	63582208	29227752	24992
684	2.27153	93995008	63582208	32308768	24992
685	2.281651	93995008	63582208	19096088	24992
686	2.281859	93995008	63582208	22195784	24992
687	2.296234	93995008	63582208	25293464	24992
688	2.266979	93995008	63582208	28391144	24992
689	2.47926	93995008	63582208	31497160	24992
690	2.262688	93995008	63582208	18510784	24992
691	2.293047	93995008	63582208	21635904	24992
692	2.308644	93995008	63582208	24750024	24992
693	2.307149	93995008	63582208	27891792	24992
694	2.476422	93995008	63582208	31015128	24992
695	2.329441	93995008	63582208	17794024	24992
696	2.490931	93995008	63582208	20923008	24992
697	2.266295	93995008	63582208	24053976	24992
698	2.318282	93995008	63582208	27188744	24992
699	2.262553	93995008	63582208	30347744	24992
700	2.698422	93995008	63582208	17282248	24992
701	2.322778	93995008	63582208	20445640	24992
702	2.322126	93995008	63582208	23601240	24992
703	2.781806	93995008	63582208	26768288	24992
704	2.344215	93995008	63582208	29926824	24992
705	2.814845	93995008	63582208	17001400	24992
706	2.349193	93995008	63582208	20167760	24992
707	2.349011	93995008	63582208	23349560	24992
708	2.244355	93995008	63582208	26523856	24992
709	2.360737	93995008	63582208	29708576	24992
710	2.853494	93995008	63582208	16819912	24992
711	2.363143	93995008	63582208	20008616	24992
712	2.563823	93995008	63582208	23222792	24992
713	2.407696	93995008	63582208	26443632	24992
714	2.309662	93995008	63582208	29641360	24992
715	2.747594	93995008	63582208	16768552	24992
716	2.397259	93995008	63582208	19974136	24992
717	2.342517	93995008	63582208	23185616	24992
718	2.330648	93995008	63582208	26400936	24992
719	2.376666	93995008	63582208	29628512	24992
720	2.867628	93995008	63582208	16778056	24992
721	2.522309	93995008	63582208	20003480	24992
722	2.350778	93995008	63582208	23234000	24992
723	2.389274	93995008	63582208	26467376	24992
724	2.397075	93995008	63582208	29704560	24992
725	2.897089	93995008	63582208	16876296	24992
726	2.34874	93995008	63582208	20122672	24992
727	2.410959	93995008	63582208	23372208	24992
728	2.541175	93995008	63582208	26627816	24992
729	2.404093	93995008	63582208	29884736	24992
730	2.899194	93995008	63582208	17080152	24992
731	2.429173	93995008	63582208	20355512	24992
732	2.417557	93995008	63582208	23632000	24992
733	2.397565	93995008	63582208	26904896	24992
734	2.396333	93995008	63582208	30188728	24992
735	2.861296	93995008	63582208	17274128	24992
736	2.447024	93995008	63582208	20563416	24992
737	2.551938	93995008	63582208	23853320	24992
738	2.439062	93995008	63582208	27178968	24992
739	2.459379	93995008	63582208	30475328	24992
740	2.815411	93995008	63582208	17576344	24992
741	2.640529	93995008	63582208	20883136	24992
742	2.404545	93995008	63582208	24203736	24992
743	2.453042	93995008	63582208	27515888	24992
744	2.429554	93995008	63582208	30848744	24992
745	2.797004	93995008	63582208	17909080	24992
746	2.462777	93995008	63582208	21232984	24992
747	2.477085	93995008	63582208	24560888	24992
748	2.60238	93995008	63582208	27892608	24992
749	2.476308	93995008	63582208	31228432	24992
750	2.62733	93995008	63582208	18509184	24992
751	2.475164	93995008	63582208	21859512	24992
752	2.561898	93995008	63582208	25235232	24992
753	2.494055	93995008	63582208	28589176	24992
754	2.479808	93995008	63582208	31950712	24992
755	2.514552	93995008	63582208	19132048	24992
756	2.392883	93995008	63582208	22498632	24992
757	2.515594	93995008	63582208	25866504	24992
758	2.525688	93995008	63582208	29237560	24992
759	2.392076	93995008	63582208	32612680	24992
760	2.470485	93995008	63582208	19754864	24992
761	2.519506	93995008	63582208	23145424	24992
762	2.405094	93995008	63582208	26532440	24992
763	2.699254	93995008	63582208	29928904	24992
764	2.865312	93995008	63582208	17275960	24992
765	2.651033	93995008	63582208	20675144	24992
766	2.526592	93995008	63582208	24094712	24992
767	2.531735	93995008	63582208	27501368	24992
768	2.543503	93995008	63582208	30920400	24992
769	2.864121	93995008	63582208	18079736	24992
770	2.554576	93995008	63582208	21505200	24992
771	2.55384	93995008	63582208	24928400	24992
772	2.659183	93995008	63582208	28370984	24992
773	2.441085	93995008	63582208	31815704	24992
774	2.457257	93995008	63582208	19215696	24992
775	2.59336	93995008	63582208	22654064	24992
776	2.557659	93995008	63582208	26105192	24992
777	2.569613	93995008	63582208	29578376	24992
778	3.230114	93995008	63582208	17006288	24992
779	2.585597	93995008	63582208	20460096	24992
780	2.592344	93995008	63582208	23937016	24992
781	2.577212	93995008	63582208	27411000	24992
782	2.80263	93995008	63582208	30909328	24992
783	2.969258	93995008	63582208	18174856	24992
784	2.745359	93995008	63582208	21654496	24992
785	2.573947	93995008	63582208	25131984	24992
786	2.76337	93995008	63582208	28631560	24992
787	2.601143	93995008	63582208	32141464	24992
788	2.699216	93995008	63582208	19481320	24992
789	2.59398	93995008	63582208	23001232	24992
790	2.620749	93995008	63582208	26505232	24992
791	2.617999	93995008	63582208	30006752	24992
792	3.340747	93995008	63582208	17517992	24992
793	2.528234	93995008	63582208	21028168	24992
794	2.555412	93995008	63582208	24544992	24992
795	2.631674	93995008	63582208	28091952	24992
796	2.633502	93995008	63582208	31612736	24992
797	2.648774	93995008	63582208	19127984	24992
798	2.621061	93995008	63582208	22656744	24992
799	2.582534	93995008	63582208	26202032	24992
800	2.629484	93995008	63582208	29741392	24992
801	3.196438	93995008	63582208	17313104	24992
802	2.55553	93995008	63582208	20857560	24992
803	2.56203	93995008	63582208	24418584	24992
804	2.652676	93995008	63582208	28006808	24992
805	2.65042	93995008	63582208	31563024	24992
806	2.668946	93995008	63582208	19113376	24992
807	2.540509	93995008	63582208	22693904	24992
808	2.666735	93995008	63582208	26292424	24992
809	2.685195	93995008	63582208	29864448	24992
810	3.236346	93995008	63582208	17434896	24992
811	2.631034	93995008	63582208	21041944	24992
812	2.676681	93995008	63582208	24654184	24992
813	2.669684	93995008	63582208	28266456	24992
814	2.689117	93995008	63582208	31878696	24992
815	2.586155	93995008	63582208	19472880	24992
816	2.704848	93995008	63582208	23077888	24992
817	2.640861	93995008	63582208	26691056	24992
818	2.705387	93995008	63582208	30304288	24992
819	3.246036	93995008	63582208	17818448	24992
820	2.724864	93995008	63582208	21451864	24992
821	2.841497	93995008	63582208	25081688	24992
822	2.649696	93995008	63582208	28707408	24992
823	2.638086	93995008	63582208	32336216	24992
824	2.655397	93995008	63582208	19844592	24992
825	2.714039	93995008	63582208	23479768	24992
826	2.723326	93995008	63582208	27118872	24992
827	2.817395	93995008	63582208	30799576	24992
828	3.191929	93995008	63582208	18296904	24992
829	2.72335	93995008	63582208	21964272	24992
830	2.717517	93995008	63582208	25658576	24992
831	2.618931	93995008	63582208	29338264	24992
832	2.734712	93995008	63582208	33064960	24992
833	2.747483	93995008	63582208	20561688	24992
834	2.71743	93995008	63582208	24264832	24992
835	2.75689	93995008	63582208	27963680	24992
836	2.742406	93995008	63582208	31658416	24992
837	2.767444	93995008	63582208	19377352	24992
838	3.13717	93995008	63582208	23113048	24992
839	2.76938	93995008	63582208	26926584	24992
840	2.780097	93995008	63582208	30702704	24992
841	3.165006	93995008	63582208	18336192	24992
842	2.984503	93995008	63582208	22121296	24992
843	2.699837	93995008	63582208	25926224	24992
844	2.953598	93995008	63582208	29718200	24992
845	3.368275	93995008	63582208	17543976	24992
846	2.792336	93995008	63582208	21365752	24992
847	2.778526	93995008	63582208	25169560	24992
848	2.93971	93995008	63582208	28982672	24992
849	2.800164	93995008	63582208	32794400	24992
850	2.900888	93995008	63582208	20522120	24992
851	2.664682	93995008	63582208	24405496	24992
852	2.837607	93995008	63582208	28280696	24992
853	2.710151	93995008	63582208	32184568	24992
854	2.695847	93995008	63582208	20114456	24992
855	2.805123	93995008	63582208	24012296	24992
856	2.812066	93995008	63582208	27903168	24992
857	2.813077	93995008	63582208	31808584	24992
858	2.880565	93995008	63582208	19762712	24992
859	2.685148	93995008	63582208	23665528	24992
860	2.826562	93995008	63582208	27613960	24992
861	2.706386	93995008	63582208	31524552	24992
862	2.867719	93995008	63582208	19171368	24992
863	3.009505	93995008	63582208	23104904	24992
864	2.784008	93995008	63582208	27057072	24992
865	2.836798	93995008	63582208	30983400	24992
866	3.376483	93995008	63582208	18784296	24992
867	3.006047	93995008	63582208	22722448	24992
868	2.838161	93995008	63582208	26685800	24992
869	2.997892	93995008	63582208	30627888	24992
870	3.368406	93995008	63582208	18439488	24992
871	2.843012	93995008	63582208	22389400	24992
872	2.865899	93995008	63582208	26343384	24992
873	2.7356	93995008	63582208	30323944	24992
874	3.44452	93995008	63582208	18251064	24992
875	3.065129	93995008	63582208	22224848	24992
876	2.867567	93995008	63582208	26210336	24992
877	2.881876	93995008	63582208	30183832	24992
878	3.761599	93995008	63582208	18210568	24992
879	2.888658	93995008	63582208	22199096	24992
880	3.075661	93995008	63582208	26224360	24992
881	2.883411	93995008	63582208	30213712	24992
882	3.595736	93995008	63582208	18258008	24992
883	2.906955	93995008	63582208	22267584	24992
884	2.820418	93995008	63582208	26296496	24992
885	2.905081	93995008	63582208	30331408	24992
886	3.595518	93995008	63582208	18335800	24992
887	2.91115	93995008	63582208	22348808	24992
888	2.911834	93995008	63582208	26397536	24992
889	2.806649	93995008	63582208	30459304	24992
890	3.578004	93995008	63582208	18410224	24992
891	3.346689	93995008	63582208	22439016	24992
892	2.783966	93995008	63582208	26474352	24992
893	3.059136	93995008	63582208	30523744	24992
894	3.763015	93995008	63582208	18503904	24992
895	2.933612	93995008	63582208	22548552	24992
896	2.920724	93995008	63582208	26596968	24992
897	2.962278	93995008	63582208	30656648	24992
898	3.506316	93995008	63582208	18598944	24992
899	3.114356	93995008	63582208	22659352	24992
900	3.26087	93995008	63582208	26723600	24992
901	3.123106	93995008	63582208	30796592	24992
902	3.399418	93995008	63582208	18743064	24992
903	2.959792	93995008	63582208	22872808	24992
904	2.957225	93995008	63582208	27000664	24992
905	2.835845	93995008	63582208	31129632	24992
906	3.481652	93995008	63582208	19130744	24992
907	3.145046	93995008	63582208	23222560	24992
908	2.981744	93995008	63582208	27318328	24992
909	2.905019	93995008	63582208	31417936	24992
910	3.517496	93995008	63582208	19340488	24992
911	3.089021	93995008	63582208	23455976	24992
912	2.930747	93995008	63582208	27584728	24992
913	3.071847	93995008	63582208	31721856	24992
914	3.013973	93995008	63582208	19635496	24992
915	2.998752	93995008	63582208	23758808	24992
916	2.995165	93995008	63582208	27885952	24992
917	2.871976	93995008	63582208	32017056	24992
918	3.360058	93995008	63582208	20217088	24992
919	3.009719	93995008	63582208	24356160	24992
920	2.968735	93995008	63582208	28499192	24992
921	2.956688	93995008	63582208	32669176	24992
922	3.051599	93995008	63582208	20832656	24992
923	3.01782	93995008	63582208	25009224	24992
924	3.025955	93995008	63582208	29197352	24992
925	3.201586	93995008	63582208	33373240	24992
926	2.90659	93995008	63582208	21427640	24992
927	3.1747	93995008	63582208	25637064	24992
928	3.041438	93995008	63582208	29835640	24992
929	3.782942	93995008	63582208	18088440	24992
930	3.040144	93995008	63582208	22270968	24992
931	3.045725	93995008	63582208	26457368	24992
932	3.231357	93995008	63582208	30647656	24992
933	3.738237	93995008	63582208	18795544	24992
934	3.045474	93995008	63582208	22997952	24992
935	3.065408	93995008	63582208	27204224	24992
936	2.920714	93995008	63582208	31450944	24992
937	3.673842	93995008	63582208	19545568	24992
938	3.066946	93995008	63582208	23760920	24992
939	3.078317	93995008	63582208	27978752	24992
940	3.062538	93995008	63582208	32200536	24992
941	3.113571	93995008	63582208	20532040	24992
942	3.088066	93995008	63582208	24809608	24992
943	3.053588	93995008	63582208	29043200	24992
944	3.08018	93995008	63582208	33280848	24992
945	3.09651	93995008	63582208	21405432	24992
946	3.303313	93995008	63582208	25701584	24992
947	3.098075	93995008	63582208	30000912	24992
948	3.727143	93995008	63582208	18337904	24992
949	3.006556	93995008	63582208	22635680	24992
950	3.110674	93995008	63582208	26938192	24992
951	3.294157	93995008	63582208	31203376	24992
952	3.78277	93995008	63582208	19361616	24992
953	3.289982	93995008	63582208	23634744	24992
954	3.092431	93995008	63582208	27911704	24992
955	3.128667	93995008	63582208	32199256	24992
956	3.253028	93995008	63582208	20568280	24992
957	3.147945	93995008	63582208	24869320	24992
958	3.432384	93995008	63582208	29161944	24992
959	3.054251	93995008	63582208	33462824	24992
960	3.07852	93995008	63582208	21689072	24992
961	3.135631	93995008	63582208	26019928	24992
962	3.172481	93995008	63582208	30328320	24992
963	4.21172	93995008	63582208	18739928	24992
964	3.129129	93995008	63582208	23056264	24992
965	3.171496	93995008	63582208	27394456	24992
966	3.139092	93995008	63582208	31730288	24992
967	3.984261	93995008	63582208	19857560	24992
968	3.304337	93995008	63582208	24189600	24992
969	3.164943	93995008	63582208	28526744	24992
970	3.180436	93995008	63582208	32866808	24992
971	3.092074	93995008	63582208	21294624	24992
972	3.167937	93995008	63582208	25653696	24992
973	3.242757	93995008	63582208	30049440	24992
974	4.013134	93995008	63582208	18513864	24992
975	3.12147	93995008	63582208	22881048	24992
976	3.186915	93995008	63582208	27249392	24992
977	3.195949	93995008	63582208	31639944	24992
978	4.039758	93995008	63582208	19912880	24992
979	3.203858	93995008	63582208	24288320	24992
980	3.063904	93995008	63582208	28672896	24992
981	3.201727	93995008	63582208	33056184	24992
982	3.229829	93995008	63582208	21417488	24992
983	3.345068	93995008	63582208	25808608	24992
984	3.210268	93995008	63582208	30205288	24992
985	4.043628	93995008	63582208	18703536	24992
986	3.208118	93995008	63582208	23131208	24992
987	3.232313	93995008	63582208	27563576	24992
988	3.4274	93995008	63582208	31986232	24992
989	3.892707	93995008	63582208	20133072	24992
990	3.208763	93995008	63582208	24556728	24992
991	3.236697	93995008	63582208	28979472	24992
992	3.23568	93995008	63582208	33412792	24992
993	3.466165	93995008	63582208	21745528	24992
994	3.110687	93995008	63582208	26179936	24992
995	3.175863	93995008	63582208	30618328	24992
996	4.309902	93995008	63582208	19205120	24992
997	3.252644	93995008	63582208	23651576	24992
998	3.254132	93995008	63582208	28101840	24992
999	3.213842	93995008	63582208	32583192	24992
1000	3.251684	93995008	63582208	21150320	24992
