x	Duration	RSS	HeapTotal	HeapUsed	External
0	NA	93851648	63057920	12508584	24992
1	0.370811	93851648	63057920	12557104	24992
2	0.303809	93851648	63057920	12628800	24992
3	0.181424	93851648	63057920	12733952	24992
4	0.180755	93851648	63057920	12824912	24992
5	0.218646	93851648	63057920	12919752	24992
6	0.196237	93851648	63057920	13018904	24992
7	0.198905	93851648	63057920	13122472	24992
8	0.203115	93851648	63057920	13229816	24992
9	0.208083	93851648	63057920	13340936	24992
10	0.219234	93851648	63057920	13455920	24992
11	0.22482	93851648	63057920	13574576	24992
12	0.233749	93851648	63057920	13699264	24992
13	0.238306	93851648	63057920	13828880	24992
14	0.158845	93851648	63057920	13962264	24992
15	0.144143	93851648	63057920	14099424	24992
16	0.148638	93851648	63057920	14240360	24992
17	0.402338	93851648	63057920	14386176	24992
18	0.166333	93851648	63057920	14535768	24992
19	0.164269	93851648	63057920	14689464	24992
20	0.163463	93851648	63057920	14846560	24992
21	0.171609	93851648	63057920	15007488	24992
22	0.172272	93851648	63057920	15172128	24992
23	0.196852	93851648	63057920	15340544	24992
24	0.195291	93851648	63057920	15516568	24992
25	0.177788	93851648	63057920	15694712	24992
26	0.179339	93851648	63057920	15878808	24992
27	0.184015	93851648	63057920	16066720	24992
28	0.186613	93851648	63057920	16258336	24992
29	0.264356	93851648	63057920	16453728	24992
30	0.197709	93851648	63057920	16652896	24992
31	0.200535	93851648	63057920	16856776	24992
32	0.386231	93851648	63057920	17063504	24992
33	0.212273	93851648	63057920	17273992	24992
34	0.230207	93851648	63057920	17492784	24992
35	0.20334	93851648	63057920	17712680	24992
36	0.203033	93851648	63057920	17936304	24992
37	0.205199	93851648	63057920	18163776	24992
38	0.207923	93851648	63057920	18394944	24992
39	0.211443	93851648	63057920	18630016	24992
40	0.215078	93851648	63057920	18868736	24992
41	0.386119	93851648	63057920	19111232	24992
42	0.222079	93851648	63057920	19357552	24992
43	0.223552	93851648	63057920	19609696	24992
44	0.228943	93851648	63057920	19865624	24992
45	0.229188	93851648	63057920	20125976	24992
46	0.231016	93851648	63057920	20389424	24992
47	0.234884	93851648	63057920	20656648	24992
48	0.238757	93851648	63057920	20927664	24992
49	0.243352	93851648	63057920	21202440	24992
50	0.245572	93851648	63057920	21481008	24992
51	0.250907	93851648	63057920	21767496	24992
52	0.253352	93851648	63057920	22061936	24992
53	0.257319	93851648	63057920	22360296	24992
54	0.322786	93851648	63057920	22662368	24992
55	0.284272	93851648	63057920	22968904	24992
56	0.265366	93851648	63057920	23278520	24992
57	0.270778	93851648	63057920	23591920	24992
58	0.27033	93851648	63057920	23909104	24992
59	0.273816	93851648	63057920	24230032	24992
60	0.274594	93851648	63057920	24554792	24992
61	0.278652	93851648	63057920	24883296	24992
62	0.483826	93851648	63057920	25215536	24992
63	0.284767	93851648	63057920	25553240	24992
64	0.28893	93851648	63057920	25893024	24992
65	0.290405	93851648	63057920	26236664	24992
66	0.2915	93851648	63057920	26584008	24992
67	0.297656	93851648	63057920	26935104	24992
68	0.307642	93851648	63057920	27289984	24992
69	0.32154	93851648	63057920	27648976	24992
70	0.340994	93851648	63057920	28011456	24992
71	0.307791	93851648	63057920	28377632	24992
72	0.309548	93851648	63057920	28747584	24992
73	1.085409	93851648	63057920	12988104	24992
74	0.327766	93851648	63057920	13365656	24992
75	0.325368	93851648	63057920	13746936	24992
76	0.327356	93851648	63057920	14131960	24992
77	0.326317	93851648	63057920	14525000	24992
78	0.332287	93851648	63057920	14921776	24992
79	0.337313	93851648	63057920	15322312	24992
80	0.338868	93851648	63057920	15726784	24992
81	0.37562	93851648	63057920	16135952	24992
82	0.347445	93851648	63057920	16547760	24992
83	0.35939	93851648	63057920	16963328	24992
84	0.351528	93851648	63057920	17383744	24992
85	0.355832	93851648	63057920	17806792	24992
86	0.353603	93851648	63057920	18233648	24992
87	0.356898	93851648	63057920	18664280	24992
88	0.361729	93851648	63057920	19098680	24992
89	0.364923	93851648	63057920	19536920	24992
90	0.370136	93851648	63057920	19978848	24992
91	0.369894	93851648	63057920	20424528	24992
92	0.371957	93851648	63057920	20875176	24992
93	0.378363	93851648	63057920	21328392	24992
94	0.384357	93851648	63057920	21785424	24992
95	0.383395	93851648	63057920	22246216	24992
96	0.387004	93851648	63057920	22715752	24992
97	0.392377	93851648	63057920	23188280	24992
98	0.396217	93851648	63057920	23664544	24992
99	0.395198	93851648	63057920	24144576	24992
100	0.397544	93851648	63057920	24628384	24992
101	0.402394	93851648	63057920	25115928	24992
102	0.401129	93851648	63057920	25607248	24992
103	0.409489	93851648	63057920	26102624	24992
104	0.440998	93851648	63057920	26609848	24992
105	0.441165	93851648	63057920	27129336	24992
106	0.477479	93851648	63057920	27653288	24992
107	0.425707	93851648	63057920	28180104	24992
108	0.423621	93851648	63057920	28710688	24992
109	0.42423	93851648	63057920	29245736	24992
110	0.469283	93851648	63057920	13580176	24992
111	0.458735	93851648	63057920	14122120	24992
112	0.465159	93851648	63057920	14667840	24992
113	0.464973	93851648	63057920	15217288	24992
114	0.476452	93851648	63057920	15770520	24992
115	0.607968	93851648	63057920	16327544	24992
116	0.479665	93851648	63057920	16888376	24992
117	0.525189	93851648	63057920	17455664	24992
118	0.45695	93851648	63057920	18024336	24992
119	0.45189	93851648	63057920	18596472	24992
120	0.457186	93851648	63057920	19172448	24992
121	0.460271	93851648	63057920	19752128	24992
122	0.463627	93851648	63057920	20335568	24992
123	0.46524	93851648	63057920	20922752	24992
124	0.470848	93851648	63057920	21515064	24992
125	0.469298	93851648	63057920	22109784	24992
126	0.474093	93851648	63057920	22708272	24992
127	0.481759	93851648	63057920	23310616	24992
128	0.478831	93851648	63057920	23916648	24992
129	0.495582	93851648	63057920	24526464	24992
130	0.487126	93851648	63057920	25140040	24992
131	0.489936	93851648	63057920	25757432	24992
132	0.49173	93851648	63057920	26378560	24992
133	0.511502	93851648	63057920	27003840	24992
134	0.508372	93851648	63057920	27632520	24992
135	0.500482	93851648	63057920	28270328	24992
136	0.505596	93851648	63057920	28906512	24992
137	0.99383	93851648	63057920	13278912	24992
138	0.547017	93851648	63057920	13922680	24992
139	0.548709	93851648	63057920	14570280	24992
140	0.53031	93851648	63057920	15221672	24992
141	0.52532	93851648	63057920	15876768	24992
142	0.524396	93851648	63057920	16538656	24992
143	0.526682	93851648	63057920	17204840	24992
144	0.527372	93851648	63057920	17874760	24992
145	0.532103	93851648	63057920	18544912	24992
146	0.539842	93851648	63057920	19218808	24992
147	0.535172	93851648	63057920	19896600	24992
148	0.541309	93851648	63057920	20578064	24992
149	0.539784	93851648	63057920	21263344	24992
150	0.567194	93851648	63057920	21952432	24992
151	0.549997	93851648	63057920	22645176	24992
152	0.554072	93851648	63057920	23341704	24992
153	0.559848	93851648	63057920	24042072	24992
154	0.595841	93851648	63057920	24746176	24992
155	0.594757	93851648	63057920	25454024	24992
156	0.582197	93851648	63057920	26165656	24992
157	0.574787	93851648	63057920	26881040	24992
158	0.753003	93851648	63057920	27600504	24992
159	0.816336	93851648	63057920	28323416	24992
160	0.593804	93851648	63057920	29050208	24992
161	1.026996	93851648	63057920	13478120	24992
162	0.592149	93851648	63057920	14212424	24992
163	0.588885	93851648	63057920	14950472	24992
164	0.588921	93851648	63057920	15700528	24992
165	0.593301	93851648	63057920	16454392	24992
166	0.597031	93851648	63057920	17212776	24992
167	0.602072	93851648	63057920	17974168	24992
168	0.605473	93851648	63057920	18739336	24992
169	0.603514	93851648	63057920	19508360	24992
170	0.608356	93851648	63057920	20281176	24992
171	0.615357	93851648	63057920	21057728	24992
172	0.612899	93851648	63057920	21837960	24992
173	0.618154	93851648	63057920	22622056	24992
174	0.616081	93851648	63057920	23409784	24992
175	0.624839	93851648	63057920	24201352	24992
176	0.627092	93851648	63057920	24998840	24992
177	0.659902	93851648	63057920	25799184	24992
178	0.628555	93851648	63057920	26602120	24992
179	0.632162	93851648	63057920	27408744	24992
180	0.638407	93851648	63057920	28219144	24992
181	0.646812	93851648	63057920	29033288	24992
182	1.079765	93851648	63057920	13556120	24992
183	0.660509	93851648	63057920	14377840	24992
184	0.656777	93851648	63057920	15203312	24992
185	0.855026	93851648	63057920	16032608	24992
186	0.659245	93851648	63057920	16865600	24992
187	0.731791	93851648	63057920	17705520	24992
188	0.703336	93851648	63057920	18546056	24992
189	0.705827	93851648	63057920	19390488	24992
190	0.714828	93851648	63057920	20238640	24992
191	0.709435	93851648	63057920	21090632	24992
192	0.711057	93851648	63057920	21946280	24992
193	0.782995	93851648	63057920	22806608	24992
194	0.685664	93851648	63057920	23669800	24992
195	0.703537	93851648	63057920	24536720	24992
196	0.684597	93851648	63057920	25408488	24992
197	0.688817	93851648	63057920	26283056	24992
198	0.694594	93851648	63057920	27161312	24992
199	0.694087	93851648	63057920	28043336	24992
200	0.710236	93851648	63057920	28929152	24992
201	0.705424	93851648	63057920	29826968	24992
202	0.745311	93851648	63057920	14375840	24992
203	0.745089	93851648	63057920	15281312	24992
204	0.740113	93851648	63057920	16197688	24992
205	0.906642	93851648	63057920	17110664	24992
206	0.753786	93851648	63057920	18033448	24992
207	0.924914	93851648	63057920	18953896	24992
208	0.725726	93851648	63057920	19878216	24992
209	0.724774	93851648	63057920	20822744	24992
210	0.728161	93851648	63057920	21787616	24992
211	0.730448	93851648	63057920	22756184	24992
212	0.735836	93851648	63057920	23732824	24992
213	0.73431	93851648	63057920	24710232	24992
214	0.737691	93851648	63057920	25690144	24992
215	0.766466	93851648	63057920	26673864	24992
216	0.748961	93851648	63057920	27661384	24992
217	0.757834	93851648	63057920	28652640	24992
218	0.750851	93851648	63057920	29649040	24992
219	0.806313	93851648	63057920	14340096	24992
220	0.795313	93851648	63057920	15342584	24992
221	0.839806	93851648	63057920	16348888	24992
222	0.766005	93851648	63057920	17360432	24992
223	0.773158	93851648	63057920	18377024	24992
224	0.775538	93851648	63057920	19402824	24992
225	0.775878	93851648	63057920	20424208	24992
226	0.791544	93851648	63057920	21449384	24992
227	0.780052	93851648	63057920	22478960	24992
228	0.779495	93851648	63057920	23511656	24992
229	0.784895	93851648	63057920	24550976	24992
230	0.781482	93851648	63057920	25591192	24992
231	0.791184	93851648	63057920	26643024	24992
232	0.790164	93851648	63057920	27692136	24992
233	0.857952	93851648	63057920	28750352	24992
234	0.84356	93851648	63057920	29805656	24992
235	1.033802	93851648	63057920	14529200	24992
236	0.809748	93851648	63057920	15596560	24992
237	1.033542	93851648	63057920	16663184	24992
238	0.812299	93851648	63057920	17740736	24992
239	0.819728	93851648	63057920	18814920	24992
240	0.818272	93851648	63057920	19892944	24992
241	0.863641	93851648	63057920	20974704	24992
242	0.830426	93851648	63057920	22060208	24992
243	0.826615	93851648	63057920	23149480	24992
244	0.828979	93851648	63057920	24242496	24992
245	0.83286	93851648	63057920	25339368	24992
246	0.840878	93851648	63057920	26439920	24992
247	0.83718	93851648	63057920	27544320	24992
248	1.038678	93851648	63057920	28652512	24992
249	0.897921	93851648	63057920	29764440	24992
250	0.892521	93851648	63057920	14580640	24992
251	0.888888	93851648	63057920	15707976	24992
252	0.881287	93851648	63057920	16831248	24992
253	0.861081	93851648	63057920	17958160	24992
254	1.064634	93851648	63057920	19088888	24992
255	0.868103	93851648	63057920	20223472	24992
256	0.916315	93851648	63057920	21361792	24992
257	0.865411	93851648	63057920	22510056	24992
258	0.924327	93851648	63057920	23655968	24992
259	0.873044	93851648	63057920	24805592	24992
260	1.083978	93851648	63057920	25959032	24992
261	0.888848	93851648	63057920	27116232	24992
262	0.940429	93851648	63057920	28277216	24992
263	0.885529	93851648	63057920	29441904	24992
264	1.383993	93851648	63057920	14274968	24992
265	0.904206	93851648	63057920	15447984	24992
266	1.113045	93851648	63057920	16624056	24992
267	0.90134	93851648	63057920	17803808	24992
268	1.075968	93851648	63057920	18988160	24992
269	0.910089	93851648	63057920	20180976	24992
270	0.925707	93851648	63057920	21372096	24992
271	0.914799	93851648	63057920	22567032	24992
272	0.915781	93851648	63057920	23765648	24992
273	0.945792	93851648	63057920	24968088	24992
274	0.922384	93851648	63057920	26174312	24992
275	0.923281	93851648	63057920	27384256	24992
276	0.923548	93851648	63057920	28598024	24992
277	0.925883	93851648	63057920	29819512	24992
278	0.986824	93851648	63057920	14767720	24992
279	1.009561	93851648	63057920	15992792	24992
280	0.947108	93851648	63057920	17221592	24992
281	0.953307	93851648	63057920	18454208	24992
282	0.944969	93851648	63057920	19690528	24992
283	1.153183	93851648	63057920	20930704	24992
284	0.951136	93851648	63057920	22179344	24992
285	0.962742	93851648	63057920	23427048	24992
286	0.960141	93851648	63057920	24681000	24992
287	1.159415	93851648	63057920	25945152	24992
288	0.966952	93851648	63057920	27204096	24992
289	0.964749	93851648	63057920	28466896	24992
290	0.972186	93851648	63057920	29733408	24992
291	1.022958	93851648	63057920	14732368	24992
292	1.029965	93851648	63057920	16006568	24992
293	1.023012	93851648	63057920	17284376	24992
294	1.189719	93851648	63057920	18566056	24992
295	0.984909	93851648	63057920	19851488	24992
296	0.992154	93851648	63057920	21140688	24992
297	0.988021	93851648	63057920	22433592	24992
298	1.047233	93851648	63057920	23730312	24992
299	1.077367	93851648	63057920	25030800	24992
300	1.006017	93851648	63057920	26338144	24992
301	1.014785	93851648	63057920	27646176	24992
302	1.003623	93851648	63057920	28957936	24992
303	1.019769	93851648	63057920	30273448	24992
304	1.020488	93851648	63057920	15264904	24992
305	1.024223	93851648	63057920	16593968	24992
306	1.02983	93851648	63057920	17920776	24992
307	1.021554	93851648	63057920	19256352	24992
308	1.032673	93851648	63057920	20590664	24992
309	1.027005	93851648	63057920	21928856	24992
310	1.030449	93851648	63057920	23270824	24992
311	1.032884	93851648	63057920	24616560	24992
312	1.081062	93851648	63057920	25966496	24992
313	1.093149	93851648	63057920	27319776	24992
314	1.088609	93851648	63057920	28693040	24992
315	1.154575	93851648	63057920	30054672	24992
316	1.105353	93851648	63057920	15123656	24992
317	1.066056	93851648	63057920	16491928	24992
318	1.068511	93851648	63057920	17865088	24992
319	1.060557	93851648	63057920	19241024	24992
320	1.075619	93851648	63057920	20620712	24992
321	1.082437	93851648	63057920	22004168	24992
322	1.076744	93851648	63057920	23398512	24992
323	1.08987	93851648	63057920	24789400	24992
324	1.074658	93851648	63057920	26195656	24992
325	1.080634	93851648	63057920	27595024	24992
326	1.089723	93851648	63057920	28997464	24992
327	1.0785	93851648	63057920	30403592	24992
328	1.110952	93851648	63057920	15480808	24992
329	1.083441	93851648	63057920	16895776	24992
330	1.087126	93851648	63057920	18317064	24992
331	1.111529	93851648	63057920	19738312	24992
332	1.096412	93851648	63057920	21163240	24992
333	1.103211	93851648	63057920	22591880	24992
334	1.15979	93851648	63057920	24024320	24992
335	1.114576	93851648	63057920	25462912	24992
336	1.11844	93851648	63057920	26902896	24992
337	1.110771	93851648	63057920	28346712	24992
338	1.162381	93851648	63057920	29794296	24992
339	1.527217	93851648	63057920	14873904	24992
340	1.165808	93851648	63057920	16345456	24992
341	1.133822	93851648	63057920	17820832	24992
342	1.141932	93851648	63057920	19299920	24992
343	1.129775	93851648	63057920	20782856	24992
344	1.352997	93851648	63057920	22273816	24992
345	1.193296	93851648	63057920	23764216	24992
346	1.191091	93851648	63057920	25258392	24992
347	1.196735	93851648	63057920	26759712	24992
348	1.188575	93851648	63057920	28266744	24992
349	1.401272	93851648	63057920	29772408	24992
350	1.545927	93851648	63057920	14913536	24992
351	1.221727	93851648	63057920	16426584	24992
352	1.211357	93851648	63057920	17944744	24992
353	1.21507	93851648	63057920	19465368	24992
354	1.222697	93851648	63057920	20990760	24992
355	1.219017	93851648	63057920	22526592	24992
356	1.223434	93851648	63057920	24058448	24992
357	1.480146	93851648	63057920	25594032	24992
358	1.23475	93851648	63057920	27133488	24992
359	1.230402	93851648	63057920	28676704	24992
360	1.244901	93851648	63057920	30228152	24992
361	1.241594	93851648	63057920	15496024	24992
362	1.238502	93851648	63057920	17050952	24992
363	1.231411	93851648	63057920	18618544	24992
364	1.23368	93851648	63057920	20182608	24992
365	1.23923	93851648	63057920	21749664	24992
366	1.253886	93851648	63057920	23331800	24992
367	1.256801	93851648	63057920	24905216	24992
368	1.25533	93851648	63057920	26482320	24992
369	1.258124	93851648	63057920	28063248	24992
370	1.46498	93851648	63057920	29647984	24992
371	1.630111	93851648	63057920	14930216	24992
372	1.270863	93851648	63057920	16527040	24992
373	1.284086	93851648	63057920	18123144	24992
374	1.274747	93851648	63057920	19724096	24992
375	1.277024	93851648	63057920	21335448	24992
376	1.279968	93851648	63057920	22942848	24992
377	1.320704	93851648	63057920	24553944	24992
378	1.289703	93851648	63057920	26171064	24992
379	1.29415	93851648	63057920	27789640	24992
380	1.296154	93851648	63057920	29420120	24992
381	1.695323	93851648	63057920	14784400	24992
382	1.308368	93851648	63057920	16416712	24992
383	1.314728	93851648	63057920	18050312	24992
384	1.327533	93851648	63057920	19695848	24992
385	1.315872	93851648	63057920	21342472	24992
386	1.319636	93851648	63057920	22987560	24992
387	1.299917	93851648	63057920	24640080	24992
388	1.331558	93851648	63057920	26292648	24992
389	1.314979	93851648	63057920	27949392	24992
390	1.323694	93851648	63057920	29612360	24992
391	1.69696	93851648	63057920	14958920	24992
392	1.343099	93851648	63057920	16633328	24992
393	1.540885	93851648	63057920	18306184	24992
394	1.338298	93851648	63057920	19981416	24992
395	1.525392	93851648	63057920	21674568	24992
396	1.351689	93851648	63057920	23378120	24992
397	1.338718	93851648	63057920	25068624	24992
398	1.35699	93851648	63057920	26758992	24992
399	1.528802	93851648	63057920	28453016	24992
400	1.365169	93851648	63057920	30160680	24992
401	1.365834	93851648	63057920	15604664	24992
402	1.355271	93851648	63057920	17311816	24992
403	1.364281	93851648	63057920	19020992	24992
404	1.375124	93851648	63057920	20734160	24992
405	1.407416	93851648	63057920	22450776	24992
406	1.319024	93851648	63057920	24171200	24992
407	1.566854	93851648	63057920	25895544	24992
408	1.385054	93851648	63057920	27639696	24992
409	1.385728	93851648	63057920	29371568	24992
410	1.778029	93851648	63057920	14854688	24992
411	1.402452	93851648	63057920	16610568	24992
412	1.395306	93851648	63057920	18370080	24992
413	1.412251	93851648	63057920	20133440	24992
414	1.394444	93851648	63057920	21900448	24992
415	1.404576	93851648	63057920	23671304	24992
416	1.412403	93851648	63057920	25445976	24992
417	1.417958	93851648	63057920	27236328	24992
418	1.418103	93851648	63057920	29018488	24992
419	1.410919	93851648	63057920	30843184	24992
420	1.419864	93851648	63057920	16361400	24992
421	1.415072	93851648	63057920	18220680	24992
422	1.592858	93851648	63057920	20092896	24992
423	1.425712	93851648	63057920	21959696	24992
424	1.430098	93851648	63057920	23830240	24992
425	1.441687	93851648	63057920	25730176	24992
426	1.611938	93851648	63057920	27610216	24992
427	1.451347	93851648	63057920	29492216	24992
428	1.807275	93851648	63057920	15084216	24992
429	1.4417	93851648	63057920	16979080	24992
430	1.447392	93851648	63057920	18872352	24992
431	1.453749	93851648	63057920	20769408	24992
432	1.460357	93851648	63057920	22697680	24992
433	1.658153	93851648	63057920	24602264	24992
434	1.411089	93851648	63057920	26510520	24992
435	1.462987	93851648	63057920	28426272	24992
436	1.465521	93851648	63057920	30352912	24992
437	1.667558	93851648	63057920	16032328	24992
438	1.476399	93851648	63057920	17956088	24992
439	1.482301	93851648	63057920	19883280	24992
440	1.474357	93851648	63057920	21814192	24992
441	1.484478	93851648	63057920	23778680	24992
442	1.518205	93851648	63057920	25717184	24992
443	1.543878	93851648	63057920	27659552	24992
444	1.507858	93851648	63057920	29605696	24992
445	1.862919	93851648	63057920	15250088	24992
446	1.504882	93851648	63057920	17203592	24992
447	1.501092	93851648	63057920	19177136	24992
448	1.683832	93851648	63057920	21138152	24992
449	1.520421	93851648	63057920	23103136	24992
450	1.525081	93851648	63057920	25071816	24992
451	1.517121	93851648	63057920	27044200	24992
452	1.519007	93851648	63057920	29027616	24992
453	1.51514	93851648	63057920	31011416	24992
454	1.490602	93851648	63057920	16660928	24992
455	1.469664	93851648	63057920	18663848	24992
456	1.538336	93851648	63057920	20655080	24992
457	1.536917	93851648	63057920	22650160	24992
458	1.539703	93851648	63057920	24649072	24992
459	1.542019	93851648	63057920	26651744	24992
460	1.543994	93851648	63057920	28658072	24992
461	1.553773	93851648	63057920	30668224	24992
462	1.739969	93851648	63057920	16372464	24992
463	1.560572	93851648	63057920	18390096	24992
464	1.562614	93851648	63057920	20411600	24992
465	1.559577	93851648	63057920	22437144	24992
466	1.553393	93851648	63057920	24467232	24992
467	1.567954	93851648	63057920	26525688	24992
468	1.569218	93851648	63057920	28565080	24992
469	1.761294	93851648	63057920	30613848	24992
470	1.787595	93851648	63057920	16394936	24992
471	1.581665	93851648	63057920	18442736	24992
472	1.587947	93851648	63057920	20494376	24992
473	1.584421	93851648	63057920	22549744	24992
474	1.585776	93851648	63057920	24608864	24992
475	1.586129	93851648	63057920	26671936	24992
476	1.595322	93851648	63057920	28738752	24992
477	1.604566	93851648	63057920	30809208	24992
478	1.606972	93851648	63057920	16584160	24992
479	1.794987	93851648	63057920	18662312	24992
480	1.60709	93851648	63057920	20744088	24992
481	1.605321	93851648	63057920	22829720	24992
482	1.615265	93851648	63057920	24919104	24992
483	1.557594	93851648	63057920	27012208	24992
484	1.614198	93851648	63057920	29123288	24992
485	1.623875	93851648	63057920	31235408	24992
486	1.631051	93851648	63057920	16975680	24992
487	1.628127	93851648	63057920	19083968	24992
488	1.638783	93851648	63057920	21195912	24992
489	1.843211	93851648	63057920	23311680	24992
490	1.683716	93851648	63057920	25431224	24992
491	1.635014	93851648	63057920	27554400	24992
492	1.654573	93851648	63057920	29692536	24992
493	2.005213	93851648	63057920	15553728	24992
494	1.642718	93851648	63057920	17688296	24992
495	1.656954	93851648	63057920	19829552	24992
496	1.654745	93851648	63057920	21971600	24992
497	1.650531	93851648	63057920	24117432	24992
498	1.666908	93851648	63057920	26269664	24992
499	1.871305	93851648	63057920	28423080	24992
500	1.840238	93851648	63057920	30580368	24992
501	1.689391	93851648	63057920	16526872	24992
502	1.68677	93851648	63057920	18691704	24992
503	1.685046	93851648	63057920	20860296	24992
504	1.688605	93851648	63057920	23032656	24992
505	1.879832	93851648	63057920	25223936	24992
506	1.629928	93851648	63057920	27403784	24992
507	1.688426	93851648	63057920	29587336	24992
508	2.074602	93851648	63057920	15534648	24992
509	1.704679	93851648	63057920	17725896	24992
510	1.685598	93851648	63057920	19920856	24992
511	1.699011	93851648	63057920	22121992	24992
512	1.704481	93851648	63057920	24324560	24992
513	1.7178	93851648	63057920	26530888	24992
514	1.720839	93851648	63057920	28740960	24992
515	1.688301	93851648	63057920	30961848	24992
516	1.721489	93851648	63057920	16890080	24992
517	1.720791	93851648	63057920	19122392	24992
518	1.893646	93851648	63057920	21347528	24992
519	1.73441	93851648	63057920	23576304	24992
520	1.74202	93851648	63057920	25808992	24992
521	1.748782	93851648	63057920	28045432	24992
522	1.743321	93851648	63057920	30285560	24992
523	2.051414	93851648	63057920	16145504	24992
524	1.943094	93851648	63057920	18393232	24992
525	1.745092	93851648	63057920	20658392	24992
526	1.749208	93851648	63057920	22913704	24992
527	1.925553	93851648	63057920	25172808	24992
528	1.769673	93851648	63057920	27442120	24992
529	1.774322	93851648	63057920	29708728	24992
530	2.123869	93851648	63057920	15710176	24992
531	1.783637	93851648	63057920	17984320	24992
532	1.771513	93851648	63057920	20262392	24992
533	1.767314	93851648	63057920	22543984	24992
534	1.773391	93851648	63057920	24835008	24992
535	1.771907	93851648	63057920	27124208	24992
536	1.832926	93851648	63057920	29417112	24992
537	2.3906	93851648	63057920	15513744	24992
538	1.716484	93851648	63057920	17820392	24992
539	1.782248	93851648	63057920	20124616	24992
540	1.788116	93851648	63057920	22434704	24992
541	1.783693	93851648	63057920	24746488	24992
542	1.812336	93851648	63057920	27067040	24992
543	1.79748	93851648	63057920	29386424	24992
544	2.207809	93851648	63057920	15514488	24992
545	1.80535	93851648	63057920	17865720	24992
546	1.811024	93851648	63057920	20196352	24992
547	1.811836	93851648	63057920	22531400	24992
548	1.819769	93851648	63057920	24887256	24992
549	1.820188	93851648	63057920	27229232	24992
550	1.827177	93851648	63057920	29575608	24992
551	2.423737	93851648	63057920	15727552	24992
552	1.835238	93851648	63057920	18080800	24992
553	1.837101	93851648	63057920	20443744	24992
554	2.025287	93851648	63057920	22804608	24992
555	1.84542	93851648	63057920	25174120	24992
556	1.852141	93851648	63057920	27554712	24992
557	1.854377	93851648	63057920	29926840	24992
558	2.207015	93851648	63057920	16035616	24992
559	1.866554	93851648	63057920	18423096	24992
560	2.04683	93851648	63057920	20828168	24992
561	1.827688	93851648	63057920	23215352	24992
562	1.826591	93851648	63057920	25609640	24992
563	2.039942	93851648	63057920	28004336	24992
564	1.874416	93851648	63057920	30409032	24992
565	1.897738	93851648	63057920	16491960	24992
566	1.878157	93851648	63057920	18898024	24992
567	1.878788	93851648	63057920	21307904	24992
568	1.851221	93851648	63057920	23729288	24992
569	2.045538	93851648	63057920	26146808	24992
570	1.887956	93851648	63057920	28568008	24992
571	1.879021	93851648	63057920	30994456	24992
572	1.890044	93851648	63057920	17185928	24992
573	1.885304	93851648	63057920	19622920	24992
574	1.900244	93851648	63057920	22059152	24992
575	1.899412	93851648	63057920	24504632	24992
576	1.928052	93851648	63057920	26948520	24992
577	1.904179	93851648	63057920	29414200	24992
578	2.339034	93851648	63057920	15680248	24992
579	1.926162	93851648	63057920	18155536	24992
580	2.092771	93851648	63057920	20627680	24992
581	1.945736	93851648	63057920	23097408	24992
582	1.940377	93851648	63057920	25568184	24992
583	2.118415	93851648	63057920	28038368	24992
584	1.939926	93851648	63057920	30514352	24992
585	1.950187	93851648	63057920	16649600	24992
586	1.889478	93851648	63057920	19134576	24992
587	1.943303	93851648	63057920	21624488	24992
588	1.941656	93851648	63057920	24114624	24992
589	1.939343	93851648	63057920	26607376	24992
590	1.941925	93851648	63057920	29103992	24992
591	1.940735	93851648	63057920	31605704	24992
592	1.904152	93851648	63057920	17824176	24992
593	1.973309	93851648	63057920	20333544	24992
594	2.164203	93851648	63057920	22846152	24992
595	2.138567	93851648	63057920	25369600	24992
596	1.983523	93851648	63057920	27894016	24992
597	2.35595	93851648	63057920	30418944	24992
598	2.300317	93851648	63057920	16595904	24992
599	1.975095	93851648	63057920	19126496	24992
600	1.98927	93851648	63057920	21668464	24992
601	1.974285	93851648	63057920	24206656	24992
602	1.986036	93851648	63057920	26752928	24992
603	1.999893	93851648	63057920	29317296	24992
604	2.391981	93851648	63057920	15691320	24992
605	2.173967	93851648	63057920	18249272	24992
606	2.007965	93851648	63057920	20808024	24992
607	1.997201	93851648	63057920	23381824	24992
608	1.954704	93851648	63057920	25946640	24992
609	2.008662	93851648	63057920	28528720	24992
610	2.00529	93851648	63057920	31110688	24992
611	2.022128	93851648	63057920	17479768	24992
612	2.02085	93851648	63057920	20059328	24992
613	2.216107	93851648	63057920	22642648	24992
614	2.033512	93851648	63057920	25229712	24992
615	2.019797	93851648	63057920	27839552	24992
616	2.022591	93851648	63057920	30437376	24992
617	2.345028	93851648	63057920	16711272	24992
618	2.033434	93851648	63057920	19314752	24992
619	2.035644	93851648	63057920	21922304	24992
620	2.062556	93851648	63057920	24534752	24992
621	2.241635	93851648	63057920	27170304	24992
622	2.055258	93851648	63057920	29790184	24992
623	2.439224	93851648	63057920	16219968	24992
624	2.057581	93851648	63057920	18857696	24992
625	2.235347	93851648	63057920	21486424	24992
626	1.983468	93851648	63057920	24118832	24992
627	2.080937	93851648	63057920	26754928	24992
628	2.067622	93851648	63057920	29404040	24992
629	2.627229	93851648	63057920	15891160	24992
630	2.073801	93851648	63057920	18538688	24992
631	2.066993	93851648	63057920	21195568	24992
632	2.085497	93851648	63057920	23850728	24992
633	2.079214	93851648	63057920	26520624	24992
634	2.300719	93851648	63057920	29207872	24992
635	2.079218	93851648	63057920	31874240	24992
636	2.096714	93851648	63057920	18221232	24992
637	2.097675	93851648	63057920	20895672	24992
638	2.098708	93851648	63057920	23584736	24992
639	2.112264	93851648	63057920	26276360	24992
640	2.121502	93851648	63057920	28972744	24992
641	2.111274	93851648	63057920	31661680	24992
642	2.319273	93851648	63057920	18100056	24992
643	2.047497	93851648	63057920	20801992	24992
644	2.117826	93851648	63057920	23509760	24992
645	2.095214	93851648	63057920	26214704	24992
646	2.054372	93851648	63057920	28929120	24992
647	2.14284	93851648	63057920	31641784	24992
648	2.138197	93851648	63057920	18118264	24992
649	2.117074	93851648	63057920	20843656	24992
650	2.144661	93851648	63057920	23566600	24992
651	2.150457	93851648	63057920	26293248	24992
652	2.513305	93851648	63057920	29023600	24992
653	2.135388	93851648	63057920	31757752	24992
654	2.165765	93851648	63057920	18245040	24992
655	2.164236	93851648	63057920	20997584	24992
656	2.161439	93851648	63057920	23743064	24992
657	2.359606	93851648	63057920	26492352	24992
658	2.165335	93851648	63057920	29259128	24992
659	2.165209	93851648	63057920	32015968	24992
660	2.175618	93851648	63057920	18437880	24992
661	2.178022	93851648	63057920	21202296	24992
662	2.181323	93851648	63057920	23982288	24992
663	2.173847	93851648	63057920	26754064	24992
664	2.17557	93851648	63057920	29558736	24992
665	2.596042	93851648	63057920	16189288	24992
666	2.193612	93851648	63057920	18992472	24992
667	2.352226	93851648	63057920	21779576	24992
668	2.198409	93851648	63057920	24573016	24992
669	2.184871	93851648	63057920	27377456	24992
670	2.189654	93851648	63057920	30175688	24992
671	2.521419	93851648	63057920	16733336	24992
672	2.397451	93851648	63057920	19546720	24992
673	2.206502	93851648	63057920	22356312	24992
674	2.212251	93851648	63057920	25169976	24992
675	2.216965	93851648	63057920	27987096	24992
676	2.222013	93851648	63057920	30822136	24992
677	2.235285	93851648	63057920	17387088	24992
678	2.2247	93851648	63057920	20225072	24992
679	2.398188	93851648	63057920	23064744	24992
680	2.240233	93851648	63057920	25904680	24992
681	2.238144	93851648	63057920	28750712	24992
682	2.159463	93851648	63057920	31601592	24992
683	2.259949	93851648	63057920	18213240	24992
684	2.291081	93851648	63057920	21064264	24992
685	2.280104	93851648	63057920	23925240	24992
686	2.362114	93851648	63057920	26784576	24992
687	2.386296	93851648	63057920	29665864	24992
688	2.806273	93851648	63057920	16415848	24992
689	2.259371	93851648	63057920	19308224	24992
690	2.279645	93851648	63057920	22199152	24992
691	2.452881	93851648	63057920	25093032	24992
692	2.277296	93851648	63057920	27999360	24992
693	2.264523	93851648	63057920	30900912	24992
694	2.299702	93851648	63057920	17667888	24992
695	2.288246	93851648	63057920	20578552	24992
696	2.276367	93851648	63057920	23492104	24992
697	2.279325	93851648	63057920	26423832	24992
698	2.501534	93851648	63057920	29352960	24992
699	2.304904	93851648	63057920	32277496	24992
700	2.296162	93851648	63057920	18856400	24992
701	2.297043	93851648	63057920	21795720	24992
702	2.489841	93851648	63057920	24737768	24992
703	2.391002	93851648	63057920	27680920	24992
704	2.298738	93851648	63057920	30623856	24992
705	2.851307	93851648	63057920	17285432	24992
706	2.321702	93851648	63057920	20236008	24992
707	2.313147	93851648	63057920	23205344	24992
708	2.314684	93851648	63057920	26163400	24992
709	2.313517	93851648	63057920	29125232	24992
710	2.250761	93851648	63057920	32090960	24992
711	2.317246	93851648	63057920	18825968	24992
712	2.514209	93851648	63057920	21799080	24992
713	2.328277	93851648	63057920	24801856	24992
714	2.332966	93851648	63057920	27782664	24992
715	2.33684	93851648	63057920	30788696	24992
716	2.648453	93851648	63057920	17417800	24992
717	2.352367	93851648	63057920	20409888	24992
718	2.349679	93851648	63057920	23405656	24992
719	2.539965	93851648	63057920	26408216	24992
720	2.368331	93851648	63057920	29411616	24992
721	2.777842	93851648	63057920	16298200	24992
722	2.370159	93851648	63057920	19309088	24992
723	2.377576	93851648	63057920	22323672	24992
724	2.283266	93851648	63057920	25362152	24992
725	2.365885	93851648	63057920	28384312	24992
726	2.559039	93851648	63057920	31411144	24992
727	2.373385	93851648	63057920	18316472	24992
728	2.385347	93851648	63057920	21349984	24992
729	2.405564	93851648	63057920	24393464	24992
730	2.373379	93851648	63057920	27455504	24992
731	2.388092	93851648	63057920	30500256	24992
732	2.755355	93851648	63057920	17322640	24992
733	2.52263	93851648	63057920	20374992	24992
734	2.387271	93851648	63057920	23431376	24992
735	2.578717	93851648	63057920	26498872	24992
736	2.412526	93851648	63057920	29565920	24992
737	2.818817	93851648	63057920	16528992	24992
738	2.4177	93851648	63057920	19606144	24992
739	2.421188	93851648	63057920	22703784	24992
740	2.325254	93851648	63057920	25801336	24992
741	2.331825	93851648	63057920	28898968	24992
742	2.560024	93851648	63057920	31996616	24992
743	2.412168	93851648	63057920	18860928	24992
744	2.625753	93851648	63057920	21955176	24992
745	2.349163	93851648	63057920	25053864	24992
746	2.443291	93851648	63057920	28156512	24992
747	2.443491	93851648	63057920	31261632	24992
748	2.443847	93851648	63057920	18283088	24992
749	2.474318	93851648	63057920	21396488	24992
750	2.605166	93851648	63057920	24513856	24992
751	2.557726	93851648	63057920	27649600	24992
752	2.467386	93851648	63057920	30777288	24992
753	2.946515	93851648	63057920	17615416	24992
754	2.461891	93851648	63057920	20757288	24992
755	2.483872	93851648	63057920	23892664	24992
756	2.475628	93851648	63057920	27031792	24992
757	2.452195	93851648	63057920	30182032	24992
758	2.82909	93851648	63057920	17110464	24992
759	2.481707	93851648	63057920	20276416	24992
760	2.498002	93851648	63057920	23430624	24992
761	2.482177	93851648	63057920	26599688	24992
762	2.479561	93851648	63057920	29761472	24992
763	2.914574	93851648	63057920	16820288	24992
764	2.657285	93851648	63057920	19989456	24992
765	2.496252	93851648	63057920	23165752	24992
766	2.68287	93851648	63057920	26343544	24992
767	2.425918	93851648	63057920	29550128	24992
768	2.942373	93851648	63057920	16630112	24992
769	2.527766	93851648	63057920	19826296	24992
770	2.510271	93851648	63057920	23043280	24992
771	2.522966	93851648	63057920	26254600	24992
772	2.525112	93851648	63057920	29473624	24992
773	2.96183	93851648	63057920	16613096	24992
774	2.525892	93851648	63057920	19841832	24992
775	3.103603	93851648	63057920	23073640	24992
776	2.560898	93851648	63057920	26303640	24992
777	2.52184	93851648	63057920	29534464	24992
778	3.049855	93851648	63057920	16663992	24992
779	2.48006	93851648	63057920	19903200	24992
780	2.559931	93851648	63057920	23135512	24992
781	2.701124	93851648	63057920	26370200	24992
782	2.501274	93851648	63057920	29608736	24992
783	3.182185	93851648	63057920	16767104	24992
784	2.558777	93851648	63057920	20011848	24992
785	2.608242	93851648	63057920	23283904	24992
786	2.535685	93851648	63057920	26540488	24992
787	2.555954	93851648	63057920	29796456	24992
788	3.047093	93851648	63057920	16982136	24992
789	2.59039	93851648	63057920	20250048	24992
790	2.582039	93851648	63057920	23531312	24992
791	2.582309	93851648	63057920	26809832	24992
792	2.587408	93851648	63057920	30084768	24992
793	3.014641	93851648	63057920	17258416	24992
794	2.600163	93851648	63057920	20554456	24992
795	2.586373	93851648	63057920	23840576	24992
796	2.597619	93851648	63057920	27130680	24992
797	2.610376	93851648	63057920	30443664	24992
798	3.033914	93851648	63057920	17579704	24992
799	2.773451	93851648	63057920	20881000	24992
800	2.593882	93851648	63057920	24206496	24992
801	2.621721	93851648	63057920	27515272	24992
802	2.747395	93851648	63057920	30843488	24992
803	3.039491	93851648	63057920	17975344	24992
804	2.763458	93851648	63057920	21295352	24992
805	2.62666	93851648	63057920	24619600	24992
806	2.617616	93851648	63057920	27955832	24992
807	2.558789	93851648	63057920	31305368	24992
808	2.813479	93851648	63057920	18587456	24992
809	2.637222	93851648	63057920	21926368	24992
810	2.830886	93851648	63057920	25298320	24992
811	2.637364	93851648	63057920	28644744	24992
812	2.652516	93851648	63057920	32009120	24992
813	2.653891	93851648	63057920	19180320	24992
814	2.830706	93851648	63057920	22547736	24992
815	2.653889	93851648	63057920	25946632	24992
816	2.994497	93851648	63057920	29321184	24992
817	2.66329	93851648	63057920	32690264	24992
818	2.66833	93851648	63057920	19859992	24992
819	2.667338	93851648	63057920	23249152	24992
820	2.674599	93851648	63057920	26629584	24992
821	2.675349	93851648	63057920	30025424	24992
822	3.178819	93851648	63057920	17362216	24992
823	2.685503	93851648	63057920	20775640	24992
824	2.663012	93851648	63057920	24173384	24992
825	2.687236	93851648	63057920	27586592	24992
826	2.68815	93851648	63057920	30989696	24992
827	3.145303	93851648	63057920	18193624	24992
828	2.709596	93851648	63057920	21604192	24992
829	2.701848	93851648	63057920	25026088	24992
830	2.687667	93851648	63057920	28444744	24992
831	2.70068	93851648	63057920	31883088	24992
832	2.71339	93851648	63057920	19268616	24992
833	2.690545	93851648	63057920	22740848	24992
834	2.708688	93851648	63057920	26190744	24992
835	2.71811	93851648	63057920	29651088	24992
836	3.258706	93851648	63057920	17064312	24992
837	2.729701	93851648	63057920	20525304	24992
838	3.12915	93851648	63057920	23993912	24992
839	2.726083	93851648	63057920	27512768	24992
840	2.926288	93851648	63057920	31092800	24992
841	3.150543	93851648	63057920	18366520	24992
842	2.756179	93851648	63057920	21911992	24992
843	2.666362	93851648	63057920	25471712	24992
844	2.941069	93851648	63057920	29068216	24992
845	2.74903	93851648	63057920	32625120	24992
846	2.967203	93851648	63057920	20028496	24992
847	2.746164	93851648	63057920	23624064	24992
848	2.767679	93851648	63057920	27236272	24992
849	2.646335	93851648	63057920	30848504	24992
850	3.449641	93851648	63057920	18271576	24992
851	2.758566	93851648	63057920	21851016	24992
852	2.912246	93851648	63057920	25434208	24992
853	2.761111	93851648	63057920	29021248	24992
854	2.756529	93851648	63057920	32612840	24992
855	2.786451	93851648	63057920	20090960	24992
856	2.917123	93851648	63057920	23703288	24992
857	2.984699	93851648	63057920	27315520	24992
858	2.915352	93851648	63057920	30927728	24992
859	3.285653	93851648	63057920	18370608	24992
860	2.782854	93851648	63057920	22007664	24992
861	2.79485	93851648	63057920	25637576	24992
862	2.712276	93851648	63057920	29275408	24992
863	2.742069	93851648	63057920	32900160	24992
864	2.815349	93851648	63057920	20358536	24992
865	2.775887	93851648	63057920	24000016	24992
866	2.840213	93851648	63057920	27636160	24992
867	2.788871	93851648	63057920	31275904	24992
868	3.233769	93851648	63057920	18661432	24992
869	2.799573	93851648	63057920	22317184	24992
870	2.728777	93851648	63057920	25968272	24992
871	2.823319	93851648	63057920	29627952	24992
872	2.834561	93851648	63057920	33296600	24992
873	2.838046	93851648	63057920	20632592	24992
874	2.841256	93851648	63057920	24302072	24992
875	3.038309	93851648	63057920	27985456	24992
876	2.845564	93851648	63057920	31659080	24992
877	3.046049	93851648	63057920	19296984	24992
878	2.875326	93851648	63057920	22983096	24992
879	2.983226	93851648	63057920	26676024	24992
880	2.858268	93851648	63057920	30370880	24992
881	3.525622	93851648	63057920	17969664	24992
882	2.881246	93851648	63057920	21680808	24992
883	2.869753	93851648	63057920	25390496	24992
884	2.873574	93851648	63057920	29106744	24992
885	2.891051	93851648	63057920	32814392	24992
886	2.871249	93851648	63057920	20373744	24992
887	2.834293	93851648	63057920	24088872	24992
888	2.878703	93851648	63057920	27817288	24992
889	2.807528	93851648	63057920	31560048	24992
890	3.098387	93851648	63057920	19017816	24992
891	2.899763	93851648	63057920	22748136	24992
892	3.06744	93851648	63057920	26482184	24992
893	2.887545	93851648	63057920	30222352	24992
894	3.51716	93851648	63057920	17934688	24992
895	2.922185	93851648	63057920	21692920	24992
896	3.026999	93851648	63057920	25455968	24992
897	2.908995	93851648	63057920	29217704	24992
898	2.895919	93851648	63057920	32974544	24992
899	2.916982	93851648	63057920	20576288	24992
900	2.92948	93851648	63057920	24346648	24992
901	2.92208	93851648	63057920	28121832	24992
902	2.963876	93851648	63057920	31893624	24992
903	3.118392	93851648	63057920	19654016	24992
904	2.819233	93851648	63057920	23457768	24992
905	2.920666	93851648	63057920	27240992	24992
906	2.937173	93851648	63057920	31062816	24992
907	3.701764	93851648	63057920	18712184	24992
908	2.912923	93851648	63057920	22515936	24992
909	2.941259	93851648	63057920	26314024	24992
910	2.954633	93851648	63057920	30119032	24992
911	3.585895	93851648	63057920	17919680	24992
912	2.946708	93851648	63057920	21729360	24992
913	2.956107	93851648	63057920	25554768	24992
914	3.142377	93851648	63057920	29375640	24992
915	2.987023	93851648	63057920	33218504	24992
916	2.981688	93851648	63057920	20886736	24992
917	2.973684	93851648	63057920	24726952	24992
918	2.870234	93851648	63057920	28559192	24992
919	2.981301	93851648	63057920	32425592	24992
920	2.979406	93851648	63057920	20250704	24992
921	2.976606	93851648	63057920	24094336	24992
922	2.981769	93851648	63057920	27941512	24992
923	3.130615	93851648	63057920	31819520	24992
924	2.998552	93851648	63057920	19667488	24992
925	3.115413	93851648	63057920	23537184	24992
926	2.996307	93851648	63057920	27409520	24992
927	2.991857	93851648	63057920	31283016	24992
928	3.571399	93851648	63057920	19011152	24992
929	3.011155	93851648	63057920	22884864	24992
930	3.015167	93851648	63057920	26795128	24992
931	3.010775	93851648	63057920	30676320	24992
932	3.807415	93851648	63057920	18438896	24992
933	3.005917	93851648	63057920	22330264	24992
934	3.017459	93851648	63057920	26250440	24992
935	2.988577	93851648	63057920	30146592	24992
936	3.70734	93851648	63057920	18052328	24992
937	3.016055	93851648	63057920	21956176	24992
938	3.031675	93851648	63057920	25894136	24992
939	3.087433	93851648	63057920	29805464	24992
940	2.971314	93851648	63057920	33723984	24992
941	3.22378	93851648	63057920	21343248	24992
942	3.057159	93851648	63057920	25287904	24992
943	2.974117	93851648	63057920	29214192	24992
944	3.046701	93851648	63057920	33165624	24992
945	3.032917	93851648	63057920	20953096	24992
946	2.927762	93851648	63057920	24925120	24992
947	2.993587	93851648	63057920	28866616	24992
948	3.260866	93851648	63057920	32811856	24992
949	3.064177	93851648	63057920	20619912	24992
950	3.066369	93851648	63057920	24572824	24992
951	3.087355	93851648	63057920	28567984	24992
952	3.068835	93851648	63057920	32528280	24992
953	3.239642	93851648	63057920	20486640	24992
954	3.035606	93851648	63057920	24487280	24992
955	3.090985	93851648	63057920	28489480	24992
956	3.090985	93851648	63057920	32464864	24992
957	3.051938	93851648	63057920	20450952	24992
958	3.095148	93851648	63057920	24440584	24992
959	3.11654	93851648	63057920	28427176	24992
960	3.090807	93851648	63057920	32423200	24992
961	3.109079	93851648	63057920	20428888	24992
962	3.253509	93851648	63057920	24446088	24992
963	3.001087	93851648	63057920	28447952	24992
964	3.028548	93851648	63057920	32456528	24992
965	3.112497	93851648	63057920	20502704	24992
966	3.128066	93851648	63057920	24545840	24992
967	3.299359	93851648	63057920	28592392	24992
968	3.136493	93851648	63057920	32613088	24992
969	3.244734	93851648	63057920	20644912	24992
970	3.121574	93851648	63057920	24683144	24992
971	3.291571	93851648	63057920	28745648	24992
972	3.137361	93851648	63057920	32788560	24992
973	3.165814	93851648	63057920	20777888	24992
974	3.337656	93851648	63057920	24821240	24992
975	3.056736	93851648	63057920	28871192	24992
976	3.155447	93851648	63057920	32958040	24992
977	3.157886	93851648	63057920	20896800	24992
978	3.153658	93851648	63057920	24962496	24992
979	3.350492	93851648	63057920	29024664	24992
980	3.161746	93851648	63057920	33090576	24992
981	3.17777	93851648	63057920	21056080	24992
982	3.172079	93851648	63057920	25183872	24992
983	3.183682	93851648	63057920	29311656	24992
984	3.17072	93851648	63057920	33439480	24992
985	3.184182	93851648	63057920	21423552	24992
986	3.17805	93851648	63057920	25512032	24992
987	3.251734	93851648	63057920	29604240	24992
988	3.189811	93851648	63057920	33700320	24992
989	3.348246	93851648	63057920	21697384	24992
990	3.164425	93851648	63057920	25826224	24992
991	3.195811	93851648	63057920	29956976	24992
992	3.201878	93851648	63057920	34085696	24992
993	3.197135	93851648	63057920	21893896	24992
994	3.212134	93851648	63057920	26013064	24992
995	3.223493	93851648	63057920	30141560	24992
996	4.109166	93851648	63057920	18284760	24992
997	3.230211	93851648	63057920	22414712	24992
998	3.214371	93851648	63057920	26548408	24992
999	3.20553	93851648	63057920	30690472	24992
1000	3.997498	93851648	63057920	18848528	24992
x	Duration	RSS	HeapTotal	HeapUsed	External
0	NA	94949376	63582208	12730160	24992
1	0.325651	94949376	63582208	12782072	24992
2	0.257645	94949376	63582208	12858848	24992
3	0.157483	94949376	63582208	12973424	24992
4	0.162988	94949376	63582208	13072400	24992
5	0.164939	94949376	63582208	13175856	24992
6	0.171007	94949376	63582208	13283256	24992
7	0.175116	94949376	63582208	13394600	24992
8	0.180768	94949376	63582208	13509888	24992
9	0.185814	94949376	63582208	13629168	24992
10	0.222941	94949376	63582208	13754584	24992
11	0.19843	94949376	63582208	13885096	24992
12	0.204443	94949376	63582208	14019568	24992
13	0.506849	94949376	63582208	14158048	24992
14	0.225791	94949376	63582208	14300392	24992
15	0.227728	94949376	63582208	14447720	24992
16	0.229059	94949376	63582208	14599032	24992
17	0.234774	94949376	63582208	14754424	24992
18	0.445514	94949376	63582208	14917216	24992
19	0.240832	94949376	63582208	15081800	24992
20	0.242715	94949376	63582208	15250688	24992
21	0.247325	94949376	63582208	15423488	24992
22	0.254488	94949376	63582208	15600232	24992
23	0.259829	94949376	63582208	15782128	24992
24	0.26613	94949376	63582208	15968928	24992
25	0.278132	94949376	63582208	16161848	24992
26	0.275106	94949376	63582208	16358736	24992
27	0.377403	94949376	63582208	16559544	24992
28	0.314695	94949376	63582208	16766048	24992
29	0.312343	94949376	63582208	16974728	24992
30	0.272291	94949376	63582208	17188656	24992
31	0.225722	94949376	63582208	17405200	24992
32	0.433063	94949376	63582208	17628192	24992
33	0.23976	94949376	63582208	17856872	24992
34	0.246923	94949376	63582208	18088784	24992
35	0.238806	94949376	63582208	18322968	24992
36	0.428448	94949376	63582208	18560976	24992
37	0.228801	94949376	63582208	18802912	24992
38	0.248768	94949376	63582208	19048800	24992
39	0.249681	94949376	63582208	19298616	24992
40	0.252677	94949376	63582208	19552480	24992
41	0.255465	94949376	63582208	19810184	24992
42	0.267566	94949376	63582208	20074024	24992
43	0.449118	94949376	63582208	20341728	24992
44	0.251836	94949376	63582208	20613432	24992
45	0.252341	94949376	63582208	20891680	24992
46	0.25437	94949376	63582208	21174544	24992
47	0.255438	94949376	63582208	21461376	24992
48	0.25772	94949376	63582208	21752120	24992
49	0.261954	94949376	63582208	22048272	24992
50	0.291556	94949376	63582208	22351128	24992
51	0.26824	94949376	63582208	22662224	24992
52	0.287325	94949376	63582208	22977208	24992
53	0.273269	94949376	63582208	23296088	24992
54	0.276845	94949376	63582208	23620016	24992
55	0.280789	94949376	63582208	23946784	24992
56	0.286074	94949376	63582208	24277504	24992
57	0.314876	94949376	63582208	24612216	24992
58	0.315218	94949376	63582208	24950808	24992
59	0.316469	94949376	63582208	25293344	24992
60	0.32314	94949376	63582208	25639888	24992
61	0.322351	94949376	63582208	25990280	24992
62	0.331405	94949376	63582208	26344632	24992
63	0.331156	94949376	63582208	26703000	24992
64	0.334571	94949376	63582208	27065216	24992
65	0.336636	94949376	63582208	27431456	24992
66	0.343266	94949376	63582208	27801592	24992
67	0.532857	94949376	63582208	28175712	24992
68	0.328959	94949376	63582208	28553688	24992
69	0.328168	94949376	63582208	28935624	24992
70	1.060279	94949376	63582208	13218568	24992
71	0.364746	94949376	63582208	13610056	24992
72	0.341378	94949376	63582208	14005168	24992
73	0.341518	94949376	63582208	14402840	24992
74	0.342138	94949376	63582208	14804488	24992
75	0.343835	94949376	63582208	15210120	24992
76	0.346364	94949376	63582208	15623808	24992
77	0.358813	94949376	63582208	16041416	24992
78	0.355594	94949376	63582208	16462936	24992
79	0.358437	94949376	63582208	16888480	24992
80	0.359772	94949376	63582208	17318144	24992
81	0.404371	94949376	63582208	17752608	24992
82	0.375154	94949376	63582208	18189904	24992
83	0.373281	94949376	63582208	18631104	24992
84	0.376058	94949376	63582208	19080728	24992
85	0.381851	94949376	63582208	19535464	24992
86	0.393797	94949376	63582208	19994208	24992
87	0.385162	94949376	63582208	20456896	24992
88	0.388804	94949376	63582208	20923408	24992
89	0.392896	94949376	63582208	21393880	24992
90	0.39646	94949376	63582208	21868384	24992
91	0.397594	94949376	63582208	22346832	24992
92	0.400517	94949376	63582208	22829128	24992
93	0.409015	94949376	63582208	23315344	24992
94	0.40864	94949376	63582208	23809720	24992
95	0.427247	94949376	63582208	24308056	24992
96	0.414635	94949376	63582208	24810248	24992
97	0.413947	94949376	63582208	25316376	24992
98	0.41918	94949376	63582208	25826448	24992
99	0.456808	94949376	63582208	26340488	24992
100	0.459063	94949376	63582208	26858760	24992
101	0.471105	94949376	63582208	27381056	24992
102	0.463362	94949376	63582208	27915384	24992
103	0.469105	94949376	63582208	28461784	24992
104	0.469563	94949376	63582208	29012136	24992
105	1.108697	94949376	63582208	13383216	24992
106	0.479797	94949376	63582208	13942056	24992
107	0.476926	94949376	63582208	14504312	24992
108	0.457785	94949376	63582208	15070464	24992
109	0.456158	94949376	63582208	15640768	24992
110	0.456938	94949376	63582208	16214768	24992
111	0.461535	94949376	63582208	16792776	24992
112	0.467367	94949376	63582208	17375120	24992
113	0.467875	94949376	63582208	17961016	24992
114	0.480711	94949376	63582208	18550776	24992
115	0.473906	94949376	63582208	19146344	24992
116	0.478437	94949376	63582208	19744000	24992
117	0.482969	94949376	63582208	20345592	24992
118	0.684983	94949376	63582208	20951136	24992
119	0.492642	94949376	63582208	21560560	24992
120	0.49089	94949376	63582208	22173976	24992
121	0.532118	94949376	63582208	22791288	24992
122	0.532249	94949376	63582208	23412560	24992
123	0.535169	94949376	63582208	24037872	24992
124	0.539388	94949376	63582208	24667024	24992
125	0.554585	94949376	63582208	25300072	24992
126	0.547976	94949376	63582208	25937112	24992
127	0.545861	94949376	63582208	26578160	24992
128	0.578362	94949376	63582208	27223432	24992
129	0.556722	94949376	63582208	27872264	24992
130	0.558033	94949376	63582208	28525064	24992
131	0.562454	94949376	63582208	29181824	24992
132	1.073186	94949376	63582208	13557128	24992
133	0.569939	94949376	63582208	14221704	24992
134	0.581225	94949376	63582208	14890232	24992
135	0.57986	94949376	63582208	15562760	24992
136	0.577224	94949376	63582208	16239152	24992
137	0.582429	94949376	63582208	16919512	24992
138	0.559343	94949376	63582208	17603848	24992
139	0.556167	94949376	63582208	18297872	24992
140	0.593533	94949376	63582208	18990056	24992
141	0.597577	94949376	63582208	19686168	24992
142	0.600798	94949376	63582208	20393528	24992
143	0.604242	94949376	63582208	21106720	24992
144	0.607396	94949376	63582208	21823856	24992
145	0.580795	94949376	63582208	22544856	24992
146	0.576087	94949376	63582208	23273112	24992
147	0.598688	94949376	63582208	24006536	24992
148	0.585973	94949376	63582208	24739544	24992
149	0.587767	94949376	63582208	25476304	24992
150	0.588369	94949376	63582208	26216992	24992
151	0.591766	94949376	63582208	26961760	24992
152	0.591495	94949376	63582208	27710360	24992
153	0.598485	94949376	63582208	28462880	24992
154	0.600542	94949376	63582208	29219376	24992
155	1.07028	94949376	63582208	13682216	24992
156	0.654467	94949376	63582208	14446656	24992
157	0.653774	94949376	63582208	15214992	24992
158	0.662838	94949376	63582208	15987224	24992
159	0.657776	94949376	63582208	16763448	24992
160	0.662412	94949376	63582208	17544128	24992
161	0.675111	94949376	63582208	18328224	24992
162	0.66644	94949376	63582208	19116288	24992
163	0.709271	94949376	63582208	19917016	24992
164	0.644231	94949376	63582208	20725352	24992
165	0.637778	94949376	63582208	21533400	24992
166	0.643878	94949376	63582208	22345472	24992
167	0.856746	94949376	63582208	23161424	24992
168	0.653063	94949376	63582208	23981368	24992
169	0.659884	94949376	63582208	24805232	24992
170	0.651093	94949376	63582208	25632984	24992
171	0.655446	94949376	63582208	26464760	24992
172	0.689839	94949376	63582208	27300384	24992
173	0.685153	94949376	63582208	28139968	24992
174	0.746336	94949376	63582208	28984920	24992
175	0.815856	94949376	63582208	29835088	24992
176	0.720692	94949376	63582208	14362864	24992
177	0.714486	94949376	63582208	15218296	24992
178	0.71878	94949376	63582208	16077568	24992
179	0.737585	94949376	63582208	16942216	24992
180	0.722907	94949376	63582208	17809400	24992
181	0.726888	94949376	63582208	18680456	24992
182	0.730835	94949376	63582208	19555480	24992
183	0.733645	94949376	63582208	20434472	24992
184	0.743915	94949376	63582208	21317456	24992
185	0.741429	94949376	63582208	22204280	24992
186	0.748839	94949376	63582208	23095152	24992
187	0.718445	94949376	63582208	23989864	24992
188	0.712389	94949376	63582208	24888632	24992
189	0.718002	94949376	63582208	25797584	24992
190	0.714719	94949376	63582208	26704120	24992
191	0.716555	94949376	63582208	27614656	24992
192	0.721396	94949376	63582208	28529200	24992
193	0.857686	94949376	63582208	29448504	24992
194	1.184049	94949376	63582208	14041624	24992
195	0.736507	94949376	63582208	14967912	24992
196	0.746432	94949376	63582208	15898168	24992
197	0.737732	94949376	63582208	16832408	24992
198	0.743253	94949376	63582208	17770536	24992
199	0.742813	94949376	63582208	18722304	24992
200	0.747932	94949376	63582208	19676496	24992
201	0.77727	94949376	63582208	20634672	24992
202	0.801794	94949376	63582208	21596896	24992
203	0.805609	94949376	63582208	22562920	24992
204	0.805818	94949376	63582208	23532896	24992
205	0.81383	94949376	63582208	24506816	24992
206	0.811434	94949376	63582208	25486304	24992
207	0.816454	94949376	63582208	26484576	24992
208	0.799304	94949376	63582208	27504376	24992
209	0.822782	94949376	63582208	28529448	24992
210	0.805026	94949376	63582208	29560616	24992
211	1.22031	94949376	63582208	14236608	24992
212	0.836242	94949376	63582208	15271176	24992
213	0.834882	94949376	63582208	16309672	24992
214	1.029015	94949376	63582208	17352056	24992
215	0.837087	94949376	63582208	18398400	24992
216	0.848196	94949376	63582208	19448704	24992
217	0.846026	94949376	63582208	20502896	24992
218	0.854928	94949376	63582208	21561112	24992
219	0.852534	94949376	63582208	22623312	24992
220	0.867851	94949376	63582208	23689368	24992
221	0.859413	94949376	63582208	24761792	24992
222	0.893683	94949376	63582208	25835640	24992
223	0.860735	94949376	63582208	26913432	24992
224	0.871702	94949376	63582208	27995216	24992
225	0.878757	94949376	63582208	29080928	24992
226	0.878277	94949376	63582208	30170616	24992
227	0.85009	94949376	63582208	14898624	24992
228	0.885244	94949376	63582208	15996120	24992
229	0.888416	94949376	63582208	17109632	24992
230	0.892386	94949376	63582208	18229504	24992
231	0.897332	94949376	63582208	19353232	24992
232	0.898112	94949376	63582208	20481048	24992
233	0.861683	94949376	63582208	21612616	24992
234	0.90424	94949376	63582208	22748248	24992
235	0.911164	94949376	63582208	23887752	24992
236	0.914251	94949376	63582208	25031256	24992
237	0.920292	94949376	63582208	26178584	24992
238	0.938918	94949376	63582208	27330000	24992
239	0.923324	94949376	63582208	28485400	24992
240	0.938479	94949376	63582208	29644568	24992
241	1.300361	94949376	63582208	14446720	24992
242	0.945511	94949376	63582208	15613792	24992
243	0.938369	94949376	63582208	16785784	24992
244	1.139211	94949376	63582208	17961936	24992
245	0.947303	94949376	63582208	19140880	24992
246	0.946456	94949376	63582208	20323736	24992
247	0.968083	94949376	63582208	21510456	24992
248	0.941052	94949376	63582208	22709136	24992
249	0.948444	94949376	63582208	23906472	24992
250	0.955291	94949376	63582208	25105096	24992
251	0.986569	94949376	63582208	26309352	24992
252	1.01679	94949376	63582208	27516584	24992
253	1.003357	94949376	63582208	28726936	24992
254	0.971347	94949376	63582208	29943472	24992
255	0.989593	94949376	63582208	14878568	24992
256	1.033941	94949376	63582208	16100880	24992
257	1.041046	94949376	63582208	17328464	24992
258	1.045957	94949376	63582208	18558584	24992
259	1.040113	94949376	63582208	19792632	24992
260	1.128118	94949376	63582208	21030880	24992
261	0.994032	94949376	63582208	22278088	24992
262	0.951547	94949376	63582208	23523896	24992
263	1.007789	94949376	63582208	24782568	24992
264	1.009477	94949376	63582208	26036312	24992
265	1.030047	94949376	63582208	27294744	24992
266	1.013411	94949376	63582208	28560344	24992
267	1.041752	94949376	63582208	29829024	24992
268	1.212003	94949376	63582208	14775200	24992
269	1.030586	94949376	63582208	16048656	24992
270	1.040462	94949376	63582208	17334520	24992
271	1.024268	94949376	63582208	18615840	24992
272	1.045418	94949376	63582208	19901056	24992
273	1.036864	94949376	63582208	21190208	24992
274	1.007224	94949376	63582208	22483312	24992
275	0.986685	94949376	63582208	23780408	24992
276	1.043004	94949376	63582208	25087376	24992
277	1.061594	94949376	63582208	26392416	24992
278	1.054073	94949376	63582208	27701312	24992
279	1.077508	94949376	63582208	29015648	24992
280	1.212714	94949376	63582208	30332392	24992
281	1.072508	94949376	63582208	15351640	24992
282	1.053118	94949376	63582208	16676400	24992
283	1.04307	94949376	63582208	18005000	24992
284	1.029057	94949376	63582208	19338824	24992
285	1.075263	94949376	63582208	20675304	24992
286	1.036172	94949376	63582208	22015696	24992
287	1.052885	94949376	63582208	23360008	24992
288	1.031004	94949376	63582208	24708352	24992
289	1.111057	94949376	63582208	26062216	24992
290	1.094542	94949376	63582208	27418320	24992
291	1.092634	94949376	63582208	28788656	24992
292	1.064852	94949376	63582208	30153224	24992
293	1.117259	94949376	63582208	15246024	24992
294	1.079747	94949376	63582208	16617896	24992
295	1.120253	94949376	63582208	17993720	24992
296	1.113858	94949376	63582208	19376880	24992
297	1.127097	94949376	63582208	20760640	24992
298	1.121058	94949376	63582208	22150608	24992
299	1.075731	94949376	63582208	23542224	24992
300	1.305741	94949376	63582208	24937744	24992
301	1.070703	94949376	63582208	26337232	24992
302	1.099821	94949376	63582208	27741328	24992
303	1.136777	94949376	63582208	29148800	24992
304	1.133482	94949376	63582208	30560096	24992
305	1.172577	94949376	63582208	15616896	24992
306	1.193155	94949376	63582208	17036136	24992
307	1.150935	94949376	63582208	18459240	24992
308	1.169347	94949376	63582208	19889248	24992
309	1.157509	94949376	63582208	21322384	24992
310	1.151993	94949376	63582208	22757392	24992
311	1.155665	94949376	63582208	24199224	24992
312	1.164592	94949376	63582208	25653184	24992
313	1.113234	94949376	63582208	27111384	24992
314	1.373574	94949376	63582208	28562040	24992
315	1.168061	94949376	63582208	30016728	24992
316	1.187844	94949376	63582208	15210856	24992
317	1.155821	94949376	63582208	16679576	24992
318	1.183357	94949376	63582208	18151064	24992
319	1.131994	94949376	63582208	19624552	24992
320	1.162714	94949376	63582208	21099240	24992
321	1.195532	94949376	63582208	22577528	24992
322	1.196238	94949376	63582208	24059776	24992
323	1.187576	94949376	63582208	25545912	24992
324	1.205877	94949376	63582208	27039448	24992
325	1.199359	94949376	63582208	28533456	24992
326	1.238126	94949376	63582208	30034960	24992
327	1.222214	94949376	63582208	15289912	24992
328	1.217941	94949376	63582208	16795792	24992
329	1.219766	94949376	63582208	18305656	24992
330	1.227884	94949376	63582208	19819504	24992
331	1.220681	94949376	63582208	21337256	24992
332	1.192108	94949376	63582208	22862632	24992
333	1.241718	94949376	63582208	24388224	24992
334	1.229961	94949376	63582208	25917784	24992
335	1.234447	94949376	63582208	27452480	24992
336	1.251481	94949376	63582208	28997128	24992
337	1.242308	94949376	63582208	30555472	24992
338	1.255736	94949376	63582208	15798312	24992
339	1.439363	94949376	63582208	17363936	24992
340	1.264625	94949376	63582208	18945776	24992
341	1.251311	94949376	63582208	20520456	24992
342	1.265379	94949376	63582208	22097856	24992
343	1.271871	94949376	63582208	23679288	24992
344	1.270095	94949376	63582208	25264672	24992
345	1.26419	94949376	63582208	26861376	24992
346	1.362909	94949376	63582208	28456192	24992
347	1.245664	94949376	63582208	30053384	24992
348	1.272878	94949376	63582208	15291800	24992
349	1.231811	94949376	63582208	16896864	24992
350	1.299953	94949376	63582208	18518512	24992
351	1.257262	94949376	63582208	20132800	24992
352	1.290228	94949376	63582208	21749592	24992
353	1.513167	94949376	63582208	23370992	24992
354	1.309145	94949376	63582208	25008888	24992
355	1.298673	94949376	63582208	26637592	24992
356	1.312249	94949376	63582208	28270272	24992
357	1.496205	94949376	63582208	29912824	24992
358	1.691002	94949376	63582208	15228384	24992
359	1.318412	94949376	63582208	16872872	24992
360	1.285608	94949376	63582208	18538960	24992
361	1.501516	94949376	63582208	20213648	24992
362	1.294633	94949376	63582208	21892288	24992
363	1.330659	94949376	63582208	23576360	24992
364	1.306396	94949376	63582208	25262856	24992
365	1.357975	94949376	63582208	26953240	24992
366	1.340337	94949376	63582208	28647456	24992
367	1.344969	94949376	63582208	30345736	24992
368	1.36394	94949376	63582208	15815200	24992
369	1.535389	94949376	63582208	17521216	24992
370	1.365674	94949376	63582208	19233952	24992
371	1.360798	94949376	63582208	20947872	24992
372	1.386049	94949376	63582208	22665784	24992
373	1.551433	94949376	63582208	24399744	24992
374	1.379451	94949376	63582208	26125480	24992
375	1.372239	94949376	63582208	27855216	24992
376	1.376492	94949376	63582208	29589864	24992
377	1.801866	94949376	63582208	15049952	24992
378	1.58409	94949376	63582208	16791448	24992
379	1.394091	94949376	63582208	18536896	24992
380	1.3907	94949376	63582208	20286296	24992
381	1.39387	94949376	63582208	22039728	24992
382	1.395236	94949376	63582208	23797120	24992
383	1.406104	94949376	63582208	25558384	24992
384	1.401396	94949376	63582208	27323496	24992
385	1.411581	94949376	63582208	29092736	24992
386	1.413281	94949376	63582208	30868672	24992
387	1.415442	94949376	63582208	16337576	24992
388	1.436513	94949376	63582208	18118456	24992
389	1.418895	94949376	63582208	19909480	24992
390	1.422494	94949376	63582208	21698280	24992
391	1.430537	94949376	63582208	23490968	24992
392	1.63124	94949376	63582208	25287776	24992
393	1.447213	94949376	63582208	27088400	24992
394	1.435452	94949376	63582208	28898944	24992
395	1.4412	94949376	63582208	30707440	24992
396	1.414885	94949376	63582208	16213080	24992
397	1.445282	94949376	63582208	18029368	24992
398	1.460134	94949376	63582208	19849896	24992
399	1.467354	94949376	63582208	21688440	24992
400	1.455686	94949376	63582208	23516688	24992
401	1.455248	94949376	63582208	25351896	24992
402	1.461385	94949376	63582208	27188184	24992
403	1.682314	94949376	63582208	29028168	24992
404	1.477979	94949376	63582208	30874448	24992
405	1.465486	94949376	63582208	16418472	24992
406	1.478007	94949376	63582208	18270352	24992
407	1.471776	94949376	63582208	20130096	24992
408	1.486028	94949376	63582208	21989784	24992
409	1.478367	94949376	63582208	23872880	24992
410	1.814771	94949376	63582208	25769520	24992
411	1.456686	94949376	63582208	27657560	24992
412	1.423219	94949376	63582208	29556944	24992
413	1.887632	94949376	63582208	15236840	24992
414	1.434464	94949376	63582208	17157528	24992
415	1.48904	94949376	63582208	19061240	24992
416	1.520428	94949376	63582208	20969000	24992
417	1.5122	94949376	63582208	22921888	24992
418	1.514703	94949376	63582208	24920736	24992
419	1.718531	94949376	63582208	26912440	24992
420	1.518535	94949376	63582208	28901600	24992
421	1.676906	94949376	63582208	30894792	24992
422	1.562716	94949376	63582208	16591704	24992
423	1.541873	94949376	63582208	18592792	24992
424	1.734359	94949376	63582208	20597912	24992
425	1.539238	94949376	63582208	22606840	24992
426	1.545432	94949376	63582208	24619656	24992
427	1.513013	94949376	63582208	26636528	24992
428	1.614877	94949376	63582208	28661008	24992
429	1.638922	94949376	63582208	30692784	24992
430	1.656873	94949376	63582208	16455240	24992
431	1.946704	94949376	63582208	18487776	24992
432	1.645092	94949376	63582208	20524272	24992
433	1.659188	94949376	63582208	22564728	24992
434	1.667958	94949376	63582208	24609256	24992
435	1.651172	94949376	63582208	26660344	24992
436	1.662355	94949376	63582208	28714432	24992
437	1.656601	94949376	63582208	30780896	24992
438	1.593483	94949376	63582208	16546616	24992
439	1.585365	94949376	63582208	18610744	24992
440	1.588749	94949376	63582208	20678832	24992
441	1.594462	94949376	63582208	22750808	24992
442	1.730372	94949376	63582208	24826744	24992
443	1.610111	94949376	63582208	26906608	24992
444	1.806176	94949376	63582208	28990488	24992
445	1.619358	94949376	63582208	31078320	24992
446	1.616755	94949376	63582208	16897432	24992
447	1.612839	94949376	63582208	19003352	24992
448	1.615902	94949376	63582208	21103088	24992
449	1.623669	94949376	63582208	23206536	24992
450	1.649271	94949376	63582208	25313968	24992
451	1.578267	94949376	63582208	27425384	24992
452	1.641795	94949376	63582208	29540608	24992
453	2.067922	94949376	63582208	15454800	24992
454	1.782616	94949376	63582208	17577992	24992
455	1.645955	94949376	63582208	19705144	24992
456	1.65635	94949376	63582208	21836256	24992
457	1.663311	94949376	63582208	23971224	24992
458	1.641563	94949376	63582208	26110152	24992
459	1.652711	94949376	63582208	28256872	24992
460	1.655439	94949376	63582208	30420240	24992
461	1.58703	94949376	63582208	16394752	24992
462	1.666371	94949376	63582208	18589264	24992
463	1.664314	94949376	63582208	20747912	24992
464	1.666733	94949376	63582208	22910544	24992
465	1.673485	94949376	63582208	25076984	24992
466	1.67235	94949376	63582208	27254648	24992
467	1.690257	94949376	63582208	29445824	24992
468	2.110163	94949376	63582208	15425248	24992
469	1.695362	94949376	63582208	17613168	24992
470	1.876948	94949376	63582208	19799360	24992
471	1.700399	94949376	63582208	21989504	24992
472	1.698624	94949376	63582208	24197640	24992
473	1.929645	94949376	63582208	26399144	24992
474	1.628539	94949376	63582208	28601096	24992
475	1.704214	94949376	63582208	30806936	24992
476	1.729004	94949376	63582208	16787896	24992
477	1.696935	94949376	63582208	19001520	24992
478	1.715043	94949376	63582208	21226064	24992
479	1.716272	94949376	63582208	23447832	24992
480	1.716411	94949376	63582208	25673344	24992
481	1.722545	94949376	63582208	27902840	24992
482	1.729907	94949376	63582208	30136328	24992
483	2.050681	94949376	63582208	16088456	24992
484	1.736304	94949376	63582208	18329848	24992
485	1.72879	94949376	63582208	20575024	24992
486	1.740975	94949376	63582208	22827616	24992
487	1.736655	94949376	63582208	25080784	24992
488	1.749137	94949376	63582208	27337848	24992
489	1.743549	94949376	63582208	29611680	24992
490	2.187293	94949376	63582208	15689440	24992
491	1.758828	94949376	63582208	17958400	24992
492	1.680199	94949376	63582208	20233776	24992
493	1.675936	94949376	63582208	22510584	24992
494	1.756759	94949376	63582208	24791296	24992
495	1.77007	94949376	63582208	27089176	24992
496	1.767218	94949376	63582208	29377736	24992
497	2.215786	94949376	63582208	15497664	24992
498	1.707711	94949376	63582208	17809120	24992
499	1.783544	94949376	63582208	20109584	24992
500	1.786581	94949376	63582208	22432248	24992
501	1.709273	94949376	63582208	24743080	24992
502	1.838201	94949376	63582208	27056496	24992
503	1.754108	94949376	63582208	29372688	24992
504	2.241368	94949376	63582208	15519376	24992
505	1.806677	94949376	63582208	17861776	24992
506	1.730648	94949376	63582208	20189768	24992
507	1.725176	94949376	63582208	22541224	24992
508	1.80795	94949376	63582208	24877056	24992
509	1.820522	94949376	63582208	27217368	24992
510	1.794081	94949376	63582208	29581312	24992
511	2.269779	94949376	63582208	15751464	24992
512	1.817966	94949376	63582208	18106920	24992
513	1.831503	94949376	63582208	20475760	24992
514	1.828307	94949376	63582208	22835264	24992
515	1.75549	94949376	63582208	25200672	24992
516	1.826777	94949376	63582208	27576944	24992
517	1.849405	94949376	63582208	29948368	24992
518	2.153848	94949376	63582208	16066816	24992
519	1.776311	94949376	63582208	18455576	24992
520	1.835666	94949376	63582208	20849952	24992
521	1.858597	94949376	63582208	23236992	24992
522	1.858628	94949376	63582208	25631560	24992
523	1.856446	94949376	63582208	28026488	24992
524	2.046273	94949376	63582208	30428864	24992
525	2.188949	94949376	63582208	16465032	24992
526	1.879892	94949376	63582208	18887664	24992
527	2.076092	94949376	63582208	21298432	24992
528	1.88547	94949376	63582208	23719680	24992
529	1.889781	94949376	63582208	26139496	24992
530	1.896537	94949376	63582208	28561952	24992
531	1.896765	94949376	63582208	31004584	24992
532	1.861412	94949376	63582208	17232296	24992
533	1.859952	94949376	63582208	19673760	24992
534	1.873302	94949376	63582208	22114192	24992
535	1.813315	94949376	63582208	24556952	24992
536	1.814337	94949376	63582208	27003024	24992
537	1.899218	94949376	63582208	29454184	24992
538	2.234593	94949376	63582208	15753920	24992
539	1.932229	94949376	63582208	18212288	24992
540	1.922411	94949376	63582208	20676056	24992
541	2.104338	94949376	63582208	23142088	24992
542	1.9513	94949376	63582208	25625952	24992
543	1.930063	94949376	63582208	28099664	24992
544	2.099491	94949376	63582208	30584104	24992
545	1.941968	94949376	63582208	16706040	24992
546	1.942917	94949376	63582208	19204464	24992
547	2.153225	94949376	63582208	21714968	24992
548	1.943969	94949376	63582208	24209560	24992
549	1.942767	94949376	63582208	26708504	24992
550	1.926784	94949376	63582208	29209792	24992
551	1.957225	94949376	63582208	31715720	24992
552	2.125055	94949376	63582208	17891936	24992
553	1.959721	94949376	63582208	20405144	24992
554	2.055525	94949376	63582208	22943680	24992
555	2.068574	94949376	63582208	25469800	24992
556	2.081117	94949376	63582208	28021968	24992
557	2.07903	94949376	63582208	30591264	24992
558	2.015078	94949376	63582208	16817272	24992
559	1.982571	94949376	63582208	19409248	24992
560	1.999221	94949376	63582208	21993400	24992
561	2.022877	94949376	63582208	24577408	24992
562	2.006693	94949376	63582208	27161528	24992
563	1.989763	94949376	63582208	29762240	24992
564	2.427894	94949376	63582208	16165168	24992
565	2.324821	94949376	63582208	18764232	24992
566	2.030704	94949376	63582208	21363696	24992
567	2.016689	94949376	63582208	23969152	24992
568	2.157092	94949376	63582208	26575384	24992
569	1.954709	94949376	63582208	29193520	24992
570	1.976804	94949376	63582208	31807816	24992
571	2.019151	94949376	63582208	18094736	24992
572	2.041708	94949376	63582208	20734416	24992
573	2.042317	94949376	63582208	23361264	24992
574	2.047161	94949376	63582208	25997104	24992
575	2.002152	94949376	63582208	28635976	24992
576	2.222044	94949376	63582208	31273736	24992
577	2.049081	94949376	63582208	17693432	24992
578	1.950972	94949376	63582208	20339008	24992
579	2.047597	94949376	63582208	22996488	24992
580	2.050814	94949376	63582208	25649984	24992
581	2.065109	94949376	63582208	28307504	24992
582	2.066756	94949376	63582208	30994080	24992
583	2.063892	94949376	63582208	17515168	24992
584	2.059688	94949376	63582208	20187712	24992
585	2.070279	94949376	63582208	22880336	24992
586	2.273815	94949376	63582208	25561056	24992
587	2.038923	94949376	63582208	28242304	24992
588	2.080591	94949376	63582208	30929208	24992
589	2.093689	94949376	63582208	17481408	24992
590	2.039057	94949376	63582208	20174360	24992
591	2.086174	94949376	63582208	22871184	24992
592	2.100461	94949376	63582208	25572064	24992
593	2.104978	94949376	63582208	28276800	24992
594	2.219682	94949376	63582208	30985416	24992
595	2.118526	94949376	63582208	17560568	24992
596	2.097838	94949376	63582208	20280160	24992
597	2.104934	94949376	63582208	23004248	24992
598	2.122369	94949376	63582208	25730288	24992
599	2.296574	94949376	63582208	28458552	24992
600	2.114202	94949376	63582208	31191000	24992
601	2.127489	94949376	63582208	17791568	24992
602	2.078269	94949376	63582208	20531888	24992
603	2.131064	94949376	63582208	23288848	24992
604	2.297613	94949376	63582208	26036800	24992
605	2.130404	94949376	63582208	28789696	24992
606	2.085219	94949376	63582208	31553624	24992
607	2.116908	94949376	63582208	18069040	24992
608	2.139023	94949376	63582208	20838152	24992
609	2.16709	94949376	63582208	23606008	24992
610	2.165735	94949376	63582208	26377704	24992
611	2.148635	94949376	63582208	29160352	24992
612	2.147724	94949376	63582208	31955408	24992
613	2.173558	94949376	63582208	18454528	24992
614	2.335005	94949376	63582208	21242016	24992
615	2.120513	94949376	63582208	24035576	24992
616	2.17169	94949376	63582208	26831096	24992
617	2.074422	94949376	63582208	29646232	24992
618	2.635798	94949376	63582208	16325464	24992
619	2.395525	94949376	63582208	19141816	24992
620	2.185612	94949376	63582208	21953336	24992
621	2.166203	94949376	63582208	24771200	24992
622	2.198585	94949376	63582208	27614432	24992
623	2.201172	94949376	63582208	30442592	24992
624	2.581929	94949376	63582208	17032680	24992
625	2.198372	94949376	63582208	19863920	24992
626	2.203243	94949376	63582208	22698752	24992
627	2.400261	94949376	63582208	25541648	24992
628	2.119986	94949376	63582208	28384304	24992
629	2.201813	94949376	63582208	31231336	24992
630	2.237284	94949376	63582208	17961536	24992
631	2.233737	94949376	63582208	20818232	24992
632	2.233837	94949376	63582208	23680312	24992
633	2.223195	94949376	63582208	26542680	24992
634	2.199148	94949376	63582208	29412568	24992
635	2.579143	94949376	63582208	16175088	24992
636	2.350433	94949376	63582208	19064800	24992
637	2.243053	94949376	63582208	21942888	24992
638	2.246066	94949376	63582208	24825832	24992
639	2.254536	94949376	63582208	27726552	24992
640	2.254434	94949376	63582208	30622248	24992
641	2.567581	94949376	63582208	17230448	24992
642	2.267849	94949376	63582208	20130368	24992
643	2.446644	94949376	63582208	23032016	24992
644	2.29003	94949376	63582208	25945272	24992
645	2.268754	94949376	63582208	28854712	24992
646	2.410263	94949376	63582208	31768176	24992
647	2.295288	94949376	63582208	18457848	24992
648	2.193265	94949376	63582208	21379288	24992
649	2.292136	94949376	63582208	24335432	24992
650	2.487391	94949376	63582208	27274792	24992
651	2.252855	94949376	63582208	30208112	24992
652	2.826656	94949376	63582208	16916552	24992
653	2.31615	94949376	63582208	19865440	24992
654	2.311437	94949376	63582208	22838648	24992
655	2.314553	94949376	63582208	25789256	24992
656	2.303775	94949376	63582208	28742168	24992
657	2.501965	94949376	63582208	31706128	24992
658	2.404646	94949376	63582208	18464008	24992
659	2.602296	94949376	63582208	21451600	24992
660	2.269495	94949376	63582208	24424616	24992
661	2.27867	94949376	63582208	27397176	24992
662	2.280694	94949376	63582208	30373624	24992
663	2.721272	94949376	63582208	17131352	24992
664	2.477494	94949376	63582208	20140504	24992
665	2.343498	94949376	63582208	23128824	24992
666	2.356737	94949376	63582208	26133784	24992
667	2.360254	94949376	63582208	29134560	24992
668	2.354723	94949376	63582208	32134808	24992
669	2.375467	94949376	63582208	18913688	24992
670	2.372813	94949376	63582208	21938632	24992
671	2.319801	94949376	63582208	24950632	24992
672	2.372081	94949376	63582208	27968656	24992
673	2.383547	94949376	63582208	30993912	24992
674	2.2942	94949376	63582208	17944784	24992
675	2.565389	94949376	63582208	20974120	24992
676	2.325042	94949376	63582208	24029296	24992
677	2.390798	94949376	63582208	27065000	24992
678	2.303452	94949376	63582208	30104536	24992
679	2.795692	94949376	63582208	16956416	24992
680	2.394425	94949376	63582208	20008896	24992
681	2.39918	94949376	63582208	23065768	24992
682	2.544441	94949376	63582208	26142272	24992
683	2.392565	94949376	63582208	29211856	24992
684	2.644887	94949376	63582208	32292872	24992
685	2.413448	94949376	63582208	19080192	24992
686	2.396974	94949376	63582208	22179888	24992
687	2.413882	94949376	63582208	25277568	24992
688	2.415576	94949376	63582208	28375248	24992
689	2.305428	94949376	63582208	31481264	24992
690	2.432812	94949376	63582208	18494888	24992
691	2.531183	94949376	63582208	21620008	24992
692	2.393461	94949376	63582208	24734128	24992
693	2.439887	94949376	63582208	27875896	24992
694	2.438279	94949376	63582208	30999232	24992
695	2.446451	94949376	63582208	17778128	24992
696	2.43906	94949376	63582208	20907112	24992
697	2.432183	94949376	63582208	24038080	24992
698	2.34034	94949376	63582208	27172848	24992
699	2.604212	94949376	63582208	30331848	24992
700	2.823123	94949376	63582208	17266352	24992
701	2.460218	94949376	63582208	20429744	24992
702	2.582809	94949376	63582208	23585344	24992
703	2.605755	94949376	63582208	26752392	24992
704	2.761856	94949376	63582208	29910928	24992
705	2.793847	94949376	63582208	16985504	24992
706	2.720451	94949376	63582208	20151864	24992
707	2.42062	94949376	63582208	23333664	24992
708	2.418269	94949376	63582208	26507960	24992
709	2.374236	94949376	63582208	29692680	24992
710	2.902884	94949376	63582208	16804016	24992
711	2.401649	94949376	63582208	19992720	24992
712	2.386031	94949376	63582208	23206896	24992
713	2.434518	94949376	63582208	26427736	24992
714	2.50357	94949376	63582208	29625464	24992
715	3.096504	94949376	63582208	16752656	24992
716	2.466578	94949376	63582208	19958240	24992
717	2.652807	94949376	63582208	23169720	24992
718	2.397478	94949376	63582208	26385040	24992
719	2.519163	94949376	63582208	29612616	24992
720	3.006864	94949376	63582208	16762160	24992
721	2.513285	94949376	63582208	19987584	24992
722	2.42077	94949376	63582208	23218104	24992
723	2.525559	94949376	63582208	26451480	24992
724	2.537389	94949376	63582208	29688664	24992
725	3.024392	94949376	63582208	16860400	24992
726	2.544129	94949376	63582208	20106776	24992
727	2.544599	94949376	63582208	23356312	24992
728	2.584065	94949376	63582208	26611920	24992
729	2.544914	94949376	63582208	29868840	24992
730	2.963076	94949376	63582208	17064256	24992
731	2.500103	94949376	63582208	20339616	24992
732	2.552147	94949376	63582208	23616104	24992
733	2.437562	94949376	63582208	26889000	24992
734	2.674403	94949376	63582208	30172832	24992
735	2.995134	94949376	63582208	17258232	24992
736	2.749731	94949376	63582208	20547520	24992
737	2.569704	94949376	63582208	23837424	24992
738	2.594629	94949376	63582208	27163072	24992
739	2.465049	94949376	63582208	30459432	24992
740	2.952422	94949376	63582208	17560448	24992
741	2.471975	94949376	63582208	20867240	24992
742	2.591019	94949376	63582208	24187840	24992
743	2.552365	94949376	63582208	27499992	24992
744	2.58652	94949376	63582208	30832848	24992
745	2.93885	94949376	63582208	17893184	24992
746	2.602867	94949376	63582208	21217088	24992
747	2.561592	94949376	63582208	24544992	24992
748	2.492921	94949376	63582208	27876712	24992
749	2.701745	94949376	63582208	31212536	24992
750	2.775487	94949376	63582208	18493288	24992
751	2.758822	94949376	63582208	21843616	24992
752	2.765194	94949376	63582208	25219336	24992
753	2.574537	94949376	63582208	28573280	24992
754	2.639491	94949376	63582208	31934816	24992
755	2.595286	94949376	63582208	19116152	24992
756	2.520372	94949376	63582208	22482736	24992
757	2.629241	94949376	63582208	25850608	24992
758	2.525807	94949376	63582208	29221664	24992
759	2.657412	94949376	63582208	32596784	24992
760	2.650548	94949376	63582208	19738968	24992
761	2.615237	94949376	63582208	23129528	24992
762	2.895148	94949376	63582208	26516544	24992
763	2.555733	94949376	63582208	29913008	24992
764	3.0664	94949376	63582208	17260064	24992
765	2.548666	94949376	63582208	20659248	24992
766	2.811488	94949376	63582208	24078816	24992
767	2.616622	94949376	63582208	27485472	24992
768	2.660377	94949376	63582208	30904504	24992
769	2.956263	94949376	63582208	18063840	24992
770	2.688339	94949376	63582208	21489304	24992
771	2.562216	94949376	63582208	24912504	24992
772	2.571335	94949376	63582208	28355088	24992
773	2.692104	94949376	63582208	31799808	24992
774	2.713436	94949376	63582208	19199800	24992
775	3.317649	94949376	63582208	22640576	24992
776	2.703101	94949376	63582208	26091704	24992
777	2.768303	94949376	63582208	29564888	24992
778	3.36706	94949376	63582208	16988936	24992
779	2.690392	94949376	63582208	20442688	24992
780	2.716395	94949376	63582208	23921120	24992
781	2.648573	94949376	63582208	27395104	24992
782	2.76601	94949376	63582208	30893432	24992
783	3.215558	94949376	63582208	18157544	24992
784	2.723857	94949376	63582208	21637184	24992
785	2.915643	94949376	63582208	25114672	24992
786	2.673445	94949376	63582208	28614248	24992
787	2.741341	94949376	63582208	32124152	24992
788	2.777607	94949376	63582208	19464008	24992
789	2.754614	94949376	63582208	22983920	24992
790	2.689857	94949376	63582208	26487920	24992
791	2.748122	94949376	63582208	29989440	24992
792	3.626642	94949376	63582208	17500680	24992
793	2.726494	94949376	63582208	21010856	24992
794	2.932545	94949376	63582208	24527680	24992
795	2.660662	94949376	63582208	28074640	24992
796	2.919626	94949376	63582208	31595424	24992
797	2.813437	94949376	63582208	19110672	24992
798	2.811505	94949376	63582208	22639432	24992
799	2.709959	94949376	63582208	26184720	24992
800	3.04592	94949376	63582208	29724080	24992
801	3.299935	94949376	63582208	17295792	24992
802	2.783931	94949376	63582208	20840248	24992
803	2.793455	94949376	63582208	24401272	24992
804	2.799595	94949376	63582208	27989496	24992
805	2.983396	94949376	63582208	31545712	24992
806	2.771022	94949376	63582208	19096064	24992
807	2.804798	94949376	63582208	22676592	24992
808	2.771071	94949376	63582208	26275112	24992
809	2.805482	94949376	63582208	29847136	24992
810	3.31301	94949376	63582208	17417584	24992
811	3.013672	94949376	63582208	21024632	24992
812	2.699144	94949376	63582208	24636872	24992
813	3.012663	94949376	63582208	28249144	24992
814	2.824927	94949376	63582208	31861384	24992
815	2.734028	94949376	63582208	19455568	24992
816	2.836597	94949376	63582208	23060576	24992
817	2.936186	94949376	63582208	26673744	24992
818	2.714866	94949376	63582208	30286976	24992
819	3.446897	94949376	63582208	17801136	24992
820	2.93995	94949376	63582208	21434552	24992
821	2.854816	94949376	63582208	25064376	24992
822	2.86929	94949376	63582208	28690096	24992
823	2.80618	94949376	63582208	32318904	24992
824	3.035755	94949376	63582208	19827280	24992
825	2.795985	94949376	63582208	23462456	24992
826	2.80456	94949376	63582208	27101560	24992
827	2.819598	94949376	63582208	30782264	24992
828	3.525985	94949376	63582208	18279592	24992
829	2.745153	94949376	63582208	21946960	24992
830	2.971049	94949376	63582208	25641264	24992
831	2.877906	94949376	63582208	29320952	24992
832	3.094516	94949376	63582208	33047648	24992
833	2.896415	94949376	63582208	20544376	24992
834	2.895702	94949376	63582208	24247520	24992
835	3.019746	94949376	63582208	27946368	24992
836	2.905131	94949376	63582208	31641104	24992
837	2.912997	94949376	63582208	19360040	24992
838	3.153005	94949376	63582208	23095720	24992
839	3.107969	94949376	63582208	26909272	24992
840	2.907952	94949376	63582208	30685392	24992
841	3.4197	94949376	63582208	18318880	24992
842	2.932328	94949376	63582208	22103984	24992
843	3.097929	94949376	63582208	25908912	24992
844	3.07248	94949376	63582208	29700888	24992
845	3.373654	94949376	63582208	17526664	24992
846	2.947931	94949376	63582208	21348440	24992
847	2.939207	94949376	63582208	25152248	24992
848	2.947273	94949376	63582208	28965360	24992
849	2.951259	94949376	63582208	32777088	24992
850	3.107911	94949376	63582208	20504808	24992
851	2.946366	94949376	63582208	24388184	24992
852	2.967142	94949376	63582208	28263384	24992
853	2.959889	94949376	63582208	32167256	24992
854	2.92776	94949376	63582208	20097144	24992
855	2.955618	94949376	63582208	23994984	24992
856	2.96341	94949376	63582208	27885856	24992
857	2.960657	94949376	63582208	31791272	24992
858	2.871367	94949376	63582208	19745400	24992
859	3.147805	94949376	63582208	23648216	24992
860	2.95086	94949376	63582208	27596648	24992
861	3.111892	94949376	63582208	31507240	24992
862	3.005557	94949376	63582208	19154056	24992
863	3.008157	94949376	63582208	23087592	24992
864	2.994664	94949376	63582208	27039760	24992
865	3.005072	94949376	63582208	30966088	24992
866	3.711779	94949376	63582208	18766984	24992
867	3.003639	94949376	63582208	22705136	24992
868	3.020706	94949376	63582208	26668488	24992
869	3.021508	94949376	63582208	30610576	24992
870	3.670659	94949376	63582208	18422176	24992
871	3.035384	94949376	63582208	22372088	24992
872	3.234677	94949376	63582208	26326072	24992
873	2.960019	94949376	63582208	30306632	24992
874	3.673887	94949376	63582208	18233752	24992
875	3.278488	94949376	63582208	22207536	24992
876	3.033996	94949376	63582208	26193024	24992
877	3.008284	94949376	63582208	30166520	24992
878	3.68798	94949376	63582208	18193256	24992
879	2.910217	94949376	63582208	22181784	24992
880	3.090708	94949376	63582208	26207048	24992
881	3.211417	94949376	63582208	30196400	24992
882	3.758431	94949376	63582208	18240696	24992
883	3.348753	94949376	63582208	22257232	24992
884	2.94342	94949376	63582208	26283552	24992
885	3.012447	94949376	63582208	30318464	24992
886	3.604526	94949376	63582208	18380656	24992
887	3.170459	94949376	63582208	22397576	24992
888	3.046043	94949376	63582208	26418376	24992
889	3.084658	94949376	63582208	30467784	24992
890	3.652706	95219712	64106496	18471536	24992
891	2.945692	95219712	64106496	22500328	24992
892	3.091194	95219712	64106496	26533488	24992
893	3.092503	95219712	64106496	30585712	24992
894	3.700238	95219712	64106496	18528376	24992
895	3.100867	95219712	64106496	22573024	24992
896	3.283158	95219712	64106496	26621440	24992
897	3.109857	95219712	64106496	30681120	24992
898	3.585884	95219712	64106496	18623416	24992
899	3.190931	95219712	64106496	22683824	24992
900	3.123896	95219712	64106496	26748072	24992
901	3.305172	95219712	64106496	30821064	24992
902	3.61783	95219712	64106496	18767536	24992
903	3.12671	95219712	64106496	22897280	24992
904	3.054852	95219712	64106496	27025136	24992
905	3.124257	95219712	64106496	31154104	24992
906	3.867356	95219712	64106496	19155216	24992
907	3.154818	95219712	64106496	23247032	24992
908	3.154578	95219712	64106496	27342800	24992
909	3.166756	95219712	64106496	31442408	24992
910	3.695384	95219712	64106496	19364960	24992
911	3.298268	95219712	64106496	23480448	24992
912	3.158575	95219712	64106496	27609200	24992
913	3.180728	95219712	64106496	31746328	24992
914	3.2155	95219712	64106496	19659968	24992
915	3.070411	95219712	64106496	23783280	24992
916	3.092846	95219712	64106496	27910424	24992
917	3.200055	95219712	64106496	32041528	24992
918	3.278911	95219712	64106496	20241560	24992
919	3.148328	95219712	64106496	24380632	24992
920	3.119134	95219712	64106496	28523664	24992
921	3.057308	95219712	64106496	32693648	24992
922	3.19267	95219712	64106496	20857128	24992
923	3.377495	95219712	64106496	25033696	24992
924	3.193365	95219712	64106496	29221824	24992
925	3.1265	95219712	64106496	33397712	24992
926	3.186106	95219712	64106496	21452112	24992
927	3.141004	95219712	64106496	25661536	24992
928	3.416262	95219712	64106496	29860112	24992
929	3.933455	95219712	64106496	18112912	24992
930	3.222662	95219712	64106496	22295440	24992
931	3.230211	95219712	64106496	26481840	24992
932	3.225624	95219712	64106496	30672128	24992
933	4.049157	95219712	64106496	18820016	24992
934	3.354294	95219712	64106496	23022424	24992
935	3.174056	95219712	64106496	27228696	24992
936	3.242192	95219712	64106496	31475416	24992
937	3.775185	95219712	64106496	19570040	24992
938	3.146004	95219712	64106496	23785392	24992
939	3.242235	95219712	64106496	28003224	24992
940	3.104907	95219712	64106496	32225008	24992
941	3.151523	95490048	64106496	20556512	24992
942	3.261847	95490048	64106496	24834080	24992
943	3.252573	95490048	64106496	29067672	24992
944	3.263463	95490048	64106496	33305320	24992
945	3.379695	95490048	64106496	21429904	24992
946	3.272149	95490048	64106496	25726056	24992
947	3.200011	95490048	64106496	30025384	24992
948	4.007568	95490048	64106496	18362376	24992
949	3.377491	95490048	64106496	22660152	24992
950	3.129318	95490048	64106496	26962664	24992
951	3.438041	95490048	64106496	31227848	24992
952	3.843124	95490048	64106496	19386088	24992
953	3.143764	95490048	64106496	23659216	24992
954	3.35762	95490048	64106496	27936176	24992
955	3.145957	95490048	64106496	32223728	24992
956	3.182742	95490048	64106496	20592752	24992
957	3.242122	95490048	64106496	24893792	24992
958	3.487769	95490048	64106496	29186416	24992
959	3.977761	95490048	64106496	33487296	24992
960	3.34655	95490048	64106496	21713544	24992
961	3.347163	95490048	64106496	26044400	24992
962	3.781	95490048	64106496	30352792	24992
963	4.066019	95490048	64106496	18764400	24992
964	3.185879	95490048	64106496	23080736	24992
965	3.518447	95490048	64106496	27418928	24992
966	3.333914	95490048	64106496	31754760	24992
967	4.039615	95490048	64106496	19882032	24992
968	3.315391	95490048	64106496	24214072	24992
969	3.279242	95490048	64106496	28551216	24992
970	3.467948	95490048	64106496	32891280	24992
971	3.33139	95490048	64106496	21319096	24992
972	3.551332	95490048	64106496	25678168	24992
973	3.557831	95490048	64106496	30089056	24992
974	4.305426	95490048	64630784	18553432	24992
975	3.547244	95490048	64630784	22920664	24992
976	3.56456	95490048	64630784	27289008	24992
977	3.560225	95490048	64630784	31679560	24992
978	3.920114	95760384	64630784	19952200	24992
979	3.524754	95760384	64630784	24327456	24992
980	3.404349	95760384	64630784	28712464	24992
981	3.39186	95760384	64630784	33095752	24992
982	3.409166	95760384	64630784	21456864	24992
983	3.408672	95760384	64630784	25847984	24992
984	3.330417	95760384	64630784	30244664	24992
985	4.187309	95760384	64630784	18742536	24992
986	3.400994	95760384	64630784	23170392	24992
987	3.353775	95760384	64630784	27603024	24992
988	3.466553	95760384	64630784	32038336	24992
989	4.074986	95760384	64630784	20184936	24992
990	3.569303	95760384	64630784	24608688	24992
991	3.417438	95760384	64630784	29031432	24992
992	3.42519	95760384	64630784	33464752	24992
993	3.577016	95760384	64630784	21797368	24992
994	3.432136	95760384	64630784	26231776	24992
995	3.430209	95760384	64630784	30670168	24992
996	4.101424	95760384	64630784	19256672	24992
997	3.435782	95760384	64630784	23702976	24992
998	3.446437	95760384	64630784	28153272	24992
999	3.618217	95760384	64630784	32634840	24992
1000	3.456057	95760384	64630784	21201824	24992
