x	Duration	RSS	HeapTotal	HeapUsed	External
0	NA	115245056	80883712	14405472	33184
1	0.402123	115245056	80883712	14457776	33184
2	0.35043	115245056	80883712	14525752	33184
3	0.394544	115245056	80883712	14618464	33184
4	0.474194	115245056	80883712	14737584	33184
5	0.563894	115245056	80883712	14884872	33184
6	0.659858	115245056	80883712	15061016	33184
7	0.783487	115245056	80883712	15267248	33184
8	0.868408	115245056	80883712	15504832	33184
9	0.999187	115245056	80883712	15776208	33184
10	1.852297	115245056	80883712	16081696	33184
11	0.618089	115245056	80883712	16422456	33184
12	0.636094	115245056	80883712	16799912	33184
13	0.688697	115245056	80883712	17215032	33184
14	0.884503	115245056	80883712	17672944	33184
15	0.800134	115245056	80883712	18167888	33184
16	0.844357	115245056	80883712	18703656	33184
17	0.910345	115245056	80883712	19283928	33184
18	1.19722	115245056	80883712	19908104	33184
19	1.134802	115245056	80883712	20580864	33184
20	1.073592	115245056	80883712	21296272	33184
21	1.135522	115245056	80883712	22060096	33184
22	0.398391	115245056	80883712	22847408	33184
23	0.276768	115245056	80883712	22997104	33184
24	0.331925	115245056	80883712	23198904	33184
25	0.413628	115245056	80883712	23454120	33184
26	0.512	115245056	80883712	23764360	33184
27	0.593223	115245056	80883712	24130576	33184
28	0.650037	115245056	80883712	24553696	33184
29	0.743702	115245056	80883712	25035088	33184
30	0.818441	115245056	80883712	25576840	33184
31	1.635792	115245056	80883712	26179416	33184
32	1.035087	115245056	80883712	26843888	33184
33	1.158348	115245056	80883712	27571488	33184
34	1.202848	115245056	80883712	28363448	33184
35	1.375545	115245056	80883712	29221776	33184
36	2.010137	115245056	80883712	30147648	33184
37	1.523876	115245056	80883712	31159224	33184
38	2.446875	115245056	80883712	15904576	33184
39	1.665214	115245056	80883712	17041440	33184
40	1.734897	115245056	80883712	18247760	33184
41	1.828578	115245056	80883712	19526944	33184
42	0.252294	115245056	80883712	20883368	33184
43	0.365624	115245056	80883712	21106944	33184
44	0.470125	115245056	80883712	21407912	33184
45	0.583519	115245056	80883712	21789256	33184
46	0.695597	115245056	80883712	22251280	33184
47	0.811726	115245056	80883712	22795376	33184
48	0.930251	115245056	80883712	23422816	33184
49	1.054461	115245056	80883712	24134752	33184
50	1.175157	115245056	80883712	24933392	33184
51	1.436482	115245056	80883712	25820504	33184
52	1.419664	115245056	80883712	26794312	33184
53	1.766018	115245056	80883712	27857648	33184
54	1.66765	115245056	80883712	29011600	33184
55	1.803295	115245056	80883712	30257424	33184
56	2.852849	115245056	80883712	15475712	33184
57	2.596703	115245056	80883712	16911552	33184
58	2.216605	115245056	80883712	18442296	33184
59	2.335779	115245056	80883712	20069760	33184
60	2.484968	115245056	80883712	21795704	33184
61	2.607471	115245056	80883712	23620824	33184
62	0.328699	115245056	80883712	25579136	33184
63	0.478489	115245056	80883712	25881232	33184
64	0.978083	115245056	80883712	26287880	33184
65	0.807197	115245056	80883712	26799144	33184
66	0.919196	115245056	80883712	27414248	33184
67	1.116691	115245056	80883712	28135960	33184
68	1.246136	115245056	80883712	28965432	33184
69	1.366471	115245056	80883712	29904016	33184
70	1.654556	115245056	80883712	30953864	33184
71	2.717633	115245056	80883712	15855536	33184
72	2.444903	115245056	80883712	17131520	33184
73	1.998765	115245056	80883712	18519568	33184
74	2.279142	115245056	80883712	20022768	33184
75	2.335987	115245056	80883712	21642496	33184
76	2.71078	115245056	80883712	23379792	33184
77	2.876659	115245056	80883712	25235856	33184
78	2.839214	115245056	80883712	27214880	33184
79	3.002232	115245056	80883712	29314272	33184
80	3.232346	115245056	80883712	31536784	33184
81	4.434927	115245056	80883712	17532368	33184
82	0.39373	115245056	80883712	20064712	33184
83	0.59347	115245056	80883712	20440288	33184
84	0.764138	115245056	80883712	20945616	33184
85	0.950836	115245056	80883712	21579664	33184
86	1.137509	115245056	80883712	22345192	33184
87	1.543613	115245056	80883712	23243096	33184
88	1.508717	115245056	80883712	24275616	33184
89	1.700699	115245056	80883712	25441688	33184
90	1.904157	115245056	80883712	26744528	33184
91	2.572112	115245056	80883712	28189248	33184
92	2.290874	115245056	80883712	29771928	33184
93	2.696622	115245056	80883712	31496448	33184
94	3.458656	115245056	80883712	17028456	33184
95	2.915896	115245056	80883712	19040120	33184
96	3.100251	115245056	80883712	21197040	33184
97	3.66781	115245056	80883712	23500680	33184
98	3.505413	115245056	80883712	25954032	33184
99	3.717932	115245056	80883712	28557608	33184
100	3.990893	115245056	80883712	31310752	33184
101	4.755173	115245056	80883712	17897720	33184
102	0.496608	115245056	80883712	21044184	33184
103	0.924444	115245056	80883712	21503096	33184
104	0.91392	115245056	80883712	22117184	33184
105	1.132113	115245056	80883712	22887784	33184
106	1.365666	115245056	80883712	23816528	33184
107	1.594281	115245056	80883712	24904240	33184
108	2.125113	115245056	80883712	26152024	33184
109	2.09891	115245056	80883712	27564608	33184
110	2.491484	115245056	80883712	29137296	33184
111	2.499139	115245056	80883712	30873784	33184
112	3.429177	115245056	80883712	16536600	33184
113	3.076428	115245056	80883712	18604368	33184
114	3.970998	115245056	80883712	20840488	33184
115	3.590342	115245056	80883712	23253304	33184
116	3.675421	115245056	80883712	25828024	33184
117	4.131436	115245056	80883712	28573336	33184
118	4.392865	115245056	80883712	31492720	33184
119	5.295914	115245056	80883712	18264848	33184
120	4.940764	115245056	80883712	21535272	33184
121	4.912262	115245056	80883712	24980152	33184
122	0.535313	115245056	80883712	28715968	33184
123	0.805772	115245056	80883712	29248552	33184
124	1.069011	115245056	80883712	29961032	33184
125	1.316752	115245056	80883712	30854336	33184
126	1.57239	115245056	80883712	31930400	33184
127	2.542726	115245056	80883712	16849016	33184
128	2.444313	115245056	80883712	18293144	33184
129	2.366667	115245056	80883712	19923224	33184
130	2.63429	115245056	80883712	21741352	33184
131	2.908852	115245056	80883712	23747848	33184
132	3.359919	115245056	80883712	25944280	33184
133	3.453756	115245056	80883712	28331176	33184
134	4.489687	115245056	80883712	30910184	33184
135	5.18616	115245056	80883712	17486800	33184
136	4.341478	115245056	80883712	20453504	33184
137	4.529448	115245056	80883712	23618536	33184
138	5.330068	115245056	80883712	26980800	33184
139	5.325124	115245056	80883712	30540080	33184
140	6.36773	115245056	80883712	18207432	33184
141	5.675487	115245056	80883712	22166328	33184
142	0.619873	115245056	80883712	26477856	33184
143	0.919588	115245056	80883712	27089448	33184
144	1.200732	115245056	80883712	27907040	33184
145	1.496587	115245056	80883712	28932056	33184
146	1.800326	115245056	80883712	30166112	33184
147	2.086984	115245056	80883712	31609936	33184
148	3.162328	115245056	80883712	17155656	33184
149	2.706509	115245056	80883712	19022752	33184
150	3.002909	115245056	80883712	21104120	33184
151	3.489985	115245056	80883712	23400256	33184
152	3.667905	115245056	80883712	25912320	33184
153	3.950976	115245056	80883712	28641504	33184
154	4.930455	115245056	80883712	31590048	33184
155	5.523566	115245056	80883712	18626464	33184
156	4.890515	115245056	80883712	22014336	33184
157	5.438247	115245056	80883712	25625464	33184
158	5.499707	115245056	80883712	29460520	33184
159	6.951243	115245056	80883712	17669432	33184
160	6.133069	115245056	80883712	21955136	33184
161	6.515676	115245056	80883712	26467760	33184
162	0.692274	115245056	80883712	31380552	33184
163	1.025001	115245056	80883712	32066040	33184
164	1.424751	115245056	80883712	32981872	33184
165	2.342113	115245056	80883712	17847688	33184
166	2.300292	115245056	80883712	19229016	33184
167	2.392951	115245056	80883712	20847152	33184
168	2.904997	115245056	80883712	22698136	33184
169	3.020326	115245056	80883712	24785720	33184
170	3.362343	115245056	80883712	27112208	33184
171	3.69925	115245056	80883712	29677944	33184
172	4.039699	115245056	80883712	32484072	33184
173	5.216134	115245056	80883712	19329648	33184
174	4.97611	115245056	80883712	22620440	33184
175	5.079197	115245056	80883712	26155184	33184
176	5.685261	115245056	80883712	29935144	33184
177	6.760946	115245056	80883712	18097712	33184
178	6.159834	115245056	80883712	22374000	33184
179	6.547647	115245056	80883712	26899288	33184
180	7.314119	115245056	80883712	31679464	33184
181	8.264884	115245056	80883712	20605328	33184
182	0.775036	115245056	80883712	26103936	33184
183	1.141031	115245056	80883712	26875200	33184
184	1.725135	115245056	80883712	27905776	33184
185	1.874177	115245056	80883712	29196856	33184
186	2.265995	115245056	80883712	30750248	33184
187	2.608922	115245056	80883712	32566504	33184
188	4.01316	115245056	80883712	18488256	33184
189	3.590489	115245056	80883712	20834248	33184
190	3.955548	115245056	80883712	23448064	33184
191	4.157843	115245056	80883712	26330480	33184
192	4.722322	115245056	80883712	29481000	33184
193	4.883707	115245056	80883712	32901904	33184
194	6.269593	115245056	80883712	20378208	33184
195	5.662868	115245056	80883712	24343936	33184
196	6.044413	115245056	80883712	28583200	33184
197	6.532766	115245056	80883712	33098296	33184
198	7.929042	115245056	80883712	21647448	33184
199	7.515269	115245056	80883712	26718168	33184
200	7.758741	115245056	80883712	32068264	33184
201	9.110255	115245056	80883712	21576992	33184
202	0.84541	115245056	80883712	27718936	33184
203	1.302203	115245056	80883712	28563800	33184
204	1.854643	115245056	80883712	29692536	33184
205	2.093713	115245056	80883712	31106280	33184
206	2.739074	115245056	80883712	32807024	33184
207	4.071904	115245056	80883712	18636704	33184
208	3.346417	115245056	80883712	20913504	33184
209	3.702005	115245056	80883712	23480448	33184
210	4.330633	115245056	80883712	26339504	33184
211	4.552926	115245056	80883712	29491160	33184
212	4.958539	115245056	80883712	32936368	33184
213	6.268326	115245056	80883712	20513720	33184
214	6.039152	115245056	80883712	24553240	33184
215	6.21951	115245056	80883712	28886832	33184
216	6.859898	115245056	80883712	33518680	33184
217	7.895094	115245056	80883712	22203776	33184
218	7.5136	115245056	80883712	27438336	33184
219	8.188158	115245056	80883712	32979656	33184
220	9.253667	115245056	80883712	22633608	33184
221	9.092386	115245056	80883712	28779136	33184
222	0.940267	115245056	80883712	19877368	33184
223	1.368627	115245056	80883712	20795848	33184
224	1.801836	115245056	80883712	22022744	33184
225	2.472213	115245056	80883712	23559216	33184
226	2.699405	115245056	80883712	25407032	33184
227	3.131053	115245056	80883712	27566896	33184
228	3.588199	115245056	80883712	30039968	33184
229	4.472305	115245056	80883712	32833712	33184
230	5.486873	115245056	80883712	19842696	33184
231	4.961683	115245056	80883712	23275160	33184
232	5.39276	115245056	80883712	27026200	33184
233	6.099688	115245056	80883712	31099704	33184
234	7.625057	115245056	80883712	19636352	33184
235	7.187255	115245056	80883712	24357984	33184
236	7.246802	115245056	80883712	29405552	33184
237	7.761607	115245056	80883712	34780960	33184
238	9.272277	115245056	80883712	24123720	33184
239	8.882013	115245056	80883712	30158520	33184
240	10.463109	115245056	80883712	20797256	33184
241	9.626999	115245056	80883712	27495488	33184
242	1.021472	115245056	80883712	34813320	33184
243	2.364594	115245056	80883712	19504280	33184
244	2.182547	115245056	80883712	20840784	33184
245	2.441989	115245056	80883712	22514408	33184
246	2.911036	115245056	80883712	24526728	33184
247	3.405173	115245056	80883712	26878600	33184
248	3.897052	115245056	80883712	29571200	33184
249	4.694845	115245056	80883712	32605608	33184
250	6.421216	115245056	80883712	19969656	33184
251	5.420395	115245056	80883712	23694456	33184
252	6.116924	115245056	80883712	27763080	33184
253	6.356271	115245056	80883712	32178616	33184
254	8.261836	115245056	80883712	20987136	33184
255	7.424577	115245056	80883712	26101688	33184
256	7.861989	115245056	80883712	31567256	33184
257	9.929466	115245056	80883712	21527392	33184
258	9.097417	115245056	80883712	27698208	33184
259	9.4149	115245056	80883712	34222696	33184
260	10.870664	115245056	80883712	24879992	33184
261	10.655408	115245056	80883712	32117472	33184
262	1.080197	115245056	80883712	24079240	33184
263	1.612979	115245056	80883712	25153584	33184
264	2.105176	115245056	80883712	26588344	33184
265	2.628123	115245056	80883712	28384560	33184
266	3.165688	115245056	80883712	30545304	33184
267	4.117505	115245056	80883712	33069032	33184
268	5.365976	115245056	80883712	19947792	33184
269	4.745954	115245056	80883712	23203272	33184
270	5.518788	115245056	80883712	26827376	33184
271	5.782131	115245056	80883712	30820320	33184
272	6.369782	115245056	80883712	35183632	33184
273	8.115777	115245056	80883712	23618656	33184
274	7.393435	115245056	80883712	28730016	33184
275	8.157109	115245056	80883712	34211096	33184
276	9.5656	115245056	80883712	23909496	33184
277	9.026541	115245056	80883712	30142240	33184
278	11.46077	115245056	80883712	21122880	33184
279	10.541623	115245056	80883712	28113928	33184
280	11.01691	115245056	80883712	35485568	33184
281	12.529215	115245056	80883712	26890352	33184
282	1.216442	115245056	80883712	35370848	33184
283	2.776454	115245056	80883712	20270272	33184
284	2.260881	115245056	80883712	21803064	33184
285	2.818576	115245056	80883712	23722088	33184
286	3.380112	115245056	80883712	26035256	33184
287	4.177721	115245056	80883712	28730680	33184
288	4.502862	115245056	80883712	31815904	33184
289	5.070835	115245056	80883712	35292168	33184
290	7.108418	115245056	80883712	22924496	33184
291	6.33357	115245056	80883712	27187408	33184
292	6.818883	115245056	80883712	31845176	33184
293	9.102273	115245056	80883712	21114256	33184
294	8.230706	115245056	80883712	26565400	33184
295	8.709708	115245056	80883712	32414440	33184
296	10.536956	115245056	80883712	22800376	33184
297	9.896652	115245056	80883712	29450080	33184
298	12.271337	115245056	80883712	21033344	33184
299	10.889407	115245056	80883712	28495632	33184
300	11.878201	115245056	80883712	36358272	33184
301	13.317926	115245056	80883712	28238080	33184
302	2.346728	115245056	80883712	20964816	33184
303	1.824565	115245056	80883712	22186496	33184
304	2.631932	115245056	80883712	23817784	33184
305	3.008521	115245056	80883712	25859440	33184
306	3.605195	115245056	80883712	28314896	33184
307	4.427228	115245056	80883712	31184584	33184
308	4.806859	115245056	80883712	34466064	33184
309	6.759277	115245056	80883712	22106656	33184
310	6.148903	115245056	80883712	26221680	33184
311	6.851101	115245056	80883712	30754704	33184
312	7.278699	115245056	80883712	35706712	33184
313	9.244337	115245056	80883712	24839256	33184
314	8.489107	115245056	80883712	30636136	33184
315	9.294245	115245056	80883712	36853376	33184
316	10.997207	115245056	80883712	27091208	33184
317	10.772299	115245056	80883712	34162592	33184
318	12.74258	115245056	80883712	25609992	33184
319	11.597345	115245056	80883712	33534144	33184
320	14.057023	115245056	80883712	25929176	33184
321	12.910131	115245056	80883712	34716496	33184
322	1.315253	115245056	80883712	28216744	33184
323	1.941578	115245056	80883712	29512032	33184
324	2.591769	115245056	80883712	31241216	33184
325	3.432542	115245056	80883712	33405624	33184
326	3.834362	115245056	80883712	36007072	33184
327	5.864163	115245056	80883712	22835128	33184
328	5.219775	115245056	80883712	26313008	33184
329	5.765526	115245056	80883712	30230936	33184
330	6.625517	115245056	80883712	34591152	33184
331	8.636103	115245056	80883712	23330592	33184
332	7.946171	115245056	80883712	28577360	33184
333	8.444316	115245056	80883712	34269264	33184
334	10.84077	115245056	80883712	24400056	33184
335	10.063434	115245056	80883712	30987128	33184
336	12.13311	115245056	80883712	22465696	33184
337	11.224326	115245056	80883712	29949680	33184
338	13.82874	115245056	80883712	22504312	33184
339	12.833989	115245056	80883712	30893552	33184
340	15.208852	115245056	80883712	24212248	33184
341	13.9807	115245056	80883712	33513064	33184
342	1.611918	115245056	80883712	27845584	33184
343	2.111844	115245056	80883712	29214504	33184
344	2.722146	115245056	80883712	31041824	33184
345	3.617044	115245056	80883712	33328944	33184
346	4.061161	115245056	80883712	36077488	33184
347	6.342007	115245056	80883712	23150968	33184
348	5.428817	115245056	80883712	26825128	33184
349	6.111326	115245056	80883712	30964032	33184
350	6.800345	115245056	80883712	35569792	33184
351	9.096684	115245056	80883712	24513648	33184
352	8.392318	115245056	80883712	30054728	33184
353	8.858101	115245056	80883712	36070960	33184
354	11.127099	115245056	80883712	26372760	33184
355	10.566908	115245056	80883712	33326208	33184
356	12.928797	115245056	80883712	24952672	33184
357	11.712579	115245056	80883712	32858344	33184
358	14.488749	115245056	80883712	25510656	33184
359	13.287419	115245056	80883712	34385728	33184
360	15.859299	115245056	80883712	27831968	33184
361	14.760784	115245056	80883712	37689864	33184
362	1.514381	115245056	80883712	32143512	33184
363	2.171788	115245056	80883712	33624080	33184
364	2.879117	115245056	80883712	35600448	33184
365	3.582956	115245056	80883712	38077528	33184
366	6.035164	115245056	80883712	24689128	33184
367	5.310804	115245056	80883712	28160720	33184
368	6.477292	115245056	80883712	32133008	33184
369	6.541074	115245056	80883712	36610008	33184
370	9.275484	115245056	80883712	25413320	33184
371	8.123398	115245056	80883712	30897728	33184
372	9.086194	115245056	80883712	36892784	33184
373	10.829951	115245056	80883712	27149360	33184
374	10.14121	115245056	80883712	34159000	33184
375	12.726745	115245056	80883712	25818256	33184
376	11.852713	115245056	80883712	33843160	33184
377	14.311152	115245056	80883712	26562768	33184
378	13.577235	115245056	80883712	35614880	33184
379	15.737322	115245056	80883712	29132704	33184
380	17.229204	115245056	80883712	24026240	33184
381	15.941478	115245056	80883712	34628232	33184
382	1.546558	115245056	80883712	30328584	33184
383	2.516532	115245056	80883712	31882768	33184
384	3.079229	115245056	80883712	33958048	33184
385	3.814281	115245056	80883712	36557856	33184
386	6.192705	115245056	80883712	23596536	33184
387	5.546298	115245056	80883712	27239856	33184
388	6.278001	115245056	80883712	31408392	33184
389	6.798397	115245056	80883712	36106720	33184
390	9.583194	115245056	80883712	25260992	33184
391	8.351282	115245056	80883712	31017736	33184
392	9.280468	115245056	80883712	37301080	33184
393	11.701929	115245056	80883712	27885824	33184
394	11.204224	115245056	80883712	35279208	33184
395	13.753135	115245056	80883712	27191328	33184
396	12.873055	115245056	80883712	35606752	33184
397	14.819434	115245056	80883712	28575976	33184
398	14.016259	115245056	80883712	38066752	33184
399	16.308963	115245056	80883712	31803944	33184
400	17.771582	115245056	80883712	26875488	33184
401	16.385666	115245056	80883712	37986864	33184
402	1.624548	115245056	80883712	33856880	33184
403	2.451446	115245056	80883712	35484776	33184
404	3.183898	115245056	80883712	37662352	33184
405	5.570035	115245056	80883712	24208504	33184
406	4.810453	115245056	80883712	27484168	33184
407	5.789964	115245056	80883712	31299440	33184
408	6.349052	115245056	80883712	35667136	33184
409	9.105116	115245056	80883712	24632064	33184
410	8.200092	115245056	80883712	30105168	33184
411	8.73478	115245056	80883712	36127928	33184
412	11.469294	115245056	80883712	26691112	33184
413	10.397529	115245056	80883712	33824816	33184
414	13.698455	115245056	80883712	25827552	33184
415	12.354306	115245056	80883712	34075992	33184
416	14.92204	115245056	80883712	27159808	33184
417	13.859082	115245056	80883712	36536328	33184
418	16.394197	115245056	80883712	30429112	33184
419	18.097832	115245056	80883712	25721448	33184
420	17.341003	115245056	80883712	36801880	33184
421	19.414109	115245056	80883712	32337456	33184
422	1.726435	115245056	80883712	29623464	33184
423	2.519334	115245056	80883712	31325016	33184
424	3.339111	115245056	80883712	33604032	33184
425	4.383545	115245056	80883712	36445520	33184
426	6.836154	115245056	80883712	23911984	33184
427	5.85275	115245056	80883712	27898944	33184
428	6.659952	115245056	80883712	32460320	33184
429	7.701493	115245056	80883712	37600824	33184
430	10.467043	115245056	80883712	27174664	33184
431	9.19849	115245056	80883712	33468176	33184
432	12.624986	115245056	80883712	24788288	33184
433	11.243592	115245056	80883712	32241216	33184
434	14.190319	115245056	80883712	24885496	33184
435	12.603957	115245056	80883712	33507224	33184
436	15.985275	115245056	80883712	27162296	33184
437	14.508191	115245056	80883712	36948976	33184
438	17.549975	115245056	80883712	31285664	33184
439	19.299389	115245056	80883712	27012584	33184
440	17.072574	115245056	80883712	38564472	33184
441	20.178525	115245056	80883712	34478072	33184
442	1.771682	115245056	80883712	32092888	33184
443	2.646601	115245056	80883712	33868008	33184
444	3.500145	115245056	80883712	36238424	33184
445	4.351267	115245056	80883712	39202712	33184
446	7.133401	115245056	80883712	26517496	33184
447	6.097243	115245056	80883712	30676312	33184
448	7.232375	115245056	80883712	35437088	33184
449	10.192741	115245056	80883712	25041872	33184
450	9.202408	115245056	80883712	31001800	33184
451	9.895289	115245056	80883712	37564544	33184
452	12.937748	115245056	80883712	28664328	33184
453	11.369126	115245056	80883712	36439168	33184
454	14.63434	115245056	80883712	28919008	33184
455	13.212629	115245056	80883712	37904064	33184
456	16.115233	115245056	80883712	31396000	33184
457	17.820382	115245056	80883712	26413224	33184
458	16.261779	115245056	80883712	37229544	33184
459	19.013949	115245056	80883712	32671800	33184
460	20.218318	115245056	80883712	29358080	33184
461	22.746357	115245056	80883712	27084240	33184
462	3.814946	115245056	80883712	24724904	33184
463	2.758228	115245056	80883712	26573840	33184
464	3.874604	115245056	80883712	29045224	33184
465	4.58471	115245056	80883712	32132072	33184
466	5.884511	115245056	80883712	35846800	33184
467	6.59161	115245056	80883712	40177704	33184
468	9.309721	115245056	80883712	28846120	33184
469	8.460953	115245056	80883712	34433960	33184
470	9.079774	115245056	80883712	40640128	33184
471	12.244036	115245056	80883712	31166400	33184
472	11.002595	115245056	80883712	38627064	33184
473	13.981413	115245056	80883712	30618720	33184
474	12.907628	115245056	80883712	39342344	33184
475	15.709397	115245056	80883712	32482488	33184
476	17.40377	115245056	80883712	27181368	33184
477	16.239277	115245056	80883712	37803056	33184
478	19.013659	115245056	80883712	33065288	33184
479	20.993556	115245056	80883712	29619200	33184
480	23.137599	115245056	80883712	27290696	33184
481	19.826886	115245056	80883712	40468808	33184
482	1.963148	115245056	80883712	38642480	33184
483	2.866167	115245056	80883712	40564848	33184
484	5.64962	115245056	80883712	26910448	33184
485	5.023586	115245056	80883712	30123672	33184
486	5.94686	115245056	80883712	33979456	33184
487	6.987804	115245056	80883712	38486544	33184
488	9.807762	115245056	80883712	27589136	33184
489	8.543972	115245056	80883712	33388784	33184
490	9.712643	115245056	80883712	39847048	33184
491	12.51644	115245056	80883712	30751984	33184
492	11.618474	115245056	80883712	38507184	33184
493	14.364609	115245056	80883712	30878224	33184
494	13.776767	115245056	80883712	39946408	33184
495	16.208522	115245056	80883712	33460760	33184
496	18.105648	115245056	80883712	28499216	33184
497	16.455564	115245056	80883712	39547088	33184
498	19.532124	115245056	80883712	35092592	33184
499	20.777485	115245056	80883712	31933896	33184
500	22.688752	115245056	80883712	29865888	33184
501	24.312866	115245056	80883712	28755128	33184
502	2.035848	115245056	80883712	29108120	33184
503	3.260293	115245056	80883712	31104088	33184
504	4.156004	115245056	80883712	33767576	33184
505	4.963232	115245056	80883712	37100352	33184
506	6.184625	115245056	80883712	41103224	33184
507	9.488219	115245056	80883712	29557080	33184
508	7.890247	115245056	80883712	34905560	33184
509	9.092801	115245056	80883712	40931272	33184
510	11.779361	115245056	80883712	31351696	33184
511	11.127252	115245056	80883712	38729480	33184
512	14.131618	115245056	80883712	30787048	33184
513	13.08933	115245056	80883712	39517376	33184
514	16.012454	115245056	80883712	32818208	33184
515	18.124069	115245056	80883712	27735312	33184
516	16.251313	115245056	80883712	38507128	33184
517	19.917586	115245056	80883712	34030184	33184
518	21.44368	115245056	80883712	30880696	33184
519	22.824479	115245056	80883712	28820712	33184
520	20.141079	115245056	80883712	42336968	33184
521	23.035849	115245056	80883712	40093896	33184
522	2.082969	115245056	80883712	39554784	33184
523	3.094068	115245056	80883712	41624360	33184
524	6.104255	115245056	80883712	28165824	33184
525	5.575522	115245056	80883712	31620856	33184
526	6.181471	115245056	80883712	35771088	33184
527	7.789031	115245056	80883712	40623008	33184
528	10.453528	115245056	80883712	29967496	33184
529	9.295477	115245056	80883712	36209864	33184
530	12.991534	115245056	80883712	27601208	33184
531	11.534914	115245056	80883712	35252712	33184
532	14.999309	115245056	80883712	28160000	33184
533	13.624137	115245056	80883712	37207504	33184
534	17.060554	115245056	80883712	31255336	33184
535	15.91251	115245056	80883712	41715464	33184
536	18.784387	115245056	80883712	36599448	33184
537	20.542166	115245056	80883712	32858584	33184
538	22.423564	115245056	80883712	30359656	33184
539	23.696572	115245056	80883712	28910208	33184
540	24.929647	115245056	80883712	28380632	33184
541	26.34333	115245056	80883712	28622456	33184
542	2.181302	115245056	80883712	30248912	33184
543	3.211235	115245056	80883712	32392184	33184
544	4.478443	115245056	80883712	35251952	33184
545	5.400252	115245056	80883712	38829768	33184
546	8.954948	115245056	80883712	27332888	33184
547	7.574016	115245056	80883712	32352016	33184
548	8.586529	115245056	80883712	38091344	33184
549	12.411829	115245056	80883712	28800136	33184
550	11.189566	115245056	80883712	35989712	33184
551	14.813391	115245056	80883712	28431480	33184
552	13.12098	115245056	80883712	37071576	33184
553	16.88188	115245056	80883712	30825624	33184
554	15.355416	115245056	80883712	40925976	33184
555	18.914347	115245056	80883712	35606168	33184
556	20.12488	115245056	80883712	31782928	33184
557	21.991767	115245056	80883712	29223432	33184
558	19.856724	115245056	80883712	42269832	33184
559	22.392582	115245056	80883712	39785984	33184
560	23.885823	115245056	80883712	38343112	33184
561	25.695322	115245056	80883712	37832192	33184
562	2.251371	115245056	80883712	38893128	33184
563	3.312207	115245056	80883712	41138896	33184
564	6.709385	115245056	80883712	28111560	33184
565	5.947259	115245056	80883712	31846136	33184
566	6.673119	115245056	80883712	36332104	33184
567	8.14196	115245056	80883712	41569160	33184
568	11.214893	115245056	80883712	31373064	33184
569	9.954286	115245056	80883712	38126424	33184
570	13.762421	115245056	80883712	29953464	33184
571	12.409179	115245056	80883712	38211416	33184
572	15.894123	115245056	80883712	31542568	33184
573	15.04856	115245056	80883712	41326488	33184
574	19.704501	115245056	80883712	35748368	33184
575	20.975832	115245056	80883712	31689600	33184
576	19.095492	115245056	80883712	43772760	33184
577	21.31451	115245056	80883712	40160136	33184
578	22.776605	115245056	80883712	37777608	33184
579	24.893484	115245056	80883712	36508216	33184
580	25.166172	115245056	80883712	36151072	33184
581	26.98587	115245056	80883712	36681312	33184
582	2.318304	115245056	80883712	38627408	33184
583	3.444296	115245056	80883712	40938600	33184
584	4.609845	115245056	80883712	44022256	33184
585	8.06515	115245056	80883712	31518472	33184
586	7.093168	115245056	80883712	36155704	33184
587	8.192811	115245056	80883712	41568712	33184
588	11.549978	115245056	80883712	31677464	33184
589	10.289925	115245056	80883712	38648216	33184
590	14.516615	115245056	80883712	30726872	33184
591	12.870075	115245056	80883712	39261344	33184
592	16.472077	115245056	80883712	32811752	33184
593	15.136061	115245056	80883712	42916152	33184
594	18.496422	115245056	80883712	37533048	33184
595	20.151625	115245056	80883712	33638280	33184
596	22.068355	115245056	80883712	31071232	33184
597	20.26659	115245056	80883712	44319240	33184
598	23.336378	115245056	80883712	41902992	33184
599	24.166554	115245056	80883712	40616896	33184
600	25.642816	115245056	80883712	40273616	33184
601	27.006188	115245056	80883712	40818912	33184
602	2.396063	115245056	80883712	42843088	33184
603	5.918432	115245056	80883712	29137872	33184
604	4.808471	115245056	80883712	32326312	33184
605	6.163593	115245056	80883712	36306160	33184
606	7.299069	115245056	80883712	41086088	33184
607	11.10381	115245056	80883712	30706872	33184
608	9.699923	115245056	80883712	37089312	33184
609	10.856933	115245056	80883712	44280880	33184
610	14.243885	115245056	80883712	35909256	33184
611	13.367886	115245056	80883712	44709440	33184
612	16.587624	115245056	80883712	37871232	33184
613	18.459736	115245056	80883712	32762424	33184
614	17.105879	115245056	80883712	43984016	33184
615	20.732887	115245056	80883712	39668760	33184
616	22.246686	115245056	80883712	36781744	33184
617	23.467024	115245056	80883712	35082864	33184
618	25.394304	115245056	80883712	34469264	33184
619	26.722862	115245056	80883712	34739128	33184
620	27.67503	115245056	80883712	35757848	33184
621	29.076076	115245056	80883712	37495112	33184
622	2.478478	115245056	80883712	40651920	33184
623	3.671756	115245056	80883712	43111552	33184
624	7.781453	115245056	80883712	30319568	33184
625	6.3236	115245056	80883712	34422152	33184
626	7.731739	115245056	80883712	39352968	33184
627	8.965425	115245056	80883712	45109256	33184
628	11.967937	115245056	80883712	35252768	33184
629	10.995212	115245056	80883712	42665144	33184
630	15.081672	115245056	80883712	34805992	33184
631	13.461827	115245056	80883712	43879912	33184
632	17.267156	115245056	80883712	37514272	33184
633	19.30716	115245056	80883712	32874848	33184
634	17.459534	115245056	80883712	44445832	33184
635	21.202345	115245056	80883712	40513376	33184
636	22.9121	115245056	80883712	37949664	33184
637	24.436539	115245056	80883712	36598640	33184
638	25.796009	115245056	80883712	36255784	33184
639	27.731836	115245056	80883712	36820944	33184
640	28.591024	115245056	80883712	38156648	33184
641	30.197218	115245056	81408000	40125344	33184
642	2.561109	115245056	81408000	43537904	33184
643	6.330791	115515392	81408000	30010648	33184
644	5.285848	115515392	81408000	33388432	33184
645	7.065813	115515392	81408000	37614000	33184
646	7.984219	115515392	81408000	42689880	33184
647	11.618112	115515392	81408000	32570184	33184
648	10.560411	115515392	81408000	39346368	33184
649	14.2641	115515392	81408000	31390272	33184
650	13.093692	115515392	81408000	39872232	33184
651	16.76899	115515392	81408000	33576192	33184
652	15.396975	115515392	81408000	43770936	33184
653	19.292483	115515392	81408000	38685784	33184
654	21.242526	115515392	81408000	35119952	33184
655	22.773463	115515392	81408000	32888792	33184
656	24.656713	115515392	81408000	31870448	33184
657	26.791002	115515392	81408000	31829464	33184
658	27.614716	115785728	81408000	32659192	33184
659	29.201782	115785728	81408000	34240536	33184
660	29.765962	115785728	81408000	36500536	33184
661	31.093782	115785728	81408000	39354592	33184
662	2.621668	115785728	81408000	43509008	33184
663	4.112588	115785728	81408000	46114472	33184
664	8.088731	115785728	81408000	33261712	33184
665	6.761716	115785728	81408000	37609680	33184
666	8.198126	115785728	81408000	42831336	33184
667	11.982481	115785728	81408000	32937512	33184
668	11.160295	115785728	81408000	39909136	33184
669	15.016157	115785728	81408000	32195472	33184
670	13.443501	115785728	81408000	40923136	33184
671	17.684935	115785728	81408000	34855944	33184
672	15.75401	115785728	81408000	45343328	33184
673	19.636574	115785728	81408000	40401248	33184
674	21.187804	115785728	81408000	37017464	33184
675	23.931401	115785728	81408000	34980536	33184
676	25.414932	115785728	81408000	34170152	33184
677	27.074155	115785728	81408000	34337536	33184
678	28.226994	115785728	81408000	35360152	33184
679	29.509769	115785728	81408000	37125912	33184
680	30.180674	115785728	81408000	39538136	33184
681	31.330569	115785728	81408000	42518304	33184
682	5.340993	115785728	81408000	30754760	33184
683	4.0971	115785728	81408000	33433800	33184
684	5.606297	115785728	81408000	37008096	33184
685	6.731801	115785728	81408000	41481680	33184
686	8.434961	115785728	81408000	46850624	33184
687	12.276379	115785728	81408000	36657336	33184
688	10.689031	115785728	81408000	43825504	33184
689	14.974899	115785728	81408000	35894312	33184
690	13.846153	115785728	81408000	44868552	33184
691	17.579347	115785728	81408000	38619288	33184
692	19.721779	115785728	81408000	34126528	33184
693	17.978477	115785728	81408000	45820848	33184
694	21.931227	115785728	81408000	42137504	33184
695	23.652187	115785728	81408000	39882072	33184
696	25.134956	115785728	81408000	38811512	33184
697	26.890658	115785728	81408000	38833776	33184
698	28.044742	115785728	81408000	39766128	33184
699	29.975504	115785728	81408000	41458720	33184
700	30.297775	115785728	81408000	43878344	33184
701	31.861493	115785728	81408000	46855832	33184
702	2.787073	115785728	81408000	37155792	33184
703	4.138788	115785728	81408000	39909288	33184
704	5.72552	115785728	81408000	43581696	33184
705	10.575313	115785728	81408000	32308656	33184
706	8.70037	115785728	81408000	37824768	33184
707	9.874292	115785728	81408000	44264496	33184
708	13.893692	115785728	81408000	35626072	33184
709	12.69573	115785728	81408000	43916464	33184
710	16.779069	115785728	81408000	37152024	33184
711	15.329774	115785728	81408000	47306272	33184
712	19.883284	115785728	81408000	41958680	33184
713	21.515829	115785728	81408000	38266536	33184
714	23.626363	115785728	81408000	36023248	33184
715	24.918599	115785728	81408000	35074200	33184
716	26.522474	115785728	81408000	35208160	33184
717	29.007366	115785728	81408000	36292968	33184
718	29.546284	115785728	81408000	38224744	33184
719	30.666007	115785728	81408000	40820352	33184
720	31.577455	115785728	81408000	44007944	33184
721	32.38597	115785728	81408000	47665104	33184
722	2.854795	115785728	81408000	38600552	33184
723	4.26613	115785728	81408000	41482320	33184
724	5.752292	115785728	81408000	45318568	33184
725	10.173878	115785728	81408000	34104056	33184
726	8.954656	115785728	81408000	39880688	33184
727	9.894992	115785728	81408000	46609208	33184
728	14.456631	115785728	81408000	38066280	33184
729	13.194589	115785728	81408000	46740928	33184
730	17.221246	115785728	81408000	40148128	33184
731	19.247787	115785728	81408000	35404520	33184
732	17.725436	115785728	81408000	46983672	33184
733	21.365017	115785728	81408000	43227168	33184
734	23.626412	115785728	81408000	40952512	33184
735	25.181179	115785728	81408000	39953848	33184
736	26.727307	115785728	81408000	40081752	33184
737	28.273507	115785728	81408000	41206584	33184
738	29.425265	115785728	81408000	43123880	33184
739	30.450349	115785728	81408000	45773040	33184
740	37.095524	115785728	81408000	35152888	33184
741	37.191585	115785728	81408000	43082520	33184
742	2.945063	115785728	81408000	50095256	33184
743	7.240328	115785728	81408000	36808136	33184
744	5.835178	115785728	81408000	40742816	33184
745	7.270817	115785728	81408000	45665624	33184
746	11.984007	115785728	81408000	35843960	33184
747	10.731264	115785728	81408000	42753616	33184
748	11.902161	115785728	81408000	50648904	33184
749	16.171124	115785728	81408000	43169016	33184
750	18.501462	115785728	81408000	37695008	33184
751	16.047511	115785728	81408000	48562384	33184
752	21.072837	115785728	81408000	44326328	33184
753	22.549176	115785728	81408000	41639088	33184
754	24.364869	115785728	81408000	40315976	33184
755	26.48744	115785728	81408000	40189200	33184
756	27.796366	115785728	81408000	41104224	33184
757	29.053357	115785728	81408000	42930808	33184
758	30.37179	115785728	81408000	45495840	33184
759	31.87797	115785728	81408000	48671048	33184
760	37.917378	115785728	81408000	38516568	33184
761	38.271933	115785728	81408000	47024288	33184
762	5.984167	115785728	81408000	38446056	33184
763	4.788253	115785728	81408000	41468736	33184
764	6.015735	115785728	81408000	45501552	33184
765	7.724936	115785728	81408000	50545264	33184
766	12.489887	115785728	81408000	40633400	33184
767	10.680055	115785728	81408000	47703536	33184
768	15.56379	115785728	81408000	40221864	33184
769	13.907158	115785728	81408000	49335400	33184
770	18.382303	115785728	81408000	43647200	33184
771	20.823509	115785728	81408000	39767152	33184
772	18.487802	115785728	81408000	51943224	33184
773	22.749156	115785728	81408000	49033712	33184
774	24.512745	115785728	81408000	47528488	33184
775	27.006584	115785728	81408000	47187944	33184
776	27.614461	115785728	81408000	47932448	33184
777	29.404904	115785728	81408000	49659672	33184
778	30.796658	115785728	81408000	52165392	33184
779	37.572979	115785728	81408000	41444760	33184
780	38.256854	115785728	81408000	49401120	33184
781	39.858024	115785728	81408000	55490832	33184
782	3.06381	115785728	81408000	24906520	33184
783	4.499662	115785728	81408000	28002968	33184
784	10.038383	115785728	81408000	18764232	33184
785	7.738929	115785728	81408000	23930624	33184
786	8.978465	115785728	81408000	30134472	33184
787	12.410572	115785728	81408000	22116712	33184
788	12.340464	115785728	81408000	30484576	33184
789	14.32332	115785728	81408000	23838072	33184
790	16.639502	115785728	81408000	19125344	33184
791	16.734887	115785728	81408000	30547840	33184
792	18.897195	115785728	81408000	27027272	33184
793	20.688273	115785728	81408000	24989648	33184
794	22.726391	115785728	81408000	24288200	33184
795	24.522306	115785728	81408000	24746736	33184
796	26.525985	115785728	81408000	26226784	33184
797	26.915787	115785728	81408000	28605352	33184
798	28.073913	115785728	81408000	31699496	33184
799	32.961258	115785728	81408000	21448008	33184
800	35.19171	115785728	81408000	29935256	33184
801	33.438419	115785728	81408000	36449880	33184
802	3.125582	115785728	81408000	29988120	33184
803	4.626986	115785728	81408000	33158264	33184
804	6.834914	115785728	81408000	21485360	33184
805	8.012275	115785728	81408000	26791560	33184
806	9.431798	115785728	81408000	33142728	33184
807	11.53038	115785728	81408000	24597504	33184
808	12.572061	115785728	81408000	33082720	33184
809	14.406974	115785728	81408000	26677504	33184
810	17.381989	115785728	81408000	22221440	33184
811	17.408428	115785728	81408000	33901280	33184
812	19.612639	115785728	81408000	30607688	33184
813	21.188416	115785728	81408000	28829064	33184
814	23.386232	115785728	81408000	28358816	33184
815	25.049916	115785728	81408000	29083072	33184
816	25.989776	115785728	81408000	30735376	33184
817	28.184042	115785728	81408000	33250624	33184
818	28.80979	115785728	81408000	36486864	33184
819	32.963553	115785728	81408000	26231856	33184
820	33.125197	115785728	81408000	32633336	33184
821	37.001117	115785728	81408000	25598944	33184
822	3.180986	115785728	81408000	37723120	33184
823	5.535888	115785728	81408000	25213536	33184
824	6.430494	115785728	81408000	29540680	33184
825	8.133073	115785728	81408000	34967240	33184
826	10.704985	115785728	81408000	25751384	33184
827	11.117284	115785728	81408000	33339720	33184
828	13.910761	115785728	81408000	26491680	33184
829	14.565238	115785728	81408000	36255320	33184
830	17.102388	115785728	81408000	31211408	33184
831	19.140113	115785728	81408000	27946824	33184
832	21.199743	115785728	81408000	26238432	33184
833	21.470298	115785728	81408000	40388224	33184
834	22.660743	115785728	81408000	39152480	33184
835	24.33365	115785728	81408000	39220840	33184
836	26.282583	115785728	81408000	40360864	33184
837	30.289608	115785728	81408000	28250408	33184
838	31.282499	115785728	81408000	33134544	33184
839	31.893685	115785728	81408000	38382704	33184
840	35.676917	115785728	81408000	30081432	33184
841	38.086533	115785728	81408000	40642472	33184
842	3.265141	115785728	81408000	36239272	33184
843	4.861087	115785728	81408000	39556784	33184
844	9.961345	115785728	81408000	30816792	33184
845	8.422335	115785728	81408000	36352384	33184
846	9.721972	115785728	81408000	42997904	33184
847	12.362757	115785728	81408000	35212576	33184
848	12.971412	115785728	81408000	44085408	33184
849	15.123576	115785728	81408000	37999984	33184
850	17.313174	115785728	81408000	33850304	33184
851	17.879804	115785728	81408000	46102200	33184
852	19.855484	115785728	81408000	43110992	33184
853	21.881197	115785728	81408000	41631728	33184
854	23.670756	115785728	81408000	41471816	33184
855	25.209644	115785728	81408000	42441936	33184
856	27.172534	115785728	81408000	44414992	33184
857	31.428017	115785728	81408000	33319544	33184
858	34.066398	115785728	81408000	41129192	33184
859	32.738792	115785728	81408000	47153928	33184
860	36.759207	115785728	81408000	39423632	33184
861	39.139876	115785728	81408000	50644584	33184
862	3.341935	115785728	81408000	46631440	33184
863	4.976459	115785728	81408000	50053336	33184
864	7.15594	115785728	81408000	38507000	33184
865	8.620815	115785728	81408000	44217784	33184
866	10.429877	115785728	81408000	51078328	33184
867	11.925234	115785728	81408000	42843552	33184
868	13.508984	115785728	81408000	52000088	33184
869	15.409826	115785728	81408000	45929216	33184
870	17.821094	115785728	81408000	41768168	33184
871	19.96835	115785728	81408000	39360976	33184
872	22.040246	115785728	81408000	38445856	33184
873	24.569029	115785728	81408000	38828136	33184
874	25.796705	115785728	81408000	40300456	33184
875	27.329644	115785728	81408000	42697520	33184
876	28.683475	115785728	81408000	45930224	33184
877	29.922727	115785728	81408000	49855408	33184
878	33.843284	115785728	81408000	40602952	33184
879	36.94801	115785728	81408000	49967008	33184
880	38.381138	115785728	81408000	43859072	33184
881	41.213288	115785728	81408000	55562152	33184
882	6.010031	115785728	81408000	52314368	33184
883	9.139087	115785728	81408000	55812824	33184
884	14.509143	115785728	81408000	19250688	33184
885	9.192332	115785728	81408000	25083456	33184
886	11.564088	115785728	81408000	32092472	33184
887	12.535292	115785728	81408000	23902936	33184
888	15.082083	115785728	81408000	17984680	33184
889	15.629692	115785728	81408000	28525504	33184
890	18.210033	115785728	81408000	24311432	33184
891	19.710338	115785728	81408000	21845064	33184
892	22.509712	115785728	81408000	20926264	33184
893	24.256061	115785728	81408000	21281984	33184
894	25.792993	115785728	81408000	22718880	33184
895	27.426163	115785728	81408000	25183512	33184
896	28.860976	115785728	81408000	28545296	33184
897	29.909497	115785728	81408000	32599552	33184
898	34.630143	115785728	81408000	23050240	33184
899	34.093533	115785728	81408000	30225296	33184
900	37.980157	115785728	81408000	23639672	33184
901	44.542026	115785728	81408000	23322904	33184
902	3.484023	115785728	81408000	37862896	33184
903	5.852227	115785728	81408000	25350048	33184
904	7.159465	115785728	81408000	30112616	33184
905	8.819773	115785728	81408000	36072152	33184
906	11.144193	115785728	81408000	27176360	33184
907	12.159656	115785728	81408000	35522696	33184
908	14.627327	115785728	81408000	29112304	33184
909	17.159555	115785728	81408000	24768456	33184
910	17.568447	115785728	81408000	36714728	33184
911	19.908354	115785728	81408000	33723880	33184
912	21.891616	115785728	81408000	32338872	33184
913	24.224517	115785728	81408000	32340672	33184
914	25.990226	115785728	81408000	33541912	33184
915	27.03034	115785728	81408000	35776384	33184
916	29.134413	115785728	81408000	38924512	33184
917	33.10133	115785728	81408000	28752632	33184
918	33.373609	115785728	81408000	35314152	33184
919	37.405016	115785728	81408000	28435736	33184
920	39.62624	115785728	81408000	39964808	33184
921	40.487557	115785728	81408000	35413392	33184
922	3.565756	115785728	81408000	38088000	33184
923	5.30224	115785728	81408000	41730896	33184
924	7.160304	115785728	81408000	46590288	33184
925	11.726816	115785728	81408000	38629032	33184
926	10.684662	115785728	81408000	45925584	33184
927	13.219906	115785728	81408000	38791720	33184
928	14.143219	115785728	81408000	48536592	33184
929	16.192816	115785728	81408000	43130328	33184
930	18.737477	115785728	81408000	39655912	33184
931	21.126426	115785728	81408000	37878312	33184
932	23.841831	115785728	81408000	37639832	33184
933	25.071451	115785728	81408000	38627072	33184
934	26.656791	115785728	81408000	40660048	33184
935	28.136198	115785728	81408000	43676888	33184
936	29.518441	115785728	81408000	47524264	33184
937	34.166086	115785728	81408000	38071136	33184
938	37.02223	115785728	81408000	47695216	33184
939	39.130511	115785728	81408000	41665640	33184
940	41.329157	115785728	81408000	53710368	33184
941	41.918807	115785728	81408000	49431208	33184
942	3.643956	115785728	81408000	48390608	33184
943	5.457358	115785728	81408000	52107640	33184
944	10.713465	115785728	81408000	43836712	33184
945	9.647704	115785728	81408000	50043336	33184
946	11.030143	115785728	81408000	57494352	33184
947	13.441192	115785728	81408000	50387680	33184
948	16.022116	115785728	81408000	44985160	33184
949	16.27929	115785728	81408000	56171088	33184
950	19.056854	115785728	81408000	52471120	33184
951	21.013973	115785728	81408000	50532168	33184
952	23.624671	115785728	81408000	50101360	33184
953	25.998275	115785728	81408000	51006056	33184
954	26.644416	115785728	81408000	53071520	33184
955	28.904794	115785728	81408000	56084960	33184
956	32.628784	115785728	81408000	46051952	33184
957	37.297495	115785728	81408000	54897304	33184
958	42.837178	116596736	82456576	48398936	33184
959	54.178976	116596736	82456576	30585992	33184
960	40.237274	116596736	82456576	25409120	33184
961	46.830524	116596736	82456576	26677472	33184
962	3.737214	116867072	82456576	30387152	33184
963	5.525254	116867072	82456576	34177368	33184
964	7.538068	116867072	82456576	39232960	33184
965	11.997366	116867072	82456576	31406264	33184
966	11.279049	116867072	82456576	39011928	33184
967	13.646113	116867072	82456576	32092920	33184
968	14.940347	116867072	82456576	42227368	33184
969	17.726518	116867072	82456576	37283584	33184
970	19.463482	116867072	82456576	34279544	33184
971	22.247807	116867072	82456576	32970288	33184
972	24.251267	116867072	82456576	33105808	33184
973	25.961954	116867072	82456576	34499360	33184
974	27.48046	116867072	82456576	36972168	33184
975	28.97487	116867072	82456576	40370384	33184
976	33.967342	116867072	82456576	30724456	33184
977	36.820836	116867072	82456576	39936200	33184
978	39.336834	116867072	82456576	33791192	33184
979	40.645382	116867072	82456576	45517024	33184
980	41.260957	116867072	82456576	41367232	33184
981	48.306505	116867072	82456576	43089480	33184
982	3.939968	116867072	82456576	47316288	33184
983	5.859359	116867072	82456576	51180056	33184
984	7.830075	116867072	82456576	56333792	33184
985	13.002997	116867072	82456576	48574488	33184
986	12.688743	116867072	82456576	56317944	33184
987	16.032252	116867072	82456576	49582120	33184
988	18.769662	116867072	82456576	44773448	33184
989	31.544149	116867072	82456576	56400912	33184
990	24.319915	116342784	81932288	29483288	33184
991	21.731605	116342784	81932288	27582472	33184
992	24.184217	116342784	81932288	27252400	33184
993	25.653197	116342784	81932288	28231624	33184
994	27.979831	116342784	81932288	30409928	33184
995	32.9932	116342784	81932288	19599200	33184
996	34.807866	116342784	81932288	27890328	33184
997	33.564423	116342784	81932288	34548528	33184
998	37.669495	116342784	81932288	27247984	33184
999	40.721549	116342784	81932288	23040712	33184
1000	42.088299	116342784	81932288	36545200	33184
