x	Duration	RSS	HeapTotal	HeapUsed	External
0	NA	110256128	77737984	14440120	33184
1	0.334461	110256128	77737984	14492424	33184
2	0.283692	110256128	77737984	14560400	33184
3	0.319478	110256128	77737984	14653112	33184
4	0.380348	110256128	77737984	14772232	33184
5	0.454439	110256128	77737984	14919520	33184
6	0.569237	110256128	77737984	15095664	33184
7	0.619349	110256128	77737984	15301896	33184
8	0.701375	110256128	77737984	15539480	33184
9	0.792444	110256128	77737984	15810856	33184
10	0.885503	110256128	77737984	16116328	33184
11	1.305939	110256128	77737984	16457104	33184
12	0.652119	110256128	77737984	16834560	33184
13	0.710552	110256128	77737984	17249680	33184
14	0.924385	110256128	77737984	17709008	33184
15	1.058814	110256128	77737984	18203288	33184
16	0.879953	110256128	77737984	18739056	33184
17	0.935865	110256128	77737984	19319328	33184
18	1.016131	110256128	77737984	19943504	33184
19	1.125686	110256128	77737984	20613912	33184
20	1.320606	110256128	77737984	21330664	33184
21	1.241993	110256128	77737984	22095896	33184
22	0.182151	110256128	77737984	22886064	33184
23	0.263342	110256128	77737984	23035760	33184
24	0.342891	110256128	77737984	23237560	33184
25	0.418459	110256128	77737984	23492720	33184
26	0.501766	110256128	77737984	23802960	33184
27	0.585767	110256128	77737984	24169072	33184
28	0.662821	110256128	77737984	24592144	33184
29	1.437829	110256128	77737984	25073536	33184
30	0.867436	110256128	77737984	25615328	33184
31	1.090255	110256128	77737984	26217864	33184
32	1.367002	110256128	77737984	26883352	33184
33	1.135362	110256128	77737984	27610432	33184
34	1.21269	110256128	77737984	28401784	33184
35	1.505147	110256128	77737984	29259120	33184
36	1.819329	110256128	77737984	30186152	33184
37	1.556722	110256128	77737984	31197000	33184
38	2.454815	110256128	77737984	15943136	33184
39	1.886538	110256128	77737984	17079144	33184
40	1.762439	110256128	77737984	18284520	33184
41	2.061736	110256128	77737984	19562760	33184
42	0.246997	110256128	77737984	20919928	33184
43	0.403915	110256128	77737984	21143096	33184
44	0.513898	110256128	77737984	21443920	33184
45	0.604147	110256128	77737984	21825072	33184
46	0.708286	110256128	77737984	22286800	33184
47	0.819806	110256128	77737984	22830648	33184
48	0.935483	110256128	77737984	23457744	33184
49	1.235862	110256128	77737984	24169280	33184
50	1.238419	110256128	77737984	24969448	33184
51	1.288432	110256128	77737984	25854608	33184
52	1.4726	110256128	77737984	26827880	33184
53	1.586236	110256128	77737984	27890632	33184
54	1.814637	110256128	77737984	29043984	33184
55	2.015174	110256128	77737984	30289216	33184
56	3.002589	110256128	77737984	15507832	33184
57	2.237388	110256128	77737984	16940352	33184
58	2.305885	110256128	77737984	18470208	33184
59	2.350205	110256128	77737984	20097184	33184
60	2.470791	110256128	77737984	21822224	33184
61	2.622575	110256128	77737984	23646472	33184
62	0.319393	110256128	77737984	25603784	33184
63	0.478128	110256128	77737984	25905784	33184
64	0.625602	110256128	77737984	26310728	33184
65	0.771767	110256128	77737984	26819784	33184
66	0.917372	110256128	77737984	27434624	33184
67	1.078507	110256128	77737984	28156088	33184
68	1.225047	110256128	77737984	28985224	33184
69	1.380859	110256128	77737984	29923624	33184
70	1.544502	110256128	77737984	30973024	33184
71	2.522713	110256128	77737984	15874048	33184
72	2.029789	110256128	77737984	17147528	33184
73	2.191344	110256128	77737984	18535136	33184
74	2.375866	110256128	77737984	20038080	33184
75	2.578062	110256128	77737984	21657680	33184
76	2.672813	110256128	77737984	23397416	33184
77	2.733147	110256128	77737984	25252880	33184
78	2.865996	110256128	77737984	27230160	33184
79	3.024141	110256128	77737984	29328776	33184
80	3.20327	110256128	77737984	31550960	33184
81	4.139618	110256128	77737984	17547048	33184
82	0.393035	110256128	77737984	20076816	33184
83	0.598227	110256128	77737984	20452296	33184
84	0.769444	110256128	77737984	20957424	33184
85	0.953754	110256128	77737984	21591248	33184
86	1.138727	110256128	77737984	22356536	33184
87	1.352083	110256128	77737984	23254144	33184
88	1.516326	110256128	77737984	24285096	33184
89	1.713345	110256128	77737984	25450656	33184
90	1.897238	110256128	77737984	26753192	33184
91	2.106531	110256128	77737984	28194896	33184
92	2.297795	110256128	77737984	29777000	33184
93	2.595325	110256128	77737984	31500968	33184
94	3.663493	110256128	77737984	17042160	33184
95	2.900819	110256128	77737984	19053104	33184
96	3.10859	110256128	77737984	21209712	33184
97	3.506046	110256128	77737984	23512584	33184
98	3.560887	110256128	77737984	25965128	33184
99	3.862212	110256128	77737984	28566808	33184
100	4.140008	110256128	77737984	31319096	33184
101	5.006262	110256128	77737984	17906720	33184
102	0.666504	110256128	77737984	21053216	33184
103	0.705094	110256128	77737984	21512024	33184
104	0.922808	110256128	77737984	22125992	33184
105	1.160488	110256128	77737984	22896384	33184
106	1.68583	110256128	77737984	23824920	33184
107	1.656782	110256128	77737984	24912256	33184
108	2.212165	110256128	77737984	26163168	33184
109	2.259073	110256128	77737984	27574344	33184
110	2.461797	110256128	77737984	29146632	33184
111	2.565018	110256128	77737984	30883512	33184
112	3.477905	110256128	77737984	16553544	33184
113	3.209733	110256128	77737984	18620720	33184
114	3.469727	110256128	77737984	20856264	33184
115	3.466553	110256128	77737984	23259552	33184
116	3.883018	110256128	77737984	25832760	33184
117	3.955552	110256128	77737984	28577128	33184
118	4.193428	110256128	77737984	31495744	33184
119	5.033908	110256128	77737984	18272752	33184
120	4.905276	110256128	77737984	21540688	33184
121	4.93496	110256128	77737984	24984136	33184
122	0.541444	110256128	77737984	28718960	33184
123	0.837254	110256128	77737984	29251464	33184
124	1.089427	110256128	77737984	29963680	33184
125	1.319006	110256128	77737984	30859016	33184
126	1.593032	110256128	77737984	31934832	33184
127	2.418921	110256128	77737984	16853176	33184
128	2.314158	110256128	77737984	18296984	33184
129	2.373479	110256128	77737984	19926896	33184
130	2.672333	110256128	77737984	21744776	33184
131	2.925085	110256128	77737984	23750848	33184
132	3.253344	110256128	77737984	25946384	33184
133	3.455093	110256128	77737984	28332616	33184
134	3.729774	110256128	77737984	30910888	33184
135	5.236421	110256128	77737984	17474600	33184
136	4.308937	110256128	77737984	20440616	33184
137	4.560899	110256128	77737984	23602232	33184
138	5.043414	110256128	77737984	26963080	33184
139	5.307616	110256128	77737984	30522288	33184
140	6.332453	110256128	77737984	18102128	33184
141	5.778693	110256128	77737984	22060976	33184
142	0.631458	110256128	77737984	26373760	33184
143	0.931508	110256128	77737984	26985304	33184
144	1.217677	110256128	77737984	27803056	33184
145	1.508895	110256128	77737984	28828120	33184
146	1.81984	110256128	77737984	30062112	33184
147	2.100958	110256128	77737984	31506024	33184
148	3.077231	110256128	77737984	16901176	33184
149	2.899707	110256128	77737984	18768184	33184
150	3.210301	110256128	77737984	20850592	33184
151	3.711112	110256128	77737984	23146736	33184
152	3.658867	110256128	77737984	25658840	33184
153	3.941723	110256128	77737984	28388040	33184
154	4.43881	110256128	77737984	31336208	33184
155	5.361308	110256128	77737984	18272488	33184
156	5.222119	110256128	77737984	21660488	33184
157	5.457872	110256128	77737984	25270352	33184
158	5.545435	110256128	77737984	29106328	33184
159	6.821088	110256128	77737984	17220240	33184
160	6.21714	110256128	77737984	21506064	33184
161	6.736885	110256128	77737984	26018600	33184
162	0.696745	110256128	77737984	30932296	33184
163	1.035127	110256128	77737984	31617456	33184
164	1.447213	110256128	77737984	32533296	33184
165	2.190224	110256128	77737984	17315360	33184
166	2.268847	110256128	77737984	18697656	33184
167	2.40667	110256128	77737984	20315760	33184
168	2.707642	110256128	77737984	22166720	33184
169	3.04723	110256128	77737984	24254432	33184
170	3.391482	110256128	77737984	26581032	33184
171	4.312542	110256128	77737984	29146768	33184
172	5.008065	110256128	77737984	31961688	33184
173	5.266569	110256128	77737984	18746456	33184
174	5.001549	110256128	77737984	22037096	33184
175	5.406986	110256128	77737984	25571864	33184
176	5.658731	110256128	77737984	29352008	33184
177	6.631477	110256128	77737984	17488352	33184
178	6.382473	110256128	77737984	21764720	33184
179	6.587417	110256128	77737984	26290200	33184
180	7.096733	110256128	77737984	31070432	33184
181	8.251152	110256128	77737984	20027504	33184
182	0.77215	110256128	77737984	25525176	33184
183	1.162967	110256128	77737984	26299008	33184
184	1.512506	110256128	77737984	27329600	33184
185	1.879945	110256128	77737984	28621376	33184
186	2.310641	110256128	77737984	30175136	33184
187	2.673569	110256128	77737984	31991888	33184
188	3.681503	110256128	77737984	17933840	33184
189	3.381006	110256128	77737984	20279944	33184
190	3.743982	110256128	77737984	22893496	33184
191	4.304472	110256128	77737984	25774936	33184
192	4.552443	110256128	77737984	28925584	33184
193	4.962098	110256128	77737984	32346456	33184
194	6.342822	110256128	77737984	19847784	33184
195	5.680339	110256128	77737984	23813008	33184
196	6.261341	110256128	77737984	28052304	33184
197	6.475237	110256128	77737984	32567664	33184
198	7.531548	110256128	77737984	21138368	33184
199	7.651838	110256128	77737984	26212920	33184
200	7.662331	110256128	77737984	31563288	33184
201	8.992322	110256128	77737984	21093536	33184
202	1.049285	110256128	77737984	27235128	33184
203	1.266808	110256128	77737984	28079952	33184
204	1.659127	110256128	77737984	29209536	33184
205	2.120831	110256128	77737984	30623360	33184
206	2.685234	110256128	77737984	32323896	33184
207	3.628502	110256128	77737984	18176264	33184
208	3.300652	110256128	77737984	20453064	33184
209	3.712805	110256128	77737984	23020016	33184
210	4.311511	110256128	77737984	25879160	33184
211	4.568486	110256128	77737984	29030560	33184
212	4.964799	110256128	77737984	32478680	33184
213	6.337376	110256128	77737984	20056456	33184
214	6.264611	110256128	77737984	24092496	33184
215	6.292339	110256128	77737984	28425912	33184
216	7.155914	110256128	77737984	33058048	33184
217	8.201313	110256128	77737984	21749792	33184
218	7.733347	110256128	77737984	26988296	33184
219	7.976544	110256128	77737984	32527680	33184
220	9.374563	110256128	77737984	22190736	33184
221	9.077888	110256128	77737984	28336352	33184
222	0.938214	110256128	77737984	19434064	33184
223	1.37045	110256128	77737984	20352496	33184
224	2.000705	110256128	77737984	21581528	33184
225	2.246619	110256128	77737984	23118000	33184
226	2.69963	110256128	77737984	24965816	33184
227	3.155622	110256128	77737984	27125848	33184
228	3.648429	110256128	77737984	29599864	33184
229	4.053305	110256128	77737984	32393368	33184
230	5.3867	110256128	77737984	19421168	33184
231	5.161565	110256128	77737984	22851760	33184
232	5.427679	110256128	77737984	26606120	33184
233	6.082737	110256128	77737984	30683360	33184
234	7.381814	110256128	77737984	19223232	33184
235	6.833655	110256128	77737984	23944960	33184
236	7.515953	110256128	77737984	28994504	33184
237	7.749507	110256128	77737984	34373152	33184
238	9.199904	110256128	77737984	23725808	33184
239	8.916402	110256128	77737984	29760544	33184
240	10.37042	110256128	77737984	20399928	33184
241	9.861311	110256128	77737984	27098320	33184
242	1.001242	110256128	77737984	34422704	33184
243	2.443909	110256128	77737984	19114888	33184
244	1.963544	110256128	77737984	20451416	33184
245	2.445492	110256128	77737984	22124968	33184
246	2.933618	110256128	77737984	24138184	33184
247	3.418073	110256128	77737984	26490008	33184
248	3.897542	110256128	77737984	29183040	33184
249	4.400556	110256128	77737984	32217680	33184
250	6.08847	110256128	77737984	19583520	33184
251	5.411486	110256128	77737984	23306840	33184
252	6.141381	110256128	77737984	27375920	33184
253	6.437494	110256128	77737984	31791432	33184
254	8.136468	110256128	77737984	20600064	33184
255	7.386819	110256128	77737984	25712928	33184
256	7.889367	110256128	77737984	31179976	33184
257	9.720292	110256128	77737984	21140048	33184
258	9.101997	110256128	77737984	27310048	33184
259	9.438575	110256128	77737984	33834984	33184
260	11.583678	110256128	77737984	24498616	33184
261	10.680837	110256128	77737984	31737456	33184
262	1.307885	110256128	77737984	23699224	33184
263	1.606213	110256128	77737984	24773568	33184
264	2.17175	110256128	77737984	26208328	33184
265	2.632381	110256128	77737984	28004544	33184
266	3.163937	110256128	77737984	30165288	33184
267	3.87462	110256128	77737984	32689016	33184
268	5.244937	110256128	77737984	19567776	33184
269	4.82183	110256128	77737984	22823256	33184
270	5.351578	110256128	77737984	26447360	33184
271	5.852814	110256128	77737984	30440304	33184
272	6.725625	110256128	77737984	34803616	33184
273	8.002508	110256128	77737984	23238640	33184
274	7.426941	110256128	77737984	28350000	33184
275	8.158229	110256128	77737984	33831080	33184
276	9.936792	110256128	77737984	23529480	33184
277	9.238686	110256128	77737984	29762224	33184
278	11.045633	110256128	77737984	20742864	33184
279	10.784613	110256128	77737984	27733912	33184
280	10.90608	110256128	77737984	35105552	33184
281	12.358964	110256128	77737984	26510336	33184
282	1.404952	110256128	77737984	34990832	33184
283	2.634757	110256128	77737984	19890256	33184
284	2.287192	110256128	77737984	21423048	33184
285	2.828489	110256128	77737984	23342072	33184
286	3.377708	110256128	77737984	25655240	33184
287	4.135125	110256128	77737984	28350664	33184
288	4.517975	110256128	77737984	31435888	33184
289	5.294605	110256128	77737984	34912152	33184
290	6.640153	110256128	77737984	22544480	33184
291	6.22643	110256128	77737984	26807392	33184
292	6.91056	110256128	77737984	31465160	33184
293	8.714643	110256128	77737984	20734240	33184
294	8.181697	110256128	77737984	26185384	33184
295	8.536479	110256128	77737984	32034424	33184
296	10.660289	110256128	77737984	22420360	33184
297	10.085547	110256128	77737984	29070064	33184
298	12.054801	110256128	77737984	20653328	33184
299	11.263669	110256128	77737984	28115616	33184
300	11.674146	110256128	77737984	35978256	33184
301	13.474525	110256128	77737984	27858064	33184
302	2.534899	110256128	77737984	20584800	33184
303	1.852294	110256128	77737984	21806480	33184
304	2.508101	110256128	77737984	23437768	33184
305	3.214075	110256128	77737984	25479424	33184
306	3.641418	110256128	77737984	27934880	33184
307	4.734662	110256128	77737984	30804568	33184
308	4.877123	110256128	77737984	34086048	33184
309	7.118526	110256128	77737984	21726640	33184
310	6.33473	110256128	77737984	25841664	33184
311	6.902893	110256128	77737984	30374688	33184
312	7.497264	110256128	77737984	35326696	33184
313	9.133946	110256128	77737984	24459240	33184
314	8.601774	110256128	77737984	30256120	33184
315	9.118775	110256128	77737984	36473360	33184
316	10.883888	110256128	77737984	26711192	33184
317	10.556213	110256128	77737984	33782576	33184
318	12.436961	110256128	77737984	25229976	33184
319	11.820391	110256128	77737984	33154128	33184
320	14.194591	110256128	77737984	25549160	33184
321	13.459943	110256128	77737984	34336480	33184
322	1.319396	110256128	77737984	27836728	33184
323	1.956728	110256128	77737984	29132016	33184
324	2.569946	110256128	77737984	30861200	33184
325	3.218833	110256128	77737984	33025608	33184
326	3.853535	110256128	77737984	35627056	33184
327	6.032567	110256128	77737984	22455112	33184
328	5.143085	110256128	77737984	25932992	33184
329	5.958352	110256128	77737984	29850920	33184
330	6.424434	110256128	77737984	34211136	33184
331	8.58913	110256128	77737984	22950576	33184
332	7.91609	110256128	77737984	28197344	33184
333	8.796574	110256128	77737984	33889248	33184
334	10.667391	110256128	77737984	24020040	33184
335	9.726586	110256128	77737984	30607112	33184
336	12.318671	110256128	77737984	22085680	33184
337	11.42102	110256128	77737984	29569664	33184
338	13.698194	110256128	77737984	22124296	33184
339	12.488724	110256128	77737984	30513536	33184
340	15.34842	110256128	77737984	23832232	33184
341	14.00212	110256128	77737984	33133048	33184
342	1.403345	110256128	77737984	27465568	33184
343	2.059156	110256128	77737984	28834488	33184
344	2.7302	110256128	77737984	30661808	33184
345	3.400976	110256128	77737984	32948928	33184
346	4.078048	110256128	77737984	35697472	33184
347	6.206156	110256128	77737984	22770952	33184
348	5.456352	110256128	77737984	26445112	33184
349	6.30176	110256128	77737984	30584016	33184
350	6.822199	110256128	77737984	35189776	33184
351	9.056344	110256128	77737984	24133632	33184
352	8.447321	110256128	77737984	29674712	33184
353	9.083993	110256128	77737984	35690944	33184
354	10.914991	110256128	77737984	25992744	33184
355	10.69493	110256128	77737984	32946192	33184
356	12.717299	110256128	77737984	24572656	33184
357	11.88529	110256128	77737984	32478328	33184
358	14.165544	110256128	77737984	25130640	33184
359	13.293554	110256128	77737984	34005712	33184
360	15.411659	110256128	77737984	27451952	33184
361	14.751086	110256128	77737984	37309848	33184
362	1.482401	110256128	77737984	31763496	33184
363	2.232582	110256128	77737984	33244064	33184
364	2.882738	110256128	77737984	35220432	33184
365	3.600595	110256128	77737984	37697512	33184
366	5.473298	110256128	77737984	24309112	33184
367	5.135939	110256128	77737984	27780704	33184
368	6.054175	110256128	77737984	31752992	33184
369	6.514383	110256128	77737984	36229992	33184
370	8.814594	110256128	77737984	25033304	33184
371	8.11824	110256128	77737984	30517712	33184
372	8.89181	110256128	77737984	36512768	33184
373	10.88985	110256128	77737984	26769344	33184
374	10.570012	110256128	77737984	33778984	33184
375	12.589841	110256128	77737984	25438240	33184
376	11.598445	110256128	77737984	33463144	33184
377	14.330849	110256128	77737984	26182752	33184
378	13.416551	110256128	77737984	35234864	33184
379	15.453188	110256128	77737984	28752688	33184
380	17.195895	110256128	77737984	23646224	33184
381	15.600408	110256128	77737984	34248216	33184
382	1.550337	110256128	77737984	29948568	33184
383	2.479745	110256128	77737984	31502752	33184
384	3.035477	110256128	77737984	33578032	33184
385	3.837249	110256128	77737984	36177840	33184
386	6.178285	110256128	77737984	23216520	33184
387	5.311211	110256128	77737984	26859840	33184
388	6.077418	110256128	77737984	31028376	33184
389	6.820553	110256128	77737984	35726704	33184
390	9.263146	110256128	77737984	24880976	33184
391	8.552185	110256128	77737984	30637720	33184
392	9.126608	110256128	77737984	36921064	33184
393	11.268149	110256128	77737984	27505808	33184
394	11.094712	110256128	77737984	34899192	33184
395	13.222611	110256128	77737984	26811312	33184
396	12.414237	110256128	77737984	35226736	33184
397	14.725571	110256128	77737984	28195960	33184
398	13.971228	110256128	77737984	37686736	33184
399	15.903332	110256128	77737984	31423928	33184
400	18.125829	110256128	77737984	26495472	33184
401	16.570958	110256128	77737984	37606848	33184
402	1.637403	110256128	77737984	33476864	33184
403	2.407923	110256128	77737984	35104760	33184
404	3.183193	110256128	77737984	37282336	33184
405	5.590175	110256128	77737984	23828488	33184
406	4.822516	110256128	77737984	27104152	33184
407	5.763243	110256128	77737984	30919424	33184
408	6.350897	110256128	77737984	35287120	33184
409	8.884403	110256128	77737984	24252048	33184
410	8.188442	110256128	77737984	29725152	33184
411	8.811868	110256128	77737984	35747912	33184
412	11.406116	110256128	77737984	26311096	33184
413	10.726307	110256128	77737984	33444800	33184
414	13.282924	110256128	77737984	25447536	33184
415	12.023146	110256128	77737984	33695976	33184
416	14.980343	110256128	77737984	26779792	33184
417	13.844409	110256128	77737984	36156312	33184
418	16.258143	110256128	77737984	30049096	33184
419	18.161733	110256128	77737984	25341432	33184
420	16.332171	110256128	77737984	36409000	33184
421	18.533587	110256128	77737984	31944576	33184
422	1.71973	110256128	77737984	29231056	33184
423	2.524578	110256128	77737984	30932608	33184
424	3.339574	110256128	77737984	33211624	33184
425	4.205414	110256128	77737984	36053112	33184
426	6.835861	110256128	77737984	23522440	33184
427	6.347069	110256128	77737984	27509416	33184
428	6.845319	110256128	77737984	32070576	33184
429	7.491838	110256128	77737984	37208888	33184
430	10.144616	110256128	77737984	26785088	33184
431	9.398919	110256128	77737984	33078600	33184
432	12.239732	110256128	77737984	24401528	33184
433	11.00349	110256128	77737984	31853528	33184
434	13.905984	110256128	77737984	24499696	33184
435	12.870976	110256128	77737984	33120480	33184
436	15.909569	110256128	77737984	26776496	33184
437	14.503141	110256128	77737984	36563176	33184
438	17.340769	110256128	77737984	30901872	33184
439	19.48566	110256128	77737984	26629256	33184
440	17.361447	110256128	77737984	38180760	33184
441	20.048295	110256128	77737984	34095440	33184
442	1.790248	110256128	77737984	31710392	33184
443	2.636202	110256128	77737984	33485512	33184
444	3.570956	110256128	77737984	35855928	33184
445	4.463527	110256128	77737984	38820216	33184
446	6.797431	110256128	77737984	26144000	33184
447	6.306075	110256128	77737984	30302680	33184
448	6.971929	110256128	77737984	35063904	33184
449	10.290578	110256128	77737984	24669560	33184
450	8.955186	110256128	77737984	30629520	33184
451	9.853838	110256128	77737984	37193384	33184
452	12.41937	110256128	77737984	28294992	33184
453	11.638231	110256128	77737984	36069544	33184
454	14.105913	110256128	77737984	28551792	33184
455	13.479836	110256128	77737984	37536504	33184
456	16.015779	110256128	77737984	31031624	33184
457	17.648536	110256128	77737984	26046904	33184
458	16.245857	110256128	77737984	36872840	33184
459	19.236666	110256128	77737984	32310496	33184
460	20.566756	110256128	77737984	28994608	33184
461	21.624769	110256128	77737984	26707248	33184
462	3.55006	110256128	77737984	24344128	33184
463	2.777647	110256128	77737984	26192904	33184
464	3.830706	110256128	77737984	28663512	33184
465	4.7457	110256128	77737984	31750360	33184
466	5.704386	110256128	77737984	35465088	33184
467	6.648725	110256128	77737984	39795992	33184
468	9.455013	110256128	77737984	28465352	33184
469	8.563414	110256128	77737984	34053192	33184
470	9.116653	110256128	77737984	40259360	33184
471	11.951227	110256128	77737984	30790040	33184
472	11.176154	110256128	77737984	38254784	33184
473	13.689837	110256128	77737984	30245040	33184
474	13.071207	110256128	77737984	38967648	33184
475	15.418336	110256128	77737984	32106912	33184
476	17.630591	110256128	77737984	26807200	33184
477	15.821136	110256128	77737984	37428424	33184
478	18.824331	110256128	77737984	32691128	33184
479	20.092404	110256128	77737984	29246232	33184
480	22.523541	110256128	77737984	26918320	33184
481	19.871973	110256128	77737984	40096064	33184
482	1.941687	110256128	77737984	38190112	33184
483	2.867371	110256128	77737984	40112480	33184
484	5.881205	110256128	77737984	26460504	33184
485	4.75318	110256128	77737984	29672248	33184
486	5.688103	110256128	77737984	33528032	33184
487	6.740615	110256128	77737984	38033992	33184
488	9.93255	110256128	77737984	27139944	33184
489	8.564295	110256128	77737984	32939240	33184
490	9.544993	110256128	77737984	39395912	33184
491	12.787302	110256128	77737984	30306232	33184
492	11.662305	110256128	77737984	38061488	33184
493	14.765435	110256128	77737984	30435280	33184
494	13.586019	110256128	77737984	39499720	33184
495	16.341146	110256128	77737984	33015912	33184
496	18.078329	110256128	77737984	28059440	33184
497	16.961379	110256128	77737984	39101144	33184
498	19.90532	110256128	77737984	34658024	33184
499	21.041509	110256128	77737984	31494032	33184
500	22.355624	110256128	77737984	29434632	33184
501	24.173863	110256128	77737984	28320048	33184
502	2.044428	110256128	77737984	28678176	33184
503	2.986771	110256128	77737984	30674112	33184
504	4.199984	110256128	77737984	33337504	33184
505	5.171143	110256128	77737984	36669944	33184
506	6.132807	110256128	77737984	40674472	33184
507	8.938571	110256128	77737984	29128720	33184
508	7.967357	110256128	77737984	34477664	33184
509	8.86695	110256128	77737984	40501336	33184
510	11.860862	110256128	77737984	30924608	33184
511	11.139796	110256128	77737984	38300864	33184
512	13.88114	110256128	77737984	30358176	33184
513	13.598595	110256128	77737984	39086584	33184
514	16.142565	110256128	77737984	32395256	33184
515	17.845551	110256128	77737984	27317632	33184
516	16.585646	110256128	77737984	38096344	33184
517	19.399782	110256128	77737984	33620456	33184
518	21.206707	110256128	77737984	30458528	33184
519	23.6419	110256128	77737984	28406104	33184
520	20.972129	110256128	77737984	41921000	33184
521	23.541393	110256128	77737984	39674872	33184
522	2.093008	110256128	77737984	39135096	33184
523	3.100046	110256128	77737984	41204696	33184
524	6.278332	110256128	77737984	27745728	33184
525	5.314762	110256128	77737984	31200752	33184
526	6.439893	110256128	77737984	35350888	33184
527	7.173517	110256128	77737984	40197904	33184
528	10.350107	110256128	77737984	29545408	33184
529	9.554814	110256128	77737984	35786536	33184
530	12.891397	110256128	77737984	27180792	33184
531	11.395151	110256128	77737984	34829112	33184
532	15.058489	110256128	77737984	27738392	33184
533	13.835459	110256128	77737984	36785784	33184
534	17.33869	110256128	77737984	30837728	33184
535	15.670651	110256128	77737984	41297056	33184
536	18.649297	110256128	77737984	36181984	33184
537	20.669343	110256128	77737984	32442064	33184
538	21.809194	110256128	77737984	29944168	33184
539	23.644584	110256128	77737984	28495064	33184
540	25.477374	110256128	77737984	27966080	33184
541	26.331761	110256128	77737984	28208232	33184
542	2.215972	110256128	77737984	29836328	33184
543	3.203514	110256128	77737984	31979496	33184
544	4.263967	110256128	77737984	34839256	33184
545	5.553124	110256128	77737984	38416832	33184
546	8.762152	110256128	77737984	26922712	33184
547	8.221355	110256128	77737984	31953456	33184
548	8.526782	110256128	77737984	37692712	33184
549	12.303336	110256128	77737984	28404456	33184
550	10.737925	110256128	77737984	35595584	33184
551	14.726607	110256128	77737984	28034648	33184
552	12.838889	110256128	77737984	36673816	33184
553	16.601447	110256128	77737984	30429336	33184
554	15.187218	110256128	77737984	40524984	33184
555	18.576742	110256128	77737984	35227968	33184
556	20.446681	110256128	77737984	31406888	33184
557	22.073802	110256128	77737984	28841432	33184
558	19.812841	110256128	77737984	41896208	33184
559	22.646938	110256128	77737984	39388136	33184
560	23.848927	110256128	77737984	37942128	33184
561	25.036516	110256128	77737984	37432840	33184
562	2.243456	110256128	77737984	38493088	33184
563	3.331585	110256128	77737984	40738856	33184
564	6.690859	110256128	77737984	27713448	33184
565	5.734041	110256128	77737984	31447824	33184
566	7.0077	110256128	77737984	35936712	33184
567	7.898462	110256128	77737984	41173888	33184
568	11.126403	110256128	77737984	30980984	33184
569	10.01005	110256128	77737984	37728272	33184
570	13.789616	110256128	77737984	29558200	33184
571	12.412043	110256128	77737984	37816992	33184
572	15.846585	110256128	77737984	31160624	33184
573	14.764026	110256128	77737984	40946600	33184
574	18.340684	110256128	77737984	35353992	33184
575	19.823172	110256128	77737984	31296168	33184
576	18.069847	110256128	77737984	43370936	33184
577	21.345986	110256128	77737984	39758784	33184
578	22.831391	110256128	77737984	37377376	33184
579	24.344229	110256128	77737984	36108632	33184
580	25.750339	110256128	77737984	35752136	33184
581	26.811089	110256128	77737984	36283488	33184
582	2.334645	110256128	77737984	38229768	33184
583	3.515979	110256128	77737984	40549864	33184
584	4.76366	110256128	77737984	43633520	33184
585	8.296937	110256128	77737984	31130208	33184
586	7.173881	110256128	77737984	35767440	33184
587	8.161153	110256128	77737984	41180448	33184
588	11.458857	110256128	77737984	31293312	33184
589	10.744173	110256128	77737984	38262368	33184
590	14.270409	110256128	77737984	30344296	33184
591	12.8671	110256128	77737984	38877440	33184
592	16.427008	110256128	77737984	32430408	33184
593	15.110098	110256128	77737984	42533544	33184
594	18.39557	110256128	77737984	37160360	33184
595	20.384349	110256128	77737984	33266200	33184
596	21.942684	110256128	77737984	30699144	33184
597	20.534454	110256128	77737984	43948464	33184
598	23.399396	110256128	77737984	41533008	33184
599	24.187723	110256128	77737984	40243440	33184
600	25.77165	110256128	77737984	39897952	33184
601	26.926288	110256128	77737984	40442784	33184
602	2.412293	110256128	77737984	42467608	33184
603	6.032063	110256128	77737984	28763976	33184
604	5.002521	110256128	77737984	31951304	33184
605	5.949185	110256128	77737984	35931152	33184
606	7.137522	110256128	77737984	40711080	33184
607	10.771723	110256128	77737984	30335584	33184
608	9.695243	110256128	77737984	36718336	33184
609	10.850638	110256128	77737984	43915936	33184
610	14.256701	110256128	77737984	35547016	33184
611	13.309993	110256128	77737984	44343896	33184
612	16.562969	110256128	77737984	37518080	33184
613	18.936005	110256128	77737984	32405656	33184
614	17.012477	110256128	77737984	43628872	33184
615	20.727892	110256128	77737984	39317616	33184
616	22.333608	110256128	78262272	36541304	33184
617	23.792378	110256128	78262272	34882472	33184
618	25.05688	110256128	78262272	34263744	33184
619	26.503827	110256128	78262272	34513544	33184
620	27.824259	110256128	78262272	35536416	33184
621	28.552474	110256128	78262272	37274776	33184
622	2.494261	110256128	78262272	40431712	33184
623	3.681737	110256128	78262272	42889848	33184
624	7.889141	110526464	78262272	30100168	33184
625	6.188742	110526464	78262272	34213024	33184
626	7.554484	110526464	78262272	39149712	33184
627	8.529926	110526464	78262272	44904544	33184
628	12.027787	110526464	78262272	35037680	33184
629	11.204895	110526464	78262272	42446408	33184
630	15.065785	110526464	78262272	34595704	33184
631	13.559093	110526464	78262272	43665640	33184
632	17.24751	110526464	78262272	37306712	33184
633	19.149535	110526464	78262272	32676656	33184
634	17.648481	110526464	78262272	44241256	33184
635	20.99944	110526464	78262272	40304440	33184
636	23.406992	110796800	78262272	37746168	33184
637	24.154026	110796800	78262272	36390688	33184
638	25.698373	110796800	78262272	36051624	33184
639	28.01154	110796800	78262272	36617480	33184
640	28.192029	110796800	78262272	37960136	33184
641	29.050043	110796800	78262272	39923728	33184
642	2.569928	110796800	78262272	43334088	33184
643	6.286426	110796800	78262272	29801616	33184
644	5.116957	110796800	78262272	33179424	33184
645	6.357195	110796800	78262272	37408296	33184
646	7.745661	110796800	78262272	42487352	33184
647	11.559496	110796800	78262272	32362480	33184
648	10.351482	110796800	78262272	39137680	33184
649	14.491615	110796800	78262272	31182376	33184
650	12.986848	110796800	78262272	39666776	33184
651	17.127314	110796800	78262272	33360232	33184
652	15.386367	110796800	78262272	43558840	33184
653	19.207359	110796800	78262272	38473160	33184
654	20.67589	110796800	78262272	34906960	33184
655	23.187354	110796800	78262272	32669584	33184
656	24.457575	110796800	78262272	31653960	33184
657	26.14265	110796800	78262272	31610928	33184
658	27.486175	110796800	78262272	32446536	33184
659	28.723331	110796800	78262272	34032088	33184
660	29.806507	110796800	78262272	36276496	33184
661	30.699699	110796800	78262272	39122680	33184
662	2.636032	110796800	78262272	43277096	33184
663	3.914644	110796800	78262272	45882560	33184
664	7.645178	110796800	78262272	33029800	33184
665	6.562965	110796800	78262272	37377768	33184
666	7.824409	110796800	78262272	42599424	33184
667	12.001294	110796800	78262272	32705600	33184
668	10.514143	110796800	78262272	39677224	33184
669	14.71611	110796800	78262272	31963560	33184
670	13.101316	110796800	78262272	40691224	33184
671	17.242368	110796800	78262272	34624032	33184
672	15.643019	110796800	78262272	45111416	33184
673	20.741948	110796800	78262272	40169336	33184
674	21.802765	110796800	78262272	36785552	33184
675	23.440574	110796800	78262272	34748624	33184
676	24.761873	110796800	78262272	33938240	33184
677	26.306884	110796800	78262272	34105624	33184
678	27.764035	110796800	78262272	35128240	33184
679	28.774154	110796800	78262272	36894000	33184
680	29.9634	110796800	78262272	39306224	33184
681	31.040775	110796800	78262272	42286392	33184
682	5.25626	110796800	78262272	30522848	33184
683	4.129129	110796800	78262272	33201888	33184
684	5.604538	110796800	78262272	36776184	33184
685	6.72654	110796800	78262272	41249768	33184
686	8.255331	110796800	78262272	46618712	33184
687	12.294458	110796800	78262272	36425424	33184
688	10.710176	110796800	78262272	43593592	33184
689	14.946846	110796800	78262272	35662400	33184
690	13.612437	110796800	78262272	44636640	33184
691	17.646506	110796800	78262272	38387376	33184
692	19.770827	110796800	78262272	33894616	33184
693	17.771594	110796800	78262272	45588936	33184
694	21.86003	110796800	78262272	41905592	33184
695	23.350519	110796800	78262272	39650160	33184
696	25.01526	110796800	78262272	38579600	33184
697	26.895376	110796800	78262272	38601864	33184
698	28.51737	110796800	78262272	39534216	33184
699	29.448233	110796800	78262272	41226808	33184
700	30.225018	110796800	78262272	43646432	33184
701	31.558157	110796800	78262272	46623920	33184
702	2.784807	110796800	78262272	36923880	33184
703	4.145958	110796800	78262272	39677376	33184
704	5.53971	110796800	78262272	43349784	33184
705	10.244254	110796800	78262272	32076744	33184
706	8.530028	110796800	78262272	37592856	33184
707	9.618394	110796800	78262272	44032584	33184
708	14.341186	110796800	78262272	35394160	33184
709	12.67466	110796800	78262272	43684552	33184
710	16.797501	110796800	78262272	36920112	33184
711	15.449074	110796800	78262272	47074360	33184
712	19.330419	110796800	78262272	41726768	33184
713	21.477471	110796800	78262272	38034624	33184
714	23.486663	110796800	78262272	35791336	33184
715	25.433358	110796800	78262272	34842288	33184
716	26.508304	110796800	78262272	34976248	33184
717	27.661179	110796800	78262272	36061056	33184
718	29.435757	110796800	78262272	37992832	33184
719	30.400406	110796800	78262272	40588440	33184
720	31.212929	110796800	78262272	43776032	33184
721	32.640655	110796800	78262272	47433192	33184
722	2.979462	110796800	78262272	38368640	33184
723	4.402672	110796800	78262272	41250408	33184
724	5.739844	110796800	78262272	45086656	33184
725	10.218204	110796800	78262272	33872144	33184
726	8.830645	110796800	78262272	39648776	33184
727	9.997708	110796800	78262272	46377296	33184
728	14.407879	110796800	78262272	37834368	33184
729	13.236146	110796800	78262272	46509016	33184
730	16.974079	110796800	78262272	39916216	33184
731	19.308487	110796800	78262272	35172608	33184
732	17.516591	110796800	78262272	46751760	33184
733	21.238369	110796800	78262272	42995256	33184
734	23.32883	110796800	78262272	40720600	33184
735	25.000711	110796800	78262272	39721936	33184
736	26.83996	110796800	78262272	39849840	33184
737	28.424011	110796800	78262272	40974672	33184
738	29.101378	110796800	78262272	42891968	33184
739	30.622695	110796800	78262272	45541128	33184
740	37.104927	110796800	78262272	34920976	33184
741	37.271484	110796800	78262272	42850608	33184
742	2.952473	110796800	78262272	49863344	33184
743	7.157008	110796800	78262272	36576224	33184
744	5.881111	110796800	78262272	40510904	33184
745	7.636779	110796800	78262272	45433712	33184
746	12.305097	110796800	78262272	35612048	33184
747	10.596426	110796800	78262272	42521704	33184
748	11.74687	110796800	78262272	50416992	33184
749	16.263041	110796800	78262272	42937104	33184
750	18.481098	110796800	78262272	37463096	33184
751	16.064179	110796800	78262272	48330472	33184
752	20.718543	110796800	78262272	44094416	33184
753	22.472087	110796800	78262272	41407176	33184
754	24.501283	110796800	78262272	40084064	33184
755	26.378555	110796800	78262272	39957288	33184
756	27.727746	110796800	78262272	40872176	33184
757	28.966503	110796800	78262272	42698896	33184
758	30.086446	110796800	78262272	45263928	33184
759	31.31943	110796800	78262272	48439136	33184
760	38.054451	110796800	78262272	38284656	33184
761	37.8316	110796800	78262272	46792376	33184
762	5.91466	110796800	78262272	38214144	33184
763	4.733538	110796800	78262272	41236824	33184
764	6.04045	110796800	78262272	45269640	33184
765	7.781192	110796800	78262272	50313352	33184
766	12.365969	110796800	78262272	40401488	33184
767	10.510901	110796800	78262272	47471624	33184
768	15.583712	110796800	78262272	39989952	33184
769	13.676094	110796800	78262272	49103488	33184
770	18.959648	110796800	78262272	43415288	33184
771	21.732456	110796800	78262272	39535240	33184
772	18.52968	110796800	78262272	51711312	33184
773	23.072016	110796800	78262272	48801800	33184
774	24.526264	110796800	78262272	47296576	33184
775	26.334684	110796800	78262272	46956032	33184
776	27.921619	110796800	78262272	47700536	33184
777	29.33351	110796800	78262272	49427760	33184
778	30.754001	110796800	78262272	51933480	33184
779	37.499285	110796800	78262272	41212848	33184
780	38.346375	110796800	78262272	49169208	33184
781	39.913861	110796800	78262272	55258920	33184
782	3.081511	110796800	78262272	24601024	33184
783	4.553993	110796800	78262272	27697536	33184
784	10.02412	110796800	78262272	18468448	33184
785	7.548593	110796800	78262272	23634960	33184
786	9.168349	110796800	78262272	29838912	33184
787	12.281139	110796800	78262272	21841736	33184
788	12.483317	110796800	78262272	30123032	33184
789	14.574167	110796800	78262272	23509504	33184
790	15.263935	110796800	78262272	33874152	33184
791	17.369987	110796800	78262272	28878944	33184
792	19.688972	110796800	78262272	25606920	33184
793	21.815856	110796800	78262272	23829168	33184
794	23.035385	110796800	78262272	23297936	33184
795	24.702067	110796800	78262272	23918312	33184
796	26.144067	110796800	78262272	25497928	33184
797	27.454665	110796800	78262272	27918488	33184
798	28.226075	110796800	78262272	31026408	33184
799	32.89488	110796800	78262272	20995792	33184
800	34.837089	110796800	78262272	29513496	33184
801	33.128271	110796800	78262272	35977312	33184
802	3.114217	110796800	78262272	29525632	33184
803	4.627228	110796800	78262272	32695776	33184
804	6.225848	110796800	78262272	36927056	33184
805	8.087272	110796800	78262272	25831104	33184
806	9.27625	110796800	78262272	32182216	33184
807	11.529753	110796800	78262272	23782408	33184
808	12.371059	110796800	78262272	32259680	33184
809	14.569043	110796800	78262272	25979560	33184
810	15.486782	110796800	78262272	36591544	33184
811	17.212946	110796800	78262272	31888680	33184
812	19.760292	110796800	78262272	28864096	33184
813	21.320069	110796800	78262272	27320392	33184
814	23.187323	110796800	78262272	27102664	33184
815	25.398769	110796800	78262272	27979176	33184
816	27.365579	110796800	78262272	29770376	33184
817	28.497235	110796800	78262272	32392056	33184
818	29.307803	110796800	78262272	35769936	33184
819	33.207124	110796800	78262272	25728312	33184
820	36.188242	110796800	78262272	34679448	33184
821	37.211293	110796800	78262272	27990224	33184
822	3.181481	110796800	78262272	40175816	33184
823	5.502093	110796800	78262272	27666096	33184
824	6.445233	110796800	78262272	31993440	33184
825	8.157283	110796800	78262272	37407560	33184
826	10.657726	110796800	78262272	28239688	33184
827	11.259268	110796800	78262272	35825112	33184
828	13.800131	110796800	78262272	28984320	33184
829	14.82335	110796800	78262272	38760392	33184
830	16.99954	110796800	78262272	33745048	33184
831	19.286987	110796800	78262272	30482968	33184
832	21.267476	110796800	78262272	28771040	33184
833	20.865598	110796800	78262272	42913568	33184
834	22.514805	110796800	78262272	41703984	33184
835	24.691573	110796800	78262272	41807152	33184
836	26.673153	110796800	78262272	42949904	33184
837	30.120474	110796800	78262272	30867568	33184
838	31.519832	110796800	78262272	35751704	33184
839	32.20983	110796800	78262272	40999864	33184
840	35.864042	110796800	78262272	32698592	33184
841	38.29352	110796800	78262272	43259632	33184
842	3.275802	110796800	78262272	38856432	33184
843	4.867854	110796800	78262272	42173944	33184
844	10.11311	110796800	78262272	33433952	33184
845	8.233308	110796800	78262272	38969544	33184
846	9.716591	110796800	78262272	45615064	33184
847	12.46389	110796800	78262272	37829736	33184
848	13.108748	110796800	78262272	46702568	33184
849	15.234438	110796800	78262272	40617144	33184
850	17.762652	110796800	78262272	36467464	33184
851	17.996745	110796800	78262272	48719360	33184
852	20.278475	110796800	78262272	45728152	33184
853	22.149543	110796800	78262272	44248888	33184
854	24.169469	110796800	78262272	44088976	33184
855	25.650584	110796800	78262272	45059096	33184
856	26.961994	110796800	78262272	47032152	33184
857	31.952128	110796800	78262272	35936704	33184
858	34.262739	110796800	78262272	43746352	33184
859	32.713815	110796800	78262272	49771088	33184
860	37.673666	110796800	78262272	42040792	33184
861	39.77739	110796800	78262272	53263160	33184
862	3.336247	110796800	78262272	49250016	33184
863	5.019602	110796800	78262272	52671912	33184
864	7.176348	110796800	78262272	41125576	33184
865	8.472787	110796800	78262272	46836360	33184
866	10.024258	110796800	78262272	53696904	33184
867	12.123192	110796800	78262272	45462128	33184
868	13.45721	110796800	78262272	54618664	33184
869	15.5535	110796800	78262272	48547792	33184
870	17.420743	110796800	78262272	44386744	33184
871	20.10075	110796800	78262272	41979552	33184
872	22.271673	110796800	78262272	41064432	33184
873	23.874403	110796800	78262272	41446712	33184
874	25.970866	110796800	78262272	42919032	33184
875	27.193867	110796800	78262272	45316096	33184
876	28.548181	110796800	78262272	48548800	33184
877	29.589066	110796800	78262272	52473984	33184
878	33.762354	110796800	78262272	43221528	33184
879	38.088001	110796800	78262272	52585584	33184
880	43.295613	110796800	78786560	46478368	33184
881	61.449119	113229824	82456576	29928584	33184
882	3.424866	114851840	82456576	29930656	33184
883	5.078931	114851840	82456576	33426216	33184
884	10.539919	114851840	82456576	24646152	33184
885	8.841295	114851840	82456576	30477928	33184
886	10.426382	114851840	82456576	37488376	33184
887	13.011042	114851840	82456576	30010592	33184
888	14.917657	114851840	82456576	24151632	33184
889	15.773101	114851840	82456576	34684048	33184
890	17.818334	114851840	82456576	30511504	33184
891	20.340893	114851840	82456576	28118512	33184
892	21.876757	114851840	82456576	27191912	33184
893	24.117167	114851840	82456576	27622864	33184
894	26.118972	114851840	82456576	29160160	33184
895	27.371236	114851840	82456576	31628768	33184
896	28.605722	114851840	82456576	34996536	33184
897	29.929442	114851840	82456576	39044672	33184
898	33.552359	114851840	82456576	29600160	33184
899	34.421257	114851840	82456576	36806552	33184
900	37.451854	114851840	82456576	30247376	33184
901	44.1928	114851840	82456576	29918136	33184
902	3.488324	114851840	82456576	44439336	33184
903	5.728027	114851840	82456576	31932816	33184
904	6.986013	114851840	82456576	36698240	33184
905	8.709807	114851840	82456576	42658392	33184
906	11.019322	114851840	82456576	33760144	33184
907	12.562499	114851840	82456576	42111336	33184
908	15.055636	114851840	82456576	35761152	33184
909	17.32106	114851840	82456576	31402760	33184
910	17.530586	114851840	82456576	43348008	33184
911	19.85747	114851840	82456576	40401552	33184
912	22.05145	114851840	82456576	39024800	33184
913	23.800909	114851840	82456576	39014944	33184
914	25.887659	114851840	82456576	40217224	33184
915	27.092069	114851840	82456576	42478872	33184
916	29.045249	114851840	82456576	45627000	33184
917	33.264335	114851840	82456576	35455120	33184
918	32.97578	114851840	82456576	42016640	33184
919	37.259148	114851840	82456576	35138224	33184
920	39.994796	114851840	82456576	46667296	33184
921	40.613067	114851840	82456576	42115880	33184
922	3.559326	114851840	82456576	44790488	33184
923	5.359172	114851840	82456576	48433384	33184
924	7.248808	114851840	82456576	53292776	33184
925	11.572163	114851840	82456576	45331520	33184
926	10.795936	114851840	82456576	52628072	33184
927	13.657776	114851840	82456576	45494208	33184
928	14.483024	114851840	82456576	55239080	33184
929	17.289107	114851840	82456576	49832816	33184
930	19.657372	114851840	82456576	46358400	33184
931	21.290533	114851840	82456576	44580800	33184
932	23.350006	114851840	82456576	44342320	33184
933	25.846677	114851840	82456576	45329560	33184
934	27.067054	114851840	82456576	47362536	33184
935	27.793938	114851840	82456576	50379376	33184
936	29.680179	114851840	82456576	54226752	33184
937	33.785885	114851840	82456576	44773624	33184
938	36.315684	114851840	82456576	54397704	33184
939	38.406107	114851840	82456576	48368128	33184
940	40.464508	114851840	82980864	60412856	33184
941	41.589952	115392512	83505152	56133696	33184
942	3.854782	116203520	84553728	55096040	33184
943	5.445223	116203520	84553728	58813072	33184
944	11.928827	118366208	86650880	50542144	33184
945	10.391613	118366208	86650880	56748768	33184
946	12.148932	118366208	86650880	64199784	33184
947	16.328573	118906880	87175168	57093112	33184
948	20.868127	118906880	87175168	51690712	33184
949	29.212952	115761152	84029440	20289976	33184
950	20.631889	115761152	84029440	17870584	33184
951	20.477742	115761152	84029440	31555288	33184
952	21.948716	115761152	84029440	30134984	33184
953	25.157779	115761152	84029440	30143000	33184
954	26.03928	115761152	84029440	31397368	33184
955	30.779567	115761152	84029440	19598400	33184
956	31.599713	115761152	84029440	24820864	33184
957	32.199034	115761152	84029440	30552392	33184
958	36.834875	115761152	84029440	22874640	33184
959	39.453494	115761152	84029440	34178504	33184
960	40.78959	116572160	84029440	29270088	33184
961	42.612544	116572160	84029440	26352120	33184
962	3.725352	117112832	84553728	30128656	33184
963	5.631956	117112832	84553728	33918800	33184
964	7.743514	117112832	84553728	38975944	33184
965	12.005821	117112832	84553728	31179296	33184
966	11.257968	117112832	84553728	38772928	33184
967	13.854283	117112832	84553728	31890184	33184
968	15.044469	117112832	84553728	42047968	33184
969	17.11793	117112832	84553728	37099480	33184
970	19.852484	117112832	84553728	34081248	33184
971	22.106338	117112832	84553728	32710560	33184
972	23.647464	117112832	84553728	32808520	33184
973	25.806687	117112832	84553728	34180840	33184
974	27.386474	117112832	84553728	36654048	33184
975	29.138499	117112832	84553728	40072432	33184
976	33.444795	117112832	84553728	30348496	33184
977	36.334066	117112832	84553728	39601856	33184
978	38.312722	117112832	84553728	33475112	33184
979	40.410633	117112832	84553728	45206960	33184
980	41.899857	117112832	84553728	41028112	33184
981	48.94933	117112832	84553728	42829008	33184
982	4.048652	117112832	84553728	47116296	33184
983	5.651356	117112832	84553728	50985968	33184
984	7.905448	117112832	84553728	56140096	33184
985	12.240173	117112832	84553728	48457624	33184
986	11.409714	117112832	84553728	56195736	33184
987	14.406256	117112832	84553728	49379728	33184
988	16.640037	117112832	84553728	44583904	33184
989	17.128191	117112832	84553728	56207120	33184
990	19.809417	117112832	84553728	53069840	33184
991	21.806472	117112832	84553728	51637952	33184
992	24.179834	117112832	84553728	51672968	33184
993	25.727253	117112832	84553728	53008808	33184
994	27.82144	117112832	84553728	55484768	33184
995	29.326467	117112832	84553728	58923944	33184
996	34.538895	117112832	84553728	49047920	33184
997	36.136872	117112832	84553728	55967944	33184
998	39.757134	117112832	84553728	49488480	33184
999	42.435666	117112832	84553728	61757896	33184
1000	57.747672	117112832	84553728	57648216	33184
