x	Duration	RSS	HeapTotal	HeapUsed	External
0	NA	113119232	78262272	14402352	33184
1	0.461102	113119232	78262272	14454656	33184
2	0.457599	113119232	78262272	14522632	33184
3	0.478434	113119232	78262272	14615344	33184
4	0.574191	113119232	78262272	14734464	33184
5	0.681491	113119232	78262272	14881752	33184
6	0.803916	113119232	78262272	15057896	33184
7	0.957309	113119232	78262272	15264128	33184
8	1.062857	113119232	78262272	15501712	33184
9	1.188838	113119232	78262272	15773088	33184
10	2.002683	113119232	78262272	16078576	33184
11	0.623636	113119232	78262272	16419336	33184
12	0.679197	113119232	78262272	16796792	33184
13	0.743452	113119232	78262272	17211912	33184
14	0.782374	113119232	78262272	17669824	33184
15	0.885239	113119232	78262272	18164104	33184
16	0.901034	113119232	78262272	18699872	33184
17	0.971225	113119232	78262272	19280144	33184
18	1.045447	113119232	78262272	19904320	33184
19	1.508312	113119232	78262272	20574744	33184
20	1.196164	113119232	78262272	21291480	33184
21	1.211309	113119232	78262272	22057680	33184
22	0.183886	113119232	78262272	22845080	33184
23	0.270692	113119232	78262272	22994776	33184
24	0.347728	113119232	78262272	23196576	33184
25	0.425117	113119232	78262272	23451824	33184
26	0.512265	113119232	78262272	23762064	33184
27	0.590767	113119232	78262272	24128112	33184
28	0.722738	113119232	78262272	24551184	33184
29	0.816418	113119232	78262272	25032712	33184
30	0.853092	113119232	78262272	25574536	33184
31	0.951487	113119232	78262272	26177088	33184
32	1.091891	113119232	78262272	26841536	33184
33	1.364353	113119232	78262272	27569160	33184
34	1.952843	113119232	78262272	28361136	33184
35	1.709825	113119232	78262272	29218832	33184
36	1.440818	113119232	78262272	30143224	33184
37	1.547531	113119232	78262272	31135672	33184
38	2.574165	113119232	78262272	15886304	33184
39	1.889061	113119232	78262272	17042272	33184
40	1.806809	113119232	78262272	18248528	33184
41	2.285049	113119232	78262272	19527744	33184
42	0.272386	113119232	78262272	20884288	33184
43	0.400202	113119232	78262272	21107656	33184
44	0.497114	113119232	78262272	21408624	33184
45	0.603246	113119232	78262272	21789904	33184
46	0.724549	113119232	78262272	22251984	33184
47	0.838367	113119232	78262272	22796048	33184
48	0.959759	113119232	78262272	23423488	33184
49	1.105876	113119232	78262272	24135448	33184
50	1.211702	113119232	78262272	24934064	33184
51	1.469192	113119232	78262272	25820528	33184
52	1.746134	113119232	78262272	26794376	33184
53	1.651942	113119232	78262272	27861000	33184
54	1.719226	113119232	78262272	29015064	33184
55	1.845853	113119232	78262272	30260840	33184
56	3.179935	113119232	78262272	15479096	33184
57	2.495249	113119232	78262272	16912560	33184
58	2.302172	113119232	78262272	18443328	33184
59	2.743777	113119232	78262272	20071528	33184
60	2.604433	113119232	78262272	21797472	33184
61	2.664523	113119232	78262272	23623144	33184
62	0.330771	113119232	78262272	25581392	33184
63	0.528682	113119232	78262272	25885120	33184
64	0.671059	113119232	78262272	26290120	33184
65	0.808336	113119232	78262272	26799336	33184
66	0.932863	113119232	78262272	27414376	33184
67	1.092221	113119232	78262272	28136024	33184
68	1.488199	113119232	78262272	28965528	33184
69	1.394634	113119232	78262272	29904128	33184
70	1.568463	113119232	78262272	30953984	33184
71	2.718299	113119232	78262272	15855416	33184
72	2.395756	113119232	78262272	17132368	33184
73	2.048447	113119232	78262272	18520360	33184
74	2.273273	113119232	78262272	20023576	33184
75	2.391636	113119232	78262272	21643176	33184
76	2.948697	113119232	78262272	23382536	33184
77	2.978546	113119232	78262272	25239880	33184
78	3.0516	113119232	78262272	27219744	33184
79	3.065695	113119232	78262272	29319128	33184
80	3.474243	113119232	78262272	31541760	33184
81	4.427215	113119232	78262272	17538744	33184
82	0.397914	113119232	78262272	20069392	33184
83	0.807723	113119232	78262272	20444968	33184
84	0.780145	113119232	78262272	20950296	33184
85	0.96082	113119232	78262272	21584304	33184
86	1.157213	113119232	78262272	22349792	33184
87	1.347313	113119232	78262272	23247616	33184
88	1.53174	113119232	78262272	24278904	33184
89	1.726481	113119232	78262272	25444976	33184
90	1.920642	113119232	78262272	26748504	33184
91	2.33106	113119232	78262272	28190656	33184
92	2.469388	113119232	78262272	29775280	33184
93	2.526385	113119232	78262272	31499800	33184
94	3.369237	113119232	78262272	17033736	33184
95	3.135665	113119232	78262272	19045256	33184
96	3.326795	113119232	78262272	21202192	33184
97	3.367906	113119232	78262272	23506032	33184
98	3.747969	113119232	78262272	25959400	33184
99	3.889672	113119232	78262272	28562488	33184
100	3.966014	113119232	78262272	31315632	33184
101	4.80939	113119232	78262272	17900864	33184
102	0.474832	113119232	78262272	21047632	33184
103	0.704751	113119232	78262272	21506576	33184
104	0.92536	113119232	78262272	22120704	33184
105	1.152257	113119232	78262272	22891312	33184
106	1.38501	113119232	78262272	23820040	33184
107	1.608744	113119232	78262272	24907720	33184
108	2.040692	113119232	78262272	26155480	33184
109	2.065786	113119232	78262272	27564600	33184
110	2.300157	113119232	78262272	29138320	33184
111	2.54585	113119232	78262272	30874928	33184
112	3.425356	113119232	78262272	16533704	33184
113	3.246779	113119232	78262272	18601520	33184
114	3.238522	113119232	78262272	20837152	33184
115	3.536884	113119232	78262272	23241080	33184
116	3.735243	113119232	78262272	25815464	33184
117	3.993538	113119232	78262272	28560624	33184
118	4.292572	113119232	78262272	31480344	33184
119	5.303598	113119232	78262272	18251576	33184
120	4.725708	113119232	78262272	21519744	33184
121	5.17931	113119232	78262272	24964624	33184
122	0.547462	113119232	78262272	28700440	33184
123	0.818642	113119232	78262272	29233024	33184
124	1.089279	113119232	78262272	29945504	33184
125	1.331334	113119232	78262272	30838808	33184
126	1.605074	113119232	78262272	31914872	33184
127	3.192983	113119232	78262272	16835192	33184
128	2.28207	113119232	78262272	18279424	33184
129	2.550391	113119232	78262272	19909464	33184
130	2.838046	113119232	78262272	21727632	33184
131	3.224319	113119232	78262272	23734088	33184
132	3.216021	113119232	78262272	25930312	33184
133	3.573268	113119232	78262272	28317208	33184
134	4.707054	113119232	78262272	30898624	33184
135	5.033952	113119232	78262272	17473328	33184
136	4.388129	113119232	78262272	20440000	33184
137	4.806628	113119232	78262272	23602496	33184
138	5.088874	113119232	78262272	26964832	33184
139	5.413588	113119232	78262272	30523192	33184
140	6.233727	113119232	78262272	18166992	33184
141	5.980172	113119232	78262272	22125792	33184
142	0.622732	113119232	78262272	26436976	33184
143	0.93394	113119232	78262272	27050064	33184
144	1.226728	113119232	78262272	27867720	33184
145	1.734841	113119232	78262272	28892752	33184
146	1.827524	113119232	78262272	30126824	33184
147	2.136866	113119232	78262272	31570568	33184
148	3.095569	113119232	78262272	17096488	33184
149	2.740847	113119232	78262272	18963608	33184
150	3.242813	113119232	78262272	21045072	33184
151	3.34329	113119232	78262272	23341240	33184
152	3.683391	113119232	78262272	25853312	33184
153	3.995419	113119232	78262272	28582520	33184
154	4.353851	113119232	78262272	31530632	33184
155	5.501284	113119232	78262272	18567504	33184
156	5.602309	113119232	78262272	21955432	33184
157	5.380507	113119232	78262272	25574144	33184
158	5.816814	113119232	78262272	29409208	33184
159	6.796683	113119232	78262272	17623984	33184
160	6.507684	113119232	78262272	21910280	33184
161	6.595239	113119232	78262272	26422904	33184
162	0.712311	113119232	78262272	31336216	33184
163	1.039087	113119232	78262272	32021368	33184
164	1.378372	113119232	78262272	32937232	33184
165	2.892613	113119232	78262272	17805896	33184
166	2.100859	113119232	78262272	19189776	33184
167	2.383101	113119232	78262272	20805264	33184
168	2.711767	113119232	78262272	22656384	33184
169	3.288654	113119232	78262272	24744008	33184
170	3.460931	113119232	78262272	27071744	33184
171	3.825149	113119232	78262272	29637480	33184
172	4.126559	113119232	78262272	32443672	33184
173	5.11862	113119232	78262272	19298320	33184
174	4.822448	113119232	78262272	22588976	33184
175	5.343463	113119232	78262272	26123720	33184
176	5.517357	113119232	78262272	29903912	33184
177	6.986754	113119232	78262272	18069912	33184
178	6.223106	113119232	78262272	22346264	33184
179	6.897794	113119232	78262272	26871672	33184
180	7.224846	113119232	78262272	31652504	33184
181	8.122631	113119232	78262272	20580376	33184
182	0.779465	113119232	78262272	26079200	33184
183	1.15198	113119232	78262272	26850464	33184
184	1.527349	113119232	78262272	27881040	33184
185	1.904064	113119232	78262272	29172120	33184
186	2.47583	113119232	78262272	30725512	33184
187	2.661911	113119232	78262272	32541768	33184
188	3.812996	113119232	78262272	18465840	33184
189	3.438579	113119232	78262272	20811832	33184
190	4.015314	113119232	78262272	23425552	33184
191	4.178285	113119232	78262272	26307824	33184
192	4.585922	113119232	78262272	29458336	33184
193	5.392314	113119232	78262272	32879272	33184
194	6.103799	113119232	78262272	20357232	33184
195	6.186505	113119232	78262272	24322712	33184
196	6.394547	113119232	78262272	28561976	33184
197	6.757835	113119232	78262272	33076640	33184
198	7.818004	113119232	78262272	21626552	33184
199	7.598731	113119232	78262272	26697272	33184
200	7.971084	113119232	78262272	32047368	33184
201	9.30205	113119232	78262272	21557056	33184
202	1.217379	113119232	78262272	27699000	33184
203	1.273633	113119232	78262272	28543864	33184
204	1.679199	113119232	78262272	29672600	33184
205	2.093435	113119232	78262272	31086344	33184
206	2.519647	113119232	78262272	32786944	33184
207	3.73936	113119232	78262272	18615504	33184
208	3.553754	113119232	78262272	20892416	33184
209	3.94145	113119232	78262272	23459184	33184
210	4.531169	113119232	78262272	26318168	33184
211	4.858865	113119232	78262272	29470104	33184
212	5.293966	113119232	78262272	32915312	33184
213	6.549503	113119232	78262272	20495040	33184
214	5.881716	113119232	78262272	24532056	33184
215	6.456798	113119232	78262272	28865648	33184
216	7.683908	113119232	78262272	33500504	33184
217	8.204744	113119232	78262272	22226168	33184
218	7.902185	113119232	78262272	27460824	33184
219	8.1049	113119232	78262272	32998712	33184
220	9.303575	113119232	78262272	22688536	33184
221	9.204668	113119232	78262272	28837256	33184
222	0.998103	113119232	78262272	19934696	33184
223	1.452365	113119232	78262272	20853144	33184
224	1.921721	113119232	78262272	22080072	33184
225	2.403619	113119232	78262272	23616544	33184
226	2.872541	113119232	78262272	25464360	33184
227	3.350056	113119232	78262272	27624280	33184
228	4.020451	113119232	78262272	30097512	33184
229	4.096441	113119232	78262272	32891040	33184
230	5.478372	113119232	78262272	19896400	33184
231	5.269915	113119232	78262272	23326400	33184
232	5.578	113119232	78262272	27077432	33184
233	6.256506	113119232	78262272	31153872	33184
234	7.607729	113119232	78262272	19685640	33184
235	7.200103	113119232	78262272	24407320	33184
236	7.563572	113119232	78262272	29460960	33184
237	8.23054	113119232	78262272	34836688	33184
238	9.128498	113119232	78262272	24180072	33184
239	9.030411	113119232	78262272	30218360	33184
240	10.709727	113119232	78262272	20857144	33184
241	9.772773	113119232	78262272	27555832	33184
242	1.018949	113119232	78262272	34874016	33184
243	2.310824	113119232	78262272	19559544	33184
244	2.005356	113119232	78262272	20896072	33184
245	2.466423	113119232	78262272	22569560	33184
246	2.950586	113119232	78262272	24581976	33184
247	3.682574	113119232	78262272	26934336	33184
248	3.959827	113119232	78262272	29630856	33184
249	4.437973	113119232	78262272	32666352	33184
250	6.011178	113119232	78262272	20031360	33184
251	5.532544	113119232	78262272	23754464	33184
252	6.166129	113119232	78262272	27823112	33184
253	6.456263	113119232	78262272	32241248	33184
254	8.224501	113119232	78262272	21025912	33184
255	7.483664	113119232	78262272	26138696	33184
256	8.261102	113119232	78262272	31602224	33184
257	9.873441	113119232	78262272	21558648	33184
258	9.298953	113119232	78262272	27728608	33184
259	9.58508	113119232	78262272	34252784	33184
260	11.45569	113119232	78262272	24906896	33184
261	10.889645	113119232	78262272	32144528	33184
262	1.094842	113119232	78262272	24105152	33184
263	1.62955	113119232	78262272	25179472	33184
264	2.156281	113119232	78262272	26614256	33184
265	2.670547	113119232	78262272	28410520	33184
266	3.439397	113119232	78262272	30570536	33184
267	3.72013	113119232	78262272	33094264	33184
268	5.307305	113119232	78262272	19973024	33184
269	5.044557	113119232	78262272	23228504	33184
270	5.343708	113119232	78262272	26852608	33184
271	5.889325	113119232	78262272	30845552	33184
272	6.407912	113119232	78262272	35208864	33184
273	8.068381	113119232	78262272	23643888	33184
274	7.962273	113119232	78262272	28755248	33184
275	8.051428	113119232	78262272	34236328	33184
276	9.668789	113119232	78262272	23934728	33184
277	9.447004	113119232	78262272	30167472	33184
278	11.384617	113119232	78262272	21148112	33184
279	10.307636	113119232	78262272	28139160	33184
280	11.078608	113119232	78262272	35510800	33184
281	12.989521	113119232	78262272	26915584	33184
282	1.171466	113119232	78262272	35396080	33184
283	2.70503	113119232	78262272	20295504	33184
284	2.307021	113119232	78262272	21828296	33184
285	2.855497	113119232	78262272	23747320	33184
286	3.654164	113119232	78262272	26060488	33184
287	4.00465	113119232	78262272	28755912	33184
288	4.793178	113119232	78262272	31841136	33184
289	5.132286	113119232	78262272	35317400	33184
290	7.004993	113119232	78262272	22949728	33184
291	6.539497	113119232	78262272	27212640	33184
292	7.096016	113119232	78262272	31870408	33184
293	9.095162	113119232	78262272	21139488	33184
294	8.480749	113119232	78262272	26590632	33184
295	8.864498	113119232	78262272	32439672	33184
296	10.674189	113119232	78262272	22825608	33184
297	10.006067	113119232	78262272	29475312	33184
298	12.447921	113119232	78262272	21058576	33184
299	11.679266	113119232	78262272	28520864	33184
300	11.666103	113119232	78262272	36383504	33184
301	13.295542	113119232	78262272	28263312	33184
302	2.244529	113119232	78262272	20990048	33184
303	1.93316	113119232	78262272	22211728	33184
304	2.452244	113119232	78262272	23843016	33184
305	3.299835	113119232	78262272	25884672	33184
306	3.660992	113119232	78262272	28340128	33184
307	4.251184	113119232	78262272	31209816	33184
308	5.102243	113119232	78262272	34491296	33184
309	6.651441	113119232	78262272	22131888	33184
310	6.426379	113119232	78262272	26246912	33184
311	6.696804	113119232	78262272	30779936	33184
312	7.396926	113119232	78262272	35731944	33184
313	9.250469	113119232	78262272	24864488	33184
314	8.786125	113119232	78262272	30661368	33184
315	9.297353	113119232	78262272	36878608	33184
316	10.771322	113119232	78262272	27116440	33184
317	10.785344	113119232	78262272	34187824	33184
318	12.582448	113119232	78262272	25635224	33184
319	11.871592	113119232	78262272	33559376	33184
320	14.141055	113119232	78262272	25954408	33184
321	13.269377	113119232	78262272	34741728	33184
322	1.329009	113119232	78262272	28241976	33184
323	1.965494	113119232	78262272	29537264	33184
324	2.61959	113119232	78262272	31266448	33184
325	3.237229	113119232	78262272	33430856	33184
326	4.133017	113119232	78262272	36032304	33184
327	5.762715	113119232	78262272	22860360	33184
328	5.412854	113119232	78262272	26338240	33184
329	6.108724	113119232	78262272	30256168	33184
330	6.726267	113119232	78262272	34616384	33184
331	8.592432	113119232	78262272	23355824	33184
332	7.880193	113119232	78262272	28602592	33184
333	8.492534	113119232	78262272	34294496	33184
334	10.693757	113119232	78262272	24425288	33184
335	10.03228	113119232	78262272	31012360	33184
336	12.407407	113119232	78262272	22490928	33184
337	11.823025	113119232	78262272	29974912	33184
338	14.003618	113119232	78262272	22529544	33184
339	12.539414	113119232	78262272	30918784	33184
340	15.02931	113119232	78262272	24237480	33184
341	14.043479	113119232	78262272	33538296	33184
342	1.408825	113119232	78262272	27870816	33184
343	2.123997	113119232	78262272	29239736	33184
344	2.811321	113119232	78262272	31067056	33184
345	3.659672	113119232	78262272	33354176	33184
346	4.185104	113119232	78262272	36102720	33184
347	6.044457	113119232	78262272	23176200	33184
348	5.746162	113119232	78262272	26850360	33184
349	6.147984	113119232	78262272	30989264	33184
350	7.1082	113119232	78262272	35595024	33184
351	9.119267	113119232	78262272	24538880	33184
352	8.369461	113119232	78262272	30079960	33184
353	9.210786	113119232	78262272	36096192	33184
354	10.853192	113119232	78262272	26397992	33184
355	10.585806	113119232	78262272	33351440	33184
356	12.786831	113119232	78262272	24977904	33184
357	11.795696	113119232	78262272	32883576	33184
358	14.814469	113119232	78262272	25537496	33184
359	13.560111	113119232	78262272	34412568	33184
360	15.67096	113119232	78262272	27858808	33184
361	15.136595	113119232	78262272	37716704	33184
362	1.689692	113119232	78262272	32170352	33184
363	2.230908	113119232	78262272	33650920	33184
364	2.930868	113119232	78262272	35627288	33184
365	3.648706	113119232	78262272	38104368	33184
366	5.833765	113119232	78262272	24715968	33184
367	5.061931	113119232	78262272	28187560	33184
368	5.823	113119232	78262272	32159848	33184
369	6.537684	113119232	78262272	36636848	33184
370	8.919665	113119232	78262272	25440160	33184
371	8.480016	113119232	78262272	30924568	33184
372	8.784708	113119232	78262272	36919624	33184
373	10.81247	113119232	78262272	27176200	33184
374	10.514332	113119232	78262272	34185840	33184
375	12.651786	113119232	78262272	25845096	33184
376	12.044099	113119232	78262272	33870000	33184
377	14.216455	113119232	78262272	26589608	33184
378	13.474387	113119232	78262272	35640112	33184
379	15.691832	113119232	78262272	29157936	33184
380	17.133744	113119232	78262272	24051472	33184
381	15.747788	113119232	78262272	34653464	33184
382	1.57865	113119232	78262272	30353816	33184
383	2.318785	113119232	78262272	31908000	33184
384	3.095507	113119232	78262272	33983280	33184
385	3.823698	113119232	78262272	36583088	33184
386	6.206068	113119232	78262272	23621768	33184
387	5.607253	113119232	78262272	27265088	33184
388	6.339348	113119232	78262272	31433624	33184
389	6.856945	113119232	78262272	36131952	33184
390	9.311187	113119232	78262272	25286224	33184
391	8.969925	113119232	78262272	31042968	33184
392	9.27229	113119232	78262272	37326312	33184
393	11.55813	113119232	78262272	27911056	33184
394	10.816313	113119232	78262272	35304440	33184
395	13.289207	113119232	78262272	27216560	33184
396	13.390654	113119232	78262272	35631984	33184
397	14.933912	113119232	78262272	28601208	33184
398	14.248115	113119232	78262272	38091984	33184
399	16.157981	113119232	78262272	31829176	33184
400	17.947361	113119232	78262272	26900720	33184
401	16.398587	113119232	78262272	38012096	33184
402	1.666838	113119232	78262272	33882112	33184
403	2.434936	113119232	78262272	35510008	33184
404	3.225769	113119232	78262272	37687584	33184
405	5.490739	113119232	78262272	24233736	33184
406	5.008447	113119232	78262272	27509400	33184
407	5.97094	113119232	78262272	31324672	33184
408	6.445046	113119232	78262272	35692368	33184
409	9.157367	113119232	78262272	24657296	33184
410	8.379266	113119232	78262272	30130400	33184
411	9.181941	113119232	78262272	36153160	33184
412	11.650993	113119232	78262272	26716344	33184
413	10.541395	113119232	78262272	33850048	33184
414	13.307857	113119232	78262272	25852784	33184
415	12.382694	113119232	78262272	34101224	33184
416	14.706021	113119232	78262272	27185040	33184
417	14.114345	113119232	78262272	36561560	33184
418	16.363473	113119232	78262272	30454344	33184
419	17.912835	113119232	78262272	25746680	33184
420	16.660073	113119232	78262272	36814248	33184
421	18.865693	113119232	78262272	32349824	33184
422	1.733518	113119232	78262272	29636304	33184
423	2.554116	113119232	78262272	31337856	33184
424	3.389344	113119232	78262272	33616872	33184
425	4.268279	113119232	78262272	36458360	33184
426	6.738001	113119232	78262272	23927688	33184
427	6.34247	113119232	78262272	27914664	33184
428	6.832833	113119232	78262272	32475824	33184
429	7.838265	113119232	78262272	37614136	33184
430	10.028518	113119232	78262272	27190336	33184
431	9.314474	113119232	78262272	33483848	33184
432	12.310711	113119232	78262272	24806776	33184
433	11.725779	113119232	78262272	32258776	33184
434	14.867435	113119232	78262272	24904944	33184
435	16.461547	113119232	78262272	33525728	33184
436	16.339637	113119232	78262272	27181744	33184
437	14.862653	113119232	78262272	36968424	33184
438	16.916304	113119232	78262272	31307120	33184
439	19.011346	113119232	78262272	27034504	33184
440	17.037571	113119232	78262272	38586008	33184
441	20.112051	113119232	78262272	34500688	33184
442	1.810357	113119232	78262272	32115640	33184
443	2.674992	113119232	78262272	33890760	33184
444	3.535806	113119232	78262272	36261176	33184
445	4.823654	113119232	78262272	39225464	33184
446	6.992061	113119232	78262272	26549248	33184
447	6.466635	113119232	78262272	30707928	33184
448	7.076181	113119232	78262272	35469152	33184
449	10.099711	113119232	78262272	25074808	33184
450	8.936845	113119232	78262272	31034768	33184
451	9.95568	113119232	78262272	37598632	33184
452	12.507414	113119232	78262272	28700240	33184
453	11.716947	113119232	78262272	36474792	33184
454	14.594696	113119232	78262272	28957040	33184
455	13.67238	113119232	78262272	37941752	33184
456	15.886219	113119232	78262272	31436872	33184
457	18.009034	113119232	78262272	26452152	33184
458	16.068406	113119232	78262272	37278088	33184
459	18.960769	113119232	78262272	32715744	33184
460	20.619683	113119232	78262272	29399856	33184
461	21.878214	113119232	78262272	27112496	33184
462	3.430662	113119232	78262272	24761800	33184
463	2.902298	113119232	78262272	26610552	33184
464	3.947089	113119232	78262272	29081624	33184
465	4.692372	113119232	78262272	32168472	33184
466	5.670238	113119232	78262272	35883200	33184
467	6.744366	113119232	78262272	40214104	33184
468	9.199008	113119232	78262272	28882992	33184
469	8.53751	113119232	78262272	34470832	33184
470	9.254557	113119232	78262272	40677000	33184
471	11.883182	113119232	78262272	31203272	33184
472	11.266922	113119232	78262272	38663936	33184
473	13.659697	113119232	78262272	30655592	33184
474	13.462276	113119232	78262272	39379216	33184
475	15.702155	113119232	78262272	32519360	33184
476	17.387901	113119232	78262272	27218240	33184
477	16.006849	113119232	78262272	37839928	33184
478	18.635996	113119232	78262272	33102160	33184
479	20.624758	113119232	78262272	29656072	33184
480	23.187867	113119232	78262272	27327480	33184
481	20.432381	113119232	78262272	40505592	33184
482	1.95799	113119232	78262272	38679416	33184
483	2.908884	113119232	78262272	40601784	33184
484	5.649694	113119232	78262272	26947384	33184
485	4.819251	113119232	78262272	30160608	33184
486	5.991047	113119232	78262272	34016392	33184
487	6.777738	113119232	78262272	38522352	33184
488	9.653243	113119232	78262272	27624944	33184
489	8.889616	113119232	78262272	33424592	33184
490	9.819125	113119232	78262272	39882856	33184
491	12.223315	113119232	78262272	30787792	33184
492	11.875504	113119232	78262272	38542992	33184
493	14.955585	113119232	78262272	30914032	33184
494	13.558022	113119232	78262272	39982216	33184
495	16.256361	113119232	78262272	33496568	33184
496	17.905183	113119232	78262272	28535024	33184
497	16.654986	113119232	78262272	39582896	33184
498	19.467845	113119232	78262272	35128400	33184
499	20.961568	113119232	78262272	31969704	33184
500	22.310481	113119232	78262272	29901696	33184
501	24.17947	113119232	78262272	28790936	33184
502	2.030447	113119232	78262272	29143928	33184
503	3.285509	113119232	78262272	31149024	33184
504	4.276637	113119232	78262272	33812512	33184
505	5.828984	113119232	78262272	37148096	33184
506	6.25735	113119232	78262272	41150968	33184
507	9.079445	113119232	78262272	29604824	33184
508	8.328964	113119232	78262272	34953304	33184
509	9.045649	113119232	78262272	40979016	33184
510	11.853781	113119232	78262272	31399440	33184
511	11.404483	113119232	78262272	38777224	33184
512	14.14763	113119232	78262272	30834792	33184
513	13.298599	113119232	78262272	39565120	33184
514	16.024905	113119232	78262272	32865952	33184
515	17.892161	113119232	78262272	27783056	33184
516	16.677748	113119232	78262272	38554872	33184
517	20.245233	113119232	78262272	34077928	33184
518	21.539202	113119232	78262272	30928440	33184
519	22.486002	113119232	78262272	28868456	33184
520	20.537656	113119232	78262272	42384712	33184
521	23.707851	113119232	78262272	40141640	33184
522	2.111105	113119232	78262272	39602528	33184
523	3.152713	113119232	78262272	41672104	33184
524	5.917997	113119232	78262272	28213568	33184
525	5.477432	113119232	78262272	31668600	33184
526	6.449502	113119232	78262272	35818832	33184
527	7.898683	113119232	78262272	40667448	33184
528	10.28365	113119232	78262272	30011936	33184
529	9.357537	113119232	78262272	36254304	33184
530	12.681693	113119232	78262272	27645648	33184
531	11.586436	113119232	78262272	35298128	33184
532	14.970991	113119232	78262272	28205416	33184
533	13.788882	113119232	78262272	37252920	33184
534	17.086956	113119232	78262272	31300752	33184
535	15.999278	113119232	78262272	41760880	33184
536	18.767616	113119232	78262272	36644864	33184
537	20.376108	113119232	78262272	32904000	33184
538	22.548395	113119232	78262272	30405072	33184
539	23.379116	113119232	78262272	28955624	33184
540	24.786352	113119232	78262272	28426048	33184
541	25.914354	113119232	78262272	28667872	33184
542	2.211411	113119232	78262272	30294328	33184
543	3.237395	113119232	78262272	32437600	33184
544	4.543424	113119232	78262272	35297368	33184
545	5.833569	113119232	78262272	38875184	33184
546	8.97676	113119232	78262272	27378304	33184
547	7.713329	113119232	78262272	32397432	33184
548	8.860103	113119232	78262272	38136760	33184
549	12.092969	113119232	78262272	28845552	33184
550	11.322104	113119232	78262272	36035128	33184
551	15.001866	113119232	78262272	28476896	33184
552	13.146589	113119232	78262272	37116992	33184
553	16.896105	113119232	78262272	30871040	33184
554	15.540216	113119232	78262272	40971392	33184
555	18.366879	113119232	78262272	35651584	33184
556	20.112257	113119232	78262272	31828344	33184
557	21.891019	113119232	78262272	29268848	33184
558	19.823007	113119232	78262272	42315248	33184
559	23.227786	113119232	78262272	39831400	33184
560	24.179122	113119232	78262272	38388528	33184
561	25.730004	113119232	78262272	37877608	33184
562	2.28196	113119232	78262272	38938544	33184
563	3.377077	113119232	78262272	41184312	33184
564	6.529412	113119232	78262272	28156976	33184
565	5.899508	113119232	78262272	31891552	33184
566	6.91969	113119232	78262272	36377520	33184
567	8.014794	113119232	78262272	41614576	33184
568	10.873207	113119232	78262272	31418480	33184
569	10.282177	113119232	78262272	38171840	33184
570	13.674429	113119232	78262272	29998880	33184
571	12.695056	113119232	78262272	38256832	33184
572	16.557677	113119232	78262272	31596856	33184
573	14.729657	113119232	78262272	41380776	33184
574	17.956438	113119232	78262272	35802656	33184
575	19.699861	113119232	78262272	31743888	33184
576	18.348258	113119232	78262272	43818656	33184
577	21.649163	113119232	78262272	40206032	33184
578	23.680408	113119232	78262272	37823680	33184
579	23.953693	113119232	78262272	36554464	33184
580	25.61791	113119232	78262272	36197496	33184
581	26.847929	113119232	78262272	36727912	33184
582	2.365462	113119232	78262272	38674184	33184
583	3.499998	113119232	78262272	40985376	33184
584	5.084994	113119232	78262272	44069032	33184
585	8.038993	113119232	78262272	31565248	33184
586	7.15477	113119232	78262272	36202480	33184
587	8.326877	113119232	78262272	41615488	33184
588	11.674143	113119232	78262272	31725200	33184
589	10.773979	113119232	78262272	38695520	33184
590	14.329653	113119232	78262272	30775136	33184
591	13.082201	113119232	78262272	39309176	33184
592	16.483408	113119232	78262272	32860400	33184
593	15.517511	113119232	78262272	42964336	33184
594	18.384814	113119232	78262272	37581584	33184
595	19.981633	113119232	78262272	33687168	33184
596	21.968286	113119232	78262272	31120536	33184
597	20.533765	113119232	78262272	44368304	33184
598	22.960498	113119232	78262272	41952824	33184
599	24.718167	113119232	78262272	40666488	33184
600	26.253105	113119232	78262272	40323384	33184
601	27.085121	113119232	78262272	40868856	33184
602	2.437307	113119232	78262272	42893208	33184
603	5.855101	113119232	78262272	29188208	33184
604	5.032524	113119232	78262272	32376432	33184
605	6.338859	113119232	78262272	36356280	33184
606	7.367981	113119232	78262272	41136208	33184
607	10.961322	113119232	78262272	30757848	33184
608	9.69054	113119232	78262272	37140544	33184
609	10.800423	113119232	78262272	44331176	33184
610	14.226327	113119232	78262272	35960256	33184
611	13.318464	113119232	78262272	44760440	33184
612	16.622569	113119232	78262272	37922976	33184
613	19.017401	113119232	78262272	32814304	33184
614	17.186604	113119232	78262272	44035896	33184
615	20.947278	113119232	78262272	39720912	33184
616	22.586713	113119232	78262272	36834152	33184
617	23.324804	113119232	78262272	35135664	33184
618	25.987717	113119232	78262272	34530568	33184
619	26.260065	113119232	78262272	34800608	33184
620	28.170625	113119232	78262272	35819328	33184
621	28.686969	113119232	78262272	37556592	33184
622	2.574059	113119232	78262272	40713400	33184
623	3.775318	113119232	78262272	43173032	33184
624	7.396393	113389568	78786560	30381048	33184
625	6.389528	113389568	78786560	34483632	33184
626	8.064929	113389568	78786560	39414448	33184
627	8.715976	113389568	78786560	45170736	33184
628	11.982767	113389568	78786560	35314248	33184
629	11.605866	113389568	78786560	42726624	33184
630	15.037913	113389568	78786560	34867472	33184
631	13.923641	113389568	78786560	43941392	33184
632	16.83202	113389568	78786560	37575752	33184
633	19.330029	113389568	78786560	32936328	33184
634	17.391539	113389568	78786560	44507312	33184
635	20.945167	113389568	78786560	40574856	33184
636	22.967583	113389568	78786560	38011144	33184
637	24.360423	113389568	78786560	36660120	33184
638	25.545485	113389568	78786560	36317264	33184
639	27.439418	113389568	78786560	36882424	33184
640	28.889628	113389568	78786560	38218128	33184
641	29.276704	113389568	78786560	40177632	33184
642	2.582907	113659904	78786560	43590192	33184
643	6.272849	113659904	78786560	30062936	33184
644	5.185818	113659904	78786560	33440720	33184
645	6.44463	113659904	78786560	37666288	33184
646	7.661795	113659904	78786560	42742168	33184
647	11.337042	113659904	78786560	32622472	33184
648	10.530351	113659904	78786560	39398656	33184
649	14.192562	113659904	78786560	31442560	33184
650	13.091253	113659904	78786560	39924520	33184
651	17.014515	113659904	78786560	33628480	33184
652	15.563271	113659904	78786560	43823224	33184
653	18.916839	113659904	78786560	38738072	33184
654	20.876743	113659904	78786560	35172240	33184
655	23.568359	113659904	78786560	32941080	33184
656	25.054421	113659904	78786560	31922736	33184
657	26.708191	113659904	78786560	31881752	33184
658	27.56926	113659904	78786560	32711480	33184
659	28.644474	113659904	78786560	34292824	33184
660	30.122065	113659904	78786560	36552824	33184
661	30.720048	113659904	78786560	39406880	33184
662	2.716642	113659904	78786560	43561296	33184
663	3.969862	113659904	78786560	46166760	33184
664	7.583868	113659904	78786560	33314000	33184
665	6.677495	113659904	78786560	37661968	33184
666	8.160426	113659904	78786560	42883624	33184
667	11.883804	113659904	78786560	32989800	33184
668	10.616671	113659904	78786560	39961424	33184
669	14.725688	113659904	78786560	32247760	33184
670	13.839957	113659904	78786560	40975424	33184
671	17.335948	113659904	78786560	34908232	33184
672	16.062784	113659904	78786560	45395616	33184
673	19.963713	113659904	78786560	40453536	33184
674	21.578186	113659904	78786560	37069752	33184
675	23.484749	113659904	78786560	35032824	33184
676	25.03885	113659904	78786560	34222440	33184
677	26.360036	113659904	78786560	34389824	33184
678	27.967444	113659904	78786560	35412440	33184
679	29.018716	113659904	78786560	37178200	33184
680	30.156484	113659904	78786560	39590424	33184
681	31.542317	113659904	78786560	42570592	33184
682	5.008	113659904	78786560	30807048	33184
683	4.116045	113659904	78786560	33486088	33184
684	5.478725	113659904	78786560	37060384	33184
685	7.302043	113659904	78786560	41533968	33184
686	8.6469	113659904	78786560	46902912	33184
687	11.811474	113659904	78786560	36709624	33184
688	11.116677	113659904	78786560	43877792	33184
689	14.897315	113659904	78786560	35946600	33184
690	14.074567	113659904	78786560	44920840	33184
691	17.658838	113659904	78786560	38671576	33184
692	19.47847	113659904	78786560	34178816	33184
693	17.884904	113659904	78786560	45873136	33184
694	21.840325	113659904	78786560	42189792	33184
695	23.655721	113659904	78786560	39934360	33184
696	25.358407	113659904	78786560	38863800	33184
697	26.977579	113659904	78786560	38886064	33184
698	27.953576	113659904	78786560	39818416	33184
699	29.564082	113659904	78786560	41511008	33184
700	30.608192	113659904	78786560	43930632	33184
701	31.885757	113659904	78786560	46908120	33184
702	2.820163	113659904	78786560	37208080	33184
703	4.204968	113659904	78786560	39961576	33184
704	5.616774	113659904	78786560	43633984	33184
705	9.780541	113659904	78786560	32360944	33184
706	8.482358	113659904	78786560	37877056	33184
707	9.983888	113659904	78786560	44316784	33184
708	14.017497	113659904	78786560	35678360	33184
709	12.613704	113659904	78786560	43968752	33184
710	16.907346	113659904	78786560	37204312	33184
711	15.54353	113659904	78786560	47358560	33184
712	19.347726	113659904	78786560	42010968	33184
713	21.033436	113659904	78786560	38318824	33184
714	23.372777	113659904	78786560	36075536	33184
715	25.717097	113659904	78786560	35126488	33184
716	26.918462	113659904	78786560	35260448	33184
717	28.150124	113659904	78786560	36345256	33184
718	30.014808	113659904	78786560	38277032	33184
719	30.84243	113659904	78786560	40872640	33184
720	32.065722	113659904	78786560	44060232	33184
721	32.58332	113659904	78786560	47717392	33184
722	3.032345	113659904	78786560	38652840	33184
723	4.411421	113659904	78786560	41534608	33184
724	5.979295	113659904	78786560	45370856	33184
725	10.184099	113659904	78786560	34156344	33184
726	8.628824	113659904	78786560	39932976	33184
727	10.057131	113659904	78786560	46661496	33184
728	13.947804	113659904	78786560	38118568	33184
729	13.176222	113659904	78786560	46793216	33184
730	16.838977	113659904	78786560	40200416	33184
731	19.198088	113659904	78786560	35456808	33184
732	17.608648	113659904	78786560	47035960	33184
733	21.232944	113659904	78786560	43279456	33184
734	23.52691	113659904	78786560	41004800	33184
735	24.955809	113659904	78786560	40006136	33184
736	26.539208	113659904	78786560	40134040	33184
737	27.828988	113659904	78786560	41258872	33184
738	29.614205	113659904	78786560	43176168	33184
739	30.661754	113659904	78786560	45825328	33184
740	36.94528	113659904	78786560	35205176	33184
741	37.087905	113659904	78786560	43134808	33184
742	3.05706	113659904	78786560	50147544	33184
743	6.861648	113659904	78786560	36860424	33184
744	5.95779	113659904	78786560	40795104	33184
745	7.391092	113659904	78786560	45717912	33184
746	11.770568	113659904	78786560	35896248	33184
747	10.582899	113659904	78786560	42805904	33184
748	11.872315	113659904	78786560	50701192	33184
749	16.131359	113659904	78786560	43221304	33184
750	17.787182	113659904	78786560	37747296	33184
751	16.931508	113659904	78786560	48614672	33184
752	20.824303	113659904	78786560	44378616	33184
753	22.400199	113659904	78786560	41691376	33184
754	24.799945	113659904	78786560	40368264	33184
755	26.509432	113659904	78786560	40241488	33184
756	28.165	113659904	78786560	41156376	33184
757	29.292104	113659904	78786560	42983096	33184
758	30.482017	113659904	78786560	45548128	33184
759	31.772175	113659904	78786560	48723336	33184
760	38.372813	113659904	78786560	38568856	33184
761	38.104869	113659904	78786560	47076576	33184
762	5.745289	113659904	78786560	38498344	33184
763	4.835534	113659904	78786560	41521024	33184
764	6.355724	113659904	78786560	45553840	33184
765	7.837137	113659904	78786560	50597552	33184
766	11.987337	113659904	78786560	40685688	33184
767	11.091287	113659904	78786560	47755824	33184
768	15.316137	113659904	78786560	40274152	33184
769	14.103022	113659904	78786560	49387688	33184
770	18.439421	113659904	78786560	43699488	33184
771	20.740876	113659904	78786560	39819440	33184
772	18.490622	113659904	78786560	51995512	33184
773	22.993693	113659904	78786560	49086000	33184
774	25.048398	113659904	78786560	47580776	33184
775	26.315152	113659904	78786560	47240232	33184
776	27.687837	113659904	78786560	47984736	33184
777	29.307913	113659904	78786560	49711960	33184
778	31.394242	113659904	78786560	52217680	33184
779	36.770132	113659904	78786560	41497048	33184
780	38.232522	113659904	78786560	49453408	33184
781	39.20653	113659904	78786560	55543120	33184
782	3.090401	113659904	78786560	24393984	33184
783	4.800313	113659904	78786560	27490496	33184
784	9.795514	113659904	78786560	18299632	33184
785	7.636193	113659904	78786560	23466024	33184
786	9.349087	113659904	78786560	29669872	33184
787	12.0398	113659904	78786560	21709704	33184
788	12.677484	113659904	78786560	29996448	33184
789	14.711378	113659904	78786560	23402680	33184
790	15.28543	113659904	78786560	33767120	33184
791	17.394595	113659904	78786560	28795648	33184
792	19.003061	113659904	78786560	25543368	33184
793	21.45474	113659904	78786560	23765616	33184
794	23.345289	113659904	78786560	23245824	33184
795	24.949783	113659904	78786560	23841840	33184
796	26.865429	113659904	78786560	25401952	33184
797	27.307274	113659904	78786560	27822376	33184
798	28.914961	113659904	78786560	30966712	33184
799	32.724017	113659904	78786560	20954232	33184
800	35.740481	113659904	78786560	29471920	33184
801	33.377733	113659904	78786560	35935736	33184
802	3.166357	113659904	78786560	29484056	33184
803	4.702419	113659904	78786560	32654200	33184
804	6.26159	113659904	78786560	36885480	33184
805	8.492709	113659904	78786560	25789528	33184
806	9.56431	113659904	78786560	32140640	33184
807	11.909338	113659904	78786560	23740832	33184
808	12.848726	113659904	78786560	32218104	33184
809	15.019516	113659904	78786560	25937984	33184
810	15.732979	113659904	78786560	36549968	33184
811	18.002365	113659904	78786560	31847104	33184
812	19.827592	113659904	78786560	28822520	33184
813	21.824877	113659904	78786560	27278816	33184
814	24.254491	113659904	78786560	27061088	33184
815	25.505184	113659904	78786560	27937600	33184
816	26.549823	113659904	78786560	29728800	33184
817	27.996601	113659904	78786560	32350480	33184
818	29.46152	113659904	78786560	35728360	33184
819	33.469542	113659904	78786560	25686736	33184
820	36.260597	113659904	78786560	34637872	33184
821	37.962114	113659904	78786560	27948648	33184
822	3.221827	113659904	78786560	40134240	33184
823	5.604081	113659904	78786560	27624520	33184
824	6.423844	113659904	78786560	31951864	33184
825	8.012014	113659904	78786560	37365984	33184
826	10.640018	113659904	78786560	28198112	33184
827	11.502508	113659904	78786560	35783536	33184
828	13.933141	113659904	78786560	28942744	33184
829	14.866365	113659904	78786560	38718816	33184
830	16.873735	113659904	78786560	33703472	33184
831	19.405954	113659904	78786560	30441392	33184
832	21.607919	113659904	78786560	28729464	33184
833	21.187477	113659904	78786560	42871992	33184
834	23.342256	113659904	78786560	41662408	33184
835	25.108957	113659904	78786560	41765576	33184
836	26.882174	113659904	78786560	42908328	33184
837	30.839513	113659904	78786560	30825992	33184
838	31.20428	113659904	78786560	35710128	33184
839	32.349847	113659904	78786560	40958288	33184
840	36.684003	113659904	78786560	32657016	33184
841	38.266869	113659904	78786560	43218056	33184
842	3.300013	113659904	78786560	38814856	33184
843	4.941002	113659904	78786560	42132368	33184
844	10.162166	113659904	78786560	33392376	33184
845	8.716915	113659904	78786560	38927968	33184
846	10.118444	113659904	78786560	45573488	33184
847	12.771135	113659904	78786560	37788160	33184
848	13.309332	113659904	78786560	46660992	33184
849	15.745358	113659904	78786560	40575568	33184
850	17.832254	113659904	78786560	36425888	33184
851	18.560249	113659904	78786560	48677784	33184
852	20.5329	113659904	78786560	45686576	33184
853	22.296724	113659904	78786560	44207312	33184
854	24.917736	113659904	78786560	44047400	33184
855	25.847999	113659904	78786560	45017520	33184
856	27.465044	113659904	78786560	46990576	33184
857	32.823954	113659904	78786560	35895128	33184
858	34.448183	113659904	78786560	43704776	33184
859	33.359929	113659904	78786560	49729512	33184
860	37.02229	113659904	78786560	41999216	33184
861	39.944897	113659904	78786560	53220168	33184
862	3.396861	113659904	78786560	49207024	33184
863	5.054594	113659904	78786560	52628920	33184
864	7.411222	113659904	78786560	41082584	33184
865	8.464063	113659904	78786560	46793368	33184
866	10.508896	113659904	78786560	53653912	33184
867	12.285109	113659904	78786560	45419136	33184
868	13.555775	113659904	78786560	54575672	33184
869	15.629584	113659904	78786560	48504800	33184
870	18.428901	113659904	78786560	44343752	33184
871	20.318933	113659904	78786560	41936560	33184
872	22.170378	113659904	78786560	41021440	33184
873	24.426004	113659904	78786560	41403720	33184
874	26.49783	113659904	78786560	42876040	33184
875	27.43903	113659904	78786560	45273104	33184
876	28.551187	113659904	78786560	48505808	33184
877	30.241873	113659904	78786560	52430992	33184
878	34.302649	113659904	78786560	43178536	33184
879	38.425344	113659904	78786560	52542592	33184
880	43.839097	113659904	78786560	46435376	33184
881	53.339665	113659904	78786560	30501168	33184
882	3.491352	113659904	78786560	26904848	33184
883	5.154903	113659904	78786560	30400496	33184
884	10.668206	113659904	78786560	21915592	33184
885	8.998112	113659904	78786560	27747528	33184
886	10.744463	113659904	78786560	34756544	33184
887	13.365321	113659904	78786560	27305840	33184
888	15.281431	113659904	78786560	21387584	33184
889	15.885026	113659904	78786560	31928408	33184
890	18.290431	113659904	78786560	27714336	33184
891	20.430367	113659904	78786560	25247968	33184
892	22.285796	113659904	78786560	24329168	33184
893	24.307848	113659904	78786560	24684888	33184
894	26.42193	113659904	78786560	26121784	33184
895	27.774773	113659904	78786560	28586416	33184
896	29.24874	113659904	78786560	31948200	33184
897	30.291648	113659904	78786560	36002456	33184
898	34.868214	113659904	78786560	26453144	33184
899	35.092091	113659904	78786560	33628200	33184
900	38.762253	113659904	78786560	27042576	33184
901	44.719973	113659904	78786560	26725808	33184
902	3.539151	113659904	78786560	41265704	33184
903	5.806178	113659904	78786560	28752856	33184
904	7.109487	113659904	78786560	33515424	33184
905	8.981535	113659904	78786560	39474960	33184
906	11.138317	113659904	78786560	30579168	33184
907	12.504772	113659904	78786560	38925504	33184
908	14.743486	113659904	78786560	32515112	33184
909	17.460076	113659904	78786560	28171264	33184
910	17.943297	113659904	78786560	40117536	33184
911	20.552684	113659904	78786560	37126688	33184
912	21.85343	113659904	78786560	35741680	33184
913	24.084911	113659904	78786560	35743480	33184
914	26.170716	113659904	78786560	36944720	33184
915	28.71891	113659904	78786560	39179192	33184
916	30.926232	113659904	78786560	42327320	33184
917	32.999558	113659904	78786560	32155440	33184
918	33.283008	113659904	78786560	38716960	33184
919	38.217087	113659904	78786560	31838544	33184
920	39.683542	113659904	78786560	43367616	33184
921	40.734623	113659904	78786560	38816200	33184
922	3.619252	113659904	78786560	41490808	33184
923	5.618403	113659904	78786560	45133704	33184
924	7.303507	113659904	78786560	49993096	33184
925	11.89607	113659904	78786560	42031840	33184
926	11.027679	113659904	78786560	49328392	33184
927	13.826132	113659904	78786560	42194528	33184
928	14.947905	113659904	78786560	51939400	33184
929	16.668677	113659904	78786560	46533136	33184
930	18.999138	113659904	78786560	43058720	33184
931	21.25264	113659904	78786560	41281120	33184
932	23.605327	113659904	78786560	41042640	33184
933	26.033475	113659904	78786560	42029880	33184
934	27.189618	113659904	78786560	44062856	33184
935	28.342154	113659904	78786560	47079696	33184
936	30.075343	113659904	78786560	50927072	33184
937	34.481288	113659904	78786560	41473944	33184
938	37.177798	113659904	78786560	51098024	33184
939	39.030246	113659904	78786560	45068448	33184
940	43.580528	113659904	78786560	57113176	33184
941	51.43977	113659904	78786560	52834472	33184
942	3.725	113659904	78786560	26305504	33184
943	5.456107	113659904	78786560	30032208	33184
944	10.671087	113659904	78786560	21619136	33184
945	9.395144	113659904	78786560	27833704	33184
946	11.089323	113659904	78786560	35279416	33184
947	13.809537	113659904	78786560	28115616	33184
948	16.079794	113659904	78786560	22706400	33184
949	16.414041	113659904	78786560	33901560	33184
950	19.348915	113659904	78786560	30137384	33184
951	21.095894	113659904	78786560	28125616	33184
952	23.635356	113659904	78786560	27707640	33184
953	26.455363	113659904	78786560	28541200	33184
954	27.245909	113659904	78786560	30713592	33184
955	29.128297	113659904	78786560	33748680	33184
956	33.572049	113659904	78786560	23658112	33184
957	35.93748	113659904	78786560	32536176	33184
958	39.0351	113659904	78786560	26076704	33184
959	39.897399	113659904	78786560	37368584	33184
960	41.768408	113659904	78786560	32978592	33184
961	47.964465	113659904	78786560	34210168	33184
962	4.558017	113659904	78786560	34558960	33184
963	5.805108	113659904	78786560	38349976	33184
964	7.558611	113659904	78786560	43410000	33184
965	10.373563	113659904	78786560	34045392	33184
966	11.442855	113659904	78786560	41639624	33184
967	14.156689	113659904	78786560	35027896	33184
968	15.429064	113659904	78786560	45167096	33184
969	17.90702	113659904	78786560	40645032	33184
970	20.673329	113659904	78786560	38008984	33184
971	22.23229	113659904	78786560	36976744	33184
972	25.035914	113659904	78786560	37407168	33184
973	27.116928	113659904	78786560	39131680	33184
974	27.910162	113659904	78786560	41817104	33184
975	30.179379	113659904	78786560	45380744	33184
976	34.440742	113659904	78786560	36009360	33184
977	37.369928	113659904	78786560	45246344	33184
978	40.017193	113659904	78786560	39271056	33184
979	41.061271	113659904	78786560	51016040	33184
980	42.046647	113659904	78786560	46904840	33184
981	49.531345	114200576	79310848	48767240	33184
982	4.200914	117985280	83505152	53003776	33184
983	6.275757	117985280	83505152	56867568	33184
984	8.616405	117985280	83505152	62021440	33184
985	21.312675	119877632	85602304	54300512	33184
986	21.98893	118833152	84553728	22285800	33184
987	14.764506	118833152	84553728	31321984	33184
988	16.616029	119103488	84553728	25715192	33184
989	18.5959	119103488	84553728	22131856	33184
990	21.59946	119103488	84553728	20329560	33184
991	21.845679	119103488	84553728	34564712	33184
992	24.103483	119103488	84553728	33697392	33184
993	25.565977	119103488	84553728	34198040	33184
994	30.438836	119103488	84553728	21899648	33184
995	30.979662	119103488	84553728	26684680	33184
996	32.33248	119103488	84553728	32101056	33184
997	36.891691	119103488	84553728	24252696	33184
998	38.864939	119373824	84553728	35135416	33184
999	40.914618	119914496	85078016	30128312	33184
1000	47.48014	119914496	85078016	31141616	33184
