x	Duration	RSS	HeapTotal	HeapUsed	External
0	NA	106393600	74592256	14398984	33184
1	0.27838	106393600	74592256	14451288	33184
2	0.246187	106393600	74592256	14519264	33184
3	0.257001	106393600	74592256	14611976	33184
4	0.321182	106393600	74592256	14731096	33184
5	0.360563	106393600	74592256	14878384	33184
6	0.42936	106393600	74592256	15054528	33184
7	0.486133	106393600	74592256	15260760	33184
8	0.559072	106393600	74592256	15498344	33184
9	0.627671	106393600	74592256	15769720	33184
10	0.697271	106393600	74592256	16075192	33184
11	0.771586	106393600	74592256	16415952	33184
12	1.164569	106393600	74592256	16793424	33184
13	0.711236	106393600	74592256	17208544	33184
14	0.769279	106393600	74592256	17662640	33184
15	0.840461	106393600	74592256	18160736	33184
16	0.919983	106393600	74592256	18696504	33184
17	0.933425	106393600	74592256	19276776	33184
18	0.999583	106393600	74592256	19900952	33184
19	1.222351	106393600	74592256	20571360	33184
20	2.168514	106393600	74592256	21289016	33184
21	1.223139	106393600	74592256	22054248	33184
22	0.189934	106393600	74592256	22843128	33184
23	0.275669	106393600	74592256	22993016	33184
24	0.355583	106393600	74592256	23195072	33184
25	0.608868	106393600	74592256	23450608	33184
26	0.723652	106393600	74592256	23761248	33184
27	0.670043	106393600	74592256	24130440	33184
28	0.90355	106393600	74592256	24554040	33184
29	0.77635	106393600	74592256	25037792	33184
30	0.829053	106393600	74592256	25579624	33184
31	0.91723	106393600	74592256	26182200	33184
32	1.53371	106393600	74592256	26865736	33184
33	1.091851	106393600	74592256	27593320	33184
34	1.170244	106393600	74592256	28385288	33184
35	1.366239	106393600	74592256	29243008	33184
36	1.390441	106393600	74592256	30168192	33184
37	1.656991	106393600	74592256	31160624	33184
38	2.642214	106393600	74592256	15909688	33184
39	2.002265	106393600	74592256	17043784	33184
40	1.763027	106393600	74592256	18249968	33184
41	2.165102	106393600	74592256	19529280	33184
42	0.245272	106393600	74592256	20885824	33184
43	0.37297	106393600	74592256	21109096	33184
44	0.475429	106393600	74592256	21410064	33184
45	0.598359	106393600	74592256	21791352	33184
46	0.706757	106393600	74592256	22253368	33184
47	0.868561	106393600	74592256	22797424	33184
48	0.943042	106393600	74592256	23424808	33184
49	1.378364	106393600	74592256	24136784	33184
50	1.206752	106393600	74592256	24935384	33184
51	1.346054	106393600	74592256	25821080	33184
52	1.447991	106393600	74592256	26794928	33184
53	1.56094	106393600	74592256	27858232	33184
54	1.808216	106393600	74592256	29012728	33184
55	1.825375	106393600	74592256	30258608	33184
56	3.339103	106393600	74592256	15477496	33184
57	2.286205	106393600	74592256	16910872	33184
58	2.441267	106393600	74592256	18441664	33184
59	2.588618	106393600	74592256	20069200	33184
60	2.726705	106393600	74592256	21795144	33184
61	2.912736	106393600	74592256	23620280	33184
62	0.325064	106393600	74592256	25578528	33184
63	0.50677	106393600	74592256	25882304	33184
64	0.629676	106393600	74592256	26287304	33184
65	0.774389	106393600	74592256	26796544	33184
66	0.950125	106393600	74592256	27411648	33184
67	1.110367	106393600	74592256	28133344	33184
68	1.248487	106393600	74592256	28962832	33184
69	1.452043	106393600	74592256	29901480	33184
70	1.549917	106393600	74592256	30951360	33184
71	2.59345	106393600	74592256	15852936	33184
72	2.194601	106393600	74592256	17128992	33184
73	2.219089	106393600	74592256	18516984	33184
74	2.388271	106393600	74592256	20020200	33184
75	2.698155	106393600	74592256	21640464	33184
76	2.908066	106393600	74592256	23379824	33184
77	2.716039	106393600	74592256	25237152	33184
78	2.876475	106393600	74592256	27215264	33184
79	3.254212	106393600	74592256	29314720	33184
80	3.221346	106393600	74592256	31537200	33184
81	4.119247	106393600	74592256	17533720	33184
82	0.418526	106393600	74592256	20064368	33184
83	0.622728	106393600	74592256	20439944	33184
84	0.815406	106393600	74592256	20945272	33184
85	1.022188	106393600	74592256	21579280	33184
86	1.201748	106393600	74592256	22344768	33184
87	1.410807	106393600	74592256	23242592	33184
88	1.607397	106393600	74592256	24273880	33184
89	1.801037	106393600	74592256	25439952	33184
90	2.159663	106393600	74592256	26743480	33184
91	2.114714	106393600	74592256	28185632	33184
92	2.725249	106393600	74592256	29770256	33184
93	2.612034	106393600	74592256	31494776	33184
94	3.540131	106393600	74592256	17028712	33184
95	2.915518	106393600	74592256	19040232	33184
96	3.163577	106393600	74592256	21197168	33184
97	3.439179	106393600	74592256	23501008	33184
98	3.770322	106393600	74592256	25954376	33184
99	3.765371	106393600	74592256	28557464	33184
100	3.961053	106393600	74592256	31310608	33184
101	5.075273	106393600	74592256	17895840	33184
102	0.47533	106393600	74592256	21042608	33184
103	0.712413	106393600	74592256	21501552	33184
104	0.925533	106393600	74592256	22115680	33184
105	1.153147	106393600	74592256	22886288	33184
106	1.416085	106393600	74592256	23815016	33184
107	1.651482	106393600	74592256	24902696	33184
108	2.174459	106393600	74592256	26150568	33184
109	2.116389	106393600	74592256	27563080	33184
110	2.512455	106393600	74592256	29136656	33184
111	2.530421	106393600	74592256	30873264	33184
112	3.711532	106393600	74592256	16532040	33184
113	3.428693	106393600	74592256	18599872	33184
114	3.518033	106393600	74592256	20837832	33184
115	3.831753	106393600	74592256	23240728	33184
116	3.714237	106393600	74592256	25814520	33184
117	3.945803	106393600	74592256	28558368	33184
118	4.246301	106393600	74592256	31476472	33184
119	5.6474	106393600	74592256	18256520	33184
120	4.932602	106393600	74592256	21523152	33184
121	4.938393	106393600	74592256	24967944	33184
122	0.541565	106393600	74592256	28701816	33184
123	1.015879	106393600	74592256	29234208	33184
124	1.069541	106393600	74592256	29948712	33184
125	1.322386	106393600	74592256	30841656	33184
126	1.599637	106393600	74592256	31917272	33184
127	2.470814	106393600	74592256	16835352	33184
128	2.25558	106393600	74592256	18278928	33184
129	2.379017	106393600	74592256	19908944	33184
130	2.664699	106393600	74592256	21726344	33184
131	2.920667	106393600	74592256	23732016	33184
132	3.270771	106393600	74592256	25927136	33184
133	3.690082	106393600	74592256	28314280	33184
134	3.741737	106393600	74592256	30892024	33184
135	4.978247	106393600	74592256	17454608	33184
136	4.690334	106393600	74592256	20420048	33184
137	4.619714	106393600	74592256	23581424	33184
138	4.953932	106393600	74592256	26942888	33184
139	5.537995	106393600	74592256	30501600	33184
140	6.222495	106393600	74592256	18078064	33184
141	6.174241	106393600	74592256	22037152	33184
142	0.629777	106393600	74592256	26349152	33184
143	0.926028	106393600	74592256	26960688	33184
144	1.217914	106393600	74592256	27778192	33184
145	1.528477	106393600	74592256	28803008	33184
146	1.811991	106393600	74592256	30036784	33184
147	2.128558	106393600	74592256	31480608	33184
148	3.249495	106393600	74592256	16874864	33184
149	2.936869	106393600	74592256	18745176	33184
150	3.031091	106393600	74592256	20826624	33184
151	3.349423	106393600	74592256	23122416	33184
152	3.662724	106393600	74592256	25634136	33184
153	3.976446	106393600	74592256	28362944	33184
154	4.265103	106393600	74592256	31310608	33184
155	5.395638	106393600	74592256	18245984	33184
156	4.932033	106393600	74592256	21633648	33184
157	5.425263	106393600	74592256	25242984	33184
158	5.550238	106393600	74592256	29078560	33184
159	6.652964	106393600	74592256	17191384	33184
160	6.206236	106393600	74592256	21476576	33184
161	6.838114	106393600	74592256	25988480	33184
162	0.697547	106393600	74592256	30901928	33184
163	1.033625	106393600	74592256	31587016	33184
164	1.597905	106393600	74592256	32502744	33184
165	2.177963	106393600	74592256	17284872	33184
166	2.058846	106393600	74592256	18666720	33184
167	2.378616	106393600	74592256	20282096	33184
168	2.702709	106393600	74592256	22133000	33184
169	3.068777	106393600	74592256	24220744	33184
170	3.431844	106393600	74592256	26547264	33184
171	4.169106	106393600	74592256	29113112	33184
172	5.051524	106393600	74592256	31936912	33184
173	5.252429	106393600	74592256	18719280	33184
174	5.008791	106393600	74592256	22009928	33184
175	5.126424	106393600	74592256	25544736	33184
176	5.486006	106393600	74592256	29324904	33184
177	6.884325	106393600	74592256	17469128	33184
178	6.249169	106393600	74592256	21745456	33184
179	6.652379	106393600	74592256	26270976	33184
180	7.161741	106393600	74592256	31051168	33184
181	8.711185	106393600	74592256	20010960	33184
182	0.824388	106393600	74592256	25508512	33184
183	1.157361	106393600	74592256	26280520	33184
184	1.512269	106393600	74592256	27311112	33184
185	2.117833	106393600	74592256	28602888	33184
186	2.269566	106393600	74592256	30156648	33184
187	2.639536	106393600	74592256	31973400	33184
188	3.729816	106393600	74592256	17915352	33184
189	3.533519	106393600	74592256	20261456	33184
190	3.776652	106393600	74592256	22875008	33184
191	4.151678	106393600	74592256	25756448	33184
192	4.78176	106393600	74592256	28907096	33184
193	4.925079	106393600	74592256	32327968	33184
194	6.425897	106393600	74592256	19829296	33184
195	5.699696	106393600	74592256	23794520	33184
196	6.103054	106393600	74592256	28033816	33184
197	6.555375	106393600	74592256	32549176	33184
198	8.010593	106393600	74592256	21119880	33184
199	7.328137	106393600	74592256	26194432	33184
200	7.926456	106393600	74592256	31544800	33184
201	8.838745	106393600	74592256	21075048	33184
202	0.848488	106393600	74592256	27216640	33184
203	1.262182	106393600	74592256	28061464	33184
204	1.67708	106393600	74592256	29191048	33184
205	2.078277	106393600	74592256	30604872	33184
206	3.01157	106393600	74592256	32308704	33184
207	3.877831	106393600	74592256	18167752	33184
208	3.325679	106393600	74592256	20444704	33184
209	3.742589	106393600	74592256	23011528	33184
210	4.158511	106393600	74592256	25870704	33184
211	4.574205	106393600	74592256	29022904	33184
212	5.053589	106393600	74592256	32469728	33184
213	6.446772	106393600	74592256	20051744	33184
214	5.83372	106393600	74592256	24087872	33184
215	6.521628	106393600	74592256	28421472	33184
216	6.763321	106393600	74592256	33054432	33184
217	7.901047	106393600	74592256	21742480	33184
218	7.86508	106393600	74592256	26977712	33184
219	8.362725	106393600	74592256	32517096	33184
220	9.403636	106393600	74592256	22180152	33184
221	9.143104	106393600	74592256	28325768	33184
222	0.937141	106393600	74592256	19423480	33184
223	1.387806	106393600	74592256	20341912	33184
224	1.81699	106393600	74592256	21570944	33184
225	2.491624	106393600	74592256	23107416	33184
226	2.717196	106393600	74592256	24955232	33184
227	3.158671	106393600	74592256	27115264	33184
228	3.634968	106393600	74592256	29589280	33184
229	4.124121	106393600	74592256	32382784	33184
230	5.41739	106393600	74592256	19410584	33184
231	5.34605	106393600	74592256	22841176	33184
232	5.455046	106393600	74592256	26595536	33184
233	6.209338	106393600	74592256	30672776	33184
234	7.514615	106393600	74592256	19212648	33184
235	6.858274	106393600	74592256	23934376	33184
236	7.307535	106393600	74592256	28983920	33184
237	8.625018	106393600	74592256	34370552	33184
238	9.289424	106393600	74592256	23723208	33184
239	8.732097	106393600	74592256	29757944	33184
240	10.825164	106393600	74592256	20396872	33184
241	9.709969	106393600	74592256	27095160	33184
242	1.005188	106393600	74592256	34419928	33184
243	2.266084	106393600	74592256	19111408	33184
244	1.967821	106393600	74592256	20447904	33184
245	2.465431	106393600	74592256	22121528	33184
246	2.927782	106393600	74592256	24135056	33184
247	3.429068	106393600	74592256	26486880	33184
248	4.158998	106393600	74592256	29179912	33184
249	4.422692	106393600	74592256	32214552	33184
250	6.127329	106393600	74592256	19578776	33184
251	5.487855	106393600	74592256	23303360	33184
252	6.139329	106393600	74592256	27372440	33184
253	6.424029	106393600	74592256	31787952	33184
254	8.190881	106393600	74592256	20594672	33184
255	7.949116	106393600	74592256	25707440	33184
256	8.086983	106393600	74592256	31172328	33184
257	9.984691	106393600	74592256	21132128	33184
258	8.982333	106393600	74592256	27302176	33184
259	9.972175	106393600	74592256	33828424	33184
260	11.051555	106393600	74592256	24492672	33184
261	10.522336	106393600	74592256	31731512	33184
262	1.306573	106393600	74592256	23692656	33184
263	1.616675	106393600	74592256	24766992	33184
264	2.135206	106393600	74592256	26201760	33184
265	2.650051	106393600	74592256	27998072	33184
266	3.176342	106393600	74592256	30158816	33184
267	3.934071	106393600	74592256	32682544	33184
268	5.274142	106393600	74592256	19560080	33184
269	4.871919	106393600	74592256	22815480	33184
270	5.300859	106393600	74592256	26439496	33184
271	5.847332	106393600	74592256	30432544	33184
272	6.681422	106393600	74592256	34795928	33184
273	8.019823	106393600	74592256	23229240	33184
274	7.470324	106393600	74592256	28342296	33184
275	8.227984	106393600	74592256	33823376	33184
276	9.705363	106393600	74592256	23520440	33184
277	9.36763	106393600	74592256	29753640	33184
278	11.389388	106393600	74592256	20733408	33184
279	10.389119	106393600	74592256	27724800	33184
280	11.108881	106393600	74592256	35096440	33184
281	12.297221	106393600	74592256	26500872	33184
282	1.160923	106393600	74592256	34981368	33184
283	2.866589	106393600	74592256	19880056	33184
284	2.290802	106393600	74592256	21412872	33184
285	2.831901	106393600	74592256	23331832	33184
286	3.414067	106393600	74592256	25638792	33184
287	4.009263	106393600	74592256	28334552	33184
288	4.675381	106393600	74592256	31421352	33184
289	5.177853	106393600	74592256	34898064	33184
290	6.681253	106393600	74592256	22532064	33184
291	6.502674	106393600	74592256	26795088	33184
292	6.822805	106393600	74592256	31452704	33184
293	8.912004	106393600	74592256	20720552	33184
294	8.043458	106393600	74592256	26173984	33184
295	8.87433	106393600	74592256	32023024	33184
296	10.726856	106393600	74592256	22407968	33184
297	9.955891	106393600	74592256	29057672	33184
298	11.935607	106393600	74592256	20640024	33184
299	11.174775	106393600	74592256	28103160	33184
300	11.790759	106393600	74592256	35965800	33184
301	13.092211	106393600	74592256	27845256	33184
302	2.622783	106393600	74592256	20573376	33184
303	2.067968	106393600	74592256	21794984	33184
304	2.443569	106393600	74592256	23426128	33184
305	3.018416	106393600	74592256	25467784	33184
306	3.626453	106393600	74592256	27923240	33184
307	4.45825	106393600	74592256	30792928	33184
308	4.845149	106393600	74592256	34074408	33184
309	6.892039	106393600	74592256	21715000	33184
310	6.070685	106393600	74592256	25830024	33184
311	7.128454	106393600	74592256	30363048	33184
312	7.295721	106393600	74592256	35315056	33184
313	9.266758	106393600	74592256	24446368	33184
314	8.768507	106393600	74592256	30243248	33184
315	9.372768	106393600	74592256	36460488	33184
316	10.88668	106393600	74592256	26697616	33184
317	10.625963	106393600	74592256	33769000	33184
318	12.723166	106393600	74592256	25215624	33184
319	11.689487	106393600	74592256	33140360	33184
320	13.989572	106393600	74592256	25534704	33184
321	13.158666	106393600	74592256	34322024	33184
322	1.540655	106393600	74592256	27821920	33184
323	1.971815	106393600	74592256	29117208	33184
324	2.80213	106393600	74592256	30846392	33184
325	3.232446	106393600	74592256	33010800	33184
326	3.867705	106393600	74592256	35612248	33184
327	5.834719	106393600	74592256	22439200	33184
328	5.18058	106393600	74592256	25917144	33184
329	5.857085	106393600	74592256	29835408	33184
330	6.53435	106393600	74592256	34195648	33184
331	8.599091	106393600	74592256	22933736	33184
332	8.011843	106393600	74592256	28180824	33184
333	8.469927	106393600	74592256	33872864	33184
334	10.603241	106393600	74592256	23998912	33184
335	10.156423	106393600	74592256	30584328	33184
336	12.293327	106393600	74592256	22066056	33184
337	11.240575	106393600	74592256	29550064	33184
338	13.759895	106393600	74592256	22104584	33184
339	13.106617	106393600	74592256	30493968	33184
340	15.275902	106393600	74592256	23801008	33184
341	13.900947	106393600	74592256	33100616	33184
342	1.402228	106393600	74592256	27434112	33184
343	2.06414	106393600	74592256	28802952	33184
344	2.957896	106393600	74592256	30630280	33184
345	3.42531	106393600	74592256	32919216	33184
346	4.101289	106393600	74592256	35667808	33184
347	6.127527	106393600	74592256	22738464	33184
348	5.492449	106393600	74592256	26415232	33184
349	6.426113	106393600	74592256	30554336	33184
350	6.972372	106393600	74592256	35159984	33184
351	9.338451	106393600	74592256	24102912	33184
352	8.670512	106393600	74592256	29646128	33184
353	9.032497	106393600	74592256	35657240	33184
354	11.125588	106393600	74592256	25956632	33184
355	10.417025	106393600	74592256	32910264	33184
356	12.891901	106393600	74592256	24540520	33184
357	11.966273	106393600	74592256	32442152	33184
358	14.667092	106393600	74592256	25099280	33184
359	13.413265	106393600	74592256	33977624	33184
360	15.559766	106393600	74592256	27423320	33184
361	14.879559	106393600	74592256	37284128	33184
362	1.486091	106393600	74592256	31737240	33184
363	2.179237	106393600	74592256	33217816	33184
364	2.89996	106393600	74592256	35194136	33184
365	3.982781	106393600	74592256	37667400	33184
366	5.486117	106393600	74592256	24284384	33184
367	5.089222	106393600	74592256	27756096	33184
368	5.760809	106393600	74592256	31728408	33184
369	6.724276	106393600	74592256	36204200	33184
370	8.522452	106393600	74592256	25010928	33184
371	8.168919	106393600	74592256	30495336	33184
372	8.729461	106393600	74592256	36490392	33184
373	10.969123	106393600	74592256	26745600	33184
374	10.20013	106393600	74592256	33755904	33184
375	12.681021	106393600	74592256	25414384	33184
376	11.922877	106393600	74592256	33439536	33184
377	14.148692	106393600	74592256	26158792	33184
378	13.240098	106393600	74592256	35209296	33184
379	15.72931	106393600	74592256	28726768	33184
380	17.012397	106393600	74592256	23619856	33184
381	15.615294	106393600	74592256	34221944	33184
382	1.552139	106393600	74592256	29922120	33184
383	2.354006	106393600	74592256	31476304	33184
384	3.045258	106393600	74592256	33551584	33184
385	3.855775	106393600	74592256	36151392	33184
386	6.221196	106393600	74592256	23189120	33184
387	5.350291	106393600	74592256	26832536	33184
388	6.297377	106393600	74592256	31001072	33184
389	6.850621	106393600	74592256	35700080	33184
390	9.328243	106393600	74592256	24852968	33184
391	8.840816	106393600	74592256	30610392	33184
392	9.674595	106393600	74592256	36893736	33184
393	11.594969	106393600	74592256	27477432	33184
394	10.9311	106393600	74592256	34871160	33184
395	13.094513	106393600	74592256	26782576	33184
396	12.552128	106393600	74592256	35198080	33184
397	14.775593	106393600	74592256	28166584	33184
398	14.129526	106393600	74592256	37657416	33184
399	16.085773	106393600	74592256	31394664	33184
400	17.556256	106393600	74592256	26465784	33184
401	16.949752	106393600	74592256	37576800	33184
402	1.635216	106393600	74592256	33446488	33184
403	2.460265	106393600	74592256	35074408	33184
404	3.357014	106393600	74592256	37252544	33184
405	5.638263	106393600	74592256	23797960	33184
406	5.01535	106393600	74592256	27074184	33184
407	5.871074	106393600	74592256	30889456	33184
408	6.376685	106393600	74592256	35257152	33184
409	9.011619	106393600	74592256	24220872	33184
410	8.015015	106393600	74592256	29694656	33184
411	9.0649	106393600	74592256	35717416	33184
412	11.579214	106393600	74592256	26279368	33184
413	10.463724	106393600	74592256	33413600	33184
414	13.404393	106393600	74592256	25415496	33184
415	12.523959	106393600	74592256	33663784	33184
416	14.995602	106393600	74592256	26747712	33184
417	14.323766	106393600	74592256	36128664	33184
418	16.28809	106393600	74592256	30021096	33184
419	17.827339	106393600	74592256	25313152	33184
420	16.622491	106393600	74592256	36380720	33184
421	18.814677	106393600	74592256	31916120	33184
422	1.71499	106393600	74592256	29202248	33184
423	2.537502	106393600	74592256	30903800	33184
424	3.403823	106393600	74592256	33182816	33184
425	4.1879	106393600	74592256	36024304	33184
426	6.6727	106393600	74592256	23492904	33184
427	6.094038	106393600	74592256	27479928	33184
428	6.71177	106393600	74592256	32041088	33184
429	7.839471	106393600	74592256	37180080	33184
430	9.957357	106393600	74592256	26755576	33184
431	9.450557	106393600	74592256	33049088	33184
432	12.35157	106393600	74592256	24371064	33184
433	10.995247	106393600	74592256	31823312	33184
434	14.284608	106393600	74592256	24468824	33184
435	12.887	106393600	74592256	33089912	33184
436	15.867154	106393600	74592256	26745576	33184
437	14.630569	106393600	74592256	36532256	33184
438	17.500556	106393600	74592256	30870600	33184
439	18.853127	106393600	74592256	26597416	33184
440	17.43888	106393600	74592256	38149136	33184
441	20.163759	106393600	74592256	34063640	33184
442	1.783393	106393600	74592256	31678240	33184
443	2.671851	106393600	74592256	33453360	33184
444	3.718298	106393600	74592256	35823776	33184
445	4.590989	106393600	74592256	38788064	33184
446	7.262774	106393600	74592256	26103320	33184
447	6.395111	106393600	74592256	30262136	33184
448	7.235472	106393600	74592256	35022912	33184
449	9.902661	106393600	74592256	24630216	33184
450	9.330382	106393600	74592256	30590176	33184
451	9.700303	106393600	74592256	37152952	33184
452	12.257752	106393600	74592256	28253528	33184
453	11.441333	106393600	74592256	36027536	33184
454	14.489192	106393600	74592256	28508944	33184
455	13.302313	106393600	74592256	37494432	33184
456	16.021346	106393600	74592256	30985848	33184
457	18.132411	106393600	74592256	26003792	33184
458	16.289975	106393600	74592256	36819984	33184
459	18.78704	106393600	74592256	32262536	33184
460	20.288239	106393600	74592256	28949728	33184
461	22.248418	106393600	74592256	26666952	33184
462	3.466619	106393600	74592256	24308632	33184
463	2.797829	106393600	74592256	26157408	33184
464	3.879704	106393600	74592256	28628016	33184
465	4.565863	106393600	74592256	31714864	33184
466	5.905856	106393600	74592256	35429592	33184
467	6.681775	106393600	74592256	39760672	33184
468	9.430346	106393600	74592256	28430344	33184
469	8.463387	106393600	74592256	34018184	33184
470	9.150144	106393600	74592256	40224352	33184
471	11.712446	106393600	74592256	30753296	33184
472	11.261692	106393600	74592256	38213840	33184
473	14.000266	106393600	74592256	30205608	33184
474	13.116688	106393600	74592256	38929232	33184
475	15.649627	106393600	74592256	32069968	33184
476	17.157379	106393600	74592256	26769656	33184
477	16.630492	106393600	74592256	37391128	33184
478	18.973289	106393600	74592256	32653656	33184
479	20.630943	106393600	74592256	29208256	33184
480	24.075575	106393600	74592256	26891496	33184
481	19.890337	106393600	74592256	40069392	33184
482	1.958663	106393600	74592256	38163264	33184
483	2.924736	106393600	74592256	40085632	33184
484	5.72579	106393600	74592256	26430712	33184
485	4.824127	106393600	74592256	29644280	33184
486	6.19213	106393600	74592256	33500064	33184
487	6.715323	106393600	74592256	38006024	33184
488	9.49038	106393600	74592256	27107584	33184
489	8.627246	106393600	74592256	32907568	33184
490	9.607855	106393600	74592256	39366176	33184
491	12.282453	106393600	74592256	30268584	33184
492	11.537334	106393600	74592256	38023720	33184
493	14.377236	106393600	74592256	30396048	33184
494	13.563581	106393600	74592256	39464304	33184
495	16.184774	106393600	74592256	32977872	33184
496	18.160403	106393600	74592256	28015296	33184
497	16.787098	106393600	74592256	39064280	33184
498	19.445715	106393600	74592256	34609608	33184
499	20.761096	106393600	74592256	31450464	33184
500	22.238996	106393600	74592256	29382008	33184
501	23.514062	106393600	74592256	28271440	33184
502	2.057854	106393600	74592256	28624256	33184
503	3.006406	106393600	74592256	30620224	33184
504	3.97193	106393600	74592256	33283712	33184
505	5.047176	106393600	74592256	36616488	33184
506	5.989461	106393600	74592256	40619360	33184
507	8.885985	106393600	74592256	29072200	33184
508	7.99746	106393600	74592256	34421696	33184
509	8.977543	106393600	74592256	40447408	33184
510	11.757025	106393600	74592256	30866952	33184
511	11.012252	106393600	74592256	38244736	33184
512	14.21733	106393600	74592256	30301776	33184
513	13.25714	106393600	74592256	39032104	33184
514	16.120997	106393600	74592256	32332368	33184
515	17.818507	106393600	74592256	27248968	33184
516	16.067359	106393600	74592256	38021152	33184
517	19.165237	106393600	74592256	33544032	33184
518	21.255345	106393600	74592256	30394072	33184
519	22.361656	106393600	74592256	28333784	33184
520	20.527962	106393600	74592256	41850288	33184
521	23.275463	106393600	74592256	39607040	33184
522	2.107772	106393600	74592256	39067912	33184
523	3.338392	106393600	74592256	41137488	33184
524	5.949942	106393600	74592256	27678232	33184
525	5.436948	106393600	74592256	31133216	33184
526	6.172972	106393600	74592256	35283320	33184
527	7.252003	106393600	74592256	40129720	33184
528	10.433148	106393600	74592256	29473792	33184
529	9.299791	106393600	74592256	35714888	33184
530	12.936566	106393600	74592256	27105128	33184
531	11.679105	106393600	74592256	34752640	33184
532	15.489865	106393600	74592256	27658928	33184
533	13.601387	106393600	74592256	36707960	33184
534	16.947201	106393600	74592256	30756168	33184
535	15.81596	106393600	74592256	41216544	33184
536	18.753233	106393600	74592256	36103080	33184
537	20.298915	106393600	74592256	32365608	33184
538	22.751212	106393600	74592256	29866352	33184
539	24.041735	106393600	74592256	28416632	33184
540	24.854082	106393600	74592256	27886976	33184
541	26.005567	106393600	74592256	28129472	33184
542	3.070249	106393600	74592256	29756032	33184
543	3.27004	106393600	74592256	31899304	33184
544	4.337395	106393600	74592256	34759072	33184
545	6.176827	106393600	74592256	38336888	33184
546	9.513919	106393600	74592256	26839296	33184
547	7.881472	106393600	74592256	31859136	33184
548	9.006142	106393600	74592256	37598464	33184
549	12.29785	106393600	74592256	28306096	33184
550	11.196027	106393600	74592256	35496128	33184
551	14.476864	106393600	74592256	27933208	33184
552	13.253748	106393600	74592256	36577464	33184
553	16.44174	106393600	74592256	30330792	33184
554	15.302256	106393600	74592256	40431512	33184
555	18.350073	106393600	74592256	35111352	33184
556	20.435202	106393600	74592256	31287640	33184
557	21.9438	106393600	74592256	28727872	33184
558	19.943241	106393600	74592256	41774488	33184
559	22.384542	106393600	74592256	39290464	33184
560	24.1065	106393600	74592256	37847240	33184
561	25.786231	106393600	74592256	37336144	33184
562	2.262543	106393600	74592256	38396904	33184
563	3.348055	106393600	74592256	40642672	33184
564	6.79075	106393600	74592256	27615000	33184
565	5.595744	106393600	74592256	31349368	33184
566	6.853375	106393600	74592256	35835880	33184
567	7.960427	106393600	74592256	41072936	33184
568	10.925395	106393600	74592256	30875624	33184
569	10.007586	106393600	74592256	37629848	33184
570	13.988458	106393600	74592256	29455864	33184
571	12.279856	106393600	74592256	37714136	33184
572	15.934868	106393600	74592256	31044936	33184
573	14.925619	106393600	74592256	40828856	33184
574	18.356604	106393600	74592256	35250384	33184
575	19.555709	106393600	74592256	31191264	33184
576	18.777462	106393600	74592256	43266032	33184
577	21.76746	106393600	74592256	39653232	33184
578	22.491324	106393600	74592256	37270528	33184
579	24.45514	106393600	74592256	36001136	33184
580	25.780154	106393600	74592256	35643992	33184
581	26.5867	106393600	74592256	36174232	33184
582	2.61036	106393600	74592256	38120576	33184
583	3.677474	106393600	74592256	40440280	33184
584	4.645985	106393600	74592256	43523936	33184
585	8.166767	106393600	74592256	31020152	33184
586	7.293706	106393600	74592256	35657384	33184
587	8.498453	106393600	74592256	41070392	33184
588	11.711711	106393600	74592256	31179144	33184
589	10.374724	106393600	74592256	38149896	33184
590	14.149966	106393600	74592256	30228552	33184
591	13.040941	106393600	74592256	38763024	33184
592	16.419314	106393600	74592256	32313432	33184
593	15.292559	106393600	74592256	42417832	33184
594	18.370772	106393600	74592256	37034728	33184
595	20.11499	106393600	74592256	33139960	33184
596	22.113732	106393600	74592256	30572912	33184
597	20.413597	106393600	74592256	43820920	33184
598	23.541529	106393600	74592256	41404672	33184
599	24.512114	106393600	74592256	40118576	33184
600	26.078935	106393600	74592256	39775296	33184
601	27.211973	106393600	74592256	40320592	33184
602	2.41521	106393600	74592256	42344768	33184
603	5.748669	106393600	74592256	28639552	33184
604	5.057951	106393600	74592256	31827992	33184
605	6.030402	106393600	74592256	35807840	33184
606	7.314535	106393600	74592256	40587768	33184
607	10.893844	106393600	74592256	30208552	33184
608	9.551355	106393600	74592256	36590992	33184
609	11.045911	106393600	74592256	43782560	33184
610	14.619893	106393600	74592256	35410936	33184
611	13.72314	106393600	74592256	44211120	33184
612	17.430031	106393600	74592256	37372912	33184
613	18.925205	106393600	74592256	32264104	33184
614	16.953587	106393600	74592256	43485696	33184
615	20.784846	106393600	74592256	39170440	33184
616	22.136844	106393600	74592256	36283424	33184
617	24.145346	106393600	74592256	34584544	33184
618	25.21965	106393600	74592256	33970944	33184
619	26.76823	106393600	74592256	34240808	33184
620	27.853569	106393600	74592256	35259528	33184
621	28.992345	106393600	74592256	36996792	33184
622	2.488164	106393600	74592256	40153600	33184
623	3.692141	106393600	74592256	42613232	33184
624	7.461563	106393600	74592256	29821248	33184
625	6.286989	106393600	74592256	33923832	33184
626	7.383829	106393600	74592256	38854648	33184
627	8.792971	106393600	74592256	44610936	33184
628	12.080882	106393600	74592256	34754448	33184
629	11.070057	106393600	74592256	42166824	33184
630	14.824317	106393600	74592256	34307456	33184
631	13.761686	106393600	74592256	43381592	33184
632	17.11911	106393600	74592256	37015952	33184
633	19.333566	106393600	74592256	32376528	33184
634	17.520664	106393600	74592256	43947512	33184
635	20.829287	106393600	74592256	40015056	33184
636	23.146561	106393600	74592256	37451344	33184
637	24.479952	106393600	74592256	36100320	33184
638	26.148446	106393600	74592256	35757464	33184
639	27.130128	106393600	74592256	36322624	33184
640	28.671581	106393600	74592256	37658328	33184
641	29.354668	106393600	74592256	39617832	33184
642	2.572423	106393600	74592256	43030392	33184
643	6.38739	106393600	74592256	29503136	33184
644	5.503443	106393600	74592256	32880920	33184
645	6.556112	106393600	74592256	37106488	33184
646	7.674069	106393600	74592256	42182368	33184
647	11.466244	106393600	74592256	32062672	33184
648	10.293832	106393600	74592256	38838856	33184
649	14.440201	106393600	74592256	30882760	33184
650	13.229558	106393600	74592256	39364720	33184
651	17.015809	106393600	74592256	33068680	33184
652	15.579329	106393600	74592256	43263424	33184
653	19.407723	106393600	74592256	38178272	33184
654	20.975269	106393600	74592256	34612440	33184
655	22.971729	106393600	74592256	32381280	33184
656	25.411941	106393600	74592256	31362936	33184
657	26.71409	106393600	74592256	31321952	33184
658	27.696365	106393600	74592256	32151680	33184
659	29.131432	106393600	74592256	33733024	33184
660	30.280101	106393600	74592256	35993024	33184
661	30.551652	106393600	74592256	38847080	33184
662	2.680772	106393600	74592256	43001496	33184
663	4.161072	106393600	74592256	45606960	33184
664	7.77366	106393600	74592256	32754200	33184
665	6.787359	106393600	74592256	37102168	33184
666	7.879188	106393600	74592256	42323824	33184
667	11.871333	106393600	74592256	32430000	33184
668	10.751003	106393600	74592256	39401624	33184
669	14.770374	106393600	74592256	31687960	33184
670	13.648538	106393600	74592256	40415624	33184
671	17.777045	106393600	74592256	34348432	33184
672	15.969924	106393600	74592256	44835816	33184
673	20.020107	106393600	74592256	39893736	33184
674	21.353009	106393600	74592256	36509952	33184
675	23.670854	106393600	74592256	34473024	33184
676	25.485861	106393600	74592256	33662640	33184
677	26.813758	106393600	74592256	33830024	33184
678	28.446777	106393600	74592256	34852640	33184
679	29.009576	106393600	74592256	36618400	33184
680	30.42391	106393600	74592256	39030624	33184
681	31.388185	106393600	74592256	42010792	33184
682	5.155271	106393600	74592256	30247248	33184
683	4.080606	106393600	74592256	32926288	33184
684	5.822094	106393600	74592256	36500584	33184
685	6.950106	106393600	74592256	40974168	33184
686	8.355339	106393600	74592256	46343112	33184
687	11.945037	106393600	74592256	36149824	33184
688	10.776055	106393600	74592256	43317992	33184
689	14.934858	106393600	74592256	35386800	33184
690	13.710423	106393600	74592256	44361040	33184
691	17.497015	106393600	74592256	38111776	33184
692	19.833856	106393600	74592256	33619016	33184
693	18.252312	106393600	74592256	45313336	33184
694	21.975489	106393600	74592256	41629992	33184
695	23.259543	106393600	74592256	39374560	33184
696	25.371146	106393600	74592256	38304000	33184
697	26.620396	106393600	74592256	38326264	33184
698	28.278223	106393600	74592256	39258616	33184
699	29.479745	106393600	74592256	40951208	33184
700	30.69516	106393600	74592256	43370832	33184
701	31.517345	106393600	74592256	46348320	33184
702	2.799269	106393600	74592256	36648280	33184
703	4.189961	106393600	74592256	39401776	33184
704	5.569133	106393600	74592256	43074184	33184
705	10.158858	106393600	74592256	31801144	33184
706	8.598381	106393600	74592256	37317256	33184
707	9.959908	106393600	74592256	43756984	33184
708	13.940192	106393600	74592256	35118560	33184
709	12.731107	106393600	74592256	43408952	33184
710	16.797742	106393600	74592256	36644512	33184
711	15.600107	106393600	74592256	46798760	33184
712	19.533297	106393600	74592256	41451168	33184
713	21.337959	106393600	74592256	37759024	33184
714	23.277696	106393600	74592256	35515736	33184
715	25.042572	106393600	74592256	34566688	33184
716	26.472532	106393600	74592256	34700648	33184
717	29.018585	106393600	74592256	35785456	33184
718	29.393334	106393600	74592256	37717232	33184
719	30.930209	106393600	74592256	40312840	33184
720	31.509129	106393600	74592256	43500432	33184
721	32.877141	106393600	74592256	47157592	33184
722	2.887726	106393600	74592256	38093040	33184
723	4.295743	106393600	74592256	40974808	33184
724	5.769528	106393600	74592256	44811056	33184
725	10.094495	106393600	74592256	33596544	33184
726	8.875772	106393600	74592256	39373176	33184
727	10.379354	106393600	74592256	46101696	33184
728	14.017553	106393600	74592256	37558768	33184
729	13.353384	106393600	74592256	46233416	33184
730	17.059235	106393600	74592256	39640616	33184
731	19.383495	106393600	74592256	34897008	33184
732	17.629308	106393600	74592256	46476160	33184
733	21.440091	106393600	74592256	42719656	33184
734	23.588512	106393600	74592256	40445000	33184
735	25.571204	106393600	74592256	39446336	33184
736	26.480132	106393600	74592256	39574240	33184
737	28.271048	106393600	74592256	40699072	33184
738	29.419539	106393600	74592256	42616368	33184
739	30.785081	106393600	74592256	45265528	33184
740	37.523557	106663936	75116544	34645376	33184
741	37.614927	107474944	75640832	42575008	33184
742	2.959724	107474944	75640832	49587744	33184
743	7.094354	107474944	75640832	36300624	33184
744	6.311309	107474944	75640832	40235304	33184
745	7.897918	107474944	75640832	45158112	33184
746	12.132326	107474944	75640832	35336448	33184
747	10.512132	107474944	75640832	42246104	33184
748	11.934683	107474944	75640832	50141392	33184
749	16.100516	107474944	75640832	42661504	33184
750	18.348804	107474944	75640832	37187496	33184
751	16.474764	107474944	75640832	48054872	33184
752	20.597561	107474944	75640832	43818816	33184
753	23.32778	107474944	75640832	41131576	33184
754	25.004592	107474944	75640832	39808464	33184
755	26.388247	107474944	75640832	39681688	33184
756	28.543974	107474944	75640832	40596576	33184
757	29.355953	107474944	75640832	42423296	33184
758	31.081714	107474944	76165120	44988328	33184
759	31.322631	107745280	76165120	48163536	33184
760	38.738144	108015616	76165120	38009056	33184
761	37.898993	108015616	76165120	46516776	33184
762	5.848706	108015616	76165120	37938544	33184
763	4.554373	108015616	76165120	40961224	33184
764	6.094893	108015616	76165120	44994040	33184
765	7.768664	108015616	76165120	50037752	33184
766	12.40353	108015616	76165120	40125888	33184
767	10.865245	108015616	76165120	47196024	33184
768	15.426818	108015616	76165120	39714352	33184
769	13.834309	108015616	76165120	48827888	33184
770	18.778131	108015616	76165120	43139688	33184
771	20.866335	108015616	76165120	39259640	33184
772	18.149938	108015616	76165120	51435712	33184
773	22.817054	108015616	76165120	48526200	33184
774	24.553234	108015616	76165120	47020976	33184
775	26.345267	108015616	76165120	46680432	33184
776	27.956557	108015616	76165120	47424936	33184
777	29.38206	108015616	76165120	49152160	33184
778	30.515605	108015616	76165120	51657880	33184
779	37.298894	108015616	76165120	40937248	33184
780	38.892349	108015616	76165120	48893608	33184
781	39.766914	108015616	76165120	54983320	33184
782	3.070075	107495424	75640832	24686376	33184
783	4.548719	107495424	75640832	27782848	33184
784	9.893067	107495424	75640832	18544168	33184
785	8.054906	107495424	75640832	23710576	33184
786	9.459073	107495424	75640832	29914424	33184
787	12.057566	107495424	75640832	21921520	33184
788	12.145262	107495424	75640832	30202816	33184
789	14.930226	107495424	75640832	23561240	33184
790	15.353341	107495424	75640832	33930296	33184
791	17.119777	107495424	75640832	28989072	33184
792	19.295385	107495424	75640832	25652632	33184
793	21.541962	107495424	75640832	23887400	33184
794	23.314701	107495424	75640832	23362600	33184
795	24.984441	107495424	75640832	23953664	33184
796	26.249045	107495424	75640832	25490456	33184
797	27.552139	107495424	75640832	27910976	33184
798	28.785382	107495424	75640832	31016176	33184
799	32.652744	107495424	75640832	20954272	33184
800	34.958173	107495424	75640832	29471984	33184
801	33.456821	107495424	75640832	35935800	33184
802	3.136412	107495424	75640832	29484120	33184
803	4.657949	107495424	75640832	32654264	33184
804	6.276145	107495424	75640832	36885544	33184
805	8.169399	107495424	75640832	25789592	33184
806	9.318318	107495424	75640832	32140704	33184
807	11.698945	107495424	75640832	23740896	33184
808	12.573495	107495424	75640832	32218168	33184
809	15.130742	107495424	75640832	25938048	33184
810	16.177793	107495424	75640832	36550032	33184
811	17.622593	107495424	75640832	31847168	33184
812	20.105877	107495424	75640832	28822584	33184
813	21.768194	107495424	75640832	27278880	33184
814	24.022452	107495424	75640832	27061152	33184
815	25.644989	107495424	75640832	27937664	33184
816	26.513246	107495424	75640832	29728864	33184
817	27.874568	107495424	75640832	32350544	33184
818	29.520841	107495424	75640832	35728424	33184
819	33.352495	107495424	75640832	25686800	33184
820	36.829874	107495424	75640832	34637936	33184
821	37.642153	107495424	75640832	27948712	33184
822	3.277263	107495424	75640832	40134304	33184
823	5.664412	107495424	75640832	27624584	33184
824	6.62877	107495424	75640832	31951928	33184
825	8.142678	107495424	75640832	37366048	33184
826	10.582334	107495424	75640832	28198176	33184
827	11.282873	107495424	75640832	35783600	33184
828	13.977279	107495424	75640832	28942808	33184
829	14.729842	107495424	75640832	38718880	33184
830	16.772515	107495424	75640832	33703536	33184
831	18.97429	107495424	75640832	30441456	33184
832	21.080841	107495424	75640832	28729528	33184
833	21.762837	107495424	75640832	42872056	33184
834	23.360701	107495424	75640832	41662472	33184
835	24.918148	107495424	75640832	41765640	33184
836	26.330045	107495424	75640832	42908392	33184
837	30.612402	107495424	75640832	30826056	33184
838	31.79415	107495424	75640832	35710192	33184
839	32.041802	107495424	75640832	40958352	33184
840	36.364689	107495424	75640832	32657080	33184
841	38.421301	107495424	75640832	43218120	33184
842	3.27936	107495424	75640832	38814920	33184
843	4.887917	107495424	75640832	42132432	33184
844	10.458797	107495424	75640832	33392440	33184
845	8.425028	107495424	75640832	38928032	33184
846	9.740598	107495424	75640832	45573552	33184
847	12.592586	107495424	75640832	37788224	33184
848	13.304531	107495424	75640832	46661056	33184
849	15.160826	107495424	75640832	40575632	33184
850	18.336533	107495424	75640832	36425952	33184
851	17.943498	107495424	75640832	48677848	33184
852	20.300979	107495424	75640832	45686640	33184
853	21.986801	107495424	75640832	44207376	33184
854	23.663052	107495424	75640832	44047464	33184
855	25.88266	107495424	75640832	45017584	33184
856	27.159264	107495424	75640832	46990640	33184
857	32.027573	107495424	75640832	35895192	33184
858	33.9131	107495424	75640832	43704840	33184
859	32.960691	107495424	75640832	49729576	33184
860	36.684185	107495424	75640832	41999280	33184
861	39.526375	107495424	75640832	53220232	33184
862	3.350048	107495424	75640832	49207088	33184
863	5.32316	107495424	75640832	52628984	33184
864	7.54579	107495424	75640832	41082648	33184
865	8.602509	107495424	75640832	46793432	33184
866	10.188457	107495424	75640832	53653976	33184
867	12.497542	107495424	75640832	45419200	33184
868	13.378009	107495424	75640832	54575736	33184
869	15.766466	107495424	75640832	48504864	33184
870	18.745775	107495424	75640832	44343816	33184
871	20.684358	107495424	75640832	41936624	33184
872	22.420085	107495424	75640832	41021504	33184
873	24.422651	107495424	75640832	41403784	33184
874	26.168288	107495424	75640832	42876104	33184
875	27.78279	107495424	75640832	45273168	33184
876	29.196638	107495424	75640832	48505872	33184
877	30.203011	107495424	75640832	52431056	33184
878	34.403558	107495424	75640832	43178600	33184
879	39.816761	109387776	77737984	52542656	33184
880	44.539525	110198784	78786560	46435440	33184
881	54.030162	109211648	77737984	30599104	33184
882	3.450203	109211648	77737984	26976520	33184
883	5.131838	109211648	77737984	30472480	33184
884	10.561411	109211648	77737984	22002544	33184
885	9.009236	109211648	77737984	27834472	33184
886	10.369271	109211648	77737984	34847344	33184
887	13.277847	109211648	77737984	27412216	33184
888	15.0023	109211648	77737984	21479472	33184
889	15.638225	109211648	77737984	32002064	33184
890	17.633824	109211648	77737984	27787192	33184
891	20.299181	109211648	77737984	25300328	33184
892	22.761196	109211648	77737984	24341448	33184
893	24.177827	109211648	77737984	24715120	33184
894	26.034557	109211648	77737984	26150680	33184
895	27.517667	109211648	77737984	28631984	33184
896	29.001748	109211648	77737984	31975504	33184
897	30.756985	109211648	77737984	36035064	33184
898	34.665146	109211648	77737984	26471336	33184
899	34.849459	109211648	77737984	33659664	33184
900	38.842078	109211648	77737984	27060776	33184
901	44.767062	109211648	77737984	26756664	33184
902	3.534402	109752320	77737984	41282920	33184
903	5.784482	109752320	77737984	28766248	33184
904	7.161396	109752320	77737984	33530208	33184
905	8.723372	109752320	77737984	39493840	33184
906	10.90524	109752320	77737984	30585496	33184
907	12.488578	109752320	77737984	38931464	33184
908	14.481994	109752320	77737984	32515200	33184
909	17.040228	109752320	77737984	28171352	33184
910	17.41285	109752320	77737984	40117624	33184
911	19.857907	109752320	77737984	37125360	33184
912	22.115174	109752320	77737984	35741768	33184
913	23.9482	109752320	77737984	35743568	33184
914	26.292482	109752320	77737984	36944808	33184
915	27.301354	109752320	77737984	39179280	33184
916	29.297892	109752320	77737984	42327408	33184
917	33.212756	109752320	77737984	32155528	33184
918	34.077102	109752320	77737984	38717048	33184
919	37.248311	109752320	77737984	31838632	33184
920	39.520915	109752320	77737984	43367704	33184
921	41.882925	109752320	77737984	38816288	33184
922	3.721823	109752320	77737984	41490896	33184
923	5.566567	109752320	77737984	45133792	33184
924	7.256326	109752320	77737984	49993184	33184
925	11.657297	109752320	77737984	42031928	33184
926	10.901141	109752320	77737984	49328480	33184
927	13.544916	109752320	77737984	42194616	33184
928	14.789306	109752320	77737984	51939488	33184
929	16.539621	109752320	77737984	46533224	33184
930	18.804412	109752320	77737984	43058808	33184
931	21.149285	109752320	77737984	41281208	33184
932	23.500754	109752320	77737984	41042728	33184
933	25.751754	109752320	77737984	42029968	33184
934	27.470537	109752320	77737984	44062944	33184
935	28.390136	109752320	77737984	47079784	33184
936	30.152791	109752320	77737984	50927160	33184
937	34.188983	109752320	77737984	41474032	33184
938	37.045025	109752320	77737984	51098112	33184
939	39.007878	109752320	77737984	45068536	33184
940	43.494887	110022656	78262272	57113264	33184
941	52.25115	110563328	78786560	52834560	33184
942	3.692027	109596672	77737984	26424424	33184
943	5.480998	109596672	77737984	30140880	33184
944	10.549016	109596672	77737984	21734160	33184
945	9.41295	109596672	77737984	27940928	33184
946	12.866755	109596672	77737984	20563472	33184
947	12.789635	109596672	77737984	29251904	33184
948	15.700546	109596672	77737984	23638184	33184
949	16.750873	109596672	77737984	34825392	33184
950	18.552684	109596672	77737984	30934488	33184
951	21.373882	109596672	77737984	28824616	33184
952	23.153245	109596672	77737984	28228848	33184
953	25.274548	109596672	77737984	29053488	33184
954	27.640609	109596672	77737984	30965144	33184
955	28.886178	109596672	77737984	34050416	33184
956	32.697881	109596672	77737984	23849632	33184
957	36.071116	109596672	77737984	32727760	33184
958	37.817229	109596672	77737984	26274888	33184
959	39.406828	109596672	77737984	37560616	33184
960	41.745324	109867008	77737984	33111696	33184
961	47.815385	109867008	77737984	34413096	33184
962	4.545827	109867008	77737984	34678752	33184
963	5.822344	109867008	77737984	38468792	33184
964	7.689513	109867008	77737984	43527744	33184
965	10.81669	109867008	77737984	34171728	33184
966	11.410211	109867008	77737984	41762856	33184
967	14.194457	109867008	77737984	35116184	33184
968	15.031018	109867008	77737984	45250968	33184
969	17.632043	109867008	77737984	40715928	33184
970	20.147301	109867008	77737984	38085096	33184
971	22.44716	109867008	77737984	37054440	33184
972	24.570152	109867008	77737984	37488480	33184
973	26.31454	109867008	77737984	39166216	33184
974	27.68375	109867008	77737984	41852352	33184
975	29.523183	109867008	77737984	45434104	33184
976	33.762844	109867008	77737984	36046008	33184
977	37.649369	109867008	77737984	45262416	33184
978	38.246976	109867008	77737984	39262008	33184
979	40.878645	109867008	77737984	51007040	33184
980	41.813594	109867008	77737984	46895840	33184
981	49.148929	111218688	79310848	48758240	33184
982	4.272939	115273728	83505152	52994776	33184
983	6.296499	115273728	83505152	56858568	33184
984	8.439912	115273728	83505152	62012440	33184
985	21.054713	117166080	85602304	54291512	33184
986	21.4794	114544640	82980864	22345288	33184
987	14.916916	114544640	82980864	31395320	33184
988	16.13271	114544640	82980864	25783888	33184
989	18.614066	114544640	82980864	22202208	33184
990	21.640776	114544640	82980864	20390376	33184
991	21.091183	114544640	82980864	34650400	33184
992	23.600377	114544640	82980864	33736904	33184
993	25.809807	114544640	82980864	34227600	33184
994	29.897998	114544640	82980864	21924456	33184
995	31.841034	114544640	82980864	26705576	33184
996	32.230264	114544640	82980864	32120952	33184
997	36.349798	114544640	82980864	24258264	33184
998	39.235838	114544640	82980864	35145384	33184
999	40.853298	114544640	82980864	30135792	33184
1000	47.371587	114544640	82980864	31147360	33184
