x	Duration	RSS	HeapTotal	HeapUsed	External
0	NA	106811392	75116544	14415616	33184
1	0.30686	106811392	75116544	14467920	33184
2	0.28651	106811392	75116544	14535896	33184
3	0.279721	106811392	75116544	14628608	33184
4	0.334807	106811392	75116544	14747728	33184
5	0.400295	106811392	75116544	14895016	33184
6	0.841244	106811392	75116544	15071176	33184
7	0.570477	106811392	75116544	15277408	33184
8	0.788707	106811392	75116544	15519616	33184
9	0.808975	106811392	75116544	15790992	33184
10	0.513893	106811392	75116544	16096464	33184
11	0.70383	106811392	75116544	16437224	33184
12	0.796684	106811392	75116544	16815504	33184
13	0.700517	106811392	75116544	17231664	33184
14	0.782784	106811392	75116544	17685736	33184
15	0.796259	106811392	75116544	18180040	33184
16	0.853674	106811392	75116544	18715760	33184
17	0.910041	106811392	75116544	19296040	33184
18	1.013298	106811392	75116544	19920176	33184
19	1.071356	106811392	75116544	20590544	33184
20	1.134516	106811392	75116544	21307296	33184
21	1.211153	106811392	75116544	22072552	33184
22	0.186848	106811392	75116544	22861424	33184
23	0.269035	106811392	75116544	23011312	33184
24	0.352809	106811392	75116544	23213368	33184
25	0.428734	106811392	75116544	23468904	33184
26	0.515618	106811392	75116544	23779528	33184
27	0.783657	106811392	75116544	24146040	33184
28	0.921075	106811392	75116544	24569624	33184
29	0.77096	106811392	75116544	25051568	33184
30	0.854902	106811392	75116544	25595856	33184
31	1.259756	106811392	75116544	26198376	33184
32	1.231316	106811392	75116544	26862792	33184
33	1.181013	106811392	75116544	27593096	33184
34	1.196581	106811392	75116544	28385072	33184
35	1.4992	106811392	75116544	29242648	33184
36	2.063397	106811392	75116544	30167056	33184
37	2.086064	106811392	75116544	31162064	33184
38	2.771548	106811392	75116544	15916400	33184
39	1.94897	106811392	75116544	17069712	33184
40	1.745342	106811392	75116544	18275952	33184
41	1.890959	106811392	75116544	19555192	33184
42	0.421707	106811392	75116544	20911712	33184
43	0.397	106811392	75116544	21135008	33184
44	0.478662	106811392	75116544	21435976	33184
45	0.5904	106811392	75116544	21817296	33184
46	0.709697	106811392	75116544	22279352	33184
47	0.819953	106811392	75116544	22823616	33184
48	0.99085	106811392	75116544	23451008	33184
49	1.0596	106811392	75116544	24162912	33184
50	1.182358	106811392	75116544	24961584	33184
51	1.318757	106811392	75116544	25847200	33184
52	1.424262	106811392	75116544	26821056	33184
53	1.553964	106811392	75116544	27884432	33184
54	1.688435	106811392	75116544	29038352	33184
55	1.801965	106811392	75116544	30284448	33184
56	2.964626	106811392	75116544	15502976	33184
57	2.282313	106811392	75116544	16936344	33184
58	2.413558	106811392	75116544	18467144	33184
59	2.558088	106811392	75116544	20094688	33184
60	2.501486	106811392	75116544	21821272	33184
61	2.631748	106811392	75116544	23646360	33184
62	0.326813	106811392	75116544	25604592	33184
63	0.483681	106811392	75116544	25908312	33184
64	0.623742	106811392	75116544	26313312	33184
65	0.768072	106811392	75116544	26822488	33184
66	0.925114	106811392	75116544	27437592	33184
67	1.076077	106811392	75116544	28159336	33184
68	1.230296	106811392	75116544	28988896	33184
69	1.511786	106811392	75116544	29927496	33184
70	1.673113	106811392	75116544	30977392	33184
71	2.599612	106811392	75116544	15878880	33184
72	2.096644	106811392	75116544	17154864	33184
73	2.030622	106811392	75116544	18543360	33184
74	2.185023	106811392	75116544	20046512	33184
75	2.40547	106811392	75116544	21666176	33184
76	2.716832	106811392	75116544	23405560	33184
77	2.68181	106811392	75116544	25261688	33184
78	2.937573	106811392	75116544	27239880	33184
79	3.033555	106811392	75116544	29339288	33184
80	3.219483	106811392	75116544	31561768	33184
81	4.082597	106811392	75116544	17557888	33184
82	0.397003	106811392	75116544	20088608	33184
83	0.587852	106811392	75116544	20464184	33184
84	0.770263	106811392	75116544	20969512	33184
85	0.959585	106811392	75116544	21603488	33184
86	1.16036	106811392	75116544	22368976	33184
87	1.338651	106811392	75116544	23266760	33184
88	1.52027	106811392	75116544	24297984	33184
89	1.715898	106811392	75116544	25463992	33184
90	1.905655	106811392	75116544	26766904	33184
91	2.115727	106811392	75116544	28209096	33184
92	2.30827	106811392	75116544	29792056	33184
93	2.519015	106811392	75116544	31517624	33184
94	3.511211	106811392	75116544	17049920	33184
95	3.28091	106811392	75116544	19062152	33184
96	3.387114	106811392	75116544	21219704	33184
97	3.589955	106811392	75116544	23524760	33184
98	3.553065	106811392	75116544	25978056	33184
99	4.009086	106811392	75116544	28581584	33184
100	4.411315	106811392	75116544	31334736	33184
101	5.035126	106811392	75116544	17918440	33184
102	0.504342	106811392	75116544	21064960	33184
103	0.754718	106811392	75116544	21523936	33184
104	0.997041	106811392	75116544	22138080	33184
105	1.232755	106811392	75116544	22908680	33184
106	1.471812	106811392	75116544	23837408	33184
107	1.731006	106811392	75116544	24925080	33184
108	2.274474	106811392	75116544	26176288	33184
109	2.22593	106811392	75116544	27585432	33184
110	2.449049	106811392	75116544	29158480	33184
111	2.725284	106811392	75116544	30894968	33184
112	3.609648	106811392	75116544	16552320	33184
113	3.141968	106811392	75116544	18620080	33184
114	3.227872	106811392	75116544	20856144	33184
115	3.458188	106811392	75116544	23260104	33184
116	3.761806	106811392	75116544	25834144	33184
117	4.16563	106811392	75116544	28579304	33184
118	4.196687	106811392	75116544	31498808	33184
119	5.317728	106811392	75116544	18269672	33184
120	4.687099	106811392	75116544	21538704	33184
121	4.929526	106811392	75116544	24983096	33184
122	0.545805	106811392	75116544	28718904	33184
123	0.812812	106811392	75116544	29251488	33184
124	1.064073	106811392	75116544	29963936	33184
125	1.383417	106811392	75116544	30857176	33184
126	1.584315	106811392	75116544	31933240	33184
127	2.603601	106811392	75116544	16851928	33184
128	2.111126	106811392	75116544	18296080	33184
129	2.59124	106811392	75116544	19927552	33184
130	2.649687	106811392	75116544	21745824	33184
131	2.90692	106811392	75116544	23752384	33184
132	3.40543	106811392	75116544	25948528	33184
133	3.464412	106811392	75116544	28335432	33184
134	3.731052	106811392	75116544	30914504	33184
135	4.840744	106811392	75116544	17480408	33184
136	4.2966	106811392	75116544	20447112	33184
137	4.559475	106811392	75116544	23612144	33184
138	5.272965	106811392	75116544	26973280	33184
139	5.429103	106811392	75116544	30533784	33184
140	6.303571	106811392	75116544	18108160	33184
141	5.691396	106811392	75116544	22069056	33184
142	0.620844	106811392	75116544	26380376	33184
143	0.918789	106811392	75116544	26991960	33184
144	1.212701	106811392	75116544	27809616	33184
145	2.067995	106811392	75116544	28834648	33184
146	1.872845	106811392	75116544	30077904	33184
147	2.129017	106811392	75116544	31521640	33184
148	3.036275	106811392	75116544	16913376	33184
149	2.898387	106811392	75116544	18780448	33184
150	3.225652	106811392	75116544	20862112	33184
151	3.591667	106811392	75116544	23158904	33184
152	3.648405	106811392	75116544	25670920	33184
153	3.937168	106811392	75116544	28401000	33184
154	4.456024	106811392	75116544	31348504	33184
155	5.440576	106811392	75116544	18282792	33184
156	5.280992	106811392	75116544	21670648	33184
157	5.364378	106811392	75116544	25280512	33184
158	6.476293	106811392	75116544	29115472	33184
159	6.700227	106811392	75116544	17227216	33184
160	6.492286	106811392	75116544	21514448	33184
161	6.502331	106811392	75116544	26029152	33184
162	0.702076	106811392	75116544	30943536	33184
163	1.038111	106811392	75116544	31628736	33184
164	1.622511	106811392	75116544	32544552	33184
165	2.202462	106811392	75116544	17325376	33184
166	2.445784	106811392	75116544	18706752	33184
167	2.408131	106811392	75116544	20325064	33184
168	2.915497	106811392	75116544	22176016	33184
169	3.098008	106811392	75116544	24263712	33184
170	3.799244	106811392	75116544	26590616	33184
171	3.729869	106811392	75116544	29156352	33184
172	4.061857	106811392	75116544	31962472	33184
173	5.785834	106811392	75116544	18725008	33184
174	4.854102	106811392	75116544	22024504	33184
175	5.162745	106811392	75116544	25559312	33184
176	5.466411	106811392	75116544	29339360	33184
177	6.823482	106811392	75116544	17455560	33184
178	6.173779	106811392	75116544	21733856	33184
179	6.94539	106811392	75116544	26259224	33184
180	7.112273	106811392	75116544	31040032	33184
181	8.160396	106811392	75116544	19980248	33184
182	0.776814	106811392	75116544	25477904	33184
183	1.191023	106811392	75116544	26249128	33184
184	1.524344	106811392	75116544	27279600	33184
185	1.884449	106811392	75116544	28570640	33184
186	2.265662	106811392	75116544	30123952	33184
187	2.833878	106811392	75116544	31940432	33184
188	3.748257	106811392	75116544	17874952	33184
189	3.574199	106811392	75116544	20222384	33184
190	3.952641	106811392	75116544	22836032	33184
191	4.149324	106811392	75116544	25717472	33184
192	4.55981	106811392	75116544	28868216	33184
193	5.109144	106811392	75116544	32290080	33184
194	6.20371	106811392	75116544	19787952	33184
195	6.12396	106811392	75116544	23753160	33184
196	6.287286	106811392	75116544	27994176	33184
197	6.679188	106811392	75116544	32514368	33184
198	7.48568	106811392	75116544	21083256	33184
199	7.255815	106811392	75116544	26154464	33184
200	7.868687	106811392	75116544	31505864	33184
201	8.784433	106811392	75116544	21032864	33184
202	0.859067	106811392	75116544	27176960	33184
203	1.260163	106811392	75116544	28021784	33184
204	1.665023	106811392	75116544	29153264	33184
205	2.088852	106811392	75116544	30566984	33184
206	2.534549	106811392	75116544	32268280	33184
207	3.598184	106811392	75116544	18115720	33184
208	3.309707	106811392	75116544	20392680	33184
209	3.980165	106811392	75116544	22959504	33184
210	4.131107	106811392	75116544	25818680	33184
211	4.551388	106811392	75116544	28970064	33184
212	5.245845	106811392	75116544	32415168	33184
213	6.137288	106811392	75116544	19988912	33184
214	5.830325	106811392	75116544	24025840	33184
215	6.231689	106811392	75116544	28360336	33184
216	6.906129	106811392	75116544	32992368	33184
217	7.997273	106811392	75116544	21678856	33184
218	7.53072	106811392	75116544	26914544	33184
219	8.199304	106811392	75116544	32451312	33184
220	9.324228	106811392	75116544	22118736	33184
221	9.058815	106811392	75116544	28266136	33184
222	0.943858	106811392	75116544	19363768	33184
223	1.638283	106811392	75116544	20282408	33184
224	1.856465	106811392	75116544	21517072	33184
225	2.314015	106811392	75116544	23053448	33184
226	2.763822	106811392	75116544	24901264	33184
227	3.144226	106811392	75116544	27061296	33184
228	3.623444	106811392	75116544	29534568	33184
229	4.258425	106811392	75116544	32328992	33184
230	5.572518	106811392	75116544	19351408	33184
231	4.96998	106811392	75116544	22782800	33184
232	5.470642	106811392	75116544	26538616	33184
233	6.104958	106811392	75116544	30611968	33184
234	7.560719	106811392	75116544	19147240	33184
235	6.829297	106811392	75116544	23870200	33184
236	7.280188	106811392	75116544	28919056	33184
237	7.817852	106811392	75116544	34297352	33184
238	9.316145	106811392	75116544	23641992	33184
239	9.130104	106811392	75116544	29678240	33184
240	10.583101	106811392	75116544	20313448	33184
241	9.753827	106811392	75116544	27011736	33184
242	1.029866	106811392	75116544	34329296	33184
243	2.201847	106811392	75116544	19020232	33184
244	1.972459	106811392	75116544	20356760	33184
245	2.452451	106811392	75116544	22030312	33184
246	2.917204	106811392	75116544	24042632	33184
247	3.635247	106811392	75116544	26394416	33184
248	3.898101	106811392	75116544	29087536	33184
249	4.405604	106811392	75116544	32122096	33184
250	5.87436	106811392	75116544	19489144	33184
251	5.386978	106811392	75116544	23212224	33184
252	6.179744	106811392	75116544	27284272	33184
253	6.430956	106811392	75116544	31700648	33184
254	8.177037	106811392	75116544	20500136	33184
255	7.679217	106811392	75116544	25613768	33184
256	7.875956	106811392	75116544	31077296	33184
257	9.495453	106811392	75116544	21033992	33184
258	9.380544	106811392	75116544	27207296	33184
259	9.858866	106811392	75116544	33731656	33184
260	10.767595	106811392	75116544	24394392	33184
261	10.672545	106811392	75116544	31631144	33184
262	1.089352	106811392	75116544	23628544	33184
263	1.610543	106811392	75116544	24702880	33184
264	2.110358	106811392	75116544	26137648	33184
265	2.639288	106811392	75116544	27933912	33184
266	3.16275	106811392	75116544	30093616	33184
267	3.683878	106811392	75116544	32617224	33184
268	5.213713	106811392	75116544	19491488	33184
269	4.995325	106811392	75116544	22746896	33184
270	5.260295	106811392	75116544	26372232	33184
271	6.033888	106811392	75116544	30371184	33184
272	6.407085	106811392	75116544	34734392	33184
273	7.728336	106811392	75116544	23163512	33184
274	7.460441	106811392	75116544	28274200	33184
275	8.174394	106811392	75116544	33757736	33184
276	9.770551	106811392	75116544	23443952	33184
277	9.304508	106811392	75116544	29679296	33184
278	11.121806	106811392	75116544	20655344	33184
279	10.386119	106811392	75116544	27647376	33184
280	10.702343	106811392	75116544	35021152	33184
281	12.112398	106811392	75116544	26424992	33184
282	1.367128	106811392	75116544	34905416	33184
283	2.600924	106811392	75116544	19800720	33184
284	2.283803	106811392	75116544	21333512	33184
285	2.832017	106811392	75116544	23252536	33184
286	3.420337	106811392	75116544	25564112	33184
287	3.956422	106811392	75116544	28259536	33184
288	4.524526	106811392	75116544	31344760	33184
289	5.358972	106811392	75116544	34821024	33184
290	6.610257	106811392	75116544	22449360	33184
291	6.447988	106811392	75116544	26712384	33184
292	6.805052	106811392	75116544	31370000	33184
293	8.706902	106811392	75116544	20634760	33184
294	8.412034	106811392	75116544	26089208	33184
295	8.84541	106811392	75116544	31938248	33184
296	10.969086	106811392	75116544	22321408	33184
297	9.995254	106811392	75116544	28970960	33184
298	12.101901	106811392	75116544	20552216	33184
299	10.992656	106811392	75116544	28009128	33184
300	11.69603	106811392	75116544	35872104	33184
301	13.328813	106811392	75116544	27750816	33184
302	2.200935	106811392	75116544	20472848	33184
303	2.068153	106811392	75116544	21694384	33184
304	2.436014	106811392	75116544	23325592	33184
305	3.012413	106811392	75116544	25367232	33184
306	3.61431	106811392	75116544	27821232	33184
307	4.438961	106811392	75116544	30692064	33184
308	4.827019	106811392	75116544	33973616	33184
309	6.56821	106811392	75116544	21603816	33184
310	6.051637	106811392	75116544	25718720	33184
311	7.095597	106811392	75116544	30251760	33184
312	7.294534	106811392	75116544	35204848	33184
313	9.153455	106811392	75116544	24332056	33184
314	8.524791	106811392	75116544	30126432	33184
315	9.338472	106811392	75116544	36343600	33184
316	11.289786	106811392	75116544	26582496	33184
317	10.354278	106811392	75116544	33649368	33184
318	12.754358	106811392	75116544	25100272	33184
319	12.022817	106811392	75116544	33026536	33184
320	13.64425	106811392	75116544	25456336	33184
321	13.452753	106811392	75116544	34239888	33184
322	1.329117	106811392	75116544	27743928	33184
323	1.942133	106811392	75116544	29039256	33184
324	2.629841	106811392	75116544	30768520	33184
325	3.264543	106811392	75116544	32932960	33184
326	3.852945	106811392	75116544	35534312	33184
327	5.798442	106811392	75116544	22359480	33184
328	5.146951	106811392	75116544	25837272	33184
329	5.99258	106811392	75116544	29755312	33184
330	6.423369	106811392	75116544	34115736	33184
331	8.379085	106811392	75116544	22845280	33184
332	7.970075	106811392	75116544	28091912	33184
333	8.376222	106811392	75116544	33783544	33184
334	10.709236	106811392	75116544	23906048	33184
335	9.943417	106811392	75116544	30491464	33184
336	12.223493	106811392	75116544	21967136	33184
337	11.719769	106811392	75116544	29453528	33184
338	13.675406	106811392	75116544	22006248	33184
339	12.686056	106811392	75116544	30395656	33184
340	14.876119	106811392	75116544	23701512	33184
341	13.976431	106811392	75116544	33000392	33184
342	1.397917	106811392	75116544	27333296	33184
343	2.1283	106811392	75116544	28702136	33184
344	2.72694	106811392	75116544	30529464	33184
345	3.627258	106811392	75116544	32818400	33184
346	4.094601	106811392	75116544	35566992	33184
347	6.427125	106811392	75116544	22636192	33184
348	5.503283	106811392	75116544	26310608	33184
349	6.366328	106811392	75116544	30451128	33184
350	6.860097	106811392	75116544	35056872	33184
351	8.957186	106811392	75116544	23996200	33184
352	8.256645	106811392	75116544	29538800	33184
353	9.146704	106811392	75116544	35555096	33184
354	11.510709	106811392	75116544	25852408	33184
355	10.49544	106811392	75116544	32805936	33184
356	12.658721	106811392	75116544	24435624	33184
357	11.694778	106811392	75116544	32337936	33184
358	14.49734	106811392	75116544	24994008	33184
359	13.541681	106811392	75116544	33872816	33184
360	15.4324	106811392	75116544	27317328	33184
361	14.622539	106811392	75116544	37178728	33184
362	1.48333	106811392	75116544	31630568	33184
363	2.197843	106811392	75116544	33111232	33184
364	3.124352	106811392	75116544	35087488	33184
365	3.616757	106811392	75116544	37560800	33184
366	5.598675	106811392	75116544	24177624	33184
367	5.08455	106811392	75116544	27649336	33184
368	6.04886	106811392	75116544	31621648	33184
369	6.96382	106811392	75116544	36097440	33184
370	8.727496	106811392	75116544	24909080	33184
371	7.998568	106811392	75116544	30396752	33184
372	8.876862	106811392	75116544	36391808	33184
373	11.025615	106811392	75116544	26708440	33184
374	10.201053	106811392	75116544	33714048	33184
375	12.611728	106811392	75116544	25436192	33184
376	11.821304	106811392	75116544	33465848	33184
377	14.272667	106811392	75116544	26165304	33184
378	13.59771	106811392	75116544	35216448	33184
379	15.647525	106811392	75116544	28732992	33184
380	17.36918	106811392	75116544	23618344	33184
381	15.323343	106811392	75116544	34216000	33184
382	1.553363	106811392	75116544	29906624	33184
383	2.523381	106811392	75116544	31474080	33184
384	3.04481	106811392	75116544	33554232	33184
385	3.802132	106811392	75116544	36151344	33184
386	6.048048	106811392	75116544	23180520	33184
387	5.541372	106811392	75116544	26823840	33184
388	6.510671	106811392	75116544	30994632	33184
389	6.828326	106811392	75116544	35701984	33184
390	9.352849	106811392	75116544	24841176	33184
391	8.470133	106811392	75116544	30634832	33184
392	9.566759	106811392	75116544	36917344	33184
393	11.718703	106811392	75116544	27498672	33184
394	10.663468	106811392	75116544	34849560	33184
395	13.251594	106811392	75116544	26755288	33184
396	12.456826	106811392	75116544	35170584	33184
397	14.696305	106811392	75116544	28126720	33184
398	14.156445	106811392	75116544	37617504	33184
399	16.144707	106811392	75116544	31349448	33184
400	17.50095	106811392	75116544	26419632	33184
401	16.595555	106811392	75116544	37530896	33184
402	1.634436	106811392	75116544	33399608	33184
403	2.441613	106811392	75116544	35027504	33184
404	3.213208	106811392	75116544	37206440	33184
405	5.651418	106811392	75116544	23749296	33184
406	4.977655	106811392	75116544	27027312	33184
407	5.644022	106811392	75116544	30842584	33184
408	6.368441	106811392	75116544	35210280	33184
409	9.016075	106811392	75116544	24171104	33184
410	8.44263	106811392	75116544	29646096	33184
411	8.756733	106811392	75116544	35668856	33184
412	11.209711	106811392	75116544	26228792	33184
413	10.629727	106811392	75116544	33363856	33184
414	13.31022	106811392	75116544	25364280	33184
415	12.496899	106811392	75116544	33612720	33184
416	15.154867	106811392	75116544	26685568	33184
417	13.661783	106811392	75116544	36055224	33184
418	16.258326	106811392	75116544	29956704	33184
419	17.840806	106811392	75116544	25243248	33184
420	16.497085	106811392	75116544	36306496	33184
421	19.253831	106811392	75116544	31847136	33184
422	1.718724	106811392	75116544	29131312	33184
423	2.520807	106811392	75116544	30832864	33184
424	3.350433	106811392	75116544	33104568	33184
425	4.385532	106811392	75116544	35945952	33184
426	7.052003	106811392	75116544	23411264	33184
427	6.273589	106811392	75116544	27398168	33184
428	6.694174	106811392	75116544	31959448	33184
429	7.950424	106811392	75116544	37096648	33184
430	10.131898	106811392	75116544	26670696	33184
431	9.20865	106811392	75116544	32963144	33184
432	12.337957	106811392	75116544	24287432	33184
433	11.216329	106811392	75116544	31749176	33184
434	14.202058	106811392	75116544	24393672	33184
435	12.849916	106811392	75116544	33019256	33184
436	15.704932	106811392	75116544	26667008	33184
437	14.52499	106811392	75116544	36455928	33184
438	17.220114	106811392	75116544	30804288	33184
439	18.654687	106811392	75116544	26533240	33184
440	17.391891	106811392	75116544	38085128	33184
441	19.75653	106811392	75116544	33998728	33184
442	1.782391	106811392	75116544	31613544	33184
443	2.640536	106811392	75116544	33388664	33184
444	3.725139	106811392	75116544	35759080	33184
445	4.946604	106811392	75116544	38723368	33184
446	7.257259	106811392	75116544	26038152	33184
447	6.156101	106811392	75116544	30196968	33184
448	7.192986	106811392	75116544	34957744	33184
449	9.777586	106811392	75116544	24562200	33184
450	9.253559	106811392	75116544	30522128	33184
451	9.699361	106811392	75116544	37084872	33184
452	12.637485	106811392	75116544	28184656	33184
453	11.853018	106811392	75116544	35959496	33184
454	14.129832	106811392	75116544	28439336	33184
455	13.836325	106811392	75116544	37424392	33184
456	15.734346	106811392	75116544	30916328	33184
457	18.090956	106811392	75116544	25933552	33184
458	16.252026	106811392	75116544	36749872	33184
459	19.032624	106811392	75116544	32192128	33184
460	20.14087	106811392	75116544	28878408	33184
461	21.976508	106811392	75116544	26595440	33184
462	3.659195	106811392	75116544	24235776	33184
463	2.862663	106811392	75116544	26084672	33184
464	3.78608	106811392	75116544	28556424	33184
465	4.914626	106811392	75116544	31643272	33184
466	5.730441	106811392	75116544	35358000	33184
467	6.669947	106811392	75116544	39689080	33184
468	9.322211	106811392	75116544	28357480	33184
469	8.499811	106811392	75116544	33945320	33184
470	9.122202	106811392	75116544	40151488	33184
471	11.982591	106811392	75116544	30677760	33184
472	11.243408	106811392	75116544	38138424	33184
473	13.647477	106811392	75116544	30130080	33184
474	13.128121	106811392	75116544	38853704	33184
475	15.876642	106811392	75116544	31993848	33184
476	17.486892	106811392	75116544	26692728	33184
477	16.254494	106811392	75116544	37314416	33184
478	18.900127	106811392	75116544	32576648	33184
479	20.234101	106811392	75116544	29130560	33184
480	22.442409	106811392	75116544	26802208	33184
481	19.962339	106811392	75116544	39980320	33184
482	1.945536	106811392	75116544	38154336	33184
483	2.85814	106811392	75116544	40076704	33184
484	5.737792	106811392	75116544	26421960	33184
485	4.799749	106811392	75116544	29635528	33184
486	6.022807	106811392	75116544	33491312	33184
487	6.686482	106811392	75116544	37997272	33184
488	9.744713	106811392	75116544	27099536	33184
489	8.958307	106811392	75116544	32899184	33184
490	9.600138	106811392	75116544	39357448	33184
491	12.570331	106811392	75116544	30262384	33184
492	11.668444	106811392	75116544	38017584	33184
493	14.32925	106811392	75116544	30388624	33184
494	13.604355	106811392	75116544	39456808	33184
495	16.563077	106811392	75116544	32971160	33184
496	18.322394	106811392	75116544	28009616	33184
497	16.704409	106811392	75116544	39057488	33184
498	19.605369	106811392	75116544	34602992	33184
499	21.235897	106811392	75116544	31444296	33184
500	22.560326	106811392	75116544	29376288	33184
501	23.637753	106811392	75116544	28265528	33184
502	2.096007	106811392	75116544	28618520	33184
503	3.108565	106811392	75116544	30614488	33184
504	4.108303	106811392	75116544	33277976	33184
505	5.173072	106811392	75116544	36610752	33184
506	6.134268	106811392	75116544	40613624	33184
507	8.710347	106811392	75116544	29067016	33184
508	8.139809	106811392	75116544	34415960	33184
509	9.10717	106811392	75116544	40441672	33184
510	11.884974	106811392	75116544	30861768	33184
511	11.253974	106811392	75116544	38239552	33184
512	14.092314	106811392	75116544	30297120	33184
513	12.91886	106811392	75116544	39027448	33184
514	16.213912	106811392	75116544	32328280	33184
515	17.811872	106811392	75116544	27245384	33184
516	16.169379	106811392	75116544	38017200	33184
517	19.530463	106811392	75116544	33540256	33184
518	20.857826	106811392	75116544	30390768	33184
519	22.733506	106811392	75116544	28330784	33184
520	21.057079	106811392	75116544	41847040	33184
521	23.78537	106811392	75116544	39603968	33184
522	2.096674	106811392	75116544	39064856	33184
523	3.162365	106811392	75116544	41134432	33184
524	6.045538	106811392	75116544	27675512	33184
525	5.629702	106811392	75116544	31130496	33184
526	6.215939	106811392	75116544	35280600	33184
527	7.645963	106811392	75116544	40127000	33184
528	10.432077	106811392	75116544	29471896	33184
529	9.26302	106811392	75116544	35716304	33184
530	12.659342	106811392	75116544	27107648	33184
531	11.608877	106811392	75116544	34759152	33184
532	15.481426	106811392	75116544	27666440	33184
533	14.113655	106811392	75116544	36713944	33184
534	17.148694	106811392	75116544	30761776	33184
535	16.253833	106811392	75116544	41221904	33184
536	19.172055	106811392	75116544	36105888	33184
537	20.606744	106811392	75116544	32365024	33184
538	22.107582	106811392	75116544	29866096	33184
539	24.693183	106811392	75116544	28425776	33184
540	25.150782	106811392	75116544	27896200	33184
541	26.104117	106811392	75116544	28138024	33184
542	2.304064	106811392	75116544	29764480	33184
543	3.224332	106811392	75116544	31907752	33184
544	4.493511	106811392	75116544	34767520	33184
545	5.550886	106811392	75116544	38345336	33184
546	8.678704	106811392	75116544	26848136	33184
547	7.784938	106811392	75116544	31867584	33184
548	8.753003	106811392	75116544	37606912	33184
549	12.1452	106811392	75116544	28315376	33184
550	11.011226	106811392	75116544	35504952	33184
551	14.530754	106811392	75116544	27946720	33184
552	13.310103	106811392	75116544	36586816	33184
553	16.750126	106811392	75116544	30340864	33184
554	15.228914	106811392	75116544	40441216	33184
555	18.527653	106811392	75116544	35121408	33184
556	20.746978	106811392	75116544	31298168	33184
557	22.03328	106811392	75116544	28738672	33184
558	19.654379	106811392	75116544	41785072	33184
559	22.51611	106811392	75116544	39301224	33184
560	24.147449	106811392	75116544	37858352	33184
561	25.437544	106811392	75116544	37347432	33184
562	2.292163	106811392	75116544	38409496	33184
563	3.341171	106811392	75116544	40655264	33184
564	6.7704	106811392	75116544	27627592	33184
565	5.791791	106811392	75116544	31361960	33184
566	6.849753	106811392	75116544	35848472	33184
567	7.954562	106811392	75116544	41085528	33184
568	11.308068	106811392	75116544	30889104	33184
569	10.151633	106811392	75116544	37642464	33184
570	14.099718	106811392	75116544	29469504	33184
571	12.489772	106811392	75116544	37727456	33184
572	16.258692	106811392	75116544	31058608	33184
573	14.821546	106811392	75116544	40842528	33184
574	18.007508	106811392	75116544	35264408	33184
575	20.060568	106811392	75116544	31205640	33184
576	18.416744	106811392	75116544	43280408	33184
577	21.279999	106811392	75116544	39667784	33184
578	22.287127	106811392	75116544	37285432	33184
579	24.209417	106811392	75116544	36016216	33184
580	25.797642	106811392	75116544	35659248	33184
581	26.595371	106811392	75116544	36189664	33184
582	2.323252	106811392	75116544	38135936	33184
583	3.465858	106811392	75116544	40447128	33184
584	4.636294	106811392	75116544	43530784	33184
585	8.133555	106811392	75116544	31027000	33184
586	7.231484	106811392	75116544	35664232	33184
587	8.436395	106811392	75116544	41077240	33184
588	11.367889	106811392	75116544	31186624	33184
589	10.56387	106811392	75116544	38156944	33184
590	14.153831	106811392	75116544	30236560	33184
591	12.712459	106811392	75116544	38770600	33184
592	16.612614	106811392	75116544	32321824	33184
593	15.006834	106811392	75116544	42425760	33184
594	18.345377	106811392	75116544	37043008	33184
595	20.080212	106811392	75116544	33148592	33184
596	22.490166	106811392	75116544	30581960	33184
597	19.876206	106811392	75116544	43829728	33184
598	22.960012	106811392	75116544	41414248	33184
599	24.520487	106811392	75116544	40127912	33184
600	26.334477	106811392	75116544	39784808	33184
601	27.52859	106811392	75116544	40330280	33184
602	2.648973	106811392	75116544	42354632	33184
603	5.819726	106811392	75116544	28657960	33184
604	5.027873	106811392	75116544	31846552	33184
605	6.157435	106811392	75116544	35826400	33184
606	7.355029	106811392	75116544	40606328	33184
607	10.909241	106811392	75116544	30227640	33184
608	9.849083	106811392	75116544	36610336	33184
609	10.817785	106811392	75116544	43800968	33184
610	14.504059	106811392	75116544	35430048	33184
611	13.393812	106811392	75116544	44230232	33184
612	16.512547	106811392	75116544	37392768	33184
613	18.394464	106811392	75116544	32284096	33184
614	16.903431	106811392	75116544	43505688	33184
615	20.31223	106811392	75116544	39190704	33184
616	22.204965	106811392	75116544	36303944	33184
617	24.349971	106811392	75116544	34605240	33184
618	25.439981	106811392	75116544	33991816	33184
619	26.385807	106811392	75116544	34261856	33184
620	27.625675	106811392	75116544	35280968	33184
621	28.72388	106811392	75116544	37018192	33184
622	2.490355	106811392	75116544	40175176	33184
623	3.698054	106811392	75116544	42634808	33184
624	7.383875	106811392	75116544	29843096	33184
625	6.186098	106811392	75116544	33945504	33184
626	7.758966	106811392	75116544	38876224	33184
627	8.772913	106811392	75116544	44632512	33184
628	12.117908	106811392	75116544	34776576	33184
629	11.447296	106811392	75116544	42188424	33184
630	15.629645	106811392	75116544	34330440	33184
631	14.540568	106811392	75116544	43403896	33184
632	17.028011	106811392	75116544	37038944	33184
633	19.593462	106811392	75116544	32399536	33184
634	17.312586	106811392	75116544	43970520	33184
635	21.15959	106811392	75116544	40038240	33184
636	22.329485	106811392	75116544	37475016	33184
637	24.788777	106811392	75116544	36124032	33184
638	25.744114	106811392	75116544	35781480	33184
639	26.563558	106811392	75116544	36346760	33184
640	27.900168	106811392	75116544	37682568	33184
641	29.085737	106811392	75116544	39642248	33184
642	2.61687	106811392	75116544	43054984	33184
643	6.630278	106811392	75116544	29527520	33184
644	5.136554	106811392	75116544	32905392	33184
645	6.388769	106811392	75116544	37130664	33184
646	7.5858	106811392	75116544	42206960	33184
647	11.278289	106811392	75116544	32087840	33184
648	10.149531	106811392	75116544	38863296	33184
649	14.217216	106811392	75116544	30908216	33184
650	12.704506	106811392	75116544	39390248	33184
651	16.767156	106811392	75116544	33094496	33184
652	15.259748	106811392	75116544	43288920	33184
653	18.843734	106811392	75116544	38204120	33184
654	21.206376	106811392	75116544	34638768	33184
655	22.891578	106811392	75116544	32407656	33184
656	24.503145	106811392	75116544	31389584	33184
657	27.520228	106811392	75116544	31357280	33184
658	27.42106	106811392	75116544	32186976	33184
659	29.162435	106811392	75116544	33768320	33184
660	29.725041	106811392	75116544	36028320	33184
661	30.744998	106811392	75116544	38882376	33184
662	2.654544	106811392	75116544	43036792	33184
663	3.924127	106811392	75116544	45642256	33184
664	7.783188	106811392	75116544	32789496	33184
665	6.751084	106811392	75116544	37137464	33184
666	8.010201	106811392	75116544	42359120	33184
667	11.839241	106811392	75116544	32464968	33184
668	10.647392	106811392	75116544	39436592	33184
669	14.934397	106811392	75116544	31722928	33184
670	13.48399	106811392	75116544	40450592	33184
671	17.754473	106811392	75116544	34383400	33184
672	15.890566	106811392	75116544	44870784	33184
673	19.62027	106811392	75116544	39928704	33184
674	21.683201	106811392	75116544	36544920	33184
675	23.442012	106811392	75116544	34507992	33184
676	25.3145	106811392	75116544	33697608	33184
677	26.387183	106811392	75640832	33864992	33184
678	27.862607	107081728	75640832	34887608	33184
679	29.326412	107081728	75640832	36653368	33184
680	30.016916	107081728	75640832	39065592	33184
681	31.161978	107081728	75640832	42045760	33184
682	5.471618	107081728	75640832	30281888	33184
683	4.10889	107081728	75640832	32960792	33184
684	5.412706	107081728	75640832	36534968	33184
685	7.097439	107081728	75640832	41009136	33184
686	8.280026	107081728	75640832	46378080	33184
687	11.928477	107081728	75640832	36184464	33184
688	10.978808	107081728	75640832	43352632	33184
689	14.883978	107081728	75640832	35421440	33184
690	13.734367	107081728	75640832	44395680	33184
691	17.719141	107352064	75640832	38146416	33184
692	19.710874	107352064	75640832	33653656	33184
693	18.146703	107352064	75640832	45347976	33184
694	21.572614	107352064	75640832	41664632	33184
695	23.277384	107352064	75640832	39409200	33184
696	25.344269	107352064	76165120	38338640	33184
697	26.561413	107352064	76165120	38360904	33184
698	28.177264	107352064	76165120	39293256	33184
699	28.976192	107352064	76165120	40985848	33184
700	30.195233	107352064	76165120	43405472	33184
701	31.245039	107622400	76165120	46382960	33184
702	2.818709	107622400	76165120	36682920	33184
703	4.165305	107622400	76165120	39436416	33184
704	5.773825	107622400	76165120	43108824	33184
705	9.779782	107622400	76165120	31835448	33184
706	8.316072	107622400	76165120	37351584	33184
707	9.861773	107622400	76165120	43791376	33184
708	13.944471	107622400	76165120	35152872	33184
709	12.926753	107622400	76165120	43443264	33184
710	16.979955	107622400	76165120	36678824	33184
711	15.591526	107622400	76165120	46833072	33184
712	19.787447	107892736	76165120	41485480	33184
713	21.105208	107892736	76165120	37793336	33184
714	23.047917	107892736	76165120	35550048	33184
715	25.041926	107892736	76689408	34601000	33184
716	26.79241	107892736	76689408	34734960	33184
717	28.102418	107892736	76689408	35819768	33184
718	29.088555	107892736	76689408	37751544	33184
719	30.10212	107892736	76689408	40347152	33184
720	31.336886	107892736	76689408	43534744	33184
721	32.321225	108163072	76689408	47191904	33184
722	2.989927	108163072	76689408	38127352	33184
723	4.289923	108163072	76689408	41009120	33184
724	5.730031	108163072	76689408	44845368	33184
725	10.141438	108163072	76689408	33630616	33184
726	8.552767	108163072	76689408	39407488	33184
727	9.99511	108163072	76689408	46136008	33184
728	14.300581	108163072	76689408	37592752	33184
729	12.855988	108163072	76689408	46267400	33184
730	17.891724	108433408	76689408	39679928	33184
731	19.502953	108433408	76689408	34953152	33184
732	17.241817	108433408	76689408	46532304	33184
733	21.483182	108433408	76689408	42775800	33184
734	23.372106	108433408	76689408	40501144	33184
735	24.931889	108433408	76689408	39502480	33184
736	26.879414	108433408	76689408	39630384	33184
737	27.996023	108433408	76689408	40755216	33184
738	29.166837	108433408	76689408	42672512	33184
739	30.210867	108433408	77213696	45321672	33184
740	37.275697	108974080	77213696	34701520	33184
741	36.643312	108974080	77213696	42631152	33184
742	2.972448	108974080	77213696	49643888	33184
743	7.056574	108974080	77213696	36356520	33184
744	5.89738	108974080	77213696	40291136	33184
745	7.391675	108974080	77213696	45214256	33184
746	11.799389	108974080	77213696	35392264	33184
747	10.520008	108974080	77213696	42301920	33184
748	11.720857	108974080	77213696	50197208	33184
749	15.80212	108974080	77213696	42717320	33184
750	18.125278	108974080	77213696	37243312	33184
751	16.411587	108974080	77213696	48110688	33184
752	20.810303	108974080	77213696	43874632	33184
753	22.485352	108974080	77213696	41187392	33184
754	24.682063	108974080	77213696	39864280	33184
755	26.212037	108974080	77213696	39737504	33184
756	27.8947	108974080	77213696	40652528	33184
757	29.351069	108974080	77213696	42479112	33184
758	30.630684	108974080	77213696	45044144	33184
759	31.543804	108974080	77213696	48219352	33184
760	37.971782	108974080	77213696	38064872	33184
761	38.474708	108974080	77213696	46572592	33184
762	5.782619	108974080	77213696	37994088	33184
763	4.534385	108974080	77213696	41017040	33184
764	6.442573	108974080	77213696	45049856	33184
765	7.740313	108974080	77213696	50093568	33184
766	12.115652	108974080	77213696	40181376	33184
767	10.527374	108974080	77213696	47251512	33184
768	15.449327	108974080	77213696	39769840	33184
769	13.806635	108974080	77213696	48883376	33184
770	18.082807	108974080	77213696	43195176	33184
771	20.90475	108974080	77213696	39315128	33184
772	18.57908	108974080	77213696	51491200	33184
773	23.211584	108974080	77213696	48581688	33184
774	24.650516	108974080	77213696	47076464	33184
775	26.755927	108974080	77213696	46735920	33184
776	28.062073	108974080	77213696	47480424	33184
777	29.587129	108974080	77213696	49207648	33184
778	30.462406	108974080	77213696	51713368	33184
779	37.266823	108974080	77213696	40992736	33184
780	37.656671	108974080	77213696	48949096	33184
781	35.499071	108974080	77213696	55038584	33184
782	3.111574	108974080	77213696	48249240	33184
783	4.643406	108974080	77213696	51345720	33184
784	6.23453	108974080	77213696	55476544	33184
785	14.833169	110325760	78786560	46989632	33184
786	10.685899	110325760	78786560	53193384	33184
787	16.827847	110596096	79310848	45219360	33184
788	13.848126	110596096	79310848	53500680	33184
789	22.129049	110596096	79310848	47168760	33184
790	29.224607	110071808	78786560	19573288	33184
791	16.880091	110071808	78786560	30986632	33184
792	19.063066	110071808	78786560	27098024	33184
793	20.761433	110071808	78786560	24759064	33184
794	22.419835	110071808	78786560	23733616	33184
795	24.295199	110071808	78786560	23917048	33184
796	25.65525	110071808	78786560	25151072	33184
797	26.728019	110071808	78786560	27276432	33184
798	28.585768	110071808	78786560	30188680	33184
799	32.971889	110071808	78786560	19746296	33184
800	36.656992	110612480	78786560	28154456	33184
801	36.981985	110612480	78786560	21042384	33184
802	3.123421	110612480	78786560	32769368	33184
803	4.628584	110612480	78786560	35939440	33184
804	6.69645	110612480	78786560	24069624	33184
805	7.943497	110612480	78786560	29358880	33184
806	9.28132	110612480	78786560	35709856	33184
807	11.219157	110612480	78786560	26882296	33184
808	12.527891	110612480	78786560	35359928	33184
809	14.554583	110612480	78786560	28726560	33184
810	17.121157	110612480	78786560	24091664	33184
811	17.275924	110612480	78786560	35769112	33184
812	19.21202	110612480	78786560	32272640	33184
813	21.066268	110612480	78786560	30320064	33184
814	22.876552	110612480	78786560	29681064	33184
815	24.700553	110612480	78786560	30258928	33184
816	26.120134	110612480	78786560	31781504	33184
817	27.802653	110612480	78786560	34217952	33184
818	28.891708	110612480	78786560	37391040	33184
819	32.759183	110612480	78786560	26973712	33184
820	32.826135	110612480	78786560	33319392	33184
821	36.881	110612480	78786560	26119600	33184
822	3.512404	110612480	78786560	38339288	33184
823	6.076232	110612480	78786560	25813016	33184
824	6.793249	110612480	78786560	30147328	33184
825	8.374441	110612480	78786560	35560824	33184
826	10.311772	110612480	78786560	26306416	33184
827	11.573447	110612480	78786560	33897376	33184
828	13.955799	110612480	78786560	27064816	33184
829	14.469626	110612480	78786560	36831352	33184
830	16.576288	110612480	78786560	31756368	33184
831	19.199729	110612480	78786560	28491760	33184
832	21.029314	110612480	78786560	26777776	33184
833	21.014984	110612480	78786560	40922328	33184
834	23.330972	110612480	78786560	39686312	33184
835	24.530044	110612480	78786560	39722528	33184
836	26.362325	110612480	78786560	40854344	33184
837	31.10527	110612480	78786560	28745216	33184
838	31.140764	110612480	78786560	33619648	33184
839	31.901728	110612480	78786560	38835560	33184
840	35.400624	110612480	78786560	30506944	33184
841	38.201783	110612480	78786560	41058624	33184
842	3.413047	110612480	78786560	36614224	33184
843	5.079917	110612480	78786560	39931560	33184
844	10.613567	110612480	78786560	31208792	33184
845	8.369996	110612480	78786560	36752568	33184
846	9.93014	110612480	78786560	43399928	33184
847	12.485251	110612480	78786560	35619888	33184
848	13.290694	110612480	78786560	44493872	33184
849	15.371869	110612480	78786560	38403728	33184
850	17.528126	110612480	78786560	34261504	33184
851	18.387276	110612480	78786560	46501696	33184
852	20.415478	110612480	78786560	43511440	33184
853	22.487066	110612480	78786560	42024000	33184
854	24.278354	110612480	78786560	41880000	33184
855	25.512653	110612480	78786560	42853464	33184
856	27.385684	110612480	78786560	44812432	33184
857	31.60134	110612480	78786560	33714200	33184
858	33.504279	110612480	78786560	41549224	33184
859	32.042088	110612480	78786560	47539112	33184
860	36.944446	110612480	78786560	39816456	33184
861	39.336663	110612480	78786560	51011872	33184
862	3.470856	110612480	78786560	46988720	33184
863	5.219024	110612480	78786560	50410616	33184
864	7.236348	110612480	78786560	38866128	33184
865	8.981616	110612480	78786560	44576912	33184
866	10.363785	110612480	78786560	51437456	33184
867	12.287305	110612480	78786560	43202680	33184
868	13.345391	110612480	78786560	52359216	33184
869	15.781444	110612480	78786560	46288344	33184
870	17.519534	110612480	78786560	42127296	33184
871	20.74298	110612480	78786560	39720104	33184
872	22.409667	110612480	78786560	38804984	33184
873	24.538401	110612480	78786560	39187264	33184
874	26.36377	110612480	78786560	40659584	33184
875	28.723794	110612480	78786560	43056648	33184
876	28.679283	110612480	78786560	46289352	33184
877	29.579636	110612480	78786560	50214536	33184
878	34.154596	110612480	78786560	40962080	33184
879	36.724966	110612480	78786560	50326136	33184
880	37.79979	110612480	78786560	44218200	33184
881	40.662479	110612480	78786560	55921280	33184
882	3.45012	110882816	79310848	52672768	33184
883	5.114318	110882816	79310848	56171472	33184
884	12.560035	112775168	81408000	47629456	33184
885	10.886518	112775168	81408000	53468784	33184
886	12.288466	112775168	81408000	60476232	33184
887	16.030968	113315840	81932288	52963880	33184
888	19.129603	113315840	81932288	47033304	33184
889	30.82565	113315840	81932288	18125568	33184
890	19.174556	113315840	81932288	29852224	33184
891	20.060269	113315840	81932288	26520656	33184
892	21.25004	113315840	81932288	24814224	33184
893	23.614918	113315840	81932288	24541056	33184
894	25.509842	113315840	81932288	25537176	33184
895	26.706997	113315840	81932288	27541776	33184
896	28.632144	113315840	81932288	30401544	33184
897	32.616192	113315840	81932288	20142240	33184
898	35.892418	113315840	81932288	28855288	33184
899	37.015845	113315840	81932288	22128624	33184
900	38.614213	113315840	81932288	33229200	33184
901	40.257989	113315840	81932288	28423760	33184
902	3.655122	113315840	81932288	30434464	33184
903	5.41672	113315840	81932288	34003640	33184
904	7.046926	113315840	81932288	38766280	33184
905	11.051154	113315840	81932288	30647880	33184
906	10.436703	113315840	81932288	37804576	33184
907	13.171091	113315840	81932288	30611928	33184
908	14.708758	113315840	81932288	40162672	33184
909	16.468811	113315840	81932288	35019808	33184
910	19.055015	113315840	81932288	31712752	33184
911	21.11155	113315840	81932288	30100584	33184
912	23.375626	113315840	81932288	29879120	33184
913	25.888622	113315840	81932288	30900368	33184
914	26.964468	113315840	81932288	33024888	33184
915	28.778826	113315840	81932288	36086480	33184
916	29.890217	113315840	81932288	39869760	33184
917	33.547377	113315840	81932288	30625280	33184
918	36.495183	113586176	81932288	39760056	33184
919	39.222003	113856512	81932288	33642616	33184
920	39.713977	113856512	81932288	45176336	33184
921	41.634745	114126848	82456576	40954288	33184
922	3.588193	114126848	82456576	43603624	33184
923	5.369516	114126848	82456576	47246400	33184
924	7.340333	114126848	82456576	52105752	33184
925	11.409683	114126848	82456576	44098680	33184
926	10.87545	114126848	82456576	51402160	33184
927	13.192517	114126848	82456576	44273576	33184
928	14.948759	114126848	82456576	54011656	33184
929	17.808069	114126848	82456576	48876952	33184
930	19.255289	114126848	82456576	45677088	33184
931	21.533606	114126848	82456576	44143368	33184
932	24.203225	114126848	82456576	44065384	33184
933	25.601797	114126848	82456576	45219192	33184
934	27.57005	114126848	82456576	47429648	33184
935	28.331683	114126848	82456576	50531936	33184
936	30.228925	114126848	82456576	54440680	33184
937	34.008072	114126848	82456576	45125784	33184
938	37.589748	114126848	82456576	54741832	33184
939	39.020897	114126848	82456576	48668752	33184
940	46.287423	114126848	82456576	60777384	33184
941	58.7433	114126848	82456576	30901648	33184
942	3.806628	114126848	82456576	29388528	33184
943	5.440486	114126848	82456576	33105000	33184
944	10.77385	114126848	82456576	24796696	33184
945	9.315383	114126848	82456576	30996544	33184
946	12.613278	114126848	82456576	23568072	33184
947	12.808742	114126848	82456576	32263256	33184
948	15.421717	114126848	82456576	26483400	33184
949	16.388633	114126848	82456576	37678936	33184
950	18.846141	114126848	82456576	33752464	33184
951	21.81964	114126848	82456576	31560288	33184
952	22.817553	114126848	82456576	30934896	33184
953	25.106022	114126848	82456576	31575440	33184
954	26.42804	114126848	82456576	33433512	33184
955	28.078157	114126848	82456576	36268448	33184
956	33.683237	114126848	82456576	26049168	33184
957	35.625077	114126848	82456576	34834864	33184
958	37.117608	114126848	82456576	28353280	33184
959	39.204328	114126848	82456576	39628464	33184
960	40.636176	114126848	82456576	35106560	33184
961	47.550283	114667520	82980864	36417528	33184
962	4.584565	114667520	82980864	36733504	33184
963	5.750271	114667520	82980864	40523720	33184
964	7.447123	114667520	82980864	45586656	33184
965	10.090552	114667520	82980864	36182384	33184
966	11.4213	114667520	82980864	43787280	33184
967	14.038925	114667520	82980864	37140328	33184
968	15.125813	114667520	82980864	47275096	33184
969	17.350401	114667520	82980864	42694512	33184
970	19.765361	114667520	82980864	40056744	33184
971	22.251878	114667520	82980864	39017376	33184
972	24.610031	114667520	82980864	39452784	33184
973	26.267751	114667520	82980864	41097088	33184
974	29.002223	114667520	82980864	43745384	33184
975	29.721188	114667520	82980864	47327528	33184
976	33.892442	114667520	82980864	37939520	33184
977	36.857152	114667520	82980864	47178400	33184
978	37.999575	114667520	82980864	41171368	33184
979	41.138407	114667520	82980864	52919352	33184
980	42.30992	114667520	82980864	48794832	33184
981	48.868439	114667520	82980864	50626240	33184
982	4.173992	116830208	85078016	54863648	33184
983	6.258638	116830208	85078016	58746616	33184
984	8.56171	116830208	85078016	63908496	33184
985	15.805502	118722560	87175168	56181464	33184
986	13.053237	118722560	87175168	63919552	33184
987	24.815203	118992896	87175168	57144008	33184
988	22.821478	118992896	87175168	26942256	33184
989	18.640036	118992896	87175168	23242984	33184
990	21.449671	118992896	87175168	21335920	33184
991	23.454811	118992896	87175168	20939200	33184
992	25.211603	118992896	87175168	21914640	33184
993	26.957848	118992896	87175168	24102736	33184
994	28.268656	118992896	87175168	27257896	33184
995	30.296752	118992896	87175168	31273056	33184
996	34.159978	118992896	87175168	22352104	33184
997	36.939398	118992896	87175168	32054304	33184
998	38.86241	118992896	87175168	26326456	33184
999	41.21983	118992896	87175168	38505152	33184
1000	42.111143	118992896	87175168	34608016	33184
