x	Duration	RSS	HeapTotal	HeapUsed	External
0	NA	119562240	84553728	42597048	33184
1	0.353955	119562240	84553728	42639056	33184
2	0.347059	119562240	84553728	42706328	33184
3	0.415478	119562240	84553728	42798512	33184
4	0.49627	119562240	84553728	42916944	33184
5	0.598231	119562240	84553728	43063400	33184
6	0.690279	119562240	84553728	43238568	33184
7	0.818463	119562240	84553728	43443752	33184
8	0.91704	119562240	84553728	43680024	33184
9	1.027677	119562240	84553728	43950016	33184
10	1.159719	119562240	84553728	44253912	33184
11	1.492097	119562240	84553728	28251352	33184
12	0.547887	119562240	84553728	28626872	33184
13	0.591727	119562240	84553728	29040008	33184
14	0.651703	119562240	84553728	29491912	33184
15	0.700211	119562240	84553728	29983960	33184
16	0.968679	119562240	84553728	30517248	33184
17	0.901946	119562240	84553728	31096544	33184
18	0.966088	119562240	84553728	31718736	33184
19	0.944116	119562240	84553728	32386240	33184
20	1.066011	119562240	84553728	33099896	33184
21	1.066552	119562240	84553728	33861968	33184
22	0.163411	119562240	84553728	34647424	33184
23	0.244277	119562240	84553728	34796880	33184
24	0.314645	119562240	84553728	34998408	33184
25	0.600278	119562240	84553728	35253168	33184
26	0.541094	119562240	84553728	35562960	33184
27	0.614183	119562240	84553728	35929248	33184
28	0.615535	119562240	84553728	36351664	33184
29	0.691653	119562240	84553728	36832296	33184
30	0.768509	119562240	84553728	37373264	33184
31	0.857612	119562240	84553728	37974984	33184
32	0.938547	119562240	84553728	38638424	33184
33	1.023303	119562240	84553728	39364936	33184
34	1.147566	119562240	84553728	40155888	33184
35	1.203231	119562240	84553728	41012208	33184
36	1.293507	119562240	84553728	41935384	33184
37	1.600783	119562240	84553728	42926520	33184
38	1.49733	119562240	84553728	43988720	33184
39	2.879767	119562240	84553728	28877632	33184
40	1.843954	119562240	84553728	30082352	33184
41	1.948713	119562240	84553728	31359872	33184
42	0.236377	119562240	84553728	32714840	33184
43	0.351838	119562240	84553728	32937872	33184
44	0.46084	119562240	84553728	33238520	33184
45	0.587281	119562240	84553728	33619456	33184
46	0.676716	119562240	84553728	34081016	33184
47	0.799269	119562240	84553728	34624560	33184
48	0.900991	119562240	84553728	35251280	33184
49	1.017525	119562240	84553728	35962480	33184
50	1.146167	119562240	84553728	36760440	33184
51	1.255481	119562240	84553728	37645256	33184
52	1.367312	119562240	84553728	38618080	33184
53	1.518403	119562240	84553728	39680376	33184
54	1.625486	119562240	84553728	40834096	33184
55	1.984438	119562240	84553728	42078824	33184
56	1.880589	119562240	84553728	43416512	33184
57	2.064037	119562240	84553728	44848448	33184
58	3.251999	119562240	84553728	30114392	33184
59	2.468312	119562240	84553728	31740392	33184
60	2.735808	119562240	84553728	33464624	33184
61	2.555421	119562240	84553728	35288392	33184
62	0.309862	119562240	84553728	37244856	33184
63	0.460697	119562240	84553728	37546776	33184
64	0.619011	119562240	84553728	37951464	33184
65	0.820678	119562240	84553728	38460240	33184
66	0.891613	119562240	84553728	39074832	33184
67	1.036638	119562240	84553728	39795920	33184
68	1.256737	119562240	84553728	40624752	33184
69	1.337439	119562240	84553728	41562656	33184
70	1.49239	119562240	84553728	42611640	33184
71	1.655869	119562240	84553728	43772072	33184
72	1.808829	119562240	84553728	45045224	33184
73	3.049638	119562240	84553728	30099904	33184
74	2.369896	119562240	84553728	31602024	33184
75	2.284325	119562240	84553728	33220520	33184
76	2.475745	119562240	84553728	34956560	33184
77	2.626264	119562240	84553728	36811368	33184
78	2.792002	119562240	84553728	38788080	33184
79	3.17261	119562240	84553728	40886064	33184
80	3.132548	119562240	84553728	43107280	33184
81	4.290919	119562240	84553728	29340864	33184
82	0.391957	119562240	84553728	31871384	33184
83	0.580752	119562240	84553728	32246808	33184
84	0.827526	119562240	84553728	32751768	33184
85	0.954723	119562240	84553728	33385344	33184
86	1.113173	119562240	84553728	34150416	33184
87	1.302937	119562240	84553728	35047616	33184
88	1.487408	119562240	84553728	36078208	33184
89	1.671751	119562240	84553728	37243576	33184
90	2.071827	119562240	84553728	38545624	33184
91	2.205232	119562240	84553728	39988880	33184
92	2.483435	119562240	84553728	41570568	33184
93	2.659626	119562240	84553728	43296336	33184
94	2.713149	119562240	84553728	45162632	33184
95	3.859029	119562240	84553728	30815736	33184
96	3.107727	119562240	84553728	32973168	33184
97	3.846683	119562240	84553728	35275528	33184
98	3.887121	119562240	84553728	37736264	33184
99	3.651034	119562240	84553728	40337200	33184
100	3.871732	119562240	84553728	43088872	33184
101	5.179801	119562240	84553728	29948792	33184
102	0.462747	119562240	84553728	33093648	33184
103	0.688	119562240	84553728	33552344	33184
104	0.901283	119562240	84553728	34166120	33184
105	1.119167	119562240	84553728	34936344	33184
106	1.335133	119562240	84553728	35864624	33184
107	1.825585	119562240	84553728	36952184	33184
108	1.786898	119562240	84553728	38199408	33184
109	2.013342	119562240	84553728	39607856	33184
110	2.237589	119562240	84553728	41179736	33184
111	2.483306	119562240	84553728	42915384	33184
112	3.204982	119562240	84553728	44825528	33184
113	3.858053	119562240	84553728	30725072	33184
114	3.411792	119562240	84553728	32959224	33184
115	3.400795	119562240	84553728	35362064	33184
116	3.661193	119562240	84553728	37934648	33184
117	3.871137	119562240	84553728	40678480	33184
118	4.107752	119562240	84553728	43596472	33184
119	5.67757	119562240	84553728	30716272	33184
120	4.763762	119562240	84553728	33982944	33184
121	4.924773	119562240	84553728	37427672	33184
122	0.535998	119562240	84553728	41161736	33184
123	0.793435	119562240	84553728	41694048	33184
124	1.048314	119562240	84553728	42406872	33184
125	1.473251	119562240	84553728	43299720	33184
126	1.576157	119562240	84553728	44375272	33184
127	1.815215	119562240	84553728	45634224	33184
128	2.769782	119562240	84553728	30871800	33184
129	2.350723	119562240	84553728	32501088	33184
130	2.605877	119562240	84553728	34318424	33184
131	3.238634	119562240	84553728	36325488	33184
132	3.159024	119562240	84553728	38520624	33184
133	3.416726	119562240	84553728	40906528	33184
134	3.73508	119562240	84553728	43484352	33184
135	4.907676	119562240	84553728	30322168	33184
136	4.39837	119562240	84553728	33287560	33184
137	4.735963	119562240	84553728	36448528	33184
138	4.988436	119562240	84553728	39808432	33184
139	5.280977	119562240	84553728	43366264	33184
140	6.50688	119562240	84553728	31201864	33184
141	6.076243	119562240	84553728	35160040	33184
142	0.615731	119562240	84553728	39471648	33184
143	0.909541	119562240	84553728	40083056	33184
144	1.196631	119562240	84553728	40900512	33184
145	1.669492	119562240	84553728	41925272	33184
146	1.785164	119562240	84553728	43159064	33184
147	2.085	119562240	84553728	44602576	33184
148	2.376606	119562240	84553728	46256992	33184
149	3.678285	119562240	84553728	31886560	33184
150	3.041981	119562240	84553728	33968864	33184
151	3.286876	119562240	84553728	36264544	33184
152	3.777603	119562240	84553728	38776728	33184
153	4.09913	119562240	84553728	41505512	33184
154	4.262386	119562240	84553728	44452624	33184
155	5.667199	119562240	84553728	31615896	33184
156	5.100663	119562240	84553728	35003344	33184
157	5.138009	119562240	84553728	38613512	33184
158	5.656022	119562240	84553728	42447944	33184
159	5.968319	119562240	84553728	46507920	33184
160	6.939073	119562240	84553728	34515688	33184
161	6.497422	119562240	84553728	39027576	33184
162	0.689307	119562240	84553728	43939808	33184
163	1.022121	119562240	84553728	44624824	33184
164	1.542604	119562240	84553728	45540480	33184
165	1.672074	119562240	84553728	46687936	33184
166	2.956466	119562240	84553728	31818144	33184
167	2.387659	119562240	84553728	33433456	33184
168	2.688718	119562240	84553728	35284304	33184
169	3.193602	119562240	84553728	37371824	33184
170	3.524417	119562240	84553728	39698424	33184
171	3.707112	119562240	84553728	42264128	33184
172	4.108469	119562240	84553728	45070216	33184
173	5.542756	119562240	84553728	32061760	33184
174	4.74093	119562240	84553728	35353320	33184
175	5.268905	119562240	84553728	38889576	33184
176	5.437555	119562240	84553728	42669720	33184
177	5.847819	119562240	84553728	46696224	33184
178	6.952687	119562240	84553728	34711568	33184
179	6.689456	119562240	84553728	39236848	33184
180	6.858952	119562240	84553728	44018952	33184
181	8.662243	119562240	84553728	33138864	33184
182	0.765271	119562240	84553728	38637768	33184
183	1.131223	119562240	84553728	39408992	33184
184	1.513154	119562240	84553728	40439496	33184
185	1.855444	119562240	84553728	41730536	33184
186	2.236589	119562240	84553728	43283784	33184
187	2.772788	119562240	84553728	45100016	33184
188	2.99773	119562240	84553728	47180464	33184
189	4.169841	119562240	84553728	33245272	33184
190	3.750271	119562240	84553728	35858904	33184
191	4.310962	119562240	84553728	38740328	33184
192	4.520148	119562240	84553728	41890928	33184
193	4.891985	119562240	84553728	45312632	33184
194	6.340393	119562240	84553728	32973784	33184
195	5.716133	119562240	84553728	36942128	33184
196	6.023579	119562240	84553728	41181576	33184
197	6.816411	119562240	84553728	45696840	33184
198	8.363022	119562240	84553728	34398168	33184
199	7.755506	119562240	84553728	39468856	33184
200	7.707886	119562240	84553728	44819096	33184
201	9.101983	119562240	84553728	34481720	33184
202	0.847574	119562240	84553728	40624776	33184
203	1.243395	119562240	84553728	41469568	33184
204	1.652931	119562240	84553728	42598136	33184
205	2.26276	119562240	84553728	44011848	33184
206	2.468811	119562240	84553728	45716376	33184
207	3.083647	119562240	84553728	47704432	33184
208	4.49443	119562240	84553728	33685928	33184
209	3.717165	119562240	84553728	36252664	33184
210	4.101954	119562240	84553728	39115368	33184
211	4.566518	119562240	84553728	42266704	33184
212	4.981119	119562240	84553728	45711840	33184
213	6.746313	119562240	84553728	33433928	33184
214	5.770289	119562240	84553728	37470048	33184
215	6.407902	119562240	84553728	41803464	33184
216	6.62858	119562240	84553728	46439208	33184
217	8.140207	119562240	84553728	35234144	33184
218	7.495081	119562240	84553728	40468760	33184
219	8.195212	119562240	84553728	46005744	33184
220	9.664352	119562240	84553728	35769824	33184
221	8.92053	119562240	84553728	41915272	33184
222	2.071679	119562240	84553728	32346816	33184
223	1.364862	119562240	84553728	33265216	33184
224	1.805567	119562240	84553728	34491928	33184
225	2.232784	119562240	84553728	36029488	33184
226	2.685122	119562240	84553728	37877360	33184
227	3.337815	119562240	84553728	40037296	33184
228	3.563834	119562240	84553728	42510464	33184
229	4.036996	119562240	84553728	45303864	33184
230	4.74916	119562240	84553728	48413880	33184
231	6.003317	119562240	84553728	35519680	33184
232	5.441083	119562240	84553728	39271168	33184
233	5.830516	119562240	84553728	43348376	33184
234	6.520047	119562240	84553728	47747152	33184
235	7.742446	119562240	84553728	36232304	33184
236	7.444679	119562240	84553728	41280104	33184
237	7.744035	119562240	84553728	46656440	33184
238	9.257055	119562240	84553728	36253672	33184
239	9.010497	119562240	84553728	42294408	33184
240	9.493371	119562240	84553728	48661592	33184
241	10.724029	119562240	84553728	38996264	33184
242	0.993615	119562240	84553728	46315824	33184
243	1.46957	119562240	84553728	47316480	33184
244	1.949891	119562240	84553728	48652984	33184
245	3.407709	119562240	84553728	34018024	33184
246	2.904942	119562240	84553728	36030992	33184
247	3.610291	119562240	84553728	38382728	33184
248	3.86799	119562240	84553728	41076464	33184
249	4.759595	119562240	84553728	44112224	33184
250	5.092606	119562240	84553728	47492880	33184
251	6.451501	119562240	84553728	35066232	33184
252	5.823149	119562240	84553728	39134952	33184
253	6.512667	119562240	84553728	43550832	33184
254	6.82804	119562240	84553728	48314368	33184
255	8.568765	119562240	84553728	37155416	33184
256	7.91333	119562240	84553728	42622616	33184
257	8.372577	119562240	84553728	48437808	33184
258	10.038674	119562240	84553728	38319160	33184
259	9.554557	119562240	84553728	44846408	33184
260	11.2857	119562240	84553728	35922528	33184
261	10.6341	119562240	84553728	43162360	33184
262	1.078656	119562240	84553728	35489504	33184
263	1.59396	119562240	84553728	36563752	33184
264	2.085144	119562240	84553728	38003656	33184
265	2.605031	119562240	84553728	39799968	33184
266	3.193246	119562240	84553728	41963520	33184
267	3.644534	119562240	84553728	44487184	33184
268	4.406993	119562240	84553728	47376080	33184
269	6.140611	119562240	84553728	34556544	33184
270	5.23028	119562240	84553728	38180504	33184
271	6.033383	119562240	84553728	42173560	33184
272	6.297268	119562240	84553728	46536704	33184
273	8.223692	119562240	84553728	35291256	33184
274	7.594703	119562240	84553728	40398320	33184
275	7.890377	119562240	84553728	45879328	33184
276	10.023842	119562240	84553728	35866744	33184
277	9.04134	119562240	84553728	42099208	33184
278	9.770199	119562240	84553728	48712008	33184
279	11.425432	119562240	84553728	39448208	33184
280	10.606921	119562240	84553728	46818976	33184
281	12.726165	119832576	84553728	38564040	33184
282	1.350171	119832576	84553728	47046296	33184
283	1.708908	119832576	84553728	48194272	33184
284	2.241461	119832576	84553728	49727032	33184
285	3.913757	119832576	84553728	35316136	33184
286	3.413155	119832576	84553728	37622928	33184
287	3.914821	119832576	84553728	40322840	33184
288	4.459919	119832576	84553728	43408048	33184
289	5.250427	119832576	84553728	46884232	33184
290	7.12336	119832576	84553728	34819912	33184
291	6.398242	119832576	84553728	39082824	33184
292	6.750195	119832576	84553728	43740408	33184
293	7.347769	119832576	84553728	48793984	33184
294	9.367714	119832576	84553728	38038712	33184
295	8.660684	119832576	84553728	43888536	33184
296	9.018148	119832576	84553728	50137280	33184
297	10.83881	119832576	84553728	40400376	33184
298	10.403149	119832576	84553728	47453896	33184
299	12.415162	119832576	84553728	38867024	33184
300	11.638185	119832576	84553728	46733288	33184
301	13.564097	119832576	84553728	39082592	33184
302	1.22024	119832576	84553728	48128112	33184
303	1.823576	119832576	84553728	49349592	33184
304	3.612217	119832576	84553728	34758464	33184
305	2.98522	119832576	84553728	36800192	33184
306	3.593158	119832576	84553728	39254320	33184
307	4.390092	119832576	84553728	42121408	33184
308	4.775896	119832576	84553728	45402880	33184
309	5.57021	119832576	84553728	49099832	33184
310	7.270891	119832576	84553728	37053128	33184
311	6.754044	119832576	84553728	41586968	33184
312	7.180487	119832576	84553728	46539136	33184
313	9.53989	119832576	84553728	36072136	33184
314	8.633979	119832576	84553728	41866480	33184
315	9.05289	119832576	84553728	48083888	33184
316	11.316413	119832576	84553728	38665472	33184
317	10.72149	119832576	84553728	45732512	33184
318	12.779787	119832576	84553728	37497888	33184
319	11.743712	119832576	84553728	45421968	33184
320	14.332585	119832576	84553728	38085856	33184
321	13.145406	119832576	84553728	46868664	33184
322	1.301184	119832576	84553728	40603448	33184
323	1.973982	119832576	84553728	41898600	33184
324	2.776395	119832576	84553728	43627680	33184
325	3.180718	119832576	84553728	45792032	33184
326	3.807705	119832576	84553728	48393448	33184
327	5.935928	119832576	84553728	35407056	33184
328	5.103782	119832576	84553728	38884872	33184
329	5.975576	119832576	84553728	42804096	33184
330	6.809541	119832576	84553728	47166728	33184
331	9.090544	119832576	84553728	36097632	33184
332	8.050256	119832576	84553728	41345208	33184
333	8.540881	119832576	84553728	47036872	33184
334	10.796743	119832576	84553728	37344328	33184
335	9.842136	119832576	84553728	43929936	33184
336	10.270252	119832576	84553728	50965944	33184
337	12.495837	119832576	84553728	42066736	33184
338	11.884244	119832576	84553728	50003512	33184
339	13.581914	119832576	84553728	42149720	33184
340	13.109826	119832576	84553728	50995256	33184
341	15.070922	119832576	84553728	43928200	33184
342	1.379775	119832576	84553728	38725736	33184
343	2.028287	119832576	84553728	40094848	33184
344	2.913623	119832576	84553728	41925656	33184
345	3.568078	119832576	84553728	44219440	33184
346	4.036202	119832576	84553728	46968008	33184
347	4.692046	119832576	84553728	50178672	33184
348	6.813173	119832576	84553728	37649464	33184
349	6.31438	119832576	84553728	41788296	33184
350	6.751026	119832576	84553728	46394144	33184
351	7.618878	119832576	84553728	51467136	33184
352	9.470253	119832576	84553728	40614216	33184
353	8.758736	119832576	84553728	46624880	33184
354	11.481314	119832576	84553728	37378736	33184
355	10.420735	119832576	84553728	44333272	33184
356	10.92498	119832576	84553728	51759880	33184
357	13.024604	119832576	84553728	43238144	33184
358	12.422456	119832576	84553728	51625120	33184
359	14.79262	119832576	84553728	44097264	33184
360	16.516914	119832576	84553728	38112664	33184
361	14.379793	119832576	84553728	47968344	33184
362	1.681303	119832576	84553728	42909056	33184
363	2.14092	119832576	84553728	44389656	33184
364	2.846673	119832576	84553728	46366064	33184
365	3.700577	119832576	84553728	48839352	33184
366	4.485719	119832576	84553728	51814024	33184
367	6.390448	119832576	84553728	38966320	33184
368	5.904287	119832576	84553728	42938552	33184
369	6.395912	119832576	84553728	47416240	33184
370	8.898706	119832576	84553728	36606496	33184
371	8.316142	119832576	84553728	42089400	33184
372	8.579925	119832576	84553728	48077624	33184
373	11.724792	119832576	84553728	38699144	33184
374	10.460279	119832576	84553728	45704408	33184
375	12.943575	119832576	84553728	37651952	33184
376	11.633086	119832576	84553728	45682552	33184
377	14.635385	119832576	84553728	38658920	33184
378	12.920396	119832576	84553728	47715112	33184
379	15.686223	119832576	84553728	41471552	33184
380	14.62676	119832576	84553728	51554008	33184
381	16.72767	119832576	84553728	45833824	33184
382	1.538321	119832576	84553728	41901088	33184
383	2.287971	119832576	84553728	43455200	33184
384	3.064651	119832576	84553728	45529576	33184
385	3.798723	119832576	84553728	48125496	33184
386	4.48074	119832576	84553728	51244800	33184
387	6.966224	119832576	84553728	38691704	33184
388	6.002817	119832576	84553728	42860080	33184
389	6.950561	119832576	84553728	47554920	33184
390	9.355623	119832576	84553728	37018408	33184
391	8.536123	119832576	84553728	42777224	33184
392	9.010695	119832576	84553728	49065696	33184
393	11.673796	119832576	84553728	39915352	33184
394	10.568606	119832576	84553728	47261776	33184
395	13.417872	119832576	84553728	39452496	33184
396	12.354993	119832576	84553728	47868016	33184
397	15.16752	119832576	84553728	41059352	33184
398	13.834952	119832576	84553728	50550344	33184
399	16.071441	119832576	84553728	44435016	33184
400	17.843238	119832576	84553728	39705192	33184
401	15.95946	119832576	84553728	50816160	33184
402	1.857107	119832576	84553728	46826800	33184
403	2.374116	119832576	84553728	48454576	33184
404	3.144025	119832576	84553728	50627328	33184
405	5.609706	119832576	84553728	37307560	33184
406	4.715766	119832576	84553728	40574272	33184
407	5.471675	119832576	84553728	44396032	33184
408	6.488402	119832576	84553728	48761072	33184
409	9.336411	119832576	84553728	37836320	33184
410	7.889108	119832576	84553728	43305376	33184
411	8.707292	119832576	84553728	49327928	33184
412	11.481427	119832576	84553728	40002320	33184
413	10.487627	119832576	84553728	47147808	33184
414	13.191304	119832576	84553728	39225488	33184
415	12.20992	119832576	84553728	47474208	33184
416	15.060868	119832576	84553728	40620032	33184
417	13.748481	119832576	84553728	49997880	33184
418	16.493471	119832576	84553728	43921464	33184
419	18.04628	119832576	84553728	39255936	33184
420	16.201722	119832576	84553728	50316480	33184
421	19.850713	119832576	84553728	45935888	33184
422	1.693735	119832576	84553728	43227672	33184
423	2.478455	119832576	84553728	44929216	33184
424	3.309998	119832576	84553728	47199904	33184
425	4.397186	119832576	84553728	50041352	33184
426	4.979871	119832576	84553728	53455136	33184
427	7.369148	119832576	84553728	41071272	33184
428	7.138501	119832576	84553728	45632768	33184
429	7.384233	119832576	84553728	50770248	33184
430	10.191171	119832576	84553728	40438232	33184
431	9.120613	119832576	84553728	46733440	33184
432	10.306248	119832576	84553728	53611640	33184
433	12.544767	119832576	84553728	44646896	33184
434	11.615856	119832576	84553728	52682944	33184
435	14.160532	119832576	84553728	45008944	33184
436	15.977294	119832576	84553728	38968920	33184
437	14.398476	119832576	84553728	48759072	33184
438	17.103099	119832576	84553728	43352872	33184
439	18.774241	119832576	84553728	39307256	33184
440	17.151052	119832576	84553728	50863520	33184
441	19.474969	119832576	84553728	46966896	33184
442	1.748057	119832576	84553728	44787248	33184
443	2.614995	119832576	84553728	46562320	33184
444	3.499088	119832576	84553728	48931200	33184
445	4.333668	119832576	84553728	51895360	33184
446	7.199067	119832576	84553728	39364368	33184
447	6.277914	119832576	84553728	43523176	33184
448	6.888087	119832576	84553728	48280976	33184
449	7.980142	119832576	84553728	53639504	33184
450	10.478941	119832576	84553728	43225864	33184
451	9.487791	119832576	84553728	49788576	33184
452	12.367393	119832576	84553728	41131656	33184
453	11.74257	119832576	84553728	48902768	33184
454	14.749901	119832576	84553728	41553736	33184
455	13.011622	119832576	84553728	50541520	33184
456	15.990217	119832576	84553728	44206392	33184
457	17.702938	119832576	84553728	39338528	33184
458	15.950661	119832576	84553728	50160144	33184
459	18.746889	119832576	84553728	45704624	33184
460	20.763982	119832576	84553728	42508752	33184
461	21.891899	119832576	84553728	40346736	33184
462	1.83365	119832576	84553728	54214944	33184
463	4.446959	119832576	84553728	39747656	33184
464	3.591393	119832576	84553728	42214680	33184
465	4.481149	119832576	84553728	45301408	33184
466	5.370075	119832576	84553728	49009872	33184
467	6.30746	119832576	84553728	53340280	33184
468	8.980589	119832576	84553728	42099640	33184
469	8.141526	119832576	84553728	47678368	33184
470	9.185188	119832576	84553728	53883944	33184
471	11.551231	119832576	84553728	44397240	33184
472	11.016683	119832576	84553728	51866960	33184
473	14.033516	119832576	84553728	43915344	33184
474	12.740587	119832576	84553728	52639648	33184
475	15.605965	119832576	84553728	45858824	33184
476	17.75312	119832576	84553728	40629160	33184
477	15.639133	119832576	84553728	51260152	33184
478	18.510428	119832576	84553728	46541760	33184
479	19.950728	119832576	84553728	43144560	33184
480	23.117639	119832576	84553728	40846424	33184
481	19.418871	119832576	84553728	54023120	33184
482	1.901882	119832576	84553728	52170216	33184
483	2.819873	119832576	84553728	54092488	33184
484	5.567963	119832576	84553728	40437792	33184
485	4.672628	119832576	84553728	43647312	33184
486	5.818928	119832576	84553728	47508840	33184
487	6.516149	119832576	84553728	52010968	33184
488	9.634548	119832576	84553728	41139368	33184
489	8.609248	119832576	84553728	46943496	33184
490	9.447068	119832576	84553728	53404992	33184
491	12.609059	119832576	84553728	44314192	33184
492	11.231306	119832576	84553728	52069360	33184
493	14.678727	119832576	84553728	44469040	33184
494	13.386408	119832576	84553728	53536864	33184
495	15.961403	119832576	84553728	47063856	33184
496	18.025638	119832576	84553728	42118920	33184
497	16.7989	119832576	84553728	53160816	33184
498	19.05658	119832576	84553728	48742112	33184
499	20.800649	119832576	84553728	45592128	33184
500	22.213049	119832576	84553728	43526872	33184
501	23.323947	119832576	84553728	42430824	33184
502	2.054322	119832576	84553728	42783784	33184
503	3.061976	119832576	84553728	44779720	33184
504	4.168197	119832576	84553728	47443176	33184
505	4.951422	119832576	84553728	50775920	33184
506	5.901995	119832576	84553728	54778624	33184
507	8.88422	119832576	84553728	43232248	33184
508	7.773095	119832576	84553728	48581032	33184
509	8.938693	119832576	84553728	54606712	33184
510	11.63489	119832576	84553728	45027104	33184
511	11.207397	119832576	84553728	52404856	33184
512	13.968712	119832576	84553728	44462392	33184
513	12.834339	119832576	84553728	53192688	33184
514	16.139503	119832576	84553728	46493488	33184
515	17.549345	119832576	84553728	41410440	33184
516	15.923298	119832576	84553728	52182344	33184
517	18.804889	119832576	84553728	47705368	33184
518	20.421618	119832576	84553728	44555728	33184
519	22.123084	119832576	84553728	42495488	33184
520	20.180097	119832576	84553728	56012056	33184
521	22.98988	119832576	84553728	53768952	33184
522	2.074276	119832576	84553728	53229808	33184
523	3.052545	119832576	84553728	55299352	33184
524	6.031954	119832576	84553728	41840784	33184
525	5.346026	119832576	84553728	45295784	33184
526	6.104522	119832576	84553728	49445984	33184
527	7.099272	119832576	84553728	54294568	33184
528	10.403527	119832576	84553728	43639024	33184
529	9.328403	119832576	84553728	49881360	33184
530	13.499814	119832576	84553728	41281128	33184
531	11.381467	119832576	84553728	48932720	33184
532	14.911036	119832576	84553728	41839976	33184
533	13.371299	119832576	84553728	50887176	33184
534	16.948378	119832576	84553728	44928568	33184
535	15.414037	119832576	84553728	55388696	33184
536	18.366243	119832576	84553728	50275552	33184
537	20.182479	119832576	84553728	46538400	33184
538	21.459692	119832576	84553728	44039288	33184
539	23.172069	119832576	84553728	42589864	33184
540	24.856054	119832576	84553728	42060352	33184
541	25.404833	119832576	84553728	42302008	33184
542	2.146182	119832576	84553728	43928568	33184
543	3.166437	119832576	84553728	46071808	33184
544	4.409123	119832576	84553728	48931544	33184
545	5.341756	119832576	84553728	52509328	33184
546	8.901836	119832576	84553728	41012352	33184
547	7.647335	119832576	84553728	46031512	33184
548	8.70382	119832576	84553728	51770808	33184
549	12.2132	119832576	84553728	42479568	33184
550	10.73656	119832576	84553728	49669112	33184
551	14.568813	119832576	84553728	42110848	33184
552	12.813112	119832576	84553728	50750912	33184
553	16.360031	119832576	84553728	44504928	33184
554	15.264836	119832576	84553728	54605248	33184
555	18.119188	119832576	84553728	49285408	33184
556	19.812958	119832576	84553728	45462136	33184
557	21.556148	119832576	84553728	42902608	33184
558	19.34368	119832576	84553728	55948976	33184
559	22.080656	119832576	84553728	53465096	33184
560	23.701102	119832576	84553728	52022192	33184
561	24.747598	119832576	84553728	51511240	33184
562	2.219064	119832576	84553728	52572144	33184
563	3.261845	119832576	84553728	54817880	33184
564	6.619533	119832576	84553728	41790512	33184
565	5.551128	119832576	84553728	45525056	33184
566	6.739426	119832576	84553728	50010992	33184
567	7.574041	119832576	84553728	55248016	33184
568	10.823778	119832576	84553728	45051752	33184
569	10.079841	119832576	84553728	51805216	33184
570	13.699931	119832576	84553728	43632224	33184
571	12.413248	119832576	84553728	51890144	33184
572	15.822576	119832576	84553728	45221264	33184
573	14.429668	119832576	84553728	55005152	33184
574	17.680019	119832576	84553728	49427000	33184
575	19.548564	119832576	84553728	45368200	33184
576	17.672339	119832576	84553728	57442936	33184
577	20.782999	119832576	84553728	53830280	33184
578	23.264922	119832576	84553728	51456728	33184
579	23.731497	119832576	84553728	50187480	33184
580	24.885592	119832576	84553728	49830304	33184
581	26.245767	119832576	84553728	50360392	33184
582	2.272809	119832576	84553728	52306576	33184
583	3.462923	119832576	84553728	54617736	33184
584	4.772693	119832576	84553728	57701360	33184
585	7.900749	119832576	84553728	45197544	33184
586	7.825268	119832576	84553728	49849944	33184
587	8.065326	119832576	84553728	55262920	33184
588	11.433576	119832576	84553728	45385144	33184
589	10.3904	119832576	84553728	52350232	33184
590	14.022716	119832576	84553728	44436192	33184
591	12.713231	119832576	84553728	52969056	33184
592	16.179561	119832576	84553728	46519432	33184
593	14.990687	119832576	84553728	56623800	33184
594	18.126468	119832576	84553728	51240664	33184
595	20.154449	119832576	84553728	47345688	33184
596	21.565179	119832576	84553728	44778712	33184
597	19.547003	119832576	84553728	58026760	33184
598	23.429258	119832576	84553728	55610480	33184
599	24.482759	119832576	84553728	54324352	33184
600	25.800026	119832576	84553728	53981040	33184
601	26.872714	119832576	84553728	54526304	33184
602	2.35721	119832576	84553728	56550448	33184
603	5.94975	119832576	84553728	42845200	33184
604	4.703506	119832576	84553728	46033608	33184
605	5.891214	119832576	84553728	50013424	33184
606	7.384473	119832576	84553728	54793320	33184
607	10.644006	119832576	84553728	44413952	33184
608	9.697462	119832576	84553728	50796480	33184
609	10.678959	119832576	84553728	57988016	33184
610	14.551965	119832576	84553728	49616360	33184
611	13.16919	119832576	84553728	58416512	33184
612	16.239073	119832576	84553728	51578272	33184
613	18.09326	119832576	84553728	46469432	33184
614	16.627999	119832576	84553728	57690992	33184
615	19.853454	119832576	84553728	53375704	33184
616	21.386607	119832576	84553728	50488656	33184
617	23.234155	119832576	84553728	48789744	33184
618	24.648192	119832576	84553728	48176112	33184
619	26.019735	119832576	84553728	48445944	33184
620	26.957758	119832576	84553728	49464632	33184
621	28.294505	119832576	84553728	51201864	33184
622	2.459215	119832576	84553728	54358640	33184
623	3.60854	119832576	84553728	56818240	33184
624	7.327645	119832576	84553728	44026080	33184
625	6.016753	119832576	84553728	48128560	33184
626	7.237686	119832576	84553728	53059560	33184
627	8.611334	119832576	84553728	58815816	33184
628	12.207247	119832576	84553728	48959296	33184
629	11.040937	119832576	84553728	56371640	33184
630	14.416196	119832576	84553728	48512456	33184
631	13.530473	119832576	84553728	57586344	33184
632	17.079162	119832576	84553728	51220672	33184
633	18.836701	119832576	84553728	46581216	33184
634	17.117283	119832576	84553728	58152168	33184
635	20.747988	119832576	84553728	54219680	33184
636	22.165355	119832576	84553728	51655936	33184
637	23.829504	119832576	84553728	50304880	33184
638	25.225875	119832576	84553728	49961976	33184
639	26.615882	119832576	84553728	50527120	33184
640	27.873292	119832576	84553728	51862792	33184
641	28.588809	119832576	84553728	53822264	33184
642	2.516684	119832576	84553728	57234792	33184
643	6.3488	119832576	84553728	43707432	33184
644	5.07063	119832576	84553728	47085256	33184
645	6.393726	119832576	84553728	51310792	33184
646	7.467198	119832576	84553728	56386640	33184
647	11.270042	119832576	84553728	46266912	33184
648	10.328437	119832576	84553728	53043064	33184
649	14.492796	119832576	84553728	45086936	33184
650	12.859225	119832576	84553728	53568864	33184
651	16.431977	119832576	84553728	47272656	33184
652	14.9699	119832576	84553728	57467504	33184
653	18.884772	119832576	84553728	52382320	33184
654	20.707685	119832576	84553728	48816336	33184
655	22.388545	119832576	84553728	46585264	33184
656	24.246329	119832576	84553728	45566768	33184
657	25.890763	119832576	84553728	45525800	33184
658	27.166911	119832576	84553728	46355568	33184
659	28.268431	119832576	84553728	47936880	33184
660	29.029451	119832576	84553728	50196848	33184
661	29.925615	119832576	84553728	53050872	33184
662	2.582393	119832576	84553728	57205256	33184
663	3.840417	119832576	84553728	59810688	33184
664	7.842183	119832576	84553728	46957896	33184
665	6.480926	119832576	84553728	51305832	33184
666	7.650565	119832576	84553728	56527456	33184
667	11.54306	119832576	84553728	46633600	33184
668	10.438479	119832576	84553728	53605192	33184
669	14.549311	119832576	84553728	45891360	33184
670	12.869831	119832576	84553728	54618880	33184
671	17.414598	119832576	84553728	48551808	33184
672	15.351222	119832576	84553728	59039040	33184
673	19.335503	119832576	84553728	54097144	33184
674	21.048576	119832576	84553728	50713080	33184
675	22.866871	119832576	84553728	48676368	33184
676	24.544561	119832576	84553728	47865952	33184
677	25.803459	119832576	84553728	48033096	33184
678	27.761149	119832576	84553728	49055888	33184
679	28.818759	119832576	84553728	50821464	33184
680	29.636118	119832576	84553728	53233808	33184
681	30.353331	119832576	84553728	56213944	33184
682	5.330636	119832576	84553728	44450312	33184
683	4.073328	119832576	84553728	47129376	33184
684	5.546456	119832576	84553728	50703640	33184
685	6.600131	119832576	84553728	55177192	33184
686	8.125772	119832576	84553728	60546104	33184
687	11.974716	119832576	84553728	50352784	33184
688	10.77378	119832576	84553728	57520920	33184
689	14.78633	119832576	84553728	49589696	33184
690	13.384917	119832576	84553728	58563904	33184
691	17.227904	119832576	84553728	52314608	33184
692	19.290944	119832576	84553728	47821696	33184
693	17.352142	119832576	84553728	59516104	33184
694	21.445788	119832576	84553728	55832728	33184
695	23.521486	119832576	84553728	53577264	33184
696	24.216458	119832576	84553728	52499656	33184
697	26.014659	119832576	84553728	52528904	33184
698	27.575117	119832576	84553728	53461224	33184
699	28.930229	119832576	84553728	55153784	33184
700	29.654492	119832576	84553728	57573376	33184
701	31.892888	119832576	84553728	60550832	33184
702	3.423669	119832576	84553728	50850760	33184
703	4.203054	119832576	84553728	53604224	33184
704	5.440943	119832576	84553728	57276600	33184
705	9.880382	119832576	84553728	46003408	33184
706	8.340461	119832576	84553728	51519360	33184
707	9.660953	119832576	84553728	57959056	33184
708	13.517713	119832576	84553728	49320848	33184
709	12.515282	119832576	84553728	57610864	33184
710	16.726817	119832576	84553728	50846584	33184
711	16.066524	119832576	84553728	61000952	33184
712	18.917745	119832576	84553728	55653080	33184
713	20.956676	119832576	84553728	51960568	33184
714	22.995697	119832576	84553728	49717832	33184
715	24.316865	119832576	84553728	48768752	33184
716	26.184178	119832576	84553728	48902680	33184
717	27.428339	119832576	84553728	49987336	33184
718	29.002426	119832576	84553728	51919200	33184
719	29.771774	119832576	84553728	54514776	33184
720	31.130303	119832576	84553728	57702336	33184
721	31.675819	119832576	84553728	61359464	33184
722	2.811971	119832576	84553728	52294880	33184
723	4.250954	119832576	84553728	55176616	33184
724	5.780473	119832576	84553728	59012832	33184
725	10.053661	119832576	84553728	47798288	33184
726	8.397667	119832576	84553728	53574888	33184
727	9.909376	119832576	84553728	60303376	33184
728	13.611094	119832576	84553728	51760416	33184
729	12.734687	119832576	84553728	60435032	33184
730	16.775762	119832576	84553728	53842200	33184
731	18.958835	119832576	84553728	49098448	33184
732	17.218668	119832576	84553728	60677680	33184
733	20.986799	119832576	84553728	56921144	33184
734	22.699852	119832576	84553728	54646456	33184
735	24.958773	119832576	84553728	53647760	33184
736	25.924175	119832576	84553728	53775632	33184
737	28.16288	119832576	84553728	54900432	33184
738	28.65596	119832576	84553728	56817696	33184
739	30.354261	119832576	84553728	59466824	33184
740	36.099013	119832576	84553728	48846576	33184
741	36.19591	119832576	84553728	56776176	33184
742	2.886699	119832576	84553728	63788880	33184
743	6.912856	119832576	84553728	50501656	33184
744	5.794903	119832576	84553728	54436160	33184
745	7.346996	119832576	84553728	59359152	33184
746	11.713632	119832576	84553728	49537456	33184
747	10.062563	119832576	84553728	56447080	33184
748	11.638698	119832576	84553728	64342336	33184
749	16.035707	119832576	84553728	56862416	33184
750	17.608702	119832576	84553728	51388376	33184
751	16.19112	119832576	84553728	62255720	33184
752	20.013628	119832576	84553728	58019632	33184
753	22.484786	119832576	84553728	55332360	33184
754	24.485057	119832576	84553728	54009216	33184
755	26.774373	119832576	84553728	53882408	33184
756	27.69623	119832576	84553728	54797264	33184
757	28.735705	119832576	85078016	56623952	33184
758	30.118934	119832576	85078016	59188952	33184
759	30.994392	119832576	85078016	62364128	33184
760	37.603349	120373248	85078016	52209552	33184
761	39.217173	122265600	87175168	60717240	33184
762	8.075094	122806272	87699456	52139984	33184
763	7.997491	122806272	87699456	55162728	33184
764	11.938776	122806272	87699456	59195504	33184
765	13.325708	119660544	84553728	19823936	33184
766	9.10225	119660544	84553728	25881352	33184
767	11.249569	119660544	84553728	17235352	33184
768	12.166481	119660544	84553728	25326456	33184
769	14.194918	119660544	84553728	18821440	33184
770	15.113818	119660544	84553728	28942792	33184
771	16.68353	119660544	84553728	23984808	33184
772	19.364544	119660544	84553728	20737296	33184
773	20.796109	119660544	84553728	18910712	33184
774	23.089415	119660544	84553728	18384176	33184
775	24.770027	119660544	84553728	18965632	33184
776	25.741759	119660544	84553728	20484984	33184
777	27.259383	119660544	84553728	22859360	33184
778	28.194539	119660544	84553728	25910368	33184
779	29.252563	119660544	84553728	29562520	33184
780	33.986711	119660544	84553728	19811384	33184
781	36.401669	119660544	84553728	28809224	33184
782	3.101892	119660544	84553728	23233776	33184
783	4.585914	119660544	84553728	26330704	33184
784	6.060408	119660544	84553728	30461624	33184
785	10.72306	119660544	84553728	21854280	33184
786	9.133333	119660544	84553728	28071624	33184
787	10.555914	119660544	84553728	35314608	33184
788	12.573764	119660544	84553728	27437528	33184
789	13.978384	119660544	84553728	36862600	33184
790	15.945376	119660544	84553728	30872096	33184
791	17.827867	119660544	84553728	26729824	33184
792	19.940689	119660544	84553728	24190328	33184
793	22.263038	119660544	84553728	23025744	33184
794	23.956152	119660544	84553728	23078840	33184
795	25.669037	119660544	84553728	24172336	33184
796	27.003098	119660544	84553728	26167816	33184
797	27.927208	119660544	84553728	28959632	33184
798	28.841817	119660544	84553728	32501624	33184
799	30.426763	119660544	84553728	36504368	33184
800	34.648052	119660544	84553728	26933432	33184
801	34.400272	119660544	84553728	33877776	33184
802	3.119823	119660544	84553728	28256064	33184
803	4.878938	119660544	84553728	31426072	33184
804	6.367367	119660544	84553728	35655248	33184
805	10.635172	119660544	84553728	27231728	33184
806	9.328639	119660544	84553728	33582696	33184
807	12.467779	119660544	84553728	25674592	33184
808	12.600663	119660544	84553728	34170704	33184
809	15.046523	119660544	84553728	28186904	33184
810	15.728817	119660544	84553728	38819224	33184
811	17.812581	119660544	84553728	34322264	33184
812	20.147338	119660544	84553728	31514800	33184
813	22.029504	119660544	84553728	30137816	33184
814	24.308625	119660544	84553728	30051720	33184
815	25.649696	119660544	84553728	31087584	33184
816	27.191298	119660544	84553728	33038888	33184
817	28.110254	119660544	84553728	35787504	33184
818	29.312197	119660544	84553728	39217760	33184
819	34.078583	119660544	84553728	29280736	33184
820	35.98665	120201216	85078016	38269264	33184
821	37.701871	120471552	85078016	31560288	33184
822	3.209377	120471552	85078016	43791104	33184
823	5.712994	120471552	85078016	31289400	33184
824	6.628946	120471552	85078016	35625768	33184
825	8.15621	120471552	85078016	41037672	33184
826	10.459118	120471552	85078016	31892944	33184
827	11.428561	120471552	85078016	39488496	33184
828	14.244023	120471552	85078016	32741544	33184
829	14.546397	120471552	85078016	42520256	33184
830	16.990221	120471552	85078016	37527696	33184
831	19.42183	120471552	85078016	34297728	33184
832	21.529765	120471552	85078016	32603664	33184
833	20.71106	120471552	85078016	46746248	33184
834	23.375352	120471552	85078016	45603872	33184
835	24.882009	120471552	85078016	45740760	33184
836	26.798939	120471552	85078016	46903648	33184
837	30.764014	120471552	85078016	34840016	33184
838	31.61536	120471552	85078016	39736024	33184
839	31.866836	120471552	85078016	44994232	33184
840	36.444365	120471552	85078016	36699344	33184
841	38.608985	120471552	85078016	47276920	33184
842	3.328976	120471552	85078016	42882096	33184
843	4.926151	120471552	85078016	46199360	33184
844	10.310059	120471552	85078016	37464744	33184
845	8.288653	120471552	85078016	43002144	33184
846	9.953072	120471552	85078016	49647752	33184
847	13.219912	120471552	85078016	41884360	33184
848	12.995027	120471552	85078016	50765520	33184
849	16.046653	120471552	85078016	44688672	33184
850	17.858896	120471552	85078016	40549976	33184
851	18.614742	120471552	85078016	52788312	33184
852	20.595175	120471552	85078016	49829616	33184
853	22.35086	120471552	85078016	48360192	33184
854	24.475409	120471552	85078016	48226448	33184
855	25.729167	120471552	85078016	49211000	33184
856	27.379308	120471552	85078016	51208960	33184
857	32.024304	120471552	85078016	40122408	33184
858	34.791573	120471552	85078016	47953760	33184
859	32.969203	120471552	85078016	53969656	33184
860	37.128677	120471552	85078016	46263848	33184
861	42.064212	120471552	85078016	57471496	33184
862	5.789515	120471552	85078016	53469568	33184
863	9.86972	120471552	85078016	56897792	33184
864	12.750114	115228672	79835136	20460760	33184
865	10.111369	115228672	79835136	26181960	33184
866	11.534166	115228672	79835136	17407368	33184
867	11.728843	115228672	79835136	25413344	33184
868	14.6729	115228672	79835136	19062248	33184
869	15.43988	115228672	79835136	29362984	33184
870	17.145126	115228672	79835136	24742952	33184
871	19.686833	115228672	79835136	21895104	33184
872	21.830982	115228672	79835136	20662504	33184
873	23.622656	115228672	79835136	20741152	33184
874	26.133348	115228672	79835136	21998768	33184
875	27.351514	115228672	79835136	24184256	33184
876	28.487203	115228672	79835136	27280800	33184
877	29.611814	115228672	79835136	31056216	33184
878	33.69274	115228672	79835136	21450080	33184
879	37.226491	115228672	79835136	30884872	33184
880	38.205699	115228672	79835136	24646744	33184
881	40.372277	115228672	79835136	36338096	33184
882	3.475554	115228672	79835136	33018472	33184
883	5.11516	115228672	79835136	36514184	33184
884	10.336484	115228672	79835136	27924824	33184
885	8.77428	115228672	79835136	33757416	33184
886	12.196746	115228672	79835136	26056656	33184
887	12.032203	115228672	79835136	34230104	33184
888	14.941342	115228672	79835136	28148176	33184
889	15.68886	115228672	79835136	38692952	33184
890	18.122584	115228672	79835136	34334416	33184
891	20.150128	115228672	79835136	31759328	33184
892	22.08869	115228672	79835136	30688504	33184
893	24.074811	115228672	79835136	30958464	33184
894	25.801125	115228672	79835136	32354888	33184
895	27.509469	115228672	79835136	34719720	33184
896	28.498983	115228672	79835136	37929832	33184
897	32.662637	115228672	79835136	28104920	33184
898	35.699063	115228672	79835136	36828984	33184
899	34.696467	115228672	79835136	43786440	33184
900	38.153577	115228672	79835136	36811528	33184
901	41.465783	115228672	79835136	32707384	33184
902	3.607877	115228672	79835136	47323928	33184
903	6.019306	115228672	79835136	34836024	33184
904	7.28742	115228672	79835136	39597424	33184
905	9.20878	115228672	79835136	45558808	33184
906	11.041519	115228672	79835136	36562352	33184
907	12.408035	115228672	79835136	44914896	33184
908	14.993203	115228672	79835136	38402136	33184
909	17.253006	115228672	79835136	33957984	33184
910	17.671397	115228672	79835136	45915376	33184
911	19.902075	115228672	79835136	42845424	33184
912	22.40251	115228672	79835136	41443880	33184
913	23.996209	115228672	79835136	41411208	33184
914	25.979335	115228672	79835136	42585304	33184
915	27.429929	115228672	79835136	44803328	33184
916	29.169753	115228672	79835136	47932080	33184
917	33.081396	115228672	79835136	37586424	33184
918	33.716348	115228672	79835136	44103456	33184
919	37.406393	115228672	79835136	37156144	33184
920	40.375316	115228672	79835136	48743880	33184
921	40.774754	115228672	79835136	44134400	33184
922	3.596161	115228672	79835136	46871728	33184
923	5.400171	115228672	79835136	50518936	33184
924	10.389245	115228672	79835136	41957680	33184
925	9.122014	115228672	79835136	48035160	33184
926	10.670858	115228672	79835136	55332104	33184
927	13.311716	115228672	79835136	48035624	33184
928	16.089609	115228672	79835136	42626040	33184
929	16.218761	115228672	79835136	53611720	33184
930	18.472254	115228672	79835136	49911888	33184
931	20.938361	115228672	79835136	47956088	33184
932	23.216936	115228672	79835136	47455592	33184
933	25.204245	115228672	79835136	48268384	33184
934	26.919835	115228672	79835136	50175712	33184
935	28.915324	115228672	79835136	53113288	33184
936	29.447934	115228672	79835136	56806648	33184
937	34.723006	115228672	79835136	47168208	33184
938	34.495642	115228672	79835136	54152688	33184
939	38.225745	115228672	79835136	47700424	33184
940	41.144739	115769344	80359424	59737496	33184
941	45.891941	116039680	80883712	55393088	33184
942	4.016	116039680	81408000	27314464	33184
943	5.839331	116039680	81408000	31031024	33184
944	10.774542	116580352	81408000	22325952	33184
945	9.601284	116580352	81408000	28535656	33184
946	12.720436	116580352	81408000	21236392	33184
947	12.728884	116580352	81408000	29927456	33184
948	15.405584	116580352	81408000	24040104	33184
949	18.062218	116580352	81408000	20193272	33184
950	18.457478	116580352	81408000	32636928	33184
951	20.876609	116580352	81408000	30122000	33184
952	22.913719	116580352	81408000	29204672	33184
953	25.19371	116580352	81408000	29678480	33184
954	27.290516	116580352	81408000	31343024	33184
955	28.52201	116580352	81408000	34016432	33184
956	32.971904	116580352	81408000	23468976	33184
957	33.21078	116580352	81408000	29819880	33184
958	37.384957	116580352	81408000	22865256	33184
959	39.448104	116580352	81408000	34218088	33184
960	40.712142	116580352	81408000	29571640	33184
961	47.442798	116850688	81408000	30814880	33184
962	3.744603	117121024	81932288	34549152	33184
963	5.652578	117121024	81932288	38339256	33184
964	7.680742	117121024	81932288	43407536	33184
965	11.923658	117121024	81932288	35588184	33184
966	11.387792	117121024	81932288	43179904	33184
967	13.918986	117121024	81932288	36280144	33184
968	15.092607	117121024	81932288	46426856	33184
969	17.277856	117121024	81932288	41638136	33184
970	19.698327	117121024	81932288	38783960	33184
971	22.379303	117121024	81932288	37570056	33184
972	24.311775	117121024	81932288	37790304	33184
973	26.156016	117121024	81932288	39287032	33184
974	27.786229	117121024	81932288	41825192	33184
975	29.228511	117121024	81932288	45268552	33184
976	34.236372	117121024	81932288	35712240	33184
977	36.884666	117121024	81932288	44938000	33184
978	39.028305	117121024	81932288	38804096	33184
979	40.630386	117121024	81932288	50600872	33184
980	41.197618	117121024	81932288	46440728	33184
981	48.751358	117121024	81932288	48140304	33184
982	6.652848	117391360	82456576	52415688	33184
983	10.400138	117391360	82456576	56279552	33184
984	16.614243	117391360	82456576	23233232	33184
985	10.992347	117391360	82456576	29679544	33184
986	13.633061	117391360	82456576	21908224	33184
987	13.719091	117391360	82456576	30940944	33184
988	15.934954	117391360	82456576	25585432	33184
989	18.949538	117391360	82456576	22248384	33184
990	19.212773	117391360	82456576	35187112	33184
991	21.884976	117391360	82456576	33177968	33184
992	24.157012	117391360	82456576	32697344	33184
993	26.213606	117391360	82456576	33558368	33184
994	27.6943	117391360	82456576	35662304	33184
995	32.553591	117391360	82456576	24648440	33184
996	32.674638	117391360	82456576	30598104	33184
997	36.852683	117391360	82456576	23461888	33184
998	39.074963	117391360	82456576	34361456	33184
999	40.977118	117391360	82456576	29731680	33184
1000	48.018271	117391360	82456576	30709264	33184
