x	Duration	RSS	HeapTotal	HeapUsed	External
0	NA	105369600	71446528	14390104	33184
1	0.41523	105369600	71446528	14442368	33184
2	0.340345	105369600	71446528	14510328	33184
3	0.389303	105369600	71446528	14603024	33184
4	0.477163	105369600	71446528	14722128	33184
5	0.572849	105369600	71446528	14869400	33184
6	0.663017	105369600	71446528	15045568	33184
7	0.760324	105369600	71446528	15251784	33184
8	0.887833	105369600	71446528	15489368	33184
9	0.978637	105369600	71446528	15760728	33184
10	1.601911	105369600	71446528	16066184	33184
11	1.226794	105369600	71446528	16406928	33184
12	0.671838	105369600	71446528	16784296	33184
13	0.742124	105369600	71446528	17203264	33184
14	0.757158	105369600	71446528	17657328	33184
15	0.836155	105369600	71446528	18151608	33184
16	0.89951	105369600	71446528	18687312	33184
17	0.960951	105369600	71446528	19267552	33184
18	1.024313	105369600	71446528	19891688	33184
19	1.114527	105369600	71446528	20562008	33184
20	1.262201	105369600	71446528	21278800	33184
21	1.623644	105369600	71446528	22046632	33184
22	0.188414	105369600	71446528	22838448	33184
23	0.268978	105369600	71446528	22988128	33184
24	0.358502	105369600	71446528	23192608	33184
25	0.465343	105369600	71446528	23447752	33184
26	0.548011	105369600	71446528	23757976	33184
27	0.636612	105369600	71446528	24124104	33184
28	0.912942	105369600	71446528	24547168	33184
29	0.82996	105369600	71446528	25028480	33184
30	0.926119	105369600	71446528	25570216	33184
31	1.013405	105369600	71446528	26172672	33184
32	1.256828	105369600	71446528	26837088	33184
33	1.112896	105369600	71446528	27564720	33184
34	1.20232	105369600	71446528	28356608	33184
35	1.502263	105369600	71446528	29214208	33184
36	1.405793	105369600	71446528	30138592	33184
37	2.250517	105369600	71446528	31131024	33184
38	2.46306	105369600	71446528	15882272	33184
39	1.994181	105369600	71446528	17016336	33184
40	1.823094	105369600	71446528	18222520	33184
41	2.298777	105369600	71446528	19520888	33184
42	0.247486	105369600	71446528	20877320	33184
43	0.382662	105369600	71446528	21100560	33184
44	0.482137	105369600	71446528	21401512	33184
45	0.802163	105369600	71446528	21782816	33184
46	0.715837	105369600	71446528	22244880	33184
47	0.832608	105369600	71446528	22788920	33184
48	0.963688	105369600	71446528	23416296	33184
49	1.074093	105369600	71446528	24128200	33184
50	1.188592	105369600	71446528	24926872	33184
51	1.337239	105369600	71446528	25812472	33184
52	1.647246	105369600	71446528	26786392	33184
53	1.574571	105369600	71446528	27849624	33184
54	1.712583	105369600	71446528	29003488	33184
55	1.837371	105369600	71446528	30249464	33184
56	2.967668	105369600	71446528	15468168	33184
57	2.458578	105369600	71446528	16901432	33184
58	2.268515	105369600	71446528	18432336	33184
59	2.38506	105369600	71446528	20059888	33184
60	2.523187	105369600	71446528	21785784	33184
61	2.670415	105369600	71446528	23612056	33184
62	0.333425	105369600	71446528	25570328	33184
63	0.510192	105369600	71446528	25874048	33184
64	0.634581	105369600	71446528	26279032	33184
65	0.779804	105369600	71446528	26788208	33184
66	0.946474	105369600	71446528	27403248	33184
67	1.143254	105369600	71446528	28125208	33184
68	1.254581	105369600	71446528	28954648	33184
69	1.41095	105369600	71446528	29893216	33184
70	1.562103	105369600	71446528	30943016	33184
71	2.63872	105369600	71446528	15844504	33184
72	2.190362	105369600	71446528	17121128	33184
73	2.212851	105369600	71446528	18510864	33184
74	2.37511	105369600	71446528	20013472	33184
75	2.581237	105369600	71446528	21632472	33184
76	3.041985	105369600	71446528	23371040	33184
77	2.716625	105369600	71446528	25227296	33184
78	2.875698	105369600	71446528	27204584	33184
79	3.186797	105369600	71446528	29303960	33184
80	3.461007	105369600	71446528	31525640	33184
81	4.354088	105369600	71446528	17521488	33184
82	0.420575	105369600	71446528	20052080	33184
83	0.634282	105369600	71446528	20427544	33184
84	0.846722	105369600	71446528	20932736	33184
85	1.039255	105369600	71446528	21566624	33184
86	1.240175	105369600	71446528	22331912	33184
87	1.448611	105369600	71446528	23229472	33184
88	1.656503	105369600	71446528	24260928	33184
89	1.853783	105369600	71446528	25426568	33184
90	2.077922	105369600	71446528	26729016	33184
91	2.287143	105369600	71446528	28170744	33184
92	2.523256	105369600	71446528	29752912	33184
93	2.528005	105369600	71446528	31476744	33184
94	3.498316	105369600	71446528	17009336	33184
95	3.158562	105369600	71446528	19020144	33184
96	3.34436	105369600	71446528	21176280	33184
97	3.348786	105369600	71446528	23479472	33184
98	3.561505	105369600	71446528	25932064	33184
99	3.776088	105369600	71446528	28533552	33184
100	3.978524	105369600	71446528	31285664	33184
101	5.153244	105369600	71446528	17873128	33184
102	0.497583	105369600	71446528	21018464	33184
103	0.704195	105369600	71446528	21477264	33184
104	0.927361	105369600	71446528	22093072	33184
105	1.150907	105369600	71446528	22863528	33184
106	1.386272	105369600	71446528	23792128	33184
107	1.662198	105369600	71446528	24879552	33184
108	2.369805	105369600	71446528	26130352	33184
109	2.074145	105369600	71446528	27539136	33184
110	2.300806	105369600	71446528	29111440	33184
111	2.522722	105369600	71446528	30847400	33184
112	3.884406	105369600	71446528	16511784	33184
113	3.107005	105369600	71446528	18588504	33184
114	3.247581	105369600	71446528	20823152	33184
115	3.486737	105369600	71446528	23226560	33184
116	3.923643	105369600	71446528	25799920	33184
117	3.973326	105369600	71446528	28544936	33184
118	4.224997	105369600	71446528	31463784	33184
119	5.164723	105369600	71446528	18238008	33184
120	4.875219	105369600	71446528	21506232	33184
121	4.998144	105369600	71446528	24949680	33184
122	0.575973	105369600	71446528	28684480	33184
123	0.857882	105369600	71446528	29216904	33184
124	1.134295	105369600	71446528	29929088	33184
125	1.395813	105369600	71446528	30822152	33184
126	1.860765	105369600	71446528	31898000	33184
127	2.360221	105369600	71446528	16816312	33184
128	2.1332	105369600	71446528	18260136	33184
129	2.387293	105369600	71446528	19889768	33184
130	2.661891	105369600	71446528	21707712	33184
131	3.149458	105369600	71446528	23713712	33184
132	3.210444	105369600	71446528	25909168	33184
133	3.470269	105369600	71446528	28295432	33184
134	3.748206	105369600	71446528	30873728	33184
135	5.011843	105369600	71446528	17437584	33184
136	4.620557	105369600	71446528	20404624	33184
137	4.850526	105369600	71446528	23566576	33184
138	4.942538	105369600	71446528	26929856	33184
139	5.524127	105369600	71446528	30489136	33184
140	6.25017	105369600	71446528	18066696	33184
141	5.890856	105369600	71446528	22027008	33184
142	0.623359	105369600	71446528	26338192	33184
143	0.976239	105369600	71446528	26949816	33184
144	1.219039	105369600	71446528	27767568	33184
145	1.520987	105369600	71446528	28792544	33184
146	2.023732	105369600	71446528	30026504	33184
147	2.118208	105369600	71446528	31470296	33184
148	2.968545	105369600	71446528	16863528	33184
149	2.903968	105369600	71446528	18730632	33184
150	3.378464	105369600	71446528	20812016	33184
151	3.701297	105369600	71446528	23109760	33184
152	4.587113	105369600	71446528	25621824	33184
153	4.226984	105369600	71446528	28359896	33184
154	4.336758	105369600	71446528	31308920	33184
155	5.622489	105369600	71446528	18263288	33184
156	5.191241	105369600	71446528	21651120	33184
157	5.251709	105369600	71446528	25261136	33184
158	5.793852	105369600	71446528	29096192	33184
159	6.643498	105369600	71446528	17281792	33184
160	6.426556	105369600	71446528	21571640	33184
161	6.580569	105369600	71446528	26084232	33184
162	0.696451	105369600	71446528	30996960	33184
163	1.045497	105369600	71446528	31682120	33184
164	1.367087	105369600	71446528	32597880	33184
165	2.642478	105369600	71446528	17493576	33184
166	2.088226	105369600	71446528	18877480	33184
167	2.3799	105369600	71446528	20492880	33184
168	2.707675	105369600	71446528	22344784	33184
169	3.058614	105369600	71446528	24432464	33184
170	3.611748	105369600	71446528	26758944	33184
171	3.739976	105369600	71446528	29325248	33184
172	4.297444	105369600	71446528	32134512	33184
173	5.382371	105369600	71446528	19001208	33184
174	4.796363	105369600	71446528	22291776	33184
175	5.151733	105369600	71446528	25826576	33184
176	5.491874	105369600	71446528	29606712	33184
177	7.493943	105369600	71446528	17798168	33184
178	6.488779	105369600	71446528	22074968	33184
179	6.785789	105369600	71446528	26600328	33184
180	6.94018	105369600	71446528	31380328	33184
181	8.295481	105369600	71446528	20312600	33184
182	0.836198	105369600	71446528	25811640	33184
183	1.148851	105369600	71446528	26582824	33184
184	1.509414	105369600	71446528	27613264	33184
185	1.937376	105369600	71446528	28904336	33184
186	2.310947	105369600	71446528	30457672	33184
187	2.984335	105369600	71446528	32274008	33184
188	3.709613	105369600	71446528	18195672	33184
189	3.492368	105369600	71446528	20541720	33184
190	3.983389	105369600	71446528	23157480	33184
191	4.151282	105369600	71446528	26039816	33184
192	4.557388	105369600	71446528	29191880	33184
193	5.126678	105369600	71446528	32612760	33184
194	6.175196	105369600	71446528	20107744	33184
195	6.348491	105369600	71446528	24076056	33184
196	6.097315	105369600	71446528	28317216	33184
197	6.946615	105369600	71446528	32835304	33184
198	7.751415	105369600	71446528	21415024	33184
199	7.298135	105369600	71446528	26485744	33184
200	7.722159	105369600	71446528	31836248	33184
201	9.036355	105369600	71446528	21388712	33184
202	0.853208	105369600	71446528	27531168	33184
203	1.431465	105369600	71446528	28375976	33184
204	1.698573	105369600	71446528	29504664	33184
205	2.086713	105369600	71446528	30918464	33184
206	2.493487	105369600	71446528	32619104	33184
207	3.670078	105369600	71446528	18447352	33184
208	3.441401	105369600	71446528	20724672	33184
209	3.738776	105369600	71446528	23293072	33184
210	4.144533	105369600	71446528	26152920	33184
211	4.844468	105369600	71446528	29305376	33184
212	4.988909	105369600	71446528	32750584	33184
213	6.356016	105369600	71446528	20327752	33184
214	5.844777	105369600	71446528	24367272	33184
215	6.275187	105369600	71446528	28700864	33184
216	6.96721	105369600	71446528	33332712	33184
217	8.05645	105369600	71446528	22017808	33184
218	7.856295	105369600	71446528	27252368	33184
219	8.285067	105369600	71446528	32793688	33184
220	9.402701	105369600	71446528	22447640	33184
221	9.166018	105369600	71446528	28593032	33184
222	0.989094	105369600	71446528	19691400	33184
223	1.465456	105369600	71446528	20609880	33184
224	1.922	105369600	71446528	21836776	33184
225	2.404615	105369600	71446528	23373248	33184
226	2.850331	105369600	71446528	25221064	33184
227	3.165802	105369600	71446528	27380928	33184
228	4.279178	105369600	71446528	29854000	33184
229	4.388098	105369600	71446528	32655728	33184
230	5.366436	105369600	71446528	19664680	33184
231	5.0038	105369600	71446528	23097176	33184
232	5.818302	105369600	71446528	26848216	33184
233	5.924418	105369600	71446528	30921720	33184
234	7.672076	105369600	71446528	19457392	33184
235	7.078987	105369600	71446528	24179144	33184
236	7.381849	105369600	71446528	29226808	33184
237	7.831161	105369600	71446528	34602072	33184
238	9.199149	105369600	71446528	23944056	33184
239	8.928724	105369600	71446528	29978880	33184
240	10.716772	105369600	71446528	20617688	33184
241	9.849317	105369600	71446528	27315920	33184
242	1.010599	105369600	71446528	34633752	33184
243	2.268978	105369600	71446528	19324056	33184
244	2.078445	105369600	71446528	20660800	33184
245	2.706986	105369600	71446528	22334368	33184
246	2.953437	105369600	71446528	24346688	33184
247	3.428539	105369600	71446528	26698432	33184
248	3.927	105369600	71446528	29390896	33184
249	4.41289	105369600	71446528	32425376	33184
250	5.849916	105369600	71446528	19787776	33184
251	5.637371	105369600	71446528	23510880	33184
252	5.909422	105369600	71446528	27579528	33184
253	6.633813	105369600	71446528	31995040	33184
254	8.185133	105369600	71446528	20799936	33184
255	7.472893	105369600	71446528	25912704	33184
256	8.161663	105369600	71446528	31378488	33184
257	9.494339	105369600	71446528	21337392	33184
258	8.949148	105369600	71446528	27507440	33184
259	9.744611	105369600	71446528	34032792	33184
260	10.975559	105369600	71446528	24695896	33184
261	10.512958	105369600	71446528	31934736	33184
262	1.097876	105369600	71446528	23895880	33184
263	1.604682	105369600	71446528	24970216	33184
264	2.482926	105369600	71446528	26404984	33184
265	2.644254	105369600	71446528	28201296	33184
266	3.166691	105369600	71446528	30362040	33184
267	3.697349	105369600	71446528	32885768	33184
268	5.424504	105369600	71446528	19763304	33184
269	4.842884	105369600	71446528	23018704	33184
270	5.516276	105369600	71446528	26642720	33184
271	5.836862	105369600	71446528	30635768	33184
272	6.381273	105369600	71446528	34999152	33184
273	7.793184	105369600	71446528	23432120	33184
274	7.679404	105369600	71446528	28545520	33184
275	8.228914	105369600	71446528	34026600	33184
276	9.438161	105369600	71446528	23723664	33184
277	9.318042	105369600	71446528	29956864	33184
278	11.137569	105369600	71446528	20936632	33184
279	10.422661	105369600	71446528	27928024	33184
280	10.818707	105369600	71446528	35299664	33184
281	12.554892	105369600	71446528	26704096	33184
282	1.167743	105369600	71446528	35184592	33184
283	2.622111	105369600	71446528	20083280	33184
284	2.397195	105369600	71446528	21616032	33184
285	2.8383	105369600	71446528	23535056	33184
286	3.403232	105369600	71446528	25841920	33184
287	3.957912	105369600	71446528	28537776	33184
288	4.770981	105369600	71446528	31624576	33184
289	5.25686	105369600	71446528	35101288	33184
290	6.593645	105369600	71446528	22735288	33184
291	6.697462	105369600	71446528	26998312	33184
292	6.885404	105369600	71446528	31655928	33184
293	8.85795	105369600	71446528	20923776	33184
294	7.989335	105369600	71446528	26377208	33184
295	9.062275	105369600	71446528	32226248	33184
296	10.415502	105369600	71446528	22611192	33184
297	9.979234	105369600	71446528	29260680	33184
298	12.146704	105369600	71446528	20843208	33184
299	11.531817	105369600	71446528	28306384	33184
300	12.216102	105369600	71446528	36169024	33184
301	13.415209	105369600	71446528	28048480	33184
302	2.384429	105369600	71446528	20777032	33184
303	1.848909	105369600	71446528	21998640	33184
304	2.4442	105369600	71446528	23629784	33184
305	3.022572	105369600	71446528	25671440	33184
306	3.673221	105369600	71446528	28126896	33184
307	4.284448	105369600	71446528	30996584	33184
308	5.063727	105369600	71446528	34278064	33184
309	6.642236	105369600	71446528	21918656	33184
310	6.559249	105369600	71446528	26033680	33184
311	6.910028	105369600	71446528	30566704	33184
312	7.293672	105369600	71446528	35518712	33184
313	9.097425	105369600	71446528	24650024	33184
314	8.967442	105369600	71446528	30446904	33184
315	9.162516	105369600	71446528	36664144	33184
316	10.676952	105369600	71446528	26901272	33184
317	10.772379	105369600	71446528	33972656	33184
318	12.501894	105369600	71446528	25419000	33184
319	11.677281	105369600	71446528	33344016	33184
320	14.322449	105369600	71446528	25738360	33184
321	12.956089	105369600	71446528	34525680	33184
322	1.325486	105369600	71446528	28025576	33184
323	1.947711	105369600	71446528	29320864	33184
324	2.581249	105369600	71446528	31050048	33184
325	3.436308	105369600	71446528	33214456	33184
326	3.864638	105369600	71446528	35815904	33184
327	5.691887	105369600	71446528	22642856	33184
328	5.639933	105369600	71446528	26120800	33184
329	5.86232	105369600	71446528	30039064	33184
330	6.866431	105369600	71446528	34399304	33184
331	8.464357	105369600	71446528	23137392	33184
332	7.844716	105369600	71446528	28384480	33184
333	8.67472	105369600	71446528	34076520	33184
334	10.279929	105369600	71446528	24202568	33184
335	10.006191	105369600	71446528	30787984	33184
336	12.13546	105369600	71446528	22269712	33184
337	11.115541	105369600	71446528	29753720	33184
338	13.837007	105369600	71446528	22308240	33184
339	12.847561	105369600	71446528	30697624	33184
340	14.638271	105369600	71446528	24004664	33184
341	14.048518	105369600	71446528	33304272	33184
342	1.402923	105369600	71446528	27637696	33184
343	2.070839	105369600	71446528	29006608	33184
344	2.74172	105369600	71446528	30833936	33184
345	3.59653	105369600	71446528	33122872	33184
346	4.163877	105369600	71446528	35871464	33184
347	5.879532	105369600	71446528	22942120	33184
348	5.676613	105369600	71446528	26618888	33184
349	6.146242	105369600	71446528	30757992	33184
350	6.831894	105369600	71446528	35363640	33184
351	8.868167	105369600	71446528	24306568	33184
352	8.230524	105369600	71446528	29849784	33184
353	9.152378	105369600	71446528	35860896	33184
354	11.558303	105369600	71446528	26160288	33184
355	10.732338	105369600	71446528	33113920	33184
356	12.741285	105369600	71446528	24744176	33184
357	11.965232	105369600	71446528	32645808	33184
358	14.145139	105369600	71446528	25302936	33184
359	13.60599	105369600	71446528	34181280	33184
360	15.962632	105369600	71446528	27626976	33184
361	15.009804	105369600	71446528	37487784	33184
362	1.482799	105369600	71446528	31940896	33184
363	2.391332	105369600	71446528	33421472	33184
364	3.121278	105369600	71446528	35397808	33184
365	3.609148	105369600	71446528	37871056	33184
366	5.551385	105369600	71446528	24488040	33184
367	5.045785	105369600	71446528	27959752	33184
368	5.793961	105369600	71446528	31932064	33184
369	6.480252	105369600	71446528	36407856	33184
370	8.564644	105369600	71446528	25214584	33184
371	8.179188	105369600	71446528	30698992	33184
372	8.716782	105369600	71446528	36694048	33184
373	10.542597	105369600	71446528	26949256	33184
374	10.407116	105369600	71446528	33959560	33184
375	12.758179	105369600	71446528	25618040	33184
376	11.738399	105369600	71446528	33643192	33184
377	14.050135	105369600	71446528	26362448	33184
378	13.595672	105369600	71446528	35412952	33184
379	15.693968	105369600	71446528	28930424	33184
380	17.292061	105369600	71446528	23823512	33184
381	15.778185	105369600	71446528	34425600	33184
382	1.55735	105369600	71446528	30125776	33184
383	2.302626	105369600	71446528	31679960	33184
384	3.261438	105369600	71446528	33755240	33184
385	3.791722	105369600	71446528	36355048	33184
386	5.844908	105369600	71446528	23392776	33184
387	5.339562	105369600	71446528	27036192	33184
388	6.086447	105369600	71446528	31204728	33184
389	7.072994	105369600	71446528	35903736	33184
390	9.126006	105369600	71446528	25056624	33184
391	8.369713	105369600	71446528	30814048	33184
392	9.490481	105369600	71446528	37097392	33184
393	11.321557	105369600	71446528	27681088	33184
394	10.916788	105369600	71446528	35074816	33184
395	12.97017	105369600	71446528	26986232	33184
396	12.502213	105369600	71446528	35401736	33184
397	14.60186	105369600	71446528	28370240	33184
398	14.051016	105369600	71446528	37861072	33184
399	16.089444	105369600	71446528	31598320	33184
400	17.341703	105369600	71446528	26669440	33184
401	16.954836	105369600	71446528	37780456	33184
402	1.636957	105369600	71446528	33650144	33184
403	2.654111	105369600	71446528	35278064	33184
404	3.199118	105369600	71446528	37456200	33184
405	5.239474	105369600	71446528	24001616	33184
406	5.014359	105369600	71446528	27277840	33184
407	5.593288	105369600	71446528	31093112	33184
408	6.387816	105369600	71446528	35460808	33184
409	8.854483	105369600	71446528	24424528	33184
410	8.125724	105369600	71446528	29898312	33184
411	9.040119	105369600	71446528	35921072	33184
412	11.279632	105369600	71446528	26483024	33184
413	10.529403	105369600	71446528	33617256	33184
414	13.186676	105369600	71446528	25619000	33184
415	12.523689	105369600	71446528	33867440	33184
416	14.763434	105369600	71446528	26951368	33184
417	13.942182	105369600	71446528	36327888	33184
418	16.338459	105369600	71446528	30220320	33184
419	17.64989	105369600	71446528	25512304	33184
420	16.440081	105369600	71446528	36579872	33184
421	18.760396	105369600	71446528	32115272	33184
422	2.091944	105369600	71446528	29401280	33184
423	2.545196	105369600	71446528	31102856	33184
424	3.34522	105369600	71446528	33373688	33184
425	4.227824	105369600	71446528	36215144	33184
426	6.75326	105369600	71446528	23680680	33184
427	6.091507	105369600	71446528	27667520	33184
428	6.680346	105369600	71446528	32228680	33184
429	7.780365	105369600	71446528	37366560	33184
430	9.748214	105369600	71446528	26954728	33184
431	9.501428	105369600	71446528	33248240	33184
432	12.129503	105369600	71446528	24570216	33184
433	11.004312	105369600	71446528	32022464	33184
434	13.983585	105369600	71446528	24667976	33184
435	12.917479	105369600	71446528	33289064	33184
436	15.321342	105369600	71446528	26944728	33184
437	14.800986	105369600	71446528	36731408	33184
438	16.861691	105369600	71446528	31069752	33184
439	18.501742	105369600	71446528	26796568	33184
440	17.202668	105369600	71446528	38348288	33184
441	19.344636	105369600	71446528	34262792	33184
442	1.795535	105369600	71446528	31877392	33184
443	2.645021	105369600	71446528	33652512	33184
444	3.503876	105369600	71446528	36022928	33184
445	4.62418	105369600	71446528	38987120	33184
446	6.859132	105369600	71446528	26302472	33184
447	6.692385	105369600	71446528	30461288	33184
448	7.216781	105369600	71446528	35222064	33184
449	9.676231	105369600	71446528	24829368	33184
450	8.777169	105369600	71446528	30789328	33184
451	9.883766	105369600	71446528	37352104	33184
452	12.216184	105369600	71446528	28452680	33184
453	11.582247	105369600	71446528	36226688	33184
454	14.061855	105369600	71446528	28708096	33184
455	13.787284	105369600	71446528	37693584	33184
456	15.989089	105369600	71446528	31185000	33184
457	17.98781	105369600	71446528	26202944	33184
458	16.377476	105369600	71446528	37019136	33184
459	18.403096	105369600	71446528	32461688	33184
460	20.209867	105369600	71446528	29148880	33184
461	21.579441	105369600	71446528	26866104	33184
462	3.254951	105369600	71446528	24510360	33184
463	2.77802	105369600	71446528	26359136	33184
464	3.662196	105369600	71446528	28829744	33184
465	4.805319	105369600	71446528	31916592	33184
466	5.485481	105369600	71446528	35631320	33184
467	6.766978	105369600	71446528	39962208	33184
468	8.690294	105369600	71446528	28628568	33184
469	8.467314	105369600	71446528	34216408	33184
470	9.364528	105369600	71446528	40422576	33184
471	11.605508	105369600	71446528	30872416	33184
472	11.248292	105369600	71446528	38335368	33184
473	13.732025	105369600	71446528	30301960	33184
474	13.122723	105369600	71446528	39022744	33184
475	15.523027	105369600	71446528	32160520	33184
476	17.213566	105369600	71446528	26868512	33184
477	16.124926	105369600	71446528	37488872	33184
478	18.775384	105369600	71446528	32762888	33184
479	20.1748	105369600	71446528	29322536	33184
480	22.55781	105369600	71446528	26998800	33184
481	20.195492	105369600	71446528	40176544	33184
482	1.944222	105369600	71446528	38281336	33184
483	2.874587	105369600	71446528	40203704	33184
484	5.501699	105369600	71446528	26551184	33184
485	4.774767	105369600	71446528	29763296	33184
486	6.806852	105369600	71446528	33628424	33184
487	6.733089	105369600	71446528	38134384	33184
488	9.282373	105369600	71446528	27238288	33184
489	8.864252	105369600	71446528	33037688	33184
490	9.89848	105369600	71446528	39495952	33184
491	12.116476	105369600	71446528	30399304	33184
492	12.161305	105369600	71446528	38154440	33184
493	14.422339	105369600	71446528	30526768	33184
494	13.627713	105369600	71446528	39595024	33184
495	16.002635	105369600	71446528	33108592	33184
496	18.416815	105369600	71446528	28146016	33184
497	16.56808	105369600	71446528	39195000	33184
498	19.610447	105369600	71446528	34740328	33184
499	21.028335	105369600	71446528	31581184	33184
500	22.032236	105369600	71446528	29512728	33184
501	23.744332	105369600	71446528	28402160	33184
502	2.039708	105369600	71446528	28754976	33184
503	3.375012	105369600	71446528	30756352	33184
504	4.263101	105369600	71446528	33419840	33184
505	5.260002	105369600	71446528	36752616	33184
506	6.370904	105369600	71446528	40755488	33184
507	8.83015	105369600	71446528	29294688	33184
508	8.160192	105369600	71446528	34641344	33184
509	8.923455	105369600	71446528	40661392	33184
510	11.789956	105369600	71446528	31165720	33184
511	11.001724	105369600	71446528	38538096	33184
512	14.046152	105369600	71446528	30580744	33184
513	13.244241	105369600	71446528	39313904	33184
514	15.928819	105369600	71446528	32606008	33184
515	18.107062	105369600	71446528	27511048	33184
516	16.2192	105369600	71446528	38284376	33184
517	19.322764	105369600	71446528	33808400	33184
518	20.507765	105369600	71446528	30635968	33184
519	22.27217	105369600	71446528	28573424	33184
520	20.913678	105369600	71446528	42098768	33184
521	23.412135	105369600	71446528	39863216	33184
522	2.158228	105369600	71446528	39311056	33184
523	3.153813	105369600	71446528	41380688	33184
524	5.929439	105369600	71446528	27909608	33184
525	5.2056	105369600	71446528	31364696	33184
526	6.183979	105369600	71446528	35522160	33184
527	7.200841	105369600	71446528	40372680	33184
528	10.15771	105369600	71446528	29712040	33184
529	9.527326	105369600	71446528	35964416	33184
530	12.670539	105369600	71446528	27354816	33184
531	11.449705	105369600	71446528	34999760	33184
532	14.996163	105369600	71446528	27910656	33184
533	13.910076	105369600	71446528	36958016	33184
534	16.712596	105369600	71446528	30990800	33184
535	15.766123	105369600	71446528	41448912	33184
536	19.061289	105369600	71446528	36332280	33184
537	20.026381	105369600	71446528	32591064	33184
538	21.955886	105369600	71446528	30091808	33184
539	23.424271	105369600	71446528	28642088	33184
540	24.762954	105369600	71446528	28112432	33184
541	26.15492	105369600	71446528	28353952	33184
542	2.191276	105369600	71446528	29980512	33184
543	3.263113	105369600	71446528	32123784	33184
544	4.271216	105369600	71446528	34983552	33184
545	5.642118	105369600	71446528	38561368	33184
546	8.846556	105369600	71446528	27063776	33184
547	7.493722	105369600	71446528	32083616	33184
548	8.556655	105369600	71446528	37822944	33184
549	12.131653	105369600	71446528	28530576	33184
550	10.965012	105369600	71446528	35720608	33184
551	14.164769	105369600	71446528	28157688	33184
552	13.181896	105369600	71446528	36801944	33184
553	16.371373	105369600	71446528	30555272	33184
554	15.278745	105369600	71446528	40655992	33184
555	18.136413	105369600	71446528	35335832	33184
556	19.779877	105369600	71446528	31512120	33184
557	21.933615	105369600	71446528	28952352	33184
558	19.961698	105369600	71446528	41998968	33184
559	22.898874	105369600	71446528	39514944	33184
560	23.961754	105369600	71446528	38071720	33184
561	25.13595	105369600	71446528	37560624	33184
562	2.291601	105369600	71446528	38621384	33184
563	3.350505	105369600	71446528	40867152	33184
564	6.38989	105369600	71446528	27839480	33184
565	5.611914	105369600	71446528	31573848	33184
566	6.875465	105369600	71446528	36060360	33184
567	7.981756	105369600	71446528	41297416	33184
568	10.9033	105369600	71446528	31100104	33184
569	10.020732	105369600	71446528	37854328	33184
570	13.526141	105369600	71446528	29680344	33184
571	12.484276	105369600	71446528	37938616	33184
572	15.814496	105369600	71446528	31269416	33184
573	14.708925	105369600	71446528	41053336	33184
574	17.838608	105369600	71446528	35474864	33184
575	19.388604	105369600	71446528	31415744	33184
576	18.539465	105369600	71446528	43490512	33184
577	20.827414	105369600	71446528	39877712	33184
578	22.730359	105369600	71446528	37495008	33184
579	24.317046	105369600	71446528	36225616	33184
580	25.479922	105369600	71446528	35868472	33184
581	26.63501	105369600	71446528	36398712	33184
582	2.338298	105369600	71446528	38344808	33184
583	3.450272	105369600	71446528	40656000	33184
584	4.650282	105369600	71446528	43739656	33184
585	7.724022	105369600	71446528	31235872	33184
586	7.106381	105369600	71446528	35873104	33184
587	8.452478	105369600	71446528	41286112	33184
588	11.396912	105369600	71446528	31394864	33184
589	10.637232	105369600	71446528	38365616	33184
590	14.173766	105369600	71446528	30444272	33184
591	12.994576	105369600	71446528	38978744	33184
592	16.001283	105369600	71446528	32529152	33184
593	15.666023	105369600	71446528	42633552	33184
594	19.362683	105369600	71446528	37267560	33184
595	19.906524	105369600	71446528	33371448	33184
596	22.109188	105369600	71446528	30803808	33184
597	19.89661	105369600	71446528	44053720	33184
598	22.978593	105369600	71446528	41636824	33184
599	24.23014	105369600	71446528	40346752	33184
600	25.781794	105369600	71446528	39999504	33184
601	26.808365	105369600	71446528	40544800	33184
602	2.415919	105369600	71446528	42568976	33184
603	5.55294	105369600	71446528	28863760	33184
604	4.988601	105369600	71446528	32052200	33184
605	6.02316	105369600	71446528	36032048	33184
606	7.372104	105369600	71446528	40811976	33184
607	10.782909	105369600	71446528	30432760	33184
608	9.948098	105369600	71446528	36815200	33184
609	10.697853	105369600	71446528	44006768	33184
610	14.089388	105369600	71446528	35635144	33184
611	13.342475	105369600	71446528	44435328	33184
612	16.749051	105369600	71446528	37597120	33184
613	18.126795	105369600	71446528	32488312	33184
614	17.038479	105369600	71446528	43709904	33184
615	20.041018	105369600	71446528	39394648	33184
616	21.712389	105369600	71446528	36507632	33184
617	23.848759	105369600	71446528	34808752	33184
618	25.058067	105369600	71446528	34195152	33184
619	26.091737	105369600	71446528	34465016	33184
620	27.516035	105369600	71446528	35483736	33184
621	28.686859	105369600	71446528	37221000	33184
622	2.545717	105369600	71446528	40377808	33184
623	3.837764	105369600	71446528	42837440	33184
624	7.408651	105369600	71446528	30045456	33184
625	6.351835	105369600	71446528	34148040	33184
626	7.568374	105369600	71446528	39078856	33184
627	8.590542	105369600	71446528	44835144	33184
628	11.741934	105369600	71446528	34978656	33184
629	11.297443	105369600	71446528	42391032	33184
630	14.620967	105369600	71446528	34531664	33184
631	13.59408	105369600	71446528	43605800	33184
632	16.9384	105369600	71446528	37240160	33184
633	18.784697	105369600	71446528	32600736	33184
634	17.496409	105369600	71446528	44171720	33184
635	20.564587	105369600	71446528	40239264	33184
636	22.488034	105369600	71446528	37675552	33184
637	23.813297	105369600	71446528	36324528	33184
638	25.229508	105369600	71446528	35981672	33184
639	26.721891	105369600	71446528	36546832	33184
640	27.744278	105369600	71446528	37882536	33184
641	29.360489	105369600	71446528	39842040	33184
642	2.580871	105369600	71446528	43254600	33184
643	5.952819	105369600	71446528	29727344	33184
644	5.190911	105369600	71446528	33105128	33184
645	6.378727	105369600	71446528	37330696	33184
646	8.032458	105369600	71446528	42406576	33184
647	11.491397	105369600	71446528	32286880	33184
648	11.420178	105369600	71446528	39063064	33184
649	14.650057	105369600	71446528	31106968	33184
650	12.933568	105369600	71446528	39588928	33184
651	16.67515	105369600	71446528	33292888	33184
652	15.744534	105369600	71446528	43487632	33184
653	19.229352	105369600	71446528	38402480	33184
654	20.560745	105369600	71446528	34836648	33184
655	22.736197	105369600	71446528	32605488	33184
656	24.089824	105369600	71446528	31587144	33184
657	25.635434	105369600	71446528	31546160	33184
658	27.084741	105369600	71446528	32375888	33184
659	28.514234	105369600	71446528	33957232	33184
660	29.970718	105369600	71446528	36217232	33184
661	30.319956	105369600	71446528	39071288	33184
662	2.660298	105369600	71446528	43225704	33184
663	3.97632	105369600	71446528	45831168	33184
664	7.566932	105369600	71446528	32978408	33184
665	6.583434	105369600	71446528	37326376	33184
666	8.087825	105369600	71446528	42548032	33184
667	11.740947	105369600	71446528	32654208	33184
668	10.716128	105369600	71446528	39625832	33184
669	14.6423	105369600	71446528	31912168	33184
670	13.362841	105369600	71446528	40639832	33184
671	17.027564	105369600	71970816	34572640	33184
672	16.174857	105369600	71970816	45060024	33184
673	19.142737	105369600	71970816	40117944	33184
674	21.36039	105369600	71970816	36734160	33184
675	23.757945	105369600	71970816	34697232	33184
676	24.904773	105639936	71970816	33886848	33184
677	26.527243	105639936	71970816	34054232	33184
678	28.186674	105639936	71970816	35076848	33184
679	29.231631	105639936	71970816	36842608	33184
680	30.154122	105639936	71970816	39254832	33184
681	31.020388	105639936	71970816	42235000	33184
682	5.015016	105639936	71970816	30471456	33184
683	4.220915	105639936	71970816	33150496	33184
684	5.510984	105639936	71970816	36724792	33184
685	6.937636	105639936	71970816	41198376	33184
686	8.253192	105639936	71970816	46567320	33184
687	11.765545	105910272	71970816	36374032	33184
688	10.776753	105910272	71970816	43542200	33184
689	15.12122	105910272	71970816	35611008	33184
690	13.553321	105910272	71970816	44585248	33184
691	17.502936	105910272	71970816	38335984	33184
692	19.760617	105910272	71970816	33843224	33184
693	17.889072	105910272	71970816	45537544	33184
694	21.28512	105910272	71970816	41854200	33184
695	23.566867	105910272	71970816	39598768	33184
696	25.067342	105910272	71970816	38528208	33184
697	26.672051	105910272	72495104	38550472	33184
698	28.20579	105910272	72495104	39482824	33184
699	29.107606	105910272	72495104	41175416	33184
700	30.702786	105910272	72495104	43595040	33184
701	31.51866	105910272	72495104	46572528	33184
702	2.806753	106180608	72495104	36872488	33184
703	4.166295	106180608	72495104	39625984	33184
704	5.963402	106180608	72495104	43298392	33184
705	10.13934	106180608	72495104	32025352	33184
706	8.578129	106180608	72495104	37541464	33184
707	9.914264	106180608	72495104	43981192	33184
708	13.750845	106180608	72495104	35342768	33184
709	12.858904	106180608	72495104	43633160	33184
710	16.572102	106180608	72495104	36868720	33184
711	15.512379	106180608	72495104	47022968	33184
712	19.171547	106180608	72495104	41675376	33184
713	20.985898	106180608	72495104	37983232	33184
714	23.15432	106180608	72495104	35739944	33184
715	25.300533	106450944	72495104	34790896	33184
716	26.909553	106450944	72495104	34924856	33184
717	28.185529	106450944	72495104	36009664	33184
718	29.494224	106450944	72495104	37941440	33184
719	30.152043	106450944	73019392	40537048	33184
720	31.487065	106450944	73019392	43724640	33184
721	32.140824	106450944	73019392	47381800	33184
722	2.900091	106450944	73019392	38317248	33184
723	4.387794	106450944	73019392	41199016	33184
724	5.954454	106450944	73019392	45035264	33184
725	10.015817	106721280	73019392	33820752	33184
726	8.767579	106721280	73019392	39597384	33184
727	10.209648	106721280	73019392	46325904	33184
728	13.750684	106721280	73019392	37782976	33184
729	13.188323	106721280	73019392	46457624	33184
730	17.17489	106721280	73019392	39864824	33184
731	19.054651	106721280	73019392	35121216	33184
732	17.667004	106721280	73019392	46700368	33184
733	21.235771	106721280	73019392	42943864	33184
734	23.30779	106721280	73019392	40669208	33184
735	25.278511	106721280	73019392	39670544	33184
736	26.439058	106721280	73019392	39798448	33184
737	28.166338	106721280	73019392	40923280	33184
738	28.975476	106991616	73019392	42840576	33184
739	30.521494	106991616	73019392	45489736	33184
740	36.923002	106991616	73019392	34869584	33184
741	37.125186	106991616	73019392	42799216	33184
742	2.963516	106991616	73019392	49811952	33184
743	6.858043	106991616	73019392	36524832	33184
744	6.10636	106991616	73019392	40459512	33184
745	7.595051	106991616	73019392	45382320	33184
746	11.744876	106991616	73019392	35560656	33184
747	10.518463	106991616	73019392	42470312	33184
748	11.945643	106991616	73019392	50365600	33184
749	16.08419	106991616	73543680	42885712	33184
750	18.611982	106991616	73543680	37411704	33184
751	16.399013	106991616	73543680	48279080	33184
752	20.317136	106991616	73543680	44043024	33184
753	22.455897	106991616	73543680	41355784	33184
754	24.117384	106991616	73543680	40032672	33184
755	26.39059	106991616	73543680	39905896	33184
756	27.609274	106991616	73543680	40820920	33184
757	29.597433	107261952	73543680	42647504	33184
758	30.367909	107261952	73543680	45212536	33184
759	31.537957	107261952	73543680	48387744	33184
760	38.10502	107532288	73543680	38233264	33184
761	37.494116	107532288	73543680	46740984	33184
762	5.596146	107532288	73543680	38162752	33184
763	4.592855	107532288	73543680	41185432	33184
764	6.521243	107532288	73543680	45218248	33184
765	7.746972	107532288	73543680	50261960	33184
766	11.866658	107532288	73543680	40350096	33184
767	10.827411	107532288	73543680	47420232	33184
768	15.239866	107532288	73543680	39938560	33184
769	13.845315	107532288	73543680	49052096	33184
770	18.025079	107532288	73543680	43363896	33184
771	20.9425	107532288	73543680	39483848	33184
772	19.075424	107532288	73543680	51659920	33184
773	22.705962	107532288	73543680	48750408	33184
774	24.601265	107532288	73543680	47245184	33184
775	26.386791	107532288	73543680	46904640	33184
776	28.015485	107532288	73543680	47649144	33184
777	29.570998	107532288	73543680	49376368	33184
778	30.603138	107532288	73543680	51882088	33184
779	37.060742	107802624	74067968	41161456	33184
780	38.03228	109965312	76165120	49117816	33184
781	35.849078	109965312	76689408	55207304	33184
782	3.121985	110235648	76689408	48417960	33184
783	4.642242	110235648	76689408	51514440	33184
784	6.624044	110235648	76689408	55645264	33184
785	14.689241	112398336	78786560	47158600	33184
786	10.276811	112398336	78786560	53362352	33184
787	16.561652	112939008	79310848	45388608	33184
788	14.128445	112939008	79310848	53669728	33184
789	21.882464	112939008	79310848	47337808	33184
790	29.404659	110321664	76689408	19545928	33184
791	16.94587	110321664	76689408	30957504	33184
792	18.709727	110321664	76689408	27068896	33184
793	20.795327	110321664	76689408	24729936	33184
794	22.446771	110321664	76689408	23704488	33184
795	24.224774	110321664	76689408	23887920	33184
796	26.295676	110321664	76689408	25121944	33184
797	26.983398	110321664	76689408	27247304	33184
798	28.185498	110321664	76689408	30159552	33184
799	33.355001	110321664	76689408	19717168	33184
800	35.369227	110592000	76689408	28125328	33184
801	37.216901	110592000	76689408	21013256	33184
802	3.262713	110592000	76689408	32740240	33184
803	4.648498	110592000	76689408	35910312	33184
804	7.099704	110592000	76689408	24040496	33184
805	7.993726	110592000	76689408	29329752	33184
806	9.476102	110592000	76689408	35680728	33184
807	11.436842	110592000	76689408	26853168	33184
808	12.353017	110592000	76689408	35330800	33184
809	14.570091	110592000	76689408	28697432	33184
810	16.996415	110592000	76689408	24062536	33184
811	17.450454	110592000	76689408	35739984	33184
812	19.368222	110592000	76689408	32243512	33184
813	21.104512	110592000	76689408	30290936	33184
814	23.187889	110592000	76689408	29651936	33184
815	25.107893	110592000	76689408	30229800	33184
816	26.137261	110592000	76689408	31752376	33184
817	28.089902	110592000	76689408	34188824	33184
818	28.870853	110592000	76689408	37361912	33184
819	33.557132	110592000	76689408	26944584	33184
820	33.013451	110592000	76689408	33290264	33184
821	37.098505	110592000	76689408	26090472	33184
822	3.213259	110592000	76689408	38310160	33184
823	5.575373	110592000	76689408	25783888	33184
824	6.82393	110592000	76689408	30118200	33184
825	8.230151	110592000	76689408	35531696	33184
826	10.431621	110592000	76689408	26277288	33184
827	11.309961	110592000	76689408	33868248	33184
828	13.664979	110592000	76689408	27035688	33184
829	14.943647	110592000	76689408	36802224	33184
830	16.449171	110592000	76689408	31727240	33184
831	19.351298	110592000	76689408	28462632	33184
832	21.113276	110592000	76689408	26748648	33184
833	21.679774	110592000	76689408	40893200	33184
834	23.219536	110592000	76689408	39657184	33184
835	25.256494	110592000	76689408	39693400	33184
836	26.467195	110592000	76689408	40825216	33184
837	30.777017	110592000	76689408	28716088	33184
838	31.027375	110592000	76689408	33590520	33184
839	32.205127	110592000	76689408	38806432	33184
840	36.221881	110592000	76689408	30477816	33184
841	38.594049	110592000	76689408	41029496	33184
842	3.33199	110592000	76689408	36585096	33184
843	5.097117	110592000	76689408	39902432	33184
844	10.436452	110592000	76689408	31179664	33184
845	8.409507	110592000	76689408	36723440	33184
846	9.759621	110592000	76689408	43370800	33184
847	12.732543	110592000	76689408	35590760	33184
848	13.231106	110592000	76689408	44464744	33184
849	15.106013	110592000	76689408	38374600	33184
850	17.891912	110592000	76689408	34232376	33184
851	17.968521	110592000	76689408	46472568	33184
852	20.529756	110592000	76689408	43482312	33184
853	22.610858	110592000	76689408	41994872	33184
854	24.032582	110592000	76689408	41850872	33184
855	25.482979	110592000	76689408	42824336	33184
856	26.904353	110592000	76689408	44783304	33184
857	31.587146	110592000	76689408	33685072	33184
858	33.856719	110592000	76689408	41520096	33184
859	32.664839	110592000	76689408	47509984	33184
860	36.269116	110592000	76689408	39787328	33184
861	39.386703	110592000	76689408	50982744	33184
862	3.476226	110592000	76689408	46959592	33184
863	5.290463	110592000	76689408	50381488	33184
864	7.210158	110592000	76689408	38837000	33184
865	8.545482	110592000	76689408	44547784	33184
866	9.995011	110592000	76689408	51408328	33184
867	12.317573	110592000	76689408	43173552	33184
868	13.864131	110592000	76689408	52330088	33184
869	15.349521	110592000	76689408	46259216	33184
870	18.041837	110592000	76689408	42098168	33184
871	20.164287	110592000	76689408	39690976	33184
872	22.23249	110592000	76689408	38775856	33184
873	24.187749	110592000	76689408	39158136	33184
874	26.734327	110592000	76689408	40631872	33184
875	27.262166	110592000	76689408	43028936	33184
876	28.798063	110592000	76689408	46261640	33184
877	30.029237	110592000	76689408	50186824	33184
878	34.028386	110592000	76689408	40934368	33184
879	37.038378	110592000	76689408	50298424	33184
880	37.953411	110592000	76689408	44190488	33184
881	40.119359	111943680	78262272	55893568	33184
882	3.484295	112754688	79310848	52645056	33184
883	5.191758	112754688	79310848	56143760	33184
884	11.388959	114917376	81408000	47601744	33184
885	9.572608	114917376	81408000	53441072	33184
886	11.454883	114917376	81408000	60448520	33184
887	15.763685	115458048	81932288	52936168	33184
888	17.084344	115458048	81932288	47005592	33184
889	28.89028	115728384	81932288	57530672	33184
890	20.148536	114155520	80359424	28640960	33184
891	19.423902	114155520	80359424	25464544	33184
892	21.47405	114155520	80359424	23931704	33184
893	23.692264	114155520	80359424	23755664	33184
894	25.600423	114155520	80359424	24816056	33184
895	26.965842	114155520	80359424	26880936	33184
896	28.777469	114155520	80359424	29904816	33184
897	33.160294	114155520	80359424	19633416	33184
898	34.938075	114155520	80359424	28367712	33184
899	37.022938	114155520	80359424	21707344	33184
900	38.658882	114425856	80359424	32733408	33184
901	40.089252	114425856	80359424	27983440	33184
902	4.345039	114425856	80359424	26888632	33184
903	5.337448	114425856	80359424	30461000	33184
904	7.199702	114425856	80359424	35222056	33184
905	9.723451	114425856	80359424	25482816	33184
906	10.655111	114425856	80359424	32632232	33184
907	12.804395	114425856	80359424	40977576	33184
908	14.740205	114425856	80359424	34051408	33184
909	16.714305	114425856	80359424	29256192	33184
910	19.740438	114425856	80359424	26343384	33184
911	19.322512	114425856	80359424	39502896	33184
912	21.748511	114425856	80359424	37637968	33184
913	24.001357	114425856	80359424	37167520	33184
914	25.889396	114425856	80359424	38024584	33184
915	27.181701	114425856	80359424	39938760	33184
916	31.529922	114425856	80359424	28658984	33184
917	32.202794	114425856	80359424	34321264	33184
918	33.01479	114425856	80359424	40345056	33184
919	36.859745	114425856	80359424	32686864	33184
920	36.597078	114425856	80359424	41461768	33184
921	40.157002	114425856	80359424	35948664	33184
922	3.830846	114425856	80359424	34308320	33184
923	5.470243	114425856	80359424	37955648	33184
924	10.36718	114425856	80359424	29534320	33184
925	9.14548	114425856	80359424	35611432	33184
926	10.955062	114425856	80359424	42933400	33184
927	13.216763	114425856	80359424	35715712	33184
928	15.78138	114425856	80359424	30225984	33184
929	16.608482	114425856	80359424	41186864	33184
930	18.748065	114425856	80359424	37395816	33184
931	21.874974	114425856	80359424	35368480	33184
932	23.039257	114425856	80359424	34805696	33184
933	25.006755	114425856	80359424	35601728	33184
934	26.385177	114425856	80359424	37473640	33184
935	28.246782	114425856	80359424	40350528	33184
936	30.07365	114425856	80359424	44021624	33184
937	34.003891	114425856	80359424	34403080	33184
938	34.516418	114425856	80359424	41362448	33184
939	38.929227	114425856	80359424	34855000	33184
940	41.567827	114966528	80883712	46912040	33184
941	42.550026	114966528	80883712	42616984	33184
942	3.661508	114966528	80883712	41593904	33184
943	5.906699	114966528	80883712	45313160	33184
944	11.084021	114966528	80883712	36989360	33184
945	9.125063	114966528	80883712	43189192	33184
946	10.957574	114966528	80883712	50649904	33184
947	13.768321	114966528	80883712	43558512	33184
948	15.989358	114966528	80883712	38131464	33184
949	16.878419	114966528	80883712	49330984	33184
950	18.86295	114966528	80883712	45616544	33184
951	21.195046	114966528	80883712	43669496	33184
952	23.841899	114966528	80883712	43255016	33184
953	25.554217	114966528	80883712	44118216	33184
954	27.399598	114966528	80883712	46127456	33184
955	28.342965	114966528	80883712	49112384	33184
956	34.225704	114966528	80883712	39044296	33184
957	35.268331	114966528	80883712	47889608	33184
958	37.627609	114966528	80883712	41390432	33184
959	40.236037	114966528	80883712	52692440	33184
960	41.146905	114966528	80883712	48256832	33184
961	52.086521	115777536	81932288	49445072	33184
962	4.121543	117264384	85078016	26135248	33184
963	6.490415	117264384	85078016	29942192	33184
964	8.439267	117264384	85078016	35018960	33184
965	12.915331	119152640	85078016	26868624	33184
966	11.91692	119152640	85078016	34465816	33184
967	13.939903	119152640	85078016	27567176	33184
968	15.04726	119152640	85078016	37710512	33184
969	17.585512	119152640	85078016	32754768	33184
970	19.585002	119152640	85078016	29747576	33184
971	22.044431	119152640	85078016	28361888	33184
972	24.214388	119152640	85078016	28451296	33184
973	25.784633	119152640	85078016	29803880	33184
974	28.076963	119152640	85078016	32249272	33184
975	29.106367	119152640	85078016	35634296	33184
976	33.681405	119152640	85078016	25931056	33184
977	35.969919	119152640	85078016	35151392	33184
978	38.603222	119152640	85078016	29018256	33184
979	39.715423	119152640	85078016	40737328	33184
980	41.16895	119152640	85078016	36563824	33184
981	47.943939	119152640	85078016	38287304	33184
982	3.929873	119152640	85078016	42531616	33184
983	5.73973	119152640	85078016	46403544	33184
984	7.642406	119152640	85078016	51563096	33184
985	11.967283	119152640	85078016	43822248	33184
986	11.50709	119152640	85078016	51560336	33184
987	14.240434	119152640	85078016	44764136	33184
988	16.844996	119152640	85078016	39951552	33184
989	17.028936	119152640	85078016	51575000	33184
990	19.665796	119152640	85078016	48495776	33184
991	22.101496	119152640	85078016	47036064	33184
992	24.180138	119152640	85078016	47125720	33184
993	26.00571	119152640	85078016	48454256	33184
994	28.033098	119152640	85078016	50897600	33184
995	29.414553	119152640	85078016	54387384	33184
996	33.586371	119152640	85078016	44508072	33184
997	34.094858	119152640	85078016	51427728	33184
998	38.162544	119152640	85078016	44961768	33184
999	40.456421	119152640	85078016	57159944	33184
1000	41.69047	119152640	85078016	52987424	33184
