x	Duration	RSS	HeapTotal	HeapUsed	External
0	NA	106426368	74592256	14403144	33184
1	0.492992	106426368	74592256	14455448	33184
2	0.443508	106426368	74592256	14523424	33184
3	0.501957	106426368	74592256	14616136	33184
4	0.603975	106426368	74592256	14735256	33184
5	0.772966	106426368	74592256	14882544	33184
6	1.465556	106426368	74592256	15058704	33184
7	1.04879	106426368	74592256	15264936	33184
8	2.442653	106426368	74592256	15506320	33184
9	1.231727	106426368	74592256	15777696	33184
10	1.572508	106426368	74592256	16083168	33184
11	0.715151	106426368	74592256	16423944	33184
12	0.668513	106426368	74592256	16802400	33184
13	0.738537	106426368	74592256	17226752	33184
14	0.750553	106426368	74592256	17680848	33184
15	1.194817	106426368	74592256	18175184	33184
16	0.91874	106426368	74592256	18721496	33184
17	0.904024	106426368	74592256	19300664	33184
18	0.960693	106426368	74592256	19923608	33184
19	1.040199	106426368	74592256	20592688	33184
20	1.103194	106426368	74592256	21308088	33184
21	1.176825	106426368	74592256	22071912	33184
22	0.199501	106426368	74592256	22859208	33184
23	0.264687	106426368	74592256	23008904	33184
24	0.343304	106426368	74592256	23210704	33184
25	0.417093	106426368	74592256	23465904	33184
26	0.498168	106426368	74592256	23776144	33184
27	0.583766	106426368	74592256	24142288	33184
28	0.671314	106426368	74592256	24565344	33184
29	0.757124	106426368	74592256	25046920	33184
30	0.83876	106426368	74592256	25588760	33184
31	1.633969	106426368	74592256	26191264	33184
32	1.251343	106426368	74592256	26855664	33184
33	1.142734	106426368	74592256	27583312	33184
34	1.228791	106426368	74592256	28375272	33184
35	1.654955	106426368	74592256	29232824	33184
36	1.410689	106426368	74592256	30157256	33184
37	2.048334	106426368	74592256	31171488	33184
38	2.616372	106426368	74592256	15920544	33184
39	1.838629	106426368	74592256	17055776	33184
40	1.771565	106426368	74592256	18261056	33184
41	2.098621	106426368	74592256	19539368	33184
42	0.250459	106426368	74592256	20894832	33184
43	0.369698	106426368	74592256	21118032	33184
44	0.478553	106426368	74592256	21418856	33184
45	0.600665	106426368	74592256	21799976	33184
46	0.769137	106426368	74592256	22261760	33184
47	0.824683	106426368	74592256	22805544	33184
48	0.946013	106426368	74592256	23432592	33184
49	1.40524	106426368	74592256	24144104	33184
50	1.184104	106426368	74592256	24944272	33184
51	1.399339	106426368	74592256	25830264	33184
52	1.66276	106426368	74592256	26803640	33184
53	1.556086	106426368	74592256	27866344	33184
54	1.689298	106426368	74592256	29019672	33184
55	1.812262	106426368	74592256	30264784	33184
56	2.92164	106426368	74592256	15483680	33184
57	2.244869	106426368	74592256	16916208	33184
58	2.479645	106426368	74592256	18446152	33184
59	2.419902	106426368	74592256	20072824	33184
60	2.490751	106426368	74592256	21797832	33184
61	2.632849	106426368	74592256	23622016	33184
62	0.325859	106426368	74592256	25579992	33184
63	0.505391	106426368	74592256	25883616	33184
64	0.631675	106426368	74592256	26288512	33184
65	0.767101	106426368	74592256	26797528	33184
66	0.924334	106426368	74592256	27412344	33184
67	1.069027	106426368	74592256	28133808	33184
68	1.219798	106426368	74592256	28962928	33184
69	1.379177	106426368	74592256	29902376	33184
70	1.549027	106426368	74592256	30951808	33184
71	2.556416	106426368	74592256	15853776	33184
72	1.862144	106426368	74592256	17127296	33184
73	2.01675	106426368	74592256	18514728	33184
74	2.177426	106426368	74592256	20018704	33184
75	2.35664	106426368	74592256	21637680	33184
76	2.855449	106426368	74592256	23376312	33184
77	2.926087	106426368	74592256	25231728	33184
78	2.868547	106426368	74592256	27208976	33184
79	3.028739	106426368	74592256	29307792	33184
80	3.200768	106426368	74592256	31529432	33184
81	4.429023	106426368	74592256	17526424	33184
82	0.425825	106426368	74592256	20056088	33184
83	0.605886	106426368	74592256	20431568	33184
84	0.767329	106426368	74592256	20936704	33184
85	0.949024	106426368	74592256	21570528	33184
86	1.138165	106426368	74592256	22335976	33184
87	1.561022	106426368	74592256	23233544	33184
88	1.521277	106426368	74592256	24264496	33184
89	1.716366	106426368	74592256	25430080	33184
90	1.90731	106426368	74592256	26732536	33184
91	2.110941	106426368	74592256	28174280	33184
92	2.302041	106426368	74592256	29756480	33184
93	2.722421	106426368	74592256	31480400	33184
94	3.335131	106426368	74592256	17022816	33184
95	2.921243	106426368	74592256	19033704	33184
96	3.498625	106426368	74592256	21192264	33184
97	3.675967	106426368	74592256	23498480	33184
98	3.87169	106426368	74592256	25951024	33184
99	4.00549	106426368	74592256	28552704	33184
100	4.30229	106426368	74592256	31304992	33184
101	4.953126	106426368	74592256	17892536	33184
102	0.469292	106426368	74592256	21039032	33184
103	0.69755	106426368	74592256	21497840	33184
104	0.915817	106426368	74592256	22111808	33184
105	1.141806	106426368	74592256	22882200	33184
106	1.360433	106426368	74592256	23810720	33184
107	1.590915	106426368	74592256	24898072	33184
108	1.81329	106426368	74592256	26145624	33184
109	2.032346	106426368	74592256	27554392	33184
110	2.51045	106426368	74592256	29126680	33184
111	2.513319	106426368	74592256	30863560	33184
112	3.441617	106426368	74592256	16533592	33184
113	3.190172	106426368	74592256	18600768	33184
114	3.455092	106426368	74592256	20836312	33184
115	3.558065	106426368	74592256	23239600	33184
116	3.797816	106426368	74592256	25812808	33184
117	4.161669	106426368	74592256	28557176	33184
118	4.232202	106426368	74592256	31475792	33184
119	5.419427	106426368	74592256	18252800	33184
120	4.696705	106426368	74592256	21520736	33184
121	4.997179	106426368	74592256	24964184	33184
122	0.537501	106426368	74592256	28699008	33184
123	0.810286	106426368	74592256	29231512	33184
124	1.060511	106426368	74592256	29943728	33184
125	1.311096	106426368	74592256	30839064	33184
126	1.583301	106426368	74592256	31914880	33184
127	2.433345	106426368	74592256	16833224	33184
128	2.418812	106426368	74592256	18277032	33184
129	2.640921	106426368	74592256	19908360	33184
130	2.826582	106426368	74592256	21726240	33184
131	3.125872	106426368	74592256	23732312	33184
132	3.550737	106426368	74592256	25927848	33184
133	3.50121	106426368	74592256	28314080	33184
134	3.763896	106426368	74592256	30892352	33184
135	5.505922	106426368	74592256	17456216	33184
136	4.587051	106426368	74592256	20422232	33184
137	4.846212	106426368	74592256	23584608	33184
138	5.079327	106426368	74592256	26945456	33184
139	5.23858	106426368	74592256	30503904	33184
140	6.415125	106426368	74592256	18083744	33184
141	6.081216	106426368	74592256	22042592	33184
142	0.621041	106426368	74592256	26353816	33184
143	0.9173	106426368	74592256	26965360	33184
144	1.214674	106426368	74592256	27783112	33184
145	1.498475	106426368	74592256	28808176	33184
146	1.791322	106426368	74592256	30042168	33184
147	2.147676	106426368	74592256	31486080	33184
148	2.967283	106426368	74592256	16881232	33184
149	2.70311	106426368	74592256	18748240	33184
150	3.002853	106426368	74592256	20830648	33184
151	3.546403	106426368	74592256	23126792	33184
152	3.625094	106426368	74592256	25638896	33184
153	3.930336	106426368	74592256	28368096	33184
154	4.450061	106426368	74592256	31316264	33184
155	5.138791	106426368	74592256	18252544	33184
156	5.227516	106426368	74592256	21640544	33184
157	5.187155	106426368	74592256	25250408	33184
158	5.573238	106426368	74592256	29086384	33184
159	6.943781	106426368	74592256	17200296	33184
160	6.60073	106426368	74592256	21486120	33184
161	6.93299	106426368	74592256	25998656	33184
162	0.712929	106426368	74592256	30913912	33184
163	1.031125	106426368	74592256	31599072	33184
164	1.356523	106426368	74592256	32514912	33184
165	2.24573	106426368	74592256	17296976	33184
166	2.361733	106426368	74592256	18679272	33184
167	2.651772	106426368	74592256	20297376	33184
168	2.696243	106426368	74592256	22148336	33184
169	3.029016	106426368	74592256	24236048	33184
170	3.62856	106426368	74592256	26562648	33184
171	3.758239	106426368	74592256	29128384	33184
172	4.814473	106426368	74592256	31934576	33184
173	5.354469	106426368	74592256	18723296	33184
174	4.740206	106426368	74592256	22014008	33184
175	5.133677	106426368	74592256	25548832	33184
176	5.683875	106426368	74592256	29329344	33184
177	6.632129	106426368	74592256	17464432	33184
178	6.180076	106426368	74592256	21741224	33184
179	6.73926	106426368	74592256	26266568	33184
180	6.925518	106426368	74592256	31046568	33184
181	8.226492	106426368	74592256	19997640	33184
182	0.996439	106426368	74592256	25495296	33184
183	1.138197	106426368	74592256	26266544	33184
184	1.571121	106426368	74592256	27297016	33184
185	1.876169	106426368	74592256	28589824	33184
186	2.246247	106426368	74592256	30144680	33184
187	2.618317	106426368	74592256	31960976	33184
188	3.924854	106426368	74592256	17893776	33184
189	3.597111	106426368	74592256	20242864	33184
190	3.994837	106426368	74592256	22856472	33184
191	4.462767	106426368	74592256	25737912	33184
192	4.507082	106426368	74592256	28888544	33184
193	4.905129	106426368	74592256	32310992	33184
194	6.164089	106426368	74592256	19805080	33184
195	6.235459	106426368	74592256	23770352	33184
196	6.262559	106426368	74592256	28010192	33184
197	6.681954	106426368	74592256	32529368	33184
198	7.871692	106426368	74592256	21095880	33184
199	7.637341	106426368	74592256	26166712	33184
200	8.089165	106426368	74592256	31518600	33184
201	9.056701	106426368	74592256	21045480	33184
202	0.847459	106426368	74592256	27188000	33184
203	1.390378	106426368	74592256	28032792	33184
204	1.656812	106426368	74592256	29163840	33184
205	2.279554	106426368	74592256	30577560	33184
206	2.474291	106426368	74592256	32278856	33184
207	3.629384	106426368	74592256	18126600	33184
208	3.474933	106426368	74592256	20403376	33184
209	3.715575	106426368	74592256	22970296	33184
210	4.107802	106426368	74592256	25829472	33184
211	4.542537	106426368	74592256	28980944	33184
212	5.177996	106426368	74592256	32426056	33184
213	6.325173	106426368	74592256	20000128	33184
214	6.218321	106426368	74592256	24036744	33184
215	6.239879	106426368	74592256	28371240	33184
216	6.856252	106426368	74592256	33003272	33184
217	8.162944	106426368	74592256	21689760	33184
218	7.743694	106426368	74592256	26925448	33184
219	8.040701	106426368	74592256	32462216	33184
220	9.493559	106426368	74592256	22129640	33184
221	9.099211	106426368	74592256	28277040	33184
222	0.993926	106426368	74592256	19374672	33184
223	1.374729	106426368	74592256	20293152	33184
224	1.797181	106426368	74592256	21524968	33184
225	2.248378	106426368	74592256	23061344	33184
226	2.691144	106426368	74592256	24909160	33184
227	3.126385	106426368	74592256	27069192	33184
228	3.818342	106426368	74592256	29542464	33184
229	4.034349	106426368	74592256	32336888	33184
230	5.573815	106426368	74592256	19359520	33184
231	5.037253	106426368	74592256	22790696	33184
232	5.39552	106426368	74592256	26546512	33184
233	6.088017	106426368	74592256	30619864	33184
234	7.551147	106426368	74592256	19155392	33184
235	6.791039	106426368	74592256	23878352	33184
236	7.248234	106426368	74592256	28927208	33184
237	7.860497	106426368	74592256	34305504	33184
238	9.604042	106426368	74592256	23650144	33184
239	9.212715	106426368	74592256	29686392	33184
240	10.407008	106426368	74592256	20321600	33184
241	10.219968	106426368	74592256	27019888	33184
242	0.999944	106426368	74592256	34337448	33184
243	2.253323	106426368	74592256	19028632	33184
244	2.074279	106426368	74592256	20365256	33184
245	2.589659	106426368	74592256	22038832	33184
246	3.082898	106426368	74592256	24051216	33184
247	3.395942	106426368	74592256	26403024	33184
248	3.883992	106426368	74592256	29095688	33184
249	4.610584	106426368	74592256	32130248	33184
250	6.103842	106426368	74592256	19497624	33184
251	5.914543	106426368	74592256	23220704	33184
252	5.862885	106426368	74592256	27292752	33184
253	6.612811	106426368	74592256	31709128	33184
254	8.005889	106426368	74592256	20508616	33184
255	7.798359	106426368	74592256	25622248	33184
256	8.155195	106426368	74592256	31085776	33184
257	9.624519	106426368	74592256	21042472	33184
258	9.326641	106426368	74592256	27215776	33184
259	9.7827	106426368	74592256	33740136	33184
260	11.138978	106426368	74592256	24402872	33184
261	10.760559	106426368	74592256	31639624	33184
262	1.099936	106426368	74592256	23637024	33184
263	1.58876	106426368	74592256	24711360	33184
264	2.111675	106426368	74592256	26146128	33184
265	2.614511	106426368	74592256	27942392	33184
266	3.155723	106426368	74592256	30102096	33184
267	3.916528	106426368	74592256	32625704	33184
268	5.407486	106426368	74592256	19500216	33184
269	4.801908	106426368	74592256	22755576	33184
270	5.256206	106426368	74592256	26380712	33184
271	5.99275	106426368	74592256	30379664	33184
272	6.324309	106426368	74592256	34742872	33184
273	7.870529	106426368	74592256	23172320	33184
274	7.610381	106426368	74592256	28283008	33184
275	7.928246	106426368	74592256	33766544	33184
276	9.961478	106426368	74592256	23452760	33184
277	9.324123	106426368	74592256	29688104	33184
278	11.162541	106426368	74592256	20664152	33184
279	10.740718	106426368	74592256	27656184	33184
280	10.748026	106426368	74592256	35029960	33184
281	12.753777	106426368	74592256	26433800	33184
282	1.164115	106426368	74592256	34914224	33184
283	2.616804	106426368	74592256	19809840	33184
284	2.403078	106426368	74592256	21342728	33184
285	2.992995	106426368	74592256	23261616	33184
286	3.576787	106426368	74592256	25572920	33184
287	4.173507	106426368	74592256	28268344	33184
288	4.934399	106426368	74592256	31353568	33184
289	5.07647	106426368	74592256	34829832	33184
290	6.952668	106426368	74592256	22458496	33184
291	6.190565	106426368	74592256	26721520	33184
292	6.820637	106426368	74592256	31379136	33184
293	8.623934	106426368	74592256	20643896	33184
294	8.418767	106426368	74592256	26098344	33184
295	8.80536	106426368	74592256	31947384	33184
296	10.477724	106426368	74592256	22330544	33184
297	10.297206	106426368	74592256	28980096	33184
298	11.988772	106426368	74592256	20561352	33184
299	11.298722	106426368	74592256	28018264	33184
300	11.771263	106426368	74592256	35881240	33184
301	13.690092	106426368	74592256	27759952	33184
302	2.199831	106426368	74592256	20482328	33184
303	1.911266	106426368	74592256	21703968	33184
304	2.537607	106426368	74592256	23338824	33184
305	3.352507	106426368	74592256	25380416	33184
306	3.659272	106426368	74592256	27834472	33184
307	4.276418	106426368	74592256	30705648	33184
308	5.021655	106426368	74592256	33987552	33184
309	6.837891	106426368	74592256	21618136	33184
310	6.177745	106426368	74592256	25732944	33184
311	6.655279	106426368	74592256	30265992	33184
312	7.452037	106426368	74592256	35218024	33184
313	9.284179	106426368	74592256	24345600	33184
314	8.458096	106426368	74592256	30139920	33184
315	9.067105	106426368	74592256	36360728	33184
316	10.996451	106426368	74592256	26599240	33184
317	10.679888	106426368	74592256	33667888	33184
318	12.455908	106426368	74592256	25114416	33184
319	11.847308	106426368	74592256	33040016	33184
320	13.8087	106426368	74592256	25443208	33184
321	13.364206	106426368	74592256	34230560	33184
322	1.658147	106426368	74592256	27728864	33184
323	2.051836	106426368	74592256	29024192	33184
324	2.70283	106426368	74592256	30753400	33184
325	3.378895	106426368	74592256	32917848	33184
326	4.120938	106426368	74592256	35519144	33184
327	5.626504	106426368	74592256	22343440	33184
328	5.348412	106426368	74592256	25821248	33184
329	5.76291	106426368	74592256	29739728	33184
330	6.395356	106426368	74592256	34100024	33184
331	8.39865	106426368	74592256	22842176	33184
332	8.063876	106426368	74592256	28089320	33184
333	8.561959	106426368	74592256	33782088	33184
334	10.603242	106426368	74592256	23909864	33184
335	10.375254	106426368	74592256	30495280	33184
336	12.131258	106426368	74592256	21975464	33184
337	11.016193	106426368	74592256	29459448	33184
338	14.176491	106426368	74592256	22015856	33184
339	12.569532	106426368	74592256	30405120	33184
340	14.815606	106426368	74592256	23710496	33184
341	13.89092	106426368	74592256	33011904	33184
342	1.403718	106426368	74592256	27344808	33184
343	2.057688	106426368	74592256	28713648	33184
344	2.772123	106426368	74592256	30540976	33184
345	3.390779	106426368	74592256	32829912	33184
346	4.294908	106426368	74592256	35578504	33184
347	6.062422	106426368	74592256	22646352	33184
348	5.720717	106426368	74592256	26320448	33184
349	6.097552	106426368	74592256	30460920	33184
350	6.804802	106426368	74592256	35066664	33184
351	8.904906	106426368	74592256	24006320	33184
352	8.528633	106426368	74592256	29548920	33184
353	9.315528	106426368	74592256	35565216	33184
354	10.808593	106426368	74592256	25862528	33184
355	10.455307	106426368	74592256	32816056	33184
356	12.707626	106426368	74592256	24445744	33184
357	11.640918	106426368	74592256	32348056	33184
358	14.06583	106426368	74592256	25004128	33184
359	13.290868	106426368	74592256	33882936	33184
360	15.141412	106426368	74592256	27327448	33184
361	14.923494	106426368	74592256	37188848	33184
362	1.480632	106426368	74592256	31640688	33184
363	2.196293	106426368	74592256	33121352	33184
364	2.879826	106426368	74592256	35097608	33184
365	3.790729	106426368	74592256	37570920	33184
366	5.611861	106426368	74592256	24187744	33184
367	5.345316	106426368	74592256	27659456	33184
368	5.72839	106426368	74592256	31631768	33184
369	7.205454	106426368	74592256	36107560	33184
370	8.977297	106426368	74592256	24919528	33184
371	7.905565	106426368	74592256	30405768	33184
372	8.826067	106426368	74592256	36400824	33184
373	11.055097	106426368	74592256	26654160	33184
374	10.331171	106426368	74592256	33665152	33184
375	12.53445	106426368	74592256	25322064	33184
376	11.891478	106426368	74592256	33347896	33184
377	14.002935	106426368	74592256	26066560	33184
378	13.518856	106426368	74592256	35117064	33184
379	15.708712	106426368	74592256	28633944	33184
380	16.962902	106426368	74592256	23526104	33184
381	15.542806	106426368	74592256	34128528	33184
382	1.55373	106426368	74592256	29828408	33184
383	2.298957	106426368	74592256	31382592	33184
384	3.021349	106426368	74592256	33457872	33184
385	3.760024	106426368	74592256	36057680	33184
386	6.203757	106426368	74592256	23093064	33184
387	5.541264	106426368	74592256	26736448	33184
388	6.078899	106426368	74592256	30904984	33184
389	7.031545	106426368	74592256	35605600	33184
390	9.154745	106426368	74592256	24755472	33184
391	8.888231	106426368	74592256	30514256	33184
392	9.138338	106426368	74592256	36797600	33184
393	11.554966	106426368	74592256	27379096	33184
394	10.958884	106426368	74592256	34773840	33184
395	12.999566	106426368	74592256	26683744	33184
396	12.507689	106426368	74592256	35099192	33184
397	14.689635	106426368	74592256	28067104	33184
398	13.743262	106426368	74592256	37557952	33184
399	16.164106	106426368	74592256	31295272	33184
400	17.450326	106426368	74592256	26365456	33184
401	16.394065	106426368	74592256	37476720	33184
402	1.630384	106426368	74592256	33345432	33184
403	2.405766	106426368	74592256	34973328	33184
404	3.408361	106426368	74592256	37152264	33184
405	5.415604	106426368	74592256	23695552	33184
406	4.772371	106426368	74592256	26973136	33184
407	5.761981	106426368	74592256	30788408	33184
408	6.327031	106426368	74592256	35156104	33184
409	8.879308	106426368	74592256	24117256	33184
410	8.333722	106426368	74592256	29592248	33184
411	8.939804	106426368	74592256	35615008	33184
412	11.238886	106426368	74592256	26174944	33184
413	10.457342	106426368	74592256	33310008	33184
414	13.666208	106426368	74592256	25310432	33184
415	12.237911	106426368	74592256	33558872	33184
416	14.866506	106426368	74592256	26631720	33184
417	14.022827	106426368	74592256	36001376	33184
418	16.557659	106426368	74592256	29902856	33184
419	18.315319	106426368	74592256	25189400	33184
420	16.829378	106426368	74592256	36257752	33184
421	18.966731	106426368	74592256	31798392	33184
422	1.69675	106426368	74592256	29082640	33184
423	2.52793	106426368	74592256	30784192	33184
424	3.373701	106426368	74592256	33055896	33184
425	4.378588	106426368	74592256	35897280	33184
426	6.638655	106426368	74592256	23362936	33184
427	6.218454	106426368	74592256	27349864	33184
428	6.635056	106426368	74592256	31911240	33184
429	7.520583	106426368	74592256	37047976	33184
430	10.208574	106426368	74592256	26622352	33184
431	9.502836	106426368	74592256	32914800	33184
432	12.035293	106426368	74592256	24239088	33184
433	11.470268	106426368	74592256	31700832	33184
434	13.999844	106426368	74592256	24345328	33184
435	13.214358	106426368	74592256	32970912	33184
436	15.856424	106426368	74592256	26618664	33184
437	14.67686	106426368	74592256	36407584	33184
438	17.239697	106426368	74592256	30755944	33184
439	18.726519	106426368	74592256	26484896	33184
440	17.147485	106426368	74592256	38036784	33184
441	19.510903	106426368	74592256	33950384	33184
442	1.846029	106426368	74592256	31565200	33184
443	2.754194	106426368	74592256	33340320	33184
444	4.032434	106426368	74592256	35710736	33184
445	4.561029	106426368	74592256	38675024	33184
446	7.124679	106426368	74592256	25989808	33184
447	6.30668	106426368	74592256	30148624	33184
448	7.149187	106426368	74592256	34909400	33184
449	9.777758	106426368	74592256	24514184	33184
450	9.294222	106426368	74592256	30474112	33184
451	9.586821	106426368	74592256	37036856	33184
452	12.371191	106426368	74592256	28136640	33184
453	11.373239	106426368	74592256	35911480	33184
454	14.442853	106426368	74592256	28391320	33184
455	13.102182	106426368	74592256	37376376	33184
456	16.08828	106426368	74592256	30868312	33184
457	17.824544	106426368	74592256	25885536	33184
458	16.536281	106426368	74592256	36701856	33184
459	18.630137	106426368	74592256	32144112	33184
460	20.159363	106426368	74592256	28830392	33184
461	21.7468	106426368	74592256	26547424	33184
462	3.458839	106426368	74592256	24188088	33184
463	2.823564	106426368	74592256	26037024	33184
464	3.63069	106426368	74592256	28508408	33184
465	4.957214	106426368	74592256	31595256	33184
466	5.65814	106426368	74592256	35309984	33184
467	6.927635	106426368	74592256	39640888	33184
468	9.171155	106426368	74592256	28309304	33184
469	8.172692	106426368	74592256	33897144	33184
470	9.398781	106426368	74592256	40103312	33184
471	11.927682	106426368	74592256	30629584	33184
472	11.228613	106426368	74592256	38090248	33184
473	13.951882	106426368	74592256	30081904	33184
474	13.212455	106426368	74592256	38805528	33184
475	15.901328	106426368	74592256	31945672	33184
476	17.511538	106426368	74592256	26644552	33184
477	15.974596	106426368	74592256	37266240	33184
478	18.614331	106426368	74592256	32528472	33184
479	20.155249	106426368	74592256	29082384	33184
480	22.314938	106426368	74592256	26754064	33184
481	19.622318	106426368	74592256	39932272	33184
482	1.944183	106426368	74592256	38025848	33184
483	3.106495	106426368	74592256	39948216	33184
484	5.656604	106426368	74592256	26293816	33184
485	4.766908	106426368	74592256	29507040	33184
486	5.83077	106426368	74592256	33362824	33184
487	6.84474	106426368	74592256	37868784	33184
488	9.454736	106426368	74592256	26971376	33184
489	8.836978	106426368	74592256	32771024	33184
490	9.684801	106426368	74592256	39229288	33184
491	12.42886	106426368	74592256	30134224	33184
492	11.779322	106426368	74592256	37889424	33184
493	14.353253	106426368	74592256	30260464	33184
494	13.307618	106426368	74592256	39328648	33184
495	16.417613	106426368	74592256	32843000	33184
496	18.368196	106426368	74592256	27881456	33184
497	16.64539	106426368	74592256	38929328	33184
498	19.356818	106426368	74592256	34474832	33184
499	20.69171	106426368	74592256	31316136	33184
500	22.425278	106426368	74592256	29248128	33184
501	23.364804	106426368	74592256	28137368	33184
502	2.097724	106426368	74592256	28490360	33184
503	3.090467	106426368	74592256	30486328	33184
504	4.255211	106426368	74592256	33149816	33184
505	5.561538	106426368	74592256	36485896	33184
506	6.332301	106426368	74592256	40488768	33184
507	8.874069	106426368	74592256	28942624	33184
508	8.263635	106426368	74592256	34291104	33184
509	8.925626	106426368	74592256	40316816	33184
510	11.973255	106426368	74592256	30737240	33184
511	11.146677	106426368	74592256	38115024	33184
512	13.975559	106426368	74592256	30172592	33184
513	13.415394	106426368	74592256	38902920	33184
514	16.108478	106426368	74592256	32203752	33184
515	17.795327	106426368	74592256	27120856	33184
516	16.528097	106426368	74592256	37892672	33184
517	18.965132	106426368	74592256	33415728	33184
518	21.077663	106426368	74592256	30266240	33184
519	22.57659	106426368	74592256	28206256	33184
520	20.816546	106426368	74592256	41722512	33184
521	23.270723	106426368	74592256	39479440	33184
522	2.086249	106426368	74592256	38940328	33184
523	3.089191	106426368	74592256	41009904	33184
524	6.08998	106426368	74592256	27551368	33184
525	5.161216	106426368	74592256	31006400	33184
526	6.396442	106426368	74592256	35156632	33184
527	7.593951	106426368	74592256	40005248	33184
528	10.187822	106426368	74592256	29349736	33184
529	9.465507	106426368	74592256	35592104	33184
530	12.673113	106426368	74592256	26983448	33184
531	11.652105	106426368	74592256	34634952	33184
532	15.35578	106426368	74592256	27542240	33184
533	13.665274	106426368	74592256	36589744	33184
534	16.882456	106426368	74592256	30637576	33184
535	15.856985	106426368	74592256	41097704	33184
536	18.617733	106426368	74592256	35981688	33184
537	20.301516	106426368	74592256	32240824	33184
538	22.705901	106426368	74592256	29751200	33184
539	23.584856	106426368	74592256	28301752	33184
540	24.863221	106426368	74592256	27772176	33184
541	26.401867	106426368	74592256	28014000	33184
542	2.207921	106426368	74592256	29640456	33184
543	3.233573	106426368	74592256	31783728	33184
544	4.477006	106426368	74592256	34643496	33184
545	5.512239	106426368	74592256	38221312	33184
546	8.672906	106426368	74592256	26724432	33184
547	7.699388	106426368	74592256	31743560	33184
548	8.498513	106426368	74592256	37482888	33184
549	11.792231	106426368	74592256	28191680	33184
550	10.654965	106426368	74592256	35381256	33184
551	14.319251	106426368	74592256	27823024	33184
552	12.970675	106426368	74592256	36463120	33184
553	16.518053	106426368	74592256	30217168	33184
554	15.601073	106426368	74592256	40317520	33184
555	18.793121	106426368	74592256	34997712	33184
556	20.427585	106426368	74592256	31174472	33184
557	21.707678	106426368	74592256	28614976	33184
558	19.715281	106426368	74592256	41661376	33184
559	23.025079	106426368	74592256	39177528	33184
560	24.089698	106426368	74592256	37734656	33184
561	25.640057	106426368	74592256	37223736	33184
562	2.292005	106426368	74592256	38285800	33184
563	3.331826	106426368	74592256	40531568	33184
564	6.736231	106426368	74592256	27504232	33184
565	5.842078	106426368	74592256	31238808	33184
566	6.826531	106426368	74592256	35724776	33184
567	7.897561	106426368	74592256	40961832	33184
568	11.309838	106426368	74592256	30765736	33184
569	10.387498	106426368	74592256	37519096	33184
570	13.797199	106426368	74592256	29346136	33184
571	12.30506	106426368	74592256	37604088	33184
572	16.425372	106426368	74592256	30935240	33184
573	14.833067	106426368	74592256	40719160	33184
574	17.754517	106426368	74592256	35141040	33184
575	19.738732	106426368	74592256	31082272	33184
576	18.024761	106426368	74592256	43157040	33184
577	21.335505	106426368	74592256	39544416	33184
578	22.482038	106426368	74592256	37162064	33184
579	24.135958	106426368	74592256	35892848	33184
580	25.291429	106426368	74592256	35535880	33184
581	26.336788	106426368	74592256	36066296	33184
582	2.307748	106426368	74592256	38012568	33184
583	3.424024	106426368	74592256	40323760	33184
584	4.610169	106426368	74592256	43407416	33184
585	7.794111	106426368	74592256	30903632	33184
586	6.849438	106426368	74592256	35540864	33184
587	8.210763	106426368	74592256	40953872	33184
588	11.532086	106426368	74592256	31063584	33184
589	10.516086	106426368	74592256	38033904	33184
590	14.316406	106426368	74592256	30113520	33184
591	12.695273	106426368	74592256	38647560	33184
592	16.4037	106426368	74592256	32198784	33184
593	15.152599	106426368	74592256	42302720	33184
594	18.383729	106426368	74592256	36919968	33184
595	20.202145	106426368	74592256	33025552	33184
596	22.209329	106426368	74592256	30458920	33184
597	20.154366	106426368	74592256	43706688	33184
598	23.530949	106426368	74592256	41291208	33184
599	24.705415	106426368	74592256	40004872	33184
600	26.143893	106426368	74592256	39661768	33184
601	27.178636	106426368	74592256	40207240	33184
602	2.405304	106426368	74592256	42231592	33184
603	5.915656	106426368	74592256	28534992	33184
604	4.974206	106426368	74592256	31723216	33184
605	5.944029	106426368	74592256	35703064	33184
606	7.337746	106426368	74592256	40482992	33184
607	10.983032	106426368	74592256	30104632	33184
608	9.75679	106426368	74592256	36487328	33184
609	10.848705	106426368	74592256	43677960	33184
610	14.34288	106426368	74592256	35307040	33184
611	13.436097	106426368	74592256	44107224	33184
612	16.569451	106426368	74592256	37269760	33184
613	18.46562	106426368	74592256	32161088	33184
614	17.067047	106426368	74592256	43382680	33184
615	20.407659	106426368	74592256	39067696	33184
616	22.107801	106426368	74592256	36180936	33184
617	23.625303	106426368	74592256	34482448	33184
618	25.192714	106426368	74592256	33868808	33184
619	26.368302	106426368	74592256	34138848	33184
620	27.905297	106426368	74592256	35157960	33184
621	29.036219	106426368	74592256	36895184	33184
622	2.475011	106426368	74592256	40052168	33184
623	3.670043	106426368	74592256	42511800	33184
624	7.638164	106426368	74592256	29720296	33184
625	6.322488	106426368	74592256	33822744	33184
626	7.780291	106426368	74592256	38753216	33184
627	8.71131	106426368	74592256	44509504	33184
628	12.218802	106426368	74592256	34653896	33184
629	11.270788	106426368	74592256	42065744	33184
630	15.203756	106426368	74592256	34207760	33184
631	13.578326	106426368	74592256	43281216	33184
632	17.192483	106426368	74592256	36916264	33184
633	19.493653	106426368	74592256	32276856	33184
634	17.712527	106426368	74592256	43847840	33184
635	21.06893	106426368	74592256	39915560	33184
636	22.898755	106426368	74592256	37352336	33184
637	24.064182	106426368	74592256	36001352	33184
638	25.494013	106426368	74592256	35658800	33184
639	27.423479	106426368	74592256	36224080	33184
640	28.46812	106426368	74592256	37559888	33184
641	29.436517	106426368	74592256	39519568	33184
642	2.552566	106426368	74592256	42932304	33184
643	6.310917	106426368	74592256	29405224	33184
644	5.279921	106426368	74592256	32783080	33184
645	6.506189	106426368	74592256	37008400	33184
646	7.603754	106426368	74592256	42084280	33184
647	11.394893	106426368	74592256	31965488	33184
648	10.308192	106426368	74592256	38740944	33184
649	14.365852	106426368	74592256	30785864	33184
650	12.799394	106426368	74592256	39267896	33184
651	17.091021	106426368	74592256	32972144	33184
652	15.159907	106426368	74592256	43166568	33184
653	19.405373	106426368	74592256	38081768	33184
654	21.261218	106426368	74592256	34516416	33184
655	23.491381	106426368	74592256	32285304	33184
656	26.016521	106426368	74592256	31275624	33184
657	26.000085	106426368	74592256	31234720	33184
658	28.165723	106426368	74592256	32064448	33184
659	29.203684	106426368	74592256	33645792	33184
660	29.761841	106426368	74592256	35905792	33184
661	31.43255	106426368	74592256	38759848	33184
662	2.640626	106426368	74592256	42914264	33184
663	3.91316	106426368	74592256	45519728	33184
664	8.098114	106426368	74592256	32666968	33184
665	6.925414	106426368	74592256	37014936	33184
666	8.192976	106426368	74592256	42236592	33184
667	11.90972	106426368	74592256	32342768	33184
668	10.448316	106426368	74592256	39314392	33184
669	14.912061	106426368	74592256	31600728	33184
670	13.337554	106426368	74592256	40328392	33184
671	17.280319	106426368	74592256	34261200	33184
672	16.090986	106426368	74592256	44748584	33184
673	19.386113	106426368	74592256	39806504	33184
674	21.82832	106426368	74592256	36422720	33184
675	23.473532	106426368	74592256	34385792	33184
676	25.195064	106426368	74592256	33575408	33184
677	26.946237	106426368	74592256	33742792	33184
678	28.124242	106426368	74592256	34765408	33184
679	29.452409	106426368	74592256	36531168	33184
680	30.558715	106426368	74592256	38943392	33184
681	30.794988	106426368	74592256	41923560	33184
682	5.391791	106426368	74592256	30160016	33184
683	4.130933	106426368	74592256	32839056	33184
684	5.38268	106426368	74592256	36413352	33184
685	6.938252	106426368	74592256	40886936	33184
686	8.313247	106426368	74592256	46255880	33184
687	12.039357	106426368	74592256	36062592	33184
688	11.359134	106426368	74592256	43230760	33184
689	14.805744	106426368	74592256	35299568	33184
690	13.639924	106426368	74592256	44273808	33184
691	17.434308	106426368	74592256	38024544	33184
692	19.642511	106426368	74592256	33531784	33184
693	18.329171	106426368	74592256	45226104	33184
694	21.417184	106426368	74592256	41542760	33184
695	23.618494	106426368	74592256	39287328	33184
696	25.150405	106426368	74592256	38216768	33184
697	26.572495	106426368	74592256	38239032	33184
698	28.132123	106426368	74592256	39171384	33184
699	29.218744	106426368	74592256	40863976	33184
700	30.330368	106426368	74592256	43283600	33184
701	31.213074	106426368	74592256	46261088	33184
702	2.898184	106426368	74592256	36561048	33184
703	4.313248	106426368	74592256	39314544	33184
704	5.643715	106426368	74592256	42986952	33184
705	9.69245	106426368	74592256	31713912	33184
706	8.261041	106426368	74592256	37230024	33184
707	9.649613	106426368	74592256	43669752	33184
708	13.85239	106426368	74592256	35031328	33184
709	12.688684	106426368	74592256	43321720	33184
710	17.053111	106426368	74592256	36557280	33184
711	15.495578	106426368	74592256	46711528	33184
712	19.831298	106426368	74592256	41363936	33184
713	21.170925	106426368	74592256	37671792	33184
714	23.293725	106426368	74592256	35428504	33184
715	25.487687	106426368	74592256	34479456	33184
716	26.705503	106426368	74592256	34613416	33184
717	28.49529	106426368	74592256	35698224	33184
718	29.302287	106426368	74592256	37630000	33184
719	31.440595	106426368	74592256	40225608	33184
720	31.364035	106426368	74592256	43413200	33184
721	32.979919	106426368	74592256	47070360	33184
722	3.100783	106426368	74592256	38005808	33184
723	4.246461	106426368	74592256	40887576	33184
724	5.688088	106426368	74592256	44723824	33184
725	10.260273	106426368	74592256	33509312	33184
726	8.489939	106426368	74592256	39285944	33184
727	10.098467	106426368	74592256	46014464	33184
728	14.188615	106426368	74592256	37471536	33184
729	13.315386	106426368	74592256	46146184	33184
730	17.188153	106426368	74592256	39553384	33184
731	19.254028	106426368	74592256	34809776	33184
732	16.999184	106426368	74592256	46388928	33184
733	21.409613	106426368	74592256	42632424	33184
734	22.930615	106426368	74592256	40357768	33184
735	24.968367	106426368	74592256	39359104	33184
736	27.029862	106426368	74592256	39487008	33184
737	27.917421	106426368	74592256	40611840	33184
738	29.133981	106426368	74592256	42529136	33184
739	30.327923	106426368	74592256	45178296	33184
740	37.133624	106696704	75116544	34558144	33184
741	37.213548	108318720	76689408	42487776	33184
742	2.967935	108589056	76689408	49500512	33184
743	7.121782	108589056	77213696	36213392	33184
744	5.925652	108589056	77213696	40148072	33184
745	7.518256	108589056	77213696	45070880	33184
746	12.09221	108589056	77213696	35249216	33184
747	10.246515	108589056	77213696	42158872	33184
748	11.903898	108589056	77213696	50054160	33184
749	15.953699	108589056	77213696	42574272	33184
750	18.086938	108589056	77213696	37100264	33184
751	16.367785	108589056	77213696	47967640	33184
752	20.797444	108589056	77213696	43731584	33184
753	22.472149	108589056	77213696	41044344	33184
754	25.225262	108859392	77213696	39721232	33184
755	26.081135	108859392	77213696	39594456	33184
756	28.241522	108859392	77213696	40509480	33184
757	29.296422	108859392	77213696	42336064	33184
758	30.756228	108859392	77213696	44901096	33184
759	31.604072	108859392	77213696	48076304	33184
760	38.132876	109129728	77737984	37921824	33184
761	38.248199	109940736	78262272	46429544	33184
762	5.768375	109940736	78262272	37851312	33184
763	4.703934	109940736	78262272	40873992	33184
764	6.120296	109940736	78262272	44906808	33184
765	7.76851	109940736	78262272	49950520	33184
766	12.402533	109940736	78262272	40038656	33184
767	10.684211	109940736	78262272	47108792	33184
768	15.506993	109940736	78262272	39627120	33184
769	13.883713	109940736	78262272	48740656	33184
770	18.349931	110211072	78786560	43052456	33184
771	20.857446	110211072	78786560	39172408	33184
772	18.411125	110211072	78786560	51348480	33184
773	23.278247	110211072	78786560	48438968	33184
774	24.742695	110211072	78786560	46933744	33184
775	26.170663	110211072	78786560	46593200	33184
776	28.157862	110211072	78786560	47337704	33184
777	29.16414	110211072	78786560	49064928	33184
778	30.648048	110211072	78786560	51570648	33184
779	37.454888	110481408	78786560	40850016	33184
780	37.113202	110481408	78786560	48806376	33184
781	35.725167	110481408	78786560	54895864	33184
782	3.101164	110481408	78786560	48106520	33184
783	4.606362	110481408	78786560	51203000	33184
784	6.188522	110481408	78786560	55333824	33184
785	14.691473	110481408	78786560	46847160	33184
786	10.419961	110481408	78786560	53050912	33184
787	16.739256	110481408	78786560	45077168	33184
788	13.67895	110481408	78786560	53358288	33184
789	22.499354	110481408	78786560	47026368	33184
790	29.239082	108400640	76689408	19520232	33184
791	17.386455	108400640	76689408	30928648	33184
792	19.425515	108400640	76689408	27077760	33184
793	20.816611	108400640	76689408	24738912	33184
794	22.403457	108400640	76689408	23717240	33184
795	23.949128	108400640	76689408	23901272	33184
796	25.635131	108400640	76689408	25135560	33184
797	27.122935	108400640	76689408	27260992	33184
798	28.31228	108400640	76689408	30170208	33184
799	32.481533	108400640	76689408	19726136	33184
800	35.168163	108400640	76689408	28136512	33184
801	37.075338	108400640	76689408	21029360	33184
802	3.170913	108400640	76689408	32757696	33184
803	4.677579	108400640	76689408	35927768	33184
804	7.182642	108400640	76689408	24057616	33184
805	8.024952	108400640	76689408	29346872	33184
806	9.186808	108400640	76689408	35697848	33184
807	11.440001	108400640	76689408	26870288	33184
808	12.258981	108400640	76689408	35347920	33184
809	15.065399	108400640	76689408	28714552	33184
810	17.027705	108400640	76689408	24079656	33184
811	17.511322	108400640	76689408	35757104	33184
812	19.439758	108400640	76689408	32260632	33184
813	21.187624	108400640	76689408	30308056	33184
814	23.377188	108400640	76689408	29669056	33184
815	24.731599	108400640	76689408	30246920	33184
816	26.390265	108400640	76689408	31769496	33184
817	27.378491	108400640	76689408	34205944	33184
818	29.095796	108400640	76689408	37379032	33184
819	32.942601	108400640	76689408	26961704	33184
820	33.111814	108400640	76689408	33307384	33184
821	36.975263	108400640	76689408	26107592	33184
822	3.168432	108400640	76689408	38327280	33184
823	5.601751	108400640	76689408	25801008	33184
824	6.772943	108400640	76689408	30135320	33184
825	8.105969	108400640	76689408	35548816	33184
826	10.610322	108400640	76689408	26294408	33184
827	11.116414	108400640	76689408	33885368	33184
828	13.881236	108400640	76689408	27052808	33184
829	14.407932	108400640	76689408	36819344	33184
830	16.383364	108400640	76689408	31744360	33184
831	19.212737	108400640	76689408	28479752	33184
832	21.022361	108400640	76689408	26765768	33184
833	21.149149	108400640	76689408	40910320	33184
834	23.38196	108400640	76689408	39674304	33184
835	24.70308	108400640	76689408	39710520	33184
836	25.969404	108400640	76689408	40842336	33184
837	30.830362	108400640	76689408	28733208	33184
838	30.767549	108400640	76689408	33607640	33184
839	31.687431	108400640	76689408	38823552	33184
840	35.222909	108400640	76689408	30494936	33184
841	37.649275	108400640	76689408	41046616	33184
842	3.278775	108400640	76689408	36602216	33184
843	4.843814	108400640	76689408	39919552	33184
844	9.950552	108400640	76689408	31196784	33184
845	8.193825	108400640	76689408	36740560	33184
846	9.664346	108400640	76689408	43387920	33184
847	12.719103	108400640	76689408	35607880	33184
848	13.136638	108400640	76689408	44481864	33184
849	15.363211	108400640	76689408	38391720	33184
850	17.949353	108400640	76689408	34249496	33184
851	18.051742	108400640	76689408	46489688	33184
852	20.438849	108400640	76689408	43499432	33184
853	22.692024	108400640	76689408	42011992	33184
854	23.719513	108400640	76689408	41867992	33184
855	25.232028	108400640	76689408	42841456	33184
856	26.942469	108400640	76689408	44800424	33184
857	31.132959	108400640	76689408	33702192	33184
858	34.323748	108400640	76689408	41537216	33184
859	32.856838	108400640	76689408	47527104	33184
860	36.470535	108400640	76689408	39804448	33184
861	39.397839	108400640	76689408	50999864	33184
862	3.33763	108400640	76689408	46976712	33184
863	4.97925	108400640	76689408	50398608	33184
864	7.583302	108400640	76689408	38854120	33184
865	8.563518	108400640	76689408	44564904	33184
866	10.645543	108400640	76689408	51425448	33184
867	12.276544	108400640	76689408	43190672	33184
868	13.257739	108400640	76689408	52347208	33184
869	15.595044	108400640	76689408	46276336	33184
870	17.84235	108400640	76689408	42115288	33184
871	20.248477	108400640	76689408	39708096	33184
872	21.90382	108400640	76689408	38792976	33184
873	24.685066	108400640	76689408	39175256	33184
874	26.195738	108400640	76689408	40647576	33184
875	27.631655	108400640	76689408	43044640	33184
876	29.304032	108400640	76689408	46277344	33184
877	29.859428	108400640	76689408	50202528	33184
878	34.065264	108400640	76689408	40950072	33184
879	37.242268	108400640	76689408	50314128	33184
880	37.928431	108400640	76689408	44206192	33184
881	40.61075	110022656	78262272	55909272	33184
882	3.419391	110563328	79310848	52660760	33184
883	5.081582	110563328	79310848	56159464	33184
884	11.377679	112726016	81408000	47617448	33184
885	9.411692	112726016	81408000	53456776	33184
886	11.200157	112726016	81408000	60464224	33184
887	15.273146	113537024	81932288	52951872	33184
888	17.027963	113537024	81932288	47021296	33184
889	28.787839	113537024	81932288	57546376	33184
890	20.431126	111964160	80359424	28476872	33184
891	19.890471	111964160	80359424	25352808	33184
892	21.570312	111964160	80359424	23818824	33184
893	24.111218	111964160	80359424	23676232	33184
894	25.538197	111964160	80359424	24751928	33184
895	26.914191	111964160	80359424	26849944	33184
896	29.015358	111964160	80359424	29870664	33184
897	32.722186	111964160	80359424	19614176	33184
898	35.573304	111964160	80359424	28358384	33184
899	37.113641	111964160	80359424	21716288	33184
900	38.51268	111964160	80359424	32749112	33184
901	40.454759	111964160	80359424	27999144	33184
902	4.444534	112234496	80359424	26904336	33184
903	5.614863	112234496	80359424	30476704	33184
904	7.112179	112234496	80359424	35237760	33184
905	9.821324	112234496	80359424	25498520	33184
906	10.651887	112234496	80359424	32647936	33184
907	12.313256	112234496	80359424	40993280	33184
908	14.09467	112234496	80359424	34067112	33184
909	17.249222	112234496	80359424	29271896	33184
910	18.936586	112234496	80359424	26359088	33184
911	19.458	112234496	80359424	39518600	33184
912	21.837383	112234496	80359424	37653672	33184
913	23.343172	112234496	80359424	37183224	33184
914	25.538624	112234496	80359424	38040288	33184
915	27.165017	112234496	80359424	39955880	33184
916	31.333754	112234496	80359424	28676104	33184
917	32.089224	112234496	80359424	34338384	33184
918	32.835123	112234496	80359424	40362176	33184
919	36.665134	112234496	80359424	32703984	33184
920	36.391274	112234496	80359424	41478888	33184
921	40.251975	112234496	80359424	35975016	33184
922	3.553686	112234496	80359424	34334672	33184
923	5.290572	112234496	80359424	37982000	33184
924	10.523618	112775168	80883712	29560672	33184
925	9.056128	112775168	80883712	35637784	33184
926	10.56511	112775168	80883712	42959752	33184
927	13.519596	112775168	80883712	35742064	33184
928	15.381038	112775168	80883712	30252336	33184
929	16.258896	112775168	80883712	41213216	33184
930	18.960873	112775168	80883712	37422168	33184
931	21.004075	112775168	80883712	35394832	33184
932	22.991187	112775168	80883712	34832048	33184
933	25.627762	112775168	80883712	35628080	33184
934	26.685627	112775168	80883712	37499992	33184
935	28.214398	112775168	80883712	40376880	33184
936	29.902255	112775168	80883712	44047976	33184
937	33.784023	112775168	80883712	34429432	33184
938	33.94897	112775168	80883712	41388800	33184
939	38.361099	112775168	80883712	34881352	33184
940	40.97361	112775168	80883712	46938392	33184
941	41.579522	112775168	80883712	42643336	33184
942	3.624602	112775168	80883712	41620256	33184
943	5.676975	112775168	80883712	45339512	33184
944	11.038301	112775168	80883712	37015712	33184
945	9.511373	112775168	80883712	43215544	33184
946	10.800886	112775168	80883712	50676256	33184
947	13.779348	112775168	80883712	43584864	33184
948	15.772926	112775168	80883712	38157816	33184
949	16.7455	112775168	80883712	49357336	33184
950	19.518254	112775168	80883712	45642896	33184
951	21.212603	112775168	80883712	43695848	33184
952	23.031119	112775168	80883712	43281368	33184
953	25.353688	112775168	80883712	44144568	33184
954	26.726947	112775168	80883712	46153808	33184
955	28.997958	112775168	80883712	49138736	33184
956	32.760053	112775168	80883712	39061616	33184
957	36.259697	112775168	80883712	47909296	33184
958	37.901076	112775168	80883712	41401840	33184
959	39.499871	112775168	80883712	52703728	33184
960	40.987956	112775168	80883712	48267296	33184
961	52.895928	113586176	81932288	49455064	33184
962	4.587714	115478528	85602304	26638784	33184
963	6.694832	115478528	85602304	30433608	33184
964	8.145987	115478528	85602304	35489336	33184
965	12.319544	117100544	85602304	27238840	33184
966	11.242008	117100544	85602304	34829632	33184
967	14.033789	117100544	85602304	27990736	33184
968	15.315765	117100544	85602304	38124040	33184
969	17.02626	117100544	85602304	33106976	33184
970	19.907124	117100544	85602304	30019176	33184
971	21.561981	117100544	85602304	28627904	33184
972	23.767027	117100544	85602304	28686712	33184
973	26.276978	117100544	85602304	30031064	33184
974	27.415505	117100544	85602304	32474352	33184
975	28.756817	117100544	85602304	35838336	33184
976	33.672383	117100544	85602304	26080560	33184
977	35.919734	117100544	85602304	35326632	33184
978	38.079159	117100544	85602304	29192976	33184
979	40.346471	117100544	85602304	40892056	33184
980	41.019668	117100544	85602304	36716008	33184
981	47.485862	117100544	85602304	38443976	33184
982	3.789038	117370880	85602304	42739616	33184
983	5.636306	117370880	85602304	46624680	33184
984	7.610601	117370880	85602304	51785600	33184
985	11.798645	117370880	85602304	44084632	33184
986	11.538217	117370880	85602304	51822792	33184
987	14.667692	117370880	85602304	44996200	33184
988	16.873098	117370880	85602304	40187256	33184
989	17.384302	117370880	85602304	51810560	33184
990	19.862197	117370880	85602304	48662184	33184
991	22.215913	117370880	85602304	47208080	33184
992	24.209161	117370880	85602304	47247648	33184
993	26.149997	117370880	85602304	48577136	33184
994	27.668794	117370880	85602304	51050632	33184
995	29.168024	117370880	85602304	54464448	33184
996	33.450034	117370880	85602304	44582880	33184
997	33.883818	117370880	85602304	51487320	33184
998	37.912943	117370880	85602304	44991696	33184
999	39.979926	117370880	85602304	57187168	33184
1000	41.533157	117370880	85602304	53012864	33184
