x	Duration	RSS	HeapTotal	HeapUsed	External
0	NA	109170688	75116544	14399800	33184
1	0.378511	109170688	75116544	14452104	33184
2	0.2521	109170688	75116544	14520080	33184
3	0.277252	109170688	75116544	14612792	33184
4	0.330505	109170688	75116544	14731912	33184
5	0.407784	109170688	75116544	14879200	33184
6	0.461806	109170688	75116544	15055344	33184
7	0.526718	109170688	75116544	15261576	33184
8	0.60327	109170688	75116544	15499160	33184
9	0.859244	109170688	75116544	15770536	33184
10	0.565407	109170688	75116544	16076008	33184
11	0.968888	109170688	75116544	16417800	33184
12	0.666157	109170688	75116544	16795240	33184
13	0.705821	109170688	75116544	17214176	33184
14	0.895841	109170688	75116544	17668272	33184
15	0.799186	109170688	75116544	18162552	33184
16	0.837261	109170688	75116544	18698320	33184
17	0.893776	109170688	75116544	19278592	33184
18	1.255101	109170688	75116544	19902768	33184
19	1.06838	109170688	75116544	20573176	33184
20	1.115705	109170688	75116544	21289928	33184
21	1.260242	109170688	75116544	22055160	33184
22	0.186087	109170688	75116544	22844864	33184
23	0.269372	109170688	75116544	22994752	33184
24	0.349488	109170688	75116544	23196808	33184
25	0.428899	109170688	75116544	23452344	33184
26	0.742704	109170688	75116544	23762984	33184
27	0.702304	109170688	75116544	24129480	33184
28	0.713331	109170688	75116544	24555416	33184
29	0.740983	109170688	75116544	25036768	33184
30	0.834935	109170688	75116544	25578568	33184
31	0.954844	109170688	75116544	26181120	33184
32	1.006259	109170688	75116544	26845552	33184
33	1.088166	109170688	75116544	27573144	33184
34	1.176008	109170688	75116544	28365056	33184
35	1.483146	109170688	75116544	29222704	33184
36	1.401437	109170688	75116544	30147160	33184
37	2.263388	109170688	75116544	31139600	33184
38	2.525023	109170688	75116544	15890120	33184
39	1.779138	109170688	75116544	17027032	33184
40	1.772134	109170688	75116544	18233312	33184
41	2.086915	109170688	75116544	19512544	33184
42	0.244156	109170688	75116544	20888224	33184
43	0.367986	109170688	75116544	21111480	33184
44	0.476651	109170688	75116544	21412448	33184
45	0.773582	109170688	75116544	21793736	33184
46	0.703953	109170688	75116544	22255768	33184
47	0.816672	109170688	75116544	22799824	33184
48	0.934677	109170688	75116544	23427184	33184
49	1.066496	109170688	75116544	24139088	33184
50	1.176134	109170688	75116544	24937760	33184
51	1.304722	109170688	75116544	25823408	33184
52	1.620519	109170688	75116544	26797264	33184
53	1.785847	109170688	75116544	27860632	33184
54	1.727849	109170688	75116544	29017384	33184
55	1.811005	109170688	75116544	30263168	33184
56	2.967655	109170688	75116544	15481440	33184
57	2.369722	109170688	75116544	16914712	33184
58	2.395165	109170688	75116544	18445576	33184
59	2.354534	109170688	75116544	20073136	33184
60	2.482412	109170688	75116544	21799056	33184
61	2.63554	109170688	75116544	23624384	33184
62	0.325995	109170688	75116544	25582696	33184
63	0.499052	109170688	75116544	25886424	33184
64	0.623894	109170688	75116544	26291424	33184
65	0.766817	109170688	75116544	26800584	33184
66	0.91925	109170688	75116544	27415712	33184
67	1.07822	109170688	75116544	28137544	33184
68	1.224432	109170688	75116544	28967112	33184
69	1.377326	109170688	75116544	29905664	33184
70	1.540336	109170688	75116544	30955608	33184
71	2.494689	109170688	75116544	15857096	33184
72	2.124155	109170688	75116544	17133064	33184
73	2.019499	109170688	75116544	18521456	33184
74	2.173418	109170688	75116544	20024696	33184
75	2.35674	109170688	75116544	21644304	33184
76	2.676065	109170688	75116544	23383688	33184
77	2.901363	109170688	75116544	25240096	33184
78	2.865945	109170688	75116544	27218256	33184
79	3.024033	109170688	75116544	29317664	33184
80	3.208922	109170688	75116544	31540080	33184
81	4.550958	109170688	75116544	17536536	33184
82	0.426077	109170688	75116544	20067280	33184
83	0.630507	109170688	75116544	20442856	33184
84	0.832092	109170688	75116544	20948184	33184
85	1.035906	109170688	75116544	21582752	33184
86	1.418148	109170688	75116544	22348328	33184
87	1.348893	109170688	75116544	23246136	33184
88	1.521191	109170688	75116544	24277496	33184
89	1.719793	109170688	75116544	25443568	33184
90	1.975272	109170688	75116544	26746456	33184
91	2.128679	109170688	75116544	28188664	33184
92	2.30022	109170688	75116544	29771312	33184
93	2.686986	109170688	75116544	31497656	33184
94	3.329191	109170688	75116544	17030496	33184
95	3.047124	109170688	75116544	19042728	33184
96	3.269013	109170688	75116544	21200280	33184
97	3.333637	109170688	75116544	23505336	33184
98	3.576586	109170688	75116544	25958632	33184
99	3.739414	109170688	75116544	28562160	33184
100	4.134195	109170688	75116544	31315312	33184
101	5.008301	109170688	75116544	17899016	33184
102	0.468993	109170688	75116544	21045536	33184
103	0.703663	109170688	75116544	21504512	33184
104	0.917892	109170688	75116544	22118656	33184
105	1.143028	109170688	75116544	22889256	33184
106	1.36458	109170688	75116544	23817984	33184
107	1.599887	109170688	75116544	24905656	33184
108	2.116956	109170688	75116544	26153504	33184
109	2.178345	109170688	75116544	27566008	33184
110	2.492253	109170688	75116544	29139056	33184
111	2.701239	109170688	75116544	30875544	33184
112	3.437258	109170688	75116544	16532896	33184
113	3.208282	109170688	75116544	18600656	33184
114	3.432416	109170688	75116544	20836720	33184
115	3.46311	109170688	75116544	23240680	33184
116	3.68927	109170688	75116544	25814720	33184
117	4.14334	109170688	75116544	28559880	33184
118	4.193076	109170688	75116544	31479384	33184
119	5.022072	109170688	75116544	18250248	33184
120	4.719897	109170688	75116544	21519280	33184
121	4.940163	109170688	75116544	24963672	33184
122	0.542743	109170688	75116544	28699480	33184
123	0.817346	109170688	75116544	29232064	33184
124	1.064823	109170688	75116544	29944512	33184
125	1.319349	109170688	75116544	30837752	33184
126	1.591359	109170688	75116544	31913816	33184
127	2.353569	109170688	75116544	16832504	33184
128	2.305622	109170688	75116544	18276656	33184
129	2.541614	109170688	75116544	19908128	33184
130	2.646761	109170688	75116544	21726400	33184
131	2.954675	109170688	75116544	23732960	33184
132	3.198459	109170688	75116544	25929104	33184
133	3.500366	109170688	75116544	28316008	33184
134	3.725176	109170688	75116544	30895080	33184
135	4.834	109170688	75116544	17460984	33184
136	4.345614	109170688	75116544	20427688	33184
137	4.575747	109170688	75116544	23592720	33184
138	5.040334	109170688	75116544	26953856	33184
139	5.287173	109170688	75116544	30514056	33184
140	6.221905	109170688	75116544	18088944	33184
141	5.693508	109170688	75116544	22049136	33184
142	0.61768	109170688	75116544	26361440	33184
143	0.924781	109170688	75116544	26973144	33184
144	1.212414	109170688	75116544	27790960	33184
145	1.506368	109170688	75116544	28816112	33184
146	2.002455	109170688	75116544	30050312	33184
147	2.098945	109170688	75116544	31494464	33184
148	3.01314	109170688	75116544	16886312	33184
149	2.720189	109170688	75116544	18753696	33184
150	3.004939	109170688	75116544	20835608	33184
151	3.321815	109170688	75116544	23133040	33184
152	3.893699	109170688	75116544	25645648	33184
153	4.160037	109170688	75116544	28375712	33184
154	4.287275	109170688	75116544	31323848	33184
155	5.701363	109170688	75116544	18258528	33184
156	4.928523	109170688	75116544	21647200	33184
157	5.384608	109170688	75116544	25257776	33184
158	5.769982	109170688	75116544	29093800	33184
159	6.849683	109170688	75116544	17205424	33184
160	6.454682	109170688	75116544	21492008	33184
161	7.355047	109170688	75116544	26007656	33184
162	0.699364	109170688	75116544	30921752	33184
163	1.033655	109170688	75116544	31607048	33184
164	1.414072	109170688	75116544	32522960	33184
165	2.424782	109170688	75116544	17303896	33184
166	2.077483	109170688	75116544	18687616	33184
167	2.361331	109170688	75116544	20303320	33184
168	2.883992	109170688	75116544	22154272	33184
169	3.325754	109170688	75116544	24244232	33184
170	3.396008	109170688	75116544	26570864	33184
171	3.92223	109170688	75116544	29136600	33184
172	4.707919	109170688	75116544	31942792	33184
173	5.113025	109170688	75116544	18713744	33184
174	4.972955	109170688	75116544	22004888	33184
175	5.153022	109170688	75116544	25539616	33184
176	5.846536	109170688	75116544	29319664	33184
177	6.817471	109170688	75116544	17452584	33184
178	6.499768	109170688	75116544	21728856	33184
179	6.54665	109170688	75116544	26254080	33184
180	7.073941	109170688	75116544	31033904	33184
181	8.151707	109170688	75116544	19992160	33184
182	0.770466	109170688	75116544	25493144	33184
183	1.164256	109170688	75116544	26264424	33184
184	1.509971	109170688	75116544	27296008	33184
185	1.877822	109170688	75116544	28587008	33184
186	2.310701	109170688	75116544	30140360	33184
187	2.868204	109170688	75116544	31956904	33184
188	3.852351	109170688	75116544	17894472	33184
189	3.391542	109170688	75116544	20240496	33184
190	3.780399	109170688	75116544	22854096	33184
191	4.754278	109170688	75116544	25735608	33184
192	4.630901	109170688	75116544	28894920	33184
193	4.90544	109170688	75116544	32318512	33184
194	6.147296	109170688	75116544	19816648	33184
195	5.700096	109170688	75116544	23781936	33184
196	6.17302	109170688	75116544	28022168	33184
197	6.464718	109170688	75116544	32536704	33184
198	7.971519	109170688	75116544	21101568	33184
199	7.619505	109170688	75116544	26172456	33184
200	7.954389	109170688	75116544	31522408	33184
201	8.839676	109170688	75116544	21052656	33184
202	0.876304	109170688	75116544	27194248	33184
203	1.259348	109170688	75116544	28039072	33184
204	1.66412	109170688	75116544	29168768	33184
205	2.065157	109170688	75116544	30582600	33184
206	2.692121	109170688	75116544	32286744	33184
207	3.614021	109170688	75116544	18140680	33184
208	3.380791	109170688	75116544	20417408	33184
209	3.966023	109170688	75116544	22984328	33184
210	4.463039	109170688	75116544	25843504	33184
211	4.614571	109170688	75116544	28995832	33184
212	5.275504	109170688	75116544	32442464	33184
213	6.211477	109170688	75116544	20019656	33184
214	6.050051	109170688	75116544	24058688	33184
215	6.300381	109170688	75116544	28392264	33184
216	6.800986	109170688	75116544	33024568	33184
217	7.788531	109170688	75116544	21710952	33184
218	7.731914	109170688	75116544	26947504	33184
219	8.188289	109170688	75116544	32485008	33184
220	9.534186	109170688	75116544	22155520	33184
221	8.871934	109170688	75116544	28301008	33184
222	0.952961	109170688	75116544	19400168	33184
223	1.67317	109170688	75116544	20318808	33184
224	2.176087	109170688	75116544	21548488	33184
225	2.433221	109170688	75116544	23087800	33184
226	2.697083	109170688	75116544	24937656	33184
227	3.201056	109170688	75116544	27097504	33184
228	3.804449	109170688	75116544	29570712	33184
229	4.075155	109170688	75116544	32364432	33184
230	5.501766	109170688	75116544	19430656	33184
231	5.23807	109170688	75116544	22865208	33184
232	5.46959	109170688	75116544	26616232	33184
233	6.092815	109170688	75116544	30690712	33184
234	7.667066	109170688	75116544	19262080	33184
235	6.817717	109170688	75116544	23983712	33184
236	7.334475	109170688	75116544	29035672	33184
237	7.789011	109170688	75116544	34410944	33184
238	9.200887	109170688	75116544	23754768	33184
239	9.268735	109170688	75116544	29790472	33184
240	10.718104	109170688	75116544	20429280	33184
241	9.926637	109170688	75116544	27131920	33184
242	1.039835	109170688	75116544	34453536	33184
243	2.220675	109170688	75116544	19144056	33184
244	2.053516	109170688	75116544	20480616	33184
245	2.447754	109170688	75116544	22154200	33184
246	2.923946	109170688	75116544	24166584	33184
247	3.66288	109170688	75116544	26520304	33184
248	3.909912	109170688	75116544	29212760	33184
249	4.394944	109170688	75116544	32248704	33184
250	6.077218	109170688	75116544	19613960	33184
251	5.39332	109170688	75116544	23337184	33184
252	5.931866	109170688	75116544	27405928	33184
253	6.373588	109170688	75116544	31825520	33184
254	8.115273	109170688	75116544	20612800	33184
255	7.616414	109170688	75116544	25727632	33184
256	7.879795	109170688	75116544	31191160	33184
257	10.096089	109170688	75116544	21147584	33184
258	9.388566	109170688	75116544	27317544	33184
259	10.092777	109170688	75116544	33841720	33184
260	11.44681	109170688	75116544	24495832	33184
261	10.875685	109170688	75116544	31733464	33184
262	1.093605	109170688	75116544	23694088	33184
263	1.612031	109170688	75116544	24768408	33184
264	2.114882	109170688	75116544	26203192	33184
265	2.830381	109170688	75116544	27999456	33184
266	3.345463	109170688	75116544	30159472	33184
267	3.689633	109170688	75116544	32683200	33184
268	5.22052	109170688	75116544	19561960	33184
269	4.951523	109170688	75116544	22817440	33184
270	5.321918	109170688	75116544	26441544	33184
271	6.015607	109170688	75116544	30434488	33184
272	6.398858	109170688	75116544	34797800	33184
273	7.941108	109170688	75116544	23232824	33184
274	8.002953	109170688	75116544	28344184	33184
275	8.054718	109170688	75116544	33825264	33184
276	9.844689	109170688	75116544	23523664	33184
277	9.249172	109170688	75116544	29756408	33184
278	11.044432	109170688	75116544	20737048	33184
279	10.553799	109170688	75116544	27728096	33184
280	10.932994	109170688	75116544	35099736	33184
281	12.15893	109170688	75116544	26504520	33184
282	1.158281	109170688	75116544	34985016	33184
283	2.621265	109170688	75116544	19884440	33184
284	2.279424	109170688	75116544	21417232	33184
285	2.821973	109170688	75116544	23336256	33184
286	3.584598	109170688	75116544	25649424	33184
287	3.955571	109170688	75116544	28344848	33184
288	4.537826	109170688	75116544	31430072	33184
289	5.297886	109170688	75116544	34906336	33184
290	6.732923	109170688	75116544	22538664	33184
291	6.470374	109170688	75116544	26801576	33184
292	6.991892	109170688	75116544	31459344	33184
293	8.678196	109170688	75116544	20728424	33184
294	8.160357	109170688	75116544	26179568	33184
295	8.741999	109170688	75116544	32028608	33184
296	10.373018	109170688	75116544	22414544	33184
297	9.946754	109170688	75116544	29064248	33184
298	12.108254	109170688	75116544	20647512	33184
299	11.41211	109170688	75116544	28109800	33184
300	11.679897	109170688	75116544	35972440	33184
301	13.240757	109170688	75116544	27852248	33184
302	2.481609	109170688	75116544	20580808	33184
303	1.851804	109170688	75116544	21802416	33184
304	2.427699	109170688	75116544	23433560	33184
305	3.056933	109170688	75116544	25475216	33184
306	3.824421	109170688	75116544	27930672	33184
307	4.227705	109170688	75116544	30800360	33184
308	4.868497	109170688	75116544	34081840	33184
309	6.838694	109170688	75116544	21722432	33184
310	6.239944	109170688	75116544	25837456	33184
311	6.6928	109170688	75116544	30370480	33184
312	7.763213	109170688	75116544	35322488	33184
313	9.354675	109170688	75116544	24455032	33184
314	8.551911	109170688	75116544	30251912	33184
315	9.349772	109170688	75116544	36469152	33184
316	11.023685	109170688	75116544	26706984	33184
317	10.606639	109170688	75116544	33778368	33184
318	12.38513	109170688	75116544	25225768	33184
319	12.00713	109170688	75116544	33149920	33184
320	13.705117	109170688	75116544	25544952	33184
321	13.152655	109170688	75116544	34332272	33184
322	1.320699	109170688	75116544	27832520	33184
323	1.965337	109170688	75116544	29127808	33184
324	2.59247	109170688	75116544	30856992	33184
325	3.218656	109170688	75116544	33021400	33184
326	3.863206	109170688	75116544	35622848	33184
327	5.992245	109170688	75116544	22450904	33184
328	5.146382	109170688	75116544	25928784	33184
329	6.013268	109170688	75116544	29846712	33184
330	6.483669	109170688	75116544	34206928	33184
331	8.518842	109170688	75116544	22946368	33184
332	8.11296	109170688	75116544	28193136	33184
333	8.380478	109170688	75116544	33885040	33184
334	10.462687	109170688	75116544	24015832	33184
335	10.041859	109170688	75116544	30602904	33184
336	12.302725	109170688	75116544	22081472	33184
337	11.106646	109170688	75116544	29565456	33184
338	13.778008	109170688	75116544	22120088	33184
339	12.6038	109170688	75116544	30509328	33184
340	15.099731	109170688	75116544	23828024	33184
341	13.882014	109170688	75116544	33128840	33184
342	1.402679	109170688	75116544	27461360	33184
343	2.060253	109170688	75116544	28830280	33184
344	2.737585	109170688	75116544	30657600	33184
345	3.412555	109170688	75116544	32944720	33184
346	4.087981	109170688	75116544	35693264	33184
347	6.198138	109170688	75116544	22766744	33184
348	5.446271	109170688	75116544	26440904	33184
349	6.311179	109170688	75116544	30579808	33184
350	6.861505	109170688	75116544	35185568	33184
351	8.973487	109170688	75116544	24129424	33184
352	8.421006	109170688	75116544	29670504	33184
353	9.10876	109170688	75116544	35686736	33184
354	10.988815	109170688	75116544	25988536	33184
355	10.27869	109170688	75116544	32941984	33184
356	13.02223	109170688	75116544	24568448	33184
357	11.712357	109170688	75116544	32474120	33184
358	14.180878	109170688	75116544	25126432	33184
359	13.378524	109170688	75116544	34001504	33184
360	15.635847	109170688	75116544	27447744	33184
361	14.937245	109170688	75116544	37305640	33184
362	1.495927	109170688	75116544	31759288	33184
363	2.181632	109170688	75116544	33239856	33184
364	2.889033	109170688	75116544	35216224	33184
365	3.799079	109170688	75116544	37693304	33184
366	5.43644	109170688	75116544	24304904	33184
367	5.037213	109170688	75116544	27776496	33184
368	5.76187	109170688	75116544	31748784	33184
369	6.833618	109170688	75116544	36225784	33184
370	8.496774	109170688	75116544	25029096	33184
371	8.211519	109170688	75116544	30513504	33184
372	8.854491	109170688	75116544	36508560	33184
373	10.819856	109170688	75116544	26765136	33184
374	10.133996	109170688	75116544	33774776	33184
375	12.402941	109170688	75116544	25434032	33184
376	11.835041	109170688	75116544	33458936	33184
377	14.744258	109170688	75116544	26178544	33184
378	13.499596	109170688	75116544	35229048	33184
379	15.437354	109170688	75116544	28746872	33184
380	17.347623	109170688	75116544	23640408	33184
381	15.545471	109170688	75116544	34242400	33184
382	1.560518	109170688	75116544	29942752	33184
383	2.503982	109170688	75116544	31496936	33184
384	3.120894	109170688	75116544	33572216	33184
385	3.789483	109170688	75116544	36172024	33184
386	6.202087	109170688	75116544	23210704	33184
387	5.598351	109170688	75116544	26854024	33184
388	6.104947	109170688	75116544	31022560	33184
389	6.823349	109170688	75116544	35720888	33184
390	9.302531	109170688	75116544	24875160	33184
391	8.612096	109170688	75116544	30631904	33184
392	9.124672	109170688	75116544	36915248	33184
393	11.410624	109170688	75116544	27499992	33184
394	10.865719	109170688	75116544	34893376	33184
395	13.179689	109170688	75116544	26805496	33184
396	12.477127	109170688	75116544	35220920	33184
397	14.872905	109170688	75116544	28190144	33184
398	13.845118	109170688	75116544	37680920	33184
399	16.356428	109170688	75116544	31418112	33184
400	17.665772	109170688	75116544	26489656	33184
401	16.39004	109170688	75116544	37601032	33184
402	1.640734	109170688	75116544	33471048	33184
403	2.401758	109170688	75116544	35098944	33184
404	3.189925	109170688	75116544	37276520	33184
405	5.607606	109170688	75116544	23822672	33184
406	4.823296	109170688	75116544	27098336	33184
407	5.768282	109170688	75116544	30913608	33184
408	6.36615	109170688	75116544	35281304	33184
409	8.965155	109170688	75116544	24246232	33184
410	8.242374	109170688	75116544	29719336	33184
411	8.768272	109170688	75116544	35742096	33184
412	11.365311	109170688	75116544	26305280	33184
413	10.704892	109170688	75116544	33438984	33184
414	13.390263	109170688	75116544	25441720	33184
415	12.218962	109170688	75116544	33690160	33184
416	15.082603	109170688	75116544	26773976	33184
417	14.471458	109170688	75116544	36150496	33184
418	16.377034	109170688	75116544	30043280	33184
419	17.867187	109170688	75116544	25335616	33184
420	16.335693	109170688	75116544	36403184	33184
421	18.868469	109170688	75116544	31938760	33184
422	1.82306	109170688	75116544	29225240	33184
423	2.656163	109170688	75116544	30926792	33184
424	3.539843	109170688	75116544	33205808	33184
425	4.386139	109170688	75116544	36047296	33184
426	6.93998	109170688	75116544	23516624	33184
427	6.435326	109170688	75116544	27503600	33184
428	6.834926	109170688	75116544	32064760	33184
429	7.859771	109170688	75116544	37203072	33184
430	10.263019	109170688	75116544	26779272	33184
431	9.206941	109170688	75116544	33072784	33184
432	12.204482	109170688	75116544	24395712	33184
433	10.936458	109170688	75116544	31847712	33184
434	14.274391	109170688	75116544	24493880	33184
435	12.817986	109170688	75116544	33114664	33184
436	15.879147	109170688	75116544	26770680	33184
437	14.755263	109170688	75116544	36557360	33184
438	17.36582	109170688	75116544	30896056	33184
439	18.56394	109170688	75116544	26623440	33184
440	17.146706	109170688	75116544	38174944	33184
441	19.480897	109170688	75116544	34089624	33184
442	1.8748	109170688	75116544	31704576	33184
443	2.692481	109170688	75116544	33479696	33184
444	3.703115	109170688	75116544	35850112	33184
445	4.564584	109170688	75116544	38814400	33184
446	7.130082	109170688	75116544	26138184	33184
447	6.120411	109170688	75116544	30296864	33184
448	7.186346	109170688	75116544	35058088	33184
449	9.991282	109170688	75116544	24663744	33184
450	8.780381	109170688	75116544	30623704	33184
451	9.866621	109170688	75116544	37187568	33184
452	12.38185	109170688	75116544	28289176	33184
453	11.710756	109170688	75116544	36063728	33184
454	14.285405	109170688	75116544	28545976	33184
455	13.438595	109170688	75116544	37530688	33184
456	15.927117	109170688	75116544	31025808	33184
457	17.631574	109170688	75116544	26041088	33184
458	16.401972	109170688	75116544	36867024	33184
459	18.942221	109170688	75116544	32304680	33184
460	20.241919	109170688	75116544	28988792	33184
461	21.554231	109170688	75116544	26701432	33184
462	3.589555	109170688	75116544	24338312	33184
463	2.917086	109170688	75116544	26187088	33184
464	3.945903	109170688	75116544	28657696	33184
465	4.604355	109170688	75116544	31744544	33184
466	5.509016	109170688	75116544	35459272	33184
467	6.846856	109170688	75116544	39790176	33184
468	9.069536	109170688	75116544	28459536	33184
469	8.658005	109170688	75116544	34047376	33184
470	9.129534	109170688	75116544	40253544	33184
471	11.957126	109170688	75116544	30784224	33184
472	11.171846	109170688	75116544	38248968	33184
473	13.796796	109170688	75116544	30239224	33184
474	13.009942	109170688	75116544	38961832	33184
475	15.612902	109170688	75116544	32101096	33184
476	17.20667	109170688	75116544	26801384	33184
477	15.710737	109170688	75116544	37422608	33184
478	18.679108	109170688	75116544	32685312	33184
479	19.958903	109170688	75116544	29240416	33184
480	22.632839	109170688	75116544	26912816	33184
481	20.256079	109170688	75116544	40090248	33184
482	1.98814	109170688	75116544	38195216	33184
483	2.874166	109170688	75116544	40117584	33184
484	5.494632	109170688	75116544	26465608	33184
485	4.772859	109170688	75116544	29677352	33184
486	5.892086	109170688	75116544	33533136	33184
487	6.638404	109170688	75116544	38039096	33184
488	9.849508	109170688	75116544	27145048	33184
489	8.76222	109170688	75116544	32944344	33184
490	9.540935	109170688	75116544	39401016	33184
491	12.418667	109170688	75116544	30311336	33184
492	11.63924	109170688	75116544	38066592	33184
493	14.495439	109170688	75116544	30440384	33184
494	13.567061	109170688	75116544	39504824	33184
495	16.210913	109170688	75116544	33021016	33184
496	18.103077	109170688	75116544	28064544	33184
497	16.288615	109170688	75116544	39106248	33184
498	19.671051	109170688	75116544	34663128	33184
499	21.868381	109170688	75116544	31512000	33184
500	22.280476	109170688	75116544	29452600	33184
501	24.268708	109170688	75116544	28337544	33184
502	2.091697	109170688	75116544	28694720	33184
503	3.09813	109170688	75116544	30690704	33184
504	4.054548	109170688	75116544	33354320	33184
505	5.350597	109170688	75116544	36686720	33184
506	6.133902	109170688	75116544	40691496	33184
507	8.869854	109170688	75116544	29145272	33184
508	7.933121	109170688	75116544	34494216	33184
509	9.096133	109170688	75116544	40517888	33184
510	11.643241	109170688	75116544	30938328	33184
511	11.093726	109170688	75116544	38314584	33184
512	14.064149	109170688	75116544	30369584	33184
513	13.108412	109170688	75116544	39098208	33184
514	16.10739	109170688	75116544	32406616	33184
515	17.830696	109170688	75116544	27327584	33184
516	16.323842	109170688	75116544	38106760	33184
517	18.912721	109170688	75116544	33629536	33184
518	20.733738	109170688	75116544	30467192	33184
519	22.398288	109170688	75116544	28405040	33184
520	20.398585	109170688	75116544	41920400	33184
521	23.042454	109170688	75116544	39673800	33184
522	2.10821	109170688	75116544	39128696	33184
523	3.096243	109170688	75116544	41198272	33184
524	6.057646	109170688	75116544	27739736	33184
525	5.177615	109170688	75116544	31194768	33184
526	6.399205	109170688	75116544	35345000	33184
527	7.241232	109170688	75116544	40193616	33184
528	10.259352	109170688	75116544	29538104	33184
529	9.29918	109170688	75116544	35780472	33184
530	12.84737	109170688	75116544	27171816	33184
531	11.547287	109170688	75116544	34823320	33184
532	15.113467	109170688	75116544	27730608	33184
533	13.475492	109170688	75116544	36778112	33184
534	17.503644	109170688	75116544	30825944	33184
535	15.650908	109170688	75116544	41286072	33184
536	19.356318	109170688	75116544	36173360	33184
537	20.107914	109170688	75116544	32432496	33184
538	22.039551	109170688	75116544	29933568	33184
539	24.338904	109170688	75116544	28493248	33184
540	25.773767	109170688	75116544	27963672	33184
541	26.281451	109170688	75116544	28205496	33184
542	2.195225	109170688	75116544	29831952	33184
543	3.234158	109170688	75116544	31975224	33184
544	4.487631	109170688	75116544	34834992	33184
545	5.511651	109170688	75116544	38412808	33184
546	9.064186	109170688	75116544	26915928	33184
547	7.482336	109170688	75116544	31935056	33184
548	8.646266	109170688	75116544	37674384	33184
549	11.9096	109170688	75116544	28383176	33184
550	11.087707	109170688	75116544	35572752	33184
551	14.47796	109170688	75116544	28014520	33184
552	12.859716	109170688	75116544	36654616	33184
553	16.722492	109170688	75116544	30408664	33184
554	15.019991	109170688	75116544	40509016	33184
555	18.583592	109170688	75116544	35189208	33184
556	19.984017	109170688	75116544	31365968	33184
557	22.062902	109170688	75116544	28806472	33184
558	19.937441	109170688	75116544	41852872	33184
559	22.596459	109170688	75116544	39369024	33184
560	23.875059	109170688	75116544	37926152	33184
561	25.540336	109170688	75116544	37416360	33184
562	2.264722	109170688	75116544	38477296	33184
563	3.326128	109170688	75116544	40723064	33184
564	6.911839	109170688	75116544	27695728	33184
565	5.960973	109170688	75116544	31430304	33184
566	6.910214	109170688	75116544	35916272	33184
567	8.177626	109170688	75116544	41153328	33184
568	11.095595	109170688	75116544	30957232	33184
569	10.154488	109170688	75116544	37710592	33184
570	13.502162	109170688	75116544	29537632	33184
571	12.495797	109170688	75116544	37795584	33184
572	16.168509	109170688	75116544	31126736	33184
573	14.769971	109170688	75116544	40910656	33184
574	18.10691	109170688	75116544	35332536	33184
575	19.824592	109170688	75116544	31273768	33184
576	18.001632	109170688	75116544	43348536	33184
577	21.198237	109170688	75116544	39735912	33184
578	22.615294	109170688	75116544	37353560	33184
579	23.924047	109170688	75116544	36084344	33184
580	25.406868	109170688	75116544	35727376	33184
581	26.834376	109170688	75116544	36257792	33184
582	2.336842	109170688	75116544	38204064	33184
583	3.450197	109170688	75116544	40515256	33184
584	4.784024	109170688	75116544	43598912	33184
585	7.867613	109170688	75116544	31095128	33184
586	7.07161	109170688	75116544	35732360	33184
587	8.259396	109170688	75116544	41145368	33184
588	11.546083	109170688	75116544	31255080	33184
589	10.550972	109170688	75116544	38225400	33184
590	14.16705	109170688	75116544	30305016	33184
591	12.886472	109170688	75116544	38839056	33184
592	16.476903	109170688	75116544	32390280	33184
593	15.208544	109170688	75116544	42494216	33184
594	18.328734	109170688	75116544	37111464	33184
595	20.21179	109170688	75116544	33217048	33184
596	21.951709	109170688	75116544	30650416	33184
597	20.089434	109170688	75116544	43898184	33184
598	22.923146	109170688	75116544	41482704	33184
599	24.293127	109170688	75116544	40196368	33184
600	25.95644	109170688	75116544	39853264	33184
601	27.526301	109170688	75116544	40398736	33184
602	2.606352	109170688	75116544	42423088	33184
603	6.052746	109170688	75116544	28726960	33184
604	4.98465	109170688	75116544	31915184	33184
605	6.110487	109170688	75116544	35895032	33184
606	7.292955	109170688	75116544	40674960	33184
607	10.933198	109170688	75116544	30296600	33184
608	9.54734	109170688	75116544	36679296	33184
609	10.885721	109170688	75116544	43869928	33184
610	14.305144	109170688	75116544	35499008	33184
611	13.125515	109170688	75116544	44299192	33184
612	16.545422	109170688	75116544	37461728	33184
613	18.665337	109170688	75116544	32353056	33184
614	16.940345	109170688	75116544	43574648	33184
615	20.431011	109170688	75116544	39259664	33184
616	21.900518	109170688	75640832	36372904	33184
617	23.632024	109170688	75640832	34674416	33184
618	25.184378	109170688	75640832	34060776	33184
619	26.779401	109170688	75640832	34330816	33184
620	27.493845	109170688	75640832	35349928	33184
621	28.923035	109170688	75640832	37087152	33184
622	2.482492	109170688	75640832	40244136	33184
623	3.694164	109170688	75640832	42703768	33184
624	7.2882	109441024	75640832	29912264	33184
625	6.522466	109441024	75640832	34014712	33184
626	7.58907	109441024	75640832	38945184	33184
627	8.809925	109441024	75640832	44701472	33184
628	12.49018	109441024	75640832	34845864	33184
629	11.299181	109441024	75640832	42257712	33184
630	15.072193	109441024	75640832	34399728	33184
631	14.242727	109441024	75640832	43473184	33184
632	17.306308	109441024	75640832	37108232	33184
633	19.431909	109441024	75640832	32468824	33184
634	17.458716	109441024	75640832	44039808	33184
635	21.291129	109441024	75640832	40107528	33184
636	22.401268	109441024	75640832	37544304	33184
637	23.986295	109441024	75640832	36193320	33184
638	25.528148	109711360	75640832	35850768	33184
639	28.04971	109711360	75640832	36416048	33184
640	28.396546	109711360	75640832	37751856	33184
641	29.392631	109711360	75640832	39711536	33184
642	2.595677	109711360	75640832	43124272	33184
643	6.220916	109711360	75640832	29597192	33184
644	5.170943	109711360	75640832	32975048	33184
645	6.568073	109711360	75640832	37200368	33184
646	7.647776	109711360	75640832	42276248	33184
647	11.471237	109711360	75640832	32157456	33184
648	10.524334	109711360	75640832	38932912	33184
649	14.412151	109711360	75640832	30977832	33184
650	12.932901	109711360	75640832	39459864	33184
651	16.935461	109711360	75640832	33164112	33184
652	15.591236	109711360	75640832	43358536	33184
653	19.283776	109711360	75640832	38273736	33184
654	21.116164	109711360	75640832	34708384	33184
655	23.005472	109711360	75640832	32477272	33184
656	24.706235	109711360	75640832	31459200	33184
657	27.155116	109711360	75640832	31426896	33184
658	28.054733	109711360	75640832	32256592	33184
659	28.991253	109711360	75640832	33837936	33184
660	30.182983	109711360	75640832	36097936	33184
661	30.657323	109711360	75640832	38951992	33184
662	2.641408	109711360	75640832	43106408	33184
663	3.963038	109711360	75640832	45711872	33184
664	7.566356	109711360	75640832	32859112	33184
665	6.608179	109711360	75640832	37207080	33184
666	7.856805	109711360	75640832	42428736	33184
667	11.660957	109711360	75640832	32534912	33184
668	10.669905	109711360	75640832	39506536	33184
669	14.624276	109711360	75640832	31792872	33184
670	13.080838	109711360	75640832	40520536	33184
671	17.187544	109711360	75640832	34453344	33184
672	15.733403	109711360	75640832	44940728	33184
673	19.367198	109711360	75640832	39998648	33184
674	21.290095	109711360	75640832	36614864	33184
675	23.866819	109711360	75640832	34577936	33184
676	25.590075	109711360	75640832	33767552	33184
677	26.798595	109711360	75640832	33934936	33184
678	28.336113	109711360	75640832	34957552	33184
679	29.60363	109711360	75640832	36723312	33184
680	30.962481	109711360	75640832	39135536	33184
681	30.83044	109711360	75640832	42115704	33184
682	5.201074	109711360	75640832	30352160	33184
683	4.113739	109711360	75640832	33031200	33184
684	5.565613	109711360	75640832	36605496	33184
685	7.053571	109711360	75640832	41079080	33184
686	8.04714	109711360	75640832	46448024	33184
687	12.150117	109711360	75640832	36254736	33184
688	10.973176	109711360	75640832	43422904	33184
689	15.164214	109711360	75640832	35491712	33184
690	13.970827	109711360	75640832	44465952	33184
691	17.841097	109711360	75640832	38216688	33184
692	19.657011	109711360	75640832	33723928	33184
693	17.750452	109711360	75640832	45418248	33184
694	21.638526	109711360	75640832	41734904	33184
695	23.787071	109711360	75640832	39479472	33184
696	25.079825	109711360	75640832	38408912	33184
697	26.54312	109711360	75640832	38431176	33184
698	27.849281	109711360	75640832	39363528	33184
699	29.436729	109711360	75640832	41056120	33184
700	30.360435	109711360	75640832	43475744	33184
701	31.50653	109711360	75640832	46453232	33184
702	2.806719	109711360	75640832	36753192	33184
703	4.170443	109711360	75640832	39506688	33184
704	5.582777	109711360	75640832	43179096	33184
705	10.214995	109711360	75640832	31906056	33184
706	8.684681	109711360	75640832	37422168	33184
707	9.714956	109711360	75640832	43861896	33184
708	14.02257	109711360	75640832	35223472	33184
709	12.506516	109711360	75640832	43513864	33184
710	16.710426	109711360	75640832	36749424	33184
711	15.540707	109711360	75640832	46903672	33184
712	19.633955	109711360	75640832	41556080	33184
713	21.506462	109711360	75640832	37863936	33184
714	23.654447	109711360	75640832	35620648	33184
715	24.887553	109711360	75640832	34671600	33184
716	26.83824	109711360	75640832	34805560	33184
717	28.049144	109711360	75640832	35890368	33184
718	29.995033	109711360	75640832	37822144	33184
719	30.344531	109711360	75640832	40417752	33184
720	31.620164	109711360	75640832	43605344	33184
721	32.715922	109711360	75640832	47262504	33184
722	2.892468	109711360	75640832	38197952	33184
723	4.310801	109711360	75640832	41079720	33184
724	5.804938	109711360	75640832	44915968	33184
725	10.205946	109711360	75640832	33701456	33184
726	8.905394	109711360	75640832	39478088	33184
727	10.045885	109711360	75640832	46206608	33184
728	14.375799	109711360	75640832	37663680	33184
729	13.005224	109711360	75640832	46338328	33184
730	16.86862	109711360	75640832	39745528	33184
731	19.514406	109711360	75640832	35001920	33184
732	17.596551	109711360	75640832	46581072	33184
733	21.998398	109711360	75640832	42824568	33184
734	23.26802	109711360	75640832	40549912	33184
735	25.110587	109711360	75640832	39551248	33184
736	26.783275	109711360	75640832	39679152	33184
737	28.092064	109711360	75640832	40803984	33184
738	29.266751	109711360	75640832	42721280	33184
739	30.719573	109711360	75640832	45370440	33184
740	37.008001	109711360	75640832	34750288	33184
741	37.276181	109711360	75640832	42679920	33184
742	2.959395	109711360	75640832	49692656	33184
743	7.322651	109711360	75640832	36405536	33184
744	5.943828	109711360	75640832	40340216	33184
745	7.528782	109711360	75640832	45263024	33184
746	12.254507	109711360	75640832	35441360	33184
747	10.474573	109711360	75640832	42351016	33184
748	11.672765	109711360	75640832	50246304	33184
749	16.152995	109711360	75640832	42766416	33184
750	18.450533	109711360	75640832	37292408	33184
751	16.243564	109711360	75640832	48159784	33184
752	21.07335	109711360	75640832	43923728	33184
753	22.389716	109711360	75640832	41236488	33184
754	24.469068	109711360	75640832	39913376	33184
755	26.273677	109711360	75640832	39786600	33184
756	27.761105	109711360	75640832	40701488	33184
757	29.095069	109711360	75640832	42528208	33184
758	30.667958	109711360	75640832	45093240	33184
759	32.202598	109711360	75640832	48268448	33184
760	38.21236	109711360	75640832	38113968	33184
761	37.925724	109711360	75640832	46621688	33184
762	5.837569	109711360	75640832	38043456	33184
763	4.77903	109711360	75640832	41066136	33184
764	6.048008	109711360	75640832	45098952	33184
765	7.561969	109711360	75640832	50142664	33184
766	11.923197	109711360	75640832	40230800	33184
767	10.738056	109711360	75640832	47300936	33184
768	15.69948	109711360	75640832	39819264	33184
769	13.753839	109711360	75640832	48932800	33184
770	18.274713	109711360	75640832	43244600	33184
771	20.67635	109711360	75640832	39364552	33184
772	18.635383	109711360	75640832	51540624	33184
773	22.448363	109711360	75640832	48631112	33184
774	24.498312	109711360	75640832	47125888	33184
775	26.175107	109711360	75640832	46785344	33184
776	28.0084	109711360	75640832	47529848	33184
777	29.351406	109711360	75640832	49257072	33184
778	30.723604	109711360	75640832	51762792	33184
779	37.139899	109711360	75640832	41042160	33184
780	37.369596	109981696	76165120	48998520	33184
781	35.870062	109981696	76165120	55088008	33184
782	3.130099	110252032	76689408	48298664	33184
783	4.662849	110252032	76689408	51395144	33184
784	6.387198	110252032	76689408	55525968	33184
785	14.593536	112414720	78786560	47039304	33184
786	10.461976	112414720	78786560	53243056	33184
787	16.829634	112955392	79310848	45269312	33184
788	14.021708	112955392	79310848	53550432	33184
789	22.0099	112955392	79310848	47218512	33184
790	29.210499	112582656	78786560	19584888	33184
791	16.801684	112582656	78786560	30997720	33184
792	18.740912	112582656	78786560	27074752	33184
793	20.601053	112582656	78786560	24735792	33184
794	22.134539	112582656	78786560	23710344	33184
795	24.129866	112582656	78786560	23893776	33184
796	25.802791	112582656	78786560	25127800	33184
797	27.034644	112582656	78786560	27253160	33184
798	28.58917	112582656	78786560	30165408	33184
799	32.314879	112582656	78786560	19723024	33184
800	35.80536	112852992	78786560	28131184	33184
801	36.855076	112852992	78786560	21019112	33184
802	3.119844	112852992	78786560	32746096	33184
803	4.64325	112852992	78786560	35916168	33184
804	6.81346	112852992	78786560	24046352	33184
805	7.949099	112852992	78786560	29335608	33184
806	9.479055	112852992	78786560	35686584	33184
807	11.375165	112852992	78786560	26859024	33184
808	12.544174	112852992	78786560	35336656	33184
809	14.462284	112852992	78786560	28703288	33184
810	16.665808	112852992	78786560	24068392	33184
811	17.455161	112852992	78786560	35745840	33184
812	19.250468	112852992	78786560	32249368	33184
813	20.972985	112852992	78786560	30296792	33184
814	22.906879	112852992	78786560	29657792	33184
815	25.198797	112852992	78786560	30235656	33184
816	26.211297	112852992	78786560	31758232	33184
817	28.086851	112852992	78786560	34194680	33184
818	28.694652	112852992	78786560	37367768	33184
819	33.388915	112852992	78786560	26950440	33184
820	33.868896	112852992	78786560	33296120	33184
821	37.082063	112852992	78786560	26096328	33184
822	3.186837	112852992	78786560	38316016	33184
823	5.704594	112852992	78786560	25789744	33184
824	6.379384	112852992	78786560	30124056	33184
825	8.158717	112852992	78786560	35537552	33184
826	10.718202	112852992	78786560	26283144	33184
827	11.322555	112852992	78786560	33874104	33184
828	13.638643	112852992	78786560	27041544	33184
829	14.85309	112852992	78786560	36808080	33184
830	16.811952	112852992	78786560	31733096	33184
831	18.622693	112852992	78786560	28468488	33184
832	21.295116	112852992	78786560	26754504	33184
833	21.381472	112852992	78786560	40899056	33184
834	22.675728	112852992	78786560	39663040	33184
835	24.424419	112852992	78786560	39699256	33184
836	25.864874	112852992	78786560	40831072	33184
837	30.556402	112852992	78786560	28721944	33184
838	30.924324	112852992	78786560	33596376	33184
839	31.651674	112852992	78786560	38812288	33184
840	35.313115	112852992	78786560	30483672	33184
841	38.128746	112852992	78786560	41035352	33184
842	3.28781	112852992	78786560	36590952	33184
843	4.881225	112852992	78786560	39908288	33184
844	10.351093	112852992	78786560	31185520	33184
845	8.559868	112852992	78786560	36729296	33184
846	9.94363	112852992	78786560	43376656	33184
847	12.553674	112852992	78786560	35596616	33184
848	12.975434	112852992	78786560	44470600	33184
849	15.817693	112852992	78786560	38380456	33184
850	17.632029	112852992	78786560	34238232	33184
851	18.288881	112852992	78786560	46478424	33184
852	20.390141	112852992	78786560	43488168	33184
853	22.246775	112852992	78786560	42000728	33184
854	23.988904	112852992	78786560	41856728	33184
855	25.578777	112852992	78786560	42830192	33184
856	27.073833	112852992	78786560	44789160	33184
857	31.443177	112852992	78786560	33690928	33184
858	33.98414	112852992	78786560	41525952	33184
859	32.285179	112852992	78786560	47515840	33184
860	36.719153	112852992	78786560	39793184	33184
861	39.554154	112852992	78786560	50988600	33184
862	3.353987	112852992	78786560	46965448	33184
863	4.976871	112852992	78786560	50387344	33184
864	7.342625	112852992	78786560	38842856	33184
865	8.58429	112852992	78786560	44553640	33184
866	10.12817	112852992	78786560	51414184	33184
867	12.144545	112852992	78786560	43179408	33184
868	13.26626	112852992	78786560	52335944	33184
869	15.725583	112852992	78786560	46265072	33184
870	18.117725	112852992	78786560	42104024	33184
871	20.373838	112852992	78786560	39696832	33184
872	22.637958	112852992	78786560	38781712	33184
873	24.871813	112852992	78786560	39163992	33184
874	25.917138	112852992	78786560	40636312	33184
875	27.362496	112852992	78786560	43033376	33184
876	28.436223	112852992	78786560	46266080	33184
877	30.030755	112852992	78786560	50191264	33184
878	33.851328	112852992	78786560	40938808	33184
879	36.713947	112852992	78786560	50302864	33184
880	38.242758	112852992	78786560	44194928	33184
881	39.725526	112852992	78786560	55898008	33184
882	3.433772	113393664	79310848	52649496	33184
883	5.162111	113393664	79310848	56148200	33184
884	11.615756	115015680	81408000	47606184	33184
885	10.136499	115015680	81408000	53445512	33184
886	11.572196	115015680	81408000	60452960	33184
887	15.176133	115826688	81932288	52940608	33184
888	17.057222	115826688	81932288	47010032	33184
889	31.109129	115826688	81932288	17033664	33184
890	18.962197	115826688	81932288	28765352	33184
891	20.094405	115826688	81932288	25569016	33184
892	22.086213	115826688	81932288	24020456	33184
893	23.563844	115826688	81932288	23837928	33184
894	24.944814	115826688	81932288	24883624	33184
895	26.913205	115826688	81932288	26969512	33184
896	28.242086	115826688	81932288	29979312	33184
897	32.460153	115826688	81932288	19715024	33184
898	35.43165	115826688	81932288	28429072	33184
899	37.275447	115826688	81932288	21806600	33184
900	38.504007	115826688	81932288	32839440	33184
901	40.482785	115826688	81932288	28055480	33184
902	3.518596	115826688	81932288	27027960	33184
903	5.19739	115826688	81932288	30606576	33184
904	7.165621	115826688	81932288	35367728	33184
905	9.793642	115826688	81932288	25598656	33184
906	10.588921	115826688	81932288	32749928	33184
907	13.441176	115826688	81932288	25774720	33184
908	13.958657	115826688	81932288	35320608	33184
909	16.753529	115826688	81932288	30372616	33184
910	19.309567	115826688	81932288	27311416	33184
911	19.640669	115826688	81932288	40453544	33184
912	21.339725	115826688	81932288	38447384	33184
913	23.589959	115826688	81932288	37888872	33184
914	25.725486	115826688	81932288	38591016	33184
915	27.16397	115826688	81932288	40409720	33184
916	31.655898	115826688	81932288	29101760	33184
917	32.456302	115826688	81932288	34677864	33184
918	32.629648	115826688	81932288	40685472	33184
919	36.915627	115826688	81932288	32987488	33184
920	39.857434	115826688	81932288	28367272	33184
921	41.100477	116097024	81932288	41086944	33184
922	3.576619	116097024	81932288	39006352	33184
923	5.37635	116097024	81932288	42649200	33184
924	10.779209	116367360	82456576	34273568	33184
925	9.361077	116367360	82456576	40351008	33184
926	12.267149	116637696	82456576	32787192	33184
927	12.464564	116637696	82456576	41304120	33184
928	15.29274	116637696	82456576	35478080	33184
929	16.124082	116637696	82456576	46438968	33184
930	18.425071	116637696	82456576	42386376	33184
931	20.518211	116637696	82456576	40071048	33184
932	22.500341	116637696	82456576	39329792	33184
933	24.513097	116637696	82456576	39920040	33184
934	26.191094	116637696	82456576	41636424	33184
935	28.452174	116637696	82456576	44353120	33184
936	29.745004	116637696	82456576	47925928	33184
937	33.446666	116637696	82456576	38030856	33184
938	33.809941	116637696	82456576	44952704	33184
939	38.220315	116637696	82456576	38278360	33184
940	41.170656	116637696	82456576	50376864	33184
941	41.694563	116637696	82456576	46002216	33184
942	3.663734	116637696	82456576	44922584	33184
943	5.445933	116637696	82456576	48638992	33184
944	10.757271	116637696	82456576	40241912	33184
945	9.173744	116637696	82456576	46462960	33184
946	11.09454	116637696	82456576	53910576	33184
947	13.631302	116637696	82456576	46727296	33184
948	15.902519	116637696	82456576	41309688	33184
949	16.540101	116637696	82456576	52495592	33184
950	18.961556	116637696	82456576	48723576	33184
951	21.056745	116637696	82456576	46696040	33184
952	23.717084	116637696	82456576	46278608	33184
953	25.419926	116637696	82456576	47121216	33184
954	26.885567	116637696	82456576	49119592	33184
955	28.577821	116637696	82456576	52108424	33184
956	33.484148	116637696	82456576	42017080	33184
957	35.770374	116637696	82456576	50850376	33184
958	37.092053	116637696	82456576	44389248	33184
959	40.934664	116637696	82456576	55667744	33184
960	49.079093	116637696	82456576	51226232	33184
961	59.16426	116637696	82456576	22422184	33184
962	3.773778	116637696	82456576	26121688	33184
963	5.748899	116637696	82456576	29915768	33184
964	7.628248	116637696	82456576	34974736	33184
965	12.07777	117178368	82980864	27191824	33184
966	11.36544	117178368	82980864	34783664	33184
967	14.099161	117178368	82980864	27864248	33184
968	15.011518	117178368	82980864	37997088	33184
969	17.309445	117178368	82980864	33222928	33184
970	19.71608	117178368	82980864	30307080	33184
971	21.805905	117178368	82980864	29108192	33184
972	24.786791	117178368	82980864	29323400	33184
973	26.6171	117178368	82980864	30848000	33184
974	27.828344	117178368	82980864	33378360	33184
975	29.258846	117178368	82980864	36813648	33184
976	33.765007	117178368	82980864	27265360	33184
977	35.965181	117178368	82980864	36473360	33184
978	38.120033	117178368	82980864	30325104	33184
979	40.05811	117178368	82980864	42094680	33184
980	41.350872	117178368	82980864	37931936	33184
981	48.638515	117178368	82980864	39654304	33184
982	3.836673	117178368	82980864	43907216	33184
983	5.67632	117178368	82980864	47770984	33184
984	7.983977	117178368	82980864	52924648	33184
985	12.308992	117178368	82980864	45139304	33184
986	11.657843	117178368	82980864	52895200	33184
987	14.04835	117178368	82980864	46171888	33184
988	16.627833	117178368	82980864	41362864	33184
989	17.480567	117178368	82980864	52990600	33184
990	20.091592	117178368	82980864	49890000	33184
991	21.77517	117178368	82980864	48433080	33184
992	24.216292	117178368	82980864	48562712	33184
993	26.593046	117178368	82980864	49891248	33184
994	27.653247	117178368	82980864	52334592	33184
995	29.673194	117178368	82980864	55824376	33184
996	33.585176	117178368	82980864	45945064	33184
997	33.990892	117178368	82980864	52864720	33184
998	38.143672	117178368	82980864	46398760	33184
999	40.266103	117178368	82980864	58596936	33184
1000	41.628908	117178368	82980864	54424416	33184
