x	Duration	RSS	HeapTotal	HeapUsed	External
0	NA	128991232	93990912	53146424	24992
1	0.450081	128991232	93990912	53191040	24992
2	0.428716	128991232	93990912	53262280	24992
3	0.517922	128991232	93990912	53358680	24992
4	0.591261	128991232	93990912	53481296	24992
5	0.698519	128991232	93990912	53631608	24992
6	0.815806	128991232	93990912	53810352	24992
7	0.940558	128991232	93990912	54018432	24992
8	1.060356	128991232	93990912	54256792	24992
9	1.190909	128991232	93990912	54527328	24992
10	1.140803	128991232	93990912	54830056	24992
11	0.534159	128991232	93990912	55165800	24992
12	0.578461	128991232	93990912	55536176	24992
13	0.630308	128991232	93990912	55941984	24992
14	0.693065	128991232	93990912	56384216	24992
15	0.928061	128991232	93990912	56863808	24992
16	0.819798	128991232	93990912	57381744	24992
17	0.864087	128991232	93990912	57940728	24992
18	0.982192	128991232	93990912	58540184	24992
19	1.017009	128991232	93990912	59181376	24992
20	1.063577	128991232	93990912	59864232	24992
21	1.113999	128991232	93990912	60590200	24992
22	1.172591	128991232	93990912	61360008	24992
23	1.302034	128991232	93990912	62174360	24992
24	1.330266	128991232	93990912	63034456	24992
25	1.974158	128991232	93990912	63942328	24992
26	4.17438	128991232	93990912	51067544	24992
27	1.615552	128991232	93990912	52082224	24992
28	1.788745	128991232	93990912	53138664	24992
29	1.704903	128991232	93990912	54246568	24992
30	1.740468	128991232	93990912	55406768	24992
31	1.828731	128991232	93990912	56620352	24992
32	1.938684	128991232	93990912	57890736	24992
33	2.071249	128991232	93990912	59220584	24992
34	2.11279	128991232	93990912	60606656	24992
35	2.334135	128991232	93990912	62050824	24992
36	2.325719	128991232	93990912	63551960	24992
37	2.370215	128991232	93990912	65111992	24992
38	3.341354	128991232	93990912	66733464	24992
39	4.889845	128991232	93990912	52636368	24992
40	2.706933	128991232	93990912	54378520	24992
41	2.728214	128991232	93990912	56183440	24992
42	3.166562	128991232	93990912	58053376	24992
43	2.944136	128991232	93990912	59986328	24992
44	3.057492	128991232	93990912	61985264	24992
45	3.13095	128991232	93990912	64051192	24992
46	3.251342	128991232	93990912	66184264	24992
47	4.593122	128991232	93990912	52258272	24992
48	3.443565	128991232	93990912	54527928	24992
49	3.735651	128991232	93990912	56867688	24992
50	3.6996	128991232	93990912	59278688	24992
51	3.785284	128991232	93990912	61764384	24992
52	4.05452	128991232	93990912	64324712	24992
53	4.772791	128991232	93990912	66961976	24992
54	5.457417	128991232	93990912	53465520	24992
55	4.440978	128991232	93990912	56256072	24992
56	4.438453	128991232	93990912	59125360	24992
57	5.000662	128991232	93990912	62074000	24992
58	4.607663	128991232	93990912	65103176	24992
59	4.758989	128991232	93990912	68213832	24992
60	6.322083	128991232	93990912	55409144	24992
61	4.940368	128991232	93990912	58685288	24992
62	5.257967	128991232	93990912	62045648	24992
63	5.396981	128991232	93990912	65490976	24992
64	7.2504	128991232	93990912	53606976	24992
65	5.964018	128991232	93990912	57233312	24992
66	6.110322	128991232	93990912	60947824	24992
67	5.815625	128991232	93990912	64750856	24992
68	6.239549	128991232	93990912	68643536	24992
69	8.371675	128991232	93990912	56922192	24992
70	6.24577	128991232	93990912	60997256	24992
71	6.413414	128991232	93990912	65164824	24992
72	6.667678	128991232	93990912	69425680	24992
73	8.756289	128991232	93990912	58031712	24992
74	6.769541	128991232	93990912	62482408	24992
75	7.296683	128991232	93990912	67030688	24992
76	9.814456	128991232	93990912	56176152	24992
77	7.50281	128991232	93990912	60918344	24992
78	7.35801	128991232	93990912	65759544	24992
79	7.552074	128991232	93990912	70700696	24992
80	9.965826	128991232	93990912	59906720	24992
81	7.842747	128991232	93990912	65050272	24992
82	8.179962	128991232	93990912	70297408	24992
83	10.285099	128991232	93990912	59854160	24992
84	9.536851	128991232	93990912	65311824	24992
85	8.576053	128991232	93990912	70894096	24992
86	11.167003	128991232	94515200	60782784	24992
87	9.023987	128991232	94515200	66558552	24992
88	11.077538	129531904	94515200	57135120	24992
89	9.600378	129531904	94515200	63129440	24992
90	9.534284	129531904	94515200	69233104	24992
91	11.677046	129531904	94515200	59855832	24992
92	10.463452	129531904	94515200	66182312	24992
93	10.559575	129531904	94515200	72625360	24992
94	12.408972	129531904	94515200	63320616	24992
95	10.663706	129531904	94515200	69988544	24992
96	12.401391	129531904	94515200	61175128	24992
97	10.802088	129531904	94515200	68076176	24992
98	13.155481	129531904	94515200	59781960	24992
99	11.429906	129531904	94515200	66921856	24992
100	11.639794	129531904	94515200	74178408	24992
101	13.524609	129802240	95039488	65602024	24992
102	11.590521	129802240	95039488	73102896	24992
103	14.494917	130072576	95563776	64889256	24992
104	12.005882	130072576	95563776	72637632	24992
105	14.561053	130613248	96088064	64767000	24992
106	12.606059	130613248	96088064	72775560	24992
107	14.647717	130883584	96612352	65119560	24992
108	13.078109	131153920	96612352	73386216	24992
109	15.448172	131424256	96612352	65969928	24992
110	13.622447	131424256	96612352	74500712	24992
111	15.593349	131694592	97136640	67260112	24992
112	13.947704	131964928	97136640	76059248	24992
113	16.14833	132235264	97660928	69003976	24992
114	16.918311	132505600	97660928	62946864	24992
115	14.498066	132505600	97660928	72157544	24992
116	17.519085	132775936	98185216	66030352	24992
117	14.950249	133046272	98185216	75519080	24992
118	17.7376	133316608	98709504	69321848	24992
119	19.035524	133586944	99233792	64082456	24992
120	16.033671	133857280	99233792	73995104	24992
121	18.396331	134127616	99233792	68421400	24992
122	15.922457	134127616	99233792	78621928	24992
123	18.86035	134397952	99758080	72985232	24992
124	19.397789	134668288	99758080	68085928	24992
125	17.05307	134938624	99758080	78724328	24992
126	19.511178	135208960	100806656	73540280	24992
127	20.376253	135479296	101330944	69117616	24992
128	18.251932	135479296	101330944	80200432	24992
129	20.307488	135749632	101330944	75379480	24992
130	21.409014	136019968	101330944	71250168	24992
131	21.663843	136560640	101855232	67890376	24992
132	18.396837	136560640	101855232	79599552	24992
133	21.376837	136830976	102379520	75461728	24992
134	22.097564	137371648	102379520	72085000	24992
135	23.227902	137641984	102903808	69263688	24992
136	19.631652	137641984	102903808	81596280	24992
137	24.445106	137912320	103428096	78021064	24992
138	30.159167	138182656	103428096	75067192	24992
139	31.018487	129794048	95039488	23261560	24992
140	21.62201	129794048	95039488	20561296	24992
141	22.75038	129794048	95039488	18599736	24992
142	24.080063	129794048	95039488	17145152	24992
143	22.598787	129794048	95039488	30599904	24992
144	23.486511	129794048	95039488	28086464	24992
145	23.364803	129794048	95039488	25989176	24992
146	23.982872	129794048	95039488	24408056	24992
147	24.209567	129794048	95039488	23090336	24992
148	25.348715	129794048	95039488	22191312	24992
149	25.369124	129794048	95039488	21628096	24992
150	25.400229	129794048	95039488	21341688	24992
151	25.957485	129794048	95039488	21314872	24992
152	26.837127	129794048	95039488	21531008	24992
153	27.004558	129794048	95039488	21934176	24992
154	26.97798	129794048	95039488	22492960	24992
155	27.361798	129794048	95039488	23160584	24992
156	28.656462	129794048	95039488	23951360	24992
157	28.317896	129794048	95039488	24848648	24992
158	28.425344	129794048	95039488	25835976	24992
159	27.984723	129794048	95039488	26905416	24992
160	28.027727	129794048	95039488	28049688	24992
161	28.632506	129794048	95039488	29222288	24992
162	28.49983	129794048	95039488	30462288	24992
163	29.226052	129794048	95039488	31741832	24992
164	29.91159	129794048	95039488	33042024	24992
165	31.047814	129794048	95039488	34399160	24992
166	29.900704	129794048	95039488	35805024	24992
167	32.959365	128503808	95039488	37416472	24992
168	34.226867	128503808	95039488	24876632	24992
169	32.866807	128503808	95039488	28361704	24992
170	31.859406	128503808	95039488	31581712	24992
171	32.214427	128503808	95039488	34551944	24992
172	32.213344	128503808	95039488	37323224	24992
173	35.965084	128503808	95039488	26017480	24992
174	34.493394	128503808	95039488	30386648	24992
175	33.451222	128503808	95039488	34498016	24992
176	33.611685	128503808	95039488	38260920	24992
177	37.473028	128503808	95039488	27803728	24992
178	34.828562	128503808	95039488	32869192	24992
179	35.075207	128503808	95039488	37595904	24992
180	35.024676	128503808	95039488	41861880	24992
181	39.247731	128503808	95039488	31696640	24992
182	36.557361	128503808	95039488	37318392	24992
183	36.619577	128503808	95039488	42380896	24992
184	40.921971	128503808	95039488	32940248	24992
185	37.15429	128503808	95039488	39096808	24992
186	41.863205	128503808	95039488	30967200	24992
187	40.209511	128503808	95039488	40148816	24992
188	37.76402	128503808	95039488	46476200	24992
189	42.766469	128503808	95039488	38097032	24992
190	38.764394	128503808	95039488	45130864	24992
191	45.486912	128503808	95039488	37597400	24992
192	40.582596	128503808	95039488	45085288	24992
193	44.110398	128503808	95039488	38119096	24992
194	42.868257	128503808	95039488	48754784	24992
195	45.308085	128503808	95039488	42482288	24992
196	41.921048	128503808	95039488	50717960	24992
197	46.461799	128503808	95039488	44293448	24992
198	42.423661	128503808	95039488	52858680	24992
199	47.486263	128503808	95039488	46564696	24992
200	47.545286	128503808	95039488	42042720	24992
201	52.572754	128503808	95039488	54147664	24992
202	63.585992	109334528	76165120	27811576	24992
203	43.29969	109334528	76165120	22994936	24992
204	44.432687	109334528	76165120	35707288	24992
205	44.341997	109334528	76165120	30805104	24992
206	44.647051	109334528	76165120	26853568	24992
207	47.227631	109334528	76165120	27622992	24992
208	45.674879	109334528	76165120	41080240	24992
209	44.761494	109334528	76165120	37102936	24992
210	45.404167	109334528	76165120	34373088	24992
211	50.272191	109334528	76165120	36026152	24992
212	46.306372	109875200	76165120	50493304	24992
213	47.231435	109875200	76165120	47420488	24992
214	47.510941	109875200	76165120	45204024	24992
215	51.632084	109875200	76165120	47942680	24992
216	51.979365	113389568	80359424	50801320	24992
217	56.904939	117444608	84553728	53890760	24992
218	69.840072	115752960	83505152	28201560	24992
219	52.091489	116830208	83505152	31038816	24992
220	53.734417	116830208	83505152	34710624	24992
221	52.96944	116830208	83505152	38606048	24992
222	56.55672	116830208	83505152	42798688	24992
223	53.271787	116830208	83505152	47177056	24992
224	53.564001	116830208	83505152	51820512	24992
225	55.924197	117641216	84029440	56704208	24992
226	57.173967	118181888	84553728	61827752	24992
227	79.146679	118153216	86650880	25551024	24992
228	56.359287	120041472	86650880	30419184	24992
229	55.633637	120041472	86650880	36284680	24992
230	56.746824	120041472	86650880	42421168	24992
231	56.781577	120041472	86650880	48809576	24992
232	60.121855	120041472	86650880	43098120	24992
233	57.976331	120041472	86650880	49945008	24992
234	57.212011	120582144	87175168	57078824	24992
235	59.882505	121122816	87699456	64465376	24992
236	82.644067	121298944	89796608	29375048	24992
237	59.551372	123187200	89796608	36354208	24992
238	61.935092	123187200	89796608	32191344	24992
239	59.537058	123187200	89796608	40576720	24992
240	60.245409	123187200	89796608	49230112	24992
241	64.900113	123187200	89796608	45886480	24992
242	62.913653	123187200	89796608	55034016	24992
243	62.260435	123727872	90320896	64499440	24992
244	87.566699	122658816	91369472	18281560	24992
245	63.958858	124547072	91369472	27645680	24992
246	62.421823	124547072	91369472	38334920	24992
247	66.926179	124547072	91369472	37036680	24992
248	65.585661	124547072	91369472	48311632	24992
249	69.366793	124547072	91369472	47552456	24992
250	67.014958	124547072	91369472	59318440	24992
251	88.112243	126169088	92942336	58889008	24992
252	70.192263	119328768	86126592	27486592	24992
253	70.530247	119328768	86126592	27498848	24992
254	68.904791	119328768	86126592	39988072	24992
255	70.82409	119328768	86126592	40550416	24992
256	70.133733	119328768	86126592	53597504	24992
257	71.175596	119599104	86126592	54671568	24992
258	87.201759	122302464	89272320	56095744	24992
259	80.244828	119934976	86650880	27295504	24992
260	73.747671	119934976	86650880	29081184	24992
261	71.457755	119934976	86650880	43392416	24992
262	72.10911	119934976	86650880	45747168	24992
263	72.048666	119934976	86650880	48368808	24992
264	72.844057	120205312	86650880	51279784	24992
265	98.514231	117899264	86650880	25782696	24992
266	71.75151	119787520	86650880	41044072	24992
267	75.657635	119787520	86650880	45258880	24992
268	81.195442	119787520	86650880	49749176	24992
269	77.056657	120328192	86650880	54432904	24992
270	78.156838	120868864	87175168	59432720	24992
271	79.402418	126005248	92418048	64679296	24992
272	100.065045	124469248	92942336	37936024	24992
273	77.834994	126357504	92942336	42269080	24992
274	79.446577	126357504	92942336	48009352	24992
275	80.192483	126357504	92942336	54051968	24992
276	81.116424	126357504	92942336	60362976	24992
277	83.379499	127979520	94515200	54754784	24992
278	94.927882	128249856	94515200	61678504	24992
279	87.645265	123973632	90320896	34705504	24992
280	82.123735	123973632	90320896	42356856	24992
281	83.688455	123973632	90320896	38038264	24992
282	83.961402	123973632	90320896	46367424	24992
283	82.181313	123973632	90320896	54984336	24992
284	106.294656	121495552	89796608	20210064	24992
285	85.571554	123383808	89796608	28509456	24992
286	83.144403	123383808	89796608	38403416	24992
287	88.494787	123383808	89796608	48635320	24992
288	90.010298	123383808	89796608	46850056	24992
289	87.950941	123924480	90320896	57638824	24992
290	117.487505	123367424	89796608	27221712	24992
291	86.651848	123367424	89796608	38158968	24992
292	86.009836	123367424	89796608	49332608	24992
293	90.616247	123367424	89796608	48469912	24992
294	89.6265	123367424	89796608	60246936	24992
295	90.347312	127152128	93990912	60060832	24992
296	118.282185	127463424	93990912	27772864	24992
297	89.361131	127463424	93990912	40642128	24992
298	93.789337	127463424	93990912	41380952	24992
299	93.343493	127463424	93990912	54734816	24992
300	92.559204	127463424	93990912	56106048	24992
301	93.465826	128274432	94515200	70105872	24992
302	119.021506	125988864	92418048	38244888	24992
303	96.284587	125988864	92418048	41067096	24992
304	95.470272	125988864	92418048	44290904	24992
305	96.250569	125988864	92418048	60121248	24992
306	97.416374	126529536	92942336	64009136	24992
307	119.002928	124084224	92418048	33747624	24992
308	96.569836	125972480	92418048	36412272	24992
309	97.170127	125972480	92418048	40654824	24992
310	97.872081	125972480	92418048	45206464	24992
311	98.330916	125972480	92418048	62400096	24992
312	123.849255	122400768	88748032	23512504	24992
313	100.604004	122400768	88748032	29215776	24992
314	97.446964	122400768	88748032	48021640	24992
315	103.848378	122400768	88748032	54731360	24992
316	108.250096	123211776	89796608	61530320	24992
317	122.717074	119566336	86126592	40556416	24992
318	103.170547	119566336	86126592	47733968	24992
319	103.18582	119566336	86126592	55251992	24992
320	103.917186	119832576	86126592	63117064	24992
321	114.343264	126590976	92942336	71273608	24992
322	122.241134	125779968	91893760	34693304	24992
323	105.716044	125779968	91893760	43623392	24992
324	106.175786	125779968	91893760	53008904	24992
325	107.140436	125779968	91893760	62794280	24992
326	133.206432	121729024	89796608	28099528	24992
327	108.137739	123617280	89796608	37290816	24992
328	109.133614	123617280	89796608	47851632	24992
329	110.929185	123617280	89796608	58745336	24992
330	113.954741	123887616	89796608	57755192	24992
331	138.793752	126590976	92418048	40132680	24992
332	113.339007	126590976	92418048	39829512	24992
333	111.81895	126590976	92418048	52358600	24992
334	111.633051	126590976	92418048	65241088	24992
335	122.909774	132808704	98709504	66128136	24992
336	135.508889	128892928	95039488	33029720	24992
337	112.99256	128892928	95039488	46752848	24992
338	115.892098	128892928	95039488	48489264	24992
339	113.43319	128892928	95039488	62912584	24992
340	138.616189	125960192	93990912	30330888	24992
341	118.424553	127848448	93990912	32094520	24992
342	116.393926	127848448	93990912	47610408	24992
343	120.144617	127848448	93990912	51366360	24992
344	126.765102	128659456	94515200	67765832	24992
345	139.202333	125382656	91369472	41105056	24992
346	120.091527	125382656	91369472	45671672	24992
347	121.91927	125382656	91369472	50653432	24992
348	120.521048	125923328	91893760	68302416	24992
349	147.531399	127488000	93466624	25811696	24992
350	119.807589	127488000	93466624	44099464	24992
351	124.96457	127488000	93466624	50621760	24992
352	127.906989	127488000	93466624	57595656	24992
353	151.650435	122732544	88748032	37815472	24992
354	126.069771	122732544	88748032	45343352	24992
355	126.853544	122732544	88748032	53227536	24992
356	128.616657	129220608	95563776	61540992	24992
357	149.803113	123269120	89272320	31129960	24992
358	128.41149	123539456	89272320	40305368	24992
359	129.966268	123539456	89272320	49903728	24992
360	133.598743	123809792	89796608	59859944	24992
361	159.987974	123023360	89272320	43505840	24992
362	131.693997	123023360	89272320	53945416	24992
363	130.165761	123023360	89272320	64760736	24992
364	138.524329	131674112	97660928	63780096	24992
365	159.566142	134832128	100806656	42125640	24992
366	133.033964	134832128	100806656	54089536	24992
367	138.98482	134832128	100806656	54284448	24992
368	137.364637	134832128	100806656	67302840	24992
369	158.933342	126480384	92418048	27496728	24992
370	133.294307	126480384	92418048	40947696	24992
371	135.106554	126480384	92418048	54827704	24992
372	151.411161	126480384	92418048	56899328	24992
373	155.177726	123494400	89796608	42162656	24992
374	137.198776	124035072	89796608	57218536	24992
375	142.084332	124035072	89796608	60672000	24992
376	168.3286	129089536	97136640	29889200	24992
377	138.940101	130977792	97136640	45036216	24992
378	142.422362	130977792	97136640	49368968	24992
379	142.138463	130977792	97136640	66349000	24992
380	164.637259	123895808	89796608	36409488	24992
381	144.410674	123895808	89796608	41960632	24992
382	147.465249	123895808	89796608	47887032	24992
383	166.84064	121024512	89272320	36635440	24992
384	147.31984	122912768	89272320	42941104	24992
385	147.77542	122912768	89272320	50038600	24992
386	146.826373	124805120	90845184	69718448	24992
387	178.530102	128053248	93990912	36505232	24992
388	147.48795	128053248	93990912	57072216	24992
389	152.698988	128053248	93990912	66023456	24992
390	179.177239	130347008	98709504	26532352	24992
391	148.013291	132235264	98709504	47018312	24992
392	154.823826	132235264	98709504	56918128	24992
393	151.657812	132235264	98709504	67180656	24992
394	176.004908	124973056	90845184	28372808	24992
395	154.756063	124973056	90845184	39511480	24992
396	153.4521	124973056	90845184	51229704	24992
397	180.587638	124334080	90320896	32305056	24992
398	159.472834	124604416	90320896	44626800	24992
399	154.771965	124604416	90320896	57339248	24992
400	183.76242	122245120	88223744	26089488	24992
401	155.856715	122515456	88223744	39582504	24992
402	158.859429	122515456	88223744	53607424	24992
403	186.114838	122687488	88748032	35867056	24992
404	161.042455	122687488	88748032	38487488	24992
405	162.144509	122687488	88748032	54031080	24992
406	183.265998	123654144	89796608	36996472	24992
407	163.691518	123654144	89796608	40873928	24992
408	163.177697	123654144	89796608	57329952	24992
409	192.271399	125771776	91893760	28280736	24992
410	165.741237	125771776	91893760	45617760	24992
411	164.816811	125771776	91893760	63321592	24992
412	190.378804	124690432	92942336	36885088	24992
413	167.395966	126849024	92942336	42340840	24992
414	164.236125	126849024	92942336	61269520	24992
415	197.119086	133337088	99758080	68625032	24992
416	175.866459	129335296	95563776	44194672	24992
417	171.052256	129335296	95563776	64701352	24992
418	176.87516	133660672	99758080	73399712	24992
419	205.030458	131190784	97136640	49133656	24992
420	171.830806	131190784	97136640	58400248	24992
421	173.380223	134705152	100806656	68159808	24992
422	196.568969	129576960	95563776	35218832	24992
423	174.319404	129847296	95563776	45778896	24992
424	178.016519	129847296	95563776	56898024	24992
425	197.233708	124895232	90845184	34928192	24992
426	177.213583	124895232	90845184	46829560	24992
427	184.480544	126787584	92942336	59178712	24992
428	203.926215	121335808	87175168	47058984	24992
429	180.226358	122146816	88223744	60297904	24992
430	185.037641	136474624	102903808	74097576	24992
431	212.027884	136634368	102379520	41783776	24992
432	184.771615	136634368	102379520	56411264	24992
433	182.097429	137715712	103952384	71487376	24992
434	200.285774	125423616	91369472	30918312	24992
435	186.066725	125693952	91369472	46920528	24992
436	213.243495	118378496	86126592	35956216	24992
437	184.730946	120266752	86126592	52691976	24992
438	189.404011	124862464	90845184	57746832	24992
439	215.357805	126021632	92418048	38819952	24992
440	188.593591	126562304	92418048	44985752	24992
441	187.620904	127102976	92942336	63807880	24992
442	217.054235	125378560	91369472	35714560	24992
443	191.55005	125648896	91369472	43141624	24992
444	196.658982	126730240	92942336	63298504	24992
445	219.033194	124092416	89796608	45054672	24992
446	192.140787	124903424	90845184	66086968	24992
447	225.687014	141664256	108146688	75598352	24992
448	201.700151	136151040	101855232	48795624	24992
449	196.278373	136151040	101855232	71576040	24992
450	231.828302	128647168	96612352	32950568	24992
451	195.641311	130535424	96612352	55259000	24992
452	199.250165	131076096	97136640	66861160	24992
453	227.000155	133775360	102379520	41563920	24992
454	201.497546	135663616	102379520	53047784	24992
455	205.273748	135663616	102379520	66136120	24992
456	226.821709	129179648	95039488	41186280	24992
457	203.308235	129179648	95039488	55155024	24992
458	205.870659	129179648	95039488	69613288	24992
459	236.034865	129245184	95039488	56883144	24992
460	204.635308	129245184	95039488	72379168	24992
461	224.244308	143843328	110243840	88738080	24992
462	223.624917	141664256	107622400	53646328	24992
463	210.363482	141664256	107622400	70768736	24992
464	239.087497	132096000	98185216	35636424	24992
465	210.034872	132096000	98185216	53684720	24992
466	208.269688	132907008	98709504	71954352	24992
467	234.168795	131166208	97136640	39404560	24992
468	213.045744	131166208	97136640	58652080	24992
469	242.740392	125460480	91369472	35888096	24992
470	216.178016	125460480	91369472	56159592	24992
471	216.983372	131678208	97660928	64572872	24992
472	247.868286	132956160	98709504	56963408	24992
473	216.877093	132956160	98709504	66432656	24992
474	228.682303	147824640	113913856	88782280	24992
475	238.341279	137555968	103428096	57655240	24992
476	222.974471	137555968	103428096	68898592	24992
477	252.177273	135536640	101855232	38947416	24992
478	219.400161	135536640	101855232	51038336	24992
479	218.565409	136077312	101855232	75726696	24992
480	241.397799	124977152	90845184	37353096	24992
481	231.86584	126328832	92418048	50763464	24992
482	253.8218	120197120	86126592	55636904	24992
483	227.693591	133443584	99233792	70056360	24992
484	257.475149	151826432	118108160	84922528	24992
485	241.386883	133992448	99758080	57156192	24992
486	232.561841	134533120	100806656	73649688	24992
487	258.692857	127287296	93466624	34609896	24992
488	229.502708	127287296	93466624	51535696	24992
489	263.213321	123895808	91893760	37880592	24992
490	229.681364	125784064	91893760	55193632	24992
491	232.644856	135245824	101330944	73595792	24992
492	257.784372	126083072	91893760	36472232	24992
493	233.52392	126083072	91893760	56332856	24992
494	261.071931	125386752	91369472	32166136	24992
495	241.328208	125386752	91369472	52720496	24992
496	263.424302	126427136	92418048	41008928	24992
497	237.327727	126427136	92418048	62645936	24992
498	271.683155	128176128	96088064	40584448	24992
499	238.508829	130064384	96088064	62453456	24992
500	245.186879	137904128	103952384	73742928	24992
x	Duration	RSS	HeapTotal	HeapUsed	External
0	NA	130449408	96612352	60838680	24992
1	0.478321	130449408	96612352	60887288	24992
2	0.45143	130449408	96612352	60963624	24992
3	0.578878	130449408	96612352	61066944	24992
4	0.581547	130449408	96612352	61198760	24992
5	0.685021	130449408	96612352	61360576	24992
6	0.795796	130449408	96612352	61552800	24992
7	0.907267	130449408	96612352	61776440	24992
8	1.144833	130449408	96612352	62032480	24992
9	0.450139	130449408	96612352	62322880	24992
10	0.500277	130449408	96612352	62648208	24992
11	0.544052	130449408	96612352	63009504	24992
12	0.60111	130449408	96612352	63407656	24992
13	0.647674	130449408	96612352	63843640	24992
14	0.757421	130449408	96612352	64318432	24992
15	0.765462	130449408	96612352	64833040	24992
16	0.825756	130449408	96612352	65388464	24992
17	0.887547	130449408	96612352	65987496	24992
18	0.96768	130449408	96612352	66629264	24992
19	1.019419	130449408	96612352	67315792	24992
20	1.091688	130449408	96612352	68047160	24992
21	1.158444	130449408	96612352	68824408	24992
22	1.404587	130449408	96612352	69648608	24992
23	1.298555	130449408	96612352	70520816	24992
24	1.335643	130449408	96612352	71443168	24992
25	1.470848	130449408	96612352	72416528	24992
26	1.489655	130449408	96612352	73441824	24992
27	4.820358	131260416	96612352	60763296	24992
28	1.700011	131260416	96612352	61895376	24992
29	1.725229	131260416	96612352	63082336	24992
30	1.840159	131260416	96612352	64325200	24992
31	1.882832	131260416	96612352	65625064	24992
32	1.988823	131260416	96612352	66985312	24992
33	2.064377	131260416	96612352	68408656	24992
34	2.354307	131260416	96612352	69892184	24992
35	2.248036	131260416	96612352	71436448	24992
36	2.387777	131260416	97136640	73042744	24992
37	3.132595	131260416	97136640	74712432	24992
38	2.915894	131260416	97136640	76445080	24992
39	4.245922	131530752	97660928	62176632	24992
40	2.726717	131530752	97660928	64039952	24992
41	2.832019	131530752	97660928	65969544	24992
42	3.141927	131530752	97660928	67966920	24992
43	3.022172	131530752	97660928	70032952	24992
44	3.116368	131801088	97660928	72168400	24992
45	3.449995	131801088	97660928	74376760	24992
46	3.525163	131801088	97660928	76655704	24992
47	4.505391	131801088	97660928	62777944	24992
48	3.584062	131801088	97660928	65204184	24992
49	3.833578	132071424	97660928	67706296	24992
50	3.796853	132071424	97660928	70286320	24992
51	3.888958	132071424	97660928	72946528	24992
52	4.4283	132071424	97660928	75688696	24992
53	5.696058	132071424	97660928	62408408	24992
54	4.274561	132341760	97660928	65311352	24992
55	4.457231	132341760	98185216	68297488	24992
56	4.652447	132341760	98185216	71367592	24992
57	4.756732	132341760	98185216	74524424	24992
58	4.753628	132341760	98185216	77765776	24992
59	5.775106	132612096	98709504	64784312	24992
60	4.978609	132612096	98709504	68202552	24992
61	5.770249	132612096	98709504	71707688	24992
62	5.326692	132612096	98709504	75310776	24992
63	6.718313	132612096	98709504	63035744	24992
64	5.700497	132882432	98709504	66813800	24992
65	6.760412	132882432	98709504	70692568	24992
66	6.53173	132882432	98709504	74690056	24992
67	7.498752	133152768	98709504	63200160	24992
68	6.150576	133152768	98709504	67363896	24992
69	6.41398	133152768	98709504	71624416	24992
70	6.380498	133152768	98709504	75983424	24992
71	8.321555	133693440	99233792	64918576	24992
72	6.720924	133693440	99233792	69474600	24992
73	6.794367	133693440	99233792	74132512	24992
74	7.1553	133693440	99233792	78891544	24992
75	8.73876	134234112	99758080	67944752	24992
76	7.604378	134234112	99758080	72909624	24992
77	7.820695	134234112	99758080	77978488	24992
78	9.509497	134504448	100282368	67414336	24992
79	7.733509	134504448	100282368	72696608	24992
80	8.08454	134774784	100282368	78085224	24992
81	9.796369	135045120	100806656	67874032	24992
82	8.265435	135045120	100806656	73480496	24992
83	8.505989	135315456	100806656	79199248	24992
84	10.202602	135585792	101330944	69194752	24992
85	8.966961	135585792	101330944	75138152	24992
86	9.140514	135585792	101330944	81196008	24992
87	10.585612	136126464	101855232	71419160	24992
88	9.491888	136126464	101855232	77708920	24992
89	11.686381	136396800	102379520	68581680	24992
90	9.830562	136396800	102379520	75107648	24992
91	9.979433	136396800	102379520	81752288	24992
92	11.776175	136937472	102903808	72621040	24992
93	10.379203	136937472	102903808	79507736	24992
94	12.309418	137207808	102903808	70849080	24992
95	10.712005	137207808	102903808	77982264	24992
96	12.70641	137748480	103428096	69860976	24992
97	11.008659	137748480	103428096	77243272	24992
98	13.319025	138018816	103952384	69475024	24992
99	11.727629	138018816	103952384	77110736	24992
100	14.095284	138559488	103952384	69711016	24992
101	12.210659	138559488	103952384	77606416	24992
102	14.567796	138829824	105000960	70452240	24992
103	12.367946	138829824	105000960	78614328	24992
104	15.623448	139100160	105525248	71618000	24992
105	12.623368	139370496	105525248	80053648	24992
106	15.073754	139640832	105525248	73153856	24992
107	13.168572	139640832	105525248	81866352	24992
108	15.618885	139911168	106049536	75024000	24992
109	13.685129	140181504	106049536	84017936	24992
110	15.632058	140451840	106573824	77205520	24992
111	16.650319	140722176	107098112	71564576	24992
112	14.343498	140722176	107098112	80988272	24992
113	16.779941	140992512	107098112	75076200	24992
114	15.693903	140992512	107098112	84801352	24992
115	17.280954	141533184	107098112	78749136	24992
116	18.093155	141803520	107622400	73758936	24992
117	15.479807	141803520	107622400	83919864	24992
118	17.807106	142073856	108146688	78443880	24992
119	18.31945	142614528	108146688	74063888	24992
120	16.904496	142614528	108146688	84674056	24992
121	18.636389	142884864	108670976	79631448	24992
122	19.529247	143155200	109195264	75629520	24992
123	17.082124	143155200	109195264	86701048	24992
124	19.278132	143425536	109195264	81908536	24992
125	20.081856	143966208	109719552	78091888	24992
126	21.544554	144236544	109719552	75004544	24992
127	17.668804	144236544	109719552	86711648	24992
128	20.925682	144506880	110243840	82678864	24992
129	21.111886	144777216	110768128	79549040	24992
130	21.611129	145047552	110768128	77033376	24992
131	19.499228	145047552	110768128	89392520	24992
132	21.776319	145317888	111292416	85854776	24992
133	21.819966	145858560	111816704	83003648	24992
134	22.10434	146128896	111816704	80772024	24992
135	23.290709	146399232	112340992	79074128	24992
136	24.217428	146669568	112340992	77877872	24992
137	20.471399	146669568	112340992	91234152	24992
138	23.377502	146939904	112865280	88688408	24992
139	23.544044	147210240	112865280	86615760	24992
140	24.353526	147750912	113389568	85056704	24992
141	24.36873	148021248	113913856	83905248	24992
142	24.9855	148291584	113913856	83163888	24992
143	25.656574	148561920	114438144	82792808	24992
144	25.980917	148832256	114962432	82689656	24992
145	26.32439	149102592	114962432	82827992	24992
146	26.967989	149372928	115486720	83170656	24992
147	26.828994	149643264	115486720	83674960	24992
148	27.255844	149913600	115486720	84320736	24992
149	27.40381	150183936	116011008	85089976	24992
150	27.838085	150454272	116535296	85943896	24992
151	28.281289	150724608	116535296	86884832	24992
152	28.051127	150994944	117059584	87896384	24992
153	28.139811	151265280	117059584	88973280	24992
154	28.696525	151535616	117059584	90101592	24992
155	30.054068	151805952	117583872	91259376	24992
156	46.389274	139137024	105000960	16926104	24992
157	30.321905	139403264	105000960	21181784	24992
158	28.689835	139403264	105000960	23601008	24992
159	28.251522	139403264	105000960	25652048	24992
160	28.409776	139403264	105000960	27563536	24992
161	28.588671	139403264	105000960	29372360	24992
162	28.722978	139403264	105000960	31087392	24992
163	28.459489	139673600	105000960	32851792	24992
164	31.351542	139673600	105000960	20760424	24992
165	30.434393	139673600	105000960	24612224	24992
166	30.585921	139673600	105000960	28029360	24992
167	30.567779	138870784	105000960	31133232	24992
168	34.000388	138870784	105000960	20391152	24992
169	31.907197	138870784	105000960	25260040	24992
170	31.80695	138870784	105000960	29685008	24992
171	31.582777	138870784	105000960	33614984	24992
172	34.275077	138870784	105000960	23552952	24992
173	33.176098	138870784	105000960	28991616	24992
174	32.916579	138870784	105000960	33776736	24992
175	35.554118	138870784	105000960	24491024	24992
176	33.989156	138870784	105000960	30502176	24992
177	33.908058	138870784	105000960	35820688	24992
178	37.107877	138870784	105000960	26908136	24992
179	35.795585	138870784	105000960	33319704	24992
180	38.008672	138870784	105000960	25573024	24992
181	40.527252	138870784	105000960	35629720	24992
182	39.560351	138870784	105000960	28963192	24992
183	38.737023	138870784	105000960	39395264	24992
184	40.029784	138870784	105000960	33098144	24992
185	39.780586	138870784	105000960	43953136	24992
186	40.760968	138870784	105000960	37916728	24992
187	40.239563	138870784	105000960	49220000	24992
188	41.510252	138870784	105000960	43361144	24992
189	38.659694	138870784	105000960	51743432	24992
190	42.957584	138870784	105000960	45601752	24992
191	42.978586	138870784	105000960	41445296	24992
192	43.624211	138870784	105000960	53803896	24992
193	53.581945	138870784	105000960	48972568	24992
194	57.120653	115646464	81932288	21820440	24992
195	42.316058	115646464	81932288	34654472	24992
196	42.707023	115646464	81932288	29973472	24992
197	43.046948	115646464	81932288	26644744	24992
198	43.356421	115646464	81932288	40321072	24992
199	45.25155	115646464	81932288	36109080	24992
200	44.134331	115646464	81932288	32823240	24992
201	49.463179	115646464	81932288	35189744	24992
202	50.141613	115646464	81932288	37618288	24992
203	45.124713	115646464	81932288	52290496	24992
204	46.930418	115646464	81932288	49076080	24992
205	45.598902	115646464	81932288	47092184	24992
206	51.107933	115646464	81932288	50691504	24992
207	56.585538	116998144	83505152	54431216	24992
208	68.794279	117559296	85602304	29330816	24992
209	52.848495	118906880	85602304	32835584	24992
210	53.504488	118906880	85602304	37119480	24992
211	52.724086	118906880	85602304	41690616	24992
212	52.935175	118906880	85602304	46481128	24992
213	54.243889	118906880	85602304	51562144	24992
214	54.630588	119717888	86126592	56886088	24992
215	57.855726	119717888	86126592	62479840	24992
216	81.136235	120471552	88748032	25946648	24992
217	58.115121	122359808	88748032	31276880	24992
218	55.580238	122359808	88748032	37730032	24992
219	57.754415	122359808	88748032	44426136	24992
220	56.499946	122359808	88748032	51442616	24992
221	63.228924	122359808	88748032	46997768	24992
222	57.894146	122900480	89272320	54478008	24992
223	58.824025	122900480	89272320	62214888	24992
224	87.129019	123547648	91893760	26965088	24992
225	59.411551	125435904	91893760	34003128	24992
226	58.951611	125435904	91893760	42358248	24992
227	64.316819	125435904	91893760	39391840	24992
228	59.398469	125435904	91893760	48284528	24992
229	59.589922	125435904	91893760	57486352	24992
230	64.983345	125435904	91893760	55293824	24992
231	66.078576	125706240	91893760	64983808	24992
232	83.890616	125591552	92418048	29820832	24992
233	63.462703	125591552	92418048	40199544	24992
234	68.067666	125591552	92418048	39442880	24992
235	64.526802	125857792	92418048	50437992	24992
236	68.201166	125857792	92418048	50075192	24992
237	63.548934	126398464	92418048	61608376	24992
238	75.633186	126939136	92942336	61805184	24992
239	88.626901	120922112	87175168	30501712	24992
240	69.570196	120922112	87175168	31223928	24992
241	66.431914	120922112	87175168	43629072	24992
242	71.108587	120922112	87175168	44760656	24992
243	67.531713	120922112	87175168	57744632	24992
244	71.555086	121192448	87175168	59417440	24992
245	91.732256	126869504	92942336	61382488	24992
246	77.656101	124780544	90845184	29949496	24992
247	74.978505	124780544	90845184	32482184	24992
248	69.364674	124780544	90845184	47046200	24992
249	75.467899	124780544	90845184	50296208	24992
250	74.604424	124780544	90845184	53828280	24992
251	79.526989	124780544	90845184	57660688	24992
252	94.552153	125288448	91369472	30030432	24992
253	74.880393	125288448	91369472	34408664	24992
254	75.156702	125288448	91369472	38953248	24992
255	73.28176	125288448	91369472	55362088	24992
256	80.190299	125288448	91369472	60510864	24992
257	77.737811	125288448	91369472	65972648	24992
258	105.563151	127090688	93466624	27776192	24992
259	80.052348	127090688	93466624	33990800	24992
260	78.543554	127090688	93466624	40471336	24992
261	79.83791	127090688	93466624	47270808	24992
262	79.621758	127090688	93466624	54390992	24992
263	80.845563	127901696	93990912	61792312	24992
264	108.509975	126283776	95039488	36509520	24992
265	80.837302	128712704	95039488	43227968	24992
266	80.892113	128712704	95039488	51354280	24992
267	87.024191	128712704	95039488	48188512	24992
268	82.883581	128712704	95039488	56979320	24992
269	83.659996	129794048	96088064	66048000	24992
270	113.921176	131973120	98185216	28632656	24992
271	84.863187	131973120	98185216	38485768	24992
272	84.290584	131973120	98185216	48490368	24992
273	85.091084	131973120	98185216	58914240	24992
274	92.429514	131973120	98185216	58100520	24992
275	92.847153	133324800	99233792	69213288	24992
276	109.666613	128028672	93990912	32874104	24992
277	89.111609	128028672	93990912	44411808	24992
278	93.831721	128028672	93990912	44601936	24992
279	88.001348	128028672	93990912	56802208	24992
280	89.834382	128028672	93990912	69283528	24992
281	122.183243	127381504	93466624	39030104	24992
282	94.922033	127381504	93466624	40677744	24992
283	90.235518	127381504	93466624	54220672	24992
284	95.885203	127381504	93466624	56500272	24992
285	92.226263	128192512	93990912	70781880	24992
286	120.898564	129581056	95563776	24111312	24992
287	95.462704	129581056	95563776	39334928	24992
288	97.650162	129581056	95563776	42918048	24992
289	98.083995	129581056	95563776	46862584	24992
290	102.073977	130392064	96088064	62782504	24992
291	119.978303	122454016	88223744	38272216	24992
292	102.266604	122454016	88223744	42996288	24992
293	99.161086	122454016	88223744	48048008	24992
294	96.590503	122454016	88223744	65161792	24992
295	130.7059	126046208	93990912	25462952	24992
296	96.956875	127934464	93990912	42073480	24992
297	102.423493	127934464	93990912	48573512	24992
298	103.72326	127934464	93990912	55475352	24992
299	104.353655	129015808	95039488	62714776	24992
300	134.121612	125079552	90845184	39426592	24992
301	105.650613	125079552	90845184	47239904	24992
302	106.208341	125079552	90845184	55353312	24992
303	106.249222	125620224	91369472	63769520	24992
304	112.853674	133459968	99758080	72545600	24992
305	130.078096	132050944	97660928	33843168	24992
306	110.161186	132050944	97660928	43331680	24992
307	109.505855	132050944	97660928	53173048	24992
308	108.586595	132050944	97660928	63561608	24992
309	136.438596	126521344	92418048	24733400	24992
310	112.024219	126521344	92418048	35826888	24992
311	109.510904	126521344	92418048	47056864	24992
312	109.524844	126521344	92418048	58622680	24992
313	140.857326	122650624	90320896	26477024	24992
314	113.152525	124538880	90320896	37968640	24992
315	112.350598	124538880	90320896	50627960	24992
316	116.928819	124538880	90320896	52153104	24992
317	134.446018	129404928	95563776	65686848	24992
318	129.584061	131567616	97660928	34542384	24992
319	114.025589	131567616	97660928	48736176	24992
320	115.078446	131567616	97660928	63342808	24992
321	126.970071	133189632	99233792	66650560	24992
322	147.206628	126263296	91893760	37766440	24992
323	116.48334	126263296	91893760	53245376	24992
324	122.17874	126263296	91893760	57499320	24992
325	119.948047	130048000	96088064	73683088	24992
326	155.757957	134012928	99758080	33707192	24992
327	116.923155	134012928	99758080	50672896	24992
328	123.684531	134012928	99758080	56325904	24992
329	121.600117	134012928	99758080	74195696	24992
330	151.034115	126668800	92418048	33407864	24992
331	125.863289	126668800	92418048	40370912	24992
332	127.463559	126668800	92418048	47691408	24992
333	153.743059	118923264	84553728	25383728	24992
334	123.365019	118923264	84553728	44966848	24992
335	128.866746	118923264	84553728	53248320	24992
336	134.742203	123789312	90320896	61870760	24992
337	155.353928	124350464	90320896	42868712	24992
338	131.763483	124350464	90320896	52258800	24992
339	133.20555	125161472	90845184	62072552	24992
340	161.69823	131661824	94515200	24642432	24992
341	129.98706	134254592	100806656	45613152	24992
342	135.430334	145608704	113389568	56460704	24992
343	134.85102	149663744	116011008	67759760	24992
344	166.729563	108359680	74592256	29899392	24992
345	135.073723	108900352	74592256	42176944	24992
346	136.580392	114577408	80359424	54675016	24992
347	142.989507	126201856	92418048	67671336	24992
348	165.199386	118853632	84553728	38869584	24992
349	140.194627	118853632	84553728	52461480	24992
350	137.660788	126963712	93466624	66452688	24992
351	166.841725	116764672	82980864	30243888	24992
352	140.095611	116764672	82980864	45248192	24992
353	139.519427	117305344	82980864	60357656	24992
354	164.613396	129200128	95039488	64575248	24992
355	151.855011	122462208	88223744	49031016	24992
356	148.116851	122462208	88223744	53997048	24992
357	145.015319	128950272	95039488	70928984	24992
358	170.891117	117161984	82980864	37060984	24992
359	146.812114	117161984	82980864	43142784	24992
360	144.161518	117702656	83505152	61295016	24992
361	173.815501	117878784	84029440	36452200	24992
362	148.670605	117878784	84029440	43757608	24992
363	146.639842	118960128	84553728	63087224	24992
364	176.148542	119300096	85078016	27057592	24992
365	146.181262	119300096	85078016	46961600	24992
366	152.578531	120381440	86126592	55691272	24992
367	189.816452	124620800	90320896	48615216	24992
368	153.772778	124620800	90320896	58111648	24992
369	156.740933	133001216	99233792	68111056	24992
370	153.677228	144625664	110768128	90263016	24992
371	189.958949	132395008	98185216	46927584	24992
372	157.790382	132395008	98185216	58232776	24992
373	156.170996	134017024	100282368	70084848	24992
374	185.534326	125227008	91369472	27049288	24992
375	154.94907	125497344	91369472	51025720	24992
376	159.664332	125497344	91369472	63953968	24992
377	184.529383	123371520	89272320	32310976	24992
378	159.173651	123371520	89272320	46054088	24992
379	165.029017	124452864	90320896	60111072	24992
380	191.136048	122040320	87699456	49602336	24992
381	161.974823	122040320	87699456	64575872	24992
382	165.677427	134746112	100806656	79929528	24992
383	187.756388	120897536	86650880	30386128	24992
384	161.378012	120897536	86650880	46589288	24992
385	195.751591	119042048	87175168	35737632	24992
386	165.824984	120930304	87175168	52583864	24992
387	170.138029	123904000	89796608	58557344	24992
388	197.686082	125882368	92418048	28549264	24992
389	166.386844	125882368	92418048	46882664	24992
390	167.670717	126152704	92418048	65648720	24992
391	195.456112	123015168	88748032	36862816	24992
392	176.329386	123015168	88748032	45220384	24992
393	197.076599	126799872	92942336	65552888	24992
394	182.220413	123080704	88748032	47127008	24992
395	172.597778	124432384	90320896	68288784	24992
396	213.110964	132259840	100282368	29975392	24992
397	176.19557	146583552	113913856	50529056	24992
398	183.7794	162803712	131739648	61222216	24992
399	209.957648	106266624	74067968	34337864	24992
400	180.099707	111669248	77737984	44871264	24992
401	180.850397	125997056	91893760	68907744	24992
402	216.079563	109248512	75640832	31154952	24992
403	177.00797	110059520	76165120	56127192	24992
404	186.187141	126820352	93466624	70238416	24992
405	214.362115	107630592	73543680	33799032	24992
406	185.488073	111955968	78262272	48027296	24992
407	203.356101	128716800	95039488	62730744	24992
408	203.649222	116781056	82980864	49418752	24992
409	188.561423	128675840	94515200	65024776	24992
410	213.865244	114462720	82456576	42524248	24992
411	189.27986	117161984	82980864	46082112	24992
412	190.406708	130138112	96088064	62961496	24992
413	211.233826	113590272	79835136	40372984	24992
414	191.543669	114130944	79835136	46635568	24992
415	211.833318	130351104	96612352	64960384	24992
416	207.900743	121995264	87699456	54481912	24992
417	193.950075	129294336	95039488	74088912	24992
418	232.043708	118120448	86126592	42172080	24992
419	198.228902	120279040	86126592	49328848	24992
420	198.26931	130822144	96612352	69969768	24992
421	224.882868	114868224	81408000	38075728	24992
422	201.276241	115679232	81408000	48098072	24992
423	231.358813	119975936	87699456	39848960	24992
424	203.620105	121864192	87699456	50178880	24992
425	197.218363	131596288	97660928	73185200	24992
426	227.850666	115220480	81408000	31289248	24992
427	198.754904	115761152	81408000	55276936	24992
428	233.498842	118919168	85078016	37284072	24992
429	207.144582	118919168	85078016	50541648	24992
430	239.460617	125001728	90845184	33220952	24992
431	203.29301	125001728	90845184	59207888	24992
432	209.647525	133382144	99758080	74138192	24992
433	250.108776	129261568	95039488	59332296	24992
434	208.09128	133316608	99233792	75137000	24992
435	248.055584	131043328	99758080	36828680	24992
436	209.777187	133472256	99758080	51929264	24992
437	212.925049	136175616	101855232	69110712	24992
438	237.211069	125865984	91893760	41796736	24992
439	216.666502	125865984	91893760	60600224	24992
440	250.043996	127291392	93466624	35478992	24992
441	216.424283	127291392	93466624	54593800	24992
442	250.133069	136482816	102379520	74334120	24992
443	230.949004	149487616	116535296	51064864	24992
444	223.684059	168140800	136982528	72023976	24992
445	245.203596	109694976	75640832	34681744	24992
446	221.202156	118345728	84553728	56285840	24992
447	252.893876	109944832	76165120	34239608	24992
448	222.508835	118595584	84553728	56925904	24992
449	258.818261	116129792	82456576	34763200	24992
450	223.401735	118562816	84553728	58488296	24992
451	227.788381	137486336	103952384	82792264	24992
452	264.650755	124125184	89796608	63639344	24992
453	233.697228	138993664	105525248	77493208	24992
454	257.534834	114454528	80359424	33286632	24992
455	225.853884	119590912	85602304	59476616	24992
456	261.265389	119250944	85602304	40866952	24992
457	229.078449	120602624	86650880	56443592	24992
458	267.605576	123404288	89272320	38330928	24992
459	231.282787	123944960	89796608	55073680	24992
460	244.227098	140165120	106573824	83868912	24992
461	262.582818	129708032	95563776	55697576	24992
462	232.764141	139980800	106049536	85493864	24992
463	259.657072	116781056	82456576	44560008	24992
464	236.862437	120565760	86650880	63820992	24992
465	260.582341	116604928	82456576	38189456	24992
466	242.7383	122281984	88223744	58432288	24992
467	277.590892	124010496	89796608	58772288	24992
468	245.774662	143204352	109195264	80470976	24992
469	266.646291	125648896	91369472	41115416	24992
470	243.832705	125648896	91369472	63430552	24992
471	275.362095	121692160	87699456	39573104	24992
472	249.464402	122503168	88223744	62992520	24992
473	287.810419	125706240	91369472	65890664	24992
474	254.201686	145170432	111292416	78686320	24992
475	266.802834	125874176	91893760	41624496	24992
476	251.882562	125874176	91893760	67114744	24992
477	298.909408	125943808	91893760	61525184	24992
478	254.257278	144596992	110768128	88145256	24992
479	276.566376	127717376	93466624	40569816	24992
480	255.385968	127717376	93466624	68231000	24992
481	301.133825	125947904	91893760	63979808	24992
482	262.136973	147304448	113913856	81154440	24992
483	279.433082	128385024	94515200	45645872	24992
484	262.508136	128385024	94515200	63811664	24992
485	281.962589	120840192	86650880	39761096	24992
486	302.237255	121536512	89272320	47379328	24992
487	274.642809	125317120	91369472	65665216	24992
488	275.258762	149106688	115486720	86580216	24992
489	301.078908	140763136	106573824	69379776	24992
490	264.648754	148062208	113913856	90822112	24992
491	287.526558	123727872	89796608	46779016	24992
492	317.562743	121593856	89272320	45498152	24992
493	267.442814	126455808	92418048	66975128	24992
494	289.579478	150515712	116535296	91547592	24992
495	305.702354	142082048	108146688	64999776	24992
496	276.111134	150732800	117059584	89961072	24992
497	295.209031	122806272	88748032	48539808	24992
498	318.008585	123625472	89796608	37171912	24992
499	273.889453	128491520	94515200	63684896	24992
500	318.265912	135581696	101855232	39653856	24992
