x	Duration	RSS	HeapTotal	HeapUsed	External
0	NA	128032768	95563776	36960704	24992
1	0.483288	128032768	95563776	37006184	24992
2	0.653515	128032768	95563776	37077488	24992
3	0.468684	128032768	95563776	37173888	24992
4	0.530725	128032768	95563776	37296536	24992
5	0.623713	128032768	95563776	37446848	24992
6	0.726442	128032768	95563776	37625640	24992
7	1.00311	128032768	95563776	37833720	24992
8	0.95032	128032768	95563776	38072080	24992
9	1.056195	128032768	95563776	38342616	24992
10	1.179224	128032768	95563776	38645368	24992
11	1.01027	128032768	95563776	38981112	24992
12	0.591414	128032768	95563776	39351448	24992
13	0.642469	128032768	95563776	39757280	24992
14	0.705853	128032768	95563776	40199576	24992
15	0.753769	128032768	95563776	40679168	24992
16	1.015176	128032768	95563776	41197344	24992
17	0.919034	128032768	95563776	41756336	24992
18	0.93259	128032768	95563776	42355816	24992
19	0.997413	128032768	95563776	42997008	24992
20	1.064823	128032768	95563776	43679816	24992
21	1.131471	128032768	95563776	44405576	24992
22	1.191771	128032768	95563776	45175200	24992
23	1.320027	128032768	95563776	45989600	24992
24	3.714341	129380352	95563776	32425200	24992
25	1.580377	129921024	95563776	33332968	24992
26	1.476171	129921024	95563776	34289352	24992
27	1.55785	129921024	95563776	35295360	24992
28	1.620594	129921024	95563776	36351848	24992
29	1.72541	129921024	95563776	37459672	24992
30	1.798205	129921024	95563776	38619928	24992
31	2.145761	129921024	95563776	39834808	24992
32	1.936047	129921024	95563776	41105120	24992
33	2.044723	129921024	95563776	42434920	24992
34	2.280142	129921024	95563776	43821104	24992
35	2.532705	129921024	95563776	45264344	24992
36	2.323887	129921024	95563776	46765456	24992
37	4.185146	129921024	95563776	32943752	24992
38	2.856035	129921024	95563776	34563592	24992
39	2.812811	129921024	95563776	36244200	24992
40	2.906914	129921024	95563776	37986496	24992
41	4.12886	129921024	95563776	39791352	24992
42	3.41083	129921024	95563776	41676656	24992
43	2.934215	129921024	95563776	43609488	24992
44	3.10031	129921024	95563776	45608416	24992
45	3.169033	129921024	95563776	47674240	24992
46	4.89901	129921024	95563776	33794224	24992
47	3.416249	129921024	95563776	35994888	24992
48	3.696765	129921024	95563776	38264528	24992
49	3.802041	129921024	95563776	40604160	24992
50	3.70398	129921024	95563776	43015288	24992
51	3.814594	129921024	95563776	45500536	24992
52	3.987099	129921024	95563776	48060712	24992
53	6.05334	129921024	95563776	35020576	24992
54	4.71672	129921024	95563776	37733440	24992
55	4.281609	129921024	95563776	40525880	24992
56	4.406775	129921024	95563776	43394984	24992
57	4.762255	129921024	95563776	46343608	24992
58	4.687691	129921024	95563776	49372864	24992
59	6.86372	129921024	95563776	36851224	24992
60	4.892768	129921024	95563776	40044136	24992
61	5.321205	129921024	95563776	43320288	24992
62	5.205735	129921024	95563776	46680552	24992
63	5.332109	129921024	95563776	50126400	24992
64	8.572784	129921024	95563776	37948648	24992
65	6.095533	129921024	95563776	41593224	24992
66	5.908169	129921024	95563776	45307528	24992
67	6.0886	129921024	95563776	49110400	24992
68	7.96674	129921024	95563776	37414520	24992
69	6.633098	129921024	95563776	41399392	24992
70	6.684769	129921024	95563776	45474328	24992
71	6.635688	129921024	95563776	49641848	24992
72	8.624976	129921024	95563776	38261920	24992
73	6.888172	129921024	95563776	42617352	24992
74	7.824981	129921024	95563776	47076584	24992
75	7.207199	129921024	95563776	51623528	24992
76	9.438755	129921024	95563776	40465448	24992
77	7.715073	129921024	95563776	45208224	24992
78	7.477598	129921024	95563776	50050096	24992
79	9.518189	129921024	95563776	39364952	24992
80	8.004099	129921024	95563776	44406920	24992
81	8.124331	129921024	95563776	49550592	24992
82	10.614347	129921024	95563776	39281328	24992
83	8.942978	129921024	95563776	44635232	24992
84	8.697574	129921024	95563776	50093280	24992
85	10.82791	129921024	95563776	40096256	24992
86	8.791433	129921024	95563776	45764704	24992
87	9.672343	129921024	95563776	51545864	24992
88	11.580928	129921024	95563776	41722480	24992
89	9.324298	129921024	95563776	47715640	24992
90	9.489424	129921024	95563776	53819112	24992
91	11.718321	129921024	95563776	44164400	24992
92	10.148761	129921024	95563776	50494328	24992
93	12.488477	129921024	95563776	41436680	24992
94	10.625319	129921024	95563776	47989984	24992
95	10.598442	129921024	95563776	54658240	24992
96	12.983129	129921024	95563776	45554112	24992
97	10.969435	129921024	95563776	52455328	24992
98	13.166583	129921024	95563776	43842920	24992
99	11.147464	129921024	95563776	50980408	24992
100	13.710064	129921024	95563776	42813960	24992
101	11.920003	129921024	95563776	50191008	24992
102	14.099386	129921024	95563776	42384744	24992
103	12.176844	129921024	95563776	50004872	24992
104	15.114586	129921024	95563776	42553672	24992
105	12.657451	129921024	95563776	50434408	24992
106	15.280245	129921024	95563776	43210312	24992
107	13.563449	129921024	95563776	51346624	24992
108	15.72801	129921024	95563776	44323944	24992
109	13.594904	129921024	95563776	52724504	24992
110	16.08262	129921024	95563776	45826912	24992
111	14.495188	129921024	95563776	54500024	24992
112	16.072747	129921024	95563776	47691120	24992
113	14.613785	129921024	95563776	56625832	24992
114	16.486444	129921024	95563776	49839320	24992
115	15.489319	129921024	95563776	59058096	24992
116	17.453205	129921024	95563776	52372392	24992
117	17.841333	129921024	95563776	46605792	24992
118	16.024726	129921024	95563776	56233392	24992
119	18.170429	129921024	95563776	50353704	24992
120	16.40179	129921024	95563776	60265736	24992
121	18.348663	129921024	95563776	54283544	24992
122	19.835787	129921024	95563776	49098176	24992
123	16.509898	129921024	95563776	59442664	24992
124	19.435014	129921024	95563776	54041224	24992
125	19.658176	129921024	95563776	49430544	24992
126	17.444563	129921024	95563776	60213496	24992
127	20.634459	129921024	95563776	55136888	24992
128	20.4611	129921024	95563776	50912936	24992
129	18.195602	129921024	95563776	62162376	24992
130	21.090175	129921024	95563776	57472760	24992
131	21.162933	129921024	95563776	53497760	24992
132	22.420968	129921024	95563776	50245392	24992
133	19.513137	129921024	95563776	62107112	24992
134	22.092085	129921024	95563776	58089808	24992
135	22.274376	129921024	95563776	54785664	24992
136	23.440539	129921024	95563776	52056960	24992
137	20.422931	129921024	95563776	64542640	24992
138	23.496784	129921024	95563776	61038792	24992
139	23.416646	129921024	95563776	58104968	24992
140	23.825835	129921024	95563776	55778376	24992
141	24.490974	129921024	95563776	53852480	24992
142	25.308619	129921024	95563776	52417032	24992
143	22.571597	129921024	95563776	65874904	24992
144	25.283659	129921024	95563776	63373168	24992
145	25.401001	129921024	95563776	61300920	24992
146	25.308859	129921024	95563776	59736352	24992
147	25.802005	129921024	95563776	58447296	24992
148	26.890779	129921024	95563776	57561952	24992
149	26.760554	129921024	95563776	57016096	24992
150	28.187753	129921024	95563776	56748712	24992
151	27.901295	129921024	95563776	56738536	24992
152	28.487431	129921024	95563776	56967704	24992
153	28.640015	129921024	95563776	57376776	24992
154	28.802409	129921024	95563776	57936016	24992
155	29.272414	129921024	95563776	58600984	24992
156	29.866094	129921024	95563776	59391568	24992
157	29.883853	129921024	95563776	60289352	24992
158	30.465286	129921024	95563776	61277944	24992
159	29.791093	129921024	95563776	62347152	24992
160	30.229143	129921024	95563776	63489504	24992
161	30.662684	129921024	95563776	64663024	24992
162	31.073593	129921024	95563776	65901688	24992
163	31.069641	129921024	95563776	67180192	24992
164	31.761771	129921024	95563776	68519248	24992
165	31.883828	129921024	95563776	69870856	24992
166	31.700664	130191360	95563776	71273176	24992
167	32.974288	128692224	95563776	72857288	24992
168	37.933285	128962560	95563776	60316584	24992
169	33.717387	128962560	95563776	63800768	24992
170	33.571068	128962560	95563776	67021672	24992
171	34.126441	128962560	96088064	69995392	24992
172	33.725558	129232896	96088064	72766640	24992
173	40.051654	129232896	96088064	61460864	24992
174	35.693452	129503232	96088064	65830000	24992
175	35.822315	129503232	96088064	69941336	24992
176	35.35193	129503232	96088064	73704208	24992
177	41.481097	129773568	97136640	63246984	24992
178	37.465386	130043904	97136640	68312416	24992
179	36.781507	130314240	97136640	73039096	24992
180	36.6287	130584576	97660928	77305040	24992
181	42.34157	131125248	98709504	67139768	24992
182	38.673777	131395584	98709504	72761488	24992
183	37.693249	131665920	98709504	77823960	24992
184	43.749644	132206592	99233792	68383280	24992
185	39.148317	132476928	99233792	74539808	24992
186	44.857912	133287936	100282368	66410168	24992
187	43.33186	135720960	102903808	75590776	24992
188	40.637961	135991296	102903808	81918128	24992
189	46.396438	136531968	103428096	73538928	24992
190	40.981769	136802304	103428096	80572728	24992
191	47.84432	137342976	104476672	73039232	24992
192	41.706972	137342976	104476672	80527088	24992
193	48.137423	138153984	105000960	73560864	24992
194	68.35109	134422528	102379520	19619368	24992
195	42.402511	135229440	102379520	29808552	24992
196	41.365611	135229440	102379520	23771104	24992
197	41.674894	135229440	102379520	34963256	24992
198	43.130836	135229440	102379520	28955256	24992
199	43.374006	135499776	102379520	40589112	24992
200	42.879242	135499776	102379520	34813960	24992
201	43.320761	135499776	102379520	30367344	24992
202	43.192051	135499776	102379520	42608720	24992
203	43.398425	135499776	102379520	37497456	24992
204	45.087271	135499776	102379520	33900752	24992
205	44.041111	135499776	102379520	46842576	24992
206	44.135437	135499776	102379520	42560456	24992
207	45.350831	135499776	102379520	39510480	24992
208	45.243072	135499776	102379520	53139184	24992
209	46.737063	135499776	102379520	49246864	24992
210	46.33808	135499776	102379520	46325624	24992
211	51.354955	135499776	102379520	48147096	24992
212	51.33262	135499776	102379520	50046128	24992
213	54.999101	136310784	102903808	64744336	24992
214	63.040254	114335744	80883712	19449392	24992
215	52.38841	114335744	80883712	22173064	24992
216	51.98241	114335744	80883712	24987808	24992
217	48.783334	114335744	80883712	40632144	24992
218	49.000734	114335744	80883712	38604176	24992
219	50.487926	114335744	80883712	37282600	24992
220	49.985013	114335744	80883712	36481512	24992
221	53.853715	114335744	80883712	40660112	24992
222	54.234707	114335744	80883712	44942768	24992
223	53.936451	114335744	80883712	49469096	24992
224	59.98816	114335744	80883712	54262576	24992
225	75.959963	114655232	81408000	21557800	24992
226	54.828515	114655232	81408000	26673728	24992
227	55.875548	114655232	81408000	32058944	24992
228	56.054485	114655232	81408000	37674336	24992
229	56.325305	114655232	81408000	43555456	24992
230	58.90526	114655232	81408000	49678088	24992
231	57.333688	114655232	81408000	56067456	24992
232	61.249561	117628928	84553728	50383080	24992
233	76.194839	121413632	88223744	57234552	24992
234	70.768702	122089472	88748032	35557656	24992
235	63.04375	122089472	88748032	30653024	24992
236	59.245754	122089472	88748032	38268360	24992
237	59.791446	122089472	88748032	46154112	24992
238	59.896064	122089472	88748032	54310256	24992
239	64.566355	122359808	89272320	50412680	24992
240	60.728291	122630144	89272320	59218080	24992
241	61.033935	122630144	89272320	68289256	24992
242	86.818073	120205312	89272320	19737960	24992
243	65.506537	122093568	89272320	28066096	24992
244	62.090469	122093568	89272320	37904608	24992
245	66.537732	122093568	89272320	35720304	24992
246	63.192625	122093568	89272320	46099720	24992
247	68.145919	122093568	89272320	44482992	24992
248	64.891593	122634240	89272320	55352472	24992
249	72.301479	122634240	89272320	54301048	24992
250	86.960618	120537088	87699456	23720120	24992
251	66.243936	120537088	87699456	35326080	24992
252	68.227119	120537088	87699456	34936696	24992
253	66.52914	120537088	87699456	47026056	24992
254	70.859937	120537088	87699456	47300912	24992
255	66.915652	120537088	87699456	60116432	24992
256	71.558109	121077760	87699456	60894464	24992
257	93.067086	120561664	89272320	31972496	24992
258	72.640945	122449920	89272320	32511304	24992
259	72.419715	122449920	89272320	34035288	24992
260	69.54242	122449920	89272320	48033688	24992
261	72.215934	122449920	89272320	50117208	24992
262	73.061118	122720256	89272320	52481752	24992
263	74.415729	122720256	89272320	67340552	24992
264	96.952482	120848384	89796608	25516520	24992
265	75.704487	122736640	89796608	27466888	24992
266	77.95539	122736640	89796608	31146528	24992
267	75.211347	122736640	89796608	47316096	24992
268	77.008866	122736640	89796608	51541352	24992
269	77.767635	122736640	89796608	56006936	24992
270	84.961726	123006976	89796608	60794064	24992
271	98.131071	121470976	88223744	24574848	24992
272	77.889397	121470976	88223744	42016176	24992
273	78.787389	121470976	88223744	47467808	24992
274	80.330057	121470976	88223744	53193224	24992
275	79.786247	121470976	88223744	59220056	24992
276	81.991889	121470976	88223744	65526760	24992
277	105.849989	123592704	90320896	29708496	24992
278	80.860281	123592704	90320896	36811400	24992
279	80.928845	123592704	90320896	44301680	24992
280	82.476462	123592704	90320896	52080368	24992
281	83.974647	123592704	90320896	60164728	24992
282	85.640576	124133376	90845184	68559336	24992
283	107.075655	123912192	92942336	32309320	24992
284	85.187095	125800448	92942336	27413520	24992
285	84.405808	125800448	92942336	36454776	24992
286	85.188801	125800448	92942336	45805408	24992
287	85.393938	125800448	92942336	55432776	24992
288	92.195543	126341120	93466624	53054280	24992
289	104.701286	121544704	88223744	34705984	24992
290	90.432994	121544704	88223744	33077704	24992
291	88.85207	121544704	88223744	44368760	24992
292	88.41972	121544704	88223744	55933696	24992
293	91.183317	121544704	88223744	55258808	24992
294	113.339407	122626048	91369472	22614472	24992
295	89.315722	124514304	91369472	33759848	24992
296	91.645791	124514304	91369472	33868288	24992
297	91.205996	124514304	91369472	46589056	24992
298	92.700338	124514304	91369472	59623120	24992
299	96.101108	125865984	92418048	60718944	24992
300	117.03273	124166144	90845184	31907768	24992
301	93.344556	124166144	90845184	46124688	24992
302	96.78045	124166144	90845184	48682128	24992
303	98.867711	124166144	90845184	51579992	24992
304	95.447786	124166144	90845184	67125784	24992
305	122.456467	123506688	92418048	23435200	24992
306	93.590045	125394944	92418048	37921352	24992
307	97.256847	125394944	92418048	41521720	24992
308	99.836014	125394944	92418048	45430008	24992
309	95.408482	125394944	92418048	62000280	24992
310	106.731363	126205952	92942336	66560936	24992
311	118.341707	124637184	91369472	40007192	24992
312	99.302278	124637184	91369472	45243000	24992
313	102.357522	124637184	91369472	50751088	24992
314	101.59287	124637184	91369472	56623800	24992
315	105.722183	127340544	93990912	62859392	24992
316	120.956657	125808640	92942336	38128464	24992
317	103.223828	125808640	92942336	44968648	24992
318	105.582123	126074880	92942336	52381544	24992
319	105.1606	126074880	92942336	60108120	24992
320	110.016664	126885888	93466624	68171672	24992
321	126.230437	124710912	91369472	30767480	24992
322	106.1034	124710912	91369472	39341992	24992
323	106.658175	124981248	91369472	48227088	24992
324	106.569734	124981248	91369472	57520512	24992
325	131.317016	125677568	93990912	21933920	24992
326	108.928042	127565824	93990912	30909584	24992
327	108.529823	127565824	93990912	41153552	24992
328	109.986824	127565824	93990912	51940000	24992
329	110.256602	127565824	93990912	63062976	24992
330	135.337179	125566976	92418048	28077088	24992
331	109.918532	125566976	92418048	40047392	24992
332	115.031936	125566976	92418048	39894824	24992
333	114.32692	125566976	92418048	52435800	24992
334	140.987458	119709696	88223744	23281480	24992
335	114.408691	121597952	88223744	35725952	24992
336	112.265528	121597952	88223744	49030912	24992
337	116.538699	121597952	88223744	50465344	24992
338	115.896025	123490304	89796608	64524992	24992
339	144.238787	127315968	93990912	36696104	24992
340	115.421477	127315968	93990912	51436240	24992
341	119.978211	127315968	93990912	54467072	24992
342	118.395868	127315968	93990912	70113736	24992
343	147.648272	126779392	95039488	25167288	24992
344	116.673554	128667648	95039488	40301000	24992
345	120.031638	128667648	95039488	44526304	24992
346	118.138468	128667648	95039488	61399048	24992
347	129.374849	129748992	96088064	66359736	24992
348	146.069533	123129856	89796608	40568856	24992
349	127.661279	123129856	89796608	46580880	24992
350	124.129891	123129856	89796608	53303632	24992
351	127.090207	126644224	93466624	72731776	24992
352	151.376991	129986560	96088064	36638096	24992
353	125.157784	129986560	96088064	43829104	24992
354	126.437063	129986560	96088064	51395864	24992
355	124.75011	129986560	96088064	71524152	24992
356	150.713972	127221760	93466624	30369608	24992
357	126.900131	127221760	93466624	38960744	24992
358	129.164421	127221760	93466624	48047176	24992
359	134.103538	127762432	93990912	58084336	24992
360	155.063895	120324096	86650880	41940144	24992
361	131.657556	120324096	86650880	52068232	24992
362	132.368625	120324096	86650880	62556560	24992
363	134.966057	129245184	95563776	73373520	24992
364	160.924123	131330048	97660928	40276776	24992
365	134.085995	131330048	97660928	51983672	24992
366	135.961228	131330048	97660928	64639696	24992
367	146.505832	132681728	99233792	64984416	24992
368	157.980421	126889984	92942336	44664648	24992
369	137.921049	126889984	92942336	45535688	24992
370	135.930899	126889984	92942336	59032968	24992
371	141.650661	132026368	98185216	72914176	24992
372	164.86635	134053888	100282368	41391312	24992
373	139.022964	134053888	100282368	56069976	24992
374	141.838425	134053888	100282368	59589368	24992
375	141.584066	134594560	100806656	75691776	24992
376	168.368105	131547136	97660928	44527064	24992
377	142.843393	131547136	97660928	48426328	24992
378	140.17397	131547136	97660928	65006664	24992
379	151.114993	135061504	101855232	69745568	24992
380	167.083416	135069696	101330944	39922016	24992
381	143.744095	135069696	101330944	57621968	24992
382	146.112639	135069696	101330944	63629792	24992
383	169.924866	138854400	105525248	70505032	24992
384	155.537416	133173248	99233792	41171288	24992
385	148.624117	133173248	99233792	48664944	24992
386	149.564179	133173248	99233792	68662064	24992
387	176.093795	128622592	95039488	27129288	24992
388	148.959036	128622592	95039488	47642328	24992
389	151.507258	128622592	95039488	56301840	24992
390	171.008103	131055616	97660928	65388968	24992
391	157.39289	124145664	90320896	44024016	24992
392	152.572744	124145664	90320896	53942552	24992
393	155.48679	127389696	93990912	64473728	24992
394	176.709644	125042688	91893760	25429088	24992
395	153.112442	125313024	91893760	48756976	24992
396	156.681993	125313024	91893760	60281272	24992
397	185.901196	122073088	88748032	28462320	24992
398	157.118336	122073088	88748032	40749176	24992
399	157.21829	122613760	88748032	53721328	24992
400	183.851978	121024512	87175168	35426704	24992
401	158.027487	121024512	87175168	49029872	24992
402	162.689344	121024512	87175168	50728000	24992
403	185.904596	123404288	91893760	33284344	24992
404	160.800052	125292544	91893760	47422328	24992
405	161.192506	125292544	91893760	62628016	24992
406	173.333479	130969600	97136640	66385184	24992
407	191.840219	129372160	95563776	39331096	24992
408	163.499928	129372160	95563776	55794648	24992
409	162.307848	130183168	96612352	72543304	24992
410	187.868084	126615552	92942336	37114192	24992
411	167.865064	126615552	92942336	42648232	24992
412	171.324114	126615552	92942336	60704432	24992
413	194.486094	125071360	91369472	33915920	24992
414	171.439573	125341696	91369472	40644280	24992
415	167.726059	125341696	91369472	59930360	24992
416	191.021757	122548224	88748032	35046936	24992
417	174.125066	122548224	88748032	43025680	24992
418	171.228428	122548224	88748032	63699088	24992
419	203.175234	121942016	88223744	47230736	24992
420	176.41134	121942016	88223744	56515160	24992
421	176.708215	132485120	99233792	78480304	24992
422	197.717713	125419520	91893760	33742712	24992
423	179.914199	125689856	91893760	44347336	24992
424	178.721783	125689856	91893760	55378256	24992
425	209.067592	124661760	90845184	41500680	24992
426	175.675215	124661760	90845184	65655920	24992
427	181.227544	134393856	100806656	78104896	24992
428	208.810606	129294336	95563776	34479536	24992
429	181.943616	129294336	95563776	47709872	24992
430	182.304235	129294336	95563776	61506472	24992
431	206.80158	125243392	91369472	29318912	24992
432	187.866479	125243392	91369472	44235408	24992
433	199.864458	128487424	95039488	59615888	24992
434	198.822976	121622528	87699456	47932488	24992
435	185.253696	122433536	88748032	63896016	24992
436	198.018699	136761344	103428096	80275376	24992
437	209.703554	132579328	98709504	49755440	24992
438	187.362776	132579328	98709504	67115584	24992
439	200.657524	139337728	105525248	72905080	24992
440	218.068157	130371584	96612352	43788912	24992
441	189.393321	130371584	96612352	62591904	24992
442	193.039721	138481664	105000960	81752752	24992
443	222.380169	134656000	100806656	53541064	24992
444	199.097811	134656000	100806656	61460024	24992
445	196.876411	139251712	105525248	82098472	24992
446	231.376056	132472832	98709504	43894328	24992
447	194.483357	132472832	98709504	65471976	24992
448	202.711464	141393920	108146688	75252704	24992
449	224.602762	137678848	103952384	48511088	24992
450	200.008687	137678848	103952384	59171904	24992
451	209.284766	141193216	107622400	82888848	24992
452	225.778524	131964928	98185216	44501240	24992
453	199.24997	131964928	98185216	68919096	24992
454	233.998762	136699904	105000960	31721600	24992
455	201.104973	138588160	105000960	55933576	24992
456	205.738263	138588160	105000960	69467728	24992
457	235.278345	133459968	99758080	32197912	24992
458	202.257779	133459968	99758080	46770888	24992
459	207.124036	133459968	99758080	61733712	24992
460	229.172651	131579904	98185216	37986688	24992
461	211.013425	131579904	98185216	54121008	24992
462	243.809964	128897024	91369472	29900472	24992
463	208.566059	125288448	91369472	46281184	24992
464	209.80724	129884160	96088064	63664536	24992
465	236.789424	131166208	97660928	41664072	24992
466	213.791544	131166208	97660928	47796216	24992
467	216.306838	131436544	97660928	67028792	24992
468	240.085261	125288448	91369472	57462432	24992
469	216.563329	130424832	97136640	65078008	24992
470	248.120981	138031104	105000960	32080632	24992
471	213.505905	138031104	105000960	53039120	24992
472	216.753083	138031104	105000960	74303664	24992
473	240.104875	127774720	93990912	30887272	24992
474	220.1043	127774720	93990912	53098408	24992
475	246.335441	128208896	94515200	32926432	24992
476	217.021753	128479232	94515200	56127672	24992
477	228.925036	132263936	98709504	67541464	24992
478	250.323439	130498560	96612352	50333248	24992
479	221.794625	131309568	97660928	75079576	24992
480	254.656236	137125888	103428096	33613424	24992
481	221.765085	137396224	103428096	59339664	24992
482	225.275907	137396224	103428096	73268072	24992
483	255.380233	128348160	94515200	58130944	24992
484	229.358022	132673536	99233792	73092040	24992
485	264.60688	139558912	106049536	33313824	24992
486	229.572679	139558912	106049536	49413488	24992
487	228.305228	139558912	106049536	78202592	24992
488	251.423741	132124672	98185216	39887080	24992
489	229.863307	132124672	98185216	57289504	24992
490	260.335692	122605568	88748032	32090000	24992
491	231.348341	122605568	88748032	50486344	24992
492	258.264402	120270848	86650880	37186040	24992
493	232.988582	120270848	86650880	56635704	24992
494	262.656275	125136896	91893760	31748472	24992
495	233.2543	125136896	91893760	52282680	24992
496	268.333818	124440576	92942336	41324128	24992
497	237.826925	126328832	92942336	62180928	24992
498	241.906964	136871936	103428096	71955312	24992
499	262.695875	119791616	86126592	38893680	24992
500	240.209184	120061952	86126592	61961008	24992
x	Duration	RSS	HeapTotal	HeapUsed	External
0	NA	91004928	56766464	12990208	24992
1	0.411642	91004928	56766464	13042560	24992
2	0.279549	91004928	56766464	13119344	24992
3	0.31373	91004928	56766464	13223240	24992
4	0.374998	91004928	56766464	13355792	24992
5	0.460997	91004928	56766464	13518504	24992
6	0.521033	91004928	56766464	13711784	24992
7	0.595914	91004928	56766464	13936640	24992
8	0.673463	91004928	56766464	14194448	24992
9	0.971062	91004928	56766464	14486368	24992
10	0.832167	91004928	56766464	14813416	24992
11	0.812882	91004928	56766464	15176560	24992
12	0.749763	91004928	56766464	15576720	24992
13	0.875421	91004928	56766464	16020480	24992
14	0.777795	91004928	56766464	16496512	24992
15	0.820317	91004928	56766464	17012352	24992
16	1.028539	91004928	56766464	17569096	24992
17	0.949688	91004928	56766464	18169568	24992
18	1.08182	91004928	56766464	18812936	24992
19	1.098754	91004928	56766464	19506296	24992
20	1.130666	91004928	56766464	20239376	24992
21	1.557509	91004928	56766464	21018360	24992
22	1.396656	91004928	56766464	21846024	24992
23	1.784262	91004928	56766464	22724424	24992
24	1.417897	91004928	56766464	23648672	24992
25	1.463862	91004928	56766464	24623936	24992
26	1.586628	91004928	56766464	25651352	24992
27	1.662937	91004928	56766464	26731840	24992
28	2.047885	91004928	56766464	27867216	24992
29	1.778842	91004928	56766464	29056712	24992
30	2.748097	91004928	56766464	14038024	24992
31	1.949251	91004928	56766464	15340368	24992
32	2.515233	91004928	56766464	16705680	24992
33	2.103952	91004928	56766464	18131760	24992
34	2.421582	91004928	56766464	19618360	24992
35	2.373241	91004928	56766464	21165464	24992
36	2.473024	91004928	56766464	22774592	24992
37	2.594835	91004928	56766464	24446368	24992
38	3.711953	91004928	56766464	26182000	24992
39	2.773193	91004928	56766464	27982472	24992
40	3.084583	91004928	56766464	29851096	24992
41	4.98603	91004928	56766464	15605776	24992
42	3.097123	91004928	56766464	17615232	24992
43	3.211483	91004928	56766464	19683568	24992
44	3.342788	91004928	56766464	21823072	24992
45	3.450892	91004928	56766464	24031872	24992
46	3.344147	91004928	56766464	26312328	24992
47	3.447427	91004928	56766464	28666016	24992
48	5.069016	91004928	56766464	15313896	24992
49	3.896269	91004928	56766464	17816792	24992
50	4.22582	91004928	56766464	20400856	24992
51	4.079669	91004928	56766464	23060640	24992
52	3.973822	91004928	56766464	25800400	24992
53	4.279893	91004928	56766464	28622296	24992
54	5.851263	91004928	56766464	16100144	24992
55	4.493753	91004928	56766464	19088872	24992
56	4.600481	91004928	56766464	22159568	24992
57	4.563095	91004928	56766464	25315048	24992
58	4.705028	91004928	56766464	28556336	24992
59	6.741747	91004928	56766464	16431224	24992
60	5.377904	91004928	56766464	19847424	24992
61	5.727509	91004928	56766464	23356776	24992
62	5.298651	91004928	56766464	26953056	24992
63	5.385853	91004928	56766464	30641856	24992
64	7.449745	91004928	56766464	18627360	24992
65	5.915311	91004928	56766464	22507600	24992
66	6.287959	91004928	56766464	26488432	24992
67	6.111588	91004928	56766464	30555600	24992
68	7.855249	91004928	56766464	18964304	24992
69	6.211562	91004928	56766464	23224160	24992
70	6.556174	91004928	56766464	27582440	24992
71	6.4674	91004928	56766464	32038824	24992
72	8.602156	91004928	56766464	20689288	24992
73	6.847693	91004928	56766464	25345832	24992
74	6.963608	91004928	56766464	30104008	24992
75	9.250472	91004928	56766464	19346000	24992
76	8.039061	91004928	56766464	24310816	24992
77	7.381363	91004928	56766464	29380304	24992
78	9.434396	91004928	56766464	19078896	24992
79	8.065407	91004928	56766464	24360464	24992
80	7.935037	91004928	56766464	29749008	24992
81	10.447708	91004928	56766464	19768160	24992
82	8.790707	91004928	56766464	25374832	24992
83	8.420198	91004928	56766464	31092376	24992
84	10.732786	91004928	56766464	21305424	24992
85	8.853845	91004928	56766464	27248928	24992
86	9.410217	91004928	56766464	33306928	24992
87	11.703955	91004928	56766464	23586968	24992
88	9.564856	91004928	56766464	29876776	24992
89	11.900362	91004928	56766464	20937960	24992
90	9.989548	91004928	56766464	27467216	24992
91	10.021188	91004928	56766464	34115400	24992
92	13.173508	91004928	56766464	24987504	24992
93	10.225446	91004928	56766464	31873936	24992
94	12.914594	91004928	56766464	23404264	24992
95	10.551142	91004928	56766464	30536408	24992
96	13.328613	91004928	56766464	22499184	24992
97	11.338059	91004928	56766464	29881568	24992
98	14.013809	91004928	56766464	22299456	24992
99	11.409248	91004928	56766464	29935424	24992
100	14.400351	91004928	56766464	22655000	24992
101	11.952011	91004928	56766464	30547840	24992
102	14.982048	91545600	57815040	23504912	24992
103	12.885075	91545600	57815040	31666936	24992
104	16.52037	91815936	57815040	24776152	24992
105	13.035468	91815936	57815040	33212728	24992
106	16.059179	92086272	58339328	26379328	24992
107	13.088991	92356608	58339328	35092000	24992
108	16.182632	92626944	58863616	28302992	24992
109	13.580853	92626944	58863616	37297032	24992
110	16.304008	92897280	59387904	30502312	24992
111	17.242084	93437952	59912192	24900904	24992
112	14.357706	93437952	59912192	34323928	24992
113	17.175996	93708288	59912192	28430312	24992
114	14.82168	93708288	59912192	38145392	24992
115	17.750438	93978624	59912192	32110480	24992
116	18.193943	94519296	60436480	27163848	24992
117	15.689045	94519296	60436480	37322376	24992
118	18.080819	94789632	60960768	31858552	24992
119	19.897357	95059968	60960768	27509720	24992
120	16.50934	95059968	60960768	38119960	24992
121	19.528454	95330304	61485056	33092720	24992
122	20.245029	95870976	62009344	29109648	24992
123	16.936557	95870976	62009344	40183240	24992
124	19.920854	96141312	62009344	35398080	24992
125	20.495634	96411648	62533632	31589360	24992
126	21.635446	96681984	62533632	28522640	24992
127	18.466582	96681984	62533632	40225112	24992
128	21.654132	96952320	63057920	36200632	24992
129	21.767838	97492992	63582208	33061736	24992
130	22.856131	97763328	63582208	30555320	24992
131	19.553764	97763328	63582208	42914472	24992
132	22.470933	98033664	64106496	39377216	24992
133	22.654483	98304000	64630784	36535192	24992
134	23.229761	98574336	64630784	34305608	24992
135	23.860646	98844672	65155072	32624744	24992
136	24.678975	99115008	65155072	31431160	24992
137	20.220947	99385344	65155072	44791336	24992
138	24.218383	99655680	65679360	42245624	24992
139	24.609655	99926016	66203648	40173008	24992
140	25.129259	100196352	66727936	38613984	24992
141	25.882336	100466688	66727936	37462560	24992
142	26.139183	100737024	66727936	36721232	24992
143	26.528995	101007360	67252224	36347688	24992
144	26.983388	101277696	67252224	36244568	24992
145	27.363906	101548032	67776512	36382936	24992
146	27.739032	101818368	67776512	36725632	24992
147	27.761353	102088704	68300800	37229968	24992
148	28.455059	102359040	68825088	37875776	24992
149	27.887695	102629376	68825088	38645048	24992
150	28.325236	102899712	69349376	39499000	24992
151	29.276674	103170048	69349376	40439968	24992
152	29.326535	103440384	69349376	41451552	24992
153	29.430868	103710720	69873664	42528480	24992
154	29.845688	103981056	70397952	43656824	24992
155	29.565784	104521728	70397952	44814640	24992
156	29.576596	104792064	70922240	46016112	24992
157	29.647006	105062400	70922240	47258744	24992
158	30.219857	105332736	71446528	48522216	24992
159	30.288466	105603072	71446528	49830696	24992
160	31.117229	105873408	71970816	51238256	24992
161	37.025254	106143744	72495104	39034592	24992
162	33.67865	106414080	72495104	42616408	24992
163	32.682056	106684416	73019392	45896864	24992
164	32.664605	107225088	73019392	48847408	24992
165	33.203965	107495424	73543680	51540352	24992
166	39.728464	107765760	74067968	40551584	24992
167	36.123378	107327488	74592256	45154928	24992
168	34.269609	107597824	74592256	49283088	24992
169	34.512204	108138496	74592256	52942720	24992
170	40.327084	108408832	75116544	42733832	24992
171	36.015055	108679168	75116544	47899008	24992
172	39.378133	108949504	75640832	52551648	24992
173	54.352033	109490176	76165120	43287680	24992
174	46.875226	112193536	78786560	20503224	24992
175	33.684614	112193536	78786560	26368344	24992
176	32.88902	112193536	78786560	31649360	24992
177	36.435974	112193536	78786560	22764296	24992
178	34.028111	112193536	78786560	29106960	24992
179	37.110967	112193536	78786560	21489768	24992
180	38.624386	112193536	78786560	31298856	24992
181	35.616964	112193536	78786560	37644512	24992
182	38.825937	112193536	78786560	29541432	24992
183	36.439331	112193536	78786560	36679512	24992
184	39.193893	112193536	78786560	29350136	24992
185	38.078757	112193536	78786560	36944712	24992
186	39.963158	112193536	78786560	30145544	24992
187	38.348199	112193536	78786560	38140712	24992
188	40.575676	112193536	78786560	31671672	24992
189	38.087808	112193536	78786560	39990000	24992
190	41.545255	112193536	78786560	33661456	24992
191	43.781336	112193536	78786560	29411888	24992
192	42.103568	112193536	78786560	41784848	24992
193	43.797089	112193536	78786560	36883408	24992
194	44.835759	112193536	78786560	33560688	24992
195	43.535137	112463872	78786560	46560232	24992
196	44.656149	112463872	78786560	42241168	24992
197	47.599288	112463872	78786560	39399216	24992
198	46.05538	112463872	78786560	53098224	24992
199	46.864208	112463872	78786560	49219312	24992
200	46.357714	112463872	78786560	46435904	24992
201	57.606031	113545216	80359424	48888488	24992
202	69.849047	114851840	82980864	25203064	24992
203	51.527047	116199424	82980864	27349224	24992
204	51.397252	116199424	82980864	30223984	24992
205	48.871914	116199424	82980864	45374808	24992
206	46.951064	116199424	82980864	42843248	24992
207	47.236416	116199424	82980864	41411392	24992
208	48.327991	116199424	82980864	40662608	24992
209	52.710141	116469760	82980864	45298888	24992
210	56.139562	116469760	82980864	50019552	24992
211	54.487216	116469760	82980864	54843504	24992
212	55.990705	119984128	86650880	59787536	24992
213	82.883583	118325248	86650880	23405352	24992
214	57.288524	123457536	90320896	27830248	24992
215	56.00969	128053248	95563776	33810216	24992
216	55.66807	132648960	100806656	40072352	24992
217	57.269253	137244672	106049536	46545800	24992
218	56.89442	141840384	111292416	53302688	24992
219	59.085435	146436096	116535296	60270544	24992
220	59.239454	151031808	121778176	67444624	24992
221	53.506159	151302144	122826752	68549560	24992
222	60.86224	154271744	126496768	58182664	24992
223	82.864607	117784576	67252224	19575880	24992
224	57.560535	101339136	67252224	26503784	24992
225	58.519397	101339136	67252224	35038528	24992
226	59.78337	102420480	68825088	43871112	24992
227	66.517227	109449216	76689408	41307272	24992
228	62.981271	114044928	81932288	50637640	24992
229	61.779331	118910976	87175168	60295168	24992
230	79.184135	125399040	92942336	58555456	24992
231	72.029957	108003328	74067968	34977344	24992
232	64.852338	108003328	74067968	33368976	24992
233	61.952304	108003328	74067968	43636872	24992
234	65.887499	108544000	74592256	42559416	24992
235	62.963233	111247360	77213696	53318848	24992
236	70.027788	118276096	85078016	52800408	24992
237	88.620537	122601472	89272320	64095880	24992
238	71.09691	116903936	83505152	33210352	24992
239	64.322902	116903936	83505152	45229680	24992
240	72.060483	116903936	83505152	45916992	24992
241	72.564847	116903936	83505152	46939600	24992
242	66.219872	117985280	84029440	59789032	24992
243	74.55359	124473344	90845184	61341288	24992
244	80.063193	129069056	95563776	74759576	24992
245	85.84452	117940224	84553728	28830184	24992
246	72.554961	117940224	84553728	31156912	24992
247	69.555679	117940224	84553728	45420432	24992
248	74.783999	117940224	84553728	48386456	24992
249	74.466418	118480896	84553728	51627288	24992
250	72.92879	121184256	87699456	66780984	24992
251	104.89811	122011648	88223744	26992072	24992
252	70.6661	122011648	88223744	42643000	24992
253	76.097539	122011648	88223744	46885664	24992
254	75.617679	122011648	88223744	51450376	24992
255	77.073347	122011648	88223744	56251472	24992
256	79.391063	124444672	90845184	61562680	24992
257	103.806845	122486784	90845184	35368136	24992
258	80.211534	124375040	90845184	40186184	24992
259	78.352496	124375040	90845184	46202064	24992
260	79.630001	124375040	90845184	52532760	24992
261	78.674874	124375040	90845184	59279456	24992
262	82.656596	126267392	92418048	66384800	24992
263	107.226175	122515456	90320896	24869416	24992
264	81.266645	124403712	90320896	31045376	24992
265	81.070316	124403712	90320896	38873920	24992
266	83.082811	124403712	90320896	47023344	24992
267	82.767846	124403712	90320896	55454648	24992
268	83.66491	124944384	90845184	64201824	24992
269	115.233611	126468096	92418048	30143280	24992
270	83.49196	126468096	92418048	39592040	24992
271	84.468898	126468096	92418048	49446016	24992
272	85.522834	126468096	92418048	59560304	24992
273	89.426495	126468096	92418048	58397528	24992
274	113.189949	124620800	92418048	23147480	24992
275	86.819407	126509056	92418048	32751120	24992
276	87.147028	126509056	92418048	43994112	24992
277	93.237856	126509056	92418048	43890016	24992
278	90.774022	126509056	92418048	55818680	24992
279	94.271928	127049728	92942336	67988472	24992
280	113.406318	126545920	92418048	36206264	24992
281	94.563949	126545920	92418048	37327080	24992
282	89.374124	126545920	92418048	50685048	24992
283	97.118462	126545920	92418048	52653432	24992
284	97.988178	128708608	95039488	66669328	24992
285	116.150174	127197184	92942336	36042600	24992
286	95.622971	127197184	92942336	38779368	24992
287	93.371798	127197184	92942336	53565160	24992
288	98.20702	127197184	92942336	56947680	24992
289	103.275629	128278528	93990912	72370592	24992
290	118.269362	126488576	92418048	30651552	24992
291	93.51844	126488576	92418048	46746632	24992
292	102.631731	126488576	92418048	51547512	24992
293	99.165889	126488576	92418048	56785400	24992
294	123.230906	125202432	93466624	27875488	24992
295	102.606666	127090688	93466624	32641704	24992
296	96.740783	127090688	93466624	50393504	24992
297	103.285542	127090688	93466624	56829984	24992
298	104.922695	127631360	93466624	63576936	24992
299	132.716199	126021632	91893760	40017984	24992
300	105.490466	126021632	91893760	47503872	24992
301	106.114187	126021632	91893760	55291456	24992
302	105.354801	126021632	91893760	63557816	24992
303	113.13226	133320704	99233792	72185472	24992
304	132.665151	132603904	98709504	33079800	24992
305	107.31934	132603904	98709504	42246000	24992
306	108.545205	132603904	98709504	51749304	24992
307	108.040367	132603904	98709504	61576592	24992
308	130.603704	125972480	93990912	35059728	24992
309	113.428026	127860736	93990912	32760760	24992
310	111.114703	127860736	93990912	43658984	24992
311	112.529474	127860736	93990912	55077200	24992
312	139.49771	125165568	92942336	22998344	24992
313	115.732226	127053824	92942336	34423064	24992
314	110.812583	127053824	92942336	47286352	24992
315	114.023829	127053824	92942336	60505960	24992
316	126.498477	128405504	94515200	74048040	24992
317	134.779943	132268032	98185216	42389512	24992
318	120.318585	132268032	98185216	44422712	24992
319	112.913338	132268032	98185216	58465160	24992
320	117.146114	132268032	98185216	72904496	24992
321	148.694677	129634304	95563776	43193216	24992
322	122.138444	129634304	95563776	46624448	24992
323	119.60591	129634304	95563776	62211608	24992
324	124.337289	131526656	97660928	67055416	24992
325	150.453171	133484544	99758080	37732432	24992
326	118.595949	133484544	99758080	54252064	24992
327	123.548645	133484544	99758080	59536192	24992
328	123.769176	134025216	99758080	65226848	24992
329	146.070113	133394432	99758080	28935368	24992
330	127.666696	133394432	99758080	35644768	24992
331	123.419387	133394432	99758080	54043840	24992
332	129.980393	133394432	99758080	61406344	24992
333	164.196648	124952576	90845184	40682632	24992
334	126.26045	124952576	90845184	48565696	24992
335	127.98447	124952576	90845184	56790232	24992
336	125.161704	133332992	99758080	77043680	24992
337	149.969038	126091264	92418048	32761984	24992
338	130.746995	126361600	92418048	42120688	24992
339	130.458528	126361600	92418048	51946736	24992
340	153.394071	120016896	86126592	31936616	24992
341	135.691693	120016896	86126592	42752000	24992
342	133.219542	120016896	86126592	54046712	24992
343	158.96112	125693952	91893760	65521000	24992
344	138.910103	123166720	89272320	46716696	24992
345	136.784962	123166720	89272320	59045616	24992
346	140.335704	127492096	93466624	60123560	24992
347	158.891972	123326464	89272320	34217168	24992
348	139.299369	123326464	89272320	47609976	24992
349	141.357566	123326464	89272320	49661944	24992
350	158.794767	127651840	93990912	63605512	24992
351	151.229729	124243968	90320896	47548864	24992
352	143.79003	124243968	90320896	50797416	24992
353	139.158173	128569344	94515200	66173728	24992
354	166.544804	124297216	90320896	30781928	24992
355	139.386595	124567552	90320896	46659456	24992
356	148.293753	124567552	90320896	51402640	24992
357	166.456684	123019264	89272320	35551176	24992
358	147.033249	123019264	89272320	41173944	24992
359	147.217291	123019264	89272320	58655840	24992
360	170.857367	122413056	88223744	32485872	24992
361	150.01416	122413056	88223744	39341016	24992
362	147.338352	122413056	88223744	58038296	24992
363	176.488575	125181952	93466624	33642064	24992
364	151.829579	127070208	93466624	40624608	24992
365	148.786892	127070208	93466624	60526664	24992
366	159.134618	131936256	98185216	69543576	24992
367	180.539822	128561152	94515200	46384648	24992
368	157.527557	128561152	94515200	55930208	24992
369	154.784412	133156864	99233792	65879192	24992
370	174.97715	124841984	90845184	33746368	24992
371	158.070105	125112320	90845184	44451384	24992
372	160.919549	125112320	90845184	55680944	24992
373	179.224988	125132800	90845184	32679208	24992
374	157.1669	125132800	90845184	44655232	24992
375	160.923873	125132800	90845184	57064496	24992
376	197.032167	124497920	90320896	44170608	24992
377	161.179179	124497920	90320896	57402072	24992
378	164.595249	135041024	101330944	71145128	24992
379	190.326343	131739648	97660928	28578888	24992
380	164.857995	131739648	97660928	43399432	24992
381	162.402391	131739648	97660928	58304032	24992
382	189.95073	126382080	95039488	38792352	24992
383	165.476276	128270336	95039488	41960000	24992
384	167.790575	128270336	95039488	58287800	24992
385	192.625591	131497984	100282368	39781512	24992
386	171.495185	133386240	100282368	44225248	24992
387	166.111123	133386240	100282368	61709000	24992
388	195.745904	129179648	95563776	32606568	24992
389	168.85251	129179648	95563776	51157224	24992
390	177.249931	129179648	95563776	58456648	24992
391	199.855565	130760704	97136640	29216904	24992
392	172.383957	130760704	97136640	49030944	24992
393	171.391083	130760704	97136640	69809928	24992
394	203.06767	125640704	91893760	30877448	24992
395	172.85209	125640704	91893760	51813904	24992
396	208.703004	120418304	88748032	33524400	24992
397	174.33107	122306560	88748032	55020672	24992
398	180.441064	125550592	91893760	65713808	24992
399	208.078783	127127552	93990912	39129992	24992
400	179.960577	127127552	93990912	50931832	24992
401	183.763561	128208896	94515200	62883632	24992
402	206.383699	124456960	90845184	37252200	24992
403	184.780445	124456960	90845184	50115224	24992
404	216.704608	120426496	88748032	35159136	24992
405	185.463667	122314752	88748032	48442976	24992
406	186.847221	128262144	95039488	62677120	24992
407	209.357217	125415424	92418048	38263264	24992
408	186.619645	125956096	92418048	53374592	24992
409	195.941961	127848448	94515200	68960480	24992
410	216.855829	124940288	91369472	56478488	24992
411	187.123227	127102976	93466624	72962968	24992
412	226.539659	130719744	99758080	40247192	24992
413	190.179214	132608000	99758080	56139480	24992
414	189.460005	133148672	99758080	73973592	24992
415	220.607463	129658880	96088064	40318536	24992
416	197.016383	129658880	96088064	47533000	24992
417	200.560546	130740224	97136640	66742864	24992
418	232.020259	126971904	93466624	47088816	24992
419	201.6683	130756608	97136640	67251368	24992
420	231.045135	135856128	105000960	36243488	24992
421	195.948986	137744384	105000960	55866248	24992
422	202.650161	138555392	105000960	65812872	24992
423	230.090246	132780032	99233792	34140352	24992
424	199.283067	132780032	99233792	56595256	24992
425	211.685546	134942720	101855232	68857864	24992
426	235.15374	131366912	97660928	51197432	24992
427	201.87392	131366912	98185216	75072008	24992
428	243.155164	138858496	105525248	33072464	24992
429	206.085996	139128832	105525248	58298648	24992
430	206.936697	139128832	105525248	72151640	24992
431	234.058318	132399104	98709504	31522584	24992
432	207.192938	132399104	98709504	58544016	24992
433	239.720159	123551744	89796608	42132144	24992
434	207.835051	123551744	89796608	57859952	24992
435	243.278701	124764160	91369472	42518232	24992
436	212.7169	124764160	91369472	59393240	24992
437	223.315842	134496256	100806656	76665584	24992
438	248.499335	130236416	96612352	51674688	24992
439	214.962887	136183808	102903808	69843016	24992
440	237.252205	128630784	95563776	43384680	24992
441	222.199348	128630784	95563776	50957568	24992
442	252.567334	125067264	93466624	39192816	24992
443	218.557666	126955520	93466624	58401648	24992
444	221.587103	136146944	102903808	79096064	24992
445	242.539724	121356288	88223744	34003768	24992
446	224.221667	122978304	89796608	55710896	24992
447	261.108224	123895808	90320896	56484848	24992
448	225.778283	136871936	103952384	79187680	24992
449	261.598067	133459968	101855232	44874072	24992
450	227.02498	135348224	101855232	55312184	24992
451	222.852578	138321920	105000960	79437032	24992
452	249.052646	122253312	89272320	36041512	24992
453	231.188775	124145664	90845184	61944520	24992
454	272.410678	123015168	89272320	53572528	24992
455	230.065676	138964992	106049536	79724240	24992
456	271.672401	133804032	100282368	34071184	24992
457	229.038638	133804032	100282368	61284032	24992
458	273.252968	141103104	107622400	77458040	24992
459	239.344185	144728064	111816704	60653832	24992
460	238.25493	145268736	111816704	78055552	24992
461	258.455705	124596224	90845184	36975424	24992
462	248.27815	128110592	94515200	55138288	24992
463	273.059317	122810368	89272320	62541152	24992
464	243.87684	141463552	108670976	81706400	24992
465	269.772613	126922752	93466624	40683568	24992
466	242.847253	126922752	93466624	61367944	24992
467	274.567235	127074304	93466624	36038000	24992
468	244.848587	127074304	93466624	57358448	24992
469	273.084754	127672320	93990912	43952856	24992
470	247.982222	127672320	93990912	66448792	24992
471	274.906671	128679936	95039488	42421384	24992
472	249.390687	128679936	95039488	65894336	24992
473	277.710066	128069632	94515200	42251240	24992
474	248.125106	128069632	94515200	66718344	24992
475	283.75412	128573440	95039488	44048288	24992
476	254.319469	128573440	95039488	57920864	24992
477	284.602692	128741376	95039488	36179208	24992
478	253.873175	128741376	95039488	63115208	24992
479	284.067724	128720896	95039488	42821648	24992
480	265.693621	128720896	95039488	58766312	24992
481	281.518746	124534784	90845184	38922848	24992
482	261.659659	125616128	92418048	67716024	24992
483	303.610283	126533632	93466624	61400184	24992
484	259.084234	145997824	112340992	91234528	24992
485	284.283711	127553536	93990912	45411464	24992
486	266.664014	128634880	95039488	64714288	24992
487	302.660234	127729664	94515200	62575256	24992
488	265.419292	149086208	115486720	82857856	24992
489	285.556728	124026880	90845184	38447672	24992
490	306.16807	121544704	89796608	47930560	24992
491	266.711953	125595648	91893760	68326032	24992
492	282.93349	149114880	116011008	90823256	24992
493	298.42866	141332480	107622400	63851008	24992
494	271.875834	150794240	117059584	87712040	24992
495	292.269272	122150912	88748032	45286856	24992
496	313.59937	122822656	89272320	44461896	24992
497	273.676222	126607360	92942336	70096856	24992
498	316.096412	136163328	105000960	45450376	24992
499	275.522577	138321920	105000960	70556008	24992
500	313.125232	153190400	119681024	86126800	24992
