x	Duration	RSS	HeapTotal	HeapUsed	External
0	NA	136527872	101855232	60694168	24992
1	0.314347	136527872	101855232	60739680	24992
2	0.284309	136527872	101855232	60810984	24992
3	0.323333	136527872	101855232	60907384	24992
4	0.383623	136527872	101855232	61030032	24992
5	0.468113	136527872	101855232	61180344	24992
6	0.527801	136527872	101855232	61359104	24992
7	0.612826	136527872	101855232	61567184	24992
8	0.711398	136527872	101855232	61805544	24992
9	0.76554	136527872	101855232	62076080	24992
10	0.854102	136527872	101855232	62378832	24992
11	0.959653	136527872	101855232	62714576	24992
12	5.400146	136527872	101855232	50494888	24992
13	0.647262	136527872	101855232	50900856	24992
14	0.671885	136527872	101855232	51343080	24992
15	0.73502	136527872	101855232	51822728	24992
16	0.785833	136527872	101855232	52340648	24992
17	0.869894	136527872	101855232	52899616	24992
18	0.89769	136527872	101855232	53499128	24992
19	0.971677	136527872	101855232	54140360	24992
20	1.03967	136527872	101855232	54823184	24992
21	1.139616	136527872	101855232	55548928	24992
22	1.159917	136527872	101855232	56318600	24992
23	1.25157	136527872	101855232	57132976	24992
24	1.296404	136527872	101855232	57993040	24992
25	1.368396	136527872	101855232	58900872	24992
26	1.430607	136527872	101855232	59857304	24992
27	1.54169	136527872	101855232	60863328	24992
28	1.589573	136527872	101855232	61919784	24992
29	1.682833	136527872	101855232	63027672	24992
30	1.71854	136527872	101855232	64187832	24992
31	4.078956	136527872	101855232	50923624	24992
32	1.956553	136527872	101855232	52193992	24992
33	1.994846	136527872	101855232	53523760	24992
34	2.335104	136527872	101855232	54910552	24992
35	2.181846	136527872	101855232	56353720	24992
36	2.271969	136527872	101855232	57854832	24992
37	2.356461	136527872	101855232	59414800	24992
38	3.396588	136527872	101855232	61034688	24992
39	3.039737	136527872	101855232	62723648	24992
40	3.025705	136527872	101855232	64475480	24992
41	2.746765	136527872	101855232	66280368	24992
42	4.138143	136527872	101855232	51969576	24992
43	3.039399	136527872	101855232	53902400	24992
44	3.200905	136527872	101855232	55901336	24992
45	3.100066	136527872	101855232	57967248	24992
46	3.203245	136527872	101855232	60099720	24992
47	3.587906	136527872	101855232	62300744	24992
48	3.409181	136527872	101855232	64570424	24992
49	3.569644	136527872	101855232	66910312	24992
50	5.183167	136527872	101855232	53084760	24992
51	3.793864	136527872	101855232	55570056	24992
52	4.428007	136527872	101855232	58130464	24992
53	4.269887	136527872	101855232	60775552	24992
54	4.378844	136527872	101855232	63490824	24992
55	4.257467	136527872	101855232	66281440	24992
56	5.718684	136527872	101855232	52968032	24992
57	5.351708	136527872	101855232	55916688	24992
58	4.854252	136527872	101855232	58953776	24992
59	4.758641	136527872	101855232	62064288	24992
60	5.106203	136527872	101855232	65257056	24992
61	7.076855	136527872	101855232	52505040	24992
62	5.401672	136527872	101855232	55865672	24992
63	5.901593	136527872	101855232	59310992	24992
64	5.924526	136527872	101855232	62842656	24992
65	5.627789	136527872	101855232	66470160	24992
66	7.233717	136527872	101855232	54316936	24992
67	5.721441	136527872	101855232	58119888	24992
68	6.215563	136527872	101855232	62013736	24992
69	5.974661	136527872	101855232	65997072	24992
70	7.716005	136527872	101855232	54562656	24992
71	6.777467	136527872	101855232	58730488	24992
72	6.942249	136527872	101855232	62993880	24992
73	7.01042	136527872	101855232	67349168	24992
74	8.313092	136527872	101855232	56111736	24992
75	7.15864	136527872	101855232	60658744	24992
76	7.416642	136527872	101855232	65304864	24992
77	8.78302	136527872	101855232	54663400	24992
78	7.579889	136527872	101855232	59507448	24992
79	7.636126	136527872	101855232	64449856	24992
80	7.704375	136527872	101855232	69491760	24992
81	10.05378	136527872	101855232	58804616	24992
82	8.316507	136527872	101855232	64052152	24992
83	8.179618	136527872	101855232	69404224	24992
84	10.122759	136527872	101855232	59092568	24992
85	8.639798	136527872	101855232	64655600	24992
86	8.996494	136527872	101855232	70326568	24992
87	10.629468	136527872	101855232	60264528	24992
88	9.0414	136527872	101855232	66148768	24992
89	11.388389	136527872	101855232	56790440	24992
90	9.602307	136527872	101855232	62895192	24992
91	9.749726	136527872	101855232	69109760	24992
92	12.809492	136527872	101855232	59795944	24992
93	10.060772	136527872	101855232	66236264	24992
94	12.296106	136527872	101855232	57548264	24992
95	10.419189	136527872	101855232	64216256	24992
96	10.638382	136527872	101855232	71000656	24992
97	12.536832	136527872	101855232	62069736	24992
98	11.275481	136527872	101855232	69088448	24992
99	13.55586	136527872	101855232	60730384	24992
100	11.387547	136527872	101855232	67986808	24992
101	13.735003	136527872	101855232	59975280	24992
102	12.746809	136527872	101855232	67485328	24992
103	14.267812	136527872	101855232	59849208	24992
104	12.340758	136527872	101855232	67596688	24992
105	14.611761	136527872	101855232	60278480	24992
106	12.741616	136527872	101855232	68284672	24992
107	15.084584	136527872	101855232	61171024	24992
108	12.909808	136527872	101855232	69436792	24992
109	15.639087	136527872	101855232	62475760	24992
110	13.702119	136527872	101855232	71006408	24992
111	15.651562	136527872	101855232	64156872	24992
112	13.753048	136527872	101855232	72956088	24992
113	15.999652	136527872	101855232	66141224	24992
114	14.307585	136527872	101855232	75213352	24992
115	16.684312	136527872	101855232	68477480	24992
116	17.412585	136527872	101855232	62721880	24992
117	14.931879	136527872	101855232	72211584	24992
118	17.658345	136527872	101855232	66287352	24992
119	15.479064	136527872	101855232	76056064	24992
120	18.342793	136527872	101855232	70057696	24992
121	18.738802	136527872	101855232	64951536	24992
122	16.589216	136527872	101855232	75156224	24992
123	18.601475	136527872	101855232	69661360	24992
124	19.620528	136527872	101855232	65143776	24992
125	17.476508	136527872	101855232	75781192	24992
126	19.797892	136527872	101855232	70740624	24992
127	20.202394	136527872	101855232	66609848	24992
128	17.451265	136527872	101855232	77691808	24992
129	20.382339	136527872	102379520	72948784	24992
130	21.595469	137068544	102903808	69048936	24992
131	18.185614	137068544	102903808	80601168	24992
132	21.204322	137338880	102903808	76148456	24992
133	21.963529	137338880	102903808	72364144	24992
134	22.073761	137338880	102903808	69329328	24992
135	19.144462	137338880	102903808	81498544	24992
136	22.552586	137609216	102903808	77677744	24992
137	22.898652	137879552	103428096	74457536	24992
138	23.321896	138420224	103428096	71888144	24992
139	23.922582	138420224	103428096	69731016	24992
140	20.472733	138420224	103428096	82694032	24992
141	23.986317	138420224	103428096	79685648	24992
142	24.090874	138420224	103428096	77185200	24992
143	24.766074	138690560	103952384	75218752	24992
144	25.003339	138960896	104476672	73612368	24992
145	25.763281	139231232	105000960	72419736	24992
146	25.977113	139501568	105000960	71636728	24992
147	26.57852	139771904	105525248	71162600	24992
148	26.964356	140042240	105525248	70961344	24992
149	27.501403	140312576	105525248	71000440	24992
150	27.856784	140582912	106049536	71248840	24992
151	28.364708	140853248	106573824	71667016	24992
152	28.468442	141123584	106573824	72237608	24992
153	29.249692	141393920	107098112	72942944	24992
154	28.581945	141664256	107098112	73769192	24992
155	29.164284	141934592	107098112	74681104	24992
156	29.717235	142204928	107622400	75687040	24992
157	29.493256	142475264	108146688	76734368	24992
158	30.766801	143015936	108146688	77854384	24992
159	31.254949	143286272	108670976	79044752	24992
160	30.385738	143556608	109195264	80281704	24992
161	30.514542	143826944	109195264	81536584	24992
162	30.418787	144097280	109719552	82840880	24992
163	30.26854	144367616	109719552	84190224	24992
164	30.679838	144637952	109719552	85576968	24992
165	32.712721	144908288	110768128	86978800	24992
166	48.400874	131817472	97136640	19393200	24992
167	32.042806	130252800	97136640	23890600	24992
168	29.618368	130252800	97136640	26739504	24992
169	30.259472	130252800	97136640	28853360	24992
170	30.042478	130252800	97136640	30854936	24992
171	32.904073	130252800	97136640	18790904	24992
172	31.931303	130252800	97136640	22742712	24992
173	32.595353	130252800	97136640	26291472	24992
174	31.545448	130252800	97136640	29515304	24992
175	32.046214	130252800	97136640	32493672	24992
176	33.74085	130252800	97136640	21212816	24992
177	34.263921	130252800	97136640	25916584	24992
178	33.51569	130252800	97136640	30089160	24992
179	33.129763	130252800	97136640	33929336	24992
180	34.586829	130252800	97136640	23508288	24992
181	35.205391	130252800	97136640	28913544	24992
182	33.776981	130252800	97136640	33789368	24992
183	36.70679	130252800	97136640	24205168	24992
184	35.256148	130523136	97136640	30200184	24992
185	35.651554	130523136	97136640	35616016	24992
186	37.824276	130523136	97136640	26429488	24992
187	36.502162	130523136	97136640	32892264	24992
188	39.884367	130523136	97136640	24844568	24992
189	41.278332	130523136	97136640	34449816	24992
190	40.992158	130523136	97136640	27482344	24992
191	39.796833	130523136	97136640	37478176	24992
192	40.283531	130523136	97136640	30942984	24992
193	41.0382	130523136	97136640	41348704	24992
194	41.46207	130523136	97136640	35096408	24992
195	41.736977	130523136	97136640	45924520	24992
196	41.96919	130523136	97136640	39889232	24992
197	43.023416	130523136	97136640	51154312	24992
198	43.543857	130523136	97136640	45330328	24992
199	40.776896	130523136	97136640	54064632	24992
200	44.362564	130523136	97136640	47851432	24992
201	49.030256	130523136	97136640	43430120	24992
202	65.11556	116113408	77213696	20227016	24992
203	43.176161	110628864	77213696	32184504	24992
204	42.92493	110628864	77213696	27387568	24992
205	46.411915	110628864	77213696	27719512	24992
206	44.117316	110628864	77213696	40727304	24992
207	44.55033	110628864	77213696	36339344	24992
208	45.387126	110628864	77213696	33185536	24992
209	49.218993	110628864	77213696	34400608	24992
210	46.037287	110628864	77213696	48310432	24992
211	48.155416	110628864	77213696	44695816	24992
212	46.441344	110628864	77213696	42392616	24992
213	49.93775	110628864	77213696	44651024	24992
214	50.530842	112521216	79310848	47033384	24992
215	51.196459	116576256	83505152	49626360	24992
216	51.524986	119009280	85602304	65033760	24992
217	67.781578	112713728	81408000	20172648	24992
218	52.612564	114601984	81408000	22571696	24992
219	52.575386	114601984	81408000	25970848	24992
220	52.456173	114601984	81408000	29634088	24992
221	54.907096	114872320	81408000	33544728	24992
222	55.39029	114872320	81408000	37709152	24992
223	53.816469	114872320	81408000	42095104	24992
224	54.882714	115412992	81932288	46729224	24992
225	58.830667	115412992	81932288	51596984	24992
226	73.349112	116928512	85078016	29421392	24992
227	54.76424	118276096	85078016	34326448	24992
228	56.028022	118276096	85078016	39959632	24992
229	53.103159	118276096	85078016	40598272	24992
230	53.987717	118276096	85078016	41495880	24992
231	54.795355	118276096	85078016	42546832	24992
232	57.136675	118276096	85078016	31427904	24992
233	57.713704	118276096	85078016	38263912	24992
234	58.580663	118276096	85078016	45417120	24992
235	58.981127	118276096	85078016	52942152	24992
236	59.299619	118546432	85078016	60766136	24992
237	58.770547	119087104	85602304	50842576	24992
238	66.27067	119898112	86650880	59099088	24992
239	79.968195	121774080	88748032	26244544	24992
240	59.8807	121774080	88748032	35012616	24992
241	64.90176	121774080	88748032	31696416	24992
242	62.116921	121774080	88748032	40824384	24992
243	62.110751	121774080	88748032	50294848	24992
244	65.977623	121774080	88748032	47720400	24992
245	63.204641	122585088	89272320	57685272	24992
246	77.453033	123936768	90845184	55668120	24992
247	74.392236	118878208	85602304	34566768	24992
248	66.133767	118878208	85602304	33132648	24992
249	64.418392	118878208	85602304	44149944	24992
250	68.798809	118878208	85602304	43160744	24992
251	67.681385	118878208	85602304	42475464	24992
252	65.477976	118878208	85602304	54257872	24992
253	72.9555	120500224	87175168	54132712	24992
254	88.933809	120270848	86650880	24489464	24992
255	67.296772	120270848	86650880	37377344	24992
256	71.408557	120270848	86650880	38531704	24992
257	71.314981	120270848	86650880	39962272	24992
258	68.371301	120270848	86650880	53935536	24992
259	72.391482	120270848	86650880	55953264	24992
260	76.906816	123244544	89796608	58222840	24992
261	92.111938	123854848	90845184	29184080	24992
262	75.385656	123854848	90845184	31678600	24992
263	71.49238	123854848	90845184	46522680	24992
264	75.396723	123854848	90845184	49466048	24992
265	73.657323	123854848	90845184	52681152	24992
266	74.888125	123854848	90845184	56126424	24992
267	78.23322	124936192	91369472	59917424	24992
268	93.581292	123445248	90320896	31641344	24992
269	78.379952	123445248	90320896	36149640	24992
270	75.643228	123445248	90320896	41235592	24992
271	78.294072	123445248	90320896	46641608	24992
272	77.59728	123445248	90320896	52334352	24992
273	79.604171	123985920	90320896	58326888	24992
274	103.432313	124051456	92418048	34525768	24992
275	80.302922	125939712	92418048	39832808	24992
276	78.674101	125939712	92418048	46148952	24992
277	80.139282	125939712	92418048	52765200	24992
278	80.95921	125939712	92418048	59679368	24992
279	83.421037	125939712	92418048	66869752	24992
280	98.470096	128643072	95039488	62134672	24992
281	89.938412	129212416	96088064	35403384	24992
282	84.424747	129212416	96088064	43669648	24992
283	88.804434	129478656	96088064	39991176	24992
284	88.835972	129478656	96088064	48898128	24992
285	84.463224	129478656	96088064	58102008	24992
286	109.11973	121774080	89796608	23907224	24992
287	85.453641	123662336	89796608	32760848	24992
288	83.530554	123662336	89796608	42685600	24992
289	90.399304	123662336	89796608	40683488	24992
290	87.724373	123662336	89796608	51212616	24992
291	87.675029	123662336	89796608	62088552	24992
292	113.65274	123764736	90320896	31741936	24992
293	89.554561	123764736	90320896	43334160	24992
294	90.3965	123764736	90320896	43382944	24992
295	92.515745	123764736	90320896	56060208	24992
296	93.365356	124305408	90320896	56747000	24992
297	96.812918	128090112	94515200	70049448	24992
298	109.748661	124571648	90845184	36518304	24992
299	96.726884	124571648	90845184	37524336	24992
300	93.839853	124571648	90845184	51225280	24992
301	94.922159	124571648	90845184	52858320	24992
302	92.132833	124571648	90845184	67152136	24992
303	117.919543	122519552	88748032	23867192	24992
304	92.698692	122519552	88748032	38965232	24992
305	99.113674	122519552	88748032	42139000	24992
306	97.897374	122519552	88748032	45603088	24992
307	95.578967	122519552	88748032	61687368	24992
308	122.73801	119906304	86126592	22440040	24992
309	96.308089	119906304	86126592	39128664	24992
310	98.353855	119906304	86126592	43692224	24992
311	100.376793	119906304	86126592	48567824	24992
312	102.766644	119906304	86126592	53768176	24992
313	127.54822	122167296	88223744	31622936	24992
314	100.594035	122167296	88223744	37553136	24992
315	101.458239	122167296	88223744	43991000	24992
316	100.39074	122167296	88223744	63013528	24992
317	103.992783	125681664	91893760	70068040	24992
318	129.120213	125612032	93990912	28520808	24992
319	102.328354	127500288	93990912	34825928	24992
320	103.209661	127500288	93990912	42691224	24992
321	107.618256	127500288	93990912	50907272	24992
322	103.91215	127500288	93990912	59445600	24992
323	128.315719	123744256	89796608	22546088	24992
324	107.417891	123744256	89796608	31929816	24992
325	107.310402	123744256	89796608	41540744	24992
326	108.974046	123744256	89796608	51633280	24992
327	114.408734	125366272	91893760	62084144	24992
328	131.517216	122830848	88748032	31647000	24992
329	110.287215	122830848	88748032	42578696	24992
330	107.976173	122830848	88748032	53844728	24992
331	112.200612	122830848	88748032	65478088	24992
332	136.677117	123695104	92418048	32229144	24992
333	114.956822	125583360	92418048	31166920	24992
334	111.205589	125583360	92418048	43871472	24992
335	115.408918	125583360	92418048	56855552	24992
336	124.244815	127475712	93466624	58172488	24992
337	137.410804	125038592	91369472	30510280	24992
338	112.8807	125038592	91369472	44586000	24992
339	114.589963	125038592	91369472	58977784	24992
340	118.646798	125308928	91369472	61416704	24992
341	141.98105	126324736	94515200	29931768	24992
342	117.988459	128212992	94515200	31929024	24992
343	117.688595	128212992	94515200	47806848	24992
344	120.396981	128212992	94515200	51864336	24992
345	124.77814	129024000	95039488	68681248	24992
346	143.961856	125788160	91893760	41306432	24992
347	122.623095	125788160	91893760	46259048	24992
348	123.675585	125788160	91893760	51599336	24992
349	127.754166	126058496	92418048	70063928	24992
350	151.06698	128385024	94515200	33138848	24992
351	120.941069	128385024	94515200	51840840	24992
352	124.397183	128385024	94515200	58579272	24992
353	126.58267	128925696	95039488	65744632	24992
354	148.708432	127922176	93990912	23381344	24992
355	122.811092	127922176	93990912	43469200	24992
356	128.868048	127922176	93990912	51694832	24992
357	129.980701	127922176	93990912	60268576	24992
358	156.205769	123367424	89272320	43442632	24992
359	129.99299	123367424	89272320	52783008	24992
360	130.605501	123367424	89272320	62585800	24992
361	131.592481	129044480	95563776	72886848	24992
362	154.494207	124080128	90845184	32347464	24992
363	130.934725	124080128	90845184	43842448	24992
364	133.507573	124080128	90845184	55840288	24992
365	150.841552	126513152	93466624	55907616	24992
366	147.303332	121597952	87699456	39083912	24992
367	133.990336	121597952	87699456	51422352	24992
368	134.543011	121597952	87699456	64156056	24992
369	157.070087	132681728	99233792	65065264	24992
370	145.066132	128528384	94515200	44529208	24992
371	139.832527	128528384	94515200	46181944	24992
372	137.153481	128528384	94515200	60672704	24992
373	166.232316	125169664	93466624	28887440	24992
374	142.69633	127057920	93466624	42882368	24992
375	143.106249	127057920	93466624	46056368	24992
376	139.692291	127328256	93466624	61890376	24992
377	165.156479	125857792	91893760	30868672	24992
378	143.968461	125857792	91893760	35201320	24992
379	142.85967	125857792	91893760	52210512	24992
380	170.463672	120446976	88748032	27599040	24992
381	143.69693	122335232	88748032	44971600	24992
382	146.386031	122335232	88748032	50865016	24992
383	142.421824	123957248	90320896	69365816	24992
384	170.755661	122699776	88748032	28939480	24992
385	148.210939	122699776	88748032	36059504	24992
386	146.926725	122699776	88748032	56033624	24992
387	174.353882	122413056	88748032	33356448	24992
388	149.24119	122413056	88748032	41683920	24992
389	150.489477	122413056	88748032	50387184	24992
390	174.644194	120434688	88748032	29014256	24992
391	150.757194	122322944	88748032	37943240	24992
392	150.616588	122322944	88748032	60140088	24992
393	157.165548	126648320	92942336	70669704	24992
394	183.811401	129777664	96088064	39547088	24992
395	155.880299	129777664	96088064	50613936	24992
396	154.377472	129777664	96088064	62123000	24992
397	177.832425	126676992	95039488	36180584	24992
398	155.882254	128565248	95039488	47238704	24992
399	156.716452	128565248	95039488	59982272	24992
400	161.193757	129916928	96088064	73318824	24992
401	190.615688	126840832	92942336	44259688	24992
402	156.946275	126840832	92942336	58210016	24992
403	160.489623	128462848	94515200	72489672	24992
404	186.486099	131969024	98709504	35377352	24992
405	162.703315	131969024	98709504	38536520	24992
406	159.965464	131969024	98709504	54125624	24992
407	186.844995	121737216	89796608	37737744	24992
408	166.012274	123625472	89796608	41308488	24992
409	163.61133	123625472	89796608	58143072	24992
410	194.497787	127881216	96612352	30999888	24992
411	164.369645	129769472	96612352	47919376	24992
412	171.468684	129769472	96612352	53854960	24992
413	174.494712	131932160	98185216	72594456	24992
414	192.885798	130064384	96088064	46677824	24992
415	169.367365	130064384	96088064	53771000	24992
416	166.656048	131956736	98185216	73529312	24992
417	194.288265	126910464	93466624	27763368	24992
418	169.264345	126910464	93466624	48361408	24992
419	180.157978	127991808	94515200	58111920	24992
420	200.434705	121585664	87699456	42388968	24992
421	169.085042	121585664	87699456	64289768	24992
422	176.058742	133750784	99758080	74461024	24992
423	196.82423	120250368	87175168	32135576	24992
424	179.316833	120791040	87175168	43219576	24992
425	203.555901	118390784	84553728	27814952	24992
426	172.770842	118390784	84553728	51960888	24992
427	177.287686	120823808	87175168	64392240	24992
428	210.924416	123150336	89796608	30648968	24992
429	180.612942	123150336	89796608	43891512	24992
430	181.61594	124231680	90320896	57894368	24992
431	200.624647	122736640	88748032	37984808	24992
432	181.966177	122736640	88748032	52600920	24992
433	188.377126	123277312	89796608	67717800	24992
434	208.134727	121692160	87699456	43810576	24992
435	187.627413	123314176	89272320	59818448	24992
436	194.315792	137641984	104476672	76539912	24992
437	213.466252	133709824	99758080	45788592	24992
438	187.292481	133709824	99758080	63153504	24992
439	188.235778	137764864	103952384	80928256	24992
440	221.655892	129712128	96088064	51956880	24992
441	190.959873	129712128	96088064	58479288	24992
442	191.38544	139173888	105525248	77748984	24992
443	223.639529	137285632	103428096	48977568	24992
444	188.324211	137285632	103428096	69079488	24992
445	195.674723	140259328	106573824	77383560	24992
446	231.808525	133124096	99233792	50890208	24992
447	198.569582	133124096	99233792	60119640	24992
448	197.016869	140423168	106573824	82398408	24992
449	216.307675	129630208	96088064	35600552	24992
450	198.637863	130170880	96088064	46590528	24992
451	221.782479	118403072	84553728	29666272	24992
452	194.649844	118403072	84553728	53583448	24992
453	230.359245	120197120	88223744	36931360	24992
454	200.316131	122085376	88223744	49150176	24992
455	204.35851	128032768	93990912	62195880	24992
456	227.391112	122302464	88748032	37409840	24992
457	202.510074	122302464	88748032	51412096	24992
458	224.310377	127979520	94515200	65849808	24992
459	216.428733	123801600	89796608	52348568	24992
460	211.15826	128126976	94515200	68239816	24992
461	236.105565	128389120	94515200	33341776	24992
462	205.98312	128389120	94515200	49651256	24992
463	210.566351	129200128	95563776	66732104	24992
464	239.580823	128528384	94515200	56136520	24992
465	210.5206	128528384	94515200	73966032	24992
466	219.034608	146370560	112865280	79990352	24992
467	240.558758	140263424	106573824	46156704	24992
468	213.090046	140533760	106573824	65746264	24992
469	248.382851	131289088	97660928	33336696	24992
470	213.994087	131289088	97660928	53831704	24992
471	214.342027	132640768	98709504	74550040	24992
472	239.593261	131117056	97136640	30958992	24992
473	216.851349	131117056	97136640	52851296	24992
474	247.16758	123273216	89796608	32558784	24992
475	216.619418	123273216	89796608	55263496	24992
476	249.698491	125251584	93466624	36571664	24992
477	218.259842	127139840	93466624	59686208	24992
478	224.310139	132005888	98185216	71657048	24992
479	245.550493	125845504	91893760	30887160	24992
480	219.246631	125845504	91893760	56111440	24992
481	250.245971	123772928	89796608	38083664	24992
482	224.240123	123772928	89796608	52003600	24992
483	241.694819	134045696	100282368	66375488	24992
484	246.331586	131796992	98185216	50936024	24992
485	230.088914	135041024	101330944	66847912	24992
486	254.394042	129769472	96088064	39709024	24992
487	227.441171	130039808	96088064	56072120	24992
488	257.505217	124747776	92942336	41972960	24992
489	228.700006	126636032	92942336	58784456	24992
490	233.878427	134205440	100282368	76707208	24992
491	250.753384	123076608	89796608	42428272	24992
492	238.845329	124968960	91369472	61666136	24992
493	265.703431	120012800	86126592	59474128	24992
494	238.129012	134070272	100806656	79466816	24992
495	263.917863	129318912	95563776	43053728	24992
496	238.943215	129589248	95563776	51743272	24992
497	260.37156	136617984	102903808	73295032	24992
498	251.71716	129650688	95563776	51389672	24992
499	240.903522	137220096	103428096	74316752	24992
500	266.923781	129015808	95563776	39370184	24992
x	Duration	RSS	HeapTotal	HeapUsed	External
0	NA	113037312	78786560	13027192	24992
1	0.274614	113037312	78786560	13079480	24992
2	0.193665	113037312	78786560	13156088	24992
3	0.218823	113037312	78786560	13259728	24992
4	0.260276	113037312	78786560	13391944	24992
5	0.318828	113037312	78786560	13554248	24992
6	0.356341	113037312	78786560	13747032	24992
7	0.425103	113037312	78786560	13971312	24992
8	0.480199	113037312	78786560	14228112	24992
9	0.703398	113037312	78786560	14519312	24992
10	0.796916	113037312	78786560	14845648	24992
11	0.719205	113037312	78786560	15207848	24992
12	0.688769	113037312	78786560	15608168	24992
13	0.78588	113037312	78786560	16047808	24992
14	0.806305	113037312	78786560	16522688	24992
15	1.10001	113037312	78786560	17038824	24992
16	0.924471	113037312	78786560	17594256	24992
17	1.13527	113037312	78786560	18193344	24992
18	1.08247	113037312	78786560	18836800	24992
19	1.231328	113037312	78786560	19528624	24992
20	1.420706	113037312	78786560	20262032	24992
21	1.194819	113037312	78786560	21039288	24992
22	1.247198	113037312	78786560	21863528	24992
23	1.499358	113037312	78786560	22735776	24992
24	1.475127	113037312	78786560	23660232	24992
25	1.479881	113037312	78786560	24633488	24992
26	2.198136	113037312	78786560	25658872	24992
27	1.816815	113037312	78786560	26737120	24992
28	1.805879	113037312	78786560	27877272	24992
29	2.016731	113037312	78786560	29064288	24992
30	2.953434	113037312	78786560	14089248	24992
31	2.266655	113037312	78786560	15389096	24992
32	2.332715	113037312	78786560	16750264	24992
33	2.302839	113037312	78786560	18173680	24992
34	2.401176	113037312	78786560	19657264	24992
35	2.69119	113037312	78786560	21201632	24992
36	2.847979	113037312	78786560	22810528	24992
37	2.482138	113037312	78786560	24480968	24992
38	3.278841	113037312	78786560	26213528	24992
39	2.733304	113037312	78786560	28020144	24992
40	2.935242	113037312	78786560	29884000	24992
41	4.617213	113037312	78786560	15988792	24992
42	3.028155	113037312	78786560	17986104	24992
43	3.458551	113037312	78786560	20052104	24992
44	3.366616	113037312	78786560	22187576	24992
45	3.222793	113037312	78786560	24395024	24992
46	3.337311	113037312	78786560	26674008	24992
47	3.766793	113037312	78786560	29026064	24992
48	5.552161	113037312	78786560	15861568	24992
49	4.142923	113037312	78786560	18363480	24992
50	3.781843	113037312	78786560	20943584	24992
51	3.876404	113037312	78786560	23603144	24992
52	4.828763	113037312	78786560	26342952	24992
53	4.252136	113037312	78786560	29172640	24992
54	6.357739	113037312	78786560	16484864	24992
55	4.363511	113037312	78786560	19471016	24992
56	4.561427	113037312	78786560	22541224	24992
57	4.919044	113037312	78786560	25696480	24992
58	4.798413	113037312	78786560	28937744	24992
59	6.850744	113037312	78786560	16720840	24992
60	5.370709	113037312	78786560	20137304	24992
61	5.836571	113037312	78786560	23646312	24992
62	5.291182	113037312	78786560	27241376	24992
63	5.640682	113037312	78786560	30928688	24992
64	7.448385	113037312	78786560	18902272	24992
65	6.31818	113037312	78786560	22781808	24992
66	5.807766	113037312	78786560	26754328	24992
67	6.138748	113037312	78786560	30821496	24992
68	8.087636	113037312	78786560	19225584	24992
69	6.726269	113037312	78786560	23486560	24992
70	6.362025	113037312	78786560	27844296	24992
71	6.570559	113037312	78786560	32300280	24992
72	8.732677	113037312	78786560	20949768	24992
73	6.890908	113037312	78786560	25606544	24992
74	7.216423	113037312	78786560	30364776	24992
75	9.097511	113037312	78786560	19607024	24992
76	8.315594	113037312	78786560	24579928	24992
77	7.717649	113037312	78786560	29648856	24992
78	9.873851	113037312	78786560	19357824	24992
79	8.380443	113037312	78786560	24640000	24992
80	8.229099	113037312	78786560	30028360	24992
81	11.424912	113037312	78786560	20115480	24992
82	8.807627	113037312	78786560	25722064	24992
83	8.670825	113037312	78786560	31441368	24992
84	12.240028	113037312	78786560	21747648	24992
85	8.819781	113037312	78786560	27691440	24992
86	9.160937	113037312	78786560	33749288	24992
87	11.48519	113037312	78786560	24094248	24992
88	9.726579	113037312	78786560	30387264	24992
89	12.154887	113037312	78786560	21484248	24992
90	10.495521	113037312	78786560	28013608	24992
91	10.619408	113037312	78786560	34659256	24992
92	12.528858	113037312	78786560	25513272	24992
93	10.908286	113037312	78786560	32403224	24992
94	12.574121	113037312	78786560	23921000	24992
95	10.626809	113037312	78786560	31054432	24992
96	13.561579	113037312	78786560	23008168	24992
97	11.103967	113037312	78786560	30390672	24992
98	13.837779	113037312	78786560	22788728	24992
99	11.561196	113037312	78786560	30424008	24992
100	14.310052	113037312	78786560	23141768	24992
101	12.106782	113037312	78786560	31040712	24992
102	14.754404	113037312	78786560	23976160	24992
103	13.373597	113037312	78786560	32148664	24992
104	15.398268	113037312	78786560	25251992	24992
105	12.694858	113037312	78786560	33688768	24992
106	15.365229	113037312	78786560	26856272	24992
107	13.065233	113037312	78786560	35571472	24992
108	16.205266	113037312	78786560	28775360	24992
109	13.649323	113037312	78786560	37770496	24992
110	16.427045	113037312	78786560	30974144	24992
111	17.935101	113037312	78786560	25375536	24992
112	15.26827	113037312	78786560	34798104	24992
113	17.459554	113037312	78786560	28894624	24992
114	15.169314	113037312	78786560	38609576	24992
115	17.719224	113037312	78786560	32573680	24992
116	18.451189	113037312	78786560	27623480	24992
117	15.44541	113037312	78786560	37781280	24992
118	18.650471	113037312	78786560	32313952	24992
119	19.442049	113037312	78786560	27963496	24992
120	16.658779	113037312	78786560	38578832	24992
121	19.121767	113037312	78786560	33551008	24992
122	20.187051	113037312	78786560	29564232	24992
123	16.973842	113037312	78786560	40636336	24992
124	20.004126	113037312	78786560	35851176	24992
125	21.278761	113037312	78786560	32042456	24992
126	21.333083	113037312	78786560	28975736	24992
127	18.049136	113037312	78786560	40678208	24992
128	21.246274	113037312	78786560	36653728	24992
129	21.953564	113037312	78786560	33514832	24992
130	22.662703	113037312	78786560	31008416	24992
131	19.513367	113037312	78786560	43367568	24992
132	23.544231	113037312	78786560	39830312	24992
133	22.808662	113037312	78786560	36988288	24992
134	23.529185	113037312	78786560	34758704	24992
135	24.183738	113037312	78786560	33077840	24992
136	25.811537	113037312	78786560	31884256	24992
137	21.39303	113037312	78786560	45244432	24992
138	24.256359	113037312	78786560	42698720	24992
139	24.446621	113037312	78786560	40626104	24992
140	24.309021	113037312	78786560	39067080	24992
141	25.607449	113037312	78786560	37915656	24992
142	25.383585	113037312	78786560	37174328	24992
143	26.3935	113037312	78786560	36800784	24992
144	27.881387	113037312	78786560	36697664	24992
145	27.237481	113037312	78786560	36836032	24992
146	27.995266	113037312	78786560	37178728	24992
147	28.383929	113037312	78786560	37683064	24992
148	28.246013	113037312	78786560	38328872	24992
149	29.151067	113037312	78786560	39098144	24992
150	29.641178	113037312	78786560	39952096	24992
151	29.05103	113037312	78786560	40893064	24992
152	29.018806	113037312	78786560	41904648	24992
153	29.749296	113037312	78786560	42984072	24992
154	29.211211	113037312	78786560	44112416	24992
155	29.57356	113037312	78786560	45270232	24992
156	29.847633	113037312	78786560	46471704	24992
157	29.772961	113037312	78786560	47714336	24992
158	30.204443	113037312	78786560	48977808	24992
159	30.526925	113037312	78786560	50286288	24992
160	31.702849	113037312	78786560	51693848	24992
161	36.530059	113037312	78786560	39490184	24992
162	33.203643	113037312	78786560	43072000	24992
163	33.731546	113037312	78786560	46352456	24992
164	32.327295	113037312	78786560	49303000	24992
165	32.469408	113037312	78786560	51995944	24992
166	38.758415	113037312	78786560	41007256	24992
167	35.48589	112615424	79310848	45610600	24992
168	34.848548	112615424	79310848	49739304	24992
169	34.096229	112885760	79310848	53398936	24992
170	44.463228	112885760	79310848	43195448	24992
171	48.932277	112885760	79310848	48366784	24992
172	47.090502	112242688	78262272	18833080	24992
173	35.482352	112242688	78262272	27013240	24992
174	33.19162	112242688	78262272	32173536	24992
175	36.27078	112242688	78262272	23142112	24992
176	33.823285	112242688	78262272	29215040	24992
177	33.46865	112242688	78262272	34676160	24992
178	37.481378	112242688	78262272	25909064	24992
179	34.674933	112242688	78262272	32375440	24992
180	38.276681	112242688	78262272	24786648	24992
181	38.383582	112242688	78262272	34816016	24992
182	39.797899	112242688	78262272	28187944	24992
183	39.818425	112242688	78262272	38646112	24992
184	40.632903	112242688	78262272	32377944	24992
185	39.475673	112242688	78262272	43234704	24992
186	41.361166	112242688	78262272	37213208	24992
187	40.306845	112242688	78262272	48522248	24992
188	42.75904	112242688	78262272	42669992	24992
189	38.551555	112242688	78262272	51064864	24992
190	41.610651	112242688	78262272	44942400	24992
191	46.892408	112242688	78262272	40808280	24992
192	44.972282	112242688	78262272	53161264	24992
193	54.477786	112242688	78262272	48357464	24992
194	58.310694	114323456	80359424	21696072	24992
195	44.952881	114323456	80359424	34552416	24992
196	43.372143	114323456	80359424	29877128	24992
197	43.425819	114323456	80359424	26596224	24992
198	45.305243	114323456	80359424	40285560	24992
199	44.709328	114323456	80359424	36045520	24992
200	45.089331	114323456	80359424	32802512	24992
201	49.04492	114323456	80359424	35135576	24992
202	48.551681	114864128	80883712	37571112	24992
203	46.369528	114864128	80883712	52228520	24992
204	46.284861	114864128	80883712	49066456	24992
205	45.828959	114864128	80883712	47082704	24992
206	50.726455	114864128	80883712	50706760	24992
207	57.358867	117297152	83505152	54447984	24992
208	70.756886	117899264	85602304	29347912	24992
209	52.507879	119246848	85602304	32870856	24992
210	52.666746	119246848	85602304	37150400	24992
211	54.307758	119246848	85602304	41727816	24992
212	53.686279	119517184	85602304	46522256	24992
213	56.28147	119517184	85602304	51580728	24992
214	54.78963	119517184	85602304	56911568	24992
215	55.99343	119517184	85602304	62464840	24992
216	83.654064	121270272	89272320	25896776	24992
217	56.810439	123158528	89272320	31241560	24992
218	55.113904	123158528	89272320	37653784	24992
219	55.80707	123158528	89272320	44379600	24992
220	56.578244	123158528	89272320	51369600	24992
221	64.394341	123699200	89796608	46956240	24992
222	58.530209	123699200	89796608	54396688	24992
223	59.524793	123699200	89796608	62123176	24992
224	87.210388	124928000	92942336	26476632	24992
225	60.973379	126816256	92942336	33577968	24992
226	59.933306	126816256	92942336	41960144	24992
227	65.651515	126816256	92942336	38993016	24992
228	60.863018	127082496	92942336	47893584	24992
229	60.077982	127623168	93466624	57113344	24992
230	66.99825	127623168	93466624	54949200	24992
231	68.704081	127623168	93466624	64643392	24992
232	83.577826	126435328	92418048	29827072	24992
233	63.872756	126435328	92418048	40252792	24992
234	69.358387	126435328	92418048	39580120	24992
235	63.121381	126435328	92418048	50547736	24992
236	68.896497	126435328	92418048	50183504	24992
237	64.534113	127246336	92942336	61708272	24992
238	75.662758	127787008	93466624	61915432	24992
239	87.399706	123535360	89272320	30076168	24992
240	71.214908	123535360	89272320	30802312	24992
241	65.952519	123535360	89272320	43212072	24992
242	70.231594	123535360	89272320	44335800	24992
243	66.523948	123535360	89272320	57318120	24992
244	70.799256	123535360	89272320	58984696	24992
245	90.219071	127320064	92942336	60946976	24992
246	76.790333	125362176	91369472	29399248	24992
247	73.059357	125362176	91369472	32028608	24992
248	69.566707	125632512	91369472	46572432	24992
249	78.003126	125632512	91369472	49892520	24992
250	74.713602	125632512	91369472	53408248	24992
251	81.893164	125632512	91369472	57218080	24992
252	96.550135	125407232	90845184	29978864	24992
253	76.109959	125407232	90845184	34493712	24992
254	75.719283	125407232	90845184	39521600	24992
255	74.752716	125407232	90845184	56363640	24992
256	81.145224	125407232	90845184	61731032	24992
257	80.500654	125407232	90845184	67387696	24992
258	109.465387	129236992	95039488	29763000	24992
259	78.12253	129236992	95039488	36023816	24992
260	79.419069	129236992	95039488	42352848	24992
261	78.898918	129236992	95039488	49000712	24992
262	81.65392	130588672	96088064	55929168	24992
263	82.36169	130588672	96088064	63197808	24992
264	108.154401	125935616	93990912	38188184	24992
265	81.403188	128364544	93990912	44861752	24992
266	87.062828	128364544	93990912	41795280	24992
267	83.787201	128364544	93990912	50687440	24992
268	85.178304	129445888	95039488	59862664	24992
269	86.991381	129986560	96088064	69306952	24992
270	111.779653	135675904	101330944	31754176	24992
271	84.304244	135675904	101330944	41653256	24992
272	84.589892	135675904	101330944	51602320	24992
273	91.916246	135675904	101330944	50243432	24992
274	87.283298	135675904	101330944	60914832	24992
275	93.608162	135675904	101330944	71827944	24992
276	108.492188	126394368	91893760	35807880	24992
277	92.219329	126394368	91893760	35653312	24992
278	88.894418	126394368	91893760	48120720	24992
279	88.199244	126394368	91893760	60823712	24992
280	101.706911	128827392	94515200	62263008	24992
281	113.962929	128724992	94515200	32399184	24992
282	90.353779	128724992	94515200	45553880	24992
283	96.48683	128724992	94515200	47530824	24992
284	91.23771	128724992	94515200	61506624	24992
285	98.425583	128724992	94515200	64120248	24992
286	125.427319	129454080	95039488	33855872	24992
287	93.296636	129454080	95039488	48839952	24992
288	97.549863	129454080	95039488	52291864	24992
289	98.412765	129454080	95039488	56025568	24992
290	93.950128	129994752	95563776	71800944	24992
291	125.011051	129667072	95563776	25466576	24992
292	101.631047	129667072	95563776	30547920	24992
293	97.099802	129667072	95563776	47843544	24992
294	101.670898	129667072	95563776	53773176	24992
295	121.004698	130478080	96088064	60103464	24992
296	108.897999	124239872	89796608	35680736	24992
297	103.969555	124239872	89796608	42434544	24992
298	105.33803	124239872	89796608	49359952	24992
299	99.162563	124239872	89796608	68319984	24992
300	131.214494	126947328	92942336	29303120	24992
301	104.54047	126947328	92942336	37305480	24992
302	104.983384	126947328	92942336	45411360	24992
303	105.103673	126947328	92942336	53838832	24992
304	130.467102	121294848	88748032	32116976	24992
305	108.055593	123183104	88748032	40502656	24992
306	107.248626	123183104	88748032	49989448	24992
307	113.093659	123183104	88748032	60091160	24992
308	136.825994	125415424	93466624	27143896	24992
309	108.981926	127578112	93466624	36904824	24992
310	109.294828	127578112	93466624	47766808	24992
311	112.547387	127578112	93466624	59000024	24992
312	120.404273	129470464	95039488	70572400	24992
313	133.702448	126300160	91893760	38885200	24992
314	111.835878	126300160	91893760	51162232	24992
315	117.649151	126300160	91893760	52311264	24992
316	113.977078	129003520	95039488	65515312	24992
317	148.030456	133165056	98709504	34869624	24992
318	114.914973	133165056	98709504	48540960	24992
319	113.567353	133165056	98709504	62572176	24992
320	119.660902	133435392	99233792	65305240	24992
321	144.255476	130138112	98185216	29867920	24992
322	115.060123	132026368	98185216	43464144	24992
323	123.3561	132026368	98185216	47309944	24992
324	117.717087	132026368	98185216	63350032	24992
325	151.999973	134189056	99758080	68114760	24992
326	123.021102	128958464	94515200	39013200	24992
327	120.572149	138149888	104476672	55946352	24992
328	125.055691	141664256	107098112	61634824	24992
329	148.78118	145989632	111816704	67666240	24992
330	131.252454	119422976	85078016	39395664	24992
331	129.44348	119422976	85078016	46220624	24992
332	124.276487	122126336	87699456	65197824	24992
333	156.473019	122576896	90845184	27099672	24992
334	122.809978	124465152	90845184	45357696	24992
335	127.743187	125005824	90845184	53635536	24992
336	129.425142	126357504	91893760	62225832	24992
337	155.214863	121384960	89272320	36233592	24992
338	129.97166	123273216	89272320	44384624	24992
339	132.085081	123273216	89272320	54198152	24992
340	133.437301	124895232	90845184	64532008	24992
341	166.224201	127275008	92942336	45921336	24992
342	134.961247	127275008	92942336	56806152	24992
343	134.736854	127275008	92942336	68118856	24992
344	137.224048	136196096	101855232	79792400	24992
345	175.268936	131588096	97660928	44186856	24992
346	138.336299	131588096	97660928	56593176	24992
347	135.789955	131588096	97660928	69434272	24992
348	155.087359	137535488	103428096	82870168	24992
349	156.637155	131067904	97136640	47219584	24992
350	144.892298	131067904	97136640	49785728	24992
351	137.830749	131067904	97136640	64356160	24992
352	167.956804	126455808	92418048	29177552	24992
353	139.556131	126455808	92418048	44298200	24992
354	141.792483	126455808	92418048	59776288	24992
355	175.487553	122335232	90320896	33499880	24992
356	142.913415	124223488	90320896	48905856	24992
357	148.385162	124223488	90320896	54091736	24992
358	153.831549	129089536	96088064	71209648	24992
359	171.399473	130994176	97136640	45983744	24992
360	149.284415	130994176	97136640	52354832	24992
361	144.533603	130994176	97136640	70696352	24992
362	176.389443	125325312	91893760	26149560	24992
363	146.640823	125325312	91893760	45470432	24992
364	154.390155	125865984	91893760	53616424	24992
365	185.743081	124895232	91369472	48596600	24992
366	153.098266	124895232	91369472	57330656	24992
367	152.557559	132734976	99233792	66476264	24992
368	179.895712	127905792	96088064	35460352	24992
369	155.801165	129794048	96088064	44165784	24992
370	157.486006	129794048	96088064	54943864	24992
371	166.219794	133038080	99233792	77479224	24992
372	178.460198	130371584	96612352	43777584	24992
373	158.947283	130371584	96612352	55647040	24992
374	159.346113	135237632	101855232	67872928	24992
375	193.964451	138866688	104476672	46521584	24992
376	161.03765	138866688	104476672	59387112	24992
377	158.120341	138866688	104476672	72614160	24992
378	187.372074	131915776	97660928	29810192	24992
379	162.645392	131915776	97660928	44224536	24992
380	163.530199	131915776	97660928	58804408	24992
381	189.97856	128651264	96088064	39377680	24992
382	170.496446	130539520	96088064	42114608	24992
383	162.874101	130539520	96088064	57933024	24992
384	189.66055	132096000	99758080	39651864	24992
385	167.271382	133984256	99758080	43574968	24992
386	170.809178	133984256	99758080	60684256	24992
387	197.946378	130633728	96612352	30379536	24992
388	169.417941	130633728	96612352	48475384	24992
389	168.315376	130633728	96612352	66855944	24992
390	197.245283	130564096	96088064	37331424	24992
391	173.931077	130564096	96088064	45182344	24992
392	169.647114	130564096	96088064	64810664	24992
393	196.46557	126504960	91893760	36974696	24992
394	175.199802	126504960	91893760	46138720	24992
395	202.023871	130560000	96088064	67366928	24992
396	178.421374	125296640	90845184	48954592	24992
397	178.020575	126918656	92418048	59205768	24992
398	206.998945	130076672	96088064	31961872	24992
399	176.089602	130076672	96088064	54876184	24992
400	180.315212	131158016	96612352	66417856	24992
401	205.753888	126889984	92418048	40363480	24992
402	180.067747	126889984	92418048	52796448	24992
403	188.201673	127430656	92942336	65657248	24992
404	213.221746	125878272	91369472	51494200	24992
405	182.247268	127500288	93466624	65244648	24992
406	219.090406	134742016	102903808	30314344	24992
407	181.351366	148795392	116011008	55153200	24992
408	188.574809	165285888	133836800	70307216	24992
409	229.548697	108027904	75640832	34630272	24992
410	189.210586	112889856	78786560	49460712	24992
411	191.658013	129380352	95039488	65922000	24992
412	219.190895	106487808	72495104	31467576	24992
413	189.588524	113516544	79310848	48733232	24992
414	192.567689	130007040	96088064	66623528	24992
415	227.864844	118902784	84553728	55599304	24992
416	191.044342	128634880	94515200	74335320	24992
417	207.399371	147558400	113389568	81984072	24992
418	226.117189	117968896	83505152	49384968	24992
419	196.104938	130404352	96088064	69528024	24992
420	233.652067	115220480	82980864	38592216	24992
421	192.804258	117919744	83505152	58151736	24992
422	203.352348	132247552	98185216	68187320	24992
423	230.645153	114421760	80359424	36680736	24992
424	199.157444	114962432	80359424	59144272	24992
425	210.149053	132534272	98185216	70565704	24992
426	233.662307	123871232	89272320	52868304	24992
427	200.028351	131440640	97136640	76830328	24992
428	241.212578	121102336	87175168	34915992	24992
429	200.006567	121372672	87175168	60102688	24992
430	208.49593	133267456	99233792	73929160	24992
431	228.766575	114233344	79835136	33274144	24992
432	202.573947	115044352	80883712	59770368	24992
433	236.694685	118054912	83505152	31965920	24992
434	202.845433	118054912	83505152	59312104	24992
435	241.194983	119914496	85602304	31609488	24992
436	209.090271	119914496	85602304	59950880	24992
437	246.635508	124805120	90845184	33635360	24992
438	214.089209	124805120	90845184	51630544	24992
439	215.91121	137240576	102903808	70543256	24992
440	256.410794	131186688	96612352	57126440	24992
441	215.41484	135782400	101330944	76301008	24992
442	255.659805	130088960	97660928	39953840	24992
443	217.639966	131977216	97660928	58500632	24992
444	218.364077	136572928	102379520	79244488	24992
445	241.669838	123670528	89796608	42131136	24992
446	219.558538	123940864	89796608	52220784	24992
447	247.822993	126967808	92418048	41110440	24992
448	223.370426	126967808	92418048	52167160	24992
449	247.037832	126939136	92418048	42193664	24992
450	223.569087	126939136	92418048	54765152	24992
451	260.511965	130056192	96088064	34358800	24992
452	223.695976	130056192	96088064	59122016	24992
453	236.097336	140599296	106573824	72703816	24992
454	267.416562	132988928	98709504	54873728	24992
455	229.313145	139206656	105000960	81161288	24992
456	258.10376	129720320	95563776	38084496	24992
457	233.376183	129720320	95563776	53727200	24992
458	259.941175	126439424	91893760	35571512	24992
459	228.05155	126439424	91893760	63857936	24992
460	271.074331	132440064	98185216	35265192	24992
461	230.123385	132440064	98185216	64788136	24992
462	278.991189	131055616	98709504	38056256	24992
463	235.857314	132943872	98709504	55685192	24992
464	232.734041	141324288	107098112	86509904	24992
465	263.077105	122896384	88223744	36566208	24992
466	282.541903	121737216	89272320	34272984	24992
467	238.325846	124166144	89796608	65323600	24992
468	242.194244	145252352	112865280	86619568	24992
469	266.536625	125857792	91369472	44010520	24992
470	239.724569	125857792	91369472	66494984	24992
471	267.110824	122687488	88223744	43550160	24992
472	250.448795	123498496	89272320	66921392	24992
473	288.615379	127135744	92942336	55894768	24992
474	251.701987	145248256	111292416	80408680	24992
475	272.767028	128405504	93990912	42780552	24992
476	247.878882	128405504	93990912	68558816	24992
477	278.698635	122753024	88748032	36894600	24992
478	270.899192	126537728	92942336	63484776	24992
479	275.110612	126730240	92418048	66506816	24992
480	257.647559	146735104	112340992	82586000	24992
481	272.672806	123953152	89796608	35997472	24992
482	297.525491	121516032	89272320	42099768	24992
483	255.798567	126107648	91893760	58121640	24992
484	258.437193	147464192	113389568	87925344	24992
485	306.129891	142123008	107622400	58064704	24992
486	255.240422	147529728	113389568	88943832	24992
487	283.624796	126455808	91893760	43468784	24992
488	269.179354	127537152	93466624	63775416	24992
489	305.437651	127533056	93466624	63901400	24992
490	266.458895	149430272	114962432	85298128	24992
491	285.064974	125673472	91369472	41378376	24992
492	308.098652	122146816	87699456	38394168	24992
493	269.549893	127823872	93466624	61662552	24992
494	308.092106	151613440	117583872	85665144	24992
495	268.229616	139026432	104476672	71052624	24992
496	280.002551	152813568	118632448	84396048	24992
497	314.401853	140525568	106049536	69794520	24992
498	274.66823	152690688	118108160	83974736	24992
499	296.84843	128585728	93990912	41541240	24992
500	269.592018	128585728	93990912	68399400	24992
