x	Duration	RSS	HeapTotal	HeapUsed	External
0	NA	128823296	94515200	53900592	24992
1	0.419386	128823296	94515200	53945336	24992
2	0.42096	128823296	94515200	54016576	24992
3	0.497186	128823296	94515200	54112976	24992
4	0.584778	128823296	94515200	54235624	24992
5	0.927884	128823296	94515200	54385936	24992
6	0.490678	128823296	94515200	54564672	24992
7	0.537728	128823296	94515200	54772808	24992
8	0.595299	128823296	94515200	55011168	24992
9	0.670453	128823296	94515200	55281800	24992
10	0.746046	128823296	94515200	55584488	24992
11	1.023099	128823296	94515200	55920256	24992
12	0.910445	128823296	94515200	56290656	24992
13	0.98815	128823296	94515200	56696480	24992
14	1.245496	128823296	94515200	57138704	24992
15	1.17485	128823296	94515200	57618320	24992
16	1.249867	128823296	94515200	58136200	24992
17	1.58654	128823296	94515200	58695160	24992
18	0.925514	128823296	94515200	59294680	24992
19	0.977683	128823296	94515200	59936008	24992
20	1.024363	128823296	94515200	60618840	24992
21	1.295751	128823296	94515200	61344672	24992
22	1.169659	128823296	94515200	62114400	24992
23	1.593744	128823296	94515200	62928736	24992
24	1.512418	128823296	94515200	63789008	24992
25	4.108233	128823296	94515200	50993608	24992
26	1.457237	128823296	94515200	51950088	24992
27	1.534526	128823296	94515200	52956056	24992
28	1.579633	128823296	94515200	54012512	24992
29	1.64356	128823296	94515200	55120352	24992
30	1.781139	128823296	94515200	56280600	24992
31	2.464405	128823296	94515200	57494304	24992
32	2.152984	128823296	94515200	58764760	24992
33	2.112632	128823296	94515200	60102840	24992
34	2.621026	128823296	94515200	61489056	24992
35	2.286069	128823296	94515200	62932248	24992
36	2.984338	128823296	94515200	64442016	24992
37	2.400319	128823296	94515200	66009896	24992
38	4.07123	128823296	94515200	51965056	24992
39	2.729346	128823296	94515200	53645536	24992
40	2.777177	128823296	94515200	55388936	24992
41	2.68924	128823296	94515200	57193792	24992
42	2.791594	128823296	94515200	59062232	24992
43	3.245662	128823296	94515200	60996480	24992
44	3.164272	128823296	94515200	62995464	24992
45	3.109273	128823296	94515200	65061224	24992
46	3.177036	128823296	94515200	67193976	24992
47	4.386427	128823296	94515200	53167088	24992
48	3.587975	128823296	94515200	55437600	24992
49	3.546996	128823296	94515200	57777288	24992
50	3.799624	128823296	94515200	60188360	24992
51	4.673343	128823296	94515200	62673656	24992
52	4.00376	128823296	94515200	65243768	24992
53	4.087082	128823296	94515200	67880728	24992
54	5.596607	128823296	94515200	54376416	24992
55	4.171338	128823296	94515200	57168032	24992
56	4.482666	128823296	94515200	60037128	24992
57	4.403295	128823296	94515200	62985760	24992
58	4.56263	128823296	94515200	66014888	24992
59	6.80359	128823296	94515200	53430944	24992
60	4.855601	128823296	94515200	56624568	24992
61	5.125107	128823296	94515200	59900744	24992
62	5.242097	128823296	94515200	63261104	24992
63	5.319121	128823296	94515200	66706560	24992
64	7.020857	128823296	94515200	54718672	24992
65	5.620176	128823296	94515200	58344912	24992
66	5.553514	128823296	94515200	62059344	24992
67	5.712899	128823296	94515200	65862424	24992
68	7.683772	128823296	94515200	54339720	24992
69	6.202571	128823296	94515200	58323024	24992
70	6.417029	128823296	94515200	62399912	24992
71	6.475397	128823296	94515200	66567576	24992
72	8.425152	128823296	94515200	55345808	24992
73	6.957734	128823296	94515200	59701272	24992
74	6.915166	128823296	94515200	64153320	24992
75	7.122253	128823296	94515200	68700576	24992
76	8.776842	128823296	94515200	57649544	24992
77	7.186432	128823296	94515200	62391640	24992
78	7.510671	128823296	94515200	67233424	24992
79	9.157663	128823296	94515200	56694960	24992
80	7.958135	128823296	94515200	61736984	24992
81	8.161887	128823296	94515200	66880736	24992
82	9.901143	128823296	94515200	56691176	24992
83	8.342238	128823296	94515200	62043600	24992
84	8.336105	128823296	94515200	67501256	24992
85	10.602432	129093632	95039488	57624352	24992
86	8.702431	129093632	95039488	63294280	24992
87	8.973968	129093632	95039488	69070024	24992
88	11.399361	129634304	95563776	59383312	24992
89	9.416683	129634304	95563776	65377120	24992
90	9.45426	129634304	95563776	71481032	24992
91	11.533126	129904640	95563776	61874112	24992
92	9.648817	129904640	95563776	68201952	24992
93	12.008973	130174976	96088064	59228680	24992
94	10.312406	130174976	96088064	65783960	24992
95	10.359133	130174976	96088064	72452048	24992
96	12.454805	130445312	96088064	63340984	24992
97	10.562453	130445312	96088064	70242136	24992
98	12.987212	130445312	96088064	61701528	24992
99	10.948956	130445312	96088064	68838552	24992
100	13.270904	130715648	96612352	60699688	24992
101	11.501754	130715648	96612352	68076544	24992
102	14.103561	130985984	97136640	60323744	24992
103	11.766851	130985984	97136640	67944560	24992
104	14.857712	131256320	97136640	60548656	24992
105	12.383493	131526656	97136640	68425536	24992
106	14.851443	131526656	97136640	61274616	24992
107	12.622854	131526656	97136640	69409384	24992
108	15.508426	131526656	97136640	62412896	24992
109	13.313211	131526656	97136640	70812504	24992
110	15.598073	131526656	97136640	63948776	24992
111	13.782327	131526656	97136640	72613704	24992
112	16.579936	131526656	97660928	65824752	24992
113	14.288279	131526656	97660928	74763112	24992
114	16.623144	131796992	97660928	67997392	24992
115	14.50615	131796992	97660928	77207496	24992
116	17.410323	132337664	98185216	70548360	24992
117	17.264068	132337664	98185216	64796680	24992
118	15.0891	132608000	98709504	74424584	24992
119	17.782253	132878336	99233792	68534536	24992
120	15.569523	132878336	99233792	78449272	24992
121	18.361131	133419008	99758080	72481288	24992
122	18.835259	133689344	99758080	67310752	24992
123	16.524692	133689344	99758080	77653544	24992
124	18.875529	133959680	99758080	72244320	24992
125	19.635913	134500352	100282368	67646696	24992
126	16.898925	134500352	100282368	78431616	24992
127	20.019014	134770688	100806656	73356136	24992
128	20.550779	135041024	100806656	69145352	24992
129	17.646072	135041024	101330944	80392376	24992
130	20.238257	135311360	101855232	75697368	24992
131	21.105016	135852032	101855232	71730400	24992
132	21.611086	136122368	102379520	68489888	24992
133	18.922414	136122368	102379520	80349344	24992
134	22.29786	136392704	102379520	76336536	24992
135	21.917612	136933376	102903808	73034888	24992
136	22.954844	137203712	103428096	70297344	24992
137	20.304692	137203712	103428096	82781104	24992
138	22.76478	137474048	103428096	79278288	24992
139	23.501419	137744384	103952384	76356016	24992
140	23.647446	138014720	103952384	74034880	24992
141	24.509571	138285056	104476672	72105664	24992
142	24.956573	138555392	105000960	70688424	24992
143	21.570899	138825728	105000960	84141184	24992
144	24.813527	139096064	105000960	81638112	24992
145	24.885193	139366400	105525248	79568384	24992
146	25.327167	139636736	106049536	77993160	24992
147	25.631135	139907072	106573824	76704008	24992
148	26.997632	140177408	106573824	75822280	24992
149	31.811708	140718080	106573824	75282192	24992
150	38.669764	129810432	96088064	22405944	24992
151	24.724807	130076672	96088064	21682728	24992
152	25.157267	130076672	96088064	21304168	24992
153	25.857058	130076672	96088064	21161160	24992
154	25.870762	130076672	96088064	21230120	24992
155	26.445616	130076672	96088064	21466408	24992
156	27.973379	130076672	96088064	21865024	24992
157	27.043883	130076672	96088064	22411304	24992
158	26.967657	130076672	96088064	23070424	24992
159	27.191144	130076672	96088064	23814040	24992
160	28.105011	130076672	96088064	24654856	24992
161	27.332898	130076672	96088064	25565280	24992
162	28.804374	130076672	96088064	26571104	24992
163	27.500949	130076672	96088064	27680624	24992
164	28.448283	130076672	96088064	28940664	24992
165	28.205675	130076672	96088064	30254240	24992
166	29.115823	130076672	96088064	31625432	24992
167	29.826046	129273856	96088064	33166416	24992
168	31.569533	129273856	96088064	20560952	24992
169	31.119152	129544192	96088064	24018424	24992
170	30.638936	129544192	96088064	27197408	24992
171	30.89028	129544192	96088064	30132016	24992
172	31.00318	129544192	96088064	32870992	24992
173	34.173709	129544192	96088064	21531920	24992
174	33.729261	129544192	96088064	25907528	24992
175	35.068491	129544192	96088064	30005464	24992
176	32.723065	129544192	96088064	33743072	24992
177	35.548501	129544192	96088064	23286168	24992
178	33.669893	129544192	96088064	28351632	24992
179	33.590704	129544192	96088064	33078608	24992
180	33.479722	129544192	96088064	37344608	24992
181	36.698082	129544192	96088064	27179512	24992
182	36.052513	129544192	96088064	32801408	24992
183	34.465653	129544192	96088064	37864056	24992
184	38.729549	129544192	96088064	28423696	24992
185	36.097169	129544192	96088064	34580256	24992
186	39.094266	129544192	96088064	26450936	24992
187	38.470473	129544192	96088064	35631576	24992
188	36.689338	129544192	96088064	41959104	24992
189	39.968902	129544192	96088064	33580224	24992
190	37.592868	129544192	96088064	40615048	24992
191	41.381076	129544192	96088064	33080880	24992
192	38.877811	129544192	96088064	40568768	24992
193	41.834567	129544192	96088064	33602864	24992
194	42.785883	129544192	96088064	44247056	24992
195	43.59318	129544192	96088064	37984632	24992
196	39.747873	129544192	96088064	46220632	24992
197	43.459658	129544192	96088064	39796120	24992
198	40.601901	129544192	96088064	48361352	24992
199	44.454476	129544192	96088064	42067368	24992
200	45.376432	129544192	96088064	37545392	24992
201	43.625734	129544192	96088064	49650336	24992
202	45.861996	129544192	96088064	44696008	24992
203	47.160333	129544192	96088064	41112032	24992
204	46.627179	129544192	96088064	53838808	24992
205	57.301691	129544192	96088064	49449880	24992
206	58.262589	114241536	80883712	23090592	24992
207	47.200188	114241536	80883712	23737944	24992
208	45.53573	114241536	80883712	37187152	24992
209	45.37607	114511872	80883712	33157984	24992
210	45.926227	114511872	80883712	30261832	24992
211	49.105559	114511872	80883712	31924728	24992
212	49.177427	114511872	80883712	33687520	24992
213	46.67706	114511872	80883712	48301792	24992
214	46.16822	114511872	80883712	45299448	24992
215	47.218354	114511872	80883712	43314320	24992
216	51.277171	114511872	80883712	46149224	24992
217	51.172136	114511872	80883712	49265200	24992
218	58.19263	116133888	82980864	52581248	24992
219	69.556837	117051392	84553728	28453688	24992
220	51.76137	117858304	84553728	31529968	24992
221	53.999822	117858304	84553728	35425824	24992
222	53.349082	117858304	84553728	39575840	24992
223	54.215846	117858304	84553728	43946336	24992
224	54.080224	117858304	84553728	48590576	24992
225	55.628742	118128640	84553728	53504328	24992
226	55.575275	118128640	84553728	58676928	24992
227	52.423059	118128640	84553728	58894440	24992
228	51.69048	118128640	84553728	59567560	24992
229	52.193954	118128640	84553728	60468400	24992
230	53.20699	118128640	84553728	61539296	24992
231	52.936476	118128640	84553728	62745728	24992
232	56.83698	118398976	85078016	51779496	24992
233	74.64227	122454016	89272320	58771392	24992
234	65.826755	122589184	89272320	35627208	24992
235	60.741378	122589184	89272320	30694568	24992
236	58.777355	122589184	89272320	38313680	24992
237	58.252438	122589184	89272320	46224392	24992
238	59.306828	122589184	89272320	54380648	24992
239	63.229082	122859520	89796608	50448424	24992
240	62.340488	123400192	89796608	59110456	24992
241	60.858196	123400192	89796608	68221200	24992
242	86.38906	120111104	88748032	19638032	24992
243	60.814184	121999360	88748032	27982848	24992
244	61.509446	121999360	88748032	37805256	24992
245	65.84139	121999360	88748032	35628384	24992
246	62.990546	121999360	88748032	46023224	24992
247	67.852024	121999360	88748032	44389120	24992
248	63.959753	122810368	89272320	55299224	24992
249	72.193089	122810368	89272320	54229512	24992
250	85.073777	120578048	87175168	23391368	24992
251	68.041221	120578048	87175168	35003176	24992
252	69.251315	120578048	87175168	34605488	24992
253	66.014812	120578048	87175168	47223064	24992
254	69.573798	120578048	87175168	47803752	24992
255	67.243732	120578048	87175168	60973856	24992
256	71.635615	120578048	87175168	62093752	24992
257	94.506456	123240448	91893760	33449264	24992
258	70.702897	125128704	91893760	33828464	24992
259	70.43207	125128704	91893760	35344232	24992
260	70.635168	125128704	91893760	49355064	24992
261	71.646991	125128704	91893760	51435400	24992
262	71.206846	125128704	91893760	53783480	24992
263	73.549541	126480384	92942336	56388576	24992
264	98.878761	124825600	93466624	29602376	24992
265	73.890793	126713856	93466624	31996128	24992
266	75.045339	126713856	93466624	36011984	24992
267	72.852794	126713856	93466624	52578336	24992
268	77.115192	126713856	93466624	57101392	24992
269	77.176116	126713856	93466624	61967200	24992
270	79.196175	128335872	95039488	67107760	24992
271	104.25395	129462272	96088064	27313728	24992
272	77.384756	129462272	96088064	32704024	24992
273	78.914348	129462272	96088064	38232416	24992
274	78.761284	129462272	96088064	44031016	24992
275	78.571281	129462272	96088064	50106864	24992
276	77.758497	129462272	96088064	56494048	24992
277	96.799967	129462272	96088064	63153696	24992
278	84.883899	122953728	89272320	36160792	24992
279	82.154957	122953728	89272320	43557808	24992
280	84.167207	122953728	89272320	38953880	24992
281	82.86145	122953728	89272320	46975320	24992
282	82.618826	122953728	89272320	55299760	24992
283	106.394751	121552896	89796608	20716768	24992
284	82.289562	123441152	89796608	28635440	24992
285	83.424745	123441152	89796608	37680648	24992
286	82.663638	123441152	89796608	47005088	24992
287	83.813379	123441152	89796608	56613632	24992
288	90.082025	123441152	89796608	54289328	24992
289	110.47458	118280192	86650880	36221088	24992
290	88.181755	120168448	86650880	33977896	24992
291	87.224001	120168448	86650880	45010104	24992
292	86.408543	120168448	86650880	56715536	24992
293	94.124165	121765888	87699456	56475984	24992
294	90.900288	126902272	93466624	68812144	24992
295	115.458449	129134592	95563776	35435528	24992
296	91.232446	129134592	95563776	35674696	24992
297	89.531006	129134592	95563776	48436752	24992
298	92.114376	129134592	95563776	49187008	24992
299	89.557243	129134592	95563776	62573768	24992
300	97.250226	129945600	96088064	63923344	24992
301	112.842709	125820928	91893760	32588336	24992
302	94.005248	125820928	91893760	34777360	24992
303	91.727539	125820928	91893760	50049704	24992
304	97.468019	125820928	91893760	53258160	24992
305	94.658237	125820928	91893760	69076144	24992
306	119.315477	127873024	93990912	25792928	24992
307	96.727562	127873024	93990912	29589504	24992
308	94.484716	127873024	93990912	45787896	24992
309	100.622713	127873024	93990912	50064032	24992
310	99.71244	127873024	93990912	54635664	24992
311	126.135757	121143296	87175168	31983616	24992
312	99.974664	121143296	87175168	37239840	24992
313	97.140254	121143296	87175168	55690792	24992
314	102.330237	121143296	87175168	62147752	24992
315	103.49204	126009344	92418048	68621312	24992
316	126.832212	126197760	92942336	26498232	24992
317	102.627279	126468096	92942336	33976816	24992
318	103.122252	126468096	92942336	41373712	24992
319	105.604069	126468096	92942336	49105968	24992
320	110.673548	127008768	93466624	57173304	24992
321	126.285881	121667584	87699456	37835080	24992
322	104.991769	121667584	87699456	46345568	24992
323	105.253341	121667584	87699456	55200320	24992
324	106.791587	121667584	87699456	64424632	24992
325	124.836001	129507328	95563776	61666672	24992
326	116.768853	128581632	95039488	37821896	24992
327	110.864212	128581632	95039488	48058312	24992
328	110.000961	128581632	95039488	46530328	24992
329	109.399711	128581632	95039488	57668536	24992
330	135.473821	124461056	90845184	22866720	24992
331	109.185531	124461056	90845184	34644128	24992
332	110.5274	124461056	90845184	46581816	24992
333	110.575532	124461056	90845184	58861824	24992
334	129.858479	125272064	91369472	59330200	24992
335	122.819267	121286656	87175168	41462880	24992
336	114.852103	121286656	87175168	42537672	24992
337	115.640215	121286656	87175168	56210536	24992
338	120.010418	124530688	90845184	58176280	24992
339	145.694034	128450560	94515200	30758864	24992
340	113.610143	128450560	94515200	45493072	24992
341	114.767438	128450560	94515200	60569672	24992
342	118.413317	128450560	94515200	63821040	24992
343	123.693772	134668288	100806656	67372576	24992
344	138.469829	129441792	95563776	36087888	24992
345	119.92866	129441792	95563776	40381864	24992
346	117.833878	129441792	95563776	57482864	24992
347	122.475592	129441792	95563776	62668744	24992
348	143.884351	126554112	92942336	31012960	24992
349	124.79182	126554112	92942336	36874688	24992
350	122.444408	126554112	92942336	42921968	24992
351	122.861454	126554112	92942336	61681576	24992
352	150.240486	121786368	87699456	25629864	24992
353	124.310485	121786368	87699456	32769384	24992
354	123.283809	121786368	87699456	52587256	24992
355	128.104434	121786368	87699456	60679664	24992
356	156.298613	122281984	88223744	41878504	24992
357	127.261847	122281984	88223744	50526328	24992
358	127.967909	122281984	88223744	59479376	24992
359	131.538088	129040384	95039488	68842936	24992
360	152.938558	126627840	93466624	27487080	24992
361	130.562756	127168512	93466624	37608312	24992
362	130.425135	127168512	93466624	48324184	24992
363	136.026782	127709184	93990912	59424792	24992
364	156.40396	121921536	87699456	43715144	24992
365	132.148017	121921536	87699456	55269488	24992
366	134.266436	121921536	87699456	55063728	24992
367	140.775953	131923968	98185216	67433560	24992
368	159.354895	129871872	96088064	35457968	24992
369	136.439757	130142208	96088064	48611704	24992
370	135.236804	130142208	96088064	62165712	24992
371	150.561965	131764224	98185216	76266544	24992
372	154.725658	127315968	93466624	44600920	24992
373	139.714324	127315968	93466624	47186584	24992
374	137.64865	127586304	93466624	62514520	24992
375	167.625048	129093632	97136640	31598120	24992
376	139.265363	130981888	97136640	46382872	24992
377	142.728527	130981888	97136640	50391128	24992
378	144.19189	130981888	97136640	66957560	24992
379	167.252024	122830848	88748032	25531536	24992
380	143.07459	122830848	88748032	42966448	24992
381	144.877356	122830848	88748032	48716656	24992
382	167.077618	122159104	90320896	36966440	24992
383	147.343627	124051456	90320896	42877176	24992
384	146.669747	124051456	90320896	49560440	24992
385	149.753571	124862464	90845184	68876456	24992
386	174.553619	126230528	92418048	47732512	24992
387	148.250621	126230528	92418048	55677560	24992
388	150.574012	126500864	92418048	64192872	24992
389	175.352922	138395648	104476672	73092288	24992
390	156.257585	131096576	97136640	44595968	24992
391	150.61164	131096576	97136640	54021224	24992
392	151.074429	131096576	97136640	63890464	24992
393	172.554865	125005824	91369472	36782008	24992
394	155.006965	125005824	91369472	47516144	24992
395	155.269255	125005824	91369472	58854360	24992
396	178.766046	122847232	88748032	27114352	24992
397	156.063209	122847232	88748032	38968568	24992
398	155.602127	122847232	88748032	51308872	24992
399	178.927638	123940864	90320896	31770648	24992
400	156.191949	123940864	90320896	44925808	24992
401	158.579339	123940864	90320896	58440320	24992
402	186.759465	123899904	91893760	28410040	24992
403	159.529299	125788160	91893760	42204504	24992
404	160.412446	125788160	91893760	56911920	24992
405	162.749991	129843200	96088064	72075560	24992
406	190.53483	132177920	98185216	44506912	24992
407	162.904394	132177920	98185216	60742344	24992
408	164.730571	132177920	98185216	65469560	24992
409	190.692864	130236416	96088064	29404784	24992
410	162.133235	130236416	96088064	46599528	24992
411	166.757095	130236416	96088064	52045736	24992
412	192.157655	123875328	89796608	36869048	24992
413	167.345808	123875328	89796608	43250584	24992
414	167.102368	123875328	89796608	62332032	24992
415	193.791451	127127552	93466624	36227832	24992
416	171.510389	127127552	93466624	43882384	24992
417	168.978351	127127552	93466624	64064896	24992
418	196.002275	124919808	90845184	37860744	24992
419	172.162153	124919808	90845184	46838704	24992
420	172.821164	124919808	90845184	56298616	24992
421	197.750377	127410176	93466624	32551456	24992
422	173.007822	127410176	93466624	42632848	24992
423	173.02449	127410176	93466624	65450840	24992
424	201.788955	123871232	89796608	29650344	24992
425	177.625889	123871232	89796608	41147584	24992
426	178.020609	123871232	89796608	65537368	24992
427	208.590437	122843136	88748032	52074248	24992
428	180.380582	122843136	88748032	64949792	24992
429	182.151248	135278592	101330944	78188896	24992
430	197.588756	126590976	92418048	38262256	24992
431	182.410457	126590976	92418048	52504856	24992
432	210.222993	117444608	83505152	28192928	24992
433	182.356423	117714944	83505152	43287432	24992
434	185.077112	123662336	89796608	58836496	24992
435	202.111386	116436992	82456576	33567808	24992
436	185.579061	116436992	82456576	49953400	24992
437	211.911671	119050240	87175168	38805672	24992
438	186.845585	120938496	87175168	43789448	24992
439	202.030937	124452864	90320896	61679448	24992
440	215.463773	124760064	90845184	31087184	24992
441	190.300069	124760064	90845184	49821480	24992
442	190.096622	125571072	91369472	69408536	24992
443	214.836428	120672256	86650880	29339720	24992
444	190.249223	120672256	86650880	49502536	24992
445	223.059443	123129856	89272320	28991792	24992
446	195.338618	123129856	89272320	50127288	24992
447	196.653348	126644224	92942336	59340048	24992
448	217.003655	125206528	91369472	31677480	24992
449	193.436794	125206528	91369472	54136064	24992
450	202.178085	126558208	92418048	64846848	24992
451	223.483878	123523072	89272320	48657096	24992
452	201.281267	127307776	93466624	60236304	24992
453	228.097133	132063232	100282368	35536256	24992
454	199.735471	133951488	100282368	46939720	24992
455	198.067957	133951488	100282368	72273400	24992
456	230.358504	130174976	96088064	34682792	24992
457	203.179861	130174976	96088064	48974008	24992
458	205.254048	130174976	96088064	64280168	24992
459	238.85264	129335296	95563776	51606192	24992
460	207.912976	129335296	95563776	67086064	24992
461	209.950118	144744448	111292416	83271120	24992
462	241.977634	142757888	109195264	49034368	24992
463	208.348318	142757888	109195264	65803672	24992
464	214.764008	145461248	111292416	83151960	24992
465	239.323947	133824512	99758080	49052320	24992
466	210.454262	133824512	99758080	67329176	24992
467	243.609095	139898880	106049536	33742744	24992
468	211.910277	139898880	106049536	53169088	24992
469	211.041504	139898880	106049536	72927240	24992
470	232.96885	129683456	95563776	40811728	24992
471	217.674345	129683456	95563776	49442784	24992
472	241.498479	127127552	93466624	40816968	24992
473	217.095335	127127552	93466624	50727576	24992
474	218.919406	131723264	97660928	73940256	24992
475	254.866479	133390336	99233792	55752080	24992
476	221.342329	133390336	99233792	66644696	24992
477	252.36405	138231808	106573824	37395216	24992
478	225.545646	140120064	106573824	48062600	24992
479	221.079655	140120064	106573824	72798544	24992
480	254.081692	133287936	99233792	31778080	24992
481	226.936544	133287936	99233792	57551504	24992
482	253.551826	126832640	95039488	41255896	24992
483	227.861012	128720896	95039488	55053928	24992
484	228.632838	134127616	100282368	69961016	24992
485	246.625499	126214144	92418048	32893904	24992
486	224.335476	126484480	92418048	61128536	24992
487	253.384477	119185408	85078016	35298096	24992
488	229.358191	119185408	85078016	52451472	24992
489	268.848568	122937344	88748032	60856168	24992
490	235.749788	133480448	99758080	78836544	24992
491	240.995991	152133632	118108160	97380624	24992
492	264.104443	139042816	105525248	59595088	24992
493	233.096615	139583488	105525248	79065208	24992
494	264.007836	135061504	100806656	42239840	24992
495	237.665232	135061504	100806656	50433352	24992
496	256.110889	137224192	103952384	71594080	24992
497	250.557485	131424256	97136640	61072696	24992
498	243.250728	137371648	103428096	71273592	24992
499	266.514363	135041024	100806656	36306952	24992
500	240.926851	135041024	100806656	59457096	24992
x	Duration	RSS	HeapTotal	HeapUsed	External
0	NA	114311168	80359424	13011464	24992
1	0.27177	114311168	80359424	13063816	24992
2	0.194601	114311168	80359424	13140600	24992
3	0.223677	114311168	80359424	13244496	24992
4	0.271223	114311168	80359424	13377048	24992
5	0.327009	114311168	80359424	13539760	24992
6	0.369281	114311168	80359424	13733040	24992
7	0.424726	114311168	80359424	13957896	24992
8	0.48777	114311168	80359424	14215704	24992
9	0.545449	114311168	80359424	14507624	24992
10	0.848417	114311168	80359424	14834672	24992
11	0.833929	114311168	80359424	15197800	24992
12	0.73181	114311168	80359424	15597960	24992
13	0.78397	114311168	80359424	16036144	24992
14	1.039692	114311168	80359424	16517912	24992
15	0.866121	114311168	80359424	17033864	24992
16	0.924804	114311168	80359424	17590584	24992
17	0.989592	114311168	80359424	18191040	24992
18	1.312628	114311168	80359424	18839616	24992
19	1.117043	114311168	80359424	19527768	24992
20	1.526159	114311168	80359424	20260632	24992
21	1.428694	114311168	80359424	21039616	24992
22	1.548713	114311168	80359424	21867280	24992
23	2.022623	114311168	80359424	22743456	24992
24	1.501228	114311168	80359424	23678240	24992
25	1.535183	114311168	80359424	24653504	24992
26	1.612756	114311168	80359424	25680920	24992
27	1.707862	114311168	80359424	26761408	24992
28	1.78217	114311168	80359424	27896784	24992
29	1.860875	114311168	80359424	29086280	24992
30	3.120934	114311168	80359424	14067592	24992
31	2.239933	114311168	80359424	15369936	24992
32	2.379573	114311168	80359424	16733664	24992
33	2.234825	114311168	80359424	18159792	24992
34	2.344028	114311168	80359424	19646392	24992
35	2.86863	114311168	80359424	21193496	24992
36	2.735749	114311168	80359424	22802176	24992
37	2.74785	114311168	80359424	24472680	24992
38	2.904335	114311168	80359424	26205328	24992
39	3.070281	114311168	80359424	28002616	24992
40	2.877411	114311168	80359424	29865584	24992
41	4.495899	114311168	80359424	15601560	24992
42	3.35867	114311168	80359424	17598880	24992
43	3.176956	114311168	80359424	19664792	24992
44	3.462015	114311168	80359424	21801264	24992
45	3.37869	114311168	80359424	24008840	24992
46	3.65742	114311168	80359424	26289456	24992
47	3.600817	114311168	80359424	28641496	24992
48	4.997787	114311168	80359424	14954712	24992
49	4.038558	114311168	80359424	17456192	24992
50	3.926283	114311168	80359424	20036424	24992
51	4.26258	114311168	80359424	22696072	24992
52	4.199566	114311168	80359424	25435880	24992
53	4.46453	114311168	80359424	28256832	24992
54	5.977625	114311168	80359424	15117888	24992
55	4.756564	114311168	80359424	18103976	24992
56	5.351711	114311168	80359424	21185488	24992
57	4.862768	114311168	80359424	24340816	24992
58	5.755894	114311168	80359424	27582056	24992
59	5.500481	114311168	80359424	30919072	24992
60	6.716667	114311168	80359424	18046816	24992
61	5.318114	114311168	80359424	21553248	24992
62	5.687346	114311168	80359424	25148288	24992
63	6.057937	114311168	80359424	28835968	24992
64	7.612545	114311168	80359424	16806488	24992
65	6.525859	114311168	80359424	20693168	24992
66	6.287699	114311168	80359424	24667096	24992
67	6.197111	114311168	80359424	28734472	24992
68	7.696105	114311168	80359424	17319784	24992
69	7.337497	114311168	80359424	21588088	24992
70	6.676729	114311168	80359424	25945672	24992
71	7.035458	114311168	80359424	30402856	24992
72	8.480589	114311168	80359424	19159880	24992
73	7.278575	114311168	80359424	23816368	24992
74	7.445306	114311168	80359424	28576632	24992
75	9.207656	114311168	80359424	17999760	24992
76	7.991686	114311168	80359424	22963920	24992
77	7.93866	114311168	80359424	28032768	24992
78	9.78495	114311168	80359424	17877096	24992
79	8.678299	114311168	80359424	23159616	24992
80	8.7119	114311168	80359424	28548392	24992
81	10.345793	114311168	80359424	18714784	24992
82	8.804215	114311168	80359424	24322544	24992
83	9.694934	114311168	80359424	30057136	24992
84	11.162383	114311168	80359424	20402632	24992
85	9.578587	114311168	80359424	26345920	24992
86	9.7357	114311168	80359424	32403840	24992
87	12.058887	114311168	80359424	22796224	24992
88	10.112153	114311168	80359424	29086040	24992
89	11.91073	114311168	80359424	20227368	24992
90	10.403257	114311168	80359424	26752752	24992
91	10.812588	114311168	80359424	33397680	24992
92	12.368233	114311168	80359424	24279176	24992
93	10.709503	114311168	80359424	31166824	24992
94	13.921354	114311168	80359424	22724792	24992
95	11.255314	114311168	80359424	29856560	24992
96	13.477331	114311168	80359424	21834792	24992
97	11.623593	114311168	80359424	29217240	24992
98	14.590376	114311168	80359424	21651256	24992
99	12.065587	114311168	80359424	29286488	24992
100	14.66463	114311168	80359424	22020560	24992
101	13.154074	114311168	80359424	29914864	24992
102	15.358936	114311168	80359424	22870152	24992
103	13.628552	114311168	80359424	31040440	24992
104	15.738977	114311168	80359424	24158696	24992
105	13.057877	114311168	80359424	32593816	24992
106	15.580396	114311168	80359424	25773976	24992
107	13.988731	114311168	80359424	34486448	24992
108	15.902677	114311168	80359424	27701288	24992
109	14.066541	114311168	80359424	36696904	24992
110	16.006231	114311168	80359424	29910520	24992
111	17.481789	114311168	80359424	24312152	24992
112	14.951291	114311168	80359424	33735400	24992
113	17.435217	114311168	80359424	27847176	24992
114	15.127841	114311168	80359424	37560992	24992
115	17.900366	114311168	80359424	31532688	24992
116	18.577475	114311168	80359424	26584440	24992
117	16.510745	114311168	80359424	36742296	24992
118	18.929796	114311168	80359424	31287672	24992
119	19.584419	114311168	80359424	26938960	24992
120	16.502693	114311168	80359424	37549416	24992
121	19.829574	114311168	80359424	32524648	24992
122	20.410215	114311168	80359424	28543312	24992
123	18.389555	114311168	80359424	39614816	24992
124	19.875294	114311168	80359424	34828216	24992
125	21.321073	114311168	80359424	31023264	24992
126	21.494595	114311168	80359424	27956864	24992
127	18.827519	114311168	80359424	39657848	24992
128	21.151178	114311168	80359424	35634968	24992
129	22.170557	114311168	80359424	32497872	24992
130	22.789501	114311168	80359424	29988960	24992
131	20.425937	114311168	80359424	42349368	24992
132	22.476727	114311168	80359424	38814488	24992
133	23.205359	114311168	80359424	35972400	24992
134	24.255496	114311168	80359424	33740840	24992
135	23.735246	114311168	80359424	32062720	24992
136	24.594528	114311168	80359424	30870352	24992
137	21.332419	114311168	80359424	44225672	24992
138	24.258859	114311168	80359424	41678816	24992
139	24.868144	114311168	80359424	39611104	24992
140	25.174923	114311168	80359424	38053640	24992
141	25.408861	114311168	80359424	36902216	24992
142	25.783459	114311168	80359424	36160888	24992
143	26.634655	114311168	80359424	35787344	24992
144	27.036378	114311168	80359424	35684224	24992
145	27.72118	114311168	80359424	35822592	24992
146	28.159618	114311168	80359424	36165288	24992
147	27.951222	114311168	80359424	36669624	24992
148	28.428403	114311168	80359424	37315432	24992
149	28.966011	114311168	80359424	38084704	24992
150	28.995195	114311168	80359424	38938656	24992
151	28.480965	114311168	80359424	39879624	24992
152	29.48679	114311168	80359424	40891208	24992
153	28.98843	114311168	80359424	41968136	24992
154	29.082769	114311168	80359424	43096480	24992
155	29.634455	114311168	80359424	44254296	24992
156	29.938655	114311168	80359424	45458264	24992
157	30.125077	114311168	80359424	46700896	24992
158	30.264677	114311168	80359424	47964368	24992
159	31.787861	114311168	80359424	49272848	24992
160	32.395344	114311168	80359424	50680408	24992
161	37.222175	114311168	80359424	38476744	24992
162	33.135166	114311168	80359424	42058560	24992
163	33.715264	114311168	80359424	45339016	24992
164	33.563803	114311168	80359424	48289560	24992
165	33.124038	114311168	80359424	50982504	24992
166	38.500905	114851840	80359424	39993816	24992
167	35.434368	114118656	80359424	44566032	24992
168	34.935909	114118656	80359424	48688496	24992
169	34.141693	114118656	80359424	52359320	24992
170	39.977421	114118656	80359424	42148832	24992
171	36.200929	114118656	80359424	47316416	24992
172	35.363992	114118656	80359424	51994608	24992
173	44.859771	114118656	80359424	42727952	24992
174	55.043926	114388992	80883712	51304176	24992
175	45.208136	113389568	79835136	22710984	24992
176	37.720061	113389568	79835136	31419168	24992
177	34.370381	113389568	79835136	36884424	24992
178	37.18291	113389568	79835136	27757488	24992
179	35.161537	113389568	79835136	34119280	24992
180	37.686934	113389568	79835136	26168368	24992
181	38.116575	113389568	79835136	36126528	24992
182	38.680728	113389568	79835136	29196888	24992
183	39.746766	113389568	79835136	39576200	24992
184	39.622904	113389568	79835136	33018176	24992
185	39.897318	114200576	80359424	43810784	24992
186	40.863966	114741248	80883712	37541368	24992
187	41.556372	114741248	80883712	48857136	24992
188	40.644536	114741248	80883712	43055032	24992
189	38.778661	114741248	80883712	51460112	24992
190	41.661494	114741248	80883712	45386456	24992
191	43.357893	114741248	80883712	41305960	24992
192	42.59837	114741248	80883712	53647368	24992
193	43.22479	114741248	80883712	48832280	24992
194	48.65439	116363264	82980864	49730272	24992
195	46.213151	119066624	85602304	62629856	24992
196	58.129418	119607296	86126592	58318416	24992
197	52.399674	116649984	82980864	26478136	24992
198	47.651847	116916224	82980864	23332256	24992
199	50.452231	116916224	82980864	25350000	24992
200	45.691434	116916224	82980864	39384032	24992
201	46.02838	117186560	82980864	35964784	24992
202	47.392351	117186560	82980864	33574720	24992
203	52.294045	117186560	82980864	36486008	24992
204	51.739002	117186560	82980864	39515728	24992
205	53.537353	117186560	82980864	42754256	24992
206	47.923482	117186560	82980864	58224760	24992
207	48.283586	117186560	82980864	55855928	24992
208	49.840445	117186560	82980864	54338080	24992
209	49.78478	117186560	82980864	53447536	24992
210	62.26427	118808576	85078016	58053520	24992
211	76.621226	120397824	86650880	22218208	24992
212	55.010071	120397824	86650880	27134784	24992
213	56.029692	120397824	86650880	32197736	24992
214	55.225174	120397824	86650880	37526904	24992
215	57.346239	120668160	86650880	43115720	24992
216	56.374428	120668160	86650880	48924960	24992
217	56.492152	120668160	86650880	55030888	24992
218	63.221811	120668160	87175168	61326088	24992
219	78.697563	120360960	86650880	25753304	24992
220	57.934495	120360960	86650880	32699864	24992
221	58.589711	120360960	86650880	39908752	24992
222	59.621521	120360960	86650880	47434808	24992
223	65.342587	120901632	86650880	43519352	24992
224	61.355628	120901632	86650880	51504176	24992
225	61.18864	120901632	86650880	59747488	24992
226	92.270588	120877056	88748032	27971000	24992
227	60.948149	122765312	88748032	35708912	24992
228	62.84456	122765312	88748032	44615752	24992
229	67.587637	122765312	88748032	42142824	24992
230	65.303063	123035648	88748032	51592528	24992
231	67.240066	123035648	88748032	49700472	24992
232	64.890863	123035648	88748032	59649392	24992
233	75.212413	126279680	92418048	69900408	24992
234	79.648254	125124608	91369472	34933648	24992
235	71.133709	125124608	91369472	34298112	24992
236	64.106845	125124608	91369472	45835984	24992
237	70.791923	125665280	91369472	45986648	24992
238	65.704509	126205952	91893760	58061200	24992
239	74.872544	126205952	91893760	58769872	24992
240	96.980917	120647680	88748032	30557264	24992
241	71.857149	122535936	88748032	30626720	24992
242	68.115095	122535936	88748032	43289560	24992
243	71.971754	122535936	88748032	44719400	24992
244	68.999504	123076608	88748032	57978800	24992
245	74.643896	123076608	88748032	59908096	24992
246	75.023206	127401984	93466624	62169072	24992
247	100.117346	128827392	97136640	32329776	24992
248	75.46875	131256320	97136640	33985536	24992
249	70.799257	131256320	97136640	49124608	24992
250	77.104357	131256320	97136640	52832120	24992
251	78.247205	131796992	97660928	56870688	24992
252	80.301385	131796992	97660928	61233856	24992
253	84.266867	131796992	97660928	65830632	24992
254	93.002121	128516096	94515200	35311336	24992
255	77.744519	128516096	94515200	40324392	24992
256	79.509799	128516096	94515200	45450112	24992
257	78.741377	128516096	94515200	50891976	24992
258	79.652859	129327104	95039488	56601144	24992
259	80.315856	129327104	95039488	62649848	24992
260	107.498122	124542976	92942336	37014976	24992
261	81.31229	126971904	92942336	42591888	24992
262	81.776907	126971904	92942336	50031976	24992
263	82.222532	126971904	92942336	57750080	24992
264	84.719094	127242240	92942336	65565816	24992
265	89.164898	129675264	96088064	61946256	24992
266	110.788332	132124672	100806656	37228184	24992
267	82.690666	134553600	100806656	44362200	24992
268	88.760566	134553600	100806656	41489624	24992
269	84.445874	134553600	100806656	50586608	24992
270	88.941101	135634944	101330944	60019856	24992
271	87.686015	135634944	101330944	69660664	24992
272	118.511569	127516672	93466624	33120320	24992
273	87.510889	127516672	93466624	43640256	24992
274	94.0663	127516672	93466624	42746216	24992
275	91.439194	127516672	93466624	54124408	24992
276	87.830563	127787008	93466624	65747592	24992
277	114.060176	133734400	99758080	66055672	24992
278	98.013075	130240512	96088064	29878624	24992
279	89.998649	130240512	96088064	42379272	24992
280	91.149292	130240512	96088064	55054552	24992
281	96.606922	130240512	96088064	56383632	24992
282	101.426929	130240512	96088064	69693816	24992
283	113.80102	126693376	92942336	38788304	24992
284	97.848202	127234048	92942336	40899976	24992
285	93.601531	127234048	92942336	55032624	24992
286	98.903762	127234048	92942336	57779200	24992
287	109.636206	129667072	95563776	72582520	24992
288	114.549912	126951424	92942336	31490072	24992
289	98.207468	126951424	92942336	46922792	24992
290	102.193425	126951424	92942336	51072104	24992
291	102.332963	126951424	92942336	55641656	24992
292	124.83757	125448192	93466624	26511000	24992
293	103.123001	127336448	93466624	30595904	24992
294	97.61986	127336448	93466624	47711648	24992
295	104.969179	127336448	93466624	53453416	24992
296	105.591813	127606784	93466624	59509832	24992
297	133.762235	126722048	92418048	35774736	24992
298	103.949054	126722048	92418048	42620888	24992
299	107.063206	126722048	92418048	49756544	24992
300	106.343065	126722048	92418048	57386896	24992
301	105.478879	131588096	97660928	77058032	24992
302	137.112845	132059136	97660928	39014728	24992
303	107.5034	132059136	97660928	47393736	24992
304	109.234544	132059136	97660928	56187792	24992
305	108.889216	132059136	97660928	65284464	24992
306	134.507218	126820352	94515200	27455344	24992
307	108.157244	128708608	94515200	35942808	24992
308	111.302697	128708608	94515200	46126984	24992
309	112.964303	128708608	94515200	56842792	24992
310	119.48592	128708608	94515200	67884688	24992
311	137.031301	128192512	93990912	36120000	24992
312	113.977444	128192512	93990912	47668728	24992
313	113.885902	128192512	93990912	59558320	24992
314	113.777977	128192512	93990912	71819968	24992
315	142.272349	128294912	93990912	23556480	24992
316	114.755984	128294912	93990912	36516568	24992
317	115.367327	128294912	93990912	49853520	24992
318	119.273734	128294912	93990912	63547936	24992
319	153.99933	123613184	89272320	39928400	24992
320	117.30392	123613184	89272320	54327256	24992
321	121.026783	123613184	89272320	57446032	24992
322	119.014215	129290240	95039488	72583696	24992
323	148.072387	123420672	89272320	24872384	24992
324	119.017673	123420672	89272320	40677656	24992
325	125.529399	123420672	89272320	45265216	24992
326	126.192067	123691008	89272320	62038720	24992
327	147.272922	124112896	90320896	39806344	24992
328	126.3349	124112896	90320896	45488200	24992
329	121.146867	124112896	90320896	63157680	24992
330	133.50657	132763648	98709504	69536656	24992
331	152.155949	131493888	97136640	42175128	24992
332	132.254547	131493888	97136640	49340664	24992
333	130.583366	131493888	97136640	56879464	24992
334	137.440693	133115904	99233792	76585288	24992
335	151.47032	127881216	93466624	38009624	24992
336	130.63318	127881216	93466624	46677960	24992
337	127.307612	127881216	93466624	67292432	24992
338	160.646308	129916928	97660928	29792832	24992
339	133.799704	131805184	97660928	38344464	24992
340	132.356067	131805184	97660928	48511640	24992
341	134.616603	132345856	98185216	59152712	24992
342	157.009358	128081920	93990912	32518600	24992
343	137.31965	128081920	93990912	43972416	24992
344	137.683076	128081920	93990912	55583072	24992
345	144.680528	128892928	94515200	67653224	24992
346	167.020781	127176704	92942336	38406000	24992
347	141.008845	127176704	92942336	51276080	24992
348	139.302664	127717376	93466624	65179448	24992
349	168.176721	129355776	95563776	28849472	24992
350	138.854222	129355776	95563776	43078056	24992
351	142.067525	129896448	95563776	57430288	24992
352	152.825292	129896448	95563776	72177136	24992
353	165.629432	124104704	89796608	44308080	24992
354	143.660451	124104704	89796608	59791952	24992
355	149.299744	129241088	95039488	64355512	24992
356	170.415645	130560000	96612352	29876040	24992
357	146.322679	130560000	96612352	46549064	24992
358	150.892436	130560000	96612352	52057304	24992
359	170.88478	123650048	89796608	37193096	24992
360	151.338319	123650048	89796608	43669784	24992
361	151.045742	123650048	89796608	61992224	24992
362	175.027076	122634240	88748032	36396680	24992
363	153.594793	122634240	88748032	44091208	24992
364	154.923662	122904576	88748032	52019864	24992
365	177.075259	124256256	90320896	27196880	24992
366	151.073324	124256256	90320896	47520928	24992
367	156.654533	124256256	90320896	56840696	24992
368	177.286979	123150336	89272320	33093136	24992
369	156.884273	123150336	89272320	42993160	24992
370	156.837438	123691008	89272320	53396528	24992
371	191.907454	123990016	89796608	50796240	24992
372	158.030731	123990016	89796608	62008024	24992
373	160.893105	133181440	99233792	73785624	24992
374	200.252964	129945600	97660928	32460640	24992
375	162.70569	131833856	97660928	43506480	24992
376	163.279689	131833856	97660928	57052712	24992
377	169.851342	136429568	102379520	70588264	24992
378	188.613969	132063232	97660928	50268504	24992
379	165.358192	132063232	97660928	64424736	24992
380	166.194093	134496256	100282368	78890104	24992
381	191.035416	123064320	88748032	29135648	24992
382	165.7911	123064320	88748032	44474392	24992
383	198.422221	119803904	87699456	33342160	24992
384	167.999392	121692160	87699456	49330752	24992
385	170.923775	122503168	88748032	65969064	24992
386	203.042947	125325312	93466624	37045952	24992
387	170.675788	127213568	93466624	53305800	24992
388	174.957741	127754240	93466624	59692888	24992
389	203.403326	128036864	93990912	30179872	24992
390	171.59998	128036864	93990912	49196656	24992
391	175.367327	128036864	93990912	68367080	24992
392	204.321489	125845504	91893760	39101552	24992
393	176.028829	125845504	91893760	47839752	24992
394	174.500815	127197184	92942336	68355624	24992
395	200.959441	121384960	87175168	30891336	24992
396	176.036385	121384960	87175168	52506848	24992
397	213.144865	122433536	90320896	35212232	24992
398	184.628438	124321792	90320896	45445208	24992
399	178.237387	125403136	91369472	68091208	24992
400	215.393482	127795200	93466624	30631240	24992
401	178.961711	127795200	93466624	54134184	24992
402	188.034566	127795200	93466624	66761200	24992
403	215.35847	125034496	90845184	30571400	24992
404	185.560033	125034496	90845184	55906880	24992
405	220.974859	125304832	91369472	29490944	24992
406	183.236433	125304832	91369472	55548024	24992
407	190.265804	127467520	93466624	70716208	24992
408	217.161937	125624320	91369472	35113824	24992
409	189.641233	125624320	91369472	50686312	24992
410	215.841403	129949696	95563776	66722304	24992
411	200.447023	127905792	93466624	54199512	24992
412	190.592158	130338816	96088064	71075320	24992
413	222.522897	131215360	97136640	35470056	24992
414	192.572491	131215360	97136640	53431712	24992
415	195.571702	132296704	98185216	71709888	24992
416	217.946526	122335232	88223744	40994480	24992
417	199.171579	122335232	88223744	48663080	24992
418	242.514116	121483264	87175168	48013968	24992
419	200.33881	130674688	96612352	68132560	24992
420	199.325408	147165184	112865280	88742608	24992
421	225.657443	121118720	87175168	33376400	24992
422	200.697597	121659392	87175168	55216104	24992
423	227.823439	121073664	86650880	35375336	24992
424	202.87108	121073664	86650880	58120224	24992
425	232.595068	124346368	90320896	38947032	24992
426	210.508696	124346368	90320896	50940168	24992
427	205.280607	131915776	98185216	74954032	24992
428	244.207858	130396160	96088064	59221984	24992
429	208.812879	132558848	98709504	72617752	24992
430	249.302743	134115328	101855232	33177648	24992
431	208.231595	150331392	117583872	57510792	24992
432	214.89535	168984576	137506816	72254752	24992
433	247.741386	101322752	67252224	32101136	24992
434	209.462066	115380224	81408000	59419616	24992
435	255.573511	113709056	81408000	33966504	24992
436	208.114647	115867648	81408000	61370272	24992
437	217.525714	134250496	100282368	78589048	24992
438	251.170092	110604288	76689408	39644672	24992
439	221.988052	116551680	82456576	57866160	24992
440	257.035883	117895168	84029440	32936968	24992
441	218.710338	118435840	84029440	52249704	24992
442	220.958494	137089024	103428096	71891712	24992
443	261.023517	127139840	92942336	61038920	24992
444	224.740203	137953280	103952384	70092912	24992
445	255.998314	122789888	89272320	33014000	24992
446	223.973183	123600896	89272320	54964840	24992
447	227.420737	137658368	103952384	77134544	24992
448	245.820893	111992832	77737984	43770688	24992
449	235.159185	119562240	85602304	55695616	24992
450	267.122985	124772352	90320896	57711016	24992
451	227.431767	137478144	103428096	81899800	24992
452	271.640455	126365696	92418048	34862752	24992
453	230.371404	126365696	92418048	60380688	24992
454	235.401112	140423168	106049536	74462840	24992
455	271.908252	134066176	99758080	56118208	24992
456	228.818278	138932224	105000960	82849040	24992
457	278.530089	130048000	96088064	37174744	24992
458	237.82928	130048000	96088064	53575056	24992
459	232.56659	140320768	106049536	81847520	24992
460	283.249157	135032832	100806656	54323880	24992
461	232.471333	140439552	106049536	83668016	24992
462	262.874718	125816832	91369472	42468696	24992
463	237.536582	125816832	91369472	61133336	24992
464	273.285724	124690432	90845184	35171032	24992
465	242.480035	124690432	90845184	54859304	24992
466	270.325855	126681088	92418048	40327184	24992
467	245.512819	126681088	92418048	61423744	24992
468	281.876808	127848448	93990912	36468496	24992
469	243.659494	127848448	93990912	58286864	24992
470	277.420976	129867776	95563776	44898344	24992
471	248.107501	129867776	95563776	56359176	24992
472	282.877742	129187840	97660928	44949232	24992
473	243.594344	131076096	97660928	67849832	24992
474	260.318146	145403904	111292416	80655344	24992
475	288.440608	136876032	102379520	58450744	24992
476	250.044968	144986112	110768128	83929848	24992
477	279.034673	124293120	90320896	36241632	24992
478	254.719738	125374464	91369472	62771256	24992
479	302.029959	126902272	93466624	57685208	24992
480	254.681421	146096128	111816704	85323080	24992
481	283.090256	125378560	91369472	38539952	24992
482	261.944038	126459904	92942336	67324984	24992
483	306.147305	128245760	93990912	61000208	24992
484	260.794421	146358272	112340992	90874064	24992
485	284.670539	126746624	92418048	44917760	24992
486	267.246897	128098304	93990912	64196904	24992
487	305.915832	127930368	93990912	62601624	24992
488	267.640233	149286912	114962432	82892728	24992
489	285.543296	124211200	90320896	38475864	24992
490	304.437452	121810944	89796608	46826768	24992
491	265.062517	125861888	91893760	67370560	24992
492	284.778772	149651456	115486720	89961144	24992
493	301.880993	144592896	110243840	63008784	24992
494	272.733873	150540288	116535296	86673312	24992
495	289.860905	127840256	93466624	44264808	24992
496	310.291721	123678720	89796608	43267184	24992
497	275.288551	126922752	92942336	68877312	24992
498	316.597872	136658944	104476672	44327888	24992
499	275.276358	138547200	104476672	69477312	24992
500	310.254213	153415680	119156736	85176520	24992
