x	Duration	RSS	HeapTotal	HeapUsed	External
0	NA	104341504	70397952	44016744	24992
1	0.488698	104341504	70397952	44065392	24992
2	0.434719	104341504	70397952	44141728	24992
3	0.499176	104341504	70397952	44245056	24992
4	0.591581	104341504	70397952	44376872	24992
5	0.715517	104341504	70397952	44538648	24992
6	1.499862	104341504	70397952	44730872	24992
7	0.475583	104341504	70397952	44954544	24992
8	0.55836	104341504	70397952	45210584	24992
9	0.621357	104341504	70397952	45503456	24992
10	0.657371	104341504	70397952	45829088	24992
11	0.716931	104341504	70397952	46190320	24992
12	0.795287	104341504	70397952	46588616	24992
13	0.855821	104341504	70397952	47024752	24992
14	0.928207	104341504	70397952	47499568	24992
15	1.006452	104341504	70397952	48014176	24992
16	1.211791	104341504	70397952	48569600	24992
17	1.189595	104341504	70397952	49169816	24992
18	5.90478	105422848	71446528	37338760	24992
19	1.067811	105422848	71446528	38025384	24992
20	1.096196	105422848	71446528	38756600	24992
21	1.151178	105422848	71446528	39533880	24992
22	1.242277	105422848	71446528	40358160	24992
23	1.28812	105422848	71446528	41230472	24992
24	1.459579	105422848	71446528	42152840	24992
25	1.639953	105422848	71446528	43126080	24992
26	1.519197	105422848	71446528	44151288	24992
27	1.643625	105693184	71446528	45229456	24992
28	1.667263	105693184	71446528	46361600	24992
29	1.757262	105693184	71446528	47548600	24992
30	1.847643	105693184	71446528	48791480	24992
31	2.088766	105693184	71446528	50091256	24992
32	2.012953	105693184	71446528	51451688	24992
33	4.954033	107315200	73543680	38103640	24992
34	2.216841	107315200	73543680	39587120	24992
35	2.260724	107315200	73543680	41131416	24992
36	2.558656	107315200	73543680	42737472	24992
37	2.532557	107315200	73543680	44406200	24992
38	2.549232	107315200	73543680	46138840	24992
39	2.858578	107315200	73543680	47936072	24992
40	3.100737	107315200	73543680	49799072	24992
41	2.944133	107315200	73543680	51728616	24992
42	2.94229	107585536	73543680	53725912	24992
43	4.152206	107585536	74067968	39538736	24992
44	3.339206	107585536	74067968	41674328	24992
45	3.291757	107855872	74067968	43881904	24992
46	3.412304	107855872	74067968	46160768	24992
47	3.686037	107855872	74067968	48513008	24992
48	3.773994	107855872	74067968	50939200	24992
49	3.910877	107855872	74067968	53441704	24992
50	4.840729	107855872	74067968	39772976	24992
51	3.988943	108126208	74067968	42432456	24992
52	4.042552	108126208	74067968	45172080	24992
53	4.166171	108126208	74067968	47992808	24992
54	4.312066	108126208	74067968	50895840	24992
55	4.403846	108126208	74067968	53881768	24992
56	5.517569	108396544	74592256	40679096	24992
57	4.8292	108396544	74592256	43835896	24992
58	4.790426	108396544	74592256	47077208	24992
59	4.871031	108396544	74592256	50405520	24992
60	5.784502	108396544	74592256	53821768	24992
61	6.853992	108666880	74592256	41061064	24992
62	5.662314	108666880	74592256	44656072	24992
63	5.385359	108666880	74592256	48342032	24992
64	6.274946	108666880	74592256	52128656	24992
65	8.089778	108937216	75116544	40191000	24992
66	6.800535	108937216	75116544	44188928	24992
67	5.989801	108937216	75116544	48256248	24992
68	6.339166	108937216	75116544	52419560	24992
69	8.01794	109207552	75116544	41082400	24992
70	6.380941	109207552	75116544	45439872	24992
71	6.91871	109477888	75116544	49896080	24992
72	6.685669	109477888	75116544	54451912	24992
73	8.410801	109748224	75640832	43330016	24992
74	7.884615	109748224	75640832	48100592	24992
75	7.131779	110018560	75640832	52962016	24992
76	8.842891	110288896	76165120	42413816	24992
77	7.875625	110288896	76165120	47484632	24992
78	7.603951	110288896	76165120	52659056	24992
79	9.627849	110829568	76689408	42475768	24992
80	8.155511	110829568	76689408	47864224	24992
81	8.118272	110829568	76689408	53361288	24992
82	9.988468	111099904	77213696	43473776	24992
83	8.633449	111370240	77213696	49191256	24992
84	8.787476	111370240	77213696	55022328	24992
85	10.364827	111640576	77737984	45297944	24992
86	9.203553	111640576	77737984	51357272	24992
87	9.320106	111640576	77737984	57530560	24992
88	11.019678	112181248	78262272	47922168	24992
89	9.544369	112181248	78262272	54329336	24992
90	11.551048	112451584	78786560	45349248	24992
91	10.102616	112721920	78786560	51995416	24992
92	10.090327	112721920	78786560	58760696	24992
93	11.971119	112992256	79310848	49686704	24992
94	10.410855	112992256	79310848	56695648	24992
95	12.920113	113262592	79310848	48102600	24992
96	10.801919	113532928	79310848	55362768	24992
97	13.38155	113803264	79835136	47294448	24992
98	11.326321	113803264	79835136	54804104	24992
99	13.46322	114343936	80359424	47040792	24992
100	11.673342	114343936	80359424	54807032	24992
101	14.094179	114614272	80883712	47370328	24992
102	12.164167	114614272	80883712	55396912	24992
103	14.538943	114884608	80883712	48194304	24992
104	12.618511	115154944	80883712	56492888	24992
105	15.055779	115425280	81408000	49449160	24992
106	13.45279	115425280	81408000	58023048	24992
107	15.303373	115695616	81932288	51077528	24992
108	13.423626	115695616	81932288	59931264	24992
109	15.236025	116236288	82456576	53015824	24992
110	13.935087	116236288	82456576	62151552	24992
111	16.056673	116506624	82980864	55362208	24992
112	16.408334	116776960	82980864	49640296	24992
113	14.807014	116776960	82980864	59211496	24992
114	18.308457	117317632	82980864	53319648	24992
115	15.152564	117317632	82980864	63180584	24992
116	17.225648	117587968	83505152	57138984	24992
117	17.728546	117858304	84029440	52034600	24992
118	15.681451	117858304	84029440	62342744	24992
119	18.114605	118398976	84029440	56894448	24992
120	18.589094	118669312	84553728	52399232	24992
121	16.671481	118669312	84553728	63162808	24992
122	18.771858	118939648	85078016	58047896	24992
123	19.508977	119480320	85078016	53908864	24992
124	17.138843	119480320	85078016	65140328	24992
125	19.332056	119750656	86126592	60401144	24992
126	20.302789	120020992	86126592	56470680	24992
127	20.613842	120291328	86650880	53381456	24992
128	18.256768	120291328	86650880	65246264	24992
129	21.339159	120561664	86650880	61217984	24992
130	21.167056	121102336	87175168	57957456	24992
131	21.387825	121372672	87699456	55382496	24992
132	22.441127	121643008	87699456	53414912	24992
133	19.325321	121643008	87699456	66106424	24992
134	22.554405	121913344	88223744	62937800	24992
135	23.513643	122183680	88223744	60426344	24992
136	26.321071	122454016	88748032	58459416	24992
137	35.795131	122724352	88748032	56996976	24992
138	30.409398	113590272	79835136	26653952	24992
139	22.238532	113856512	79835136	24410448	24992
140	22.713689	113856512	79835136	22869792	24992
141	23.049344	113856512	79835136	21818568	24992
142	24.937676	113856512	79835136	21165224	24992
143	24.270096	113856512	79835136	20855736	24992
144	25.143323	113856512	79835136	20818008	24992
145	25.294052	113856512	79835136	21002328	24992
146	25.168662	113856512	79835136	21377616	24992
147	25.930497	113856512	79835136	21923960	24992
148	26.4018	113856512	79835136	22597968	24992
149	25.960937	113856512	79835136	23388288	24992
150	27.157383	113856512	79835136	24253832	24992
151	26.354865	113856512	79835136	25214144	24992
152	26.580812	113856512	79835136	26235704	24992
153	27.116055	113856512	79835136	27326744	24992
154	27.611386	113856512	79835136	28471104	24992
155	27.885467	113856512	79835136	29640240	24992
156	27.632254	113856512	79835136	30853424	24992
157	28.167361	113856512	79835136	32094736	24992
158	28.124751	113856512	79835136	33356600	24992
159	28.39243	113856512	79835136	34664048	24992
160	28.800713	113856512	79835136	36069752	24992
161	32.577561	113856512	79835136	23863136	24992
162	31.897335	113856512	79835136	27482024	24992
163	31.6102	113856512	79835136	30764872	24992
164	30.314161	113856512	79835136	33715216	24992
165	30.630551	113856512	79835136	36411936	24992
166	36.368281	113856512	79835136	25455576	24992
167	33.422984	113221632	79835136	30026584	24992
168	31.874292	113221632	79835136	34158664	24992
169	31.79228	113221632	79835136	37818296	24992
170	36.700573	113221632	79835136	27609408	24992
171	33.461538	113221632	79835136	32774584	24992
172	33.097648	113221632	79835136	37421456	24992
173	37.518462	113221632	79835136	28147800	24992
174	36.414902	113221632	79835136	36695152	24992
175	34.036591	113221632	79835136	42003040	24992
176	38.353303	113221632	79835136	33145824	24992
177	35.328378	113221632	79835136	39380392	24992
178	34.697274	113221632	79835136	44971560	24992
179	40.51747	113221632	79835136	36275256	24992
180	36.20097	113221632	79835136	42918208	24992
181	40.737001	113221632	79835136	35293456	24992
182	39.260358	113221632	79835136	45518632	24992
183	41.813231	113221632	79835136	38911456	24992
184	40.393088	113491968	79835136	49570488	24992
185	44.178648	114032640	80359424	43295304	24992
186	43.452445	114032640	80359424	54397240	24992
187	54.782237	114032640	80359424	48379832	24992
188	53.936566	115163136	81408000	20623064	24992
189	40.742446	115163136	81408000	32142616	24992
190	40.860693	115163136	81408000	26491680	24992
191	41.018417	115163136	81408000	38630984	24992
192	42.131709	115163136	81408000	33097576	24992
193	42.514683	115163136	81408000	28879656	24992
194	42.893906	115163136	81408000	41634840	24992
195	43.476707	115163136	81408000	36770936	24992
196	44.839228	115163136	81408000	33415520	24992
197	44.419907	115163136	81408000	46845576	24992
198	45.157114	115163136	81408000	42525248	24992
199	43.799109	115163136	81408000	39610048	24992
200	48.332533	115163136	81408000	41819776	24992
201	44.716239	115703808	81932288	56113696	24992
202	45.408423	115703808	81932288	52745232	24992
203	46.655214	115703808	81932288	50330416	24992
204	51.310267	116244480	82456576	53487528	24992
205	67.543879	120840192	87175168	56754112	24992
206	62.837096	120287232	86650880	30363464	24992
207	52.196783	120287232	86650880	33945184	24992
208	51.939492	120287232	86650880	37821648	24992
209	54.782274	120553472	86650880	41927824	24992
210	54.252643	120553472	86650880	46225208	24992
211	53.294712	120553472	86650880	50806128	24992
212	53.581664	120553472	86650880	55597384	24992
213	53.34365	122716160	88748032	60692208	24992
214	60.601505	127041536	93990912	65984776	24992
215	75.825433	122880000	89796608	25219120	24992
216	55.530598	123420672	89796608	31210560	24992
217	54.871196	123420672	89796608	37295544	24992
218	57.311907	123420672	89796608	43632328	24992
219	56.671254	123420672	89796608	50188440	24992
220	58.596241	123420672	89796608	57117760	24992
221	52.63653	123420672	89796608	57979816	24992
222	56.928939	123420672	89796608	47265448	24992
223	57.785313	123691008	89796608	54814656	24992
224	67.380949	123691008	89796608	62718960	24992
225	80.443551	121688064	87699456	27178336	24992
226	59.628402	121688064	87699456	35695968	24992
227	59.656263	121688064	87699456	44366080	24992
228	64.870735	121688064	87699456	41603440	24992
229	60.511332	121688064	87699456	50794168	24992
230	60.28367	121688064	87699456	60269424	24992
231	67.816622	121688064	87699456	58302224	24992
232	91.762426	122966016	91369472	26995816	24992
233	64.01997	125394944	91369472	36277456	24992
234	69.542494	125394944	91369472	35258608	24992
235	65.588146	125394944	91369472	46149608	24992
236	63.512497	125394944	91369472	57385880	24992
237	68.046265	125394944	91369472	57224680	24992
238	70.658978	125935616	91893760	57379232	24992
239	90.191303	122499072	90845184	23128216	24992
240	66.260263	124928000	90845184	34060240	24992
241	69.575081	124928000	90845184	35032872	24992
242	65.824367	124928000	90845184	47882104	24992
243	72.805491	124928000	90845184	49413872	24992
244	73.016251	125468672	91369472	51259296	24992
245	75.632996	125468672	91369472	64942232	24992
246	87.996885	123629568	89796608	36178696	24992
247	72.467379	123629568	89796608	38731976	24992
248	75.334189	123629568	89796608	41556592	24992
249	73.746887	123629568	89796608	44637096	24992
250	69.516668	123629568	89796608	59606216	24992
251	75.679779	123899904	89796608	63266912	24992
252	104.073325	122986496	90845184	37326976	24992
253	76.27174	124874752	90845184	40557240	24992
254	77.626296	124874752	90845184	45122648	24992
255	77.040051	124874752	90845184	50101800	24992
256	80.990656	124874752	90845184	55396768	24992
257	79.38879	125685760	91893760	61013096	24992
258	104.371849	128008192	96612352	35028592	24992
259	77.778296	130437120	96612352	40042192	24992
260	78.658375	130437120	96612352	46343872	24992
261	79.374327	130437120	96612352	52984448	24992
262	79.539791	130437120	96612352	59896984	24992
263	80.987966	130977792	97136640	67134224	24992
264	108.276695	126513152	94515200	26183344	24992
265	82.926998	128401408	94515200	32610264	24992
266	82.557707	128401408	94515200	41219136	24992
267	84.169427	128401408	94515200	49813656	24992
268	83.03933	128401408	94515200	58715640	24992
269	104.616636	129753088	95563776	56306144	24992
270	95.027591	121364480	87175168	34938112	24992
271	83.76869	121364480	87175168	44585168	24992
272	88.830152	121364480	87175168	42915360	24992
273	85.498873	121364480	87175168	53228856	24992
274	89.392226	123256832	89272320	63861704	24992
275	117.292725	126562304	92942336	31745312	24992
276	87.598326	126562304	92942336	43127184	24992
277	87.504972	126562304	92942336	54661560	24992
278	92.076064	126562304	92942336	55084248	24992
279	88.874208	127102976	92942336	67445512	24992
280	117.575081	134131712	100282368	68419936	24992
281	96.260443	132857856	99758080	32346248	24992
282	89.406011	133398528	99758080	45503016	24992
283	94.264693	133398528	99758080	47303184	24992
284	90.326304	133398528	99758080	61111336	24992
285	116.737542	134479872	100806656	63537224	24992
286	101.442373	120287232	86126592	33045712	24992
287	93.007172	120287232	86126592	47852920	24992
288	96.711286	120287232	86126592	51488368	24992
289	98.544717	121368576	87699456	55370048	24992
290	125.200712	122363904	90320896	26878128	24992
291	98.376478	124252160	90320896	30158368	24992
292	96.610866	124252160	90320896	46764632	24992
293	102.56919	124252160	90320896	52426592	24992
294	102.075691	125063168	90845184	58404720	24992
295	133.659495	128245760	93990912	34535976	24992
296	101.999597	128245760	93990912	40741504	24992
297	98.254136	128245760	93990912	58796304	24992
298	101.082186	128245760	93990912	65590872	24992
299	104.820996	131219456	97660928	72665704	24992
300	137.475557	132124672	98185216	33596352	24992
301	105.001025	132124672	98185216	41348368	24992
302	106.931829	132124672	98185216	49463016	24992
303	106.572244	132124672	98185216	57903136	24992
304	112.805773	134828032	100806656	66781424	24992
305	127.273247	128839680	95039488	40686208	24992
306	107.796821	128839680	95039488	50134520	24992
307	109.099977	128839680	95039488	60014952	24992
308	109.422301	128839680	95039488	70354216	24992
309	136.739705	129077248	97136640	33020984	24992
310	110.118177	130965504	97136640	42536568	24992
311	115.094148	130965504	97136640	42076448	24992
312	109.438575	130965504	97136640	53644448	24992
313	134.769559	132046848	98185216	65552080	24992
314	121.085759	125067264	90845184	33452152	24992
315	113.650525	125067264	90845184	46083936	24992
316	112.941668	125067264	90845184	59267232	24992
317	127.651232	127770624	93990912	72782288	24992
318	135.093976	129277952	95039488	42506456	24992
319	120.900873	129277952	95039488	44903768	24992
320	116.001095	129277952	95039488	59313440	24992
321	118.166479	130359296	96088064	74076944	24992
322	150.958573	130752512	96612352	34355448	24992
323	115.502234	131022848	96612352	49812368	24992
324	122.581347	131022848	96612352	54045112	24992
325	119.316217	131293184	97136640	70867504	24992
326	153.220506	131907584	97660928	41963704	24992
327	123.818889	131907584	97660928	47237608	24992
328	119.093575	131907584	97660928	64536328	24992
329	124.50106	132177920	98185216	70579568	24992
330	146.36051	131141632	97136640	34616608	24992
331	125.753212	131141632	97136640	41708416	24992
332	129.055068	131141632	97136640	48848992	24992
333	133.398845	131952640	98185216	56998816	24992
334	155.754707	125571072	91369472	36912680	24992
335	124.281696	125571072	91369472	56826488	24992
336	128.319692	125571072	91369472	65485624	24992
337	138.970644	134492160	100806656	74466336	24992
338	153.445436	135176192	100806656	36741104	24992
339	128.992383	135176192	100806656	46543688	24992
340	127.979584	135176192	100806656	68328216	24992
341	162.269034	125321216	93466624	31650032	24992
342	135.06441	127209472	93466624	41531160	24992
343	133.730319	127209472	93466624	53501824	24992
344	136.046968	128290816	93990912	65520312	24992
345	167.746066	130441216	96088064	47282152	24992
346	139.981761	130441216	96088064	48105976	24992
347	134.85764	130441216	96088064	60948536	24992
348	142.024729	138821632	105000960	74150352	24992
349	165.403171	137256960	102903808	38559320	24992
350	138.906405	137256960	102903808	52604088	24992
351	138.222838	137256960	102903808	67178440	24992
352	168.85181	128835584	96612352	32935672	24992
353	139.001425	130723840	96612352	46642024	24992
354	144.731601	130723840	96612352	50540336	24992
355	141.901489	130723840	96612352	66467784	24992
356	178.397741	132845568	98709504	40495488	24992
357	141.992608	132845568	98709504	57187384	24992
358	147.365815	132845568	98709504	62741288	24992
359	178.958081	135516160	103428096	30949456	24992
360	144.781636	137404416	103428096	47203016	24992
361	149.831743	137404416	103428096	53932768	24992
362	145.843106	137404416	103428096	72638696	24992
363	174.800936	126156800	91893760	34032568	24992
364	152.521704	126156800	91893760	41951088	24992
365	154.221364	127508480	93466624	61925344	24992
366	180.615601	119848960	85602304	45571424	24992
367	155.58493	119848960	85602304	55049944	24992
368	151.108745	131473408	97660928	76851928	24992
369	174.868407	119291904	85078016	35292616	24992
370	154.890295	119291904	85078016	45645760	24992
371	171.529811	123346944	89272320	56412648	24992
372	175.415917	121348096	87175168	41743592	24992
373	153.818871	121348096	87175168	53325808	24992
374	158.596783	132702208	98709504	76970872	24992
375	194.918366	131694592	97660928	45148368	24992
376	160.074993	131694592	97660928	58022984	24992
377	161.74902	134938624	100806656	71292576	24992
378	183.973221	124604416	90320896	28879816	24992
379	158.920278	124604416	90320896	43027168	24992
380	162.809684	124604416	90320896	57587832	24992
381	199.750241	126267392	91893760	46004672	24992
382	161.75279	126267392	91893760	61369288	24992
383	163.714953	135729152	101855232	77152008	24992
384	194.326994	127197184	93466624	37692344	24992
385	166.908757	127197184	93466624	42768552	24992
386	167.187727	127737856	93466624	59858800	24992
387	202.620654	124665856	90320896	50426448	24992
388	169.861503	125206528	90845184	56741072	24992
389	170.370183	138452992	104476672	75112888	24992
390	189.277937	125100032	90845184	36425368	24992
391	172.33058	125100032	90845184	44072032	24992
392	199.225428	118730752	86650880	35871688	24992
393	176.735671	120619008	86650880	44071448	24992
394	171.444569	124674048	90845184	64560864	24992
395	208.099315	126308352	92418048	36649488	24992
396	176.234428	126308352	92418048	46645000	24992
397	173.917013	127119360	92942336	68534840	24992
398	208.307313	124665856	90320896	30988792	24992
399	173.69682	124665856	90320896	53680648	24992
400	186.400628	126287872	92418048	65239912	24992
401	213.865355	126758912	92418048	50785376	24992
402	182.288024	127299584	92942336	63181176	24992
403	211.784852	143249408	109719552	76069224	24992
404	191.278507	146677760	113913856	51714904	24992
405	185.730657	147759104	113913856	65731672	24992
406	220.391782	121118720	88748032	30346064	24992
407	180.42659	123006976	88748032	55181768	24992
408	186.839698	127332352	93466624	70329872	24992
409	222.61715	132497408	100806656	36002544	24992
410	189.148645	134385664	100806656	50936048	24992
411	192.228705	134926336	100806656	67893952	24992
412	221.151709	131350528	97136640	33450576	24992
413	190.014015	131350528	97136640	50747704	24992
414	192.555285	131350528	97136640	69393496	24992
415	232.469985	130494464	96612352	47580448	24992
416	193.526979	130494464	96612352	66348192	24992
417	206.171385	146714624	112865280	85758032	24992
418	219.220434	140943360	106573824	53349544	24992
419	193.178464	140943360	106573824	73492160	24992
420	230.083525	131424256	99233792	42432408	24992
421	200.479914	133312512	99233792	50546264	24992
422	198.753281	134123520	99758080	72207968	24992
423	225.123813	133419008	99233792	41181664	24992
424	203.226372	133419008	99233792	52186280	24992
425	232.908725	126980096	92942336	33597928	24992
426	200.940506	126980096	92942336	57135336	24992
427	209.101691	133197824	99233792	69533168	24992
428	245.303195	135475200	101330944	52755616	24992
429	202.928954	135475200	101330944	66094288	24992
430	220.022898	150343680	116535296	91521776	24992
431	227.303336	140779520	106573824	51110296	24992
432	204.73079	140779520	106573824	77520256	24992
433	242.962867	136822784	102903808	36778672	24992
434	208.759137	136822784	102903808	52841168	24992
435	209.490571	137093120	102903808	69060144	24992
436	251.54799	135004160	100806656	55228640	24992
437	213.187782	135544832	101330944	72470184	24992
438	250.270842	140619776	108670976	34970648	24992
439	214.193561	159268864	127021056	51583696	24992
440	214.438062	177922048	146944000	70250824	24992
441	241.488843	106663936	72495104	42842400	24992
442	221.040891	118829056	84553728	50838008	24992
443	256.766458	109117440	77737984	39716256	24992
444	216.130126	117493760	83505152	59418296	24992
445	223.186903	136146944	102379520	80594040	24992
446	243.369983	100827136	66727936	36402544	24992
447	231.328527	118128640	84553728	58607904	24992
448	261.444567	121192448	87175168	60066912	24992
449	228.463505	139034624	105000960	71973056	24992
450	255.504024	115654656	81932288	36633688	24992
451	222.973793	118358016	84553728	60731672	24992
452	257.112013	139714560	106049536	73798424	24992
453	245.773435	122925056	88748032	54732264	24992
454	230.459022	138874880	105000960	80721848	24992
455	257.132978	113635328	79310848	37310808	24992
456	229.298653	119042048	85078016	64231368	24992
457	263.090105	114823168	80883712	34645912	24992
458	230.760373	119689216	85602304	62402480	24992
459	265.353653	114155520	79835136	34355128	24992
460	234.857137	120102912	86126592	63169728	24992
461	285.702841	121741312	87699456	60786936	24992
462	242.307911	141475840	107622400	78981816	24992
463	265.590653	122744832	88748032	37429040	24992
464	241.961297	123015168	88748032	56644120	24992
465	267.364207	123650048	89272320	41891048	24992
466	244.635219	123650048	89272320	62483560	24992
467	280.128308	125820928	92418048	37214976	24992
468	243.21257	126361600	92418048	58580176	24992
469	272.135554	127107072	92942336	45296544	24992
470	249.575254	127107072	92942336	56040896	24992
471	281.661765	129458176	95563776	43997376	24992
472	245.536563	129458176	95563776	67643088	24992
473	286.350745	145137664	111292416	79954008	24992
474	257.679273	132280320	98185216	57349808	24992
475	251.622105	145526784	111292416	82807808	24992
476	270.289203	119185408	85078016	46305880	24992
477	297.698056	124321792	92418048	37653208	24992
478	254.749009	126214144	92418048	63116256	24992
479	257.180463	145678336	111816704	90958088	24992
480	279.738481	120758272	86650880	45192416	24992
481	299.170278	123887616	89796608	36849136	24992
482	255.617987	124698624	90320896	65846360	24992
483	271.155947	147947520	114438144	83544552	24992
484	298.710125	140972032	106573824	64859080	24992
485	267.075999	148271104	113913856	83803808	24992
486	280.21173	123691008	89272320	38670024	24992
487	303.75437	121360384	89272320	47122424	24992
488	261.875215	125411328	91369472	65793840	24992
489	282.817945	149200896	114962432	86585960	24992
490	303.246976	140201984	106049536	59437976	24992
491	262.68041	148312064	113913856	93016288	24992
492	293.154833	123731968	90320896	37662384	24992
493	308.811756	121696256	89796608	49041648	24992
494	270.411844	126017536	91893760	71368928	24992
495	313.159967	152510464	118632448	84906208	24992
496	280.372321	159158272	127545344	69857912	24992
497	273.482742	161591296	127545344	95419832	24992
498	299.323141	115650560	81408000	43732352	24992
499	317.846738	123727872	89796608	44469384	24992
500	277.97944	126971904	92942336	71279272	24992
