x	Duration	RSS	HeapTotal	HeapUsed	External
0	NA	133332992	100282368	37055656	24992
1	0.293361	133332992	100282368	37104968	24992
2	0.201827	133332992	100282368	37181336	24992
3	0.224002	133332992	100282368	37284656	24992
4	0.266371	133332992	100282368	37416472	24992
5	0.312882	133332992	100282368	37578352	24992
6	0.359743	133332992	100282368	37770576	24992
7	0.412598	133332992	100282368	37994240	24992
8	0.470925	133332992	100282368	38250280	24992
9	0.69794	133332992	100282368	38540664	24992
10	0.524535	133332992	100282368	38865992	24992
11	0.579295	133332992	100282368	39227336	24992
12	0.640126	133332992	100282368	39625544	24992
13	0.685634	133332992	100282368	40061536	24992
14	0.741485	133332992	100282368	40536424	24992
15	0.869341	133332992	100282368	41051080	24992
16	0.867294	133332992	100282368	41606520	24992
17	0.928802	133332992	100282368	42205560	24992
18	1.005315	133332992	100282368	42847352	24992
19	1.127536	133332992	100282368	43534080	24992
20	1.142494	133332992	100282368	44265368	24992
21	1.201281	133332992	100282368	45042712	24992
22	1.342946	133332992	100282368	45867032	24992
23	2.244092	133332992	100282368	46739296	24992
24	1.538723	133332992	100282368	47661624	24992
25	1.588182	133332992	100282368	48634936	24992
26	1.570875	133332992	100282368	49660208	24992
27	1.822396	133332992	100282368	50753056	24992
28	6.575905	134139904	100282368	37930120	24992
29	2.309465	135221248	100282368	39117224	24992
30	1.956795	135221248	100282368	40360184	24992
31	1.982249	135221248	100282368	41660168	24992
32	2.377869	135221248	100282368	43020440	24992
33	2.178537	135221248	100282368	44443784	24992
34	2.281324	135221248	100282368	45927296	24992
35	2.382515	135221248	100282368	47471624	24992
36	2.462476	135221248	100282368	49077736	24992
37	2.762591	135221248	100282368	50746576	24992
38	2.654951	135221248	100282368	52479104	24992
39	4.170843	135221248	100282368	38158960	24992
40	3.051765	135221248	100282368	40022040	24992
41	3.146873	135221248	100282368	41951680	24992
42	3.045671	135221248	100282368	43948920	24992
43	3.166295	135221248	100282368	46014928	24992
44	3.287528	135221248	100282368	48150400	24992
45	3.349389	135221248	100282368	50357760	24992
46	3.460715	135221248	100282368	52636712	24992
47	5.117209	135221248	100282368	38831792	24992
48	3.802967	135221248	100282368	41258048	24992
49	3.881632	135221248	100282368	43759496	24992
50	4.110532	135221248	100282368	46339568	24992
51	4.133469	135221248	100282368	48999704	24992
52	4.280814	135221248	100282368	51739504	24992
53	5.505113	135221248	100282368	38547168	24992
54	4.7514	135221248	100282368	41451648	24992
55	4.771307	135221248	100282368	44438384	24992
56	5.28138	135221248	100282368	47516480	24992
57	4.776652	135221248	100282368	50672176	24992
58	5.108065	135221248	100282368	53913512	24992
59	6.352754	135221248	100282368	40961952	24992
60	5.403203	135221248	100282368	44378312	24992
61	5.961796	135221248	100282368	47885080	24992
62	5.854914	135221248	100282368	51489232	24992
63	6.910277	135221248	100282368	39336344	24992
64	5.857484	135221248	100282368	43114488	24992
65	5.839549	135221248	100282368	46993352	24992
66	6.126939	135221248	100282368	50966160	24992
67	6.074254	135221248	100282368	55034432	24992
68	7.828928	135221248	100282368	43164896	24992
69	7.003424	135221248	100282368	47424640	24992
70	6.521847	135221248	100282368	51782168	24992
71	8.361823	135221248	100282368	40743848	24992
72	6.856071	135221248	100282368	45299792	24992
73	6.993125	135221248	100282368	49956304	24992
74	7.325762	135221248	100282368	54714816	24992
75	9.786226	135221248	100282368	43732880	24992
76	8.752297	135221248	100282368	48701696	24992
77	8.147144	135221248	100282368	53789512	24992
78	9.766249	135221248	100282368	43243560	24992
79	8.134271	135221248	100282368	48524840	24992
80	9.039682	135221248	100282368	53921352	24992
81	10.274544	135221248	100282368	43712824	24992
82	8.680086	135221248	100282368	49319480	24992
83	8.672999	135221248	100282368	55037472	24992
84	10.529632	135221248	100282368	45086608	24992
85	9.407873	135221248	100282368	51030144	24992
86	9.330032	135221248	100282368	57087816	24992
87	10.817258	135221248	100282368	47361448	24992
88	9.708452	135221248	100282368	53652024	24992
89	11.570783	135221248	100282368	44600800	24992
90	10.011904	135221248	100282368	51127696	24992
91	10.541907	135221248	100282368	57772624	24992
92	12.285428	135221248	100282368	48629936	24992
93	10.770695	135221248	100282368	55518312	24992
94	12.810494	135221248	100282368	46923792	24992
95	11.458512	135221248	100282368	54058088	24992
96	13.261632	135221248	100282368	45956464	24992
97	11.243295	135221248	100282368	53338720	24992
98	13.821364	135221248	100282368	45653520	24992
99	11.643044	135221248	100282368	53290552	24992
100	14.144294	135221248	100282368	45922664	24992
101	12.573558	135221248	100282368	53816064	24992
102	14.348507	135221248	100282368	46693656	24992
103	15.633631	135221248	100282368	54857520	24992
104	16.417791	135221248	100282368	47873632	24992
105	13.175496	135221248	100282368	56311816	24992
106	15.600724	135221248	100282368	49438880	24992
107	13.614272	135221248	100282368	58151560	24992
108	16.125475	135221248	100282368	51325832	24992
109	13.820797	135221248	100282368	60319768	24992
110	16.370325	135221248	100282368	53512384	24992
111	17.465118	135221248	100282368	47893920	24992
112	14.665954	135221248	100282368	57318008	24992
113	17.110161	135221248	100282368	51410832	24992
114	16.179934	135221248	100282368	61137408	24992
115	17.510441	135221248	100282368	55087720	24992
116	18.136246	135221248	100282368	50113768	24992
117	15.871629	135221248	100282368	60271552	24992
118	17.899753	135221248	100282368	54798664	24992
119	19.050409	135221248	100282368	50427488	24992
120	16.4617	135221248	100282368	61038920	24992
121	19.310261	135221248	100282368	56006704	24992
122	19.843106	135221248	100282368	52006816	24992
123	16.9346	135221248	100282368	63080792	24992
124	19.878138	135221248	100282368	58291216	24992
125	20.23374	135221248	100282368	54469608	24992
126	21.137368	135221248	100282368	51389328	24992
127	19.03826	135221248	100282368	63092072	24992
128	21.294809	135221248	100282368	59067440	24992
129	21.321021	135221248	100282368	55928896	24992
130	22.736089	135221248	100282368	53414872	24992
131	19.538311	135221248	100282368	65775144	24992
132	22.286685	135221248	100282368	62242672	24992
133	22.98617	135221248	100282368	59397864	24992
134	22.816744	135221248	100282368	57165288	24992
135	23.794894	135221248	100282368	55470384	24992
136	24.747247	135221248	100282368	54275664	24992
137	21.342856	135221248	100282368	67631976	24992
138	23.944685	135221248	100282368	65086264	24992
139	24.022381	135221248	100282368	63013648	24992
140	24.831881	135221248	100282368	61457248	24992
141	25.480476	135221248	100282368	60305824	24992
142	25.192981	135221248	100282368	59564496	24992
143	25.728733	135221248	100282368	59190952	24992
144	26.175552	135221248	100282368	59087832	24992
145	26.965534	135221248	100282368	59226200	24992
146	27.296838	135221248	100282368	59568896	24992
147	27.499516	135221248	100282368	60073232	24992
148	27.603029	135221248	100282368	60719040	24992
149	28.54313	135221248	100282368	61488312	24992
150	29.230419	135221248	100282368	62342264	24992
151	28.556682	135221248	100282368	63283232	24992
152	28.732903	135221248	100282368	64294816	24992
153	28.904794	135221248	100282368	65371744	24992
154	29.273483	135221248	100282368	66500088	24992
155	28.888083	135221248	100282368	67657904	24992
156	29.321187	135221248	100282368	68859376	24992
157	29.467118	135221248	100282368	70102008	24992
158	30.555866	135221248	100282368	71365480	24992
159	30.386336	135221248	100282368	72673960	24992
160	30.76944	135221248	100282368	74081520	24992
161	36.098929	135221248	100282368	61877856	24992
162	33.57679	135221248	100282368	65459672	24992
163	32.792227	135221248	100282368	68740128	24992
164	32.213607	135221248	100282368	71690672	24992
165	32.312353	135221248	100282368	74383616	24992
166	39.686235	135221248	100282368	63394928	24992
167	35.135677	134496256	100282368	67998656	24992
168	34.838833	134496256	100282368	72126464	24992
169	34.012514	134496256	100282368	75786096	24992
170	40.203632	134496256	100282368	65577208	24992
171	35.673533	134496256	100282368	70742384	24992
172	35.340254	134496256	100282368	75389256	24992
173	40.833987	134496256	100282368	66115600	24992
174	39.961731	136388608	102379520	74662952	24992
175	36.520818	136658944	102903808	79970840	24992
176	42.365116	137199616	103428096	71113624	24992
177	38.717613	137199616	103428096	77348192	24992
178	37.559926	137469952	103428096	82939360	24992
179	43.582527	138010624	104476672	74243056	24992
180	39.660569	138280960	104476672	80886008	24992
181	44.676502	138821632	105000960	73261256	24992
182	42.654655	141795328	108146688	83486432	24992
183	46.30538	142876672	109195264	76879256	24992
184	44.090375	145580032	111816704	87538288	24992
185	46.443488	146661376	112865280	81254352	24992
186	46.320276	149364736	115486720	92355312	24992
187	58.609285	126078976	92418048	26401328	24992
188	40.471757	126078976	92418048	20032144	24992
189	41.448083	126349312	92418048	31725800	24992
190	41.371976	126349312	92418048	25883712	24992
191	42.676425	126349312	92418048	21645064	24992
192	42.218694	126349312	92418048	33941624	24992
193	43.632965	126349312	92418048	28827800	24992
194	47.259609	126349312	92418048	29610608	24992
195	44.763969	126349312	92418048	42437784	24992
196	45.189512	126349312	92418048	37825632	24992
197	45.169714	126349312	92418048	34838912	24992
198	43.465556	126349312	92418048	48570800	24992
199	44.14449	126349312	92418048	44670960	24992
200	44.628785	126349312	92418048	41909496	24992
201	49.291895	126349312	92418048	44389872	24992
202	54.306497	127160320	92942336	46907760	24992
203	69.058995	116674560	83505152	23252648	24992
204	51.207711	117755904	83505152	25715784	24992
205	48.573453	117755904	83505152	40838848	24992
206	47.841951	117755904	83505152	38018768	24992
207	48.38663	117755904	83505152	36301576	24992
208	55.897333	117755904	83505152	40304304	24992
209	52.314445	117755904	83505152	44374112	24992
210	52.89131	117755904	83505152	48683880	24992
211	53.056139	118296576	84029440	53258288	24992
212	56.069669	119107584	85078016	58063592	24992
213	61.385468	123973632	89796608	63297800	24992
214	73.448088	123781120	89796608	24354456	24992
215	55.593691	123781120	89796608	30052912	24992
216	55.54734	123781120	89796608	36311184	24992
217	56.181147	123781120	89796608	42813400	24992
218	57.04412	123781120	89796608	49563576	24992
219	57.560499	123781120	89796608	56597544	24992
220	62.304461	124051456	89796608	52171312	24992
221	76.619805	125943808	91893760	59717392	24992
222	70.861151	122839040	88748032	36149616	24992
223	64.566726	122839040	88748032	32151944	24992
224	60.591498	122839040	88748032	39991896	24992
225	60.934295	122839040	88748032	48136624	24992
226	59.533128	122839040	88748032	56503800	24992
227	65.648689	122839040	88748032	53547472	24992
228	60.174118	124190720	90320896	62432872	24992
229	70.027909	128786432	95039488	71605856	24992
230	79.867335	126705664	92942336	32734720	24992
231	68.263893	126705664	92942336	31007040	24992
232	62.951499	126705664	92942336	40970072	24992
233	64.378531	126705664	92942336	51228904	24992
234	68.215371	126705664	92942336	50117984	24992
235	63.118212	126705664	92942336	60905248	24992
236	75.241777	127246336	92942336	60349056	24992
237	88.813012	122073088	88223744	29498896	24992
238	65.168618	122073088	88223744	41234960	24992
239	70.396698	122073088	88223744	41557672	24992
240	70.064843	122073088	88223744	42260208	24992
241	68.561506	122073088	88223744	54822960	24992
242	71.793783	122613760	88223744	56106784	24992
243	76.270358	125046784	90845184	69228056	24992
244	89.936912	126619648	92418048	25781072	24992
245	68.351577	126619648	92418048	39299824	24992
246	71.782704	126619648	92418048	41570136	24992
247	74.018772	126619648	92418048	44094056	24992
248	71.029581	126619648	92418048	58484784	24992
249	75.981833	126619648	92418048	61603880	24992
250	101.016944	122499072	90320896	34628536	24992
251	76.952642	124387328	90320896	37447072	24992
252	77.164092	124387328	90320896	41436496	24992
253	76.026757	124387328	90320896	45846944	24992
254	73.01871	124387328	90320896	62130976	24992
255	78.71003	125464576	90845184	67125592	24992
256	103.649068	126164992	93466624	26786704	24992
257	77.979954	128053248	93466624	30908760	24992
258	78.396159	128053248	93466624	36774552	24992
259	79.625338	128053248	93466624	42962712	24992
260	79.914523	128053248	93466624	49470512	24992
261	89.514829	128053248	93466624	56262776	24992
262	100.564579	123838464	89272320	34870224	24992
263	81.908344	123838464	89272320	42193608	24992
264	83.166266	123838464	89272320	49708064	24992
265	82.105761	123838464	89272320	57512400	24992
266	82.344736	123838464	89272320	65639272	24992
267	107.325778	129785856	95563776	62480968	24992
268	88.944994	127795200	93466624	37040744	24992
269	86.263047	127795200	93466624	46132392	24992
270	88.842026	127795200	93466624	44057856	24992
271	86.633415	127795200	93466624	53943792	24992
272	90.934306	128065536	93466624	64104944	24992
273	116.727176	125046784	90320896	31914152	24992
274	86.963114	125046784	90320896	42674664	24992
275	87.886771	125046784	90320896	53600096	24992
276	93.191779	125046784	90320896	53181888	24992
277	88.44577	125857792	91369472	64744680	24992
278	103.452207	131805184	97136640	76598328	24992
279	108.708026	131588096	97136640	28946712	24992
280	90.389779	131588096	97136640	41520792	24992
281	90.227949	131588096	97136640	54515792	24992
282	96.968719	131588096	97136640	56189584	24992
283	100.840594	132669440	98185216	69818160	24992
284	111.717789	125595648	90845184	39057928	24992
285	96.859848	125595648	90845184	41486792	24992
286	93.211151	125595648	90845184	55952304	24992
287	99.709345	125595648	90845184	59042496	24992
288	115.715181	129650688	95039488	62497400	24992
289	107.984281	129179648	94515200	32170000	24992
290	96.645071	129179648	94515200	47939648	24992
291	100.714987	129179648	94515200	52410584	24992
292	100.661597	129179648	94515200	57325936	24992
293	125.121001	126373888	93990912	28825000	24992
294	102.223844	128262144	93990912	33302760	24992
295	103.526194	128262144	93990912	39324080	24992
296	99.177326	128262144	93990912	57355488	24992
297	107.093235	128802816	93990912	64073432	24992
298	132.79971	129949696	95563776	41565160	24992
299	105.204234	129949696	95563776	48802560	24992
300	104.68581	129949696	95563776	56214400	24992
301	105.629508	129949696	95563776	63963464	24992
302	112.890455	133193728	98709504	72069440	24992
303	130.186218	131354624	96612352	33268048	24992
304	107.238937	131354624	96612352	42153912	24992
305	108.822816	131354624	96612352	51809000	24992
306	110.825415	131354624	96612352	61702544	24992
307	140.163499	128348160	93466624	40184320	24992
308	109.31695	128348160	93466624	50453152	24992
309	111.092417	128348160	93466624	60990160	24992
310	118.287827	128888832	93990912	60192072	24992
311	116.222336	137269248	102903808	71399648	24992
312	137.978324	136183808	101330944	33932216	24992
313	111.758853	136183808	101330944	45850640	24992
314	114.387177	136183808	101330944	58245120	24992
315	113.573093	136183808	101330944	71488440	24992
316	139.912934	127344640	92942336	34367592	24992
317	120.398361	127344640	92942336	37021040	24992
318	116.904388	127344640	92942336	51024296	24992
319	128.704293	127885312	93466624	53644848	24992
320	142.797054	123490304	88748032	41113912	24992
321	120.547986	123490304	88748032	44200784	24992
322	117.467913	123490304	88748032	59297552	24992
323	117.976552	129708032	95039488	74751896	24992
324	142.566022	125067264	90320896	29109296	24992
325	119.224319	125067264	90320896	45296968	24992
326	122.881	125067264	90320896	50322848	24992
327	149.564647	118964224	84553728	27182176	24992
328	121.793692	118964224	84553728	44557840	24992
329	126.067223	118964224	84553728	50591840	24992
330	133.931349	123559936	88748032	56941296	24992
331	154.783963	123498496	88748032	38035968	24992
332	126.783995	123498496	88748032	45158008	24992
333	125.383642	123498496	88748032	64388704	24992
334	136.336812	134311936	100282368	72490424	24992
335	150.621155	127762432	92942336	45399728	24992
336	132.531348	127762432	92942336	54057408	24992
337	130.773749	127762432	92942336	63014968	24992
338	160.781267	125984768	93466624	25593640	24992
339	129.760414	127873024	93466624	45754928	24992
340	133.111482	127873024	93466624	55884328	24992
341	134.505769	128684032	93990912	66442272	24992
342	160.570427	126496768	91893760	28026920	24992
343	136.142539	126496768	91893760	39502624	24992
344	136.686457	126496768	91893760	51324072	24992
345	140.72374	127307776	92942336	64014024	24992
346	161.119023	126267392	91369472	46666272	24992
347	136.568301	126267392	91369472	59579144	24992
348	142.022746	127889408	93466624	61221744	24992
349	161.646707	127934464	95563776	37863160	24992
350	142.900181	129822720	95563776	39055768	24992
351	143.94597	129822720	95563776	54077752	24992
352	147.737126	130904064	96088064	69494640	24992
353	167.653506	128856064	93990912	41754616	24992
354	142.128939	128856064	93990912	57253744	24992
355	143.317603	128856064	93990912	73222904	24992
356	169.691981	129835008	95563776	26867064	24992
357	145.525803	129835008	95563776	43519688	24992
358	144.771701	129835008	95563776	60637768	24992
359	176.059961	123953152	91369472	34720672	24992
360	152.866799	125841408	91369472	40448184	24992
361	147.64092	125841408	91369472	59111792	24992
362	174.302204	132329472	97660928	66559536	24992
363	161.550997	139915264	106573824	41974856	24992
364	150.691233	140996608	106573824	61707424	24992
365	155.184247	141266944	106573824	70250216	24992
366	191.134705	120393728	85602304	46286144	24992
367	155.661472	120934400	86126592	55457264	24992
368	151.353831	131477504	96612352	76571576	24992
369	187.284609	129851392	97136640	33783232	24992
370	154.800786	131739648	97136640	42662304	24992
371	158.962398	131739648	97136640	53436544	24992
372	164.137783	133361664	98709504	76424976	24992
373	184.206376	130404352	95563776	43000936	24992
374	160.55473	130404352	95563776	55067688	24992
375	160.642618	135540736	101330944	67467400	24992
376	193.674173	134656000	100282368	46464848	24992
377	161.239891	134656000	100282368	59696992	24992
378	159.627238	135737344	100806656	73414552	24992
379	195.462385	133001216	98709504	30826152	24992
380	165.482346	133001216	98709504	45659008	24992
381	163.631897	133001216	98709504	60593360	24992
382	194.923085	130334720	95563776	28251472	24992
383	166.457851	130334720	95563776	44264104	24992
384	165.847751	130334720	95563776	60565096	24992
385	193.785225	133750784	99233792	30342032	24992
386	167.408356	133750784	99233792	47580552	24992
387	169.553337	133750784	99233792	65112864	24992
388	198.991951	128655360	93990912	35132664	24992
389	170.743151	128655360	93990912	53664936	24992
390	177.978954	128655360	93990912	60907032	24992
391	197.513764	131239936	96612352	32489952	24992
392	170.813515	131239936	96612352	52081120	24992
393	194.504008	135024640	100282368	60644912	24992
394	188.258769	123654144	89272320	53987720	24992
395	176.532404	125546496	90845184	63346792	24992
396	195.166098	139603968	105525248	84795696	24992
397	198.215806	134377472	99758080	46705880	24992
398	177.749248	134647808	99758080	69161112	24992
399	192.49415	142217216	107622400	80542104	24992
400	205.841797	132743168	98185216	54118160	24992
401	184.128508	132743168	98185216	66283912	24992
402	219.189594	131792896	99233792	30198312	24992
403	182.652184	145846272	112340992	53326184	24992
404	187.845027	149360640	114962432	66659008	24992
405	217.48509	120389632	85602304	29591048	24992
406	182.450452	120389632	85602304	55594648	24992
407	186.266904	127688704	92942336	70370648	24992
408	216.748348	127811584	93466624	34683816	24992
409	189.192523	127811584	93466624	50256592	24992
410	191.64972	129433600	95039488	66266064	24992
411	227.779334	129691648	95039488	54249104	24992
412	189.532066	129691648	95039488	71204696	24992
413	195.238536	144830464	110768128	88668936	24992
414	230.398435	139665408	105000960	55633640	24992
415	192.533318	139665408	105000960	73911464	24992
416	230.94568	147775488	112865280	81093752	24992
417	200.175256	146726912	113389568	47844976	24992
418	195.387529	148078592	113389568	67546728	24992
419	230.846243	123277312	88748032	34307040	24992
420	194.243315	123277312	88748032	55152440	24992
421	203.624289	132739072	98185216	64636208	24992
422	221.905775	127787008	93466624	32892104	24992
423	198.060256	128327680	93466624	54967024	24992
424	236.471662	126967808	92418048	34925496	24992
425	202.265094	126967808	92418048	57995016	24992
426	206.22408	133185536	98709504	69959560	24992
427	242.993029	134569984	99758080	52223272	24992
428	202.006299	134569984	99758080	76652192	24992
429	222.277644	150790144	116535296	90129992	24992
430	233.653783	139423744	105000960	49290856	24992
431	203.995992	139423744	105000960	75452264	24992
432	243.882316	135131136	100806656	35219216	24992
433	211.252118	135131136	100806656	50431752	24992
434	209.590825	136212480	101330944	77747840	24992
435	254.702018	133033984	98185216	52846944	24992
436	212.585895	136007680	101330944	69564400	24992
437	245.517685	138039296	105525248	43785088	24992
438	213.256322	139927552	105525248	59917176	24992
439	213.262019	140197888	105525248	78156656	24992
440	239.409427	131874816	97136640	39819680	24992
441	219.742627	131874816	97136640	59008904	24992
442	251.895706	126676992	91893760	34292000	24992
443	218.882047	126676992	91893760	54494264	24992
444	249.126678	129433600	95039488	42089064	24992
445	224.662775	129433600	95039488	51762816	24992
446	248.178829	138625024	103952384	73466992	24992
447	237.811397	130322432	95563776	51807664	24992
448	224.172357	138973184	104476672	74788320	24992
449	250.4225	128204800	93990912	40615224	24992
450	231.412642	128204800	93990912	52855824	24992
451	248.417152	125046784	90320896	43740336	24992
452	230.972153	125046784	90320896	56878256	24992
453	256.877191	128163840	93466624	36348312	24992
454	229.115377	128163840	93466624	62058464	24992
455	261.996206	129454080	95039488	42779968	24992
456	234.078863	129454080	95039488	58050816	24992
457	260.594762	141889536	107098112	73635992	24992
458	250.71241	135061504	100282368	57198288	24992
459	236.994302	142630912	108146688	74164248	24992
460	255.87158	127733760	92942336	43703376	24992
461	235.086329	127733760	92942336	61419672	24992
462	263.578009	123518976	88748032	34319608	24992
463	234.775533	123518976	88748032	64644344	24992
464	286.104473	124051456	89272320	64541720	24992
465	240.650032	141893632	107622400	84298704	24992
466	264.597286	130740224	96088064	43698840	24992
467	241.206396	131010560	96088064	64649336	24992
468	272.137978	127250432	92418048	38957376	24992
469	241.951596	127250432	92418048	60814224	24992
470	268.678758	127176704	92418048	36054224	24992
471	244.658527	127176704	92418048	58879720	24992
472	271.241043	126103552	91369472	34754496	24992
473	256.414486	127184896	92418048	58739728	24992
474	287.98196	124039168	89272320	63752144	24992
475	252.581464	144314368	109719552	89140072	24992
476	275.160828	127795200	92942336	40620664	24992
477	257.324077	127795200	92942336	66868392	24992
478	301.940313	126599168	91893760	61347768	24992
479	256.090412	145793024	111292416	88940608	24992
480	278.89447	128876544	93990912	41388776	24992
481	265.119847	130498560	96088064	58031696	24992
482	294.739832	126451712	91893760	66303264	24992
483	259.101784	147808256	113389568	83976024	24992
484	279.192643	125308928	90845184	38035160	24992
485	265.316326	126660608	92418048	68392032	24992
486	305.784753	128167936	93466624	63527832	24992
487	267.178595	149794816	115486720	84206592	24992
488	286.762488	127836160	92942336	38955776	24992
489	284.511823	131080192	96612352	59808232	24992
490	299.162509	128479232	93990912	68545472	24992
491	268.391991	149024768	114438144	90554048	24992
492	288.005142	127561728	92942336	46911272	24992
493	312.997345	121675776	89272320	46419992	24992
494	270.046823	126808064	92418048	68320704	24992
495	291.724119	150597632	116011008	92562040	24992
496	298.060514	140279808	105525248	66602456	24992
497	274.239295	151093248	116535296	92159712	24992
498	300.303489	121393152	86650880	40158112	24992
499	314.40052	124133376	89272320	41041696	24992
500	275.006578	128458752	93990912	68442112	24992
