x	Duration	RSS	HeapTotal	HeapUsed	External
0	NA	135933952	100806656	63103904	24992
1	0.433369	135933952	100806656	63151680	24992
2	0.460497	135933952	100806656	63227920	24992
3	0.605483	135933952	100806656	63331208	24992
4	0.65754	135933952	100806656	63462960	24992
5	0.773522	135933952	100806656	63624704	24992
6	0.89754	135933952	100806656	63816896	24992
7	1.085505	135933952	100806656	64040536	24992
8	1.196409	135933952	100806656	64296544	24992
9	1.308378	135933952	100806656	64586896	24992
10	1.650989	135933952	100806656	64912192	24992
11	1.625445	135933952	100806656	65273400	24992
12	1.87467	135933952	100806656	65671504	24992
13	0.867884	135933952	100806656	66108480	24992
14	0.742108	135933952	100806656	66583248	24992
15	0.803157	135933952	100806656	67097864	24992
16	0.96077	135933952	100806656	67653272	24992
17	0.983178	135933952	100806656	68253720	24992
18	0.982868	135933952	100806656	68895432	24992
19	1.033253	135933952	100806656	69581960	24992
20	1.290976	135933952	100806656	70313208	24992
21	1.173896	135933952	100806656	71090488	24992
22	1.25411	135933952	100806656	71914760	24992
23	1.505037	135933952	100806656	72786920	24992
24	1.403221	135933952	100806656	73709200	24992
25	4.652412	135933952	100806656	61278544	24992
26	1.575481	135933952	100806656	62303720	24992
27	1.794224	135933952	100806656	63381888	24992
28	2.467838	135933952	100806656	64514144	24992
29	1.813765	135933952	100806656	65709128	24992
30	1.897599	135933952	100806656	66952040	24992
31	2.143579	135933952	100806656	68254256	24992
32	2.115094	135933952	100806656	69614512	24992
33	2.106301	135933952	100806656	71037880	24992
34	2.276897	135933952	100806656	72521248	24992
35	2.29079	135933952	100806656	74065600	24992
36	2.424277	135933952	100806656	75671616	24992
37	4.623897	135933952	100806656	61931104	24992
38	2.795423	135933952	100806656	63663640	24992
39	2.672694	135933952	100806656	65460896	24992
40	2.762202	135933952	100806656	67323896	24992
41	2.857091	135933952	100806656	69253552	24992
42	3.167215	135933952	100806656	71250880	24992
43	3.074278	135933952	100806656	73316720	24992
44	3.163353	135933952	100806656	75452136	24992
45	3.301673	135933952	100806656	77659512	24992
46	5.293701	135933952	100806656	64194128	24992
47	3.792202	135933952	100806656	66546240	24992
48	4.083195	135933952	100806656	68972376	24992
49	3.747625	135933952	100806656	71474024	24992
50	3.870289	135933952	100806656	74053888	24992
51	4.147154	135933952	100806656	76713496	24992
52	5.754914	135933952	100806656	63830120	24992
53	4.378325	135933952	100806656	66652008	24992
54	4.502411	135933952	100806656	69554976	24992
55	4.455615	135933952	100806656	72541048	24992
56	4.738487	135933952	100806656	75611248	24992
57	4.718596	135933952	100806656	78766440	24992
58	6.321436	135933952	100806656	66195728	24992
59	5.259367	135933952	100806656	69524000	24992
60	5.491141	135933952	100806656	72943960	24992
61	5.60425	135933952	100806656	76449112	24992
62	7.738193	136204288	101330944	64527640	24992
63	5.529149	136204288	101330944	68213496	24992
64	6.871839	136204288	101330944	71992016	24992
65	5.895709	136204288	101330944	75888176	24992
66	6.098354	136204288	101330944	79860560	24992
67	7.993063	136474624	101330944	68038392	24992
68	6.275931	136474624	101330944	72201464	24992
69	7.196819	136474624	101330944	76470536	24992
70	8.859161	136744960	101855232	65378368	24992
71	6.888361	136744960	101855232	69834472	24992
72	6.877021	136744960	101855232	74390296	24992
73	7.352491	136744960	101855232	79047480	24992
74	10.067251	137015296	101855232	68033952	24992
75	7.312233	137015296	101855232	72894760	24992
76	7.398351	137015296	101855232	77859072	24992
77	9.832582	137015296	101855232	67396512	24992
78	7.915377	137015296	101855232	72572584	24992
79	7.842703	137015296	101855232	77855616	24992
80	10.077549	137285632	102379520	67769752	24992
81	8.332939	137285632	102379520	73266728	24992
82	8.402327	137285632	102379520	78873896	24992
83	10.934132	137555968	102903808	69037488	24992
84	9.508766	137826304	102903808	74877200	24992
85	9.055946	137826304	102903808	80821472	24992
86	11.146264	138096640	103428096	71095920	24992
87	9.466301	138096640	103428096	77270016	24992
88	11.892584	138637312	103952384	68333808	24992
89	9.663894	138637312	103952384	74740880	24992
90	10.030707	138637312	103952384	81266288	24992
91	12.382815	138907648	103952384	72101752	24992
92	10.216084	138907648	103952384	78867080	24992
93	12.844776	139448320	104476672	70410016	24992
94	10.798128	139448320	104476672	77418736	24992
95	13.388373	139718656	105000960	69441408	24992
96	11.162426	139718656	105000960	76698912	24992
97	11.333073	139988992	105000960	84083656	24992
98	13.624383	140259328	105525248	75648976	24992
99	11.825591	140259328	105525248	83284376	24992
100	14.220671	140529664	106049536	75205640	24992
101	12.473165	140800000	106049536	83099520	24992
102	15.038632	141070336	106049536	75319840	24992
103	12.542144	141070336	106049536	83485224	24992
104	14.773961	141340672	106573824	75921064	24992
105	12.804651	141611008	106573824	84359528	24992
106	15.290511	141881344	107098112	77005088	24992
107	14.116335	141881344	107098112	85718840	24992
108	15.682624	142151680	107622400	78570056	24992
109	16.9671	142422016	107622400	72604216	24992
110	14.056818	142692352	107622400	81740160	24992
111	16.948971	142962688	108146688	75625424	24992
112	14.460508	142962688	108146688	85048152	24992
113	17.719771	143233024	108146688	78812856	24992
114	18.0367	143503360	108670976	73700288	24992
115	15.212958	143773696	108670976	83564360	24992
116	18.012081	144044032	109195264	78012760	24992
117	15.769496	144044032	109195264	88170800	24992
118	18.124804	144314368	109195264	82488384	24992
119	18.762399	144584704	110243840	77692464	24992
120	16.397078	144584704	110243840	88304920	24992
121	19.207175	145125376	110243840	83076928	24992
122	19.619269	145395712	110768128	78733816	24992
123	17.228034	145395712	110768128	89814832	24992
124	20.050909	145666048	110768128	84950728	24992
125	20.965471	145936384	111292416	80883824	24992
126	21.698521	146477056	111292416	77669392	24992
127	20.159287	146477056	111292416	89369448	24992
128	32.64755	146747392	111816704	85210200	24992
129	25.07172	128921600	93990912	25912520	24992
130	20.228905	128921600	93990912	22108136	24992
131	20.351005	128921600	93990912	19299128	24992
132	21.536318	128921600	93990912	17136816	24992
133	20.034584	128921600	93990912	29828056	24992
134	21.356792	128921600	93990912	26586240	24992
135	21.883583	128921600	93990912	23941664	24992
136	21.85234	128921600	93990912	21884184	24992
137	23.537245	128921600	93990912	20305064	24992
138	24.155194	128921600	93990912	19230464	24992
139	24.28606	128921600	93990912	18557520	24992
140	25.643618	128921600	93990912	18232840	24992
141	22.164907	128921600	93990912	32274008	24992
142	23.789999	128921600	93990912	30353656	24992
143	24.142587	128921600	93990912	28809880	24992
144	23.917544	128921600	93990912	27709968	24992
145	24.399643	128921600	93990912	26880232	24992
146	25.839823	128921600	93990912	26425168	24992
147	26.120053	128921600	93990912	26283472	24992
148	25.502906	128921600	93990912	26398536	24992
149	25.921629	128921600	93990912	26713272	24992
150	26.687693	128921600	93990912	27205736	24992
151	26.724746	128921600	93990912	27842808	24992
152	26.866157	128921600	93990912	28608656	24992
153	28.020413	128921600	93990912	29455904	24992
154	27.536499	128921600	93990912	30392968	24992
155	28.010781	128921600	93990912	31415632	24992
156	27.936759	128921600	93990912	32497376	24992
157	28.848748	128921600	93990912	33620264	24992
158	29.618428	128921600	93990912	34819032	24992
159	29.879155	128921600	93990912	36085352	24992
160	29.465931	128921600	93990912	37464696	24992
161	33.817476	128921600	93990912	25200232	24992
162	31.483664	128921600	93990912	28767920	24992
163	32.182963	128921600	93990912	31996768	24992
164	30.917019	128921600	93990912	34917640	24992
165	30.668695	128921600	93990912	37599536	24992
166	35.84863	128921600	93990912	26569336	24992
167	33.978228	128278528	93990912	31134128	24992
168	32.586987	128278528	93990912	35231552	24992
169	32.762107	128278528	93990912	38885032	24992
170	37.290685	128278528	93990912	28673400	24992
171	34.520948	128278528	93990912	33845568	24992
172	34.215958	128278528	93990912	38487984	24992
173	38.818403	128278528	93990912	29201800	24992
174	38.088095	128278528	93990912	37786976	24992
175	34.990395	128278528	93990912	43082392	24992
176	39.577547	128278528	93990912	34217624	24992
177	36.791316	128278528	93990912	40456368	24992
178	35.923331	128278528	93990912	46033576	24992
179	41.575657	128278528	93990912	37321528	24992
180	37.146568	128278528	93990912	43956704	24992
181	41.861	128278528	93990912	36332544	24992
182	40.252567	128278528	93990912	46556440	24992
183	42.985981	128278528	93990912	39944944	24992
184	41.423262	128278528	93990912	50601056	24992
185	48.172523	128548864	93990912	44323344	24992
186	69.21718	118067200	78786560	20583312	24992
187	40.946875	113397760	78786560	31172344	24992
188	41.152795	113397760	78786560	25457944	24992
189	40.662552	113397760	78786560	37133424	24992
190	40.641915	113397760	78786560	31382856	24992
191	39.341685	113397760	78786560	40093408	24992
192	41.326447	113397760	78786560	33955536	24992
193	42.383521	113397760	78786560	29761496	24992
194	44.233299	113397760	78786560	42520808	24992
195	42.739038	113397760	78786560	37633832	24992
196	46.4164	113397760	78786560	34301544	24992
197	44.45997	113397760	78786560	47804720	24992
198	44.026737	113397760	78786560	43689824	24992
199	44.61669	113397760	78786560	40756944	24992
200	49.092332	113397760	78786560	42998680	24992
201	45.596952	114749440	80359424	57267616	24992
202	46.153346	115019776	80359424	53886952	24992
203	45.858184	115019776	80359424	51470440	24992
204	52.107006	118263808	84029440	54639280	24992
205	58.041744	122589184	88748032	57888520	24992
206	71.93545	119173120	86650880	31147736	24992
207	54.40777	120791040	86650880	33703904	24992
208	54.132906	120791040	86650880	37519432	24992
209	52.041379	120791040	86650880	41580920	24992
210	53.662234	120791040	86650880	45893320	24992
211	52.602445	120791040	86650880	50445160	24992
212	53.365876	121331712	86650880	55247456	24992
213	53.082959	121331712	86650880	60308784	24992
214	60.928247	123764736	89272320	65613512	24992
215	75.779291	121802752	87175168	25939520	24992
216	56.992891	121802752	87175168	32038840	24992
217	55.881851	121802752	87175168	38528432	24992
218	57.065484	121802752	87175168	45301016	24992
219	58.252396	121802752	87175168	52326312	24992
220	62.414075	121802752	87175168	47894672	24992
221	59.632356	121802752	87175168	55428480	24992
222	92.201657	121622528	89272320	23761616	24992
223	63.12381	125943808	91893760	30315280	24992
224	60.733217	130539520	96612352	38198232	24992
225	60.672773	134864896	101330944	46340752	24992
226	66.441594	141623296	108670976	43093704	24992
227	62.18014	145948672	113389568	51706600	24992
228	60.826923	150274048	118108160	60613712	24992
229	61.197256	154869760	122826752	69806984	24992
230	95.549548	101167104	68825088	22082880	24992
231	63.859926	103055360	68825088	30149288	24992
232	62.392718	103055360	68825088	40087520	24992
233	68.063262	103866368	69349376	38735920	24992
234	65.159748	106029056	71970816	49277104	24992
235	68.739714	112787456	78786560	48463816	24992
236	65.090389	117383168	83505152	59504544	24992
237	88.414229	124411904	90320896	59278960	24992
238	75.666683	110907392	76689408	26567320	24992
239	66.295734	110907392	76689408	38426288	24992
240	70.177877	110907392	76689408	39151576	24992
241	66.509769	111177728	76689408	51723032	24992
242	72.865739	113881088	79835136	52981728	24992
243	73.987057	120909824	87175168	54515576	24992
244	100.242105	116731904	85078016	26645592	24992
245	69.264534	119160832	85078016	39510352	24992
246	73.776312	119160832	85078016	41747864	24992
247	72.861175	119160832	85078016	44285056	24992
248	70.616145	119971840	85602304	58668456	24992
249	77.005903	121864192	87699456	61765104	24992
250	77.185569	128892928	94515200	65135912	24992
251	101.8057	120315904	88748032	35422440	24992
252	76.000876	122744832	88748032	38253032	24992
253	76.054252	122744832	88748032	42983296	24992
254	76.806106	122744832	88748032	48011352	24992
255	78.457449	123826176	89272320	53323944	24992
256	78.761598	126799872	92418048	58935872	24992
257	90.989119	131665920	97660928	76512912	24992
258	95.524695	121524224	87699456	33993848	24992
259	79.187821	121524224	87699456	40153800	24992
260	79.310239	121524224	87699456	46634104	24992
261	80.910689	121524224	87699456	53393584	24992
262	82.967348	123416576	88748032	60512392	24992
263	108.534475	121892864	89272320	22966056	24992
264	83.254155	123781120	89272320	29448704	24992
265	81.427572	123781120	89272320	37307600	24992
266	82.671176	123781120	89272320	45431216	24992
267	83.162515	123781120	89272320	53888736	24992
268	85.60542	123781120	89272320	62660944	24992
269	116.887414	125243392	90845184	30150104	24992
270	86.201261	125243392	90845184	39758440	24992
271	85.647535	125243392	90845184	49780880	24992
272	86.467522	125243392	90845184	59943496	24992
273	92.356466	125243392	90845184	58730136	24992
274	115.573852	124760064	92418048	22907128	24992
275	86.866019	126648320	92418048	32608912	24992
276	88.219243	126648320	92418048	43862624	24992
277	93.196566	126648320	92418048	43731568	24992
278	90.339061	126648320	92418048	55640520	24992
279	99.846382	126918656	92418048	67812824	24992
280	110.04224	125837312	91369472	37446512	24992
281	96.438036	125837312	91369472	38584840	24992
282	91.023008	125837312	91369472	51905560	24992
283	96.872684	125837312	91369472	53902856	24992
284	98.297616	127188992	92942336	67869488	24992
285	116.700423	126885888	92942336	37779760	24992
286	97.98576	126885888	92942336	40566352	24992
287	95.573218	126885888	92942336	55330904	24992
288	99.600221	126885888	92942336	58787664	24992
289	118.037209	131477504	96612352	62540440	24992
290	108.612126	127229952	92418048	32891344	24992
291	98.024039	127229952	92418048	48988856	24992
292	102.669605	127229952	92418048	53759416	24992
293	100.977976	127229952	92418048	58976696	24992
294	124.595495	123269120	90320896	30296720	24992
295	102.742952	125157376	90320896	34976112	24992
296	104.125843	125157376	90320896	41058224	24992
297	99.897573	125157376	90320896	59149376	24992
298	106.503195	125157376	90320896	65917600	24992
299	138.291904	128475136	93466624	31665872	24992
300	100.143394	128475136	93466624	50795608	24992
301	104.720301	128475136	93466624	58791936	24992
302	107.867076	128475136	93466624	67232288	24992
303	119.657092	133611520	98709504	75876568	24992
304	125.436475	131686400	96612352	37105632	24992
305	106.82516	131686400	96612352	46229440	24992
306	108.012598	131686400	96612352	55691264	24992
307	107.910424	131686400	96612352	65479192	24992
308	136.111916	127733760	92942336	26581240	24992
309	109.2459	127733760	92942336	37324008	24992
310	110.432238	127733760	92942336	48211520	24992
311	111.758635	127733760	92942336	59943016	24992
312	140.338241	123183104	88223744	27826752	24992
313	111.280704	123183104	88223744	40536304	24992
314	113.39599	123183104	88223744	53146976	24992
315	120.78513	123183104	88223744	54309480	24992
316	149.909528	126189568	91369472	40462024	24992
317	115.095386	126189568	91369472	53838352	24992
318	119.487292	126189568	91369472	55921768	24992
319	117.839853	129433600	95039488	70147224	24992
320	154.463768	131637248	99233792	24034760	24992
321	120.542673	140283904	106573824	37115144	24992
322	118.228071	149475328	116535296	52224720	24992
323	124.509636	161099776	129118208	56064536	24992
324	125.158184	170020864	139079680	71957792	24992
325	157.650843	107900928	73019392	42101672	24992
326	125.919961	111685632	77213696	47011560	24992
327	121.246209	121147392	86650880	63927288	24992
328	133.01616	132771840	98185216	69578936	24992
329	152.392909	109617152	75116544	41714304	24992
330	125.94277	112590848	77737984	48130704	24992
331	126.997127	121782272	87175168	66570248	24992
332	137.05669	133677056	99233792	73944232	24992
333	155.49514	111452160	77213696	34917288	24992
334	126.819251	112533504	77737984	54451968	24992
335	131.173051	123617280	89272320	62700624	24992
336	164.063379	113090560	80359424	25522200	24992
337	126.366296	122277888	88223744	44809264	24992
338	134.07859	133902336	100806656	54230976	24992
339	134.388687	135254016	100806656	64118264	24992
340	161.728797	111149056	76165120	25762552	24992
341	133.567862	111149056	76165120	36507880	24992
342	133.762426	115744768	81408000	47407976	24992
343	132.78957	124936192	90320896	70305920	24992
344	170.458824	121094144	86650880	42486912	24992
345	140.173318	121094144	86650880	54557904	24992
346	136.350359	126500864	91893760	67188696	24992
347	152.682708	138125312	103952384	80233880	24992
348	155.488645	123023360	88223744	44223464	24992
349	139.244413	123023360	88223744	57969248	24992
350	141.875539	127078400	91893760	72190384	24992
351	168.085236	120033280	85078016	36189248	24992
352	145.24238	120033280	85078016	39614928	24992
353	140.423213	120573952	85602304	54736936	24992
354	173.576062	123006976	90320896	27738816	24992
355	143.220544	124895232	90320896	42892120	24992
356	143.633496	124895232	90320896	59153392	24992
357	151.286425	130842624	96088064	64352648	24992
358	181.358745	130588672	95563776	38658072	24992
359	144.896304	130588672	95563776	56173024	24992
360	146.22677	130588672	95563776	74076416	24992
361	162.006362	143564800	108670976	80850184	24992
362	171.1699	130252800	95039488	47416376	24992
363	151.841225	130252800	95039488	54939040	24992
364	147.273906	130793472	96088064	74484320	24992
365	181.336611	125718528	90845184	30552792	24992
366	149.941743	125718528	90845184	50794840	24992
367	156.225201	125718528	90845184	59920368	24992
368	180.662009	126582784	91893760	35579264	24992
369	158.956287	126582784	91893760	45735000	24992
370	157.133752	126582784	91893760	56191992	24992
371	179.31895	125612032	90845184	33028840	24992
372	155.384508	125612032	90845184	44336224	24992
373	159.532625	125612032	90845184	55942248	24992
374	184.918059	127320064	92418048	33967888	24992
375	159.896897	127320064	92418048	46579392	24992
376	159.760694	127320064	92418048	59425568	24992
377	185.050774	125849600	90845184	38257088	24992
378	161.28421	126119936	90845184	52147512	24992
379	162.347604	126119936	90845184	66258104	24992
380	193.100839	126025728	90845184	35015696	24992
381	163.744678	126025728	90845184	49868584	24992
382	165.994077	126025728	90845184	65311392	24992
383	191.06332	124903424	89796608	35237064	24992
384	168.01552	124903424	89796608	51749584	24992
385	187.729052	128688128	93466624	57068448	24992
386	188.475895	123613184	88748032	47703752	24992
387	166.418869	123883520	88748032	65176952	24992
388	181.633597	139563008	105000960	71549328	24992
389	203.19737	135991296	100806656	43934176	24992
390	173.033196	135991296	100806656	62737736	24992
391	172.579591	138694656	103428096	81946752	24992
392	198.002927	124301312	89272320	35056656	24992
393	180.418045	124301312	89272320	44300000	24992
394	203.373281	119955456	85078016	37226344	24992
395	181.843607	119955456	85078016	46586120	24992
396	183.624217	125362176	90320896	67962696	24992
397	208.453523	126005248	90845184	51082608	24992
398	182.213186	126816256	91893760	61761400	24992
399	196.232322	140873728	106573824	84503856	24992
400	205.907984	134443008	99233792	47310352	24992
401	179.778928	134443008	99233792	71103496	24992
402	202.003214	142823424	108146688	83809336	24992
403	209.648669	135372800	100282368	46853384	24992
404	188.170471	135372800	100282368	60451216	24992
405	200.450512	143212544	108670976	86056744	24992
406	211.834141	135442432	100806656	49974544	24992
407	188.352046	135712768	100806656	64885560	24992
408	229.229971	132001792	99758080	30591072	24992
409	185.897695	145784832	112865280	56272672	24992
410	192.29854	162275328	130691072	72274736	24992
411	235.00099	109203456	76165120	37199112	24992
412	191.213542	113254400	78262272	52854288	24992
413	194.480362	129744896	95039488	70277736	24992
414	225.655182	108900352	74067968	36747312	24992
415	194.291144	113225728	78262272	54988896	24992
416	196.834457	129716224	95039488	73701352	24992
417	237.87225	120803328	85602304	53868840	24992
418	199.154647	129994752	95039488	73562080	24992
419	238.224725	131874816	85078016	30598504	24992
420	201.323909	133935104	100806656	49821656	24992
421	199.667476	150155264	118108160	70900512	24992
422	232.639505	108580864	73543680	37602488	24992
423	205.13591	116420608	81408000	48335144	24992
424	202.800392	132911104	98185216	71146160	24992
425	249.133424	116166656	81408000	53647328	24992
426	207.918493	134008832	99233792	65502784	24992
427	217.5029	150499328	115486720	89485160	24992
428	230.150631	117542912	82456576	59931216	24992
429	212.02547	133763072	99233792	73579032	24992
430	245.736184	116420608	81932288	32627784	24992
431	203.456972	117231616	81932288	58449208	24992
432	213.702088	134533120	99758080	73287568	24992
433	249.404094	126418944	91369472	58684088	24992
434	210.085888	134529024	99758080	74482296	24992
435	248.887792	123244544	90320896	36262440	24992
436	212.863949	125132800	90320896	51371544	24992
437	216.743148	137297920	102379520	68624992	24992
438	240.6277	119091200	84553728	41435384	24992
439	215.367927	119631872	84553728	59691272	24992
440	253.174992	126169088	91893760	34682408	24992
441	221.868552	126439424	91893760	53881800	24992
442	219.67636	137523200	102903808	73612048	24992
443	264.428731	130625536	95563776	50879632	24992
444	220.070541	138465280	103428096	71498848	24992
445	253.325794	131059712	96088064	34385600	24992
446	222.039431	131059712	96088064	56290392	24992
447	223.126892	138088448	103428096	78495592	24992
448	249.106059	119283712	84553728	34690776	24992
449	230.787521	121716736	86650880	58176648	24992
450	267.699816	123904000	89272320	60074600	24992
451	232.865156	140124160	105525248	72623032	24992
452	261.862584	133476352	98709504	37197008	24992
453	228.140893	133476352	98709504	62692240	24992
454	232.262678	140775424	106049536	76898640	24992
455	271.076265	135839744	100806656	58318048	24992
456	231.5123	141787136	106573824	73394376	24992
457	267.478711	135888896	101330944	39351496	24992
458	234.247508	135888896	101330944	55744112	24992
459	233.907423	140754944	106049536	84020952	24992
460	283.130284	133763072	98709504	57069600	24992
461	237.950534	142954496	108146688	74686752	24992
462	259.037845	129355776	94515200	44594888	24992
463	237.643255	129626112	94515200	63354160	24992
464	270.502237	126996480	91893760	36431744	24992
465	238.703493	126996480	91893760	56095064	24992
466	268.07207	131084288	96088064	41542920	24992
467	242.712977	131084288	96088064	62306256	24992
468	275.110441	127979520	92942336	36797616	24992
469	247.749146	127979520	92942336	58661720	24992
470	275.191724	133341184	98185216	46020424	24992
471	249.458462	133341184	98185216	57201576	24992
472	278.840441	131801088	97136640	44879144	24992
473	250.640145	131801088	97136640	57446592	24992
474	288.420081	140701696	103952384	35136968	24992
475	253.20028	157843456	124923904	59068720	24992
476	249.218734	160006144	124923904	84563384	24992
477	272.088743	118165504	82980864	37029872	24992
478	298.941915	122134528	89272320	41062056	24992
479	254.847146	124293120	89272320	66566592	24992
480	261.021898	147812352	113389568	82724976	24992
481	301.354721	142774272	107622400	62734232	24992
482	262.288557	148721664	113913856	79928152	24992
483	280.388511	128208896	92942336	44836320	24992
484	261.842315	128208896	92942336	63536544	24992
485	285.445632	122429440	87175168	41782216	24992
486	305.990849	124391424	89796608	36486976	24992
487	259.325038	125743104	90845184	68182152	24992
488	278.38103	149262336	114438144	88524984	24992
489	298.829691	141692928	106573824	60323744	24992
490	264.020491	148992000	113913856	93462464	24992
491	288.958714	125108224	90320896	37684456	24992
492	305.302775	122986496	89796608	48252264	24992
493	266.51798	126496768	91893760	69760008	24992
494	290.577206	150286336	115486720	93339288	24992
495	297.754734	141651968	106573824	66888584	24992
496	274.684332	151113728	116535296	91899936	24992
497	296.998847	122290176	87699456	39609712	24992
498	315.781551	125038592	89796608	40388664	24992
499	276.769415	128823296	93990912	66707056	24992
500	318.469758	137289728	102379520	42672952	24992
