x	Duration	RSS	HeapTotal	HeapUsed	External
0	NA	117055488	82456576	13007456	24992
1	0.383926	117055488	82456576	13059808	24992
2	0.295595	117055488	82456576	13136592	24992
3	0.342408	117055488	82456576	13240488	24992
4	0.41301	117055488	82456576	13373040	24992
5	0.500702	117055488	82456576	13535752	24992
6	0.565651	117055488	82456576	13729032	24992
7	0.64004	117055488	82456576	13953888	24992
8	0.778079	117055488	82456576	14211696	24992
9	0.536698	117055488	82456576	14503616	24992
10	0.846325	117055488	82456576	14830664	24992
11	0.847278	117055488	82456576	15193808	24992
12	0.768893	117055488	82456576	15593968	24992
13	0.88019	117055488	82456576	16037696	24992
14	1.000176	117055488	82456576	16513664	24992
15	0.866676	117055488	82456576	17029520	24992
16	1.38166	117055488	82456576	17586272	24992
17	1.025452	117055488	82456576	18186720	24992
18	1.115997	117055488	82456576	18830032	24992
19	1.147406	117055488	82456576	19523328	24992
20	1.410854	117055488	82456576	20256216	24992
21	1.371702	117055488	82456576	21035288	24992
22	1.787324	117055488	82456576	21862936	24992
23	1.635452	117055488	82456576	22739216	24992
24	1.549813	117055488	82456576	23666496	24992
25	2.128845	117055488	82456576	24641832	24992
26	1.605549	117055488	82456576	25669176	24992
27	2.028887	117055488	82456576	26749696	24992
28	1.756903	117055488	82456576	27892440	24992
29	1.864324	117055488	82456576	29081856	24992
30	2.90418	117055488	82456576	14063840	24992
31	2.103848	117055488	82456576	15366072	24992
32	2.505503	117055488	82456576	16730448	24992
33	2.169019	117055488	82456576	18156576	24992
34	2.421523	117055488	82456576	19644976	24992
35	2.427238	117055488	82456576	21192080	24992
36	2.684927	117055488	82456576	22802744	24992
37	2.556844	117055488	82456576	24474520	24992
38	2.625675	117055488	82456576	26210152	24992
39	2.713536	117055488	82456576	28010624	24992
40	2.823859	117055488	82456576	29876840	24992
41	5.08771	117055488	82456576	15614584	24992
42	3.374306	117055488	82456576	17625040	24992
43	3.094482	117055488	82456576	19692488	24992
44	3.389905	117055488	82456576	21829408	24992
45	3.293363	117055488	82456576	24038232	24992
46	3.405685	117055488	82456576	26319000	24992
47	3.556839	117055488	82456576	28672688	24992
48	5.365999	117055488	82456576	15193208	24992
49	3.79019	117055488	82456576	17696248	24992
50	4.067246	117055488	82456576	20278352	24992
51	4.00853	117055488	82456576	22939912	24992
52	4.263934	117055488	82456576	25681296	24992
53	4.881712	117055488	82456576	28505072	24992
54	5.955217	117055488	82456576	15814488	24992
55	4.811436	117055488	82456576	18802848	24992
56	4.771443	117055488	82456576	21874896	24992
57	4.89532	117055488	82456576	25032312	24992
58	5.072735	117055488	82456576	28275448	24992
59	6.556216	117055488	82456576	16093264	24992
60	5.436965	117055488	82456576	19511416	24992
61	5.53112	117055488	82456576	23021216	24992
62	5.533149	117055488	82456576	26616272	24992
63	5.720504	117055488	82456576	30302568	24992
64	7.63559	117055488	82456576	18303600	24992
65	5.788392	117055488	82456576	22182408	24992
66	6.199138	117055488	82456576	26154976	24992
67	6.062767	117055488	82456576	30223112	24992
68	8.114563	117055488	82456576	18655008	24992
69	6.708222	117055488	82456576	22914872	24992
70	7.318608	117055488	82456576	27280960	24992
71	6.837681	117055488	82456576	31738560	24992
72	8.478321	117055488	82456576	20399760	24992
73	6.920646	117055488	82456576	25056280	24992
74	7.495858	117055488	82456576	29815216	24992
75	9.095833	117055488	82456576	19077784	24992
76	7.668456	117055488	82456576	24044112	24992
77	7.669686	117055488	82456576	29113864	24992
78	9.848216	117055488	82456576	18825432	24992
79	8.532575	117055488	82456576	24106496	24992
80	8.966053	117055488	82456576	29502736	24992
81	10.476052	117055488	82456576	19534448	24992
82	8.920918	117055488	82456576	25142256	24992
83	8.542786	117055488	82456576	30859752	24992
84	11.964977	117055488	82456576	21149120	24992
85	9.445741	117055488	82456576	27092584	24992
86	9.288339	117055488	82456576	33150320	24992
87	12.034649	117055488	82456576	23512160	24992
88	9.687934	117055488	82456576	29801904	24992
89	12.07384	117055488	82456576	20913808	24992
90	9.784564	117055488	82456576	27439368	24992
91	10.159738	117055488	82456576	34085352	24992
92	12.308916	117055488	82456576	24947848	24992
93	10.383784	117055488	82456576	31834192	24992
94	13.260432	117055488	82456576	23363368	24992
95	10.71686	117055488	82456576	30495392	24992
96	13.721166	117055488	82456576	22458584	24992
97	11.389269	117055488	82456576	29841208	24992
98	14.091807	117055488	82456576	22259064	24992
99	11.992625	117055488	82456576	29894768	24992
100	14.497147	117055488	82456576	22614952	24992
101	12.101848	117055488	82456576	30507920	24992
102	14.88053	117055488	82456576	23465080	24992
103	12.345601	117055488	82456576	31626856	24992
104	15.546056	117055488	82456576	24727120	24992
105	12.978569	117055488	82456576	33163448	24992
106	15.485222	117055488	82456576	26330888	24992
107	13.417074	117055488	82456576	35043688	24992
108	15.95041	117055488	82456576	28254288	24992
109	14.035153	117055488	82456576	37248328	24992
110	16.58721	117055488	82456576	30453896	24992
111	17.241898	117055488	82456576	24852912	24992
112	14.646243	117055488	82456576	34275800	24992
113	17.410027	117055488	82456576	28382328	24992
114	15.393384	117055488	82456576	38098384	24992
115	17.656682	117055488	82456576	32064128	24992
116	18.558285	117055488	82456576	27117416	24992
117	15.923624	117055488	82456576	37275944	24992
118	17.964667	117055488	82456576	31812264	24992
119	19.677647	117055488	82456576	27463968	24992
120	16.296052	117055488	82456576	38074176	24992
121	19.708921	117055488	82456576	33047544	24992
122	20.163857	117055488	82456576	29064424	24992
123	17.037317	117055488	82456576	40137672	24992
124	21.047087	117055488	82456576	35361896	24992
125	20.414735	117055488	82456576	31553464	24992
126	21.170221	117055488	82456576	28486744	24992
127	18.660595	117055488	82456576	40189216	24992
128	21.526729	117055488	82456576	36167232	24992
129	21.930606	117055488	82456576	33028336	24992
130	22.320926	117055488	82456576	30521920	24992
131	20.590891	117055488	82456576	42881072	24992
132	23.280476	117055488	82456576	39343816	24992
133	23.043292	117055488	82456576	36501792	24992
134	23.587159	117055488	82456576	34272208	24992
135	23.588154	117055488	82456576	32591344	24992
136	25.060447	117055488	82456576	31397760	24992
137	20.932602	117055488	82456576	44757936	24992
138	23.693341	117055488	82456576	42212224	24992
139	24.47096	117055488	82456576	40139608	24992
140	25.277666	117055488	82456576	38580584	24992
141	25.046751	117055488	82456576	37429160	24992
142	25.552267	117055488	82456576	36687832	24992
143	26.562547	117055488	82456576	36314288	24992
144	27.202536	117055488	82456576	36211168	24992
145	26.844405	117055488	82456576	36349536	24992
146	27.56443	117055488	82456576	36692232	24992
147	27.891505	117055488	82456576	37196568	24992
148	28.100627	117055488	82456576	37842376	24992
149	28.684124	117055488	82456576	38611648	24992
150	28.290999	117055488	82456576	39465600	24992
151	28.672227	117055488	82456576	40406568	24992
152	28.893951	117055488	82456576	41418152	24992
153	29.948122	117055488	82456576	42495080	24992
154	29.19374	117055488	82456576	43623424	24992
155	29.622768	117055488	82456576	44781240	24992
156	29.450847	117055488	82456576	45982712	24992
157	30.159077	117055488	82456576	47225344	24992
158	30.299726	117055488	82456576	48488816	24992
159	31.358864	117055488	82456576	49797296	24992
160	31.458254	117055488	82456576	51204856	24992
161	36.880972	117055488	82456576	39001192	24992
162	32.941588	117055488	82456576	42583008	24992
163	33.273035	117055488	82456576	45863464	24992
164	32.891214	117055488	82456576	48814008	24992
165	32.630587	117055488	82456576	51506952	24992
166	38.82777	117055488	82456576	40518184	24992
167	35.507951	116342784	82456576	45094992	24992
168	34.865618	116342784	82456576	49217056	24992
169	34.530145	116342784	82456576	52887880	24992
170	40.346028	116342784	82456576	42677392	24992
171	35.790367	116342784	82456576	47844976	24992
172	39.67661	116342784	82456576	52526320	24992
173	54.466576	116342784	82456576	43264216	24992
174	46.026718	113803264	79835136	20228040	24992
175	35.972171	113803264	79835136	28979224	24992
176	33.56409	113803264	79835136	34456224	24992
177	37.662016	113803264	79835136	25587456	24992
178	35.260281	113803264	79835136	31930992	24992
179	37.609182	113803264	79835136	24352744	24992
180	39.120652	113803264	79835136	34138016	24992
181	35.433516	113803264	79835136	40489408	24992
182	38.701651	113803264	79835136	32328496	24992
183	37.124981	113803264	79835136	39481648	24992
184	39.765479	113803264	79835136	32180536	24992
185	38.092949	113803264	79835136	39767120	24992
186	40.143698	113803264	79835136	32989840	24992
187	37.970948	113803264	79835136	40981032	24992
188	41.82023	113803264	79835136	34516664	24992
189	38.227851	113803264	79835136	42833400	24992
190	41.751356	113803264	79835136	36521320	24992
191	43.593018	113803264	79835136	32270416	24992
192	43.258925	113803264	79835136	44640248	24992
193	43.68205	113803264	79835136	39746072	24992
194	45.162416	113803264	79835136	36411768	24992
195	45.000759	113803264	79835136	49419088	24992
196	45.213884	113803264	79835136	45104472	24992
197	49.187598	113803264	79835136	42260608	24992
198	44.644805	113803264	79835136	55957544	24992
199	52.626789	113803264	79835136	52100008	24992
200	60.659386	111706112	77737984	25563520	24992
201	50.087891	111706112	77737984	27402192	24992
202	49.085891	111706112	77737984	29915616	24992
203	50.01215	111706112	77737984	32686272	24992
204	52.114378	111706112	77737984	35721064	24992
205	51.084412	111706112	77737984	38960904	24992
206	47.689795	111706112	77737984	54409296	24992
207	47.581854	111706112	77737984	52066640	24992
208	47.819517	111706112	77737984	50552056	24992
209	49.069337	111706112	77737984	49712888	24992
210	59.9896	114950144	81408000	54297128	24992
211	73.406012	116690944	84553728	31576816	24992
212	54.669573	118038528	84553728	35933040	24992
213	50.1385	118038528	84553728	35192152	24992
214	49.450735	118038528	84553728	34954288	24992
215	55.655156	118038528	84553728	40717848	24992
216	56.588292	118038528	84553728	46597496	24992
217	51.007694	118038528	84553728	46679632	24992
218	51.44573	118038528	84553728	47137992	24992
219	51.621923	118308864	84553728	47815800	24992
220	54.352534	118308864	84553728	48707696	24992
221	51.394417	118308864	84553728	49833304	24992
222	57.077138	118849536	85078016	39463880	24992
223	58.576831	118849536	85078016	47168288	24992
224	58.067222	118849536	85078016	55157568	24992
225	61.378732	119930880	86126592	63426472	24992
226	89.43359	120590336	88748032	29495960	24992
227	59.738782	122478592	88748032	37348296	24992
228	64.830476	122478592	88748032	34622344	24992
229	60.57507	122478592	88748032	43781496	24992
230	62.618685	122478592	88748032	53229304	24992
231	68.246417	122478592	88748032	51333616	24992
232	61.745616	122748928	88748032	61282800	24992
233	73.908635	125452288	91893760	71529712	24992
234	83.053716	122765312	89272320	24262064	24992
235	63.61008	122765312	89272320	35005640	24992
236	64.352287	122765312	89272320	46220200	24992
237	69.054751	122765312	89272320	46093936	24992
238	66.279266	123035648	89272320	57830272	24992
239	70.218352	123035648	89272320	58264552	24992
240	87.39555	126279680	92942336	58965728	24992
241	78.80406	123297792	89796608	26641616	24992
242	67.125326	123297792	89796608	39316800	24992
243	71.805829	123297792	89796608	40735184	24992
244	73.006091	123568128	89796608	42442696	24992
245	70.109968	123838464	89796608	55966160	24992
246	72.893635	123838464	89796608	58262896	24992
247	100.056884	120553472	89272320	30287000	24992
248	73.546806	122982400	89272320	32372912	24992
249	70.004047	122982400	89272320	47268304	24992
250	75.968806	122982400	89272320	51135024	24992
251	76.273744	123793408	89796608	55284264	24992
252	76.768295	124063744	90320896	59710872	24992
253	97.112797	131362816	98185216	64406328	24992
254	78.451237	126099456	92942336	33291104	24992
255	75.800805	126099456	92942336	38231288	24992
256	77.621138	126099456	92942336	43494088	24992
257	79.868484	126910464	93466624	49115280	24992
258	78.838989	127991808	93990912	55015984	24992
259	97.285546	128532480	95039488	61217232	24992
260	87.466519	123461632	89796608	33756760	24992
261	79.225352	123461632	89796608	40485344	24992
262	81.408349	123461632	89796608	47585784	24992
263	81.212152	123461632	89796608	54948224	24992
264	83.367616	124272640	90320896	62626208	24992
265	107.808506	121896960	90320896	25983112	24992
266	81.713448	123785216	90320896	33156888	24992
267	82.981997	123785216	90320896	41753608	24992
268	83.138671	123785216	90320896	50653528	24992
269	84.91318	124596224	90845184	59875584	24992
270	107.166253	125407232	91893760	57752240	24992
271	96.145448	123527168	89796608	36743312	24992
272	89.907523	123527168	89796608	35063024	24992
273	85.553701	123527168	89796608	45397480	24992
274	86.403716	124067840	90320896	56214616	24992
275	88.519306	124608512	90845184	67256872	24992
276	118.875975	124547072	90845184	36668000	24992
277	92.012152	124547072	90845184	36721600	24992
278	88.473942	124547072	90845184	48617784	24992
279	88.471273	124547072	90845184	60829544	24992
280	94.712834	126705664	92418048	61685144	24992
281	116.214226	124993536	92942336	26641048	24992
282	88.235442	126881792	92942336	38463144	24992
283	94.873199	126881792	92942336	40282952	24992
284	90.772789	126881792	92942336	54254600	24992
285	98.501165	127963136	93466624	56893928	24992
286	122.095619	123371520	91369472	26860152	24992
287	93.150833	125259776	91369472	40669112	24992
288	97.813155	125259776	91369472	44116776	24992
289	98.477323	125800448	91369472	47866960	24992
290	94.281282	127422464	92942336	63610736	24992
291	125.783686	122204160	88223744	22415464	24992
292	95.520724	122204160	88223744	39457688	24992
293	101.058693	122204160	88223744	44688488	24992
294	102.529826	122744832	88223744	50262064	24992
295	118.892574	125718528	91369472	56180456	24992
296	118.676716	121524224	87175168	32257648	24992
297	97.277213	121524224	87175168	50313376	24992
298	102.398076	121524224	87175168	57106944	24992
299	104.679304	122875904	88748032	64173792	24992
300	132.447621	124387328	90320896	24066744	24992
301	103.880999	124657664	90320896	32048144	24992
302	105.219988	124657664	90320896	40145936	24992
303	100.621342	124657664	90320896	60367256	24992
304	136.86539	120332288	88223744	26961816	24992
305	106.831535	122220544	88223744	35370728	24992
306	106.358917	122220544	88223744	44876384	24992
307	107.895592	122220544	88223744	54696872	24992
308	119.535127	126275584	91893760	64895112	24992
309	136.951792	128675840	94515200	33556352	24992
310	111.553535	128675840	94515200	44435832	24992
311	110.370507	128675840	94515200	55857280	24992
312	110.766651	128675840	94515200	67599408	24992
313	139.839858	126062592	91893760	29615592	24992
314	112.437484	126062592	91893760	42141040	24992
315	116.83434	126062592	91893760	43122648	24992
316	113.351002	126062592	91893760	56118400	24992
317	146.4847	124211200	89796608	42232080	24992
318	117.585013	124211200	89796608	44300048	24992
319	113.845876	124211200	89796608	58366336	24992
320	115.747542	128536576	94515200	72774888	24992
321	150.466044	127918080	93990912	23936376	24992
322	115.524002	127918080	93990912	39337496	24992
323	116.327703	127918080	93990912	54789760	24992
324	121.101491	128458752	93990912	59024768	24992
325	147.50063	125280256	90845184	28803152	24992
326	119.389803	125280256	90845184	45560952	24992
327	123.739462	125280256	90845184	50945944	24992
328	129.833359	126091264	91893760	56799440	24992
329	150.833911	124313600	89796608	35263320	24992
330	120.400379	124313600	89796608	53322752	24992
331	126.716932	124313600	89796608	60071592	24992
332	133.23127	134045696	99758080	67246024	24992
333	152.270355	132079616	97660928	40889672	24992
334	126.890021	132079616	97660928	48895144	24992
335	127.816408	132079616	97660928	57509560	24992
336	139.63602	133971968	99758080	77947328	24992
337	151.84274	128167936	93990912	39725984	24992
338	129.425045	128167936	93990912	49303944	24992
339	133.593878	128978944	94515200	59292848	24992
340	159.15539	128716800	96612352	34323608	24992
341	133.140311	130605056	96612352	43646592	24992
342	135.218422	130605056	96612352	55221656	24992
343	138.733975	130605056	96612352	67165880	24992
344	170.264084	127311872	92942336	37820176	24992
345	134.286072	127311872	92942336	49913272	24992
346	134.975619	127311872	92942336	62338168	24992
347	143.656652	138395648	104476672	75155184	24992
348	161.66593	136265728	101855232	39154152	24992
349	135.535579	136265728	101855232	52728864	24992
350	138.70959	136265728	101855232	66849208	24992
351	172.188182	127193088	95039488	33093584	24992
352	138.355648	129081344	95039488	46340296	24992
353	149.150582	129081344	95039488	49890752	24992
354	142.288788	129892352	95563776	65409352	24992
355	176.712537	132591616	98185216	38485880	24992
356	144.219855	132591616	98185216	54871928	24992
357	142.622637	132591616	98185216	72229440	24992
358	179.783231	134483968	102379520	27588176	24992
359	145.906908	145833984	112865280	43544648	24992
360	143.811054	146915328	112865280	61459464	24992
361	148.49272	146915328	112865280	68213784	24992
362	170.977536	119988224	85602304	34660560	24992
363	152.359321	119988224	85602304	42140720	24992
364	147.393028	119988224	85602304	61843016	24992
365	179.590873	123203584	89272320	27357912	24992
366	148.940595	123203584	89272320	48320552	24992
367	157.81749	124014592	89796608	57878216	24992
368	191.760506	125321216	91369472	41746816	24992
369	150.247604	125321216	91369472	63231408	24992
370	157.398024	132079616	98185216	73677664	24992
371	185.38012	131756032	97660928	29975544	24992
372	157.46778	131756032	97660928	41472112	24992
373	153.576237	131756032	97660928	64685712	24992
374	189.767807	127840256	95563776	31923224	24992
375	160.075701	129728512	95563776	43561672	24992
376	159.553897	129728512	95563776	57130952	24992
377	187.924961	136757248	102379520	71120736	24992
378	167.235174	147820544	114962432	50411328	24992
379	164.410448	148901888	114962432	64948680	24992
380	166.759996	149442560	114962432	79685952	24992
381	200.879757	121982976	87699456	49204248	24992
382	163.771869	121982976	87699456	64599888	24992
383	167.564444	135229440	101330944	80410680	24992
384	187.71029	123035648	88748032	30986328	24992
385	164.815465	123035648	88748032	47657976	24992
386	193.855837	118071296	86126592	37178720	24992
387	171.930224	119959552	86126592	42923040	24992
388	169.32891	124014592	89796608	60844888	24992
389	198.184294	123109376	89272320	31762456	24992
390	167.645175	123109376	89272320	50484456	24992
391	177.277553	125272064	91369472	58185320	24992
392	207.468807	125050880	90845184	51082904	24992
393	175.469361	125591552	91369472	59582784	24992
394	174.772722	139378688	105000960	80066104	24992
395	199.756822	123506688	89796608	31121472	24992
396	172.809792	123506688	89796608	52504920	24992
397	202.163416	127561728	93990912	62862736	24992
398	195.351806	124588032	90320896	46604688	24992
399	175.21995	125128704	90845184	69523256	24992
400	220.326392	131067904	99233792	33586920	24992
401	177.998758	133226496	99233792	55847072	24992
402	184.093274	133226496	99233792	69076496	24992
403	221.41831	131747840	98185216	32080160	24992
404	184.926761	131747840	98185216	45673840	24992
405	180.471854	131747840	98185216	71047728	24992
406	211.276387	125644800	91369472	35016736	24992
407	184.301824	125644800	91369472	49671168	24992
408	208.406157	130240512	96088064	64772624	24992
409	200.947407	127762432	93466624	52686752	24992
410	191.389487	129114112	95039488	69506640	24992
411	225.072759	133210112	99233792	34299464	24992
412	188.20834	133210112	99233792	51484184	24992
413	188.453928	133480448	99233792	68864720	24992
414	214.829356	128376832	93990912	35290896	24992
415	194.734635	128376832	93990912	53554208	24992
416	226.366032	123342848	89272320	30862864	24992
417	191.810582	123613184	89272320	50062640	24992
418	196.46014	133345280	99758080	69751248	24992
419	226.576536	127463424	92942336	48235896	24992
420	200.169808	130707456	96612352	68871768	24992
421	233.653789	128614400	96612352	38290384	24992
422	200.279105	130502656	96612352	58365664	24992
423	201.686624	132395008	98185216	68906776	24992
424	229.688332	128249856	93990912	37672320	24992
425	203.042176	128249856	93990912	49026928	24992
426	209.543273	132304896	98185216	72536216	24992
427	232.319694	128954368	94515200	55419288	24992
428	207.771073	133279744	99233792	68235664	24992
429	234.358812	131604480	97660928	38306464	24992
430	207.072948	131604480	97660928	52388808	24992
431	205.310638	133226496	98709504	78305816	24992
432	228.348446	119910400	85602304	41088576	24992
433	213.690215	120451072	86126592	56342744	24992
434	251.496947	121458688	87175168	51638200	24992
435	212.921615	135516160	101855232	67849072	24992
436	245.363512	131690496	100282368	41553488	24992
437	213.10101	134119424	100282368	57184656	24992
438	215.217259	135741440	101330944	75325048	24992
439	236.953268	124903424	90845184	38744928	24992
440	215.812277	125173760	90845184	57411200	24992
441	243.492307	120332288	86126592	33064552	24992
442	216.770603	120332288	86126592	52706592	24992
443	241.668373	122540032	88223744	40906824	24992
444	218.728682	122540032	88223744	61902128	24992
445	247.122827	123056128	88748032	38968856	24992
446	219.02294	123056128	88748032	60575752	24992
447	251.511289	126849024	92418048	38459184	24992
448	220.716782	126849024	92418048	61054784	24992
449	251.133379	120983552	86650880	39292624	24992
450	224.619915	120983552	86650880	63047200	24992
451	254.070453	123641856	89272320	42840024	24992
452	230.686447	123641856	89272320	55981480	24992
453	253.248422	122531840	88223744	35877152	24992
454	224.732077	122531840	88223744	61621792	24992
455	255.313111	123101184	88748032	43175408	24992
456	228.922841	123101184	88748032	58252424	24992
457	278.978966	125214720	90845184	62859944	24992
458	234.807672	140353536	106049536	79032304	24992
459	276.580578	136605696	105000960	35192784	24992
460	231.479426	138493952	105000960	62599832	24992
461	240.423581	142278656	108146688	81135432	24992
462	262.640309	127270912	92942336	39597656	24992
463	238.060495	127270912	92942336	58357944	24992
464	286.88272	125280256	90845184	54625328	24992
465	238.360433	140959744	107098112	85976592	24992
466	280.456706	138006528	106049536	44469072	24992
467	246.099245	139894784	106049536	63630616	24992
468	244.571371	142868480	108670976	84930944	24992
469	271.394741	125140992	90845184	36003552	24992
470	291.638696	121561088	89272320	36595416	24992
471	258.853656	124260352	89796608	58014112	24992
472	251.43429	145076224	110768128	81849040	24992
473	270.341374	121561088	87175168	44573696	24992
474	291.163333	128049152	93990912	57427104	24992
475	254.630124	126578688	92418048	58290072	24992
476	252.574424	145772544	111816704	84471312	24992
477	274.649625	120336384	86126592	36713112	24992
478	296.406819	122122240	89796608	40697912	24992
479	248.825733	124821504	90320896	66338464	24992
480	260.78538	146989056	112865280	82316808	24992
481	300.566139	142581760	108146688	62119656	24992
482	256.49393	145555456	111292416	90902808	24992
483	286.801356	128335872	93990912	43799960	24992
484	261.870031	128335872	93990912	62013112	24992
485	282.951213	125906944	91369472	43635480	24992
486	283.20379	129421312	95039488	62857448	24992
487	294.512666	130539520	96612352	58506376	24992
488	261.731843	147570688	113389568	90392096	24992
489	284.164835	124764160	90320896	45734776	24992
490	308.867042	121143296	88748032	43625504	24992
491	268.111639	126545920	92418048	64023640	24992
492	284.603132	150876160	117059584	87620672	24992
493	306.688376	141668352	107098112	60248768	24992
494	271.300481	151130112	117059584	83815088	24992
495	290.505432	123990016	89796608	41259808	24992
496	313.956524	122519552	88223744	40533240	24992
497	272.814472	127385600	93466624	66024416	24992
498	321.45739	136151040	103952384	42129216	24992
499	273.851287	138039296	103952384	67220832	24992
500	279.195966	151556096	117059584	94096048	24992
