x	Duration	RSS	HeapTotal	HeapUsed	External
0	NA	133361664	100282368	37024008	24992
1	0.344764	133361664	100282368	37075304	24992
2	0.246476	133361664	100282368	37151640	24992
3	0.27862	133361664	100282368	37254928	24992
4	0.332849	133361664	100282368	37386712	24992
5	0.396029	133361664	100282368	37548488	24992
6	0.454849	133361664	100282368	37740680	24992
7	0.520999	133361664	100282368	37964288	24992
8	0.609684	133361664	100282368	38220312	24992
9	0.682124	133361664	100282368	38510664	24992
10	0.741359	133361664	100282368	38836000	24992
11	0.810761	133361664	100282368	39197232	24992
12	1.102028	133361664	100282368	39595344	24992
13	0.751013	133361664	100282368	40031408	24992
14	0.770156	133361664	100282368	40506264	24992
15	0.831411	133361664	100282368	41020968	24992
16	0.90503	133361664	100282368	41576392	24992
17	1.019831	133361664	100282368	42175424	24992
18	1.046692	133361664	100282368	42817256	24992
19	1.100786	133361664	100282368	43503880	24992
20	1.232731	133361664	100282368	44235088	24992
21	1.25794	133361664	100282368	45012328	24992
22	1.317562	133361664	100282368	45836528	24992
23	1.572899	133361664	100282368	46708784	24992
24	1.464236	133361664	100282368	47631056	24992
25	1.767576	133361664	100282368	48606672	24992
26	1.628848	133361664	100282368	49632024	24992
27	1.698317	133361664	100282368	50710296	24992
28	5.896774	133898240	100282368	37785168	24992
29	2.204317	135249920	100282368	38972176	24992
30	2.028373	135249920	100282368	40215096	24992
31	2.039317	135249920	100282368	41514808	24992
32	2.145994	135249920	100282368	42875104	24992
33	2.400048	135249920	100282368	44298664	24992
34	2.329497	135249920	100282368	45782080	24992
35	2.431048	135249920	100282368	47326536	24992
36	2.522227	135249920	100282368	48932592	24992
37	2.621266	135249920	100282368	50601464	24992
38	2.901071	135249920	100282368	52334344	24992
39	4.239334	135249920	100282368	38035248	24992
40	3.165312	135249920	100282368	39898184	24992
41	3.434617	135249920	100282368	41827912	24992
42	4.099728	135249920	100282368	43826792	24992
43	3.331757	135249920	100282368	45902392	24992
44	3.337809	135249920	100282368	48037952	24992
45	3.595873	135249920	100282368	50245272	24992
46	3.506665	135249920	100282368	52524288	24992
47	5.101259	135249920	100282368	38914136	24992
48	3.938843	135249920	100282368	41340296	24992
49	3.96614	135249920	100282368	43842672	24992
50	4.022509	135249920	100282368	46422920	24992
51	4.467018	135249920	100282368	49083032	24992
52	4.223944	135249920	100282368	51822952	24992
53	6.058747	135249920	100282368	39072352	24992
54	4.938624	135249920	100282368	41976736	24992
55	4.815181	135249920	100282368	44962856	24992
56	4.730365	135249920	100282368	48032984	24992
57	4.823295	135249920	100282368	51189672	24992
58	5.164822	135249920	100282368	54430984	24992
59	7.020794	135249920	100282368	41966936	24992
60	5.723603	135249920	100282368	45383064	24992
61	5.840049	135249920	100282368	48888464	24992
62	5.885223	135249920	100282368	52483400	24992
63	8.820221	135249920	100282368	40647704	24992
64	6.021824	135249920	100282368	44425960	24992
65	6.175651	135249920	100282368	48304920	24992
66	6.107604	135249920	100282368	52277472	24992
67	8.485935	135249920	100282368	40843008	24992
68	6.754028	135249920	100282368	45006736	24992
69	6.782064	135249920	100282368	49266592	24992
70	6.803427	135249920	100282368	53627296	24992
71	8.565123	135249920	100282368	42436792	24992
72	7.258702	135249920	100282368	46994504	24992
73	7.365956	135249920	100282368	51655520	24992
74	7.31968	135249920	100282368	56413488	24992
75	9.102485	135249920	100282368	45355872	24992
76	8.240578	135249920	100282368	50327768	24992
77	7.802378	135249920	100282368	55396992	24992
78	9.980775	135249920	100282368	44731368	24992
79	8.109378	135249920	100282368	50012320	24992
80	9.100914	135249920	100282368	55410896	24992
81	10.168532	135249920	100282368	45114296	24992
82	9.888516	135249920	100282368	50728808	24992
83	8.973334	135249920	100282368	56447992	24992
84	10.851617	135249920	100282368	46382168	24992
85	9.33809	135249920	100282368	52325616	24992
86	9.30697	135249920	100282368	58384680	24992
87	11.342056	135249920	100282368	48591160	24992
88	9.67146	135249920	100282368	54884088	24992
89	12.102082	135249920	100282368	45761320	24992
90	10.345435	135249920	100282368	52289632	24992
91	10.261265	135249920	100282368	58934400	24992
92	12.517214	135249920	100282368	49806120	24992
93	10.86083	135249920	100282368	56692944	24992
94	13.204743	135249920	100282368	48036032	24992
95	11.217452	135249920	100282368	55168392	24992
96	13.874297	135249920	100282368	47046064	24992
97	11.959281	135249920	100282368	54428608	24992
98	14.382145	135249920	100282368	46661872	24992
99	12.217343	135249920	100282368	54298296	24992
100	14.726582	135249920	100282368	46898608	24992
101	13.226684	135249920	100282368	54802552	24992
102	16.482108	135249920	100282368	47657608	24992
103	12.903612	135249920	100282368	55819760	24992
104	15.267804	135249920	100282368	48814360	24992
105	13.390238	135249920	100282368	57249864	24992
106	15.5406	135249920	100282368	50349208	24992
107	13.60932	135249920	100282368	59063120	24992
108	16.118423	135249920	100282368	52220904	24992
109	14.115066	135249920	100282368	61215456	24992
110	16.333874	135249920	100282368	54402784	24992
111	17.898431	135249920	100282368	48761368	24992
112	15.026882	135249920	100282368	58184208	24992
113	17.144978	135249920	100282368	52269984	24992
114	15.208854	135249920	100282368	61983920	24992
115	18.280739	135249920	100282368	55929112	24992
116	18.527196	135249920	100282368	50938136	24992
117	16.044979	135249920	100282368	61100336	24992
118	18.485147	135249920	100282368	55622760	24992
119	19.922419	135249920	100282368	51246016	24992
120	16.653058	135249920	100282368	61857232	24992
121	19.485074	135249920	100282368	56814872	24992
122	21.047568	135249920	100282368	52812976	24992
123	17.635841	135249920	100282368	63884536	24992
124	20.361014	135249920	100282368	59092056	24992
125	20.840391	135249920	100282368	55275440	24992
126	21.541178	135249920	100282368	52187400	24992
127	18.504616	135249920	100282368	63895264	24992
128	21.739999	135249920	100282368	59862512	24992
129	22.018213	135249920	100282368	56723632	24992
130	22.60099	135249920	100282368	54210600	24992
131	19.7739	135249920	100282368	66572296	24992
132	22.957231	135249920	100282368	63035032	24992
133	22.933458	135249920	100282368	60183064	24992
134	23.968349	135249920	100282368	57951400	24992
135	24.262135	135249920	100282368	56256400	24992
136	25.264198	135249920	100282368	55061656	24992
137	21.254579	135249920	100282368	68418088	24992
138	24.099034	135249920	100282368	65872376	24992
139	24.322356	135249920	100282368	63799760	24992
140	25.339417	135249920	100282368	62243232	24992
141	25.949443	135249920	100282368	61091808	24992
142	26.260612	135249920	100282368	60350480	24992
143	26.584415	135249920	100282368	59976936	24992
144	27.075777	135249920	100282368	59873816	24992
145	27.245386	135249920	100282368	60012088	24992
146	28.172352	135249920	100282368	60354448	24992
147	28.232541	135249920	100282368	60859216	24992
148	28.461658	135249920	100282368	61505024	24992
149	28.495811	135249920	100282368	62274296	24992
150	29.340873	135249920	100282368	63128096	24992
151	29.639663	135249920	100282368	64069216	24992
152	29.439627	135249920	100282368	65080800	24992
153	29.24113	135249920	100282368	66157512	24992
154	29.423826	135249920	100282368	67286072	24992
155	30.254036	135249920	100282368	68443888	24992
156	29.763643	135249920	100282368	69645360	24992
157	30.044615	135249920	100282368	70887992	24992
158	30.656255	135249920	100282368	72151464	24992
159	30.715121	135249920	100282368	73459944	24992
160	31.444693	135249920	100282368	74867504	24992
161	37.038485	135249920	100282368	62663776	24992
162	33.848647	135249920	100282368	66245592	24992
163	33.029419	135249920	100282368	69526048	24992
164	32.70946	135249920	100282368	72476592	24992
165	32.712974	135249920	100282368	75169536	24992
166	39.475047	135249920	100282368	64180704	24992
167	35.627034	134553600	100282368	68784432	24992
168	34.553512	134553600	100282368	72912352	24992
169	34.632051	134553600	100282368	76571984	24992
170	41.228606	134553600	100282368	66363032	24992
171	37.422344	134553600	100282368	71527992	24992
172	35.822324	134553600	100282368	76175080	24992
173	42.471198	134823936	100282368	66901360	24992
174	40.110699	137527296	102903808	75448712	24992
175	37.215432	137797632	103428096	80756600	24992
176	43.088141	138338304	103952384	71899320	24992
177	39.496154	138338304	103952384	78133760	24992
178	38.228569	138878976	104476672	83725056	24992
179	44.101712	139149312	105000960	75028688	24992
180	39.201093	139419648	105000960	81671640	24992
181	45.469893	139960320	105525248	74046824	24992
182	43.496466	142934016	108670976	84272000	24992
183	46.455317	144015360	109719552	77664760	24992
184	44.726491	146718720	112865280	88323792	24992
185	48.458962	147800064	113389568	82039792	24992
186	71.118759	133500928	100282368	21846656	24992
187	43.720101	135929856	101855232	32223328	24992
188	41.218689	136740864	102903808	26329368	24992
189	42.389887	139444224	106049536	38031760	24992
190	41.657449	140255232	107622400	32210136	24992
191	42.858552	141336576	109195264	28045936	24992
192	43.673927	144039936	112340992	40314816	24992
193	42.411108	144310272	113389568	35242488	24992
194	48.608571	148905984	118632448	36016552	24992
195	43.658214	151609344	121253888	48847856	24992
196	44.028595	151879680	121253888	44252400	24992
197	48.982676	155664384	121253888	45834208	24992
198	45.385144	155664384	121253888	59442600	24992
199	45.610661	155664384	121253888	55484808	24992
200	46.057249	155664384	121253888	52606072	24992
201	51.450051	155664384	121253888	55030160	24992
202	70.955683	156475392	121778176	57619800	24992
203	60.269312	107671552	73019392	30100560	24992
204	49.57895	107671552	73019392	33038296	24992
205	51.068094	107671552	73019392	36140528	24992
206	53.447941	107671552	73019392	39514984	24992
207	53.101865	109834240	75640832	43103320	24992
208	54.490134	114425856	80359424	46969104	24992
209	53.077777	119021568	84553728	51024472	24992
210	54.045258	123617280	89272320	55368776	24992
211	59.042668	128212992	93990912	59946760	24992
212	72.821136	113119232	80359424	31547832	24992
213	54.795463	114737152	80359424	35419208	24992
214	55.449862	114737152	80359424	41161120	24992
215	51.820609	114737152	80359424	41206096	24992
216	51.995531	114737152	80359424	41738888	24992
217	52.942083	114737152	80359424	42497744	24992
218	53.438582	114737152	80359424	43456112	24992
219	52.764066	114737152	80359424	44597488	24992
220	52.739271	114737152	80359424	45759584	24992
221	54.517334	114737152	80359424	46872424	24992
222	58.480053	114737152	80359424	36477120	24992
223	61.489404	114737152	80359424	44163224	24992
224	60.886078	115818496	80883712	52171720	24992
225	61.569317	117710848	82980864	60419824	24992
226	73.54439	124739584	90320896	57340872	24992
227	85.320529	118804480	84029440	23402464	24992
228	60.682767	118804480	84029440	32454344	24992
229	60.796332	118804480	84029440	41645384	24992
230	68.218639	118804480	84029440	39470720	24992
231	64.51529	118804480	84029440	49175664	24992
232	62.141147	119345152	84553728	59162456	24992
233	69.22012	123129856	88223744	57820072	24992
234	93.811234	122064896	89796608	26552128	24992
235	64.422168	124493824	89796608	36395320	24992
236	69.456649	124493824	89796608	35964344	24992
237	64.783173	124493824	89796608	47446872	24992
238	72.582672	124493824	89796608	47578280	24992
239	66.488521	124764160	89796608	59596144	24992
240	71.717223	126386176	91369472	60315032	24992
241	78.011133	130711552	96612352	72883096	24992
242	91.519572	123944960	89796608	26001672	24992
243	67.180098	124215296	89796608	38954528	24992
244	71.7091	124215296	89796608	40651888	24992
245	73.241767	124215296	89796608	42604888	24992
246	68.67814	124215296	89796608	56423944	24992
247	74.530085	125296640	90320896	58982640	24992
248	102.501589	122408960	90320896	32717312	24992
249	74.561871	124837888	90320896	34866808	24992
250	75.479257	124837888	90320896	38240192	24992
251	73.066633	124837888	90320896	53697600	24992
252	76.296313	124837888	90320896	57828384	24992
253	77.41763	125378560	90320896	62220448	24992
254	84.092649	131325952	96612352	66863128	24992
255	95.093839	126918656	92418048	36585456	24992
256	79.099378	126918656	92418048	41860136	24992
257	79.754057	126918656	92418048	47347984	24992
258	80.786388	126918656	92418048	53086064	24992
259	80.019469	126918656	92418048	59129944	24992
260	85.987844	127459328	92418048	65448576	24992
261	106.848077	124657664	89796608	27675248	24992
262	82.298647	124657664	89796608	34595192	24992
263	84.481969	124657664	89796608	41853968	24992
264	83.718881	124657664	89796608	49565520	24992
265	82.472097	124657664	89796608	57556800	24992
266	110.64629	125751296	92942336	20504000	24992
267	86.718162	127639552	92942336	27875840	24992
268	85.809246	127639552	92942336	36680136	24992
269	85.579546	127639552	92942336	45749776	24992
270	87.071261	127639552	92942336	55128480	24992
271	90.013952	127909888	93466624	64820496	24992
272	119.507922	127238144	92418048	32710512	24992
273	87.640244	127238144	92418048	43181232	24992
274	87.72008	127238144	92418048	53920960	24992
275	92.929293	127238144	92418048	53410856	24992
276	88.163061	127238144	92418048	64839368	24992
277	102.906664	132104192	97136640	76535464	24992
278	110.893771	130293760	95563776	28769792	24992
279	89.061528	130293760	95563776	41142920	24992
280	90.51997	130293760	95563776	53809296	24992
281	96.020596	130293760	95563776	55136624	24992
282	99.404971	131915776	97136640	68460968	24992
283	113.810032	126808064	91893760	38007848	24992
284	96.94282	126808064	91893760	40113832	24992
285	92.093386	126808064	91893760	54220056	24992
286	95.986095	126808064	91893760	57010592	24992
287	104.849593	127619072	92942336	71752840	24992
288	119.809634	125292544	90320896	30577128	24992
289	95.679743	125292544	90320896	46055768	24992
290	101.356258	125292544	90320896	50321584	24992
291	101.062528	125292544	90320896	54929872	24992
292	125.613315	125960192	92942336	26031848	24992
293	99.050738	127848448	92942336	41884728	24992
294	101.680862	127848448	92942336	47881208	24992
295	106.198892	127848448	92942336	54223680	24992
296	111.910057	128389120	93466624	60858096	24992
297	127.190829	126877696	91893760	38573416	24992
298	104.593291	126877696	91893760	45284800	24992
299	105.702437	126877696	91893760	52351504	24992
300	109.958717	126877696	91893760	59803936	24992
301	125.962604	126025728	92942336	32616312	24992
302	107.953938	127913984	92942336	39560400	24992
303	108.248778	127913984	92942336	47958056	24992
304	109.522922	127913984	92942336	56785144	24992
305	115.887926	129536000	94515200	66356576	24992
306	135.904891	125296640	90320896	33568744	24992
307	109.80904	125296640	90320896	43404496	24992
308	110.634126	125296640	90320896	53576048	24992
309	110.899666	127188992	92418048	64091832	24992
310	137.218547	129134592	94515200	25308240	24992
311	112.508186	129404928	94515200	36765296	24992
312	115.559923	129404928	94515200	48416784	24992
313	115.860823	129404928	94515200	60936976	24992
314	142.749396	121978880	87175168	29832088	24992
315	113.886817	121978880	87175168	43270848	24992
316	118.935587	121978880	87175168	44935056	24992
317	116.4226	122249216	87175168	58454400	24992
318	152.837264	125415424	90845184	33606112	24992
319	117.7311	125415424	90845184	47661872	24992
320	116.008866	125415424	90845184	62058576	24992
321	122.731254	131092480	96088064	65166992	24992
322	142.043509	128487424	93990912	28024232	24992
323	117.487288	128757760	93990912	43759832	24992
324	124.581671	128757760	93990912	47968824	24992
325	119.931699	128757760	93990912	64373192	24992
326	147.884533	124252160	89272320	24577216	24992
327	121.832285	124252160	89272320	41660136	24992
328	125.902254	124252160	89272320	47480144	24992
329	130.562286	125333504	90320896	65349768	24992
330	151.191912	126734336	91893760	42949136	24992
331	129.416657	126734336	91893760	49762344	24992
332	126.453459	127004672	91893760	56911536	24992
333	135.258222	133222400	98709504	76021608	24992
334	148.500618	133091328	98185216	37479648	24992
335	126.206998	133361664	98185216	57398112	24992
336	132.161728	133361664	98185216	66098856	24992
337	162.163241	127135744	93990912	28946056	24992
338	129.608613	129024000	93990912	37012336	24992
339	131.721029	129024000	93990912	46800240	24992
340	127.304501	129294336	94515200	68527272	24992
341	160.937745	130039808	95039488	30878760	24992
342	135.449536	130039808	95039488	42135048	24992
343	138.932947	130039808	95039488	53761832	24992
344	144.466032	130580480	95563776	65589032	24992
345	166.786372	125300736	90320896	36617192	24992
346	136.136073	125300736	90320896	49134736	24992
347	138.021862	128274432	93466624	62628296	24992
348	169.167216	133005312	98185216	26098712	24992
349	139.58479	133005312	98185216	39949192	24992
350	140.292948	133005312	98185216	53953184	24992
351	145.504103	133816320	98709504	68285152	24992
352	169	125816832	90845184	41312008	24992
353	139.685621	125816832	90845184	56451912	24992
354	143.211846	127979520	93466624	72117696	24992
355	175.593054	131280896	96612352	26140504	24992
356	144.770954	131280896	96612352	42422880	24992
357	142.585774	131280896	96612352	59101584	24992
358	179.741738	124989440	91893760	33047144	24992
359	145.36386	126877696	91893760	49684848	24992
360	148.509315	126877696	91893760	56017528	24992
361	160.927977	130392064	95563776	74619720	24992
362	173.193448	132415488	97660928	49635048	24992
363	152.07109	132685824	97660928	57235224	24992
364	152.415624	133226496	98185216	65156680	24992
365	175.119212	129150976	94515200	32493696	24992
366	153.684147	129150976	94515200	41190384	24992
367	150.626318	129150976	94515200	61911520	24992
368	182.462049	127488000	92418048	27353656	24992
369	153.735923	127488000	92418048	48835696	24992
370	156.676651	127488000	92418048	59230872	24992
371	181.682728	126214144	91369472	36157496	24992
372	157.293022	126214144	91369472	47531152	24992
373	157.341297	126214144	91369472	59112720	24992
374	183.332599	126750720	91893760	36978784	24992
375	158.310279	126750720	91893760	49623360	24992
376	161.8451	126750720	91893760	62480664	24992
377	188.972236	127557632	92418048	29264792	24992
378	162.356827	127557632	92418048	42912816	24992
379	162.48779	127557632	92418048	57204880	24992
380	186.88376	127225856	92418048	37701408	24992
381	163.427839	127225856	92418048	52638488	24992
382	174.877185	128577536	93466624	56511768	24992
383	195.586685	123334656	88748032	47556232	24992
384	164.424962	124145664	89272320	63773160	24992
385	167.831448	136851456	101855232	80367720	24992
386	191.3913	123289600	88223744	31997416	24992
387	166.427118	123289600	88223744	49512104	24992
388	205.644631	121819136	87175168	28080880	24992
389	169.144657	121819136	87175168	46437064	24992
390	169.825835	124522496	89796608	65219104	24992
391	199.469672	124108800	89796608	36364920	24992
392	176.303285	124108800	89796608	44359088	24992
393	172.426016	126001152	90845184	64421640	24992
394	213.727958	126574592	91369472	46621768	24992
395	172.10582	126574592	91369472	67553064	24992
396	216.240504	141443072	106573824	77365480	24992
397	237.883351	123727872	88748032	33918888	24992
398	177.506721	123998208	88748032	44587104	24992
399	205.084861	121438208	88223744	39098072	24992
400	181.030039	123326464	88223744	50334512	24992
401	182.623356	127922176	92942336	62324568	24992
402	208.340307	127143936	92942336	36726664	24992
403	183.263872	127143936	92942336	49490256	24992
404	186.962602	129847296	95039488	62828608	24992
405	216.554992	126550016	91369472	50112656	24992
406	184.402286	128712704	93990912	64311720	24992
407	194.503898	145203200	110768128	79079360	24992
408	214.944132	136425472	101330944	55518904	24992
409	187.414895	136425472	101330944	71178120	24992
410	206.475375	144535552	109719552	87210416	24992
411	210.909044	133304320	98185216	52559840	24992
412	189.41441	133304320	98185216	69396216	24992
413	227.157009	134053888	100806656	36598304	24992
414	190.062438	135942144	100806656	52950960	24992
415	191.726742	135942144	100806656	71189256	24992
416	225.489766	134135808	99233792	37337944	24992
417	195.440424	134135808	99233792	56742624	24992
418	199.739546	134406144	99233792	65027632	24992
419	234.524547	132255744	97136640	55807120	24992
420	198.627443	132796416	97660928	64885976	24992
421	200.071991	149016576	113913856	85974904	24992
422	236.731511	143765504	108670976	54434808	24992
423	203.8999	143765504	108670976	64862216	24992
424	214.335885	149983232	114962432	87463112	24992
425	224.846991	137555968	102379520	57283632	24992
426	202.335002	137555968	102379520	69521832	24992
427	237.258064	137658368	102903808	39018016	24992
428	208.510909	137658368	102903808	52149568	24992
429	201.060534	137658368	102903808	77063368	24992
430	226.850771	126423040	91369472	39173432	24992
431	218.128333	128315392	93466624	53471464	24992
432	244.697315	121978880	87175168	59737568	24992
433	212.662123	134144000	99233792	75050304	24992
434	251.004121	132276224	99233792	36670312	24992
435	210.868126	134164480	99233792	51280416	24992
436	211.316353	137138176	102379520	67999280	24992
437	236.760882	126775296	91893760	40462984	24992
438	213.279876	126775296	91893760	58121080	24992
439	252.678875	128487424	93466624	32746984	24992
440	212.893669	128487424	93466624	51522920	24992
441	218.029828	137949184	102903808	70707744	24992
442	256.354446	135921664	100806656	59106384	24992
443	216.682636	136462336	101330944	79270440	24992
444	257.897069	137105408	103952384	43692552	24992
445	220.359662	138993664	103952384	51667944	24992
446	217.917957	139264000	104476672	73284624	24992
447	243.681727	127393792	92418048	38956472	24992
448	222.914231	127664128	92418048	61695608	24992
449	273.997053	125325312	90320896	51663456	24992
450	224.306478	139382784	104476672	75411872	24992
451	263.465403	134795264	101855232	41368496	24992
452	286.189541	136683520	101855232	53136704	24992
453	226.997713	140738560	106049536	79198456	24992
454	252.080927	124227584	89272320	36419432	24992
455	235.227968	125849600	90845184	63397840	24992
456	275.072709	123838464	88748032	56398392	24992
457	229.784453	139788288	105000960	83625280	24992
458	267.260654	131989504	97136640	38422808	24992
459	236.250173	131989504	97136640	54963752	24992
460	273.572619	131416064	98185216	39167792	24992
461	234.061807	133304320	98185216	55733848	24992
462	235.317326	141414400	106573824	85538208	24992
463	260.906239	122253312	87175168	35475312	24992
464	274.281316	127660032	92942336	54838728	24992
465	245.432158	124542976	89272320	63254632	24992
466	245.238084	143196160	108670976	83779824	24992
467	268.489764	123514880	88748032	44326776	24992
468	249.569814	124866560	89796608	66235352	24992
469	286.009806	125431808	90320896	64819224	24992
470	246.164393	143273984	108146688	87178712	24992
471	276.863306	129163264	93990912	36437248	24992
472	247.39361	129163264	93990912	59816248	24992
473	273.608687	127574016	92418048	36893664	24992
474	245.555622	127574016	92418048	61376080	24992
475	274.70124	126103552	90845184	39084432	24992
476	257.102184	126644224	91893760	64648312	24992
477	292.717929	126889984	91893760	66915368	24992
478	260.279283	147165184	112340992	82674832	24992
479	276.757514	130101248	95039488	46167000	24992
480	259.274973	130101248	95039488	62104728	24992
481	308.840208	128364544	93466624	57354368	24992
482	256.473564	147288064	112340992	86070256	24992
483	286.562714	131743744	96612352	38704488	24992
484	256.734316	131743744	96612352	68524152	24992
485	285.305122	127033344	91893760	38530392	24992
486	261.368094	127033344	91893760	69448232	24992
487	311.977536	127377408	92418048	68966768	24992
488	264.401991	148733952	113913856	89356552	24992
489	291.781195	131735552	96612352	44675408	24992
490	270.495262	133087232	98185216	66136568	24992
491	308.872511	129454080	94515200	65563056	24992
492	271.484761	150269952	115486720	88044440	24992
493	285.738595	125399040	90320896	45448568	24992
494	309.52469	124497920	89796608	43298224	24992
495	271.173122	127471616	92418048	67677496	24992
496	317.210033	137396224	105000960	42631688	24992
497	269.002146	139554816	105000960	66727128	24992
498	291.237103	151990272	117059584	92583904	24992
499	299.971571	137957376	102903808	68014208	24992
500	274.969311	151744512	116535296	94990568	24992
