x	Duration	RSS	HeapTotal	HeapUsed	External
0	NA	98332672	67252224	15995992	33184
1	0.360903	98332672	67252224	16048264	33184
2	0.308513	98332672	67252224	16116208	33184
3	0.185952	98332672	67252224	16218296	33184
4	0.181828	98332672	67252224	16308416	33184
5	0.191138	98332672	67252224	16403488	33184
6	0.195362	98332672	67252224	16504016	33184
7	0.201739	98332672	67252224	16609464	33184
8	0.208991	98332672	67252224	16719824	33184
9	0.217959	98332672	67252224	16835760	33184
10	0.225377	98332672	67252224	16957368	33184
11	0.232775	98332672	67252224	17083776	33184
12	0.241624	98332672	67252224	17215152	33184
13	0.261466	98332672	67252224	17351464	33184
14	0.259162	98332672	67252224	17492752	33184
15	0.726653	98332672	67252224	17638912	33184
16	0.28668	98332672	67252224	17789992	33184
17	0.291862	98332672	67252224	17946024	33184
18	0.293075	98332672	67252224	18106960	33184
19	0.188465	98332672	67252224	18279152	33184
20	0.165466	98332672	67252224	18452832	33184
21	0.170347	98332672	67252224	18632592	33184
22	0.172354	98332672	67252224	18818424	33184
23	0.177542	98332672	67252224	19009200	33184
24	0.177933	98332672	67252224	19204880	33184
25	0.182541	98332672	67252224	19405496	33184
26	0.185796	98332672	67252224	19611064	33184
27	0.190329	98332672	67252224	19821512	33184
28	0.234465	98332672	67252224	20037008	33184
29	0.291852	98332672	67252224	20257328	33184
30	0.228426	98332672	67252224	20484600	33184
31	0.206656	98332672	67252224	20715896	33184
32	0.233741	98332672	67252224	20952088	33184
33	0.220238	98332672	67252224	21193224	33184
34	0.21978	98332672	67252224	21439256	33184
35	0.245218	98332672	67252224	21692648	33184
36	0.234906	98332672	67252224	21948256	33184
37	0.223191	98332672	67252224	22208816	33184
38	0.224753	98332672	67252224	22474280	33184
39	0.227584	98332672	67252224	22744712	33184
40	0.230612	98332672	67252224	23020024	33184
41	0.234567	98332672	67252224	23300336	33184
42	0.239391	98332672	67252224	23585504	33184
43	0.43104	98332672	67252224	23875592	33184
44	0.256964	98332672	67252224	24172824	33184
45	0.253419	98332672	67252224	24479816	33184
46	0.255317	98332672	67252224	24792408	33184
47	0.257837	98332672	67252224	25109904	33184
48	0.261492	98332672	67252224	25432392	33184
49	0.265938	98332672	67252224	25759808	33184
50	0.284746	98332672	67252224	26092096	33184
51	0.30408	98332672	67252224	26429320	33184
52	0.283208	98332672	67252224	26771512	33184
53	0.283882	98332672	67252224	27118584	33184
54	0.286588	98332672	67252224	27471040	33184
55	0.495091	98332672	67252224	27827992	33184
56	0.292885	98332672	67252224	28191944	33184
57	0.294772	98332672	67252224	28560840	33184
58	0.301164	98332672	67252224	28934688	33184
59	0.302706	98332672	67252224	29313416	33184
60	0.306857	98332672	67252224	29697112	33184
61	0.632535	98332672	67252224	30085736	33184
62	0.316753	98332672	67252224	30479280	33184
63	0.318557	98332672	67252224	30896864	33184
64	0.314831	98332672	67252224	31300304	33184
65	0.321314	98332672	67252224	31708616	33184
66	0.363827	98332672	67252224	32121832	33184
67	1.164964	98332672	67252224	16413768	33184
68	0.363243	98332672	67252224	16836864	33184
69	0.368061	98332672	67252224	17264896	33184
70	0.413251	98332672	67252224	17697816	33184
71	0.378034	98332672	67252224	18135664	33184
72	0.347679	98332672	67252224	18578488	33184
73	0.351113	98332672	67252224	19026192	33184
74	0.353763	98332672	67252224	19478888	33184
75	0.543364	98332672	67252224	19936520	33184
76	0.363187	98332672	67252224	20401128	33184
77	0.363971	98332672	67252224	20870736	33184
78	0.366445	98332672	67252224	21345176	33184
79	0.369321	98332672	67252224	21824552	33184
80	0.432407	98332672	67252224	22309088	33184
81	0.38936	98332672	67252224	22799424	33184
82	0.386418	98332672	67252224	23293488	33184
83	0.388596	98332672	67252224	23792632	33184
84	0.391785	98332672	67252224	24301168	33184
85	0.396233	98332672	67252224	24815728	33184
86	0.428089	98332672	67252224	25335192	33184
87	0.399522	98332672	67252224	25859640	33184
88	0.40413	98332672	67252224	26388976	33184
89	0.611195	98332672	67252224	26924808	33184
90	0.414906	98332672	67252224	27464024	33184
91	0.416911	98332672	67252224	28012384	33184
92	0.422962	98332672	67252224	28569864	33184
93	0.463139	98332672	67252224	29132280	33184
94	0.429502	98332672	67252224	29699592	33184
95	0.433486	98332672	67252224	30273824	33184
96	0.43791	98332672	67252224	30850984	33184
97	0.463132	98332672	67252224	31433104	33184
98	0.445077	98332672	67252224	32020136	33184
99	0.471229	98332672	67252224	32612096	33184
100	0.462901	98332672	67252224	16980304	33184
101	0.482018	98332672	67252224	17582096	33184
102	0.461113	98332672	67252224	18188920	33184
103	0.463343	98332672	67252224	18800608	33184
104	0.46557	98332672	67252224	19417232	33184
105	0.487379	98332672	67252224	20038920	33184
106	0.472674	98332672	67252224	20665416	33184
107	0.477381	98332672	67252224	21296864	33184
108	0.476669	98332672	67252224	21933192	33184
109	0.486496	98332672	67252224	22574520	33184
110	0.489817	98332672	67252224	23220816	33184
111	0.492734	98332672	67252224	23871952	33184
112	0.668916	98332672	67252224	24527992	33184
113	0.501589	98332672	67252224	25188984	33184
114	0.501331	98332672	67252224	25855536	33184
115	0.505803	98332672	67252224	26528272	33184
116	0.512052	98332672	67252224	27204088	33184
117	0.515764	98332672	67252224	27884896	33184
118	0.5188	98332672	67252224	28570544	33184
119	0.521376	98332672	67252224	29261144	33184
120	0.717594	98332672	67252224	29956656	33184
121	0.530939	98332672	67252224	30657216	33184
122	0.528645	98332672	67252224	31362576	33184
123	0.55773	98332672	67252224	32073192	33184
124	0.538114	98332672	67252224	32788456	33184
125	0.554071	98332672	67252224	17190056	33184
126	0.548414	98332672	67252224	17915176	33184
127	0.55152	98332672	67252224	18645232	33184
128	0.553362	98332672	67252224	19384392	33184
129	0.561816	98332672	67252224	20128536	33184
130	0.562002	98332672	67252224	20878392	33184
131	0.565153	98332672	67252224	21632384	33184
132	0.627154	98332672	67252224	22391536	33184
133	0.572727	98332672	67252224	23155368	33184
134	0.577227	98332672	67252224	23924168	33184
135	0.588086	98332672	67252224	24697792	33184
136	0.584125	98332672	67252224	25476360	33184
137	0.588362	98332672	67252224	26259888	33184
138	0.590856	98332672	67252224	27049184	33184
139	0.5943	98332672	67252224	27842544	33184
140	0.599302	98332672	67252224	28640904	33184
141	0.599724	98332672	67252224	29444192	33184
142	0.612523	98332672	67252224	30259776	33184
143	0.6133	98332672	67252224	31082008	33184
144	0.611508	98332672	67252224	31909232	33184
145	0.62087	98332672	67252224	32743360	33184
146	0.636578	98332672	67252224	17259496	33184
147	0.637593	98332672	67252224	18102144	33184
148	0.628707	98332672	67252224	18949104	33184
149	0.632891	98332672	67252224	19800952	33184
150	0.846855	98332672	67252224	20657728	33184
151	0.643409	98332672	67252224	21519464	33184
152	0.641303	98332672	67252224	22386160	33184
153	0.647033	98332672	67252224	23257704	33184
154	0.648744	98332672	67252224	24134288	33184
155	0.655214	98332672	67252224	25015800	33184
156	0.658527	98332672	67252224	25902144	33184
157	0.667113	98332672	67252224	26793552	33184
158	0.665798	98332672	67252224	27689832	33184
159	0.669282	98332672	67252224	28591064	33184
160	0.672815	98332672	67252224	29497360	33184
161	0.685298	98332672	67252224	30408496	33184
162	0.682855	98332672	67252224	31324448	33184
163	0.686362	98332672	67252224	32245360	33184
164	0.700333	98332672	67252224	16794264	33184
165	0.73796	98332672	67252224	17725024	33184
166	0.914513	98332672	67252224	18664888	33184
167	0.703479	98332672	67252224	19609712	33184
168	0.706862	98332672	67252224	20559576	33184
169	0.710869	98332672	67252224	21514328	33184
170	0.709892	98332672	67252224	22473888	33184
171	0.721577	98332672	67252224	23438360	33184
172	0.719093	98332672	67252224	24407840	33184
173	0.723057	98332672	67252224	25382256	33184
174	0.793416	98332672	67252224	26364376	33184
175	0.731642	98332672	67252224	27348608	33184
176	0.744175	98332672	67252224	28337752	33184
177	0.735017	98332672	67252224	29331800	33184
178	0.740358	98332672	67252224	30330848	33184
179	0.746831	98332672	67252224	31334872	33184
180	0.748303	98332672	67252224	32352120	33184
181	1.211407	98332672	67252224	17054032	33184
182	0.804049	98332672	67252224	18093392	33184
183	0.800153	98332672	67252224	19134144	33184
184	0.764836	98332672	67252224	20179408	33184
185	0.766608	98332672	67252224	21229632	33184
186	0.769457	98332672	67252224	22284744	33184
187	0.775997	98332672	67252224	23344840	33184
188	0.837774	98332672	67252224	24409944	33184
189	0.781861	98332672	67252224	25479872	33184
190	0.784733	98332672	67252224	26554832	33184
191	0.788005	98332672	67252224	27635576	33184
192	0.791888	98332672	67252224	28723744	33184
193	0.930721	98332672	67252224	29814192	33184
194	0.802144	98332672	67252224	30908744	33184
195	1.011918	98332672	67252224	32008232	33184
196	0.806533	98332672	67252224	33112648	33184
197	0.880827	98332672	67252224	17862288	33184
198	0.869211	98332672	67252224	18976648	33184
199	0.883484	98332672	67252224	20095896	33184
200	0.875965	98332672	67252224	21220024	33184
201	1.059231	98332672	67252224	22349080	33184
202	1.024755	98332672	67252224	23483088	33184
203	0.841272	98332672	67252224	24622008	33184
204	0.838118	98332672	67252224	25765936	33184
205	0.846724	98332672	67252224	26914720	33184
206	0.844955	98332672	67252224	28070160	33184
207	0.85043	98332672	67252224	29228888	33184
208	0.852672	98332672	67252224	30392552	33184
209	0.860368	98332672	67252224	31561048	33184
210	0.877341	98332672	67252224	32736032	33184
211	1.263745	98332672	67252224	17544736	33184
212	0.877771	98332672	67252224	18728048	33184
213	0.87047	98332672	67252224	19916360	33184
214	0.874517	98332672	67252224	21111560	33184
215	0.87927	98332672	67252224	22309704	33184
216	0.905407	98332672	67252224	23512728	33184
217	0.885495	98332672	67252224	24720808	33184
218	0.954697	98332672	67252224	25933776	33184
219	0.896747	98332672	67252224	27152128	33184
220	1.097794	98332672	67252224	28374896	33184
221	0.901527	98332672	67252224	29602576	33184
222	0.957751	98332672	67252224	30835232	33184
223	0.910609	98332672	67252224	32072768	33184
224	0.920118	98332672	67252224	33315272	33184
225	0.973257	98332672	67252224	18195200	33184
226	0.928104	98332672	67252224	19447512	33184
227	0.923358	98332672	67252224	20704928	33184
228	0.928147	98332672	67252224	21967208	33184
229	0.931523	98332672	67252224	23245912	33184
230	0.936447	98332672	67252224	24533256	33184
231	0.940401	98332672	67252224	25824680	33184
232	0.940476	98332672	67252224	27122072	33184
233	0.945048	98332672	67252224	28423352	33184
234	0.952683	98332672	67252224	29729560	33184
235	0.958603	98332672	67252224	31041576	33184
236	0.955573	98332672	67252224	32357624	33184
237	1.533613	98332672	67252224	17359952	33184
238	0.968889	98332672	67252224	18685904	33184
239	0.976678	98332672	67252224	20016776	33184
240	0.976308	98332672	67252224	21352600	33184
241	0.98535	98332672	67252224	22693328	33184
242	0.990175	98332672	67252224	24038944	33184
243	1.018166	98332672	67252224	25390296	33184
244	0.987907	98332672	67252224	26745832	33184
245	0.99296	98332672	67252224	28106328	33184
246	0.993882	98332672	67252224	29471808	33184
247	0.998835	98332672	67252224	30842080	33184
248	1.024633	98332672	67252224	32217400	33184
249	1.398647	98332672	67252224	17299064	33184
250	1.04209	98332672	67252224	18684144	33184
251	1.015524	98332672	67252224	20074224	33184
252	1.019783	98332672	67252224	21469280	33184
253	1.022231	98332672	67252224	22869328	33184
254	1.030138	98332672	67252224	24274160	33184
255	1.034726	98332672	67252224	25683888	33184
256	1.029305	98332672	67252224	27098600	33184
257	1.103952	98332672	67252224	28518424	33184
258	1.042844	98332672	67252224	29942936	33184
259	1.283609	98332672	67252224	31372432	33184
260	1.048403	98332672	67252224	32809576	33184
261	1.404281	98332672	67252224	17883696	33184
262	1.072936	98332672	67252224	19328048	33184
263	1.067397	98332672	67252224	20777328	33184
264	1.067864	98332672	67252224	22231544	33184
265	1.064798	98332672	67252224	23690720	33184
266	1.071501	98332672	67252224	25155696	33184
267	1.09535	98332672	67252224	26624736	33184
268	1.076044	98332672	67252224	28098616	33184
269	1.30158	98332672	67252224	29585728	33184
270	1.087371	98332672	67252224	31077768	33184
271	1.090936	98332672	67252224	32574688	33184
272	1.525798	98332672	67252224	17731016	33184
273	1.156858	98332672	67252224	19237808	33184
274	1.127533	98332672	67252224	20749480	33184
275	1.108883	98332672	67252224	22266128	33184
276	1.109067	98332672	67252224	23787736	33184
277	1.118898	98332672	67252224	25318056	33184
278	1.114358	98332672	67252224	26849528	33184
279	1.134656	98332672	67252224	28385944	33184
280	1.506555	98332672	67252224	29929304	33184
281	1.138224	98332672	67252224	31475608	33184
282	1.134589	98332672	67252224	33026848	33184
283	1.166809	98332672	67252224	18286528	33184
284	1.138505	98332672	67252224	19847712	33184
285	1.151949	98332672	67252224	21413680	33184
286	1.142982	98332672	67252224	22984720	33184
287	1.152412	98332672	67252224	24560584	33184
288	1.378799	98332672	67252224	26141272	33184
289	1.154525	98332672	67252224	27726992	33184
290	1.161098	98332672	67252224	29318080	33184
291	1.37621	98332672	67252224	30913632	33184
292	1.171555	98332672	67252224	32514152	33184
293	1.585054	98332672	67252224	17802888	33184
294	1.245102	98332672	67252224	19418200	33184
295	1.238592	98332672	67252224	21033512	33184
296	1.245539	98332672	67252224	22660368	33184
297	1.463431	98332672	67252224	24286736	33184
298	1.199517	98332672	67252224	25916816	33184
299	1.197816	98332672	67252224	27551944	33184
300	1.208415	98332672	67252224	29191952	33184
301	1.197303	98332672	67252224	30837016	33184
302	1.208499	98332672	67252224	32492904	33184
303	1.603394	98332672	67252224	17842504	33184
304	1.2676	98332672	67252224	19502200	33184
305	1.277835	98332672	67252224	21166856	33184
306	1.474986	98332672	67252224	22836392	33184
307	1.226049	98332672	67252224	24510896	33184
308	1.245234	98332672	67252224	26191312	33184
309	1.242539	98332672	67252224	27877752	33184
310	1.579969	98332672	67252224	29567880	33184
311	1.24058	98332672	67252224	31262024	33184
312	1.24572	98332672	67252224	32961184	33184
313	1.611389	98332672	67252224	18283488	33184
314	1.252371	98332672	67252224	19992456	33184
315	1.255799	98332672	67252224	21706344	33184
316	1.27342	98332672	67252224	23432984	33184
317	1.279768	98332672	67252224	25156824	33184
318	1.419516	98332672	67252224	26886672	33184
319	1.509625	98332672	67252224	28623240	33184
320	1.281613	98332672	67252224	30361928	33184
321	1.281691	98332672	67252224	32105448	33184
322	1.279274	98332672	67252224	33853952	33184
323	1.506641	98603008	67252224	19242152	33184
324	1.287107	98603008	67252224	21000512	33184
325	1.297374	98603008	67252224	22763840	33184
326	1.308501	98603008	67252224	24532696	33184
327	1.2997	98603008	67252224	26305904	33184
328	1.312789	98603008	67252224	28084240	33184
329	1.306577	98603008	67252224	29867272	33184
330	1.365822	98603008	67252224	31655224	33184
331	1.318488	98603008	67252224	33448008	33184
332	1.328686	98603008	67252224	18947128	33184
333	1.373466	98603008	67252224	20749832	33184
334	1.552335	98603008	67252224	22563024	33184
335	1.329808	98603008	67252224	24375680	33184
336	1.330902	98603008	67252224	26193600	33184
337	1.410278	98603008	67252224	28016032	33184
338	1.405246	98603008	67252224	29843368	33184
339	1.347622	98603008	67252224	31675664	33184
340	1.420954	98603008	67252224	33512912	33184
341	1.35771	98603008	67252224	19043696	33184
342	1.411743	98603008	67252224	20890800	33184
343	1.571663	98603008	67252224	22742752	33184
344	1.372257	98603008	67252224	24613184	33184
345	1.374813	98603008	67252224	26483352	33184
346	1.379722	98603008	67252224	28358328	33184
347	1.393469	98603008	67252224	30241000	33184
348	1.380321	98603008	67252224	32125936	33184
349	1.389976	98603008	67252224	34015784	33184
350	1.390782	98603008	67252224	19525904	33184
351	1.616407	98603008	67252224	21425616	33184
352	1.39289	98603008	67252224	23330192	33184
353	1.405527	98603008	67252224	25246656	33184
354	1.40085	98603008	67252224	27161296	33184
355	1.627659	98603008	67252224	29080920	33184
356	1.419394	98603008	67252224	31005256	33184
357	1.410188	98603008	67252224	32935616	33184
358	1.790495	98603008	67252224	18535392	33184
359	1.430602	98603008	67252224	20507616	33184
360	1.487062	98603008	67252224	22502552	33184
361	1.467612	98603008	67252224	24506776	33184
362	1.475381	98603008	67252224	26516032	33184
363	1.443027	98603008	67252224	28530144	33184
364	1.439686	98603008	67252224	30549280	33184
365	1.509003	98603008	67252224	32581112	33184
366	2.021551	98603008	67252224	18295920	33184
367	1.455265	98603008	67252224	20329856	33184
368	1.459232	98603008	67252224	22368576	33184
369	1.465399	98603008	67252224	24412360	33184
370	1.484456	98603008	67252224	26460992	33184
371	1.705733	98603008	67252224	28517464	33184
372	1.469798	98603008	67252224	30577848	33184
373	1.474173	98603008	67252224	32642672	33184
374	1.882586	98603008	67252224	18387904	33184
375	1.558119	98603008	67252224	20461328	33184
376	1.568056	98603008	67252224	22539784	33184
377	1.760641	98603008	67252224	24623040	33184
378	1.573574	98603008	67252224	26711112	33184
379	1.500673	98603008	67252224	28804104	33184
380	1.504249	98603008	67252224	30902184	33184
381	1.503669	98603008	67252224	33005256	33184
382	1.851695	98603008	67252224	18764880	33184
383	1.524525	98603008	67252224	20880488	33184
384	1.522073	98603008	67252224	22998208	33184
385	1.527348	98603008	67252224	25120840	33184
386	1.529913	98603008	67252224	27248472	33184
387	1.52778	98603008	67252224	29381056	33184
388	1.750491	98603008	67252224	31518672	33184
389	1.550173	98603008	67252224	33661048	33184
390	1.558726	98603008	67252224	19505280	33184
391	1.547477	98603008	67252224	21657552	33184
392	1.547045	98603008	67252224	23814768	33184
393	1.548003	98603008	67252224	25976784	33184
394	1.547632	98603008	67252224	28155120	33184
395	1.849525	98603008	67252224	30327024	33184
396	1.569964	98603008	67252224	32503960	33184
397	1.94589	98603008	67252224	18409696	33184
398	1.576692	98603008	67252224	20596440	33184
399	1.574626	98603008	67252224	22788248	33184
400	1.57616	98603008	67252224	24984848	33184
401	1.585308	98603008	67252224	27192376	33184
402	1.585572	98603008	67252224	29398848	33184
403	1.593983	98603008	67252224	31610256	33184
404	1.600335	98603008	67252224	33826608	33184
405	1.831707	98603008	67252224	19725496	33184
406	1.607253	98603008	67252224	21951944	33184
407	1.600568	98603008	67252224	24183152	33184
408	1.608293	98603008	67252224	26419248	33184
409	1.614178	98603008	67252224	28664760	33184
410	1.614614	98603008	67252224	30910808	33184
411	1.625174	98603008	67252224	33161656	33184
412	1.953612	98603008	67252224	19033024	33184
413	1.635979	98603008	67252224	21293728	33184
414	1.63884	98603008	67252224	23566696	33184
415	1.635266	98603008	67252224	25837280	33184
416	1.635784	98603008	67252224	28112936	33184
417	1.642478	98603008	67252224	30398264	33184
418	1.648307	98603008	67252224	32683688	33184
419	2.005606	98603008	67252224	18662552	33184
420	1.654618	98603008	67252224	20960776	33184
421	1.657094	98603008	67252224	23261744	33184
422	1.671586	98603008	67252224	25566856	33184
423	1.673601	98603008	67252224	27882040	33184
424	1.683733	98603008	67252224	30196920	33184
425	1.68673	98603008	67252224	32525432	33184
426	2.333297	98603008	67252224	18585368	33184
427	1.768718	98603008	67252224	20915160	33184
428	1.939627	98603008	67252224	23249840	33184
429	1.704284	98603008	67252224	25589520	33184
430	1.694346	98603008	67252224	27939192	33184
431	1.693282	98603008	67252224	30288768	33184
432	1.697564	98603008	67252224	32643688	33184
433	2.062125	98603008	67252224	18694888	33184
434	1.708116	98603008	67252224	21059072	33184
435	1.714428	98603008	67252224	23428256	33184
436	1.706426	98603008	67252224	25804928	33184
437	1.717639	98603008	67252224	28184120	33184
438	1.982316	98603008	67252224	30571656	33184
439	1.728674	98603008	67252224	32966160	33184
440	2.065037	98603008	67252224	19024016	33184
441	1.761818	98603008	67252224	21422960	33184
442	1.743602	98603008	67252224	23830720	33184
443	2.027838	98603008	67252224	26239328	33184
444	2.008569	98603008	67252224	28656328	33184
445	1.757969	98603008	67252224	31080936	33184
446	1.764057	98603008	67252224	33504400	33184
447	2.032981	98603008	67252224	19679704	33184
448	1.76794	98603008	67252224	22112984	33184
449	1.774102	98603008	67252224	24559072	33184
450	1.766318	98603008	67252224	27004624	33184
451	1.770844	98603008	67252224	29452752	33184
452	1.775208	98603008	67252224	31905792	33184
453	1.780759	98603008	67252224	34363720	33184
454	1.797169	98603008	67252224	20491856	33184
455	1.783314	98603008	67252224	22959672	33184
456	1.787463	98603008	67252224	25433096	33184
457	1.793647	98603008	67252224	27912448	33184
458	1.804203	98603008	67252224	30395016	33184
459	1.804764	98603008	67252224	32885056	33184
460	2.18073	98603008	67252224	19047024	33184
461	1.811259	98603008	67252224	21544544	33184
462	1.870652	98603008	67252224	24047000	33184
463	1.822499	98603008	67252224	26555184	33184
464	1.841589	98603008	67252224	29069000	33184
465	1.821541	98603008	67252224	31586208	33184
466	1.824533	98603008	67252224	34108272	33184
467	1.919821	98603008	67252224	20314536	33184
468	1.931851	98603008	67252224	22847104	33184
469	1.931991	98603008	67252224	25383976	33184
470	1.932208	98603008	67252224	27925776	33184
471	2.120351	98603008	67252224	30472488	33184
472	1.90037	98603008	67252224	33024736	33184
473	2.19513	98603008	67252224	19256056	33184
474	2.110839	98603008	67252224	21817640	33184
475	1.925708	98603008	67252224	24384104	33184
476	1.872868	98603008	67252224	26955536	33184
477	1.95404	98603008	67252224	29531856	33184
478	1.893064	98603008	67252224	32113272	33184
479	2.299352	98603008	67252224	18488600	33184
480	1.887125	98603008	67252224	21079680	33184
481	1.893344	98603008	67252224	23675584	33184
482	1.894953	98603008	67252224	26276640	33184
483	1.925051	98603008	67252224	28884320	33184
484	1.90292	98603008	67252224	31495480	33184
485	1.894904	98603008	67252224	34111200	33184
486	1.901149	98603008	67252224	20430432	33184
487	1.901641	98603008	67252224	23060056	33184
488	1.904348	98603008	67252224	25694464	33184
489	1.920063	98603008	67252224	28332376	33184
490	1.925104	98603008	67252224	30972776	33184
491	1.934222	98603008	67252224	33618200	33184
492	1.949685	98603008	67252224	20030400	33184
493	1.933616	98603008	67252224	22686696	33184
494	2.163738	98603008	67252224	25346792	33184
495	1.94334	98603008	67252224	28011808	33184
496	1.948835	98603008	67252224	30682136	33184
497	1.954372	98603008	67252224	33357056	33184
498	2.32427	98603008	67252224	19658528	33184
499	1.959344	98603008	67252224	22345088	33184
500	1.959889	98603008	67252224	25039792	33184
501	1.956913	98603008	67252224	27734512	33184
502	1.95831	98603008	67252224	30435216	33184
503	1.963469	98603008	67252224	33139920	33184
504	2.310752	98603008	67252224	19529432	33184
505	1.983097	98603008	67252224	22244800	33184
506	1.989947	98603008	67252224	24966216	33184
507	1.996461	98603008	67252224	27695296	33184
508	2.212137	98603008	67252224	30424656	33184
509	1.996926	98603008	67252224	33158816	33184
510	2.335055	98603008	67252224	19577640	33184
511	2.001958	98603008	67252224	22321752	33184
512	2.010601	98603008	67252224	25070728	33184
513	2.00255	98603008	67252224	27824544	33184
514	2.012015	98603008	67252224	30583456	33184
515	2.005616	98603008	67252224	33347192	33184
516	2.535514	98603008	67252224	19749112	33184
517	2.06851	98603008	67252224	22522776	33184
518	2.033528	98603008	67252224	25301296	33184
519	2.247819	98603008	67252224	28084760	33184
520	2.027397	98603008	67252224	30873392	33184
521	2.081602	98603008	67252224	33674128	33184
522	2.12066	98603008	67252224	20247280	33184
523	2.124233	98603008	67252224	23053792	33184
524	2.280204	98603008	67252224	25861904	33184
525	2.107548	98603008	67252224	28674944	33184
526	2.066482	98603008	67252224	31492944	33184
527	2.274239	98603008	67252224	34315752	33184
528	2.066069	98603008	67252224	20842552	33184
529	2.074514	98603008	67252224	23675360	33184
530	2.064219	98603008	67252224	26523288	33184
531	2.094471	98603008	67252224	29368064	33184
532	2.29659	98603008	67252224	32217224	33184
533	2.507053	98603008	67252224	18857872	33184
534	2.173095	98603008	67252224	21715328	33184
535	2.097324	98603008	67252224	24581504	33184
536	2.090258	98603008	67252224	27453032	33184
537	2.109119	98603008	67252224	30325360	33184
538	2.114141	98603008	67252224	33203656	33184
539	2.510816	98603008	67252224	19773632	33184
540	2.351889	98603008	67252224	22663880	33184
541	2.266827	98603008	67252224	25556448	33184
542	2.123296	98603008	67252224	28455000	33184
543	2.128627	98603008	67252224	31356928	33184
544	2.127593	98603008	67252224	34264880	33184
545	2.145062	98603008	67252224	20905392	33184
546	2.142238	98603008	67252224	23822080	33184
547	2.132409	98603008	67252224	26743560	33184
548	2.14325	98603008	67252224	29671704	33184
549	2.155041	98603008	67252224	32603000	33184
550	2.81604	98603008	67252224	19325080	33184
551	2.235575	98603008	67252224	22271984	33184
552	2.233105	98603008	67252224	25234648	33184
553	2.274013	98603008	67252224	28217760	33184
554	2.182214	98603008	67252224	31190272	33184
555	2.398129	98603008	67252224	34168488	33184
556	2.175422	98603008	67252224	20960800	33184
557	2.171001	98603008	67252224	23982160	33184
558	2.19587	98603008	67252224	27008360	33184
559	2.18212	98603008	67252224	30046304	33184
560	2.195234	98603008	67252224	33082424	33184
561	2.523525	98603008	67252224	19822768	33184
562	2.187342	98603008	67252224	22880784	33184
563	2.196815	98603008	67252224	25931648	33184
564	2.28773	98603008	67252224	28988184	33184
565	2.436079	98603008	67252224	32049512	33184
566	2.629534	98603008	67252224	18944496	33184
567	2.210991	98603008	67252224	22015016	33184
568	2.225235	98603008	67252224	25090640	33184
569	2.22583	98603008	67252224	28172328	33184
570	2.222708	98603008	67252224	31257720	33184
571	2.238344	98603008	67252224	34348096	33184
572	2.452476	98603008	67252224	21188720	33184
573	2.241847	98603008	67252224	24295912	33184
574	2.257141	98603008	67252224	27401472	33184
575	2.235748	98603008	67252224	30512024	33184
576	2.253988	98603008	67252224	33626976	33184
577	2.286407	98603008	67252224	20598344	33184
578	2.304286	98603008	67252224	23724848	33184
579	2.261784	98603008	67252224	26874168	33184
580	2.27392	98603008	67252224	30011704	33184
581	2.279815	98603008	67252224	33151312	33184
582	2.832083	98603008	67252224	19994056	33184
583	2.281414	98603008	67252224	23143528	33184
584	2.362936	98603008	67252224	26297912	33184
585	2.335235	98603008	67252224	29457120	33184
586	2.368813	98603008	67252224	32628960	33184
587	2.695579	98603008	67252224	19583840	33184
588	2.299118	98603008	67252224	22760224	33184
589	2.519121	98603008	67252224	25944608	33184
590	2.294133	98603008	67252224	29128648	33184
591	2.314455	98603008	67252224	32321976	33184
592	2.716812	98603008	67252224	19319704	33184
593	2.322182	98603008	67252224	22520152	33184
594	2.316825	98603008	67252224	25728512	33184
595	2.316883	98603008	67252224	28937088	33184
596	2.688753	98603008	67252224	32153216	33184
597	2.786885	98603008	67252224	19189200	33184
598	2.327715	98603008	67252224	22415512	33184
599	2.396719	98603008	67252224	25645504	33184
600	2.388888	98603008	67252224	28884016	33184
601	2.340798	98603008	67252224	32123776	33184
602	2.770385	98603008	67252224	19193512	33184
603	2.372595	98603008	67252224	22450136	33184
604	2.357208	98603008	67252224	25705096	33184
605	2.35407	98603008	67252224	28963000	33184
606	2.427747	98603008	67252224	32226448	33184
607	2.832333	98603008	67252224	19304872	33184
608	2.390773	98603008	67252224	22577664	33184
609	2.377263	98603008	67252224	25857272	33184
610	2.598528	98603008	67252224	29150376	33184
611	2.398787	98603008	67252224	32440040	33184
612	2.827818	98603008	67252224	19544888	33184
613	2.484454	98603008	67252224	22842448	33184
614	2.483219	98603008	67252224	26158512	33184
615	2.402741	98603008	67252224	29465800	33184
616	2.410133	98603008	67252224	32778096	33184
617	2.830414	98603008	67252224	19853024	33184
618	2.503703	98603008	67252224	23177776	33184
619	2.692041	98603008	67252224	26504792	33184
620	2.414374	98603008	67252224	29837472	33184
621	2.647626	98603008	67252224	33177904	33184
622	2.871012	98603008	67252224	20227672	33184
623	2.628623	98603008	67252224	23581552	33184
624	2.452483	98603008	67252224	26933184	33184
625	2.439183	98603008	67252224	30293456	33184
626	2.437878	98603008	67252224	33654888	33184
627	2.469431	98603008	67252224	20677248	33184
628	2.475119	98603008	67252224	24052440	33184
629	2.451221	98603008	67252224	27428808	33184
630	2.673216	98603008	67252224	30810232	33184
631	2.451985	98603008	67252224	34196320	33184
632	2.48378	98603008	67252224	21405712	33184
633	2.477773	98603008	67252224	24808048	33184
634	2.478307	98603008	67252224	28214544	33184
635	2.480434	98603008	67252224	31620560	33184
636	2.534512	98603008	67252224	35038176	33184
637	2.496077	98603008	67252224	22168560	33184
638	2.493934	98603008	67252224	25592200	33184
639	2.486875	98603008	67252224	29017992	33184
640	2.491273	98603008	67252224	32449256	33184
641	3.194522	98603008	67252224	19718384	33184
642	2.736547	98603008	67252224	23158840	33184
643	2.7197	98603008	67252224	26604312	33184
644	2.503089	98603008	67252224	30057016	33184
645	2.506488	98603008	67252224	33515008	33184
646	2.86498	98603008	67252224	20662912	33184
647	2.529856	98603008	67252224	24127952	33184
648	2.53191	98603008	67252224	27597888	33184
649	2.529547	98603008	67252224	31083152	33184
650	2.537607	98603008	67252224	34563056	33184
651	2.554164	98603008	67252224	21820912	33184
652	2.544885	98603008	67252224	25320480	33184
653	2.560602	98603008	67252224	28815232	33184
654	2.770083	98603008	67252224	32314856	33184
655	2.966425	98603008	67252224	19649312	33184
656	2.780777	98603008	67252224	23159000	33184
657	2.565882	98603008	67252224	26673488	33184
658	2.58023	98603008	67252224	30193544	33184
659	2.586149	98603008	67252224	33724584	33184
660	2.593038	98603008	67252224	20910096	33184
661	2.681821	98603008	67252224	24453376	33184
662	2.576198	98603008	67252224	27997464	33184
663	2.638839	98603008	67252224	31541544	33184
664	2.609522	98603008	67252224	35090480	33184
665	2.605299	98603008	67252224	22362848	33184
666	2.601384	98603008	67252224	25931016	33184
667	2.856193	98603008	67252224	29496456	33184
668	2.606555	98603008	67252224	33078944	33184
669	2.949664	98603008	67252224	20376840	33184
670	2.631121	98603008	67252224	23959768	33184
671	2.612457	98603008	67252224	27544584	33184
672	2.626895	98603008	67252224	31134216	33184
673	2.822172	98603008	67252224	34739584	33184
674	2.68774	98603008	67252224	22097360	33184
675	2.644092	98603008	67252224	25702208	33184
676	2.699667	98603008	67252224	29318240	33184
677	2.857932	98603008	67252224	32934616	33184
678	3.025825	98603008	67252224	20311088	33184
679	2.885225	98603008	67252224	23933976	33184
680	2.767645	98603008	67252224	27574424	33184
681	3.05292	98603008	67252224	31220672	33184
682	2.653731	98603008	67252224	34858896	33184
683	3.147189	98603008	67252224	22244400	33184
684	2.670927	98603008	67252224	25891888	33184
685	2.887317	98603008	67252224	29556016	33184
686	2.700916	98603008	67252224	33213560	33184
687	3.293914	98603008	67252224	20600624	33184
688	2.686263	98603008	67252224	24277944	33184
689	2.699071	98603008	67252224	27952096	33184
690	2.686474	98603008	67252224	31629224	33184
691	2.912869	98603008	67252224	35312672	33184
692	2.716429	98603008	67252224	22724864	33184
693	2.967764	98603008	67252224	26418040	33184
694	2.712446	98603008	67252224	30115032	33184
695	2.723599	98603008	67252224	33816952	33184
696	2.712372	98603008	67252224	21174432	33184
697	2.944181	98603008	67252224	24886368	33184
698	2.724386	98603008	67252224	28602952	33184
699	2.946672	98603008	67252224	32324536	33184
700	3.167194	98603008	67252224	19917680	33184
701	2.789017	98603008	67252224	23673952	33184
702	2.727523	98603008	67252224	27426824	33184
703	3.086467	98603008	67252224	31185360	33184
704	2.757057	98603008	67252224	34954656	33184
705	3.039905	98603008	67252224	22466744	33184
706	2.760394	98603008	67252224	26256552	33184
707	2.761654	98603008	67252224	30033960	33184
708	2.763868	98603008	67252224	33816192	33184
709	2.983122	98603008	67252224	21284016	33184
710	2.760924	98603008	67252224	25076168	33184
711	2.995334	98603008	67252224	28884816	33184
712	2.776917	98603008	67252224	32687056	33184
713	3.207095	98603008	67252224	20337176	33184
714	2.784551	98603008	67252224	24185056	33184
715	3.019242	98603008	67252224	28067872	33184
716	2.807915	98603008	67252224	31960032	33184
717	3.486096	98603008	67252224	19746072	33184
718	2.843365	98603008	67252224	23654000	33184
719	2.815345	98603008	67252224	27556472	33184
720	2.854127	98603008	67252224	31467488	33184
721	3.004218	98603008	67252224	35379896	33184
722	2.874571	98603008	67252224	23029032	33184
723	2.813177	98603008	67252224	26954736	33184
724	2.830199	98603008	67252224	30883416	33184
725	2.826352	98603008	67252224	34815480	33184
726	2.884666	98603008	67252224	22526344	33184
727	3.055738	98603008	67252224	26470152	33184
728	2.833314	98603008	67252224	30421536	33184
729	2.857656	98603008	67252224	34373240	33184
730	2.848197	98603008	67252224	22207256	33184
731	2.84532	98603008	67252224	26168920	33184
732	2.854149	98603008	67252224	30135352	33184
733	2.859599	98603008	67252224	34120616	33184
734	3.101647	98603008	67252224	21968720	33184
735	2.861515	98603008	67252224	25961944	33184
736	2.919216	98603008	67252224	29961200	33184
737	2.864255	98603008	67252224	33952312	33184
738	3.124922	98603008	67252224	21877576	33184
739	2.88133	98603008	67252224	25884568	33184
740	3.091932	98603008	67252224	29890640	33184
741	2.89086	98603008	67252224	33901464	33184
742	2.902848	98603008	67252224	21694352	33184
743	2.894732	98603008	67252224	25715160	33184
744	2.900629	98603008	67252224	29740888	33184
745	2.899316	98603008	67252224	33777640	33184
746	3.213917	98603008	67252224	21484248	33184
747	2.918337	98603008	67252224	25529712	33184
748	2.914814	98603008	67252224	29586864	33184
749	2.966234	98603008	67252224	33637160	33184
750	3.265818	98603008	67252224	21407688	33184
751	3.142057	98603008	67252224	25482312	33184
752	2.934887	98603008	67252224	29557144	33184
753	2.980917	98603008	67252224	33627352	33184
754	3.282911	98603008	67252224	21428680	33184
755	3.181217	98603008	67252224	25522808	33184
756	2.955979	98603008	67252224	29634144	33184
757	2.956316	98603008	67252224	33731672	33184
758	3.354833	98603008	67252224	21496856	33184
759	2.966673	98603008	67252224	25614512	33184
760	2.955573	98603008	67252224	29721856	33184
761	2.97407	98603008	67252224	33838888	33184
762	3.165448	98603008	67252224	21652536	33184
763	2.976664	98603008	67252224	25772104	33184
764	3.180545	98603008	67252224	29896568	33184
765	2.972821	98603008	67252224	34025912	33184
766	3.281253	98603008	67252224	22086400	33184
767	3.108798	98603008	67252224	26229192	33184
768	2.992005	98603008	67252224	30373408	33184
769	3.049775	98603008	67252224	34522584	33184
770	3.124407	98603008	67252224	22563040	33184
771	3.154436	98603008	67252224	26727024	33184
772	3.004547	98603008	67252224	30897168	33184
773	3.255318	98603008	67252224	35065896	33184
774	3.012454	98603008	67252224	23036456	33184
775	3.245308	98603008	67252224	27235552	33184
776	3.133012	98603008	67252224	31434456	33184
777	3.086227	98603008	67252224	35622840	33184
778	3.050223	98603008	67252224	23600688	33184
779	3.037654	98603008	67252224	27822856	33184
780	3.248287	98603008	67252224	32026176	33184
781	3.552832	98603008	67776512	20169440	33184
782	3.060046	98603008	67776512	24382744	33184
783	3.052134	98603008	67776512	28600768	33184
784	3.072592	98603008	67776512	32823800	33184
785	3.509699	98603008	67776512	20892968	33184
786	3.067943	98603008	67776512	25125872	33184
787	3.068586	98603008	67776512	29372688	33184
788	3.083956	98603008	67776512	33623248	33184
789	3.705586	98603008	67776512	21639536	33184
790	3.093964	98603008	67776512	25900920	33184
791	3.287136	98603008	67776512	30158392	33184
792	3.087166	98603008	67776512	34420672	33184
793	3.101302	98603008	67776512	22591632	33184
794	3.116169	98603008	67776512	26864344	33184
795	3.09467	98603008	67776512	31141696	33184
796	3.319023	98603008	67776512	35423800	33184
797	3.151929	98603008	67776512	23480592	33184
798	3.141314	98603008	67776512	27772664	33184
799	3.115315	98603008	67776512	32069432	33184
800	3.635693	98603008	67776512	20304216	33184
801	3.122878	98603008	67776512	24611056	33184
802	3.191301	98603008	67776512	28934080	33184
803	3.367958	98603008	67776512	33256848	33184
804	3.563325	98603008	67776512	21350200	33184
805	3.152144	98603008	67776512	25676768	33184
806	3.138402	98603008	67776512	30011968	33184
807	3.140703	98603008	67776512	34350224	33184
808	3.162233	98603008	67776512	22616488	33184
809	3.166123	98603008	67776512	26962944	33184
810	3.396756	98603008	67776512	31314080	33184
811	3.161249	98603008	67776512	35670000	33184
812	3.16909	98603008	67776512	23812632	33184
813	3.173599	98603008	67776512	28192728	33184
814	3.180371	98603008	67776512	32563720	33184
815	3.920544	98603008	67776512	20862632	33184
816	3.178454	98603008	67776512	25243240	33184
817	3.395948	98603008	67776512	29632848	33184
818	3.199779	98603008	67776512	34023464	33184
819	3.582273	98603008	67776512	22097696	33184
820	3.188794	98603008	67776512	26499176	33184
821	3.412493	98603008	67776512	30905904	33184
822	3.416333	98603008	67776512	35320400	33184
823	3.387036	98603008	67776512	23563160	33184
824	3.21346	98603008	67776512	27983272	33184
825	3.205857	98603008	67776512	32414048	33184
826	3.770312	98873344	67776512	20767392	33184
827	3.443551	98873344	67776512	25203912	33184
828	3.222509	98873344	67776512	29651296	33184
829	3.215547	98873344	67776512	34096328	33184
830	3.354224	98873344	67776512	22273480	33184
831	3.457329	98873344	67776512	26732336	33184
832	3.450936	98873344	67776512	31191944	33184
833	3.25562	98873344	67776512	35659000	33184
834	3.257715	98873344	67776512	23908680	33184
835	3.244712	98873344	67776512	28392720	33184
836	3.269708	98873344	67776512	32877520	33184
837	3.824073	98873344	67776512	21246352	33184
838	3.936003	98873344	67776512	25735728	33184
839	3.270646	98873344	67776512	30232296	33184
840	3.263559	98873344	67776512	34731688	33184
841	3.397203	98873344	67776512	23160512	33184
842	3.525966	98873344	67776512	27669296	33184
843	3.293815	98873344	67776512	32186744	33184
844	3.933672	98873344	67776512	20651600	33184
845	3.507522	98873344	67776512	25178912	33184
846	3.286328	98873344	67776512	29707448	33184
847	3.504705	98873344	67776512	34246936	33184
848	3.307891	98873344	67776512	22481952	33184
849	3.324925	98873344	67776512	27025952	33184
850	3.534124	98873344	67776512	31615904	33184
851	3.310357	98873344	67776512	36235280	33184
852	3.339714	98873344	67776512	24637864	33184
853	3.31	98873344	67776512	29256320	33184
854	3.330332	98873344	67776512	33877896	33184
855	4.250494	98873344	67776512	22313880	33184
856	3.336619	98873344	67776512	26943408	33184
857	3.336666	98873344	67776512	31579632	33184
858	3.398246	98873344	67776512	36221616	33184
859	3.360173	98873344	67776512	24649488	33184
860	3.5668	98873344	67776512	29299432	33184
861	3.371042	98873344	67776512	33963328	33184
862	3.866588	98873344	67776512	22406992	33184
863	3.376168	98873344	67776512	27082880	33184
864	3.364846	98873344	67776512	31753320	33184
865	3.400582	98873344	67776512	36428352	33184
866	3.379549	98873344	67776512	24861408	33184
867	3.396599	98873344	67776512	29552520	33184
868	3.384244	98873344	67776512	34241296	33184
869	3.410496	98873344	67776512	22664704	33184
870	3.388122	98873344	67776512	27369240	33184
871	3.591731	98873344	67776512	32076680	33184
872	4.294865	98873344	67776512	20769912	33184
873	3.451605	98873344	67776512	25483344	33184
874	3.409767	98873344	67776512	30201488	33184
875	3.401538	98873344	67776512	34933464	33184
876	3.635853	98873344	67776512	23619648	33184
877	3.410976	98873344	67776512	28353704	33184
878	3.42163	98873344	67776512	33110360	33184
879	4.230575	98873344	67776512	21689880	33184
880	3.439655	98873344	67776512	26462680	33184
881	3.427754	98873344	67776512	31221632	33184
882	3.425289	98873344	67776512	35981160	33184
883	3.44084	98873344	67776512	24544720	33184
884	3.667037	98873344	67776512	29312472	33184
885	3.439197	98873344	67776512	34102648	33184
886	3.964794	99143680	67776512	22644400	33184
887	3.547056	99143680	67776512	27442688	33184
888	3.453564	99143680	67776512	32242464	33184
889	4.112016	99143680	67776512	20996904	33184
890	3.698903	99143680	67776512	25799888	33184
891	3.491618	99143680	67776512	30603248	33184
892	3.519382	99143680	67776512	35410208	33184
893	3.494327	99143680	67776512	24162744	33184
894	3.465212	99143680	67776512	28979632	33184
895	3.701182	99143680	67776512	33821024	33184
896	4.028934	99143680	67776512	22442888	33184
897	3.493186	99143680	67776512	27276304	33184
898	3.551536	99143680	67776512	32112808	33184
899	4.250706	99143680	67776512	20957560	33184
900	3.551018	99143680	67776512	25804104	33184
901	3.743991	99143680	67776512	30661784	33184
902	3.559753	99143680	67776512	35533936	33184
903	3.603219	99143680	67776512	24289624	33184
904	3.577817	99143680	67776512	29162336	33184
905	3.569917	99143680	67776512	34039112	33184
906	4.088576	99143680	67776512	22713400	33184
907	3.769776	99143680	67776512	27594248	33184
908	3.545151	99143680	67776512	32495464	33184
909	4.20029	99143680	67776512	21342432	33184
910	3.767144	99143680	67776512	26238184	33184
911	3.591858	99143680	67776512	31140456	33184
912	3.615026	99143680	67776512	36046960	33184
913	3.588978	99143680	67776512	24756536	33184
914	3.563615	99143680	67776512	29672032	33184
915	3.619823	99143680	67776512	34594640	33184
916	3.795764	99143680	67776512	23543976	33184
917	3.56762	99143680	67776512	28480808	33184
918	3.573079	99143680	67776512	33427112	33184
919	4.421061	99143680	67776512	22199160	33184
920	3.593501	99143680	67776512	27144224	33184
921	3.57968	99143680	67776512	32113216	33184
922	4.365994	99143680	67776512	21108184	33184
923	3.657823	99143680	67776512	26079832	33184
924	3.632624	99143680	67776512	31063944	33184
925	3.842264	99143680	67776512	36033720	33184
926	3.610872	99143680	67776512	24831144	33184
927	3.619404	99143680	67776512	29810872	33184
928	3.846073	99143680	67776512	34796128	33184
929	3.62927	99143680	67776512	23782664	33184
930	3.619384	99143680	67776512	28777576	33184
931	3.667983	99143680	67776512	33783904	33184
932	4.214559	99143680	67776512	22592912	33184
933	3.634843	99143680	67776512	27612256	33184
934	3.842658	99143680	67776512	32626336	33184
935	4.377771	99143680	67776512	21613640	33184
936	3.93661	99143680	67776512	26637824	33184
937	3.878484	99143680	67776512	31666816	33184
938	3.650236	99143680	67776512	36719960	33184
939	3.655167	99143680	67776512	25563288	33184
940	3.700606	99143680	67776512	30607216	33184
941	3.677591	99143680	67776512	35655896	33184
942	3.671219	99143680	67776512	24674776	33184
943	3.887179	99143680	67776512	29737208	33184
944	3.668699	99143680	67776512	34800544	33184
945	3.688922	99143680	67776512	23894392	33184
946	3.917344	99143680	67776512	28967648	33184
947	3.678589	99143680	67776512	34047456	33184
948	4.423968	99143680	67776512	22953040	33184
949	3.70972	99143680	67776512	28061872	33184
950	3.699307	99143680	67776512	33154848	33184
951	4.628487	99143680	67776512	22179224	33184
952	3.721832	99143680	67776512	27289304	33184
953	3.866006	99143680	67776512	32404088	33184
954	4.592728	99143680	67776512	21498736	33184
955	3.763431	99143680	67776512	26622192	33184
956	3.967239	99143680	67776512	31756736	33184
957	3.723709	99143680	67776512	36905672	33184
958	3.754742	99143680	67776512	25848504	33184
959	3.792577	99143680	67776512	31000784	33184
960	3.734668	99143680	67776512	36143624	33184
961	3.967377	99143680	67776512	25149192	33184
962	3.755336	99143680	67776512	30306376	33184
963	3.96826	99143680	67776512	35468208	33184
964	3.750945	99143680	67776512	24611592	33184
965	3.751337	99143680	67776512	29787640	33184
966	4.190222	99143680	67776512	34961704	33184
967	3.826577	99143680	67776512	24157920	33184
968	3.766216	99143680	67776512	29341032	33184
969	3.820496	99143680	67776512	34527824	33184
970	4.377981	99143680	67776512	23447056	33184
971	3.800717	99143680	67776512	28643560	33184
972	3.779421	99143680	67776512	33845072	33184
973	4.444341	99143680	67776512	22868096	33184
974	3.789474	99143680	67776512	28085768	33184
975	3.795428	99143680	67776512	33304800	33184
976	4.832578	99143680	67776512	22435392	33184
977	3.980656	99143680	67776512	27663816	33184
978	3.851992	99143680	67776512	32909816	33184
979	4.892178	99143680	67776512	22143368	33184
980	4.055578	99143680	67776512	27393496	33184
981	4.097613	99143680	67776512	32655424	33184
982	4.611253	99143680	67776512	21900728	33184
983	4.079557	99143680	67776512	27161128	33184
984	3.821915	99143680	67776512	32424000	33184
985	4.644121	99143680	67776512	21706128	33184
986	3.840765	99143680	67776512	26976672	33184
987	4.070783	99143680	67776512	32252248	33184
988	4.694112	99143680	67776512	21583688	33184
989	3.872594	99143680	67776512	26870560	33184
990	3.895071	99143680	67776512	32162840	33184
991	4.709302	99143680	67776512	21540552	33184
992	3.868711	99143680	67776512	26844032	33184
993	3.90595	99143680	67776512	32149800	33184
994	4.555249	99143680	67776512	21160152	33184
995	3.924409	99143680	67776512	26488784	33184
996	3.914889	99143680	67776512	31808896	33184
997	4.160831	99143680	67776512	37136872	33184
998	3.93631	99143680	67776512	26290696	33184
999	3.911347	99143680	67776512	31625336	33184
1000	3.948512	99143680	67776512	36973528	33184
