x	Duration	RSS	HeapTotal	HeapUsed	External
0	NA	98054144	67252224	16007880	33184
1	0.730791	98054144	67252224	16060152	33184
2	0.388172	98054144	67252224	16128096	33184
3	0.232294	98054144	67252224	16230184	33184
4	0.230284	98054144	67252224	16320304	33184
5	0.238298	98054144	67252224	16415400	33184
6	0.246823	98054144	67252224	16515928	33184
7	0.253298	98054144	67252224	16621376	33184
8	0.263758	98054144	67252224	16731736	33184
9	0.274803	98054144	67252224	16847672	33184
10	0.283593	98054144	67252224	16969240	33184
11	0.293316	98054144	67252224	17095648	33184
12	0.302503	98054144	67252224	17227024	33184
13	0.313113	98054144	67252224	17363336	33184
14	0.323866	98054144	67252224	17504624	33184
15	0.333823	98054144	67252224	17650768	33184
16	0.342825	98054144	67252224	17801848	33184
17	0.354036	98054144	67252224	17957872	33184
18	0.593827	98054144	67252224	18118824	33184
19	0.18095	98054144	67252224	18287200	33184
20	0.178944	98054144	67252224	18460888	33184
21	0.188039	98054144	67252224	18640648	33184
22	0.186197	98054144	67252224	18826480	33184
23	0.198571	98054144	67252224	19021064	33184
24	0.179479	98054144	67252224	19216744	33184
25	0.182435	98054144	67252224	19417360	33184
26	0.187049	98054144	67252224	19622928	33184
27	0.206	98054144	67252224	19833376	33184
28	0.196967	98054144	67252224	20048784	33184
29	0.207746	98054144	67252224	20269104	33184
30	0.225882	98054144	67252224	20496376	33184
31	0.206939	98054144	67252224	20727624	33184
32	0.210523	98054144	67252224	20963800	33184
33	0.212765	98054144	67252224	21204952	33184
34	0.214905	98054144	67252224	21450984	33184
35	0.225445	98054144	67252224	21701944	33184
36	0.224926	98054144	67252224	21957824	33184
37	0.229837	98054144	67252224	22218784	33184
38	0.229663	98054144	67252224	22484520	33184
39	0.23594	98054144	67252224	22755200	33184
40	0.239983	98054144	67252224	23030784	33184
41	0.2712	98054144	67252224	23311320	33184
42	0.293857	98054144	67252224	23596760	33184
43	0.257882	98054144	67252224	23887120	33184
44	0.277504	98054144	67252224	24186944	33184
45	0.252148	98054144	67252224	24493936	33184
46	0.262993	98054144	67252224	24806560	33184
47	0.277873	98054144	67252224	25124072	33184
48	0.285416	98054144	67252224	25446576	33184
49	0.269151	98054144	67252224	25773992	33184
50	0.270772	98054144	67252224	26106280	33184
51	0.276183	98054144	67252224	26443544	33184
52	0.279597	98054144	67252224	26785720	33184
53	0.279337	98054144	67252224	27132792	33184
54	0.315425	98054144	67252224	27484840	33184
55	0.288751	98054144	67252224	27841768	33184
56	0.292926	98054144	67252224	28205720	33184
57	0.296058	98054144	67252224	28574656	33184
58	0.304886	98054144	67252224	28948464	33184
59	0.357652	98054144	67252224	29346344	33184
60	0.322646	98054144	67252224	29730080	33184
61	0.307544	98054144	67252224	30118680	33184
62	0.311355	98054144	67252224	30512552	33184
63	0.313652	98054144	67252224	30910984	33184
64	0.313912	98054144	67252224	31314368	33184
65	0.318375	98054144	67252224	31722680	33184
66	0.332829	98054144	67252224	32135896	33184
67	1.144962	98054144	67252224	16427976	33184
68	0.363536	98054144	67252224	16851072	33184
69	0.364302	98054144	67252224	17279104	33184
70	0.382322	98054144	67252224	17712024	33184
71	0.372884	98054144	67252224	18149872	33184
72	0.373716	98054144	67252224	18592656	33184
73	0.378916	98054144	67252224	19040360	33184
74	0.383489	98054144	67252224	19492984	33184
75	0.604776	98054144	67252224	19950576	33184
76	0.365289	98054144	67252224	20415168	33184
77	0.365417	98054144	67252224	20884728	33184
78	0.367901	98054144	67252224	21359168	33184
79	0.372358	98054144	67252224	21838528	33184
80	0.372786	98054144	67252224	22323080	33184
81	0.412567	98054144	67252224	22813512	33184
82	0.38616	98054144	67252224	23307616	33184
83	0.385729	98054144	67252224	23806824	33184
84	0.390596	98054144	67252224	24315288	33184
85	0.399747	98054144	67252224	24829816	33184
86	0.400299	98054144	67252224	25349280	33184
87	0.402462	98054144	67252224	25873696	33184
88	0.440642	98054144	67252224	26403016	33184
89	0.41138	98054144	67252224	26937336	33184
90	0.411906	98054144	67252224	27476496	33184
91	0.418389	98054144	67252224	28024904	33184
92	0.422277	98054144	67252224	28582440	33184
93	0.43003	98054144	67252224	29144928	33184
94	0.43145	98054144	67252224	29712320	33184
95	0.430584	98054144	67252224	30286088	33184
96	0.435788	98054144	67252224	30863248	33184
97	0.481365	98054144	67252224	31445368	33184
98	0.478847	98054144	67252224	32032400	33184
99	0.482562	98054144	67252224	32624360	33184
100	0.697515	98054144	67252224	16992936	33184
101	0.461163	98054144	67252224	17594728	33184
102	0.462595	98054144	67252224	18201552	33184
103	0.465325	98054144	67252224	18813240	33184
104	0.464628	98054144	67252224	19429864	33184
105	0.470799	98054144	67252224	20051552	33184
106	0.473281	98054144	67252224	20678048	33184
107	0.474713	98054144	67252224	21309496	33184
108	0.478757	98054144	67252224	21945824	33184
109	0.482088	98054144	67252224	22587152	33184
110	0.489237	98054144	67252224	23233448	33184
111	0.491339	98054144	67252224	23884584	33184
112	0.494042	98054144	67252224	24540624	33184
113	0.498416	98054144	67252224	25201616	33184
114	0.504388	98054144	67252224	25868168	33184
115	0.51612	98054144	67252224	26540904	33184
116	0.692106	98054144	67252224	27216720	33184
117	0.552484	98054144	67252224	27900224	33184
118	0.521333	98054144	67252224	28585872	33184
119	0.523144	98054144	67252224	29276472	33184
120	0.526886	98054144	67252224	29971984	33184
121	0.531558	98054144	67252224	30672544	33184
122	0.766755	98054144	67252224	31377904	33184
123	0.537255	98054144	67252224	32088520	33184
124	0.536839	98054144	67252224	32803784	33184
125	0.561092	98054144	67252224	17205408	33184
126	0.547724	98054144	67252224	17930528	33184
127	0.549128	98054144	67252224	18660584	33184
128	0.558758	98054144	67252224	19399744	33184
129	0.556257	98054144	67252224	20143888	33184
130	0.559488	98054144	67252224	20893744	33184
131	0.563907	98054144	67252224	21647736	33184
132	0.569885	98054144	67252224	22406888	33184
133	0.572785	98054144	67252224	23170720	33184
134	0.57454	98054144	67252224	23939520	33184
135	0.575927	98054144	67252224	24713144	33184
136	0.58578	98054144	67252224	25491712	33184
137	0.583479	98054144	67252224	26275240	33184
138	0.592734	98054144	67252224	27064536	33184
139	0.589587	98054144	67252224	27857896	33184
140	0.59764	98054144	67252224	28656256	33184
141	0.656368	98054144	67252224	29459544	33184
142	0.611394	98054144	67252224	30275128	33184
143	0.610669	98054144	67252224	31097360	33184
144	0.626766	98054144	67252224	31924584	33184
145	0.619959	98054144	67252224	32758712	33184
146	0.641978	98054144	67252224	17274848	33184
147	0.632636	98054144	67252224	18117496	33184
148	0.629865	98054144	67252224	18964456	33184
149	0.633355	98054144	67252224	19816304	33184
150	0.640487	98054144	67252224	20673080	33184
151	0.64219	98054144	67252224	21534816	33184
152	0.653864	98054144	67252224	22401512	33184
153	0.646443	98054144	67252224	23273056	33184
154	0.653059	98054144	67252224	24149640	33184
155	0.66961	98054144	67252224	25031152	33184
156	0.702784	98054144	67252224	25917496	33184
157	0.706347	98054144	67252224	26808904	33184
158	0.689381	98054144	67252224	27705184	33184
159	0.671894	98054144	67252224	28606416	33184
160	0.678546	98054144	67252224	29512712	33184
161	0.680033	98054144	67252224	30423848	33184
162	0.68501	98054144	67252224	31339800	33184
163	0.695869	98054144	67252224	32260712	33184
164	0.687415	98054144	67252224	16809616	33184
165	0.697144	98054144	67252224	17740376	33184
166	0.698699	98054144	67252224	18680240	33184
167	0.700371	98054144	67252224	19625064	33184
168	0.737116	98054144	67252224	20574928	33184
169	0.705355	98054144	67252224	21529680	33184
170	0.71016	98054144	67252224	22489240	33184
171	0.712235	98054144	67252224	23453712	33184
172	0.716185	98054144	67252224	24423192	33184
173	0.929308	98054144	67252224	25397608	33184
174	0.725732	98054144	67252224	26377032	33184
175	0.729859	98054144	67252224	27361264	33184
176	0.733906	98054144	67252224	28350408	33184
177	0.736922	98054144	67252224	29344456	33184
178	0.749051	98054144	67252224	30343504	33184
179	0.744981	98054144	67252224	31347528	33184
180	0.754604	98054144	67252224	32364776	33184
181	1.166605	98054144	67252224	17066688	33184
182	0.806379	98054144	67252224	18106048	33184
183	0.813428	98054144	67252224	19146800	33184
184	0.811397	98054144	67252224	20192064	33184
185	0.817951	98054144	67252224	21242288	33184
186	0.820649	98054144	67252224	22297400	33184
187	0.825326	98054144	67252224	23357496	33184
188	0.779959	98054144	67252224	24422600	33184
189	0.782329	98054144	67252224	25492528	33184
190	0.788441	98054144	67252224	26567488	33184
191	0.788618	98054144	67252224	27648232	33184
192	0.797203	98054144	67252224	28736400	33184
193	0.800971	98054144	67252224	29826024	33184
194	1.038589	98054144	67252224	30921400	33184
195	0.807672	98054144	67252224	32020888	33184
196	0.869752	98054144	67252224	33125304	33184
197	0.86869	98054144	67252224	17874944	33184
198	0.829656	98054144	67252224	18989304	33184
199	0.81934	98054144	67252224	20108552	33184
200	0.822284	98054144	67252224	21232680	33184
201	0.831442	98054144	67252224	22361736	33184
202	0.830444	98054144	67252224	23495744	33184
203	0.833768	98054144	67252224	24634664	33184
204	0.836668	98054144	67252224	25778592	33184
205	0.846729	98054144	67252224	26927376	33184
206	0.845083	98054144	67252224	28082816	33184
207	0.860101	98054144	67252224	29241544	33184
208	0.853473	98054144	67252224	30405208	33184
209	0.861896	98054144	67252224	31573704	33184
210	0.859722	98054144	67252224	32748688	33184
211	1.27377	98054144	67252224	17557392	33184
212	0.917894	98054144	67252224	18740704	33184
213	1.105301	98054144	67252224	19929016	33184
214	0.872937	98054144	67252224	21124216	33184
215	0.889902	98054144	67252224	22322360	33184
216	0.88181	98054144	67252224	23525384	33184
217	0.896286	98054144	67252224	24733464	33184
218	0.887878	98054144	67252224	25946432	33184
219	1.087549	98054144	67252224	27164784	33184
220	0.919041	98054144	67252224	28387552	33184
221	0.935277	98054144	67252224	29615232	33184
222	0.906618	98054144	67252224	30847888	33184
223	1.005704	98054144	67252224	32085424	33184
224	0.909803	98054144	67252224	33327928	33184
225	1.316896	98054144	67252224	18207856	33184
226	0.924584	98054144	67252224	19460168	33184
227	0.951715	98054144	67252224	20717584	33184
228	0.928098	98054144	67252224	21979864	33184
229	0.932953	98054144	67252224	23258568	33184
230	0.930276	98054144	67252224	24545912	33184
231	1.150165	98054144	67252224	25837336	33184
232	0.944709	98054144	67252224	27134728	33184
233	0.974653	98054144	67252224	28436008	33184
234	0.952172	98054144	67252224	29742216	33184
235	0.955386	98054144	67252224	31054232	33184
236	0.957636	98054144	67252224	32370280	33184
237	1.369523	98054144	67252224	17372608	33184
238	1.030351	98054144	67252224	18698560	33184
239	1.024641	98054144	67252224	20029432	33184
240	1.038041	98054144	67252224	21365256	33184
241	1.237602	98054144	67252224	22705984	33184
242	0.984261	98054144	67252224	24051600	33184
243	0.98277	98054144	67252224	25402952	33184
244	0.986822	98054144	67252224	26758488	33184
245	0.988528	98054144	67252224	28118984	33184
246	1.007632	98054144	67252224	29484464	33184
247	1.213888	98054144	67252224	30854736	33184
248	1.002848	98054144	67252224	32230056	33184
249	1.474576	98054144	67252224	17311720	33184
250	1.06333	98054144	67252224	18696800	33184
251	1.01783	98054144	67252224	20086880	33184
252	1.019621	98054144	67252224	21481936	33184
253	1.022242	98054144	67252224	22881984	33184
254	1.07846	98054144	67252224	24286816	33184
255	1.034635	98054144	67252224	25696544	33184
256	1.055145	98054144	67252224	27111256	33184
257	1.034666	98054144	67252224	28531080	33184
258	1.043971	98054144	67252224	29955592	33184
259	1.118592	98054144	67252224	31385088	33184
260	1.048998	98054144	67252224	32822232	33184
261	1.472426	98054144	67252224	17896352	33184
262	1.11565	98054144	67252224	19340704	33184
263	1.068766	98054144	67252224	20789984	33184
264	1.078147	98054144	67252224	22244200	33184
265	1.105382	98054144	67252224	23704136	33184
266	1.100626	98054144	67252224	25169112	33184
267	1.071785	98054144	67252224	26638152	33184
268	1.083198	98054144	67252224	28112032	33184
269	1.133242	98054144	67252224	29599144	33184
270	1.088867	98054144	67252224	31091184	33184
271	1.144387	98054144	67252224	32588104	33184
272	1.505955	98054144	67252224	17790032	33184
273	1.105167	98054144	67252224	19296784	33184
274	1.109356	98054144	67252224	20808448	33184
275	1.102868	98054144	67252224	22325064	33184
276	1.105408	98054144	67252224	23846672	33184
277	1.115158	98054144	67252224	25373168	33184
278	1.122488	98054144	67252224	26904688	33184
279	1.163217	98054144	67252224	28443496	33184
280	1.276884	98054144	67252224	29986336	33184
281	1.131803	98054144	67252224	31538472	33184
282	1.354535	98054144	67252224	33090720	33184
283	1.155966	98054144	67252224	18384472	33184
284	1.13935	98054144	67252224	19945568	33184
285	1.151458	98054144	67252224	21511512	33184
286	1.153159	98054144	67252224	23082488	33184
287	1.156746	98054144	67252224	24658328	33184
288	1.161811	98054144	67252224	26239128	33184
289	1.154511	98054144	67252224	27825528	33184
290	1.16381	98054144	67252224	29416160	33184
291	1.162304	98054144	67252224	31011712	33184
292	1.168272	98054144	67252224	32614704	33184
293	1.815457	98054144	67252224	17885016	33184
294	1.257193	98054144	67252224	19495376	33184
295	1.192748	98054144	67252224	21110816	33184
296	1.394799	98054144	67252224	22731024	33184
297	1.189723	98054144	67252224	24356160	33184
298	1.187655	98054144	67252224	25986280	33184
299	1.205482	98054144	67252224	27621360	33184
300	1.200327	98054144	67252224	29263688	33184
301	1.205725	98054144	67252224	30908576	33184
302	1.219658	98054144	67252224	32558464	33184
303	1.626146	98054144	67252224	17907816	33184
304	1.280404	98054144	67252224	19572960	33184
305	1.228368	98054144	67252224	21237608	33184
306	1.288418	98054144	67252224	22907824	33184
307	1.222544	98054144	67252224	24582248	33184
308	1.418977	98054144	67252224	26261624	33184
309	1.300975	98054144	67252224	27948072	33184
310	1.237624	98054144	67252224	29642728	33184
311	1.244044	98054144	67252224	31336880	33184
312	1.297444	98054144	67252224	33037032	33184
313	1.633273	98054144	67252224	18355584	33184
314	1.255887	98054144	67252224	20064592	33184
315	1.259609	98054144	67252224	21778488	33184
316	1.265676	98054144	67252224	23497736	33184
317	1.258729	98054144	67252224	25221640	33184
318	1.297627	98054144	67252224	26950400	33184
319	1.292461	98054144	67252224	28685408	33184
320	1.28033	98054144	67252224	30424064	33184
321	1.352503	98054144	67252224	32167608	33184
322	1.519453	98054144	67252224	33916048	33184
323	1.437062	98054144	67252224	19302488	33184
324	1.422169	98054144	67252224	21060808	33184
325	1.429825	98054144	67252224	22824056	33184
326	1.372945	98054144	67252224	24595824	33184
327	1.38898	98054144	67252224	26368976	33184
328	1.37759	98054144	67252224	28148408	33184
329	1.379779	98054144	67252224	29931344	33184
330	1.311879	98054144	67252224	31719176	33184
331	1.364444	98054144	67252224	33512008	33184
332	1.326178	98054144	67252224	19010528	33184
333	1.32287	98054144	67252224	20813256	33184
334	1.324588	98054144	67252224	22622000	33184
335	1.342559	98054144	67252224	24434656	33184
336	1.337913	98054144	67252224	26252576	33184
337	1.338741	98054144	67252224	28075008	33184
338	1.561219	98054144	67252224	29902344	33184
339	1.400875	98054144	67252224	31734640	33184
340	1.354905	98054144	67252224	33571888	33184
341	1.428964	98324480	67252224	19102672	33184
342	1.362505	98324480	67252224	20949776	33184
343	1.428035	98324480	67252224	22801728	33184
344	1.364928	98324480	67252224	24672160	33184
345	1.370295	98324480	67252224	26542328	33184
346	1.378636	98324480	67252224	28417304	33184
347	1.383815	98324480	67252224	30299976	33184
348	1.377456	98324480	67252224	32184912	33184
349	1.376009	98324480	67252224	34074760	33184
350	1.398072	98324480	67252224	19584880	33184
351	1.401941	98324480	67252224	21484592	33184
352	1.400806	98324480	67252224	23389168	33184
353	1.395885	98324480	67252224	25305632	33184
354	1.402333	98324480	67252224	27220272	33184
355	1.415998	98324480	67252224	29139896	33184
356	1.478834	98324480	67252224	31064232	33184
357	1.419066	98324480	67252224	32994592	33184
358	1.775658	98324480	67252224	18594368	33184
359	1.425419	98324480	67252224	20566592	33184
360	1.441479	98324480	67252224	22561528	33184
361	1.644733	98324480	67252224	24565752	33184
362	1.435103	98324480	67252224	26575008	33184
363	1.441506	98324480	67252224	28589120	33184
364	1.447583	98324480	67252224	30608256	33184
365	1.666473	98324480	67252224	32640088	33184
366	1.858504	98324480	67252224	18354896	33184
367	1.518037	98324480	67252224	20388832	33184
368	1.519042	98324480	67252224	22427552	33184
369	1.528834	98324480	67252224	24471336	33184
370	1.528473	98324480	67252224	26519968	33184
371	1.50415	98324480	67252224	28576440	33184
372	1.680561	98324480	67252224	30636824	33184
373	1.475967	98324480	67252224	32701648	33184
374	1.88451	98324480	67252224	18446880	33184
375	1.550342	98324480	67252224	20520304	33184
376	1.753142	98324480	67252224	22598760	33184
377	1.507797	98324480	67252224	24682016	33184
378	1.503602	98324480	67252224	26770088	33184
379	1.499508	98324480	67252224	28863080	33184
380	1.502439	98324480	67252224	30961160	33184
381	1.501521	98324480	67252224	33064232	33184
382	1.923441	98324480	67252224	18823856	33184
383	1.765808	98324480	67252224	20939464	33184
384	1.526375	98324480	67252224	23057184	33184
385	1.517699	98324480	67252224	25179816	33184
386	1.521879	98324480	67252224	27307448	33184
387	1.528627	98324480	67252224	29440032	33184
388	1.531487	98324480	67252224	31577648	33184
389	1.544844	98324480	67252224	33720024	33184
390	1.626108	98324480	67252224	19564256	33184
391	1.619571	98324480	67252224	21716528	33184
392	1.612407	98324480	67252224	23873744	33184
393	1.617419	98324480	67252224	26035760	33184
394	1.559654	98324480	67252224	28214096	33184
395	1.557354	98324480	67252224	30386000	33184
396	1.574163	98324480	67252224	32562936	33184
397	2.203646	98324480	67252224	18468672	33184
398	1.646478	98324480	67252224	20655416	33184
399	1.653476	98324480	67252224	22847224	33184
400	1.802721	98324480	67252224	25043824	33184
401	1.58876	98324480	67252224	27251352	33184
402	1.596897	98324480	67252224	29457824	33184
403	1.587824	98324480	67252224	31669232	33184
404	1.595685	98324480	67252224	33885584	33184
405	1.673633	98324480	67252224	19784472	33184
406	1.664896	98324480	67252224	22010920	33184
407	1.617983	98324480	67252224	24242128	33184
408	1.626064	98324480	67252224	26478224	33184
409	1.628565	98324480	67252224	28723736	33184
410	1.620315	98324480	67252224	30969784	33184
411	1.613789	98324480	67252224	33220632	33184
412	2.175659	98324480	67252224	19092000	33184
413	1.636003	98324480	67252224	21352704	33184
414	1.63055	98324480	67252224	23625672	33184
415	1.633122	98324480	67252224	25896256	33184
416	1.643673	98324480	67252224	28171912	33184
417	1.869621	98324480	67252224	30457240	33184
418	1.654737	98324480	67252224	32742664	33184
419	2.020775	98324480	67252224	18721528	33184
420	1.666493	98324480	67252224	21019752	33184
421	1.67468	98324480	67252224	23320720	33184
422	1.660758	98324480	67252224	25625832	33184
423	1.658718	98324480	67252224	27941016	33184
424	1.664816	98324480	67252224	30255896	33184
425	1.755789	98324480	67252224	32584408	33184
426	2.091473	98324480	67252224	18644344	33184
427	1.68779	98324480	67252224	20974136	33184
428	1.678043	98324480	67252224	23308816	33184
429	1.748269	98324480	67252224	25648496	33184
430	1.701995	98324480	67252224	27998168	33184
431	1.707531	98324480	67252224	30347744	33184
432	1.705161	98324480	67252224	32702664	33184
433	2.305095	98324480	67252224	18753864	33184
434	1.739103	98324480	67252224	21118048	33184
435	1.732485	98324480	67252224	23487232	33184
436	1.908934	98324480	67252224	25863904	33184
437	1.731242	98324480	67252224	28243096	33184
438	1.71799	98324480	67252224	30630632	33184
439	1.730743	98324480	67252224	33025136	33184
440	2.090182	98324480	67252224	19082992	33184
441	1.730007	98324480	67252224	21481936	33184
442	1.736977	98324480	67252224	23889696	33184
443	2.017241	98324480	67252224	26298304	33184
444	1.790997	98324480	67252224	28715304	33184
445	1.744471	98324480	67252224	31139912	33184
446	1.748753	98324480	67252224	33563376	33184
447	1.830216	98324480	67252224	19738680	33184
448	1.757367	98324480	67252224	22171960	33184
449	1.76685	98324480	67252224	24618048	33184
450	1.76676	98324480	67252224	27063600	33184
451	1.766739	98324480	67252224	29511728	33184
452	1.776767	98324480	67252224	31964768	33184
453	1.802105	98324480	67252224	34422696	33184
454	1.783845	98324480	67252224	20550832	33184
455	1.798672	98324480	67252224	23018648	33184
456	1.77857	98324480	67252224	25492072	33184
457	1.79172	98324480	67252224	27971424	33184
458	1.804568	98324480	67252224	30453992	33184
459	1.796538	98324480	67252224	32944032	33184
460	2.173115	98324480	67252224	19106000	33184
461	1.818669	98324480	67252224	21603520	33184
462	1.806971	98324480	67252224	24105976	33184
463	1.817675	98324480	67252224	26614160	33184
464	1.811409	98324480	67252224	29127976	33184
465	1.888991	98324480	67252224	31645184	33184
466	1.819468	98324480	67252224	34167248	33184
467	1.834324	98324480	67252224	20373512	33184
468	1.827377	98324480	67252224	22906080	33184
469	1.832657	98324480	67252224	25442952	33184
470	1.839423	98324480	67252224	27984752	33184
471	1.841192	98324480	67252224	30531464	33184
472	1.844148	98324480	67252224	33083712	33184
473	2.269866	98324480	67252224	19315032	33184
474	1.853617	98324480	67252224	21876616	33184
475	1.911043	98324480	67252224	24443080	33184
476	1.859475	98324480	67252224	27014512	33184
477	1.862624	98324480	67252224	29590832	33184
478	1.864007	98324480	67252224	32172248	33184
479	2.280541	98324480	67252224	18547576	33184
480	1.88885	98324480	67252224	21138656	33184
481	1.928893	98324480	67252224	23734560	33184
482	1.889936	98324480	67252224	26335616	33184
483	1.89116	98324480	67252224	28943296	33184
484	2.119562	98324480	67252224	31554456	33184
485	1.894693	98324480	67252224	34170176	33184
486	1.977872	98324480	67252224	20489408	33184
487	2.127222	98324480	67252224	23119032	33184
488	1.900953	98324480	67252224	25753440	33184
489	1.908043	98324480	67252224	28391352	33184
490	1.913744	98324480	67252224	31031752	33184
491	1.916556	98324480	67252224	33677176	33184
492	1.999349	98324480	67252224	20089376	33184
493	1.931033	98324480	67252224	22745672	33184
494	1.932285	98324480	67252224	25405768	33184
495	1.938397	98324480	67252224	28070784	33184
496	1.941057	98324480	67252224	30741112	33184
497	1.951958	98324480	67252224	33416032	33184
498	2.374252	98594816	67252224	19717504	33184
499	1.957682	98594816	67252224	22404064	33184
500	1.95786	98594816	67252224	25098768	33184
501	2.185822	98594816	67252224	27793488	33184
502	1.959918	98594816	67252224	30494192	33184
503	2.043138	98594816	67252224	33198896	33184
504	2.39193	98594816	67252224	19588408	33184
505	2.042465	98594816	67252224	22303776	33184
506	2.202518	98594816	67252224	25025192	33184
507	1.991101	98594816	67252224	27754272	33184
508	1.984387	98594816	67252224	30483632	33184
509	2.206373	98594816	67252224	33217792	33184
510	2.399112	98594816	67252224	19636616	33184
511	2.072538	98594816	67252224	22380728	33184
512	2.030415	98594816	67252224	25129704	33184
513	1.996808	98594816	67252224	27883520	33184
514	2.013863	98594816	67252224	30642432	33184
515	2.004982	98594816	67252224	33406168	33184
516	2.38595	98594816	67252224	19808088	33184
517	2.312764	98594816	67252224	22581752	33184
518	2.035149	98594816	67252224	25360272	33184
519	2.028745	98594816	67252224	28143736	33184
520	2.249419	98594816	67252224	30932368	33184
521	2.031557	98594816	67252224	33733104	33184
522	2.044471	98594816	67252224	20306256	33184
523	2.038813	98594816	67252224	23112768	33184
524	2.036092	98594816	67252224	25920880	33184
525	2.238929	98594816	67252224	28733920	33184
526	2.056385	98594816	67252224	31551920	33184
527	2.061171	98594816	67252224	34374728	33184
528	2.291003	98594816	67252224	20901528	33184
529	2.060413	98594816	67252224	23734336	33184
530	2.066848	98594816	67252224	26582264	33184
531	2.066373	98594816	67252224	29427040	33184
532	2.070636	98594816	67252224	32276200	33184
533	2.713713	98594816	67252224	18916848	33184
534	2.091344	98594816	67252224	21774304	33184
535	2.196098	98594816	67252224	24640480	33184
536	2.083089	98594816	67252224	27512008	33184
537	2.092488	98594816	67252224	30384336	33184
538	2.093476	98594816	67252224	33262632	33184
539	2.535783	98594816	67252224	19832608	33184
540	2.107954	98594816	67252224	22722856	33184
541	2.270224	98594816	67252224	25615424	33184
542	2.109153	98594816	67252224	28513976	33184
543	2.111458	98594816	67252224	31415904	33184
544	2.130458	98594816	67252224	34323856	33184
545	2.204842	98594816	67252224	20964368	33184
546	2.377366	98594816	67252224	23881056	33184
547	2.203482	98594816	67252224	26802536	33184
548	2.127776	98594816	67252224	29730680	33184
549	2.133695	98594816	67252224	32661976	33184
550	2.553557	98594816	67252224	19384056	33184
551	2.37707	98594816	67252224	22330960	33184
552	2.155391	98594816	67252224	25293624	33184
553	2.15463	98594816	67252224	28276736	33184
554	2.15293	98594816	67252224	31249248	33184
555	2.171058	98594816	67252224	34227464	33184
556	2.192106	98594816	67252224	21019776	33184
557	2.175377	98594816	67252224	24041136	33184
558	2.169309	98594816	67252224	27067336	33184
559	2.191236	98594816	67252224	30105280	33184
560	2.416926	98594816	67252224	33141400	33184
561	2.751263	98594816	67252224	19881744	33184
562	2.184167	98594816	67252224	22939760	33184
563	2.186787	98594816	67252224	25990624	33184
564	2.22622	98594816	67252224	29047160	33184
565	2.216274	98594816	67252224	32108488	33184
566	2.87202	98594816	67252224	19003472	33184
567	2.288575	98594816	67252224	22073992	33184
568	2.251603	98594816	67252224	25149616	33184
569	2.224189	98594816	67252224	28231304	33184
570	2.226605	98594816	67252224	31316696	33184
571	2.242223	98594816	67252224	34407072	33184
572	2.318435	98594816	67252224	21247696	33184
573	2.537755	98594816	67252224	24354888	33184
574	2.25249	98594816	67252224	27460448	33184
575	2.258846	98594816	67252224	30571000	33184
576	2.262095	98594816	67252224	33685952	33184
577	2.284884	98594816	67252224	20657320	33184
578	2.323687	98594816	67252224	23783824	33184
579	2.251643	98594816	67252224	26933144	33184
580	2.266441	98594816	67252224	30070680	33184
581	2.284615	98594816	67252224	33210288	33184
582	2.630876	98594816	67252224	20053032	33184
583	2.49482	98594816	67252224	23202504	33184
584	2.270849	98594816	67252224	26356888	33184
585	2.925834	98594816	67252224	29516096	33184
586	2.34148	98594816	67252224	32687936	33184
587	2.733771	98594816	67252224	19642816	33184
588	2.581413	98594816	67252224	22819200	33184
589	2.352821	98594816	67252224	26003584	33184
590	2.293833	98594816	67252224	29187624	33184
591	2.322241	98594816	67252224	32380952	33184
592	2.952222	98594816	67252224	19378680	33184
593	2.400979	98594816	67252224	22579128	33184
594	2.401461	98594816	67252224	25787488	33184
595	2.366547	98594816	67252224	28996064	33184
596	2.37537	98594816	67252224	32212192	33184
597	2.74468	98594816	67252224	19248176	33184
598	2.335983	98594816	67252224	22474488	33184
599	2.550603	98594816	67252224	25704480	33184
600	2.342571	98594816	67252224	28942992	33184
601	2.416362	98594816	67252224	32182752	33184
602	2.786886	98594816	67252224	19252488	33184
603	2.44228	98594816	67252224	22509112	33184
604	2.447298	98594816	67252224	25764072	33184
605	2.448136	98594816	67252224	29021976	33184
606	2.417511	98594816	67252224	32285424	33184
607	2.870511	98594816	67252224	19363848	33184
608	2.634922	98594816	67252224	22636640	33184
609	2.596211	98594816	67252224	25916248	33184
610	2.384554	98594816	67252224	29209352	33184
611	2.39349	98594816	67252224	32499016	33184
612	2.826268	98865152	67252224	19603864	33184
613	2.393448	98865152	67252224	22901424	33184
614	2.395394	98865152	67252224	26217488	33184
615	2.616708	98865152	67252224	29524776	33184
616	2.39052	98865152	67252224	32837072	33184
617	2.845893	98865152	67252224	19912000	33184
618	2.447668	98865152	67252224	23236752	33184
619	2.4052	98865152	67252224	26563768	33184
620	2.424023	98865152	67252224	29896448	33184
621	2.428864	98865152	67252224	33236880	33184
622	2.849201	98865152	67252224	20286648	33184
623	2.70429	98865152	67252224	23640528	33184
624	2.431651	98865152	67252224	26992160	33184
625	2.447844	98865152	67252224	30352432	33184
626	2.808746	98865152	67252224	33713864	33184
627	2.541694	98865152	67252224	20736224	33184
628	2.728951	98865152	67252224	24111416	33184
629	2.448479	98865152	67252224	27487784	33184
630	2.472048	98865152	67252224	30869208	33184
631	2.457951	98865152	67252224	34255296	33184
632	2.749453	98865152	67252224	21464688	33184
633	2.472226	98865152	67252224	24867024	33184
634	2.48058	98865152	67252224	28273520	33184
635	2.488122	98865152	67252224	31679536	33184
636	2.475124	98865152	67252224	35097152	33184
637	2.710765	98865152	67252224	22227536	33184
638	2.479763	98865152	67252224	25651176	33184
639	2.493514	98865152	67252224	29076968	33184
640	2.49534	98865152	67252224	32508232	33184
641	2.930708	98865152	67252224	19777360	33184
642	2.515811	98865152	67252224	23217816	33184
643	2.496493	98865152	67252224	26663288	33184
644	2.60189	98865152	67252224	30115992	33184
645	2.518928	98865152	67252224	33573984	33184
646	2.920519	98865152	67252224	20721888	33184
647	2.612215	98865152	67252224	24186928	33184
648	2.751874	98865152	67252224	27656864	33184
649	2.523807	98865152	67252224	31142128	33184
650	2.751379	98865152	67252224	34622032	33184
651	2.622541	98865152	67252224	21879888	33184
652	2.547955	98865152	67252224	25379456	33184
653	2.541403	98865152	67252224	28874208	33184
654	2.540293	98865152	67252224	32373832	33184
655	3.209331	98865152	67252224	19708288	33184
656	2.551961	98865152	67252224	23217976	33184
657	2.567186	98865152	67252224	26732464	33184
658	2.552558	98865152	67252224	30252520	33184
659	2.609938	98865152	67252224	33783560	33184
660	2.62579	98865152	67252224	20969072	33184
661	2.573239	98865152	67252224	24512352	33184
662	2.578433	98865152	67252224	28056440	33184
663	2.582813	98865152	67252224	31600520	33184
664	2.655344	98865152	67252224	35149456	33184
665	2.591328	98865152	67252224	22421824	33184
666	2.643827	98865152	67252224	25989992	33184
667	2.593347	98865152	67252224	29555432	33184
668	2.598701	98865152	67252224	33137920	33184
669	3.062008	98865152	67252224	20435816	33184
670	2.619636	98865152	67252224	24018744	33184
671	2.846756	98865152	67252224	27603560	33184
672	2.620098	98865152	67252224	31193192	33184
673	2.867284	98865152	67252224	34798560	33184
674	2.633781	98865152	67252224	22156336	33184
675	2.697385	98865152	67252224	25761184	33184
676	2.650249	98865152	67252224	29377216	33184
677	2.870704	98865152	67252224	32993592	33184
678	3.062658	98865152	67252224	20370064	33184
679	2.926357	98865152	67252224	23992952	33184
680	2.640434	98865152	67252224	27633400	33184
681	2.652123	98865152	67252224	31279648	33184
682	2.658715	98865152	67252224	34917872	33184
683	2.762696	98865152	67252224	22303376	33184
684	2.684229	98865152	67252224	25950864	33184
685	2.65943	98865152	67252224	29614992	33184
686	2.721137	98865152	67252224	33272536	33184
687	3.076467	98865152	67252224	20659600	33184
688	2.783814	98865152	67252224	24336920	33184
689	2.778111	98865152	67252224	28011072	33184
690	2.691852	98865152	67252224	31688200	33184
691	2.680608	98865152	67252224	35371648	33184
692	2.756186	98865152	67252224	22783840	33184
693	2.691975	98865152	67252224	26477016	33184
694	2.698992	98865152	67252224	30174008	33184
695	2.69258	98865152	67252224	33875928	33184
696	2.749855	98865152	67252224	21233408	33184
697	2.717966	98865152	67252224	24945344	33184
698	2.717773	98865152	67252224	28661928	33184
699	2.709844	98865152	67252224	32383512	33184
700	3.141168	98865152	67252224	19976656	33184
701	2.95547	98865152	67252224	23732928	33184
702	2.733935	98865152	67252224	27485800	33184
703	2.850345	98865152	67252224	31244336	33184
704	2.754942	98865152	67252224	35013632	33184
705	2.842109	98865152	67252224	22525720	33184
706	2.849759	98865152	67252224	26315528	33184
707	3.04108	98865152	67252224	30092936	33184
708	2.763679	98865152	67252224	33875168	33184
709	3.063685	98865152	67252224	21342992	33184
710	2.756072	98865152	67252224	25135144	33184
711	2.777773	98865152	67252224	28943792	33184
712	2.808258	98865152	67252224	32746032	33184
713	3.441632	98865152	67252224	20396152	33184
714	2.786404	98865152	67252224	24244032	33184
715	3.008371	98865152	67252224	28126848	33184
716	2.804249	98865152	67252224	32019008	33184
717	3.302198	98865152	67252224	19805048	33184
718	3.069053	98865152	67252224	23712976	33184
719	3.022717	98865152	67252224	27615448	33184
720	2.797227	98865152	67252224	31526464	33184
721	3.027587	98865152	67252224	35438872	33184
722	2.926901	98865152	67252224	23088008	33184
723	2.922665	98865152	67252224	27013712	33184
724	2.928117	98865152	67252224	30942392	33184
725	2.819246	98865152	67252224	34874456	33184
726	2.923756	98865152	67252224	22585320	33184
727	2.844034	98865152	67252224	26529128	33184
728	2.854251	98865152	67252224	30480512	33184
729	2.834006	98865152	67252224	34432216	33184
730	2.941716	98865152	67252224	22266232	33184
731	2.87327	98865152	67252224	26227896	33184
732	3.052371	98865152	67252224	30194328	33184
733	2.846385	98865152	67252224	34179592	33184
734	2.877892	98865152	67252224	22027696	33184
735	2.862844	98865152	67252224	26020920	33184
736	3.082557	98865152	67252224	30020176	33184
737	2.865617	98865152	67252224	34011288	33184
738	3.276292	98865152	67252224	21936552	33184
739	2.875769	98865152	67252224	25943544	33184
740	2.898431	98865152	67252224	29949616	33184
741	2.882414	98865152	67252224	33960440	33184
742	2.994966	98865152	67252224	21753328	33184
743	2.990177	98865152	67252224	25774136	33184
744	2.991496	98865152	67252224	29799864	33184
745	2.898103	98865152	67252224	33836616	33184
746	3.21244	98865152	67252224	21543224	33184
747	3.101451	98865152	67252224	25588688	33184
748	2.902151	98865152	67252224	29645840	33184
749	2.923148	98865152	67252224	33696136	33184
750	3.475269	98865152	67252224	21466664	33184
751	3.098326	98865152	67252224	25541288	33184
752	3.082662	98865152	67252224	29616120	33184
753	2.939506	98865152	67252224	33686328	33184
754	3.322853	98865152	67252224	21487656	33184
755	2.982994	98865152	67252224	25581784	33184
756	2.937119	98865152	67252224	29693120	33184
757	3.231837	98865152	67252224	33790648	33184
758	3.270683	98865152	67252224	21555832	33184
759	2.954518	98865152	67252224	25673488	33184
760	3.202591	98865152	67252224	29780832	33184
761	2.952506	98865152	67252224	33897864	33184
762	3.102046	98865152	67252224	21711512	33184
763	3.087053	98865152	67252224	25831080	33184
764	3.004597	98865152	67252224	29955544	33184
765	3.013601	98865152	67252224	34084888	33184
766	3.289433	98865152	67252224	22145376	33184
767	2.978658	98865152	67252224	26288168	33184
768	2.983147	98865152	67252224	30432384	33184
769	3.179284	98865152	67252224	34581560	33184
770	2.984962	98865152	67252224	22622016	33184
771	3.228459	98865152	67252224	26786000	33184
772	2.989647	98865152	67252224	30956144	33184
773	3.008887	98865152	67252224	35124872	33184
774	3.127972	98865152	67252224	23095432	33184
775	3.009699	98865152	67252224	27294528	33184
776	3.816493	98865152	67252224	31484320	33184
777	3.096967	98865152	67252224	35681976	33184
778	3.257096	98865152	67252224	23642880	33184
779	3.036975	98865152	67252224	27846736	33184
780	3.09367	98865152	67252224	32051896	33184
781	3.522784	98865152	67252224	20184128	33184
782	3.047573	98865152	67252224	24397288	33184
783	3.040308	98865152	67252224	28615320	33184
784	3.037745	98865152	67252224	32838224	33184
785	3.500017	98865152	67252224	20911504	33184
786	3.048913	98865152	67252224	25144432	33184
787	3.287559	98865152	67252224	29389304	33184
788	3.073086	98865152	67252224	33639808	33184
789	3.727927	98865152	67252224	21662952	33184
790	3.078452	98865152	67252224	25932832	33184
791	3.074358	98865152	67252224	30190448	33184
792	3.087972	98865152	67252224	34452928	33184
793	3.191275	98865152	67252224	22623888	33184
794	3.308058	98865152	67252224	26898056	33184
795	3.091545	98865152	67252224	31175240	33184
796	3.099921	98865152	67252224	35457480	33184
797	3.235703	98865152	67252224	23511224	33184
798	3.098353	98865152	67252224	27803312	33184
799	3.096604	98865152	67252224	32100208	33184
800	3.629677	98865152	67252224	20337240	33184
801	3.140162	98865152	67252224	24644152	33184
802	3.108663	98865152	67252224	28974248	33184
803	3.332136	98865152	67252224	33297016	33184
804	3.699568	98865152	67252224	21390368	33184
805	3.140797	98865152	67252224	25716936	33184
806	3.216786	98865152	67252224	30052136	33184
807	3.133973	98865152	67252224	34390392	33184
808	3.416863	98865152	67252224	22656656	33184
809	3.142344	98865152	67252224	27003112	33184
810	3.142494	98865152	67252224	31354248	33184
811	3.13671	98865152	67252224	35710168	33184
812	3.28421	98865152	67252224	23852800	33184
813	3.369916	98865152	67252224	28232896	33184
814	3.158501	98865152	67252224	32603888	33184
815	3.92842	98865152	67252224	20902800	33184
816	3.30102	98865152	67252224	25283408	33184
817	3.18971	98865152	67252224	29673016	33184
818	3.252958	98865152	67252224	34063632	33184
819	3.54966	98865152	67252224	22137864	33184
820	3.416084	98865152	67252224	26539344	33184
821	3.194539	98865152	67252224	30946072	33184
822	3.303852	98865152	67252224	35360568	33184
823	3.198558	98865152	67252224	23603328	33184
824	3.369073	98865152	67252224	28023440	33184
825	3.558454	98865152	67252224	32454216	33184
826	3.932473	98865152	67252224	20807560	33184
827	3.384956	98865152	67252224	25244080	33184
828	3.555079	98865152	67252224	29691464	33184
829	3.329398	98865152	67252224	34136496	33184
830	3.482851	98865152	67252224	22313648	33184
831	3.229065	98865152	67252224	26772504	33184
832	3.30453	98865152	67252224	31232112	33184
833	3.295543	98865152	67252224	35699168	33184
834	3.433821	98865152	67252224	23948848	33184
835	3.260921	98865152	67252224	28432888	33184
836	3.28942	98865152	67252224	32917688	33184
837	3.808901	98865152	67252224	21286520	33184
838	3.696268	98865152	67252224	25775896	33184
839	3.275266	98865152	67252224	30272464	33184
840	3.260138	98865152	67252224	34771856	33184
841	3.383492	98865152	67252224	23200680	33184
842	3.391264	98865152	67252224	27709464	33184
843	3.491398	98865152	67252224	32226912	33184
844	3.871088	98865152	67252224	20691768	33184
845	3.278282	98865152	67252224	25219080	33184
846	3.285376	98865152	67252224	29747616	33184
847	3.514763	98865152	67252224	34287104	33184
848	3.50156	98865152	67252224	22522120	33184
849	3.338136	98865152	67252224	27066120	33184
850	3.353546	98865152	67252224	31656072	33184
851	3.303709	98865152	67252224	36275448	33184
852	3.317474	98865152	67252224	24678032	33184
853	3.5177	98865152	67252224	29296488	33184
854	3.329589	98865152	67252224	33918064	33184
855	3.923694	98865152	67252224	22354048	33184
856	3.456343	98865152	67252224	26983576	33184
857	3.501681	98865152	67252224	31619800	33184
858	3.331046	98865152	67252224	36261784	33184
859	3.328955	98865152	67252224	24689656	33184
860	3.330686	98865152	67252224	29339600	33184
861	3.346026	98865152	67252224	34003496	33184
862	3.951499	98865152	67252224	22447160	33184
863	3.354951	98865152	67252224	27123048	33184
864	3.785613	98865152	67252224	31793488	33184
865	3.377163	98865152	67252224	36468520	33184
866	3.500056	98865152	67252224	24901576	33184
867	3.489364	98865152	67252224	29592688	33184
868	3.414254	98865152	67252224	34281464	33184
869	3.447798	98865152	67252224	22704872	33184
870	3.420106	98865152	67252224	27409408	33184
871	3.376257	98865152	67252224	32116848	33184
872	4.052846	98865152	67252224	20810080	33184
873	3.446839	98865152	67252224	25523512	33184
874	3.397359	98865152	67252224	30241656	33184
875	3.401231	98865152	67252224	34973632	33184
876	3.518791	98865152	67252224	23659816	33184
877	3.53519	98865152	67252224	28393872	33184
878	3.49675	98865152	67252224	33150528	33184
879	4.048796	98865152	67252224	21730048	33184
880	3.666651	98865152	67252224	26502848	33184
881	3.436446	98865152	67252224	31261800	33184
882	3.417618	98865152	67252224	36021328	33184
883	3.659694	98865152	67252224	24584888	33184
884	3.469017	98865152	67252224	29352640	33184
885	3.449792	98865152	67252224	34142816	33184
886	4.477858	98865152	67252224	22684568	33184
887	3.483599	98865152	67252224	27482856	33184
888	3.45469	98865152	67252224	32282632	33184
889	4.299798	98865152	67252224	21037072	33184
890	3.462405	98865152	67252224	25840056	33184
891	3.67529	98865152	67252224	30643416	33184
892	3.455867	98865152	67252224	35450376	33184
893	3.470145	98865152	67252224	24202912	33184
894	3.47942	98865152	67252224	29019800	33184
895	3.492349	98865152	67252224	33861192	33184
896	4.10109	98865152	67252224	22483056	33184
897	3.710765	98865152	67252224	27316472	33184
898	3.485758	98865152	67252224	32152976	33184
899	4.188063	98865152	67252224	20997728	33184
900	3.728388	98865152	67252224	25844272	33184
901	3.489836	98865152	67252224	30701952	33184
902	3.518803	98865152	67252224	35574104	33184
903	3.569182	98865152	67252224	24329792	33184
904	3.500114	98865152	67252224	29202504	33184
905	3.537219	98865152	67252224	34079280	33184
906	4.257773	98865152	67252224	22753568	33184
907	3.597039	98865152	67252224	27634416	33184
908	3.544975	98865152	67252224	32535632	33184
909	4.214003	98865152	67252224	21382600	33184
910	3.534735	98865152	67252224	26278352	33184
911	3.740812	98865152	67252224	31180624	33184
912	3.540986	98865152	67252224	36087128	33184
913	3.549626	98865152	67252224	24796704	33184
914	3.769014	98865152	67252224	29712200	33184
915	3.545877	98865152	67252224	34634808	33184
916	3.686561	98865152	67252224	23584144	33184
917	3.705413	98865152	67252224	28520976	33184
918	3.693371	98865152	67252224	33467280	33184
919	4.313604	98865152	67252224	22239328	33184
920	3.815479	98865152	67252224	27184392	33184
921	3.589701	98865152	67252224	32153384	33184
922	4.318255	98865152	67252224	21148352	33184
923	3.814832	98865152	67252224	26120000	33184
924	3.652341	98865152	67252224	31104112	33184
925	3.582263	98865152	67252224	36073888	33184
926	3.761202	98865152	67252224	24871312	33184
927	3.731489	98865152	67252224	29851040	33184
928	3.872215	98865152	67252224	34836296	33184
929	3.629396	98865152	67252224	23822832	33184
930	3.603588	98865152	67252224	28817744	33184
931	3.595996	98865152	67252224	33824072	33184
932	4.438463	98865152	67252224	22633080	33184
933	3.823108	98865152	67252224	27652424	33184
934	3.619035	98865152	67252224	32666504	33184
935	4.382839	98865152	67252224	21653808	33184
936	3.772784	98865152	67252224	26677992	33184
937	3.637505	98865152	67252224	31706984	33184
938	3.706395	98865152	67252224	36760128	33184
939	3.876804	98865152	67252224	25603456	33184
940	3.638915	98865152	67252224	30647384	33184
941	3.645252	98865152	67252224	35696064	33184
942	3.953265	98865152	67252224	24714944	33184
943	3.676823	98865152	67252224	29777376	33184
944	3.657293	98865152	67252224	34840712	33184
945	3.919456	98865152	67252224	23934560	33184
946	3.703403	98865152	67252224	29007816	33184
947	3.780606	98865152	67252224	34087624	33184
948	4.472524	98865152	67252224	22993208	33184
949	3.725872	98865152	67252224	28102040	33184
950	3.696223	98865152	67252224	33195016	33184
951	4.632507	98865152	67252224	22219392	33184
952	3.723294	98865152	67252224	27329472	33184
953	3.772364	98865152	67252224	32444256	33184
954	4.516031	98865152	67252224	21538904	33184
955	3.954367	98865152	67252224	26662360	33184
956	3.72752	98865152	67252224	31796904	33184
957	3.709298	98865152	67252224	36945840	33184
958	3.999697	98865152	67252224	25888672	33184
959	3.767714	98865152	67252224	31040952	33184
960	3.722072	98865152	67252224	36183792	33184
961	3.75156	98865152	67252224	25189360	33184
962	3.742855	98865152	67252224	30346544	33184
963	3.724573	98865152	67252224	35508376	33184
964	3.758895	98865152	67252224	24651760	33184
965	3.751365	98865152	67252224	29827808	33184
966	3.737352	98865152	67252224	35001872	33184
967	3.905575	98865152	67252224	24198088	33184
968	4.033366	98865152	67252224	29381200	33184
969	3.748947	98865152	67252224	34567992	33184
970	4.505416	98865152	67252224	23487224	33184
971	3.994075	98865152	67252224	28683728	33184
972	3.762206	98865152	67252224	33885240	33184
973	4.528574	98865152	67252224	22908264	33184
974	3.774899	98865152	67252224	28125936	33184
975	3.986618	98865152	67252224	33344968	33184
976	4.500119	98865152	67252224	22475560	33184
977	3.786909	98865152	67252224	27703984	33184
978	3.803474	98865152	67252224	32949984	33184
979	4.630566	98865152	67252224	22183536	33184
980	3.811636	98865152	67252224	27433664	33184
981	4.017834	98865152	67252224	32695592	33184
982	4.64609	98865152	67252224	21940896	33184
983	3.815398	98865152	67252224	27201296	33184
984	3.825905	98865152	67252224	32464168	33184
985	4.86927	98865152	67252224	21746296	33184
986	3.981555	98865152	67252224	27016840	33184
987	3.832113	98865152	67252224	32292416	33184
988	5.146273	98865152	67252224	21623856	33184
989	4.145243	98865152	67252224	26910728	33184
990	3.835541	98865152	67252224	32203008	33184
991	4.759166	98865152	67252224	21580720	33184
992	4.085144	98865152	67252224	26884200	33184
993	3.869097	98865152	67252224	32189968	33184
994	4.48235	98865152	67252224	21200320	33184
995	4.007904	98865152	67252224	26528952	33184
996	4.088684	98865152	67252224	31849064	33184
997	3.857204	98865152	67252224	37177040	33184
998	3.883405	98865152	67252224	26330864	33184
999	3.873812	98865152	67252224	31665504	33184
1000	3.891484	98865152	67252224	37013696	33184
