x	Duration	RSS	HeapTotal	HeapUsed	External
0	NA	100589568	67776512	16008840	33184
1	0.249414	100589568	67776512	16061112	33184
2	0.198288	100589568	67776512	16129056	33184
3	0.12055	100589568	67776512	16231144	33184
4	0.116283	100589568	67776512	16321264	33184
5	0.12018	100589568	67776512	16416296	33184
6	0.124508	100589568	67776512	16516872	33184
7	0.126985	100589568	67776512	16622320	33184
8	0.131794	100589568	67776512	16732680	33184
9	0.135586	100589568	67776512	16848616	33184
10	0.140804	100589568	67776512	16970112	33184
11	0.143789	100589568	67776512	17096672	33184
12	0.162468	100589568	67776512	17228064	33184
13	0.157806	100589568	67776512	17364376	33184
14	0.160739	100589568	67776512	17505632	33184
15	0.16451	100589568	67776512	17651776	33184
16	0.168473	100589568	67776512	17802856	33184
17	0.172588	100589568	67776512	17958872	33184
18	0.206385	100589568	67776512	18123704	33184
19	0.171257	100589568	67776512	18292080	33184
20	0.175564	100589568	67776512	18465752	33184
21	0.375421	100589568	67776512	18645728	33184
22	0.195665	100589568	67776512	18831560	33184
23	0.190215	100589568	67776512	19022304	33184
24	0.192657	100589568	67776512	19218040	33184
25	0.21724	100589568	67776512	19421024	33184
26	0.194649	100589568	67776512	19626288	33184
27	0.195148	100589568	67776512	19836464	33184
28	0.200173	100589568	67776512	20051576	33184
29	0.204544	100589568	67776512	20271632	33184
30	0.394707	100589568	67776512	20497688	33184
31	0.213149	100589568	67776512	20728696	33184
32	0.255339	100589568	67776512	20964600	33184
33	0.21965	100589568	67776512	21205488	33184
34	0.222642	100589568	67776512	21451248	33184
35	0.224984	100589568	67776512	21701944	33184
36	0.227946	100589568	67776512	21957552	33184
37	0.234895	100589568	67776512	22218168	33184
38	0.254633	100589568	67776512	22483632	33184
39	0.241433	100589568	67776512	22754024	33184
40	0.246849	100589568	67776512	23029336	33184
41	0.249852	100589568	67776512	23309632	33184
42	0.275274	100589568	67776512	23594800	33184
43	0.25744	100589568	67776512	23884952	33184
44	0.423377	100589568	67776512	24182144	33184
45	0.26849	100589568	67776512	24489160	33184
46	0.271357	100589568	67776512	24801808	33184
47	0.27128	100589568	67776512	25119304	33184
48	0.277028	100589568	67776512	25441736	33184
49	0.280422	100589568	67776512	25769104	33184
50	0.282732	100589568	67776512	26101488	33184
51	0.307474	100589568	67776512	26438696	33184
52	0.293353	100589568	67776512	26780832	33184
53	0.295637	100589568	67776512	27127976	33184
54	0.29977	100589568	67776512	27479992	33184
55	0.321284	100589568	67776512	27836920	33184
56	0.312216	100589568	67776512	28200928	33184
57	0.315712	100589568	67776512	28569864	33184
58	0.316548	100589568	67776512	28943704	33184
59	0.319463	100589568	67776512	29322432	33184
60	0.323756	100589568	67776512	29706192	33184
61	0.359571	100589568	67776512	30094792	33184
62	0.330675	100589568	67776512	30488304	33184
63	0.329737	100589568	67776512	30886736	33184
64	0.336689	100589568	67776512	31290120	33184
65	0.342897	100859904	67776512	31698448	33184
66	0.345099	100859904	67776512	32111688	33184
67	0.350841	100859904	67776512	32529824	33184
68	0.355874	100859904	67776512	16752776	33184
69	0.350008	100859904	67776512	17180776	33184
70	0.359999	100859904	67776512	17613808	33184
71	0.35741	100859904	67776512	18051648	33184
72	0.364258	100859904	67776512	18494424	33184
73	0.366028	100859904	67776512	18942144	33184
74	0.369048	100859904	67776512	19394816	33184
75	0.371315	100859904	67776512	19852440	33184
76	0.377151	100859904	67776512	20317024	33184
77	0.400303	100859904	67776512	20786648	33184
78	0.384056	100859904	67776512	21261096	33184
79	0.388592	100859904	67776512	21740472	33184
80	0.560162	100859904	67776512	22225016	33184
81	0.439076	100859904	67776512	22715344	33184
82	0.400072	100859904	67776512	23209432	33184
83	0.40496	100859904	67776512	23708424	33184
84	0.44706	100859904	67776512	24217000	33184
85	0.417923	100859904	67776512	24732648	33184
86	0.415064	100859904	67776512	25252872	33184
87	0.417096	100859904	67776512	25777704	33184
88	0.425784	100859904	67776512	26307040	33184
89	0.422886	100859904	67776512	26841320	33184
90	0.42934	100859904	67776512	27380472	33184
91	0.431018	100859904	67776512	27928856	33184
92	0.433704	100859904	67776512	28486408	33184
93	0.637784	100859904	67776512	29048840	33184
94	0.44571	100859904	67776512	29616144	33184
95	0.451747	100859904	67776512	30188424	33184
96	0.450699	100859904	67776512	30765608	33184
97	0.50109	100859904	67776512	31347704	33184
98	0.462907	100859904	67776512	31934720	33184
99	0.473466	100859904	67776512	32526712	33184
100	0.488528	100859904	67776512	16906648	33184
101	0.476321	100859904	67776512	17508624	33184
102	0.478714	100859904	67776512	18115384	33184
103	0.484609	100859904	67776512	18727064	33184
104	0.542188	100859904	67776512	19343720	33184
105	0.491782	100859904	67776512	19965264	33184
106	0.49318	100859904	67776512	20591752	33184
107	0.493823	100859904	67776512	21223176	33184
108	0.500583	100859904	67776512	21859520	33184
109	1.489148	100859904	67776512	22500808	33184
110	1.154992	100859904	67776512	23147072	33184
111	0.521921	100859904	67776512	23807832	33184
112	0.517378	100859904	67776512	24463880	33184
113	0.554509	100859904	67776512	25124920	33184
114	0.524413	100859904	67776512	25790968	33184
115	0.52969	100859904	67776512	26461824	33184
116	0.53424	100859904	67776512	27137608	33184
117	0.528383	100859904	67776512	27818352	33184
118	0.539161	100859904	67776512	28504032	33184
119	0.541548	100859904	67776512	29194680	33184
120	0.546024	100859904	67776512	29890272	33184
121	0.547456	100859904	67776512	30590696	33184
122	0.554494	100859904	67776512	31296088	33184
123	0.754699	100859904	67776512	32006512	33184
124	0.561551	100859904	67776512	32721808	33184
125	0.606624	100859904	67776512	17144536	33184
126	0.608219	100859904	67776512	17869672	33184
127	0.612078	100859904	67776512	18599728	33184
128	0.648903	100859904	67776512	19339304	33184
129	0.579706	100859904	67776512	20083344	33184
130	0.582491	100859904	67776512	20832408	33184
131	0.579549	100859904	67776512	21586920	33184
132	0.767366	100859904	67776512	22345864	33184
133	0.606567	100859904	67776512	23109712	33184
134	0.59675	100859904	67776512	23878440	33184
135	0.607103	100859904	67776512	24652408	33184
136	0.607578	100859904	67776512	25431072	33184
137	0.612541	100859904	67776512	26214912	33184
138	0.622224	100859904	67776512	27003400	33184
139	0.612812	100859904	67776512	27796840	33184
140	0.619775	100859904	67776512	28595200	33184
141	0.797307	100859904	67776512	29398440	33184
142	0.626308	100859904	67776512	30214000	33184
143	0.633401	100859904	67776512	31036256	33184
144	0.638531	100859904	67776512	31863472	33184
145	0.642447	100859904	67776512	32695592	33184
146	0.708078	100859904	67776512	17232344	33184
147	0.691886	100859904	67776512	18074504	33184
148	0.696621	100859904	67776512	18921880	33184
149	0.708611	100859904	67776512	19773736	33184
150	0.656745	100859904	67776512	20630584	33184
151	0.661125	100859904	67776512	21492312	33184
152	0.669404	100859904	67776512	22359016	33184
153	0.86233	100859904	67776512	23230584	33184
154	0.683253	100859904	67776512	24107120	33184
155	0.674276	100859904	67776512	24988568	33184
156	0.683273	100859904	67776512	25874920	33184
157	0.872797	100859904	67776512	26766288	33184
158	0.702389	100859904	67776512	27662944	33184
159	0.690882	100859904	67776512	28564136	33184
160	0.691981	100859904	67776512	29470208	33184
161	0.699786	100859904	67776512	30381288	33184
162	0.712217	100859904	67776512	31297928	33184
163	0.706642	100859904	67776512	32218880	33184
164	0.711847	100859904	67776512	33145624	33184
165	0.72166	100859904	67776512	17733496	33184
166	0.727535	100859904	67776512	18673488	33184
167	0.730291	100859904	67776512	19618232	33184
168	0.728938	100859904	67776512	20568712	33184
169	0.734041	100859904	67776512	21523392	33184
170	0.735353	100859904	67776512	22483008	33184
171	0.739025	100859904	67776512	23450360	33184
172	0.931015	100859904	67776512	24419784	33184
173	0.930457	100859904	67776512	25394192	33184
174	0.76092	100859904	67776512	26376280	33184
175	0.749293	100859904	67776512	27360520	33184
176	0.75705	100859904	67776512	28352672	33184
177	0.769053	100859904	67776512	29346808	33184
178	0.766025	100859904	67776512	30345816	33184
179	0.965423	100859904	67776512	31349840	33184
180	0.769884	100859904	67776512	32367088	33184
181	1.212123	100859904	67776512	17095048	33184
182	0.782479	100859904	67776512	18130872	33184
183	0.787953	100859904	67776512	19172288	33184
184	0.790499	100859904	67776512	20217824	33184
185	0.795625	100859904	67776512	21267984	33184
186	0.81159	100859904	67776512	22323096	33184
187	0.802558	100859904	67776512	23383144	33184
188	0.811167	100859904	67776512	24448216	33184
189	0.807809	100859904	67776512	25518176	33184
190	0.809497	100859904	67776512	26593136	33184
191	0.807861	100859904	67776512	27675384	33184
192	0.815891	100859904	67776512	28760704	33184
193	0.98708	100859904	67776512	29851136	33184
194	0.823313	100859904	67776512	30945776	33184
195	0.843873	100859904	67776512	32045288	33184
196	0.834799	100859904	67776512	33149680	33184
197	0.849279	100859904	67776512	17950584	33184
198	0.835458	100859904	67776512	19065120	33184
199	1.045019	100859904	67776512	20184392	33184
200	0.849669	100859904	67776512	21308488	33184
201	0.855676	100859904	67776512	22438136	33184
202	0.859845	100859904	67776512	23572168	33184
203	0.85964	100859904	67776512	24711160	33184
204	0.856486	100859904	67776512	25855112	33184
205	0.874526	100859904	67776512	27003880	33184
206	0.868511	100859904	67776512	28157672	33184
207	0.871964	100859904	67776512	29316360	33184
208	0.876923	100859904	67776512	30481512	33184
209	0.885093	100859904	67776512	31650056	33184
210	0.888684	100859904	67776512	32823536	33184
211	1.358477	100859904	67776512	17678456	33184
212	0.893651	100859904	67776512	18861944	33184
213	0.901406	100859904	67776512	20050200	33184
214	0.924261	100859904	67776512	21244200	33184
215	0.903415	100859904	67776512	22442328	33184
216	0.911328	100859904	67776512	23645424	33184
217	0.910483	100859904	67776512	24853472	33184
218	0.922355	100859904	67776512	26066400	33184
219	0.925059	100859904	67776512	27284296	33184
220	0.91988	100859904	67776512	28507944	33184
221	0.927433	100859904	67776512	29735688	33184
222	0.936374	100859904	67776512	30968392	33184
223	1.116727	100859904	67776512	32206024	33184
224	0.936963	100859904	67776512	33448536	33184
225	1.025411	101130240	67776512	18385960	33184
226	0.949368	101130240	67776512	19638280	33184
227	1.007041	101130240	67776512	20895640	33184
228	0.952378	101130240	67776512	22159232	33184
229	1.013926	101130240	67776512	23437936	33184
230	0.961716	101130240	67776512	24724480	33184
231	0.99605	101130240	67776512	26016080	33184
232	0.970639	101130240	67776512	27312424	33184
233	0.989547	101130240	67776512	28613792	33184
234	0.973414	101130240	67776512	29920000	33184
235	0.99046	101130240	67776512	31231472	33184
236	0.99638	101130240	67776512	32547600	33184
237	1.499223	101130240	67776512	17599960	33184
238	1.011602	101130240	67776512	18926792	33184
239	0.999987	101130240	67776512	20257680	33184
240	1.18675	101130240	67776512	21593432	33184
241	1.022695	101130240	67776512	22934192	33184
242	1.009394	101130240	67776512	24279832	33184
243	1.015907	101130240	67776512	25632368	33184
244	1.014222	101130240	67776512	26987856	33184
245	1.09309	101130240	67776512	28348368	33184
246	1.027046	101130240	67776512	29713856	33184
247	1.039371	101130240	67776512	31084168	33184
248	1.028653	101130240	67776512	32459448	33184
249	1.560113	101130240	67776512	17571280	33184
250	1.045061	101130240	67776512	18956536	33184
251	1.047114	101130240	67776512	20346696	33184
252	1.047021	101130240	67776512	21745024	33184
253	1.045004	101130240	67776512	23144952	33184
254	1.05612	101130240	67776512	24550128	33184
255	1.053759	101130240	67776512	25959920	33184
256	1.068407	101130240	67776512	27374680	33184
257	1.059616	101130240	67776512	28799208	33184
258	1.067027	101130240	67776512	30223776	33184
259	1.077081	101130240	67776512	31653248	33184
260	1.091221	101130240	67776512	33087728	33184
261	1.59899	101130240	67776512	18176880	33184
262	1.112537	101130240	67776512	19621272	33184
263	1.106835	101130240	67776512	21070488	33184
264	1.123439	101130240	67776512	22524680	33184
265	1.107772	101130240	67776512	23984552	33184
266	1.107608	101130240	67776512	25454544	33184
267	1.122813	101130240	67776512	26923528	33184
268	1.1187	101130240	67776512	28399016	33184
269	1.120287	101130240	67776512	29886112	33184
270	1.108969	101130240	67776512	31378120	33184
271	1.116229	101130240	67776512	32875080	33184
272	1.683062	101130240	67776512	18066112	33184
273	1.130891	101130240	67776512	19572920	33184
274	1.130635	101130240	67776512	21084680	33184
275	1.206041	101130240	67776512	22601280	33184
276	1.143262	101130240	67776512	24122928	33184
277	1.148612	101130240	67776512	25649456	33184
278	1.14678	101130240	67776512	27180912	33184
279	1.155934	101130240	67776512	28717344	33184
280	1.459732	101130240	67776512	30260608	33184
281	1.181605	101130240	67776512	31807032	33184
282	1.155719	101130240	67776512	33358208	33184
283	1.250972	101400576	67776512	18650928	33184
284	1.358777	101400576	67776512	20211984	33184
285	1.178786	101400576	67776512	21778032	33184
286	1.172469	101400576	67776512	23348944	33184
287	1.202904	101400576	67776512	24924776	33184
288	1.184506	101400576	67776512	26505544	33184
289	1.224533	101400576	67776512	28091576	33184
290	1.185835	101400576	67776512	29684368	33184
291	1.196291	101400576	67776512	31279968	33184
292	1.208198	101400576	67776512	32880904	33184
293	2.001131	101400576	67776512	18180544	33184
294	1.214246	101400576	67776512	19790880	33184
295	1.214179	101400576	67776512	21406152	33184
296	1.270259	101400576	67776512	23026360	33184
297	1.211096	101400576	67776512	24651504	33184
298	1.250059	101400576	67776512	26281608	33184
299	1.236308	101400576	67776512	27916672	33184
300	1.238629	101400576	67776512	29556784	33184
301	1.238776	101400576	67776512	31201632	33184
302	1.422152	101400576	67776512	32851512	33184
303	1.769439	101400576	67776512	18209496	33184
304	1.251733	101400576	67776512	19869152	33184
305	1.326046	101400576	67776512	21539504	33184
306	1.264134	101400576	67776512	23211784	33184
307	1.261148	101400576	67776512	24886328	33184
308	1.304972	101400576	67776512	26567904	33184
309	1.273476	101400576	67776512	28252224	33184
310	1.263002	101400576	67776512	29941816	33184
311	1.275885	101400576	67776512	31636032	33184
312	1.283453	101400576	67776512	33336632	33184
313	1.366258	101400576	67776512	18688352	33184
314	1.348921	101400576	67776512	20397424	33184
315	1.288264	101400576	67776512	22113616	33184
316	1.294204	101400576	67776512	23832472	33184
317	1.292908	101400576	67776512	25556264	33184
318	1.293491	101400576	67776512	27287104	33184
319	1.353517	101400576	67776512	29020720	33184
320	1.313756	101400576	67776512	30759288	33184
321	1.305961	101400576	67776512	32502944	33184
322	1.530026	101400576	67776512	34251448	33184
323	1.510501	101400576	67776512	19643264	33184
324	1.341584	101400576	67776512	21401512	33184
325	1.320018	101400576	67776512	23164952	33184
326	1.331291	101400576	67776512	24933104	33184
327	1.518366	101400576	67776512	26706264	33184
328	1.351361	101400576	67776512	28487296	33184
329	1.343021	101400576	67776512	30270392	33184
330	1.343546	101400576	67776512	32058376	33184
331	1.53657	101400576	67776512	33851352	33184
332	1.524532	101400576	67776512	19348000	33184
333	1.381736	101400576	67776512	21150800	33184
334	1.381952	101400576	67776512	22958456	33184
335	1.399521	101400576	67776512	24771088	33184
336	1.379452	101400576	67776512	26588520	33184
337	1.368663	101400576	67776512	28414832	33184
338	1.368002	101400576	67776512	30242240	33184
339	1.564336	101400576	67776512	32074560	33184
340	1.429233	101400576	67776512	33911816	33184
341	1.641542	101400576	67776512	19443944	33184
342	1.388787	101400576	67776512	21291056	33184
343	1.391171	101400576	67776512	23143104	33184
344	1.39355	101400576	67776512	25008208	33184
345	1.415248	101400576	67776512	26878416	33184
346	1.39788	101400576	67776512	28753520	33184
347	1.405553	101400576	67776512	30633464	33184
348	1.40692	101400576	67776512	32518432	33184
349	1.466122	101400576	67776512	34408272	33184
350	1.595993	101400576	67776512	19942024	33184
351	1.428376	101400576	67776512	21841728	33184
352	1.423097	101400576	67776512	23746424	33184
353	1.445933	101400576	67776512	25656056	33184
354	1.451597	101400576	67776512	27570512	33184
355	1.435559	101400576	67776512	29490016	33184
356	1.45197	101400576	67776512	31414360	33184
357	1.443074	101400576	67776512	33344840	33184
358	2.189377	101400576	67776512	18975152	33184
359	1.482186	101400576	67776512	20947280	33184
360	1.477418	101400576	67776512	22942216	33184
361	1.469824	101400576	67776512	24946592	33184
362	1.655461	101400576	67776512	26955784	33184
363	1.466263	101400576	67776512	28969864	33184
364	1.567384	101400576	67776512	30988992	33184
365	1.670053	101400576	67776512	33013056	33184
366	2.073511	101400576	67776512	18745088	33184
367	1.484258	101400576	67776512	20779016	33184
368	1.500632	101400576	67776512	22817816	33184
369	1.491872	101400576	67776512	24861536	33184
370	1.522231	101400576	67776512	26910168	33184
371	1.501533	101400576	67776512	28963760	33184
372	1.502109	101400576	67776512	31022336	33184
373	1.525999	101400576	67776512	33085776	33184
374	2.147419	101400576	67776512	18842008	33184
375	1.58627	101400576	67776512	20915376	33184
376	1.574759	101400576	67776512	22993616	33184
377	1.550517	101400576	67776512	25076992	33184
378	1.538736	101400576	67776512	27165064	33184
379	1.531584	101400576	67776512	29258056	33184
380	1.545246	101400576	67776512	31356136	33184
381	1.541686	101400576	67776512	33459208	33184
382	2.133889	101400576	67776512	19217088	33184
383	1.559059	101400576	67776512	21329896	33184
384	1.55643	101400576	67776512	23447584	33184
385	1.585256	101400576	67776512	25570224	33184
386	1.739671	101400576	67776512	27697856	33184
387	1.559234	101400576	67776512	29830440	33184
388	1.573576	101400576	67776512	31967936	33184
389	1.565602	101400576	67776512	34119352	33184
390	1.607543	101400576	67776512	19977728	33184
391	1.590269	101400576	67776512	22130032	33184
392	1.605567	101400576	67776512	24287248	33184
393	1.810052	101400576	67776512	26452936	33184
394	1.640045	101400576	67776512	28619936	33184
395	1.604692	101400576	67776512	30791904	33184
396	1.686664	101400576	67776512	32968832	33184
397	2.252954	101400576	67776512	18884520	33184
398	1.788284	101400576	67776512	21071280	33184
399	1.626584	101400576	67776512	23263024	33184
400	1.606663	101400576	67776512	25463448	33184
401	1.612901	101400576	67776512	27665024	33184
402	1.617603	101400576	67776512	29871560	33184
403	1.815732	101400576	67776512	32082992	33184
404	1.658997	101400576	67776512	34302688	33184
405	1.739657	101400576	67776512	20214192	33184
406	1.701548	101400576	67776512	22441928	33184
407	1.656499	101400576	67776512	24672992	33184
408	1.650492	101400576	67776512	26909088	33184
409	1.640563	101400576	67776512	29150384	33184
410	1.660119	101400576	67776512	31396320	33184
411	1.660797	101400576	67776512	33647200	33184
412	2.242731	101400576	67776512	19529152	33184
413	1.676088	101400576	67776512	21790008	33184
414	1.672799	101400576	67776512	24055808	33184
415	1.688944	101400576	67776512	26326424	33184
416	1.72489	101400576	67776512	28604424	33184
417	1.692517	101400576	67776512	30886880	33184
418	1.700454	101400576	67776512	33172304	33184
419	2.518882	101400576	67776512	19164232	33184
420	1.71964	101400576	67776512	21459464	33184
421	1.77322	101400576	67776512	23759712	33184
422	2.167116	101400576	67776512	26064880	33184
423	1.833162	101400576	67776512	28377168	33184
424	2.05346	101400576	67776512	30692088	33184
425	2.42967	101400576	67776512	33012056	33184
426	2.447869	101400576	67776512	19092120	33184
427	1.76713	101400576	67776512	21421968	33184
428	2.431283	101400576	67776512	23760208	33184
429	1.788143	101400576	67776512	26099824	33184
430	1.776924	101400576	67776512	28444520	33184
431	2.190336	101400576	67776512	30794064	33184
432	1.792706	101400576	67776512	33148488	33184
433	2.449057	101400576	67776512	19227000	33184
434	1.929493	101400576	67776512	21594960	33184
435	1.835186	101400576	67776512	23964136	33184
436	1.766258	101400576	67776512	26340488	33184
437	1.940873	101400576	67776512	28719632	33184
438	1.939623	101400576	67776512	31103672	33184
439	1.762053	101400576	67776512	33492568	33184
440	2.602958	101400576	67776512	19569808	33184
441	1.78853	101400576	67776512	21968648	33184
442	1.781416	101400576	67776512	24373064	33184
443	2.226007	101400576	67776512	26785584	33184
444	1.843077	101400576	67776512	29202544	33184
445	1.812843	101400576	67776512	31621064	33184
446	1.987907	101400576	67776512	34044656	33184
447	1.891318	101400576	67776512	20233392	33184
448	1.883932	101400576	67776512	22666656	33184
449	2.010264	101400576	67776512	25104928	33184
450	1.920664	101400576	67776512	27548104	33184
451	1.902476	101400576	67776512	30004904	33184
452	1.936837	101400576	67776512	32458032	33184
453	1.884856	101400576	67776512	34916040	33184
454	1.824004	101400576	67776512	21062616	33184
455	1.837541	101400576	67776512	23530896	33184
456	1.831162	101400576	67776512	26010016	33184
457	1.880621	101400576	67776512	28487664	33184
458	1.82441	101400576	67776512	30970344	33184
459	1.850103	101400576	67776512	33457944	33184
460	2.520014	101400576	67776512	19638960	33184
461	1.925683	101400576	67776512	22136552	33184
462	1.870372	101400576	67776512	24639008	33184
463	1.847153	101400576	67776512	27146360	33184
464	1.904483	101400576	67776512	29662568	33184
465	1.878887	101400576	67776512	32180512	33184
466	1.903979	101400576	67776512	34703056	33184
467	1.955638	101400576	67776512	20916896	33184
468	1.964187	101400576	67776512	23454360	33184
469	2.067294	101400576	67776512	25991224	33184
470	1.934698	101400576	67776512	28534992	33184
471	2.005349	101400576	67776512	31081712	33184
472	2.071514	101400576	67776512	33633304	33184
473	2.571838	101400576	67776512	19879224	33184
474	1.89116	101400576	67776512	22440808	33184
475	1.900471	101400576	67776512	25007248	33184
476	1.949731	101400576	67776512	27578536	33184
477	1.916854	101400576	67776512	30154928	33184
478	1.925636	101400576	67776512	32736160	33184
479	2.659953	101400576	67776512	19111568	33184
480	1.949039	101400576	67776512	21704064	33184
481	1.968941	101400576	67776512	24300312	33184
482	1.949409	101400576	67776512	26901272	33184
483	2.167735	101400576	67776512	29507128	33184
484	2.023157	101400576	67776512	32117952	33184
485	1.952876	101400576	67776512	34734296	33184
486	1.946166	101400576	67776512	21055584	33184
487	1.935908	101400576	67776512	23682768	33184
488	1.939459	101400576	67776512	26313312	33184
489	1.949247	101400576	67776512	28948840	33184
490	1.972529	101400576	67776512	31590480	33184
491	2.180535	101400576	67776512	34235928	33184
492	2.003374	101400576	67776512	20665984	33184
493	1.99567	101400576	67776512	23321168	33184
494	2.15926	101400576	67776512	25981264	33184
495	1.98788	101400576	67776512	28648832	33184
496	1.981967	101400576	67776512	31318888	33184
497	1.980017	101400576	67776512	33994344	33184
498	2.004062	101400576	67776512	20319448	33184
499	2.275782	101400576	67776512	23004320	33184
500	2.024165	101400576	67776512	25694024	33184
501	2.015639	101400576	67776512	28389648	33184
502	2.022036	101400576	67776512	31089336	33184
503	2.025929	101400576	67776512	33795616	33184
504	2.818438	101400576	67776512	20210128	33184
505	2.009663	101400576	67776512	22924568	33184
506	2.009954	101400576	67776512	25643888	33184
507	2.032755	101400576	67776512	28368080	33184
508	2.025956	101400576	67776512	31097656	33184
509	2.043452	101400576	67776512	33833640	33184
510	2.956223	101400576	67776512	20279224	33184
511	2.078416	101400576	67776512	23025192	33184
512	2.074715	101400576	67776512	25776728	33184
513	2.051036	101400576	67776512	28537816	33184
514	2.040469	101400576	67776512	31300808	33184
515	2.125047	101400576	67776512	34064536	33184
516	2.099467	101400576	67776512	20482672	33184
517	2.113964	101400576	67776512	23256872	33184
518	2.075419	101400576	67776512	26038136	33184
519	2.08555	101400576	67776512	28821680	33184
520	2.068891	101400576	67776512	31610016	33184
521	2.117744	101400576	67776512	34403240	33184
522	2.182666	101400576	67776512	20998400	33184
523	2.131267	101400576	67776512	23801608	33184
524	2.089232	101400576	67776512	26610304	33184
525	2.087042	101400576	67776512	29423304	33184
526	2.109257	101400576	67776512	32241464	33184
527	2.165734	101400576	67776512	35064416	33184
528	2.315377	101400576	67776512	21599456	33184
529	2.10263	101400576	67776512	24432144	33184
530	2.106533	101400576	67776512	27269840	33184
531	2.144208	101400576	67776512	30113064	33184
532	2.308548	101400576	67776512	32960744	33184
533	2.971754	101400576	67776512	19615896	33184
534	2.214299	101400576	67776512	22481800	33184
535	2.133343	101400576	67776512	25344152	33184
536	2.209816	101400576	67776512	28211344	33184
537	2.156835	101400576	67776512	31085448	33184
538	2.3399	101400576	67776512	33962768	33184
539	2.929247	101400576	67776512	20553384	33184
540	2.165691	101400576	67776512	23440432	33184
541	2.333987	101400576	67776512	26332512	33184
542	2.194371	101400576	67776512	29230984	33184
543	2.159707	101400576	67776512	32132872	33184
544	2.171788	101400576	67776512	35040864	33184
545	2.378091	101400576	67776512	21676752	33184
546	2.182503	101400576	67776512	24597336	33184
547	2.177652	101400576	67776512	27520144	33184
548	2.25031	101400576	67776512	30446872	33184
549	2.201894	101400576	67776512	33383504	33184
550	3.043602	101400576	67776512	20077176	33184
551	2.215178	101400576	67776512	23018536	33184
552	2.22277	101400576	67776512	25981184	33184
553	2.197715	101400576	67776512	28949456	33184
554	2.219989	101400576	67776512	31928552	33184
555	2.404879	101400576	67776512	34906048	33184
556	2.231923	101400576	67776512	21685880	33184
557	2.235137	101400576	67776512	24707144	33184
558	2.22762	101400576	67776512	27733376	33184
559	2.250246	101400576	67776512	30771296	33184
560	2.368358	101400576	67776512	33807416	33184
561	3.248657	101400576	67776512	20569344	33184
562	2.541002	101400576	67776512	23615944	33184
563	2.266969	101400576	67776512	26669304	33184
564	2.362404	101400576	67776512	29725080	33184
565	2.32597	101400576	67776512	32787896	33184
566	3.203201	101400576	67776512	19696656	33184
567	2.26746	101400576	67776512	22767248	33184
568	2.262473	101400576	67776512	25842776	33184
569	2.618246	101400576	67776512	28923200	33184
570	2.316829	101400576	67776512	32008592	33184
571	2.262995	101400576	67776512	35098968	33184
572	2.296903	101400576	67776512	21945664	33184
573	2.476673	101400576	67776512	25046648	33184
574	2.298871	101400576	67776512	28151864	33184
575	2.302002	101400576	67776512	31261896	33184
576	2.481903	101400576	67776512	34376920	33184
577	2.302337	101400576	67776512	21351464	33184
578	2.30873	101400576	67776512	24476264	33184
579	2.370075	101400576	67776512	27612544	33184
580	2.32466	101400576	67776512	30750080	33184
581	2.313821	101400576	67776512	33889688	33184
582	3.172199	101400576	67776512	20753480	33184
583	2.508254	101400576	67776512	23903048	33184
584	2.331916	101400576	67776512	27061728	33184
585	2.544518	101400576	67776512	30221152	33184
586	2.34876	101400576	67776512	33392488	33184
587	3.239627	101400576	67776512	20359456	33184
588	2.348324	101400576	67776512	23533680	33184
589	2.358861	101400576	67776512	26717304	33184
590	2.390227	101400576	67776512	29901416	33184
591	2.383355	101400576	67776512	33090456	33184
592	3.457704	101400576	67776512	20107760	33184
593	2.550807	101400576	67776512	23313280	33184
594	2.521722	101400576	67776512	26517520	33184
595	2.430023	101400576	67776512	29736232	33184
596	2.384936	101400576	67776512	32953848	33184
597	3.329864	101400576	67776512	20002200	33184
598	2.401052	101400576	67776512	23225808	33184
599	2.413269	101400576	67776512	26455680	33184
600	2.418098	101400576	67776512	29689064	33184
601	2.588006	101400576	67776512	32927344	33184
602	3.324432	101400576	67776512	20010928	33184
603	2.43354	101400576	67776512	23261048	33184
604	2.44323	101400576	67776512	26514040	33184
605	2.440085	101400576	67776512	29772040	33184
606	2.412647	101400576	67776512	33042760	33184
607	3.354584	101400576	67776512	20140000	33184
608	2.440279	101400576	67776512	23416632	33184
609	2.424427	101400576	67776512	26694408	33184
610	2.62179	101400576	67776512	29979960	33184
611	2.451665	101400576	67776512	33267656	33184
612	3.571688	101400576	67776512	20392040	33184
613	2.453263	101400576	67776512	23689600	33184
614	2.645918	101400576	67776512	26995256	33184
615	2.472213	101400576	67776512	30306464	33184
616	2.641553	101400576	67776512	33619456	33184
617	3.387559	101400576	67776512	20706160	33184
618	2.464621	101400576	67776512	24029040	33184
619	2.5068	101400576	67776512	27356088	33184
620	2.506827	101400576	67776512	30688120	33184
621	2.481765	101400576	67776512	34025000	33184
622	3.347957	101400576	67776512	21096680	33184
623	2.483848	101400576	67776512	24445872	33184
624	2.503597	101400576	67776512	27797552	33184
625	2.711503	101400576	67776512	31157776	33184
626	2.494937	101400576	67776512	34519288	33184
627	2.693359	101400576	67776512	21539768	33184
628	2.490803	101400576	67776512	24912936	33184
629	2.883881	101400576	67776512	28289352	33184
630	2.575198	101400576	67776512	31681448	33184
631	2.509372	101400576	67776512	35067744	33184
632	2.579417	101400576	67776512	22295552	33184
633	2.508405	101400576	67776512	25691744	33184
634	2.528463	101400576	67776512	29092752	33184
635	2.549769	101400576	67776512	32498696	33184
636	2.539719	101400576	67776512	35909968	33184
637	2.593999	101400576	67776512	23056568	33184
638	2.547955	101400576	67776512	26477328	33184
639	2.633957	101400576	67776512	29902992	33184
640	2.534517	101400576	67776512	33336952	33184
641	3.860449	101400576	67776512	20617232	33184
642	2.583456	101400576	67776512	24068016	33184
643	2.596721	101400576	67776512	27514488	33184
644	2.582301	101400576	67776512	30964856	33184
645	2.571101	101400576	67776512	34421696	33184
646	3.660149	101400576	67776512	21563768	33184
647	2.59841	101400576	67776512	25028952	33184
648	2.766985	101400576	67776512	28498856	33184
649	2.602615	101400576	67776512	31974160	33184
650	2.772125	101400576	67776512	35456944	33184
651	2.634347	101400576	67776512	22714272	33184
652	2.755304	101400576	67776512	26205312	33184
653	2.75165	101400576	67776512	29700064	33184
654	2.767401	101400576	67776512	33199688	33184
655	3.763365	101400576	67776512	20551784	33184
656	2.819534	101400576	67776512	24061400	33184
657	2.67151	101400576	67776512	27575792	33184
658	2.841952	101400576	67776512	31095816	33184
659	2.628531	101400576	67776512	34622000	33184
660	2.654917	101400576	67776512	21829416	33184
661	2.81431	101400576	67776512	25364376	33184
662	2.818124	101400576	67776512	28908944	33184
663	2.828335	101400576	67776512	32453000	33184
664	2.654902	101400576	67776512	36015656	33184
665	2.793489	101400576	67776512	23305200	33184
666	2.700898	101400576	67776512	26874216	33184
667	2.673622	101400576	67776512	30437888	33184
668	2.855297	101400576	67776512	34006544	33184
669	3.615634	101400576	67776512	21325840	33184
670	2.690439	101400576	67776512	24909912	33184
671	2.692598	101400576	67776512	28494232	33184
672	2.892786	101400576	67776512	32088040	33184
673	2.682355	101400576	67776512	35692792	33184
674	2.719276	101400576	67776512	23064768	33184
675	2.713848	101400576	67776512	26668040	33184
676	2.716396	101400576	67776512	30276680	33184
677	2.724993	101400576	67776512	33892776	33184
678	3.868145	101400576	67776512	21275976	33184
679	2.737785	101400576	67776512	24907216	33184
680	2.907456	101400576	67776512	28545376	33184
681	2.71038	101400576	67776512	32183448	33184
682	2.774075	101400576	67776512	35824728	33184
683	2.736765	101400576	67776512	23220552	33184
684	2.752579	101400576	67776512	26868352	33184
685	2.750276	101400576	67776512	30538792	33184
686	2.75457	101400576	67776512	34196264	33184
687	3.738347	101400576	67776512	21602456	33184
688	2.743891	101400576	67776512	25269832	33184
689	2.736588	101400576	67776512	28942112	33184
690	2.762375	101400576	67776512	32621744	33184
691	2.761083	101400576	67776512	36303936	33184
692	2.769361	101400576	67776512	23733592	33184
693	2.803972	101400576	67776512	27425528	33184
694	2.764205	101400576	67776512	31134368	33184
695	2.757118	101400576	67776512	34839944	33184
696	2.770958	101400576	67776512	22476008	33184
697	2.9555	101400576	67776512	26187736	33184
698	2.841334	101400576	67776512	29904280	33184
699	3.208059	101400576	67776512	33630960	33184
700	4.025217	101400576	67776512	21239640	33184
701	2.820775	101400576	67776512	24987424	33184
702	2.79094	101400576	67776512	28740992	33184
703	3.242337	101400576	67776512	32499408	33184
704	2.868073	101400576	67776512	36262752	33184
705	2.82793	101400576	67776512	23776936	33184
706	2.8298	101400576	67776512	27549664	33184
707	2.861573	101400576	67776512	31329824	33184
708	2.826041	101400576	67776512	35112112	33184
709	2.833946	101400576	67776512	22774496	33184
710	2.840204	101400576	67776512	26566736	33184
711	2.877748	101400576	67776512	30375760	33184
712	2.835004	101400576	67776512	34177896	33184
713	3.854049	101400576	67776512	21748360	33184
714	3.050917	101400576	67776512	25594368	33184
715	2.848326	101400576	67776512	29477096	33184
716	3.036756	101400576	67776512	33368880	33184
717	3.946628	101400576	67776512	21137616	33184
718	2.886686	101400576	67776512	25035168	33184
719	2.877617	101400576	67776512	28947424	33184
720	2.863401	101400576	67776512	32854680	33184
721	2.866206	101400576	67776512	36766936	33184
722	2.902538	101400576	67776512	24350968	33184
723	2.885002	101400576	67776512	28276008	33184
724	2.922004	101400576	67776512	32203184	33184
725	2.8929	101400576	67776512	36150400	33184
726	2.913679	101400576	67776512	23843000	33184
727	2.952326	101400576	67776512	27784840	33184
728	2.908552	101400576	67776512	31731624	33184
729	3.136967	101400576	67776512	35691856	33184
730	2.931557	101400576	67776512	23515896	33184
731	2.90154	101400576	67776512	27493096	33184
732	3.079057	101400576	67776512	31469232	33184
733	2.98579	101400576	67776512	35440656	33184
734	3.093832	101400576	67776512	23298480	33184
735	2.960146	101400576	67776512	27279800	33184
736	3.125713	101400576	67776512	31266080	33184
737	2.966788	101400576	67776512	35271648	33184
738	2.971203	101400576	67776512	23161248	33184
739	2.98603	101400576	67776512	27162224	33184
740	2.953876	101400576	67776512	31178352	33184
741	2.96178	101400576	67776512	35194280	33184
742	3.008246	101400576	67776512	23103256	33184
743	3.26831	101400576	67776512	27125744	33184
744	2.988705	101400576	67776512	31163976	33184
745	3.136536	101400576	67776512	35194648	33184
746	3.145611	101400576	67776512	23129232	33184
747	2.971652	101400576	67776512	27171152	33184
748	2.973745	101400576	67776512	31226008	33184
749	3.172381	101400576	67776512	35306416	33184
750	3.046669	101400576	67776512	23248600	33184
751	3.009605	101400576	67776512	27308856	33184
752	3.17484	101400576	67776512	31373960	33184
753	3.001578	101400576	67776512	35445408	33184
754	3.009923	101400576	67776512	23412272	33184
755	3.046705	101400576	67776512	27495768	33184
756	3.018904	101400576	67776512	31580824	33184
757	3.237767	101400576	67776512	35670544	33184
758	3.158725	101400576	67776512	23656112	33184
759	3.211385	101400576	67776512	27761984	33184
760	3.025449	101400576	67776512	31873936	33184
761	3.18663	101400576	67776512	36003304	33184
762	3.062358	101400576	67776512	23944136	33184
763	3.076991	101400576	67776512	28063552	33184
764	3.077829	101400576	67776512	32187944	33184
765	3.067602	101400576	67776512	36317296	33184
766	3.266573	101400576	67776512	24220280	33184
767	3.0399	101400576	67776512	28361888	33184
768	3.041518	101400576	67776512	32506872	33184
769	3.072582	101400576	67776512	36655872	33184
770	3.087256	101400576	67776512	24571856	33184
771	3.251214	101400576	67776512	28730584	33184
772	3.05795	101400576	67776512	32911184	33184
773	3.088043	101400576	67776512	37090992	33184
774	3.089611	101400576	67776512	24941312	33184
775	3.282084	101400576	67776512	29119816	33184
776	3.070986	101400576	67776512	33303408	33184
777	4.277016	101400576	67776512	21391344	33184
778	3.290538	101400576	67776512	25590752	33184
779	3.092404	101400576	67776512	29789160	33184
780	3.125614	101400576	67776512	34004384	33184
781	4.25907	101400576	67776512	22042856	33184
782	3.11186	101400576	67776512	26293808	33184
783	3.26959	101400576	67776512	30537632	33184
784	3.134093	101400576	67776512	34760640	33184
785	4.234229	101400576	67776512	22757120	33184
786	3.143611	101400576	67776512	26993520	33184
787	3.143946	101400576	67776512	31231336	33184
788	3.155036	101400576	67776512	35474248	33184
789	3.144283	101400576	67776512	23628520	33184
790	3.327703	101400576	67776512	27902592	33184
791	3.131035	101400576	67776512	32173736	33184
792	3.185784	101400576	67776512	36436192	33184
793	3.157147	101400576	67776512	24491488	33184
794	3.172096	101400576	67776512	28763760	33184
795	3.446321	101400576	67776512	33040944	33184
796	4.502395	101400576	67776512	21289576	33184
797	3.187007	101400576	67776512	25576640	33184
798	3.371465	101400576	67776512	29868720	33184
799	3.184052	101400576	67776512	34176736	33184
800	4.542707	101400576	67776512	22283696	33184
801	3.201637	101400576	67776512	26609208	33184
802	3.179406	101400576	67776512	30920888	33184
803	3.235719	101400576	67776512	35242016	33184
804	3.385874	101400576	67776512	23542824	33184
805	3.23915	101400576	67776512	27869432	33184
806	3.246432	101400576	67776512	32204816	33184
807	3.279275	101400576	67776512	36541048	33184
808	3.419328	101400576	67776512	24660848	33184
809	3.211456	101400576	67776512	29007008	33184
810	3.613641	101400576	67776512	33372688	33184
811	4.661181	101400576	67776512	21644152	33184
812	3.245462	101400576	67776512	26011856	33184
813	3.430617	101400576	67776512	30379944	33184
814	3.287019	101400576	67776512	34750896	33184
815	4.451075	101400576	67776512	22911304	33184
816	3.443835	101400576	67776512	27304384	33184
817	3.259288	101400576	67776512	31690152	33184
818	3.442609	101400576	67776512	36088088	33184
819	3.260113	101400576	67776512	24399144	33184
820	3.262961	101400576	67776512	28812840	33184
821	3.3191	101400576	67776512	33218232	33184
822	4.666127	101400576	67776512	21582008	33184
823	3.432921	101400576	67776512	25997248	33184
824	3.599991	101400576	67776512	30433168	33184
825	3.290943	101400576	67776512	34869008	33184
826	4.681528	101400576	67776512	23078056	33184
827	3.264509	101400576	67776512	27513168	33184
828	3.310651	101400576	67776512	31953624	33184
829	3.472792	101400576	67776512	36398440	33184
830	3.34073	101400576	67776512	24700040	33184
831	3.294489	101400576	67776512	29154688	33184
832	3.506387	101400576	67776512	33622792	33184
833	4.610103	101400576	67776512	22016568	33184
834	3.350888	101400576	67776512	26488960	33184
835	3.3014	101400576	67776512	30970712	33184
836	3.321806	101400576	67776512	35450184	33184
837	3.533619	101400576	67776512	23907528	33184
838	3.549701	101400576	67776512	28396632	33184
839	3.375078	101400576	67776512	32893128	33184
840	3.51229	101400576	67776512	37393200	33184
841	3.380837	101400576	67776512	25641640	33184
842	3.346664	101400576	67776512	30158616	33184
843	3.691004	101400576	67776512	34686160	33184
844	4.545811	101400576	67776512	22998968	33184
845	3.359568	101400576	67776512	27524480	33184
846	3.358774	101400576	67776512	32058440	33184
847	3.392544	101400576	67776512	36605504	33184
848	3.593442	101400576	67776512	24972720	33184
849	3.433979	101400576	67776512	29516144	33184
850	3.39082	101400576	67776512	34114832	33184
851	4.840544	101400576	67776512	22571424	33184
852	3.431367	101400576	67776512	27190960	33184
853	3.404909	101400576	67776512	31809880	33184
854	3.445243	101400576	67776512	36439272	33184
855	3.450445	101400576	67776512	24927280	33184
856	3.436807	101400576	67776512	29559728	33184
857	3.397183	101400576	67776512	34204728	33184
858	4.696661	101400576	67776512	22697176	33184
859	3.442996	101400576	67776512	27345120	33184
860	3.406084	101400576	67776512	31994544	33184
861	3.427488	101400576	67776512	36654392	33184
862	3.447365	101400576	67776512	25155456	33184
863	3.409551	101400576	67776512	29819448	33184
864	3.417665	101400576	67776512	34492824	33184
865	4.872972	101400576	67776512	22957328	33184
866	3.495723	101400576	67776512	27636120	33184
867	3.50193	101400576	67776512	32322928	33184
868	3.496749	101400576	67776512	37021896	33184
869	3.642064	101400576	67776512	25501952	33184
870	3.500904	101400576	67776512	30201128	33184
871	3.655331	101400576	67776512	34904568	33184
872	4.848929	101400576	67776512	23417624	33184
873	3.604014	101400576	67776512	28149984	33184
874	3.751967	101400576	67776512	32868328	33184
875	3.648391	101400576	67776512	37600584	33184
876	3.49924	101400576	67776512	26091440	33184
877	3.661826	101400576	67776512	30824464	33184
878	3.494675	101400576	67776512	35568568	33184
879	3.623066	101400576	67776512	24315704	33184
880	3.743264	101400576	67776512	29063632	33184
881	3.488453	101400576	67776512	33817592	33184
882	4.929029	101400576	67776512	22521480	33184
883	3.726401	101400576	67776512	27284176	33184
884	3.504141	101400576	67776512	32052880	33184
885	3.499408	101400576	67776512	36826472	33184
886	3.821565	101400576	67776512	25446080	33184
887	3.596825	101400576	67776512	30231152	33184
888	3.663551	101400576	67776512	35025808	33184
889	5.109213	101400576	67776512	23615024	33184
890	3.700116	101400576	67776512	28417296	33184
891	3.536914	101400576	67776512	33223312	33184
892	5.02967	101400576	67776512	22030712	33184
893	3.871028	101400576	67776512	26844264	33184
894	3.60657	101400576	67776512	31661096	33184
895	3.598531	101400576	67776512	36488328	33184
896	3.756974	101400576	67776512	25266480	33184
897	3.564227	101400576	67776512	30099680	33184
898	3.56632	101400576	67776512	34952352	33184
899	4.868669	101400576	67776512	23610280	33184
900	3.602711	101400576	67776512	28456752	33184
901	3.594989	101400576	67776512	33325768	33184
902	5.214972	101400576	67776512	22177048	33184
903	3.593292	101400576	67776512	27045664	33184
904	3.620658	101400576	67776512	31918072	33184
905	3.796808	101400576	67776512	36796056	33184
906	3.622011	101400576	67776512	25526000	33184
907	3.584188	101400576	67776512	30413400	33184
908	3.777175	101400576	67776512	35305880	33184
909	4.887942	101400576	67776512	23968800	33184
910	3.628116	101400576	67776512	28872048	33184
911	3.878288	101400576	67776512	33787192	33184
912	5.185568	101400576	67776512	22651552	33184
913	3.625546	101400576	67776512	27562024	33184
914	3.672678	101400576	67776512	32486104	33184
915	3.829484	101400576	67776512	37407856	33184
916	3.663846	101400576	67776512	26131584	33184
917	3.636526	101400576	67776512	31073072	33184
918	3.659142	101400576	67776512	36008360	33184
919	3.685375	101400576	67776512	24909280	33184
920	3.634636	101400576	67776512	29854368	33184
921	3.986589	101400576	67776512	34807736	33184
922	5.093042	101400576	67776512	23569096	33184
923	3.768568	101400576	67776512	28528936	33184
924	3.702405	101400576	67776512	33493784	33184
925	5.262951	101400576	67776512	22429176	33184
926	3.675647	101400576	67776512	27427760	33184
927	3.688551	101400576	67776512	32413312	33184
928	3.849746	101400576	67776512	37403592	33184
929	3.708782	101400576	67776512	26197184	33184
930	3.800583	101400576	67776512	31191448	33184
931	3.911601	101400576	67776512	36222768	33184
932	3.912117	101400576	67776512	25194040	33184
933	3.793652	101400576	67776512	30203192	33184
934	3.765628	101400576	67776512	35240880	33184
935	5.244691	101400576	67776512	24065488	33184
936	3.738769	101400576	67776512	29092600	33184
937	3.723583	101400576	67776512	34121552	33184
938	5.236972	101400576	67776512	23125376	33184
939	3.739636	101400576	67776512	28164072	33184
940	3.715372	101400576	67776512	33220128	33184
941	5.282302	101400576	67776512	22311472	33184
942	3.912308	101400576	67776512	27371304	33184
943	3.787153	101400576	67776512	32437472	33184
944	3.765553	101400576	67776512	37500960	33184
945	3.953066	101400576	67776512	26384512	33184
946	3.80263	101400576	67776512	31460496	33184
947	3.768954	101400576	67776512	36543112	33184
948	3.792966	101400576	67776512	25598024	33184
949	3.967029	101400576	67776512	30696344	33184
950	3.991972	101400576	67776512	35789320	33184
951	3.779307	101400576	67776512	24590152	33184
952	3.828618	101400576	67776512	29705072	33184
953	3.801496	101400576	67776512	34812792	33184
954	5.158403	101400576	67776512	23736656	33184
955	3.823729	101400576	67776512	28854360	33184
956	3.993565	101400576	67776512	33976904	33184
957	5.311183	101400576	67776512	23083704	33184
958	3.80388	101400576	67776512	28216512	33184
959	3.803096	101400576	67776512	33367424	33184
960	5.412326	101400576	67776512	22533512	33184
961	3.861567	101400576	67776512	27699192	33184
962	3.874234	101400576	67776512	32858416	33184
963	4.039786	101400576	67776512	38017656	33184
964	3.83963	101400576	67776512	26990472	33184
965	3.857914	101400576	67776512	32175264	33184
966	3.853281	101400576	67776512	37356312	33184
967	4.061473	101400576	67776512	26374888	33184
968	4.003887	101400576	67776512	31556592	33184
969	3.931478	101400576	67776512	36758416	33184
970	3.950602	101400576	67776512	25932200	33184
971	4.043001	101400576	67776512	31136504	33184
972	3.865141	101400576	67776512	36340328	33184
973	3.845193	101400576	67776512	25528432	33184
974	3.8536	101400576	67776512	30749752	33184
975	4.105653	101400576	67776512	35968784	33184
976	3.888421	101400576	67776512	25255304	33184
977	3.904516	101400576	67776512	30498496	33184
978	3.863336	101400576	67776512	35729592	33184
979	5.417499	101400576	67776512	24697424	33184
980	3.911452	101400576	67776512	29938432	33184
981	3.957811	101400576	67776512	35192136	33184
982	5.345585	101400576	67776512	24286424	33184
983	4.122662	101400576	67776512	29548928	33184
984	3.950922	101400576	67776512	34817352	33184
985	5.384065	101400576	67776512	23929648	33184
986	4.026526	101400576	67776512	29200688	33184
987	4.236321	101400576	67776512	34492040	33184
988	5.418069	101400576	67776512	23673936	33184
989	3.960433	101400576	67776512	28964240	33184
990	3.953959	101400576	67776512	34256416	33184
991	5.6473	101400576	67776512	23550976	33184
992	3.987445	101400576	67776512	28870056	33184
993	3.945481	101400576	67776512	34180672	33184
994	5.479414	101400576	67776512	23484216	33184
995	4.184954	101400576	67776512	28799048	33184
996	3.965527	101400576	67776512	34118816	33184
997	5.566925	101400576	67776512	23456344	33184
998	4.012167	101400576	67776512	28789664	33184
999	4.055237	101400576	67776512	34125792	33184
1000	5.839213	101400576	67776512	23460568	33184
