x	Duration	RSS	HeapTotal	HeapUsed	External
0	NA	101285888	70397952	16014568	33184
1	0.398718	101285888	70397952	16066856	33184
2	0.350125	101285888	70397952	16134816	33184
3	0.214198	101285888	70397952	16236936	33184
4	0.212078	101285888	70397952	16327088	33184
5	0.21735	101285888	70397952	16422200	33184
6	0.229823	101285888	70397952	16522760	33184
7	0.23599	101285888	70397952	16628240	33184
8	0.251065	101285888	70397952	16738632	33184
9	0.253027	101285888	70397952	16854600	33184
10	0.272672	101285888	70397952	16976128	33184
11	0.271592	101285888	70397952	17102568	33184
12	0.286772	101285888	70397952	17233976	33184
13	0.288183	101285888	70397952	17370320	33184
14	0.331664	101285888	70397952	17511664	33184
15	0.308875	101285888	70397952	17657840	33184
16	0.802101	101285888	70397952	17808968	33184
17	0.345222	101285888	70397952	17965056	33184
18	0.374665	101285888	70397952	18129856	33184
19	0.182765	101285888	70397952	18300472	33184
20	0.167107	101285888	70397952	18473960	33184
21	0.171692	101285888	70397952	18653480	33184
22	0.172036	101285888	70397952	18839072	33184
23	0.178518	101285888	70397952	19029616	33184
24	0.175766	101285888	70397952	19225056	33184
25	0.184758	101285888	70397952	19425432	33184
26	0.207414	101285888	70397952	19630728	33184
27	0.198338	101285888	70397952	19840936	33184
28	0.194583	101285888	70397952	20056080	33184
29	0.195965	101285888	70397952	20276160	33184
30	0.19984	101285888	70397952	20502248	33184
31	0.200493	101285888	70397952	20733280	33184
32	0.204294	101285888	70397952	20969216	33184
33	0.209825	101285888	70397952	21210104	33184
34	0.223876	101285888	70397952	21455896	33184
35	0.219197	101285888	70397952	21706600	33184
36	0.220391	101285888	70397952	21962240	33184
37	0.227134	101285888	70397952	22222856	33184
38	0.235187	101285888	70397952	22488352	33184
39	0.33358	101285888	70397952	22758784	33184
40	0.24736	101285888	70397952	23034128	33184
41	0.269823	101285888	70397952	23315632	33184
42	0.278032	101285888	70397952	23600736	33184
43	0.265486	101285888	70397952	23890752	33184
44	0.255324	101285888	70397952	24187880	33184
45	0.253557	101285888	70397952	24494816	33184
46	0.261967	101285888	70397952	24807424	33184
47	0.263306	101285888	70397952	25124856	33184
48	0.275494	101285888	70397952	25447304	33184
49	0.290779	101285888	70397952	25774640	33184
50	0.28314	101285888	70397952	26106864	33184
51	0.281346	101285888	70397952	26444176	33184
52	0.286978	101285888	70397952	26786304	33184
53	0.287933	101285888	70397952	27133312	33184
54	0.311768	101285888	70397952	27486328	33184
55	0.305049	101285888	70397952	27843224	33184
56	0.297846	101285888	70397952	28207112	33184
57	0.301711	101285888	70397952	28575968	33184
58	0.304949	101285888	70397952	28949752	33184
59	0.30855	101285888	70397952	29328416	33184
60	0.344391	101552128	70397952	29712088	33184
61	0.318454	101552128	70397952	30101008	33184
62	0.379377	101552128	70397952	30513632	33184
63	0.322413	101552128	70397952	30912000	33184
64	0.323468	101552128	70397952	31315336	33184
65	0.38187	101552128	70397952	31723680	33184
66	0.333416	101552128	70397952	32136848	33184
67	1.163498	101552128	70397952	16429216	33184
68	0.372367	101552128	70397952	16852248	33184
69	0.394598	101552128	70397952	17280192	33184
70	0.379678	101552128	70397952	17713048	33184
71	0.381115	101552128	70397952	18150832	33184
72	0.387628	101552128	70397952	18593592	33184
73	0.391003	101552128	70397952	19041240	33184
74	0.410826	101552128	70397952	19494176	33184
75	0.36709	101552128	70397952	19951752	33184
76	0.371189	101552128	70397952	20416344	33184
77	0.369793	101552128	70397952	20885816	33184
78	0.372646	101552128	70397952	21360192	33184
79	0.377149	101552128	70397952	21839504	33184
80	0.38412	101552128	70397952	22323992	33184
81	0.412057	101552128	70397952	22814320	33184
82	0.396557	101552128	70397952	23308872	33184
83	0.395845	101552128	70397952	23807696	33184
84	0.401181	101552128	70397952	24316064	33184
85	0.403262	101552128	70397952	24830528	33184
86	0.402219	101552128	70397952	25349872	33184
87	0.422701	101552128	70397952	25874104	33184
88	0.418363	101552128	70397952	26403312	33184
89	0.417044	101552128	70397952	26937392	33184
90	0.419817	101552128	70397952	27476424	33184
91	0.424054	101552128	70397952	28024560	33184
92	0.427556	101552128	70397952	28581888	33184
93	0.43421	101552128	70397952	29144160	33184
94	0.441118	101552128	70397952	29711304	33184
95	0.442712	101552128	70397952	30283376	33184
96	0.445182	101552128	70397952	30860408	33184
97	0.448665	101552128	70397952	31442416	33184
98	0.450598	101552128	70397952	32029312	33184
99	0.453118	101552128	70397952	32621120	33184
100	0.469306	101552128	70397952	16990344	33184
101	0.468317	101552128	70397952	17592008	33184
102	0.466981	101552128	70397952	18198592	33184
103	0.497552	101552128	70397952	18810272	33184
104	0.472384	101552128	70397952	19426776	33184
105	0.478215	101552128	70397952	20048160	33184
106	0.482515	101552128	70397952	20674488	33184
107	0.49099	101552128	70397952	21305736	33184
108	0.487284	101552128	70397952	21941920	33184
109	0.490121	101552128	70397952	22583728	33184
110	0.551118	101552128	70397952	23230208	33184
111	0.540735	101552128	70397952	23881256	33184
112	0.502717	101552128	70397952	24537200	33184
113	0.507918	101552128	70397952	25198016	33184
114	0.519483	101552128	70397952	25863960	33184
115	0.515523	101552128	70397952	26534664	33184
116	0.515055	101552128	70397952	27210328	33184
117	0.522154	101552128	70397952	27890984	33184
118	0.528839	101552128	70397952	28576568	33184
119	0.527799	101552128	70397952	29267040	33184
120	0.535645	101552128	70397952	29962376	33184
121	0.537043	101552128	70397952	30662656	33184
122	0.540275	101552128	70397952	31367920	33184
123	0.547391	101552128	70397952	32078112	33184
124	0.555638	101552128	70397952	32793208	33184
125	0.565349	101822464	70397952	17193288	33184
126	0.557897	101822464	70397952	17918336	33184
127	0.560262	101822464	70397952	18648392	33184
128	0.56322	101822464	70397952	19387360	33184
129	0.56356	101822464	70397952	20131320	33184
130	0.571109	101822464	70397952	20880200	33184
131	0.577283	101822464	70397952	21633992	33184
132	0.577004	101822464	70397952	22392784	33184
133	0.581245	101822464	70397952	23156400	33184
134	0.592819	101822464	70397952	23925088	33184
135	0.587044	101822464	70397952	24698568	33184
136	0.591883	101822464	70397952	25477040	33184
137	0.604888	101822464	70397952	26260616	33184
138	0.630626	101822464	70397952	27048960	33184
139	0.62108	101822464	70397952	27842208	33184
140	0.828223	101822464	70397952	28640368	33184
141	0.613633	101822464	70397952	29443480	33184
142	0.614516	101822464	70397952	30258880	33184
143	0.621173	101822464	70397952	31081040	33184
144	0.624886	101822464	70397952	31908080	33184
145	0.626316	101822464	70397952	32740064	33184
146	0.690839	101822464	70397952	17259096	33184
147	0.68171	101822464	70397952	18104200	33184
148	0.876402	101822464	70397952	18950992	33184
149	0.645436	101822464	70397952	19802768	33184
150	0.643185	101822464	70397952	20659624	33184
151	0.658563	101822464	70397952	21521208	33184
152	0.652546	101822464	70397952	22387696	33184
153	0.666601	101822464	70397952	23259072	33184
154	0.665452	101822464	70397952	24135392	33184
155	0.664691	101822464	70397952	25016728	33184
156	0.66893	101822464	70397952	25902920	33184
157	0.676728	101822464	70397952	26794112	33184
158	0.674918	101822464	70397952	27690208	33184
159	0.690843	101822464	70397952	28591232	33184
160	0.680965	101822464	70397952	29497168	33184
161	0.691158	101822464	70397952	30408064	33184
162	0.692416	101822464	70397952	31327240	33184
163	0.702362	101822464	70397952	32247992	33184
164	0.694631	101822464	70397952	33173672	33184
165	0.709688	101822464	70397952	17730072	33184
166	0.70751	101822464	70397952	18669768	33184
167	0.708946	101822464	70397952	19614472	33184
168	0.711997	101822464	70397952	20564008	33184
169	0.724773	101822464	70397952	21518536	33184
170	0.720662	101822464	70397952	22477968	33184
171	0.723035	101822464	70397952	23442360	33184
172	0.806858	101822464	70397952	24411856	33184
173	0.775787	101822464	70397952	25386120	33184
174	0.939159	101822464	70397952	26365296	33184
175	0.784258	101822464	70397952	27349424	33184
176	0.795939	101822464	70397952	28341432	33184
177	0.787412	101822464	70397952	29335400	33184
178	0.792622	101822464	70397952	30334280	33184
179	0.760255	101822464	70397952	31338088	33184
180	0.75755	101822464	70397952	32355240	33184
181	1.203129	101822464	70397952	17057032	33184
182	1.532659	101822464	70397952	18092384	33184
183	0.784208	101822464	70397952	19144328	33184
184	0.997302	101822464	70397952	20192912	33184
185	0.770665	101822464	70397952	21242960	33184
186	0.774013	101822464	70397952	22297936	33184
187	0.780297	101822464	70397952	23357776	33184
188	0.783504	101822464	70397952	24422632	33184
189	0.805253	101822464	70397952	25492344	33184
190	0.786705	101822464	70397952	26567088	33184
191	1.018886	101822464	70397952	27646728	33184
192	0.803476	101822464	70397952	28731352	33184
193	1.120008	101822464	70397952	29820816	33184
194	0.816197	101822464	70397952	30916024	33184
195	0.830029	101822464	70397952	32015400	33184
196	0.816663	101822464	70397952	33119808	33184
197	1.063738	101822464	70397952	17905376	33184
198	0.845208	101822464	70397952	19019760	33184
199	0.830241	101822464	70397952	20138872	33184
200	0.831764	101822464	70397952	21262872	33184
201	0.833072	101822464	70397952	22394376	33184
202	0.841131	101822464	70397952	23528288	33184
203	0.838187	101822464	70397952	24667888	33184
204	1.054679	101822464	70397952	25811632	33184
205	0.845247	101822464	70397952	26960272	33184
206	0.865121	101822464	70397952	28113920	33184
207	0.852093	101822464	70397952	29272392	33184
208	0.865714	101822464	70397952	30439608	33184
209	0.860408	101822464	70397952	31607912	33184
210	0.882615	101822464	70397952	32781232	33184
211	1.27125	101822464	70397952	17612200	33184
212	0.886263	101822464	70397952	18795296	33184
213	0.877782	101822464	70397952	19983360	33184
214	0.889505	101822464	70397952	21176568	33184
215	0.889786	101822464	70397952	22374600	33184
216	1.076419	101822464	70397952	23579696	33184
217	0.89585	101822464	70397952	24791000	33184
218	1.102104	101822464	70397952	26003744	33184
219	0.906368	101822464	70397952	27221416	33184
220	0.910644	101822464	70397952	28444088	33184
221	0.908197	101822464	70397952	29671592	33184
222	1.110443	101822464	70397952	30904024	33184
223	0.917014	101822464	70397952	32141472	33184
224	0.924038	101822464	70397952	33383848	33184
225	0.934379	101822464	70397952	18263472	33184
226	0.938798	101822464	70397952	19515672	33184
227	0.93108	101822464	70397952	20772784	33184
228	0.948166	101822464	70397952	22034776	33184
229	0.938574	101822464	70397952	23313240	33184
230	0.949538	101822464	70397952	24600096	33184
231	0.944255	101822464	70397952	25891352	33184
232	0.958712	101822464	70397952	27187464	33184
233	0.951839	101822464	70397952	28488568	33184
234	1.180642	101822464	70397952	29794608	33184
235	0.960754	101822464	70397952	31105712	33184
236	0.964658	101822464	70397952	32421624	33184
237	1.345293	101822464	70397952	17420864	33184
238	0.977815	101822464	70397952	18746672	33184
239	0.975898	101822464	70397952	20077344	33184
240	0.981157	101822464	70397952	21413048	33184
241	0.992088	101822464	70397952	22753624	33184
242	0.986663	101822464	70397952	24099504	33184
243	1.000895	101822464	70397952	25451208	33184
244	0.991722	101822464	70397952	26806504	33184
245	1.01354	101822464	70397952	28166808	33184
246	1.002266	101822464	70397952	29531992	33184
247	1.04346	101822464	70397952	30902160	33184
248	1.010306	101822464	70397952	32277536	33184
249	1.434102	101822464	70397952	17359208	33184
250	1.291277	101822464	70397952	18744120	33184
251	1.02414	101822464	70397952	20133968	33184
252	1.035836	101822464	70397952	21528832	33184
253	1.028677	101822464	70397952	22928648	33184
254	1.030433	101822464	70397952	24333248	33184
255	1.034357	101822464	70397952	25742792	33184
256	1.040401	101822464	70397952	27157376	33184
257	1.053281	101822464	70397952	28577400	33184
258	1.047943	101822464	70397952	30001704	33184
259	1.06007	101822464	70397952	31431064	33184
260	1.059196	101822464	70397952	32865360	33184
261	1.42085	101822464	70397952	17939264	33184
262	1.074796	101822464	70397952	19383408	33184
263	1.069567	101822464	70397952	20832456	33184
264	1.095504	101822464	70397952	22286912	33184
265	1.078093	101822464	70397952	23746568	33184
266	1.090059	101822464	70397952	25210440	33184
267	1.086362	101822464	70397952	26679296	33184
268	1.112713	101822464	70397952	28155184	33184
269	1.328488	101822464	70397952	29642200	33184
270	1.096749	101822464	70397952	31134088	33184
271	1.099294	101822464	70397952	32630952	33184
272	1.520876	101822464	70397952	17794848	33184
273	1.108838	101822464	70397952	19301512	33184
274	1.11077	101822464	70397952	20813048	33184
275	1.124663	101822464	70397952	22329536	33184
276	1.122412	101822464	70397952	23851000	33184
277	1.123976	101822464	70397952	25380312	33184
278	1.120962	101822464	70397952	26911632	33184
279	1.129327	101822464	70397952	28447864	33184
280	1.143004	101822464	70397952	29988944	33184
281	1.168655	101822464	70397952	31537016	33184
282	1.138438	101822464	70397952	33087976	33184
283	1.232685	101822464	70397952	18354224	33184
284	1.221285	101822464	70397952	19915624	33184
285	1.155773	101822464	70397952	21481496	33184
286	1.16025	101822464	70397952	23052272	33184
287	1.16305	101822464	70397952	24627936	33184
288	1.196032	101822464	70397952	26208512	33184
289	1.165261	101822464	70397952	27794040	33184
290	1.169551	101822464	70397952	29384792	33184
291	1.21954	101822464	70397952	30980216	33184
292	1.179076	101822464	70397952	32580488	33184
293	1.583281	101822464	70397952	17870488	33184
294	1.197455	101822464	70397952	19486640	33184
295	1.18552	101822464	70397952	21101792	33184
296	1.191846	101822464	70397952	22721848	33184
297	1.204868	101822464	70397952	24348248	33184
298	1.195336	101822464	70397952	25978200	33184
299	1.268156	101822464	70397952	27613056	33184
300	1.280594	101822464	70397952	29252968	33184
301	1.275843	101822464	70397952	30897704	33184
302	1.273289	101822464	70397952	32547344	33184
303	1.659004	101822464	70397952	17895704	33184
304	1.316168	101822464	70397952	19555128	33184
305	1.26397	101822464	70397952	21221632	33184
306	1.228639	101822464	70397952	22891016	33184
307	1.471604	101822464	70397952	24565368	33184
308	1.235879	101822464	70397952	26244640	33184
309	1.244132	101822464	70397952	27928944	33184
310	1.248486	101822464	70397952	29618048	33184
311	1.250255	101822464	70397952	31312008	33184
312	1.467176	101822464	70397952	33012808	33184
313	1.715822	101822464	70397952	18401216	33184
314	1.347135	101822464	70397952	20110120	33184
315	1.333115	101822464	70397952	21823848	33184
316	1.288153	101822464	70397952	23542536	33184
317	1.303992	101822464	70397952	25266248	33184
318	1.280386	101822464	70397952	26994920	33184
319	1.424018	101822464	70397952	28730216	33184
320	1.284248	101822464	70397952	30468616	33184
321	1.29684	101822464	70397952	32213336	33184
322	1.28554	101822464	70397952	33961536	33184
323	1.364364	101822464	70397952	19381712	33184
324	1.369922	101822464	70397952	21139864	33184
325	1.307169	101822464	70397952	22902968	33184
326	1.307431	101822464	70397952	24673072	33184
327	1.311247	101822464	70397952	26446024	33184
328	1.311637	101822464	70397952	28227784	33184
329	1.322409	101822464	70397952	30010616	33184
330	1.313929	101822464	70397952	31798312	33184
331	1.321645	101822464	70397952	33590960	33184
332	1.564124	101822464	70397952	19084848	33184
333	1.517136	101822464	70397952	20887384	33184
334	1.329763	101822464	70397952	22694816	33184
335	1.334016	101822464	70397952	24509832	33184
336	1.551484	101822464	70397952	26327064	33184
337	1.374272	101822464	70397952	28149376	33184
338	1.345815	101822464	70397952	29976520	33184
339	1.354076	101822464	70397952	31814792	33184
340	1.36707	101822464	70397952	33651776	33184
341	1.373662	101822464	70397952	19173864	33184
342	1.364752	101822464	70397952	21020720	33184
343	1.367616	101822464	70397952	22872536	33184
344	1.623448	101822464	70397952	24743920	33184
345	1.383648	101822464	70397952	26614008	33184
346	1.376736	101822464	70397952	28488816	33184
347	1.378142	101822464	70397952	30369032	33184
348	1.609804	101822464	70397952	32253808	33184
349	1.400012	101822464	70397952	34143496	33184
350	1.401762	101822464	70397952	19651168	33184
351	1.399927	101822464	70397952	21550832	33184
352	1.419246	101822464	70397952	23455232	33184
353	1.416243	101822464	70397952	25370824	33184
354	1.419105	101822464	70397952	27285152	33184
355	1.41359	101822464	70397952	29204528	33184
356	1.433137	101822464	70397952	31128656	33184
357	1.434602	101822464	70397952	33059768	33184
358	1.787155	101822464	70397952	18659256	33184
359	1.431894	101822464	70397952	20631440	33184
360	1.434909	101822464	70397952	22626256	33184
361	1.438332	101822464	70397952	24630416	33184
362	1.451184	101822464	70397952	26639608	33184
363	1.45838	101822464	70397952	28653544	33184
364	1.445117	101822464	70397952	30672400	33184
365	1.451346	101822464	70397952	32696264	33184
366	1.816115	101822464	70397952	18412152	33184
367	1.689357	101822464	70397952	20445808	33184
368	1.469863	101822464	70397952	22484320	33184
369	1.46351	101822464	70397952	24527792	33184
370	1.468018	101822464	70397952	26577536	33184
371	1.480722	101822464	70397952	28632792	33184
372	1.486094	101822464	70397952	30695712	33184
373	1.48732	101822464	70397952	32762648	33184
374	2.019834	101822464	70397952	18510496	33184
375	1.499121	101822464	70397952	20583768	33184
376	1.494272	101822464	70397952	22662008	33184
377	1.500797	101822464	70397952	24745048	33184
378	1.733005	101822464	70397952	26832992	33184
379	1.514867	101822464	70397952	28925920	33184
380	1.507095	101822464	70397952	31023728	33184
381	1.51108	101822464	70397952	33126608	33184
382	1.85704	101822464	70397952	18885984	33184
383	1.52205	101822464	70397952	20999624	33184
384	1.528156	101822464	70397952	23117080	33184
385	1.760194	101822464	70397952	25239568	33184
386	1.54001	101822464	70397952	27366984	33184
387	1.537712	101822464	70397952	29499320	33184
388	1.61218	101822464	70397952	31636568	33184
389	1.542329	101822464	70397952	33778736	33184
390	1.555123	101822464	70397952	19626600	33184
391	1.558041	101822464	70397952	21778632	33184
392	1.781157	101822464	70397952	23935656	33184
393	1.564968	101822464	70397952	26097560	33184
394	1.556886	101822464	70397952	28279248	33184
395	1.563327	101822464	70397952	30451040	33184
396	1.566358	101822464	70397952	32627784	33184
397	1.996888	101822464	70397952	18533448	33184
398	1.657562	101822464	70397952	20720144	33184
399	1.675172	101822464	70397952	22911640	33184
400	1.665305	101822464	70397952	25108040	33184
401	1.67326	101822464	70397952	27316472	33184
402	1.874519	101822464	70397952	29522800	33184
403	1.596949	101822464	70397952	31734112	33184
404	1.597266	101822464	70397952	33950432	33184
405	1.608611	101822464	70397952	19849296	33184
406	1.600601	101822464	70397952	22076112	33184
407	1.602439	101822464	70397952	24307104	33184
408	1.617808	101822464	70397952	26543072	33184
409	1.628999	101822464	70397952	28788928	33184
410	1.627429	101822464	70397952	31034728	33184
411	1.632489	101822464	70397952	33285512	33184
412	1.939818	101822464	70397952	19157120	33184
413	1.632404	101822464	70397952	21417648	33184
414	1.629737	101822464	70397952	23690864	33184
415	1.640037	101822464	70397952	25961232	33184
416	1.719533	101822464	70397952	28236640	33184
417	1.647248	101822464	70397952	30522288	33184
418	1.66065	101822464	70397952	32807424	33184
419	2.024689	101822464	70397952	18783632	33184
420	1.665741	101822464	70397952	21078624	33184
421	1.669964	101822464	70397952	23385816	33184
422	1.860122	101822464	70397952	25690712	33184
423	1.667667	101822464	70397952	28006088	33184
424	1.669774	101822464	70397952	30320840	33184
425	1.679392	101822464	70397952	32649504	33184
426	2.121794	101822464	70397952	18709328	33184
427	1.77289	101822464	70397952	21038896	33184
428	1.801445	101822464	70397952	23373344	33184
429	1.691949	101822464	70397952	25712664	33184
430	1.699465	101822464	70397952	28063264	33184
431	1.702169	101822464	70397952	30412584	33184
432	1.709255	101822464	70397952	32767640	33184
433	2.074551	101822464	70397952	18819056	33184
434	1.709411	101822464	70397952	21183160	33184
435	1.740253	101822464	70397952	23552112	33184
436	1.711976	101822464	70397952	25926184	33184
437	1.727772	101822464	70397952	28305104	33184
438	1.965996	101822464	70397952	30695704	33184
439	1.737306	101822464	70397952	33090328	33184
440	2.079818	101822464	70397952	19147968	33184
441	1.755892	101822464	70397952	21546600	33184
442	1.74367	101822464	70397952	23950656	33184
443	2.032741	101822464	70397952	26359192	33184
444	2.009557	101822464	70397952	28776168	33184
445	1.764968	101822464	70397952	31194592	33184
446	1.760332	101822464	70397952	33617896	33184
447	2.037773	101822464	70397952	19789976	33184
448	1.770845	101822464	70397952	22223120	33184
449	1.848351	101822464	70397952	24661136	33184
450	1.781205	101822464	70397952	27104680	33184
451	1.778298	101822464	70397952	29557368	33184
452	1.789344	101822464	70397952	32010240	33184
453	1.987773	101822464	70397952	34468072	33184
454	1.799964	101822464	70397952	20595936	33184
455	1.799316	101822464	70397952	23063568	33184
456	1.996406	101822464	70397952	25539512	33184
457	1.802609	101822464	70397952	28017032	33184
458	1.803638	101822464	70397952	30499336	33184
459	1.802814	101822464	70397952	32986752	33184
460	2.154331	101822464	70397952	19148536	33184
461	1.825732	101822464	70397952	21645808	33184
462	2.00736	101822464	70397952	24148048	33184
463	1.831005	101822464	70397952	26655184	33184
464	1.832382	101822464	70397952	29167168	33184
465	2.019639	101822464	70397952	31688880	33184
466	1.833658	101822464	70397952	34210752	33184
467	1.85159	101822464	70397952	20421888	33184
468	2.063723	101822464	70397952	22958240	33184
469	1.843855	101822464	70397952	25494968	33184
470	1.853641	101822464	70397952	28036600	33184
471	1.864817	101822464	70397952	30583304	33184
472	1.861286	101822464	70397952	33141520	33184
473	2.203823	101822464	70397952	19371696	33184
474	2.094371	101822464	70397952	21933136	33184
475	1.873525	101822464	70397952	24499400	33184
476	1.872948	101822464	70397952	27070696	33184
477	2.093159	101822464	70397952	29646872	33184
478	1.883668	101822464	70397952	32227904	33184
479	2.326229	101822464	70397952	18605320	33184
480	1.976481	101822464	70397952	21196152	33184
481	1.972735	101822464	70397952	23792024	33184
482	1.981707	101822464	70397952	26392768	33184
483	1.898479	101822464	70397952	29008488	33184
484	1.903755	101822464	70397952	31619648	33184
485	1.907635	101822464	70397952	34235152	33184
486	1.900216	101822464	70397952	20554152	33184
487	1.906757	101822464	70397952	23180024	33184
488	1.909182	101822464	70397952	25810320	33184
489	1.943367	101822464	70397952	28446128	33184
490	1.934268	101822464	70397952	31086312	33184
491	2.344928	101822464	70397952	33735488	33184
492	2.031204	101822464	70397952	20146376	33184
493	2.020848	101822464	70397952	22801440	33184
494	1.960331	101822464	70397952	25461344	33184
495	1.942322	101822464	70397952	28126240	33184
496	1.944178	101822464	70397952	30797224	33184
497	1.943003	101822464	70397952	33471960	33184
498	2.271522	101822464	70397952	19772960	33184
499	1.958521	101822464	70397952	22457792	33184
500	1.962696	101822464	70397952	25155288	33184
501	1.965186	101822464	70397952	27849656	33184
502	2.186223	101822464	70397952	30553048	33184
503	1.97925	101822464	70397952	33257504	33184
504	2.327602	101822464	70397952	19646800	33184
505	2.00023	101822464	70397952	22362720	33184
506	1.991572	101822464	70397952	25086056	33184
507	1.981567	101822464	70397952	27811248	33184
508	1.989275	101822464	70397952	30540352	33184
509	2.003838	101822464	70397952	33274264	33184
510	2.402726	101822464	70397952	19692936	33184
511	2.01016	101822464	70397952	22436768	33184
512	2.015856	101822464	70397952	25185504	33184
513	2.020191	101822464	70397952	27939192	33184
514	2.022642	101822464	70397952	30697672	33184
515	2.024348	101822464	70397952	33461232	33184
516	2.557851	101822464	70397952	19868888	33184
517	2.031	101822464	70397952	22642336	33184
518	2.028616	101822464	70397952	25420704	33184
519	2.031218	101822464	70397952	28203952	33184
520	2.261959	101822464	70397952	30992528	33184
521	2.056853	101822464	70397952	33785688	33184
522	2.059215	101822464	70397952	20361592	33184
523	2.057203	101822464	70397952	23164792	33184
524	2.272641	101822464	70397952	25972784	33184
525	2.056888	101822464	70397952	28785728	33184
526	2.053254	101822464	70397952	31605240	33184
527	2.072947	101822464	70397952	34430616	33184
528	2.082137	101822464	70397952	20966624	33184
529	2.150985	101822464	70397952	23799256	33184
530	2.079176	101822464	70397952	26647456	33184
531	2.085373	101822464	70397952	29492232	33184
532	2.114188	101822464	70397952	32341392	33184
533	2.483781	101822464	70397952	18982040	33184
534	2.090681	101822464	70397952	21839280	33184
535	2.101088	101822464	70397952	24705672	33184
536	2.09923	101822464	70397952	27577080	33184
537	2.119102	101822464	70397952	30449080	33184
538	2.109332	101822464	70397952	33327824	33184
539	2.456351	101822464	70397952	19897584	33184
540	2.110893	101822464	70397952	22788048	33184
541	2.165158	101822464	70397952	25682232	33184
542	2.341239	101822464	70397952	28579016	33184
543	2.131226	101822464	70397952	31480640	33184
544	2.122497	101822464	70397952	34389048	33184
545	2.213667	101822464	70397952	21029560	33184
546	2.227582	101822464	70397952	23945936	33184
547	2.466253	101822464	70397952	26867344	33184
548	2.147732	101822464	70397952	29793712	33184
549	2.150336	101822464	70397952	32724912	33184
550	2.560093	101822464	70397952	19446744	33184
551	2.156723	101822464	70397952	22396152	33184
552	2.170628	101822464	70397952	25358536	33184
553	2.164484	101822464	70397952	28341928	33184
554	2.168342	101822464	70397952	31314344	33184
555	2.168422	101822464	70397952	34292656	33184
556	2.178962	101822464	70397952	21084968	33184
557	2.399764	101822464	70397952	24106080	33184
558	2.192085	101822464	70397952	27132312	33184
559	2.193423	101822464	70397952	30170472	33184
560	2.188696	101822464	70397952	33206344	33184
561	2.547336	101822464	70397952	19946376	33184
562	2.43327	101822464	70397952	23004952	33184
563	2.336058	101822464	70397952	26055608	33184
564	2.306524	101822464	70397952	29111208	33184
565	2.24972	101822464	70397952	32173680	33184
566	2.654591	101822464	70397952	19068560	33184
567	2.256518	101822464	70397952	22138968	33184
568	2.22243	101822464	70397952	25214376	33184
569	2.420543	101822464	70397952	28296496	33184
570	2.276943	101822464	70397952	31381736	33184
571	2.290832	101822464	70397952	34472048	33184
572	2.237605	101822464	70397952	21312888	33184
573	2.275466	101822464	70397952	24420080	33184
574	2.45447	101822464	70397952	27525640	33184
575	2.260712	101822464	70397952	30636192	33184
576	2.253571	101822464	70397952	33751072	33184
577	2.26956	101822464	70397952	20722392	33184
578	2.298981	101822464	70397952	23848920	33184
579	2.27524	101822464	70397952	26998240	33184
580	2.274168	101822464	70397952	30135872	33184
581	2.27002	101822464	70397952	33275344	33184
582	2.633558	101822464	70397952	20118008	33184
583	2.305047	101822464	70397952	23267360	33184
584	2.283972	101822464	70397952	26421616	33184
585	2.30542	101822464	70397952	29580920	33184
586	2.51024	101822464	70397952	32753128	33184
587	2.696675	101822464	70397952	19707912	33184
588	2.296474	101822464	70397952	22884392	33184
589	2.379095	101822464	70397952	26068776	33184
590	2.30775	101822464	70397952	29252744	33184
591	2.340613	101822464	70397952	32446144	33184
592	2.722283	101822464	70397952	19443808	33184
593	2.534447	101822464	70397952	22644320	33184
594	2.362277	101822464	70397952	25852560	33184
595	2.328757	101822464	70397952	29061040	33184
596	2.334183	101822464	70397952	32277248	33184
597	2.794208	101822464	70397952	19313072	33184
598	2.351492	101822464	70397952	22539680	33184
599	2.348696	101822464	70397952	25769672	33184
600	2.559168	101822464	70397952	29008184	33184
601	2.355177	101822464	70397952	32247824	33184
602	2.82553	101822464	70397952	19317264	33184
603	2.476202	101822464	70397952	22574304	33184
604	2.460078	101822464	70397952	25829264	33184
605	2.380326	101822464	70397952	29087016	33184
606	2.377643	101822464	70397952	32350616	33184
607	2.997187	101822464	70397952	19429040	33184
608	2.380537	101822464	70397952	22701512	33184
609	2.410094	101822464	70397952	25979184	33184
610	2.400593	101822464	70397952	29274544	33184
611	2.390618	101822464	70397952	32564208	33184
612	2.809631	101822464	70397952	19668592	33184
613	2.414632	101822464	70397952	22965816	33184
614	2.39978	101822464	70397952	26270856	33184
615	2.425329	101822464	70397952	29577944	33184
616	2.422268	101822464	70397952	32891688	33184
617	2.813471	101822464	70397952	19952008	33184
618	2.641317	101822464	70397952	23274072	33184
619	2.418282	101822464	70397952	26601200	33184
620	2.414446	101822464	70397952	29945688	33184
621	2.652514	101822464	70397952	33286528	33184
622	2.784038	101822464	70397952	20339016	33184
623	2.437301	101822464	70397952	23697368	33184
624	2.441254	101822464	70397952	27048848	33184
625	2.666825	101822464	70397952	30409336	33184
626	2.443899	101822464	70397952	33770680	33184
627	2.705516	101822464	70397952	20785992	33184
628	2.449769	101822464	70397952	24168080	33184
629	2.458238	101822464	70397952	27544352	33184
630	2.467532	101822464	70397952	30925664	33184
631	2.47503	101822464	70397952	34311648	33184
632	2.477215	101822464	70397952	21520824	33184
633	2.477201	101822464	70397952	24932216	33184
634	2.492375	101822464	70397952	28338712	33184
635	2.545614	101822464	70397952	31744480	33184
636	2.516035	101822464	70397952	35162344	33184
637	2.486309	101822464	70397952	22292728	33184
638	2.706618	101822464	70397952	25716248	33184
639	2.500154	101822464	70397952	29141696	33184
640	2.498886	101822464	70397952	32573424	33184
641	2.928777	101822464	70397952	19842400	33184
642	2.508091	101822464	70397952	23282800	33184
643	2.518763	101822464	70397952	26728016	33184
644	2.747802	101822464	70397952	30181184	33184
645	2.524727	101822464	70397952	33639176	33184
646	2.869923	101822464	70397952	20786944	33184
647	2.55684	101822464	70397952	24251944	33184
648	2.54269	101822464	70397952	27721688	33184
649	2.762883	101822464	70397952	31207320	33184
650	2.531833	101822464	70397952	34687048	33184
651	2.558229	101822464	70397952	21945080	33184
652	2.546253	101822464	70397952	25444576	33184
653	2.827639	101822464	70397952	28939088	33184
654	2.557658	101822464	70397952	32438592	33184
655	2.977111	101822464	70397952	19773024	33184
656	2.570834	101822464	70397952	23283032	33184
657	2.559578	101822464	70397952	26797320	33184
658	2.589076	101822464	70397952	30317560	33184
659	2.573068	101822464	70397952	33848752	33184
660	2.60039	101822464	70397952	21034264	33184
661	2.586754	101822464	70397952	24577544	33184
662	2.581966	101822464	70397952	28121632	33184
663	2.59114	101822464	70397952	31665504	33184
664	2.812408	101822464	70397952	35214304	33184
665	2.604016	101822464	70397952	22486984	33184
666	3.036784	101822464	70397952	26055184	33184
667	2.6033	101822464	70397952	29620624	33184
668	2.820895	101822464	70397952	33203112	33184
669	3.031651	101822464	70397952	20501008	33184
670	2.634996	101822464	70397952	24079392	33184
671	2.627801	101822464	70397952	27668752	33184
672	2.840681	101822464	70397952	31258312	33184
673	2.631819	101822464	70397952	34863752	33184
674	2.836486	101822464	70397952	22221312	33184
675	2.637191	101822464	70397952	25826160	33184
676	2.639567	101822464	70397952	29442376	33184
677	2.651131	101822464	70397952	33058568	33184
678	3.030014	101822464	70397952	20434912	33184
679	2.666181	101822464	70397952	24057552	33184
680	2.652437	101822464	70397952	27698552	33184
681	2.665607	101822464	70397952	31344840	33184
682	2.66392	101822464	70397952	34982968	33184
683	2.67904	101822464	70397952	22368568	33184
684	2.67927	101822464	70397952	26015984	33184
685	2.674795	101822464	70397952	29680184	33184
686	2.698574	101822464	70397952	33337728	33184
687	3.052775	101822464	70397952	20724448	33184
688	2.774813	101822464	70397952	24401808	33184
689	2.692363	101822464	70397952	28076128	33184
690	2.706088	101822464	70397952	31753048	33184
691	2.68945	101822464	70397952	35436840	33184
692	2.717386	101822464	70397952	22848664	33184
693	2.704412	101822464	70397952	26542072	33184
694	2.725903	101822464	70397952	30238680	33184
695	2.704012	101822464	70397952	33941120	33184
696	2.729139	101822464	70397952	21298600	33184
697	2.721596	101822464	70397952	25010536	33184
698	2.735723	101822464	70397952	28727120	33184
699	2.727032	101822464	70397952	32448584	33184
700	3.235683	101822464	70397952	20041640	33184
701	2.845396	101822464	70397952	23798120	33184
702	2.858125	101822464	70397952	27550728	33184
703	3.013152	101822464	70397952	31308936	33184
704	2.75527	101822464	70397952	35078824	33184
705	2.766848	101822464	70397952	22590912	33184
706	2.7644	101822464	70397952	26380720	33184
707	2.758105	101822464	70397952	30157984	33184
708	2.764842	101822464	70397952	33940152	33184
709	2.781944	101822464	70397952	21408184	33184
710	2.762168	101822464	70397952	25200272	33184
711	2.777966	101822464	70397952	29008984	33184
712	2.771008	101822464	70397952	32811048	33184
713	3.215691	101822464	70397952	20461344	33184
714	2.794355	101822464	70397952	24309224	33184
715	2.858966	101822464	70397952	28191696	33184
716	2.78078	101822464	70397952	32084104	33184
717	3.267923	101822464	70397952	19869984	33184
718	2.815605	101822464	70397952	23778168	33184
719	2.819237	101822464	70397952	27680432	33184
720	3.02722	101822464	70397952	31587480	33184
721	2.891426	101822464	70397952	35499632	33184
722	3.102721	101822464	70397952	23148696	33184
723	2.817149	101822464	70397952	27074392	33184
724	2.837558	101822464	70397952	31007200	33184
725	2.824144	101822464	70397952	34938920	33184
726	3.062461	101822464	70397952	22649648	33184
727	2.836007	101822464	70397952	26591480	33184
728	3.054564	101822464	70397952	30545704	33184
729	2.848712	101822464	70397952	34497408	33184
730	2.854557	101822464	70397952	22314888	33184
731	2.877598	101822464	70397952	26276208	33184
732	2.852004	101822464	70397952	30242672	33184
733	2.858681	101822464	70397952	34216224	33184
734	2.874327	101822464	70397952	22070776	33184
735	2.875368	101822464	70397952	26061536	33184
736	2.875848	101822464	70397952	30047600	33184
737	2.935208	101822464	70397952	34038624	33184
738	2.885832	101822464	70397952	21965240	33184
739	2.899051	101822464	70397952	25983672	33184
740	2.896956	101822464	70397952	29989464	33184
741	3.117055	101822464	70397952	34000080	33184
742	2.89378	101822464	70397952	21675488	33184
743	3.112036	101822464	70397952	25696160	33184
744	2.893675	101822464	70397952	29733000	33184
745	3.113411	101822464	70397952	33771152	33184
746	3.260456	101822464	70397952	21510840	33184
747	2.9112	101822464	70397952	25554800	33184
748	3.142563	101822464	70397952	29600144	33184
749	2.927252	101822464	70397952	33651096	33184
750	3.287387	101822464	70397952	21448568	33184
751	2.955802	101822464	70397952	25508576	33184
752	2.928245	101822464	70397952	29577624	33184
753	2.936959	101822464	70397952	33647480	33184
754	3.517984	101822464	70397952	21463864	33184
755	2.940206	101822464	70397952	25543712	33184
756	3.153503	101822464	70397952	29628432	33184
757	2.959585	101822464	70397952	33718064	33184
758	3.540089	101822464	70397952	21556120	33184
759	2.963424	101822464	70397952	25669656	33184
760	2.961122	101822464	70397952	29797744	33184
761	3.032873	101822464	70397952	33925904	33184
762	3.295112	101822464	70397952	21701448	33184
763	2.979524	101822464	70397952	25820744	33184
764	2.976342	101822464	70397952	29945816	33184
765	2.97426	101822464	70397952	34075096	33184
766	3.003124	101822464	70397952	21993208	33184
767	2.996792	101822464	70397952	26132096	33184
768	2.988157	101822464	70397952	30276072	33184
769	3.207041	101822464	70397952	34437640	33184
770	3.006885	101822464	70397952	22469312	33184
771	3.002034	101822464	70397952	26628008	33184
772	3.008195	101822464	70397952	30791608	33184
773	3.015255	101822464	70397952	34960200	33184
774	3.004786	101822464	70397952	22978832	33184
775	3.025392	101822464	70397952	27157200	33184
776	3.240608	101822464	70397952	31343552	33184
777	3.196924	101822464	70397952	35553936	33184
778	3.163884	101822464	70397952	23633800	33184
779	3.162979	101822464	70397952	27838488	33184
780	3.044929	101822464	70397952	32051856	33184
781	3.85924	101822464	70397952	20331808	33184
782	3.045879	101822464	70397952	24545696	33184
783	3.07147	101822464	70397952	28763448	33184
784	3.052396	101822464	70397952	32986216	33184
785	3.735833	101822464	70397952	21071216	33184
786	3.292399	101822464	70397952	25306664	33184
787	3.065955	101822464	70397952	29572272	33184
788	3.068859	101822464	70397952	33839560	33184
789	3.472286	101822464	70397952	21862704	33184
790	3.297298	101822464	70397952	26132584	33184
791	3.089522	101822464	70397952	30389992	33184
792	3.321673	101822464	70397952	34652120	33184
793	3.2146	101822464	70397952	22822808	33184
794	3.105329	101822464	70397952	27097808	33184
795	3.095912	101822464	70397952	31374992	33184
796	3.097322	101822464	70397952	35657016	33184
797	3.404406	101822464	70397952	23710632	33184
798	3.100509	101822464	70397952	28002480	33184
799	3.3234	101822464	70397952	32299440	33184
800	3.632321	101822464	70397952	20536440	33184
801	3.129891	101822464	70397952	24843176	33184
802	3.118036	101822464	70397952	29154744	33184
803	3.131427	101822464	70397952	33483736	33184
804	3.799563	101822464	70397952	21576944	33184
805	3.160481	101822464	70397952	25903200	33184
806	3.19686	101822464	70397952	30251888	33184
807	3.207903	101822464	70397952	34588208	33184
808	3.216322	101822464	70397952	22854672	33184
809	3.161687	101822464	70397952	27202568	33184
810	3.151811	101822464	70397952	31553616	33184
811	3.378288	101822464	70397952	35909456	33184
812	3.1742	101822464	70397952	24052456	33184
813	3.18527	101822464	70397952	28432648	33184
814	3.171701	101822464	70397952	32803304	33184
815	3.921785	101822464	70397952	21102552	33184
816	3.24066	101822464	70397952	25483088	33184
817	3.235158	101822464	70397952	29872768	33184
818	3.384827	101822464	70397952	34263136	33184
819	3.623986	101822464	70397952	22337304	33184
820	3.388955	101822464	70397952	26739096	33184
821	3.420519	101822464	70397952	31145616	33184
822	3.44758	101822464	70397952	35560320	33184
823	3.199491	101822464	70397952	23803080	33184
824	3.209538	101822464	70397952	28223072	33184
825	3.218674	101822464	70397952	32653968	33184
826	4.005878	101822464	70397952	21007312	33184
827	3.229705	101822464	70397952	25443832	33184
828	3.439466	101822464	70397952	29891216	33184
829	3.230747	101822464	70397952	34336032	33184
830	3.254107	101822464	70397952	22513400	33184
831	3.430897	101822464	70397952	26972256	33184
832	3.232939	101822464	70397952	31431744	33184
833	3.465577	101822464	70397952	35898648	33184
834	3.255408	101822464	70397952	24148504	33184
835	3.26951	101822464	70397952	28632640	33184
836	3.248666	101822464	70397952	33117440	33184
837	3.815519	101822464	70397952	21486064	33184
838	3.70128	101822464	70397952	25975328	33184
839	3.477477	101822464	70397952	30471808	33184
840	3.275636	101822464	70397952	34971880	33184
841	3.511247	101822464	70397952	23400704	33184
842	3.280669	101822464	70397952	27909488	33184
843	3.502539	101822464	70397952	32426936	33184
844	3.900862	101822464	70397952	20891792	33184
845	3.355798	101822464	70397952	25419104	33184
846	3.525706	101822464	70397952	29947640	33184
847	3.304475	101822464	70397952	34487128	33184
848	3.311361	101822464	70397952	22722144	33184
849	3.299914	101822464	70397952	27266144	33184
850	3.312891	101822464	70397952	31856096	33184
851	3.530252	101822464	70397952	36475472	33184
852	3.32956	101822464	70397952	24878056	33184
853	3.317597	101822464	70397952	29496512	33184
854	3.321678	101822464	70397952	34118088	33184
855	3.821417	101822464	70397952	22554072	33184
856	3.563641	101822464	70397952	27183600	33184
857	3.517444	101822464	70397952	31819824	33184
858	3.363728	101822464	70397952	36461808	33184
859	3.482947	101822464	70397952	24889680	33184
860	3.349947	101822464	70397952	29539624	33184
861	3.381471	101822464	70397952	34203520	33184
862	3.974893	101822464	70397952	22647184	33184
863	3.368877	101822464	70397952	27323072	33184
864	3.373564	101822464	70397952	31993512	33184
865	3.376733	101822464	70397952	36668544	33184
866	3.384015	101822464	70397952	25101600	33184
867	3.663039	101822464	70397952	29792712	33184
868	3.370306	101822464	70397952	34481488	33184
869	3.534416	101822464	70397952	22904896	33184
870	3.528151	101822464	70397952	27609432	33184
871	3.398202	101822464	70397952	32316872	33184
872	4.250174	101822464	70397952	21010104	33184
873	3.646537	101822464	70397952	25723536	33184
874	3.407064	101822464	70397952	30441680	33184
875	3.649227	101822464	70397952	35173656	33184
876	3.416601	101822464	70397952	23859840	33184
877	3.462638	101822464	70397952	28593896	33184
878	3.416339	101822464	70397952	33350552	33184
879	3.98599	101822464	70397952	21930072	33184
880	3.735693	101822464	70397952	26702872	33184
881	3.440342	101822464	70397952	31461824	33184
882	3.450313	101822464	70397952	36221352	33184
883	3.636914	101822464	70397952	24784912	33184
884	3.483883	101822464	70397952	29552664	33184
885	3.493066	101822464	70397952	34342840	33184
886	4.261982	101822464	70397952	22884592	33184
887	3.492132	101822464	70397952	27682880	33184
888	3.553809	101822464	70397952	32482656	33184
889	4.155839	101822464	70397952	21237096	33184
890	3.474284	101822464	70397952	26040080	33184
891	3.46808	101822464	70397952	30843440	33184
892	3.471464	101822464	70397952	35650400	33184
893	3.604621	101822464	70397952	24402936	33184
894	3.478355	101822464	70397952	29219824	33184
895	3.485821	101822464	70397952	34061216	33184
896	4.070126	101822464	70397952	22683080	33184
897	3.764011	101822464	70397952	27516496	33184
898	3.65643	101822464	70397952	32353000	33184
899	4.382618	101822464	70397952	21197752	33184
900	3.758058	101822464	70397952	26044296	33184
901	3.514545	101822464	70397952	30901976	33184
902	3.516444	101822464	70397952	35774128	33184
903	3.563687	101822464	70397952	24529816	33184
904	3.526648	101822464	70397952	29402528	33184
905	3.565095	101822464	70397952	34279304	33184
906	4.387805	101822464	70397952	22953592	33184
907	3.537686	101822464	70397952	27834440	33184
908	4.61818	101822464	70397952	32739960	33184
909	4.475993	101822464	70397952	21608128	33184
910	3.543866	101822464	70397952	26511912	33184
911	3.54924	101822464	70397952	31418824	33184
912	3.602393	101822464	70397952	36339048	33184
913	3.554169	101822464	70397952	25079840	33184
914	3.56086	101822464	70397952	29995320	33184
915	3.775685	101822464	70397952	34916440	33184
916	3.724159	101822464	70397952	23861968	33184
917	3.726962	101822464	70397952	28792208	33184
918	3.908277	101822464	70397952	33737928	33184
919	4.188672	101822464	70397952	22507376	33184
920	3.639153	101822464	70397952	27452672	33184
921	3.808959	101822464	70397952	32406040	33184
922	4.316187	101822464	70397952	21386824	33184
923	3.60697	101822464	70397952	26362656	33184
924	3.822293	101822464	70397952	31329552	33184
925	3.623	101822464	70397952	36299328	33184
926	3.611146	101822464	70397952	25096752	33184
927	3.818454	101822464	70397952	30076480	33184
928	3.612529	101822464	70397952	35061736	33184
929	3.636361	101822464	70397952	24048272	33184
930	3.683633	101822464	70397952	29043184	33184
931	3.626785	101822464	70397952	34049512	33184
932	4.243609	101822464	70397952	22858520	33184
933	3.847581	101822464	70397952	27877864	33184
934	3.637407	101822464	70397952	32891944	33184
935	4.342361	101822464	70397952	21879248	33184
936	3.867298	101822464	70397952	26903432	33184
937	3.635357	101822464	70397952	31932424	33184
938	3.728278	101822464	70397952	36985568	33184
939	3.707208	101822464	70397952	25828896	33184
940	3.93658	101822464	70397952	30872824	33184
941	3.711316	101822464	70397952	35921504	33184
942	3.705919	101822464	70397952	24940384	33184
943	3.749983	101822464	70397952	30002816	33184
944	3.674379	101822464	70397952	35066152	33184
945	3.683483	101822464	70397952	24160000	33184
946	4.063699	101822464	70397952	29233256	33184
947	3.896531	101822464	70397952	34313064	33184
948	4.527003	101822464	70397952	23218648	33184
949	3.889434	101822464	70397952	28327480	33184
950	4.032966	101822464	70397952	33420456	33184
951	4.417642	101822464	70397952	22444832	33184
952	3.730724	101822464	70397952	27554912	33184
953	3.972948	101822464	70397952	32669696	33184
954	4.452086	101822464	70397952	21764344	33184
955	3.770507	101822464	70397952	26887800	33184
956	3.950302	101822464	70397952	32022344	33184
957	3.721831	101822464	70397952	37171280	33184
958	3.747131	101822464	70397952	26114112	33184
959	3.730876	101822464	70397952	31266392	33184
960	3.745364	101822464	70397952	36409232	33184
961	3.774788	101822464	70397952	25414800	33184
962	3.802522	101822464	70397952	30571984	33184
963	3.761837	101822464	70397952	35733816	33184
964	3.756498	101822464	70397952	24877200	33184
965	3.771283	101822464	70397952	30053248	33184
966	3.960351	101822464	70397952	35227312	33184
967	3.791288	101822464	70397952	24423528	33184
968	3.762275	101822464	70397952	29606640	33184
969	3.987626	101822464	70397952	34793432	33184
970	4.387881	101822464	70397952	23712664	33184
971	3.775996	101822464	70397952	28909168	33184
972	3.780657	101822464	70397952	34110680	33184
973	4.814493	101822464	70397952	23150664	33184
974	3.782606	101822464	70397952	28368120	33184
975	3.801199	101822464	70397952	33587152	33184
976	4.809158	101822464	70397952	22717496	33184
977	3.792147	101822464	70397952	27946168	33184
978	3.795838	101822464	70397952	33192168	33184
979	4.610544	101822464	70397952	22425440	33184
980	4.020494	101822464	70397952	27675704	33184
981	4.040167	101822464	70397952	32937632	33184
982	4.604513	101822464	70397952	22182576	33184
983	4.053979	101822464	70397952	27443192	33184
984	3.827239	101822464	70397952	32706064	33184
985	4.652102	101822464	70397952	21987984	33184
986	3.858721	101822464	70397952	27258472	33184
987	4.055464	101822464	70397952	32533952	33184
988	4.699171	101822464	70397952	21865280	33184
989	3.844756	101822464	70397952	27152336	33184
990	3.855937	101822464	70397952	32444616	33184
991	4.733652	101822464	70397952	21822088	33184
992	3.884719	101822464	70397952	27125664	33184
993	3.860275	101822464	70397952	32431432	33184
994	4.493055	101822464	70397952	21441496	33184
995	3.864871	101822464	70397952	26770272	33184
996	3.913219	101822464	70397952	32090384	33184
997	4.085412	101822464	70397952	37418360	33184
998	3.901643	101822464	70397952	26572040	33184
999	3.91807	101822464	70397952	31906680	33184
1000	3.891898	101822464	70397952	37254872	33184
