x	Duration	RSS	HeapTotal	HeapUsed	External
0	NA	97558528	66203648	16009408	33184
1	0.516215	97558528	66203648	16061640	33184
2	0.47238	97558528	66203648	16129600	33184
3	0.291943	97558528	66203648	16231688	33184
4	0.28361	97558528	66203648	16321808	33184
5	0.298294	97558528	66203648	16416896	33184
6	0.304906	97558528	66203648	16517424	33184
7	0.316932	97558528	66203648	16622872	33184
8	0.324361	97558528	66203648	16733232	33184
9	0.565459	97558528	66203648	16849184	33184
10	0.422936	97558528	66203648	16973048	33184
11	0.364628	97558528	66203648	17099184	33184
12	0.369187	97558528	66203648	17230288	33184
13	0.378381	97558528	66203648	17366328	33184
14	0.382077	97558528	66203648	17507352	33184
15	0.376244	97558528	66203648	17653240	33184
16	0.379565	97558528	66203648	17804048	33184
17	0.42045	97558528	66203648	17963688	33184
18	0.375238	97558528	66203648	18124352	33184
19	0.377131	97558528	66203648	18292456	33184
20	0.402998	97558528	66203648	18465864	33184
21	0.40037	97558528	66203648	18645352	33184
22	0.601853	97558528	66203648	18830912	33184
23	0.187805	97558528	66203648	19021464	33184
24	0.186936	97558528	66203648	19216872	33184
25	0.192116	97558528	66203648	19417216	33184
26	0.195942	97558528	66203648	19622536	33184
27	0.199833	97558528	66203648	19832712	33184
28	0.204564	97558528	66203648	20047888	33184
29	0.20718	97558528	66203648	20267936	33184
30	0.21191	97558528	66203648	20493992	33184
31	0.216571	97558528	66203648	20724976	33184
32	0.221776	97558528	66203648	20960880	33184
33	0.223674	97558528	66203648	21201752	33184
34	0.229339	97558528	66203648	21447512	33184
35	0.234383	97558528	66203648	21698216	33184
36	0.235705	97558528	66203648	21953824	33184
37	0.240991	97558528	66203648	22214408	33184
38	0.243562	97558528	66203648	22479872	33184
39	0.369179	97558528	66203648	22750320	33184
40	0.280466	97558528	66203648	23026800	33184
41	0.263658	97558528	66203648	23306992	33184
42	0.264808	97558528	66203648	23592064	33184
43	0.26637	97558528	66203648	23882288	33184
44	0.44184	97558528	66203648	24179384	33184
45	0.277564	97558528	66203648	24486352	33184
46	0.281514	97558528	66203648	24798896	33184
47	0.28325	97558528	66203648	25116296	33184
48	0.320932	97558528	66203648	25438648	33184
49	0.295826	97558528	66203648	25765920	33184
50	0.31385	97558528	66203648	26098112	33184
51	0.301763	97558528	66203648	26436136	33184
52	0.362233	97558528	66203648	26797328	33184
53	0.308037	97558528	66203648	27144344	33184
54	0.30913	97558528	66203648	27496272	33184
55	0.341158	97558528	66203648	27853096	33184
56	0.587996	97558528	66203648	28216952	33184
57	0.584703	97558528	66203648	28585784	33184
58	0.579232	97558528	66203648	28959520	33184
59	0.58017	97558528	66203648	29338152	33184
60	0.469813	97558528	66203648	29721808	33184
61	0.339103	97558528	66203648	30110488	33184
62	0.34371	97558528	66203648	30503912	33184
63	0.343154	97558528	66203648	30902248	33184
64	0.343847	97558528	66203648	31305536	33184
65	0.352073	97558528	66203648	31713760	33184
66	0.386764	97558528	66203648	32126960	33184
67	1.469638	97558528	66203648	16418168	33184
68	0.398923	97558528	66203648	16841136	33184
69	0.397919	97558528	66203648	17269104	33184
70	0.407023	97558528	66203648	17701928	33184
71	0.392874	97558528	66203648	18139736	33184
72	0.381439	97558528	66203648	18583072	33184
73	0.385281	97558528	66203648	19030704	33184
74	0.385922	97558528	66203648	19483256	33184
75	0.392089	97558528	66203648	19940712	33184
76	0.39571	97558528	66203648	20405232	33184
77	0.401291	97558528	66203648	20874656	33184
78	0.403188	97558528	66203648	21349000	33184
79	0.415014	97558528	66203648	21828264	33184
80	0.414834	97558528	66203648	22312752	33184
81	0.490426	97558528	66203648	22803672	33184
82	0.426789	97558528	66203648	23297584	33184
83	1.082879	97558528	66203648	23796376	33184
84	0.430424	97558528	66203648	24304704	33184
85	0.432615	97558528	66203648	24819072	33184
86	0.435797	97558528	66203648	25338416	33184
87	0.442606	97558528	66203648	25862616	33184
88	0.445372	97558528	66203648	26391760	33184
89	0.452064	97558528	66203648	26925800	33184
90	0.453272	97558528	66203648	27464976	33184
91	0.602163	97558528	66203648	28013096	33184
92	0.465076	97558528	66203648	28570432	33184
93	0.471773	97558528	66203648	29132744	33184
94	0.468536	97558528	66203648	29699880	33184
95	0.638815	97558528	66203648	30271960	33184
96	0.48311	97558528	66203648	30848984	33184
97	0.485541	97558528	66203648	31430960	33184
98	0.493655	97558528	66203648	32017816	33184
99	0.489523	97558528	66203648	32609568	33184
100	0.539725	97558528	66203648	16981000	33184
101	0.557284	97558528	66203648	17582648	33184
102	0.541928	97558528	66203648	18189272	33184
103	0.546916	97558528	66203648	18800752	33184
104	0.551711	97558528	66203648	19417152	33184
105	0.527031	97558528	66203648	20038576	33184
106	0.526744	97558528	66203648	20664928	33184
107	0.533696	97558528	66203648	21296168	33184
108	0.529133	97558528	66203648	21932304	33184
109	0.545426	97558528	66203648	22573392	33184
110	0.538382	97558528	66203648	23219472	33184
111	0.550954	97558528	66203648	23870424	33184
112	0.544547	97558528	66203648	24526304	33184
113	0.548742	97558528	66203648	25187144	33184
114	0.55641	97558528	66203648	25853264	33184
115	0.560601	97558528	66203648	26523920	33184
116	0.580594	97558528	66203648	27199560	33184
117	0.572891	97558528	66203648	27880152	33184
118	0.572528	97558528	66203648	28568312	33184
119	0.574576	97558528	66203648	29258752	33184
120	0.580124	97558528	66203648	29954144	33184
121	0.584194	97558528	66203648	30654400	33184
122	0.585236	97558528	66203648	31359656	33184
123	0.591732	97558528	66203648	32069912	33184
124	0.756922	97558528	66203648	32785008	33184
125	0.649728	97558528	66203648	17189480	33184
126	0.618643	97558528	66203648	17914400	33184
127	0.607886	97558528	66203648	18644520	33184
128	0.609459	97558528	66203648	19383432	33184
129	0.611441	97558528	66203648	20127384	33184
130	0.616105	97558528	66203648	20876192	33184
131	0.621199	97558528	66203648	21629944	33184
132	0.636357	97558528	66203648	22388696	33184
133	0.635434	97558528	66203648	23152296	33184
134	0.636075	97558528	66203648	23920816	33184
135	0.646584	97558528	66203648	24696704	33184
136	0.643412	97558528	66203648	25475120	33184
137	0.644204	97558528	66203648	26259048	33184
138	0.655922	97558528	66203648	27047360	33184
139	0.653962	97558528	66203648	27840552	33184
140	0.659658	97558528	66203648	28638680	33184
141	0.669137	97558528	66203648	29441800	33184
142	0.66901	97558528	66203648	30257112	33184
143	0.670946	97558528	66203648	31079240	33184
144	0.675745	97558528	66203648	31906224	33184
145	0.680707	97558528	66203648	32738208	33184
146	0.759277	97558528	66203648	17257176	33184
147	0.737277	97558528	66203648	18102632	33184
148	0.738914	97558528	66203648	18949368	33184
149	0.705991	97558528	66203648	19801080	33184
150	0.700876	97558528	66203648	20657752	33184
151	0.789241	97558528	66203648	21519312	33184
152	0.712462	97558528	66203648	22385800	33184
153	0.721776	97558528	66203648	23257168	33184
154	0.7192	97558528	66203648	24133496	33184
155	0.718239	97558528	66203648	25014864	33184
156	0.883376	97558528	66203648	25901048	33184
157	0.730817	97558528	66203648	26792248	33184
158	0.728265	97558528	66203648	27688304	33184
159	0.734414	97558528	66203648	28589296	33184
160	0.738536	97558528	66203648	29495160	33184
161	0.749616	97558528	66203648	30406048	33184
162	0.746063	97558528	66203648	31321800	33184
163	0.751682	97558528	66203648	32242480	33184
164	0.753155	97558528	66203648	33168104	33184
165	0.764129	97558528	66203648	17728504	33184
166	0.761506	97558528	66203648	18668216	33184
167	0.768618	97558528	66203648	19612920	33184
168	0.778935	97558528	66203648	20562400	33184
169	0.789365	97558528	66203648	21516888	33184
170	0.791562	97558528	66203648	22476280	33184
171	0.782941	97558528	66203648	23440792	33184
172	0.788172	97558528	66203648	24410248	33184
173	0.791466	97558528	66203648	25384472	33184
174	0.798017	97558528	66203648	26363648	33184
175	0.823023	97558528	66203648	27347672	33184
176	0.804549	97558528	66203648	28337184	33184
177	0.828731	97558528	66203648	29331120	33184
178	0.813658	97558528	66203648	30329912	33184
179	0.819064	97558528	66203648	31333720	33184
180	0.822646	97558528	66203648	32350776	33184
181	1.255093	97558528	66203648	17052568	33184
182	0.835558	97558528	66203648	18088136	33184
183	0.837784	97558528	66203648	19128664	33184
184	0.839253	97558528	66203648	20177248	33184
185	0.840129	97558528	66203648	21227296	33184
186	0.847338	97558528	66203648	22282272	33184
187	0.849732	97558528	66203648	23342112	33184
188	0.863716	97558528	66203648	24406968	33184
189	0.856602	97558528	66203648	25476680	33184
190	1.027271	97558528	66203648	26551424	33184
191	0.867705	97558528	66203648	27631064	33184
192	0.891565	97558528	66203648	28715688	33184
193	0.9557	97558528	66203648	29805976	33184
194	0.826763	97558528	66203648	30900360	33184
195	0.816685	97558528	66203648	31999736	33184
196	0.823753	97558528	66203648	33104144	33184
197	0.873146	97558528	66203648	17858408	33184
198	0.834492	97558528	66203648	18972792	33184
199	0.858945	97558528	66203648	20091808	33184
200	0.833971	97558528	66203648	21215808	33184
201	0.83966	97558528	66203648	22344704	33184
202	0.841175	97558528	66203648	23478624	33184
203	0.857805	97558528	66203648	24617360	33184
204	0.847417	97558528	66203648	25761752	33184
205	0.863424	97558528	66203648	26910400	33184
206	0.855158	97558528	66203648	28063952	33184
207	0.868456	97558528	66203648	29222384	33184
208	0.875426	97558528	66203648	30386176	33184
209	0.863278	97558528	66203648	31554544	33184
210	0.866958	97558528	66203648	32727800	33184
211	1.244355	97558528	66203648	17539968	33184
212	0.878119	97558528	66203648	18723128	33184
213	0.890921	97558528	66203648	19912480	33184
214	0.880221	97558528	66203648	21105488	33184
215	0.888561	97558528	66203648	22303448	33184
216	0.890207	97558528	66203648	23506264	33184
217	0.88982	97558528	66203648	24714104	33184
218	0.908262	97558528	66203648	25926840	33184
219	0.893945	97558528	66203648	27144512	33184
220	0.900053	97558528	66203648	28367256	33184
221	0.901753	97558528	66203648	29594816	33184
222	0.907745	97558528	66203648	30827248	33184
223	0.928044	97558528	66203648	32064784	33184
224	0.914672	97558528	66203648	33307088	33184
225	0.925379	97558528	66203648	18186904	33184
226	0.921388	97558528	66203648	19439048	33184
227	0.968625	97558528	66203648	20699480	33184
228	0.927572	97558528	66203648	21962456	33184
229	0.935637	97558528	66203648	23241048	33184
230	0.934241	97558528	66203648	24527368	33184
231	0.937695	97558528	66203648	25818608	33184
232	0.943723	97558528	66203648	27114736	33184
233	0.953708	97558528	66203648	28415856	33184
234	0.952681	97558528	66203648	29722560	33184
235	1.128401	97558528	66203648	31033592	33184
236	0.955724	97558528	66203648	32349480	33184
237	1.353047	97558528	66203648	17348256	33184
238	0.974172	97558528	66203648	18674032	33184
239	1.000035	97558528	66203648	20004744	33184
240	0.975952	97558528	66203648	21340440	33184
241	0.981062	97558528	66203648	22680952	33184
242	0.980488	97558528	66203648	24026488	33184
243	0.987164	97558528	66203648	25376904	33184
244	1.006766	97558528	66203648	26732240	33184
245	0.993905	97558528	66203648	28092624	33184
246	1.004765	97558528	66203648	29459600	33184
247	1.000235	97558528	66203648	30829808	33184
248	1.029668	97558528	66203648	32205024	33184
249	1.004103	97558528	66203648	33585024	33184
250	1.023399	97558528	66203648	18577888	33184
251	1.015421	97558528	66203648	19967816	33184
252	1.017111	97558528	66203648	21362608	33184
253	1.031427	97558528	66203648	22762384	33184
254	1.025562	97558528	66203648	24167808	33184
255	1.226846	97558528	66203648	25577440	33184
256	1.034026	97558528	66203648	26991952	33184
257	1.037176	97558528	66203648	28411344	33184
258	1.04086	97558528	66203648	29835704	33184
259	1.043609	97558528	66203648	31265144	33184
260	1.060048	97558528	66203648	32699432	33184
261	1.397464	97558528	66203648	17773288	33184
262	1.071034	97558528	66203648	19217408	33184
263	1.06184	97558528	66203648	20666384	33184
264	1.070248	97558528	66203648	22121080	33184
265	1.076211	97558528	66203648	23580808	33184
266	1.080344	97558528	66203648	25044616	33184
267	1.086272	97558528	66203648	26513448	33184
268	1.078701	97558528	66203648	27987216	33184
269	1.08581	97558528	66203648	29474200	33184
270	1.08691	97558528	66203648	30966896	33184
271	1.094657	97558528	66203648	32463680	33184
272	1.470292	97558528	66203648	17656296	33184
273	1.105159	97558528	66203648	19162864	33184
274	1.101294	97558528	66203648	20674376	33184
275	1.122434	97558528	66203648	22190784	33184
276	1.11084	97558528	66203648	23712184	33184
277	1.124227	97558528	66203648	25243136	33184
278	1.114989	97558528	66203648	26779392	33184
279	1.123968	97558528	66203648	28315664	33184
280	1.475998	97558528	66203648	29856776	33184
281	1.134339	97558528	66203648	31404768	33184
282	1.133831	97558528	66203648	32955864	33184
283	1.469338	97558528	66203648	18122704	33184
284	1.135838	97558528	66203648	19683640	33184
285	1.328939	97558528	66203648	21249416	33184
286	1.146776	97558528	66203648	22823192	33184
287	1.15583	97558528	66203648	24398816	33184
288	1.161576	97558528	66203648	25979456	33184
289	1.162358	97558528	66203648	27564992	33184
290	1.209971	97558528	66203648	29155456	33184
291	1.171783	97558528	66203648	30750872	33184
292	1.164627	97558528	66203648	32351168	33184
293	1.541165	97558528	66203648	17645856	33184
294	1.344141	97558528	66203648	19261984	33184
295	1.177675	97558528	66203648	20877176	33184
296	1.184812	97558528	66203648	22497264	33184
297	1.194642	97558528	66203648	24122400	33184
298	1.196733	97558528	66203648	25752352	33184
299	1.230551	97558528	66203648	27387248	33184
300	1.203383	97558528	66203648	29027000	33184
301	1.197755	97558528	66203648	30671720	33184
302	1.207633	97558528	66203648	32321440	33184
303	1.869997	97558528	66203648	17669800	33184
304	1.216438	97558528	66203648	19330528	33184
305	1.219206	97558528	66203648	20995024	33184
306	1.233624	97558528	66203648	22664376	33184
307	1.225919	97558528	66203648	24338688	33184
308	1.240446	97558528	66203648	26017888	33184
309	1.249381	97558528	66203648	27704152	33184
310	1.260557	97558528	66203648	29393272	33184
311	1.2364	97558528	66203648	31088320	33184
312	1.439489	97558528	66203648	32787224	33184
313	1.631307	97558528	66203648	18131984	33184
314	1.316882	97558528	66203648	19841360	33184
315	1.334784	97558528	66203648	21555120	33184
316	1.437807	97558528	66203648	23273880	33184
317	1.264672	97558528	66203648	25003968	33184
318	1.268345	97558528	66203648	26732640	33184
319	1.476089	97558528	66203648	28467168	33184
320	1.274178	97558528	66203648	30205736	33184
321	1.282348	97558528	66203648	31949152	33184
322	1.294829	97558528	66203648	33697344	33184
323	1.35679	97558528	66203648	19091416	33184
324	1.354032	97558528	66203648	20849560	33184
325	1.354847	97558528	66203648	22612616	33184
326	1.388017	97558528	66203648	24384512	33184
327	1.305322	97558528	66203648	26160112	33184
328	1.304561	97558528	66203648	27938064	33184
329	1.311651	97558528	66203648	29723376	33184
330	1.317005	97558528	66203648	31511096	33184
331	1.314417	97558528	66203648	33304616	33184
332	1.331367	97558528	66203648	18802016	33184
333	1.338394	97558528	66203648	20604568	33184
334	1.335048	97558528	66203648	22412104	33184
335	1.326311	97558528	66203648	24224544	33184
336	1.331662	97558528	66203648	26041944	33184
337	1.35126	97558528	66203648	27864160	33184
338	1.347512	97558528	66203648	29691224	33184
339	1.339853	97558528	66203648	31523392	33184
340	1.554911	97558528	66203648	33360592	33184
341	1.558592	97558528	66203648	18906400	33184
342	1.36657	97558528	66203648	20753440	33184
343	1.365662	97558528	66203648	22611416	33184
344	1.363296	97558528	66203648	24476528	33184
345	1.555707	97558528	66203648	26346464	33184
346	1.380742	97558528	66203648	28221256	33184
347	1.371287	97558528	66203648	30101192	33184
348	1.37481	97558528	66203648	31985920	33184
349	1.393211	97558528	66203648	33878224	33184
350	1.40343	97558528	66203648	19418888	33184
351	1.390465	97558528	66203648	21318496	33184
352	1.393453	97558528	66203648	23223088	33184
353	1.425763	97558528	66203648	25132536	33184
354	1.409684	97558528	66203648	27046960	33184
355	1.402655	97558528	66203648	28966176	33184
356	1.404364	97558528	66203648	30894040	33184
357	1.416264	97558528	66203648	32823264	33184
358	1.762571	97558528	66203648	18422776	33184
359	1.430274	97558528	66203648	20394976	33184
360	1.428721	97558528	66203648	22389728	33184
361	1.427862	97558528	66203648	24393784	33184
362	1.435561	97558528	66203648	26405280	33184
363	1.450657	97558528	66203648	28428376	33184
364	1.444873	97558528	66203648	30456976	33184
365	1.531152	97558528	66203648	32483344	33184
366	1.909024	97558528	66203648	18232528	33184
367	1.530653	97558528	66203648	20270416	33184
368	1.487201	97558528	66203648	22315408	33184
369	1.508385	97558528	66203648	24365184	33184
370	1.491878	97558528	66203648	26418848	33184
371	1.463496	97558528	66203648	28475744	33184
372	1.469289	97558528	66203648	30541464	33184
373	1.488651	97558528	66203648	32610424	33184
374	1.888258	97558528	66203648	18360328	33184
375	1.546689	97558528	66203648	20433480	33184
376	1.538208	97558528	66203648	22511656	33184
377	1.490699	97558528	66203648	24594600	33184
378	1.49906	97558528	66203648	26682576	33184
379	1.695289	97558528	66203648	28775448	33184
380	1.560087	97558528	66203648	30873312	33184
381	1.511987	97558528	66203648	32976136	33184
382	1.833214	97558528	66203648	18735656	33184
383	1.525476	97558528	66203648	20861816	33184
384	1.516459	97558528	66203648	22979360	33184
385	1.53987	97558528	66203648	25101768	33184
386	1.537235	97558528	66203648	27229120	33184
387	1.535763	97558528	66203648	29361456	33184
388	1.53112	97558528	66203648	31498704	33184
389	1.532075	97558528	66203648	33640904	33184
390	1.5953	97558528	66203648	19508456	33184
391	1.545975	97558528	66203648	21660488	33184
392	1.552866	97558528	66203648	23817512	33184
393	1.744021	97558528	66203648	25979424	33184
394	1.563167	97558528	66203648	28149240	33184
395	1.556147	97558528	66203648	30321080	33184
396	1.561699	97558528	66203648	32497864	33184
397	1.940174	97558528	66203648	18403464	33184
398	1.573993	97558528	66203648	20589976	33184
399	1.575183	97558528	66203648	22781600	33184
400	1.593775	97558528	66203648	24978000	33184
401	1.603923	97558528	66203648	27184792	33184
402	1.585719	97558528	66203648	29391056	33184
403	1.594239	97558528	66203648	31602368	33184
404	1.593518	97558528	66203648	33819368	33184
405	1.599284	97558528	66203648	19724600	33184
406	1.59867	97558528	66203648	21950712	33184
407	1.793062	97558528	66203648	24184336	33184
408	1.615804	97558528	66203648	26420264	33184
409	1.613842	97558528	66203648	28661080	33184
410	1.77628	97558528	66203648	30908040	33184
411	1.617906	97558528	66203648	33158744	33184
412	1.917875	97558528	66203648	19039240	33184
413	1.625652	97558528	66203648	21299752	33184
414	1.635518	97558528	66203648	23571808	33184
415	1.639533	97558528	66203648	25842256	33184
416	1.64073	97558528	66203648	28117600	33184
417	1.836781	97558528	66203648	30400112	33184
418	1.653413	97558528	66203648	32685296	33184
419	2.013164	97558528	66203648	18667896	33184
420	1.84245	97558528	66203648	20962976	33184
421	1.665518	97558528	66203648	23264024	33184
422	1.661115	97558528	66203648	25569016	33184
423	1.666471	97558528	66203648	27879664	33184
424	1.669507	97558528	66203648	30194416	33184
425	1.673556	97558528	66203648	32517584	33184
426	2.051127	97558528	66203648	18577368	33184
427	1.687422	97558528	66203648	20907024	33184
428	1.682605	97558528	66203648	23242496	33184
429	1.691655	97558528	66203648	25581848	33184
430	1.884541	97558528	66203648	27928216	33184
431	1.703044	97558528	66203648	30277600	33184
432	1.716344	97558528	66203648	32632032	33184
433	2.296456	97558528	66203648	18689912	33184
434	1.71486	97558528	66203648	21054104	33184
435	1.715467	97558528	66203648	23426952	33184
436	1.747681	97558528	66203648	25801504	33184
437	1.718373	97558528	66203648	28180408	33184
438	1.71464	97558528	66203648	30564328	33184
439	1.724113	97558528	66203648	32953072	33184
440	2.054276	97558528	66203648	19010784	33184
441	1.735121	97558528	66203648	21410192	33184
442	1.732616	97558528	66203648	23813640	33184
443	2.018932	97558528	66203648	26222264	33184
444	1.859237	97558528	66203648	28644520	33184
445	1.83491	97558528	66203648	31062992	33184
446	1.759379	97558528	66203648	33486176	33184
447	1.765626	97558528	66203648	19664952	33184
448	1.757977	97558528	66203648	22098080	33184
449	1.774357	97558528	66203648	24536192	33184
450	1.76205	97558528	66203648	26979224	33184
451	1.769086	97558528	66203648	29427144	33184
452	1.820358	97558528	66203648	31880072	33184
453	1.841846	97558528	66203648	34339824	33184
454	1.786577	97558528	66203648	20467840	33184
455	1.808141	97558528	66203648	22938160	33184
456	1.788595	97558528	66203648	25410808	33184
457	1.794389	97558528	66203648	27888440	33184
458	1.989487	97558528	66203648	30370776	33184
459	1.803453	97558528	66203648	32858192	33184
460	2.144048	97558528	66203648	19023224	33184
461	1.841014	97558528	66203648	21520960	33184
462	1.813882	97558528	66203648	24024128	33184
463	1.81079	97558528	66203648	26531792	33184
464	1.835988	97558528	66203648	29043800	33184
465	1.832526	97558528	66203648	31560808	33184
466	1.832876	97558528	66203648	34085448	33184
467	2.032323	97558528	66203648	20303144	33184
468	1.890139	97558528	66203648	22834872	33184
469	1.839995	97558528	66203648	25371608	33184
470	1.903576	97558528	66203648	27913240	33184
471	1.954808	97558528	66203648	30460616	33184
472	1.861617	97558528	66203648	33012184	33184
473	2.190078	97558528	66203648	19239800	33184
474	1.857623	97558528	66203648	21801176	33184
475	1.861693	97558528	66203648	24367416	33184
476	1.92051	97558528	66203648	26938696	33184
477	1.866505	97558528	66203648	29514920	33184
478	1.878149	97558528	66203648	32095896	33184
479	2.16166	97558528	66203648	18296584	33184
480	1.900547	97558528	66203648	20887536	33184
481	1.89912	97558528	66203648	23483368	33184
482	1.892866	97558528	66203648	26084128	33184
483	2.137007	97558528	66203648	28689744	33184
484	2.367779	97558528	66203648	31302728	33184
485	2.085045	97558528	66203648	33918352	33184
486	1.934578	97558528	66203648	20296488	33184
487	1.933134	97558528	66203648	22921904	33184
488	1.908858	97558528	66203648	25552256	33184
489	1.912865	97558528	66203648	28187472	33184
490	1.923686	97558528	66203648	30828616	33184
491	1.973765	97558528	66203648	33483120	33184
492	1.946512	97558528	66203648	19929832	33184
493	1.935373	97558528	66203648	22596160	33184
494	1.944895	97558528	66203648	25263424	33184
495	1.950328	97558528	66203648	27928320	33184
496	1.949818	97558528	66203648	30598176	33184
497	2.240199	97558528	66203648	33274936	33184
498	2.538988	97558528	66203648	19618776	33184
499	2.066723	97558528	66203648	22303392	33184
500	1.954855	97558528	66203648	24992864	33184
501	1.956087	97558528	66203648	27687640	33184
502	1.963084	97558528	66203648	30393856	33184
503	1.965384	97558528	66203648	33098344	33184
504	2.31678	97558528	66203648	19487616	33184
505	1.98051	97558528	66203648	22201736	33184
506	2.168988	97558528	66203648	24920896	33184
507	1.987762	97558528	66203648	27645072	33184
508	1.988466	97558528	66203648	30374144	33184
509	2.01865	97558528	66203648	33109448	33184
510	2.37611	97558528	66203648	19529504	33184
511	2.068761	97558528	66203648	22275632	33184
512	2.003142	97558528	66203648	25031976	33184
513	2.007159	97558528	66203648	27785760	33184
514	2.182268	97558528	66203648	30555384	33184
515	2.212558	97558528	66203648	33319056	33184
516	2.340089	97558528	66203648	19749264	33184
517	2.215449	97558528	66203648	22522928	33184
518	2.028774	97558528	66203648	25301328	33184
519	2.117437	97558528	66203648	28084568	33184
520	2.031107	97558528	66203648	30872848	33184
521	2.046323	97558528	66203648	33665968	33184
522	2.066259	97558528	66203648	20247280	33184
523	2.049004	97558528	66203648	23053080	33184
524	2.051868	97558528	66203648	25861008	33184
525	2.23651	97558528	66203648	28673952	33184
526	2.05199	97558528	66203648	31493216	33184
527	2.05973	97558528	66203648	34315992	33184
528	2.123855	97558528	66203648	20846784	33184
529	2.073996	97558528	66203648	23679256	33184
530	2.26501	97558528	66203648	26523288	33184
531	2.09043	97558528	66203648	29365752	33184
532	2.127558	97558528	66203648	32225072	33184
533	2.481483	97558528	66203648	18869760	33184
534	2.082597	97558528	66203648	21727000	33184
535	2.249049	97558528	66203648	24589104	33184
536	2.307494	97558528	66203648	27460880	33184
537	2.102499	97558528	66203648	30333000	33184
538	2.286814	97558528	66203648	33212032	33184
539	2.440139	97558528	66203648	19781696	33184
540	2.102902	97558528	66203648	22676336	33184
541	2.3229	97558528	66203648	25570104	33184
542	2.170944	97558528	66203648	28468424	33184
543	2.441586	97558528	66203648	31370040	33184
544	2.120468	97558528	66203648	34285864	33184
545	2.125795	97558528	66203648	20926376	33184
546	2.140967	97558528	66203648	23842752	33184
547	2.143436	97558528	66203648	26764160	33184
548	2.332886	97558528	66203648	29690528	33184
549	2.14324	97558528	66203648	32621728	33184
550	2.535376	97558528	66203648	19343560	33184
551	2.147057	97558528	66203648	22292968	33184
552	2.15934	97558528	66203648	25255352	33184
553	2.356013	97558528	66203648	28238744	33184
554	2.163208	97558528	66203648	31211160	33184
555	2.160561	97558528	66203648	34189472	33184
556	2.173508	97558528	66203648	20981784	33184
557	2.181494	97558528	66203648	24002896	33184
558	2.400942	97558528	66203648	27029128	33184
559	2.19057	97558528	66203648	30067288	33184
560	2.17973	97558528	66203648	33103160	33184
561	2.525315	97558528	66203648	19843192	33184
562	2.387527	97558528	66203648	22901768	33184
563	2.38835	97558528	66203648	25952424	33184
564	2.242015	97558528	66203648	29008784	33184
565	2.204775	97558528	66203648	32070496	33184
566	2.632084	97558528	66203648	18965376	33184
567	2.223722	97558528	66203648	22035784	33184
568	2.41097	97558528	66203648	25111192	33184
569	2.21883	97558528	66203648	28193312	33184
570	2.270436	97558528	66203648	31278552	33184
571	2.232121	97558528	66203648	34368864	33184
572	2.23538	97558528	66203648	21209704	33184
573	2.236194	97558528	66203648	24316896	33184
574	2.236386	97558528	66203648	27422456	33184
575	2.257226	97558528	66203648	30533008	33184
576	2.256909	97558528	66203648	33647888	33184
577	2.264156	97558528	66203648	20619208	33184
578	2.254344	97558528	66203648	23745736	33184
579	2.261542	97558528	66203648	26895056	33184
580	2.502095	97558528	66203648	30032688	33184
581	2.279559	97558528	66203648	33172160	33184
582	2.605512	97558528	66203648	20014824	33184
583	2.285028	97558528	66203648	23164176	33184
584	2.283512	97558528	66203648	26318432	33184
585	2.29818	97558528	66203648	29477736	33184
586	2.280078	97558528	66203648	32649944	33184
587	2.87848	97558528	66203648	19604728	33184
588	2.306238	97558528	66203648	22781208	33184
589	2.293919	97558528	66203648	25965592	33184
590	2.314441	97558528	66203648	29149560	33184
591	2.319298	97558528	66203648	32342960	33184
592	2.71257	97558528	66203648	19340624	33184
593	2.313517	97558528	66203648	22541136	33184
594	2.310625	97558528	66203648	25749376	33184
595	2.328812	97558528	66203648	28957856	33184
596	2.325211	97558528	66203648	32174064	33184
597	2.741111	97558528	66203648	19209888	33184
598	2.338892	97558528	66203648	22436496	33184
599	2.346854	97558528	66203648	25666488	33184
600	2.34249	97558528	66203648	28905000	33184
601	2.343728	97558528	66203648	32144640	33184
602	2.907054	97558528	66203648	19214080	33184
603	2.454001	97558528	66203648	22471120	33184
604	2.354361	97558528	66203648	25726080	33184
605	2.359821	97558528	66203648	28983832	33184
606	2.5677	97558528	66203648	32247432	33184
607	2.769502	97558528	66203648	19325856	33184
608	2.389665	97558528	66203648	22598328	33184
609	2.383299	97558528	66203648	25876000	33184
610	2.378698	97558528	66203648	29171360	33184
611	2.407481	97558528	66203648	32461024	33184
612	2.866167	97558528	66203648	19565408	33184
613	2.395199	97558528	66203648	22862632	33184
614	2.396715	97558528	66203648	26167672	33184
615	2.459159	97558528	66203648	29474760	33184
616	2.417579	97558528	66203648	32788504	33184
617	2.966121	97558528	66203648	19848824	33184
618	2.41463	97558528	66203648	23170888	33184
619	2.404632	97558528	66203648	26498016	33184
620	2.425204	97558528	66203648	29842504	33184
621	2.467859	97558528	66203648	33183344	33184
622	2.766544	97558528	66203648	20235832	33184
623	2.437011	97558528	66203648	23594184	33184
624	2.633123	97558528	66203648	26945664	33184
625	2.43271	97558528	66203648	30306152	33184
626	2.60075	97558528	66203648	33667496	33184
627	2.490482	97558528	66203648	20682808	33184
628	2.444778	97558528	66203648	24064896	33184
629	2.456452	97558528	66203648	27441168	33184
630	2.46257	97558528	66203648	30822480	33184
631	2.465567	97558528	66203648	34208464	33184
632	2.471642	97558528	66203648	21417640	33184
633	2.662862	97558528	66203648	24829032	33184
634	2.464232	97558528	66203648	28235528	33184
635	2.675677	97558528	66203648	31641296	33184
636	2.486936	97558528	66203648	35059160	33184
637	2.526166	97558528	66203648	22189544	33184
638	2.491515	97558528	66203648	25613064	33184
639	2.483147	97558528	66203648	29038512	33184
640	2.533345	97558528	66203648	32470240	33184
641	3.06347	97558528	66203648	19739880	33184
642	2.50534	97558528	66203648	23180280	33184
643	2.508376	97558528	66203648	26625496	33184
644	2.698081	97558528	66203648	30078664	33184
645	2.508082	97558528	66203648	33536656	33184
646	3.03376	97558528	66203648	20684424	33184
647	2.515582	97558528	66203648	24149424	33184
648	2.716082	97558528	66203648	27619168	33184
649	2.536359	97558528	66203648	31104800	33184
650	2.522386	97558528	66203648	34584528	33184
651	2.540555	97558528	66203648	21842560	33184
652	2.539288	97558528	66203648	25342056	33184
653	2.551729	97558528	66203648	28836568	33184
654	2.549844	97558528	66203648	32336072	33184
655	3.021664	97558528	66203648	19670504	33184
656	2.564479	97558528	66203648	23180512	33184
657	2.564833	97558528	66203648	26694800	33184
658	2.583122	97558528	66203648	30215040	33184
659	2.756092	97558528	66203648	33746232	33184
660	2.591143	97558528	66203648	20931840	33184
661	2.766595	97558528	66203648	24475024	33184
662	2.569792	97558528	66203648	28019112	33184
663	2.789471	97558528	66203648	31562984	33184
664	2.586374	97558528	66203648	35111784	33184
665	2.615093	97558528	66203648	22384464	33184
666	2.601535	97558528	66203648	25952664	33184
667	2.593144	97558528	66203648	29518104	33184
668	2.607248	97558528	66203648	33100592	33184
669	3.023188	97558528	66203648	20398488	33184
670	2.619645	97558528	66203648	23976872	33184
671	2.63256	97558528	66203648	27566232	33184
672	2.626045	97558528	66203648	31155792	33184
673	2.673356	97558528	66203648	34761232	33184
674	2.631543	97558528	66203648	22118792	33184
675	2.631262	97558528	66203648	25723640	33184
676	2.640876	97558528	66203648	29339856	33184
677	2.643285	97558528	66203648	32956048	33184
678	3.006907	97558528	66203648	20332392	33184
679	2.846856	97558528	66203648	23955032	33184
680	2.671441	97558528	66203648	27596032	33184
681	2.661609	97558528	66203648	31242320	33184
682	2.823332	97558528	66203648	34880448	33184
683	2.713372	97558528	66203648	22266048	33184
684	2.973326	97558528	66203648	25913464	33184
685	2.671269	97558528	66203648	29577664	33184
686	2.859684	97558528	66203648	33235208	33184
687	3.027612	97558528	66203648	20621928	33184
688	2.873958	97558528	66203648	24299288	33184
689	2.689687	97558528	66203648	27973608	33184
690	2.876033	97558528	66203648	31650528	33184
691	2.687571	97558528	66203648	35334320	33184
692	3.007787	97558528	66203648	22746144	33184
693	2.85199	97558528	66203648	26439552	33184
694	3.006744	97558528	66203648	30136160	33184
695	2.850922	97558528	66203648	33838600	33184
696	2.73001	97558528	66203648	21196080	33184
697	2.725476	97558528	66203648	24908016	33184
698	2.728682	97558528	66203648	28624600	33184
699	2.725732	97558528	66203648	32346064	33184
700	3.534476	97558528	66203648	19939120	33184
701	2.747592	97558528	66203648	23695600	33184
702	2.756045	97558528	66203648	27448208	33184
703	2.740668	97558528	66203648	31205752	33184
704	2.914272	97558528	66203648	34975640	33184
705	2.754312	97558528	66203648	22487728	33184
706	2.788559	97558528	66203648	26277536	33184
707	2.754798	97558528	66203648	30054800	33184
708	2.755351	97558528	66203648	33836968	33184
709	2.7775	97558528	66203648	21305000	33184
710	2.78367	97558528	66203648	25097088	33184
711	2.778365	97558528	66203648	28905800	33184
712	2.792443	97558528	66203648	32707864	33184
713	3.196488	97558528	66203648	20358160	33184
714	2.781703	97558528	66203648	24206040	33184
715	2.83468	97558528	66203648	28088512	33184
716	2.777134	97558528	66203648	31980920	33184
717	3.252891	97558528	66203648	19766800	33184
718	2.794214	97558528	66203648	23674984	33184
719	2.802935	97558528	66203648	27577248	33184
720	2.903473	97558528	66203648	31484296	33184
721	2.862991	97558528	66203648	35396448	33184
722	2.866259	97558528	66203648	23045512	33184
723	2.839999	97558528	66203648	26971208	33184
724	2.823064	97558528	66203648	30904016	33184
725	2.821629	97558528	66203648	34835736	33184
726	2.880038	97558528	66203648	22546464	33184
727	2.825258	97558528	66203648	26488296	33184
728	2.834045	97558528	66203648	30442520	33184
729	2.83988	97558528	66203648	34394224	33184
730	2.854054	97558528	66203648	22211704	33184
731	3.040683	97558528	66203648	26173024	33184
732	2.848311	97558528	66203648	30139488	33184
733	2.859085	97558528	66203648	34113040	33184
734	2.853898	97558528	66203648	21967592	33184
735	3.057409	97558528	66203648	25958352	33184
736	2.866292	97558528	66203648	29944416	33184
737	3.058763	97558528	66203648	33935440	33184
738	2.877369	97558528	66203648	21862056	33184
739	2.909115	97558528	66203648	25880488	33184
740	2.884083	97558528	66203648	29886280	33184
741	2.882986	97558528	66203648	33896896	33184
742	2.901026	97558528	66203648	21572304	33184
743	2.898156	97558528	66203648	25592976	33184
744	2.893087	97558528	66203648	29629816	33184
745	2.895399	97558528	66203648	33667968	33184
746	3.236005	97558528	66203648	21407656	33184
747	2.941572	97558528	66203648	25451616	33184
748	3.101671	97558528	66203648	29496960	33184
749	2.915275	97558528	66203648	33547912	33184
750	3.461525	97558528	66203648	21345384	33184
751	2.917559	97558528	66203648	25405392	33184
752	2.93704	97558528	66203648	29474440	33184
753	2.926993	97558528	66203648	33544296	33184
754	3.478859	97558528	66203648	21360680	33184
755	2.942931	97558528	66203648	25440528	33184
756	2.938757	97558528	66203648	29525248	33184
757	2.943574	97558528	66203648	33614880	33184
758	3.312074	97558528	66203648	21452936	33184
759	2.95821	97558528	66203648	25566472	33184
760	3.149713	97558528	66203648	29694560	33184
761	3.12301	97558528	66203648	33822720	33184
762	3.272185	97558528	66203648	21598264	33184
763	3.160509	97558528	66203648	25717560	33184
764	2.983606	97558528	66203648	29842632	33184
765	2.983476	97558528	66203648	33971912	33184
766	3.023664	97558528	66203648	21890024	33184
767	2.98663	97558528	66203648	26028912	33184
768	3.029817	97558528	66203648	30172888	33184
769	3.041208	97558528	66203648	34334456	33184
770	3.045791	97558528	66203648	22366128	33184
771	3.016041	97558528	66203648	26524824	33184
772	3.064158	97558528	66203648	30688424	33184
773	3.003252	97558528	66203648	34857016	33184
774	3.209637	97558528	66203648	22875648	33184
775	3.018402	97558528	66203648	27054016	33184
776	3.047711	97558528	66203648	31240368	33184
777	3.082266	97558528	66203648	35441720	33184
778	3.094868	97558528	66203648	23396976	33184
779	3.385629	97558528	66203648	27596648	33184
780	3.04709	97558528	66203648	31801824	33184
781	3.221477	97558528	66203648	36014056	33184
782	3.04577	97558528	66203648	23906952	33184
783	3.232939	97558528	66203648	28124720	33184
784	3.046949	97558528	66203648	32347448	33184
785	3.566488	97558528	66203648	20479064	33184
786	3.172075	97558528	66203648	24715368	33184
787	3.071916	97558528	66203648	28964792	33184
788	3.080735	97558528	66203648	33207280	33184
789	3.516711	97558528	66203648	21222256	33184
790	3.284723	97558528	66203648	25474456	33184
791	3.127852	97558528	66203648	29741336	33184
792	3.093939	97558528	66203648	34007680	33184
793	3.092767	97558528	66203648	21975456	33184
794	3.094056	97558528	66203648	26247544	33184
795	3.103924	97558528	66203648	30529904	33184
796	3.097495	97558528	66203648	34811952	33184
797	3.331322	97558528	66203648	23004392	33184
798	3.109209	97558528	66203648	27296248	33184
799	3.113658	97558528	66203648	31593992	33184
800	3.107523	97558528	66203648	35895704	33184
801	3.127703	97558528	66203648	23974512	33184
802	3.318843	97558528	66203648	28286896	33184
803	3.120628	97558528	66203648	32604224	33184
804	3.821711	97558528	66203648	20837584	33184
805	3.143798	97558528	66203648	25163904	33184
806	3.138453	97558528	66203648	29512696	33184
807	3.14458	97558528	66203648	33848912	33184
808	3.682099	97558528	66203648	21920112	33184
809	3.427914	97558528	66203648	26266192	33184
810	3.154926	97558528	66203648	30617112	33184
811	3.338379	97558528	66203648	34972936	33184
812	3.167418	97558528	66203648	23246096	33184
813	3.173064	97558528	66203648	27629944	33184
814	3.209941	97558528	66203648	32000680	33184
815	3.716882	97558528	66203648	20336680	33184
816	3.365958	97558528	66203648	24717216	33184
817	3.184183	97558528	66203648	29106760	33184
818	3.186292	97558528	66203648	33497352	33184
819	3.622649	97558528	66203648	21672688	33184
820	3.236218	97558528	66203648	26073040	33184
821	3.381465	97558528	66203648	30484296	33184
822	3.201048	97558528	66203648	34896992	33184
823	3.196599	97558528	66203648	23229536	33184
824	3.214233	97558528	66203648	27649616	33184
825	3.20905	97558528	66203648	32074600	33184
826	3.772388	97558528	66203648	20470056	33184
827	3.211551	97558528	66203648	24904704	33184
828	3.276047	97558528	66203648	29353696	33184
829	3.216763	97558528	66203648	33805120	33184
830	3.674661	97558528	66203648	22034328	33184
831	3.391781	97558528	66203648	26488752	33184
832	3.239571	97558528	66203648	30956104	33184
833	3.442889	97558528	66203648	35427912	33184
834	3.245479	97558528	66203648	23716008	33184
835	3.3228	97558528	66203648	28192112	33184
836	3.24538	97558528	66203648	32671288	33184
837	3.818369	97558528	66203648	21097208	33184
838	3.680616	97558528	66203648	25586280	33184
839	3.359305	97558528	66203648	30083440	33184
840	3.318602	97558528	66203648	34588032	33184
841	3.483324	97558528	66203648	23016600	33184
842	3.321249	97558528	66203648	27526872	33184
843	3.459377	97558528	66203648	32048688	33184
844	3.951375	97558528	66203648	20544192	33184
845	3.342386	97558528	66203648	25067824	33184
846	3.486063	97558528	66203648	29600440	33184
847	3.349064	97558528	66203648	34135520	33184
848	3.767	97558528	66203648	22361984	33184
849	3.477403	97558528	66203648	26925832	33184
850	3.536543	97558528	66203648	31515528	33184
851	3.505261	97558528	66203648	36122400	33184
852	3.325441	97558528	66203648	24527936	33184
853	3.498359	97558528	66203648	29146856	33184
854	3.503209	97558528	66203648	33776248	33184
855	3.920584	97558528	66203648	22200160	33184
856	3.349153	97558528	66203648	26837040	33184
857	3.328882	97558528	66203648	31480656	33184
858	3.337222	97558528	66203648	36124360	33184
859	3.548471	97558528	66203648	24565912	33184
860	3.340509	97558528	66203648	29228744	33184
861	3.347514	97558528	66203648	33883120	33184
862	4.110651	97558528	66203648	22333696	33184
863	3.35162	97558528	66203648	26998664	33184
864	3.549303	97558528	66203648	31667584	33184
865	3.363875	97558528	66203648	36344960	33184
866	3.573632	97558528	66203648	24811728	33184
867	3.745459	97558528	66203648	29499152	33184
868	3.383994	97558528	66203648	34198264	33184
869	3.92584	97558528	66203648	22582368	33184
870	3.381243	97558528	66203648	27282168	33184
871	3.391844	97558528	66203648	32000896	33184
872	4.22982	97558528	66203648	20721176	33184
873	3.39667	97558528	66203648	25436728	33184
874	3.40489	97558528	66203648	30156808	33184
875	3.591696	97558528	66203648	34883136	33184
876	3.554059	97558528	66203648	23557936	33184
877	3.421531	97558528	66203648	28291088	33184
878	3.419471	97558528	66203648	33030080	33184
879	3.979801	97558528	66203648	21648336	33184
880	3.44443	97558528	66203648	26396176	33184
881	3.424651	97558528	66203648	31151248	33184
882	3.472697	97558528	66203648	35911368	33184
883	3.660949	97558528	66203648	24471768	33184
884	3.496775	97558528	66203648	29241288	33184
885	3.449193	97558528	66203648	34023496	33184
886	4.280021	97558528	66203648	22597384	33184
887	3.501826	97558528	66203648	27379512	33184
888	3.456575	97558528	66203648	32166848	33184
889	4.308768	97558528	66203648	20940944	33184
890	3.565714	97558528	66203648	25746128	33184
891	3.47083	97558528	66203648	30560288	33184
892	3.474448	97558528	66203648	35371408	33184
893	3.479195	97558528	66203648	24136632	33184
894	3.469669	97558528	66203648	28959856	33184
895	3.520196	97558528	66203648	33792864	33184
896	4.033557	97558528	66203648	22415976	33184
897	3.67835	97558528	66203648	27262632	33184
898	3.490397	97558528	66203648	32099120	33184
899	4.18005	97558528	66203648	20958520	33184
900	3.510284	97558528	66203648	25805064	33184
901	3.502693	97558528	66203648	30662744	33184
902	3.522549	97558528	66203648	35534896	33184
903	3.707339	97558528	66203648	24290584	33184
904	3.512408	97558528	66203648	29163296	33184
905	3.51417	97558528	66203648	34040072	33184
906	4.125515	97558528	66203648	22714360	33184
907	3.52633	97558528	66203648	27595208	33184
908	3.57256	97558528	66203648	32496424	33184
909	4.364335	97558528	66203648	21343392	33184
910	3.634885	97558528	66203648	26239144	33184
911	3.573039	97558528	66203648	31141416	33184
912	3.563175	97558528	66203648	36047920	33184
913	3.575125	97558528	66203648	24757496	33184
914	3.612945	97558528	66203648	29672992	33184
915	3.562553	97558528	66203648	34595600	33184
916	3.590056	97558528	66203648	23544936	33184
917	3.556614	97558528	66203648	28481768	33184
918	3.617503	97558528	66203648	33428072	33184
919	4.174402	97558528	66203648	22200120	33184
920	3.771442	97558528	66203648	27145184	33184
921	3.605603	97558528	66203648	32114176	33184
922	4.403496	97558528	66203648	21109144	33184
923	3.873737	97558528	66203648	26080792	33184
924	3.594024	97558528	66203648	31064904	33184
925	3.59026	97558528	66203648	36034680	33184
926	3.594384	97558528	66203648	24832104	33184
927	3.597259	97558528	66203648	29811832	33184
928	3.604531	97558528	66203648	34797088	33184
929	3.640401	97558528	66203648	23783624	33184
930	3.618989	97558528	66203648	28778536	33184
931	3.809045	97558528	66203648	33784864	33184
932	4.22255	97558528	66203648	22593872	33184
933	3.667018	97558528	66203648	27613216	33184
934	3.624797	97558528	66203648	32627296	33184
935	4.573671	97558528	66203648	21614600	33184
936	3.800405	97558528	66203648	26638784	33184
937	3.653278	97558528	66203648	31667776	33184
938	3.668591	97558528	66203648	36720920	33184
939	3.884407	97558528	66203648	25564248	33184
940	3.649095	97558528	66203648	30608176	33184
941	3.649085	97558528	66203648	35656856	33184
942	3.848062	97558528	66203648	24675736	33184
943	3.660183	97558528	66203648	29738168	33184
944	3.667685	97558528	66203648	34801504	33184
945	3.861631	97558528	66203648	23895352	33184
946	3.67386	97558528	66203648	28968608	33184
947	3.682225	97558528	66203648	34048416	33184
948	4.487808	97558528	66203648	22954000	33184
949	3.685287	97558528	66203648	28062832	33184
950	3.694216	97558528	66203648	33155808	33184
951	4.682505	97558528	66203648	22180184	33184
952	3.866612	97558528	66203648	27290264	33184
953	3.705484	97558528	66203648	32405048	33184
954	4.457857	97558528	66203648	21499696	33184
955	3.707779	97558528	66203648	26623152	33184
956	3.775178	97558528	66203648	31757696	33184
957	3.719868	97558528	66203648	36906632	33184
958	3.733689	97558528	66203648	25849464	33184
959	3.726571	97558528	66203648	31001744	33184
960	3.735896	97558528	66203648	36144584	33184
961	3.997358	97558528	66203648	25150152	33184
962	3.742198	97558528	66203648	30307336	33184
963	3.741694	97558528	66203648	35469168	33184
964	3.932249	97558528	66203648	24612552	33184
965	3.752118	97558528	66203648	29788600	33184
966	3.745267	97558528	66203648	34962664	33184
967	3.757618	97558528	66203648	24158880	33184
968	3.939629	97558528	66203648	29341992	33184
969	3.766026	97558528	66203648	34528784	33184
970	4.515612	97558528	66203648	23448016	33184
971	4.135896	97558528	66203648	28644520	33184
972	3.822856	97558528	66203648	33846032	33184
973	4.764628	97558528	66203648	22869056	33184
974	4.147682	97558528	66203648	28086728	33184
975	4.152124	97558528	66203648	33305760	33184
976	4.709724	97558528	66203648	22436352	33184
977	3.798573	97558528	66203648	27664776	33184
978	3.849566	97558528	66203648	32910776	33184
979	4.591139	97558528	66203648	22144328	33184
980	3.80685	97558528	66203648	27394456	33184
981	3.857022	97558528	66203648	32656384	33184
982	4.820272	97558528	66203648	21901688	33184
983	3.976071	97558528	66203648	27162088	33184
984	3.835299	97558528	66203648	32424960	33184
985	4.822894	97558528	66203648	21707088	33184
986	3.837972	97558528	66203648	26977632	33184
987	3.83418	97558528	66203648	32253208	33184
988	4.689718	97558528	66203648	21584648	33184
989	4.123856	97558528	66203648	26871520	33184
990	3.845585	97558528	66203648	32163800	33184
991	4.735348	97558528	66203648	21541512	33184
992	4.029822	97558528	66203648	26844992	33184
993	3.901623	97558528	66203648	32150760	33184
994	4.523912	97558528	66203648	21161112	33184
995	4.032547	97558528	66203648	26489744	33184
996	3.977954	97558528	66203648	31809856	33184
997	3.871864	97558528	66203648	37137832	33184
998	4.052411	97558528	66203648	26291656	33184
999	3.883315	97558528	66203648	31626296	33184
1000	3.960772	97558528	66203648	36974488	33184
