x	Duration	RSS	HeapTotal	HeapUsed	External
0	NA	101859328	67252224	16025736	33184
1	0.30546	101859328	67252224	16078008	33184
2	0.262547	101859328	67252224	16145952	33184
3	0.156811	101859328	67252224	16248040	33184
4	0.153248	101859328	67252224	16338160	33184
5	0.159793	101859328	67252224	16433240	33184
6	0.166312	101859328	67252224	16533768	33184
7	0.17137	101859328	67252224	16639216	33184
8	0.174382	101859328	67252224	16749576	33184
9	0.181421	101859328	67252224	16865512	33184
10	0.18832	101859328	67252224	16987056	33184
11	0.194869	101859328	67252224	17113464	33184
12	0.201744	101859328	67252224	17244840	33184
13	0.209618	101859328	67252224	17381152	33184
14	0.214396	101859328	67252224	17522384	33184
15	0.240492	101859328	67252224	17668528	33184
16	0.612042	101859328	67252224	17819624	33184
17	0.249401	101859328	67252224	17975656	33184
18	0.247716	101859328	67252224	18136592	33184
19	0.490469	101859328	67252224	18304984	33184
20	0.309602	101859328	67252224	18482520	33184
21	0.186614	101859328	67252224	18662280	33184
22	0.17681	101859328	67252224	18848112	33184
23	0.195531	101859328	67252224	19041256	33184
24	0.172725	101859328	67252224	19236664	33184
25	0.175571	101859328	67252224	19437008	33184
26	0.177707	101859328	67252224	19642296	33184
27	0.181619	101859328	67252224	19852472	33184
28	0.185697	101859328	67252224	20067600	33184
29	0.188436	101859328	67252224	20287648	33184
30	0.218936	101859328	67252224	20513704	33184
31	0.198789	101859328	67252224	20744696	33184
32	0.200672	101859328	67252224	20980600	33184
33	0.205062	101859328	67252224	21221504	33184
34	0.208528	101859328	67252224	21467264	33184
35	0.213675	101859328	67252224	21718032	33184
36	0.216526	101859328	67252224	21973640	33184
37	0.220176	101859328	67252224	22234200	33184
38	0.406436	101859328	67252224	22499664	33184
39	0.230371	101859328	67252224	22770080	33184
40	0.232809	101859328	67252224	23045392	33184
41	0.235908	101859328	67252224	23325688	33184
42	0.246045	101859328	67252224	23610856	33184
43	0.242875	101859328	67252224	23900952	33184
44	0.248015	101859328	67252224	24198192	33184
45	0.419712	101859328	67252224	24505184	33184
46	0.25821	101859328	67252224	24817784	33184
47	0.275151	101859328	67252224	25135280	33184
48	0.261947	101859328	67252224	25457768	33184
49	0.267503	101859328	67252224	25785184	33184
50	0.270242	101859328	67252224	26117472	33184
51	0.273212	101859328	67252224	26454688	33184
52	0.277508	101859328	67252224	26796880	33184
53	0.279506	101859328	67252224	27143952	33184
54	0.306368	101859328	67252224	27496096	33184
55	0.293539	101859328	67252224	27853072	33184
56	0.321775	101859328	67252224	28217024	33184
57	0.323854	101859328	67252224	28586000	33184
58	0.302626	101859328	67252224	28959840	33184
59	0.305375	101859328	67252224	29338568	33184
60	0.306857	101859328	67252224	29722272	33184
61	0.310542	101859328	67252224	30110928	33184
62	0.314127	101859328	67252224	30505064	33184
63	0.346448	101859328	67252224	30903496	33184
64	0.323657	101859328	67252224	31306896	33184
65	0.347244	102129664	67252224	31715208	33184
66	0.33177	102129664	67252224	32128424	33184
67	1.336336	102129664	67252224	16438864	33184
68	0.34053	102129664	67252224	16861928	33184
69	0.340739	102129664	67252224	17289960	33184
70	0.345061	102129664	67252224	17722880	33184
71	0.342886	102129664	67252224	18160720	33184
72	0.347375	102129664	67252224	18603496	33184
73	0.363554	102129664	67252224	19051240	33184
74	0.354593	102129664	67252224	19503920	33184
75	0.357955	102129664	67252224	19961552	33184
76	0.362622	102129664	67252224	20426136	33184
77	0.538321	102129664	67252224	20895704	33184
78	0.370279	102129664	67252224	21370144	33184
79	0.371034	102129664	67252224	21849512	33184
80	0.376904	102129664	67252224	22334056	33184
81	0.412375	102129664	67252224	22824488	33184
82	0.38589	102129664	67252224	23318608	33184
83	0.38763	102129664	67252224	23818584	33184
84	0.390696	102129664	67252224	24327624	33184
85	0.39732	102129664	67252224	24842152	33184
86	0.408705	102129664	67252224	25361616	33184
87	0.403336	102129664	67252224	25886032	33184
88	0.406435	102129664	67252224	26415352	33184
89	0.407056	102129664	67252224	26949672	33184
90	0.412544	102129664	67252224	27488832	33184
91	0.43815	102129664	67252224	28037240	33184
92	0.422458	102129664	67252224	28594776	33184
93	0.429934	102129664	67252224	29157264	33184
94	0.429903	102129664	67252224	29724656	33184
95	0.432508	102129664	67252224	30298424	33184
96	0.437687	102129664	67252224	30875584	33184
97	0.439109	102129664	67252224	31457704	33184
98	0.443272	102129664	67252224	32044736	33184
99	0.493563	102129664	67252224	32636696	33184
100	0.46141	102129664	67252224	17004288	33184
101	0.456632	102129664	67252224	17606080	33184
102	0.474212	102129664	67252224	18212904	33184
103	0.467163	102129664	67252224	18824592	33184
104	0.466187	102129664	67252224	19441216	33184
105	0.501448	102129664	67252224	20062904	33184
106	0.483129	102129664	67252224	20689400	33184
107	0.476659	102129664	67252224	21320848	33184
108	0.517975	102129664	67252224	21957176	33184
109	0.526122	102129664	67252224	22598504	33184
110	0.528539	102129664	67252224	23244800	33184
111	0.534536	102129664	67252224	23895936	33184
112	0.536915	102129664	67252224	24551976	33184
113	0.698672	102129664	67252224	25212968	33184
114	0.507758	102129664	67252224	25879520	33184
115	0.50825	102129664	67252224	26552256	33184
116	0.515018	102129664	67252224	27228072	33184
117	0.517823	102129664	67252224	27908880	33184
118	0.515697	102129664	67252224	28594528	33184
119	0.522152	102129664	67252224	29285128	33184
120	0.533842	102129664	67252224	29980640	33184
121	0.530283	102129664	67252224	30681200	33184
122	0.533949	102129664	67252224	31386560	33184
123	0.53816	102129664	67252224	32097176	33184
124	0.544727	102129664	67252224	32812440	33184
125	0.58786	102129664	67252224	17214064	33184
126	0.594551	102129664	67252224	17939184	33184
127	0.591612	102129664	67252224	18669240	33184
128	0.594015	102129664	67252224	19408400	33184
129	0.599981	102129664	67252224	20152544	33184
130	0.606239	102129664	67252224	20902400	33184
131	0.608092	102129664	67252224	21656392	33184
132	0.61258	102129664	67252224	22415544	33184
133	0.582071	102129664	67252224	23179376	33184
134	0.582187	102129664	67252224	23948176	33184
135	0.581983	102129664	67252224	24721800	33184
136	0.585703	102129664	67252224	25500368	33184
137	0.588781	102129664	67252224	26283896	33184
138	0.593197	102129664	67252224	27073192	33184
139	0.594588	102129664	67252224	27866552	33184
140	0.599495	102129664	67252224	28664912	33184
141	0.603455	102129664	67252224	29468200	33184
142	0.640465	102129664	67252224	30283784	33184
143	0.616136	102129664	67252224	31106016	33184
144	0.616963	102129664	67252224	31933240	33184
145	0.619281	102129664	67252224	32767368	33184
146	0.681222	102129664	67252224	17283504	33184
147	0.681763	102129664	67252224	18126152	33184
148	0.676014	102129664	67252224	18973112	33184
149	0.677462	102129664	67252224	19824960	33184
150	0.841874	102129664	67252224	20681736	33184
151	0.644157	102129664	67252224	21543472	33184
152	0.64757	102129664	67252224	22410168	33184
153	0.651552	102129664	67252224	23281712	33184
154	0.681742	102129664	67252224	24158296	33184
155	0.688429	102129664	67252224	25039808	33184
156	0.658139	102129664	67252224	25926152	33184
157	0.662995	102129664	67252224	26817560	33184
158	0.703524	102129664	67252224	27713840	33184
159	0.673034	102129664	67252224	28615072	33184
160	0.674177	102129664	67252224	29521368	33184
161	0.689442	102129664	67252224	30432504	33184
162	0.683368	102129664	67252224	31348456	33184
163	0.688558	102129664	67252224	32269368	33184
164	0.692026	102129664	67252224	16818272	33184
165	0.698418	102129664	67252224	17749032	33184
166	0.895763	102129664	67252224	18688896	33184
167	0.70514	102129664	67252224	19633720	33184
168	0.705153	102129664	67252224	20583584	33184
169	0.710641	102129664	67252224	21538336	33184
170	0.712659	102129664	67252224	22497896	33184
171	0.72269	102129664	67252224	23462368	33184
172	0.72205	102129664	67252224	24431848	33184
173	0.723978	102129664	67252224	25406264	33184
174	0.745465	102129664	67252224	26385688	33184
175	0.767106	102129664	67252224	27372616	33184
176	0.77781	102129664	67252224	28361760	33184
177	0.739823	102129664	67252224	29355808	33184
178	0.741678	102129664	67252224	30354856	33184
179	0.7448	102129664	67252224	31358880	33184
180	0.748488	102129664	67252224	32376128	33184
181	1.190394	102129664	67252224	17078040	33184
182	0.762403	102129664	67252224	18117400	33184
183	0.771242	102129664	67252224	19158152	33184
184	0.764722	102129664	67252224	20203416	33184
185	0.767204	102129664	67252224	21253640	33184
186	0.770677	102129664	67252224	22308752	33184
187	0.775854	102129664	67252224	23368848	33184
188	0.976329	102129664	67252224	24433952	33184
189	0.78169	102129664	67252224	25503880	33184
190	0.796532	102129664	67252224	26578840	33184
191	0.78946	102129664	67252224	27659584	33184
192	0.951559	102129664	67252224	28747752	33184
193	0.801613	102129664	67252224	29837376	33184
194	0.80741	102129664	67252224	30932752	33184
195	0.809291	102129664	67252224	32032240	33184
196	0.808289	102129664	67252224	33136656	33184
197	0.871362	102129664	67252224	17886296	33184
198	0.86701	102129664	67252224	19000656	33184
199	0.874729	102129664	67252224	20119904	33184
200	0.87592	102129664	67252224	21244032	33184
201	1.035109	102129664	67252224	22373088	33184
202	0.83309	102129664	67252224	23507096	33184
203	0.845443	102129664	67252224	24646016	33184
204	0.83545	102129664	67252224	25789944	33184
205	0.850248	102129664	67252224	26938728	33184
206	0.84324	102129664	67252224	28094168	33184
207	0.844249	102129664	67252224	29252896	33184
208	0.853267	102129664	67252224	30416560	33184
209	0.853077	102129664	67252224	31585056	33184
210	0.860203	102129664	67252224	32760040	33184
211	1.227361	102129664	67252224	17568744	33184
212	0.86946	102129664	67252224	18752056	33184
213	0.873047	102129664	67252224	19940368	33184
214	0.878001	102129664	67252224	21135568	33184
215	0.883712	102129664	67252224	22333712	33184
216	0.883353	102129664	67252224	23536736	33184
217	0.886291	102129664	67252224	24744816	33184
218	0.885525	102129664	67252224	25957784	33184
219	0.894187	102129664	67252224	27176136	33184
220	0.917472	102129664	67252224	28398904	33184
221	0.899959	102129664	67252224	29626584	33184
222	0.907374	102129664	67252224	30859240	33184
223	0.908285	102129664	67252224	32096776	33184
224	0.910359	102129664	67252224	33339280	33184
225	0.976161	102129664	67252224	18219208	33184
226	0.926287	102129664	67252224	19471520	33184
227	0.923439	102129664	67252224	20728936	33184
228	0.923642	102129664	67252224	21991216	33184
229	0.9287	102129664	67252224	23269920	33184
230	0.937353	102129664	67252224	24557264	33184
231	0.93949	102129664	67252224	25848688	33184
232	0.94407	102129664	67252224	27146080	33184
233	0.969457	102129664	67252224	28447360	33184
234	0.953392	102129664	67252224	29753568	33184
235	0.961854	102129664	67252224	31065584	33184
236	0.953232	102129664	67252224	32381632	33184
237	1.522786	102129664	67252224	17383960	33184
238	0.968689	102129664	67252224	18709912	33184
239	0.978601	102129664	67252224	20040784	33184
240	0.97505	102129664	67252224	21376608	33184
241	0.979005	102129664	67252224	22717336	33184
242	0.983271	102129664	67252224	24062952	33184
243	0.990115	102129664	67252224	25414304	33184
244	0.986073	102129664	67252224	26769840	33184
245	0.990107	102129664	67252224	28130336	33184
246	0.997372	102129664	67252224	29495816	33184
247	1.060642	102129664	67252224	30866088	33184
248	1.102142	102129664	67252224	32241408	33184
249	1.390003	102129664	67252224	17323072	33184
250	1.013206	102129664	67252224	18708152	33184
251	1.012642	102129664	67252224	20098232	33184
252	1.018945	102129664	67252224	21493288	33184
253	1.020085	102129664	67252224	22893336	33184
254	1.029237	102129664	67252224	24298168	33184
255	1.088057	102129664	67252224	25707896	33184
256	1.03651	102129664	67252224	27122608	33184
257	1.062317	102129664	67252224	28542432	33184
258	1.04317	102129664	67252224	29966944	33184
259	1.04352	102129664	67252224	31396440	33184
260	1.239562	102129664	67252224	32833584	33184
261	1.405064	102129664	67252224	17907704	33184
262	1.091939	102129664	67252224	19352056	33184
263	1.064281	102129664	67252224	20801336	33184
264	1.070132	102129664	67252224	22255552	33184
265	1.125063	102129664	67252224	23715488	33184
266	1.069313	102129664	67252224	25180464	33184
267	1.079166	102129664	67252224	26649504	33184
268	1.105622	102129664	67252224	28123968	33184
269	1.087041	102129664	67252224	29611080	33184
270	1.099783	102129664	67252224	31103120	33184
271	1.091022	102129664	67252224	32600040	33184
272	1.464654	102129664	67252224	17762736	33184
273	1.097704	102129664	67252224	19269744	33184
274	1.105114	102129664	67252224	20781520	33184
275	1.14634	102129664	67252224	22298168	33184
276	1.106963	102129664	67252224	23819816	33184
277	1.11174	102129664	67252224	25347832	33184
278	1.116082	102129664	67252224	26879288	33184
279	1.125913	102129664	67252224	28415760	33184
280	1.194684	102129664	67252224	29957056	33184
281	1.131021	102129664	67252224	31505312	33184
282	1.13261	102129664	67252224	33056544	33184
283	1.215335	102129664	67252224	18321648	33184
284	1.139498	102129664	67252224	19882952	33184
285	1.203806	102129664	67252224	21449040	33184
286	1.337543	102129664	67252224	23020080	33184
287	1.210173	102129664	67252224	24595984	33184
288	1.216387	102129664	67252224	26176840	33184
289	1.22616	102129664	67252224	27762544	33184
290	1.220828	102129664	67252224	29354440	33184
291	1.225029	102129664	67252224	30956480	33184
292	1.376829	102129664	67252224	32559784	33184
293	1.578352	102129664	67252224	17840496	33184
294	1.247231	102129664	67252224	19454424	33184
295	1.247354	102129664	67252224	21069776	33184
296	1.265752	102129664	67252224	22692088	33184
297	1.191517	102129664	67252224	24318456	33184
298	1.191276	102129664	67252224	25948536	33184
299	1.205953	102129664	67252224	27583664	33184
300	1.195632	102129664	67252224	29223672	33184
301	1.260586	102129664	67252224	30868736	33184
302	1.206926	102129664	67252224	32524624	33184
303	1.78575	102129664	67252224	17874224	33184
304	1.237591	102129664	67252224	19533920	33184
305	1.389308	102129664	67252224	21198576	33184
306	1.221325	102129664	67252224	22868112	33184
307	1.223354	102129664	67252224	24542616	33184
308	1.447554	102129664	67252224	26223032	33184
309	1.238349	102129664	67252224	27909472	33184
310	1.235525	102129664	67252224	29599600	33184
311	1.290006	102129664	67252224	31293744	33184
312	1.245364	102129664	67252224	32992904	33184
313	1.584293	102129664	67252224	18315208	33184
314	1.438741	102129664	67252224	20024176	33184
315	1.263951	102129664	67252224	21738064	33184
316	1.260321	102129664	67252224	23464704	33184
317	1.258452	102129664	67252224	25188544	33184
318	1.285285	102129664	67252224	26917392	33184
319	1.272151	102129664	67252224	28653960	33184
320	1.271336	102129664	67252224	30392648	33184
321	1.282431	102129664	67252224	32136168	33184
322	1.279195	102129664	67252224	33884672	33184
323	1.293974	102129664	67252224	19272872	33184
324	1.296327	102129664	67252224	21031232	33184
325	1.292338	102129664	67252224	22794560	33184
326	1.294085	102129664	67252224	24563416	33184
327	1.3263	102129664	67252224	26336624	33184
328	1.309783	102129664	67252224	28114960	33184
329	1.309276	102129664	67252224	29897992	33184
330	1.313434	102129664	67252224	31685944	33184
331	1.331931	102129664	67252224	33478728	33184
332	1.337168	102129664	67252224	18977848	33184
333	1.324953	102129664	67252224	20780552	33184
334	1.326384	102129664	67252224	22593744	33184
335	1.368004	102129664	67252224	24406400	33184
336	1.329785	102129664	67252224	26224320	33184
337	1.339708	102129664	67252224	28046752	33184
338	1.341339	102129664	67252224	29874088	33184
339	1.52639	102129664	67252224	31706384	33184
340	1.34979	102129664	67252224	33543632	33184
341	1.353521	102129664	67252224	19074416	33184
342	1.357733	102129664	67252224	20921520	33184
343	1.549976	102129664	67252224	22773472	33184
344	1.36581	102129664	67252224	24643904	33184
345	1.366906	102129664	67252224	26514072	33184
346	1.37032	102129664	67252224	28389048	33184
347	1.392718	102129664	67252224	30271720	33184
348	1.379255	102129664	67252224	32156656	33184
349	1.380124	102129664	67252224	34046504	33184
350	1.392261	102129664	67252224	19556624	33184
351	1.588664	102129664	67252224	21456336	33184
352	1.393277	102129664	67252224	23360912	33184
353	1.399713	102129664	67252224	25277376	33184
354	1.402186	102129664	67252224	27192016	33184
355	1.603147	102129664	67252224	29111640	33184
356	1.417413	102129664	67252224	31035976	33184
357	1.410234	102129664	67252224	32966336	33184
358	1.751892	102129664	67252224	18566112	33184
359	1.446584	102129664	67252224	20538336	33184
360	1.445105	102129664	67252224	22533272	33184
361	1.441522	102129664	67252224	24537496	33184
362	1.664608	102129664	67252224	26546864	33184
363	1.440816	102129664	67252224	28563656	33184
364	1.440225	102129664	67252224	30582792	33184
365	1.452485	102129664	67252224	32614624	33184
366	1.850183	102129664	67252224	18338032	33184
367	1.507284	102129664	67252224	20371968	33184
368	1.455944	102129664	67252224	22410752	33184
369	1.45828	102129664	67252224	24454536	33184
370	1.479903	102129664	67252224	26503240	33184
371	1.475761	102129664	67252224	28556800	33184
372	1.47697	102129664	67252224	30617976	33184
373	1.5439	102129664	67252224	32684992	33184
374	1.840116	102129664	67252224	18437352	33184
375	1.48742	102129664	67252224	20510872	33184
376	1.49683	102129664	67252224	22589328	33184
377	1.49161	102129664	67252224	24672584	33184
378	1.493115	102129664	67252224	26760656	33184
379	1.499219	102129664	67252224	28853648	33184
380	1.504335	102129664	67252224	30951728	33184
381	1.713908	102129664	67252224	33054800	33184
382	1.850757	102129664	67252224	18813632	33184
383	1.512417	102129664	67252224	20927304	33184
384	1.513623	102129664	67252224	23044984	33184
385	1.525985	102129664	67252224	25167568	33184
386	1.526707	102129664	67252224	27295200	33184
387	1.590866	102129664	67252224	29427728	33184
388	1.723774	102129664	67252224	31565248	33184
389	1.543613	102129664	67252224	33707624	33184
390	1.617081	102129664	67252224	19549256	33184
391	1.547068	102129664	67252224	21701536	33184
392	1.54624	102129664	67252224	23858776	33184
393	1.592509	102129664	67252224	26020928	33184
394	1.607145	102129664	67252224	28197184	33184
395	1.62289	102129664	67252224	30369088	33184
396	1.602125	102129664	67252224	32546024	33184
397	2.002069	102129664	67252224	18451760	33184
398	1.644956	102129664	67252224	20638504	33184
399	1.57439	102129664	67252224	22830312	33184
400	1.57394	102129664	67252224	25026912	33184
401	1.579078	102129664	67252224	27234440	33184
402	1.785814	102129664	67252224	29440912	33184
403	1.598462	102129664	67252224	31652320	33184
404	1.592766	102129664	67252224	33868672	33184
405	1.830728	102129664	67252224	19767560	33184
406	1.597989	102129664	67252224	21994008	33184
407	1.601999	102129664	67252224	24225216	33184
408	1.604377	102129664	67252224	26461312	33184
409	1.608427	102129664	67252224	28706824	33184
410	1.694308	102129664	67252224	30952872	33184
411	1.687141	102129664	67252224	33203720	33184
412	2.15623	102129664	67252224	19075088	33184
413	1.635925	102129664	67252224	21335792	33184
414	1.638151	102129664	67252224	23608760	33184
415	1.634258	102129664	67252224	25879344	33184
416	1.63476	102129664	67252224	28155000	33184
417	1.640489	102129664	67252224	30440328	33184
418	1.645286	102129664	67252224	32725752	33184
419	2.029985	102129664	67252224	18704616	33184
420	1.720291	102129664	67252224	21002840	33184
421	1.888111	102129664	67252224	23303808	33184
422	1.85034	102129664	67252224	25608920	33184
423	1.673548	102129664	67252224	27924104	33184
424	1.67296	102129664	67252224	30238984	33184
425	1.951493	102129664	67252224	32567496	33184
426	2.056163	102129664	67252224	18627432	33184
427	1.69177	102129664	67252224	20957224	33184
428	1.681081	102129664	67252224	23291904	33184
429	1.686915	102129664	67252224	25631584	33184
430	1.686483	102129664	67252224	27981256	33184
431	1.691122	102129664	67252224	30330832	33184
432	1.700535	102129664	67252224	32685752	33184
433	2.058859	102129664	67252224	18736952	33184
434	1.713599	102129664	67252224	21101136	33184
435	1.740222	102129664	67252224	23470320	33184
436	1.707903	102129664	67252224	25846992	33184
437	1.801396	102129664	67252224	28226184	33184
438	1.780376	102129664	67252224	30613720	33184
439	1.77291	102129664	67252224	33008224	33184
440	2.108036	102129664	67252224	19066080	33184
441	2.068624	102129664	67252224	21465024	33184
442	1.743894	102129664	67252224	23872784	33184
443	2.022201	102129664	67252224	26281392	33184
444	2.018451	102129664	67252224	28698392	33184
445	1.759233	102129664	67252224	31123000	33184
446	1.938486	102129664	67252224	33546464	33184
447	2.112077	102129664	67252224	19721768	33184
448	1.768209	102129664	67252224	22155048	33184
449	1.772352	102129664	67252224	24601136	33184
450	1.957798	102129664	67252224	27046688	33184
451	1.828453	102129664	67252224	29494816	33184
452	1.78509	102129664	67252224	31947856	33184
453	1.833638	102129664	67252224	34405784	33184
454	1.840683	102129664	67252224	20533920	33184
455	1.793566	102129664	67252224	23001736	33184
456	1.952967	102129664	67252224	25475160	33184
457	1.806875	102129664	67252224	27954512	33184
458	1.826033	102129664	67252224	30437080	33184
459	1.803448	102129664	67252224	32927120	33184
460	2.195138	102129664	67252224	19089088	33184
461	1.897924	102129664	67252224	21586608	33184
462	2.061832	102129664	67252224	24089064	33184
463	1.834891	102129664	67252224	26597248	33184
464	2.016202	102129664	67252224	29111064	33184
465	1.840646	102129664	67252224	31628272	33184
466	2.005417	102129664	67252224	34150336	33184
467	1.917793	102129664	67252224	20356600	33184
468	2.151788	102129664	67252224	22889168	33184
469	1.852657	102129664	67252224	25426040	33184
470	1.847142	102129664	67252224	27967840	33184
471	2.051599	102129664	67252224	30514552	33184
472	1.858265	102129664	67252224	33066800	33184
473	2.191129	102129664	67252224	19298120	33184
474	1.873577	102129664	67252224	21859704	33184
475	1.86736	102129664	67252224	24426168	33184
476	1.870002	102129664	67252224	26997600	33184
477	2.067335	102129664	67252224	29573920	33184
478	1.897377	102129664	67252224	32155336	33184
479	2.28485	102129664	67252224	18530664	33184
480	1.889039	102129664	67252224	21121744	33184
481	1.88748	102129664	67252224	23717648	33184
482	1.892845	102129664	67252224	26318704	33184
483	1.894159	102129664	67252224	28926384	33184
484	2.109554	102129664	67252224	31537544	33184
485	1.896033	102129664	67252224	34153264	33184
486	1.914718	102129664	67252224	20472496	33184
487	1.911193	102129664	67252224	23102120	33184
488	2.104253	102129664	67252224	25736528	33184
489	1.925793	102129664	67252224	28374440	33184
490	1.922881	102129664	67252224	31014840	33184
491	1.934529	102129664	67252224	33660264	33184
492	1.946639	102129664	67252224	20072464	33184
493	1.983158	102129664	67252224	22728760	33184
494	2.130229	102129664	67252224	25388856	33184
495	1.936798	102129664	67252224	28053872	33184
496	1.936764	102129664	67252224	30724200	33184
497	1.951306	102129664	67252224	33399120	33184
498	2.265469	102129664	67252224	19700592	33184
499	1.978659	102129664	67252224	22387152	33184
500	1.955177	102129664	67252224	25081856	33184
501	1.955012	102129664	67252224	27776576	33184
502	2.124513	102129664	67252224	30477280	33184
503	1.976808	102129664	67252224	33181984	33184
504	2.31938	102129664	67252224	19571496	33184
505	1.994746	102129664	67252224	22286864	33184
506	1.982273	102129664	67252224	25008280	33184
507	2.029034	102129664	67252224	27737360	33184
508	2.006893	102129664	67252224	30466720	33184
509	1.991022	102129664	67252224	33200880	33184
510	2.32909	102129664	67252224	19619704	33184
511	2.000071	102129664	67252224	22363816	33184
512	1.999067	102129664	67252224	25112792	33184
513	2.245526	102129664	67252224	27866608	33184
514	2.017252	102129664	67252224	30625520	33184
515	2.020936	102129664	67252224	33389256	33184
516	2.335145	102129664	67252224	19791176	33184
517	2.028624	102129664	67252224	22564840	33184
518	2.01846	102129664	67252224	25343360	33184
519	2.028976	102129664	67252224	28126824	33184
520	2.02986	102129664	67252224	30915456	33184
521	2.03904	102129664	67252224	33716192	33184
522	2.09751	102129664	67252224	20289344	33184
523	2.053069	102129664	67252224	23095856	33184
524	2.103452	102129664	67252224	25903968	33184
525	2.060178	102129664	67252224	28717008	33184
526	2.072992	102129664	67252224	31535008	33184
527	2.070487	102129664	67252224	34357816	33184
528	2.065851	102129664	67252224	20884616	33184
529	2.074091	102129664	67252224	23717424	33184
530	2.066318	102129664	67252224	26565352	33184
531	2.136935	102129664	67252224	29410128	33184
532	2.093673	102129664	67252224	32259288	33184
533	2.563177	102129664	67252224	18899936	33184
534	2.177973	102129664	67252224	21757392	33184
535	2.175992	102129664	67252224	24623568	33184
536	2.178002	102129664	67252224	27495096	33184
537	2.268709	102129664	67252224	30367424	33184
538	2.112809	102129664	67252224	33245720	33184
539	2.522034	102129664	67252224	19815696	33184
540	2.111885	102129664	67252224	22705944	33184
541	2.167144	102129664	67252224	25600128	33184
542	2.116697	102129664	67252224	28497064	33184
543	2.135282	102129664	67252224	31398992	33184
544	2.359456	102129664	67252224	34306944	33184
545	2.441583	102129664	67252224	20947456	33184
546	2.142016	102129664	67252224	23864144	33184
547	2.131929	102129664	67252224	26785624	33184
548	2.144061	102129664	67252224	29713768	33184
549	2.153866	102129664	67252224	32645064	33184
550	2.737255	102129664	67252224	19367144	33184
551	2.15011	102129664	67252224	22314048	33184
552	2.161101	102129664	67252224	25276712	33184
553	2.17593	102129664	67252224	28259824	33184
554	2.167909	102129664	67252224	31232336	33184
555	2.178338	102129664	67252224	34210552	33184
556	2.173241	102129664	67252224	21002864	33184
557	2.29038	102129664	67252224	24024224	33184
558	2.179965	102129664	67252224	27050424	33184
559	2.188773	102129664	67252224	30088368	33184
560	2.385847	102129664	67252224	33124488	33184
561	2.532137	102129664	67252224	19864832	33184
562	2.318697	102129664	67252224	22922848	33184
563	2.25267	102129664	67252224	25973712	33184
564	2.285274	102129664	67252224	29030248	33184
565	2.479498	102129664	67252224	32091576	33184
566	2.686991	102129664	67252224	18986560	33184
567	2.274783	102129664	67252224	22057080	33184
568	2.223999	102129664	67252224	25132704	33184
569	2.220281	102129664	67252224	28214392	33184
570	2.229252	102129664	67252224	31299784	33184
571	2.231672	102129664	67252224	34390160	33184
572	2.432768	102129664	67252224	21230784	33184
573	2.242124	102129664	67252224	24337976	33184
574	2.242608	102129664	67252224	27443536	33184
575	2.251442	102129664	67252224	30554088	33184
576	2.253405	102129664	67252224	33669040	33184
577	2.456858	102129664	67252224	20640408	33184
578	2.25455	102129664	67252224	23766912	33184
579	2.257048	102129664	67252224	26916232	33184
580	2.271372	102129664	67252224	30053768	33184
581	2.277845	102129664	67252224	33193376	33184
582	2.6357	102129664	67252224	20036120	33184
583	2.275434	102129664	67252224	23185592	33184
584	2.466234	102129664	67252224	26339976	33184
585	2.351161	102129664	67252224	29499184	33184
586	2.286185	102129664	67252224	32671024	33184
587	2.865824	102129664	67252224	19625904	33184
588	2.494034	102129664	67252224	22802288	33184
589	2.332215	102129664	67252224	25986672	33184
590	2.295741	102129664	67252224	29170712	33184
591	2.368133	102129664	67252224	32364040	33184
592	2.727216	102129664	67252224	19361768	33184
593	2.31382	102129664	67252224	22562216	33184
594	2.319076	102129664	67252224	25770576	33184
595	2.335182	102129664	67252224	28979152	33184
596	2.518312	102129664	67252224	32195280	33184
597	2.744695	102129664	67252224	19231264	33184
598	2.396117	102129664	67252224	22457576	33184
599	2.342737	102129664	67252224	25687568	33184
600	2.336617	102129664	67252224	28926080	33184
601	2.356025	102129664	67252224	32165840	33184
602	2.767952	102129664	67252224	19235576	33184
603	2.377783	102129664	67252224	22492200	33184
604	2.356879	102129664	67252224	25747160	33184
605	2.556709	102129664	67252224	29005064	33184
606	2.378114	102129664	67252224	32268512	33184
607	2.771611	102129664	67252224	19346936	33184
608	2.390376	102129664	67252224	22619728	33184
609	2.388669	102129664	67252224	25899336	33184
610	2.382202	102129664	67252224	29192440	33184
611	2.389947	102129664	67252224	32482104	33184
612	2.995414	102129664	67252224	19586952	33184
613	2.39495	102129664	67252224	22884512	33184
614	2.585238	102129664	67252224	26200576	33184
615	2.406655	102129664	67252224	29507864	33184
616	2.408463	102129664	67252224	32820160	33184
617	2.797147	102129664	67252224	19895088	33184
618	2.415389	102129664	67252224	23219840	33184
619	2.411568	102129664	67252224	26546856	33184
620	2.420283	102129664	67252224	29879536	33184
621	2.62636	102129664	67252224	33219968	33184
622	2.763534	102129664	67252224	20269736	33184
623	2.672326	102129664	67252224	23623616	33184
624	2.442777	102129664	67252224	26975248	33184
625	2.438161	102129664	67252224	30335520	33184
626	2.452186	102129664	67252224	33696952	33184
627	2.466123	102129664	67252224	20719312	33184
628	2.451043	102129664	67252224	24094504	33184
629	2.456434	102129664	67252224	27470872	33184
630	2.653433	102129664	67252224	30852296	33184
631	2.458815	102129664	67252224	34238384	33184
632	2.588574	102129664	67252224	21447776	33184
633	2.475035	102129664	67252224	24850112	33184
634	2.474064	102129664	67252224	28256608	33184
635	2.480388	102129664	67252224	31662624	33184
636	2.478675	102129664	67252224	35080240	33184
637	2.494582	102129664	67252224	22210624	33184
638	2.494965	102129664	67252224	25634264	33184
639	2.524749	102129664	67252224	29060056	33184
640	2.5056	102129664	67252224	32491320	33184
641	3.123396	102129664	67252224	19760448	33184
642	2.512212	102129664	67252224	23200904	33184
643	2.706473	102129664	67252224	26646376	33184
644	2.50708	102129664	67252224	30099080	33184
645	2.577934	102129664	67252224	33557072	33184
646	2.855131	102129664	67252224	20704976	33184
647	2.530223	102129664	67252224	24170016	33184
648	2.532875	102129664	67252224	27639952	33184
649	2.539878	102129664	67252224	31125216	33184
650	2.539501	102129664	67252224	34605120	33184
651	2.637851	102129664	67252224	21862976	33184
652	2.640869	102129664	67252224	25362544	33184
653	2.600006	102129664	67252224	28857296	33184
654	2.553915	102129664	67252224	32356920	33184
655	3.018799	102129664	67252224	19691376	33184
656	2.567515	102129664	67252224	23201064	33184
657	2.566312	102129664	67252224	26715552	33184
658	2.763794	102129664	67252224	30235608	33184
659	2.624144	102129664	67252224	33766648	33184
660	2.645138	102129664	67252224	20952160	33184
661	2.783251	102129664	67252224	24495440	33184
662	2.764701	102129664	67252224	28039528	33184
663	2.587599	102129664	67252224	31583608	33184
664	2.797881	102129664	67252224	35132544	33184
665	2.698827	102129664	67252224	22404912	33184
666	2.726927	102129664	67252224	25973080	33184
667	2.611528	102129664	67252224	29538520	33184
668	2.627713	102129664	67252224	33121008	33184
669	3.012326	102129664	67252224	20418904	33184
670	2.619694	102129664	67252224	24001832	33184
671	2.628299	102129664	67252224	27586648	33184
672	2.620519	102129664	67252224	31176944	33184
673	2.635028	102129664	67252224	34782312	33184
674	2.636388	102129664	67252224	22140088	33184
675	2.679974	102129664	67252224	25744936	33184
676	2.642395	102129664	67252224	29360968	33184
677	2.647851	102129664	67252224	32977344	33184
678	3.020032	102129664	67252224	20353816	33184
679	2.658946	102129664	67252224	23976704	33184
680	2.659021	102129664	67252224	27617152	33184
681	2.657168	102129664	67252224	31263400	33184
682	2.854835	102129664	67252224	34901624	33184
683	2.676418	102129664	67252224	22287128	33184
684	2.66664	102129664	67252224	25934616	33184
685	2.668782	102129664	67252224	29598744	33184
686	2.687679	102129664	67252224	33256288	33184
687	3.044219	102129664	67252224	20643352	33184
688	2.696906	102129664	67252224	24320672	33184
689	2.687206	102129664	67252224	27994824	33184
690	2.694594	102129664	67252224	31671952	33184
691	2.722187	102129664	67252224	35355400	33184
692	2.705303	102129664	67252224	22767592	33184
693	2.89401	102129664	67252224	26460768	33184
694	2.71902	102129664	67252224	30157760	33184
695	2.879635	102129664	67252224	33859680	33184
696	2.727888	102129664	67252224	21217160	33184
697	2.741895	102129664	67252224	24929096	33184
698	2.725856	102129664	67252224	28645680	33184
699	2.780609	102129664	67252224	32367264	33184
700	3.15705	102129664	67252224	19960408	33184
701	2.92521	102129664	67252224	23716680	33184
702	2.743733	102129664	67252224	27469552	33184
703	2.928146	102129664	67252224	31227424	33184
704	2.760855	102129664	67252224	34996720	33184
705	2.757366	102129664	67252224	22508808	33184
706	2.760251	102129664	67252224	26298616	33184
707	2.779909	102129664	67252224	30076024	33184
708	2.769535	102129664	67252224	33858256	33184
709	2.792546	102129664	67252224	21326080	33184
710	2.797405	102129664	67252224	25118232	33184
711	2.77563	102129664	67252224	28926880	33184
712	2.835157	102129664	67252224	32729120	33184
713	3.249656	102129664	67252224	20379240	33184
714	2.792058	102129664	67252224	24227120	33184
715	2.799652	102129664	67252224	28109936	33184
716	2.790177	102129664	67252224	32002096	33184
717	3.254811	102129664	67252224	19788136	33184
718	2.800825	102129664	67252224	23696064	33184
719	2.810942	102129664	67252224	27598536	33184
720	2.803535	102129664	67252224	31509552	33184
721	2.816382	102129664	67252224	35421960	33184
722	2.821808	102129664	67252224	23071096	33184
723	2.821287	102129664	67252224	26996800	33184
724	2.822972	102129664	67252224	30925480	33184
725	2.833176	102129664	67252224	34857544	33184
726	3.135366	102129664	67252224	22568408	33184
727	2.848761	102129664	67252224	26512216	33184
728	3.049	102129664	67252224	30463600	33184
729	2.843077	102129664	67252224	34415304	33184
730	2.904611	102129664	67252224	22249320	33184
731	2.848678	102129664	67252224	26210984	33184
732	3.048884	102129664	67252224	30177416	33184
733	2.866082	102129664	67252224	34162680	33184
734	2.893197	102129664	67252224	22010784	33184
735	2.873629	102129664	67252224	26004008	33184
736	3.027676	102129664	67252224	30003264	33184
737	3.035218	102129664	67252224	33994376	33184
738	3.047624	102129664	67252224	21919640	33184
739	3.027256	102129664	67252224	25926632	33184
740	2.932578	102129664	67252224	29932704	33184
741	2.943363	102129664	67252224	33943528	33184
742	2.943636	102129664	67252224	21736416	33184
743	3.118497	102129664	67252224	25757224	33184
744	2.897843	102129664	67252224	29782952	33184
745	3.098107	102129664	67252224	33819704	33184
746	3.225543	102129664	67252224	21526312	33184
747	2.934489	102129664	67252224	25571776	33184
748	2.925669	102129664	67252224	29628928	33184
749	2.910635	102129664	67252224	33679224	33184
750	3.273429	102129664	67252224	21449752	33184
751	2.939083	102129664	67252224	25524376	33184
752	2.929325	102129664	67252224	29599208	33184
753	2.940238	102129664	67252224	33669416	33184
754	3.301658	102129664	67252224	21470744	33184
755	2.955564	102129664	67252224	25564872	33184
756	3.145238	102129664	67252224	29676208	33184
757	2.971779	102129664	67252224	33773736	33184
758	3.488454	102129664	67252224	21538920	33184
759	2.970788	102129664	67252224	25656576	33184
760	3.012251	102129664	67252224	29763920	33184
761	2.971532	102129664	67252224	33880952	33184
762	2.984979	102129664	67252224	21694600	33184
763	2.987674	102129664	67252224	25814168	33184
764	2.987695	102129664	67252224	29938632	33184
765	2.980213	102129664	67252224	34067976	33184
766	3.005335	102129664	67252224	22128464	33184
767	3.051228	102129664	67252224	26271256	33184
768	2.996728	102129664	67252224	30415472	33184
769	3.194278	102129664	67252224	34564648	33184
770	3.007621	102129664	67252224	22605104	33184
771	3.028385	102129664	67252224	26769088	33184
772	3.015906	102129664	67252224	30939232	33184
773	3.058325	102129664	67252224	35107960	33184
774	3.009625	102129664	67252224	23078520	33184
775	3.024476	102129664	67252224	27277616	33184
776	3.791897	102129664	67252224	31467408	33184
777	3.051278	102129664	67252224	35664960	33184
778	3.232845	102129664	67252224	23625864	33184
779	3.083073	102129664	67252224	27829720	33184
780	3.030209	102129664	67252224	32034880	33184
781	3.673074	102129664	67252224	20169776	33184
782	3.236929	102129664	67252224	24382936	33184
783	3.243631	102129664	67252224	28600968	33184
784	3.053215	102129664	67252224	32823872	33184
785	3.548155	102129664	67252224	20897016	33184
786	3.079485	102129664	67252224	25129928	33184
787	3.123643	102129664	67252224	29374952	33184
788	3.070511	102129664	67252224	33625456	33184
789	3.56226	102129664	67252224	21648600	33184
790	3.373199	102129664	67252224	25918480	33184
791	3.082519	102129664	67252224	30176096	33184
792	3.102638	102129664	67252224	34438576	33184
793	3.096311	102129664	67252224	22609536	33184
794	3.099907	102129664	67252224	26883704	33184
795	3.119045	102129664	67252224	31160888	33184
796	3.101966	102129664	67252224	35443128	33184
797	3.125367	102129664	67252224	23496872	33184
798	3.113903	102129664	67252224	27788960	33184
799	3.311988	102129664	67252224	32085856	33184
800	3.636286	102129664	67252224	20322888	33184
801	3.127633	102129664	67252224	24629800	33184
802	3.190805	102129664	67252224	28959896	33184
803	3.1303	102129664	67252224	33282664	33184
804	3.737963	102129664	67252224	21376016	33184
805	3.143561	102129664	67252224	25702584	33184
806	3.334687	102129664	67252224	30037784	33184
807	3.148562	102129664	67252224	34376040	33184
808	3.159979	102129664	67252224	22642304	33184
809	3.173281	102129664	67252224	26988760	33184
810	3.16623	102129664	67252224	31339896	33184
811	3.43297	102129664	67252224	35695816	33184
812	3.16428	102129664	67252224	23838448	33184
813	3.362058	102129664	67252224	28218544	33184
814	3.17284	102129664	67252224	32589536	33184
815	3.703255	102129664	67252224	20888448	33184
816	3.229301	102129664	67252224	25269056	33184
817	3.21319	102129664	67252224	29658664	33184
818	3.380398	102129664	67252224	34049280	33184
819	3.582358	102129664	67252224	22123512	33184
820	3.236096	102129664	67252224	26524992	33184
821	3.203711	102129664	67252224	30931720	33184
822	3.257173	102129664	67252224	35346216	33184
823	3.42475	102129664	67252224	23588976	33184
824	3.221932	102129664	67252224	28009088	33184
825	3.232277	102129664	67252224	32439864	33184
826	3.902448	102129664	67252224	20793208	33184
827	3.235529	102129664	67252224	25229728	33184
828	3.422999	102129664	67252224	29677112	33184
829	3.27953	102129664	67252224	34122144	33184
830	3.271441	102129664	67252224	22299296	33184
831	3.247246	102129664	67252224	26758152	33184
832	3.307154	102129664	67252224	31217760	33184
833	3.441583	102129664	67252224	35684816	33184
834	3.26324	102129664	67252224	23934496	33184
835	3.630088	102129664	67252224	28418536	33184
836	3.254742	102129664	67252224	32903336	33184
837	3.801714	102129664	67252224	21272168	33184
838	3.70772	102129664	67252224	25761544	33184
839	3.274983	102129664	67252224	30258112	33184
840	3.463097	102129664	67252224	34757504	33184
841	3.302242	102129664	67252224	23186328	33184
842	3.289379	102129664	67252224	27695112	33184
843	3.300373	102129664	67252224	32212560	33184
844	4.113882	102129664	67252224	20677416	33184
845	3.491813	102129664	67252224	25204728	33184
846	3.298036	102129664	67252224	29733264	33184
847	3.363968	102129664	67252224	34272752	33184
848	3.366648	102129664	67252224	22507768	33184
849	3.310342	102129664	67252224	27051768	33184
850	3.315089	102129664	67252224	31641720	33184
851	3.320107	102129664	67252224	36261096	33184
852	3.508046	102129664	67252224	24663680	33184
853	3.503739	102129664	67252224	29282136	33184
854	3.324949	102129664	67252224	33903712	33184
855	3.824298	102129664	67252224	22339696	33184
856	3.532035	102129664	67252224	26969224	33184
857	3.390401	102129664	67252224	31605448	33184
858	3.390388	102129664	67252224	36247432	33184
859	3.361615	102129664	67252224	24675304	33184
860	3.348494	102129664	67252224	29325248	33184
861	3.542808	102129664	67252224	33989144	33184
862	3.856167	102129664	67252224	22432808	33184
863	3.41406	102129664	67252224	27108696	33184
864	3.556214	102129664	67252224	31779136	33184
865	3.369506	102129664	67252224	36454168	33184
866	3.406422	102129664	67252224	24887224	33184
867	3.384257	102129664	67252224	29578336	33184
868	3.525871	102129664	67252224	34267112	33184
869	3.82109	102129664	67252224	22690520	33184
870	3.437504	102129664	67252224	27395056	33184
871	3.478655	102129664	67252224	32102496	33184
872	4.240217	102129664	67252224	20795728	33184
873	3.413645	102129664	67252224	25509160	33184
874	3.408252	102129664	67252224	30227304	33184
875	3.400421	102129664	67252224	34959280	33184
876	3.425226	102129664	67252224	23645464	33184
877	3.468845	102129664	67252224	28379520	33184
878	3.422782	102129664	67252224	33136176	33184
879	4.078199	102129664	67252224	21715696	33184
880	3.622753	102129664	67252224	26488496	33184
881	3.43285	102129664	67252224	31247448	33184
882	3.441482	102129664	67252224	36006976	33184
883	3.507266	102129664	67252224	24570536	33184
884	3.441831	102129664	67252224	29338288	33184
885	3.520752	102129664	67252224	34128464	33184
886	4.119989	102129664	67252224	22670216	33184
887	3.454215	102129664	67252224	27468504	33184
888	3.641674	102129664	67252224	32268280	33184
889	4.123827	102129664	67252224	21022720	33184
890	3.530169	102129664	67252224	25825704	33184
891	3.47845	102129664	67252224	30629064	33184
892	3.477232	102129664	67252224	35436024	33184
893	3.486632	102129664	67252224	24188560	33184
894	3.670518	102129664	67252224	29005448	33184
895	3.48953	102129664	67252224	33846840	33184
896	4.037082	102129664	67252224	22468704	33184
897	3.729749	102129664	67252224	27302120	33184
898	3.505922	102129664	67252224	32138624	33184
899	4.217545	102129664	67252224	20983376	33184
900	3.504984	102129664	67252224	25829920	33184
901	3.500715	102129664	67252224	30687600	33184
902	3.692578	102129664	67252224	35559752	33184
903	3.517118	102129664	67252224	24315440	33184
904	3.52497	102129664	67252224	29188152	33184
905	3.572922	102129664	67252224	34064928	33184
906	4.10863	102129664	67252224	22739216	33184
907	3.530862	102129664	67252224	27620064	33184
908	3.724423	102129664	67252224	32521280	33184
909	4.230341	102129664	67252224	21368248	33184
910	3.546241	102129664	67252224	26264000	33184
911	3.732746	102129664	67252224	31166272	33184
912	3.592159	102129664	67252224	36072776	33184
913	3.611238	102129664	67252224	24782352	33184
914	3.744864	102129664	67252224	29697848	33184
915	3.563107	102129664	67252224	34620456	33184
916	3.579662	102129664	67252224	23569792	33184
917	3.756279	102129664	67252224	28506624	33184
918	3.574102	102129664	67252224	33452928	33184
919	4.188149	102129664	67252224	22224976	33184
920	3.767356	102129664	67252224	27170040	33184
921	3.586132	102129664	67252224	32139032	33184
922	4.329021	102129664	67252224	21134000	33184
923	3.659682	102129664	67252224	26105648	33184
924	3.600012	102129664	67252224	31089760	33184
925	3.607313	102129664	67252224	36059536	33184
926	3.631842	102129664	67252224	24856960	33184
927	3.610454	102129664	67252224	29836688	33184
928	3.618649	102129664	67252224	34821944	33184
929	3.821328	102129664	67252224	23808480	33184
930	3.623454	102129664	67252224	28803392	33184
931	3.631094	102129664	67252224	33809720	33184
932	4.291792	102129664	67252224	22618728	33184
933	3.840519	102129664	67252224	27638072	33184
934	3.65059	102129664	67252224	32652152	33184
935	4.579206	102129664	67252224	21639456	33184
936	3.65449	102129664	67252224	26663640	33184
937	3.654209	102129664	67252224	31692632	33184
938	3.841537	102129664	67252224	36745776	33184
939	3.665202	102129664	67252224	25589104	33184
940	3.656358	102129664	67252224	30633032	33184
941	3.850219	102129664	67252224	35681712	33184
942	3.669839	102129664	67252224	24700592	33184
943	3.867388	102129664	67252224	29763024	33184
944	4.015925	102129664	67252224	34826360	33184
945	4.015251	102129664	67252224	23920208	33184
946	3.771923	102129664	67252224	28993464	33184
947	3.738395	102129664	67252224	34073272	33184
948	4.550421	102129664	67252224	22978856	33184
949	3.709871	102129664	67252224	28087688	33184
950	3.701967	102129664	67252224	33180664	33184
951	4.599261	102129664	67252224	22205040	33184
952	3.714013	102129664	67252224	27315120	33184
953	3.713272	102129664	67252224	32429904	33184
954	4.504885	102129664	67252224	21524552	33184
955	3.716537	102129664	67252224	26648008	33184
956	3.722601	102129664	67252224	31782552	33184
957	3.74924	102129664	67252224	36931488	33184
958	3.836032	102129664	67252224	25874320	33184
959	3.73355	102129664	67252224	31026600	33184
960	3.743616	102129664	67252224	36169440	33184
961	3.94171	102129664	67252224	25175008	33184
962	3.756992	102129664	67252224	30332192	33184
963	3.762544	102129664	67252224	35494024	33184
964	3.819677	102129664	67252224	24637408	33184
965	3.799888	102129664	67252224	29813456	33184
966	3.760241	102129664	67252224	34987520	33184
967	3.7826	102129664	67252224	24183736	33184
968	3.963807	102129664	67252224	29366848	33184
969	3.773281	102129664	67252224	34553640	33184
970	4.387933	102129664	67252224	23472872	33184
971	4.024707	102129664	67252224	28669376	33184
972	3.778364	102129664	67252224	33870888	33184
973	4.456616	102129664	67252224	22893912	33184
974	3.983527	102129664	67252224	28111584	33184
975	3.792767	102129664	67252224	33330616	33184
976	4.524341	102129664	67252224	22461208	33184
977	3.810893	102129664	67252224	27689632	33184
978	4.182596	102129664	67252224	32935632	33184
979	4.636268	102129664	67252224	22169184	33184
980	3.826732	102129664	67252224	27419312	33184
981	3.873092	102129664	67252224	32681240	33184
982	4.656163	102129664	67252224	21926544	33184
983	3.839315	102129664	67252224	27186944	33184
984	4.045161	102129664	67252224	32449816	33184
985	4.811467	102129664	67252224	21731944	33184
986	3.842417	102129664	67252224	27002488	33184
987	3.842765	102129664	67252224	32278064	33184
988	4.721966	102129664	67252224	21609504	33184
989	3.852561	102129664	67252224	26896376	33184
990	3.865606	102129664	67252224	32188656	33184
991	4.907813	102129664	67252224	21566368	33184
992	4.051424	102129664	67252224	26869848	33184
993	3.927327	102129664	67252224	32175616	33184
994	4.541935	102129664	67252224	21185968	33184
995	3.977107	102129664	67252224	26514600	33184
996	3.880519	102129664	67252224	31834712	33184
997	3.911261	102129664	67252224	37162688	33184
998	3.907712	102129664	67252224	26316512	33184
999	4.077716	102129664	67252224	31651152	33184
1000	3.896004	102129664	67252224	36999344	33184
