x	Duration	RSS	HeapTotal	HeapUsed	External
0	NA	98095104	66727936	15997136	33184
1	0.289666	98095104	66727936	16049360	33184
2	0.244434	98095104	66727936	16117224	33184
3	0.152611	98095104	66727936	16219184	33184
4	0.147534	98095104	66727936	16309208	33184
5	0.154784	98095104	66727936	16404144	33184
6	0.159495	98095104	66727936	16504600	33184
7	0.162994	98095104	66727936	16609952	33184
8	0.168149	98095104	66727936	16720216	33184
9	0.175398	98095104	66727936	16836056	33184
10	0.180643	98095104	66727936	16957456	33184
11	0.185988	98095104	66727936	17083768	33184
12	0.192599	98095104	66727936	17215048	33184
13	0.198987	98095104	66727936	17351264	33184
14	0.937027	98095104	66727936	17492432	33184
15	0.169118	98095104	66727936	17638480	33184
16	0.165426	98095104	66727936	17789464	33184
17	0.169773	98095104	66727936	17945384	33184
18	0.171887	98095104	66727936	18106280	33184
19	0.342788	98095104	66727936	18274576	33184
20	0.19601	98095104	66727936	18451968	33184
21	0.182014	98095104	66727936	18631960	33184
22	0.211265	98095104	66727936	18817696	33184
23	0.399603	98095104	66727936	19010760	33184
24	0.185553	98095104	66727936	19206088	33184
25	0.188522	98095104	66727936	19406336	33184
26	0.18969	98095104	66727936	19611568	33184
27	0.193559	98095104	66727936	19821648	33184
28	0.198597	98095104	66727936	20036664	33184
29	0.202886	98095104	66727936	20256704	33184
30	0.205321	98095104	66727936	20482664	33184
31	0.219272	98095104	66727936	20713640	33184
32	0.21457	98095104	66727936	20949448	33184
33	0.219166	98095104	66727936	21190464	33184
34	0.243186	98095104	66727936	21436128	33184
35	0.246206	98095104	66727936	21686760	33184
36	0.248734	98095104	66727936	21942272	33184
37	0.254989	98095104	66727936	22202800	33184
38	0.258361	98095104	66727936	22468168	33184
39	0.273026	98095104	66727936	22738496	33184
40	0.247106	98095104	66727936	23013712	33184
41	0.267127	98095104	66727936	23293896	33184
42	0.262123	98095104	66727936	23578968	33184
43	0.257826	98095104	66727936	23869040	33184
44	0.278248	98095104	66727936	24166136	33184
45	0.289237	98095104	66727936	24473120	33184
46	0.270046	98095104	66727936	24785656	33184
47	0.273512	98095104	66727936	25103056	33184
48	0.276926	98095104	66727936	25425392	33184
49	0.299553	98095104	66727936	25752680	33184
50	0.288438	98095104	66727936	26084904	33184
51	0.3206	98095104	66727936	26422064	33184
52	0.294345	98095104	66727936	26764104	33184
53	0.296506	98095104	66727936	27111088	33184
54	0.301686	98095104	66727936	27463040	33184
55	0.303944	98095104	66727936	27819856	33184
56	0.307806	98095104	66727936	28183752	33184
57	0.330398	98095104	66727936	28552576	33184
58	0.315407	98095104	66727936	28926288	33184
59	0.319636	98095104	66727936	29304984	33184
60	0.319765	98095104	66727936	29707704	33184
61	0.322965	98095104	66727936	30096216	33184
62	0.325557	98095104	66727936	30489632	33184
63	0.327289	98095104	66727936	30887968	33184
64	0.328412	98095104	66727936	31291288	33184
65	0.335025	98095104	66727936	31699576	33184
66	0.338311	98095104	66727936	32112784	33184
67	0.351484	98095104	66727936	32530824	33184
68	0.356924	98095104	66727936	16725200	33184
69	0.352955	98095104	66727936	17153104	33184
70	0.357536	98095104	66727936	17585968	33184
71	0.359532	98095104	66727936	18023792	33184
72	0.364748	98095104	66727936	18467272	33184
73	0.367849	98095104	66727936	18914936	33184
74	0.36982	98095104	66727936	19367488	33184
75	0.373173	98095104	66727936	19824936	33184
76	0.40665	98095104	66727936	20289424	33184
77	0.382011	98095104	66727936	20758888	33184
78	0.384758	98095104	66727936	21233288	33184
79	0.388857	98095104	66727936	21712616	33184
80	0.394602	98095104	66727936	22197080	33184
81	0.450105	98095104	66727936	22687312	33184
82	0.402649	98095104	66727936	23181312	33184
83	0.405525	98095104	66727936	23680488	33184
84	0.407015	98095104	66727936	24188856	33184
85	0.472961	98095104	66727936	24703288	33184
86	0.416172	98095104	66727936	25222688	33184
87	0.420052	98095104	66727936	25747000	33184
88	0.424144	98095104	66727936	26277032	33184
89	0.426343	98095104	66727936	26811176	33184
90	0.433758	98095104	66727936	27350232	33184
91	0.432377	98095104	66727936	27898512	33184
92	0.438556	98095104	66727936	28455880	33184
93	0.445651	98095104	66727936	29019120	33184
94	0.449919	98095104	66727936	29586416	33184
95	0.451208	98095104	66727936	30158616	33184
96	0.508589	98095104	66727936	30735680	33184
97	0.468381	98095104	66727936	31318448	33184
98	0.463447	98095104	66727936	31905376	33184
99	0.473024	98095104	66727936	32497280	33184
100	0.483196	98095104	66727936	16877944	33184
101	0.477265	98095104	66727936	17479744	33184
102	0.47812	98095104	66727936	18087408	33184
103	0.483251	98095104	66727936	18699080	33184
104	0.484691	98095104	66727936	19315600	33184
105	0.487817	98095104	66727936	19937056	33184
106	0.493082	98095104	66727936	20563496	33184
107	0.495524	98095104	66727936	21195592	33184
108	0.523265	98095104	66727936	21831824	33184
109	0.50658	98095104	66727936	22473072	33184
110	0.506859	98095104	66727936	23119176	33184
111	0.509995	98095104	66727936	23770256	33184
112	0.529842	98095104	66727936	24426264	33184
113	0.519029	98095104	66727936	25087160	33184
114	0.522836	98095104	66727936	25753080	33184
115	0.527944	98095104	66727936	26423896	33184
116	0.527329	98095104	66727936	27099632	33184
117	0.535905	98095104	66727936	27780296	33184
118	0.539384	98095104	66727936	28465848	33184
119	0.575546	98095104	66727936	29156344	33184
120	0.544252	98095104	66727936	29851816	33184
121	0.55262	98095104	66727936	30552168	33184
122	0.605601	98095104	66727936	31257472	33184
123	0.560473	98095104	66727936	31967784	33184
124	0.560848	98095104	66727936	32682952	33184
125	0.639496	98095104	66727936	17097736	33184
126	0.572203	98095104	66727936	17822752	33184
127	0.570377	98095104	66727936	18552696	33184
128	0.637591	98095104	66727936	19291792	33184
129	0.6016	98095104	66727936	20035784	33184
130	0.581508	98095104	66727936	20784664	33184
131	0.650101	98095104	66727936	21538528	33184
132	0.59485	98095104	66727936	22297304	33184
133	0.595478	98095104	66727936	23060976	33184
134	0.602985	98095104	66727936	23829752	33184
135	0.600668	98095104	66727936	24603344	33184
136	0.605785	98095104	66727936	25382480	33184
137	0.623082	98095104	66727936	26165912	33184
138	0.613463	98095104	66727936	26954280	33184
139	0.617718	98095104	66727936	27747768	33184
140	0.630087	98095104	66727936	28545984	33184
141	0.643147	98095104	66727936	29349424	33184
142	0.629722	98095104	66727936	30164896	33184
143	0.64476	98095104	66727936	30987056	33184
144	0.636091	98095104	66727936	31814760	33184
145	0.641034	98095104	66727936	32646904	33184
146	1.079	98095104	66727936	17118752	33184
147	0.654405	98095104	66727936	17960688	33184
148	0.652346	98095104	66727936	18810552	33184
149	0.654072	98095104	66727936	19662368	33184
150	0.6599	98095104	66727936	20519096	33184
151	0.672426	98095104	66727936	21380808	33184
152	0.666643	98095104	66727936	22248272	33184
153	0.669805	98095104	66727936	23119776	33184
154	0.905054	98095104	66727936	23996248	33184
155	0.682658	98095104	66727936	24877584	33184
156	0.685287	98095104	66727936	25764760	33184
157	0.685961	98095104	66727936	26656528	33184
158	0.688844	98095104	66727936	27552720	33184
159	0.701537	98095104	66727936	28454672	33184
160	0.701872	98095104	66727936	29360664	33184
161	0.70283	98095104	66727936	30272712	33184
162	0.959401	98095104	66727936	31188632	33184
163	0.709162	98095104	66727936	32109440	33184
164	0.721729	98095104	66727936	33037432	33184
165	0.728597	98095104	66727936	17612360	33184
166	0.721473	98095104	66727936	18552112	33184
167	0.725573	98095104	66727936	19498560	33184
168	0.728307	98095104	66727936	20448240	33184
169	0.929544	98095104	66727936	21402800	33184
170	0.736984	98095104	66727936	22365520	33184
171	0.739854	98095104	66727936	23330704	33184
172	0.744686	98095104	66727936	24300056	33184
173	0.751782	98095104	66727936	25274384	33184
174	0.811921	98095104	66727936	26253664	33184
175	0.779111	98095104	66727936	27240592	33184
176	0.759958	98095104	66727936	28229712	33184
177	0.767071	98095104	66727936	29223688	33184
178	0.763505	98095104	66727936	30222632	33184
179	0.769013	98095104	66727936	31226512	33184
180	0.776712	98095104	66727936	32243664	33184
181	1.172905	98095104	66727936	16958960	33184
182	0.78715	98095104	66727936	17994328	33184
183	1.008702	98095104	66727936	19034640	33184
184	0.83678	98095104	66727936	20079792	33184
185	0.841362	98095104	66727936	21129936	33184
186	0.839916	98095104	66727936	22185024	33184
187	0.839169	98095104	66727936	23245280	33184
188	0.843154	98095104	66727936	24314160	33184
189	0.847975	98095104	66727936	25384040	33184
190	0.856053	98095104	66727936	26458888	33184
191	0.859989	98095104	66727936	27538576	33184
192	0.864276	98095104	66727936	28623272	33184
193	0.867747	98095104	66727936	29713240	33184
194	0.893377	98095104	66727936	30808688	33184
195	0.872962	98095104	66727936	31908160	33184
196	1.030457	98095104	66727936	33012472	33184
197	0.852586	98095104	66727936	17790696	33184
198	0.89727	98095104	66727936	18904944	33184
199	0.846396	98095104	66727936	20024208	33184
200	0.899433	98095104	66727936	21148280	33184
201	0.853349	98095104	66727936	22277232	33184
202	1.059374	98095104	66727936	23411920	33184
203	0.858674	98095104	66727936	24550784	33184
204	0.868132	98095104	66727936	25694552	33184
205	1.073106	98095104	66727936	26843304	33184
206	0.880598	98095104	66727936	27997032	33184
207	0.872209	98095104	66727936	29155688	33184
208	0.880126	98095104	66727936	30323512	33184
209	0.888256	98095104	66727936	31491928	33184
210	0.88455	98095104	66727936	32665400	33184
211	1.316746	98095104	66727936	17477584	33184
212	0.90121	98095104	66727936	18660792	33184
213	0.897482	98095104	66727936	19849000	33184
214	0.919281	98095104	66727936	21042192	33184
215	0.913381	98095104	66727936	22243208	33184
216	0.919045	98095104	66727936	23446160	33184
217	0.91136	98095104	66727936	24654104	33184
218	0.922487	98095104	66727936	25866912	33184
219	0.917371	98095104	66727936	27084616	33184
220	0.940987	98095104	66727936	28307360	33184
221	0.926156	98095104	66727936	29534984	33184
222	0.94154	98095104	66727936	30770504	33184
223	0.941656	98095104	66727936	32008040	33184
224	0.948379	98095104	66727936	33250456	33184
225	1.00346	98095104	66727936	18130160	33184
226	1.174264	98095104	66727936	19382448	33184
227	0.951844	98095104	66727936	20639728	33184
228	0.95327	98095104	66727936	21901832	33184
229	0.956044	98095104	66727936	23180424	33184
230	0.963661	98095104	66727936	24469248	33184
231	0.963794	98095104	66727936	25760648	33184
232	0.97579	98095104	66727936	27057224	33184
233	0.977216	98095104	66727936	28358440	33184
234	0.979025	98095104	66727936	29664584	33184
235	0.979679	98095104	66727936	30975640	33184
236	0.982857	98095104	66727936	32292696	33184
237	1.616698	98095104	66727936	17294000	33184
238	0.996947	98095104	66727936	18619968	33184
239	0.997401	98095104	66727936	19950768	33184
240	0.998952	98095104	66727936	21286440	33184
241	1.006158	98095104	66727936	22627120	33184
242	1.010075	98095104	66727936	23972776	33184
243	1.014308	98095104	66727936	25323224	33184
244	1.021769	98095104	66727936	26679184	33184
245	1.01914	98095104	66727936	28039592	33184
246	1.030078	98095104	66727936	29404896	33184
247	1.026372	98095104	66727936	30775152	33184
248	1.066254	98095104	66727936	32150320	33184
249	1.036619	98095104	66727936	33530352	33184
250	1.043322	98095104	66727936	18538896	33184
251	1.124939	98095104	66727936	19928968	33184
252	1.04834	98095104	66727936	21323904	33184
253	1.285691	98095104	66727936	22723784	33184
254	1.058398	98095104	66727936	24130472	33184
255	1.072554	98095104	66727936	25540200	33184
256	1.065643	98095104	66727936	26954800	33184
257	1.121292	98095104	66727936	28374328	33184
258	1.28872	98095104	66727936	29798848	33184
259	1.076711	98095104	66727936	31228216	33184
260	1.080074	98095104	66727936	32662592	33184
261	1.466187	98095104	66727936	17736512	33184
262	1.151073	98095104	66727936	19180728	33184
263	1.106612	98095104	66727936	20629888	33184
264	1.092413	98095104	66727936	22084000	33184
265	1.099823	98095104	66727936	23543920	33184
266	1.118997	98095104	66727936	25007936	33184
267	1.105307	98095104	66727936	26476848	33184
268	1.323155	98095104	66727936	27950696	33184
269	1.11172	98095104	66727936	29437744	33184
270	1.116497	98095104	66727936	30929672	33184
271	1.124916	98095104	66727936	32426520	33184
272	1.490327	98095104	66727936	17614472	33184
273	1.135625	98095104	66727936	19122168	33184
274	1.14139	98095104	66727936	20633824	33184
275	1.140339	98095104	66727936	22150408	33184
276	1.141513	98095104	66727936	23675296	33184
277	1.145406	98095104	66727936	25201856	33184
278	1.151268	98095104	66727936	26733296	33184
279	1.207952	98095104	66727936	28270056	33184
280	1.30671	98095104	66727936	29813888	33184
281	1.164504	98095104	66727936	31367200	33184
282	1.401786	98095104	66727936	32918608	33184
283	1.542444	98095104	66727936	18084320	33184
284	1.176751	98095104	66727936	19646016	33184
285	1.396546	98095104	66727936	21211872	33184
286	1.179778	98095104	66727936	22782656	33184
287	1.182478	98095104	66727936	24359704	33184
288	1.191565	98095104	66727936	25940416	33184
289	1.187652	98095104	66727936	27526152	33184
290	1.195731	98095104	66727936	29116640	33184
291	1.414186	98095104	66727936	30714776	33184
292	1.201131	98095104	66727936	32315144	33184
293	1.600364	98095104	66727936	17609936	33184
294	1.295524	98095104	66727936	19220168	33184
295	1.288876	98095104	66727936	20835360	33184
296	1.243088	98095104	66727936	22455520	33184
297	1.22046	98095104	66727936	24084328	33184
298	1.237462	98095104	66727936	25714296	33184
299	1.23216	98095104	66727936	27349288	33184
300	1.278346	98095104	66727936	28994904	33184
301	1.251848	98095104	66727936	30639712	33184
302	1.23982	98095104	66727936	32289600	33184
303	1.611396	98095104	66727936	17640152	33184
304	1.473664	98095104	66727936	19300448	33184
305	1.258119	98095104	66727936	20965064	33184
306	1.257278	98095104	66727936	22634520	33184
307	1.266761	98095104	66727936	24309320	33184
308	1.282977	98095104	66727936	25988672	33184
309	1.269994	98095104	66727936	27675088	33184
310	1.287518	98095104	66727936	29364704	33184
311	1.288183	98095104	66727936	31065536	33184
312	1.280473	98095104	66727936	32764608	33184
313	1.67257	98095104	66727936	18109416	33184
314	1.363627	98095104	66727936	19818624	33184
315	1.370831	98095104	66727936	21532576	33184
316	1.368536	98095104	66727936	23251440	33184
317	1.300608	98095104	66727936	24981184	33184
318	1.493859	98095104	66727936	26710880	33184
319	1.318134	98095104	66727936	28444384	33184
320	1.320344	98095104	66727936	30183000	33184
321	1.496443	98095104	66727936	31928368	33184
322	1.327739	98095104	66727936	33676760	33184
323	1.405984	98095104	66727936	19070944	33184
324	1.392896	98095104	66727936	20836120	33184
325	1.332319	98095104	66727936	22599280	33184
326	1.343079	98095104	66727936	24367576	33184
327	1.342871	98095104	66727936	26141024	33184
328	1.344422	98095104	66727936	27918936	33184
329	1.344634	98095104	66727936	29702456	33184
330	1.356685	98095104	66727936	31490456	33184
331	1.35569	98095104	66727936	33283696	33184
332	1.369354	98095104	66727936	18781416	33184
333	1.355521	98095104	66727936	20583952	33184
334	1.370074	98095104	66727936	22391720	33184
335	1.364328	98095104	66727936	24204208	33184
336	1.370517	98095104	66727936	26021744	33184
337	1.373484	98095104	66727936	27844144	33184
338	1.38023	98095104	66727936	29671424	33184
339	1.386518	98095104	66727936	31503592	33184
340	1.385022	98095104	66727936	33343392	33184
341	1.473521	98095104	66727936	18889168	33184
342	1.466773	98095104	66727936	20736296	33184
343	1.477596	98095104	66727936	22590584	33184
344	1.494915	98095104	66727936	24455680	33184
345	1.478855	98095104	66727936	26325680	33184
346	1.479571	98095104	66727936	28200624	33184
347	1.485578	98095104	66727936	30080656	33184
348	1.669803	98095104	66727936	31965424	33184
349	1.431877	98095104	66727936	33857496	33184
350	1.491613	98095104	66727936	19398376	33184
351	1.441627	98095104	66727936	21297992	33184
352	1.43154	98095104	66727936	23202592	33184
353	1.43957	98095104	66727936	25112120	33184
354	1.452308	98095104	66727936	27026576	33184
355	1.447263	98095104	66727936	28945880	33184
356	1.448118	98095104	66727936	30873208	33184
357	1.450539	98095104	66727936	32802416	33184
358	1.845005	98095104	66727936	18402024	33184
359	1.730225	98095104	66727936	20374128	33184
360	1.476499	98095104	66727936	22369016	33184
361	1.465233	98095104	66727936	24373280	33184
362	1.514538	98095104	66727936	26384464	33184
363	1.483688	98095104	66727936	28407528	33184
364	1.486999	98095104	66727936	30436176	33184
365	1.490773	98095104	66727936	32462496	33184
366	1.92091	98095104	66727936	18211680	33184
367	1.497774	98095104	66727936	20249640	33184
368	1.495532	98095104	66727936	22294592	33184
369	1.512848	98095104	66727936	24344368	33184
370	1.736676	98095104	66727936	26398000	33184
371	1.560128	98095104	66727936	28454896	33184
372	1.506677	98095104	66727936	30520616	33184
373	1.511633	98095104	66727936	32589576	33184
374	1.885261	98095104	66727936	18339480	33184
375	1.521167	98095104	66727936	20412696	33184
376	1.589951	98095104	66727936	22490960	33184
377	1.774065	98095104	66727936	24574064	33184
378	1.539484	98095104	66727936	26662192	33184
379	1.539096	98095104	66727936	28755184	33184
380	1.542711	98095104	66727936	30852992	33184
381	1.547783	98095104	66727936	32955872	33184
382	1.951229	98095104	66727936	18715312	33184
383	1.631092	98095104	66727936	20841032	33184
384	1.621884	98095104	66727936	22958584	33184
385	1.778057	98095104	66727936	25081168	33184
386	1.573244	98095104	66727936	27208608	33184
387	1.6205	98095104	66727936	29341072	33184
388	1.802542	98095104	66727936	31478440	33184
389	1.572452	98095104	66727936	33620856	33184
390	1.661004	98095104	66727936	19488168	33184
391	1.636043	98095104	66727936	21640320	33184
392	1.59037	98095104	66727936	23797440	33184
393	1.597519	98095104	66727936	25959440	33184
394	1.655871	98095104	66727936	28128392	33184
395	1.658898	98095104	66727936	30300232	33184
396	1.59841	98095104	66727936	32477016	33184
397	2.00233	98095104	66727936	18382896	33184
398	1.622976	98095104	66727936	20569592	33184
399	1.612516	98095104	66727936	22761336	33184
400	1.618996	98095104	66727936	24957864	33184
401	1.632349	98095104	66727936	27163944	33184
402	1.633566	98095104	66727936	29370304	33184
403	1.677908	98095104	66727936	31581616	33184
404	1.683729	98095104	66727936	33798520	33184
405	1.728588	98095104	66727936	19703968	33184
406	1.729899	98095104	66727936	21930168	33184
407	1.940772	98095104	66727936	24163624	33184
408	1.657358	98095104	66727936	26399568	33184
409	1.649416	98095104	66727936	28640384	33184
410	1.653965	98095104	66727936	30887264	33184
411	1.666187	98095104	66727936	33138112	33184
412	2.050418	98095104	66727936	19018464	33184
413	1.675914	98095104	66727936	21279120	33184
414	1.671705	98095104	66727936	23550960	33184
415	1.679211	98095104	66727936	25821560	33184
416	1.692256	98095104	66727936	28096968	33184
417	1.914665	98095104	66727936	30379328	33184
418	1.699003	98095104	66727936	32664784	33184
419	2.090555	98095104	66727936	18647048	33184
420	1.962907	98095104	66727936	20942280	33184
421	1.705019	98095104	66727936	23243176	33184
422	1.929974	98095104	66727936	25548168	33184
423	1.732749	98095104	66727936	27858816	33184
424	1.711465	98095104	66727936	30173784	33184
425	1.71563	98095104	66727936	32496736	33184
426	2.120794	98095104	66727936	18556728	33184
427	1.73192	98095104	66727936	20886424	33184
428	1.723407	98095104	66727936	23221648	33184
429	1.73108	98095104	66727936	25561096	33184
430	1.733635	98095104	66727936	27907368	33184
431	1.743545	98095104	66727936	30256752	33184
432	1.739134	98095104	66727936	32611184	33184
433	2.138216	98095104	66727936	18669064	33184
434	1.832169	98095104	66727936	21033312	33184
435	1.832217	98095104	66727936	23406104	33184
436	1.763748	98095104	66727936	25780656	33184
437	1.763008	98095104	66727936	28159656	33184
438	1.767086	98095104	66727936	30543480	33184
439	1.79166	98095104	66727936	32932280	33184
440	2.162913	98095104	66727936	18990192	33184
441	1.78057	98095104	66727936	21389344	33184
442	1.810212	98095104	66727936	23793136	33184
443	2.05549	98095104	66727936	26201728	33184
444	1.855532	98095104	66727936	28623672	33184
445	1.797631	98095104	66727936	31042144	33184
446	1.794482	98095104	66727936	33465480	33184
447	1.890981	98095104	66727936	19644312	33184
448	1.810247	98095104	66727936	22077448	33184
449	1.80926	98095104	66727936	24515688	33184
450	1.805314	98095104	66727936	26958760	33184
451	1.815423	98095104	66727936	29406816	33184
452	1.817406	98095104	66727936	31859688	33184
453	1.823666	98095104	66727936	34318976	33184
454	1.828485	98095104	66727936	20446992	33184
455	1.828064	98095104	66727936	22917432	33184
456	1.834586	98095104	66727936	25390072	33184
457	1.841625	98095104	66727936	27867792	33184
458	1.837056	98095104	66727936	30350272	33184
459	1.84504	98095104	66727936	32837712	33184
460	2.227857	98095104	66727936	19002376	33184
461	1.926809	98095104	66727936	21500112	33184
462	1.944803	98095104	66727936	24003280	33184
463	1.940551	98095104	66727936	26510944	33184
464	1.946699	98095104	66727936	29023064	33184
465	2.146662	98095104	66727936	31540280	33184
466	1.881328	98095104	66727936	34064600	33184
467	1.972026	98095104	66727936	20282296	33184
468	2.114808	98095104	66727936	22814168	33184
469	1.894667	98095104	66727936	25350968	33184
470	1.893024	98095104	66727936	27892728	33184
471	1.89555	98095104	66727936	30439768	33184
472	1.892707	98095104	66727936	32991336	33184
473	2.296812	98095104	66727936	19219200	33184
474	1.925565	98095104	66727936	21780712	33184
475	1.911025	98095104	66727936	24347048	33184
476	1.905869	98095104	66727936	26918296	33184
477	1.912108	98095104	66727936	29494440	33184
478	1.912794	98095104	66727936	32075552	33184
479	2.350501	98095104	66727936	18444264	33184
480	1.952088	98095104	66727936	21036664	33184
481	1.938127	98095104	66727936	23633992	33184
482	2.173463	98095104	66727936	26234832	33184
483	2.147395	98095104	66727936	28840624	33184
484	1.953299	98095104	66727936	31451416	33184
485	2.162423	98095104	66727936	34067936	33184
486	1.965095	98095104	66727936	20397080	33184
487	1.955701	98095104	66727936	23022696	33184
488	1.954218	98095104	66727936	25654480	33184
489	1.957052	98095104	66727936	28297152	33184
490	1.962698	98095104	66727936	30937552	33184
491	1.990905	98095104	66727936	33585448	33184
492	2.004411	98095104	66727936	20005496	33184
493	2.202366	98095104	66727936	22660656	33184
494	1.984069	98095104	66727936	25320776	33184
495	1.99351	98095104	66727936	27989192	33184
496	2.006108	98095104	66727936	30660776	33184
497	1.999268	98095104	66727936	33335624	33184
498	2.391906	98095104	66727936	19644048	33184
499	2.006407	98095104	66727936	22331624	33184
500	2.015183	98095104	66727936	25031256	33184
501	2.236556	98095104	66727936	27725824	33184
502	2.080595	98095104	66727936	30429016	33184
503	2.150524	98095104	66727936	33133472	33184
504	2.737869	98095104	66727936	19522768	33184
505	2.034793	98095104	66727936	22238688	33184
506	2.075851	98095104	66727936	24962176	33184
507	2.065319	98095104	66727936	27687216	33184
508	2.087353	98095104	66727936	30416416	33184
509	2.100969	98095104	66727936	33150576	33184
510	2.492939	98095104	66727936	19569488	33184
511	2.276071	98095104	66727936	22313416	33184
512	2.053146	98095104	66727936	25062264	33184
513	2.053691	98095104	66727936	27816056	33184
514	2.305312	98095104	66727936	30574752	33184
515	2.067617	98095104	66727936	33338456	33184
516	2.456161	98095104	66727936	19745536	33184
517	2.161911	98095104	66727936	22519096	33184
518	2.159072	98095104	66727936	25297448	33184
519	2.16215	98095104	66727936	28080816	33184
520	2.094682	98095104	66727936	30869088	33184
521	2.092391	98095104	66727936	33674264	33184
522	2.32778	98095104	66727936	20247416	33184
523	2.094113	98095104	66727936	23053928	33184
524	2.091438	98095104	66727936	25861920	33184
525	2.097668	98095104	66727936	28674864	33184
526	2.104077	98095104	66727936	31492648	33184
527	2.344612	98095104	66727936	34315424	33184
528	2.211946	98095104	66727936	20842688	33184
529	2.208686	98095104	66727936	23675360	33184
530	2.125229	98095104	66727936	26523424	33184
531	2.131658	98095104	66727936	29368200	33184
532	2.23622	98095104	66727936	32217360	33184
533	2.540306	98095104	66727936	18858008	33184
534	2.22289	98095104	66727936	21715464	33184
535	2.176748	98095104	66727936	24581640	33184
536	2.143389	98095104	66727936	27453168	33184
537	2.373713	98095104	66727936	30325392	33184
538	2.159543	98095104	66727936	33203792	33184
539	2.605397	98095104	66727936	19773672	33184
540	2.163843	98095104	66727936	22664016	33184
541	2.417784	98095104	66727936	25556584	33184
542	2.461702	98095104	66727936	28454984	33184
543	2.180311	98095104	66727936	31356816	33184
544	2.17876	98095104	66727936	34265016	33184
545	2.194214	98095104	66727936	20905528	33184
546	2.203553	98095104	66727936	23821904	33184
547	2.204827	98095104	66727936	26743312	33184
548	2.208682	98095104	66727936	29669680	33184
549	2.194435	98095104	66727936	32600952	33184
550	2.669568	98095104	66727936	19322928	33184
551	2.211278	98095104	66727936	22272120	33184
552	2.433077	98095104	66727936	25234712	33184
553	2.216297	98095104	66727936	28217896	33184
554	2.207385	98095104	66727936	31190312	33184
555	2.331993	98095104	66727936	34168624	33184
556	2.310815	98095104	66727936	20960936	33184
557	2.256419	98095104	66727936	23982080	33184
558	2.227826	98095104	66727936	27008280	33184
559	2.611445	98095104	66727936	30046440	33184
560	2.243054	98095104	66727936	33082312	33184
561	2.592739	98095104	66727936	19822440	33184
562	2.241745	98095104	66727936	22880920	33184
563	2.473234	98095104	66727936	25931712	33184
564	2.506047	98095104	66727936	28988248	33184
565	2.272697	98095104	66727936	32049648	33184
566	2.708272	98095104	66727936	18944528	33184
567	2.370332	98095104	66727936	22015056	33184
568	2.371079	98095104	66727936	25090560	33184
569	2.273758	98095104	66727936	28172464	33184
570	2.286372	98095104	66727936	31257856	33184
571	2.522463	98095104	66727936	34348112	33184
572	2.378742	98095104	66727936	21188856	33184
573	2.290258	98095104	66727936	24296048	33184
574	2.300076	98095104	66727936	27401608	33184
575	2.30438	98095104	66727936	30512160	33184
576	2.304846	98095104	66727936	33627040	33184
577	2.411761	98095104	66727936	20598480	33184
578	2.581052	98095104	66727936	23724984	33184
579	2.310932	98095104	66727936	26874304	33184
580	2.313867	98095104	66727936	30011840	33184
581	2.318033	98095104	66727936	33151448	33184
582	2.746719	98095104	66727936	19993976	33184
583	2.342318	98095104	66727936	23143448	33184
584	2.345255	98095104	66727936	26297704	33184
585	2.564612	98095104	66727936	29457008	33184
586	2.336653	98095104	66727936	32629096	33184
587	2.827009	98095104	66727936	19583880	33184
588	2.378712	98095104	66727936	22760360	33184
589	2.351674	98095104	66727936	25944744	33184
590	2.354645	98095104	66727936	29128784	33184
591	2.384746	98095104	66727936	32322112	33184
592	3.009502	98095104	66727936	19319840	33184
593	2.376103	98095104	66727936	22520288	33184
594	2.424085	98095104	66727936	25728648	33184
595	2.403987	98095104	66727936	28937224	33184
596	2.378055	98095104	66727936	32153352	33184
597	2.812951	98095104	66727936	19189176	33184
598	2.491619	98095104	66727936	22415648	33184
599	2.392524	98095104	66727936	25645640	33184
600	2.394802	98095104	66727936	28884152	33184
601	2.464326	98095104	66727936	32123912	33184
602	2.819028	98095104	66727936	19193504	33184
603	2.688068	98095104	66727936	22450272	33184
604	2.540643	98095104	66727936	25705232	33184
605	2.721443	98095104	66727936	28963136	33184
606	2.55974	98095104	66727936	32226584	33184
607	2.842013	98095104	66727936	19305008	33184
608	2.449701	98095104	66727936	22577728	33184
609	2.486105	98095104	66727936	25857288	33184
610	2.489351	98095104	66727936	29150512	33184
611	2.457172	98095104	66727936	32440176	33184
612	3.2228	98095104	66727936	19544776	33184
613	2.516457	98095104	66727936	22842120	33184
614	2.766999	98095104	66727936	26146896	33184
615	2.446796	98095104	66727936	29454824	33184
616	2.458696	98095104	66727936	32768320	33184
617	2.834806	98095104	66727936	19828640	33184
618	2.471949	98095104	66727936	23150776	33184
619	2.479686	98095104	66727936	26477832	33184
620	2.46989	98095104	66727936	29822320	33184
621	2.48512	98095104	66727936	33163160	33184
622	2.892677	98095104	66727936	20215768	33184
623	2.500308	98095104	66727936	23574136	33184
624	2.499945	98095104	66727936	26925696	33184
625	2.723211	98095104	66727936	30285968	33184
626	2.496532	98095104	66727936	33647432	33184
627	2.804471	98095104	66727936	20662624	33184
628	2.508383	98095104	66727936	24044712	33184
629	2.526252	98095104	66727936	27421080	33184
630	2.529536	98095104	66727936	30802408	33184
631	2.519446	98095104	66727936	34188496	33184
632	2.663487	98095104	66727936	21397768	33184
633	2.545781	98095104	66727936	24808848	33184
634	2.592696	98095104	66727936	28215344	33184
635	2.538501	98095104	66727936	31621208	33184
636	2.538685	98095104	66727936	35038976	33184
637	2.667455	98095104	66727936	22169360	33184
638	2.551048	98095104	66727936	25592880	33184
639	2.557141	98095104	66727936	29018576	33184
640	2.77861	98095104	66727936	32450056	33184
641	3.01754	98095104	66727936	19719032	33184
642	2.808934	98095104	66727936	23159504	33184
643	2.570577	98095104	66727936	26604768	33184
644	2.809023	98095104	66727936	30057816	33184
645	2.588975	98095104	66727936	33515808	33184
646	3.207916	98095104	66727936	20663576	33184
647	2.586254	98095104	66727936	24128648	33184
648	2.808529	98095104	66727936	27598688	33184
649	2.660093	98095104	66727936	31083952	33184
650	2.610871	98095104	66727936	34563856	33184
651	2.714351	98095104	66727936	21821712	33184
652	2.717067	98095104	66727936	25321280	33184
653	2.614298	98095104	66727936	28815928	33184
654	2.607708	98095104	66727936	32315440	33184
655	3.276165	98095104	66727936	19649904	33184
656	2.730011	98095104	66727936	23159664	33184
657	2.628957	98095104	66727936	26674072	33184
658	2.624888	98095104	66727936	30194192	33184
659	2.63855	98095104	66727936	33725384	33184
660	2.753403	98095104	66727936	20910992	33184
661	2.64638	98095104	66727936	24454176	33184
662	2.669978	98095104	66727936	27998264	33184
663	2.654516	98095104	66727936	31542208	33184
664	2.650968	98095104	66727936	35091136	33184
665	2.67007	98095104	66727936	22363648	33184
666	2.729783	98095104	66727936	25931816	33184
667	2.670276	98095104	66727936	29497256	33184
668	2.896005	98095104	66727936	33079744	33184
669	3.102986	98095104	66727936	20377640	33184
670	2.680162	98095104	66727936	23960568	33184
671	2.681264	98095104	66727936	27545384	33184
672	2.696153	98095104	66727936	31135016	33184
673	2.687333	98095104	66727936	34740384	33184
674	2.812455	98095104	66727936	22097944	33184
675	2.810383	98095104	66727936	25702888	33184
676	2.997136	98095104	66727936	29319040	33184
677	2.708816	98095104	66727936	32935416	33184
678	3.160526	98095104	66727936	20311752	33184
679	2.71803	98095104	66727936	23934776	33184
680	2.731127	98095104	66727936	27575224	33184
681	2.723272	98095104	66727936	31221472	33184
682	2.727241	98095104	66727936	34859696	33184
683	2.792242	98095104	66727936	22245200	33184
684	2.752106	98095104	66727936	25892688	33184
685	2.740685	98095104	66727936	29556816	33184
686	2.749276	98095104	66727936	33214360	33184
687	3.170215	98095104	66727936	20601176	33184
688	2.846914	98095104	66727936	24278672	33184
689	2.769559	98095104	66727936	27952896	33184
690	2.776249	98095104	66727936	31630024	33184
691	2.813583	98095104	66727936	35313472	33184
692	2.81896	98095104	66727936	22725296	33184
693	2.838701	98095104	66727936	26418704	33184
694	2.975626	98095104	66727936	30115560	33184
695	3.007207	98095104	66727936	33817752	33184
696	3.078109	98095104	66727936	21175232	33184
697	2.776448	98095104	66727936	24887168	33184
698	3.013988	98095104	66727936	28603752	33184
699	2.811876	98095104	66727936	32325336	33184
700	3.452057	98095104	66727936	19918480	33184
701	3.013456	98095104	66727936	23674752	33184
702	2.80946	98095104	66727936	27427480	33184
703	2.806987	98095104	66727936	31185112	33184
704	2.863307	98095104	66727936	34954792	33184
705	2.947662	98095104	66727936	22466880	33184
706	2.946523	98095104	66727936	26256688	33184
707	2.940878	98095104	66727936	30034096	33184
708	2.83488	98095104	66727936	33816328	33184
709	2.944726	98095104	66727936	21284152	33184
710	2.839928	98095104	66727936	25076304	33184
711	2.873101	98095104	66727936	28884952	33184
712	2.857816	98095104	66727936	32687016	33184
713	3.499966	98095104	66727936	20337312	33184
714	2.84749	98095104	66727936	24185192	33184
715	3.083439	98095104	66727936	28067864	33184
716	3.10016	98095104	66727936	31960072	33184
717	3.543758	98095104	66727936	19745960	33184
718	3.000283	98095104	66727936	23654136	33184
719	2.987259	98095104	66727936	27556472	33184
720	2.999106	98095104	66727936	31467624	33184
721	2.893049	98095104	66727936	35379896	33184
722	2.999754	98095104	66727936	23028960	33184
723	2.89179	98095104	66727936	26954872	33184
724	2.920821	98095104	66727936	30883416	33184
725	2.89754	98095104	66727936	34815368	33184
726	3.184696	98095104	66727936	22526232	33184
727	2.910825	98095104	66727936	26470288	33184
728	3.125677	98095104	66727936	30421672	33184
729	2.926539	98095104	66727936	34373376	33184
730	2.994595	98095104	66727936	22207392	33184
731	2.91654	98095104	66727936	26168992	33184
732	2.928106	98095104	66727936	30135392	33184
733	2.921033	98095104	66727936	34120752	33184
734	3.061001	98095104	66727936	21968720	33184
735	3.060542	98095104	66727936	25962080	33184
736	2.93441	98095104	66727936	29961336	33184
737	3.158249	98095104	66727936	33952448	33184
738	3.076409	98095104	66727936	21877712	33184
739	3.19209	98095104	66727936	25884704	33184
740	2.97053	98095104	66727936	29890640	33184
741	2.960285	98095104	66727936	33901600	33184
742	3.097769	98095104	66727936	21694488	33184
743	2.974833	98095104	66727936	25715160	33184
744	2.963983	98095104	66727936	29740704	33184
745	3.040873	98095104	66727936	33777776	33184
746	3.418921	98095104	66727936	21484384	33184
747	3.108691	98095104	66727936	25529848	33184
748	3.211193	98095104	66727936	29587000	33184
749	3.004237	98095104	66727936	33637176	33184
750	3.475948	98095104	66727936	21407672	33184
751	3.128312	98095104	66727936	25482448	33184
752	3.022347	98095104	66727936	29557280	33184
753	2.995333	98095104	66727936	33627272	33184
754	3.61811	98095104	66727936	21428816	33184
755	3.222692	98095104	66727936	25522944	33184
756	3.022935	98095104	66727936	29634280	33184
757	3.021739	98095104	66727936	33731808	33184
758	3.329653	98095104	66727936	21497040	33184
759	3.023567	98095104	66727936	25614648	33184
760	3.093066	98095104	66727936	29721992	33184
761	3.038128	98095104	66727936	33839024	33184
762	3.161166	98095104	66727936	21652672	33184
763	3.060782	98095104	66727936	25772104	33184
764	3.269401	98095104	66727936	29896456	33184
765	3.042911	98095104	66727936	34025736	33184
766	3.290016	98095104	66727936	22084488	33184
767	3.230323	98095104	66727936	26224896	33184
768	3.225633	98095104	66727936	30368832	33184
769	3.107227	98095104	66727936	34517832	33184
770	3.089893	98095104	66727936	22563176	33184
771	3.126057	98095104	66727936	26727160	33184
772	3.167301	98095104	66727936	30897304	33184
773	3.074191	98095104	66727936	35066032	33184
774	3.15009	98095104	66727936	23036592	33184
775	3.098689	98095104	66727936	27235688	33184
776	3.15073	98095104	66727936	31425408	33184
777	3.101639	98095104	66727936	35622824	33184
778	3.129166	98095104	66727936	23584040	33184
779	3.198421	98095104	66727936	27787896	33184
780	3.158539	98095104	66727936	31993056	33184
781	3.589079	98095104	66727936	20125872	33184
782	3.143234	98095104	66727936	24339032	33184
783	3.34542	98095104	66727936	28557064	33184
784	3.124915	98095104	66727936	32779872	33184
785	3.670595	98095104	66727936	20853248	33184
786	3.130466	98095104	66727936	25085928	33184
787	3.150673	98095104	66727936	29331048	33184
788	3.359659	98095104	66727936	33581552	33184
789	3.594855	98095104	66727936	21604696	33184
790	3.60163	98095104	66727936	25874576	33184
791	3.183831	98095104	66727936	30131984	33184
792	3.176548	98095104	66727936	34394424	33184
793	3.514532	98095104	66727936	22565048	33184
794	3.156745	98095104	66727936	26839800	33184
795	3.388396	98095104	66727936	31116984	33184
796	3.166611	98095104	66727936	35399008	33184
797	3.197572	98095104	66727936	23452696	33184
798	3.190344	98095104	66727936	27744688	33184
799	3.182315	98095104	66727936	32041432	33184
800	3.939259	98095104	66727936	20278432	33184
801	3.211694	98095104	66727936	24585168	33184
802	3.20219	98095104	66727936	28896832	33184
803	3.280293	98095104	66727936	33225728	33184
804	3.704995	98095104	66727936	21318936	33184
805	3.453229	98095104	66727936	25645296	33184
806	3.213301	98095104	66727936	29993880	33184
807	3.223976	98095104	66727936	34330336	33184
808	3.481187	98095104	66727936	22596800	33184
809	3.225784	98095104	66727936	26944584	33184
810	3.454894	98095104	66727936	31295608	33184
811	3.226913	98095104	66727936	35651544	33184
812	3.38343	98095104	66727936	23794448	33184
813	3.387615	98095104	66727936	28174640	33184
814	3.257484	98095104	66727936	32545416	33184
815	4.041021	98095104	66727936	20844544	33184
816	3.386698	98095104	66727936	25225152	33184
817	3.338514	98095104	66727936	29614760	33184
818	3.255723	98095104	66727936	34005128	33184
819	3.699883	98095104	66727936	22079296	33184
820	3.517588	98095104	66727936	26481088	33184
821	3.272473	98095104	66727936	30887608	33184
822	3.320656	98095104	66727936	35302312	33184
823	3.498666	98095104	66727936	23545072	33184
824	3.271596	98095104	66727936	27965184	33184
825	3.522632	98095104	66727936	32395960	33184
826	3.871211	98095104	66727936	20749304	33184
827	3.303822	98095104	66727936	25185824	33184
828	3.693687	98095104	66727936	29633208	33184
829	3.314697	98095104	66727936	34078144	33184
830	3.460804	98095104	66727936	22255392	33184
831	3.326472	98095104	66727936	26714248	33184
832	3.533966	98095104	66727936	31173856	33184
833	3.538956	98095104	66727936	35640776	33184
834	3.372176	98095104	66727936	23890496	33184
835	3.344831	98095104	66727936	28374632	33184
836	3.537548	98095104	66727936	32859432	33184
837	3.978359	98095104	66727936	21228128	33184
838	3.67581	98095104	66727936	25717368	33184
839	3.3397	98095104	66727936	30214040	33184
840	3.340246	98095104	66727936	34713648	33184
841	3.604707	98095104	66727936	23142472	33184
842	3.351712	98095104	66727936	27651256	33184
843	3.338792	98095104	66727936	32168704	33184
844	4.218151	98095104	66727936	20633560	33184
845	3.509219	98095104	66727936	25160872	33184
846	3.383765	98095104	66727936	29689408	33184
847	3.409893	98095104	66727936	34228896	33184
848	3.512508	98095104	66727936	22463912	33184
849	3.614974	98095104	66727936	27007912	33184
850	3.399971	98095104	66727936	31597864	33184
851	3.405892	98095104	66727936	36217240	33184
852	3.409885	98095104	66727936	24619824	33184
853	3.39578	98095104	66727936	29238280	33184
854	3.414077	98095104	66727936	33859856	33184
855	4.105031	98095104	66727936	22295840	33184
856	3.421173	98095104	66727936	26925368	33184
857	3.469212	98095104	66727936	31561592	33184
858	3.426993	98095104	66727936	36203576	33184
859	3.477863	98095104	66727936	24631448	33184
860	3.637606	98095104	66727936	29281392	33184
861	3.453845	98095104	66727936	33945288	33184
862	4.055018	98095104	66727936	22388952	33184
863	3.748709	98095104	66727936	27064840	33184
864	3.444609	98095104	66727936	31735280	33184
865	3.439576	98095104	66727936	36410312	33184
866	3.626343	98095104	66727936	24843368	33184
867	3.610528	98095104	66727936	29534480	33184
868	3.463989	98095104	66727936	34223256	33184
869	3.821606	98095104	66727936	22646664	33184
870	3.559104	98095104	66727936	27351200	33184
871	3.506038	98095104	66727936	32058640	33184
872	4.342999	98095104	66727936	20751872	33184
873	3.481366	98095104	66727936	25465304	33184
874	3.533174	98095104	66727936	30183448	33184
875	3.486099	98095104	66727936	34915424	33184
876	3.494889	98095104	66727936	23601608	33184
877	3.70641	98095104	66727936	28335664	33184
878	3.50732	98095104	66727936	33092320	33184
879	4.180716	98095104	66727936	21671840	33184
880	3.730798	98095104	66727936	26444640	33184
881	3.510838	98095104	66727936	31203592	33184
882	3.512478	98095104	66727936	35963120	33184
883	3.592797	98095104	66727936	24526680	33184
884	3.545458	98095104	66727936	29294432	33184
885	3.512164	98095104	66727936	34084608	33184
886	4.342996	98095104	66727936	22626360	33184
887	3.531779	98095104	66727936	27424648	33184
888	3.535131	98095104	66727936	32224424	33184
889	4.438189	98095104	66727936	20978864	33184
890	3.908038	98095104	66727936	25781848	33184
891	3.558507	98095104	66727936	30585208	33184
892	3.557056	98095104	66727936	35392168	33184
893	3.668901	98095104	66727936	24144704	33184
894	3.566598	98095104	66727936	28961592	33184
895	3.816225	98095104	66727936	33802984	33184
896	4.237877	98095104	66727936	22424848	33184
897	4.085416	98095104	66727936	27262568	33184
898	3.802962	98095104	66727936	32099072	33184
899	4.299424	98095104	66727936	20980248	33184
900	3.581841	98095104	66727936	25829472	33184
901	3.829519	98095104	66727936	30680936	33184
902	3.59555	98095104	66727936	35545160	33184
903	3.645687	98095104	67252224	24322224	33184
904	3.61746	98095104	67252224	29196528	33184
905	3.624587	98095104	67252224	34071920	33184
906	4.324361	98095104	67252224	22758856	33184
907	3.79935	98095104	67252224	27654448	33184
908	3.61236	98095104	67252224	32546304	33184
909	4.389499	98095104	67252224	21401912	33184
910	3.828493	98095104	67252224	26299704	33184
911	3.62417	98095104	67252224	31200368	33184
912	3.677935	98095104	67252224	36109856	33184
913	3.80457	98095104	67252224	24821352	33184
914	3.849468	98095104	67252224	29736832	33184
915	3.640811	98095104	67252224	34657952	33184
916	3.800721	98095104	67252224	23603480	33184
917	3.658332	98095104	67252224	28533720	33184
918	3.650337	98095104	67252224	33479440	33184
919	4.37406	98095104	67252224	22248888	33184
920	3.964045	98095104	67252224	27194184	33184
921	3.901357	98095104	67252224	32147552	33184
922	4.423938	98095104	67252224	21128336	33184
923	3.921397	98095104	67252224	26104168	33184
924	3.679026	98095104	67252224	31071064	33184
925	3.678128	98095104	67252224	36040840	33184
926	3.853932	98095104	67252224	24838264	33184
927	3.892939	98095104	67252224	29817992	33184
928	3.695755	98095104	67252224	34803248	33184
929	3.719242	98095104	67252224	23789784	33184
930	3.713688	98095104	67252224	28784696	33184
931	3.697361	98095104	67252224	33791024	33184
932	4.393193	98365440	67252224	22600032	33184
933	3.938912	98365440	67252224	27619376	33184
934	3.72885	98365440	67252224	32633456	33184
935	4.492291	98365440	67252224	21620760	33184
936	3.988552	98365440	67252224	26644944	33184
937	3.730258	98365440	67252224	31673936	33184
938	3.732558	98365440	67252224	36727080	33184
939	3.749908	98365440	67252224	25570408	33184
940	3.747018	98365440	67252224	30614336	33184
941	3.745169	98365440	67252224	35663016	33184
942	3.729833	98365440	67252224	24681896	33184
943	3.961524	98365440	67252224	29744328	33184
944	3.8199	98365440	67252224	34807664	33184
945	3.926261	98365440	67252224	23901512	33184
946	4.093621	98365440	67252224	28974768	33184
947	4.14651	98365440	67252224	34054576	33184
948	4.716282	98365440	67252224	22960160	33184
949	3.836949	98365440	67252224	28068992	33184
950	4.64635	98365440	67252224	33161968	33184
951	5.300055	98365440	67252224	22186344	33184
952	3.835086	98365440	67252224	27296424	33184
953	3.891967	98365440	67252224	32411208	33184
954	4.787558	98365440	67252224	21505856	33184
955	4.157813	98365440	67252224	26629312	33184
956	3.803612	98365440	67252224	31763856	33184
957	3.814391	98365440	67252224	36912792	33184
958	4.105485	98365440	67252224	25855624	33184
959	3.834173	98365440	67252224	31007904	33184
960	3.89572	98365440	67252224	36150744	33184
961	3.876354	98365440	67252224	25156312	33184
962	4.256605	98365440	67252224	30313496	33184
963	3.88559	98365440	67252224	35475328	33184
964	4.004926	98365440	67252224	24618712	33184
965	3.857636	98365440	67252224	29794760	33184
966	3.881173	98365440	67252224	34968824	33184
967	3.845759	98365440	67252224	24165040	33184
968	3.851897	98365440	67252224	29348152	33184
969	3.856064	98365440	67252224	34534944	33184
970	4.466373	98365440	67252224	23454176	33184
971	3.881782	98365440	67252224	28650680	33184
972	3.910581	98365440	67252224	33852192	33184
973	4.78081	98365440	67252224	22891720	33184
974	3.964331	98365440	67252224	28109392	33184
975	3.897493	98365440	67252224	33328424	33184
976	4.950131	98365440	67252224	22458768	33184
977	4.231598	98365440	67252224	27687440	33184
978	4.086178	98365440	67252224	32933440	33184
979	5.092713	98365440	67252224	22166712	33184
980	4.10935	98365440	67252224	27416976	33184
981	3.891122	98365440	67252224	32678904	33184
982	4.738886	98365440	67252224	21923848	33184
983	3.940044	98365440	67252224	27184464	33184
984	3.941176	98365440	67252224	32447336	33184
985	5.066649	98635776	67252224	21730720	33184
986	3.934752	98635776	67252224	27016040	33184
987	3.952345	98635776	67252224	32291520	33184
988	4.844634	98635776	67776512	21622904	33184
989	4.124709	98635776	67776512	26909904	33184
990	3.944909	98635776	67776512	32202184	33184
991	4.833273	98635776	67776512	21579728	33184
992	3.961578	98635776	67776512	26883304	33184
993	4.171151	98635776	67776512	32189072	33184
994	4.617099	98635776	67776512	21199136	33184
995	3.965353	98635776	67776512	26527912	33184
996	3.970917	98635776	67776512	31848024	33184
997	3.96199	98635776	67776512	37176000	33184
998	4.075906	98635776	67776512	26329680	33184
999	3.971748	98635776	67776512	31664320	33184
1000	3.985747	98635776	67776512	37012512	33184
