x	Duration	RSS	HeapTotal	HeapUsed	External
0	NA	100151296	67776512	11866608	24992
1	0.266668	100151296	67776512	11915128	24992
2	0.203473	100151296	67776512	11986816	24992
3	0.229407	100151296	67776512	12083712	24992
4	0.274129	100151296	67776512	12207000	24992
5	0.328641	100151296	67776512	12358128	24992
6	0.422085	100151296	67776512	12537880	24992
7	0.451539	100151296	67776512	12747064	24992
8	0.504728	100151296	67776512	12986704	24992
9	0.863737	100151296	67776512	13258648	24992
10	0.765969	100151296	67776512	13563808	24992
11	0.707024	100151296	67776512	13901232	24992
12	0.959803	100151296	67776512	14277184	24992
13	0.833439	100151296	67776512	14685008	24992
14	1.041449	100151296	67776512	15130080	24992
15	0.976053	100151296	67776512	15611952	24992
16	1.29946	100151296	67776512	16133680	24992
17	0.964449	100151296	67776512	16695192	24992
18	1.044554	100151296	67776512	17297472	24992
19	1.329853	100151296	67776512	17941544	24992
20	1.217808	100151296	67776512	18627384	24992
21	1.301105	100151296	67776512	19357632	24992
22	1.489354	100151296	67776512	20129072	24992
23	1.375753	100151296	67776512	20945336	24992
24	1.532258	100151296	67776512	21812544	24992
25	1.844598	100151296	67776512	22723296	24992
26	1.576297	100151296	67776512	23682552	24992
27	1.810191	100151296	67776512	24690776	24992
28	1.756475	100151296	67776512	25751736	24992
29	1.817854	100151296	67776512	26861928	24992
30	1.993749	100151296	67776512	28026280	24992
31	3.104514	100151296	67776512	12977664	24992
32	2.064873	100151296	67776512	14250616	24992
33	2.197558	100151296	67776512	15583200	24992
34	2.238191	100151296	67776512	16972136	24992
35	2.320398	100151296	67776512	18418168	24992
36	2.622088	100151296	67776512	19922264	24992
37	2.494577	100151296	67776512	21485416	24992
38	2.620593	100151296	67776512	23108296	24992
39	2.701018	100151296	67776512	24792248	24992
40	3.197719	100151296	67776512	26537792	24992
41	2.905716	100151296	67776512	28348208	24992
42	4.480797	100151296	67776512	14063904	24992
43	3.124823	100151296	67776512	16000144	24992
44	3.37719	100151296	67776512	18002520	24992
45	3.292214	100151296	67776512	20072096	24992
46	3.387577	100151296	67776512	22208240	24992
47	3.815438	100151296	67776512	24412824	24992
48	4.246007	100151296	67776512	26686376	24992
49	3.869318	100151296	67776512	29039392	24992
50	5.297102	100151296	67776512	15197800	24992
51	3.995322	100151296	67776512	17688064	24992
52	0.263337	100151296	67776512	20159216	24992
53	0.39767	100151296	67776512	20386176	24992
54	0.527915	100151296	67776512	20689840	24992
55	0.632025	100151296	67776512	21072656	24992
56	0.751756	100151296	67776512	21533200	24992
57	0.873318	100151296	67776512	22073344	24992
58	0.997034	100151296	67776512	22693944	24992
59	1.142796	100151296	67776512	23396064	24992
60	1.258749	100151296	67776512	24181384	24992
61	1.392177	100151296	67776512	25049992	24992
62	1.528257	100151296	67776512	26002824	24992
63	1.662288	100151296	67776512	27040896	24992
64	1.991044	100151296	67776512	28164976	24992
65	1.933753	100151296	67776512	29376096	24992
66	2.91093	100151296	67776512	14395616	24992
67	2.210531	100151296	67776512	15783416	24992
68	2.522398	100151296	67776512	17262792	24992
69	3.087421	100151296	67776512	18833200	24992
70	2.685983	100151296	67776512	20494488	24992
71	2.820786	100151296	67776512	22248192	24992
72	2.989657	100151296	67776512	24095272	24992
73	3.431425	100151296	67776512	26036760	24992
74	3.28483	100151296	67776512	28073488	24992
75	4.199941	100151296	67776512	14079120	24992
76	3.761021	100151296	67776512	16309400	24992
77	3.702932	100151296	67776512	18639272	24992
78	3.898028	100151296	67776512	21066472	24992
79	4.016711	100151296	67776512	23593768	24992
80	4.459927	100151296	67776512	26222568	24992
81	5.36362	100151296	67776512	28955192	24992
82	5.950171	100151296	67776512	15533176	24992
83	4.917084	100151296	67776512	18475712	24992
84	5.169738	100151296	67776512	21523304	24992
85	5.860358	100151296	67776512	24683336	24992
86	5.442631	100151296	67776512	27941800	24992
87	6.371209	100151296	67776512	15333800	24992
88	5.715425	100151296	67776512	18807888	24992
89	5.859214	100151296	67776512	22391352	24992
90	6.135189	100151296	67776512	26084856	24992
91	6.061453	100151296	67776512	29889576	24992
92	7.159084	100151296	67776512	17770432	24992
93	6.397685	100151296	67776512	21799952	24992
94	6.828368	100151296	67776512	25944704	24992
95	6.957674	100151296	67776512	30204448	24992
96	7.894047	100151296	67776512	18560280	24992
97	7.193857	100151296	67776512	23054256	24992
98	7.370836	100151296	67776512	27663664	24992
99	8.861079	100151296	67776512	16718864	24992
100	9.058437	100151296	67776512	21574208	24992
101	8.317115	100151296	67776512	26541936	24992
102	1.390154	100151296	67776512	15510328	24992
103	0.630081	100151296	67776512	15876616	24992
104	1.040106	100151296	67776512	16370144	24992
105	1.011298	100151296	67776512	16991768	24992
106	1.213062	100151296	67776512	17743104	24992
107	1.422062	100151296	67776512	18624296	24992
108	1.618801	100151296	67776512	19636512	24992
109	1.86856	100151296	67776512	20780504	24992
110	2.092732	100151296	67776512	22059984	24992
111	2.434719	100151296	67776512	23473296	24992
112	2.454208	100151296	67776512	25019480	24992
113	2.678791	100151296	67776512	26701128	24992
114	2.881277	100151296	67776512	28521160	24992
115	3.10733	100151296	67776512	30478944	24992
116	4.691885	100151296	67776512	16598800	24992
117	3.784784	100151296	67776512	18831936	24992
118	4.017757	100151296	67776512	21207264	24992
119	3.995955	100151296	67776512	23723576	24992
120	4.215405	100151296	67776512	26382480	24992
121	4.685524	100151296	67776512	29186720	24992
122	5.788769	100151296	67776512	16337520	24992
123	5.407695	100151296	67776512	19428072	24992
124	5.115982	100151296	67776512	22664424	24992
125	5.333086	100151296	67776512	26047592	24992
126	5.567887	100151296	67776512	29581832	24992
127	6.895391	100151296	67776512	17394424	24992
128	6.381857	100151296	67776512	21223024	24992
129	6.560868	100151296	67776512	25202072	24992
130	6.778624	100151296	67776512	29332400	24992
131	8.300916	100151296	67776512	17819320	24992
132	7.482696	100151296	67776512	22255160	24992
133	7.599331	100151296	67776512	26850048	24992
134	7.72863	100151296	67776512	31602688	24992
135	9.374945	100151296	67776512	20413336	24992
136	8.14344	100151296	67776512	25478280	24992
137	8.709196	100151296	67776512	30704472	24992
138	9.918974	100151296	67776512	20137968	24992
139	8.804087	100151296	67776512	25679848	24992
140	9.054728	100151296	67776512	31381720	24992
141	10.311936	100151296	67776512	21210280	24992
142	9.889562	100151296	67776512	27241720	24992
143	11.720191	100151296	67776512	17989336	24992
144	11.1516	100151296	67776512	24351960	24992
145	10.52748	100151296	67776512	30878928	24992
146	11.931038	100151296	67776512	21633528	24992
147	11.157071	100151296	67776512	28487600	24992
148	12.663683	100151296	67776512	19964360	24992
149	11.457916	100151296	67776512	27160984	24992
150	14.032569	100151296	67776512	19155040	24992
151	12.162172	100151296	67776512	26693864	24992
152	1.630634	100151296	67776512	18199768	24992
153	0.865637	100151296	67776512	18718160	24992
154	1.136923	100151296	67776512	19411928	24992
155	1.398331	100151296	67776512	20278376	24992
156	1.675089	100151296	67776512	21320816	24992
157	2.175806	100151296	67776512	22539632	24992
158	2.24365	100151296	67776512	23935744	24992
159	2.537078	100151296	67776512	25510024	24992
160	2.822767	100151296	67776512	27264912	24992
161	3.472709	100151296	67776512	29199344	24992
162	3.432754	100151296	67776512	31314760	24992
163	3.66791	100151296	67776512	33612056	24992
164	5.329928	100151296	67776512	19942160	24992
165	4.562058	100151296	67776512	22606208	24992
166	4.751756	100151296	67776512	25454968	24992
167	5.103748	100151296	67776512	28489328	24992
168	5.159029	100151296	67776512	31712056	24992
169	6.943838	100151296	67776512	19251616	24992
170	5.80072	100151296	67776512	22850736	24992
171	6.823174	100151296	67776512	26648064	24992
172	6.454561	100151296	67776512	30626528	24992
173	8.234882	100151296	67776512	19097384	24992
174	7.194368	100151296	67776512	23460816	24992
175	7.492404	100151296	67776512	28015720	24992
176	7.693292	100151296	67776512	32764736	24992
177	9.379198	100151296	67776512	21712976	24992
178	8.539993	100151296	67776512	26854984	24992
179	8.556755	100151296	67776512	32191648	24992
180	10.393528	100151296	67776512	21825616	24992
181	9.462984	100151296	67776512	27558352	24992
182	9.7112	100151296	67776512	33490816	24992
183	11.129067	100151296	67776512	23554056	24992
184	10.425189	100151296	67776512	29896384	24992
185	12.196144	100151296	67776512	20901144	24992
186	10.844606	100151296	67776512	27649312	24992
187	11.220654	100151296	67776512	34600256	24992
188	12.934978	100151296	67776512	25549280	24992
189	11.9525	100151296	67776512	32917368	24992
190	13.661879	100151296	67776512	24551680	24992
191	12.964347	100151296	67776512	32329048	24992
192	14.309839	100151296	67776512	24479752	24992
193	13.424855	100151296	67776512	32679416	24992
194	15.604417	100151296	67776512	25229544	24992
195	14.526411	100151296	67776512	33853472	24992
196	15.789921	100151296	67776512	26658040	24992
197	14.619318	100151296	67776512	35702920	24992
198	16.680304	100151296	67776512	28699168	24992
199	17.721632	100151296	67776512	22940736	24992
200	15.639879	100151296	67776512	32634944	24992
201	18.290775	100151296	67776512	26754424	24992
202	1.966488	100151296	67776512	20726704	24992
203	1.092574	100151296	67776512	21384832	24992
204	1.661691	100151296	67776512	22262896	24992
205	1.788275	100151296	67776512	23361712	24992
206	2.151546	100151296	67776512	24682840	24992
207	2.506728	100151296	67776512	26226784	24992
208	2.852905	100151296	67776512	27994312	24992
209	3.24631	100151296	67776512	29994664	24992
210	3.595819	100151296	67776512	32229672	24992
211	3.959849	100151296	67776512	34701072	24992
212	6.056296	100151296	67776512	21403248	24992
213	4.968908	100151296	67776512	24345168	24992
214	5.42947	100151296	67776512	27531584	24992
215	5.49327	100151296	67776512	30955232	24992
216	6.196886	100151296	67776512	34612256	24992
217	7.662926	100151296	67776512	22553752	24992
218	6.861042	100151296	67776512	26694272	24992
219	7.679911	100151296	67776512	31077008	24992
220	7.34946	100151296	67776512	35702872	24992
221	9.179869	100151296	67776512	24464720	24992
222	8.124938	100151296	67776512	29579256	24992
223	8.488239	100151296	67776512	34942200	24992
224	10.832149	100151296	67776512	24552928	24992
225	9.485931	100151296	67776512	30407760	24992
226	9.875456	100151296	67776512	36519016	24992
227	11.701631	100151296	67776512	26671736	24992
228	10.458768	100151296	67776512	33277008	24992
229	12.789452	100151296	67776512	24394536	24992
230	11.463987	100151296	67776512	31501280	24992
231	13.602886	100151296	67776512	23384672	24992
232	12.267938	100151296	67776512	31015672	24992
233	14.547397	100151296	67776512	23512776	24992
234	13.225042	100151296	67776512	31644952	24992
235	15.649202	100151296	67776512	24578752	24992
236	13.728322	100151296	67776512	33248976	24992
237	16.061729	100151296	67776512	26490592	24992
238	14.709236	100151296	67776512	35657592	24992
239	16.716788	100151296	67776512	29093224	24992
240	17.957871	100151296	67776512	23730640	24992
241	16.331325	100151296	67776512	33683152	24992
242	18.331632	100151296	67776512	28200784	24992
243	19.023446	100151296	67776512	23781200	24992
244	17.886941	100151296	67776512	34525520	24992
245	19.190368	100151296	67776512	29766208	24992
246	20.822294	100151296	67776512	25952048	24992
247	18.585288	100151296	67776512	37506488	24992
248	20.819265	100151296	67776512	33140384	24992
249	21.845182	100151296	67776512	29683576	24992
250	23.441648	100151296	67776512	26975744	24992
251	23.209524	100151296	67776512	24960616	24992
252	0.951545	100151296	67776512	38012744	24992
253	1.393338	100151296	67776512	38835200	24992
254	3.787036	100151296	67776512	23691640	24992
255	2.20112	100151296	67776512	25066912	24992
256	2.68933	100151296	67776512	26716392	24992
257	3.055123	100151296	67776512	28643032	24992
258	3.692514	100151296	67776512	30848112	24992
259	4.63761	100151296	67776512	33348152	24992
260	4.624637	100151296	67776512	36113312	24992
261	5.173892	100151296	67776512	39159624	24992
262	7.209223	100151296	67776512	26228136	24992
263	5.734236	100151296	67776512	29839096	24992
264	6.169016	100151296	67776512	33741832	24992
265	6.668826	100151296	67776512	37932640	24992
266	9.215221	100151296	67776512	26303200	24992
267	7.766563	100151296	67776512	31057872	24992
268	8.060123	100151296	67776512	36099208	24992
269	10.401882	100151296	67776512	25596120	24992
270	9.042911	100151296	67776512	31216928	24992
271	9.57992	100151296	67776512	37126616	24992
272	12.116865	100151296	67776512	27372432	24992
273	10.616224	100151296	67776512	33865656	24992
274	13.026743	100151296	67776512	25163760	24992
275	11.696606	100151296	67776512	32245064	24992
276	11.732908	100151296	67776512	39620224	24992
277	14.000452	100151296	67776512	31000032	24992
278	13.120715	100151296	67776512	38968528	24992
279	14.963032	100151296	67776512	31040592	24992
280	13.719672	100151296	67776512	39605136	24992
281	16.054649	100151296	67776512	32171352	24992
282	17.182729	100151296	67776512	26139984	24992
283	15.874454	100151296	67776512	35608464	24992
284	18.46178	100151296	67776512	29686448	24992
285	16.363374	100151296	67776512	39770688	24992
286	18.341002	100151296	67776512	33898288	24992
287	19.662882	100151296	67776512	29177448	24992
288	17.582673	100151296	67776512	40178456	24992
289	20.480681	100151296	67776512	35180112	24992
290	20.607644	100151296	67776512	31230464	24992
291	21.78119	100151296	67776512	28128280	24992
292	20.50455	100151296	67776512	40360960	24992
293	22.378465	100151296	67776512	36615144	24992
294	22.945315	100151296	67776512	33724696	24992
295	23.861963	100151296	67776512	31560216	24992
296	24.570562	100151296	67776512	30026384	24992
297	25.462521	100151296	67776512	29081488	24992
298	26.076759	100151296	67776512	28591144	24992
299	26.426724	100151296	67776512	28509096	24992
300	26.983197	100151296	67776512	28774432	24992
301	27.45064	100151296	67776512	29332272	24992
302	1.066522	100151296	67776512	30333808	24992
303	1.55201	100151296	67776512	31296784	24992
304	2.063452	100151296	67776512	32579784	24992
305	2.567798	100151296	67776512	34184696	24992
306	3.304605	100151296	67776512	36119864	24992
307	3.820716	100151296	67776512	38371648	24992
308	4.168956	100151296	67776512	40948824	24992
309	6.918342	100151296	67776512	27700744	24992
310	5.408061	100151296	67776512	30930136	24992
311	5.690465	100151296	67776512	34492248	24992
312	6.437495	100151296	67776512	38377440	24992
313	9.564564	100151296	67776512	26789968	24992
314	7.552575	100151296	67776512	31334624	24992
315	7.978326	100151296	67776512	36210280	24992
316	8.53006	100151296	67776512	41429080	24992
317	10.659713	100151296	67776512	30739608	24992
318	9.724331	100151296	67776512	36617064	24992
319	12.112932	100151296	67776512	27296584	24992
320	10.724429	100151296	67776512	33845168	24992
321	11.215304	100151296	67776512	40738432	24992
322	13.625457	100151296	67776512	31839080	24992
323	12.489499	100151296	67776512	39412624	24992
324	15.665948	100151296	67776512	31421704	24992
325	13.458911	100151296	67776512	39665328	24992
326	15.840213	100151296	67776512	32297128	24992
327	14.529771	100151296	67776512	41228216	24992
328	16.984041	100151296	67776512	34336072	24992
329	18.130578	100151296	67776512	28786992	24992
330	16.304913	100151296	67776512	38746032	24992
331	19.293718	100151296	67776512	33271224	24992
332	20.60656	100151296	67776512	28972416	24992
333	18.55974	100151296	67776512	39970768	24992
334	20.565043	100151296	67776512	35378336	24992
335	21.813451	100151296	67776512	31860952	24992
336	22.672496	100151296	67776512	29200184	24992
337	20.884088	100151296	67776512	41605640	24992
338	22.705407	100151296	67776512	38201400	24992
339	24.086409	100151296	67776512	35681896	24992
340	24.963966	100151296	67776512	33895136	24992
341	25.675411	100151296	67776512	32704120	24992
342	26.711601	100151296	67776512	32082904	24992
343	26.575802	100151296	67776512	31913736	24992
344	28.237668	100151296	67776512	32171408	24992
345	28.105861	100151296	67776512	32760456	24992
346	29.272489	100151296	67776512	33632520	24992
347	29.863636	100151296	67776512	34754584	24992
348	29.841041	100151296	67776512	36050664	24992
349	30.151127	100151296	67776512	37544416	24992
350	30.32697	100151296	67776512	39167912	24992
351	31.018727	100151296	67776512	40938528	24992
352	1.480429	100151296	67776512	43103704	24992
353	1.806332	100151296	67776512	44205536	24992
354	4.338233	100151296	67776512	29408472	24992
355	3.191563	100151296	67776512	31245624	24992
356	3.568492	100151296	67776512	33452520	24992
357	4.154947	100151296	67776512	36029552	24992
358	4.743808	100151296	67776512	38977416	24992
359	5.398273	100151296	67776512	42304200	24992
360	8.326806	100151296	67776512	29967872	24992
361	6.696645	100151296	67776512	34035360	24992
362	7.368686	100151296	67776512	38479176	24992
363	7.784655	100151296	67776512	43301888	24992
364	11.052426	100151296	67776512	32356576	24992
365	9.237651	100151296	67776512	37929880	24992
366	9.819626	100151296	67776512	43891312	24992
367	12.314505	100151296	67776512	34026232	24992
368	11.12602	100151296	67776512	40739112	24992
369	13.966609	100151296	67776512	32095712	24992
370	12.534236	100151296	67776512	39576408	24992
371	15.696915	100151296	67776512	31852656	24992
372	13.470177	100151296	67776512	40098616	24992
373	16.579061	100151296	67776512	33094008	24992
374	14.784992	100151296	67776512	42111696	24992
375	18.004157	100151296	67776512	35582952	24992
376	16.052859	100151296	67776512	45372104	24992
377	18.770299	100151296	67776512	39162968	24992
378	19.890977	100151296	67776512	34246960	24992
379	17.951411	100151296	67776512	45208312	24992
380	20.730491	100151296	67776512	40209272	24992
381	21.858641	100151296	67776512	36331448	24992
382	23.086954	100151296	67776512	33426688	24992
383	24.143267	100151296	67776512	31375552	24992
384	21.85034	100151296	67776512	44307936	24992
385	24.321231	100151296	67776512	41442560	24992
386	25.317068	100151296	67776512	39422880	24992
387	26.700589	100151296	67776512	38050696	24992
388	27.422143	100151296	67776512	37327848	24992
389	27.633717	100151296	67776512	37110408	24992
390	28.602967	100151296	67776512	37354760	24992
391	29.437838	100151296	67776512	37978552	24992
392	29.292396	100151296	67776512	38916152	24992
393	30.117729	100151296	67776512	40145360	24992
394	30.943883	100421632	67776512	41579280	24992
395	31.557737	100421632	67776512	43255288	24992
396	31.661344	100421632	67776512	45056456	24992
397	35.727057	100421632	67776512	33244296	24992
398	36.090312	101232640	68825088	39772904	24992
399	34.322706	101232640	68825088	43748344	24992
400	34.555877	101502976	69349376	47561456	24992
401	38.822522	101773312	69873664	37485448	24992
402	1.436887	104206336	72495104	45975424	24992
403	2.037805	104206336	72495104	47222240	24992
404	2.703959	104206336	72495104	48877320	24992
405	3.530968	104206336	72495104	50946888	24992
406	6.889678	104476672	72495104	37497800	24992
407	4.981658	104476672	72495104	40399816	24992
408	5.815639	104476672	72495104	43721224	24992
409	6.046084	104476672	72495104	47466120	24992
410	6.971567	104476672	72495104	51631888	24992
411	9.848217	104476672	72495104	40014200	24992
412	8.128916	104476672	72495104	45014512	24992
413	9.015857	104476672	72495104	50440416	24992
414	12.242825	104747008	73019392	40280392	24992
415	10.263185	104747008	73019392	46547824	24992
416	13.942658	104747008	73019392	37842256	24992
417	12.038432	104747008	73019392	44966168	24992
418	12.256091	104747008	73019392	52515752	24992
419	15.563912	104747008	73019392	44217080	24992
420	14.783977	104747008	73019392	52657960	24992
421	17.475305	105017344	73019392	45239592	24992
422	18.460207	105017344	73019392	39331632	24992
423	15.815057	105017344	73019392	49107544	24992
424	19.541512	105017344	73019392	43538416	24992
425	20.519248	105017344	73019392	39257280	24992
426	18.520024	105017344	73019392	50386024	24992
427	22.054192	105287680	73019392	45997328	24992
428	23.240859	105287680	73019392	42752104	24992
429	23.314862	105287680	73019392	40431544	24992
430	21.282729	105287680	73019392	53369976	24992
431	24.796032	105287680	73019392	50369152	24992
432	26.700249	105558016	73543680	48272664	24992
433	29.115574	105558016	73543680	46998808	24992
434	34.910713	105558016	73543680	46373728	24992
435	33.967533	103161856	71970816	25765464	24992
436	25.89224	103968768	71970816	25516456	24992
437	26.391461	103968768	71970816	25774768	24992
438	26.803324	103968768	71970816	26472184	24992
439	28.638454	103968768	71970816	27563664	24992
440	28.262244	103968768	71970816	28916064	24992
441	30.604529	103968768	71970816	16588240	24992
442	31.032297	103968768	71970816	20526112	24992
443	31.351288	103968768	71970816	24345168	24992
444	31.356279	103968768	71970816	28064024	24992
445	33.950407	103968768	71970816	17855184	24992
446	35.520011	103968768	71970816	26100608	24992
447	34.663596	103968768	71970816	31598200	24992
448	35.724296	103968768	71970816	22628416	24992
449	37.86523	105050112	72495104	32364432	24992
450	38.408181	105050112	72495104	25327920	24992
451	39.665734	105050112	72495104	35918024	24992
452	1.567464	105050112	72495104	30130176	24992
453	2.32439	105050112	72495104	31561768	24992
454	3.113123	105050112	72495104	33468640	24992
455	3.858356	105050112	72495104	35852864	24992
456	4.649614	105050112	72495104	38715904	24992
457	7.486855	105050112	72495104	28545496	24992
458	6.149774	105050112	72495104	32367792	24992
459	6.605455	105050112	72495104	36673784	24992
460	7.566563	105050112	72495104	41468176	24992
461	8.92211	105050112	72495104	30883152	24992
462	8.837065	105050112	72495104	36645176	24992
463	10.500063	105050112	72495104	27239376	24992
464	10.827564	105050112	72495104	33971856	24992
465	11.893786	105050112	72495104	41204440	24992
466	12.455673	105050112	72495104	32620768	24992
467	12.840756	105050112	72495104	40815864	24992
468	14.478589	105050112	72495104	33281008	24992
469	14.355973	105050112	72495104	42461312	24992
470	15.139985	105050112	72495104	35659240	24992
471	16.847396	105050112	72495104	30346008	24992
472	16.697972	105050112	72495104	41001320	24992
473	18.111416	105050112	72495104	35907648	24992
474	19.241004	105050112	72495104	32039752	24992
475	20.339768	105050112	72495104	29253712	24992
476	19.544951	105050112	72495104	41912752	24992
477	21.182687	105050112	72495104	38679136	24992
478	22.459049	105050112	72495104	36451832	24992
479	23.543469	105050112	72495104	35020352	24992
480	24.425412	105050112	72495104	34341168	24992
481	24.919703	105050112	72495104	34203576	24992
482	25.650173	105050112	72495104	34636168	24992
483	26.724147	105050112	72495104	35502008	24992
484	27.561086	105050112	72495104	36744360	24992
485	27.754958	105050112	72495104	38281040	24992
486	29.120101	105050112	72495104	40122568	24992
487	29.461098	105050112	72495104	42225056	24992
488	31.469467	105050112	72495104	30528424	24992
489	32.417391	105050112	72495104	35113440	24992
490	33.133634	105050112	72495104	39490968	24992
491	34.707751	105050112	72495104	30130600	24992
492	35.851477	105050112	72495104	38711128	24992
493	34.806982	105050112	72495104	44559680	24992
494	36.834391	105050112	72495104	36121504	24992
495	37.422062	105050112	72495104	46228824	24992
496	38.481044	105050112	72495104	39688968	24992
497	39.169146	105050112	72495104	50872248	24992
498	40.411756	105050112	72495104	44923720	24992
499	42.503204	105861120	73543680	40808360	24992
500	44.028239	108023808	75640832	53423824	24992
501	48.680473	108564480	76165120	49237792	24992
502	1.673351	109752320	77737984	21475744	24992
503	2.452346	109752320	77737984	23046056	24992
504	3.217189	109752320	77737984	25139096	24992
505	4.074482	109752320	77737984	27755688	24992
506	5.159684	109752320	77737984	30897432	24992
507	8.078812	109752320	77737984	20991048	24992
508	6.6169	109752320	77737984	25242840	24992
509	7.554352	109752320	77737984	29964160	24992
510	8.203763	109752320	77737984	35214760	24992
511	9.703263	109752320	77737984	24774480	24992
512	9.955267	109752320	77737984	31113216	24992
513	11.430503	109752320	77737984	22176184	24992
514	11.391362	109752320	77737984	29592720	24992
515	13.418734	109752320	77737984	21937816	24992
516	13.51888	109752320	77737984	30377680	24992
517	15.147033	109752320	77737984	23725136	24992
518	15.176694	109752320	77737984	33281984	24992
519	16.046815	109752320	77737984	27258760	24992
520	17.800579	109752320	77737984	22725896	24992
521	17.855496	109752320	77737984	33871704	24992
522	18.723508	109752320	77737984	29388840	24992
523	19.982643	109752320	77737984	26093968	24992
524	21.358761	109752320	77737984	23825880	24992
525	22.765613	109752320	77737984	22425600	24992
526	24.105468	109752320	77737984	21796680	24992
527	23.807179	109752320	77737984	21813168	24992
528	25.590826	109752320	77737984	22375944	24992
529	26.636706	109752320	77737984	23385968	24992
530	27.372607	109752320	77737984	24816640	24992
531	28.235094	109752320	77737984	26598568	24992
532	28.183411	109752320	77737984	28628544	24992
533	29.371059	109752320	77737984	30914384	24992
534	29.50226	109752320	77737984	33436592	24992
535	30.28469	109752320	77737984	36141304	24992
536	32.154382	109752320	77737984	25052824	24992
537	32.880853	109752320	77737984	30098912	24992
538	33.765792	109752320	77737984	34952232	24992
539	35.299839	109752320	77737984	25803920	24992
540	36.866616	109752320	77737984	35256136	24992
541	38.245402	109752320	77737984	28251408	24992
542	38.543518	110292992	77737984	38838912	24992
543	38.867607	110292992	77737984	32740608	24992
544	40.346978	110292992	77737984	44387288	24992
545	41.449584	110292992	77737984	38994680	24992
546	41.782747	110292992	77737984	35294048	24992
547	44.080003	110292992	77737984	48580736	24992
548	43.390084	110292992	77737984	44524904	24992
549	44.69314	110292992	77737984	41954160	24992
550	48.724909	110292992	77737984	44664000	24992
551	49.948827	110833664	78786560	47714832	24992
552	1.938483	115159040	83505152	51972664	24992
553	2.879666	115159040	83505152	53682448	24992
554	3.924498	115159040	83505152	55961496	24992
555	5.004482	115159040	83505152	58814312	24992
556	6.057883	115159040	83505152	62241656	24992
557	11.359831	117321728	85602304	52222792	24992
558	8.202885	117321728	85602304	56787912	24992
559	9.333288	117321728	85602304	61926728	24992
560	15.975882	117592064	85602304	51932816	24992
561	17.22174	117592064	85602304	58225784	24992
562	14.979325	111857664	80359424	24554768	24992
563	12.030492	111857664	80359424	32008776	24992
564	13.17504	112123904	80359424	23745448	24992
565	13.602458	112123904	80359424	32368488	24992
566	15.157837	112123904	80359424	25191256	24992
567	16.339062	112123904	80359424	19682288	24992
568	16.443968	112123904	80359424	30047312	24992
569	17.782527	112123904	80359424	24942128	24992
570	18.997766	112123904	80359424	21200952	24992
571	20.663146	112123904	80359424	18638496	24992
572	20.175793	112123904	80359424	31341816	24992
573	21.479834	112123904	80359424	28434280	24992
574	22.709054	112123904	80359424	26532328	24992
575	23.799239	112123904	80359424	25495624	24992
576	25.208878	112123904	80359424	25221104	24992
577	26.617484	112123904	80359424	25579096	24992
578	26.758045	112123904	80359424	26471872	24992
579	27.747974	112123904	80359424	27852320	24992
580	28.288589	112123904	80359424	29579592	24992
581	29.177301	112123904	80359424	31649648	24992
582	32.19008	112123904	80359424	20183096	24992
583	32.962982	112123904	80359424	27368360	24992
584	32.297649	112123904	80359424	32084432	24992
585	35.326371	112123904	80359424	23090256	24992
586	37.105265	112664576	80359424	32033136	24992
587	35.606536	112664576	80359424	38345984	24992
588	37.060801	112664576	80359424	30345080	24992
589	37.497832	112664576	80359424	37988776	24992
590	39.82776	112664576	80359424	31286376	24992
591	44.148559	113475584	80883712	30996544	24992
592	42.393267	113475584	80883712	43326376	24992
593	42.27303	113475584	80883712	38979480	24992
594	46.291765	113475584	80883712	40473928	24992
595	47.419974	113475584	80883712	42371248	24992
596	46.298655	113475584	80883712	57218712	24992
597	46.360297	113745920	81408000	54629392	24992
598	47.601649	114016256	81408000	53255456	24992
599	52.534898	114556928	81932288	57704592	24992
600	75.720513	116207616	86126592	20578160	24992
601	53.590426	118636544	86126592	25678048	24992
602	2.018335	118636544	86126592	32401832	24992
603	3.011435	118636544	86126592	34251288	24992
604	4.115478	118636544	86126592	36720856	24992
605	4.85432	118636544	86126592	39812904	24992
606	7.934333	118636544	86126592	29973184	24992
607	6.96458	118636544	86126592	34290920	24992
608	7.667826	118636544	86126592	39231136	24992
609	8.687889	118636544	86126592	44802696	24992
610	10.375609	118636544	86126592	34889712	24992
611	10.911716	118636544	86126592	41690448	24992
612	12.483835	118636544	86126592	33260888	24992
613	12.816986	118636544	86126592	41308440	24992
614	14.560657	118636544	86126592	34161888	24992
615	14.796338	118636544	86126592	43463248	24992
616	16.078921	118636544	86126592	37291512	24992
617	17.987746	118636544	86126592	32654456	24992
618	17.914813	118636544	86126592	43849584	24992
619	19.004137	118636544	86126592	39492552	24992
620	20.355766	118636544	86126592	36383600	24992
621	22.434179	118636544	86126592	34390120	24992
622	23.144469	118636544	86126592	33403072	24992
623	24.12419	118636544	86126592	33160920	24992
624	25.440413	118636544	86126592	33628184	24992
625	26.752953	118636544	86126592	34672328	24992
626	27.923358	118636544	86126592	36197880	24992
627	28.861711	118636544	86126592	38109280	24992
628	29.676045	118636544	86126592	40357504	24992
629	30.040321	118636544	86126592	42894192	24992
630	30.724307	118636544	86126592	45711928	24992
631	33.983322	118636544	86126592	34797064	24992
632	32.980919	118636544	86126592	40133480	24992
633	33.714564	118636544	86126592	45225568	24992
634	36.18975	118636544	86126592	36433656	24992
635	36.076584	118636544	86126592	43537536	24992
636	38.508779	118636544	86126592	36525384	24992
637	39.99996	118636544	86126592	47788336	24992
638	40.325108	118636544	86126592	42155056	24992
639	44.107391	118636544	86126592	42492904	24992
640	43.217697	119177216	86650880	55530440	24992
641	42.974667	119177216	86650880	51492920	24992
642	45.267516	119177216	86650880	48992168	24992
643	48.722814	119177216	86650880	51833312	24992
644	49.657057	119177216	86650880	55278224	24992
645	57.047608	122150912	89796608	59303752	24992
646	70.428718	116207616	86126592	31827560	24992
647	52.363708	118095872	86126592	36132064	24992
648	56.200378	118095872	86126592	29881152	24992
649	54.142305	118636544	86126592	36463288	24992
650	55.726237	119177216	86650880	43773728	24992
651	56.385637	119177216	86650880	51743584	24992
652	5.068933	119177216	86650880	48816928	24992
653	3.196889	119177216	86650880	50806104	24992
654	4.208206	119177216	86650880	53463936	24992
655	5.255228	119177216	86650880	56793184	24992
656	6.423252	119177216	86650880	60796216	24992
657	9.641926	119177216	86650880	51189008	24992
658	8.994616	119177216	86650880	56501648	24992
659	10.104649	119177216	86650880	62476184	24992
660	12.373897	119177216	86650880	52955504	24992
661	12.690272	119177216	86650880	60287896	24992
662	20.422468	119177216	86650880	52453640	24992
663	21.99214	113532928	81408000	18675160	24992
664	14.897351	113532928	81408000	28004840	24992
665	16.554372	113799168	81408000	21740360	24992
666	17.965887	113799168	81408000	17117056	24992
667	18.20561	113799168	81408000	28466696	24992
668	19.683989	113799168	81408000	24137080	24992
669	21.003393	113799168	81408000	21189216	24992
670	22.300308	113799168	81408000	19313896	24992
671	23.611101	113799168	81408000	18439728	24992
672	24.567422	113799168	81408000	18401984	24992
673	26.036118	113799168	81408000	19078384	24992
674	26.909902	113799168	81408000	20329520	24992
675	28.012328	113799168	81408000	22063856	24992
676	28.741977	113799168	81408000	24217752	24992
677	29.621576	113799168	81408000	26746416	24992
678	31.321742	113799168	81408000	13037968	24992
679	32.57599	113799168	81408000	18648128	24992
680	34.15712	113799168	81408000	24046392	24992
681	34.054133	113799168	81408000	29304712	24992
682	37.227388	113799168	81408000	20495504	24992
683	38.634871	113799168	81408000	27718624	24992
684	39.321266	113799168	81408000	20835760	24992
685	43.268121	113799168	81408000	20278840	24992
686	41.67608	113799168	81408000	32384912	24992
687	42.217325	113799168	81408000	28244056	24992
688	46.950343	113799168	81408000	29660288	24992
689	47.592446	113799168	81408000	31659840	24992
690	47.650409	113799168	81408000	46566432	24992
691	46.253473	113799168	81408000	44321896	24992
692	48.754498	113799168	81408000	43426232	24992
693	52.032243	113799168	81408000	48342048	24992
694	54.705695	113799168	81408000	53774912	24992
695	78.392569	113053696	82980864	21162328	24992
696	58.401334	115486720	82980864	27842152	24992
697	55.713849	115486720	82980864	35397480	24992
698	58.03656	115486720	82980864	43643504	24992
699	60.736969	115486720	82980864	40373256	24992
700	59.732284	116027392	83505152	50068200	24992
701	62.067715	120082432	88223744	60406152	24992
702	2.559164	126570496	95563776	59978328	24992
703	3.808213	126570496	95563776	62107232	24992
704	5.131898	126570496	95563776	64949368	24992
705	6.783859	126570496	95563776	68495312	24992
706	15.848613	128462848	97660928	58983624	24992
707	15.874897	122654720	82456576	18640976	24992
708	9.923984	114253824	82456576	24361048	24992
709	10.265979	114253824	82456576	30755536	24992
710	11.948508	114520064	82456576	21827040	24992
711	12.343992	114520064	82456576	29648712	24992
712	14.735115	114520064	82456576	22389784	24992
713	14.767012	114520064	82456576	31664488	24992
714	16.936416	114520064	82456576	25519432	24992
715	18.190149	114520064	82456576	21046072	24992
716	18.395736	114520064	82456576	32472440	24992
717	19.777585	114520064	82456576	28369488	24992
718	21.21896	114520064	82456576	25621480	24992
719	22.967905	114520064	82456576	24027296	24992
720	24.533016	114520064	82456576	23390880	24992
721	25.509996	114520064	82456576	23584192	24992
722	26.759214	114520064	82456576	24470744	24992
723	27.234769	114520064	82456576	25902768	24992
724	28.860559	114520064	82456576	27834504	24992
725	29.651642	114520064	82456576	30203112	24992
726	32.88444	114520064	82456576	33009376	24992
727	33.53883	114520064	82456576	22190648	24992
728	33.455645	114520064	82456576	27732344	24992
729	34.55976	114520064	82456576	33121608	24992
730	37.511957	114520064	82456576	24557840	24992
731	36.484294	114520064	82456576	31951608	24992
732	39.332919	114520064	82456576	25224152	24992
733	40.737801	114520064	82456576	37004872	24992
734	41.680768	114520064	82456576	31747472	24992
735	43.289257	114520064	82456576	28220568	24992
736	46.757184	114520064	82456576	29982160	24992
737	45.66417	114520064	82456576	44531912	24992
738	47.054739	114520064	82456576	41858784	24992
739	47.887352	114520064	82456576	40561984	24992
740	52.545166	115601408	82980864	45353952	24992
741	52.872866	115601408	82980864	50629976	24992
742	53.83815	115601408	82980864	56715816	24992
743	58.163236	116953088	84553728	51216608	24992
744	71.359884	121278464	88748032	58881232	24992
745	68.675838	119070720	86650880	35961552	24992
746	61.105118	119070720	86650880	32811224	24992
747	59.812508	119070720	86650880	42540856	24992
748	64.472731	119070720	86650880	40846760	24992
749	63.121527	119070720	86650880	52051840	24992
750	65.869236	119611392	87175168	51914872	24992
751	66.455267	121774080	89272320	64641984	24992
752	2.633868	120852480	90320896	34104616	24992
753	3.57928	120852480	90320896	36373152	24992
754	6.997735	122740736	90320896	25703512	24992
755	6.204939	122740736	90320896	29488624	24992
756	7.583199	122740736	90320896	34042824	24992
757	9.987143	122740736	90320896	25080008	24992
758	9.985354	122740736	90320896	31131704	24992
759	10.940203	122740736	90320896	37960024	24992
760	12.351787	122740736	90320896	29314952	24992
761	13.31021	122740736	90320896	37677552	24992
762	15.090089	122740736	90320896	30646056	24992
763	16.748344	122740736	90320896	25425048	24992
764	17.648401	122740736	90320896	36061904	24992
765	19.871136	122740736	90320896	31611248	24992
766	20.590089	122740736	90320896	28582704	24992
767	21.894214	122740736	90320896	26778768	24992
768	23.716336	122740736	90320896	25964408	24992
769	25.06522	122740736	90320896	26061008	24992
770	26.908705	122740736	90320896	26923672	24992
771	27.461435	122740736	90320896	28430352	24992
772	28.418253	122740736	90320896	30480912	24992
773	29.820792	122740736	90320896	32987912	24992
774	32.489059	122740736	90320896	35948760	24992
775	30.939438	122740736	90320896	39222464	24992
776	34.348984	122740736	90320896	28917384	24992
777	34.230068	122740736	90320896	34837368	24992
778	37.658725	122740736	90320896	27385592	24992
779	38.320189	122740736	90320896	37591624	24992
780	40.076707	122740736	90320896	31774584	24992
781	40.831635	122740736	90320896	43581064	24992
782	42.405493	122740736	90320896	38794424	24992
783	46.416714	122740736	90320896	40053944	24992
784	49.148771	122740736	90320896	41722832	24992
785	46.918729	123281408	90845184	56411304	24992
786	46.824234	123281408	90845184	54088840	24992
787	52.066906	123281408	90845184	58453248	24992
788	53.249441	123281408	90845184	63382040	24992
789	61.179843	123281408	90845184	69118632	24992
790	72.713726	122126336	89796608	27909760	24992
791	55.882514	122126336	89796608	35409512	24992
792	59.889761	122126336	89796608	31211544	24992
793	58.89071	122126336	89796608	40007952	24992
794	59.783035	122126336	89796608	49534032	24992
795	63.326759	122667008	90320896	47814616	24992
796	62.695972	122667008	90320896	59067200	24992
797	89.68812	116064256	85602304	28585704	24992
798	67.381588	117952512	85602304	28788728	24992
799	66.294662	117952512	85602304	42332776	24992
800	70.00081	117952512	85602304	44637792	24992
801	70.680232	118222848	86126592	47551504	24992
802	5.548267	118493184	86126592	52062720	24992
803	3.989135	118493184	86126592	54470848	24992
804	5.14783	118493184	86126592	57679840	24992
805	6.334778	118493184	86126592	61695928	24992
806	9.727791	119844864	87699456	52630088	24992
807	8.914936	119844864	87699456	58247856	24992
808	10.134447	119844864	87699456	64678552	24992
809	12.270889	119844864	87699456	55957912	24992
810	13.341751	119844864	87699456	63993048	24992
811	15.172178	119844864	87699456	56958456	24992
812	15.220246	119844864	87699456	66611240	24992
813	16.900123	119844864	87699456	60750984	24992
814	18.88361	119844864	87699456	56703560	24992
815	20.808876	119844864	87699456	54045216	24992
816	20.988339	119844864	87699456	66952128	24992
817	22.819954	119844864	87699456	64347432	24992
818	24.634268	119844864	87699456	62928368	24992
819	25.634991	119844864	87699456	62550520	24992
820	26.776479	119844864	87699456	63016600	24992
821	28.030385	119844864	87699456	64285136	24992
822	29.705658	119844864	87699456	66136608	24992
823	32.173682	120115200	87699456	54797448	24992
824	35.759817	122548224	90320896	62263032	24992
825	37.621597	122548224	90320896	67445048	24992
826	47.907987	115474432	83505152	24590840	24992
827	40.176368	115740672	83505152	21366456	24992
828	39.349431	115740672	83505152	31873896	24992
829	40.880372	115740672	83505152	26207512	24992
830	44.077361	115740672	83505152	26378472	24992
831	43.325754	115740672	83505152	39468512	24992
832	43.884756	115740672	83505152	35927232	24992
833	48.07354	115740672	83505152	38627072	24992
834	49.872289	116011008	83505152	41892592	24992
835	51.450164	116551680	84029440	46057768	24992
836	63.329254	118173696	86126592	51061520	24992
837	68.245161	115417088	83505152	29693904	24992
838	54.841748	115417088	83505152	36622800	24992
839	57.185156	115417088	83505152	44061528	24992
840	60.641122	115417088	83505152	40288616	24992
841	58.774994	115417088	83505152	49505728	24992
842	60.238349	115957760	83505152	59600232	24992
843	64.864757	120283136	88223744	58288096	24992
844	67.19031	124608512	92418048	70096952	24992
845	88.550703	117882880	87699456	35565496	24992
846	67.884378	119771136	87699456	35847248	24992
847	69.657866	119771136	87699456	38010712	24992
848	71.051376	119771136	87699456	41006912	24992
849	69.65249	119771136	87699456	56996208	24992
850	74.220293	120582144	88223744	61727632	24992
851	80.612258	123015168	90845184	67312432	24992
852	2.676489	120545280	88223744	28323928	24992
853	4.009025	120545280	88223744	30923128	24992
854	5.379648	120545280	88223744	34384512	24992
855	9.017454	120545280	88223744	25202392	24992
856	8.340905	120815616	88223744	30404784	24992
857	9.621897	120815616	88223744	36464360	24992
858	12.783762	120815616	88223744	27863656	24992
859	13.286786	120815616	88223744	35670104	24992
860	15.294097	120815616	88223744	28682400	24992
861	15.461196	120815616	88223744	38256248	24992
862	17.66036	120815616	88223744	32617968	24992
863	21.020814	120815616	88223744	28777288	24992
864	19.776466	120815616	88223744	40956960	24992
865	21.292309	120815616	88223744	37632736	24992
866	22.64939	120815616	88223744	35660080	24992
867	24.174717	120815616	88223744	34842504	24992
868	25.800331	120815616	88223744	35062952	24992
869	27.249888	120815616	88223744	36111504	24992
870	28.569379	120815616	88223744	37912480	24992
871	29.922176	120815616	88223744	40327600	24992
872	32.562076	120815616	88223744	29448656	24992
873	33.099912	120815616	88223744	35037216	24992
874	33.946585	120815616	88223744	40614168	24992
875	36.42154	120815616	88223744	32542544	24992
876	36.837683	120815616	88223744	40257928	24992
877	39.598707	120815616	88223744	34029528	24992
878	44.063386	120815616	88223744	34214880	24992
879	42.892925	120815616	88223744	47401360	24992
880	44.692815	120815616	88223744	43878520	24992
881	45.273555	120815616	88223744	42111448	24992
882	50.13736	120815616	88223744	45912584	24992
883	50.956998	120815616	88223744	50405608	24992
884	52.666099	120815616	88223744	55842936	24992
885	55.613834	121356288	88748032	62051048	24992
886	81.488671	116858880	86650880	24791128	24992
887	57.213796	118747136	86650880	32187400	24992
888	57.767891	118747136	86650880	41158112	24992
889	61.798906	118747136	86650880	38730560	24992
890	60.196363	118747136	86650880	49394552	24992
891	64.790352	118747136	86650880	48839560	24992
892	63.474459	119017472	86650880	61308280	24992
893	73.317774	122531840	90320896	62521888	24992
894	84.605345	121962496	89796608	30828408	24992
895	71.071473	121962496	89796608	33945488	24992
896	71.223708	121962496	89796608	37825816	24992
897	73.313445	121962496	89796608	42530080	24992
898	74.160667	121962496	89796608	48406616	24992
899	76.219204	122773504	90320896	54919216	24992
900	104.379833	119205888	88748032	31697400	24992
901	79.846453	121094144	88748032	39512992	24992
902	2.827629	121094144	88748032	49781024	24992
903	6.645181	121094144	88748032	39972352	24992
904	5.749605	121094144	88748032	43619192	24992
905	7.103175	121094144	88748032	48180472	24992
906	10.159918	121094144	88748032	39481064	24992
907	10.150346	121094144	88748032	45875080	24992
908	11.517717	121094144	88748032	53202208	24992
909	13.350308	121094144	88748032	45176472	24992
910	14.975761	121094144	88748032	54330936	24992
911	16.878974	121094144	88748032	47955184	24992
912	18.167823	121094144	88748032	43463008	24992
913	20.35076	121094144	88748032	40529120	24992
914	20.287172	121094144	88748032	53347216	24992
915	22.384596	121094144	88748032	50755424	24992
916	23.923097	121094144	88748032	49505928	24992
917	25.898615	121094144	88748032	49473608	24992
918	26.781463	121094144	88748032	50327568	24992
919	28.956396	121094144	88748032	52000416	24992
920	29.482028	121094144	88748032	54333760	24992
921	32.794869	121094144	88748032	43240136	24992
922	33.194061	121094144	88748032	48754176	24992
923	34.502917	121094144	88748032	54316080	24992
924	37.213673	121094144	88748032	46055376	24992
925	37.548192	121094144	88748032	53887848	24992
926	40.269202	121094144	88748032	47709968	24992
927	42.46052	121094144	88748032	44218720	24992
928	44.474807	121094144	88748032	57916016	24992
929	45.124821	121094144	88748032	54519440	24992
930	46.500498	121094144	88748032	52867648	24992
931	51.392775	121094144	88748032	57224160	24992
932	52.410385	121094144	88748032	62291096	24992
933	54.833799	124067840	91893760	68329768	24992
934	65.813785	128122880	96612352	75252752	24992
935	70.194363	124076032	92418048	32740088	24992
936	60.68165	124076032	92418048	29697392	24992
937	59.406372	124346368	92418048	39427504	24992
938	63.028608	124346368	92418048	38074560	24992
939	61.890726	124346368	92418048	49704624	24992
940	65.966633	124346368	92418048	50152808	24992
941	70.299896	124887040	92942336	63641840	24992
942	86.273076	119713792	87175168	34437200	24992
943	70.890873	119713792	87175168	37864968	24992
944	72.150162	119713792	87175168	41966632	24992
945	73.598902	119713792	87175168	47143160	24992
946	75.720148	119713792	87175168	53262352	24992
947	82.664982	121065472	88748032	60289632	24992
948	96.505696	121446400	89272320	36944856	24992
949	82.356484	121446400	89272320	33782528	24992
950	80.926282	121446400	89272320	43633744	24992
951	84.645078	121446400	89272320	54466912	24992
952	3.11683	121446400	89272320	55127664	24992
953	4.645438	121446400	89272320	58004136	24992
954	6.24125	121446400	89272320	61836928	24992
955	9.490821	121716736	89272320	53085256	24992
956	10.064358	121716736	89272320	58844640	24992
957	11.509718	121716736	89272320	65563840	24992
958	14.05273	121716736	89272320	57345200	24992
959	16.237019	121716736	89272320	66037664	24992
960	28.645422	115425280	82980864	14398640	24992
961	17.444358	115425280	82980864	24968080	24992
962	19.836021	115425280	82980864	21730912	24992
963	20.764034	115425280	82980864	19087576	24992
964	23.473753	115425280	82980864	17859328	24992
965	24.504103	115425280	82980864	17741032	24992
966	26.983323	115425280	82980864	18559424	24992
967	27.996173	115425280	82980864	20270688	24992
968	29.261389	115425280	82980864	22787976	24992
969	30.209902	115425280	82980864	25837536	24992
970	31.454514	115425280	82980864	29387696	24992
971	34.171748	115425280	82980864	19547672	24992
972	34.379457	115425280	82980864	26045664	24992
973	38.35425	115425280	82980864	19124512	24992
974	40.485394	115425280	82980864	30284352	24992
975	40.697181	115425280	82980864	25210232	24992
976	45.086761	115425280	82980864	26122272	24992
977	43.857225	115425280	82980864	40064120	24992
978	45.169389	115425280	82980864	37187320	24992
979	46.66566	115425280	82980864	36022976	24992
980	51.052548	115425280	82980864	40767144	24992
981	52.645279	115425280	82980864	46346568	24992
982	55.414093	118128640	86126592	52997288	24992
983	65.403114	122454016	90845184	48231992	24992
984	70.516935	111730688	79310848	27797168	24992
985	59.724653	111730688	79310848	37410216	24992
986	62.978312	111730688	79310848	35826912	24992
987	61.929564	111730688	79310848	47263928	24992
988	68.092351	111730688	79310848	47536424	24992
989	68.540434	114163712	81932288	48931784	24992
990	89.233104	118489088	86126592	63463928	24992
991	74.71172	119009280	86650880	36516704	24992
992	72.790432	119009280	86650880	40762808	24992
993	73.764292	119009280	86650880	46041056	24992
994	75.704111	119009280	86650880	52328488	24992
995	77.87113	119009280	86650880	59664192	24992
996	82.176883	124145664	91893760	67978000	24992
997	106.94201	123539456	91369472	30262400	24992
998	81.696766	123539456	91369472	40629672	24992
999	85.870996	123539456	91369472	39644896	24992
1000	86.998513	123539456	91369472	51933536	24992
x	Duration	RSS	HeapTotal	HeapUsed	External
0	NA	125280256	95039488	21376592	24992
1	0.294803	125280256	95039488	21426056	24992
2	0.207556	125280256	95039488	21502616	24992
3	0.238111	125280256	95039488	21606208	24992
4	0.282398	125280256	95039488	21738376	24992
5	0.352735	125280256	95039488	21900640	24992
6	0.417549	125280256	95039488	22093408	24992
7	0.460542	125280256	95039488	22317720	24992
8	0.510623	125280256	95039488	22574464	24992
9	0.590695	125280256	95039488	22865640	24992
10	0.652002	125280256	95039488	23191832	24992
11	0.70327	125280256	95039488	23554024	24992
12	0.931724	125280256	95039488	23953216	24992
13	0.700249	125280256	95039488	24390312	24992
14	0.77344	125280256	95039488	24866320	24992
15	0.823422	125280256	95039488	25382248	24992
16	0.886821	125280256	95039488	25939040	24992
17	1.010839	125280256	95039488	26539688	24992
18	1.020216	125280256	95039488	27182976	24992
19	1.091525	125280256	95039488	27871128	24992
20	1.201456	125280256	95039488	28604024	24992
21	1.240367	125280256	95039488	29383304	24992
22	1.513921	125280256	95039488	30209440	24992
23	1.959309	125280256	95039488	31086072	24992
24	1.546839	125280256	95039488	32008320	24992
25	1.658346	125280256	95039488	32981528	24992
26	1.70591	125280256	95039488	34006760	24992
27	1.815386	125280256	95039488	35085040	24992
28	1.873037	125280256	95039488	36217168	24992
29	1.99834	125280256	95039488	37404464	24992
30	3.746414	126627840	95039488	22934560	24992
31	2.163556	127168512	95039488	24234344	24992
32	2.047322	127168512	95039488	25594648	24992
33	2.679523	127168512	95039488	27019024	24992
34	2.518429	127168512	95039488	28502536	24992
35	3.191858	127168512	95039488	30056168	24992
36	2.621006	127168512	95039488	31663776	24992
37	2.751629	127168512	95039488	33342848	24992
38	2.76551	127168512	95039488	35075552	24992
39	2.660064	127168512	95039488	36872952	24992
40	4.140216	127168512	95039488	22665712	24992
41	3.554233	127168512	95039488	24595568	24992
42	3.325098	127168512	95039488	26600664	24992
43	3.061463	127168512	95039488	28666744	24992
44	3.168867	127168512	95039488	30802256	24992
45	3.465455	127168512	95039488	33009616	24992
46	3.47935	127168512	95039488	35288584	24992
47	3.804012	127168512	95039488	37640632	24992
48	5.397488	127168512	95039488	23863576	24992
49	3.759964	127168512	95039488	26365112	24992
50	4.296515	127168512	95039488	28948912	24992
51	4.434313	127168512	95039488	31611696	24992
52	0.269218	127168512	95039488	34263312	24992
53	0.397138	127168512	95039488	34504952	24992
54	0.508844	127168512	95039488	34828584	24992
55	0.643216	127168512	95039488	35235264	24992
56	0.747827	127168512	95039488	35727008	24992
57	0.874328	127168512	95039488	36303216	24992
58	0.995497	127168512	95039488	36965440	24992
59	1.295016	127168512	95039488	37714576	24992
60	1.281927	127168512	95039488	38552688	24992
61	2.509076	127168512	95039488	23245904	24992
62	1.640791	127168512	95039488	24262632	24992
63	1.77617	127168512	95039488	25370280	24992
64	1.942359	127168512	95039488	26570224	24992
65	2.073699	127168512	95039488	27862504	24992
66	2.233266	127168512	95039488	29248688	24992
67	2.38934	127168512	95039488	30729384	24992
68	2.528951	127168512	95039488	32307720	24992
69	2.66418	127168512	95039488	33982736	24992
70	2.848784	127168512	95039488	35757280	24992
71	2.77914	127168512	95039488	37628928	24992
72	3.779674	127168512	95039488	23483808	24992
73	3.128135	127168512	95039488	25558096	24992
74	3.420195	127168512	95039488	27731624	24992
75	3.468015	127168512	95039488	30007632	24992
76	3.581898	127168512	95039488	32387168	24992
77	4.679026	127168512	95039488	34871432	24992
78	4.179383	127168512	95039488	37469872	24992
79	5.087718	127168512	95039488	24071368	24992
80	4.621088	127168512	95039488	26878512	24992
81	4.424272	127168512	95039488	29792384	24992
82	4.666211	127168512	95039488	32814272	24992
83	4.645205	127168512	95039488	35948424	24992
84	4.818939	127168512	95039488	39200384	24992
85	5.853214	127168512	95039488	26406096	24992
86	5.178925	127168512	95039488	29885096	24992
87	5.346137	127168512	95039488	33479608	24992
88	5.864283	127168512	95039488	37190576	24992
89	7.04048	127168512	95039488	25323840	24992
90	5.927535	127168512	95039488	29271776	24992
91	6.425403	127168512	95039488	33337712	24992
92	6.259487	127168512	95039488	37523896	24992
93	7.902397	127168512	95039488	26095456	24992
94	7.126134	127168512	95039488	30530072	24992
95	6.838097	127168512	95039488	35083136	24992
96	7.429047	127168512	95039488	39761824	24992
97	8.670173	127168512	95039488	28519144	24992
98	8.3463	127168512	95039488	33455792	24992
99	8.048762	127168512	95039488	38512640	24992
100	9.241003	127168512	95039488	27857432	24992
101	8.051851	127168512	95039488	33171912	24992
102	0.486153	127168512	95039488	38601576	24992
103	0.637234	127168512	95039488	39005184	24992
104	0.82644	127168512	95039488	39545104	24992
105	1.020812	127168512	95039488	40221976	24992
106	1.420867	127168512	95039488	41040168	24992
107	2.496259	127168512	95039488	25873608	24992
108	1.686784	127168512	95039488	26968064	24992
109	1.893143	127168512	95039488	28203560	24992
110	2.190339	127168512	95039488	29582024	24992
111	2.573627	127168512	95039488	31104696	24992
112	2.66628	127168512	95039488	32770056	24992
113	2.734499	127168512	95039488	34581928	24992
114	2.900889	127168512	95039488	36537976	24992
115	3.114369	127168512	95039488	38641288	24992
116	3.55749	127168512	95039488	40891992	24992
117	4.532148	127168512	95039488	27174736	24992
118	3.777433	127168512	95039488	29725928	24992
119	4.041878	127168512	95039488	32427936	24992
120	4.312121	127168512	95039488	35281952	24992
121	4.527615	127168512	95039488	38288592	24992
122	4.661601	127168512	95039488	41448856	24992
123	6.266474	127168512	95039488	28584864	24992
124	5.411945	127168512	95039488	32055544	24992
125	5.393613	127168512	95039488	35682752	24992
126	5.805948	127168512	95039488	39469192	24992
127	7.075365	127168512	95039488	27531360	24992
128	6.26275	127168512	95039488	31638440	24992
129	6.346824	127168512	95039488	35901888	24992
130	6.752365	127168512	95039488	40330872	24992
131	7.925755	127168512	95039488	28926520	24992
132	7.107553	127168512	95039488	33678304	24992
133	7.517804	127168512	95039488	38597072	24992
134	9.094864	127168512	95039488	28004640	24992
135	8.167736	127168512	95039488	33259496	24992
136	8.232743	127168512	95039488	38690368	24992
137	9.849765	127168512	95039488	28605704	24992
138	8.826175	127168512	95039488	34364680	24992
139	8.856463	127168512	95039488	40298088	24992
140	10.530471	127168512	95039488	30479216	24992
141	9.342971	127168512	95039488	36752136	24992
142	11.208433	127168512	95039488	27918256	24992
143	10.130115	127168512	95039488	34542888	24992
144	10.384771	127168512	95039488	41349448	24992
145	12.037498	127168512	95039488	32275664	24992
146	10.859093	127168512	95039488	39435472	24992
147	13.041694	127168512	95039488	31097048	24992
148	11.295929	127168512	95039488	38617136	24992
149	13.416856	127168512	95039488	30768664	24992
150	11.940859	127168512	95039488	38653520	24992
151	13.995744	127168512	95039488	31202656	24992
152	0.603283	127168512	95039488	39491288	24992
153	0.869712	127168512	95039488	40046688	24992
154	1.142175	127168512	95039488	40788848	24992
155	1.406587	127168512	95039488	41723328	24992
156	1.685943	127168512	95039488	42842368	24992
157	3.325505	127168512	95039488	28048488	24992
158	2.269474	127168512	95039488	29547656	24992
159	2.579547	127168512	95039488	31239344	24992
160	3.250579	127168512	95039488	33128920	24992
161	3.521315	127168512	95039488	35214024	24992
162	3.425009	127168512	95039488	37486416	24992
163	3.701283	127168512	95039488	39954320	24992
164	4.189068	127168512	95039488	42620032	24992
165	5.598115	127168512	95039488	29424344	24992
166	4.783417	127168512	95039488	32485520	24992
167	4.875639	127168512	95039488	35745712	24992
168	5.181104	127168512	95039488	39211744	24992
169	5.923608	127168512	95039488	42874864	24992
170	7.574005	127168512	95039488	30656496	24992
171	6.169472	127168512	95039488	34726560	24992
172	6.543391	127168512	95039488	38999680	24992
173	6.790606	127168512	95039488	43482016	24992
174	8.715166	127168512	95039488	31991440	24992
175	7.721381	127168512	95039488	36884744	24992
176	7.707786	127168512	95039488	41984784	24992
177	9.61471	127168512	95039488	31369304	24992
178	8.523514	127168512	95039488	36889288	24992
179	8.639378	127168512	95039488	42619496	24992
180	10.449894	127168512	95039488	32538768	24992
181	9.437	127168512	95039488	38696688	24992
182	11.71413	127168512	95039488	29771616	24992
183	10.147376	127168512	95039488	36365536	24992
184	10.721735	127168512	95039488	43173168	24992
185	12.434229	127168512	95039488	34129320	24992
186	11.30449	127168512	95039488	41374128	24992
187	13.044881	127168512	95039488	33126288	24992
188	11.814016	127168512	95039488	40814168	24992
189	13.846114	127168512	95039488	33104384	24992
190	12.480335	127168512	95039488	41234528	24992
191	14.494859	127168512	95039488	33912584	24992
192	13.239537	127168512	95039488	42485088	24992
193	15.378705	127168512	95039488	35436568	24992
194	13.844897	127168512	95039488	44469776	24992
195	15.572229	127168512	95039488	37536464	24992
196	16.729595	127168512	95039488	32039328	24992
197	14.848492	127168512	95039488	41744976	24992
198	17.93216	127168512	95039488	35992536	24992
199	18.225593	127168512	95039488	31512912	24992
200	15.72922	127168512	95039488	41909288	24992
201	18.538672	127168512	95039488	36865408	24992
202	0.821507	127168512	95039488	33103864	24992
203	1.162251	127168512	95039488	33805536	24992
204	1.534448	127168512	95039488	34742608	24992
205	1.915671	127168512	95039488	35916152	24992
206	2.291523	127168512	95039488	37327688	24992
207	2.646981	127168512	95039488	38985800	24992
208	2.989715	127168512	95039488	40891592	24992
209	3.345913	127168512	95039488	43046256	24992
210	3.680426	127168512	95039488	45453608	24992
211	5.621467	127168512	95039488	31968096	24992
212	4.480139	127168512	95039488	34874960	24992
213	4.973153	127168512	95039488	38034872	24992
214	5.442942	127168512	95039488	41449464	24992
215	5.565304	127168512	95039488	45116816	24992
216	7.835893	127168512	95039488	32956776	24992
217	6.758275	127168512	95039488	37139624	24992
218	7.051058	127168512	95039488	41589232	24992
219	7.163667	127168512	95039488	46285952	24992
220	9.339752	127168512	95039488	34977288	24992
221	8.073247	127168512	95039488	40195464	24992
222	8.871475	127168512	95039488	45673592	24992
223	10.608059	127168512	95039488	35261048	24992
224	9.540314	127168512	95039488	41265528	24992
225	11.779957	127168512	95039488	32120288	24992
226	10.454988	127168512	95039488	38654592	24992
227	10.529945	127168512	95039488	45456464	24992
228	13.036954	127168512	95039488	36428744	24992
229	11.350587	127168512	95039488	43770568	24992
230	14.124116	127168512	95039488	35621752	24992
231	12.20174	127168512	95039488	43516992	24992
232	15.102523	127168512	95039488	35931072	24992
233	13.29643	127168512	95039488	44372048	24992
234	15.494196	127168512	95039488	37245744	24992
235	14.508323	127168512	95039488	46247424	24992
236	16.384625	127168512	95039488	39357352	24992
237	17.543341	127168512	95039488	33917400	24992
238	15.693585	127168512	95039488	43756752	24992
239	18.091036	127168512	95039488	38160296	24992
240	19.34392	127168512	95039488	33820840	24992
241	17.041783	127168512	95039488	44500240	24992
242	19.474838	127168512	95039488	39645776	24992
243	20.59967	127168512	95039488	35923128	24992
244	18.175482	127168512	95039488	47455424	24992
245	20.279843	127168512	95039488	42987440	24992
246	21.928532	127168512	95039488	39612872	24992
247	22.23575	127168512	95039488	37077184	24992
248	23.176336	127168512	95039488	35286976	24992
249	20.814722	127168512	95039488	48256752	24992
250	22.88763	127168512	95039488	45192496	24992
251	23.970082	127168512	95039488	42979760	24992
252	0.97157	127168512	95039488	41582176	24992
253	1.409315	127168512	95039488	42463752	24992
254	1.88244	127168512	95039488	43640440	24992
255	2.326201	127168512	95039488	45113456	24992
256	2.766887	127168512	95039488	46884320	24992
257	3.197109	127168512	95039488	48953344	24992
258	5.730736	127168512	95039488	34993016	24992
259	4.36882	127168512	95039488	37663288	24992
260	4.671301	127168512	95039488	40642008	24992
261	5.120582	127168512	95039488	43916744	24992
262	5.677246	127168512	95039488	47492848	24992
263	8.161378	127168512	95039488	35288504	24992
264	6.808935	127168512	95039488	39473632	24992
265	7.025761	127168512	95039488	43967232	24992
266	7.538919	127168512	95039488	48766680	24992
267	9.823527	127168512	95039488	37603320	24992
268	8.507987	127168512	95039488	43025832	24992
269	9.264494	127168512	95039488	48763288	24992
270	11.224019	127168512	95039488	38560056	24992
271	10.251351	127168512	95039488	44911952	24992
272	12.791177	127168512	95039488	35960104	24992
273	11.090387	127168512	95039488	42939096	24992
274	14.053328	127168512	95039488	34968624	24992
275	12.153461	127168512	95039488	42594120	24992
276	15.330916	127168512	95039488	35360832	24992
277	13.114278	127168512	95039488	43604368	24992
278	16.124015	127168512	95039488	36845968	24992
279	14.102996	127168512	95039488	45727032	24992
280	17.126077	127168512	95039488	39236608	24992
281	14.895284	127168512	95039488	48766248	24992
282	17.526694	127168512	95039488	42416080	24992
283	18.966163	127168512	95039488	37479360	24992
284	16.703468	127168512	95039488	47983248	24992
285	19.232824	127168512	95039488	42749512	24992
286	20.595641	127168512	95039488	38796056	24992
287	18.390247	127168512	95039488	50279824	24992
288	20.503383	127168512	95039488	45715312	24992
289	21.862838	127168512	95039488	42252648	24992
290	23.063256	127168512	95039488	39720008	24992
291	23.450195	127168512	95039488	37978528	24992
292	24.729466	127168512	95039488	36892960	24992
293	22.104813	127168512	95039488	50366896	24992
294	23.713663	127168512	95039488	47842568	24992
295	25.09533	127168512	95039488	46106896	24992
296	25.636231	127168512	95039488	44959192	24992
297	26.233441	127168512	95039488	44375536	24992
298	27.122089	127168512	95039488	44269504	24992
299	27.612824	127168512	95039488	44517912	24992
300	28.174733	127168512	95039488	45096904	24992
301	28.555519	127168512	95039488	45909496	24992
302	1.163613	127168512	95039488	47159216	24992
303	1.599419	127168512	95039488	48186776	24992
304	2.150899	127168512	95039488	49558448	24992
305	2.670231	127168512	95039488	51287000	24992
306	5.090317	127168512	95039488	37064624	24992
307	3.727989	127168512	95039488	39475096	24992
308	4.513396	127168512	95039488	42233512	24992
309	5.02409	127168512	95039488	45340808	24992
310	5.47137	127168512	95039488	48805184	24992
311	8.460227	127168512	95039488	36738240	24992
312	6.731789	127168512	95039488	40903456	24992
313	7.691719	127168512	95039488	45424456	24992
314	7.819157	127168512	95039488	50314528	24992
315	10.61138	127168512	95039488	39444840	24992
316	8.769765	127168512	95039488	45026872	24992
317	9.34343	127168512	95039488	50969328	24992
318	12.079532	127168512	95039488	41089200	24992
319	10.857634	127168512	95039488	47747512	24992
320	13.757205	127168512	95039488	39124920	24992
321	11.698065	127168512	95039488	46515848	24992
322	15.222635	127168512	95039488	38848560	24992
323	13.01066	127168512	95039488	46955160	24992
324	15.971001	127168512	95039488	39909536	24992
325	14.172478	127168512	95039488	48751264	24992
326	17.463831	127168512	95039488	42153032	24992
327	15.184003	127168512	95039488	51714704	24992
328	18.124198	127168512	95039488	45346312	24992
329	19.327243	127168512	95039488	40463040	24992
330	17.110083	127168512	95039488	51134872	24992
331	19.848537	127168512	95039488	45984360	24992
332	21.109087	127168512	95039488	42148008	24992
333	22.805774	127168512	95039488	39333528	24992
334	19.814167	127168512	95039488	51497696	24992
335	22.221177	127168512	95039488	47859264	24992
336	23.316507	127168512	95039488	45254440	24992
337	24.527088	127168512	95039488	43448128	24992
338	25.275891	127168512	95039488	42339032	24992
339	26.110734	127168512	95039488	41824056	24992
340	26.77853	127168512	95039488	41781752	24992
341	27.372826	127168512	95039488	42157288	24992
342	27.979578	127168512	95039488	42862152	24992
343	28.465928	127168512	95039488	43855568	24992
344	29.627947	127168512	95039488	45049616	24992
345	29.613163	127168512	95039488	46438472	24992
346	30.586582	127168512	95039488	47969128	24992
347	30.079427	127168512	95039488	49623200	24992
348	31.531486	127168512	95039488	51402720	24992
349	31.413629	127168512	95039488	53267448	24992
350	36.04461	127168512	95039488	41727664	24992
351	33.704193	127168512	95039488	46095680	24992
352	1.29764	127168512	95039488	50418584	24992
353	1.909662	127168512	95039488	51592464	24992
354	2.509445	127168512	95039488	53159128	24992
355	5.372408	127168512	95039488	38957704	24992
356	3.666819	127168512	95039488	41316072	24992
357	4.444801	127168512	95039488	44067704	24992
358	5.000858	127168512	95039488	47218848	24992
359	5.787505	127168512	95039488	50764928	24992
360	8.82063	127168512	95039488	38976208	24992
361	7.131743	127168512	95039488	43330680	24992
362	7.590035	127168512	95039488	48091144	24992
363	8.379761	127168512	95039488	53257264	24992
364	11.235621	127168512	95039488	42661024	24992
365	9.582852	127168512	95039488	48641776	24992
366	13.17686	127168512	95039488	39685800	24992
367	10.6054	127168512	95039488	46485704	24992
368	11.464213	127168512	95039488	53706168	24992
369	14.578588	127168512	95039488	45083776	24992
370	12.95319	127168512	95039488	53135696	24992
371	16.100634	127168512	95039488	45491584	24992
372	14.140818	127168512	95039488	54360736	24992
373	16.918401	127168512	95039488	47322800	24992
374	18.678775	127168512	95039488	41914264	24992
375	16.585746	127168512	95039488	52038064	24992
376	19.814926	127168512	95039488	46672536	24992
377	20.446118	127168512	95039488	42669664	24992
378	18.278827	127168512	95039488	54046600	24992
379	21.232107	127168512	95039488	49603128	24992
380	22.531609	127168512	95039488	46383064	24992
381	23.978129	127168512	95039488	44143168	24992
382	24.748808	127168512	95039488	42749800	24992
383	25.625403	127168512	95039488	42044368	24992
384	25.982376	127168512	95039488	41897152	24992
385	27.080701	127168512	95039488	42256888	24992
386	27.921944	127168512	95039488	42984000	24992
387	28.522458	127168512	95039488	43991008	24992
388	29.224662	127168512	95039488	45292304	24992
389	29.411809	127168512	95039488	46809816	24992
390	30.139052	127168512	95039488	48459776	24992
391	30.549862	127168512	95039488	50270080	24992
392	30.851376	127168512	95039488	52210856	24992
393	31.777982	127168512	95039488	54255160	24992
394	36.669536	127168512	95039488	43094456	24992
395	36.251314	127168512	95039488	50465976	24992
396	34.257045	127168512	95039488	54697096	24992
397	34.241797	127168512	95039488	58624264	24992
398	39.631826	127168512	95039488	48878824	24992
399	36.705657	127168512	95039488	54709712	24992
400	43.204838	127168512	95039488	47159416	24992
401	40.931058	127168512	95039488	57118352	24992
402	3.972706	127168512	95039488	47665008	24992
403	2.156641	127168512	95039488	48998584	24992
404	2.821416	127168512	95039488	50778200	24992
405	3.68096	127168512	95039488	53005664	24992
406	4.245201	127168512	95039488	55680800	24992
407	5.075697	127168512	95039488	58804800	24992
408	5.639064	127168512	95039488	62382624	24992
409	8.982912	127168512	95039488	50205480	24992
410	7.157282	127168512	95039488	54685592	24992
411	8.000903	127168512	95039488	59616376	24992
412	11.87148	127168512	95039488	49321536	24992
413	9.240842	127168512	95039488	55161080	24992
414	10.056698	127168512	95039488	61466048	24992
415	13.716112	127168512	95039488	52196248	24992
416	11.976433	127168512	95039488	59426080	24992
417	15.541813	127168512	95039488	51513104	24992
418	13.108001	127168512	95039488	59677312	24992
419	16.893695	127168512	95039488	52646232	24992
420	14.543257	127168512	95039488	61771432	24992
421	18.200967	127168512	95039488	55352960	24992
422	19.769573	127168512	95039488	50559488	24992
423	16.551206	127168512	95039488	61121472	24992
424	20.569737	127168512	95039488	56242448	24992
425	21.658527	127168512	95039488	52761352	24992
426	22.992502	127168512	95039488	50326672	24992
427	19.996588	127168512	95039488	62829320	24992
428	23.292905	127168512	95039488	59674768	24992
429	24.291791	127168512	95039488	57522184	24992
430	25.5418	127168512	95039488	56222344	24992
431	26.995721	127168512	95039488	55668744	24992
432	27.447018	127168512	95039488	55705328	24992
433	28.315161	127168512	95039488	56255496	24992
434	28.617892	127168512	95039488	57201680	24992
435	29.617885	127168512	95039488	58500504	24992
436	30.761775	127168512	95039488	60100216	24992
437	31.155806	127168512	95039488	61876824	24992
438	31.316316	127168512	95039488	63850760	24992
439	36.557031	127168512	95039488	52545368	24992
440	36.734527	127168512	95039488	60104792	24992
441	35.235259	127168512	95039488	64616968	24992
442	40.281513	127168512	95039488	55622936	24992
443	40.062243	127709184	95039488	64617376	24992
444	45.164236	127709184	95039488	70339784	24992
445	49.489027	120410112	87699456	28596536	24992
446	41.046714	120410112	87699456	26088840	24992
447	39.337005	120410112	87699456	20359592	24992
448	39.186805	120410112	87699456	31767976	24992
449	40.266039	120410112	87699456	26567944	24992
450	41.327419	120410112	87699456	39009976	24992
451	40.96388	120410112	87699456	34035480	24992
452	1.5812	120410112	87699456	31270120	24992
453	2.318181	120410112	87699456	32799328	24992
454	3.095603	120410112	87699456	34839744	24992
455	3.844306	120410112	87699456	37392336	24992
456	4.44771	120410112	87699456	40458776	24992
457	7.954765	120410112	87699456	30755256	24992
458	6.244375	120410112	87699456	34851136	24992
459	7.079908	120410112	87699456	39463048	24992
460	8.932296	120410112	87699456	29317344	24992
461	8.397077	120410112	87699456	34982608	24992
462	9.287859	120410112	87699456	41162816	24992
463	10.917871	120410112	87699456	31987432	24992
464	11.004564	120410112	87699456	39211896	24992
465	12.811511	120410112	87699456	31426944	24992
466	12.489307	120410112	87699456	39699088	24992
467	14.84761	120410112	87699456	32841352	24992
468	14.150532	120410112	87699456	42145216	24992
469	15.569768	120410112	87699456	35934968	24992
470	17.364117	120410112	87699456	31299312	24992
471	16.894894	120410112	87699456	42184024	24992
472	17.819845	120410112	87699456	37547656	24992
473	19.69488	120410112	87699456	34265728	24992
474	20.752698	120410112	87699456	32071704	24992
475	21.834754	120410112	87699456	30907360	24992
476	21.034775	120410112	87699456	44474072	24992
477	22.114	120410112	87699456	42188504	24992
478	23.180197	120410112	87699456	40763056	24992
479	24.252329	120410112	87699456	40200416	24992
480	25.133951	120410112	87699456	40237104	24992
481	26.169104	120410112	87699456	40786152	24992
482	26.53698	120410112	87699456	41846920	24992
483	27.779808	120410112	87699456	43148512	24992
484	27.878508	120410112	87699456	44799304	24992
485	36.867161	120410112	87699456	33101128	24992
486	30.879566	120410112	87699456	37657968	24992
487	31.36703	120410112	87699456	41893272	24992
488	34.980725	120410112	87699456	32780760	24992
489	35.580916	120410112	87699456	41991720	24992
490	33.816444	120410112	87699456	47830624	24992
491	36.218096	120410112	87699456	39539360	24992
492	35.7396	120410112	87699456	46758744	24992
493	38.349787	120410112	87699456	40033936	24992
494	45.047644	120950784	88223744	40311736	24992
495	42.35885	120950784	88223744	52626512	24992
496	47.366011	120950784	88223744	48105952	24992
497	63.582558	111259648	80883712	33492696	24992
498	46.486959	113422336	80883712	34134776	24992
499	43.358605	113422336	80883712	30957200	24992
500	49.519835	113422336	80883712	34394848	24992
501	50.918033	113422336	80883712	38224176	24992
502	1.72746	113422336	80883712	43063784	24992
503	2.533444	113422336	80883712	44739072	24992
504	3.331251	113422336	80883712	46974544	24992
505	4.15651	113422336	80883712	49770944	24992
506	7.988143	113422336	80883712	40119288	24992
507	6.178526	113422336	80883712	44041112	24992
508	6.85206	113422336	80883712	48526800	24992
509	7.690137	113422336	80883712	53594488	24992
510	9.529344	113422336	80883712	43568832	24992
511	9.420604	113422336	80883712	49753176	24992
512	11.358912	113422336	80883712	40978976	24992
513	11.339174	113422336	80883712	48303712	24992
514	13.207954	113422336	80883712	40929872	24992
515	12.904735	113422336	80883712	49409408	24992
516	15.162228	113422336	80883712	42962096	24992
517	14.695602	113422336	80883712	52584760	24992
518	16.35234	113422336	80883712	46766912	24992
519	17.947592	113422336	80883712	42503136	24992
520	17.483985	113422336	80883712	53853560	24992
521	18.683648	113422336	80883712	49493304	24992
522	20.356449	113422336	80883712	46471400	24992
523	22.363388	113422336	80883712	44641352	24992
524	22.49992	113422336	80883712	43695416	24992
525	23.886722	113422336	80883712	43599240	24992
526	25.592556	113422336	80883712	44065224	24992
527	25.82077	113422336	80883712	45026112	24992
528	26.784978	113422336	80883712	46439600	24992
529	27.08744	113422336	80883712	48165600	24992
530	28.029157	113422336	80883712	50187960	24992
531	28.90862	113422336	80883712	52442976	24992
532	29.33183	113422336	80883712	54890408	24992
533	32.491029	113422336	80883712	44108920	24992
534	32.209354	113422336	80883712	49255352	24992
535	33.040188	113422336	80883712	54129688	24992
536	35.421377	113422336	80883712	45464120	24992
537	38.351153	113422336	80883712	55416360	24992
538	38.35308	113422336	80883712	48932984	24992
539	39.920233	115314688	82980864	60058480	24992
540	40.373751	116396032	84029440	54475824	24992
541	51.469684	119099392	87175168	66820504	24992
542	57.017771	117288960	85078016	20924944	24992
543	42.747957	117559296	85078016	34252336	24992
544	43.116652	117559296	85078016	30478896	24992
545	50.072411	117559296	85078016	33450800	24992
546	49.09447	117559296	85078016	36800504	24992
547	50.078252	117559296	85078016	40756320	24992
548	51.162489	118099968	85602304	45345520	24992
549	52.192643	118099968	85602304	50485896	24992
550	58.889279	118640640	86126592	56208688	24992
551	70.799652	118022144	87699456	31576824	24992
552	1.888903	120180736	87699456	38493848	24992
553	6.975807	120180736	87699456	28517992	24992
554	3.906834	120180736	87699456	30948520	24992
555	4.743534	120180736	87699456	33988672	24992
556	5.573894	120180736	87699456	37653584	24992
557	8.698089	120180736	87699456	28210136	24992
558	7.465969	120180736	87699456	33114808	24992
559	8.360891	120180736	87699456	38632624	24992
560	10.263057	120180736	87699456	29240728	24992
561	10.269887	120451072	87699456	36012800	24992
562	11.360513	120451072	87699456	43414408	24992
563	12.562856	120451072	87699456	35088080	24992
564	13.176508	120451072	87699456	43723352	24992
565	14.685592	120451072	87699456	36525888	24992
566	16.465586	120451072	87699456	31216184	24992
567	16.095533	120451072	87699456	41753104	24992
568	17.543659	120451072	87699456	36811208	24992
569	19.409173	120451072	87699456	33401560	24992
570	20.711039	120451072	87699456	31194568	24992
571	21.84157	120451072	87699456	30041728	24992
572	20.811792	120451072	87699456	43733040	24992
573	22.346048	120451072	87699456	41605120	24992
574	23.495894	120451072	87699456	40531328	24992
575	25.333517	120451072	87699456	40283704	24992
576	25.979992	120451072	87699456	40684160	24992
577	26.747169	120451072	87699456	41654344	24992
578	27.492239	120451072	87699456	43109040	24992
579	30.907513	120451072	87699456	31458888	24992
580	33.074054	120451072	87699456	38969680	24992
581	31.116984	120451072	87699456	43472688	24992
582	35.429789	120451072	87699456	34711144	24992
583	36.14213	120451072	87699456	44008872	24992
584	33.891217	120451072	87699456	50094672	24992
585	36.519051	120451072	87699456	42180464	24992
586	36.320556	120451072	87699456	49855752	24992
587	38.847704	120451072	87699456	43372128	24992
588	41.582123	120451072	87699456	39618952	24992
589	42.078468	120451072	87699456	52728328	24992
590	42.053487	120451072	87699456	48705688	24992
591	48.576632	120451072	87699456	51534680	24992
592	50.385827	120451072	87699456	54831720	24992
593	56.573322	122343424	89796608	58692928	24992
594	68.228381	120688640	90320896	30408576	24992
595	52.040181	122576896	90320896	34665576	24992
596	53.83648	122576896	90320896	40516296	24992
597	54.788204	122576896	90320896	47081072	24992
598	59.631176	122576896	90320896	42703064	24992
599	58.423065	122847232	90845184	50485240	24992
600	56.730741	123387904	90845184	58959712	24992
601	67.18614	123387904	90845184	68120472	24992
602	2.100843	122896384	90845184	32818792	24992
603	2.981162	122896384	90845184	34826000	24992
604	7.936798	122896384	90845184	25412360	24992
605	5.317354	122896384	90845184	28730248	24992
606	6.183257	122896384	90845184	32720440	24992
607	7.20212	122896384	90845184	37380656	24992
608	9.931583	122896384	90845184	27996864	24992
609	9.35052	122896384	90845184	33988824	24992
610	11.271777	122896384	90845184	25237464	24992
611	11.320915	122896384	90845184	32586008	24992
612	13.249955	122896384	90845184	25398088	24992
613	13.373105	122896384	90845184	34074976	24992
614	15.407714	122896384	90845184	28005664	24992
615	15.418199	122896384	90845184	38041264	24992
616	17.254888	122896384	90845184	32629064	24992
617	18.273755	122896384	90845184	28826704	24992
618	20.975138	122896384	90845184	26443808	24992
619	19.499462	122896384	90845184	39186088	24992
620	21.041427	122896384	90845184	36328632	24992
621	23.688884	122896384	90845184	34732936	24992
622	24.573727	122896384	90845184	34046616	24992
623	24.870026	122896384	90845184	34124208	24992
624	26.262352	122896384	90845184	34920200	24992
625	27.57447	122896384	90845184	36276896	24992
626	28.295849	122896384	90845184	38093128	24992
627	29.073298	122896384	90845184	40278688	24992
628	32.635437	122896384	90845184	29312664	24992
629	32.46815	122896384	90845184	34644632	24992
630	32.581387	122896384	90845184	39582792	24992
631	35.48788	122896384	90845184	30942016	24992
632	37.539898	122896384	90845184	41405832	24992
633	38.320298	122896384	90845184	35192112	24992
634	40.121341	122896384	90845184	46935112	24992
635	40.465243	122896384	90845184	41595680	24992
636	43.00269	122896384	90845184	38220504	24992
637	43.787601	122896384	90845184	51996768	24992
638	43.588563	122896384	90845184	48402952	24992
639	45.465149	122896384	90845184	46370600	24992
640	53.042751	123437056	90845184	50702160	24992
641	54.561657	123437056	90845184	55553056	24992
642	60.138925	126140416	93466624	61025480	24992
643	70.481	118796288	88223744	34856504	24992
644	59.085329	120684544	88223744	29241520	24992
645	56.077487	120684544	88223744	36755592	24992
646	56.777909	120684544	88223744	44986944	24992
647	59.00386	120684544	88223744	53945072	24992
648	64.379506	120684544	88223744	52011464	24992
649	60.976701	120684544	88223744	62315248	24992
650	90.538619	122507264	91893760	29518952	24992
651	63.029007	124395520	91893760	40662984	24992
652	2.183047	124395520	91893760	42280952	24992
653	3.238866	124395520	91893760	44415568	24992
654	4.33493	124395520	91893760	47263120	24992
655	8.29352	124395520	91893760	38080456	24992
656	6.449435	124395520	91893760	42357704	24992
657	7.573084	124395520	91893760	47350680	24992
658	10.438745	124395520	91893760	38331080	24992
659	9.552542	124395520	91893760	44759296	24992
660	10.813123	124395520	91893760	51923008	24992
661	12.645047	124395520	91893760	43443784	24992
662	13.191678	124395520	91893760	52033736	24992
663	14.802311	124395520	91893760	44994032	24992
664	16.403048	124395520	91893760	39950520	24992
665	16.368048	124395520	91893760	50720256	24992
666	18.123768	124395520	91893760	46044576	24992
667	20.088611	124395520	91893760	42928944	24992
668	21.429685	124395520	91893760	41170720	24992
669	22.941676	124395520	91893760	40424336	24992
670	23.591291	124395520	91893760	40569824	24992
671	25.178837	124395520	91893760	41401728	24992
672	26.188932	124395520	91893760	42846192	24992
673	27.182335	124395520	91893760	44752680	24992
674	28.076141	124395520	91893760	47036416	24992
675	28.893968	124395520	91893760	49697304	24992
676	29.806449	124395520	91893760	52568640	24992
677	32.860106	124395520	91893760	42104600	24992
678	32.593736	124395520	91893760	47834256	24992
679	37.0473	124395520	91893760	40484896	24992
680	37.670767	124395520	91893760	50807088	24992
681	39.521867	124395520	91893760	45071032	24992
682	39.993849	124395520	91893760	56933528	24992
683	41.138157	124395520	91893760	52138968	24992
684	46.905438	124395520	91893760	53991464	24992
685	44.029854	124395520	91893760	67849304	24992
686	44.333187	124395520	91893760	64479880	24992
687	46.853933	124395520	91893760	62837016	24992
688	58.851111	126828544	94515200	67584664	24992
689	70.643829	124137472	91893760	24667360	24992
690	54.360741	124137472	91893760	30962984	24992
691	56.360884	124137472	91893760	37777480	24992
692	55.991788	124137472	91893760	45343592	24992
693	58.18549	124137472	91893760	53651248	24992
694	63.735581	124137472	91893760	51146392	24992
695	60.987848	124948480	92418048	60901568	24992
696	88.558325	118136832	87699456	28383560	24992
697	62.831737	120025088	87699456	39118880	24992
698	69.35934	120025088	87699456	39566216	24992
699	63.618354	120025088	87699456	52352952	24992
700	69.78959	120025088	87699456	54438240	24992
701	71.194273	120295424	88223744	57207832	24992
702	11.084341	127864832	96088064	61238584	24992
703	8.134752	127864832	96088064	63519256	24992
704	10.473549	121696256	91893760	20828784	24992
705	5.866589	121696256	91893760	24649760	24992
706	7.433853	121696256	91893760	29221688	24992
707	9.058993	121696256	91893760	34569432	24992
708	9.75145	123584512	91893760	24367952	24992
709	10.254658	123584512	91893760	31255160	24992
710	12.357844	123584512	91893760	23187248	24992
711	12.877534	123584512	91893760	31591904	24992
712	14.864769	123584512	91893760	24985840	24992
713	15.143028	123584512	91893760	34933552	24992
714	16.785876	123584512	91893760	29284624	24992
715	19.144367	123584512	91893760	25418792	24992
716	20.738841	123584512	91893760	23011416	24992
717	21.585181	123584512	91893760	21835440	24992
718	22.988531	123584512	91893760	21635792	24992
719	24.929717	123584512	91893760	22273128	24992
720	25.218876	123584512	91893760	23552680	24992
721	27.554058	123584512	91893760	25442696	24992
722	27.927689	123584512	91893760	27757608	24992
723	30.015579	123584512	91893760	30438312	24992
724	30.10116	123584512	91893760	33508096	24992
725	33.265794	123584512	91893760	23606760	24992
726	35.245112	123584512	91893760	32380496	24992
727	34.652788	123584512	91893760	38096848	24992
728	36.292793	123584512	91893760	30194128	24992
729	35.964303	123584512	91893760	37945840	24992
730	39.03595	123584512	91893760	31621696	24992
731	45.541112	124125184	91893760	32892440	24992
732	41.932938	124125184	91893760	46158808	24992
733	43.097133	124125184	91893760	42533632	24992
734	44.860915	124125184	91893760	40638136	24992
735	51.249533	124125184	91893760	44943440	24992
736	53.048302	124125184	91893760	49881288	24992
737	54.409169	124125184	91893760	55544200	24992
738	62.496685	124936192	92418048	62060600	24992
739	77.381121	122404864	89796608	24856360	24992
740	58.012578	122404864	89796608	33284176	24992
741	58.882758	122404864	89796608	42066056	24992
742	64.804198	122404864	89796608	40177088	24992
743	60.770466	122404864	89796608	50658232	24992
744	61.340665	122404864	89796608	61908776	24992
745	74.401167	124567552	92418048	62414544	24992
746	88.597157	122740736	90320896	30266336	24992
747	69.557904	122740736	90320896	32516928	24992
748	67.3896	122740736	90320896	47001192	24992
749	72.410814	122740736	90320896	50721200	24992
750	73.384613	122740736	90320896	55285480	24992
751	83.150398	123551744	91369472	60612272	24992
752	2.422645	122265600	89796608	34568992	24992
753	3.731552	122265600	89796608	37003504	24992
754	8.643372	122265600	89796608	28144928	24992
755	6.462313	122265600	89796608	32220584	24992
756	7.617214	122265600	89796608	37108504	24992
757	10.461746	122265600	89796608	28475680	24992
758	10.061703	122265600	89796608	34965800	24992
759	11.452499	122265600	89796608	42285456	24992
760	13.039963	122265600	89796608	34089248	24992
761	15.261933	122265600	89796608	28178200	24992
762	15.333501	122265600	89796608	37960136	24992
763	17.666741	122265600	89796608	32932824	24992
764	19.019238	122265600	89796608	29690096	24992
765	19.154027	122265600	89796608	41918496	24992
766	20.458675	122265600	89796608	38649928	24992
767	22.929808	122265600	89796608	36807008	24992
768	24.170857	122265600	89796608	36194624	24992
769	25.244688	122265600	89796608	36434872	24992
770	27.355582	122265600	89796608	37500496	24992
771	28.252262	122265600	89796608	39240840	24992
772	29.317423	122265600	89796608	41481056	24992
773	32.997163	122265600	89796608	30890240	24992
774	34.713656	122265600	89796608	39289112	24992
775	34.258337	122265600	89796608	44689560	24992
776	36.349348	122265600	89796608	36601328	24992
777	38.919233	122265600	89796608	47506752	24992
778	39.278715	122265600	89796608	41771440	24992
779	45.734987	122265600	89796608	42893216	24992
780	42.154589	122265600	89796608	56042056	24992
781	42.822297	122265600	89796608	52382352	24992
782	48.671653	122265600	89796608	55980464	24992
783	50.975884	122265600	89796608	60169072	24992
784	59.097347	125509632	93466624	65087008	24992
785	75.434408	127045632	94515200	23882568	24992
786	55.978718	127045632	94515200	30828784	24992
787	55.152189	127045632	94515200	38284784	24992
788	59.214121	127045632	94515200	46618016	24992
789	63.636149	127045632	94515200	44448904	24992
790	60.261655	127045632	94515200	54433208	24992
791	64.137849	127045632	94515200	65329192	24992
792	92.563103	119263232	89272320	33654632	24992
793	70.142536	121692160	89272320	34034576	24992
794	64.96405	121692160	89272320	47329624	24992
795	71.953593	121692160	89272320	50261312	24992
796	71.448147	121692160	89272320	53804104	24992
797	73.612261	123043840	90845184	58336784	24992
798	101.664912	128176128	98185216	31101320	24992
799	77.423667	130609152	98185216	36643896	24992
800	77.502512	130609152	98185216	43642800	24992
801	76.941608	130609152	98185216	51549512	24992
802	2.537112	130609152	98185216	61273192	24992
803	3.88306	130609152	98185216	63846616	24992
804	5.263242	130609152	98185216	67279288	24992
805	9.264268	130609152	98185216	58678952	24992
806	7.961984	130609152	98185216	63833720	24992
807	9.282388	130609152	98185216	69852520	24992
808	11.31727	130609152	98185216	61282624	24992
809	12.474183	130609152	98185216	69035720	24992
810	13.915534	130609152	98185216	61823960	24992
811	14.538357	130609152	98185216	71303696	24992
812	16.287756	130609152	98185216	65514752	24992
813	18.827841	130609152	98185216	61547824	24992
814	19.958299	130609152	98185216	59077872	24992
815	21.044643	130609152	98185216	57943688	24992
816	20.960574	130609152	98185216	71814312	24992
817	23.24512	130609152	98185216	70122448	24992
818	24.075886	130609152	98185216	69665768	24992
819	26.785631	130609152	98185216	70222664	24992
820	27.190948	130609152	98185216	71467408	24992
821	31.369458	130609152	98185216	60069768	24992
822	31.480216	130609152	98185216	64973312	24992
823	32.997219	130609152	98185216	70004712	24992
824	35.655413	130609152	98185216	61796696	24992
825	40.119008	131420160	98709504	72314104	24992
826	55.831236	131420160	98709504	66523648	24992
827	45.470933	123457536	90845184	27024688	24992
828	42.41001	123457536	90845184	23473464	24992
829	48.144887	123457536	90845184	25836392	24992
830	44.756999	123457536	90845184	40477648	24992
831	45.534265	123457536	90845184	37944296	24992
832	47.026195	123457536	90845184	37197304	24992
833	53.42382	123457536	90845184	43169944	24992
834	55.425739	123457536	90845184	49900704	24992
835	60.721355	123457536	90845184	46025232	24992
836	62.85027	123457536	90845184	54572560	24992
837	79.117623	116903936	86650880	34006472	24992
838	64.313668	118792192	86650880	32389864	24992
839	61.291336	118792192	86650880	43498208	24992
840	66.816242	118792192	86650880	44282736	24992
841	64.944444	118792192	86650880	57226472	24992
842	69.901163	119603200	87175168	59710080	24992
843	90.492589	126902272	94515200	63025456	24992
844	77.051915	122773504	90320896	31496280	24992
845	72.73458	122773504	90320896	36607720	24992
846	74.651978	122773504	90320896	42740440	24992
847	75.897793	122773504	90320896	49671424	24992
848	79.579781	122773504	90320896	57547208	24992
849	112.306981	119578624	89796608	35499880	24992
850	80.199249	122007552	89796608	44716800	24992
851	85.371773	122007552	89796608	43767296	24992
852	2.840762	122007552	89796608	56297760	24992
853	4.199244	122007552	89796608	59100632	24992
854	5.571254	122007552	89796608	62838024	24992
855	9.703028	122277888	89796608	54485384	24992
856	8.543498	122277888	89796608	60096080	24992
857	11.391256	122818560	90320896	51986560	24992
858	11.608568	122818560	90320896	59476776	24992
859	13.620627	122818560	90320896	52898360	24992
860	14.089376	122818560	90320896	62278904	24992
861	16.943307	122818560	90320896	57057488	24992
862	18.032735	122818560	90320896	53640104	24992
863	18.353248	122818560	90320896	65907160	24992
864	20.475449	122818560	90320896	62929872	24992
865	22.478684	122818560	90320896	61404448	24992
866	24.400306	122818560	90320896	61042072	24992
867	25.69755	122818560	90320896	61747992	24992
868	26.831141	122818560	90320896	63213264	24992
869	28.453657	122818560	90320896	65417800	24992
870	31.821924	122818560	90320896	54907448	24992
871	33.995981	122818560	90320896	63460960	24992
872	33.054973	122818560	90845184	69186832	24992
873	35.320125	123088896	90845184	61367160	24992
874	39.562121	126062592	93466624	72683496	24992
875	39.314	126873600	94515200	67334632	24992
876	42.428571	128225280	95563776	64244424	24992
877	57.457036	130658304	98185216	78251256	24992
878	53.112481	122810368	90320896	26606880	24992
879	49.316054	122810368	90320896	30981904	24992
880	50.62467	122810368	90320896	36167168	24992
881	51.294581	122810368	90320896	42312064	24992
882	53.396463	122810368	90320896	49441472	24992
883	54.55	122810368	90320896	57576096	24992
884	66.910557	123351040	90845184	54983248	24992
885	82.183067	117567488	87175168	34304600	24992
886	65.008392	119455744	87175168	33370192	24992
887	61.500365	119455744	87175168	45213280	24992
888	66.766698	119455744	87175168	46538296	24992
889	69.67096	119455744	87175168	48871096	24992
890	65.999587	119726080	87175168	63806928	24992
891	99.750468	122511360	92418048	21820944	24992
892	68.727292	124940288	92418048	37582224	24992
893	74.142221	124940288	92418048	43725984	24992
894	76.560661	124940288	92418048	50924712	24992
895	76.028204	124940288	92418048	59162120	24992
896	89.374009	125480960	92942336	56730008	24992
897	104.241885	123949056	91369472	34518752	24992
898	81.528881	123949056	91369472	45661712	24992
899	86.137749	123949056	91369472	46072680	24992
900	84.427406	123949056	91369472	59098712	24992
901	92.532644	125841408	93466624	61552048	24992
902	2.929204	130707456	98709504	32136424	24992
903	4.421527	130707456	98709504	35089720	24992
904	5.979555	130707456	98709504	39033696	24992
905	10.029217	130707456	98709504	30868976	24992
906	8.900594	130707456	98709504	36769352	24992
907	10.574841	130707456	98709504	43670984	24992
908	12.602909	130977792	98709504	35550272	24992
909	13.399357	130977792	98709504	44449256	24992
910	15.358864	130977792	98709504	38095848	24992
911	17.64488	130977792	98709504	33853512	24992
912	18.053045	130977792	98709504	45689096	24992
913	19.794584	130977792	98709504	42036616	24992
914	22.055057	130977792	98709504	40104536	24992
915	23.72111	130977792	98709504	39515184	24992
916	25.393161	130977792	98709504	40008536	24992
917	27.223405	130977792	98709504	41431432	24992
918	28.312055	130977792	98709504	43621080	24992
919	31.854804	130977792	98709504	33182824	24992
920	34.042968	130977792	98709504	41739184	24992
921	33.081818	130977792	98709504	47438216	24992
922	35.092175	130977792	98709504	39790112	24992
923	39.207418	130977792	98709504	51356920	24992
924	40.114925	130977792	98709504	46193024	24992
925	42.856519	130977792	98709504	43215128	24992
926	47.702022	130977792	98709504	45981144	24992
927	45.013659	130977792	98709504	61245216	24992
928	44.835604	130977792	98709504	59300128	24992
929	46.526734	130977792	98709504	58980576	24992
930	52.802757	130977792	98709504	65923856	24992
931	58.853153	131248128	98709504	62169120	24992
932	56.865569	131788800	99233792	70800048	24992
933	85.483803	127639552	97660928	29815672	24992
934	62.938577	130068480	97660928	39285576	24992
935	65.81402	130068480	97660928	39513552	24992
936	63.18133	130068480	97660928	52281472	24992
937	66.629773	130068480	97660928	54484944	24992
938	68.837756	130068480	97660928	57750872	24992
939	76.998427	130338816	98185216	61980808	24992
940	92.280037	127569920	95039488	31548344	24992
941	78.198413	127569920	95039488	38074792	24992
942	75.367498	127569920	95039488	45492496	24992
943	77.757975	127569920	95039488	53823776	24992
944	79.432341	127569920	95039488	63487672	24992
945	88.645951	128380928	96088064	73713888	24992
946	100.909396	129810432	97660928	36861760	24992
947	88.842389	129810432	97660928	37974736	24992
948	84.731345	129810432	97660928	51406256	24992
949	90.345261	129810432	97660928	54657512	24992
950	117.074103	121643008	91369472	24553264	24992
951	94.020491	123531264	91369472	40283552	24992
952	3.04649	123531264	91369472	47537656	24992
953	4.592845	123531264	91369472	50630176	24992
954	9.347371	123531264	91369472	42173112	24992
955	7.879963	123531264	91369472	47331376	24992
956	9.123712	123531264	91369472	53524424	24992
957	12.178297	123531264	91369472	45719136	24992
958	12.473326	123531264	91369472	54133576	24992
959	14.286952	123531264	91369472	47147808	24992
960	16.783666	123531264	91369472	42461368	24992
961	17.227223	123531264	91369472	53841552	24992
962	19.051203	123531264	91369472	50093000	24992
963	21.494724	123531264	91369472	48048720	24992
964	23.462343	123531264	91369472	47349880	24992
965	24.986588	123531264	91369472	47934960	24992
966	26.829282	123531264	91369472	49340816	24992
967	28.294645	123531264	91369472	51720496	24992
968	29.799212	123531264	91369472	54800456	24992
969	33.156849	123531264	91369472	44828256	24992
970	33.569645	123531264	91369472	51139552	24992
971	36.981628	123531264	91369472	44418112	24992
972	39.474093	123531264	91369472	56044184	24992
973	39.963117	123531264	91369472	51295128	24992
974	45.105857	123531264	91369472	53348608	24992
975	53.876521	124071936	91893760	56333760	24992
976	67.613181	120795136	90320896	27459400	24992
977	49.793562	122683392	90320896	31667296	24992
978	52.748081	122683392	90320896	37722024	24992
979	53.366558	122683392	90320896	44914176	24992
980	56.513293	122683392	90320896	53216072	24992
981	60.711694	122683392	90320896	50933752	24992
982	60.430773	122683392	90320896	61333744	24992
983	80.598372	126468096	93990912	61312832	24992
984	72.703436	124342272	91893760	26468488	24992
985	64.606965	124342272	91893760	39997304	24992
986	69.177756	124342272	91893760	43100064	24992
987	70.070936	124342272	91893760	47272728	24992
988	75.988917	124342272	91893760	52499968	24992
989	89.516104	128667648	96612352	58699824	24992
990	85.38955	121942016	89796608	32173384	24992
991	79.053218	121942016	89796608	40531128	24992
992	79.978738	121942016	89796608	49968400	24992
993	83.860686	121942016	89796608	60504392	24992
994	93.140489	123564032	91369472	60577792	24992
995	109.933071	122437632	89796608	39468344	24992
996	88.646095	122437632	89796608	41720616	24992
997	86.546214	122437632	89796608	56580080	24992
998	94.506742	122437632	89796608	61054672	24992
999	106.259536	128655360	96612352	66489896	24992
1000	117.743022	128073728	96088064	38468992	24992
