x	Duration	RSS	HeapTotal	HeapUsed	External
0	NA	108470272	76165120	11867344	24992
1	0.286672	108470272	76165120	11915864	24992
2	0.225687	108470272	76165120	11987552	24992
3	0.251121	108470272	76165120	12084448	24992
4	0.303562	108470272	76165120	12207736	24992
5	0.356273	108470272	76165120	12358864	24992
6	0.425637	108470272	76165120	12538616	24992
7	0.475918	108470272	76165120	12747800	24992
8	0.541856	108470272	76165120	12987440	24992
9	0.614151	108470272	76165120	13259368	24992
10	1.321274	108470272	76165120	13563720	24992
11	1.21668	108470272	76165120	13904912	24992
12	0.822276	108470272	76165120	14277096	24992
13	0.907443	108470272	76165120	14684920	24992
14	0.955846	108470272	76165120	15129328	24992
15	1.036813	108470272	76165120	15611200	24992
16	1.126331	108470272	76165120	16131512	24992
17	1.221481	108470272	76165120	16693024	24992
18	1.054226	108470272	76165120	17295304	24992
19	1.302054	108470272	76165120	17939376	24992
20	1.302517	108470272	76165120	18627488	24992
21	1.237033	108470272	76165120	19355016	24992
22	1.30467	108470272	76165120	20126456	24992
23	1.968471	108470272	76165120	20942720	24992
24	1.815501	108470272	76165120	21813240	24992
25	1.708628	108470272	76165120	22721896	24992
26	1.656379	108470272	76165120	23679320	24992
27	1.799272	108470272	76165120	24686216	24992
28	1.884958	108470272	76165120	25743600	24992
29	1.928042	108470272	76165120	26852464	24992
30	2.02493	108470272	76165120	28015344	24992
31	2.999756	108470272	76165120	12967064	24992
32	2.297698	108470272	76165120	14239360	24992
33	2.164432	108470272	76165120	15570296	24992
34	2.231329	108470272	76165120	16957560	24992
35	2.322289	108470272	76165120	18401912	24992
36	2.468213	108470272	76165120	19904608	24992
37	2.504067	108470272	76165120	21466032	24992
38	2.619408	108470272	76165120	23087176	24992
39	2.913411	108470272	76165120	24771328	24992
40	2.997715	108470272	76165120	26517160	24992
41	2.976969	108470272	76165120	28324240	24992
42	4.681602	108470272	76165120	14039528	24992
43	3.040517	108470272	76165120	15973744	24992
44	3.384838	108470272	76165120	17974120	24992
45	3.265019	108470272	76165120	20041568	24992
46	3.387353	108470272	76165120	22175696	24992
47	3.685886	108470272	76165120	24377824	24992
48	3.759193	108470272	76165120	26649200	24992
49	4.589676	108470272	76165120	28991624	24992
50	5.605036	108470272	76165120	15158560	24992
51	3.931578	108470272	76165120	17645520	24992
52	0.261388	108470272	76165120	20115440	24992
53	0.769501	108470272	76165120	20342296	24992
54	0.510812	108470272	76165120	20645816	24992
55	0.624174	108470272	76165120	21027080	24992
56	0.74665	108470272	76165120	21487456	24992
57	0.869556	108470272	76165120	22027296	24992
58	1.046014	108470272	76165120	22648432	24992
59	1.115308	108470272	76165120	23350456	24992
60	1.251117	108470272	76165120	24135424	24992
61	1.431021	108470272	76165120	25003968	24992
62	1.50481	108470272	76165120	25956248	24992
63	1.642931	108470272	76165120	26993608	24992
64	1.782665	108470272	76165120	28116952	24992
65	1.905901	108470272	76165120	29327360	24992
66	3.232138	108470272	76165120	14562912	24992
67	2.357309	108470272	76165120	15949840	24992
68	2.513459	108470272	76165120	17428536	24992
69	2.689773	108470272	76165120	18997752	24992
70	2.672427	108470272	76165120	20659272	24992
71	2.763903	108470272	76165120	22415032	24992
72	2.906786	108470272	76165120	24262560	24992
73	3.280359	108470272	76165120	26205792	24992
74	3.225395	108470272	76165120	28242560	24992
75	4.643263	108470272	76165120	14608448	24992
76	3.781442	108470272	76165120	16838440	24992
77	3.689229	108470272	76165120	19167304	24992
78	3.926101	108470272	76165120	21594680	24992
79	4.241037	108470272	76165120	24121840	24992
80	4.414455	108470272	76165120	26753376	24992
81	4.473569	108470272	76165120	29484280	24992
82	6.530978	108470272	76165120	16382128	24992
83	4.889512	108470272	76165120	19323368	24992
84	5.171237	108470272	76165120	22370944	24992
85	5.044201	108470272	76165120	25524664	24992
86	5.225832	108470272	76165120	28783136	24992
87	6.597821	108470272	76165120	16326192	24992
88	5.690573	108470272	76165120	19800432	24992
89	5.761434	108470272	76165120	23383792	24992
90	6.29941	108470272	76165120	27077392	24992
91	6.009163	108470272	76165120	30882024	24992
92	7.621909	108470272	76165120	18742688	24992
93	6.791165	108470272	76165120	22772184	24992
94	6.886263	108470272	76165120	26915736	24992
95	7.026762	108470272	76165120	31175240	24992
96	8.186546	108470272	76165120	19497008	24992
97	7.723829	108470272	76165120	23991240	24992
98	7.526208	108470272	76165120	28601392	24992
99	8.743594	108470272	76165120	17637704	24992
100	7.906262	108470272	76165120	22488376	24992
101	7.84877	108470272	76165120	27459064	24992
102	0.430658	108470272	76165120	17002472	24992
103	0.845723	108470272	76165120	17368832	24992
104	0.812334	108470272	76165120	17862312	24992
105	1.004935	108470272	76165120	18483928	24992
106	1.202704	108470272	76165120	19235136	24992
107	1.410685	108470272	76165120	20116392	24992
108	1.618523	108470272	76165120	21129840	24992
109	1.818807	108470272	76165120	22273920	24992
110	2.022441	108470272	76165120	23552344	24992
111	2.454894	108470272	76165120	24964912	24992
112	2.453007	108470272	76165120	26510952	24992
113	2.663267	108470272	76165120	28195216	24992
114	2.862218	108470272	76165120	30016760	24992
115	3.092682	108470272	76165120	31972408	24992
116	4.401346	108470272	76165120	17974616	24992
117	3.751275	108470272	76165120	20207880	24992
118	4.000268	108470272	76165120	22583216	24992
119	4.00875	108470272	76165120	25099944	24992
120	4.175646	108470272	76165120	27762560	24992
121	4.614512	108470272	76165120	30567416	24992
122	5.80872	108470272	76165120	17595880	24992
123	4.867305	108470272	76165120	20690472	24992
124	5.069622	108470272	76165120	23930688	24992
125	5.376511	108470272	76165120	27313720	24992
126	5.758652	108470272	76165120	30844520	24992
127	7.195528	108470272	76165120	18573424	24992
128	6.029605	108470272	76165120	22402920	24992
129	6.255522	108470272	76165120	26382192	24992
130	6.472838	108470272	76165120	30512392	24992
131	8.217897	108470272	76165120	18914032	24992
132	6.961895	108470272	76165120	23349872	24992
133	8.39334	108470272	76165120	27953536	24992
134	8.401915	108470272	76165120	32714520	24992
135	9.182389	108470272	76165120	21456744	24992
136	8.444226	108470272	76165120	26527768	24992
137	8.505314	108470272	76165120	31757368	24992
138	10.029168	108470272	76165120	21125456	24992
139	8.699462	108470272	76165120	26671784	24992
140	8.939807	108470272	76165120	32375608	24992
141	10.788561	108470272	76165120	22149184	24992
142	9.643987	108470272	76165120	28179800	24992
143	11.284561	108470272	76165120	18882560	24992
144	10.210385	108470272	76165120	25236456	24992
145	10.462057	108470272	76165120	31755784	24992
146	12.892897	108470272	76165120	22488576	24992
147	11.220811	108470272	76165120	29344104	24992
148	12.882576	108470272	76165120	20789840	24992
149	12.364296	108470272	76165120	27986784	24992
150	13.506792	108470272	76165120	19942248	24992
151	12.457739	108470272	76165120	27478440	24992
152	0.637029	108470272	76165120	19940296	24992
153	0.904161	108470272	76165120	20458688	24992
154	1.192936	108470272	76165120	21150752	24992
155	1.404195	108470272	76165120	22017192	24992
156	1.864557	108470272	76165120	23059664	24992
157	1.938823	108470272	76165120	24278560	24992
158	2.319372	108470272	76165120	25674648	24992
159	2.5166	108470272	76165120	27248952	24992
160	2.783113	108470272	76165120	29003384	24992
161	3.267392	108470272	76165120	30939360	24992
162	3.366777	108470272	76165120	33054744	24992
163	5.053162	108470272	76165120	19374760	24992
164	4.135542	108470272	76165120	21859496	24992
165	4.244729	108470272	76165120	24523552	24992
166	4.799237	108470272	76165120	27373856	24992
167	4.804971	108470272	76165120	30408184	24992
168	5.125896	108470272	76165120	33630920	24992
169	7.006108	108470272	76165120	20992632	24992
170	5.707296	108470272	76165120	24591656	24992
171	6.097412	108470272	76165120	28379880	24992
172	6.602915	108470272	76165120	32359704	24992
173	8.347598	108470272	76165120	20645192	24992
174	7.098495	108470272	76165120	25007016	24992
175	7.400233	108470272	76165120	29561920	24992
176	7.830456	108470272	76165120	34311552	24992
177	9.543151	108470272	76165120	23123256	24992
178	8.457816	108470272	76165120	28274696	24992
179	8.467591	108470272	76165120	33615696	24992
180	10.503269	108470272	76165120	23134160	24992
181	9.192648	108470272	76165120	28866800	24992
182	9.603151	108470272	76165120	34800976	24992
183	11.387434	108470272	76165120	24756952	24992
184	10.579206	108470272	76165120	31100272	24992
185	12.197199	108470272	76165120	22016216	24992
186	11.055458	108470272	76165120	28763936	24992
187	11.155633	108470272	76165120	35715744	24992
188	13.191964	108470272	76165120	26607952	24992
189	11.960749	108470272	76165120	33973952	24992
190	13.607292	108470272	76165120	25555272	24992
191	12.428471	108470272	76165120	33334152	24992
192	14.487385	108470272	76165120	25429008	24992
193	13.273079	108470272	76165120	33634832	24992
194	15.207563	108470272	76165120	26125288	24992
195	14.186344	108470272	76165120	34745640	24992
196	15.967192	108470272	76165120	27525944	24992
197	14.626495	108470272	76165120	36571368	24992
198	17.333369	108470272	76165120	29564456	24992
199	17.358812	108470272	76165120	23775720	24992
200	16.28193	108470272	76165120	33475992	24992
201	18.091973	108470272	76165120	27585344	24992
202	2.194343	108470272	76165120	21540144	24992
203	1.103706	108470272	76165120	22198264	24992
204	1.627412	108470272	76165120	23076288	24992
205	1.771548	108470272	76165120	24175184	24992
206	2.127767	108470272	76165120	25496416	24992
207	2.482618	108470272	76165120	27040360	24992
208	2.83435	108470272	76165120	28808816	24992
209	3.401573	108470272	76165120	30809136	24992
210	3.564596	108470272	76165120	33044176	24992
211	3.923475	108470272	76165120	35513824	24992
212	6.168842	108470272	76165120	22201016	24992
213	4.663929	108470272	76165120	25142840	24992
214	5.027713	108470272	76165120	28322024	24992
215	5.399776	108470272	76165120	31747616	24992
216	5.973156	108470272	76165120	35404600	24992
217	7.819527	108470272	76165120	23319968	24992
218	6.756134	108470272	76165120	27467528	24992
219	6.967931	108470272	76165120	31849976	24992
220	7.490629	108470272	76165120	36482856	24992
221	9.438024	108470272	76165120	25223408	24992
222	8.305	108470272	76165120	30349200	24992
223	8.500824	108470272	76165120	35709632	24992
224	10.730438	108470272	76165120	25310688	24992
225	9.383579	108470272	76165120	31165296	24992
226	9.947421	108470272	76165120	37269080	24992
227	11.530229	108470272	76165120	27394992	24992
228	10.816182	108470272	76165120	34004480	24992
229	12.577388	108470272	76165120	25118176	24992
230	11.341302	108470272	76165120	32230216	24992
231	13.674965	108470272	76165120	24091808	24992
232	12.227812	108470272	76165120	31706112	24992
233	14.683787	108470272	76165120	24201704	24992
234	13.615235	108470272	76165120	32334280	24992
235	15.761246	108470272	76165120	25265608	24992
236	13.636262	108470272	76165120	33914688	24992
237	16.080199	108470272	76165120	27161312	24992
238	14.668624	108470272	76165120	36327688	24992
239	16.967707	108470272	76165120	29763336	24992
240	17.710696	108470272	76165120	24407680	24992
241	15.871545	108470272	76165120	34361600	24992
242	18.336598	108470272	76165120	28866672	24992
243	19.455314	108470272	76165120	24455320	24992
244	17.070003	108470272	76165120	35199888	24992
245	19.393969	108470272	76165120	30427744	24992
246	20.482455	108470272	76165120	26633432	24992
247	18.689706	108470272	76165120	38186608	24992
248	20.972891	108470272	76165120	33815072	24992
249	21.416033	108470272	76165120	30365400	24992
250	22.088544	108470272	76165120	27646000	24992
251	22.910157	108470272	76165120	25615456	24992
252	0.907742	108470272	76165120	38665784	24992
253	1.321174	108470272	76165120	39488240	24992
254	3.92066	108470272	76165120	24344680	24992
255	2.178405	108470272	76165120	25719952	24992
256	3.251827	108470272	76165120	27369760	24992
257	3.126909	108470272	76165120	29302056	24992
258	3.740654	108470272	76165120	31507136	24992
259	3.931474	108470272	76165120	34001064	24992
260	4.344704	108470272	76165120	36766224	24992
261	4.99701	108470272	76165120	39812536	24992
262	7.010983	108470272	76165120	26881000	24992
263	5.729037	108470272	76165120	30491976	24992
264	6.164814	108470272	76165120	34394744	24992
265	7.061599	108470272	76165120	38585552	24992
266	9.129604	108470272	76165120	26956112	24992
267	7.973215	108470272	76165120	31710784	24992
268	8.418575	108470272	76165120	36752120	24992
269	10.894208	108470272	76165120	26249032	24992
270	9.136164	108470272	76165120	31869840	24992
271	9.543127	108470272	76165120	37779528	24992
272	11.744018	108470272	76165120	28025344	24992
273	10.506981	108470272	76165120	34518568	24992
274	13.073844	108470272	76165120	25816672	24992
275	11.271625	108470272	76165120	32897976	24992
276	11.981533	108470272	76165120	40273136	24992
277	14.444361	108470272	76165120	31652944	24992
278	12.900683	108470272	76165120	39621440	24992
279	15.131522	108470272	76165120	31693504	24992
280	13.583672	108470272	76165120	40258048	24992
281	16.04096	108470272	76165120	32824264	24992
282	17.086141	108470272	76165120	26792896	24992
283	15.442246	108470272	76165120	36261376	24992
284	17.894398	108470272	76165120	30339360	24992
285	16.272436	108470272	76165120	40423600	24992
286	18.858289	108470272	76165120	34551200	24992
287	19.213045	108470272	76165120	29830360	24992
288	17.750754	108470272	76165120	40831368	24992
289	20.563127	108470272	76165120	35833024	24992
290	20.969367	108470272	76165120	31883376	24992
291	22.589066	108470272	76165120	28781192	24992
292	20.595756	108470272	76165120	41013872	24992
293	22.301329	108470272	76165120	37268056	24992
294	22.908278	108470272	76165120	34377608	24992
295	24.189578	108470272	76165120	32213128	24992
296	24.686978	108470272	76165120	30679296	24992
297	25.246816	108470272	76165120	29734400	24992
298	26.208995	108470272	76165120	29244056	24992
299	26.563658	108470272	76165120	29162008	24992
300	27.233458	108470272	76165120	29427480	24992
301	28.049226	108470272	76165120	29985184	24992
302	1.070906	108470272	76165120	30986720	24992
303	1.540006	108470272	76165120	31949696	24992
304	2.050772	108470272	76165120	33232696	24992
305	2.551664	108470272	76165120	34837608	24992
306	3.180341	108470272	76165120	36772776	24992
307	3.817003	108470272	76165120	39024560	24992
308	4.159238	108470272	76165120	41601736	24992
309	7.097378	108470272	76165120	28353656	24992
310	5.357187	108470272	76165120	31583048	24992
311	5.636785	108470272	76165120	35145160	24992
312	6.390121	108470272	76165120	39030352	24992
313	11.536412	108470272	76165120	27475032	24992
314	7.298287	108470272	76165120	32027424	24992
315	7.975409	108470272	76165120	36922336	24992
316	8.550642	108470272	76165120	42129824	24992
317	10.975278	108470272	76165120	31433768	24992
318	9.595743	108470272	76165120	37311256	24992
319	12.52125	108470272	76165120	27994712	24992
320	10.650388	108470272	76165120	34552712	24992
321	11.001849	108470272	76165120	41436432	24992
322	14.367788	108470272	76165120	32529184	24992
323	12.31442	108470272	76165120	40089160	24992
324	15.057237	108470272	76165120	32069216	24992
325	13.442	108470272	76165120	40312312	24992
326	15.925017	108470272	76165120	32948816	24992
327	14.531519	108470272	76165120	41879904	24992
328	17.436274	108470272	76165120	34987760	24992
329	18.345592	108470272	76165120	29438680	24992
330	16.312219	108470272	76165120	39397720	24992
331	19.16241	108470272	76165120	33922912	24992
332	20.179817	108470272	76165120	29624104	24992
333	18.058264	108470272	76165120	40622456	24992
334	20.915014	108470272	76165120	36030024	24992
335	21.876273	108470272	76165120	32512640	24992
336	23.381578	108470272	76165120	29851872	24992
337	20.676403	108470272	76165120	42257328	24992
338	23.181943	108470272	76165120	38853088	24992
339	23.804411	108470272	76165120	36333584	24992
340	24.731883	108470272	76165120	34546824	24992
341	25.652716	108470272	76165120	33355808	24992
342	26.074126	108470272	76165120	32734592	24992
343	27.170098	108470272	76165120	32565424	24992
344	28.101885	108470272	76165120	32823096	24992
345	28.202124	108470272	76165120	33412144	24992
346	28.75333	108470272	76165120	34284208	24992
347	29.206647	108470272	76165120	35406272	24992
348	29.518389	108470272	76165120	36702352	24992
349	30.017691	108470272	76165120	38196104	24992
350	30.393658	108470272	76165120	39819600	24992
351	31.069454	108470272	76165120	41590216	24992
352	1.282307	108470272	76165120	43755392	24992
353	1.871568	108470272	76165120	44857224	24992
354	4.718441	108470272	76165120	30060160	24992
355	3.268754	108470272	76165120	31897312	24992
356	3.765893	108470272	76165120	34104208	24992
357	4.350011	108470272	76165120	36681240	24992
358	4.716136	108470272	76165120	39629104	24992
359	5.329182	108470272	76165120	42955888	24992
360	8.823595	108470272	76165120	30619560	24992
361	7.23857	108470272	76165120	34687048	24992
362	7.299758	108470272	76165120	39130864	24992
363	7.822567	108470272	76165120	43953576	24992
364	11.195411	108470272	76165120	33008264	24992
365	9.179164	108470272	76165120	38581568	24992
366	9.676683	108470272	76165120	44543000	24992
367	12.480011	108470272	76165120	34677920	24992
368	11.049369	108470272	76165120	41390800	24992
369	14.153986	108470272	76165120	32747400	24992
370	12.485278	108470272	76165120	40228096	24992
371	15.503231	108470272	76165120	32504344	24992
372	13.277061	108470272	76165120	40750304	24992
373	16.769581	108470272	76165120	33745696	24992
374	14.696684	108470272	76165120	42763384	24992
375	17.800418	108470272	76165120	36234640	24992
376	15.967815	108470272	76165120	46023792	24992
377	18.926012	108470272	76165120	39814656	24992
378	20.030339	108470272	76165120	34898552	24992
379	18.093062	108470272	76165120	45860000	24992
380	21.084418	108470272	76165120	40860960	24992
381	21.917538	108470272	76165120	36983136	24992
382	23.258985	108470272	76165120	34078376	24992
383	23.876188	108470272	76165120	32027240	24992
384	21.876247	108470272	76165120	44959624	24992
385	24.83822	108470272	76165120	42094248	24992
386	25.114505	108470272	76165120	40074568	24992
387	26.298549	108470272	76165120	38702384	24992
388	26.962837	108470272	76165120	37979536	24992
389	28.225714	108470272	76165120	37762096	24992
390	28.395844	108470272	76165120	38006448	24992
391	29.126642	108470272	76165120	38630240	24992
392	29.760487	108470272	76165120	39567840	24992
393	30.393793	108470272	76165120	40797048	24992
394	30.805477	108470272	76165120	42228080	24992
395	30.925497	108470272	76165120	43904088	24992
396	32.060589	108470272	76165120	45705256	24992
397	36.439051	108470272	76165120	33893096	24992
398	35.624583	108470272	76165120	40421704	24992
399	34.347518	108470272	76165120	44397144	24992
400	34.491166	108470272	76165120	48210256	24992
401	39.185249	108470272	76165120	38134248	24992
402	1.446968	108470272	76165120	46624224	24992
403	2.171845	108470272	76165120	47871040	24992
404	2.785666	108470272	76165120	49526120	24992
405	3.382411	108470272	76165120	51595688	24992
406	7.049063	108470272	76165120	38146600	24992
407	4.910353	108470272	76165120	41048616	24992
408	5.549985	108470272	76165120	44370024	24992
409	6.049472	108470272	76165120	48114920	24992
410	6.932117	108470272	76165120	52280688	24992
411	10.361528	108470272	76165120	40663000	24992
412	8.074852	108470272	76165120	45663312	24992
413	9.105317	108470272	76165120	51089216	24992
414	12.410864	108470272	76165120	40929192	24992
415	10.423479	108470272	76165120	47196624	24992
416	14.129281	108470272	76165120	38493944	24992
417	11.744713	108470272	76165120	45617856	24992
418	12.467355	108470272	76165120	53167440	24992
419	16.722571	108470272	76165120	44868768	24992
420	14.959051	108470272	76165120	53309648	24992
421	19.181146	108740608	76689408	45891856	24992
422	20.597952	108740608	76689408	39985936	24992
423	26.23824	108740608	76689408	49763296	24992
424	24.698818	106119168	75116544	24837264	24992
425	17.960443	107200512	75116544	19819648	24992
426	19.047859	107200512	75116544	15998984	24992
427	18.493211	107200512	75116544	27590928	24992
428	19.939512	107200512	75116544	23564152	24992
429	21.120955	107200512	75116544	20580072	24992
430	21.914771	107200512	75116544	18456912	24992
431	23.233388	107200512	75116544	17128264	24992
432	24.286169	107200512	75116544	16459256	24992
433	24.752492	107200512	75116544	16384008	24992
434	25.053078	107200512	75116544	16800344	24992
435	25.712451	107200512	75116544	17573472	24992
436	26.564261	107200512	75116544	18738512	24992
437	27.26989	107200512	75116544	20184536	24992
438	27.876174	107200512	75116544	21936536	24992
439	28.374458	107200512	75116544	23864704	24992
440	29.390555	107200512	75116544	26010424	24992
441	29.793583	107200512	75116544	28263176	24992
442	30.057899	107200512	75116544	30668088	24992
443	32.746154	107200512	75116544	19175200	24992
444	31.95319	107200512	75116544	23899368	24992
445	33.065149	107200512	75116544	28385992	24992
446	35.02912	107200512	75116544	18964864	24992
447	36.689151	107200512	75116544	27720888	24992
448	35.149806	107200512	75116544	33686056	24992
449	37.235461	107200512	75116544	25108240	24992
450	36.456743	107200512	75116544	32250128	24992
451	38.705063	107200512	75116544	25078808	24992
452	1.563468	107200512	75116544	36549464	24992
453	3.414951	107200512	75116544	22285336	24992
454	3.061417	107200512	75116544	24192512	24992
455	3.739681	107200512	75116544	26576944	24992
456	4.61151	107200512	75116544	29452368	24992
457	5.531288	107200512	75116544	32797792	24992
458	6.107776	107200512	75116544	36628696	24992
459	7.418066	107200512	75116544	24719048	24992
460	7.334689	107200512	75116544	29507528	24992
461	8.050543	107200512	75116544	34790040	24992
462	9.826562	107200512	75116544	24605312	24992
463	9.850169	107200512	75116544	30844312	24992
464	10.316586	107200512	75116544	37578392	24992
465	12.584444	107200512	75116544	28461960	24992
466	11.791893	107200512	75116544	36193216	24992
467	13.688503	107200512	75116544	28291624	24992
468	13.402072	107200512	75116544	36979816	24992
469	15.830937	107470848	75116544	29925024	24992
470	16.453178	107470848	75116544	24346432	24992
471	16.09697	107470848	75116544	34505504	24992
472	17.957106	107470848	75116544	29305888	24992
473	19.032974	107470848	75116544	25376672	24992
474	17.940844	107470848	75116544	37020680	24992
475	20.327048	107470848	75116544	32903192	24992
476	20.576119	107470848	75116544	29893488	24992
477	22.287593	107470848	75116544	27871152	24992
478	23.09181	107470848	75116544	26649704	24992
479	24.510116	107470848	75116544	26118240	24992
480	25.386287	107470848	75116544	26175744	24992
481	26.388855	107470848	75116544	26750712	24992
482	26.39601	107470848	75116544	27739952	24992
483	27.957955	107470848	75116544	29087912	24992
484	28.084151	107470848	75116544	30727608	24992
485	28.790272	107470848	75116544	32683800	24992
486	29.564629	107470848	75116544	34840880	24992
487	30.479653	107470848	75116544	37213384	24992
488	32.790463	107470848	75116544	25901816	24992
489	33.33815	107470848	75116544	33020376	24992
490	32.577916	107470848	75116544	37685496	24992
491	35.398559	107470848	75116544	28516440	24992
492	36.086023	107470848	75116544	37115616	24992
493	35.305398	107470848	75116544	43053616	24992
494	37.213737	107470848	75116544	34829320	24992
495	38.414627	107470848	75116544	44950224	24992
496	39.388184	107470848	75116544	38411104	24992
497	40.213125	107470848	75116544	49592784	24992
498	41.842511	107470848	75116544	43889440	24992
499	46.478575	107741184	75640832	43673520	24992
500	48.55025	109903872	77737984	56262448	24992
501	60.070317	110444544	78262272	26153856	24992
502	1.752799	110714880	78262272	27934864	24992
503	2.539327	110714880	78262272	29505144	24992
504	3.400184	110714880	78262272	31598088	24992
505	4.135875	110714880	78262272	34214640	24992
506	6.997093	110714880	78262272	23961176	24992
507	6.155577	110714880	78262272	27658840	24992
508	6.449298	110714880	78262272	31852936	24992
509	7.454632	110714880	78262272	36574064	24992
510	9.18494	110714880	78262272	26322008	24992
511	9.341627	110714880	78262272	32101680	24992
512	9.966313	110714880	78262272	38411504	24992
513	11.27574	110714880	78262272	28919360	24992
514	11.398374	110714880	78262272	36292448	24992
515	12.917582	110714880	78262272	28193808	24992
516	13.211779	110714880	78262272	36678048	24992
517	14.276581	110714880	78262272	29576992	24992
518	15.085153	110714880	78262272	39089224	24992
519	16.104849	110714880	78262272	32672768	24992
520	17.717152	110714880	78262272	27775056	24992
521	17.716999	110714880	78262272	38900896	24992
522	18.789284	110714880	78262272	34240224	24992
523	19.465606	110714880	78262272	30744520	24992
524	21.204973	110714880	78262272	28345304	24992
525	22.003689	110714880	78262272	26794624	24992
526	22.816447	110714880	78262272	26014248	24992
527	24.375984	110714880	78262272	25920120	24992
528	26.177446	110714880	78262272	26382848	24992
529	26.07749	110714880	78262272	27316928	24992
530	26.731062	110714880	78262272	28648048	24992
531	27.98819	110714880	78262272	30405768	24992
532	28.162794	110714880	78262272	32361856	24992
533	28.968097	110714880	78262272	34662640	24992
534	29.230402	110714880	78262272	37134312	24992
535	31.867253	110714880	78262272	26031112	24992
536	33.527994	110714880	78262272	33328584	24992
537	32.462671	110714880	78262272	38054936	24992
538	34.558744	110714880	78262272	29160296	24992
539	36.423507	110714880	78262272	37980360	24992
540	34.52039	110714880	78262272	44171464	24992
541	36.53365	110714880	78262272	36041104	24992
542	38.259617	110714880	78262272	46736448	24992
543	39.247506	110714880	78262272	40314488	24992
544	43.065792	110714880	78262272	39720736	24992
545	41.959886	110714880	78262272	51788232	24992
546	42.37778	110714880	78262272	47164744	24992
547	45.681567	112066560	79835136	48178096	24992
548	45.871981	114229248	82456576	61859888	24992
549	58.318428	114499584	82456576	58385976	24992
550	52.692485	112496640	80359424	28175584	24992
551	45.404397	112496640	80359424	26075664	24992
552	1.871076	112496640	80359424	30598704	24992
553	2.79299	112496640	80359424	32308528	24992
554	3.86984	112496640	80359424	34587456	24992
555	6.808252	112496640	80359424	24403096	24992
556	5.548132	112496640	80359424	27830632	24992
557	6.148765	112496640	80359424	31831640	24992
558	7.274834	112496640	80359424	36408128	24992
559	9.123585	112766976	80359424	26451808	24992
560	9.1257	112766976	80359424	32166416	24992
561	9.927724	112766976	80359424	38456560	24992
562	11.237204	112766976	80359424	28985120	24992
563	11.756825	112766976	80359424	36437824	24992
564	13.194489	112766976	80359424	28414520	24992
565	13.420334	112766976	80359424	37032984	24992
566	15.275467	112766976	80359424	30057760	24992
567	16.367189	112766976	80359424	24702264	24992
568	16.327851	112766976	80359424	35058880	24992
569	18.065949	112766976	80359424	30153520	24992
570	19.683533	112766976	80359424	26565344	24992
571	19.22252	112766976	80359424	38675368	24992
572	21.15489	112766976	80359424	34980136	24992
573	21.568494	112766976	80359424	32402792	24992
574	23.043978	112766976	80359424	30826888	24992
575	24.356742	112766976	80359424	30079600	24992
576	25.004875	112766976	80359424	30032752	24992
577	25.647347	112766976	80359424	30573664	24992
578	26.614536	112766976	80359424	31598456	24992
579	27.599607	112766976	80359424	33078032	24992
580	28.810281	112766976	80359424	34954424	24992
581	29.20679	112766976	80359424	37122400	24992
582	31.657658	112766976	80359424	25848072	24992
583	34.624017	112766976	80359424	33014672	24992
584	32.630498	112766976	80359424	37737168	24992
585	34.912197	113037312	80883712	28858232	24992
586	36.660888	113848320	81408000	37790320	24992
587	34.939396	113848320	81408000	44044472	24992
588	37.566918	113848320	81408000	36068824	24992
589	37.5576	113848320	81408000	43808864	24992
590	39.60145	113848320	81408000	37216624	24992
591	43.509731	113848320	81408000	36840760	24992
592	42.703301	113848320	81408000	49257560	24992
593	43.018704	113848320	81408000	44930312	24992
594	45.930929	113848320	81408000	46367408	24992
595	51.223046	114118656	81932288	48272648	24992
596	64.803439	114270208	84029440	22877856	24992
597	51.274877	116158464	84029440	25610216	24992
598	49.83389	116158464	84029440	29308784	24992
599	50.699446	116158464	84029440	33541768	24992
600	51.532858	116969472	84553728	38439816	24992
601	52.915028	116969472	84553728	44010456	24992
602	2.042288	116969472	84553728	50702896	24992
603	3.016913	116969472	84553728	52552496	24992
604	4.014284	116969472	84553728	55028304	24992
605	4.985597	116969472	84553728	58110248	24992
606	7.754028	116969472	84553728	48226688	24992
607	7.35606	116969472	84553728	52543992	24992
608	7.703343	116969472	84553728	57480960	24992
609	9.745673	116969472	84553728	47725576	24992
610	9.666207	116969472	84553728	53914520	24992
611	10.776314	116969472	84553728	60720896	24992
612	12.086136	116969472	84553728	51797696	24992
613	12.523627	116969472	84553728	59877784	24992
614	14.116472	116969472	84553728	52291672	24992
615	15.731725	116969472	84553728	46485784	24992
616	15.6698	116969472	84553728	56436488	24992
617	17.487326	116969472	84553728	51288984	24992
618	18.765278	116969472	84553728	47611960	24992
619	19.198459	116969472	84553728	59451520	24992
620	20.386017	116969472	84553728	55727600	24992
621	21.404244	116969472	84553728	53155504	24992
622	22.438166	116969472	84553728	51658448	24992
623	23.865897	116969472	84553728	51034416	24992
624	24.772369	116969472	84553728	51193048	24992
625	26.244746	116969472	84553728	51954328	24992
626	26.925271	116969472	84553728	53211912	24992
627	28.72175	116969472	84553728	54886928	24992
628	29.567089	116969472	84553728	57007112	24992
629	29.759337	116969472	85078016	59412624	24992
630	32.375416	117239808	85078016	48377840	24992
631	34.502501	117510144	85078016	55825352	24992
632	36.066893	117510144	85078016	60749712	24992
633	46.859558	112373760	80359424	21702688	24992
634	36.251022	112640000	80359424	30192672	24992
635	37.972031	112640000	80359424	22944984	24992
636	36.951034	112640000	80359424	30445152	24992
637	39.809842	112640000	80359424	23595624	24992
638	44.057163	112640000	80359424	23308288	24992
639	41.558826	112640000	80359424	35713296	24992
640	41.981582	112640000	80359424	31441128	24992
641	46.986916	113180672	80883712	33005480	24992
642	46.748616	113451008	80883712	35006224	24992
643	48.116778	113451008	80883712	37830040	24992
644	47.252934	113451008	80883712	53442896	24992
645	47.177246	113451008	80883712	51591736	24992
646	50.743797	113451008	80883712	50879664	24992
647	68.590968	115343360	82980864	56388000	24992
648	64.074755	114155520	81932288	35062520	24992
649	57.123609	114155520	81932288	29713104	24992
650	55.904271	114155520	81932288	36908896	24992
651	55.81846	114155520	81932288	44854624	24992
652	2.307135	114155520	81932288	54150744	24992
653	3.082538	114155520	81932288	56147984	24992
654	6.506827	114425856	81932288	46074032	24992
655	5.246243	114425856	81932288	49396920	24992
656	6.268562	114425856	81932288	53398040	24992
657	7.426492	114425856	81932288	58059752	24992
658	9.609652	114425856	81932288	48505104	24992
659	9.317308	114425856	81932288	54479536	24992
660	11.088297	114425856	81932288	45536912	24992
661	11.657108	114425856	81932288	52847928	24992
662	13.728125	114425856	81932288	45484680	24992
663	13.735115	114425856	81932288	54135336	24992
664	15.429671	114425856	81932288	47903552	24992
665	16.035839	114425856	81932288	57906472	24992
666	17.446041	114425856	81932288	52472144	24992
667	19.307679	114425856	81932288	48557520	24992
668	20.342398	114425856	81932288	45910896	24992
669	20.426151	114425856	81932288	58620368	24992
670	22.215768	114425856	81932288	55753416	24992
671	23.353154	114425856	81932288	54047400	24992
672	24.298169	114425856	81932288	53242240	24992
673	25.180477	114425856	81932288	53248304	24992
674	26.551682	114425856	81932288	53933072	24992
675	27.476973	114425856	81932288	55160280	24992
676	29.649943	114425856	81932288	56939064	24992
677	29.297417	114425856	81932288	59175936	24992
678	32.611039	114425856	81932288	47867704	24992
679	33.987831	114696192	82456576	55479240	24992
680	33.493586	114966528	82980864	60584368	24992
681	35.167459	115507200	83505152	51780296	24992
682	37.6411	117940224	85602304	61413224	24992
683	38.466928	119021568	86650880	54821296	24992
684	39.818323	121184256	89272320	65806432	24992
685	44.087093	122265600	90320896	60339904	24992
686	59.878186	116342784	86126592	26744136	24992
687	45.767005	118231040	86126592	26466112	24992
688	47.035566	118231040	86126592	27702304	24992
689	44.282048	118231040	86126592	41906784	24992
690	45.760763	118231040	86126592	39092856	24992
691	46.646989	118231040	86126592	37644112	24992
692	49.944788	118231040	86126592	41849256	24992
693	51.308833	118231040	86126592	46628968	24992
694	53.041887	119042048	86650880	52088232	24992
695	53.374453	119042048	86650880	58232432	24992
696	66.424387	120934400	88748032	52917984	24992
697	67.860765	118493184	86126592	28497328	24992
698	57.386576	118493184	86126592	36907456	24992
699	61.247873	118493184	86126592	33756144	24992
700	60.018421	118493184	86126592	43336056	24992
701	65.902053	119353344	86126592	41561800	24992
702	2.339678	119889920	86650880	53308752	24992
703	3.479331	119889920	86650880	55439664	24992
704	4.560098	119889920	86650880	58276704	24992
705	7.776843	119889920	86650880	48696360	24992
706	6.992479	119889920	86650880	52963944	24992
707	8.03942	119889920	86650880	57945632	24992
708	10.501304	119889920	86650880	48610560	24992
709	11.235884	119889920	86650880	55002824	24992
710	12.024877	119889920	86650880	62136024	24992
711	14.484638	119889920	86650880	53607344	24992
712	15.562416	119889920	86650880	62161208	24992
713	26.925817	116744192	78262272	13569344	24992
714	17.499795	111501312	78262272	23567392	24992
715	17.7157	111501312	78262272	18619720	24992
716	19.208358	111501312	78262272	15195192	24992
717	19.229832	111501312	78262272	27351256	24992
718	20.652259	111501312	78262272	24000984	24992
719	22.669035	111501312	78262272	21916672	24992
720	23.662851	111501312	78262272	20844408	24992
721	25.05359	111501312	78262272	20621736	24992
722	26.402289	111501312	78262272	21241624	24992
723	27.177821	111501312	78262272	22486504	24992
724	27.962037	111501312	78262272	24220896	24992
725	29.330074	111501312	78262272	26471576	24992
726	30.214756	111501312	78262272	29015696	24992
727	33.173419	111501312	78262272	17972224	24992
728	34.603752	111501312	78262272	23357992	24992
729	34.689584	111501312	78262272	28662168	24992
730	37.243447	111501312	78262272	19953144	24992
731	37.323152	111501312	78262272	27209744	24992
732	38.464504	111501312	78262272	20392288	24992
733	43.151942	111501312	78262272	20031384	24992
734	41.647131	111501312	78262272	32316456	24992
735	42.332302	111501312	78262272	28207040	24992
736	46.408232	111501312	78262272	30014528	24992
737	48.221617	111501312	78262272	32240504	24992
738	52.339667	111501312	78262272	35399128	24992
739	49.001256	111501312	78262272	51359144	24992
740	48.896061	111501312	78262272	49921912	24992
741	50.710439	111501312	78262272	49688832	24992
742	55.087063	111501312	78262272	55877024	24992
743	78.663269	112906240	81932288	23477400	24992
744	57.487611	114798592	81932288	30937120	24992
745	57.162998	114798592	81932288	39258144	24992
746	61.026148	114798592	81932288	36115712	24992
747	59.68369	114798592	81932288	45921576	24992
748	60.762317	115609600	82456576	56390672	24992
749	64.59461	117231616	84553728	55469376	24992
750	71.292833	121556992	88748032	67503640	24992
751	79.972301	118341632	85602304	34718760	24992
752	2.494105	118882304	85602304	36902184	24992
753	3.531053	118882304	85602304	39175256	24992
754	7.219942	118882304	85602304	29388376	24992
755	5.962328	118882304	85602304	33169816	24992
756	7.336737	118882304	85602304	37715760	24992
757	8.263977	118882304	85602304	43019472	24992
758	10.446234	118882304	85602304	33899976	24992
759	10.919365	118882304	85602304	40710200	24992
760	12.696459	118882304	85602304	32517000	24992
761	13.044019	118882304	85602304	40874904	24992
762	14.828815	118882304	85602304	34101296	24992
763	15.427543	118882304	85602304	43971360	24992
764	16.914876	118882304	85602304	38285784	24992
765	19.561785	118882304	85602304	34272808	24992
766	20.881843	118882304	85602304	31595088	24992
767	21.184429	118882304	85602304	44521888	24992
768	23.010826	118882304	85602304	41800024	24992
769	23.738311	118882304	85602304	40274752	24992
770	24.907927	118882304	85602304	39752720	24992
771	26.186143	118882304	85602304	40105400	24992
772	27.751874	118882304	85602304	41146672	24992
773	28.600678	118882304	85602304	42870264	24992
774	31.446955	118882304	85602304	31400376	24992
775	33.296927	118882304	85602304	38537920	24992
776	33.325863	118882304	85602304	43366896	24992
777	36.123977	118882304	85602304	34911736	24992
778	36.899585	118882304	85602304	44296320	24992
779	38.583996	118882304	85602304	37921048	24992
780	40.047109	118882304	85602304	48880224	24992
781	40.690089	118882304	85602304	43720192	24992
782	41.981746	118882304	85602304	56229280	24992
783	43.723645	118882304	85602304	51871288	24992
784	44.61397	118882304	85602304	49198800	24992
785	49.513081	119422976	86126592	51841312	24992
786	54.221301	121044992	88223744	55125568	24992
787	68.896808	116527104	85602304	27271672	24992
788	51.732307	118415360	85602304	31467936	24992
789	53.444042	118415360	85602304	37171824	24992
790	54.059751	118415360	85602304	43668392	24992
791	58.010365	118415360	85602304	38816656	24992
792	57.109518	118685696	85602304	46850976	24992
793	58.081826	119226368	86126592	55640224	24992
794	66.027383	120037376	87175168	53138904	24992
795	77.528778	119255040	88223744	32180824	24992
796	64.681383	121143296	88223744	30750704	24992
797	63.961322	121143296	88223744	42657024	24992
798	67.305348	121143296	88223744	43261696	24992
799	68.13519	121143296	88223744	44653456	24992
800	66.91421	121954304	88748032	58917968	24992
801	72.013092	121954304	88748032	61930928	24992
802	2.68675	121245696	90320896	34411144	24992
803	3.747324	121245696	90320896	36819424	24992
804	7.458768	123133952	90320896	26495552	24992
805	6.720186	123133952	90320896	30532504	24992
806	7.644768	123133952	90320896	35346584	24992
807	10.421335	123133952	90320896	26586536	24992
808	10.463	123133952	90320896	33008880	24992
809	11.986391	123133952	90320896	40236624	24992
810	14.1067	123133952	90320896	31838648	24992
811	15.142026	123133952	90320896	25592792	24992
812	15.328976	123133952	90320896	35282664	24992
813	17.276085	123133952	90320896	30107976	24992
814	19.65377	123133952	90320896	26581368	24992
815	19.759329	123133952	90320896	38694072	24992
816	20.937044	123133952	90320896	35445600	24992
817	22.558935	123133952	90320896	33522552	24992
818	24.557964	123133952	90320896	32731064	24992
819	25.673274	123133952	90320896	32892040	24992
820	27.00502	123133952	90320896	33874336	24992
821	27.981566	123133952	90320896	35451920	24992
822	29.597466	123133952	90320896	37616680	24992
823	30.505774	123133952	90320896	40342656	24992
824	33.331385	123133952	90320896	29497536	24992
825	33.638528	123133952	90320896	35057272	24992
826	34.329533	123133952	90320896	40566496	24992
827	37.67564	123133952	90320896	32189152	24992
828	37.444248	123133952	90320896	39839168	24992
829	39.653863	123133952	90320896	33418640	24992
830	42.461511	123133952	90320896	29659000	24992
831	42.772282	123133952	90320896	42819776	24992
832	43.84339	123133952	90320896	39119304	24992
833	49.109291	123133952	90320896	41816464	24992
834	50.506614	123133952	90320896	45158376	24992
835	52.380152	123133952	90320896	49380072	24992
836	53.122986	123133952	90320896	54404432	24992
837	53.825914	124215296	90845184	60228152	24992
838	57.082848	124215296	90845184	66840488	24992
839	79.353942	123252736	91893760	28160656	24992
840	58.277454	125140992	91893760	35613640	24992
841	61.057881	125140992	91893760	32670824	24992
842	61.058612	125140992	91893760	42696384	24992
843	61.838624	125140992	91893760	53612200	24992
844	65.335764	125140992	91893760	53144864	24992
845	66.497224	125681664	92418048	53531016	24992
846	70.542725	126492672	93466624	66920800	24992
847	86.551698	124149760	90845184	34748192	24992
848	70.613904	124149760	90845184	37836016	24992
849	72.150071	124149760	90845184	41636184	24992
850	73.195202	124149760	90845184	46369568	24992
851	75.381116	124149760	90845184	52049000	24992
852	3.050632	126042112	92942336	59379504	24992
853	4.63342	126042112	92942336	61978888	24992
854	5.80366	126042112	92942336	65439744	24992
855	15.439172	128204800	95039488	56280248	24992
856	13.787548	128204800	95039488	61472240	24992
857	15.484619	116719616	84029440	24313424	24992
858	11.542409	116719616	84029440	31246688	24992
859	12.959119	116985856	84029440	23338192	24992
860	13.594226	116985856	84029440	32002328	24992
861	15.521019	116985856	84029440	25675600	24992
862	17.464917	116985856	84029440	21052336	24992
863	17.734359	116985856	84029440	32403904	24992
864	19.487815	116985856	84029440	28487888	24992
865	21.218208	116985856	84029440	26116912	24992
866	23.16429	116985856	84029440	24976304	24992
867	24.627253	116985856	84029440	24945784	24992
868	25.937299	116985856	84029440	25731888	24992
869	27.311996	116985856	84029440	27244896	24992
870	28.314493	116985856	84029440	29450048	24992
871	29.878765	116985856	84029440	32222648	24992
872	32.480746	116985856	84029440	21901232	24992
873	34.546126	116985856	84029440	29913952	24992
874	33.676207	116985856	84029440	35644352	24992
875	36.317737	116985856	84029440	27794480	24992
876	38.658639	116985856	84029440	38455528	24992
877	39.373115	116985856	84029440	32816560	24992
878	43.350777	116985856	84029440	33023904	24992
879	42.502888	116985856	84029440	46203040	24992
880	43.127598	116985856	84029440	42726384	24992
881	48.149442	116985856	84029440	45603368	24992
882	49.704772	116985856	84029440	49137424	24992
883	51.162556	116985856	84029440	53672336	24992
884	53.752976	118337536	85078016	58938408	24992
885	76.5276	118386688	87175168	21456808	24992
886	55.728468	120274944	87175168	28088104	24992
887	55.822009	120274944	87175168	36130680	24992
888	57.757157	120274944	87175168	44945032	24992
889	61.651931	120274944	87175168	42686248	24992
890	62.197066	120274944	87175168	53412160	24992
891	64.862766	122437632	89796608	52810736	24992
892	63.795743	126763008	93990912	65376016	24992
893	85.451314	111747072	80883712	30077128	24992
894	70.101695	113635328	80883712	31324504	24992
895	69.845173	113635328	80883712	34309224	24992
896	70.911115	113635328	80883712	38146416	24992
897	72.709369	113635328	80883712	43076984	24992
898	78.575495	114716672	81408000	48751288	24992
899	94.499032	118194176	85078016	28116248	24992
900	77.348246	118194176	85078016	35724200	24992
901	77.741997	118194176	85078016	44181456	24992
902	2.952857	118194176	85078016	54416232	24992
903	6.885693	118194176	85078016	44628520	24992
904	5.7181	118194176	85078016	48275392	24992
905	7.258833	118194176	85078016	52861696	24992
906	8.562141	118194176	85078016	58334088	24992
907	11.239417	118194176	85078016	49824160	24992
908	11.361604	118194176	85078016	57144824	24992
909	13.464168	118464512	85078016	49472064	24992
910	14.310306	118464512	85078016	58601952	24992
911	16.170091	118464512	85078016	52448504	24992
912	17.985964	118464512	85078016	48191200	24992
913	18.804452	118464512	85078016	60078656	24992
914	20.185255	118464512	85078016	56584288	24992
915	22.353997	118464512	85078016	54544128	24992
916	24.163419	118464512	85078016	53693320	24992
917	25.428734	118464512	85078016	53935816	24992
918	26.831289	118464512	85078016	55026152	24992
919	28.012077	118464512	85078016	56828184	24992
920	29.518594	118464512	85078016	59329712	24992
921	32.301088	118464512	85078016	48606048	24992
922	34.224525	118464512	85078016	56897544	24992
923	34.430075	118464512	85078016	62730168	24992
924	36.740178	118464512	85078016	54688296	24992
925	37.320809	118464512	85078016	62635000	24992
926	39.900939	118464512	85078016	56487904	24992
927	42.285423	118734848	85602304	52947480	24992
928	44.593545	120086528	87175168	66649192	24992
929	44.743849	120627200	87699456	63514768	24992
930	47.462274	121167872	88223744	61881512	24992
931	73.557138	118439936	87175168	20878256	24992
932	52.250763	120328192	87175168	25166968	24992
933	54.642087	120328192	87175168	31213656	24992
934	55.971373	120328192	87175168	38227720	24992
935	56.361975	120328192	87175168	46131424	24992
936	57.720431	120328192	87175168	54948824	24992
937	61.682912	120328192	87175168	52557888	24992
938	60.230955	120328192	87175168	63450728	24992
939	81.237545	125194240	92418048	62903344	24992
940	70.565263	121118720	88223744	28252168	24992
941	67.763397	121118720	88223744	29559696	24992
942	67.604216	121118720	88223744	44128632	24992
943	70.371937	121118720	88223744	47360568	24992
944	72.033673	121118720	88223744	51589336	24992
945	78.452902	121929728	88748032	56650776	24992
946	94.17272	121434112	88223744	31839792	24992
947	76.925206	121434112	88223744	38924176	24992
948	78.044611	121434112	88223744	46946664	24992
949	78.82093	121434112	88223744	55958224	24992
950	83.578868	121434112	88223744	53684208	24992
951	87.230862	123867136	90845184	64548160	24992
952	2.953294	123461632	90320896	31550752	24992
953	4.421831	123461632	90320896	34457952	24992
954	5.940352	123461632	90320896	38293832	24992
955	9.492248	123461632	90320896	29518496	24992
956	9.330691	123461632	90320896	35293168	24992
957	11.589478	123461632	90320896	27119848	24992
958	12.060546	123461632	90320896	34826696	24992
959	14.445364	123461632	90320896	28153568	24992
960	15.084893	123461632	90320896	37788600	24992
961	17.160165	123461632	90320896	32647032	24992
962	19.064296	123461632	90320896	29322568	24992
963	19.754653	123461632	90320896	41815680	24992
964	22.152689	123461632	90320896	38994752	24992
965	23.564236	123461632	90320896	37558480	24992
966	24.923908	123461632	90320896	37231416	24992
967	26.73916	123461632	90320896	38017528	24992
968	28.173214	123461632	90320896	39652856	24992
969	29.597295	123461632	90320896	41942112	24992
970	33.376768	123461632	90320896	31103160	24992
971	32.98309	123461632	90320896	36711496	24992
972	34.039521	123461632	90320896	42418840	24992
973	36.894382	123461632	90320896	34373392	24992
974	37.275319	123461632	90320896	42408488	24992
975	40.258612	123461632	90320896	36402872	24992
976	42.219843	123461632	90320896	33003280	24992
977	46.324068	123461632	90320896	34877120	24992
978	44.880546	123461632	90320896	49717080	24992
979	46.115603	123461632	90320896	47725648	24992
980	48.229574	123461632	90320896	47252056	24992
981	52.175979	123461632	90320896	52992256	24992
982	53.76324	123461632	90320896	59669048	24992
983	57.884454	123461632	90320896	54993824	24992
984	62.376567	124542976	91369472	63472456	24992
985	78.289151	120262656	87175168	26613888	24992
986	59.981393	120262656	87175168	37189152	24992
987	64.972281	120262656	87175168	36567336	24992
988	62.720763	120262656	87175168	49200208	24992
989	67.935476	120262656	87175168	50520824	24992
990	69.111836	120262656	87175168	52801872	24992
991	83.153257	123777024	91369472	56091512	24992
992	83.260049	120688640	87699456	28080224	24992
993	74.975523	120688640	87699456	33354480	24992
994	76.08814	120688640	87699456	39604528	24992
995	78.286879	120688640	87699456	46883976	24992
996	78.961809	120688640	87699456	55097768	24992
997	102.139985	117313536	86126592	19784400	24992
998	84.247873	119472128	86126592	29461040	24992
999	83.916591	119472128	86126592	40779528	24992
1000	87.11001	119472128	86126592	40815216	24992
x	Duration	RSS	HeapTotal	HeapUsed	External
0	NA	115052544	82456576	12113288	24992
1	0.42231	115052544	82456576	12165104	24992
2	0.342331	115052544	82456576	12241696	24992
3	0.405575	115052544	82456576	12345320	24992
4	0.477338	115052544	82456576	12477520	24992
5	0.567989	115052544	82456576	12639792	24992
6	1.123124	115052544	82456576	12832608	24992
7	0.7902	115052544	82456576	13056904	24992
8	0.925829	115052544	82456576	13313768	24992
9	0.544222	115052544	82456576	13608560	24992
10	0.557269	115052544	82456576	13934872	24992
11	0.61994	115052544	82456576	14297104	24992
12	0.679669	115052544	82456576	14696304	24992
13	0.934779	115052544	82456576	15133472	24992
14	0.82873	115052544	82456576	15609592	24992
15	0.862715	115052544	82456576	16125528	24992
16	1.133227	115052544	82456576	16682440	24992
17	1.106429	115052544	82456576	17284504	24992
18	1.086008	115052544	82456576	17927848	24992
19	1.140648	115052544	82456576	18616072	24992
20	1.221227	115052544	82456576	19349008	24992
21	1.309409	115052544	82456576	20128088	24992
22	1.664962	115052544	82456576	20955200	24992
23	1.908308	115052544	82456576	21829400	24992
24	1.816647	115052544	82456576	22760952	24992
25	1.819506	115052544	82456576	23734224	24992
26	1.609724	115052544	82456576	24759560	24992
27	1.885454	115052544	82456576	25837936	24992
28	1.727925	115052544	82456576	26970056	24992
29	1.801649	115052544	82456576	28157152	24992
30	2.723292	115052544	82456576	13139056	24992
31	2.013213	115052544	82456576	14438880	24992
32	2.173061	115052544	82456576	15799104	24992
33	2.705587	115052544	82456576	17225032	24992
34	2.219794	115052544	82456576	18708640	24992
35	2.823031	115052544	82456576	20252880	24992
36	2.468013	115052544	82456576	21859064	24992
37	2.756556	115052544	82456576	23536440	24992
38	2.791103	115052544	82456576	25268984	24992
39	2.945841	115052544	82456576	27068600	24992
40	3.223698	115052544	82456576	28933912	24992
41	4.341171	115052544	82456576	14790560	24992
42	3.161945	115052544	82456576	16787800	24992
43	3.267146	115052544	82456576	18853728	24992
44	3.136988	115052544	82456576	20989320	24992
45	3.477824	115052544	82456576	23196720	24992
46	3.369504	115052544	82456576	25475760	24992
47	4.181933	115052544	82456576	27827960	24992
48	5.895958	115052544	82456576	14540896	24992
49	4.043568	115052544	82456576	17042768	24992
50	4.294064	115052544	82456576	19622880	24992
51	3.907963	115052544	82456576	22282480	24992
52	0.261575	115052544	82456576	24934944	24992
53	0.388415	115052544	82456576	25176552	24992
54	0.505183	115052544	82456576	25500216	24992
55	0.62311	115052544	82456576	25907648	24992
56	0.745954	115052544	82456576	26398968	24992
57	0.900393	115052544	82456576	26975232	24992
58	0.998648	115052544	82456576	27637432	24992
59	1.12356	115052544	82456576	28387128	24992
60	1.259244	115052544	82456576	29225160	24992
61	3.00838	115052544	82456576	14436672	24992
62	1.596217	115052544	82456576	15453440	24992
63	1.645339	115052544	82456576	16561048	24992
64	2.008974	115052544	82456576	17761304	24992
65	1.966673	115052544	82456576	19053768	24992
66	2.106471	115052544	82456576	20439792	24992
67	2.201471	115052544	82456576	21920920	24992
68	2.384441	115052544	82456576	23499280	24992
69	2.498343	115052544	82456576	25176104	24992
70	2.664202	115052544	82456576	26949400	24992
71	2.819643	115052544	82456576	28823376	24992
72	4.256687	115052544	82456576	15064560	24992
73	3.095159	115052544	82456576	17136656	24992
74	3.239493	115052544	82456576	19310312	24992
75	3.361153	115052544	82456576	21586616	24992
76	3.573951	115052544	82456576	23966104	24992
77	4.077687	115052544	82456576	26450104	24992
78	3.916674	115052544	82456576	29039792	24992
79	5.562494	115052544	82456576	15946144	24992
80	4.167664	115052544	82456576	18749752	24992
81	4.680441	115052544	82456576	21662712	24992
82	4.715442	115052544	82456576	24683816	24992
83	4.965321	115052544	82456576	27820488	24992
84	5.042919	115052544	82456576	31072552	24992
85	6.206186	115052544	82456576	18382696	24992
86	5.216476	115052544	82456576	21861728	24992
87	5.333123	115052544	82456576	25456720	24992
88	5.523258	115052544	82456576	29168408	24992
89	7.473423	115052544	82456576	17188384	24992
90	6.526285	115052544	82456576	21142080	24992
91	6.047197	115052544	82456576	25208280	24992
92	6.240326	115052544	82456576	29394720	24992
93	7.868836	115052544	82456576	17877640	24992
94	7.015518	115052544	82456576	22308680	24992
95	6.774799	115052544	82456576	26862264	24992
96	7.165447	115052544	82456576	31539640	24992
97	8.7562	115052544	82456576	20225784	24992
98	7.856204	115052544	82456576	25155248	24992
99	7.77635	115052544	82456576	30211176	24992
100	9.571284	115052544	82456576	19487008	24992
101	7.966406	115052544	82456576	24800784	24992
102	0.428196	115052544	82456576	30230624	24992
103	0.658851	115052544	82456576	30634368	24992
104	0.815864	115052544	82456576	31174120	24992
105	1.244905	115052544	82456576	31850992	24992
106	2.431849	115052544	82456576	16603992	24992
107	1.453529	115052544	82456576	17561848	24992
108	1.62039	115052544	82456576	18656408	24992
109	1.832238	115052544	82456576	19891928	24992
110	2.029774	115052544	82456576	21270400	24992
111	2.472117	115052544	82456576	22791768	24992
112	2.455063	115052544	82456576	24457104	24992
113	2.669658	115052544	82456576	26267376	24992
114	2.885687	115052544	82456576	28227688	24992
115	3.116386	115052544	82456576	30330640	24992
116	3.323158	115052544	82456576	32581304	24992
117	4.931605	115052544	82456576	18829184	24992
118	4.201265	115052544	82456576	21380640	24992
119	3.982306	115052544	82456576	24082528	24992
120	4.197755	115052544	82456576	26936600	24992
121	4.712823	115052544	82456576	29946056	24992
122	4.777785	115052544	82456576	33111024	24992
123	6.65981	115052544	82456576	20244112	24992
124	5.114755	115052544	82456576	23714600	24992
125	5.323591	115052544	82456576	27341888	24992
126	6.11406	115052544	82456576	31126720	24992
127	7.793032	115052544	82456576	19173928	24992
128	6.470767	115052544	82456576	23279632	24992
129	6.818616	115052544	82456576	27542976	24992
130	6.752005	115052544	82456576	31968048	24992
131	8.746715	115052544	82456576	20554920	24992
132	7.418771	115052544	82456576	25305640	24992
133	7.257691	115052544	82456576	30224808	24992
134	9.508678	115052544	82456576	19621248	24992
135	8.433636	115052544	82456576	24878704	24992
136	8.039133	115052544	82456576	30300136	24992
137	10.19831	115052544	82456576	20172544	24992
138	8.827633	115052544	82456576	25932096	24992
139	8.991721	115052544	82456576	31862848	24992
140	10.787927	115052544	82456576	22011104	24992
141	9.543595	115052544	82456576	28283984	24992
142	11.422202	115052544	82456576	19419672	24992
143	10.285893	115052544	82456576	26043936	24992
144	10.071998	115052544	82456576	32844848	24992
145	12.050574	115052544	82456576	23740712	24992
146	10.862068	115052544	82456576	30900648	24992
147	12.708183	115052544	82456576	22527416	24992
148	11.405187	115052544	82456576	30054264	24992
149	13.52099	115052544	82456576	22172152	24992
150	11.813016	115052544	82456576	30056688	24992
151	14.587137	115052544	82456576	22574392	24992
152	0.810607	115052544	82456576	30863896	24992
153	0.861051	115052544	82456576	31419328	24992
154	1.128885	115052544	82456576	32161416	24992
155	1.409563	115052544	82456576	33091200	24992
156	1.681763	115052544	82456576	34210208	24992
157	3.413084	115052544	82456576	19409352	24992
158	2.264118	115052544	82456576	20908520	24992
159	2.967382	115052544	82456576	22599280	24992
160	2.885061	115052544	82456576	24483544	24992
161	3.106291	115052544	82456576	26561376	24992
162	3.611774	115052544	82456576	28838192	24992
163	3.702355	115052544	82456576	31306112	24992
164	4.008555	115052544	82456576	33971584	24992
165	6.072475	115052544	82456576	20774504	24992
166	4.566415	115052544	82456576	23839544	24992
167	4.853629	115052544	82456576	27099176	24992
168	5.224697	115052544	82456576	30561064	24992
169	5.498101	115052544	82456576	34231608	24992
170	7.737894	115052544	82456576	22021792	24992
171	6.500064	115052544	82456576	26090744	24992
172	6.378961	115052544	82456576	30364072	24992
173	6.90807	115052544	82456576	34842728	24992
174	8.538918	115052544	82456576	23364208	24992
175	7.568029	115052544	82456576	28256088	24992
176	7.892638	115052544	82456576	33356136	24992
177	9.679545	115052544	82456576	22756976	24992
178	8.262498	115052544	82456576	28276088	24992
179	8.776844	115052544	82456576	34006384	24992
180	11.126583	115052544	82456576	23930336	24992
181	9.2555	115052544	82456576	30089048	24992
182	11.900199	115052544	82456576	21162728	24992
183	9.87259	115052544	82456576	27755296	24992
184	11.605276	115052544	82456576	34570808	24992
185	12.356729	115052544	82456576	25523120	24992
186	10.902674	115052544	82456576	32773064	24992
187	13.371579	115052544	82456576	24515664	24992
188	11.722513	115052544	82456576	32200392	24992
189	14.390629	115052544	82456576	24491928	24992
190	12.99337	115052544	82456576	32621392	24992
191	14.87343	115052544	82456576	25301696	24992
192	13.20379	115052544	82456576	33872592	24992
193	15.206828	115052544	82456576	26824712	24992
194	14.060378	115052544	82456576	35857920	24992
195	15.636437	115052544	82456576	28925248	24992
196	16.930465	115052544	82456576	23429064	24992
197	15.187606	115052544	82456576	33134400	24992
198	17.736552	115052544	82456576	27382280	24992
199	18.510808	115052544	82456576	22903712	24992
200	16.522716	115052544	82456576	33299888	24992
201	18.543391	115052544	82456576	28256792	24992
202	0.765051	115052544	82456576	24495224	24992
203	1.098857	115052544	82456576	25196984	24992
204	1.471845	115052544	82456576	26134168	24992
205	2.136843	115052544	82456576	27309608	24992
206	2.244558	115052544	82456576	28721168	24992
207	2.529169	115052544	82456576	30379280	24992
208	3.042702	115052544	82456576	32285192	24992
209	3.599919	115052544	82456576	34439488	24992
210	4.254763	115052544	82456576	36845152	24992
211	6.023567	115052544	82456576	23371552	24992
212	4.417207	115052544	82456576	26278536	24992
213	5.000712	115052544	82456576	29437896	24992
214	5.405678	115052544	82456576	32855104	24992
215	5.793851	115052544	82456576	36522560	24992
216	8.37526	115052544	82456576	24369720	24992
217	6.475241	115052544	82456576	28549168	24992
218	6.855955	115052544	82456576	32992656	24992
219	7.493225	115052544	82456576	37689592	24992
220	9.546741	115052544	82456576	26383952	24992
221	8.220174	115052544	82456576	31602128	24992
222	8.78062	115052544	82456576	37080256	24992
223	10.88628	115052544	82456576	26672440	24992
224	9.460688	115052544	82456576	32675928	24992
225	12.424816	115052544	82456576	23532800	24992
226	10.268089	115052544	82456576	30065792	24992
227	10.401858	115052544	82456576	36867664	24992
228	13.324664	115052544	82456576	27843408	24992
229	11.717423	115052544	82456576	35184208	24992
230	14.056726	115052544	82456576	27039840	24992
231	12.485403	115052544	82456576	34931432	24992
232	15.347844	115052544	82456576	27348120	24992
233	13.373012	115052544	82456576	35787784	24992
234	15.969019	115052544	82456576	28671152	24992
235	14.353561	115052544	82456576	37664456	24992
236	16.58312	115052544	82456576	30775176	24992
237	18.458026	115052544	82456576	25336248	24992
238	16.75027	115052544	82456576	35195344	24992
239	18.52088	115052544	82456576	29599208	24992
240	19.524218	115052544	82456576	25260560	24992
241	17.094403	115052544	82456576	35939648	24992
242	20.045918	115052544	82456576	31085360	24992
243	20.695637	115052544	82456576	27363352	24992
244	18.996368	115052544	82456576	38895360	24992
245	20.413481	115052544	82456576	34427552	24992
246	22.067896	115052544	82456576	31053336	24992
247	22.966405	115052544	82456576	28517824	24992
248	24.081538	115052544	82456576	26728160	24992
249	20.672422	115052544	82456576	39697568	24992
250	22.923324	115052544	82456576	36633488	24992
251	24.029472	115052544	82456576	34422080	24992
252	0.983295	115052544	82456576	33024768	24992
253	1.408438	115052544	82456576	33906248	24992
254	1.893978	115052544	82456576	35082936	24992
255	2.30255	115052544	82456576	36555952	24992
256	2.946413	115052544	82456576	38326816	24992
257	3.442269	115052544	82456576	40395840	24992
258	6.157353	115052544	82456576	26436656	24992
259	4.20804	115052544	82456576	29105784	24992
260	4.638389	115052544	82456576	32084504	24992
261	5.228603	115052544	82456576	35359240	24992
262	5.742455	115052544	82456576	38935344	24992
263	8.457695	115052544	82456576	26733200	24992
264	6.924659	115052544	82456576	30918448	24992
265	6.975766	115052544	82456576	35410784	24992
266	7.715319	115052544	82456576	40210232	24992
267	10.036339	115052544	82456576	29047752	24992
268	8.451517	115052544	82456576	34470264	24992
269	8.893767	115052544	82456576	40207720	24992
270	11.686882	115052544	82456576	30005192	24992
271	9.97785	115052544	82456576	36357088	24992
272	12.971592	115052544	82456576	27406224	24992
273	11.116181	115052544	82456576	34388960	24992
274	14.361175	115052544	82456576	26437608	24992
275	11.973232	115052544	82456576	34047520	24992
276	15.644635	115052544	82456576	26807568	24992
277	13.066922	115052544	82456576	35050736	24992
278	16.396871	115052544	82456576	28293000	24992
279	14.186772	115052544	82456576	37174000	24992
280	17.134304	115052544	82456576	30683680	24992
281	15.067164	115052544	82456576	40213320	24992
282	17.891862	115052544	82456576	33863504	24992
283	19.159836	115052544	82456576	28927472	24992
284	16.890324	115052544	82456576	39431024	24992
285	20.131909	115052544	82456576	34197464	24992
286	21.066167	115052544	82456576	30244536	24992
287	18.36979	115052544	82456576	41729840	24992
288	20.711398	115052544	82456576	37163616	24992
289	22.370446	115052544	82456576	33701304	24992
290	23.636728	115052544	82456576	31169056	24992
291	24.329307	115052544	82456576	29427752	24992
292	24.712068	115052544	82456576	28342384	24992
293	21.275065	115052544	82456576	41816080	24992
294	24.179462	115052544	82456576	39291928	24992
295	25.913911	115052544	82456576	37556608	24992
296	26.210492	115052544	82456576	36409080	24992
297	26.800306	115052544	82456576	35825600	24992
298	27.644526	115052544	82456576	35719744	24992
299	27.971642	115052544	82456576	35968328	24992
300	28.728777	115052544	82456576	36547496	24992
301	29.649856	115052544	82456576	37360264	24992
302	1.110779	115052544	82456576	38610160	24992
303	1.574825	115052544	82456576	39637840	24992
304	2.184358	115052544	82456576	41009544	24992
305	2.747196	115052544	82456576	42737944	24992
306	5.609307	115052544	82456576	28516344	24992
307	4.008715	115052544	82456576	30926984	24992
308	4.554746	115052544	82456576	33685480	24992
309	4.999083	115052544	82456576	36792768	24992
310	5.66681	115052544	82456576	40256128	24992
311	8.72844	115052544	82456576	28202384	24992
312	6.763753	115052544	82456576	32363656	24992
313	8.038726	115052544	82456576	36890120	24992
314	7.849827	115052544	82456576	41765288	24992
315	10.662005	115052544	82456576	30902752	24992
316	8.989909	115052544	82456576	36487136	24992
317	9.348868	115052544	82456576	42425168	24992
318	12.693581	115052544	82456576	32553984	24992
319	10.766486	115052544	82456576	39212296	24992
320	14.082856	115052544	82456576	30590232	24992
321	11.957301	115052544	82456576	37981160	24992
322	15.384617	115052544	82456576	30314224	24992
323	13.225369	115052544	82456576	38420824	24992
324	16.962623	115052544	82456576	31375984	24992
325	14.103711	115052544	82456576	40217280	24992
326	17.53011	115052544	82456576	33620024	24992
327	15.386307	115052544	82456576	43181072	24992
328	18.188637	115052544	82456576	36813032	24992
329	19.490121	115052544	82456576	31930112	24992
330	17.135217	115052544	82456576	42601944	24992
331	20.117833	115052544	82456576	37451608	24992
332	22.23687	115052544	82456576	33624152	24992
333	22.347579	115052544	82456576	30810064	24992
334	19.676785	115052544	82456576	42974016	24992
335	22.370568	115052544	82456576	39335584	24992
336	24.053058	115052544	82456576	36730760	24992
337	24.454595	115052544	82456576	34924448	24992
338	26.01574	115052544	82456576	33815352	24992
339	26.467792	115052544	82456576	33300376	24992
340	27.202949	115052544	82456576	33258072	24992
341	28.28011	115052544	82456576	33633608	24992
342	28.268358	115052544	82456576	34338472	24992
343	29.250825	115052544	82456576	35332136	24992
344	29.339152	115052544	82456576	36525936	24992
345	30.485647	115052544	82456576	37914792	24992
346	30.600122	115052544	82456576	39445448	24992
347	31.28913	115052544	82456576	41099520	24992
348	31.04432	115052544	82456576	42879040	24992
349	32.234592	115052544	82456576	44743768	24992
350	36.510817	115052544	82456576	33204048	24992
351	34.118549	115052544	82456576	37572064	24992
352	1.294366	115052544	82456576	41895088	24992
353	1.896865	115052544	82456576	43068912	24992
354	2.524155	115052544	82456576	44635608	24992
355	5.725981	115052544	82456576	30434208	24992
356	4.001674	115052544	82456576	32792456	24992
357	4.369392	115052544	82456576	35544088	24992
358	4.888821	115052544	82456576	38695232	24992
359	5.652815	115052544	82456576	42241312	24992
360	9.424027	115052544	82456576	30452672	24992
361	6.909481	115052544	82456576	34807064	24992
362	7.581256	115052544	82456576	39567528	24992
363	8.21454	115052544	82456576	44733648	24992
364	11.629479	115052544	82456576	34137408	24992
365	9.732275	115052544	82456576	40118160	24992
366	13.33827	115052544	82456576	31162264	24992
367	10.992484	115052544	82456576	37962088	24992
368	11.27929	115052544	82456576	45182552	24992
369	14.77257	115052544	82456576	36560160	24992
370	13.15815	115052544	82456576	44612080	24992
371	16.21646	115052544	82456576	36967968	24992
372	14.302085	115052544	82456576	45837120	24992
373	17.469036	115052544	82456576	38799520	24992
374	19.181783	115052544	82456576	33390712	24992
375	15.983997	115052544	82456576	43511536	24992
376	20.16889	115052544	82456576	38146008	24992
377	21.197017	115052544	82456576	34143136	24992
378	18.269029	115052544	82456576	45520072	24992
379	21.262378	115052544	82456576	41076600	24992
380	23.083676	115052544	82456576	37856536	24992
381	23.892424	115052544	82456576	35616640	24992
382	24.961563	115052544	82456576	34223368	24992
383	26.023809	115052544	82456576	33517992	24992
384	26.70342	115052544	82456576	33370624	24992
385	27.531936	115052544	82456576	33730360	24992
386	28.084504	115052544	82456576	34457472	24992
387	28.961055	115052544	82456576	35464480	24992
388	29.487189	115052544	82456576	36765776	24992
389	30.035872	115052544	82456576	38283288	24992
390	30.295101	115052544	82456576	39933248	24992
391	31.39615	115052544	82456576	41743552	24992
392	31.314334	115052544	82456576	43684328	24992
393	32.055386	115052544	82456576	45728632	24992
394	37.231488	115052544	82456576	34567992	24992
395	36.811718	115052544	82456576	41939512	24992
396	35.051414	115052544	82456576	46170632	24992
397	35.043519	115052544	82456576	50097800	24992
398	40.581643	115052544	82456576	40352424	24992
399	37.364656	115052544	82456576	46183312	24992
400	43.309911	115052544	82456576	38635960	24992
401	42.331345	115052544	82456576	48594896	24992
402	5.098839	115052544	82456576	39143944	24992
403	2.421022	115052544	82456576	40477432	24992
404	3.990892	115052544	82456576	42257136	24992
405	5.518385	115052544	82456576	44484416	24992
406	7.052057	115052544	82456576	47159552	24992
407	8.814871	115052544	82456576	50283648	24992
408	11.226144	108765184	76165120	17193144	24992
409	6.515007	108765184	76165120	21233584	24992
410	7.085043	108765184	76165120	25717184	24992
411	8.360091	108765184	76165120	14756568	24992
412	8.551919	108765184	76165120	20150576	24992
413	9.488291	108765184	76165120	25990200	24992
414	10.470219	108765184	76165120	16357416	24992
415	10.533063	108765184	76165120	23120928	24992
416	12.273307	108765184	76165120	14899952	24992
417	11.870871	108765184	76165120	22585256	24992
418	14.357642	108765184	76165120	15452552	24992
419	13.534665	108765184	76165120	24095664	24992
420	15.406672	108765184	76165120	17591464	24992
421	14.986747	108765184	76165120	27199872	24992
422	16.319344	108765184	76165120	21149288	24992
423	17.802635	108765184	76165120	16651080	24992
424	17.571051	108765184	76165120	27716640	24992
425	18.075182	108765184	76165120	23011656	24992
426	20.108744	108765184	76165120	19662600	24992
427	20.811838	108765184	76165120	17353368	24992
428	21.883377	108765184	76165120	15944088	24992
429	22.936574	108765184	76165120	15261944	24992
430	21.843223	108765184	76165120	29237464	24992
431	23.080833	108765184	76165120	27249792	24992
432	23.41539	108765184	76165120	26039480	24992
433	25.115158	108765184	76165120	25563624	24992
434	25.77993	108765184	76165120	25649648	24992
435	26.465505	108765184	76165120	26228552	24992
436	27.442197	108765184	76165120	27233432	24992
437	27.371857	108765184	76165120	28512832	24992
438	31.785984	108765184	76165120	16592192	24992
439	32.90938	108765184	76165120	23643080	24992
440	30.704529	108765184	76165120	27672256	24992
441	31.517539	108765184	76165120	31402808	24992
442	34.110851	108765184	76165120	21581608	24992
443	36.415337	108765184	76165120	30589168	24992
444	36.787463	108765184	76165120	23277768	24992
445	38.500593	108765184	76165120	33207968	24992
446	38.923902	108765184	76165120	26983552	24992
447	39.506961	108765184	76165120	37904424	24992
448	39.868716	108765184	76165120	32365552	24992
449	41.746288	108765184	76165120	44290280	24992
450	40.710976	108765184	76165120	39203320	24992
451	46.536003	108765184	76165120	40451312	24992
452	1.750237	108765184	76165120	54136680	24992
453	4.031082	108765184	76165120	39758520	24992
454	3.256366	108765184	76165120	41798856	24992
455	4.24385	108765184	76165120	44351448	24992
456	5.04799	108765184	76165120	47417888	24992
457	5.780813	108765184	76165120	50998624	24992
458	6.811195	108765184	76165120	55094504	24992
459	8.297259	108765184	76165120	43327968	24992
460	9.943518	108765184	76165120	48457912	24992
461	14.104598	108765184	76165120	54106024	24992
462	14.881363	108765184	76165120	15976128	24992
463	10.184094	108765184	76165120	22681216	24992
464	12.712086	108765184	76165120	15357048	24992
465	11.838892	108765184	76165120	23163632	24992
466	14.067673	108765184	76165120	16551536	24992
467	13.602932	108765184	76165120	25328864	24992
468	15.579655	108765184	76165120	18934616	24992
469	14.955026	108765184	76165120	28917072	24992
470	15.965819	108765184	76165120	22984416	24992
471	18.440149	108765184	76165120	18674424	24992
472	19.298702	108765184	76165120	15551192	24992
473	18.410678	108765184	76165120	27496232	24992
474	20.220433	108765184	76165120	23932264	24992
475	21.096398	108765184	76165120	21523768	24992
476	22.543146	108765184	76165120	20080960	24992
477	23.311362	108765184	76165120	19487728	24992
478	24.537886	108765184	76165120	19589184	24992
479	25.004182	108765184	76165120	20153344	24992
480	25.441263	108765184	76165120	21123192	24992
481	26.78462	108765184	76165120	22558968	24992
482	27.161387	108765184	76165120	24176632	24992
483	28.395069	108765184	76165120	26063240	24992
484	29.161268	108765184	76165120	28139104	24992
485	32.080998	108765184	76165120	17157376	24992
486	33.607418	108765184	76165120	24672904	24992
487	32.999034	108765184	76165120	29318576	24992
488	35.81683	108765184	76165120	20714864	24992
489	36.970844	108765184	76165120	29828336	24992
490	34.065627	108765184	76165120	35813504	24992
491	36.646783	108765184	76165120	28007744	24992
492	39.033112	108765184	76165120	38844584	24992
493	38.691671	108765184	76165120	32828624	24992
494	44.965921	108765184	76165120	33175504	24992
495	41.303964	108765184	76165120	45510576	24992
496	41.281617	108765184	76165120	41037800	24992
497	47.943701	108765184	76165120	42957904	24992
498	54.644026	111198208	78786560	45195616	24992
499	70.5793	113901568	83505152	22278000	24992
500	46.995554	115793920	83505152	36849168	24992
501	44.964479	115793920	83505152	34208024	24992
502	1.721539	115793920	83505152	33372984	24992
503	2.545982	115793920	83505152	35056408	24992
504	3.381811	115793920	83505152	37291832	24992
505	7.481152	115793920	83505152	27840776	24992
506	5.096525	115793920	83505152	31199768	24992
507	6.029854	115793920	83505152	35128392	24992
508	6.816989	115793920	83505152	39614328	24992
509	9.250779	115793920	83505152	29686912	24992
510	8.468048	115793920	83505152	35304912	24992
511	9.335013	115793920	83505152	41489320	24992
512	10.733478	115793920	83505152	31885048	24992
513	11.077932	115793920	83505152	39208800	24992
514	12.54089	115793920	83505152	31141248	24992
515	13.299207	115793920	83505152	39622472	24992
516	14.628104	115793920	83505152	32654512	24992
517	16.174011	115793920	83505152	27453344	24992
518	15.413747	115793920	83505152	37657864	24992
519	17.32221	115793920	83505152	32710952	24992
520	19.088669	115793920	83505152	29234832	24992
521	18.109221	115793920	83505152	41157168	24992
522	19.569111	115793920	83505152	37389176	24992
523	21.341445	115793920	83505152	34844296	24992
524	22.219397	115793920	83505152	33324472	24992
525	23.392959	115793920	83505152	32660136	24992
526	24.527697	115793920	83505152	32686984	24992
527	25.348863	115793920	83505152	33293096	24992
528	26.096558	115793920	83505152	34383128	24992
529	27.190288	115793920	83505152	35840848	24992
530	27.435228	115793920	83505152	37680032	24992
531	28.218269	115793920	83505152	39729392	24992
532	28.705565	115793920	83505152	42038872	24992
533	31.516153	115793920	83505152	31000624	24992
534	31.988702	115793920	83505152	36040384	24992
535	31.956046	115793920	83505152	40769112	24992
536	34.900767	115793920	83505152	31996848	24992
537	38.265494	115793920	83505152	41902168	24992
538	38.391177	115793920	83505152	35345568	24992
539	38.795456	116334592	83505152	46404952	24992
540	39.291975	116334592	83505152	40705344	24992
541	42.118967	116334592	83505152	53008504	24992
542	41.447394	116334592	83505152	47854248	24992
543	43.301401	116334592	83505152	44523112	24992
544	47.531264	116334592	83505152	46828992	24992
545	44.074501	116334592	83505152	61259136	24992
546	44.153823	116334592	83505152	58258960	24992
547	45.789127	116334592	83505152	56739592	24992
548	57.925361	120659968	88223744	61483552	24992
549	68.947386	116006912	85602304	34234096	24992
550	58.191057	117895168	85602304	27530256	24992
551	55.631754	117895168	85602304	33845272	24992
552	1.873286	118706176	86126592	41410216	24992
553	2.773372	118706176	86126592	43233272	24992
554	3.623604	118706176	86126592	45664368	24992
555	4.499836	118706176	86126592	48704496	24992
556	8.955424	118706176	86126592	39270824	24992
557	6.539631	118706176	86126592	43555112	24992
558	7.424538	118706176	86126592	48452272	24992
559	9.674944	118706176	86126592	38861992	24992
560	9.354818	118706176	86126592	45007512	24992
561	10.466318	118706176	86126592	51776968	24992
562	11.676948	118706176	86126592	43004848	24992
563	12.008706	118706176	86126592	51035640	24992
564	13.727915	118706176	86126592	43633104	24992
565	14.023287	118706176	86126592	52908472	24992
566	15.339472	118706176	86126592	46454952	24992
567	17.243301	118706176	86126592	41723080	24992
568	16.920017	118706176	86126592	52892256	24992
569	18.146822	118706176	86126592	48341624	24992
570	20.180327	118706176	86126592	45155744	24992
571	21.92595	118706176	86126592	43222624	24992
572	22.7394	118706176	86126592	42241200	24992
573	23.642873	118706176	86126592	42093376	24992
574	24.526904	118706176	86126592	42642904	24992
575	25.805973	118706176	86126592	43675848	24992
576	26.195376	118706176	86126592	45148968	24992
577	27.258497	118706176	86126592	47031656	24992
578	28.320055	118706176	86126592	49241784	24992
579	28.722746	118706176	86126592	51644192	24992
580	32.672751	118706176	86126592	40975824	24992
581	35.013278	118706176	86126592	49033832	24992
582	32.750316	118706176	86126592	54077192	24992
583	35.590978	118706176	86126592	45614024	24992
584	37.503289	118706176	86126592	55658624	24992
585	38.737796	118706176	86126592	49380440	24992
586	39.56189	118706176	86126592	60645696	24992
587	41.140245	118706176	86126592	55233144	24992
588	58.361418	122220544	89796608	56143968	24992
589	58.880854	120434688	87699456	25335376	24992
590	44.437413	120434688	87699456	39068408	24992
591	43.750442	120434688	87699456	35568448	24992
592	53.098646	120434688	87699456	39090888	24992
593	52.00569	120434688	87699456	42881632	24992
594	52.521701	120434688	87699456	47512680	24992
595	52.503251	120434688	87699456	52729688	24992
596	53.277462	120434688	87699456	58533920	24992
597	56.253909	122327040	89796608	65038664	24992
598	83.027001	121057280	90320896	26583488	24992
599	56.033388	122945536	90320896	33630288	24992
600	58.645478	122945536	90320896	42128704	24992
601	63.933712	122945536	90320896	39696656	24992
602	2.041709	122945536	90320896	50079816	24992
603	3.027462	122945536	90320896	52073080	24992
604	4.041113	122945536	90320896	54725736	24992
605	8.399841	122945536	90320896	45338424	24992
606	6.154872	122945536	90320896	49324400	24992
607	7.395971	122945536	90320896	53979824	24992
608	8.086378	122945536	90320896	59299872	24992
609	10.179165	122945536	90320896	49860064	24992
610	10.140849	122945536	90320896	56520592	24992
611	12.018421	122945536	90320896	48122088	24992
612	12.354703	122945536	90320896	56138328	24992
613	14.141713	122945536	90320896	49135232	24992
614	14.800559	122945536	90320896	58506656	24992
615	15.985247	122945536	90320896	52440248	24992
616	17.886399	122945536	90320896	48174232	24992
617	17.280684	122945536	90320896	59560112	24992
618	18.871355	122945536	90320896	55384808	24992
619	20.677248	122945536	90320896	52576592	24992
620	21.824524	122945536	90320896	50977184	24992
621	23.643492	122945536	90320896	50400064	24992
622	24.112603	122945536	90320896	50603928	24992
623	25.524104	122945536	90320896	51467312	24992
624	26.585306	122945536	90320896	52780864	24992
625	27.349042	122945536	90320896	54554376	24992
626	28.493385	122945536	90320896	56732120	24992
627	29.168996	122945536	90320896	59166672	24992
628	32.845911	122945536	90320896	48666728	24992
629	34.59028	122945536	90320896	56991432	24992
630	32.859464	122945536	90320896	62215464	24992
631	35.176605	122945536	90320896	53824656	24992
632	37.267216	122945536	90320896	64153152	24992
633	38.714259	122945536	90320896	58043768	24992
634	41.862253	123756544	91369472	69747040	24992
635	56.576892	124297216	91893760	64418128	24992
636	44.989441	120229888	87699456	27073456	24992
637	43.383421	120229888	87699456	23772712	24992
638	49.853148	120229888	87699456	26531096	24992
639	50.324342	120229888	87699456	29905352	24992
640	50.754751	120229888	87699456	33963408	24992
641	52.480523	120770560	88223744	38698448	24992
642	53.91459	120770560	88223744	44157040	24992
643	54.979052	120770560	88223744	50315416	24992
644	72.295314	123744256	91369472	57138712	24992
645	65.07747	120934400	88748032	34736184	24992
646	57.381801	120934400	88748032	43018192	24992
647	64.75186	120934400	88748032	40325968	24992
648	59.845175	120934400	88748032	49999128	24992
649	60.609817	121475072	88748032	60351360	24992
650	66.368669	121475072	88748032	59780600	24992
651	66.331404	125259776	92942336	71618176	24992
652	5.727774	125243392	92942336	25738624	24992
653	3.254894	125243392	92942336	27874832	24992
654	4.775726	125243392	92942336	30722432	24992
655	5.549846	125243392	92942336	34284064	24992
656	9.951748	125243392	92942336	25464288	24992
657	7.570805	125243392	92942336	30457368	24992
658	8.919578	125243392	92942336	36188784	24992
659	11.200374	125243392	92942336	27032840	24992
660	11.039602	125243392	92942336	34194304	24992
661	13.2416	125243392	92942336	26895536	24992
662	13.330559	125243392	92942336	35491032	24992
663	15.54663	125243392	92942336	29410096	24992
664	15.48435	125243392	92942336	39449136	24992
665	17.308921	125243392	92942336	34052176	24992
666	19.544573	125243392	92942336	30414680	24992
667	20.706911	125243392	92942336	28098184	24992
668	20.413453	125243392	92942336	41057624	24992
669	21.471591	125243392	92942336	38294688	24992
670	23.209861	125243392	92942336	36863864	24992
671	24.980702	125243392	92942336	36351192	24992
672	25.898314	125243392	92942336	36697464	24992
673	26.715353	125243392	92942336	37651016	24992
674	28.019207	125243392	92942336	39208680	24992
675	28.872473	125243392	92942336	41247432	24992
676	32.217755	125243392	92942336	30094056	24992
677	32.978376	125243392	92942336	35266968	24992
678	32.864127	125243392	92942336	40282840	24992
679	35.896766	125243392	92942336	31790056	24992
680	38.001268	125243392	92942336	42311672	24992
681	39.32602	125243392	92942336	36213208	24992
682	40.744221	125243392	92942336	48208504	24992
683	41.150425	125243392	92942336	42998552	24992
684	43.425532	125243392	92942336	39815024	24992
685	50.332198	125243392	92942336	42308840	24992
686	45.365757	125243392	92942336	56923736	24992
687	46.170884	125513728	92942336	54429472	24992
688	47.164946	125513728	92942336	53400568	24992
689	54.884836	125513728	92942336	58950928	24992
690	55.763991	125513728	92942336	65050456	24992
691	65.770134	126054400	93466624	71924352	24992
692	73.560935	126373888	93990912	31140112	24992
693	58.373944	126373888	93990912	39624328	24992
694	64.983299	126373888	93990912	37162416	24992
695	59.457975	126373888	93990912	46892576	24992
696	66.530716	127184896	94515200	45857096	24992
697	62.673145	127184896	94515200	57200088	24992
698	81.579779	130428928	98185216	57760296	24992
699	79.552141	121454592	89272320	25256592	24992
700	67.334943	121454592	89272320	38764168	24992
701	71.390534	121454592	89272320	41593368	24992
702	2.358824	121995264	89272320	45946288	24992
703	3.481378	121995264	89272320	48231368	24992
704	4.621601	121995264	89272320	51283792	24992
705	5.701185	121995264	89272320	55089816	24992
706	9.954251	122535936	89796608	46213280	24992
707	8.265182	122535936	89796608	51562840	24992
708	9.660016	122535936	89796608	57683216	24992
709	11.702967	122535936	89796608	48644176	24992
710	11.837609	122535936	89796608	56284168	24992
711	13.762735	122535936	89796608	48958504	24992
712	14.167046	122535936	89796608	58148048	24992
713	16.033315	122535936	89796608	52025944	24992
714	17.804246	122535936	89796608	47770256	24992
715	18.078908	122535936	89796608	59278480	24992
716	19.36079	122535936	89796608	55258600	24992
717	21.133194	122535936	89796608	52799440	24992
718	22.240107	122535936	89796608	51513744	24992
719	23.845856	122535936	89796608	51298800	24992
720	25.324254	122535936	89796608	51899352	24992
721	26.451881	122535936	89796608	53095984	24992
722	27.612121	122535936	89796608	54946888	24992
723	28.95437	122535936	89796608	57158816	24992
724	29.969501	122535936	89796608	59770584	24992
725	33.106965	122535936	89796608	49338264	24992
726	33.108925	122535936	89796608	54989992	24992
727	33.42773	122535936	89796608	60421024	24992
728	36.504178	122535936	89796608	52130304	24992
729	36.763455	122535936	89796608	59713376	24992
730	39.714884	122535936	89796608	53319296	24992
731	42.540129	122535936	89796608	49850032	24992
732	42.963188	122535936	89796608	63205952	24992
733	46.691764	122806272	90320896	59489072	24992
734	66.757853	114761728	84029440	30962160	24992
735	51.80618	116649984	84029440	34383304	24992
736	54.250951	116649984	84029440	39229824	24992
737	53.692003	116649984	84029440	44855816	24992
738	54.823635	116649984	84029440	51356624	24992
739	60.899711	116649984	84029440	47064016	24992
740	58.629481	117190656	84553728	55147400	24992
741	81.681154	122056704	89796608	64101112	24992
742	67.779759	123068416	90845184	29933816	24992
743	62.867653	123068416	90845184	40355248	24992
744	68.196167	123068416	90845184	40086328	24992
745	64.66081	123068416	90845184	52145160	24992
746	68.687617	123609088	91369472	53523296	24992
747	66.090357	124149760	91369472	67022256	24992
748	95.763297	119226368	89272320	22471736	24992
749	70.419118	121655296	89272320	36488328	24992
750	76.750113	121655296	89272320	40908224	24992
751	75.736456	121655296	89272320	46390208	24992
752	2.406938	121655296	89272320	53278376	24992
753	3.716236	121655296	89272320	55740152	24992
754	4.982619	121655296	89272320	58977872	24992
755	9.397829	122466304	89796608	50160144	24992
756	7.501641	122466304	89796608	55043680	24992
757	8.930881	122466304	89796608	60719856	24992
758	11.414462	122466304	89796608	51997352	24992
759	11.253935	122466304	89796608	59327512	24992
760	13.306743	122466304	89796608	51614016	24992
761	13.792196	122466304	89796608	60566336	24992
762	15.439405	122466304	89796608	54283664	24992
763	17.788837	122466304	89796608	50002408	24992
764	17.361677	122466304	89796608	61427888	24992
765	19.135585	122466304	89796608	57464832	24992
766	21.515205	122466304	89796608	55091184	24992
767	23.065487	122466304	89796608	53929800	24992
768	24.176921	122466304	89796608	53781680	24992
769	26.794827	122466304	89796608	54494944	24992
770	26.944005	122466304	90320896	55912752	24992
771	28.446859	122466304	90320896	57991960	24992
772	29.187929	122466304	90320896	60477960	24992
773	32.834003	123006976	90320896	50242256	24992
774	36.984119	123006976	90320896	58698216	24992
775	37.361735	123006976	90320896	64151320	24992
776	48.055078	115216384	82456576	24745448	24992
777	43.980884	115216384	82456576	23315296	24992
778	40.287167	115216384	82456576	34743152	24992
779	41.472103	115216384	82456576	29623968	24992
780	43.188898	115216384	82456576	26624960	24992
781	48.565478	115216384	82456576	29273416	24992
782	44.873245	115216384	82456576	44127984	24992
783	46.83075	115216384	82456576	41801840	24992
784	47.693766	115216384	82456576	41013536	24992
785	54.801483	115216384	82456576	47104984	24992
786	58.042184	115216384	82456576	53707392	24992
787	85.843026	113184768	82980864	24560632	24992
788	58.895006	115617792	82980864	32733072	24992
789	60.123552	115617792	82980864	41984176	24992
790	65.142247	115617792	82980864	40476720	24992
791	62.073061	115617792	82980864	51416672	24992
792	64.496209	115617792	82980864	63151248	24992
793	72.222446	122916864	90845184	64135408	24992
794	95.907499	120573952	90845184	32681992	24992
795	74.568795	123273216	90845184	34694616	24992
796	71.916074	123273216	90845184	38306672	24992
797	69.87785	123273216	90845184	54369144	24992
798	75.750775	123273216	90845184	59621760	24992
799	75.740485	124084224	91369472	65810600	24992
800	102.512685	120041472	90320896	24604192	24992
801	83.284153	122470400	90320896	31169528	24992
802	2.865925	122470400	90320896	40720120	24992
803	3.960673	122470400	90320896	43293536	24992
804	5.210294	122470400	90320896	46726224	24992
805	9.342109	122470400	90320896	38082376	24992
806	7.86363	122470400	90320896	43237944	24992
807	9.248864	122470400	90320896	49266816	24992
808	11.534832	122470400	90320896	40753648	24992
809	11.91607	122470400	90320896	48503144	24992
810	14.088491	122470400	90320896	41093760	24992
811	14.683974	122470400	90320896	50585024	24992
812	15.971307	122470400	90320896	44580248	24992
813	18.837809	122470400	90320896	40573840	24992
814	20.306616	122470400	90320896	38064824	24992
815	20.52716	122470400	90320896	51034104	24992
816	21.676063	122470400	90320896	48405024	24992
817	23.574994	122470400	90320896	47103464	24992
818	25.674508	122470400	90320896	46996136	24992
819	26.838214	122470400	90320896	47790904	24992
820	27.946708	122470400	90320896	49357880	24992
821	32.232476	122470400	90320896	38224808	24992
822	34.85237	122470400	90320896	46153016	24992
823	33.263291	122470400	90320896	51198976	24992
824	36.979207	122470400	90320896	43145184	24992
825	39.079523	122470400	90320896	53672464	24992
826	40.21305	122470400	90320896	48006024	24992
827	43.189791	122470400	90320896	60245208	24992
828	42.051466	122470400	90320896	55477952	24992
829	44.508137	123011072	90320896	52983304	24992
830	55.653406	123281408	90845184	56292672	24992
831	68.572032	120082432	89796608	27888256	24992
832	51.416162	122511360	89796608	32053016	24992
833	53.473678	122511360	89796608	37819816	24992
834	54.358876	122511360	89796608	44529472	24992
835	56.672842	122511360	89796608	52082648	24992
836	62.494089	122511360	89796608	49101128	24992
837	58.865112	122511360	89796608	58406488	24992
838	72.543363	123592704	91369472	68660600	24992
839	81.22843	125116416	92942336	34402312	24992
840	67.922988	125116416	92942336	35348616	24992
841	70.032161	125116416	92942336	36787904	24992
842	67.429179	125116416	92942336	50805728	24992
843	75.087106	125116416	92942336	54079408	24992
844	80.388929	125116416	92942336	58379848	24992
845	95.278119	121876480	89272320	30982800	24992
846	76.152271	121876480	89272320	37060184	24992
847	77.148022	121876480	89272320	44116048	24992
848	77.618381	121876480	89272320	52020608	24992
849	79.190204	122146816	89796608	60784408	24992
850	106.81149	123011072	92942336	23640416	24992
851	86.595602	125440000	92942336	33303640	24992
852	2.812153	125440000	92942336	45739320	24992
853	7.745637	125440000	92942336	36679448	24992
854	5.768744	125440000	92942336	40420832	24992
855	6.952477	125440000	92942336	45101640	24992
856	8.806024	125440000	92942336	50713664	24992
857	11.688211	125440000	92942336	42457768	24992
858	11.308679	125440000	92942336	49968352	24992
859	13.29644	125440000	92942336	42448320	24992
860	14.44593	125440000	92942336	51828304	24992
861	15.999408	125440000	92942336	45821704	24992
862	18.076926	125440000	92942336	41800120	24992
863	20.335694	125440000	92942336	39485536	24992
864	21.496336	125440000	92942336	38483848	24992
865	23.228784	125440000	92942336	38621760	24992
866	24.818701	125440000	92942336	39669920	24992
867	26.203465	125440000	92942336	41533280	24992
868	27.546093	125440000	92942336	43994608	24992
869	29.171462	125440000	92942336	46939712	24992
870	30.386718	125440000	92942336	50288160	24992
871	33.787392	125440000	92942336	40815112	24992
872	35.657558	125440000	92942336	50267368	24992
873	37.952103	125440000	92942336	43955408	24992
874	38.514162	125440000	92942336	55223024	24992
875	40.468626	125440000	92942336	50359800	24992
876	44.548455	125440000	92942336	51915624	24992
877	44.279444	125440000	92942336	65807608	24992
878	57.425546	125440000	92942336	62960424	24992
879	53.306368	122519552	89796608	29735104	24992
880	51.205884	122519552	89796608	34989696	24992
881	54.567618	122519552	89796608	41073320	24992
882	58.96679	122519552	89796608	36655880	24992
883	55.418307	122519552	89796608	44683456	24992
884	57.132054	122519552	89796608	53886032	24992
885	74.713553	124141568	91893760	52301000	24992
886	72.135889	117936128	85602304	32429064	24992
887	66.4788	117936128	85602304	32963360	24992
888	63.54059	117936128	85602304	45821664	24992
889	69.115885	117936128	85602304	48118704	24992
890	72.188459	117936128	85602304	51425344	24992
891	82.842204	121991168	89272320	55684648	24992
892	84.949204	120803328	88223744	28635464	24992
893	73.105687	120803328	88223744	34805088	24992
894	76.032947	120803328	88223744	41984680	24992
895	77.326404	120803328	88223744	50085528	24992
896	80.13516	120803328	88223744	59203096	24992
897	113.579234	120094720	89796608	38040168	24992
898	85.022659	121982976	89796608	37012592	24992
899	83.566504	121982976	89796608	49057024	24992
900	87.516239	122253312	89796608	62055240	24992
901	91.975818	125227008	92942336	64567968	24992
902	3.359537	121974784	91893760	30881984	24992
903	4.435796	121974784	91893760	33828120	24992
904	8.631245	124403712	91893760	23695456	24992
905	7.654178	124403712	91893760	28609840	24992
906	8.943651	124403712	91893760	34524632	24992
907	12.418126	124403712	91893760	26788440	24992
908	11.918499	124403712	91893760	34671416	24992
909	14.203614	124403712	91893760	27608656	24992
910	16.441499	124403712	91893760	22738952	24992
911	16.489091	124403712	91893760	33620432	24992
912	19.094042	124403712	91893760	29719728	24992
913	20.996481	124403712	91893760	27505408	24992
914	22.857042	124403712	91893760	26614760	24992
915	24.941934	124403712	91893760	26867656	24992
916	25.63929	124403712	91893760	28126984	24992
917	27.722483	124403712	91893760	30233888	24992
918	28.444581	124403712	91893760	32889136	24992
919	29.639161	124403712	91893760	36104880	24992
920	32.51402	124403712	91893760	26394904	24992
921	36.909059	124403712	91893760	36045336	24992
922	37.554603	124403712	91893760	29807256	24992
923	39.206064	124403712	91893760	41207264	24992
924	40.874565	124403712	91893760	36354664	24992
925	46.795706	124403712	91893760	38275072	24992
926	44.047734	124403712	91893760	52604448	24992
927	44.09616	124403712	91893760	49924776	24992
928	46.144727	124403712	91893760	48859880	24992
929	52.21508	124403712	91893760	54888560	24992
930	53.299307	124403712	91893760	61667528	24992
931	72.766373	125214720	92942336	57858584	24992
932	62.702276	122568704	90320896	32063504	24992
933	62.964243	122568704	90320896	30491880	24992
934	60.258919	122568704	90320896	41159944	24992
935	66.113745	122568704	90320896	41455192	24992
936	62.909347	122568704	90320896	54162872	24992
937	75.988245	124190720	91893760	56439008	24992
938	90.951443	121962496	89272320	28371656	24992
939	74.165096	121962496	89272320	32805624	24992
940	70.265126	121962496	89272320	49565848	24992
941	75.448575	121962496	89272320	55807272	24992
942	76.783829	121962496	89272320	63428240	24992
943	86.746186	124665856	92418048	72174352	24992
944	98.228651	124420096	91893760	34129744	24992
945	80.979096	124420096	91893760	44630312	24992
946	92.022932	124420096	91893760	44781064	24992
947	83.799145	124420096	91893760	57189000	24992
948	94.762709	126042112	93466624	71076280	24992
949	109.822671	121667584	89272320	39547272	24992
950	93.247788	121667584	89272320	43694904	24992
951	94.022913	121667584	89272320	48798944	24992
952	6.853188	122478592	89796608	55893824	24992
953	5.030096	122478592	89796608	58989080	24992
954	6.600259	122478592	89796608	63117888	24992
955	8.144396	122478592	89796608	68288184	24992
956	14.671529	124370944	91893760	60314776	24992
957	11.72952	124370944	91893760	67623848	24992
958	21.792631	124370944	91893760	60158648	24992
959	21.503948	116547584	84553728	21742064	24992
960	17.4584	116813824	84553728	17052960	24992
961	17.484328	116813824	84553728	28435640	24992
962	19.364557	116813824	84553728	24650368	24992
963	21.47626	116813824	84553728	22569376	24992
964	23.972478	116813824	84553728	21870872	24992
965	25.487138	116813824	84553728	22428536	24992
966	26.785298	116813824	84553728	23834392	24992
967	28.539755	116813824	84553728	26214072	24992
968	29.570772	116813824	84553728	29294032	24992
969	33.311228	116813824	84553728	19321896	24992
970	34.281286	116813824	84553728	25633192	24992
971	37.170693	116813824	84553728	18911816	24992
972	39.7404	116813824	84553728	30537888	24992
973	40.462481	116813824	84553728	25788896	24992
974	45.839736	116813824	84553728	27842440	24992
975	49.382904	116813824	84553728	30827208	24992
976	46.198524	116813824	84553728	46497680	24992
977	46.21049	116813824	84553728	44710592	24992
978	47.663025	116813824	84553728	44644240	24992
979	55.191779	116813824	84553728	51887696	24992
980	68.544774	117354496	85078016	48619032	24992
981	79.493149	113778688	83505152	31650216	24992
982	62.78027	115671040	83505152	30247192	24992
983	61.792668	115671040	83505152	41729576	24992
984	65.769164	115671040	83505152	42744072	24992
985	65.363113	115671040	83505152	56187496	24992
986	72.728629	119185408	86650880	59235976	24992
987	95.922119	126484480	93990912	63335400	24992
988	77.144723	122966016	90320896	33639088	24992
989	74.965176	122966016	90320896	39764440	24992
990	78.704758	122966016	90320896	47047288	24992
991	81.393377	122966016	90320896	55519872	24992
992	84.703791	122966016	90320896	64963824	24992
993	114.122343	122339328	89796608	32324064	24992
994	81.519264	122339328	89796608	44188352	24992
995	87.328832	122339328	89796608	45254496	24992
996	86.184103	122339328	89796608	59022280	24992
997	95.352552	127205376	95039488	62384840	24992
998	126.740017	127414272	95039488	32726376	24992
999	94.568448	127414272	95039488	49821456	24992
1000	96.693454	127414272	95039488	56348984	24992
