x	Duration	RSS	HeapTotal	HeapUsed	External
0	NA	107380736	75116544	11876176	24992
1	0.296202	107380736	75116544	11924648	24992
2	0.232339	107380736	75116544	11996240	24992
3	0.272147	107380736	75116544	12092992	24992
4	0.325853	107380736	75116544	12216088	24992
5	0.386374	107380736	75116544	12366976	24992
6	0.466798	107380736	75116544	12546440	24992
7	0.521355	107380736	75116544	12755288	24992
8	0.611038	107380736	75116544	12994688	24992
9	0.677979	107380736	75116544	13266184	24992
10	1.099282	107380736	75116544	13569976	24992
11	0.833184	107380736	75116544	13906872	24992
12	0.982032	107380736	75116544	14282280	24992
13	0.979145	107380736	75116544	14689648	24992
14	1.317965	107380736	75116544	15133360	24992
15	2.348932	107380736	75116544	15614576	24992
16	1.279472	107380736	75116544	16139384	24992
17	1.021811	107380736	75116544	16700064	24992
18	1.264334	107380736	75116544	17301344	24992
19	1.185622	107380736	75116544	17944496	24992
20	1.287417	107380736	75116544	18629424	24992
21	1.482024	107380736	75116544	19357368	24992
22	1.40722	107380736	75116544	20129184	24992
23	1.47538	107380736	75116544	20945928	24992
24	2.150047	107380736	75116544	21809088	24992
25	1.588521	107380736	75116544	22720088	24992
26	2.328708	107380736	75116544	23677456	24992
27	1.756282	107380736	75116544	24684376	24992
28	1.830766	107380736	75116544	25741864	24992
29	1.893412	107380736	75116544	26850832	24992
30	2.709087	107380736	75116544	28023752	24992
31	2.888545	107380736	75116544	12974960	24992
32	2.216341	107380736	75116544	14247184	24992
33	2.578231	107380736	75116544	15580448	24992
34	2.46588	107380736	75116544	16967712	24992
35	2.408972	107380736	75116544	18412072	24992
36	2.500241	107380736	75116544	19914448	24992
37	2.855457	107380736	75116544	21475688	24992
38	2.667882	107380736	75116544	23096832	24992
39	3.301588	107380736	75116544	24780920	24992
40	2.863819	107380736	75116544	26524840	24992
41	3.064573	107380736	75116544	28332136	24992
42	4.593098	107380736	75116544	14048680	24992
43	3.146467	107380736	75116544	15983000	24992
44	3.757198	107380736	75116544	17983488	24992
45	3.456854	107380736	75116544	20060200	24992
46	3.470046	107380736	75116544	22194160	24992
47	3.598136	107380736	75116544	24396424	24992
48	3.69029	107380736	75116544	26667744	24992
49	4.163254	107380736	75116544	29009008	24992
50	6.946506	107380736	75116544	15174968	24992
51	4.054215	107380736	75116544	17661960	24992
52	0.26757	107380736	75116544	20129984	24992
53	0.479344	107380736	75116544	20356904	24992
54	0.545545	107380736	75116544	20660960	24992
55	0.659701	107380736	75116544	21043032	24992
56	0.958108	107380736	75116544	21505104	24992
57	0.885256	107380736	75116544	22044800	24992
58	1.073905	107380736	75116544	22664824	24992
59	1.144058	107380736	75116544	23366176	24992
60	1.46028	107380736	75116544	24150792	24992
61	1.412845	107380736	75116544	25018672	24992
62	1.544232	107380736	75116544	25970600	24992
63	1.673184	107380736	75116544	27007616	24992
64	1.821971	107380736	75116544	28130592	24992
65	1.948385	107380736	75116544	29340568	24992
66	3.268231	107380736	75116544	14600336	24992
67	2.239609	107380736	75116544	15986800	24992
68	2.386663	107380736	75116544	17464856	24992
69	2.728078	107380736	75116544	19033456	24992
70	2.668955	107380736	75116544	20693944	24992
71	3.28044	107380736	75116544	22448408	24992
72	2.970824	107380736	75116544	24294808	24992
73	3.126485	107380736	75116544	26235592	24992
74	3.466993	107380736	75116544	28271472	24992
75	4.730156	107380736	75116544	14658760	24992
76	4.016718	107380736	75116544	16888000	24992
77	4.051166	107380736	75116544	19215216	24992
78	3.952045	107380736	75116544	21642208	24992
79	4.307941	107380736	75116544	24169416	24992
80	4.405752	107380736	75116544	26796896	24992
81	4.559838	107380736	75116544	29526592	24992
82	5.622432	107380736	75116544	16417200	24992
83	5.043515	107380736	75116544	19357552	24992
84	4.867732	107380736	75116544	22405096	24992
85	5.297086	107380736	75116544	25557240	24992
86	5.244892	107380736	75116544	28815808	24992
87	6.730677	107380736	75116544	16322696	24992
88	6.369679	107380736	75116544	19805384	24992
89	5.975384	107380736	75116544	23388880	24992
90	6.33206	107380736	75116544	27086808	24992
91	6.302805	107380736	75116544	30891536	24992
92	7.86778	107380736	75116544	18688992	24992
93	7.153384	107380736	75116544	22728120	24992
94	7.028746	107380736	75116544	26873888	24992
95	7.251508	107380736	75116544	31134320	24992
96	8.264925	107380736	75116544	19416688	24992
97	7.401022	107380736	75116544	23910272	24992
98	7.490464	107380736	75116544	28520064	24992
99	9.057858	107380736	75116544	17536720	24992
100	8.305988	107380736	75116544	22388336	24992
101	8.126489	107380736	75116544	27356144	24992
102	0.461946	107380736	75116544	16901792	24992
103	0.664847	107380736	75116544	17268136	24992
104	0.874773	107380736	75116544	17761600	24992
105	1.106408	107380736	75116544	18383288	24992
106	1.303513	107380736	75116544	19134568	24992
107	1.521135	107380736	75116544	20015800	24992
108	1.714637	107380736	75116544	21027992	24992
109	1.836962	107380736	75116544	22171984	24992
110	2.052023	107380736	75116544	23449840	24992
111	2.251673	107380736	75116544	24861464	24992
112	2.677266	107380736	75116544	26407640	24992
113	2.7272	107380736	75116544	28091008	24992
114	2.950254	107380736	75116544	29909248	24992
115	3.131589	107380736	75116544	31867056	24992
116	5.430619	107380736	75116544	17861488	24992
117	3.649686	107380736	75116544	20103280	24992
118	3.97138	107380736	75116544	22480120	24992
119	3.996442	107380736	75116544	24998080	24992
120	4.214806	107380736	75116544	27656896	24992
121	4.628924	107380736	75116544	30458816	24992
122	6.120837	107380736	75116544	17489888	24992
123	5.113169	107380736	75116544	20581528	24992
124	5.307544	107380736	75116544	23818552	24992
125	5.389327	107380736	75116544	27203424	24992
126	5.61112	107380736	75116544	30734368	24992
127	7.132845	107380736	75116544	18454656	24992
128	6.092659	107380736	75116544	22287096	24992
129	6.526984	107380736	75116544	26270008	24992
130	6.558557	107380736	75116544	30402008	24992
131	8.575944	107380736	75116544	18791008	24992
132	7.436084	107380736	75116544	23227736	24992
133	7.495633	107380736	75116544	27821520	24992
134	7.836866	107380736	75116544	32573320	24992
135	9.521804	107380736	75116544	21330560	24992
136	8.085652	107380736	75116544	26397256	24992
137	8.616031	107380736	75116544	31624584	24992
138	10.16404	107380736	75116544	21008696	24992
139	9.557407	107380736	75116544	26550104	24992
140	9.132479	107380736	75116544	32252296	24992
141	11.217846	107380736	75116544	22035448	24992
142	9.948401	107380736	75116544	28064224	24992
143	11.515763	107380736	75116544	18778992	24992
144	10.835418	107380736	75116544	25133104	24992
145	10.653437	107380736	75116544	31652296	24992
146	12.320917	107380736	75116544	22373368	24992
147	11.166684	107380736	75116544	29228008	24992
148	13.591052	107380736	75116544	20691808	24992
149	11.845355	107380736	75116544	27884272	24992
150	14.127809	107380736	75116544	19858912	24992
151	12.191634	107380736	75116544	27389688	24992
152	0.638529	107380736	75116544	18884504	24992
153	0.937182	107380736	75116544	19402992	24992
154	1.169072	107380736	75116544	20095032	24992
155	1.409613	107380736	75116544	20961472	24992
156	1.737292	107380736	75116544	22004032	24992
157	1.966816	107380736	75116544	23222864	24992
158	2.360052	107380736	75116544	24618952	24992
159	2.538282	107380736	75116544	26193232	24992
160	3.01947	107380736	75116544	27947592	24992
161	3.401528	107380736	75116544	29882040	24992
162	3.659467	107380736	75116544	31997464	24992
163	3.917424	107380736	75116544	34294776	24992
164	5.60173	107380736	75116544	20631264	24992
165	4.408665	107380736	75116544	23295304	24992
166	4.911596	107380736	75116544	26144000	24992
167	4.889357	107380736	75116544	29183272	24992
168	5.443105	107380736	75116544	32406040	24992
169	7.090153	107380736	75116544	19926256	24992
170	5.806485	107380736	75116544	23526008	24992
171	6.087435	107380736	75116544	27318256	24992
172	6.599965	107380736	75116544	31302448	24992
173	8.537361	107380736	75116544	19750256	24992
174	7.740843	107380736	75116544	24112080	24992
175	7.554116	107380736	75116544	28669512	24992
176	7.662136	107380736	75116544	33423536	24992
177	9.602458	107380736	75116544	22349712	24992
178	8.498485	107380736	75116544	27494992	24992
179	8.623815	107380736	75116544	32835080	24992
180	11.265684	107380736	75116544	22456488	24992
181	9.530307	107380736	75116544	28190760	24992
182	9.569727	107380736	75116544	34123408	24992
183	11.974872	107380736	75116544	24160136	24992
184	10.456027	107380736	75116544	30507968	24992
185	12.502394	107380736	75116544	21493424	24992
186	11.096328	107380736	75116544	28240208	24992
187	11.643003	107380736	75116544	35192488	24992
188	13.089551	107380736	75116544	26141944	24992
189	12.206129	107380736	75116544	33504312	24992
190	14.59571	107380736	75116544	25129144	24992
191	12.886346	107380736	75116544	32906416	24992
192	14.884598	107380736	75116544	25057328	24992
193	13.318176	107380736	75116544	33254744	24992
194	15.907381	107380736	75116544	25804872	24992
195	14.355506	107380736	75116544	34428800	24992
196	16.448241	107380736	75116544	27233368	24992
197	14.984229	107380736	75116544	36278248	24992
198	16.992427	107380736	75116544	29274496	24992
199	17.645974	107380736	75116544	23516064	24992
200	16.641019	107380736	75116544	33210272	24992
201	18.204566	107380736	75116544	27329752	24992
202	2.199424	107380736	75116544	21302032	24992
203	1.120115	107380736	75116544	21960160	24992
204	1.440755	107380736	75116544	22838224	24992
205	1.802884	107380736	75116544	23937040	24992
206	2.148203	107380736	75116544	25258168	24992
207	2.520312	107380736	75116544	26802112	24992
208	3.082319	107380736	75116544	28569640	24992
209	3.291295	107380736	75116544	30569992	24992
210	3.60644	107380736	75116544	32805000	24992
211	3.971219	107380736	75116544	35276400	24992
212	6.124529	107380736	75116544	21978480	24992
213	4.86039	107380736	75116544	24920496	24992
214	5.365653	107380736	75116544	28106912	24992
215	5.498758	107380736	75116544	31530560	24992
216	6.026158	107380736	75116544	35187584	24992
217	7.919443	107380736	75116544	23129080	24992
218	6.66554	107380736	75116544	27269600	24992
219	7.17422	107380736	75116544	31652336	24992
220	7.401517	107380736	75116544	36278200	24992
221	9.835748	107380736	75116544	25040048	24992
222	8.507971	107380736	75116544	30154584	24992
223	8.548546	107380736	75116544	35517528	24992
224	10.744731	107380736	75116544	25128256	24992
225	9.323634	107380736	75116544	30983088	24992
226	10.098831	107380736	75116544	37094344	24992
227	11.979463	107380736	75116544	27247064	24992
228	10.527247	107380736	75116544	33852336	24992
229	13.154208	107380736	75116544	24969864	24992
230	11.862011	107380736	75116544	32076608	24992
231	13.988654	107380736	75116544	23960000	24992
232	12.604568	107380736	75116544	31591000	24992
233	14.895322	107380736	75116544	24088104	24992
234	13.229637	107380736	75116544	32220280	24992
235	15.690408	107380736	75116544	25154080	24992
236	14.191896	107380736	75116544	33824304	24992
237	16.219607	107380736	75116544	27065920	24992
238	14.922467	107380736	75116544	36232920	24992
239	16.923763	107380736	75116544	29668552	24992
240	17.944542	107380736	75116544	24305968	24992
241	16.559642	107380736	75116544	34258480	24992
242	18.817568	107380736	75116544	28776112	24992
243	19.528923	107380736	75116544	24356528	24992
244	17.448626	107380736	75116544	35100848	24992
245	19.72086	107380736	75116544	30341536	24992
246	20.582255	107380736	75116544	26527376	24992
247	19.251168	107380736	75116544	38081816	24992
248	21.087112	107380736	75116544	33715712	24992
249	21.902713	107380736	75116544	30258904	24992
250	23.051713	107380736	75116544	27551072	24992
251	23.649505	107380736	75116544	25535944	24992
252	0.914238	107380736	75116544	38588072	24992
253	1.319089	107380736	75116544	39410528	24992
254	3.863116	107380736	75116544	24266968	24992
255	2.410627	107380736	75116544	25642240	24992
256	2.631095	107380736	75116544	27291720	24992
257	3.108677	107380736	75116544	29218360	24992
258	3.521429	107380736	75116544	31423440	24992
259	4.160513	107380736	75116544	33917368	24992
260	4.409357	107380736	75116544	36682528	24992
261	5.030857	107380736	75116544	39728840	24992
262	7.150448	107380736	75116544	26797352	24992
263	5.956523	107380736	75116544	30408312	24992
264	6.20519	107380736	75116544	34311048	24992
265	7.034517	107380736	75116544	38501856	24992
266	9.008464	107380736	75116544	26872536	24992
267	7.601896	107380736	75116544	31627088	24992
268	8.087948	107380736	75116544	36668424	24992
269	10.661062	107380736	75116544	26165336	24992
270	8.965616	107380736	75116544	31786144	24992
271	9.649073	107380736	75116544	37695832	24992
272	11.817607	107380736	75116544	27941648	24992
273	10.556336	107380736	75116544	34434872	24992
274	13.313709	107380736	75116544	25732976	24992
275	11.651056	107380736	75116544	32814280	24992
276	12.01275	107380736	75116544	40189440	24992
277	14.251155	107380736	75116544	31569248	24992
278	13.031938	107380736	75116544	39537744	24992
279	15.224414	107380736	75116544	31609808	24992
280	13.921192	107380736	75116544	40174352	24992
281	16.01689	107380736	75116544	32740568	24992
282	17.337997	107380736	75116544	26709200	24992
283	15.143871	107380736	75116544	36177680	24992
284	18.078097	107380736	75116544	30255664	24992
285	16.567725	107380736	75116544	40339904	24992
286	19.226777	107380736	75116544	34467504	24992
287	19.629899	107380736	75116544	29746664	24992
288	17.861487	107380736	75116544	40747672	24992
289	20.413534	107380736	75116544	35749328	24992
290	22.545203	107380736	75116544	31799680	24992
291	22.168708	107380736	75116544	28697496	24992
292	20.034336	107380736	75116544	40930176	24992
293	23.541316	107380736	75116544	37184360	24992
294	23.394887	107380736	75116544	34293912	24992
295	24.436561	107380736	75116544	32129432	24992
296	24.671897	107380736	75116544	30595600	24992
297	25.344559	107380736	75116544	29650704	24992
298	26.244836	107380736	75116544	29160360	24992
299	26.794162	107380736	75116544	29078312	24992
300	27.113504	107380736	75116544	29343784	24992
301	27.828644	107380736	75116544	29901488	24992
302	1.08348	107380736	75116544	30903024	24992
303	1.573602	107380736	75116544	31866000	24992
304	2.057561	107380736	75116544	33149000	24992
305	2.634278	107380736	75116544	34753912	24992
306	3.155221	107380736	75116544	36689080	24992
307	3.687321	107380736	75116544	38940864	24992
308	4.249629	107380736	75116544	41518040	24992
309	6.898144	107380736	75116544	28269960	24992
310	5.499705	107380736	75116544	31499352	24992
311	6.040097	107380736	75116544	35061464	24992
312	6.609842	107380736	75116544	38946656	24992
313	9.442037	107380736	75116544	27347824	24992
314	7.728063	107380736	75116544	31892296	24992
315	7.916592	107380736	75116544	36768016	24992
316	8.665167	107380736	75116544	41986968	24992
317	11.357062	107380736	75116544	31285008	24992
318	9.853857	107380736	75116544	37162464	24992
319	12.467716	107380736	75116544	27841984	24992
320	11.321895	107380736	75116544	34390568	24992
321	11.351916	107380736	75116544	41283832	24992
322	14.25061	107380736	75116544	32384480	24992
323	12.275576	107380736	75116544	39958024	24992
324	15.201512	107380736	75116544	31967104	24992
325	13.489877	107380736	75116544	40210728	24992
326	16.297893	107380736	75116544	32842528	24992
327	14.798226	107380736	75116544	41773616	24992
328	17.576459	107380736	75116544	34881472	24992
329	18.573607	107380736	75116544	29332392	24992
330	16.151675	107380736	75116544	39291432	24992
331	19.562971	107380736	75116544	33816624	24992
332	20.221574	107380736	75116544	29517816	24992
333	18.356389	107380736	75116544	40516168	24992
334	21.3312	107380736	75116544	35923736	24992
335	22.171753	107380736	75116544	32406352	24992
336	22.473754	107380736	75116544	29745584	24992
337	20.623135	107380736	75116544	42151040	24992
338	23.52939	107380736	75116544	38746800	24992
339	24.319201	107380736	75116544	36227296	24992
340	25.320493	107380736	75116544	34440536	24992
341	25.415905	107380736	75116544	33249520	24992
342	26.736755	107380736	75116544	32628304	24992
343	27.258595	107380736	75116544	32459136	24992
344	27.96395	107380736	75116544	32716808	24992
345	28.599047	107380736	75116544	33305856	24992
346	29.037716	107380736	75116544	34177920	24992
347	30.509163	107380736	75116544	35299984	24992
348	30.73912	107380736	75116544	36596064	24992
349	31.119229	107380736	75116544	38089816	24992
350	30.936794	107380736	75116544	39713312	24992
351	31.398186	107380736	75116544	41483928	24992
352	1.289418	107380736	75116544	43649104	24992
353	1.921315	107380736	75116544	44750936	24992
354	4.791868	107380736	75116544	29953872	24992
355	3.280018	107380736	75116544	31791024	24992
356	3.747348	107380736	75116544	33997920	24992
357	4.215907	107380736	75116544	36574952	24992
358	5.228205	107380736	75116544	39522816	24992
359	5.479883	107380736	75116544	42849600	24992
360	8.357151	107380736	75116544	30513272	24992
361	6.973385	107380736	75116544	34580760	24992
362	7.232698	107380736	75116544	39024576	24992
363	8.042243	107380736	75116544	43847288	24992
364	10.763151	107380736	75116544	32901976	24992
365	9.56976	107380736	75116544	38475280	24992
366	9.643005	107380736	75116544	44436712	24992
367	13.446608	107380736	75116544	34571632	24992
368	10.892141	107380736	75116544	41284512	24992
369	14.835663	107380736	75116544	32641112	24992
370	12.344843	107380736	75116544	40121808	24992
371	15.488207	107380736	75116544	32398056	24992
372	13.58925	107380736	75116544	40644016	24992
373	17.268288	107380736	75116544	33639408	24992
374	14.64704	107380736	75116544	42657096	24992
375	18.13986	107380736	75116544	36128352	24992
376	16.324344	107380736	75116544	45917504	24992
377	19.381731	107380736	75116544	39708368	24992
378	20.83691	107380736	75116544	34792264	24992
379	18.765975	107380736	75116544	45753712	24992
380	21.324548	107380736	75116544	40754672	24992
381	22.564576	107380736	75116544	36876848	24992
382	23.433908	107380736	75116544	33972088	24992
383	24.415281	107380736	75116544	31920952	24992
384	21.698516	107380736	75116544	44853336	24992
385	24.838449	107380736	75116544	41987960	24992
386	25.414957	107380736	75116544	39968280	24992
387	26.359183	107380736	75116544	38596096	24992
388	27.364873	107380736	75116544	37873248	24992
389	27.691355	107380736	75116544	37655808	24992
390	28.627101	107380736	75116544	37900160	24992
391	28.991464	107380736	75116544	38523952	24992
392	29.839763	107380736	75116544	39461552	24992
393	30.595461	107380736	75116544	40690760	24992
394	30.673712	107380736	75116544	42121792	24992
395	31.79153	107380736	75116544	43797800	24992
396	31.89443	107380736	75116544	45598968	24992
397	36.245118	107380736	75116544	33786808	24992
398	35.707287	107380736	75116544	40315416	24992
399	34.708952	107380736	75116544	44290856	24992
400	35.058014	107380736	75116544	48106640	24992
401	39.48721	107380736	75116544	38030632	24992
402	1.445691	107380736	75116544	46520608	24992
403	2.151055	107380736	75116544	47767424	24992
404	2.833054	107380736	75116544	49422504	24992
405	3.433411	107380736	75116544	51492072	24992
406	7.207039	107380736	75116544	38042984	24992
407	5.189372	107380736	75116544	40945000	24992
408	5.753821	107380736	75116544	44266408	24992
409	6.080845	107380736	75116544	48011304	24992
410	6.956411	107380736	75116544	52177072	24992
411	10.268357	107380736	75116544	40559384	24992
412	8.178873	107380736	75116544	45559696	24992
413	8.995413	107380736	75116544	50985600	24992
414	12.355785	107380736	75116544	40825576	24992
415	10.47313	107380736	75116544	47093008	24992
416	14.058113	107380736	75116544	38387440	24992
417	12.140276	107380736	75116544	45511352	24992
418	12.473445	107380736	75116544	53060936	24992
419	15.846611	107380736	75116544	44762264	24992
420	14.103754	107380736	75116544	53203144	24992
421	17.616467	107380736	75116544	45784776	24992
422	18.740884	107380736	75116544	39876816	24992
423	17.338429	107380736	75116544	49652728	24992
424	21.610132	107380736	75116544	44084624	24992
425	23.276135	107380736	75116544	39804112	24992
426	29.106714	107380736	75116544	50932856	24992
427	23.271016	107651072	76165120	26591440	24992
428	20.485548	108462080	76165120	22699520	24992
429	21.115885	108462080	76165120	19844208	24992
430	21.85194	108462080	76165120	17848504	24992
431	23.478909	108462080	76165120	16674104	24992
432	24.716012	108462080	76165120	16155392	24992
433	24.551787	108462080	76165120	16138568	24992
434	25.597436	108462080	76165120	16606824	24992
435	26.3722	108462080	76165120	17462000	24992
436	26.808983	108462080	76165120	18647456	24992
437	28.180591	108462080	76165120	20169352	24992
438	28.442818	108462080	76165120	21907056	24992
439	28.486143	108462080	76165120	23856872	24992
440	29.267274	108462080	76165120	26005240	24992
441	29.678745	108462080	76165120	28306056	24992
442	30.271928	108462080	76165120	30712840	24992
443	32.883873	108462080	76165120	19226480	24992
444	32.267188	108462080	76165120	23951504	24992
445	32.815013	108462080	76165120	28459464	24992
446	35.09332	108462080	76165120	19039144	24992
447	36.981204	108462080	76165120	27780760	24992
448	34.847289	108462080	76165120	33742968	24992
449	36.959343	108462080	76165120	25169256	24992
450	36.581351	108462080	76165120	32295744	24992
451	38.555111	108462080	76165120	25127864	24992
452	1.579216	108462080	76165120	36648128	24992
453	3.378076	108462080	76165120	22400712	24992
454	3.030098	108462080	76165120	24308880	24992
455	3.720161	108462080	76165120	26693128	24992
456	4.457279	108462080	76165120	29559304	24992
457	5.2237	108462080	76165120	32908968	24992
458	6.080219	108462080	76165120	36735640	24992
459	7.817096	108462080	76165120	24842680	24992
460	7.399657	108462080	76165120	29631160	24992
461	8.582562	108462080	76165120	34913672	24992
462	9.854538	108462080	76165120	24728944	24992
463	9.824277	108462080	76165120	30967944	24992
464	10.560101	108462080	76165120	37702024	24992
465	12.288502	108462080	76165120	28582952	24992
466	11.9903	108462080	76165120	36314208	24992
467	13.496944	108462080	76165120	28395984	24992
468	13.675879	108462080	76165120	37081160	24992
469	15.421161	108462080	76165120	30000984	24992
470	16.582558	108462080	76165120	24426608	24992
471	16.659386	108462080	76165120	34582472	24992
472	17.751726	108462080	76165120	29367144	24992
473	19.243537	108462080	76165120	25439736	24992
474	18.374336	108462080	76165120	37087472	24992
475	20.339637	108462080	76165120	32989608	24992
476	21.115802	108462080	76165120	29980000	24992
477	22.087775	108462080	76165120	27931576	24992
478	22.899158	108462080	76165120	26681112	24992
479	24.128992	108462080	76165120	26150072	24992
480	25.5139	108462080	76165120	26175712	24992
481	26.50409	108462080	76165120	26717624	24992
482	26.553287	108462080	76165120	27687648	24992
483	28.01369	108462080	76165120	29040472	24992
484	27.83344	108462080	76165120	30686928	24992
485	28.79233	108462080	76165120	32624104	24992
486	29.205119	108462080	76165120	34794256	24992
487	29.95862	108462080	76165120	37128800	24992
488	33.276928	108462080	76165120	25864920	24992
489	33.933088	108462080	76165120	32953608	24992
490	33.437928	108462080	76165120	37527792	24992
491	33.040957	108462080	76165120	41970224	24992
492	36.427427	108462080	76165120	32235384	24992
493	35.464933	108462080	76165120	38502776	24992
494	38.210703	108462080	76165120	30751192	24992
495	38.743307	108462080	76165120	40882224	24992
496	40.180805	108462080	76165120	34599872	24992
497	40.124221	108462080	76165120	45706752	24992
498	42.029947	108462080	76165120	40048032	24992
499	45.1513	108462080	76165120	39978584	24992
500	45.00839	108462080	76165120	52477144	24992
501	50.475167	108462080	76165120	48248592	24992
502	1.692874	112246784	80359424	21045312	24992
503	2.428527	112246784	80359424	22615624	24992
504	3.245674	112246784	80359424	24708664	24992
505	4.160941	112246784	80359424	27325256	24992
506	4.953621	112246784	80359424	30467000	24992
507	7.922109	112246784	80359424	20565056	24992
508	6.90901	112246784	80359424	24837704	24992
509	7.334559	112246784	80359424	29559024	24992
510	8.239898	112246784	80359424	34809624	24992
511	9.541238	112517120	80359424	24432600	24992
512	10.046571	112517120	80359424	30742456	24992
513	11.509223	112517120	80359424	21888040	24992
514	11.492173	112517120	80359424	29261248	24992
515	13.26208	112517120	80359424	21679784	24992
516	13.377776	112517120	80359424	30176848	24992
517	15.013667	112517120	80359424	23520288	24992
518	15.288224	112517120	80359424	33032768	24992
519	17.303475	112517120	80359424	27008232	24992
520	17.988491	112517120	80359424	22431592	24992
521	17.9067	112517120	80359424	33557232	24992
522	19.053553	112517120	80359424	29060216	24992
523	20.351426	112517120	80359424	25785160	24992
524	21.271175	112517120	80359424	23643928	24992
525	22.83338	112517120	80359424	22315640	24992
526	23.404934	112517120	80359424	21686816	24992
527	24.070792	112517120	80359424	21795104	24992
528	25.72439	112517120	80359424	22357880	24992
529	26.316055	112517120	80359424	23367904	24992
530	27.307391	112517120	80359424	24774424	24992
531	27.519455	112517120	80359424	26634224	24992
532	28.25701	112517120	80359424	28664200	24992
533	29.177776	112517120	80359424	30950040	24992
534	29.648721	112517120	80359424	33474968	24992
535	30.281163	112517120	80359424	36179680	24992
536	32.6766	112517120	80359424	25091200	24992
537	32.626319	112517120	80359424	30137288	24992
538	33.518541	112517120	80359424	34990608	24992
539	35.192482	112517120	80359424	25842296	24992
540	36.703506	112517120	80359424	35294512	24992
541	37.760835	112517120	80359424	28289784	24992
542	39.886608	112787456	80359424	38877288	24992
543	39.494441	112787456	80359424	32778984	24992
544	41.21253	112787456	80359424	44425664	24992
545	41.398392	112787456	80359424	39033056	24992
546	42.021503	112787456	80359424	35332424	24992
547	42.766754	112787456	80359424	48619112	24992
548	43.589362	112787456	80359424	44566256	24992
549	44.133868	112787456	80359424	41995248	24992
550	48.188297	112787456	80359424	44705088	24992
551	50.547807	112787456	80359424	47755256	24992
552	2.021479	114950144	82980864	52013088	24992
553	2.99989	114950144	82980864	53722872	24992
554	3.878182	114950144	82980864	56001920	24992
555	4.889751	114950144	82980864	58854736	24992
556	5.926646	114950144	82980864	62282080	24992
557	11.63288	117112832	85078016	52263216	24992
558	7.779861	117112832	85078016	56828336	24992
559	8.814518	117112832	85078016	61967152	24992
560	14.730697	117383168	85078016	51973240	24992
561	17.142097	117383168	85078016	58266208	24992
562	14.713314	114348032	82456576	24065808	24992
563	11.865616	114348032	82456576	31517896	24992
564	13.180853	114614272	82456576	23309160	24992
565	13.63785	114614272	82456576	31929752	24992
566	15.435509	114614272	82456576	24844896	24992
567	16.524528	114614272	82456576	19366824	24992
568	16.594644	114614272	82456576	29723008	24992
569	17.937607	114614272	82456576	24703872	24992
570	19.052832	114614272	82456576	21028440	24992
571	20.538991	114614272	82456576	18446624	24992
572	21.001944	114614272	82456576	31149944	24992
573	22.397052	114614272	82456576	28284072	24992
574	22.979481	114614272	82456576	26400840	24992
575	24.021285	114614272	82456576	25421008	24992
576	25.056482	114614272	82456576	25153888	24992
577	25.936124	114614272	82456576	25514544	24992
578	26.947565	114614272	82456576	26425784	24992
579	28.335499	114614272	82456576	27816048	24992
580	28.171331	114614272	82456576	29547400	24992
581	29.637917	114614272	82456576	31626264	24992
582	31.794288	114614272	82456576	20168200	24992
583	33.119588	114614272	82456576	27325944	24992
584	32.58492	114614272	82456576	32031472	24992
585	35.332312	114614272	82456576	23084160	24992
586	36.582265	114614272	82456576	32014864	24992
587	35.003732	114614272	82456576	38296968	24992
588	37.149196	114614272	82456576	30323448	24992
589	37.204719	114614272	82456576	37992880	24992
590	39.29562	114614272	82456576	31303088	24992
591	43.786216	115154944	82980864	31018280	24992
592	42.078986	115154944	82980864	43339800	24992
593	42.390504	115154944	82980864	38992904	24992
594	46.500808	115154944	82980864	40487352	24992
595	48.14019	115154944	82980864	42384672	24992
596	45.970659	115154944	82980864	57182432	24992
597	46.280045	115154944	82980864	54565000	24992
598	47.368119	115154944	82980864	53169616	24992
599	52.326434	115154944	82980864	57687024	24992
600	71.567197	118398976	86126592	62612808	24992
601	58.401652	118452224	86126592	23953840	24992
602	2.096755	118452224	86126592	30712448	24992
603	3.034804	118452224	86126592	32562056	24992
604	4.190602	118452224	86126592	35026960	24992
605	4.965577	118452224	86126592	38122192	24992
606	5.842475	118452224	86126592	41828088	24992
607	8.359158	118452224	86126592	31987152	24992
608	7.698072	118452224	86126592	36923848	24992
609	8.725757	118452224	86126592	42492856	24992
610	10.407267	118452224	86126592	32739168	24992
611	10.690757	118452224	86126592	39553984	24992
612	12.372233	118452224	86126592	31287144	24992
613	12.598312	118452224	86126592	39348608	24992
614	14.598711	118452224	86126592	32351136	24992
615	14.838589	118452224	86126592	41661016	24992
616	16.072256	118452224	86126592	35550496	24992
617	17.757284	118452224	86126592	30984664	24992
618	18.256026	118452224	86126592	42171312	24992
619	19.513179	118452224	86126592	37938984	24992
620	20.441812	118452224	86126592	35011160	24992
621	22.333511	118452224	86126592	33110736	24992
622	23.562295	118452224	86126592	32177648	24992
623	24.340235	118452224	86126592	31985264	24992
624	25.543472	118452224	86126592	32510144	24992
625	26.805785	118452224	86126592	33589400	24992
626	27.52274	118452224	86126592	35120080	24992
627	28.688828	118452224	86126592	37087640	24992
628	29.351431	118452224	86126592	39332280	24992
629	30.063243	118452224	86126592	41922088	24992
630	30.71894	118452224	86126592	44759416	24992
631	34.40586	118452224	86126592	33853304	24992
632	34.220981	118452224	86126592	39189496	24992
633	33.890991	118452224	86126592	44326392	24992
634	36.73241	118452224	86126592	35589288	24992
635	36.777919	118452224	86126592	42661496	24992
636	39.30088	118452224	86126592	35682136	24992
637	40.507531	118452224	86126592	46972640	24992
638	41.823312	118452224	86126592	41356344	24992
639	45.441707	118992896	86650880	41763848	24992
640	43.234441	118992896	86650880	54785496	24992
641	44.314955	118992896	86650880	50770832	24992
642	45.691242	118992896	86650880	48268048	24992
643	50.179352	118992896	86650880	51136056	24992
644	50.117303	118992896	86650880	54632904	24992
645	56.272752	121425920	89272320	58696856	24992
646	70.695195	119013376	88748032	30805136	24992
647	52.984704	120901632	88748032	35300592	24992
648	53.379855	120901632	88748032	41227552	24992
649	57.243385	121442304	89272320	35646104	24992
650	57.111386	121442304	89272320	42965256	24992
651	56.269273	121442304	89272320	50909952	24992
652	2.191572	121442304	89272320	60115960	24992
653	6.160361	121442304	89272320	49614336	24992
654	4.232834	121442304	89272320	52268640	24992
655	5.287375	121442304	89272320	55582272	24992
656	6.647557	121442304	89272320	59560128	24992
657	9.207546	121712640	89272320	49961872	24992
658	9.189709	121712640	89272320	55269816	24992
659	10.633361	121712640	89272320	61270552	24992
660	12.593638	121712640	89272320	51894520	24992
661	12.790348	121712640	89272320	59205712	24992
662	19.82122	121712640	89272320	51541016	24992
663	22.68265	114413568	82456576	17817160	24992
664	15.271124	114413568	82456576	27162576	24992
665	16.484712	114679808	82456576	21018184	24992
666	18.340447	114679808	82456576	16554776	24992
667	17.908236	114679808	82456576	27895296	24992
668	22.202839	114679808	82456576	23668016	24992
669	21.129768	114950144	82456576	20823440	24992
670	22.84319	114950144	82456576	19044000	24992
671	23.774798	114950144	82456576	18272568	24992
672	25.170973	114950144	82456576	18277944	24992
673	25.907087	114950144	82456576	18960968	24992
674	27.175015	114950144	82456576	20246104	24992
675	30.031084	114950144	82456576	21988896	24992
676	29.67493	114950144	82456576	24161928	24992
677	29.652054	114950144	82456576	26676096	24992
678	30.830319	114950144	82456576	29484496	24992
679	33.288776	114950144	82456576	18593048	24992
680	33.231827	114950144	82456576	24068752	24992
681	34.173161	114950144	82456576	29334032	24992
682	36.50368	114950144	82456576	20537632	24992
683	36.473814	114950144	82456576	27788864	24992
684	39.042563	114950144	82456576	20861688	24992
685	40.941945	114950144	82456576	32543384	24992
686	40.756078	114950144	82456576	27203336	24992
687	42.728485	114950144	82456576	23526976	24992
688	46.374975	114950144	82456576	24978040	24992
689	44.349626	114950144	82456576	39149344	24992
690	45.009733	114950144	82456576	36256112	24992
691	49.501623	114950144	82456576	39855320	24992
692	50.641082	114950144	82456576	43904072	24992
693	51.630492	114950144	82456576	48681176	24992
694	58.476593	114950144	82456576	54166656	24992
695	69.660691	111583232	81408000	32789456	24992
696	57.951038	113475584	81408000	27260184	24992
697	57.601008	113475584	81408000	34813824	24992
698	57.359568	113745920	81408000	43082816	24992
699	60.71262	113745920	81408000	52031792	24992
700	63.587143	113745920	81408000	49431808	24992
701	61.38916	114556928	82456576	59882472	24992
702	3.931079	120774656	88748032	59353408	24992
703	5.941306	120774656	88748032	61482208	24992
704	10.270336	115195904	85078016	19937232	24992
705	5.843101	115195904	85078016	23494952	24992
706	7.125352	115195904	85078016	27751536	24992
707	8.577104	115195904	85078016	32720056	24992
708	10.187924	117084160	85078016	22557448	24992
709	10.059857	117084160	85078016	28949768	24992
710	11.994813	117084160	85078016	20385968	24992
711	12.606758	117084160	85078016	28219328	24992
712	14.601092	117084160	85078016	21159720	24992
713	14.792991	117084160	85078016	30433280	24992
714	16.479893	117084160	85078016	24511064	24992
715	18.061467	117084160	85078016	20162240	24992
716	18.57976	117084160	85078016	31603592	24992
717	19.929811	117084160	85078016	27611256	24992
718	21.161906	117084160	85078016	24968224	24992
719	22.655676	117084160	85078016	23456136	24992
720	24.130555	117084160	85078016	22932528	24992
721	25.136214	117084160	85078016	23180272	24992
722	27.119334	117084160	85078016	24122728	24992
723	28.15821	117084160	85078016	25685064	24992
724	29.085862	117084160	85078016	27713336	24992
725	29.896174	117084160	85078016	30166072	24992
726	31.381591	117084160	85078016	32941976	24992
727	32.936764	117084160	85078016	22207736	24992
728	33.839415	117084160	85078016	27748024	24992
729	34.058293	117084160	85078016	33219136	24992
730	37.501223	117084160	85078016	24648072	24992
731	36.740889	117084160	85078016	32054664	24992
732	38.897018	117084160	85078016	25426536	24992
733	43.676674	117084160	85078016	25006360	24992
734	41.639046	117084160	85078016	37404576	24992
735	42.76714	117084160	85078016	33454688	24992
736	47.333371	117084160	85078016	35231136	24992
737	49.078889	117354496	85078016	37543520	24992
738	50.974847	117895168	85602304	40633920	24992
739	49.239874	117895168	85602304	56699184	24992
740	49.396023	117895168	85602304	55330376	24992
741	50.754001	117895168	85602304	55138808	24992
742	55.52959	117895168	85602304	61342632	24992
743	70.86499	119787520	87699456	55977928	24992
744	65.498852	118243328	86126592	30889512	24992
745	60.233024	118243328	86126592	27108312	24992
746	58.603774	118243328	86126592	36120304	24992
747	59.979414	118243328	86126592	45874912	24992
748	63.711498	119054336	86650880	44195512	24992
749	62.21059	119054336	86650880	55433616	24992
750	70.547935	119054336	86650880	55297488	24992
751	83.902577	120975360	88748032	24832488	24992
752	2.406248	120975360	88748032	39208240	24992
753	6.232484	120975360	88748032	29015456	24992
754	4.850871	120975360	88748032	32038496	24992
755	6.169422	120975360	88748032	35816904	24992
756	7.496815	120975360	88748032	40354224	24992
757	10.097631	121245696	88748032	31153416	24992
758	9.595091	121245696	88748032	37204448	24992
759	10.944392	121245696	88748032	44017344	24992
760	12.467866	121245696	88748032	35269992	24992
761	13.239799	121245696	88748032	43605120	24992
762	14.969638	121245696	88748032	36485592	24992
763	16.872537	121245696	88748032	31156312	24992
764	17.088598	121245696	88748032	41777600	24992
765	18.819359	121245696	88748032	37192296	24992
766	20.237908	121245696	88748032	34059720	24992
767	22.277085	121245696	88748032	32249912	24992
768	23.695301	121245696	88748032	31453416	24992
769	24.684289	121245696	88748032	31562256	24992
770	26.021353	121245696	88748032	32444056	24992
771	27.371387	121245696	88748032	33953736	24992
772	28.410705	121245696	88748032	36001448	24992
773	29.054497	121245696	88748032	38471968	24992
774	30.564266	121245696	88748032	41412592	24992
775	31.120082	121245696	88748032	44668912	24992
776	33.70682	121245696	88748032	34216056	24992
777	34.268071	121245696	88748032	40063272	24992
778	37.4386	121245696	88748032	32522360	24992
779	39.039373	121245696	88748032	42751792	24992
780	39.826854	121245696	88748032	36983168	24992
781	41.181645	121245696	88748032	48722888	24992
782	42.553684	121245696	88748032	43831800	24992
783	45.735833	121245696	88748032	45059928	24992
784	47.391419	121245696	88748032	46716000	24992
785	46.080847	121245696	88748032	61368120	24992
786	47.230786	121245696	88748032	59030760	24992
787	53.072075	121245696	88748032	63357224	24992
788	74.849312	118099968	87699456	23836360	24992
789	55.157203	119988224	87699456	28672088	24992
790	54.691344	119988224	87699456	35116256	24992
791	55.937999	119988224	87699456	42346352	24992
792	56.617635	119988224	87699456	50355752	24992
793	62.669501	119988224	87699456	47066152	24992
794	61.347476	119988224	87699456	56674576	24992
795	64.220651	119988224	87699456	54863920	24992
796	83.241925	124313600	92418048	65980816	24992
797	70.93276	124727296	92942336	32482840	24992
798	68.748257	124727296	92942336	33114016	24992
799	66.477533	124727296	92942336	46636456	24992
800	70.121027	124727296	92942336	48937072	24992
801	71.025544	125808640	93466624	51833384	24992
802	5.571508	125808640	93466624	56413504	24992
803	3.979152	125808640	93466624	58821592	24992
804	5.131767	125808640	93466624	62030584	24992
805	6.44968	125808640	93466624	66041360	24992
806	9.658859	125808640	93466624	56981552	24992
807	9.946852	125808640	93466624	62619384	24992
808	11.389915	125808640	93466624	69061792	24992
809	13.570888	125808640	93466624	60205000	24992
810	16.544512	125808640	93466624	68240144	24992
811	32.500271	115474432	83505152	15572336	24992
812	20.818159	115474432	83505152	25241856	24992
813	19.510341	115740672	83505152	20699720	24992
814	21.239264	116011008	83505152	17227568	24992
815	21.665825	116011008	83505152	29321632	24992
816	23.247846	116011008	83505152	25905208	24992
817	24.532935	116011008	83505152	23794856	24992
818	26.083244	116011008	83505152	22838904	24992
819	27.565517	116011008	83505152	22832488	24992
820	27.966167	116011008	83505152	23649248	24992
821	28.405134	116011008	83505152	25132688	24992
822	29.31576	116011008	83505152	27220648	24992
823	30.996405	116011008	83505152	29911352	24992
824	33.191328	116011008	83505152	19029576	24992
825	34.408706	116011008	83505152	24594504	24992
826	35.300817	116011008	83505152	30122160	24992
827	37.375105	116011008	83505152	21681112	24992
828	38.213063	116011008	83505152	29309976	24992
829	40.498761	116011008	83505152	22899520	24992
830	43.199788	116011008	83505152	19035216	24992
831	43.904309	116011008	83505152	32265496	24992
832	43.879885	116011008	83505152	28510056	24992
833	48.55805	116011008	83505152	31188216	24992
834	50.609277	116011008	83505152	34517016	24992
835	52.058295	116011008	83505152	38680824	24992
836	52.620075	116281344	84029440	43718472	24992
837	55.929227	116281344	84029440	49522784	24992
838	71.631362	117362688	85078016	56151696	24992
839	65.362978	115654656	83505152	35821920	24992
840	61.509733	115924992	83505152	32280480	24992
841	58.78533	115924992	83505152	41416536	24992
842	60.69426	115924992	83505152	51528408	24992
843	64.062376	115924992	84029440	50254936	24992
844	63.867607	119980032	88223744	61930448	24992
845	68.042225	126468096	95563776	62392120	24992
846	84.438994	131063808	99233792	63669640	24992
847	74.929942	117506048	85602304	29085240	24992
848	72.462784	117506048	85602304	32020136	24992
849	73.605402	117506048	85602304	35827872	24992
850	70.881676	117506048	85602304	52681872	24992
851	76.296594	118046720	85602304	58288536	24992
852	3.43374	119128064	87175168	65565832	24992
853	12.427157	121020416	89272320	55655144	24992
854	9.775167	121020416	89272320	59116000	24992
855	13.859916	116596736	86126592	20529712	24992
856	8.779745	116596736	86126592	25744520	24992
857	9.654346	116596736	86126592	31802376	24992
858	11.875888	117944320	86126592	22842304	24992
859	12.617772	117944320	86126592	30663928	24992
860	14.446866	117944320	86126592	23536592	24992
861	15.033555	117944320	86126592	33185256	24992
862	16.67844	117944320	86126592	27438856	24992
863	18.967439	117944320	86126592	23440312	24992
864	20.296832	117944320	86126592	20956312	24992
865	20.501311	117944320	86126592	34099432	24992
866	22.356821	117944320	86126592	31712944	24992
867	24.068269	117944320	86126592	30571880	24992
868	25.616707	117944320	86126592	30422672	24992
869	26.91978	117944320	86126592	31256216	24992
870	27.959358	117944320	86126592	32839024	24992
871	29.648913	117944320	86126592	35079352	24992
872	32.254687	117944320	86126592	23859784	24992
873	33.28003	117944320	86126592	29168704	24992
874	33.851567	117944320	86126592	34550560	24992
875	36.626805	117944320	86126592	26195288	24992
876	37.043515	117944320	86126592	33821592	24992
877	39.783905	117944320	86126592	27436872	24992
878	44.15976	117944320	86126592	27604528	24992
879	43.039953	117944320	86126592	40760624	24992
880	43.616784	117944320	86126592	37121576	24992
881	45.922185	117944320	86126592	35258056	24992
882	49.631883	117944320	86126592	39004320	24992
883	51.134046	119566336	87699456	43406696	24992
884	53.326815	123621376	91893760	48739560	24992
885	54.41126	127946752	96612352	55056480	24992
886	55.890284	132001792	101330944	61986656	24992
887	73.366137	136597504	106049536	57923496	24992
888	64.588585	112091136	79835136	33039192	24992
889	62.788786	112091136	79835136	30919224	24992
890	61.432538	112091136	79835136	41566456	24992
891	64.396072	112091136	79835136	41062264	24992
892	63.400961	112631808	80359424	53578872	24992
893	67.304299	113172480	80883712	54707688	24992
894	82.105513	119390208	87175168	56889440	24992
895	78.236043	115224576	82980864	27859400	24992
896	71.683483	115224576	82980864	31693040	24992
897	73.412511	115224576	82980864	36500072	24992
898	73.813582	115224576	82980864	42247144	24992
899	76.976022	115765248	83505152	48828312	24992
900	90.339688	120360960	88223744	56427848	24992
901	88.931684	118812672	86650880	32649736	24992
902	2.847614	118812672	86650880	42927208	24992
903	6.671634	118812672	86650880	33136120	24992
904	5.713408	118812672	86650880	36782960	24992
905	7.222837	118812672	86650880	41362360	24992
906	10.35258	118812672	86650880	32736704	24992
907	10.211537	119083008	86650880	39119928	24992
908	11.362803	119083008	86650880	46449248	24992
909	13.34625	119083008	86650880	38496704	24992
910	15.53559	119083008	86650880	47639888	24992
911	16.607813	119083008	86650880	41441912	24992
912	17.900255	119083008	86650880	37098744	24992
913	20.186999	119083008	86650880	34246136	24992
914	20.039616	119083008	86650880	47075984	24992
915	22.231847	119083008	86650880	44539760	24992
916	24.24379	119083008	86650880	43325904	24992
917	25.267674	119083008	86650880	43293560	24992
918	27.239841	119083008	86650880	44231296	24992
919	28.217242	119083008	86650880	45941200	24992
920	29.886076	119083008	86650880	48304840	24992
921	32.769703	119083008	86650880	37219728	24992
922	33.630914	119083008	86650880	42745840	24992
923	34.373226	119083008	86650880	48335040	24992
924	37.403776	119083008	86650880	40027240	24992
925	37.054479	119083008	86650880	47879456	24992
926	40.131403	119083008	86650880	41820704	24992
927	42.57073	119083008	86650880	38395224	24992
928	43.736552	119083008	86650880	52099424	24992
929	44.816948	119083008	86650880	48777072	24992
930	46.394298	119083008	86650880	47224864	24992
931	51.293737	119083008	86650880	51444856	24992
932	52.413884	119083008	86650880	56645952	24992
933	57.004404	119353344	87175168	62669824	24992
934	78.712009	115396608	85078016	26623152	24992
935	56.78349	117284864	85078016	33780680	24992
936	57.592001	117284864	85078016	42548472	24992
937	61.731233	117284864	85078016	40204096	24992
938	60.567298	117284864	85078016	50952320	24992
939	66.740045	117825536	85602304	50323152	24992
940	64.673539	117825536	85602304	62943432	24992
941	74.746422	122150912	90320896	64276040	24992
942	86.809845	119590912	87699456	33023480	24992
943	70.71226	120131584	87699456	36439720	24992
944	73.944796	120131584	87699456	40687712	24992
945	72.922272	120131584	87699456	45851416	24992
946	75.109853	120131584	87699456	51949600	24992
947	78.380945	124186624	92418048	58983832	24992
948	94.73324	113618944	83505152	31599352	24992
949	82.750404	115507200	83505152	27596160	24992
950	81.115732	115507200	83505152	37505816	24992
951	82.751731	115507200	83505152	48358376	24992
952	3.362209	116318208	84029440	48898312	24992
953	4.80712	116318208	84029440	51779280	24992
954	6.424015	116318208	84029440	55612120	24992
955	12.16147	116318208	84029440	46846008	24992
956	9.714987	116318208	84029440	52604896	24992
957	11.522114	116318208	84029440	59315624	24992
958	17.747131	116318208	84029440	51096968	24992
959	24.071843	116318208	84029440	59748888	24992
960	19.485501	114753536	82456576	30625232	24992
961	17.820757	114753536	82456576	25576288	24992
962	19.455464	114753536	82456576	22277856	24992
963	19.900248	114753536	82456576	34785000	24992
964	22.205852	114753536	82456576	31965920	24992
965	23.437241	114753536	82456576	30527800	24992
966	25.621152	114753536	82456576	30342856	24992
967	26.727571	114753536	82456576	31131712	24992
968	28.319954	114753536	82456576	32781120	24992
969	29.788939	114753536	82456576	35151872	24992
970	32.688554	114753536	82456576	24337624	24992
971	33.954463	114753536	82456576	30022368	24992
972	34.796735	114753536	82456576	35803976	24992
973	37.899589	114753536	82456576	27781064	24992
974	37.488553	114753536	82456576	35816160	24992
975	40.653706	114753536	82456576	29808048	24992
976	43.0045	114753536	82456576	26408456	24992
977	46.470463	114753536	82456576	28282296	24992
978	46.187574	114753536	82456576	43124752	24992
979	46.458537	114753536	82456576	41133320	24992
980	47.914942	114753536	82456576	40659728	24992
981	52.663247	114753536	82456576	46399928	24992
982	53.938677	114753536	82456576	53076720	24992
983	58.302383	114753536	82456576	48401496	24992
984	57.944347	115564544	83505152	56882056	24992
985	61.636416	119619584	87699456	66621232	24992
986	84.454084	119324672	89272320	32402320	24992
987	65.51862	121212928	89272320	30980864	24992
988	65.917943	121212928	89272320	43643928	24992
989	67.424334	121212928	89272320	44953760	24992
990	68.725007	121212928	89272320	47249784	24992
991	71.140174	122023936	89796608	50533096	24992
992	72.13002	122023936	89796608	66923640	24992
993	99.271202	122011648	89796608	26847832	24992
994	76.100408	122011648	89796608	33147936	24992
995	78.25275	122011648	89796608	40396120	24992
996	78.682048	122011648	89796608	48654416	24992
997	80.836014	122011648	89796608	57953888	24992
998	83.364383	122552320	90320896	68206800	24992
999	108.597443	123629568	91369472	34557448	24992
1000	89.708264	123629568	91369472	34800216	24992
x	Duration	RSS	HeapTotal	HeapUsed	External
0	NA	103010304	70922240	12112480	24992
1	0.310209	103010304	70922240	12164328	24992
2	0.245024	103010304	70922240	12240984	24992
3	0.278571	103010304	70922240	12344704	24992
4	0.361254	103010304	70922240	12477032	24992
5	0.415033	103010304	70922240	12639496	24992
6	0.464364	103010304	70922240	12832488	24992
7	0.535969	103010304	70922240	13057008	24992
8	0.638789	103010304	70922240	13314056	24992
9	0.683165	103010304	70922240	13605544	24992
10	0.770778	103010304	70922240	13932128	24992
11	0.858038	103010304	70922240	14294776	24992
12	2.201609	103010304	70922240	14697968	24992
13	1.048417	103010304	70922240	15136336	24992
14	1.264662	103010304	70922240	15612888	24992
15	1.370039	103010304	70922240	16131752	24992
16	1.491443	103010304	70922240	16689096	24992
17	1.060135	103010304	70922240	17295432	24992
18	1.065708	103010304	70922240	17939432	24992
19	1.127036	103010304	70922240	18628216	24992
20	1.253524	103010304	70922240	19361808	24992
21	1.284525	103010304	70922240	20141520	24992
22	1.514887	103010304	70922240	20969448	24992
23	2.002002	103010304	70922240	21846120	24992
24	1.475723	103010304	70922240	22769152	24992
25	1.760276	103010304	70922240	23743288	24992
26	1.614772	103010304	70922240	24769376	24992
27	1.703323	103010304	70922240	25848464	24992
28	1.785933	103010304	70922240	26981480	24992
29	1.881436	103010304	70922240	28169472	24992
30	2.93281	103010304	70922240	13150048	24992
31	2.278589	103010304	70922240	14450816	24992
32	2.162893	103010304	70922240	15812168	24992
33	2.861146	103010304	70922240	17238864	24992
34	2.334068	103010304	70922240	18723448	24992
35	2.416208	103010304	70922240	20268880	24992
36	3.530021	103010304	70922240	21877720	24992
37	2.819808	103010304	70922240	23549568	24992
38	2.939059	103010304	70922240	25291320	24992
39	3.329201	103010304	70922240	27092064	24992
40	2.857921	103010304	70922240	28957704	24992
41	4.673407	103010304	70922240	14696432	24992
42	3.510426	103010304	70922240	16695112	24992
43	3.5169	103010304	70922240	18770800	24992
44	3.299276	103010304	70922240	20907656	24992
45	3.455179	103010304	70922240	23117240	24992
46	3.739743	103010304	70922240	25398016	24992
47	3.742406	103010304	70922240	27752720	24992
48	5.710962	103010304	70922240	14068808	24992
49	4.19566	103010304	70922240	16580520	24992
50	3.972568	103010304	70922240	19162144	24992
51	4.448108	103010304	70922240	21824888	24992
52	0.270769	103010304	70922240	24478264	24992
53	0.399716	103010304	70922240	24719960	24992
54	0.608818	103010304	70922240	25043736	24992
55	0.741464	103010304	70922240	25451096	24992
56	0.776946	103010304	70922240	25942320	24992
57	0.908217	103010304	70922240	26519456	24992
58	1.017583	103010304	70922240	27181744	24992
59	1.145073	103010304	70922240	27930976	24992
60	1.321758	103010304	70922240	28769016	24992
61	1.603078	103010304	70922240	29695984	24992
62	2.793194	103010304	70922240	14654664	24992
63	1.683398	103010304	70922240	15762432	24992
64	1.812562	103010304	70922240	16961888	24992
65	1.958493	103010304	70922240	18254256	24992
66	2.132209	103010304	70922240	19640280	24992
67	2.253036	103010304	70922240	21121136	24992
68	2.421992	103010304	70922240	22699520	24992
69	2.526788	103010304	70922240	24374584	24992
70	2.88906	103010304	70922240	26149312	24992
71	2.837866	103010304	70922240	28021304	24992
72	3.025954	103010304	70922240	29992552	24992
73	4.455883	103010304	70922240	16144048	24992
74	3.706125	103010304	70922240	18317480	24992
75	3.437044	103010304	70922240	20593864	24992
76	3.609	103010304	70922240	22973520	24992
77	3.788857	103010304	70922240	25460336	24992
78	4.119228	103010304	70922240	28050312	24992
79	5.324789	103010304	70922240	15059720	24992
80	4.622471	103010304	70922240	17863448	24992
81	4.481044	103010304	70922240	20776344	24992
82	4.576223	103010304	70922240	23797472	24992
83	5.82421	103010304	70922240	26934912	24992
84	4.973153	103010304	70922240	30187416	24992
85	6.232657	103010304	70922240	17545728	24992
86	5.479957	103010304	70922240	21024984	24992
87	5.629566	103010304	70922240	24622064	24992
88	5.608411	103010304	70922240	28334400	24992
89	7.150765	103010304	70922240	16454088	24992
90	5.97966	103010304	70922240	20400824	24992
91	6.321425	103010304	70922240	24467440	24992
92	6.294475	103010304	70922240	28654064	24992
93	7.935472	103010304	70922240	17184552	24992
94	7.048031	103010304	70922240	21614440	24992
95	6.901312	103010304	70922240	26167664	24992
96	7.288572	103010304	70922240	30845048	24992
97	8.725077	103010304	70922240	19566032	24992
98	7.625508	103010304	70922240	24496304	24992
99	7.838249	103010304	70922240	29553000	24992
100	9.29459	103010304	70922240	18873960	24992
101	8.08739	103010304	70922240	24187696	24992
102	0.457197	103010304	70922240	29616168	24992
103	0.68031	103010304	70922240	30019792	24992
104	0.890651	103010304	70922240	30560256	24992
105	1.094452	103010304	70922240	31237160	24992
106	1.493587	103010304	70922240	32052744	24992
107	2.663721	103010304	70922240	16846032	24992
108	1.659852	103010304	70922240	17940592	24992
109	1.866796	103010304	70922240	19176736	24992
110	2.067703	103010304	70922240	20555120	24992
111	2.281688	103010304	70922240	22076496	24992
112	2.491607	103010304	70922240	23741824	24992
113	2.696838	103010304	70922240	25552104	24992
114	2.928976	103010304	70922240	27508280	24992
115	3.197381	103010304	70922240	29611152	24992
116	3.376555	103010304	70922240	31863136	24992
117	4.712989	103010304	70922240	18154344	24992
118	3.805416	103010304	70922240	20706856	24992
119	4.243593	103010304	70922240	23408912	24992
120	4.267278	103010304	70922240	26262848	24992
121	4.477509	103010304	70922240	29270216	24992
122	4.900765	103010304	70922240	32430608	24992
123	6.022114	103010304	70922240	19577888	24992
124	5.362887	103010304	70922240	23052032	24992
125	5.428732	103010304	70922240	26686208	24992
126	5.854506	103010304	70922240	30471072	24992
127	7.161547	103010304	70922240	18559952	24992
128	6.328688	103010304	70922240	22667664	24992
129	6.714747	103010304	70922240	26932184	24992
130	6.742985	103010304	70922240	31357536	24992
131	8.164004	103010304	70922240	19960056	24992
132	7.108001	103010304	70922240	24710728	24992
133	7.622186	103010304	70922240	29632448	24992
134	9.166254	103010304	70922240	19053000	24992
135	7.931989	103010304	70922240	24307248	24992
136	8.157719	103010304	70922240	29728600	24992
137	9.988667	103010304	70922240	19638328	24992
138	9.274502	103010304	70922240	25399192	24992
139	9.234829	103010304	70922240	31332128	24992
140	10.745294	103010304	70922240	21496168	24992
141	9.675251	103010304	70922240	27769016	24992
142	11.575307	103010304	70922240	18933056	24992
143	10.030033	103010304	70922240	25558088	24992
144	10.445261	103010304	70922240	32361000	24992
145	12.026969	103010304	70922240	23273040	24992
146	11.242354	103010304	70922240	30431224	24992
147	12.80914	103010304	70922240	22063304	24992
148	11.364152	103010304	70922240	29586448	24992
149	13.407266	103010304	70922240	21719848	24992
150	12.754657	103010304	70922240	29608384	24992
151	14.30537	103010304	70922240	22130432	24992
152	0.595222	103010304	70922240	30419576	24992
153	0.890726	103010304	70922240	30975200	24992
154	1.142123	103010304	70922240	31717272	24992
155	1.621094	103010304	70922240	32647104	24992
156	1.704402	103010304	70922240	33767304	24992
157	3.227335	103010304	70922240	18969792	24992
158	2.301747	103010304	70922240	20468952	24992
159	2.560583	103010304	70922240	22159872	24992
160	3.05497	103010304	70922240	24044192	24992
161	3.177952	103010304	70922240	26122152	24992
162	3.440793	103010304	70922240	28394584	24992
163	3.744083	103010304	70922240	30866216	24992
164	4.023096	103010304	70922240	33530600	24992
165	5.871985	103010304	70922240	20345624	24992
166	5.091488	103010304	70922240	23405616	24992
167	4.926289	103010304	70922240	26665088	24992
168	5.482649	103010304	70922240	30126856	24992
169	5.577902	103010304	70922240	33789896	24992
170	7.473409	103010304	70922240	21577880	24992
171	6.153307	103010304	70922240	25646800	24992
172	6.67252	103010304	70922240	29921336	24992
173	6.746807	103010304	70922240	34402592	24992
174	8.38323	103010304	70922240	22925664	24992
175	7.644837	103010304	70922240	27818680	24992
176	7.788851	103010304	70922240	32919872	24992
177	9.755113	103010304	70922240	22325328	24992
178	8.54641	103010304	70922240	27844656	24992
179	8.694278	103010304	70922240	33575048	24992
180	10.525128	103010304	70922240	23513536	24992
181	9.322124	103010304	70922240	29670008	24992
182	11.802201	103010304	70922240	20739992	24992
183	10.333052	103010304	70922240	27332896	24992
184	10.489875	103010304	70922240	34140760	24992
185	12.428726	103010304	70922240	25091528	24992
186	11.002023	103010304	70922240	32333848	24992
187	13.06684	103010304	70922240	24062248	24992
188	11.882871	103010304	70922240	31745944	24992
189	14.009726	103010304	70922240	24013624	24992
190	12.510156	103010304	70922240	32137744	24992
191	15.683849	103010304	70922240	24812896	24992
192	13.385682	103010304	70922240	33387464	24992
193	15.461755	103010304	70922240	26324080	24992
194	13.802212	103010304	70922240	35346344	24992
195	15.807536	103010304	70922240	28427504	24992
196	17.034886	103010304	70922240	22941168	24992
197	15.427017	103010304	70922240	32646664	24992
198	17.827288	103010304	70922240	26890440	24992
199	15.697486	103010304	70922240	37060104	24992
200	18.045877	103010304	70922240	31148232	24992
201	18.449693	103010304	70922240	26415864	24992
202	2.235923	103010304	70922240	21181064	24992
203	1.127475	103010304	70922240	21882704	24992
204	1.671349	103010304	70922240	22819888	24992
205	1.807786	103010304	70922240	23993416	24992
206	2.229834	103010304	70922240	25404888	24992
207	2.852651	103010304	70922240	27063048	24992
208	2.893161	103010304	70922240	28968920	24992
209	3.395555	103010304	70922240	31123264	24992
210	3.822569	103010304	70922240	33531576	24992
211	4.489474	103010304	70922240	36187176	24992
212	6.315136	103010304	70922240	23000208	24992
213	5.205112	103010304	70922240	26166824	24992
214	5.942523	103010304	70922240	29591960	24992
215	5.84055	103010304	70922240	33259304	24992
216	6.213153	103010304	70922240	37182072	24992
217	8.310231	103010304	70922240	25110176	24992
218	7.347761	103010304	70922240	29554248	24992
219	7.289275	103010304	70922240	34261912	24992
220	10.009658	103010304	70922240	23463472	24992
221	8.320266	103010304	70922240	28684304	24992
222	8.711094	103010304	70922240	34169416	24992
223	10.996702	103010304	70922240	24170368	24992
224	9.647678	103010304	70922240	30182920	24992
225	9.930254	103010304	70922240	36451592	24992
226	12.11503	103010304	70922240	26898448	24992
227	10.974882	103010304	70922240	33701376	24992
228	13.298327	103010304	70922240	25156672	24992
229	11.794236	103010304	70922240	32509968	24992
230	14.240365	103010304	70922240	24700296	24992
231	12.79095	103010304	70922240	32584648	24992
232	15.467357	103010304	70922240	25331160	24992
233	13.428852	103010304	70922240	33764776	24992
234	16.007933	103010304	70922240	26879312	24992
235	14.425191	103010304	70922240	35876320	24992
236	16.853407	103010304	70922240	29216736	24992
237	17.758846	103010304	70922240	23978640	24992
238	15.643894	103010304	70922240	33813168	24992
239	18.25923	103010304	70922240	28373496	24992
240	16.637148	103010304	70922240	38766568	24992
241	18.760846	103010304	70922240	33122992	24992
242	20.027827	103010304	70922240	28686648	24992
243	20.431918	103010304	70922240	25313368	24992
244	18.5932	103010304	70922240	36841056	24992
245	21.237951	103010304	70922240	32637056	24992
246	21.927413	103010304	70922240	29490848	24992
247	22.492899	103010304	70922240	27160112	24992
248	23.44362	103010304	70922240	25546008	24992
249	20.808899	103010304	70922240	38525600	24992
250	23.019559	103010304	70922240	35574336	24992
251	23.966713	103010304	70922240	33441240	24992
252	0.954292	103010304	70922240	32153760	24992
253	1.418596	103010304	70922240	33035064	24992
254	1.881768	103010304	70922240	34212464	24992
255	2.359255	103010304	70922240	35685464	24992
256	2.997626	103010304	70922240	37456280	24992
257	3.336975	103010304	70922240	39525456	24992
258	5.772254	103010304	70922240	25639528	24992
259	4.43313	103010304	70922240	28308080	24992
260	4.678512	103010304	70922240	31279992	24992
261	5.326212	103010304	70922240	34552984	24992
262	5.656534	103010304	70922240	38129576	24992
263	8.278992	103010304	70922240	25984016	24992
264	6.671074	103010304	70922240	30169896	24992
265	7.135097	103010304	70922240	34667376	24992
266	7.757229	103010304	70922240	39465720	24992
267	10.059643	103010304	70922240	28337992	24992
268	8.757138	103010304	70922240	33758096	24992
269	9.186792	103010304	70922240	39498752	24992
270	11.533791	103010304	70922240	29311960	24992
271	10.186009	103010304	70922240	35671048	24992
272	12.886129	103010304	70922240	26756720	24992
273	11.272422	103010304	70922240	33738528	24992
274	14.25457	103010304	70922240	25813608	24992
275	12.124783	103010304	70922240	33422784	24992
276	15.52294	103010304	70922240	26187872	24992
277	13.319735	103010304	70922240	34430480	24992
278	16.025622	103010304	70922240	27687424	24992
279	14.132143	103010304	70922240	36570296	24992
280	17.099537	103010304	70922240	30111856	24992
281	15.128574	103010304	70922240	39642000	24992
282	17.607305	103010304	70922240	33294048	24992
283	19.010941	103010304	70922240	28399904	24992
284	18.954213	103010304	70922240	38921904	24992
285	20.528144	103010304	70922240	33716832	24992
286	20.785652	103010304	70922240	29770016	24992
287	18.75548	103010304	70922240	41266760	24992
288	20.537533	103010304	70922240	36704536	24992
289	22.290589	103010304	70922240	33242048	24992
290	22.915143	103010304	70922240	30709232	24992
291	24.01631	103010304	70922240	28967848	24992
292	24.496962	103010304	70922240	27882240	24992
293	21.614983	103010304	70922240	41356120	24992
294	24.082317	103010304	70922240	38831792	24992
295	25.195993	103010304	70922240	37096120	24992
296	26.001738	103010304	70922240	35948416	24992
297	26.502394	103010304	70922240	35364760	24992
298	27.289779	103010304	70922240	35258728	24992
299	28.061437	103010304	70922240	35507136	24992
300	28.668718	103010304	70922240	36086128	24992
301	29.166963	103010304	70922240	36898720	24992
302	1.147963	103010304	70922240	38148440	24992
303	1.665646	103010304	70922240	39176120	24992
304	2.197247	103010304	70922240	40547824	24992
305	2.84366	103010304	70922240	42276224	24992
306	5.179562	103010304	70922240	28053848	24992
307	4.221	103010304	70922240	30464320	24992
308	4.471826	103010304	70922240	33222736	24992
309	4.988016	103010304	70922240	36330032	24992
310	5.385238	103010304	70922240	39794408	24992
311	8.3682	103010304	70922240	27727512	24992
312	6.576325	103010304	70922240	31892680	24992
313	7.946739	103010304	70922240	36423744	24992
314	7.883518	103010304	70922240	41303424	24992
315	10.743801	103010304	70922240	30433736	24992
316	9.472459	103010304	70922240	36015768	24992
317	10.089545	103010304	70922240	41958224	24992
318	12.42732	103010304	70922240	32078096	24992
319	10.678575	103010304	70922240	38736408	24992
320	13.897776	103010304	70922240	30113816	24992
321	11.892135	103010304	70922240	37504744	24992
322	15.137645	103010304	70922240	29837456	24992
323	13.115312	103010304	70922240	37944056	24992
324	16.331428	103010304	70922240	30898432	24992
325	14.191603	103010304	70922240	39740160	24992
326	17.507185	103010304	70922240	33142312	24992
327	15.478567	103010304	70922240	42703600	24992
328	18.046435	103010304	70922240	36335208	24992
329	19.13343	103010304	70922240	31451936	24992
330	17.166636	103010304	70922240	42123768	24992
331	19.772113	103010304	70922240	36973256	24992
332	21.355178	103010304	70922240	33136904	24992
333	22.600658	103010304	70922240	30322640	24992
334	19.774194	103010304	70922240	42486592	24992
335	22.369707	103010304	70922240	38848160	24992
336	23.626416	103010304	70922240	36243336	24992
337	24.718403	103010304	70922240	34437024	24992
338	25.745288	103010304	70922240	33327928	24992
339	26.372285	103010304	70922240	32812952	24992
340	27.01051	103010304	70922240	32770648	24992
341	27.899605	103010304	70922240	33146184	24992
342	28.734482	103010304	70922240	33851048	24992
343	29.210658	103010304	70922240	34844712	24992
344	29.681743	103010304	70922240	36038512	24992
345	29.891406	103010304	70922240	37427368	24992
346	30.771488	103010304	70922240	38958024	24992
347	30.912405	103010304	70922240	40612096	24992
348	31.100463	103010304	70922240	42391616	24992
349	31.481494	103010304	70922240	44256344	24992
350	36.272109	103010304	70922240	32716624	24992
351	34.212353	103010304	70922240	37084640	24992
352	1.308031	103010304	70922240	41407544	24992
353	1.926946	103010304	70922240	42581424	24992
354	2.545427	103010304	70922240	44148088	24992
355	5.76959	103010304	70922240	29946784	24992
356	3.780205	103010304	70922240	32305032	24992
357	4.381034	103010304	70922240	35056664	24992
358	5.12333	103010304	70922240	38207808	24992
359	5.845963	103010304	70922240	41753888	24992
360	8.998378	103010304	70922240	29965248	24992
361	6.982614	103010304	70922240	34319640	24992
362	8.098167	103010304	70922240	39080104	24992
363	8.472547	103010304	70922240	44246224	24992
364	11.486987	103010304	70922240	33649984	24992
365	9.630457	103010304	70922240	39630736	24992
366	13.353616	103010304	70922240	30674840	24992
367	10.916425	103010304	70922240	37474664	24992
368	11.608461	103010304	70922240	44695128	24992
369	14.707064	103010304	70922240	36072736	24992
370	12.891988	103010304	70922240	44124656	24992
371	16.063625	103010304	70922240	36480544	24992
372	14.509612	103010304	70922240	45349696	24992
373	17.163518	103010304	70922240	38312096	24992
374	18.917463	103010304	70922240	32903288	24992
375	16.354967	103010304	70922240	43024112	24992
376	19.832038	103010304	70922240	37658584	24992
377	21.105459	103010304	70922240	33655712	24992
378	18.560786	103010304	70922240	45032648	24992
379	21.55856	103010304	70922240	40589176	24992
380	22.638914	103010304	70922240	37369112	24992
381	24.395765	103010304	70922240	35129216	24992
382	24.735646	103010304	70922240	33735944	24992
383	25.823315	103010304	70922240	33030568	24992
384	26.412803	103010304	70922240	32883200	24992
385	27.472797	103010304	70922240	33242936	24992
386	28.011106	103010304	70922240	33970048	24992
387	28.617849	103010304	70922240	34977056	24992
388	29.115744	103010304	70922240	36278352	24992
389	29.781739	103010304	70922240	37795864	24992
390	30.681773	103010304	70922240	39445824	24992
391	31.185376	103010304	70922240	41256128	24992
392	31.640926	103010304	70922240	43196904	24992
393	32.982174	103010304	70922240	45244760	24992
394	37.091306	103010304	70922240	34084120	24992
395	37.408214	103280640	70922240	41455640	24992
396	34.970336	103550976	71446528	45686760	24992
397	34.983239	103550976	71446528	49613928	24992
398	39.325647	103821312	71446528	39868552	24992
399	37.077099	103821312	71446528	45699440	24992
400	42.759837	104632320	72495104	38149208	24992
401	42.747815	106524672	74067968	48108144	24992
402	4.800531	106524672	74067968	38657192	24992
403	2.363716	106524672	74067968	39990680	24992
404	3.911964	106524672	74067968	41770200	24992
405	5.699205	106524672	74067968	43997664	24992
406	7.048709	106524672	74067968	46672800	24992
407	8.651167	106524672	74067968	49796896	24992
408	11.64335	104427520	71970816	16955552	24992
409	6.384816	104427520	71970816	20984016	24992
410	7.077383	104427520	71970816	25465656	24992
411	8.452411	104427520	71970816	14534072	24992
412	8.487938	104427520	71970816	19921160	24992
413	9.335367	104427520	71970816	25767512	24992
414	10.484929	104427520	71970816	16164232	24992
415	10.699682	104427520	71970816	22916472	24992
416	12.371756	104427520	71970816	14756136	24992
417	12.31437	104427520	71970816	22452320	24992
418	14.039819	104427520	71970816	15316464	24992
419	13.676935	104427520	71970816	23956672	24992
420	15.438671	104427520	71970816	17499208	24992
421	15.007651	104427520	71970816	27108552	24992
422	16.695662	104427520	71970816	21032672	24992
423	17.66299	104427520	71970816	16540376	24992
424	17.300044	104427520	71970816	27583832	24992
425	18.881519	104427520	71970816	22880664	24992
426	19.728159	104427520	71970816	19535256	24992
427	20.95408	104427520	71970816	17271032	24992
428	21.75957	104427520	71970816	15886048	24992
429	23.17262	104427520	71970816	15213720	24992
430	21.527455	104427520	71970816	29190440	24992
431	23.16796	104427520	71970816	27183504	24992
432	23.924304	104427520	71970816	25974224	24992
433	25.114734	104427520	71970816	25482152	24992
434	25.756232	104427520	71970816	25564776	24992
435	26.6733	104427520	71970816	26156016	24992
436	27.1251	104427520	71970816	27162744	24992
437	28.171	104427520	71970816	28480016	24992
438	30.975563	104427520	71970816	16564224	24992
439	32.632059	104427520	71970816	23629360	24992
440	31.571931	104427520	71970816	27648024	24992
441	31.509253	104427520	71970816	31402936	24992
442	33.902186	104427520	71970816	21581736	24992
443	36.031967	104427520	71970816	30587880	24992
444	37.037048	104968192	72495104	23276480	24992
445	37.402908	104968192	72495104	33206680	24992
446	38.505586	104968192	72495104	26982264	24992
447	39.228815	104968192	72495104	37903136	24992
448	39.806939	104968192	72495104	32364264	24992
449	40.649119	104968192	72495104	44288992	24992
450	40.543415	104968192	72495104	39202032	24992
451	46.80714	104968192	72495104	40450024	24992
452	1.723382	106860544	74592256	54135392	24992
453	4.016409	107401216	75116544	39757232	24992
454	3.601855	107401216	75116544	41797568	24992
455	4.216698	107401216	75116544	44350160	24992
456	5.047864	107401216	75116544	47416600	24992
457	5.972776	107401216	75116544	50997120	24992
458	7.076465	107401216	75116544	55092968	24992
459	8.581643	107401216	75116544	43326648	24992
460	11.034074	107401216	75116544	48456624	24992
461	14.667592	107401216	75116544	54104616	24992
462	14.139725	106352640	74067968	17099104	24992
463	10.419728	106352640	74067968	23798968	24992
464	12.901369	106352640	74067968	16318360	24992
465	11.976918	106352640	74067968	24062040	24992
466	14.223745	106352640	74067968	17399240	24992
467	13.777504	106352640	74067968	26322104	24992
468	15.086688	106352640	74067968	19759200	24992
469	15.344594	106352640	74067968	29591120	24992
470	16.122068	106352640	74067968	23530176	24992
471	18.136412	106352640	74067968	19097544	24992
472	19.03026	106352640	74067968	15970328	24992
473	18.149849	106352640	74067968	28008904	24992
474	20.281762	106352640	74067968	24423808	24992
475	21.342014	106352640	74067968	21906128	24992
476	22.562501	106352640	74067968	20376288	24992
477	23.042131	106352640	74067968	19654304	24992
478	24.378182	106352640	74067968	19627672	24992
479	25.109635	106352640	74067968	20173040	24992
480	25.561714	106352640	74067968	21142888	24992
481	26.405544	106352640	74067968	22578664	24992
482	27.558153	106352640	74067968	24196328	24992
483	28.378598	106352640	74067968	26082936	24992
484	28.851115	106352640	74067968	28150688	24992
485	33.728159	106352640	74067968	17132600	24992
486	33.915321	106352640	74067968	24622088	24992
487	31.984208	106352640	74067968	29195624	24992
488	32.536616	106352640	74067968	33484632	24992
489	34.50346	106352640	74067968	24032560	24992
490	34.63651	106352640	74067968	30336880	24992
491	37.774443	106352640	74067968	22964672	24992
492	38.859382	106622976	74067968	33838256	24992
493	38.648783	106622976	74067968	27920608	24992
494	40.847183	106622976	74067968	39818576	24992
495	40.903211	106622976	74067968	34461400	24992
496	42.906773	106622976	74067968	30968680	24992
497	43.647391	106622976	74067968	44400848	24992
498	43.327642	106622976	74067968	40435168	24992
499	44.811253	106622976	74067968	38084976	24992
500	49.897481	106622976	74067968	41481616	24992
501	51.555908	108244992	76165120	45347344	24992
502	2.881209	113111040	80883712	50209048	24992
503	4.253596	113111040	80883712	51886560	24992
504	5.895093	113111040	80883712	54122000	24992
505	7.365817	113111040	80883712	56918464	24992
506	14.266221	113111040	82980864	23611904	24992
507	8.68792	113111040	82980864	27544984	24992
508	7.876194	113111040	82980864	32038000	24992
509	7.736983	113111040	82980864	37101088	24992
510	9.331677	115273728	82980864	26415008	24992
511	9.532793	115273728	82980864	32615424	24992
512	11.361887	115273728	82980864	23815048	24992
513	11.212086	115273728	82980864	31147480	24992
514	13.143534	115273728	82980864	23782208	24992
515	13.081386	115273728	82980864	32257680	24992
516	14.918641	115273728	82980864	25810912	24992
517	15.137611	115273728	82980864	35423488	24992
518	16.41797	115273728	82980864	29580152	24992
519	18.11846	115273728	82980864	25356352	24992
520	17.671716	115273728	82980864	36703696	24992
521	18.93582	115273728	82980864	32393416	24992
522	21.08583	115273728	82980864	29411832	24992
523	22.681695	115273728	82980864	27491680	24992
524	23.089761	115273728	82980864	26564008	24992
525	23.876681	115273728	82980864	26335504	24992
526	25.32904	115273728	82980864	26772144	24992
527	26.064534	115273728	82980864	27691472	24992
528	26.747517	115273728	82980864	29088592	24992
529	27.234405	115273728	82980864	30817736	24992
530	27.955748	115273728	82980864	32820824	24992
531	29.240597	115273728	82980864	35043120	24992
532	29.883711	115273728	82980864	37505976	24992
533	32.483115	115273728	82980864	26674120	24992
534	32.680286	115273728	82980864	31806696	24992
535	32.59961	115273728	82980864	36693080	24992
536	35.984664	115273728	82980864	27963064	24992
537	38.238542	115273728	82980864	37913632	24992
538	38.995504	115273728	82980864	31441240	24992
539	39.86294	115273728	82980864	42542104	24992
540	40.842023	115273728	82980864	36897408	24992
541	42.562256	115544064	82980864	49210616	24992
542	42.127377	115544064	82980864	44110840	24992
543	43.56753	115544064	82980864	40808368	24992
544	48.73086	115544064	82980864	43161976	24992
545	44.990012	115544064	82980864	57588232	24992
546	45.155722	115544064	82980864	54649200	24992
547	47.72894	115544064	82980864	53168752	24992
548	53.210452	116625408	84553728	57947680	24992
549	54.476784	121491456	89796608	63100488	24992
550	63.758418	126357504	94515200	68928632	24992
551	72.759505	117903360	86126592	27134168	24992
552	1.858269	117903360	86126592	34893520	24992
553	2.834054	117903360	86126592	36716608	24992
554	3.941225	117903360	86126592	39147704	24992
555	7.839071	118173696	86126592	29597040	24992
556	5.783372	118173696	86126592	33262864	24992
557	6.496374	118173696	86126592	37543480	24992
558	7.559526	118173696	86126592	42442432	24992
559	9.651443	118173696	86126592	32730680	24992
560	9.654965	118173696	86126592	38878192	24992
561	10.850815	118173696	86126592	30024728	24992
562	11.499245	118173696	86126592	37412592	24992
563	13.578343	118173696	86126592	30116512	24992
564	13.317606	118173696	86126592	38792304	24992
565	15.36567	118173696	86126592	32447760	24992
566	15.129859	118173696	86126592	42364600	24992
567	16.682651	118173696	86126592	36660224	24992
568	18.236505	118173696	86126592	32633712	24992
569	19.33049	118173696	86126592	29935888	24992
570	19.598974	118173696	86126592	42352768	24992
571	23.104103	118173696	86126592	39196328	24992
572	21.932427	118173696	86126592	37236856	24992
573	23.169356	118173696	86126592	36254096	24992
574	24.543407	118173696	86126592	36112680	24992
575	25.440675	118173696	86126592	36624752	24992
576	26.522632	118173696	86126592	37682464	24992
577	27.614398	118173696	86126592	39170240	24992
578	28.150323	118173696	86126592	41036512	24992
579	29.163282	118173696	86126592	43244248	24992
580	32.309835	118173696	86126592	32220312	24992
581	31.997824	118173696	86126592	37299960	24992
582	32.704956	118173696	86126592	42108088	24992
583	35.603448	118173696	86126592	33456224	24992
584	37.106477	118714368	86126592	43469200	24992
585	38.378333	118714368	86126592	36993448	24992
586	40.002482	118714368	86126592	48280192	24992
587	39.837081	118714368	86126592	42792128	24992
588	46.456136	118714368	86126592	43688192	24992
589	42.219004	118714368	86126592	56640024	24992
590	44.676623	118714368	86126592	52726832	24992
591	50.598163	118714368	86126592	55590408	24992
592	67.220949	123039744	90845184	58873488	24992
593	60.450986	118820864	86650880	31104136	24992
594	52.631405	118820864	86650880	35778080	24992
595	53.2317	118820864	86650880	40932432	24992
596	54.187467	119091200	86650880	46764384	24992
597	54.423904	119091200	86650880	53351312	24992
598	56.013104	119091200	86650880	60514464	24992
599	61.935081	121253888	88748032	56785096	24992
600	65.160218	126119936	93990912	65214088	24992
601	79.811091	121163776	88748032	26827896	24992
602	2.075229	121163776	88748032	37441320	24992
603	3.071077	121163776	88748032	39448528	24992
604	7.480077	121163776	88748032	29911448	24992
605	4.972624	121163776	88748032	33229400	24992
606	6.475678	121163776	88748032	37214032	24992
607	7.086494	121163776	88748032	41865840	24992
608	10.179193	121163776	88748032	32502824	24992
609	9.241852	121163776	88748032	38520992	24992
610	10.408533	121163776	88748032	45181472	24992
611	11.684956	121163776	88748032	36066808	24992
612	12.193058	121163776	88748032	44085056	24992
613	13.893338	121163776	88748032	36535520	24992
614	15.578568	121163776	88748032	30974120	24992
615	15.506674	121163776	88748032	41003272	24992
616	17.235983	121163776	88748032	35994008	24992
617	18.751283	121163776	88748032	32529432	24992
618	18.684435	121163776	88748032	44595832	24992
619	20.026807	121163776	88748032	40997792	24992
620	21.925888	121163776	88748032	38718800	24992
621	23.321007	121163776	88748032	37498992	24992
622	24.42117	121163776	88748032	37217712	24992
623	25.748753	121163776	88748032	37637592	24992
624	26.697691	121163776	88748032	38708792	24992
625	27.61037	121163776	88748032	40241000	24992
626	28.336173	121163776	88748032	42210232	24992
627	29.588223	121163776	88748032	44526168	24992
628	32.31087	121163776	88748032	33711048	24992
629	31.818201	121163776	88748032	38963464	24992
630	32.750385	121163776	88748032	43968312	24992
631	35.766018	121163776	88748032	35450768	24992
632	37.667875	121163776	88748032	45923336	24992
633	39.096075	121163776	88748032	39634880	24992
634	41.001781	121163776	88748032	51380480	24992
635	40.426065	121163776	88748032	46079648	24992
636	43.658357	121434112	89272320	42778776	24992
637	43.879891	121704448	89272320	56473544	24992
638	43.795436	121704448	89272320	52835216	24992
639	45.57505	121704448	89272320	50858032	24992
640	52.367816	121704448	89272320	55046000	24992
641	53.957416	121704448	89272320	59764112	24992
642	77.717929	126300160	93990912	65207304	24992
643	55.944995	122064896	89796608	37255792	24992
644	50.238972	122064896	89796608	37375624	24992
645	56.280295	122064896	89796608	26963896	24992
646	58.277389	122064896	89796608	35186896	24992
647	58.97601	122064896	89796608	44076784	24992
648	59.643574	122335232	89796608	53662688	24992
649	64.872489	122335232	89796608	52573280	24992
650	61.138823	122335232	89796608	63575376	24992
651	73.335332	126119936	93990912	63888552	24992
652	2.239564	124338176	91893760	29834808	24992
653	3.329484	124338176	91893760	31969328	24992
654	4.434051	124338176	91893760	34816872	24992
655	8.906081	124338176	91893760	25883768	24992
656	6.823055	124338176	91893760	30161016	24992
657	7.745351	124338176	91893760	35154328	24992
658	10.408194	124338176	91893760	26028840	24992
659	10.730191	124338176	91893760	32460624	24992
660	10.9674	124338176	91893760	39616744	24992
661	12.552897	124338176	91893760	31270712	24992
662	13.470634	124338176	91893760	39870912	24992
663	15.106516	124338176	91893760	32887288	24992
664	17.117889	124338176	91893760	27872800	24992
665	16.917441	124338176	91893760	38666216	24992
666	18.539314	124338176	91893760	34067720	24992
667	20.414208	124338176	91893760	31078536	24992
668	21.763858	124338176	91893760	29330192	24992
669	22.752176	124338176	91893760	28628760	24992
670	24.245423	124338176	91893760	28791296	24992
671	25.389267	124338176	91893760	29620488	24992
672	26.432128	124338176	91893760	31075152	24992
673	27.873902	124338176	91893760	33002960	24992
674	28.376102	124338176	91893760	35275576	24992
675	29.573114	124338176	91893760	37896656	24992
676	30.513108	124338176	91893760	40784240	24992
677	33.91248	124338176	91893760	30412480	24992
678	33.281143	124338176	91893760	36117024	24992
679	37.13445	124338176	91893760	28766736	24992
680	38.606762	124338176	91893760	39169112	24992
681	39.837053	124338176	91893760	33487328	24992
682	40.575213	124338176	91893760	45326512	24992
683	41.335906	124338176	91893760	40552272	24992
684	47.608116	124338176	91893760	42371168	24992
685	45.088067	124338176	91893760	56262784	24992
686	45.014725	124338176	91893760	52908520	24992
687	46.246259	124338176	91893760	51249280	24992
688	55.444877	124338176	91893760	56009368	24992
689	54.070408	124338176	91893760	61235168	24992
690	61.230258	124608512	92418048	67279232	24992
691	78.168558	125046784	92942336	26613960	24992
692	56.49709	125046784	92942336	34361264	24992
693	59.352258	125046784	92942336	42616656	24992
694	63.818099	125046784	92942336	40174104	24992
695	60.826669	125587456	92942336	49940864	24992
696	60.847918	125587456	92942336	60469032	24992
697	74.074294	127479808	95039488	60276160	24992
698	88.07496	121368576	88748032	27442152	24992
699	67.729905	121368576	88748032	40356688	24992
700	69.59744	121368576	88748032	42394816	24992
701	70.603607	121638912	89272320	45178264	24992
702	2.372364	121909248	89272320	61056136	24992
703	7.520986	121909248	89272320	51529592	24992
704	4.901155	121909248	89272320	54582544	24992
705	5.803246	121909248	89272320	58407824	24992
706	7.10471	121909248	89272320	62993040	24992
707	10.416307	121909248	89272320	54062880	24992
708	9.545404	121909248	89272320	60175168	24992
709	11.620614	121909248	89272320	51665208	24992
710	12.081003	121909248	89272320	59304584	24992
711	14.061384	121909248	89272320	52484176	24992
712	14.323117	121909248	89272320	61677584	24992
713	16.589573	121909248	89272320	55984016	24992
714	18.044462	121909248	89272320	52142576	24992
715	17.981424	121909248	89272320	63655672	24992
716	19.816993	121909248	89272320	59963592	24992
717	22.08906	121909248	89272320	57692216	24992
718	22.838558	121909248	89272320	56611856	24992
719	24.636491	121909248	89272320	56519048	24992
720	25.795919	121909248	89272320	57247120	24992
721	26.497146	121909248	89272320	58604504	24992
722	27.995837	121909248	89272320	60443632	24992
723	29.087664	121909248	89272320	62799256	24992
724	30.516273	121909248	89272320	65536288	24992
725	33.490806	121909248	89272320	55170080	24992
726	33.151256	121909248	89272320	60899576	24992
727	34.15648	121909248	89272320	66347360	24992
728	36.916351	121909248	89272320	58056640	24992
729	37.236613	121909248	89272320	65642120	24992
730	39.784369	121909248	89272320	59248040	24992
731	43.241046	121909248	89272320	55778776	24992
732	52.673001	122990592	90845184	69134696	24992
733	62.7957	116191232	83505152	21313520	24992
734	45.715915	116191232	83505152	36386432	24992
735	47.19057	116191232	83505152	34014896	24992
736	47.208904	116191232	83505152	33139224	24992
737	54.712435	116191232	83505152	39103760	24992
738	55.640966	116191232	83505152	45670512	24992
739	57.852067	116191232	83505152	52958096	24992
740	62.746105	116731904	84029440	49557424	24992
741	79.119726	120786944	88748032	58574776	24992
742	66.337243	118210560	86126592	39115656	24992
743	64.320284	118210560	86126592	38007504	24992
744	62.969852	118210560	86126592	49165136	24992
745	68.85255	118210560	86126592	49751952	24992
746	64.552917	118751232	86126592	62558480	24992
747	71.894138	122806272	90320896	64632096	24992
748	98.526093	118874112	89272320	19318344	24992
749	70.970027	121303040	89272320	33324832	24992
750	73.677563	121843712	89272320	37801320	24992
751	74.799246	121843712	89272320	43187728	24992
752	2.485753	121843712	89272320	50095384	24992
753	3.801106	121843712	89272320	52523960	24992
754	5.026124	121843712	89272320	55761680	24992
755	8.98565	121843712	89272320	46958552	24992
756	7.607609	121843712	89272320	51820784	24992
757	8.850683	121843712	89272320	57496744	24992
758	11.15323	121843712	89272320	48845640	24992
759	11.382274	121843712	89272320	56177568	24992
760	13.92283	121843712	89272320	49025336	24992
761	13.896475	121843712	89272320	57979480	24992
762	16.222202	121843712	89272320	52147448	24992
763	18.038696	121843712	89272320	48168768	24992
764	17.81771	121843712	89272320	59586920	24992
765	20.082203	121843712	89272320	55925928	24992
766	21.869398	121843712	89272320	53781624	24992
767	23.165227	121843712	89272320	52827232	24992
768	24.454416	121843712	89272320	52834152	24992
769	26.038154	121843712	89796608	53659832	24992
770	26.845453	121843712	90320896	55185472	24992
771	28.589578	121843712	90845184	57271120	24992
772	29.946942	121843712	91369472	59854464	24992
773	30.423341	121843712	91893760	62817104	24992
774	33.437975	122114048	92942336	52527496	24992
775	33.992013	122114048	93466624	58474392	24992
776	37.58692	122654720	95039488	51268768	24992
777	39.83425	125628416	98185216	62155880	24992
778	48.077773	126439424	98709504	56780520	24992
779	55.19482	115335168	82980864	22033760	24992
780	42.709494	115335168	82980864	35323856	24992
781	44.370248	115335168	82980864	31670224	24992
782	50.146294	115335168	82980864	35141168	24992
783	52.735023	115335168	82980864	39337392	24992
784	52.999664	115335168	82980864	44367176	24992
785	54.367019	115605504	82980864	50161208	24992
786	63.091726	116146176	84029440	56835496	24992
787	79.528202	115138560	82980864	24011064	24992
788	57.437585	115138560	82980864	32453680	24992
789	59.982239	115138560	82980864	41565136	24992
790	66.343441	115138560	82980864	40288928	24992
791	62.239521	115408896	82980864	51092752	24992
792	64.552647	115949568	83505152	62859200	24992
793	95.155241	114016256	83505152	19762120	24992
794	69.450624	119418880	87175168	32229848	24992
795	73.985736	126717952	95039488	34984768	24992
796	75.060179	134017024	102903808	38679168	24992
797	71.418061	138883072	108146688	54568696	24992
798	77.698894	146452480	116011008	60054616	24992
799	99.928259	91394048	58863616	20293224	24992
800	79.538202	92745728	60436480	27511232	24992
801	83.104201	100044800	67776512	35451592	24992
802	2.658711	107343872	75116544	45036640	24992
803	4.005749	107343872	75116544	47618248	24992
804	5.406054	107343872	75116544	51057344	24992
805	10.101409	109776896	77737984	42404440	24992
806	8.05732	110047232	77737984	47559248	24992
807	9.325304	110047232	77737984	53599384	24992
808	11.846493	110317568	77737984	45129960	24992
809	11.97816	110317568	77737984	52876952	24992
810	14.438565	110317568	77737984	45980424	24992
811	14.902097	110317568	77737984	55461248	24992
812	16.626262	110317568	78262272	49779744	24992
813	18.672156	110317568	78262272	46100776	24992
814	20.61032	110317568	78262272	43911568	24992
815	20.118904	110317568	78262272	56896792	24992
816	22.333005	110317568	78262272	54476880	24992
817	24.047033	110317568	78262272	53342416	24992
818	25.459297	110317568	78262272	53372840	24992
819	27.85251	110317568	78262272	54362960	24992
820	28.458929	110317568	78262272	55977672	24992
821	29.607833	110587904	78262272	58226696	24992
822	32.548867	110587904	78262272	47377840	24992
823	33.583742	110587904	78262272	52982040	24992
824	34.229695	110587904	78262272	58352480	24992
825	37.372489	110587904	78262272	50105384	24992
826	37.614266	110587904	78262272	57945768	24992
827	40.531482	110587904	78262272	51728704	24992
828	44.136357	111939584	79310848	48520984	24992
829	46.665058	114642944	82456576	62411024	24992
830	59.736836	114913280	82456576	59034624	24992
831	54.849291	96157696	63582208	29378416	24992
832	52.196325	96157696	63582208	34287904	24992
833	52.243893	96157696	63582208	40053080	24992
834	61.55684	101023744	68825088	35291416	24992
835	59.139026	105889792	74067968	42869568	24992
836	60.947155	110755840	78786560	51413560	24992
837	84.109225	115621888	84029440	60787232	24992
838	66.713493	105824256	74067968	30573768	24992
839	62.6179	105824256	74067968	41858760	24992
840	68.906543	106635264	74067968	42528936	24992
841	66.657379	110149632	77737984	55372184	24992
842	72.407879	117448704	85078016	57883160	24992
843	74.665578	125018112	92418048	61159592	24992
844	100.194352	110047232	80359424	32657112	24992
845	73.031481	112476160	80359424	36851992	24992
846	76.185873	112476160	80359424	42858088	24992
847	77.831595	113287168	80883712	49910312	24992
848	80.93156	120045568	87699456	57799904	24992
849	83.034439	127344640	95039488	66556280	24992
850	115.534711	116572160	84553728	29247088	24992
851	84.297494	116572160	84553728	40074520	24992
852	2.799368	116572160	84553728	52593368	24992
853	4.28655	116572160	84553728	55393224	24992
854	8.83313	117112832	84553728	46781192	24992
855	6.897915	117112832	84553728	51459576	24992
856	8.479304	117112832	84553728	57104152	24992
857	11.407368	117112832	84553728	48944480	24992
858	11.538772	117112832	84553728	56455064	24992
859	13.864583	117112832	84553728	49082856	24992
860	14.506278	117112832	84553728	58484720	24992
861	16.214765	117112832	84553728	52643096	24992
862	18.6815	117112832	84553728	48757784	24992
863	20.055706	117112832	84553728	46452256	24992
864	19.992033	117112832	84553728	59619352	24992
865	21.75631	117112832	84553728	57326008	24992
866	23.878354	117112832	84553728	56421784	24992
867	25.123625	117112832	84553728	56646664	24992
868	26.974938	117112832	84553728	57816240	24992
869	28.206052	117112832	84553728	59610288	24992
870	31.073744	117112832	84553728	48575880	24992
871	32.197195	117112832	84553728	53981784	24992
872	33.595612	117112832	84553728	59400976	24992
873	36.380107	117112832	84553728	51313696	24992
874	37.593857	117112832	84553728	59148696	24992
875	39.495152	117112832	84553728	53155216	24992
876	42.057118	117112832	84553728	50070672	24992
877	43.396431	117653504	85078016	64128600	24992
878	44.502987	117653504	85078016	61004600	24992
879	45.910119	117653504	85078016	59694016	24992
880	53.922165	122519552	90320896	65077424	24992
881	55.397541	127385600	95039488	71294296	24992
882	81.818799	114040832	83505152	29454776	24992
883	56.024557	115929088	83505152	36477168	24992
884	60.639973	115929088	83505152	33889944	24992
885	58.8649	115929088	83505152	43910232	24992
886	61.727137	115929088	83505152	55027344	24992
887	65.516595	116469760	84029440	55359152	24992
888	68.407577	120795136	88748032	68201488	24992
889	100.249587	120291328	87699456	25752824	24992
890	65.88621	120291328	87699456	40849152	24992
891	71.442053	120291328	87699456	45125688	24992
892	73.473051	120291328	87699456	50324688	24992
893	74.283846	120832000	88223744	56525544	24992
894	78.351294	124616704	92418048	63726784	24992
895	107.11557	120221696	89796608	38280424	24992
896	81.900764	122109952	89796608	34965128	24992
897	80.923114	122109952	89796608	45150544	24992
898	81.871224	122109952	89796608	56308576	24992
899	83.183111	122380288	89796608	68432208	24992
900	120.456722	119345152	89272320	22475152	24992
901	97.778975	121774080	89272320	35103280	24992
902	2.875514	121774080	89272320	39595544	24992
903	4.462252	121774080	89272320	42551112	24992
904	6.152405	121774080	89272320	46513200	24992
905	7.398968	121774080	89272320	51427544	24992
906	11.165044	121774080	89272320	43209944	24992
907	10.265191	121774080	89272320	50101136	24992
908	12.964729	121774080	89272320	42215056	24992
909	14.123937	121774080	89272320	51119512	24992
910	15.662726	121774080	89272320	45030976	24992
911	17.956474	121774080	89272320	41009024	24992
912	18.032053	121774080	89272320	52860704	24992
913	19.964313	121774080	89272320	49393384	24992
914	22.456308	121774080	89272320	47608736	24992
915	24.171728	121774080	89272320	47127192	24992
916	25.803078	121774080	89272320	47714728	24992
917	27.524682	121774080	89272320	49229328	24992
918	28.377495	121774080	89272320	51448112	24992
919	32.077314	121774080	89272320	41130896	24992
920	35.400186	121774080	89272320	49744688	24992
921	33.468502	121774080	89272320	55531536	24992
922	35.654662	121774080	89272320	47929136	24992
923	39.693895	121774080	89272320	59495864	24992
924	40.148221	121774080	89272320	54332032	24992
925	42.197984	121774080	89272320	51354200	24992
926	47.366465	122314752	89796608	54120280	24992
927	47.320285	122314752	89796608	69384352	24992
928	64.934887	115257344	85078016	19915640	24992
929	53.779569	117686272	85078016	24869928	24992
930	53.78848	117686272	85078016	31576512	24992
931	55.644438	117686272	85078016	39271344	24992
932	56.483677	117686272	85078016	48001224	24992
933	61.205753	117686272	85078016	46192704	24992
934	61.691144	117686272	85078016	56923992	24992
935	92.726074	119037952	88748032	27756504	24992
936	66.38676	121200640	88748032	40343128	24992
937	69.449439	121200640	88748032	42546592	24992
938	69.887313	121200640	88748032	45808040	24992
939	69.868941	121200640	88748032	50105728	24992
940	70.351912	123633664	91369472	67139872	24992
941	102.736783	120659968	90320896	25777112	24992
942	79.132942	122548224	90320896	31949688	24992
943	78.508328	122548224	90320896	40298392	24992
944	79.438378	122548224	90320896	49962352	24992
945	81.173152	122548224	90320896	60188632	24992
946	101.887942	123899904	91893760	60414888	24992
947	94.962015	124329984	91893760	39282016	24992
948	88.774302	124329984	91893760	41552672	24992
949	87.083704	124329984	91893760	56027008	24992
950	93.652994	124329984	91893760	60297344	24992
951	115.214094	121286656	90845184	30652184	24992
952	3.122481	123174912	90845184	37050208	24992
953	4.663765	123174912	90845184	40148424	24992
954	9.059221	123174912	90845184	31671800	24992
955	8.126213	123174912	90845184	36848240	24992
956	9.436746	123174912	90845184	43052968	24992
957	12.869513	123174912	90845184	35272496	24992
958	12.490988	123174912	90845184	43537024	24992
959	14.96099	123174912	90845184	36912320	24992
960	17.338661	123174912	90845184	32603160	24992
961	17.530617	123174912	90845184	44016440	24992
962	19.927047	123174912	90845184	40508744	24992
963	22.157791	123174912	90845184	38600960	24992
964	23.735046	123174912	90845184	38219000	24992
965	24.935928	123174912	90845184	38887624	24992
966	27.216942	123174912	90845184	40510624	24992
967	28.409518	123174912	90845184	42773512	24992
968	30.089502	123174912	90845184	45732856	24992
969	33.247749	123174912	90845184	35938680	24992
970	33.831163	123174912	90845184	42272632	24992
971	37.608985	123174912	90845184	35669744	24992
972	39.778864	123174912	90845184	47214760	24992
973	39.884116	123174912	90845184	42464752	24992
974	47.334037	123174912	90845184	44577688	24992
975	48.279437	123174912	90845184	47553272	24992
976	46.824381	123174912	90845184	63062800	24992
977	46.429569	123174912	90845184	61433672	24992
978	47.972089	123174912	90845184	61430208	24992
979	63.480754	124796928	92418048	68700448	24992
980	74.500153	119848960	87699456	30601624	24992
981	58.220284	119848960	87699456	39980352	24992
982	64.881693	119848960	87699456	38889656	24992
983	61.219714	119848960	87699456	50207776	24992
984	65.181606	119848960	87699456	51227520	24992
985	75.417159	120119296	87699456	53256744	24992
986	90.119038	120041472	89796608	36840776	24992
987	71.714257	121929728	89796608	40554192	24992
988	74.825164	121929728	89796608	45691760	24992
989	75.871905	121929728	89796608	51901040	24992
990	78.697021	121929728	89796608	59162640	24992
991	88.231837	125444096	92942336	67473376	24992
992	102.319586	127533056	95039488	31207456	24992
993	81.520433	127533056	95039488	41716832	24992
994	82.648788	127533056	95039488	53274192	24992
995	91.460271	127533056	95039488	54362256	24992
996	94.118743	128884736	96612352	68121000	24992
997	113.715987	122867712	90320896	36953584	24992
998	92.790624	122867712	90320896	41366920	24992
999	91.793418	122867712	90320896	58292576	24992
1000	96.294959	122867712	90320896	64756008	24992
