x	Duration	RSS	HeapTotal	HeapUsed	External
0	NA	123949056	91893760	34823376	24992
1	0.342256	123949056	91893760	34868008	24992
2	0.361896	123949056	91893760	34939224	24992
3	0.429241	123949056	91893760	35035576	24992
4	0.519989	123949056	91893760	35158176	24992
5	0.614193	123949056	91893760	35308472	24992
6	0.759593	123949056	91893760	35487208	24992
7	0.830339	123949056	91893760	35695272	24992
8	0.962324	123949056	91893760	35933616	24992
9	1.068205	123949056	91893760	36204144	24992
10	1.225908	123949056	91893760	36506832	24992
11	1.313067	123949056	91893760	36842560	24992
12	1.463445	123949056	91893760	37212888	24992
13	0.978416	123949056	91893760	37618760	24992
14	0.715923	123949056	91893760	38060984	24992
15	0.813621	123949056	91893760	38540536	24992
16	0.826848	123949056	91893760	39058400	24992
17	0.952587	123949056	91893760	39617368	24992
18	0.954672	123949056	91893760	40216840	24992
19	1.028936	123949056	91893760	40858008	24992
20	1.08138	123949056	91893760	41540816	24992
21	1.353898	123949056	91893760	42266624	24992
22	1.223616	123949056	91893760	43036160	24992
23	1.306214	123949056	91893760	43850520	24992
24	1.56178	123949056	91893760	44710576	24992
25	1.458963	123949056	91893760	45618288	24992
26	1.562384	123949056	91893760	46574888	24992
27	4.156795	123949056	91893760	33604224	24992
28	1.701049	123949056	91893760	34660672	24992
29	1.831702	123949056	91893760	35768536	24992
30	1.865643	123949056	91893760	36928680	24992
31	1.922778	123949056	91893760	38142152	24992
32	2.073797	123949056	91893760	39412456	24992
33	2.142391	123949056	91893760	40742208	24992
34	2.231083	123949056	91893760	42128344	24992
35	2.529364	123949056	91893760	43571480	24992
36	2.589724	123949056	91893760	45072648	24992
37	2.511175	123949056	91893760	46632648	24992
38	2.594056	123949056	91893760	48252784	24992
39	4.322459	123949056	91893760	34070296	24992
40	2.932251	123949056	91893760	35812624	24992
41	2.891333	123949056	91893760	37617536	24992
42	3.001668	123949056	91893760	39485856	24992
43	3.366279	123949056	91893760	41418824	24992
44	3.328545	123949056	91893760	43418200	24992
45	3.531913	123949056	91893760	45485512	24992
46	3.613123	123949056	91893760	47617832	24992
47	3.546483	123949056	91893760	49818432	24992
48	5.206096	123949056	91893760	35858168	24992
49	5.171034	123949056	91893760	38207400	24992
50	3.976043	123949056	91893760	40626824	24992
51	3.98804	123949056	91893760	43112080	24992
52	0.259539	123949056	91893760	45579048	24992
53	0.393209	123949056	91893760	45805696	24992
54	0.540072	123949056	91893760	46109040	24992
55	0.64924	123949056	91893760	46490016	24992
56	0.808289	123949056	91893760	46950088	24992
57	0.952329	123949056	91893760	47489664	24992
58	1.068764	123949056	91893760	48109656	24992
59	1.13985	123949056	91893760	48811032	24992
60	1.257887	123949056	91893760	49595552	24992
61	1.388952	123949056	91893760	50463712	24992
62	2.775024	123949056	91893760	35154840	24992
63	1.781864	123949056	91893760	36192232	24992
64	1.914004	123949056	91893760	37315488	24992
65	2.085918	123949056	91893760	38525280	24992
66	2.065863	123949056	91893760	39822872	24992
67	2.394975	123949056	91893760	41209352	24992
68	2.330054	123949056	91893760	42687288	24992
69	2.494165	123949056	91893760	44256032	24992
70	2.621932	123949056	91893760	45916768	24992
71	2.767758	123949056	91893760	47669672	24992
72	3.09558	123949056	91893760	49516112	24992
73	3.945888	123949056	91893760	35298864	24992
74	3.454543	123949056	91893760	37334888	24992
75	3.700281	123949056	91893760	39467496	24992
76	3.538057	123949056	91893760	41698208	24992
77	3.679354	123949056	91893760	44025544	24992
78	4.035516	123949056	91893760	46451760	24992
79	4.050441	123949056	91893760	48979312	24992
80	5.233786	123949056	91893760	35497528	24992
81	4.566067	123949056	91893760	38227240	24992
82	5.075813	123949056	91893760	41066568	24992
83	4.859639	123949056	91893760	44004040	24992
84	4.999478	123949056	91893760	47052480	24992
85	5.008565	123949056	91893760	50204800	24992
86	6.967934	123949056	91893760	37301008	24992
87	5.738928	123949056	91893760	40666976	24992
88	5.493069	123949056	91893760	44142416	24992
89	5.665595	123949056	91893760	47725704	24992
90	6.065753	123949056	91893760	51419144	24992
91	7.07583	123949056	91893760	39107400	24992
92	6.366819	123949056	91893760	43024832	24992
93	6.4429	123949056	91893760	47054224	24992
94	6.591063	123949056	91893760	51197552	24992
95	8.007379	123949056	91893760	39436824	24992
96	7.037326	123949056	91893760	43815048	24992
97	7.342586	123949056	91893760	48309976	24992
98	8.866403	123949056	91893760	37328904	24992
99	8.210366	123949056	91893760	42056968	24992
100	7.910436	123949056	91893760	46908048	24992
101	9.192852	124219392	91893760	51888024	24992
102	0.42846	124219392	91893760	40881848	24992
103	0.623534	124219392	91893760	41248040	24992
104	0.817637	124219392	91893760	41741440	24992
105	1.019027	124219392	91893760	42363008	24992
106	1.213578	124219392	91893760	43114176	24992
107	1.430257	124219392	91893760	43995336	24992
108	1.615937	124219392	91893760	45007456	24992
109	1.83099	124219392	91893760	46151416	24992
110	2.075798	124219392	91893760	47432824	24992
111	2.245653	124219392	91893760	48844328	24992
112	2.453572	124219392	91893760	50390912	24992
113	2.671754	124219392	91893760	52072544	24992
114	4.142081	124219392	91893760	37864104	24992
115	3.117619	124219392	91893760	39819624	24992
116	3.311831	124219392	91893760	41913864	24992
117	3.679089	124219392	91893760	44146976	24992
118	3.806504	124219392	91893760	46526048	24992
119	4.017118	124219392	91893760	49045040	24992
120	4.236824	124219392	91893760	51703672	24992
121	5.505968	124219392	91893760	38479368	24992
122	4.653536	124219392	91893760	41425008	24992
123	5.218747	124219392	91893760	44515464	24992
124	5.233427	124219392	91893760	47751656	24992
125	5.750239	124219392	91893760	51134520	24992
126	6.687684	124219392	91893760	38736968	24992
127	6.028376	124219392	91893760	42416136	24992
128	6.128963	124219392	91893760	46244776	24992
129	6.335212	124219392	91893760	50223640	24992
130	7.908503	124219392	91893760	38582424	24992
131	6.791793	124219392	91893760	42864824	24992
132	7.455887	124219392	91893760	47302968	24992
133	7.2598	124219392	91893760	51895968	24992
134	9.279706	124219392	91893760	40667152	24992
135	7.999285	124219392	91893760	45577544	24992
136	8.047657	124219392	91893760	50648688	24992
137	9.823367	124219392	91893760	40091200	24992
138	8.947281	124219392	91893760	45475288	24992
139	9.108263	124219392	91893760	51016784	24992
140	10.405053	124219392	91893760	40909152	24992
141	9.284478	124219392	91893760	46780448	24992
142	9.810504	124219392	91893760	52812128	24992
143	11.825845	124219392	91893760	42963448	24992
144	10.362019	124219392	91893760	49317432	24992
145	11.826777	124219392	91893760	40294288	24992
146	10.856502	124219392	91893760	46984360	24992
147	11.225622	124219392	91893760	53837216	24992
148	12.396086	124219392	91893760	44696320	24992
149	11.580682	124219392	91893760	51889296	24992
150	13.106129	124219392	91893760	43393152	24992
151	12.205919	124219392	91893760	50930424	24992
152	0.58749	124219392	91893760	42958752	24992
153	0.856337	124219392	91893760	43477088	24992
154	1.125807	124219392	91893760	44169080	24992
155	1.588379	124219392	91893760	45035472	24992
156	1.67314	124219392	91893760	46077888	24992
157	2.030646	124219392	91893760	47296784	24992
158	2.395596	124219392	91893760	48692920	24992
159	2.709511	124219392	91893760	50267168	24992
160	3.13666	124219392	91893760	52021592	24992
161	3.353982	124219392	91893760	53955960	24992
162	4.595543	124219392	91893760	40023104	24992
163	3.752701	124219392	91893760	42320440	24992
164	3.969621	124219392	91893760	44801560	24992
165	4.277724	124219392	91893760	47465416	24992
166	4.758249	124219392	91893760	50314016	24992
167	4.868337	124219392	91893760	53349592	24992
168	6.628175	124219392	91893760	40612696	24992
169	5.454095	124219392	91893760	44025144	24992
170	5.972301	124219392	91893760	47624016	24992
171	6.068415	124219392	91893760	51412968	24992
172	6.564512	124219392	91893760	55391400	24992
173	8.183256	124219392	91893760	43337560	24992
174	7.174213	124219392	91893760	47704824	24992
175	7.481621	124219392	91893760	52259840	24992
176	8.979693	124219392	91893760	41250040	24992
177	8.000238	124219392	91893760	46193704	24992
178	8.321978	124219392	91893760	51333440	24992
179	10.094601	124219392	91893760	41043128	24992
180	9.731525	124219392	91893760	46582208	24992
181	9.248951	124219392	91893760	52314856	24992
182	11.198257	124219392	91893760	42513792	24992
183	10.521021	124219392	91893760	48651224	24992
184	10.406993	124219392	91893760	55006896	24992
185	11.835643	124219392	91893760	45455168	24992
186	11.128094	124219392	91893760	52203912	24992
187	12.831563	124219392	91893760	43480528	24992
188	11.798133	124219392	91893760	50636728	24992
189	13.638201	124219392	91893760	42532896	24992
190	12.998419	124219392	91893760	50105104	24992
191	14.687269	124219392	91893760	42545032	24992
192	13.619441	124219392	91893760	50536928	24992
193	15.386642	124219392	91893760	43344160	24992
194	13.808446	124219392	91893760	51750784	24992
195	15.973101	124219392	91893760	44825680	24992
196	14.662587	124219392	91893760	53657168	24992
197	16.596225	124219392	91893760	46924760	24992
198	15.177175	124219392	91893760	56183744	24992
199	17.44468	124219392	91893760	49514512	24992
200	18.214308	124219392	91893760	44031008	24992
201	16.021655	124219392	91893760	53945088	24992
202	0.745479	124219392	91893760	48367280	24992
203	1.078278	124219392	91893760	49025344	24992
204	1.433312	124219392	91893760	49903368	24992
205	1.785938	124219392	91893760	51002192	24992
206	2.156313	124219392	91893760	52326112	24992
207	2.501557	124219392	91893760	53874792	24992
208	2.860862	124219392	91893760	55646264	24992
209	3.227678	124219392	91893760	57646592	24992
210	5.165734	124219392	91893760	43653320	24992
211	3.967852	124219392	91893760	46127528	24992
212	4.325666	124219392	91893760	48838920	24992
213	4.905397	124219392	91893760	51780864	24992
214	5.065073	124219392	91893760	54965416	24992
215	7.009447	124219392	91893760	42519128	24992
216	5.833344	124219392	91893760	46176440	24992
217	6.406457	124219392	91893760	50074008	24992
218	6.599383	124219392	91893760	54214440	24992
219	9.047458	124219392	91893760	42849640	24992
220	7.546754	124219392	91893760	47475376	24992
221	7.770188	124219392	91893760	52348864	24992
222	8.311466	124219392	91893760	57463464	24992
223	10.005071	124219392	91893760	46628552	24992
224	9.062468	124219392	91893760	52236352	24992
225	9.443796	124219392	91893760	58091112	24992
226	11.087795	124219392	91893760	47946952	24992
227	10.108114	124219392	91893760	54309472	24992
228	12.326081	124219392	91893760	45188752	24992
229	11.097129	124219392	91893760	52052280	24992
230	13.170437	124219392	91893760	43764744	24992
231	12.209961	124219392	91893760	51134696	24992
232	12.227711	124219392	91893760	58755576	24992
233	14.258414	124219392	91893760	50317736	24992
234	13.434516	124219392	91893760	58461344	24992
235	14.70803	124219392	91893760	50606152	24992
236	16.025289	124219392	91893760	44113856	24992
237	14.498137	124219392	91893760	53026136	24992
238	16.565654	124219392	91893760	46698672	24992
239	15.163647	124219392	91893760	56141120	24992
240	17.877342	124219392	91893760	49964232	24992
241	18.309599	124219392	91893760	44909264	24992
242	16.501815	124219392	91893760	55126720	24992
243	18.571499	124219392	91893760	49875024	24992
244	19.754418	124219392	91893760	45655040	24992
245	17.513667	124219392	91893760	56671128	24992
246	20.278881	124219392	91893760	52026936	24992
247	21.161853	124219392	91893760	48342008	24992
248	19.133754	124219392	91893760	60177272	24992
249	20.941797	124219392	91893760	55899640	24992
250	22.032867	124219392	91893760	52494664	24992
251	22.597077	124219392	91893760	49887920	24992
252	0.900527	124219392	91893760	48071088	24992
253	1.315098	124219392	91893760	48893504	24992
254	1.728433	124219392	91893760	49990456	24992
255	2.172026	124219392	91893760	51362824	24992
256	2.605205	124219392	91893760	53012208	24992
257	3.26495	124219392	91893760	54938808	24992
258	3.480972	124219392	91893760	57143768	24992
259	3.911568	124219392	91893760	59627720	24992
260	6.641913	124219392	91893760	46215936	24992
261	4.824031	124219392	91893760	49262112	24992
262	5.298189	124219392	91893760	52590368	24992
263	5.714734	124219392	91893760	56201408	24992
264	6.369829	124219392	91893760	60096344	24992
265	8.449037	124219392	91893760	48034864	24992
266	7.077349	124219392	91893760	52500200	24992
267	7.507987	124219392	91893760	57252032	24992
268	10.049851	124219392	91893760	46463912	24992
269	8.439018	124219392	91893760	51801424	24992
270	9.108183	124219392	91893760	57420848	24992
271	11.320604	124219392	91893760	47491112	24992
272	10.265631	124219392	91893760	53693752	24992
273	10.464434	124219392	91893760	60189904	24992
274	12.947844	124219392	91893760	50738072	24992
275	11.520722	124219392	91893760	57828256	24992
276	13.903074	124219392	91893760	49335960	24992
277	12.323014	124219392	91893760	57006936	24992
278	14.835803	124219392	91893760	49216776	24992
279	13.402415	124219392	91893760	57486096	24992
280	15.752265	124219392	91893760	50252360	24992
281	14.300535	124219392	91893760	59117416	24992
282	16.59229	124219392	91893760	52250256	24992
283	18.197621	124219392	91893760	46671136	24992
284	15.958273	124219392	91893760	56450160	24992
285	18.33788	124219392	91893760	50889976	24992
286	16.830049	124219392	91893760	61279056	24992
287	19.050749	124219392	91893760	55664336	24992
288	19.875208	124219392	91893760	51169280	24992
289	21.018692	124219392	91893760	47638376	24992
290	19.365833	124219392	91893760	59247264	24992
291	21.076656	124219392	91893760	55172272	24992
292	22.480192	124219392	91893760	52020232	24992
293	22.953124	124219392	91893760	49627320	24992
294	21.043028	124219392	91893760	62478168	24992
295	23.353647	124219392	91893760	59268896	24992
296	23.876866	124219392	91893760	56823224	24992
297	24.27769	124219392	91893760	55062232	24992
298	25.224327	124219392	91893760	53857048	24992
299	26.037052	124219392	91893760	53165000	24992
300	26.384772	124219392	91893760	52921264	24992
301	27.352196	124219392	91893760	53044560	24992
302	1.171033	124219392	91893760	53658072	24992
303	1.537065	124219392	91893760	54620120	24992
304	2.039455	124219392	91893760	55913624	24992
305	2.742185	124219392	91893760	57518392	24992
306	3.257308	124219392	91893760	59448192	24992
307	3.629308	124219392	91893760	61700080	24992
308	6.301427	124219392	91893760	48158744	24992
309	4.844168	124219392	91893760	51063840	24992
310	5.131209	124219392	91893760	54297040	24992
311	5.64299	124219392	91893760	57853712	24992
312	6.685322	124219392	91893760	61743840	24992
313	9.687584	124219392	91893760	49844896	24992
314	7.317696	124219392	91893760	54395760	24992
315	7.904743	124219392	91893760	59271360	24992
316	10.699818	124219392	91893760	48722952	24992
317	8.844772	124219392	91893760	54263344	24992
318	9.634749	124219392	91893760	60139432	24992
319	12.300373	124219392	91893760	50486576	24992
320	10.945293	124219392	91893760	57033744	24992
321	13.512261	124219392	91893760	48537424	24992
322	11.579246	124219392	91893760	55782584	24992
323	12.280977	124219392	91893760	63343296	24992
324	14.933604	124219392	91893760	54903088	24992
325	13.409442	124219392	91893760	63147272	24992
326	16.175341	124219392	91893760	55444808	24992
327	16.905478	124219392	91893760	49202848	24992
328	15.292636	124219392	91893760	58469224	24992
329	18.038886	124219392	91893760	52479136	24992
330	16.593804	124219392	91893760	62460248	24992
331	18.492297	124219392	91893760	56628664	24992
332	20.30658	124219392	91893760	51996224	24992
333	17.974078	124219392	91893760	62995880	24992
334	20.88277	124219392	91893760	58128792	24992
335	21.614666	124219392	91893760	54351168	24992
336	22.644016	124219392	91893760	51470088	24992
337	20.319751	124219392	91893760	63893960	24992
338	22.817428	124219392	91893760	60332256	24992
339	23.67665	124219392	91893760	57677760	24992
340	24.884782	124219392	91893760	55751440	24992
341	25.192532	124219392	91893760	54456288	24992
342	26.057427	124219392	91893760	53744136	24992
343	26.940291	124219392	91893760	53543144	24992
344	27.310648	124219392	91893760	53704304	24992
345	28.76689	124219392	91893760	54243208	24992
346	28.56083	124219392	91893760	55060960	24992
347	29.626515	124219392	91893760	56131920	24992
348	29.7627	124219392	91893760	57382408	24992
349	30.137524	124219392	91893760	58849208	24992
350	30.380976	124219392	91893760	60422800	24992
351	31.373071	124219392	91893760	62198224	24992
352	1.259218	124219392	91893760	64342440	24992
353	1.860264	124219392	91893760	65444320	24992
354	4.515285	124219392	91893760	50603272	24992
355	3.173519	124219392	91893760	52440488	24992
356	3.753702	124219392	91893760	54648216	24992
357	4.330965	124219392	91893760	57232968	24992
358	4.906128	124219392	91893760	60188920	24992
359	5.337648	124219392	91893760	63508792	24992
360	8.556793	124219392	91893760	51171552	24992
361	6.871209	124219392	91893760	55251720	24992
362	7.553456	124219392	91893760	59693720	24992
363	7.723889	124219392	91893760	64524672	24992
364	11.159313	124219392	91893760	53583216	24992
365	9.412104	124219392	91893760	59154696	24992
366	10.209719	124219392	91893760	65105024	24992
367	12.725177	124219392	91893760	55199600	24992
368	10.84844	124219392	91893760	61911712	24992
369	14.005654	124219392	91893760	53269248	24992
370	12.239958	124219392	91893760	60749072	24992
371	15.457622	124219392	91893760	53022320	24992
372	13.899495	124219392	91893760	61278800	24992
373	16.542794	124219392	91893760	54280080	24992
374	14.507813	124219392	91893760	63293256	24992
375	18.078638	124219392	91893760	56744960	24992
376	15.931255	124219392	91893760	66540152	24992
377	18.989488	124219392	91893760	60318920	24992
378	19.908433	124219392	91893760	55406672	24992
379	18.155917	124219392	91893760	66363664	24992
380	21.185098	124219392	91893760	61353952	24992
381	21.906888	124219392	91893760	57464448	24992
382	23.089613	124219392	91893760	54559496	24992
383	24.253106	124219392	91893760	52506072	24992
384	21.526784	124219392	91893760	65438424	24992
385	24.582981	124219392	91893760	62573016	24992
386	24.900478	124219392	91893760	60553304	24992
387	26.345807	124219392	91893760	59181088	24992
388	26.638272	124219392	91893760	58458208	24992
389	27.953802	124219392	91893760	58240736	24992
390	28.756815	124219392	91893760	58485056	24992
391	29.044797	124219392	91893760	59108816	24992
392	29.397769	124219392	91893760	60046384	24992
393	30.353373	124219392	91893760	61275560	24992
394	30.723517	124219392	91893760	62706560	24992
395	31.639675	124219392	91893760	64385304	24992
396	32.679952	124219392	91893760	66186440	24992
397	36.554512	124219392	91893760	54374184	24992
398	36.634483	124760064	92418048	60902760	24992
399	37.659732	124760064	92418048	64880936	24992
400	49.823231	117243904	85078016	22335632	24992
401	34.649564	117510144	85078016	28676488	24992
402	1.415736	117510144	85078016	20343616	24992
403	2.101898	117510144	85078016	21585152	24992
404	2.789496	117510144	85078016	23240176	24992
405	3.595432	117510144	85078016	25309728	24992
406	4.045109	117510144	85078016	27795376	24992
407	4.707644	117510144	85078016	30700928	24992
408	7.504016	117510144	85078016	20324424	24992
409	6.050617	117510144	85078016	24063144	24992
410	6.69626	117510144	85078016	28226408	24992
411	7.608311	117510144	85078016	32805808	24992
412	8.836319	117510144	85078016	21778080	24992
413	8.746797	117510144	85078016	27199344	24992
414	9.784897	117510144	85078016	33058232	24992
415	11.061935	117510144	85078016	23081928	24992
416	11.057038	117510144	85078016	29783160	24992
417	12.523231	117510144	85078016	21135000	24992
418	12.484837	117510144	85078016	28684872	24992
419	14.05888	117510144	85078016	21080088	24992
420	13.807519	117510144	85078016	29534712	24992
421	15.230973	117510144	85078016	22693496	24992
422	15.347914	117510144	85078016	32023024	24992
423	16.649925	117510144	85078016	25732832	24992
424	17.919995	117510144	85078016	20813936	24992
425	17.727596	117510144	85078016	31504928	24992
426	18.970424	117510144	85078016	26620128	24992
427	20.552654	117510144	85078016	22927128	24992
428	21.017907	117510144	85078016	20248456	24992
429	20.336168	117510144	85078016	32741096	24992
430	21.766845	117510144	85078016	29496304	24992
431	22.786651	117510144	85078016	27175064	24992
432	23.691646	117510144	85078016	25693192	24992
433	24.3553	117510144	85078016	24886048	24992
434	24.960447	117510144	85078016	24620312	24992
435	25.924086	117510144	85078016	24884160	24992
436	26.8733	117510144	85078016	25565328	24992
437	27.074841	117510144	85078016	26639320	24992
438	27.926994	117510144	85078016	27995136	24992
439	28.344551	117510144	85078016	29640632	24992
440	29.211485	117510144	85078016	31504040	24992
441	29.4775	117510144	85078016	33550432	24992
442	31.981825	117510144	85078016	21864032	24992
443	33.707678	117510144	85078016	28739328	24992
444	32.4299	117510144	85078016	33057960	24992
445	32.64799	117510144	85078016	37128528	24992
446	35.005387	117510144	85078016	27058584	24992
447	34.819883	117510144	85078016	32987760	24992
448	37.23824	117510144	85078016	25030336	24992
449	38.480628	117510144	85078016	34615968	24992
450	39.140176	117510144	85078016	28083064	24992
451	39.899141	117510144	85078016	38590192	24992
452	1.596923	117510144	85078016	33167144	24992
453	2.326386	117510144	85078016	34602496	24992
454	3.117743	117510144	85078016	36509408	24992
455	3.829216	117510144	85078016	38893656	24992
456	4.551268	117510144	85078016	41760768	24992
457	7.282813	117780480	85078016	31487656	24992
458	6.137609	117780480	85078016	35321400	24992
459	6.730115	117780480	85078016	39638128	24992
460	7.521508	117780480	85078016	44440344	24992
461	9.019517	117780480	85078016	33800056	24992
462	9.490869	117780480	85078016	39559128	24992
463	9.768704	117780480	85078016	45805904	24992
464	11.635772	117780480	85078016	36314392	24992
465	11.514046	117780480	85078016	43531408	24992
466	12.786496	117780480	85078016	35338200	24992
467	13.310094	117780480	85078016	43528032	24992
468	14.239206	117780480	85078016	36315288	24992
469	14.603259	117780480	85078016	45487312	24992
470	16.173161	117780480	85078016	38985304	24992
471	17.450398	117780480	85078016	33936784	24992
472	17.315965	117780480	85078016	44599672	24992
473	18.946635	117780480	85078016	39716160	24992
474	19.991578	117780480	85078016	36081800	24992
475	20.817341	117780480	85078016	33437728	24992
476	20.325019	117780480	85078016	46084840	24992
477	22.241381	117780480	85078016	42980128	24992
478	22.322185	117780480	85078016	40856856	24992
479	24.097779	117780480	85078016	39506264	24992
480	24.960878	117780480	85078016	38858672	24992
481	25.323079	117780480	85078016	38816720	24992
482	25.858471	117780480	85078016	39313448	24992
483	27.470886	117780480	85078016	40249488	24992
484	28.806599	117780480	85078016	41604656	24992
485	28.504574	117780480	85078016	43276480	24992
486	28.730103	117780480	85078016	45153952	24992
487	29.954369	117780480	85078016	47271024	24992
488	32.248804	117780480	85602304	35681896	24992
489	32.57275	117780480	85602304	40281576	24992
490	33.267001	117780480	85602304	44687880	24992
491	35.718147	118321152	85602304	35366056	24992
492	37.771925	118321152	85602304	43976960	24992
493	35.92066	118321152	85602304	49902768	24992
494	37.203799	118321152	85602304	41530192	24992
495	39.283571	118321152	85602304	51709592	24992
496	43.665783	118321152	85602304	45212904	24992
497	61.039483	108916736	78262272	19064224	24992
498	41.296838	110809088	78262272	30367824	24992
499	41.465592	110809088	78262272	25472808	24992
500	45.25402	110809088	78262272	25720504	24992
501	43.600682	110809088	78262272	38789632	24992
502	1.706167	110809088	78262272	35472112	24992
503	2.455394	110809088	78262272	37042392	24992
504	3.278106	110809088	78262272	39135312	24992
505	4.128013	110809088	78262272	41751896	24992
506	7.100802	110809088	78262272	31695656	24992
507	6.053321	110809088	78262272	35363048	24992
508	6.781081	110809088	78262272	39560320	24992
509	7.617416	110809088	78262272	44369192	24992
510	8.981969	110809088	78262272	34036760	24992
511	9.558946	110809088	78262272	39816432	24992
512	10.716804	110809088	78262272	30600720	24992
513	10.987255	110809088	78262272	37482488	24992
514	11.920374	110809088	78262272	44855696	24992
515	12.972749	110809088	78262272	36488056	24992
516	13.651418	110809088	78262272	44927800	24992
517	14.869773	110809088	78262272	37563176	24992
518	16.076265	110809088	78262272	31834368	24992
519	16.27289	110809088	78262272	41883520	24992
520	17.925119	110809088	78262272	36616240	24992
521	19.23799	110809088	78262272	32654040	24992
522	18.744299	110809088	78262272	44377424	24992
523	20.128486	110809088	78262272	40340984	24992
524	21.469329	110809088	78262272	37483976	24992
525	22.453247	110809088	78262272	35537872	24992
526	23.677446	110809088	78262272	34456712	24992
527	24.618068	110809088	78262272	34070768	24992
528	25.045499	110809088	78262272	34308792	24992
529	26.521809	110809088	78262272	35016288	24992
530	27.066589	110809088	78262272	36197072	24992
531	27.640149	110809088	78262272	37756088	24992
532	29.100608	110809088	78262272	39639024	24992
533	29.190426	110809088	78786560	41752576	24992
534	30.373574	110809088	78786560	44145168	24992
535	32.178993	111079424	78786560	32899848	24992
536	34.21607	111349760	78786560	40190112	24992
537	32.907351	111349760	78786560	44913128	24992
538	35.657883	111349760	78786560	35871408	24992
539	36.547801	111349760	78786560	44775000	24992
540	35.350195	111349760	78786560	50944256	24992
541	37.784179	111349760	78786560	42754896	24992
542	37.555846	111349760	78786560	50281064	24992
543	39.42118	111349760	78786560	43433416	24992
544	43.786806	111349760	78786560	42798592	24992
545	42.216867	111349760	78786560	54875832	24992
546	42.69724	111620096	79310848	50321568	24992
547	48.533069	115945472	84029440	51336200	24992
548	51.714558	118108160	86126592	65025360	24992
549	62.300095	114184192	81932288	19863712	24992
550	46.650032	114184192	81932288	34779512	24992
551	46.310636	114184192	81932288	32276744	24992
552	1.877302	114184192	81932288	31584904	24992
553	2.802437	114184192	81932288	33294728	24992
554	3.868782	114184192	81932288	35573624	24992
555	6.908399	114184192	81932288	25533760	24992
556	5.680955	114184192	81932288	28961024	24992
557	6.486476	114184192	81932288	32963456	24992
558	7.163972	114184192	81932288	37533952	24992
559	9.337979	114184192	81932288	27577320	24992
560	9.064587	114184192	81932288	33309720	24992
561	10.09318	114184192	81932288	39599920	24992
562	11.352309	114184192	81932288	30116504	24992
563	11.783431	114184192	81932288	37576976	24992
564	13.666345	114184192	81932288	29576560	24992
565	14.097227	114184192	81932288	38204080	24992
566	15.133752	114184192	81932288	31245640	24992
567	17.37696	114184192	81932288	25898456	24992
568	16.656651	114184192	81932288	36255072	24992
569	18.260907	114184192	81932288	31349712	24992
570	19.470107	114184192	81932288	27761320	24992
571	19.957955	114184192	81932288	39871560	24992
572	21.149985	114184192	81932288	36174912	24992
573	21.996145	114184192	81932288	33597568	24992
574	23.578257	114184192	81932288	32021664	24992
575	24.868231	114184192	81932288	31274376	24992
576	25.53613	114184192	81932288	31227528	24992
577	26.370147	114184192	81932288	31768440	24992
578	28.16567	114184192	81932288	32858808	24992
579	28.430902	114184192	81932288	34355512	24992
580	28.755339	114184192	81932288	36282176	24992
581	29.587215	114184192	81932288	38475064	24992
582	32.130554	114184192	81932288	27233280	24992
583	33.756891	114454528	81932288	34435504	24992
584	32.460342	114454528	81932288	39105992	24992
585	35.125098	114454528	81932288	30211672	24992
586	36.715098	114454528	81932288	39145600	24992
587	35.350764	114454528	81932288	45387480	24992
588	38.957941	114454528	81932288	37411768	24992
589	37.980365	114454528	81932288	45151808	24992
590	39.729735	114454528	81932288	38559504	24992
591	44.551917	114454528	81932288	38188704	24992
592	42.683946	114454528	81932288	50605504	24992
593	43.412098	114454528	81932288	46278192	24992
594	47.509982	114995200	82456576	47715224	24992
595	52.717806	116076544	83505152	49620400	24992
596	64.659957	113782784	83505152	23240984	24992
597	51.300563	115671040	83505152	25846416	24992
598	51.027512	115671040	83505152	29508832	24992
599	51.291415	115671040	83505152	33832096	24992
600	55.897933	115671040	83505152	38736848	24992
601	53.570252	115941376	83505152	44188856	24992
602	2.040062	115941376	83505152	50912200	24992
603	3.028957	115941376	83505152	52761600	24992
604	4.047893	115941376	83505152	55226432	24992
605	5.171633	115941376	83505152	58321912	24992
606	8.179168	116211712	83505152	48461488	24992
607	6.84298	116211712	83505152	52780168	24992
608	7.981045	116211712	83505152	57716936	24992
609	9.786187	116211712	83505152	48046632	24992
610	9.776391	116211712	83505152	54225288	24992
611	10.957239	116211712	83505152	61025776	24992
612	12.479043	116211712	83505152	52067320	24992
613	12.862365	116211712	83505152	60114528	24992
614	14.308437	116211712	83505152	52536768	24992
615	15.661165	116211712	83505152	46731928	24992
616	16.212605	116211712	83505152	56656200	24992
617	17.997992	116211712	83505152	51488952	24992
618	19.521665	116211712	83505152	47668448	24992
619	18.869704	116211712	83505152	59496288	24992
620	20.841082	116211712	83505152	55784744	24992
621	21.662481	116211712	83505152	53240720	24992
622	23.306675	116211712	83505152	51703040	24992
623	24.73117	116211712	83505152	51070656	24992
624	25.367093	116211712	83505152	51221128	24992
625	26.909053	116211712	83505152	51982408	24992
626	28.318927	116211712	83505152	53239992	24992
627	28.228752	116211712	83505152	54914840	24992
628	29.59733	116211712	83505152	57007024	24992
629	30.113279	116211712	83505152	59343304	24992
630	32.594955	116211712	83505152	48313488	24992
631	35.973681	116482048	84029440	55795256	24992
632	36.615299	116752384	84553728	60721680	24992
633	49.164698	112103424	80359424	22127392	24992
634	39.719401	112369664	80359424	18474512	24992
635	38.010517	112369664	80359424	28315568	24992
636	39.43928	112369664	80359424	22261032	24992
637	40.037873	112640000	80359424	33506960	24992
638	41.65877	112640000	80359424	28328064	24992
639	43.08437	112640000	80359424	40863576	24992
640	43.290569	112640000	80359424	36265848	24992
641	44.343827	112640000	80359424	33221320	24992
642	48.471004	112910336	80359424	35384816	24992
643	48.723204	112910336	80359424	38192824	24992
644	50.586506	113451008	80883712	41502520	24992
645	60.102177	114802688	82456576	45435848	24992
646	68.227259	113295360	82980864	37588632	24992
647	55.376792	115458048	82980864	29182128	24992
648	54.933679	115458048	82980864	35152984	24992
649	57.332085	115458048	82980864	41813328	24992
650	56.971396	115458048	82980864	49094888	24992
651	57.895122	115458048	82980864	57053976	24992
652	2.119817	117891072	85602304	54043856	24992
653	3.139039	117891072	85602304	56032904	24992
654	4.246506	117891072	85602304	58683840	24992
655	5.441134	117891072	85602304	62004928	24992
656	8.879001	120053760	88223744	52360808	24992
657	7.69044	120324096	88223744	57042336	24992
658	8.415782	120324096	88223744	62351720	24992
659	10.4669	120324096	88223744	52865296	24992
660	10.601774	120324096	88223744	59514528	24992
661	11.802014	120324096	88223744	66861664	24992
662	13.417317	120324096	88223744	58635616	24992
663	14.054393	120324096	88223744	67299104	24992
664	15.116716	120324096	88223744	60275928	24992
665	16.893467	120324096	88223744	55063944	24992
666	17.196271	120324096	88223744	65746928	24992
667	18.504829	120594432	88223744	61053808	24992
668	20.708806	120594432	88223744	57756688	24992
669	21.533975	120594432	88223744	55606768	24992
670	22.907035	120594432	88223744	54446416	24992
671	24.526291	120594432	88223744	54176728	24992
672	25.819868	120594432	88223744	54590992	24992
673	26.502352	120594432	88223744	55679008	24992
674	27.345937	120594432	88223744	57235704	24992
675	28.541967	120594432	88223744	59271576	24992
676	30.894148	120594432	88748032	61712000	24992
677	30.018681	120594432	88748032	64471104	24992
678	31.157916	120864768	88748032	67525336	24992
679	33.896433	120864768	88748032	56911656	24992
680	34.171783	120864768	88748032	62516856	24992
681	34.742982	121135104	88748032	67901088	24992
682	37.47436	121135104	88748032	59359648	24992
683	36.957574	121135104	88748032	66609752	24992
684	39.915896	121675776	89272320	59874296	24992
685	43.971483	124108800	91893760	71576352	24992
686	59.628052	114995200	84553728	19373432	24992
687	44.015448	116883456	84553728	30820408	24992
688	44.335664	116883456	84553728	26965952	24992
689	45.295848	116883456	84553728	24407800	24992
690	50.38303	116883456	84553728	27208744	24992
691	51.945307	116883456	84553728	30610728	24992
692	51.078849	116883456	84553728	34611464	24992
693	51.824623	116883456	84553728	39372040	24992
694	53.7313	116883456	84553728	44812800	24992
695	59.851737	117153792	84553728	50974352	24992
696	75.100299	112013312	81408000	32255616	24992
697	60.000304	113905664	81408000	27410376	24992
698	58.632423	113905664	81408000	35602808	24992
699	58.948847	113905664	81408000	44603296	24992
700	63.34198	113905664	81408000	42107608	24992
701	62.004239	113905664	81408000	52426640	24992
702	2.522862	116879360	84553728	51990832	24992
703	3.692076	116879360	84553728	54119640	24992
704	4.907595	116879360	84553728	56959808	24992
705	6.156672	116879360	84553728	60505904	24992
706	7.418866	116879360	84553728	64762488	24992
707	12.947725	119042048	86650880	55301512	24992
708	10.13788	119042048	86650880	60981000	24992
709	15.749552	119042048	86650880	51875000	24992
710	20.29109	112480256	80359424	16172952	24992
711	13.923894	112480256	80359424	24022432	24992
712	15.103312	112746496	80359424	16972552	24992
713	15.809078	112746496	80359424	26232728	24992
714	16.907809	112746496	80359424	20303016	24992
715	19.010174	112746496	80359424	15976560	24992
716	18.308283	112746496	80359424	27405984	24992
717	20.342545	112746496	80359424	23429048	24992
718	22.21262	112746496	80359424	20788632	24992
719	22.941669	112746496	80359424	19329368	24992
720	24.406462	112746496	80359424	18815528	24992
721	25.899353	112746496	80359424	19103728	24992
722	26.671145	112746496	80359424	20030496	24992
723	28.108723	112746496	80359424	21578336	24992
724	29.349914	112746496	80359424	23619456	24992
725	30.516198	112746496	80359424	26071264	24992
726	31.202704	112746496	80359424	28839032	24992
727	33.972475	112746496	80359424	18175640	24992
728	34.980957	112746496	80359424	23711096	24992
729	35.177836	112746496	80359424	29108704	24992
730	37.669956	112746496	80359424	20544808	24992
731	38.684434	112746496	80359424	27938576	24992
732	41.008089	112746496	80359424	21272856	24992
733	45.265674	112746496	80359424	20815448	24992
734	42.582314	112746496	80359424	33174128	24992
735	43.241151	112746496	80359424	29122760	24992
736	47.526835	112746496	80359424	30855768	24992
737	49.494959	112746496	80359424	33254744	24992
738	47.20771	112746496	80359424	48472840	24992
739	47.953533	112746496	80359424	46365792	24992
740	48.889682	112746496	80359424	45588944	24992
741	54.160305	112746496	80359424	50965440	24992
742	58.154449	113016832	80359424	56993280	24992
743	78.942076	113827840	83505152	25545840	24992
744	59.058809	115720192	83505152	32659800	24992
745	58.806186	115720192	83505152	40954208	24992
746	61.873343	115720192	83505152	37861488	24992
747	60.427224	115720192	83505152	47595232	24992
748	63.658734	115720192	83505152	45897336	24992
749	63.239441	116531200	84029440	57094016	24992
750	80.027437	122478592	90320896	56957752	24992
751	79.823183	120725504	88223744	24802416	24992
752	2.435955	120725504	88223744	39029672	24992
753	6.022171	120725504	88223744	28853168	24992
754	5.116908	120725504	88223744	31877944	24992
755	6.104579	120725504	88223744	35683480	24992
756	7.305495	120725504	88223744	40221824	24992
757	9.83235	120725504	88223744	31017488	24992
758	9.697966	120725504	88223744	37074312	24992
759	10.953037	120725504	88223744	43884536	24992
760	12.462198	120995840	88223744	35137344	24992
761	13.386116	120995840	88223744	43499944	24992
762	14.968557	120995840	88223744	36402272	24992
763	16.79139	120995840	88223744	31098152	24992
764	17.112026	120995840	88223744	41731584	24992
765	19.148296	120995840	88223744	37137976	24992
766	20.995326	120995840	88223744	34019240	24992
767	22.063601	120995840	88223744	32206616	24992
768	24.069765	120995840	88223744	31414880	24992
769	25.064919	120995840	88223744	31503760	24992
770	26.584469	120995840	88223744	32393160	24992
771	27.924056	120995840	88223744	33897272	24992
772	28.522536	120995840	88223744	35993056	24992
773	29.81557	120995840	88223744	38479768	24992
774	30.762413	120995840	88223744	41420392	24992
775	32.033416	120995840	88223744	44676712	24992
776	34.827067	120995840	88223744	34223792	24992
777	35.229352	120995840	88223744	40070344	24992
778	37.608049	120995840	88223744	32529368	24992
779	38.706343	120995840	88223744	42758800	24992
780	39.648617	120995840	88223744	36990112	24992
781	41.479203	120995840	88223744	48729832	24992
782	42.534713	120995840	88223744	43838680	24992
783	46.708185	120995840	88223744	45066744	24992
784	48.226129	120995840	88223744	46722752	24992
785	46.68719	120995840	88223744	61374872	24992
786	46.715707	120995840	88223744	59037448	24992
787	56.95286	121536512	88748032	63364456	24992
788	69.308967	118099968	85602304	22986784	24992
789	54.832522	118099968	85602304	28748864	24992
790	55.408545	118099968	85602304	35161904	24992
791	56.723252	118099968	85602304	42369744	24992
792	57.585535	118099968	85602304	50403424	24992
793	62.190378	118099968	85602304	47089632	24992
794	60.482418	118099968	85602304	56681208	24992
795	74.913015	120262656	87699456	54871088	24992
796	72.10161	120766464	88223744	33796480	24992
797	66.652162	120766464	88223744	33816384	24992
798	67.938028	120766464	88223744	34408664	24992
799	66.260303	120766464	88223744	48002880	24992
800	70.992051	120766464	88223744	50119936	24992
801	72.839843	120766464	88223744	53092944	24992
802	2.576894	117379072	87175168	28576224	24992
803	3.830353	117379072	87175168	30994680	24992
804	5.148484	117379072	87175168	34203672	24992
805	8.70511	118456320	87175168	24456064	24992
806	8.134192	119267328	87175168	29284520	24992
807	9.197736	119267328	87175168	34920872	24992
808	11.123757	119267328	87175168	26109280	24992
809	11.734567	119267328	87175168	33368768	24992
810	14.05846	119267328	87175168	26084568	24992
811	14.254858	119267328	87175168	34949248	24992
812	16.491968	119267328	87175168	29023760	24992
813	16.792265	119267328	87175168	39483992	24992
814	18.789751	119267328	87175168	34452944	24992
815	20.320578	119267328	87175168	30990936	24992
816	21.913619	119267328	87175168	28912440	24992
817	23.771547	119267328	87175168	27953888	24992
818	25.317108	119267328	87175168	27980264	24992
819	26.273508	119267328	87175168	28835112	24992
820	27.620349	119267328	87175168	30401256	24992
821	29.849411	119267328	87175168	32549352	24992
822	30.108773	119267328	87175168	35134928	24992
823	31.64296	119267328	87175168	38207696	24992
824	34.121045	119267328	87175168	27916264	24992
825	35.91776	119267328	87175168	36202704	24992
826	35.552782	119267328	87175168	42071296	24992
827	38.152862	119267328	87175168	33980760	24992
828	39.834805	119267328	87175168	44806728	24992
829	40.759818	119267328	87175168	38911560	24992
830	44.762247	119267328	87175168	39238008	24992
831	43.856873	119267328	87175168	52228328	24992
832	44.211563	119267328	87175168	48521648	24992
833	45.972527	119267328	87175168	46447768	24992
834	51.189171	119267328	87175168	50025768	24992
835	51.804807	119267328	87175168	54161192	24992
836	53.1918	120348672	87699456	59133720	24992
837	56.722938	124133376	91369472	64959440	24992
838	78.854532	123248640	92942336	26093288	24992
839	56.751688	125136896	92942336	32484528	24992
840	58.631196	125136896	92942336	40902488	24992
841	65.358246	125136896	92942336	37943376	24992
842	62.475895	125136896	92942336	47912192	24992
843	67.427503	125136896	92942336	46666264	24992
844	64.517637	125136896	92942336	58391016	24992
845	71.706087	125677568	93466624	58824128	24992
846	85.497906	123510784	90845184	26420664	24992
847	67.857124	123510784	90845184	40849656	24992
848	71.843059	123510784	90845184	43866400	24992
849	73.331335	123510784	90845184	47686976	24992
850	74.778139	123510784	90845184	52402568	24992
851	76.658331	123510784	90845184	57975752	24992
852	6.653267	122429440	91893760	19511096	24992
853	4.283979	122429440	91893760	22115608	24992
854	6.139122	122429440	91893760	25576464	24992
855	7.536062	122429440	91893760	29901736	24992
856	9.788305	123777024	91893760	20017272	24992
857	9.621225	124317696	91893760	26094816	24992
858	11.085462	124317696	91893760	33020312	24992
859	12.854567	124317696	91893760	24639896	24992
860	13.851577	124317696	91893760	33332608	24992
861	15.615752	124317696	91893760	26702608	24992
862	17.52753	124317696	91893760	21959936	24992
863	18.33862	124317696	91893760	33255128	24992
864	19.776982	124317696	91893760	29272816	24992
865	21.563836	124317696	91893760	26758432	24992
866	23.478207	124317696	91893760	25497368	24992
867	25.254058	124317696	91893760	25257408	24992
868	26.329127	124317696	91893760	25934496	24992
869	28.253064	124317696	91893760	27484008	24992
870	28.732099	124317696	91893760	29612536	24992
871	30.305048	124317696	91893760	32243912	24992
872	33.449361	124317696	91893760	21749968	24992
873	35.930694	124317696	91893760	29878008	24992
874	34.453816	124317696	91893760	35544392	24992
875	36.841637	124317696	91893760	27676096	24992
876	40.087436	124317696	91893760	38271456	24992
877	40.533379	124317696	91893760	32592392	24992
878	45.99032	124317696	91893760	32838504	24992
879	44.398638	124317696	91893760	45992264	24992
880	43.966756	124317696	91893760	42515544	24992
881	48.396301	124317696	91893760	45392464	24992
882	51.903527	124317696	91893760	48926456	24992
883	52.143035	124317696	91893760	53461304	24992
884	54.5133	124317696	91893760	58727312	24992
885	77.378847	117493760	87175168	21864640	24992
886	57.430841	119652352	87175168	28439376	24992
887	57.428974	119652352	87175168	36427848	24992
888	59.190622	119652352	87175168	45350056	24992
889	62.678658	119652352	87175168	42978520	24992
890	61.944875	119652352	87175168	53590888	24992
891	65.797054	119652352	87175168	53072944	24992
892	66.350274	120733696	88748032	65553104	24992
893	90.476653	120971264	90320896	34538688	24992
894	69.655413	122859520	90320896	35900256	24992
895	71.554007	122859520	90320896	38920912	24992
896	72.150795	122859520	90320896	42802440	24992
897	74.486543	122859520	90320896	47619088	24992
898	75.621091	122859520	90320896	53211688	24992
899	90.130243	125292544	92942336	59957232	24992
900	87.846345	124313600	91893760	32803104	24992
901	79.97644	124313600	91893760	41186192	24992
902	5.588377	124313600	91893760	39128472	24992
903	4.397456	124313600	91893760	41890928	24992
904	5.971886	124313600	91893760	45538976	24992
905	7.392316	124313600	91893760	50096888	24992
906	10.390947	124583936	91893760	41473272	24992
907	10.339523	124583936	91893760	47857912	24992
908	12.53888	124583936	91893760	39801008	24992
909	13.774142	124583936	91893760	48020384	24992
910	15.539408	124583936	91893760	41736512	24992
911	16.131873	124583936	91893760	51801096	24992
912	18.04514	124583936	91893760	46781792	24992
913	20.151383	124583936	91893760	43481528	24992
914	21.570528	124583936	91893760	41619720	24992
915	23.638008	124583936	91893760	40928656	24992
916	25.255918	124583936	91893760	41311768	24992
917	26.408363	124583936	91893760	42577576	24992
918	27.805843	124583936	91893760	44551056	24992
919	29.629761	124583936	91893760	47082560	24992
920	31.341453	124583936	91893760	50235384	24992
921	31.698761	124583936	91893760	53855680	24992
922	34.811932	124583936	91893760	44111624	24992
923	35.49203	124583936	91893760	50490240	24992
924	38.532418	124583936	91893760	43484104	24992
925	39.733927	124583936	91893760	54495392	24992
926	41.264621	124583936	91893760	49370920	24992
927	45.529631	124583936	91893760	50020272	24992
928	46.139873	124583936	91893760	63701680	24992
929	63.854669	118747136	83505152	16207376	24992
930	48.999423	115916800	83505152	31014160	24992
931	48.063945	115916800	83505152	29712576	24992
932	52.617126	115916800	83505152	34874336	24992
933	54.417783	115916800	83505152	40860824	24992
934	58.217306	115916800	83505152	35713920	24992
935	57.224786	115916800	83505152	43682152	24992
936	58.447816	115916800	83505152	52549920	24992
937	66.886875	116187136	83505152	50071088	24992
938	78.712639	116457472	86126592	32528744	24992
939	65.920815	118349824	86126592	31617152	24992
940	64.364724	118349824	86126592	44154360	24992
941	68.145532	118349824	86126592	45694384	24992
942	69.739896	118349824	86126592	48040944	24992
943	71.628736	118890496	86650880	51267984	24992
944	77.106896	120782848	88223744	67665936	24992
945	91.628651	122728448	90320896	27708824	24992
946	76.429961	122728448	90320896	33723256	24992
947	78.27377	122728448	90320896	40786672	24992
948	78.845609	122728448	90320896	48798192	24992
949	80.384071	122728448	90320896	57728808	24992
950	105.29844	115781632	85602304	23864520	24992
951	84.242145	117669888	85602304	33921632	24992
952	5.649352	117669888	85602304	34581584	24992
953	4.56378	117669888	85602304	37462864	24992
954	6.287215	117669888	85602304	41320216	24992
955	7.578714	117669888	85602304	46143144	24992
956	10.680935	117669888	85602304	37593112	24992
957	10.816653	117669888	85602304	44303840	24992
958	12.795785	117669888	85602304	36311696	24992
959	13.916449	117669888	85602304	44994488	24992
960	16.225486	117669888	85602304	38856744	24992
961	18.085169	117669888	85602304	34568208	24992
962	18.523983	117669888	85602304	46099664	24992
963	20.674859	117669888	85602304	42680936	24992
964	22.699062	117669888	85602304	40705336	24992
965	24.120417	117669888	85602304	40012896	24992
966	26.152273	117669888	85602304	40396160	24992
967	27.623205	117669888	85602304	41778088	24992
968	29.183251	117669888	85602304	43812984	24992
969	31.028431	117669888	85602304	46562648	24992
970	33.855652	117669888	85602304	36281128	24992
971	35.380269	117669888	85602304	44539168	24992
972	34.83201	117669888	85602304	50512360	24992
973	37.745732	117669888	85602304	42848048	24992
974	40.624339	117669888	85602304	54009960	24992
975	42.035537	117669888	85602304	48643320	24992
976	43.656997	117669888	85602304	45403576	24992
977	47.497172	118210560	85602304	47268000	24992
978	47.613176	118210560	85602304	62106000	24992
979	62.655345	118210560	85602304	60089064	24992
980	54.457757	115601408	82980864	31190504	24992
981	51.22604	115601408	82980864	30812584	24992
982	54.145268	115601408	82980864	19736512	24992
983	57.725742	115601408	82980864	27308768	24992
984	58.224974	115601408	82980864	35854392	24992
985	59.796303	115601408	82980864	45427216	24992
986	64.82844	115601408	82980864	43902008	24992
987	63.594311	115601408	82980864	55426048	24992
988	84.761753	116412416	84029440	55753352	24992
989	74.759485	117010432	84553728	27481424	24992
990	69.745893	117010432	84553728	29845400	24992
991	70.619459	117010432	84553728	45343832	24992
992	73.911589	117010432	84553728	49695104	24992
993	75.326085	117010432	84553728	54936856	24992
994	83.046973	118091776	85602304	61190808	24992
995	99.065185	119246848	86650880	25844320	24992
996	81.271888	119246848	86650880	34038632	24992
997	82.024718	119246848	86650880	43231048	24992
998	83.105844	119246848	86650880	53568320	24992
999	88.323172	119246848	86650880	52726432	24992
1000	110.796664	118833152	88223744	34592624	24992
x	Duration	RSS	HeapTotal	HeapUsed	External
0	NA	111050752	79835136	22692352	24992
1	0.348655	111050752	79835136	22740952	24992
2	0.305811	111050752	79835136	22817240	24992
3	0.377156	111050752	79835136	22920512	24992
4	0.440636	111050752	79835136	23052304	24992
5	0.532998	111050752	79835136	23214064	24992
6	0.587902	111050752	79835136	23406272	24992
7	0.671026	111050752	79835136	23629912	24992
8	0.840015	111050752	79835136	23885936	24992
9	0.869295	111050752	79835136	24176312	24992
10	1.157395	111050752	79835136	24501624	24992
11	0.564077	111050752	79835136	24862864	24992
12	0.616424	111050752	79835136	25261192	24992
13	0.666476	111050752	79835136	25697144	24992
14	0.728426	111050752	79835136	26171968	24992
15	0.817703	111050752	79835136	26686568	24992
16	0.86022	111050752	79835136	27241976	24992
17	0.90165	111050752	79835136	27841072	24992
18	0.972311	111050752	79835136	28482880	24992
19	1.062995	111050752	79835136	29169752	24992
20	1.129557	111050752	79835136	29900976	24992
21	1.15945	111050752	79835136	30678296	24992
22	1.244098	111050752	79835136	31502664	24992
23	1.525839	111050752	79835136	32374912	24992
24	1.383343	111050752	79835136	33297136	24992
25	1.461929	111050752	79835136	34270360	24992
26	1.538649	111050752	79835136	35295600	24992
27	1.596619	111050752	79835136	36373856	24992
28	3.958707	111857664	79835136	22375136	24992
29	2.298138	112939008	79835136	23562160	24992
30	2.01005	113479680	79835136	24805048	24992
31	1.943137	113479680	79835136	26104760	24992
32	2.013664	113479680	79835136	27464960	24992
33	2.180388	113479680	79835136	28888296	24992
34	2.219983	113479680	79835136	30371696	24992
35	2.311174	113479680	79835136	31915960	24992
36	2.386857	113479680	79835136	33522232	24992
37	2.469808	113479680	79835136	35191448	24992
38	2.607758	113479680	79835136	36924672	24992
39	4.469891	113479680	79835136	22856288	24992
40	2.773818	113479680	79835136	24719360	24992
41	2.836789	113479680	79835136	26649008	24992
42	2.932096	113479680	79835136	28647808	24992
43	3.44775	113479680	79835136	30713696	24992
44	3.3959	113479680	79835136	32849256	24992
45	3.50622	113479680	79835136	35056592	24992
46	4.318895	113479680	79835136	37335856	24992
47	4.746926	113479680	79835136	23549064	24992
48	3.815815	113479680	79835136	25976016	24992
49	3.939247	113479680	79835136	28477352	24992
50	4.155916	113479680	79835136	31057448	24992
51	4.078398	113479680	79835136	33721024	24992
52	0.263337	113479680	79835136	36372368	24992
53	0.398866	113479680	79835136	36613944	24992
54	0.502068	113479680	79835136	36937544	24992
55	0.617522	113479680	79835136	37344200	24992
56	0.742868	113479680	79835136	37837472	24992
57	0.857094	113479680	79835136	38413672	24992
58	0.992873	113479680	79835136	39076392	24992
59	1.99985	113479680	79835136	23536848	24992
60	1.24815	113479680	79835136	24374984	24992
61	1.381	113479680	79835136	25303464	24992
62	1.496488	113479680	79835136	26320240	24992
63	1.642396	113479680	79835136	27428000	24992
64	1.962953	113479680	79835136	28627368	24992
65	2.013074	113479680	79835136	29919520	24992
66	2.05786	113479680	79835136	31305496	24992
67	2.470804	113479680	79835136	32786336	24992
68	2.319124	113479680	79835136	34364656	24992
69	2.462844	113479680	79835136	36039872	24992
70	2.603246	113479680	79835136	37813008	24992
71	3.525558	113479680	79835136	23564536	24992
72	3.187675	113479680	79835136	25535768	24992
73	3.066005	113479680	79835136	27607728	24992
74	3.182891	113479680	79835136	29782424	24992
75	3.354009	113479680	79835136	32060776	24992
76	3.502128	113479680	79835136	34440464	24992
77	3.644867	113479680	79835136	36924416	24992
78	3.970136	113479680	79835136	39513864	24992
79	4.579152	113479680	79835136	25845288	24992
80	4.117345	113479680	79835136	28648688	24992
81	4.539322	113479680	79835136	31561840	24992
82	4.412446	113479680	79835136	34583312	24992
83	4.598639	113479680	79835136	37717368	24992
84	6.650043	113479680	79835136	24856944	24992
85	4.919528	113479680	79835136	28222024	24992
86	5.380655	113479680	79835136	31701416	24992
87	5.289226	113479680	79835136	35295928	24992
88	5.691915	113479680	79835136	39006928	24992
89	6.880345	113479680	79835136	26685576	24992
90	6.161207	113479680	79835136	30632208	24992
91	5.968983	113479680	79835136	34698120	24992
92	6.511203	113479680	79835136	38885536	24992
93	7.78619	113479680	79835136	27232008	24992
94	6.503778	113479680	79835136	31661856	24992
95	7.711073	113479680	79835136	36223696	24992
96	8.261209	113479680	79835136	25384736	24992
97	7.623512	113479680	79835136	30192912	24992
98	7.420809	113479680	79835136	35122496	24992
99	7.436775	113479680	79835136	40178200	24992
100	8.755484	113479680	79835136	29274848	24992
101	8.175057	113479680	79835136	34589736	24992
102	0.424553	113479680	79835136	40018408	24992
103	0.614628	113479680	79835136	40421984	24992
104	0.995065	113479680	79835136	40961720	24992
105	1.935778	113479680	79835136	25541752	24992
106	1.212118	113479680	79835136	26357112	24992
107	1.394026	113479680	79835136	27311600	24992
108	1.587797	113479680	79835136	28407536	24992
109	1.802728	113479680	79835136	29642976	24992
110	2.009372	113479680	79835136	31021408	24992
111	2.400644	113479680	79835136	32542744	24992
112	2.407886	113479680	79835136	34208232	24992
113	2.627682	113479680	79835136	36018360	24992
114	2.83556	113479680	79835136	37974488	24992
115	3.098743	113479680	79835136	40080936	24992
116	4.620884	113479680	79835136	26342912	24992
117	3.785461	113479680	79835136	28742408	24992
118	4.099956	113479680	79835136	31293488	24992
119	3.930926	113479680	79835136	33998560	24992
120	4.135242	113479680	79835136	36853832	24992
121	4.640541	113479680	79835136	39860488	24992
122	5.99451	113479680	79835136	27075344	24992
123	5.224846	113479680	79835136	30393416	24992
124	5.039241	113479680	79835136	33867176	24992
125	5.265739	113479680	79835136	37498248	24992
126	5.73553	113479680	79835136	41286040	24992
127	7.117961	113479680	79835136	29059536	24992
128	5.950766	113479680	79835136	33165232	24992
129	6.406642	113479680	79835136	37428456	24992
130	6.42609	113479680	79835136	41853184	24992
131	8.092485	113479680	79835136	30229168	24992
132	7.473586	113479680	79835136	34980032	24992
133	7.730867	113479680	79835136	39898760	24992
134	9.112744	113479680	79835136	29056192	24992
135	7.989535	113479680	79835136	34316840	24992
136	7.899731	113479680	79835136	39740248	24992
137	9.425839	113479680	79835136	29481048	24992
138	8.655612	113479680	79835136	35243824	24992
139	10.059848	113479680	79835136	41187672	24992
140	10.177065	113479680	79835136	31227080	24992
141	9.392268	113479680	79835136	37500008	24992
142	11.071408	113479680	79835136	28510632	24992
143	10.039656	113479680	79835136	35137912	24992
144	9.925748	113479680	79835136	41943424	24992
145	11.542462	113479680	79835136	32769176	24992
146	10.71071	113479680	79835136	39927200	24992
147	12.175541	113479680	79835136	31499768	24992
148	11.065428	113479680	79835136	39022880	24992
149	13.250377	113479680	79835136	31095328	24992
150	11.963247	113479680	79835136	38979024	24992
151	13.561007	113479680	79835136	31459184	24992
152	0.620396	113479680	79835136	39747640	24992
153	0.850327	113479680	79835136	40303000	24992
154	1.118053	113479680	79835136	41045080	24992
155	1.397942	113479680	79835136	41974840	24992
156	1.664577	113479680	79835136	43093792	24992
157	3.324003	113479680	79835136	28277472	24992
158	2.230896	113479680	79835136	29776664	24992
159	2.488788	113479680	79835136	31467464	24992
160	2.783145	113479680	79835136	33351704	24992
161	3.118589	113479680	79835136	35429432	24992
162	3.350353	113479680	79835136	37701696	24992
163	3.622886	113479680	79835136	40169400	24992
164	3.917108	113479680	79835136	42833624	24992
165	5.653455	113479680	79835136	29602360	24992
166	4.510778	113479680	79835136	32662560	24992
167	4.977205	113479680	79835136	35921968	24992
168	5.108624	113479680	79835136	39383720	24992
169	5.469566	113479680	79835136	43046792	24992
170	7.020028	113479680	79835136	30801992	24992
171	6.19585	113479680	79835136	34871032	24992
172	6.311041	113479680	79835136	39144304	24992
173	6.751068	113479680	79835136	43622752	24992
174	8.241593	113479680	79835136	32105888	24992
175	7.436673	113479680	79835136	36997840	24992
176	7.599535	113479680	79835136	42097872	24992
177	9.426227	113479680	79835136	31463304	24992
178	8.139784	113479680	79835136	36983000	24992
179	8.649194	113479680	79835136	42713528	24992
180	10.451026	113479680	79835136	32635432	24992
181	9.45123	113479680	79835136	38793200	24992
182	11.438634	113479680	79835136	29843944	24992
183	10.574507	113479680	79835136	36432024	24992
184	10.177256	113479680	79835136	43243216	24992
185	12.488642	113479680	79835136	34193032	24992
186	11.100705	113479680	79835136	41435712	24992
187	12.988273	113479680	79835136	33178352	24992
188	11.852696	113479680	79835136	40859680	24992
189	13.79092	113479680	79835136	33128080	24992
190	12.219241	113479680	79835136	41257640	24992
191	14.540534	113479680	79835136	33942016	24992
192	12.920384	113479680	79835136	42514048	24992
193	15.102661	113750016	80359424	35461712	24992
194	13.599595	113750016	80359424	44491176	24992
195	15.927839	113750016	80883712	37558184	24992
196	16.626852	114020352	81408000	32062416	24992
197	14.69261	114020352	81408000	41776568	24992
198	17.683343	114020352	81932288	36031008	24992
199	17.773702	114020352	82456576	31547232	24992
200	15.663909	114020352	82456576	41954768	24992
201	17.956237	114290688	82980864	36910664	24992
202	0.761033	114290688	83505152	33149216	24992
203	1.497953	114290688	83505152	33851488	24992
204	1.679187	114290688	83505152	34788632	24992
205	1.866705	114290688	83505152	35967752	24992
206	2.162872	114290688	83505152	37383264	24992
207	2.632533	114290688	83505152	39041360	24992
208	2.896041	114290688	83505152	40947320	24992
209	3.394307	114290688	83505152	43102216	24992
210	3.963281	114290688	83505152	45507040	24992
211	5.797121	114561024	84029440	31999032	24992
212	4.550144	114561024	84029440	34907656	24992
213	5.050009	114561024	84029440	38069312	24992
214	5.34319	114561024	84029440	41482096	24992
215	5.78964	114561024	84029440	45150456	24992
216	7.686114	114561024	84553728	32989224	24992
217	6.560379	114561024	84553728	37173344	24992
218	6.935308	114561024	84553728	41611664	24992
219	7.297234	114561024	84553728	46309880	24992
220	9.064843	114561024	85078016	34996888	24992
221	7.969244	114561024	85078016	40213648	24992
222	8.541349	114561024	85078016	45700312	24992
223	10.43955	114831360	85602304	35280504	24992
224	9.463308	114831360	85602304	41291448	24992
225	11.863702	114831360	86126592	32142776	24992
226	10.247786	114831360	86126592	38683408	24992
227	10.764863	114831360	86126592	45488128	24992
228	12.559673	114831360	86650880	36455352	24992
229	11.503357	114831360	86650880	43802384	24992
230	13.786906	115101696	87175168	35636440	24992
231	12.498987	115101696	87175168	43540424	24992
232	14.651039	115101696	87699456	35953880	24992
233	13.325345	115101696	87699456	44387944	24992
234	15.587554	115101696	88223744	37251216	24992
235	13.966338	115101696	88223744	46244488	24992
236	16.46762	115372032	88748032	39350088	24992
237	17.290909	115372032	89272320	33910104	24992
238	15.48561	115372032	89272320	43749424	24992
239	17.911498	115372032	89796608	38152936	24992
240	19.193337	115642368	90320896	33813448	24992
241	16.836609	115642368	90320896	44492816	24992
242	19.06154	115642368	90845184	39638320	24992
243	20.278522	115642368	91369472	35915640	24992
244	17.76507	115642368	91369472	47447904	24992
245	20.193451	115912704	91893760	42979888	24992
246	21.216237	115912704	92418048	39605288	24992
247	22.015807	115912704	92942336	37069568	24992
248	23.019885	116183040	93466624	35279328	24992
249	20.478787	116183040	93466624	48249072	24992
250	22.46784	116183040	93990912	45184784	24992
251	23.546119	116183040	94515200	42972016	24992
252	0.956372	116453376	95039488	41574400	24992
253	1.410861	116453376	95039488	42455944	24992
254	1.878453	116453376	95039488	43632600	24992
255	2.290229	116453376	95039488	45105584	24992
256	2.899446	116453376	95039488	46876416	24992
257	3.222662	116453376	95039488	48945408	24992
258	5.585541	116453376	95563776	34985048	24992
259	4.188663	116453376	95563776	37655288	24992
260	4.614085	116453376	95563776	40633976	24992
261	5.252651	116453376	95563776	43908680	24992
262	5.567058	116453376	95563776	47484752	24992
263	8.097987	116453376	96088064	35280376	24992
264	6.456808	116453376	96088064	39465472	24992
265	7.092708	116453376	96088064	43959040	24992
266	7.435108	116453376	96088064	48758456	24992
267	9.541135	116723712	96612352	37595064	24992
268	8.558564	116723712	96612352	43017544	24992
269	9.043676	116723712	96612352	48754968	24992
270	11.074104	116723712	97136640	38551704	24992
271	10.013922	116723712	97136640	44903568	24992
272	12.533756	116723712	97660928	35951688	24992
273	10.844985	116723712	97660928	42930648	24992
274	13.864903	116994048	98185216	34960144	24992
275	11.994807	116994048	98185216	42585608	24992
276	15.017173	116994048	98709504	35352288	24992
277	12.816214	116994048	98709504	43595792	24992
278	15.695034	116994048	99233792	36837360	24992
279	13.972397	116994048	99233792	45718392	24992
280	16.95508	116994048	99758080	39227936	24992
281	14.803298	116994048	99758080	48757544	24992
282	17.492452	117264384	100282368	42407344	24992
283	18.42916	117264384	100806656	37470592	24992
284	16.725012	117264384	100806656	47974448	24992
285	19.128729	117264384	101330944	42740680	24992
286	20.226746	117534720	101855232	38787192	24992
287	17.837745	117534720	101855232	50270928	24992
288	20.138707	117534720	102379520	45706384	24992
289	21.614319	117534720	102903808	42243688	24992
290	22.867849	117534720	103428096	39711016	24992
291	23.177041	117805056	103952384	37969504	24992
292	23.930725	117805056	104476672	36883904	24992
293	21.649738	117805056	104476672	50357808	24992
294	23.663445	117805056	105000960	47833448	24992
295	24.712752	118075392	105525248	46097744	24992
296	25.266969	118075392	106049536	44950008	24992
297	26.358246	118075392	106573824	44366320	24992
298	26.795709	118075392	107098112	44260256	24992
299	27.238485	118345728	107622400	44508632	24992
300	28.314105	118345728	108146688	45087592	24992
301	28.946266	118345728	108670976	45900152	24992
302	1.126011	118345728	109195264	47149840	24992
303	1.648104	118345728	109195264	48177368	24992
304	2.139358	118345728	109195264	49549008	24992
305	2.69205	118345728	109195264	51277528	24992
306	5.112623	118616064	109719552	37055120	24992
307	3.893966	118616064	109719552	39465560	24992
308	4.419658	118616064	109719552	42223944	24992
309	4.838552	118616064	109719552	45331208	24992
310	5.544827	118616064	109719552	48795552	24992
311	8.337157	118616064	110243840	36728576	24992
312	6.636876	118616064	110243840	40893760	24992
313	7.914831	118616064	110243840	45425880	24992
314	7.752675	118616064	110243840	50305528	24992
315	10.333499	118616064	110768128	39435808	24992
316	8.708135	118616064	110768128	45017808	24992
317	9.257673	118616064	110768128	50960232	24992
318	11.9086	118886400	111292416	41080072	24992
319	10.302565	118886400	111292416	47738352	24992
320	13.55796	118886400	111816704	39115728	24992
321	11.551195	118886400	111816704	46506624	24992
322	14.666589	118886400	112340992	38839304	24992
323	12.715233	118886400	112340992	46945872	24992
324	16.188901	118886400	112865280	39900216	24992
325	13.745431	118886400	112865280	48741912	24992
326	16.820767	119156736	113389568	42143648	24992
327	15.248035	119156736	113389568	51705288	24992
328	17.471249	119156736	113913856	45336864	24992
329	19.211799	119156736	114438144	40453560	24992
330	16.748208	119156736	114438144	51125360	24992
331	19.638997	119156736	114962432	45974816	24992
332	20.788845	119427072	115486720	42138432	24992
333	21.668203	119427072	116011008	39323920	24992
334	19.077281	119427072	116011008	51488056	24992
335	22.273894	119427072	116535296	47849592	24992
336	23.35038	119697408	117059584	45244736	24992
337	24.207657	119697408	117583872	43438392	24992
338	24.949427	119697408	118108160	42329264	24992
339	25.908196	119697408	118632448	41814256	24992
340	26.570278	119697408	119156736	41771920	24992
341	27.409783	119967744	119681024	42147424	24992
342	27.712617	119967744	120205312	42852256	24992
343	28.425	119967744	120729600	43845640	24992
344	28.803519	119967744	121253888	45039656	24992
345	29.208755	120238080	121778176	46428480	24992
346	29.794987	120238080	122302464	47959104	24992
347	29.890464	120238080	122826752	49613144	24992
348	30.487317	120508416	123351040	51392632	24992
349	30.740001	120508416	123875328	53257328	24992
350	35.527649	120778752	124923904	41717512	24992
351	32.64458	120778752	125448192	46085496	24992
352	1.272209	120778752	125972480	50408368	24992
353	1.832538	120778752	125972480	51582216	24992
354	2.484955	120778752	125972480	53148848	24992
355	5.351311	121049088	126496768	38947392	24992
356	3.558069	121049088	126496768	41305728	24992
357	4.221374	121049088	126496768	44057328	24992
358	4.895848	121049088	126496768	47208440	24992
359	5.523561	121049088	126496768	50754488	24992
360	8.617386	121049088	127021056	38965736	24992
361	6.794085	121049088	127021056	43320176	24992
362	7.859307	121049088	127021056	48080608	24992
363	8.177029	121049088	127021056	53246696	24992
364	11.209572	121049088	127545344	42650424	24992
365	9.323333	121049088	127545344	48631144	24992
366	12.636171	121319424	128069632	39675136	24992
367	10.809183	121319424	128069632	46475008	24992
368	11.113699	121319424	128069632	53695440	24992
369	14.416261	121319424	128593920	45073016	24992
370	12.554027	121319424	128593920	53124904	24992
371	15.665813	121319424	129118208	45480760	24992
372	13.694965	121319424	129118208	54349880	24992
373	16.926598	121589760	129642496	47311912	24992
374	18.248061	121589760	130166784	41903344	24992
375	15.859594	121589760	130166784	52024200	24992
376	19.377624	121589760	130691072	46658640	24992
377	20.540147	121860096	131215360	42655736	24992
378	17.74342	121860096	131215360	54032640	24992
379	21.072295	121860096	131739648	49589136	24992
380	22.468251	121860096	132263936	46369040	24992
381	23.405675	122130432	132788224	44129112	24992
382	24.177449	122130432	133312512	42735712	24992
383	25.128954	122130432	133836800	42030248	24992
384	25.977139	122130432	134361088	41883000	24992
385	26.959078	122400768	134885376	42242704	24992
386	27.412681	122400768	135409664	42969784	24992
387	27.935118	122400768	135933952	43976760	24992
388	28.467636	122400768	136458240	45278024	24992
389	29.667828	122671104	136982528	46795504	24992
390	30.009347	122671104	137506816	48449248	24992
391	30.531878	122671104	138031104	50259520	24992
392	30.753841	122941440	138555392	52200264	24992
393	31.266682	122941440	139079680	54244536	24992
394	36.683055	123482112	140128256	43083800	24992
395	36.210756	126185472	143273984	50455288	24992
396	33.55476	126455808	143798272	54686376	24992
397	34.390821	126455808	144322560	58613512	24992
398	38.074234	126726144	145371136	48868040	24992
399	36.248206	126726144	145371136	54698896	24992
400	41.725021	127537152	146944000	47148568	24992
401	40.745454	130510848	150089728	57107472	24992
402	4.249778	130510848	151138304	47654096	24992
403	2.090829	130510848	151138304	48987640	24992
404	2.640666	130510848	151138304	50767224	24992
405	3.278556	130510848	151138304	52994656	24992
406	4.203205	130510848	151138304	55669760	24992
407	4.800255	130781184	151138304	58793728	24992
408	5.724328	130781184	151138304	62371520	24992
409	8.965447	130781184	151662592	50194344	24992
410	6.922138	130781184	151662592	54674424	24992
411	7.702848	130781184	151662592	59605176	24992
412	11.374765	130781184	152186880	49310304	24992
413	8.991491	130781184	152186880	55149816	24992
414	9.828377	130781184	152186880	61454752	24992
415	13.52743	130781184	152711168	52184920	24992
416	10.946524	130781184	152711168	59409568	24992
417	15.303781	131051520	153235456	51455816	24992
418	12.805397	131051520	153235456	59635784	24992
419	16.583064	131051520	153759744	52604528	24992
420	14.155735	131051520	153759744	61736064	24992
421	18.062174	131051520	154284032	55317560	24992
422	19.125174	131051520	154808320	50524056	24992
423	16.115893	131051520	154808320	61086008	24992
424	20.358903	131321856	155332608	56206952	24992
425	21.604734	131321856	155856896	52725824	24992
426	22.567259	131321856	156381184	50291112	24992
427	19.472629	131321856	156381184	62793728	24992
428	22.680852	131321856	156905472	59639144	24992
429	24.3453	131592192	157429760	57486528	24992
430	24.873494	131592192	157954048	56186656	24992
431	26.354329	131592192	158478336	55633024	24992
432	26.797306	131862528	159002624	55669576	24992
433	27.427416	131862528	159526912	56219712	24992
434	28.20907	131862528	160051200	57165864	24992
435	28.796822	131862528	160575488	58464656	24992
436	29.459383	132132864	161099776	60064336	24992
437	30.313911	132132864	161624064	61840912	24992
438	31.216279	132132864	162148352	63814816	24992
439	36.179897	132403200	163196928	52509392	24992
440	36.751334	135376896	166342656	60068784	24992
441	34.346023	135647232	166866944	64580928	24992
442	39.773258	136187904	168439808	55586864	24992
443	41.978456	139161600	171585536	64581272	24992
444	53.408361	114704384	107622400	23833760	24992
445	42.184897	118484992	107622400	20734576	24992
446	40.828872	120377344	107622400	30901736	24992
447	40.063659	121188352	107622400	24954920	24992
448	40.423737	122810368	107622400	36370376	24992
449	39.98425	123351040	107622400	30948672	24992
450	46.959072	127406080	107622400	31704912	24992
451	42.333772	129298432	107622400	44444640	24992
452	1.600254	129839104	107622400	40780112	24992
453	2.338252	129839104	107622400	42309224	24992
454	3.118855	129839104	107622400	44349520	24992
455	3.887706	129839104	107622400	46902112	24992
456	8.413182	132272128	107622400	37336440	24992
457	5.519705	132272128	107622400	40918664	24992
458	6.263613	132272128	107622400	45014512	24992
459	7.027961	132272128	107622400	49626672	24992
460	9.011992	132812800	107622400	39435288	24992
461	8.696694	132812800	107622400	45113352	24992
462	9.398206	132812800	107622400	51325264	24992
463	10.50359	132812800	107622400	41636952	24992
464	10.845457	132812800	107622400	48845312	24992
465	12.534224	132812800	107622400	40623392	24992
466	12.613079	132812800	107622400	48876816	24992
467	14.190417	132812800	107622400	41700744	24992
468	14.120343	132812800	107622400	51004608	24992
469	15.413492	132812800	107622400	44553712	24992
470	16.839007	132812800	107622400	39790744	24992
471	17.063851	132812800	107622400	50677624	24992
472	18.096812	133083136	107622400	45840176	24992
473	19.641265	133083136	107622400	42366456	24992
474	20.561246	133083136	107622400	40056736	24992
475	21.875855	133083136	107622400	38730232	24992
476	22.990917	133083136	107622400	38106896	24992
477	23.929839	133083136	107622400	38126888	24992
478	24.885744	133083136	107622400	38670224	24992
479	25.44234	133083136	107622400	39656232	24992
480	26.397828	133083136	107622400	41031872	24992
481	26.764146	133083136	107622400	42802504	24992
482	27.927442	133083136	107622400	44682712	24992
483	28.58692	133083136	107622400	46850648	24992
484	28.290941	133083136	107622400	49087624	24992
485	29.699744	133083136	107622400	51529624	24992
486	31.781281	133083136	107622400	40569920	24992
487	32.205884	133083136	107622400	45635936	24992
488	32.743472	133083136	107622400	50329312	24992
489	35.094403	133353472	107622400	41433936	24992
490	37.244168	135245824	107622400	51142896	24992
491	38.118168	136056832	107622400	44439568	24992
492	47.021715	137138176	107622400	55239000	24992
493	58.401397	112431104	79310848	22669728	24992
494	41.124018	112971776	79310848	34525320	24992
495	40.304775	112971776	79310848	29196184	24992
496	42.575705	112971776	79310848	25681888	24992
497	42.756695	112971776	79310848	39148344	24992
498	42.640183	112971776	79310848	35109536	24992
499	44.184169	112971776	79310848	32728768	24992
500	48.583218	112971776	79310848	36145648	24992
501	50.390886	112971776	79310848	39907280	24992
502	1.646752	112971776	79310848	44840880	24992
503	2.569283	112971776	79310848	46517424	24992
504	3.409465	112971776	79310848	48754512	24992
505	4.395164	112971776	79310848	51550912	24992
506	5.199357	112971776	79310848	54919752	24992
507	8.63064	112971776	79310848	45244984	24992
508	6.940434	112971776	79310848	49734168	24992
509	7.784021	112971776	79310848	54798304	24992
510	9.709958	112971776	79310848	44867000	24992
511	9.632016	112971776	79310848	51071376	24992
512	10.310414	112971776	79310848	57843232	24992
513	11.532608	112971776	79310848	48833912	24992
514	12.416121	112971776	79310848	56731952	24992
515	13.580811	112971776	79310848	49059184	24992
516	13.95176	112971776	79310848	58108000	24992
517	15.218392	112971776	79310848	51353784	24992
518	16.853657	112971776	79310848	46339520	24992
519	16.761908	112971776	79310848	57112496	24992
520	17.867845	112971776	79310848	52274040	24992
521	19.399946	112971776	79310848	48870864	24992
522	21.683444	112971776	79310848	46650064	24992
523	21.877639	112971776	79310848	45411864	24992
524	22.96821	112971776	79310848	44995080	24992
525	24.751577	112971776	79310848	45255528	24992
526	24.894758	112971776	79310848	46039624	24992
527	25.91851	112971776	79310848	47285096	24992
528	26.983718	112971776	79310848	48909024	24992
529	27.995729	112971776	79310848	50804824	24992
530	28.673921	112971776	79310848	52974848	24992
531	29.461164	112971776	79310848	55387512	24992
532	29.059569	112971776	79310848	57910864	24992
533	32.871596	112971776	79310848	47201600	24992
534	36.312306	115404800	81932288	55403792	24992
535	37.05406	115945472	82456576	60462336	24992
536	47.265016	113848320	80359424	23126080	24992
537	41.70842	113848320	80359424	20629376	24992
538	37.890396	113848320	80359424	30837344	24992
539	38.98351	113848320	80359424	24944264	24992
540	40.536292	113848320	80359424	36640472	24992
541	40.539655	113848320	80359424	31395736	24992
542	47.892024	113848320	80359424	32565872	24992
543	42.979009	113848320	80359424	45796560	24992
544	42.637602	113848320	80359424	41993808	24992
545	50.134334	113848320	80359424	44964952	24992
546	55.345036	114118656	80359424	48289776	24992
547	71.154199	113373184	81932288	26890024	24992
548	52.620918	115265536	81932288	31064976	24992
549	52.65907	115265536	81932288	36227512	24992
550	53.390663	115265536	81932288	41925736	24992
551	54.465867	115265536	81932288	48280216	24992
552	1.947529	115265536	81932288	55883816	24992
553	2.835027	115265536	81932288	57705400	24992
554	7.669401	115265536	81932288	47946664	24992
555	4.737524	115265536	81932288	50990728	24992
556	5.696559	115265536	81932288	54667392	24992
557	6.700195	115265536	81932288	58957512	24992
558	9.429698	115535872	81932288	49426760	24992
559	8.636155	115535872	81932288	54946856	24992
560	9.267604	115535872	81932288	61106856	24992
561	10.82522	115535872	81932288	51634224	24992
562	11.401547	115535872	81932288	59048648	24992
563	12.894663	115806208	82456576	51230352	24992
564	13.027927	115806208	82456576	59874416	24992
565	15.070392	115806208	82980864	53112408	24992
566	16.446007	115806208	82980864	48220864	24992
567	15.897586	115806208	82980864	58742296	24992
568	18.090539	115806208	82980864	54078768	24992
569	19.138291	115806208	82980864	50863408	24992
570	20.559505	115806208	82980864	48845456	24992
571	19.903672	115806208	82980864	61923528	24992
572	21.686839	115806208	82980864	59245768	24992
573	22.80899	115806208	82980864	57648968	24992
574	24.075107	115806208	82980864	56994960	24992
575	24.607177	115806208	82980864	57047360	24992
576	26.367453	115806208	82980864	57779000	24992
577	27.216504	116076544	82980864	59041552	24992
578	27.865465	116076544	82980864	60719464	24992
579	28.420391	116076544	82980864	62726456	24992
580	31.729767	116076544	82980864	51488320	24992
581	32.027668	116076544	82980864	56402384	24992
582	32.098783	116076544	82980864	61091976	24992
583	35.033317	116346880	82980864	52277432	24992
584	39.057748	119320576	86126592	62314200	24992
585	46.586528	120401920	87175168	55833760	24992
586	53.742674	118767616	85602304	20314320	24992
587	40.352217	118767616	85602304	32091712	24992
588	42.000845	118767616	85602304	27323288	24992
589	47.490002	118767616	85602304	28797784	24992
590	43.684366	118767616	85602304	42437896	24992
591	43.181821	118767616	85602304	38936824	24992
592	51.592511	118767616	85602304	42462936	24992
593	51.194248	118767616	85602304	46253616	24992
594	53.781433	119037952	85602304	50884600	24992
595	70.258605	120119296	87175168	56104128	24992
596	61.704602	119267328	85602304	33396584	24992
597	55.572852	119267328	85602304	39916968	24992
598	57.294307	119267328	85602304	47085648	24992
599	61.588508	119267328	85602304	43379312	24992
600	57.604098	119267328	85602304	51848664	24992
601	59.648835	119267328	85602304	61076968	24992
602	2.361572	125214720	91893760	59895456	24992
603	3.297174	125214720	91893760	61883712	24992
604	4.369005	125214720	91893760	64537576	24992
605	5.562836	125214720	91893760	67868912	24992
606	12.593421	127647744	93990912	58606616	24992
607	7.72035	127647744	93990912	63258424	24992
608	9.494094	127647744	93990912	68602024	24992
609	17.639134	127647744	94515200	59240672	24992
610	23.079646	121106432	88223744	20662504	24992
611	13.63939	121106432	88223744	28001456	24992
612	13.561181	121372672	88223744	20892336	24992
613	13.058063	121372672	88223744	29572472	24992
614	15.430144	121372672	88223744	23486832	24992
615	15.463155	121372672	88223744	33532208	24992
616	16.973552	121372672	88223744	28112968	24992
617	18.859209	121372672	88223744	24297128	24992
618	20.09749	121372672	88223744	21877920	24992
619	19.453496	121372672	88223744	34659304	24992
620	20.705661	121372672	88223744	31730952	24992
621	22.785499	121372672	88223744	29994696	24992
622	24.929467	121372672	88223744	29261072	24992
623	25.116499	121372672	88223744	29363424	24992
624	26.037609	121372672	88223744	30080160	24992
625	26.911827	121372672	88223744	31357808	24992
626	28.287724	121372672	88223744	33144120	24992
627	28.864713	121372672	88223744	35272040	24992
628	32.833713	121372672	88223744	24216528	24992
629	32.346312	121372672	88223744	29390672	24992
630	32.618017	121372672	88223744	34299936	24992
631	35.259051	121372672	88223744	25697704	24992
632	37.574641	121372672	88223744	36031368	24992
633	38.649081	121372672	88223744	29814688	24992
634	39.833779	121372672	88223744	41541096	24992
635	40.57704	121372672	88223744	36206344	24992
636	41.523449	121372672	88223744	32804936	24992
637	43.977549	121372672	88223744	46502360	24992
638	43.614323	121372672	88223744	42785104	24992
639	45.483569	121372672	88223744	40768120	24992
640	52.270258	121372672	88223744	44905672	24992
641	52.385138	121372672	88223744	49620056	24992
642	52.577171	121372672	88223744	55018280	24992
643	56.113633	121913344	88223744	61157896	24992
644	85.530294	122294272	91369472	23972128	24992
645	56.917782	124723200	91369472	30800624	24992
646	57.202164	124723200	91369472	38969056	24992
647	58.298591	124723200	91369472	47896144	24992
648	65.078478	124723200	91369472	45980984	24992
649	60.012599	124723200	91369472	56278880	24992
650	61.224695	124723200	91369472	67305464	24992
651	93.101011	122642432	91369472	21678224	24992
652	2.199706	124530688	91369472	33565536	24992
653	3.298195	124530688	91369472	35700456	24992
654	8.164186	124530688	91369472	26274952	24992
655	5.4774	124530688	91369472	29837384	24992
656	6.621758	124530688	91369472	34129952	24992
657	7.88232	124530688	91369472	39125504	24992
658	10.56343	124530688	91369472	29944360	24992
659	9.975174	124530688	91369472	36399864	24992
660	11.827117	124801024	91369472	27893304	24992
661	12.125003	124801024	91369472	35786816	24992
662	14.301126	124801024	91369472	28794952	24992
663	14.506722	124801024	91369472	38114584	24992
664	16.447218	124801024	91369472	32212576	24992
665	18.292508	124801024	91369472	28067208	24992
666	18.123686	124801024	91369472	39573784	24992
667	19.476093	124801024	91369472	35594056	24992
668	21.467238	124801024	91369472	33089440	24992
669	22.473105	124801024	91369472	31689440	24992
670	24.037487	124801024	91369472	31285800	24992
671	24.712344	124801024	91369472	31738248	24992
672	26.041247	124801024	91369472	32785352	24992
673	27.832088	124801024	91369472	34446696	24992
674	28.588705	124801024	91369472	36469592	24992
675	30.246369	124801024	91369472	38865824	24992
676	32.892942	124801024	91369472	28397208	24992
677	34.76137	124801024	91369472	36632832	24992
678	33.632539	124801024	91369472	41876296	24992
679	36.039419	124801024	91369472	33635296	24992
680	38.020249	124801024	91369472	44178216	24992
681	39.057682	124801024	91369472	38182504	24992
682	40.18495	124801024	91369472	50099488	24992
683	40.242416	124801024	91369472	44959800	24992
684	47.070635	124801024	91369472	46814448	24992
685	51.653784	124801024	91369472	49101416	24992
686	49.76731	124801024	91369472	63770480	24992
687	61.247496	124801024	91369472	61168728	24992
688	51.47878	117231616	83505152	30660088	24992
689	46.715317	117231616	83505152	29437080	24992
690	49.175135	117231616	83505152	29486240	24992
691	56.513185	117231616	83505152	36637552	24992
692	61.746011	117231616	83505152	32684256	24992
693	57.144629	117231616	83505152	41006680	24992
694	58.428671	117231616	83505152	50033440	24992
695	64.88064	117231616	83505152	48388488	24992
696	82.211851	119664640	86126592	58953016	24992
697	77.187591	122368000	88748032	29497864	24992
698	63.473788	122368000	88748032	41535992	24992
699	67.773366	122368000	88748032	42775352	24992
700	66.542797	122368000	88748032	56338288	24992
701	71.463314	122368000	88748032	59171880	24992
702	2.48924	127504384	93990912	63577264	24992
703	3.781588	127504384	93990912	65858136	24992
704	5.078922	127504384	93990912	68902280	24992
705	6.399248	127504384	93990912	72711552	24992
706	13.494488	129937408	96612352	63800264	24992
707	9.452038	129937408	96612352	69137368	24992
708	15.817372	129937408	96612352	75245288	24992
709	23.67038	121819136	88223744	20455232	24992
710	13.530932	121819136	88223744	28131440	24992
711	15.388374	122089472	88223744	22430048	24992
712	14.301356	122089472	88223744	31608656	24992
713	16.302825	122089472	88223744	26010912	24992
714	18.37102	122089472	88223744	22163152	24992
715	17.879515	122089472	88223744	33665272	24992
716	20.014081	122089472	88223744	30037448	24992
717	21.697228	122089472	88223744	27831048	24992
718	23.127395	122089472	88223744	26802416	24992
719	24.39438	122089472	88223744	26714920	24992
720	26.129244	122089472	88223744	27422128	24992
721	26.295673	122089472	88223744	28817128	24992
722	27.736191	122089472	88223744	30656256	24992
723	29.056524	122089472	88223744	33011880	24992
724	29.869907	122089472	88223744	35747496	24992
725	33.443575	122089472	88223744	25381224	24992
726	33.643205	122089472	88223744	31110720	24992
727	33.88852	122089472	88223744	36558504	24992
728	37.624018	122089472	88223744	28267720	24992
729	36.347121	122089472	88223744	35850792	24992
730	39.529363	122089472	88223744	29456648	24992
731	42.883304	122089472	88223744	25987320	24992
732	42.939501	122089472	88223744	39343240	24992
733	42.300928	122089472	88223744	35625592	24992
734	49.634288	122089472	88223744	39179408	24992
735	52.375841	122089472	88223744	43301112	24992
736	55.015626	122089472	88223744	48145120	24992
737	54.707882	122089472	88223744	53890144	24992
738	56.065239	122089472	88223744	60346784	24992
739	67.141826	123981824	90845184	67528728	24992
740	78.604141	123908096	90320896	28848592	24992
741	59.990324	123908096	90320896	37872720	24992
742	65.178152	123908096	90320896	36147312	24992
743	60.95622	123908096	90320896	46527904	24992
744	68.278512	123908096	90320896	46303888	24992
745	63.584022	123908096	90320896	58409664	24992
746	85.978049	126881792	93466624	59673400	24992
747	78.176438	123883520	90320896	27802104	24992
748	66.756194	123883520	90320896	42359672	24992
749	74.315532	123883520	90320896	45955424	24992
750	106.71859	123883520	90320896	50691088	24992
751	76.019771	123883520	90320896	56000208	24992
752	4.682688	128208896	95039488	63065904	24992
753	7.745397	120074240	88748032	21768376	24992
754	5.125904	120074240	88748032	25006896	24992
755	7.19146	120074240	88748032	29087680	24992
756	8.258252	120074240	88748032	33975600	24992
757	9.879992	121962496	88748032	23966456	24992
758	10.052348	121962496	88748032	30472368	24992
759	12.338684	121962496	88748032	22332224	24992
760	12.910124	121962496	88748032	30466040	24992
761	14.832131	121962496	88748032	23968952	24992
762	15.092106	121962496	88748032	33756576	24992
763	16.779425	121962496	88748032	28294696	24992
764	18.776817	121962496	88748032	24609112	24992
765	20.661386	121962496	88748032	22416792	24992
766	20.38628	121962496	88748032	35481808	24992
767	21.914604	121962496	88748032	32925536	24992
768	23.832232	121962496	88748032	31747576	24992
769	25.16808	121962496	88748032	31548056	24992
770	26.399749	121962496	88748032	32199920	24992
771	27.46503	121962496	88748032	33633456	24992
772	31.364986	121962496	88748032	35602192	24992
773	32.273216	121962496	88748032	24600432	24992
774	32.891663	121962496	88748032	29902632	24992
775	33.354799	121962496	88748032	35084880	24992
776	36.735197	121962496	88748032	26770696	24992
777	37.364462	121962496	88748032	34249920	24992
778	39.740412	121962496	88748032	28021384	24992
779	45.926099	121962496	88748032	29194800	24992
780	43.189485	121962496	88748032	42394712	24992
781	42.781767	121962496	88748032	38799344	24992
782	48.542137	121962496	88748032	42409064	24992
783	50.796715	122503168	88748032	46609632	24992
784	52.304542	122503168	88748032	51580896	24992
785	54.252364	122503168	88748032	57491720	24992
786	63.247313	122773504	89272320	64265136	24992
787	77.303932	122650624	89272320	27033184	24992
788	57.597191	122650624	89272320	35461208	24992
789	60.704881	122650624	89272320	44696688	24992
790	64.663874	122650624	89272320	43173144	24992
791	61.365612	122650624	89272320	54076880	24992
792	68.216154	122650624	89272320	54403768	24992
793	87.912433	119111680	88223744	20591208	24992
794	65.656097	121540608	88223744	33377528	24992
795	73.917201	121540608	88223744	36318296	24992
796	72.156073	121540608	88223744	39831896	24992
797	69.621184	121540608	88223744	55847784	24992
798	78.218807	121540608	88223744	61204528	24992
799	107.472064	121282560	89796608	37259448	24992
800	79.955577	123170816	89796608	43992624	24992
801	80.172331	123170816	89796608	51931712	24992
802	8.031768	123170816	89796608	50071912	24992
803	4.260753	123170816	89796608	52647928	24992
804	5.571052	123170816	89796608	56103704	24992
805	6.997501	123170816	89796608	60397776	24992
806	10.40523	123170816	89796608	51893824	24992
807	9.32035	123170816	89796608	57931688	24992
808	10.825553	123170816	89796608	64831432	24992
809	12.24322	123170816	89796608	56110624	24992
810	13.34665	123170816	89796608	64731312	24992
811	14.943891	123170816	89796608	57757400	24992
812	17.378996	123170816	89796608	53041592	24992
813	17.439303	123170816	89796608	64259336	24992
814	19.313034	123170816	89796608	60020496	24992
815	21.110652	123170816	89796608	57419896	24992
816	23.497151	123170816	89796608	56201232	24992
817	24.774842	123170816	89796608	56060720	24992
818	25.716775	123170816	89796608	56874096	24992
819	27.216346	123170816	89796608	58414008	24992
820	28.851885	123170816	89796608	60582152	24992
821	30.681011	123170816	89796608	63086048	24992
822	33.364484	123170816	89796608	52860768	24992
823	35.085116	123170816	89796608	61722576	24992
824	33.92423	123170816	89796608	67586840	24992
825	37.190186	123170816	89796608	59682760	24992
826	36.645595	123170816	89796608	67432744	24992
827	39.463226	123170816	89796608	61316336	24992
828	43.044803	123711488	90320896	58167288	24992
829	46.216952	126144512	92942336	72072360	24992
830	64.958355	118951936	87699456	20497320	24992
831	52.10705	121380864	87699456	23379064	24992
832	53.503882	121380864	87699456	28302592	24992
833	54.75545	121380864	87699456	34118600	24992
834	53.998988	121380864	87699456	40877680	24992
835	57.547761	121380864	87699456	48515176	24992
836	59.323477	121380864	87699456	57008104	24992
837	77.835652	122462208	89272320	54855360	24992
838	67.470676	122605568	89272320	33363848	24992
839	65.451351	122605568	89272320	33273080	24992
840	62.827899	122605568	89272320	45303088	24992
841	68.623725	122605568	89272320	46758000	24992
842	71.420298	122605568	89272320	49237064	24992
843	74.336961	123416576	90320896	63985240	24992
844	94.020948	122056704	88748032	36656688	24992
845	74.921741	122056704	88748032	41952904	24992
846	76.788812	122056704	88748032	47925096	24992
847	76.475877	122056704	88748032	55004280	24992
848	80.688006	122327040	88748032	62821976	24992
849	104.900233	121614336	90320896	25428336	24992
850	82.38446	123502592	90320896	34141160	24992
851	84.622588	123502592	90320896	44804160	24992
852	2.692303	123502592	90320896	45988616	24992
853	4.132453	123502592	90320896	48788512	24992
854	5.610309	123502592	90320896	52527640	24992
855	7.40284	123502592	90320896	57228496	24992
856	10.940413	123502592	90320896	48920136	24992
857	9.830344	123502592	90320896	55474824	24992
858	12.308284	123502592	90320896	47379072	24992
859	12.579104	123502592	90320896	55816408	24992
860	15.066859	123502592	90320896	49555736	24992
861	15.372751	123502592	90320896	59890712	24992
862	17.033688	123502592	90320896	54754008	24992
863	19.549183	123502592	90320896	51495112	24992
864	21.125196	123502592	90320896	49735200	24992
865	22.754537	123502592	90320896	49215664	24992
866	24.421381	123502592	90320896	49808048	24992
867	26.01594	123502592	90320896	51208656	24992
868	27.879037	123502592	90320896	53376544	24992
869	29.410662	123502592	90320896	56065976	24992
870	29.824177	123502592	90320896	59289416	24992
871	33.487259	123502592	90320896	49525168	24992
872	33.770349	123502592	90320896	55824264	24992
873	37.551599	123502592	90320896	49105144	24992
874	38.546296	123502592	90320896	60426792	24992
875	41.610336	123502592	90320896	55509576	24992
876	60.044032	124854272	91893760	57035400	24992
877	58.914161	123408384	89796608	27214136	24992
878	50.239726	123408384	89796608	30584408	24992
879	50.18736	123408384	89796608	34810880	24992
880	51.863493	123408384	89796608	39995912	24992
881	54.152832	123408384	89796608	46198904	24992
882	55.627421	123408384	89796608	53273080	24992
883	57.125922	123408384	89796608	61373928	24992
884	67.117915	125030400	91893760	70448112	24992
885	77.14186	125423616	91893760	32784328	24992
886	65.028685	125423616	91893760	32429176	24992
887	62.459882	125423616	91893760	44306200	24992
888	67.53164	125423616	91893760	45648512	24992
889	66.87706	125423616	91893760	59651960	24992
890	71.485943	125423616	91893760	62886016	24992
891	96.765647	120922112	89272320	35308144	24992
892	74.943174	122810368	89272320	40009648	24992
893	74.116454	122810368	89272320	46237248	24992
894	76.812413	122810368	89272320	53456656	24992
895	76.81193	122810368	89272320	61574432	24992
896	83.694727	127135744	93466624	70713648	24992
897	110.591999	131538944	98709504	33471336	24992
898	81.459075	131809280	98709504	44774768	24992
899	86.246555	131809280	98709504	45191056	24992
900	85.746935	131809280	98709504	58249688	24992
901	93.860758	132349952	98709504	60722736	24992
902	6.633424	125583360	92418048	31108296	24992
903	4.527754	125583360	92418048	34069736	24992
904	5.683818	125583360	92418048	37999368	24992
905	7.682029	125583360	92418048	42929264	24992
906	11.611581	125583360	92418048	34923328	24992
907	11.169129	125583360	92418048	41830256	24992
908	12.865954	125583360	92418048	33924448	24992
909	13.267812	125583360	92418048	42824232	24992
910	15.154357	125583360	92418048	36775712	24992
911	17.378568	125583360	92418048	32726080	24992
912	17.932341	125583360	92418048	44573880	24992
913	19.480104	125583360	92418048	41095472	24992
914	22.176254	125583360	92418048	39312552	24992
915	24.089873	125583360	92418048	38908776	24992
916	25.892435	125583360	92418048	39473624	24992
917	27.07276	125583360	92418048	40967608	24992
918	28.445243	125583360	92418048	43173640	24992
919	32.847665	125583360	92418048	32868424	24992
920	34.495076	125583360	92418048	41378456	24992
921	33.511266	125583360	92418048	47173000	24992
922	36.479476	125583360	92418048	39626912	24992
923	39.585789	125583360	92418048	51183504	24992
924	40.160571	125583360	92418048	46095416	24992
925	42.678485	125583360	92418048	43180392	24992
926	47.702086	125583360	92418048	45972680	24992
927	46.091103	125583360	92418048	61303624	24992
928	46.059389	125583360	92418048	59370592	24992
929	47.203878	125583360	92418048	59032088	24992
930	52.74241	125583360	92418048	65988064	24992
931	58.668197	127746048	93990912	62176560	24992
932	58.381292	132612096	99233792	70890320	24992
933	85.905891	130248704	99233792	29974576	24992
934	60.204232	132677632	99233792	39367552	24992
935	66.01175	132677632	99233792	39560880	24992
936	63.709049	132677632	99233792	52301328	24992
937	68.427899	132677632	99233792	54607504	24992
938	70.311388	132677632	99233792	57867592	24992
939	76.616599	133488640	99758080	62155944	24992
940	97.182944	128774144	95563776	31064632	24992
941	75.637855	128774144	95563776	37489096	24992
942	76.962755	128774144	95563776	44909984	24992
943	78.418012	128774144	95563776	53356752	24992
944	79.864354	128774144	95563776	62670336	24992
945	91.659044	130396160	97136640	73271264	24992
946	99.003536	129019904	95563776	36845208	24992
947	88.206265	129019904	95563776	37958184	24992
948	85.763799	129019904	95563776	51389704	24992
949	91.270914	129019904	95563776	54639544	24992
950	117.832922	121765888	90320896	24959944	24992
951	94.213024	123654144	90320896	40782496	24992
952	3.156211	123654144	90320896	47941304	24992
953	4.654722	123654144	90320896	51033824	24992
954	9.258916	123654144	90320896	42695920	24992
955	8.013639	123654144	90320896	47854096	24992
956	11.248078	123654144	90320896	40061504	24992
957	10.877641	123654144	90320896	47408528	24992
958	13.729164	123654144	90320896	40669496	24992
959	13.836985	123654144	90320896	50038040	24992
960	16.671692	123654144	90320896	44880976	24992
961	18.819338	123654144	90320896	41638080	24992
962	18.957382	123654144	90320896	54167848	24992
963	20.563254	123654144	90320896	51335176	24992
964	23.097631	123654144	90320896	50135912	24992
965	25.471191	123654144	90320896	50151128	24992
966	26.55795	123654144	90320896	51198392	24992
967	27.705348	123654144	90320896	53217480	24992
968	32.055177	123654144	90320896	42666544	24992
969	34.330252	123654144	90320896	51181352	24992
970	34.164651	123654144	90320896	56814040	24992
971	38.342288	123654144	90320896	49368128	24992
972	39.946888	123654144	90320896	60900760	24992
973	40.642436	123654144	90320896	55904528	24992
974	43.530584	123654144	90320896	53033008	24992
975	48.282464	124465152	90845184	56106600	24992
976	65.35508	126898176	93466624	60127808	24992
977	61.647515	125628416	91893760	31457656	24992
978	52.623725	125628416	91893760	37658216	24992
979	54.624745	125628416	91893760	44786296	24992
980	55.429617	125628416	91893760	53019768	24992
981	61.021254	125628416	91893760	50754616	24992
982	59.640122	125628416	91893760	61143992	24992
983	64.227447	126709760	93466624	61058944	24992
984	93.409122	126558208	95039488	27542968	24992
985	66.086952	128716800	95039488	40183880	24992
986	70.167924	128716800	95039488	43185808	24992
987	72.34909	128716800	95039488	47306064	24992
988	75.467029	128716800	95039488	52483976	24992
989	76.41966	128716800	95039488	58683416	24992
990	88.322086	133853184	100282368	65944368	24992
991	87.579922	126590976	92942336	34477872	24992
992	83.969482	126590976	92942336	43909808	24992
993	89.972332	126590976	92942336	42811864	24992
994	83.94171	126590976	92942336	54389920	24992
995	91.495695	127131648	93466624	67008728	24992
996	112.374493	124928000	91369472	35287312	24992
997	92.474887	124928000	91369472	38572656	24992
998	92.312929	124928000	91369472	54508648	24992
999	95.148995	124928000	91369472	59879168	24992
1000	122.275401	124694528	93990912	31258176	24992
