x	Duration	RSS	HeapTotal	HeapUsed	External
0	NA	118243328	87699456	21331672	24992
1	0.32673	118243328	87699456	21381096	24992
2	0.237602	118243328	87699456	21457656	24992
3	0.269589	118243328	87699456	21561248	24992
4	0.327118	118243328	87699456	21693416	24992
5	0.388534	118243328	87699456	21855720	24992
6	0.447147	118243328	87699456	22048488	24992
7	0.526974	118243328	87699456	22272752	24992
8	0.586564	118243328	87699456	22529528	24992
9	0.65667	118243328	87699456	22820696	24992
10	0.736898	118243328	87699456	23146960	24992
11	0.817437	118243328	87699456	23509136	24992
12	1.101582	118243328	87699456	23908328	24992
13	0.908314	118243328	87699456	24345440	24992
14	0.862936	118243328	87699456	24822912	24992
15	0.83772	118243328	87699456	25338800	24992
16	0.900878	118243328	87699456	25895640	24992
17	1.199068	118243328	87699456	26496096	24992
18	1.048497	118243328	87699456	27139400	24992
19	1.108023	118243328	87699456	27827552	24992
20	1.381706	118243328	87699456	28560504	24992
21	1.260541	118243328	87699456	29339576	24992
22	1.583325	118243328	87699456	30165688	24992
23	1.485163	118243328	87699456	31041848	24992
24	1.407224	118243328	87699456	31964064	24992
25	1.718847	118243328	87699456	32937296	24992
26	1.571303	118243328	87699456	33962512	24992
27	2.054433	118243328	87699456	35043288	24992
28	1.755615	118243328	87699456	36175368	24992
29	1.801698	118243328	87699456	37362376	24992
30	3.538986	118779904	87699456	22384928	24992
31	2.285266	120131584	87699456	23684744	24992
32	2.070452	120131584	87699456	25045056	24992
33	2.168148	120131584	87699456	26468744	24992
34	2.478478	120131584	87699456	27952360	24992
35	2.604171	120131584	87699456	29496616	24992
36	3.016661	120131584	87699456	31104176	24992
37	2.802926	120131584	87699456	32774576	24992
38	3.787807	120131584	87699456	34516520	24992
39	3.176888	120131584	87699456	36326112	24992
40	2.774715	120131584	87699456	38189080	24992
41	4.425621	120131584	87699456	23921560	24992
42	3.196037	120131584	87699456	25918816	24992
43	3.267329	120131584	87699456	27984976	24992
44	3.391738	120131584	87699456	30120456	24992
45	4.218207	120131584	87699456	32327904	24992
46	3.653921	120131584	87699456	34614976	24992
47	3.512414	120131584	87699456	36967016	24992
48	5.079863	120131584	87699456	23280304	24992
49	4.12592	120131584	87699456	25784112	24992
50	4.600717	120131584	87699456	28366496	24992
51	4.353759	120131584	87699456	31034064	24992
52	0.269008	120131584	87699456	33685688	24992
53	0.616238	120131584	87699456	33927344	24992
54	0.516539	120131584	87699456	34250976	24992
55	0.632511	120131584	87699456	34657664	24992
56	0.755644	120131584	87699456	35149264	24992
57	0.915406	120131584	87699456	35725472	24992
58	1.361165	120131584	87699456	36388248	24992
59	1.188836	120131584	87699456	37137448	24992
60	1.265704	120131584	87699456	37975432	24992
61	1.582307	120131584	87699456	38902424	24992
62	2.866065	120131584	87699456	23745288	24992
63	1.697929	120131584	87699456	24852936	24992
64	1.79633	120131584	87699456	26052968	24992
65	2.301901	120131584	87699456	27345304	24992
66	2.099899	120131584	87699456	28731608	24992
67	2.24731	120131584	87699456	30214280	24992
68	2.363499	120131584	87699456	31792640	24992
69	2.506601	120131584	87699456	33467792	24992
70	2.702106	120131584	87699456	35241408	24992
71	2.809175	120131584	87699456	37113088	24992
72	2.937661	120131584	87699456	39084464	24992
73	4.620658	120131584	87699456	25129704	24992
74	3.244176	120131584	87699456	27303256	24992
75	3.504866	120131584	87699456	29579280	24992
76	3.565753	120131584	87699456	31958944	24992
77	3.952779	120131584	87699456	34442944	24992
78	3.892153	120131584	87699456	37032648	24992
79	5.482348	120131584	87699456	24065520	24992
80	4.278566	120131584	87699456	26869040	24992
81	4.798559	120131584	87699456	29782568	24992
82	4.746449	120131584	87699456	32803672	24992
83	4.704645	120131584	87699456	35937904	24992
84	5.107409	120131584	87699456	39191168	24992
85	6.540497	120131584	87699456	26564952	24992
86	5.801792	120131584	87699456	30044064	24992
87	5.406593	120131584	87699456	33638856	24992
88	5.918845	120131584	87699456	37349856	24992
89	7.119016	120131584	87699456	25528416	24992
90	6.210665	120131584	87699456	29475760	24992
91	6.152262	120131584	87699456	33541648	24992
92	6.506213	120131584	87699456	37728072	24992
93	7.828928	120131584	87699456	26329824	24992
94	6.949712	120131584	87699456	30760024	24992
95	7.080644	120131584	87699456	35313184	24992
96	7.048103	120131584	87699456	39990632	24992
97	8.717545	120131584	87699456	28772360	24992
98	7.622804	120131584	87699456	33702016	24992
99	7.869112	120131584	87699456	38758920	24992
100	10.33154	120131584	87699456	28138240	24992
101	8.31423	120131584	87699456	33454968	24992
102	0.454222	120131584	87699456	38885176	24992
103	0.859991	120131584	87699456	39288824	24992
104	0.835101	120131584	87699456	39828592	24992
105	1.075693	120131584	87699456	40513776	24992
106	1.251617	120131584	87699456	41329248	24992
107	2.698793	120131584	87699456	26167904	24992
108	1.669102	120131584	87699456	27262384	24992
109	1.854102	120131584	87699456	28497944	24992
110	2.275789	120131584	87699456	29876424	24992
111	2.31942	120131584	87699456	31399120	24992
112	2.67832	120131584	87699456	33064400	24992
113	2.850422	120131584	87699456	34874624	24992
114	2.917145	120131584	87699456	36830736	24992
115	3.387962	120131584	87699456	38934040	24992
116	3.366329	120131584	87699456	41185000	24992
117	5.040345	120131584	87699456	27486808	24992
118	3.949981	120131584	87699456	30037928	24992
119	4.231578	120131584	87699456	32739896	24992
120	4.556614	120131584	87699456	35593944	24992
121	4.499438	120131584	87699456	38600552	24992
122	4.718091	120131584	87699456	41760888	24992
123	6.492721	120131584	87699456	28896904	24992
124	5.166594	120131584	87699456	32368800	24992
125	5.669548	120131584	87699456	35995992	24992
126	5.683677	120131584	87699456	39782624	24992
127	7.627405	120131584	87699456	27862424	24992
128	6.565544	120131584	87699456	31965056	24992
129	6.697865	120131584	87699456	36229544	24992
130	6.837887	120131584	87699456	40654632	24992
131	8.506922	120131584	87699456	29256496	24992
132	7.512027	120131584	87699456	34013408	24992
133	7.498354	120131584	87699456	38935352	24992
134	9.318164	120131584	87699456	28362088	24992
135	8.243016	120131584	87699456	33616720	24992
136	8.336724	120131584	87699456	39038880	24992
137	10.106785	120131584	87699456	28961336	24992
138	8.644953	120131584	87699456	34724752	24992
139	9.131837	120131584	87699456	40657168	24992
140	10.910999	120131584	87699456	30851488	24992
141	9.632438	120131584	87699456	37125496	24992
142	11.583617	120131584	87699456	28297832	24992
143	10.45136	120131584	87699456	34925992	24992
144	10.204974	120131584	87699456	41732120	24992
145	12.334418	120131584	87699456	32670104	24992
146	10.758409	120131584	87699456	39829872	24992
147	13.192003	120131584	87699456	31497576	24992
148	11.359318	120131584	87699456	39019656	24992
149	13.673044	120131584	87699456	31164000	24992
150	12.252657	120131584	87699456	39050992	24992
151	14.676681	120131584	87699456	31596792	24992
152	0.602834	120131584	87699456	39884608	24992
153	0.871232	120131584	87699456	40439992	24992
154	1.139158	120131584	87699456	41182144	24992
155	1.505374	120131584	87699456	42111888	24992
156	1.706632	120131584	87699456	43230904	24992
157	3.912613	120131584	87699456	28453344	24992
158	2.294536	120131584	87699456	29952512	24992
159	2.565857	120131584	87699456	31649488	24992
160	2.847128	120131584	87699456	33539136	24992
161	3.36314	120131584	87699456	35616952	24992
162	3.637473	120131584	87699456	37889312	24992
163	3.746938	120131584	87699456	40357216	24992
164	4.038446	120131584	87699456	43021440	24992
165	5.927984	120131584	87699456	29825544	24992
166	4.903369	120131584	87699456	32895712	24992
167	4.964867	120131584	87699456	36155096	24992
168	5.286299	120131584	87699456	39617240	24992
169	6.110061	120131584	87699456	43281656	24992
170	7.693842	120131584	87699456	31063136	24992
171	6.194249	120131584	87699456	35132152	24992
172	6.682625	120131584	87699456	39405400	24992
173	6.82986	120131584	87699456	43883960	24992
174	8.679535	120131584	87699456	32398448	24992
175	7.629574	120131584	87699456	37290328	24992
176	7.81084	120131584	87699456	42390376	24992
177	10.005683	120131584	87699456	31786824	24992
178	8.621313	120131584	87699456	37306808	24992
179	9.187446	120131584	87699456	43037016	24992
180	10.726401	120131584	87699456	32956288	24992
181	9.651403	120131584	87699456	39114208	24992
182	11.935983	120131584	87699456	30189136	24992
183	10.218312	120131584	87699456	36783056	24992
184	10.436009	120131584	87699456	43590688	24992
185	12.820868	120131584	87699456	34546840	24992
186	11.264043	120131584	87699456	41791648	24992
187	13.430824	120131584	87699456	33543808	24992
188	11.975564	120131584	87699456	41231688	24992
189	14.634851	120131584	87699456	33521904	24992
190	13.312775	120131584	87699456	41652048	24992
191	15.025352	120131584	87699456	34330104	24992
192	13.16197	120131584	87699456	42902608	24992
193	15.676097	120131584	87699456	35854088	24992
194	14.285318	120131584	87699456	44887296	24992
195	16.461004	120131584	87699456	37953984	24992
196	17.217416	120131584	87699456	32456848	24992
197	15.100796	120131584	87699456	42162496	24992
198	18.495652	120131584	87699456	36410056	24992
199	18.499758	120131584	87699456	31930432	24992
200	16.115953	120131584	87699456	42326808	24992
201	19.098154	120131584	87699456	37282928	24992
202	0.78503	120131584	87699456	33521384	24992
203	1.108571	120131584	87699456	34223056	24992
204	1.46776	120131584	87699456	35160128	24992
205	1.832938	120131584	87699456	36333672	24992
206	2.174634	120131584	87699456	37745208	24992
207	2.7716	120131584	87699456	39403320	24992
208	3.007048	120131584	87699456	41309112	24992
209	3.565592	120131584	87699456	43463776	24992
210	3.90921	120131584	87699456	45871128	24992
211	6.271087	120131584	87699456	32385616	24992
212	5.395462	120131584	87699456	35299424	24992
213	5.178169	120131584	87699456	38459336	24992
214	5.585951	120131584	87699456	41873928	24992
215	5.79271	120131584	87699456	45541280	24992
216	8.435812	120131584	87699456	33381240	24992
217	6.907077	120131584	87699456	37564088	24992
218	6.769947	120131584	87699456	42013696	24992
219	7.500909	120131584	87699456	46710416	24992
220	9.831789	120131584	87699456	35401752	24992
221	8.10659	120131584	87699456	40619928	24992
222	8.923294	120131584	87699456	46098056	24992
223	11.167775	120131584	87699456	35685512	24992
224	9.608343	120131584	87699456	41689992	24992
225	12.603536	120131584	87699456	32544696	24992
226	10.266887	120131584	87699456	39079056	24992
227	11.018278	120131584	87699456	45880928	24992
228	13.463968	120131584	87699456	36853208	24992
229	11.874424	120131584	87699456	44195032	24992
230	14.421693	120131584	87699456	36046216	24992
231	12.67896	120131584	87699456	43941456	24992
232	15.463144	120131584	87699456	36355536	24992
233	13.460983	120131584	87699456	44796512	24992
234	16.317862	120131584	87699456	37670208	24992
235	14.522664	120131584	87699456	46671888	24992
236	17.305	120131584	87699456	39781816	24992
237	18.288193	120131584	87699456	34341864	24992
238	15.704993	120131584	87699456	44181216	24992
239	18.960121	120131584	87699456	38584760	24992
240	19.836033	120131584	87699456	34245304	24992
241	16.978426	120131584	87699456	44924704	24992
242	20.144792	120131584	87699456	40070240	24992
243	21.372028	120131584	87699456	36347592	24992
244	18.582273	120131584	87699456	47879888	24992
245	21.091436	120131584	87699456	43411904	24992
246	22.186902	120131584	87699456	40037336	24992
247	22.978872	120131584	87699456	37501648	24992
248	23.767608	120131584	87699456	35711440	24992
249	21.225678	120131584	87699456	48681216	24992
250	23.417394	120131584	87699456	45616960	24992
251	24.765852	120131584	87699456	43404224	24992
252	0.999278	120131584	87699456	42006640	24992
253	1.435711	120131584	87699456	42888216	24992
254	1.895915	120131584	87699456	44064904	24992
255	2.373333	120131584	87699456	45537920	24992
256	3.049912	120131584	87699456	47308784	24992
257	3.535486	120131584	87699456	49377808	24992
258	6.469137	120131584	87699456	35417480	24992
259	4.439251	120131584	87699456	38087752	24992
260	4.882887	120131584	87699456	41066472	24992
261	5.222365	120131584	87699456	44341208	24992
262	6.033427	120131584	87699456	47917312	24992
263	8.537105	120131584	87699456	35712968	24992
264	6.681893	120131584	87699456	39898096	24992
265	7.340722	120131584	87699456	44391696	24992
266	7.556964	120131584	87699456	49191144	24992
267	10.471045	120131584	87699456	38027784	24992
268	8.650737	120131584	87699456	43450296	24992
269	9.310864	120131584	87699456	49187752	24992
270	11.959816	120131584	87699456	38984520	24992
271	10.100349	120131584	87699456	45336416	24992
272	13.481437	120131584	87699456	36384568	24992
273	11.327862	120131584	87699456	43363560	24992
274	14.754654	120131584	87699456	35393088	24992
275	12.264318	120131584	87699456	43018584	24992
276	15.759063	120131584	87699456	35785296	24992
277	13.076491	120131584	87699456	44028832	24992
278	16.934997	120131584	87699456	37270432	24992
279	14.232547	120131584	87699456	46151496	24992
280	17.529717	120131584	87699456	39661072	24992
281	15.368924	120131584	87699456	49190712	24992
282	18.287289	120131584	87699456	42840544	24992
283	19.916381	120131584	87699456	37903824	24992
284	17.18049	120131584	87699456	48407712	24992
285	19.786912	120131584	87699456	43173976	24992
286	21.313188	120131584	87699456	39220520	24992
287	18.473307	120131584	87699456	50704288	24992
288	21.28496	120131584	87699456	46139776	24992
289	22.848298	120131584	87699456	42677112	24992
290	23.667363	120131584	87699456	40144472	24992
291	24.319381	120131584	87699456	38402992	24992
292	25.024966	120131584	87699456	37317424	24992
293	21.965382	120131584	87699456	50791360	24992
294	24.932838	120131584	87699456	48267032	24992
295	25.664254	120131584	87699456	46531360	24992
296	26.221493	120131584	87699456	45383656	24992
297	27.695652	120131584	87699456	44800000	24992
298	27.674875	120131584	87699456	44693968	24992
299	28.918718	120131584	87699456	44942376	24992
300	29.237702	120131584	87699456	45521368	24992
301	29.482875	120131584	87699456	46333960	24992
302	1.153507	120131584	87699456	47583680	24992
303	1.677865	120131584	87699456	48611240	24992
304	2.2293	120131584	87699456	49982912	24992
305	2.775155	120131584	87699456	51711464	24992
306	6.110171	120131584	87699456	37489088	24992
307	3.844867	120131584	87699456	39899560	24992
308	4.446957	120131584	87699456	42657976	24992
309	4.997206	120131584	87699456	45765272	24992
310	5.738508	120131584	87699456	49229648	24992
311	8.698769	120131584	87699456	37162704	24992
312	6.722833	120131584	87699456	41327920	24992
313	8.288604	120131584	87699456	45859792	24992
314	7.808812	120131584	87699456	50739472	24992
315	11.145259	120131584	87699456	39869784	24992
316	9.143395	120131584	87699456	45451816	24992
317	9.588075	120131584	87699456	51394272	24992
318	12.721465	120131584	87699456	41514144	24992
319	10.951761	120131584	87699456	48172456	24992
320	14.384496	120131584	87699456	39549864	24992
321	12.148855	120131584	87699456	46940792	24992
322	15.62922	120131584	87699456	39273504	24992
323	12.987698	120131584	87699456	47380104	24992
324	16.890853	120131584	87699456	40334480	24992
325	14.185184	120131584	87699456	49176208	24992
326	17.981775	120131584	87699456	42577976	24992
327	15.531752	120131584	87699456	52139648	24992
328	18.791734	120131584	87699456	45771256	24992
329	20.504282	120131584	87699456	40887984	24992
330	17.810897	120131584	87699456	51559816	24992
331	20.536543	120131584	87699456	46409304	24992
332	21.951312	120131584	87699456	42572952	24992
333	23.059018	120131584	87699456	39758472	24992
334	20.005004	120131584	87699456	51922640	24992
335	23.170058	120131584	87699456	48284208	24992
336	24.656041	120131584	87699456	45679384	24992
337	26.155862	120131584	87699456	43873072	24992
338	26.229609	120131584	87699456	42763976	24992
339	26.853882	120131584	87699456	42249000	24992
340	27.730288	120131584	87699456	42206696	24992
341	28.197586	120131584	87699456	42582232	24992
342	28.891785	120131584	87699456	43287096	24992
343	29.624707	120131584	87699456	44280512	24992
344	30.044093	120131584	87699456	45474560	24992
345	30.929314	120131584	87699456	46863416	24992
346	31.595026	120131584	87699456	48394072	24992
347	31.31224	120131584	87699456	50048144	24992
348	32.47732	120131584	87699456	51827664	24992
349	32.493317	120131584	87699456	53692392	24992
350	37.744332	120131584	87699456	42152608	24992
351	34.80799	120131584	87699456	46520624	24992
352	1.289881	120131584	87699456	50843528	24992
353	1.940781	120131584	87699456	52017408	24992
354	2.584404	120131584	87699456	53584072	24992
355	5.901361	120131584	87699456	39382648	24992
356	3.775854	120131584	87699456	41741016	24992
357	4.383677	120131584	87699456	44492648	24992
358	4.976563	120131584	87699456	47643792	24992
359	5.711296	120131584	87699456	51189872	24992
360	9.48717	120131584	87699456	39401152	24992
361	7.082742	120131584	87699456	43755624	24992
362	7.72547	120131584	87699456	48516088	24992
363	8.378518	120131584	87699456	53682208	24992
364	11.973468	120131584	87699456	43085968	24992
365	9.720114	120131584	87699456	49066720	24992
366	14.004691	120131584	87699456	40110744	24992
367	11.165102	120131584	87699456	46910648	24992
368	11.569818	120131584	87699456	54131112	24992
369	15.316683	120131584	87699456	45508720	24992
370	13.06985	120131584	87699456	53560640	24992
371	16.411611	120131584	87699456	45916528	24992
372	14.414652	120131584	87699456	54785680	24992
373	17.919778	120131584	87699456	47747744	24992
374	20.271042	120131584	87699456	42339208	24992
375	16.498528	120131584	87699456	52460096	24992
376	20.293972	120131584	87699456	47094568	24992
377	21.898543	120131584	87699456	43091696	24992
378	18.678745	120131584	87699456	54468632	24992
379	22.060123	120131584	87699456	50025160	24992
380	23.929622	120131584	87699456	46805096	24992
381	24.490558	120131584	87699456	44565200	24992
382	25.80412	120131584	87699456	43171832	24992
383	27.128271	120131584	87699456	42466400	24992
384	27.314635	120131584	87699456	42319184	24992
385	28.842092	120131584	87699456	42678920	24992
386	28.476775	120131584	87699456	43406032	24992
387	29.456285	120131584	87699456	44413040	24992
388	30.224429	120131584	87699456	45714336	24992
389	31.008898	120131584	87699456	47231848	24992
390	30.953097	120131584	87699456	48881808	24992
391	31.719815	120131584	87699456	50692112	24992
392	32.249081	120131584	87699456	52632888	24992
393	34.035269	120131584	87699456	54677192	24992
394	38.514528	120131584	87699456	43516488	24992
395	37.325325	120131584	87699456	50888008	24992
396	35.448227	120131584	87699456	55119128	24992
397	36.484303	120131584	87699456	59046296	24992
398	40.625349	120131584	87699456	49300856	24992
399	37.840915	120131584	87699456	55131744	24992
400	44.626788	120131584	87699456	47581448	24992
401	41.481005	120131584	87699456	57540384	24992
402	4.501847	120131584	87699456	48087040	24992
403	2.195873	120131584	87699456	49420616	24992
404	2.918581	120131584	87699456	51200232	24992
405	3.791232	120131584	87699456	53427696	24992
406	4.289467	120131584	87699456	56102832	24992
407	4.910751	120131584	87699456	59226832	24992
408	5.676238	120131584	87699456	62804656	24992
409	9.896352	120131584	87699456	50627512	24992
410	7.452377	120131584	87699456	55107624	24992
411	7.946545	120131584	87699456	60038408	24992
412	12.288202	120131584	87699456	49743568	24992
413	9.416335	120131584	87699456	55583112	24992
414	10.288693	120131584	87699456	61888080	24992
415	14.481637	120131584	87699456	52618280	24992
416	11.904055	120131584	87699456	59842960	24992
417	16.192251	120131584	87699456	51889240	24992
418	13.360831	120131584	87699456	60069240	24992
419	17.755096	120131584	87699456	53038016	24992
420	14.850968	120131584	87699456	62169584	24992
421	18.915858	120131584	87699456	55751112	24992
422	20.825795	120131584	87699456	50957640	24992
423	16.954286	120131584	87699456	61519624	24992
424	21.38872	120131584	87699456	56640600	24992
425	23.048787	120131584	87699456	53159504	24992
426	23.521857	120131584	87699456	50724824	24992
427	20.12008	120131584	87699456	63227472	24992
428	24.660657	120131584	87699456	60072920	24992
429	25.596205	120131584	88223744	57920336	24992
430	26.817253	120131584	88223744	56620496	24992
431	27.550007	120401920	88223744	56066896	24992
432	28.912407	120401920	88223744	56103480	24992
433	29.151122	120401920	88223744	56653648	24992
434	30.026181	120401920	88223744	57599832	24992
435	30.596061	120401920	88223744	58898656	24992
436	31.660042	120401920	88223744	60498368	24992
437	32.005548	120672256	88223744	62274976	24992
438	33.05273	120672256	88223744	64248912	24992
439	38.689559	120942592	88748032	52943520	24992
440	37.269329	121753600	89272320	60502944	24992
441	35.723731	121753600	89272320	65015120	24992
442	42.236667	121753600	89272320	56021088	24992
443	41.946346	124186624	91893760	65015528	24992
444	46.225072	124186624	91893760	70737936	24992
445	48.278415	119738368	87175168	29033464	24992
446	41.29979	119738368	87175168	26487096	24992
447	39.578997	119738368	87175168	20615176	24992
448	40.373291	119738368	87175168	32032456	24992
449	40.587513	119738368	87175168	26713640	24992
450	42.176743	119738368	87175168	39224456	24992
451	41.663982	119738368	87175168	34278576	24992
452	1.581608	119738368	87175168	31503984	24992
453	2.351734	119738368	87175168	33045488	24992
454	3.169492	119738368	87175168	35094696	24992
455	4.033679	119738368	87175168	37676776	24992
456	4.752069	119738368	87175168	40754696	24992
457	8.331537	119738368	87175168	31039760	24992
458	6.291823	119738368	87175168	35153608	24992
459	7.436809	119738368	87175168	39800328	24992
460	9.094405	119738368	87175168	29627928	24992
461	8.658239	119738368	87175168	35276072	24992
462	9.518099	119738368	87175168	41443360	24992
463	11.004109	119738368	87175168	32178016	24992
464	11.164582	119738368	87175168	39386248	24992
465	12.948415	119738368	87175168	31564960	24992
466	12.588807	119738368	87175168	39841512	24992
467	14.395533	119738368	87175168	32918800	24992
468	14.224623	119738368	87175168	42245224	24992
469	15.869639	119738368	87175168	35960056	24992
470	17.499826	119738368	87175168	31329536	24992
471	16.943454	119738368	87175168	42219040	24992
472	18.175518	119738368	87175168	37553864	24992
473	19.885255	119738368	87175168	34317296	24992
474	21.348808	119738368	87175168	32080200	24992
475	21.719136	119738368	87175168	30876848	24992
476	20.964269	119738368	87175168	44424520	24992
477	22.494907	119738368	87175168	42138952	24992
478	23.909351	119738368	87175168	40713504	24992
479	24.192635	119738368	87175168	40150864	24992
480	25.703574	119738368	87175168	40187552	24992
481	27.208735	119738368	87175168	40736600	24992
482	27.109735	119738368	87175168	41797368	24992
483	28.198488	119738368	87175168	43098960	24992
484	28.196179	119738368	87175168	44749752	24992
485	31.78149	119738368	87175168	33051576	24992
486	31.604423	119738368	87175168	37608416	24992
487	31.596064	119738368	87175168	41843720	24992
488	35.016495	119738368	87175168	32731208	24992
489	36.575705	119738368	87175168	41942168	24992
490	34.546532	119738368	87175168	47781072	24992
491	36.97618	119738368	87175168	39489808	24992
492	36.457828	119738368	87175168	46709192	24992
493	38.999636	119738368	87175168	39984384	24992
494	45.478503	120279040	87699456	40262184	24992
495	42.724863	120279040	87699456	52576960	24992
496	49.548867	120279040	87699456	48056400	24992
497	64.855056	111149056	80883712	33911840	24992
498	47.974333	113311744	80883712	34566416	24992
499	44.619004	113311744	80883712	31325960	24992
500	50.30304	113311744	80883712	34808424	24992
501	50.424539	113311744	80883712	38578600	24992
502	1.770374	113311744	80883712	43436376	24992
503	2.592687	113311744	80883712	45111776	24992
504	3.331589	113311744	80883712	47365864	24992
505	4.229328	113311744	80883712	50162264	24992
506	8.178416	113311744	80883712	40494400	24992
507	6.321311	113311744	80883712	44417736	24992
508	6.848473	113311744	80883712	48904160	24992
509	8.020137	113311744	80883712	53955936	24992
510	9.46126	113311744	80883712	43940624	24992
511	9.636322	113311744	80883712	50140048	24992
512	11.384129	113311744	80883712	41298064	24992
513	11.532359	113311744	80883712	48636840	24992
514	13.513421	113311744	80883712	41241160	24992
515	13.164415	113311744	80883712	49707656	24992
516	15.455567	113311744	80883712	43230216	24992
517	14.985452	113311744	80883712	52847488	24992
518	16.71047	113311744	80883712	46942544	24992
519	17.968327	113311744	80883712	42683024	24992
520	17.704511	113311744	80883712	54028128	24992
521	18.935986	113311744	80883712	49672432	24992
522	20.419432	113311744	80883712	46658888	24992
523	22.185381	113311744	80883712	44770920	24992
524	23.413991	113311744	80883712	43899520	24992
525	24.585709	113311744	80883712	43739784	24992
526	25.106856	113311744	80883712	44176864	24992
527	26.94439	113311744	80883712	45096232	24992
528	26.928306	113311744	80883712	46494592	24992
529	27.553323	113311744	80883712	48223976	24992
530	28.462578	113311744	80883712	50227064	24992
531	29.645147	113311744	80883712	52449360	24992
532	29.828028	113311744	80883712	54912216	24992
533	32.727206	113311744	80883712	44080296	24992
534	32.223831	113311744	80883712	49212872	24992
535	33.508745	113311744	80883712	54099256	24992
536	35.701679	113311744	80883712	45369176	24992
537	39.142047	113311744	80883712	55319744	24992
538	38.507849	113311744	80883712	48846624	24992
539	40.729104	115204096	82980864	59947488	24992
540	41.151375	116015104	84029440	54302728	24992
541	45.577932	118988800	87175168	66615936	24992
542	61.184643	112537600	82980864	17095056	24992
543	43.112403	114966528	82980864	29348288	24992
544	43.435763	114966528	82980864	25899600	24992
545	50.941419	114966528	82980864	28888432	24992
546	49.913359	114966528	82980864	32247504	24992
547	51.249403	114966528	82980864	36206296	24992
548	51.880734	114966528	82980864	40726384	24992
549	53.073724	114966528	82980864	45922008	24992
550	56.640869	117399552	85602304	51704496	24992
551	74.658643	116195328	85602304	29028208	24992
552	1.884037	118083584	85602304	36207304	24992
553	2.789558	118083584	85602304	38028968	24992
554	7.486012	118083584	85602304	28289280	24992
555	4.589062	118083584	85602304	31329456	24992
556	5.798566	118083584	85602304	34994416	24992
557	6.564544	118083584	85602304	39288144	24992
558	9.730068	118083584	85602304	29774104	24992
559	8.537736	118083584	85602304	35292840	24992
560	9.367058	118083584	85602304	41449440	24992
561	11.322878	118083584	85602304	32163008	24992
562	11.627462	118083584	85602304	39563888	24992
563	13.453749	118083584	85602304	31830096	24992
564	13.680767	118083584	85602304	40464816	24992
565	14.840233	118083584	85602304	33901336	24992
566	15.366782	118083584	85602304	43817944	24992
567	16.636357	118083584	85602304	37878952	24992
568	18.732838	118083584	85602304	33634008	24992
569	20.031788	118083584	85602304	30751512	24992
570	19.735343	118083584	85602304	43190784	24992
571	20.429689	118083584	85602304	39889240	24992
572	22.269824	118083584	85602304	37822360	24992
573	23.503564	118083584	85602304	36731640	24992
574	24.379728	118083584	85602304	36503784	24992
575	25.293957	118083584	85602304	36925288	24992
576	26.778788	118083584	85602304	37916752	24992
577	27.711562	118083584	85602304	39378480	24992
578	28.497848	118083584	85602304	41198096	24992
579	29.123008	118083584	85602304	43362296	24992
580	31.915501	118083584	85602304	32375784	24992
581	32.559114	118083584	85602304	37412136	24992
582	32.551204	118083584	85602304	42199400	24992
583	36.000958	118083584	85602304	33489792	24992
584	38.111886	118083584	85602304	43499264	24992
585	38.609498	118083584	85602304	37087160	24992
586	40.252376	118083584	85602304	48341920	24992
587	41.341285	118083584	85602304	42783616	24992
588	47.396729	118083584	85602304	43692112	24992
589	43.099768	118083584	85602304	56658072	24992
590	43.769566	118083584	85602304	52822376	24992
591	48.909461	118083584	85602304	55625664	24992
592	57.148625	122138624	89796608	58960208	24992
593	69.387248	120565760	90320896	30670864	24992
594	52.534584	122454016	90320896	34219520	24992
595	53.783151	122454016	90320896	39395120	24992
596	54.626811	122454016	90320896	45279936	24992
597	56.012978	122454016	90320896	51776040	24992
598	61.336969	122724352	90320896	47318256	24992
599	57.995508	123265024	90845184	55127888	24992
600	65.73994	123805696	91369472	63693760	24992
601	81.071587	122294272	89796608	27490096	24992
602	2.194316	122294272	89796608	38119368	24992
603	3.051368	122294272	89796608	40107640	24992
604	7.375739	122294272	89796608	30549152	24992
605	5.38009	122294272	89796608	33866920	24992
606	6.164564	122294272	89796608	37852536	24992
607	8.084701	122294272	89796608	42505272	24992
608	10.390915	122294272	89796608	33148664	24992
609	9.105602	122294272	89796608	39177544	24992
610	10.983549	122294272	89796608	30448528	24992
611	11.264352	122294272	89796608	37801248	24992
612	13.704293	122294272	89796608	30648128	24992
613	13.420693	122294272	89796608	39329440	24992
614	15.67201	122294272	89796608	33262136	24992
615	15.880247	122294272	89796608	43297576	24992
616	17.404736	122294272	89796608	37906864	24992
617	19.216585	122294272	89796608	34123328	24992
618	20.011269	122294272	89796608	31707056	24992
619	19.817312	122294272	89796608	44464984	24992
620	20.841683	122294272	89796608	41552032	24992
621	24.166312	122294272	89796608	39888152	24992
622	24.923875	122294272	89796608	39199072	24992
623	25.215709	122294272	89796608	39377208	24992
624	26.737772	122294272	89796608	40162152	24992
625	27.095145	122294272	89796608	41484256	24992
626	28.698223	122294272	89796608	43292368	24992
627	29.641839	122294272	89796608	45475424	24992
628	32.92306	122294272	89796608	34497888	24992
629	32.510233	122294272	89796608	39692032	24992
630	33.610961	122294272	89796608	44614904	24992
631	35.44387	122294272	89796608	36019080	24992
632	38.57553	122294272	89796608	46425312	24992
633	39.551281	122294272	89796608	40254560	24992
634	40.900741	122294272	89796608	52055040	24992
635	41.475269	122294272	89796608	46772408	24992
636	43.910102	122294272	89796608	43413968	24992
637	44.53383	122294272	89796608	57190232	24992
638	44.983136	122294272	89796608	53596416	24992
639	46.137055	122294272	89796608	51564064	24992
640	53.151785	122294272	89796608	55895624	24992
641	61.496446	124997632	92942336	60747192	24992
642	73.226039	118239232	87699456	34493704	24992
643	59.560105	120127488	87699456	28179160	24992
644	55.472842	120127488	87699456	35020936	24992
645	56.917001	120127488	87699456	42516784	24992
646	56.778448	120127488	87699456	50691304	24992
647	60.209948	120127488	87699456	59562080	24992
648	66.256276	120668160	88223744	57680768	24992
649	91.912096	121126912	91369472	25080840	24992
650	64.401924	123555840	91369472	35460408	24992
651	62.424966	123555840	91369472	47210592	24992
652	2.171231	123555840	91369472	48785096	24992
653	3.137958	123555840	91369472	50930000	24992
654	4.44773	123555840	91369472	53777568	24992
655	8.200462	123555840	91369472	44584040	24992
656	6.916801	123555840	91369472	48879680	24992
657	7.648483	123555840	91369472	53887272	24992
658	10.510172	123555840	91369472	44813056	24992
659	10.112669	123555840	91369472	51241128	24992
660	12.317025	123555840	91369472	43194088	24992
661	12.295521	123555840	91369472	51061864	24992
662	14.899223	123555840	91369472	44454440	24992
663	14.388246	123555840	91369472	53772832	24992
664	16.684966	123555840	91369472	48123784	24992
665	18.163064	123555840	91369472	44219824	24992
666	17.887147	123555840	91369472	55705736	24992
667	19.316071	123555840	91369472	51837096	24992
668	21.512217	123555840	91369472	49477344	24992
669	22.467977	123555840	91369472	48232384	24992
670	23.745783	123555840	91369472	47947496	24992
671	25.634102	123555840	91369472	48407216	24992
672	26.458055	123555840	91369472	49602968	24992
673	28.036289	123555840	91369472	51269608	24992
674	28.744779	123555840	91369472	53387744	24992
675	29.281658	123555840	91369472	55866824	24992
676	33.478219	123555840	91369472	45436536	24992
677	34.946547	123555840	91369472	53700624	24992
678	33.946602	123555840	91369472	58965384	24992
679	36.601513	123555840	91369472	50729176	24992
680	38.383551	123555840	91369472	61245520	24992
681	39.312304	123555840	91369472	55296400	24992
682	41.114646	123555840	91369472	67226968	24992
683	40.614493	123555840	91369472	62087280	24992
684	53.919322	126799872	94515200	63942568	24992
685	64.076201	120897536	90320896	31571824	24992
686	50.080905	122785792	90320896	33301816	24992
687	53.144079	122785792	90320896	37024536	24992
688	53.036327	122785792	90320896	41587016	24992
689	53.694238	122785792	90320896	46937472	24992
690	55.594721	122785792	90320896	52950432	24992
691	56.461712	122785792	90320896	59711568	24992
692	67.989712	122785792	90320896	55779624	24992
693	75.776714	121212928	90845184	31978000	24992
694	60.359067	123101184	90845184	40226288	24992
695	65.563569	123101184	90845184	38434512	24992
696	60.78478	123101184	90845184	48983544	24992
697	67.657125	123101184	90845184	48840480	24992
698	62.509066	123101184	90845184	60801304	24992
699	76.56406	126074880	93990912	62121800	24992
700	87.363018	124362752	92418048	29460360	24992
701	71.966892	124362752	92418048	32539480	24992
702	2.468065	124362752	92418048	48333112	24992
703	7.300682	124362752	92418048	38792792	24992
704	4.750449	124362752	92418048	41835360	24992
705	5.92889	124362752	92418048	45645992	24992
706	7.124884	124362752	92418048	50218192	24992
707	10.173341	124362752	92418048	41292216	24992
708	9.621961	124362752	92418048	47398720	24992
709	11.581551	124362752	92418048	39055816	24992
710	12.069094	124362752	92418048	46700104	24992
711	14.162812	124362752	92418048	40003608	24992
712	14.362304	124362752	92418048	49186928	24992
713	16.556194	124362752	92418048	43606200	24992
714	17.453142	124362752	92418048	37846600	24992
715	18.017837	124362752	92418048	49379784	24992
716	20.67081	124362752	92418048	46130704	24992
717	22.089523	124362752	92418048	44226664	24992
718	24.366567	124362752	92418048	43429088	24992
719	24.762278	124362752	92418048	43628504	24992
720	26.062173	124362752	92418048	44485104	24992
721	27.236843	124362752	92418048	46014408	24992
722	28.123584	124362752	92418048	48071632	24992
723	29.815832	124362752	92418048	50539056	24992
724	30.384563	124362752	92418048	53335904	24992
725	34.253619	124362752	92418048	43126784	24992
726	35.925539	124362752	92418048	52015872	24992
727	34.169558	124362752	92418048	57786160	24992
728	37.894389	124362752	92418048	49620376	24992
729	37.019388	124362752	92418048	57139176	24992
730	40.725343	124362752	92418048	50775424	24992
731	43.490452	124362752	92418048	47375992	24992
732	43.370786	124903424	92418048	60824952	24992
733	43.543085	124903424	92418048	57212064	24992
734	50.548443	124903424	92418048	60814560	24992
735	58.879296	125984768	93466624	64950360	24992
736	71.352912	121647104	89272320	23217704	24992
737	53.765787	121647104	89272320	29158544	24992
738	56.069696	121647104	89272320	35637072	24992
739	57.176944	121647104	89272320	42980208	24992
740	60.436089	121647104	89272320	50996088	24992
741	64.575816	121647104	89272320	48342296	24992
742	61.42976	121647104	89272320	58036072	24992
743	90.49467	120483840	90845184	25410016	24992
744	65.458575	123183104	90845184	36210096	24992
745	67.712194	123453440	90845184	36577920	24992
746	65.563344	123453440	90845184	49514808	24992
747	70.473962	123453440	90845184	51679048	24992
748	67.066302	123453440	90845184	65989736	24992
749	75.633195	130752512	98709504	69902720	24992
750	92.138672	120156160	87699456	21277496	24992
751	76.973846	120156160	87699456	26886408	24992
752	7.191839	120156160	87699456	33820464	24992
753	3.787912	120156160	87699456	36260384	24992
754	5.012599	120156160	87699456	39498104	24992
755	6.233255	120156160	87699456	43548056	24992
756	10.714322	120156160	87699456	34861792	24992
757	8.887091	120156160	87699456	40552928	24992
758	10.336011	120156160	87699456	47049896	24992
759	11.947567	120156160	87699456	38322384	24992
760	12.551087	120156160	87699456	46445392	24992
761	14.817056	120156160	87699456	39511480	24992
762	15.04207	120156160	87699456	49315736	24992
763	16.961734	120156160	87699456	43484720	24992
764	19.195946	120156160	87699456	39581424	24992
765	20.642504	120156160	87699456	37224640	24992
766	21.788662	120156160	87699456	36102680	24992
767	24.08808	120156160	87699456	36000832	24992
768	25.146637	120156160	87699456	36699552	24992
769	26.145554	120156160	87699456	38102632	24992
770	27.77888	120156160	87699456	40092144	24992
771	28.820744	120156160	87699456	42576992	24992
772	30.360775	120156160	87699456	45453400	24992
773	31.307316	120156160	87699456	48570912	24992
774	34.273716	120156160	87699456	38745008	24992
775	37.267888	120156160	87699456	48086824	24992
776	38.228339	120156160	87699456	41299192	24992
777	39.04566	120156160	87699456	52208312	24992
778	40.908278	120156160	87699456	46959424	24992
779	44.339948	120156160	87699456	59477440	24992
780	55.835831	120156160	87699456	54938280	24992
781	55.032073	117080064	84553728	25786736	24992
782	49.745494	117080064	84553728	29113280	24992
783	51.794786	117080064	84553728	33244536	24992
784	52.824639	117080064	84553728	38195168	24992
785	53.860501	117080064	84553728	44006568	24992
786	57.7311	117080064	84553728	50728720	24992
787	59.155018	117080064	84553728	58193240	24992
788	87.112584	116666368	86126592	26184936	24992
789	59.671645	118554624	86126592	34978176	24992
790	61.556351	118554624	86126592	44980544	24992
791	67.346524	118554624	86126592	44473968	24992
792	64.334961	118554624	86126592	56059800	24992
793	69.95146	118554624	86126592	57246064	24992
794	78.400112	125313024	92942336	59161872	24992
795	92.799336	125067264	92942336	27684328	24992
796	69.690983	125067264	92942336	43023672	24992
797	77.20249	125067264	92942336	47601920	24992
798	76.094159	125067264	92942336	52880224	24992
799	78.269395	125067264	92942336	59086456	24992
800	84.19038	126148608	93990912	66206656	24992
801	104.372606	121712640	89272320	28484472	24992
802	2.591309	121712640	89272320	38085560	24992
803	3.820755	121712640	89272320	40659104	24992
804	5.377155	121712640	89272320	44093272	24992
805	9.33109	121712640	89272320	35512112	24992
806	7.959495	121712640	89272320	40678216	24992
807	9.598466	121712640	89272320	46699976	24992
808	11.916806	121712640	89272320	38209944	24992
809	12.310956	121712640	89272320	45961792	24992
810	14.64637	121712640	89272320	39047808	24992
811	14.915405	121712640	89272320	48538856	24992
812	17.182263	121712640	89272320	42862760	24992
813	19.075365	121712640	89272320	39182680	24992
814	20.583138	121712640	89272320	36985456	24992
815	20.357573	121712640	89272320	49974440	24992
816	22.106754	121712640	89272320	47525024	24992
817	24.185327	121712640	89272320	46370944	24992
818	25.842771	121712640	89272320	46360312	24992
819	26.892281	121712640	89272320	47246824	24992
820	28.619446	121712640	89272320	48813136	24992
821	29.629941	121712640	89272320	51064328	24992
822	32.861089	121712640	89272320	40182120	24992
823	33.044046	121712640	89272320	45694024	24992
824	33.7308	121712640	89272320	50993400	24992
825	37.561133	121712640	89272320	42810480	24992
826	37.130896	121712640	89272320	50529792	24992
827	40.267168	121712640	89272320	44398432	24992
828	43.061018	121712640	89272320	41193752	24992
829	44.376941	121712640	89272320	55143568	24992
830	44.594833	121712640	89272320	51659608	24992
831	46.402452	121712640	89272320	50062656	24992
832	53.543343	121712640	89272320	55174536	24992
833	54.530455	121712640	89272320	61013936	24992
834	58.092929	123604992	91369472	67674656	24992
835	85.894446	124977152	94515200	30970280	24992
836	60.357487	126865408	94515200	38224992	24992
837	65.189101	126865408	94515200	36160928	24992
838	62.186983	126865408	94515200	46347232	24992
839	65.582947	126865408	94515200	57480288	24992
840	69.422676	126865408	94515200	58044224	24992
841	77.01735	127135744	94515200	59711816	24992
842	89.754722	124944384	92942336	27955680	24992
843	67.785865	124944384	92942336	42873904	24992
844	73.764654	124944384	92942336	47216056	24992
845	75.453273	124944384	92942336	52212024	24992
846	75.108385	124944384	92942336	58370592	24992
847	82.912971	126566400	93990912	65310680	24992
848	99.16939	125300736	92942336	38422448	24992
849	84.273768	125300736	92942336	35846952	24992
850	82.52598	125300736	92942336	45565768	24992
851	84.021047	125300736	92942336	56196968	24992
852	3.152745	125300736	92942336	68917752	24992
853	11.299837	125300736	92942336	59847688	24992
854	6.258232	125300736	92942336	63615272	24992
855	8.499454	125300736	92942336	68293656	24992
856	19.274873	126652416	94515200	60023736	24992
857	20.055178	126652416	94515200	66601416	24992
858	14.667815	121524224	89796608	30028880	24992
859	15.035434	121790464	89796608	23327792	24992
860	14.482095	121790464	89796608	32711832	24992
861	16.797814	121790464	89796608	27384608	24992
862	18.765624	121790464	89796608	24008392	24992
863	19.167058	121790464	89796608	36251992	24992
864	20.711474	121790464	89796608	33173616	24992
865	22.764999	121790464	89796608	31648192	24992
866	24.279366	121790464	89796608	31285816	24992
867	26.504233	121790464	89796608	31991736	24992
868	27.837834	121790464	89796608	33457008	24992
869	29.292331	121790464	89796608	35661544	24992
870	32.420117	121790464	89796608	25151192	24992
871	34.55595	121790464	89796608	33704704	24992
872	33.257578	121790464	89796608	39430576	24992
873	36.535408	121790464	89796608	31610904	24992
874	39.509711	121790464	89796608	42927240	24992
875	40.438281	122060800	89796608	37578376	24992
876	42.801031	122060800	89796608	34488168	24992
877	44.229065	122060800	89796608	48495000	24992
878	44.252524	122060800	89796608	45415344	24992
879	46.407637	122060800	89796608	44072336	24992
880	51.647237	122060800	89796608	49391840	24992
881	53.61315	122060800	89796608	55608648	24992
882	54.441868	122060800	89796608	62707512	24992
883	60.928196	123412480	91369472	59195064	24992
884	87.130397	128278528	96088064	68388832	24992
885	63.296884	132296704	100282368	32573688	24992
886	62.124301	132567040	100282368	43478608	24992
887	66.86978	132567040	100282368	43940400	24992
888	64.5663	132567040	100282368	56842256	24992
889	68.832758	132567040	100282368	59161904	24992
890	71.166511	132567040	100282368	62385264	24992
891	102.564138	121458688	91369472	32442648	24992
892	74.304493	123346944	91369472	36741216	24992
893	75.676362	123346944	91369472	42902656	24992
894	76.53925	123346944	91369472	50043520	24992
895	77.903192	123887616	91369472	58205104	24992
896	82.806978	126320640	93990912	67317688	24992
897	111.927503	131190784	99233792	30730472	24992
898	85.115751	131190784	99233792	41886848	24992
899	82.501088	131190784	99233792	53897680	24992
900	90.778736	131190784	99233792	55480040	24992
901	86.783584	131190784	99233792	69432104	24992
902	6.168613	124297216	91893760	22526088	24992
903	4.52157	124297216	91893760	25472296	24992
904	6.23452	124297216	91893760	29438712	24992
905	7.715895	124297216	91893760	34353080	24992
906	11.34927	124297216	91893760	26482688	24992
907	10.608385	124297216	91893760	33370840	24992
908	13.103863	124297216	91893760	25462752	24992
909	13.273024	124297216	91893760	34351464	24992
910	15.754828	124297216	91893760	28311072	24992
911	18.02289	124297216	91893760	24342576	24992
912	18.266388	124297216	91893760	36251264	24992
913	20.165067	124297216	91893760	32814216	24992
914	22.468494	124297216	91893760	31031296	24992
915	24.194758	124297216	91893760	30627520	24992
916	25.697767	124297216	91893760	31192368	24992
917	26.988647	124297216	91893760	32686352	24992
918	29.24664	124297216	91893760	34892384	24992
919	32.103332	124297216	91893760	24585816	24992
920	34.573659	124297216	91893760	33095848	24992
921	34.398876	124297216	91893760	38890392	24992
922	37.237759	124297216	91893760	31344368	24992
923	39.888411	124297216	91893760	42900960	24992
924	40.82123	124297216	91893760	37812936	24992
925	44.450206	124297216	91893760	34897976	24992
926	47.807389	124297216	91893760	37690328	24992
927	45.682661	124297216	91893760	53021272	24992
928	46.458164	124297216	91893760	51088304	24992
929	47.505602	124297216	91893760	50749864	24992
930	53.159598	124297216	91893760	57705904	24992
931	58.809775	124297216	91893760	53894464	24992
932	78.088869	125919232	93466624	62609168	24992
933	69.611304	124207104	91893760	28497704	24992
934	61.689743	124477440	91893760	39258624	24992
935	62.005227	124477440	91893760	51015648	24992
936	66.957512	124477440	91893760	52306552	24992
937	68.299237	124477440	91893760	54513872	24992
938	66.447472	124477440	91893760	69330120	24992
939	95.238792	123076608	93466624	24731944	24992
940	73.116957	125505536	93466624	28721080	24992
941	76.217958	125505536	93466624	35018936	24992
942	76.412517	125505536	93466624	42457544	24992
943	77.382987	125505536	93466624	50942360	24992
944	84.524125	126046208	93990912	60257832	24992
945	101.068356	123371520	90845184	38131800	24992
946	86.773319	123371520	90845184	38253024	24992
947	83.35222	123371520	90845184	50648880	24992
948	89.898651	123371520	90845184	52917280	24992
949	96.395786	126345216	93990912	67397768	24992
950	112.710114	126038016	93990912	37541824	24992
951	93.468462	126038016	93990912	42563992	24992
952	3.190475	126038016	93990912	49881224	24992
953	4.757862	126038016	93990912	52973872	24992
954	6.440671	126038016	93990912	57098816	24992
955	10.371908	126038016	93990912	48930824	24992
956	9.397667	126038016	93990912	55202776	24992
957	11.052879	126038016	93990912	62458904	24992
958	12.986815	126038016	93990912	54472704	24992
959	15.682321	126038016	93990912	48949512	24992
960	16.301679	126038016	93990912	59419256	24992
961	18.768532	126038016	93990912	55075248	24992
962	20.243046	126038016	93990912	52744240	24992
963	22.568466	126038016	93990912	51744800	24992
964	24.433066	126038016	93990912	51978184	24992
965	25.902011	126038016	93990912	53337616	24992
966	27.10589	126038016	93990912	55282056	24992
967	28.287826	126038016	93990912	57977768	24992
968	30.384475	126038016	93990912	61298656	24992
969	33.545863	126038016	93990912	51819320	24992
970	36.807177	126038016	93990912	61338800	24992
971	38.581902	126038016	93990912	55269032	24992
972	39.487807	126038016	93990912	66921376	24992
973	41.387787	126038016	93990912	62200504	24992
974	66.092827	129282048	97660928	64330728	24992
975	54.004606	124411904	92418048	30972160	24992
976	50.550632	124411904	92418048	35069552	24992
977	51.219434	124411904	92418048	40111336	24992
978	51.780552	124411904	92418048	46145648	24992
979	53.944286	124411904	92418048	53313728	24992
980	56.429955	124411904	92418048	61501336	24992
981	62.358491	125493248	92942336	59309472	24992
982	88.277256	120553472	90320896	25095760	24992
983	63.102735	122441728	90320896	35814776	24992
984	64.604434	122441728	90320896	36782944	24992
985	65.574463	122441728	90320896	50331776	24992
986	70.025787	122441728	90320896	53427016	24992
987	72.849907	124334080	92418048	57579056	24992
988	76.64162	131633152	100282368	62803592	24992
989	96.022023	126894080	94515200	30223800	24992
990	76.543388	126894080	94515200	37658896	24992
991	77.586294	126894080	94515200	46033096	24992
992	79.658369	126894080	94515200	55423688	24992
993	82.587988	126894080	94515200	65952736	24992
994	109.782523	120868864	90845184	29636424	24992
995	91.115015	122757120	90845184	29644648	24992
996	86.296404	122757120	90845184	43411968	24992
997	90.9802	122757120	90845184	46737688	24992
998	98.57471	122757120	90845184	62667616	24992
999	118.502655	121741312	89272320	37475656	24992
1000	96.404891	121741312	89272320	43956600	24992
