x	Duration	RSS	HeapTotal	HeapUsed	External
0	NA	124715008	87175168	37674784	24992
1	0.418942	124715008	87175168	37722616	24992
2	0.435681	124715008	87175168	37798840	24992
3	0.544725	124715008	87175168	37902136	24992
4	0.625435	124715008	87175168	38033904	24992
5	0.740016	124715008	87175168	38195664	24992
6	0.864541	124715008	87175168	38387888	24992
7	0.988746	124715008	87175168	38611512	24992
8	1.020047	124715008	87175168	38867536	24992
9	0.65432	124715008	87175168	39157904	24992
10	0.720093	124715008	87175168	39483312	24992
11	0.791262	124715008	87175168	39844528	24992
12	0.906262	124715008	87175168	40242624	24992
13	0.952219	124715008	87175168	40678568	24992
14	1.039385	124715008	87175168	41153416	24992
15	1.123882	124715008	87175168	41668032	24992
16	1.218869	124715008	87175168	42223496	24992
17	1.29637	124715008	87175168	42822512	24992
18	5.364323	124715008	87175168	31017600	24992
19	1.342899	124715008	87175168	31704200	24992
20	1.123146	124715008	87175168	32435456	24992
21	1.176294	124715008	87175168	33213448	24992
22	1.703405	124715008	87175168	34039064	24992
23	1.320798	124715008	87175168	34911216	24992
24	1.542312	124715008	87175168	35834024	24992
25	1.788787	124715008	87175168	36807288	24992
26	1.534598	124715008	87175168	37832520	24992
27	1.664724	124715008	87175168	38910856	24992
28	1.684715	124715008	87175168	40042952	24992
29	1.779268	124715008	87175168	41230872	24992
30	1.855787	124715008	87175168	42474048	24992
31	2.005739	124715008	87175168	43773960	24992
32	2.01667	124715008	87175168	45134168	24992
33	5.618493	124715008	87175168	31821736	24992
34	2.267224	124715008	87175168	33313128	24992
35	2.495698	124715008	87175168	34857336	24992
36	2.364053	124715008	87175168	36463416	24992
37	2.644556	124715008	87175168	38132296	24992
38	2.951074	124715008	87175168	39864800	24992
39	2.714063	124715008	87175168	41665744	24992
40	2.741354	124715008	87175168	43528728	24992
41	2.898317	124715008	87175168	45458344	24992
42	2.944338	124715008	87175168	47455536	24992
43	4.764368	124715008	87175168	33519632	24992
44	3.201988	124715008	87175168	35655040	24992
45	3.241099	124715008	87175168	37862408	24992
46	3.34091	124715008	87175168	40142312	24992
47	3.715389	124715008	87175168	42494448	24992
48	3.567501	124715008	87175168	44920872	24992
49	4.065243	124715008	87175168	47422312	24992
50	5.918296	124715008	87175168	34263816	24992
51	4.28536	124715008	87175168	36923248	24992
52	0.266295	124715008	87175168	39574792	24992
53	0.389427	124715008	87175168	39816336	24992
54	0.548458	124715008	87175168	40139976	24992
55	0.660249	124715008	87175168	40546616	24992
56	0.751932	124715008	87175168	41037824	24992
57	0.915861	124715008	87175168	41614080	24992
58	1.082529	124715008	87175168	42276224	24992
59	1.215335	124715008	87175168	43025360	24992
60	1.549124	124715008	87175168	43863392	24992
61	1.743004	124715008	87175168	44791320	24992
62	1.74101	124715008	87175168	45810528	24992
63	1.64154	124715008	87175168	46918184	24992
64	1.779269	124715008	87175168	48117552	24992
65	3.307288	124715008	87175168	33609104	24992
66	2.048699	124715008	87175168	34995096	24992
67	2.166545	124715008	87175168	36476720	24992
68	2.593876	124715008	87175168	38055064	24992
69	2.514047	124715008	87175168	39730024	24992
70	2.611456	124715008	87175168	41503048	24992
71	2.979604	124715008	87175168	43374728	24992
72	2.914426	124715008	87175168	45346096	24992
73	3.058624	124715008	87175168	47419984	24992
74	4.577231	124715008	87175168	33803288	24992
75	3.661826	124715008	87175168	36079312	24992
76	3.505572	124715008	87175168	38458856	24992
77	3.652624	124715008	87175168	40942864	24992
78	4.585078	124715008	87175168	43532312	24992
79	4.075215	124715008	87175168	46237064	24992
80	4.149969	124715008	87175168	49040824	24992
81	5.753927	124715008	87175168	35934920	24992
82	4.455368	124715008	87175168	38957168	24992
83	4.837755	124715008	87175168	42091232	24992
84	4.78535	124715008	87175168	45343704	24992
85	4.986929	124715008	87175168	48708152	24992
86	6.591551	124715008	87175168	36225944	24992
87	5.373289	124715008	87175168	39820472	24992
88	5.512032	124715008	87175168	43533728	24992
89	5.645113	124715008	87175168	47362064	24992
90	8.89471	124715008	87175168	35614272	24992
91	6.234838	124715008	87175168	39680952	24992
92	6.262166	124715008	87175168	43870856	24992
93	6.375186	124715008	87175168	48178280	24992
94	7.947079	124715008	87175168	36762072	24992
95	7.196128	124715008	87175168	41315256	24992
96	6.936079	124715008	87175168	45993088	24992
97	8.840776	124715008	87175168	35345032	24992
98	7.959418	124715008	87175168	40275128	24992
99	7.888868	124715008	87175168	45331760	24992
100	7.725046	124715008	87175168	50516416	24992
101	9.612271	124715008	87175168	39737824	24992
102	0.459335	124715008	87175168	45170496	24992
103	0.625492	124715008	87175168	45574648	24992
104	0.811401	124715008	87175168	46114392	24992
105	1.001165	124715008	87175168	46791168	24992
106	1.206001	124715008	87175168	47606888	24992
107	1.40673	124715008	87175168	48561392	24992
108	1.596062	124715008	87175168	49655936	24992
109	1.812945	124715008	87175168	50891408	24992
110	3.309616	124715008	87175168	36192248	24992
111	2.236764	124715008	87175168	37714456	24992
112	2.418483	124715008	87175168	39379632	24992
113	2.664211	124715008	87175168	41189712	24992
114	3.050331	124715008	87175168	43145856	24992
115	3.063891	124715008	87175168	45248776	24992
116	3.298206	124715008	87175168	47499408	24992
117	3.47086	124715008	87175168	49899152	24992
118	5.293	124715008	87175168	36502152	24992
119	3.927727	124715008	87175168	39203912	24992
120	4.672173	124715008	87175168	42058936	24992
121	4.413203	124715008	87175168	45074064	24992
122	4.615658	124715008	87175168	48234784	24992
123	5.048936	124715008	87175168	51549768	24992
124	6.696362	124715008	87175168	38828768	24992
125	5.474982	124715008	87175168	42458608	24992
126	5.485238	124715008	87175168	46243384	24992
127	5.793171	124715008	87175168	50188360	24992
128	7.391206	124715008	87175168	38319200	24992
129	6.478835	124715008	87175168	42582936	24992
130	6.661784	124715008	87175168	47010224	24992
131	6.659218	124715008	87175168	51600200	24992
132	8.557689	124715008	87175168	40172528	24992
133	7.297155	124715008	87175168	45090120	24992
134	7.698033	124715008	87175168	50177560	24992
135	9.384028	124715008	87175168	39487360	24992
136	8.12902	124715008	87175168	44911072	24992
137	8.394034	124715008	87175168	50503344	24992
138	10.179415	124715008	87175168	40286272	24992
139	9.026536	124715008	87175168	46215888	24992
140	9.448475	124715008	87175168	52317600	24992
141	10.789243	124715008	87175168	42382256	24992
142	9.444943	124715008	87175168	48834152	24992
143	11.421636	124715008	87175168	39831192	24992
144	10.877265	124715008	87175168	46641232	24992
145	12.41251	124715008	87175168	38390464	24992
146	10.49454	124715008	87175168	45550416	24992
147	11.016192	124715008	87175168	52888192	24992
148	12.796423	124715008	87175168	44190504	24992
149	11.74465	124715008	87175168	51892088	24992
150	13.457618	124715008	87175168	43733928	24992
151	12.13825	124715008	87175168	51804008	24992
152	0.593517	124715008	87175168	44081080	24992
153	1.070837	124715008	87175168	44636440	24992
154	1.116815	124715008	87175168	45378584	24992
155	1.394703	124715008	87175168	46308336	24992
156	1.670574	124715008	87175168	47427304	24992
157	1.950986	124715008	87175168	48735840	24992
158	2.221208	124715008	87175168	50234984	24992
159	2.483361	124715008	87175168	51925800	24992
160	2.790945	124715008	87175168	53810056	24992
161	4.473628	124715008	87175168	39621520	24992
162	3.377168	124715008	87175168	41895616	24992
163	3.864269	124715008	87175168	44363416	24992
164	3.924591	124715008	87175168	47027768	24992
165	4.214403	124715008	87175168	49889464	24992
166	4.708602	124715008	87175168	52949616	24992
167	6.362616	124715008	87175168	40097296	24992
168	5.101731	124715008	87175168	43560096	24992
169	5.440237	124715008	87175168	47224256	24992
170	5.898111	124715008	87175168	51096888	24992
171	7.710441	124715008	87175168	39407624	24992
172	6.506872	124715008	87175168	43681360	24992
173	6.596555	124715008	87175168	48163960	24992
174	6.891198	124715008	87175168	52850320	24992
175	9.062597	124715008	87175168	41673984	24992
176	7.751325	124715008	87175168	46774024	24992
177	8.031711	124715008	87175168	52083168	24992
178	9.899	124715008	87175168	41682024	24992
179	8.715259	124715008	87175168	47413880	24992
180	8.759119	124715008	87175168	53356160	24992
181	11.174868	124715008	87175168	43407632	24992
182	9.432782	124715008	87175168	49777104	24992
183	12.090407	124715008	87175168	40879864	24992
184	10.363465	124715008	87175168	47690960	24992
185	10.4119	124715008	87175168	54716208	24992
186	12.474924	124715008	87175168	45668528	24992
187	11.41815	124715008	87175168	53130992	24992
188	13.471926	124715008	87175168	44817360	24992
189	12.019458	124715008	87175168	52720856	24992
190	14.158204	124715008	87175168	44923968	24992
191	12.376189	124715008	87175168	53271848	24992
192	15.315985	124715008	87175168	45833888	24992
193	14.032768	124715008	87175168	54631608	24992
194	15.371013	124715008	87175168	47436704	24992
195	16.362378	124715008	87175168	41721288	24992
196	14.395955	124715008	87175168	51196944	24992
197	17.400187	124715008	87175168	45301712	24992
198	15.112395	124715008	87175168	55236464	24992
199	16.984643	124715008	87175168	49169336	24992
200	18.324773	124715008	87175168	44374696	24992
201	16.44865	124715008	87175168	55009096	24992
202	0.794524	124715008	87175168	49804232	24992
203	1.085925	124715008	87175168	50505864	24992
204	1.419973	124715008	87175168	51442952	24992
205	1.787602	124715008	87175168	52616616	24992
206	2.605402	124715008	87175168	54028912	24992
207	2.748259	124715008	87175168	55692744	24992
208	4.558033	124715008	87175168	41451672	24992
209	3.418251	124715008	87175168	43605952	24992
210	3.78795	124715008	87175168	46010832	24992
211	4.066494	124715008	87175168	48672864	24992
212	4.911296	124715008	87175168	51579752	24992
213	4.964432	124715008	87175168	54739144	24992
214	7.362905	124715008	87175168	42110592	24992
215	5.758029	124715008	87175168	45777960	24992
216	6.131935	124715008	87175168	49700816	24992
217	6.361591	124715008	87175168	53879768	24992
218	9.05728	124715008	87175168	42475928	24992
219	7.509761	124715008	87175168	47180392	24992
220	7.739751	124715008	87175168	52137480	24992
221	10.194556	124715008	87175168	41819664	24992
222	8.381448	124715008	87175168	47298080	24992
223	9.127515	124715008	87175168	53038336	24992
224	11.648933	124715008	87175168	43353944	24992
225	9.775799	124715008	87175168	49621888	24992
226	10.006345	124715008	87175168	56156008	24992
227	12.600828	124715008	87175168	46763832	24992
228	10.941038	124715008	87175168	53832304	24992
229	13.554599	124715008	87175168	45396736	24992
230	11.896575	124715008	87175168	53009264	24992
231	14.668677	124715008	87175168	45244200	24992
232	13.037719	124715008	87175168	53408184	24992
233	15.721005	124715008	87175168	46145288	24992
234	13.510572	124715008	87175168	54862312	24992
235	16.247207	124715008	87175168	47922848	24992
236	14.733359	124715008	87175168	57199400	24992
237	16.630238	124715008	87175168	50446384	24992
238	18.114937	124715008	87175168	45129368	24992
239	16.027404	124715008	87175168	55246416	24992
240	18.653479	124715008	87175168	49678448	24992
241	19.453191	124715008	87175168	45385864	24992
242	16.825359	124715008	87175168	56345360	24992
243	19.683516	124715008	87175168	51488000	24992
244	20.843298	124715008	87175168	47786720	24992
245	21.863363	124715008	87175168	44969160	24992
246	18.912237	124715008	87175168	57092416	24992
247	21.190623	124715008	87175168	53324416	24992
248	23.082906	124715008	87175168	50490232	24992
249	23.039222	124715008	87175168	48420952	24992
250	23.832407	124715008	87175168	47015840	24992
251	25.028817	124715008	87175168	46177768	24992
252	0.954115	124715008	87175168	46002568	24992
253	1.388194	124715008	87175168	46884000	24992
254	1.853641	124715008	87175168	48060640	24992
255	2.290005	124715008	87175168	49533640	24992
256	2.950593	124715008	87175168	51305272	24992
257	3.254165	124715008	87175168	53376832	24992
258	3.650377	124715008	87175168	55749464	24992
259	4.163299	124715008	87175168	58417960	24992
260	7.427053	124715008	87175168	45195872	24992
261	5.071805	124715008	87175168	48470176	24992
262	5.741419	124715008	87175168	52053688	24992
263	6.134787	124715008	87175168	55933680	24992
264	8.653581	124715008	87175168	44345456	24992
265	6.963258	124715008	87175168	48843000	24992
266	7.604219	124715008	87175168	53642520	24992
267	8.100389	124715008	87175168	58754552	24992
268	10.36676	124715008	87175168	47924008	24992
269	8.888225	124715008	87175168	53652784	24992
270	12.136108	124715008	87175168	44333952	24992
271	10.111306	124715008	87175168	50686264	24992
272	10.260754	124715008	87175168	57352712	24992
273	13.207502	124715008	87175168	48304528	24992
274	11.500135	124715008	87175168	55601776	24992
275	14.485219	124715008	87175168	47527632	24992
276	12.466584	124715008	87175168	55461240	24992
277	15.219412	124715008	87175168	48032584	24992
278	13.52549	124715008	87175168	56593768	24992
279	16.372553	124715008	87175168	49651504	24992
280	14.374726	124715008	87175168	58870416	24992
281	17.218992	124715008	87175168	52211856	24992
282	18.347192	124715008	87175168	46992416	24992
283	16.24128	124715008	87175168	57164616	24992
284	19.183784	124715008	87175168	51764280	24992
285	20.423921	124715008	87175168	47637432	24992
286	17.716035	124715008	87175168	58794736	24992
287	20.4125	124715008	87175168	54112664	24992
288	21.985584	124715008	87175168	50615896	24992
289	22.649872	124715008	87175168	48033864	24992
290	19.840012	124715008	87175168	60513696	24992
291	21.819324	124715008	87175168	56945456	24992
292	23.582261	124715008	87175168	54320800	24992
293	24.631702	124715008	87175168	52491984	24992
294	25.116075	124715008	87175168	51287528	24992
295	25.79319	124715008	87175168	50670944	24992
296	26.638761	124715008	87175168	50508712	24992
297	26.664539	124715008	87175168	50712808	24992
298	27.529394	124715008	87175168	51246296	24992
299	28.160872	124715008	87175168	52044032	24992
300	28.114268	124715008	87175168	53046248	24992
301	29.302329	124715008	87175168	54214112	24992
302	1.109027	124715008	87175168	55801168	24992
303	1.629848	124715008	87175168	56828816	24992
304	2.154563	124715008	87175168	58200512	24992
305	2.714472	124715008	87175168	59918776	24992
306	5.796031	124715008	87175168	45956576	24992
307	3.828913	124715008	87175168	48366792	24992
308	4.254514	124715008	87175168	51125744	24992
309	4.902683	124715008	87175168	54235136	24992
310	5.591467	124715008	87175168	57697008	24992
311	6.125664	124715008	87175168	61513584	24992
312	8.57297	124715008	87175168	49345056	24992
313	7.863871	124715008	87175168	53882768	24992
314	7.6143	124715008	87175168	58753144	24992
315	10.790503	124715008	87175168	48150848	24992
316	9.057614	124715008	87175168	53740576	24992
317	9.451485	124715008	87175168	59679328	24992
318	12.365487	124715008	87175168	49994968	24992
319	10.612266	124715008	87175168	56656016	24992
320	13.931242	124715008	87175168	48225304	24992
321	11.570005	124715008	87175168	55601248	24992
322	15.120226	124715008	87175168	48079928	24992
323	12.821286	124715008	87175168	56178824	24992
324	16.617025	124715008	87175168	49346144	24992
325	13.644177	124715008	87175168	58172880	24992
326	17.32644	124715008	87175168	51691720	24992
327	15.168206	124715008	87175168	61252392	24992
328	18.05032	124715008	87175168	54999488	24992
329	19.491159	124715008	87175168	50210000	24992
330	16.76507	124715008	87175168	60874352	24992
331	20.03133	124715008	87175168	55767248	24992
332	21.085066	124715008	87175168	51983104	24992
333	22.002908	124715008	87175168	49235544	24992
334	19.617608	124715008	87175168	61412616	24992
335	22.521951	124715008	87175168	57764528	24992
336	23.710387	124715008	87175168	55146640	24992
337	24.150815	124715008	87175168	53349024	24992
338	24.900892	124715008	87175168	52303912	24992
339	26.491568	124715008	87175168	51826608	24992
340	27.056303	124715008	87175168	51816616	24992
341	27.879728	124715008	87175168	52178296	24992
342	27.874477	124715008	87175168	52895832	24992
343	28.837043	124715008	87175168	53888168	24992
344	29.362703	124715008	87175168	55094544	24992
345	29.629106	124715008	87175168	56484760	24992
346	29.871669	124715008	87175168	58026696	24992
347	30.7345	124715008	87175168	59680736	24992
348	30.772843	124715008	87175168	61460224	24992
349	31.231776	124715008	87175168	63324920	24992
350	36.441941	124715008	87175168	51785104	24992
351	37.446119	124715008	87175168	56153120	24992
352	1.497648	120295424	83505152	17428768	24992
353	1.889792	120295424	83505152	18604752	24992
354	2.511862	120295424	83505152	20171624	24992
355	3.09488	120295424	83505152	22132256	24992
356	3.764954	120295424	83505152	24488224	24992
357	4.525613	120295424	83505152	27244144	24992
358	8.027407	121102336	83505152	16217896	24992
359	5.828762	121102336	83505152	19764584	24992
360	6.236622	121102336	83505152	23719360	24992
361	7.023956	121102336	83505152	28073840	24992
362	8.491505	121102336	83505152	17248336	24992
363	8.366622	121102336	83505152	22415104	24992
364	8.684031	121102336	83505152	27987720	24992
365	10.162406	121102336	83505152	18221768	24992
366	10.246505	121102336	83505152	24633656	24992
367	10.783851	121102336	83505152	31433488	24992
368	11.665934	121102336	83505152	22280696	24992
369	12.234681	121102336	83505152	29908008	24992
370	13.587499	121102336	83505152	21850064	24992
371	13.259824	121102336	83505152	30316824	24992
372	14.776503	121102336	83505152	23019296	24992
373	16.301401	121102336	83505152	17448200	24992
374	15.123488	121102336	83505152	27162096	24992
375	17.110791	121102336	83505152	21697544	24992
376	16.453299	121102336	83505152	32241024	24992
377	17.616297	121102336	83505152	26728088	24992
378	19.477597	121102336	83505152	22588000	24992
379	19.80935	121102336	83505152	19633440	24992
380	19.742143	121102336	83505152	31854560	24992
381	20.507625	121102336	83505152	28090864	24992
382	21.761219	121102336	83505152	25408648	24992
383	22.654133	121102336	83505152	23652184	24992
384	24.022067	121102336	83505152	22663408	24992
385	24.560589	121102336	83505152	22262992	24992
386	25.039529	121102336	83505152	22379584	24992
387	25.603888	121102336	83505152	22900128	24992
388	27.225899	121102336	83505152	23794136	24992
389	26.801646	121102336	83505152	24968432	24992
390	28.104089	121102336	83505152	26344152	24992
391	28.394652	121102336	83505152	27882584	24992
392	28.617074	121102336	83505152	29591136	24992
393	30.268212	121102336	83505152	31430400	24992
394	31.976477	121102336	83505152	19971776	24992
395	34.579066	121102336	83505152	27371304	24992
396	32.317476	121102336	83505152	31551424	24992
397	32.2513	121102336	83505152	35387800	24992
398	34.531128	121102336	83505152	25479952	24992
399	34.00479	121102336	83505152	31293656	24992
400	37.534091	121102336	83505152	23625448	24992
401	37.852749	121102336	83505152	33548152	24992
402	1.816191	121102336	83505152	23949992	24992
403	2.100092	121102336	83505152	25283464	24992
404	2.795956	121102336	83505152	27062976	24992
405	3.485242	121102336	83505152	29298760	24992
406	4.078786	121102336	83505152	31979392	24992
407	4.896655	121102336	83505152	35103392	24992
408	5.509469	121102336	83505152	38686112	24992
409	6.816253	121102336	83505152	26502960	24992
410	7.012058	121102336	83505152	30986560	24992
411	7.88472	121102336	83505152	35917656	24992
412	9.167603	121102336	83505152	25531032	24992
413	9.179842	121102336	83505152	31382128	24992
414	9.742464	121102336	83505152	37684992	24992
415	11.279777	121102336	83505152	28356328	24992
416	11.480537	121102336	83505152	35585216	24992
417	12.854344	121102336	83505152	27584080	24992
418	12.485042	121102336	83505152	35772368	24992
419	14.518324	121102336	83505152	28688792	24992
420	13.957096	121102336	83505152	37816816	24992
421	15.647516	121102336	83505152	31339696	24992
422	17.219348	121102336	83505152	26494792	24992
423	16.807281	121102336	83505152	37063856	24992
424	18.102499	121102336	83505152	32173328	24992
425	19.394583	121102336	83505152	28644816	24992
426	20.512984	121102336	83505152	26199400	24992
427	19.213257	121102336	83505152	38704840	24992
428	21.262303	121102336	83505152	35476704	24992
429	21.928525	121102336	83505152	33286424	24992
430	22.405663	121102336	83505152	31996304	24992
431	24.573677	121102336	83505152	31387696	24992
432	24.986967	121102336	83505152	31428488	24992
433	26.303821	121102336	83505152	31952552	24992
434	26.71631	121102336	83505152	32907952	24992
435	26.835671	121102336	83505152	34180240	24992
436	28.384455	121102336	83505152	35764320	24992
437	28.313357	121102336	83505152	37533424	24992
438	29.340895	121102336	83505152	39500696	24992
439	31.886943	121102336	83505152	28187584	24992
440	33.919302	121102336	83505152	35747040	24992
441	31.714001	121102336	83505152	40251160	24992
442	35.58433	121102336	83505152	31249016	24992
443	35.98418	121102336	83505152	40243488	24992
444	34.085529	121102336	83505152	45956880	24992
445	36.548439	121102336	83505152	37773872	24992
446	38.59632	121102336	83505152	48327728	24992
447	38.951286	121102336	83505152	41933840	24992
448	40.197728	121102336	83505152	53464320	24992
449	39.961688	121102336	83505152	47699336	24992
450	42.460035	121102336	83505152	43856992	24992
451	50.803257	122994688	85602304	56769840	24992
452	1.568321	115924992	78262272	27140016	24992
453	2.339606	115924992	78262272	28669256	24992
454	3.03409	115924992	78262272	30709672	24992
455	8.149056	115924992	78262272	20982720	24992
456	4.655193	115924992	78262272	24049184	24992
457	5.622864	115924992	78262272	27629952	24992
458	6.233627	115924992	78262272	31725800	24992
459	8.954782	115924992	78262272	21650088	24992
460	8.016314	115924992	78262272	26780224	24992
461	8.672492	115924992	78262272	32428368	24992
462	10.414291	115924992	78262272	22897264	24992
463	10.228325	115924992	78262272	29590984	24992
464	11.148616	115924992	78262272	36916120	24992
465	12.16881	115924992	78262272	28191400	24992
466	12.643648	115924992	78262272	36451240	24992
467	13.938782	115924992	78262272	28853576	24992
468	15.436262	115924992	78262272	23098632	24992
469	15.18066	115924992	78262272	32929152	24992
470	16.630677	115924992	78262272	27500856	24992
471	18.347492	115924992	78262272	23605512	24992
472	17.432799	115924992	78262272	35035808	24992
473	19.027501	115924992	78262272	30924616	24992
474	20.47911	115924992	78262272	27982888	24992
475	21.538684	115924992	78262272	26132352	24992
476	22.506923	115924992	78262272	25158328	24992
477	24.380749	115924992	78262272	24882144	24992
478	24.728047	115924992	78262272	25162824	24992
479	25.557091	115924992	78262272	25962536	24992
480	26.089746	115924992	78262272	27134272	24992
481	26.596548	115924992	78262272	28711664	24992
482	27.307307	115924992	78262272	30525120	24992
483	28.486457	115924992	78262272	32495480	24992
484	28.985692	115924992	78262272	34648912	24992
485	29.77299	115924992	78262272	37002856	24992
486	32.453333	115924992	78262272	26013152	24992
487	32.408216	115924992	78262272	30970744	24992
488	32.450109	115924992	78262272	35599736	24992
489	34.839803	115924992	78262272	26631096	24992
490	36.841007	115924992	78262272	36364680	24992
491	37.945426	115924992	78262272	29686400	24992
492	38.241761	115924992	78262272	40431136	24992
493	39.542209	115924992	78262272	34578112	24992
494	40.16045	115924992	78262272	46436048	24992
495	40.587912	115924992	78262272	41084032	24992
496	47.788043	116465664	78786560	42408312	24992
497	42.824321	116465664	78786560	55738504	24992
498	43.488227	116465664	78786560	51663504	24992
499	45.563385	116465664	78786560	49255920	24992
500	52.002993	119709696	82456576	52690424	24992
501	66.168081	124575744	87175168	56431584	24992
502	1.679618	124424192	87175168	30848312	24992
503	2.538618	124424192	87175168	32523752	24992
504	3.421705	124424192	87175168	34759056	24992
505	4.30953	124424192	87175168	37555504	24992
506	7.786846	124424192	87175168	27970056	24992
507	6.043325	124424192	87175168	31891896	24992
508	7.239795	124424192	87175168	36386152	24992
509	9.523516	124424192	87175168	26614488	24992
510	8.729722	124424192	87175168	32242832	24992
511	9.472719	124424192	87175168	38445288	24992
512	11.041999	124424192	87175168	29315296	24992
513	11.291929	124424192	87175168	36636112	24992
514	12.983571	124424192	87175168	28970720	24992
515	13.065294	124424192	87175168	37451072	24992
516	14.886113	124424192	87175168	30776504	24992
517	14.985548	124424192	87175168	40394048	24992
518	16.265344	124424192	87175168	34367432	24992
519	18.236927	124424192	87175168	29976752	24992
520	17.683539	124424192	87175168	41315008	24992
521	18.615363	124424192	87175168	36877976	24992
522	20.332539	124424192	87175168	33769952	24992
523	21.755685	124424192	87175168	31825888	24992
524	23.067996	124424192	87175168	30768200	24992
525	24.883885	124424192	87175168	30477336	24992
526	24.808881	124424192	87175168	30893664	24992
527	25.932161	124424192	87175168	31769136	24992
528	26.571671	124424192	87175168	33076616	24992
529	27.355984	124424192	87175168	34746280	24992
530	28.208538	124424192	87175168	36700064	24992
531	28.940343	124424192	87175168	38875224	24992
532	29.289596	124424192	87175168	41284152	24992
533	32.462893	124424192	87175168	30408672	24992
534	32.654332	124424192	87175168	35532992	24992
535	32.89095	124424192	87175168	40359440	24992
536	36.565064	124424192	87175168	31622064	24992
537	37.913024	124424192	87175168	41591816	24992
538	38.552679	124424192	87175168	35082680	24992
539	39.504704	124424192	87175168	46175400	24992
540	39.65414	124424192	87175168	40552144	24992
541	43.43312	124424192	87175168	52876600	24992
542	40.726202	124424192	87175168	47772128	24992
543	43.10617	124424192	87175168	44483992	24992
544	48.216799	124964864	87175168	46833072	24992
545	44.432229	124964864	87175168	61259256	24992
546	45.456386	124964864	87175168	58303112	24992
547	46.556749	124964864	87175168	56831120	24992
548	52.876186	125505536	88223744	61605504	24992
549	60.400165	130371584	93466624	66741880	24992
550	72.212256	124002304	86650880	25168832	24992
551	56.826552	124272640	86650880	31766416	24992
552	1.89349	124272640	86650880	39346760	24992
553	2.991695	124272640	86650880	41168336	24992
554	3.72388	124272640	86650880	43604872	24992
555	8.393827	124272640	86650880	34083960	24992
556	5.746346	124272640	86650880	37753488	24992
557	6.559095	124272640	86650880	42035352	24992
558	7.494989	124272640	86650880	46936176	24992
559	9.823949	124272640	86650880	37306808	24992
560	9.534664	124272640	86650880	43455472	24992
561	11.199861	124272640	86650880	34702032	24992
562	11.281868	124272640	86650880	42121920	24992
563	13.563061	124272640	86650880	34831968	24992
564	13.384936	124272640	86650880	43466624	24992
565	15.024476	124272640	86650880	37197336	24992
566	15.106657	124272640	86650880	47097160	24992
567	16.739173	124272640	86650880	41466144	24992
568	18.76439	124272640	86650880	37447672	24992
569	19.197685	124272640	86650880	34758104	24992
570	18.85098	124272640	86650880	47174984	24992
571	20.362078	124272640	86650880	44010232	24992
572	22.077488	124272640	86650880	42050760	24992
573	23.765388	124272640	86650880	41068000	24992
574	24.112809	124272640	86650880	40926584	24992
575	25.729786	124272640	86650880	41438656	24992
576	26.147607	124272640	86650880	42496368	24992
577	27.259777	124272640	86650880	43984144	24992
578	28.661877	124272640	86650880	45850416	24992
579	28.859158	124272640	86650880	48058152	24992
580	31.925024	124272640	86650880	37034152	24992
581	32.035462	124272640	86650880	42113800	24992
582	33.076829	124272640	86650880	46921928	24992
583	35.065661	124272640	86650880	38270000	24992
584	37.233563	124272640	86650880	48282976	24992
585	38.292873	124272640	86650880	41807160	24992
586	39.978214	124272640	86650880	53093904	24992
587	39.889582	124542976	87175168	47605776	24992
588	46.578025	124813312	87175168	48501776	24992
589	42.065175	124813312	87175168	61453608	24992
590	43.764778	124813312	87175168	57547352	24992
591	68.22104	128327680	90845184	60420792	24992
592	54.213902	125112320	87699456	31306792	24992
593	51.053827	125112320	87699456	35232264	24992
594	53.191017	125112320	87699456	39883296	24992
595	52.641655	125112320	87699456	45094472	24992
596	54.981878	125112320	87699456	50878128	24992
597	55.746526	125382656	87699456	57344592	24992
598	55.859054	125382656	87699456	64557136	24992
599	75.768456	130248704	92942336	60824120	24992
600	64.891779	125583360	88223744	33308848	24992
601	63.884999	125583360	88223744	31032344	24992
602	2.069563	125583360	88223744	41477464	24992
603	3.071504	125583360	88223744	43466712	24992
604	4.062104	125583360	88223744	46119272	24992
605	8.160666	125583360	88223744	36780112	24992
606	6.020491	125583360	88223744	40768792	24992
607	7.255219	125583360	88223744	45421408	24992
608	9.692351	125583360	88223744	36141352	24992
609	9.114087	125583360	88223744	42153232	24992
610	10.392191	125583360	88223744	48813640	24992
611	11.749467	125583360	88223744	39907464	24992
612	12.432435	125583360	88223744	47918104	24992
613	13.948102	125583360	88223744	40542752	24992
614	14.52283	125583360	88223744	49905120	24992
615	15.546378	125583360	88223744	43501384	24992
616	17.992025	125583360	88223744	38909160	24992
617	19.316045	125583360	88223744	35801472	24992
618	18.786957	125583360	88223744	47879448	24992
619	20.64491	125583360	88223744	44590440	24992
620	22.141088	125583360	88223744	42584872	24992
621	23.208911	125583360	88223744	41626192	24992
622	25.723907	125583360	88223744	41450920	24992
623	25.63156	125583360	88223744	42006128	24992
624	26.838151	125583360	88223744	43180456	24992
625	26.972693	125583360	88223744	44829944	24992
626	28.330648	125583360	88223744	46819392	24992
627	29.355818	125583360	88223744	49160304	24992
628	32.938343	125583360	88223744	38465008	24992
629	34.685495	125583360	88223744	46746856	24992
630	33.560119	125583360	88223744	51971448	24992
631	35.675745	125583360	88223744	43452016	24992
632	38.356477	125583360	88223744	53856368	24992
633	38.4812	125583360	88223744	47583888	24992
634	40.927097	125853696	88223744	59334632	24992
635	40.613149	125853696	88223744	54018176	24992
636	53.089874	126394368	88748032	55607224	24992
637	66.45133	123252736	87699456	26163232	24992
638	49.403087	125140992	87699456	28112232	24992
639	50.378387	125140992	87699456	31488184	24992
640	51.086959	125140992	87699456	35539888	24992
641	51.926239	125140992	87699456	40268952	24992
642	52.781055	125140992	87699456	45711832	24992
643	53.866874	125411328	87699456	51882368	24992
644	56.392438	125411328	87699456	58730864	24992
645	81.009918	129196032	91893760	66203720	24992
646	60.824914	129327104	91893760	29037304	24992
647	58.635962	129327104	91893760	37952704	24992
648	60.617193	129597440	91893760	47526072	24992
649	65.23338	129597440	91893760	46359624	24992
650	62.553134	129597440	91893760	57432088	24992
651	66.650568	130138112	92418048	57659704	24992
652	3.66541	131219456	93990912	70933096	24992
653	5.476895	131219456	93990912	73067584	24992
654	15.562108	133922816	96612352	63633640	24992
655	11.774907	130342912	94515200	20277360	24992
656	7.13513	130342912	94515200	24575440	24992
657	8.578873	130342912	94515200	29582384	24992
658	10.808689	131690496	94515200	19845744	24992
659	9.816957	131690496	94515200	26296064	24992
660	11.047814	131690496	94515200	33453760	24992
661	12.768335	131690496	94515200	25097560	24992
662	13.23552	131690496	94515200	33689800	24992
663	14.635821	131690496	94515200	26797704	24992
664	17.078738	131690496	94515200	21919432	24992
665	16.479196	131690496	94515200	32701968	24992
666	18.688971	131690496	94515200	28083408	24992
667	20.182052	131690496	94515200	25117960	24992
668	21.707871	131690496	94515200	23378552	24992
669	23.342027	131690496	94515200	22705848	24992
670	23.768417	131690496	94515200	22865960	24992
671	25.732719	131690496	94515200	23711904	24992
672	26.363637	131690496	94515200	25166472	24992
673	27.560553	131690496	94515200	27094376	24992
674	28.980914	131690496	94515200	29366992	24992
675	29.437854	131690496	94515200	31988072	24992
676	30.440061	131690496	94515200	34875656	24992
677	33.084772	131690496	94515200	24503832	24992
678	33.553259	131690496	94515200	30208376	24992
679	37.01343	131690496	94515200	22858024	24992
680	38.291961	131690496	94515200	33260400	24992
681	39.289615	131690496	94515200	27578552	24992
682	40.742619	131690496	94515200	39417736	24992
683	41.419831	131690496	94515200	34643432	24992
684	47.526565	131690496	94515200	36470248	24992
685	45.102934	131690496	94515200	50362200	24992
686	44.855116	131690496	94515200	47007872	24992
687	47.063842	131690496	94515200	45361616	24992
688	52.25184	131690496	94515200	50108624	24992
689	53.634979	131690496	94515200	55334360	24992
690	56.503223	132231168	94515200	61380160	24992
691	83.539157	123793408	88223744	25157624	24992
692	56.4681	125681664	88223744	32020160	24992
693	56.992963	125681664	88223744	40241752	24992
694	59.0155	125681664	88223744	49298712	24992
695	65.099334	125681664	88223744	47572688	24992
696	61.230637	125952000	88223744	58159656	24992
697	67.74073	127303680	89796608	57948600	24992
698	95.526211	129105920	93990912	26585632	24992
699	66.374113	131534848	93990912	38512104	24992
700	68.935124	131534848	93990912	40548304	24992
701	67.138482	131534848	93990912	54854984	24992
702	2.373401	131534848	93990912	59187632	24992
703	3.513055	131534848	93990912	61468504	24992
704	7.753134	131534848	93990912	52254720	24992
705	5.869554	131534848	93990912	56078416	24992
706	6.87395	131534848	93990912	60667032	24992
707	10.184942	131534848	93990912	51891776	24992
708	9.371725	131534848	93990912	57991928	24992
709	10.308165	131534848	93990912	64870072	24992
710	11.9912	131534848	93990912	56357616	24992
711	13.051787	131534848	93990912	64764744	24992
712	14.57809	131534848	93990912	57801864	24992
713	16.648277	131534848	93990912	52887672	24992
714	16.453891	131534848	93990912	63613872	24992
715	18.789408	131534848	93990912	59241128	24992
716	20.899035	131534848	93990912	56440688	24992
717	21.634238	131534848	93990912	54859936	24992
718	23.158243	131534848	93990912	54382552	24992
719	24.400914	131534848	93990912	54762552	24992
720	25.794763	131534848	93990912	55908840	24992
721	26.933283	131534848	93990912	57595240	24992
722	27.74977	131534848	93990912	59761048	24992
723	29.183082	131534848	93990912	62326072	24992
724	30.165616	131534848	93990912	65239768	24992
725	33.215939	131534848	93990912	55079624	24992
726	35.285837	132075520	94515200	63982152	24992
727	33.969604	132075520	94515200	69804944	24992
728	36.687801	132075520	94515200	61688312	24992
729	36.692663	132075520	94515200	69311904	24992
730	39.912974	132075520	94515200	62983512	24992
731	42.902288	132075520	94515200	59593872	24992
732	44.288994	132075520	94515200	73042832	24992
733	62.550217	124846080	89796608	19598336	24992
734	51.275209	127275008	89796608	21835456	24992
735	46.725285	127275008	89796608	37440456	24992
736	46.771591	127275008	89796608	35531072	24992
737	47.699568	127275008	89796608	35090656	24992
738	55.500494	127275008	89796608	41806880	24992
739	59.693002	127275008	89796608	37510896	24992
740	58.458464	127275008	89796608	45521968	24992
741	61.492409	127275008	89796608	54475248	24992
742	90.089651	121839616	87175168	24579496	24992
743	61.465066	124813312	87175168	34678144	24992
744	61.374041	124813312	87175168	45980600	24992
745	68.510389	124813312	87175168	46569304	24992
746	68.207071	124813312	87175168	47781816	24992
747	66.211534	127246336	89796608	61451264	24992
748	78.518268	131031040	93466624	64350608	24992
749	91.142586	128180224	90845184	32177672	24992
750	72.577734	128180224	90845184	36934904	24992
751	75.970666	128180224	90845184	42386096	24992
752	2.535294	128180224	90845184	49367168	24992
753	3.699732	128180224	90845184	51794288	24992
754	5.161567	128180224	90845184	55045816	24992
755	6.192338	128180224	90845184	59094960	24992
756	10.10825	128180224	90845184	50265728	24992
757	8.928762	128180224	90845184	55954144	24992
758	11.485409	128180224	90845184	47439864	24992
759	11.33411	128180224	90845184	54779080	24992
760	14.060064	128180224	90845184	47887000	24992
761	13.962759	128180224	90845184	56837376	24992
762	16.503177	128180224	90845184	51160384	24992
763	16.856566	128180224	90845184	61748528	24992
764	17.89496	128180224	90845184	56819984	24992
765	20.272417	128180224	90845184	53612216	24992
766	22.038949	128180224	90845184	51823288	24992
767	23.220076	128180224	90845184	51278152	24992
768	24.307171	128180224	90845184	51599528	24992
769	26.39797	128180224	90845184	52730472	24992
770	27.381652	128180224	90845184	54465240	24992
771	27.968177	128180224	90845184	56647488	24992
772	29.93439	128180224	90845184	59357632	24992
773	30.730354	128180224	90845184	62364056	24992
774	33.674511	128180224	90845184	52220344	24992
775	33.977389	128180224	90845184	58160592	24992
776	38.140016	128180224	90845184	51067864	24992
777	38.899777	128180224	90845184	62009008	24992
778	40.12819	128180224	90845184	56626248	24992
779	43.595484	128450560	90845184	69223784	24992
780	62.34357	121892864	86650880	17860960	24992
781	46.772007	124321792	86650880	30786392	24992
782	45.086521	124321792	86650880	28134504	24992
783	50.180179	124321792	86650880	32464768	24992
784	51.786225	124321792	86650880	37548896	24992
785	54.014352	124321792	86650880	43310264	24992
786	55.303062	124321792	86650880	49964192	24992
787	56.325533	124321792	86650880	57422528	24992
788	71.476227	124321792	86650880	54332688	24992
789	69.719679	123752448	86126592	32364448	24992
790	64.8986	123752448	86126592	30896024	24992
791	62.78696	123752448	86126592	41869272	24992
792	67.136931	123752448	86126592	41974640	24992
793	65.139343	123752448	86126592	54580712	24992
794	78.778579	124833792	87175168	56515728	24992
795	91.226378	127098880	89796608	28077408	24992
796	68.024629	127098880	89796608	43335600	24992
797	74.316496	127098880	89796608	47743624	24992
798	76.488195	127098880	89796608	53234744	24992
799	77.986102	127098880	89796608	59504088	24992
800	84.578022	130072576	92418048	66581608	24992
801	102.421425	129871872	92418048	28806088	24992
802	2.61604	129871872	92418048	38419048	24992
803	3.991808	129871872	92418048	40996920	24992
804	5.284919	129871872	92418048	44430144	24992
805	9.363384	129871872	92418048	35818672	24992
806	8.19223	129871872	92418048	40981448	24992
807	9.184477	129871872	92418048	47003112	24992
808	11.438218	129871872	92418048	38465304	24992
809	12.060341	129871872	92418048	46223640	24992
810	14.787182	129871872	92418048	39277376	24992
811	15.325866	129871872	92418048	48771680	24992
812	16.740778	129871872	92418048	43120992	24992
813	19.006818	129871872	92418048	39278824	24992
814	20.106237	129871872	92418048	37068344	24992
815	20.116687	129871872	92418048	50026312	24992
816	21.851389	129871872	92418048	47531072	24992
817	23.782588	129871872	92418048	46376992	24992
818	25.768729	129871872	92418048	46366360	24992
819	26.842749	129871872	92418048	47252872	24992
820	28.281781	129871872	92418048	48819184	24992
821	29.366327	129871872	92418048	51068960	24992
822	32.871552	129871872	92418048	40186752	24992
823	33.063064	129871872	92418048	45698656	24992
824	33.48309	129871872	92418048	50998032	24992
825	36.961121	129871872	92418048	42815112	24992
826	37.003766	129871872	92418048	50534424	24992
827	39.542323	129871872	92418048	44403064	24992
828	43.189863	129871872	92418048	41198384	24992
829	43.874019	129871872	92418048	55148200	24992
830	44.039172	129871872	92418048	51664240	24992
831	46.162915	129871872	92418048	50067288	24992
832	52.068253	129871872	92418048	55179168	24992
833	52.814845	129871872	92418048	61018568	24992
834	55.880755	129871872	92418048	67679288	24992
835	85.702529	128409600	92942336	29967888	24992
836	58.602128	130297856	92942336	37322880	24992
837	64.113589	130297856	92942336	35220744	24992
838	60.245841	130297856	92942336	45557552	24992
839	63.616921	130297856	92942336	56713704	24992
840	67.891759	130297856	92942336	57272136	24992
841	75.916047	130568192	92942336	58968824	24992
842	90.274594	131956736	94515200	27591472	24992
843	67.731079	131956736	94515200	42576432	24992
844	73.258102	131956736	94515200	46737520	24992
845	76.599634	131956736	94515200	52039456	24992
846	75.143403	131956736	94515200	57944320	24992
847	84.007578	132497408	95563776	64937536	24992
848	99.957045	131411968	93990912	38164744	24992
849	83.926255	131411968	93990912	35562520	24992
850	81.937196	131411968	93990912	45281376	24992
851	84.001467	131411968	93990912	56016272	24992
852	3.11984	131411968	93990912	68561368	24992
853	11.089579	131411968	93990912	59495632	24992
854	6.290081	131411968	93990912	63246648	24992
855	7.896074	131411968	93990912	67929360	24992
856	18.553423	133033984	95563776	59682240	24992
857	19.678893	133033984	95563776	66228760	24992
858	15.391277	128040960	90845184	29322064	24992
859	14.158861	128307200	90845184	22747696	24992
860	14.322956	128307200	90845184	32144464	24992
861	17.045026	128307200	90845184	26962848	24992
862	18.317569	128307200	90845184	23696568	24992
863	18.274907	128307200	90845184	35914304	24992
864	20.175854	128307200	90845184	32952200	24992
865	23.391205	128307200	90845184	31426560	24992
866	24.446245	128307200	90845184	31167760	24992
867	26.052398	128307200	90845184	31873800	24992
868	27.378719	128307200	90845184	33353352	24992
869	28.622586	128307200	90845184	35629872	24992
870	32.114288	128307200	90845184	25136184	24992
871	35.313805	128307200	90845184	33689696	24992
872	33.443372	128307200	90845184	39415568	24992
873	35.942079	128307200	90845184	31595896	24992
874	39.238362	128307200	90845184	42912232	24992
875	40.306119	128577536	90845184	37563368	24992
876	42.813514	128577536	90845184	34473160	24992
877	43.395636	128577536	90845184	48479992	24992
878	43.693386	128577536	90845184	45400336	24992
879	45.984177	128577536	90845184	44057328	24992
880	50.485279	128577536	90845184	49376832	24992
881	52.327073	128577536	90845184	55593640	24992
882	53.283852	128577536	90845184	62692504	24992
883	57.822757	129118208	91369472	59171992	24992
884	86.419936	133443584	96088064	68379736	24992
885	61.962323	136355840	99233792	31619744	24992
886	62.20957	141221888	104476672	42618472	24992
887	67.53311	148520960	112340992	43127040	24992
888	65.719113	153387008	117583872	56132928	24992
889	70.856424	160686080	125448192	58501800	24992
890	73.19037	163119104	125448192	61901384	24992
891	100.692601	106479616	70922240	31620744	24992
892	75.356482	108367872	70922240	36044936	24992
893	76.33022	109989888	72495104	42273368	24992
894	77.307739	117288960	79835136	49466768	24992
895	79.404955	124588032	87175168	57677504	24992
896	81.844186	131887104	94515200	66815600	24992
897	110.563285	117190656	79835136	29646224	24992
898	85.431637	117190656	79835136	40961272	24992
899	83.546336	117190656	79835136	52990720	24992
900	89.239553	122056704	84553728	54459328	24992
901	90.272113	129355776	91893760	68564808	24992
902	6.134939	116748288	79310848	21450304	24992
903	4.519021	116748288	79310848	24410792	24992
904	5.706284	116748288	79310848	28340568	24992
905	7.371975	116748288	79310848	33270320	24992
906	11.939316	116748288	79310848	25396528	24992
907	10.997964	116748288	79310848	32328760	24992
908	12.767535	116748288	79310848	24643736	24992
909	13.041459	116748288	79310848	33517680	24992
910	15.939172	116748288	79310848	27597680	24992
911	18.405413	116748288	79310848	23711824	24992
912	18.06855	116748288	79310848	35581752	24992
913	20.000018	116748288	79310848	32304504	24992
914	22.263833	116748288	79310848	30578704	24992
915	23.991502	116748288	79310848	30178080	24992
916	25.167037	116748288	79310848	30884080	24992
917	27.080247	116748288	79310848	32456360	24992
918	28.204947	116748288	79310848	34705136	24992
919	31.44716	116748288	79310848	24425984	24992
920	33.919783	116748288	79310848	32969752	24992
921	33.495282	116748288	79310848	38788608	24992
922	36.151968	116748288	79310848	31264344	24992
923	38.513677	116748288	79310848	42829920	24992
924	39.624833	116748288	79310848	37722928	24992
925	42.446806	116748288	79310848	34903848	24992
926	47.411966	116748288	79310848	37681488	24992
927	45.017695	116748288	79310848	52924968	24992
928	45.432025	116748288	79310848	50968576	24992
929	46.359742	116748288	79310848	50589656	24992
930	54.551335	116748288	79310848	57587104	24992
931	61.438117	123236352	86126592	53848120	24992
932	76.929034	128102400	90845184	62506896	24992
933	68.653025	123936768	86650880	28282552	24992
934	59.935259	123936768	86650880	39037112	24992
935	61.644751	123936768	86650880	50898504	24992
936	66.617112	123936768	86650880	52125592	24992
937	66.777398	124207104	86650880	54419960	24992
938	66.317992	128262144	90845184	69289280	24992
939	95.806551	119980032	84553728	24764896	24992
940	74.132932	121868288	84553728	28685832	24992
941	74.121654	121868288	84553728	35017704	24992
942	75.118515	121868288	84553728	42456312	24992
943	77.790052	121868288	84553728	50941128	24992
944	86.877151	125382656	88223744	60256600	24992
945	102.436343	127905792	90320896	38987984	24992
946	86.588438	127905792	90320896	38879264	24992
947	83.168263	127905792	90320896	51311264	24992
948	91.381161	127905792	90320896	53412352	24992
949	94.378887	130338816	92942336	68025320	24992
950	111.376646	126214144	88748032	37110784	24992
951	91.879121	126214144	88748032	42280824	24992
952	3.053107	126214144	88748032	49379200	24992
953	4.491772	126214144	88748032	52475680	24992
954	6.236724	126214144	88748032	56603904	24992
955	10.391627	126214144	88748032	48497440	24992
956	9.66703	126484480	88748032	54740616	24992
957	10.922854	126484480	88748032	61996744	24992
958	13.138102	126484480	88748032	54245464	24992
959	14.42518	126484480	88748032	63565608	24992
960	15.982248	126484480	88748032	57430880	24992
961	18.474074	126484480	88748032	53432816	24992
962	20.37437	126484480	88748032	51221192	24992
963	22.185346	126484480	88748032	50423704	24992
964	23.995025	126484480	88748032	50833872	24992
965	25.711876	126484480	88748032	52295512	24992
966	27.95761	126484480	88748032	54436672	24992
967	28.665603	126484480	88748032	57272464	24992
968	30.012764	126484480	88748032	60674472	24992
969	34.037185	126484480	88748032	51548336	24992
970	36.649752	126484480	88748032	61201600	24992
971	37.917173	126484480	88748032	55157856	24992
972	40.515376	128376832	90845184	66703968	24992
973	44.525905	129187840	91893760	62224312	24992
974	65.922379	123641856	88223744	29110840	24992
975	49.657716	125530112	88223744	31173024	24992
976	49.155317	125530112	88223744	35201560	24992
977	50.077299	125530112	88223744	40200072	24992
978	51.193647	125530112	88223744	46310536	24992
979	53.920901	125530112	88223744	53483744	24992
980	55.714341	125530112	88223744	61708536	24992
981	67.876607	126611456	89272320	59516792	24992
982	83.551137	128925696	91369472	24720904	24992
983	60.746423	128925696	91369472	36156256	24992
984	65.766573	128925696	91369472	37132296	24992
985	63.497526	128925696	91369472	50598448	24992
986	70.089293	128925696	91369472	53660448	24992
987	71.125824	128925696	91369472	57761064	24992
988	101.116412	126894080	91369472	30745120	24992
989	79.233859	128782336	91369472	36405288	24992
990	75.093302	128782336	91369472	43816872	24992
991	76.902404	128782336	91369472	52144328	24992
992	85.230073	128782336	91369472	61589312	24992
993	86.080297	132567040	95039488	72095496	24992
994	110.426331	136912896	99758080	36232320	24992
995	86.64406	136912896	99758080	37527368	24992
996	85.809727	136912896	99758080	51287616	24992
997	90.466441	136912896	99758080	54491368	24992
998	92.404047	136912896	99758080	70386864	24992
999	122.638506	128692224	91369472	40502400	24992
1000	95.676554	128692224	91369472	47087816	24992
