x	Duration	RSS	HeapTotal	HeapUsed	External
0	NA	104554496	71970816	12115840	24992
1	0.564913	104554496	71970816	12167704	24992
2	0.478118	104554496	71970816	12244392	24992
3	0.556726	104554496	71970816	12348160	24992
4	0.670078	104554496	71970816	12480552	24992
5	1.294961	104554496	71970816	12644120	24992
6	0.961141	104554496	71970816	12837208	24992
7	1.082325	104554496	71970816	13061840	24992
8	1.395531	104554496	71970816	13319024	24992
9	0.546587	104554496	71970816	13610656	24992
10	0.595399	104554496	71970816	13937392	24992
11	0.778269	104554496	71970816	14303768	24992
12	0.785711	104554496	71970816	14704368	24992
13	0.826312	104554496	71970816	15142184	24992
14	0.82098	104554496	71970816	15618992	24992
15	1.023362	104554496	71970816	16135656	24992
16	1.015312	104554496	71970816	16693248	24992
17	1.231034	104554496	71970816	17294592	24992
18	1.308133	104554496	71970816	17944080	24992
19	1.180573	104554496	71970816	18634720	24992
20	1.402793	104554496	71970816	19366952	24992
21	1.271595	104554496	71970816	20145344	24992
22	1.44145	104554496	71970816	20970664	24992
23	1.760384	104554496	71970816	21846592	24992
24	1.484549	104554496	71970816	22770136	24992
25	1.562818	104554496	71970816	23744832	24992
26	1.633857	104554496	71970816	24771400	24992
27	1.950551	104554496	71970816	25850992	24992
28	1.804446	104554496	71970816	26984480	24992
29	1.880929	104554496	71970816	28172904	24992
30	2.927598	104554496	71970816	13153784	24992
31	2.071758	104554496	71970816	14455512	24992
32	2.28868	104554496	71970816	15818232	24992
33	2.441723	104554496	71970816	17243680	24992
34	2.332363	104554496	71970816	18728880	24992
35	2.855771	104554496	71970816	20274936	24992
36	2.864913	104554496	71970816	21884472	24992
37	2.857554	104554496	71970816	23556720	24992
38	2.639729	104554496	71970816	25289992	24992
39	2.800363	104554496	71970816	27087408	24992
40	3.083268	104554496	71970816	28953008	24992
41	5.769732	104554496	71970816	14688560	24992
42	4.172597	104824832	71970816	16695264	24992
43	3.267308	104824832	71970816	18784416	24992
44	3.943673	104824832	71970816	20923992	24992
45	3.657238	104824832	71970816	23131440	24992
46	3.780762	104824832	71970816	25410368	24992
47	3.87272	104824832	71970816	27762560	24992
48	4.842443	104824832	71970816	14075072	24992
49	3.788239	104824832	71970816	16576616	24992
50	3.896878	104824832	71970816	19157208	24992
51	4.311114	104824832	71970816	21819224	24992
52	0.468376	104824832	71970816	24472464	24992
53	0.419926	104824832	71970816	24714208	24992
54	0.521215	104824832	71970816	25037872	24992
55	0.637411	104824832	71970816	25444648	24992
56	0.759698	104824832	71970816	25935888	24992
57	0.88252	104824832	71970816	26512120	24992
58	1.021808	104824832	71970816	27174312	24992
59	1.137675	104824832	71970816	27923480	24992
60	1.431907	104824832	71970816	28762496	24992
61	1.416002	104824832	71970816	29689464	24992
62	2.658671	104824832	71970816	14418376	24992
63	1.927074	104824832	71970816	15526056	24992
64	1.807874	104824832	71970816	16725624	24992
65	1.97193	104824832	71970816	18017984	24992
66	2.087884	104824832	71970816	19404032	24992
67	2.236939	104824832	71970816	20884904	24992
68	2.412198	104824832	71970816	22463448	24992
69	2.597784	104824832	71970816	24140424	24992
70	2.678103	104824832	71970816	25913528	24992
71	2.814379	104824832	71970816	27786344	24992
72	3.814436	104824832	71970816	29757728	24992
73	4.187841	104824832	71970816	15524872	24992
74	3.501927	104824832	71970816	17698928	24992
75	3.668765	104824832	71970816	19975480	24992
76	3.775475	104824832	71970816	22355128	24992
77	3.716218	104824832	71970816	24839712	24992
78	3.89359	104824832	71970816	27429432	24992
79	4.275209	104824832	71970816	30125368	24992
80	5.314283	104824832	71970816	16726824	24992
81	4.829826	104824832	71970816	19640352	24992
82	4.556312	104824832	71970816	22663744	24992
83	4.716369	104824832	71970816	25798848	24992
84	5.109024	104824832	71970816	29050912	24992
85	6.065498	104824832	71970816	16511544	24992
86	5.262014	104824832	71970816	19991008	24992
87	5.43343	104824832	71970816	23585520	24992
88	5.795995	104824832	71970816	27298560	24992
89	6.939364	104824832	71970816	15557240	24992
90	6.204343	104824832	71970816	19504224	24992
91	6.2231	104824832	71970816	23570472	24992
92	6.324935	104824832	71970816	27756992	24992
93	8.031165	104824832	71970816	16438136	24992
94	6.72456	104824832	71970816	20868344	24992
95	7.064185	104824832	71970816	25421632	24992
96	7.0536	104824832	71970816	30098848	24992
97	9.843995	104824832	71970816	18953016	24992
98	7.701831	104824832	71970816	23882448	24992
99	7.828753	104824832	71970816	28940328	24992
100	10.030831	104824832	71970816	18399896	24992
101	8.505282	104824832	71970816	23715400	24992
102	0.436105	104824832	71970816	29144248	24992
103	0.643805	104824832	71970816	29547936	24992
104	0.83291	104824832	71970816	30087688	24992
105	1.030078	104824832	71970816	30764592	24992
106	1.234471	104824832	71970816	31580032	24992
107	2.469756	104824832	71970816	16459912	24992
108	1.729177	104824832	71970816	17554440	24992
109	2.086064	104824832	71970816	18789888	24992
110	2.070856	104824832	71970816	20168344	24992
111	2.333841	104824832	71970816	21692768	24992
112	2.86605	104824832	71970816	23358096	24992
113	2.709914	104824832	71970816	25168384	24992
114	3.250679	104824832	71970816	27124528	24992
115	3.213701	104824832	71970816	29229264	24992
116	3.41173	104824832	71970816	31479968	24992
117	4.839295	104824832	71970816	17817952	24992
118	3.880672	104824832	71970816	20369200	24992
119	4.109398	104824832	71970816	23075224	24992
120	4.581804	104824832	71970816	25929560	24992
121	4.553452	104824832	71970816	28936384	24992
122	4.930129	104824832	71970816	32096736	24992
123	5.923963	104824832	71970816	19254240	24992
124	5.345876	104824832	71970816	22724984	24992
125	5.422451	104824832	71970816	26352312	24992
126	6.254526	104824832	71970816	30137144	24992
127	7.542953	104824832	71970816	18271704	24992
128	6.597275	104824832	71970816	22379632	24992
129	6.816345	104824832	71970816	26642968	24992
130	7.039867	104824832	71970816	31070496	24992
131	8.479794	104824832	71970816	19684240	24992
132	7.116041	104824832	71970816	24435136	24992
133	7.564954	104824832	71970816	29352856	24992
134	9.186862	104824832	71970816	18790344	24992
135	8.064492	104824832	71970816	24047160	24992
136	8.58122	104824832	71970816	29469384	24992
137	10.175591	104824832	71970816	19409688	24992
138	9.280621	104824832	71970816	25172808	24992
139	8.883734	104824832	71970816	31107304	24992
140	10.446277	104824832	71970816	21309232	24992
141	9.627157	104824832	71970816	27586984	24992
142	11.826429	104824832	71970816	18774368	24992
143	10.607357	104824832	71970816	25398360	24992
144	10.862483	104824832	71970816	32203360	24992
145	12.247565	104824832	71970816	23145776	24992
146	10.77636	104824832	71970816	30304584	24992
147	12.681614	104824832	71970816	21966080	24992
148	11.559841	104824832	71970816	29488800	24992
149	13.077296	104824832	71970816	21632896	24992
150	12.147924	104824832	71970816	29521568	24992
151	13.910343	104824832	71970816	22068384	24992
152	0.597268	104824832	71970816	30356296	24992
153	1.112262	104824832	71970816	30915136	24992
154	1.223381	104824832	71970816	31657232	24992
155	1.520387	104824832	71970816	32587008	24992
156	1.964488	104824832	71970816	33706016	24992
157	3.166526	104824832	71970816	18936128	24992
158	2.279462	104824832	71970816	20435264	24992
159	2.55989	104824832	71970816	22126040	24992
160	3.066115	104824832	71970816	24010248	24992
161	3.142555	104824832	71970816	26088032	24992
162	3.434126	104824832	71970816	28368248	24992
163	3.724099	104824832	71970816	30836168	24992
164	4.062354	104824832	71970816	33501640	24992
165	5.588695	104824832	71970816	20305856	24992
166	4.851024	104824832	71970816	23371672	24992
167	4.906576	104824832	71970816	26635752	24992
168	5.221243	104824832	71970816	30097640	24992
169	5.747592	104824832	71970816	33768184	24992
170	7.357928	104824832	71970816	21550808	24992
171	6.206226	104824832	71970816	25621160	24992
172	6.775494	104824832	71970816	29894544	24992
173	6.781509	104824832	71970816	34373120	24992
174	8.500972	104824832	71970816	22882256	24992
175	7.407668	104824832	71970816	27776392	24992
176	7.700383	104824832	71970816	32876712	24992
177	9.618616	104824832	71970816	22267808	24992
178	8.778171	104824832	71970816	27787464	24992
179	8.665196	104824832	71970816	33518008	24992
180	10.375208	104824832	71970816	23448064	24992
181	9.521352	104824832	71970816	29608120	24992
182	11.604874	104824832	71970816	20683128	24992
183	10.071893	104824832	71970816	27276968	24992
184	11.025345	104824832	71970816	34084600	24992
185	12.501518	104824832	71970816	25040752	24992
186	11.280848	104824832	71970816	32285560	24992
187	13.101039	104824832	71970816	24040344	24992
188	11.852815	104824832	71970816	31725600	24992
189	14.501022	104824832	71970816	24015816	24992
190	12.606389	104824832	71970816	32145960	24992
191	14.663769	104824832	71970816	24824016	24992
192	13.380508	104824832	71970816	33396520	24992
193	15.461288	104824832	71970816	26348000	24992
194	13.745286	104824832	71970816	35381208	24992
195	15.631083	104824832	71970816	28447896	24992
196	16.983185	104824832	71970816	22950760	24992
197	15.074452	104824832	71970816	32656408	24992
198	17.818117	104824832	71970816	26903968	24992
199	18.061247	104824832	71970816	22424424	24992
200	15.911572	104824832	71970816	32820720	24992
201	19.19037	104824832	71970816	27776992	24992
202	0.77039	104824832	71970816	24015312	24992
203	1.10955	104824832	71970816	24717072	24992
204	1.464155	104824832	71970816	25654256	24992
205	1.810903	104824832	71970816	26829696	24992
206	2.229497	104824832	71970816	28241256	24992
207	2.54805	104824832	71970816	29899368	24992
208	3.239529	104824832	71970816	31805280	24992
209	3.380128	104824832	71970816	33959576	24992
210	3.725535	104824832	71970816	36365040	24992
211	6.4149	104824832	71970816	22885408	24992
212	4.583667	104824832	71970816	25792272	24992
213	5.030856	104824832	71970816	28952184	24992
214	5.465204	104824832	71970816	32366776	24992
215	6.014501	104824832	71970816	36034128	24992
216	7.555935	104824832	71970816	23874088	24992
217	6.659517	104824832	71970816	28056936	24992
218	7.042177	104824832	71970816	32506544	24992
219	7.618058	104824832	71970816	37203480	24992
220	9.402767	104824832	71970816	25894600	24992
221	8.298039	104824832	71970816	31112776	24992
222	8.573268	104824832	71970816	36590904	24992
223	10.762131	104824832	71970816	26178608	24992
224	9.569158	104824832	71970816	32182840	24992
225	11.797719	104824832	71970816	23037648	24992
226	10.413397	104824832	71970816	29571904	24992
227	10.764616	104824832	71970816	36373776	24992
228	13.231151	104824832	71970816	27346056	24992
229	11.840265	104824832	71970816	34687880	24992
230	14.178075	104824832	71970816	26539064	24992
231	12.444036	104824832	71970816	34434304	24992
232	15.519284	104824832	71970816	26848616	24992
233	13.405301	104824832	71970816	35289360	24992
234	15.777229	104824832	71970816	28163056	24992
235	14.369708	104824832	71970816	37164736	24992
236	16.807722	104824832	71970816	30274664	24992
237	18.611204	104824832	71970816	24834760	24992
238	15.733644	104824832	71970816	34674064	24992
239	18.111596	104824832	71970816	29077608	24992
240	19.347502	104824832	71970816	24738248	24992
241	17.109103	104824832	71970816	35417552	24992
242	19.585406	104824832	71970816	30563088	24992
243	20.87932	104824832	71970816	26840576	24992
244	18.011571	104824832	71970816	38372736	24992
245	20.516771	104824832	71970816	33904752	24992
246	21.545929	104824832	71970816	30530184	24992
247	22.383809	104824832	71970816	27994496	24992
248	23.698468	104824832	71970816	26204440	24992
249	21.125938	104824832	71970816	39174064	24992
250	22.888679	104824832	71970816	36109808	24992
251	23.755241	104824832	71970816	33897072	24992
252	0.999776	104824832	71970816	32499584	24992
253	1.42218	104824832	71970816	33381064	24992
254	1.885808	104824832	71970816	34557752	24992
255	2.359007	104824832	71970816	36030768	24992
256	3.037342	104824832	71970816	37801632	24992
257	3.505982	104824832	71970816	39870656	24992
258	5.824573	104824832	71970816	25910448	24992
259	4.425117	104824832	71970816	28580600	24992
260	4.699625	104824832	71970816	31559320	24992
261	5.356058	104824832	71970816	34834056	24992
262	5.560991	104824832	71970816	38410160	24992
263	7.953577	104824832	71970816	26205912	24992
264	6.835735	104824832	71970816	30391192	24992
265	7.1815	104824832	71970816	34884544	24992
266	7.79804	104824832	71970816	39683992	24992
267	9.665582	104824832	71970816	28520632	24992
268	8.61104	104824832	71970816	33943144	24992
269	9.28633	104824832	71970816	39680600	24992
270	11.40782	104824832	71970816	29477368	24992
271	10.090048	104824832	71970816	35829264	24992
272	12.679353	104824832	71970816	26877416	24992
273	11.270899	104824832	71970816	33856408	24992
274	13.95708	104824832	71970816	25885936	24992
275	12.288729	104824832	71970816	33511432	24992
276	15.216394	104824832	71970816	26278144	24992
277	13.168013	104824832	71970816	34521680	24992
278	16.446091	104824832	71970816	27763280	24992
279	14.12324	104824832	71970816	36644440	24992
280	17.115633	104824832	71970816	30153920	24992
281	15.659065	104824832	71970816	39683560	24992
282	17.421609	104824832	71970816	33333392	24992
283	18.864837	104824832	71970816	28396792	24992
284	16.932301	104824832	71970816	38900560	24992
285	19.40483	104824832	71970816	33666824	24992
286	20.657129	104824832	71970816	29713368	24992
287	18.805432	104824832	71970816	41197136	24992
288	21.110907	104824832	71970816	36632624	24992
289	21.855682	104824832	71970816	33169960	24992
290	23.166659	104824832	71970816	30637320	24992
291	23.936235	104824832	71970816	28895936	24992
292	24.801125	104824832	71970816	27810328	24992
293	21.636384	104824832	71970816	41284208	24992
294	24.443899	104824832	71970816	38759880	24992
295	25.285489	104824832	71970816	37024208	24992
296	25.788712	104824832	71970816	35876504	24992
297	26.940158	104824832	71970816	35292848	24992
298	27.263188	104824832	71970816	35186816	24992
299	27.77694	104824832	71970816	35435224	24992
300	28.489273	104824832	71970816	36014216	24992
301	28.638845	104824832	71970816	36826808	24992
302	1.141529	104824832	71970816	38076528	24992
303	1.670867	104824832	71970816	39104208	24992
304	2.214753	104824832	71970816	40475912	24992
305	2.7553	104824832	71970816	42204312	24992
306	5.126974	104824832	71970816	27981936	24992
307	3.722	104824832	71970816	30392392	24992
308	4.624259	104824832	71970816	33150824	24992
309	4.957724	104824832	71970816	36258120	24992
310	5.510462	104824832	71970816	39722496	24992
311	8.427157	104824832	71970816	27655600	24992
312	6.83212	104824832	71970816	31820768	24992
313	8.007812	104824832	71970816	36352008	24992
314	7.798119	104824832	71970816	41231688	24992
315	10.638293	104824832	71970816	30368272	24992
316	9.071269	104824832	71970816	35952656	24992
317	9.460099	104824832	71970816	41890688	24992
318	12.088317	104824832	71970816	32018880	24992
319	10.827645	104824832	71970816	38677192	24992
320	13.797916	104824832	71970816	30054600	24992
321	12.003375	104824832	71970816	37445528	24992
322	14.917201	104824832	71970816	29778240	24992
323	13.208882	104824832	71970816	37884840	24992
324	16.270296	104824832	71970816	30839216	24992
325	14.314753	104824832	71970816	39680944	24992
326	17.358439	104824832	71970816	33083096	24992
327	15.487671	104824832	71970816	42644384	24992
328	18.000876	104824832	71970816	36275992	24992
329	19.565514	104824832	71970816	31392720	24992
330	17.353209	104824832	71970816	42064552	24992
331	20.022344	104824832	71970816	36914040	24992
332	21.290187	104824832	71970816	33077688	24992
333	22.666515	104824832	71970816	30263424	24992
334	19.532785	104824832	71970816	42427376	24992
335	22.262351	104824832	71970816	38788944	24992
336	24.513544	104824832	71970816	36184120	24992
337	24.435641	104824832	71970816	34377808	24992
338	25.274121	104824832	71970816	33268712	24992
339	26.610761	104824832	71970816	32753736	24992
340	27.220043	104824832	71970816	32711432	24992
341	28.034085	104824832	71970816	33086968	24992
342	28.222831	104824832	71970816	33791832	24992
343	28.746909	104824832	71970816	34785496	24992
344	29.004679	104824832	71970816	35979296	24992
345	30.048262	104824832	71970816	37368152	24992
346	30.532382	104824832	71970816	38898808	24992
347	30.923386	104824832	71970816	40552880	24992
348	31.444202	104824832	71970816	42332400	24992
349	32.273581	104824832	71970816	44197128	24992
350	38.38713	104824832	71970816	32657408	24992
351	34.574528	104824832	71970816	37025424	24992
352	1.310809	104824832	71970816	41348448	24992
353	1.909609	104824832	71970816	42522272	24992
354	2.670544	104824832	71970816	44088968	24992
355	5.552677	104824832	71970816	29887568	24992
356	3.835903	104824832	71970816	32245816	24992
357	4.568118	104824832	71970816	34997448	24992
358	5.269623	104824832	71970816	38148592	24992
359	5.762428	104824832	71970816	41694672	24992
360	8.622423	104824832	71970816	29906032	24992
361	7.237128	104824832	71970816	34260424	24992
362	7.644268	104824832	71970816	39020888	24992
363	8.321001	104824832	71970816	44187008	24992
364	11.392265	104824832	71970816	33590768	24992
365	9.624791	104824832	71970816	39571520	24992
366	12.954144	104824832	71970816	30615624	24992
367	11.129092	104824832	71970816	37415448	24992
368	11.68513	104824832	71970816	44635912	24992
369	14.35458	104824832	71970816	36013520	24992
370	13.283756	104824832	71970816	44065440	24992
371	15.997927	104824832	71970816	36421328	24992
372	14.369379	104824832	71970816	45290480	24992
373	17.170043	104824832	71970816	38252880	24992
374	18.709067	104824832	71970816	32844072	24992
375	16.386334	104824832	71970816	42964896	24992
376	19.69331	104824832	71970816	37599368	24992
377	21.018363	104824832	71970816	33596496	24992
378	18.493972	104824832	71970816	44973432	24992
379	21.366356	104824832	71970816	40529960	24992
380	22.888171	104824832	71970816	37309896	24992
381	23.798355	104824832	71970816	35070000	24992
382	24.266168	104824832	71970816	33676728	24992
383	25.997784	104824832	71970816	32971352	24992
384	26.497518	104824832	71970816	32823984	24992
385	27.637245	104824832	71970816	33183720	24992
386	28.348488	104824832	71970816	33910832	24992
387	28.996334	104824832	71970816	34917840	24992
388	29.003012	104824832	71970816	36219136	24992
389	29.687498	104824832	71970816	37736648	24992
390	29.754115	104824832	71970816	39386608	24992
391	30.515272	104824832	71970816	41196912	24992
392	31.707328	104824832	71970816	43137688	24992
393	32.125683	104824832	71970816	45184872	24992
394	36.706337	104824832	71970816	34024232	24992
395	37.420809	104824832	71970816	41395752	24992
396	34.534737	104824832	71970816	45626872	24992
397	35.071964	104824832	71970816	49554040	24992
398	39.088182	104824832	71970816	39808664	24992
399	37.743309	104824832	71970816	45639552	24992
400	42.553544	104824832	71970816	38089320	24992
401	42.919212	106446848	74067968	48048256	24992
402	4.925632	106446848	74067968	38597304	24992
403	2.366904	106446848	74067968	39930792	24992
404	3.216609	106446848	74067968	41710496	24992
405	5.504449	106446848	74067968	43937776	24992
406	7.103799	106446848	74067968	46612912	24992
407	8.671512	106446848	74067968	49737008	24992
408	11.939186	105496576	73019392	16273000	24992
409	6.588743	105496576	73019392	20300624	24992
410	7.043053	105496576	73019392	24783856	24992
411	8.651623	105496576	73019392	14002960	24992
412	8.489529	105496576	73019392	19395312	24992
413	9.374568	105496576	73019392	25238784	24992
414	10.754294	105496576	73019392	15748056	24992
415	10.71935	105496576	73019392	22500320	24992
416	12.501029	105496576	73019392	14413768	24992
417	12.276414	105496576	73019392	22105000	24992
418	14.062227	105496576	73019392	15058632	24992
419	13.717148	105496576	73019392	23703688	24992
420	15.287351	105496576	73019392	17276280	24992
421	15.079536	105496576	73019392	26888200	24992
422	16.562674	105496576	73019392	20897760	24992
423	18.025877	105496576	73019392	16426072	24992
424	17.241533	105496576	73019392	27481448	24992
425	18.860867	105496576	73019392	22813632	24992
426	19.741711	105496576	73019392	19454024	24992
427	21.156454	105496576	73019392	17222656	24992
428	22.079939	105496576	73019392	15852328	24992
429	21.184958	105496576	73019392	29331752	24992
430	21.887786	105496576	73019392	26827624	24992
431	23.240049	105496576	73019392	25216136	24992
432	24.536261	105496576	73019392	24408928	24992
433	25.382401	105496576	73019392	24245584	24992
434	26.172341	105496576	73019392	24575144	24992
435	26.377932	105496576	73019392	25339864	24992
436	27.790123	105496576	73019392	26491656	24992
437	28.103482	105496576	73019392	27904104	24992
438	29.117699	105496576	73019392	29592544	24992
439	31.935087	105496576	73019392	17902800	24992
440	31.790186	105496576	73019392	22344824	24992
441	32.321373	105496576	73019392	26563688	24992
442	35.078964	105496576	73019392	17313688	24992
443	36.8288	105496576	73019392	26338856	24992
444	34.113912	105496576	73019392	32003736	24992
445	36.361821	105496576	73019392	23573432	24992
446	36.042818	105496576	73019392	30701592	24992
447	38.635346	105496576	73019392	23829208	24992
448	41.242905	107388928	75116544	35342672	24992
449	40.016909	108199936	76689408	29530976	24992
450	42.666151	109281280	78262272	25690824	24992
451	43.179556	111984640	80883712	38576832	24992
452	1.611212	112525312	81932288	34857960	24992
453	2.3467	112525312	81932288	36387016	24992
454	3.130789	112525312	81932288	38427400	24992
455	3.895181	112525312	81932288	40979992	24992
456	8.748055	115499008	85078016	31403720	24992
457	5.673338	115499008	85078016	34992496	24992
458	6.261254	115499008	85078016	39104240	24992
459	7.22187	115499008	85078016	43733128	24992
460	9.129328	116310016	86126592	33482312	24992
461	8.68609	116310016	86126592	39160376	24992
462	9.614272	116310016	86126592	45372288	24992
463	10.638741	116310016	86650880	35600384	24992
464	11.069886	116310016	86650880	42827904	24992
465	12.482399	116310016	87175168	34598776	24992
466	12.951797	116310016	87175168	42858616	24992
467	14.04509	116310016	87699456	35666528	24992
468	14.525756	116310016	87699456	44972968	24992
469	15.610842	116310016	88223744	38427120	24992
470	17.213961	116580352	88748032	33532656	24992
471	16.677793	116580352	88748032	44506568	24992
472	17.938448	116580352	89272320	39652688	24992
473	19.496229	116580352	89796608	36149496	24992
474	20.959131	116580352	90320896	33818160	24992
475	22.08604	116580352	90320896	32411496	24992
476	23.235916	116580352	90320896	31800304	24992
477	23.597432	116580352	90320896	31805832	24992
478	24.681863	116580352	90320896	32349208	24992
479	26.140536	116580352	90320896	33373216	24992
480	26.673558	116580352	90320896	34725328	24992
481	26.609892	116580352	90320896	36362560	24992
482	28.115832	116580352	90320896	38242768	24992
483	27.88122	116580352	90320896	40383624	24992
484	29.149484	116580352	90320896	42621160	24992
485	29.103615	116580352	90320896	45063160	24992
486	33.13082	116850688	90320896	34111632	24992
487	32.394572	116850688	90320896	39191864	24992
488	32.885362	116850688	90320896	43929416	24992
489	35.548099	117121024	90320896	35057096	24992
490	37.985747	119824384	90320896	44793544	24992
491	38.462571	120905728	90320896	38152344	24992
492	39.452706	122798080	90320896	48925920	24992
493	39.566734	122798080	90320896	43127400	24992
494	43.685839	123068416	90320896	55022640	24992
495	50.431856	123068416	90320896	49813296	24992
496	63.873511	106348544	73543680	20512992	24992
497	43.893771	106348544	73543680	34206192	24992
498	42.932664	106348544	73543680	30541408	24992
499	48.838111	106348544	73543680	33484056	24992
500	49.911517	106348544	73543680	36672112	24992
501	50.01977	106889216	74067968	40436408	24992
502	1.750892	109051904	76165120	45356408	24992
503	2.574461	109051904	76165120	47031784	24992
504	3.43653	109051904	76165120	49271032	24992
505	4.19785	109051904	76165120	52067432	24992
506	5.128216	109051904	76165120	55432752	24992
507	9.163865	111484928	78786560	45758104	24992
508	7.129485	111484928	78786560	50250688	24992
509	7.6222	111484928	78786560	55313776	24992
510	9.61992	111755264	79310848	45372424	24992
511	9.492489	111755264	79310848	51572040	24992
512	10.482134	111755264	79310848	58343896	24992
513	11.976024	111755264	79310848	49334576	24992
514	12.265143	111755264	79310848	57232616	24992
515	13.549223	111755264	79310848	49559848	24992
516	13.688867	111755264	79310848	58608664	24992
517	15.150761	111755264	79310848	51854448	24992
518	16.925556	111755264	79310848	46840184	24992
519	16.457515	111755264	79310848	57613160	24992
520	18.249957	111755264	79310848	52774704	24992
521	19.256629	112025600	79310848	49371528	24992
522	20.833458	112025600	79310848	47142736	24992
523	22.115391	112025600	79310848	45895712	24992
524	23.088782	112025600	79310848	45439008	24992
525	23.810814	112025600	79310848	45649528	24992
526	24.985783	112025600	79310848	46385792	24992
527	25.455944	112025600	79310848	47581104	24992
528	26.58843	112025600	79310848	49179400	24992
529	27.230406	112025600	79310848	51040824	24992
530	28.117032	112025600	79310848	53182408	24992
531	28.489837	112025600	79310848	55553800	24992
532	29.54543	112025600	79310848	58082624	24992
533	31.906232	112295936	79310848	47363896	24992
534	35.313705	114999296	82456576	55549472	24992
535	33.259244	115269632	82456576	60563224	24992
536	35.180197	115539968	82980864	51869280	24992
537	39.497898	118513664	85602304	61820392	24992
538	47.023421	119595008	87175168	55316472	24992
539	51.384061	111726592	79310848	19979184	24992
540	40.691985	111726592	79310848	31523592	24992
541	41.47681	111726592	79310848	26473088	24992
542	42.575004	111726592	79310848	39370648	24992
543	42.527128	111726592	79310848	34773344	24992
544	44.37505	111726592	79310848	31813344	24992
545	48.107192	111726592	79310848	34740024	24992
546	48.856501	111726592	79310848	38015544	24992
547	51.621242	112807936	79835136	41981200	24992
548	52.077522	112807936	79835136	46540392	24992
549	58.729739	117403648	84553728	51691664	24992
550	73.396347	114298880	83505152	27168168	24992
551	56.59364	116187136	83505152	33067440	24992
552	1.913516	116187136	83505152	40625368	24992
553	2.833935	116187136	83505152	42446960	24992
554	7.029045	116187136	83505152	32706816	24992
555	4.612786	116187136	83505152	35746960	24992
556	5.505994	116187136	83505152	39411928	24992
557	6.68271	116187136	83505152	43694104	24992
558	9.309688	116187136	83505152	34183680	24992
559	8.810131	116187136	83505152	39700256	24992
560	9.446183	116187136	83505152	45841992	24992
561	11.445427	116187136	83505152	36679008	24992
562	11.550119	116187136	83505152	44089088	24992
563	13.025581	116187136	83505152	36467184	24992
564	13.648539	116187136	83505152	45134448	24992
565	14.903365	116187136	83505152	38568808	24992
566	15.446165	116187136	83505152	48468624	24992
567	16.627944	116187136	83505152	42521584	24992
568	19.269339	116187136	83505152	38276488	24992
569	19.90658	116187136	83505152	35404272	24992
570	19.261515	116187136	83505152	47836368	24992
571	20.409315	116187136	83505152	44540624	24992
572	22.245581	116187136	83505152	42490808	24992
573	23.942667	116187136	83505152	41415552	24992
574	25.261234	116187136	83505152	41218328	24992
575	25.372123	116187136	83505152	41669160	24992
576	27.557947	116187136	83505152	42728480	24992
577	27.538372	116187136	83505152	44218280	24992
578	28.857679	116187136	83505152	46099208	24992
579	28.74688	116187136	83505152	48262080	24992
580	32.015509	116187136	83505152	37310672	24992
581	32.185665	116187136	83505152	42347024	24992
582	32.89306	116187136	83505152	47179936	24992
583	35.499789	116187136	83505152	38504864	24992
584	37.864278	116187136	83505152	48522344	24992
585	39.160272	116187136	83505152	42170176	24992
586	40.7068	116187136	83505152	53430648	24992
587	40.261613	116457472	83505152	47945624	24992
588	47.899303	117538816	84553728	48884944	24992
589	42.226827	117538816	84553728	61840728	24992
590	43.748531	117809152	85078016	58013344	24992
591	56.791348	122945536	90320896	60857008	24992
592	67.023431	114999296	84553728	31228424	24992
593	50.7486	116887552	84553728	34120960	24992
594	52.850273	117157888	84553728	38607408	24992
595	53.471328	117157888	84553728	43834176	24992
596	53.96362	117157888	84553728	49729160	24992
597	55.576574	117428224	84553728	56271568	24992
598	61.610736	117968896	85078016	51770504	24992
599	63.045986	121483264	88748032	59594232	24992
600	79.29921	119590912	86650880	23560384	24992
601	59.530887	119590912	86650880	32832648	24992
602	2.062924	119590912	86650880	43300112	24992
603	3.073133	119590912	86650880	45288616	24992
604	7.571557	119590912	86650880	35733824	24992
605	5.112722	119590912	86650880	39055192	24992
606	6.069705	119590912	86650880	43040024	24992
607	7.088092	119590912	86650880	47691864	24992
608	10.104337	119590912	86650880	38357856	24992
609	9.445165	119590912	86650880	44347256	24992
610	11.2518	119590912	86650880	35649440	24992
611	11.277775	119590912	86650880	42981136	24992
612	13.868996	119590912	86650880	35880472	24992
613	13.513155	119590912	86650880	44560392	24992
614	15.603411	119590912	86650880	38480664	24992
615	15.702185	119590912	86650880	48514056	24992
616	17.509642	119590912	86650880	43117704	24992
617	19.022622	119590912	86650880	39354200	24992
618	20.455513	119590912	86650880	36946304	24992
619	19.797605	119590912	86650880	49703768	24992
620	21.196424	119590912	86650880	46809752	24992
621	23.051222	119590912	86650880	45144000	24992
622	24.440786	119590912	86650880	44400184	24992
623	25.633159	119590912	86650880	44481896	24992
624	26.990304	119590912	86650880	45259368	24992
625	27.031242	119590912	86650880	46565424	24992
626	28.500946	119590912	86650880	48351736	24992
627	29.239788	119590912	86650880	50479672	24992
628	32.454751	119590912	86650880	39424336	24992
629	33.132764	119590912	86650880	44574936	24992
630	33.114212	119590912	86650880	49484200	24992
631	35.702166	119590912	86650880	40882032	24992
632	38.874526	119590912	86650880	51215696	24992
633	38.991387	119590912	86650880	44999080	24992
634	40.622709	119590912	86650880	56725488	24992
635	41.083297	119590912	86650880	51390800	24992
636	43.166352	119590912	86650880	47989456	24992
637	43.433561	119590912	86650880	61686880	24992
638	44.036838	119590912	86650880	57969688	24992
639	45.001074	119590912	86650880	55952768	24992
640	52.261485	121212928	88223744	60082504	24992
641	73.146663	126078976	93466624	64798056	24992
642	56.920121	122802176	90320896	35493696	24992
643	56.127453	122802176	90320896	41744568	24992
644	62.029298	122802176	90320896	36993280	24992
645	57.981888	122802176	90320896	44493584	24992
646	57.126531	122802176	90320896	52637360	24992
647	59.131372	123072512	90320896	61630392	24992
648	66.083635	123613184	90845184	59772312	24992
649	90.919738	124932096	95039488	24753360	24992
650	65.652317	127361024	95039488	34965176	24992
651	63.203786	127361024	95039488	46782720	24992
652	2.226676	127901696	95039488	48349872	24992
653	3.289024	127901696	95039488	50484312	24992
654	4.392148	127901696	95039488	53331880	24992
655	8.203279	127901696	95039488	44159936	24992
656	6.423662	127901696	95039488	48443984	24992
657	7.553848	127901696	95039488	53451576	24992
658	10.384368	127901696	95039488	44429440	24992
659	9.977262	127901696	95039488	50857656	24992
660	12.029332	127901696	95039488	42821920	24992
661	12.130405	127901696	95039488	50701248	24992
662	14.457845	127901696	95039488	44150992	24992
663	14.55351	127901696	95039488	53484424	24992
664	16.722587	127901696	95039488	47876544	24992
665	18.051886	127901696	95039488	44011728	24992
666	17.663428	127901696	95039488	55506056	24992
667	19.50743	127901696	95039488	51778648	24992
668	22.609907	127901696	95039488	49405584	24992
669	22.749006	127901696	95039488	48195920	24992
670	24.452283	127901696	95039488	47931120	24992
671	24.849621	127901696	95039488	48470104	24992
672	26.734249	127901696	95039488	49693296	24992
673	27.191682	127901696	95039488	51400248	24992
674	29.046232	127901696	95039488	53581752	24992
675	29.395705	127901696	95039488	56088464	24992
676	33.504087	127901696	95039488	45689016	24992
677	35.253817	127901696	95039488	53927328	24992
678	33.014119	127901696	95039488	59214328	24992
679	36.266938	127901696	95039488	51061248	24992
680	39.606544	130334720	97660928	61571312	24992
681	39.475726	131416064	99233792	55616408	24992
682	41.814474	134119424	102379520	67516752	24992
683	40.647563	134930432	103952384	62428968	24992
684	51.415609	140066816	109719552	64304880	24992
685	65.024903	113913856	82980864	29631568	24992
686	50.320762	115802112	82980864	31640248	24992
687	53.093293	115802112	82980864	35487176	24992
688	52.785086	115802112	82980864	39963128	24992
689	53.734201	115802112	82980864	45249240	24992
690	55.065666	115802112	82980864	51350552	24992
691	56.116391	115802112	82980864	58096176	24992
692	59.360045	119316480	86650880	65639456	24992
693	84.917492	118255616	87699456	29773336	24992
694	59.988493	120143872	87699456	38071720	24992
695	68.394055	120143872	87699456	36345448	24992
696	61.941942	120143872	87699456	46858528	24992
697	67.734221	120414208	87699456	46625288	24992
698	64.64314	120954880	88223744	58736296	24992
699	75.877351	124469248	91893760	60020920	24992
700	90.705341	122200064	89796608	27685048	24992
701	66.570186	122200064	89796608	42163024	24992
702	2.337372	122200064	89796608	46539032	24992
703	3.529109	122200064	89796608	48819808	24992
704	8.092802	122200064	89796608	39552104	24992
705	5.873695	122200064	89796608	43358128	24992
706	7.073177	122200064	89796608	47935184	24992
707	10.731963	122200064	89796608	39176592	24992
708	9.631642	122200064	89796608	45282448	24992
709	10.669577	122200064	89796608	52161008	24992
710	12.543473	122200064	89796608	43717760	24992
711	13.251468	122200064	89796608	52133200	24992
712	14.985554	122200064	89796608	45229736	24992
713	17.024863	122200064	89796608	40406648	24992
714	16.663142	122200064	89796608	51134816	24992
715	18.940452	122200064	89796608	46704600	24992
716	20.199471	122200064	89796608	43915496	24992
717	22.121728	122200064	89796608	42396960	24992
718	23.537182	122200064	89796608	41948928	24992
719	24.336657	122200064	89796608	42340840	24992
720	25.674724	122200064	89796608	43438464	24992
721	26.781108	122200064	89796608	45110216	24992
722	28.356978	122200064	89796608	47245760	24992
723	29.204295	122200064	89796608	49787384	24992
724	30.658367	122200064	89796608	52659736	24992
725	33.296923	122200064	89796608	42544872	24992
726	35.990906	122200064	89796608	51433912	24992
727	34.262409	122200064	89796608	57094824	24992
728	37.178739	122200064	89796608	48995008	24992
729	36.635571	122200064	89796608	56702056	24992
730	39.76039	122200064	89796608	50313800	24992
731	46.266614	123281408	90320896	51551864	24992
732	42.942423	123281408	90320896	64826488	24992
733	43.944416	123281408	90320896	61076376	24992
734	45.322194	123281408	90320896	59208432	24992
735	60.692532	124903424	92418048	63530384	24992
736	69.856299	120233984	89272320	34842376	24992
737	57.330037	122122240	89272320	27718376	24992
738	54.979861	122122240	89272320	34265640	24992
739	56.228073	122122240	89272320	41656192	24992
740	58.414016	122122240	89272320	49619696	24992
741	59.598611	122122240	89272320	58401488	24992
742	64.799993	122122240	89272320	56538752	24992
743	90.804666	122744832	91893760	24335392	24992
744	64.539403	128417792	96088064	34948160	24992
745	64.607445	133283840	101330944	46893112	24992
746	71.74822	140582912	109195264	48270424	24992
747	71.7342	141664256	109195264	50407784	24992
748	67.056264	141664256	109195264	64900480	24992
749	75.265275	141664256	109195264	68687568	24992
750	99.546747	114339840	84029440	38010216	24992
751	75.333168	116768768	84029440	42387728	24992
752	2.522425	116768768	84029440	49237208	24992
753	3.785511	116768768	84029440	51664424	24992
754	8.001307	116768768	84029440	42701136	24992
755	6.498712	116768768	84029440	46750576	24992
756	7.836037	116768768	84029440	51634112	24992
757	11.216679	116768768	84029440	43028224	24992
758	10.050607	116768768	84029440	49535640	24992
759	12.455787	116768768	84029440	41564184	24992
760	12.912862	116768768	84029440	49689744	24992
761	15.128543	116768768	84029440	43355464	24992
762	15.447409	116768768	84029440	53124672	24992
763	17.425258	116768768	84029440	47847176	24992
764	19.049615	116768768	84029440	44347144	24992
765	21.048026	116768768	84029440	42292736	24992
766	20.761668	116768768	84029440	55339320	24992
767	21.979402	116768768	84029440	52930144	24992
768	23.991823	116768768	84029440	51757064	24992
769	25.890173	116768768	84029440	51656840	24992
770	26.472539	116768768	84029440	52414456	24992
771	28.265004	116768768	84029440	53845488	24992
772	29.420399	116768768	84029440	55843512	24992
773	32.889517	116768768	84029440	44846824	24992
774	33.63553	116768768	84029440	50125888	24992
775	35.121162	116768768	84029440	55370928	24992
776	36.416956	116768768	84029440	47053600	24992
777	36.968772	116768768	84029440	54504384	24992
778	40.069918	116768768	84029440	48201416	24992
779	46.348985	116768768	84029440	49283184	24992
780	43.108695	117039104	84553728	62430680	24992
781	43.654048	117579776	85078016	58811768	24992
782	51.199236	122716160	90320896	62447800	24992
783	57.384472	127582208	95563776	66582768	24992
784	69.799703	119734272	87699456	22298360	24992
785	55.758441	119734272	87699456	28377408	24992
786	57.459773	119734272	87699456	34974664	24992
787	57.565291	120004608	87699456	42496744	24992
788	59.348628	120004608	87699456	50929192	24992
789	60.532602	120004608	87699456	60118328	24992
790	66.864882	121085952	88223744	58550960	24992
791	93.621033	119263232	88748032	26656392	24992
792	64.934141	124936192	92942336	37665984	24992
793	71.272272	132505600	100806656	38758712	24992
794	66.621531	137371648	106049536	52187872	24992
795	74.771636	144670720	113913856	54933368	24992
796	74.316011	151969792	121778176	58584920	24992
797	91.912064	156024832	123875328	63175264	24992
798	87.165642	99893248	67252224	31836120	24992
799	76.164584	100163584	67252224	38092032	24992
800	81.820967	105570304	73019392	45117032	24992
801	81.522692	112869376	80359424	52978896	24992
802	2.891981	120438784	88223744	62627208	24992
803	4.314422	120438784	88223744	65200440	24992
804	12.763026	122871808	90320896	56343352	24992
805	7.375543	122871808	90320896	60636712	24992
806	8.843431	122871808	90320896	65799760	24992
807	18.49852	124223488	91893760	57413688	24992
808	21.136451	124223488	91893760	64293960	24992
809	17.508192	104431616	72495104	29447992	24992
810	15.030271	104697856	72495104	23009360	24992
811	14.514484	104697856	72495104	32515264	24992
812	17.265729	104697856	72495104	27295424	24992
813	18.895108	104697856	72495104	23893824	24992
814	19.313463	104697856	72495104	35997312	24992
815	20.356058	104697856	72495104	32687440	24992
816	22.909769	104697856	72495104	30830248	24992
817	24.762978	104697856	72495104	30302424	24992
818	25.773544	104697856	72495104	30661080	24992
819	27.403382	104697856	72495104	31902304	24992
820	28.593738	104697856	72495104	33792688	24992
821	29.697464	104697856	72495104	36217224	24992
822	32.998179	104697856	72495104	25634288	24992
823	33.378956	104697856	72495104	31326464	24992
824	34.230324	104697856	72495104	36800488	24992
825	37.651128	104697856	72495104	28839384	24992
826	37.288696	104697856	72495104	36608064	24992
827	39.749791	104697856	72495104	30473520	24992
828	42.829959	104697856	72495104	27264784	24992
829	44.292059	104697856	72495104	41249432	24992
830	44.910696	104697856	72495104	37934512	24992
831	46.450846	104697856	72495104	36378480	24992
832	51.968885	105508864	72495104	41551112	24992
833	53.609224	105779200	73019392	47348736	24992
834	56.82862	110104576	77213696	54052240	24992
835	59.456996	114970624	82456576	61579496	24992
836	65.082597	122269696	89796608	58622040	24992
837	88.354598	120750080	81408000	23849800	24992
838	63.83337	113741824	81408000	33337664	24992
839	62.357506	113741824	81408000	44632040	24992
840	68.286388	114282496	81408000	45176096	24992
841	66.797587	114823168	81932288	58114768	24992
842	70.082722	119689216	87175168	60657592	24992
843	74.828688	126988288	94515200	63816528	24992
844	100.065475	116449280	86126592	33709056	24992
845	77.472889	118878208	86126592	37869544	24992
846	75.96224	118878208	86126592	43792288	24992
847	76.2003	118878208	86126592	50822456	24992
848	81.506324	120229888	87699456	58770256	24992
849	83.170232	127528960	95039488	67583040	24992
850	111.033885	120967168	88223744	29742208	24992
851	83.38564	120967168	88223744	40471208	24992
852	2.803345	120967168	88223744	53054456	24992
853	4.126596	120967168	88223744	55854312	24992
854	8.653567	120967168	88223744	47122704	24992
855	7.118439	120967168	88223744	51801088	24992
856	8.513492	120967168	88223744	57445664	24992
857	11.55836	121237504	88223744	49267928	24992
858	11.113872	121237504	88223744	56767296	24992
859	13.174275	121237504	88223744	49316256	24992
860	14.445714	121237504	88223744	58706288	24992
861	16.356481	121237504	88223744	52757496	24992
862	18.339316	121237504	88223744	48861712	24992
863	20.239682	121237504	88223744	46565864	24992
864	20.351502	121237504	88223744	59758640	24992
865	21.726477	121237504	88223744	57400624	24992
866	24.329331	121237504	88223744	56493736	24992
867	25.490374	121237504	88223744	56718416	24992
868	27.122521	121237504	88223744	57810600	24992
869	27.78114	121237504	88223744	59580040	24992
870	31.894995	121237504	88223744	48545632	24992
871	32.183309	121237504	88223744	53951536	24992
872	33.329838	121237504	88223744	59370728	24992
873	36.502077	121237504	88223744	51283448	24992
874	36.717703	121237504	88223744	59116040	24992
875	40.126893	121237504	88223744	53122560	24992
876	42.549974	121237504	88223744	50038016	24992
877	43.80225	121237504	88223744	64095944	24992
878	44.901073	121237504	88223744	60971944	24992
879	45.459207	121237504	88223744	59661360	24992
880	53.151441	122859520	90320896	65041032	24992
881	54.181236	127725568	95563776	71257904	24992
882	81.887748	118054912	87699456	29236104	24992
883	57.435017	119943168	87699456	36231568	24992
884	61.847558	119943168	87699456	33681488	24992
885	58.989301	120213504	87699456	43813616	24992
886	60.787559	120213504	87699456	54689592	24992
887	66.66173	120483840	87699456	55056976	24992
888	67.22591	121294848	88748032	68035456	24992
889	94.681733	122793984	91893760	37209328	24992
890	70.702063	124682240	91893760	39616056	24992
891	73.26053	124682240	91893760	43806584	24992
892	74.820401	124682240	91893760	49009520	24992
893	76.498769	124682240	91893760	55215168	24992
894	82.108103	125222912	92418048	62372560	24992
895	99.257651	124260352	91893760	35844752	24992
896	82.801746	124260352	91893760	45156048	24992
897	85.469935	124260352	91893760	43653264	24992
898	82.668418	124260352	91893760	54692008	24992
899	85.224419	124801024	91893760	66722448	24992
900	120.002831	125657088	92942336	34267224	24992
901	90.447976	125657088	92942336	48362096	24992
902	3.200948	125657088	92942336	52919360	24992
903	4.299597	125657088	92942336	55868064	24992
904	9.165536	125657088	92942336	47379688	24992
905	7.707928	125657088	92942336	52312080	24992
906	9.2896	125657088	92942336	58222440	24992
907	11.669767	125657088	92942336	50217912	24992
908	11.919453	125657088	92942336	58100696	24992
909	14.059261	125657088	92942336	51229776	24992
910	15.167652	125657088	92942336	61098576	24992
911	17.068908	125657088	92942336	55711128	24992
912	19.464194	125657088	92942336	52271864	24992
913	21.484771	125657088	92942336	50416240	24992
914	22.877445	125657088	92942336	49946832	24992
915	24.959829	125657088	92942336	50549000	24992
916	26.260865	125657088	92942336	52057048	24992
917	28.755561	125657088	92942336	54216432	24992
918	28.869364	125657088	92942336	57023464	24992
919	29.876753	125657088	92942336	60268576	24992
920	34.031569	125657088	92942336	50753168	24992
921	36.668088	125657088	92942336	60357808	24992
922	38.501093	125657088	92942336	54161952	24992
923	39.119006	126197760	93466624	65724856	24992
924	40.544383	126197760	93466624	61037920	24992
925	48.433424	127549440	95039488	62948760	24992
926	57.586077	130252800	97660928	77201576	24992
927	55.535622	122146816	89272320	26366744	24992
928	50.918365	122146816	89272320	31161272	24992
929	52.371791	122146816	89272320	36869400	24992
930	54.036611	122146816	89272320	43530960	24992
931	54.983117	122146816	89272320	51279664	24992
932	62.757205	122146816	89272320	48524528	24992
933	64.031362	122687488	89796608	58246640	24992
934	84.772127	120266752	87699456	26119048	24992
935	63.210392	120266752	87699456	38037192	24992
936	66.118357	120266752	87699456	39340944	24992
937	66.35053	120266752	87699456	53119816	24992
938	69.50369	120266752	87699456	56328240	24992
939	73.083464	121348096	88748032	60594800	24992
940	103.391396	124674048	93990912	34205568	24992
941	77.955046	126562304	93990912	39973304	24992
942	79.238173	126562304	93990912	47305824	24992
943	80.071372	126562304	93990912	55916504	24992
944	79.38821	126562304	93990912	65127752	24992
945	92.420632	129265664	96612352	64292896	24992
946	102.419814	128614400	96088064	39554336	24992
947	88.342841	128614400	96088064	40556376	24992
948	86.563447	128614400	96088064	54093760	24992
949	91.630094	128614400	96088064	57120048	24992
950	90.708142	128614400	96088064	72666768	24992
951	130.30822	126705664	93990912	30561792	24992
952	3.077054	126705664	93990912	49332360	24992
953	8.554312	126705664	93990912	40429824	24992
954	6.458601	126705664	93990912	44574800	24992
955	7.846432	126705664	93990912	49751240	24992
956	12.259802	126976000	93990912	41933832	24992
957	11.157421	126976000	93990912	49161984	24992
958	13.772447	126976000	93990912	42049320	24992
959	14.304885	126976000	93990912	51498816	24992
960	16.90421	126976000	93990912	46092256	24992
961	19.058795	126976000	93990912	42646944	24992
962	19.243713	126976000	93990912	55179432	24992
963	21.23037	126976000	93990912	52157000	24992
964	22.899638	126976000	93990912	50739488	24992
965	25.310592	126976000	93990912	50640112	24992
966	27.161891	126976000	93990912	51667968	24992
967	28.446028	126976000	93990912	53680256	24992
968	31.793945	126976000	93990912	42965504	24992
969	34.468729	126976000	93990912	51424808	24992
970	34.16291	126976000	93990912	57214848	24992
971	35.852179	126976000	93990912	49426016	24992
972	37.535824	126976000	93990912	57511992	24992
973	39.816397	126976000	93990912	51796552	24992
974	44.254432	126976000	93990912	49199200	24992
975	48.27718	126976000	93990912	52225176	24992
976	50.086466	126976000	93990912	56206056	24992
977	51.847342	127246336	94515200	61211336	24992
978	73.171455	132112384	99758080	67322144	24992
979	60.738173	128561152	96088064	37415880	24992
980	60.671402	128561152	96088064	34202040	24992
981	58.355357	128561152	96088064	43485616	24992
982	59.106794	128561152	96088064	53739664	24992
983	63.794809	128561152	96088064	53626776	24992
984	62.279581	128561152	96088064	66064312	24992
985	75.059667	129372160	96612352	68129888	24992
986	89.012475	125755392	92942336	33920800	24992
987	71.828261	125755392	92942336	38195256	24992
988	76.229656	125755392	92942336	43387840	24992
989	77.944162	125755392	92942336	49607024	24992
990	76.041561	125755392	92942336	56893336	24992
991	98.37679	128188416	95563776	65395472	24992
992	84.546701	127012864	94515200	28053640	24992
993	81.085846	127283200	94515200	38587480	24992
994	83.332188	127283200	94515200	50100104	24992
995	84.62015	127283200	94515200	62770144	24992
996	112.367535	131338240	98709504	65062624	24992
997	96.672509	121532416	88748032	33903168	24992
998	88.942343	121532416	88748032	49896608	24992
999	93.724656	121532416	88748032	55331264	24992
1000	96.354497	121802752	89272320	61944184	24992
