x	Duration	RSS	HeapTotal	HeapUsed	External
0	NA	114753536	84553728	21409896	24992
1	0.286692	114753536	84553728	21459360	24992
2	0.202512	114753536	84553728	21535920	24992
3	0.225581	114753536	84553728	21639512	24992
4	0.273602	114753536	84553728	21771680	24992
5	0.33358	114753536	84553728	21933952	24992
6	0.369248	114753536	84553728	22126720	24992
7	0.437081	114753536	84553728	22350984	24992
8	0.513431	114753536	84553728	22607728	24992
9	0.561721	114753536	84553728	22898920	24992
10	0.612933	114753536	84553728	23225112	24992
11	0.663774	114753536	84553728	23587336	24992
12	0.725195	114753536	84553728	23986584	24992
13	0.794176	114753536	84553728	24423680	24992
14	1.020797	114753536	84553728	24899720	24992
15	0.827229	114753536	84553728	25415608	24992
16	0.886921	114753536	84553728	25972376	24992
17	1.175317	114753536	84553728	26572904	24992
18	1.049023	114753536	84553728	27216968	24992
19	1.040307	114753536	84553728	27903512	24992
20	1.115454	114753536	84553728	28634760	24992
21	1.2299	114753536	84553728	29412152	24992
22	1.248195	114753536	84553728	30236768	24992
23	1.320138	114753536	84553728	31108984	24992
24	1.449977	114753536	84553728	32031248	24992
25	1.48404	114753536	84553728	33004544	24992
26	1.537378	114753536	84553728	34029840	24992
27	1.6705	114753536	84553728	35108120	24992
28	1.699276	114753536	84553728	36241112	24992
29	1.802871	114753536	84553728	37428128	24992
30	3.78009	116101120	84553728	22959496	24992
31	2.147405	116641792	84553728	24259264	24992
32	2.048008	116641792	84553728	25619504	24992
33	2.217165	116641792	84553728	27043408	24992
34	2.24241	116641792	84553728	28527728	24992
35	2.354692	116641792	84553728	30072056	24992
36	3.486518	116641792	84553728	31680664	24992
37	2.85252	116641792	84553728	33359136	24992
38	2.541824	116641792	84553728	35091720	24992
39	2.639971	116641792	84553728	36889112	24992
40	4.430331	116641792	84553728	22813376	24992
41	3.119681	116641792	84553728	24743120	24992
42	2.955361	116641792	84553728	26740360	24992
43	3.210247	116641792	84553728	28807408	24992
44	3.143779	116641792	84553728	30943152	24992
45	3.277944	116641792	84553728	33150600	24992
46	3.362917	116641792	84553728	35429632	24992
47	3.724911	116641792	84553728	37781840	24992
48	6.314467	116641792	84553728	24544056	24992
49	4.06658	116641792	84553728	27045600	24992
50	4.371173	116641792	84553728	29629368	24992
51	3.898787	116641792	84553728	32288968	24992
52	0.263978	116641792	84553728	34940552	24992
53	0.388288	116641792	84553728	35182224	24992
54	0.505399	116641792	84553728	35505856	24992
55	0.641254	116641792	84553728	35912528	24992
56	0.747295	116641792	84553728	36403808	24992
57	0.865706	116641792	84553728	36980056	24992
58	0.993555	116641792	84553728	37642352	24992
59	1.12397	116641792	84553728	38391504	24992
60	2.869812	116641792	84553728	23763968	24992
61	1.696187	116641792	84553728	24690864	24992
62	1.511555	116641792	84553728	25707664	24992
63	1.637014	116641792	84553728	26815280	24992
64	1.825886	116641792	84553728	28014760	24992
65	1.904641	116641792	84553728	29307056	24992
66	2.054895	116641792	84553728	30693080	24992
67	2.384114	116641792	84553728	32173920	24992
68	2.349382	116641792	84553728	33752304	24992
69	2.487618	116641792	84553728	35430152	24992
70	2.614931	116641792	84553728	37203288	24992
71	3.024356	116641792	84553728	39077824	24992
72	4.320966	116641792	84553728	25196640	24992
73	3.284504	116641792	84553728	27268624	24992
74	3.288145	116641792	84553728	29443808	24992
75	3.593593	116641792	84553728	31720896	24992
76	3.52412	116641792	84553728	34100528	24992
77	3.676884	116641792	84553728	36584600	24992
78	4.169936	116641792	84553728	39174096	24992
79	5.323544	116641792	84553728	25907456	24992
80	4.448144	116641792	84553728	28712336	24992
81	4.643441	116641792	84553728	31626312	24992
82	4.561717	116641792	84553728	34647456	24992
83	4.866365	116641792	84553728	37781536	24992
84	6.216285	116641792	84553728	25372504	24992
85	5.288448	116641792	84553728	28737016	24992
86	5.479812	116641792	84553728	32217184	24992
87	6.00242	116641792	84553728	35811704	24992
88	5.552173	116641792	84553728	39522544	24992
89	7.551468	116641792	84553728	27427544	24992
90	6.162866	116641792	84553728	31376528	24992
91	6.087784	116641792	84553728	35442352	24992
92	6.488018	116641792	84553728	39628888	24992
93	8.159676	116641792	84553728	28042896	24992
94	6.589468	116641792	84553728	32472784	24992
95	6.982586	116641792	84553728	37026008	24992
96	8.822623	116641792	84553728	26239312	24992
97	7.524036	116641792	84553728	31041832	24992
98	7.636222	116641792	84553728	35973560	24992
99	7.808753	116641792	84553728	41030968	24992
100	9.748725	116641792	84553728	30148888	24992
101	8.216177	116641792	84553728	35462440	24992
102	0.428961	116641792	84553728	40891576	24992
103	0.625796	116641792	84553728	41295184	24992
104	0.817874	116641792	84553728	41835040	24992
105	2.370192	116641792	84553728	26463128	24992
106	1.423775	116641792	84553728	27279208	24992
107	1.740968	116641792	84553728	28233712	24992
108	1.627948	116641792	84553728	29328208	24992
109	2.046634	116641792	84553728	30563720	24992
110	2.043113	116641792	84553728	31943224	24992
111	2.256465	116641792	84553728	33465480	24992
112	2.451587	116641792	84553728	35130704	24992
113	2.735488	116641792	84553728	36944424	24992
114	2.889447	116641792	84553728	38901000	24992
115	3.158417	116641792	84553728	41010488	24992
116	4.941143	116641792	84553728	27292160	24992
117	3.558701	116641792	84553728	29691784	24992
118	3.757121	116641792	84553728	32244448	24992
119	4.205104	116641792	84553728	34946392	24992
120	4.20811	116641792	84553728	37800344	24992
121	4.887039	116641792	84553728	40807168	24992
122	6.41963	116641792	84553728	28056216	24992
123	4.913035	116641792	84553728	31371232	24992
124	5.357742	116641792	84553728	34841816	24992
125	5.359618	116641792	84553728	38469224	24992
126	5.809318	116641792	84553728	42253984	24992
127	7.140481	116641792	84553728	30061016	24992
128	6.096796	116641792	84553728	34164328	24992
129	6.30846	116641792	84553728	38427552	24992
130	6.782413	116641792	84553728	42855408	24992
131	8.61707	116641792	84553728	31251920	24992
132	7.031148	116641792	84553728	36004640	24992
133	7.627484	116641792	84553728	40922504	24992
134	9.546807	116641792	84553728	30110112	24992
135	7.841477	116641792	84553728	35364736	24992
136	8.237102	116641792	84553728	40786216	24992
137	10.189972	116641792	84553728	30555232	24992
138	9.253321	116641792	84553728	36314152	24992
139	8.795405	116641792	84553728	42246336	24992
140	11.197422	116641792	84553728	32288720	24992
141	9.94908	116641792	84553728	38561848	24992
142	11.993439	116641792	84553728	29591776	24992
143	10.22488	116641792	84553728	36216664	24992
144	10.148728	116641792	84553728	43022320	24992
145	12.078823	116641792	84553728	33867480	24992
146	11.213221	116641792	84553728	41029328	24992
147	13.684464	116641792	84553728	32622704	24992
148	11.619221	116641792	84553728	40142528	24992
149	13.874737	116641792	84553728	32219808	24992
150	11.857002	116641792	84553728	40103656	24992
151	14.45804	116641792	84553728	32600432	24992
152	0.596598	116641792	84553728	40895720	24992
153	0.864423	116641792	84553728	41451120	24992
154	1.146789	116641792	84553728	42193256	24992
155	1.474463	116641792	84553728	43123048	24992
156	1.680881	116641792	84553728	44244840	24992
157	3.590984	116641792	84553728	29418520	24992
158	2.356274	116641792	84553728	30917768	24992
159	2.783565	116641792	84553728	32608600	24992
160	2.821792	116641792	84553728	34492872	24992
161	3.286047	116641792	84553728	36570632	24992
162	3.568137	116641792	84553728	38842928	24992
163	3.981665	116641792	84553728	41310616	24992
164	3.990278	116641792	84553728	43975136	24992
165	6.302567	116641792	84553728	30752432	24992
166	4.591647	116641792	84553728	33812640	24992
167	5.13716	116641792	84553728	37072632	24992
168	5.444243	116641792	84553728	40534664	24992
169	5.477177	116641792	84553728	44197768	24992
170	7.812613	116641792	84553728	31953000	24992
171	6.459137	116641792	84553728	36022032	24992
172	6.426478	116641792	84553728	40295344	24992
173	6.936057	116641792	84553728	44773872	24992
174	8.534761	116641792	84553728	33256680	24992
175	7.570621	116641792	84553728	38148480	24992
176	7.891048	116641792	84553728	43248472	24992
177	9.798323	116641792	84553728	32617040	24992
178	8.285711	116641792	84553728	38138344	24992
179	8.87553	116641792	84553728	43868904	24992
180	11.016839	116641792	84553728	33790840	24992
181	9.299784	116641792	84553728	39948640	24992
182	11.975825	116641792	84553728	30999416	24992
183	10.087538	116641792	84553728	37587528	24992
184	10.436149	116641792	84553728	44398752	24992
185	12.390269	116641792	84553728	35348600	24992
186	11.81614	116641792	84553728	42600112	24992
187	13.422351	116641792	84553728	34342784	24992
188	11.782405	116641792	84553728	42024144	24992
189	14.178	116641792	84553728	34292576	24992
190	12.539597	116641792	84553728	42422168	24992
191	15.263963	116641792	84553728	35106576	24992
192	13.493641	116641792	84553728	43678640	24992
193	16.113607	116641792	84553728	36626336	24992
194	14.118451	116641792	84553728	45655832	24992
195	15.689719	116641792	84553728	38722872	24992
196	17.05514	116641792	84553728	33227136	24992
197	15.091781	116641792	84553728	42941320	24992
198	17.712503	116641792	84553728	37188784	24992
199	18.33775	116641792	84553728	32705224	24992
200	16.550109	116641792	84553728	43112608	24992
201	18.985374	116641792	84553728	38068712	24992
202	0.79946	116641792	84553728	34307648	24992
203	1.154156	116641792	84553728	35009304	24992
204	1.532366	116641792	84553728	35946480	24992
205	1.88499	116641792	84553728	37119976	24992
206	2.503336	116641792	84553728	38535520	24992
207	2.524531	116641792	84553728	40193648	24992
208	2.944768	116641792	84553728	42099640	24992
209	3.507199	116641792	84553728	44254568	24992
210	4.017515	116641792	84553728	46659424	24992
211	6.179779	116641792	84553728	33153024	24992
212	5.063231	116641792	84553728	36065960	24992
213	4.969251	116641792	84553728	39227648	24992
214	5.482606	116641792	84553728	42640464	24992
215	5.782967	116641792	84553728	46308856	24992
216	8.266589	116641792	84553728	34149240	24992
217	6.913493	116641792	84553728	38333392	24992
218	7.179216	116641792	84553728	42771744	24992
219	7.580102	116641792	84553728	47469992	24992
220	9.684826	116641792	84553728	36157912	24992
221	8.186575	116641792	84553728	41374704	24992
222	8.764134	116641792	84553728	46861400	24992
223	10.9954	116641792	84553728	36442328	24992
224	9.464228	116641792	84553728	42453304	24992
225	12.281697	116641792	84553728	33305592	24992
226	10.397596	116641792	84553728	39845856	24992
227	10.727878	116641792	84553728	46650608	24992
228	13.126407	116641792	84553728	37618216	24992
229	11.785296	116641792	84553728	44965280	24992
230	14.290502	116641792	84553728	36799896	24992
231	12.413325	116641792	84553728	44703912	24992
232	15.222286	116641792	84553728	37118304	24992
233	13.215097	116641792	84553728	45551848	24992
234	16.165934	116641792	84553728	38415504	24992
235	14.278055	116641792	84553728	47408808	24992
236	16.547104	116641792	84553728	40516656	24992
237	17.848524	116641792	84553728	35075216	24992
238	15.361473	116641792	84553728	44914368	24992
239	18.735457	116641792	84553728	39318088	24992
240	19.575107	116641792	84553728	34979296	24992
241	16.984522	116641792	84553728	45658384	24992
242	20.041629	116641792	84553728	40804096	24992
243	20.907654	116641792	84553728	37082088	24992
244	19.293279	116641792	84553728	48622208	24992
245	20.638175	116641792	84553728	44154400	24992
246	21.726949	116641792	84553728	40780008	24992
247	22.921767	116641792	84553728	38244320	24992
248	23.518114	116641792	84553728	36454112	24992
249	20.545168	116641792	84553728	49423888	24992
250	22.864191	116641792	84553728	46359632	24992
251	23.964873	116641792	84553728	44146896	24992
252	0.990907	116641792	84553728	42749312	24992
253	1.423233	116641792	84553728	43630888	24992
254	1.864038	116641792	84553728	44807576	24992
255	2.335736	116641792	84553728	46280592	24992
256	3.013271	116641792	84553728	48051456	24992
257	3.457049	116641792	84553728	50120480	24992
258	6.21211	116641792	84553728	36160152	24992
259	4.324575	116641792	84553728	38830424	24992
260	4.663063	116641792	84553728	41809144	24992
261	5.306669	116641792	84553728	45083880	24992
262	5.569295	116641792	84553728	48659984	24992
263	8.25724	116641792	84553728	36455640	24992
264	6.583579	116641792	84553728	40640768	24992
265	7.034707	116641792	84553728	45134368	24992
266	7.685749	116641792	84553728	49933816	24992
267	9.848604	116641792	84553728	38770456	24992
268	8.713463	116641792	84553728	44192968	24992
269	9.111311	116641792	84553728	49930424	24992
270	11.665354	116641792	84553728	39727192	24992
271	9.996996	116641792	84553728	46079088	24992
272	13.002704	116641792	84553728	37127240	24992
273	11.26363	116641792	84553728	44106232	24992
274	14.195174	116641792	84553728	36135760	24992
275	12.070377	116641792	84553728	43761256	24992
276	15.517514	116641792	84553728	36527968	24992
277	13.063443	116641792	84553728	44771504	24992
278	16.836633	116641792	84553728	38013104	24992
279	14.022081	116641792	84553728	46894168	24992
280	17.177169	116641792	84553728	40403744	24992
281	15.231515	116641792	84553728	49933384	24992
282	17.716167	116641792	84553728	43583216	24992
283	19.211587	116641792	84553728	38646496	24992
284	16.617599	116641792	84553728	49150384	24992
285	19.759639	116641792	84553728	43916648	24992
286	20.385371	116641792	84553728	39963192	24992
287	18.359836	116641792	84553728	51446960	24992
288	20.924673	116641792	84553728	46882448	24992
289	22.272194	116641792	84553728	43419784	24992
290	23.301563	116641792	84553728	40887144	24992
291	24.06595	116641792	84553728	39145664	24992
292	24.850401	116641792	84553728	38060096	24992
293	21.78582	116641792	84553728	51534032	24992
294	24.384733	116641792	84553728	49009704	24992
295	25.188949	116641792	84553728	47274032	24992
296	26.871351	116641792	84553728	46126328	24992
297	26.351025	116641792	84553728	45542672	24992
298	27.224279	116641792	84553728	45436640	24992
299	28.529847	116641792	84553728	45685048	24992
300	28.910324	116641792	84553728	46264040	24992
301	29.199725	116641792	84553728	47076632	24992
302	1.126076	116641792	84553728	48326352	24992
303	1.846642	116641792	84553728	49353912	24992
304	2.186669	116641792	84553728	50725584	24992
305	2.853846	116641792	84553728	52454136	24992
306	5.633942	116641792	84553728	38231760	24992
307	3.819499	116641792	84553728	40642232	24992
308	4.478773	116641792	84553728	43400648	24992
309	4.871782	116641792	84553728	46507944	24992
310	5.657936	116641792	84553728	49972320	24992
311	8.528253	116641792	84553728	37905376	24992
312	6.603041	116641792	84553728	42070592	24992
313	8.056293	116641792	84553728	46602592	24992
314	7.878826	116641792	84553728	51482272	24992
315	10.832255	116641792	84553728	40618856	24992
316	9.036241	116641792	84553728	46203240	24992
317	9.291435	116641792	84553728	52141272	24992
318	12.472031	116641792	84553728	42269464	24992
319	10.721395	116641792	84553728	48927776	24992
320	13.910332	116641792	84553728	40305184	24992
321	11.755398	116641792	84553728	47696112	24992
322	15.133924	116641792	84553728	40028824	24992
323	12.837396	116641792	84553728	48135424	24992
324	16.724243	116641792	84553728	41089800	24992
325	14.337414	116641792	84553728	49931528	24992
326	17.451788	116641792	84553728	43333296	24992
327	15.342078	116641792	84553728	52894968	24992
328	18.193495	116641792	84553728	46526576	24992
329	19.70915	116641792	84553728	41643304	24992
330	17.168174	116641792	84553728	52315136	24992
331	20.109003	116641792	84553728	47164624	24992
332	21.95935	116641792	84553728	43328272	24992
333	22.383527	116641792	84553728	40513792	24992
334	19.492759	116641792	84553728	52677960	24992
335	22.567912	116641792	84553728	49039528	24992
336	23.699048	116641792	84553728	46434704	24992
337	25.068664	116641792	84553728	44628392	24992
338	26.008565	116641792	84553728	43519296	24992
339	26.639057	116641792	84553728	43004320	24992
340	26.866532	116641792	84553728	42962016	24992
341	27.736429	116641792	84553728	43337552	24992
342	28.750519	116641792	84553728	44042416	24992
343	29.450165	116641792	84553728	45035832	24992
344	29.331887	116641792	84553728	46229880	24992
345	29.875515	116641792	84553728	47618736	24992
346	30.985248	116641792	84553728	49149392	24992
347	31.111851	116641792	84553728	50803464	24992
348	31.587745	116641792	84553728	52582984	24992
349	31.488963	116641792	84553728	54447712	24992
350	37.335971	116641792	84553728	42907928	24992
351	34.36335	116641792	84553728	47275944	24992
352	1.28623	116641792	84553728	51598848	24992
353	1.915189	116641792	84553728	52772728	24992
354	2.515978	116641792	84553728	54339392	24992
355	5.6403	116641792	84553728	40137968	24992
356	3.775633	116641792	84553728	42496336	24992
357	4.566084	116641792	84553728	45247968	24992
358	5.20209	116641792	84553728	48399112	24992
359	5.714368	116641792	84553728	51945192	24992
360	9.360634	116641792	84553728	40156472	24992
361	6.960721	116641792	84553728	44510944	24992
362	7.966863	116641792	84553728	49271408	24992
363	8.241803	116641792	84553728	54437528	24992
364	12.1447	116641792	84553728	43841288	24992
365	9.47393	116641792	84553728	49822040	24992
366	13.778894	116641792	84553728	40866064	24992
367	10.789212	116641792	84553728	47665968	24992
368	11.62456	116641792	84553728	54886432	24992
369	14.896328	116641792	84553728	46264040	24992
370	12.939508	116641792	84553728	54315960	24992
371	16.231255	116641792	84553728	46671848	24992
372	14.453618	116641792	84553728	55541000	24992
373	17.473466	116641792	84553728	48503064	24992
374	19.097134	116641792	84553728	43094528	24992
375	16.348373	116641792	84553728	53215416	24992
376	19.948732	116641792	84553728	47849888	24992
377	21.530106	116641792	84553728	43847016	24992
378	18.715141	116641792	84553728	55223952	24992
379	21.760903	116641792	84553728	50780480	24992
380	23.401222	116641792	84553728	47560416	24992
381	23.924583	116641792	84553728	45320520	24992
382	24.938269	116641792	84553728	43927152	24992
383	25.925512	116641792	84553728	43221720	24992
384	27.381247	116641792	84553728	43074504	24992
385	27.706766	116641792	84553728	43434240	24992
386	28.344261	116641792	84553728	44161352	24992
387	28.713729	116641792	84553728	45168360	24992
388	29.321709	116641792	84553728	46469656	24992
389	30.064842	116641792	84553728	47987168	24992
390	30.514821	116641792	84553728	49637128	24992
391	30.828652	116641792	84553728	51447432	24992
392	31.721736	116641792	84553728	53388208	24992
393	31.920678	116641792	84553728	55432512	24992
394	38.344227	116641792	84553728	44275624	24992
395	37.378839	116641792	84553728	51647144	24992
396	35.060603	116641792	84553728	55878264	24992
397	35.297268	116641792	84553728	59805432	24992
398	40.411586	116641792	84553728	50059992	24992
399	37.557456	116641792	84553728	55890880	24992
400	43.321627	116641792	84553728	48340584	24992
401	41.5737	117723136	85078016	58299520	24992
402	4.207132	117723136	85078016	48846176	24992
403	2.152432	117723136	85078016	50179752	24992
404	2.830667	117723136	85078016	51959368	24992
405	3.573391	117723136	85078016	54186832	24992
406	4.183618	117723136	85078016	56861968	24992
407	4.999559	117723136	85078016	59985968	24992
408	5.669342	117723136	85078016	63563792	24992
409	9.341381	117723136	85078016	51386648	24992
410	7.098577	117723136	85078016	55866760	24992
411	7.976314	117723136	85078016	60797544	24992
412	11.731874	117723136	85078016	50502704	24992
413	9.52117	117723136	85078016	56342248	24992
414	10.127397	117723136	85078016	62647216	24992
415	13.84404	117723136	85078016	53377416	24992
416	11.643166	117723136	85078016	60602096	24992
417	17.258233	117723136	85078016	52648376	24992
418	13.660329	117723136	85078016	60828376	24992
419	18.322553	117723136	85078016	53797152	24992
420	14.711013	117723136	85078016	62928720	24992
421	18.378671	117723136	85078016	56510248	24992
422	19.978109	117723136	85078016	51716776	24992
423	16.926344	117723136	85078016	62278760	24992
424	21.406075	117723136	85602304	57399736	24992
425	22.288578	117723136	85602304	53918640	24992
426	23.418189	117723136	85602304	51483960	24992
427	19.60911	117723136	85602304	63986608	24992
428	23.840251	117723136	85602304	60832056	24992
429	25.232051	117993472	85602304	58679472	24992
430	25.598857	117993472	85602304	57379632	24992
431	26.58542	117993472	85602304	56826032	24992
432	27.400231	117993472	85602304	56862616	24992
433	28.691334	117993472	85602304	57412784	24992
434	29.759762	117993472	85602304	58358968	24992
435	29.714278	117993472	85602304	59657792	24992
436	30.830091	118263808	85602304	61257504	24992
437	31.059702	118263808	86126592	63034112	24992
438	31.934438	118263808	86126592	65008048	24992
439	37.094649	118534144	86126592	53702656	24992
440	37.752	121237504	88748032	61262080	24992
441	36.980522	121507840	89272320	65774256	24992
442	52.697022	122048512	89796608	56782416	24992
443	45.220221	120532992	88223744	20211728	24992
444	37.051183	120532992	88223744	29711856	24992
445	37.908122	120532992	88223744	22957112	24992
446	38.420159	120532992	88223744	33370928	24992
447	39.715851	120532992	88223744	27458728	24992
448	40.340398	120532992	88223744	38906896	24992
449	40.700791	120532992	88223744	33607744	24992
450	42.091738	120532992	88223744	46081528	24992
451	41.639454	120532992	88223744	41071688	24992
452	1.573822	120532992	88223744	38262728	24992
453	2.319685	120532992	88223744	39791736	24992
454	3.101729	120532992	88223744	41832144	24992
455	3.846465	120532992	88223744	44398032	24992
456	4.694112	120532992	88223744	47480088	24992
457	7.954398	120532992	88223744	37741880	24992
458	6.227883	120532992	88223744	41857912	24992
459	7.335592	120532992	88223744	46487920	24992
460	9.097469	120532992	88223744	36345848	24992
461	8.450817	120532992	88223744	41993992	24992
462	9.354796	120532992	88223744	48161280	24992
463	10.666855	120532992	88223744	38895936	24992
464	10.821765	120532992	88223744	46104168	24992
465	12.529129	120532992	88223744	38282880	24992
466	12.70403	120532992	88223744	46559432	24992
467	14.469271	120532992	88223744	39636720	24992
468	14.115468	120532992	88223744	48963144	24992
469	15.787645	120532992	88223744	42677976	24992
470	17.282451	120532992	88223744	38047456	24992
471	16.876859	120532992	88223744	48936960	24992
472	17.954297	120532992	88223744	44271784	24992
473	19.737655	120532992	88223744	41035216	24992
474	20.491453	120532992	88223744	38798120	24992
475	21.905017	120532992	88223744	37594768	24992
476	21.077473	120532992	88223744	51142440	24992
477	22.255079	120532992	88223744	48856872	24992
478	23.255232	120532992	88223744	47431424	24992
479	24.40104	120532992	88223744	46868784	24992
480	25.234043	120532992	88223744	46905472	24992
481	25.989696	120532992	88223744	47454520	24992
482	26.561204	120532992	88223744	48515288	24992
483	27.793754	120532992	88223744	49816880	24992
484	28.157427	120532992	88223744	51467672	24992
485	31.022703	120532992	88223744	39769496	24992
486	31.504697	120532992	88223744	44326336	24992
487	31.16476	120532992	88223744	48561640	24992
488	35.365905	120532992	88223744	39449128	24992
489	36.480427	120803328	88223744	48660088	24992
490	33.90626	120803328	88223744	54498992	24992
491	36.591274	120803328	88223744	46207728	24992
492	35.818289	120803328	88223744	53427112	24992
493	38.531328	120803328	88223744	46702304	24992
494	51.131689	121344000	88748032	46980968	24992
495	63.370677	118702080	82456576	20415960	24992
496	42.81234	114823168	82456576	32711512	24992
497	42.145592	114823168	82456576	28792144	24992
498	48.391875	114823168	82456576	31133000	24992
499	49.128716	114823168	82456576	33834448	24992
500	45.702868	114823168	82456576	48769192	24992
501	45.269293	115093504	82456576	46191544	24992
502	1.678112	115093504	82456576	45361416	24992
503	2.49417	115093504	82456576	47036784	24992
504	3.339362	115093504	82456576	49284632	24992
505	7.73544	115093504	82456576	39833368	24992
506	5.291935	115093504	82456576	43206880	24992
507	5.949284	115093504	82456576	47128760	24992
508	6.97278	115093504	82456576	51615656	24992
509	9.35882	115093504	82456576	41734864	24992
510	8.889807	115093504	82456576	47352520	24992
511	9.360187	115093504	82456576	53544000	24992
512	10.68977	115093504	82456576	43951408	24992
513	11.104454	115093504	82456576	51283104	24992
514	12.868061	115093504	82456576	43215864	24992
515	13.086388	115093504	82456576	51686720	24992
516	14.706403	115093504	82456576	44744432	24992
517	14.62556	115093504	82456576	54368624	24992
518	16.35327	115093504	82456576	48083760	24992
519	18.005182	115093504	82456576	43475544	24992
520	18.989125	115093504	82456576	40316872	24992
521	18.218184	115093504	82456576	52230224	24992
522	20.334266	115093504	82456576	48691024	24992
523	21.495375	115093504	82456576	46312504	24992
524	22.506905	115093504	82456576	44989848	24992
525	24.352738	115093504	82456576	44463448	24992
526	24.266332	115093504	82456576	44604848	24992
527	25.0341	115093504	82456576	45322288	24992
528	26.136501	115093504	82456576	46539536	24992
529	27.476889	115093504	82456576	48107248	24992
530	28.272684	115093504	82456576	50007144	24992
531	28.410806	115093504	82456576	52139896	24992
532	29.492027	115093504	82456576	54503304	24992
533	32.372019	115093504	82456576	43508552	24992
534	32.691292	115093504	82456576	48548312	24992
535	32.490409	115093504	82456576	53333480	24992
536	35.676833	115093504	82456576	44605040	24992
537	39.164684	115093504	82456576	54525688	24992
538	38.564542	115093504	82456576	47986584	24992
539	39.595067	115093504	82456576	59103752	24992
540	39.865204	115093504	82980864	53432296	24992
541	45.243628	118067200	86126592	65736120	24992
542	56.314242	118878208	86650880	60676488	24992
543	49.236144	114589696	82456576	27128072	24992
544	43.41432	114589696	82456576	23908784	24992
545	49.389695	114589696	82456576	26889040	24992
546	50.196995	114589696	82456576	30216736	24992
547	51.663067	114589696	82456576	34221488	24992
548	52.487139	114860032	82456576	38881208	24992
549	52.231507	115400704	82980864	44049248	24992
550	53.792628	115400704	82980864	49817072	24992
551	73.766921	118104064	86126592	56213816	24992
552	1.809488	120266752	88223744	34983224	24992
553	2.71718	120266752	88223744	36804888	24992
554	7.136601	120266752	88223744	27152912	24992
555	4.684459	120266752	88223744	30193024	24992
556	5.64914	120266752	88223744	33858024	24992
557	6.431441	120266752	88223744	38135952	24992
558	9.67668	120266752	88223744	28617056	24992
559	8.414282	120266752	88223744	34153232	24992
560	9.539991	120266752	88223744	40296208	24992
561	10.862905	120266752	88223744	31119440	24992
562	11.315546	120266752	88223744	38521048	24992
563	13.907127	120266752	88223744	30890864	24992
564	13.119779	120266752	88223744	39558128	24992
565	15.301801	120266752	88223744	32992488	24992
566	14.940285	120266752	88223744	42892304	24992
567	16.619559	120266752	88223744	36945264	24992
568	18.099082	120266752	88223744	32700168	24992
569	19.541959	120266752	88223744	29827808	24992
570	18.87943	120266752	88223744	42260048	24992
571	20.574035	120266752	88223744	38964304	24992
572	22.610156	120266752	88223744	36914488	24992
573	23.151421	120266752	88223744	35839896	24992
574	24.448	120266752	88223744	35634360	24992
575	25.447825	120266752	88223744	36085192	24992
576	26.596214	120266752	88223744	37136520	24992
577	27.835296	120266752	88223744	38611656	24992
578	27.967607	120266752	88223744	40445864	24992
579	28.389684	120266752	88223744	42610064	24992
580	32.237122	120266752	88223744	31623552	24992
581	31.642576	120266752	88223744	36659904	24992
582	32.747245	120266752	88223744	41447168	24992
583	35.479887	120266752	88223744	32737560	24992
584	38.193301	120266752	88223744	42747032	24992
585	38.475294	120266752	88223744	36334928	24992
586	40.11478	120266752	88223744	47589688	24992
587	40.67259	120266752	88223744	42033792	24992
588	47.022972	120266752	88223744	42942288	24992
589	42.160735	120266752	88223744	55905840	24992
590	42.83978	120266752	88223744	52033344	24992
591	49.219035	120807424	88223744	54860552	24992
592	49.613658	121348096	89272320	58154728	24992
593	57.232167	126214144	94515200	62026896	24992
594	69.58302	121552896	91369472	32086016	24992
595	53.8658	123441152	91369472	36029544	24992
596	54.825165	123981824	91369472	41894400	24992
597	60.426981	123981824	91369472	36762960	24992
598	56.345768	123981824	91369472	43947584	24992
599	56.201985	123981824	91369472	51773120	24992
600	57.86197	124252160	91893760	60263560	24992
601	66.259411	124522496	91893760	69382464	24992
602	2.036443	121942016	89796608	33529496	24992
603	7.42806	121942016	89796608	23843240	24992
604	3.992024	121942016	89796608	26495800	24992
605	5.120485	121942016	89796608	29813616	24992
606	6.293563	121942016	89796608	33801632	24992
607	9.400983	121942016	89796608	24544784	24992
608	8.014024	121942016	89796608	29864952	24992
609	9.280579	121942016	89796608	35876712	24992
610	11.192394	121942016	89796608	26741416	24992
611	11.179899	121942016	89796608	34100256	24992
612	13.187126	121942016	89796608	26668656	24992
613	13.146682	121942016	89796608	35349408	24992
614	15.059153	121942016	89796608	29021184	24992
615	15.563092	121942016	89796608	39058976	24992
616	16.525827	121942016	89796608	33442656	24992
617	18.682308	121942016	89796608	29517752	24992
618	19.91993	121942016	89796608	26982944	24992
619	19.130119	121942016	89796608	39750048	24992
620	21.020655	121942016	89796608	36706096	24992
621	22.473579	121942016	89796608	34932616	24992
622	24.860672	121942016	89796608	34198040	24992
623	25.284473	121942016	89796608	34249424	24992
624	26.584946	121942016	89796608	34983024	24992
625	27.376641	121942016	89796608	36272856	24992
626	28.577477	121942016	89796608	38011272	24992
627	28.914265	121942016	89796608	40146336	24992
628	32.382855	121942016	89796608	29058032	24992
629	32.388032	121942016	89796608	34207896	24992
630	32.586033	121942016	89796608	39081344	24992
631	35.362547	121942016	89796608	30359368	24992
632	38.354992	121942016	89796608	40763712	24992
633	38.480916	121942016	89796608	34492928	24992
634	39.735789	121942016	89796608	46245024	24992
635	40.905612	121942016	89796608	40889800	24992
636	42.379376	121942016	89796608	37475952	24992
637	43.744132	121942016	89796608	51250152	24992
638	44.286178	121942016	89796608	47573168	24992
639	45.233511	121942016	89796608	45491008	24992
640	52.281715	121942016	89796608	49771224	24992
641	53.512567	121942016	89796608	54488192	24992
642	59.768852	123293696	90845184	59886864	24992
643	80.204518	118677504	88223744	34183576	24992
644	65.045545	120565760	88223744	28685664	24992
645	62.726918	120565760	88223744	36195024	24992
646	57.302733	120565760	88223744	44411520	24992
647	58.735695	120565760	88223744	53375024	24992
648	64.596473	120565760	88223744	51439080	24992
649	60.445211	120836096	88223744	61722992	24992
650	94.031111	121999360	91369472	28995096	24992
651	63.309752	123887616	91369472	40116072	24992
652	2.188749	123887616	91369472	41687672	24992
653	3.258772	123887616	91369472	43822344	24992
654	4.53843	123887616	91369472	46669968	24992
655	8.443047	123887616	91369472	37492752	24992
656	6.601463	123887616	91369472	41770024	24992
657	7.972417	123887616	91369472	46763312	24992
658	10.442098	123887616	91369472	37745232	24992
659	9.807657	123887616	91369472	44188496	24992
660	10.898612	123887616	91369472	51336560	24992
661	12.543694	123887616	91369472	42989576	24992
662	13.621766	123887616	91369472	51580360	24992
663	14.429662	123887616	91369472	44571592	24992
664	16.820321	123887616	91369472	39536584	24992
665	16.700563	123887616	91369472	50317544	24992
666	18.437649	123887616	91369472	45701488	24992
667	20.445107	123887616	91369472	42726584	24992
668	21.513983	123887616	91369472	41009736	24992
669	23.096736	123887616	91369472	40283784	24992
670	24.419679	123887616	91369472	40429024	24992
671	25.829885	123887616	91369472	41288744	24992
672	26.475541	123887616	91369472	42725144	24992
673	27.400249	123887616	91369472	44667328	24992
674	28.779046	123887616	91369472	46924088	24992
675	29.278582	123887616	91369472	49559664	24992
676	29.827831	123887616	91369472	52430400	24992
677	33.869945	123887616	91369472	42001496	24992
678	33.012323	123887616	91369472	47730544	24992
679	37.097053	123887616	91369472	40405912	24992
680	38.350284	123887616	91369472	50779632	24992
681	40.326706	123887616	91369472	45050264	24992
682	40.170263	123887616	91369472	56889368	24992
683	41.735024	123887616	91369472	52115064	24992
684	46.398055	123887616	91369472	53933896	24992
685	46.176757	123887616	91369472	67838440	24992
686	43.990336	123887616	91369472	64484112	24992
687	46.661162	123887616	91369472	62824808	24992
688	59.872009	126861312	94515200	67572456	24992
689	74.777552	124035072	91893760	24777304	24992
690	53.202723	124035072	91893760	31013192	24992
691	57.785701	124035072	91893760	37810000	24992
692	58.041955	124035072	91893760	45332592	24992
693	57.702264	124035072	91893760	53685624	24992
694	63.655326	124035072	91893760	51204512	24992
695	60.724378	124575744	91893760	60956448	24992
696	91.640926	119320576	88748032	28425840	24992
697	61.617662	121208832	88748032	39124656	24992
698	68.798112	121208832	88748032	39600024	24992
699	64.354564	121208832	88748032	52420696	24992
700	71.631338	121208832	88748032	54427824	24992
701	72.42925	121208832	88748032	57230576	24992
702	12.514183	127696896	95563776	61580528	24992
703	6.318277	127696896	95563776	63870176	24992
704	11.107948	122204160	91893760	21003104	24992
705	6.128503	122204160	91893760	24811744	24992
706	7.83968	122204160	91893760	29381536	24992
707	9.118406	122204160	91893760	34716088	24992
708	9.957648	124092416	91893760	24509328	24992
709	10.548791	124092416	91893760	31387704	24992
710	12.366564	124092416	91893760	23387688	24992
711	13.15528	124092416	91893760	31794168	24992
712	14.505047	124092416	91893760	25193080	24992
713	15.361947	124092416	91893760	35153928	24992
714	16.796809	124092416	91893760	29539464	24992
715	18.790262	124092416	91893760	25673632	24992
716	20.445995	124092416	91893760	23266256	24992
717	22.043816	124092416	91893760	22090280	24992
718	23.570532	124092416	91893760	21890632	24992
719	24.424375	124092416	91893760	22527968	24992
720	26.243245	124092416	91893760	23807520	24992
721	29.299894	124092416	91893760	25697536	24992
722	27.971719	124092416	91893760	27995640	24992
723	29.14666	124092416	91893760	30634944	24992
724	30.398983	124092416	91893760	33641560	24992
725	33.553698	124092416	91893760	23731048	24992
726	35.793348	124092416	91893760	32601440	24992
727	33.900917	124092416	91893760	38339240	24992
728	37.226871	124092416	91893760	30356352	24992
729	36.551162	124092416	91893760	37979624	24992
730	39.27456	124092416	91893760	31715168	24992
731	45.893476	124092416	91893760	32939968	24992
732	42.740154	124092416	91893760	46218320	24992
733	44.457608	124092416	91893760	42537424	24992
734	46.003647	124092416	91893760	40641968	24992
735	52.675058	124092416	91893760	44959312	24992
736	53.019431	124092416	91893760	49835216	24992
737	54.485409	124092416	91893760	55581328	24992
738	59.56526	124903424	92418048	62065304	24992
739	85.49238	122880000	92418048	25786240	24992
740	56.223676	124768256	92418048	32971000	24992
741	59.582723	124768256	92418048	41937912	24992
742	65.670797	124768256	92418048	40022848	24992
743	61.445342	124768256	92418048	50418720	24992
744	63.374902	124768256	92418048	61691032	24992
745	70.341425	125038592	92418048	62286080	24992
746	97.658963	125091840	94515200	30368664	24992
747	69.549752	126980096	94515200	31742520	24992
748	67.803401	126980096	94515200	46065968	24992
749	74.660796	126980096	94515200	49997752	24992
750	75.874809	126980096	94515200	54517496	24992
751	77.529142	126980096	94515200	59880808	24992
752	5.739524	131035136	98709504	66762328	24992
753	6.250708	125984768	96088064	21930640	24992
754	5.310038	125984768	96088064	25172784	24992
755	6.301436	125984768	96088064	29248328	24992
756	7.439386	125984768	96088064	34110520	24992
757	9.853315	128413696	96088064	23626336	24992
758	9.6668	128413696	96088064	30144504	24992
759	12.431406	128413696	96088064	22022296	24992
760	12.525026	128413696	96088064	30179664	24992
761	15.136827	128413696	96088064	23673512	24992
762	15.038422	128413696	96088064	33477552	24992
763	17.290751	128413696	96088064	28035032	24992
764	19.464814	128413696	96088064	24430712	24992
765	20.716198	128413696	96088064	22289320	24992
766	20.869896	128413696	96088064	35375080	24992
767	21.672801	128413696	96088064	32899720	24992
768	24.134093	128413696	96088064	31752920	24992
769	28.033926	128413696	96088064	31569696	24992
770	26.6114	128413696	96088064	32221560	24992
771	28.431312	128413696	96088064	33655096	24992
772	28.838104	128413696	96088064	35615848	24992
773	32.617623	128413696	96088064	24614088	24992
774	32.044084	128413696	96088064	29907976	24992
775	33.591667	128413696	96088064	35088808	24992
776	36.361357	128413696	96088064	26774624	24992
777	36.202162	128413696	96088064	34245856	24992
778	39.170538	128413696	96088064	27852760	24992
779	45.898714	128413696	96088064	29016528	24992
780	41.805898	128413696	96088064	42203432	24992
781	42.882061	128413696	96088064	38478264	24992
782	50.050972	128413696	96088064	42099232	24992
783	50.697128	128413696	96088064	46238568	24992
784	52.704552	128413696	96088064	51244480	24992
785	54.265641	128413696	96088064	57026456	24992
786	61.678689	129224704	96612352	63721392	24992
787	78.566259	123523072	91369472	26147792	24992
788	59.104632	123523072	91369472	34600312	24992
789	58.77724	123523072	91369472	43902056	24992
790	66.109855	123523072	91369472	42468648	24992
791	61.89593	123523072	91369472	53287560	24992
792	67.760009	123523072	91369472	53646512	24992
793	72.589368	124063744	92418048	66094496	24992
794	88.666658	122814464	90320896	34587976	24992
795	72.273046	122814464	90320896	37626464	24992
796	72.341354	122814464	90320896	41156224	24992
797	72.366307	122814464	90320896	45720288	24992
798	71.417892	122814464	90320896	62535904	24992
799	85.761804	123084800	90845184	68672752	24992
800	98.346645	123404288	90845184	30250408	24992
801	79.739304	123404288	90845184	38185688	24992
802	2.634612	123404288	90845184	47775040	24992
803	3.926953	123404288	90845184	50348456	24992
804	5.312947	123404288	90845184	53781144	24992
805	9.135265	123404288	90845184	45137296	24992
806	7.959866	123404288	90845184	50292864	24992
807	9.45819	123404288	90845184	56321736	24992
808	11.571217	123404288	90845184	47808568	24992
809	13.947537	123404288	90845184	55566056	24992
810	13.858182	123404288	90845184	48173424	24992
811	14.904691	123404288	90845184	57676936	24992
812	16.523657	123404288	90845184	51679744	24992
813	18.538273	123404288	90845184	47724056	24992
814	20.173266	123404288	90845184	45223632	24992
815	22.14237	123404288	90845184	44081968	24992
816	21.234349	123404288	90845184	57952592	24992
817	23.141973	123404288	90845184	56260728	24992
818	24.41869	123404288	90845184	55804048	24992
819	26.019188	123404288	90845184	56360944	24992
820	27.64176	123404288	90845184	57605688	24992
821	31.718797	123404288	90845184	46208048	24992
822	31.575802	123404288	90845184	51111592	24992
823	32.661655	123404288	90845184	56141576	24992
824	36.554672	123404288	90845184	47955184	24992
825	38.671856	123404288	90845184	58463648	24992
826	39.757185	123404288	90845184	52696752	24992
827	41.52895	123404288	90845184	64970792	24992
828	42.123889	123404288	90845184	60335792	24992
829	44.294747	123404288	90845184	57788624	24992
830	56.138515	125026304	92418048	61147104	24992
831	69.130962	122970112	92418048	31110592	24992
832	52.938812	124858368	92418048	35045168	24992
833	52.092757	124858368	92418048	40772936	24992
834	54.968061	124858368	92418048	47448848	24992
835	60.934328	124858368	92418048	43615696	24992
836	58.657699	124858368	92418048	51988536	24992
837	59.728842	124858368	92418048	61347720	24992
838	81.029276	125939712	93466624	60190408	24992
839	70.147163	124956672	92418048	24977872	24992
840	64.791878	124956672	92418048	36937584	24992
841	68.726574	124956672	92418048	38538440	24992
842	65.921944	124956672	92418048	52446952	24992
843	71.646777	124956672	92418048	55710688	24992
844	90.835556	128741376	96612352	60080016	24992
845	80.501845	121823232	89796608	32206632	24992
846	75.04564	121823232	89796608	38369360	24992
847	77.314112	121823232	89796608	45185800	24992
848	80.506945	121823232	89796608	53110560	24992
849	87.245198	123985920	91893760	61957376	24992
850	105.624698	119234560	86650880	29146976	24992
851	82.542523	119234560	86650880	39740920	24992
852	2.804023	119234560	86650880	52342792	24992
853	4.230116	119234560	86650880	55147120	24992
854	8.673181	119234560	86650880	46410400	24992
855	7.141319	119234560	86650880	51096728	24992
856	8.519856	119234560	86650880	56719080	24992
857	11.629751	119234560	86650880	48557168	24992
858	11.242074	119234560	86650880	56085968	24992
859	13.182714	119234560	86650880	48723400	24992
860	14.056203	119234560	86650880	58096584	24992
861	15.946322	119234560	86650880	52299528	24992
862	17.883013	119234560	86650880	48440800	24992
863	20.357128	119234560	86650880	46279904	24992
864	19.683107	119234560	86650880	59462616	24992
865	21.497406	119234560	86650880	57227776	24992
866	23.223509	119234560	86650880	56303248	24992
867	25.01251	119234560	86650880	56485104	24992
868	27.031669	119234560	86650880	57614680	24992
869	28.194988	119234560	86650880	59492408	24992
870	30.531621	119234560	86650880	48467480	24992
871	32.049092	119234560	86650880	53933448	24992
872	33.574494	119234560	86650880	59355720	24992
873	35.991803	119234560	86650880	51306360	24992
874	36.914096	119234560	86650880	59184640	24992
875	38.6495	119234560	86650880	53205592	24992
876	42.16657	119234560	86650880	50120984	24992
877	42.808845	119234560	86650880	64178912	24992
878	42.692145	119234560	86650880	61052352	24992
879	45.455544	119234560	86650880	59741704	24992
880	54.168559	122478592	90320896	65121312	24992
881	78.748391	121262080	91369472	25290072	24992
882	57.228303	123961344	91369472	31485664	24992
883	56.020369	123961344	91369472	39583160	24992
884	57.547627	123961344	91369472	48526720	24992
885	63.581773	123961344	91369472	47089048	24992
886	60.214315	123961344	91369472	57977360	24992
887	66.035571	125853696	93466624	58339384	24992
888	84.784081	115150848	84553728	22889152	24992
889	65.736783	117039104	84553728	35951168	24992
890	70.540769	117039104	84553728	39219616	24992
891	73.650426	117039104	84553728	43422672	24992
892	71.527968	117039104	84553728	48718600	24992
893	80.383515	117579776	85078016	54978128	24992
894	101.080654	122175488	89796608	31863632	24992
895	77.262587	122175488	89796608	40088208	24992
896	78.876247	122175488	89796608	49228960	24992
897	80.381926	122175488	89796608	59388720	24992
898	85.664069	122716160	90320896	58891720	24992
899	117.56233	123715584	93466624	38739152	24992
900	87.464632	125603840	93466624	39604712	24992
901	86.705386	125603840	93466624	53548632	24992
902	2.988627	125603840	93466624	57947816	24992
903	4.349871	125603840	93466624	60894024	24992
904	5.939973	125603840	93466624	64831632	24992
905	10.107185	125603840	93466624	56575216	24992
906	8.962601	125603840	93466624	62489272	24992
907	11.972524	126144512	93466624	54669184	24992
908	11.951244	126144512	93466624	62558304	24992
909	14.433052	126144512	93466624	56223792	24992
910	15.155479	126144512	93466624	66114576	24992
911	17.781591	126144512	93466624	61177520	24992
912	19.394803	126144512	93466624	58159224	24992
913	21.204023	126144512	93466624	56642448	24992
914	22.884041	126144512	93466624	56322512	24992
915	24.344793	126144512	93466624	57154456	24992
916	25.746922	126144512	93466624	58777576	24992
917	27.658283	126144512	93466624	61052800	24992
918	29.447814	126144512	93466624	63999736	24992
919	29.649932	126144512	93466624	67436288	24992
920	33.833858	126144512	93466624	57976008	24992
921	37.297754	126144512	93466624	67539976	24992
922	37.342622	126685184	93990912	61291272	24992
923	41.119482	129118208	96612352	72838408	24992
924	59.535376	122245120	92418048	16786448	24992
925	45.97299	124674048	92418048	28724592	24992
926	43.129626	124674048	92418048	26015936	24992
927	48.495743	124674048	92418048	29940312	24992
928	49.876714	124674048	92418048	34611640	24992
929	52.404953	124674048	92418048	40287608	24992
930	53.098294	124674048	92418048	47038176	24992
931	54.05761	124674048	92418048	54785608	24992
932	66.183229	125485056	92942336	52045784	24992
933	80.704072	119717888	89272320	31402520	24992
934	62.363125	121610240	89272320	30265728	24992
935	61.739757	121610240	89272320	42000056	24992
936	66.914287	121610240	89272320	43266080	24992
937	65.194162	121610240	89272320	57086736	24992
938	69.353109	121610240	89272320	60422696	24992
939	95.408343	126746624	94515200	64778304	24992
940	74.442533	126480384	93990912	34695648	24992
941	75.456349	126480384	93990912	41369272	24992
942	76.163585	126480384	93990912	48564416	24992
943	82.194599	126480384	93990912	57149560	24992
944	81.436412	126480384	93990912	66488680	24992
945	113.55381	121909248	89272320	33335816	24992
946	81.779556	121909248	89272320	44842200	24992
947	87.56068	121909248	89272320	46016648	24992
948	86.025306	121909248	89272320	59576408	24992
949	94.560443	126504960	94515200	62694480	24992
950	125.055135	127684608	95563776	32160200	24992
951	92.558532	127684608	95563776	49173536	24992
952	3.10049	127684608	95563776	56332344	24992
953	4.59514	127684608	95563776	59424864	24992
954	9.108829	127684608	95563776	51086960	24992
955	7.755966	127684608	95563776	56245136	24992
956	11.430308	127684608	95563776	48452544	24992
957	10.965688	127684608	95563776	55799568	24992
958	13.415145	127684608	95563776	49060536	24992
959	14.05341	127684608	95563776	58429080	24992
960	16.813965	127684608	95563776	53272016	24992
961	18.96297	127684608	95563776	50029120	24992
962	19.096602	127684608	95563776	62558888	24992
963	20.861713	127684608	95563776	59726216	24992
964	23.067105	127684608	95563776	58526952	24992
965	24.695919	127684608	95563776	58542168	24992
966	26.07812	127684608	95563776	59589432	24992
967	27.855747	127684608	95563776	61608520	24992
968	31.274041	127684608	95563776	51057584	24992
969	35.092525	127684608	95563776	59572392	24992
970	32.964995	127684608	95563776	65205080	24992
971	36.419709	127684608	95563776	57759168	24992
972	39.660331	127684608	95563776	69291800	24992
973	40.280335	127684608	95563776	64295568	24992
974	42.658111	128225280	95563776	61424048	24992
975	47.653255	129576960	97136640	64497640	24992
976	55.637018	134172672	101855232	68518448	24992
977	67.534989	122871808	92418048	34031448	24992
978	54.48981	124760064	92418048	38551216	24992
979	59.541013	124760064	92418048	34204416	24992
980	55.329453	124760064	92418048	42421600	24992
981	58.205954	124760064	92418048	51798016	24992
982	62.589048	124760064	92418048	50626760	24992
983	63.130592	124760064	92418048	62067816	24992
984	94.128394	121196544	91369472	30342000	24992
985	68.362714	123625472	91369472	31748136	24992
986	65.481799	123625472	91369472	46339144	24992
987	72.305046	123625472	91369472	50499792	24992
988	72.37945	123625472	91369472	55681064	24992
989	76.83587	124436480	91893760	61943792	24992
990	106.182109	128761856	98185216	35810920	24992
991	80.700257	130654208	98185216	43511928	24992
992	78.968852	130654208	98185216	53031400	24992
993	84.071403	130654208	98185216	52074272	24992
994	84.650328	130654208	98185216	63628744	24992
995	95.278836	130654208	98185216	76274408	24992
996	103.571892	129024000	96612352	40323176	24992
997	91.408186	129024000	96612352	43535720	24992
998	92.808912	129024000	96612352	47902312	24992
999	92.269109	129024000	96612352	64798872	24992
1000	123.831566	123842560	91369472	23717640	24992
