x	Duration	RSS	HeapTotal	HeapUsed	External
0	NA	102330368	69873664	12107760	24992
1	0.323761	102330368	69873664	12159576	24992
2	0.276707	102330368	69873664	12236168	24992
3	0.28755	102330368	69873664	12339792	24992
4	0.340778	102330368	69873664	12471992	24992
5	0.420322	102330368	69873664	12634264	24992
6	0.485961	102330368	69873664	12827064	24992
7	0.542636	102330368	69873664	13051360	24992
8	0.627463	102330368	69873664	13308240	24992
9	0.685875	102330368	69873664	13599440	24992
10	1.114703	102330368	69873664	13925768	24992
11	0.893075	102330368	69873664	14287984	24992
12	0.947425	102330368	69873664	14687184	24992
13	1.04369	102330368	69873664	15127944	24992
14	1.100688	102330368	69873664	15604064	24992
15	1.162194	102330368	69873664	16120000	24992
16	1.253875	102330368	69873664	16676896	24992
17	1.207039	102330368	69873664	17277440	24992
18	1.044901	102330368	69873664	17920784	24992
19	1.123864	102330368	69873664	18609008	24992
20	1.242105	102330368	69873664	19341944	24992
21	1.263355	102330368	69873664	20121024	24992
22	1.341047	102330368	69873664	20947136	24992
23	1.650249	102330368	69873664	21821336	24992
24	1.774817	102330368	69873664	22745624	24992
25	1.933458	102330368	69873664	23721888	24992
26	1.82193	102330368	69873664	24748584	24992
27	1.773536	102330368	69873664	25826840	24992
28	1.95617	102330368	69873664	26958952	24992
29	2.081611	102330368	69873664	28146080	24992
30	2.615294	102330368	69873664	13131672	24992
31	2.322602	102330368	69873664	14431504	24992
32	2.149402	102330368	69873664	15792760	24992
33	2.196967	102330368	69873664	17216272	24992
34	2.283745	102330368	69873664	18699848	24992
35	2.557257	102330368	69873664	20244416	24992
36	3.732847	102330368	69873664	21852200	24992
37	3.111278	102330368	69873664	23540552	24992
38	2.583061	102330368	69873664	25273136	24992
39	2.801353	102330368	69873664	27070504	24992
40	3.276557	102330368	69873664	28937808	24992
41	4.476534	102330368	69873664	14678416	24992
42	2.971737	102330368	69873664	16683544	24992
43	3.298686	102330368	69873664	18749400	24992
44	3.426706	102330368	69873664	20885072	24992
45	3.515554	102330368	69873664	23092448	24992
46	3.841144	102330368	69873664	25371312	24992
47	3.555898	102330368	69873664	27723472	24992
48	4.78544	102330368	69873664	14044648	24992
49	3.931089	102330368	69873664	16546168	24992
50	3.938471	102330368	69873664	19126952	24992
51	3.888483	102330368	69873664	21787416	24992
52	0.266014	102330368	69873664	24439224	24992
53	0.392539	102330368	69873664	24680864	24992
54	0.505679	102330368	69873664	25004528	24992
55	0.628006	102330368	69873664	25411312	24992
56	0.748298	102330368	69873664	25902608	24992
57	0.887208	102330368	69873664	26478872	24992
58	0.992138	102330368	69873664	27141064	24992
59	1.120197	102330368	69873664	27890296	24992
60	1.252802	102330368	69873664	28728336	24992
61	1.375924	102330368	69873664	29655528	24992
62	2.654436	102330368	69873664	14385720	24992
63	1.666722	102330368	69873664	15493360	24992
64	1.77507	102330368	69873664	16692872	24992
65	1.926322	102330368	69873664	17985232	24992
66	2.18094	102330368	69873664	19372352	24992
67	2.193949	102330368	69873664	20853104	24992
68	2.39128	102330368	69873664	22431552	24992
69	2.465181	102330368	69873664	24106960	24992
70	2.628658	102330368	69873664	25881776	24992
71	2.773293	102330368	69873664	27755736	24992
72	2.910163	102330368	69873664	29727096	24992
73	4.157066	102330368	69873664	15486560	24992
74	3.46074	102330368	69873664	17660184	24992
75	3.610849	102330368	69873664	19936216	24992
76	3.805519	102330368	69873664	22315920	24992
77	3.683085	102330368	69873664	24800040	24992
78	4.101247	102330368	69873664	27392184	24992
79	3.995436	102330368	69873664	30088320	24992
80	5.486584	102330368	69873664	16532664	24992
81	5.393617	102330368	69873664	19457440	24992
82	4.506877	102330368	69873664	22478584	24992
83	4.847539	102330368	69873664	25615280	24992
84	5.020875	102330368	69873664	28869456	24992
85	5.791341	102330368	69873664	16146136	24992
86	5.304925	102330368	69873664	19625192	24992
87	5.276525	102330368	69873664	23221072	24992
88	5.679335	102330368	69873664	26932360	24992
89	6.847385	102330368	69873664	15173496	24992
90	6.079165	102330368	69873664	19120456	24992
91	6.006102	102330368	69873664	23186480	24992
92	6.366507	102330368	69873664	27372720	24992
93	7.594298	102330368	69873664	16070464	24992
94	6.610271	102330368	69873664	20500448	24992
95	6.920796	102330368	69873664	25053504	24992
96	6.952429	102330368	69873664	29730808	24992
97	8.483102	102330368	69873664	18597488	24992
98	8.485061	102330368	69873664	23535640	24992
99	8.166228	102330368	69873664	28602296	24992
100	9.424056	102330368	69873664	18072136	24992
101	8.030309	102330368	69873664	23385384	24992
102	0.426489	102330368	69873664	28813744	24992
103	0.816826	102330368	69873664	29217464	24992
104	0.833113	102330368	69873664	29757304	24992
105	1.012192	102330368	69873664	30434208	24992
106	1.212598	102330368	69873664	31249624	24992
107	2.413896	102330368	69873664	16147736	24992
108	1.725038	102330368	69873664	17242848	24992
109	1.950801	102330368	69873664	18478376	24992
110	2.153629	102330368	69873664	19856992	24992
111	2.434343	102330368	69873664	21378352	24992
112	2.451572	102330368	69873664	23043896	24992
113	2.864051	102330368	69873664	24854440	24992
114	2.883017	102330368	69873664	26810528	24992
115	3.137543	102330368	69873664	28916856	24992
116	3.294671	102330368	69873664	31167656	24992
117	4.51892	102330368	69873664	17515448	24992
118	3.942499	102330368	69873664	20066720	24992
119	3.989322	102330368	69873664	22768728	24992
120	4.173312	102330368	69873664	25623048	24992
121	4.60959	102330368	69873664	28629632	24992
122	4.622033	102330368	69873664	31794976	24992
123	6.129846	102330368	69873664	18960176	24992
124	5.12432	102330368	69873664	22431064	24992
125	5.502037	102330368	69873664	26058624	24992
126	5.568466	102330368	69873664	29847656	24992
127	7.179293	102330368	69873664	17977312	24992
128	6.010398	102330368	69873664	22081856	24992
129	6.490824	102330368	69873664	26345696	24992
130	6.496862	102330368	69873664	30772512	24992
131	8.008616	102330368	69873664	19391912	24992
132	6.97333	102330368	69873664	24144392	24992
133	7.377979	102330368	69873664	29062296	24992
134	9.468953	102330368	69873664	18508688	24992
135	8.486536	102330368	69873664	23768088	24992
136	7.989195	102330368	69873664	29189688	24992
137	9.917286	102330368	69873664	19132328	24992
138	8.605833	102330368	69873664	24893208	24992
139	9.589884	102330368	69873664	30822696	24992
140	10.320781	102330368	69873664	21030624	24992
141	9.804174	102330368	69873664	27304576	24992
142	11.355805	102330368	69873664	18496120	24992
143	9.815628	102330368	69873664	25121040	24992
144	10.48198	102330368	69873664	31924616	24992
145	11.913031	102330368	69873664	22867560	24992
146	10.985301	102330368	69873664	30027360	24992
147	12.842936	102330368	69873664	21710088	24992
148	11.570944	102330368	69873664	29232568	24992
149	13.087581	102330368	69873664	21393056	24992
150	12.278994	102330368	69873664	29276856	24992
151	13.725696	102330368	69873664	21830608	24992
152	0.613916	102330368	69873664	30118424	24992
153	0.853401	102330368	69873664	30673840	24992
154	1.132879	102330368	69873664	31415960	24992
155	1.452353	102330368	69873664	32345824	24992
156	1.714577	102330368	69873664	33465544	24992
157	3.411099	102330368	69873664	18695752	24992
158	2.245873	102330368	69873664	20195328	24992
159	2.577997	102330368	69873664	21886080	24992
160	2.808524	102330368	69873664	23770368	24992
161	3.122652	102330368	69873664	25848328	24992
162	3.364521	102330368	69873664	28120672	24992
163	3.675037	102330368	69873664	30588528	24992
164	4.077242	102330368	69873664	33252912	24992
165	5.687333	102330368	69873664	20062880	24992
166	5.108295	102330368	69873664	23127120	24992
167	4.872732	102330368	69873664	26386624	24992
168	5.371454	102330368	69873664	29854240	24992
169	5.559644	102330368	69873664	33517480	24992
170	7.496299	102330368	69873664	21300320	24992
171	6.101274	102330368	69873664	25372528	24992
172	6.656378	102330368	69873664	29645792	24992
173	6.664637	102330368	69873664	34125360	24992
174	8.32269	102330368	69873664	22635464	24992
175	7.493315	102330368	69873664	27527512	24992
176	7.647693	102330368	69873664	32627712	24992
177	9.810244	102330368	69873664	22025624	24992
178	8.743996	102330368	69873664	27545048	24992
179	8.8521	102330368	69873664	33275440	24992
180	10.181176	102330368	69873664	23211832	24992
181	9.541468	102330368	69873664	29368304	24992
182	11.419151	102330368	69873664	20435912	24992
183	10.203789	102330368	69873664	27029776	24992
184	10.607312	102330368	69873664	33837640	24992
185	12.306827	102330368	69873664	24807272	24992
186	10.841631	102330368	69873664	32056408	24992
187	12.879697	102330368	69873664	23810816	24992
188	11.978543	102330368	69873664	31492104	24992
189	14.132795	102330368	69873664	23787688	24992
190	12.5008	102330368	69873664	31911744	24992
191	14.36682	102330368	69873664	24590360	24992
192	12.854371	102330368	69873664	33161464	24992
193	15.325871	102330368	69873664	26112176	24992
194	13.993901	102330368	69873664	35137472	24992
195	15.579371	102330368	69873664	28207984	24992
196	16.973823	102330368	69873664	22713672	24992
197	15.13941	102330368	69873664	32425224	24992
198	17.305431	102330368	69873664	26667744	24992
199	18.750292	102330368	69873664	22193840	24992
200	16.378806	102330368	69873664	32591232	24992
201	19.319732	102330368	69873664	27542960	24992
202	0.980955	102330368	69873664	23792448	24992
203	1.107962	102330368	69873664	24494128	24992
204	1.442959	102330368	69873664	25431352	24992
205	1.795991	102330368	69873664	26605016	24992
206	2.150437	102330368	69873664	28016560	24992
207	2.511714	102330368	69873664	29674768	24992
208	3.096909	102330368	69873664	31580528	24992
209	3.235049	102330368	69873664	33734880	24992
210	3.675053	102330368	69873664	36146896	24992
211	5.647877	102330368	69873664	22661384	24992
212	4.611614	102330368	69873664	25568248	24992
213	4.990321	102330368	69873664	28728160	24992
214	5.480172	102330368	69873664	32142752	24992
215	5.769618	102330368	69873664	35810104	24992
216	7.810951	102330368	69873664	23650064	24992
217	6.614367	102330368	69873664	27832912	24992
218	7.014966	102330368	69873664	32282520	24992
219	7.51041	102330368	69873664	36979456	24992
220	9.255032	102330368	69873664	25670576	24992
221	8.205483	102330368	69873664	30888752	24992
222	8.591708	102330368	69873664	36366880	24992
223	10.406781	102330368	69873664	25954584	24992
224	9.588801	102330368	69873664	31958816	24992
225	11.769864	102330368	69873664	22813624	24992
226	10.476106	102330368	69873664	29347880	24992
227	10.657943	102330368	69873664	36149752	24992
228	12.698668	102330368	69873664	27122032	24992
229	11.711237	102330368	69873664	34463856	24992
230	13.804636	102330368	69873664	26315040	24992
231	12.389432	102330368	69873664	34210280	24992
232	14.826658	102330368	69873664	26624592	24992
233	13.569189	102330368	69873664	35065336	24992
234	15.472944	102330368	69873664	27939032	24992
235	14.40492	102330368	69873664	36940712	24992
236	15.875869	102330368	69873664	30050640	24992
237	17.439516	102330368	69873664	24610736	24992
238	15.60972	102330368	69873664	34450040	24992
239	17.890194	102330368	69873664	28853584	24992
240	19.482428	102330368	69873664	24514224	24992
241	17.055972	102330368	69873664	35193528	24992
242	19.733489	102330368	69873664	30339064	24992
243	20.173357	102330368	69873664	26616552	24992
244	18.254797	102330368	69873664	38148712	24992
245	20.005757	102330368	69873664	33680728	24992
246	20.947579	102330368	69873664	30306160	24992
247	22.376645	102330368	69873664	27770472	24992
248	23.150186	102330368	69873664	25980416	24992
249	20.647817	102330368	69873664	38950040	24992
250	22.613578	102330368	69873664	35885784	24992
251	23.728609	102330368	69873664	33673048	24992
252	0.965297	102330368	69873664	32275560	24992
253	1.419363	102330368	69873664	33157040	24992
254	1.863499	102330368	69873664	34333728	24992
255	2.515758	102330368	69873664	35806744	24992
256	2.776744	102330368	69873664	37577608	24992
257	3.268169	102330368	69873664	39646632	24992
258	5.726482	102330368	69873664	25686424	24992
259	4.173679	102330368	69873664	28356576	24992
260	4.659626	102330368	69873664	31335296	24992
261	5.134837	102330368	69873664	34610032	24992
262	5.617064	102330368	69873664	38186136	24992
263	8.022096	102330368	69873664	25981888	24992
264	6.577886	102330368	69873664	30167168	24992
265	7.209941	102330368	69873664	34660520	24992
266	7.593024	102330368	69873664	39459968	24992
267	9.538859	102330368	69873664	28296608	24992
268	8.503859	102330368	69873664	33719120	24992
269	9.141935	102330368	69873664	39456576	24992
270	11.059964	102330368	69873664	29253344	24992
271	10.077686	102330368	69873664	35605240	24992
272	12.750559	102330368	69873664	26653392	24992
273	10.982033	102330368	69873664	33632384	24992
274	13.86324	102330368	69873664	25661912	24992
275	12.19605	102330368	69873664	33287408	24992
276	14.762778	102330368	69873664	26054120	24992
277	13.17296	102330368	69873664	34297656	24992
278	16.196317	102330368	69873664	27539256	24992
279	14.025669	102330368	69873664	36420416	24992
280	17.07471	102330368	69873664	29929896	24992
281	15.083033	102330368	69873664	39459536	24992
282	17.462392	102330368	69873664	33109368	24992
283	18.687006	102330368	69873664	28172768	24992
284	16.698647	102330368	69873664	38676536	24992
285	19.174224	102330368	69873664	33442800	24992
286	20.275016	102330368	69873664	29489344	24992
287	18.399579	102330368	69873664	40973112	24992
288	20.688439	102330368	69873664	36408600	24992
289	21.695776	102330368	69873664	32945936	24992
290	22.833883	102330368	69873664	30413296	24992
291	23.302417	102330368	69873664	28671912	24992
292	24.954558	102330368	69873664	27586304	24992
293	21.77355	102330368	69873664	41060184	24992
294	23.871425	102330368	69873664	38535856	24992
295	24.957317	102330368	69873664	36800184	24992
296	25.683091	102330368	69873664	35652480	24992
297	26.22523	102330368	69873664	35068824	24992
298	27.202007	102330368	69873664	34962792	24992
299	27.530785	102330368	69873664	35211200	24992
300	28.345717	102330368	69873664	35790192	24992
301	28.473834	102330368	69873664	36602784	24992
302	1.102077	102330368	69873664	37852504	24992
303	1.640941	102330368	69873664	38880184	24992
304	2.201709	102330368	69873664	40251888	24992
305	2.76559	102330368	69873664	41980288	24992
306	4.933748	102330368	69873664	27757912	24992
307	3.85394	102330368	69873664	30168368	24992
308	4.548982	102330368	69873664	32926800	24992
309	5.007221	102330368	69873664	36034096	24992
310	5.648177	102330368	69873664	39498472	24992
311	8.120612	102330368	69873664	27431576	24992
312	6.595362	102330368	69873664	31596744	24992
313	8.001537	102330368	69873664	36128592	24992
314	7.713044	102330368	69873664	41008272	24992
315	10.420959	102330368	69873664	30144856	24992
316	8.974822	102330368	69873664	35729240	24992
317	9.318205	102330368	69873664	41667272	24992
318	12.285925	102330368	69873664	31795424	24992
319	10.759811	102330368	69873664	38453736	24992
320	13.720239	102330368	69873664	29831144	24992
321	11.801801	102330368	69873664	37222072	24992
322	14.904152	102330368	69873664	29554784	24992
323	12.760193	102330368	69873664	37661384	24992
324	16.146965	102330368	69873664	30615760	24992
325	13.851608	102330368	69873664	39457488	24992
326	17.163556	102330368	69873664	32859640	24992
327	15.436044	102330368	69873664	42420928	24992
328	17.954774	102330368	69873664	36052536	24992
329	19.299112	102330368	69873664	31169264	24992
330	17.121809	102330368	69873664	41841096	24992
331	19.724548	102330368	69873664	36690584	24992
332	21.078961	102330368	69873664	32854232	24992
333	22.121773	102330368	69873664	30039968	24992
334	20.33501	102330368	69873664	42203920	24992
335	23.619299	102330368	69873664	38565488	24992
336	24.09968	102330368	69873664	35960664	24992
337	23.92343	102330368	69873664	34154352	24992
338	24.985898	102330368	69873664	33045256	24992
339	25.27584	102330368	69873664	32530280	24992
340	26.430263	102330368	69873664	32487976	24992
341	27.887693	102330368	69873664	32863512	24992
342	27.906592	102330368	69873664	33568376	24992
343	28.691426	102330368	69873664	34562040	24992
344	29.685459	102330368	69873664	35755840	24992
345	29.519415	102330368	69873664	37144696	24992
346	30.3206	102330368	69873664	38675352	24992
347	30.617123	102330368	69873664	40329424	24992
348	31.448327	102330368	69873664	42108944	24992
349	31.408027	102330368	69873664	43973672	24992
350	35.754785	102330368	69873664	32433952	24992
351	34.047936	102330368	69873664	36801968	24992
352	1.30946	102330368	69873664	41124992	24992
353	1.896404	102330368	69873664	42298816	24992
354	2.528087	102330368	69873664	43865512	24992
355	5.471123	102330368	69873664	29664112	24992
356	3.951903	102330368	69873664	32022360	24992
357	4.569498	102330368	69873664	34773992	24992
358	5.413832	102330368	69873664	37925136	24992
359	5.600667	102330368	69873664	41471216	24992
360	8.911521	102330368	69873664	29682544	24992
361	6.972864	102330368	69873664	34036968	24992
362	7.517147	102330368	69873664	38797432	24992
363	8.342084	102330368	69873664	43963552	24992
364	11.254544	102330368	69873664	33367312	24992
365	9.173978	102330368	69873664	39348064	24992
366	12.887264	102330368	69873664	30392168	24992
367	10.827495	102330368	69873664	37191992	24992
368	11.755974	102330368	69873664	44412456	24992
369	14.470355	102330368	69873664	35790064	24992
370	12.962849	102330368	69873664	43841984	24992
371	15.540219	102330368	69873664	36197872	24992
372	14.113658	102330368	69873664	45067024	24992
373	17.33761	102330368	69873664	38029424	24992
374	18.777992	102330368	69873664	32620616	24992
375	16.569591	102330368	69873664	42744104	24992
376	19.69286	102330368	69873664	37378576	24992
377	20.840994	102330368	69873664	33375704	24992
378	18.193571	102330368	69873664	44752640	24992
379	21.009831	102330368	69873664	40309168	24992
380	22.584184	102330368	69873664	37089104	24992
381	23.715724	102330368	69873664	34849208	24992
382	24.667578	102330368	69873664	33455936	24992
383	25.793848	102330368	69873664	32750560	24992
384	26.653112	102330368	69873664	32603192	24992
385	26.987016	102330368	69873664	32962928	24992
386	28.031001	102330368	69873664	33690040	24992
387	28.871813	102330368	69873664	34697048	24992
388	29.244181	102330368	69873664	35998344	24992
389	29.542609	102330368	69873664	37515856	24992
390	31.11588	102330368	69873664	39165816	24992
391	30.898779	102330368	69873664	40976120	24992
392	31.042829	102330368	69873664	42916896	24992
393	31.483417	102330368	69873664	44961200	24992
394	36.815368	102330368	69873664	33800560	24992
395	36.808745	102330368	69873664	41172080	24992
396	34.23311	102330368	69873664	45403200	24992
397	34.836827	102330368	69873664	49330368	24992
398	39.481683	102330368	69873664	39584992	24992
399	36.538933	102330368	69873664	45415880	24992
400	42.639741	103141376	70922240	37865648	24992
401	42.978737	105844736	74067968	47824584	24992
402	4.869612	106115072	74067968	38373632	24992
403	2.359092	106115072	74067968	39707120	24992
404	3.142488	106115072	74067968	41486824	24992
405	5.399241	106115072	74067968	43714104	24992
406	7.110121	106115072	74067968	46389240	24992
407	8.723836	106115072	74067968	49513336	24992
408	12.348782	103493632	71446528	16101696	24992
409	6.904185	103493632	71446528	20132024	24992
410	7.093055	103493632	71446528	24610336	24992
411	8.609673	103493632	71446528	13829392	24992
412	8.562888	103493632	71446528	19219968	24992
413	9.071572	103493632	71446528	25074368	24992
414	10.826458	103493632	71446528	15592208	24992
415	10.616476	103493632	71446528	22360328	24992
416	12.496891	103493632	71446528	14272432	24992
417	12.052625	103493632	71446528	21957640	24992
418	13.926738	103493632	71446528	14913800	24992
419	13.469472	103493632	71446528	23565968	24992
420	15.319172	103493632	71446528	17181288	24992
421	15.099305	103493632	71446528	26783736	24992
422	16.255569	103493632	71446528	20794048	24992
423	17.725049	103493632	71446528	16364080	24992
424	17.355413	103493632	71446528	27435944	24992
425	18.3896	103493632	71446528	22780448	24992
426	19.924739	103493632	71446528	19433288	24992
427	21.125877	103493632	71446528	17214384	24992
428	22.115309	103493632	71446528	15844056	24992
429	20.726136	103493632	71446528	29323480	24992
430	21.727626	103493632	71446528	26819352	24992
431	23.041666	103493632	71446528	25207864	24992
432	24.384309	103493632	71446528	24400656	24992
433	24.983848	103493632	71446528	24237312	24992
434	25.739677	103493632	71446528	24566872	24992
435	26.484964	103493632	71446528	25331592	24992
436	27.017015	103493632	71446528	26483384	24992
437	27.676844	103493632	71446528	27895832	24992
438	28.203745	103493632	71446528	29584272	24992
439	31.226712	103493632	71446528	17894528	24992
440	31.477039	103493632	71446528	22336552	24992
441	31.2648	103493632	71446528	26555416	24992
442	35.091544	103493632	71446528	17305416	24992
443	35.698766	103763968	71446528	26330584	24992
444	34.026572	103763968	71970816	31995464	24992
445	35.339965	104034304	73019392	23565160	24992
446	35.803842	104034304	73019392	30693320	24992
447	37.512463	104304640	74067968	23820936	24992
448	40.255336	107008000	77213696	35334400	24992
449	39.601954	107819008	78786560	29522704	24992
450	41.93105	109170688	80359424	25682552	24992
451	42.162129	111603712	82980864	38568560	24992
452	1.592912	112414720	84029440	34849688	24992
453	2.272882	112414720	84029440	36378744	24992
454	3.098132	112414720	84029440	38419128	24992
455	3.925034	112414720	84029440	40971720	24992
456	8.532365	115118080	87175168	31395448	24992
457	5.530116	115118080	87175168	34984224	24992
458	6.217799	115118080	87175168	39095968	24992
459	7.293842	115118080	87175168	43724856	24992
460	9.153119	116199424	88223744	33474040	24992
461	8.624326	116199424	88223744	39152104	24992
462	9.22711	116199424	88223744	45364016	24992
463	10.360471	116199424	88748032	35592112	24992
464	11.135509	116199424	88748032	42819632	24992
465	12.62497	116199424	89272320	34590504	24992
466	12.553522	116199424	89272320	42850344	24992
467	14.239195	116199424	89796608	35658256	24992
468	14.295949	116199424	89796608	44964696	24992
469	15.396389	116199424	90320896	38418848	24992
470	16.942447	116199424	90845184	33524384	24992
471	16.608165	116199424	90845184	44498296	24992
472	18.197886	116199424	91369472	39644416	24992
473	19.626906	116199424	91893760	36141224	24992
474	20.508571	116199424	91893760	33811304	24992
475	21.612394	116199424	91893760	32403224	24992
476	23.282941	116199424	91893760	31792032	24992
477	23.934937	116199424	91893760	31797560	24992
478	24.712107	116199424	91893760	32340936	24992
479	26.033428	116199424	91893760	33364944	24992
480	25.95553	116199424	91893760	34717056	24992
481	26.373109	116199424	91893760	36354288	24992
482	27.533789	116199424	91893760	38234496	24992
483	28.426651	116199424	91893760	40375352	24992
484	28.701263	116469760	91893760	42612888	24992
485	29.0394	116469760	91893760	45054888	24992
486	32.424244	116469760	91893760	34136312	24992
487	32.192188	116469760	91893760	39244688	24992
488	32.151384	116469760	91893760	43990880	24992
489	34.530509	116740096	91893760	35114032	24992
490	37.189447	119713792	91893760	44985400	24992
491	37.963428	120795136	91893760	38358888	24992
492	38.839526	123228160	91893760	49109960	24992
493	39.344836	123768832	91893760	43311720	24992
494	42.062585	123768832	91893760	55174576	24992
495	49.531653	123768832	91893760	49902248	24992
496	63.781966	105140224	73019392	20663176	24992
497	42.591106	105140224	73019392	34250024	24992
498	42.678404	105140224	73019392	30555528	24992
499	48.493966	105140224	73019392	33498176	24992
500	49.454564	105140224	73019392	36686232	24992
501	49.667503	105410560	73019392	40450528	24992
502	1.735798	108384256	76165120	45370528	24992
503	2.523941	108384256	76165120	47045904	24992
504	3.404196	108384256	76165120	49285152	24992
505	4.282031	108384256	76165120	52081552	24992
506	5.014671	108384256	76165120	55446872	24992
507	8.921938	110817280	78786560	45772224	24992
508	6.805448	110817280	78786560	50264808	24992
509	7.505151	110817280	78786560	55327896	24992
510	9.647087	111087616	79310848	45386544	24992
511	9.515487	111087616	79310848	51586160	24992
512	10.280159	111087616	79310848	58358016	24992
513	11.588646	111087616	79310848	49348696	24992
514	12.286746	111087616	79310848	57246736	24992
515	13.467351	111087616	79310848	49573968	24992
516	13.79425	111087616	79310848	58622784	24992
517	14.996101	111357952	79310848	51868568	24992
518	16.622879	111357952	79310848	46854304	24992
519	16.725286	111357952	79310848	57627280	24992
520	17.904931	111357952	79310848	52788824	24992
521	19.159109	111357952	79310848	49385648	24992
522	20.808216	111357952	79310848	47156856	24992
523	21.874827	111357952	79310848	45909832	24992
524	22.739169	111357952	79310848	45453128	24992
525	23.949974	111357952	79310848	45663648	24992
526	24.440587	111357952	79310848	46399912	24992
527	25.955698	111357952	79310848	47595224	24992
528	26.239209	111357952	79310848	49193520	24992
529	27.234225	111357952	79310848	51054944	24992
530	27.725893	111628288	79310848	53196528	24992
531	28.846035	111628288	79310848	55567920	24992
532	29.290442	111628288	79310848	58096744	24992
533	32.217411	111898624	79310848	47378016	24992
534	35.473411	114601984	82456576	55563592	24992
535	32.865661	114872320	82980864	60577344	24992
536	34.967165	115142656	83505152	51883400	24992
537	39.20177	118116352	86126592	61834512	24992
538	46.735333	119197696	87175168	55330592	24992
539	52.949936	110297088	78262272	20025744	24992
540	39.980601	110297088	78262272	31567600	24992
541	40.69821	110297088	78262272	26558136	24992
542	41.629127	110297088	78262272	39431232	24992
543	41.269873	110297088	78262272	34840944	24992
544	43.814121	110297088	78262272	31821728	24992
545	48.966318	110567424	78262272	34779936	24992
546	49.561414	110567424	78262272	38127192	24992
547	51.953275	111378432	78786560	42093448	24992
548	57.053223	112189440	79835136	46700072	24992
549	59.881535	117055488	85078016	51841056	24992
550	72.241786	114429952	84029440	27714224	24992
551	55.874471	116318208	84029440	33482040	24992
552	1.891563	116318208	84029440	41070264	24992
553	2.780374	116318208	84029440	42891896	24992
554	7.343745	116588544	84029440	33137968	24992
555	4.734529	116588544	84029440	36178112	24992
556	5.769504	116588544	84029440	39843472	24992
557	6.42897	116588544	84029440	44124088	24992
558	9.56788	116588544	84029440	34603936	24992
559	8.492812	116588544	84029440	40121120	24992
560	9.369911	116588544	84029440	46268632	24992
561	10.942597	116588544	84029440	36982512	24992
562	11.37311	116588544	84029440	44384496	24992
563	12.99863	116588544	84029440	36650704	24992
564	13.183511	116588544	84029440	45285424	24992
565	15.153204	116588544	84029440	38721944	24992
566	15.27828	116588544	84029440	48638552	24992
567	16.381605	116588544	84029440	42699560	24992
568	18.294956	116588544	84029440	38454600	24992
569	19.729301	116588544	84029440	35572120	24992
570	19.011745	116588544	84029440	48011392	24992
571	20.20979	116588544	84029440	44709848	24992
572	21.869278	116588544	84029440	42642968	24992
573	23.785038	116588544	84029440	41560560	24992
574	24.26996	116588544	84029440	41332704	24992
575	25.043947	116588544	84029440	41754208	24992
576	26.687067	116588544	84029440	42753096	24992
577	27.355398	116588544	84029440	44231216	24992
578	28.225018	116588544	84029440	46095824	24992
579	28.871927	116588544	84029440	48258696	24992
580	32.206861	116588544	84029440	37307288	24992
581	31.318512	116588544	84029440	42343640	24992
582	32.943985	116588544	84029440	47177272	24992
583	35.326924	116588544	84029440	38502872	24992
584	37.557214	116588544	84029440	48520352	24992
585	38.424986	116588544	84029440	42168184	24992
586	40.000945	116588544	84029440	53428656	24992
587	40.165715	116588544	84029440	47943632	24992
588	46.821492	117669888	85078016	48882952	24992
589	41.993406	117669888	85078016	61838736	24992
590	42.670589	117669888	85078016	58011352	24992
591	57.193522	122535936	90320896	60855016	24992
592	67.175797	115658752	85602304	31367608	24992
593	50.695212	117547008	85602304	34219968	24992
594	52.750009	117547008	85602304	38746544	24992
595	53.035529	117547008	85602304	43901416	24992
596	54.977605	117547008	85602304	49806256	24992
597	55.238133	118087680	85602304	56348976	24992
598	61.51463	118087680	85602304	51975664	24992
599	63.595508	121061376	88748032	59736000	24992
600	80.235117	119693312	87175168	23479680	24992
601	59.894219	119693312	87175168	32714480	24992
602	2.052775	119693312	87175168	43118024	24992
603	3.012224	119693312	87175168	45125200	24992
604	7.731926	119693312	87175168	35583888	24992
605	5.125449	119693312	87175168	38901840	24992
606	5.986813	119693312	87175168	42886472	24992
607	7.172143	119693312	87175168	47538280	24992
608	9.887006	119693312	87175168	38171784	24992
609	9.142351	119693312	87175168	44168000	24992
610	11.180484	119693312	87175168	35501176	24992
611	11.168692	119693312	87175168	42833112	24992
612	13.416671	119693312	87175168	35734736	24992
613	13.587952	119693312	87175168	44414344	24992
614	15.340105	119693312	87175168	38381968	24992
615	15.496575	119693312	87175168	48445552	24992
616	16.919729	119693312	87175168	43032232	24992
617	18.486469	119693312	87175168	39277144	24992
618	20.146993	119693312	87175168	36875264	24992
619	20.26673	119693312	87175168	49626600	24992
620	21.373694	119693312	87175168	46723168	24992
621	22.78964	119693312	87175168	45055160	24992
622	23.942622	119693312	87175168	44296936	24992
623	25.393589	119693312	87175168	44439760	24992
624	26.508919	119693312	87175168	45197168	24992
625	27.31506	119693312	87175168	46480568	24992
626	27.726959	119693312	87175168	48220016	24992
627	29.52906	119693312	87175168	50434816	24992
628	32.729721	119693312	87175168	39379592	24992
629	32.180407	119693312	87175168	44505472	24992
630	32.814976	119693312	87175168	49429696	24992
631	35.44111	119693312	87175168	40847072	24992
632	37.367649	119693312	87175168	51197528	24992
633	38.549038	119693312	87175168	44969520	24992
634	40.358035	119693312	87175168	56695928	24992
635	40.234801	119693312	87175168	51361240	24992
636	42.442699	119693312	87175168	47959896	24992
637	43.262891	119963648	87699456	61657320	24992
638	43.607323	120233984	87699456	57940128	24992
639	45.382578	120233984	87699456	55923208	24992
640	51.763025	120774656	88223744	60052944	24992
641	73.013333	125640704	93466624	64768496	24992
642	57.526466	121835520	89796608	35448592	24992
643	55.217324	121835520	89796608	41674616	24992
644	61.308152	121835520	89796608	36956304	24992
645	56.719986	121835520	89796608	44457304	24992
646	57.299215	121835520	89796608	52629728	24992
647	57.869787	122105856	89796608	61517496	24992
648	65.14796	123187200	90845184	59677232	24992
649	90.450151	124583936	95039488	24989296	24992
650	63.806397	127553536	95039488	35179600	24992
651	62.731502	127553536	95039488	46869960	24992
652	2.199906	127553536	95039488	48523168	24992
653	3.264604	127553536	95039488	50657744	24992
654	4.303966	127553536	95039488	53533832	24992
655	8.471556	127553536	95039488	44366112	24992
656	6.66527	127553536	95039488	48643840	24992
657	7.653733	127553536	95039488	53636888	24992
658	10.590362	127553536	95039488	44614368	24992
659	9.844473	127553536	95039488	51042624	24992
660	12.337623	127553536	95039488	43002624	24992
661	12.147101	127553536	95039488	50874272	24992
662	14.180401	127553536	95039488	44273768	24992
663	14.397164	127553536	95039488	53609704	24992
664	16.517419	127553536	95039488	47958952	24992
665	18.309068	127553536	95039488	44047344	24992
666	17.684058	127553536	95039488	55549720	24992
667	19.630043	127553536	95039488	51735696	24992
668	21.097441	127553536	95039488	49359328	24992
669	23.365968	127553536	95039488	48121736	24992
670	23.614753	127553536	95039488	47863640	24992
671	25.39339	127553536	95039488	48419184	24992
672	26.10516	127553536	95039488	49642376	24992
673	27.432984	127553536	95039488	51349328	24992
674	28.325064	127553536	95039488	53530832	24992
675	29.258524	127553536	95039488	56037544	24992
676	33.612708	127553536	95039488	45638096	24992
677	34.763706	127553536	95039488	53876408	24992
678	33.353251	127553536	95039488	59163408	24992
679	36.655978	127553536	95039488	51010328	24992
680	38.615274	129986560	97660928	61520392	24992
681	39.650407	131067904	99233792	55565488	24992
682	41.406138	133771264	102379520	67465832	24992
683	41.08092	134582272	103952384	62378048	24992
684	50.439447	139718656	109719552	64253960	24992
685	64.039325	113500160	82980864	29486368	24992
686	49.731868	115388416	82980864	31538376	24992
687	51.034255	115388416	82980864	35284096	24992
688	52.726402	115388416	82980864	39831128	24992
689	53.869654	115388416	82980864	45182208	24992
690	55.295328	115388416	82980864	51186208	24992
691	55.381222	115388416	82980864	57955264	24992
692	60.705019	119173120	87175168	65491224	24992
693	86.229218	118444032	88223744	30382008	24992
694	59.550282	120332288	88223744	38696240	24992
695	65.473471	120602624	88223744	36922072	24992
696	61.056758	120602624	88223744	47441176	24992
697	68.541898	120602624	88223744	47199760	24992
698	64.890279	120602624	88223744	59286656	24992
699	77.698712	123846656	91893760	60608416	24992
700	89.966729	124260352	91893760	29048768	24992
701	71.721899	124260352	91893760	31965768	24992
702	2.340109	124260352	91893760	47750632	24992
703	3.443873	124260352	91893760	50031504	24992
704	8.489559	124260352	91893760	40839280	24992
705	5.806092	124260352	91893760	44645304	24992
706	7.013873	124260352	91893760	49222360	24992
707	10.173622	124260352	91893760	40447392	24992
708	9.377907	124260352	91893760	46547680	24992
709	10.543098	124260352	91893760	53421048	24992
710	12.08152	124260352	91893760	44719320	24992
711	13.039662	124260352	91893760	53158656	24992
712	14.292421	124260352	91893760	46094496	24992
713	16.910851	124260352	91893760	41086128	24992
714	16.778959	124260352	91893760	51804512	24992
715	18.216386	124260352	91893760	47257992	24992
716	20.430544	124260352	91893760	44311560	24992
717	21.791572	124260352	91893760	42695600	24992
718	23.355687	124260352	91893760	42167880	24992
719	24.683166	124260352	91893760	42501944	24992
720	26.126853	124260352	91893760	43613152	24992
721	26.168539	124260352	91893760	45224912	24992
722	27.793776	124260352	91893760	47434208	24992
723	29.624562	124260352	91893760	49919424	24992
724	30.056785	124260352	91893760	52767464	24992
725	33.462339	124260352	91893760	42640016	24992
726	35.679625	124260352	91893760	51486736	24992
727	33.954587	124260352	91893760	57167216	24992
728	36.859082	124260352	91893760	49023296	24992
729	36.751166	124260352	91893760	56696344	24992
730	39.015726	124260352	91893760	50308088	24992
731	47.318005	124260352	91893760	51546152	24992
732	42.188365	124530688	92418048	64820776	24992
733	43.248315	124801024	92418048	61070664	24992
734	45.79201	124801024	92418048	59202720	24992
735	59.62767	126963712	94515200	63524848	24992
736	69.830149	119070720	88748032	34508640	24992
737	58.178683	120958976	88748032	27530624	24992
738	55.906922	120958976	88748032	33928160	24992
739	55.969527	120958976	88748032	41181992	24992
740	57.68979	120958976	88748032	49320424	24992
741	58.79769	120958976	88748032	58146312	24992
742	66.466185	121229312	88748032	56361456	24992
743	87.199168	124203008	91893760	66715960	24992
744	68.144348	123756544	91369472	32950480	24992
745	63.107331	123756544	91369472	45181640	24992
746	70.423319	123756544	91369472	46438216	24992
747	70.516108	123756544	91369472	48649568	24992
748	68.379393	123756544	91369472	63085960	24992
749	75.432346	124837888	92418048	66827608	24992
750	99.519943	125120512	95039488	37574824	24992
751	75.490338	127008768	95039488	41868112	24992
752	2.52611	127008768	95039488	48895424	24992
753	3.729947	127008768	95039488	51343720	24992
754	8.220748	127008768	95039488	42282368	24992
755	6.182516	127008768	95039488	46339920	24992
756	7.59091	127008768	95039488	51210736	24992
757	10.965274	127008768	95039488	42571848	24992
758	10.083971	127008768	95039488	49064056	24992
759	12.542251	127008768	95039488	41224936	24992
760	12.632375	127008768	95039488	49348720	24992
761	15.190519	127008768	95039488	43127784	24992
762	15.650129	127008768	95039488	52895784	24992
763	17.197578	127008768	95039488	47587712	24992
764	19.363527	127008768	95039488	44134808	24992
765	20.622733	127008768	95039488	42082664	24992
766	20.377305	127008768	95039488	55136704	24992
767	22.413875	127008768	95039488	52707272	24992
768	24.316901	127008768	95039488	51568632	24992
769	25.640024	127008768	95039488	51481992	24992
770	27.11081	127008768	95039488	52247344	24992
771	27.63804	127008768	95039488	53711704	24992
772	28.67756	127008768	95039488	55679232	24992
773	33.006082	127008768	95039488	44806208	24992
774	32.217409	127008768	95039488	50121496	24992
775	33.628529	127008768	95039488	55360080	24992
776	36.767719	127008768	95039488	47129112	24992
777	36.708516	127008768	95039488	54579896	24992
778	39.374416	127008768	95039488	48276928	24992
779	46.228751	127008768	95039488	49358696	24992
780	42.852417	127008768	95039488	62506192	24992
781	43.317277	127008768	95039488	58887280	24992
782	49.551852	127549440	95039488	62523312	24992
783	56.78758	127819776	95563776	66658280	24992
784	71.546731	126771200	94515200	23086672	24992
785	54.212917	126771200	94515200	29134424	24992
786	55.43286	126771200	94515200	35864944	24992
787	57.454036	126771200	94515200	43443600	24992
788	58.836606	126771200	94515200	51744304	24992
789	64.792528	126771200	94515200	49390272	24992
790	62.426628	126771200	94515200	59522416	24992
791	93.99184	119431168	89796608	27236752	24992
792	64.129345	121860096	89796608	38299168	24992
793	68.849836	121860096	89796608	39318368	24992
794	66.572982	121860096	89796608	52798160	24992
795	72.001569	121860096	89796608	55547720	24992
796	72.693173	122130432	89796608	59248744	24992
797	91.662076	128348160	96088064	63779760	24992
798	80.357862	123830272	91893760	32700472	24992
799	76.362604	124370944	91893760	38812784	24992
800	78.085978	124370944	91893760	46000064	24992
801	79.450403	124370944	91893760	53866936	24992
802	2.837504	124370944	91893760	63437336	24992
803	4.299887	124370944	91893760	66010752	24992
804	12.164941	125992960	93990912	57167744	24992
805	7.436082	125992960	93990912	61471552	24992
806	8.735812	125992960	93990912	66634664	24992
807	18.844165	127344640	95039488	58256176	24992
808	21.891246	127344640	95039488	65164376	24992
809	15.669684	118185984	86126592	29595960	24992
810	14.665506	118452224	86126592	23171848	24992
811	14.797473	118452224	86126592	32676784	24992
812	17.104391	118452224	86126592	27314216	24992
813	19.073153	118452224	86126592	23889008	24992
814	18.841414	118452224	86126592	35971632	24992
815	20.708952	118452224	86126592	32618608	24992
816	23.141766	118452224	86126592	30794800	24992
817	24.267299	118452224	86126592	30155392	24992
818	25.814884	118452224	86126592	30497360	24992
819	26.968812	118452224	86126592	31738584	24992
820	28.034484	118452224	86126592	33628968	24992
821	29.884991	118452224	86126592	36054920	24992
822	33.237692	118452224	86126592	25471984	24992
823	33.663384	118452224	86126592	31164160	24992
824	34.972912	118452224	86126592	36638184	24992
825	37.491662	118452224	86126592	28677080	24992
826	36.714129	118452224	86126592	36445760	24992
827	40.298433	118452224	86126592	30311216	24992
828	43.300089	118452224	86126592	27102480	24992
829	43.783284	118452224	86126592	41087128	24992
830	44.576865	118452224	86126592	37772208	24992
831	46.553685	118452224	86126592	36216176	24992
832	51.964386	118452224	86126592	41388808	24992
833	53.46994	118452224	86126592	47186672	24992
834	55.407021	118452224	86126592	53891088	24992
835	57.974338	118452224	86126592	61418344	24992
836	64.41068	121696256	89796608	58460888	24992
837	89.682431	124342272	94515200	23843640	24992
838	62.631042	126771200	94515200	33332368	24992
839	62.379722	126771200	94515200	44626744	24992
840	67.915069	126771200	94515200	45170800	24992
841	64.107245	126771200	94515200	58109472	24992
842	69.256782	126771200	94515200	60652296	24992
843	72.419135	127311872	95039488	63811232	24992
844	99.060193	127016960	97136640	33515040	24992
845	76.612937	129445888	97136640	37686320	24992
846	75.974357	129445888	97136640	43644416	24992
847	77.602835	129445888	97136640	50700280	24992
848	78.158675	129445888	97136640	58604840	24992
849	80.226986	129445888	97136640	67368640	24992
850	110.675673	130818048	98709504	29267232	24992
851	83.717533	130818048	98709504	40167352	24992
852	2.828888	130818048	98709504	52710896	24992
853	4.13747	130818048	98709504	55515224	24992
854	8.621781	130818048	98709504	46898968	24992
855	6.992059	130818048	98709504	51585296	24992
856	8.405116	130818048	98709504	57207648	24992
857	11.462114	130818048	98709504	48943472	24992
858	11.403412	130818048	98709504	56463696	24992
859	13.570411	130818048	98709504	49073568	24992
860	14.200971	130818048	98709504	58442232	24992
861	16.226227	130818048	98709504	52600608	24992
862	18.34229	130818048	98709504	48715296	24992
863	19.499075	130818048	98709504	46409768	24992
864	19.709883	130818048	98709504	59576864	24992
865	21.797028	130818048	98709504	57283520	24992
866	23.363753	130818048	98709504	56379296	24992
867	24.775723	130818048	98709504	56604176	24992
868	26.48664	130818048	98709504	57773752	24992
869	27.745373	130818048	98709504	59567800	24992
870	31.369062	130818048	98709504	48533392	24992
871	31.694503	130818048	98709504	53939296	24992
872	33.018523	130818048	98709504	59358488	24992
873	35.339944	130818048	98709504	51271208	24992
874	36.113356	130818048	98709504	59103800	24992
875	38.856759	130818048	98709504	53110320	24992
876	41.747554	130818048	98709504	50025776	24992
877	43.235124	130818048	98709504	64083704	24992
878	43.489098	130818048	98709504	60957208	24992
879	46.287725	130818048	98709504	59649120	24992
880	51.907488	130818048	98709504	65028792	24992
881	55.462436	130818048	98709504	71245664	24992
882	80.658332	123908096	93466624	30057200	24992
883	56.674884	125796352	93466624	36936904	24992
884	61.13201	125796352	93466624	34363768	24992
885	58.250317	125796352	93466624	44415816	24992
886	61.002744	125796352	93466624	55295872	24992
887	66.371332	125796352	93466624	55696904	24992
888	66.488093	125796352	93466624	68715512	24992
889	97.768845	127516672	95039488	25287360	24992
890	66.500232	127516672	95039488	40240424	24992
891	71.610046	127516672	95039488	44496712	24992
892	74.838868	127516672	95039488	49786984	24992
893	75.108506	127516672	95039488	55961528	24992
894	81.401779	127516672	95039488	63114288	24992
895	99.431648	123879424	91893760	36145704	24992
896	79.606183	123879424	91893760	45431016	24992
897	84.228266	123879424	91893760	43879992	24992
898	81.831141	123879424	91893760	54979160	24992
899	85.657542	124420096	91893760	67058248	24992
900	117.35643	126418944	94515200	34754552	24992
901	90.367256	126418944	94515200	37293320	24992
902	3.072475	126418944	94515200	53411000	24992
903	4.421866	126418944	94515200	56380200	24992
904	9.17541	126418944	94515200	47844080	24992
905	7.588319	126418944	94515200	52758424	24992
906	8.723966	126418944	94515200	58675512	24992
907	11.749377	126418944	94515200	50683752	24992
908	12.118083	126418944	94515200	58566728	24992
909	14.140928	126418944	94515200	51602576	24992
910	14.830878	126418944	94515200	61501640	24992
911	16.960661	126418944	94515200	56003632	24992
912	19.288906	126418944	94515200	52491392	24992
913	21.252266	126418944	94515200	50626144	24992
914	23.440174	126418944	94515200	50128616	24992
915	24.23202	126418944	94515200	50620944	24992
916	25.559083	126418944	94515200	52116408	24992
917	27.577186	126418944	94515200	54239688	24992
918	28.96519	126418944	94515200	57039272	24992
919	29.935611	126418944	94515200	60338288	24992
920	33.593847	126418944	94515200	50763088	24992
921	36.720659	126418944	94515200	60309520	24992
922	38.35396	126418944	94515200	54121352	24992
923	39.315954	126418944	94515200	65684256	24992
924	39.951844	126418944	94515200	60995848	24992
925	48.017063	127229952	95039488	62905904	24992
926	57.458065	129662976	97660928	77158720	24992
927	57.974641	124506112	91893760	26224952	24992
928	50.530559	124506112	91893760	31024488	24992
929	52.097603	124506112	91893760	36759024	24992
930	52.740225	124506112	91893760	43504648	24992
931	54.70909	124506112	91893760	51233752	24992
932	59.475707	124506112	91893760	48495176	24992
933	63.445112	125046784	92418048	58154176	24992
934	81.799945	119570432	87175168	25623088	24992
935	60.962441	119570432	87175168	37441712	24992
936	67.241329	119570432	87175168	38685736	24992
937	65.074243	119570432	87175168	52474256	24992
938	69.876099	119570432	87175168	55809400	24992
939	73.717866	120922112	88748032	60124928	24992
940	101.040708	122245120	92418048	33794208	24992
941	77.136334	124674048	92418048	39621624	24992
942	79.71566	124674048	92418048	46868032	24992
943	78.111331	124674048	92418048	55420704	24992
944	79.022773	124674048	92418048	64791288	24992
945	94.292602	129540096	97136640	63799336	24992
946	106.192486	128573440	96612352	39165680	24992
947	87.442556	128573440	96612352	40230080	24992
948	86.107349	128573440	96612352	53663608	24992
949	96.557443	128573440	96612352	56841624	24992
950	92.883863	128573440	96612352	72364128	24992
951	127.287236	125448192	92942336	30461416	24992
952	3.067786	125448192	92942336	49326968	24992
953	7.658609	125448192	92942336	40424432	24992
954	6.638561	125448192	92942336	44569408	24992
955	7.840142	125448192	92942336	49745848	24992
956	11.61433	125448192	92942336	41927024	24992
957	11.171671	125448192	92942336	49155176	24992
958	13.860045	125448192	92942336	42042512	24992
959	14.259794	125448192	92942336	51492008	24992
960	16.814039	125448192	92942336	46085448	24992
961	18.419545	125448192	92942336	42640136	24992
962	19.229855	125448192	92942336	55172624	24992
963	21.591546	125448192	92942336	52150528	24992
964	23.015972	125448192	92942336	50732680	24992
965	24.956663	125448192	92942336	50633304	24992
966	26.500501	125448192	92942336	51661160	24992
967	27.610522	125448192	92942336	53673448	24992
968	31.712861	125448192	92942336	42958696	24992
969	34.981147	125448192	92942336	51418000	24992
970	34.071869	125448192	92942336	57209456	24992
971	36.035242	125448192	92942336	49420624	24992
972	37.249505	125448192	92942336	57506600	24992
973	38.880157	125448192	92942336	51791160	24992
974	42.521518	125448192	92942336	49193808	24992
975	47.812372	125448192	92942336	52219784	24992
976	49.559098	125448192	92942336	56200664	24992
977	51.526547	127070208	95039488	61205944	24992
978	72.87769	131936256	99758080	67316752	24992
979	58.418232	127799296	95563776	37343840	24992
980	60.877952	127799296	95563776	34153120	24992
981	57.124105	127799296	95563776	43493600	24992
982	58.363805	127799296	95563776	53713760	24992
983	63.186122	127799296	95563776	53621376	24992
984	62.526209	127799296	95563776	66058912	24992
985	74.680984	128610304	96088064	68124488	24992
986	89.162632	125853696	93466624	33915400	24992
987	72.195826	125853696	93466624	38189856	24992
988	72.52154	125853696	93466624	43382440	24992
989	76.55948	125853696	93466624	49600624	24992
990	76.209433	125853696	93466624	56886936	24992
991	91.399249	126935040	94515200	65388624	24992
992	87.521712	124858368	92418048	38062312	24992
993	86.057477	124858368	92418048	37031968	24992
994	81.95269	124858368	92418048	48646520	24992
995	85.270219	124858368	92418048	61372512	24992
996	112.747859	127291392	95039488	63594624	24992
997	96.58195	124907520	92418048	33023960	24992
998	88.853437	124907520	92418048	48999736	24992
999	95.724246	124907520	92418048	54477120	24992
1000	97.486907	124907520	92418048	61082672	24992
