x	Duration	RSS	HeapTotal	HeapUsed	External
0	NA	107581440	75116544	11875520	24992
1	0.604377	107581440	75116544	11924040	24992
2	0.493978	107581440	75116544	11995728	24992
3	0.573194	107581440	75116544	12092624	24992
4	0.688728	107581440	75116544	12215912	24992
5	0.81927	107581440	75116544	12367040	24992
6	1.209287	107581440	75116544	12546792	24992
7	0.586139	107581440	75116544	12755976	24992
8	0.653005	107581440	75116544	12995616	24992
9	1.093127	107581440	75116544	13267560	24992
10	0.857626	107581440	75116544	13571896	24992
11	1.245679	107581440	75116544	13909320	24992
12	1.023235	107581440	75116544	14285272	24992
13	1.069841	107581440	75116544	14693096	24992
14	1.169647	107581440	75116544	15137504	24992
15	1.25936	107581440	75116544	15619376	24992
16	1.35551	107581440	75116544	16139688	24992
17	1.515492	107581440	75116544	16701200	24992
18	1.062296	107581440	75116544	17303480	24992
19	1.135244	107581440	75116544	17947536	24992
20	1.202111	107581440	75116544	18633392	24992
21	1.280487	107581440	75116544	19362304	24992
22	1.698274	107581440	75116544	20135208	24992
23	1.745051	107581440	75116544	20955200	24992
24	1.565065	107581440	75116544	21825136	24992
25	1.647635	107581440	75116544	22735584	24992
26	1.569301	107581440	75116544	23694152	24992
27	1.642176	107581440	75116544	24702384	24992
28	1.86792	107581440	75116544	25761280	24992
29	2.540194	107581440	75116544	26871424	24992
30	1.958637	107581440	75116544	28032768	24992
31	3.153111	107581440	75116544	12991368	24992
32	2.19172	107581440	75116544	14263616	24992
33	2.156553	107851776	75116544	15594872	24992
34	2.223081	107851776	75116544	16982184	24992
35	2.305772	107851776	75116544	18426440	24992
36	2.44804	107851776	75116544	19928712	24992
37	2.638789	107851776	75116544	21491584	24992
38	2.574455	107851776	75116544	23112768	24992
39	2.674349	107851776	75116544	24794624	24992
40	3.502997	107851776	75116544	26539808	24992
41	2.94592	107851776	75116544	28349120	24992
42	5.462635	107851776	75116544	14532880	24992
43	3.242025	107851776	75116544	16467128	24992
44	3.120429	107851776	75116544	18467536	24992
45	3.285577	107851776	75116544	20535008	24992
46	3.395137	107851776	75116544	22669184	24992
47	3.656326	107851776	75116544	24871360	24992
48	4.303514	107851776	75116544	27143648	24992
49	6.046615	107851776	75116544	14155248	24992
50	3.839482	107851776	75116544	16568192	24992
51	3.898051	107851776	75116544	19055232	24992
52	0.265527	107851776	75116544	21523424	24992
53	0.390138	107851776	75116544	21750216	24992
54	0.5049	107851776	75116544	22053792	24992
55	0.626734	107851776	75116544	22435040	24992
56	0.754198	107851776	75116544	22895368	24992
57	0.880209	107851776	75116544	23435216	24992
58	0.99294	107851776	75116544	24055520	24992
59	1.11868	107851776	75116544	24757192	24992
60	1.262045	107851776	75116544	25542104	24992
61	1.377946	107851776	75116544	26410224	24992
62	1.708667	107851776	75116544	27364072	24992
63	1.933899	107851776	75116544	28401552	24992
64	1.788316	107851776	75116544	29524968	24992
65	3.589828	107851776	75116544	14941328	24992
66	2.267938	107851776	75116544	16239528	24992
67	2.301263	107851776	75116544	17628144	24992
68	2.622286	107851776	75116544	19106744	24992
69	2.599529	107851776	75116544	20676008	24992
70	2.767443	107851776	75116544	22337296	24992
71	2.902136	107851776	75116544	24090944	24992
72	3.710168	107851776	75116544	25938104	24992
73	3.1729	107851776	75116544	27879496	24992
74	3.299189	107851776	75116544	29924240	24992
75	4.886753	107851776	75116544	16160040	24992
76	3.57124	107851776	75116544	18390040	24992
77	3.751378	107851776	75116544	20719272	24992
78	4.162124	107851776	75116544	23146368	24992
79	3.997499	107851776	75116544	25674424	24992
80	4.79582	107851776	75116544	28306320	24992
81	6.238652	107851776	75116544	15352984	24992
82	4.47615	107851776	75116544	18186096	24992
83	5.06928	107851776	75116544	21127392	24992
84	5.004902	107851776	75116544	24174816	24992
85	5.18686	107851776	75116544	27327008	24992
86	5.111297	107851776	75116544	30585592	24992
87	6.679695	107851776	75116544	17941440	24992
88	5.475873	107851776	75116544	21415640	24992
89	5.629254	107851776	75116544	24998848	24992
90	6.432631	107851776	75116544	28692448	24992
91	7.66416	107851776	75116544	16756264	24992
92	6.244576	107851776	75116544	20673072	24992
93	6.59622	107851776	75116544	24702560	24992
94	6.706886	107851776	75116544	28845928	24992
95	8.565475	107851776	75116544	17339680	24992
96	7.503909	107851776	75116544	21717080	24992
97	7.250307	107851776	75116544	26208688	24992
98	7.290025	107851776	75116544	30819320	24992
99	9.058865	107851776	75116544	19545776	24992
100	7.654088	107851776	75116544	24396920	24992
101	8.041272	107851776	75116544	29366536	24992
102	0.458755	107851776	75116544	18669656	24992
103	0.666261	107851776	75116544	19035920	24992
104	0.86947	107851776	75116544	19529400	24992
105	1.077413	107851776	75116544	20151120	24992
106	1.290567	107851776	75116544	20902416	24992
107	1.519974	107851776	75116544	21783728	24992
108	1.728747	107851776	75116544	22795944	24992
109	2.126875	107851776	75116544	23939904	24992
110	2.028007	107851776	75116544	25217696	24992
111	2.243991	107851776	75116544	26629240	24992
112	2.446361	107851776	75116544	28175424	24992
113	2.654163	107851776	75116544	29857144	24992
114	3.082268	107851776	75116544	31675312	24992
115	4.553259	107851776	75116544	17601920	24992
116	3.628632	107851776	75116544	19695840	24992
117	3.531064	107851776	75116544	21930024	24992
118	3.725416	107851776	75116544	24305976	24992
119	4.024936	107851776	75116544	26824288	24992
120	4.397061	107851776	75116544	29483104	24992
121	4.410623	107851776	75116544	32284920	24992
122	6.228974	107851776	75116544	19139312	24992
123	4.930745	107851776	75116544	22231400	24992
124	5.10117	107851776	75116544	25468312	24992
125	5.527339	107851776	75116544	28851408	24992
126	5.610014	107851776	75116544	32389872	24992
127	7.33454	107851776	75116544	19985128	24992
128	6.013219	107851776	75116544	23814520	24992
129	6.299518	107851776	75116544	27796592	24992
130	6.806976	107851776	75116544	31926856	24992
131	8.23944	107851776	75116544	20189976	24992
132	7.359127	107851776	75116544	24625832	24992
133	7.300646	107851776	75116544	29218568	24992
134	9.296233	107851776	75116544	18339600	24992
135	8.203822	107851776	75116544	23249880	24992
136	8.376203	107851776	75116544	28315200	24992
137	8.261536	107851776	75116544	33545664	24992
138	10.079633	107851776	75116544	22702368	24992
139	9.319437	107851776	75116544	28243944	24992
140	9.179032	107851776	75116544	33946112	24992
141	11.408804	107851776	75116544	23590864	24992
142	9.574458	107851776	75116544	29624416	24992
143	12.617602	107851776	75116544	20165320	24992
144	10.076336	107851776	75116544	26519584	24992
145	10.767805	107851776	75116544	33038824	24992
146	12.868734	107851776	75116544	23633720	24992
147	11.039901	107851776	75116544	30486496	24992
148	13.447776	107851776	75116544	21825424	24992
149	11.495963	107851776	75116544	29015128	24992
150	14.247893	107851776	75116544	20883744	24992
151	12.268545	107851776	75116544	28414344	24992
152	0.599308	107851776	75116544	20806184	24992
153	0.911281	107851776	75116544	21324584	24992
154	1.125728	107851776	75116544	22016656	24992
155	1.394731	107851776	75116544	22888552	24992
156	1.75269	107851776	75116544	23931176	24992
157	1.955598	107851776	75116544	25150008	24992
158	2.479923	107851776	75116544	26546160	24992
159	2.556992	107851776	75116544	28120560	24992
160	2.810869	107851776	75116544	29875016	24992
161	3.362721	107851776	75116544	31809512	24992
162	3.715448	107851776	75116544	33926088	24992
163	5.272153	107851776	75116544	20174144	24992
164	3.967113	107851776	75116544	22654392	24992
165	4.460361	107851776	75116544	25318496	24992
166	4.58061	107851776	75116544	28167128	24992
167	5.03985	107851776	75116544	31203312	24992
168	5.424154	107851776	75116544	34426080	24992
169	7.468788	107851776	75116544	21717320	24992
170	5.971123	107851776	75116544	25316328	24992
171	6.478625	107851776	75116544	29104800	24992
172	6.34942	107851776	75116544	33084240	24992
173	8.605898	107851776	75116544	21329216	24992
174	7.000378	107851776	75116544	25693000	24992
175	7.29948	107851776	75116544	30253120	24992
176	7.869668	107851776	75116544	35002608	24992
177	9.772716	107851776	75116544	23771832	24992
178	8.257171	107851776	75116544	28911552	24992
179	8.510145	107851776	75116544	34248000	24992
180	10.717123	107851776	75116544	23740384	24992
181	9.368916	107851776	75116544	29473024	24992
182	9.494498	107851776	75116544	35405016	24992
183	12.069111	107851776	75116544	25332360	24992
184	10.145459	107851776	75116544	31676264	24992
185	12.943343	107851776	75116544	22568616	24992
186	11.320998	107851776	75116544	29316952	24992
187	11.398027	107851776	75116544	36271888	24992
188	13.329886	107851776	75116544	27146856	24992
189	12.050741	107851776	75116544	34513840	24992
190	14.448827	107851776	75116544	26070344	24992
191	12.467332	107851776	75116544	33850312	24992
192	14.77229	107851776	75116544	25936624	24992
193	13.47718	107851776	75116544	34133624	24992
194	16.10991	107851776	75116544	26597656	24992
195	14.518443	107851776	75116544	35221800	24992
196	16.313123	107851776	75116544	27982728	24992
197	14.59745	107851776	75116544	37033448	24992
198	16.775463	107851776	75116544	30005776	24992
199	17.383109	107851776	75116544	24200280	24992
200	16.031633	107851776	75116544	33897336	24992
201	18.548631	107851776	75116544	27988552	24992
202	2.619198	107851776	75116544	21935336	24992
203	1.09378	107851776	75116544	22593408	24992
204	1.435826	107851776	75116544	23471432	24992
205	1.782836	107851776	75116544	24570352	24992
206	2.195823	107851776	75116544	25891584	24992
207	2.663451	107851776	75116544	27441992	24992
208	3.012555	107851776	75116544	29209520	24992
209	3.240098	107851776	75116544	31209840	24992
210	3.580005	107851776	75116544	33444976	24992
211	3.954736	107851776	75116544	35914648	24992
212	6.216591	107851776	75116544	22595072	24992
213	4.887844	107851776	75116544	25536992	24992
214	5.048672	107851776	75116544	28716192	24992
215	5.605657	107851776	75116544	32138584	24992
216	6.147421	107851776	75116544	35795568	24992
217	8.085682	107851776	75116544	23710936	24992
218	6.707824	107851776	75116544	27858496	24992
219	7.140186	107851776	75116544	32240944	24992
220	7.543209	107851776	75116544	36873824	24992
221	10.040214	107851776	75116544	25614376	24992
222	8.527756	107851776	75116544	30740168	24992
223	8.761512	107851776	75116544	36100600	24992
224	11.206138	107851776	75116544	25701656	24992
225	9.232622	107851776	75116544	31556264	24992
226	9.850068	107851776	75116544	37660048	24992
227	12.550887	107851776	75116544	27785960	24992
228	10.675913	107851776	75116544	34395448	24992
229	13.168948	107851776	75116544	25509144	24992
230	11.424594	107851776	75116544	32621184	24992
231	13.96934	107851776	75116544	24482776	24992
232	12.283025	107851776	75116544	32097080	24992
233	15.196631	107851776	75116544	24592672	24992
234	13.277989	107851776	75116544	32725248	24992
235	15.974535	107851776	75116544	25656576	24992
236	13.939159	107851776	75116544	34305656	24992
237	16.443462	107851776	75116544	27552280	24992
238	14.903328	107851776	75116544	36718656	24992
239	17.259391	107851776	75116544	30154304	24992
240	17.972951	107851776	75116544	24798648	24992
241	15.697726	107851776	75116544	34752568	24992
242	18.553136	107851776	75116544	29257640	24992
243	19.228041	107851776	75116544	24846288	24992
244	17.412267	107851776	75116544	35590856	24992
245	20.335786	107851776	75116544	30818712	24992
246	21.007916	107851776	75116544	27024400	24992
247	18.999552	107851776	75116544	38577576	24992
248	21.371274	107851776	75116544	34206040	24992
249	21.786239	107851776	75116544	30756368	24992
250	22.852322	107851776	75116544	28036968	24992
251	23.912921	107851776	75116544	26006424	24992
252	0.916308	107851776	75116544	39056752	24992
253	1.732168	107851776	75116544	39879656	24992
254	4.520857	107851776	75116544	24742016	24992
255	2.241392	107851776	75116544	26117072	24992
256	2.843341	107851776	75116544	27766552	24992
257	3.045944	107851776	75116544	29693192	24992
258	3.717619	107851776	75116544	31898272	24992
259	4.154499	107851776	75116544	34392200	24992
260	4.810852	107851776	75116544	37157360	24992
261	5.03088	107851776	75116544	40203672	24992
262	7.482892	107851776	75116544	27272184	24992
263	5.719272	107851776	75116544	30883144	24992
264	6.174383	107851776	75116544	34785880	24992
265	6.61371	107851776	75116544	38976688	24992
266	9.438078	107851776	75116544	27347248	24992
267	7.813532	107851776	75116544	32101920	24992
268	8.141368	107851776	75116544	37143256	24992
269	10.697654	107851776	75116544	26640168	24992
270	9.124794	107851776	75116544	32260976	24992
271	9.57738	107851776	75116544	38170664	24992
272	11.981546	107851776	75116544	28416480	24992
273	10.586863	107851776	75116544	34909704	24992
274	13.379078	107851776	75116544	26207808	24992
275	11.482589	107851776	75116544	33289112	24992
276	11.970028	107851776	75116544	40664272	24992
277	14.44691	107851776	75116544	32044080	24992
278	12.744415	107851776	75116544	40012576	24992
279	15.454385	107851776	75116544	32084640	24992
280	13.835816	107851776	75116544	40649184	24992
281	16.299671	107851776	75116544	33215400	24992
282	17.33428	107851776	75116544	27184032	24992
283	15.592195	107851776	75116544	36652512	24992
284	18.233311	107851776	75116544	30730496	24992
285	16.37709	107851776	75116544	40814736	24992
286	18.992069	107851776	75116544	34942336	24992
287	19.849895	107851776	75116544	30221496	24992
288	17.768691	107851776	75116544	41222504	24992
289	20.469893	107851776	75116544	36224160	24992
290	21.628892	107851776	75116544	32274512	24992
291	22.451139	107851776	75116544	29172328	24992
292	20.309566	107851776	75116544	41405008	24992
293	22.99994	107851776	75116544	37659192	24992
294	23.611174	107851776	75116544	34768744	24992
295	25.055838	107851776	75116544	32604264	24992
296	25.311449	107851776	75116544	31070432	24992
297	25.722992	107851776	75116544	30125536	24992
298	26.021882	107851776	75116544	29635192	24992
299	26.820072	107851776	75116544	29553144	24992
300	27.280382	107851776	75116544	29818480	24992
301	28.505458	107851776	75116544	30376320	24992
302	1.062844	107851776	75116544	31377856	24992
303	1.559445	107851776	75116544	32340832	24992
304	2.056376	107851776	75116544	33623832	24992
305	2.62684	107851776	75116544	35228744	24992
306	3.317071	107851776	75116544	37163912	24992
307	3.62476	107851776	75116544	39415696	24992
308	4.332458	107851776	75116544	41992872	24992
309	7.115279	107851776	75116544	28744792	24992
310	5.608201	107851776	75116544	31974184	24992
311	5.705582	107851776	75116544	35536296	24992
312	6.226262	107851776	75116544	39421488	24992
313	10.181354	107851776	75116544	27834264	24992
314	7.293227	107851776	75116544	32378920	24992
315	8.331424	107851776	75116544	37254576	24992
316	8.527613	107851776	75116544	42473376	24992
317	11.607207	107851776	75116544	31783904	24992
318	9.432652	107851776	75116544	37661360	24992
319	12.8059	107851776	75116544	28340880	24992
320	10.727949	107851776	75116544	34889464	24992
321	11.012255	107851776	75116544	41782728	24992
322	14.104203	107851776	75116544	32883376	24992
323	12.55044	107851776	75116544	40456920	24992
324	15.417776	107851776	75116544	32466000	24992
325	13.678708	107851776	75116544	40709624	24992
326	16.482963	107851776	75116544	33341424	24992
327	14.496491	107851776	75116544	42272512	24992
328	17.676705	107851776	75116544	35380368	24992
329	18.71032	107851776	75116544	29831288	24992
330	16.535004	107851776	75116544	39790328	24992
331	19.353182	107851776	75116544	34315520	24992
332	20.567205	107851776	75116544	30016712	24992
333	18.022818	107851776	75116544	41015064	24992
334	21.525195	107851776	75116544	36422632	24992
335	21.906236	107851776	75116544	32905248	24992
336	23.423962	107851776	75116544	30244480	24992
337	20.507129	107851776	75116544	42649936	24992
338	23.790572	107851776	75116544	39245696	24992
339	24.294185	107851776	75116544	36726192	24992
340	24.769749	107851776	75116544	34939432	24992
341	25.685306	107851776	75116544	33748416	24992
342	26.372377	107851776	75116544	33127200	24992
343	27.463513	107851776	75116544	32958032	24992
344	28.017861	107851776	75116544	33215704	24992
345	28.345323	107851776	75116544	33804752	24992
346	29.409702	107851776	75116544	34679704	24992
347	29.63868	107851776	75116544	35801768	24992
348	30.731165	107851776	75116544	37097848	24992
349	30.98964	107851776	75116544	38591600	24992
350	31.017747	107851776	75116544	40215096	24992
351	31.5516	107851776	75116544	41985712	24992
352	1.291934	107851776	75116544	44150888	24992
353	1.880601	107851776	75116544	45252720	24992
354	4.961911	107851776	75116544	30455656	24992
355	3.035055	107851776	75116544	32292808	24992
356	3.623301	107851776	75116544	34499704	24992
357	4.189395	107851776	75116544	37076736	24992
358	5.041674	107851776	75116544	40024600	24992
359	5.666798	107851776	75116544	43351384	24992
360	8.964392	107851776	75116544	31015056	24992
361	6.9682	107851776	75116544	35082544	24992
362	7.502208	107851776	75116544	39526360	24992
363	7.991926	107851776	75116544	44349072	24992
364	11.352076	107851776	75116544	33403760	24992
365	9.543397	107851776	75116544	38977064	24992
366	10.170679	107851776	75116544	44938496	24992
367	13.090091	107851776	75116544	35073416	24992
368	10.851112	107851776	75116544	41786296	24992
369	14.819038	107851776	75116544	33142896	24992
370	12.319773	107851776	75116544	40623592	24992
371	15.80611	107851776	75116544	32899840	24992
372	13.540079	107851776	75116544	41145800	24992
373	17.068437	107851776	75116544	34141192	24992
374	14.754721	107851776	75116544	43158880	24992
375	18.41651	107851776	75116544	36630136	24992
376	16.074747	107851776	75116544	46419288	24992
377	19.316431	107851776	75116544	40210152	24992
378	20.449522	107851776	75116544	35294048	24992
379	17.950613	107851776	75116544	46255496	24992
380	21.48629	107851776	75116544	41256456	24992
381	23.044459	107851776	75116544	37378632	24992
382	23.557392	107851776	75116544	34473872	24992
383	25.020227	107851776	75116544	32422736	24992
384	21.463048	107851776	75116544	45355120	24992
385	24.863172	107851776	75116544	42489744	24992
386	25.826116	107851776	75116544	40470064	24992
387	26.626335	107851776	75116544	39097880	24992
388	27.518837	107851776	75116544	38375032	24992
389	28.044737	107851776	75116544	38157592	24992
390	28.677619	107851776	75116544	38401944	24992
391	30.246447	107851776	75116544	39025736	24992
392	30.353572	107851776	75116544	39963336	24992
393	30.860732	107851776	75116544	41192544	24992
394	31.190169	107851776	75116544	42623576	24992
395	32.221779	107851776	75116544	44299584	24992
396	32.332806	107851776	75116544	46100752	24992
397	36.913315	107851776	75116544	34288592	24992
398	36.616259	107851776	75116544	40817200	24992
399	34.812609	107851776	75116544	44792640	24992
400	35.35276	107851776	75116544	48605752	24992
401	40.204004	107851776	75116544	38529744	24992
402	1.42641	107851776	75640832	47019720	24992
403	2.023654	107851776	75640832	48266536	24992
404	2.683755	107851776	75640832	49921616	24992
405	3.423583	107851776	75640832	51991184	24992
406	7.423951	108122112	75640832	38542096	24992
407	5.430231	108122112	75640832	41444112	24992
408	5.980954	108122112	75640832	44765520	24992
409	6.874848	108122112	75640832	48510416	24992
410	7.353005	108122112	75640832	52676184	24992
411	11.786074	108122112	75640832	41058592	24992
412	8.866593	108122112	75640832	46058904	24992
413	9.818397	108122112	75640832	51484808	24992
414	16.450866	108122112	75640832	41326264	24992
415	16.758318	108122112	75640832	47593696	24992
416	15.690919	108122112	75640832	20087080	24992
417	11.322252	108122112	75640832	27208912	24992
418	12.881777	108122112	75640832	18566792	24992
419	12.811487	108122112	75640832	26571312	24992
420	13.89031	108122112	75640832	18991824	24992
421	14.221308	108122112	75640832	27889768	24992
422	15.659375	108122112	75640832	20995704	24992
423	16.556323	108122112	75640832	15597832	24992
424	16.586016	108122112	75640832	25823000	24992
425	17.928324	108122112	75640832	20611232	24992
426	18.919098	108122112	75640832	16640056	24992
427	18.092616	108122112	75640832	28218560	24992
428	19.716464	108122112	75640832	24001240	24992
429	20.967828	108122112	75640832	20893896	24992
430	22.191095	108122112	75640832	18667760	24992
431	22.810093	108122112	75640832	17270888	24992
432	23.400383	108122112	75640832	16520856	24992
433	24.905823	108122112	75640832	16356544	24992
434	25.171437	108122112	75640832	16680544	24992
435	26.385846	108122112	75640832	17445648	24992
436	26.481868	108122112	75640832	18552920	24992
437	27.384306	108122112	75640832	19996792	24992
438	28.157586	108122112	75640832	21652768	24992
439	28.707698	108122112	75640832	23606816	24992
440	28.7262	108122112	75640832	25690560	24992
441	29.869892	108122112	75640832	27920128	24992
442	29.904278	108122112	75640832	30332808	24992
443	32.720596	108122112	75640832	18814080	24992
444	32.981545	108122112	75640832	23537248	24992
445	33.063806	108122112	75640832	28038064	24992
446	35.939099	108122112	75640832	18608920	24992
447	36.912778	108122112	75640832	27339928	24992
448	35.491274	108122112	75640832	33284328	24992
449	36.9673	108122112	75640832	24670544	24992
450	37.002289	108122112	75640832	31800416	24992
451	39.483938	108122112	75640832	24623056	24992
452	1.5824	108122112	75640832	36088296	24992
453	3.451439	108122112	75640832	21820008	24992
454	3.079241	108122112	75640832	23727184	24992
455	3.724423	108122112	75640832	26111616	24992
456	4.60825	108122112	75640832	28987040	24992
457	5.386159	108122112	75640832	32332464	24992
458	6.06927	108122112	75640832	36163368	24992
459	7.589022	108122112	75640832	24253720	24992
460	7.562272	108122112	75640832	29042200	24992
461	8.141906	108122112	75640832	34324712	24992
462	10.094027	108122112	75640832	24139984	24992
463	9.81682	108122112	75640832	30378984	24992
464	10.597623	108122112	75640832	37113064	24992
465	12.135804	108122112	75640832	27993992	24992
466	12.102197	108122112	75640832	35725248	24992
467	14.324989	108122112	75640832	27807024	24992
468	13.554413	108122112	75640832	36492200	24992
469	15.443906	108122112	75640832	29412024	24992
470	16.651804	108122112	75640832	23837648	24992
471	16.142638	108122112	75640832	33993512	24992
472	18.497889	108122112	75640832	28778184	24992
473	19.277743	108392448	76165120	24850776	24992
474	18.802864	108392448	76165120	36498512	24992
475	20.475038	108392448	76165120	32400648	24992
476	21.468279	108392448	76165120	29391040	24992
477	22.679538	108392448	76165120	27342616	24992
478	23.848831	108392448	76165120	26092152	24992
479	23.834011	108392448	76165120	25561112	24992
480	25.449166	108662784	76165120	25586752	24992
481	26.341033	108662784	76165120	26128664	24992
482	26.648216	108662784	76165120	27098688	24992
483	28.296727	108662784	76165120	28451512	24992
484	28.33254	108662784	76165120	30097968	24992
485	29.049614	108662784	76165120	32035144	24992
486	29.056606	108662784	76165120	34205296	24992
487	30.324157	108662784	76165120	36539840	24992
488	32.964821	108662784	76165120	25275960	24992
489	34.158841	108662784	76165120	32364648	24992
490	32.498496	108662784	76165120	36938832	24992
491	33.817222	108662784	76165120	41381264	24992
492	36.656996	108662784	76165120	31646424	24992
493	35.501048	108662784	76165120	37913816	24992
494	38.440026	108662784	76165120	30162232	24992
495	41.031589	108662784	76165120	40293264	24992
496	41.254152	108662784	76165120	34010912	24992
497	41.291833	108662784	76165120	45117792	24992
498	41.77063	108662784	76165120	39459072	24992
499	46.240154	108662784	76165120	39389624	24992
500	44.021364	108933120	76165120	51888184	24992
501	50.495926	108933120	76165120	47659632	24992
502	1.681057	112177152	79835136	21046432	24992
503	2.428052	112177152	79835136	22616744	24992
504	3.289089	112177152	79835136	24709784	24992
505	4.237021	112177152	79835136	27326376	24992
506	4.859363	112177152	79835136	30468120	24992
507	7.887154	112177152	79835136	20566176	24992
508	6.462699	112177152	79835136	24838824	24992
509	7.550933	112177152	79835136	29560144	24992
510	8.182519	112177152	79835136	34810744	24992
511	9.388127	112177152	79835136	24433720	24992
512	9.934226	112177152	79835136	30743576	24992
513	11.693512	112177152	79835136	21889160	24992
514	11.818245	112177152	79835136	29262368	24992
515	13.31675	112177152	79835136	21680904	24992
516	13.292629	112177152	79835136	30177968	24992
517	15.150752	112177152	79835136	23521408	24992
518	15.135947	112177152	79835136	33033888	24992
519	16.91487	112177152	79835136	27009352	24992
520	18.011069	112177152	79835136	22432712	24992
521	18.107185	112177152	79835136	33558352	24992
522	18.994734	112177152	79835136	29061336	24992
523	19.773677	112177152	79835136	25786280	24992
524	21.387433	112177152	79835136	23645048	24992
525	22.654569	112177152	79835136	22316760	24992
526	23.582599	112177152	79835136	21687936	24992
527	24.320924	112177152	79835136	21796224	24992
528	26.041643	112177152	79835136	22359000	24992
529	26.444739	112177152	79835136	23369688	24992
530	26.540062	112177152	79835136	24776208	24992
531	27.462689	112177152	79835136	26636008	24992
532	28.43191	112177152	79835136	28665984	24992
533	28.744648	112177152	79835136	30951824	24992
534	29.805007	112177152	79835136	33476752	24992
535	30.051016	112177152	79835136	36181464	24992
536	32.6374	112177152	79835136	25092984	24992
537	33.434232	112177152	79835136	30139072	24992
538	33.971072	112177152	79835136	34992392	24992
539	35.553732	112177152	79835136	25844080	24992
540	36.962214	112177152	79835136	35296296	24992
541	37.916584	112177152	79835136	28291568	24992
542	38.806368	112447488	79835136	38879072	24992
543	39.123749	112447488	79835136	32780768	24992
544	40.581809	112447488	79835136	44427448	24992
545	40.738646	112447488	79835136	39034840	24992
546	41.891619	112447488	79835136	35334208	24992
547	43.262257	112447488	79835136	48620896	24992
548	43.986513	112447488	79835136	44568040	24992
549	45.444142	112447488	79835136	41997032	24992
550	48.457599	112447488	79835136	44706872	24992
551	48.987643	112447488	79835136	47757040	24992
552	1.934971	115150848	82980864	52014872	24992
553	2.88137	115150848	82980864	53724656	24992
554	3.892068	115150848	82980864	56003704	24992
555	4.974764	115150848	82980864	58856520	24992
556	6.005448	115150848	82980864	62283864	24992
557	11.416413	117313536	85078016	52265000	24992
558	7.78688	117313536	85078016	56830120	24992
559	8.658583	117313536	85078016	61968936	24992
560	15.038289	117583872	85078016	51975024	24992
561	16.863336	117583872	85078016	58267992	24992
562	14.597409	114659328	82456576	24083016	24992
563	11.89132	114659328	82456576	31544528	24992
564	12.887677	114925568	82456576	23326640	24992
565	13.761093	114925568	82456576	31930544	24992
566	14.758486	114925568	82456576	24845688	24992
567	16.317873	114925568	82456576	19367616	24992
568	16.14491	114925568	82456576	29723800	24992
569	17.650632	114925568	82456576	24704664	24992
570	18.954752	114925568	82456576	21029232	24992
571	20.206485	114925568	82456576	18447416	24992
572	20.201252	114925568	82456576	31150736	24992
573	21.478525	114925568	82456576	28283448	24992
574	23.083323	114925568	82456576	26401632	24992
575	23.691	114925568	82456576	25421800	24992
576	24.972317	114925568	82456576	25154680	24992
577	25.986632	114925568	82456576	25515336	24992
578	26.91294	114925568	82456576	26426576	24992
579	27.913868	114925568	82456576	27816840	24992
580	29.151938	114925568	82456576	29548192	24992
581	28.871043	114925568	82456576	31627056	24992
582	31.703013	114925568	82456576	20168992	24992
583	32.912421	114925568	82456576	27326736	24992
584	32.027108	114925568	82456576	32032264	24992
585	35.058147	114925568	82456576	23045664	24992
586	35.884494	114925568	82456576	31980736	24992
587	35.479924	114925568	82456576	38195544	24992
588	36.607496	114925568	82456576	30137936	24992
589	37.84963	114925568	82456576	37849208	24992
590	38.704987	114925568	82456576	31177768	24992
591	43.616007	115466240	82980864	30806112	24992
592	41.504774	115466240	82980864	43123200	24992
593	42.211614	115466240	82980864	38849112	24992
594	45.893608	115466240	82980864	40283672	24992
595	47.272902	115466240	82980864	42169568	24992
596	45.737299	115466240	82980864	56946912	24992
597	45.57326	115466240	82980864	54407520	24992
598	46.709134	115466240	82980864	53036408	24992
599	52.311394	115466240	82980864	57549680	24992
600	73.684006	118710272	86126592	62481832	24992
601	56.380356	118149120	85602304	25616112	24992
602	2.024697	118149120	85602304	32289496	24992
603	3.008625	118149120	85602304	34143136	24992
604	4.031764	118149120	85602304	36608064	24992
605	5.209083	118149120	85602304	39689480	24992
606	7.939079	118149120	85602304	29834768	24992
607	7.219095	118149120	85602304	34155816	24992
608	7.659806	118149120	85602304	39109352	24992
609	8.81778	118149120	85602304	44666160	24992
610	10.362276	118149120	85602304	34765936	24992
611	10.926684	118149120	85602304	41580968	24992
612	12.159527	118149120	85602304	33192152	24992
613	12.948909	118149120	85602304	41259816	24992
614	14.33675	118149120	85602304	34126864	24992
615	14.559512	118149120	85602304	43444080	24992
616	16.259328	118149120	85602304	37297288	24992
617	17.414793	118149120	85602304	32660232	24992
618	17.811104	118149120	85602304	43855360	24992
619	19.814863	118149120	85602304	39498328	24992
620	20.689177	118149120	85602304	36389376	24992
621	22.44232	118149120	85602304	34395896	24992
622	23.020793	118149120	85602304	33413112	24992
623	23.917342	118149120	85602304	33171032	24992
624	25.481216	118149120	85602304	33638296	24992
625	25.893414	118149120	85602304	34682440	24992
626	26.990048	118149120	85602304	36207992	24992
627	28.519559	118149120	85602304	38119560	24992
628	28.913425	118149120	85602304	40370616	24992
629	29.460865	118149120	85602304	42904480	24992
630	30.458814	118149120	85602304	45722144	24992
631	33.736787	118149120	85602304	34799400	24992
632	33.796446	118149120	85602304	40135816	24992
633	33.871155	118149120	85602304	45227904	24992
634	36.146955	118149120	85602304	36435992	24992
635	36.192051	118149120	85602304	43539872	24992
636	38.032764	118149120	85602304	36527720	24992
637	40.032759	118149120	85602304	47790672	24992
638	40.548543	118149120	85602304	42157392	24992
639	44.711966	118689792	86126592	42495240	24992
640	42.92866	118689792	86126592	55532776	24992
641	42.864912	118689792	86126592	51495256	24992
642	44.303837	118689792	86126592	48994504	24992
643	48.728795	118689792	86126592	51835648	24992
644	49.404004	118689792	86126592	55280560	24992
645	56.145562	122474496	89796608	59306088	24992
646	68.552265	119492608	89272320	31389976	24992
647	52.97462	121380864	89272320	35827328	24992
648	55.784777	121380864	89272320	29553888	24992
649	54.29225	121921536	89272320	36196608	24992
650	56.115104	122462208	89796608	43514176	24992
651	56.611024	122462208	89796608	51480776	24992
652	4.876301	122462208	89796608	48423528	24992
653	3.168017	122462208	89796608	50420184	24992
654	4.320411	122462208	89796608	53071120	24992
655	5.162749	122462208	89796608	56384728	24992
656	6.177978	122462208	89796608	60365200	24992
657	9.26452	122462208	89796608	50812320	24992
658	9.19318	122462208	89796608	56130464	24992
659	10.299787	122462208	89796608	62104928	24992
660	12.530392	122462208	89796608	52610624	24992
661	12.899581	122462208	89796608	59925704	24992
662	19.760734	122462208	89796608	52135984	24992
663	21.525055	114720768	82456576	18282336	24992
664	15.091914	114720768	82456576	27628304	24992
665	16.617427	114987008	82456576	21458488	24992
666	17.793334	114987008	82456576	16892984	24992
667	18.031037	114987008	82456576	28248864	24992
668	19.501996	114987008	82456576	24027248	24992
669	21.897978	114987008	82456576	21108560	24992
670	22.197222	114987008	82456576	19327864	24992
671	23.840658	114987008	82456576	18409072	24992
672	24.34347	114987008	82456576	18414416	24992
673	25.784659	114987008	82456576	19097440	24992
674	27.057481	114987008	82456576	20376944	24992
675	27.332446	114987008	82456576	22111336	24992
676	29.003221	114987008	82456576	24267368	24992
677	29.830087	114987008	82456576	26786512	24992
678	30.556858	114987008	82456576	29575656	24992
679	33.233626	114987008	82456576	18664440	24992
680	33.148956	114987008	82456576	24079040	24992
681	34.205345	114987008	82456576	29362448	24992
682	37.189285	114987008	82456576	20561936	24992
683	36.288345	114987008	82456576	27840032	24992
684	39.37303	114987008	82456576	20973152	24992
685	42.954405	114987008	82456576	20421664	24992
686	41.632227	114987008	82456576	32527704	24992
687	41.874324	114987008	82456576	28386848	24992
688	46.399314	114987008	82456576	29803080	24992
689	47.097282	115527680	82980864	31802632	24992
690	45.631756	115527680	82980864	46696048	24992
691	46.445403	115527680	82980864	44451512	24992
692	47.836113	115527680	82980864	43555848	24992
693	52.286132	115527680	82980864	48471664	24992
694	54.4137	115527680	82980864	53904528	24992
695	77.435391	113463296	82980864	21439896	24992
696	57.359277	115625984	82980864	28102776	24992
697	57.032107	115625984	82980864	35701264	24992
698	57.843884	115625984	82980864	43905472	24992
699	60.423322	115625984	82980864	40750064	24992
700	60.244347	115625984	82980864	50345944	24992
701	61.143446	115625984	82980864	60774896	24992
702	2.528928	120762368	88223744	60339024	24992
703	3.576809	120762368	88223744	62467920	24992
704	4.801278	120762368	88223744	65304808	24992
705	12.979287	122925056	90320896	55646984	24992
706	11.519036	122925056	90320896	59903680	24992
707	14.452622	118890496	87175168	20431640	24992
708	9.270232	118890496	87175168	26112856	24992
709	10.2253	118890496	87175168	32505120	24992
710	11.858544	119697408	87175168	23399120	24992
711	12.246728	119697408	87175168	31231952	24992
712	14.053569	119697408	87175168	23741216	24992
713	14.708543	119697408	87175168	33019168	24992
714	16.151651	119697408	87175168	26753872	24992
715	17.756196	119697408	87175168	22169552	24992
716	18.075457	119697408	87175168	33592640	24992
717	19.730727	119697408	87175168	29394272	24992
718	21.014673	119697408	87175168	26569792	24992
719	22.621361	119697408	87175168	24899368	24992
720	23.807242	119697408	87175168	24170184	24992
721	25.078995	119697408	87175168	24268736	24992
722	26.382521	119697408	87175168	25108176	24992
723	27.677825	119697408	87175168	26541848	24992
724	28.317189	119697408	87175168	28494232	24992
725	29.50995	119697408	87175168	30853464	24992
726	30.593641	119697408	87175168	33650440	24992
727	33.176106	119697408	87175168	22865312	24992
728	33.540425	119697408	87175168	28315608	24992
729	33.769766	119697408	87175168	33684328	24992
730	37.318116	119697408	87175168	25057504	24992
731	37.256179	119697408	87175168	32451272	24992
732	38.931877	119697408	87175168	25723816	24992
733	40.646302	119697408	87175168	37504536	24992
734	41.491764	119697408	87175168	32246472	24992
735	42.847132	119697408	87175168	28719568	24992
736	47.155089	119697408	87175168	30481160	24992
737	47.646139	119697408	87175168	45030912	24992
738	45.722902	119697408	87175168	42356808	24992
739	46.846498	119697408	87175168	41060008	24992
740	52.635228	124293120	91893760	45851976	24992
741	53.727428	128348160	96612352	51128000	24992
742	54.217657	132673536	101330944	57213840	24992
743	58.610375	138891264	108146688	51714632	24992
744	66.815159	141594624	110768128	59378632	24992
745	63.940163	106643456	74067968	32985808	24992
746	62.872142	106643456	74067968	29992856	24992
747	60.201172	106643456	74067968	39729056	24992
748	62.81761	106643456	74067968	38021144	24992
749	62.425383	107184128	74592256	49245536	24992
750	66.942093	113401856	80883712	49103424	24992
751	70.559963	117727232	85078016	61841536	24992
752	2.396771	113467392	81408000	32585000	24992
753	3.545635	113467392	81408000	34869976	24992
754	7.145386	113467392	81408000	25245584	24992
755	6.218362	113467392	81408000	29051120	24992
756	7.358703	113467392	81408000	33589464	24992
757	9.981345	113467392	81408000	24415104	24992
758	9.551424	113467392	81408000	30468432	24992
759	10.888959	113467392	81408000	37305304	24992
760	12.877191	113467392	81408000	28784024	24992
761	13.314756	113467392	81408000	37135248	24992
762	15.117319	113467392	81408000	30099088	24992
763	16.715107	113467392	81408000	24994512	24992
764	17.109219	113467392	81408000	35672480	24992
765	19.122033	113467392	81408000	31186432	24992
766	20.534929	113467392	81408000	28151672	24992
767	21.743968	113467392	81408000	26383008	24992
768	23.378474	113467392	81408000	25720424	24992
769	24.694733	113467392	81408000	25921136	24992
770	26.214258	113467392	81408000	26800872	24992
771	27.218278	113467392	81408000	28320840	24992
772	28.360515	113467392	81408000	30388528	24992
773	28.723868	113467392	81408000	32870632	24992
774	29.876942	113467392	81408000	35829144	24992
775	32.203008	113467392	81408000	39153376	24992
776	33.611924	113467392	81408000	28903280	24992
777	34.190458	113467392	81408000	34848528	24992
778	37.100329	113467392	81408000	27396864	24992
779	38.910426	113467392	81408000	37602896	24992
780	39.760393	113467392	81408000	31785856	24992
781	40.414091	113467392	81408000	43592336	24992
782	41.711891	113467392	81408000	38805696	24992
783	45.422148	113467392	81408000	40065216	24992
784	46.907709	114548736	81932288	41734104	24992
785	45.427038	114548736	81932288	56422576	24992
786	45.83035	114548736	81932288	54100112	24992
787	51.386937	114819072	82456576	58464520	24992
788	58.849682	118874112	86650880	63393920	24992
789	69.881358	112717824	80359424	24378944	24992
790	55.079244	112717824	80359424	30950192	24992
791	56.432965	112717824	80359424	38180288	24992
792	56.554324	112717824	80359424	46189688	24992
793	60.506692	113528832	80883712	42900088	24992
794	59.31436	113528832	80883712	52508512	24992
795	63.474273	116232192	84029440	50697856	24992
796	80.396125	120557568	88223744	61814752	24992
797	72.303702	119369728	87175168	30584528	24992
798	65.248046	119369728	87175168	43254744	24992
799	70.169826	119369728	87175168	44801832	24992
800	68.805542	119369728	87175168	46964864	24992
801	70.654938	120180736	87699456	49962352	24992
802	2.647664	120180736	87699456	66592224	24992
803	7.091288	122073088	89796608	56555536	24992
804	5.095598	122073088	89796608	59764528	24992
805	6.299973	122073088	89796608	63775424	24992
806	7.515221	122073088	89796608	68603808	24992
807	11.264009	123695104	91369472	59645800	24992
808	10.929856	123695104	91369472	66068120	24992
809	13.49753	123695104	91369472	57702880	24992
810	13.993043	123695104	91369472	65751960	24992
811	24.603354	123695104	91369472	59015144	24992
812	21.540418	111886336	79835136	22002144	24992
813	18.897917	112152576	79835136	17238176	24992
814	18.30931	112152576	79835136	28512840	24992
815	21.20565	112152576	79835136	24291336	24992
816	22.324438	112152576	79835136	21602776	24992
817	22.97497	112152576	79835136	20072880	24992
818	24.49157	112152576	79835136	19620272	24992
819	25.764171	112152576	79835136	20125912	24992
820	26.944906	112152576	79835136	21308056	24992
821	28.334333	112152576	79835136	23118312	24992
822	28.877865	112152576	79835136	25442016	24992
823	30.808094	112152576	79835136	28260840	24992
824	33.263943	112152576	79835136	17747256	24992
825	35.579226	112152576	79835136	26037632	24992
826	34.182947	112152576	79835136	31937328	24992
827	37.056939	112152576	79835136	23684832	24992
828	41.292159	112152576	79835136	31371528	24992
829	40.839087	112152576	79835136	24982304	24992
830	44.703946	112152576	79835136	25233864	24992
831	43.176525	112152576	79835136	38211944	24992
832	44.478209	112152576	79835136	34497792	24992
833	48.844599	112152576	79835136	37269192	24992
834	49.736242	112152576	79835136	40576776	24992
835	51.3708	112422912	79835136	44713792	24992
836	53.561581	112422912	79835136	49716912	24992
837	67.937117	113504256	80883712	55543272	24992
838	60.742348	115666944	82980864	33967336	24992
839	58.801173	115666944	82980864	29364632	24992
840	57.713444	115666944	82980864	37700840	24992
841	59.097566	115666944	82980864	46917200	24992
842	63.095092	115937280	83505152	44760032	24992
843	61.1914	116207616	83505152	55617680	24992
844	66.436385	120803328	88223744	55267432	24992
845	89.785556	123039744	92418048	23813176	24992
846	68.680865	124928000	92418048	36633080	24992
847	71.402551	124928000	92418048	38808232	24992
848	70.888256	124928000	92418048	41797312	24992
849	69.108872	124928000	92418048	57849328	24992
850	73.67896	124928000	92418048	62554752	24992
851	75.959664	125468672	92942336	68089400	24992
852	2.667452	121368576	89272320	28614464	24992
853	3.970317	121368576	89272320	31213664	24992
854	5.56879	121368576	89272320	34675048	24992
855	8.908881	121368576	89272320	25728952	24992
856	8.491159	121368576	89272320	30920360	24992
857	9.301944	121368576	89272320	37032856	24992
858	11.484081	121368576	89272320	28392064	24992
859	13.201765	121368576	89272320	36204584	24992
860	14.336936	121368576	89272320	29258736	24992
861	14.952373	121368576	89272320	38807512	24992
862	17.067748	121368576	89272320	33222256	24992
863	18.99105	121368576	89272320	29275144	24992
864	20.720205	121368576	89272320	26863704	24992
865	20.974883	121368576	89272320	39963840	24992
866	22.994298	121368576	89272320	37651616	24992
867	24.155638	121368576	89272320	36607424	24992
868	25.386157	121368576	89272320	36540208	24992
869	26.927015	121368576	89272320	37420672	24992
870	28.317566	121368576	89272320	39044952	24992
871	29.564986	121368576	89272320	41410024	24992
872	32.394919	121368576	89272320	30236632	24992
873	33.527384	121368576	89272320	35604640	24992
874	34.356572	121368576	89272320	41079480	24992
875	37.03216	121368576	89272320	32760344	24992
876	36.667085	121368576	89272320	40330208	24992
877	38.910991	121368576	89272320	33986584	24992
878	44.982088	121368576	89272320	34386920	24992
879	43.060714	121368576	89272320	47585272	24992
880	43.856336	121368576	89272320	44068736	24992
881	45.479429	121368576	89272320	42300736	24992
882	49.598622	121368576	89272320	45951856	24992
883	51.685137	121368576	89272320	50554456	24992
884	52.299486	121368576	89272320	55937104	24992
885	53.428947	121909248	89272320	62258128	24992
886	56.972286	122990592	90845184	69475992	24992
887	79.473764	121180160	90845184	30636848	24992
888	62.064245	123068416	90845184	26508576	24992
889	59.329528	123068416	90845184	36346928	24992
890	60.712996	123068416	90845184	46998504	24992
891	64.307241	123068416	90845184	46507096	24992
892	62.805523	123068416	90845184	58944544	24992
893	67.062381	123879424	91369472	60168192	24992
894	83.949886	124149760	91893760	62256960	24992
895	73.75135	123875328	91369472	30351384	24992
896	72.858657	123875328	91369472	34199304	24992
897	72.992594	123875328	91369472	39034488	24992
898	75.510172	123875328	91369472	44748992	24992
899	76.585083	123875328	91369472	51480552	24992
900	91.401776	126849024	94515200	58951328	24992
901	86.665762	118579200	86126592	35241544	24992
902	5.669788	118849536	86126592	33371384	24992
903	4.46878	118849536	86126592	36110616	24992
904	5.901535	118849536	86126592	39760736	24992
905	7.207647	118849536	86126592	44341952	24992
906	10.268319	118849536	86126592	35593112	24992
907	10.349932	118849536	86126592	42026712	24992
908	12.447327	118849536	86126592	33842744	24992
909	12.830361	118849536	86126592	42069912	24992
910	15.326846	118849536	86126592	35696720	24992
911	15.799974	118849536	86126592	45822640	24992
912	17.905396	118849536	86126592	40815208	24992
913	19.993862	118849536	86126592	37345152	24992
914	21.648735	118849536	86126592	35343968	24992
915	23.72909	118849536	86126592	34574056	24992
916	24.612427	118849536	86126592	34863000	24992
917	26.698264	118849536	86126592	36060648	24992
918	27.963272	118849536	86126592	38033080	24992
919	29.499983	118849536	86126592	40589608	24992
920	29.966586	118849536	86126592	43716240	24992
921	30.971762	118849536	86126592	47223944	24992
922	34.116202	118849536	86126592	37299640	24992
923	34.634181	118849536	86126592	43689872	24992
924	37.586161	118849536	86126592	36714752	24992
925	38.514877	118849536	86126592	47706192	24992
926	40.582153	118849536	86126592	42431912	24992
927	44.503609	118849536	86126592	43122632	24992
928	43.636684	118849536	86126592	56692760	24992
929	43.961649	118849536	86126592	53557040	24992
930	48.630659	118849536	86126592	57015080	24992
931	55.471156	120201216	87699456	61119584	24992
932	70.846442	118571008	86126592	20865544	24992
933	52.827045	118571008	86126592	26966776	24992
934	54.990724	118571008	86126592	33950048	24992
935	56.756927	118571008	86126592	41888112	24992
936	57.46022	118571008	86126592	50797696	24992
937	61.462887	118571008	86126592	48296624	24992
938	60.48238	118571008	86126592	59059032	24992
939	79.436149	120733696	88223744	58541320	24992
940	72.947213	118620160	86126592	26525664	24992
941	65.726924	118620160	86126592	40194128	24992
942	68.832602	118620160	86126592	42353416	24992
943	70.088328	118620160	86126592	45616712	24992
944	71.441758	118620160	86126592	49736032	24992
945	77.812532	120512512	88223744	54962688	24992
946	92.626949	119492608	87175168	29990816	24992
947	75.645376	119492608	87175168	36999384	24992
948	77.675448	119492608	87175168	44969776	24992
949	79.515536	119492608	87175168	53871128	24992
950	83.090586	119492608	87175168	51540008	24992
951	89.807544	123547648	91369472	62525944	24992
952	3.136551	123092992	90845184	29600232	24992
953	4.449995	123092992	90845184	32476688	24992
954	6.19515	123092992	90845184	36324120	24992
955	9.731142	123092992	90845184	27561904	24992
956	9.579027	123092992	90845184	33324536	24992
957	10.354511	123092992	90845184	40050656	24992
958	13.088638	123092992	90845184	31848776	24992
959	13.654499	123092992	90845184	40514904	24992
960	15.50136	123092992	90845184	33924360	24992
961	17.73957	123092992	90845184	29334856	24992
962	18.129444	123092992	90845184	40862832	24992
963	20.950543	123092992	90845184	37234784	24992
964	22.793392	123092992	90845184	35124496	24992
965	23.768659	123092992	90845184	34293584	24992
966	25.693345	123092992	90845184	34543200	24992
967	26.916069	123092992	90845184	35775656	24992
968	28.542927	123092992	90845184	37695392	24992
969	29.745141	123092992	90845184	40294648	24992
970	32.649107	123092992	90845184	29852200	24992
971	34.990759	123092992	90845184	38147736	24992
972	34.011799	123092992	90845184	44197792	24992
973	37.388054	123092992	90845184	36387152	24992
974	39.328076	123092992	90845184	47682560	24992
975	40.39197	123092992	90845184	42261480	24992
976	42.153883	123092992	90845184	38841560	24992
977	46.107682	123092992	90845184	40641704	24992
978	45.33968	123092992	90845184	55556032	24992
979	46.069869	123092992	90845184	53490992	24992
980	48.345835	123092992	90845184	53000120	24992
981	52.278146	123092992	90845184	58774376	24992
982	53.989641	123092992	90845184	65351864	24992
983	62.666897	123904000	91369472	60706144	24992
984	75.062718	119541760	89272320	34887192	24992
985	61.495028	121430016	89272320	31498904	24992
986	61.318954	121430016	89272320	41977256	24992
987	64.664795	121430016	89272320	41301440	24992
988	63.734406	121430016	89272320	53953520	24992
989	67.120334	121970688	89272320	55306472	24992
990	73.355678	122511360	89796608	57599776	24992
991	87.059922	121208832	88748032	28611432	24992
992	72.031844	121208832	88748032	32988128	24992
993	73.723516	121208832	88748032	38262904	24992
994	75.343501	121208832	88748032	44531976	24992
995	76.655738	121208832	88748032	51771816	24992
996	78.704364	121749504	89272320	60028728	24992
997	102.602053	122818560	92418048	37343480	24992
998	84.669278	124706816	92418048	34922176	24992
999	84.278384	124706816	92418048	46112968	24992
1000	84.09433	124706816	92418048	58336640	24992
x	Duration	RSS	HeapTotal	HeapUsed	External
0	NA	86638592	54145024	12108864	24992
1	0.818788	86638592	54145024	12160720	24992
2	0.477168	86638592	54145024	12237472	24992
3	0.555614	86638592	54145024	12341336	24992
4	0.671131	86638592	54145024	12473856	24992
5	0.842251	86638592	54145024	12636544	24992
6	1.076154	86638592	54145024	12829824	24992
7	0.417277	86638592	54145024	13054680	24992
8	0.470326	86638592	54145024	13312120	24992
9	0.526334	86638592	54145024	13604040	24992
10	0.841114	86638592	54145024	13931112	24992
11	0.663487	86638592	54145024	14294224	24992
12	0.938204	86638592	54145024	14694384	24992
13	0.791237	86638592	54145024	15136144	24992
14	0.81352	86638592	54145024	15613344	24992
15	0.872637	86638592	54145024	16130528	24992
16	0.987349	86638592	54145024	16688656	24992
17	1.027316	86638592	54145024	17290744	24992
18	1.241922	86638592	54145024	17935576	24992
19	1.445251	86638592	54145024	18627424	24992
20	1.208686	86638592	54145024	19360312	24992
21	1.251903	86638592	54145024	20139368	24992
22	1.669351	86638592	54145024	20965384	24992
23	1.409211	86638592	54145024	21839432	24992
24	1.524043	86638592	54145024	22768824	24992
25	1.556626	86638592	54145024	23744184	24992
26	1.610227	86638592	54145024	24771568	24992
27	1.9	86638592	54145024	25851968	24992
28	1.788839	86638592	54145024	26986336	24992
29	1.944001	86638592	54145024	28175760	24992
30	2.857454	86908928	54145024	13157456	24992
31	2.61224	86908928	54145024	14459800	24992
32	2.841228	86908928	54145024	15825832	24992
33	2.392106	86908928	54145024	17262072	24992
34	2.295215	86908928	54145024	18748328	24992
35	2.404134	86908928	54145024	20295392	24992
36	2.719326	86908928	54145024	21905936	24992
37	2.764901	86908928	54145024	23578144	24992
38	2.666754	86908928	54145024	25314056	24992
39	2.747268	86908928	54145024	27114528	24992
40	2.864129	86908928	54145024	28980728	24992
41	4.5115	86908928	54145024	15017768	24992
42	3.058321	86908928	54145024	17018600	24992
43	3.225748	86908928	54145024	19088072	24992
44	3.624346	86908928	54145024	21228480	24992
45	4.710477	86908928	54145024	23448056	24992
46	3.922973	86908928	54145024	25740168	24992
47	3.609201	86908928	54145024	28096472	24992
48	5.573243	86908928	54145024	15051280	24992
49	4.244885	86908928	54145024	17559392	24992
50	4.509258	86908928	54145024	20147640	24992
51	4.083452	86908928	54145024	22811400	24992
52	0.283566	86908928	54145024	25467120	24992
53	0.431782	86908928	54145024	25708888	24992
54	0.517151	86908928	54145024	26032848	24992
55	0.644642	86908928	54145024	26439872	24992
56	0.764198	86908928	54145024	26931584	24992
57	0.882373	86908928	54145024	27508392	24992
58	1.020909	86908928	54145024	28171152	24992
59	1.143132	86908928	54145024	28921040	24992
60	1.278863	86908928	54145024	29759856	24992
61	3.18252	86908928	54145024	15073568	24992
62	1.848696	86908928	54145024	16092704	24992
63	1.706423	86908928	54145024	17201296	24992
64	1.820239	86908928	54145024	18401856	24992
65	1.959148	86908928	54145024	19695656	24992
66	2.100167	86908928	54145024	21083072	24992
67	2.279498	86908928	54145024	22565104	24992
68	2.590908	86908928	54145024	24144792	24992
69	2.710874	86908928	54145024	25822488	24992
70	2.687608	86908928	54145024	27596272	24992
71	2.843193	86908928	54145024	29468768	24992
72	4.523959	86908928	54145024	15696304	24992
73	3.141385	86908928	54145024	17769000	24992
74	3.287826	86908928	54145024	19943272	24992
75	3.425572	86908928	54145024	22220048	24992
76	3.794508	86908928	54145024	24600488	24992
77	3.752639	86908928	54145024	27085528	24992
78	3.920572	86908928	54145024	29675912	24992
79	5.555809	86908928	54145024	16535352	24992
80	4.315978	86908928	54145024	19339912	24992
81	4.519507	86908928	54145024	22253976	24992
82	4.566702	86908928	54145024	25276192	24992
83	4.970847	86908928	54145024	28413960	24992
84	6.58797	86908928	54145024	16058024	24992
85	5.168773	86908928	54145024	19422624	24992
86	5.698106	86908928	54145024	22901904	24992
87	5.432707	86908928	54145024	26499400	24992
88	5.611433	86908928	54145024	30210560	24992
89	7.141388	86908928	54145024	18162528	24992
90	6.17328	86908928	54145024	22111488	24992
91	6.301371	86908928	54145024	26178040	24992
92	6.339807	86908928	54145024	30365120	24992
93	8.23659	86908928	54145024	18815064	24992
94	6.944869	86908928	54145024	23244968	24992
95	6.998606	86908928	54145024	27798744	24992
96	7.450168	86908928	54145024	32476024	24992
97	8.62396	86908928	54145024	21177840	24992
98	7.46841	86908928	54145024	26106968	24992
99	7.887524	86908928	54145024	31162824	24992
100	10.077711	86908928	54145024	20423064	24992
101	8.279426	86908928	54145024	25737016	24992
102	0.433355	86908928	54145024	31165880	24992
103	0.642817	86908928	54145024	31569528	24992
104	0.828787	86908928	54145024	32109280	24992
105	1.030888	86908928	54145024	32786128	24992
106	2.736652	86908928	54145024	17561136	24992
107	1.452219	86908928	54145024	18515704	24992
108	1.662769	86908928	54145024	19610248	24992
109	1.849218	86908928	54145024	20845736	24992
110	2.142103	86908928	54145024	22224192	24992
111	2.453627	86908928	54145024	23748424	24992
112	2.501167	86908928	54145024	25413848	24992
113	2.890524	86908928	54145024	27226216	24992
114	2.942521	86908928	54145024	29182272	24992
115	3.13895	86908928	54145024	31285888	24992
116	4.74304	86908928	54145024	17675864	24992
117	3.813556	86908928	54145024	20075504	24992
118	3.818703	86908928	54145024	22627752	24992
119	4.029349	86908928	54145024	25329600	24992
120	4.260851	86908928	54145024	28183664	24992
121	4.546997	86908928	54145024	31191000	24992
122	6.468249	86908928	54145024	18540144	24992
123	5.293206	86908928	54145024	21856128	24992
124	5.473524	86908928	54145024	25326680	24992
125	5.560647	86908928	54145024	28954256	24992
126	5.920742	86908928	54145024	32739288	24992
127	7.421537	86908928	54145024	20624224	24992
128	6.341617	86908928	54145024	24731432	24992
129	6.393891	86908928	54145024	28994784	24992
130	6.810236	86908928	54145024	33421696	24992
131	8.133283	86908928	54145024	21864048	24992
132	7.152974	86908928	54145024	26615160	24992
133	7.595932	86908928	54145024	31532760	24992
134	10.039443	86908928	54669312	20800152	24992
135	8.332252	86908928	54669312	26054360	24992
136	8.372143	86908928	54669312	31476032	24992
137	10.310415	86908928	54669312	21281120	24992
138	9.269621	86908928	54669312	27043568	24992
139	8.885927	86908928	54669312	32972720	24992
140	11.422011	87179264	54669312	23052968	24992
141	10.092799	87179264	54669312	29333640	24992
142	12.044788	87179264	54669312	20396336	24992
143	10.789084	87179264	54669312	27030648	24992
144	10.261412	87179264	54669312	33834896	24992
145	12.828704	87449600	55193600	24699480	24992
146	11.018364	87449600	55193600	31861672	24992
147	12.892859	87719936	55193600	23462648	24992
148	11.517558	87719936	55193600	30982872	24992
149	13.963027	87719936	55193600	23081984	24992
150	11.977803	87719936	55193600	30970128	24992
151	14.31289	87990272	55193600	23470344	24992
152	0.601815	87990272	55193600	31759424	24992
153	0.886769	87990272	55193600	32314832	24992
154	1.141914	87990272	55193600	33056992	24992
155	1.421513	87990272	55193600	33991424	24992
156	1.708726	87990272	55193600	35110416	24992
157	3.490505	87990272	55193600	20283808	24992
158	2.279714	87990272	55193600	21782968	24992
159	2.789125	87990272	55193600	23478112	24992
160	2.852647	87990272	55193600	25362376	24992
161	3.137262	87990272	55193600	27440192	24992
162	3.433094	87990272	55193600	29715512	24992
163	3.92763	87990272	55193600	32183368	24992
164	4.169786	87990272	55193600	34848672	24992
165	6.119033	87990272	55193600	21628952	24992
166	4.620782	87990272	55193600	24689016	24992
167	4.925282	87990272	55193600	27948624	24992
168	5.450884	87990272	55193600	31410344	24992
169	5.518686	87990272	55193600	35073312	24992
170	7.690961	87990272	55717888	22836000	24992
171	6.156904	87990272	55717888	26905016	24992
172	6.586815	87990272	55717888	31180880	24992
173	6.984627	87990272	55717888	35659344	24992
174	8.71037	88260608	56242176	24153368	24992
175	7.643339	88260608	56242176	29045184	24992
176	7.776259	88260608	56242176	34145200	24992
177	9.787092	88260608	56242176	23526296	24992
178	8.676422	88260608	56242176	29052848	24992
179	8.929885	88260608	56242176	34783456	24992
180	10.807407	88530944	56242176	24704448	24992
181	9.586364	88530944	56242176	30865304	24992
182	12.107227	88530944	56242176	21934072	24992
183	9.996998	88801280	56242176	28527848	24992
184	10.524674	88801280	56242176	35335600	24992
185	12.51758	88801280	56766464	26282704	24992
186	11.310534	88801280	56766464	33526776	24992
187	13.581165	89071616	56766464	25280016	24992
188	11.68802	89071616	56766464	32965400	24992
189	14.538664	89071616	56766464	25232936	24992
190	12.444039	89071616	56766464	33367504	24992
191	15.294962	89341952	56766464	26051936	24992
192	14.042475	89341952	56766464	34624344	24992
193	15.944245	89341952	57290752	27575440	24992
194	13.983102	89341952	57290752	36605616	24992
195	15.96349	89612288	57290752	29672656	24992
196	17.315015	89612288	57290752	24177016	24992
197	16.042344	89882624	57290752	33899088	24992
198	17.665362	89882624	57290752	28145576	24992
199	18.748157	90152960	57815040	23661736	24992
200	16.115313	90152960	57815040	34069224	24992
201	18.709835	90152960	57815040	29025152	24992
202	0.784123	90423296	57815040	25263736	24992
203	1.133222	90423296	57815040	25965392	24992
204	1.461879	90423296	57815040	26902568	24992
205	1.812414	90423296	57815040	28076160	24992
206	2.399623	90423296	57815040	29491608	24992
207	2.607263	90423296	57815040	31149736	24992
208	3.171066	90423296	57815040	33055728	24992
209	3.937746	90423296	57815040	35210984	24992
210	4.02861	90423296	57815040	37621648	24992
211	6.149974	90423296	57815040	24113672	24992
212	4.497159	90423296	57815040	27022328	24992
213	4.845169	90423296	57815040	30184016	24992
214	5.551758	90423296	57815040	33596832	24992
215	5.635014	90423296	57815040	37265224	24992
216	8.002481	90423296	58339328	25104024	24992
217	6.685963	90693632	58339328	29288176	24992
218	7.070742	90693632	58339328	33726528	24992
219	7.513448	90693632	58339328	38424776	24992
220	9.369252	90693632	58339328	27111816	24992
221	8.162164	90693632	58339328	32328608	24992
222	8.724027	90693632	58339328	37815304	24992
223	11.044161	90693632	58339328	27395528	24992
224	9.395634	90963968	58339328	33406504	24992
225	12.143323	90963968	58863616	24257976	24992
226	10.842007	90963968	58863616	30798528	24992
227	10.722455	90963968	58863616	37603280	24992
228	13.067199	90963968	58863616	28570536	24992
229	11.679307	90963968	58863616	35917600	24992
230	14.422956	91234304	58863616	27751688	24992
231	12.454831	91234304	58863616	35655704	24992
232	15.107601	91234304	58863616	28069192	24992
233	13.299369	91234304	58863616	36503288	24992
234	16.228386	91504640	58863616	29366592	24992
235	14.519545	91504640	58863616	38359896	24992
236	16.940394	91504640	58863616	31467568	24992
237	17.953196	91774976	59387904	26025624	24992
238	15.632782	91774976	59387904	35864928	24992
239	18.634494	91774976	59912192	30268472	24992
240	19.155748	91774976	59912192	25929112	24992
241	17.10223	92045312	59912192	36608416	24992
242	20.03771	92045312	59912192	31753952	24992
243	20.82471	92045312	59912192	28031440	24992
244	18.529236	92045312	59912192	39563600	24992
245	20.616693	92315648	59912192	35095616	24992
246	21.86354	92315648	59912192	31721048	24992
247	22.771917	92585984	60436480	29185360	24992
248	23.643928	92585984	60436480	27395304	24992
249	20.965235	92585984	60436480	40364928	24992
250	23.227382	92585984	60436480	37300672	24992
251	24.087261	92856320	60436480	35087936	24992
252	0.98587	92856320	60436480	33690352	24992
253	1.430174	92856320	60436480	34571928	24992
254	1.876748	92856320	60436480	35748616	24992
255	2.360601	92856320	60436480	37221632	24992
256	2.965066	92856320	60436480	38992496	24992
257	3.266524	92856320	60436480	41061520	24992
258	6.015834	93126656	60436480	27101312	24992
259	4.404514	93126656	60436480	29771464	24992
260	4.667797	93126656	60436480	32750184	24992
261	5.190065	93126656	60436480	36024920	24992
262	5.639984	93126656	60436480	39601024	24992
263	8.456652	93126656	60436480	27396776	24992
264	6.563584	93126656	60436480	31582056	24992
265	7.183772	93126656	60436480	36075408	24992
266	7.570392	93126656	60436480	40874856	24992
267	10.220002	93126656	61485056	29711496	24992
268	8.680661	93396992	61485056	35134008	24992
269	9.255913	93396992	61485056	40871464	24992
270	11.595566	93396992	61485056	30668232	24992
271	10.239822	93396992	61485056	37020128	24992
272	13.174722	93396992	61485056	28068280	24992
273	11.09005	93396992	61485056	35047272	24992
274	14.126281	93667328	61485056	27076800	24992
275	12.389515	93667328	61485056	34702296	24992
276	15.299665	93667328	61485056	27469008	24992
277	13.261612	93667328	61485056	35712544	24992
278	16.571338	93667328	61485056	28954144	24992
279	14.432762	93667328	61485056	37835208	24992
280	16.883099	93937664	61485056	31344784	24992
281	15.472942	93937664	61485056	40874424	24992
282	18.013532	93937664	62009344	34524256	24992
283	19.171906	93937664	62009344	29587656	24992
284	16.94911	94208000	62009344	40091424	24992
285	19.829718	94208000	62009344	34857688	24992
286	20.829685	94208000	62009344	30904232	24992
287	18.410202	94208000	62009344	42388000	24992
288	21.111123	94478336	62009344	37823488	24992
289	22.52327	94478336	62009344	34360824	24992
290	22.74756	94478336	62009344	31828184	24992
291	23.812841	94748672	62009344	30086800	24992
292	24.849059	94748672	62533632	29001192	24992
293	21.82961	94748672	62533632	42475072	24992
294	24.107449	94748672	62533632	39950744	24992
295	25.46319	95019008	62533632	38215072	24992
296	26.664893	95019008	63057920	37067368	24992
297	26.989558	95019008	63057920	36483712	24992
298	27.674835	95289344	63057920	36377680	24992
299	28.013206	95289344	63057920	36626088	24992
300	29.108142	95289344	63057920	37205080	24992
301	29.654844	95559680	63057920	38017672	24992
302	1.150582	95559680	63057920	39267392	24992
303	1.695593	95559680	63057920	40295072	24992
304	2.214161	95559680	63057920	41666776	24992
305	2.905591	95559680	63057920	43395176	24992
306	5.622559	95559680	63582208	29172800	24992
307	4.067252	95830016	63582208	31583272	24992
308	4.660896	95830016	63582208	34341688	24992
309	5.082718	95830016	63582208	37448984	24992
310	5.422652	95830016	63582208	40913360	24992
311	8.555737	95830016	63582208	28846464	24992
312	6.552019	95830016	63582208	33011632	24992
313	7.998658	95830016	63582208	37543480	24992
314	8.113465	95830016	63582208	42423160	24992
315	10.822745	95830016	63582208	31553472	24992
316	8.546685	95830016	63582208	37135504	24992
317	9.378879	95830016	63582208	43077960	24992
318	12.337097	95830016	63582208	33197832	24992
319	10.628921	96100352	63582208	39856144	24992
320	13.706226	96100352	63582208	31233552	24992
321	11.931477	96100352	63582208	38624480	24992
322	15.251289	96100352	64106496	30957192	24992
323	13.073693	96100352	64106496	39063792	24992
324	16.450043	96100352	64106496	32018168	24992
325	14.182131	96100352	64106496	40859896	24992
326	17.7673	96370688	64106496	34262048	24992
327	15.068052	96370688	64106496	43823336	24992
328	17.860024	96370688	64106496	37454944	24992
329	19.577521	96370688	64106496	32571672	24992
330	17.161353	96641024	64106496	43243504	24992
331	20.34621	96641024	64106496	38092992	24992
332	21.704287	96641024	64106496	34256640	24992
333	22.761136	96641024	64106496	31442376	24992
334	19.49642	96641024	64106496	43606328	24992
335	22.805736	96911360	64106496	39967896	24992
336	24.217792	96911360	64630784	37363072	24992
337	25.607302	96911360	65155072	35556760	24992
338	25.925077	97181696	65155072	34447664	24992
339	26.179889	97181696	65155072	33932688	24992
340	26.895985	97181696	65155072	33890384	24992
341	27.986328	97181696	65155072	34265920	24992
342	28.791162	97452032	65155072	34970784	24992
343	28.920135	97452032	65155072	35964448	24992
344	29.872611	97452032	65155072	37158248	24992
345	30.115983	97722368	65155072	38547104	24992
346	31.081424	97722368	65679360	40077760	24992
347	31.004966	97722368	65679360	41731832	24992
348	31.498896	97992704	65679360	43511352	24992
349	31.91362	97992704	65679360	45376080	24992
350	36.764759	97992704	65679360	33836360	24992
351	34.35612	98263040	65679360	38204376	24992
352	1.294973	98263040	65679360	42527280	24992
353	1.931831	98263040	65679360	43701160	24992
354	2.484355	98263040	65679360	45267824	24992
355	5.988673	98263040	65679360	31066520	24992
356	3.908107	98263040	65679360	33424768	24992
357	4.523467	98263040	65679360	36176400	24992
358	5.256078	98263040	65679360	39327544	24992
359	5.659612	98263040	65679360	42873624	24992
360	9.494773	98533376	66203648	31084984	24992
361	7.160263	98533376	66203648	35439376	24992
362	7.600344	98533376	66203648	40199840	24992
363	8.415397	98533376	66203648	45365960	24992
364	11.516179	98533376	66727936	34769720	24992
365	9.433174	98533376	66727936	40750472	24992
366	13.098924	98533376	66727936	31794576	24992
367	10.711871	98533376	66727936	38594400	24992
368	11.450347	98533376	66727936	45814864	24992
369	14.760425	98533376	66727936	37192472	24992
370	12.764844	98803712	66727936	45244392	24992
371	16.253673	98803712	66727936	37600280	24992
372	14.147024	98803712	66727936	46469432	24992
373	17.505573	98803712	66727936	39431832	24992
374	18.742035	98803712	66727936	34023024	24992
375	16.815494	98803712	66727936	44148568	24992
376	20.211075	99074048	66727936	38807664	24992
377	21.131782	99074048	66727936	34832136	24992
378	18.619979	99074048	66727936	46208976	24992
379	21.909996	99074048	66727936	41752184	24992
380	22.564278	99344384	67252224	38550272	24992
381	23.997412	99344384	67252224	36303752	24992
382	25.086661	99344384	67252224	34909640	24992
383	26.038981	99344384	67252224	34186216	24992
384	26.623334	99344384	67252224	34030472	24992
385	27.535019	99614720	67252224	34381584	24992
386	28.479108	99614720	67252224	35108696	24992
387	28.861093	99614720	67252224	36115704	24992
388	29.770881	99614720	67252224	37417000	24992
389	30.720795	99885056	67252224	38934512	24992
390	30.341392	99885056	67252224	40584472	24992
391	31.361845	99885056	67776512	42394776	24992
392	32.227296	100155392	67776512	44339104	24992
393	32.437795	100155392	68300800	46383408	24992
394	37.741255	100425728	68300800	35222768	24992
395	37.888284	103399424	71446528	42594288	24992
396	35.580748	103399424	71446528	46825408	24992
397	35.437043	103669760	71446528	50752576	24992
398	39.800379	103669760	71446528	41007200	24992
399	38.164113	103669760	71446528	46838088	24992
400	43.712708	104751104	72495104	39287856	24992
401	43.273746	107454464	75116544	49246792	24992
402	5.044538	107724800	75640832	39795840	24992
403	3.03941	107724800	75640832	41129328	24992
404	4.427201	107724800	75640832	42908848	24992
405	5.93372	107724800	75640832	45136312	24992
406	7.851447	107724800	75640832	47811448	24992
407	11.358667	102486016	70397952	15155368	24992
408	5.836621	102486016	70397952	18737920	24992
409	6.340263	102486016	70397952	22762912	24992
410	7.002516	102486016	70397952	27240824	24992
411	8.514941	102486016	70397952	16013584	24992
412	8.709859	102486016	70397952	21398264	24992
413	9.352732	102486016	70397952	27238376	24992
414	10.692116	102486016	70397952	17381512	24992
415	10.547777	102486016	70397952	24133528	24992
416	12.516746	102486016	70397952	15721840	24992
417	12.360775	102486016	70397952	23411200	24992
418	14.073735	102486016	70397952	16128032	24992
419	13.645947	102486016	70397952	24790400	24992
420	15.324561	102486016	70397952	18226048	24992
421	15.203154	102486016	70397952	27828496	24992
422	16.47004	102486016	70397952	21681256	24992
423	18.009495	102486016	70397952	17119848	24992
424	17.691319	102486016	70397952	28165136	24992
425	18.973456	102486016	70397952	23404224	24992
426	19.972838	102486016	70397952	19970752	24992
427	21.58351	102486016	70397952	17621936	24992
428	21.956547	102486016	70397952	16190144	24992
429	23.259259	102486016	70397952	15508504	24992
430	24.262739	102486016	70397952	15401624	24992
431	24.736611	102486016	70397952	15816024	24992
432	25.569957	102486016	70397952	16647384	24992
433	26.483843	102486016	70397952	17868472	24992
434	26.89743	102486016	70397952	19312640	24992
435	28.036558	102486016	70397952	21008152	24992
436	27.936246	102486016	70397952	22884720	24992
437	28.339541	102486016	70397952	24944280	24992
438	29.835383	102486016	70397952	27177512	24992
439	29.857017	102486016	70397952	29512776	24992
440	33.209067	102486016	70397952	18369120	24992
441	32.627877	102486016	70397952	23248152	24992
442	32.932144	102486016	70397952	27812152	24992
443	35.764039	102486016	70397952	18672032	24992
444	37.060008	102486016	70397952	28205888	24992
445	38.350862	103567360	71970816	21248032	24992
446	39.45935	106270720	75116544	31702256	24992
447	39.865439	107352064	76689408	25705384	24992
448	40.171098	110055424	79835136	37180480	24992
449	40.678669	110866432	80883712	31751880	24992
450	47.663407	116002816	86650880	32499576	24992
451	42.963356	118435840	89272320	45265840	24992
452	1.592867	118976512	90320896	41583128	24992
453	2.365856	118976512	90320896	43112336	24992
454	3.155708	118976512	90320896	45152752	24992
455	3.950979	118976512	90320896	47705344	24992
456	8.597192	121679872	93466624	38113888	24992
457	5.417979	121679872	93466624	41694504	24992
458	6.320353	121679872	93466624	45790352	24992
459	7.010928	121679872	93466624	50402512	24992
460	9.241972	122490880	94515200	40182464	24992
461	8.595372	122490880	94515200	45845568	24992
462	9.513491	122490880	94515200	52025776	24992
463	10.56712	122490880	95039488	42399528	24992
464	11.138969	122490880	95039488	49643760	24992
465	12.836624	122490880	95563776	41426976	24992
466	12.591369	122490880	95563776	49686816	24992
467	14.276266	122490880	96088064	42510776	24992
468	14.320646	122490880	96088064	51815336	24992
469	15.756387	122490880	96612352	45374000	24992
470	17.081846	122761216	97136640	40587760	24992
471	16.837641	122761216	97136640	51472720	24992
472	18.574206	122761216	97660928	46703056	24992
473	19.649727	122761216	98185216	43229336	24992
474	21.052998	122761216	98185216	40921248	24992
475	21.913094	122761216	98185216	39594528	24992
476	23.049657	122761216	98185216	38971224	24992
477	24.06391	122761216	98185216	38991232	24992
478	24.800073	122761216	98185216	39534552	24992
479	26.493279	122761216	98185216	40520528	24992
480	26.094748	122761216	98185216	41896536	24992
481	26.814972	122761216	98185216	43666800	24992
482	27.660188	122761216	98185216	45547008	24992
483	28.17784	122761216	98185216	47715064	24992
484	29.716643	122761216	98185216	49960128	24992
485	29.855587	122761216	98185216	52499008	24992
486	32.568198	123031552	98185216	41594264	24992
487	32.571752	123031552	98185216	46669432	24992
488	33.035416	123031552	98185216	51415376	24992
489	35.734054	123301888	98185216	42543888	24992
490	38.792272	126275584	98185216	52312144	24992
491	44.815488	127356928	98185216	45670928	24992
492	59.374175	98725888	69349376	28324696	24992
493	40.774248	101154816	69349376	22187000	24992
494	42.039443	101695488	69349376	33993008	24992
495	40.59747	101695488	69349376	28649336	24992
496	48.468213	101695488	69349376	29920968	24992
497	43.087383	101965824	69349376	43278736	24992
498	43.486993	101965824	69349376	39200552	24992
499	45.581045	101965824	69349376	36781312	24992
500	50.085424	102506496	69873664	40207808	24992
501	51.77097	106831872	74067968	43924440	24992
502	1.838843	111697920	79310848	48907120	24992
503	2.848676	111697920	79310848	50582488	24992
504	3.772732	111697920	79310848	52830336	24992
505	4.566409	111697920	79310848	55626736	24992
506	5.748338	111697920	79310848	58992056	24992
507	12.324952	114130944	81408000	49310232	24992
508	7.808013	114130944	81408000	53798368	24992
509	8.48995	114130944	81408000	58862504	24992
510	13.694557	114401280	81932288	48960984	24992
511	17.206344	114401280	81932288	55157536	24992
512	18.442126	106209280	74067968	23384152	24992
513	12.337927	106209280	74067968	30705968	24992
514	13.188963	106475520	74067968	22741288	24992
515	13.300312	106475520	74067968	31216768	24992
516	14.341945	106475520	74067968	24259096	24992
517	15.313424	106475520	74067968	33881088	24992
518	16.222694	106475520	74067968	27601248	24992
519	18.364142	106475520	74067968	22988616	24992
520	19.349436	106475520	74067968	19811184	24992
521	18.495787	106475520	74067968	31722864	24992
522	19.858078	106475520	74067968	28140416	24992
523	21.34401	106475520	74067968	25710704	24992
524	23.179208	106475520	74067968	24342536	24992
525	23.467913	106475520	74067968	23805072	24992
526	24.950286	106475520	74067968	23940272	24992
527	25.138512	106475520	74067968	24619608	24992
528	26.603865	106475520	74067968	25795752	24992
529	27.239172	106475520	74067968	27350592	24992
530	28.855641	106475520	74067968	29218696	24992
531	29.007919	106475520	74067968	31337200	24992
532	29.929013	106475520	74067968	33690800	24992
533	32.562277	106475520	74067968	22681368	24992
534	33.03538	106475520	74067968	27746424	24992
535	32.751093	106475520	74067968	32475152	24992
536	36.153829	106475520	74067968	23702888	24992
537	38.368944	106475520	74067968	33608208	24992
538	39.225757	106475520	74067968	27051608	24992
539	39.529574	106475520	74067968	38110992	24992
540	40.354008	106475520	74067968	32411384	24992
541	43.423517	106475520	74067968	44714544	24992
542	41.536411	106475520	74067968	39560288	24992
543	43.937018	106475520	74067968	36229152	24992
544	48.758098	106745856	74067968	38535032	24992
545	45.866887	106745856	74067968	52965176	24992
546	44.785912	106745856	74067968	49965000	24992
547	47.070021	107016192	74592256	48448040	24992
548	54.308057	112152576	79835136	53193912	24992
549	55.668722	117018624	84553728	58369080	24992
550	82.069708	116310016	84029440	22379952	24992
551	57.811554	116101120	84029440	28047616	24992
552	1.918598	116641792	84029440	35586424	24992
553	3.003852	116641792	84029440	37408088	24992
554	3.705934	116641792	84029440	39838480	24992
555	4.774832	116641792	84029440	42893272	24992
556	9.397598	116641792	84029440	33401568	24992
557	7.60558	116641792	84029440	37678336	24992
558	8.403113	116641792	84029440	42591152	24992
559	8.481459	116641792	84029440	48129208	24992
560	10.453214	116641792	84029440	38245704	24992
561	10.394785	116641792	84029440	45020816	24992
562	12.365501	116641792	84029440	36572984	24992
563	12.203051	116641792	84029440	44601688	24992
564	14.139844	116641792	84029440	37494632	24992
565	14.404161	116641792	84029440	46786080	24992
566	15.989406	116641792	84029440	40558976	24992
567	17.105922	116641792	84029440	36020880	24992
568	17.011342	116641792	84029440	47184520	24992
569	19.728138	116641792	84029440	42766304	24992
570	20.573102	116641792	84029440	39836800	24992
571	22.337593	116641792	84029440	38057248	24992
572	23.729812	116641792	84029440	37231552	24992
573	24.288732	116641792	84029440	37149872	24992
574	24.663063	116641792	84029440	37728424	24992
575	26.260531	116641792	84029440	38804040	24992
576	26.914907	116641792	84029440	40366808	24992
577	28.415219	116641792	84029440	42261712	24992
578	29.029533	116641792	84029440	44515928	24992
579	29.433809	116641792	84029440	46975352	24992
580	33.202462	116641792	84029440	36424792	24992
581	34.478386	116641792	84029440	44509856	24992
582	33.401654	116641792	84029440	49534984	24992
583	36.470748	116641792	84029440	41085240	24992
584	38.848734	119074816	86650880	51129840	24992
585	40.077671	120156160	88223744	44851656	24992
586	40.761018	122859520	91369472	56116912	24992
587	41.032801	123670528	92942336	50704360	24992
588	48.465356	128806912	98709504	51613832	24992
589	43.368865	131239936	101330944	64611304	24992
590	44.767485	132050944	102903808	60929456	24992
591	53.43698	137187328	108670976	63765768	24992
592	67.697209	106983424	76165120	30658360	24992
593	52.150434	108871680	76165120	33542552	24992
594	53.15008	108871680	76165120	38035048	24992
595	54.085382	108871680	76165120	43252472	24992
596	55.713535	108871680	76165120	49170960	24992
597	56.443604	109412352	76689408	55654352	24992
598	62.864725	116711424	84553728	51183888	24992
599	64.590641	121577472	89272320	59047104	24992
600	79.850052	110989312	80883712	35603456	24992
601	64.372646	112877568	80883712	32253232	24992
602	2.067695	113418240	80883712	42665864	24992
603	3.066279	113418240	80883712	44654120	24992
604	7.767843	113418240	80883712	35111488	24992
605	5.151364	113418240	80883712	38432400	24992
606	6.702322	113418240	80883712	42431184	24992
607	7.202379	113418240	80883712	47091400	24992
608	10.030256	113418240	80883712	37735184	24992
609	9.278423	113418240	80883712	43724480	24992
610	10.263384	113418240	80883712	50394968	24992
611	11.830909	113418240	80883712	41272488	24992
612	12.210915	113418240	80883712	49282248	24992
613	13.780864	113418240	80883712	41720488	24992
614	15.918451	113418240	80883712	36182440	24992
615	16.03063	113418240	80883712	46214400	24992
616	17.947048	113418240	80883712	41232576	24992
617	19.151315	113418240	80883712	37771072	24992
618	18.763615	113418240	80883712	49837904	24992
619	20.260277	113418240	80883712	46264928	24992
620	22.371095	113418240	80883712	43987352	24992
621	23.358461	113418240	80883712	42767544	24992
622	24.549726	113418240	80883712	42486264	24992
623	25.211757	113418240	80883712	42904728	24992
624	26.835722	113418240	80883712	43975928	24992
625	28.113544	113418240	80883712	45508136	24992
626	28.775929	113418240	80883712	47477368	24992
627	29.797782	113418240	80883712	49793304	24992
628	32.584097	113418240	80883712	38978184	24992
629	33.294959	113418240	80883712	44230600	24992
630	33.475343	113418240	80883712	49235448	24992
631	36.681066	113418240	80883712	40717904	24992
632	38.035631	113418240	80883712	51190472	24992
633	39.962975	113418240	80883712	44902016	24992
634	40.945828	114229248	81408000	56639624	24992
635	41.358145	114229248	81408000	51325640	24992
636	43.431353	114229248	81408000	48004896	24992
637	45.163483	114499584	81932288	61696672	24992
638	43.260413	115040256	82456576	58018512	24992
639	45.48314	115851264	83505152	56009656	24992
640	54.21917	120987648	88223744	60139392	24992
641	76.079421	125853696	93466624	64854944	24992
642	58.682537	117858304	85602304	36046936	24992
643	49.130715	117858304	85602304	35707600	24992
644	62.35906	117858304	85602304	31301800	24992
645	56.701501	117858304	85602304	38791072	24992
646	58.053114	117858304	85602304	47055488	24992
647	59.700285	118398976	85602304	56020808	24992
648	65.26206	118669312	86126592	54103888	24992
649	63.192967	123535360	91893760	64411000	24992
650	89.668416	119734272	89796608	30405120	24992
651	62.718516	121622528	89796608	41187000	24992
652	2.220417	121622528	89796608	42771712	24992
653	3.307964	121622528	89796608	44909232	24992
654	4.368441	121622528	89796608	47756800	24992
655	8.362535	122163200	89796608	38568632	24992
656	6.679547	122163200	89796608	42846896	24992
657	7.778283	122163200	89796608	47847936	24992
658	10.442966	122163200	89796608	38825000	24992
659	9.688713	122163200	89796608	45253184	24992
660	12.104401	122163200	89796608	37220104	24992
661	12.395419	122163200	89796608	45097728	24992
662	14.643419	122163200	89796608	38542808	24992
663	14.605093	122163200	89796608	47875576	24992
664	16.734818	122163200	89796608	42267696	24992
665	18.244203	122163200	89796608	38402880	24992
666	17.754465	122163200	89796608	49897208	24992
667	20.449093	122163200	89796608	46169800	24992
668	22.485705	122163200	89796608	43793464	24992
669	22.779029	122163200	89796608	42561128	24992
670	23.691375	122163200	89796608	42306512	24992
671	25.341221	122163200	89796608	42856256	24992
672	27.153603	122163200	89796608	44079872	24992
673	27.314731	122163200	89796608	45846280	24992
674	29.229173	122163200	89796608	48014512	24992
675	30.007033	122163200	89796608	50520784	24992
676	33.629121	122163200	89796608	40159376	24992
677	35.824775	122163200	89796608	48416904	24992
678	33.461014	122163200	89796608	53727128	24992
679	37.013437	122163200	89796608	45612648	24992
680	39.123343	122163200	89796608	56090664	24992
681	39.412501	122163200	89796608	50151488	24992
682	40.525778	122163200	89796608	62097376	24992
683	41.400863	122433536	89796608	56967200	24992
684	44.358946	122974208	90320896	54026712	24992
685	50.81355	123514880	90845184	56495704	24992
686	49.393053	125136896	92418048	71134824	24992
687	65.972665	115666944	85602304	21539504	24992
688	52.703328	118095872	85602304	24866688	24992
689	54.792893	118095872	85602304	30134888	24992
690	55.105433	118095872	85602304	36184384	24992
691	56.83479	118095872	85602304	42932712	24992
692	57.156741	118095872	85602304	50510968	24992
693	59.290199	118095872	85602304	58771184	24992
694	80.455549	120528896	88223744	56253688	24992
695	66.61088	117940224	85602304	34128216	24992
696	66.14752	117940224	85602304	33269464	24992
697	62.96144	117940224	85602304	44502840	24992
698	70.130363	117940224	85602304	45031440	24992
699	65.450306	117940224	85602304	57835352	24992
700	79.422075	120102912	87699456	59916392	24992
701	91.462205	118878208	86650880	32103816	24992
702	2.380597	119418880	86650880	36592312	24992
703	3.491174	119418880	86650880	38884584	24992
704	4.762669	119418880	86650880	41927240	24992
705	8.446296	119418880	86650880	32922152	24992
706	7.481841	119418880	86650880	37497384	24992
707	8.388013	119418880	86650880	42834488	24992
708	10.887458	119418880	86650880	33956008	24992
709	10.685864	119418880	86650880	40829808	24992
710	13.207977	119418880	86650880	33349168	24992
711	13.353932	119418880	86650880	41768008	24992
712	15.587476	119418880	86650880	35663464	24992
713	15.452974	119418880	86650880	45641992	24992
714	17.32809	119418880	86650880	40316280	24992
715	19.064485	119418880	86650880	36745248	24992
716	20.976599	119418880	86650880	34615120	24992
717	20.641893	119418880	86650880	47661824	24992
718	21.356487	119418880	86650880	45145456	24992
719	23.856013	119418880	86650880	43833392	24992
720	25.477285	119418880	86650880	43566096	24992
721	27.390547	119418880	86650880	44080816	24992
722	28.094024	119418880	86650880	45262704	24992
723	28.731503	119418880	86650880	47077800	24992
724	31.766819	119418880	86650880	35959304	24992
725	35.754697	119418880	86650880	44066416	24992
726	33.488068	119418880	86650880	49167056	24992
727	36.557263	119418880	86650880	40871328	24992
728	38.311422	119418880	86650880	51322480	24992
729	40.509637	119418880	86650880	45244376	24992
730	41.368671	119418880	86650880	57249424	24992
731	41.252654	119418880	86650880	52228088	24992
732	44.281756	119418880	86650880	49318224	24992
733	48.5048	119418880	86650880	52030872	24992
734	48.342442	120229888	87699456	66846896	24992
735	67.820204	114806784	84553728	18163528	24992
736	55.159804	117235712	84553728	22375192	24992
737	54.8602	117235712	84553728	28172288	24992
738	54.528138	117235712	84553728	34572352	24992
739	56.901207	117235712	84553728	41799672	24992
740	57.967603	117235712	84553728	49817592	24992
741	62.280699	117235712	84553728	58676504	24992
742	88.957284	116572160	86650880	28730256	24992
743	61.965224	119275520	86650880	38779504	24992
744	68.746155	119275520	86650880	38566672	24992
745	63.773644	119275520	86650880	50475168	24992
746	70.105465	119275520	86650880	51853632	24992
747	67.510678	119275520	86650880	65462712	24992
748	80.914541	124952576	92942336	68317208	24992
749	90.941235	122355712	89796608	25998368	24992
750	70.238739	122355712	89796608	41998336	24992
751	76.421346	122355712	89796608	47353368	24992
752	2.530443	122355712	89796608	54424128	24992
753	3.759109	122355712	89796608	56852704	24992
754	8.295965	122626048	89796608	47811960	24992
755	6.474048	122626048	89796608	51861328	24992
756	7.573413	122626048	89796608	56739520	24992
757	10.700525	122626048	89796608	48143336	24992
758	10.197319	122626048	89796608	54644072	24992
759	11.272422	122626048	89796608	61958008	24992
760	13.02839	122626048	89796608	53811656	24992
761	15.398784	122626048	89796608	47933072	24992
762	15.283286	122626048	89796608	57699608	24992
763	17.886591	122626048	89796608	52739552	24992
764	19.335216	122626048	89796608	49594648	24992
765	19.129054	122626048	89796608	61848920	24992
766	20.896168	122626048	89796608	58611696	24992
767	23.394572	122626048	89796608	56809696	24992
768	24.385537	122626048	89796608	56247912	24992
769	25.283324	122626048	89796608	56525888	24992
770	27.383244	122626048	89796608	57620352	24992
771	28.754114	122626048	89796608	59425720	24992
772	29.479011	122626048	89796608	61655000	24992
773	32.879127	122626048	89796608	51112808	24992
774	35.351692	122626048	89796608	59523776	24992
775	34.006934	122626048	89796608	64976896	24992
776	36.887864	122626048	89796608	56951280	24992
777	40.590292	122626048	89796608	67876328	24992
778	54.442155	122896384	90320896	62147672	24992
779	47.324882	119275520	86650880	25824008	24992
780	48.13339	119275520	86650880	27651288	24992
781	48.885022	119275520	86650880	30151592	24992
782	49.65882	119275520	86650880	33491736	24992
783	47.61683	119275520	86650880	49122824	24992
784	47.90833	119275520	86650880	47335416	24992
785	48.909023	119275520	86650880	46905992	24992
786	56.247037	119275520	86650880	53791136	24992
787	63.048874	119275520	86650880	49901192	24992
788	77.704005	121167872	88748032	58139152	24992
789	68.705857	121503744	89272320	38027224	24992
790	66.764134	121503744	89272320	36538080	24992
791	63.452935	121503744	89272320	47455392	24992
792	68.787887	121503744	89272320	47773688	24992
793	66.64767	121503744	89272320	60321960	24992
794	72.278701	123666432	91369472	62340872	24992
795	90.759357	130965504	98709504	65117048	24992
796	74.290625	123744256	91369472	31124104	24992
797	74.110381	123744256	91369472	35715600	24992
798	77.05266	124014592	91369472	40964360	24992
799	77.47264	124014592	91369472	47205288	24992
800	79.77588	124014592	91369472	54285640	24992
801	112.411875	121741312	91893760	32743544	24992
802	2.607362	124440576	91893760	41762352	24992
803	4.129709	124440576	91893760	44343992	24992
804	8.628847	124440576	91893760	35493568	24992
805	6.777759	124440576	91893760	39788848	24992
806	8.356865	124440576	91893760	44949920	24992
807	11.440215	124440576	91893760	36478088	24992
808	10.642694	124440576	91893760	43372672	24992
809	13.522597	124440576	91893760	36030288	24992
810	13.819344	124440576	91893760	44658000	24992
811	16.073545	124440576	91893760	38871944	24992
812	16.574952	124440576	91893760	49236320	24992
813	17.721453	124440576	91893760	44294112	24992
814	20.310384	124440576	91893760	41145200	24992
815	21.549131	124440576	91893760	39513920	24992
816	23.713986	124440576	91893760	39034368	24992
817	24.976793	124440576	91893760	39480744	24992
818	26.08164	124440576	91893760	40775680	24992
819	28.147177	124440576	91893760	42634272	24992
820	28.796759	124440576	91893760	45049080	24992
821	30.695834	124440576	91893760	47956776	24992
822	34.17128	124440576	91893760	38183456	24992
823	36.183654	124440576	91893760	46909088	24992
824	35.166804	124440576	91893760	52732640	24992
825	36.958709	124440576	91893760	45110296	24992
826	40.503399	124440576	91893760	56453544	24992
827	41.210116	124440576	91893760	50934080	24992
828	44.107079	124440576	91893760	47785096	24992
829	44.381175	124440576	91893760	61690168	24992
830	44.903994	124440576	91893760	58494016	24992
831	47.113846	124440576	91893760	57019232	24992
832	52.145319	124440576	91893760	62205312	24992
833	53.361984	125792256	93466624	67978824	24992
834	67.1732	130928640	98185216	74708120	24992
835	72.621636	122363904	89796608	31359272	24992
836	60.237424	122363904	89796608	40082888	24992
837	63.836801	122363904	89796608	37940808	24992
838	60.8897	122363904	89796608	48267072	24992
839	67.382438	122363904	89796608	48065264	24992
840	65.572366	122363904	89796608	59990792	24992
841	91.884292	123985920	91369472	61560608	24992
842	73.750342	124456960	91893760	30322216	24992
843	71.404844	124456960	91893760	33546680	24992
844	69.894123	124456960	91893760	49333280	24992
845	74.777486	124456960	91893760	54456592	24992
846	81.524967	124456960	91893760	60607728	24992
847	105.659394	119046144	89272320	37560528	24992
848	80.157833	121475072	89272320	45048512	24992
849	85.631776	121475072	89272320	42361736	24992
850	82.70492	121475072	89272320	52030000	24992
851	85.337343	122556416	90320896	62632864	24992
852	4.578415	130125824	97660928	75248176	24992
853	15.201101	132558848	100282368	66178552	24992
854	11.553216	132558848	100282368	69915416	24992
855	10.519786	122753024	92418048	26124680	24992
856	9.476658	122753024	92418048	31743448	24992
857	11.65688	124641280	92418048	22839104	24992
858	11.23387	124641280	92418048	30335600	24992
859	14.085667	124641280	92418048	23614968	24992
860	14.42596	124641280	92418048	32994952	24992
861	16.885837	124641280	92418048	27655000	24992
862	18.791738	124641280	92418048	24169832	24992
863	18.771632	124641280	92418048	36372848	24992
864	20.206433	124641280	92418048	33201000	24992
865	22.64669	124641280	92418048	31541568	24992
866	24.089112	124641280	92418048	31137400	24992
867	25.902617	124641280	92418048	31807920	24992
868	27.635418	124641280	92418048	33273224	24992
869	28.996006	124641280	92418048	35425968	24992
870	32.566621	124641280	92418048	24861832	24992
871	35.522152	124641280	92418048	33402984	24992
872	34.385834	124641280	92418048	39109720	24992
873	35.722838	124641280	92418048	31291528	24992
874	39.873115	124641280	92418048	42607864	24992
875	40.231431	124641280	92418048	37259064	24992
876	41.949824	124641280	92418048	34168920	24992
877	43.151012	124641280	92418048	48175752	24992
878	44.350841	124641280	92418048	45098656	24992
879	46.481838	124641280	92418048	43755712	24992
880	51.333349	124641280	92418048	49075280	24992
881	52.169919	124641280	92418048	55294560	24992
882	54.002344	124641280	92418048	62393488	24992
883	60.248634	125722624	92942336	58873040	24992
884	85.765726	128155648	95563776	67982944	24992
885	77.313127	128520192	96088064	31465808	24992
886	67.785014	128520192	96088064	42447440	24992
887	68.779934	128520192	96088064	42909296	24992
888	64.288563	128520192	96088064	55811216	24992
889	68.929818	128520192	96088064	58130928	24992
890	74.635864	128520192	96088064	61358088	24992
891	103.205159	125939712	95563776	32682784	24992
892	75.822074	127827968	95563776	36902528	24992
893	75.525436	127827968	95563776	43108488	24992
894	77.932964	127827968	95563776	50309040	24992
895	80.870975	127827968	95563776	58519880	24992
896	80.744483	128098304	95563776	67641824	24992
897	116.651389	128184320	95563776	30160600	24992
898	85.807291	128184320	95563776	41455248	24992
899	85.213359	128184320	95563776	53562720	24992
900	88.829766	128184320	95563776	54923864	24992
901	88.253605	128184320	95563776	68950824	24992
902	6.118647	125173760	92942336	21941600	24992
903	4.555516	125173760	92942336	24932832	24992
904	5.879726	125173760	92942336	28876808	24992
905	8.054439	125173760	92942336	33791032	24992
906	11.818264	125173760	92942336	25870768	24992
907	10.486985	125173760	92942336	32769152	24992
908	12.799981	125173760	92942336	25042624	24992
909	13.659738	125173760	92942336	33915328	24992
910	16.009529	125173760	92942336	27993256	24992
911	17.96026	125173760	92942336	24105200	24992
912	18.056465	125173760	92942336	35949352	24992
913	20.66043	125173760	92942336	32653192	24992
914	22.72615	125173760	92942336	30896016	24992
915	24.30851	125173760	92942336	30513848	24992
916	25.622603	125173760	92942336	31102616	24992
917	27.624157	125173760	92942336	32667416	24992
918	29.277579	125173760	92942336	34890136	24992
919	32.167268	125173760	92942336	24583568	24992
920	34.926675	125173760	92942336	33093600	24992
921	33.81048	125173760	92942336	38888144	24992
922	36.887605	125173760	92942336	31342120	24992
923	40.154056	125173760	92942336	42898712	24992
924	40.777579	125173760	92942336	37810688	24992
925	43.658686	125173760	92942336	34895728	24992
926	48.859453	125173760	92942336	37688080	24992
927	47.998328	125173760	92942336	53027016	24992
928	46.338754	125173760	92942336	51112512	24992
929	47.142778	125173760	92942336	50819144	24992
930	54.284985	125173760	92942336	57809632	24992
931	61.11279	125173760	92942336	54045616	24992
932	80.412436	126255104	94515200	62801952	24992
933	68.946271	123363328	90845184	29212328	24992
934	61.325916	123363328	90845184	40049528	24992
935	66.993664	123363328	90845184	40381192	24992
936	64.52351	123363328	90845184	53306392	24992
937	69.889799	123363328	90845184	55630312	24992
938	68.53196	124174336	91369472	70408872	24992
939	96.150253	122454016	92418048	25565360	24992
940	76.141877	124882944	92418048	29583320	24992
941	76.442353	124882944	92418048	36004424	24992
942	76.901744	124882944	92418048	43542128	24992
943	78.24234	124882944	92418048	52062760	24992
944	100.488028	125693952	92942336	61480480	24992
945	92.771877	121376768	88748032	28416784	24992
946	83.458916	121376768	88748032	39905296	24992
947	85.402408	121376768	88748032	52360624	24992
948	93.022894	121376768	88748032	54571736	24992
949	119.465471	119947264	89272320	24765888	24992
950	91.947857	121835520	89272320	39553696	24992
951	93.999571	121835520	89272320	44888792	24992
952	3.171908	121835520	89272320	51975800	24992
953	4.719082	121835520	89272320	55068360	24992
954	6.161237	121835520	89272320	59193288	24992
955	10.601588	121835520	89272320	51166912	24992
956	9.732175	121835520	89272320	57375688	24992
957	12.682336	121835520	89272320	49759680	24992
958	12.72809	121835520	89272320	58024400	24992
959	15.593738	121835520	89272320	51948176	24992
960	15.984522	121835520	89272320	62289048	24992
961	17.93777	121835520	89272320	57468392	24992
962	19.846514	121835520	89272320	54511904	24992
963	21.775512	121835520	89272320	53154120	24992
964	23.770487	121835520	89272320	53133136	24992
965	25.447929	121835520	89272320	54190280	24992
966	27.849015	121835520	89272320	56073256	24992
967	28.587046	121835520	89272320	58674072	24992
968	29.926653	121835520	89272320	61783856	24992
969	33.175685	121835520	89272320	52220184	24992
970	37.559853	121835520	89272320	61814600	24992
971	45.728039	122105856	89272320	55491944	24992
972	49.402521	118521856	88223744	32591416	24992
973	39.438586	120950784	88223744	26536728	24992
974	42.637156	120950784	88223744	23607760	24992
975	48.948526	120950784	88223744	26637920	24992
976	50.362891	120950784	88223744	30594288	24992
977	53.344831	120950784	88223744	35726088	24992
978	54.220175	120950784	88223744	41834528	24992
979	53.450416	120950784	88223744	48932264	24992
980	62.25402	121491456	88748032	57131448	24992
981	80.607712	119255040	86650880	24658072	24992
982	60.743865	119255040	86650880	35063824	24992
983	61.747861	119255040	86650880	46467040	24992
984	68.123132	119255040	86650880	47467368	24992
985	71.611316	119255040	86650880	49415776	24992
986	67.517741	119255040	86650880	64014720	24992
987	99.605504	119742464	89272320	37074248	24992
988	71.749467	121630720	89272320	41696416	24992
989	76.136716	121630720	89272320	47908072	24992
990	76.799692	121630720	89272320	55226872	24992
991	77.397051	121901056	89272320	63697632	24992
992	91.688673	125956096	93466624	73168816	24992
993	100.238213	124616704	92418048	35895736	24992
994	90.463635	124616704	92418048	35980288	24992
995	85.297067	124616704	92418048	48683072	24992
996	86.158866	124616704	92418048	62412360	24992
997	119.177275	128401408	96612352	65786896	24992
998	100.348648	122867712	90320896	36012184	24992
999	97.186609	122867712	90320896	41460672	24992
1000	101.265837	122867712	90320896	48124256	24992
