x	Duration	RSS	HeapTotal	HeapUsed	External
0	NA	98045952	67776512	10886880	24992
1	1.51132	98045952	67776512	11567008	24992
2	2.627739	98045952	67776512	12905424	24992
3	3.804185	98045952	67776512	14903208	24992
4	2.974295	98045952	67776512	17560528	24992
5	3.903079	98045952	67776512	20877952	24992
6	4.651704	98045952	67776512	24854912	24992
7	5.390867	98045952	67776512	13025560	24992
8	5.878736	98045952	67776512	18321648	24992
9	7.001862	98045952	67776512	24278272	24992
10	7.613509	98045952	67776512	14435344	24992
11	8.021126	98045952	67776512	21711224	24992
12	0.824077	98045952	67776512	13151544	24992
13	1.561839	98045952	67776512	14489808	24992
14	2.298299	98045952	67776512	16487624	24992
15	3.008459	98045952	67776512	19145008	24992
16	3.678243	98045952	67776512	22462480	24992
17	4.669013	98045952	67776512	26441912	24992
18	5.60871	98045952	67776512	14613000	24992
19	5.898336	98045952	67776512	19909520	24992
20	6.789559	98045952	67776512	25866208	24992
21	7.80826	98045952	67776512	16024192	24992
22	0.790319	98045952	67776512	23279640	24992
23	1.521845	98045952	67776512	24617904	24992
24	2.287929	98045952	67776512	26615720	24992
25	3.255244	98045952	67776512	12804352	24992
26	3.694262	98045952	67776512	16121824	24992
27	4.450044	98045952	67776512	20098928	24992
28	5.118545	98045952	67776512	24735512	24992
29	6.296358	98045952	67776512	13565800	24992
30	6.569895	98045952	67776512	19522584	24992
31	7.502662	98045952	67776512	26138824	24992
32	0.826211	98045952	67776512	16927776	24992
33	1.532111	98045952	67776512	18266040	24992
34	2.23768	98045952	67776512	20263856	24992
35	3.020369	98045952	67776512	22921240	24992
36	3.676001	98045952	67776512	26238712	24992
37	4.842346	98045952	67776512	13749896	24992
38	5.135909	98045952	67776512	18386480	24992
39	6.058142	98045952	67776512	23682632	24992
40	6.787507	98045952	67776512	13176224	24992
41	7.360087	98045952	67776512	19792480	24992
42	0.787212	98045952	67776512	27047928	24992
43	1.729967	98045952	67776512	11913936	24992
44	2.306408	98045952	67776512	13911752	24992
45	3.033138	98045952	67776512	16569808	24992
46	3.966101	98045952	67776512	19887280	24992
47	4.424512	98045952	67776512	23864352	24992
48	5.33029	98045952	67776512	12035920	24992
49	5.893419	98045952	67776512	17332072	24992
50	6.554175	98045952	67776512	23288872	24992
51	8.603888	98045952	67776512	13443840	24992
52	0.79931	98045952	67776512	20713328	24992
53	1.506454	98045952	67776512	22051592	24992
54	2.228414	98045952	67776512	24049664	24992
55	3.00651	98045952	67776512	26707048	24992
56	4.15462	98045952	67776512	13558208	24992
57	4.503759	98045952	67776512	17535232	24992
58	5.275895	98045952	67776512	22171816	24992
59	6.186308	98045952	67776512	27468912	24992
60	6.997691	98045952	67776512	16963176	24992
61	7.282161	98045952	67776512	23579480	24992
62	0.787554	98045952	67776512	14365584	24992
63	1.52101	98045952	67776512	15703848	24992
64	2.425122	98045952	67776512	17704360	24992
65	2.999029	98045952	67776512	20361744	24992
66	3.662976	98045952	67776512	23679216	24992
67	4.390366	98045952	67776512	27656480	24992
68	5.539753	98045952	67776512	15825928	24992
69	5.880636	98045952	67776512	21122080	24992
70	6.760378	98045952	67776512	27078800	24992
71	7.579684	98045952	67776512	17236128	24992
72	0.791784	98045952	67776512	24491576	24992
73	1.507669	98045952	67776512	25829840	24992
74	2.421156	98045952	67776512	27827720	24992
75	3.229345	98045952	67776512	14014776	24992
76	3.669275	98045952	67776512	17332296	24992
77	4.372916	98045952	67776512	21309320	24992
78	5.33362	98045952	67776512	25945904	24992
79	6.058886	98045952	67776512	14775520	24992
80	6.613647	98045952	67776512	20732400	24992
81	7.541331	98045952	67776512	27349840	24992
82	0.78966	98045952	67776512	18138584	24992
83	1.697691	98045952	67776512	19476760	24992
84	2.25368	98045952	67776512	21475640	24992
85	2.949583	98045952	67776512	24132952	24992
86	3.66323	98045952	67776512	27450336	24992
87	5.263663	98045952	67776512	14965632	24992
88	5.313096	98045952	67776512	19601504	24992
89	6.230742	98045952	67776512	24896864	24992
90	6.766161	98045952	67776512	14389624	24992
91	7.452088	98045952	67776512	21004912	24992
92	1.050739	98045952	67776512	11783600	24992
93	1.507373	98045952	67776512	13121544	24992
94	2.217254	98045952	67776512	15118984	24992
95	2.995762	98045952	67776512	17775968	24992
96	3.648113	98045952	67776512	21092880	24992
97	4.598043	98045952	67776512	25069272	24992
98	5.356326	98045952	67776512	13238352	24992
99	6.035019	98045952	67776512	18533712	24992
100	6.515077	98045952	67776512	24489512	24992
101	7.538628	98045952	67776512	14643336	24992
102	0.781773	98045952	67776512	21897848	24992
103	1.492926	98045952	67776512	23235784	24992
104	2.223404	98045952	67776512	25233208	24992
105	2.927808	98045952	67776512	27890120	24992
106	4.076451	98045952	67776512	14739584	24992
107	4.384897	98045952	67776512	18716008	24992
108	5.085387	98045952	67776512	23351880	24992
109	6.319775	98045952	67776512	12180488	24992
110	6.543995	98045952	67776512	18136320	24992
111	7.48139	98045952	67776512	24751608	24992
112	0.781501	98045952	67776512	15535856	24992
113	1.507468	98045952	67776512	16873792	24992
114	2.222666	98045952	67776512	18871216	24992
115	2.999357	98045952	67776512	21528176	24992
116	3.67317	98045952	67776512	24845080	24992
117	4.772122	98045952	67776512	12356512	24992
118	5.286219	98045952	67776512	16992384	24992
119	5.968763	98045952	67776512	22289704	24992
120	6.760653	98045952	67776512	28245504	24992
121	7.611337	98045952	67776512	18390872	24992
122	0.794258	98045952	67776512	25645208	24992
123	1.529523	98045952	67776512	26983144	24992
124	2.492198	98045952	67776512	12510856	24992
125	3.233678	98045952	67776512	15167768	24992
126	3.879162	98045952	67776512	18484672	24992
127	4.552932	98045952	67776512	22461160	24992
128	5.617605	98045952	67776512	27099136	24992
129	6.214021	98045952	67776512	15931064	24992
130	6.739226	98045952	67776512	21886912	24992
131	7.47088	98045952	67776512	12036784	24992
132	0.790946	98045952	67776512	19291096	24992
133	1.495861	98045952	67776512	20629032	24992
134	2.206649	98045952	67776512	22626504	24992
135	2.992522	98045952	67776512	25283416	24992
136	3.997238	98045952	67776512	12130072	24992
137	4.408716	98045952	67776512	16106456	24992
138	5.311615	98045952	67776512	20742328	24992
139	5.850998	98045952	67776512	26037688	24992
140	6.979851	98045952	67776512	15530880	24992
141	7.295964	98045952	67776512	22146184	24992
142	0.786124	98045952	67776512	12934648	24992
143	1.496899	98045952	67776512	14272584	24992
144	2.437793	98045952	67776512	16270008	24992
145	2.921707	98045952	67776512	18926920	24992
146	3.764458	98045952	67776512	22244816	24992
147	4.573945	98045952	67776512	26221304	24992
148	5.404755	98045952	67776512	14392112	24992
149	6.024723	98045952	67776512	19687472	24992
150	6.51635	98045952	67776512	25643272	24992
151	7.714494	98045952	67776512	15798992	24992
152	0.781005	98045952	67776512	23053312	24992
153	1.729682	98045952	67776512	24391248	24992
154	2.219273	98045952	67776512	26388736	24992
155	3.262485	98045952	67776512	12575632	24992
156	3.748627	98045952	67776512	15892536	24992
157	4.576672	98045952	67776512	19868928	24992
158	5.058733	98045952	67776512	24504800	24992
159	6.285428	98045952	67776512	13333416	24992
160	6.568674	98045952	67776512	19289216	24992
161	7.461443	98045952	67776512	25904536	24992
162	1.000763	98045952	67776512	16691432	24992
163	1.497763	98045952	67776512	18029448	24992
164	2.214692	98045952	67776512	20026872	24992
165	2.915374	98045952	67776512	22683784	24992
166	3.635909	98045952	67776512	26000688	24992
167	4.657636	98045952	67776512	13510304	24992
168	5.0894	98045952	67776512	18146176	24992
169	6.009017	98045952	67776512	23441536	24992
170	6.819022	98045952	67776512	12933256	24992
171	7.487796	98045952	67776512	19548544	24992
172	0.777353	98045952	67776512	26802864	24992
173	1.492555	98045952	67776512	28140800	24992
174	2.52246	98045952	67776512	13667864	24992
175	3.16612	98045952	67776512	16324792	24992
176	3.771826	98045952	67776512	19641696	24992
177	4.571254	98045952	67776512	23618088	24992
178	5.277493	98045952	67776512	28253960	24992
179	6.278618	98045952	67776512	17085832	24992
180	6.498829	98045952	67776512	23041632	24992
181	7.828821	98045952	67776512	13191304	24992
182	0.773141	98045952	67776512	20445688	24992
183	1.750561	98045952	67776512	21783624	24992
184	2.202903	98045952	67776512	23781048	24992
185	2.936373	98045952	67776512	26437960	24992
186	4.132993	98045952	67776512	13284480	24992
187	4.450931	98045952	67776512	17260872	24992
188	5.403182	98045952	67776512	21896744	24992
189	5.800093	98045952	67776512	27192104	24992
190	6.82063	98045952	67776512	16685328	24992
191	7.617528	98045952	67776512	23300616	24992
192	0.782716	98045952	67776512	14085080	24992
193	1.501536	98045952	67776512	15423016	24992
194	2.258826	98045952	67776512	17420440	24992
195	3.447477	98045952	67776512	20077352	24992
196	3.771457	98045952	67776512	23394256	24992
197	4.397559	98045952	67776512	27370648	24992
198	5.681988	98045952	67776512	15539624	24992
199	5.842423	98045952	67776512	20834984	24992
200	6.731237	98045952	67776512	26790784	24992
201	7.538672	98045952	67776512	16946376	24992
202	0.786283	98045952	67776512	24200728	24992
203	1.505515	98045952	67776512	25538728	24992
204	2.197462	98045952	67776512	27536152	24992
205	3.159105	98045952	67776512	13723016	24992
206	3.650258	98045952	67776512	17039920	24992
207	5.241764	98045952	67776512	21016464	24992
208	5.175245	98045952	67776512	25666824	24992
209	6.281658	98045952	67776512	14495328	24992
210	6.729122	98045952	67776512	20451144	24992
211	7.479124	98045952	67776512	27066432	24992
212	0.783789	98045952	67776512	17853264	24992
213	1.720637	98045952	67776512	19191200	24992
214	2.214709	98045952	67776512	21188624	24992
215	2.959515	98045952	67776512	23845568	24992
216	3.653199	98045952	67776512	27162472	24992
217	4.834012	98045952	67776512	14672024	24992
218	5.334444	98045952	67776512	19307912	24992
219	6.022324	98045952	67776512	24606288	24992
220	7.063827	98045952	67776512	14098344	24992
221	7.448306	98045952	67776512	20713616	24992
222	0.996044	98045952	67776512	27967920	24992
223	1.735666	98045952	67776512	12833824	24992
224	2.258213	98045952	67776512	14831224	24992
225	2.970107	98045952	67776512	17488120	24992
226	3.758321	98045952	67776512	20805008	24992
227	4.578806	98045952	67776512	24781400	24992
228	5.334241	98045952	67776512	12950576	24992
229	6.005233	98045952	67776512	18248792	24992
230	6.500761	98045952	67776512	24204576	24992
231	7.552093	98045952	67776512	14359160	24992
232	0.776881	98045952	67776512	21613448	24992
233	1.724788	98045952	67776512	22951368	24992
234	2.213766	98045952	67776512	24948776	24992
235	2.940341	98045952	67776512	27605672	24992
236	4.171822	98045952	67776512	14458688	24992
237	4.411204	98045952	67776512	18435064	24992
238	5.096696	98045952	67776512	23070920	24992
239	6.003073	98045952	67776512	28366264	24992
240	7.073697	98045952	67776512	17861400	24992
241	7.230542	98045952	67776512	24476672	24992
242	0.817368	98045952	67776512	15262000	24992
243	1.568674	98045952	67776512	16599872	24992
244	2.216585	98045952	67776512	18597136	24992
245	2.92034	98045952	67776512	21253840	24992
246	3.848404	98045952	67776512	24570488	24992
247	4.369329	98045952	67776512	28546576	24992
248	5.554488	98045952	67776512	16714880	24992
249	5.796496	98045952	67776512	22009840	24992
250	6.548716	98045952	67776512	27965256	24992
251	7.494058	98045952	67776512	18120720	24992
252	0.778369	98045952	67776512	25374480	24992
253	1.490499	98045952	67776512	26712304	24992
254	2.2258	98045952	67776512	28709568	24992
255	3.363624	98045952	67776512	14895552	24992
256	3.714196	98045952	67776512	18212200	24992
257	4.361947	98045952	67776512	22188288	24992
258	5.295158	98045952	67776512	26823808	24992
259	6.289042	98045952	67776512	15651800	24992
260	6.552893	98045952	67776512	21607152	24992
261	7.23021	98045952	67776512	28221944	24992
262	0.782139	98045952	67776512	19008232	24992
263	1.503155	98045952	67776512	20346088	24992
264	2.207665	98045952	67776512	22343352	24992
265	3.144506	98045952	67776512	25000056	24992
266	3.632701	98045952	67776512	28316704	24992
267	4.602292	98045952	67776512	15826048	24992
268	5.138688	98045952	67776512	20461568	24992
269	5.797997	98045952	67776512	25756528	24992
270	7.178356	98045952	67776512	15247816	24992
271	7.784298	98045952	67776512	21862608	24992
272	1.015483	98045952	67776512	29116368	24992
273	1.727121	98045952	67776512	13981048	24992
274	2.259788	98045952	67776512	15978312	24992
275	2.916097	98045952	67776512	18635016	24992
276	3.697813	98045952	67776512	21951664	24992
277	4.364738	98045952	67776512	25927752	24992
278	5.407966	98045952	67776512	14096584	24992
279	5.816744	98045952	67776512	19391544	24992
280	6.948839	98045952	67776512	25347008	24992
281	7.917283	98045952	67776512	15498232	24992
282	0.773224	98045952	67776512	22752024	24992
283	1.533126	98045952	67776512	24089848	24992
284	2.43306	98045952	67776512	26087112	24992
285	2.936496	98045952	67776512	28743816	24992
286	3.917537	98045952	67776512	15593712	24992
287	4.696238	98045952	67776512	19569832	24992
288	5.335018	98045952	67776512	24207944	24992
289	6.029123	98045952	67776512	29502632	24992
290	6.762888	98045952	67776512	18984944	24992
291	7.280963	98045952	67776512	25599400	24992
292	1.009266	98045952	67776512	16382696	24992
293	1.496115	98045952	67776512	17720448	24992
294	2.215693	98045952	67776512	19717592	24992
295	2.914091	98045952	67776512	22374232	24992
296	4.332405	98045952	67776512	25690720	24992
297	4.917213	98045952	67776512	13208552	24992
298	5.073261	98045952	67776512	17843824	24992
299	5.818938	98045952	67776512	23138512	24992
300	6.49697	98045952	67776512	29093560	24992
301	7.721494	98045952	67776512	19274240	24992
302	0.77576	98045952	67776512	26527680	24992
303	1.491873	98045952	67776512	27865520	24992
304	2.462272	98045952	67776512	13435720	24992
305	2.931964	98045952	67776512	16092272	24992
306	3.674231	98045952	67776512	19408744	24992
307	4.350568	98045952	67776512	23384624	24992
308	5.065903	98045952	67776512	28019904	24992
309	6.321236	98045952	67776512	16886064	24992
310	6.734589	98045952	67776512	22841112	24992
311	7.437911	98045952	67776512	29455568	24992
312	0.832013	98045952	67776512	20290488	24992
313	1.494629	98045952	67776512	21628232	24992
314	2.199669	98045952	67776512	23625384	24992
315	2.910244	98045952	67776512	26281944	24992
316	3.943105	98045952	67776512	29598416	24992
317	4.681959	98045952	67776512	17149232	24992
318	5.308692	98045952	67776512	21784512	24992
319	5.782101	98045952	67776512	27079200	24992
320	6.87257	98045952	67776512	16609896	24992
321	7.219373	98045952	67776512	23224352	24992
322	1.119347	98045952	67776512	14040320	24992
323	1.496201	98045952	67776512	15378064	24992
324	2.208457	98045952	67776512	17375216	24992
325	3.132364	98045952	67776512	20031776	24992
326	3.666212	98045952	67776512	23348248	24992
327	4.4059	98045952	67776512	27324128	24992
328	5.449342	98045952	67776512	15532952	24992
329	6.006008	98045952	67776512	20827640	24992
330	6.539415	98045952	67776512	26782688	24992
331	7.66943	98045952	67776512	16982304	24992
332	0.780482	98045952	67776512	24235680	24992
333	1.563338	98045952	67776512	25573424	24992
334	2.419664	98045952	67776512	27570576	24992
335	3.507578	98045952	67776512	13797064	24992
336	3.697511	98045952	67776512	17113536	24992
337	4.539498	98045952	67776512	21089448	24992
338	5.547776	98045952	67776512	25724728	24992
339	6.221944	98045952	67776512	14591136	24992
340	6.913237	98045952	67776512	20546200	24992
341	7.273475	98045952	67776512	27160656	24992
342	0.783419	98045952	67776512	17989744	24992
343	1.484145	98045952	67776512	19327488	24992
344	2.558527	98045952	67776512	21324704	24992
345	3.19352	98045952	67776512	23983856	24992
346	3.64519	98045952	67776512	27300440	24992
347	4.982099	98045952	67776512	14852056	24992
348	5.11844	98045952	67776512	19487336	24992
349	5.841011	98045952	67776512	24782024	24992
350	6.898119	98045952	67776512	14313048	24992
351	7.430862	98045952	67776512	20927512	24992
352	0.770403	98045952	67776512	28180968	24992
353	1.714847	98045952	67776512	29518712	24992
354	2.62129	98045952	67776512	15088920	24992
355	2.938364	98045952	67776512	17745480	24992
356	3.634885	98045952	67776512	21061952	24992
357	4.464916	98045952	67776512	25037912	24992
358	5.065996	98045952	67776512	29673192	24992
359	6.443798	98045952	67776512	18551656	24992
360	6.737812	98045952	67776512	24511152	24992
361	7.857035	98045952	67776512	14705360	24992
362	0.774162	98045952	67776512	21958736	24992
363	1.4912	98045952	67776512	23296480	24992
364	2.202414	98045952	67776512	25293632	24992
365	2.916621	98045952	67776512	27950240	24992
366	4.265545	98045952	67776512	14837960	24992
367	4.364461	98045952	67776512	18813840	24992
368	5.056584	98045952	67776512	23449120	24992
369	5.99249	98045952	67776512	28743808	24992
370	7.221151	98045952	67776512	18282288	24992
371	7.261696	98045952	67776512	24896760	24992
372	0.824291	98045952	67776512	15718408	24992
373	1.513255	98045952	67776512	17056152	24992
374	2.200768	98045952	67776512	19053304	24992
375	2.931231	98045952	67776512	21709864	24992
376	3.840559	98045952	67776512	25026336	24992
377	4.409939	98045952	67776512	29002216	24992
378	5.986076	98045952	67776512	17211056	24992
379	5.791144	98045952	67776512	22505792	24992
380	6.551215	98045952	67776512	28460840	24992
381	7.75867	98045952	67776512	18663880	24992
382	0.775314	98045952	67776512	25917256	24992
383	1.488981	98045952	67776512	27255000	24992
384	2.483084	98045952	67776512	29252152	24992
385	3.588612	98045952	67776512	15478640	24992
386	3.640726	98045952	67776512	18795112	24992
387	4.355034	98045952	67776512	22770992	24992
388	5.103331	98045952	67776512	27406272	24992
389	6.289779	98045952	67776512	16272664	24992
390	6.710554	98045952	67776512	22227728	24992
391	7.213913	98045952	67776512	28842184	24992
392	0.795823	98045952	67776512	19671112	24992
393	1.527382	98045952	67776512	21008856	24992
394	2.246732	98045952	67776512	23006056	24992
395	2.994147	98045952	67776512	25662616	24992
396	3.710328	98045952	67776512	28979088	24992
397	4.969573	98045952	67776512	16530576	24992
398	5.30813	98045952	67776512	21165856	24992
399	5.78185	98045952	67776512	26460544	24992
400	7.248959	98045952	67776512	15991336	24992
401	7.510395	98045952	67776512	22605824	24992
402	0.773921	98045952	67776512	29859312	24992
403	2.014019	98045952	67776512	14764448	24992
404	2.431294	98045952	67776512	16761600	24992
405	2.920712	98045952	67776512	19418160	24992
406	3.634549	98045952	67776512	22734632	24992
407	4.375709	98045952	67776512	26710528	24992
408	5.761777	98045952	67776512	14920592	24992
409	6.024609	98045952	67776512	20215280	24992
410	6.770272	98045952	67776512	26170488	24992
411	7.891172	98045952	67776512	16364920	24992
412	0.847851	98045952	67776512	23618296	24992
413	1.742418	98045952	67776512	24956040	24992
414	2.197148	98045952	67776512	26953192	24992
415	2.927791	98045952	67776512	29609800	24992
416	4.239355	98045952	67776512	16502280	24992
417	4.432246	98045952	67776512	20478160	24992
418	5.089168	98045952	67776512	25113600	24992
419	5.988844	98045952	67776512	30408288	24992
420	7.115672	98045952	67776512	19944176	24992
421	7.430857	98045952	67776512	26558632	24992
422	0.777281	98045952	67776512	17378856	24992
423	1.493779	98045952	67776512	18716600	24992
424	2.209799	98045952	67776512	20713752	24992
425	2.917744	98045952	67776512	23370312	24992
426	3.857029	98045952	67776512	26686784	24992
427	4.499283	98045952	67776512	30662664	24992
428	5.67767	98045952	67776512	18869120	24992
429	6.0068	98045952	67776512	24163856	24992
430	6.535922	98045952	67776512	30118904	24992
431	8.058453	98045952	67776512	20319752	24992
432	0.785189	98045952	67776512	27573792	24992
433	1.487485	98045952	67776512	28911536	24992
434	2.429249	98045952	67776512	30908688	24992
435	3.551247	98045952	67776512	17133048	24992
436	3.754265	98045952	67776512	20449520	24992
437	4.367924	98045952	67776512	24425400	24992
438	5.283148	98045952	67776512	29060680	24992
439	6.461878	98045952	67776512	17925168	24992
440	6.812792	98045952	67776512	23880264	24992
441	7.206805	98045952	67776512	30494720	24992
442	0.793509	98045952	67776512	21322304	24992
443	1.5241	98045952	67776512	22660048	24992
444	2.243309	98045952	67776512	24657200	24992
445	3.167688	98045952	67776512	27313760	24992
446	3.637083	98045952	67776512	30630264	24992
447	4.991841	98045952	67776512	18180200	24992
448	5.290302	98045952	67776512	22815480	24992
449	5.779315	98045952	67776512	28110168	24992
450	7.210936	98045952	67776512	17639056	24992
451	7.442642	98045952	67776512	24253592	24992
452	0.773832	98045952	67776512	31506968	24992
453	2.14889	98045952	67776512	16410344	24992
454	2.426483	98045952	67776512	18407496	24992
455	2.914956	98045952	67776512	21064056	24992
456	3.70454	98045952	67776512	24380528	24992
457	4.391019	98045952	67776512	28356424	24992
458	5.869254	98045952	67776512	16563792	24992
459	6.170674	98045952	67776512	21858480	24992
460	6.490331	98045952	67776512	27813560	24992
461	8.110735	98045952	67776512	18006792	24992
462	0.77319	98045952	67776512	25260168	24992
463	1.716568	98045952	67776512	26597912	24992
464	2.200041	98045952	67776512	28595096	24992
465	2.922489	98045952	67776512	31251656	24992
466	4.314785	98045952	67776512	18143576	24992
467	4.399695	98045952	67776512	22119456	24992
468	5.067336	98045952	67776512	26754736	24992
469	6.701854	98045952	67776512	15619552	24992
470	6.5651	98045952	67776512	21574608	24992
471	7.479463	98045952	67776512	28189064	24992
472	0.791103	98045952	67776512	19009464	24992
473	1.525057	98045952	67776512	20347240	24992
474	2.24556	98045952	67776512	22344392	24992
475	3.007403	98045952	67776512	25000952	24992
476	3.915174	98045952	67776512	28317424	24992
477	5.086994	98045952	67776512	15867576	24992
478	5.067992	98045952	67776512	20502848	24992
479	6.008585	98045952	67776512	25797552	24992
480	6.493546	98045952	67776512	31752600	24992
481	7.996095	98045952	67776512	21952768	24992
482	0.787461	98045952	67776512	29206144	24992
483	1.710478	98045952	67776512	30543888	24992
484	2.906965	98045952	67776512	16112768	24992
485	3.12669	98045952	67776512	18769328	24992
486	3.64701	98045952	67776512	22085800	24992
487	4.346632	98045952	67776512	26061680	24992
488	5.106	98045952	67776512	30696960	24992
489	6.551748	98045952	67776512	19561552	24992
490	6.726327	98045952	67776512	25516600	24992
491	7.955751	98045952	67776512	15704896	24992
492	0.77628	98045952	67776512	22958264	24992
493	1.498013	98045952	67776512	24296008	24992
494	2.1914	98045952	67776512	26293160	24992
495	2.956822	98045952	67776512	28949720	24992
496	4.460021	98045952	67776512	15831776	24992
497	4.35794	98045952	67776512	19807656	24992
498	5.379673	98045952	67776512	24443000	24992
499	5.826258	98045952	67776512	29737720	24992
500	7.5285	98045952	67776512	19274408	24992
501	7.266494	98045952	67776512	25888880	24992
502	0.779448	98045952	67776512	16709664	24992
503	1.489387	98045952	67776512	18047408	24992
504	2.424707	98045952	67776512	20044560	24992
505	2.952928	98045952	67776512	22701120	24992
506	3.629792	98045952	67776512	26017592	24992
507	4.565608	98045952	67776512	29993472	24992
508	5.891846	98045952	67776512	18200728	24992
509	6.057634	98045952	67776512	23495416	24992
510	6.494277	98045952	67776512	29450480	24992
511	8.262009	98045952	67776512	19651552	24992
512	1.016546	98045952	67776512	26905328	24992
513	1.491734	98045952	67776512	28243072	24992
514	2.209682	98045952	67776512	30240320	24992
515	3.762124	98045952	67776512	16465480	24992
516	3.643099	98045952	67776512	19781968	24992
517	4.383476	98045952	67776512	23757848	24992
518	5.055908	98045952	67776512	28393128	24992
519	6.853086	98045952	67776512	17257952	24992
520	6.506113	98045952	67776512	23213000	24992
521	7.477976	98045952	67776512	29827456	24992
522	0.778257	98045952	67776512	20655072	24992
523	1.508986	98045952	67776512	21992880	24992
524	2.196723	98045952	67776512	23990032	24992
525	3.010514	98045952	67776512	26646592	24992
526	3.68141	98045952	67776512	29963064	24992
527	5.202608	98045952	67776512	17513000	24992
528	5.289625	98045952	67776512	22148280	24992
529	5.771934	98045952	67776512	27442968	24992
530	7.574308	98045952	67776512	16971872	24992
531	7.223022	98045952	67776512	23586328	24992
532	0.774022	98045952	67776512	30839704	24992
533	1.487154	98045952	67776512	32177448	24992
534	3.068365	98045952	67776512	17745640	24992
535	3.188211	98045952	67776512	20402200	24992
536	3.632336	98045952	67776512	23718672	24992
537	4.344183	98045952	67776512	27694552	24992
538	5.281821	98045952	67776512	32329896	24992
539	6.687896	98045952	67776512	21206552	24992
540	6.551359	98045952	67776512	27161600	24992
541	8.324245	98045952	67776512	17349680	24992
542	0.771865	98045952	67776512	24603056	24992
543	1.48756	98045952	67776512	25940800	24992
544	2.421697	98045952	67776512	27937952	24992
545	2.973173	98045952	67776512	30594512	24992
546	4.537709	98045952	67776512	17476456	24992
547	4.416362	98045952	67776512	21452336	24992
548	5.063128	98045952	67776512	26087616	24992
549	5.771868	98045952	67776512	31382320	24992
550	7.776546	98045952	67776512	20919024	24992
551	7.437074	98045952	67776512	27533496	24992
552	0.819904	98045952	67776512	18354056	24992
553	1.493733	98045952	67776512	19691800	24992
554	2.254878	98045952	67776512	21688952	24992
555	2.938197	98045952	67776512	24345512	24992
556	3.660497	98045952	67776512	27668784	24992
557	4.399077	98045952	67776512	31644664	24992
558	6.611801	98045952	67776512	19858720	24992
559	5.913614	98045952	67776512	25153408	24992
560	6.591164	98045952	67776512	31108456	24992
561	8.314215	98045952	67776512	21316104	24992
562	0.776006	98045952	67776512	28569576	24992
563	1.542844	98045952	67776512	29907320	24992
564	2.198349	98045952	67776512	31904472	24992
565	3.892181	98045952	67776512	18129632	24992
566	3.993296	98045952	67776512	21446136	24992
567	4.387097	98045952	67776512	25422016	24992
568	5.165052	98045952	67776512	30057296	24992
569	6.739377	98045952	67776512	18922008	24992
570	6.71425	98045952	67776512	24877056	24992
571	7.26878	98045952	67776512	31491560	24992
572	0.777584	98045952	67776512	22319144	24992
573	1.53545	98045952	67776512	23656888	24992
574	2.2172	98045952	67776512	25654040	24992
575	2.929797	98045952	67776512	28310600	24992
576	3.619647	98045952	67776512	31627072	24992
577	5.327921	98045952	67776512	19177024	24992
578	5.284567	98045952	67776512	23812304	24992
579	5.823973	98045952	67776512	29106992	24992
580	7.690045	98045952	67776512	18635912	24992
581	7.436896	98045952	67776512	25250368	24992
582	0.775741	98045952	67776512	32503744	24992
583	2.467936	98045952	67776512	17407792	24992
584	2.435192	98045952	67776512	19404944	24992
585	2.921389	98045952	67776512	22061504	24992
586	3.630202	98045952	67776512	25377976	24992
587	4.566279	98045952	67776512	29353856	24992
588	6.069362	98045952	67776512	17561336	24992
589	5.796698	98045952	67776512	22856024	24992
590	6.484256	98045952	67776512	28811072	24992
591	8.515171	98045952	67776512	19004304	24992
592	1.021713	98045952	67776512	26257744	24992
593	1.492717	98045952	67776512	27595488	24992
594	2.201573	98045952	67776512	29592640	24992
595	2.910045	98045952	67776512	32249200	24992
596	4.654529	98045952	67776512	19141792	24992
597	4.346801	98045952	67776512	23117672	24992
598	5.063282	98045952	67776512	27752968	24992
599	6.055821	98045952	67776512	33047656	24992
600	7.635586	98045952	67776512	22583656	24992
601	7.466848	98045952	67776512	29198128	24992
602	0.786796	98045952	67776512	20018512	24992
603	1.493497	98045952	67776512	21356256	24992
604	2.3023	98045952	67776512	23353408	24992
605	2.921872	98045952	67776512	26009968	24992
606	3.672053	98045952	67776512	29326440	24992
607	4.625768	98045952	67776512	33302320	24992
608	6.345195	98045952	67776512	21508888	24992
609	5.79047	98045952	67776512	26803576	24992
610	6.715829	98045952	67776512	32758624	24992
611	8.497663	98045952	67776512	22959472	24992
612	0.778429	98045952	67776512	30212848	24992
613	1.543278	98045952	67776512	31550592	24992
614	2.197736	98045952	67776512	33547744	24992
615	4.175333	98045952	67776512	19772232	24992
616	3.643507	98045952	67776512	23088816	24992
617	4.33654	98045952	67776512	27064696	24992
618	5.282679	98045952	67776512	31700104	24992
619	6.848258	98045952	67776512	20564784	24992
620	6.518136	98045952	67776512	26519832	24992
621	7.422663	98045952	67776512	33134336	24992
622	0.779185	98045952	67776512	23961248	24992
623	1.716618	98045952	67776512	25298992	24992
624	2.207538	98045952	67776512	27296144	24992
625	2.91736	98045952	67776512	29952704	24992
626	3.629454	98045952	67776512	33269176	24992
627	5.653054	98045952	67776512	20818504	24992
628	5.068207	98045952	67776512	25453784	24992
629	5.789959	98045952	67776512	30748472	24992
630	7.644501	98045952	67776512	20277280	24992
631	7.677455	98045952	67776512	26891736	24992
632	1.877864	98045952	67776512	17707072	24992
633	1.555303	98045952	67776512	19044824	24992
634	2.198152	98045952	67776512	21041992	24992
635	2.917613	98045952	67776512	23698608	24992
636	3.643955	98045952	67776512	27015088	24992
637	4.348154	98045952	67776512	30990968	24992
638	6.421721	98045952	67776512	19198336	24992
639	6.217558	98045952	67776512	24493040	24992
640	6.815977	98045952	67776512	30456824	24992
641	8.393052	98045952	67776512	20654384	24992
642	0.774117	98045952	67776512	27907792	24992
643	1.494812	98045952	67776512	29245600	24992
644	2.197423	98045952	67776512	31242752	24992
645	3.135479	98045952	67776512	33899312	24992
646	4.782906	98045952	67776512	20791232	24992
647	4.353883	98045952	67776512	24767112	24992
648	5.293848	98045952	67776512	29402440	24992
649	6.925508	98045952	67776512	18267344	24992
650	6.770203	98045952	67776512	24222392	24992
651	7.49642	98045952	67776512	30836848	24992
652	0.777781	98045952	67776512	21657184	24992
653	1.500595	98045952	67776512	22994928	24992
654	2.192742	98045952	67776512	24992080	24992
655	3.157085	98045952	67776512	27648640	24992
656	3.629572	98045952	67776512	30965112	24992
657	5.743156	98045952	67776512	18515160	24992
658	5.083598	98045952	67776512	23150440	24992
659	5.981274	98045952	67776512	28445128	24992
660	7.672956	98045952	67776512	17974232	24992
661	7.240307	98045952	67776512	24588680	24992
662	0.771703	98045952	67776512	31842056	24992
663	1.491042	98045952	67776512	33179800	24992
664	3.414986	98045952	67776512	18748664	24992
665	3.007719	98045952	67776512	21405224	24992
666	3.846586	98045952	67776512	24721696	24992
667	4.334646	98045952	67776512	28697576	24992
668	5.055148	98045952	67776512	33332952	24992
669	7.078185	98045952	67776512	22210360	24992
670	6.843864	98045952	67776512	28165408	24992
671	8.499667	98045952	67776512	18353736	24992
672	0.777282	98045952	67776512	25607104	24992
673	1.488456	98045952	67776512	26944848	24992
674	2.205068	98045952	67776512	28942000	24992
675	2.921439	98045952	67776512	31598560	24992
676	4.841308	98045952	67776512	18480616	24992
677	4.351772	98045952	67776512	22456512	24992
678	5.266472	98045952	67776512	27091792	24992
679	6.014707	98045952	67776512	32386480	24992
680	7.952743	98045952	67776512	21923248	24992
681	7.218766	98045952	67776512	28537704	24992
682	0.780282	98045952	67776512	19358520	24992
683	1.490187	98045952	67776512	20696264	24992
684	2.420587	98045952	67776512	22693448	24992
685	2.925223	98045952	67776512	25350008	24992
686	3.63333	98045952	67776512	28666544	24992
687	4.554375	98045952	67776512	32642424	24992
688	6.402546	98045952	67776512	20849680	24992
689	5.782391	98045952	67776512	26144368	24992
690	6.492622	98045952	67776512	32099416	24992
691	8.744933	98045952	67776512	22300264	24992
692	0.776137	98045952	67776512	29553688	24992
693	1.499797	98045952	67776512	30891432	24992
694	2.20767	98045952	67776512	32888584	24992
695	4.183814	98045952	67776512	19113744	24992
696	3.641387	98045952	67776512	22430216	24992
697	4.352436	98045952	67776512	26406144	24992
698	5.04644	98045952	67776512	31041424	24992
699	7.321868	98045952	67776512	19906240	24992
700	6.806586	98045952	67776512	25861296	24992
701	7.202965	98045952	67776512	32475752	24992
702	0.780329	98045952	67776512	23303352	24992
703	1.490984	98045952	67776512	24641096	24992
704	2.209134	98045952	67776512	26638248	24992
705	3.129665	98045952	67776512	29294856	24992
706	3.632673	98045952	67776512	32611328	24992
707	5.647994	98045952	67776512	20161264	24992
708	5.313988	98045952	67776512	24796544	24992
709	5.780911	98045952	67776512	30091232	24992
710	7.888417	98045952	67776512	19620120	24992
711	7.431389	98045952	67776512	26234576	24992
712	0.773577	98045952	67776512	33487968	24992
713	1.483279	98045952	67776512	34825712	24992
714	3.730165	98045952	67776512	20393904	24992
715	2.929044	98045952	67776512	23050464	24992
716	3.627948	98045952	67776512	26366936	24992
717	4.356251	98045952	67776512	30342816	24992
718	5.054569	98045952	67776512	34978128	24992
719	7.426124	98045952	67776512	23852448	24992
720	6.841189	98045952	67776512	29807496	24992
721	9.130214	98045952	67776512	19995368	24992
722	0.814613	98045952	67776512	27248744	24992
723	1.574085	98045952	67776512	28586488	24992
724	2.311605	98045952	67776512	30583640	24992
725	3.077058	98045952	67776512	33240216	24992
726	5.284331	98045952	67776512	20124432	24992
727	4.683446	98045952	67776512	24100312	24992
728	5.292668	98045952	67776512	28735592	24992
729	5.889847	98045952	67776512	34030280	24992
730	7.933234	98045952	67776512	23566952	24992
731	7.275267	98045952	67776512	30181408	24992
732	0.801527	98045952	67776512	21001744	24992
733	1.514164	98045952	67776512	22339488	24992
734	2.235507	98045952	67776512	24336640	24992
735	3.121016	98045952	67776512	26993200	24992
736	3.636602	98045952	67776512	30309672	24992
737	4.342492	98045952	67776512	34285552	24992
738	6.472759	98045952	67776512	22492808	24992
739	5.820459	98045952	67776512	27787496	24992
740	6.728817	98045952	67776512	33742544	24992
741	8.839937	98045952	67776512	23943472	24992
742	0.813299	98045952	67776512	31196848	24992
743	1.730782	98045952	67776512	32534592	24992
744	2.190735	98045952	67776512	34531744	24992
745	4.299834	98045952	67776512	20756904	24992
746	3.640665	98045952	67776512	24073376	24992
747	4.350615	98045952	67776512	28049272	24992
748	5.068878	98045952	67776512	32684552	24992
749	7.477142	98045952	67776512	21549264	24992
750	6.491654	98045952	67776512	27504328	24992
751	7.584441	98045952	67776512	34118784	24992
752	0.788975	98045952	67776512	24946368	24992
753	1.489218	98045952	67776512	26284112	24992
754	2.20471	98045952	67776512	28281264	24992
755	2.917084	98045952	67776512	30937936	24992
756	3.836872	98045952	67776512	34254408	24992
757	5.78784	98045952	67776512	21804328	24992
758	5.06963	98045952	67776512	26439608	24992
759	5.755962	98045952	67776512	31734296	24992
760	8.152944	98045952	67776512	21263168	24992
761	7.257708	98045952	67776512	27877624	24992
762	0.774638	98045952	67776512	35131032	24992
763	2.955954	98045952	67776512	20034392	24992
764	2.308876	98045952	67776512	22031544	24992
765	2.914042	98045952	67776512	24688104	24992
766	3.627072	98045952	67776512	28004576	24992
767	4.348729	98045952	67776512	31980456	24992
768	6.636906	98045952	67776512	20187936	24992
769	6.109932	98045952	67776512	25482672	24992
770	6.49432	98045952	67776512	31437720	24992
771	8.756807	98045952	67776512	21630952	24992
772	0.992855	98045952	67776512	28884328	24992
773	1.487035	98045952	67776512	30222072	24992
774	2.196192	98045952	67776512	32219224	24992
775	3.137335	98045952	67776512	34875784	24992
776	5.309683	98045952	67776512	21768376	24992
777	4.352134	98045952	67776512	25744256	24992
778	5.059612	98045952	67776512	30379536	24992
779	5.776866	98045952	67776512	35674224	24992
780	8.222429	98045952	67776512	25210528	24992
781	7.201985	98045952	67776512	31824984	24992
782	0.793417	98045952	67776512	22645320	24992
783	1.520758	98045952	67776512	23983064	24992
784	2.251359	98045952	67776512	25980216	24992
785	3.609454	98045952	67776512	28637344	24992
786	4.071146	98045952	67776512	31963904	24992
787	4.472397	98045952	67776512	35939784	24992
788	6.81136	98045952	67776512	24142272	24992
789	5.780921	98045952	67776512	29437024	24992
790	6.700071	98045952	67776512	35392072	24992
791	8.834901	98045952	67776512	25592608	24992
792	0.776848	98045952	67776512	32845984	24992
793	1.483566	98045952	67776512	34183728	24992
794	3.917309	98045952	67776512	19747416	24992
795	2.963685	98045952	67776512	22403968	24992
796	3.632324	98045952	67776512	25720440	24992
797	4.552705	98045952	67776512	29696320	24992
798	5.05796	98045952	67776512	34331600	24992
799	7.578047	98045952	67776512	23196192	24992
800	6.506193	98045952	67776512	29151240	24992
801	7.418886	98045952	67776512	35765696	24992
802	0.780173	98045952	67776512	26599048	24992
803	1.516563	98045952	67776512	27936792	24992
804	2.244916	98045952	67776512	29933960	24992
805	3.020301	98045952	67776512	32590520	24992
806	3.675724	98045952	67776512	35907056	24992
807	5.983286	98045952	67776512	23456304	24992
808	5.293954	98045952	67776512	28091584	24992
809	5.772968	98045952	67776512	33386272	24992
810	8.262518	98045952	67776512	22915272	24992
811	7.214986	98045952	67776512	29529728	24992
812	2.433331	98045952	67776512	20344872	24992
813	1.510577	98045952	67776512	21682640	24992
814	2.257244	98045952	67776512	23679792	24992
815	2.905404	98045952	67776512	26336352	24992
816	3.660174	98045952	67776512	29652824	24992
817	4.596125	98045952	67776512	33628720	24992
818	6.712741	98045952	67776512	21836088	24992
819	6.057602	98045952	67776512	27131016	24992
820	6.524801	98045952	67776512	33086064	24992
821	9.142022	98045952	67776512	23283520	24992
822	0.787559	98045952	67776512	30536896	24992
823	1.551004	98045952	67776512	31874640	24992
824	2.21579	98045952	67776512	33871792	24992
825	4.527907	98045952	67776512	20097000	24992
826	3.853158	98045952	67776512	23413472	24992
827	4.346833	98045952	67776512	27389352	24992
828	5.051828	98045952	67776512	32024632	24992
829	7.427435	98045952	67776512	20889440	24992
830	6.712302	98045952	67776512	26844488	24992
831	7.202128	98045952	67776512	33458944	24992
832	0.779158	98045952	67776512	24286688	24992
833	1.50123	98045952	67776512	25624432	24992
834	2.200841	98045952	67776512	27621584	24992
835	2.926523	98045952	67776512	30278144	24992
836	3.62735	98045952	67776512	33594616	24992
837	5.98946	98045952	67776512	21144664	24992
838	5.276299	98045952	67776512	25779960	24992
839	5.777148	98045952	67776512	31074680	24992
840	8.440945	98045952	67776512	20603784	24992
841	7.367919	98045952	67776512	27218376	24992
842	0.776691	98045952	67776512	34471752	24992
843	1.487704	98045952	67776512	35809496	24992
844	4.08376	98045952	67776512	21378360	24992
845	2.976451	98045952	67776512	24034920	24992
846	3.875434	98045952	67776512	27351552	24992
847	4.553427	98045952	67776512	31327432	24992
848	5.064264	98045952	67776512	35962712	24992
849	7.448334	98045952	67776512	24840056	24992
850	6.49704	98045952	67776512	30805488	24992
851	9.116387	98045952	67776512	21007072	24992
852	0.783011	98045952	67776512	28260464	24992
853	1.49509	98045952	67776512	29598208	24992
854	2.206615	98045952	67776512	31595360	24992
855	2.901999	98045952	67776512	34251920	24992
856	5.37715	98045952	67776512	21144320	24992
857	4.364164	98045952	67776512	25120200	24992
858	5.335526	98045952	67776512	29755480	24992
859	5.773167	98045952	67776512	35050168	24992
860	8.604268	98045952	67776512	24586840	24992
861	7.296149	98045952	67776512	31201312	24992
862	0.783353	98045952	67776512	22021904	24992
863	1.490726	98045952	67776512	23359664	24992
864	2.424115	98045952	67776512	25356816	24992
865	2.9228	98045952	67776512	28013376	24992
866	3.626725	98045952	67776512	31329848	24992
867	4.548308	98045952	67776512	35305728	24992
868	6.789048	98045952	67776512	23512984	24992
869	6.022953	98045952	67776512	28807672	24992
870	6.505703	98045952	67776512	34762736	24992
871	9.137069	98045952	67776512	24963584	24992
872	0.77412	98045952	67776512	32216960	24992
873	1.48696	98045952	67776512	33554704	24992
874	2.21548	98045952	67776512	35551856	24992
875	4.628324	98045952	67776512	21777096	24992
876	3.646934	98045952	67776512	25093568	24992
877	4.354872	98045952	67776512	29069448	24992
878	5.123155	98045952	67776512	33704744	24992
879	7.830503	98045952	67776512	22569568	24992
880	6.872476	98045952	67776512	28524616	24992
881	7.266311	98045952	67776512	35139072	24992
882	0.783978	98045952	67776512	25966704	24992
883	1.494709	98045952	67776512	27304448	24992
884	2.203335	98045952	67776512	29301600	24992
885	3.137044	98045952	67776512	31958160	24992
886	3.678759	98045952	67776512	35274632	24992
887	6.380522	98045952	67776512	22824552	24992
888	5.274339	98045952	67776512	27459832	24992
889	6.173204	98045952	67776512	32754520	24992
890	8.591416	98045952	67776512	22285016	24992
891	7.44527	98045952	67776512	28899712	24992
892	0.792142	98045952	67776512	36153088	24992
893	3.245831	98045952	67776512	21057136	24992
894	2.222138	98045952	67776512	23054288	24992
895	2.924626	98045952	67776512	25710848	24992
896	3.672489	98045952	67776512	29027320	24992
897	4.36198	98045952	67776512	33003200	24992
898	7.071686	98045952	67776512	21210680	24992
899	5.822234	98045952	67776512	26505384	24992
900	6.729047	98045952	67776512	32460464	24992
901	9.032673	98045952	67776512	22653696	24992
902	0.774088	98045952	67776512	29907072	24992
903	1.500847	98045952	67776512	31244816	24992
904	2.194948	98045952	67776512	33241968	24992
905	3.129108	98045952	67776512	35898528	24992
906	5.433834	98045952	67776512	22791200	24992
907	4.343072	98045952	67776512	26767080	24992
908	5.36039	98045952	67776512	31402360	24992
909	5.775807	98045952	67776512	36697048	24992
910	8.380257	98045952	67776512	26233736	24992
911	7.450784	98045952	67776512	32848240	24992
912	0.807909	98045952	67776512	23668624	24992
913	1.763713	98045952	67776512	25006384	24992
914	2.282965	98045952	67776512	27005600	24992
915	3.040115	98045952	67776512	29662160	24992
916	3.858954	98045952	67776512	32978632	24992
917	4.340516	98045952	67776512	36954592	24992
918	7.031987	98045952	67776512	25161528	24992
919	6.044236	98045952	67776512	30456216	24992
920	6.717723	98045952	67776512	36411328	24992
921	9.083017	98045952	67776512	26612544	24992
922	0.78093	98045952	67776512	33865920	24992
923	1.490463	98045952	67776512	35203696	24992
924	2.210828	98045952	67776512	37200848	24992
925	4.943251	98045952	67776512	23425320	24992
926	3.635254	98045952	67776512	26741808	24992
927	4.334279	98045952	67776512	30717688	24992
928	5.266964	98045952	67776512	35352968	24992
929	7.653987	98045952	67776512	24217568	24992
930	6.510383	98045952	67776512	30172616	24992
931	7.441911	98045952	67776512	36787072	24992
932	0.777268	98045952	67776512	27614656	24992
933	1.726487	98045952	67776512	28952400	24992
934	2.186168	98045952	67776512	30949552	24992
935	2.92034	98045952	67776512	33606112	24992
936	3.634536	98045952	67776512	36922584	24992
937	6.278808	98045952	67776512	24472504	24992
938	5.068659	98045952	67776512	29107816	24992
939	6.224224	98045952	67776512	34402536	24992
940	8.605522	98045952	67776512	23931408	24992
941	7.214811	98045952	67776512	30545864	24992
942	0.779827	98045952	67776512	37799240	24992
943	3.403986	98045952	67776512	22702600	24992
944	2.255321	98045952	67776512	24699752	24992
945	3.183734	98045952	67776512	27356312	24992
946	3.637182	98045952	67776512	30672784	24992
947	4.340259	98045952	67776512	34648664	24992
948	7.23976	98045952	67776512	22856144	24992
949	5.911518	98045952	67776512	28150832	24992
950	6.544279	98045952	67776512	34105880	24992
951	9.366941	98045952	67776512	24299112	24992
952	0.774572	98045952	67776512	31552488	24992
953	1.717306	98045952	67776512	32890232	24992
954	2.200094	98045952	67776512	34887384	24992
955	2.916291	98045952	67776512	37543944	24992
956	5.589446	98045952	67776512	24435848	24992
957	4.396427	98045952	67776512	28411728	24992
958	5.065059	98045952	67776512	33047040	24992
959	7.956958	98045952	67776512	21911920	24992
960	6.497125	98045952	67776512	27866976	24992
961	7.409273	98045952	67776512	34481512	24992
962	0.779017	98045952	67776512	25301832	24992
963	1.489758	98045952	67776512	26639576	24992
964	2.204752	98045952	67776512	28636728	24992
965	3.138659	98045952	67776512	31293288	24992
966	3.640216	98045952	67776512	34609760	24992
967	6.527811	98045952	67776512	22159976	24992
968	5.314344	98045952	67776512	26795248	24992
969	5.866831	98045952	67776512	32089936	24992
970	6.594653	98045952	67776512	38045016	24992
971	9.489232	98045952	67776512	28245184	24992
972	0.774325	98045952	67776512	35498592	24992
973	1.556955	98045952	67776512	36836336	24992
974	4.375259	98045952	67776512	22405208	24992
975	2.926273	98045952	67776512	25061760	24992
976	3.637335	98045952	67776512	28378248	24992
977	4.396921	98045952	67776512	32354128	24992
978	5.068536	98045952	67776512	36989408	24992
979	8.020779	98045952	67776512	25854000	24992
980	6.49487	98045952	67776512	31809048	24992
981	7.424709	98045952	67776512	38423504	24992
982	0.784085	98045952	67776512	29255864	24992
983	1.485384	98045952	67776512	30593608	24992
984	2.214042	98045952	67776512	32590760	24992
985	2.909139	98045952	67776512	35247320	24992
986	4.080298	98045952	67776512	38563792	24992
987	6.33903	98045952	67776512	26103888	24992
988	5.272717	98045952	67776512	30739168	24992
989	5.861703	98045952	67776512	36033856	24992
990	8.872089	98045952	67776512	25563456	24992
991	7.283134	98045952	67776512	32177912	24992
992	0.786667	98045952	67776512	22997920	24992
993	1.502799	98045952	67776512	24335664	24992
994	2.196265	98045952	67776512	26332816	24992
995	2.921278	98045952	67776512	28989392	24992
996	3.636589	98045952	67776512	32305864	24992
997	4.349243	98045952	67776512	36281744	24992
998	7.125722	98045952	67776512	24489000	24992
999	5.786482	98045952	67776512	29783688	24992
1000	6.479414	98045952	67776512	35738736	24992
