x	Duration	RSS	HeapTotal	HeapUsed	External
0	NA	98476032	68300800	10890408	24992
1	1.474876	98476032	68300800	11570496	24992
2	2.635609	98476032	68300800	12908904	24992
3	3.820456	98476032	68300800	14906672	24992
4	4.058427	98476032	68300800	17563992	24992
5	3.846671	98476032	68300800	20881400	24992
6	4.77554	98476032	68300800	24858360	24992
7	5.61016	98476032	68300800	13030224	24992
8	6.354485	98476032	68300800	18326312	24992
9	6.81298	98476032	68300800	24282936	24992
10	7.839942	98476032	68300800	14439872	24992
11	8.700163	98476032	68300800	21715640	24992
12	0.873908	98476032	68300800	13156040	24992
13	1.565102	98476032	68300800	14494304	24992
14	2.685778	98476032	68300800	16492120	24992
15	3.04169	98476032	68300800	19149504	24992
16	3.794436	98476032	68300800	22466976	24992
17	4.55407	98476032	68300800	26444000	24992
18	6.403384	98476032	68300800	14614832	24992
19	6.396151	98476032	68300800	19925296	24992
20	7.165574	98476032	68300800	25881984	24992
21	8.093244	98476032	68300800	16039408	24992
22	0.832827	98476032	68300800	23294856	24992
23	1.552305	98476032	68300800	24633120	24992
24	2.347282	98476032	68300800	26630936	24992
25	3.293147	98476032	68300800	12819024	24992
26	3.85135	98476032	68300800	16136496	24992
27	4.572839	98476032	68300800	20113584	24992
28	5.30855	98476032	68300800	24750168	24992
29	6.479491	98476032	68300800	13579912	24992
30	6.803787	98476032	68300800	19536648	24992
31	7.912479	98476032	68300800	26152888	24992
32	0.816724	98476032	68300800	16941344	24992
33	1.558094	98476032	68300800	18279608	24992
34	2.300132	98476032	68300800	20277424	24992
35	3.034113	98476032	68300800	22934808	24992
36	3.992636	98476032	68300800	26252280	24992
37	4.802281	98476032	68300800	13762920	24992
38	5.563409	98476032	68300800	18399504	24992
39	6.029002	98476032	68300800	23695656	24992
40	6.994482	98476032	68300800	13188688	24992
41	7.579682	98476032	68300800	19805216	24992
42	0.810248	98476032	68300800	27060664	24992
43	1.766252	98476032	68300800	11926112	24992
44	2.298995	98476032	68300800	13923928	24992
45	3.241457	98476032	68300800	16581984	24992
46	3.788858	98476032	68300800	19899456	24992
47	4.536299	98476032	68300800	23876544	24992
48	5.506623	98476032	68300800	12047568	24992
49	6.025616	98476032	68300800	17343720	24992
50	7.091624	98476032	68300800	23300424	24992
51	8.170155	98476032	68300800	13454208	24992
52	0.805388	98476032	68300800	20709752	24992
53	1.902651	98476032	68300800	22048016	24992
54	2.314567	98476032	68300800	24045864	24992
55	3.092605	98476032	68300800	26703248	24992
56	4.251054	98476032	68300800	13554408	24992
57	4.730876	98476032	68300800	17531432	24992
58	5.327866	98476032	68300800	22168016	24992
59	6.357802	98476032	68300800	27465112	24992
60	7.097235	98476032	68300800	16959376	24992
61	7.641127	98476032	68300800	23575744	24992
62	0.810064	98476032	68300800	14361880	24992
63	1.563183	98476032	68300800	15700144	24992
64	2.500609	98476032	68300800	17700656	24992
65	3.057277	98476032	68300800	20358040	24992
66	4.015581	98476032	68300800	23675512	24992
67	4.516747	98476032	68300800	27652616	24992
68	5.492602	98476032	68300800	15822064	24992
69	6.238705	98476032	68300800	21118216	24992
70	6.758781	98476032	68300800	27074904	24992
71	8.211105	98476032	68300800	17231960	24992
72	0.807908	98476032	68300800	24487408	24992
73	1.555547	98476032	68300800	25825672	24992
74	2.481702	98476032	68300800	27823504	24992
75	3.303288	98476032	68300800	14010560	24992
76	3.790608	98476032	68300800	17328080	24992
77	4.523147	98476032	68300800	21305104	24992
78	5.333131	98476032	68300800	25941688	24992
79	6.228186	98476032	68300800	14771304	24992
80	7.107117	98476032	68300800	20728184	24992
81	7.596931	98476032	68300800	27345552	24992
82	0.813496	98476032	68300800	18134328	24992
83	1.560512	98476032	68300800	19472504	24992
84	2.350376	98476032	68300800	21471384	24992
85	3.042196	98476032	68300800	24128696	24992
86	3.767323	98476032	68300800	27446080	24992
87	5.170529	98476032	68300800	14961408	24992
88	5.250874	98476032	68300800	19597280	24992
89	6.271711	98476032	68300800	24892640	24992
90	7.018803	98476032	68300800	14385416	24992
91	7.828241	98476032	68300800	21000704	24992
92	1.065255	98476032	68300800	11779392	24992
93	1.558162	98476032	68300800	13117336	24992
94	2.291723	98476032	68300800	15114760	24992
95	3.038832	98476032	68300800	17771672	24992
96	3.768456	98476032	68300800	21088672	24992
97	4.714041	98476032	68300800	25065064	24992
98	5.535563	98476032	68300800	13234144	24992
99	6.196625	98476032	68300800	18529504	24992
100	6.806399	98476032	68300800	24485304	24992
101	7.78059	98476032	68300800	14639080	24992
102	0.797101	98476032	68300800	21893448	24992
103	1.789405	98476032	68300800	23231384	24992
104	2.327581	98476032	68300800	25228808	24992
105	3.021438	98476032	68300800	27885720	24992
106	4.281851	98476032	68300800	14735184	24992
107	4.566416	98476032	68300800	18711592	24992
108	5.529981	98476032	68300800	23347464	24992
109	6.226927	98476032	68300800	12176072	24992
110	6.940497	98476032	68300800	18131920	24992
111	7.46253	98476032	68300800	24747208	24992
112	0.803293	98476032	68300800	15531456	24992
113	1.546314	98476032	68300800	16869392	24992
114	2.282756	98476032	68300800	18866848	24992
115	3.247447	98476032	68300800	21523760	24992
116	3.774404	98476032	68300800	24840664	24992
117	4.933568	98476032	68300800	12352096	24992
118	5.513581	98476032	68300800	16987968	24992
119	6.348697	98476032	68300800	22285288	24992
120	7.277089	98476032	68300800	28241088	24992
121	8.09063	98476032	68300800	18386280	24992
122	0.799539	98476032	68300800	25640600	24992
123	1.544403	98476032	68300800	26978536	24992
124	2.569415	98476032	68300800	12506248	24992
125	3.081884	98476032	68300800	15163192	24992
126	3.804761	98476032	68300800	18480096	24992
127	4.721154	98476032	68300800	22456488	24992
128	5.473872	98476032	68300800	27094464	24992
129	6.743819	98476032	68300800	15926392	24992
130	6.98038	98476032	68300800	21882208	24992
131	7.755403	98476032	68300800	12032080	24992
132	0.801791	98476032	68300800	19286392	24992
133	1.536425	98476032	68300800	20624328	24992
134	2.277308	98476032	68300800	22621800	24992
135	3.049728	98476032	68300800	25278712	24992
136	4.2185	98476032	68300800	12125336	24992
137	4.506417	98476032	68300800	16101720	24992
138	5.23713	98476032	68300800	20737592	24992
139	6.082889	98476032	68300800	26032952	24992
140	6.957745	98476032	68300800	15526144	24992
141	7.810929	98476032	68300800	22141464	24992
142	0.814132	98476032	68300800	12929816	24992
143	1.538367	98476032	68300800	14267752	24992
144	2.284374	98476032	68300800	16265176	24992
145	3.031992	98476032	68300800	18922120	24992
146	3.980934	98476032	68300800	22239024	24992
147	4.515531	98476032	68300800	26215480	24992
148	5.576881	98476032	68300800	14386288	24992
149	5.998409	98476032	68300800	19681648	24992
150	6.940327	98476032	68300800	25637496	24992
151	7.88111	98476032	68300800	15793216	24992
152	0.802218	98476032	68300800	23047536	24992
153	1.603328	98476032	68300800	24385472	24992
154	2.3648	98476032	68300800	26383008	24992
155	3.588348	98476032	68300800	12569872	24992
156	3.839683	98476032	68300800	15886776	24992
157	4.591933	98476032	68300800	19863168	24992
158	5.452111	98476032	68300800	24499040	24992
159	6.265923	98476032	68300800	13327656	24992
160	6.771604	98476032	68300800	19283456	24992
161	7.661651	98476032	68300800	25898760	24992
162	0.798706	98476032	68300800	16685640	24992
163	1.726737	98476032	68300800	18023576	24992
164	2.300022	98476032	68300800	20021000	24992
165	3.028089	98476032	68300800	22677912	24992
166	3.758935	98476032	68300800	25994816	24992
167	4.835239	98476032	68300800	13504512	24992
168	5.246356	98476032	68300800	18140384	24992
169	6.196173	98476032	68300800	23435744	24992
170	6.967973	98476032	68300800	12927512	24992
171	7.662516	98476032	68300800	19542800	24992
172	0.841002	98476032	68300800	26797120	24992
173	1.548264	98476032	68300800	28135056	24992
174	2.566511	98476032	68300800	13662088	24992
175	3.027218	98476032	68300800	16319032	24992
176	3.751098	98476032	68300800	19635936	24992
177	4.708681	98476032	68300800	23612328	24992
178	5.466687	98476032	68300800	28248200	24992
179	6.47775	98476032	68300800	17080072	24992
180	6.704094	98476032	68300800	23035872	24992
181	7.78082	98476032	68300800	13185544	24992
182	0.802315	98476032	68300800	20439880	24992
183	1.550128	98476032	68300800	21777816	24992
184	2.274283	98476032	68300800	23775240	24992
185	3.007671	98476032	68300800	26432152	24992
186	4.214408	98476032	68300800	13278672	24992
187	4.493903	98476032	68300800	17255128	24992
188	5.237762	98476032	68300800	21891000	24992
189	5.955094	98476032	68300800	27186360	24992
190	7.201994	98476032	68300800	16679680	24992
191	7.477697	98476032	68300800	23294968	24992
192	0.798126	98476032	68300800	14079432	24992
193	1.599584	98476032	68300800	15417368	24992
194	2.276529	98476032	68300800	17414792	24992
195	3.057012	98476032	68300800	20071720	24992
196	3.798289	98476032	68300800	23388624	24992
197	4.495027	98476032	68300800	27365016	24992
198	5.685961	98476032	68300800	15533992	24992
199	6.023981	98476032	68300800	20829352	24992
200	6.933333	98476032	68300800	26785152	24992
201	8.063334	98476032	68300800	16940744	24992
202	0.798643	98476032	68300800	24195224	24992
203	1.542994	98476032	68300800	25533224	24992
204	2.487005	98476032	68300800	27530648	24992
205	3.243785	98476032	68300800	13717512	24992
206	3.875161	98476032	68300800	17034416	24992
207	4.709241	98476032	68300800	21010824	24992
208	5.23127	98476032	68300800	25646696	24992
209	6.283172	98476032	68300800	14475200	24992
210	6.716844	98476032	68300800	20431032	24992
211	7.673671	98476032	68300800	27046320	24992
212	0.815103	98476032	68300800	17833152	24992
213	1.764379	98476032	68300800	19171088	24992
214	2.294665	98476032	68300800	21168512	24992
215	3.018345	98476032	68300800	23825440	24992
216	3.759176	98476032	68300800	27142344	24992
217	5.02395	98476032	68300800	14651912	24992
218	5.628575	98476032	68300800	19290800	24992
219	6.472471	98476032	68300800	24586144	24992
220	7.026908	98476032	68300800	14078200	24992
221	7.561657	98476032	68300800	20693472	24992
222	0.797757	98476032	68300800	27947808	24992
223	1.824405	98476032	68300800	12813632	24992
224	2.28573	98476032	68300800	14811032	24992
225	3.067305	98476032	68300800	17467928	24992
226	3.973403	98476032	68300800	20784816	24992
227	4.723761	98476032	68300800	24761272	24992
228	5.531385	98476032	68300800	12930448	24992
229	5.982488	98476032	68300800	18228664	24992
230	6.930435	98476032	68300800	24184496	24992
231	7.766167	98476032	68300800	14339080	24992
232	0.803596	98476032	68300800	21593368	24992
233	1.571149	98476032	68300800	22931288	24992
234	2.27271	98476032	68300800	24928696	24992
235	3.025265	98476032	68300800	27585656	24992
236	3.99956	98476032	68300800	14438688	24992
237	4.489354	98476032	68300800	18415064	24992
238	5.506503	98476032	68300800	23050920	24992
239	5.964248	98476032	68300800	28346264	24992
240	7.348076	98476032	68300800	17840872	24992
241	7.501578	98476032	68300800	24456144	24992
242	0.807511	98476032	68300800	15241600	24992
243	1.542155	98476032	68300800	16579488	24992
244	2.501827	98476032	68300800	18576752	24992
245	3.072383	98476032	68300800	21233456	24992
246	3.750494	98476032	68300800	24550104	24992
247	4.705148	98476032	68300800	28526336	24992
248	5.477163	98476032	68300800	16694640	24992
249	5.988288	98476032	68300800	21989600	24992
250	6.754769	98476032	68300800	27944984	24992
251	8.131481	98476032	68300800	18100448	24992
252	0.79892	98476032	68300800	25354208	24992
253	1.758456	98476032	68300800	26692032	24992
254	2.274464	98476032	68300800	28689296	24992
255	3.240559	98476032	68300800	14875296	24992
256	3.765351	98476032	68300800	18191944	24992
257	4.530982	98476032	68300800	22168032	24992
258	5.297814	98476032	68300800	26803552	24992
259	6.442205	98476032	68300800	15631544	24992
260	6.730087	98476032	68300800	21586896	24992
261	7.660151	98476032	68300800	28201688	24992
262	0.799652	98476032	68300800	18987992	24992
263	1.552724	98476032	68300800	20325848	24992
264	2.274412	98476032	68300800	22323112	24992
265	3.015221	98476032	68300800	24979816	24992
266	3.960693	98476032	68300800	28296464	24992
267	4.814944	98476032	68300800	15805760	24992
268	5.336341	98476032	68300800	20441280	24992
269	6.210113	98476032	68300800	25736240	24992
270	7.052287	98476032	68300800	15227528	24992
271	7.460583	98476032	68300800	21842320	24992
272	0.796139	98476032	68300800	29096080	24992
273	1.7994	98476032	68300800	13960760	24992
274	2.332887	98476032	68300800	15958024	24992
275	3.279546	98476032	68300800	18614968	24992
276	3.991824	98476032	68300800	21931616	24992
277	4.515747	98476032	68300800	25907704	24992
278	5.563873	98476032	68300800	14076536	24992
279	6.024116	98476032	68300800	19371496	24992
280	6.917585	98476032	68300800	25326944	24992
281	7.719521	98476032	68300800	15478168	24992
282	0.803292	98476032	68300800	22731960	24992
283	1.537756	98476032	68300800	24069816	24992
284	2.363265	98476032	68300800	26067080	24992
285	3.029252	98476032	68300800	28723784	24992
286	3.996437	98476032	68300800	15573680	24992
287	4.4975	98476032	68300800	19549768	24992
288	5.697545	98476032	68300800	24187912	24992
289	5.978168	98476032	68300800	29482600	24992
290	7.191884	98476032	68300800	18966128	24992
291	7.496737	98476032	68300800	25580584	24992
292	0.816437	98476032	68300800	16363880	24992
293	1.780621	98476032	68300800	17701824	24992
294	2.274705	98476032	68300800	19698968	24992
295	3.014911	98476032	68300800	22355624	24992
296	3.758141	98476032	68300800	25672096	24992
297	5.008017	98476032	68300800	13180416	24992
298	5.947964	98476032	68300800	17815704	24992
299	6.084735	98476032	68300800	23119312	24992
300	6.943465	98476032	68300800	29074360	24992
301	7.726802	98476032	68300800	19241664	24992
302	0.793386	98476032	68300800	26495072	24992
303	1.585207	98476032	68300800	27832816	24992
304	2.521609	98476032	68300800	13390360	24992
305	3.030827	98476032	68300800	16046912	24992
306	3.961629	98476032	68300800	19363512	24992
307	4.483588	98476032	68300800	23339392	24992
308	5.221204	98476032	68300800	27974672	24992
309	6.291488	98476032	68300800	16842064	24992
310	6.922957	98476032	68300800	22797112	24992
311	7.442951	98476032	68300800	29411568	24992
312	0.798897	98476032	68300800	20247720	24992
313	1.537845	98476032	68300800	21585464	24992
314	2.280061	98476032	68300800	23582616	24992
315	3.012803	98476032	68300800	26239208	24992
316	3.763399	98476032	68300800	29555680	24992
317	4.975671	98476032	68300800	17107728	24992
318	5.448762	98476032	68300800	21743008	24992
319	6.065387	98476032	68300800	27037696	24992
320	7.286017	98476032	68300800	16569800	24992
321	7.457625	98476032	68300800	23184256	24992
322	1.166804	98476032	68300800	14000928	24992
323	1.544671	98476032	68300800	15338672	24992
324	2.26476	98476032	68300800	17335824	24992
325	3.592387	98476032	68300800	19992384	24992
326	3.741087	98476032	68300800	23308856	24992
327	4.484107	98476032	68300800	27284736	24992
328	5.797178	98476032	68300800	15494808	24992
329	5.961051	98476032	68300800	20789528	24992
330	6.924165	98476032	68300800	26744576	24992
331	7.804767	98476032	68300800	16945824	24992
332	0.792283	98476032	68300800	24199200	24992
333	1.74846	98476032	68300800	25536944	24992
334	2.265635	98476032	68300800	27534096	24992
335	3.333532	98476032	68300800	13761640	24992
336	3.802228	98476032	68300800	17078112	24992
337	4.702344	98476032	68300800	21054072	24992
338	5.222871	98476032	68300800	25689352	24992
339	6.379281	98476032	68300800	14556960	24992
340	6.704675	98476032	68300800	20512088	24992
341	7.705817	98476032	68300800	27126544	24992
342	0.79632	98476032	68300800	17956672	24992
343	1.529	98476032	68300800	19294416	24992
344	2.322631	98476032	68300800	21291616	24992
345	3.009538	98476032	68300800	23948176	24992
346	3.798016	98476032	68300800	27264744	24992
347	4.869716	98476032	68300800	14817592	24992
348	5.23201	98476032	68300800	19452872	24992
349	6.174645	98476032	68300800	24747560	24992
350	7.529116	98476032	68300800	14279992	24992
351	7.446551	98476032	68300800	20894488	24992
352	0.801708	98476032	68300800	28147864	24992
353	1.541229	98476032	68300800	29485608	24992
354	2.701726	98476032	68300800	15056872	24992
355	3.063651	98476032	68300800	17713432	24992
356	4.018132	98476032	68300800	21029904	24992
357	4.495181	98476032	68300800	25005784	24992
358	5.431835	98476032	68300800	29641064	24992
359	6.386089	98476032	68300800	18521216	24992
360	6.740355	98476032	68300800	24480720	24992
361	7.882218	98476032	68300800	14676160	24992
362	0.794587	98476032	68300800	21929536	24992
363	1.546343	98476032	68300800	23267280	24992
364	2.265533	98476032	68300800	25264432	24992
365	3.223325	98476032	68300800	27920992	24992
366	4.165712	98476032	68300800	14809768	24992
367	4.500296	98476032	68300800	18785648	24992
368	5.281448	98476032	68300800	23420928	24992
369	5.952415	98476032	68300800	28715616	24992
370	7.442404	98476032	68300800	18255504	24992
371	7.89417	98476032	68300800	24869976	24992
372	1.000305	98476032	68300800	15692536	24992
373	1.774225	98476032	68300800	17030280	24992
374	2.270525	98476032	68300800	19027432	24992
375	3.060778	98476032	68300800	21683992	24992
376	3.744184	98476032	68300800	25000464	24992
377	4.68454	98476032	68300800	28976344	24992
378	5.689828	98476032	68300800	17186480	24992
379	6.011195	98476032	68300800	22481200	24992
380	6.695365	98476032	68300800	28436248	24992
381	8.119262	98476032	68300800	18640856	24992
382	0.793378	98476032	68300800	25894232	24992
383	1.539256	98476032	68300800	27231976	24992
384	2.278406	98476032	68300800	29229128	24992
385	3.456768	98476032	68300800	15456672	24992
386	3.807598	98476032	68300800	18773144	24992
387	4.479054	98476032	68300800	22749024	24992
388	5.212307	98476032	68300800	27384304	24992
389	6.66967	98476032	68300800	16251928	24992
390	6.973298	98476032	68300800	22207008	24992
391	7.466783	98476032	68300800	28821464	24992
392	0.797255	98476032	68300800	19651464	24992
393	1.533908	98476032	68300800	20989208	24992
394	2.275627	98476032	68300800	22986376	24992
395	3.247922	98476032	68300800	25642936	24992
396	3.765087	98476032	68300800	28959424	24992
397	4.976474	98476032	68300800	16512144	24992
398	5.44458	98476032	68300800	21147424	24992
399	6.181526	98476032	68300800	26442112	24992
400	7.460301	98476032	68300800	15974312	24992
401	7.518862	98476032	68300800	22588800	24992
402	0.850142	98476032	68300800	29842304	24992
403	2.029968	98476032	68300800	14748320	24992
404	2.343058	98476032	68300800	16745472	24992
405	3.181885	98476032	68300800	19403048	24992
406	3.752063	98476032	68300800	22719520	24992
407	4.695849	98476032	68300800	26695448	24992
408	5.745173	98476032	68300800	14905008	24992
409	6.178472	98476032	68300800	20199696	24992
410	6.687357	98476032	68300800	26154968	24992
411	8.059344	98476032	68300800	16350088	24992
412	0.990515	98476032	68300800	23603464	24992
413	1.6248	98476032	68300800	24941208	24992
414	2.39336	98476032	68300800	26938360	24992
415	3.164831	98476032	68300800	29594936	24992
416	4.691211	98476032	68300800	16488648	24992
417	4.721093	98476032	68300800	20464528	24992
418	5.503139	98476032	68300800	25099840	24992
419	6.222198	98476032	68300800	30394528	24992
420	7.432701	98476032	68300800	19931824	24992
421	7.452978	98476032	68300800	26546280	24992
422	0.814703	98476032	68300800	17367464	24992
423	1.531132	98476032	68300800	18705208	24992
424	2.27583	98476032	68300800	20702360	24992
425	2.994116	98476032	68300800	23358920	24992
426	3.954306	98476032	68300800	26675392	24992
427	4.485846	98476032	68300800	30651272	24992
428	6.003454	98476032	68300800	18859024	24992
429	6.234436	98476032	68300800	24153776	24992
430	6.823637	98476032	68300800	30108824	24992
431	8.245936	98476032	68300800	20311920	24992
432	0.851888	98476032	68300800	27565296	24992
433	1.531615	98476032	68300800	28903040	24992
434	2.487889	98476032	68300800	30900192	24992
435	3.574357	98476032	68300800	17125720	24992
436	3.753738	98476032	68300800	20442192	24992
437	4.692426	98476032	68300800	24418072	24992
438	5.2602	98476032	68300800	29053352	24992
439	6.642517	98476032	68300800	17919280	24992
440	6.743668	98476032	68300800	23874328	24992
441	7.650468	98476032	68300800	30488784	24992
442	1.000188	98476032	68300800	21317424	24992
443	1.551585	98476032	68300800	22655168	24992
444	2.275555	98476032	68300800	24652320	24992
445	2.996949	98476032	68300800	27308880	24992
446	3.744349	98476032	68300800	30625432	24992
447	5.377928	98476032	68300800	18176600	24992
448	5.230452	98476032	68300800	22811880	24992
449	6.181224	98476032	68300800	28106568	24992
450	7.565141	98476032	68300800	17636864	24992
451	7.712981	98476032	68300800	24251448	24992
452	0.793562	98476032	68300800	31504824	24992
453	2.199123	98476032	68300800	16409080	24992
454	2.331544	98476032	68300800	18406232	24992
455	2.99887	98476032	68300800	21062792	24992
456	3.977356	98476032	68300800	24379264	24992
457	4.505243	98476032	68300800	28355208	24992
458	6.097464	98476032	68300800	16563808	24992
459	5.966916	98476032	68300800	21858496	24992
460	6.69551	98476032	68300800	27813560	24992
461	8.09033	98476032	68300800	18008200	24992
462	0.78966	98476032	68300800	25261576	24992
463	1.536673	98476032	68300800	26599320	24992
464	2.268432	98476032	68300800	28596536	24992
465	3.223095	98476032	68300800	31253176	24992
466	4.389841	98476032	68300800	18146312	24992
467	4.486173	98476032	68300800	22122192	24992
468	5.269659	98476032	68300800	26757472	24992
469	6.594411	98476032	68300800	15623520	24992
470	6.92106	98476032	68300800	21578576	24992
471	7.87848	98476032	68300800	28193032	24992
472	0.801925	98476032	68300800	19014296	24992
473	1.60011	98476032	68300800	20352040	24992
474	2.25903	98476032	68300800	22349192	24992
475	3.004684	98476032	68300800	25005752	24992
476	3.741644	98476032	68300800	28322224	24992
477	5.374683	98476032	68300800	15873608	24992
478	5.237709	98476032	68300800	20508976	24992
479	6.179948	98476032	68300800	25803728	24992
480	6.728997	98476032	68300800	31758776	24992
481	8.184582	98476032	68300800	21960528	24992
482	0.796482	98476032	68300800	29213904	24992
483	1.538797	98476032	68300800	30551648	24992
484	2.927169	98476032	68300800	16121584	24992
485	3.032303	98476032	68300800	18778144	24992
486	3.963084	98476032	68300800	22094616	24992
487	4.476124	98476032	68300800	26070496	24992
488	5.248683	98476032	68300800	30705776	24992
489	6.667109	98476032	68300800	19571600	24992
490	6.960596	98476032	68300800	25526648	24992
491	8.191583	98476032	68300800	15716176	24992
492	0.797521	98476032	68300800	22969544	24992
493	1.544448	98476032	68300800	24307288	24992
494	2.261814	98476032	68300800	26304440	24992
495	3.374269	98476032	68300800	28961000	24992
496	4.445494	98476032	68300800	15844112	24992
497	4.495806	98476032	68300800	19819992	24992
498	5.427839	98476032	68300800	24455320	24992
499	6.004989	98476032	68300800	29750008	24992
500	7.662651	98476032	68300800	19288104	24992
501	7.488793	98476032	68300800	25902576	24992
502	0.799792	98476032	68300800	16724240	24992
503	1.749615	98476032	68300800	18061984	24992
504	2.263215	98476032	68300800	20059136	24992
505	3.010652	98476032	68300800	22715696	24992
506	3.742403	98476032	68300800	26032168	24992
507	4.688619	98476032	68300800	30008112	24992
508	6.028455	98476032	68300800	18216680	24992
509	6.07574	98476032	68300800	23511368	24992
510	6.779357	98476032	68300800	29466464	24992
511	8.570004	98476032	68300800	19669008	24992
512	0.804544	98476032	68300800	26922384	24992
513	1.551118	98476032	68300800	28260128	24992
514	2.262339	98476032	68300800	30257328	24992
515	3.740524	98476032	68300800	16483544	24992
516	3.799752	98476032	68300800	19800016	24992
517	4.481779	98476032	68300800	23775896	24992
518	5.25975	98476032	68300800	28411176	24992
519	7.166633	98476032	68300800	17277232	24992
520	6.965578	98476032	68300800	23232280	24992
521	7.434967	98476032	68300800	29846736	24992
522	0.797359	98476032	68300800	20675488	24992
523	1.601696	98476032	68300800	22013264	24992
524	2.282227	98476032	68300800	24010416	24992
525	3.222656	98476032	68300800	26666976	24992
526	3.747544	98476032	68300800	29983448	24992
527	5.260789	98476032	68300800	17534664	24992
528	5.24117	98476032	68300800	22169992	24992
529	5.95734	98476032	68300800	27464792	24992
530	7.758565	98476032	68300800	16995088	24992
531	7.682283	98476032	68300800	23609544	24992
532	0.791084	98476032	68300800	30862920	24992
533	1.55769	98476032	68300800	32200664	24992
534	3.076916	98476032	68300800	17769912	24992
535	3.027007	98476032	68300800	20426472	24992
536	3.790641	98476032	68300800	23742944	24992
537	4.690736	98476032	68300800	27718824	24992
538	5.217513	98476032	68300800	32354104	24992
539	7.0045	98476032	68300800	21232168	24992
540	6.735458	98476032	68300800	27187216	24992
541	8.32671	98476032	68300800	17376608	24992
542	0.794422	98476032	68300800	24629984	24992
543	1.539261	98476032	68300800	25967728	24992
544	2.268087	98476032	68300800	27964880	24992
545	3.008518	98476032	68300800	30621440	24992
546	4.815103	98476032	68300800	17504440	24992
547	4.566943	98476032	68300800	21480320	24992
548	5.363752	98476032	68300800	26115680	24992
549	5.950449	98476032	68300800	31410512	24992
550	7.883277	98476032	68300800	20948608	24992
551	7.440123	98476032	68300800	27563096	24992
552	0.812581	98476032	68300800	18384536	24992
553	1.568187	98476032	68300800	19722280	24992
554	2.311624	98476032	68300800	21719432	24992
555	3.075989	98476032	68300800	24375992	24992
556	3.753595	98476032	68300800	27699264	24992
557	4.525358	98476032	68300800	31675144	24992
558	6.367354	98476032	68300800	19890432	24992
559	6.080521	98476032	68300800	25185120	24992
560	6.946662	98476032	68300800	31140264	24992
561	8.315266	98476032	68300800	21349496	24992
562	0.79307	98476032	68300800	28602920	24992
563	1.76452	98476032	68300800	29940664	24992
564	2.266932	98476032	68300800	31937848	24992
565	3.857395	98476032	68300800	18164064	24992
566	3.756096	98476032	68300800	21480584	24992
567	4.945063	98476032	68300800	25456464	24992
568	5.219337	98476032	68300800	30091744	24992
569	7.066902	98476032	68300800	18957688	24992
570	6.725654	98476032	68300800	24912736	24992
571	7.649033	98476032	68300800	31527192	24992
572	0.806861	98476032	68300800	22355848	24992
573	1.536629	98476032	68300800	23693672	24992
574	2.271652	98476032	68300800	25690824	24992
575	2.997196	98476032	68300800	28347384	24992
576	3.758802	98476032	68300800	31663856	24992
577	5.379666	98476032	68300800	19215008	24992
578	5.438326	98476032	68300800	23850288	24992
579	5.951217	98476032	68300800	29144976	24992
580	7.819434	98476032	68300800	18675304	24992
581	7.502782	98476032	68300800	25289760	24992
582	0.795656	98476032	68300800	32543136	24992
583	2.438365	98476032	68300800	17448064	24992
584	2.534236	98476032	68300800	19445216	24992
585	3.004806	98476032	68300800	22101808	24992
586	3.744168	98476032	68300800	25418280	24992
587	4.675387	98476032	68300800	29394160	24992
588	6.231283	98476032	68300800	17602936	24992
589	6.116324	98476032	68300800	22897624	24992
590	6.692404	98476032	68300800	28852672	24992
591	8.647962	98476032	68300800	19047312	24992
592	1.01644	98476032	68300800	26300720	24992
593	1.538556	98476032	68300800	27638464	24992
594	2.380202	98476032	68300800	29635616	24992
595	3.003662	98476032	68300800	32292176	24992
596	4.98066	98476032	68300800	19186000	24992
597	4.532681	98476032	68300800	23161880	24992
598	5.268972	98476032	68300800	27797176	24992
599	6.056845	98476032	68300800	33091896	24992
600	7.978621	98476032	68300800	22629304	24992
601	7.564734	98476032	68300800	29243792	24992
602	0.79684	98476032	68300800	20064992	24992
603	1.536171	98476032	68300800	21402736	24992
604	2.318608	98476032	68300800	23399888	24992
605	3.054426	98476032	68300800	26056448	24992
606	3.7923	98476032	68300800	29372920	24992
607	4.557773	98476032	68300800	33348800	24992
608	6.421829	98476032	68300800	21556616	24992
609	5.966883	98476032	68300800	26851304	24992
610	6.921303	98476032	68300800	32806384	24992
611	8.459979	98476032	68300800	23008816	24992
612	0.795033	98476032	68300800	30262208	24992
613	1.530515	98476032	68300800	31599952	24992
614	2.71625	98476032	68300800	33597104	24992
615	3.966245	98476032	68300800	19822648	24992
616	3.797916	98476032	68300800	23139120	24992
617	4.688465	98476032	68300800	27115000	24992
618	5.214143	98476032	68300800	31750280	24992
619	6.954422	98476032	68300800	20616096	24992
620	6.700615	98476032	68300800	26571144	24992
621	7.640064	98476032	68300800	33185632	24992
622	0.797571	98476032	68300800	24013600	24992
623	1.543071	98476032	68300800	25351344	24992
624	2.267402	98476032	68300800	27348496	24992
625	3.011799	98476032	68300800	30005056	24992
626	4.040007	98476032	68300800	33321528	24992
627	5.520379	98476032	68300800	20872072	24992
628	5.48874	98476032	68300800	25507352	24992
629	6.041054	98476032	68300800	30802040	24992
630	7.958696	98476032	68300800	20332240	24992
631	7.444869	98476032	68300800	26946696	24992
632	1.811453	98476032	68300800	17762512	24992
633	1.54484	98476032	68300800	19100264	24992
634	2.266306	98476032	68300800	21097416	24992
635	3.001609	98476032	68300800	23754008	24992
636	3.743198	98476032	68300800	27070480	24992
637	4.473915	98476032	68300800	31046360	24992
638	6.491496	98476032	68300800	19254960	24992
639	6.943555	98476032	68300800	24549664	24992
640	6.735781	98476032	68300800	30513440	24992
641	8.668223	98476032	68300800	20712592	24992
642	0.847852	98476032	68300800	27966176	24992
643	1.529555	98476032	68300800	29303920	24992
644	2.297761	98476032	68300800	31301072	24992
645	3.027093	98476032	68300800	33957632	24992
646	4.961871	98476032	68300800	20850784	24992
647	4.48822	98476032	68300800	24826664	24992
648	5.229654	98476032	68300800	29462024	24992
649	7.195109	98476032	68300800	18328112	24992
650	6.711093	98476032	68300800	24283160	24992
651	7.442666	98476032	68300800	30897792	24992
652	0.798851	98476032	68300800	21719008	24992
653	1.53867	98476032	68300800	23056752	24992
654	2.280287	98476032	68300800	25053904	24992
655	3.189968	98476032	68300800	27710464	24992
656	3.747825	98476032	68300800	31026936	24992
657	5.560127	98476032	68300800	18578216	24992
658	5.28755	98476032	68300800	23213496	24992
659	5.965079	98476032	68300800	28508184	24992
660	7.97882	98476032	68300800	18038696	24992
661	7.819989	98476032	68300800	24653144	24992
662	0.811784	98476032	68300800	31906520	24992
663	1.528326	98476032	68300800	33244264	24992
664	3.399548	98476032	68300800	18814184	24992
665	3.020092	98476032	68300800	21470744	24992
666	3.750544	98476032	68300800	24787248	24992
667	4.668563	98476032	68300800	28763128	24992
668	5.232195	98476032	68300800	33398408	24992
669	7.269777	98476032	68300800	22277192	24992
670	6.774525	98476032	68300800	28232240	24992
671	8.589653	98476032	68300800	18421768	24992
672	0.795345	98476032	68300800	25675136	24992
673	1.54658	98476032	68300800	27012880	24992
674	2.266161	98476032	68300800	29010032	24992
675	3.002682	98476032	68300800	31666592	24992
676	5.050983	98476032	68300800	18549704	24992
677	4.492021	98476032	68300800	22525648	24992
678	5.268994	98476032	68300800	27160928	24992
679	5.953684	98476032	68300800	32455616	24992
680	8.035004	98476032	68300800	21993792	24992
681	7.446725	98476032	68300800	28608248	24992
682	0.803701	98476032	68300800	19429912	24992
683	1.53789	98476032	68300800	20767664	24992
684	2.254254	98476032	68300800	22764808	24992
685	3.014229	98476032	68300800	25421400	24992
686	3.937025	98476032	68300800	28737872	24992
687	4.483003	98476032	68300800	32713752	24992
688	6.570098	98476032	68300800	20922240	24992
689	6.006623	98476032	68300800	26216928	24992
690	6.891373	98476032	68300800	32171976	24992
691	8.658734	98476032	68300800	22374408	24992
692	0.793791	98476032	68300800	29627864	24992
693	1.73079	98476032	68300800	30965624	24992
694	2.266516	98476032	68300800	32962776	24992
695	4.154	98476032	68300800	19188992	24992
696	3.740587	98476032	68300800	22505464	24992
697	4.672735	98476032	68300800	26481344	24992
698	5.212183	98476032	68300800	31116640	24992
699	7.174476	98476032	68300800	19982680	24992
700	6.698989	98476032	68300800	25937728	24992
701	7.694792	98476032	68300800	32552184	24992
702	0.800089	98476032	68300800	23380904	24992
703	1.533611	98476032	68300800	24718648	24992
704	2.263039	98476032	68300800	26715800	24992
705	3.16099	98476032	68300800	29372360	24992
706	3.774794	98476032	68300800	32688832	24992
707	5.698712	98476032	68300800	20240000	24992
708	5.355655	98476032	68300800	24875280	24992
709	6.17284	98476032	68300800	30169968	24992
710	8.233442	98476032	68300800	19700280	24992
711	7.795606	98476032	68300800	26314736	24992
712	0.79506	98476032	68300800	33568112	24992
713	1.550729	98476032	68300800	34905856	24992
714	3.523048	98476032	68300800	20475104	24992
715	3.063343	98476032	68300800	23131664	24992
716	3.795876	98476032	68300800	26448136	24992
717	4.688681	98476032	68300800	30424016	24992
718	5.296544	98476032	68300800	35059296	24992
719	7.37678	98476032	68300800	23927872	24992
720	6.842015	98476032	68300800	29882920	24992
721	8.774807	98476032	68300800	20072016	24992
722	0.801869	98476032	68300800	27325392	24992
723	1.543327	98476032	68300800	28663136	24992
724	2.260901	98476032	68300800	30660288	24992
725	2.998373	98476032	68300800	33316848	24992
726	5.19804	98476032	68300800	20206128	24992
727	4.498321	98476032	68300800	24182040	24992
728	5.216319	98476032	68300800	28817320	24992
729	5.952427	98476032	68300800	34112008	24992
730	8.138985	98476032	68300800	23650152	24992
731	7.432962	98476032	68300800	30264608	24992
732	0.797428	98476032	68300800	21085824	24992
733	1.535352	98476032	68300800	22423568	24992
734	2.323055	98476032	68300800	24420720	24992
735	3.008212	98476032	68300800	27077280	24992
736	3.746399	98476032	68300800	30393816	24992
737	4.661964	98476032	68300800	34369696	24992
738	6.461755	98476032	68300800	22578184	24992
739	6.207713	98476032	68300800	27872872	24992
740	6.715037	98476032	68300800	33827920	24992
741	8.750671	98476032	68300800	24030352	24992
742	0.797861	98476032	68300800	31283760	24992
743	1.530525	98476032	68300800	32621536	24992
744	2.272906	98476032	68300800	34618688	24992
745	4.252136	98476032	68300800	20844904	24992
746	3.987271	98476032	68300800	24161376	24992
747	4.484392	98476032	68300800	28137256	24992
748	5.211058	98476032	68300800	32772536	24992
749	7.284959	98476032	68300800	21638480	24992
750	7.083276	98476032	68300800	27593528	24992
751	7.453176	98476032	68300800	34207984	24992
752	0.800305	98476032	68300800	25036624	24992
753	1.54465	98476032	68300800	26374368	24992
754	2.261618	98476032	68300800	28371520	24992
755	3.055381	98476032	68300800	31028080	24992
756	3.739085	98476032	68300800	34344552	24992
757	6.134575	98476032	68300800	21895704	24992
758	5.273266	98476032	68300800	26530984	24992
759	5.951007	98476032	68300800	31825672	24992
760	8.183535	98476032	68300800	21355952	24992
761	7.452962	98476032	68300800	27970528	24992
762	0.79124	98476032	68300800	35223896	24992
763	3.038095	98476032	68300800	20128136	24992
764	2.292355	98476032	68300800	22125288	24992
765	3.004601	98476032	68300800	24781848	24992
766	3.730423	98476032	68300800	28098320	24992
767	4.675295	98476032	68300800	32074200	24992
768	6.530248	98476032	68300800	20282912	24992
769	6.021364	98476032	68300800	25577664	24992
770	6.740891	98476032	68300800	31532712	24992
771	8.847855	98476032	68300800	21727416	24992
772	0.792341	98476032	68300800	28980792	24992
773	1.53298	98476032	68300800	30318536	24992
774	2.276779	98476032	68300800	32315688	24992
775	3.056224	98476032	68300800	34972248	24992
776	5.089055	98476032	68300800	21866072	24992
777	4.531348	98476032	68300800	25842000	24992
778	5.420005	98476032	68300800	30477280	24992
779	5.960638	98476032	68300800	35771968	24992
780	8.284527	98476032	68300800	25307520	24992
781	7.457615	98476032	68300800	31921976	24992
782	0.801567	98476032	68300800	22743256	24992
783	1.599793	98476032	68300800	24081000	24992
784	2.264726	98476032	68300800	26078152	24992
785	3.645283	98476032	68300800	28734728	24992
786	3.797066	98476032	68300800	32051248	24992
787	6.111505	98476032	68300800	19601504	24992
788	5.279716	98476032	68300800	24236776	24992
789	6.153154	98476032	68300800	29531464	24992
790	6.690801	98476032	68300800	35486512	24992
791	8.872793	98476032	68300800	25688712	24992
792	0.80493	98476032	68300800	32942104	24992
793	1.531106	98476032	68300800	34279848	24992
794	3.688517	98476032	68300800	19849776	24992
795	3.217928	98476032	68300800	22506328	24992
796	3.80838	98476032	68300800	25822800	24992
797	4.471148	98476032	68300800	29798792	24992
798	5.262378	98476032	68300800	34434072	24992
799	7.348904	98476032	68300800	23299896	24992
800	6.90724	98476032	68300800	29254960	24992
801	7.621259	98476032	68300800	35869416	24992
802	0.797303	98476032	68300800	26704000	24992
803	1.716345	98476032	68300800	28041744	24992
804	2.286506	98476032	68300800	30038896	24992
805	3.004768	98476032	68300800	32695456	24992
806	3.737515	98476032	68300800	36011928	24992
807	6.067387	98476032	68300800	23562408	24992
808	5.227019	98476032	68300800	28197736	24992
809	6.169313	98476032	68300800	33492424	24992
810	8.092516	98476032	68300800	23022608	24992
811	7.506238	98476032	68300800	29637064	24992
812	2.188701	98476032	68300800	20452920	24992
813	1.592696	98476032	68300800	21790664	24992
814	2.272445	98476032	68300800	23787816	24992
815	2.996634	98476032	68300800	26444376	24992
816	3.958065	98476032	68300800	29760848	24992
817	4.486001	98476032	68300800	33736728	24992
818	6.682457	98476032	68300800	21945216	24992
819	5.966915	98476032	68300800	27239904	24992
820	6.973508	98476032	68300800	33194952	24992
821	9.072327	98476032	68300800	23393992	24992
822	0.795484	98476032	68300800	30647368	24992
823	1.534457	98476032	68300800	31985112	24992
824	2.312739	98476032	68300800	33982264	24992
825	4.439333	98476032	68300800	20208480	24992
826	3.750464	98476032	68300800	23524952	24992
827	4.909762	98476032	68300800	27500832	24992
828	5.225526	98476032	68300800	32136112	24992
829	7.626762	98476032	68300800	21002152	24992
830	6.704873	98476032	68300800	26957248	24992
831	7.479168	98476032	68300800	33571704	24992
832	0.799711	98476032	68300800	24400472	24992
833	1.540227	98476032	68300800	25738216	24992
834	2.259346	98476032	68300800	27735368	24992
835	3.00138	98476032	68300800	30391928	24992
836	3.979982	98476032	68300800	33708448	24992
837	5.962569	98476032	68300800	21259728	24992
838	5.273828	98476032	68300800	25895008	24992
839	5.95613	98476032	68300800	31189696	24992
840	8.383321	98476032	68300800	20720208	24992
841	7.445575	98476032	68300800	27334768	24992
842	0.799492	98476032	68300800	34588144	24992
843	1.527768	98476032	68300800	35925888	24992
844	3.781355	98476032	68300800	21495824	24992
845	3.022981	98476032	68300800	24152384	24992
846	3.740252	98476032	68300800	27468856	24992
847	4.688065	98476032	68300800	31444800	24992
848	5.210744	98476032	68300800	36080080	24992
849	7.69247	98476032	68300800	24958144	24992
850	6.942465	98476032	68300800	30923528	24992
851	8.986221	98476032	68300800	21125992	24992
852	0.795826	98476032	68300800	28379368	24992
853	1.540012	98476032	68300800	29717112	24992
854	2.262235	98476032	68300800	31714264	24992
855	3.001396	98476032	68300800	34370888	24992
856	5.479087	98476032	68300800	21264216	24992
857	4.493686	98476032	68300800	25240240	24992
858	5.316334	98476032	68300800	29875520	24992
859	5.951533	98476032	68300800	35170208	24992
860	8.434128	98476032	68300800	24708288	24992
861	7.451061	98476032	68300800	31322744	24992
862	0.799736	98476032	68300800	22144216	24992
863	1.537573	98476032	68300800	23481960	24992
864	2.318167	98476032	68300800	25479176	24992
865	3.01032	98476032	68300800	28135736	24992
866	3.743993	98476032	68300800	31452208	24992
867	4.687243	98476032	68300800	35428088	24992
868	6.767409	98476032	68300800	23636608	24992
869	6.182952	98476032	68300800	28931344	24992
870	6.747851	98476032	68300800	34886392	24992
871	9.046462	98476032	68300800	25088824	24992
872	0.798149	98476032	68300800	32342200	24992
873	1.532759	98476032	68300800	33679944	24992
874	2.319139	98476032	68300800	35677096	24992
875	4.528742	98476032	68300800	21903312	24992
876	3.960188	98476032	68300800	25219784	24992
877	4.521292	98476032	68300800	29195664	24992
878	5.433734	98476032	68300800	33830944	24992
879	7.523258	98476032	68300800	22697000	24992
880	6.741503	98476032	68300800	28652144	24992
881	7.44937	98476032	68300800	35266600	24992
882	0.821466	98476032	68300800	26095240	24992
883	1.55912	98476032	68300800	27432984	24992
884	2.519602	98476032	68300800	29430136	24992
885	3.010316	98476032	68300800	32086696	24992
886	3.736547	98476032	68300800	35403168	24992
887	6.119849	98476032	68300800	22954320	24992
888	5.299825	98476032	68300800	27589600	24992
889	6.110081	98476032	68300800	32884288	24992
890	8.381964	98476032	68300800	22414568	24992
891	7.714423	98476032	68300800	29029072	24992
892	0.789658	98476032	68300800	36282448	24992
893	3.120335	98476032	68300800	21187376	24992
894	2.331278	98476032	68300800	23184528	24992
895	3.007482	98476032	68300800	25841088	24992
896	4.187812	98476032	68300800	29157560	24992
897	4.54743	98476032	68300800	33133472	24992
898	7.099386	98476032	68300800	21342184	24992
899	5.966208	98476032	68300800	26636872	24992
900	6.915917	98476032	68300800	32591936	24992
901	9.150044	98476032	68300800	22786656	24992
902	0.79881	98476032	68300800	30040032	24992
903	1.535661	98476032	68300800	31377776	24992
904	2.48064	98476032	68300800	33374928	24992
905	3.008129	98476032	68300800	36031488	24992
906	5.396887	98476032	68300800	22925376	24992
907	4.756776	98476032	68300800	26901256	24992
908	5.279629	98476032	68300800	31536536	24992
909	6.010784	98476032	68300800	36831224	24992
910	8.427957	98476032	68300800	26369320	24992
911	7.742186	98476032	68300800	32983776	24992
912	0.826149	98476032	68300800	23805104	24992
913	1.837954	98476032	68300800	25142928	24992
914	2.349853	98476032	68300800	27142144	24992
915	3.059747	98476032	68300800	29798704	24992
916	3.814107	98476032	68300800	33115176	24992
917	4.490825	98476032	68300800	37091056	24992
918	7.116735	98476032	68300800	25299224	24992
919	6.199897	98476032	68300800	30593928	24992
920	6.921503	98476032	68300800	36548976	24992
921	9.226006	98476032	68300800	26751792	24992
922	0.794089	98476032	68300800	34005168	24992
923	1.529843	98476032	68300800	35342912	24992
924	2.484091	98476032	68300800	37340064	24992
925	4.700167	98476032	68300800	23565592	24992
926	3.776179	98476032	68300800	26882064	24992
927	4.692736	98476032	68300800	30857944	24992
928	5.217421	98476032	68300800	35493224	24992
929	7.707146	98476032	68300800	24359056	24992
930	6.823972	98476032	68300800	30314104	24992
931	7.73322	98476032	68300800	36928560	24992
932	0.844278	98476032	68300800	27757200	24992
933	1.612987	98476032	68300800	29094944	24992
934	2.396357	98476032	68300800	31092096	24992
935	3.447221	98476032	68300800	33748656	24992
936	3.790686	98476032	68300800	37065128	24992
937	6.215649	98476032	68300800	24616280	24992
938	5.3171	98476032	68300800	29251592	24992
939	6.001066	98476032	68300800	34546296	24992
940	8.708127	98476032	68300800	24076592	24992
941	8.009745	98476032	68300800	30691240	24992
942	0.818067	98476032	68300800	37944616	24992
943	3.280443	98476032	68300800	22848872	24992
944	2.331414	98476032	68300800	24846024	24992
945	3.082466	98476032	68300800	27502584	24992
946	3.993436	98476032	68300800	30819056	24992
947	4.484221	98476032	68300800	34795016	24992
948	7.172527	98476032	68300800	23003728	24992
949	5.982752	98476032	68300800	28298416	24992
950	6.740846	98476032	68300800	34253464	24992
951	9.200226	98476032	68300800	24448104	24992
952	0.796587	98476032	68300800	31701544	24992
953	1.537513	98476032	68300800	33039288	24992
954	2.261291	98476032	68300800	35036504	24992
955	3.225128	98476032	68300800	37693064	24992
956	5.522025	98476032	68300800	24586472	24992
957	4.603649	98476032	68300800	28562352	24992
958	5.22056	98476032	68300800	33197632	24992
959	7.890041	98476032	68300800	22063680	24992
960	6.83658	98476032	68300800	28018736	24992
961	7.985255	98476032	68300800	34633224	24992
962	0.803934	98476032	68300800	25454456	24992
963	1.780759	98476032	68300800	26792216	24992
964	2.270079	98476032	68300800	28789368	24992
965	3.006485	98476032	68300800	31445928	24992
966	3.786565	98476032	68300800	34762400	24992
967	6.345456	98476032	68300800	22313816	24992
968	5.369641	98476032	68300800	26949088	24992
969	6.007203	98476032	68300800	32243776	24992
970	6.958301	98476032	68300800	38198840	24992
971	9.336895	98476032	68300800	28400592	24992
972	0.851433	98476032	68300800	35653968	24992
973	1.53854	98476032	68300800	36991712	24992
974	4.067618	98476032	68300800	22561648	24992
975	3.074952	98476032	68300800	25218208	24992
976	3.815157	98476032	68300800	28534680	24992
977	4.756996	98476032	68300800	32510560	24992
978	5.227387	98476032	68300800	37145840	24992
979	8.151782	98476032	68300800	26011664	24992
980	7.084974	98476032	68300800	31966712	24992
981	7.999427	98476032	68300800	38581168	24992
982	0.799768	98476032	68300800	29408776	24992
983	1.528707	98476032	68300800	30746520	24992
984	2.318953	98476032	68300800	32743672	24992
985	3.039314	98476032	68300800	35400232	24992
986	5.584834	98476032	68300800	22283344	24992
987	4.824766	98476032	68300800	26259216	24992
988	5.463302	98476032	68300800	30894512	24992
989	5.969324	98476032	68300800	36189200	24992
990	8.807308	98476032	68300800	25725848	24992
991	7.595649	98476032	68300800	32340320	24992
992	0.834137	98476032	68300800	23161984	24992
993	1.532254	98476032	68300800	24499728	24992
994	2.274688	98476032	68300800	26496880	24992
995	3.011828	98476032	68300800	29153440	24992
996	3.736544	98476032	68300800	32469912	24992
997	4.703367	98476032	68300800	36445792	24992
998	7.10953	98476032	68300800	24654280	24992
999	6.021856	98476032	68300800	29948968	24992
1000	6.914271	98476032	68300800	35904048	24992
