x	Duration	RSS	HeapTotal	HeapUsed	External
0	NA	97976320	67252224	10887664	24992
1	0.888959	97976320	67252224	11567792	24992
2	1.522828	97976320	67252224	12906208	24992
3	2.228738	97976320	67252224	14903992	24992
4	2.997871	97976320	67252224	17561312	24992
5	3.71274	97976320	67252224	20878736	24992
6	4.602274	97976320	67252224	24855696	24992
7	5.585288	97976320	67252224	13026344	24992
8	5.973276	97976320	67252224	18322432	24992
9	6.869548	97976320	67252224	24279056	24992
10	7.976258	97976320	67252224	14436128	24992
11	8.687648	97976320	67252224	21712008	24992
12	0.789138	97976320	67252224	13152328	24992
13	1.55018	97976320	67252224	14490592	24992
14	2.238921	97976320	67252224	16488408	24992
15	2.993665	97976320	67252224	19145792	24992
16	3.676496	97976320	67252224	22463264	24992
17	4.646311	97976320	67252224	26442696	24992
18	5.567142	97976320	67252224	14613784	24992
19	5.979747	97976320	67252224	19910304	24992
20	6.737993	97976320	67252224	25866992	24992
21	7.508323	97976320	67252224	16024976	24992
22	0.79703	97976320	67252224	23280424	24992
23	1.513746	97976320	67252224	24618688	24992
24	2.228112	97976320	67252224	26616504	24992
25	3.141192	97976320	67252224	12805136	24992
26	3.690358	97976320	67252224	16122608	24992
27	4.376215	97976320	67252224	20099712	24992
28	5.320987	97976320	67252224	24736296	24992
29	6.080711	97976320	67252224	13566584	24992
30	7.033228	97976320	67252224	19523368	24992
31	7.353518	97976320	67252224	26139608	24992
32	0.795789	97976320	67252224	16928560	24992
33	1.507799	97976320	67252224	18266824	24992
34	2.235079	97976320	67252224	20264640	24992
35	2.998173	97976320	67252224	22922024	24992
36	3.659286	97976320	67252224	26239496	24992
37	4.586803	97976320	67252224	13750680	24992
38	5.325095	97976320	67252224	18387264	24992
39	5.829395	97976320	67252224	23683416	24992
40	7.027277	97976320	67252224	13177008	24992
41	7.428397	97976320	67252224	19793264	24992
42	0.784532	97976320	67252224	27048712	24992
43	1.721587	97976320	67252224	11914720	24992
44	2.234101	97976320	67252224	13912536	24992
45	3.161636	97976320	67252224	16570592	24992
46	3.671948	97976320	67252224	19888064	24992
47	4.39037	97976320	67252224	23865136	24992
48	5.547405	97976320	67252224	12036704	24992
49	5.830141	97976320	67252224	17332856	24992
50	6.550764	97976320	67252224	23289656	24992
51	8.577431	97976320	67252224	13444624	24992
52	0.799767	98246656	67252224	20714112	24992
53	1.494848	98246656	67252224	22052376	24992
54	2.428068	98246656	67252224	24050448	24992
55	2.937869	98246656	67252224	26707832	24992
56	3.880428	98246656	67252224	13558992	24992
57	4.431265	98246656	67252224	17536016	24992
58	5.086835	98246656	67252224	22172600	24992
59	5.984015	98246656	67252224	27468752	24992
60	6.850078	98246656	67252224	16962648	24992
61	7.581145	98246656	67252224	23578984	24992
62	0.782773	98246656	67252224	14364752	24992
63	1.516331	98246656	67252224	15703016	24992
64	2.414655	98246656	67252224	17703528	24992
65	2.992419	98246656	67252224	20360912	24992
66	3.65413	98246656	67252224	23678384	24992
67	4.582487	98246656	67252224	27655456	24992
68	5.535913	98246656	67252224	15824904	24992
69	6.003499	98246656	67252224	21121056	24992
70	6.54443	98246656	67252224	27077872	24992
71	7.454263	98246656	67252224	17235168	24992
72	0.975722	98246656	67252224	24490616	24992
73	1.564845	98246656	67252224	25828880	24992
74	2.224743	98246656	67252224	27826712	24992
75	3.133105	98246656	67252224	14013768	24992
76	3.655315	98246656	67252224	17331272	24992
77	4.566774	98246656	67252224	21308296	24992
78	5.087026	98246656	67252224	25944880	24992
79	6.02046	98246656	67252224	14774496	24992
80	6.52136	98246656	67252224	20731376	24992
81	7.544822	98246656	67252224	27348800	24992
82	0.785078	98246656	67252224	18137656	24992
83	1.499953	98246656	67252224	19475832	24992
84	2.218077	98246656	67252224	21474712	24992
85	2.977152	98246656	67252224	24132024	24992
86	4.033345	98246656	67252224	27453480	24992
87	4.588667	98246656	67252224	14963992	24992
88	5.065941	98246656	67252224	19599864	24992
89	5.9897	98246656	67252224	24895224	24992
90	6.721405	98246656	67252224	14387952	24992
91	7.427156	98246656	67252224	21003240	24992
92	1.012806	98246656	67252224	11781928	24992
93	1.529956	98246656	67252224	13119872	24992
94	2.249817	98246656	67252224	15117296	24992
95	2.922254	98246656	67252224	17774208	24992
96	3.859954	98246656	67252224	21091128	24992
97	4.354583	98246656	67252224	25067520	24992
98	5.450656	98246656	67252224	13236600	24992
99	6.06052	98246656	67252224	18531960	24992
100	6.785527	98246656	67252224	24487760	24992
101	7.497999	98246656	67252224	14641488	24992
102	0.780922	98246656	67252224	21895840	24992
103	1.490472	98246656	67252224	23233776	24992
104	2.203847	98246656	67252224	25231200	24992
105	2.913629	98246656	67252224	27888112	24992
106	4.075791	98246656	67252224	14737576	24992
107	4.359754	98246656	67252224	18713984	24992
108	5.276084	98246656	67252224	23349856	24992
109	6.020489	98246656	67252224	12178464	24992
110	6.92702	98246656	67252224	18134264	24992
111	7.317196	98246656	67252224	24749552	24992
112	0.777638	98246656	67252224	15533800	24992
113	1.495026	98246656	67252224	16871736	24992
114	2.307612	98246656	67252224	18869192	24992
115	2.925905	98246656	67252224	21526224	24992
116	3.632717	98246656	67252224	24843136	24992
117	4.825867	98246656	67252224	12354568	24992
118	5.286663	98246656	67252224	16990440	24992
119	6.370534	98246656	67252224	22287760	24992
120	6.83112	98246656	67252224	28243560	24992
121	7.577686	98246656	67252224	18388688	24992
122	0.789722	98246656	67252224	25643056	24992
123	1.53382	98246656	67252224	26980992	24992
124	2.479248	98246656	67252224	12508704	24992
125	3.177807	98246656	67252224	15165664	24992
126	3.641102	98246656	67252224	18482568	24992
127	4.351703	98246656	67252224	22458976	24992
128	5.652304	98246656	67252224	27096952	24992
129	6.09777	98246656	67252224	15928880	24992
130	6.759339	98246656	67252224	21884744	24992
131	7.668342	98246656	67252224	12034616	24992
132	0.777135	98246656	67252224	19288928	24992
133	1.496161	98246656	67252224	20626864	24992
134	2.224745	98246656	67252224	22624304	24992
135	2.978883	98246656	67252224	25281216	24992
136	3.878986	98246656	67252224	12127856	24992
137	4.572981	98246656	67252224	16104240	24992
138	5.118501	98246656	67252224	20740112	24992
139	5.776747	98246656	67252224	26035472	24992
140	7.026252	98246656	67252224	15528664	24992
141	7.535188	98246656	67252224	22143984	24992
142	0.792448	98246656	67252224	12932336	24992
143	1.699161	98246656	67252224	14270272	24992
144	2.20305	98246656	67252224	16267696	24992
145	2.926917	98246656	67252224	18924608	24992
146	3.629095	98246656	67252224	22241512	24992
147	4.503244	98246656	67252224	26218960	24992
148	5.341117	98246656	67252224	14389768	24992
149	6.022701	98246656	67252224	19685128	24992
150	6.493219	98246656	67252224	25640960	24992
151	7.699683	98246656	67252224	15796680	24992
152	0.774529	98246656	67252224	23051000	24992
153	1.514901	98246656	67252224	24388936	24992
154	2.205515	98246656	67252224	26386360	24992
155	3.197663	98246656	67252224	12573256	24992
156	3.858733	98246656	67252224	15890160	24992
157	4.548661	98246656	67252224	19866552	24992
158	5.055892	98246656	67252224	24502424	24992
159	6.235303	98246656	67252224	13331040	24992
160	6.505145	98246656	67252224	19286840	24992
161	7.221226	98246656	67252224	25902176	24992
162	1.002266	98246656	67252224	16689024	24992
163	1.496525	98246656	67252224	18026960	24992
164	2.210821	98246656	67252224	20024384	24992
165	2.917757	98246656	67252224	22681296	24992
166	3.62885	98246656	67252224	25998200	24992
167	4.827715	98246656	67252224	13507784	24992
168	5.075411	98246656	67252224	18143656	24992
169	6.010134	98246656	67252224	23439016	24992
170	6.759693	98246656	67252224	12930736	24992
171	7.486449	98246656	67252224	19546024	24992
172	0.775268	98246656	67252224	26800344	24992
173	1.492326	98246656	67252224	28138280	24992
174	2.482057	98246656	67252224	13665328	24992
175	2.989718	98246656	67252224	16322320	24992
176	3.715882	98246656	67252224	19639224	24992
177	4.354105	98246656	67252224	23615616	24992
178	5.055405	98246656	67252224	28251488	24992
179	6.30746	98246656	67252224	17083360	24992
180	6.496714	98246656	67252224	23039160	24992
181	7.730924	98246656	67252224	13188832	24992
182	0.770822	98246656	67252224	20443168	24992
183	1.501364	98246656	67252224	21781104	24992
184	2.196077	98246656	67252224	23778528	24992
185	2.913256	98246656	67252224	26435440	24992
186	4.117968	98246656	67252224	13281960	24992
187	4.424052	98246656	67252224	17258480	24992
188	5.14652	98246656	67252224	21894352	24992
189	6.021571	98246656	67252224	27189712	24992
190	6.84497	98246656	67252224	16682968	24992
191	7.35991	98246656	67252224	23298256	24992
192	0.784793	98246656	67252224	14082720	24992
193	1.49618	98246656	67252224	15420680	24992
194	2.431498	98246656	67252224	17418096	24992
195	2.908721	98246656	67252224	20075024	24992
196	3.909181	98246656	67252224	23391928	24992
197	4.396546	98246656	67252224	27368320	24992
198	5.42637	98246656	67252224	15537296	24992
199	5.872988	98246656	67252224	20832656	24992
200	6.759545	98246656	67252224	26788456	24992
201	7.472746	98246656	67252224	16944096	24992
202	0.773146	98246656	67252224	24198416	24992
203	1.490147	98246656	67252224	25536352	24992
204	2.210012	98246656	67252224	27533776	24992
205	3.173626	98246656	67252224	13720640	24992
206	3.708856	98246656	67252224	17037544	24992
207	4.442476	98246656	67252224	21013968	24992
208	6.216644	98246656	67252224	25649944	24992
209	6.208749	98246656	67252224	14493240	24992
210	6.569791	98246656	67252224	20449120	24992
211	7.350568	98246656	67252224	27064408	24992
212	0.811056	98246656	67252224	17851240	24992
213	1.504223	98246656	67252224	19189176	24992
214	2.211623	98246656	67252224	21186600	24992
215	2.943787	98246656	67252224	23843512	24992
216	3.743603	98246656	67252224	27160416	24992
217	4.918439	98246656	67252224	14669984	24992
218	5.545134	98246656	67252224	19308872	24992
219	5.899279	98246656	67252224	24604216	24992
220	7.218898	98246656	67252224	14096272	24992
221	7.655868	98246656	67252224	20711544	24992
222	0.774625	98246656	67252224	27965864	24992
223	1.746254	98246656	67252224	12831688	24992
224	2.239537	98246656	67252224	14829088	24992
225	2.927069	98246656	67252224	17485984	24992
226	3.646667	98246656	67252224	20802872	24992
227	4.551591	98246656	67252224	24779248	24992
228	5.320606	98246656	67252224	12948424	24992
229	6.113797	98246656	67252224	18246640	24992
230	6.499122	98246656	67252224	24202632	24992
231	7.518779	98246656	67252224	14357216	24992
232	0.772491	98246656	67252224	21611504	24992
233	1.705094	98246656	67252224	22949424	24992
234	2.197167	98246656	67252224	24946832	24992
235	3.11324	98246656	67252224	27603760	24992
236	3.911527	98246656	67252224	14456792	24992
237	4.593625	98246656	67252224	18433168	24992
238	5.158474	98246656	67252224	23069024	24992
239	5.787935	98246656	67252224	28364368	24992
240	7.000665	98246656	67252224	17859136	24992
241	7.51073	98246656	67252224	24474408	24992
242	0.82313	98246656	67252224	15259896	24992
243	1.497582	98246656	67252224	16597768	24992
244	2.20619	98246656	67252224	18595032	24992
245	3.145012	98246656	67252224	21251736	24992
246	3.623413	98246656	67252224	24568384	24992
247	4.4078	98246656	67252224	28544472	24992
248	5.380959	98246656	67252224	16712776	24992
249	6.063514	98246656	67252224	22007736	24992
250	6.50531	98246656	67252224	27963136	24992
251	7.713601	98246656	67252224	18118600	24992
252	0.772419	98246656	67252224	25372360	24992
253	1.485541	98246656	67252224	26710184	24992
254	2.212337	98246656	67252224	28707448	24992
255	3.253577	98246656	67252224	14893496	24992
256	3.869813	98246656	67252224	18210144	24992
257	4.461934	98246656	67252224	22186232	24992
258	5.116476	98246656	67252224	26821752	24992
259	6.368533	98246656	67252224	15649744	24992
260	6.490054	98246656	67252224	21605096	24992
261	7.231865	98246656	67252224	28219888	24992
262	0.780661	98246656	67252224	19006272	24992
263	1.505277	98246656	67252224	20344176	24992
264	2.203771	98246656	67252224	22341440	24992
265	2.920727	98246656	67252224	24998144	24992
266	3.845224	98246656	67252224	28314792	24992
267	4.650307	98246656	67252224	15824040	24992
268	5.179213	98246656	67252224	20459560	24992
269	5.801936	98246656	67252224	25754520	24992
270	7.206693	98246656	67252224	15245824	24992
271	7.313801	98246656	67252224	21860616	24992
272	0.774527	98246656	67252224	29114376	24992
273	1.735031	98246656	67252224	13979056	24992
274	2.208276	98246656	67252224	15976320	24992
275	2.911212	98246656	67252224	18633056	24992
276	3.858016	98246656	67252224	21949704	24992
277	4.416051	98246656	67252224	25925792	24992
278	5.537279	98246656	67252224	14094624	24992
279	5.774002	98246656	67252224	19389584	24992
280	6.549879	98246656	67252224	25345144	24992
281	7.57102	98246656	67252224	15496368	24992
282	0.775182	98246656	67252224	22750144	24992
283	1.491288	98246656	67252224	24087984	24992
284	2.204754	98246656	67252224	26085248	24992
285	3.135565	98246656	67252224	28741952	24992
286	3.917617	98246656	67252224	15591848	24992
287	4.424369	98246656	67252224	19567936	24992
288	5.734156	98246656	67252224	24206112	24992
289	5.935824	98246656	67252224	29500800	24992
290	7.020158	98246656	67252224	18983992	24992
291	7.218896	98246656	67252224	25598448	24992
292	0.776069	98246656	67252224	16381744	24992
293	1.504041	98246656	67252224	17719536	24992
294	2.201703	98246656	67252224	19716688	24992
295	3.137944	98246656	67252224	22373264	24992
296	3.858586	98246656	67252224	25689736	24992
297	4.658501	98246656	67252224	13198168	24992
298	6.095472	98246656	67252224	17833456	24992
299	5.932535	98246656	67252224	23137064	24992
300	6.958583	98246656	67252224	29092112	24992
301	7.907486	98246656	67252224	19259080	24992
302	0.771226	98246656	67252224	26512472	24992
303	1.487017	98246656	67252224	27850312	24992
304	2.467909	98246656	67252224	13407152	24992
305	2.929273	98246656	67252224	16063704	24992
306	3.630752	98246656	67252224	19380544	24992
307	4.551006	98246656	67252224	23356424	24992
308	5.056997	98246656	67252224	27991704	24992
309	6.307812	98246656	67252224	16857864	24992
310	6.489952	98246656	67252224	22812912	24992
311	7.396589	98246656	67252224	29427368	24992
312	0.830807	98246656	67252224	20262288	24992
313	1.597914	98246656	67252224	21600032	24992
314	2.362953	98246656	67252224	23597184	24992
315	3.122268	98246656	67252224	26253792	24992
316	3.901523	98246656	67252224	29570264	24992
317	5.122863	98246656	67252224	17121080	24992
318	5.106656	98246656	67252224	21756360	24992
319	6.010536	98246656	67252224	27051048	24992
320	7.067983	98246656	67252224	16581744	24992
321	7.223436	98246656	67252224	23196200	24992
322	1.097046	98246656	67252224	14012168	24992
323	1.539133	98246656	67252224	15349912	24992
324	2.240485	98246656	67252224	17347064	24992
325	2.98828	98246656	67252224	20003624	24992
326	3.902924	98246656	67252224	23320096	24992
327	4.348575	98246656	67252224	27295976	24992
328	5.413859	98246656	67252224	15504816	24992
329	5.779347	98246656	67252224	20799520	24992
330	6.496566	98246656	67252224	26754568	24992
331	7.840876	98246656	67252224	16954264	24992
332	0.773455	98246656	67252224	24207640	24992
333	1.495809	98246656	67252224	25545384	24992
334	2.193452	98246656	67252224	27542536	24992
335	3.254161	98246656	67252224	13769024	24992
336	3.644624	98246656	67252224	17085496	24992
337	4.340142	98246656	67252224	21061376	24992
338	5.108638	98246656	67252224	25696656	24992
339	6.358893	98246656	67252224	14563032	24992
340	6.792647	98246656	67252224	20518192	24992
341	7.208074	98246656	67252224	27132648	24992
342	0.774987	98246656	67252224	17961800	24992
343	1.490157	98246656	67252224	19299544	24992
344	2.208561	98246656	67252224	21296728	24992
345	2.91023	98246656	67252224	23953288	24992
346	4.0676	98246656	67252224	27269792	24992
347	4.806422	98246656	67252224	14821408	24992
348	5.347775	98246656	67252224	19456688	24992
349	6.041497	98246656	67252224	24753968	24992
350	6.881956	98246656	67252224	14284992	24992
351	7.213665	98246656	67252224	20899504	24992
352	0.771695	98246656	67252224	28153104	24992
353	1.486141	98246656	67252224	29490848	24992
354	2.592005	98246656	67252224	15061056	24992
355	3.142961	98246656	67252224	17717616	24992
356	3.619902	98246656	67252224	21034088	24992
357	4.342257	98246656	67252224	25009984	24992
358	5.106319	98246656	67252224	29645264	24992
359	6.268624	98246656	67252224	18523728	24992
360	6.775142	98246656	67252224	24483240	24992
361	7.921422	98246656	67252224	14677448	24992
362	0.782498	98246656	67252224	21930824	24992
363	1.488043	98246656	67252224	23268568	24992
364	2.390724	98246656	67252224	25265720	24992
365	2.927862	98246656	67252224	27922376	24992
366	4.073052	98246656	67252224	14810096	24992
367	4.433411	98246656	67252224	18785976	24992
368	5.177146	98246656	67252224	23421256	24992
369	5.873539	98246656	67252224	28715944	24992
370	7.280556	98246656	67252224	18254424	24992
371	7.65631	98246656	67252224	24868880	24992
372	0.773183	98246656	67252224	15690528	24992
373	1.482054	98246656	67252224	17028272	24992
374	2.406344	98246656	67252224	19025424	24992
375	3.177737	98246656	67252224	21681984	24992
376	3.63724	98246656	67252224	24998456	24992
377	4.353468	98246656	67252224	28974336	24992
378	5.610345	98246656	67252224	17183208	24992
379	6.085955	98246656	67252224	22477992	24992
380	6.566543	98246656	67252224	28433040	24992
381	7.904558	98246656	67252224	18636048	24992
382	0.97089	98246656	67252224	25889424	24992
383	1.506513	98246656	67252224	27227168	24992
384	2.200142	98246656	67252224	29224320	24992
385	3.367867	98246656	67252224	15450808	24992
386	3.637349	98246656	67252224	18767280	24992
387	4.341552	98246656	67252224	22743160	24992
388	5.049514	98246656	67252224	27378440	24992
389	6.487374	98246656	67252224	16244832	24992
390	6.495204	98246656	67252224	22199880	24992
391	7.416634	98246656	67252224	28814336	24992
392	0.776403	98246656	67252224	19643264	24992
393	1.487327	98246656	67252224	20981008	24992
394	2.19635	98246656	67252224	22978160	24992
395	2.924347	98246656	67252224	25634720	24992
396	4.018511	98246656	67252224	28951208	24992
397	4.889474	98246656	67252224	16502744	24992
398	5.176431	98246656	67252224	21138024	24992
399	6.082406	98246656	67252224	26432712	24992
400	7.067101	98246656	67252224	15963504	24992
401	7.442312	98246656	67252224	22578072	24992
402	0.77305	98246656	67252224	29831448	24992
403	2.174696	98246656	67252224	14737600	24992
404	2.244339	98246656	67252224	16734752	24992
405	2.936442	98246656	67252224	19391312	24992
406	3.858651	98246656	67252224	22707784	24992
407	4.353544	98246656	67252224	26683664	24992
408	5.825718	98246656	67252224	14891512	24992
409	5.839666	98246656	67252224	20186200	24992
410	6.556602	98246656	67252224	26141264	24992
411	7.873923	98246656	67252224	16334496	24992
412	0.772723	98246656	67252224	23587872	24992
413	1.489357	98246656	67252224	24925616	24992
414	2.210734	98246656	67252224	26922768	24992
415	3.14763	98246656	67252224	29579424	24992
416	4.212107	98246656	67252224	16471904	24992
417	4.352019	98246656	67252224	20447784	24992
418	5.3315	98246656	67252224	25083064	24992
419	5.786997	98246656	67252224	30377752	24992
420	7.149979	98246656	67252224	19913640	24992
421	7.521848	98246656	67252224	26528096	24992
422	0.79961	98246656	67252224	17348400	24992
423	1.499694	98246656	67252224	18686144	24992
424	2.200772	98246656	67252224	20683296	24992
425	2.924269	98246656	67252224	23339856	24992
426	3.848965	98246656	67252224	26656328	24992
427	4.355145	98246656	67252224	30632208	24992
428	5.862918	98246656	67252224	18838728	24992
429	5.792997	98246656	67252224	24133480	24992
430	6.755312	98246656	67252224	30088528	24992
431	8.699605	98246656	67252224	20289376	24992
432	0.787471	98246656	67252224	27543784	24992
433	1.485461	98246656	67252224	28881528	24992
434	2.201984	98246656	67252224	30878680	24992
435	3.715961	98246656	67252224	17103040	24992
436	3.845544	98246656	67252224	20419512	24992
437	4.392301	98246656	67252224	24395392	24992
438	5.108053	98246656	67252224	29030672	24992
439	6.606163	98246656	67252224	17895160	24992
440	6.502097	98246656	67252224	23850288	24992
441	7.207483	98246656	67252224	30464744	24992
442	0.775195	98246656	67252224	21292328	24992
443	1.497729	98246656	67252224	22630072	24992
444	2.196827	98246656	67252224	24627224	24992
445	3.143785	98246656	67252224	27283784	24992
446	3.840248	98246656	67252224	30600256	24992
447	5.025387	98246656	67252224	18150192	24992
448	5.19368	98246656	67252224	22785472	24992
449	5.772068	98246656	67252224	28080288	24992
450	7.380928	98246656	67252224	17609176	24992
451	7.215344	98246656	67252224	24223680	24992
452	0.770544	98246656	67252224	31477056	24992
453	2.123411	98246656	67252224	16380432	24992
454	2.214278	98246656	67252224	18377584	24992
455	2.920945	98246656	67252224	21034144	24992
456	3.644031	98246656	67252224	24350616	24992
457	4.386042	98246656	67252224	28326496	24992
458	5.957355	98246656	67252224	16533864	24992
459	5.829075	98246656	67252224	21828552	24992
460	6.694523	98246656	67252224	27783616	24992
461	7.908703	98246656	67252224	17976848	24992
462	0.769635	98246656	67252224	25230224	24992
463	1.494428	98246656	67252224	26567968	24992
464	2.198279	98246656	67252224	28565184	24992
465	3.147527	98246656	67252224	31221744	24992
466	4.340339	98246656	67252224	18113696	24992
467	4.420902	98246656	67252224	22089576	24992
468	5.297026	98246656	67252224	26724856	24992
469	6.488898	98246656	67252224	15589672	24992
470	6.78226	98246656	67252224	21544840	24992
471	7.428101	98246656	67252224	28159296	24992
472	0.773321	98246656	67252224	18979808	24992
473	1.4859	98246656	67252224	20317600	24992
474	2.414139	98246656	67252224	22314752	24992
475	2.904635	98246656	67252224	24971312	24992
476	3.631481	98246656	67252224	28287784	24992
477	5.087678	98246656	67252224	15837936	24992
478	5.057298	98246656	67252224	20473256	24992
479	6.002718	98246656	67252224	25768056	24992
480	6.476973	98246656	67252224	31723104	24992
481	8.157034	98246656	67252224	21923272	24992
482	0.785318	98246656	67252224	29176648	24992
483	1.482664	98246656	67252224	30514392	24992
484	2.897767	98246656	67252224	16083272	24992
485	2.922508	98246656	67252224	18739832	24992
486	3.621672	98246656	67252224	22056304	24992
487	4.611606	98246656	67252224	26032184	24992
488	5.049383	98246656	67252224	30667464	24992
489	6.729211	98246656	67252224	19532056	24992
490	6.539599	98246656	67252224	25487104	24992
491	7.48862	98246656	67252224	32101560	24992
492	0.768729	98246656	67252224	22925184	24992
493	1.538322	98246656	67252224	24262928	24992
494	2.20118	98246656	67252224	26260080	24992
495	3.139539	98246656	67252224	28916640	24992
496	4.424979	98246656	67252224	15798696	24992
497	4.405009	98246656	67252224	19774576	24992
498	5.045333	98246656	67252224	24409856	24992
499	6.077377	98246656	67252224	29704576	24992
500	7.548662	98246656	67252224	19240176	24992
501	7.301106	98246656	67252224	25854664	24992
502	0.800495	98246656	67252224	16675448	24992
503	1.516825	98246656	67252224	18013192	24992
504	2.242339	98246656	67252224	20010344	24992
505	3.011896	98246656	67252224	22666904	24992
506	3.639604	98246656	67252224	25983376	24992
507	4.331195	98246656	67252224	29959256	24992
508	6.082691	98246656	67252224	18166512	24992
509	5.765926	98246656	67252224	23461200	24992
510	6.710162	98246656	67252224	29416264	24992
511	8.185458	98246656	67252224	19617224	24992
512	0.777302	98246656	67252224	26870632	24992
513	1.49007	98246656	67252224	28208376	24992
514	2.203507	98246656	67252224	30205528	24992
515	3.907798	98246656	67252224	16430688	24992
516	3.637413	98246656	67252224	19747160	24992
517	4.429412	98246656	67252224	23723040	24992
518	5.58397	98246656	67252224	28358320	24992
519	6.863378	98246656	67252224	17223144	24992
520	6.7572	98246656	67252224	23178192	24992
521	7.604943	98246656	67252224	29792760	24992
522	0.788041	98246656	67252224	20620472	24992
523	1.731481	98246656	67252224	21958216	24992
524	2.203855	98246656	67252224	23955368	24992
525	2.922111	98246656	67252224	26611928	24992
526	3.624081	98246656	67252224	29928400	24992
527	5.398597	98246656	67252224	17478384	24992
528	5.073035	98246656	67252224	22113664	24992
529	5.77213	98246656	67252224	27408352	24992
530	7.396578	98246656	67252224	16937272	24992
531	7.439223	98246656	67252224	23551728	24992
532	0.769837	98246656	67252224	30805104	24992
533	1.485329	98246656	67252224	32142848	24992
534	3.055554	98246656	67252224	17711040	24992
535	2.918447	98246656	67252224	20367648	24992
536	3.659924	98246656	67252224	23684120	24992
537	4.342507	98246656	67252224	27660000	24992
538	5.046309	98246656	67252224	32295280	24992
539	6.896704	98246656	67252224	21171936	24992
540	6.674979	98246656	67252224	27126984	24992
541	8.10554	98246656	67252224	17315064	24992
542	0.799555	98246656	67252224	24568536	24992
543	1.741189	98246656	67252224	25906280	24992
544	2.203676	98246656	67252224	27903432	24992
545	2.900053	98246656	67252224	30559992	24992
546	4.717054	98246656	67252224	17441936	24992
547	4.358715	98246656	67252224	21417816	24992
548	5.264196	98246656	67252224	26053192	24992
549	5.814638	98246656	67252224	31347912	24992
550	7.533274	98246656	67252224	20884600	24992
551	7.330267	98246656	67252224	27499056	24992
552	0.775345	98246656	67252224	18319648	24992
553	1.49783	98246656	67252224	19657392	24992
554	2.237658	98246656	67252224	21654544	24992
555	3.152048	98246656	67252224	24311104	24992
556	3.714591	98246656	67252224	27634376	24992
557	4.387244	98246656	67252224	31610256	24992
558	6.043294	98246656	67252224	19824312	24992
559	5.874748	98246656	67252224	25119000	24992
560	6.737529	98246656	67252224	31074096	24992
561	8.363446	98246656	67252224	21281744	24992
562	0.771595	98246656	67252224	28535120	24992
563	1.487108	98246656	67252224	29872864	24992
564	2.21608	98246656	67252224	31870016	24992
565	3.833281	98246656	67252224	18095176	24992
566	3.637644	98246656	67252224	21411680	24992
567	4.556343	98246656	67252224	25387560	24992
568	5.051764	98246656	67252224	30022840	24992
569	7.175395	98246656	67252224	18887552	24992
570	6.563261	98246656	67252224	24842600	24992
571	7.297946	98246656	67252224	31457136	24992
572	0.778844	98246656	67252224	22284768	24992
573	1.488404	98246656	67252224	23622512	24992
574	2.199693	98246656	67252224	25619664	24992
575	2.912349	98246656	67252224	28276224	24992
576	3.879293	98246656	67252224	31592696	24992
577	5.316599	98246656	67252224	19142664	24992
578	5.332157	98246656	67252224	23777944	24992
579	5.769538	98246656	67252224	29072632	24992
580	7.691097	98246656	67252224	18601520	24992
581	7.268098	98246656	67252224	25215976	24992
582	0.781452	98246656	67252224	32469352	24992
583	2.446532	98246656	67252224	17373400	24992
584	2.217403	98246656	67252224	19370552	24992
585	2.898128	98246656	67252224	22027160	24992
586	3.624953	98246656	67252224	25343632	24992
587	4.333885	98246656	67252224	29319512	24992
588	6.280548	98246656	67252224	17526992	24992
589	5.886793	98246656	67252224	22821680	24992
590	6.764981	98246656	67252224	28776728	24992
591	8.220271	98246656	67252224	18969960	24992
592	0.768956	98246656	67252224	26223432	24992
593	1.506722	98246656	67252224	27561240	24992
594	2.191872	98246656	67252224	29558392	24992
595	3.181798	98246656	67252224	32214952	24992
596	4.631897	98246656	67252224	19107544	24992
597	4.361087	98246656	67252224	23083424	24992
598	5.301993	98246656	67252224	27718784	24992
599	5.759806	98246656	67252224	33013520	24992
600	7.646925	98246656	67252224	22549520	24992
601	7.570164	98246656	67252224	29163976	24992
602	0.773207	98246656	67252224	19984296	24992
603	1.710804	98246656	67252224	21322040	24992
604	2.191537	98246656	67252224	23319192	24992
605	2.911973	98246656	67252224	25975752	24992
606	3.623097	98246656	67252224	29292224	24992
607	4.339745	98246656	67252224	33268104	24992
608	6.092959	98246656	67252224	21474672	24992
609	6.067906	98246656	67252224	26769360	24992
610	6.830665	98246656	67252224	32724408	24992
611	8.617318	98246656	67252224	22925256	24992
612	0.773515	98246656	67252224	30178632	24992
613	1.485709	98246656	67252224	31516376	24992
614	2.30545	98246656	67252224	33513528	24992
615	4.006697	98246656	67252224	19738016	24992
616	3.651724	98246656	67252224	23054568	24992
617	4.383117	98246656	67252224	27030448	24992
618	5.283917	98246656	67252224	31665760	24992
619	7.122521	98246656	67252224	20530424	24992
620	6.721826	98246656	67252224	26485472	24992
621	7.289533	98246656	67252224	33099976	24992
622	0.775407	98246656	67252224	23926888	24992
623	1.491192	98246656	67252224	25264632	24992
624	2.209178	98246656	67252224	27261784	24992
625	3.127984	98246656	67252224	29918344	24992
626	3.615157	98246656	67252224	33234816	24992
627	5.434861	98246656	67252224	20784096	24992
628	5.293307	98246656	67252224	25419376	24992
629	5.774252	98246656	67252224	30714064	24992
630	7.623303	98246656	67252224	20242888	24992
631	7.56919	98246656	67252224	26857344	24992
632	1.911913	98246656	67252224	17672488	24992
633	1.551203	98246656	67252224	19010240	24992
634	2.469613	98246656	67252224	21007408	24992
635	2.918075	98246656	67252224	23663968	24992
636	3.636445	98246656	67252224	26980504	24992
637	4.339537	98246656	67252224	30956384	24992
638	6.178354	98246656	67252224	19163752	24992
639	6.613486	98246656	67252224	24467184	24992
640	6.504386	98246656	67252224	30422232	24992
641	8.588392	98246656	67252224	20619848	24992
642	0.979844	98246656	67252224	27873272	24992
643	1.483808	98246656	67252224	29211160	24992
644	2.199943	98246656	67252224	31208312	24992
645	2.896982	98246656	67252224	33864872	24992
646	5.018973	98246656	67252224	20756792	24992
647	4.346486	98246656	67252224	24732672	24992
648	5.050268	98246656	67252224	29367952	24992
649	6.940329	98246656	67252224	18232776	24992
650	6.633263	98246656	67252224	24187824	24992
651	7.434673	98246656	67252224	30802280	24992
652	0.780744	98246656	67252224	21622616	24992
653	1.488228	98246656	67252224	22960360	24992
654	2.197582	98246656	67252224	24957512	24992
655	2.939717	98246656	67252224	27614072	24992
656	3.633047	98246656	67252224	30930544	24992
657	5.520059	98246656	67252224	18480336	24992
658	5.33937	98246656	67252224	23115616	24992
659	5.766151	98246656	67252224	28410304	24992
660	7.866114	98246656	67252224	17939408	24992
661	7.206832	98246656	67252224	24554120	24992
662	0.767945	98246656	67252224	31807488	24992
663	1.489955	98246656	67252224	33145232	24992
664	3.572565	98246656	67252224	18714096	24992
665	2.940397	98246656	67252224	21370656	24992
666	3.858553	98246656	67252224	24687128	24992
667	4.337538	98246656	67252224	28663008	24992
668	5.635467	98246656	67252224	33298336	24992
669	7.209191	98246656	67252224	22175696	24992
670	6.489363	98246656	67252224	28130744	24992
671	8.642546	98246656	67252224	18319136	24992
672	0.775875	98246656	67252224	25572504	24992
673	1.712032	98246656	67252224	26910248	24992
674	2.190246	98246656	67252224	28907400	24992
675	2.912132	98246656	67252224	31563960	24992
676	4.815676	98246656	67252224	18446016	24992
677	4.373332	98246656	67252224	22421896	24992
678	5.058237	98246656	67252224	27057176	24992
679	6.030549	98246656	67252224	32351864	24992
680	7.71218	98246656	67252224	21888616	24992
681	7.425622	98246656	67252224	28503072	24992
682	0.802186	98246656	67252224	19323888	24992
683	1.524914	98246656	67252224	20661632	24992
684	2.234562	98246656	67252224	22658784	24992
685	2.974549	98246656	67252224	25315344	24992
686	3.891041	98246656	67252224	28631848	24992
687	4.34309	98246656	67252224	32607728	24992
688	6.548998	98246656	67252224	20815064	24992
689	5.775312	98246656	67252224	26109752	24992
690	6.7199	98246656	67252224	32064800	24992
691	8.506756	98246656	67252224	22265824	24992
692	0.77345	98246656	67252224	29519264	24992
693	1.669184	98246656	67252224	30857008	24992
694	2.206721	98246656	67252224	32854160	24992
695	4.387186	98246656	67252224	19079320	24992
696	3.706888	98246656	67252224	22395792	24992
697	4.457088	98246656	67252224	26371688	24992
698	5.115904	98246656	67252224	31006968	24992
699	7.072748	98246656	67252224	19871776	24992
700	6.735761	98246656	67252224	25826920	24992
701	7.425458	98246656	67252224	32441376	24992
702	0.792876	98246656	67252224	23268976	24992
703	1.550325	98246656	67252224	24606720	24992
704	2.197633	98246656	67252224	26603872	24992
705	2.914905	98246656	67252224	29260464	24992
706	3.780644	98246656	67252224	32576936	24992
707	6.102351	98246656	67252224	20126872	24992
708	5.434109	98246656	67252224	24762152	24992
709	6.131271	98246656	67252224	30056840	24992
710	7.789202	98246656	67252224	19585728	24992
711	7.41594	98246656	67252224	26200184	24992
712	0.785547	98246656	67252224	33453624	24992
713	1.76158	98246656	67252224	34791416	24992
714	3.548199	98246656	67252224	20359608	24992
715	2.966407	98246656	67252224	23016168	24992
716	3.859761	98246656	67252224	26332640	24992
717	4.35056	98246656	67252224	30308520	24992
718	5.277955	98246656	67252224	34943848	24992
719	7.196813	98246656	67252224	23818808	24992
720	6.602077	98246656	67252224	29773856	24992
721	8.652763	98246656	67252224	19961928	24992
722	0.77965	98246656	67252224	27215304	24992
723	1.480602	98246656	67252224	28553048	24992
724	2.188982	98246656	67252224	30550200	24992
725	3.117368	98246656	67252224	33206760	24992
726	5.001956	98246656	67252224	20089640	24992
727	4.427591	98246656	67252224	24065520	24992
728	5.133627	98246656	67252224	28700800	24992
729	5.861478	98246656	67252224	33995488	24992
730	8.204636	98246656	67252224	23532160	24992
731	7.482887	98246656	67252224	30146616	24992
732	0.788453	98246656	67252224	20966952	24992
733	1.51758	98246656	67252224	22304696	24992
734	2.2499	98246656	67252224	24301848	24992
735	2.966369	98246656	67252224	26958408	24992
736	3.642255	98246656	67252224	30274880	24992
737	4.564638	98246656	67252224	34250760	24992
738	6.669883	98246656	67252224	22458016	24992
739	5.993955	98246656	67252224	27752704	24992
740	6.474666	98246656	67252224	33707752	24992
741	8.5853	98246656	67252224	23908632	24992
742	0.785545	98246656	67252224	31162008	24992
743	1.484523	98246656	67252224	32499752	24992
744	2.196946	98246656	67252224	34496904	24992
745	4.482863	98246656	67252224	20722064	24992
746	3.635183	98246656	67252224	24038536	24992
747	4.342867	98246656	67252224	28014480	24992
748	5.063266	98246656	67252224	32649760	24992
749	7.207989	98246656	67252224	21514472	24992
750	6.80149	98246656	67252224	27469536	24992
751	7.202454	98246656	67252224	34084120	24992
752	0.781465	98246656	67252224	24911720	24992
753	1.481548	98246656	67252224	26249464	24992
754	2.210819	98246656	67252224	28246632	24992
755	2.913352	98246656	67252224	30903192	24992
756	3.627817	98246656	67252224	34219728	24992
757	5.968555	98246656	67252224	21769648	24992
758	5.053794	98246656	67252224	26404928	24992
759	5.770604	98246656	67252224	31699616	24992
760	7.964008	98246656	67252224	21228488	24992
761	7.602783	98246656	67252224	27842944	24992
762	0.771376	98246656	67252224	35096464	24992
763	3.148832	98246656	67252224	19999856	24992
764	2.249394	98246656	67252224	21997008	24992
765	2.982996	98246656	67252224	24653568	24992
766	3.88259	98246656	67252224	27970040	24992
767	4.453018	98246656	67252224	31945920	24992
768	6.508995	98246656	67252224	20153400	24992
769	6.066424	98246656	67252224	25448136	24992
770	6.761544	98246656	67252224	31403184	24992
771	8.788	98246656	67252224	21596416	24992
772	0.777415	98246656	67252224	28849792	24992
773	1.494737	98246656	67252224	30187536	24992
774	2.24523	98246656	67252224	32184688	24992
775	3.096765	98246656	67252224	34841248	24992
776	5.123291	98246656	67252224	21733840	24992
777	4.427569	98246656	67252224	25709720	24992
778	5.156728	98246656	67252224	30345000	24992
779	5.841752	98246656	67252224	35639688	24992
780	8.201004	98246656	67252224	25175688	24992
781	7.440439	98246656	67252224	31790144	24992
782	0.791015	98246656	67252224	22610480	24992
783	1.520331	98246656	67252224	23948224	24992
784	2.431748	98246656	67252224	25945376	24992
785	3.682995	98246656	67252224	28602504	24992
786	3.851425	98246656	67252224	31918976	24992
787	4.650926	98246656	67252224	35904944	24992
788	6.662753	98246656	67252224	24107928	24992
789	5.988494	98246656	67252224	29402632	24992
790	6.490199	98246656	67252224	35357680	24992
791	8.744337	98246656	67252224	25558288	24992
792	0.777943	98246656	67252224	32811664	24992
793	1.504024	98246656	67252224	34149408	24992
794	3.69514	98246656	67252224	19711760	24992
795	2.970238	98246656	67252224	22368312	24992
796	3.86538	98246656	67252224	25684784	24992
797	4.351075	98246656	67252224	29660664	24992
798	5.064347	98246656	67252224	34295944	24992
799	7.343703	98246656	67252224	23160536	24992
800	6.78279	98246656	67252224	29115760	24992
801	7.381729	98246656	67252224	35730216	24992
802	0.804156	98246656	67252224	26563584	24992
803	1.511662	98246656	67252224	27901328	24992
804	2.193025	98246656	67252224	29898480	24992
805	3.134164	98246656	67252224	32555040	24992
806	3.664362	98246656	67252224	35871528	24992
807	6.012528	98246656	67252224	23420776	24992
808	5.065477	98246656	67252224	28056056	24992
809	5.818507	98246656	67252224	33350744	24992
810	8.623136	98246656	67252224	22879520	24992
811	7.415647	98246656	67252224	29494040	24992
812	2.356875	98246656	67252224	20309232	24992
813	1.527549	98246656	67252224	21646984	24992
814	2.271071	98246656	67252224	23644136	24992
815	2.926461	98246656	67252224	26300872	24992
816	3.71044	98246656	67252224	29617344	24992
817	4.422916	98246656	67252224	33593224	24992
818	6.673657	98246656	67252224	21800592	24992
819	6.008814	98246656	67252224	27095280	24992
820	6.770253	98246656	67252224	33050376	24992
821	8.94884	98246656	67252224	23247832	24992
822	0.771748	98246656	67252224	30501208	24992
823	1.482827	98246656	67252224	31838952	24992
824	2.204091	98246656	67252224	33836104	24992
825	4.527869	98246656	67252224	20061264	24992
826	3.686665	98246656	67252224	23377736	24992
827	4.349919	98246656	67252224	27353648	24992
828	5.27381	98246656	67252224	31988928	24992
829	7.377602	98246656	67252224	20853768	24992
830	6.705527	98246656	67252224	26808816	24992
831	7.196459	98246656	67252224	33423272	24992
832	0.776198	98246656	67252224	24251000	24992
833	1.684032	98246656	67252224	25588744	24992
834	2.212041	98246656	67252224	27585896	24992
835	2.914303	98246656	67252224	30242456	24992
836	3.630293	98246656	67252224	33558928	24992
837	6.192176	98246656	67252224	21108976	24992
838	5.159424	98246656	67252224	25744256	24992
839	5.880266	98246656	67252224	31038960	24992
840	8.249039	98246656	67252224	20568064	24992
841	7.468397	98246656	67252224	27182544	24992
842	0.77338	98246656	67252224	34435920	24992
843	1.487972	98246656	67252224	35773664	24992
844	3.88144	98246656	67252224	21342528	24992
845	2.91483	98246656	67252224	23999088	24992
846	3.636007	98246656	67252224	27315560	24992
847	4.400292	98246656	67252224	31291440	24992
848	5.248751	98246656	67252224	35926720	24992
849	7.444529	98246656	67252224	24804064	24992
850	6.711143	98246656	67252224	30769528	24992
851	8.832818	98246656	67252224	20971112	24992
852	0.772518	98246656	67252224	28224584	24992
853	1.539755	98246656	67252224	29562328	24992
854	2.190393	98246656	67252224	31559480	24992
855	3.125733	98246656	67252224	34216040	24992
856	5.277273	98246656	67252224	21108328	24992
857	4.801744	98246656	67252224	25084208	24992
858	5.053525	98246656	67252224	29719488	24992
859	5.769443	98246656	67252224	35014176	24992
860	8.284029	98246656	67252224	24550848	24992
861	7.507056	98246656	67252224	31165352	24992
862	0.780715	98246656	67252224	21985912	24992
863	1.484764	98246656	67252224	23323656	24992
864	2.211995	98246656	67252224	25320808	24992
865	2.913808	98246656	67252224	27977368	24992
866	3.611187	98246656	67252224	31293840	24992
867	4.396703	98246656	67252224	35270040	24992
868	6.776218	98246656	67252224	23477296	24992
869	6.041709	98246656	67252224	28771984	24992
870	6.481024	98246656	67252224	34727064	24992
871	9.14446	98246656	67252224	24927912	24992
872	0.774236	98246656	67252224	32181288	24992
873	1.489699	98246656	67252224	33519032	24992
874	2.206721	98246656	67252224	35516184	24992
875	4.80287	98246656	67252224	21741376	24992
876	3.634647	98246656	67252224	25057848	24992
877	4.338159	98246656	67252224	29033728	24992
878	5.267014	98246656	67252224	33669008	24992
879	7.549751	98246656	67252224	22533832	24992
880	6.833173	98246656	67252224	28488880	24992
881	7.414077	98246656	67252224	35103336	24992
882	0.779667	98246656	67252224	25930968	24992
883	1.76976	98246656	67252224	27268712	24992
884	2.214767	98246656	67252224	29265912	24992
885	2.911518	98246656	67252224	31922472	24992
886	3.631654	98246656	67252224	35238944	24992
887	6.310938	98246656	67252224	22788864	24992
888	5.13983	98246656	67252224	27424160	24992
889	5.813069	98246656	67252224	32718864	24992
890	8.223541	98246656	67252224	22247736	24992
891	7.432977	98246656	67252224	28862192	24992
892	0.772654	98246656	67252224	36115712	24992
893	3.234768	98246656	67252224	21019760	24992
894	2.525033	98246656	67252224	23018536	24992
895	2.913662	98246656	67252224	25675096	24992
896	3.831595	98246656	67252224	28991568	24992
897	4.402915	98246656	67252224	32967448	24992
898	6.915612	98246656	67252224	21174928	24992
899	5.889583	98246656	67252224	26469616	24992
900	6.707826	98246656	67252224	32424760	24992
901	9.541373	98246656	67252224	22617992	24992
902	1.002049	98246656	67252224	29871368	24992
903	1.488178	98246656	67252224	31209112	24992
904	2.419879	98246656	67252224	33206264	24992
905	3.106159	98246656	67252224	35862824	24992
906	5.437422	98246656	67252224	22755416	24992
907	4.397956	98246656	67252224	26731296	24992
908	5.051502	98246656	67252224	31366576	24992
909	6.011548	98246656	67252224	36661280	24992
910	8.395255	98246656	67252224	26197968	24992
911	7.485287	98246656	67252224	32812488	24992
912	0.795675	98246656	67252224	23632824	24992
913	2.006507	98246656	67252224	24970584	24992
914	2.233073	98246656	67252224	26969800	24992
915	2.927447	98246656	67252224	29626360	24992
916	3.673667	98246656	67252224	32942832	24992
917	4.332819	98246656	67252224	36918776	24992
918	7.095225	98246656	67252224	25125712	24992
919	5.783383	98246656	67252224	30420400	24992
920	6.710759	98246656	67252224	36375448	24992
921	9.104711	98246656	67252224	26576664	24992
922	0.773031	98246656	67252224	33830040	24992
923	1.527624	98246656	67252224	35167784	24992
924	2.196737	98246656	67252224	37164952	24992
925	4.944915	98246656	67252224	23389424	24992
926	3.626125	98246656	67252224	26705896	24992
927	4.561024	98246656	67252224	30681776	24992
928	5.270011	98246656	67252224	35317056	24992
929	7.695521	98246656	67252224	24181656	24992
930	6.616923	98246656	67252224	30136704	24992
931	7.487096	98246656	67252224	36751160	24992
932	0.777052	98246656	67252224	27578824	24992
933	1.482529	98246656	67252224	28916584	24992
934	2.204071	98246656	67252224	30913736	24992
935	2.974777	98246656	67252224	33570296	24992
936	3.716963	98246656	67252224	36886768	24992
937	6.297731	98246656	67252224	24436688	24992
938	5.153805	98246656	67252224	29072000	24992
939	6.025909	98246656	67252224	34366736	24992
940	8.593549	98246656	67252224	23895608	24992
941	7.279773	98246656	67252224	30510064	24992
942	0.774066	98246656	67252224	37763440	24992
943	3.397078	98246656	67252224	22666800	24992
944	2.254486	98246656	67252224	24663952	24992
945	3.153664	98246656	67252224	27320512	24992
946	3.635604	98246656	67252224	30636984	24992
947	4.340061	98246656	67252224	34612864	24992
948	7.192182	98246656	67252224	22820344	24992
949	5.803013	98246656	67252224	28115032	24992
950	6.709151	98246656	67252224	34070080	24992
951	9.352416	98246656	67252224	24263312	24992
952	0.978798	98246656	67252224	31516688	24992
953	1.49972	98246656	67252224	32854432	24992
954	2.201798	98246656	67252224	34851584	24992
955	2.903164	98246656	67252224	37508144	24992
956	5.577262	98246656	67252224	24400048	24992
957	4.345066	98246656	67252224	28375928	24992
958	5.114018	98246656	67252224	33011224	24992
959	7.959519	98246656	67252224	21876072	24992
960	6.732622	98246656	67252224	27831128	24992
961	7.201323	98246656	67252224	34445632	24992
962	0.775826	98246656	67252224	25265952	24992
963	1.481698	98246656	67252224	26603696	24992
964	2.205025	98246656	67252224	28600848	24992
965	3.134686	98246656	67252224	31257408	24992
966	3.621809	98246656	67252224	34573880	24992
967	6.278224	98246656	67252224	22124032	24992
968	5.294798	98246656	67252224	26759304	24992
969	5.765976	98246656	67252224	32053992	24992
970	6.493854	98246656	67252224	38009056	24992
971	9.395243	98246656	67252224	28209224	24992
972	0.773743	98246656	67252224	35462648	24992
973	1.897037	98246656	67252224	36800392	24992
974	4.157238	98246656	67252224	22369328	24992
975	2.909545	98246656	67252224	25025880	24992
976	3.623135	98246656	67252224	28342384	24992
977	4.396504	98246656	67252224	32318264	24992
978	5.099973	98246656	67252224	36953544	24992
979	8.00697	98246656	67252224	25818136	24992
980	6.63512	98246656	67252224	31773184	24992
981	7.458898	98246656	67252224	38387704	24992
982	0.778765	98246656	67252224	29221056	24992
983	1.487094	98246656	67252224	30558800	24992
984	2.20586	98246656	67252224	32555952	24992
985	2.902446	98246656	67252224	35212528	24992
986	3.846545	98246656	67252224	38529000	24992
987	6.429303	98246656	67252224	26072520	24992
988	5.280207	98246656	67252224	30707800	24992
989	5.858757	98246656	67252224	36002488	24992
990	9.104335	98246656	67252224	25531192	24992
991	7.898456	98246656	67252224	32145648	24992
992	0.838291	98246656	67252224	22961672	24992
993	1.595228	98246656	67252224	24299416	24992
994	2.364872	98246656	67252224	26296568	24992
995	2.956568	98246656	67252224	28953176	24992
996	3.714369	98246656	67252224	32269648	24992
997	4.398515	98246656	67252224	36245528	24992
998	7.315833	98246656	67252224	24452784	24992
999	6.007411	98246656	67252224	29747472	24992
1000	6.494029	98246656	67252224	35702520	24992
