x	Duration	RSS	HeapTotal	HeapUsed	External
0	NA	99770368	69349376	10890736	24992
1	1.316846	99770368	69349376	11570824	24992
2	1.937706	99770368	69349376	12909232	24992
3	2.825695	99770368	69349376	14907064	24992
4	3.709468	99770368	69349376	17564384	24992
5	5.001136	99770368	69349376	20881808	24992
6	4.658968	99770368	69349376	24858768	24992
7	5.608229	99770368	69349376	13029408	24992
8	6.119785	99770368	69349376	18325496	24992
9	6.744249	99770368	69349376	24282120	24992
10	7.575175	99770368	69349376	14439088	24992
11	8.180244	99770368	69349376	21714840	24992
12	0.791628	99770368	69349376	13155176	24992
13	1.509746	99770368	69349376	14493440	24992
14	2.231929	99770368	69349376	16491256	24992
15	2.943926	99770368	69349376	19148640	24992
16	3.650065	99770368	69349376	22466144	24992
17	4.620368	99770368	69349376	26443168	24992
18	5.541321	99770368	69349376	14616712	24992
19	5.900524	99770368	69349376	19913232	24992
20	6.552044	99770368	69349376	25869920	24992
21	7.82972	99770368	69349376	16027936	24992
22	0.788523	99770368	69349376	23283384	24992
23	1.519493	99770368	69349376	24621648	24992
24	2.245685	99770368	69349376	26619464	24992
25	3.171757	99770368	69349376	12808096	24992
26	3.68408	99770368	69349376	16125568	24992
27	4.616704	99770368	69349376	20102592	24992
28	5.10954	99770368	69349376	24739176	24992
29	6.315726	99770368	69349376	13569464	24992
30	7.019177	99770368	69349376	19526232	24992
31	7.401267	99770368	69349376	26142472	24992
32	0.784554	99770368	69349376	16931424	24992
33	1.511145	99770368	69349376	18269688	24992
34	2.282479	99770368	69349376	20267504	24992
35	3.141744	99770368	69349376	22924888	24992
36	3.685311	99770368	69349376	26242424	24992
37	4.598679	99770368	69349376	13753608	24992
38	5.334917	99770368	69349376	18390192	24992
39	5.829754	99770368	69349376	23686344	24992
40	6.77013	99770368	69349376	13179936	24992
41	7.269441	99770368	69349376	19796208	24992
42	0.841473	99770368	69349376	27051656	24992
43	1.831882	99770368	69349376	11920856	24992
44	2.399364	99770368	69349376	13918672	24992
45	3.206482	99770368	69349376	16576728	24992
46	3.715995	99770368	69349376	19894200	24992
47	4.485964	99770368	69349376	23871256	24992
48	5.566153	99770368	69349376	12041912	24992
49	5.829638	99770368	69349376	17338064	24992
50	6.543857	99770368	69349376	23294784	24992
51	8.908295	99770368	69349376	13462760	24992
52	0.784282	99770368	69349376	20718496	24992
53	1.499731	99770368	69349376	22056760	24992
54	2.431232	99770368	69349376	24054592	24992
55	2.940601	99770368	69349376	26711976	24992
56	3.865333	99770368	69349376	13563216	24992
57	4.576589	99770368	69349376	17540240	24992
58	5.089255	99770368	69349376	22176824	24992
59	5.817709	99770368	69349376	27472976	24992
60	6.732958	99770368	69349376	16966872	24992
61	7.4625	99770368	69349376	23583176	24992
62	0.781431	99770368	69349376	14368912	24992
63	1.728707	99770368	69349376	15707176	24992
64	2.231411	99770368	69349376	17704992	24992
65	2.939116	99770368	69349376	20362376	24992
66	3.646976	99770368	69349376	23679848	24992
67	4.3633	99770368	69349376	27656888	24992
68	5.506552	99770368	69349376	15826336	24992
69	6.035066	99770368	69349376	21122488	24992
70	6.575266	99770368	69349376	27079176	24992
71	8.582097	99770368	69349376	17236656	24992
72	0.785237	100040704	69349376	24506592	24992
73	1.49635	100040704	69349376	25844856	24992
74	2.21428	100040704	69349376	27842688	24992
75	3.192918	100040704	69873664	14029744	24992
76	3.64406	100040704	69873664	17347296	24992
77	4.811009	100040704	69873664	21324320	24992
78	5.092124	100040704	69873664	25960904	24992
79	6.527777	100040704	69873664	14790520	24992
80	6.565438	100040704	69873664	20747400	24992
81	7.854349	100040704	69873664	27364824	24992
82	0.789774	100040704	69873664	18162824	24992
83	1.502243	100040704	69873664	19501000	24992
84	2.269704	100040704	69873664	21499880	24992
85	2.927155	100040704	69873664	24157192	24992
86	3.825627	100040704	69873664	27474576	24992
87	5.191608	100040704	69873664	15014920	24992
88	5.270334	100040704	69873664	19650792	24992
89	5.798701	100040704	69873664	24946152	24992
90	6.983816	100040704	69873664	14490824	24992
91	7.213792	100040704	69873664	21106112	24992
92	1.072541	100040704	69873664	11930600	24992
93	1.530789	100040704	69873664	13268544	24992
94	2.268053	100040704	69873664	15265968	24992
95	3.164429	100040704	69873664	17922896	24992
96	3.92859	100040704	69873664	21239800	24992
97	4.365991	100040704	69873664	25216192	24992
98	5.703808	100311040	69873664	13434936	24992
99	5.919777	100311040	69873664	18730296	24992
100	6.808343	100311040	69873664	24686096	24992
101	7.936778	100311040	69873664	14901104	24992
102	0.781829	100311040	69873664	22155424	24992
103	1.498328	100311040	69873664	23493360	24992
104	2.423597	100311040	69873664	25490784	24992
105	2.944049	100311040	69873664	28147696	24992
106	3.957622	100311040	69873664	15051312	24992
107	4.371125	100311040	69873664	19027704	24992
108	5.08089	100311040	69873664	23663576	24992
109	6.122599	100311040	69873664	12539680	24992
110	6.769577	100311040	69873664	18495480	24992
111	7.482569	100311040	69873664	25110832	24992
112	0.776294	100311040	69873664	15946080	24992
113	1.49046	100311040	69873664	17284016	24992
114	2.396319	100311040	69873664	19281440	24992
115	2.921969	100311040	69873664	21938352	24992
116	3.635735	100311040	69873664	25255256	24992
117	5.098184	100311040	69873664	12818472	24992
118	5.066642	100311040	69873664	17454344	24992
119	6.174047	100311040	69873664	22751664	24992
120	6.909441	100311040	69873664	12294512	24992
121	7.254311	100311040	69873664	18909800	24992
122	0.774752	100311040	69873664	26164120	24992
123	1.682678	100311040	69873664	27502056	24992
124	2.617521	100581376	69873664	13080272	24992
125	2.963552	100581376	69873664	15737216	24992
126	3.636165	100581376	69873664	19054120	24992
127	4.71696	100581376	69873664	23030512	24992
128	5.29091	100581376	69873664	27668488	24992
129	6.274005	100581376	69873664	16558360	24992
130	6.647131	100581376	69873664	22514160	24992
131	7.829661	100581376	69873664	12718072	24992
132	0.775362	100581376	69873664	19972536	24992
133	1.497957	100581376	69873664	21310472	24992
134	2.212274	100581376	69873664	23307928	24992
135	2.92553	100581376	69873664	25964840	24992
136	4.056568	100581376	69873664	12855496	24992
137	4.454766	100581376	69873664	16831888	24992
138	5.169784	100581376	69873664	21467760	24992
139	6.020004	100581376	69873664	26763264	24992
140	6.927812	100581376	69873664	16312704	24992
141	7.415049	100581376	69873664	22928024	24992
142	0.793582	100581376	69873664	13766168	24992
143	1.568247	100581376	69873664	15104104	24992
144	2.20889	100581376	69873664	17101528	24992
145	2.983505	100581376	69873664	19758440	24992
146	3.830256	100581376	69873664	23075344	24992
147	4.443177	100581376	69873664	27051736	24992
148	5.741545	100581376	69873664	15271040	24992
149	5.828355	100581376	69873664	20566400	24992
150	6.758137	100581376	69873664	26522280	24992
151	8.069378	100581376	69873664	16739136	24992
152	0.781212	100581376	69873664	23993472	24992
153	1.48954	100581376	69873664	25331408	24992
154	2.202578	100581376	69873664	27328976	24992
155	3.55816	100581376	69873664	13563112	24992
156	3.687727	100581376	69873664	16880048	24992
157	4.402594	100581376	69873664	20856440	24992
158	5.273876	100581376	69873664	25492312	24992
159	6.275727	100581376	69873664	14367264	24992
160	6.685674	100581376	69873664	20323304	24992
161	7.227641	100581376	69873664	26938592	24992
162	0.778799	100581376	69873664	17781024	24992
163	1.723266	100581376	69873664	19119072	24992
164	2.19963	100581376	69873664	21116496	24992
165	3.130428	100581376	69873664	23773408	24992
166	3.633395	100581376	69873664	27090336	24992
167	5.18361	100581376	69873664	14650560	24992
168	5.500473	100581376	69873664	19286480	24992
169	5.910177	100581376	69873664	24581872	24992
170	7.504553	100581376	69873664	14123792	24992
171	7.45275	100581376	69873664	20739080	24992
172	0.769368	100581376	69873664	27993400	24992
173	1.994781	100581376	69873664	12905984	24992
174	2.279457	100581376	69873664	14903408	24992
175	2.933965	100581376	69873664	17560320	24992
176	3.67795	100581376	69873664	20877224	24992
177	4.779367	100581376	69873664	24853616	24992
178	5.595643	100581376	69873664	13071320	24992
179	6.003573	100581376	69873664	18366680	24992
180	6.502094	100581376	69873664	24322480	24992
181	7.813985	100581376	69873664	14531632	24992
182	0.772744	100581376	69873664	21785952	24992
183	1.719149	100581376	69873664	23123888	24992
184	2.206357	100581376	69873664	25121312	24992
185	3.238846	100581376	69873664	27778224	24992
186	4.228729	100581376	69873664	14681248	24992
187	4.591015	100581376	69873664	18657640	24992
188	5.070938	100581376	69873664	23293512	24992
189	5.97925	100581376	69873664	28588872	24992
190	7.126212	100581376	69873664	18138296	24992
191	7.290281	100581376	69873664	24753600	24992
192	0.776659	100581376	69873664	15587856	24992
193	1.499007	100581376	69873664	16925792	24992
194	2.203279	100581376	69873664	18923216	24992
195	2.926517	100581376	69873664	21580128	24992
196	3.852915	100581376	69873664	24897032	24992
197	4.36597	100581376	69873664	28873440	24992
198	5.661644	100581376	69873664	17090240	24992
199	6.020233	100581376	69873664	22385600	24992
200	6.495019	100581376	69873664	28341464	24992
201	8.285843	100581376	69873664	18558240	24992
202	0.784778	100581376	69873664	25812560	24992
203	1.497902	100581376	69873664	27150496	24992
204	2.226183	100581376	69873664	29147920	24992
205	3.575858	100581376	69873664	15381400	24992
206	3.737277	100581376	69873664	18698304	24992
207	4.427706	100581376	69873664	22674696	24992
208	5.304348	100581376	69873664	27310568	24992
209	6.466502	100581376	69873664	16185312	24992
210	6.787964	100581376	69873664	22141112	24992
211	7.774595	100581376	69873664	28758992	24992
212	0.777202	100581376	69873664	19601440	24992
213	1.496019	100581376	69873664	20939376	24992
214	2.204974	100581376	69873664	22936800	24992
215	3.135361	100581376	69873664	25593712	24992
216	3.868529	100581376	69873664	28910632	24992
217	5.11573	100581376	69873664	16473896	24992
218	5.40781	100581376	69873664	21109784	24992
219	5.840476	100581376	69873664	26405144	24992
220	7.420098	100581376	69873664	15947432	24992
221	7.578143	100581376	69873664	22562720	24992
222	0.772299	100581376	69873664	29817008	24992
223	2.353518	100581376	69873664	14728904	24992
224	2.235782	100581376	69873664	16726312	24992
225	2.923074	100581376	69873664	19383208	24992
226	3.859081	100581376	69873664	22700096	24992
227	4.551632	100581376	69873664	26676600	24992
228	5.755148	100581376	69873664	14894176	24992
229	5.822282	100581376	69873664	20192400	24992
230	6.575458	100581376	69873664	26148248	24992
231	8.220794	100581376	69873664	16360264	24992
232	0.995682	100581376	69873664	23614552	24992
233	1.487615	100581376	69873664	24952472	24992
234	2.21662	100581376	69873664	26949896	24992
235	2.911356	100581376	69873664	29607104	24992
236	4.416354	100581376	69873664	16512264	24992
237	4.385377	100581376	69873664	20488640	24992
238	5.056788	100581376	69873664	25124496	24992
239	6.75207	100581376	69873664	13999440	24992
240	6.803948	100581376	69873664	19956664	24992
241	7.613596	100581376	69873664	26571936	24992
242	0.854148	100581376	69873664	17401056	24992
243	1.523842	100581376	69873664	18738880	24992
244	2.211515	100581376	69873664	20736144	24992
245	2.90345	100581376	69873664	23392848	24992
246	3.850401	100581376	69873664	26709496	24992
247	5.132856	100581376	69873664	14263632	24992
248	5.19461	100581376	69873664	18899464	24992
249	5.914018	100581376	69873664	24194536	24992
250	6.97616	100581376	69873664	30149888	24992
251	8.147412	100581376	69873664	20352920	24992
252	0.769328	100581376	69873664	27606680	24992
253	1.723268	100581376	69873664	28944504	24992
254	2.963363	100581376	69873664	14514824	24992
255	2.999934	100581376	69873664	17171528	24992
256	3.71168	100581376	69873664	20488176	24992
257	4.416804	100581376	69873664	24464264	24992
258	5.320663	100581376	69873664	29099784	24992
259	6.65764	100581376	69873664	17966216	24992
260	6.767512	100581376	69873664	23921664	24992
261	8.036891	100581376	69873664	14111976	24992
262	0.774461	100581376	69873664	21365728	24992
263	1.492187	100581376	69873664	22703552	24992
264	2.435668	100581376	69873664	24700816	24992
265	2.929044	100581376	69873664	27357520	24992
266	4.443494	100581376	69873664	14241080	24992
267	4.628499	100581376	69873664	18217168	24992
268	5.052003	100581376	69873664	22852704	24992
269	5.829375	100581376	69873664	28147664	24992
270	7.408468	100581376	69873664	17686464	24992
271	7.524262	100581376	69873664	24301320	24992
272	0.795591	100581376	69873664	15123576	24992
273	1.487901	100581376	69873664	16461400	24992
274	2.200891	100581376	69873664	18458664	24992
275	3.151294	100581376	69873664	21115368	24992
276	3.627807	100581376	69873664	24432016	24992
277	4.36104	100581376	69873664	28408152	24992
278	5.968485	100581376	69873664	16617216	24992
279	6.04869	100581376	69873664	21912176	24992
280	6.497693	100581376	69873664	27867560	24992
281	8.383111	100581376	69873664	18071016	24992
282	0.777817	100581376	69873664	25324776	24992
283	1.498756	100581376	69873664	26662600	24992
284	2.207914	100581376	69873664	28659864	24992
285	3.79899	100581376	69873664	14886592	24992
286	3.880129	100581376	69873664	18203240	24992
287	4.345475	100581376	69873664	22179328	24992
288	5.546112	100581376	69873664	26817504	24992
289	6.700434	100581376	69873664	15683896	24992
290	6.959366	100581376	69873664	21638944	24992
291	7.531443	100581376	69873664	28253400	24992
292	0.777933	100581376	69873664	19082424	24992
293	1.537425	100581376	69873664	20420168	24992
294	2.191092	100581376	69873664	22417320	24992
295	3.128554	100581376	69873664	25073880	24992
296	3.632221	100581376	69873664	28390352	24992
297	5.278165	100581376	69873664	15941856	24992
298	5.339971	100581376	69873664	20577168	24992
299	6.002739	100581376	69873664	25871952	24992
300	7.481428	100581376	69873664	15402760	24992
301	7.580879	100581376	69873664	22017248	24992
302	0.774544	100581376	69873664	29270624	24992
303	1.74975	100581376	69873664	30608368	24992
304	3.187415	100581376	69873664	16177888	24992
305	2.984798	100581376	69873664	18834448	24992
306	3.669437	100581376	69873664	22150920	24992
307	4.392234	100581376	69873664	26126800	24992
308	5.146837	100581376	69873664	30762080	24992
309	7.046314	100581376	69873664	19640544	24992
310	6.541204	100581376	69873664	25595592	24992
311	8.379145	100581376	69873664	15785352	24992
312	0.783681	100581376	69873664	23038728	24992
313	1.52153	100581376	69873664	24376472	24992
314	2.249281	100581376	69873664	26373624	24992
315	2.917381	100581376	69873664	29030184	24992
316	4.814212	100581376	69873664	15913456	24992
317	4.473651	100581376	69873664	19889336	24992
318	5.096664	100581376	69873664	24524648	24992
319	5.990284	100581376	69873664	29819368	24992
320	7.586538	100581376	69873664	19357848	24992
321	7.447219	100581376	69873664	25972416	24992
322	0.78601	100581376	69873664	16794064	24992
323	1.516904	100581376	69873664	18131808	24992
324	2.247362	100581376	69873664	20128960	24992
325	3.170584	100581376	69873664	22785520	24992
326	3.631505	100581376	69873664	26101992	24992
327	4.341237	100581376	69873664	30077872	24992
328	6.163622	100581376	69873664	18286792	24992
329	5.887019	100581376	69873664	23581480	24992
330	6.776905	100581376	69873664	29536560	24992
331	8.53368	100581376	69873664	19739568	24992
332	0.769403	100581376	69873664	26992944	24992
333	1.486002	100581376	69873664	28330688	24992
334	2.206912	100581376	69873664	30327872	24992
335	3.951412	100581376	69873664	16554360	24992
336	3.7066	100581376	69873664	19870832	24992
337	4.629752	100581376	69873664	23846712	24992
338	5.12095	100581376	69873664	28481992	24992
339	7.100517	100581376	69873664	17348272	24992
340	6.844914	100581376	69873664	23303512	24992
341	7.640715	100581376	69873664	29917968	24992
342	0.775182	100581376	69873664	20746896	24992
343	1.490819	100581376	69873664	22084800	24992
344	2.202567	100581376	69873664	24081952	24992
345	3.109097	100581376	69873664	26738512	24992
346	3.640262	100581376	69873664	30054984	24992
347	5.44767	100581376	69873664	17606584	24992
348	5.300441	100581376	69873664	22241992	24992
349	6.028549	100581376	69873664	27536696	24992
350	7.801172	100581376	69873664	17067504	24992
351	7.220508	100581376	69873664	23681960	24992
352	0.809238	100581376	69873664	30935336	24992
353	2.557146	100581376	69873664	15840472	24992
354	2.470975	100581376	69873664	17837624	24992
355	3.126136	100581376	69873664	20494184	24992
356	3.861542	100581376	69873664	23810656	24992
357	4.372131	100581376	69873664	27786536	24992
358	6.38927	100581376	69873664	15995584	24992
359	5.883182	100581376	69873664	21290272	24992
360	6.490281	100581376	69873664	27249768	24992
361	8.657907	100581376	69873664	17449368	24992
362	0.781652	100581376	69873664	24702744	24992
363	1.485281	100581376	69873664	26040488	24992
364	2.461175	100581376	69873664	28037640	24992
365	2.899892	100581376	69873664	30694200	24992
366	4.775759	100581376	69873664	17592920	24992
367	4.429412	100581376	69873664	21568800	24992
368	5.141835	100581376	69873664	26204144	24992
369	5.880799	100581376	69873664	31498864	24992
370	7.848756	100581376	69873664	21036672	24992
371	7.639534	100581376	69873664	27651176	24992
372	0.788332	100581376	69873664	18472584	24992
373	1.486295	100581376	69873664	19810328	24992
374	2.243399	100581376	69873664	21807480	24992
375	2.903592	100581376	69873664	24464040	24992
376	3.622981	100581376	69873664	27780512	24992
377	4.61604	100581376	69873664	31756392	24992
378	6.20504	100581376	69873664	19964544	24992
379	5.994276	100581376	69873664	25259232	24992
380	6.53173	100581376	69873664	31214328	24992
381	8.454997	100581376	69873664	21417352	24992
382	0.770732	100581376	69873664	28670744	24992
383	1.499246	100581376	69873664	30008488	24992
384	2.194266	100581376	69873664	32005912	24992
385	4.047145	100581376	69873664	18231728	24992
386	3.873435	100581376	69873664	21548264	24992
387	4.337653	100581376	69873664	25524144	24992
388	5.067259	100581376	69873664	30159424	24992
389	6.921638	100581376	69873664	19025576	24992
390	6.715888	100581376	69873664	24980624	24992
391	7.198972	100581376	69873664	31595176	24992
392	0.771298	100581376	69873664	22423432	24992
393	1.501821	100581376	69873664	23761192	24992
394	2.192437	100581376	69873664	25758344	24992
395	2.929587	100581376	69873664	28414904	24992
396	3.624773	100581376	69873664	31731376	24992
397	5.719539	100581376	69873664	19282224	24992
398	5.287875	100581376	69873664	23917504	24992
399	5.758234	100581376	69873664	29212192	24992
400	7.943471	100581376	69873664	18742920	24992
401	7.222377	100581376	69873664	25357376	24992
402	1.952891	100581376	69873664	16173336	24992
403	1.72229	100581376	69873664	17511088	24992
404	2.201671	100581376	69873664	19508240	24992
405	2.906509	100581376	69873664	22164800	24992
406	3.668862	100581376	69873664	25481272	24992
407	4.558609	100581376	69873664	29457152	24992
408	6.323543	100581376	69873664	17666088	24992
409	5.892956	100581376	69873664	22960776	24992
410	6.611072	100581376	69873664	28915824	24992
411	8.738856	100581376	69873664	19115552	24992
412	0.771576	100581376	69873664	26369008	24992
413	1.487369	100581376	69873664	27706752	24992
414	2.436591	100581376	69873664	29703904	24992
415	3.117854	100581376	69873664	32360464	24992
416	4.913002	100581376	69873664	19253952	24992
417	4.425819	100581376	69873664	23229832	24992
418	5.156088	100581376	69873664	27865256	24992
419	7.163013	100581376	69873664	16731664	24992
420	6.844931	100581376	69873664	22686712	24992
421	7.341431	100581376	69873664	29301280	24992
422	0.792553	100581376	69873664	20122592	24992
423	1.595701	100581376	69873664	21460336	24992
424	2.205703	100581376	69873664	23457488	24992
425	3.135294	100581376	69873664	26114048	24992
426	3.630084	100581376	69873664	29430520	24992
427	5.605575	100581376	69873664	16982136	24992
428	5.282087	100581376	69873664	21617416	24992
429	5.77842	100581376	69873664	26912200	24992
430	7.75801	100581376	69873664	16443224	24992
431	7.542513	100581376	69873664	23057672	24992
432	0.775638	100581376	69873664	30311712	24992
433	1.490696	100581376	69873664	31649456	24992
434	3.725354	100581376	69873664	17219648	24992
435	2.979996	100581376	69873664	19876208	24992
436	3.800988	100581376	69873664	23192776	24992
437	4.579401	100581376	69873664	27168656	24992
438	5.144838	100581376	69873664	31803936	24992
439	7.40179	100581376	69873664	20683088	24992
440	6.626996	100581376	69873664	26638136	24992
441	8.78897	100581376	69873664	16828112	24992
442	0.768566	100581376	69873664	24081512	24992
443	1.696539	100581376	69873664	25419256	24992
444	2.223876	100581376	69873664	27416408	24992
445	2.91559	100581376	69873664	30072968	24992
446	5.194713	100581376	69873664	16956464	24992
447	4.392413	100581376	69873664	20932344	24992
448	5.272577	100581376	69873664	25567624	24992
449	5.767654	100581376	69873664	30862312	24992
450	7.903624	100581376	69873664	20400984	24992
451	7.221531	100581376	69873664	27015440	24992
452	0.780831	100581376	69873664	17837424	24992
453	1.498326	100581376	69873664	19175168	24992
454	2.193317	100581376	69873664	21172320	24992
455	3.119095	100581376	69873664	23828928	24992
456	3.633873	100581376	69873664	27145448	24992
457	4.338171	100581376	69873664	31121328	24992
458	6.465151	100581376	69873664	19330264	24992
459	5.772705	100581376	69873664	24624952	24992
460	6.705098	100581376	69873664	30580000	24992
461	8.780447	100581376	69873664	20783008	24992
462	0.768055	100581376	69873664	28036400	24992
463	1.491264	100581376	69873664	29374144	24992
464	2.423435	100581376	69873664	31371296	24992
465	4.251595	100581376	69873664	17597896	24992
466	3.633709	100581376	69873664	20914368	24992
467	4.558322	100581376	69873664	24890248	24992
468	5.06439	100581376	69873664	29525560	24992
469	7.372259	100581376	69873664	18392048	24992
470	6.483955	100581376	69873664	24347096	24992
471	7.43279	100581376	69873664	30961600	24992
472	0.773398	100581376	69873664	21790640	24992
473	1.493222	100581376	69873664	23128384	24992
474	2.192016	100581376	69873664	25125536	24992
475	2.904933	100581376	69873664	27782128	24992
476	3.66781	100581376	69873664	31098600	24992
477	5.767421	100581376	69873664	18650216	24992
478	5.273503	100581376	69873664	23285496	24992
479	5.77728	100581376	69873664	28580184	24992
480	8.121358	100581376	69873664	18110992	24992
481	7.201667	100581376	69873664	24725448	24992
482	0.768677	100581376	69873664	31978824	24992
483	1.482103	100581376	69873664	33316568	24992
484	3.595882	100581376	69873664	18886200	24992
485	3.149814	100581376	69873664	21542760	24992
486	3.629807	100581376	69873664	24859248	24992
487	4.333812	100581376	69873664	28835216	24992
488	5.283	100581376	69873664	33470488	24992
489	7.303071	100581376	69873664	22337992	24992
490	6.569109	100581376	69873664	28293040	24992
491	8.851857	100581376	69873664	18482608	24992
492	0.770579	100581376	69873664	25735984	24992
493	1.683683	100581376	69873664	27073728	24992
494	2.21557	100581376	69873664	29070880	24992
495	2.906211	100581376	69873664	31727440	24992
496	5.062759	100581376	69873664	18621144	24992
497	4.410828	100581376	69873664	22597040	24992
498	5.069695	100581376	69873664	27232320	24992
499	5.980929	100581376	69873664	32527008	24992
500	7.940021	100581376	69873664	22065792	24992
501	7.524075	100581376	69873664	28680248	24992
502	0.771553	100581376	69873664	19501784	24992
503	1.493496	100581376	69873664	20839568	24992
504	2.191115	100581376	69873664	22836712	24992
505	2.90929	100581376	69873664	25493304	24992
506	3.844854	100581376	69873664	28809776	24992
507	4.3382	100581376	69873664	32785656	24992
508	6.782453	100581376	69873664	20994592	24992
509	5.771779	100581376	69873664	26289280	24992
510	6.490288	100581376	69873664	32244328	24992
511	8.776282	100581376	69873664	22447336	24992
512	0.773295	100581376	69873664	29700968	24992
513	1.495642	100581376	69873664	31038824	24992
514	2.187476	100581376	69873664	33035976	24992
515	4.582634	100581376	69873664	19262576	24992
516	3.67321	100581376	69873664	22579048	24992
517	4.569012	100581376	69873664	26554928	24992
518	5.102417	100581376	69873664	31190240	24992
519	7.26821	100581376	69873664	20056552	24992
520	6.753534	100581376	69873664	26011600	24992
521	7.431262	100581376	69873664	32626056	24992
522	0.793103	100581376	69873664	23455160	24992
523	1.535087	100581376	69873664	24792904	24992
524	2.244	100581376	69873664	26790056	24992
525	2.965849	100581376	69873664	29446616	24992
526	3.705339	100581376	69873664	32763088	24992
527	6.092973	100581376	69873664	20314688	24992
528	5.066991	100581376	69873664	24949968	24992
529	5.975581	100581376	69873664	30244656	24992
530	8.006733	100581376	69873664	19775448	24992
531	7.431193	100581376	69873664	26389904	24992
532	0.768305	100581376	69873664	33643280	24992
533	3.043202	100581376	69873664	18547840	24992
534	2.311321	100581376	69873664	20544992	24992
535	2.906086	100581376	69873664	23201552	24992
536	3.893278	100581376	69873664	26518024	24992
537	4.462459	100581376	69873664	30493904	24992
538	6.693086	100581376	69873664	18703136	24992
539	5.915285	100581376	69873664	23997816	24992
540	6.86799	100581376	69873664	29952864	24992
541	9.198663	100581376	69873664	20148064	24992
542	0.770729	100581376	69873664	27401440	24992
543	1.487353	100581376	69873664	28739184	24992
544	2.431421	100581376	69873664	30736336	24992
545	2.933943	100581376	69873664	33392896	24992
546	5.269371	100581376	69873664	20287168	24992
547	4.372791	100581376	69873664	24263208	24992
548	5.046337	100581376	69873664	28898488	24992
549	5.983755	100581376	69873664	34193176	24992
550	8.202958	100581376	69873664	23727912	24992
551	7.685922	100581376	69873664	30342528	24992
552	0.77851	100581376	69873664	21164056	24992
553	1.495228	100581376	69873664	22501800	24992
554	2.195861	100581376	69873664	24498984	24992
555	2.914042	100581376	69873664	27155544	24992
556	3.843545	100581376	69873664	30478896	24992
557	5.971695	100581376	69873664	18028576	24992
558	5.386003	100581376	69873664	22663848	24992
559	5.776844	100581376	69873664	27958536	24992
560	6.49985	100581376	69873664	33913584	24992
561	8.932235	100581376	69873664	24122792	24992
562	0.796334	100581376	69873664	31376184	24992
563	1.49167	100581376	69873664	32713944	24992
564	3.778544	100581376	69873664	18284256	24992
565	3.149946	100581376	69873664	20940808	24992
566	3.633011	100581376	69873664	24257280	24992
567	4.386621	100581376	69873664	28233160	24992
568	5.063885	100581376	69873664	32868440	24992
569	7.45696	100581376	69873664	21734712	24992
570	6.744216	100581376	69873664	27689760	24992
571	7.409959	100581376	69873664	34304216	24992
572	0.787459	100581376	69873664	25139248	24992
573	1.53086	100581376	69873664	26476992	24992
574	2.24068	100581376	69873664	28474144	24992
575	2.976211	100581376	69873664	31130704	24992
576	3.702409	100581376	69873664	34447176	24992
577	6.223391	100581376	69873664	21998104	24992
578	5.050192	100581376	69873664	26633384	24992
579	5.976703	100581376	69873664	31928072	24992
580	8.14297	100581376	69873664	21458768	24992
581	7.332469	100581376	69873664	28073224	24992
582	2.449334	100581376	69873664	18889304	24992
583	1.547539	100581376	69873664	20227048	24992
584	2.249965	100581376	69873664	22224200	24992
585	3.11589	100581376	69873664	24880760	24992
586	3.635889	100581376	69873664	28197232	24992
587	4.338191	100581376	69873664	32173112	24992
588	6.975521	100581376	69873664	20382096	24992
589	5.93986	100581376	69873664	25676784	24992
590	6.714311	100581376	69873664	31631832	24992
591	9.169295	100581376	69873664	21831640	24992
592	0.769574	100581376	69873664	29085016	24992
593	1.482953	100581376	69873664	30422760	24992
594	2.218643	100581376	69873664	32419912	24992
595	4.573416	100581376	69873664	18646512	24992
596	3.635218	100581376	69873664	21962984	24992
597	4.59478	100581376	69873664	25938880	24992
598	5.055297	100581376	69873664	30574160	24992
599	7.66657	100581376	69873664	19440648	24992
600	6.486483	100581376	69873664	25395712	24992
601	7.232929	100581376	69873664	32010168	24992
602	0.778681	100581376	69873664	22839384	24992
603	1.505495	100581376	69873664	24177128	24992
604	2.196233	100581376	69873664	26174296	24992
605	2.906957	100581376	69873664	28830856	24992
606	3.838362	100581376	69873664	32147344	24992
607	6.065553	100581376	69873664	19699072	24992
608	5.218019	100581376	69873664	24334352	24992
609	6.062726	100581376	69873664	29629040	24992
610	8.792086	100581376	69873664	19160120	24992
611	7.657929	100581376	69873664	25774576	24992
612	0.76598	100581376	69873664	33027984	24992
613	1.722168	100581376	69873664	34365728	24992
614	4.232524	100581376	69873664	19936048	24992
615	2.933617	100581376	69873664	22592608	24992
616	3.615636	100581376	69873664	25909080	24992
617	4.548164	100581376	69873664	29885056	24992
618	5.05315	100581376	69873664	34520336	24992
619	7.537601	100581376	69873664	23398912	24992
620	6.49629	100581376	69873664	29353960	24992
621	9.194925	100581376	69873664	19543720	24992
622	0.783648	100581376	69873664	26797096	24992
623	1.482185	100581376	69873664	28134840	24992
624	2.207492	100581376	69873664	30131992	24992
625	2.901847	100581376	69873664	32788600	24992
626	5.466173	100581376	69873664	19671984	24992
627	4.354812	100581376	69873664	23647864	24992
628	5.051574	100581376	69873664	28283144	24992
629	5.851382	100581376	69873664	33577832	24992
630	8.501848	100581376	69873664	23116424	24992
631	7.379271	100581376	69873664	29731160	24992
632	0.777154	100581376	69873664	20552912	24992
633	1.743113	100581376	69873664	21890656	24992
634	2.21234	100581376	69873664	23887808	24992
635	2.958642	100581376	69873664	26544368	24992
636	3.668392	100581376	69873664	29860840	24992
637	4.338783	100581376	69873664	33836720	24992
638	7.150468	100581376	69873664	22045720	24992
639	6.396621	100581376	69873664	27340520	24992
640	6.797023	100581376	69873664	33304296	24992
641	9.235213	100581376	69873664	23507304	24992
642	0.772491	100581376	69873664	30760680	24992
643	1.500027	100581376	69873664	32098424	24992
644	2.192879	100581376	69873664	34095576	24992
645	4.729293	100581376	69873664	20322176	24992
646	3.640924	100581376	69873664	23638648	24992
647	4.369667	100581376	69873664	27614528	24992
648	5.174492	100581376	69873664	32249808	24992
649	7.876711	100581376	69873664	21116312	24992
650	6.631361	100581376	69873664	27071376	24992
651	7.369135	100581376	69873664	33685832	24992
652	0.781835	100581376	69873664	24514904	24992
653	1.492312	100581376	69873664	25852648	24992
654	2.201256	100581376	69873664	27849800	24992
655	3.135612	100581376	69873664	30506360	24992
656	3.621028	100581376	69873664	33822912	24992
657	6.156976	100581376	69873664	21374512	24992
658	5.323019	100581376	69873664	26009792	24992
659	5.777809	100581376	69873664	31304480	24992
660	8.594574	100581376	69873664	20835272	24992
661	7.432535	100581376	69873664	27449744	24992
662	0.765363	100581376	69873664	34703280	24992
663	3.338131	100581376	69873664	19608528	24992
664	2.249974	100581376	69873664	21605680	24992
665	2.967584	100581376	69873664	24262240	24992
666	3.688825	100581376	69873664	27578712	24992
667	4.605139	100581376	69873664	31554592	24992
668	6.961757	100581376	69873664	19763752	24992
669	6.026226	100581376	69873664	25058440	24992
670	6.477348	100581376	69873664	31013664	24992
671	9.107828	100581376	69873664	21208816	24992
672	0.779073	100581376	69873664	28462192	24992
673	1.488342	100581376	69873664	29799936	24992
674	2.196159	100581376	69873664	31797088	24992
675	2.904246	100581376	69873664	34453760	24992
676	5.739443	100581376	69873664	21348032	24992
677	4.347703	100581376	69873664	25323912	24992
678	5.051514	100581376	69873664	29959256	24992
679	5.76322	100581376	69873664	35253944	24992
680	8.667146	100581376	69873664	24791864	24992
681	7.635899	100581376	69873664	31406320	24992
682	0.778109	100581376	69873664	22227904	24992
683	1.489413	100581376	69873664	23565648	24992
684	2.203104	100581376	69873664	25562800	24992
685	2.94611	100581376	69873664	28219360	24992
686	3.624133	100581376	69873664	31535832	24992
687	4.556196	100581376	69873664	35511712	24992
688	7.000863	100581376	69873664	23720008	24992
689	5.986702	100581376	69873664	29014728	24992
690	6.549071	100581376	69873664	34969776	24992
691	9.205214	100581376	69873664	25172800	24992
692	0.774685	100581376	69873664	32426176	24992
693	1.489154	100581376	69873664	33763920	24992
694	2.209581	100581376	69873664	35761072	24992
695	4.83235	100581376	69873664	21986984	24992
696	3.845099	100581376	69873664	25303456	24992
697	4.341231	100581376	69873664	29279336	24992
698	5.065767	100581376	69873664	33914616	24992
699	7.804639	100581376	69873664	22781024	24992
700	6.770521	100581376	69873664	28736072	24992
701	7.206125	100581376	69873664	35350528	24992
702	0.795009	100581376	69873664	26179552	24992
703	1.545125	100581376	69873664	27517296	24992
704	2.439326	100581376	69873664	29514448	24992
705	2.90755	100581376	69873664	32171008	24992
706	3.619586	100581376	69873664	35487480	24992
707	6.527577	100581376	69873664	23039096	24992
708	5.059145	100581376	69873664	27674376	24992
709	6.363706	100581376	69873664	32969064	24992
710	8.591374	100581376	69873664	22499872	24992
711	7.565067	100581376	69873664	29114328	24992
712	0.784278	100581376	69873664	36367704	24992
713	3.509062	100581376	69873664	21272280	24992
714	2.248409	100581376	69873664	23269432	24992
715	2.977521	100581376	69873664	25925992	24992
716	3.875221	100581376	69873664	29242464	24992
717	4.508064	100581376	69873664	33219392	24992
718	7.373425	100581376	69873664	21428200	24992
719	5.925719	100581376	69873664	26722888	24992
720	6.728669	100581376	69873664	32677968	24992
721	9.598524	100581376	69873664	22872160	24992
722	0.770665	100581376	69873664	30125536	24992
723	1.489834	100581376	69873664	31463280	24992
724	2.208382	100581376	69873664	33460448	24992
725	2.905767	100581376	69873664	36117128	24992
726	5.708818	100581376	69873664	23009040	24992
727	4.617992	100581376	69873664	26984920	24992
728	5.279401	100581376	69873664	31620200	24992
729	8.008478	100581376	69873664	20485016	24992
730	6.59921	100581376	69873664	26440072	24992
731	7.516149	100581376	69873664	33054528	24992
732	0.783996	100581376	69873664	23874936	24992
733	1.485621	100581376	69873664	25212688	24992
734	2.196327	100581376	69873664	27209840	24992
735	2.908695	100581376	69873664	29866400	24992
736	3.829672	100581376	69873664	33182872	24992
737	6.392971	100581376	69873664	20733024	24992
738	5.077756	100581376	69873664	25368312	24992
739	5.787397	100581376	69873664	30663080	24992
740	6.713729	100581376	69873664	36618128	24992
741	9.5305	100581376	69873664	26818296	24992
742	0.794126	100581376	69873664	34071672	24992
743	1.487241	100581376	69873664	35409416	24992
744	4.24637	100581376	69873664	20978296	24992
745	2.923077	100581376	69873664	23634856	24992
746	3.622755	100581376	69873664	26951328	24992
747	4.561721	100581376	69873664	30927208	24992
748	5.063056	100581376	69873664	35562488	24992
749	8.099861	100581376	69873664	24427080	24992
750	6.50084	100581376	69873664	30382128	24992
751	9.52286	100581376	69873664	20570424	24992
752	0.767826	100581376	69873664	27823792	24992
753	1.490332	100581376	69873664	29161536	24992
754	2.195391	100581376	69873664	31158688	24992
755	2.913283	100581376	69873664	33815248	24992
756	5.917844	100581376	69873664	20697304	24992
757	4.359114	100581376	69873664	24673184	24992
758	5.340588	100581376	69873664	29310104	24992
759	5.759142	100581376	69873664	34604824	24992
760	8.896708	100581376	69873664	24141656	24992
761	7.201178	100581376	69873664	30756176	24992
762	0.787019	100581376	69873664	21576960	24992
763	1.487758	100581376	69873664	22914704	24992
764	2.205326	100581376	69873664	24911856	24992
765	2.907629	100581376	69873664	27568416	24992
766	3.61051	100581376	69873664	30884888	24992
767	4.545122	100581376	69873664	34860912	24992
768	7.201867	100581376	69873664	23068168	24992
769	5.995193	100581376	69873664	28362856	24992
770	6.482939	100581376	69873664	34317904	24992
771	9.397356	100581376	69873664	24518864	24992
772	0.773533	100581376	69873664	31772288	24992
773	1.522885	100581376	69873664	33110032	24992
774	2.190109	100581376	69873664	35107264	24992
775	5.033861	100581376	69873664	21332464	24992
776	3.868489	100581376	69873664	24648944	24992
777	4.338171	100581376	69873664	28624824	24992
778	5.063593	100581376	69873664	33260104	24992
779	8.034436	100581376	69873664	22124928	24992
780	6.702503	100581376	69873664	28079976	24992
781	7.197713	100581376	69873664	34694448	24992
782	0.774128	100581376	69873664	25522128	24992
783	1.486632	100581376	69873664	26859920	24992
784	2.254519	100581376	69873664	28857072	24992
785	3.521186	100581376	69873664	31514112	24992
786	3.675209	100581376	69873664	34830584	24992
787	6.822076	100581376	69873664	22390976	24992
788	5.091622	100581376	69873664	27026256	24992
789	5.973363	100581376	69873664	32320992	24992
790	8.760834	100581376	69873664	21850264	24992
791	7.347763	100581376	69873664	28464720	24992
792	0.770972	100581376	69873664	35718096	24992
793	1.516778	100581376	69873664	37055840	24992
794	4.399877	100581376	69873664	22624032	24992
795	2.914439	100581376	69873664	25280592	24992
796	3.848621	100581376	69873664	28597064	24992
797	4.633692	100581376	69873664	32572944	24992
798	5.066544	100581376	69873664	37208224	24992
799	8.262447	100581376	69873664	26084880	24992
800	6.918054	100581376	69873664	32039928	24992
801	9.852114	100581376	69873664	22228008	24992
802	0.767183	100581376	69873664	29481416	24992
803	1.504904	100581376	69873664	30819160	24992
804	2.190022	100581376	69873664	32816312	24992
805	2.903047	100581376	69873664	35472872	24992
806	5.880093	100581376	69873664	22354816	24992
807	4.613904	100581376	69873664	26330696	24992
808	5.127143	100581376	69873664	30966040	24992
809	6.119956	100581376	69873664	36260728	24992
810	8.923711	100581376	69873664	25797416	24992
811	7.446489	100581376	69873664	32411872	24992
812	0.777614	100581376	69873664	23232432	24992
813	1.51798	100581376	69873664	24570176	24992
814	2.253444	100581376	69873664	26567328	24992
815	3.122485	100581376	69873664	29223888	24992
816	3.625855	100581376	69873664	32540360	24992
817	4.330052	100581376	69873664	36516240	24992
818	7.498075	100581376	69873664	24723496	24992
819	5.761663	100581376	69873664	30018184	24992
820	6.716205	100581376	69873664	35973312	24992
821	9.737888	100581376	69873664	26174160	24992
822	0.770349	100581376	69873664	33427696	24992
823	1.72846	100581376	69873664	34765440	24992
824	2.200568	100581376	69873664	36762592	24992
825	5.162211	100581376	69873664	22987752	24992
826	3.641599	100581376	69873664	26304256	24992
827	4.339355	100581376	69873664	30280136	24992
828	5.043372	100581376	69873664	34915416	24992
829	8.254703	100581376	69873664	23780128	24992
830	6.694854	100581376	69873664	29735176	24992
831	7.190007	100581376	69873664	36349664	24992
832	0.777927	100581376	69873664	27177248	24992
833	1.496583	100581376	69873664	28514992	24992
834	2.205055	100581376	69873664	30512144	24992
835	3.128659	100581376	69873664	33168704	24992
836	3.638989	100581376	69873664	36485176	24992
837	6.766755	100581376	69873664	24035096	24992
838	5.086956	100581376	69873664	28670376	24992
839	5.75542	100581376	69873664	33965064	24992
840	8.870042	100581376	69873664	23493984	24992
841	7.505716	100581376	69873664	30108440	24992
842	0.766269	100581376	69873664	37361816	24992
843	4.01567	100581376	69873664	22265864	24992
844	2.220507	100581376	69873664	24263016	24992
845	2.910291	100581376	69873664	26919640	24992
846	3.765981	100581376	69873664	30236112	24992
847	4.388168	100581376	69873664	34211992	24992
848	7.668776	100581376	69873664	22419472	24992
849	5.765871	100581376	69873664	27714160	24992
850	6.689978	100581376	69873664	33679544	24992
851	9.610243	100581376	69873664	23883160	24992
852	0.770696	100581376	69873664	31136536	24992
853	1.500812	100581376	69873664	32474280	24992
854	2.1963	100581376	69873664	34471432	24992
855	2.914871	100581376	69873664	37127992	24992
856	5.978162	100581376	69873664	24030912	24992
857	4.573617	100581376	69873664	28006792	24992
858	5.055138	100581376	69873664	32642104	24992
859	5.764831	100581376	69873664	37936792	24992
860	9.176407	100581376	69873664	27472792	24992
861	7.237769	100581376	69873664	34087296	24992
862	0.776688	100581376	69873664	24907616	24992
863	1.489521	100581376	69873664	26245360	24992
864	2.19235	100581376	69873664	28242512	24992
865	2.909412	100581376	69873664	30899072	24992
866	4.074092	100581376	69873664	34215544	24992
867	4.332939	100581376	69873664	38191424	24992
868	7.461227	100581376	69873664	26397992	24992
869	5.777806	100581376	69873664	31692680	24992
870	6.774867	100581376	69873664	37647744	24992
871	9.703311	100581376	69873664	27848592	24992
872	0.799504	100581376	69873664	35101968	24992
873	1.492958	100581376	69873664	36439712	24992
874	2.210875	100581376	69873664	38436864	24992
875	5.311184	100581376	69873664	24661352	24992
876	3.632237	100581376	69873664	27977888	24992
877	4.566982	100581376	69873664	31953768	24992
878	5.050155	100581376	69873664	36589048	24992
879	8.420637	100581376	69873664	25453632	24992
880	6.481396	100581376	69873664	31408680	24992
881	7.204575	100581376	69873664	38023136	24992
882	0.783453	100581376	69873664	28850128	24992
883	1.495873	100581376	69873664	30187872	24992
884	2.193042	100581376	69873664	32185024	24992
885	2.909356	100581376	69873664	34841584	24992
886	3.845791	100581376	69873664	38158056	24992
887	6.759813	100581376	69873664	25707352	24992
888	5.068911	100581376	69873664	30342632	24992
889	6.063274	100581376	69873664	35637320	24992
890	9.14055	100581376	69873664	25166160	24992
891	7.475748	100581376	69873664	31780616	24992
892	3.19938	100581376	69873664	22595728	24992
893	1.515869	100581376	69873664	23933480	24992
894	2.205185	100581376	69873664	25930632	24992
895	2.906088	100581376	69873664	28587256	24992
896	3.672097	100581376	69873664	31903728	24992
897	4.574002	100581376	69873664	35879608	24992
898	7.534455	100581376	69873664	24086976	24992
899	6.006142	100581376	69873664	29381664	24992
900	6.479122	100581376	69873664	35336712	24992
901	9.707966	100581376	69873664	25534280	24992
902	0.828072	100581376	69873664	32787720	24992
903	1.487563	100581376	69873664	34125480	24992
904	2.244588	100581376	69873664	36122632	24992
905	2.897932	100581376	69873664	38779192	24992
906	6.36277	100581376	69873664	25671112	24992
907	4.566672	100581376	69873664	29646992	24992
908	5.331987	100581376	69873664	34282384	24992
909	8.694385	100581376	69873664	23147208	24992
910	6.565476	100581376	69873664	29102256	24992
911	7.757291	100581376	69873664	35716712	24992
912	0.78986	100581376	69873664	26537096	24992
913	1.513451	100581376	69873664	27874840	24992
914	2.242057	100581376	69873664	29871992	24992
915	2.998444	100581376	69873664	32528552	24992
916	3.958177	100581376	69873664	35845024	24992
917	6.860086	100581376	69873664	23395072	24992
918	5.623872	100581376	69873664	28032432	24992
919	5.818741	100581376	69873664	33327120	24992
920	9.331097	100581376	69873664	22856592	24992
921	7.344437	100581376	69873664	29471040	24992
922	0.769745	100581376	69873664	36724416	24992
923	1.503107	100581376	69873664	38062160	24992
924	4.990172	100581376	69873664	23631392	24992
925	2.919264	100581376	69873664	26287952	24992
926	3.62729	100581376	69873664	29604424	24992
927	4.604381	100581376	69873664	33580304	24992
928	5.033115	100581376	69873664	38215584	24992
929	8.398709	100581376	69873664	27092992	24992
930	6.620183	100581376	69873664	33048040	24992
931	10.027285	100581376	69873664	23236336	24992
932	0.781581	100581376	69873664	30489704	24992
933	1.490534	100581376	69873664	31827448	24992
934	2.204785	100581376	69873664	33824600	24992
935	2.907869	100581376	69873664	36481160	24992
936	6.192025	100581376	69873664	23363216	24992
937	4.349659	100581376	69873664	27339176	24992
938	5.271789	100581376	69873664	31974456	24992
939	5.764602	100581376	69873664	37269144	24992
940	9.295461	100581376	69873664	26805864	24992
941	7.201898	100581376	69873664	33420336	24992
942	0.994731	100581376	69873664	24241120	24992
943	1.502111	100581376	69873664	25578864	24992
944	2.201612	100581376	69873664	27576016	24992
945	2.902283	100581376	69873664	30232576	24992
946	3.618491	100581376	69873664	33549144	24992
947	4.614003	100581376	69873664	37525024	24992
948	7.669359	100581376	69873664	25732280	24992
949	5.802944	100581376	69873664	31026968	24992
950	6.474908	100581376	69873664	36982016	24992
951	10.042617	100581376	69873664	27182944	24992
952	0.773142	100581376	69873664	34436560	24992
953	1.482848	100581376	69873664	35774336	24992
954	2.199894	100581376	69873664	37771488	24992
955	5.523035	100581376	69873664	23996648	24992
956	3.892745	100581376	69873664	27313120	24992
957	4.345228	100581376	69873664	31289000	24992
958	5.28014	100581376	69873664	35924280	24992
959	8.63122	100581376	69873664	24789088	24992
960	6.584843	100581376	69873664	30744136	24992
961	7.186482	100581376	69873664	37358592	24992
962	0.77763	100581376	69873664	28186192	24992
963	1.486287	100581376	69873664	29523936	24992
964	2.193485	100581376	69873664	31521088	24992
965	2.906786	100581376	69873664	34177680	24992
966	3.886627	100581376	69873664	37494152	24992
967	6.969067	100581376	69873664	25044088	24992
968	5.12438	100581376	69873664	29679368	24992
969	5.767853	100581376	69873664	34974056	24992
970	9.369803	100581376	69873664	24502944	24992
971	7.260459	100581376	69873664	31117424	24992
972	0.772827	100581376	69873664	38370792	24992
973	1.481506	100581376	69873664	39708536	24992
974	4.839184	100581376	69873664	25276728	24992
975	2.907977	100581376	69873664	27933288	24992
976	3.621175	100581376	69873664	31249760	24992
977	4.558771	100581376	69873664	35225640	24992
978	5.050262	100581376	69873664	39861144	24992
979	8.728244	100581376	69873664	28734056	24992
980	6.703919	100581376	69873664	34689104	24992
981	10.591024	100581376	69873664	24877024	24992
982	0.852783	100581376	69873664	32130400	24992
983	1.516888	100581376	69873664	33468144	24992
984	2.200708	100581376	69873664	35465296	24992
985	3.103293	100581376	69873664	38121856	24992
986	6.32455	100581376	69873664	25007496	24992
987	4.360293	100581376	69873664	28983376	24992
988	5.047192	100581376	69873664	33618656	24992
989	5.960982	100581376	69873664	38913344	24992
990	9.277257	100581376	69873664	28450032	24992
991	7.454804	100581376	69873664	35064488	24992
992	0.790221	100581376	69873664	25884840	24992
993	1.487153	100581376	69873664	27222584	24992
994	2.205427	100581376	69873664	29219736	24992
995	2.890441	100581376	69873664	31876296	24992
996	3.807174	100581376	69873664	35192944	24992
997	4.404268	100581376	69873664	39168824	24992
998	7.786963	100581376	69873664	27376080	24992
999	5.792159	100581376	69873664	32670768	24992
1000	6.660153	100581376	69873664	38625816	24992
