x	Duration	RSS	HeapTotal	HeapUsed	External
0	NA	98365440	67776512	10879312	24992
1	1.175771	98365440	67776512	11559400	24992
2	2.051427	98365440	67776512	12897808	24992
3	2.985466	98365440	67776512	14895640	24992
4	3.943971	98365440	67776512	17552960	24992
5	5.086492	98365440	67776512	20870384	24992
6	4.638563	98365440	67776512	24847344	24992
7	6.496558	98365440	67776512	13018624	24992
8	6.139431	98365440	67776512	18328656	24992
9	6.756574	98365440	67776512	24285280	24992
10	7.574673	98365440	67776512	14442616	24992
11	8.281073	98365440	67776512	21718416	24992
12	0.790646	98365440	67776512	13159168	24992
13	1.504789	98365440	67776512	14497432	24992
14	2.232384	98365440	67776512	16495248	24992
15	2.950319	98365440	67776512	19152632	24992
16	3.859576	98365440	67776512	22470104	24992
17	4.436065	98365440	67776512	26447128	24992
18	5.605572	98365440	67776512	14621024	24992
19	6.035457	98365440	67776512	19917544	24992
20	6.541646	98365440	67776512	25874232	24992
21	7.801641	98365440	67776512	16031720	24992
22	0.791802	98365440	67776512	23287168	24992
23	1.511107	98365440	67776512	24625432	24992
24	2.224525	98365440	67776512	26623248	24992
25	3.165889	98365440	67776512	12811336	24992
26	3.716969	98365440	67776512	16128808	24992
27	4.428905	98365440	67776512	20105848	24992
28	5.293302	98365440	67776512	24742432	24992
29	6.048384	98365440	67776512	13572176	24992
30	6.800662	98365440	67776512	19528960	24992
31	7.283888	98365440	67776512	26145200	24992
32	0.787334	98365440	67776512	16933592	24992
33	1.503414	98365440	67776512	18271856	24992
34	2.230701	98365440	67776512	20269672	24992
35	3.121363	98365440	67776512	22927056	24992
36	3.684362	98365440	67776512	26244640	24992
37	4.609216	98365440	67776512	13755280	24992
38	5.314836	98365440	67776512	18391864	24992
39	5.837739	98365440	67776512	23688016	24992
40	6.972408	98365440	67776512	13181048	24992
41	7.291673	98365440	67776512	19797288	24992
42	0.783036	98365440	67776512	27052736	24992
43	1.716809	98365440	67776512	11918184	24992
44	2.22592	98365440	67776512	13916000	24992
45	3.132417	98365440	67776512	16574056	24992
46	3.670268	98365440	67776512	19891528	24992
47	4.398853	98365440	67776512	23868616	24992
48	5.749846	98365440	67776512	12039640	24992
49	5.825045	98365440	67776512	17335792	24992
50	6.591938	98365440	67776512	23292480	24992
51	7.478268	98365440	67776512	13446264	24992
52	0.808809	98365440	67776512	20701744	24992
53	1.540382	98365440	67776512	22040008	24992
54	2.293678	98365440	67776512	24037920	24992
55	2.979778	98365440	67776512	26695304	24992
56	3.879034	98365440	67776512	13546496	24992
57	4.426726	98365440	67776512	17523520	24992
58	5.118131	98365440	67776512	22160104	24992
59	5.94607	98365440	67776512	27457200	24992
60	6.946779	98365440	67776512	16951464	24992
61	7.476521	98365440	67776512	23567736	24992
62	0.781252	98365440	67776512	14353808	24992
63	1.515177	98365440	67776512	15692072	24992
64	2.489411	98365440	67776512	17692584	24992
65	2.953081	98365440	67776512	20349968	24992
66	3.666148	98365440	67776512	23667440	24992
67	4.565922	98365440	67776512	27644560	24992
68	5.375728	98365440	67776512	15814008	24992
69	6.004469	98365440	67776512	21110160	24992
70	6.536543	98365440	67776512	27066960	24992
71	7.680407	98365440	67776512	17224016	24992
72	0.778474	98365440	67776512	24479560	24992
73	1.516578	98365440	67776512	25817824	24992
74	2.288117	98365440	67776512	27815656	24992
75	3.355706	98365440	67776512	14002712	24992
76	3.719492	98365440	67776512	17320232	24992
77	4.57439	98365440	67776512	21297256	24992
78	5.363325	98365440	67776512	25933840	24992
79	6.247123	98365440	67776512	14763456	24992
80	6.557111	98365440	67776512	20720336	24992
81	7.585717	98365440	67776512	27337776	24992
82	0.789317	98365440	67776512	18126856	24992
83	1.510592	98365440	67776512	19465032	24992
84	2.233436	98365440	67776512	21463912	24992
85	2.947439	98365440	67776512	24121224	24992
86	3.656132	98365440	67776512	27438608	24992
87	5.250157	98365440	67776512	14954144	24992
88	5.120958	98365440	67776512	19590016	24992
89	6.022869	98365440	67776512	24885376	24992
90	6.826619	98365440	67776512	14378104	24992
91	7.540048	98365440	67776512	20993392	24992
92	1.014858	98365440	67776512	11772080	24992
93	1.579863	98365440	67776512	13110024	24992
94	2.218707	98365440	67776512	15107544	24992
95	2.978796	98365440	67776512	17764456	24992
96	3.863902	98365440	67776512	21081408	24992
97	4.430185	98365440	67776512	25057800	24992
98	5.772277	98365440	67776512	13226880	24992
99	6.065184	98365440	67776512	18522240	24992
100	6.629466	98365440	67776512	24478040	24992
101	7.494868	98365440	67776512	14631784	24992
102	0.775562	98365440	67776512	21886168	24992
103	1.494606	98365440	67776512	23224104	24992
104	2.226286	98365440	67776512	25221528	24992
105	2.938247	98365440	67776512	27878440	24992
106	3.892259	98365440	67776512	14727904	24992
107	4.362907	98365440	67776512	18704344	24992
108	5.302821	98365440	67776512	23340216	24992
109	6.029924	98365440	67776512	12168824	24992
110	6.807046	98365440	67776512	18124640	24992
111	7.315295	98365440	67776512	24739928	24992
112	0.779419	98365440	67776512	15524176	24992
113	1.498095	98365440	67776512	16862112	24992
114	2.214621	98365440	67776512	18859536	24992
115	3.139892	98365440	67776512	21516448	24992
116	3.705938	98365440	67776512	24833416	24992
117	4.796539	98365440	67776512	12344848	24992
118	5.092599	98365440	67776512	16980720	24992
119	5.957607	98365440	67776512	22278040	24992
120	6.537013	98365440	67776512	28233840	24992
121	7.635683	98365440	67776512	18379144	24992
122	0.775584	98365440	67776512	25633512	24992
123	1.508386	98365440	67776512	26971448	24992
124	2.449619	98365440	67776512	12499160	24992
125	2.938901	98365440	67776512	15156072	24992
126	3.653716	98365440	67776512	18472976	24992
127	4.394946	98365440	67776512	22449368	24992
128	5.546344	98365440	67776512	27087344	24992
129	6.122798	98365440	67776512	15919272	24992
130	6.701248	98365440	67776512	21875104	24992
131	7.625918	98365440	67776512	12024976	24992
132	0.792841	98365440	67776512	19279288	24992
133	1.52256	98365440	67776512	20617224	24992
134	2.267323	98365440	67776512	22614696	24992
135	2.987517	98365440	67776512	25271608	24992
136	3.950862	98365440	67776512	12118248	24992
137	4.448012	98365440	67776512	16094632	24992
138	5.178485	98365440	67776512	20730504	24992
139	5.803769	98365440	67776512	26025864	24992
140	6.790971	98365440	67776512	15519056	24992
141	7.297167	98365440	67776512	22134408	24992
142	0.797592	98365440	67776512	12922792	24992
143	1.536312	98365440	67776512	14260728	24992
144	2.284325	98365440	67776512	16258152	24992
145	3.007185	98365440	67776512	18915080	24992
146	3.770313	98365440	67776512	22231984	24992
147	4.418224	98365440	67776512	26208376	24992
148	5.547682	98365440	67776512	14380176	24992
149	6.068034	98365440	67776512	19675536	24992
150	6.519636	98365440	67776512	25631400	24992
151	7.569787	98365440	67776512	15787120	24992
152	0.781892	98365440	67776512	23041440	24992
153	1.516498	98365440	67776512	24379376	24992
154	2.212688	98365440	67776512	26376800	24992
155	3.14309	98365440	67776512	12563664	24992
156	3.649341	98365440	67776512	15880568	24992
157	4.353054	98365440	67776512	19856960	24992
158	5.054476	98365440	67776512	24492832	24992
159	6.032536	98365440	67776512	13321448	24992
160	6.507121	98365440	67776512	19277248	24992
161	7.217703	98365440	67776512	25892632	24992
162	0.776177	98365440	67776512	16679512	24992
163	1.504735	98365440	67776512	18017448	24992
164	2.212738	98365440	67776512	20014872	24992
165	2.925087	98365440	67776512	22671784	24992
166	3.634316	98365440	67776512	25988688	24992
167	4.657636	98365440	67776512	13498304	24992
168	5.087265	98365440	67776512	18134176	24992
169	5.837299	98365440	67776512	23429536	24992
170	6.787657	98365440	67776512	12921256	24992
171	7.371862	98365440	67776512	19536544	24992
172	0.806969	98365440	67776512	26790864	24992
173	1.526256	98365440	67776512	28128800	24992
174	2.719962	98365440	67776512	13655944	24992
175	2.930835	98365440	67776512	16313064	24992
176	3.646753	98365440	67776512	19629968	24992
177	4.386119	98365440	67776512	23606360	24992
178	5.084457	98365440	67776512	28242232	24992
179	6.291159	98365440	67776512	17074104	24992
180	6.617399	98365440	67776512	23029904	24992
181	7.517676	98365440	67776512	13179656	24992
182	0.777133	98365440	67776512	20434040	24992
183	1.500178	98365440	67776512	21771976	24992
184	2.210224	98365440	67776512	23769400	24992
185	2.925782	98365440	67776512	26426376	24992
186	4.113243	98365440	67776512	13272896	24992
187	4.388619	98365440	67776512	17249352	24992
188	5.089497	98365440	67776512	21885224	24992
189	5.846396	98365440	67776512	27180584	24992
190	6.755812	98365440	67776512	16673936	24992
191	7.775001	98365440	67776512	23289224	24992
192	0.823312	98365440	67776512	14073688	24992
193	1.58031	98365440	67776512	15411624	24992
194	2.324271	98365440	67776512	17409048	24992
195	3.093759	98365440	67776512	20065960	24992
196	3.89282	98365440	67776512	23382864	24992
197	4.366517	98365440	67776512	27359256	24992
198	5.348953	98365440	67776512	15528232	24992
199	5.790842	98365440	67776512	20823592	24992
200	6.948626	98365440	67776512	26779392	24992
201	7.495418	98365440	67776512	16935048	24992
202	0.77238	98365440	67776512	24189368	24992
203	1.496775	98365440	67776512	25527304	24992
204	2.20676	98365440	67776512	27524728	24992
205	3.152104	98365440	67776512	13711592	24992
206	4.697967	98365440	67776512	17028600	24992
207	4.422171	98365440	67776512	21005040	24992
208	5.510965	98365440	67776512	25655400	24992
209	6.126638	98365440	67776512	14483904	24992
210	6.746398	98365440	67776512	20439784	24992
211	7.225598	98365440	67776512	27055072	24992
212	0.781749	98365440	67776512	17841904	24992
213	1.504346	98365440	67776512	19179888	24992
214	2.208246	98365440	67776512	21177312	24992
215	2.937208	98365440	67776512	23834240	24992
216	3.640709	98365440	67776512	27151144	24992
217	4.608122	98365440	67776512	14660696	24992
218	5.547996	98365440	67776512	19296584	24992
219	5.899409	98365440	67776512	24594960	24992
220	7.006502	98365440	67776512	14087016	24992
221	7.240552	98365440	67776512	20702288	24992
222	0.777867	98365440	67776512	27956784	24992
223	1.738047	98365440	67776512	12822608	24992
224	2.478634	98365440	67776512	14820008	24992
225	3.162281	98365440	67776512	17476904	24992
226	3.636849	98365440	67776512	20793792	24992
227	4.553834	98365440	67776512	24770216	24992
228	5.334237	98365440	67776512	12939392	24992
229	5.815457	98365440	67776512	18237608	24992
230	6.574944	98365440	67776512	24193536	24992
231	7.734188	98365440	67776512	14348120	24992
232	0.771838	98365440	67776512	21602408	24992
233	1.496906	98365440	67776512	22940328	24992
234	2.437626	98365440	67776512	24937736	24992
235	2.988745	98365440	67776512	27594632	24992
236	3.893778	98365440	67776512	14447680	24992
237	4.367489	98365440	67776512	18424056	24992
238	5.081445	98365440	67776512	23059912	24992
239	6.011183	98365440	67776512	28355256	24992
240	7.010001	98365440	67776512	17849864	24992
241	7.550817	98365440	67776512	24465136	24992
242	0.798268	98365440	67776512	15250512	24992
243	1.5469	98365440	67776512	16588400	24992
244	2.243695	98365440	67776512	18585664	24992
245	2.988833	98365440	67776512	21242368	24992
246	3.71725	98365440	67776512	24559016	24992
247	4.619408	98365440	67776512	28535104	24992
248	5.368363	98365440	67776512	16703408	24992
249	6.013921	98365440	67776512	21998368	24992
250	6.789798	98365440	67776512	27953752	24992
251	7.493775	98365440	67776512	18109216	24992
252	0.80109	98365440	67776512	25362976	24992
253	1.495843	98365440	67776512	26700800	24992
254	2.214725	98365440	67776512	28698064	24992
255	3.152552	98365440	67776512	14884064	24992
256	3.631839	98365440	67776512	18200712	24992
257	4.577776	98365440	67776512	22176800	24992
258	5.080957	98365440	67776512	26812320	24992
259	6.109543	98365440	67776512	15640312	24992
260	6.519978	98365440	67776512	21595664	24992
261	7.464126	98365440	67776512	28210456	24992
262	0.775321	98365440	67776512	18996728	24992
263	1.490157	98365440	67776512	20334632	24992
264	2.216478	98365440	67776512	22331896	24992
265	2.931214	98365440	67776512	24988600	24992
266	3.641762	98365440	67776512	28305248	24992
267	4.653566	98365440	67776512	15814512	24992
268	5.174937	98365440	67776512	20450032	24992
269	6.076062	98365440	67776512	25744992	24992
270	6.834193	98365440	67776512	15236264	24992
271	7.439804	98365440	67776512	21851056	24992
272	0.766937	98365440	67776512	29104816	24992
273	1.750056	98365440	67776512	13969496	24992
274	2.201547	98365440	67776512	15966760	24992
275	2.924181	98365440	67776512	18623512	24992
276	4.032697	98365440	67776512	21940160	24992
277	4.352238	98365440	67776512	25916248	24992
278	5.322404	98365440	67776512	14085080	24992
279	6.006974	98365440	67776512	19380040	24992
280	6.761751	98365440	67776512	25335392	24992
281	7.488176	98365440	67776512	15486648	24992
282	0.790014	98365440	67776512	22740488	24992
283	1.493326	98365440	67776512	24078360	24992
284	2.20695	98365440	67776512	26075624	24992
285	2.92183	98365440	67776512	28732328	24992
286	4.094698	98365440	67776512	15582224	24992
287	4.35224	98365440	67776512	19558376	24992
288	5.522968	98365440	67776512	24196488	24992
289	5.778737	98365440	67776512	29491176	24992
290	6.80647	98365440	67776512	18975104	24992
291	7.304347	98365440	67776512	25589560	24992
292	0.77689	98365440	67776512	16372856	24992
293	1.492702	98365440	67776512	17710608	24992
294	2.242113	98365440	67776512	19707752	24992
295	3.139402	98365440	67776512	22364328	24992
296	3.640379	98365440	67776512	25680800	24992
297	5.386348	98365440	67776512	13189040	24992
298	5.166484	98365440	67776512	17833232	24992
299	5.830408	98365440	67776512	23127920	24992
300	6.772625	98365440	67776512	29082968	24992
301	7.885347	98365440	67776512	19257232	24992
302	0.800341	98365440	67776512	26510672	24992
303	1.511813	98365440	67776512	27848512	24992
304	2.674287	98365440	67776512	13412608	24992
305	2.942161	98365440	67776512	16069160	24992
306	3.838024	98365440	67776512	19385632	24992
307	4.393871	98365440	67776512	23361512	24992
308	5.29216	98365440	67776512	27996792	24992
309	6.088011	98365440	67776512	16862952	24992
310	6.596006	98365440	67776512	22818000	24992
311	7.43506	98365440	67776512	29432456	24992
312	0.780289	98365440	67776512	20267376	24992
313	1.491355	98365440	67776512	21605120	24992
314	2.574878	98365440	67776512	23602272	24992
315	2.920669	98365440	67776512	26258848	24992
316	3.637155	98365440	67776512	29575320	24992
317	4.890741	98365440	67776512	17126136	24992
318	5.068531	98365440	67776512	21761416	24992
319	5.832696	98365440	67776512	27056104	24992
320	6.879986	98365440	67776512	16586800	24992
321	7.518679	98365440	67776512	23201256	24992
322	1.11084	98365440	67776512	14017224	24992
323	1.738266	98365440	67776512	15354968	24992
324	2.206493	98365440	67776512	17352120	24992
325	2.927466	98365440	67776512	20008680	24992
326	3.816249	98365440	67776512	23325152	24992
327	4.568417	98365440	67776512	27301032	24992
328	5.549645	98365440	67776512	15509904	24992
329	6.021875	98365440	67776512	20804592	24992
330	6.652834	98365440	67776512	26759640	24992
331	7.869239	98365440	67776512	16959272	24992
332	0.774957	98365440	67776512	24212648	24992
333	1.488932	98365440	67776512	25550392	24992
334	2.20725	98365440	67776512	27547544	24992
335	3.259173	98365440	67776512	13774032	24992
336	3.668538	98365440	67776512	17090504	24992
337	4.379757	98365440	67776512	21066400	24992
338	5.051887	98365440	67776512	25701680	24992
339	6.406437	98365440	67776512	14568056	24992
340	6.549516	98365440	67776512	20523200	24992
341	7.438585	98365440	67776512	27137656	24992
342	0.835909	98365440	67776512	17966712	24992
343	1.557611	98365440	67776512	19304456	24992
344	2.205618	98365440	67776512	21301656	24992
345	3.298744	98365440	67776512	23960808	24992
346	3.868973	98365440	67776512	27277536	24992
347	4.80758	98365440	67776512	14829152	24992
348	5.118662	98365440	67776512	19464432	24992
349	6.196569	98365440	67776512	24759120	24992
350	7.207671	98365440	67776512	14290144	24992
351	7.493322	98365440	67776512	20904624	24992
352	0.768653	98365440	67776512	28158064	24992
353	1.489354	98365440	67776512	29495808	24992
354	2.621715	98365440	67776512	15066016	24992
355	3.157412	98365440	67776512	17722576	24992
356	3.642712	98365440	67776512	21039048	24992
357	4.425921	98365440	67776512	25014944	24992
358	5.289149	98365440	67776512	29650224	24992
359	6.284371	98365440	67776512	18528688	24992
360	6.62279	98365440	67776512	24488792	24992
361	7.658196	98365440	67776512	14683000	24992
362	0.772212	98365440	67776512	21936376	24992
363	1.504215	98365440	67776512	23274120	24992
364	2.197139	98365440	67776512	25271272	24992
365	3.132636	98365440	67776512	27927880	24992
366	4.094712	98365440	67776512	14815600	24992
367	4.354438	98365440	67776512	18791480	24992
368	5.12868	98365440	67776512	23426760	24992
369	5.795789	98365440	67776512	28721448	24992
370	7.163653	98365440	67776512	18259928	24992
371	7.25365	98365440	67776512	24874384	24992
372	0.782703	98365440	67776512	15696256	24992
373	1.493147	98365440	67776512	17034000	24992
374	2.402443	98365440	67776512	19031152	24992
375	2.929055	98365440	67776512	21687712	24992
376	3.632393	98365440	67776512	25004184	24992
377	4.571741	98365440	67776512	28980064	24992
378	5.600257	98365440	67776512	17189032	24992
379	5.925355	98365440	67776512	22483720	24992
380	6.840618	98365440	67776512	28438768	24992
381	8.119872	98365440	67776512	18641824	24992
382	0.77422	98365440	67776512	25895200	24992
383	1.489916	98365440	67776512	27232944	24992
384	2.412939	98365440	67776512	29230096	24992
385	3.384222	98365440	67776512	15456584	24992
386	3.631303	98365440	67776512	18773056	24992
387	4.549661	98365440	67776512	22748936	24992
388	5.051818	98365440	67776512	27384216	24992
389	6.48552	98365440	67776512	16250608	24992
390	6.509713	98365440	67776512	22205736	24992
391	7.469534	98365440	67776512	28820192	24992
392	1.013901	98365440	67776512	19649120	24992
393	1.488089	98365440	67776512	20986864	24992
394	2.262485	98365440	67776512	22984016	24992
395	2.911103	98365440	67776512	25640576	24992
396	3.690661	98365440	67776512	28957128	24992
397	5.124951	98365440	67776512	16508616	24992
398	5.12466	98365440	67776512	21143896	24992
399	5.825773	98365440	67776512	26438584	24992
400	7.118647	98365440	67776512	15969376	24992
401	7.682742	98365440	67776512	22583864	24992
402	0.769124	98365440	67776512	29837240	24992
403	2.004908	98365440	67776512	14742376	24992
404	2.211839	98365440	67776512	16739528	24992
405	2.924858	98365440	67776512	19396088	24992
406	3.684673	98365440	67776512	22712560	24992
407	4.496855	98365440	67776512	26689472	24992
408	5.631457	98365440	67776512	14898280	24992
409	6.043339	98365440	67776512	20192968	24992
410	6.712516	98365440	67776512	26148032	24992
411	7.829379	98365440	67776512	16342224	24992
412	0.824975	98365440	67776512	23595600	24992
413	1.486847	98365440	67776512	24933344	24992
414	2.207094	98365440	67776512	26930496	24992
415	2.917169	98365440	67776512	29587088	24992
416	4.404929	98365440	67776512	16479568	24992
417	4.365717	98365440	67776512	20455576	24992
418	5.106463	98365440	67776512	25090856	24992
419	5.791921	98365440	67776512	30385544	24992
420	7.397553	98365440	67776512	19921432	24992
421	7.270593	98365440	67776512	26535888	24992
422	0.791524	98365440	67776512	17356128	24992
423	1.526579	98365440	67776512	18693872	24992
424	2.242628	98365440	67776512	20691104	24992
425	3.004878	98365440	67776512	23347664	24992
426	3.681539	98365440	67776512	26664136	24992
427	4.580198	98365440	67776512	30640016	24992
428	5.882402	98365440	67776512	18846504	24992
429	5.790991	98365440	67776512	24141240	24992
430	6.698299	98365440	67776512	30096288	24992
431	8.165815	98365440	67776512	20297136	24992
432	0.775942	98365440	67776512	27551176	24992
433	1.483425	98365440	67776512	28888920	24992
434	2.415535	98365440	67776512	30886072	24992
435	3.522966	98365440	67776512	17110432	24992
436	3.706132	98365440	67776512	20426904	24992
437	4.474642	98365440	67776512	24402784	24992
438	5.071272	98365440	67776512	29038064	24992
439	6.629363	98365440	67776512	17902552	24992
440	6.503646	98365440	67776512	23857664	24992
441	7.416129	98365440	67776512	30472120	24992
442	0.774398	98365440	67776512	21299704	24992
443	1.551477	98365440	67776512	22637448	24992
444	2.195432	98365440	67776512	24634600	24992
445	2.916349	98365440	67776512	27291160	24992
446	3.631573	98365440	67776512	30607632	24992
447	5.208693	98365440	67776512	18157568	24992
448	5.056987	98365440	67776512	22792928	24992
449	5.996845	98365440	67776512	28087616	24992
450	7.172544	98365440	67776512	17616504	24992
451	7.70185	98365440	67776512	24230976	24992
452	0.788491	98365440	67776512	31484352	24992
453	2.113805	98365440	67776512	16387728	24992
454	2.211887	98365440	67776512	18384880	24992
455	2.918872	98365440	67776512	21041440	24992
456	3.64437	98365440	67776512	24357912	24992
457	4.34737	98365440	67776512	28333808	24992
458	5.754907	98365440	67776512	16541176	24992
459	6.014642	98365440	67776512	21835864	24992
460	6.533235	98365440	67776512	27790992	24992
461	8.131029	98365440	67776512	17984224	24992
462	0.772472	98365440	67776512	25237600	24992
463	1.498949	98365440	67776512	26575344	24992
464	2.192405	98365440	67776512	28572512	24992
465	2.913547	98365440	67776512	31229072	24992
466	4.358265	98365440	67776512	18121008	24992
467	4.353614	98365440	67776512	22096888	24992
468	5.069013	98365440	67776512	26732168	24992
469	6.499641	98365440	67776512	15596984	24992
470	6.725623	98365440	67776512	21552040	24992
471	7.255125	98365440	67776512	28166496	24992
472	0.777297	98365440	67776512	18986832	24992
473	1.485604	98365440	67776512	20324592	24992
474	2.207352	98365440	67776512	22321744	24992
475	3.130964	98365440	67776512	24978304	24992
476	3.847832	98365440	67776512	28294800	24992
477	5.027905	98365440	67776512	15844944	24992
478	5.065709	98365440	67776512	20480296	24992
479	5.769443	98365440	67776512	25775176	24992
480	6.724235	98365440	67776512	31730224	24992
481	7.942644	98365440	67776512	21930392	24992
482	0.773958	98365440	67776512	29183768	24992
483	1.501226	98365440	67776512	30521512	24992
484	2.909693	98365440	67776512	16090392	24992
485	2.928853	98365440	67776512	18746952	24992
486	3.660025	98365440	67776512	22063424	24992
487	4.346603	98365440	67776512	26039304	24992
488	5.284844	98365440	67776512	30674584	24992
489	6.515497	98365440	67776512	19539176	24992
490	6.720358	98365440	67776512	25494224	24992
491	8.2253	98365440	67776512	15678608	24992
492	0.771365	98365440	67776512	22931984	24992
493	1.49233	98365440	67776512	24269728	24992
494	2.218475	98365440	67776512	26266880	24992
495	2.916009	98365440	67776512	28923440	24992
496	4.372884	98365440	67776512	15805496	24992
497	4.582273	98365440	67776512	19781376	24992
498	5.050777	98365440	67776512	24416704	24992
499	5.991743	98365440	67776512	29711424	24992
500	7.366095	98365440	67776512	19248112	24992
501	7.673443	98365440	67776512	25862760	24992
502	0.794762	98365440	67776512	16683544	24992
503	1.485511	98365440	67776512	18021288	24992
504	2.207296	98365440	67776512	20018440	24992
505	2.911226	98365440	67776512	22675000	24992
506	3.840931	98365440	67776512	25991536	24992
507	4.408738	98365440	67776512	29967416	24992
508	5.867441	98365440	67776512	18174672	24992
509	6.016286	98365440	67776512	23469360	24992
510	6.543821	98365440	67776512	29424440	24992
511	8.388391	98365440	67776512	19625400	24992
512	0.78174	98365440	67776512	26878808	24992
513	1.723833	98365440	67776512	28216552	24992
514	2.199226	98365440	67776512	30213704	24992
515	3.736567	98365440	67776512	16438864	24992
516	3.872929	98365440	67776512	19755368	24992
517	4.34663	98365440	67776512	23731248	24992
518	5.322163	98365440	67776512	28366528	24992
519	6.642128	98365440	67776512	17231352	24992
520	6.564082	98365440	67776512	23186400	24992
521	7.215183	98365440	67776512	29800856	24992
522	0.792042	98365440	67776512	20628568	24992
523	1.530125	98365440	67776512	21966312	24992
524	2.238685	98365440	67776512	23963464	24992
525	3.175305	98365440	67776512	26620040	24992
526	3.865893	98365440	67776512	29936512	24992
527	5.209575	98365440	67776512	17486480	24992
528	5.166599	98365440	67776512	22121760	24992
529	5.840584	98365440	67776512	27416448	24992
530	7.613712	98365440	67776512	16945352	24992
531	7.439509	98365440	67776512	23559808	24992
532	0.767515	98365440	67776512	30813184	24992
533	1.48413	98365440	67776512	32150928	24992
534	3.056858	98365440	67776512	17719120	24992
535	2.966449	98365440	67776512	20375712	24992
536	3.626381	98365440	67776512	23692184	24992
537	4.557096	98365440	67776512	27668064	24992
538	5.054444	98365440	67776512	32303344	24992
539	6.919564	98365440	67776512	21180000	24992
540	6.475559	98365440	67776512	27135048	24992
541	8.29228	98365440	67776512	17323128	24992
542	0.775908	98365440	67776512	24576504	24992
543	1.549393	98365440	67776512	25914248	24992
544	2.194849	98365440	67776512	27911544	24992
545	2.916977	98365440	67776512	30568104	24992
546	4.51264	98365440	67776512	17450048	24992
547	4.560046	98365440	67776512	21425928	24992
548	5.109737	98365440	67776512	26061208	24992
549	5.986656	98365440	67776512	31355976	24992
550	7.690117	98365440	67776512	20892664	24992
551	7.42535	98365440	67776512	27507200	24992
552	0.773787	98365440	67776512	18327760	24992
553	1.557494	98365440	67776512	19665504	24992
554	2.20152	98365440	67776512	21662656	24992
555	2.919416	98365440	67776512	24319216	24992
556	3.639463	98365440	67776512	27642488	24992
557	4.343424	98365440	67776512	31618368	24992
558	6.006684	98365440	67776512	19832424	24992
559	6.004686	98365440	67776512	25127192	24992
560	6.715334	98365440	67776512	31082256	24992
561	8.188071	98365440	67776512	21289904	24992
562	0.770812	98365440	67776512	28543280	24992
563	1.484948	98365440	67776512	29881024	24992
564	2.206233	98365440	67776512	31878176	24992
565	4.04689	98365440	67776512	18103336	24992
566	3.63723	98365440	67776512	21419856	24992
567	4.401342	98365440	67776512	25395736	24992
568	5.26816	98365440	67776512	30031016	24992
569	6.738875	98365440	67776512	18895728	24992
570	6.742741	98365440	67776512	24850776	24992
571	7.195401	98365440	67776512	31465280	24992
572	0.774177	98365440	67776512	22292864	24992
573	1.485106	98365440	67776512	23630608	24992
574	2.20273	98365440	67776512	25627760	24992
575	3.293825	98365440	67776512	28284320	24992
576	3.631354	98365440	67776512	31600792	24992
577	5.561414	98365440	67776512	19150792	24992
578	5.274229	98365440	67776512	23786072	24992
579	5.862661	98365440	67776512	29080760	24992
580	7.901132	98365440	67776512	18609872	24992
581	7.59607	98365440	67776512	25224328	24992
582	0.774351	98365440	67776512	32477704	24992
583	2.697472	98365440	67776512	17381752	24992
584	2.24693	98365440	67776512	19378904	24992
585	2.919354	98365440	67776512	22035496	24992
586	3.674562	98365440	67776512	25351968	24992
587	4.57778	98365440	67776512	29327848	24992
588	6.081315	98365440	67776512	17535328	24992
589	6.095607	98365440	67776512	22830016	24992
590	6.581599	98365440	67776512	28785064	24992
591	8.430853	98365440	67776512	18978296	24992
592	0.776105	98365440	67776512	26231704	24992
593	1.503793	98365440	67776512	27569448	24992
594	2.195129	98365440	67776512	29566600	24992
595	2.922245	98365440	67776512	32223160	24992
596	4.628154	98365440	67776512	19115752	24992
597	4.345237	98365440	67776512	23091632	24992
598	5.052021	98365440	67776512	27726944	24992
599	6.03482	98365440	67776512	33021680	24992
600	7.849105	98365440	67776512	22557680	24992
601	7.217965	98365440	67776512	29172520	24992
602	0.795815	98365440	67776512	19992840	24992
603	1.523971	98365440	67776512	21330584	24992
604	2.239197	98365440	67776512	23327736	24992
605	3.180919	98365440	67776512	25984296	24992
606	3.642398	98365440	67776512	29300768	24992
607	4.347673	98365440	67776512	33276648	24992
608	6.316924	98365440	67776512	21483216	24992
609	5.831092	98365440	67776512	26777904	24992
610	6.726173	98365440	67776512	32732952	24992
611	8.315686	98365440	67776512	22933800	24992
612	0.771898	98365440	67776512	30187176	24992
613	1.497907	98365440	67776512	31524920	24992
614	2.434489	98365440	67776512	33522072	24992
615	3.984921	98365440	67776512	19746560	24992
616	3.711665	98365440	67776512	23063080	24992
617	4.63459	98365440	67776512	27038960	24992
618	5.127343	98365440	67776512	31674256	24992
619	6.915383	98365440	67776512	20538872	24992
620	6.507836	98365440	67776512	26493920	24992
621	7.436688	98365440	67776512	33108456	24992
622	0.792876	98365440	67776512	23935368	24992
623	1.486893	98365440	67776512	25273112	24992
624	2.213363	98365440	67776512	27270264	24992
625	2.914246	98365440	67776512	29926824	24992
626	3.628299	98365440	67776512	33243296	24992
627	5.450289	98365440	67776512	20792640	24992
628	5.0807	98365440	67776512	25427920	24992
629	6.054254	98365440	67776512	30722608	24992
630	7.578027	98365440	67776512	20251432	24992
631	7.437903	98365440	67776512	26865920	24992
632	1.851023	98365440	67776512	17681064	24992
633	1.500161	98365440	67776512	19018816	24992
634	2.210644	98365440	67776512	21015968	24992
635	2.904347	98365440	67776512	23672528	24992
636	3.863911	98365440	67776512	26989064	24992
637	4.348184	98365440	67776512	30964944	24992
638	6.411529	98365440	67776512	19172312	24992
639	5.76143	98365440	67776512	24467000	24992
640	6.972809	98365440	67776512	30422064	24992
641	8.451961	98365440	67776512	20628904	24992
642	0.77428	98365440	67776512	27882296	24992
643	1.496451	98365440	67776512	29220056	24992
644	2.200714	98365440	67776512	31217208	24992
645	3.141436	98365440	67776512	33873768	24992
646	4.74657	98365440	67776512	20766184	24992
647	4.351364	98365440	67776512	24742064	24992
648	5.359084	98365440	67776512	29377344	24992
649	7.103962	98365440	67776512	18242168	24992
650	6.528432	98365440	67776512	24197216	24992
651	7.43981	98365440	67776512	30811672	24992
652	0.776702	98365440	67776512	21632008	24992
653	1.545006	98365440	67776512	22969752	24992
654	2.20494	98365440	67776512	24966904	24992
655	2.916248	98365440	67776512	27623464	24992
656	3.622185	98365440	67776512	30939936	24992
657	5.792913	98365440	67776512	18489984	24992
658	5.148679	98365440	67776512	23125264	24992
659	5.983934	98365440	67776512	28419952	24992
660	7.661562	98365440	67776512	17949056	24992
661	7.206556	98365440	67776512	24563504	24992
662	0.769991	98365440	67776512	31816880	24992
663	1.48337	98365440	67776512	33154624	24992
664	3.410603	98365440	67776512	18723488	24992
665	2.939747	98365440	67776512	21380048	24992
666	3.855021	98365440	67776512	24696520	24992
667	4.353796	98365440	67776512	28672400	24992
668	5.108956	98365440	67776512	33307680	24992
669	7.037017	98365440	67776512	22185024	24992
670	6.730762	98365440	67776512	28140104	24992
671	8.645735	98365440	67776512	18328400	24992
672	0.771691	98365440	67776512	25581768	24992
673	1.483808	98365440	67776512	26919512	24992
674	2.195599	98365440	67776512	28916664	24992
675	2.980961	98365440	67776512	31573224	24992
676	4.867814	98365440	67776512	18455280	24992
677	4.359616	98365440	67776512	22431288	24992
678	5.270828	98365440	67776512	27066568	24992
679	5.781387	98365440	67776512	32361336	24992
680	7.944529	98365440	67776512	21898040	24992
681	7.252306	98365440	67776512	28512496	24992
682	0.784369	98365440	67776512	19333328	24992
683	1.492966	98365440	67776512	20671072	24992
684	2.422287	98365440	67776512	22668256	24992
685	2.922421	98365440	67776512	25324816	24992
686	3.623849	98365440	67776512	28641320	24992
687	4.604173	98365440	67776512	32617200	24992
688	6.513805	98365440	67776512	20824456	24992
689	6.256543	98365440	67776512	26119144	24992
690	6.81395	98365440	67776512	32074192	24992
691	8.744674	98365440	67776512	22275040	24992
692	0.785987	98365440	67776512	29528432	24992
693	1.531661	98365440	67776512	30866176	24992
694	2.248679	98365440	67776512	32863328	24992
695	4.272786	98365440	67776512	19088488	24992
696	4.079846	98365440	67776512	22404960	24992
697	4.521335	98365440	67776512	26380920	24992
698	5.072257	98365440	67776512	31016200	24992
699	7.069633	98365440	67776512	19881008	24992
700	6.765209	98365440	67776512	25836120	24992
701	7.295549	98365440	67776512	32450576	24992
702	0.779823	98365440	67776512	23278176	24992
703	1.497956	98365440	67776512	24615920	24992
704	2.195436	98365440	67776512	26613072	24992
705	3.126217	98365440	67776512	29269632	24992
706	3.69139	98365440	67776512	32586168	24992
707	5.608767	98365440	67776512	20136104	24992
708	5.183883	98365440	67776512	24771384	24992
709	5.78773	98365440	67776512	30066072	24992
710	8.028387	98365440	67776512	19594960	24992
711	7.445636	98365440	67776512	26209416	24992
712	0.769797	98365440	67776512	33462824	24992
713	1.488728	98365440	67776512	34800568	24992
714	3.529975	98365440	67776512	20368760	24992
715	2.925598	98365440	67776512	23025320	24992
716	3.632306	98365440	67776512	26341792	24992
717	4.57031	98365440	67776512	30317672	24992
718	5.061067	98365440	67776512	34952952	24992
719	7.329274	98365440	67776512	23828072	24992
720	6.737292	98365440	67776512	29783120	24992
721	8.735866	98365440	67776512	19971288	24992
722	0.77334	98365440	67776512	27224664	24992
723	1.484723	98365440	67776512	28562408	24992
724	2.208133	98365440	67776512	30559560	24992
725	2.960439	98365440	67776512	33216120	24992
726	5.178279	98365440	67776512	20099624	24992
727	4.44879	98365440	67776512	24075504	24992
728	5.356408	98365440	67776512	28710784	24992
729	5.806294	98365440	67776512	34005472	24992
730	7.939132	98365440	67776512	23542144	24992
731	7.339838	98365440	67776512	30156600	24992
732	0.795689	98365440	67776512	20976936	24992
733	1.543797	98365440	67776512	22314680	24992
734	2.242348	98365440	67776512	24311832	24992
735	3.170279	98365440	67776512	26968392	24992
736	3.644627	98365440	67776512	30284992	24992
737	4.349668	98365440	67776512	34260872	24992
738	6.683022	98365440	67776512	22468128	24992
739	5.896276	98365440	67776512	27762816	24992
740	6.633698	98365440	67776512	33717864	24992
741	8.94117	98365440	67776512	23918728	24992
742	0.771132	98365440	67776512	31172104	24992
743	1.943241	98365440	67776512	32509848	24992
744	2.225616	98365440	67776512	34507016	24992
745	4.326213	98365440	67776512	20732176	24992
746	3.699174	98365440	67776512	24048648	24992
747	4.417647	98365440	67776512	28024544	24992
748	5.150537	98365440	67776512	32659824	24992
749	7.421247	98365440	67776512	21524536	24992
750	6.541598	98365440	67776512	27479648	24992
751	7.43918	98365440	67776512	34094104	24992
752	0.776571	98365440	67776512	24921704	24992
753	1.497631	98365440	67776512	26259448	24992
754	2.203145	98365440	67776512	28256648	24992
755	2.925498	98365440	67776512	30913472	24992
756	3.840944	98365440	67776512	34229952	24992
757	5.74757	98365440	67776512	21779872	24992
758	5.296132	98365440	67776512	26415152	24992
759	5.763451	98365440	67776512	31709840	24992
760	8.181461	98365440	67776512	21238712	24992
761	7.21894	98365440	67776512	27853168	24992
762	0.770591	98365440	67776512	35106560	24992
763	2.927405	98365440	67776512	20009920	24992
764	2.418615	98365440	67776512	22007072	24992
765	2.926681	98365440	67776512	24663632	24992
766	3.627815	98365440	67776512	27980104	24992
767	4.339057	98365440	67776512	31955984	24992
768	6.940887	98365440	67776512	20163464	24992
769	6.017878	98365440	67776512	25458200	24992
770	6.509646	98365440	67776512	31413248	24992
771	8.966448	98365440	67776512	21606480	24992
772	0.969968	98365440	67776512	28859856	24992
773	1.507989	98365440	67776512	30197600	24992
774	2.202979	98365440	67776512	32194752	24992
775	2.902727	98365440	67776512	34851312	24992
776	5.276668	98365440	67776512	21743904	24992
777	4.37529	98365440	67776512	25719784	24992
778	5.059404	98365440	67776512	30355064	24992
779	5.990409	98365440	67776512	35649752	24992
780	7.999891	98365440	67776512	25185752	24992
781	7.21941	98365440	67776512	31800208	24992
782	0.819839	98365440	67776512	22620544	24992
783	1.570013	98365440	67776512	23958288	24992
784	2.300151	98365440	67776512	25955440	24992
785	3.664174	98365440	67776512	28612288	24992
786	4.083814	98365440	67776512	31938848	24992
787	4.578427	98365440	67776512	35914728	24992
788	6.784289	98365440	67776512	24117904	24992
789	5.787893	98365440	67776512	29412704	24992
790	6.721215	98365440	67776512	35367752	24992
791	8.97777	98365440	67776512	25568424	24992
792	0.771293	98365440	67776512	32821800	24992
793	1.49261	98365440	67776512	34159544	24992
794	3.882803	98365440	67776512	19722520	24992
795	2.927545	98365440	67776512	22379072	24992
796	3.642325	98365440	67776512	25695544	24992
797	4.567455	98365440	67776512	29671520	24992
798	5.055538	98365440	67776512	34306800	24992
799	7.319475	98365440	67776512	23171472	24992
800	6.843121	98365440	67776512	29126536	24992
801	7.682133	98365440	67776512	35740992	24992
802	0.778096	98365440	67776512	26574376	24992
803	1.502455	98365440	67776512	27912120	24992
804	2.200716	98365440	67776512	29909336	24992
805	2.924601	98365440	67776512	32565896	24992
806	3.846945	98365440	67776512	35882464	24992
807	6.093057	98365440	67776512	23431712	24992
808	5.278356	98365440	67776512	28066992	24992
809	5.834056	98365440	67776512	33361680	24992
810	8.088238	98365440	67776512	22890456	24992
811	7.384742	98365440	67776512	29504944	24992
812	2.332699	98365440	67776512	20320056	24992
813	1.540638	98365440	67776512	21657872	24992
814	2.458935	98365440	67776512	23655024	24992
815	3.208477	98365440	67776512	26311584	24992
816	3.629062	98365440	67776512	29628056	24992
817	4.34336	98365440	67776512	33603984	24992
818	6.635666	98365440	67776512	21811352	24992
819	6.022262	98365440	67776512	27106040	24992
820	6.533307	98365440	67776512	33061168	24992
821	9.045308	98365440	67776512	23258624	24992
822	0.777449	98365440	67776512	30512000	24992
823	1.485794	98365440	67776512	31849744	24992
824	2.247137	98365440	67776512	33846896	24992
825	4.460316	98365440	67776512	20072136	24992
826	3.867962	98365440	67776512	23388608	24992
827	4.347853	98365440	67776512	27364488	24992
828	5.051581	98365440	67776512	31999768	24992
829	7.588468	98365440	67776512	20864576	24992
830	6.51583	98365440	67776512	26819624	24992
831	7.237146	98365440	67776512	33434080	24992
832	0.775863	98365440	67776512	24261872	24992
833	1.488526	98365440	67776512	25599616	24992
834	2.197369	98365440	67776512	27596768	24992
835	3.13303	98365440	67776512	30253328	24992
836	3.632972	98365440	67776512	33569800	24992
837	5.953493	98365440	67776512	21119848	24992
838	5.086843	98365440	67776512	25755144	24992
839	6.059574	98365440	67776512	31049848	24992
840	8.41903	98365440	67776512	20578952	24992
841	7.542322	98365440	67776512	27193624	24992
842	0.77228	98365440	67776512	34447000	24992
843	1.484716	98365440	67776512	35784744	24992
844	4.049535	98365440	67776512	21353608	24992
845	2.936633	98365440	67776512	24010168	24992
846	3.631875	98365440	67776512	27326640	24992
847	4.358813	98365440	67776512	31302520	24992
848	5.111481	98365440	67776512	35937800	24992
849	7.670765	98365440	67776512	24815144	24992
850	6.506372	98365440	67776512	30780528	24992
851	9.07199	98365440	67776512	20982112	24992
852	0.780479	98365440	67776512	28235520	24992
853	1.492091	98365440	67776512	29573264	24992
854	2.194911	98365440	67776512	31570416	24992
855	2.961015	98365440	67776512	34226976	24992
856	5.525688	98365440	67776512	21119312	24992
857	4.421994	98365440	67776512	25095192	24992
858	5.285922	98365440	67776512	29730472	24992
859	5.805058	98365440	67776512	35025160	24992
860	8.172992	98365440	67776512	24561832	24992
861	7.211348	98365440	67776512	31176320	24992
862	0.791875	98365440	67776512	21996976	24992
863	1.487007	98365440	67776512	23334720	24992
864	2.42029	98365440	67776512	25331872	24992
865	2.913959	98365440	67776512	27988432	24992
866	3.63455	98365440	67776512	31304904	24992
867	4.387865	98365440	67776512	35280832	24992
868	6.979125	98365440	67776512	23488088	24992
869	5.806299	98365440	67776512	28782776	24992
870	6.495673	98365440	67776512	34737936	24992
871	9.151281	98365440	67776512	24938784	24992
872	0.999771	98365440	67776512	32192160	24992
873	1.488572	98365440	67776512	33529904	24992
874	2.214233	98365440	67776512	35527056	24992
875	4.617517	98365440	67776512	21752216	24992
876	3.645175	98365440	67776512	25068688	24992
877	4.354871	98365440	67776512	29044632	24992
878	5.170009	98365440	67776512	33679912	24992
879	7.806693	98365440	67776512	22544736	24992
880	6.813145	98365440	67776512	28499784	24992
881	7.220889	98365440	67776512	35114240	24992
882	0.779222	98365440	67776512	25941888	24992
883	1.496741	98365440	67776512	27279632	24992
884	2.201844	98365440	67776512	29276784	24992
885	3.186042	98365440	67776512	31933344	24992
886	3.631169	98365440	67776512	35249816	24992
887	6.288866	98365440	67776512	22799736	24992
888	5.320584	98365440	67776512	27435016	24992
889	6.11917	98365440	67776512	32731376	24992
890	8.385484	98365440	67776512	22260248	24992
891	7.449324	98365440	67776512	28874960	24992
892	0.769467	98365440	67776512	36128336	24992
893	3.442177	98365440	67776512	21032384	24992
894	2.223661	98365440	67776512	23029536	24992
895	2.913587	98365440	67776512	25686096	24992
896	3.683872	98365440	67776512	29002568	24992
897	4.403424	98365440	67776512	32978448	24992
898	6.886926	98365440	67776512	21185928	24992
899	6.021696	98365440	67776512	26480616	24992
900	6.495266	98365440	67776512	32435664	24992
901	9.278972	98365440	67776512	22628896	24992
902	0.788596	98365440	67776512	29882272	24992
903	1.486659	98365440	67776512	31220016	24992
904	2.200496	98365440	67776512	33217168	24992
905	2.916234	98365440	67776512	35873728	24992
906	5.683053	98365440	67776512	22766368	24992
907	4.432559	98365440	67776512	26742248	24992
908	5.349131	98365440	67776512	31377528	24992
909	5.788887	98365440	67776512	36672216	24992
910	8.518085	98365440	67776512	26208904	24992
911	7.406932	98365440	67776512	32823360	24992
912	0.79583	98365440	67776512	23643696	24992
913	1.988662	98365440	67776512	24981456	24992
914	2.307002	98365440	67776512	26980672	24992
915	2.920052	98365440	67776512	29637232	24992
916	3.633039	98365440	67776512	32953704	24992
917	4.58478	98365440	67776512	36929616	24992
918	6.888487	98365440	67776512	25136552	24992
919	6.010347	98365440	67776512	30431240	24992
920	6.4932	98365440	67776512	36386304	24992
921	9.042013	98365440	67776512	26587536	24992
922	0.77896	98365440	67776512	33840912	24992
923	1.508259	98365440	67776512	35178656	24992
924	2.199737	98365440	67776512	37175808	24992
925	4.761022	98365440	67776512	23400280	24992
926	3.89999	98365440	67776512	26716752	24992
927	4.353228	98365440	67776512	30692632	24992
928	5.078924	98365440	67776512	35327912	24992
929	7.615771	98365440	67776512	24192528	24992
930	6.718401	98365440	67776512	30147576	24992
931	7.234799	98365440	67776512	36762032	24992
932	0.776468	98365440	67776512	27589632	24992
933	1.494592	98365440	67776512	28927392	24992
934	2.213441	98365440	67776512	30924544	24992
935	2.91242	98365440	67776512	33581104	24992
936	3.622319	98365440	67776512	36897576	24992
937	6.42276	98365440	67776512	24447496	24992
938	5.136465	98365440	67776512	29082920	24992
939	5.994173	98365440	67776512	34377608	24992
940	8.380777	98365440	67776512	23906480	24992
941	7.244714	98365440	67776512	30520936	24992
942	0.999815	98365440	67776512	37774312	24992
943	3.381888	98365440	67776512	22677672	24992
944	2.207143	98365440	67776512	24674824	24992
945	2.920815	98365440	67776512	27331384	24992
946	3.85984	98365440	67776512	30647856	24992
947	4.361238	98365440	67776512	34623736	24992
948	6.971368	98365440	67776512	22831216	24992
949	5.886026	98365440	67776512	28125904	24992
950	6.715792	98365440	67776512	34080952	24992
951	9.171817	98365440	67776512	24274184	24992
952	0.776072	98365440	67776512	31527560	24992
953	1.509888	98365440	67776512	32865304	24992
954	2.194587	98365440	67776512	34862456	24992
955	2.920645	98365440	67776512	37519032	24992
956	5.58093	98365440	67776512	24410984	24992
957	4.601082	98365440	67776512	28386864	24992
958	5.279691	98365440	67776512	33022176	24992
959	7.959867	98365440	67776512	21887024	24992
960	6.647672	98365440	67776512	27842080	24992
961	7.225896	98365440	67776512	34456568	24992
962	0.781742	98365440	67776512	25276888	24992
963	1.484882	98365440	67776512	26614632	24992
964	2.208696	98365440	67776512	28611784	24992
965	2.921127	98365440	67776512	31268344	24992
966	3.623563	98365440	67776512	34584816	24992
967	6.520318	98365440	67776512	22134968	24992
968	5.07808	98365440	67776512	26770240	24992
969	5.782964	98365440	67776512	32064928	24992
970	6.486143	98365440	67776512	38019976	24992
971	9.672372	98365440	67776512	28220208	24992
972	0.775177	98365440	67776512	35473616	24992
973	1.483639	98365440	67776512	36811360	24992
974	4.131058	98365440	67776512	22380312	24992
975	3.162943	98365440	67776512	25036864	24992
976	3.641591	98365440	67776512	28353352	24992
977	4.343564	98365440	67776512	32329232	24992
978	5.061721	98365440	67776512	36964512	24992
979	7.752619	98365440	67776512	25829104	24992
980	6.956465	98365440	67776512	31784152	24992
981	7.5036	98365440	67776512	38398624	24992
982	0.794462	98365440	67776512	29231640	24992
983	1.483884	98365440	67776512	30569480	24992
984	2.214112	98365440	67776512	32566632	24992
985	2.918966	98365440	67776512	35223192	24992
986	3.625719	98365440	67776512	38539664	24992
987	6.532901	98365440	67776512	26080696	24992
988	5.046367	98365440	67776512	30715976	24992
989	5.99478	98365440	67776512	36010664	24992
990	8.598393	98365440	67776512	25539632	24992
991	7.356668	98365440	67776512	32154088	24992
992	0.800692	98365440	67776512	22972592	24992
993	1.545189	98365440	67776512	24310336	24992
994	2.241534	98365440	67776512	26307488	24992
995	3.21168	98365440	67776512	28964080	24992
996	3.681211	98365440	67776512	32280552	24992
997	4.393166	98365440	67776512	36256432	24992
998	7.253409	98365440	67776512	24463688	24992
999	5.85456	98365440	67776512	29758376	24992
1000	6.747322	98365440	67776512	35713424	24992
