x	Duration	RSS	HeapTotal	HeapUsed	External
0	NA	98713600	68825088	10881768	24992
1	1.248445	98713600	68825088	11561856	24992
2	2.191574	98713600	68825088	12900264	24992
3	3.167419	98713600	68825088	14898096	24992
4	4.242592	98713600	68825088	17555416	24992
5	5.039388	98713600	68825088	20872840	24992
6	4.681474	98713600	68825088	24849800	24992
7	5.779982	98713600	68825088	13020192	24992
8	6.182719	98713600	68825088	18316280	24992
9	7.024911	98713600	68825088	24272904	24992
10	7.65607	98713600	68825088	14429872	24992
11	8.44442	98713600	68825088	21705624	24992
12	0.80596	98713600	68825088	13145960	24992
13	1.546535	98713600	68825088	14484224	24992
14	2.338178	98713600	68825088	16482040	24992
15	3.024428	98713600	68825088	19139424	24992
16	3.799465	98713600	68825088	22456928	24992
17	4.499088	98713600	68825088	26433952	24992
18	5.450247	98713600	68825088	14604160	24992
19	6.20074	98713600	68825088	19900680	24992
20	7.12893	98713600	68825088	25857368	24992
21	7.684156	98713600	68825088	16014424	24992
22	0.8046	98713600	68825088	23269872	24992
23	1.540553	98713600	68825088	24608136	24992
24	2.265425	98713600	68825088	26605952	24992
25	3.21711	98713600	68825088	12793672	24992
26	3.985702	98713600	68825088	16111144	24992
27	4.539421	98713600	68825088	20088200	24992
28	5.428441	98713600	68825088	24724832	24992
29	6.1785	98713600	68825088	13554208	24992
30	6.68094	98713600	68825088	19510896	24992
31	7.519207	98713600	68825088	26127136	24992
32	0.831764	98713600	68825088	16915224	24992
33	1.592254	98713600	68825088	18253488	24992
34	2.269734	98713600	68825088	20251304	24992
35	3.374303	98713600	68825088	22908688	24992
36	3.785317	98713600	68825088	26226240	24992
37	4.683912	98713600	68825088	13736512	24992
38	5.437045	98713600	68825088	18373096	24992
39	5.93518	98713600	68825088	23669248	24992
40	7.174603	98713600	68825088	13161912	24992
41	7.4709	98713600	68825088	19778184	24992
42	0.797851	98713600	68825088	27033632	24992
43	1.748294	98713600	68825088	11898712	24992
44	2.503745	98713600	68825088	13896608	24992
45	3.229584	98713600	68825088	16554664	24992
46	3.743691	98713600	68825088	19872136	24992
47	4.743119	98713600	68825088	23849192	24992
48	5.428705	98713600	68825088	12019848	24992
49	6.094857	98713600	68825088	17316000	24992
50	6.729509	98713600	68825088	23272688	24992
51	8.882015	98713600	68825088	13440688	24992
52	0.831969	98713600	68825088	20696152	24992
53	1.531131	98713600	68825088	22034416	24992
54	2.321557	98713600	68825088	24032248	24992
55	2.995345	98713600	68825088	26689632	24992
56	4.150696	98713600	68825088	13540824	24992
57	4.47688	98713600	68825088	17517848	24992
58	5.185893	98713600	68825088	22154432	24992
59	5.923647	98713600	68825088	27450584	24992
60	6.897911	98713600	68825088	16944480	24992
61	7.614489	98713600	68825088	23560736	24992
62	0.799368	98713600	68825088	14346440	24992
63	1.536873	98713600	68825088	15684704	24992
64	2.46935	98713600	68825088	17685216	24992
65	3.038919	98713600	68825088	20342600	24992
66	3.993365	98713600	68825088	23660072	24992
67	4.564016	98713600	68825088	27637176	24992
68	5.733546	98713600	68825088	15806624	24992
69	5.911241	98713600	68825088	21102776	24992
70	7.094981	98713600	68825088	27059496	24992
71	7.685503	98713600	68825088	17216552	24992
72	0.800131	98713600	68825088	24472032	24992
73	1.525921	98713600	68825088	25810296	24992
74	2.26292	98713600	68825088	27808112	24992
75	3.440303	98713600	68825088	13995168	24992
76	3.730329	98713600	68825088	17312688	24992
77	4.448745	98713600	68825088	21289712	24992
78	5.407876	98713600	68825088	25926296	24992
79	6.280254	98713600	68825088	14755912	24992
80	6.873443	98713600	68825088	20712792	24992
81	7.709303	98713600	68825088	27330296	24992
82	0.813048	98983936	68825088	18119040	24992
83	1.52904	98983936	68825088	19457216	24992
84	2.323098	98983936	68825088	21456096	24992
85	2.987096	98983936	68825088	24113408	24992
86	4.012011	98983936	68825088	27430808	24992
87	5.015312	98983936	68825088	14946016	24992
88	5.184535	98983936	68825088	19581888	24992
89	5.9734	98983936	68825088	24877248	24992
90	7.136157	98983936	68825088	14369992	24992
91	7.604882	98983936	68825088	20985280	24992
92	1.019566	98983936	68825088	11763968	24992
93	1.933768	98983936	68825088	13101912	24992
94	2.253304	98983936	68825088	15099336	24992
95	3.011292	98983936	68825088	17756248	24992
96	3.719119	98983936	68825088	21073168	24992
97	4.651273	98983936	68825088	25049560	24992
98	5.610792	98983936	68825088	13218640	24992
99	5.962061	98983936	68825088	18514000	24992
100	6.638871	98983936	68825088	24469800	24992
101	7.897572	98983936	68825088	14623560	24992
102	0.789511	98983936	68825088	21878040	24992
103	1.530046	98983936	68825088	23215976	24992
104	2.250535	98983936	68825088	25213400	24992
105	3.025095	98983936	68825088	27870312	24992
106	4.067446	98983936	68825088	14719776	24992
107	4.45101	98983936	68825088	18696216	24992
108	5.162801	98983936	68825088	23332088	24992
109	6.374185	98983936	68825088	12160696	24992
110	6.672484	98983936	68825088	18116528	24992
111	7.612463	98983936	68825088	24731816	24992
112	0.796481	98983936	68825088	15516112	24992
113	1.530286	98983936	68825088	16854048	24992
114	2.243302	98983936	68825088	18851472	24992
115	2.983098	98983936	68825088	21508384	24992
116	3.948659	98983936	68825088	24825320	24992
117	4.863829	98983936	68825088	12336752	24992
118	5.372293	98983936	68825088	16972624	24992
119	6.2667	98983936	68825088	22269944	24992
120	6.851945	98983936	68825088	28225744	24992
121	7.610124	98983936	68825088	18370056	24992
122	0.786498	98983936	68825088	25624456	24992
123	1.522592	98983936	68825088	26962392	24992
124	2.491487	98983936	68825088	12490104	24992
125	3.216067	98983936	68825088	15147016	24992
126	3.708008	98983936	68825088	18463920	24992
127	4.428041	98983936	68825088	22440312	24992
128	5.564888	98983936	68825088	27078288	24992
129	6.165892	98983936	68825088	15910216	24992
130	6.690547	98983936	68825088	21866144	24992
131	7.602245	98983936	68825088	12016016	24992
132	0.791029	98983936	68825088	19270328	24992
133	1.528587	98983936	68825088	20608264	24992
134	2.236367	98983936	68825088	22605944	24992
135	3.208542	98983936	68825088	25262856	24992
136	3.938727	98983936	68825088	12109496	24992
137	4.428708	98983936	68825088	16085880	24992
138	5.185364	98983936	68825088	20721752	24992
139	5.910129	98983936	68825088	26017112	24992
140	7.124121	98983936	68825088	15510304	24992
141	7.570856	98983936	68825088	22125592	24992
142	0.797882	98983936	68825088	12914008	24992
143	1.749595	98983936	68825088	14251944	24992
144	2.29882	98983936	68825088	16249368	24992
145	2.991262	98983936	68825088	18906280	24992
146	3.792411	98983936	68825088	22223184	24992
147	4.685747	98983936	68825088	26199624	24992
148	5.478607	98983936	68825088	14370432	24992
149	6.234673	98983936	68825088	19665792	24992
150	6.657677	98983936	68825088	25621640	24992
151	7.653342	98983936	68825088	15777360	24992
152	0.789849	98983936	68825088	23031680	24992
153	1.750107	98983936	68825088	24369616	24992
154	2.248047	98983936	68825088	26367056	24992
155	3.20264	98983936	68825088	12553920	24992
156	3.713257	98983936	68825088	15870824	24992
157	4.646493	98983936	68825088	19847216	24992
158	5.142232	98983936	68825088	24483088	24992
159	6.197628	98983936	68825088	13311704	24992
160	6.754882	98983936	68825088	19267504	24992
161	7.704888	98983936	68825088	25882792	24992
162	0.807802	98983936	68825088	16669704	24992
163	1.514668	98983936	68825088	18007640	24992
164	2.290653	98983936	68825088	20005064	24992
165	2.969188	98983936	68825088	22661976	24992
166	3.701866	98983936	68825088	25978880	24992
167	4.734323	98983936	68825088	13488464	24992
168	5.392729	98983936	68825088	18124336	24992
169	6.35795	98983936	68825088	23419696	24992
170	6.858548	98983936	68825088	12911464	24992
171	7.615228	98983936	68825088	19526752	24992
172	0.787171	98983936	68825088	26781072	24992
173	1.532263	98983936	68825088	28119008	24992
174	2.481177	98983936	68825088	13646104	24992
175	2.992341	98983936	68825088	16303048	24992
176	4.000246	98983936	68825088	19619952	24992
177	4.42237	98983936	68825088	23596344	24992
178	5.140786	98983936	68825088	28232216	24992
179	6.687882	98983936	68825088	17064088	24992
180	6.92534	98983936	68825088	23019888	24992
181	7.666722	98983936	68825088	13169576	24992
182	0.787488	98983936	68825088	20423912	24992
183	1.525207	98983936	68825088	21761848	24992
184	2.288458	98983936	68825088	23759272	24992
185	3.216432	98983936	68825088	26416184	24992
186	4.017347	98983936	68825088	13262704	24992
187	4.44462	98983936	68825088	17239096	24992
188	5.215279	98983936	68825088	21874968	24992
189	5.926072	98983936	68825088	27170328	24992
190	7.091698	98983936	68825088	16663600	24992
191	7.684689	98983936	68825088	23278904	24992
192	0.81395	98983936	68825088	14065136	24992
193	1.549546	98983936	68825088	15402896	24992
194	2.28155	98983936	68825088	17400112	24992
195	3.024158	98983936	68825088	20056776	24992
196	3.687819	98983936	68825088	23373272	24992
197	4.426906	98983936	68825088	27349168	24992
198	5.653711	98983936	68825088	15517568	24992
199	5.878864	98983936	68825088	20812272	24992
200	7.026885	98983936	68825088	26767336	24992
201	7.849946	98983936	68825088	16922160	24992
202	0.786745	98983936	68825088	24175584	24992
203	1.557887	98983936	68825088	25513344	24992
204	2.49387	98983936	68825088	27510512	24992
205	3.199349	98983936	68825088	13697040	24992
206	3.700457	98983936	68825088	17013528	24992
207	4.423353	98983936	68825088	20989424	24992
208	5.148923	98983936	68825088	25624720	24992
209	6.353117	98983936	68825088	14452568	24992
210	6.599733	98983936	68825088	20407680	24992
211	7.611434	98983936	68825088	27022152	24992
212	0.788437	98983936	68825088	17808072	24992
213	1.572172	98983936	68825088	19145832	24992
214	2.240119	98983936	68825088	21143048	24992
215	2.975233	98983936	68825088	23799624	24992
216	3.692569	98983936	68825088	27116192	24992
217	5.123478	98983936	68825088	14625264	24992
218	5.293445	98983936	68825088	19263576	24992
219	6.34409	98983936	68825088	24558264	24992
220	7.319845	98983936	68825088	14049584	24992
221	7.60179	98983936	68825088	20664088	24992
222	0.787211	98983936	68825088	27917480	24992
223	1.758236	98983936	68825088	12783128	24992
224	2.289034	98983936	68825088	14780272	24992
225	3.033631	98983936	68825088	17436832	24992
226	3.809826	98983936	68825088	20753304	24992
227	4.427753	98983936	68825088	24729184	24992
228	5.399595	98983936	68825088	12897784	24992
229	6.148208	98983936	68825088	18195344	24992
230	6.820941	98983936	68825088	24150440	24992
231	7.629895	98983936	68825088	14304208	24992
232	0.797757	98983936	68825088	21557584	24992
233	1.519246	98983936	68825088	22895328	24992
234	2.238062	98983936	68825088	24892512	24992
235	2.976173	98983936	68825088	27549072	24992
236	4.02641	98983936	68825088	14401720	24992
237	4.46899	98983936	68825088	18377600	24992
238	5.21571	98983936	68825088	23012880	24992
239	5.877235	98983936	68825088	28307568	24992
240	7.029561	98983936	68825088	17801600	24992
241	7.344041	98983936	68825088	24416072	24992
242	0.791853	98983936	68825088	15199384	24992
243	1.755875	98983936	68825088	16537128	24992
244	2.249711	98983936	68825088	18534280	24992
245	2.980307	98983936	68825088	21190840	24992
246	3.693841	98983936	68825088	24507312	24992
247	4.42876	98983936	68825088	28483240	24992
248	5.414564	98983936	68825088	16650936	24992
249	5.887876	98983936	68825088	21945624	24992
250	6.613676	98983936	68825088	27900672	24992
251	7.678356	98983936	68825088	18055432	24992
252	0.787044	98983936	68825088	25308808	24992
253	1.574628	98983936	68825088	26646552	24992
254	2.23863	98983936	68825088	28643720	24992
255	3.222419	98983936	68825088	14829544	24992
256	3.710881	98983936	68825088	18146032	24992
257	4.416273	98983936	68825088	22121912	24992
258	5.151523	98983936	68825088	26757192	24992
259	6.142703	98983936	68825088	15584912	24992
260	6.614792	98983936	68825088	21539960	24992
261	7.611384	98983936	68825088	28157024	24992
262	0.788205	98983936	68825088	18942912	24992
263	1.543197	98983936	68825088	20280656	24992
264	2.244386	98983936	68825088	22277808	24992
265	2.9809	98983936	68825088	24934368	24992
266	3.697962	98983936	68825088	28250840	24992
267	4.770341	98983936	68825088	15759880	24992
268	5.178988	98983936	68825088	20395160	24992
269	5.88616	98983936	68825088	25689848	24992
270	7.121342	98983936	68825088	15180816	24992
271	7.426678	98983936	68825088	21795272	24992
272	0.791437	98983936	68825088	29048680	24992
273	1.784562	98983936	68825088	13913280	24992
274	2.302159	98983936	68825088	15910480	24992
275	2.975959	98983936	68825088	18567040	24992
276	3.685745	98983936	68825088	21883592	24992
277	4.438472	98983936	68825088	25859472	24992
278	5.432162	98983936	68825088	14028064	24992
279	6.020594	98983936	68825088	19322752	24992
280	6.631585	98983936	68825088	25277800	24992
281	7.623017	98983936	68825088	15428720	24992
282	0.783086	98983936	68825088	22682096	24992
283	1.512855	98983936	68825088	24019840	24992
284	2.254706	98983936	68825088	26016992	24992
285	2.974445	98983936	68825088	28673552	24992
286	3.981941	98983936	68825088	15523272	24992
287	4.442936	98983936	68825088	19499152	24992
288	5.153734	98983936	68825088	24134432	24992
289	5.941194	98983936	68825088	29429120	24992
290	6.85569	98983936	68825088	18916104	24992
291	7.421272	98983936	68825088	25530560	24992
292	0.789034	98983936	68825088	16313888	24992
293	1.540057	98983936	68825088	17651632	24992
294	2.232856	98983936	68825088	19648800	24992
295	3.20838	98983936	68825088	22305360	24992
296	4.340519	98983936	68825088	25621928	24992
297	4.965324	98983936	68825088	13137312	24992
298	5.182305	98983936	68825088	17772584	24992
299	5.871862	98983936	68825088	23067272	24992
300	6.61328	98983936	68825088	29022320	24992
301	7.660078	98983936	68825088	19203704	24992
302	0.785471	98983936	68825088	26457096	24992
303	1.507678	98983936	68825088	27794840	24992
304	2.533929	98983936	68825088	13366096	24992
305	2.988459	98983936	68825088	16022648	24992
306	3.696458	98983936	68825088	19339120	24992
307	4.479136	98983936	68825088	23315032	24992
308	5.141694	98983936	68825088	27950312	24992
309	6.216886	98983936	68825088	16817704	24992
310	6.595765	98983936	68825088	22772800	24992
311	7.395977	98983936	68825088	29387256	24992
312	0.792752	98983936	68825088	20223408	24992
313	1.516474	98983936	68825088	21561152	24992
314	2.274613	98983936	68825088	23558304	24992
315	2.968267	98983936	68825088	26214896	24992
316	3.701856	98983936	68825088	29531368	24992
317	4.810248	98983936	68825088	17083416	24992
318	5.14796	98983936	68825088	21718696	24992
319	5.889042	98983936	68825088	27013384	24992
320	7.20463	98983936	68825088	16545488	24992
321	7.316329	98983936	68825088	23159944	24992
322	1.128671	98983936	68825088	13976632	24992
323	1.534115	98983936	68825088	15314376	24992
324	2.227405	98983936	68825088	17311528	24992
325	2.970954	98983936	68825088	19968088	24992
326	3.700147	98983936	68825088	23284560	24992
327	4.414461	98983936	68825088	27260440	24992
328	5.573432	98983936	68825088	15470496	24992
329	5.880611	98983936	68825088	20765248	24992
330	6.658414	98983936	68825088	26720296	24992
331	7.753224	98983936	68825088	16921592	24992
332	0.857244	98983936	68825088	24174968	24992
333	1.570033	98983936	68825088	25512712	24992
334	2.250075	98983936	68825088	27509864	24992
335	3.556698	98983936	68825088	13737408	24992
336	3.70684	98983936	68825088	17053880	24992
337	4.42729	98983936	68825088	21029760	24992
338	5.178555	98983936	68825088	25665040	24992
339	6.353148	98983936	68825088	14532648	24992
340	6.885762	98983936	68825088	20487712	24992
341	7.312967	98983936	68825088	27102168	24992
342	0.801252	98983936	68825088	17932264	24992
343	1.51124	98983936	68825088	19270008	24992
344	2.252666	98983936	68825088	21267160	24992
345	3.197997	98983936	68825088	23923720	24992
346	3.693126	98983936	68825088	27240256	24992
347	5.254405	98983936	68825088	14793104	24992
348	5.191913	98983936	68825088	19428384	24992
349	5.864097	98983936	68825088	24723072	24992
350	7.264588	98983936	68825088	14255504	24992
351	7.420023	98983936	68825088	20869968	24992
352	0.780102	98983936	68825088	28123344	24992
353	1.518726	98983936	68825088	29461088	24992
354	2.922657	98983936	68825088	15032352	24992
355	2.978682	98983936	68825088	17688912	24992
356	3.688634	98983936	68825088	21005384	24992
357	4.62533	98983936	68825088	24981280	24992
358	5.134691	98983936	68825088	29616560	24992
359	6.351605	98983936	68825088	18496432	24992
360	6.606621	98983936	68825088	24455976	24992
361	8.010623	98983936	68825088	14651416	24992
362	1.007514	98983936	68825088	21904792	24992
363	1.517903	98983936	68825088	23242536	24992
364	2.248298	98983936	68825088	25239688	24992
365	2.952677	98983936	68825088	27896264	24992
366	4.18265	98983936	68825088	14785040	24992
367	4.475809	98983936	68825088	18760952	24992
368	5.147603	98983936	68825088	23396232	24992
369	6.090631	98983936	68825088	28690920	24992
370	7.319219	98983936	68825088	18230808	24992
371	7.595552	98983936	68825088	24845264	24992
372	0.789262	98983936	68825088	15667808	24992
373	1.526329	98983936	68825088	17005552	24992
374	2.228185	98983936	68825088	19002736	24992
375	2.964915	98983936	68825088	21659296	24992
376	3.901842	98983936	68825088	24975768	24992
377	4.418742	98983936	68825088	28951648	24992
378	5.835849	98983936	68825088	17161736	24992
379	5.980911	98983936	68825088	22456488	24992
380	6.811887	98983936	68825088	28411536	24992
381	7.884143	98983936	68825088	18616128	24992
382	0.786832	98983936	68825088	25869504	24992
383	1.5103	98983936	68825088	27207248	24992
384	2.248047	98983936	68825088	29204400	24992
385	3.480069	98983936	68825088	15431944	24992
386	3.70159	98983936	68825088	18748416	24992
387	4.4789	98983936	68825088	22724296	24992
388	5.359356	98983936	68825088	27359576	24992
389	6.559999	98983936	68825088	16227200	24992
390	6.945707	98983936	68825088	22182280	24992
391	7.383589	98983936	68825088	28796736	24992
392	0.788701	98983936	68825088	19626704	24992
393	1.513261	98983936	68825088	20964448	24992
394	2.229721	98983936	68825088	22961600	24992
395	3.226714	98983936	68825088	25618160	24992
396	3.692231	98983936	68825088	28934664	24992
397	4.992528	98983936	68825088	16487384	24992
398	5.39648	98983936	68825088	21122664	24992
399	5.867336	98983936	68825088	26417352	24992
400	7.620508	98983936	68825088	15949552	24992
401	7.553474	98983936	68825088	22564008	24992
402	0.784079	98983936	68825088	29817384	24992
403	2.294438	98983936	68825088	14723400	24992
404	2.248484	98983936	68825088	16720552	24992
405	3.032968	98983936	68825088	19377112	24992
406	3.695613	98983936	68825088	22693584	24992
407	4.793737	98983936	68825088	26670528	24992
408	5.747289	98983936	68825088	14880568	24992
409	6.099517	98983936	68825088	20175256	24992
410	6.591712	98983936	68825088	26130384	24992
411	8.014247	98983936	68825088	16325984	24992
412	0.788655	98983936	68825088	23579360	24992
413	1.549612	98983936	68825088	24917104	24992
414	2.251967	98983936	68825088	26914288	24992
415	2.972159	98983936	68825088	29570952	24992
416	4.528059	98983936	68825088	16464672	24992
417	4.419515	98983936	68825088	20440552	24992
418	5.146118	98983936	68825088	25075832	24992
419	5.876909	98983936	68825088	30370520	24992
420	7.655204	98983936	68825088	19908504	24992
421	7.399295	98983936	68825088	26522960	24992
422	0.803724	98983936	68825088	17344232	24992
423	1.521311	98983936	68825088	18681984	24992
424	2.240265	98983936	68825088	20679136	24992
425	2.947019	98983936	68825088	23335696	24992
426	3.696571	98983936	68825088	26652168	24992
427	4.481459	98983936	68825088	30628048	24992
428	6.030712	98983936	68825088	18835736	24992
429	5.869471	98983936	68825088	24130520	24992
430	6.813446	98983936	68825088	30085568	24992
431	8.04686	98983936	68825088	20288000	24992
432	0.788832	98983936	68825088	27542040	24992
433	1.524224	98983936	68825088	28879784	24992
434	2.232908	98983936	68825088	30876936	24992
435	3.82882	98983936	68825088	17102352	24992
436	3.712507	98983936	68825088	20418824	24992
437	4.413081	98983936	68825088	24394704	24992
438	5.15767	98983936	68825088	29029984	24992
439	6.79193	98983936	68825088	17895704	24992
440	6.984026	98983936	68825088	23850752	24992
441	7.549077	98983936	68825088	30465208	24992
442	0.785395	98983936	68825088	21293848	24992
443	1.543736	98983936	68825088	22631592	24992
444	2.262239	98983936	68825088	24628744	24992
445	2.970102	98983936	68825088	27285304	24992
446	3.685305	98983936	68825088	30601776	24992
447	5.333573	98983936	68825088	18152928	24992
448	5.146419	98983936	68825088	22788208	24992
449	6.091408	98983936	68825088	28082896	24992
450	7.303641	98983936	68825088	17613192	24992
451	7.612254	98983936	68825088	24227696	24992
452	0.805686	98983936	68825088	31481072	24992
453	2.230993	98983936	68825088	16385328	24992
454	2.253889	98983936	68825088	18382480	24992
455	2.972032	98983936	68825088	21039040	24992
456	3.680517	98983936	68825088	24355512	24992
457	4.65649	98983936	68825088	28331408	24992
458	5.874798	98983936	68825088	16539864	24992
459	6.115969	98983936	68825088	21834552	24992
460	6.590909	98983936	68825088	27789600	24992
461	8.059415	98983936	68825088	17984240	24992
462	0.781639	98983936	68825088	25237776	24992
463	1.529954	98983936	68825088	26575520	24992
464	2.231119	98983936	68825088	28572672	24992
465	2.963039	98983936	68825088	31229232	24992
466	4.692772	98983936	68825088	18122384	24992
467	4.427992	98983936	68825088	22098264	24992
468	5.374055	98983936	68825088	26733544	24992
469	6.855181	98983936	68825088	15599592	24992
470	6.686137	98983936	68825088	21554648	24992
471	7.334392	98983936	68825088	28169136	24992
472	0.794346	98983936	68825088	18990336	24992
473	1.526518	98983936	68825088	20328096	24992
474	2.226569	98983936	68825088	22325248	24992
475	3.19	98983936	68825088	24981808	24992
476	3.703607	98983936	68825088	28298280	24992
477	5.193382	98983936	68825088	15849680	24992
478	5.290601	98983936	68825088	20484952	24992
479	5.87367	98983936	68825088	25779824	24992
480	6.825344	98983936	68825088	31734880	24992
481	8.340699	98983936	68825088	21936632	24992
482	0.784448	98983936	68825088	29190008	24992
483	1.512519	98983936	68825088	30527752	24992
484	3.015635	98983936	68825088	16097688	24992
485	2.990963	98983936	68825088	18754248	24992
486	3.68586	98983936	68825088	22070720	24992
487	4.754035	98983936	68825088	26046600	24992
488	5.191631	98983936	68825088	30681880	24992
489	7.486917	98983936	68825088	19547704	24992
490	6.710545	98983936	68825088	25502752	24992
491	7.542334	98983936	68825088	32117208	24992
492	0.785891	98983936	68825088	22944576	24992
493	1.510615	98983936	68825088	24282320	24992
494	2.248988	98983936	68825088	26279472	24992
495	2.965008	98983936	68825088	28936032	24992
496	4.501066	98983936	68825088	15819144	24992
497	4.429217	98983936	68825088	19795024	24992
498	5.130083	98983936	68825088	24430320	24992
499	6.108037	98983936	68825088	29725040	24992
500	7.661309	98983936	68825088	19261776	24992
501	7.386588	98983936	68825088	25876248	24992
502	0.794183	98983936	68825088	16697912	24992
503	1.513674	98983936	68825088	18035656	24992
504	2.308679	98983936	68825088	20032808	24992
505	2.957647	98983936	68825088	22689368	24992
506	3.706465	98983936	68825088	26005840	24992
507	4.414752	98983936	68825088	29981720	24992
508	6.246481	98983936	68825088	18190208	24992
509	5.886236	98983936	68825088	23484896	24992
510	6.883157	98983936	68825088	29440040	24992
511	9.141848	98983936	68825088	19647400	24992
512	0.793674	98983936	68825088	26900792	24992
513	1.511627	98983936	68825088	28238536	24992
514	2.2578	98983936	68825088	30235688	24992
515	3.817209	98983936	68825088	16462272	24992
516	3.702893	98983936	68825088	19778760	24992
517	4.639305	98983936	68825088	23754640	24992
518	5.363415	98983936	68825088	28389920	24992
519	6.970546	98983936	68825088	17255976	24992
520	6.600677	98983936	68825088	23211024	24992
521	7.331787	98983936	68825088	29825512	24992
522	0.992486	98983936	68825088	20654280	24992
523	1.533366	98983936	68825088	21992024	24992
524	2.244682	98983936	68825088	23989176	24992
525	2.955596	98983936	68825088	26645736	24992
526	3.684282	98983936	68825088	29962208	24992
527	5.552794	98983936	68825088	17513424	24992
528	5.148113	98983936	68825088	22148704	24992
529	5.931485	98983936	68825088	27443392	24992
530	7.515014	98983936	68825088	16973784	24992
531	7.54883	98983936	68825088	23588240	24992
532	0.779415	98983936	68825088	30841616	24992
533	1.530876	98983936	68825088	32179360	24992
534	3.158481	98983936	68825088	17748608	24992
535	2.972477	98983936	68825088	20405280	24992
536	3.738066	98983936	68825088	23721752	24992
537	4.41705	98983936	68825088	27697632	24992
538	5.335827	98983936	68825088	32332912	24992
539	6.826425	98983936	68825088	21210976	24992
540	6.817129	98983936	68825088	27166024	24992
541	8.4956	98983936	68825088	17355336	24992
542	0.781791	98983936	68825088	24608728	24992
543	1.527473	98983936	68825088	25946472	24992
544	2.230043	98983936	68825088	27943624	24992
545	3.184452	98983936	68825088	30600184	24992
546	4.632892	98983936	68825088	17483184	24992
547	4.417649	98983936	68825088	21459064	24992
548	5.383679	98983936	68825088	26094408	24992
549	5.919187	98983936	68825088	31389112	24992
550	7.778402	98983936	68825088	20927208	24992
551	7.551347	98983936	68825088	27541680	24992
552	0.786961	98983936	68825088	18363120	24992
553	1.527033	98983936	68825088	19700864	24992
554	2.236055	98983936	68825088	21698016	24992
555	2.97193	98983936	68825088	24354576	24992
556	3.683767	98983936	68825088	27677848	24992
557	4.643465	98983936	68825088	31653728	24992
558	6.135557	98983936	68825088	19869128	24992
559	6.096714	98983936	68825088	25163816	24992
560	6.592406	98983936	68825088	31118960	24992
561	8.350751	98983936	68825088	21328192	24992
562	0.78655	98983936	68825088	28581680	24992
563	1.510895	98983936	68825088	29919424	24992
564	2.245926	98983936	68825088	31916576	24992
565	3.94217	98983936	68825088	18142792	24992
566	4.14532	98983936	68825088	21459328	24992
567	4.416165	98983936	68825088	25435208	24992
568	5.194915	98983936	68825088	30070488	24992
569	7.124725	98983936	68825088	18936432	24992
570	6.836852	98983936	68825088	24891480	24992
571	7.323049	98983936	68825088	31505952	24992
572	0.789081	98983936	68825088	22334592	24992
573	1.507216	98983936	68825088	23672336	24992
574	2.325768	98983936	68825088	25669488	24992
575	3.19664	98983936	68825088	28326048	24992
576	3.688214	98983936	68825088	31642520	24992
577	5.462348	98983936	68825088	19193672	24992
578	5.362717	98983936	68825088	23828952	24992
579	5.881077	98983936	68825088	29123640	24992
580	7.684256	98983936	68825088	18653968	24992
581	7.620824	98983936	68825088	25268424	24992
582	0.794782	98983936	68825088	32521800	24992
583	2.553663	98983936	68825088	17426728	24992
584	3.939651	98983936	68825088	19423880	24992
585	4.249468	98983936	68825088	22080456	24992
586	4.825125	98983936	68825088	25396960	24992
587	5.411569	98983936	68825088	29372840	24992
588	6.386424	98983936	68825088	17581552	24992
589	6.288551	98983936	68825088	22876240	24992
590	6.807812	98983936	68825088	28831288	24992
591	8.427964	98983936	68825088	19025928	24992
592	0.782424	98983936	68825088	26279384	24992
593	1.512979	98983936	68825088	27617128	24992
594	2.238548	98983936	68825088	29614280	24992
595	3.018661	98983936	68825088	32270840	24992
596	4.776532	98983936	68825088	19164664	24992
597	4.411661	98983936	68825088	23140544	24992
598	5.354648	98983936	68825088	27775824	24992
599	5.909559	98983936	68825088	33070544	24992
600	7.907756	98983936	68825088	22607952	24992
601	7.364854	98983936	68825088	29222648	24992
602	0.788248	98983936	68825088	20043928	24992
603	1.513509	98983936	68825088	21381672	24992
604	2.467972	98983936	68825088	23378824	24992
605	3.015939	98983936	68825088	26035384	24992
606	3.77238	98983936	68825088	29351856	24992
607	4.634272	98983936	68825088	33327736	24992
608	6.2953	98983936	68825088	21535536	24992
609	5.917063	98983936	68825088	26830224	24992
610	6.804115	98983936	68825088	32785272	24992
611	8.673727	98983936	68825088	22987704	24992
612	0.780525	98983936	68825088	30241080	24992
613	1.505644	98983936	68825088	31578824	24992
614	2.243222	98983936	68825088	33575976	24992
615	4.079196	98983936	68825088	19801520	24992
616	3.697104	98983936	68825088	23118008	24992
617	4.414666	98983936	68825088	27093888	24992
618	5.13421	98983936	68825088	31729216	24992
619	7.282944	98983936	68825088	20595080	24992
620	6.895418	98983936	68825088	26550128	24992
621	7.312402	98983936	68825088	33164680	24992
622	0.788272	98983936	68825088	23992648	24992
623	1.510602	98983936	68825088	25330392	24992
624	2.242016	98983936	68825088	27327544	24992
625	3.226139	98983936	68825088	29984104	24992
626	3.684123	98983936	68825088	33300576	24992
627	5.560218	98983936	68825088	20851152	24992
628	5.354797	98983936	68825088	25486432	24992
629	5.869577	98983936	68825088	30781120	24992
630	7.800087	98983936	68825088	20311368	24992
631	7.421076	98983936	68825088	26925824	24992
632	1.931225	98983936	68825088	17741688	24992
633	1.523773	98983936	68825088	19079440	24992
634	2.241148	98983936	68825088	21076640	24992
635	2.957868	98983936	68825088	23733280	24992
636	3.687481	98983936	68825088	27049752	24992
637	4.407198	98983936	68825088	31025632	24992
638	6.627195	98983936	68825088	19234232	24992
639	6.710139	98983936	68825088	24528936	24992
640	6.642563	98983936	68825088	30492728	24992
641	8.777082	98983936	68825088	20691880	24992
642	0.782834	98983936	68825088	27945592	24992
643	1.561053	98983936	68825088	29283384	24992
644	2.230818	98983936	68825088	31280536	24992
645	2.961514	98983936	68825088	33937096	24992
646	4.964415	98983936	68825088	20830248	24992
647	4.492284	98983936	68825088	24806128	24992
648	5.328789	98983936	68825088	29441520	24992
649	7.094749	98983936	68825088	18307608	24992
650	6.818121	98983936	68825088	24262656	24992
651	7.31755	98983936	68825088	30877112	24992
652	0.789334	98983936	68825088	21698328	24992
653	1.52108	98983936	68825088	23036072	24992
654	2.222341	98983936	68825088	25033224	24992
655	3.165196	98983936	68825088	27689784	24992
656	3.737717	98983936	68825088	31006256	24992
657	5.717107	98983936	68825088	18557536	24992
658	5.645733	98983936	68825088	23192816	24992
659	6.056025	98983936	68825088	28487504	24992
660	8.329865	98983936	68825088	18018016	24992
661	7.379163	98983936	68825088	24632464	24992
662	0.781286	98983936	68825088	31885840	24992
663	1.73111	98983936	68825088	33223584	24992
664	3.499606	98983936	68825088	18793504	24992
665	2.965029	98983936	68825088	21450064	24992
666	3.683661	98983936	68825088	24766536	24992
667	4.631971	98983936	68825088	28742416	24992
668	5.144861	98983936	68825088	33377696	24992
669	7.162146	98983936	68825088	22256496	24992
670	6.715462	98983936	68825088	28211544	24992
671	8.696041	98983936	68825088	18401104	24992
672	0.786317	98983936	68825088	25654472	24992
673	1.564044	98983936	68825088	26992216	24992
674	2.224605	98983936	68825088	28989368	24992
675	2.997615	98983936	68825088	31645928	24992
676	5.218001	98983936	68825088	18529040	24992
677	4.510537	98983936	68825088	22504936	24992
678	5.237323	98983936	68825088	27140216	24992
679	5.963311	98983936	68825088	32434904	24992
680	8.21913	98983936	68825088	21973016	24992
681	7.309899	98983936	68825088	28587472	24992
682	0.811973	98983936	68825088	19409136	24992
683	1.51465	98983936	68825088	20746880	24992
684	2.740576	98983936	68825088	22744032	24992
685	3.008305	98983936	68825088	25400592	24992
686	3.760994	98983936	68825088	28717080	24992
687	4.637437	98983936	68825088	32692960	24992
688	6.503482	98983936	68825088	20901448	24992
689	6.095643	98983936	68825088	26196136	24992
690	6.677943	98983936	68825088	32151184	24992
691	8.699125	98983936	68825088	22353648	24992
692	0.801921	98983936	68825088	29607104	24992
693	1.51006	98983936	68825088	30944848	24992
694	2.240632	98983936	68825088	32942000	24992
695	4.306627	98983936	68825088	19168216	24992
696	3.956813	98983936	68825088	22484688	24992
697	4.414085	98983936	68825088	26460568	24992
698	5.122215	98983936	68825088	31095848	24992
699	7.24217	98983936	68825088	19961888	24992
700	6.818722	98983936	68825088	25916936	24992
701	7.355662	98983936	68825088	32531392	24992
702	0.786952	98983936	68825088	23360048	24992
703	1.506235	98983936	68825088	24697792	24992
704	2.231611	98983936	68825088	26694944	24992
705	3.011952	98983936	68825088	29351536	24992
706	3.678473	98983936	68825088	32668008	24992
707	5.782136	98983936	68825088	20219176	24992
708	5.358203	98983936	68825088	24854456	24992
709	6.076486	98983936	68825088	30149144	24992
710	8.202085	98983936	68825088	19679440	24992
711	7.336446	98983936	68825088	26294176	24992
712	0.778748	98983936	68825088	33547544	24992
713	1.508023	98983936	68825088	34885288	24992
714	3.83508	98983936	68825088	20454536	24992
715	2.971415	98983936	68825088	23111096	24992
716	3.678638	98983936	68825088	26427568	24992
717	4.638859	98983936	68825088	30403448	24992
718	5.13457	98983936	68825088	35038728	24992
719	7.521278	98983936	68825088	23913400	24992
720	6.796948	98983936	68825088	29868448	24992
721	8.852652	98983936	68825088	20057528	24992
722	0.782713	98983936	68825088	27310904	24992
723	1.735601	98983936	68825088	28648648	24992
724	2.23356	98983936	68825088	30645800	24992
725	3.173278	98983936	68825088	33302360	24992
726	5.319949	98983936	68825088	20188936	24992
727	4.42195	98983936	68825088	24164816	24992
728	5.414551	98983936	68825088	28800096	24992
729	5.897956	98983936	68825088	34094784	24992
730	8.32158	98983936	68825088	23632976	24992
731	7.540151	98983936	68825088	30247432	24992
732	0.787397	98983936	68825088	21068648	24992
733	1.513403	98983936	68825088	22406392	24992
734	2.456089	98983936	68825088	24403544	24992
735	2.966047	98983936	68825088	27060104	24992
736	3.681819	98983936	68825088	30376656	24992
737	4.616958	98983936	68825088	34352536	24992
738	6.610828	98983936	68825088	22561024	24992
739	5.931746	98983936	68825088	27855712	24992
740	6.571244	98983936	68825088	33810760	24992
741	9.049769	98983936	68825088	24013192	24992
742	0.99565	98983936	68825088	31266584	24992
743	1.512168	98983936	68825088	32604328	24992
744	2.237659	98983936	68825088	34601480	24992
745	4.402627	98983936	68825088	20827696	24992
746	3.705596	98983936	68825088	24144168	24992
747	4.396767	98983936	68825088	28120048	24992
748	5.123702	98983936	68825088	32755328	24992
749	7.635482	98983936	68825088	21621272	24992
750	6.815271	98983936	68825088	27576384	24992
751	7.311042	98983936	68825088	34190840	24992
752	0.784443	98983936	68825088	25019480	24992
753	1.507457	98983936	68825088	26357224	24992
754	2.238088	98983936	68825088	28354376	24992
755	3.188075	98983936	68825088	31011000	24992
756	3.913553	98983936	68825088	34327472	24992
757	5.917985	98983936	68825088	21878624	24992
758	5.420195	98983936	68825088	26513904	24992
759	5.880762	98983936	68825088	31808592	24992
760	8.170037	98983936	68825088	21338872	24992
761	7.649654	98983936	68825088	27953328	24992
762	0.783365	98983936	68825088	35206728	24992
763	3.311797	98983936	68825088	20110976	24992
764	2.33833	98983936	68825088	22108128	24992
765	2.974687	98983936	68825088	24764688	24992
766	3.729421	98983936	68825088	28081160	24992
767	4.63474	98983936	68825088	32057040	24992
768	6.778685	98983936	68825088	20265816	24992
769	6.099219	98983936	68825088	25560504	24992
770	6.57068	98983936	68825088	31515552	24992
771	9.322956	98983936	68825088	21710192	24992
772	0.819452	98983936	68825088	28963568	24992
773	1.505224	98983936	68825088	30301312	24992
774	2.231398	98983936	68825088	32298464	24992
775	2.958921	98983936	68825088	34955024	24992
776	5.490341	98983936	68825088	21848848	24992
777	4.512886	98983936	68825088	25824728	24992
778	5.395938	98983936	68825088	30460008	24992
779	6.130134	98983936	68825088	35754696	24992
780	8.436555	98983936	68825088	25292104	24992
781	7.54315	98983936	68825088	31906560	24992
782	0.788207	98983936	68825088	22727776	24992
783	1.586771	98983936	68825088	24065520	24992
784	2.229821	98983936	68825088	26062672	24992
785	3.575073	98983936	68825088	28719576	24992
786	3.730229	98983936	68825088	32036128	24992
787	4.701062	98983936	68825088	36022016	24992
788	6.751807	98983936	68825088	24219816	24992
789	6.148364	98983936	68825088	29514504	24992
790	6.574963	98983936	68825088	35469552	24992
791	8.963301	98983936	68825088	25671984	24992
792	0.780997	98983936	68825088	32925360	24992
793	1.512661	98983936	68825088	34263104	24992
794	3.812592	98983936	68825088	19832432	24992
795	3.169381	98983936	68825088	22488984	24992
796	3.73426	98983936	68825088	25805456	24992
797	4.403705	98983936	68825088	29781384	24992
798	5.21868	98983936	68825088	34416664	24992
799	7.513053	98983936	68825088	23282488	24992
800	6.807618	98983936	68825088	29237616	24992
801	7.301369	98983936	68825088	35852072	24992
802	0.787354	98983936	68825088	26686656	24992
803	1.509461	98983936	68825088	28024400	24992
804	2.244026	98983936	68825088	30021552	24992
805	2.96276	98983936	68825088	32678200	24992
806	3.971128	98983936	68825088	35996304	24992
807	6.270211	98983936	68825088	23546784	24992
808	5.143836	98983936	68825088	28182064	24992
809	6.267785	98983936	68825088	33476752	24992
810	8.229286	98983936	68825088	23006936	24992
811	7.540973	98983936	68825088	29621392	24992
812	2.426194	98983936	68825088	20437208	24992
813	1.568055	98983936	68825088	21774960	24992
814	2.224053	98983936	68825088	23772112	24992
815	2.956063	98983936	68825088	26428672	24992
816	3.695761	98983936	68825088	29745144	24992
817	4.403577	98983936	68825088	33721024	24992
818	7.051762	98983936	68825088	21929624	24992
819	5.877529	98983936	68825088	27224344	24992
820	6.785716	98983936	68825088	33179392	24992
821	9.021445	98983936	68825088	23378480	24992
822	0.785791	98983936	68825088	30631856	24992
823	1.507934	98983936	68825088	31969600	24992
824	2.225564	98983936	68825088	33966752	24992
825	4.878581	98983936	68825088	20192968	24992
826	3.926977	98983936	68825088	23509440	24992
827	4.613133	98983936	68825088	27485320	24992
828	5.130607	98983936	68825088	32120600	24992
829	7.590464	98983936	68825088	20986640	24992
830	6.608343	98983936	68825088	26941688	24992
831	7.536567	98983936	68825088	33556144	24992
832	0.790146	98983936	68825088	24384912	24992
833	1.508216	98983936	68825088	25722656	24992
834	2.230377	98983936	68825088	27719808	24992
835	3.012684	98983936	68825088	30376368	24992
836	3.693363	98983936	68825088	33692840	24992
837	6.160963	98983936	68825088	21244120	24992
838	5.448252	98983936	68825088	25879416	24992
839	5.863916	98983936	68825088	31174168	24992
840	8.537457	98983936	68825088	20704680	24992
841	7.331732	98983936	68825088	27319144	24992
842	0.779036	98983936	68825088	34572520	24992
843	1.518614	98983936	68825088	35910264	24992
844	4.17518	98983936	68825088	21480184	24992
845	2.992077	98983936	68825088	24136744	24992
846	3.683896	98983936	68825088	27453216	24992
847	4.482971	98983936	68825088	31429112	24992
848	5.39605	98983936	68825088	36064408	24992
849	7.911423	98983936	68825088	24942472	24992
850	6.59002	98983936	68825088	30907952	24992
851	9.359132	98983936	68825088	21110416	24992
852	0.800902	98983936	68825088	28363792	24992
853	1.512437	98983936	68825088	29701536	24992
854	2.236743	98983936	68825088	31698688	24992
855	2.950998	98983936	68825088	34355248	24992
856	5.476912	98983936	68825088	21248640	24992
857	4.505489	98983936	68825088	25224520	24992
858	5.250645	98983936	68825088	29859800	24992
859	6.148949	98983936	68825088	35154488	24992
860	8.703044	98983936	68825088	24692568	24992
861	7.418169	98983936	68825088	31307024	24992
862	0.838478	98983936	68825088	22128544	24992
863	1.568786	98983936	68825088	23466384	24992
864	2.223387	98983936	68825088	25463536	24992
865	3.194019	98983936	68825088	28120096	24992
866	3.727652	98983936	68825088	31436568	24992
867	4.443253	98983936	68825088	35412448	24992
868	7.396649	98983936	68825088	23620936	24992
869	5.882831	98983936	68825088	28915720	24992
870	6.623636	98983936	68825088	34870768	24992
871	9.598112	98983936	68825088	25073200	24992
872	0.985107	98983936	68825088	32326576	24992
873	1.509768	98983936	68825088	33664320	24992
874	2.237934	98983936	68825088	35661472	24992
875	4.762742	98983936	68825088	21887688	24992
876	3.700898	98983936	68825088	25204160	24992
877	4.406267	98983936	68825088	29180040	24992
878	5.118008	98983936	68825088	33815320	24992
879	7.939562	98983936	68825088	22681376	24992
880	6.818112	98983936	68825088	28636424	24992
881	7.371134	98983936	68825088	35250880	24992
882	0.791445	98983936	68825088	26079456	24992
883	1.52335	98983936	68825088	27417200	24992
884	2.223847	98983936	68825088	29414352	24992
885	3.186384	98983936	68825088	32070912	24992
886	3.68845	98983936	68825088	35387384	24992
887	6.457529	98983936	68825088	22938536	24992
888	5.154696	98983936	68825088	27573832	24992
889	5.894865	98983936	68825088	32868552	24992
890	8.534239	98983936	68825088	22398896	24992
891	7.536109	98983936	68825088	29013416	24992
892	0.817927	98983936	68825088	36266792	24992
893	3.593978	98983936	68825088	21171720	24992
894	2.261002	98983936	68825088	23168872	24992
895	2.967411	98983936	68825088	25825432	24992
896	3.91893	98983936	68825088	29141904	24992
897	4.404913	98983936	68825088	33117896	24992
898	7.222667	98983936	68825088	21326608	24992
899	5.937246	98983936	68825088	26621296	24992
900	6.837623	98983936	68825088	32576344	24992
901	9.231283	98983936	68825088	22770984	24992
902	0.787867	98983936	68825088	30024392	24992
903	1.519262	98983936	68825088	31362136	24992
904	2.220515	98983936	68825088	33359352	24992
905	3.005918	98983936	68825088	36015912	24992
906	5.607376	98983936	68825088	22909816	24992
907	4.418406	98983936	68825088	26885696	24992
908	5.413942	98983936	68825088	31520976	24992
909	5.85155	98983936	68825088	36815664	24992
910	8.751906	98983936	68825088	26353824	24992
911	7.332761	98983936	68825088	32968280	24992
912	0.811442	98983936	68825088	23789528	24992
913	1.782561	98983936	68825088	25127976	24992
914	2.276812	98983936	68825088	27127384	24992
915	2.962925	98983936	68825088	29783944	24992
916	3.861517	98983936	68825088	33100416	24992
917	4.435973	98983936	68825088	37076296	24992
918	7.159291	98983936	68825088	25284464	24992
919	6.157325	98983936	68825088	30579248	24992
920	6.862903	98983936	68825088	36534296	24992
921	9.302003	98983936	68825088	26737096	24992
922	0.784827	98983936	68825088	33990472	24992
923	1.51297	98983936	68825088	35328216	24992
924	2.230454	98983936	68825088	37325368	24992
925	4.893028	98983936	68825088	23550928	24992
926	3.740293	98983936	68825088	26867400	24992
927	4.397545	98983936	68825088	30843280	24992
928	5.363444	98983936	68825088	35478560	24992
929	8.066354	98983936	68825088	24344392	24992
930	6.587703	98983936	68825088	30299440	24992
931	7.363036	98983936	68825088	36913896	24992
932	0.808351	98983936	68825088	27742568	24992
933	1.501706	98983936	68825088	29080312	24992
934	2.23156	98983936	68825088	31077464	24992
935	2.976076	98983936	68825088	33734024	24992
936	3.690552	98983936	68825088	37050496	24992
937	6.620434	98983936	68825088	24601648	24992
938	5.142088	98983936	68825088	29236976	24992
939	5.97814	98983936	68825088	34531696	24992
940	8.830114	98983936	68825088	24061992	24992
941	7.555276	98983936	68825088	30676448	24992
942	0.779652	98983936	68825088	37929824	24992
943	3.50349	98983936	68825088	22834080	24992
944	2.325133	98983936	68825088	24831232	24992
945	2.971256	98983936	68825088	27487792	24992
946	3.678547	98983936	68825088	30804264	24992
947	4.402577	98983936	68825088	34780144	24992
948	7.409947	98983936	68825088	22988856	24992
949	6.10938	98983936	68825088	28283544	24992
950	6.702595	98983936	68825088	34238592	24992
951	9.694093	98983936	68825088	24433232	24992
952	0.792769	98983936	68825088	31686720	24992
953	1.506983	98983936	68825088	33024464	24992
954	2.229732	98983936	68825088	35021616	24992
955	2.960544	98983936	68825088	37678176	24992
956	5.736761	98983936	68825088	24571344	24992
957	4.418157	98983936	68825088	28547224	24992
958	5.183505	98983936	68825088	33182504	24992
959	8.199295	98983936	68825088	22048552	24992
960	6.832135	98983936	68825088	28003608	24992
961	7.359602	98983936	68825088	34618064	24992
962	0.791654	98983936	68825088	25439264	24992
963	1.511211	98983936	68825088	26777008	24992
964	2.606186	98983936	68825088	28774160	24992
965	2.961453	98983936	68825088	31430720	24992
966	3.712564	98983936	68825088	34747192	24992
967	6.708103	98983936	68825088	22298608	24992
968	5.140392	98983936	68825088	26933880	24992
969	6.14354	98983936	68825088	32228568	24992
970	6.587791	98983936	68825088	38183616	24992
971	9.629004	98983936	68825088	28385368	24992
972	0.781045	98983936	68825088	35638744	24992
973	1.552992	98983936	68825088	36976488	24992
974	4.306897	98983936	68825088	22546416	24992
975	2.96064	98983936	68825088	25203080	24992
976	3.903681	98983936	68825088	28519552	24992
977	4.400376	98983936	68825088	32495432	24992
978	5.354558	98983936	68825088	37130712	24992
979	7.975872	98983936	68825088	25996536	24992
980	6.594818	98983936	68825088	31951584	24992
981	7.500032	98983936	68825088	38566040	24992
982	0.826	98983936	68825088	29396176	24992
983	1.588563	98983936	68825088	30733920	24992
984	2.587927	98983936	68825088	32731168	24992
985	2.96027	98983936	68825088	35387728	24992
986	5.790621	98983936	68825088	22270840	24992
987	4.64839	98983936	68825088	26246720	24992
988	5.361513	98983936	68825088	30882032	24992
989	6.067083	98983936	68825088	36176736	24992
990	8.726727	98983936	68825088	25711248	24992
991	7.374629	98983936	68825088	32325800	24992
992	0.793102	98983936	68825088	23147624	24992
993	1.508839	98983936	68825088	24485368	24992
994	2.232638	98983936	68825088	26482520	24992
995	3.173578	98983936	68825088	29139080	24992
996	3.690485	98983936	68825088	32455552	24992
997	4.400297	98983936	68825088	36431432	24992
998	7.350307	98983936	68825088	24639920	24992
999	5.877532	98983936	68825088	29934608	24992
1000	6.856258	98983936	68825088	35889880	24992
