x	Duration	RSS	HeapTotal	HeapUsed	External
0	NA	99237888	68300800	10880648	24992
1	1.211933	99237888	68300800	11560776	24992
2	2.046809	99237888	68300800	12899192	24992
3	2.674787	99237888	68300800	14896976	24992
4	3.006654	99237888	68300800	17554296	24992
5	3.713692	99237888	68300800	20871720	24992
6	4.830408	99237888	68300800	24848680	24992
7	5.385823	99237888	68300800	13020304	24992
8	6.184864	99237888	68300800	18316392	24992
9	6.549295	99237888	68300800	24273016	24992
10	7.570479	99237888	68300800	14430088	24992
11	8.202381	99237888	68300800	21705968	24992
12	0.792171	99237888	68300800	13146288	24992
13	1.519952	99237888	68300800	14484552	24992
14	2.465656	99237888	68300800	16482368	24992
15	2.951175	99237888	68300800	19139752	24992
16	3.720609	99237888	68300800	22457224	24992
17	5.262519	99237888	68300800	26436656	24992
18	5.351362	99237888	68300800	14607744	24992
19	6.05935	99237888	68300800	19904264	24992
20	6.549016	99237888	68300800	25860952	24992
21	7.714121	99237888	68300800	16018936	24992
22	0.784932	99237888	68300800	23274384	24992
23	1.570374	99237888	68300800	24612648	24992
24	2.227872	99237888	68300800	26610464	24992
25	3.164002	99237888	68300800	12799096	24992
26	3.677333	99237888	68300800	16116568	24992
27	4.604548	99237888	68300800	20093672	24992
28	5.117041	99237888	68300800	24730256	24992
29	6.271815	99237888	68300800	13560544	24992
30	6.79623	99237888	68300800	19517328	24992
31	7.304932	99237888	68300800	26133568	24992
32	1.036724	99237888	68300800	16922520	24992
33	1.514439	99237888	68300800	18260784	24992
34	2.239435	99237888	68300800	20258600	24992
35	2.943051	99237888	68300800	22915984	24992
36	3.689929	99237888	68300800	26233456	24992
37	4.911402	99237888	68300800	13744640	24992
38	5.238207	99237888	68300800	18381224	24992
39	5.948816	99237888	68300800	23677376	24992
40	6.820196	99237888	68300800	13170968	24992
41	7.561327	99237888	68300800	19787224	24992
42	0.785503	99237888	68300800	27042672	24992
43	1.723237	99237888	68300800	11908680	24992
44	2.234576	99237888	68300800	13906496	24992
45	2.945422	99237888	68300800	16564552	24992
46	3.717591	99237888	68300800	19882024	24992
47	4.390714	99237888	68300800	23859096	24992
48	5.323341	99237888	68300800	12030664	24992
49	6.049426	99237888	68300800	17326816	24992
50	6.565513	99237888	68300800	23283616	24992
51	8.668088	99237888	68300800	13438584	24992
52	0.794871	99237888	68300800	20708072	24992
53	1.502726	99237888	68300800	22046336	24992
54	2.217985	99237888	68300800	24044408	24992
55	3.161522	99237888	68300800	26701792	24992
56	4.151232	99237888	68300800	13552952	24992
57	4.437762	99237888	68300800	17529976	24992
58	5.306744	99237888	68300800	22166560	24992
59	5.93283	99237888	68300800	27463656	24992
60	6.969796	99237888	68300800	16957920	24992
61	7.282602	99237888	68300800	23574224	24992
62	0.801971	99237888	68300800	14360328	24992
63	1.532616	99237888	68300800	15698592	24992
64	2.462984	99237888	68300800	17699104	24992
65	3.029888	99237888	68300800	20356488	24992
66	3.653562	99237888	68300800	23673960	24992
67	4.364719	99237888	68300800	27651224	24992
68	5.53714	99237888	68300800	15820672	24992
69	5.815633	99237888	68300800	21116824	24992
70	6.733751	99237888	68300800	27073544	24992
71	7.460693	99237888	68300800	17230872	24992
72	0.780275	99237888	68300800	24486320	24992
73	1.553604	99237888	68300800	25824584	24992
74	2.212084	99237888	68300800	27822464	24992
75	3.360029	99237888	68300800	14009520	24992
76	3.654012	99237888	68300800	17327040	24992
77	4.419944	99237888	68300800	21304064	24992
78	5.156954	99237888	68300800	25940648	24992
79	6.019246	99237888	68300800	14770264	24992
80	6.981859	99237888	68300800	20727144	24992
81	7.669544	99237888	68300800	27344584	24992
82	0.788288	99237888	68300800	18133456	24992
83	1.508741	99237888	68300800	19471632	24992
84	2.250112	99237888	68300800	21470512	24992
85	2.976355	99237888	68300800	24127824	24992
86	3.63973	99237888	68300800	27445208	24992
87	5.232422	99237888	68300800	14960600	24992
88	5.147354	99237888	68300800	19596472	24992
89	6.237415	99237888	68300800	24891832	24992
90	6.849883	99237888	68300800	14384624	24992
91	7.554601	99237888	68300800	20999912	24992
92	0.996108	99237888	68300800	11778600	24992
93	1.731542	99237888	68300800	13116544	24992
94	2.214444	99237888	68300800	15114064	24992
95	2.926405	99237888	68300800	17770984	24992
96	3.871106	99237888	68300800	21087896	24992
97	4.564271	99237888	68300800	25064288	24992
98	5.355307	99237888	68300800	13233368	24992
99	5.88144	99237888	68300800	18528728	24992
100	6.521302	99237888	68300800	24484528	24992
101	7.975755	99237888	68300800	14638272	24992
102	0.777189	99237888	68300800	21892720	24992
103	1.4935	99237888	68300800	23230656	24992
104	2.217232	99237888	68300800	25228080	24992
105	2.922935	99237888	68300800	27884992	24992
106	4.280773	99237888	68300800	14734456	24992
107	4.439581	99237888	68300800	18710880	24992
108	5.088725	99237888	68300800	23346752	24992
109	6.248949	99237888	68300800	12175360	24992
110	6.517495	99237888	68300800	18131192	24992
111	7.59779	99237888	68300800	24746480	24992
112	0.778647	99237888	68300800	15530728	24992
113	1.509636	99237888	68300800	16868664	24992
114	2.206295	99237888	68300800	18866088	24992
115	2.927962	99237888	68300800	21523048	24992
116	3.920915	99237888	68300800	24839952	24992
117	4.822804	99237888	68300800	12351384	24992
118	5.073363	99237888	68300800	16987256	24992
119	6.559851	99237888	68300800	22284576	24992
120	6.628959	99237888	68300800	28240376	24992
121	7.894765	99237888	68300800	18385744	24992
122	0.77084	99237888	68300800	25640080	24992
123	1.486893	99237888	68300800	26978016	24992
124	2.460903	99237888	68300800	12505728	24992
125	2.990838	99237888	68300800	15162640	24992
126	3.835787	99237888	68300800	18479544	24992
127	4.417301	99237888	68300800	22456032	24992
128	5.465867	99237888	68300800	27094008	24992
129	6.152613	99237888	68300800	15925936	24992
130	7.013781	99237888	68300800	21881784	24992
131	7.456205	99237888	68300800	12031656	24992
132	0.789481	99237888	68300800	19285968	24992
133	1.532234	99237888	68300800	20623904	24992
134	2.242643	99237888	68300800	22621376	24992
135	3.166729	99237888	68300800	25278288	24992
136	3.876988	99237888	68300800	12124944	24992
137	4.450498	99237888	68300800	16101328	24992
138	5.323851	99237888	68300800	20737200	24992
139	5.771998	99237888	68300800	26032560	24992
140	6.832992	99237888	68300800	15525752	24992
141	7.337845	99237888	68300800	22141056	24992
142	0.784946	99237888	68300800	12929520	24992
143	1.48649	99237888	68300800	14267456	24992
144	2.194997	99237888	68300800	16264880	24992
145	3.128146	99237888	68300800	18921792	24992
146	3.624318	99237888	68300800	22238696	24992
147	4.479988	99237888	68300800	26216176	24992
148	5.389577	99237888	68300800	14386984	24992
149	5.893837	99237888	68300800	19682344	24992
150	6.753839	99237888	68300800	25638144	24992
151	7.734772	99237888	68300800	15793864	24992
152	0.770535	99237888	68300800	23048184	24992
153	1.491253	99237888	68300800	24386120	24992
154	2.213439	99237888	68300800	26383608	24992
155	3.140951	99237888	68300800	12570504	24992
156	3.869762	99237888	68300800	15887408	24992
157	4.539301	99237888	68300800	19863800	24992
158	5.061158	99237888	68300800	24499672	24992
159	6.038814	99237888	68300800	13328288	24992
160	6.728577	99237888	68300800	19284088	24992
161	7.218396	99237888	68300800	25899408	24992
162	0.790579	99237888	68300800	16686304	24992
163	1.515592	99237888	68300800	18024320	24992
164	2.44845	99237888	68300800	20021744	24992
165	2.923143	99237888	68300800	22678656	24992
166	3.675561	99237888	68300800	25995560	24992
167	4.806079	99237888	68300800	13505176	24992
168	5.065453	99237888	68300800	18141048	24992
169	5.770201	99237888	68300800	23436408	24992
170	6.761454	99237888	68300800	12928128	24992
171	7.529058	99237888	68300800	19543416	24992
172	0.772724	99237888	68300800	26797736	24992
173	1.714147	99237888	68300800	28135672	24992
174	2.459454	99237888	68300800	13662736	24992
175	2.930605	99237888	68300800	16319664	24992
176	3.622313	99237888	68300800	19636568	24992
177	4.352367	99237888	68300800	23612960	24992
178	5.114885	99237888	68300800	28248832	24992
179	6.528612	99237888	68300800	17080704	24992
180	6.514254	99237888	68300800	23036504	24992
181	7.858669	99237888	68300800	13186176	24992
182	1.007484	99237888	68300800	20440560	24992
183	1.499366	99237888	68300800	21778496	24992
184	2.206378	99237888	68300800	23775920	24992
185	2.909638	99237888	68300800	26432832	24992
186	3.898161	99237888	68300800	13279352	24992
187	4.589229	99237888	68300800	17255744	24992
188	5.072405	99237888	68300800	21891616	24992
189	5.764618	99237888	68300800	27186976	24992
190	6.856876	99237888	68300800	16680200	24992
191	7.428442	99237888	68300800	23295488	24992
192	0.775656	99237888	68300800	14079952	24992
193	1.493141	99237888	68300800	15417888	24992
194	2.206089	99237888	68300800	17415312	24992
195	2.921833	99237888	68300800	20072224	24992
196	3.612183	99237888	68300800	23389128	24992
197	4.582312	99237888	68300800	27365520	24992
198	5.366279	99237888	68300800	15534496	24992
199	5.99647	99237888	68300800	20829856	24992
200	6.474827	99237888	68300800	26785656	24992
201	7.552293	99237888	68300800	16941248	24992
202	0.773484	99237888	68300800	24195600	24992
203	1.491241	99237888	68300800	25533600	24992
204	2.198531	99237888	68300800	27531024	24992
205	3.136444	99237888	68300800	13717888	24992
206	3.854849	99237888	68300800	17034792	24992
207	4.575418	99237888	68300800	21011232	24992
208	5.0441	99237888	68300800	25647104	24992
209	7.139317	99237888	68300800	14476016	24992
210	6.870439	99237888	68300800	20446320	24992
211	7.21405	99237888	68300800	27061608	24992
212	0.786883	99237888	68300800	17848440	24992
213	1.485416	99237888	68300800	19186376	24992
214	2.204976	99237888	68300800	21183800	24992
215	2.956139	99237888	68300800	23840728	24992
216	3.670872	99237888	68300800	27157632	24992
217	4.629851	99237888	68300800	14667184	24992
218	5.436178	99237888	68300800	19303056	24992
219	6.071845	99237888	68300800	24598432	24992
220	7.441553	99237888	68300800	14093520	24992
221	7.355777	99237888	68300800	20708792	24992
222	0.773345	99237888	68300800	27963112	24992
223	1.738772	99237888	68300800	12828952	24992
224	2.211086	99237888	68300800	14826352	24992
225	2.970294	99237888	68300800	17483248	24992
226	3.638053	99237888	68300800	20800136	24992
227	4.352349	99237888	68300800	24776544	24992
228	5.520581	99237888	68300800	12945720	24992
229	5.803589	99237888	68300800	18243936	24992
230	6.703906	99237888	68300800	24199768	24992
231	7.890065	99237888	68300800	14354352	24992
232	0.770993	99237888	68300800	21608640	24992
233	1.540625	99237888	68300800	22946560	24992
234	2.191694	99237888	68300800	24943968	24992
235	3.152239	99237888	68300800	27600896	24992
236	3.948888	99237888	68300800	14453912	24992
237	4.425435	99237888	68300800	18430288	24992
238	5.284509	99237888	68300800	23066144	24992
239	5.852434	99237888	68300800	28361488	24992
240	7.338906	99237888	68300800	17857216	24992
241	7.483202	99237888	68300800	24472488	24992
242	0.781727	99237888	68300800	15258040	24992
243	1.492738	99237888	68300800	16595912	24992
244	2.409183	99237888	68300800	18593176	24992
245	3.131192	99237888	68300800	21249880	24992
246	3.616867	99237888	68300800	24566528	24992
247	4.555375	99237888	68300800	28542616	24992
248	5.369275	99237888	68300800	16710920	24992
249	6.110829	99237888	68300800	22005880	24992
250	6.477012	99237888	68300800	27961264	24992
251	7.505525	99237888	68300800	18116728	24992
252	0.772726	99237888	68300800	25370488	24992
253	1.736445	99237888	68300800	26708312	24992
254	2.194691	99237888	68300800	28705576	24992
255	3.18872	99237888	68300800	14891544	24992
256	3.68245	99237888	68300800	18208192	24992
257	4.566393	99237888	68300800	22184280	24992
258	5.27311	99237888	68300800	26819800	24992
259	6.32101	99237888	68300800	15647792	24992
260	6.532814	99237888	68300800	21603144	24992
261	7.399514	99237888	68300800	28217936	24992
262	0.793291	99237888	68300800	19004240	24992
263	1.491263	99237888	68300800	20342144	24992
264	2.206545	99237888	68300800	22339408	24992
265	2.905272	99237888	68300800	24996112	24992
266	3.616159	99237888	68300800	28312760	24992
267	4.826512	99237888	68300800	15822008	24992
268	5.061772	99237888	68300800	20457528	24992
269	5.986971	99237888	68300800	25752488	24992
270	6.774615	99237888	68300800	15243840	24992
271	7.357027	99237888	68300800	21858632	24992
272	0.798054	99237888	68300800	29112392	24992
273	1.74916	99237888	68300800	13977072	24992
274	2.250789	99237888	68300800	15974336	24992
275	2.99391	99237888	68300800	18631040	24992
276	3.639289	99237888	68300800	21947688	24992
277	4.564542	99237888	68300800	25923776	24992
278	5.329597	99237888	68300800	14092608	24992
279	5.936858	99237888	68300800	19387568	24992
280	6.547773	99237888	68300800	25342960	24992
281	7.739379	99237888	68300800	15494176	24992
282	0.771829	99237888	68300800	22747968	24992
283	1.495755	99237888	68300800	24085904	24992
284	2.196448	99237888	68300800	26083168	24992
285	2.91145	99237888	68300800	28739872	24992
286	3.953288	99237888	68300800	15589776	24992
287	4.352406	99237888	68300800	19565856	24992
288	5.329419	99237888	68300800	24204032	24992
289	5.996522	99237888	68300800	29498720	24992
290	6.722132	99237888	68300800	18981912	24992
291	7.509082	99237888	68300800	25596368	24992
292	0.780103	99237888	68300800	16379664	24992
293	1.515518	99237888	68300800	17717408	24992
294	2.240876	99237888	68300800	19714560	24992
295	2.952684	99237888	68300800	22371120	24992
296	3.855974	99237888	68300800	25687592	24992
297	6.948705	99237888	68300800	13205552	24992
298	5.325562	99237888	68300800	17840824	24992
299	5.849803	99237888	68300800	23135512	24992
300	6.674361	99237888	68300800	29090560	24992
301	7.569855	99237888	68300800	19271256	24992
302	0.766086	99237888	68300800	26524648	24992
303	1.496835	99237888	68300800	27862440	24992
304	2.448221	99237888	68300800	13432640	24992
305	3.149926	99237888	68300800	16089192	24992
306	3.627576	99237888	68300800	19405664	24992
307	4.324475	99237888	68300800	23381544	24992
308	5.514395	99237888	68300800	28016824	24992
309	6.12973	99237888	68300800	16882984	24992
310	6.573124	99237888	68300800	22838032	24992
311	7.41196	99237888	68300800	29452488	24992
312	0.795252	99237888	68300800	20287408	24992
313	1.482138	99237888	68300800	21625152	24992
314	2.410675	99237888	68300800	23622304	24992
315	2.898381	99237888	68300800	26278864	24992
316	3.659043	99237888	68300800	29595336	24992
317	4.74583	99237888	68300800	17146152	24992
318	5.098611	99237888	68300800	21781432	24992
319	5.784784	99237888	68300800	27076120	24992
320	7.084269	99237888	68300800	16606816	24992
321	7.54279	99237888	68300800	23221272	24992
322	1.108696	99237888	68300800	14037240	24992
323	1.521338	99237888	68300800	15374984	24992
324	2.253518	99237888	68300800	17372136	24992
325	2.915042	99237888	68300800	20028696	24992
326	3.61673	99237888	68300800	23345168	24992
327	4.554005	99237888	68300800	27321048	24992
328	5.442034	99237888	68300800	15529936	24992
329	6.086876	99237888	68300800	20824672	24992
330	6.457732	99237888	68300800	26779720	24992
331	7.637551	99237888	68300800	16979352	24992
332	0.771043	99237888	68300800	24232728	24992
333	1.713356	99237888	68300800	25570472	24992
334	2.19882	99237888	68300800	27567624	24992
335	3.254724	99237888	68300800	13794112	24992
336	3.702095	99237888	68300800	17110584	24992
337	4.584323	99237888	68300800	21086512	24992
338	5.060517	99237888	68300800	25721824	24992
339	6.205757	99237888	68300800	14588200	24992
340	6.517814	99237888	68300800	20543376	24992
341	7.395424	99237888	68300800	27157832	24992
342	0.991478	99237888	68300800	17986872	24992
343	1.48409	99237888	68300800	19324616	24992
344	2.189613	99237888	68300800	21321816	24992
345	3.158597	99237888	68300800	23980968	24992
346	3.610005	99237888	68300800	27297712	24992
347	4.727168	99237888	68300800	14849328	24992
348	5.046301	99237888	68300800	19484608	24992
349	5.958204	99237888	68300800	24779296	24992
350	6.871352	99237888	68300800	14310320	24992
351	7.450533	99237888	68300800	20924816	24992
352	0.765274	99237888	68300800	28178240	24992
353	1.480329	99237888	68300800	29515984	24992
354	2.624862	99237888	68300800	15086192	24992
355	2.972876	99237888	68300800	17742752	24992
356	3.897383	99237888	68300800	21059224	24992
357	4.345232	99237888	68300800	25035104	24992
358	5.072459	99237888	68300800	29670384	24992
359	6.683927	99237888	68300800	18548848	24992
360	6.50498	99237888	68300800	24508344	24992
361	7.663173	99237888	68300800	14702552	24992
362	0.771419	99237888	68300800	21955928	24992
363	1.489387	99237888	68300800	23293672	24992
364	2.184979	99237888	68300800	25290824	24992
365	2.908522	99237888	68300800	27947448	24992
366	4.497032	99237888	68300800	14835168	24992
367	4.418919	99237888	68300800	18811048	24992
368	5.382865	99237888	68300800	23446328	24992
369	5.756191	99237888	68300800	28741016	24992
370	7.202212	99237888	68300800	18279496	24992
371	7.175231	99237888	68300800	24893952	24992
372	0.77071	99237888	68300800	15715600	24992
373	1.479825	99237888	68300800	17053344	24992
374	2.209907	99237888	68300800	19050496	24992
375	3.103871	99237888	68300800	21707056	24992
376	3.628203	99237888	68300800	25023528	24992
377	4.324419	99237888	68300800	28999408	24992
378	5.760037	99237888	68300800	17208232	24992
379	5.756013	99237888	68300800	22502936	24992
380	6.77281	99237888	68300800	28457984	24992
381	7.813094	99237888	68300800	18661008	24992
382	0.769091	99237888	68300800	25914384	24992
383	1.488058	99237888	68300800	27252128	24992
384	2.187096	99237888	68300800	29249280	24992
385	3.6328	99237888	68300800	15475768	24992
386	3.698103	99237888	68300800	18792240	24992
387	4.406764	99237888	68300800	22768120	24992
388	5.304515	99237888	68300800	27403400	24992
389	6.251741	99237888	68300800	16269792	24992
390	6.523481	99237888	68300800	22224968	24992
391	7.363696	99237888	68300800	28839424	24992
392	0.790422	99237888	68300800	19668368	24992
393	1.48349	99237888	68300800	21006112	24992
394	2.430656	99237888	68300800	23003280	24992
395	2.967441	99237888	68300800	25659840	24992
396	3.62574	99237888	68300800	28976344	24992
397	5.150413	99237888	68300800	16527832	24992
398	5.08878	99237888	68300800	21163112	24992
399	5.783862	99237888	68300800	26457800	24992
400	7.117338	99237888	68300800	15988592	24992
401	7.516157	99237888	68300800	22603064	24992
402	0.770116	99237888	68300800	29856600	24992
403	2.231182	99237888	68300800	14761736	24992
404	2.245336	99237888	68300800	16758888	24992
405	2.961315	99237888	68300800	19415448	24992
406	3.698225	99237888	68300800	22731920	24992
407	4.422102	99237888	68300800	26707800	24992
408	5.873103	99237888	68300800	14917864	24992
409	6.29272	99237888	68300800	20212552	24992
410	6.557943	99237888	68300800	26167664	24992
411	8.04655	99237888	68300800	16362096	24992
412	0.765862	99237888	68300800	23615472	24992
413	1.479363	99237888	68300800	24953216	24992
414	2.242521	99237888	68300800	26950368	24992
415	2.919815	99237888	68300800	29606928	24992
416	4.445733	99237888	68300800	16499408	24992
417	4.377939	99237888	68300800	20475288	24992
418	5.024246	99237888	68300800	25110616	24992
419	5.993123	99237888	68300800	30405304	24992
420	7.182701	99237888	68300800	19941192	24992
421	7.260405	99237888	68300800	26555648	24992
422	0.775907	99237888	68300800	17375888	24992
423	1.500937	99237888	68300800	18713632	24992
424	2.191206	99237888	68300800	20710784	24992
425	2.904604	99237888	68300800	23367344	24992
426	3.840566	99237888	68300800	26683816	24992
427	4.329035	99237888	68300800	30659696	24992
428	5.715775	99237888	68300800	18866216	24992
429	5.864969	99237888	68300800	24160904	24992
430	6.800486	99237888	68300800	30115952	24992
431	7.963754	99237888	68300800	20316800	24992
432	0.777662	99237888	68300800	27570840	24992
433	1.485544	99237888	68300800	28908584	24992
434	2.205299	99237888	68300800	30905736	24992
435	3.555164	99237888	68300800	17130096	24992
436	3.707415	99237888	68300800	20446568	24992
437	4.420485	99237888	68300800	24422448	24992
438	5.328657	99237888	68300800	29057728	24992
439	6.443012	99237888	68300800	17922216	24992
440	6.786913	99237888	68300800	23877280	24992
441	7.171613	99237888	68300800	30491736	24992
442	0.788802	99237888	68300800	21319320	24992
443	1.531281	99237888	68300800	22657064	24992
444	2.231218	99237888	68300800	24654216	24992
445	3.155111	99237888	68300800	27310776	24992
446	3.614381	99237888	68300800	30627312	24992
447	5.024942	99237888	68300800	18177248	24992
448	5.293145	99237888	68300800	22812528	24992
449	5.749277	99237888	68300800	28107216	24992
450	7.173931	99237888	68300800	17636104	24992
451	7.518922	99237888	68300800	24250560	24992
452	0.767527	99237888	68300800	31503936	24992
453	2.155504	99237888	68300800	16407312	24992
454	2.440771	99237888	68300800	18404464	24992
455	2.907555	99237888	68300800	21061024	24992
456	3.624722	99237888	68300800	24377496	24992
457	4.319654	99237888	68300800	28353376	24992
458	5.73457	99237888	68300800	16560744	24992
459	6.281425	99237888	68300800	21855432	24992
460	6.515339	99237888	68300800	27810496	24992
461	8.093337	99237888	68300800	18003888	24992
462	0.76822	99237888	68300800	25257264	24992
463	1.538913	99237888	68300800	26595008	24992
464	2.197773	99237888	68300800	28592192	24992
465	2.917689	99237888	68300800	31248752	24992
466	4.349809	99237888	68300800	18140720	24992
467	4.615913	99237888	68300800	22116600	24992
468	5.059078	99237888	68300800	26751880	24992
469	6.677643	99237888	68300800	15616696	24992
470	6.490013	99237888	68300800	21571752	24992
471	7.241647	99237888	68300800	28186208	24992
472	0.774094	99237888	68300800	19006576	24992
473	1.48434	99237888	68300800	20344352	24992
474	2.192063	99237888	68300800	22341504	24992
475	2.899054	99237888	68300800	24998064	24992
476	3.924766	99237888	68300800	28314536	24992
477	5.080268	99237888	68300800	15864688	24992
478	5.351582	99237888	68300800	20499976	24992
479	6.107242	99237888	68300800	25794696	24992
480	6.491684	99237888	68300800	31749744	24992
481	8.276708	99237888	68300800	21949912	24992
482	0.779002	99237888	68300800	29203288	24992
483	1.478807	99237888	68300800	30541032	24992
484	3.11411	99237888	68300800	16109912	24992
485	2.914352	99237888	68300800	18766472	24992
486	3.826512	99237888	68300800	22082944	24992
487	4.328233	99237888	68300800	26058824	24992
488	5.248563	99237888	68300800	30694104	24992
489	6.571117	99237888	68300800	19558696	24992
490	6.581462	99237888	68300800	25513744	24992
491	8.143481	99237888	68300800	15702040	24992
492	0.768513	99237888	68300800	22955408	24992
493	1.537164	99237888	68300800	24293152	24992
494	2.189457	99237888	68300800	26290304	24992
495	3.176162	99237888	68300800	28947040	24992
496	4.436953	99237888	68300800	15829096	24992
497	4.424126	99237888	68300800	19804976	24992
498	5.304342	99237888	68300800	24440256	24992
499	5.809939	99237888	68300800	29734976	24992
500	7.618304	99237888	68300800	19271664	24992
501	7.671828	99237888	68300800	25886136	24992
502	0.78757	99237888	68300800	16706920	24992
503	1.513116	99237888	68300800	18044664	24992
504	2.427937	99237888	68300800	20041816	24992
505	2.957987	99237888	68300800	22698376	24992
506	3.612484	99237888	68300800	26014848	24992
507	4.318969	99237888	68300800	29990728	24992
508	6.086269	99237888	68300800	18197984	24992
509	5.990498	99237888	68300800	23492672	24992
510	6.465507	99237888	68300800	29447752	24992
511	8.237126	99237888	68300800	19648744	24992
512	0.808496	99237888	68300800	26902136	24992
513	1.495802	99237888	68300800	28239880	24992
514	2.198139	99237888	68300800	30237304	24992
515	3.733786	99237888	68300800	16462464	24992
516	3.665279	99237888	68300800	19779000	24992
517	4.557526	99237888	68300800	23754880	24992
518	5.075965	99237888	68300800	28390160	24992
519	6.871265	99237888	68300800	17254984	24992
520	6.459032	99237888	68300800	23210032	24992
521	7.224313	99237888	68300800	29824536	24992
522	0.772134	99237888	68300800	20652200	24992
523	1.490894	99237888	68300800	21989960	24992
524	2.187778	99237888	68300800	23987112	24992
525	2.901094	99237888	68300800	26643672	24992
526	3.83492	99237888	68300800	29960144	24992
527	5.206097	99237888	68300800	17510112	24992
528	5.131568	99237888	68300800	22145392	24992
529	5.900254	99237888	68300800	27440080	24992
530	7.691262	99237888	68300800	16969016	24992
531	7.331417	99237888	68300800	23583472	24992
532	0.772325	99237888	68300800	30836848	24992
533	1.487058	99237888	68300800	32174592	24992
534	3.105118	99237888	68300800	17742784	24992
535	3.00512	99237888	68300800	20399488	24992
536	3.637705	99237888	68300800	23715960	24992
537	4.329517	99237888	68300800	27691840	24992
538	5.253044	99237888	68300800	32327184	24992
539	6.77155	99237888	68300800	21203840	24992
540	6.680957	99237888	68300800	27158888	24992
541	8.097322	99237888	68300800	17346968	24992
542	0.772544	99237888	68300800	24600344	24992
543	1.479917	99237888	68300800	25938088	24992
544	2.183065	99237888	68300800	27935240	24992
545	3.130118	99237888	68300800	30591800	24992
546	4.530716	99237888	68300800	17473744	24992
547	4.414257	99237888	68300800	21449624	24992
548	5.262194	99237888	68300800	26084904	24992
549	5.747278	99237888	68300800	31379784	24992
550	7.559993	99237888	68300800	20916568	24992
551	7.505146	99237888	68300800	27531072	24992
552	0.785841	99237888	68300800	18351632	24992
553	1.729543	99237888	68300800	19689376	24992
554	2.186267	99237888	68300800	21686528	24992
555	2.908887	99237888	68300800	24343088	24992
556	3.606667	99237888	68300800	27666360	24992
557	4.36611	99237888	68300800	31642240	24992
558	6.282131	99237888	68300800	19856296	24992
559	6.079445	99237888	68300800	25150984	24992
560	6.473581	99237888	68300800	31106080	24992
561	8.34141	99237888	68300800	21313728	24992
562	0.769111	99237888	68300800	28567136	24992
563	1.47647	99237888	68300800	29904880	24992
564	2.205162	99237888	68300800	31902032	24992
565	3.857099	99237888	68300800	18127192	24992
566	3.908431	99237888	68300800	21443728	24992
567	4.370327	99237888	68300800	25419608	24992
568	5.02295	99237888	68300800	30054888	24992
569	6.94538	99237888	68300800	18919600	24992
570	6.470795	99237888	68300800	24874648	24992
571	7.205963	99237888	68300800	31489120	24992
572	0.781137	99237888	68300800	22316704	24992
573	1.481165	99237888	68300800	23654448	24992
574	2.18955	99237888	68300800	25651600	24992
575	2.899899	99237888	68300800	28308160	24992
576	3.827235	99237888	68300800	31624632	24992
577	5.35289	99237888	68300800	19174584	24992
578	5.117024	99237888	68300800	23809864	24992
579	5.837662	99237888	68300800	29104552	24992
580	7.77425	99237888	68300800	18633456	24992
581	7.518183	99237888	68300800	25247912	24992
582	0.770397	99237888	68300800	32501288	24992
583	2.479291	99237888	68300800	17405336	24992
584	2.246965	99237888	68300800	19402488	24992
585	2.967814	99237888	68300800	22059080	24992
586	3.686679	99237888	68300800	25375552	24992
587	4.457363	99237888	68300800	29351432	24992
588	6.321938	99237888	68300800	17558912	24992
589	5.86783	99237888	68300800	22853600	24992
590	6.876023	99237888	68300800	28808648	24992
591	8.535814	99237888	68300800	19001880	24992
592	0.768897	99237888	68300800	26255400	24992
593	1.709933	99237888	68300800	27593144	24992
594	2.185552	99237888	68300800	29590296	24992
595	2.952499	99237888	68300800	32246856	24992
596	4.669844	99237888	68300800	19139448	24992
597	4.556899	99237888	68300800	23115328	24992
598	5.058407	99237888	68300800	27750704	24992
599	5.766406	99237888	68300800	33045424	24992
600	7.616895	99237888	68300800	22581424	24992
601	7.402492	99237888	68300800	29195912	24992
602	0.773983	99237888	68300800	20016248	24992
603	1.479208	99237888	68300800	21353992	24992
604	2.195659	99237888	68300800	23351144	24992
605	2.90756	99237888	68300800	26007704	24992
606	3.651469	99237888	68300800	29324176	24992
607	4.569188	99237888	68300800	33300056	24992
608	6.094103	99237888	68300800	21506624	24992
609	5.990206	99237888	68300800	26801312	24992
610	6.451585	99237888	68300800	32756392	24992
611	8.493116	99237888	68300800	22957240	24992
612	0.776679	99237888	68300800	30210616	24992
613	1.527698	99237888	68300800	31548360	24992
614	2.19053	99237888	68300800	33545512	24992
615	4.206865	99237888	68300800	19770000	24992
616	3.642495	99237888	68300800	23086504	24992
617	4.326965	99237888	68300800	27062432	24992
618	5.308281	99237888	68300800	31697712	24992
619	6.817317	99237888	68300800	20562328	24992
620	6.462652	99237888	68300800	26517376	24992
621	7.173415	99237888	68300800	33131832	24992
622	0.775776	99237888	68300800	23958744	24992
623	1.494178	99237888	68300800	25296488	24992
624	2.197555	99237888	68300800	27293640	24992
625	3.133778	99237888	68300800	29950200	24992
626	3.60786	99237888	68300800	33266672	24992
627	5.484518	99237888	68300800	20815952	24992
628	5.122187	99237888	68300800	25451232	24992
629	5.749237	99237888	68300800	30745920	24992
630	8.063998	99237888	68300800	20274696	24992
631	7.401234	99237888	68300800	26889152	24992
632	1.875438	99237888	68300800	17704328	24992
633	1.579101	99237888	68300800	19042080	24992
634	2.189394	99237888	68300800	21039232	24992
635	2.94842	99237888	68300800	23695888	24992
636	3.660671	99237888	68300800	27012360	24992
637	4.55872	99237888	68300800	30988240	24992
638	6.300693	99237888	68300800	19195608	24992
639	8.085731	99237888	68300800	24499040	24992
640	6.473159	99237888	68300800	30454128	24992
641	8.513249	99237888	68300800	20651688	24992
642	0.779854	99237888	68300800	27905144	24992
643	1.480022	99237888	68300800	29242952	24992
644	2.186801	99237888	68300800	31240104	24992
645	2.895541	99237888	68300800	33896664	24992
646	5.028281	99237888	68300800	20788584	24992
647	4.428633	99237888	68300800	24764464	24992
648	5.175798	99237888	68300800	29399776	24992
649	6.928798	99237888	68300800	18264712	24992
650	6.712378	99237888	68300800	24219760	24992
651	7.191017	99237888	68300800	30834216	24992
652	0.79674	99237888	68300800	21654552	24992
653	1.509609	99237888	68300800	22992296	24992
654	2.476813	99237888	68300800	24989448	24992
655	2.924668	99237888	68300800	27646008	24992
656	3.610429	99237888	68300800	30962480	24992
657	5.824173	99237888	68300800	18512528	24992
658	5.041137	99237888	68300800	23147808	24992
659	5.741443	99237888	68300800	28442496	24992
660	7.862203	99237888	68300800	17971600	24992
661	7.333966	99237888	68300800	24586048	24992
662	0.766219	99237888	68300800	31839424	24992
663	1.686765	99237888	68300800	33177168	24992
664	3.423004	99237888	68300800	18746032	24992
665	2.985232	99237888	68300800	21402592	24992
666	3.703298	99237888	68300800	24719064	24992
667	4.586821	99237888	68300800	28694944	24992
668	5.048259	99237888	68300800	33330320	24992
669	7.065483	99237888	68300800	22207696	24992
670	6.59058	99237888	68300800	28162744	24992
671	8.721385	99237888	68300800	18351040	24992
672	0.77155	99237888	68300800	25604408	24992
673	1.486703	99237888	68300800	26942152	24992
674	2.18301	99237888	68300800	28939304	24992
675	2.903025	99237888	68300800	31595864	24992
676	4.970022	99237888	68300800	18477984	24992
677	4.4455	99237888	68300800	22453928	24992
678	5.265917	99237888	68300800	27089208	24992
679	5.968887	99237888	68300800	32383896	24992
680	7.977185	99237888	68300800	21920648	24992
681	7.183925	99237888	68300800	28535104	24992
682	0.796626	99237888	68300800	19355968	24992
683	1.516195	99237888	68300800	20693712	24992
684	2.229446	99237888	68300800	22690976	24992
685	3.160863	99237888	68300800	25347536	24992
686	3.624375	99237888	68300800	28664024	24992
687	4.320484	99237888	68300800	32639904	24992
688	6.665416	99237888	68300800	20847160	24992
689	5.817262	99237888	68300800	26141848	24992
690	6.79182	99237888	68300800	32096896	24992
691	9.001811	99237888	68300800	22297824	24992
692	0.770851	99237888	68300800	29551200	24992
693	1.827982	99237888	68300800	30888944	24992
694	2.202255	99237888	68300800	32886096	24992
695	4.244566	99237888	68300800	19111256	24992
696	3.687079	99237888	68300800	22427728	24992
697	4.590602	99237888	68300800	26403608	24992
698	5.089225	99237888	68300800	31038888	24992
699	7.063817	99237888	68300800	19903696	24992
700	6.784507	99237888	68300800	25858744	24992
701	7.388459	99237888	68300800	32473200	24992
702	0.77315	99237888	68300800	23300800	24992
703	1.490125	99237888	68300800	24638544	24992
704	2.186208	99237888	68300800	26635696	24992
705	2.897272	99237888	68300800	29292256	24992
706	3.622258	99237888	68300800	32608728	24992
707	5.654997	99237888	68300800	20158664	24992
708	5.351506	99237888	68300800	24793944	24992
709	5.793642	99237888	68300800	30088632	24992
710	8.038044	99237888	68300800	19617520	24992
711	7.178841	99237888	68300800	26231976	24992
712	0.765694	99237888	68300800	33485432	24992
713	1.476591	99237888	68300800	34823176	24992
714	3.566765	99237888	68300800	20391368	24992
715	3.132953	99237888	68300800	23047928	24992
716	3.616944	99237888	68300800	26364400	24992
717	4.322321	99237888	68300800	30340280	24992
718	5.252501	99237888	68300800	34975560	24992
719	7.195068	99237888	68300800	23849384	24992
720	6.576479	99237888	68300800	29804432	24992
721	8.8329	99237888	68300800	19992312	24992
722	0.775492	99237888	68300800	27245688	24992
723	1.484214	99237888	68300800	28583432	24992
724	2.409617	99237888	68300800	30580584	24992
725	2.895484	99237888	68300800	33237192	24992
726	4.973374	99237888	68300800	20121496	24992
727	4.636239	99237888	68300800	24097376	24992
728	5.048721	99237888	68300800	28732656	24992
729	5.961388	99237888	68300800	34027344	24992
730	7.961758	99237888	68300800	23564016	24992
731	7.417754	99237888	68300800	30178472	24992
732	0.772132	99237888	68300800	20998824	24992
733	1.48828	99237888	68300800	22336568	24992
734	2.189761	99237888	68300800	24333720	24992
735	2.910781	99237888	68300800	26990280	24992
736	3.846183	99237888	68300800	30306816	24992
737	4.320836	99237888	68300800	34282696	24992
738	6.706311	99237888	68300800	22490080	24992
739	5.75017	99237888	68300800	27784768	24992
740	6.462967	99237888	68300800	33739816	24992
741	8.681143	99237888	68300800	23940728	24992
742	0.771833	99237888	68300800	31194104	24992
743	1.47955	99237888	68300800	32531848	24992
744	2.199567	99237888	68300800	34529000	24992
745	4.506613	99237888	68300800	20754160	24992
746	3.647981	99237888	68300800	24070632	24992
747	4.333152	99237888	68300800	28046560	24992
748	5.050861	99237888	68300800	32681840	24992
749	7.235815	99237888	68300800	21546552	24992
750	6.738707	99237888	68300800	27501616	24992
751	7.613152	99237888	68300800	34116072	24992
752	0.775055	99237888	68300800	24943656	24992
753	1.478987	99237888	68300800	26281400	24992
754	2.194012	99237888	68300800	28278552	24992
755	2.908599	99237888	68300800	30935144	24992
756	3.609012	99237888	68300800	34251616	24992
757	5.987136	99237888	68300800	21801536	24992
758	5.045956	99237888	68300800	26436816	24992
759	5.965494	99237888	68300800	31731504	24992
760	8.005487	99237888	68300800	21260376	24992
761	7.317581	99237888	68300800	27874832	24992
762	0.775485	99237888	68300800	35128384	24992
763	2.940108	99237888	68300800	20031760	24992
764	2.232248	99237888	68300800	22028912	24992
765	2.960424	99237888	68300800	24685472	24992
766	3.906155	99237888	68300800	28001944	24992
767	4.332495	99237888	68300800	31977824	24992
768	6.528293	99237888	68300800	20185304	24992
769	5.858736	99237888	68300800	25480120	24992
770	6.791797	99237888	68300800	31435168	24992
771	8.833034	99237888	68300800	21628400	24992
772	0.773081	99237888	68300800	28881776	24992
773	1.501942	99237888	68300800	30219520	24992
774	2.205961	99237888	68300800	32216672	24992
775	3.145417	99237888	68300800	34873232	24992
776	5.115745	99237888	68300800	21765824	24992
777	4.373315	99237888	68300800	25741704	24992
778	5.255457	99237888	68300800	30376984	24992
779	5.741231	99237888	68300800	35671672	24992
780	8.185285	99237888	68300800	25207672	24992
781	7.189494	99237888	68300800	31822128	24992
782	0.774647	99237888	68300800	22642464	24992
783	1.727188	99237888	68300800	23980208	24992
784	2.193035	99237888	68300800	25977360	24992
785	3.677332	99237888	68300800	28634488	24992
786	3.673431	99237888	68300800	31950960	24992
787	4.625226	99237888	68300800	35936928	24992
788	6.656983	99237888	68300800	24138824	24992
789	6.007256	99237888	68300800	29433544	24992
790	6.450675	99237888	68300800	35388592	24992
791	8.808713	99237888	68300800	25589152	24992
792	0.770457	99237888	68300800	32842528	24992
793	1.491257	99237888	68300800	34180272	24992
794	3.694991	99237888	68300800	19744048	24992
795	2.957772	99237888	68300800	22400600	24992
796	3.864354	99237888	68300800	25717072	24992
797	4.345637	99237888	68300800	29692968	24992
798	5.056553	99237888	68300800	34328248	24992
799	7.550565	99237888	68300800	23192840	24992
800	6.683223	99237888	68300800	29148000	24992
801	7.311335	99237888	68300800	35762456	24992
802	0.835839	99237888	68300800	26595808	24992
803	1.488599	99237888	68300800	27933552	24992
804	2.436685	99237888	68300800	29930720	24992
805	2.892119	99237888	68300800	32587280	24992
806	3.645853	99237888	68300800	35903816	24992
807	6.013793	99237888	68300800	23453064	24992
808	5.090824	99237888	68300800	28088344	24992
809	6.036661	99237888	68300800	33383032	24992
810	8.13791	99237888	68300800	22911808	24992
811	7.412734	99237888	68300800	29526264	24992
812	2.334431	99237888	68300800	20341424	24992
813	1.521337	99237888	68300800	21679208	24992
814	2.306133	99237888	68300800	23676360	24992
815	2.949667	99237888	68300800	26332920	24992
816	3.835463	99237888	68300800	29649392	24992
817	4.369002	99237888	68300800	33625272	24992
818	6.668291	99237888	68300800	21832640	24992
819	6.090162	99237888	68300800	27127384	24992
820	6.576958	99237888	68300800	33082440	24992
821	8.919359	99237888	68300800	23279896	24992
822	0.768779	99237888	68300800	30533272	24992
823	1.479842	99237888	68300800	31871016	24992
824	2.19537	99237888	68300800	33868168	24992
825	4.762169	99237888	68300800	20093344	24992
826	3.711128	99237888	68300800	23409816	24992
827	4.365036	99237888	68300800	27385696	24992
828	5.083018	99237888	68300800	32020976	24992
829	7.520367	99237888	68300800	20885784	24992
830	6.79496	99237888	68300800	26840832	24992
831	7.454162	99237888	68300800	33455288	24992
832	0.785217	99237888	68300800	24283016	24992
833	1.526197	99237888	68300800	25620760	24992
834	2.242495	99237888	68300800	27617912	24992
835	2.959766	99237888	68300800	30274472	24992
836	3.680579	99237888	68300800	33590944	24992
837	6.2573	99237888	68300800	21140992	24992
838	5.138156	99237888	68300800	25776304	24992
839	6.02964	99237888	68300800	31071008	24992
840	8.160681	99237888	68300800	20600112	24992
841	7.317198	99237888	68300800	27214576	24992
842	0.766356	99237888	68300800	34467952	24992
843	1.489215	99237888	68300800	35805696	24992
844	3.84344	99237888	68300800	21374560	24992
845	2.905902	99237888	68300800	24031120	24992
846	4.0561	99237888	68300800	27347768	24992
847	4.324686	99237888	68300800	31323648	24992
848	5.098722	99237888	68300800	35958928	24992
849	7.548269	99237888	68300800	24836272	24992
850	6.761407	99237888	68300800	30801768	24992
851	9.09173	99237888	68300800	21003352	24992
852	0.777373	99237888	68300800	28257192	24992
853	1.488748	99237888	68300800	29594936	24992
854	2.221973	99237888	68300800	31592104	24992
855	2.901175	99237888	68300800	34248664	24992
856	5.30526	99237888	68300800	21140952	24992
857	4.635333	99237888	68300800	25116832	24992
858	5.035944	99237888	68300800	29752112	24992
859	5.946097	99237888	68300800	35046800	24992
860	8.257154	99237888	68300800	24583472	24992
861	7.288699	99237888	68300800	31198008	24992
862	0.772758	99237888	68300800	22018632	24992
863	1.476787	99237888	68300800	23356424	24992
864	2.196829	99237888	68300800	25353576	24992
865	2.900343	99237888	68300800	28010136	24992
866	3.800783	99237888	68300800	31326608	24992
867	4.386276	99237888	68300800	35302568	24992
868	6.857628	99237888	68300800	23509824	24992
869	5.786661	99237888	68300800	28804512	24992
870	6.906283	99237888	68300800	34759592	24992
871	8.985455	99237888	68300800	24960440	24992
872	0.770624	99237888	68300800	32213816	24992
873	1.484558	99237888	68300800	33551560	24992
874	2.242294	99237888	68300800	35548712	24992
875	4.674197	99237888	68300800	21773888	24992
876	3.707457	99237888	68300800	25090360	24992
877	4.369892	99237888	68300800	29066240	24992
878	5.300043	99237888	68300800	33701520	24992
879	7.683258	99237888	68300800	22566344	24992
880	6.899522	99237888	68300800	28521392	24992
881	7.482566	99237888	68300800	35135848	24992
882	0.789527	99237888	68300800	25963480	24992
883	1.722011	99237888	68300800	27301224	24992
884	2.190975	99237888	68300800	29298376	24992
885	2.897183	99237888	68300800	31954936	24992
886	3.662188	99237888	68300800	35271408	24992
887	6.26698	99237888	68300800	22821328	24992
888	5.101236	99237888	68300800	27456736	24992
889	5.972688	99237888	68300800	32751456	24992
890	8.775039	99237888	68300800	22281952	24992
891	7.189583	99237888	68300800	28896456	24992
892	0.77335	99237888	68300800	36149832	24992
893	3.247955	99237888	68300800	21053880	24992
894	2.250169	99237888	68300800	23051032	24992
895	3.005413	99237888	68300800	25707592	24992
896	3.617673	99237888	68300800	29024064	24992
897	4.325274	99237888	68300800	32999944	24992
898	7.067037	99237888	68300800	21207424	24992
899	5.964241	99237888	68300800	26502192	24992
900	6.723882	99237888	68300800	32457288	24992
901	9.11167	99237888	68300800	22650520	24992
902	0.767667	99237888	68300800	29903896	24992
903	1.476302	99237888	68300800	31241640	24992
904	2.422626	99237888	68300800	33238792	24992
905	2.952344	99237888	68300800	35895352	24992
906	5.450928	99237888	68300800	22788088	24992
907	4.655937	99237888	68300800	26763968	24992
908	5.04658	99237888	68300800	31399248	24992
909	5.788994	99237888	68300800	36693936	24992
910	8.396133	99237888	68300800	26230624	24992
911	7.444704	99237888	68300800	32845112	24992
912	0.780989	99237888	68300800	23665448	24992
913	1.798237	99237888	68300800	25003208	24992
914	2.240254	99237888	68300800	27002424	24992
915	2.913482	99237888	68300800	29658984	24992
916	3.666426	99237888	68300800	32975456	24992
917	4.562452	99237888	68300800	36951384	24992
918	7.195086	99237888	68300800	25158320	24992
919	5.75195	99237888	68300800	30453008	24992
920	6.676506	99237888	68300800	36408088	24992
921	9.162982	99237888	68300800	26609304	24992
922	0.779174	99237888	68300800	33862680	24992
923	1.483265	99237888	68300800	35200464	24992
924	2.215166	99237888	68300800	37197608	24992
925	4.814948	99237888	68300800	23422128	24992
926	3.701976	99237888	68300800	26738648	24992
927	4.617855	99237888	68300800	30714528	24992
928	5.030267	99237888	68300800	35349808	24992
929	7.687315	99237888	68300800	24214408	24992
930	6.60813	99237888	68300800	30169456	24992
931	7.46232	99237888	68300800	36783912	24992
932	0.773702	99237888	68300800	27611512	24992
933	1.48794	99237888	68300800	28949256	24992
934	2.173346	99237888	68300800	30946408	24992
935	2.900867	99237888	68300800	33602968	24992
936	3.617703	99237888	68300800	36919440	24992
937	6.258785	99237888	68300800	24469360	24992
938	5.367381	99237888	68300800	29104720	24992
939	5.753701	99237888	68300800	34399424	24992
940	8.814359	99237888	68300800	23928296	24992
941	7.32556	99237888	68300800	30542784	24992
942	0.768415	99237888	68300800	37796160	24992
943	3.401502	99237888	68300800	22699520	24992
944	2.468955	99237888	68300800	24696672	24992
945	2.897884	99237888	68300800	27353232	24992
946	3.607245	99237888	68300800	30669704	24992
947	4.316358	99237888	68300800	34645584	24992
948	7.19282	99237888	68300800	22853064	24992
949	5.946322	99237888	68300800	28147752	24992
950	6.457509	99237888	68300800	34102800	24992
951	9.381108	99237888	68300800	24296032	24992
952	1.002744	99237888	68300800	31549408	24992
953	1.484952	99237888	68300800	32887152	24992
954	2.206548	99237888	68300800	34884304	24992
955	2.900342	99237888	68300800	37540864	24992
956	5.607945	99237888	68300800	24432768	24992
957	4.424041	99237888	68300800	28408648	24992
958	5.133289	99237888	68300800	33043928	24992
959	7.918854	99237888	68300800	21908744	24992
960	6.83236	99237888	68300800	27863800	24992
961	7.245872	99237888	68300800	34478304	24992
962	0.770579	99237888	68300800	25298624	24992
963	1.498291	99237888	68300800	26636368	24992
964	2.187704	99237888	68300800	28633520	24992
965	2.948273	99237888	68300800	31290080	24992
966	3.609911	99237888	68300800	34606552	24992
967	6.487097	99237888	68300800	22156720	24992
968	5.06367	99237888	68300800	26791992	24992
969	5.730596	99237888	68300800	32086680	24992
970	6.664385	99237888	68300800	38041840	24992
971	9.311289	99237888	68300800	28242008	24992
972	0.769305	99237888	68300800	35495480	24992
973	1.733097	99237888	68300800	36833224	24992
974	4.187582	99237888	68300800	22402112	24992
975	3.010784	99237888	68300800	25058664	24992
976	3.824987	99237888	68300800	28375152	24992
977	4.38805	99237888	68300800	32351032	24992
978	5.068508	99237888	68300800	36986312	24992
979	7.875059	99237888	68300800	25850904	24992
980	6.725445	99237888	68300800	31806000	24992
981	7.23515	99237888	68300800	38420536	24992
982	0.769016	99237888	68300800	29253040	24992
983	1.478362	99237888	68300800	30590848	24992
984	2.190744	99237888	68300800	32588000	24992
985	2.955215	99237888	68300800	35244560	24992
986	3.604001	99237888	68300800	38561032	24992
987	6.609806	99237888	68300800	26100632	24992
988	5.248835	99237888	68300800	30735912	24992
989	5.744492	99237888	68300800	36030600	24992
990	8.783847	99237888	68300800	25560200	24992
991	7.328595	99237888	68300800	32174656	24992
992	1.019319	99237888	68300800	22994664	24992
993	1.533606	99237888	68300800	24332408	24992
994	2.194347	99237888	68300800	26329560	24992
995	2.885042	99237888	68300800	28986136	24992
996	3.607038	99237888	68300800	32302608	24992
997	4.535622	99237888	68300800	36278488	24992
998	7.185783	99237888	68300800	24485744	24992
999	5.85191	99237888	68300800	29780432	24992
1000	6.465337	99237888	68300800	35735480	24992
