x	Duration	RSS	HeapTotal	HeapUsed	External
0	NA	100003840	68825088	10877912	24992
1	2.227343	100003840	68825088	11558040	24992
2	3.851682	100003840	68825088	12896456	24992
3	4.190611	100003840	68825088	14894240	24992
4	3.168396	100003840	68825088	17551560	24992
5	3.930707	100003840	68825088	20868984	24992
6	4.685487	100003840	68825088	24845944	24992
7	5.45514	100003840	68825088	13016344	24992
8	6.205189	100003840	68825088	18312432	24992
9	6.881226	100003840	68825088	24269056	24992
10	7.636759	100003840	68825088	14426128	24992
11	8.386319	100003840	68825088	21702008	24992
12	0.801155	100003840	68825088	13142328	24992
13	1.768633	100003840	68825088	14480592	24992
14	2.487166	100003840	68825088	16478408	24992
15	3.004877	100003840	68825088	19135792	24992
16	3.734532	100003840	68825088	22453264	24992
17	4.944841	100003840	68825088	26432696	24992
18	5.423613	100003840	68825088	14603784	24992
19	6.211914	100003840	68825088	19900304	24992
20	6.658817	100003840	68825088	25856992	24992
21	7.628511	100003840	68825088	16014976	24992
22	0.795531	100003840	68825088	23270424	24992
23	1.773317	100003840	68825088	24608688	24992
24	2.259183	100003840	68825088	26606504	24992
25	3.208854	100003840	68825088	12795136	24992
26	3.789496	100003840	68825088	16112608	24992
27	4.690308	100003840	68825088	20089712	24992
28	5.211564	100003840	68825088	24726296	24992
29	6.376945	100003840	68825088	13556584	24992
30	6.676528	100003840	68825088	19513368	24992
31	7.621092	100003840	68825088	26129608	24992
32	0.807601	100003840	68825088	16918560	24992
33	2.307156	100003840	68825088	18256840	24992
34	2.277392	100003840	68825088	20254656	24992
35	3.056654	100003840	68825088	22912040	24992
36	3.799534	100003840	68825088	26243432	24992
37	4.731485	100003840	68825088	13754072	24992
38	5.336202	100003840	68825088	18390656	24992
39	6.582472	100003840	68825088	23686808	24992
40	7.106308	100003840	68825088	13179840	24992
41	7.372456	100003840	68825088	19796112	24992
42	0.792846	100003840	68825088	27051560	24992
43	1.725236	100003840	68825088	11917008	24992
44	2.263226	100003840	68825088	13914824	24992
45	3.162741	100003840	68825088	16572880	24992
46	3.740723	100003840	68825088	19890352	24992
47	4.448267	100003840	68825088	23867440	24992
48	5.592958	100003840	68825088	12038464	24992
49	5.924511	100003840	68825088	17334616	24992
50	6.650043	100003840	68825088	23291304	24992
51	7.647217	100003840	68825088	13445088	24992
52	0.794858	100003840	68825088	20700568	24992
53	1.534792	100003840	68825088	22038832	24992
54	2.25286	100003840	68825088	24036680	24992
55	3.199247	100003840	68825088	26694064	24992
56	3.986984	100003840	68825088	13545224	24992
57	4.492706	100003840	68825088	17522248	24992
58	5.221943	100003840	68825088	22158832	24992
59	6.386005	100003840	68825088	27454984	24992
60	7.091356	100003840	68825088	16948880	24992
61	7.60619	100003840	68825088	23565184	24992
62	1.017956	100003840	68825088	14350888	24992
63	1.529233	100003840	68825088	15689152	24992
64	2.465774	100003840	68825088	17689664	24992
65	3.043589	100003840	68825088	20347048	24992
66	3.724288	100003840	68825088	23664520	24992
67	4.645644	100003840	68825088	27641576	24992
68	5.465068	100003840	68825088	15811024	24992
69	6.247179	100003840	68825088	21107176	24992
70	6.702478	100003840	68825088	27063976	24992
71	8.074672	100003840	68825088	17221032	24992
72	0.793119	100003840	68825088	24476576	24992
73	1.744455	100003840	68825088	25814840	24992
74	2.247233	100003840	68825088	27812672	24992
75	3.191656	100003840	68825088	13999728	24992
76	3.71986	100003840	68825088	17317248	24992
77	4.443418	100003840	68825088	21294272	24992
78	5.182883	100003840	68825088	25930856	24992
79	6.373375	100003840	68825088	14760472	24992
80	6.687243	100003840	68825088	20717352	24992
81	7.633512	100003840	68825088	27334792	24992
82	0.798833	100003840	68825088	18123632	24992
83	1.527359	100003840	68825088	19461808	24992
84	2.259845	100003840	68825088	21460688	24992
85	3.035937	100003840	68825088	24118000	24992
86	3.93714	100003840	68825088	27435384	24992
87	5.103374	100003840	68825088	14950576	24992
88	5.385596	100003840	68825088	19586448	24992
89	6.555809	100003840	68825088	24881808	24992
90	7.289388	100003840	68825088	14374536	24992
91	7.343516	100003840	68825088	20989824	24992
92	1.012098	100003840	68825088	11768512	24992
93	1.527313	100003840	68825088	13106456	24992
94	2.295924	100003840	68825088	15103896	24992
95	3.015698	100003840	68825088	17760808	24992
96	3.728671	100003840	68825088	21077744	24992
97	4.450921	100003840	68825088	25054136	24992
98	5.540166	100003840	68825088	13223216	24992
99	5.931152	100003840	68825088	18518576	24992
100	6.892188	100003840	68825088	24474376	24992
101	7.696549	100003840	68825088	14628104	24992
102	0.788112	100003840	68825088	21882456	24992
103	1.536554	100003840	68825088	23220392	24992
104	2.235571	100003840	68825088	25217816	24992
105	3.356715	100003840	68825088	27874728	24992
106	3.931097	100003840	68825088	14724192	24992
107	4.481579	100003840	68825088	18700584	24992
108	5.376056	100003840	68825088	23336456	24992
109	6.107993	100003840	68825088	12165064	24992
110	6.897186	100003840	68825088	18120880	24992
111	7.412993	100003840	68825088	24736168	24992
112	0.792426	100003840	68825088	15520416	24992
113	1.515601	100003840	68825088	16858352	24992
114	2.443484	100003840	68825088	18855888	24992
115	2.968555	100003840	68825088	21512800	24992
116	3.693236	100003840	68825088	24829752	24992
117	5.242458	100003840	68825088	12341184	24992
118	5.411255	100003840	68825088	16977056	24992
119	6.495056	100003840	68825088	22274376	24992
120	6.736203	100003840	68825088	28230176	24992
121	7.962543	100003840	68825088	18375384	24992
122	0.784871	100003840	68825088	25629736	24992
123	1.73731	100003840	68825088	26967672	24992
124	2.479247	100003840	68825088	12495384	24992
125	2.981425	100003840	68825088	15152296	24992
126	3.697711	100003840	68825088	18469200	24992
127	4.421381	100003840	68825088	22445624	24992
128	5.610257	100003840	68825088	27083600	24992
129	6.137984	100003840	68825088	15915528	24992
130	6.598175	100003840	68825088	21871360	24992
131	7.781558	100003840	68825088	12021232	24992
132	0.786999	100003840	68825088	19275544	24992
133	1.516248	100003840	68825088	20613480	24992
134	2.240162	100003840	68825088	22610904	24992
135	2.965959	100003840	68825088	25267816	24992
136	3.981539	100003840	68825088	12114472	24992
137	4.430607	100003840	68825088	16090856	24992
138	5.248194	100003840	68825088	20726728	24992
139	6.281484	100003840	68825088	26022088	24992
140	6.905219	100003840	68825088	15515280	24992
141	7.468013	100003840	68825088	22130600	24992
142	0.791702	100003840	68825088	12918984	24992
143	1.522877	100003840	68825088	14256920	24992
144	2.290657	100003840	68825088	16254344	24992
145	2.964677	100003840	68825088	18911384	24992
146	3.914842	100003840	68825088	22228288	24992
147	4.554207	100003840	68825088	26205736	24992
148	5.519377	100003840	68825088	14376544	24992
149	5.895293	100003840	68825088	19671904	24992
150	6.817956	100003840	68825088	25627736	24992
151	7.585194	100003840	68825088	15783456	24992
152	0.787106	100003840	68825088	23037776	24992
153	1.513569	100003840	68825088	24375712	24992
154	2.251312	100003840	68825088	26373136	24992
155	3.24757	100003840	68825088	12560000	24992
156	3.707709	100003840	68825088	15876904	24992
157	4.410859	100003840	68825088	19853296	24992
158	5.36986	100003840	68825088	24489168	24992
159	6.170267	100003840	68825088	13317784	24992
160	6.908543	100003840	68825088	19273584	24992
161	7.350056	100003840	68825088	25888936	24992
162	0.787662	100003840	68825088	16675816	24992
163	1.522086	100003840	68825088	18013752	24992
164	2.235838	100003840	68825088	20011176	24992
165	3.181479	100003840	68825088	22668088	24992
166	3.690588	100003840	68825088	25984992	24992
167	4.665106	100003840	68825088	13494576	24992
168	5.390099	100003840	68825088	18130448	24992
169	5.871152	100003840	68825088	23425808	24992
170	6.85713	100003840	68825088	12917512	24992
171	7.521191	100003840	68825088	19532800	24992
172	0.793932	100003840	68825088	26787120	24992
173	1.518892	100003840	68825088	28125056	24992
174	2.717107	100003840	68825088	13652104	24992
175	2.982794	100003840	68825088	16309032	24992
176	3.695993	100003840	68825088	19625936	24992
177	4.41179	100003840	68825088	23602328	24992
178	5.180269	100003840	68825088	28238200	24992
179	6.175555	100003840	68825088	17070072	24992
180	6.818965	100003840	68825088	23025872	24992
181	7.821027	100003840	68825088	13175544	24992
182	0.784802	100003840	68825088	20429912	24992
183	1.513749	100003840	68825088	21767848	24992
184	2.302398	100003840	68825088	23765272	24992
185	3.064615	100003840	68825088	26422216	24992
186	3.94469	100003840	68825088	13268736	24992
187	4.43276	100003840	68825088	17245144	24992
188	5.151044	100003840	68825088	21881016	24992
189	6.338578	100003840	68825088	27176376	24992
190	6.860311	100003840	68825088	16669632	24992
191	7.533018	100003840	68825088	23284920	24992
192	0.80206	100003840	68825088	14069384	24992
193	1.585534	100003840	68825088	15407584	24992
194	2.240347	100003840	68825088	17405000	24992
195	2.97097	100003840	68825088	20061944	24992
196	3.743871	100003840	68825088	23378848	24992
197	4.625287	100003840	68825088	27355240	24992
198	5.667601	100003840	68825088	15524216	24992
199	6.235035	100003840	68825088	20819576	24992
200	6.753417	100003840	68825088	26775376	24992
201	7.890527	100003840	68825088	16931016	24992
202	0.802027	100003840	68825088	24185352	24992
203	1.542731	100003840	68825088	25523288	24992
204	2.281531	100003840	68825088	27520712	24992
205	3.254416	100003840	68825088	13707576	24992
206	3.987708	100003840	68825088	17024480	24992
207	4.413631	100003840	68825088	21000984	24992
208	5.142692	100003840	68825088	25636856	24992
209	6.386386	100003840	68825088	14465360	24992
210	6.771453	100003840	68825088	20421240	24992
211	7.35532	100003840	68825088	27036528	24992
212	0.79793	100003840	68825088	17823360	24992
213	1.516979	100003840	68825088	19161296	24992
214	2.267738	100003840	68825088	21158720	24992
215	2.978088	100003840	68825088	23815648	24992
216	3.889817	100003840	68825088	27132552	24992
217	4.716421	100003840	68825088	14642104	24992
218	5.543205	100003840	68825088	19277992	24992
219	5.96739	100003840	68825088	24576368	24992
220	7.093647	100003840	68825088	14068424	24992
221	7.330045	100003840	68825088	20683696	24992
222	0.786	100003840	68825088	27938000	24992
223	1.750582	100003840	68825088	12803824	24992
224	2.294669	100003840	68825088	14801224	24992
225	3.107817	100003840	68825088	17458120	24992
226	3.698165	100003840	68825088	20775008	24992
227	4.427284	100003840	68825088	24751432	24992
228	5.610945	100003840	68825088	12920608	24992
229	5.893338	100003840	68825088	18218824	24992
230	6.815738	100003840	68825088	24174736	24992
231	7.565695	100003840	68825088	14329320	24992
232	0.78259	100003840	68825088	21583608	24992
233	1.533121	100003840	68825088	22921528	24992
234	2.227243	100003840	68825088	24918936	24992
235	3.200646	100003840	68825088	27575848	24992
236	3.953271	100003840	68825088	14428864	24992
237	4.513579	100003840	68825088	18405240	24992
238	5.4334	100003840	68825088	23041096	24992
239	6.160411	100003840	68825088	28336440	24992
240	7.006963	100003840	68825088	17831208	24992
241	7.354604	100003840	68825088	24446480	24992
242	0.817986	100003840	68825088	15231904	24992
243	1.515133	100003840	68825088	16569760	24992
244	2.467115	100003840	68825088	18567024	24992
245	2.968697	100003840	68825088	21223728	24992
246	3.680029	100003840	68825088	24540376	24992
247	4.635792	100003840	68825088	28516464	24992
248	5.466796	100003840	68825088	16684768	24992
249	6.009573	100003840	68825088	21979728	24992
250	6.707233	100003840	68825088	27935128	24992
251	7.914627	100003840	68825088	18090592	24992
252	0.785229	100003840	68825088	25344352	24992
253	1.738878	100003840	68825088	26682176	24992
254	2.235711	100003840	68825088	28679440	24992
255	3.225721	100003840	68825088	14865440	24992
256	3.731195	100003840	68825088	18182088	24992
257	4.423553	100003840	68825088	22158176	24992
258	5.146108	100003840	68825088	26793696	24992
259	6.405548	100003840	68825088	15621688	24992
260	6.618324	100003840	68825088	21577040	24992
261	7.561966	100003840	68825088	28191832	24992
262	1.016199	100003840	68825088	18978184	24992
263	1.522789	100003840	68825088	20316088	24992
264	2.243297	100003840	68825088	22313352	24992
265	3.01382	100003840	68825088	24970056	24992
266	3.873445	100003840	68825088	28286704	24992
267	4.705808	100003840	68825088	15796016	24992
268	5.14779	100003840	68825088	20431536	24992
269	6.10415	100003840	68825088	25726496	24992
270	6.852393	100003840	68825088	15217784	24992
271	7.344539	100003840	68825088	21832576	24992
272	0.78567	100003840	68825088	29086336	24992
273	1.768019	100003840	68825088	13951016	24992
274	2.237085	100003840	68825088	15948280	24992
275	3.048304	100003840	68825088	18605064	24992
276	3.907016	100003840	68825088	21921712	24992
277	4.456252	100003840	68825088	25897800	24992
278	5.458865	100003840	68825088	14066632	24992
279	5.932795	100003840	68825088	19361592	24992
280	6.607643	100003840	68825088	25316944	24992
281	7.756755	100003840	68825088	15468168	24992
282	0.798654	100003840	68825088	22721976	24992
283	1.521967	100003840	68825088	24059848	24992
284	2.249926	100003840	68825088	26057112	24992
285	2.974379	100003840	68825088	28713816	24992
286	4.017603	100003840	68825088	15563712	24992
287	4.428492	100003840	68825088	19539800	24992
288	5.749261	100003840	68825088	24177976	24992
289	6.145608	100003840	68825088	29472664	24992
290	7.055725	100003840	68825088	18956000	24992
291	7.329052	100003840	68825088	25570456	24992
292	0.786973	100003840	68825088	16353744	24992
293	1.54482	100003840	68825088	17691488	24992
294	2.27949	100003840	68825088	19688640	24992
295	3.032321	100003840	68825088	22345280	24992
296	3.781768	100003840	68825088	25661752	24992
297	4.667749	100003840	68825088	13169920	24992
298	6.219378	100003840	68825088	17805208	24992
299	6.040211	100003840	68825088	23108816	24992
300	6.891764	100003840	68825088	29063864	24992
301	7.86304	100003840	68825088	19231216	24992
302	0.779556	100003840	68825088	26484656	24992
303	1.509197	100003840	68825088	27822496	24992
304	2.505859	100003840	68825088	13380040	24992
305	3.051924	100003840	68825088	16036592	24992
306	3.693074	100003840	68825088	19353064	24992
307	4.620834	100003840	68825088	23328960	24992
308	5.323941	100003840	68825088	27964240	24992
309	6.413225	100003840	68825088	16831632	24992
310	6.588427	100003840	68825088	22786680	24992
311	7.517599	100003840	68825088	29401136	24992
312	0.80763	100003840	68825088	20237288	24992
313	1.720199	100003840	68825088	21575032	24992
314	2.226548	100003840	68825088	23572184	24992
315	2.958018	100003840	68825088	26228888	24992
316	3.90249	100003840	68825088	29545360	24992
317	4.928155	100003840	68825088	17097408	24992
318	5.155091	100003840	68825088	21732688	24992
319	5.982163	100003840	68825088	27027376	24992
320	6.937367	100003840	68825088	16559480	24992
321	7.543281	100003840	68825088	23173936	24992
322	1.127747	100003840	68825088	13990608	24992
323	1.516129	100003840	68825088	15328352	24992
324	2.238164	100003840	68825088	17325504	24992
325	2.961306	100003840	68825088	19982064	24992
326	4.029605	100003840	68825088	23298536	24992
327	4.413549	100003840	68825088	27274416	24992
328	5.487988	100003840	68825088	15484488	24992
329	6.084774	100003840	68825088	20779192	24992
330	6.789907	100003840	68825088	26734240	24992
331	7.741787	100003840	68825088	16935456	24992
332	0.784992	100003840	68825088	24188832	24992
333	1.51326	100003840	68825088	25526576	24992
334	2.222268	100003840	68825088	27523728	24992
335	3.302028	100003840	68825088	13751272	24992
336	3.93667	100003840	68825088	17067744	24992
337	4.404853	100003840	68825088	21043624	24992
338	5.18251	100003840	68825088	25678904	24992
339	6.512524	100003840	68825088	14546512	24992
340	6.914357	100003840	68825088	20501608	24992
341	7.311504	100003840	68825088	27116064	24992
342	0.787418	100003840	68825088	17946208	24992
343	1.508631	100003840	68825088	19283952	24992
344	2.244147	100003840	68825088	21281104	24992
345	3.228876	100003840	68825088	23937664	24992
346	3.691502	100003840	68825088	27254168	24992
347	4.835	100003840	68825088	14807016	24992
348	5.40313	100003840	68825088	19442296	24992
349	6.183045	100003840	68825088	24739576	24992
350	7.004257	100003840	68825088	14272008	24992
351	7.316742	100003840	68825088	20886520	24992
352	0.795632	100003840	68825088	28139976	24992
353	1.509512	100003840	68825088	29477720	24992
354	2.862642	100003840	68825088	15048984	24992
355	2.978032	100003840	68825088	17705544	24992
356	3.680837	100003840	68825088	21022016	24992
357	4.40619	100003840	68825088	24997928	24992
358	5.126327	100003840	68825088	29633208	24992
359	6.371796	100003840	68825088	18513088	24992
360	6.81811	100003840	68825088	24472592	24992
361	7.960604	100003840	68825088	14668032	24992
362	0.782287	100003840	68825088	21921408	24992
363	1.5234	100003840	68825088	23259152	24992
364	2.226895	100003840	68825088	25256304	24992
365	2.955894	100003840	68825088	27912896	24992
366	4.125465	100003840	68825088	14801672	24992
367	4.681334	100003840	68825088	18777552	24992
368	5.129962	100003840	68825088	23412832	24992
369	6.092952	100003840	68825088	28707520	24992
370	7.051387	100003840	68825088	18247408	24992
371	7.31244	100003840	68825088	24861864	24992
372	1.0143	100003840	68825088	15684392	24992
373	1.515034	100003840	68825088	17022136	24992
374	2.24008	100003840	68825088	19019288	24992
375	2.946659	100003840	68825088	21675848	24992
376	3.670958	100003840	68825088	24992320	24992
377	4.623163	100003840	68825088	28968200	24992
378	5.612203	100003840	68825088	17178288	24992
379	5.91639	100003840	68825088	22473008	24992
380	6.596492	100003840	68825088	28428056	24992
381	8.056872	100003840	68825088	18632712	24992
382	0.783222	100003840	68825088	25886088	24992
383	1.505901	100003840	68825088	27223832	24992
384	2.270462	100003840	68825088	29220984	24992
385	3.530076	100003840	68825088	15448528	24992
386	3.92799	100003840	68825088	18765000	24992
387	4.39853	100003840	68825088	22740880	24992
388	5.122266	100003840	68825088	27376160	24992
389	6.807408	100003840	68825088	16243784	24992
390	6.591359	100003840	68825088	22198880	24992
391	7.297159	100003840	68825088	28813336	24992
392	0.78532	100003840	68825088	19643336	24992
393	1.510896	100003840	68825088	20981080	24992
394	2.231385	100003840	68825088	22978232	24992
395	2.954969	100003840	68825088	25634792	24992
396	3.891323	100003840	68825088	28951344	24992
397	5.00325	100003840	68825088	16504064	24992
398	5.383336	100003840	68825088	21139344	24992
399	5.912597	100003840	68825088	26434032	24992
400	7.335626	100003840	68825088	15966232	24992
401	7.335315	100003840	68825088	22580720	24992
402	0.77665	100003840	68825088	29834192	24992
403	2.203783	100003840	68825088	14741224	24992
404	2.286263	100003840	68825088	16738376	24992
405	3.214622	100003840	68825088	19394936	24992
406	3.694303	100003840	68825088	22711408	24992
407	4.408127	100003840	68825088	26687288	24992
408	5.93156	100003840	68825088	14896368	24992
409	5.984745	100003840	68825088	20191056	24992
410	6.709128	100003840	68825088	26146216	24992
411	8.21187	100003840	68825088	16340856	24992
412	0.782187	100003840	68825088	23594232	24992
413	1.512747	100003840	68825088	24931976	24992
414	2.454199	100003840	68825088	26929128	24992
415	2.96686	100003840	68825088	29585720	24992
416	4.266336	100003840	68825088	16479432	24992
417	4.416929	100003840	68825088	20455312	24992
418	5.121751	100003840	68825088	25090624	24992
419	6.132998	100003840	68825088	30385312	24992
420	7.165563	100003840	68825088	19922608	24992
421	7.519214	100003840	68825088	26537064	24992
422	0.802738	100003840	68825088	17358168	24992
423	1.50813	100003840	68825088	18695912	24992
424	2.282493	100003840	68825088	20693064	24992
425	2.94121	100003840	68825088	23349624	24992
426	3.686769	100003840	68825088	26666096	24992
427	4.625839	100003840	68825088	30641976	24992
428	5.811067	100003840	68825088	18849712	24992
429	6.140702	100003840	68825088	24144432	24992
430	6.586701	100003840	68825088	30099480	24992
431	7.935046	100003840	68825088	20301912	24992
432	0.783279	100003840	68825088	27555952	24992
433	1.515868	100003840	68825088	28893696	24992
434	2.218703	100003840	68825088	30890848	24992
435	3.553886	100003840	68825088	17116264	24992
436	3.917968	100003840	68825088	20432736	24992
437	4.439095	100003840	68825088	24408616	24992
438	5.377388	100003840	68825088	29043896	24992
439	6.670171	100003840	68825088	17909616	24992
440	6.820904	100003840	68825088	23864760	24992
441	7.297437	100003840	68825088	30479216	24992
442	0.78697	100003840	68825088	21307856	24992
443	1.514688	100003840	68825088	22645600	24992
444	2.234816	100003840	68825088	24642752	24992
445	2.975164	100003840	68825088	27299312	24992
446	3.67905	100003840	68825088	30615832	24992
447	5.064335	100003840	68825088	18167000	24992
448	5.360767	100003840	68825088	22802280	24992
449	5.856079	100003840	68825088	28096968	24992
450	7.456507	100003840	68825088	17627264	24992
451	7.308892	100003840	68825088	24241784	24992
452	0.779478	100003840	68825088	31495160	24992
453	2.174347	100003840	68825088	16399416	24992
454	2.256112	100003840	68825088	18396568	24992
455	3.187016	100003840	68825088	21053128	24992
456	3.694785	100003840	68825088	24369600	24992
457	4.405541	100003840	68825088	28345544	24992
458	6.099803	100003840	68825088	16554144	24992
459	5.865273	100003840	68825088	21848832	24992
460	6.59246	100003840	68825088	27803928	24992
461	8.248685	100003840	68825088	17998616	24992
462	0.781645	100003840	68825088	25251992	24992
463	1.550072	100003840	68825088	26589736	24992
464	2.439607	100003840	68825088	28586904	24992
465	2.95448	100003840	68825088	31243472	24992
466	4.436452	100003840	68825088	18136728	24992
467	4.498385	100003840	68825088	22112608	24992
468	5.216365	100003840	68825088	26747888	24992
469	6.866182	100003840	68825088	15613936	24992
470	6.600388	100003840	68825088	21568992	24992
471	7.523701	100003840	68825088	28183448	24992
472	0.787213	100003840	68825088	19004656	24992
473	1.509657	100003840	68825088	20342408	24992
474	2.2331	100003840	68825088	22339560	24992
475	2.955903	100003840	68825088	24996120	24992
476	3.865967	100003840	68825088	28312592	24992
477	5.174255	100003840	68825088	15863976	24992
478	5.190828	100003840	68825088	20499264	24992
479	6.089888	100003840	68825088	25793968	24992
480	6.62186	100003840	68825088	31749016	24992
481	8.099858	100003840	68825088	21950816	24992
482	0.82296	100003840	68825088	29204192	24992
483	1.51383	100003840	68825088	30541936	24992
484	2.963868	100003840	68825088	16111872	24992
485	2.967368	100003840	68825088	18768432	24992
486	3.888979	100003840	68825088	22084904	24992
487	4.403327	100003840	68825088	26060784	24992
488	5.369676	100003840	68825088	30696064	24992
489	6.613794	100003840	68825088	19561888	24992
490	6.79964	100003840	68825088	25516936	24992
491	8.059727	100003840	68825088	15706464	24992
492	0.78087	100003840	68825088	22959832	24992
493	1.544325	100003840	68825088	24297576	24992
494	2.264069	100003840	68825088	26294728	24992
495	3.024214	100003840	68825088	28951288	24992
496	4.601954	100003840	68825088	15834400	24992
497	4.51229	100003840	68825088	19810280	24992
498	5.194419	100003840	68825088	24445624	24992
499	5.856362	100003840	68825088	29740328	24992
500	7.683129	100003840	68825088	19278424	24992
501	7.747335	100003840	68825088	25892912	24992
502	0.793756	100003840	68825088	16714576	24992
503	1.720072	100003840	68825088	18052320	24992
504	2.243678	100003840	68825088	20049472	24992
505	2.999329	100003840	68825088	22706032	24992
506	3.68338	100003840	68825088	26022504	24992
507	4.406541	100003840	68825088	29998512	24992
508	5.994223	100003840	68825088	18207000	24992
509	6.182991	100003840	68825088	23501688	24992
510	6.672036	100003840	68825088	29456768	24992
511	8.626157	100003840	68825088	19659312	24992
512	0.833241	100003840	68825088	26912736	24992
513	1.512478	100003840	68825088	28250480	24992
514	2.230859	100003840	68825088	30247664	24992
515	3.77569	100003840	68825088	16473880	24992
516	3.990192	100003840	68825088	19790352	24992
517	4.670843	100003840	68825088	23766232	24992
518	5.124841	100003840	68825088	28401512	24992
519	7.130363	100003840	68825088	17267568	24992
520	6.594316	100003840	68825088	23222720	24992
521	7.352655	100003840	68825088	29837168	24992
522	0.78716	100003840	68825088	20665856	24992
523	1.503259	100003840	68825088	22003648	24992
524	2.235631	100003840	68825088	24000800	24992
525	3.14196	100003840	68825088	26657360	24992
526	3.771243	100003840	68825088	29973832	24992
527	5.265083	100003840	68825088	17525080	24992
528	5.138626	100003840	68825088	22160392	24992
529	5.854289	100003840	68825088	27455304	24992
530	7.695541	100003840	68825088	16985600	24992
531	7.29903	100003840	68825088	23600056	24992
532	0.777144	100003840	68825088	30853432	24992
533	1.519344	100003840	68825088	32191176	24992
534	3.132051	100003840	68825088	17760424	24992
535	2.976372	100003840	68825088	20416984	24992
536	3.700829	100003840	68825088	23733456	24992
537	4.695063	100003840	68825088	27709336	24992
538	5.347502	100003840	68825088	32344616	24992
539	6.957244	100003840	68825088	21222680	24992
540	6.692536	100003840	68825088	27177728	24992
541	8.407166	100003840	68825088	17367040	24992
542	0.783791	100003840	68825088	24620416	24992
543	1.752758	100003840	68825088	25958160	24992
544	2.235091	100003840	68825088	27955312	24992
545	2.956651	100003840	68825088	30611872	24992
546	4.606092	100003840	68825088	17494872	24992
547	4.616564	100003840	68825088	21470752	24992
548	5.133084	100003840	68825088	26106048	24992
549	5.849103	100003840	68825088	31400752	24992
550	7.508774	100003840	68825088	20938848	24992
551	7.53824	100003840	68825088	27553304	24992
552	0.787808	100003840	68825088	18374744	24992
553	1.515283	100003840	68825088	19712488	24992
554	2.225919	100003840	68825088	21709640	24992
555	2.950747	100003840	68825088	24366200	24992
556	3.690519	100003840	68825088	27689472	24992
557	4.444095	100003840	68825088	31665352	24992
558	6.297183	100003840	68825088	19880640	24992
559	5.886121	100003840	68825088	25175328	24992
560	7.009118	100003840	68825088	31130648	24992
561	8.274686	100003840	68825088	21339928	24992
562	0.794894	100003840	68825088	28593352	24992
563	1.50459	100003840	68825088	29931096	24992
564	2.233025	100003840	68825088	31928344	24992
565	4.119108	100003840	68825088	18154560	24992
566	3.688701	100003840	68825088	21471080	24992
567	4.398318	100003840	68825088	25446960	24992
568	5.335065	100003840	68825088	30082240	24992
569	6.856565	100003840	68825088	18948184	24992
570	6.656187	100003840	68825088	24903232	24992
571	7.503681	100003840	68825088	31517704	24992
572	0.784111	100003840	68825088	22346392	24992
573	1.508208	100003840	68825088	23684136	24992
574	2.457032	100003840	68825088	25681288	24992
575	2.960626	100003840	68825088	28337848	24992
576	3.719555	100003840	68825088	31654320	24992
577	5.393123	100003840	68825088	19205520	24992
578	5.136407	100003840	68825088	23840800	24992
579	6.083519	100003840	68825088	29135488	24992
580	7.604441	100003840	68825088	18665832	24992
581	7.649696	100003840	68825088	25280288	24992
582	0.828107	100003840	68825088	32533664	24992
583	2.505339	100003840	68825088	17438592	24992
584	2.294544	100003840	68825088	19435744	24992
585	3.189881	100003840	68825088	22092352	24992
586	3.869436	100003840	68825088	25408824	24992
587	4.428954	100003840	68825088	29384704	24992
588	6.143752	100003840	68825088	17593416	24992
589	6.082536	100003840	68825088	22888104	24992
590	6.568605	100003840	68825088	28843152	24992
591	8.354734	100003840	68825088	19037792	24992
592	0.835858	100003840	68825088	26291168	24992
593	1.587508	100003840	68825088	27628912	24992
594	2.357623	100003840	68825088	29626064	24992
595	3.104741	100003840	68825088	32282624	24992
596	5.15706	100003840	68825088	19176448	24992
597	4.732388	100003840	68825088	23152328	24992
598	5.516229	100003840	68825088	27787608	24992
599	5.855585	100003840	68825088	33082392	24992
600	7.846664	100003840	68825088	22619800	24992
601	7.319457	100003840	68825088	29234272	24992
602	0.787367	100003840	68825088	20055472	24992
603	1.510534	100003840	68825088	21393216	24992
604	2.456314	100003840	68825088	23390368	24992
605	2.965595	100003840	68825088	26046928	24992
606	3.678194	100003840	68825088	29363400	24992
607	4.620896	100003840	68825088	33339280	24992
608	6.208644	100003840	68825088	21547144	24992
609	6.106386	100003840	68825088	26841832	24992
610	6.572199	100003840	68825088	32796896	24992
611	8.662733	100003840	68825088	22999328	24992
612	1.023472	100003840	68825088	30252736	24992
613	1.511558	100003840	68825088	31590480	24992
614	2.274791	100003840	68825088	33587632	24992
615	4.024788	100003840	68825088	19813176	24992
616	3.695053	100003840	68825088	23129648	24992
617	4.399555	100003840	68825088	27105528	24992
618	5.129295	100003840	68825088	31740808	24992
619	7.167951	100003840	68825088	20606624	24992
620	6.641073	100003840	68825088	26561672	24992
621	7.530297	100003840	68825088	33176176	24992
622	0.793305	100003840	68825088	24004144	24992
623	1.508283	100003840	68825088	25341888	24992
624	2.23874	100003840	68825088	27339040	24992
625	2.954045	100003840	68825088	29995600	24992
626	3.900715	100003840	68825088	33312072	24992
627	5.524261	100003840	68825088	20862664	24992
628	5.354214	100003840	68825088	25497944	24992
629	5.852647	100003840	68825088	30792632	24992
630	7.702519	100003840	68825088	20322832	24992
631	7.317378	100003840	68825088	26937288	24992
632	1.926547	100003840	68825088	17753104	24992
633	1.524069	100003840	68825088	19090856	24992
634	2.439176	100003840	68825088	21088008	24992
635	2.948542	100003840	68825088	23744568	24992
636	3.677381	100003840	68825088	27061040	24992
637	4.411111	100003840	68825088	31036920	24992
638	6.286957	100003840	68825088	19245520	24992
639	6.069081	100003840	68825088	24540208	24992
640	7.068449	100003840	68825088	30495272	24992
641	8.874251	100003840	68825088	20703152	24992
642	0.796858	100003840	68825088	27956528	24992
643	1.504725	100003840	68825088	29294272	24992
644	2.241457	100003840	68825088	31291424	24992
645	2.948986	100003840	68825088	33947984	24992
646	5.037108	100003840	68825088	20841136	24992
647	4.435255	100003840	68825088	24817016	24992
648	5.131323	100003840	68825088	29452408	24992
649	7.255432	100003840	68825088	18318480	24992
650	6.715695	100003840	68825088	24273528	24992
651	7.443754	100003840	68825088	30888016	24992
652	0.788161	100003840	68825088	21709232	24992
653	1.508959	100003840	68825088	23046976	24992
654	2.244079	100003840	68825088	25044128	24992
655	2.943859	100003840	68825088	27700688	24992
656	3.894899	100003840	68825088	31017160	24992
657	5.833132	100003840	68825088	18568440	24992
658	5.139612	100003840	68825088	23203720	24992
659	5.896608	100003840	68825088	28498408	24992
660	8.026166	100003840	68825088	18028920	24992
661	7.63425	100003840	68825088	24643368	24992
662	0.791998	100003840	68825088	31896744	24992
663	1.505921	100003840	68825088	33234488	24992
664	3.464498	100003840	68825088	18804408	24992
665	3.038859	100003840	68825088	21460968	24992
666	3.676874	100003840	68825088	24777488	24992
667	4.613864	100003840	68825088	28753368	24992
668	5.126105	100003840	68825088	33388696	24992
669	7.341638	100003840	68825088	22267480	24992
670	6.592968	100003840	68825088	28222528	24992
671	8.80396	100003840	68825088	18412056	24992
672	0.81671	100003840	68825088	25665424	24992
673	1.504166	100003840	68825088	27003168	24992
674	2.237039	100003840	68825088	29000320	24992
675	2.974221	100003840	68825088	31656880	24992
676	5.020712	100003840	68825088	18539992	24992
677	4.46826	100003840	68825088	22515904	24992
678	5.253628	100003840	68825088	27151184	24992
679	6.145221	100003840	68825088	32445872	24992
680	8.137327	100003840	68825088	21983984	24992
681	7.592142	100003840	68825088	28598440	24992
682	0.806214	100003840	68825088	19420104	24992
683	1.530518	100003840	68825088	20757848	24992
684	2.271938	100003840	68825088	22755032	24992
685	3.212425	100003840	68825088	25411672	24992
686	3.693953	100003840	68825088	28728144	24992
687	4.413516	100003840	68825088	32704024	24992
688	6.638849	100003840	68825088	20912512	24992
689	5.981363	100003840	68825088	26207200	24992
690	7.110029	100003840	68825088	32162248	24992
691	9.000249	100003840	68825088	22364680	24992
692	0.782793	100003840	68825088	29618104	24992
693	1.518654	100003840	68825088	30955880	24992
694	2.445793	100003840	68825088	32953032	24992
695	4.22702	100003840	68825088	19179248	24992
696	3.686341	100003840	68825088	22495720	24992
697	4.495317	100003840	68825088	26471600	24992
698	5.117454	100003840	68825088	31107024	24992
699	7.401537	100003840	68825088	19973080	24992
700	6.589544	100003840	68825088	25928128	24992
701	7.741754	100003840	68825088	32542584	24992
702	0.786519	100003840	68825088	23371240	24992
703	1.516171	100003840	68825088	24708984	24992
704	2.452978	100003840	68825088	26706136	24992
705	2.954943	100003840	68825088	29362696	24992
706	3.890822	100003840	68825088	32679168	24992
707	5.744451	100003840	68825088	20230336	24992
708	5.361846	100003840	68825088	24865616	24992
709	5.849597	100003840	68825088	30160304	24992
710	7.986894	100003840	68825088	19690600	24992
711	7.3137	100003840	68825088	26305056	24992
712	0.780112	100003840	68825088	33558432	24992
713	1.564487	100003840	68825088	34896176	24992
714	3.570332	100003840	68825088	20465424	24992
715	3.186294	100003840	68825088	23121984	24992
716	3.673427	100003840	68825088	26438456	24992
717	4.396446	100003840	68825088	30414336	24992
718	5.135431	100003840	68825088	35049632	24992
719	7.279229	100003840	68825088	23921968	24992
720	6.793931	100003840	68825088	29877016	24992
721	8.891042	100003840	68825088	20066144	24992
722	0.784257	100003840	68825088	27319520	24992
723	1.523155	100003840	68825088	28657264	24992
724	2.223109	100003840	68825088	30654416	24992
725	2.949056	100003840	68825088	33310976	24992
726	5.073421	100003840	68825088	20199184	24992
727	4.635847	100003840	68825088	24175128	24992
728	5.174827	100003840	68825088	28810408	24992
729	6.322676	100003840	68825088	34105096	24992
730	8.119389	100003840	68825088	23643224	24992
731	7.601552	100003840	68825088	30257680	24992
732	0.788768	100003840	68825088	21078912	24992
733	1.507883	100003840	68825088	22416656	24992
734	2.284127	100003840	68825088	24413872	24992
735	2.944779	100003840	68825088	27070432	24992
736	3.681889	100003840	68825088	30386904	24992
737	4.399929	100003840	68825088	34362784	24992
738	6.762056	100003840	68825088	22571272	24992
739	5.861642	100003840	68825088	27865960	24992
740	6.78404	100003840	68825088	33821008	24992
741	8.78248	100003840	68825088	24023472	24992
742	0.792979	100003840	68825088	31276864	24992
743	1.514624	100003840	68825088	32614672	24992
744	2.435345	100003840	68825088	34611824	24992
745	4.427901	100003840	68825088	20838040	24992
746	3.686111	100003840	68825088	24154520	24992
747	4.611921	100003840	68825088	28130392	24992
748	5.126299	100003840	68825088	32765672	24992
749	7.371964	100003840	68825088	21631616	24992
750	6.584731	100003840	68825088	27586664	24992
751	7.518564	100003840	68825088	34201120	24992
752	0.78778	100003840	68825088	25029760	24992
753	1.504904	100003840	68825088	26367504	24992
754	2.229724	100003840	68825088	28364656	24992
755	2.956432	100003840	68825088	31021264	24992
756	3.691375	100003840	68825088	34337736	24992
757	5.857104	100003840	68825088	21888888	24992
758	5.140899	100003840	68825088	26524168	24992
759	6.076786	100003840	68825088	31818856	24992
760	8.28232	100003840	68825088	21349136	24992
761	7.375852	100003840	68825088	27963840	24992
762	0.78297	100003840	68825088	35217208	24992
763	3.002339	100003840	68825088	20121448	24992
764	2.240356	100003840	68825088	22118600	24992
765	3.166983	100003840	68825088	24775160	24992
766	3.672275	100003840	68825088	28091632	24992
767	4.403734	100003840	68825088	32067512	24992
768	6.884275	100003840	68825088	20276240	24992
769	5.863257	100003840	68825088	25570992	24992
770	6.577948	100003840	68825088	31526040	24992
771	9.045949	100003840	68825088	21720728	24992
772	0.783534	100003840	68825088	28974104	24992
773	1.703795	100003840	68825088	30311848	24992
774	2.23974	100003840	68825088	32309000	24992
775	2.993847	100003840	68825088	34965560	24992
776	5.414133	100003840	68825088	21859384	24992
777	4.416497	100003840	68825088	25835264	24992
778	5.137296	100003840	68825088	30470544	24992
779	6.059631	100003840	68825088	35765232	24992
780	8.134	100003840	68825088	25301664	24992
781	7.534241	100003840	68825088	31916120	24992
782	0.803598	100003840	68825088	22737384	24992
783	1.588877	100003840	68825088	24075128	24992
784	2.356038	100003840	68825088	26072280	24992
785	3.690607	100003840	68825088	28728944	24992
786	3.89494	100003840	68825088	32045416	24992
787	6.134226	100003840	68825088	19595672	24992
788	5.380228	100003840	68825088	24230944	24992
789	5.943421	100003840	68825088	29525632	24992
790	6.793143	100003840	68825088	35480680	24992
791	8.997378	100003840	68825088	25682832	24992
792	0.782479	100003840	68825088	32936288	24992
793	1.509072	100003840	68825088	34274032	24992
794	3.98873	100003840	68825088	19843960	24992
795	2.973568	100003840	68825088	22500512	24992
796	3.682349	100003840	68825088	25816984	24992
797	4.607634	100003840	68825088	29792880	24992
798	5.126133	100003840	68825088	34428160	24992
799	7.720428	100003840	68825088	23293984	24992
800	6.608034	100003840	68825088	29249096	24992
801	7.521212	100003840	68825088	35863552	24992
802	0.786466	100003840	68825088	26698136	24992
803	1.514517	100003840	68825088	28035880	24992
804	2.233205	100003840	68825088	30033032	24992
805	3.002588	100003840	68825088	32689672	24992
806	3.726507	100003840	68825088	36006144	24992
807	6.033649	100003840	68825088	23556624	24992
808	5.369229	100003840	68825088	28191936	24992
809	5.845067	100003840	68825088	33486624	24992
810	8.434995	100003840	68825088	23016808	24992
811	7.320382	100003840	68825088	29631264	24992
812	2.386307	100003840	68825088	20447152	24992
813	1.524402	100003840	68825088	21784896	24992
814	2.456569	100003840	68825088	23782048	24992
815	2.953858	100003840	68825088	26438608	24992
816	3.670684	100003840	68825088	29755080	24992
817	4.603347	100003840	68825088	33730960	24992
818	6.788154	100003840	68825088	21939496	24992
819	5.875369	100003840	68825088	27234184	24992
820	6.574194	100003840	68825088	33189232	24992
821	9.198045	100003840	68825088	23388272	24992
822	0.801019	100003840	68825088	30641648	24992
823	1.505611	100003840	68825088	31979392	24992
824	2.298594	100003840	68825088	33976544	24992
825	4.588406	100003840	68825088	20202760	24992
826	3.744973	100003840	68825088	23519232	24992
827	4.399958	100003840	68825088	27495112	24992
828	5.130474	100003840	68825088	32130392	24992
829	7.783872	100003840	68825088	20996432	24992
830	6.910973	100003840	68825088	26951528	24992
831	7.568018	100003840	68825088	33565984	24992
832	0.789126	100003840	68825088	24394752	24992
833	1.569052	100003840	68825088	25732496	24992
834	2.218328	100003840	68825088	27729648	24992
835	3.182797	100003840	68825088	30386208	24992
836	3.727064	100003840	68825088	33702728	24992
837	6.206053	100003840	68825088	21254008	24992
838	5.183673	100003840	68825088	25889288	24992
839	5.907241	100003840	68825088	31183976	24992
840	8.52307	100003840	68825088	20714488	24992
841	7.536764	100003840	68825088	27329048	24992
842	0.77945	100003840	68825088	34582424	24992
843	1.508661	100003840	68825088	35920168	24992
844	3.951325	100003840	68825088	21490104	24992
845	2.976639	100003840	68825088	24146664	24992
846	3.881587	100003840	68825088	27463136	24992
847	4.634292	100003840	68825088	31439080	24992
848	5.181209	100003840	68825088	36074360	24992
849	7.790023	100003840	68825088	24952424	24992
850	6.650822	100003840	68825088	30917808	24992
851	9.04262	100003840	68825088	21120272	24992
852	0.784047	100003840	68825088	28373648	24992
853	1.506349	100003840	68825088	29711392	24992
854	2.233354	100003840	68825088	31708544	24992
855	3.173794	100003840	68825088	34365168	24992
856	5.419505	100003840	68825088	21258496	24992
857	4.418338	100003840	68825088	25234520	24992
858	5.171426	100003840	68825088	29869800	24992
859	5.844424	100003840	68825088	35164488	24992
860	8.559136	100003840	68825088	24702568	24992
861	7.604953	100003840	68825088	31317024	24992
862	0.80532	100003840	68825088	22138496	24992
863	1.509873	100003840	68825088	23476240	24992
864	2.222589	100003840	68825088	25473456	24992
865	2.95845	100003840	68825088	28130016	24992
866	3.678803	100003840	68825088	31446488	24992
867	4.660695	100003840	68825088	35422368	24992
868	6.968674	100003840	68825088	23630888	24992
869	6.118783	100003840	68825088	28925624	24992
870	6.795695	100003840	68825088	34880672	24992
871	9.174187	100003840	68825088	25083104	24992
872	0.781996	100003840	68825088	32336480	24992
873	1.503277	100003840	68825088	33674224	24992
874	2.236613	100003840	68825088	35671376	24992
875	4.937681	100003840	68825088	21897592	24992
876	3.711558	100003840	68825088	25214064	24992
877	4.405464	100003840	68825088	29189944	24992
878	5.303271	100003840	68825088	33825224	24992
879	8.020827	100003840	68825088	22691280	24992
880	7.096332	100003840	68825088	28646424	24992
881	7.986406	100003840	68825088	35260880	24992
882	0.993461	100003840	68825088	26089520	24992
883	1.510384	100003840	68825088	27427264	24992
884	2.276623	100003840	68825088	29424416	24992
885	2.941622	100003840	68825088	32080976	24992
886	3.678533	100003840	68825088	35397448	24992
887	6.329767	100003840	68825088	22948600	24992
888	5.137232	100003840	68825088	27583880	24992
889	6.079101	100003840	68825088	32878568	24992
890	8.673377	100003840	68825088	22408848	24992
891	7.319315	100003840	68825088	29023352	24992
892	0.777817	100003840	68825088	36276728	24992
893	3.330435	100003840	68825088	21181656	24992
894	2.559948	100003840	68825088	23180432	24992
895	3.186501	100003840	68825088	25836992	24992
896	3.687381	100003840	68825088	29153464	24992
897	4.413886	100003840	68825088	33129360	24992
898	7.386263	100003840	68825088	21338072	24992
899	6.170492	100003840	68825088	26632760	24992
900	6.602834	100003840	68825088	32587824	24992
901	9.298833	100003840	68825088	22782544	24992
902	1.022111	100003840	68825088	30035920	24992
903	1.512261	100003840	68825088	31373664	24992
904	2.22916	100003840	68825088	33370816	24992
905	2.94418	100003840	68825088	36027376	24992
906	5.820036	100003840	68825088	22921264	24992
907	4.413048	100003840	68825088	26897144	24992
908	5.126061	100003840	68825088	31532424	24992
909	5.85797	100003840	68825088	36827112	24992
910	8.759266	100003840	68825088	26365208	24992
911	7.311483	100003840	68825088	32979664	24992
912	0.803907	100003840	68825088	23800992	24992
913	2.042926	100003840	68825088	25138816	24992
914	2.258508	100003840	68825088	27138032	24992
915	3.242166	100003840	68825088	29794592	24992
916	3.907952	100003840	68825088	33111064	24992
917	4.445098	100003840	68825088	37086944	24992
918	7.233676	100003840	68825088	25295112	24992
919	5.925012	100003840	68825088	30589816	24992
920	6.578418	100003840	68825088	36544864	24992
921	9.513167	100003840	68825088	26747680	24992
922	1.010039	100003840	68825088	34001056	24992
923	1.510958	100003840	68825088	35338800	24992
924	2.237507	100003840	68825088	37335952	24992
925	4.83262	100003840	68825088	23561480	24992
926	3.709224	100003840	68825088	26877952	24992
927	4.401913	100003840	68825088	30853832	24992
928	5.119866	100003840	68825088	35489112	24992
929	7.996845	100003840	68825088	24354944	24992
930	6.801148	100003840	68825088	30309992	24992
931	7.315906	100003840	68825088	36924448	24992
932	0.802954	100003840	68825088	27753088	24992
933	1.543788	100003840	68825088	29090832	24992
934	2.267989	100003840	68825088	31087984	24992
935	3.253297	100003840	68825088	33744544	24992
936	3.682186	100003840	68825088	37061016	24992
937	6.618484	100003840	68825088	24612168	24992
938	5.155184	100003840	68825088	29247480	24992
939	6.074989	100003840	68825088	34542184	24992
940	8.613097	100003840	68825088	24072480	24992
941	7.60878	100003840	68825088	30687128	24992
942	0.995475	100003840	68825088	37940504	24992
943	3.490537	100003840	68825088	22844760	24992
944	2.286653	100003840	68825088	24841912	24992
945	3.014808	100003840	68825088	27498472	24992
946	3.756992	100003840	68825088	30814944	24992
947	4.484838	100003840	68825088	34790904	24992
948	7.490897	100003840	68825088	22999616	24992
949	5.908601	100003840	68825088	28294304	24992
950	6.850653	100003840	68825088	34249352	24992
951	9.334889	100003840	68825088	24443992	24992
952	0.78212	100003840	68825088	31697432	24992
953	1.51801	100003840	68825088	33035176	24992
954	2.226931	100003840	68825088	35032392	24992
955	3.313168	100003840	68825088	37688952	24992
956	5.715447	100003840	68825088	24582360	24992
957	4.693431	100003840	68825088	28558240	24992
958	5.12986	100003840	68825088	33193520	24992
959	8.223963	100003840	68825088	22059568	24992
960	6.712724	100003840	68825088	28014624	24992
961	7.837715	100003840	68825088	34629112	24992
962	0.791367	100003840	68825088	25450344	24992
963	1.51892	100003840	68825088	26788104	24992
964	2.227499	100003840	68825088	28785256	24992
965	2.9555	100003840	68825088	31441816	24992
966	3.897424	100003840	68825088	34758288	24992
967	6.435246	100003840	68825088	22309704	24992
968	5.424348	100003840	68825088	26944976	24992
969	5.861841	100003840	68825088	32239664	24992
970	6.878898	100003840	68825088	38194728	24992
971	9.726881	100003840	68825088	28396480	24992
972	0.789873	100003840	68825088	35649856	24992
973	1.509582	100003840	68825088	36987600	24992
974	4.270599	100003840	68825088	22557536	24992
975	3.020944	100003840	68825088	25214096	24992
976	3.752381	100003840	68825088	28530568	24992
977	4.69018	100003840	68825088	32506448	24992
978	5.147272	100003840	68825088	37141728	24992
979	8.178594	100003840	68825088	26007552	24992
980	6.613183	100003840	68825088	31962600	24992
981	7.369761	100003840	68825088	38577056	24992
982	0.783476	100003840	68825088	29404664	24992
983	1.516634	100003840	68825088	30742408	24992
984	2.460972	100003840	68825088	32739560	24992
985	2.955349	100003840	68825088	35396120	24992
986	5.960617	100003840	68825088	22279232	24992
987	4.513246	100003840	68825088	26255104	24992
988	5.186106	100003840	68825088	30890400	24992
989	5.855266	100003840	68825088	36185088	24992
990	8.946746	100003840	68825088	25721736	24992
991	7.547208	100003840	68825088	32336208	24992
992	0.795139	100003840	68825088	23157872	24992
993	1.569754	100003840	68825088	24495616	24992
994	2.225461	100003840	68825088	26492768	24992
995	3.001319	100003840	68825088	29149328	24992
996	3.680222	100003840	68825088	32465800	24992
997	4.625124	100003840	68825088	36441680	24992
998	7.256779	100003840	68825088	24650168	24992
999	6.077836	100003840	68825088	29944856	24992
1000	6.633308	100003840	68825088	35899936	24992
