x	Duration	RSS	HeapTotal	HeapUsed	External
0	NA	100470784	69349376	10881360	24992
1	1.513473	100470784	69349376	11561488	24992
2	2.792102	100470784	69349376	12900848	24992
3	3.632502	100470784	69349376	14898600	24992
4	2.939808	100470784	69349376	17555920	24992
5	3.866832	100470784	69349376	20873392	24992
6	4.619787	100470784	69349376	24850352	24992
7	5.402023	100470784	69349376	13021976	24992
8	5.971342	100470784	69349376	18318064	24992
9	6.758913	100470784	69349376	24274688	24992
10	7.544285	100470784	69349376	14431680	24992
11	7.983426	100470784	69349376	21707512	24992
12	0.819478	100470784	69349376	13147880	24992
13	1.569115	100470784	69349376	14486144	24992
14	2.21894	100470784	69349376	16483960	24992
15	3.200777	100470784	69349376	19141344	24992
16	3.703988	100470784	69349376	22458864	24992
17	4.846887	100470784	69349376	26438296	24992
18	5.384176	100470784	69349376	14609416	24992
19	5.807798	100470784	69349376	19905936	24992
20	6.798366	100470784	69349376	25862624	24992
21	7.788415	100470784	69349376	16020608	24992
22	0.783846	100470784	69349376	23276056	24992
23	1.512187	100470784	69349376	24614320	24992
24	2.270701	100470784	69349376	26612136	24992
25	3.180335	100470784	69349376	12800768	24992
26	3.767714	100470784	69349376	16118240	24992
27	4.679144	100470784	69349376	20095296	24992
28	5.091734	100470784	69349376	24731880	24992
29	6.25577	100470784	69349376	13562168	24992
30	6.567542	100470784	69349376	19518888	24992
31	7.320628	100470784	69349376	26135128	24992
32	0.789984	100470784	69349376	16924288	24992
33	1.747683	100470784	69349376	18262552	24992
34	2.212431	100470784	69349376	20260368	24992
35	2.98601	100470784	69349376	22917752	24992
36	3.699753	100470784	69349376	26235224	24992
37	4.80062	100470784	69349376	13746408	24992
38	5.10851	100470784	69349376	18382992	24992
39	5.889113	100470784	69349376	23679144	24992
40	6.801043	100470784	69349376	13172736	24992
41	7.350335	100470784	69349376	19789040	24992
42	1.027943	100470784	69349376	27044488	24992
43	1.715716	100470784	69349376	11910496	24992
44	2.326874	100470784	69349376	13908312	24992
45	2.949109	100470784	69349376	16566368	24992
46	3.673424	100470784	69349376	19883840	24992
47	4.780351	100470784	69349376	23860912	24992
48	5.584648	100470784	69349376	12032480	24992
49	6.021754	100470784	69349376	17328632	24992
50	7.317498	100470784	69349376	23285416	24992
51	7.838542	100470784	69349376	13454072	24992
52	0.77899	100470784	69349376	20709584	24992
53	1.55846	100470784	69349376	22047848	24992
54	2.207108	100470784	69349376	24045712	24992
55	2.936519	100470784	69349376	26703096	24992
56	4.082778	100470784	69349376	13554336	24992
57	4.353293	100470784	69349376	17531360	24992
58	5.333899	100470784	69349376	22167944	24992
59	5.777454	100470784	69349376	27464096	24992
60	6.737838	100470784	69349376	16957992	24992
61	7.44676	100470784	69349376	23574456	24992
62	0.784118	100470784	69349376	14360160	24992
63	1.498157	100470784	69349376	15698424	24992
64	2.606017	100470784	69349376	17698936	24992
65	3.136467	100470784	69349376	20356320	24992
66	3.641294	100470784	69349376	23673792	24992
67	4.344893	100470784	69349376	27650880	24992
68	5.552676	100470784	69349376	15820328	24992
69	5.798837	100470784	69349376	21116480	24992
70	6.529899	100470784	69349376	27073184	24992
71	7.440358	100470784	69349376	17230240	24992
72	0.777224	100470784	69349376	24485688	24992
73	1.552912	100470784	69349376	25823952	24992
74	2.207086	100470784	69349376	27821800	24992
75	3.36761	100470784	69349376	14008856	24992
76	3.643472	100470784	69349376	17326344	24992
77	4.346222	100470784	69349376	21303368	24992
78	5.075135	100470784	69349376	25939952	24992
79	5.999645	100470784	69349376	14769568	24992
80	6.773763	100470784	69349376	20726448	24992
81	7.246623	100470784	69349376	27343920	24992
82	0.791812	100470784	69349376	18132728	24992
83	1.503753	100470784	69349376	19470904	24992
84	2.265153	100470784	69349376	21469784	24992
85	2.915918	100470784	69349376	24127096	24992
86	3.660341	100470784	69349376	27444480	24992
87	5.320166	100470784	69349376	14959856	24992
88	5.059588	100470784	69349376	19595728	24992
89	5.770737	100470784	69349376	24891088	24992
90	7.006262	100470784	69349376	14383864	24992
91	7.518921	100470784	69349376	20999152	24992
92	0.998976	100470784	69349376	11777840	24992
93	1.495684	100470784	69349376	13115784	24992
94	2.277209	100470784	69349376	15113320	24992
95	2.909458	100470784	69349376	17770288	24992
96	3.626309	100470784	69349376	21087200	24992
97	4.553224	100470784	69349376	25063592	24992
98	5.322749	100470784	69349376	13232672	24992
99	6.24557	100470784	69349376	18528032	24992
100	6.47281	100470784	69349376	24483832	24992
101	7.470898	100470784	69349376	14637576	24992
102	0.771825	100470784	69349376	21891928	24992
103	1.721312	100470784	69349376	23229864	24992
104	2.196768	100470784	69349376	25227288	24992
105	2.906426	100470784	69349376	27884200	24992
106	3.837886	100470784	69349376	14733664	24992
107	4.569462	100470784	69349376	18710056	24992
108	5.098526	100470784	69349376	23345928	24992
109	6.05117	100470784	69349376	12174536	24992
110	6.485475	100470784	69349376	18130352	24992
111	7.398775	100470784	69349376	24745640	24992
112	1.000554	100470784	69349376	15529888	24992
113	1.489541	100470784	69349376	16867824	24992
114	2.204053	100470784	69349376	18865264	24992
115	2.943786	100470784	69349376	21522424	24992
116	3.620373	100470784	69349376	24839336	24992
117	4.796484	100470784	69349376	12350768	24992
118	5.199233	100470784	69349376	16986640	24992
119	6.191512	100470784	69349376	22283960	24992
120	6.768665	100470784	69349376	28239760	24992
121	7.66756	100470784	69349376	18384744	24992
122	0.77243	100470784	69349376	25639096	24992
123	1.484257	100470784	69349376	26977032	24992
124	2.446461	100470784	69349376	12504744	24992
125	3.005336	100470784	69349376	15161656	24992
126	3.698241	100470784	69349376	18478560	24992
127	4.405808	100470784	69349376	22454984	24992
128	5.314478	100470784	69349376	27092960	24992
129	6.285732	100470784	69349376	15924888	24992
130	6.458948	100470784	69349376	21880736	24992
131	7.650392	100470784	69349376	12030608	24992
132	0.777508	100470784	69349376	19284920	24992
133	1.491719	100470784	69349376	20622856	24992
134	2.185001	100470784	69349376	22620328	24992
135	2.94435	100470784	69349376	25277240	24992
136	4.080351	100470784	69349376	12123896	24992
137	4.334978	100470784	69349376	16100280	24992
138	5.045759	100470784	69349376	20736152	24992
139	5.833811	100470784	69349376	26031512	24992
140	7.0606	100470784	69349376	15524704	24992
141	7.180099	100470784	69349376	22140008	24992
142	0.790711	100470784	69349376	12928472	24992
143	1.510538	100470784	69349376	14266408	24992
144	2.245241	100470784	69349376	16263832	24992
145	2.954803	100470784	69349376	18920744	24992
146	3.836741	100470784	69349376	22237648	24992
147	4.474195	100470784	69349376	26215128	24992
148	5.538645	100470784	69349376	14385936	24992
149	5.980277	100470784	69349376	19681296	24992
150	6.461479	100470784	69349376	25637096	24992
151	7.519734	100470784	69349376	15792816	24992
152	0.771251	100470784	69349376	23047136	24992
153	1.487018	100470784	69349376	24385072	24992
154	2.247781	100470784	69349376	26382560	24992
155	3.394521	100470784	69349376	12569456	24992
156	3.622175	100470784	69349376	15886360	24992
157	4.32323	100470784	69349376	19862752	24992
158	5.02982	100470784	69349376	24498624	24992
159	6.002724	100470784	69349376	13327240	24992
160	6.706872	100470784	69349376	19283040	24992
161	7.183836	100470784	69349376	25898360	24992
162	0.795878	100470784	69349376	16685256	24992
163	1.509719	100470784	69349376	18023272	24992
164	2.196658	100470784	69349376	20020696	24992
165	2.984086	100470784	69349376	22677608	24992
166	3.615808	100470784	69349376	25994512	24992
167	4.62913	100470784	69349376	13504128	24992
168	5.307944	100470784	69349376	18140000	24992
169	5.752797	100470784	69349376	23435360	24992
170	6.945652	100470784	69349376	12927080	24992
171	7.185126	100470784	69349376	19542368	24992
172	0.767273	100470784	69349376	26796688	24992
173	1.494136	100470784	69349376	28134624	24992
174	2.877393	100470784	69349376	13661688	24992
175	2.93502	100470784	69349376	16318616	24992
176	3.661739	100470784	69349376	19635520	24992
177	4.328851	100470784	69349376	23611912	24992
178	5.24771	100470784	69349376	28247784	24992
179	6.094446	100470784	69349376	17079656	24992
180	6.588662	100470784	69349376	23035456	24992
181	7.768418	100470784	69349376	13185128	24992
182	0.769377	100470784	69349376	20439512	24992
183	1.486875	100470784	69349376	21777448	24992
184	2.412824	100470784	69349376	23774872	24992
185	2.912994	100470784	69349376	26431784	24992
186	3.862448	100470784	69349376	13278304	24992
187	4.343455	100470784	69349376	17254696	24992
188	5.039872	100470784	69349376	21890568	24992
189	5.737306	100470784	69349376	27185928	24992
190	7.00997	100470784	69349376	16679152	24992
191	7.498073	100470784	69349376	23294440	24992
192	0.791172	100470784	69349376	14078904	24992
193	1.530653	100470784	69349376	15416840	24992
194	2.240861	100470784	69349376	17414264	24992
195	2.970494	100470784	69349376	20071176	24992
196	3.685383	100470784	69349376	23388080	24992
197	4.604401	100470784	69349376	27364472	24992
198	5.343772	100470784	69349376	15533448	24992
199	6.058327	100470784	69349376	20828808	24992
200	6.68538	100470784	69349376	26784608	24992
201	7.480155	100470784	69349376	16940200	24992
202	0.787599	100470784	69349376	24194552	24992
203	1.735489	100470784	69349376	25532552	24992
204	2.193524	100470784	69349376	27529976	24992
205	3.137844	100470784	69349376	13716840	24992
206	3.63064	100470784	69349376	17033744	24992
207	4.533398	100470784	69349376	21010184	24992
208	5.039085	100470784	69349376	25646056	24992
209	5.99593	100470784	69349376	14474560	24992
210	7.380065	100470784	69349376	20430496	24992
211	7.485437	100470784	69349376	27060272	24992
212	0.775667	100470784	69349376	17847104	24992
213	1.489615	100470784	69349376	19185040	24992
214	2.194666	100470784	69349376	21182464	24992
215	2.909294	100470784	69349376	23839392	24992
216	3.761744	100470784	69349376	27156296	24992
217	4.646321	100470784	69349376	14665848	24992
218	5.322624	100470784	69349376	19301736	24992
219	6.015102	100470784	69349376	24600112	24992
220	6.728166	100470784	69349376	14092168	24992
221	7.229137	100470784	69349376	20707440	24992
222	0.77253	100470784	69349376	27961744	24992
223	1.723402	100470784	69349376	12827648	24992
224	2.195037	100470784	69349376	14825048	24992
225	3.096913	100470784	69349376	17481944	24992
226	3.798189	100470784	69349376	20798832	24992
227	4.320488	100470784	69349376	24775224	24992
228	5.282943	100470784	69349376	12944400	24992
229	5.781292	100470784	69349376	18242616	24992
230	6.543633	100470784	69349376	24198400	24992
231	7.709884	100470784	69349376	14352984	24992
232	0.774204	100470784	69349376	21607272	24992
233	1.57423	100470784	69349376	22945192	24992
234	2.191031	100470784	69349376	24942600	24992
235	2.960959	100470784	69349376	27599496	24992
236	4.109376	100470784	69349376	14452512	24992
237	4.51487	100470784	69349376	18428888	24992
238	5.42873	100470784	69349376	23064744	24992
239	5.925172	100470784	69349376	28360088	24992
240	6.982828	100470784	69349376	17855176	24992
241	7.33391	100470784	69349376	24470448	24992
242	0.782581	100470784	69349376	15255840	24992
243	1.492882	100470784	69349376	16593696	24992
244	2.238724	100470784	69349376	18590960	24992
245	3.101848	100470784	69349376	21247664	24992
246	3.657626	100470784	69349376	24564312	24992
247	4.324694	100470784	69349376	28540400	24992
248	5.533009	100470784	69349376	16708704	24992
249	5.763255	100470784	69349376	22003664	24992
250	6.651071	100470784	69349376	27959080	24992
251	7.435175	100470784	69349376	18114544	24992
252	0.770143	100470784	69349376	25368304	24992
253	1.489984	100470784	69349376	26706128	24992
254	2.187192	100470784	69349376	28703392	24992
255	3.402003	100470784	69349376	14889376	24992
256	3.670288	100470784	69349376	18206024	24992
257	4.364809	100470784	69349376	22182112	24992
258	5.043454	100470784	69349376	26817632	24992
259	6.066821	100470784	69349376	15645624	24992
260	6.756445	100470784	69349376	21600976	24992
261	7.226476	100470784	69349376	28215768	24992
262	0.782518	100470784	69349376	19002056	24992
263	1.485329	100470784	69349376	20339912	24992
264	2.354137	100470784	69349376	22337176	24992
265	2.922843	100470784	69349376	24993880	24992
266	3.643891	100470784	69349376	28310528	24992
267	4.634107	100470784	69349376	15819872	24992
268	5.15629	100470784	69349376	20455392	24992
269	5.855819	100470784	69349376	25750352	24992
270	6.999536	100470784	69349376	15241640	24992
271	7.482782	100470784	69349376	21856432	24992
272	0.771038	100470784	69349376	29110192	24992
273	1.722056	100470784	69349376	13974872	24992
274	2.202683	100470784	69349376	15972136	24992
275	2.909108	100470784	69349376	18628840	24992
276	3.813525	100470784	69349376	21945488	24992
277	4.489573	100470784	69349376	25921576	24992
278	5.385291	100470784	69349376	14090408	24992
279	5.857781	100470784	69349376	19385368	24992
280	6.491912	100470784	69349376	25340832	24992
281	7.448708	100470784	69349376	15492056	24992
282	0.785005	100470784	69349376	22745848	24992
283	1.530002	100470784	69349376	24083672	24992
284	2.223166	100470784	69349376	26080936	24992
285	2.909516	100470784	69349376	28737640	24992
286	3.884606	100470784	69349376	15587536	24992
287	4.624063	100470784	69349376	19563656	24992
288	5.270136	100470784	69349376	24201736	24992
289	5.952779	100470784	69349376	29496424	24992
290	6.69686	100470784	69349376	18978768	24992
291	7.169042	100470784	69349376	25593224	24992
292	0.775256	100470784	69349376	16376520	24992
293	1.7824	100470784	69349376	17714272	24992
294	2.186012	100470784	69349376	19711416	24992
295	2.895401	100470784	69349376	22368056	24992
296	3.61522	100470784	69349376	25684528	24992
297	4.784904	100470784	69349376	13193072	24992
298	5.873621	100470784	69349376	17828360	24992
299	5.856684	100470784	69349376	23131968	24992
300	6.845599	100470784	69349376	29087016	24992
301	7.844861	100470784	69349376	19253984	24992
302	0.764102	100470784	69349376	26507408	24992
303	1.480285	100470784	69349376	27845200	24992
304	2.440929	100470784	69349376	13402040	24992
305	2.904962	100470784	69349376	16058592	24992
306	3.80268	100470784	69349376	19375120	24992
307	4.308135	100470784	69349376	23350992	24992
308	5.013107	100470784	69349376	27986272	24992
309	6.239995	100470784	69349376	16852432	24992
310	6.463112	100470784	69349376	22807480	24992
311	7.302857	100470784	69349376	29421936	24992
312	0.771309	100470784	69349376	20256856	24992
313	1.490171	100470784	69349376	21594600	24992
314	2.185341	100470784	69349376	23591752	24992
315	2.897305	100470784	69349376	26248328	24992
316	3.795653	100470784	69349376	29564800	24992
317	4.625851	100470784	69349376	17115616	24992
318	5.067608	100470784	69349376	21750896	24992
319	5.741137	100470784	69349376	27045584	24992
320	6.750261	100470784	69349376	16576280	24992
321	7.371336	100470784	69349376	23190736	24992
322	1.105712	100470784	69349376	14006704	24992
323	1.54451	100470784	69349376	15344448	24992
324	2.182281	100470784	69349376	17341600	24992
325	2.950825	100470784	69349376	19998160	24992
326	3.654846	100470784	69349376	23314632	24992
327	4.562769	100470784	69349376	27290512	24992
328	5.597841	100470784	69349376	15499352	24992
329	5.725016	100470784	69349376	20794072	24992
330	6.638943	100470784	69349376	26749120	24992
331	7.518112	100470784	69349376	16948752	24992
332	0.770927	100470784	69349376	24202128	24992
333	1.476977	100470784	69349376	25539872	24992
334	2.184359	100470784	69349376	27537024	24992
335	3.216827	100470784	69349376	13763512	24992
336	3.847323	100470784	69349376	17079984	24992
337	4.429745	100470784	69349376	21055864	24992
338	5.246184	100470784	69349376	25691144	24992
339	6.216968	100470784	69349376	14557520	24992
340	6.767917	100470784	69349376	20512600	24992
341	7.151794	100470784	69349376	27127056	24992
342	0.770112	100470784	69349376	17956208	24992
343	1.476339	100470784	69349376	19293952	24992
344	2.186688	100470784	69349376	21291136	24992
345	3.09759	100470784	69349376	23947696	24992
346	3.798796	100470784	69349376	27264200	24992
347	4.725976	100470784	69349376	14815816	24992
348	5.369179	100470784	69349376	19453688	24992
349	5.739205	100470784	69349376	24748376	24992
350	7.043929	100470784	69349376	14279400	24992
351	7.462081	100470784	69349376	20893912	24992
352	0.786577	100470784	69349376	28147512	24992
353	1.508871	100470784	69349376	29485256	24992
354	2.664214	100470784	69349376	15055464	24992
355	2.897591	100470784	69349376	17712024	24992
356	3.59181	100470784	69349376	21028496	24992
357	4.330247	100470784	69349376	25004392	24992
358	5.261357	100470784	69349376	29639672	24992
359	6.251145	100470784	69349376	18518136	24992
360	6.658605	100470784	69349376	24477648	24992
361	7.740882	100470784	69349376	14671856	24992
362	0.767835	100470784	69349376	21925232	24992
363	1.47445	100470784	69349376	23262976	24992
364	2.397261	100470784	69349376	25260128	24992
365	2.891382	100470784	69349376	27916784	24992
366	4.03516	100470784	69349376	14804504	24992
367	4.426934	100470784	69349376	18780384	24992
368	5.023668	100470784	69349376	23415664	24992
369	5.72757	100470784	69349376	28710352	24992
370	7.096151	100470784	69349376	18248832	24992
371	7.349803	100470784	69349376	24863288	24992
372	0.772008	100470784	69349376	15684936	24992
373	1.537508	100470784	69349376	17022680	24992
374	2.190287	100470784	69349376	19019832	24992
375	2.897115	100470784	69349376	21676392	24992
376	3.599302	100470784	69349376	24992864	24992
377	4.507263	100470784	69349376	28968744	24992
378	5.747654	100470784	69349376	17177616	24992
379	6.052682	100470784	69349376	22472400	24992
380	6.449084	100470784	69349376	28427448	24992
381	7.681823	100470784	69349376	18630456	24992
382	0.983387	100470784	69349376	25883832	24992
383	1.504757	100470784	69349376	27221576	24992
384	2.191181	100470784	69349376	29218728	24992
385	3.378466	100470784	69349376	15445216	24992
386	3.694045	100470784	69349376	18761688	24992
387	4.559589	100470784	69349376	22737568	24992
388	5.022318	100470784	69349376	27372848	24992
389	6.296763	100470784	69349376	16239240	24992
390	6.561545	100470784	69349376	22194288	24992
391	7.387202	100470784	69349376	28808744	24992
392	0.77172	100470784	69349376	19637672	24992
393	1.473839	100470784	69349376	20975416	24992
394	2.184876	100470784	69349376	22972568	24992
395	2.894541	100470784	69349376	25629128	24992
396	3.646641	100470784	69349376	28945616	24992
397	4.820609	100470784	69349376	16497152	24992
398	5.026663	100470784	69349376	21132432	24992
399	5.998911	100470784	69349376	26427120	24992
400	6.9523	100470784	69349376	15957912	24992
401	7.359326	100470784	69349376	22572480	24992
402	0.764675	100470784	69349376	29825856	24992
403	2.038858	100470784	69349376	14730992	24992
404	2.345816	100470784	69349376	16729160	24992
405	2.907964	100470784	69349376	19385720	24992
406	3.797337	100470784	69349376	22702192	24992
407	4.303128	100470784	69349376	26678072	24992
408	5.738111	100470784	69349376	14886160	24992
409	5.738187	100470784	69349376	20180848	24992
410	6.484667	100470784	69349376	26135912	24992
411	7.7059	100470784	69349376	16329384	24992
412	0.766525	100470784	69349376	23582760	24992
413	1.473273	100470784	69349376	24920504	24992
414	2.190387	100470784	69349376	26917656	24992
415	2.882451	100470784	69349376	29574216	24992
416	4.398509	100470784	69349376	16466696	24992
417	4.403372	100470784	69349376	20442576	24992
418	5.285394	100470784	69349376	25077856	24992
419	5.766477	100470784	69349376	30372544	24992
420	7.230529	100470784	69349376	19908432	24992
421	7.164373	100470784	69349376	26522888	24992
422	0.771243	100470784	69349376	17343144	24992
423	1.533274	100470784	69349376	18680888	24992
424	2.18571	100470784	69349376	20678040	24992
425	3.084239	100470784	69349376	23334600	24992
426	3.604501	100470784	69349376	26651072	24992
427	4.310213	100470784	69349376	30626952	24992
428	6.01155	100470784	69349376	18833456	24992
429	5.744114	100470784	69349376	24128160	24992
430	6.445924	100470784	69349376	30083208	24992
431	7.769393	100470784	69349376	20284056	24992
432	0.823208	100470784	69349376	27538432	24992
433	1.471755	100470784	69349376	28876176	24992
434	2.176897	100470784	69349376	30873328	24992
435	3.682231	100470784	69349376	17097688	24992
436	3.614836	100470784	69349376	20414160	24992
437	4.619579	100470784	69349376	24390040	24992
438	5.106829	100470784	69349376	29025320	24992
439	6.461573	100470784	69349376	17889808	24992
440	6.65376	100470784	69349376	23844936	24992
441	7.340395	100470784	69349376	30459392	24992
442	0.767749	100470784	69349376	21286976	24992
443	1.707655	100470784	69349376	22624720	24992
444	2.204327	100470784	69349376	24621872	24992
445	2.892951	100470784	69349376	27278432	24992
446	3.626415	100470784	69349376	30594904	24992
447	5.006648	100470784	69349376	18144840	24992
448	5.024243	100470784	69349376	22780120	24992
449	5.939562	100470784	69349376	28074936	24992
450	7.131367	100470784	69349376	17603824	24992
451	7.334718	100470784	69349376	24218328	24992
452	0.799159	100470784	69349376	31471704	24992
453	2.131845	100470784	69349376	16375080	24992
454	2.209648	100470784	69349376	18372232	24992
455	2.882287	100470784	69349376	21028792	24992
456	3.606913	100470784	69349376	24345264	24992
457	4.500627	100470784	69349376	28321144	24992
458	5.682077	100470784	69349376	16528512	24992
459	5.945707	100470784	69349376	21823200	24992
460	6.491314	100470784	69349376	27778264	24992
461	7.82671	100470784	69349376	17971496	24992
462	0.766813	100470784	69349376	25224872	24992
463	1.475549	100470784	69349376	26562616	24992
464	2.184638	100470784	69349376	28559832	24992
465	2.895617	100470784	69349376	31216392	24992
466	4.466815	100470784	69349376	18108344	24992
467	4.312943	100470784	69349376	22084224	24992
468	5.053701	100470784	69349376	26719504	24992
469	6.46555	100470784	69349376	15584320	24992
470	6.443269	100470784	69349376	21539488	24992
471	7.345563	100470784	69349376	28153944	24992
472	0.785152	100470784	69349376	18974456	24992
473	1.477972	100470784	69349376	20312248	24992
474	2.171442	100470784	69349376	22309400	24992
475	2.876185	100470784	69349376	24965960	24992
476	3.617379	100470784	69349376	28282432	24992
477	5.00917	100470784	69349376	15832584	24992
478	5.524631	100470784	69349376	20467904	24992
479	5.726857	100470784	69349376	25762704	24992
480	6.693593	100470784	69349376	31717752	24992
481	7.876989	100470784	69349376	21917920	24992
482	0.765306	100470784	69349376	29171296	24992
483	1.49719	100470784	69349376	30509040	24992
484	2.905218	100470784	69349376	16077920	24992
485	3.105847	100470784	69349376	18734480	24992
486	3.60295	100470784	69349376	22050952	24992
487	4.304737	100470784	69349376	26026832	24992
488	5.216197	100470784	69349376	30662112	24992
489	6.71823	100470784	69349376	19526704	24992
490	6.537479	100470784	69349376	25481752	24992
491	7.149555	100470784	69349376	32096208	24992
492	0.777953	100470784	69349376	22919832	24992
493	1.478394	100470784	69349376	24257576	24992
494	2.177708	100470784	69349376	26254728	24992
495	3.106577	100470784	69349376	28911288	24992
496	4.343474	100470784	69349376	15793344	24992
497	4.382074	100470784	69349376	19769224	24992
498	5.059447	100470784	69349376	24404504	24992
499	5.725778	100470784	69349376	29699224	24992
500	7.513218	100470784	69349376	19234824	24992
501	7.480872	100470784	69349376	25849312	24992
502	0.778019	100470784	69349376	16670096	24992
503	1.493044	100470784	69349376	18007840	24992
504	2.175287	100470784	69349376	20004992	24992
505	2.892416	100470784	69349376	22661552	24992
506	3.602394	100470784	69349376	25978024	24992
507	4.516383	100470784	69349376	29953904	24992
508	5.863231	100470784	69349376	18161160	24992
509	6.030392	100470784	69349376	23455848	24992
510	6.44463	100470784	69349376	29410912	24992
511	8.049601	100470784	69349376	19611872	24992
512	1.002538	100470784	69349376	26865280	24992
513	1.482872	100470784	69349376	28203024	24992
514	2.192822	100470784	69349376	30200176	24992
515	3.680411	100470784	69349376	16425336	24992
516	3.661586	100470784	69349376	19741808	24992
517	4.556779	100470784	69349376	23717688	24992
518	5.017041	100470784	69349376	28352968	24992
519	6.648199	100470784	69349376	17217792	24992
520	6.440474	100470784	69349376	23172840	24992
521	7.359211	100470784	69349376	29787408	24992
522	0.793945	100470784	69349376	20615120	24992
523	1.543044	100470784	69349376	21952864	24992
524	2.1747	100470784	69349376	23950016	24992
525	2.958712	100470784	69349376	26606576	24992
526	3.664284	100470784	69349376	29923048	24992
527	5.254059	100470784	69349376	17473032	24992
528	5.575551	100470784	69349376	22108312	24992
529	5.76543	100470784	69349376	27403000	24992
530	7.568826	100470784	69349376	16931920	24992
531	7.148276	100470784	69349376	23546376	24992
532	0.768414	100470784	69349376	30799752	24992
533	1.474526	100470784	69349376	32137496	24992
534	3.060648	100470784	69349376	17705688	24992
535	3.163432	100470784	69349376	20362296	24992
536	3.676179	100470784	69349376	23678768	24992
537	4.361337	100470784	69349376	27654648	24992
538	5.264215	100470784	69349376	32289928	24992
539	6.736135	100470784	69349376	21166584	24992
540	6.671291	100470784	69349376	27121632	24992
541	8.046265	100470784	69349376	17309712	24992
542	0.779097	100470784	69349376	24563184	24992
543	1.483104	100470784	69349376	25900928	24992
544	2.383556	100470784	69349376	27898080	24992
545	2.904205	100470784	69349376	30554640	24992
546	4.529348	100470784	69349376	17436584	24992
547	4.577347	100470784	69349376	21412464	24992
548	5.01851	100470784	69349376	26047840	24992
549	5.721055	100470784	69349376	31342560	24992
550	7.346063	100470784	69349376	20879248	24992
551	7.613696	100470784	69349376	27493704	24992
552	0.771496	100470784	69349376	18314296	24992
553	1.703831	100470784	69349376	19652040	24992
554	2.184742	100470784	69349376	21649192	24992
555	2.890406	100470784	69349376	24305752	24992
556	3.591215	100470784	69349376	27629024	24992
557	4.355077	100470784	69349376	31604904	24992
558	6.037743	100470784	69349376	19818960	24992
559	6.050081	100470784	69349376	25113648	24992
560	6.443586	100470784	69349376	31068744	24992
561	8.298445	100470784	69349376	21276392	24992
562	0.767418	100470784	69349376	28529768	24992
563	1.475983	100470784	69349376	29867512	24992
564	2.194096	100470784	69349376	31864664	24992
565	3.817853	100470784	69349376	18089824	24992
566	3.890227	100470784	69349376	21406328	24992
567	4.352625	100470784	69349376	25382208	24992
568	5.018463	100470784	69349376	30017488	24992
569	6.893783	100470784	69349376	18882200	24992
570	6.505705	100470784	69349376	24837248	24992
571	7.181891	100470784	69349376	31451784	24992
572	0.785658	100470784	69349376	22279416	24992
573	1.481279	100470784	69349376	23617160	24992
574	2.187696	100470784	69349376	25614312	24992
575	2.885777	100470784	69349376	28270872	24992
576	3.806159	100470784	69349376	31587344	24992
577	5.538427	100470784	69349376	19137312	24992
578	5.040696	100470784	69349376	23772592	24992
579	5.762704	100470784	69349376	29067280	24992
580	7.632462	100470784	69349376	18596168	24992
581	7.16157	100470784	69349376	25210624	24992
582	0.769707	100470784	69349376	32464000	24992
583	2.46174	100470784	69349376	17368048	24992
584	2.186639	100470784	69349376	19365200	24992
585	2.949128	100470784	69349376	22021808	24992
586	3.5976	100470784	69349376	25338280	24992
587	4.312032	100470784	69349376	29314160	24992
588	6.221902	100470784	69349376	17521640	24992
589	5.741309	100470784	69349376	22816328	24992
590	6.638053	100470784	69349376	28771376	24992
591	8.199299	100470784	69349376	18964608	24992
592	0.763978	100470784	69349376	26218080	24992
593	1.475302	100470784	69349376	27555888	24992
594	2.609705	100470784	69349376	29553040	24992
595	2.903209	100470784	69349376	32209600	24992
596	4.606491	100470784	69349376	19102192	24992
597	4.533387	100470784	69349376	23078072	24992
598	5.02049	100470784	69349376	27713432	24992
599	6.002609	100470784	69349376	33008168	24992
600	7.46125	100470784	69349376	22544168	24992
601	7.43482	100470784	69349376	29158624	24992
602	0.790263	100470784	69349376	19978944	24992
603	1.478459	100470784	69349376	21316688	24992
604	2.194769	100470784	69349376	23313840	24992
605	2.879607	100470784	69349376	25970400	24992
606	3.592689	100470784	69349376	29286872	24992
607	4.538732	100470784	69349376	33262752	24992
608	6.059694	100470784	69349376	21469320	24992
609	5.755577	100470784	69349376	26764008	24992
610	6.428164	100470784	69349376	32719056	24992
611	8.41829	100470784	69349376	22919904	24992
612	0.765844	100470784	69349376	30173280	24992
613	1.487192	100470784	69349376	31511024	24992
614	2.182798	100470784	69349376	33508176	24992
615	3.915723	100470784	69349376	19732664	24992
616	3.626421	100470784	69349376	23049216	24992
617	4.298295	100470784	69349376	27025096	24992
618	5.283565	100470784	69349376	31660408	24992
619	6.913479	100470784	69349376	20525072	24992
620	6.686128	100470784	69349376	26480120	24992
621	7.141361	100470784	69349376	33094624	24992
622	0.773934	100470784	69349376	23921536	24992
623	1.483811	100470784	69349376	25259280	24992
624	2.195072	100470784	69349376	27256432	24992
625	3.12586	100470784	69349376	29912992	24992
626	3.82028	100470784	69349376	33229464	24992
627	5.378647	100470784	69349376	20778744	24992
628	5.241496	100470784	69349376	25414024	24992
629	5.728958	100470784	69349376	30708712	24992
630	7.627362	100470784	69349376	20237536	24992
631	7.504513	100470784	69349376	26851992	24992
632	1.851023	100470784	69349376	17667136	24992
633	1.510182	100470784	69349376	19004888	24992
634	2.489593	100470784	69349376	21002056	24992
635	3.061556	100470784	69349376	23658616	24992
636	3.801285	100470784	69349376	26975152	24992
637	4.54144	100470784	69349376	30951032	24992
638	6.410096	100470784	69349376	19158400	24992
639	6.670463	100470784	69349376	24453104	24992
640	6.499264	100470784	69349376	30416880	24992
641	8.547586	100470784	69349376	20614496	24992
642	0.765933	100470784	69349376	27867920	24992
643	1.473098	100470784	69349376	29205808	24992
644	2.183104	100470784	69349376	31202960	24992
645	2.900348	100470784	69349376	33859520	24992
646	4.734276	100470784	69349376	20751440	24992
647	4.310145	100470784	69349376	24727320	24992
648	5.135811	100470784	69349376	29362600	24992
649	7.273941	100470784	69349376	18227424	24992
650	6.927401	100470784	69349376	24182472	24992
651	7.197468	100470784	69349376	30796928	24992
652	0.772771	100470784	69349376	21617264	24992
653	1.473752	100470784	69349376	22955008	24992
654	2.18611	100470784	69349376	24952160	24992
655	3.095005	100470784	69349376	27608720	24992
656	3.601392	100470784	69349376	30925192	24992
657	5.588527	100470784	69349376	18474984	24992
658	5.2551	100470784	69349376	23110264	24992
659	5.732717	100470784	69349376	28404952	24992
660	7.698344	100470784	69349376	17934056	24992
661	7.354209	100470784	69349376	24548768	24992
662	0.826786	100470784	69349376	31802136	24992
663	1.473289	100470784	69349376	33139880	24992
664	3.608703	100470784	69349376	18708744	24992
665	2.91054	100470784	69349376	21365304	24992
666	3.604542	100470784	69349376	24681776	24992
667	4.303477	100470784	69349376	28657656	24992
668	5.028242	100470784	69349376	33292984	24992
669	7.137957	100470784	69349376	22170344	24992
670	6.49122	100470784	69349376	28125392	24992
671	8.539287	100470784	69349376	18313784	24992
672	0.784103	100470784	69349376	25567152	24992
673	1.480025	100470784	69349376	26904896	24992
674	2.419157	100470784	69349376	28902048	24992
675	2.883662	100470784	69349376	31558608	24992
676	4.798339	100470784	69349376	18440664	24992
677	4.589642	100470784	69349376	22416544	24992
678	5.013783	100470784	69349376	27051824	24992
679	5.913727	100470784	69349376	32346512	24992
680	7.709306	100470784	69349376	21883264	24992
681	7.223077	100470784	69349376	28497720	24992
682	0.790012	100470784	69349376	19318536	24992
683	1.476221	100470784	69349376	20656280	24992
684	2.174212	100470784	69349376	22653432	24992
685	2.893932	100470784	69349376	25309992	24992
686	3.80785	100470784	69349376	28626496	24992
687	4.304907	100470784	69349376	32602376	24992
688	6.312324	100470784	69349376	20809712	24992
689	5.870253	100470784	69349376	26104400	24992
690	6.696199	100470784	69349376	32059448	24992
691	8.498279	100470784	69349376	22260472	24992
692	0.767539	100470784	69349376	29513912	24992
693	1.48715	100470784	69349376	30851656	24992
694	2.182616	100470784	69349376	32848808	24992
695	4.127031	100470784	69349376	19073968	24992
696	3.707336	100470784	69349376	22390440	24992
697	4.312085	100470784	69349376	26366336	24992
698	5.237976	100470784	69349376	31001616	24992
699	7.218975	100470784	69349376	19866424	24992
700	6.643821	100470784	69349376	25821568	24992
701	7.147445	100470784	69349376	32436024	24992
702	0.768324	100470784	69349376	23263624	24992
703	1.68275	100470784	69349376	24601368	24992
704	2.19985	100470784	69349376	26598520	24992
705	2.893525	100470784	69349376	29255112	24992
706	3.597764	100470784	69349376	32571584	24992
707	5.782859	100470784	69349376	20121520	24992
708	5.128116	100470784	69349376	24756800	24992
709	5.728559	100470784	69349376	30051488	24992
710	7.739697	100470784	69349376	19580376	24992
711	7.361835	100470784	69349376	26194832	24992
712	0.765463	100470784	69349376	33448272	24992
713	1.479006	100470784	69349376	34786064	24992
714	3.48845	100470784	69349376	20354256	24992
715	2.910456	100470784	69349376	23010816	24992
716	3.65548	100470784	69349376	26327288	24992
717	4.325294	100470784	69349376	30303168	24992
718	5.02202	100470784	69349376	34938496	24992
719	7.332686	100470784	69349376	23813456	24992
720	6.60512	100470784	69349376	29768504	24992
721	8.913447	100470784	69349376	19956576	24992
722	0.768196	100470784	69349376	27209952	24992
723	1.476649	100470784	69349376	28547696	24992
724	2.399395	100470784	69349376	30544848	24992
725	3.102681	100470784	69349376	33201408	24992
726	4.928907	100470784	69349376	20084288	24992
727	4.318635	100470784	69349376	24060168	24992
728	5.223592	100470784	69349376	28695448	24992
729	5.732538	100470784	69349376	33990136	24992
730	7.78255	100470784	69349376	23526808	24992
731	7.607793	100470784	69349376	30141264	24992
732	0.827338	100470784	69349376	20961600	24992
733	1.758585	100470784	69349376	22299344	24992
734	2.264007	100470784	69349376	24296496	24992
735	2.894518	100470784	69349376	26953056	24992
736	3.641824	100470784	69349376	30269528	24992
737	4.560608	100470784	69349376	34245408	24992
738	6.492528	100470784	69349376	22452664	24992
739	5.838521	100470784	69349376	27747352	24992
740	6.570623	100470784	69349376	33702400	24992
741	8.732241	100470784	69349376	23903280	24992
742	0.768697	100470784	69349376	31156656	24992
743	1.479879	100470784	69349376	32494400	24992
744	2.175323	100470784	69349376	34491552	24992
745	4.244772	100470784	69349376	20716712	24992
746	3.623872	100470784	69349376	24033184	24992
747	4.553702	100470784	69349376	28009128	24992
748	5.01261	100470784	69349376	32644408	24992
749	7.365227	100470784	69349376	21509120	24992
750	6.749499	100470784	69349376	27464184	24992
751	7.150456	100470784	69349376	34078768	24992
752	0.804091	100470784	69349376	24906368	24992
753	1.482554	100470784	69349376	26244112	24992
754	2.183323	100470784	69349376	28241280	24992
755	3.111655	100470784	69349376	30897840	24992
756	3.597584	100470784	69349376	34214376	24992
757	5.696238	100470784	69349376	21764296	24992
758	5.292399	100470784	69349376	26399576	24992
759	5.722342	100470784	69349376	31694264	24992
760	7.908091	100470784	69349376	21223136	24992
761	7.475732	100470784	69349376	27837592	24992
762	0.766735	100470784	69349376	35091112	24992
763	3.11736	100470784	69349376	19994504	24992
764	2.191616	100470784	69349376	21991656	24992
765	2.893397	100470784	69349376	24648216	24992
766	3.590914	100470784	69349376	27964688	24992
767	4.316063	100470784	69349376	31940568	24992
768	6.469674	100470784	69349376	20148048	24992
769	5.964491	100470784	69349376	25442784	24992
770	6.523505	100470784	69349376	31397832	24992
771	9.059695	100470784	69349376	21591064	24992
772	0.771387	100470784	69349376	28844440	24992
773	1.486851	100470784	69349376	30182184	24992
774	2.179881	100470784	69349376	32179336	24992
775	2.892908	100470784	69349376	34835896	24992
776	5.104003	100470784	69349376	21728488	24992
777	4.322326	100470784	69349376	25704368	24992
778	5.023991	100470784	69349376	30339648	24992
779	5.95286	100470784	69349376	35634336	24992
780	8.124664	100470784	69349376	25170336	24992
781	7.166489	100470784	69349376	31784792	24992
782	0.785379	100470784	69349376	22605128	24992
783	1.525783	100470784	69349376	23942872	24992
784	2.225403	100470784	69349376	25940024	24992
785	3.735658	100470784	69349376	28597152	24992
786	3.659708	100470784	69349376	31913624	24992
787	4.592545	100470784	69349376	35899592	24992
788	6.73023	100470784	69349376	24102576	24992
789	5.736079	100470784	69349376	29397280	24992
790	6.482139	100470784	69349376	35352328	24992
791	8.941051	100470784	69349376	25552936	24992
792	0.769542	100470784	69349376	32806312	24992
793	1.719499	100470784	69349376	34144056	24992
794	3.859358	100470784	69349376	19706408	24992
795	2.957518	100470784	69349376	22362960	24992
796	3.691287	100470784	69349376	25679432	24992
797	4.421646	100470784	69349376	29655312	24992
798	5.019561	100470784	69349376	34290592	24992
799	7.467463	100470784	69349376	23155184	24992
800	6.449463	100470784	69349376	29110408	24992
801	7.366014	100470784	69349376	35724864	24992
802	0.780336	100470784	69349376	26558232	24992
803	1.47406	100470784	69349376	27895976	24992
804	2.190352	100470784	69349376	29893128	24992
805	2.892759	100470784	69349376	32549688	24992
806	3.818861	100470784	69349376	35866176	24992
807	5.918006	100470784	69349376	23415424	24992
808	5.312162	100470784	69349376	28050704	24992
809	5.723333	100470784	69349376	33345392	24992
810	8.012267	100470784	69349376	22874168	24992
811	7.266362	100470784	69349376	29488688	24992
812	2.341973	100470784	69349376	20303880	24992
813	1.510083	100470784	69349376	21641632	24992
814	2.439364	100470784	69349376	23638784	24992
815	2.934706	100470784	69349376	26295520	24992
816	3.591881	100470784	69349376	29611992	24992
817	4.302968	100470784	69349376	33587872	24992
818	6.609038	100470784	69349376	21795240	24992
819	6.191188	100470784	69349376	27089928	24992
820	6.672651	100470784	69349376	33045024	24992
821	9.1903	100470784	69349376	23242480	24992
822	0.789963	100470784	69349376	30495856	24992
823	1.47627	100470784	69349376	31833600	24992
824	2.229081	100470784	69349376	33830752	24992
825	4.441018	100470784	69349376	20055912	24992
826	3.828805	100470784	69349376	23372384	24992
827	4.436117	100470784	69349376	27348296	24992
828	5.293136	100470784	69349376	31983576	24992
829	7.835863	100470784	69349376	20848416	24992
830	6.777702	100470784	69349376	26803464	24992
831	7.135832	100470784	69349376	33417920	24992
832	0.795065	100470784	69349376	24245648	24992
833	1.508791	100470784	69349376	25583392	24992
834	2.183088	100470784	69349376	27580544	24992
835	2.937522	100470784	69349376	30237104	24992
836	3.652685	100470784	69349376	33553576	24992
837	5.971194	100470784	69349376	21103624	24992
838	5.250797	100470784	69349376	25738904	24992
839	5.721933	100470784	69349376	31033608	24992
840	8.277705	100470784	69349376	20562712	24992
841	7.403759	100470784	69349376	27177192	24992
842	0.763975	100470784	69349376	34430568	24992
843	1.666603	100470784	69349376	35768312	24992
844	3.824103	100470784	69349376	21337176	24992
845	2.89405	100470784	69349376	23993736	24992
846	3.601186	100470784	69349376	27310208	24992
847	4.512072	100470784	69349376	31286088	24992
848	5.240864	100470784	69349376	35921368	24992
849	7.488736	100470784	69349376	24798712	24992
850	6.446071	100470784	69349376	30764176	24992
851	9.077199	100470784	69349376	20965760	24992
852	0.782178	100470784	69349376	28219232	24992
853	1.480168	100470784	69349376	29556976	24992
854	2.182528	100470784	69349376	31554128	24992
855	2.881875	100470784	69349376	34210688	24992
856	5.346918	100470784	69349376	21102976	24992
857	4.364179	100470784	69349376	25078856	24992
858	5.065169	100470784	69349376	29714136	24992
859	5.945666	100470784	69349376	35008824	24992
860	8.558758	100470784	69349376	24545496	24992
861	7.158346	100470784	69349376	31160000	24992
862	0.773201	100470784	69349376	21980560	24992
863	1.476479	100470784	69349376	23318304	24992
864	2.193024	100470784	69349376	25315456	24992
865	2.897172	100470784	69349376	27972016	24992
866	3.826622	100470784	69349376	31288488	24992
867	4.51424	100470784	69349376	35264688	24992
868	6.804613	100470784	69349376	23471944	24992
869	5.951992	100470784	69349376	28766632	24992
870	6.438064	100470784	69349376	34721712	24992
871	8.916853	100470784	69349376	24922560	24992
872	0.770495	100470784	69349376	32175936	24992
873	1.483966	100470784	69349376	33513680	24992
874	2.196454	100470784	69349376	35510832	24992
875	4.613835	100470784	69349376	21736024	24992
876	3.838462	100470784	69349376	25052496	24992
877	4.377091	100470784	69349376	29028376	24992
878	5.003278	100470784	69349376	33663656	24992
879	7.671793	100470784	69349376	22528480	24992
880	6.664021	100470784	69349376	28483528	24992
881	7.146409	100470784	69349376	35097984	24992
882	0.788208	100470784	69349376	25925616	24992
883	1.517361	100470784	69349376	27263360	24992
884	2.223998	100470784	69349376	29260560	24992
885	2.950869	100470784	69349376	31917120	24992
886	3.616024	100470784	69349376	35233592	24992
887	6.025224	100470784	69349376	22783512	24992
888	5.288555	100470784	69349376	27418808	24992
889	5.722329	100470784	69349376	32713512	24992
890	8.666801	100470784	69349376	22242384	24992
891	7.297239	100470784	69349376	28856840	24992
892	0.780931	100470784	69349376	36110360	24992
893	3.462849	100470784	69349376	21014408	24992
894	2.493862	100470784	69349376	23013184	24992
895	2.943676	100470784	69349376	25669744	24992
896	3.673677	100470784	69349376	28986216	24992
897	4.556052	100470784	69349376	32962096	24992
898	6.801837	100470784	69349376	21169576	24992
899	5.789113	100470784	69349376	26464264	24992
900	6.428166	100470784	69349376	32419408	24992
901	9.170944	100470784	69349376	22612640	24992
902	0.774213	100470784	69349376	29866016	24992
903	1.575877	100470784	69349376	31203760	24992
904	2.471441	100470784	69349376	33200912	24992
905	3.046878	100470784	69349376	35857472	24992
906	6.179683	100470784	69349376	22750064	24992
907	4.406629	100470784	69349376	26725944	24992
908	5.225679	100470784	69349376	31361224	24992
909	5.842968	100470784	69349376	36655928	24992
910	8.601916	100470784	69349376	26192616	24992
911	7.395721	100470784	69349376	32807136	24992
912	0.808384	100470784	69349376	23627472	24992
913	1.512843	100470784	69349376	24965216	24992
914	2.222491	100470784	69349376	26962368	24992
915	2.972017	100470784	69349376	29618928	24992
916	3.692887	100470784	69349376	32935400	24992
917	4.537538	100470784	69349376	36911360	24992
918	7.217012	100470784	69349376	25120008	24992
919	5.974577	100470784	69349376	30414696	24992
920	6.429444	100470784	69349376	36369744	24992
921	9.14931	100470784	69349376	26570960	24992
922	0.835176	100470784	69349376	33824336	24992
923	1.485999	100470784	69349376	35162080	24992
924	2.230196	100470784	69349376	37159248	24992
925	4.882618	100470784	69349376	23383720	24992
926	3.654889	100470784	69349376	26700192	24992
927	4.353299	100470784	69349376	30676072	24992
928	5.194153	100470784	69349376	35311352	24992
929	7.632104	100470784	69349376	24175952	24992
930	6.72166	100470784	69349376	30131000	24992
931	7.332648	100470784	69349376	36745456	24992
932	0.786138	100470784	69349376	27573152	24992
933	1.516335	100470784	69349376	28910912	24992
934	2.392367	100470784	69349376	30908064	24992
935	2.899629	100470784	69349376	33564624	24992
936	3.604331	100470784	69349376	36881152	24992
937	6.444186	100470784	69349376	24431064	24992
938	5.116009	100470784	69349376	29066392	24992
939	5.999443	100470784	69349376	34361128	24992
940	8.316653	100470784	69349376	23890000	24992
941	7.477941	100470784	69349376	30504456	24992
942	0.767536	100470784	69349376	37757832	24992
943	3.363724	100470784	69349376	22661192	24992
944	2.239582	100470784	69349376	24658344	24992
945	2.886544	100470784	69349376	27314904	24992
946	3.934191	100470784	69349376	30631376	24992
947	4.432755	100470784	69349376	34607256	24992
948	6.95858	100470784	69349376	22814736	24992
949	5.740804	100470784	69349376	28109424	24992
950	6.65713	100470784	69349376	34064472	24992
951	9.40402	100470784	69349376	24257704	24992
952	0.768323	100470784	69349376	31511080	24992
953	1.472727	100470784	69349376	32848824	24992
954	2.192569	100470784	69349376	34845976	24992
955	2.889508	100470784	69349376	37502536	24992
956	5.563054	100470784	69349376	24394440	24992
957	4.581719	100470784	69349376	28370320	24992
958	5.006432	100470784	69349376	33005648	24992
959	8.203624	100470784	69349376	21870480	24992
960	6.584542	100470784	69349376	27825536	24992
961	7.297421	100470784	69349376	34440072	24992
962	0.774426	100470784	69349376	25260392	24992
963	1.482673	100470784	69349376	26598136	24992
964	2.179023	100470784	69349376	28595288	24992
965	2.897119	100470784	69349376	31251848	24992
966	3.804729	100470784	69349376	34568320	24992
967	6.303312	100470784	69349376	22118472	24992
968	5.044736	100470784	69349376	26753744	24992
969	5.726081	100470784	69349376	32048432	24992
970	6.647267	100470784	69349376	38003480	24992
971	9.15368	100470784	69349376	28203648	24992
972	0.769696	100470784	69349376	35457056	24992
973	1.485566	100470784	69349376	36794800	24992
974	4.322898	100470784	69349376	22363720	24992
975	2.972221	100470784	69349376	25020272	24992
976	3.691262	100470784	69349376	28336792	24992
977	4.432637	100470784	69349376	32312672	24992
978	5.033431	100470784	69349376	36947952	24992
979	7.917048	100470784	69349376	25812544	24992
980	6.499583	100470784	69349376	31767592	24992
981	7.362366	100470784	69349376	38382048	24992
982	0.77618	100470784	69349376	29215400	24992
983	1.520743	100470784	69349376	30553144	24992
984	2.182499	100470784	69349376	32550296	24992
985	2.905904	100470784	69349376	35206984	24992
986	3.805333	100470784	69349376	38523456	24992
987	6.386573	100470784	69349376	26067168	24992
988	5.36193	100470784	69349376	30702448	24992
989	5.732066	100470784	69349376	35997136	24992
990	8.504954	100470784	69349376	25525840	24992
991	7.160567	100470784	69349376	32140296	24992
992	0.785189	100470784	69349376	22956320	24992
993	1.476824	100470784	69349376	24294064	24992
994	2.381054	100470784	69349376	26291216	24992
995	2.900843	100470784	69349376	28947824	24992
996	3.601732	100470784	69349376	32264296	24992
997	4.297787	100470784	69349376	36240176	24992
998	7.084352	100470784	69349376	24447432	24992
999	6.079177	100470784	69349376	29742120	24992
1000	6.512628	100470784	69349376	35697168	24992
