x	Duration	RSS	HeapTotal	HeapUsed	External
0	NA	99811328	68825088	10886912	24992
1	1.647387	99811328	68825088	11567040	24992
2	2.85976	99811328	68825088	12905456	24992
3	3.741292	99811328	68825088	14903240	24992
4	2.948994	99811328	68825088	17560560	24992
5	3.669694	99811328	68825088	20877984	24992
6	4.816378	99811328	68825088	24854944	24992
7	5.323641	99811328	68825088	13025344	24992
8	5.808526	99811328	68825088	18321432	24992
9	6.733873	99811328	68825088	24278056	24992
10	7.559553	99811328	68825088	14435128	24992
11	8.008501	99811328	68825088	21711008	24992
12	0.788411	99811328	68825088	13151328	24992
13	1.569019	99811328	68825088	14489592	24992
14	2.213475	99811328	68825088	16487408	24992
15	3.294382	99811328	68825088	19144792	24992
16	3.734837	99811328	68825088	22462264	24992
17	4.424962	99811328	68825088	26439288	24992
18	5.914702	99811328	68825088	14609448	24992
19	5.814186	99811328	68825088	19905968	24992
20	6.849633	99811328	68825088	25862656	24992
21	7.757764	99811328	68825088	16019760	24992
22	0.783467	99811328	68825088	23275208	24992
23	1.507919	99811328	68825088	24613472	24992
24	2.272545	99811328	68825088	26611288	24992
25	3.141814	99811328	68825088	12799008	24992
26	3.665701	99811328	68825088	16116480	24992
27	4.588361	99811328	68825088	20093568	24992
28	5.128104	99811328	68825088	24730216	24992
29	6.222966	99811328	68825088	13559592	24992
30	6.744759	99811328	68825088	19516360	24992
31	7.28184	99811328	68825088	26132600	24992
32	0.799856	99811328	68825088	16920688	24992
33	1.752982	99811328	68825088	18258952	24992
34	3.007598	99811328	68825088	20256784	24992
35	3.167667	99811328	68825088	22914168	24992
36	3.817907	99811328	68825088	26245664	24992
37	4.832899	99811328	68825088	13756304	24992
38	5.310669	99811328	68825088	18392888	24992
39	5.984974	99811328	68825088	23689040	24992
40	6.715877	99811328	68825088	13182072	24992
41	7.225308	99811328	68825088	19798376	24992
42	0.781888	99811328	68825088	27053824	24992
43	1.709162	99811328	68825088	11919272	24992
44	2.271692	99811328	68825088	13917088	24992
45	2.986715	99811328	68825088	16575144	24992
46	3.918675	99811328	68825088	19892616	24992
47	4.360789	99811328	68825088	23869656	24992
48	5.354838	99811328	68825088	12040680	24992
49	5.927232	99811328	68825088	17336832	24992
50	6.631475	99811328	68825088	23293600	24992
51	7.751467	99811328	68825088	13447384	24992
52	0.777355	99811328	68825088	20702832	24992
53	1.500113	99811328	68825088	22041096	24992
54	2.204759	99811328	68825088	24038928	24992
55	3.119426	99811328	68825088	26696312	24992
56	3.94443	99811328	68825088	13547472	24992
57	4.433996	99811328	68825088	17524496	24992
58	5.117799	99811328	68825088	22161080	24992
59	6.167641	99811328	68825088	27458176	24992
60	6.939442	99811328	68825088	16952440	24992
61	7.212197	99811328	68825088	23568744	24992
62	0.812786	99811328	68825088	14354816	24992
63	1.546165	99811328	68825088	15693080	24992
64	2.64251	99811328	68825088	17693592	24992
65	2.920503	99811328	68825088	20350976	24992
66	3.855747	99811328	68825088	23668448	24992
67	4.34643	99811328	68825088	27645520	24992
68	5.507085	99811328	68825088	15814968	24992
69	5.77654	99811328	68825088	21111120	24992
70	6.490905	99811328	68825088	27067840	24992
71	7.475335	99811328	68825088	17224896	24992
72	0.780494	99811328	68825088	24480424	24992
73	1.493598	99811328	68825088	25818688	24992
74	2.243567	99811328	68825088	27816680	24992
75	3.389652	99811328	68825088	14003736	24992
76	3.641249	99811328	68825088	17321288	24992
77	4.378726	99811328	68825088	21298312	24992
78	5.290515	99811328	68825088	25934896	24992
79	6.052269	99811328	68825088	14764512	24992
80	6.935883	99811328	68825088	20721392	24992
81	7.345462	99811328	68825088	27338816	24992
82	0.781679	99811328	68825088	18127560	24992
83	1.717344	99811328	68825088	19465736	24992
84	2.197514	99811328	68825088	21464616	24992
85	3.262662	99811328	68825088	24121928	24992
86	3.690327	99811328	68825088	27439312	24992
87	4.980268	99811328	68825088	14954592	24992
88	5.472388	99811328	68825088	19590464	24992
89	5.817299	99811328	68825088	24885824	24992
90	6.958694	99811328	68825088	14378600	24992
91	7.412396	99811328	68825088	20993888	24992
92	0.999211	99811328	68825088	11772576	24992
93	1.530959	99811328	68825088	13110520	24992
94	2.274386	99811328	68825088	15108008	24992
95	2.969825	99811328	68825088	17764920	24992
96	3.619293	99811328	68825088	21081872	24992
97	4.588413	99811328	68825088	25058264	24992
98	5.32839	99811328	68825088	13227344	24992
99	6.061078	99811328	68825088	18522704	24992
100	6.48527	99811328	68825088	24478504	24992
101	7.498687	99811328	68825088	14632248	24992
102	0.788241	99811328	68825088	21886632	24992
103	1.701701	99811328	68825088	23224568	24992
104	2.220528	99811328	68825088	25221992	24992
105	2.924194	99811328	68825088	27878904	24992
106	4.049485	99811328	68825088	14728368	24992
107	4.53427	99811328	68825088	18704776	24992
108	5.038369	99811328	68825088	23340648	24992
109	6.145821	99811328	68825088	12169256	24992
110	6.457005	99811328	68825088	18125072	24992
111	7.407216	99811328	68825088	24740360	24992
112	0.776823	99811328	68825088	15524640	24992
113	1.703559	99811328	68825088	16862576	24992
114	2.193421	99811328	68825088	18860016	24992
115	2.906589	99811328	68825088	21516928	24992
116	3.631766	99811328	68825088	24833848	24992
117	4.950653	99811328	68825088	12345280	24992
118	5.148485	99811328	68825088	16981152	24992
119	6.104644	99811328	68825088	22278472	24992
120	6.468854	99811328	68825088	28234272	24992
121	7.611619	99811328	68825088	18379848	24992
122	0.978406	99811328	68825088	25634200	24992
123	1.481946	99811328	68825088	26972136	24992
124	2.4413	99811328	68825088	12499848	24992
125	2.967444	99811328	68825088	15156760	24992
126	3.694458	99811328	68825088	18473664	24992
127	4.406923	99811328	68825088	22450088	24992
128	5.269524	99811328	68825088	27088064	24992
129	6.221134	99811328	68825088	15919992	24992
130	6.477008	99811328	68825088	21875872	24992
131	7.866973	99811328	68825088	12025744	24992
132	0.771338	99811328	68825088	19280056	24992
133	1.479591	99811328	68825088	20617992	24992
134	2.196217	99811328	68825088	22615416	24992
135	2.894784	99811328	68825088	25272328	24992
136	4.051385	99811328	68825088	12118984	24992
137	4.326669	99811328	68825088	16095368	24992
138	5.065703	99811328	68825088	20731240	24992
139	5.940406	99811328	68825088	26026600	24992
140	6.749793	99811328	68825088	15519792	24992
141	7.201004	99811328	68825088	22135080	24992
142	0.774801	99811328	68825088	12923464	24992
143	1.497824	99811328	68825088	14261400	24992
144	2.181488	99811328	68825088	16258824	24992
145	2.909901	99811328	68825088	18915736	24992
146	3.813723	99811328	68825088	22232640	24992
147	4.315684	99811328	68825088	26209128	24992
148	5.284706	99811328	68825088	14379936	24992
149	5.748793	99811328	68825088	19675296	24992
150	6.45249	99811328	68825088	25631096	24992
151	7.643279	99811328	68825088	15786816	24992
152	0.776867	99811328	68825088	23041136	24992
153	1.496247	99811328	68825088	24379072	24992
154	2.185488	99811328	68825088	26376496	24992
155	3.134711	99811328	68825088	12563360	24992
156	3.70751	99811328	68825088	15880264	24992
157	4.538381	99811328	68825088	19856656	24992
158	5.040662	99811328	68825088	24492528	24992
159	6.308369	99811328	68825088	13321144	24992
160	6.769705	99811328	68825088	19276944	24992
161	7.15562	99811328	68825088	25892296	24992
162	0.779212	99811328	68825088	16679192	24992
163	1.487445	99811328	68825088	18017128	24992
164	2.190623	99811328	68825088	20014552	24992
165	2.899604	99811328	68825088	22671528	24992
166	3.854511	99811328	68825088	25988432	24992
167	4.581143	99811328	68825088	13498032	24992
168	5.301899	99811328	68825088	18133904	24992
169	5.726746	99811328	68825088	23429264	24992
170	6.910307	99811328	68825088	12920984	24992
171	7.166244	99811328	68825088	19536272	24992
172	0.77699	99811328	68825088	26790592	24992
173	1.485199	99811328	68825088	28128528	24992
174	2.471797	99811328	68825088	13655576	24992
175	2.95484	99811328	68825088	16312520	24992
176	3.824861	99811328	68825088	19629424	24992
177	4.383367	99811328	68825088	23605816	24992
178	5.237356	99811328	68825088	28241688	24992
179	6.04771	99811328	68825088	17073560	24992
180	6.558039	99811328	68825088	23029360	24992
181	7.426275	99811328	68825088	13179080	24992
182	0.770289	99811328	68825088	20433400	24992
183	1.482195	99811328	68825088	21771336	24992
184	2.192393	99811328	68825088	23768760	24992
185	3.099578	99811328	68825088	26425672	24992
186	3.855908	99811328	68825088	13272192	24992
187	4.325847	99811328	68825088	17248632	24992
188	5.07259	99811328	68825088	21884504	24992
189	5.736477	99811328	68825088	27179864	24992
190	6.905241	99811328	68825088	16673088	24992
191	7.170178	99811328	68825088	23288376	24992
192	0.769505	99811328	68825088	14072840	24992
193	1.538827	99811328	68825088	15410776	24992
194	2.190459	99811328	68825088	17408216	24992
195	2.961414	99811328	68825088	20065128	24992
196	3.610929	99811328	68825088	23382032	24992
197	4.320416	99811328	68825088	27358424	24992
198	5.532479	99811328	68825088	15527400	24992
199	5.930845	99811328	68825088	20822760	24992
200	6.648014	99811328	68825088	26778560	24992
201	7.425658	99811328	68825088	16934248	24992
202	0.769302	99811328	68825088	24188584	24992
203	1.494074	99811328	68825088	25526520	24992
204	2.185332	99811328	68825088	27523944	24992
205	3.178773	99811328	68825088	13710408	24992
206	3.620229	99811328	68825088	17027312	24992
207	4.321437	99811328	68825088	21003736	24992
208	5.245839	99811328	68825088	25639608	24992
209	6.304877	99811328	68825088	14468112	24992
210	6.666207	99811328	68825088	20423912	24992
211	7.169908	99811328	68825088	27039200	24992
212	0.770776	99811328	68825088	17826032	24992
213	1.481931	99811328	68825088	19163976	24992
214	2.182295	99811328	68825088	21161392	24992
215	3.109376	99811328	68825088	23818320	24992
216	3.609915	99811328	68825088	27135224	24992
217	4.799042	99811328	68825088	14644792	24992
218	5.316047	99811328	68825088	19283680	24992
219	5.754574	99811328	68825088	24579024	24992
220	6.808246	99811328	68825088	14071080	24992
221	7.184824	99811328	68825088	20686352	24992
222	0.78086	99811328	68825088	27940704	24992
223	1.70667	99811328	68825088	12806528	24992
224	2.210219	99811328	68825088	14803928	24992
225	2.900225	99811328	68825088	17460824	24992
226	3.606817	99811328	68825088	20777712	24992
227	4.315243	99811328	68825088	24754136	24992
228	5.298646	99811328	68825088	12923312	24992
229	5.756257	99811328	68825088	18221528	24992
230	6.474253	99811328	68825088	24177344	24992
231	7.431135	99811328	68825088	14331928	24992
232	0.780879	99811328	68825088	21586216	24992
233	1.697022	99811328	68825088	22924136	24992
234	2.200763	99811328	68825088	24921544	24992
235	2.923871	99811328	68825088	27578536	24992
236	3.901772	99811328	68825088	14431536	24992
237	4.704953	99811328	68825088	18407912	24992
238	5.053909	99811328	68825088	23043768	24992
239	5.776906	99811328	68825088	28339112	24992
240	6.957961	99811328	68825088	17833880	24992
241	7.387202	99811328	68825088	24449152	24992
242	0.780208	99811328	68825088	15234560	24992
243	1.492794	99811328	68825088	16572400	24992
244	2.204373	99811328	68825088	18569664	24992
245	2.899829	99811328	68825088	21226368	24992
246	3.610556	99811328	68825088	24543016	24992
247	4.53776	99811328	68825088	28519104	24992
248	5.357931	99811328	68825088	16687408	24992
249	6.048538	99811328	68825088	21982368	24992
250	6.448595	99811328	68825088	27937832	24992
251	7.494614	99811328	68825088	18093296	24992
252	0.768645	99811328	68825088	25347056	24992
253	1.47768	99811328	68825088	26685016	24992
254	2.382902	99811328	68825088	28682272	24992
255	3.150217	99811328	68825088	14868448	24992
256	3.668137	99811328	68825088	18185096	24992
257	4.518047	99811328	68825088	22161184	24992
258	5.027841	99811328	68825088	26796704	24992
259	6.194692	99811328	68825088	15624696	24992
260	6.661435	99811328	68825088	21580208	24992
261	7.730205	100081664	68825088	28197592	24992
262	0.771654	100081664	68825088	18983944	24992
263	1.503161	100081664	68825088	20321848	24992
264	2.188335	100081664	68825088	22319112	24992
265	2.907126	100081664	68825088	24975816	24992
266	3.604385	100081664	68825088	28292464	24992
267	4.776888	100081664	68825088	15801744	24992
268	5.049706	100081664	68825088	20437264	24992
269	6.056558	100081664	68825088	25732224	24992
270	6.833233	100081664	68825088	15223496	24992
271	7.426905	100081664	68825088	21838288	24992
272	0.824661	100081664	68825088	29092048	24992
273	1.752227	100081664	68825088	13956728	24992
274	2.271325	100081664	68825088	15953992	24992
275	2.897745	100081664	68825088	18610776	24992
276	3.692833	100081664	68825088	21927424	24992
277	4.377234	100081664	68825088	25903512	24992
278	5.330302	100081664	68825088	14072344	24992
279	6.014545	100081664	68825088	19367304	24992
280	6.475598	100081664	68825088	25322656	24992
281	7.755799	100081664	68825088	15473912	24992
282	0.779672	100081664	68825088	22727688	24992
283	1.539798	100081664	68825088	24065512	24992
284	2.229065	100081664	68825088	26062776	24992
285	3.170632	100081664	68825088	28719480	24992
286	4.692338	100081664	68825088	15569376	24992
287	4.374859	100081664	68825088	19545480	24992
288	6.104113	100081664	68825088	24183560	24992
289	5.797347	100081664	68825088	29478248	24992
290	7.043889	100081664	68825088	18962064	24992
291	7.155254	100081664	68825088	25576520	24992
292	0.7751	100081664	68825088	16359816	24992
293	1.484333	100081664	68825088	17697560	24992
294	2.24073	100081664	68825088	19694712	24992
295	3.107644	100081664	68825088	22351360	24992
296	3.613371	100081664	68825088	25667840	24992
297	4.568346	100081664	68825088	13175712	24992
298	5.633944	100081664	68825088	17811000	24992
299	5.792765	100081664	68825088	23114608	24992
300	6.665154	100081664	68825088	29069656	24992
301	7.484273	100081664	68825088	19236976	24992
302	0.767656	100081664	68825088	26490368	24992
303	1.484838	100081664	68825088	27828112	24992
304	2.460209	100081664	68825088	13385656	24992
305	2.913367	100081664	68825088	16042208	24992
306	3.605259	100081664	68825088	19358680	24992
307	4.307285	100081664	68825088	23334560	24992
308	5.220507	100081664	68825088	27969840	24992
309	6.079555	100081664	68825088	16837232	24992
310	6.811792	100081664	68825088	22792280	24992
311	7.133009	100081664	68825088	29406736	24992
312	0.77287	100081664	68825088	20242888	24992
313	1.486587	100081664	68825088	21580632	24992
314	2.174504	100081664	68825088	23577784	24992
315	3.105416	100081664	68825088	26234360	24992
316	3.60523	100081664	68825088	29550832	24992
317	4.685831	100081664	68825088	17102880	24992
318	5.031753	100081664	68825088	21738160	24992
319	5.723415	100081664	68825088	27032848	24992
320	7.01435	100081664	68825088	16564952	24992
321	7.212903	100081664	68825088	23179768	24992
322	1.122567	100081664	68825088	13996432	24992
323	1.511872	100081664	68825088	15334176	24992
324	2.236712	100081664	68825088	17331328	24992
325	2.897781	100081664	68825088	19987888	24992
326	3.60215	100081664	68825088	23304360	24992
327	4.306231	100081664	68825088	27280240	24992
328	5.628687	100081664	68825088	15490328	24992
329	5.730151	100081664	68825088	20785032	24992
330	6.745459	100081664	68825088	26740080	24992
331	7.817986	100081664	68825088	16941280	24992
332	0.764063	100081664	68825088	24194656	24992
333	1.478368	100081664	68825088	25532400	24992
334	2.208548	100081664	68825088	27529552	24992
335	3.275722	100081664	68825088	13757096	24992
336	3.860307	100081664	68825088	17073568	24992
337	4.517073	100081664	68825088	21049448	24992
338	5.009261	100081664	68825088	25684728	24992
339	6.319141	100081664	68825088	14552336	24992
340	6.456279	100081664	68825088	20507416	24992
341	7.193411	100081664	68825088	27121872	24992
342	0.772855	100081664	68825088	17951968	24992
343	1.47713	100081664	68825088	19289712	24992
344	2.402627	100081664	68825088	21286880	24992
345	2.946607	100081664	68825088	23943440	24992
346	3.604087	100081664	68825088	27260008	24992
347	4.9449	100081664	68825088	14812856	24992
348	5.028683	100081664	68825088	19448136	24992
349	5.727666	100081664	68825088	24742824	24992
350	6.885071	100081664	68825088	14275256	24992
351	7.457065	100081664	68825088	20889752	24992
352	0.763069	100081664	68825088	28143128	24992
353	1.705902	100081664	68825088	29480872	24992
354	2.609668	100081664	68825088	15052136	24992
355	2.915288	100081664	68825088	17708696	24992
356	3.631018	100081664	68825088	21025168	24992
357	4.373589	100081664	68825088	25001080	24992
358	5.12192	100081664	68825088	29636360	24992
359	6.493006	100081664	68825088	18516232	24992
360	6.692996	100081664	68825088	24479296	24992
361	8.059824	100081664	68825088	14674736	24992
362	0.764302	100081664	68825088	21928112	24992
363	1.477254	100081664	68825088	23265856	24992
364	2.186068	100081664	68825088	25263008	24992
365	2.984858	100081664	68825088	27919568	24992
366	4.289945	100081664	68825088	14808344	24992
367	4.38514	100081664	68825088	18784224	24992
368	5.050218	100081664	68825088	23419504	24992
369	6.046349	100081664	68825088	28714192	24992
370	7.307455	100081664	68825088	18254080	24992
371	7.589497	100081664	68825088	24868536	24992
372	0.768029	100081664	68825088	15691112	24992
373	1.532333	100081664	68825088	17028856	24992
374	2.187335	100081664	68825088	19026008	24992
375	2.938753	100081664	68825088	21682568	24992
376	3.813942	100081664	68825088	24999040	24992
377	4.354206	100081664	68825088	28974920	24992
378	5.765831	100081664	68825088	17184992	24992
379	5.747283	100081664	68825088	22479888	24992
380	6.83876	100081664	68825088	28434936	24992
381	7.669734	100081664	68825088	18639608	24992
382	0.76707	100081664	68825088	25892984	24992
383	1.475399	100081664	68825088	27230728	24992
384	2.18543	100081664	68825088	29227880	24992
385	3.577747	100081664	68825088	15455424	24992
386	3.856505	100081664	68825088	18771896	24992
387	4.308317	100081664	68825088	22747776	24992
388	5.01925	100081664	68825088	27383056	24992
389	6.253951	100081664	68825088	16250680	24992
390	6.66236	100081664	68825088	22205872	24992
391	7.132113	100081664	68825088	28820328	24992
392	0.785616	100081664	68825088	19650328	24992
393	1.541171	100081664	68825088	20988072	24992
394	2.20718	100081664	68825088	22985224	24992
395	2.903087	100081664	68825088	25641784	24992
396	3.60461	100081664	68825088	28958336	24992
397	4.864044	100081664	68825088	16511056	24992
398	5.296814	100081664	68825088	21146336	24992
399	5.731116	100081664	68825088	26441024	24992
400	7.241027	100081664	68825088	15973224	24992
401	7.286793	100081664	68825088	22587712	24992
402	0.767972	100081664	68825088	29841184	24992
403	2.051635	100081664	68825088	14747200	24992
404	2.190749	100081664	68825088	16744352	24992
405	3.264228	100081664	68825088	19401928	24992
406	3.606404	100081664	68825088	22718400	24992
407	4.312359	100081664	68825088	26694280	24992
408	5.83661	100081664	68825088	14903840	24992
409	5.727467	100081664	68825088	20198528	24992
410	6.659909	100081664	68825088	26153640	24992
411	7.987385	100081664	68825088	16348760	24992
412	0.761979	100081664	68825088	23602136	24992
413	1.4732	100081664	68825088	24939880	24992
414	2.410767	100081664	68825088	26937032	24992
415	2.903526	100081664	68825088	29593624	24992
416	4.2282	100081664	68825088	16487336	24992
417	4.523596	100081664	68825088	20463216	24992
418	5.022227	100081664	68825088	25098544	24992
419	5.814599	100081664	68825088	30393232	24992
420	7.083647	100081664	68825088	19930528	24992
421	7.370377	100081664	68825088	26544984	24992
422	0.769054	100081664	68825088	17366104	24992
423	1.700018	100081664	68825088	18703848	24992
424	2.1791	100081664	68825088	20701000	24992
425	2.947208	100081664	68825088	23357560	24992
426	3.594111	100081664	68825088	26674032	24992
427	4.311791	100081664	68825088	30649912	24992
428	5.661224	100081664	68825088	18857648	24992
429	5.963494	100081664	68825088	24152480	24992
430	6.443526	100081664	68825088	30107528	24992
431	8.046627	100081664	68825088	20309960	24992
432	0.8273	100081664	68825088	27564000	24992
433	1.474093	100081664	68825088	28901744	24992
434	2.18375	100081664	68825088	30898896	24992
435	3.559533	100081664	68825088	17124312	24992
436	3.667219	100081664	68825088	20440784	24992
437	4.764292	100081664	68825088	24416664	24992
438	5.079488	100081664	68825088	29051944	24992
439	6.65177	100081664	68825088	17917664	24992
440	6.566537	100081664	68825088	23872760	24992
441	7.288293	100081664	68825088	30487216	24992
442	0.770322	100081664	68825088	21315856	24992
443	1.486584	100081664	68825088	22653600	24992
444	2.175512	100081664	68825088	24650752	24992
445	2.920284	100081664	68825088	27307312	24992
446	3.808053	100081664	68825088	30623832	24992
447	4.976237	100081664	68825088	18175000	24992
448	5.01541	100081664	68825088	22810280	24992
449	5.780575	100081664	68825088	28104968	24992
450	7.39488	100081664	68825088	17635264	24992
451	7.149941	100081664	68825088	24249720	24992
452	0.81824	100081664	68825088	31503096	24992
453	2.170459	100081664	68825088	16407352	24992
454	2.19599	100081664	68825088	18404504	24992
455	2.885744	100081664	68825088	21061064	24992
456	3.605147	100081664	68825088	24377536	24992
457	4.300181	100081664	68825088	28353448	24992
458	5.992028	100081664	68825088	16562048	24992
459	5.720486	100081664	68825088	21856736	24992
460	6.633554	100081664	68825088	27811832	24992
461	8.109123	100081664	68825088	18006472	24992
462	0.76511	100081664	68825088	25259848	24992
463	1.544946	100081664	68825088	26597592	24992
464	2.203834	100081664	68825088	28594792	24992
465	3.817054	100081664	68825088	31251400	24992
466	4.387147	100081664	68825088	18144552	24992
467	4.359783	100081664	68825088	22120432	24992
468	5.412436	100081664	68825088	26755712	24992
469	6.469503	100081664	68825088	15621760	24992
470	6.945255	100081664	68825088	21576816	24992
471	7.503529	100081664	68825088	28191272	24992
472	0.774266	100081664	68825088	19012520	24992
473	1.478889	100081664	68825088	20350264	24992
474	2.234617	100081664	68825088	22347416	24992
475	2.938104	100081664	68825088	25003976	24992
476	3.66572	100081664	68825088	28320448	24992
477	5.312607	100081664	68825088	15871832	24992
478	5.072754	100081664	68825088	20507120	24992
479	6.125531	100081664	68825088	25801872	24992
480	6.483327	100081664	68825088	31756920	24992
481	8.168196	100081664	68825088	21958672	24992
482	0.992077	100081664	68825088	29212048	24992
483	1.479446	100081664	68825088	30549792	24992
484	2.944578	100081664	68825088	16119728	24992
485	2.902725	100081664	68825088	18776288	24992
486	3.81642	100081664	68825088	22092760	24992
487	4.322977	100081664	68825088	26068640	24992
488	5.028121	100081664	68825088	30703920	24992
489	6.743118	100081664	68825088	19569744	24992
490	6.443492	100081664	68825088	25524792	24992
491	8.167973	100081664	68825088	15714320	24992
492	0.766436	100081664	68825088	22967688	24992
493	1.491083	100081664	68825088	24305432	24992
494	2.174599	100081664	68825088	26302584	24992
495	2.892243	100081664	68825088	28959144	24992
496	4.67964	100081664	68825088	15842256	24992
497	4.383248	100081664	68825088	19818136	24992
498	5.018908	100081664	68825088	24453448	24992
499	5.952902	100081664	68825088	29748152	24992
500	7.496986	100081664	68825088	19286248	24992
501	7.153063	100081664	68825088	25900704	24992
502	0.793389	100081664	68825088	16722368	24992
503	1.504594	100081664	68825088	18060112	24992
504	2.419027	100081664	68825088	20057264	24992
505	3.119439	100081664	68825088	22713824	24992
506	3.608484	100081664	68825088	26030296	24992
507	4.308781	100081664	68825088	30006208	24992
508	5.883291	100081664	68825088	18214696	24992
509	5.739961	100081664	68825088	23509384	24992
510	6.654895	100081664	68825088	29464432	24992
511	8.254276	100081664	68825088	19666976	24992
512	0.770445	100081664	68825088	26920480	24992
513	1.501975	100081664	68825088	28258224	24992
514	2.179001	100081664	68825088	30255392	24992
515	3.742585	100081664	68825088	16481608	24992
516	3.616016	100081664	68825088	19798080	24992
517	4.318774	100081664	68825088	23773960	24992
518	5.305993	100081664	68825088	28409240	24992
519	6.604612	100081664	68825088	17275296	24992
520	6.682343	100081664	68825088	23230360	24992
521	7.160089	100081664	68825088	29844816	24992
522	0.76914	100081664	68825088	20673504	24992
523	1.475335	100081664	68825088	22011264	24992
524	2.424658	100081664	68825088	24008416	24992
525	2.907907	100081664	68825088	26664976	24992
526	3.606332	100081664	68825088	29981448	24992
527	5.416595	100081664	68825088	17532616	24992
528	5.031649	100081664	68825088	22167960	24992
529	5.737931	100081664	68825088	27462776	24992
530	7.355446	100081664	68825088	16993072	24992
531	7.366396	100081664	68825088	23607528	24992
532	0.762972	100081664	68825088	30860904	24992
533	1.709177	100081664	68825088	32198648	24992
534	3.124471	100081664	68825088	17767896	24992
535	2.893189	100081664	68825088	20424456	24992
536	3.829205	100081664	68825088	23740928	24992
537	4.325839	100081664	68825088	27716808	24992
538	5.028839	100081664	68825088	32352088	24992
539	6.892386	100081664	68825088	21230152	24992
540	6.452388	100081664	68825088	27185200	24992
541	8.368108	100081664	68825088	17374512	24992
542	0.766938	100081664	68825088	24627888	24992
543	1.481928	100081664	68825088	25965632	24992
544	2.192466	100081664	68825088	27962784	24992
545	2.944978	100081664	68825088	30619344	24992
546	4.744134	100081664	68825088	17502344	24992
547	4.317993	100081664	68825088	21478224	24992
548	5.021923	100081664	68825088	26113520	24992
549	5.950293	100081664	68825088	31408224	24992
550	7.418158	100081664	68825088	20946320	24992
551	7.137802	100081664	68825088	27560776	24992
552	0.772716	100081664	68825088	18382216	24992
553	1.473584	100081664	68825088	19719960	24992
554	2.19052	100081664	68825088	21717112	24992
555	2.885301	100081664	68825088	24373672	24992
556	3.818564	100081664	68825088	27696944	24992
557	4.427468	100081664	68825088	31672824	24992
558	6.044107	100081664	68825088	19888112	24992
559	5.743872	100081664	68825088	25182800	24992
560	6.888642	100081664	68825088	31138120	24992
561	8.151214	100081664	68825088	21347400	24992
562	0.778792	100081664	68825088	28600824	24992
563	1.48904	100081664	68825088	29938568	24992
564	2.179337	100081664	68825088	31935816	24992
565	3.87952	100081664	68825088	18162032	24992
566	3.629594	100081664	68825088	21478552	24992
567	4.312659	100081664	68825088	25454432	24992
568	5.252636	100081664	68825088	30089712	24992
569	6.830842	100081664	68825088	18955656	24992
570	6.674158	100081664	68825088	24910704	24992
571	7.16792	100081664	68825088	31525176	24992
572	0.768233	100081664	68825088	22353864	24992
573	1.477192	100081664	68825088	23691608	24992
574	2.407104	100081664	68825088	25688760	24992
575	2.951786	100081664	68825088	28345320	24992
576	3.597299	100081664	68825088	31661792	24992
577	5.544962	100081664	68825088	19212992	24992
578	5.036582	100081664	68825088	23848272	24992
579	5.782064	100081664	68825088	29142960	24992
580	7.490285	100081664	68825088	18673304	24992
581	7.430744	100081664	68825088	25287760	24992
582	0.965157	100081664	68825088	32541136	24992
583	2.508738	100081664	68825088	17446064	24992
584	2.210823	100081664	68825088	19443216	24992
585	3.124917	100081664	68825088	22099824	24992
586	3.596921	100081664	68825088	25416296	24992
587	4.329028	100081664	68825088	29392176	24992
588	6.059785	100081664	68825088	17600888	24992
589	5.988055	100081664	68825088	22895576	24992
590	6.427081	100081664	68825088	28850624	24992
591	8.450949	100081664	68825088	19045264	24992
592	0.7669	100081664	68825088	26298640	24992
593	1.490324	100081664	68825088	27636384	24992
594	2.176895	100081664	68825088	29633536	24992
595	2.897769	100081664	68825088	32290096	24992
596	4.876419	100081664	68825088	19183920	24992
597	4.370911	100081664	68825088	23159800	24992
598	5.246063	100081664	68825088	27795080	24992
599	5.718958	100081664	68825088	33089864	24992
600	7.5976	100081664	68825088	22627272	24992
601	7.213062	100081664	68825088	29241744	24992
602	0.770103	100081664	68825088	20062944	24992
603	1.475953	100081664	68825088	21400688	24992
604	2.186105	100081664	68825088	23397840	24992
605	3.108789	100081664	68825088	26054400	24992
606	3.603017	100081664	68825088	29370872	24992
607	4.312932	100081664	68825088	33346752	24992
608	6.128433	100081664	68825088	21554616	24992
609	5.752685	100081664	68825088	26849304	24992
610	6.82564	100081664	68825088	32804368	24992
611	8.478582	100081664	68825088	23006800	24992
612	0.788861	100081664	68825088	30260208	24992
613	1.475875	100081664	68825088	31597952	24992
614	2.197581	100081664	68825088	33595104	24992
615	4.001112	100081664	68825088	19820648	24992
616	3.61353	100081664	68825088	23137120	24992
617	4.540912	100081664	68825088	27113000	24992
618	5.01946	100081664	68825088	31748280	24992
619	7.118299	100081664	68825088	20614096	24992
620	6.460246	100081664	68825088	26569144	24992
621	7.223672	100081664	68825088	33183648	24992
622	0.771319	100081664	68825088	24011616	24992
623	1.716893	100081664	68825088	25349360	24992
624	2.181251	100081664	68825088	27346512	24992
625	2.943906	100081664	68825088	30003072	24992
626	3.600135	100081664	68825088	33319544	24992
627	5.664195	100081664	68825088	20870136	24992
628	5.032509	100081664	68825088	25505416	24992
629	5.732838	100081664	68825088	30800104	24992
630	7.607587	100081664	68825088	20330304	24992
631	7.380667	100081664	68825088	26944760	24992
632	1.929674	100081664	68825088	17760576	24992
633	1.716545	100081664	68825088	19098328	24992
634	2.192282	100081664	68825088	21095480	24992
635	2.895359	100081664	68825088	23752040	24992
636	3.657837	100081664	68825088	27068512	24992
637	4.305553	100081664	68825088	31044392	24992
638	6.447186	100081664	68825088	19252992	24992
639	6.163265	100081664	68825088	24547696	24992
640	6.709495	100081664	68825088	30511472	24992
641	8.411066	100081664	68825088	20710624	24992
642	0.764902	100081664	68825088	27964000	24992
643	1.473463	100081664	68825088	29301744	24992
644	2.199916	100081664	68825088	31298896	24992
645	3.116239	100081664	68825088	33955456	24992
646	4.789529	100081664	68825088	20848608	24992
647	4.311133	100081664	68825088	24824488	24992
648	5.232194	100081664	68825088	29459880	24992
649	6.921678	100081664	68825088	18325952	24992
650	6.465808	100081664	68825088	24281000	24992
651	7.409743	100081664	68825088	30895488	24992
652	0.772773	100081664	68825088	21716704	24992
653	1.475995	100081664	68825088	23054448	24992
654	2.409019	100081664	68825088	25051600	24992
655	2.888385	100081664	68825088	27708160	24992
656	3.594244	100081664	68825088	31024632	24992
657	5.545431	100081664	68825088	18575912	24992
658	5.018411	100081664	68825088	23211192	24992
659	6.17117	100081664	68825088	28505880	24992
660	7.74367	100081664	68825088	18036392	24992
661	7.373362	100081664	68825088	24650840	24992
662	0.78481	100081664	68825088	31904216	24992
663	1.476263	100081664	68825088	33241960	24992
664	3.434538	100081664	68825088	18811880	24992
665	2.911394	100081664	68825088	21468440	24992
666	3.592134	100081664	68825088	24784960	24992
667	4.552273	100081664	68825088	28760840	24992
668	5.06707	100081664	68825088	33396168	24992
669	7.258405	100081664	68825088	22274952	24992
670	6.445852	100081664	68825088	28230000	24992
671	8.670967	100081664	68825088	18419528	24992
672	0.779585	100081664	68825088	25672896	24992
673	1.479605	100081664	68825088	27010640	24992
674	2.230281	100081664	68825088	29007792	24992
675	2.891007	100081664	68825088	31664352	24992
676	5.092761	100081664	68825088	18547464	24992
677	4.368808	100081664	68825088	22523376	24992
678	5.02267	100081664	68825088	27158656	24992
679	5.722751	100081664	68825088	32453344	24992
680	8.012262	100081664	68825088	21991456	24992
681	7.176215	100081664	68825088	28605912	24992
682	0.785996	100081664	68825088	19427576	24992
683	1.473234	100081664	68825088	20765320	24992
684	2.170664	100081664	68825088	22762504	24992
685	2.900023	100081664	68825088	25419144	24992
686	3.602644	100081664	68825088	28735616	24992
687	4.298856	100081664	68825088	32711496	24992
688	6.714798	100081664	68825088	20919984	24992
689	5.723126	100081664	68825088	26214672	24992
690	6.656664	100081664	68825088	32169720	24992
691	8.498899	100081664	68825088	22372152	24992
692	0.764854	100081664	68825088	29625576	24992
693	1.691647	100081664	68825088	30963352	24992
694	2.199701	100081664	68825088	32960504	24992
695	4.19813	100081664	68825088	19186720	24992
696	3.605961	100081664	68825088	22503192	24992
697	4.518053	100081664	68825088	26479072	24992
698	5.019124	100081664	68825088	31114496	24992
699	7.080883	100081664	68825088	19980552	24992
700	6.494338	100081664	68825088	25935600	24992
701	7.358589	100081664	68825088	32550056	24992
702	0.771466	100081664	68825088	23378712	24992
703	1.490185	100081664	68825088	24716456	24992
704	2.174627	100081664	68825088	26713608	24992
705	2.899078	100081664	68825088	29370168	24992
706	3.60447	100081664	68825088	32686640	24992
707	5.743045	100081664	68825088	20237808	24992
708	5.461037	100081664	68825088	24873088	24992
709	5.743937	100081664	68825088	30167776	24992
710	8.039561	100081664	68825088	19698072	24992
711	7.161708	100081664	68825088	26312528	24992
712	0.766795	100081664	68825088	33565904	24992
713	1.473562	100081664	68825088	34903648	24992
714	3.561915	100081664	68825088	20472896	24992
715	3.128149	100081664	68825088	23129456	24992
716	3.601031	100081664	68825088	26445928	24992
717	4.311339	100081664	68825088	30421808	24992
718	5.383409	100081664	68825088	35057104	24992
719	7.187083	100081664	68825088	23929440	24992
720	6.439547	100081664	68825088	29884488	24992
721	8.771484	100081664	68825088	20073616	24992
722	0.766603	100081664	68825088	27326992	24992
723	1.474089	100081664	68825088	28664736	24992
724	2.398684	100081664	68825088	30661888	24992
725	2.896129	100081664	68825088	33318448	24992
726	5.014569	100081664	68825088	20206656	24992
727	4.330932	100081664	68825088	24182600	24992
728	5.013686	100081664	68825088	28817880	24992
729	5.951392	100081664	68825088	34112568	24992
730	7.886525	100081664	68825088	23650696	24992
731	7.590863	100081664	68825088	30265152	24992
732	0.770481	100081664	68825088	21086384	24992
733	1.472324	100081664	68825088	22424128	24992
734	2.196834	100081664	68825088	24421344	24992
735	2.895609	100081664	68825088	27077904	24992
736	3.796394	100081664	68825088	30394376	24992
737	4.330644	100081664	68825088	34370256	24992
738	6.465756	100081664	68825088	22578744	24992
739	6.008099	100081664	68825088	27873432	24992
740	6.490626	100081664	68825088	33828480	24992
741	8.650568	100081664	68825088	24030944	24992
742	0.777221	100081664	68825088	31284336	24992
743	1.481883	100081664	68825088	32622144	24992
744	2.190776	100081664	68825088	34619296	24992
745	4.730642	100081664	68825088	20845512	24992
746	3.662992	100081664	68825088	24161992	24992
747	4.359131	100081664	68825088	28137864	24992
748	5.353916	100081664	68825088	32773144	24992
749	7.216378	100081664	68825088	21639088	24992
750	6.666596	100081664	68825088	27594136	24992
751	7.436602	100081664	68825088	34208592	24992
752	0.771488	100081664	68825088	25037232	24992
753	1.474663	100081664	68825088	26374976	24992
754	2.19843	100081664	68825088	28372128	24992
755	2.902748	100081664	68825088	31028736	24992
756	4.365425	100081664	68825088	34345208	24992
757	5.998383	100081664	68825088	21896360	24992
758	5.089961	100081664	68825088	26531640	24992
759	5.94245	100081664	68825088	31826328	24992
760	7.952889	100081664	68825088	21356608	24992
761	7.174902	100081664	68825088	27971312	24992
762	0.806696	100081664	68825088	35224680	24992
763	3.105112	100081664	68825088	20128920	24992
764	2.305159	100081664	68825088	22126072	24992
765	3.051532	100081664	68825088	24782632	24992
766	3.967642	100081664	68825088	28099104	24992
767	4.431052	100081664	68825088	32074984	24992
768	6.60343	100081664	68825088	20283712	24992
769	5.742179	100081664	68825088	25578464	24992
770	6.629539	100081664	68825088	31533512	24992
771	8.693825	100081664	68825088	21728200	24992
772	0.76656	100081664	68825088	28981576	24992
773	1.489698	100081664	68825088	30319320	24992
774	2.16928	100081664	68825088	32316472	24992
775	2.904251	100081664	68825088	34973032	24992
776	5.1268	100081664	68825088	21866856	24992
777	4.358508	100081664	68825088	25842736	24992
778	5.235793	100081664	68825088	30478016	24992
779	5.71983	100081664	68825088	35772704	24992
780	8.429205	100081664	68825088	25309136	24992
781	7.174685	100081664	68825088	31923592	24992
782	0.775479	100081664	68825088	22744856	24992
783	1.706121	100081664	68825088	24082600	24992
784	2.181841	100081664	68825088	26079752	24992
785	3.654708	100081664	68825088	28736496	24992
786	3.613559	100081664	68825088	32052968	24992
787	6.183888	100081664	68825088	19603224	24992
788	5.036875	100081664	68825088	24238496	24992
789	5.733292	100081664	68825088	29533184	24992
790	6.465354	100081664	68825088	35488232	24992
791	8.968547	100081664	68825088	25690384	24992
792	0.766132	100081664	68825088	32943840	24992
793	1.489158	100081664	68825088	34281584	24992
794	3.748529	100081664	68825088	19851512	24992
795	2.893333	100081664	68825088	22508064	24992
796	3.658175	100081664	68825088	25824536	24992
797	4.305119	100081664	68825088	29800432	24992
798	5.242675	100081664	68825088	34435712	24992
799	7.366677	100081664	68825088	23301536	24992
800	6.664316	100081664	68825088	29256648	24992
801	7.141635	100081664	68825088	35871104	24992
802	0.785085	100081664	68825088	26705688	24992
803	1.475947	100081664	68825088	28043432	24992
804	2.184007	100081664	68825088	30040584	24992
805	2.906225	100081664	68825088	32697224	24992
806	3.921271	100081664	68825088	36015320	24992
807	6.163415	100081664	68825088	23565800	24992
808	5.023257	100081664	68825088	28201096	24992
809	5.717514	100081664	68825088	33495784	24992
810	8.308869	100081664	68825088	23025968	24992
811	7.159797	100081664	68825088	29640424	24992
812	2.592528	100081664	68825088	20456312	24992
813	1.490754	100081664	68825088	21794056	24992
814	2.253858	100081664	68825088	23791208	24992
815	2.934123	100081664	68825088	26447768	24992
816	3.587936	100081664	68825088	29764240	24992
817	4.583779	100081664	68825088	33740120	24992
818	6.6947	100081664	68825088	21948656	24992
819	5.747158	100081664	68825088	27243344	24992
820	6.42529	100081664	68825088	33198392	24992
821	9.043579	100081664	68825088	23397432	24992
822	0.778705	100081664	68825088	30650808	24992
823	1.471732	100081664	68825088	31988552	24992
824	2.185369	100081664	68825088	33985704	24992
825	4.550923	100081664	68825088	20211920	24992
826	3.611895	100081664	68825088	23528392	24992
827	4.496967	100081664	68825088	27504272	24992
828	5.243841	100081664	68825088	32139552	24992
829	7.446067	100081664	68825088	21005592	24992
830	6.667767	100081664	68825088	26960688	24992
831	7.133162	100081664	68825088	33575144	24992
832	0.773161	100081664	68825088	24403912	24992
833	1.528476	100081664	68825088	25741656	24992
834	2.405393	100081664	68825088	27738808	24992
835	2.898122	100081664	68825088	30395368	24992
836	3.594909	100081664	68825088	33711888	24992
837	6.210912	100081664	68825088	21263168	24992
838	5.02834	100081664	68825088	25898448	24992
839	5.744624	100081664	68825088	31193136	24992
840	8.150785	100081664	68825088	20723648	24992
841	7.393828	100081664	68825088	27338208	24992
842	1.127586	100081664	68825088	34591584	24992
843	1.474643	100081664	68825088	35929328	24992
844	3.914189	100081664	68825088	21499264	24992
845	2.943361	100081664	68825088	24155824	24992
846	3.615969	100081664	68825088	27472296	24992
847	4.306473	100081664	68825088	31448240	24992
848	5.058204	100081664	68825088	36083520	24992
849	7.66428	100081664	68825088	24961584	24992
850	6.66436	100081664	68825088	30926968	24992
851	9.095162	100081664	68825088	21129432	24992
852	0.769768	100081664	68825088	28382808	24992
853	1.477638	100081664	68825088	29720552	24992
854	2.192264	100081664	68825088	31717704	24992
855	3.114056	100081664	68825088	34374328	24992
856	5.341851	100081664	68825088	21267656	24992
857	4.323939	100081664	68825088	25243680	24992
858	5.25259	100081664	68825088	29878960	24992
859	5.791917	100081664	68825088	35173648	24992
860	8.28833	100081664	68825088	24711728	24992
861	7.378137	100081664	68825088	31326184	24992
862	0.771736	100081664	68825088	22147656	24992
863	1.707231	100081664	68825088	23485400	24992
864	2.179091	100081664	68825088	25482616	24992
865	3.256301	100081664	68825088	28139176	24992
866	3.601485	100081664	68825088	31455648	24992
867	4.365367	100081664	68825088	35431528	24992
868	6.872597	100081664	68825088	23640048	24992
869	5.752054	100081664	68825088	28934784	24992
870	6.439827	100081664	68825088	34889832	24992
871	9.450943	100081664	68825088	25092264	24992
872	0.765865	100081664	68825088	32345640	24992
873	1.490079	100081664	68825088	33683384	24992
874	2.408932	100081664	68825088	35680536	24992
875	4.677599	100081664	68825088	21906752	24992
876	3.591892	100081664	68825088	25223224	24992
877	4.328928	100081664	68825088	29199104	24992
878	5.229281	100081664	68825088	33834384	24992
879	7.634873	100081664	68825088	22700440	24992
880	6.730746	100081664	68825088	28655584	24992
881	7.157713	100081664	68825088	35270040	24992
882	0.772855	100081664	68825088	26098680	24992
883	1.473506	100081664	68825088	27436424	24992
884	2.416855	100081664	68825088	29433576	24992
885	2.884066	100081664	68825088	32090136	24992
886	3.606602	100081664	68825088	35406608	24992
887	6.371584	100081664	68825088	22957760	24992
888	5.229951	100081664	68825088	27593040	24992
889	5.788302	100081664	68825088	32887728	24992
890	8.286409	100081664	68825088	22418008	24992
891	7.438348	100081664	68825088	29032512	24992
892	0.989221	100081664	68825088	36285888	24992
893	3.302816	100081664	68825088	21190816	24992
894	2.196324	100081664	68825088	23187968	24992
895	2.889265	100081664	68825088	25844528	24992
896	3.604177	100081664	68825088	29161000	24992
897	4.311522	100081664	68825088	33136912	24992
898	7.270482	100081664	68825088	21345624	24992
899	5.735964	100081664	68825088	26640312	24992
900	6.665501	100081664	68825088	32595376	24992
901	9.042004	100081664	68825088	22790096	24992
902	0.76601	100081664	68825088	30043472	24992
903	1.527097	100081664	68825088	31381216	24992
904	2.182757	100081664	68825088	33378368	24992
905	3.116186	100081664	68825088	36034928	24992
906	5.483583	100081664	68825088	22928816	24992
907	4.317353	100081664	68825088	26904696	24992
908	5.237509	100081664	68825088	31539976	24992
909	5.728474	100081664	68825088	36834664	24992
910	8.402201	100081664	68825088	26372760	24992
911	7.374936	100081664	68825088	32987216	24992
912	0.777845	100081664	68825088	23808544	24992
913	1.967419	100081664	68825088	25146368	24992
914	2.221769	100081664	68825088	27145584	24992
915	2.889721	100081664	68825088	29802144	24992
916	3.605301	100081664	68825088	33118616	24992
917	4.320833	100081664	68825088	37094496	24992
918	6.944288	100081664	68825088	25302664	24992
919	5.966422	100081664	68825088	30597368	24992
920	6.433483	100081664	68825088	36552416	24992
921	9.519728	100081664	68825088	26755232	24992
922	0.779059	100081664	68825088	34008608	24992
923	1.471537	100081664	68825088	35346352	24992
924	2.179137	100081664	68825088	37343504	24992
925	5.031656	100081664	68825088	23569032	24992
926	3.624261	100081664	68825088	26885504	24992
927	4.302802	100081664	68825088	30861384	24992
928	5.293305	100081664	68825088	35496664	24992
929	7.730063	100081664	68825088	24362496	24992
930	6.500362	100081664	68825088	30317544	24992
931	7.138029	100081664	68825088	36932000	24992
932	0.769683	100081664	68825088	27760640	24992
933	1.472484	100081664	68825088	29098384	24992
934	2.408818	100081664	68825088	31095536	24992
935	2.902252	100081664	68825088	33752096	24992
936	3.603758	100081664	68825088	37068568	24992
937	6.28227	100081664	68825088	24619720	24992
938	5.043317	100081664	68825088	29255032	24992
939	5.948882	100081664	68825088	34549736	24992
940	8.437458	100081664	68825088	24080032	24992
941	7.464373	100081664	68825088	30694680	24992
942	0.764192	100081664	68825088	37948056	24992
943	3.450327	100081664	68825088	22852312	24992
944	2.191441	100081664	68825088	24849464	24992
945	3.168784	100081664	68825088	27506024	24992
946	3.808036	100081664	68825088	30822496	24992
947	4.315483	100081664	68825088	34798456	24992
948	7.261975	100081664	68825088	23007168	24992
949	5.74501	100081664	68825088	28301856	24992
950	6.424638	100081664	68825088	34256904	24992
951	9.146763	100081664	68825088	24451544	24992
952	0.776271	100081664	68825088	31704984	24992
953	1.474623	100081664	68825088	33042728	24992
954	2.212548	100081664	68825088	35039944	24992
955	3.104753	100081664	68825088	37696504	24992
956	5.621465	100081664	68825088	24589912	24992
957	4.366716	100081664	68825088	28565792	24992
958	5.010146	100081664	68825088	33201072	24992
959	7.947373	100081664	68825088	22067120	24992
960	6.489972	100081664	68825088	28022176	24992
961	7.499471	100081664	68825088	34636664	24992
962	0.770524	100081664	68825088	25457896	24992
963	1.477242	100081664	68825088	26795656	24992
964	2.189897	100081664	68825088	28792808	24992
965	2.891949	100081664	68825088	31449368	24992
966	3.815335	100081664	68825088	34765840	24992
967	6.400087	100081664	68825088	22317256	24992
968	5.256707	100081664	68825088	26952528	24992
969	5.959538	100081664	68825088	32247216	24992
970	6.441577	100081664	68825088	38202280	24992
971	9.240388	100081664	68825088	28404032	24992
972	0.765899	100081664	68825088	35657408	24992
973	1.478765	100081664	68825088	36995152	24992
974	4.439449	100081664	68825088	22565088	24992
975	2.897182	100081664	68825088	25221648	24992
976	3.60704	100081664	68825088	28538120	24992
977	4.304675	100081664	68825088	32514000	24992
978	5.051176	100081664	68825088	37149280	24992
979	8.079696	100081664	68825088	26015104	24992
980	6.45958	100081664	68825088	31970152	24992
981	7.409739	100081664	68825088	38584608	24992
982	0.786257	100081664	68825088	29412216	24992
983	1.473261	100081664	68825088	30749960	24992
984	2.196502	100081664	68825088	32747112	24992
985	2.880024	100081664	68825088	35403672	24992
986	5.951535	100081664	68825088	22286784	24992
987	4.339689	100081664	68825088	26262656	24992
988	5.063658	100081664	68825088	30897952	24992
989	5.945595	100081664	68825088	36192640	24992
990	8.620909	100081664	68825088	25729288	24992
991	7.409207	100081664	68825088	32343760	24992
992	0.79227	100081664	68825088	23165424	24992
993	1.509904	100081664	68825088	24503168	24992
994	2.181783	100081664	68825088	26500320	24992
995	3.108883	100081664	68825088	29156880	24992
996	3.614045	100081664	68825088	32473352	24992
997	4.299939	100081664	68825088	36449232	24992
998	7.163185	100081664	68825088	24657720	24992
999	5.732994	100081664	68825088	29952408	24992
1000	6.668624	100081664	68825088	35907488	24992
