x	Duration	RSS	HeapTotal	HeapUsed	External
0	NA	98504704	67776512	10880504	24992
1	0.926612	98504704	67776512	11560632	24992
2	1.535145	98504704	67776512	12899048	24992
3	2.276649	98504704	67776512	14896832	24992
4	3.048959	98504704	67776512	17554152	24992
5	3.933206	98504704	67776512	20871576	24992
6	4.448595	98504704	67776512	24848536	24992
7	5.801695	98504704	67776512	13018936	24992
8	5.844553	98504704	67776512	18315024	24992
9	6.748708	98504704	67776512	24271648	24992
10	7.788869	98504704	67776512	14428720	24992
11	8.19465	98504704	67776512	21704600	24992
12	0.791759	98504704	67776512	13144920	24992
13	1.519704	98504704	67776512	14483184	24992
14	2.232852	98504704	67776512	16481000	24992
15	2.956689	98504704	67776512	19138384	24992
16	3.894441	98504704	67776512	22455856	24992
17	4.626823	98504704	67776512	26435288	24992
18	5.364364	98504704	67776512	14606376	24992
19	6.078461	98504704	67776512	19902896	24992
20	6.559291	98504704	67776512	25859584	24992
21	7.771241	98504704	67776512	16017568	24992
22	0.797331	98504704	67776512	23273016	24992
23	1.516738	98504704	67776512	24611280	24992
24	2.224424	98504704	67776512	26609096	24992
25	3.151942	98504704	67776512	12797728	24992
26	3.899891	98504704	67776512	16115200	24992
27	4.397315	98504704	67776512	20092304	24992
28	5.342934	98504704	67776512	24728888	24992
29	6.021439	98504704	67776512	13559176	24992
30	6.557734	98504704	67776512	19515960	24992
31	7.246759	98504704	67776512	26132200	24992
32	0.794506	98504704	67776512	16921152	24992
33	1.508509	98504704	67776512	18259416	24992
34	3.298379	98504704	67776512	20257248	24992
35	3.334452	98504704	67776512	22914632	24992
36	3.803227	98504704	67776512	26246048	24992
37	4.64856	98504704	67776512	13756688	24992
38	5.27815	98504704	67776512	18393272	24992
39	5.781534	98504704	67776512	23689424	24992
40	6.884306	98504704	67776512	13182456	24992
41	7.383871	98504704	67776512	19798728	24992
42	0.778639	98504704	67776512	27054176	24992
43	1.731333	98504704	67776512	11919624	24992
44	2.263003	98504704	67776512	13917440	24992
45	3.193565	98504704	67776512	16575496	24992
46	3.675496	98504704	67776512	19892968	24992
47	4.358967	98504704	67776512	23870056	24992
48	5.705482	98504704	67776512	12041080	24992
49	5.834962	98504704	67776512	17337232	24992
50	6.777682	98504704	67776512	23293920	24992
51	7.717939	98504704	67776512	13447704	24992
52	0.771262	98504704	67776512	20703184	24992
53	1.503229	98504704	67776512	22041448	24992
54	2.228511	98504704	67776512	24039296	24992
55	2.925249	98504704	67776512	26696680	24992
56	3.898554	98504704	67776512	13547840	24992
57	4.592983	98504704	67776512	17524864	24992
58	5.104155	98504704	67776512	22161448	24992
59	5.986761	98504704	67776512	27458544	24992
60	7.209534	98504704	67776512	16952808	24992
61	7.371171	98504704	67776512	23569096	24992
62	0.781843	98504704	67776512	14355168	24992
63	1.710834	98504704	67776512	15693432	24992
64	2.445683	98504704	67776512	17693944	24992
65	2.942253	98504704	67776512	20351328	24992
66	3.661237	98504704	67776512	23668800	24992
67	4.598915	98504704	67776512	27645936	24992
68	5.375258	98504704	67776512	15815384	24992
69	6.245951	98504704	67776512	21111536	24992
70	6.578899	98504704	67776512	27068256	24992
71	7.711496	98504704	67776512	17225312	24992
72	1.0474	98504704	67776512	24480792	24992
73	1.509395	98504704	67776512	25819056	24992
74	2.226332	98504704	67776512	27816872	24992
75	3.136171	98504704	67776512	14003928	24992
76	3.685191	98504704	67776512	17321448	24992
77	4.443179	98504704	67776512	21298472	24992
78	5.090833	98504704	67776512	25935056	24992
79	6.242526	98504704	67776512	14764672	24992
80	6.54448	98504704	67776512	20721552	24992
81	7.62234	98504704	67776512	27339040	24992
82	0.791888	98504704	67776512	18127800	24992
83	1.506523	98504704	67776512	19465976	24992
84	2.456456	98504704	67776512	21464856	24992
85	2.943316	98504704	67776512	24122168	24992
86	3.661587	98504704	67776512	27439552	24992
87	5.027582	98504704	67776512	14954848	24992
88	5.153577	98504704	67776512	19590720	24992
89	6.053577	98504704	67776512	24886080	24992
90	6.980923	98504704	67776512	14378808	24992
91	7.221661	98504704	67776512	20994096	24992
92	0.993283	98504704	67776512	11772784	24992
93	1.534583	98504704	67776512	13110728	24992
94	2.303011	98504704	67776512	15108248	24992
95	2.923074	98504704	67776512	17765160	24992
96	3.870668	98504704	67776512	21082112	24992
97	4.343692	98504704	67776512	25058504	24992
98	5.539712	98504704	67776512	13227584	24992
99	5.777786	98504704	67776512	18522944	24992
100	6.587813	98504704	67776512	24478744	24992
101	7.562768	98504704	67776512	14632488	24992
102	0.774759	98504704	67776512	21886872	24992
103	1.492578	98504704	67776512	23224808	24992
104	2.213024	98504704	67776512	25222232	24992
105	2.903561	98504704	67776512	27879144	24992
106	4.069354	98504704	67776512	14728608	24992
107	4.351058	98504704	67776512	18705048	24992
108	5.055133	98504704	67776512	23340920	24992
109	6.012953	98504704	67776512	12169528	24992
110	6.977547	98504704	67776512	18125344	24992
111	7.243806	98504704	67776512	24740632	24992
112	0.780299	98504704	67776512	15524880	24992
113	1.492138	98504704	67776512	16862816	24992
114	2.219679	98504704	67776512	18860240	24992
115	2.957292	98504704	67776512	21517152	24992
116	3.654914	98504704	67776512	24834120	24992
117	4.819807	98504704	67776512	12345552	24992
118	5.315812	98504704	67776512	16981424	24992
119	6.058373	98504704	67776512	22278744	24992
120	6.517124	98504704	67776512	28234544	24992
121	7.946534	98504704	67776512	18379848	24992
122	0.776304	98504704	67776512	25634216	24992
123	1.537079	98504704	67776512	26972152	24992
124	2.45864	98504704	67776512	12499864	24992
125	3.158809	98504704	67776512	15156776	24992
126	3.675754	98504704	67776512	18473680	24992
127	4.398054	98504704	67776512	22450072	24992
128	5.641333	98504704	67776512	27088048	24992
129	6.03618	98504704	67776512	15919976	24992
130	6.775806	98504704	67776512	21875808	24992
131	7.687133	98504704	67776512	12025680	24992
132	0.772834	98504704	67776512	19279992	24992
133	1.480231	98504704	67776512	20617928	24992
134	2.423906	98504704	67776512	22615400	24992
135	3.140051	98504704	67776512	25272312	24992
136	3.842306	98504704	67776512	12118952	24992
137	4.356248	98504704	67776512	16095336	24992
138	5.041519	98504704	67776512	20731208	24992
139	5.765568	98504704	67776512	26026568	24992
140	7.04544	98504704	67776512	15519760	24992
141	7.568594	98504704	67776512	22135112	24992
142	0.777166	98504704	67776512	12923496	24992
143	1.51159	98504704	67776512	14261432	24992
144	2.208762	98504704	67776512	16258856	24992
145	2.96994	98504704	67776512	18915784	24992
146	3.626835	98504704	67776512	22232688	24992
147	4.586439	98504704	67776512	26209080	24992
148	5.48709	98504704	67776512	14380880	24992
149	6.031349	98504704	67776512	19676240	24992
150	6.469575	98504704	67776512	25632104	24992
151	7.534395	98504704	67776512	15787824	24992
152	0.777255	98504704	67776512	23042144	24992
153	1.720914	98504704	67776512	24380080	24992
154	2.220335	98504704	67776512	26377504	24992
155	3.175973	98504704	67776512	12564368	24992
156	3.700743	98504704	67776512	15881272	24992
157	4.387562	98504704	67776512	19857664	24992
158	5.469678	98504704	67776512	24493536	24992
159	6.297268	98504704	67776512	13322152	24992
160	6.814799	98504704	67776512	19277952	24992
161	7.463087	98504704	67776512	25893336	24992
162	0.778126	98504704	67776512	16680216	24992
163	1.484209	98504704	67776512	18018152	24992
164	2.216911	98504704	67776512	20015576	24992
165	2.909295	98504704	67776512	22672488	24992
166	3.61337	98504704	67776512	25989392	24992
167	4.834527	98504704	67776512	13499008	24992
168	5.085485	98504704	67776512	18134880	24992
169	6.007624	98504704	67776512	23430240	24992
170	6.945054	98504704	67776512	12921960	24992
171	7.565319	98504704	67776512	19537248	24992
172	0.774844	98504704	67776512	26791568	24992
173	1.518849	98504704	67776512	28129504	24992
174	2.450567	98504704	67776512	13656648	24992
175	2.963063	98504704	67776512	16313768	24992
176	3.669173	98504704	67776512	19630672	24992
177	4.416728	98504704	67776512	23607064	24992
178	5.120909	98504704	67776512	28242936	24992
179	6.243864	98504704	67776512	17074808	24992
180	6.540941	98504704	67776512	23030608	24992
181	7.687242	98504704	67776512	13180360	24992
182	0.769303	98504704	67776512	20434744	24992
183	1.506303	98504704	67776512	21772680	24992
184	2.18771	98504704	67776512	23770104	24992
185	2.917974	98504704	67776512	26427080	24992
186	4.319883	98504704	67776512	13273600	24992
187	4.367339	98504704	67776512	17250056	24992
188	5.28204	98504704	67776512	21885928	24992
189	5.808961	98504704	67776512	27181288	24992
190	6.741252	98504704	67776512	16674640	24992
191	7.20757	98504704	67776512	23289928	24992
192	0.777759	98504704	67776512	14074392	24992
193	1.48943	98504704	67776512	15412328	24992
194	2.206159	98504704	67776512	17409752	24992
195	2.926351	98504704	67776512	20066664	24992
196	3.857892	98504704	67776512	23383568	24992
197	4.340384	98504704	67776512	27359960	24992
198	5.404345	98504704	67776512	15528936	24992
199	5.774546	98504704	67776512	20824296	24992
200	6.727377	98504704	67776512	26780096	24992
201	7.457549	98504704	67776512	16935752	24992
202	0.781308	98504704	67776512	24190072	24992
203	1.503035	98504704	67776512	25528008	24992
204	2.201969	98504704	67776512	27525432	24992
205	3.195062	98504704	67776512	13712296	24992
206	3.629189	98504704	67776512	17029200	24992
207	4.358107	98504704	67776512	21005656	24992
208	6.080715	98504704	67776512	25641632	24992
209	6.096619	98504704	67776512	14470440	24992
210	6.812923	98504704	67776512	20440792	24992
211	7.484213	98504704	67776512	27056080	24992
212	0.770666	98504704	67776512	17842912	24992
213	1.500352	98504704	67776512	19180848	24992
214	2.187323	98504704	67776512	21178272	24992
215	3.155403	98504704	67776512	23835184	24992
216	3.631732	98504704	67776512	27152088	24992
217	4.575733	98504704	67776512	14661640	24992
218	5.532207	98504704	67776512	19297528	24992
219	5.857662	98504704	67776512	24595904	24992
220	6.802842	98504704	67776512	14087960	24992
221	7.581805	98504704	67776512	20703232	24992
222	0.805564	98504704	67776512	27957552	24992
223	1.729884	98504704	67776512	12823376	24992
224	2.445573	98504704	67776512	14820776	24992
225	2.942765	98504704	67776512	17477672	24992
226	3.625092	98504704	67776512	20794560	24992
227	4.342045	98504704	67776512	24771000	24992
228	5.346327	98504704	67776512	12940176	24992
229	5.770763	98504704	67776512	18238392	24992
230	6.726807	98504704	67776512	24194240	24992
231	7.730094	98504704	67776512	14348824	24992
232	0.769044	98504704	67776512	21603112	24992
233	1.494203	98504704	67776512	22941032	24992
234	2.226003	98504704	67776512	24938440	24992
235	2.926191	98504704	67776512	27595336	24992
236	3.866798	98504704	67776512	14448384	24992
237	4.767457	98504704	67776512	18424760	24992
238	5.057699	98504704	67776512	23060616	24992
239	5.828967	98504704	67776512	28355960	24992
240	7.142063	98504704	67776512	17850776	24992
241	7.276314	98504704	67776512	24466048	24992
242	0.791875	98504704	67776512	15251504	24992
243	1.748377	98504704	67776512	16589360	24992
244	2.217636	98504704	67776512	18586624	24992
245	2.930263	98504704	67776512	21243328	24992
246	3.621489	98504704	67776512	24559976	24992
247	4.561546	98504704	67776512	28536064	24992
248	5.355134	98504704	67776512	16704368	24992
249	5.910404	98504704	67776512	21999328	24992
250	6.612061	98504704	67776512	27954728	24992
251	7.75293	98504704	67776512	18110192	24992
252	0.766299	98504704	67776512	25363952	24992
253	1.726301	98504704	67776512	26701776	24992
254	2.207336	98504704	67776512	28699040	24992
255	3.201881	98504704	67776512	14885072	24992
256	3.65218	98504704	67776512	18201720	24992
257	4.389976	98504704	67776512	22177808	24992
258	5.071077	98504704	67776512	26813328	24992
259	6.296259	98504704	67776512	15641320	24992
260	6.506766	98504704	67776512	21596672	24992
261	7.433213	98504704	67776512	28211464	24992
262	0.77647	98504704	67776512	18997752	24992
263	1.492599	98504704	67776512	20335656	24992
264	2.426445	98504704	67776512	22332920	24992
265	2.914127	98504704	67776512	24989624	24992
266	3.620423	98504704	67776512	28306272	24992
267	4.817919	98504704	67776512	15815520	24992
268	5.072463	98504704	67776512	20451040	24992
269	6.017466	98504704	67776512	25746000	24992
270	6.731368	98504704	67776512	15237256	24992
271	7.428502	98504704	67776512	21852048	24992
272	0.770623	98504704	67776512	29105808	24992
273	1.728282	98504704	67776512	13970488	24992
274	2.253681	98504704	67776512	15967752	24992
275	2.964413	98504704	67776512	18624472	24992
276	3.84099	98504704	67776512	21941120	24992
277	4.376493	98504704	67776512	25917208	24992
278	5.363804	98504704	67776512	14086040	24992
279	6.06976	98504704	67776512	19381000	24992
280	6.498134	98504704	67776512	25336400	24992
281	7.71233	98504704	67776512	15487640	24992
282	0.770241	98504704	67776512	22741400	24992
283	1.499156	98504704	67776512	24079240	24992
284	2.196089	98504704	67776512	26076504	24992
285	3.019944	98504704	67776512	28733208	24992
286	4.119232	98504704	67776512	15583104	24992
287	4.406146	98504704	67776512	19559288	24992
288	5.587955	98504704	67776512	24197400	24992
289	5.791929	98504704	67776512	29492088	24992
290	7.05875	98504704	67776512	18975808	24992
291	7.200909	98504704	67776512	25590264	24992
292	0.775166	98504704	67776512	16373560	24992
293	1.489012	98504704	67776512	17711312	24992
294	2.205221	98504704	67776512	19708456	24992
295	2.899872	98504704	67776512	22365032	24992
296	3.69905	98504704	67776512	25681504	24992
297	5.69286	98504704	67776512	13189744	24992
298	5.189223	98504704	67776512	17833936	24992
299	5.798788	98504704	67776512	23128624	24992
300	6.669037	98504704	67776512	29083672	24992
301	7.628714	98504704	67776512	19257936	24992
302	0.795376	98504704	67776512	26511376	24992
303	1.537697	98504704	67776512	27849216	24992
304	2.460962	98504704	67776512	13413312	24992
305	3.181909	98504704	67776512	16069864	24992
306	3.62801	98504704	67776512	19386336	24992
307	4.338929	98504704	67776512	23362216	24992
308	5.265007	98504704	67776512	27997496	24992
309	6.115595	98504704	67776512	16863656	24992
310	6.479216	98504704	67776512	22818704	24992
311	7.178028	98504704	67776512	29433160	24992
312	0.77974	98504704	67776512	20268080	24992
313	1.49024	98504704	67776512	21605824	24992
314	2.204443	98504704	67776512	23602976	24992
315	2.934607	98504704	67776512	26259552	24992
316	3.615014	98504704	67776512	29576024	24992
317	4.649854	98504704	67776512	17126840	24992
318	5.074476	98504704	67776512	21762120	24992
319	5.751781	98504704	67776512	27056808	24992
320	7.088666	98504704	67776512	16587504	24992
321	7.481485	98504704	67776512	23201960	24992
322	1.074531	98504704	67776512	14017928	24992
323	1.494055	98504704	67776512	15355672	24992
324	2.213701	98504704	67776512	17352824	24992
325	2.914875	98504704	67776512	20009384	24992
326	3.641828	98504704	67776512	23325856	24992
327	4.53919	98504704	67776512	27301736	24992
328	5.431596	98504704	67776512	15510608	24992
329	5.750394	98504704	67776512	20805296	24992
330	6.692314	98504704	67776512	26760344	24992
331	7.579673	98504704	67776512	16959976	24992
332	0.764131	98504704	67776512	24213352	24992
333	1.487444	98504704	67776512	25551096	24992
334	2.42342	98504704	67776512	27548248	24992
335	3.244162	98504704	67776512	13774736	24992
336	3.628277	98504704	67776512	17091208	24992
337	4.560031	98504704	67776512	21067104	24992
338	5.047973	98504704	67776512	25702384	24992
339	6.384939	98504704	67776512	14568760	24992
340	6.473867	98504704	67776512	20523904	24992
341	7.424423	98504704	67776512	27138360	24992
342	0.783694	98504704	67776512	17967416	24992
343	1.731448	98504704	67776512	19305160	24992
344	2.197999	98504704	67776512	21302360	24992
345	3.401211	98504704	67776512	23961512	24992
346	3.679902	98504704	67776512	27278240	24992
347	4.940857	98504704	67776512	14829856	24992
348	5.120361	98504704	67776512	19465136	24992
349	5.973193	98504704	67776512	24759824	24992
350	6.881761	98504704	67776512	14290848	24992
351	7.248164	98504704	67776512	20905328	24992
352	0.997798	98504704	67776512	28158768	24992
353	1.492062	98504704	67776512	29496512	24992
354	2.620035	98504704	67776512	15066720	24992
355	2.917202	98504704	67776512	17723280	24992
356	3.603619	98504704	67776512	21039752	24992
357	4.562141	98504704	67776512	25015648	24992
358	5.038898	98504704	67776512	29650928	24992
359	6.197889	98504704	67776512	18529392	24992
360	6.552084	98504704	67776512	24489496	24992
361	7.916615	98504704	67776512	14683704	24992
362	0.764147	98504704	67776512	21937080	24992
363	1.492	98504704	67776512	23274824	24992
364	2.19237	98504704	67776512	25271976	24992
365	2.910342	98504704	67776512	27928584	24992
366	4.111439	98504704	67776512	14816304	24992
367	4.351734	98504704	67776512	18792184	24992
368	5.056773	98504704	67776512	23427464	24992
369	6.001238	98504704	67776512	28722152	24992
370	6.945513	98504704	67776512	18260632	24992
371	7.366943	98504704	67776512	24875088	24992
372	0.824051	98504704	67776512	15696960	24992
373	1.556785	98504704	67776512	17034704	24992
374	2.309218	98504704	67776512	19031856	24992
375	3.038358	98504704	67776512	21688416	24992
376	3.98672	98504704	67776512	25004888	24992
377	4.544549	98504704	67776512	28980768	24992
378	5.954558	98504704	67776512	17189736	24992
379	6.076489	98504704	67776512	22484424	24992
380	6.87308	98504704	67776512	28439472	24992
381	7.682051	98504704	67776512	18642528	24992
382	0.762938	98504704	67776512	25895904	24992
383	1.491876	98504704	67776512	27233648	24992
384	2.204254	98504704	67776512	29230800	24992
385	3.412974	98504704	67776512	15457288	24992
386	3.670295	98504704	67776512	18773760	24992
387	4.314934	98504704	67776512	22749640	24992
388	5.262887	98504704	67776512	27384920	24992
389	6.491077	98504704	67776512	16251312	24992
390	6.701906	98504704	67776512	22206440	24992
391	7.184372	98504704	67776512	28820896	24992
392	0.782442	98504704	67776512	19649824	24992
393	1.486876	98504704	67776512	20987568	24992
394	2.199875	98504704	67776512	22984720	24992
395	2.925783	98504704	67776512	25641280	24992
396	3.617291	98504704	67776512	28957832	24992
397	4.834559	98504704	67776512	16509320	24992
398	5.292825	98504704	67776512	21144600	24992
399	5.760048	98504704	67776512	26439288	24992
400	7.098094	98504704	67776512	15970080	24992
401	7.429976	98504704	67776512	22584568	24992
402	0.765409	98504704	67776512	29837944	24992
403	1.993873	98504704	67776512	14743080	24992
404	2.433961	98504704	67776512	16740232	24992
405	2.959514	98504704	67776512	19396792	24992
406	3.629784	98504704	67776512	22713264	24992
407	4.53429	98504704	67776512	26690176	24992
408	5.595491	98504704	67776512	14898984	24992
409	6.046061	98504704	67776512	20193672	24992
410	6.443485	98504704	67776512	26148736	24992
411	7.975581	98504704	67776512	16342928	24992
412	0.994253	98504704	67776512	23596304	24992
413	1.544149	98504704	67776512	24934048	24992
414	2.180564	98504704	67776512	26931200	24992
415	2.902311	98504704	67776512	29587792	24992
416	4.160941	98504704	67776512	16480272	24992
417	4.558792	98504704	67776512	20456280	24992
418	5.046539	98504704	67776512	25091560	24992
419	5.980169	98504704	67776512	30386248	24992
420	7.054235	98504704	67776512	19922136	24992
421	7.209051	98504704	67776512	26536592	24992
422	0.794198	98504704	67776512	17356832	24992
423	1.489241	98504704	67776512	18694576	24992
424	2.193153	98504704	67776512	20691808	24992
425	2.904349	98504704	67776512	23348368	24992
426	3.618974	98504704	67776512	26664840	24992
427	4.617939	98504704	67776512	30640720	24992
428	5.672918	98504704	67776512	18847208	24992
429	5.769889	98504704	67776512	24141944	24992
430	6.469058	98504704	67776512	30096992	24992
431	8.081318	98504704	67776512	20297840	24992
432	0.772825	98504704	67776512	27551880	24992
433	1.482337	98504704	67776512	28889624	24992
434	2.183676	98504704	67776512	30886776	24992
435	3.502837	98504704	67776512	17111136	24992
436	3.854553	98504704	67776512	20427608	24992
437	4.328994	98504704	67776512	24403488	24992
438	5.127676	98504704	67776512	29038768	24992
439	6.848571	98504704	67776512	17903256	24992
440	6.794743	98504704	67776512	23858368	24992
441	7.295194	98504704	67776512	30472824	24992
442	0.770301	98504704	67776512	21300408	24992
443	1.47968	98504704	67776512	22638152	24992
444	2.203816	98504704	67776512	24635304	24992
445	2.904642	98504704	67776512	27291864	24992
446	3.842676	98504704	67776512	30608336	24992
447	5.017523	98504704	67776512	18158272	24992
448	5.099666	98504704	67776512	22793632	24992
449	5.756831	98504704	67776512	28088320	24992
450	7.317149	98504704	67776512	17617208	24992
451	7.16276	98504704	67776512	24231680	24992
452	0.763026	98504704	67776512	31485056	24992
453	2.126464	98504704	67776512	16388432	24992
454	2.209833	98504704	67776512	18385584	24992
455	2.969996	98504704	67776512	21042144	24992
456	3.638813	98504704	67776512	24358616	24992
457	4.549597	98504704	67776512	28334512	24992
458	5.957495	98504704	67776512	16541880	24992
459	5.758154	98504704	67776512	21836568	24992
460	6.726866	98504704	67776512	27791696	24992
461	7.915024	98504704	67776512	17984928	24992
462	0.768981	98504704	67776512	25238304	24992
463	1.71822	98504704	67776512	26576048	24992
464	2.414545	98504704	67776512	28573216	24992
465	2.904905	98504704	67776512	31229776	24992
466	4.306357	98504704	67776512	18121712	24992
467	4.611435	98504704	67776512	22097592	24992
468	5.037867	98504704	67776512	26732872	24992
469	6.542059	98504704	67776512	15597688	24992
470	6.477516	98504704	67776512	21552744	24992
471	7.385068	98504704	67776512	28167200	24992
472	0.777052	98504704	67776512	18987536	24992
473	1.73288	98504704	67776512	20325296	24992
474	2.312374	98504704	67776512	22322448	24992
475	3.046915	98504704	67776512	24979008	24992
476	3.8132	98504704	67776512	28295504	24992
477	5.454512	98504704	67776512	15845648	24992
478	5.111127	98504704	67776512	20481000	24992
479	5.969758	98504704	67776512	25775880	24992
480	6.518677	98504704	67776512	31730928	24992
481	8.162726	98504704	67776512	21931096	24992
482	0.763047	98504704	67776512	29184472	24992
483	1.493696	98504704	67776512	30522216	24992
484	2.907931	98504704	67776512	16091096	24992
485	2.985247	98504704	67776512	18747656	24992
486	3.845278	98504704	67776512	22064128	24992
487	4.392642	98504704	67776512	26040008	24992
488	5.046877	98504704	67776512	30675288	24992
489	6.940481	98504704	67776512	19539880	24992
490	6.508592	98504704	67776512	25494928	24992
491	7.935665	98504704	67776512	15679312	24992
492	0.780041	98504704	67776512	22932688	24992
493	1.486039	98504704	67776512	24270432	24992
494	2.220551	98504704	67776512	26267584	24992
495	2.914216	98504704	67776512	28924144	24992
496	4.594455	98504704	67776512	15806200	24992
497	4.36188	98504704	67776512	19782080	24992
498	5.040156	98504704	67776512	24417408	24992
499	5.810896	98504704	67776512	29712128	24992
500	7.491276	98504704	67776512	19248816	24992
501	7.21319	98504704	67776512	25863464	24992
502	0.77054	98504704	67776512	16684248	24992
503	1.496285	98504704	67776512	18021992	24992
504	2.202517	98504704	67776512	20019144	24992
505	2.993782	98504704	67776512	22675704	24992
506	3.620228	98504704	67776512	25992240	24992
507	4.361561	98504704	67776512	29968120	24992
508	6.117816	98504704	67776512	18175376	24992
509	5.881164	98504704	67776512	23470064	24992
510	6.779982	98504704	67776512	29425144	24992
511	8.088634	98504704	67776512	19626104	24992
512	0.784105	98504704	67776512	26879512	24992
513	1.475288	98504704	67776512	28217256	24992
514	2.405896	98504704	67776512	30214408	24992
515	3.72099	98504704	67776512	16439568	24992
516	3.689756	98504704	67776512	19756072	24992
517	4.626769	98504704	67776512	23731952	24992
518	5.049096	98504704	67776512	28367232	24992
519	6.633529	98504704	67776512	17232056	24992
520	6.519879	98504704	67776512	23187104	24992
521	7.447648	98504704	67776512	29801560	24992
522	0.784975	98504704	67776512	20629272	24992
523	1.728151	98504704	67776512	21967016	24992
524	2.193252	98504704	67776512	23964168	24992
525	2.919331	98504704	67776512	26620744	24992
526	3.623097	98504704	67776512	29937216	24992
527	5.227384	98504704	67776512	17487184	24992
528	5.057811	98504704	67776512	22122464	24992
529	5.977099	98504704	67776512	27417152	24992
530	7.379505	98504704	67776512	16946056	24992
531	7.495562	98504704	67776512	23560512	24992
532	0.773457	98504704	67776512	30813888	24992
533	1.506407	98504704	67776512	32151632	24992
534	3.092795	98504704	67776512	17719824	24992
535	2.925097	98504704	67776512	20376416	24992
536	3.845579	98504704	67776512	23692888	24992
537	4.436101	98504704	67776512	27668768	24992
538	5.242021	98504704	67776512	32304048	24992
539	7.055581	98504704	67776512	21180704	24992
540	6.714094	98504704	67776512	27135752	24992
541	8.067401	98504704	67776512	17323832	24992
542	0.763719	98504704	67776512	24577208	24992
543	1.480448	98504704	67776512	25914952	24992
544	2.249441	98504704	67776512	27912248	24992
545	2.893043	98504704	67776512	30568808	24992
546	4.607048	98504704	67776512	17450752	24992
547	4.340901	98504704	67776512	21426632	24992
548	5.321514	98504704	67776512	26061912	24992
549	5.768754	98504704	67776512	31356680	24992
550	7.689731	98504704	67776512	20893368	24992
551	7.196443	98504704	67776512	27507904	24992
552	0.771243	98504704	67776512	18328464	24992
553	1.483886	98504704	67776512	19666208	24992
554	2.191901	98504704	67776512	21663360	24992
555	3.13909	98504704	67776512	24319920	24992
556	3.62984	98504704	67776512	27643192	24992
557	4.320458	98504704	67776512	31619072	24992
558	6.209752	98504704	67776512	19833128	24992
559	5.764676	98504704	67776512	25127896	24992
560	6.774465	98504704	67776512	31082960	24992
561	8.416113	98504704	67776512	21290608	24992
562	0.76529	98504704	67776512	28543984	24992
563	1.481514	98504704	67776512	29881728	24992
564	2.229481	98504704	67776512	31878880	24992
565	3.874165	98504704	67776512	18104040	24992
566	3.712459	98504704	67776512	21420560	24992
567	4.562008	98504704	67776512	25396440	24992
568	5.094542	98504704	67776512	30031720	24992
569	6.975173	98504704	67776512	18896432	24992
570	6.486798	98504704	67776512	24851480	24992
571	7.422923	98504704	67776512	31465984	24992
572	0.810711	98504704	67776512	22293568	24992
573	1.559517	98504704	67776512	23631312	24992
574	2.313187	98504704	67776512	25628464	24992
575	3.066603	98504704	67776512	28285024	24992
576	3.954274	98504704	67776512	31601496	24992
577	5.360972	98504704	67776512	19151496	24992
578	5.083392	98504704	67776512	23786776	24992
579	6.002901	98504704	67776512	29081464	24992
580	7.702682	98504704	67776512	18610576	24992
581	7.238284	98504704	67776512	25225032	24992
582	0.779535	98504704	67776512	32478408	24992
583	2.44769	98504704	67776512	17382456	24992
584	2.207319	98504704	67776512	19379608	24992
585	3.160316	98504704	67776512	22036200	24992
586	3.635183	98504704	67776512	25352672	24992
587	4.357582	98504704	67776512	29328552	24992
588	6.506695	98504704	67776512	17536032	24992
589	5.776065	98504704	67776512	22830720	24992
590	6.478775	98504704	67776512	28785768	24992
591	8.212088	98504704	67776512	18979000	24992
592	0.768893	98504704	67776512	26232408	24992
593	1.501446	98504704	67776512	27570152	24992
594	2.199123	98504704	67776512	29567304	24992
595	3.136202	98504704	67776512	32223864	24992
596	4.632207	98504704	67776512	19116456	24992
597	4.358608	98504704	67776512	23092336	24992
598	5.046828	98504704	67776512	27727648	24992
599	5.796868	98504704	67776512	33022384	24992
600	7.700997	98504704	67776512	22558384	24992
601	7.39233	98504704	67776512	29173224	24992
602	0.771393	98504704	67776512	19993544	24992
603	1.502821	98504704	67776512	21331288	24992
604	2.201568	98504704	67776512	23328440	24992
605	2.947354	98504704	67776512	25985000	24992
606	3.622679	98504704	67776512	29301472	24992
607	4.551976	98504704	67776512	33277352	24992
608	6.104419	98504704	67776512	21483920	24992
609	5.984526	98504704	67776512	26778608	24992
610	6.472521	98504704	67776512	32733656	24992
611	8.516145	98504704	67776512	22934504	24992
612	0.781215	98504704	67776512	30187880	24992
613	1.48418	98504704	67776512	31525624	24992
614	2.192963	98504704	67776512	33522776	24992
615	3.949332	98504704	67776512	19747264	24992
616	3.838708	98504704	67776512	23063784	24992
617	4.331273	98504704	67776512	27039664	24992
618	5.042271	98504704	67776512	31674960	24992
619	6.889633	98504704	67776512	20539576	24992
620	6.485601	98504704	67776512	26494624	24992
621	7.415674	98504704	67776512	33109160	24992
622	0.778668	98504704	67776512	23936072	24992
623	1.479332	98504704	67776512	25273816	24992
624	2.252595	98504704	67776512	27270968	24992
625	2.900864	98504704	67776512	29927528	24992
626	3.677825	98504704	67776512	33244000	24992
627	5.508855	98504704	67776512	20793344	24992
628	5.366133	98504704	67776512	25428624	24992
629	5.763481	98504704	67776512	30723312	24992
630	7.788783	98504704	67776512	20252136	24992
631	7.198141	98504704	67776512	26866624	24992
632	1.859353	98504704	67776512	17681768	24992
633	1.52722	98504704	67776512	19019520	24992
634	2.235124	98504704	67776512	21016672	24992
635	3.153623	98504704	67776512	23673232	24992
636	3.623143	98504704	67776512	26989768	24992
637	4.577429	98504704	67776512	30965648	24992
638	6.448622	98504704	67776512	19173016	24992
639	6.213741	98504704	67776512	24467720	24992
640	6.910683	98504704	67776512	30431496	24992
641	8.570521	98504704	67776512	20629112	24992
642	0.790336	98504704	67776512	27882536	24992
643	1.72172	98504704	67776512	29220328	24992
644	2.193506	98504704	67776512	31217480	24992
645	2.947401	98504704	67776512	33874040	24992
646	4.804376	98504704	67776512	20765960	24992
647	4.565825	98504704	67776512	24741840	24992
648	5.061478	98504704	67776512	29377120	24992
649	6.897136	98504704	67776512	18241944	24992
650	6.531455	98504704	67776512	24196992	24992
651	7.395366	98504704	67776512	30811448	24992
652	0.776331	98504704	67776512	21631784	24992
653	1.501897	98504704	67776512	22969528	24992
654	2.226657	98504704	67776512	24966680	24992
655	2.962916	98504704	67776512	27623272	24992
656	3.67809	98504704	67776512	30939744	24992
657	5.734944	98504704	67776512	18489792	24992
658	5.292549	98504704	67776512	23125072	24992
659	5.761219	98504704	67776512	28419760	24992
660	7.937256	98504704	67776512	17948864	24992
661	7.458936	98504704	67776512	24563312	24992
662	0.770296	98504704	67776512	31816688	24992
663	1.469357	98504704	67776512	33154432	24992
664	3.383632	98504704	67776512	18723296	24992
665	3.141204	98504704	67776512	21379856	24992
666	3.613837	98504704	67776512	24696328	24992
667	4.336578	98504704	67776512	28672208	24992
668	5.055868	98504704	67776512	33307584	24992
669	7.038457	98504704	67776512	22184944	24992
670	6.596569	98504704	67776512	28140056	24992
671	8.63052	98504704	67776512	18328384	24992
672	0.765917	98504704	67776512	25581752	24992
673	1.477209	98504704	67776512	26919496	24992
674	2.416871	98504704	67776512	28916648	24992
675	2.90801	98504704	67776512	31573208	24992
676	4.823673	98504704	67776512	18455264	24992
677	4.414179	98504704	67776512	22431176	24992
678	5.066606	98504704	67776512	27066456	24992
679	6.171299	98504704	67776512	32361144	24992
680	7.789321	98504704	67776512	21897928	24992
681	7.461963	98504704	67776512	28512384	24992
682	0.794161	98504704	67776512	19333232	24992
683	1.504263	98504704	67776512	20670976	24992
684	2.442586	98504704	67776512	22668160	24992
685	2.929521	98504704	67776512	25324720	24992
686	3.832518	98504704	67776512	28641224	24992
687	4.323135	98504704	67776512	32617104	24992
688	6.315465	98504704	67776512	20824360	24992
689	6.057776	98504704	67776512	26119048	24992
690	6.546265	98504704	67776512	32074096	24992
691	8.453055	98504704	67776512	22274944	24992
692	0.767147	98504704	67776512	29528384	24992
693	1.491832	98504704	67776512	30866128	24992
694	2.24652	98504704	67776512	32863280	24992
695	4.378015	98504704	67776512	19088440	24992
696	3.606597	98504704	67776512	22404912	24992
697	4.3181	98504704	67776512	26380824	24992
698	5.058151	98504704	67776512	31016104	24992
699	7.039549	98504704	67776512	19880912	24992
700	6.793366	98504704	67776512	25835976	24992
701	7.177121	98504704	67776512	32450432	24992
702	0.776651	98504704	67776512	23278032	24992
703	1.478509	98504704	67776512	24615776	24992
704	2.194859	98504704	67776512	26612928	24992
705	2.903633	98504704	67776512	29269488	24992
706	3.622916	98504704	67776512	32585960	24992
707	5.86722	98504704	67776512	20135896	24992
708	5.078846	98504704	67776512	24771176	24992
709	6.169627	98504704	67776512	30065864	24992
710	7.772028	98504704	67776512	19594752	24992
711	7.236684	98504704	67776512	26209208	24992
712	0.758235	98504704	67776512	33462608	24992
713	1.722384	98504704	67776512	34800360	24992
714	3.511107	98504704	67776512	20368552	24992
715	2.958913	98504704	67776512	23025112	24992
716	3.603512	98504704	67776512	26341584	24992
717	4.560445	98504704	67776512	30317464	24992
718	5.071493	98504704	67776512	34952776	24992
719	7.105172	98504704	67776512	23827848	24992
720	6.458353	98504704	67776512	29782896	24992
721	8.80945	98504704	67776512	19970824	24992
722	0.768397	98504704	67776512	27224200	24992
723	1.480174	98504704	67776512	28561944	24992
724	2.180422	98504704	67776512	30559096	24992
725	2.905537	98504704	67776512	33215656	24992
726	4.990376	98504704	67776512	20099160	24992
727	4.354017	98504704	67776512	24075040	24992
728	5.252569	98504704	67776512	28710320	24992
729	5.748677	98504704	67776512	34005008	24992
730	8.090743	98504704	67776512	23541680	24992
731	7.201098	98504704	67776512	30156136	24992
732	0.789116	98504704	67776512	20976472	24992
733	1.512755	98504704	67776512	22314216	24992
734	2.234393	98504704	67776512	24311368	24992
735	3.140091	98504704	67776512	26967928	24992
736	3.630901	98504704	67776512	30284608	24992
737	4.337858	98504704	67776512	34260488	24992
738	6.659904	98504704	67776512	22467776	24992
739	5.773993	98504704	67776512	27762464	24992
740	6.570038	98504704	67776512	33717512	24992
741	8.873397	98504704	67776512	23918392	24992
742	0.988373	98504704	67776512	31171768	24992
743	1.886339	98504704	67776512	32509512	24992
744	2.31535	98504704	67776512	34506696	24992
745	4.749652	98504704	67776512	20731856	24992
746	4.458726	98504704	67776512	24048328	24992
747	4.402385	98504704	67776512	28024240	24992
748	5.096933	98504704	67776512	32659520	24992
749	7.807508	98504704	67776512	21524232	24992
750	7.025871	98504704	67776512	27479328	24992
751	7.273755	98504704	67776512	34093784	24992
752	0.773122	98504704	67776512	24921384	24992
753	1.478268	98504704	67776512	26259128	24992
754	2.197161	98504704	67776512	28256280	24992
755	3.123507	98504704	67776512	30913104	24992
756	3.61322	98504704	67776512	34229584	24992
757	5.945255	98504704	67776512	21779504	24992
758	5.270622	98504704	67776512	26414784	24992
759	5.756605	98504704	67776512	31709472	24992
760	7.95487	98504704	67776512	21238344	24992
761	7.422216	98504704	67776512	27852800	24992
762	0.770234	98504704	67776512	35106192	24992
763	3.123725	98504704	67776512	20009824	24992
764	2.188121	98504704	67776512	22006976	24992
765	2.966089	98504704	67776512	24663536	24992
766	3.603702	98504704	67776512	27980008	24992
767	4.583331	98504704	67776512	31955888	24992
768	6.502103	98504704	67776512	20163368	24992
769	5.971243	98504704	67776512	25458072	24992
770	6.478241	98504704	67776512	31413120	24992
771	8.644286	98504704	67776512	21606352	24992
772	0.769678	98504704	67776512	28859728	24992
773	1.48196	98504704	67776512	30197472	24992
774	2.17984	98504704	67776512	32194624	24992
775	2.961928	98504704	67776512	34851184	24992
776	5.281078	98504704	67776512	21743776	24992
777	4.339567	98504704	67776512	25719656	24992
778	5.039671	98504704	67776512	30354936	24992
779	5.777399	98504704	67776512	35649624	24992
780	8.166991	98504704	67776512	25185624	24992
781	7.410229	98504704	67776512	31800080	24992
782	0.772189	98504704	67776512	22620416	24992
783	1.490408	98504704	67776512	23958160	24992
784	2.196142	98504704	67776512	25955312	24992
785	3.472619	98504704	67776512	28612440	24992
786	3.636826	98504704	67776512	31928912	24992
787	4.399321	98504704	67776512	35914880	24992
788	6.785995	98504704	67776512	24117960	24992
789	5.764629	98504704	67776512	29412648	24992
790	6.701716	98504704	67776512	35367696	24992
791	8.793102	98504704	67776512	25568336	24992
792	0.768706	98504704	67776512	32821712	24992
793	1.484047	98504704	67776512	34159456	24992
794	3.888247	98504704	67776512	19722432	24992
795	2.923377	98504704	67776512	22378984	24992
796	3.628428	98504704	67776512	25695456	24992
797	4.583826	98504704	67776512	29671400	24992
798	5.064966	98504704	67776512	34306680	24992
799	7.338884	98504704	67776512	23171272	24992
800	6.508087	98504704	67776512	29126336	24992
801	7.399291	98504704	67776512	35740792	24992
802	0.774984	98504704	67776512	26574208	24992
803	1.491009	98504704	67776512	27911952	24992
804	2.177309	98504704	67776512	29909136	24992
805	3.129658	98504704	67776512	32565696	24992
806	3.622168	98504704	67776512	35882264	24992
807	5.916199	98504704	67776512	23431512	24992
808	5.3736	98504704	67776512	28066792	24992
809	5.761361	98504704	67776512	33361480	24992
810	8.261928	98504704	67776512	22890256	24992
811	7.210309	98504704	67776512	29504712	24992
812	2.338253	98504704	67776512	20319888	24992
813	1.522317	98504704	67776512	21657736	24992
814	2.232814	98504704	67776512	23654888	24992
815	2.992065	98504704	67776512	26311448	24992
816	3.685653	98504704	67776512	29627920	24992
817	4.422971	98504704	67776512	33603864	24992
818	6.9355	98504704	67776512	21811232	24992
819	5.756904	98504704	67776512	27105920	24992
820	6.673861	98504704	67776512	33061016	24992
821	8.775416	98504704	67776512	23258472	24992
822	0.764032	98504704	67776512	30511848	24992
823	1.691915	98504704	67776512	31849592	24992
824	2.205917	98504704	67776512	33846744	24992
825	4.45643	98504704	67776512	20071936	24992
826	3.68552	98504704	67776512	23388408	24992
827	4.550095	98504704	67776512	27364288	24992
828	5.042521	98504704	67776512	31999568	24992
829	7.748446	98504704	67776512	20864376	24992
830	6.525938	98504704	67776512	26819424	24992
831	7.39136	98504704	67776512	33433880	24992
832	0.835253	98504704	67776512	24261624	24992
833	1.484182	98504704	67776512	25599368	24992
834	2.205129	98504704	67776512	27596520	24992
835	2.889808	98504704	67776512	30253080	24992
836	3.614703	98504704	67776512	33569552	24992
837	6.009118	98504704	67776512	21119600	24992
838	5.248246	98504704	67776512	25754976	24992
839	5.76228	98504704	67776512	31049680	24992
840	8.310825	98504704	67776512	20578784	24992
841	7.266419	98504704	67776512	27193248	24992
842	0.764158	98504704	67776512	34446624	24992
843	1.487493	98504704	67776512	35784368	24992
844	4.052757	98504704	67776512	21353232	24992
845	2.968367	98504704	67776512	24009792	24992
846	3.618161	98504704	67776512	27326264	24992
847	4.535217	98504704	67776512	31302144	24992
848	5.032489	98504704	67776512	35937424	24992
849	7.590979	98504704	67776512	24814768	24992
850	6.458101	98504704	67776512	30780152	24992
851	9.241168	98504704	67776512	20981736	24992
852	0.784362	98504704	67776512	28235176	24992
853	1.480632	98504704	67776512	29572920	24992
854	2.189865	98504704	67776512	31570072	24992
855	2.904623	98504704	67776512	34226632	24992
856	5.347898	98504704	67776512	21118904	24992
857	4.384201	98504704	67776512	25094784	24992
858	5.043042	98504704	67776512	29730064	24992
859	6.012811	98504704	67776512	35024752	24992
860	8.375622	98504704	67776512	24561424	24992
861	7.574238	98504704	67776512	31175912	24992
862	0.776484	98504704	67776512	21996600	24992
863	1.541165	98504704	67776512	23334344	24992
864	2.181879	98504704	67776512	25331496	24992
865	3.13794	98504704	67776512	27988056	24992
866	3.606077	98504704	67776512	31304528	24992
867	4.316232	98504704	67776512	35280440	24992
868	6.81757	98504704	67776512	23487696	24992
869	5.759538	98504704	67776512	28782384	24992
870	6.904944	98504704	67776512	34737512	24992
871	9.106788	98504704	67776512	24938360	24992
872	0.767487	98504704	67776512	32191736	24992
873	1.496458	98504704	67776512	33529480	24992
874	2.233738	98504704	67776512	35526632	24992
875	4.596754	98504704	67776512	21751888	24992
876	3.867658	98504704	67776512	25068360	24992
877	4.523942	98504704	67776512	29044448	24992
878	5.089807	98504704	67776512	33679728	24992
879	7.707683	98504704	67776512	22544552	24992
880	6.451053	98504704	67776512	28499600	24992
881	7.149003	98504704	67776512	35114056	24992
882	0.783055	98504704	67776512	25941656	24992
883	1.495756	98504704	67776512	27279400	24992
884	2.194393	98504704	67776512	29276552	24992
885	2.898877	98504704	67776512	31933112	24992
886	3.888998	98504704	67776512	35249584	24992
887	6.080434	98504704	67776512	22799504	24992
888	5.051948	98504704	67776512	27434800	24992
889	6.041342	98504704	67776512	32731160	24992
890	8.48301	98504704	67776512	22260032	24992
891	7.237431	98504704	67776512	28874488	24992
892	0.76435	98504704	67776512	36127864	24992
893	3.223914	98504704	67776512	21031912	24992
894	2.212698	98504704	67776512	23029064	24992
895	2.915723	98504704	67776512	25685624	24992
896	3.618301	98504704	67776512	29002096	24992
897	4.65712	98504704	67776512	32977976	24992
898	6.808731	98504704	67776512	21185456	24992
899	6.078272	98504704	67776512	26480144	24992
900	6.694238	98504704	67776512	32435208	24992
901	9.20997	98504704	67776512	22628440	24992
902	0.767639	98504704	67776512	29881816	24992
903	1.48796	98504704	67776512	31219560	24992
904	2.195752	98504704	67776512	33216712	24992
905	2.899152	98504704	67776512	35873272	24992
906	5.641455	98504704	67776512	22765960	24992
907	4.347618	98504704	67776512	26741840	24992
908	5.033511	98504704	67776512	31377120	24992
909	5.990418	98504704	67776512	36671808	24992
910	8.304585	98504704	67776512	26208496	24992
911	7.20114	98504704	67776512	32823080	24992
912	0.780052	98504704	67776512	23643416	24992
913	1.807813	98504704	67776512	24981176	24992
914	2.237973	98504704	67776512	26980392	24992
915	3.126315	98504704	67776512	29636952	24992
916	3.618556	98504704	67776512	32953424	24992
917	4.340867	98504704	67776512	36929320	24992
918	6.945292	98504704	67776512	25136256	24992
919	5.872432	98504704	67776512	30430944	24992
920	6.697861	98504704	67776512	36386040	24992
921	9.299514	98504704	67776512	26587256	24992
922	0.767985	98504704	67776512	33840632	24992
923	1.502172	98504704	67776512	35178376	24992
924	2.185584	98504704	67776512	37175544	24992
925	4.719591	98504704	67776512	23400016	24992
926	3.621904	98504704	67776512	26716488	24992
927	4.538342	98504704	67776512	30692368	24992
928	5.015198	98504704	67776512	35327648	24992
929	7.816565	98504704	67776512	24192296	24992
930	6.479571	98504704	67776512	30147344	24992
931	7.313721	98504704	67776512	36761800	24992
932	0.769655	98504704	67776512	27589400	24992
933	1.480882	98504704	67776512	28927160	24992
934	2.237758	98504704	67776512	30924312	24992
935	3.101121	98504704	67776512	33580872	24992
936	3.635773	98504704	67776512	36897344	24992
937	6.195017	98504704	67776512	24447264	24992
938	5.082932	98504704	67776512	29082592	24992
939	5.761094	98504704	67776512	34377328	24992
940	8.57695	98504704	67776512	23906200	24992
941	7.468151	98504704	67776512	30520656	24992
942	0.82041	98504704	67776512	37774032	24992
943	4.244397	98504704	67776512	22677392	24992
944	2.253513	98504704	67776512	24674544	24992
945	2.900492	98504704	67776512	27331104	24992
946	3.661034	98504704	67776512	30647576	24992
947	5.218346	98504704	67776512	34623456	24992
948	6.935781	98504704	67776512	22830936	24992
949	5.99515	98504704	67776512	28125624	24992
950	6.495572	98504704	67776512	34080672	24992
951	9.33453	98504704	67776512	24273856	24992
952	0.765892	98504704	67776512	31527232	24992
953	1.475724	98504704	67776512	32864976	24992
954	2.24389	98504704	67776512	34862128	24992
955	3.057283	98504704	67776512	37518688	24992
956	5.724661	98504704	67776512	24410608	24992
957	4.546343	98504704	67776512	28386488	24992
958	5.307922	98504704	67776512	33021800	24992
959	7.77009	98504704	67776512	21886648	24992
960	6.761664	98504704	67776512	27841704	24992
961	7.279857	98504704	67776512	34456160	24992
962	0.776788	98504704	67776512	25276480	24992
963	1.705806	98504704	67776512	26614224	24992
964	2.19064	98504704	67776512	28611376	24992
965	2.910347	98504704	67776512	31267936	24992
966	3.625099	98504704	67776512	34584408	24992
967	6.489599	98504704	67776512	22134560	24992
968	5.04532	98504704	67776512	26769832	24992
969	6.00211	98504704	67776512	32064520	24992
970	6.688208	98504704	67776512	38019568	24992
971	9.198537	98504704	67776512	28219816	24992
972	0.782804	98504704	67776512	35473496	24992
973	1.485299	98504704	67776512	36811240	24992
974	4.119879	98504704	67776512	22380208	24992
975	3.116206	98504704	67776512	25036760	24992
976	3.612822	98504704	67776512	28353280	24992
977	4.332367	98504704	67776512	32329160	24992
978	5.06976	98504704	67776512	36964440	24992
979	7.807807	98504704	67776512	25829032	24992
980	6.788486	98504704	67776512	31784080	24992
981	7.194882	98504704	67776512	38398536	24992
982	0.767888	98504704	67776512	29231584	24992
983	1.492472	98504704	67776512	30569408	24992
984	2.209368	98504704	67776512	32566560	24992
985	2.964609	98504704	67776512	35223120	24992
986	3.609417	98504704	67776512	38539592	24992
987	6.511825	98504704	67776512	26080160	24992
988	5.099613	98504704	67776512	30715440	24992
989	5.967845	98504704	67776512	36010128	24992
990	8.497296	98504704	67776512	25539176	24992
991	7.294626	98504704	67776512	32153632	24992
992	0.801858	98504704	67776512	22972136	24992
993	1.482453	98504704	67776512	24309880	24992
994	2.188903	98504704	67776512	26307032	24992
995	2.89328	98504704	67776512	28963608	24992
996	3.971977	98504704	67776512	32280080	24992
997	4.31725	98504704	67776512	36255960	24992
998	7.122683	98504704	67776512	24463216	24992
999	5.871258	98504704	67776512	29757904	24992
1000	6.756944	98504704	67776512	35712952	24992
