x	Duration	RSS	HeapTotal	HeapUsed	External
0	NA	99766272	68825088	10878968	24992
1	1.106491	99766272	68825088	11559056	24992
2	1.786252	99766272	68825088	12897464	24992
3	2.630251	99766272	68825088	14895296	24992
4	3.479128	99766272	68825088	17552616	24992
5	4.496314	99766272	68825088	20870040	24992
6	4.614937	99766272	68825088	24847000	24992
7	5.581785	99766272	68825088	13017392	24992
8	6.084797	99766272	68825088	18313480	24992
9	6.754099	99766272	68825088	24270104	24992
10	7.530714	99766272	68825088	14427072	24992
11	8.034276	99766272	68825088	21702824	24992
12	0.809497	99766272	68825088	13143160	24992
13	1.514817	99766272	68825088	14481424	24992
14	2.484092	99766272	68825088	16479240	24992
15	2.958262	99766272	68825088	19136624	24992
16	3.680799	99766272	68825088	22454128	24992
17	4.421465	99766272	68825088	26431152	24992
18	5.626789	99766272	68825088	14604696	24992
19	5.991001	99766272	68825088	19901216	24992
20	6.731349	99766272	68825088	25857904	24992
21	7.916051	99766272	68825088	16015920	24992
22	0.788731	99766272	68825088	23271368	24992
23	1.527819	99766272	68825088	24609632	24992
24	2.227662	99766272	68825088	26607448	24992
25	3.207378	99766272	68825088	12796080	24992
26	3.790719	99766272	68825088	16113552	24992
27	4.506808	99766272	68825088	20090576	24992
28	5.454521	99766272	68825088	24727160	24992
29	6.080805	99766272	68825088	13557448	24992
30	6.813581	99766272	68825088	19514216	24992
31	7.441175	99766272	68825088	26130456	24992
32	0.804868	99766272	68825088	16919408	24992
33	1.547957	99766272	68825088	18257672	24992
34	2.30279	99766272	68825088	20255488	24992
35	3.223702	99766272	68825088	22912872	24992
36	3.714438	99766272	68825088	26230408	24992
37	4.63243	99766272	68825088	13741592	24992
38	5.336475	99766272	68825088	18378176	24992
39	5.839684	99766272	68825088	23674328	24992
40	7.09154	99766272	68825088	13167920	24992
41	7.360817	99766272	68825088	19784192	24992
42	0.788921	99766272	68825088	27039640	24992
43	1.717551	99766272	68825088	11905648	24992
44	2.23596	99766272	68825088	13903464	24992
45	3.176276	99766272	68825088	16561520	24992
46	3.678875	99766272	68825088	19878992	24992
47	4.398361	99766272	68825088	23856048	24992
48	5.34665	99766272	68825088	12027616	24992
49	5.855956	99766272	68825088	17323768	24992
50	6.788889	99766272	68825088	23280504	24992
51	8.905692	99766272	68825088	13449504	24992
52	0.78512	99766272	68825088	20704984	24992
53	1.506019	99766272	68825088	22043248	24992
54	2.457474	99766272	68825088	24041160	24992
55	2.950974	99766272	68825088	26698544	24992
56	3.934195	99766272	68825088	13549800	24992
57	4.711949	99766272	68825088	17526824	24992
58	5.107232	99766272	68825088	22163408	24992
59	6.048428	99766272	68825088	27459560	24992
60	6.752454	99766272	68825088	16953456	24992
61	7.576524	99766272	68825088	23569808	24992
62	0.78462	99766272	68825088	14355512	24992
63	1.736535	99766272	68825088	15693776	24992
64	2.491264	99766272	68825088	17694288	24992
65	2.947544	99766272	68825088	20351672	24992
66	3.662438	99766272	68825088	23669144	24992
67	4.592672	99766272	68825088	27646168	24992
68	5.338872	99766272	68825088	15815616	24992
69	6.035849	99766272	68825088	21111768	24992
70	6.537613	99766272	68825088	27068488	24992
71	7.534357	99766272	68825088	17225544	24992
72	0.846465	99766272	68825088	24480992	24992
73	1.506977	99766272	68825088	25819256	24992
74	2.272376	99766272	68825088	27817104	24992
75	3.151614	99766272	68825088	14004160	24992
76	3.72267	99766272	68825088	17321632	24992
77	4.921268	99766272	68825088	21298656	24992
78	5.147363	99766272	68825088	25935240	24992
79	6.333412	99766272	68825088	14764856	24992
80	6.556191	99766272	68825088	20721736	24992
81	7.463517	99766272	68825088	27339192	24992
82	0.788815	99766272	68825088	18128064	24992
83	1.565403	99766272	68825088	19466240	24992
84	2.216809	99766272	68825088	21465120	24992
85	2.943429	99766272	68825088	24122432	24992
86	3.865959	99766272	68825088	27439816	24992
87	5.189775	99766272	68825088	14954960	24992
88	5.351031	99766272	68825088	19590832	24992
89	5.81909	99766272	68825088	24886192	24992
90	7.078676	99766272	68825088	14378984	24992
91	7.326826	99766272	68825088	20994272	24992
92	1.008422	99766272	68825088	11772960	24992
93	1.534768	99766272	68825088	13110904	24992
94	2.318883	99766272	68825088	15108328	24992
95	2.927243	99766272	68825088	17765240	24992
96	3.872905	99766272	68825088	21082160	24992
97	4.596843	99766272	68825088	25058552	24992
98	5.383408	99766272	68825088	13227632	24992
99	5.848303	99766272	68825088	18522992	24992
100	6.756675	99766272	68825088	24478792	24992
101	7.574573	99766272	68825088	14632520	24992
102	0.776829	99766272	68825088	21886872	24992
103	1.49826	99766272	68825088	23224808	24992
104	2.211189	99766272	68825088	25222232	24992
105	3.155025	99766272	68825088	27879144	24992
106	3.878165	99766272	68825088	14728608	24992
107	4.381988	99766272	68825088	18705016	24992
108	5.345906	99766272	68825088	23340888	24992
109	6.040868	99766272	68825088	12169496	24992
110	6.738853	99766272	68825088	18125296	24992
111	7.234687	99766272	68825088	24740584	24992
112	0.778434	99766272	68825088	15524832	24992
113	1.511049	99766272	68825088	16862768	24992
114	2.210076	99766272	68825088	18860224	24992
115	3.314292	99766272	68825088	21517256	24992
116	3.649023	99766272	68825088	24834168	24992
117	4.816254	99766272	68825088	12345600	24992
118	5.319281	99766272	68825088	16981472	24992
119	5.946658	99766272	68825088	22278792	24992
120	6.559781	99766272	68825088	28234592	24992
121	7.78932	99766272	68825088	18379720	24992
122	0.776649	99766272	68825088	25634088	24992
123	1.494073	99766272	68825088	26972024	24992
124	2.679108	99766272	68825088	12499736	24992
125	3.008527	99766272	68825088	15156696	24992
126	3.707883	99766272	68825088	18473600	24992
127	4.652788	99766272	68825088	22450008	24992
128	5.27883	99766272	68825088	27087984	24992
129	6.173024	99766272	68825088	15919912	24992
130	6.504962	99766272	68825088	21875776	24992
131	7.66544	99766272	68825088	12025648	24992
132	0.778792	99766272	68825088	19279960	24992
133	1.696458	99766272	68825088	20617896	24992
134	2.233572	99766272	68825088	22615336	24992
135	2.921189	99766272	68825088	25272248	24992
136	3.884907	99766272	68825088	12118888	24992
137	4.419271	99766272	68825088	16095272	24992
138	5.067815	99766272	68825088	20731144	24992
139	6.013735	99766272	68825088	26026504	24992
140	6.987605	99766272	68825088	15519696	24992
141	7.421563	99766272	68825088	22135016	24992
142	0.779436	99766272	68825088	12923368	24992
143	1.719787	99766272	68825088	14261304	24992
144	2.205215	99766272	68825088	16258728	24992
145	2.98034	99766272	68825088	18915640	24992
146	3.681866	99766272	68825088	22232544	24992
147	4.586075	99766272	68825088	26209000	24992
148	5.626362	99766272	68825088	14380800	24992
149	5.849419	99766272	68825088	19676160	24992
150	6.641204	99766272	68825088	25631992	24992
151	7.714806	99766272	68825088	15787712	24992
152	0.779754	99766272	68825088	23042032	24992
153	1.494908	99766272	68825088	24379968	24992
154	2.218008	99766272	68825088	26377392	24992
155	3.153694	99766272	68825088	12564288	24992
156	3.745896	99766272	68825088	15881192	24992
157	4.3916	99766272	68825088	19857584	24992
158	5.05607	99766272	68825088	24493456	24992
159	6.256591	99766272	68825088	13322072	24992
160	6.512744	99766272	68825088	19277872	24992
161	7.505032	99766272	68825088	25893208	24992
162	0.780454	99766272	68825088	16680056	24992
163	1.500688	99766272	68825088	18017992	24992
164	2.197749	99766272	68825088	20015416	24992
165	2.929463	99766272	68825088	22672328	24992
166	4.084458	99766272	68825088	25989232	24992
167	4.611294	99766272	68825088	13498816	24992
168	5.073198	99766272	68825088	18134688	24992
169	6.001239	99766272	68825088	23430048	24992
170	6.762355	99766272	68825088	12921768	24992
171	7.214885	99766272	68825088	19537056	24992
172	0.773587	99766272	68825088	26791376	24992
173	1.574867	99766272	68825088	28129312	24992
174	2.477361	99766272	68825088	13656360	24992
175	3.002871	99766272	68825088	16313352	24992
176	3.876631	99766272	68825088	19630256	24992
177	4.407366	99766272	68825088	23606648	24992
178	5.337822	99766272	68825088	28242520	24992
179	6.36739	99766272	68825088	17074392	24992
180	7.092469	99766272	68825088	23030192	24992
181	7.561167	99766272	68825088	13179864	24992
182	0.777401	99766272	68825088	20434200	24992
183	1.489237	99766272	68825088	21772136	24992
184	2.255985	99766272	68825088	23769560	24992
185	3.135432	99766272	68825088	26426472	24992
186	4.098693	99766272	68825088	13272992	24992
187	4.354363	99766272	68825088	17249512	24992
188	5.271152	99766272	68825088	21885384	24992
189	5.783292	99766272	68825088	27180744	24992
190	7.013083	99766272	68825088	16674000	24992
191	7.305232	99766272	68825088	23289288	24992
192	0.777658	99766272	68825088	14073752	24992
193	1.498302	99766272	68825088	15411712	24992
194	2.202583	99766272	68825088	17409128	24992
195	3.141283	99766272	68825088	20066056	24992
196	3.63142	99766272	68825088	23382960	24992
197	4.362069	99766272	68825088	27359352	24992
198	5.438372	99766272	68825088	15528328	24992
199	5.913381	99766272	68825088	20823688	24992
200	6.778469	99766272	68825088	26779488	24992
201	7.742251	99766272	68825088	16935128	24992
202	0.785267	99766272	68825088	24189448	24992
203	1.498797	99766272	68825088	25527384	24992
204	2.261179	99766272	68825088	27524808	24992
205	3.145353	99766272	68825088	13711672	24992
206	3.644186	99766272	68825088	17028576	24992
207	5.458263	99766272	68825088	21005104	24992
208	5.118318	99766272	68825088	25640976	24992
209	6.391955	99766272	68825088	14483968	24992
210	6.522783	99766272	68825088	20439912	24992
211	7.447512	99766272	68825088	27055200	24992
212	0.780364	99766272	68825088	17842032	24992
213	1.512524	99766272	68825088	19179968	24992
214	2.204972	99766272	68825088	21177392	24992
215	2.923015	99766272	68825088	23834352	24992
216	3.866013	99766272	68825088	27151256	24992
217	5.036921	99766272	68825088	14660824	24992
218	5.159213	99766272	68825088	19299712	24992
219	6.013635	99766272	68825088	24595056	24992
220	6.767148	99766272	68825088	14087112	24992
221	7.236533	99766272	68825088	20702384	24992
222	0.770387	99766272	68825088	27956752	24992
223	1.95648	99766272	68825088	12822576	24992
224	2.218521	99766272	68825088	14819976	24992
225	2.91073	99766272	68825088	17476872	24992
226	3.635067	99766272	68825088	20793760	24992
227	4.570781	99766272	68825088	24770200	24992
228	5.327734	99766272	68825088	12939376	24992
229	5.857863	99766272	68825088	18237592	24992
230	6.506684	99766272	68825088	24193408	24992
231	7.694262	99766272	68825088	14347992	24992
232	0.804168	99766272	68825088	21602280	24992
233	1.492307	99766272	68825088	22940200	24992
234	2.207964	99766272	68825088	24937608	24992
235	2.926407	99766272	68825088	27594584	24992
236	3.887285	99766272	68825088	14447648	24992
237	4.414113	99766272	68825088	18424024	24992
238	5.080379	99766272	68825088	23059880	24992
239	5.997816	99766272	68825088	28355224	24992
240	7.173854	99766272	68825088	17850040	24992
241	7.693928	99766272	68825088	24465312	24992
242	0.839594	99766272	68825088	15250784	24992
243	1.503098	99766272	68825088	16588704	24992
244	2.197225	99766272	68825088	18585968	24992
245	2.920688	99766272	68825088	21242672	24992
246	3.852552	99766272	68825088	24559320	24992
247	4.354479	99766272	68825088	28535408	24992
248	5.309464	99766272	68825088	16703712	24992
249	6.020381	99766272	68825088	21998672	24992
250	6.49213	99766272	68825088	27954056	24992
251	7.527405	99766272	68825088	18109520	24992
252	0.774642	99766272	68825088	25363280	24992
253	1.508487	99766272	68825088	26701104	24992
254	2.197164	99766272	68825088	28698368	24992
255	3.15151	99766272	68825088	14884416	24992
256	3.864874	99766272	68825088	18201064	24992
257	4.352384	99766272	68825088	22177152	24992
258	5.061211	99766272	68825088	26812672	24992
259	6.134754	99766272	68825088	15640664	24992
260	6.731189	99766272	68825088	21596016	24992
261	7.219574	99766272	68825088	28210808	24992
262	0.786	99766272	68825088	18997304	24992
263	1.494634	99766272	68825088	20335208	24992
264	2.258638	99766272	68825088	22332472	24992
265	2.911974	99766272	68825088	24989176	24992
266	3.633603	99766272	68825088	28305824	24992
267	4.843142	99766272	68825088	15815072	24992
268	5.2843	99766272	68825088	20450592	24992
269	5.77314	99766272	68825088	25745552	24992
270	6.980635	99766272	68825088	15236856	24992
271	7.237697	99766272	68825088	21851648	24992
272	0.774341	99766272	68825088	29105408	24992
273	1.733133	99766272	68825088	13970088	24992
274	2.212815	99766272	68825088	15967352	24992
275	3.144469	99766272	68825088	18624088	24992
276	3.727174	99766272	68825088	21940736	24992
277	4.385345	99766272	68825088	25916824	24992
278	5.577196	99766272	68825088	14085656	24992
279	5.865557	99766272	68825088	19380616	24992
280	6.726608	99766272	68825088	25336176	24992
281	7.486747	99766272	68825088	15487400	24992
282	0.774254	99766272	68825088	22741176	24992
283	1.498642	99766272	68825088	24079016	24992
284	2.197035	99766272	68825088	26076280	24992
285	3.196032	99766272	68825088	28732984	24992
286	3.933502	99766272	68825088	15582880	24992
287	4.352565	99766272	68825088	19558968	24992
288	5.5558	99766272	68825088	24197112	24992
289	5.83028	99766272	68825088	29491800	24992
290	6.801521	99766272	68825088	18975024	24992
291	7.430875	99766272	68825088	25589480	24992
292	0.795048	99766272	68825088	16372776	24992
293	1.492997	99766272	68825088	17710568	24992
294	2.390888	99766272	68825088	19707720	24992
295	2.938113	99766272	68825088	22364296	24992
296	3.633388	99766272	68825088	25680768	24992
297	5.878615	99766272	68825088	13189232	24992
298	5.116324	99766272	68825088	17833424	24992
299	5.780531	99766272	68825088	23128112	24992
300	6.751924	99766272	68825088	29083160	24992
301	7.819216	99766272	68825088	19257360	24992
302	0.769923	99766272	68825088	26510784	24992
303	1.486656	99766272	68825088	27848592	24992
304	2.53129	99766272	68825088	13412688	24992
305	3.005153	99766272	68825088	16069240	24992
306	3.637725	99766272	68825088	19385712	24992
307	4.568887	99766272	68825088	23361592	24992
308	5.053419	99766272	68825088	27996872	24992
309	6.31387	99766272	68825088	16863032	24992
310	6.506985	99766272	68825088	22818080	24992
311	7.254891	99766272	68825088	29432536	24992
312	0.774346	99766272	68825088	20267456	24992
313	1.724089	99766272	68825088	21605200	24992
314	2.199099	99766272	68825088	23602352	24992
315	2.912277	99766272	68825088	26258912	24992
316	3.627382	99766272	68825088	29575384	24992
317	4.88555	99766272	68825088	17126200	24992
318	5.29709	99766272	68825088	21761480	24992
319	5.779058	99766272	68825088	27056168	24992
320	6.879342	99766272	68825088	16586864	24992
321	7.496594	99766272	68825088	23201320	24992
322	1.310317	99766272	68825088	14017320	24992
323	1.495687	99766272	68825088	15355064	24992
324	2.204188	99766272	68825088	17352216	24992
325	2.953487	99766272	68825088	20008776	24992
326	3.62128	99766272	68825088	23325248	24992
327	4.38452	99766272	68825088	27301128	24992
328	5.466366	99766272	68825088	15509952	24992
329	6.050302	99766272	68825088	20804656	24992
330	6.497182	99766272	68825088	26759704	24992
331	7.804686	99766272	68825088	16959352	24992
332	0.774633	99766272	68825088	24212728	24992
333	1.488284	99766272	68825088	25550472	24992
334	2.213302	99766272	68825088	27547624	24992
335	3.256183	99766272	68825088	13774112	24992
336	3.86525	99766272	68825088	17090584	24992
337	4.357796	99766272	68825088	21066528	24992
338	5.043584	99766272	68825088	25701808	24992
339	6.367935	99766272	68825088	14568184	24992
340	6.484245	99766272	68825088	20523232	24992
341	7.203993	99766272	68825088	27137688	24992
342	0.776192	99766272	68825088	17966792	24992
343	1.499172	99766272	68825088	19304536	24992
344	2.190283	99766272	68825088	21301704	24992
345	3.226136	99766272	68825088	23960856	24992
346	3.906549	99766272	68825088	27277328	24992
347	4.734745	99766272	68825088	14828944	24992
348	5.096753	99766272	68825088	19464224	24992
349	5.782276	99766272	68825088	24758912	24992
350	7.093828	99766272	68825088	14289936	24992
351	7.264361	99766272	68825088	20904400	24992
352	0.780282	99766272	68825088	28157776	24992
353	1.496954	99766272	68825088	29495520	24992
354	2.602704	99766272	68825088	15065728	24992
355	2.911717	99766272	68825088	17722288	24992
356	3.674331	99766272	68825088	21038760	24992
357	4.340214	99766272	68825088	25014672	24992
358	5.284547	99766272	68825088	29649952	24992
359	6.199839	99766272	68825088	18528552	24992
360	6.716765	99766272	68825088	24488056	24992
361	7.672168	99766272	68825088	14682264	24992
362	0.772613	99766272	68825088	21935640	24992
363	1.521285	99766272	68825088	23273384	24992
364	2.457408	99766272	68825088	25270536	24992
365	3.247929	99766272	68825088	27927112	24992
366	4.157797	99766272	68825088	14814832	24992
367	4.401723	99766272	68825088	18790712	24992
368	5.527192	99766272	68825088	23425992	24992
369	5.788162	99766272	68825088	28720680	24992
370	6.936282	99766272	68825088	18259160	24992
371	7.197505	99766272	68825088	24873616	24992
372	0.782795	99766272	68825088	15695312	24992
373	1.492454	99766272	68825088	17033056	24992
374	2.195005	99766272	68825088	19030208	24992
375	3.128209	99766272	68825088	21686768	24992
376	3.619837	99766272	68825088	25003240	24992
377	4.414455	99766272	68825088	28979120	24992
378	5.753851	99766272	68825088	17187944	24992
379	5.770318	99766272	68825088	22482632	24992
380	6.754459	99766272	68825088	28437680	24992
381	7.782949	99766272	68825088	18640752	24992
382	0.769846	99766272	68825088	25894128	24992
383	1.487354	99766272	68825088	27231872	24992
384	2.429189	99766272	68825088	29229024	24992
385	3.372148	99766272	68825088	15455512	24992
386	3.696331	99766272	68825088	18771984	24992
387	4.565466	99766272	68825088	22747864	24992
388	5.049377	99766272	68825088	27383144	24992
389	6.287458	99766272	68825088	16249536	24992
390	6.49399	99766272	68825088	22204584	24992
391	7.403956	99766272	68825088	28819040	24992
392	0.774701	99766272	68825088	19648128	24992
393	1.713238	99766272	68825088	20985872	24992
394	2.192696	99766272	68825088	22983024	24992
395	2.924904	99766272	68825088	25639584	24992
396	3.624947	99766272	68825088	28956136	24992
397	4.845728	99766272	68825088	16507624	24992
398	5.071546	99766272	68825088	21142904	24992
399	5.994501	99766272	68825088	26437592	24992
400	7.011587	99766272	68825088	15968384	24992
401	7.429862	99766272	68825088	22582904	24992
402	0.784613	99766272	68825088	29836280	24992
403	1.998383	99766272	68825088	14741416	24992
404	2.258964	99766272	68825088	16738568	24992
405	2.902393	99766272	68825088	19395128	24992
406	3.627931	99766272	68825088	22711600	24992
407	4.737235	99766272	68825088	26688544	24992
408	5.622184	99766272	68825088	14897352	24992
409	6.04503	99766272	68825088	20192040	24992
410	6.489232	99766272	68825088	26147120	24992
411	7.785976	99766272	68825088	16341312	24992
412	0.77035	99766272	68825088	23594688	24992
413	1.488736	99766272	68825088	24932432	24992
414	2.199871	99766272	68825088	26929584	24992
415	2.918558	99766272	68825088	29586192	24992
416	4.398144	99766272	68825088	16478672	24992
417	4.341705	99766272	68825088	20454728	24992
418	5.051633	99766272	68825088	25090008	24992
419	6.005067	99766272	68825088	30384696	24992
420	7.25013	99766272	68825088	19920584	24992
421	7.233795	99766272	68825088	26535040	24992
422	0.786061	99766272	68825088	17355328	24992
423	1.495256	99766272	68825088	18693072	24992
424	2.205759	99766272	68825088	20690224	24992
425	2.901295	99766272	68825088	23346784	24992
426	3.627926	99766272	68825088	26663256	24992
427	4.382733	99766272	68825088	30639136	24992
428	5.86212	99766272	68825088	18845624	24992
429	5.772128	99766272	68825088	24140392	24992
430	6.692922	99766272	68825088	30095440	24992
431	7.897835	99766272	68825088	20296288	24992
432	0.776661	99766272	68825088	27550328	24992
433	1.481107	99766272	68825088	28888072	24992
434	2.201563	99766272	68825088	30885224	24992
435	3.704223	99766272	68825088	17109584	24992
436	3.637068	99766272	68825088	20426056	24992
437	4.332176	99766272	68825088	24401936	24992
438	5.118016	99766272	68825088	29037216	24992
439	6.390822	99766272	68825088	17901704	24992
440	6.497121	99766272	68825088	23856832	24992
441	7.186581	99766272	68825088	30471288	24992
442	0.774031	99766272	68825088	21298872	24992
443	1.497538	99766272	68825088	22636616	24992
444	2.222039	99766272	68825088	24633768	24992
445	3.141092	99766272	68825088	27290328	24992
446	3.621541	99766272	68825088	30606800	24992
447	5.024851	99766272	68825088	18156736	24992
448	5.288909	99766272	68825088	22792048	24992
449	5.76363	99766272	68825088	28086736	24992
450	7.13787	99766272	68825088	17615624	24992
451	7.429058	99766272	68825088	24230128	24992
452	0.767236	99766272	68825088	31483504	24992
453	2.121735	99766272	68825088	16386880	24992
454	2.428851	99766272	68825088	18384032	24992
455	2.919477	99766272	68825088	21040592	24992
456	3.641198	99766272	68825088	24357064	24992
457	4.347659	99766272	68825088	28333136	24992
458	5.716328	99766272	68825088	16540504	24992
459	5.97142	99766272	68825088	21835192	24992
460	6.500811	99766272	68825088	27790256	24992
461	8.145165	99766272	68825088	17983488	24992
462	0.772156	99766272	68825088	25236864	24992
463	1.500061	99766272	68825088	26574608	24992
464	2.201533	99766272	68825088	28571776	24992
465	2.959629	99766272	68825088	31228336	24992
466	4.294453	99766272	68825088	18120320	24992
467	4.576157	99766272	68825088	22096200	24992
468	5.045294	99766272	68825088	26731480	24992
469	6.904501	99766272	68825088	15596296	24992
470	6.499033	99766272	68825088	21551352	24992
471	7.238838	99766272	68825088	28165808	24992
472	0.780214	99766272	68825088	18986128	24992
473	1.485239	99766272	68825088	20323920	24992
474	2.201337	99766272	68825088	22321072	24992
475	2.913701	99766272	68825088	24977632	24992
476	3.608336	99766272	68825088	28294128	24992
477	5.344712	99766272	68825088	15844272	24992
478	5.342064	99766272	68825088	20479560	24992
479	6.271571	99766272	68825088	25774248	24992
480	6.831712	99766272	68825088	31729296	24992
481	8.344821	99766272	68825088	21929464	24992
482	0.835656	99766272	68825088	29182840	24992
483	1.483887	99766272	68825088	30520584	24992
484	2.960889	99766272	68825088	16089464	24992
485	3.171441	99766272	68825088	18746024	24992
486	3.685066	99766272	68825088	22062496	24992
487	4.487857	99766272	68825088	26038376	24992
488	5.149866	99766272	68825088	30673656	24992
489	6.602094	99766272	68825088	19538248	24992
490	6.727128	99766272	68825088	25493296	24992
491	8.00692	99766272	68825088	15681568	24992
492	0.775295	99766272	68825088	22934944	24992
493	1.54757	99766272	68825088	24272688	24992
494	2.195686	99766272	68825088	26269840	24992
495	3.131612	99766272	68825088	28926400	24992
496	4.434946	99766272	68825088	15808456	24992
497	4.424736	99766272	68825088	19784336	24992
498	5.193625	99766272	68825088	24419648	24992
499	5.772251	99766272	68825088	29714400	24992
500	7.507219	99766272	68825088	19251088	24992
501	7.420579	99766272	68825088	25865624	24992
502	0.7821	99766272	68825088	16686408	24992
503	1.481903	99766272	68825088	18024152	24992
504	2.236911	99766272	68825088	20021304	24992
505	2.915413	99766272	68825088	22677864	24992
506	3.66037	99766272	68825088	25994336	24992
507	4.549808	99766272	68825088	29970216	24992
508	5.845794	99766272	68825088	18177472	24992
509	6.007475	99766272	68825088	23472160	24992
510	6.553915	99766272	68825088	29427224	24992
511	8.026266	99766272	68825088	19628184	24992
512	0.788434	99766272	68825088	26881688	24992
513	1.523629	99766272	68825088	28219432	24992
514	2.20681	99766272	68825088	30216616	24992
515	3.680761	99766272	68825088	16441776	24992
516	3.649449	99766272	68825088	19758344	24992
517	4.569031	99766272	68825088	23734224	24992
518	5.39814	99766272	68825088	28369504	24992
519	6.6648	99766272	68825088	17234328	24992
520	6.551815	99766272	68825088	23189376	24992
521	7.476687	99766272	68825088	29803928	24992
522	0.801897	99766272	68825088	20631704	24992
523	1.522978	99766272	68825088	21969448	24992
524	2.193662	99766272	68825088	23966600	24992
525	2.96307	99766272	68825088	26623160	24992
526	3.68006	99766272	68825088	29939632	24992
527	5.180088	99766272	68825088	17489680	24992
528	5.26117	99766272	68825088	22124960	24992
529	5.771937	99766272	68825088	27419648	24992
530	7.543856	99766272	68825088	16948568	24992
531	7.203838	99766272	68825088	23563024	24992
532	0.769734	99766272	68825088	30816400	24992
533	1.484341	99766272	68825088	32154144	24992
534	3.050912	99766272	68825088	17722336	24992
535	3.144594	99766272	68825088	20378896	24992
536	3.624427	99766272	68825088	23695368	24992
537	4.349198	99766272	68825088	27671312	24992
538	5.26736	99766272	68825088	32306592	24992
539	6.654018	99766272	68825088	21183248	24992
540	6.483966	99766272	68825088	27138296	24992
541	8.081307	99766272	68825088	17326376	24992
542	0.774707	99766272	68825088	24579784	24992
543	1.493416	99766272	68825088	25917528	24992
544	2.192676	99766272	68825088	27914680	24992
545	3.124521	99766272	68825088	30571240	24992
546	4.567366	99766272	68825088	17453184	24992
547	4.422319	99766272	68825088	21429064	24992
548	5.155059	99766272	68825088	26064456	24992
549	5.866985	99766272	68825088	31359160	24992
550	7.647424	99766272	68825088	20895848	24992
551	7.484792	99766272	68825088	27510336	24992
552	0.788687	99766272	68825088	18330896	24992
553	1.534856	99766272	68825088	19668640	24992
554	2.236175	99766272	68825088	21665792	24992
555	2.977818	99766272	68825088	24322352	24992
556	3.693529	99766272	68825088	27645624	24992
557	4.618375	99766272	68825088	31621504	24992
558	6.000044	99766272	68825088	19835576	24992
559	5.990938	99766272	68825088	25130264	24992
560	6.495145	99766272	68825088	31085392	24992
561	8.169709	99766272	68825088	21293040	24992
562	0.777163	99766272	68825088	28546416	24992
563	1.488994	99766272	68825088	29884160	24992
564	2.259178	99766272	68825088	31881312	24992
565	3.863531	99766272	68825088	18106472	24992
566	3.903897	99766272	68825088	21422960	24992
567	4.391432	99766272	68825088	25398840	24992
568	5.28088	99766272	68825088	30034120	24992
569	6.930844	99766272	68825088	18898832	24992
570	6.491833	99766272	68825088	24853880	24992
571	7.316558	99766272	68825088	31468368	24992
572	0.82793	99766272	68825088	22295952	24992
573	1.48139	99766272	68825088	23633696	24992
574	2.250775	99766272	68825088	25630848	24992
575	2.909285	99766272	68825088	28287408	24992
576	3.89164	99766272	68825088	31603880	24992
577	5.410183	99766272	68825088	19153816	24992
578	5.289768	99766272	68825088	23789096	24992
579	5.780563	99766272	68825088	29083784	24992
580	7.676249	99766272	68825088	18612672	24992
581	7.344348	99766272	68825088	25227128	24992
582	0.772764	99766272	68825088	32480504	24992
583	2.453743	99766272	68825088	17384552	24992
584	2.249015	99766272	68825088	19381704	24992
585	3.210055	99766272	68825088	22038296	24992
586	3.675598	99766272	68825088	25354768	24992
587	4.336086	99766272	68825088	29330648	24992
588	6.269826	99766272	68825088	17538128	24992
589	6.042365	99766272	68825088	22832816	24992
590	6.482465	99766272	68825088	28787864	24992
591	8.636555	99766272	68825088	18981096	24992
592	0.772971	99766272	68825088	26234488	24992
593	1.715301	99766272	68825088	27572232	24992
594	2.189237	99766272	68825088	29569384	24992
595	2.909857	99766272	68825088	32225944	24992
596	4.614478	99766272	68825088	19118536	24992
597	4.353224	99766272	68825088	23094416	24992
598	5.056744	99766272	68825088	27729728	24992
599	5.99528	99766272	68825088	33024432	24992
600	7.496212	99766272	68825088	22560432	24992
601	7.438291	99766272	68825088	29174952	24992
602	0.774543	99766272	68825088	19995272	24992
603	1.487255	99766272	68825088	21333016	24992
604	2.231234	99766272	68825088	23330168	24992
605	2.920755	99766272	68825088	25986728	24992
606	3.842831	99766272	68825088	29303200	24992
607	4.339818	99766272	68825088	33279080	24992
608	6.077193	99766272	68825088	21485648	24992
609	5.998645	99766272	68825088	26780336	24992
610	6.46862	99766272	68825088	32735384	24992
611	8.25762	99766272	68825088	22936232	24992
612	0.779403	99766272	68825088	30189608	24992
613	1.484189	99766272	68825088	31527352	24992
614	2.189751	99766272	68825088	33524504	24992
615	3.933449	99766272	68825088	19748992	24992
616	3.869629	99766272	68825088	23065688	24992
617	4.568313	99766272	68825088	27041568	24992
618	5.094164	99766272	68825088	31676864	24992
619	6.839112	99766272	68825088	20541480	24992
620	6.702848	99766272	68825088	26496528	24992
621	7.190171	99766272	68825088	33111112	24992
622	0.774756	99766272	68825088	23938024	24992
623	1.495535	99766272	68825088	25275768	24992
624	2.253012	99766272	68825088	27272920	24992
625	3.009027	99766272	68825088	29929480	24992
626	3.667847	99766272	68825088	33245952	24992
627	5.501004	99766272	68825088	20795232	24992
628	5.315724	99766272	68825088	25430512	24992
629	5.764667	99766272	68825088	30725200	24992
630	7.798001	99766272	68825088	20254008	24992
631	7.280556	99766272	68825088	26868464	24992
632	1.846224	99766272	68825088	17683624	24992
633	1.749125	99766272	68825088	19021376	24992
634	2.202708	99766272	68825088	21018528	24992
635	2.905248	99766272	68825088	23675088	24992
636	3.62978	99766272	68825088	26991560	24992
637	4.554966	99766272	68825088	30967440	24992
638	6.18073	99766272	68825088	19174808	24992
639	5.780843	99766272	68825088	24469496	24992
640	7.405966	99766272	68825088	30433288	24992
641	8.42822	99766272	68825088	20630904	24992
642	0.820452	99766272	68825088	27884296	24992
643	1.485408	99766272	68825088	29222168	24992
644	2.198501	99766272	68825088	31219320	24992
645	2.916297	99766272	68825088	33875880	24992
646	4.966479	99766272	68825088	20767800	24992
647	4.341341	99766272	68825088	24743696	24992
648	5.058736	99766272	68825088	29378976	24992
649	6.913813	99766272	68825088	18243800	24992
650	6.817621	99766272	68825088	24198848	24992
651	7.200998	99766272	68825088	30813304	24992
652	0.775382	99766272	68825088	21633640	24992
653	1.485281	99766272	68825088	22971384	24992
654	2.202859	99766272	68825088	24968656	24992
655	2.965855	99766272	68825088	27625208	24992
656	3.626796	99766272	68825088	30941680	24992
657	5.494744	99766272	68825088	18491728	24992
658	5.303257	99766272	68825088	23127008	24992
659	5.789162	99766272	68825088	28421696	24992
660	7.850797	99766272	68825088	17950800	24992
661	7.371194	99766272	68825088	24565248	24992
662	0.781614	99766272	68825088	31818656	24992
663	1.490766	99766272	68825088	33156400	24992
664	3.584893	99766272	68825088	18725264	24992
665	3.150041	99766272	68825088	21381824	24992
666	3.626442	99766272	68825088	24698296	24992
667	4.549273	99766272	68825088	28674176	24992
668	5.041251	99766272	68825088	33309456	24992
669	7.01917	99766272	68825088	22186848	24992
670	6.480145	99766272	68825088	28141896	24992
671	8.61764	99766272	68825088	18330192	24992
672	1.011032	99766272	68825088	25583560	24992
673	1.488263	99766272	68825088	26921304	24992
674	2.200864	99766272	68825088	28918456	24992
675	2.899595	99766272	68825088	31575016	24992
676	5.01944	99766272	68825088	18457072	24992
677	4.371984	99766272	68825088	22432968	24992
678	5.040795	99766272	68825088	27068248	24992
679	5.995228	99766272	68825088	32362952	24992
680	7.770352	99766272	68825088	21899640	24992
681	7.218878	99766272	68825088	28514096	24992
682	0.79202	99766272	68825088	19334992	24992
683	1.483842	99766272	68825088	20672736	24992
684	2.205223	99766272	68825088	22670016	24992
685	2.89774	99766272	68825088	25326576	24992
686	3.851334	99766272	68825088	28643208	24992
687	4.383493	99766272	68825088	32619088	24992
688	6.333841	99766272	68825088	20826344	24992
689	5.996139	99766272	68825088	26121032	24992
690	6.716033	99766272	68825088	32076080	24992
691	8.466457	99766272	68825088	22276928	24992
692	0.771318	99766272	68825088	29530304	24992
693	1.493907	99766272	68825088	30868048	24992
694	2.192039	99766272	68825088	32865200	24992
695	4.191828	99766272	68825088	19090360	24992
696	3.631849	99766272	68825088	22406832	24992
697	4.340934	99766272	68825088	26382728	24992
698	5.274527	99766272	68825088	31018008	24992
699	7.119837	99766272	68825088	19882816	24992
700	6.736289	99766272	68825088	25837928	24992
701	7.254169	99766272	68825088	32452384	24992
702	0.790513	99766272	68825088	23279984	24992
703	1.729903	99766272	68825088	24617728	24992
704	2.201216	99766272	68825088	26614880	24992
705	2.912639	99766272	68825088	29271552	24992
706	3.628137	99766272	68825088	32588024	24992
707	5.858157	99766272	68825088	20137960	24992
708	5.161316	99766272	68825088	24773240	24992
709	5.864693	99766272	68825088	30067928	24992
710	7.855771	99766272	68825088	19596816	24992
711	7.44658	99766272	68825088	26211272	24992
712	0.769123	99766272	68825088	33464664	24992
713	1.493416	99766272	68825088	34802408	24992
714	3.480898	99766272	68825088	20370600	24992
715	2.918573	99766272	68825088	23027160	24992
716	3.67551	99766272	68825088	26343632	24992
717	4.389472	99766272	68825088	30319512	24992
718	5.04138	99766272	68825088	34954888	24992
719	7.301001	99766272	68825088	23828296	24992
720	6.754299	99766272	68825088	29783344	24992
721	8.570454	99766272	68825088	19971216	24992
722	0.771444	99766272	68825088	27224592	24992
723	1.491503	99766272	68825088	28562336	24992
724	2.198301	99766272	68825088	30559488	24992
725	3.136363	99766272	68825088	33216048	24992
726	4.949717	99766272	68825088	20099640	24992
727	4.340306	99766272	68825088	24075520	24992
728	5.277643	99766272	68825088	28710800	24992
729	5.764582	99766272	68825088	34005488	24992
730	7.83326	99766272	68825088	23542160	24992
731	7.429175	99766272	68825088	30156616	24992
732	0.778364	99766272	68825088	20976952	24992
733	1.682435	99766272	68825088	22314696	24992
734	2.217456	99766272	68825088	24311848	24992
735	2.911065	99766272	68825088	26968408	24992
736	3.628433	99766272	68825088	30284960	24992
737	4.357026	99766272	68825088	34260840	24992
738	6.679148	99766272	68825088	22468128	24992
739	5.98973	99766272	68825088	27762816	24992
740	6.475038	99766272	68825088	33717864	24992
741	8.817032	99766272	68825088	23918760	24992
742	0.770205	99766272	68825088	31172136	24992
743	1.482472	99766272	68825088	32509880	24992
744	2.198085	99766272	68825088	34507176	24992
745	4.290967	99766272	68825088	20732336	24992
746	3.862947	99766272	68825088	24048808	24992
747	4.392952	99766272	68825088	28024688	24992
748	5.052444	99766272	68825088	32659968	24992
749	7.372993	99766272	68825088	21524680	24992
750	6.509303	99766272	68825088	27479888	24992
751	7.202318	99766272	68825088	34094344	24992
752	0.779694	99766272	68825088	24921944	24992
753	1.488242	99766272	68825088	26259688	24992
754	2.201542	99766272	68825088	28256888	24992
755	3.137702	99766272	68825088	30913448	24992
756	3.629955	99766272	68825088	34229920	24992
757	5.743561	99766272	68825088	21779840	24992
758	5.146017	99766272	68825088	26415120	24992
759	5.871265	99766272	68825088	31709808	24992
760	8.178745	99766272	68825088	21238712	24992
761	7.700828	99766272	68825088	27853168	24992
762	0.771019	99766272	68825088	35106640	24992
763	2.916134	99766272	68825088	20010032	24992
764	2.219266	99766272	68825088	22007184	24992
765	2.911579	99766272	68825088	24663744	24992
766	3.625451	99766272	68825088	27980216	24992
767	4.562784	99766272	68825088	31956096	24992
768	6.491285	99766272	68825088	20163576	24992
769	5.995427	99766272	68825088	25458312	24992
770	6.603678	99766272	68825088	31413360	24992
771	8.760394	99766272	68825088	21606592	24992
772	0.770284	99766272	68825088	28859968	24992
773	1.481398	99766272	68825088	30197712	24992
774	2.242405	99766272	68825088	32194864	24992
775	2.956672	99766272	68825088	34851424	24992
776	5.320464	99766272	68825088	21744016	24992
777	4.341954	99766272	68825088	25719896	24992
778	5.050056	99766272	68825088	30355176	24992
779	5.815044	99766272	68825088	35649864	24992
780	8.271184	99766272	68825088	25185864	24992
781	7.219713	99766272	68825088	31800320	24992
782	0.778786	99766272	68825088	22620656	24992
783	1.495534	99766272	68825088	23958400	24992
784	2.195622	99766272	68825088	25955552	24992
785	3.842756	99766272	68825088	28612440	24992
786	3.900258	99766272	68825088	31928912	24992
787	4.460666	99766272	68825088	35914880	24992
788	6.772914	99766272	68825088	24117112	24992
789	5.788294	99766272	68825088	29411816	24992
790	6.690307	99766272	68825088	35366864	24992
791	8.720017	99766272	68825088	25567448	24992
792	0.772991	99766272	68825088	32820824	24992
793	1.699941	99766272	68825088	34158568	24992
794	3.667381	99766272	68825088	19721632	24992
795	2.913904	99766272	68825088	22378184	24992
796	3.633034	99766272	68825088	25694656	24992
797	4.600566	99766272	68825088	29670632	24992
798	5.057431	99766272	68825088	34305912	24992
799	7.347102	99766272	68825088	23170504	24992
800	6.489056	99766272	68825088	29125696	24992
801	7.415801	99766272	68825088	35740152	24992
802	0.77863	99766272	68825088	26573568	24992
803	1.490222	99766272	68825088	27911312	24992
804	2.188926	99766272	68825088	29908528	24992
805	2.913373	99766272	68825088	32565088	24992
806	3.670979	99766272	68825088	35881608	24992
807	5.875168	99766272	68825088	23430856	24992
808	5.27529	99766272	68825088	28066136	24992
809	5.7675	99766272	68825088	33360824	24992
810	8.448854	99766272	68825088	22889600	24992
811	7.224161	99766272	68825088	29504072	24992
812	2.302526	99766272	68825088	20319248	24992
813	1.521953	99766272	68825088	21657000	24992
814	2.461987	99766272	68825088	23654152	24992
815	2.90787	99766272	68825088	26310712	24992
816	3.63154	99766272	68825088	29627184	24992
817	4.377538	99766272	68825088	33603096	24992
818	6.846829	99766272	68825088	21810464	24992
819	6.245866	99766272	68825088	27105152	24992
820	6.482544	99766272	68825088	33060248	24992
821	8.851828	99766272	68825088	23257704	24992
822	1.005605	99766272	68825088	30511080	24992
823	1.495996	99766272	68825088	31848824	24992
824	2.208344	99766272	68825088	33845976	24992
825	4.457046	99766272	68825088	20071136	24992
826	3.907018	99766272	68825088	23387608	24992
827	4.340064	99766272	68825088	27363488	24992
828	5.146277	99766272	68825088	31998768	24992
829	7.479619	99766272	68825088	20863576	24992
830	6.818947	99766272	68825088	26818624	24992
831	7.19007	99766272	68825088	33433080	24992
832	0.776412	99766272	68825088	24260808	24992
833	1.535683	99766272	68825088	25598552	24992
834	2.216653	99766272	68825088	27595704	24992
835	3.120046	99766272	68825088	30252264	24992
836	3.625289	99766272	68825088	33568736	24992
837	5.981441	99766272	68825088	21118784	24992
838	5.271058	99766272	68825088	25754080	24992
839	5.761194	99766272	68825088	31048784	24992
840	8.108156	99766272	68825088	20577888	24992
841	7.428397	99766272	68825088	27192400	24992
842	0.766113	99766272	68825088	34445776	24992
843	1.47633	99766272	68825088	35783520	24992
844	4.024499	99766272	68825088	21352384	24992
845	2.936974	99766272	68825088	24008944	24992
846	3.633499	99766272	68825088	27325416	24992
847	4.347188	99766272	68825088	31301296	24992
848	5.053827	99766272	68825088	35936576	24992
849	7.687037	99766272	68825088	24813920	24992
850	6.546115	99766272	68825088	30779336	24992
851	9.067005	99766272	68825088	20980920	24992
852	0.782211	99766272	68825088	28234312	24992
853	1.492576	99766272	68825088	29572056	24992
854	2.192233	99766272	68825088	31569208	24992
855	2.907317	99766272	68825088	34225768	24992
856	5.505998	99766272	68825088	21118088	24992
857	4.577793	99766272	68825088	25093968	24992
858	5.26867	99766272	68825088	29729248	24992
859	5.772509	99766272	68825088	35023936	24992
860	8.18687	99766272	68825088	24560608	24992
861	7.212117	99766272	68825088	31175160	24992
862	0.777852	99766272	68825088	21995800	24992
863	1.49388	99766272	68825088	23333544	24992
864	2.193174	99766272	68825088	25330696	24992
865	3.240414	99766272	68825088	27987256	24992
866	3.817724	99766272	68825088	31303728	24992
867	4.562065	99766272	68825088	35279624	24992
868	7.234181	99766272	68825088	23486880	24992
869	6.252256	99766272	68825088	28781568	24992
870	6.552699	99766272	68825088	34736712	24992
871	8.963714	99766272	68825088	24937560	24992
872	0.88877	99766272	68825088	32190936	24992
873	1.48584	99766272	68825088	33528680	24992
874	2.251598	99766272	68825088	35525832	24992
875	4.650945	99766272	68825088	21750992	24992
876	3.864321	99766272	68825088	25067464	24992
877	4.460179	99766272	68825088	29043376	24992
878	5.093069	99766272	68825088	33678656	24992
879	7.902372	99766272	68825088	22543496	24992
880	7.027222	99766272	68825088	28498544	24992
881	7.202731	99766272	68825088	35113000	24992
882	0.780748	99766272	68825088	25940600	24992
883	1.492375	99766272	68825088	27278344	24992
884	2.195789	99766272	68825088	29275496	24992
885	2.969535	99766272	68825088	31932056	24992
886	3.627719	99766272	68825088	35248528	24992
887	6.055369	99766272	68825088	22798448	24992
888	5.299706	99766272	68825088	27433728	24992
889	6.047359	99766272	68825088	32730040	24992
890	8.536155	99766272	68825088	22258912	24992
891	7.34214	99766272	68825088	28873368	24992
892	0.77	99766272	68825088	36126744	24992
893	3.455015	99766272	68825088	21030792	24992
894	2.214581	99766272	68825088	23027944	24992
895	2.909075	99766272	68825088	25684504	24992
896	3.617623	99766272	68825088	29000976	24992
897	4.595435	99766272	68825088	32976856	24992
898	6.814589	99766272	68825088	21184336	24992
899	5.793978	99766272	68825088	26479024	24992
900	6.481866	99766272	68825088	32434088	24992
901	9.208632	99766272	68825088	22627320	24992
902	0.981852	99766272	68825088	29880696	24992
903	1.506022	99766272	68825088	31218440	24992
904	2.199109	99766272	68825088	33215592	24992
905	2.900951	99766272	68825088	35872152	24992
906	5.403764	99766272	68825088	22764776	24992
907	4.355433	99766272	68825088	26740656	24992
908	5.259164	99766272	68825088	31375936	24992
909	5.76824	99766272	68825088	36670624	24992
910	8.591605	99766272	68825088	26207312	24992
911	7.204688	99766272	68825088	32821784	24992
912	0.782284	99766272	68825088	23642120	24992
913	1.758895	99766272	68825088	24979880	24992
914	2.481833	99766272	68825088	26979096	24992
915	2.928994	99766272	68825088	29635656	24992
916	3.626738	99766272	68825088	32952128	24992
917	4.556865	99766272	68825088	36928024	24992
918	6.876503	99766272	68825088	25134960	24992
919	5.777309	99766272	68825088	30429648	24992
920	6.486395	99766272	68825088	36384696	24992
921	9.262019	99766272	68825088	26585912	24992
922	0.77145	99766272	68825088	33839288	24992
923	1.479985	99766272	68825088	35177032	24992
924	2.191698	99766272	68825088	37174232	24992
925	4.699717	99766272	68825088	23398704	24992
926	3.724059	99766272	68825088	26715176	24992
927	4.467219	99766272	68825088	30691056	24992
928	5.560141	99766272	68825088	35326336	24992
929	7.683346	99766272	68825088	24190952	24992
930	6.71036	99766272	68825088	30146000	24992
931	7.246098	99766272	68825088	36760456	24992
932	0.785809	99766272	68825088	27588184	24992
933	1.482027	99766272	68825088	28925976	24992
934	2.381682	99766272	68825088	30923128	24992
935	2.923771	99766272	68825088	33579688	24992
936	3.65053	99766272	68825088	36896160	24992
937	6.426741	99766272	68825088	24446080	24992
938	5.063796	99766272	68825088	29081472	24992
939	5.768843	99766272	68825088	34376176	24992
940	8.361488	99766272	68825088	23905048	24992
941	7.425563	99766272	68825088	30519504	24992
942	0.971165	99766272	68825088	37772880	24992
943	3.386863	99766272	68825088	22676240	24992
944	2.253103	99766272	68825088	24673392	24992
945	2.969582	99766272	68825088	27329952	24992
946	3.703383	99766272	68825088	30646424	24992
947	4.417769	99766272	68825088	34622304	24992
948	7.315464	99766272	68825088	22829784	24992
949	5.827875	99766272	68825088	28124472	24992
950	6.938734	99766272	68825088	34079520	24992
951	9.363578	99766272	68825088	24272752	24992
952	0.771388	99766272	68825088	31526128	24992
953	1.489627	99766272	68825088	32863872	24992
954	2.190255	99766272	68825088	34861024	24992
955	3.130142	99766272	68825088	37517584	24992
956	5.509527	99766272	68825088	24409504	24992
957	4.342064	99766272	68825088	28385384	24992
958	5.063313	99766272	68825088	33020664	24992
959	7.85886	99766272	68825088	21885544	24992
960	6.844716	99766272	68825088	27840600	24992
961	7.74822	99766272	68825088	34455136	24992
962	0.776006	99766272	68825088	25275456	24992
963	1.530443	99766272	68825088	26613200	24992
964	2.246341	99766272	68825088	28610352	24992
965	2.954093	99766272	68825088	31266912	24992
966	3.668371	99766272	68825088	34583384	24992
967	6.3119	99766272	68825088	22133536	24992
968	5.303163	99766272	68825088	26768808	24992
969	5.828191	99766272	68825088	32063496	24992
970	6.686014	99766272	68825088	38018576	24992
971	9.182474	99766272	68825088	28218760	24992
972	0.771803	99766272	68825088	35472184	24992
973	1.702762	99766272	68825088	36809928	24992
974	4.118849	99766272	68825088	22378800	24992
975	3.119969	99766272	68825088	25035352	24992
976	3.636925	99766272	68825088	28351936	24992
977	4.334462	99766272	68825088	32327816	24992
978	5.259684	99766272	68825088	36963096	24992
979	7.739784	99766272	68825088	25827688	24992
980	6.480967	99766272	68825088	31782736	24992
981	7.407406	99766272	68825088	38397208	24992
982	0.975512	99766272	68825088	29230576	24992
983	1.499729	99766272	68825088	30568320	24992
984	2.247727	99766272	68825088	32565472	24992
985	2.903625	99766272	68825088	35222032	24992
986	3.615016	99766272	68825088	38538504	24992
987	6.304507	99766272	68825088	26079040	24992
988	5.083602	99766272	68825088	30714320	24992
989	5.978663	99766272	68825088	36009008	24992
990	8.682714	99766272	68825088	25537984	24992
991	7.212124	99766272	68825088	32152440	24992
992	0.794779	99766272	68825088	22971256	24992
993	1.515481	99766272	68825088	24309000	24992
994	2.244371	99766272	68825088	26306152	24992
995	3.173721	99766272	68825088	28962728	24992
996	3.632118	99766272	68825088	32279200	24992
997	4.338264	99766272	68825088	36255080	24992
998	7.461762	99766272	68825088	24462336	24992
999	5.770087	99766272	68825088	29757024	24992
1000	6.48765	99766272	68825088	35712072	24992
