x	Duration	RSS	HeapTotal	HeapUsed	External
0	NA	99753984	68825088	10876928	24992
1	2.439672	99753984	68825088	11557056	24992
2	4.378966	99753984	68825088	12895472	24992
3	5.82637	99753984	68825088	14893256	24992
4	3.001691	99753984	68825088	17550576	24992
5	3.701834	99753984	68825088	20868000	24992
6	4.899046	99753984	68825088	24844960	24992
7	5.437668	99753984	68825088	13016584	24992
8	6.101617	99753984	68825088	18312672	24992
9	6.615119	99753984	68825088	24269296	24992
10	7.877013	99753984	68825088	14426368	24992
11	8.079114	99753984	68825088	21702248	24992
12	0.818075	99753984	68825088	13142568	24992
13	1.556591	99753984	68825088	14480832	24992
14	2.499303	99753984	68825088	16478648	24992
15	2.951367	99753984	68825088	19136032	24992
16	3.685753	99753984	68825088	22453504	24992
17	4.643365	99753984	68825088	26430528	24992
18	5.36584	99753984	68825088	14600688	24992
19	6.118545	99753984	68825088	19899616	24992
20	6.843677	99753984	68825088	25856304	24992
21	7.739707	99753984	68825088	16014336	24992
22	0.788592	99753984	68825088	23269784	24992
23	1.52288	99753984	68825088	24608048	24992
24	2.288902	99753984	68825088	26605864	24992
25	3.165002	99753984	68825088	12794496	24992
26	3.697123	99753984	68825088	16111968	24992
27	4.62636	99753984	68825088	20089024	24992
28	5.147403	99753984	68825088	24725608	24992
29	6.308467	99753984	68825088	13555896	24992
30	6.601964	99753984	68825088	19512648	24992
31	7.321914	99753984	68825088	26128888	24992
32	0.796526	99753984	68825088	16917824	24992
33	1.767879	99753984	68825088	18256088	24992
34	2.235787	99753984	68825088	20253904	24992
35	3.009762	99753984	68825088	22911288	24992
36	3.684966	99753984	68825088	26228792	24992
37	4.820158	99753984	68825088	13739976	24992
38	5.116387	99753984	68825088	18376560	24992
39	5.901715	99753984	68825088	23672712	24992
40	6.885285	99753984	68825088	13166304	24992
41	7.830869	99753984	68825088	19782576	24992
42	0.788494	99753984	68825088	27038024	24992
43	1.706149	99753984	68825088	11904032	24992
44	2.255615	99753984	68825088	13901848	24992
45	2.960731	99753984	68825088	16559904	24992
46	3.695299	99753984	68825088	19877376	24992
47	4.391126	99753984	68825088	23854464	24992
48	5.348085	99753984	68825088	12026032	24992
49	6.086624	99753984	68825088	17322184	24992
50	6.572111	99753984	68825088	23278872	24992
51	8.860033	99753984	68825088	13447760	24992
52	0.790896	99753984	68825088	20703224	24992
53	1.514815	99753984	68825088	22041488	24992
54	2.224407	99753984	68825088	24039336	24992
55	2.948854	99753984	68825088	26696720	24992
56	4.102704	99753984	68825088	13547912	24992
57	4.372715	99753984	68825088	17524936	24992
58	5.1239	99753984	68825088	22161520	24992
59	5.825546	99753984	68825088	27457672	24992
60	7.035496	99753984	68825088	16951568	24992
61	7.255703	99753984	68825088	23567856	24992
62	0.80609	99753984	68825088	14353576	24992
63	1.543251	99753984	68825088	15691840	24992
64	2.504915	99753984	68825088	17692352	24992
65	2.989778	99753984	68825088	20349736	24992
66	3.643581	99753984	68825088	23667208	24992
67	4.656009	99753984	68825088	27644344	24992
68	5.586326	99753984	68825088	15813792	24992
69	5.831788	99753984	68825088	21109944	24992
70	6.767907	99753984	68825088	27066792	24992
71	7.558755	99753984	68825088	17223848	24992
72	0.792997	99753984	68825088	24479296	24992
73	1.547228	99753984	68825088	25817560	24992
74	2.269664	99753984	68825088	27815488	24992
75	3.423768	99753984	68825088	14002544	24992
76	3.673665	99753984	68825088	17320032	24992
77	4.369144	99753984	68825088	21297056	24992
78	5.296741	99753984	68825088	25933640	24992
79	6.087276	99753984	68825088	14763256	24992
80	6.724184	99753984	68825088	20720136	24992
81	7.491851	99753984	68825088	27337576	24992
82	0.815513	99753984	68825088	18126336	24992
83	1.497496	99753984	68825088	19464512	24992
84	2.42458	99753984	68825088	21463392	24992
85	2.923837	99753984	68825088	24120704	24992
86	3.666623	99753984	68825088	27438088	24992
87	5.078065	99753984	68825088	14953280	24992
88	5.153612	99753984	68825088	19589152	24992
89	5.817633	99753984	68825088	24884512	24992
90	6.750284	99753984	68825088	14377320	24992
91	7.519333	99753984	68825088	20992608	24992
92	0.998251	99753984	68825088	11771296	24992
93	1.541946	99753984	68825088	13109240	24992
94	2.270719	99753984	68825088	15106664	24992
95	3.004585	99753984	68825088	17763576	24992
96	3.72986	99753984	68825088	21080560	24992
97	4.467691	99753984	68825088	25056952	24992
98	5.449557	99753984	68825088	13226032	24992
99	5.943413	99753984	68825088	18521392	24992
100	6.798001	99753984	68825088	24477192	24992
101	7.797274	99753984	68825088	14631000	24992
102	0.773372	99753984	68825088	21885368	24992
103	1.74087	99753984	68825088	23223304	24992
104	2.222094	99753984	68825088	25220728	24992
105	2.915494	99753984	68825088	27877640	24992
106	3.88205	99753984	68825088	14727104	24992
107	4.396078	99753984	68825088	18703496	24992
108	5.158331	99753984	68825088	23339368	24992
109	6.271552	99753984	68825088	12167976	24992
110	6.850399	99753984	68825088	18123792	24992
111	7.59361	99753984	68825088	24739080	24992
112	0.783435	99753984	68825088	15523328	24992
113	1.49336	99753984	68825088	16861264	24992
114	2.269952	99753984	68825088	18858688	24992
115	2.930605	99753984	68825088	21515600	24992
116	3.73094	99753984	68825088	24832536	24992
117	5.03836	99753984	68825088	12343968	24992
118	5.163805	99753984	68825088	16979840	24992
119	6.244378	99753984	68825088	22277160	24992
120	6.79802	99753984	68825088	28232960	24992
121	7.738801	99753984	68825088	18378584	24992
122	0.772782	99753984	68825088	25632936	24992
123	1.493311	99753984	68825088	26970872	24992
124	2.438675	99753984	68825088	12498584	24992
125	2.97995	99753984	68825088	15155528	24992
126	3.889448	99753984	68825088	18472432	24992
127	4.401224	99753984	68825088	22448872	24992
128	5.542776	99753984	68825088	27086848	24992
129	6.093836	99753984	68825088	15918776	24992
130	6.828824	99753984	68825088	21874592	24992
131	7.535086	99753984	68825088	12024464	24992
132	0.780224	99753984	68825088	19278776	24992
133	1.490876	99753984	68825088	20616712	24992
134	2.203161	99753984	68825088	22614152	24992
135	2.984673	99753984	68825088	25271064	24992
136	3.880098	99753984	68825088	12117688	24992
137	4.361992	99753984	68825088	16094072	24992
138	5.27823	99753984	68825088	20729944	24992
139	5.793024	99753984	68825088	26025304	24992
140	7.02828	99753984	68825088	15518496	24992
141	7.42779	99753984	68825088	22133816	24992
142	0.798556	99753984	68825088	12922232	24992
143	1.537672	99753984	68825088	14260168	24992
144	2.248668	99753984	68825088	16257592	24992
145	3.169894	99753984	68825088	18914504	24992
146	3.806026	99753984	68825088	22232400	24992
147	4.448077	99753984	68825088	26208792	24992
148	5.682015	99753984	68825088	14379600	24992
149	5.85642	99753984	68825088	19674960	24992
150	6.535743	99753984	68825088	25630792	24992
151	7.550764	99753984	68825088	15786512	24992
152	0.788717	99753984	68825088	23040832	24992
153	1.487599	99753984	68825088	24378768	24992
154	2.195042	99753984	68825088	26376272	24992
155	3.365132	99753984	68825088	12563184	24992
156	3.736622	99753984	68825088	15880088	24992
157	4.425793	99753984	68825088	19856480	24992
158	5.152031	99753984	68825088	24492352	24992
159	6.154616	99753984	68825088	13320968	24992
160	6.759572	99753984	68825088	19276768	24992
161	7.734944	99753984	68825088	25892088	24992
162	0.775158	99753984	68825088	16679016	24992
163	1.499911	99753984	68825088	18016952	24992
164	2.569016	99753984	68825088	20014376	24992
165	2.935967	99753984	68825088	22671288	24992
166	3.646838	99753984	68825088	25988192	24992
167	4.633443	99753984	68825088	13497792	24992
168	5.396128	99753984	68825088	18133664	24992
169	6.02619	99753984	68825088	23429024	24992
170	6.773465	99753984	68825088	12920744	24992
171	7.451475	99753984	68825088	19536032	24992
172	0.778275	99753984	68825088	26790352	24992
173	1.495271	99753984	68825088	28128288	24992
174	2.473206	99753984	68825088	13655336	24992
175	2.992535	99753984	68825088	16312280	24992
176	3.71025	99753984	68825088	19629184	24992
177	4.636723	99753984	68825088	23605576	24992
178	5.060863	99753984	68825088	28241448	24992
179	6.256753	99753984	68825088	17073320	24992
180	6.464638	99753984	68825088	23029120	24992
181	7.486967	99753984	68825088	13178840	24992
182	0.77091	99753984	68825088	20433304	24992
183	1.721535	99753984	68825088	21771240	24992
184	2.214437	99753984	68825088	23768664	24992
185	2.964917	99753984	68825088	26425576	24992
186	3.86905	99753984	68825088	13272096	24992
187	4.56053	99753984	68825088	17248504	24992
188	5.057578	99753984	68825088	21884376	24992
189	5.926107	99753984	68825088	27179736	24992
190	6.783995	99753984	68825088	16673120	24992
191	7.457704	99753984	68825088	23288408	24992
192	0.779593	99753984	68825088	14072872	24992
193	1.48057	99753984	68825088	15410896	24992
194	2.202313	99753984	68825088	17408312	24992
195	2.936521	99753984	68825088	20065240	24992
196	3.608962	99753984	68825088	23382144	24992
197	4.371756	99753984	68825088	27358536	24992
198	5.388463	99753984	68825088	15527512	24992
199	6.084543	99753984	68825088	20822872	24992
200	6.520622	99753984	68825088	26778672	24992
201	7.86596	99753984	68825088	16934312	24992
202	0.778299	99753984	68825088	24188632	24992
203	1.504611	99753984	68825088	25526568	24992
204	2.211171	99753984	68825088	27523992	24992
205	3.141503	99753984	68825088	13710856	24992
206	3.857412	99753984	68825088	17027760	24992
207	4.360364	99753984	68825088	21004184	24992
208	5.076599	99753984	68825088	25640056	24992
209	7.016528	99753984	68825088	14468968	24992
210	6.797109	99753984	68825088	20424848	24992
211	7.393554	99753984	68825088	27054624	24992
212	0.797567	99753984	68825088	17841456	24992
213	1.498274	99753984	68825088	19179392	24992
214	2.232881	99753984	68825088	21176816	24992
215	2.905564	99753984	68825088	23833728	24992
216	4.08296	99753984	68825088	27150648	24992
217	4.925333	99753984	68825088	14663216	24992
218	5.501656	99753984	68825088	19299072	24992
219	6.133883	99753984	68825088	24594416	24992
220	6.99838	99753984	68825088	14086472	24992
221	7.406069	99753984	68825088	20701744	24992
222	0.769166	99753984	68825088	27956064	24992
223	1.718517	99753984	68825088	12821520	24992
224	2.248498	99753984	68825088	14818920	24992
225	2.989527	99753984	68825088	17475816	24992
226	3.61994	99753984	68825088	20792704	24992
227	4.329438	99753984	68825088	24769128	24992
228	5.504459	99753984	68825088	12938304	24992
229	5.927416	99753984	68825088	18236520	24992
230	6.705887	99753984	68825088	24192448	24992
231	7.503019	99753984	68825088	14347032	24992
232	0.768763	99753984	68825088	21601320	24992
233	1.496552	99753984	68825088	22939240	24992
234	2.214748	99753984	68825088	24936648	24992
235	3.137809	99753984	68825088	27593544	24992
236	3.903473	99753984	68825088	14446592	24992
237	4.438855	99753984	68825088	18422968	24992
238	5.286756	99753984	68825088	23058824	24992
239	5.801913	99753984	68825088	28354168	24992
240	7.131301	99753984	68825088	17848776	24992
241	7.502596	99753984	68825088	24464048	24992
242	0.790296	99753984	68825088	15249488	24992
243	1.50106	99753984	68825088	16587328	24992
244	2.258216	99753984	68825088	18584592	24992
245	2.963102	99753984	68825088	21241296	24992
246	3.742436	99753984	68825088	24557944	24992
247	4.564365	99753984	68825088	28534032	24992
248	5.39066	99753984	68825088	16702336	24992
249	6.124337	99753984	68825088	21997296	24992
250	6.496376	99753984	68825088	27952664	24992
251	7.536918	99753984	68825088	18108128	24992
252	0.770811	99753984	68825088	25361888	24992
253	1.720285	99753984	68825088	26699712	24992
254	2.183921	99753984	68825088	28696976	24992
255	3.232944	99753984	68825088	14882944	24992
256	3.660892	99753984	68825088	18199592	24992
257	4.54294	99753984	68825088	22175680	24992
258	5.087593	99753984	68825088	26811200	24992
259	6.327798	99753984	68825088	15639192	24992
260	6.512478	99753984	68825088	21594544	24992
261	7.263944	99753984	68825088	28209336	24992
262	0.788239	99753984	68825088	18995624	24992
263	1.705251	99753984	68825088	20333464	24992
264	2.189959	99753984	68825088	22330728	24992
265	2.899228	99753984	68825088	24987432	24992
266	3.60814	99753984	68825088	28304080	24992
267	4.795345	99753984	68825088	15813328	24992
268	5.073062	99753984	68825088	20448848	24992
269	6.067545	99753984	68825088	25743808	24992
270	6.811147	99753984	68825088	15235064	24992
271	7.457216	99753984	68825088	21849856	24992
272	0.790846	99753984	68825088	29103616	24992
273	1.756477	99753984	68825088	13968296	24992
274	2.25281	99753984	68825088	15965560	24992
275	2.977235	99753984	68825088	18622296	24992
276	3.68786	99753984	68825088	21938944	24992
277	4.436251	99753984	68825088	25915032	24992
278	5.40991	99753984	68825088	14083864	24992
279	6.063709	99753984	68825088	19378824	24992
280	6.525003	99753984	68825088	25334280	24992
281	7.793888	99753984	68825088	15485496	24992
282	0.774227	99753984	68825088	22739288	24992
283	1.493333	99753984	68825088	24077144	24992
284	2.206145	99753984	68825088	26074408	24992
285	2.957774	99753984	68825088	28731112	24992
286	4.21786	99753984	68825088	15581008	24992
287	4.392104	99753984	68825088	19557112	24992
288	5.512325	99753984	68825088	24195224	24992
289	6.017701	99753984	68825088	29489912	24992
290	6.974585	99753984	68825088	18973152	24992
291	7.224533	99753984	68825088	25587608	24992
292	0.828497	99753984	68825088	16370904	24992
293	1.488123	99753984	68825088	17708848	24992
294	2.215777	99753984	68825088	19705992	24992
295	2.916929	99753984	68825088	22362648	24992
296	4.417806	99753984	68825088	25679136	24992
297	4.744473	99753984	68825088	13196744	24992
298	5.289248	99753984	68825088	17832016	24992
299	5.766801	99753984	68825088	23126704	24992
300	6.487557	99753984	68825088	29081752	24992
301	7.668585	99753984	68825088	19262464	24992
302	0.767233	99753984	68825088	26515888	24992
303	1.484448	99753984	68825088	27853696	24992
304	2.526812	99753984	68825088	13423896	24992
305	3.151177	99753984	68825088	16080448	24992
306	3.615872	99753984	68825088	19396920	24992
307	4.309685	99753984	68825088	23372800	24992
308	5.037397	99753984	68825088	28008080	24992
309	6.159165	99753984	68825088	16874240	24992
310	6.813766	99753984	68825088	22829288	24992
311	7.368748	99753984	68825088	29443744	24992
312	0.775004	99753984	68825088	20278664	24992
313	1.496118	99753984	68825088	21616408	24992
314	2.205234	99753984	68825088	23613560	24992
315	3.257635	99753984	68825088	26270120	24992
316	3.871017	99753984	68825088	29586592	24992
317	4.667488	99753984	68825088	17137408	24992
318	5.082296	99753984	68825088	21772688	24992
319	5.994772	99753984	68825088	27067376	24992
320	7.047016	99753984	68825088	16598072	24992
321	7.41172	99753984	68825088	23212528	24992
322	1.109237	99753984	68825088	14028496	24992
323	1.519279	99753984	68825088	15366240	24992
324	2.475789	99753984	68825088	17363392	24992
325	2.935284	99753984	68825088	20019952	24992
326	3.621328	99753984	68825088	23336424	24992
327	4.561233	99753984	68825088	27312304	24992
328	5.426692	99753984	68825088	15521128	24992
329	5.815782	99753984	68825088	20815832	24992
330	6.707486	99753984	68825088	26770880	24992
331	7.602868	99753984	68825088	16970560	24992
332	0.781139	99753984	68825088	24223936	24992
333	1.488607	99753984	68825088	25561680	24992
334	2.413119	99753984	68825088	27558832	24992
335	3.262718	99753984	68825088	13785320	24992
336	3.715272	99753984	68825088	17101792	24992
337	4.618037	99753984	68825088	21077704	24992
338	5.051789	99753984	68825088	25712984	24992
339	6.187423	99753984	68825088	14579408	24992
340	6.605923	99753984	68825088	20534504	24992
341	7.511998	99753984	68825088	27148960	24992
342	0.771299	99753984	68825088	17978000	24992
343	1.934583	99753984	68825088	19315744	24992
344	2.201911	99753984	68825088	21312928	24992
345	3.217451	99753984	68825088	23972080	24992
346	3.631741	99753984	68825088	27288632	24992
347	4.96013	99753984	68825088	14840248	24992
348	5.182183	99753984	68825088	19475528	24992
349	6.015607	99753984	68825088	24770216	24992
350	6.900099	99753984	68825088	14301240	24992
351	7.19429	99753984	68825088	20915704	24992
352	0.77218	99753984	68825088	28169112	24992
353	1.482706	99753984	68825088	29506856	24992
354	2.603171	99753984	68825088	15077064	24992
355	2.920449	99753984	68825088	17733624	24992
356	3.846303	99753984	68825088	21050096	24992
357	4.347253	99753984	68825088	25026024	24992
358	5.045587	99753984	68825088	29661304	24992
359	6.271244	99753984	68825088	18539768	24992
360	6.521882	99753984	68825088	24499264	24992
361	7.871699	99753984	68825088	14693472	24992
362	0.772664	99753984	68825088	21946848	24992
363	1.69707	99753984	68825088	23284592	24992
364	2.197882	99753984	68825088	25281744	24992
365	3.116289	99753984	68825088	27938352	24992
366	4.26895	99753984	68825088	14826072	24992
367	4.336953	99753984	68825088	18801952	24992
368	5.242235	99753984	68825088	23437232	24992
369	6.011975	99753984	68825088	28731920	24992
370	6.951797	99753984	68825088	18270400	24992
371	7.161535	99753984	68825088	24884968	24992
372	0.775025	99753984	68825088	15706616	24992
373	1.493333	99753984	68825088	17044360	24992
374	2.210857	99753984	68825088	19041512	24992
375	2.897268	99753984	68825088	21698072	24992
376	3.840688	99753984	68825088	25014544	24992
377	4.331797	99753984	68825088	28990424	24992
378	5.568472	99753984	68825088	17199264	24992
379	5.807384	99753984	68825088	22493952	24992
380	6.668965	99753984	68825088	28449000	24992
381	7.682725	99753984	68825088	18652056	24992
382	0.775683	99753984	68825088	25905432	24992
383	1.491331	99753984	68825088	27243176	24992
384	2.20764	99753984	68825088	29240328	24992
385	3.384046	99753984	68825088	15466816	24992
386	3.632837	99753984	68825088	18783288	24992
387	4.341007	99753984	68825088	22759168	24992
388	5.271615	99753984	68825088	27394448	24992
389	6.335617	99753984	68825088	16260840	24992
390	6.867133	99753984	68825088	22215952	24992
391	7.175672	99753984	68825088	28830408	24992
392	0.794267	99753984	68825088	19659416	24992
393	1.526416	99753984	68825088	20997160	24992
394	2.617577	99753984	68825088	22994312	24992
395	2.93414	99753984	68825088	25650872	24992
396	3.647675	99753984	68825088	28967392	24992
397	4.880453	99753984	68825088	16518880	24992
398	5.305679	99753984	68825088	21154160	24992
399	5.773304	99753984	68825088	26448848	24992
400	7.020794	99753984	68825088	15979640	24992
401	7.42782	99753984	68825088	22594096	24992
402	0.771085	99753984	68825088	29847584	24992
403	2.022263	99753984	68825088	14752720	24992
404	2.448441	99753984	68825088	16749872	24992
405	2.93453	99753984	68825088	19406464	24992
406	3.621665	99753984	68825088	22722936	24992
407	4.548706	99753984	68825088	26698816	24992
408	5.775451	99753984	68825088	14908880	24992
409	5.846011	99753984	68825088	20203568	24992
410	6.486626	99753984	68825088	26158712	24992
411	8.023788	99753984	68825088	16353144	24992
412	0.776197	99753984	68825088	23606520	24992
413	1.714167	99753984	68825088	24944264	24992
414	2.196682	99753984	68825088	26941416	24992
415	2.91403	99753984	68825088	29598008	24992
416	4.224024	99753984	68825088	16490488	24992
417	4.43088	99753984	68825088	20466368	24992
418	5.145473	99753984	68825088	25101648	24992
419	6.020141	99753984	68825088	30396336	24992
420	7.301817	99753984	68825088	19932224	24992
421	7.417526	99753984	68825088	26546680	24992
422	0.769677	99753984	68825088	17366920	24992
423	1.502491	99753984	68825088	18704664	24992
424	2.238986	99753984	68825088	20701816	24992
425	2.971525	99753984	68825088	23358376	24992
426	3.906276	99753984	68825088	26674848	24992
427	4.343176	99753984	68825088	30650728	24992
428	5.655475	99753984	68825088	18857232	24992
429	6.006211	99753984	68825088	24152032	24992
430	6.485434	99753984	68825088	30107080	24992
431	7.932431	99753984	68825088	20307928	24992
432	0.7683	99753984	68825088	27561968	24992
433	1.502817	99753984	68825088	28899712	24992
434	2.202335	99753984	68825088	30896864	24992
435	3.5145	99753984	68825088	17121224	24992
436	3.850424	99753984	68825088	20437696	24992
437	4.366847	99753984	68825088	24413576	24992
438	5.064006	99753984	68825088	29048856	24992
439	6.401933	99753984	68825088	17913344	24992
440	6.708744	99753984	68825088	23868440	24992
441	7.325092	99753984	68825088	30482896	24992
442	0.773279	99753984	68825088	21310480	24992
443	1.481521	99753984	68825088	22648224	24992
444	2.435463	99753984	68825088	24645376	24992
445	2.924812	99753984	68825088	27301936	24992
446	3.61233	99753984	68825088	30618456	24992
447	5.025319	99753984	68825088	18168392	24992
448	5.318529	99753984	68825088	22803672	24992
449	5.763426	99753984	68825088	28098360	24992
450	7.37415	99753984	68825088	17627248	24992
451	7.307857	99753984	68825088	24241800	24992
452	0.794241	99753984	68825088	31495176	24992
453	2.183809	99753984	68825088	16398552	24992
454	2.425726	99753984	68825088	18395704	24992
455	2.938592	99753984	68825088	21052264	24992
456	3.626107	99753984	68825088	24368736	24992
457	4.345492	99753984	68825088	28344648	24992
458	5.971065	99753984	68825088	16552016	24992
459	5.864205	99753984	68825088	21846704	24992
460	6.62773	99753984	68825088	27801784	24992
461	8.23141	99753984	68825088	17995016	24992
462	0.766989	99753984	68825088	25248392	24992
463	1.493507	99753984	68825088	26586136	24992
464	2.415477	99753984	68825088	28583384	24992
465	2.927293	99753984	68825088	31239944	24992
466	4.357494	99753984	68825088	18131912	24992
467	4.42283	99753984	68825088	22107792	24992
468	5.136016	99753984	68825088	26743072	24992
469	6.942928	99753984	68825088	15607888	24992
470	6.559811	99753984	68825088	21562944	24992
471	7.411996	99753984	68825088	28177400	24992
472	0.794306	99753984	68825088	18997800	24992
473	1.515496	99753984	68825088	20335544	24992
474	2.227565	99753984	68825088	22332696	24992
475	2.950378	99753984	68825088	24989256	24992
476	3.689738	99753984	68825088	28305728	24992
477	5.312118	99753984	68825088	15855880	24992
478	5.116934	99753984	68825088	20491184	24992
479	5.817041	99753984	68825088	25785936	24992
480	6.748352	99753984	68825088	31740984	24992
481	8.184395	99753984	68825088	21941152	24992
482	0.771038	99753984	68825088	29194528	24992
483	1.490266	99753984	68825088	30532272	24992
484	2.911934	99753984	68825088	16101152	24992
485	2.970789	99753984	68825088	18757712	24992
486	3.670406	99753984	68825088	22074184	24992
487	4.55289	99753984	68825088	26050064	24992
488	5.039401	99753984	68825088	30685344	24992
489	6.7508	99753984	68825088	19549936	24992
490	6.807518	99753984	68825088	25504984	24992
491	7.972235	99753984	68825088	15693280	24992
492	0.772348	99753984	68825088	22946648	24992
493	1.733743	99753984	68825088	24284392	24992
494	2.208864	99753984	68825088	26281544	24992
495	3.11384	99753984	68825088	28938104	24992
496	4.384667	99753984	68825088	15820160	24992
497	4.446135	99753984	68825088	19796040	24992
498	5.310154	99753984	68825088	24431400	24992
499	5.785029	99753984	68825088	29726088	24992
500	7.336835	99753984	68825088	19262776	24992
501	7.247504	99753984	68825088	25877360	24992
502	0.783728	99753984	68825088	16698144	24992
503	1.48087	99753984	68825088	18035888	24992
504	2.409761	99753984	68825088	20033040	24992
505	2.906248	99753984	68825088	22689600	24992
506	3.633982	99753984	68825088	26006072	24992
507	4.385878	99753984	68825088	29981952	24992
508	6.134569	99753984	68825088	18189208	24992
509	5.917332	99753984	68825088	23483896	24992
510	6.563822	99753984	68825088	29438976	24992
511	8.39064	99753984	68825088	19640000	24992
512	0.774849	99753984	68825088	26893408	24992
513	1.721675	99753984	68825088	28231152	24992
514	2.19644	99753984	68825088	30228368	24992
515	3.684342	99753984	68825088	16453528	24992
516	3.696683	99753984	68825088	19770032	24992
517	4.568153	99753984	68825088	23745912	24992
518	5.083653	99753984	68825088	28381192	24992
519	6.857683	99753984	68825088	17246016	24992
520	6.615791	99753984	68825088	23201064	24992
521	7.472963	99753984	68825088	29815520	24992
522	0.778753	99753984	68825088	20643216	24992
523	1.480575	99753984	68825088	21981008	24992
524	2.214377	99753984	68825088	23978160	24992
525	2.907419	99753984	68825088	26634720	24992
526	3.640783	99753984	68825088	29951192	24992
527	5.192839	99753984	68825088	17501128	24992
528	5.076548	99753984	68825088	22136408	24992
529	6.032542	99753984	68825088	27431096	24992
530	7.559629	99753984	68825088	16960064	24992
531	7.191611	99753984	68825088	23574520	24992
532	0.772057	99753984	68825088	30827896	24992
533	1.70632	99753984	68825088	32165640	24992
534	3.099786	99753984	68825088	17733832	24992
535	2.963362	99753984	68825088	20390440	24992
536	3.836748	99753984	68825088	23706912	24992
537	4.405011	99753984	68825088	27682792	24992
538	5.253692	99753984	68825088	32318072	24992
539	6.650843	99753984	68825088	21194728	24992
540	6.485877	99753984	68825088	27149776	24992
541	8.072641	99753984	68825088	17337888	24992
542	0.769568	99753984	68825088	24591264	24992
543	1.487826	99753984	68825088	25929008	24992
544	2.211223	99753984	68825088	27926160	24992
545	3.117359	99753984	68825088	30582720	24992
546	4.521988	99753984	68825088	17464664	24992
547	4.420245	99753984	68825088	21440544	24992
548	5.145655	99753984	68825088	26075872	24992
549	5.864601	99753984	68825088	31370576	24992
550	7.831437	99753984	68825088	20907264	24992
551	7.533456	99753984	68825088	27521800	24992
552	0.791739	99753984	68825088	18342360	24992
553	1.702358	99753984	68825088	19680104	24992
554	2.211463	99753984	68825088	21677256	24992
555	2.919876	99753984	68825088	24333816	24992
556	3.610353	99753984	68825088	27657088	24992
557	4.576399	99753984	68825088	31632968	24992
558	6.035718	99753984	68825088	19847024	24992
559	5.883642	99753984	68825088	25141712	24992
560	6.490109	99753984	68825088	31096856	24992
561	8.37031	99753984	68825088	21304504	24992
562	0.994217	99753984	68825088	28557912	24992
563	1.48108	99753984	68825088	29895656	24992
564	2.220363	99753984	68825088	31892808	24992
565	3.848039	99753984	68825088	18117968	24992
566	3.728619	99753984	68825088	21434456	24992
567	4.430155	99753984	68825088	25410336	24992
568	5.381378	99753984	68825088	30045616	24992
569	7.036808	99753984	68825088	18910328	24992
570	6.593857	99753984	68825088	24865376	24992
571	7.395178	99753984	68825088	31479848	24992
572	0.792199	99753984	68825088	22307432	24992
573	1.517156	99753984	68825088	23645176	24992
574	2.229032	99753984	68825088	25642328	24992
575	2.908928	99753984	68825088	28298888	24992
576	3.836663	99753984	68825088	31615360	24992
577	5.366536	99753984	68825088	19165280	24992
578	5.274027	99753984	68825088	23800560	24992
579	5.767906	99753984	68825088	29095248	24992
580	7.494876	99753984	68825088	18624168	24992
581	7.391223	99753984	68825088	25238624	24992
582	0.770295	99753984	68825088	32492000	24992
583	2.532974	99753984	68825088	17396048	24992
584	2.210927	99753984	68825088	19393200	24992
585	3.124816	99753984	68825088	22049760	24992
586	3.621816	99753984	68825088	25366264	24992
587	4.353647	99753984	68825088	29342144	24992
588	6.262395	99753984	68825088	17549624	24992
589	5.894376	99753984	68825088	22844312	24992
590	6.790193	99753984	68825088	28799360	24992
591	8.453302	99753984	68825088	18992592	24992
592	0.769299	99753984	68825088	26245984	24992
593	1.499111	99753984	68825088	27583728	24992
594	2.213538	99753984	68825088	29580880	24992
595	2.926606	99753984	68825088	32237440	24992
596	4.632508	99753984	68825088	19130032	24992
597	4.556632	99753984	68825088	23105912	24992
598	5.047896	99753984	68825088	27741224	24992
599	5.799492	99753984	68825088	33035976	24992
600	7.68033	99753984	68825088	22571976	24992
601	7.61512	99753984	68825088	29186464	24992
602	0.815156	99753984	68825088	20006784	24992
603	1.57741	99753984	68825088	21344528	24992
604	2.309977	99753984	68825088	23341680	24992
605	3.07449	99753984	68825088	25998240	24992
606	3.945155	99753984	68825088	29314712	24992
607	4.335182	99753984	68825088	33290592	24992
608	6.348008	99753984	68825088	21497160	24992
609	5.782118	99753984	68825088	26791848	24992
610	6.537321	99753984	68825088	32746896	24992
611	8.352431	99753984	68825088	22947744	24992
612	0.769224	99753984	68825088	30201120	24992
613	1.48073	99753984	68825088	31538864	24992
614	2.205174	99753984	68825088	33536016	24992
615	4.199979	99753984	68825088	19760504	24992
616	3.639879	99753984	68825088	23077056	24992
617	4.554056	99753984	68825088	27052936	24992
618	5.045319	99753984	68825088	31688216	24992
619	6.880778	99753984	68825088	20552848	24992
620	6.777607	99753984	68825088	26507896	24992
621	7.246416	99753984	68825088	33122352	24992
622	0.791225	99753984	68825088	23949264	24992
623	1.526864	99753984	68825088	25287008	24992
624	2.244803	99753984	68825088	27284240	24992
625	2.919179	99753984	68825088	29940800	24992
626	3.620848	99753984	68825088	33257272	24992
627	5.639888	99753984	68825088	20806584	24992
628	5.09105	99753984	68825088	25441864	24992
629	5.983921	99753984	68825088	30736552	24992
630	7.631143	99753984	68825088	20265328	24992
631	7.33117	99753984	68825088	26879784	24992
632	2.108344	99753984	68825088	17694992	24992
633	1.495012	99753984	68825088	19032744	24992
634	2.192995	99753984	68825088	21029960	24992
635	2.877823	99753984	68825088	23686520	24992
636	3.601923	99753984	68825088	27002992	24992
637	4.546376	99753984	68825088	30978872	24992
638	6.23336	99753984	68825088	19186240	24992
639	5.865399	99753984	68825088	24480928	24992
640	7.062166	99753984	68825088	30435992	24992
641	8.946894	99753984	68825088	20642320	24992
642	0.780986	99753984	68825088	27895776	24992
643	1.498162	99753984	68825088	29233584	24992
644	2.206601	99753984	68825088	31230736	24992
645	2.894178	99753984	68825088	33887296	24992
646	4.742993	99753984	68825088	20779216	24992
647	4.32785	99753984	68825088	24755096	24992
648	5.243897	99753984	68825088	29390376	24992
649	6.913716	99753984	68825088	18255232	24992
650	6.773409	99753984	68825088	24210280	24992
651	7.184898	99753984	68825088	30824736	24992
652	0.787604	99753984	68825088	21645072	24992
653	1.534733	99753984	68825088	22982816	24992
654	2.239034	99753984	68825088	24979968	24992
655	3.157917	99753984	68825088	27636528	24992
656	3.634641	99753984	68825088	30953000	24992
657	5.718633	99753984	68825088	18503048	24992
658	5.050812	99753984	68825088	23138328	24992
659	5.725045	99753984	68825088	28433016	24992
660	7.692693	99753984	68825088	17962120	24992
661	7.492584	99753984	68825088	24576568	24992
662	0.770352	99753984	68825088	31829944	24992
663	1.477365	99753984	68825088	33167688	24992
664	3.618951	99753984	68825088	18736552	24992
665	3.243821	99753984	68825088	21393112	24992
666	3.656627	99753984	68825088	24709584	24992
667	4.359631	99753984	68825088	28685464	24992
668	5.01263	99753984	68825088	33320792	24992
669	7.164867	99753984	68825088	22198216	24992
670	6.499039	99753984	68825088	28153264	24992
671	8.900559	99753984	68825088	18341608	24992
672	0.771261	99753984	68825088	25594976	24992
673	1.494587	99753984	68825088	26932720	24992
674	2.184566	99753984	68825088	28929872	24992
675	2.895312	99753984	68825088	31586432	24992
676	5.024768	99753984	68825088	18468488	24992
677	4.418412	99753984	68825088	22444400	24992
678	5.137278	99753984	68825088	27079744	24992
679	6.010001	99753984	68825088	32374432	24992
680	7.844552	99753984	68825088	21911168	24992
681	7.518339	99753984	68825088	28525624	24992
682	0.804525	99753984	68825088	19346440	24992
683	1.524175	99753984	68825088	20684184	24992
684	2.240857	99753984	68825088	22681560	24992
685	3.166684	99753984	68825088	25338120	24992
686	3.681428	99753984	68825088	28654704	24992
687	4.320201	99753984	68825088	32630584	24992
688	6.399647	99753984	68825088	20837840	24992
689	5.761135	99753984	68825088	26132528	24992
690	6.932083	99753984	68825088	32087576	24992
691	8.711594	99753984	68825088	22288488	24992
692	0.763973	99753984	68825088	29541880	24992
693	1.485337	99753984	68825088	30879624	24992
694	2.220814	99753984	68825088	32876776	24992
695	4.175351	99753984	68825088	19101936	24992
696	3.711046	99753984	68825088	22418408	24992
697	4.579117	99753984	68825088	26394320	24992
698	5.140482	99753984	68825088	31029600	24992
699	7.306322	99753984	68825088	19894496	24992
700	6.588295	99753984	68825088	25849552	24992
701	7.430801	99753984	68825088	32464008	24992
702	0.77277	99753984	68825088	23291608	24992
703	1.492071	99753984	68825088	24629352	24992
704	2.418023	99753984	68825088	26626504	24992
705	2.956719	99753984	68825088	29283112	24992
706	3.824565	99753984	68825088	32599584	24992
707	5.663251	99753984	68825088	20149520	24992
708	5.144183	99753984	68825088	24784800	24992
709	5.759593	99753984	68825088	30079488	24992
710	7.831134	99753984	68825088	19608376	24992
711	7.304189	99753984	68825088	26222832	24992
712	0.780635	99753984	68825088	33476224	24992
713	1.488385	99753984	68825088	34813968	24992
714	3.547354	99753984	68825088	20382160	24992
715	3.168383	99753984	68825088	23038720	24992
716	3.64519	99753984	68825088	26355192	24992
717	4.33947	99753984	68825088	30331072	24992
718	5.301494	99753984	68825088	34966368	24992
719	7.189606	99753984	68825088	23840784	24992
720	6.50193	99753984	68825088	29795832	24992
721	8.743006	99753984	68825088	19983704	24992
722	0.775754	99753984	68825088	27237080	24992
723	1.486653	99753984	68825088	28574824	24992
724	2.409424	99753984	68825088	30571976	24992
725	2.923534	99753984	68825088	33228536	24992
726	4.961471	99753984	68825088	20112752	24992
727	4.351591	99753984	68825088	24088632	24992
728	5.042407	99753984	68825088	28723912	24992
729	5.978147	99753984	68825088	34018600	24992
730	7.869242	99753984	68825088	23555272	24992
731	7.413122	99753984	68825088	30169728	24992
732	0.771682	99753984	68825088	20990064	24992
733	1.487846	99753984	68825088	22327808	24992
734	2.203011	99753984	68825088	24324960	24992
735	2.906901	99753984	68825088	26981520	24992
736	3.845827	99753984	68825088	30298024	24992
737	4.344632	99753984	68825088	34273904	24992
738	6.694141	99753984	68825088	22481160	24992
739	6.014605	99753984	68825088	27775848	24992
740	6.490236	99753984	68825088	33730896	24992
741	8.611588	99753984	68825088	23931792	24992
742	0.767266	99753984	68825088	31185168	24992
743	1.485179	99753984	68825088	32522912	24992
744	2.20609	99753984	68825088	34520064	24992
745	4.4909	99753984	68825088	20745224	24992
746	3.629293	99753984	68825088	24061696	24992
747	4.342078	99753984	68825088	28037768	24992
748	5.048618	99753984	68825088	32673048	24992
749	7.178996	99753984	68825088	21537760	24992
750	6.692491	99753984	68825088	27492856	24992
751	7.178152	99753984	68825088	34107312	24992
752	0.774955	99753984	68825088	24934896	24992
753	1.489903	99753984	68825088	26272648	24992
754	2.204563	99753984	68825088	28269792	24992
755	2.907522	99753984	68825088	30926384	24992
756	3.609747	99753984	68825088	34242856	24992
757	6.035507	99753984	68825088	21792776	24992
758	5.058832	99753984	68825088	26428056	24992
759	5.9678	99753984	68825088	31722744	24992
760	7.930001	99753984	68825088	21251616	24992
761	7.435212	99753984	68825088	27866072	24992
762	0.996701	99753984	68825088	35119496	24992
763	2.929982	99753984	68825088	20023144	24992
764	2.256296	99753984	68825088	22020296	24992
765	2.963099	99753984	68825088	24676856	24992
766	3.896264	99753984	68825088	27993328	24992
767	4.354668	99753984	68825088	31969320	24992
768	6.490992	99753984	68825088	20176800	24992
769	5.843132	99753984	68825088	25471488	24992
770	6.839438	99753984	68825088	31426536	24992
771	8.771054	99753984	68825088	21619768	24992
772	0.771624	99753984	68825088	28873144	24992
773	1.477405	99753984	68825088	30210888	24992
774	2.201547	99753984	68825088	32208040	24992
775	2.913071	99753984	68825088	34864600	24992
776	5.175809	99753984	68825088	21757192	24992
777	4.347213	99753984	68825088	25733072	24992
778	5.289445	99753984	68825088	30368352	24992
779	5.775305	99753984	68825088	35663040	24992
780	8.199372	99753984	68825088	25199104	24992
781	7.316786	99753984	68825088	31813560	24992
782	0.787778	99753984	68825088	22633896	24992
783	1.512652	99753984	68825088	23971640	24992
784	2.457198	99753984	68825088	25968792	24992
785	3.515326	99753984	68825088	28625832	24992
786	3.953529	99753984	68825088	31942304	24992
787	4.672434	99753984	68825088	35928272	24992
788	6.965549	99753984	68825088	24130728	24992
789	5.972036	99753984	68825088	29425448	24992
790	6.46419	99753984	68825088	35380496	24992
791	8.899776	99753984	68825088	25581048	24992
792	0.774081	99753984	68825088	32834424	24992
793	1.496212	99753984	68825088	34172168	24992
794	3.732827	99753984	68825088	19735856	24992
795	2.917049	99753984	68825088	22392408	24992
796	3.628128	99753984	68825088	25708880	24992
797	4.344069	99753984	68825088	29684792	24992
798	5.284792	99753984	68825088	34320072	24992
799	7.360385	99753984	68825088	23184664	24992
800	6.783388	99753984	68825088	29139776	24992
801	7.199803	99753984	68825088	35754232	24992
802	0.779784	99753984	68825088	26587632	24992
803	1.504332	99753984	68825088	27925376	24992
804	2.19629	99753984	68825088	29922560	24992
805	3.134978	99753984	68825088	32579120	24992
806	3.617796	99753984	68825088	35895672	24992
807	6.132206	99753984	68825088	23444920	24992
808	5.072675	99753984	68825088	28080200	24992
809	5.780228	99753984	68825088	33374888	24992
810	8.326609	99753984	68825088	22903688	24992
811	7.485863	99753984	68825088	29518136	24992
812	2.518527	99753984	68825088	20333248	24992
813	1.493892	99753984	68825088	21671096	24992
814	2.186115	99753984	68825088	23668248	24992
815	2.882053	99753984	68825088	26324808	24992
816	3.602336	99753984	68825088	29641280	24992
817	4.550944	99753984	68825088	33617304	24992
818	6.711117	99753984	68825088	21824672	24992
819	6.028725	99753984	68825088	27119408	24992
820	6.519676	99753984	68825088	33074456	24992
821	9.063403	99753984	68825088	23271912	24992
822	0.777901	99753984	68825088	30525288	24992
823	1.487666	99753984	68825088	31863032	24992
824	2.21138	99753984	68825088	33860184	24992
825	4.507305	99753984	68825088	20085344	24992
826	3.694614	99753984	68825088	23401816	24992
827	4.407812	99753984	68825088	27377696	24992
828	5.341178	99753984	68825088	32012976	24992
829	7.394731	99753984	68825088	20877784	24992
830	6.707964	99753984	68825088	26832832	24992
831	7.205963	99753984	68825088	33447288	24992
832	0.786309	99753984	68825088	24275000	24992
833	1.514094	99753984	68825088	25612744	24992
834	2.479165	99753984	68825088	27609896	24992
835	2.920552	99753984	68825088	30266456	24992
836	3.639892	99753984	68825088	33582928	24992
837	6.186246	99753984	68825088	21132976	24992
838	5.116532	99753984	68825088	25768288	24992
839	5.853302	99753984	68825088	31062976	24992
840	8.21312	99753984	68825088	20592080	24992
841	7.458032	99753984	68825088	27206544	24992
842	0.766172	99753984	68825088	34459920	24992
843	1.478434	99753984	68825088	35797664	24992
844	3.842039	99753984	68825088	21366528	24992
845	2.973701	99753984	68825088	24023088	24992
846	3.711341	99753984	68825088	27339672	24992
847	4.406368	99753984	68825088	31315552	24992
848	5.136004	99753984	68825088	35950832	24992
849	7.732969	99753984	68825088	24828176	24992
850	6.805245	99753984	68825088	30793576	24992
851	8.932539	99753984	68825088	20995160	24992
852	0.772625	99753984	68825088	28248536	24992
853	1.547853	99753984	68825088	29586280	24992
854	2.176911	99753984	68825088	31583448	24992
855	2.964488	99753984	68825088	34240008	24992
856	5.292534	99753984	68825088	21132296	24992
857	4.597145	99753984	68825088	25108176	24992
858	5.193874	99753984	68825088	29743456	24992
859	5.760528	99753984	68825088	35038144	24992
860	8.447065	99753984	68825088	24574816	24992
861	7.447755	99753984	68825088	31189320	24992
862	0.84488	99753984	68825088	22009880	24992
863	1.492646	99753984	68825088	23347736	24992
864	2.234396	99753984	68825088	25344888	24992
865	2.91253	99753984	68825088	28001448	24992
866	3.611324	99753984	68825088	31317920	24992
867	4.556704	99753984	68825088	35293848	24992
868	6.746224	99753984	68825088	23501104	24992
869	5.994677	99753984	68825088	28795792	24992
870	6.461026	99753984	68825088	34750856	24992
871	9.095797	99753984	68825088	24951704	24992
872	0.781912	99753984	68825088	32205080	24992
873	1.487211	99753984	68825088	33542824	24992
874	2.215489	99753984	68825088	35539976	24992
875	4.809906	99753984	68825088	21765136	24992
876	3.630575	99753984	68825088	25081608	24992
877	4.386556	99753984	68825088	29057488	24992
878	5.092144	99753984	68825088	33692848	24992
879	7.523251	99753984	68825088	22557672	24992
880	6.951249	99753984	68825088	28512720	24992
881	7.399147	99753984	68825088	35127176	24992
882	0.792059	99753984	68825088	25954872	24992
883	1.519146	99753984	68825088	27292616	24992
884	2.236656	99753984	68825088	29289768	24992
885	2.97734	99753984	68825088	31946328	24992
886	3.701375	99753984	68825088	35262800	24992
887	6.310228	99753984	68825088	22812720	24992
888	5.06337	99753984	68825088	27448016	24992
889	6.391597	99753984	68825088	32744520	24992
890	8.364883	99753984	68825088	22273392	24992
891	7.450682	99753984	68825088	28887880	24992
892	0.767244	99753984	68825088	36141256	24992
893	3.247024	99753984	68825088	21045304	24992
894	2.248523	99753984	68825088	23042456	24992
895	2.965112	99753984	68825088	25699016	24992
896	3.880497	99753984	68825088	29015488	24992
897	4.359758	99753984	68825088	32991368	24992
898	7.277749	99753984	68825088	21198848	24992
899	5.778386	99753984	68825088	26493536	24992
900	6.712976	99753984	68825088	32448696	24992
901	9.290764	99753984	68825088	22641928	24992
902	0.796138	99753984	68825088	29895304	24992
903	1.475648	99753984	68825088	31233048	24992
904	2.212308	99753984	68825088	33230200	24992
905	2.902612	99753984	68825088	35886760	24992
906	5.425287	99753984	68825088	22779368	24992
907	4.564149	99753984	68825088	26755248	24992
908	5.096758	99753984	68825088	31390528	24992
909	6.078933	99753984	68825088	36685216	24992
910	8.382679	99753984	68825088	26221904	24992
911	7.342489	99753984	68825088	32836376	24992
912	0.779381	99753984	68825088	23656776	24992
913	1.982914	99753984	68825088	24994536	24992
914	2.248091	99753984	68825088	26993752	24992
915	2.916182	99753984	68825088	29650312	24992
916	3.84548	99753984	68825088	32966784	24992
917	4.338076	99753984	68825088	36942728	24992
918	7.156019	99753984	68825088	25149664	24992
919	5.971089	99753984	68825088	30444352	24992
920	6.481914	99753984	68825088	36399432	24992
921	9.073727	99753984	68825088	26600648	24992
922	0.772161	99753984	68825088	33854024	24992
923	1.497118	99753984	68825088	35191768	24992
924	2.185509	99753984	68825088	37188920	24992
925	4.912888	99753984	68825088	23413440	24992
926	3.64208	99753984	68825088	26729912	24992
927	4.340245	99753984	68825088	30705792	24992
928	5.327392	99753984	68825088	35341072	24992
929	7.884552	99753984	68825088	24205672	24992
930	6.467016	99753984	68825088	30160720	24992
931	7.403772	99753984	68825088	36775176	24992
932	0.773611	99753984	68825088	27602856	24992
933	1.516804	99753984	68825088	28940600	24992
934	2.206694	99753984	68825088	30937752	24992
935	2.902215	99753984	68825088	33594312	24992
936	3.614398	99753984	68825088	36910784	24992
937	6.48221	99753984	68825088	24460704	24992
938	5.150865	99753984	68825088	29096064	24992
939	6.011503	99753984	68825088	34390784	24992
940	8.404415	99753984	68825088	23919656	24992
941	7.312564	99753984	68825088	30534112	24992
942	0.776371	99753984	68825088	37787488	24992
943	3.38892	99753984	68825088	22690848	24992
944	2.244903	99753984	68825088	24688000	24992
945	3.165587	99753984	68825088	27344560	24992
946	3.756959	99753984	68825088	30661032	24992
947	4.351311	99753984	68825088	34636912	24992
948	7.083633	99753984	68825088	22844392	24992
949	5.81546	99753984	68825088	28139080	24992
950	6.93248	99753984	68825088	34094128	24992
951	9.329873	99753984	68825088	24287360	24992
952	0.765853	99753984	68825088	31540736	24992
953	1.535	99753984	68825088	32878480	24992
954	2.17422	99753984	68825088	34875632	24992
955	2.889604	99753984	68825088	37532192	24992
956	5.520527	99753984	68825088	24424096	24992
957	4.377394	99753984	68825088	28399976	24992
958	5.050306	99753984	68825088	33035256	24992
959	7.945813	99753984	68825088	21900136	24992
960	7.256019	99753984	68825088	27855192	24992
961	7.737791	99753984	68825088	34469760	24992
962	0.783824	99753984	68825088	25290080	24992
963	1.564846	99753984	68825088	26627824	24992
964	2.335416	99753984	68825088	28624976	24992
965	3.678256	99753984	68825088	31281536	24992
966	3.652688	99753984	68825088	34598008	24992
967	6.843235	99753984	68825088	22148208	24992
968	5.133684	99753984	68825088	26783480	24992
969	6.282401	99753984	68825088	32078168	24992
970	6.672023	99753984	68825088	38033312	24992
971	9.602955	99753984	68825088	28233480	24992
972	0.773333	99753984	68825088	35486904	24992
973	1.478226	99753984	68825088	36824648	24992
974	4.190962	99753984	68825088	22393552	24992
975	2.938846	99753984	68825088	25050104	24992
976	3.849048	99753984	68825088	28366576	24992
977	4.348323	99753984	68825088	32342456	24992
978	5.069901	99753984	68825088	36977736	24992
979	7.759653	99753984	68825088	25842328	24992
980	6.717956	99753984	68825088	31797376	24992
981	7.342302	99753984	68825088	38411832	24992
982	0.778017	99753984	68825088	29244576	24992
983	1.47628	99753984	68825088	30582320	24992
984	2.398191	99753984	68825088	32579472	24992
985	2.904378	99753984	68825088	35236032	24992
986	3.611159	99753984	68825088	38552504	24992
987	6.555018	99753984	68825088	26092032	24992
988	5.011182	99753984	68825088	30727312	24992
989	5.789784	99753984	68825088	36022000	24992
990	8.516537	99753984	68825088	25551432	24992
991	7.416271	99753984	68825088	32165888	24992
992	0.81654	99753984	68825088	22985896	24992
993	1.552027	99753984	68825088	24323640	24992
994	2.192908	99753984	68825088	26320792	24992
995	2.967955	99753984	68825088	28977384	24992
996	3.978469	99753984	68825088	32293856	24992
997	4.570607	99753984	68825088	36269736	24992
998	7.294496	99753984	68825088	24476992	24992
999	5.981556	99753984	68825088	29771680	24992
1000	6.662914	99753984	68825088	35726728	24992
