x	Duration	RSS	HeapTotal	HeapUsed	External
0	NA	109346816	123351040	30610936	24992
1	2.521609	109346816	123351040	31287712	24992
2	3.751613	109346816	123351040	32625600	24992
3	2.200125	109346816	123351040	34622712	24992
4	4.203559	109346816	123351040	20856840	24992
5	3.741207	109346816	123351040	24173288	24992
6	4.602291	109346816	123351040	28149128	24992
7	5.179218	109346816	123351040	32784400	24992
8	8.002209	109346816	123351040	21650136	24992
9	6.52908	109346816	123351040	27605160	24992
10	7.203154	109346816	123351040	34219576	24992
11	9.887495	109346816	123351040	25075536	24992
12	9.05071	109346816	123351040	33008968	24992
13	11.111341	109617152	123351040	25177840	24992
14	10.145665	109617152	123351040	34429896	24992
15	12.95775	109617152	123351040	27914184	24992
16	13.319959	109617152	123351040	22046696	24992
17	12.618109	109617152	123351040	33278808	24992
18	14.956908	109617152	123351040	28737592	24992
19	15.837082	109617152	123351040	24860704	24992
20	16.755392	109617152	123351040	21625136	24992
21	15.329229	109617152	123351040	35495224	24992
22	0.810565	109617152	123351040	33537216	24992
23	1.526472	109617152	123351040	34875056	24992
24	3.891803	109617152	123351040	20432264	24992
25	2.943368	109617152	123351040	23088960	24992
26	3.644513	109617152	123351040	26405504	24992
27	4.65293	109617152	123351040	30381440	24992
28	5.071625	109617152	123351040	35016776	24992
29	7.767394	109617152	123351040	23875000	24992
30	6.492333	109617152	123351040	29830120	24992
31	8.964862	109887488	123351040	20020064	24992
32	8.186785	109887488	123351040	27294016	24992
33	9.078548	109887488	123351040	35227336	24992
34	11.533457	109887488	123351040	27395616	24992
35	12.126334	109887488	123351040	20216976	24992
36	11.072598	109887488	123351040	30128504	24992
37	13.449199	109887488	123351040	24260792	24992
38	12.560135	109887488	123351040	35493080	24992
39	15.176841	109887488	123351040	30969560	24992
40	15.763421	109887488	123351040	27091616	24992
41	16.716215	109887488	123351040	23855304	24992
42	0.80625	109887488	123351040	21218536	24992
43	1.503914	109887488	123351040	22556352	24992
44	2.420153	109887488	123351040	24553560	24992
45	2.928641	109887488	123351040	27210848	24992
46	3.880233	109887488	123351040	30527392	24992
47	4.559671	109887488	123351040	34503328	24992
48	6.914469	109887488	123351040	22707176	24992
49	5.980416	109887488	123351040	28001920	24992
50	6.574085	109887488	123351040	33957072	24992
51	9.367007	110157824	123351040	24160712	24992
52	8.317455	110157824	123351040	31434624	24992
53	10.839362	110157824	123351040	22939128	24992
54	9.514461	110157824	123351040	31531904	24992
55	12.004043	110157824	123351040	24352824	24992
56	11.199656	110157824	123351040	34264352	24992
57	13.751699	110157824	123351040	28412360	24992
58	14.672997	110157824	123351040	23209320	24992
59	13.711659	110157824	123351040	35100952	24992
60	15.870082	110157824	123351040	31222808	24992
61	16.580269	110157824	123351040	28007400	24992
62	0.792884	110157824	123351040	25369448	24992
63	1.504777	110157824	123351040	26707264	24992
64	2.221805	110157824	123351040	28704472	24992
65	2.937192	110157824	123351040	31361088	24992
66	3.639219	110157824	123351040	34677632	24992
67	6.21213	110157824	123351040	22211616	24992
68	5.32443	110157824	123351040	26846952	24992
69	5.852291	110157824	123351040	32141696	24992
70	8.674249	110428160	123351040	21672488	24992
71	7.311707	110428160	123351040	28287000	24992
72	7.962657	110428160	123351040	35560912	24992
73	10.799146	110428160	123351040	27075008	24992
74	9.873499	110428160	123351040	35667752	24992
75	12.100864	110428160	123351040	28501496	24992
76	13.155069	110428160	123351040	21971504	24992
77	11.911851	110428160	123351040	32542456	24992
78	14.429109	110428160	123351040	27338968	24992
79	15.224063	110428160	123351040	22798560	24992
80	14.144307	110428160	123351040	35350120	24992
81	16.639304	110428160	123351040	32136064	24992
82	0.800392	110428160	123351040	29520408	24992
83	1.613499	110428160	123351040	30858136	24992
84	2.24045	110428160	123351040	32856408	24992
85	3.215071	110428160	123351040	35512952	24992
86	5.86692	110428160	123351040	22379432	24992
87	4.422785	110428160	123351040	26355296	24992
88	5.421915	110428160	123351040	30990720	24992
89	5.796678	110428160	123351040	36285392	24992
90	8.777264	110698496	123351040	25816552	24992
91	7.253968	110698496	123351040	32431056	24992
92	10.223342	110698496	123351040	23279216	24992
93	8.709475	110698496	123351040	31212464	24992
94	11.64821	110698496	123351040	23369864	24992
95	10.364164	110698496	123351040	32621960	24992
96	12.84198	110698496	123351040	26106256	24992
97	11.784568	110698496	123351040	36677120	24992
98	14.495525	110698496	123351040	31489696	24992
99	15.235975	110698496	123351040	26948784	24992
100	16.158958	110698496	123351040	23050800	24992
101	14.450919	110698496	123351040	36261520	24992
102	1.003545	110698496	123351040	33645096	24992
103	1.519957	110698496	123351040	34982824	24992
104	2.216262	110698496	123351040	36979992	24992
105	4.897652	110968832	123351040	23200504	24992
106	3.651523	110968832	123351040	26517024	24992
107	4.361575	110968832	123351040	30492888	24992
108	5.155212	110968832	123351040	35128152	24992
109	8.055733	110968832	123351040	23985912	24992
110	6.751062	110968832	123351040	29940944	24992
111	7.241274	110968832	123351040	36555384	24992
112	9.98795	110968832	123351040	27411000	24992
113	8.979836	110968832	123351040	35344280	24992
114	11.911802	110968832	123351040	27512880	24992
115	10.291131	110968832	123351040	36764928	24992
116	13.328537	110968832	123351040	30249032	24992
117	13.895451	110968832	123351040	24381552	24992
118	12.294255	110968832	123351040	35613704	24992
119	15.366934	110968832	123351040	31072392	24992
120	16.167548	110968832	123351040	27194680	24992
121	16.806322	110968832	123351040	23958624	24992
122	0.796767	110968832	123351040	37775488	24992
123	3.736583	111239168	123351040	22664936	24992
124	2.219742	111239168	123351040	24662072	24992
125	2.908663	111239168	123351040	27318616	24992
126	3.62605	111239168	123351040	30635072	24992
127	4.587752	111239168	123351040	34610936	24992
128	7.159681	111239168	123351040	22813872	24992
129	6.049051	111239168	123351040	28108544	24992
130	6.572494	111239168	123351040	34063576	24992
131	9.373962	111239168	123351040	24258168	24992
132	8.210675	111239168	123351040	31532008	24992
133	11.018811	111239168	123351040	23036592	24992
134	9.528969	111239168	123351040	31629232	24992
135	12.475101	111239168	123351040	24450272	24992
136	11.097509	111239168	123351040	34361728	24992
137	13.748561	111239168	123351040	28509616	24992
138	14.869856	111239168	123351040	23306312	24992
139	13.22608	111239168	123351040	35197936	24992
140	15.913758	111239168	123351040	31319664	24992
141	17.116213	111509504	123351040	28104504	24992
142	0.799365	111509504	123351040	25470200	24992
143	1.512768	111509504	123351040	26807928	24992
144	2.434901	111509504	123351040	28805064	24992
145	2.92816	111509504	123351040	31461608	24992
146	3.647497	111509504	123351040	34778064	24992
147	6.752146	111509504	123351040	22313632	24992
148	5.176004	111509504	123351040	26948888	24992
149	6.626945	111509504	123351040	32243560	24992
150	7.057376	111509504	123351040	38198608	24992
151	10.291854	111509504	123351040	28400312	24992
152	8.715833	111509504	123351040	35674152	24992
153	11.55108	111509504	123351040	27188008	24992
154	10.054591	111509504	123351040	35780680	24992
155	12.586514	111509504	123351040	28601176	24992
156	11.067969	111509504	123351040	38512632	24992
157	13.769331	111509504	123351040	32654248	24992
158	14.675503	111509504	123351040	27450976	24992
159	15.94954	111509504	123351040	22897064	24992
160	14.097291	111509504	123351040	35448344	24992
161	16.910854	111779840	123351040	32232712	24992
162	0.801749	111779840	123351040	29616960	24992
163	1.501458	111779840	123351040	30954736	24992
164	2.219427	111779840	123351040	32951872	24992
165	2.925605	111779840	123351040	35608416	24992
166	6.016688	111779840	123351040	22473880	24992
167	4.386029	111779840	123351040	26449736	24992
168	5.264298	111779840	123351040	31085016	24992
169	5.819566	111779840	123351040	36379688	24992
170	8.772339	111779840	123351040	25909712	24992
171	7.272194	111779840	123351040	32524152	24992
172	10.414494	111779840	123351040	23372760	24992
173	8.909503	111779840	123351040	31306104	24992
174	11.665933	111779840	123351040	23463504	24992
175	10.442781	111779840	123351040	32715568	24992
176	13.278138	111779840	123351040	26200344	24992
177	11.657402	111779840	123351040	36771288	24992
178	14.947285	111779840	123351040	31584456	24992
179	15.485699	111779840	123351040	27043752	24992
180	16.242404	112050176	123351040	23146600	24992
181	14.656931	112050176	123351040	36357352	24992
182	1.019038	112050176	123351040	33741040	24992
183	1.497286	112050176	123351040	35078768	24992
184	2.214641	112050176	123351040	37075904	24992
185	5.158311	112050176	123351040	23297096	24992
186	3.868033	112050176	123351040	26613624	24992
187	4.378066	112050176	123351040	30589488	24992
188	5.082637	112050176	123351040	35224864	24992
189	8.09673	112050176	123351040	24082896	24992
190	6.768065	112050176	123351040	30037928	24992
191	7.247629	112050176	123351040	36652416	24992
192	10.72098	112050176	123351040	27508016	24992
193	8.825702	112050176	123351040	35441264	24992
194	12.002901	112050176	123351040	27610088	24992
195	10.356698	112050176	123351040	36862152	24992
196	13.211573	112050176	123351040	30346192	24992
197	14.399779	112050176	123351040	24478456	24992
198	12.908527	112050176	123351040	35710672	24992
199	15.959739	112050176	123351040	31169680	24992
200	16.74434	112320512	123351040	27292032	24992
201	17.238003	112320512	123351040	24056488	24992
202	0.790804	112320512	123351040	37873224	24992
203	1.496469	112320512	123351040	39210952	24992
204	4.540919	112320512	123351040	24765440	24992
205	2.919385	112320512	123351040	27422032	24992
206	3.635491	112320512	123351040	30738488	24992
207	4.329975	112320512	123351040	34714352	24992
208	5.271622	112320512	123351040	39349616	24992
209	8.175997	112320512	123351040	28221904	24992
210	6.757676	112320512	123351040	34176936	24992
211	9.612405	112320512	123351040	24366200	24992
212	7.971241	112320512	123351040	31640040	24992
213	8.980263	112320512	123351040	39573288	24992
214	12.021794	112320512	123351040	31741208	24992
215	12.778981	112320512	123351040	24562248	24992
216	10.959162	112320512	123351040	34473704	24992
217	14.592206	112320512	123351040	28605752	24992
218	12.747034	112320512	123351040	39837888	24992
219	15.628097	112590848	123351040	35304616	24992
220	16.372352	112590848	123351040	31426440	24992
221	16.857511	112590848	123351040	28196640	24992
222	0.800999	112590848	123351040	25559392	24992
223	1.502171	112590848	123351040	26897120	24992
224	2.271298	112590848	123351040	28894256	24992
225	2.937118	112590848	123351040	31550800	24992
226	3.646291	112590848	123351040	34867256	24992
227	4.359264	112590848	123351040	38843120	24992
228	7.712781	112590848	123351040	27045832	24992
229	5.780214	112590848	123351040	32343384	24992
230	6.949985	112590848	123351040	38298448	24992
231	9.693746	112590848	123351040	28503712	24992
232	7.99783	112590848	123351040	35777552	24992
233	11.339601	112590848	123351040	27284568	24992
234	9.638305	112590848	123351040	35877288	24992
235	12.580362	112590848	123351040	28697880	24992
236	11.115419	112590848	123351040	38609336	24992
237	14.178041	112590848	123351040	32757032	24992
238	14.922375	112861184	123351040	27553728	24992
239	13.416279	112861184	123351040	39445288	24992
240	16.309978	112861184	123351040	35566888	24992
241	17.697864	112861184	123351040	32351312	24992
242	0.799237	112861184	123351040	29713168	24992
243	1.500945	112861184	123351040	31050896	24992
244	2.208149	112861184	123351040	33048032	24992
245	3.145785	112861184	123351040	35704576	24992
246	3.838001	112861184	123351040	39021032	24992
247	7.020252	112861184	123351040	26554536	24992
248	5.094044	112861184	123351040	31189800	24992
249	5.804342	112861184	123351040	36484472	24992
250	9.02572	112861184	123351040	26014736	24992
251	7.495053	112861184	123351040	32629176	24992
252	8.214693	112861184	123351040	39903016	24992
253	11.18506	112861184	123351040	31416024	24992
254	9.454418	112861184	123351040	40008728	24992
255	12.772999	112861184	123351040	32841432	24992
256	13.869606	112861184	123351040	26311176	24992
257	12.847718	112861184	123351040	36882136	24992
258	15.584834	113131520	123351040	31678392	24992
259	16.005364	113131520	123351040	27137720	24992
260	14.076652	113131520	123351040	39689000	24992
261	17.586183	113131520	123351040	36473176	24992
262	0.793517	113131520	123351040	33856976	24992
263	1.549166	113131520	123351040	35194704	24992
264	2.196646	113131520	123351040	37191840	24992
265	3.009871	113131520	123351040	39848384	24992
266	6.386743	113131520	123351040	26713728	24992
267	4.417489	113131520	123351040	30689592	24992
268	5.328979	113131520	123351040	35324856	24992
269	6.047222	113131520	123351040	40619592	24992
270	9.135722	113131520	123351040	30148928	24992
271	7.268596	113131520	123351040	36763384	24992
272	10.73973	113131520	123351040	27611544	24992
273	8.899875	113131520	123351040	35544824	24992
274	11.970123	113131520	123351040	27702000	24992
275	10.304035	113131520	123351040	36954256	24992
276	13.707586	113131520	123351040	30438568	24992
277	11.652652	113131520	123351040	41009432	24992
278	15.123613	113401856	123351040	35820872	24992
279	15.830704	113401856	123351040	31279960	24992
280	16.788544	113401856	123351040	27382952	24992
281	14.755401	113401856	123351040	40593704	24992
282	0.807154	113401856	123351040	37976608	24992
283	1.500329	113401856	123351040	39314336	24992
284	2.206384	113401856	123351040	41311488	24992
285	5.512222	113401856	123351040	27532000	24992
286	3.888513	113401856	123351040	30848520	24992
287	4.37589	113401856	123351040	34824384	24992
288	5.184494	113401856	123351040	39459648	24992
289	8.400074	113401856	123351040	28317392	24992
290	6.750448	113401856	123351040	34272424	24992
291	7.23554	113401856	123351040	40886976	24992
292	10.739925	113401856	123351040	31741984	24992
293	8.917357	113401856	123351040	39675248	24992
294	12.468014	113401856	123351040	31843848	24992
295	10.188821	113401856	123351040	41095896	24992
296	13.648998	113672192	123351040	34579280	24992
297	14.476936	113672192	123351040	28711544	24992
298	12.411203	113672192	123351040	39943680	24992
299	16.116745	113672192	123351040	35402352	24992
300	16.447215	113672192	123351040	31524688	24992
301	17.623003	113672192	123351040	28288184	24992
302	3.467645	113672192	123351040	25652616	24992
303	1.531436	113672192	123351040	26990352	24992
304	2.446235	113672192	123351040	28987488	24992
305	3.150392	113672192	123351040	31644032	24992
306	3.640885	113672192	123351040	34960488	24992
307	4.363382	113672192	123351040	38936352	24992
308	8.069003	113672192	123351040	27139352	24992
309	5.885213	113672192	123351040	32434024	24992
310	6.524006	113672192	123351040	38389056	24992
311	10.189499	113672192	123351040	28588160	24992
312	9.418243	113672192	123351040	35875256	24992
313	11.61105	113672192	123351040	27379376	24992
314	9.381743	113672192	123351040	35972016	24992
315	13.657721	113942528	123351040	28791656	24992
316	11.228173	113942528	123351040	38703112	24992
317	14.493415	113942528	123351040	32849016	24992
318	15.559249	113942528	123351040	27644320	24992
319	13.279702	113942528	123351040	39535928	24992
320	16.97767	113942528	123351040	35656096	24992
321	17.417924	113942528	123351040	32439512	24992
322	0.803941	113942528	123351040	29800496	24992
323	1.504222	113942528	123351040	31138224	24992
324	2.44103	113942528	123351040	33135360	24992
325	2.929812	113942528	123351040	35791904	24992
326	3.8239	114212864	123351040	39108360	24992
327	7.154634	114212864	123351040	26638688	24992
328	5.11608	114212864	123351040	31273952	24992
329	5.855982	114212864	123351040	36568624	24992
330	9.50702	114212864	123351040	26094872	24992
331	7.256394	114212864	123351040	32709312	24992
332	8.194428	114212864	123351040	39983152	24992
333	11.702655	114212864	123351040	31494008	24992
334	9.645699	114212864	123351040	40086648	24992
335	13.238475	114212864	123351040	32917600	24992
336	13.695983	114212864	123351040	26385848	24992
337	11.811211	114212864	123351040	36956832	24992
338	15.514023	114212864	123351040	31751904	24992
339	16.197099	114212864	123351040	27210232	24992
340	13.771665	114212864	123351040	39761512	24992
341	17.447786	114212864	123351040	36544464	24992
342	0.800174	114483200	123351040	33927304	24992
343	1.49685	114483200	123351040	35265048	24992
344	2.216538	114483200	123351040	37262184	24992
345	3.142339	114483200	123351040	39918728	24992
346	6.383533	114483200	123351040	26781360	24992
347	4.386951	114483200	123351040	30757224	24992
348	5.312252	114483200	123351040	35392488	24992
349	5.855188	114483200	123351040	40687160	24992
350	9.348421	114483200	123351040	30212952	24992
351	8.219312	114483200	123351040	36836456	24992
352	10.953268	114483200	123351040	27682008	24992
353	8.776718	114483200	123351040	35615256	24992
354	12.495209	114483200	123351040	27770784	24992
355	10.155237	114483200	123351040	37022848	24992
356	13.972368	114483200	123351040	30505496	24992
357	12.038687	114483200	123351040	41076376	24992
358	15.477052	114483200	123351040	35887656	24992
359	16.085812	114483200	123351040	31345672	24992
360	16.87043	114483200	123351040	27456464	24992
361	14.678286	114483200	123351040	40667168	24992
362	0.856827	114753536	123351040	38053776	24992
363	1.587529	114753536	123351040	39391504	24992
364	2.34356	114753536	123351040	41388640	24992
365	5.942249	114753536	123351040	27606992	24992
366	4.016074	114753536	123351040	30923448	24992
367	4.609431	114753536	123351040	34899312	24992
368	5.525468	114753536	123351040	39534576	24992
369	8.695671	114753536	123351040	28388816	24992
370	7.047588	114753536	123351040	34343848	24992
371	7.235651	114753536	123351040	40958320	24992
372	10.922864	114753536	123351040	31810624	24992
373	8.923164	114753536	123351040	39743920	24992
374	12.622822	114753536	123351040	31910384	24992
375	10.324966	114753536	123351040	41162448	24992
376	14.096241	114753536	123351040	34645592	24992
377	14.709625	114753536	123351040	28776448	24992
378	12.668109	114753536	123351040	40008616	24992
379	16.276456	114753536	123351040	35465952	24992
380	17.021304	114753536	123351040	31586832	24992
381	18.033022	115023872	123351040	28350336	24992
382	0.797379	115023872	123351040	42167088	24992
383	1.509061	115023872	123351040	43504816	24992
384	5.299846	115023872	123351040	29056480	24992
385	2.942304	115023872	123351040	31713024	24992
386	3.648761	115023872	123351040	35029480	24992
387	4.379282	115023872	123351040	39005344	24992
388	7.996663	115023872	123351040	27204504	24992
389	6.084932	115023872	123351040	32499168	24992
390	6.542879	115023872	123351040	38454200	24992
391	10.451649	115023872	123351040	28640800	24992
392	8.015234	115023872	123351040	35914656	24992
393	11.982303	115023872	123351040	27416952	24992
394	9.627866	115023872	123351040	36009600	24992
395	13.31601	115023872	123351040	28828752	24992
396	11.020795	115023872	123351040	38740224	24992
397	14.752857	115023872	123351040	32886272	24992
398	15.361673	115023872	123351040	27682088	24992
399	13.244986	115023872	123351040	39573616	24992
400	17.014042	115023872	123351040	35694008	24992
401	17.723952	115294208	123351040	32477520	24992
402	0.804446	115294208	123351040	29839416	24992
403	1.494526	115294208	123351040	31177144	24992
404	2.218668	115294208	123351040	33174280	24992
405	2.927534	115294208	123351040	35830824	24992
406	4.070641	115294208	123351040	39147280	24992
407	4.361185	115294208	123351040	43123144	24992
408	8.26845	115294208	123351040	31322088	24992
409	5.867218	115294208	123351040	36616760	24992
410	6.580985	115294208	123351040	42571792	24992
411	10.494712	115294208	123351040	32769672	24992
412	8.010897	115294208	123351040	40043512	24992
413	11.945568	115294208	123351040	31545288	24992
414	9.446514	115294208	123351040	40138104	24992
415	13.520057	115294208	123351040	32957016	24992
416	11.613595	115294208	123351040	42868472	24992
417	15.697034	115294208	123351040	37023320	24992
418	15.660988	115294208	123351040	31818608	24992
419	13.579844	115294208	123351040	43710136	24992
420	17.378956	115294208	123351040	39829616	24992
421	17.512537	115564544	123351040	36612584	24992
422	1.020742	115564544	123351040	33973504	24992
423	1.501756	115564544	123351040	35311232	24992
424	2.229142	115564544	123351040	37308368	24992
425	2.929229	115564544	123351040	39964912	24992
426	3.646356	115564544	123351040	43281368	24992
427	7.44893	115564544	123351040	30811584	24992
428	5.359306	115564544	123351040	35446848	24992
429	5.803886	115564544	123351040	40741520	24992
430	9.820795	115564544	123351040	30267544	24992
431	7.206095	115564544	123351040	36882080	24992
432	8.140098	115564544	123351040	44155920	24992
433	12.186387	115564544	123351040	35666104	24992
434	9.628684	115564544	123351040	44258808	24992
435	13.234849	115564544	123351040	37089072	24992
436	14.174391	115564544	123351040	30557312	24992
437	11.805866	115564544	123351040	41128192	24992
438	15.795235	115564544	123351040	35923032	24992
439	16.355746	115564544	123351040	31380920	24992
440	13.713566	115564544	123351040	43932200	24992
441	18.054332	115564544	123351040	40714304	24992
442	0.822102	115834880	123351040	38096680	24992
443	1.529699	115834880	123351040	39434440	24992
444	2.266399	115834880	123351040	41431576	24992
445	2.977523	115834880	123351040	44088120	24992
446	6.999014	115834880	123351040	30950640	24992
447	4.431676	115834880	123351040	34926504	24992
448	5.5121	115834880	123351040	39561768	24992
449	6.016007	115834880	123351040	44856488	24992
450	6.550456	115834880	123351040	34366488	24992
451	7.273784	115834880	123351040	40980928	24992
452	11.363747	115834880	123351040	31826248	24992
453	8.984874	115834880	123351040	39759496	24992
454	12.823327	115834880	123351040	31925976	24992
455	10.363972	115834880	123351040	41178152	24992
456	14.214718	115834880	123351040	34660592	24992
457	15.034279	115834880	123351040	28791504	24992
458	12.70737	115834880	123351040	40023632	24992
459	16.694042	115834880	123351040	35481080	24992
460	17.061036	116105216	123351040	31601896	24992
461	15.687018	116105216	123351040	44827104	24992
462	0.806795	116105216	123351040	42208592	24992
463	1.509677	116105216	123351040	43546320	24992
464	5.543144	116105216	123351040	29098744	24992
465	2.9318	116105216	123351040	31755280	24992
466	3.620061	116105216	123351040	35071736	24992
467	4.630068	116105216	123351040	39047600	24992
468	5.093117	116105216	123351040	43682912	24992
469	9.433334	116105216	123351040	32535680	24992
470	6.720605	116105216	123351040	38490712	24992
471	7.365055	116105216	123351040	45105152	24992
472	11.419703	116105216	123351040	35961504	24992
473	8.923301	116105216	123351040	43894752	24992
474	12.649511	116105216	123351040	36060112	24992
475	10.376556	116105216	123351040	45312192	24992
476	14.278205	116105216	123351040	38784632	24992
477	14.820987	116105216	123351040	32914952	24992
478	12.669086	116105216	123351040	44147120	24992
479	16.467271	116105216	123351040	39612064	24992
480	18.319762	116375552	123351040	35743384	24992
481	18.378757	116375552	123351040	32506008	24992
482	0.818872	116375552	123351040	29863904	24992
483	1.516808	116375552	123351040	31201632	24992
484	2.219098	116375552	123351040	33198768	24992
485	3.153119	116375552	123351040	35855312	24992
486	3.648964	116375552	123351040	39171816	24992
487	4.36513	116375552	123351040	43147680	24992
488	8.594178	116375552	123351040	31345568	24992
489	5.968274	116375552	123351040	36640240	24992
490	6.522633	116375552	123351040	42595272	24992
491	10.695517	116375552	123351040	32790912	24992
492	8.170622	116375552	123351040	40064816	24992
493	11.958753	116375552	123351040	31565952	24992
494	9.650213	116375552	123351040	40158592	24992
495	13.808912	116375552	123351040	32976832	24992
496	10.872604	116375552	123351040	42888288	24992
497	15.066765	116375552	123351040	37033488	24992
498	15.909286	116375552	123351040	31828264	24992
499	13.054298	116375552	123351040	43719824	24992
500	17.505918	116375552	123351040	39839560	24992
501	17.784732	116645888	123351040	36622464	24992
502	0.809119	116645888	123351040	33983224	24992
503	1.497638	116645888	123351040	35320952	24992
504	2.445525	116645888	123351040	37318088	24992
505	2.917735	116645888	123351040	39974680	24992
506	3.650102	116645888	123351040	43291136	24992
507	7.621824	116645888	123351040	30820584	24992
508	5.330048	116645888	123351040	35455848	24992
509	5.866836	116645888	123351040	40750520	24992
510	10.051707	116645888	123351040	30275328	24992
511	7.319365	116645888	123351040	36889768	24992
512	7.983382	116645888	123351040	44163608	24992
513	12.224692	116645888	123351040	35673408	24992
514	9.715608	116645888	123351040	44266048	24992
515	14.117996	116645888	123351040	37096104	24992
516	15.106984	116645888	123351040	30563816	24992
517	11.803316	116645888	123351040	41134680	24992
518	16.164751	116645888	123351040	35929088	24992
519	16.668456	116916224	123351040	31386464	24992
520	13.974926	116916224	123351040	43937744	24992
521	18.040449	116916224	123351040	40719976	24992
522	0.804384	116916224	123351040	38102240	24992
523	1.508821	116916224	123351040	39439968	24992
524	2.208906	116916224	123351040	41437104	24992
525	2.939449	116916224	123351040	44093648	24992
526	7.011775	116916224	123351040	30955464	24992
527	4.380117	116916224	123351040	34931408	24992
528	5.337224	116916224	123351040	39566752	24992
529	5.810919	116916224	123351040	44861424	24992
530	10.098724	116916224	123351040	34385808	24992
531	7.265454	116916224	123351040	41000248	24992
532	11.783455	116916224	123351040	31844744	24992
533	8.714428	116916224	123351040	39777992	24992
534	13.008382	116916224	123351040	31932832	24992
535	10.200001	116916224	123351040	41184880	24992
536	14.6577	116916224	123351040	34666760	24992
537	11.855719	116916224	123351040	45237672	24992
538	15.929773	116916224	123351040	40048248	24992
539	16.472823	117186560	123351040	35505608	24992
540	17.547882	117186560	123351040	31607168	24992
541	15.014206	117186560	123351040	44817904	24992
542	0.814268	117186560	123351040	42199712	24992
543	1.519482	117186560	123351040	43537440	24992
544	2.266439	117186560	123351040	45534576	24992
545	6.310155	117186560	123351040	31752224	24992
546	3.668243	117186560	123351040	35068824	24992
547	4.380609	117186560	123351040	39044688	24992
548	5.348077	117186560	123351040	43679952	24992
549	9.197821	117186560	123351040	32532816	24992
550	6.793495	117186560	123351040	38487848	24992
551	7.266306	117186560	123351040	45102288	24992
552	11.664581	117186560	123351040	35953344	24992
553	8.753908	117186560	123351040	43886592	24992
554	13.067121	117186560	123351040	36052080	24992
555	10.178301	117186560	123351040	45304256	24992
556	14.659344	117186560	123351040	38799320	24992
557	15.443084	117186560	123351040	32936432	24992
558	12.531215	117186560	123351040	44168552	24992
559	16.650282	117186560	123351040	39625360	24992
560	17.475107	117456896	123351040	35745648	24992
561	18.591652	117456896	123351040	32508768	24992
562	1.045412	117456896	123351040	46325488	24992
563	5.092751	117456896	123351040	31213384	24992
564	2.39277	117456896	123351040	33210512	24992
565	2.938125	117456896	123351040	35867056	24992
566	3.829779	117456896	123351040	39183512	24992
567	4.595637	117456896	123351040	43159376	24992
568	8.902977	117456896	123351040	31357512	24992
569	5.832131	117456896	123351040	36652208	24992
570	6.738975	117456896	123351040	42607336	24992
571	10.929099	117456896	123351040	32796768	24992
572	7.99518	117456896	123351040	40070624	24992
573	12.399219	117456896	123351040	31572000	24992
574	9.443015	117456896	123351040	40164640	24992
575	13.904346	117456896	123351040	32983104	24992
576	10.875752	117456896	123351040	42894640	24992
577	15.661801	117456896	123351040	37039936	24992
578	15.797269	117456896	123351040	31834744	24992
579	13.417219	117456896	123351040	43726272	24992
580	17.522083	117727232	123351040	39846136	24992
581	18.161179	117727232	123351040	36629056	24992
582	0.799895	117727232	123351040	33990264	24992
583	1.733461	117727232	123351040	35327992	24992
584	3.150739	117727232	123351040	37327000	24992
585	2.923046	117727232	123351040	39983544	24992
586	4.068284	117727232	123351040	43314040	24992
587	4.404676	117727232	123351040	47289904	24992
588	8.773449	117727232	123351040	35487472	24992
589	5.788603	117727232	123351040	40782144	24992
590	6.745237	117727232	123351040	46737176	24992
591	10.838579	117727232	123351040	36933648	24992
592	8.199781	117727232	123351040	44207488	24992
593	12.606076	117727232	123351040	35708400	24992
594	9.439901	117727232	123351040	44301040	24992
595	13.926064	117727232	123351040	37119056	24992
596	10.925978	117997568	123351040	47030512	24992
597	15.19544	117997568	123351040	41175600	24992
598	16.105888	117997568	123351040	35970392	24992
599	13.315428	117997568	123351040	47861984	24992
600	17.552167	117997568	123351040	43973784	24992
601	18.214037	117997568	123351040	40756232	24992
602	0.871185	117997568	123351040	38124264	24992
603	1.490217	117997568	123351040	39461992	24992
604	2.213149	117997568	123351040	41459128	24992
605	2.977061	117997568	123351040	44115672	24992
606	3.86963	117997568	123351040	47432128	24992
607	8.321068	117997568	123351040	34960776	24992
608	5.303816	117997568	123351040	39596040	24992
609	5.797363	117997568	123351040	44890712	24992
610	10.310359	117997568	123351040	34415184	24992
611	7.366076	117997568	123351040	41029680	24992
612	11.807695	118267904	123351040	31866320	24992
613	9.329296	118267904	123351040	39799568	24992
614	13.647209	118267904	123351040	31954376	24992
615	10.416601	118267904	123351040	41206424	24992
616	15.003489	118267904	123351040	34688528	24992
617	11.851299	118267904	123351040	45259392	24992
618	16.052002	118267904	123351040	40070096	24992
619	16.919647	118267904	123351040	35527504	24992
620	14.046888	118267904	123351040	48078800	24992
621	18.067144	118267904	123351040	44860344	24992
622	0.800399	118267904	123351040	42242384	24992
623	1.555086	118267904	123351040	43580112	24992
624	2.220588	118267904	123351040	45577248	24992
625	2.943889	118267904	123351040	48233792	24992
626	7.186973	118267904	123351040	35094920	24992
627	4.592375	118267904	123351040	39070800	24992
628	5.084077	118267904	123351040	43706144	24992
629	9.826198	118267904	123351040	32559112	24992
630	6.655875	118267904	123351040	38514192	24992
631	7.244882	118267904	123351040	45128632	24992
632	11.81722	118538240	123351040	35972912	24992
633	8.900836	118538240	123351040	43906160	24992
634	13.093578	118538240	123351040	36071952	24992
635	10.368121	118538240	123351040	45324000	24992
636	14.794672	118538240	123351040	38805544	24992
637	15.48779	118538240	123351040	32935968	24992
638	12.379935	118538240	123351040	44168088	24992
639	17.30764	118538240	123351040	39625040	24992
640	17.421969	118538240	123351040	35745328	24992
641	18.622969	118538240	123351040	32508520	24992
642	0.799862	118538240	123351040	46325232	24992
643	1.514982	118538240	123351040	47662960	24992
644	5.853728	118538240	123351040	33215200	24992
645	2.949017	118538240	123351040	35871744	24992
646	3.647671	118538240	123351040	39188200	24992
647	4.582311	118538240	123351040	43164096	24992
648	5.083588	118538240	123351040	47799360	24992
649	9.74439	118538240	123351040	36666848	24992
650	6.547539	118538240	123351040	42621880	24992
651	11.016542	118808576	123351040	32806824	24992
652	8.223111	118808576	123351040	40080656	24992
653	8.909704	118808576	123351040	48013904	24992
654	13.366023	118808576	123351040	40179344	24992
655	14.346104	118808576	123351040	32997912	24992
656	11.392081	118808576	123351040	42909400	24992
657	15.516599	118808576	123351040	37039776	24992
658	12.464375	118808576	123351040	48271896	24992
659	17.222408	118808576	123351040	43746128	24992
660	17.633122	118808576	123351040	39866208	24992
661	18.977407	118808576	123351040	36628704	24992
662	1.002338	118808576	123351040	33990328	24992
663	1.490182	118808576	123351040	35328056	24992
664	2.196774	118808576	123351040	37325192	24992
665	2.901175	118808576	123351040	39981736	24992
666	3.615062	118808576	123351040	43298192	24992
667	4.592137	118808576	123351040	47274056	24992
668	8.886554	118808576	123351040	35472008	24992
669	5.818922	118808576	123351040	40766728	24992
670	6.750139	118808576	123351040	46721760	24992
671	11.254691	118808576	123351040	36917880	24992
672	7.996398	118808576	123351040	44191720	24992
673	12.487543	119078912	123351040	35692680	24992
674	9.663482	119078912	123351040	44285320	24992
675	14.181334	119078912	123351040	37103336	24992
676	10.970998	119078912	123351040	47014792	24992
677	15.913963	119078912	123351040	41159880	24992
678	16.110853	119078912	123351040	35954688	24992
679	13.23317	119078912	123351040	47846216	24992
680	17.650224	119078912	123351040	43965968	24992
681	18.6084	119078912	123351040	40748744	24992
682	0.789595	119078912	123351040	38109536	24992
683	1.492125	119078912	123351040	39447264	24992
684	2.235411	119078912	123351040	41444432	24992
685	2.931168	119078912	123351040	44100976	24992
686	3.855424	119078912	123351040	47417496	24992
687	8.088729	119078912	123351040	34946832	24992
688	5.114776	119078912	123351040	39582096	24992
689	5.769856	119078912	123351040	44876768	24992
690	10.923888	119078912	123351040	34401352	24992
691	7.486663	119078912	123351040	41015792	24992
692	8.005476	119078912	123351040	48289632	24992
693	12.571214	119349248	123351040	39799448	24992
694	9.684405	119349248	123351040	48392152	24992
695	14.071545	119349248	123351040	41222368	24992
696	15.119365	119349248	123351040	34690160	24992
697	11.527262	119349248	123351040	45261024	24992
698	16.347195	119349248	123351040	40055416	24992
699	17.125956	119349248	123351040	35513032	24992
700	14.319127	119349248	123351040	48064536	24992
701	18.722592	119349248	123351040	44846752	24992
702	1.025633	119349248	123351040	42231720	24992
703	1.496286	119349248	123351040	43569448	24992
704	2.222046	119349248	123351040	45566584	24992
705	2.932979	119349248	123351040	48223128	24992
706	7.690893	119349248	123351040	35084944	24992
707	4.798428	119349248	123351040	39060808	24992
708	5.094173	119349248	123351040	43696072	24992
709	5.989104	119349248	123351040	48990744	24992
710	10.463877	119349248	123351040	38515096	24992
711	7.539549	119349248	123351040	45129536	24992
712	12.078161	119619584	123351040	35973808	24992
713	8.774655	119619584	123351040	43907056	24992
714	14.008066	119619584	123351040	36061864	24992
715	10.42109	119619584	123351040	45313912	24992
716	14.994948	119619584	123351040	38795568	24992
717	11.79677	119619584	123351040	49366432	24992
718	16.338167	119619584	123351040	44177072	24992
719	17.325159	119619584	123351040	39634464	24992
720	17.736673	119619584	123351040	35735608	24992
721	14.948946	119619584	123351040	48946296	24992
722	0.811416	119619584	123351040	46328152	24992
723	1.490682	119619584	123351040	47665880	24992
724	2.215048	119619584	123351040	49663016	24992
725	7.023961	119619584	123351040	35880664	24992
726	3.887346	119619584	123351040	39197120	24992
727	4.588476	119619584	123351040	43172984	24992
728	5.473251	119619584	123351040	47808248	24992
729	9.92548	119619584	123351040	36661112	24992
730	6.770541	119619584	123351040	42616208	24992
731	7.224068	119619584	123351040	49230648	24992
732	11.962722	119889920	123351040	40081688	24992
733	8.955884	119889920	123351040	48014936	24992
734	13.492932	119889920	123351040	40180296	24992
735	10.092987	119889920	123351040	49432344	24992
736	15.041704	119889920	123351040	42913776	24992
737	16.028285	119889920	123351040	37044120	24992
738	12.689126	119889920	123351040	48276240	24992
739	17.167774	119889920	123351040	43733000	24992
740	18.13594	119889920	123351040	39853288	24992
741	19.015866	119889920	123351040	36616008	24992
742	0.856685	119889920	123351040	50432728	24992
743	5.640316	119889920	123351040	35319944	24992
744	2.473423	119889920	123351040	37317080	24992
745	2.930693	119889920	123351040	39973624	24992
746	3.659538	119889920	123351040	43290080	24992
747	4.433548	119889920	123351040	47265960	24992
748	9.048544	119889920	123351040	35464056	24992
749	6.060086	119889920	123351040	40758728	24992
750	6.745457	119889920	123351040	46713760	24992
751	11.482518	119889920	123351040	36903160	24992
752	8.208027	119889920	123351040	44177016	24992
753	12.951619	120160256	123351040	35678360	24992
754	9.445209	120160256	123351040	44271016	24992
755	14.320628	120160256	123351040	37089560	24992
756	11.035522	120160256	123351040	47001096	24992
757	15.709013	120160256	123351040	41146424	24992
758	16.571491	120160256	123351040	35941184	24992
759	13.27309	120160256	123351040	47832712	24992
760	18.297839	120160256	123351040	43952448	24992
761	18.752168	120160256	123351040	40735384	24992
762	0.798961	120160256	123351040	38096576	24992
763	1.498207	120160256	123351040	39434304	24992
764	2.226912	120160256	123351040	41431440	24992
765	2.926241	120160256	123351040	44087984	24992
766	3.692782	120160256	123351040	47404440	24992
767	4.409201	120160256	123351040	51380304	24992
768	9.576809	120160256	123351040	39575600	24992
769	6.000839	120160256	123351040	44870368	24992
770	6.522863	120160256	123351040	50825400	24992
771	11.483541	120160256	123351040	41020880	24992
772	8.031221	120160256	123351040	48294720	24992
773	12.93212	120430592	123351040	39797184	24992
774	9.892168	120430592	123351040	48389824	24992
775	14.225804	120430592	123351040	41207744	24992
776	11.079792	120430592	123351040	51119296	24992
777	15.854834	120430592	123351040	45263744	24992
778	16.64379	120430592	123351040	40058520	24992
779	17.350291	120430592	123351040	35498184	24992
780	13.836579	120430592	123351040	48049528	24992
781	19.09123	120430592	123351040	44832048	24992
782	0.817311	120430592	123351040	42214536	24992
783	1.496513	120430592	123351040	43552264	24992
784	2.205659	120430592	123351040	45549480	24992
785	2.924543	120430592	123351040	48206024	24992
786	3.633243	120430592	123351040	51522528	24992
787	8.486164	120430592	123351040	39051176	24992
788	5.323023	120430592	123351040	43686440	24992
789	5.847344	120430592	123351040	48981112	24992
790	10.887833	120430592	123351040	38505584	24992
791	7.335962	120430592	123351040	45120040	24992
792	12.31041	120700928	123351040	35956848	24992
793	8.653232	120700928	123351040	43890112	24992
794	13.822586	120700928	123351040	36044960	24992
795	10.184432	120700928	123351040	45297016	24992
796	15.437709	120700928	123351040	38779168	24992
797	11.866158	120700928	123351040	49350032	24992
798	16.716892	120700928	123351040	44160640	24992
799	17.512725	120700928	123351040	39618016	24992
800	13.984577	120700928	123351040	52169312	24992
801	18.811896	120700928	123351040	48927352	24992
802	0.815306	120700928	123351040	46309304	24992
803	1.526101	120700928	123351040	47647032	24992
804	2.25198	120700928	123351040	49644168	24992
805	7.335811	120700928	123351040	35861336	24992
806	3.652579	120700928	123351040	39177800	24992
807	4.568741	120700928	123351040	43153680	24992
808	5.121512	120700928	123351040	47788944	24992
809	10.271106	120700928	123351040	36641984	24992
810	6.542751	120700928	123351040	42597016	24992
811	7.46754	120700928	123351040	49211456	24992
812	12.388075	120971264	123351040	40062640	24992
813	8.662696	120971264	123351040	47995888	24992
814	13.790306	120971264	123351040	40161472	24992
815	10.770414	120971264	123351040	49413520	24992
816	15.038648	120971264	123351040	42895064	24992
817	16.418229	120971264	123351040	37025376	24992
818	12.560411	120971264	123351040	48257528	24992
819	18.017586	120971264	123351040	43715456	24992
820	18.478876	120971264	123351040	39837568	24992
821	19.769246	120971264	123351040	36602032	24992
822	0.850605	109993984	82456576	17604728	24992
823	1.508314	109993984	82456576	18942488	24992
824	2.22418	109993984	82456576	20939624	24992
825	2.933657	109993984	82456576	23596216	24992
826	3.905051	109993984	82456576	26912672	24992
827	4.822836	109993984	82456576	14411392	24992
828	5.33005	109993984	82456576	19046656	24992
829	6.088509	109993984	82456576	24341328	24992
830	6.890022	109993984	82456576	13832176	24992
831	7.677856	109993984	82456576	20446616	24992
832	8.265073	109993984	82456576	11251488	24992
833	8.930695	109993984	82456576	19184736	24992
834	9.962088	109993984	82456576	11308056	24992
835	10.359204	109993984	82456576	20560104	24992
836	11.19865	109993984	82456576	14005312	24992
837	11.822105	109993984	82456576	24576176	24992
838	12.876565	109993984	82456576	19344576	24992
839	13.326666	109993984	82456576	14768992	24992
840	14.034121	109993984	82456576	27320640	24992
841	14.98732	109993984	82456576	24065368	24992
842	0.809164	109993984	82456576	21413552	24992
843	1.52319	109993984	82456576	22751280	24992
844	2.263171	109993984	82456576	24748416	24992
845	3.19838	109993984	82456576	27404960	24992
846	4.080501	109993984	82456576	14243680	24992
847	4.39208	109993984	82456576	18219544	24992
848	5.16221	109993984	82456576	22854808	24992
849	6.165792	109993984	82456576	11680992	24992
850	6.792226	109993984	82456576	17646360	24992
851	7.362211	109993984	82456576	24260800	24992
852	8.546927	109993984	82456576	15089208	24992
853	8.773132	109993984	82456576	23022456	24992
854	9.924166	109993984	82456576	15159552	24992
855	10.389086	109993984	82456576	24411600	24992
856	11.254787	109993984	82456576	17856360	24992
857	12.141767	109993984	82456576	11957544	24992
858	12.671597	109993984	82456576	23189704	24992
859	13.38629	109993984	82456576	18613712	24992
860	14.681961	109993984	82456576	14699200	24992
861	14.844169	109993984	82456576	27909888	24992
862	1.031082	109993984	82456576	25255792	24992
863	1.5092	109993984	82456576	26593520	24992
864	2.438193	109993984	82456576	12114144	24992
865	2.940892	109993984	82456576	14770744	24992
866	3.655123	109993984	82456576	18087200	24992
867	4.594815	109993984	82456576	22063064	24992
868	5.101201	109993984	82456576	26698328	24992
869	6.121094	109993984	82456576	15524760	24992
870	6.667152	109993984	82456576	21479792	24992
871	7.541868	109993984	82456576	28094232	24992
872	8.57944	109993984	82456576	18900296	24992
873	8.778399	109993984	82456576	26833608	24992
874	9.753632	109993984	82456576	18960152	24992
875	10.385828	109993984	82456576	28212200	24992
876	11.594605	109993984	82456576	21644864	24992
877	11.951687	109993984	82456576	15746048	24992
878	12.585866	109993984	82456576	26978328	24992
879	13.561773	109993984	82456576	22406968	24992
880	14.129629	109993984	82456576	18492152	24992
881	15.266058	109993984	82456576	15231944	24992
882	0.81688	109993984	82456576	12574720	24992
883	1.547099	109993984	82456576	13912488	24992
884	2.247085	109993984	82456576	15909616	24992
885	3.32376	109993984	82456576	18566176	24992
886	3.66726	109993984	82456576	21882632	24992
887	4.383297	109993984	82456576	25858496	24992
888	5.61115	109993984	82456576	14024104	24992
889	5.887856	109993984	82456576	19318776	24992
890	6.550617	109993984	82456576	25273808	24992
891	7.967262	109993984	82456576	15428664	24992
892	8.000639	109993984	82456576	22702536	24992
893	9.245067	109993984	82456576	14168376	24992
894	9.584254	109993984	82456576	22761016	24992
895	10.870934	109993984	82456576	15545080	24992
896	11.099459	109993984	82456576	25456648	24992
897	12.058012	109993984	82456576	19562248	24992
898	12.911516	109993984	82456576	14325984	24992
899	13.46516	109993984	82456576	26217528	24992
900	14.66726	109993984	82456576	22306584	24992
901	15.093591	109993984	82456576	19053104	24992
902	0.794562	109993984	82456576	16394968	24992
903	1.518223	109993984	82456576	17732696	24992
904	2.215948	109993984	82456576	19729832	24992
905	2.930761	109993984	82456576	22386376	24992
906	3.853882	109993984	82456576	25702864	24992
907	4.709649	109993984	82456576	13205360	24992
908	5.182866	109993984	82456576	17840624	24992
909	5.924604	109993984	82456576	23135296	24992
910	6.909613	109993984	82456576	12626424	24992
911	7.470275	109993984	82456576	19240912	24992
912	8.233045	109993984	82456576	26514912	24992
913	9.053331	109993984	82456576	17983064	24992
914	9.650525	109993984	82456576	26575704	24992
915	10.767671	109993984	82456576	19363504	24992
916	11.604345	109993984	82456576	12804048	24992
917	12.003414	109993984	82456576	23374912	24992
918	13.210541	109993984	82456576	18138232	24992
919	13.911926	109993984	82456576	13563064	24992
920	14.039324	109993984	82456576	26114616	24992
921	14.91284	109993984	82456576	22860160	24992
922	0.794677	109993984	82456576	20208408	24992
923	1.49241	109993984	82456576	21546136	24992
924	2.441545	109993984	82456576	23543288	24992
925	2.968648	109993984	82456576	26199832	24992
926	3.909337	109993984	82456576	13039288	24992
927	4.672599	109993984	82456576	17015152	24992
928	5.446446	109993984	82456576	21652040	24992
929	5.874208	109993984	82456576	26946712	24992
930	6.866043	109993984	82456576	16437384	24992
931	7.608048	109993984	82456576	23051904	24992
932	8.272884	109993984	82456576	13859648	24992
933	9.170537	109993984	82456576	21792928	24992
934	9.777453	109993984	82456576	13916248	24992
935	10.522032	109993984	82456576	23168328	24992
936	11.395345	109993984	82456576	16613344	24992
937	11.590348	109993984	82456576	27184208	24992
938	12.87013	109993984	82456576	21952480	24992
939	13.629381	109993984	82456576	17376864	24992
940	14.344858	109993984	82456576	13457224	24992
941	15.240235	109993984	82456576	26667976	24992
942	0.856846	109993984	82456576	24015768	24992
943	1.505441	109993984	82456576	25353496	24992
944	2.248397	109993984	82456576	27350632	24992
945	3.172823	109993984	82456576	13533680	24992
946	4.120828	109993984	82456576	16850136	24992
947	4.45892	109993984	82456576	20826000	24992
948	5.329635	109993984	82456576	25461264	24992
949	6.086368	109993984	82456576	14287440	24992
950	6.58689	109993984	82456576	20242472	24992
951	7.286428	109993984	82456576	26856912	24992
952	8.764397	109993984	82456576	17668424	24992
953	9.034016	109993984	82456576	25601688	24992
954	9.822091	109993984	82456576	17728456	24992
955	10.126619	109993984	82456576	26980536	24992
956	11.337634	109993984	82456576	20425072	24992
957	12.088493	109993984	82456576	14526264	24992
958	12.369767	109993984	82456576	25758448	24992
959	13.796576	109993984	82456576	21182280	24992
960	14.334613	109993984	82456576	17267960	24992
961	15.135064	109993984	82456576	14008728	24992
962	0.802272	109993984	82456576	27825448	24992
963	1.507585	109993984	82456576	29163176	24992
964	2.468573	109993984	82456576	14683128	24992
965	3.018722	109993984	82456576	17339672	24992
966	3.710582	109993984	82456576	20656144	24992
967	4.658463	109993984	82456576	24632008	24992
968	5.089005	109993984	82456576	29267272	24992
969	6.370872	109993984	82456576	18087520	24992
970	6.556471	109993984	82456576	24042552	24992
971	7.817177	109993984	82456576	14191144	24992
972	8.663707	109993984	82456576	21464984	24992
973	9.07854	109993984	82456576	12930424	24992
974	9.704763	109993984	82456576	21523072	24992
975	10.445078	109993984	82456576	14307344	24992
976	11.432193	109993984	82456576	24218864	24992
977	12.060028	109993984	82456576	18324608	24992
978	12.56626	109993984	82456576	13088792	24992
979	13.365021	109993984	82456576	24980320	24992
980	14.281913	109993984	82456576	21065272	24992
981	15.101638	109993984	82456576	17811344	24992
982	0.807111	109993984	82456576	15154104	24992
983	1.568726	109993984	82456576	16491832	24992
984	2.250453	109993984	82456576	18488968	24992
985	2.941082	109993984	82456576	21145512	24992
986	3.659192	109993984	82456576	24461968	24992
987	4.363367	109993984	82456576	28437832	24992
988	5.654915	109993984	82456576	16603440	24992
989	5.821537	109993984	82456576	21898128	24992
990	6.731593	109993984	82456576	27853160	24992
991	7.849013	109993984	82456576	18007952	24992
992	8.131296	109993984	82456576	25281792	24992
993	9.244203	109993984	82456576	16747360	24992
994	10.270354	109993984	82456576	25349064	24992
995	10.530195	109993984	82456576	18139352	24992
996	11.240697	109993984	82456576	28050840	24992
997	12.244128	109993984	82456576	22188528	24992
998	13.194488	109993984	82456576	16985960	24992
999	13.28284	109993984	82456576	28877488	24992
1000	14.173419	109993984	82456576	24999088	24992
