x	Duration	RSS	HeapTotal	HeapUsed	External
0	NA	89870336	59387904	10890936	24992
1	1.415957	89870336	59387904	11571064	24992
2	2.459493	89870336	59387904	12909480	24992
3	3.177809	89870336	59387904	14907264	24992
4	3.079641	89870336	59387904	17564584	24992
5	3.826054	89870336	59387904	20882008	24992
6	4.532168	89870336	59387904	24858968	24992
7	5.588106	89870336	59387904	13029616	24992
8	6.421524	89870336	59387904	18325704	24992
9	6.834399	89870336	59387904	24282328	24992
10	7.909174	89870336	59387904	14439400	24992
11	8.4093	89870336	59387904	21715280	24992
12	9.177224	89870336	59387904	13183184	24992
13	9.682618	89870336	59387904	21778056	24992
14	11.134547	89870336	59387904	14564416	24992
15	11.435098	89870336	59387904	24478424	24992
16	12.117567	89870336	59387904	18586608	24992
17	13.061705	89870336	59387904	13353120	24992
18	13.614734	89870336	59387904	25247664	24992
19	14.380284	89870336	59387904	21336184	24992
20	16.226034	89870336	59387904	18085856	24992
21	17.414804	89870336	59387904	15503672	24992
22	0.820393	89870336	59387904	13507288	24992
23	1.591526	89870336	59387904	14845552	24992
24	2.26413	89870336	59387904	16843368	24992
25	3.249034	89870336	59387904	19500752	24992
26	3.80246	89870336	59387904	22818224	24992
27	4.486371	89870336	59387904	26795248	24992
28	5.424708	89870336	59387904	14962744	24992
29	6.243548	89870336	59387904	20258896	24992
30	6.914684	89870336	59387904	26215584	24992
31	7.633278	89870336	59387904	16372680	24992
32	8.174796	89870336	59387904	23648488	24992
33	9.331172	89870336	59387904	15116504	24992
34	10.135552	89870336	59387904	23711440	24992
35	10.595938	89870336	59387904	16497960	24992
36	11.244967	89870336	59387904	26412016	24992
37	12.291859	89870336	59387904	20520504	24992
38	13.256393	89870336	59387904	15290096	24992
39	13.775692	89870336	59387904	27184768	24992
40	14.784571	89870336	59387904	23274984	24992
41	15.074614	89870336	59387904	20024232	24992
42	1.024343	89870336	59387904	17369888	24992
43	1.544846	89870336	59387904	18708152	24992
44	2.275687	89870336	59387904	20705968	24992
45	2.994541	89870336	59387904	23364024	24992
46	3.801692	89870336	59387904	26681496	24992
47	4.681657	89870336	59387904	14186072	24992
48	5.275686	89870336	59387904	18822656	24992
49	6.169608	89870336	59387904	24118808	24992
50	6.909806	89870336	59387904	13612512	24992
51	7.77331	89870336	59387904	20229576	24992
52	8.165665	89870336	59387904	27505376	24992
53	9.109481	89870336	59387904	18975896	24992
54	10.019004	89870336	59387904	27570832	24992
55	11.531306	89870336	59387904	20364640	24992
56	11.573512	89870336	59387904	13806664	24992
57	12.140534	89870336	59387904	24378928	24992
58	12.864389	89870336	59387904	19143896	24992
59	13.994042	89870336	59387904	14570080	24992
60	14.06775	89870336	59387904	27123016	24992
61	15.447427	89870336	59387904	23870368	24992
62	0.815219	89870336	59387904	21221992	24992
63	1.530917	89870336	59387904	22560016	24992
64	2.273043	89870336	59387904	24557512	24992
65	3.006882	89870336	59387904	27214496	24992
66	3.92728	89870336	59387904	14054752	24992
67	4.691501	89870336	59387904	18031216	24992
68	5.217169	89870336	59387904	22667160	24992
69	6.372418	89870336	59387904	27962592	24992
70	6.963095	89870336	59387904	17453928	24992
71	7.545925	89870336	59387904	24069288	24992
72	8.784827	89870336	59387904	14880072	24992
73	8.958889	89870336	59387904	22814400	24992
74	10.087371	89870336	59387904	14938928	24992
75	10.566498	89870336	59387904	24192232	24992
76	11.512813	89870336	59387904	17640672	24992
77	12.188886	89870336	59387904	28212936	24992
78	13.446848	89870336	59387904	22967888	24992
79	13.88817	89870336	59387904	18393720	24992
80	14.563917	89870336	59387904	14480512	24992
81	15.514852	89870336	59387904	27694224	24992
82	0.837417	89870336	59387904	25043544	24992
83	1.561334	89870336	59387904	26381480	24992
84	2.722582	89870336	59387904	11905120	24992
85	2.995836	89870336	59387904	14562024	24992
86	3.724493	89870336	59387904	17878928	24992
87	4.652146	89870336	59387904	21855320	24992
88	5.196277	89870336	59387904	26491192	24992
89	6.195143	89870336	59387904	15319000	24992
90	6.666393	89870336	59387904	21274800	24992
91	7.60604	89870336	59387904	27890136	24992
92	8.381165	89870336	59387904	18703032	24992
93	9.159002	89870336	59387904	26637288	24992
94	9.940247	89870336	59387904	18764952	24992
95	10.574045	89870336	59387904	28018168	24992
96	11.509114	89870336	59387904	21463296	24992
97	12.281847	90140672	59387904	15565832	24992
98	12.771234	90140672	59387904	26799424	24992
99	13.716279	90140672	59387904	22224664	24992
100	14.267375	90140672	59387904	18311720	24992
101	15.520103	90140672	59387904	15053176	24992
102	1.03158	90140672	59387904	12389240	24992
103	1.534504	90140672	59387904	13727176	24992
104	2.26361	90140672	59387904	15724600	24992
105	2.986625	90140672	59387904	18381512	24992
106	3.930528	90140672	59387904	21698416	24992
107	4.458011	90140672	59387904	25674808	24992
108	5.623079	90140672	59387904	13841160	24992
109	5.963803	90140672	59387904	19136520	24992
110	6.653706	90140672	59387904	25092320	24992
111	7.642247	90140672	59387904	15246080	24992
112	8.575261	90140672	59387904	22520848	24992
113	9.313545	90140672	59387904	13987920	24992
114	9.587424	90140672	59387904	22581648	24992
115	10.863244	90140672	59387904	15367120	24992
116	11.351177	90140672	59387904	25279824	24992
117	12.058813	90140672	59387904	19386784	24992
118	13.190421	90140672	59387904	14151928	24992
119	13.462233	90140672	59387904	26044944	24992
120	14.237658	90140672	59387904	22131304	24992
121	15.265839	90140672	59387904	18879120	24992
122	0.8058	90140672	59387904	16222776	24992
123	1.590071	90140672	59387904	17560712	24992
124	2.261566	90140672	59387904	19558136	24992
125	2.997838	90140672	59387904	22215048	24992
126	3.912938	90140672	59387904	25531952	24992
127	4.700171	90140672	59387904	13035008	24992
128	5.181458	90140672	59387904	17670880	24992
129	6.141281	90140672	59387904	22966240	24992
130	7.08126	90140672	59387904	12459600	24992
131	7.406901	90140672	59387904	19074888	24992
132	8.346307	90140672	59387904	26349656	24992
133	9.409635	90140672	59387904	17819408	24992
134	9.574415	90140672	59387904	26413136	24992
135	11.187046	90140672	59387904	19202104	24992
136	11.728672	90140672	59387904	12643888	24992
137	12.0989	90140672	59387904	23216072	24992
138	13.049476	90140672	59387904	17982144	24992
139	14.018666	90140672	59387904	13408096	24992
140	14.368762	90140672	59387904	25960064	24992
141	15.276982	90140672	59387904	22706680	24992
142	0.812421	90140672	59387904	20059552	24992
143	1.728537	90140672	59387904	21397392	24992
144	2.272919	90140672	59387904	23394672	24992
145	3.031309	90140672	59387904	26051392	24992
146	3.926293	90140672	59387904	12892984	24992
147	4.670647	90140672	59387904	16869088	24992
148	5.175094	90140672	59387904	21504624	24992
149	6.061624	90140672	59387904	26799600	24992
150	6.890994	90140672	59387904	16290656	24992
151	7.613743	90140672	59387904	22905464	24992
152	8.55865	90140672	59387904	13713816	24992
153	8.846199	90140672	59387904	21647496	24992
154	10.072102	90140672	59387904	13771312	24992
155	10.52179	90140672	59387904	23023856	24992
156	11.509555	90140672	59387904	16469624	24992
157	11.794032	90140672	59387904	27041048	24992
158	13.001866	90411008	59387904	21810040	24992
159	13.761841	90411008	59387904	17235096	24992
160	14.281748	90411008	59387904	13316160	24992
161	15.15541	90411008	59387904	26527536	24992
162	0.819009	90411008	59387904	23876048	24992
163	1.534575	90411008	59387904	25213888	24992
164	2.245455	90411008	59387904	27211168	24992
165	3.404704	90411008	59387904	13394472	24992
166	4.017627	90411008	59387904	16713824	24992
167	4.688129	90411008	59387904	20689720	24992
168	5.403842	90411008	59387904	25325016	24992
169	6.238895	90411008	59387904	14151256	24992
170	6.774695	90411008	59387904	20106320	24992
171	8.360635	90411008	59387904	26729728	24992
172	8.426966	90411008	59387904	17545248	24992
173	9.064072	90411008	59387904	25478528	24992
174	10.114574	90411008	59387904	17631768	24992
175	10.306768	90411008	59387904	26883848	24992
176	11.513879	90411008	59387904	20368896	24992
177	12.310876	90411008	59387904	14501944	24992
178	12.512912	90411008	59387904	25734128	24992
179	13.748991	90411008	59387904	21193792	24992
180	14.748294	90411008	59387904	17316928	24992
181	15.25184	90411008	59387904	14081864	24992
182	0.837341	90411008	59387904	27898648	24992
183	1.542854	90411008	59387904	29236408	24992
184	2.58231	90411008	59387904	14791536	24992
185	3.065629	90411008	59387904	17448112	24992
186	4.044837	90411008	59387904	20764600	24992
187	4.516581	90411008	59387904	24740496	24992
188	5.390126	90411008	59387904	29375792	24992
189	6.229506	90411008	59387904	18249728	24992
190	6.88209	90411008	59387904	24204824	24992
191	7.892022	90411008	59387904	14395832	24992
192	8.785816	90411008	59387904	21669704	24992
193	9.155422	90411008	59387904	29602984	24992
194	10.215216	90411008	59387904	21770568	24992
195	10.658179	90411008	59387904	14592640	24992
196	11.613218	90411008	59387904	24505144	24992
197	12.333734	90411008	59387904	18639104	24992
198	12.913654	90411008	59387904	29871256	24992
199	13.624345	90411008	59387904	25325200	24992
200	14.553971	90411008	59387904	21447064	24992
201	15.304778	90411008	59387904	18231352	24992
202	0.806992	90411008	59387904	15594184	24992
203	1.578617	90411008	59387904	16931944	24992
204	2.242006	90411008	59387904	18929112	24992
205	2.981085	90411008	59387904	21585720	24992
206	3.91685	90411008	59387904	24902208	24992
207	4.436058	90411008	59387904	28878136	24992
208	5.552853	90411008	59387904	17080800	24992
209	5.917157	90411008	59387904	22375504	24992
210	6.82727	90411008	59387904	28330728	24992
211	8.024098	90411008	59387904	18533176	24992
212	8.313962	90411008	59387904	25807208	24992
213	9.225813	90411008	59387904	17311408	24992
214	9.57306	90411008	59387904	25904096	24992
215	11.022067	90411008	59387904	18724768	24992
216	11.305648	90411008	59387904	28636336	24992
217	12.265544	90411008	59387904	22784080	24992
218	13.151915	90411008	59387904	17580840	24992
219	13.521258	90411008	59387904	29472400	24992
220	14.65885	90411008	59387904	25593344	24992
221	15.556471	90411008	59387904	22377992	24992
222	0.822447	90411008	59387904	19740472	24992
223	1.760816	90411008	59387904	21078232	24992
224	2.249339	90411008	59387904	23075400	24992
225	2.977669	90411008	59387904	25731976	24992
226	3.707569	90411008	59387904	29048464	24992
227	5.131174	90411008	59387904	16581936	24992
228	5.298004	90411008	59387904	21217232	24992
229	6.188043	90411008	59387904	26514816	24992
230	7.225056	90411008	59387904	16048008	24992
231	7.605095	90411008	59387904	22662480	24992
232	8.118313	90411008	59387904	29936352	24992
233	9.366693	90411008	59387904	21452352	24992
234	9.829788	90411008	59387904	30045024	24992
235	10.998948	90411008	59387904	22877728	24992
236	11.518835	90411008	59387904	16347472	24992
237	12.005761	90411008	59387904	26918368	24992
238	13.45379	90411008	59387904	21714704	24992
239	13.787201	90411008	59387904	17174064	24992
240	14.427591	90411008	59387904	29725424	24992
241	15.21606	90411008	59387904	26509728	24992
242	0.807828	90411008	59387904	23893496	24992
243	1.525462	90411008	59387904	25231256	24992
244	2.475445	90411008	59387904	27228424	24992
245	3.051303	90411008	59387904	29885000	24992
246	4.231722	90411008	59387904	16750376	24992
247	4.737198	90411008	59387904	20726272	24992
248	5.210996	90411008	59387904	25361568	24992
249	6.187454	90411008	59387904	30656272	24992
250	7.167695	90411008	59387904	20185784	24992
251	7.441501	90411008	59387904	26800256	24992
252	8.943433	90411008	59387904	17648496	24992
253	9.122775	90411008	59387904	25581792	24992
254	10.334627	90411008	59387904	17739064	24992
255	10.314981	90411008	59387904	26991408	24992
256	11.961982	90411008	59387904	20475712	24992
257	12.390078	90411008	59387904	31046608	24992
258	13.432152	90411008	59387904	25849520	24992
259	14.043307	90411008	59387904	21308464	24992
260	14.914322	90411008	59387904	17419872	24992
261	14.90172	90411008	59387904	30630592	24992
262	1.053622	90411008	59387904	28013464	24992
263	1.521979	90411008	59387904	29351224	24992
264	3.017906	90411008	59387904	14906312	24992
265	2.995446	90411008	59387904	17562888	24992
266	3.708641	90411008	59387904	20879376	24992
267	4.657048	90411008	59387904	24855272	24992
268	5.170865	90411008	59387904	29490568	24992
269	6.51005	90411008	59387904	18348384	24992
270	6.628467	90411008	59387904	24303448	24992
271	7.580769	90411008	59387904	30917920	24992
272	9.094268	90411008	59387904	21780320	24992
273	8.89589	90411008	59387904	29713600	24992
274	10.352024	90411008	59387904	21882264	24992
275	10.530648	90411008	59387904	31134344	24992
276	11.856637	90411008	59387904	24617840	24992
277	12.385035	90411008	59387904	18750168	24992
278	13.019098	90411008	59387904	29982320	24992
279	14.335108	90411008	59387904	25441248	24992
280	14.856197	90411008	59387904	21563696	24992
281	15.569439	90411008	59387904	18327256	24992
282	1.457299	90411008	59387904	15691752	24992
283	1.533662	90411008	59387904	17029520	24992
284	2.460773	90411008	59387904	19026688	24992
285	2.977076	90411008	59387904	21683264	24992
286	3.706457	90411008	59387904	24999752	24992
287	4.659746	90411008	59387904	28975680	24992
288	5.87807	90411008	59387904	17178632	24992
289	6.049308	90411008	59387904	22473336	24992
290	6.755546	90411008	59387904	28428464	24992
291	8.450154	90411008	59387904	18627632	24992
292	9.215194	90411008	59387904	25910568	24992
293	9.720755	90681344	59912192	17415184	24992
294	9.904067	90681344	59912192	26007936	24992
295	11.396596	90681344	59912192	18828832	24992
296	11.394696	90681344	59912192	28740320	24992
297	12.495803	90681344	59912192	22888336	24992
298	13.657555	90681344	59912192	17685096	24992
299	13.454968	90681344	59912192	29576656	24992
300	15.131441	90681344	59912192	25698288	24992
301	15.810918	90681344	59912192	22483208	24992
302	0.807137	90681344	59912192	19845096	24992
303	1.741556	90681344	59912192	21182856	24992
304	2.246712	90681344	59912192	23180024	24992
305	2.975771	90681344	59912192	25836600	24992
306	3.702532	90681344	59912192	29153088	24992
307	5.56832	90951680	59912192	16686784	24992
308	5.19585	90951680	59912192	21322112	24992
309	6.115131	90951680	59912192	26616832	24992
310	7.396728	90951680	59912192	16147360	24992
311	7.587285	90951680	59912192	22761824	24992
312	8.111692	90951680	59912192	30035696	24992
313	9.839472	90951680	59912192	21549456	24992
314	9.61823	90951680	59912192	30142128	24992
315	11.297549	90951680	59912192	22975536	24992
316	11.939819	90951680	59912192	16446240	24992
317	12.096936	90951680	59912192	27017200	24992
318	13.495886	90951680	59912192	21813744	24992
319	14.243186	90951680	59912192	17273568	24992
320	14.420867	90951680	59912192	29824880	24992
321	15.615262	90951680	59912192	26609216	24992
322	1.02316	91222016	59912192	23993272	24992
323	1.538355	91222016	59912192	25331032	24992
324	2.247666	91222016	59912192	27328200	24992
325	2.971123	91222016	59912192	29984776	24992
326	4.49597	91222016	59912192	16850280	24992
327	4.455208	91222016	59912192	20826176	24992
328	5.212312	91222016	59912192	25461472	24992
329	6.127901	91222016	59912192	30756176	24992
330	7.557949	91222016	59912192	20286248	24992
331	7.597543	91222016	59912192	26900768	24992
332	8.949796	91222016	59912192	17749216	24992
333	9.054816	91222016	59912192	25682528	24992
334	10.389465	91222016	59912192	17839992	24992
335	10.545658	91222016	59912192	27092072	24992
336	11.902794	91222016	59912192	20576656	24992
337	11.999772	91222016	59912192	31147552	24992
338	13.640883	91222016	59912192	25960944	24992
339	14.374041	91222016	59912192	21420352	24992
340	15.028499	91222016	59912192	17523296	24992
341	14.706124	91222016	59912192	30734080	24992
342	0.811704	91222016	59912192	28117752	24992
343	1.721607	91222016	59912192	29455512	24992
344	2.351999	91222016	59912192	31455088	24992
345	3.812603	91222016	59912192	17676336	24992
346	3.746719	91222016	59912192	20992824	24992
347	4.434948	91222016	59912192	24968720	24992
348	5.165211	91222016	59912192	29604016	24992
349	7.200804	91222016	59912192	18462064	24992
350	6.870765	91222016	59912192	24417128	24992
351	7.444511	91222016	59912192	31031600	24992
352	9.080241	91222016	59912192	21887232	24992
353	9.167884	91222016	59912192	29820512	24992
354	10.679388	91222016	59912192	21989288	24992
355	10.3472	91222016	59912192	31241368	24992
356	12.149574	91222016	59912192	24725456	24992
357	13.675376	91492352	60436480	18866200	24992
358	13.202016	91492352	60436480	30098352	24992
359	14.420761	91492352	60436480	25557168	24992
360	15.191022	91492352	60436480	21688416	24992
361	16.061953	91492352	60436480	18457320	24992
362	0.819563	91492352	60436480	32274104	24992
363	2.431931	91492352	60436480	17164304	24992
364	2.258593	91492352	60436480	19161472	24992
365	3.182071	91492352	60436480	21818048	24992
366	3.710109	91492352	60436480	25134536	24992
367	4.479647	91492352	60436480	29110432	24992
368	6.835747	91492352	60436480	17322984	24992
369	5.932064	91492352	60436480	22617680	24992
370	6.64651	91492352	60436480	28572776	24992
371	8.534604	91762688	60436480	18767432	24992
372	8.198569	91762688	60436480	26041304	24992
373	10.028975	91762688	60436480	17545960	24992
374	9.739715	91762688	60436480	26138752	24992
375	11.666657	91762688	60436480	18959856	24992
376	11.431046	91762688	60436480	28871344	24992
377	12.779205	91762688	60436480	23019568	24992
378	13.67212	91762688	60436480	17816784	24992
379	13.418196	91762688	60436480	29708368	24992
380	14.947273	91762688	60436480	25830224	24992
381	16.270691	91762688	60436480	22615224	24992
382	0.814456	91762688	60436480	19978008	24992
383	1.518439	91762688	60436480	21315768	24992
384	2.449075	91762688	60436480	23312936	24992
385	2.969373	91762688	60436480	25969512	24992
386	3.718341	91762688	60436480	29286000	24992
387	4.720575	91762688	60436480	33261912	24992
388	6.260766	91762688	60436480	21464000	24992
389	6.129446	91762688	60436480	26758704	24992
390	6.868814	91762688	60436480	32713832	24992
391	8.435877	92033024	60436480	22916280	24992
392	8.317746	92033024	60436480	30190152	24992
393	9.924461	92033024	60436480	21694352	24992
394	9.871455	92033024	60436480	30287040	24992
395	11.376771	92033024	60436480	23107712	24992
396	11.246914	92033024	60436480	33019248	24992
397	13.013045	92033024	60436480	27166992	24992
398	13.789346	92033024	60436480	21963752	24992
399	13.434415	92033024	60436480	33855392	24992
400	15.225462	92033024	60436480	29976352	24992
401	17.241284	92033024	60436480	26775664	24992
402	0.811652	92033024	60436480	24137552	24992
403	1.518896	92033024	60436480	25475312	24992
404	2.29616	92033024	60436480	27472480	24992
405	3.199379	92033024	60436480	30129056	24992
406	3.90745	92033024	60436480	33445544	24992
407	5.497062	92033024	60436480	20978232	24992
408	5.180476	92033024	60436480	25613576	24992
409	6.163042	92033024	60436480	30908296	24992
410	7.736323	92033024	60436480	20437200	24992
411	7.374443	92033024	60436480	27051736	24992
412	8.381072	92033024	60436480	34325608	24992
413	10.142682	92033024	60436480	25834552	24992
414	9.787159	92033024	60436480	34427224	24992
415	11.405018	92033024	60436480	27250768	24992
416	12.385638	92033024	60436480	20722344	24992
417	12.27005	92033024	60436480	31293240	24992
418	13.733137	92033024	60436480	26096904	24992
419	14.726327	92033024	60436480	21555736	24992
420	14.188543	92033024	60436480	34107144	24992
421	16.094212	92033024	60436480	30890184	24992
422	0.806338	92033024	60436480	28273664	24992
423	1.564343	92033024	60436480	29611424	24992
424	2.25298	92033024	60436480	31608656	24992
425	3.242122	92033024	60436480	34265232	24992
426	4.861705	92033024	60436480	21129312	24992
427	4.513624	92033024	60436480	25105208	24992
428	5.421712	92033024	60436480	29740504	24992
429	7.037366	92033024	60436480	18597312	24992
430	6.661628	92033024	60436480	24552384	24992
431	7.795013	92033024	60436480	31166872	24992
432	9.245205	92033024	60436480	22014040	24992
433	9.037586	92033024	60436480	29947352	24992
434	10.788646	92033024	60436480	22115520	24992
435	10.622563	92033024	60436480	31367680	24992
436	12.599481	92033024	60436480	24851288	24992
437	12.972383	92033024	60436480	18983088	24992
438	12.723606	92033024	60436480	30215304	24992
439	14.631044	92033024	60436480	25673800	24992
440	15.380558	92033024	60436480	21795704	24992
441	15.107352	92033024	60436480	35006424	24992
442	0.804339	92033024	60436480	32385136	24992
443	1.515128	92033024	60436480	33722896	24992
444	3.611878	92033024	60436480	19277568	24992
445	2.992275	92033024	60436480	21934144	24992
446	3.708281	92033024	60436480	25250632	24992
447	4.664592	92033024	60436480	29226528	24992
448	5.270176	92033024	60436480	33861824	24992
449	7.140695	92033024	60436480	22722136	24992
450	6.634111	92033024	60436480	28677200	24992
451	8.791865	92033024	60436480	18865568	24992
452	8.313173	92033024	60436480	26139440	24992
453	8.818543	92033024	60436480	34072720	24992
454	10.868908	92033024	60436480	26240496	24992
455	11.726091	92033024	60436480	19060904	24992
456	11.281557	92033024	60436480	28972384	24992
457	13.251804	92033024	60436480	23104176	24992
458	12.763058	92033024	60436480	34336328	24992
459	14.721347	92033024	60436480	29812544	24992
460	15.427568	92033024	60436480	25934144	24992
461	16.151906	92033024	60436480	22697352	24992
462	0.811166	92033024	60436480	20060008	24992
463	1.577965	92033024	60436480	21397768	24992
464	2.245629	92033024	60436480	23394936	24992
465	3.06301	92033024	60436480	26051512	24992
466	3.936326	92033024	60436480	29368000	24992
467	4.716011	92033024	60436480	33343992	24992
468	6.794988	92033024	60436480	21548808	24992
469	5.918442	92033024	60436480	26843496	24992
470	6.67392	92033024	60436480	32798544	24992
471	9.024099	92033024	60436480	22999576	24992
472	8.688966	92033024	60436480	30273432	24992
473	10.370375	92033024	60436480	21777040	24992
474	9.836606	92033024	60436480	30369696	24992
475	11.641215	92033024	60436480	23189872	24992
476	11.334633	92033024	60436480	33101344	24992
477	13.336498	92033024	60436480	27248448	24992
478	14.008114	92033024	60436480	22044760	24992
479	13.351867	92033024	60436480	33936304	24992
480	16.593569	92033024	60436480	30068472	24992
481	16.463625	92033024	60436480	26852976	24992
482	0.802001	92033024	60436480	24215024	24992
483	1.744028	92033024	60436480	25552832	24992
484	2.239074	92033024	60436480	27549984	24992
485	2.982529	92033024	60436480	30206544	24992
486	3.704153	92033024	60436480	33523016	24992
487	5.966056	92033024	60436480	21055704	24992
488	5.184556	92033024	60436480	25691016	24992
489	5.899799	92033024	60436480	30985736	24992
490	7.990364	92033024	60436480	20514624	24992
491	7.638283	92033024	60436480	27129080	24992
492	8.404662	92033024	60436480	34402936	24992
493	10.21498	92033024	60436480	25915608	24992
494	9.560948	92033024	60436480	34508264	24992
495	11.852349	92033024	60436480	27340792	24992
496	12.644491	92033024	60436480	20810072	24992
497	12.032822	92033024	60436480	31380952	24992
498	14.300632	92033024	60436480	26176728	24992
499	14.628371	92033024	60436480	21635560	24992
500	14.172767	92033024	60436480	34186856	24992
501	16.317771	92033024	60436480	30970600	24992
502	0.835143	92033024	60436480	28354272	24992
503	1.521354	92033024	60436480	29692016	24992
504	2.311165	92033024	60436480	31689168	24992
505	2.969044	92033024	60436480	34345728	24992
506	5.291796	92033024	60436480	21210432	24992
507	4.439772	92033024	60436480	25186416	24992
508	5.378723	92033024	60436480	29821688	24992
509	5.892514	92033024	60436480	35116408	24992
510	8.091312	92033024	60436480	24645056	24992
511	7.583682	92033024	60436480	31259576	24992
512	9.741419	92033024	60436480	22106728	24992
513	9.132352	92033024	60436480	30040136	24992
514	11.120404	92033024	60436480	22196880	24992
515	10.616953	92033024	60436480	31449040	24992
516	12.677741	92033024	60436480	24932632	24992
517	11.79438	92033024	60436480	35503512	24992
518	14.184686	92033024	60436480	30316040	24992
519	15.016011	92033024	60436480	25774904	24992
520	15.691388	92033024	60436480	21877032	24992
521	14.957237	92033024	60436480	35087752	24992
522	0.814166	92033024	60436480	32470976	24992
523	1.537386	92033024	60436480	33808744	24992
524	2.248325	92033024	60436480	35805888	24992
525	4.423767	92033024	60436480	22026448	24992
526	3.723497	92033024	60436480	25342920	24992
527	4.663864	92033024	60436480	29318800	24992
528	5.16385	92033024	60436480	33954080	24992
529	7.617737	92033024	60436480	22810768	24992
530	6.760548	92033024	60436480	28765816	24992
531	7.428079	92033024	60436480	35380272	24992
532	9.816413	92033024	60436480	26234720	24992
533	9.036005	92033024	60436480	34167984	24992
534	11.108212	92033024	60436480	26335864	24992
535	10.538327	92033024	60436480	35587928	24992
536	12.73939	92033024	60436480	29071296	24992
537	13.483193	92033024	60436480	23203080	24992
538	12.724712	92033024	60436480	34435232	24992
539	14.956444	92033024	60436480	29893408	24992
540	15.481361	92033024	60436480	26015280	24992
541	16.658402	92033024	60436480	22778920	24992
542	0.811155	92033024	60436480	36595800	24992
543	3.044951	92303360	60436480	21485632	24992
544	2.262602	92303360	60436480	23482784	24992
545	3.342335	92303360	60436480	26139344	24992
546	3.746529	92303360	60436480	29455816	24992
547	4.429812	92303360	60436480	33431696	24992
548	6.931023	92303360	60436480	21633624	24992
549	6.114515	92303360	60436480	26928312	24992
550	6.623323	92303360	60436480	32883424	24992
551	8.94935	92303360	60436480	23076656	24992
552	8.540016	92303360	60436480	30350512	24992
553	10.375796	92303360	60436480	21854264	24992
554	9.789295	92303360	60436480	30446952	24992
555	11.926992	92303360	60436480	23267336	24992
556	11.307149	92303360	60436480	33185608	24992
557	13.551212	92303360	60436480	27339704	24992
558	14.299271	92303360	60436480	22142736	24992
559	13.46268	92303360	60436480	34034312	24992
560	15.601956	92303360	60436480	30155640	24992
561	16.487906	92303360	60436480	26940064	24992
562	0.801471	92303360	60436480	24302192	24992
563	1.524325	92303360	60436480	25639936	24992
564	2.239128	92303360	60436480	27637088	24992
565	2.977432	92303360	60436480	30293648	24992
566	3.93564	92303360	60436480	33610120	24992
567	4.429551	92303360	60436480	37586000	24992
568	6.978925	92303360	60436480	25787032	24992
569	5.904189	92303360	60436480	31081720	24992
570	6.69437	92303360	60436480	37036784	24992
571	8.963113	92303360	60436480	27236944	24992
572	8.31875	92303360	60436480	34510800	24992
573	10.727753	92303360	60436480	26014008	24992
574	9.953795	92303360	60436480	34606680	24992
575	12.226395	92303360	60436480	27426600	24992
576	11.305795	92303360	60436480	37338216	24992
577	13.729397	92303360	60436480	31484680	24992
578	14.33296	92303360	60436480	26280896	24992
579	15.099287	92303360	60436480	21721552	24992
580	14.169793	92303360	60436480	34272856	24992
581	16.581115	92303360	60436480	31056776	24992
582	1.011945	92303360	60436480	28440672	24992
583	1.53707	92303360	60436480	29778416	24992
584	2.30301	92303360	60436480	31775568	24992
585	2.962017	92303360	60436480	34432128	24992
586	3.756234	92303360	60436480	37748600	24992
587	6.272973	92303360	60436480	25280600	24992
588	5.180826	92303360	60436480	29915880	24992
589	5.905579	92303360	60436480	35210648	24992
590	8.547303	92303360	60436480	24739472	24992
591	7.411617	92303360	60436480	31353976	24992
592	10.351127	92303360	60436480	22193032	24992
593	9.266912	92303360	60436480	30126376	24992
594	11.48065	92303360	60436480	22283248	24992
595	10.402393	92303360	60436480	31535376	24992
596	12.989563	92303360	60436480	25019480	24992
597	12.095104	92303360	60436480	35590360	24992
598	14.407769	92303360	60436480	30402888	24992
599	15.149913	92303360	60436480	25861720	24992
600	14.00356	92303360	60436480	38413080	24992
601	17.094469	92303360	60436480	35182984	24992
602	0.806978	92303360	60436480	32566336	24992
603	1.518267	92303360	60436480	33904080	24992
604	2.476229	92303360	60436480	35901264	24992
605	2.982455	92303360	60436480	38557824	24992
606	5.395628	92303360	60436480	25432384	24992
607	4.652173	92303360	60436480	29408264	24992
608	5.220759	92303360	60436480	34043544	24992
609	7.637583	92303360	60436480	22900328	24992
610	6.772951	92303360	60436480	28855376	24992
611	7.711348	92303360	60436480	35469848	24992
612	10.118321	92303360	60436480	26319160	24992
613	8.988418	92303360	60436480	34252488	24992
614	11.68823	92303360	60436480	26420480	24992
615	10.491129	92303360	60436480	35672544	24992
616	12.838296	92303360	60436480	29156056	24992
617	13.955343	92303360	60436480	23287840	24992
618	13.03183	92303360	60436480	34520008	24992
619	15.479629	92303360	60436480	29978376	24992
620	15.974848	92303360	60436480	26100152	24992
621	16.819547	92303360	60436480	22864240	24992
622	0.846383	92303360	60436480	36681008	24992
623	1.600055	92303360	60436480	38018752	24992
624	4.265842	92303360	60436480	23573400	24992
625	3.03874	92303360	60436480	26229960	24992
626	3.749908	92303360	60436480	29546432	24992
627	4.654869	92303360	60436480	33522312	24992
628	5.162317	92303360	60436480	38157592	24992
629	7.758737	92303360	60436480	27029384	24992
630	6.641794	92303360	60436480	32984432	24992
631	9.581596	92303360	60436480	23172736	24992
632	8.114614	92303360	60436480	30446592	24992
633	9.041775	92303360	60436480	38379968	24992
634	11.575311	92303360	60436480	30547056	24992
635	12.114052	92303360	60436480	23367456	24992
636	11.068902	92303360	60436480	33278928	24992
637	13.999485	92303360	60436480	27410496	24992
638	12.574897	92303360	60436480	38642792	24992
639	15.463874	92303360	60436480	34118288	24992
640	15.984	92303360	60436480	30239712	24992
641	17.060174	92303360	60436480	27002904	24992
642	0.803585	92303360	60436480	24365496	24992
643	1.518656	92303360	60436480	25703240	24992
644	2.260939	92303360	60436480	27700392	24992
645	2.972663	92303360	60436480	30356952	24992
646	3.930455	92303360	60436480	33673424	24992
647	4.695826	92303360	60436480	37649304	24992
648	7.229356	92303360	60436480	25851008	24992
649	6.33009	92303360	60436480	31145696	24992
650	6.627546	92303360	60436480	37100776	24992
651	9.4891	92303360	60436480	27301624	24992
652	8.133711	92303360	60436480	34575480	24992
653	10.948136	92303360	60436480	26078800	24992
654	9.573107	92303360	60436480	34671584	24992
655	12.401113	92303360	60436480	27491536	24992
656	11.278389	92303360	60436480	37403008	24992
657	14.077778	92303360	60436480	31550112	24992
658	14.3913	92303360	60436480	26346344	24992
659	13.559832	92303360	60436480	38237888	24992
660	16.100466	92303360	60436480	34358976	24992
661	16.807243	92303360	60436480	31142904	24992
662	0.806479	92303360	60436480	28504584	24992
663	1.525032	92303360	60436480	29842344	24992
664	2.241232	92303360	60436480	31839496	24992
665	2.982065	92303360	60436480	34496056	24992
666	3.698683	92303360	60436480	37812528	24992
667	6.548209	92303360	60436480	25345264	24992
668	5.163702	92303360	60436480	29980544	24992
669	6.118473	92303360	60436480	35275376	24992
670	8.777397	92303360	60436480	24804248	24992
671	7.376815	92303360	60436480	31418704	24992
672	8.399139	92303360	60436480	38692560	24992
673	10.994111	92303360	60436480	30205232	24992
674	9.615144	92303360	60436480	38797920	24992
675	12.253995	92303360	60436480	31630448	24992
676	13.187989	92303360	60436480	25099712	24992
677	12.182533	92303360	60436480	35670608	24992
678	16.190206	92303360	60436480	30479280	24992
679	15.250882	92303360	60436480	25937632	24992
680	14.548783	92303360	60436480	38488928	24992
681	16.967016	92303360	60436480	35271240	24992
682	0.819836	92303360	60436480	32653280	24992
683	1.518683	92303360	60436480	33991024	24992
684	2.450266	92303360	60436480	35988176	24992
685	2.974107	92303360	60436480	38644736	24992
686	5.647341	92303360	60436480	25506600	24992
687	4.495374	92303360	60436480	29482480	24992
688	5.198079	92303360	60436480	34117792	24992
689	5.924115	92303360	60436480	39412544	24992
690	8.743963	92303360	60436480	28936960	24992
691	7.644734	92303360	60436480	35551496	24992
692	10.410579	92303360	60436480	26395816	24992
693	8.850319	92303360	60436480	34329096	24992
694	11.751048	92303360	60436480	26483952	24992
695	10.293431	92303360	60436480	35736080	24992
696	13.439865	92303360	60436480	29217848	24992
697	11.949421	92303360	60436480	39788728	24992
698	14.687979	92303360	60436480	34598760	24992
699	15.300867	92303360	60436480	30056072	24992
700	16.236062	92303360	60436480	26156960	24992
701	15.108678	92303360	60436480	39367680	24992
702	0.817862	92303360	60436480	36749552	24992
703	1.520516	92303360	60436480	38087296	24992
704	2.272611	92303360	60436480	40084512	24992
705	4.97784	92303360	60436480	26301536	24992
706	3.715812	92303360	60436480	29618024	24992
707	4.636994	92303360	60436480	33593904	24992
708	5.360889	92303360	60436480	38229184	24992
709	8.103386	92303360	60436480	27081984	24992
710	6.643371	92303360	60436480	33037032	24992
711	7.543033	92303360	60436480	39651552	24992
712	10.336387	92303360	60436480	30502704	24992
713	9.081282	92303360	60436480	38436000	24992
714	11.805267	92303360	60436480	30601408	24992
715	10.308854	92303360	60436480	39853472	24992
716	13.286717	92303360	60436480	33334952	24992
717	14.060491	92303360	60436480	27465312	24992
718	12.703149	92303360	60436480	38697512	24992
719	15.35807	92303360	60436480	34154256	24992
720	16.449553	92303360	60436480	30274864	24992
721	17.20539	92303360	60436480	27037568	24992
722	0.814108	92303360	60436480	40854368	24992
723	3.565587	92303360	60436480	25741632	24992
724	2.461047	92303360	60436480	27738784	24992
725	2.978794	92303360	60436480	30395344	24992
726	3.710053	92303360	60436480	33711816	24992
727	4.860835	92303360	60436480	37687696	24992
728	7.284136	92303360	60436480	25885856	24992
729	6.154062	92303360	60436480	31180544	24992
730	6.705604	92303360	60436480	37135592	24992
731	9.66994	92303360	60436480	27325056	24992
732	8.306	92303360	60436480	34598912	24992
733	11.108247	92303360	60436480	26100304	24992
734	9.640621	92303360	60436480	34692960	24992
735	12.850603	92303360	60960768	27511456	24992
736	11.232411	92303360	60960768	37422928	24992
737	14.106084	92303360	60960768	31568288	24992
738	14.828173	92303360	60960768	26363112	24992
739	13.477102	92303360	60960768	38254656	24992
740	16.470966	92303360	60960768	34374472	24992
741	16.987168	92303360	60960768	31157408	24992
742	0.805685	92303360	60960768	28518200	24992
743	1.722247	92303360	60960768	29855944	24992
744	2.242997	92303360	60960768	31853096	24992
745	2.978029	92303360	60960768	34509656	24992
746	3.901696	92303360	60960768	37826128	24992
747	6.60995	92303360	60960768	25355728	24992
748	5.171116	92303360	60960768	29991000	24992
749	6.083521	92303360	60960768	35285688	24992
750	6.622631	92303360	60960768	41240752	24992
751	9.744354	92303360	60960768	31436200	24992
752	8.305314	92303360	60960768	38710056	24992
753	11.257176	92573696	61485056	30220024	24992
754	9.581084	92573696	61485056	38812744	24992
755	12.844885	92573696	61485056	31630696	24992
756	11.245091	92573696	61485056	41542168	24992
757	14.143752	92573696	61485056	35683064	24992
758	14.690868	92573696	61485056	30478128	24992
759	15.81339	92573696	61485056	25921536	24992
760	14.163156	92573696	61485056	38472832	24992
761	17.106749	92844032	61485056	35255240	24992
762	0.842714	92844032	61485056	32637712	24992
763	1.527087	92844032	61485056	33975472	24992
764	2.250648	92844032	61485056	35972624	24992
765	2.969561	92844032	61485056	38629184	24992
766	3.699879	92844032	61485056	41945656	24992
767	6.642251	92844032	61485056	29465296	24992
768	5.215952	92844032	61485056	34100576	24992
769	5.897407	92844032	61485056	39395264	24992
770	9.063682	92844032	61485056	28919688	24992
771	7.418456	92844032	61485056	35534144	24992
772	10.538382	92844032	61485056	26378408	24992
773	9.038044	92844032	61485056	34311672	24992
774	12.186518	92844032	61485056	26466576	24992
775	10.54759	92844032	61485056	35718656	24992
776	13.474484	92844032	61485056	29200840	24992
777	11.979007	93114368	61485056	39771752	24992
778	14.965506	93114368	61485056	34582376	24992
779	15.911247	93114368	61485056	30039784	24992
780	16.952018	93114368	61485056	26141384	24992
781	15.038564	93114368	61485056	39352112	24992
782	0.816872	93114368	61485056	36734032	24992
783	1.574939	93114368	61485056	38071776	24992
784	2.249104	93114368	61485056	40068928	24992
785	5.39086	93114368	61485056	26286632	24992
786	3.72486	93114368	61485056	29603112	24992
787	4.49186	93114368	61485056	33578992	24992
788	5.363231	93114368	61485056	38214336	24992
789	8.177744	93114368	62009344	27067616	24992
790	6.849553	93114368	62009344	33022664	24992
791	7.56523	93384704	62009344	39637152	24992
792	10.732452	93384704	62009344	30488432	24992
793	9.050555	93384704	62009344	38421696	24992
794	12.193677	93384704	62533632	30587328	24992
795	10.630829	93384704	62533632	39839440	24992
796	13.708854	93384704	62533632	33320968	24992
797	14.329409	93384704	62533632	27451328	24992
798	12.90448	93384704	62533632	38683512	24992
799	15.730467	93384704	62533632	34140464	24992
800	16.468844	93655040	62533632	30260832	24992
801	17.39104	93655040	62533632	27024016	24992
802	0.804243	93655040	62533632	40840768	24992
803	1.531629	93655040	62533632	42178512	24992
804	4.593583	93655040	62533632	27730192	24992
805	2.982716	93655040	62533632	30386752	24992
806	3.709495	93655040	62533632	33703240	24992
807	4.622163	93655040	62533632	37679120	24992
808	5.159168	93655040	62533632	42314400	24992
809	8.417811	93655040	62533632	31181264	24992
810	6.68779	93655040	62533632	37136312	24992
811	9.701671	93655040	62533632	27321088	24992
812	8.500142	93655040	62533632	34595008	24992
813	9.041555	93655040	62533632	42528288	24992
814	12.049552	93655040	62533632	34693024	24992
815	13.0025	93925376	62533632	27511712	24992
816	11.339826	93925376	62533632	37423176	24992
817	14.103963	93925376	62533632	31553328	24992
818	12.712479	93925376	62533632	42785464	24992
819	15.825052	93925376	62533632	38254192	24992
820	16.529602	93925376	62533632	34374112	24992
821	17.389202	93925376	62533632	31139232	24992
822	1.102661	93925376	62533632	28500872	24992
823	1.530013	93925376	62533632	29838616	24992
824	2.260525	93925376	62533632	31835768	24992
825	2.969574	93925376	62533632	34492360	24992
826	3.703758	93925376	62533632	37808832	24992
827	4.62077	93925376	62533632	41784824	24992
828	7.594936	93925376	62533632	29982760	24992
829	5.929663	93925376	62533632	35277448	24992
830	6.805533	94195712	62533632	41232496	24992
831	9.868463	94195712	63057920	31428616	24992
832	8.322692	94195712	63057920	38702472	24992
833	11.461517	94195712	63057920	30203416	24992
834	9.80264	94195712	63057920	38796072	24992
835	12.679464	94195712	63057920	31614120	24992
836	11.27881	94195712	63057920	41525592	24992
837	14.541887	94195712	63057920	35670712	24992
838	15.0925	94195712	63057920	30465584	24992
839	13.248124	94195712	63057920	42357128	24992
840	16.7955	94466048	63057920	38476816	24992
841	17.12165	94466048	63057920	35259320	24992
842	0.854138	94466048	63057920	32620064	24992
843	1.52938	94466048	63057920	33957808	24992
844	2.287248	94466048	63057920	35954960	24992
845	2.975998	94466048	63057920	38611520	24992
846	3.88823	94466048	63057920	41927992	24992
847	6.832242	94466048	63057920	29457360	24992
848	5.412806	94466048	63057920	34092704	24992
849	5.906171	94466048	63057920	39387392	24992
850	9.358923	94466048	63057920	28932792	24992
851	7.571366	94466048	63057920	35547248	24992
852	8.101391	94466048	63057920	42821104	24992
853	11.492969	94466048	63057920	34341280	24992
854	9.791328	94466048	63057920	42933968	24992
855	12.919398	94736384	63057920	35763400	24992
856	13.732046	94736384	63057920	29231176	24992
857	11.970325	94736384	63057920	39802056	24992
858	15.14179	94736384	63057920	34596416	24992
859	15.905582	94736384	63582208	30053824	24992
860	14.356237	94736384	63582208	42605120	24992
861	17.417889	94736384	63582208	39387416	24992
862	0.818116	94736384	63582208	36769440	24992
863	1.52918	94736384	63582208	38107184	24992
864	2.263188	95006720	63582208	40104336	24992
865	3.229717	95006720	63582208	42760896	24992
866	6.156988	95006720	63582208	29622760	24992
867	4.634396	95006720	63582208	33598640	24992
868	5.178098	95006720	63582208	38233920	24992
869	5.921208	95006720	63582208	43528608	24992
870	9.380665	95006720	63582208	33054552	24992
871	7.58173	95006720	63582208	39669008	24992
872	10.763391	95006720	63582208	30513328	24992
873	8.843989	95006720	63582208	38446592	24992
874	12.253278	95006720	63582208	30601240	24992
875	10.69016	95006720	63582208	39853336	24992
876	13.54199	95006720	64106496	33335152	24992
877	12.00989	95006720	64106496	43906080	24992
878	15.277251	95277056	64106496	38716032	24992
879	15.726158	95277056	64106496	34173328	24992
880	16.877834	95277056	64106496	30274040	24992
881	14.964134	95277056	64106496	43484936	24992
882	0.808146	95277056	64106496	40866744	24992
883	1.581215	95277056	64106496	42204488	24992
884	2.24465	95277056	64106496	44201640	24992
885	5.557717	95277056	64106496	30418664	24992
886	3.949613	95277056	64106496	33735136	24992
887	4.652559	95277056	64106496	37711016	24992
888	5.212945	95277056	64106496	42346296	24992
889	8.582164	95277056	64106496	31199144	24992
890	6.668581	95277056	64106496	37154192	24992
891	7.374714	95277056	64106496	43768680	24992
892	10.821605	95277056	64106496	34619144	24992
893	9.046246	95277056	64106496	42552440	24992
894	12.151915	95547392	64106496	34717848	24992
895	10.3168	95547392	64106496	43969928	24992
896	13.786757	95547392	64106496	37450736	24992
897	14.566127	95547392	64106496	31581096	24992
898	12.717033	95547392	64106496	42813232	24992
899	16.142232	95547392	64106496	38269960	24992
900	16.737666	95547392	64106496	34390376	24992
901	17.461937	95547392	64106496	31152744	24992
902	3.33194	95817728	64106496	28515616	24992
903	1.549229	95817728	64106496	29853368	24992
904	2.250141	95817728	64106496	31850776	24992
905	3.159833	95817728	64106496	34507336	24992
906	3.755333	95817728	64106496	37823824	24992
907	4.477728	95817728	64106496	41799704	24992
908	7.92911	95817728	64106496	29997744	24992
909	5.926034	95817728	64106496	35292432	24992
910	6.830053	95817728	64106496	41247480	24992
911	10.021259	95817728	64106496	31440792	24992
912	8.372442	95817728	64106496	38714680	24992
913	11.634289	95817728	64630784	30216136	24992
914	9.773277	95817728	64630784	38808792	24992
915	12.884359	95817728	64630784	31627304	24992
916	11.412847	95817728	64630784	41538776	24992
917	14.841993	95817728	64630784	35684136	24992
918	15.159523	96088064	65155072	30478992	24992
919	13.444283	96088064	65155072	42370552	24992
920	16.816854	96088064	65155072	38490320	24992
921	17.580183	96088064	65155072	35273256	24992
922	0.815684	96088064	65155072	32634032	24992
923	1.548591	96088064	65155072	33971776	24992
924	2.250285	96088064	65155072	35968928	24992
925	2.969436	96088064	65155072	38625488	24992
926	3.703116	96088064	65155072	41941960	24992
927	7.366506	96088064	65155072	29471456	24992
928	5.185172	96088064	65155072	34106736	24992
929	6.103324	96088064	65155072	39401424	24992
930	9.465611	96088064	65155072	28926280	24992
931	7.385305	96088064	65155072	35541016	24992
932	8.306434	96088064	65155072	42814864	24992
933	11.490541	96358400	65155072	34324712	24992
934	9.931175	96358400	65155072	42917368	24992
935	13.305862	96358400	65155072	35747488	24992
936	13.971766	96358400	65155072	29215256	24992
937	11.965098	96358400	65155072	39786128	24992
938	15.543962	96358400	65155072	34580776	24992
939	16.320645	96358400	65155072	30038664	24992
940	13.973383	96358400	65155072	42589992	24992
941	17.594868	96358400	65155072	39372384	24992
942	0.807635	96628736	65155072	36754936	24992
943	1.525531	96628736	65155072	38092680	24992
944	2.248674	96628736	65155072	40089832	24992
945	3.200945	96628736	65155072	42746392	24992
946	6.378915	96628736	65155072	29608368	24992
947	4.709328	96628736	65155072	33584296	24992
948	5.199463	96628736	65155072	38219640	24992
949	5.894294	96628736	65155072	43514328	24992
950	9.305252	96628736	65155072	33038760	24992
951	7.580959	96628736	65155072	39653216	24992
952	11.195218	96628736	65155072	30497984	24992
953	8.862171	96628736	65155072	38431248	24992
954	12.447977	96628736	65155072	30586104	24992
955	10.301389	96628736	65155072	39838168	24992
956	13.975548	96628736	65679360	33320096	24992
957	12.047512	96899072	65679360	43890992	24992
958	15.493955	96899072	65679360	38701616	24992
959	15.949215	96899072	65679360	34159040	24992
960	17.0784	96899072	65679360	30260632	24992
961	14.947016	96899072	65679360	43471416	24992
962	0.820882	96899072	65679360	40853224	24992
963	1.562852	96899072	65679360	42191000	24992
964	2.249921	96899072	65679360	44188152	24992
965	5.641082	96899072	65679360	30405848	24992
966	3.940503	96899072	65679360	33722320	24992
967	4.495174	96899072	65679360	37698296	24992
968	5.204597	96899072	65679360	42333576	24992
969	8.623488	96899072	65679360	31186584	24992
970	6.859359	96899072	65679360	37141632	24992
971	7.383726	96899072	65679360	43756088	24992
972	11.066641	97169408	65679360	34607208	24992
973	8.866585	97169408	65679360	42540472	24992
974	12.552659	97169408	65679360	34706136	24992
975	10.557229	97169408	65679360	43958264	24992
976	14.001201	97169408	65679360	37439792	24992
977	14.745709	97169408	65679360	31570168	24992
978	12.800639	97169408	65679360	42802304	24992
979	16.190764	97169408	65679360	38259272	24992
980	16.967296	97439744	66203648	34379624	24992
981	18.015516	97439744	66203648	31142872	24992
982	0.804902	97439744	66203648	44959592	24992
983	1.53946	97439744	66203648	46297336	24992
984	5.025007	97439744	66203648	31848952	24992
985	3.002418	97439744	66203648	34505528	24992
986	3.70022	97439744	66203648	37822000	24992
987	4.485278	97439744	66203648	41797880	24992
988	5.207856	97439744	66203648	46433160	24992
989	8.949051	97439744	66203648	35296600	24992
990	6.650192	97439744	66203648	41251648	24992
991	10.162238	97439744	66203648	31436280	24992
992	8.115994	97439744	66203648	38710136	24992
993	11.592393	97439744	66203648	30205184	24992
994	9.602876	97439744	66203648	38797848	24992
995	13.166611	97439744	66203648	31616376	24992
996	11.264749	97439744	66203648	41527960	24992
997	14.821475	97710080	66203648	35673320	24992
998	15.363777	97710080	66203648	30468576	24992
999	13.439345	97710080	66203648	42360120	24992
1000	17.257261	97710080	66203648	38480016	24992
