x	Duration	RSS	HeapTotal	HeapUsed	External
0	NA	104464384	73019392	32416864	24992
1	2.586707	104464384	73019392	33093640	24992
2	5.88564	104464384	73019392	17996240	24992
3	4.689543	104464384	73019392	19993352	24992
4	3.084503	104464384	73019392	22649872	24992
5	4.338205	104464384	73019392	25966336	24992
6	4.884666	104464384	73019392	29950952	24992
7	6.276547	104464384	73019392	18169208	24992
8	6.261968	104464384	73019392	23463856	24992
9	7.055566	104464384	73019392	29418896	24992
10	8.66996	104464384	73019392	19613904	24992
11	8.491024	104464384	73019392	26887720	24992
12	10.149359	104464384	73019392	18392560	24992
13	9.790194	104464384	73019392	26985256	24992
14	11.691799	104464384	73019392	19806608	24992
15	11.434292	104464384	73019392	29718040	24992
16	13.211886	104464384	73019392	23866144	24992
17	13.947593	104464384	73019392	18663008	24992
18	13.636209	104464384	73019392	30554512	24992
19	15.447597	104464384	73019392	26677072	24992
20	16.19015	104464384	73019392	23462536	24992
21	17.160536	104464384	73019392	20888112	24992
22	0.823791	104464384	73019392	18908872	24992
23	1.548624	104464384	73019392	20246688	24992
24	2.474814	104464384	73019392	22243912	24992
25	3.027037	104464384	73019392	24900528	24992
26	3.765317	104464384	73019392	28217200	24992
27	4.697995	104464384	73019392	32193136	24992
28	6.347366	104464384	73019392	20397032	24992
29	6.277814	104464384	73019392	25691776	24992
30	7.107076	104464384	73019392	31646896	24992
31	8.96461	104464384	73019392	21849912	24992
32	8.426076	104464384	73019392	29123840	24992
33	10.207268	104464384	73019392	20628408	24992
34	9.77962	104464384	73019392	29221296	24992
35	11.950535	104464384	73019392	22042320	24992
36	11.58921	104464384	73019392	31953856	24992
37	13.417175	104464384	73019392	26101832	24992
38	13.971533	104464384	73019392	20898808	24992
39	13.627271	104464384	73019392	32790488	24992
40	15.554214	104464384	73019392	28912360	24992
41	16.09331	104464384	73019392	25697240	24992
42	0.819778	104464384	73019392	23059304	24992
43	1.54923	104464384	73019392	24397120	24992
44	2.289538	104464384	73019392	26394328	24992
45	3.183933	104464384	73019392	29051680	24992
46	3.792422	104464384	73019392	32368224	24992
47	5.773656	104464384	73019392	19902816	24992
48	5.439454	104464384	73019392	24538152	24992
49	5.992814	104464384	73019392	29832896	24992
50	7.857868	104464384	73019392	19364344	24992
51	7.688006	104464384	73019392	25978856	24992
52	8.213376	104464384	73019392	33252768	24992
53	10.275569	104464384	73019392	24766864	24992
54	9.733901	104464384	73019392	33359592	24992
55	11.881967	104464384	73019392	26193256	24992
56	12.537633	104464384	73019392	19663168	24992
57	11.959038	104464384	73019392	30234104	24992
58	14.047431	104464384	73019392	25030616	24992
59	14.795022	104464384	73019392	20490160	24992
60	14.526473	104464384	73019392	33041528	24992
61	16.454465	104464384	73019392	29825944	24992
62	0.832669	104464384	73019392	27210056	24992
63	1.59958	104464384	73019392	28547872	24992
64	2.325956	104464384	73019392	30545080	24992
65	3.089722	104464384	73019392	33201696	24992
66	4.967823	104464384	73019392	20067408	24992
67	4.608219	104464384	73019392	24043360	24992
68	5.3492	104464384	73019392	28678696	24992
69	6.099796	104464384	73019392	33973440	24992
70	8.051313	104464384	73019392	23504144	24992
71	7.500749	104464384	73019392	30118656	24992
72	9.416379	104464384	73019392	20967224	24992
73	8.978972	104464384	73019392	28900544	24992
74	10.98153	104464384	73019392	21058352	24992
75	10.723743	104464384	73019392	30310488	24992
76	12.829821	104464384	73019392	23795032	24992
77	12.057092	104464384	73019392	34366128	24992
78	14.123996	104464384	73019392	29179608	24992
79	14.829446	104464384	73019392	24639152	24992
80	15.699419	104464384	73019392	20741952	24992
81	15.499184	104464384	73019392	33953920	24992
82	0.825371	104464384	73019392	31337968	24992
83	1.558642	104464384	73019392	32675712	24992
84	2.275625	104464384	73019392	34673984	24992
85	4.389303	104464384	73019392	20896744	24992
86	3.781717	104464384	73019392	24213200	24992
87	4.710028	104464384	73019392	28189064	24992
88	5.454564	104464384	73019392	32824408	24992
89	7.310038	104464384	73019392	21683432	24992
90	6.738485	104464384	73019392	27638464	24992
91	7.665386	104464384	73019392	34252904	24992
92	9.677033	104464384	73019392	25108504	24992
93	8.990598	104464384	73019392	33041840	24992
94	11.144279	104464384	73019392	25210448	24992
95	10.702203	104464384	73019392	34462512	24992
96	12.647318	104464384	73019392	27946536	24992
97	13.53124	104464384	73019392	22078896	24992
98	12.963859	104464384	73019392	33311016	24992
99	15.279595	104464384	73019392	28769656	24992
100	15.832899	104464384	73019392	24891896	24992
101	16.268992	104464384	73019392	21655888	24992
102	0.822381	104464384	73019392	35472608	24992
103	2.810374	104464384	73019392	20362056	24992
104	2.29384	104464384	73019392	22359192	24992
105	3.016429	104464384	73019392	25015736	24992
106	3.763773	104464384	73019392	28332256	24992
107	4.506448	104464384	73019392	32308120	24992
108	6.745454	104464384	73019392	20511056	24992
109	6.0076	104464384	73019392	25805728	24992
110	6.911459	104464384	73019392	31760760	24992
111	8.985617	104464384	73019392	21955400	24992
112	8.265661	104464384	73019392	29229240	24992
113	10.312059	104464384	73019392	20733888	24992
114	9.919666	104464384	73019392	29326528	24992
115	12.165093	104464384	73019392	22147600	24992
116	11.691305	104464384	73019392	32059104	24992
117	13.71864	104464384	73019392	26206992	24992
118	14.101428	104464384	73019392	21003752	24992
119	13.668248	104464384	73019392	32895296	24992
120	15.917617	104464384	73019392	29017024	24992
121	16.401026	104464384	73019392	25801928	24992
122	1.020486	104464384	73019392	23163784	24992
123	1.54887	104464384	73019392	24501512	24992
124	2.47285	104464384	73019392	26498648	24992
125	3.066846	104464384	73019392	29155272	24992
126	3.800009	104464384	73019392	32471728	24992
127	6.226352	104464384	73019392	20005464	24992
128	5.37762	104464384	73019392	24640720	24992
129	6.212834	104464384	73019392	29935392	24992
130	6.920346	104464384	73019392	35890424	24992
131	8.887706	104464384	73019392	26092128	24992
132	8.286759	104464384	73019392	33366000	24992
133	10.557131	104464384	73019392	24879808	24992
134	9.90661	104464384	73019392	33472448	24992
135	11.85327	104464384	73019392	26292944	24992
136	11.542206	104464384	73019392	36204400	24992
137	13.693431	104464384	73019392	30351392	24992
138	14.110088	104464384	73019392	25148152	24992
139	15.377637	104464384	73019392	20589272	24992
140	14.361449	104464384	73019392	33140560	24992
141	16.666075	104464384	73019392	29924960	24992
142	0.829915	104464384	73019392	27312904	24992
143	1.567123	104464384	73019392	28650632	24992
144	2.496397	104464384	73019392	30647768	24992
145	3.169981	104464384	73019392	33304312	24992
146	3.766066	104464384	73019392	36620768	24992
147	6.172235	104464384	73019392	24155432	24992
148	5.262538	104464384	73019392	28790696	24992
149	5.990085	104464384	73019392	34085368	24992
150	8.26473	104464384	73019392	23615216	24992
151	7.678873	104464384	73019392	30229656	24992
152	9.866348	104464384	73019392	21069544	24992
153	8.99644	104464384	73019392	29002792	24992
154	11.544333	104464384	73019392	21160224	24992
155	10.487513	104464384	73019392	30412272	24992
156	12.899317	104464384	73019392	23896968	24992
157	11.958225	104464384	73019392	34467848	24992
158	14.430617	104464384	73019392	29281016	24992
159	15.189608	104464384	73019392	24740312	24992
160	15.819003	104464384	73019392	20843160	24992
161	15.360464	104464384	73019392	34053928	24992
162	0.820584	104464384	73019392	31437616	24992
163	1.554802	104464384	73019392	32775344	24992
164	2.270446	104464384	73019392	34772480	24992
165	4.860365	104464384	73019392	20993672	24992
166	3.782855	104464384	73019392	24310136	24992
167	4.683167	104464384	73019392	28286016	24992
168	5.24366	104464384	73019392	32921280	24992
169	7.570012	104464384	73019392	21779248	24992
170	6.871195	104464384	73019392	27734344	24992
171	7.738735	104464384	73019392	34348784	24992
172	9.998033	104464384	73019392	25204496	24992
173	8.983601	104464384	73019392	33137744	24992
174	11.509165	104464384	73019392	25306584	24992
175	10.707071	104464384	73019392	34558936	24992
176	13.064353	104464384	73019392	28043184	24992
177	13.681772	104464384	73019392	22175448	24992
178	13.069478	104464384	73019392	33407568	24992
179	15.401965	104464384	73019392	28866528	24992
180	16.140081	104464384	73019392	24988768	24992
181	16.977072	104464384	73019392	21753176	24992
182	0.817349	104464384	73019392	35569896	24992
183	1.552464	104464384	73019392	36907624	24992
184	3.848141	104464384	73019392	22462080	24992
185	3.086385	104464384	73019392	25118624	24992
186	3.834022	104464384	73019392	28435080	24992
187	4.60149	104464384	73019392	32410944	24992
188	5.708306	104464384	73019392	37046288	24992
189	7.84064	104464384	73019392	25918576	24992
190	6.882561	104464384	73019392	31873608	24992
191	9.156939	104464384	73019392	22062888	24992
192	8.556105	104464384	73019392	29336728	24992
193	9.056552	104464384	73019392	37269976	24992
194	11.766466	104464384	73019392	29437896	24992
195	12.102007	104464384	73019392	22259000	24992
196	11.454688	104464384	73019392	32170496	24992
197	13.942334	104464384	73019392	26302536	24992
198	12.724956	104464384	73019392	37534704	24992
199	15.309571	104464384	73019392	33010840	24992
200	16.015163	104464384	73019392	29132664	24992
201	16.94401	104464384	73019392	25896224	24992
202	1.010382	104464384	73019392	23259008	24992
203	1.552506	104464384	73019392	24596736	24992
204	2.272114	104464384	73019392	26593872	24992
205	3.03279	104464384	73019392	29250416	24992
206	3.834477	104464384	73019392	32566904	24992
207	4.503374	104464384	73019392	36542768	24992
208	7.101917	104464384	73019392	24745480	24992
209	6.01297	104464384	73019392	30040152	24992
210	6.726388	104464384	73019392	35995184	24992
211	9.374044	104464384	73019392	26197664	24992
212	8.547874	104464384	73019392	33471520	24992
213	10.627289	104464384	73019392	24975656	24992
214	9.966764	104464384	73019392	33568296	24992
215	12.325663	104464384	73019392	26388888	24992
216	11.400273	104464384	73019392	36300344	24992
217	13.624923	104464384	73019392	30448008	24992
218	14.884085	104464384	73019392	25244784	24992
219	13.439215	104464384	73019392	37136360	24992
220	16.096534	104464384	73019392	33257976	24992
221	16.900721	104464384	73019392	30042368	24992
222	0.821142	104464384	73019392	27404288	24992
223	1.554268	104464384	73019392	28742016	24992
224	2.27999	104464384	73019392	30739192	24992
225	3.222841	104464384	73019392	33395728	24992
226	3.771242	104464384	73019392	36712184	24992
227	6.211934	104464384	73019392	24245688	24992
228	5.286827	104464384	73019392	28880952	24992
229	5.983115	104464384	73019392	34178504	24992
230	8.70162	104464384	73019392	23711616	24992
231	7.755505	104464384	73019392	30326056	24992
232	8.314499	104464384	73019392	37599896	24992
233	10.945963	104464384	73019392	29116472	24992
234	9.970035	104464384	73019392	37709224	24992
235	12.376413	104464384	73019392	30542632	24992
236	13.039924	104464384	73019392	24012296	24992
237	12.212992	104464384	73019392	34583160	24992
238	14.83651	104464384	73019392	29379912	24992
239	15.768266	104464384	73019392	24839272	24992
240	14.543124	104464384	73019392	37390808	24992
241	16.92889	104464384	73019392	34174968	24992
242	0.826092	104464384	73019392	31558784	24992
243	1.562563	104464384	73019392	32896512	24992
244	2.278138	104464384	73019392	34893648	24992
245	3.210496	104464384	73019392	37550192	24992
246	5.530127	104464384	73019392	24415536	24992
247	4.705793	104464384	73019392	28391448	24992
248	5.319084	104464384	73019392	33026712	24992
249	6.373111	104464384	73019392	38321384	24992
250	8.600892	104464384	73019392	27850720	24992
251	7.935818	104464384	73019392	34465192	24992
252	10.209519	104464384	73019392	25313352	24992
253	9.294936	104464384	73019392	33246600	24992
254	11.65149	104464384	73019392	25403808	24992
255	10.650244	104464384	73019392	34655856	24992
256	13.442878	104464384	73019392	28140104	24992
257	12.159674	104464384	73019392	38711016	24992
258	14.87688	104464384	73019392	33523512	24992
259	15.504626	104464384	73019392	28982600	24992
260	16.457389	104464384	73019392	25084552	24992
261	15.324966	104464384	73019392	38295272	24992
262	0.820603	104464384	73019392	35678848	24992
263	1.543574	104464384	73019392	37016640	24992
264	2.294519	104464384	73019392	39013776	24992
265	4.843559	104464384	73019392	25234288	24992
266	3.777108	104464384	73019392	28550744	24992
267	4.690469	104464384	73019392	32526608	24992
268	5.252969	104464384	73019392	37161936	24992
269	8.03517	104464384	73019392	26019696	24992
270	6.740944	104464384	73019392	31974728	24992
271	7.521713	104464384	73019392	38589168	24992
272	10.59603	104464384	73019392	29444080	24992
273	9.132125	104464384	73019392	37377360	24992
274	11.966263	104464384	73019392	29545976	24992
275	10.675205	104464384	73019392	38798072	24992
276	13.251033	104464384	73019392	32281424	24992
277	14.029186	104464384	73019392	26413736	24992
278	12.815751	104464384	73019392	37645856	24992
279	15.513717	104464384	73019392	33104480	24992
280	16.26836	104464384	73019392	29226720	24992
281	17.336808	104464384	73019392	25990264	24992
282	2.870035	104464384	73019392	23354648	24992
283	1.568798	104464384	73019392	24692384	24992
284	2.290825	104464384	73019392	26689520	24992
285	3.0272	104464384	73019392	29346064	24992
286	3.769137	104464384	73019392	32662520	24992
287	4.494682	104464384	73019392	36638384	24992
288	7.189395	104464384	73019392	24841272	24992
289	6.195466	104464384	73019392	30135944	24992
290	6.93484	104464384	73019392	36090976	24992
291	9.427251	104464384	73019392	26290080	24992
292	8.519604	104464384	73019392	33563920	24992
293	11.153662	104464384	73019392	25068568	24992
294	9.987828	104464384	73019392	33661208	24992
295	12.646923	104464384	73019392	26482296	24992
296	11.227324	104464384	73019392	36393768	24992
297	14.298263	104464384	73019392	30541672	24992
298	14.848245	104464384	73019392	25338400	24992
299	13.45714	104464384	73019392	37229976	24992
300	16.679983	104464384	73019392	33351608	24992
301	17.014911	104464384	73019392	30136480	24992
302	0.818085	104464384	73019392	27498368	24992
303	1.553491	104464384	73019392	28836096	24992
304	2.272262	104464384	73019392	30833232	24992
305	3.017317	104464384	73019392	33489792	24992
306	3.959243	104464384	73019392	36806248	24992
307	6.485321	104464384	73019392	24339992	24992
308	5.264617	104464384	73019392	28975256	24992
309	5.993284	104464384	73019392	34269928	24992
310	9.133018	104464384	73019392	23800392	24992
311	7.685425	104464384	73019392	30414824	24992
312	8.222794	104464384	73019392	37688808	24992
313	11.006235	104464384	73019392	29202504	24992
314	9.920915	104464384	73019392	37795144	24992
315	12.756021	104464384	73019392	30628456	24992
316	14.503519	104464384	73019392	24111224	24992
317	12.156263	104464384	73019392	34682088	24992
318	14.935085	104464384	73019392	29477784	24992
319	15.748593	104464384	73019392	24936296	24992
320	14.561587	104464384	73019392	37487576	24992
321	17.352287	104464384	73019392	34270448	24992
322	0.823606	104464384	73019392	31653464	24992
323	1.63183	104464384	73019392	32991192	24992
324	2.283142	104464384	73019392	34988328	24992
325	3.030785	104464384	73019392	37644872	24992
326	5.777058	104464384	73019392	24507504	24992
327	4.78495	104464384	73019392	28483368	24992
328	5.245245	104464384	73019392	33118632	24992
329	5.987374	104464384	73019392	38413304	24992
330	9.011368	104464384	73019392	27939080	24992
331	7.621222	104464384	73019392	34553520	24992
332	10.454066	104464384	73019392	25399296	24992
333	9.135049	104464384	73019392	33332544	24992
334	11.987814	104464384	73019392	25488088	24992
335	10.743173	104464384	73019392	34740136	24992
336	13.529104	104464384	73019392	28223264	24992
337	12.146974	104464384	73019392	38794192	24992
338	15.417936	104464384	73019392	33605472	24992
339	15.76451	104464384	73019392	29063560	24992
340	16.540716	104464384	73019392	25165464	24992
341	15.347633	104464384	73019392	38376152	24992
342	0.822022	104464384	73019392	35758328	24992
343	1.558892	104464384	73019392	37096056	24992
344	2.464101	104464384	73019392	39093192	24992
345	5.176473	104464384	73019392	25311544	24992
346	3.773138	104464384	73019392	28628000	24992
347	4.943604	104464384	73019392	32603896	24992
348	5.258675	104464384	73019392	37239160	24992
349	8.122974	104464384	73019392	26093352	24992
350	7.117963	104464384	73019392	32048416	24992
351	7.48129	104464384	73019392	38662856	24992
352	10.525144	104464384	73019392	29515160	24992
353	9.175406	104464384	73019392	37448408	24992
354	12.026316	104464384	73019392	29614952	24992
355	11.343278	104464384	73019392	38876080	24992
356	13.616356	104464384	73019392	32358216	24992
357	14.340944	104464384	73019392	26489072	24992
358	12.756735	104464384	73019392	37721192	24992
359	16.227234	104464384	73019392	33178640	24992
360	16.71045	104464384	73019392	29308368	24992
361	17.106854	104464384	73019392	26076256	24992
362	0.827202	104464384	73019392	39892976	24992
363	1.556777	104464384	73019392	41230704	24992
364	4.429115	104464384	73019392	26782800	24992
365	3.12896	104464384	73019392	29439344	24992
366	3.789853	104464384	73019392	32755800	24992
367	4.507483	104464384	73019392	36731664	24992
368	5.433364	104464384	73019392	41367024	24992
369	8.18893	104464384	73019392	30231872	24992
370	6.931143	104464384	73019392	36186904	24992
371	9.82414	104464384	73019392	26372112	24992
372	8.423872	104464384	73019392	33645952	24992
373	11.166166	104464384	73019392	25139544	24992
374	10.06173	104464384	73019392	33732288	24992
375	12.944573	104464384	73019392	26551488	24992
376	11.421109	104464384	73019392	36462944	24992
377	14.366202	104464384	73019392	30608960	24992
378	15.110357	104464384	73019392	25404696	24992
379	14.089028	104464384	73019392	37297200	24992
380	16.520127	104464384	73019392	33417576	24992
381	17.558191	104464384	73019392	30201072	24992
382	0.820617	104464384	73019392	27562872	24992
383	1.542886	104464384	73019392	28900600	24992
384	2.288939	104464384	73019392	30897736	24992
385	3.023585	104464384	73019392	33554280	24992
386	3.926807	104464384	73019392	36870736	24992
387	4.706617	104464384	73019392	40846928	24992
388	7.489885	104464384	73019392	29045848	24992
389	6.203603	104464384	73019392	34340520	24992
390	6.737733	104464384	73019392	40295552	24992
391	9.755076	104464384	73019392	30493304	24992
392	8.439046	104464384	73019392	37767256	24992
393	11.408003	104464384	73019392	29269096	24992
394	10.007026	104464384	73019392	37861736	24992
395	13.022171	104464384	73019392	30680456	24992
396	11.55668	104464384	73019392	40591912	24992
397	15.126131	104464384	73019392	34737688	24992
398	15.278747	104464384	73019392	29533008	24992
399	13.679144	104464384	73019392	41424584	24992
400	16.97203	104464384	73019392	37544112	24992
401	17.392898	104464384	73019392	34327128	24992
402	0.830705	104464384	73019392	31688112	24992
403	1.548512	104464384	73019392	33025840	24992
404	2.294177	104464384	73019392	35022976	24992
405	3.019957	104464384	73019392	37679520	24992
406	3.984094	104464384	73019392	40995976	24992
407	6.819632	104464384	73019392	28526176	24992
408	5.561356	104464384	73019392	33161440	24992
409	6.010207	104464384	73019392	38456112	24992
410	9.0609	104464384	73019392	27982104	24992
411	7.69104	104464384	73019392	34596544	24992
412	8.407755	104464384	73019392	41870400	24992
413	11.46599	104464384	73019392	33380600	24992
414	9.943003	104464384	73019392	41973240	24992
415	12.982596	104464384	73019392	34803504	24992
416	13.786568	104464384	73019392	28271744	24992
417	12.194962	104464384	73019392	38842608	24992
418	15.469188	104464384	73019392	33637496	24992
419	16.660708	104464384	73019392	29104096	24992
420	14.728857	104464384	73019392	41655424	24992
421	18.062207	104464384	73019392	38437800	24992
422	0.828259	104464384	73019392	35820224	24992
423	1.742262	104464384	73019392	37157952	24992
424	2.281757	104464384	73019392	39155088	24992
425	3.033335	104464384	73019392	41811632	24992
426	6.217648	104464384	73019392	28674184	24992
427	4.512186	104464384	73019392	32650048	24992
428	5.249094	104464384	73019392	37285312	24992
429	6.18118	104464384	73019392	42579984	24992
430	9.308508	104464384	73019392	32105072	24992
431	7.495413	104464384	73019392	38719512	24992
432	10.85528	104464384	73019392	29564840	24992
433	9.151975	104464384	73019392	37498088	24992
434	12.466438	104464384	73019392	29653152	24992
435	10.67394	104464384	73019392	38905200	24992
436	13.868639	104464384	73019392	32387560	24992
437	14.609065	104464384	73019392	26518472	24992
438	13.003128	104464384	73019392	37750600	24992
439	16.387147	104464384	73019392	33208080	24992
440	17.067528	104464384	73019392	29328896	24992
441	15.308743	104464384	73019392	42539648	24992
442	0.828122	104464384	73019392	39921200	24992
443	1.557258	104464384	73019392	41258928	24992
444	4.944099	104464384	73019392	26811704	24992
445	3.03707	104464384	73019392	29468240	24992
446	3.811387	104464384	73019392	32784696	24992
447	4.69045	104464384	73019392	36760576	24992
448	5.244377	104464384	73019392	41395840	24992
449	8.839971	104464384	73019392	30249808	24992
450	6.758245	104464384	73019392	36204872	24992
451	7.528544	104464384	73019392	42819312	24992
452	10.865188	104464384	73019392	33677072	24992
453	9.176062	104464384	73019392	41610320	24992
454	12.34368	104464384	73019392	33776640	24992
455	10.678421	104464384	73019392	43028832	24992
456	13.867916	104464384	73019392	36510296	24992
457	14.448548	104464384	73019392	30641168	24992
458	12.897079	104464384	73019392	41873288	24992
459	16.127326	104464384	73019392	37330496	24992
460	17.049297	104464384	73019392	33451104	24992
461	17.607559	104464384	73019392	30213712	24992
462	3.290405	104464384	73019392	27576688	24992
463	1.575999	104464384	73019392	28914416	24992
464	2.283029	104464384	73019392	30911552	24992
465	3.018827	104464384	73019392	33568096	24992
466	3.95686	104464384	73019392	36884552	24992
467	4.557595	104464384	73019392	40860416	24992
468	7.933441	104464384	73019392	29059384	24992
469	6.009511	104464384	73019392	34354056	24992
470	6.733731	104464384	73019392	40309088	24992
471	11.22855	104464384	73019392	30518728	24992
472	8.299826	104464384	73019392	37792568	24992
473	11.59034	104464384	73019392	29294296	24992
474	10.165214	104464384	73019392	37886936	24992
475	13.192109	104464384	73019392	30705256	24992
476	11.274519	104464384	73019392	40616712	24992
477	14.972128	104464384	73019392	34761928	24992
478	15.323882	104464384	73019392	29556720	24992
479	13.811596	104464384	73019392	41448248	24992
480	18.085636	104464384	73019392	37578984	24992
481	17.477097	104464384	73019392	34362272	24992
482	0.82144	104464384	73019392	31723016	24992
483	1.543345	104464384	73019392	33060744	24992
484	2.331346	104464384	73019392	35057880	24992
485	3.070842	104464384	73019392	37714424	24992
486	3.846446	104464384	73019392	41030976	24992
487	7.051625	104464384	73019392	28560424	24992
488	5.470012	104464384	73019392	33195688	24992
489	6.036069	104464384	73019392	38490360	24992
490	9.694348	104464384	73019392	28015168	24992
491	7.603275	104464384	73019392	34629640	24992
492	8.273128	104464384	73019392	41903480	24992
493	11.737995	104464384	73019392	33413280	24992
494	10.254307	104464384	73019392	42005920	24992
495	13.769231	104464384	73019392	34836008	24992
496	14.265553	104464384	73019392	28303736	24992
497	12.116749	104464384	73019392	38874600	24992
498	15.859995	104464384	73019392	33668992	24992
499	16.542117	104464384	73019392	29126384	24992
500	14.443692	104464384	73019392	41677760	24992
501	17.743903	104464384	73019392	38460104	24992
502	0.821728	104464384	73019392	35842448	24992
503	1.561752	104464384	73019392	37180176	24992
504	2.325128	104464384	73019392	39177312	24992
505	3.025209	104464384	73019392	41833872	24992
506	6.538865	104464384	73019392	28695688	24992
507	4.539823	104464384	73019392	32671552	24992
508	5.245612	104464384	73019392	37306816	24992
509	6.17172	104464384	73019392	42601488	24992
510	9.364316	104464384	73019392	32125840	24992
511	7.691791	104464384	73019392	38740280	24992
512	11.043344	104464384	73019392	29584824	24992
513	9.172894	104464384	73019392	37518072	24992
514	12.35061	104464384	73019392	29672880	24992
515	10.662549	104464384	73019392	38924928	24992
516	14.085663	104464384	73019392	32406808	24992
517	11.965899	104464384	73019392	42977672	24992
518	15.663561	104464384	73019392	37788392	24992
519	16.359529	104464384	73019392	33245816	24992
520	17.034779	104464384	73019392	29347360	24992
521	15.250274	104464384	73019392	42558048	24992
522	0.822673	104464384	73019392	39939872	24992
523	1.555013	104464384	73019392	41277600	24992
524	2.280149	104464384	73019392	43274736	24992
525	5.874033	104464384	73019392	29492400	24992
526	3.844387	104464384	73019392	32808856	24992
527	4.597892	104464384	73019392	36784720	24992
528	5.333323	104464384	73019392	41419984	24992
529	8.924294	104464384	73019392	30272960	24992
530	6.756201	104464384	73019392	36228072	24992
531	7.668032	104464384	73019392	42842512	24992
532	10.947514	104464384	73019392	33693568	24992
533	9.317911	104464384	73019392	41626816	24992
534	12.721312	104464384	73019392	33792320	24992
535	10.495487	104464384	73019392	43044368	24992
536	14.278463	104464384	73019392	36525816	24992
537	14.872447	104464384	73019392	30656224	24992
538	12.746478	104464384	73019392	41888344	24992
539	16.610525	104464384	73019392	37345200	24992
540	16.948257	104464384	73019392	33465568	24992
541	17.967581	104464384	73019392	30228656	24992
542	0.816925	104464384	73019392	44045376	24992
543	4.220568	104464384	73019392	28933272	24992
544	2.306432	104464384	73019392	30930400	24992
545	3.266691	104464384	73019392	33586944	24992
546	3.763859	104464384	73019392	36903400	24992
547	4.687124	104464384	73019392	40879280	24992
548	8.459965	104464384	73019392	29077384	24992
549	6.204584	104464384	73019392	34372048	24992
550	6.7741	104464384	73019392	40327096	24992
551	10.465425	104464384	73019392	30516512	24992
552	8.441216	104464384	73019392	37790352	24992
553	11.940703	104464384	73019392	29291704	24992
554	10.055757	104464384	73019392	37884368	24992
555	13.427812	104464384	73019392	30702832	24992
556	11.267578	104464384	73019392	40621216	24992
557	14.907914	104464384	73019392	34773328	24992
558	15.647397	104464384	73019392	29575336	24992
559	13.650388	104464384	73019392	41466864	24992
560	17.333694	104464384	73019392	37586712	24992
561	17.718642	104464384	73019392	34369632	24992
562	0.817234	104464384	73019392	31731272	24992
563	1.745504	104464384	73019392	33069000	24992
564	2.323568	104464384	73019392	35066136	24992
565	3.197968	104464384	73019392	37722680	24992
566	3.776588	104464384	73019392	41039136	24992
567	4.504543	104464384	73019392	45015000	24992
568	8.037187	104464384	73019392	33212200	24992
569	6.006337	104464384	73019392	38506968	24992
570	6.736621	104464384	73019392	44462000	24992
571	10.323985	104464384	73019392	34658072	24992
572	8.243289	104464384	73019392	41931912	24992
573	11.962536	104464384	73019392	33432824	24992
574	9.729734	104464384	73019392	42025480	24992
575	13.304618	104464384	73019392	34843512	24992
576	11.395108	104464384	73019392	44755064	24992
577	14.940291	104464384	73019392	38900168	24992
578	15.698552	104464384	73019392	33694944	24992
579	13.718272	104464384	73019392	45586472	24992
580	17.170215	104464384	73019392	41705424	24992
581	18.280558	104464384	73019392	38487928	24992
582	0.82451	104464384	73019392	35848672	24992
583	1.551378	104464384	73019392	37186400	24992
584	3.158495	104464384	73019392	39185328	24992
585	3.07638	104464384	73019392	41841872	24992
586	3.904098	104464384	73019392	45172072	24992
587	7.557832	104464384	73019392	32701776	24992
588	5.508574	104464384	73019392	37337040	24992
589	5.994372	104464384	73019392	42631712	24992
590	9.753643	104464384	73019392	32156664	24992
591	7.679134	104464384	73019392	38771152	24992
592	8.259975	104464384	73019392	46045056	24992
593	12.055609	104464384	73019392	37548280	24992
594	9.983216	104464384	73019392	46140920	24992
595	13.557158	104464384	73019392	38952104	24992
596	14.079452	104464384	73019392	32426296	24992
597	12.695961	104464384	73019392	42997160	24992
598	15.612098	104464384	73019392	37807048	24992
599	16.510121	104464384	73019392	33264488	24992
600	14.375517	104464384	73019392	45815768	24992
601	18.358053	104464384	73019392	42597328	24992
602	0.844996	104464384	73019392	39979384	24992
603	1.551042	104464384	73019392	41317112	24992
604	2.294304	104464384	73019392	43314248	24992
605	3.011637	104464384	73019392	45970824	24992
606	6.8156	104464384	73019392	32831952	24992
607	4.525098	104464384	73019392	36807816	24992
608	5.430594	104464384	73019392	41443080	24992
609	8.890962	104464384	73019392	30296048	24992
610	7.126847	104464384	73019392	36251080	24992
611	7.492457	104464384	73019392	42865520	24992
612	11.182947	104464384	73019392	33709800	24992
613	9.18453	104464384	73019392	41643048	24992
614	12.611566	104464384	73019392	33808632	24992
615	10.704703	104464384	73019392	43060680	24992
616	14.311576	104464384	73019392	36542336	24992
617	15.218932	104464384	73019392	30672656	24992
618	13.113086	104464384	73019392	41904784	24992
619	16.689987	104464384	73019392	37361736	24992
620	17.509601	104464384	73019392	33482088	24992
621	15.140166	104464384	73019392	46692776	24992
622	0.814355	104464384	73019392	44067432	24992
623	1.560597	104464384	73019392	45405160	24992
624	5.186249	104464384	73019392	30957416	24992
625	3.059254	104464384	73019392	33613960	24992
626	3.948421	104464384	73019392	36930416	24992
627	4.499629	104464384	73019392	40906280	24992
628	5.234706	104464384	73019392	45541544	24992
629	9.131882	104464384	73019392	34400808	24992
630	6.751017	104464384	73019392	40355920	24992
631	10.622595	104464384	73019392	30540864	24992
632	8.2404	104464384	73019392	37814696	24992
633	9.142637	104464384	73019392	45747944	24992
634	12.694698	104464384	73019392	37913336	24992
635	13.819507	104464384	73019392	30731792	24992
636	11.45042	104464384	73019392	40643248	24992
637	15.264519	104464384	73019392	34773608	24992
638	12.89901	104464384	73019392	46005728	24992
639	16.538556	104464384	73019392	41479944	24992
640	17.724488	104464384	73019392	37600024	24992
641	18.321945	104464384	73019392	34362216	24992
642	0.821898	104464384	73019392	31723840	24992
643	1.743816	104464384	73019392	33061568	24992
644	2.32905	104464384	73019392	35058704	24992
645	3.021843	104464384	73019392	37715248	24992
646	3.940021	104464384	73019392	41031704	24992
647	4.506531	104464384	73019392	45007600	24992
648	8.505126	104464384	73019392	33205488	24992
649	6.003321	104464384	73019392	38500160	24992
650	6.778454	104464384	73019392	44455192	24992
651	10.692213	104464384	73019392	34651392	24992
652	8.2501	104464384	73019392	41925232	24992
653	12.181334	104464384	73019392	33426368	24992
654	9.806781	104464384	73019392	42019040	24992
655	13.715634	104464384	73019392	34837280	24992
656	11.224169	104464384	73019392	44748736	24992
657	15.37897	104464384	73019392	38893840	24992
658	15.933825	104464384	73019392	33688600	24992
659	13.629915	104464384	73019392	45580128	24992
660	17.407772	104464384	73019392	41699752	24992
661	18.188822	104464384	73019392	38482528	24992
662	0.834131	104464384	73019392	35843256	24992
663	1.54924	104464384	73019392	37180984	24992
664	2.287553	104464384	73019392	39178120	24992
665	3.017493	104464384	73019392	41834664	24992
666	3.769999	104464384	73019392	45151120	24992
667	7.564069	104464384	73019392	32680456	24992
668	5.453659	104464384	73019392	37315768	24992
669	6.042824	104464384	73019392	42610472	24992
670	10.006618	104464384	73019392	32135056	24992
671	7.708862	104464384	73019392	38749608	24992
672	8.225201	104464384	73019392	46023448	24992
673	12.454119	104464384	73019392	37533248	24992
674	9.989382	104464384	73019392	46125888	24992
675	13.705511	104464384	73019392	38955992	24992
676	14.490922	104464384	73019392	32423784	24992
677	12.131467	104464384	73019392	42994664	24992
678	16.152062	104464384	73019392	37788976	24992
679	16.781219	104464384	73019392	33246336	24992
680	14.597286	104464384	73019392	45797616	24992
681	18.45812	104464384	73019392	42579848	24992
682	0.822141	104464384	73019392	39962112	24992
683	1.560328	104464384	73019392	41299840	24992
684	2.277949	104464384	73019392	43296976	24992
685	3.021912	104464384	73019392	45953520	24992
686	7.022725	104464384	73019392	32815384	24992
687	4.525721	104464384	73019392	36791248	24992
688	5.436018	104464384	73019392	41426512	24992
689	6.046425	104464384	73019392	46721360	24992
690	10.028226	104464384	73019392	36245712	24992
691	7.785381	104464384	73019392	42860152	24992
692	11.53659	104464384	73019392	33704504	24992
693	9.07563	104464384	73019392	41637832	24992
694	13.220545	104464384	73019392	33792640	24992
695	10.681021	104464384	73019392	43044752	24992
696	14.535116	104464384	73019392	36526424	24992
697	12.144813	104464384	73019392	47097288	24992
698	15.833444	104464384	73019392	41907880	24992
699	16.78448	104464384	73019392	37365256	24992
700	17.578101	104464384	73019392	33466400	24992
701	15.191	104464384	73019392	46677088	24992
702	0.820134	104464384	73019392	44058896	24992
703	1.550716	104464384	73019392	45396624	24992
704	2.270119	104464384	73019392	47393760	24992
705	6.173419	104464384	73019392	33611440	24992
706	3.978219	104464384	73019392	36927896	24992
707	4.499807	104464384	73019392	40903760	24992
708	5.429151	104464384	73019392	45539024	24992
709	9.360882	104464384	73019392	34391952	24992
710	7.03696	104464384	73019392	40349912	24992
711	7.68525	104464384	73019392	46964352	24992
712	11.591595	104464384	73019392	37815520	24992
713	9.261026	104464384	73019392	45748768	24992
714	13.103539	104464384	73019392	37914240	24992
715	10.734515	104464384	73019392	47166288	24992
716	14.598041	104464384	73019392	40647720	24992
717	15.183066	104464384	73019392	34778048	24992
718	13.075689	104464384	73019392	46010232	24992
719	16.840908	104464384	73019392	41466928	24992
720	17.624013	104464384	73019392	37587232	24992
721	18.597907	104464384	73019392	34350336	24992
722	0.817001	104464384	73019392	48167120	24992
723	4.722926	104464384	73019392	33055024	24992
724	2.487392	104464384	73019392	35052160	24992
725	3.017146	104464384	73019392	37708704	24992
726	3.758449	104464384	73019392	41025160	24992
727	4.66227	104464384	73019392	45001024	24992
728	8.517274	104464384	73019392	33199120	24992
729	6.007484	104464384	73019392	38493792	24992
730	6.741778	104464384	73019392	44448824	24992
731	10.927737	104464384	73019392	34638224	24992
732	8.683985	104464384	73019392	41912064	24992
733	12.539156	104464384	73019392	33413408	24992
734	9.841423	104464384	73019392	42006176	24992
735	14.066858	104464384	73019392	34824624	24992
736	11.445031	104464384	73019392	44736096	24992
737	15.282716	104464384	73019392	38881392	24992
738	16.595538	104464384	73019392	33676152	24992
739	13.73499	104464384	73019392	45567744	24992
740	17.760979	104464384	73019392	41687624	24992
741	18.964195	104464384	73019392	38470512	24992
742	0.826548	104464384	73019392	35831736	24992
743	1.754297	104464384	73019392	37169464	24992
744	2.28334	104464384	73019392	39166600	24992
745	3.016652	104464384	73019392	41823144	24992
746	3.75603	104464384	73019392	45139600	24992
747	4.687404	104464384	73019392	49115464	24992
748	8.589925	104464384	73019392	37312664	24992
749	6.150745	104464384	73019392	42607336	24992
750	6.912845	104464384	73019392	48562432	24992
751	10.879502	104464384	73019392	38758520	24992
752	8.528966	104464384	73019392	46032360	24992
753	12.310217	104464384	73019392	37533160	24992
754	9.910259	104464384	73019392	46125832	24992
755	14.017397	104464384	73019392	38943736	24992
756	11.613433	104464384	73019392	48855192	24992
757	15.580979	104464384	73019392	42999704	24992
758	16.23974	104464384	73019392	37794464	24992
759	16.857356	104464384	73019392	33234128	24992
760	14.612658	104464384	73019392	45785408	24992
761	18.501687	104464384	73019392	42567896	24992
762	0.817994	104464384	73019392	39950408	24992
763	1.553565	104464384	73019392	41288144	24992
764	2.278582	104464384	73019392	43285280	24992
765	3.025598	104464384	73019392	45941824	24992
766	3.764928	104464384	73019392	49258280	24992
767	8.178595	104464384	73019392	36786928	24992
768	5.456732	104464384	73019392	41422240	24992
769	6.112064	104464384	73019392	46716928	24992
770	10.347507	104464384	73019392	36241400	24992
771	7.557467	104464384	73019392	42855840	24992
772	11.785501	104464384	73019392	33692488	24992
773	9.050518	104464384	73019392	41625768	24992
774	13.190512	104464384	73019392	33780576	24992
775	10.695848	104464384	73019392	43032768	24992
776	14.848151	104464384	73019392	36514872	24992
777	12.143544	104464384	73019392	47085736	24992
778	16.177746	104464384	73019392	41896552	24992
779	17.360934	104464384	73019392	37353912	24992
780	14.3792	104464384	73019392	49905192	24992
781	18.636138	104464384	73019392	46675616	24992
782	0.820494	104464384	73019392	44057536	24992
783	1.541252	104464384	73019392	45395264	24992
784	2.281477	104464384	73019392	47392400	24992
785	3.273107	104464384	73019392	50048944	24992
786	7.308529	104464384	73019392	36918928	24992
787	4.724026	104464384	73019392	40894792	24992
788	5.297984	104464384	73019392	45530072	24992
789	9.724838	104464384	73019392	34383072	24992
790	6.75696	104464384	73019392	40338104	24992
791	7.66511	104464384	73019392	46952544	24992
792	12.088887	104464384	73019392	37796712	24992
793	9.165932	104464384	73019392	45730024	24992
794	13.389575	104464384	73019392	37895608	24992
795	10.47322	104464384	73019392	47147704	24992
796	14.866826	104464384	73019392	40629312	24992
797	15.651724	104464384	73019392	34759624	24992
798	12.771141	104464384	73019392	45991856	24992
799	17.370705	104464384	73019392	41448760	24992
800	17.898959	104464384	73019392	37569080	24992
801	18.959148	104464384	73019392	34332208	24992
802	0.820565	104464384	73019392	48149064	24992
803	1.546222	104464384	73019392	49486792	24992
804	6.002404	104464384	73019392	35039096	24992
805	3.083432	104464384	73019392	37695672	24992
806	3.814417	104464384	73019392	41012128	24992
807	4.769571	104464384	73019392	44987992	24992
808	5.248263	104464384	73019392	49623256	24992
809	9.733637	104464384	73019392	38490744	24992
810	6.946494	104464384	73019392	44445776	24992
811	11.292128	104464384	73019392	34630720	24992
812	8.459908	104464384	73019392	41904552	24992
813	9.255045	104464384	73019392	49837832	24992
814	13.394085	104464384	73019392	42002504	24992
815	14.505358	104464384	73019392	34820960	24992
816	11.243147	104464384	73019392	44732416	24992
817	15.854442	104464384	73019392	38862520	24992
818	12.957413	104464384	73019392	50094736	24992
819	17.007755	104464384	73019392	45568296	24992
820	18.174389	104464384	73019392	41688232	24992
821	18.743556	104464384	73019392	38450552	24992
822	0.82273	104464384	73019392	35812256	24992
823	1.552446	104464384	73019392	37149984	24992
824	2.283242	104464384	73019392	39147120	24992
825	3.206586	104464384	73019392	41803664	24992
826	3.959847	104464384	73019392	45120120	24992
827	4.563922	104464384	73019392	49095984	24992
828	9.047516	104464384	73019392	37293856	24992
829	6.208382	104464384	73019392	42588528	24992
830	6.732665	104464384	73019392	48543560	24992
831	11.332861	104464384	73019392	38739648	24992
832	8.245762	104464384	73019392	46013488	24992
833	12.767372	104464384	73019392	37514400	24992
834	9.921913	104464384	73019392	46107056	24992
835	14.469315	104464384	73019392	38925120	24992
836	11.477833	104464384	73019392	48836576	24992
837	15.655534	104464384	73019392	42981664	24992
838	16.985913	104464384	73019392	37776424	24992
839	13.715626	104464384	73019392	49668016	24992
840	18.027422	104464384	73019392	45787704	24992
841	18.926593	104464384	73019392	42570384	24992
842	0.847279	104464384	73019392	39931176	24992
843	1.546063	104464384	73019392	41268904	24992
844	2.348631	104464384	73019392	43266040	24992
845	3.082157	104464384	73019392	45922584	24992
846	3.746281	104464384	73019392	49239040	24992
847	8.329022	104464384	73019392	36768376	24992
848	5.280402	104464384	73019392	41403640	24992
849	5.984863	104464384	73019392	46698312	24992
850	10.614563	104464384	73019392	36243616	24992
851	7.695991	104464384	73019392	42858056	24992
852	8.402209	104464384	73019392	50131896	24992
853	12.870368	104464384	73019392	41652024	24992
854	9.965728	104464384	73019392	50244712	24992
855	14.322063	104464384	73019392	43074768	24992
856	15.155556	104464384	73019392	36542480	24992
857	12.212969	104464384	73019392	47113424	24992
858	16.569327	104464384	73019392	41907736	24992
859	17.307371	104464384	73019392	37365096	24992
860	14.234991	104464384	73019392	49916376	24992
861	18.845798	104464384	73019392	46698592	24992
862	0.825141	104464384	73019392	44080752	24992
863	1.546229	104464384	73019392	45418488	24992
864	2.283342	104464384	73019392	47415624	24992
865	3.028187	104464384	73019392	50072168	24992
866	7.49086	104464384	73019392	36933984	24992
867	4.776202	104464384	73019392	40909848	24992
868	5.249562	104464384	73019392	45545160	24992
869	6.172319	104464384	73019392	50839896	24992
870	10.471704	104464384	73019392	40364248	24992
871	7.751026	104464384	73019392	46978688	24992
872	12.172764	104464384	73019392	37822960	24992
873	9.191997	104464384	73019392	45756456	24992
874	13.713868	104464384	73019392	37911272	24992
875	10.958687	104464384	73019392	47163384	24992
876	15.248215	104464384	73019392	40645040	24992
877	12.219952	104464384	73019392	51215920	24992
878	16.807545	104464384	73019392	46025808	24992
879	17.589771	104464384	73019392	41482944	24992
880	18.79644	104464384	73019392	37584056	24992
881	15.288489	104464384	73019392	50794760	24992
882	0.820891	104464384	73019392	48176568	24992
883	1.544048	104464384	73019392	49514296	24992
884	2.459289	104464384	73019392	51511432	24992
885	6.880571	104464384	73019392	37728408	24992
886	3.843739	104464384	73019392	41044896	24992
887	4.594144	104464384	73019392	45020760	24992
888	5.480444	104464384	73019392	49656024	24992
889	10.039179	104464384	73019392	38508824	24992
890	6.759711	104464384	73019392	44463856	24992
891	7.487248	104464384	73019392	51078360	24992
892	12.313323	104464384	73019392	41929416	24992
893	9.194696	104464384	73019392	49862728	24992
894	13.787363	104464384	73019392	42028088	24992
895	10.739912	104464384	73019392	51280200	24992
896	15.294752	104464384	73019392	44761680	24992
897	16.103334	104464384	73019392	38891992	24992
898	13.029361	104464384	73019392	50124144	24992
899	18.519533	104464384	73019392	45581752	24992
900	18.430401	104464384	73019392	41703784	24992
901	21.251493	104464384	73019392	38467728	24992
902	0.840671	104464384	73019392	19547208	24992
903	1.552263	104464384	73019392	20884968	24992
904	2.303205	104464384	73019392	22882104	24992
905	3.221369	104464384	73019392	25538648	24992
906	4.182077	104464384	73019392	12375224	24992
907	4.726224	104464384	73019392	16351168	24992
908	5.29379	104464384	73019392	20986432	24992
909	6.04562	104464384	73019392	26281120	24992
910	7.188137	104464384	73019392	15771848	24992
911	7.727119	104464384	73019392	22386368	24992
912	8.676306	104464384	73019392	13194048	24992
913	9.058242	104464384	73019392	21127312	24992
914	10.064677	104464384	73019392	13250632	24992
915	10.672575	104464384	73019392	22502776	24992
916	11.670995	104464384	73019392	15947608	24992
917	12.186019	104464384	73019392	26518576	24992
918	13.158436	104464384	73019392	21286944	24992
919	13.972147	104464384	73019392	16711328	24992
920	14.760867	104464384	73019392	12791144	24992
921	15.416133	104464384	73019392	26001832	24992
922	0.818765	104464384	73019392	23349592	24992
923	1.54697	104464384	73019392	24687320	24992
924	2.474932	104464384	73019392	26684456	24992
925	3.281467	104464384	73019392	12867504	24992
926	3.859037	104464384	73019392	16183960	24992
927	4.600366	104464384	73019392	20159824	24992
928	5.361352	104464384	73019392	24795088	24992
929	6.55435	104464384	73019392	13621184	24992
930	7.031483	104464384	73019392	19577840	24992
931	7.686926	104464384	73019392	26192312	24992
932	8.798672	104464384	73019392	17002360	24992
933	9.388593	104464384	73019392	24935608	24992
934	10.31657	104464384	73019392	17062264	24992
935	10.73697	104464384	73019392	26314312	24992
936	11.750373	104464384	73019392	19758944	24992
937	12.576275	104464384	73019392	13860168	24992
938	12.962378	104464384	73019392	25092288	24992
939	14.115463	104464384	73019392	20516120	24992
940	14.759122	104464384	73019392	16601512	24992
941	15.523866	104464384	73019392	13342168	24992
942	0.859545	104464384	73019392	27158888	24992
943	1.838303	104464384	73019392	12017352	24992
944	2.307871	104464384	73019392	14014488	24992
945	3.025374	104464384	73019392	16671032	24992
946	3.77229	104464384	73019392	19987488	24992
947	4.705944	104464384	73019392	23963352	24992
948	5.508569	104464384	73019392	12129208	24992
949	6.219047	104464384	73019392	17423904	24992
950	6.871231	104464384	73019392	23378936	24992
951	8.047368	104464384	73019392	13529856	24992
952	8.666614	104464384	73019392	20803696	24992
953	9.251127	104464384	73019392	12269792	24992
954	9.990701	104464384	73019392	20862432	24992
955	10.780516	104464384	73019392	13646720	24992
956	11.529434	104464384	73019392	23558224	24992
957	12.494692	104464384	73019392	17663968	24992
958	13.043138	104464384	73019392	12428120	24992
959	13.741188	104464384	73019392	24319648	24992
960	15.059071	104464384	73019392	20404600	24992
961	15.484446	104464384	73019392	17150688	24992
962	0.833307	104464384	73019392	14493448	24992
963	1.582868	104464384	73019392	15831176	24992
964	2.325254	104464384	73019392	17828312	24992
965	3.034993	104464384	73019392	20484856	24992
966	3.767296	104464384	73019392	23801312	24992
967	4.706905	104464384	73019392	27777176	24992
968	5.628486	104464384	73019392	15942128	24992
969	6.200557	104464384	73019392	21236864	24992
970	6.741722	104464384	73019392	27191896	24992
971	7.972054	104464384	73019392	17346608	24992
972	8.407735	104464384	73019392	24620448	24992
973	9.316147	104464384	73019392	16086016	24992
974	10.042823	104464384	73019392	24678656	24992
975	11.009237	104464384	73019392	17462560	24992
976	11.536356	104464384	73019392	27374064	24992
977	12.277994	104464384	73019392	21479552	24992
978	13.545482	104464384	73019392	16243256	24992
979	13.826684	104464384	73019392	28134784	24992
980	14.711749	104464384	73019392	24218840	24992
981	15.378145	104464384	73019392	20964480	24992
982	0.841361	104464384	73019392	18306344	24992
983	1.576154	104464384	73019392	19644072	24992
984	2.513677	104464384	73019392	21641256	24992
985	3.036856	104464384	73019392	24297800	24992
986	3.864517	104464384	73019392	27614256	24992
987	5.206895	104464384	73019392	15116624	24992
988	5.418265	104464384	73019392	19751920	24992
989	6.242314	104464384	73019392	25046592	24992
990	7.046213	104464384	73019392	14537496	24992
991	7.830449	104464384	73019392	21151936	24992
992	8.618912	104464384	73019392	28425776	24992
993	9.543385	104464384	73019392	19893816	24992
994	9.939525	104464384	73019392	28486552	24992
995	10.764775	104464384	73019392	21271696	24992
996	11.693037	104464384	73019392	14712240	24992
997	12.261518	104464384	73019392	25283184	24992
998	13.27184	104464384	73019392	20046472	24992
999	13.769072	104464384	73019392	15470856	24992
1000	14.734639	104464384	73019392	28022136	24992
