x	Duration	RSS	HeapTotal	HeapUsed	External
0	NA	107130880	77213696	17808576	24992
1	1.197474	107130880	77213696	18485312	24992
2	2.261804	107130880	77213696	19823176	24992
3	3.184397	107130880	77213696	21820288	24992
4	3.042177	107130880	77213696	24476808	24992
5	3.762357	107130880	77213696	27793320	24992
6	4.956403	107130880	77213696	31769160	24992
7	6.219805	107130880	77213696	19987008	24992
8	6.19882	107130880	77213696	25281656	24992
9	6.688292	107130880	77213696	31236680	24992
10	8.454465	107130880	77213696	21447192	24992
11	8.381292	107130880	77213696	28721088	24992
12	9.889355	107130880	77213696	20225528	24992
13	9.937031	107130880	77213696	28818160	24992
14	11.389557	107130880	77213696	21638984	24992
15	11.359199	107130880	77213696	31550416	24992
16	13.061452	107130880	77213696	25698296	24992
17	13.61105	107130880	77213696	20495224	24992
18	13.764659	107130880	77213696	32386776	24992
19	15.543759	107130880	77213696	28509288	24992
20	16.08519	107130880	77213696	25294432	24992
21	16.936035	107401216	77213696	22719608	24992
22	0.812442	107401216	77213696	20740464	24992
23	1.543703	107401216	77213696	22078280	24992
24	2.259167	107401216	77213696	24075488	24992
25	3.216962	107401216	77213696	26732104	24992
26	3.738681	107401216	77213696	30048648	24992
27	4.468424	107401216	77213696	34024728	24992
28	6.274033	107401216	77213696	22227952	24992
29	5.960721	107401216	77213696	27522696	24992
30	6.911407	107401216	77213696	33477816	24992
31	8.709445	107401216	77213696	23680784	24992
32	8.173189	107401216	77213696	30954696	24992
33	10.259887	107401216	77213696	22458832	24992
34	9.979409	107401216	77213696	31051736	24992
35	11.685111	107401216	77213696	23872544	24992
36	11.146912	107401216	77213696	33784072	24992
37	13.153014	107401216	77213696	27931472	24992
38	13.995959	107401216	77213696	22728704	24992
39	14.895577	107401216	77213696	18169848	24992
40	14.571903	107401216	77213696	30721216	24992
41	16.384933	107671552	77213696	27505952	24992
42	1.256028	107671552	77213696	24890432	24992
43	1.539588	107671552	77213696	26228264	24992
44	2.322468	107671552	77213696	28225472	24992
45	3.000674	107671552	77213696	30882760	24992
46	3.734085	107671552	77213696	34199304	24992
47	5.615915	107671552	77213696	21733208	24992
48	5.448588	107671552	77213696	26368656	24992
49	6.186715	107671552	77213696	31663416	24992
50	7.879269	107671552	77213696	21194752	24992
51	7.602195	107671552	77213696	27809264	24992
52	9.581631	107671552	77213696	18649504	24992
53	9.133124	107671552	77213696	26582904	24992
54	11.006982	107671552	77213696	18740616	24992
55	10.695936	107671552	77213696	27992784	24992
56	12.317249	107671552	77213696	21477792	24992
57	12.095624	107671552	77213696	32048744	24992
58	13.990694	107671552	77213696	26862336	24992
59	14.734743	107941888	77213696	22321880	24992
60	14.286473	107941888	77213696	34873248	24992
61	16.196482	107941888	77213696	31646784	24992
62	0.813514	107941888	77213696	29030712	24992
63	1.544115	107941888	77213696	30368528	24992
64	2.261357	107941888	77213696	32365736	24992
65	3.284481	107941888	77213696	35022352	24992
66	4.897313	107941888	77213696	21895752	24992
67	4.477093	107941888	77213696	25871688	24992
68	5.471704	107941888	77213696	30507144	24992
69	7.150467	107941888	77213696	19365592	24992
70	6.697203	107941888	77213696	25320712	24992
71	7.627871	107941888	77213696	31935272	24992
72	9.523608	107941888	77213696	22783768	24992
73	9.349058	107941888	77213696	30717104	24992
74	11.293519	107941888	77213696	22886296	24992
75	10.601213	107941888	77213696	32138480	24992
76	12.451533	107941888	77213696	25622960	24992
77	13.314033	107941888	77213696	19755456	24992
78	12.822694	107941888	77213696	30987696	24992
79	14.843921	107941888	77213696	26446880	24992
80	15.948532	108212224	77213696	22569576	24992
81	17.337279	108212224	77213696	19335632	24992
82	0.856629	108212224	77213696	33152392	24992
83	1.537335	108212224	77213696	34490136	24992
84	3.511577	108212224	77213696	20047960	24992
85	3.498435	108212224	77213696	22704520	24992
86	3.785153	108212224	77213696	26020976	24992
87	4.767541	108212224	77213696	29996840	24992
88	5.421765	108212224	77213696	34632104	24992
89	7.310652	108212224	77213696	23506216	24992
90	7.059132	108212224	77213696	29461248	24992
91	8.883208	108212224	77213696	19650728	24992
92	8.221195	108212224	77213696	26924608	24992
93	9.113242	108212224	77213696	34857856	24992
94	10.905236	108212224	77213696	27025776	24992
95	12.001472	108212224	77213696	19846832	24992
96	11.456446	108212224	77213696	29758288	24992
97	13.213081	108212224	77213696	23890336	24992
98	13.061583	108212224	77213696	35122488	24992
99	14.924169	108212224	77213696	30598640	24992
100	15.569768	108212224	77213696	26720480	24992
101	16.750653	108212224	77213696	23483976	24992
102	0.812508	108212224	77213696	20846728	24992
103	1.534473	108212224	77213696	22184456	24992
104	2.259715	108212224	77213696	24181592	24992
105	3.006799	108212224	77213696	26838136	24992
106	3.783065	108212224	77213696	30154592	24992
107	4.478586	108212224	77213696	34130456	24992
108	6.874663	108212224	77213696	22333168	24992
109	6.017983	108212224	77213696	27627856	24992
110	6.906624	108212224	77213696	33582888	24992
111	8.75229	108212224	77213696	23785272	24992
112	8.229142	108212224	77213696	31059112	24992
113	10.870752	108212224	77213696	22563264	24992
114	9.855153	108212224	77213696	31155920	24992
115	11.76823	108212224	77213696	23976528	24992
116	11.351798	108212224	77213696	33887984	24992
117	13.42621	108212224	77213696	28035696	24992
118	14.142225	108212224	77213696	22832392	24992
119	13.820546	108212224	77213696	34724024	24992
120	15.756703	108212224	77213696	30845600	24992
121	16.485128	108212224	77213696	27630072	24992
122	0.814016	108212224	77213696	24992088	24992
123	1.534299	108212224	77213696	26329816	24992
124	2.477838	108212224	77213696	28326952	24992
125	3.000881	108212224	77213696	30983528	24992
126	3.73962	108212224	77213696	34299984	24992
127	6.020048	108212224	77213696	21833536	24992
128	5.227173	108212224	77213696	26468800	24992
129	5.99949	108212224	77213696	31763472	24992
130	8.144513	108212224	77213696	21293800	24992
131	7.763973	108212224	77213696	27908240	24992
132	8.387817	108212224	77213696	35182080	24992
133	10.363408	108212224	77213696	26695760	24992
134	9.651374	108212224	77213696	35288400	24992
135	12.025921	108212224	77213696	28121760	24992
136	12.741057	108212224	77213696	21591424	24992
137	11.867206	108212224	77213696	32162304	24992
138	14.741329	108212224	77213696	26958560	24992
139	14.928229	108212224	77213696	22417856	24992
140	14.318448	108212224	77213696	34969136	24992
141	16.493998	108212224	77213696	31753488	24992
142	0.815163	108212224	77213696	29140952	24992
143	1.538394	108212224	77213696	30478680	24992
144	2.267661	108212224	77213696	32475816	24992
145	3.225308	108212224	77213696	35132360	24992
146	5.230282	108212224	77213696	21999536	24992
147	4.536685	108212224	77213696	25975400	24992
148	5.487636	108212224	77213696	30610680	24992
149	6.023226	108212224	77213696	35905352	24992
150	8.355304	108212224	77213696	25435376	24992
151	7.565295	108212224	77213696	32049896	24992
152	9.908049	108212224	77213696	22898056	24992
153	9.175007	108212224	77213696	30831368	24992
154	11.364162	108212224	77213696	22988768	24992
155	10.434397	108212224	77213696	32240832	24992
156	12.826066	108212224	77213696	25725128	24992
157	12.325844	108212224	77213696	36295992	24992
158	14.104093	108212224	77213696	31108504	24992
159	15.316072	108212224	77213696	26567592	24992
160	15.802738	108212224	77213696	22669560	24992
161	15.273621	108212224	77213696	35880264	24992
162	0.818065	108212224	77213696	33263888	24992
163	1.53851	108212224	77213696	34601616	24992
164	2.264806	108212224	77213696	36598784	24992
165	4.696181	108212224	77213696	22819296	24992
166	3.754743	108212224	77213696	26135752	24992
167	4.46941	108212224	77213696	30111616	24992
168	5.425804	108212224	77213696	34746880	24992
169	7.510398	108212224	77213696	23604640	24992
170	6.793272	108212224	77213696	29559672	24992
171	7.629877	108212224	77213696	36174144	24992
172	9.790599	108212224	77213696	27029824	24992
173	9.191751	108212224	77213696	34963088	24992
174	11.236075	108212224	77213696	27131768	24992
175	10.620739	108212224	77213696	36383864	24992
176	12.936696	108212224	77213696	29867904	24992
177	13.513683	108212224	77213696	24000168	24992
178	13.046542	108212224	77213696	35232336	24992
179	15.196084	108212224	77213696	30691040	24992
180	15.93923	108212224	77213696	26813376	24992
181	16.62541	108212224	77213696	23577320	24992
182	0.831431	108212224	77213696	37394040	24992
183	3.069014	108212224	77213696	22283488	24992
184	2.271851	108212224	77213696	24280624	24992
185	3.004379	108212224	77213696	26937168	24992
186	4.026414	108212224	77213696	30253624	24992
187	4.473485	108212224	77213696	34229488	24992
188	6.850634	108212224	77213696	22432424	24992
189	5.952149	108212224	77213696	27727096	24992
190	6.89949	108212224	77213696	33682128	24992
191	9.051688	108212224	77213696	23876720	24992
192	8.607029	108212224	77213696	31150560	24992
193	10.676008	108212224	77213696	22655144	24992
194	9.924511	108212224	77213696	31247976	24992
195	12.30823	108212224	77213696	24069064	24992
196	11.479858	108212224	77213696	33980520	24992
197	13.57937	108212224	77213696	28128408	24992
198	14.466934	108212224	77213696	22925104	24992
199	14.105998	108212224	77213696	34816632	24992
200	16.276534	108212224	77213696	30938312	24992
201	16.587672	108212224	77213696	27723152	24992
202	0.812474	108212224	77213696	25085024	24992
203	1.533436	108212224	77213696	26422752	24992
204	2.278046	108212224	77213696	28419888	24992
205	3.007051	108212224	77213696	31076432	24992
206	3.824807	108212224	77213696	34392888	24992
207	6.115978	108212224	77213696	21926704	24992
208	5.433404	108212224	77213696	26561960	24992
209	5.951827	108212224	77213696	31856632	24992
210	6.908994	108212224	77213696	37811728	24992
211	9.092702	108212224	77213696	28013432	24992
212	8.415772	108212224	77213696	35287272	24992
213	10.816247	108212224	77213696	26801080	24992
214	9.937019	108212224	77213696	35393800	24992
215	12.18856	108212224	77213696	28214296	24992
216	11.345422	108212224	77213696	38125752	24992
217	13.754627	108212224	77213696	32267240	24992
218	14.340516	108212224	77213696	27064016	24992
219	15.247785	108212224	77213696	22510104	24992
220	14.346472	108212224	77213696	35061384	24992
221	16.816346	108212224	77213696	31845720	24992
222	1.059214	108212224	77213696	29229968	24992
223	1.543121	108212224	77213696	30567712	24992
224	2.271758	108212224	77213696	32564848	24992
225	2.995038	108212224	77213696	35221392	24992
226	5.605646	108212224	77213696	22086856	24992
227	4.726112	108212224	77213696	26062712	24992
228	5.269128	108212224	77213696	30698008	24992
229	6.167058	108212224	77213696	35995592	24992
230	8.460879	108212224	77213696	25528496	24992
231	7.449535	108212224	77213696	32142936	24992
232	10.352006	108212224	77213696	22994424	24992
233	9.13663	108212224	77213696	30927784	24992
234	11.443601	108212224	77213696	23085184	24992
235	10.720004	108212224	77213696	32337232	24992
236	13.093422	108212224	77213696	25821976	24992
237	11.926684	108212224	77213696	36392872	24992
238	14.574121	108212224	77213696	31206040	24992
239	15.319155	108212224	77213696	26665336	24992
240	16.096862	108212224	77213696	22768184	24992
241	15.27585	108212224	77213696	35979000	24992
242	0.823981	108212224	77213696	33362688	24992
243	1.56743	108212224	77213696	34700416	24992
244	2.281156	108212224	77213696	36697552	24992
245	4.747356	108212224	77213696	22918744	24992
246	4.037498	108212224	77213696	26235240	24992
247	4.487383	108212224	77213696	30211104	24992
248	5.209099	108212224	77213696	34846368	24992
249	7.779188	108212224	77213696	23704448	24992
250	6.915115	108212224	77213696	29659480	24992
251	7.434001	108212224	77213696	36273920	24992
252	10.190416	108212224	77213696	27129536	24992
253	9.573565	108212224	77213696	35062832	24992
254	12.076355	108212224	77213696	27231656	24992
255	10.430352	108212224	77213696	36483784	24992
256	13.322958	108212224	77213696	29967824	24992
257	14.365748	108212224	77213696	24100088	24992
258	12.834505	108212224	77213696	35332240	24992
259	15.623186	108212224	77213696	30791120	24992
260	16.265845	108212224	77213696	26913376	24992
261	17.152071	108212224	77213696	23677784	24992
262	0.816107	108212224	77213696	37494552	24992
263	1.536433	108212224	77213696	38832280	24992
264	4.105682	108212224	77213696	24386736	24992
265	3.014373	108212224	77213696	27043360	24992
266	3.957631	108212224	77213696	30359816	24992
267	4.477269	108212224	77213696	34335680	24992
268	5.208479	108212224	77213696	38970944	24992
269	7.811793	108212224	77213696	27843232	24992
270	7.121016	108212224	77213696	33798264	24992
271	9.501481	108212224	77213696	23987528	24992
272	8.188853	108212224	77213696	31261368	24992
273	8.947915	108212224	77213696	39194616	24992
274	11.744196	108212224	77213696	31362536	24992
275	12.492962	108212224	77213696	24183576	24992
276	11.284587	108212224	77213696	34095032	24992
277	14.066737	108212224	77213696	28227080	24992
278	13.020394	108212224	77213696	39459248	24992
279	15.610959	108212224	77213696	34927096	24992
280	16.014711	108212224	77213696	31048920	24992
281	17.172716	108212224	77213696	27819760	24992
282	0.817765	108212224	77213696	25182528	24992
283	1.54052	108212224	77213696	26520256	24992
284	2.306748	108212224	77213696	28517392	24992
285	2.999242	108212224	77213696	31173936	24992
286	3.955925	108212224	77213696	34490392	24992
287	4.472168	108212224	77213696	38466256	24992
288	7.375231	108212224	77213696	26668968	24992
289	5.961128	108212224	77213696	31963688	24992
290	6.697807	108212224	77213696	37918720	24992
291	9.65183	108212224	77213696	28121104	24992
292	8.229788	108212224	77213696	35394944	24992
293	11.126537	108212224	77213696	26899080	24992
294	9.805505	108212224	77213696	35491816	24992
295	12.646126	108212224	77213696	28312408	24992
296	11.551531	108212224	77213696	38223864	24992
297	14.232109	108212224	77213696	32371640	24992
298	15.552039	108212224	77213696	27168336	24992
299	13.753189	108212224	77213696	39060024	24992
300	16.062694	108212224	77213696	35181608	24992
301	17.289212	108212224	77213696	31966080	24992
302	0.812617	108212224	77213696	29327984	24992
303	1.5351	108212224	77213696	30665712	24992
304	2.267157	108212224	77213696	32662848	24992
305	3.009746	108212224	77213696	35319392	24992
306	3.783857	108212224	77213696	38635848	24992
307	6.44684	108212224	77213696	26169368	24992
308	5.660163	108212224	77213696	30804632	24992
309	5.989815	108212224	77213696	36099304	24992
310	8.890539	108212224	77213696	25629680	24992
311	7.437061	108212224	77213696	32244120	24992
312	8.150219	108212224	77213696	39517960	24992
313	12.156105	108212224	77213696	31044088	24992
314	10.135118	108212224	77213696	39636792	24992
315	12.607812	108212224	77213696	32468584	24992
316	13.43667	108212224	77213696	25936840	24992
317	12.329783	108212224	77213696	36507896	24992
318	14.882801	108212224	77213696	31302736	24992
319	15.398457	108212224	77213696	26760688	24992
320	14.556173	108212224	77213696	39311968	24992
321	17.152162	108212224	77213696	36094760	24992
322	0.816902	108212224	77213696	33477136	24992
323	1.541315	108212224	77213696	34814864	24992
324	2.28325	108212224	77213696	36812000	24992
325	3.208533	108212224	77213696	39468544	24992
326	5.799357	108212224	77213696	26331064	24992
327	4.581384	108212224	77213696	30306928	24992
328	5.459836	108212224	77213696	34942192	24992
329	6.17458	108212224	77213696	40236896	24992
330	8.764476	108212224	77213696	29762064	24992
331	7.672321	108212224	77213696	36376504	24992
332	10.305241	108212224	77213696	27221832	24992
333	9.261187	108212224	77213696	35155112	24992
334	12.272801	108212224	77213696	27310400	24992
335	10.440869	108212224	77213696	36562544	24992
336	13.634574	108212224	77213696	30044920	24992
337	12.091099	108212224	77213696	40615784	24992
338	15.000831	108212224	77213696	35424184	24992
339	15.673852	108212224	77213696	30881848	24992
340	16.459938	108212224	77213696	26983280	24992
341	15.039573	108212224	77213696	40194016	24992
342	0.849586	108212224	77213696	37575504	24992
343	1.566401	108212224	77213696	38913232	24992
344	2.2935	108212224	77213696	40910368	24992
345	5.361239	108212224	77213696	27128048	24992
346	3.966281	108212224	77213696	30444616	24992
347	4.47792	108212224	77213696	34420480	24992
348	5.260744	108212224	77213696	39055744	24992
349	8.318376	108212224	77213696	27909712	24992
350	6.944694	108212224	77213696	33864744	24992
351	7.43944	108212224	77213696	40479184	24992
352	10.478577	108212224	77213696	31330816	24992
353	9.736974	108212224	77213696	39273144	24992
354	12.4503	108212224	77213696	31439416	24992
355	10.927494	108212224	77213696	40691464	24992
356	13.581374	108212224	77213696	34172912	24992
357	14.308219	108212224	77213696	28303752	24992
358	12.970418	108212224	77213696	39535968	24992
359	16.051148	108212224	77213696	34993208	24992
360	16.619794	108212224	77213696	31122952	24992
361	17.535446	108212224	77213696	27889960	24992
362	2.972417	108212224	77213696	25252992	24992
363	1.555351	108212224	77213696	26590728	24992
364	2.28794	108212224	77213696	28587864	24992
365	3.050618	108212224	77213696	31244440	24992
366	3.813688	108212224	77213696	34560896	24992
367	4.586629	108212224	77213696	38536760	24992
368	7.493484	108212224	77213696	26735808	24992
369	6.405171	108212224	77213696	32030480	24992
370	6.733607	108212224	77213696	37985512	24992
371	9.713628	108212224	77213696	28180408	24992
372	8.586622	108212224	77213696	35454248	24992
373	11.56613	108212224	77213696	26956488	24992
374	9.871938	108212224	77213696	35549128	24992
375	12.648544	108212224	77213696	28368296	24992
376	11.354501	108212224	77213696	38279752	24992
377	14.442204	108212224	77213696	32426632	24992
378	14.966444	108212224	77213696	27222016	24992
379	13.566462	108212224	77213696	39113752	24992
380	16.583618	108212224	77213696	35233952	24992
381	17.591869	108212224	77213696	32017368	24992
382	0.841844	108212224	77213696	29378336	24992
383	1.563172	108212224	77213696	30716064	24992
384	2.310901	108212224	77213696	32713200	24992
385	3.052198	108212224	77213696	35369744	24992
386	3.805368	108212224	77213696	38686200	24992
387	6.951593	108212224	77213696	26216528	24992
388	5.31652	108212224	77213696	30851888	24992
389	6.219224	108212224	77213696	36146560	24992
390	8.953043	108212224	77213696	25672776	24992
391	7.453314	108212224	77213696	32287216	24992
392	8.393419	108212224	77213696	39561056	24992
393	11.397911	108212224	77213696	31071912	24992
394	9.740784	108212224	77213696	39664552	24992
395	12.869298	108212224	77213696	32495504	24992
396	13.597401	108212224	77213696	25963752	24992
397	12.119109	108212224	77213696	36534880	24992
398	15.459621	108212224	77213696	31329944	24992
399	16.072788	108212224	77213696	26788328	24992
400	14.099915	108212224	77213696	39339608	24992
401	17.316696	108212224	77213696	36122480	24992
402	0.817666	108212224	77213696	33505320	24992
403	1.540823	108212224	77213696	34843048	24992
404	2.276843	108212224	77213696	36840184	24992
405	2.99572	108212224	77213696	39496728	24992
406	6.211207	108212224	77213696	26359360	24992
407	4.49227	108212224	77213696	30335224	24992
408	5.223913	108212224	77213696	34970488	24992
409	6.010298	108212224	77213696	40265160	24992
410	9.306481	108212224	77213696	29791000	24992
411	7.942585	108212224	77213696	36405440	24992
412	10.506537	108212224	77213696	27251216	24992
413	8.909987	108212224	77213696	35184464	24992
414	12.178101	108212224	77213696	27339992	24992
415	10.611425	108212224	77213696	36592056	24992
416	13.493032	108212224	77213696	30074640	24992
417	12.930698	108212224	77213696	40654264	24992
418	15.353699	108212224	77213696	35465544	24992
419	15.737231	108212224	77213696	30923432	24992
420	16.937351	108212224	77213696	27025328	24992
421	15.341918	108212224	77213696	40236112	24992
422	0.819261	108212224	77213696	37618384	24992
423	1.553759	108212224	77213696	38956112	24992
424	2.263195	108212224	77213696	40953248	24992
425	5.342229	108212224	77213696	27171600	24992
426	3.753857	108212224	77213696	30488056	24992
427	4.702025	108212224	77213696	34463920	24992
428	5.202691	108212224	77213696	39099280	24992
429	8.615582	108212224	77213696	27953552	24992
430	6.712293	108212224	77213696	33908584	24992
431	7.469226	108212224	77213696	40523056	24992
432	10.91095	108212224	77213696	31375360	24992
433	9.247332	108212224	77213696	39308656	24992
434	12.144342	108212224	77213696	31475120	24992
435	10.738604	108212224	77213696	40727184	24992
436	14.039485	108212224	77213696	34209336	24992
437	14.289721	108212224	77213696	28340192	24992
438	12.915951	108212224	77213696	39572344	24992
439	16.250928	108212224	77213696	35029680	24992
440	16.523105	108212224	77213696	31150672	24992
441	17.465197	108212224	77213696	27914128	24992
442	0.814601	108212224	77213696	41730880	24992
443	1.542879	108212224	77213696	43068608	24992
444	4.672717	108212224	77213696	28620704	24992
445	3.239757	108212224	77213696	31277248	24992
446	3.749027	108212224	77213696	34593736	24992
447	4.471867	108212224	77213696	38569600	24992
448	8.055349	108212224	77213696	26768760	24992
449	5.960493	108212224	77213696	32063424	24992
450	6.976153	108212224	77213696	38018456	24992
451	10.114107	108212224	77213696	28204192	24992
452	8.400383	108212224	77213696	35478096	24992
453	11.379931	108212224	77213696	26980360	24992
454	9.668565	108212224	77213696	35573168	24992
455	13.092759	108212224	77213696	28392320	24992
456	11.520475	108212224	77213696	38303776	24992
457	14.58743	108212224	77213696	32449792	24992
458	15.326315	108212224	77213696	27245608	24992
459	13.835787	108212224	77213696	39137168	24992
460	16.998493	108212224	77213696	35257640	24992
461	18.662448	108212224	77213696	32055880	24992
462	0.816639	108212224	77213696	29417680	24992
463	1.534849	108212224	77213696	30755408	24992
464	2.3272	108212224	77213696	32752544	24992
465	3.002196	108212224	77213696	35409104	24992
466	3.788084	108212224	77213696	38725560	24992
467	4.706173	108212224	77213696	42701456	24992
468	7.946642	108212224	77213696	30899344	24992
469	6.009437	108212224	77213696	36194016	24992
470	6.961981	108212224	77213696	42149048	24992
471	10.035982	108212224	77213696	32345136	24992
472	8.178893	108212224	77213696	39618976	24992
473	11.650818	108212224	77213696	31119888	24992
474	10.141202	108212224	77213696	39712528	24992
475	12.909904	108212224	77213696	32530528	24992
476	11.381789	108212224	77213696	42441984	24992
477	14.589634	108212224	77213696	36587056	24992
478	15.416996	108212224	77213696	31381816	24992
479	13.681048	108212224	77213696	43273376	24992
480	17.466439	108212224	77213696	39403416	24992
481	18.04622	108212224	77213696	36186224	24992
482	0.816299	108212224	77213696	33547368	24992
483	1.537082	108212224	77213696	34885096	24992
484	2.281613	108212224	77213696	36882232	24992
485	3.234722	108212224	77213696	39538776	24992
486	3.951342	108212224	77213696	42855232	24992
487	7.198694	108212224	77213696	30384552	24992
488	5.645018	108212224	77213696	35020056	24992
489	6.144662	108212224	77213696	40314728	24992
490	9.514297	108212224	77213696	29839504	24992
491	7.450665	108212224	77213696	36453944	24992
492	8.166746	108212224	77213696	43727784	24992
493	11.689047	108212224	77213696	35236896	24992
494	9.927964	108212224	77213696	43829584	24992
495	12.938683	108212224	77213696	36658968	24992
496	13.899156	108212224	77213696	30126680	24992
497	12.08427	108212224	77213696	40697576	24992
498	15.425983	108212224	77213696	35491888	24992
499	16.351147	108212224	77213696	30949264	24992
500	14.298328	108212224	77213696	43500544	24992
501	17.421825	108212224	77213696	40282088	24992
502	0.861728	108212224	77213696	37664112	24992
503	1.62047	108212224	77213696	39001840	24992
504	2.39677	108212224	77213696	40998976	24992
505	3.318675	108212224	77213696	43655536	24992
506	6.357938	108212224	77213696	30517352	24992
507	4.534337	108212224	77213696	34493232	24992
508	5.43369	108212224	77213696	39128496	24992
509	5.93604	108212224	77213696	44423168	24992
510	9.636703	108212224	77213696	33936160	24992
511	7.806953	108212224	77213696	40550600	24992
512	11.077211	108212224	77213696	31394864	24992
513	9.13281	108212224	77213696	39328112	24992
514	12.279803	108212224	77213696	31491392	24992
515	10.399913	108212224	77213696	40743504	24992
516	14.18335	108212224	77213696	34225192	24992
517	14.5457	108212224	77213696	28355608	24992
518	12.979994	108212224	77213696	39587736	24992
519	16.305189	108212224	77213696	35044736	24992
520	17.007545	108212224	77213696	31165024	24992
521	15.25289	108212224	77213696	44375776	24992
522	1.037435	108212224	77213696	41756896	24992
523	1.53524	108212224	77213696	43094624	24992
524	4.898166	108212224	77213696	28646872	24992
525	3.018272	108212224	77213696	31303408	24992
526	3.949606	108212224	77213696	34619864	24992
527	4.469116	108212224	77213696	38595728	24992
528	5.22674	108212224	77213696	43231040	24992
529	8.638479	108212224	77213696	32083888	24992
530	6.952306	108212224	77213696	38038920	24992
531	7.421951	108212224	77213696	44653408	24992
532	11.048389	108212224	77213696	35509760	24992
533	8.922451	108212224	77213696	43443024	24992
534	12.59886	108212224	77213696	35608384	24992
535	10.614569	108212224	77213696	44860464	24992
536	14.172671	108212224	77213696	38335704	24992
537	15.344091	108212224	77213696	32466024	24992
538	12.640329	108212224	77213696	43698224	24992
539	16.359854	108212224	77213696	39160736	24992
540	17.002149	108212224	77213696	35280896	24992
541	17.769541	108212224	77213696	32043184	24992
542	3.522565	108212224	77213696	29405984	24992
543	1.58338	108212224	77213696	30743712	24992
544	2.272341	108212224	77213696	32740848	24992
545	3.005118	108212224	77213696	35397392	24992
546	3.735045	108212224	77213696	38713896	24992
547	4.74897	108212224	77213696	42689760	24992
548	8.27066	108212224	77213696	30887816	24992
549	6.203603	108212224	77213696	36182488	24992
550	6.800917	108212224	77213696	42137520	24992
551	10.174235	108212224	77213696	32330704	24992
552	8.403437	108212224	77213696	39604624	24992
553	11.863891	108212224	77213696	31105808	24992
554	9.671165	108212224	77213696	39698448	24992
555	13.344068	108212224	77213696	32516736	24992
556	11.434932	108212224	77213696	42434992	24992
557	14.738872	108212224	77213696	36587104	24992
558	15.853579	108212224	77213696	31388680	24992
559	13.665187	108212224	77213696	43280256	24992
560	17.336303	108212224	77213696	39399928	24992
561	17.827784	108212224	77213696	36182832	24992
562	0.831018	108212224	77213696	33543592	24992
563	1.53324	108212224	77213696	34881320	24992
564	2.279255	108212224	77213696	36878456	24992
565	3.000661	108212224	77213696	39535048	24992
566	3.952931	108212224	77213696	42851504	24992
567	7.320742	108212224	77213696	30380952	24992
568	5.322226	108212224	77213696	35016216	24992
569	6.176613	108212224	77213696	40310888	24992
570	9.537898	108212224	77213696	29835696	24992
571	7.661006	108212224	77213696	36450136	24992
572	8.378983	108212224	77213696	43724024	24992
573	12.02167	108212224	77213696	35233824	24992
574	9.886771	108212224	77213696	43826464	24992
575	13.392458	108212224	77213696	36656520	24992
576	13.97672	108212224	77213696	30124232	24992
577	12.095586	108212224	77213696	40695096	24992
578	15.782292	108212224	77213696	35489424	24992
579	16.411277	108212224	77213696	30946880	24992
580	14.318081	108212224	77213696	43498176	24992
581	17.699364	108212224	77213696	40280408	24992
582	0.818013	108212224	77213696	37662672	24992
583	1.54257	108212224	77213696	39000400	24992
584	3.235532	108212224	77213696	40999328	24992
585	3.358955	108212224	77213696	43655872	24992
586	6.612396	108212224	77213696	30531736	24992
587	4.70989	108212224	77213696	34507600	24992
588	5.202339	108212224	77213696	39142864	24992
589	6.186716	108212224	77213696	44437536	24992
590	9.543201	108212224	77213696	33962304	24992
591	7.445605	108212224	77213696	40576744	24992
592	11.20321	108212224	77213696	31421240	24992
593	9.245793	108212224	77213696	39354488	24992
594	12.571332	108212224	77213696	31509312	24992
595	10.626993	108212224	77213696	40761360	24992
596	14.176038	108212224	77213696	34243240	24992
597	12.112933	108212224	77213696	44814120	24992
598	16.496559	108212224	77213696	39624696	24992
599	16.648839	108212224	77213696	35082440	24992
600	17.015832	108212224	77213696	31184000	24992
601	15.113425	108212224	77213696	44394752	24992
602	0.875825	108212224	77213696	41776560	24992
603	1.543596	108212224	77213696	43114288	24992
604	2.319535	108212224	77213696	45111424	24992
605	6.075618	108212224	77213696	31329088	24992
606	3.760949	108212224	77213696	34645544	24992
607	4.488401	108212224	77213696	38621456	24992
608	5.427364	108212224	77213696	43256720	24992
609	9.131492	108212224	77213696	32109584	24992
610	6.967934	108212224	77213696	38064648	24992
611	7.649533	108212224	77213696	44679088	24992
612	11.076655	108212224	77213696	35530144	24992
613	9.145483	108212224	77213696	43463392	24992
614	12.990301	108212224	77213696	35628880	24992
615	10.46342	108212224	77213696	44880944	24992
616	14.265754	108212224	77213696	38362488	24992
617	15.040921	108212224	77213696	32492848	24992
618	12.778187	108212224	77213696	43724968	24992
619	16.52823	108212224	77213696	39181776	24992
620	17.522547	108212224	77213696	35302064	24992
621	18.004173	108212224	77213696	32065200	24992
622	0.817731	108212224	77213696	45881920	24992
623	4.481929	108212224	77213696	30769816	24992
624	2.33991	108212224	77213696	32766944	24992
625	3.241627	108212224	77213696	35423488	24992
626	3.783094	108212224	77213696	38739944	24992
627	4.519831	108212224	77213696	42715808	24992
628	8.249839	108212224	77213696	30913976	24992
629	6.549038	108212224	77213696	36208704	24992
630	6.716111	108212224	77213696	42163736	24992
631	10.835172	108212224	77213696	32353216	24992
632	8.290955	108212224	77213696	39627056	24992
633	12.071636	108212224	77213696	31128432	24992
634	9.86856	108212224	77213696	39721072	24992
635	13.634791	108212224	77213696	32539600	24992
636	11.338295	108212224	77213696	42451056	24992
637	15.053185	108212224	77213696	36596448	24992
638	15.956262	108212224	77213696	31391320	24992
639	13.546964	108212224	77213696	43282848	24992
640	17.362036	108212224	77213696	39402696	24992
641	18.014095	108212224	77213696	36185696	24992
642	0.81261	108212224	77213696	33546936	24992
643	1.532309	108212224	77213696	34884664	24992
644	2.493634	108212224	77213696	36881864	24992
645	3.208559	108212224	77213696	39538408	24992
646	3.734633	108212224	77213696	42854912	24992
647	4.473356	108212224	77213696	46830776	24992
648	8.405571	108212224	77213696	35027976	24992
649	6.010641	108212224	77213696	40322648	24992
650	6.913776	108212224	77213696	46277680	24992
651	10.666246	108212224	77213696	36473752	24992
652	8.250678	108212224	77213696	43747704	24992
653	12.147727	108212224	77213696	35248664	24992
654	9.657991	108212224	77213696	43841304	24992
655	13.994196	108212224	77213696	36659320	24992
656	11.464871	108212224	77213696	46570808	24992
657	15.124486	108212224	77213696	40715896	24992
658	16.133479	108212224	77213696	35510752	24992
659	13.60634	108212224	77213696	47402280	24992
660	17.573527	108212224	77213696	43516112	24992
661	18.079154	108212224	77213696	40298608	24992
662	0.823724	108212224	77213696	37664672	24992
663	1.53783	108212224	77213696	39002400	24992
664	2.277265	108212224	77213696	40999536	24992
665	3.243896	108212224	77213696	43656112	24992
666	3.75813	108212224	77213696	46972568	24992
667	7.54635	108212224	77213696	34501904	24992
668	5.231535	108212224	77213696	39137168	24992
669	6.002103	108212224	77213696	44431840	24992
670	10.000277	108212224	77213696	33956312	24992
671	7.659153	108212224	77213696	40570752	24992
672	11.520154	108212224	77213696	31407448	24992
673	9.141287	108212224	77213696	39340696	24992
674	12.900148	108212224	77213696	31495504	24992
675	10.454485	108212224	77213696	40747552	24992
676	14.433163	108212224	77213696	34229656	24992
677	12.203758	108212224	77213696	44800520	24992
678	15.753416	108212224	77213696	39611240	24992
679	16.919271	108212224	77213696	35068712	24992
680	14.290008	108212224	77213696	47620008	24992
681	18.49198	108212224	77213696	44401552	24992
682	0.82027	108212224	77213696	41783656	24992
683	1.539808	108212224	77213696	43121384	24992
684	2.273458	108212224	77213696	45118520	24992
685	2.989984	108212224	77213696	47775064	24992
686	6.853872	108212224	77213696	34636192	24992
687	4.480846	108212224	77213696	38612056	24992
688	5.426181	108212224	77213696	43247320	24992
689	9.255702	108212224	77213696	32100288	24992
690	6.711212	108212224	77213696	38055384	24992
691	7.438058	108212224	77213696	44669824	24992
692	11.611462	108212224	77213696	35514104	24992
693	9.123734	108212224	77213696	43447352	24992
694	13.142436	108212224	77213696	35613080	24992
695	10.676465	108212224	77213696	44865128	24992
696	14.722864	108212224	77213696	38346672	24992
697	15.397699	108212224	77213696	32477304	24992
698	12.850894	108212224	77213696	43709424	24992
699	16.786014	108212224	77213696	39166360	24992
700	17.52803	108212224	77213696	35286648	24992
701	15.167105	108212224	77213696	48497400	24992
702	0.814063	108212224	77213696	45864552	24992
703	1.53697	108212224	77213696	47202280	24992
704	5.625304	108212224	77213696	32754520	24992
705	3.058492	108212224	77213696	35411064	24992
706	3.732294	108212224	77213696	38727520	24992
707	4.934587	108212224	77213696	42703400	24992
708	5.20887	108212224	77213696	47338664	24992
709	9.336419	108212224	77213696	36205384	24992
710	6.710144	108212224	77213696	42160480	24992
711	10.628005	108212224	77213696	32345424	24992
712	8.39867	108212224	77213696	39619256	24992
713	9.11277	108212224	77213696	47552504	24992
714	12.886548	108212224	77213696	39717960	24992
715	13.845902	108212224	77213696	32536640	24992
716	11.411372	108212224	77213696	42448176	24992
717	15.31592	108212224	77213696	36578536	24992
718	12.83977	108212224	77213696	47810656	24992
719	17.030934	108212224	77213696	43284888	24992
720	17.50711	108212224	77213696	39404968	24992
721	18.431819	108212224	77213696	36167176	24992
722	0.81641	108212224	77213696	33528800	24992
723	1.58337	108212224	77213696	34866528	24992
724	2.278923	108212224	77213696	36863664	24992
725	3.21726	108212224	77213696	39520208	24992
726	3.786919	108212224	77213696	42836664	24992
727	4.517067	108212224	77213696	46812528	24992
728	8.554515	108212224	77213696	35010416	24992
729	5.96008	108212224	77213696	40305088	24992
730	6.686873	108212224	77213696	46260120	24992
731	10.775748	108212224	77213696	36456320	24992
732	8.327549	108212224	77213696	43730160	24992
733	12.473236	108212224	77213696	35231072	24992
734	9.656308	108212224	77213696	43823712	24992
735	13.659774	108212224	77213696	36641760	24992
736	11.446703	108212224	77213696	46553232	24992
737	15.390121	108212224	77213696	40698352	24992
738	16.164336	108212224	77213696	35493128	24992
739	13.621328	108212224	77213696	47384656	24992
740	17.378121	108212224	77213696	43504280	24992
741	18.819138	108212224	77213696	40287008	24992
742	0.815499	108212224	77213696	37647816	24992
743	1.536775	108212224	77213696	38985544	24992
744	2.278074	108212224	77213696	40982680	24992
745	3.240354	108212224	77213696	43639224	24992
746	3.775438	108212224	77213696	46955760	24992
747	8.033334	108212224	77213696	34485096	24992
748	5.430681	108212224	77213696	39120360	24992
749	5.954699	108212224	77213696	44415032	24992
750	10.012799	108212224	77213696	33939616	24992
751	7.44083	108212224	77213696	40554184	24992
752	8.359018	108212224	77213696	47828088	24992
753	12.805457	108212224	77213696	39337920	24992
754	9.854063	108212224	77213696	47930560	24992
755	14.054272	108212224	77213696	40760632	24992
756	15.263151	108212224	77213696	34228440	24992
757	12.07568	108212224	77213696	44799304	24992
758	16.223794	108212224	77213696	39593696	24992
759	16.962781	108212224	77213696	35051056	24992
760	14.368612	108212224	77213696	47602352	24992
761	19.001606	108212224	77213696	44384664	24992
762	0.819331	108212224	77213696	41766720	24992
763	1.536588	108212224	77213696	43104448	24992
764	2.276993	108212224	77213696	45101584	24992
765	3.005933	108212224	77213696	47758144	24992
766	7.282726	108212224	77213696	34619960	24992
767	4.502514	108212224	77213696	38595824	24992
768	5.640812	108212224	77213696	43231088	24992
769	5.940941	108212224	77213696	48525760	24992
770	10.138852	108212224	77213696	38050112	24992
771	7.672122	108212224	77213696	44664552	24992
772	11.815512	108212224	77213696	35508856	24992
773	8.922219	108212224	77213696	43442104	24992
774	13.093076	108212224	77213696	35596912	24992
775	10.704136	108212224	77213696	44848960	24992
776	14.871981	108212224	77213696	38330616	24992
777	12.084825	108212224	77213696	48901480	24992
778	16.343935	108212224	77213696	43712072	24992
779	17.103392	108212224	77213696	39169512	24992
780	17.96657	108212224	77213696	35270704	24992
781	14.857928	108212224	77213696	48481392	24992
782	0.820357	108212224	77213696	45863280	24992
783	1.53271	108212224	77213696	47201008	24992
784	2.252745	108212224	77213696	49198144	24992
785	6.439306	108212224	77213696	35415792	24992
786	3.749468	108212224	77213696	38732248	24992
787	4.469182	108212224	77213696	42708112	24992
788	5.496829	108212224	77213696	47343376	24992
789	9.633292	108212224	77213696	36196240	24992
790	6.706642	108212224	77213696	42151304	24992
791	7.42983	108212224	77213696	48765744	24992
792	11.85568	108212224	77213696	39616816	24992
793	9.364043	108212224	77213696	47550064	24992
794	13.257789	108212224	77213696	39715472	24992
795	10.766091	108212224	77213696	48967520	24992
796	14.917764	108212224	77213696	42448952	24992
797	15.369656	108212224	77213696	36579360	24992
798	12.833348	108212224	77213696	47811480	24992
799	17.401257	108212224	77213696	43268208	24992
800	18.204007	108212224	77213696	39388544	24992
801	19.279793	108212224	77213696	36151200	24992
802	1.169073	108212224	77213696	49967920	24992
803	5.223644	108212224	77213696	34855136	24992
804	2.330844	108212224	77213696	36852272	24992
805	3.048545	108212224	77213696	39508816	24992
806	3.807802	108212224	77213696	42825272	24992
807	4.716203	108212224	77213696	46801136	24992
808	8.805474	108212224	77213696	34999232	24992
809	5.962172	108212224	77213696	40293904	24992
810	6.903469	108212224	77213696	46248968	24992
811	11.336995	108212224	77213696	36438368	24992
812	8.201519	108212224	77213696	43712208	24992
813	12.534075	108212224	77213696	35213552	24992
814	9.933449	108212224	77213696	43806224	24992
815	14.23864	108212224	77213696	36624672	24992
816	11.439641	108212224	77213696	46536128	24992
817	15.878475	108212224	77213696	40681504	24992
818	16.243217	108212224	77213696	35476264	24992
819	13.569736	108212224	77213696	47367792	24992
820	17.945254	108212224	77213696	43487640	24992
821	18.707372	108212224	77213696	40270624	24992
822	1.043821	108212224	77213696	37631816	24992
823	1.541492	108212224	77213696	38969544	24992
824	2.269985	108212224	77213696	40966680	24992
825	2.990481	108212224	77213696	43623224	24992
826	3.961457	108212224	77213696	46939680	24992
827	4.731672	108212224	77213696	50915544	24992
828	9.080413	108212224	77213696	39112680	24992
829	5.962207	108212224	77213696	44407400	24992
830	6.894528	108212224	77213696	50362432	24992
831	11.266176	108212224	77213696	40557832	24992
832	8.197492	108212224	77213696	47831672	24992
833	12.823215	108212224	77213696	39332472	24992
834	9.880132	108212224	77213696	47925112	24992
835	14.007924	108212224	77213696	40743128	24992
836	11.35854	108212224	77213696	50654632	24992
837	15.959925	108212224	77213696	44799048	24992
838	16.229143	108212224	77213696	39593808	24992
839	17.642566	108212224	77213696	35033472	24992
840	14.267972	108212224	77213696	47584752	24992
841	18.956015	108212224	77213696	44367256	24992
842	0.816451	108212224	77213696	41749728	24992
843	1.537955	108212224	77213696	43087456	24992
844	2.27698	108212224	77213696	45084592	24992
845	3.200805	108212224	77213696	47741136	24992
846	3.958984	108212224	77213696	51057672	24992
847	8.569393	108212224	77213696	38586320	24992
848	5.414224	108212224	77213696	43221584	24992
849	6.158195	108212224	77213696	48516256	24992
850	10.724958	108212224	77213696	38061432	24992
851	7.541725	108212224	77213696	44675936	24992
852	12.281272	108212224	77213696	35522928	24992
853	9.19523	108212224	77213696	43456176	24992
854	13.786449	108212224	77213696	35610984	24992
855	10.623059	108212224	77213696	44863064	24992
856	15.262046	108212224	77213696	38345200	24992
857	12.167632	108212224	77213696	48916064	24992
858	16.841973	108212224	77213696	43726688	24992
859	17.262996	108212224	77213696	39184096	24992
860	14.539727	108212224	77213696	51735472	24992
861	18.793287	108212224	77213696	48493048	24992
862	0.828929	108212224	77213696	45875032	24992
863	1.532658	108212224	77213696	47212760	24992
864	2.280595	108212224	77213696	49209896	24992
865	6.738553	108212224	77213696	35426792	24992
866	3.772921	108212224	77213696	38743256	24992
867	4.479191	108212224	77213696	42719120	24992
868	5.428627	108212224	77213696	47354384	24992
869	9.903085	108212224	77213696	36207344	24992
870	6.77342	108212224	77213696	42162376	24992
871	7.497249	108212224	77213696	48776816	24992
872	12.150758	108212224	77213696	39628048	24992
873	9.199607	108212224	77213696	47561296	24992
874	13.609747	108212224	77213696	39726880	24992
875	10.617083	108212224	77213696	48978928	24992
876	15.372693	108212224	77213696	42460472	24992
877	15.709393	108212224	77213696	36590784	24992
878	12.869703	108212224	77213696	47822952	24992
879	17.483608	108212224	77213696	43279936	24992
880	18.20728	108212224	77213696	39400304	24992
881	19.068071	108212224	77213696	36163400	24992
882	0.816962	108212224	77213696	49980176	24992
883	1.533059	108212224	77213696	51317904	24992
884	6.272401	108212224	77213696	36870144	24992
885	3.022195	108212224	77213696	39526688	24992
886	3.976282	108212224	77213696	42843144	24992
887	4.471019	108212224	77213696	46819008	24992
888	5.197869	108212224	77213696	51454272	24992
889	10.236722	108212224	77213696	40321776	24992
890	6.994023	108212224	77213696	46276856	24992
891	11.346201	108212224	77213696	36461808	24992
892	8.391576	108212224	77213696	43735648	24992
893	8.912188	108212224	77213696	51668896	24992
894	13.715053	108212224	77213696	43833616	24992
895	14.537875	108212224	77213696	36652072	24992
896	11.477735	108212224	77213696	46563528	24992
897	16.166597	108212224	77213696	40693648	24992
898	13.102047	108212224	77213696	51925768	24992
899	17.968797	108212224	77213696	47400256	24992
900	18.24634	108212224	77213696	43521712	24992
901	23.090919	108212224	77213696	40285080	24992
902	0.843158	106876928	75640832	21303312	24992
903	1.542975	106876928	75640832	22641072	24992
904	2.281685	106876928	75640832	24638208	24992
905	3.293624	106876928	75640832	27294752	24992
906	3.959801	106876928	75640832	14130512	24992
907	4.547291	106876928	75640832	18106376	24992
908	5.436598	106876928	75640832	22741640	24992
909	6.204747	106876928	75640832	11567880	24992
910	6.749031	106876928	75640832	17522912	24992
911	7.676378	106876928	75640832	24137352	24992
912	8.726331	106876928	75640832	14944800	24992
913	9.242907	106876928	75640832	22878048	24992
914	9.978865	106876928	75640832	15004816	24992
915	10.627849	106876928	75640832	24256864	24992
916	11.605969	106876928	75640832	17701624	24992
917	12.24601	106876928	75640832	11802808	24992
918	12.929815	106876928	75640832	23034936	24992
919	13.864962	106876928	75640832	18459200	24992
920	14.403378	106876928	75640832	14544704	24992
921	15.072643	106876928	75640832	27755808	24992
922	0.816256	106876928	75640832	25097696	24992
923	1.545836	106876928	75640832	26435424	24992
924	2.478009	106876928	75640832	11956056	24992
925	3.020292	106876928	75640832	14612600	24992
926	3.991635	106876928	75640832	17929056	24992
927	4.570836	106876928	75640832	21904920	24992
928	5.831673	106876928	75640832	26541808	24992
929	6.333713	106876928	75640832	15368944	24992
930	6.791511	106876928	75640832	21323976	24992
931	7.581471	106876928	75640832	27938416	24992
932	8.724553	106876928	75640832	18740576	24992
933	9.141765	106876928	75640832	26673824	24992
934	9.967581	106876928	75640832	18800360	24992
935	10.875233	106876928	75640832	11584056	24992
936	11.153985	106876928	75640832	21495512	24992
937	12.23311	106876928	75640832	15596688	24992
938	13.133649	106876928	75640832	26828856	24992
939	13.875528	106876928	75640832	22258064	24992
940	14.487279	106876928	75640832	18343328	24992
941	15.361775	106876928	75640832	15083088	24992
942	0.816138	106876928	75640832	12425896	24992
943	1.534743	106876928	75640832	13763624	24992
944	2.277887	106876928	75640832	15760760	24992
945	3.004768	106876928	75640832	18417448	24992
946	3.981435	106876928	75640832	21733904	24992
947	4.732343	106876928	75640832	25709768	24992
948	5.632711	106876928	75640832	13875392	24992
949	6.245655	106876928	75640832	19170064	24992
950	6.808192	106876928	75640832	25125096	24992
951	7.713633	106876928	75640832	15279936	24992
952	8.466422	106876928	75640832	22553824	24992
953	9.684513	106876928	75640832	14019632	24992
954	9.724508	106876928	75640832	22612272	24992
955	10.704297	106876928	75640832	15396320	24992
956	11.361187	106876928	75640832	25307776	24992
957	12.369496	106876928	75640832	19413376	24992
958	12.889423	106876928	75640832	14177160	24992
959	13.855634	106876928	75640832	26068720	24992
960	14.455132	106876928	75640832	22153496	24992
961	15.386582	106876928	75640832	18899584	24992
962	0.830292	106876928	75640832	16241448	24992
963	1.556442	106876928	75640832	17579176	24992
964	2.264396	106876928	75640832	19576312	24992
965	3.241661	106876928	75640832	22232984	24992
966	3.741427	106876928	75640832	25549440	24992
967	4.962243	106876928	75640832	13051936	24992
968	5.22912	106876928	75640832	17687312	24992
969	6.179256	106876928	75640832	22981984	24992
970	6.999593	106876928	75640832	12473112	24992
971	7.50888	106876928	75640832	19087552	24992
972	8.394427	106876928	75640832	26361528	24992
973	9.169878	106876928	75640832	17830232	24992
974	9.888652	106876928	75640832	26422872	24992
975	10.856463	106876928	75640832	19210688	24992
976	11.633974	106876928	75640832	12651264	24992
977	12.104975	106876928	75640832	23222128	24992
978	13.108755	106876928	75640832	17985528	24992
979	14.089879	106876928	75640832	13409928	24992
980	14.338703	106876928	75640832	25961288	24992
981	15.452178	106876928	75640832	22706768	24992
982	0.877924	106876928	75640832	20055016	24992
983	1.534625	106876928	75640832	21392744	24992
984	2.324945	106876928	75640832	23389880	24992
985	3.059273	106876928	75640832	26046456	24992
986	3.981309	106876928	75640832	12885864	24992
987	4.711628	106876928	75640832	16861728	24992
988	5.221371	106876928	75640832	21496992	24992
989	6.179623	106876928	75640832	26791664	24992
990	7.03649	106876928	75640832	16282336	24992
991	7.570744	106876928	75640832	22896776	24992
992	8.656333	106876928	75640832	13704456	24992
993	8.928284	106876928	75640832	21637704	24992
994	10.180425	106876928	75640832	13761024	24992
995	10.649135	106876928	75640832	23013072	24992
996	11.733339	106876928	75640832	16458104	24992
997	12.36261	106876928	75640832	27028968	24992
998	13.148335	106876928	75640832	21797272	24992
999	13.792634	106876928	75640832	17221672	24992
1000	15.028923	106876928	75640832	13301968	24992
