x	Duration	RSS	HeapTotal	HeapUsed	External
0	NA	109379584	123875328	29305264	24992
1	2.629314	109379584	123875328	29982064	24992
2	3.508239	109379584	123875328	31319936	24992
3	5.53474	109379584	123875328	33325776	24992
4	4.847527	109379584	123875328	19558016	24992
5	3.967349	109379584	123875328	22874464	24992
6	4.700114	109379584	123875328	26850448	24992
7	5.269635	109379584	123875328	31485688	24992
8	7.998499	109379584	123875328	20349368	24992
9	6.742669	109379584	123875328	26304424	24992
10	7.392746	109379584	123875328	32918840	24992
11	10.213076	109379584	123875328	23773184	24992
12	8.65203	109379584	123875328	31706408	24992
13	11.140774	109379584	123875328	23874392	24992
14	10.198554	109379584	123875328	33126432	24992
15	13.01703	109379584	123875328	26609728	24992
16	13.665182	109649920	123875328	20741456	24992
17	12.306696	109649920	123875328	31973568	24992
18	14.744996	109649920	123875328	27431896	24992
19	15.772942	109649920	123875328	23554304	24992
20	16.412222	109649920	123875328	20318760	24992
21	15.201318	109649920	123875328	34189272	24992
22	0.788243	109649920	123875328	32231024	24992
23	1.486946	109649920	123875328	33568840	24992
24	2.190502	109649920	123875328	35566048	24992
25	5.03	109649920	123875328	21786816	24992
26	3.647244	109649920	123875328	25103360	24992
27	4.580025	109649920	123875328	29079296	24992
28	5.253778	109649920	123875328	33714760	24992
29	7.877069	109649920	123875328	22571048	24992
30	6.432427	109649920	123875328	28526168	24992
31	7.402683	109649920	123875328	35140824	24992
32	10.225918	109649920	123875328	25995464	24992
33	8.771826	109649920	123875328	33928880	24992
34	11.258929	109649920	123875328	26096208	24992
35	9.981334	109649920	123875328	35348408	24992
36	12.896414	109920256	123875328	28830200	24992
37	13.634094	109920256	123875328	22961288	24992
38	12.330615	109920256	123875328	34193560	24992
39	15.266705	109920256	123875328	29651008	24992
40	15.586946	109920256	123875328	25772120	24992
41	16.743328	109920256	123875328	22534968	24992
42	2.799634	109920256	123875328	19898152	24992
43	1.507564	109920256	123875328	21235968	24992
44	2.175867	109920256	123875328	23233208	24992
45	3.096332	109920256	123875328	25890496	24992
46	3.592127	109920256	123875328	29207056	24992
47	4.296722	109920256	123875328	33182992	24992
48	7.270473	109920256	123875328	21383176	24992
49	5.722844	109920256	123875328	26677920	24992
50	6.477048	109920256	123875328	32633040	24992
51	9.41259	109920256	123875328	22829176	24992
52	7.847695	109920256	123875328	30103136	24992
53	10.89343	109920256	123875328	21605728	24992
54	9.267741	109920256	123875328	30198456	24992
55	12.480657	110190592	123875328	23017936	24992
56	10.930524	110190592	123875328	32929464	24992
57	13.543294	110190592	123875328	27075968	24992
58	14.781019	110190592	123875328	21871536	24992
59	13.189565	110190592	123875328	33763152	24992
60	15.979681	110190592	123875328	29883640	24992
61	16.730002	110190592	123875328	26667400	24992
62	0.785545	110190592	123875328	24028528	24992
63	1.482867	110190592	123875328	25366344	24992
64	2.171495	110190592	123875328	27363552	24992
65	2.881817	110190592	123875328	30020168	24992
66	3.600123	110190592	123875328	33336712	24992
67	6.626685	110190592	123875328	20867440	24992
68	5.243799	110190592	123875328	25502776	24992
69	5.698802	110190592	123875328	30797520	24992
70	8.797505	110190592	123875328	20324272	24992
71	7.138482	110190592	123875328	26938792	24992
72	7.859328	110190592	123875328	34212704	24992
73	11.054092	110190592	123875328	25723976	24992
74	9.539537	110190592	123875328	34316816	24992
75	12.148691	110460928	123875328	27148136	24992
76	13.043307	110460928	123875328	20616624	24992
77	11.617457	110460928	123875328	31187784	24992
78	14.311811	110460928	123875328	25983136	24992
79	15.452379	110460928	123875328	21441736	24992
80	13.764152	110460928	123875328	33993328	24992
81	16.866074	110460928	123875328	30778000	24992
82	0.789527	110460928	123875328	28161336	24992
83	1.498611	110460928	123875328	29499064	24992
84	2.166221	110460928	123875328	31497336	24992
85	2.88433	110460928	123875328	34153880	24992
86	5.707898	110460928	123875328	21017648	24992
87	4.522615	110460928	123875328	24993560	24992
88	5.005552	110460928	123875328	29628824	24992
89	5.927052	110460928	123875328	34923496	24992
90	8.673134	110460928	123875328	24450504	24992
91	7.123137	110460928	123875328	31064944	24992
92	10.304436	110460928	123875328	21910720	24992
93	8.768532	110460928	123875328	29843968	24992
94	11.711002	110731264	123875328	21999544	24992
95	10.2766	110731264	123875328	31251592	24992
96	13.132489	110731264	123875328	24734176	24992
97	11.392212	110731264	123875328	35305056	24992
98	14.573191	110731264	123875328	30116336	24992
99	15.241563	110731264	123875328	25574224	24992
100	15.793861	110731264	123875328	21676120	24992
101	14.649798	110731264	123875328	34886824	24992
102	0.817878	110731264	123875328	32268984	24992
103	1.499681	110731264	123875328	33606712	24992
104	2.169868	110731264	123875328	35603848	24992
105	5.686872	110731264	123875328	21822200	24992
106	3.608955	110731264	123875328	25138656	24992
107	4.521724	110731264	123875328	29114520	24992
108	4.994271	110731264	123875328	33749800	24992
109	8.183251	110731264	123875328	22603992	24992
110	6.483981	110731264	123875328	28559024	24992
111	7.137281	110731264	123875328	35173464	24992
112	10.476137	110731264	123875328	26025768	24992
113	8.576804	110731264	123875328	33959016	24992
114	11.540875	111001600	123875328	26125496	24992
115	10.213077	111001600	123875328	35377576	24992
116	13.179561	111001600	123875328	28859808	24992
117	13.919509	111001600	123875328	22990664	24992
118	12.329705	111001600	123875328	34222784	24992
119	15.324024	111001600	123875328	29680120	24992
120	16.118378	111001600	123875328	25800952	24992
121	16.780366	111001600	123875328	22564456	24992
122	0.790616	111001600	123875328	36381176	24992
123	1.47128	111001600	123875328	37718904	24992
124	4.463405	111001600	123875328	23271000	24992
125	3.111523	111001600	123875328	25927544	24992
126	3.592363	111001600	123875328	29244096	24992
127	4.289751	111001600	123875328	33219960	24992
128	5.016543	111001600	123875328	37855240	24992
129	8.399313	111001600	123875328	26713336	24992
130	6.433693	111001600	123875328	32668368	24992
131	9.70679	111001600	123875328	22854128	24992
132	8.12551	111001600	123875328	30127968	24992
133	10.915663	111001600	123875328	21627744	24992
134	9.51147	111001600	123875328	30220392	24992
135	12.583869	111271936	123875328	23039576	24992
136	10.975994	111271936	123875328	32951032	24992
137	13.799829	111271936	123875328	27097048	24992
138	14.936895	111271936	123875328	21892880	24992
139	12.838584	111271936	123875328	33784744	24992
140	16.249203	111271936	123875328	29905184	24992
141	16.879516	111271936	123875328	26688680	24992
142	0.783738	111271936	123875328	24054160	24992
143	1.472162	111271936	123875328	25391888	24992
144	2.415851	111271936	123875328	27389024	24992
145	3.210752	111271936	123875328	30045632	24992
146	3.586988	111271936	123875328	33362088	24992
147	4.285259	111271936	123875328	37337952	24992
148	7.424592	111271936	123875328	25538712	24992
149	5.725038	111271936	123875328	30833384	24992
150	6.652491	111271936	123875328	36788416	24992
151	9.793967	111271936	123875328	26986088	24992
152	7.856766	111271936	123875328	34259992	24992
153	10.997082	111542272	123875328	25761784	24992
154	9.49057	111542272	123875328	34354424	24992
155	12.653973	111542272	123875328	27173128	24992
156	10.685852	111542272	123875328	37084584	24992
157	14.164834	111542272	123875328	31230360	24992
158	14.763989	111542272	123875328	26025728	24992
159	13.259439	111542272	123875328	37917272	24992
160	16.194186	111542272	123875328	34036784	24992
161	16.924736	111542272	123875328	30819752	24992
162	0.786025	111542272	123875328	28180752	24992
163	1.476817	111542272	123875328	29518480	24992
164	2.183127	111542272	123875328	31515616	24992
165	2.879404	111542272	123875328	34172160	24992
166	3.586433	111542272	123875328	37488616	24992
167	6.839818	111542272	123875328	25018816	24992
168	5.244079	111542272	123875328	29654080	24992
169	5.762813	111542272	123875328	34948752	24992
170	9.164021	111542272	123875328	24474856	24992
171	7.161105	111542272	123875328	31089296	24992
172	7.835169	111542272	123875328	38363136	24992
173	11.485296	111542272	123875328	29873304	24992
174	9.489888	111542272	123875328	38466088	24992
175	12.479076	111812608	123875328	31296352	24992
176	13.482184	111812608	123875328	24764592	24992
177	11.733548	111812608	123875328	35335472	24992
178	14.647121	111812608	123875328	30130312	24992
179	15.793902	111812608	123875328	25588200	24992
180	13.545749	111812608	123875328	38139656	24992
181	17.019925	111812608	123875328	34921728	24992
182	0.795961	111812608	123875328	32304136	24992
183	1.47251	111812608	123875328	33641864	24992
184	2.188738	111812608	123875328	35639000	24992
185	2.877385	111812608	123875328	38295544	24992
186	6.297227	111812608	123875328	25158064	24992
187	4.306987	111812608	123875328	29134184	24992
188	5.215778	111812608	123875328	33769448	24992
189	5.824026	111812608	123875328	39064120	24992
190	9.225774	111812608	123875328	28585624	24992
191	7.470482	111812608	123875328	35200064	24992
192	10.424329	111812608	123875328	26045392	24992
193	8.567462	111812608	123875328	33978640	24992
194	12.067095	112082944	123875328	26137400	24992
195	10.20086	112082944	123875328	35389448	24992
196	13.393967	112082944	123875328	28871808	24992
197	14.436116	112082944	123875328	23002736	24992
198	12.607247	112082944	123875328	34234864	24992
199	15.516467	112082944	123875328	29692312	24992
200	16.419455	112082944	123875328	25813128	24992
201	14.483033	112082944	123875328	39023832	24992
202	0.787365	112082944	123875328	36405304	24992
203	1.479316	112082944	123875328	37743064	24992
204	4.729252	112082944	123875328	23295840	24992
205	3.113875	112082944	123875328	25952376	24992
206	3.594248	112082944	123875328	29268832	24992
207	4.288693	112082944	123875328	33244696	24992
208	5.01114	112082944	123875328	37879960	24992
209	8.424408	112082944	123875328	26733928	24992
210	6.793904	112082944	123875328	32688960	24992
211	7.412787	112082944	123875328	39303400	24992
212	10.735597	112082944	123875328	30161160	24992
213	8.824506	112082944	123875328	38094408	24992
214	12.37413	112353280	123875328	30260696	24992
215	10.366112	112353280	123875328	39512824	24992
216	13.443279	112353280	123875328	32991840	24992
217	14.544907	112353280	123875328	27122704	24992
218	12.105515	112353280	123875328	38354824	24992
219	15.797056	112353280	123875328	33815016	24992
220	16.399661	112353280	123875328	29935624	24992
221	17.357988	112353280	123875328	26698360	24992
222	3.478696	112353280	123875328	24061336	24992
223	1.501509	112353280	123875328	25399064	24992
224	2.1883	112353280	123875328	27396200	24992
225	2.873668	112353280	123875328	30052744	24992
226	3.81304	112353280	123875328	33369200	24992
227	4.571632	112353280	123875328	37345064	24992
228	7.7439	112353280	123875328	25544112	24992
229	5.961043	112353280	123875328	30841664	24992
230	6.770599	112353280	123875328	36796696	24992
231	10.165901	112353280	123875328	26994392	24992
232	8.081352	112353280	123875328	34268264	24992
233	11.487647	112623616	123875328	25773224	24992
234	9.493264	112623616	123875328	34365864	24992
235	12.707136	112623616	123875328	27184872	24992
236	10.881881	112623616	123875328	37096328	24992
237	14.553802	112623616	123875328	31242232	24992
238	14.850575	112623616	123875328	26037536	24992
239	13.096336	112623616	123875328	37929096	24992
240	16.505915	112623616	123875328	34049424	24992
241	17.337133	112623616	123875328	30832872	24992
242	0.787686	112623616	123875328	28193856	24992
243	1.492659	112623616	123875328	29531584	24992
244	2.175123	112623616	123875328	31528752	24992
245	2.883878	112623616	123875328	34185376	24992
246	3.622132	112623616	123875328	37501832	24992
247	7.289224	112623616	123875328	25032160	24992
248	5.009984	112623616	123875328	29667424	24992
249	5.925291	112623616	123875328	34962096	24992
250	9.393218	112623616	123875328	24488312	24992
251	7.263351	112623616	123875328	31102752	24992
252	8.046809	112623616	123875328	38376592	24992
253	11.540208	112893952	123875328	29887496	24992
254	9.288165	112893952	123875328	38480136	24992
255	12.969899	112893952	123875328	31311072	24992
256	13.707469	112893952	123875328	24779312	24992
257	11.40538	112893952	123875328	35350176	24992
258	15.108058	112893952	123875328	30145064	24992
259	15.945622	112893952	123875328	25603016	24992
260	13.758509	112893952	123875328	38154344	24992
261	17.487921	112893952	123875328	34937104	24992
262	0.813556	112893952	123875328	32319784	24992
263	1.47382	112893952	123875328	33657512	24992
264	2.179516	112893952	123875328	35654648	24992
265	2.877939	112893952	123875328	38311192	24992
266	6.680191	112893952	123875328	25173712	24992
267	4.318673	112893952	123875328	29149576	24992
268	5.008202	112893952	123875328	33784840	24992
269	5.930157	112893952	123875328	39079512	24992
270	9.301035	112893952	123875328	28605272	24992
271	7.138785	112893952	123875328	35219712	24992
272	11.269678	113164288	123875328	26065264	24992
273	8.891384	113164288	123875328	33998512	24992
274	12.345765	113164288	123875328	26154056	24992
275	10.214734	113164288	123875328	35406328	24992
276	13.782214	113164288	123875328	28888912	24992
277	11.817316	113164288	123875328	39459776	24992
278	15.237357	113164288	123875328	34271056	24992
279	16.050167	113164288	123875328	29728992	24992
280	16.718436	113164288	123875328	25830952	24992
281	14.2771	113164288	123875328	39041640	24992
282	0.843613	113164288	123875328	36423816	24992
283	1.473989	113164288	123875328	37761544	24992
284	2.225791	113164288	123875328	39758680	24992
285	5.942576	113164288	123875328	25977048	24992
286	3.612524	113164288	123875328	29293504	24992
287	4.299075	113164288	123875328	33269400	24992
288	5.452479	113164288	123875328	37904664	24992
289	8.6556	113164288	123875328	26758760	24992
290	6.431235	113164288	123875328	32713824	24992
291	7.36375	113164288	123875328	39328680	24992
292	11.088175	113434624	123875328	30180968	24992
293	8.578112	113434624	123875328	38114216	24992
294	12.405778	113434624	123875328	30280568	24992
295	10.056158	113434624	123875328	39532616	24992
296	13.836697	113434624	123875328	33014752	24992
297	14.623408	113434624	123875328	27145608	24992
298	12.328887	113434624	123875328	38377728	24992
299	15.94249	113434624	123875328	33835064	24992
300	16.793535	113434624	123875328	29955880	24992
301	17.634914	113434624	123875328	26719416	24992
302	0.809519	113434624	123875328	40536136	24992
303	5.114758	113434624	123875328	25424416	24992
304	2.555669	113434624	123875328	27421544	24992
305	3.074605	113434624	123875328	30078088	24992
306	3.890071	113434624	123875328	33394544	24992
307	5.24838	113434624	123875328	37370408	24992
308	8.730233	113434624	123875328	25569568	24992
309	5.786938	113434624	123875328	30864232	24992
310	6.994168	113434624	123875328	36819264	24992
311	10.52968	113704960	123875328	27010088	24992
312	8.135586	113704960	123875328	34283928	24992
313	11.799288	113704960	123875328	25786168	24992
314	9.691569	113704960	123875328	34378808	24992
315	13.211083	113704960	123875328	27198088	24992
316	10.7424	113704960	123875328	37109592	24992
317	14.827476	113704960	123875328	31255592	24992
318	15.678789	113704960	123875328	26051328	24992
319	13.010286	113704960	123875328	37942856	24992
320	16.852031	113704960	123875328	34063232	24992
321	17.74637	113704960	123875328	30846776	24992
322	0.798489	113704960	123875328	28208144	24992
323	1.484461	113704960	123875328	29545872	24992
324	2.171951	113704960	123875328	31543008	24992
325	3.091234	113704960	123875328	34199552	24992
326	3.584319	113704960	123875328	37516056	24992
327	4.297559	113704960	123875328	41491920	24992
328	8.225245	113704960	123875328	29690176	24992
329	5.74478	113704960	123875328	34984848	24992
330	6.410457	113704960	123875328	40939880	24992
331	10.443853	113975296	123875328	31137552	24992
332	8.124351	113975296	123875328	38411408	24992
333	12.001122	113975296	123875328	29913280	24992
334	9.274893	113975296	123875328	38505920	24992
335	13.232915	113975296	123875328	31324656	24992
336	10.722345	113975296	123875328	41236160	24992
337	14.696124	113975296	123875328	35381952	24992
338	15.605616	113975296	123875328	30177304	24992
339	13.131082	113975296	123875328	42068832	24992
340	16.862142	113975296	123875328	38185688	24992
341	17.75812	113975296	123875328	34968680	24992
342	0.976761	113975296	123875328	32332616	24992
343	1.498978	113975296	123875328	33670344	24992
344	2.364489	113975296	123875328	35667480	24992
345	2.906073	113975296	123875328	38324072	24992
346	3.592032	113975296	123875328	41640528	24992
347	7.39058	113975296	123875328	29170744	24992
348	5.017608	113975296	123875328	33806008	24992
349	5.922624	113975296	123875328	39100680	24992
350	9.735318	114245632	123875328	28626128	24992
351	7.149868	114245632	123875328	35240568	24992
352	8.059264	114245632	123875328	42514488	24992
353	11.952346	114245632	123875328	34009376	24992
354	13.317442	114245632	123875328	26173952	24992
355	10.010226	114245632	123875328	35426008	24992
356	14.107653	114245632	123875328	28908248	24992
357	11.604669	114245632	123875328	39479112	24992
358	15.34892	114245632	123875328	34290568	24992
359	16.615731	114245632	123875328	29748536	24992
360	13.634186	114245632	123875328	42304264	24992
361	17.822424	114245632	123875328	39090784	24992
362	0.803362	114515968	123875328	36477608	24992
363	1.477858	114515968	123875328	37815336	24992
364	2.222948	114515968	123875328	39812472	24992
365	3.098002	114515968	123875328	42469016	24992
366	6.697851	114515968	123875328	29330848	24992
367	4.509407	114515968	123875328	33306712	24992
368	5.272995	114515968	123875328	37941976	24992
369	9.38481	114515968	123875328	26796176	24992
370	6.808005	114515968	123875328	32751224	24992
371	7.708411	114515968	123875328	39365664	24992
372	11.41936	114515968	123875328	30211032	24992
373	8.625797	114515968	123875328	38144280	24992
374	12.745954	114515968	123875328	30310792	24992
375	10.138413	114515968	123875328	39562840	24992
376	14.419088	114515968	123875328	33045200	24992
377	15.299102	114515968	123875328	27176168	24992
378	12.49306	114515968	123875328	38409264	24992
379	16.091286	114515968	123875328	33866728	24992
380	17.267903	114786304	123875328	29987608	24992
381	14.294466	114786304	123875328	43198296	24992
382	0.786788	114786304	123875328	40566984	24992
383	1.484525	114786304	123875328	41904712	24992
384	5.392158	114786304	123875328	27457288	24992
385	3.113328	114786304	123875328	30113832	24992
386	3.66524	114786304	123875328	33430288	24992
387	4.38222	114786304	123875328	37406200	24992
388	5.075001	114786304	123875328	42041464	24992
389	9.220986	114786304	123875328	30908296	24992
390	6.646135	114786304	123875328	36863344	24992
391	10.611435	114786304	123875328	27049520	24992
392	7.940011	114786304	123875328	34323352	24992
393	8.614221	114786304	123875328	42256600	24992
394	12.757128	114786304	123875328	34422872	24992
395	13.573715	114786304	123875328	27242032	24992
396	10.972906	114786304	123875328	37153488	24992
397	14.939381	114786304	123875328	31284328	24992
398	12.339549	114786304	123875328	42516448	24992
399	16.353762	114786304	123875328	37991384	24992
400	17.729081	115056640	123875328	34112056	24992
401	17.943497	115056640	123875328	30874600	24992
402	0.788956	115056640	123875328	28236400	24992
403	1.474873	115056640	123875328	29574128	24992
404	2.187238	115056640	123875328	31571264	24992
405	2.888368	115056640	123875328	34227808	24992
406	3.579285	115056640	123875328	37544264	24992
407	4.56113	115056640	123875328	41520128	24992
408	8.602187	115056640	123875328	29719088	24992
409	5.72953	115056640	123875328	35013760	24992
410	6.433693	115056640	123875328	40968792	24992
411	10.554264	115056640	123875328	31166576	24992
412	8.318288	115056640	123875328	38440416	24992
413	12.945949	115056640	123875328	29942544	24992
414	10.117236	115056640	123875328	38535184	24992
415	13.619876	115056640	123875328	31353920	24992
416	10.73538	115056640	123875328	41265504	24992
417	15.174988	115056640	123875328	35411328	24992
418	17.070099	115326976	123875328	30215080	24992
419	13.207678	115326976	123875328	42106608	24992
420	17.220432	115326976	123875328	38227048	24992
421	17.956554	115326976	123875328	35010256	24992
422	0.841869	115326976	123875328	32371160	24992
423	1.473917	115326976	123875328	33708888	24992
424	2.184338	115326976	123875328	35706024	24992
425	2.87987	115326976	123875328	38362568	24992
426	3.584453	115326976	123875328	41679056	24992
427	7.93936	115326976	123875328	29209272	24992
428	5.051741	115326976	123875328	33844536	24992
429	6.092985	115326976	123875328	39139208	24992
430	10.257833	115326976	123875328	28665200	24992
431	7.368337	115326976	123875328	35279672	24992
432	8.100637	115326976	123875328	42553512	24992
433	12.118886	115326976	123875328	34064432	24992
434	9.494153	115326976	123875328	42657072	24992
435	13.626526	115326976	123875328	35488040	24992
436	14.171176	115326976	123875328	28956280	24992
437	11.611538	115326976	123875328	39527144	24992
438	16.014494	115326976	123875328	34322096	24992
439	16.50478	115597312	123875328	29779984	24992
440	13.790394	115597312	123875328	42331376	24992
441	18.022585	115597312	123875328	39114136	24992
442	0.78964	115597312	123875328	36496544	24992
443	1.476303	115597312	123875328	37834272	24992
444	2.22944	115597312	123875328	39831408	24992
445	2.874319	115597312	123875328	42487968	24992
446	7.040856	115597312	123875328	29350488	24992
447	4.546418	115597312	123875328	33326352	24992
448	5.010826	115597312	123875328	37961616	24992
449	6.076777	115597312	123875328	43256288	24992
450	10.126746	115597312	123875328	32782096	24992
451	7.139737	115597312	123875328	39396536	24992
452	11.912174	115597312	123875328	30241912	24992
453	8.620346	115597312	123875328	38175160	24992
454	13.127188	115597312	123875328	30330672	24992
455	10.26817	115597312	123875328	39582720	24992
456	14.253967	115597312	123875328	33065080	24992
457	11.614689	115597312	123875328	43635944	24992
458	15.856772	115597312	123875328	38447432	24992
459	16.621283	115867648	123875328	33905368	24992
460	17.402413	115867648	123875328	30006880	24992
461	14.463525	115867648	123875328	43217568	24992
462	0.825566	115867648	123875328	40599824	24992
463	1.492694	115867648	123875328	41937552	24992
464	2.199184	115867648	123875328	43934688	24992
465	6.51045	115867648	123875328	30153040	24992
466	3.799791	115867648	123875328	33469496	24992
467	4.701067	115867648	123875328	37445360	24992
468	5.265874	115867648	123875328	42080624	24992
469	9.691875	115867648	123875328	30934720	24992
470	7.301735	115867648	123875328	36889832	24992
471	7.604439	115867648	123875328	43518760	24992
472	11.704069	115867648	123875328	34371064	24992
473	8.68423	115867648	123875328	42304312	24992
474	13.077087	115867648	123875328	34470120	24992
475	10.216469	115867648	123875328	43722168	24992
476	14.725255	115867648	123875328	37203600	24992
477	15.144466	115867648	123875328	31333912	24992
478	12.329768	115867648	123875328	42566032	24992
479	16.436081	116137984	123875328	38022840	24992
480	17.967055	116137984	123875328	34154616	24992
481	17.965262	116137984	123875328	30917640	24992
482	0.788581	116137984	123875328	44734360	24992
483	5.062447	116137984	123875328	29621576	24992
484	2.21646	116137984	123875328	31618712	24992
485	2.893721	116137984	123875328	34275256	24992
486	3.575956	116137984	123875328	37591712	24992
487	4.547973	116137984	123875328	41567704	24992
488	8.616258	116137984	123875328	29765800	24992
489	5.739293	116137984	123875328	35060472	24992
490	6.461428	116137984	123875328	41015552	24992
491	10.848716	116137984	123875328	31204968	24992
492	7.968911	116137984	123875328	38478808	24992
493	12.24619	116137984	123875328	29980152	24992
494	9.509805	116137984	123875328	38572840	24992
495	13.679051	116137984	123875328	31391288	24992
496	10.731026	116137984	123875328	41302744	24992
497	15.088058	116137984	123875328	35448104	24992
498	15.827216	116408320	123875328	30242864	24992
499	13.057168	116408320	123875328	42134392	24992
500	17.299911	116408320	123875328	38254240	24992
501	17.932114	116408320	123875328	35037208	24992
502	0.78711	116408320	123875328	32398400	24992
503	1.476448	116408320	123875328	33736128	24992
504	2.175278	116408320	123875328	35733264	24992
505	2.902583	116408320	123875328	38389808	24992
506	3.660507	116408320	123875328	41706264	24992
507	4.424997	116408320	123875328	45682128	24992
508	8.676468	116408320	123875328	33879328	24992
509	5.729989	116408320	123875328	39174080	24992
510	6.483393	116408320	123875328	45129112	24992
511	11.023209	116408320	123875328	35324512	24992
512	7.92811	116408320	123875328	42598352	24992
513	12.5122	116408320	123875328	34099152	24992
514	9.27704	116408320	123875328	42691792	24992
515	13.750328	116408320	123875328	35509744	24992
516	10.687904	116408320	123875328	45421232	24992
517	15.410053	116408320	123875328	39565664	24992
518	15.882654	116678656	123875328	34360424	24992
519	16.821672	116678656	123875328	29800088	24992
520	13.754294	116678656	123875328	42351368	24992
521	18.36367	116678656	123875328	39133952	24992
522	0.785584	116678656	123875328	36516424	24992
523	1.480514	116678656	123875328	37854152	24992
524	2.169322	116678656	123875328	39851288	24992
525	2.889945	116678656	123875328	42507832	24992
526	3.809217	116678656	123875328	45824320	24992
527	8.003379	116678656	123875328	33352968	24992
528	5.23049	116678656	123875328	37988264	24992
529	5.722989	116678656	123875328	43282936	24992
530	10.393942	116678656	123875328	32807408	24992
531	7.383723	116678656	123875328	39421864	24992
532	11.681651	116678656	123875328	30258560	24992
533	8.573895	116678656	123875328	38191824	24992
534	13.48189	116678656	123875328	30346632	24992
535	9.984496	116678656	123875328	39598712	24992
536	14.908252	116678656	123875328	33080864	24992
537	11.813198	116678656	123875328	43651728	24992
538	15.870366	116948992	123875328	38462400	24992
539	16.880644	116948992	123875328	33919808	24992
540	13.748499	116948992	123875328	46471088	24992
541	18.266785	116948992	123875328	43228664	24992
542	0.787777	116948992	123875328	40610584	24992
543	1.473254	116948992	123875328	41948312	24992
544	2.190176	116948992	123875328	43945464	24992
545	6.849881	116948992	123875328	30162216	24992
546	3.616768	116948992	123875328	33478680	24992
547	4.287221	116948992	123875328	37454544	24992
548	5.207233	116948992	123875328	42089808	24992
549	9.538224	116948992	123875328	30942768	24992
550	6.721855	116948992	123875328	36897800	24992
551	7.382557	116948992	123875328	43512240	24992
552	11.884635	116948992	123875328	34363520	24992
553	8.558315	116948992	123875328	42296768	24992
554	13.101692	116948992	123875328	34462352	24992
555	10.204946	116948992	123875328	43714400	24992
556	14.769884	116948992	123875328	37209544	24992
557	15.515972	117219328	123875328	31346656	24992
558	12.325579	117219328	123875328	42578792	24992
559	16.775284	117219328	123875328	38035728	24992
560	18.042554	117219328	123875328	34156032	24992
561	18.217398	117219328	123875328	30919256	24992
562	0.831751	117219328	123875328	44736016	24992
563	1.555565	117219328	123875328	46073744	24992
564	6.087324	117219328	123875328	31625984	24992
565	3.14055	117219328	123875328	34282528	24992
566	3.59257	117219328	123875328	37598984	24992
567	4.290813	117219328	123875328	41574848	24992
568	5.000779	117219328	123875328	46210112	24992
569	9.676665	117219328	123875328	35077616	24992
570	6.665881	117219328	123875328	41032744	24992
571	11.348652	117219328	123875328	31217696	24992
572	7.864602	117219328	123875328	38491536	24992
573	8.621769	117219328	123875328	46424784	24992
574	13.790199	117219328	123875328	38589504	24992
575	13.942831	117219328	123875328	31407960	24992
576	10.916064	117219328	123875328	41319416	24992
577	15.560566	117489664	123875328	35449632	24992
578	12.18431	117489664	123875328	46681752	24992
579	16.963787	117489664	123875328	42155440	24992
580	17.890276	117489664	123875328	38275360	24992
581	18.397393	117489664	123875328	35037552	24992
582	0.788606	117489664	123875328	32399176	24992
583	2.275282	117489664	123875328	33738696	24992
584	2.183694	117489664	123875328	35735832	24992
585	3.095138	117489664	123875328	38392376	24992
586	3.894641	117489664	123875328	41722808	24992
587	4.304974	117489664	123875328	45698720	24992
588	9.25402	117489664	123875328	33896960	24992
589	5.739776	117489664	123875328	39191632	24992
590	6.473656	117489664	123875328	45146744	24992
591	11.32663	117489664	123875328	35343264	24992
592	8.071121	117489664	123875328	42617104	24992
593	12.539269	117489664	123875328	34118016	24992
594	9.485598	117489664	123875328	42710768	24992
595	14.387613	117489664	123875328	35528816	24992
596	10.794726	117489664	123875328	45440272	24992
597	15.764545	117760000	123875328	39585360	24992
598	16.595564	117760000	123875328	34380120	24992
599	13.255928	117760000	123875328	46271648	24992
600	17.546515	117760000	123875328	42391272	24992
601	18.69403	117760000	123875328	39173744	24992
602	0.788685	117760000	123875328	36534488	24992
603	1.476527	117760000	123875328	37872216	24992
604	2.190936	117760000	123875328	39869352	24992
605	2.876003	117760000	123875328	42525896	24992
606	3.878027	117760000	123875328	45842352	24992
607	8.459748	117760000	123875328	33371304	24992
608	5.525782	117760000	123875328	38006600	24992
609	5.970186	117760000	123875328	43301384	24992
610	10.878196	117760000	123875328	32825968	24992
611	7.20916	117760000	123875328	39440408	24992
612	7.832972	117760000	123875328	46714248	24992
613	12.889398	117760000	123875328	38224048	24992
614	9.511152	117760000	123875328	46816688	24992
615	14.195391	117760000	123875328	39646744	24992
616	15.006823	118030336	123875328	33114504	24992
617	11.622004	118030336	123875328	43685368	24992
618	16.462993	118030336	123875328	38479680	24992
619	17.171068	118030336	123875328	33937040	24992
620	13.905626	118030336	123875328	46488320	24992
621	18.700878	118030336	123875328	43270728	24992
622	0.787334	118030336	123875328	40652768	24992
623	1.489195	118030336	123875328	41990496	24992
624	2.180644	118030336	123875328	43987632	24992
625	3.113105	118030336	123875328	46644176	24992
626	7.753505	118030336	123875328	33505992	24992
627	4.546028	118030336	123875328	37481944	24992
628	5.111302	118030336	123875328	42117200	24992
629	5.700145	118030336	123875328	47411904	24992
630	10.54536	118030336	123875328	36936272	24992
631	7.137266	118030336	123875328	43550776	24992
632	11.954531	118030336	123875328	34395112	24992
633	8.574084	118030336	123875328	42328376	24992
634	13.682603	118030336	123875328	34483184	24992
635	10.461286	118030336	123875328	43735232	24992
636	14.800423	118030336	123875328	37217000	24992
637	11.622447	118030336	123875328	47787864	24992
638	16.484554	118300672	123875328	42597768	24992
639	17.172939	118300672	123875328	38054968	24992
640	17.98428	118300672	123875328	34155648	24992
641	14.730067	118300672	123875328	47366400	24992
642	0.786477	118300672	123875328	44748208	24992
643	1.469931	118300672	123875328	46085936	24992
644	2.414522	118300672	123875328	48083168	24992
645	7.262662	118300672	123875328	34300256	24992
646	3.606855	118300672	123875328	37616712	24992
647	4.359042	118300672	123875328	41592576	24992
648	5.223373	118300672	123875328	46227840	24992
649	9.923808	118300672	123875328	35080592	24992
650	6.537629	118300672	123875328	41035624	24992
651	7.455831	118300672	123875328	47650064	24992
652	12.217387	118300672	123875328	38501136	24992
653	8.573905	118300672	123875328	46434384	24992
654	13.629539	118300672	123875328	38599744	24992
655	10.022295	118300672	123875328	47851792	24992
656	15.101239	118300672	123875328	41333224	24992
657	15.907689	118571008	123875328	35463536	24992
658	12.553699	118571008	123875328	46695896	24992
659	17.247504	118571008	123875328	42152592	24992
660	18.101591	118571008	123875328	38273056	24992
661	19.078908	118571008	123875328	35035712	24992
662	0.792211	118571008	123875328	48852544	24992
663	5.698656	118571008	123875328	33739760	24992
664	2.454459	118571008	123875328	35736896	24992
665	2.961611	118571008	123875328	38393440	24992
666	3.598596	118571008	123875328	41709896	24992
667	4.538809	118571008	123875328	45685760	24992
668	9.192177	118571008	123875328	33883872	24992
669	5.742036	118571008	123875328	39178544	24992
670	6.406488	118571008	123875328	45133576	24992
671	11.842971	118571008	123875328	35322976	24992
672	8.076995	118571008	123875328	42596816	24992
673	13.168281	118571008	123875328	34098160	24992
674	9.668946	118571008	123875328	42690816	24992
675	14.539959	118571008	123875328	35509264	24992
676	10.941726	118571008	123875328	45420720	24992
677	15.705077	118841344	123875328	39566016	24992
678	16.853794	118841344	123875328	34360776	24992
679	12.838526	118841344	123875328	46252352	24992
680	18.201438	118841344	123875328	42372104	24992
681	18.788119	118841344	123875328	39154992	24992
682	0.783245	118841344	123875328	36515736	24992
683	1.469697	118841344	123875328	37853464	24992
684	2.179218	118841344	123875328	39850616	24992
685	2.883406	118841344	123875328	42507160	24992
686	3.577493	118841344	123875328	45823616	24992
687	8.562172	118841344	123875328	33353184	24992
688	5.24746	118841344	123875328	37988440	24992
689	5.707741	118841344	123875328	43283112	24992
690	6.637006	118841344	123875328	49238208	24992
691	11.44479	118841344	123875328	39433608	24992
692	7.866053	118841344	123875328	46707448	24992
693	13.060997	118841344	123875328	38217368	24992
694	9.506043	118841344	123875328	46810024	24992
695	14.509354	118841344	123875328	39627928	24992
696	10.962641	118841344	123875328	49539384	24992
697	15.912355	119111680	123875328	43678984	24992
698	16.726844	119111680	123875328	38473744	24992
699	17.394203	119111680	123875328	33918528	24992
700	13.758527	119111680	123875328	46469808	24992
701	18.921626	119111680	123875328	43252184	24992
702	0.782993	119111680	123875328	40634656	24992
703	1.699328	119111680	123875328	41972432	24992
704	2.180634	119111680	123875328	43969568	24992
705	2.89013	119111680	123875328	46626112	24992
706	7.918097	119111680	123875328	33488040	24992
707	4.33993	119111680	123875328	37463904	24992
708	5.033039	119111680	123875328	42099168	24992
709	5.722137	119111680	123875328	47393904	24992
710	11.09275	119111680	123875328	36918272	24992
711	7.376332	119111680	123875328	43532712	24992
712	12.45748	119111680	123875328	34377432	24992
713	8.57456	119111680	123875328	42310680	24992
714	13.847061	119111680	123875328	34465568	24992
715	10.255738	119111680	123875328	43717632	24992
716	15.162072	119111680	123875328	37199768	24992
717	11.611845	119111680	123875328	47770632	24992
718	16.90371	119382016	123875328	42581224	24992
719	17.477788	119382016	123875328	38038584	24992
720	18.245443	119382016	123875328	34140136	24992
721	14.520693	119382016	123875328	47350864	24992
722	0.786904	119382016	123875328	44732784	24992
723	1.473216	119382016	123875328	46070512	24992
724	2.18789	119382016	123875328	48067648	24992
725	7.300153	119382016	123875328	34285304	24992
726	3.672637	119382016	123875328	37601880	24992
727	4.521633	119382016	123875328	41577744	24992
728	5.213501	119382016	123875328	46213056	24992
729	10.347393	119382016	123875328	35066064	24992
730	6.880856	119382016	123875328	41021096	24992
731	7.131273	119382016	123875328	47635616	24992
732	12.274614	119382016	123875328	38486800	24992
733	8.79189	119382016	123875328	46420080	24992
734	14.157186	119382016	123875328	38585664	24992
735	9.993802	119382016	123875328	47837776	24992
736	15.528385	119382016	123875328	41319208	24992
737	15.914126	119652352	123875328	35449520	24992
738	12.332918	119652352	123875328	46681640	24992
739	17.471766	119652352	123875328	42138544	24992
740	18.574909	119652352	123875328	38258912	24992
741	19.100796	119652352	123875328	35022176	24992
742	0.787751	119652352	123875328	48839136	24992
743	1.484308	119652352	123875328	50176864	24992
744	6.592146	119652352	123875328	35728432	24992
745	3.129273	119652352	123875328	38385040	24992
746	3.595443	119652352	123875328	41701496	24992
747	4.295824	119652352	123875328	45677360	24992
748	5.039986	119652352	123875328	50312624	24992
749	10.414313	119652352	123875328	39179440	24992
750	6.492694	119652352	123875328	45134576	24992
751	11.847299	119652352	123875328	35319296	24992
752	7.899095	119652352	123875328	42593216	24992
753	8.754761	119652352	123875328	50526544	24992
754	14.261908	119652352	123875328	42691232	24992
755	14.564959	119652352	123875328	35509688	24992
756	10.957636	119652352	123875328	45421144	24992
757	16.202045	119922688	123875328	39551408	24992
758	12.327477	119922688	123875328	50783560	24992
759	17.630521	119922688	123875328	46253072	24992
760	18.411316	119922688	123875328	42372968	24992
761	19.126978	119922688	123875328	39139680	24992
762	0.780443	119922688	123875328	36501304	24992
763	1.469112	119922688	123875328	37839032	24992
764	2.18436	119922688	123875328	39836168	24992
765	2.890013	119922688	123875328	42492712	24992
766	3.594452	119922688	123875328	45809168	24992
767	4.478086	119922688	123875328	49785032	24992
768	9.87486	119922688	123875328	37982904	24992
769	5.743857	119922688	123875328	43277576	24992
770	6.705999	119922688	123875328	49232608	24992
771	11.716216	119922688	123875328	39428744	24992
772	7.859893	119922688	123875328	46702584	24992
773	13.60393	119922688	123875328	38203480	24992
774	9.282741	119922688	123875328	46796264	24992
775	14.763608	119922688	123875328	39614280	24992
776	10.880207	119922688	123875328	49525736	24992
777	16.319337	120193024	123875328	43670808	24992
778	17.00496	120193024	123875328	38465568	24992
779	13.146899	120193024	123875328	50357304	24992
780	18.447316	120193024	123875328	46476944	24992
781	19.117403	120193024	123875328	43259400	24992
782	0.787615	120193024	123875328	40620128	24992
783	1.472798	120193024	123875328	41957856	24992
784	2.18617	120193024	123875328	43954992	24992
785	2.886121	120193024	123875328	46611536	24992
786	3.822936	120193024	123875328	49927992	24992
787	9.343452	120193024	123875328	37457312	24992
788	5.245885	120193024	123875328	42092576	24992
789	5.942841	120193024	123875328	47387248	24992
790	11.256521	120193024	123875328	36911896	24992
791	7.206262	120193024	123875328	43526336	24992
792	7.847365	120193024	123875328	50800176	24992
793	13.387056	120193024	123875328	42309976	24992
794	9.549881	120193024	123875328	50902680	24992
795	14.617538	120193024	123875328	43732064	24992
796	15.825715	120463360	123875328	37199792	24992
797	11.424498	120463360	123875328	47770704	24992
798	17.257087	120463360	123875328	42565016	24992
799	18.097556	120463360	123875328	38022376	24992
800	13.745203	120463360	123875328	50573656	24992
801	19.118883	120463360	123875328	47356000	24992
802	0.803046	120463360	123875328	44738024	24992
803	1.477361	120463360	123875328	46075752	24992
804	2.177836	120463360	123875328	48072888	24992
805	2.87902	120463360	123875328	50729432	24992
806	8.412507	120463360	123875328	37591248	24992
807	4.520206	120463360	123875328	41567112	24992
808	5.002718	120463360	123875328	46202376	24992
809	5.70698	120463360	123875328	51497048	24992
810	11.244048	120463360	123875328	41020776	24992
811	7.384045	120463360	123875328	47635216	24992
812	12.788221	120463360	123875328	38479488	24992
813	8.792341	120463360	123875328	46412736	24992
814	14.191592	120463360	123875328	38567352	24992
815	10.249393	120463360	123875328	47819448	24992
816	15.413138	120463360	123875328	41301104	24992
817	11.666686	120463360	123875328	51871984	24992
818	17.115696	120733696	123875328	46681888	24992
819	17.737188	120733696	123875328	42139024	24992
820	18.518861	120733696	123875328	38239688	24992
821	14.450856	120733696	123875328	51450424	24992
822	0.806713	120733696	123875328	48832232	24992
823	1.486704	120733696	123875328	50169960	24992
824	2.184065	120733696	123875328	52167096	24992
825	7.573967	120733696	123875328	38384072	24992
826	3.836682	120733696	123875328	41700528	24992
827	4.305012	120733696	123875328	45676392	24992
828	5.215395	120733696	123875328	50311672	24992
829	10.461301	120733696	123875328	39164472	24992
830	6.559368	120733696	123875328	45119504	24992
831	7.246755	120733696	123875328	51733944	24992
832	13.219739	120733696	123875328	42584328	24992
833	8.61844	120733696	123875328	50517624	24992
834	14.556374	120733696	123875328	42682984	24992
835	10.092412	120733696	123875328	51935048	24992
836	16.199955	121004032	123875328	45416752	24992
837	16.710647	121004032	123875328	39548504	24992
838	12.558186	121004032	123875328	50780656	24992
839	29.279945	110399488	82980864	13362136	24992
840	14.590491	110399488	82980864	25914216	24992
841	14.749813	110399488	82980864	22656072	24992
842	0.795746	110399488	82980864	20006400	24992
843	1.47556	110399488	82980864	21344128	24992
844	2.186352	110399488	82980864	23341264	24992
845	2.881499	110399488	82980864	25997808	24992
846	3.921295	110399488	82980864	12837216	24992
847	4.536984	110399488	82980864	16813080	24992
848	5.240166	110399488	82980864	21448488	24992
849	5.925423	110399488	82980864	26743272	24992
850	6.686484	110399488	82980864	16264824	24992
851	7.158399	110399488	82980864	22879344	24992
852	8.384138	110399488	82980864	13697128	24992
853	8.723621	110399488	82980864	21630440	24992
854	9.769957	110399488	82980864	13753760	24992
855	10.255584	110399488	82980864	23005856	24992
856	10.98627	110399488	82980864	16450712	24992
857	11.731342	110399488	82980864	27021592	24992
858	12.866874	110399488	82980864	21789176	24992
859	13.355178	110399488	82980864	17213576	24992
860	13.843599	110399488	82980864	13293392	24992
861	14.642633	110399488	82980864	26504224	24992
862	0.803455	110399488	82980864	23851984	24992
863	1.478402	110399488	82980864	25189712	24992
864	2.189166	110399488	82980864	27186848	24992
865	3.104776	110399488	82980864	13369912	24992
866	3.836559	110399488	82980864	16686368	24992
867	4.327435	110399488	82980864	20662232	24992
868	5.265814	110399488	82980864	25297688	24992
869	6.015881	110399488	82980864	14123688	24992
870	6.678293	110399488	82980864	20078720	24992
871	7.20086	110399488	82980864	26693160	24992
872	8.110093	110399488	82980864	17503208	24992
873	8.812155	110399488	82980864	25436456	24992
874	9.761134	110399488	82980864	17563016	24992
875	10.215974	110399488	82980864	26815112	24992
876	11.016067	110399488	82980864	20259680	24992
877	12.140219	110399488	82980864	14360888	24992
878	12.339066	110399488	82980864	25593008	24992
879	13.231765	110399488	82980864	21016728	24992
880	14.346307	110399488	82980864	17102120	24992
881	14.544559	110399488	82980864	13842360	24992
882	0.786377	110399488	82980864	27659248	24992
883	1.714404	110399488	82980864	12517032	24992
884	2.190509	110399488	82980864	14514168	24992
885	3.118623	110399488	82980864	17170712	24992
886	3.594994	110399488	82980864	20487168	24992
887	4.310764	110399488	82980864	24463032	24992
888	5.54059	110399488	82980864	12628896	24992
889	5.734093	110399488	82980864	17923568	24992
890	6.656046	110399488	82980864	23878600	24992
891	7.610596	110399488	82980864	14029424	24992
892	8.081308	110399488	82980864	21303264	24992
893	8.84814	110399488	82980864	12769280	24992
894	9.548283	110399488	82980864	21361952	24992
895	10.501558	110399488	82980864	14146256	24992
896	10.724883	110399488	82980864	24057776	24992
897	12.220661	110399488	82980864	18163568	24992
898	12.651501	110399488	82980864	12927272	24992
899	12.857914	110399488	82980864	24818800	24992
900	14.056644	110399488	82980864	20903752	24992
901	14.976797	110399488	82980864	17649872	24992
902	0.784351	110399488	82980864	14992184	24992
903	1.712038	110399488	82980864	16329960	24992
904	2.409178	110399488	82980864	18327096	24992
905	2.892374	110399488	82980864	20983640	24992
906	3.594491	110399488	82980864	24300096	24992
907	4.377023	110399488	82980864	28275960	24992
908	5.278158	110399488	82980864	16440880	24992
909	6.015093	110399488	82980864	21735624	24992
910	6.47243	110399488	82980864	27690664	24992
911	7.648605	110399488	82980864	17844704	24992
912	7.94773	110399488	82980864	25118688	24992
913	8.833311	110399488	82980864	16584160	24992
914	9.49693	110399488	82980864	25176816	24992
915	10.468391	110399488	82980864	17960528	24992
916	11.456462	110399488	82980864	27876248	24992
917	11.965858	110399488	82980864	21981432	24992
918	12.638459	110399488	82980864	16745504	24992
919	13.350949	110399488	82980864	12165008	24992
920	13.770367	110399488	82980864	24716288	24992
921	14.846613	110399488	82980864	21461912	24992
922	0.78321	110399488	82980864	18810352	24992
923	1.497773	110399488	82980864	20148096	24992
924	2.174046	110399488	82980864	22145232	24992
925	2.895158	110399488	82980864	24801776	24992
926	3.874349	110399488	82980864	28118232	24992
927	4.860625	110399488	82980864	15621712	24992
928	5.030845	110399488	82980864	20256976	24992
929	5.791818	110399488	82980864	25551648	24992
930	6.936502	110399488	82980864	15042456	24992
931	7.150696	110399488	82980864	21656896	24992
932	8.363904	110399488	82980864	12461704	24992
933	8.592001	110399488	82980864	20394952	24992
934	9.555628	110399488	82980864	12518336	24992
935	10.230566	110399488	82980864	21770384	24992
936	11.438986	110399488	82980864	15215592	24992
937	11.416763	110399488	82980864	25786488	24992
938	12.645467	110399488	82980864	20554872	24992
939	13.546859	110399488	82980864	15979256	24992
940	13.984108	110399488	82980864	28530536	24992
941	14.571937	110399488	82980864	25274768	24992
942	0.791749	110399488	82980864	22622792	24992
943	1.502254	110399488	82980864	23960520	24992
944	2.181685	110399488	82980864	25957656	24992
945	3.113622	110399488	82980864	28614200	24992
946	3.840766	110399488	82980864	15452920	24992
947	4.314979	110399488	82980864	19428800	24992
948	5.017133	110399488	82980864	24064064	24992
949	5.992686	110399488	82980864	12890248	24992
950	6.659811	110399488	82980864	18845328	24992
951	7.448875	110399488	82980864	25459768	24992
952	8.339609	110399488	82980864	16267232	24992
953	8.860344	110399488	82980864	24200480	24992
954	9.546159	110399488	82980864	16327280	24992
955	10.214695	110399488	82980864	25579328	24992
956	10.965647	110399488	82980864	19023976	24992
957	11.915576	110399488	82980864	13125184	24992
958	12.149803	110399488	82980864	24357304	24992
959	13.622462	110399488	82980864	19781264	24992
960	13.856055	110399488	82980864	15866656	24992
961	14.602611	110399488	82980864	29077488	24992
962	0.786094	110399488	82980864	26412392	24992
963	1.488856	110399488	82980864	27750120	24992
964	2.437977	110399488	82980864	13270672	24992
965	2.905656	110399488	82980864	15927216	24992
966	3.595466	110399488	82980864	19243672	24992
967	4.660755	110399488	82980864	23219648	24992
968	5.011189	110399488	82980864	27854912	24992
969	6.240999	110399488	82980864	16683632	24992
970	6.650036	110399488	82980864	22638776	24992
971	7.876128	110399488	82980864	12787768	24992
972	7.918942	110399488	82980864	20061600	24992
973	8.836171	110399488	82980864	27994848	24992
974	20.562446	110399488	82980864	20121440	24992
975	10.509907	110399488	82980864	12905704	24992
976	11.007699	110399488	82980864	22817160	24992
977	12.039264	110399488	82980864	16918432	24992
978	12.347143	110399488	82980864	28150552	24992
979	13.467186	110399488	82980864	23579808	24992
980	13.867654	110399488	82980864	19665024	24992
981	14.882517	110399488	82980864	16404784	24992
982	0.785227	110399488	82980864	13747544	24992
983	1.474097	110399488	82980864	15085272	24992
984	2.182056	110399488	82980864	17082408	24992
985	2.878815	110399488	82980864	19738952	24992
986	3.586121	110399488	82980864	23055408	24992
987	4.522308	110399488	82980864	27031304	24992
988	5.29402	110399488	82980864	15196912	24992
989	5.946527	110399488	82980864	20491584	24992
990	6.444816	110399488	82980864	26446632	24992
991	7.469165	110399488	82980864	16601472	24992
992	8.07757	110399488	82980864	23875312	24992
993	9.090995	110399488	82980864	15341120	24992
994	9.553512	110399488	82980864	23933776	24992
995	10.29337	110399488	82980864	16717824	24992
996	11.017486	110399488	82980864	26629280	24992
997	11.995545	110399488	82980864	20734832	24992
998	12.48284	110399488	82980864	15498536	24992
999	13.309054	110399488	82980864	27390064	24992
1000	14.185425	110399488	82980864	23474808	24992
