x	Duration	RSS	HeapTotal	HeapUsed	External
0	NA	103915520	72495104	18713512	24992
1	2.17918	103915520	72495104	19390296	24992
2	4.182107	103915520	72495104	20728168	24992
3	5.344621	103915520	72495104	22725312	24992
4	3.122854	103915520	72495104	25381832	24992
5	3.783714	103915520	72495104	28698344	24992
6	5.061596	103915520	72495104	32674184	24992
7	6.51227	103915520	72495104	20892048	24992
8	6.395788	103915520	72495104	26186696	24992
9	6.723318	103915520	72495104	32141720	24992
10	8.98218	103915520	72495104	22350600	24992
11	8.56562	103915520	72495104	29624632	24992
12	10.171584	103915520	72495104	21129272	24992
13	9.798695	103915520	72495104	29721904	24992
14	11.827783	103915520	72495104	22542952	24992
15	11.528892	103915520	72495104	32454384	24992
16	13.417024	103915520	72495104	26602376	24992
17	14.421457	103915520	72495104	21399256	24992
18	13.626935	103915520	72495104	33290808	24992
19	15.449381	103915520	72495104	29413256	24992
20	16.366622	103915520	72495104	26198736	24992
21	17.148025	103915520	72495104	23623960	24992
22	0.816304	103915520	72495104	21644832	24992
23	1.837358	103915520	72495104	22982648	24992
24	2.281585	103915520	72495104	24979856	24992
25	3.023378	103915520	72495104	27636472	24992
26	3.760444	103915520	72495104	30953016	24992
27	4.590281	103915520	72495104	34928968	24992
28	6.550855	103915520	72495104	23132176	24992
29	6.198202	103915520	72495104	28426920	24992
30	6.946187	103915520	72495104	34382088	24992
31	8.964343	103915520	72495104	24585040	24992
32	8.239254	103915520	72495104	31858952	24992
33	10.483652	103915520	72495104	23363440	24992
34	9.903851	103915520	72495104	31956216	24992
35	11.833145	103915520	72495104	24777120	24992
36	11.4433	103915520	72495104	34688648	24992
37	13.832464	103915520	72495104	28836672	24992
38	14.025126	103915520	72495104	23633632	24992
39	13.651457	103915520	72495104	35525232	24992
40	15.685579	103915520	72495104	31646384	24992
41	16.716289	103915520	72495104	28431040	24992
42	0.817984	103915520	72495104	25793072	24992
43	1.555186	103915520	72495104	27130888	24992
44	2.286366	103915520	72495104	29128096	24992
45	3.031511	103915520	72495104	31785384	24992
46	3.761278	103915520	72495104	35101928	24992
47	6.151056	103915520	72495104	22636520	24992
48	5.257629	103915520	72495104	27271888	24992
49	6.018822	103915520	72495104	32566680	24992
50	8.301898	103915520	72495104	22098128	24992
51	7.485067	103915520	72495104	28712784	24992
52	8.385346	103915520	72495104	35986696	24992
53	10.367158	103915520	72495104	27499960	24992
54	9.933554	103915520	72495104	36092704	24992
55	11.81258	103915520	72495104	28919592	24992
56	12.982271	103915520	72495104	22390040	24992
57	12.148859	103915520	72495104	32960984	24992
58	14.422287	103915520	72495104	27763344	24992
59	15.066591	103915520	72495104	23222888	24992
60	14.173725	103915520	72495104	35774368	24992
61	16.615955	103915520	72495104	32558112	24992
62	0.833503	103915520	72495104	29942144	24992
63	1.54354	103915520	72495104	31279960	24992
64	2.28479	103915520	72495104	33277168	24992
65	3.009968	103915520	72495104	35933784	24992
66	5.387347	103915520	72495104	22798904	24992
67	4.586541	103915520	72495104	26774840	24992
68	5.504219	103915520	72495104	31410176	24992
69	7.644156	103915520	72495104	20268616	24992
70	7.104674	103915520	72495104	26223736	24992
71	7.667673	103915520	72495104	32838280	24992
72	9.731785	103915520	72495104	23686856	24992
73	9.319299	103915520	72495104	31620192	24992
74	11.333291	103915520	72495104	23789384	24992
75	10.663909	103915520	72495104	33041520	24992
76	12.723401	103915520	72495104	26526064	24992
77	13.591272	103915520	72495104	20658568	24992
78	12.942354	103915520	72495104	31890816	24992
79	15.221128	103915520	72495104	27349936	24992
80	16.092256	103915520	72495104	23472808	24992
81	14.972086	103915520	72495104	36684680	24992
82	0.820644	103915520	72495104	34064472	24992
83	1.552635	103915520	72495104	35402200	24992
84	3.694153	103915520	72495104	20960032	24992
85	3.024678	103915520	72495104	23616640	24992
86	3.768706	103915520	72495104	26933096	24992
87	4.491149	103915520	72495104	30908960	24992
88	5.447815	103915520	72495104	35544336	24992
89	7.45589	103915520	72495104	24404904	24992
90	7.027085	103915520	72495104	30359936	24992
91	7.45913	103915520	72495104	36974376	24992
92	9.807893	103915520	72495104	27820544	24992
93	9.18909	103915520	72495104	35753792	24992
94	11.460547	103915520	72495104	27922392	24992
95	11.948294	103915520	72495104	20742824	24992
96	11.635504	103915520	72495104	30654272	24992
97	13.703247	103915520	72495104	24786528	24992
98	12.917713	103915520	72495104	36018664	24992
99	15.166983	103915520	72495104	31495504	24992
100	15.965972	103915520	72495104	27617552	24992
101	16.718957	103915520	72495104	24381048	24992
102	0.839411	103915520	72495104	21743880	24992
103	1.571912	103915520	72495104	23081608	24992
104	2.326083	103915520	72495104	25078744	24992
105	3.098434	103915520	72495104	27735288	24992
106	3.977609	103915520	72495104	31051744	24992
107	4.505494	103915520	72495104	35027608	24992
108	7.018339	103915520	72495104	23230320	24992
109	6.219374	103915520	72495104	28524992	24992
110	6.726009	103915520	72495104	34480072	24992
111	9.229758	103915520	72495104	24682568	24992
112	8.441358	103915520	72495104	31956408	24992
113	10.816615	103915520	72495104	23460784	24992
114	9.742907	103915520	72495104	32053552	24992
115	12.231298	103915520	72495104	24874384	24992
116	11.396308	103915520	72495104	34785840	24992
117	14.123607	103915520	72495104	28933552	24992
118	14.601939	103915520	72495104	23730264	24992
119	13.450219	103915520	72495104	35621792	24992
120	16.623178	103915520	72495104	31743360	24992
121	16.693777	103915520	72495104	28528072	24992
122	0.868489	103915520	72495104	25889928	24992
123	1.55879	103915520	72495104	27227704	24992
124	2.500062	103915520	72495104	29224840	24992
125	3.066949	103915520	72495104	31881384	24992
126	4.114508	103915520	72495104	35197840	24992
127	6.170555	103915520	72495104	22731360	24992
128	5.691713	103915520	72495104	27366624	24992
129	5.975996	103915520	72495104	32661416	24992
130	8.373278	103915520	72495104	22191672	24992
131	7.623033	103915520	72495104	28806112	24992
132	8.519467	103915520	72495104	36079952	24992
133	10.883763	103915520	72495104	27593632	24992
134	9.762294	103915520	72495104	36186304	24992
135	12.572438	103915520	72495104	29019664	24992
136	13.028475	103915520	72495104	22489328	24992
137	11.946703	103915520	72495104	33060192	24992
138	14.608314	103915520	72495104	27856448	24992
139	15.385842	103915520	72495104	23315760	24992
140	14.373304	103915520	72495104	35867040	24992
141	16.824723	103915520	72495104	32651280	24992
142	0.821991	103915520	72495104	30038968	24992
143	1.5457	103915520	72495104	31376696	24992
144	2.281498	103915520	72495104	33373832	24992
145	3.019843	103915520	72495104	36030376	24992
146	5.614645	103915520	72495104	22897568	24992
147	4.735783	103915520	72495104	26873432	24992
148	5.246992	103915520	72495104	31508696	24992
149	5.965077	103915520	72495104	36803416	24992
150	8.64656	103915520	72495104	26333440	24992
151	7.467391	103915520	72495104	32947880	24992
152	10.154515	103915520	72495104	23796376	24992
153	9.078865	103915520	72495104	31729640	24992
154	11.718276	103915520	72495104	23887040	24992
155	10.661419	103915520	72495104	33139120	24992
156	12.921782	103915520	72495104	26623448	24992
157	12.266053	103915520	72495104	37194312	24992
158	14.882606	103915520	72495104	32007576	24992
159	15.80267	103915520	72495104	27466936	24992
160	16.175326	103915520	72495104	23569400	24992
161	14.957862	103915520	72495104	36780088	24992
162	0.823139	103915520	72495104	34163664	24992
163	1.542895	103915520	72495104	35501392	24992
164	2.283347	103915520	72495104	37498528	24992
165	4.729193	103915520	72495104	23719712	24992
166	3.774571	103915520	72495104	27036168	24992
167	4.497072	103915520	72495104	31012032	24992
168	5.249191	103915520	72495104	35647296	24992
169	8.18092	103915520	72495104	24505168	24992
170	7.282267	103915520	72495104	30460200	24992
171	7.862778	103915520	72495104	37074640	24992
172	10.618456	103915520	72495104	27930336	24992
173	9.47059	103915520	72495104	35863584	24992
174	11.911569	103915520	72495104	28032296	24992
175	10.804627	103915520	72495104	37284344	24992
176	13.032605	103915520	72495104	30768368	24992
177	13.947999	103915520	72495104	24900632	24992
178	13.085962	103915520	72495104	36132784	24992
179	15.718714	103915520	72495104	31591488	24992
180	16.22459	103915520	72495104	27713744	24992
181	16.739511	103915520	72495104	24478136	24992
182	0.879265	103915520	72495104	38294856	24992
183	3.560124	103915520	72495104	23184992	24992
184	2.317323	103915520	72495104	25182128	24992
185	3.035444	103915520	72495104	27838672	24992
186	3.763161	103915520	72495104	31155128	24992
187	4.49388	103915520	72495104	35130992	24992
188	7.36115	103915520	72495104	23333928	24992
189	5.989467	103915520	72495104	28628600	24992
190	6.944071	103915520	72495104	34583632	24992
191	9.362194	103915520	72495104	24778224	24992
192	8.575751	103915520	72495104	32052064	24992
193	10.80119	103915520	72495104	23556648	24992
194	10.003555	103915520	72495104	32149304	24992
195	12.382556	103915520	72495104	24970344	24992
196	11.430948	103915520	72495104	34881800	24992
197	14.11116	103915520	72495104	29029688	24992
198	15.05508	103915520	72495104	23826400	24992
199	13.693321	103915520	72495104	35717944	24992
200	16.054688	103915520	72495104	31839752	24992
201	17.324817	103915520	72495104	28624592	24992
202	0.818064	103915520	72495104	25986896	24992
203	1.546329	103915520	72495104	27324624	24992
204	2.267521	103915520	72495104	29321760	24992
205	3.240169	103915520	72495104	31978304	24992
206	3.754102	103915520	72495104	35294760	24992
207	4.788101	103915520	72495104	39270640	24992
208	7.328704	103915520	72495104	27472680	24992
209	6.003136	103915520	72495104	32767352	24992
210	6.82391	103915520	72495104	38722400	24992
211	9.831613	103915520	72495104	28924096	24992
212	8.467024	103915520	72495104	36197936	24992
213	11.154136	103915520	72495104	27701976	24992
214	9.883796	103915520	72495104	36294616	24992
215	13.212444	103915520	72495104	29115112	24992
216	11.703351	103915520	72495104	39026568	24992
217	13.956387	103915520	72495104	33173608	24992
218	15.065207	103915520	72495104	27970304	24992
219	15.551117	103915520	72495104	23411264	24992
220	14.571478	103915520	72495104	35962552	24992
221	17.131271	103915520	72495104	32747048	24992
222	0.815661	103915520	72495104	30131296	24992
223	1.764273	103915520	72495104	31469024	24992
224	2.271619	103915520	72495104	33466160	24992
225	3.019905	103915520	72495104	36122704	24992
226	3.800031	103915520	72495104	39439160	24992
227	6.430988	103915520	72495104	26971992	24992
228	5.243323	103915520	72495104	31607256	24992
229	6.201218	103915520	72495104	36904808	24992
230	8.905182	103915520	72495104	26437824	24992
231	7.480505	103915520	72495104	33052296	24992
232	10.185839	103915520	72495104	23895064	24992
233	9.596423	103915520	72495104	31828392	24992
234	11.931689	103915520	72495104	23985792	24992
235	10.769935	103915520	72495104	33237856	24992
236	13.33374	103915520	72495104	26722696	24992
237	12.456567	103915520	72495104	37293592	24992
238	14.904074	103915520	72495104	32106856	24992
239	15.667987	103915520	72495104	27566168	24992
240	14.436762	103915520	72495104	40117464	24992
241	16.915572	103915520	72495104	36886472	24992
242	0.82112	103915520	72495104	34270208	24992
243	1.544988	103915520	72495104	35607936	24992
244	2.337481	103915520	72495104	37605072	24992
245	3.014228	103915520	72495104	40261616	24992
246	5.765498	103915520	72495104	27136288	24992
247	5.306267	103915520	72495104	31112280	24992
248	5.543989	103915520	72495104	35760672	24992
249	8.036264	103915520	72495104	24618176	24992
250	7.021234	103915520	72495104	30573208	24992
251	7.896047	103915520	72495104	37187648	24992
252	10.447173	103915520	72495104	28035288	24992
253	9.16259	103915520	72495104	35968552	24992
254	12.034326	103915520	72495104	28135096	24992
255	10.708535	103915520	72495104	37387176	24992
256	13.283972	103915520	72495104	30869440	24992
257	14.224863	103915520	72495104	25000280	24992
258	12.961839	103915520	72495104	36232560	24992
259	15.698698	103915520	72495104	31690008	24992
260	16.436675	103915520	72495104	27810904	24992
261	17.442877	103915520	72495104	24574352	24992
262	0.820503	103915520	72495104	38391144	24992
263	1.540972	103915520	72495104	39728872	24992
264	4.376137	103915520	72495104	25281640	24992
265	3.062107	103915520	72495104	27938248	24992
266	3.77751	103915520	72495104	31254704	24992
267	4.504629	103915520	72495104	35230616	24992
268	5.458534	103915520	72495104	39865880	24992
269	8.314691	103915520	72495104	28734616	24992
270	6.745496	103915520	72495104	34689648	24992
271	9.567762	103915520	72495104	24875824	24992
272	8.520157	103915520	72495104	32149656	24992
273	9.089937	103915520	72495104	40082904	24992
274	12.200923	103915520	72495104	32248456	24992
275	12.94008	103915520	72495104	25067616	24992
276	11.852551	103915520	72495104	34979072	24992
277	14.359313	103915520	72495104	29109704	24992
278	12.969112	103915520	72495104	40341872	24992
279	15.662718	103915520	72495104	35816120	24992
280	16.764518	103915520	72495104	31936552	24992
281	17.159267	103915520	72495104	28699096	24992
282	1.035707	103915520	72495104	26060928	24992
283	1.542468	103915520	72495104	27398656	24992
284	2.277169	103915520	72495104	29395792	24992
285	3.007222	103915520	72495104	32052336	24992
286	4.387666	103915520	72495104	35368808	24992
287	4.842438	103915520	72495104	39353720	24992
288	7.906818	103915520	72495104	27552648	24992
289	6.051435	103915520	72495104	32847576	24992
290	6.819105	103915520	72495104	38802672	24992
291	10.248735	103915520	72495104	29000344	24992
292	8.246227	103915520	72495104	36274184	24992
293	11.130918	103915520	72495104	27775976	24992
294	9.933342	103915520	72495104	36368680	24992
295	12.830707	103915520	72495104	29187400	24992
296	11.292646	103915520	72495104	39098856	24992
297	14.385307	103915520	72495104	33244664	24992
298	15.076002	103915520	72495104	28039952	24992
299	13.877889	103915520	72495104	39931576	24992
300	16.796916	103915520	72495104	36051760	24992
301	17.111232	103915520	72495104	32834840	24992
302	0.821708	103915520	72495104	30195792	24992
303	1.549347	103915520	72495104	31533520	24992
304	2.281894	103915520	72495104	33530656	24992
305	3.227865	103915520	72495104	36187200	24992
306	3.809769	103915520	72495104	39503656	24992
307	6.913599	103915520	72495104	27033872	24992
308	5.263211	103915520	72495104	31669136	24992
309	5.96845	103915520	72495104	36963808	24992
310	9.021593	103915520	72495104	26489864	24992
311	7.695224	103915520	72495104	33104304	24992
312	8.413762	103915520	72495104	40378144	24992
313	11.341033	103915520	72495104	31889976	24992
314	9.941043	103915520	72495104	40482648	24992
315	13.016493	103915520	72495104	33313600	24992
316	13.784857	103915520	72495104	26781872	24992
317	12.208906	103915520	72495104	37352800	24992
318	15.159507	103915520	72495104	32147640	24992
319	15.806356	103915520	72495104	27605528	24992
320	14.574055	103915520	72495104	40156808	24992
321	17.694675	103915520	72495104	36939600	24992
322	0.81767	103915520	72495104	34321992	24992
323	1.755949	103915520	72495104	35659720	24992
324	2.491769	103915520	72495104	37656856	24992
325	3.014197	103915520	72495104	40313400	24992
326	6.265776	103915520	72495104	27175920	24992
327	4.559402	103915520	72495104	31151784	24992
328	5.237334	103915520	72495104	35787160	24992
329	5.98824	103915520	72495104	41081944	24992
330	9.287714	103915520	72495104	30607704	24992
331	7.533847	103915520	72495104	37222192	24992
332	10.712277	103915520	72495104	28067520	24992
333	8.968843	103915520	72495104	36000768	24992
334	12.248414	103915520	72495104	28156280	24992
335	10.767554	103915520	72495104	37408408	24992
336	13.643129	103915520	72495104	30890800	24992
337	12.315399	103915520	72495104	41461760	24992
338	15.605408	103915520	72495104	36272368	24992
339	16.295209	103915520	72495104	31730032	24992
340	16.64439	103915520	72495104	27831128	24992
341	15.18344	103915520	72495104	41041896	24992
342	0.824017	103915520	72495104	38424056	24992
343	1.541103	103915520	72495104	39761784	24992
344	2.279005	103915520	72495104	41758920	24992
345	5.518076	103915520	72495104	27976600	24992
346	3.786126	103915520	72495104	31293120	24992
347	4.55885	103915520	72495104	35268984	24992
348	5.4602	103915520	72495104	39904248	24992
349	8.312645	103915520	72495104	28758232	24992
350	6.72347	103915520	72495104	34713264	24992
351	7.678033	103915520	72495104	41327736	24992
352	10.947258	103915520	72495104	32180040	24992
353	9.638469	103915520	72495104	40121784	24992
354	12.302664	103915520	72495104	32288104	24992
355	10.51413	103915520	72495104	41540184	24992
356	14.244405	103915520	72495104	35022336	24992
357	14.704343	103915520	72495104	29153176	24992
358	12.917322	103915520	72495104	40385360	24992
359	16.030426	103915520	72495104	35842600	24992
360	16.857893	103915520	72495104	31972344	24992
361	17.915148	103915520	72495104	28739800	24992
362	0.861556	103915520	72495104	42556552	24992
363	3.923222	103915520	72495104	27444120	24992
364	2.322913	103915520	72495104	29441256	24992
365	3.071703	103915520	72495104	32097912	24992
366	4.030426	103915520	72495104	35414368	24992
367	4.548275	103915520	72495104	39390328	24992
368	7.860577	103915520	72495104	27589496	24992
369	6.02568	103915520	72495104	32884168	24992
370	6.735942	103915520	72495104	38839200	24992
371	10.118535	103915520	72495104	29030128	24992
372	8.209585	103915520	72495104	36303960	24992
373	11.957691	103915520	72495104	27806200	24992
374	10.096443	103915520	72495104	36398840	24992
375	13.210888	103915520	72495104	29217992	24992
376	11.299376	103915520	72495104	39129448	24992
377	14.901497	103915520	72495104	33275448	24992
378	15.403911	103915520	72495104	28070752	24992
379	13.665264	103915520	72495104	39962536	24992
380	16.844501	103915520	72495104	36082864	24992
381	17.630053	103915520	72495104	32866280	24992
382	0.821194	103915520	72495104	30227456	24992
383	1.539387	103915520	72495104	31565184	24992
384	2.286004	103915520	72495104	33562320	24992
385	3.016796	103915520	72495104	36218864	24992
386	3.756048	103915520	72495104	39535320	24992
387	7.229083	103915520	72495104	27065752	24992
388	5.255943	103915520	72495104	31701040	24992
389	6.420524	103915520	72495104	36995776	24992
390	6.718895	103915520	72495104	42950872	24992
391	9.978068	103915520	72495104	33147856	24992
392	8.497984	103915520	72495104	40421696	24992
393	11.756203	103915520	72495104	31932672	24992
394	9.720812	103915520	72495104	40525328	24992
395	13.215127	103915520	72495104	33343936	24992
396	11.45087	103915520	72495104	43255392	24992
397	14.417671	103915520	72495104	37398560	24992
398	15.432699	103915520	72495104	32193848	24992
399	16.193879	103915520	72495104	27636200	24992
400	15.702646	103915520	72495104	40201984	24992
401	17.800174	103915520	72495104	36984680	24992
402	0.82041	103915520	72495104	34367328	24992
403	1.544857	103915520	72495104	35705056	24992
404	2.285159	103915520	72495104	37702192	24992
405	3.235131	103915520	72495104	40358736	24992
406	3.792277	103915520	72495104	43675192	24992
407	7.334765	103915520	72495104	31196272	24992
408	5.243718	103915520	72495104	35831536	24992
409	5.978634	103915520	72495104	41126208	24992
410	9.336839	103915520	72495104	30650584	24992
411	7.700544	103915520	72495104	37265024	24992
412	10.958511	103915520	72495104	28106040	24992
413	8.958522	103915520	72495104	36039288	24992
414	12.6577	103915520	72495104	28194176	24992
415	10.637705	103915520	72495104	37446240	24992
416	13.868645	103915520	72495104	30928472	24992
417	12.153228	103915520	72495104	41499416	24992
418	15.507975	103915520	72495104	36309992	24992
419	16.154415	103915520	72495104	31767448	24992
420	17.23862	103915520	72495104	27869000	24992
421	15.217783	103915520	72495104	41079696	24992
422	0.820939	103915520	72495104	38461616	24992
423	1.546407	103915520	72495104	39799344	24992
424	2.280927	103915520	72495104	41796480	24992
425	5.775183	103915520	72495104	28014136	24992
426	3.978801	103915520	72495104	31330600	24992
427	4.550811	103915520	72495104	35306464	24992
428	5.453909	103915520	72495104	39941792	24992
429	8.554416	103915520	72495104	28794784	24992
430	6.960206	103915520	72495104	34749816	24992
431	7.480603	103915520	72495104	41364256	24992
432	10.816294	103915520	72495104	32215440	24992
433	9.181037	103915520	72495104	40148704	24992
434	12.529815	103915520	72495104	32314288	24992
435	10.47578	103915520	72495104	41566352	24992
436	14.042491	103915520	72495104	35047832	24992
437	14.821543	103915520	72495104	29178464	24992
438	13.106053	103915520	72495104	40410728	24992
439	16.239494	103915520	72495104	35867632	24992
440	16.853471	103915520	72495104	31988208	24992
441	17.985724	103915520	72495104	28751552	24992
442	0.817815	103915520	72495104	42568336	24992
443	1.54661	103915520	72495104	43906064	24992
444	5.062992	103915520	72495104	29457632	24992
445	3.078836	103915520	72495104	32114176	24992
446	3.832903	103915520	72495104	35430664	24992
447	4.796444	103915520	72495104	39406528	24992
448	5.22863	103915520	72495104	44041792	24992
449	8.898684	103915520	72495104	32908608	24992
450	6.967526	103915520	72495104	38863640	24992
451	10.121942	103915520	72495104	29048384	24992
452	8.48559	103915520	72495104	36322240	24992
453	9.166351	103915520	72495104	44255536	24992
454	12.568817	103915520	72495104	36420328	24992
455	13.120272	103915520	72495104	29238792	24992
456	11.457932	103915520	72495104	39150296	24992
457	14.86686	103915520	72495104	33280400	24992
458	12.897996	103915520	72495104	44512712	24992
459	16.524134	103915520	72495104	39984928	24992
460	17.208415	103915520	72495104	36104896	24992
461	18.229203	103915520	72495104	32868672	24992
462	0.820958	103915520	72495104	30230376	24992
463	1.54552	103915520	72495104	31568104	24992
464	2.299398	103915520	72495104	33565240	24992
465	3.238722	103915520	72495104	36221800	24992
466	3.797256	103915520	72495104	39538256	24992
467	4.547926	103915520	72495104	43514120	24992
468	8.434711	103915520	72495104	31712008	24992
469	6.209157	103915520	72495104	37006680	24992
470	6.788863	103915520	72495104	42961712	24992
471	10.428772	103915520	72495104	33157784	24992
472	8.333354	103915520	72495104	40431656	24992
473	11.93477	103915520	72495104	31932552	24992
474	9.730951	103915520	72495104	40525192	24992
475	13.384197	103915520	72495104	33343192	24992
476	11.739746	103915520	72495104	43254648	24992
477	14.745453	103915520	72495104	37399720	24992
478	15.644312	103915520	72495104	32194512	24992
479	13.656758	103915520	72495104	44086104	24992
480	18.076951	103915520	72495104	40216872	24992
481	18.328614	103915520	72495104	36999696	24992
482	0.837295	103915520	72495104	34360792	24992
483	1.544516	103915520	72495104	35698520	24992
484	2.293884	103915520	72495104	37695656	24992
485	3.02223	103915520	72495104	40352200	24992
486	3.93915	103915520	72495104	43668656	24992
487	7.328099	103915520	72495104	31197976	24992
488	5.868831	103915520	72495104	35833240	24992
489	6.184841	103915520	72495104	41127912	24992
490	9.711564	103915520	72495104	30652512	24992
491	7.505074	103915520	72495104	37266952	24992
492	8.245877	103915520	72495104	44540824	24992
493	11.923828	103915520	72495104	36050624	24992
494	9.935165	103915520	72495104	44643392	24992
495	13.35537	103915520	72495104	37472776	24992
496	13.976609	103915520	72495104	30940504	24992
497	12.169666	103915520	72495104	41511368	24992
498	15.817995	103915520	72495104	36305680	24992
499	16.860239	103915520	72495104	31763040	24992
500	14.640846	103915520	72495104	44314320	24992
501	17.869616	103915520	72495104	41096536	24992
502	0.82387	103915520	72495104	38478560	24992
503	1.569624	103915520	72495104	39816288	24992
504	2.275102	103915520	72495104	41813424	24992
505	3.230027	103915520	72495104	44469968	24992
506	6.572535	103915520	72495104	31331784	24992
507	4.721624	103915520	72495104	35307648	24992
508	5.244406	103915520	72495104	39942912	24992
509	6.035661	103915520	72495104	45237584	24992
510	10.10716	103915520	72495104	34761296	24992
511	8.620275	103915520	72495104	41375736	24992
512	11.864279	103915520	72495104	32220008	24992
513	9.530494	103915520	72495104	40153256	24992
514	13.188499	103915520	72495104	32307952	24992
515	10.80041	103915520	72495104	41560080	24992
516	14.235938	103915520	72495104	35041736	24992
517	12.019203	103915520	72495104	45612600	24992
518	15.722018	103915520	72495104	40422504	24992
519	16.752916	103915520	72495104	35879640	24992
520	17.809836	103915520	72495104	31980304	24992
521	15.847949	103915520	72495104	45191008	24992
522	0.822342	103915520	72495104	42572816	24992
523	1.543069	103915520	72495104	43910544	24992
524	2.327277	103915520	72495104	45907680	24992
525	6.038298	103915520	72495104	32124656	24992
526	3.812973	103915520	72495104	35441112	24992
527	4.547266	103915520	72495104	39416976	24992
528	5.470722	103915520	72495104	44052304	24992
529	9.032424	103915520	72495104	32905088	24992
530	6.940576	103915520	72495104	38860120	24992
531	7.469969	103915520	72495104	45474624	24992
532	11.100479	103915520	72495104	36325008	24992
533	9.191535	103915520	72495104	44258304	24992
534	12.77179	103915520	72495104	36423664	24992
535	10.511398	103915520	72495104	45675776	24992
536	14.301596	103915520	72495104	39156584	24992
537	15.245112	103915520	72495104	33286928	24992
538	12.678031	103915520	72495104	44519096	24992
539	16.72512	103915520	72495104	39975776	24992
540	17.079005	103915520	72495104	36096064	24992
541	18.258623	103915520	72495104	32858288	24992
542	3.753798	103915520	72495104	30221080	24992
543	1.597601	103915520	72495104	31558816	24992
544	2.280962	103915520	72495104	33555952	24992
545	3.248995	103915520	72495104	36212496	24992
546	3.793615	103915520	72495104	39529016	24992
547	4.547024	103915520	72495104	43504880	24992
548	8.567521	103915520	72495104	31702904	24992
549	6.211869	103915520	72495104	36997576	24992
550	7.14633	103915520	72495104	42952608	24992
551	10.424585	103915520	72495104	33145872	24992
552	8.237324	103915520	72495104	40419712	24992
553	12.134202	103915520	72495104	31921072	24992
554	10.00386	103915520	72495104	40513712	24992
555	13.449275	103915520	72495104	33332208	24992
556	11.461831	103915520	72495104	43250496	24992
557	15.090534	103915520	72495104	37402608	24992
558	15.901736	103915520	72495104	32204200	24992
559	13.681028	103915520	72495104	44095792	24992
560	17.344819	103915520	72495104	40215528	24992
561	18.333931	103915520	72495104	36998432	24992
562	0.820171	103915520	72495104	34359176	24992
563	1.549024	103915520	72495104	35696904	24992
564	2.299807	103915520	72495104	37694040	24992
565	3.254171	103915520	72495104	40350664	24992
566	3.802914	103915520	72495104	43667184	24992
567	7.695076	103915520	72495104	31196744	24992
568	5.462514	103915520	72495104	35832008	24992
569	6.185338	103915520	72495104	41126680	24992
570	9.995685	103915520	72495104	30651488	24992
571	7.514507	103915520	72495104	37265928	24992
572	8.433106	103915520	72495104	44539816	24992
573	11.985749	103915520	72495104	36049648	24992
574	9.97297	103915520	72495104	44642288	24992
575	13.919352	103915520	72495104	37472360	24992
576	14.40479	103915520	72495104	30940080	24992
577	12.149358	103915520	72495104	41510936	24992
578	15.926762	103915520	72495104	36305472	24992
579	16.735479	103915520	72495104	31763296	24992
580	14.537201	103915520	72495104	44314592	24992
581	18.133882	103915520	72495104	41096936	24992
582	0.821816	103915520	72495104	38479456	24992
583	1.781959	103915520	72495104	39817184	24992
584	2.273979	103915520	72495104	41814320	24992
585	3.815362	103915520	72495104	44472656	24992
586	6.979129	103915520	72495104	31348576	24992
587	4.735239	103915520	72495104	35324440	24992
588	5.440913	103915520	72495104	39959704	24992
589	5.988756	103915520	72495104	45254376	24992
590	10.010285	103915520	72495104	34779112	24992
591	7.468665	103915520	72495104	41393552	24992
592	11.475017	103915520	72495104	32238272	24992
593	9.02984	103915520	72495104	40171520	24992
594	12.972266	103915520	72495104	32326360	24992
595	10.698432	103915520	72495104	41578408	24992
596	14.276419	103915520	72495104	35060288	24992
597	12.129276	103915520	72495104	45631200	24992
598	16.446801	103915520	72495104	40441776	24992
599	16.581804	103915520	72495104	35899152	24992
600	17.660141	103915520	72495104	32000696	24992
601	14.900605	103915520	72495104	45211560	24992
602	0.820371	103915520	72495104	42593368	24992
603	1.770532	103915520	72495104	43931096	24992
604	2.330084	103915520	72495104	45928232	24992
605	6.063985	103915520	72495104	32145880	24992
606	3.793028	103915520	72495104	35462336	24992
607	4.505766	103915520	72495104	39438200	24992
608	5.249897	103915520	72495104	44073464	24992
609	9.548092	103915520	72495104	32926424	24992
610	7.436504	103915520	72495104	38881488	24992
611	8.302344	103915520	72495104	45495928	24992
612	11.607776	103915520	72495104	36347000	24992
613	9.272507	103915520	72495104	44280248	24992
614	13.408615	103915520	72495104	36445880	24992
615	10.720731	103915520	72495104	45698088	24992
616	14.648989	103915520	72495104	39179520	24992
617	15.308469	103915520	72495104	33309896	24992
618	13.466634	103915520	72495104	44542016	24992
619	16.805122	103915520	72495104	39998936	24992
620	17.951352	103915520	72495104	36119240	24992
621	18.318855	103915520	72495104	32882376	24992
622	0.820646	103915520	72495104	46699096	24992
623	1.551463	103915520	72495104	48036824	24992
624	5.423209	103915520	72495104	33588392	24992
625	3.105274	103915520	72495104	36244936	24992
626	3.857201	103915520	72495104	39561392	24992
627	4.59131	103915520	72495104	43537256	24992
628	5.510799	103915520	72495104	48172552	24992
629	9.451021	103915520	72495104	37037704	24992
630	6.729475	103915520	72495104	42992736	24992
631	10.654685	103915520	72495104	33177512	24992
632	8.489457	103915520	72495104	40451352	24992
633	12.301421	103915520	72495104	31944192	24992
634	9.770142	103915520	72495104	40536840	24992
635	14.25474	103915520	72495104	33355288	24992
636	11.41845	103915520	72495104	43266760	24992
637	15.135319	103915520	72495104	37412136	24992
638	16.104689	103915520	72495104	32207408	24992
639	14.306035	103915520	72495104	44101864	24992
640	17.436327	103915520	72495104	40221712	24992
641	18.567204	103915520	72495104	37004632	24992
642	0.823924	103915520	72495104	34366256	24992
643	1.547351	103915520	72495104	35703984	24992
644	2.285903	103915520	72495104	37701120	24992
645	3.232609	103915520	72495104	40357664	24992
646	3.974192	103915520	72495104	43674152	24992
647	4.743547	103915520	72495104	47650016	24992
648	8.881452	103915520	72495104	35847888	24992
649	6.195155	103915520	72495104	41142560	24992
650	6.719835	103915520	72495104	47097592	24992
651	10.996932	103915520	72495104	37293712	24992
652	8.238464	103915520	72495104	44567552	24992
653	12.393764	103915520	72495104	36068560	24992
654	9.990278	103915520	72495104	44661200	24992
655	13.760632	103915520	72495104	37479312	24992
656	11.524195	103915520	72495104	47390816	24992
657	15.396619	103915520	72495104	41535888	24992
658	16.373561	103915520	72495104	36330664	24992
659	13.669252	103915520	72495104	48222240	24992
660	17.582798	103915520	72495104	44341224	24992
661	18.795682	103915520	72495104	41123728	24992
662	0.815788	103915520	72495104	38484616	24992
663	1.592563	103915520	72495104	39822344	24992
664	2.308789	103915520	72495104	41819480	24992
665	3.059338	103915520	72495104	44476024	24992
666	3.800533	103915520	72495104	47792480	24992
667	8.050308	103915520	72495104	35321800	24992
668	5.527771	103915520	72495104	39957064	24992
669	6.207455	103915520	72495104	45251800	24992
670	10.293625	103915520	72495104	34776384	24992
671	7.934169	103915520	72495104	41390824	24992
672	8.664497	103915520	72495104	48664664	24992
673	12.320179	103915520	72495104	40173776	24992
674	9.916946	103915520	72495104	48766416	24992
675	14.013664	103915520	72495104	41595800	24992
676	14.531836	103915520	72495104	35063512	24992
677	12.172406	103915520	72495104	45634376	24992
678	16.297734	103915520	72495104	40428720	24992
679	16.785528	103915520	72495104	35886272	24992
680	14.414083	103915520	72495104	48437584	24992
681	18.667344	103915520	72495104	45219816	24992
682	0.816221	103915520	72495104	42602128	24992
683	1.727225	103915520	72495104	43939856	24992
684	2.297561	103915520	72495104	45936992	24992
685	3.062624	103915520	72495104	48593536	24992
686	7.0759	103915520	72495104	35455352	24992
687	4.506846	103915520	72495104	39431216	24992
688	5.447141	103915520	72495104	44066480	24992
689	5.977109	103915520	72495104	49361152	24992
690	10.322402	103915520	72495104	38884832	24992
691	7.516844	103915520	72495104	45499272	24992
692	11.799434	103915520	72495104	36343544	24992
693	8.966972	103915520	72495104	44276792	24992
694	13.326288	103915520	72495104	36431168	24992
695	10.720969	103915520	72495104	45683216	24992
696	15.079472	103915520	72495104	39164872	24992
697	15.330135	103915520	72495104	33295256	24992
698	13.061021	103915520	72495104	44527384	24992
699	17.025949	103915520	72495104	39984320	24992
700	17.817637	103915520	72495104	36104640	24992
701	15.381682	103915520	72495104	49315328	24992
702	0.830962	103915520	72495104	46696448	24992
703	1.545956	103915520	72495104	48034176	24992
704	5.657738	103915520	72495104	33586424	24992
705	3.28432	103915520	72495104	36242960	24992
706	3.763448	103915520	72495104	39559416	24992
707	4.513257	103915520	72495104	43535296	24992
708	5.229052	103915520	72495104	48170560	24992
709	9.709298	103915520	72495104	37023296	24992
710	6.750417	103915520	72495104	42978392	24992
711	7.687027	103915520	72495104	49592832	24992
712	11.710184	103915520	72495104	40449184	24992
713	9.176833	103915520	72495104	48382432	24992
714	13.393557	103915520	72495104	40547872	24992
715	10.662311	103915520	72495104	49799920	24992
716	15.086762	103915520	72495104	43280728	24992
717	15.630324	103915520	72495104	37411088	24992
718	12.912661	103915520	72495104	48643208	24992
719	17.592517	103915520	72495104	44099888	24992
720	17.800701	103915520	72495104	40220032	24992
721	18.565551	103915520	72495104	36982240	24992
722	4.282473	103915520	72495104	34345040	24992
723	1.560644	103915520	72495104	35682768	24992
724	2.277534	103915520	72495104	37679904	24992
725	3.0039	103915520	72495104	40336448	24992
726	3.751625	103915520	72495104	43652904	24992
727	4.765776	103915520	72495104	47628768	24992
728	8.971645	103915520	72495104	35826824	24992
729	5.993453	103915520	72495104	41121496	24992
730	6.723358	103915520	72495104	47076528	24992
731	11.462051	103915520	72495104	37269696	24992
732	8.21394	103915520	72495104	44543536	24992
733	12.683106	103915520	72495104	36044672	24992
734	9.712478	103915520	72495104	44637312	24992
735	14.186172	103915520	72495104	37455584	24992
736	11.39528	103915520	72495104	47367120	24992
737	15.694956	103915520	72495104	41512352	24992
738	16.771443	103915520	72495104	36307112	24992
739	13.479996	103915520	72495104	48198640	24992
740	18.167856	103915520	72495104	44318376	24992
741	18.673307	103915520	72495104	41101328	24992
742	0.840622	103915520	72495104	38462056	24992
743	1.545356	103915520	72495104	39799784	24992
744	2.293255	103915520	72495104	41796920	24992
745	3.284347	103915520	72495104	44453464	24992
746	3.972952	103915520	72495104	47769984	24992
747	8.468413	103915520	72495104	35299432	24992
748	5.247586	103915520	72495104	39934696	24992
749	6.170726	103915520	72495104	45229368	24992
750	10.36382	103915520	72495104	34754176	24992
751	7.504524	103915520	72495104	41368696	24992
752	8.420419	103915520	72495104	48642600	24992
753	12.753077	103915520	72495104	40152432	24992
754	9.714547	103915520	72495104	48745072	24992
755	14.466031	103915520	72495104	41575192	24992
756	14.997457	103915520	72495104	35042952	24992
757	11.941798	103915520	72495104	45613816	24992
758	16.640759	103915520	72495104	40408192	24992
759	17.694526	103915520	72495104	35865600	24992
760	14.794602	103915520	72495104	48416896	24992
761	19.164912	103915520	72495104	45199144	24992
762	0.822744	103915520	72495104	42581440	24992
763	1.558761	103915520	72495104	43919416	24992
764	2.524628	103915520	72495104	45916544	24992
765	3.059817	103915520	72495104	48573088	24992
766	7.448424	103915520	72495104	35434904	24992
767	4.748036	103915520	72495104	39410768	24992
768	5.730528	103915520	72495104	44046032	24992
769	5.965213	103915520	72495104	49340704	24992
770	10.36608	103915520	72495104	38865056	24992
771	7.70194	103915520	72495104	45479496	24992
772	12.063745	103915520	72495104	36324008	24992
773	9.000497	103915520	72495104	44257256	24992
774	13.379863	103915520	72495104	36412064	24992
775	10.763897	103915520	72495104	45664112	24992
776	15.087371	103915520	72495104	39145992	24992
777	12.203556	103915520	72495104	49716856	24992
778	16.74846	103915520	72495104	44527512	24992
779	17.104682	103915520	72495104	39984888	24992
780	18.103913	103915520	72495104	36086464	24992
781	14.927819	103915520	72495104	49297152	24992
782	0.82091	103915520	72495104	46679168	24992
783	1.539971	103915520	72495104	48016896	24992
784	2.282425	103915520	72495104	50014032	24992
785	6.701188	103915520	72495104	36231696	24992
786	3.872627	103915520	72495104	39548152	24992
787	4.727585	103915520	72495104	43524016	24992
788	5.233976	103915520	72495104	48159280	24992
789	9.936109	103915520	72495104	37012256	24992
790	6.732169	103915520	72495104	42967288	24992
791	7.731333	103915520	72495104	49581728	24992
792	12.130076	103915520	72495104	40432784	24992
793	9.228018	103915520	72495104	48366032	24992
794	13.414174	103915520	72495104	40531504	24992
795	10.673541	103915520	72495104	49783632	24992
796	15.11284	103915520	72495104	43265064	24992
797	15.83257	103915520	72495104	37395392	24992
798	13.120468	103915520	72495104	48627512	24992
799	17.153255	103915520	72495104	44084368	24992
800	18.656262	103915520	72495104	40204672	24992
801	19.082668	103915520	72495104	36967760	24992
802	0.82252	103915520	72495104	50784496	24992
803	5.549766	103915520	72495104	35672392	24992
804	2.321427	103915520	72495104	37669520	24992
805	3.025882	103915520	72495104	40326064	24992
806	3.975233	103915520	72495104	43642520	24992
807	4.493475	103915520	72495104	47618384	24992
808	9.014375	103915520	72495104	35816488	24992
809	6.102413	103915520	72495104	41111152	24992
810	7.264824	103915520	72495104	47066232	24992
811	11.869337	103915520	72495104	37255648	24992
812	8.70779	103915520	72495104	44529488	24992
813	12.967871	103915520	72495104	36030840	24992
814	10.160688	103915520	72495104	44623520	24992
815	14.544422	103915520	72495104	37441968	24992
816	11.267084	103915520	72495104	47353424	24992
817	15.971132	103915520	72495104	41498784	24992
818	16.83005	103915520	72495104	36293992	24992
819	13.90767	103915520	72495104	48185520	24992
820	18.373785	103915520	72495104	44305368	24992
821	19.105973	103915520	72495104	41088272	24992
822	1.037173	103915520	72495104	38449936	24992
823	1.550275	103915520	72495104	39787672	24992
824	2.286109	103915520	72495104	41784808	24992
825	3.007926	103915520	72495104	44441352	24992
826	3.795283	103915520	72495104	47757808	24992
827	4.498564	103915520	72495104	51733672	24992
828	9.30044	103915520	72495104	39930872	24992
829	5.997869	103915520	72495104	45225608	24992
830	6.939308	103915520	72495104	51180640	24992
831	11.337916	103915520	72495104	41376856	24992
832	8.226274	103915520	72495104	48650696	24992
833	13.108101	103915520	72495104	40151592	24992
834	10.031637	103915520	72495104	48744232	24992
835	14.96693	103915520	72495104	41563176	24992
836	11.340143	103915520	72495104	51474648	24992
837	16.390147	103915520	72495104	45621352	24992
838	20.891763	103915520	72495104	40417616	24992
839	20.26525	103915520	72495104	19599040	24992
840	15.035307	103915520	72495104	15675600	24992
841	15.749723	103915520	72495104	12417688	24992
842	0.839445	103915520	72495104	26236360	24992
843	1.558651	103915520	72495104	27574328	24992
844	2.736654	103915520	72495104	13094232	24992
845	3.045547	103915520	72495104	15751176	24992
846	3.780463	103915520	72495104	19068208	24992
847	4.540642	103915520	72495104	23044632	24992
848	5.282261	103915520	72495104	27680568	24992
849	6.632323	103915520	72495104	16501376	24992
850	6.993353	103915520	72495104	22467544	24992
851	7.97661	103915520	72495104	12639800	24992
852	8.314178	103915520	72495104	19914648	24992
853	9.246133	103915520	72495104	11391072	24992
854	10.001693	103915520	72495104	19984840	24992
855	11.084445	103915520	72495104	12769928	24992
856	11.316761	103915520	72495104	22682712	24992
857	12.575015	103915520	72495104	16789416	24992
858	13.898645	103915520	72495104	11554672	24992
859	13.829127	103915520	72495104	23447720	24992
860	14.877929	103915520	72495104	19534032	24992
861	15.774317	103915520	72495104	16281432	24992
862	0.825557	103915520	72495104	13625696	24992
863	1.558459	103915520	72495104	14963664	24992
864	2.307326	103915520	72495104	16961120	24992
865	3.045405	103915520	72495104	19618064	24992
866	3.782039	103915520	72495104	22935048	24992
867	4.75971	103915520	72495104	26911512	24992
868	5.893419	103915520	72495104	15079136	24992
869	6.36638	103915520	72495104	20374528	24992
870	7.680381	103915520	72495104	26330376	24992
871	8.312857	103915520	72495104	16499912	24992
872	8.666652	103915520	72495104	23774712	24992
873	9.539291	103915520	72495104	15241624	24992
874	9.723363	103915520	72495104	23835384	24992
875	10.816122	103915520	72495104	16620472	24992
876	11.505841	103915520	72495104	26533256	24992
877	12.662439	103915520	72495104	20640088	24992
878	13.014222	103915520	72495104	15405248	24992
879	13.895255	103915520	72495104	27298296	24992
880	14.689609	103915520	72495104	23384016	24992
881	15.664991	103915520	72495104	20131352	24992
882	0.840666	103915520	72495104	17475120	24992
883	1.599578	103915520	72495104	18813088	24992
884	2.347007	103915520	72495104	20810544	24992
885	3.085936	103915520	72495104	23467488	24992
886	3.855592	103915520	72495104	26784504	24992
887	5.078995	103915520	72495104	14287448	24992
888	5.27772	103915520	72495104	18923352	24992
889	6.234955	103915520	72495104	24218744	24992
890	6.998044	103915520	72495104	13710448	24992
891	8.343108	103915520	72495104	20329776	24992
892	8.491935	103915520	72495104	27603664	24992
893	9.54026	103915520	72495104	19071784	24992
894	9.706651	103915520	72495104	27664424	24992
895	10.70138	103915520	72495104	20451552	24992
896	11.788997	103915520	72495104	13892112	24992
897	12.237433	103915520	72495104	24462976	24992
898	13.017578	103915520	72495104	19226248	24992
899	14.208953	103915520	72495104	14650632	24992
900	14.214139	103915520	72495104	27202024	24992
901	15.407302	103915520	72495104	23947472	24992
902	0.818503	103915520	72495104	21295464	24992
903	1.55806	103915520	72495104	22633192	24992
904	2.329727	103915520	72495104	24630328	24992
905	3.107656	103915520	72495104	27286872	24992
906	4.029756	103915520	72495104	14126280	24992
907	4.741138	103915520	72495104	18102144	24992
908	5.345474	103915520	72495104	22737440	24992
909	6.204342	103915520	72495104	28032144	24992
910	7.052167	103915520	72495104	17522144	24992
911	7.496834	103915520	72495104	24136616	24992
912	8.6896	103915520	72495104	14944136	24992
913	8.970279	103915520	72495104	22877448	24992
914	10.275794	103915520	72495104	15000544	24992
915	10.454389	103915520	72495104	24252688	24992
916	11.67953	103915520	72495104	17697480	24992
917	12.579372	103915520	72495104	28272624	24992
918	13.402236	103915520	72495104	23040864	24992
919	14.173066	103915520	72495104	18465800	24992
920	14.456841	103915520	72495104	14545168	24992
921	15.151023	103915520	72495104	27755872	24992
922	0.8207	103915520	72495104	25102960	24992
923	1.56155	103915520	72495104	26440688	24992
924	2.320438	103915520	72495104	28437824	24992
925	3.255172	103915520	72495104	14620200	24992
926	3.774484	103915520	72495104	17936656	24992
927	4.728831	103915520	72495104	21912520	24992
928	5.240624	103915520	72495104	26547832	24992
929	6.513782	103915520	72495104	15373848	24992
930	6.74705	103915520	72495104	21328880	24992
931	7.47739	103915520	72495104	27943352	24992
932	8.6768	103915520	72495104	18752728	24992
933	9.270169	103915520	72495104	26686024	24992
934	10.160343	103915520	72495104	18812712	24992
935	10.532172	103915520	72495104	28064776	24992
936	11.6639	103915520	72495104	21508640	24992
937	12.388235	103915520	72495104	15609816	24992
938	12.690261	103915520	72495104	26841936	24992
939	13.912396	103915520	72495104	22265640	24992
940	14.87077	103915520	72495104	18351032	24992
941	15.563743	103915520	72495104	15090824	24992
942	1.07398	103915520	72495104	12425112	24992
943	1.585287	103915520	72495104	13762840	24992
944	2.702088	103915520	72495104	15759976	24992
945	3.027903	103915520	72495104	18416520	24992
946	3.76457	103915520	72495104	21732976	24992
947	4.734809	103915520	72495104	25708840	24992
948	5.492431	103915520	72495104	13874552	24992
949	6.005727	103915520	72495104	19169256	24992
950	6.718297	103915520	72495104	25124288	24992
951	7.952384	103915520	72495104	15277136	24992
952	8.477438	103915520	72495104	22550976	24992
953	9.332982	103915520	72495104	14017248	24992
954	9.898002	103915520	72495104	22609888	24992
955	11.056329	103915520	72495104	15394176	24992
956	11.42391	103915520	72495104	25305632	24992
957	12.346488	103915520	72495104	19411344	24992
958	13.320008	103915520	72495104	14175048	24992
959	13.984796	103915520	72495104	26066576	24992
960	14.667593	103915520	72495104	22151416	24992
961	15.386652	103915520	72495104	18897744	24992
962	0.822858	103915520	72495104	16241040	24992
963	1.544937	103915520	72495104	17578768	24992
964	2.500794	103915520	72495104	19575904	24992
965	3.010443	103915520	72495104	22232448	24992
966	3.750634	103915520	72495104	25548904	24992
967	4.970716	103915520	72495104	13051504	24992
968	5.25446	103915520	72495104	17686776	24992
969	5.99019	103915520	72495104	22981448	24992
970	6.900842	103915520	72495104	28936480	24992
971	8.066419	103915520	72495104	19090520	24992
972	8.326009	103915520	72495104	26364360	24992
973	9.437042	103915520	72495104	17833192	24992
974	9.782564	103915520	72495104	26425880	24992
975	11.177581	103915520	72495104	19209528	24992
976	11.418295	103915520	72495104	29121032	24992
977	12.249642	103915520	72495104	23216200	24992
978	13.199581	103915520	72495104	17979680	24992
979	14.09183	103915520	72495104	13402176	24992
980	14.447962	103915520	72495104	25953456	24992
981	15.789501	103915520	72495104	22699000	24992
982	0.815186	103915520	72495104	20047464	24992
983	1.555546	103915520	72495104	21385200	24992
984	2.275969	103915520	72495104	23382336	24992
985	3.237923	103915520	72495104	26038880	24992
986	3.980125	103915520	72495104	12878400	24992
987	4.504744	103915520	72495104	16854264	24992
988	5.74744	103915520	72495104	21489576	24992
989	5.983231	103915520	72495104	26784328	24992
990	7.000331	103915520	72495104	16275016	24992
991	7.703502	103915520	72495104	22889456	24992
992	8.475354	103915520	72495104	13697488	24992
993	9.185289	103915520	72495104	21630736	24992
994	9.965401	103915520	72495104	13754120	24992
995	10.676167	103915520	72495104	23006184	24992
996	11.842364	103915520	72495104	16451392	24992
997	12.076312	103915520	72495104	27022336	24992
998	13.373306	103915520	72495104	21790608	24992
999	14.159957	103915520	72495104	17214992	24992
1000	14.656351	103915520	72495104	13295248	24992
